{"data":[{"txHash":"139c9adddfda2df9e49779ea80ab3ceb55b350c177ec70112871d1389607196a","value":618306,"fee":171573,"time":"2023/06/15 03:25:55"},{"txHash":"b736c7392c69dc2f2328332b9c163190a397220c43d428e622b0975add3ab7d9","value":542259,"fee":171573,"time":"2023/06/11 03:48:23"},{"txHash":"a0ab867385446fc67fafb779bfaa6f1061b551cd5562be1d1cbf338d376e0077","value":4342,"fee":171485,"time":"2023/06/07 14:16:59"},{"txHash":"4c3a5e739efc04d582c17975a709ff4211ba98ee9e33a66bfbe1be55dc918df0","value":3962599,"fee":171573,"time":"2023/05/31 04:16:16"},{"txHash":"cfe65f7c649041784aeb11989258d70a65ba5c9462153cd19fef6cda347f0209","value":3875723,"fee":171573,"time":"2023/05/26 03:52:27"},{"txHash":"2f59cbd1bae09e627e23ac9d2639ef6dcde46c80f6094e3cef278c2882b4edbc","value":4714280,"fee":171573,"time":"2023/05/21 00:06:04"},{"txHash":"7b729c687a93098aac2b9490413637ff8d2ba29dcdd0c09f57a48eb48c3e7ba0","value":3806002,"fee":171573,"time":"2023/05/16 04:19:51"},{"txHash":"6dec159d5d7b199c6bfe1ae4f46f65a3cfbdd7389ab314da6b63cd756da97088","value":5566597,"fee":171573,"time":"2023/05/11 02:04:58"},{"txHash":"cdf5300a449c86a6b8c283ea9d82085b337156eefd33e2477ccd68da9f0a8121","value":4430507,"fee":171573,"time":"2023/05/06 05:28:28"},{"txHash":"5e2891a4803673a77182ad61db4be8156ee9b42e29be19d560a38f9bce47de45","value":4347218,"fee":171573,"time":"2023/05/01 04:46:20"},{"txHash":"664754a7f120c19c785aca9a02d384c9da1d9d149a410b04d174dbd209bdd6e2","value":4693954,"fee":171573,"time":"2023/04/26 04:04:55"},{"txHash":"dcc5e81bb4fc2f5ccff7c477a577691163d97eee1e5c649915546f20500783da","value":3948212,"fee":171573,"time":"2023/04/21 03:32:56"},{"txHash":"cd6c8b01668a1f2d51d753301abd1114eaec0576b16ed432f0a0d858d0fd5bb7","value":5734514,"fee":171573,"time":"2023/04/16 05:04:11"},{"txHash":"fa4040d157a147b02655dcc35cd9fa7e84b49a06a914a6735633c58af60ce778","value":3642294,"fee":171573,"time":"2023/04/11 04:21:42"},{"txHash":"b38bafdbd38231e3dedc113abd0e142d7f8b5114cf390d018e1967e29aea1889","value":3583656,"fee":171749,"time":"2023/04/06 04:38:56"},{"txHash":"8f1987a7907abd32894f37679097c6cae96257cf494e38042c95427097b07627","value":2864821,"fee":171573,"time":"2023/04/01 03:10:25"},{"txHash":"6e55997063d22c0165c3f9e51e37dc1eb6dad3868325caa13f47186f6ed351cc","value":3274478,"fee":171573,"time":"2023/03/27 05:24:49"},{"txHash":"928a31b071e0441c1dd34ce9c11054c000011fb5c430b9be2fdd5b97f2446a64","value":4686878,"fee":171573,"time":"2023/03/22 07:06:47"},{"txHash":"e296b79dc9059a18f05bf41d481faba4324f13e94ea6a8b1f823675ed0d6b14f","value":4582095,"fee":171573,"time":"2023/03/17 05:18:01"},{"txHash":"7747fa42c06eca10bed68cba891584aa78af74a4dbf696e04d8455ffefe254ba","value":4213756,"fee":171573,"time":"2023/03/12 07:15:32"}],"totalItems":76,"totalPages":4,"currentPage":0,"isDataOverSize":null}