{"data":[{"policy":"1e62c6c94cbd1a964e0f76dd9f8cdd83a8f000cfa242a20f9b8570c1","name":"4164616c616e74696342756464696573313335","displayName":"AdalanticBuddies135","fingerprint":"asset1wgavu2ku99hlzqq5skjeh57dmqjg98uly59w9u","quantity":1},{"policy":"21df12480552592031f6f4d0db4cf6f0de6f4a5c2eb63f3b5062580d","name":"43617264614c6f72647a3136","displayName":"CardaLordz16","fingerprint":"asset17kgf38m2pthf30yta39d0rryta3s82dfc4j9ms","quantity":1},{"policy":"11140b49b060dbddd24462ab86f22c0d013006c233228c7f339afcf2","name":"4164616c616e746963446f6c7068696e30343031","displayName":"AdalanticDolphin0401","fingerprint":"asset17nrulyr5mlfgx3luj596pafexc2aqkyf3gy0ye","quantity":1},{"policy":"11140b49b060dbddd24462ab86f22c0d013006c233228c7f339afcf2","name":"4164616c616e746963446f6c7068696e30313937","displayName":"AdalanticDolphin0197","fingerprint":"asset19m3r9q9kslvsdpcuk8hwtdmg8lk5n0tf730dkv","quantity":1},{"policy":"f11ddbdadbc7b78b7110293281844ba8acac918f1ed5767539d7d52e","name":"476f6f667947616e6734393330","displayName":"GoofyGang4930","fingerprint":"asset1zmr44uvmm0qc0qx54gxlfu0nfesljhmnsnnhae","quantity":1},{"policy":"f11ddbdadbc7b78b7110293281844ba8acac918f1ed5767539d7d52e","name":"476f6f667947616e6732393035","displayName":"GoofyGang2905","fingerprint":"asset1dhkvwkak88ahh4aqxdfl4vhvkx6vmc2zf30sj9","quantity":1},{"policy":"aa63d7de85fb677012ab0f3effa8ea1475d569c3801420b475efaefa","name":"55474c593033363132","displayName":"UGLY03612","fingerprint":"asset1xfzpkfdqhkajss56a4cnzw6fpj5majf6rckcr5","quantity":1},{"policy":"4277af377ea2832f66d907636590bcbe822e4b009d254d28d84bd7cb","name":"43617264616e6f4b69647a303034374643303138","displayName":"CardanoKidz0047FC018","fingerprint":"asset15edr9q4myxwhpu32dddaekdnfsuard6q5ctrsz","quantity":1},{"policy":"e986d38f4ead45a4f909cb51d61d8d95efc72b12d9302cdd040974d1","name":"486f736b696e736f6e7336333739","displayName":"Hoskinsons6379","fingerprint":"asset1vjjemxqaq7h85npxty9nhafttv3gszthpfkcrw","quantity":1},{"policy":"4277af377ea2832f66d907636590bcbe822e4b009d254d28d84bd7cb","name":"43617264616e6f4b69647a303034364643313833","displayName":"CardanoKidz0046FC183","fingerprint":"asset15udtmefxe0ggk8ptaffpu58ng9ud4jkxena6wx","quantity":1},{"policy":"4277af377ea2832f66d907636590bcbe822e4b009d254d28d84bd7cb","name":"43617264616e6f4b69647a303034314643313833","displayName":"CardanoKidz0041FC183","fingerprint":"asset1ymuzpw0rhxhevmtlkqygc95wd3y3cteugs9xze","quantity":1},{"policy":"4277af377ea2832f66d907636590bcbe822e4b009d254d28d84bd7cb","name":"43617264616e6f4b69647a303034354643313833","displayName":"CardanoKidz0045FC183","fingerprint":"asset1utflgdnr3n3y3a45slkfarx6c59raq8f9rgf55","quantity":1},{"policy":"4277af377ea2832f66d907636590bcbe822e4b009d254d28d84bd7cb","name":"43617264616e6f4b69647a303034344643313833","displayName":"CardanoKidz0044FC183","fingerprint":"asset1r5akckszemv3ppzazmm5tdhk9xyh0vddeuhj03","quantity":1},{"policy":"4277af377ea2832f66d907636590bcbe822e4b009d254d28d84bd7cb","name":"43617264616e6f4b69647a303034334643313833","displayName":"CardanoKidz0043FC183","fingerprint":"asset1et29fu3wpsxz9ty0nzsynz6puh3mwan7wr8zes","quantity":1},{"policy":"7f99c7ca1427b416e0eafb93132f6a13d081d7c61ef0debb4a77d2cd","name":"43617264616e6f4b69647a303036304643303138","displayName":"CardanoKidz0060FC018","fingerprint":"asset1c30mflr3dwv6cy9ghayey223nqgcflhwhj5mpn","quantity":1},{"policy":"e986d38f4ead45a4f909cb51d61d8d95efc72b12d9302cdd040974d1","name":"486f736b696e736f6e7338313330","displayName":"Hoskinsons8130","fingerprint":"asset1wjnrmvx9yc6e6u6k68v74js77m4uugd76pc4lx","quantity":1},{"policy":"e986d38f4ead45a4f909cb51d61d8d95efc72b12d9302cdd040974d1","name":"486f736b696e736f6e7336383332","displayName":"Hoskinsons6832","fingerprint":"asset199070c43d9xtnv0rsndpcdz28euwk637rvhz3h","quantity":1},{"policy":"e986d38f4ead45a4f909cb51d61d8d95efc72b12d9302cdd040974d1","name":"486f736b696e736f6e7336383538","displayName":"Hoskinsons6858","fingerprint":"asset1ee3plnmkcgyprk95tyr5mg2jzls54zz05j0agf","quantity":1},{"policy":"e986d38f4ead45a4f909cb51d61d8d95efc72b12d9302cdd040974d1","name":"486f736b696e736f6e7334363338","displayName":"Hoskinsons4638","fingerprint":"asset1zap004xhtuk9fkxlgy7dcn3j0ck36hr3flavv3","quantity":1},{"policy":"e986d38f4ead45a4f909cb51d61d8d95efc72b12d9302cdd040974d1","name":"486f736b696e736f6e7338353334","displayName":"Hoskinsons8534","fingerprint":"asset15q99m6kcs3ratcu9lk60k6yw4am9hw626d4x38","quantity":1},{"policy":"5d2c310ba30ee79a9139defb690af87a110444492c9caf4b2038e0f1","name":"43617264616e6f4b69647a303033374643313137","displayName":"CardanoKidz0037FC117","fingerprint":"asset1ewda59aa9qgu64gz05tmha2rfyd9a5msfhspep","quantity":1},{"policy":"5d2c310ba30ee79a9139defb690af87a110444492c9caf4b2038e0f1","name":"43617264616e6f4b69647a303033364643303630","displayName":"CardanoKidz0036FC060","fingerprint":"asset1ftjhcx6yhhr6lyfnrv2ynelh3lvpex6jwjl9f8","quantity":1},{"policy":"5d2c310ba30ee79a9139defb690af87a110444492c9caf4b2038e0f1","name":"43617264616e6f4b69647a303034304643313838","displayName":"CardanoKidz0040FC188","fingerprint":"asset177wlxcvyhz3a5dym3aqyfcanwkhjr2h89knhjz","quantity":1},{"policy":"c151d590a43e9ac553239d29a9c732562035e61833cce9c5797202df","name":"5361645268696e6f30313437","displayName":"SadRhino0147","fingerprint":"asset16a3d65g55xce5p89t47p8dasna3hxjutpdcc2s","quantity":1},{"policy":"fbfef0c4d74ae29cb8e2f80bb58cb2ea22d023a0f427214a9c10d0d1","name":"5468654d616e6472696c6c7a576f726c6463757033333223313233","displayName":"TheMandrillzWorldcup332#123","fingerprint":"asset1d094e7krv30smsspxrf6avq35rpjdghqwalfja","quantity":1},{"policy":"fbfef0c4d74ae29cb8e2f80bb58cb2ea22d023a0f427214a9c10d0d1","name":"5468654d616e6472696c6c7a576f726c646375703323313336","displayName":"TheMandrillzWorldcup3#136","fingerprint":"asset1yfjyzyanszvqr9yth4jt0l3tqkkd9qt69uz9af","quantity":1},{"policy":"fbfef0c4d74ae29cb8e2f80bb58cb2ea22d023a0f427214a9c10d0d1","name":"5468654d616e6472696c6c7a576f726c64637570333423313936","displayName":"TheMandrillzWorldcup34#196","fingerprint":"asset1gd3mq7907yn2l738xuvvtkyafhm2d7dur2ekyg","quantity":1},{"policy":"fbfef0c4d74ae29cb8e2f80bb58cb2ea22d023a0f427214a9c10d0d1","name":"5468654d616e6472696c6c7a576f726c64637570313923313037","displayName":"TheMandrillzWorldcup19#107","fingerprint":"asset1zp3twupret34udve7f2xxxulwg6qv2t0u3r9sk","quantity":1},{"policy":"fbfef0c4d74ae29cb8e2f80bb58cb2ea22d023a0f427214a9c10d0d1","name":"5468654d616e6472696c6c7a576f726c6463757033353323313831","displayName":"TheMandrillzWorldcup353#181","fingerprint":"asset1cvh02dykllpz8mae5cask3psuk83qs83ks0vsp","quantity":1},{"policy":"fbfef0c4d74ae29cb8e2f80bb58cb2ea22d023a0f427214a9c10d0d1","name":"5468654d616e6472696c6c7a576f726c64637570313339233731","displayName":"TheMandrillzWorldcup139#71","fingerprint":"asset1pm0h2gqnffed3uvrnjqstjs9zlt3xgfg93erc5","quantity":1},{"policy":"fbfef0c4d74ae29cb8e2f80bb58cb2ea22d023a0f427214a9c10d0d1","name":"5468654d616e6472696c6c7a576f726c646375703335233635","displayName":"TheMandrillzWorldcup35#65","fingerprint":"asset14ev3mzwyedhd5as0kcmypjsmn8ng8mnqzze22r","quantity":1},{"policy":"fbfef0c4d74ae29cb8e2f80bb58cb2ea22d023a0f427214a9c10d0d1","name":"5468654d616e6472696c6c7a576f726c6463757033333723313932","displayName":"TheMandrillzWorldcup337#192","fingerprint":"asset1nfr7v8jgn6yh5a6lfl7qcv5ujcmt92zz0vxqhf","quantity":1},{"policy":"fbfef0c4d74ae29cb8e2f80bb58cb2ea22d023a0f427214a9c10d0d1","name":"5468654d616e6472696c6c7a576f726c64637570313123313832","displayName":"TheMandrillzWorldcup11#182","fingerprint":"asset1typ6w7mutqztcp672xxc68lrgkyujtnlz8pyl0","quantity":1},{"policy":"fbfef0c4d74ae29cb8e2f80bb58cb2ea22d023a0f427214a9c10d0d1","name":"5468654d616e6472696c6c7a576f726c64637570323823333334","displayName":"TheMandrillzWorldcup28#334","fingerprint":"asset1xx54h3chh079kdkrgjuzpz7qzecq9uda6tj8yq","quantity":1},{"policy":"fbfef0c4d74ae29cb8e2f80bb58cb2ea22d023a0f427214a9c10d0d1","name":"5468654d616e6472696c6c7a576f726c6463757033363823333436","displayName":"TheMandrillzWorldcup368#346","fingerprint":"asset1t0gd0cjjqws9gtn0sxymaxnh3e4u6ap2xf32uf","quantity":1},{"policy":"fbfef0c4d74ae29cb8e2f80bb58cb2ea22d023a0f427214a9c10d0d1","name":"5468654d616e6472696c6c7a576f726c6463757033353523333630","displayName":"TheMandrillzWorldcup355#360","fingerprint":"asset1707ekv8hshvs77rzmz4323mfak52zpczxk4vmz","quantity":1},{"policy":"fbfef0c4d74ae29cb8e2f80bb58cb2ea22d023a0f427214a9c10d0d1","name":"5468654d616e6472696c6c7a576f726c64637570313333233738","displayName":"TheMandrillzWorldcup133#78","fingerprint":"asset1wp2gyjwkzteejju0v8q6q0z8kcw0x5jr70vexa","quantity":1},{"policy":"fbfef0c4d74ae29cb8e2f80bb58cb2ea22d023a0f427214a9c10d0d1","name":"5468654d616e6472696c6c7a576f726c64637570313723333232","displayName":"TheMandrillzWorldcup17#322","fingerprint":"asset1y0ccw2jaylxat6uym9w5r8pem59x5f3vv8dczf","quantity":1},{"policy":"fbfef0c4d74ae29cb8e2f80bb58cb2ea22d023a0f427214a9c10d0d1","name":"5468654d616e6472696c6c7a576f726c646375703336233336","displayName":"TheMandrillzWorldcup36#36","fingerprint":"asset18c78tcy3w6tu0lt8qa7y83lxj35a5rgl2h7588","quantity":1},{"policy":"fbfef0c4d74ae29cb8e2f80bb58cb2ea22d023a0f427214a9c10d0d1","name":"5468654d616e6472696c6c7a576f726c64637570323238233533","displayName":"TheMandrillzWorldcup228#53","fingerprint":"asset14mc246u6ngnklsjm6wahpkvyfwpuf767ytyfpm","quantity":1},{"policy":"fbfef0c4d74ae29cb8e2f80bb58cb2ea22d023a0f427214a9c10d0d1","name":"5468654d616e6472696c6c7a576f726c64637570333732233438","displayName":"TheMandrillzWorldcup372#48","fingerprint":"asset1zy82rr6m5vncxk0dhujyyp0283qmtatzt8pv7j","quantity":1},{"policy":"fbfef0c4d74ae29cb8e2f80bb58cb2ea22d023a0f427214a9c10d0d1","name":"5468654d616e6472696c6c7a576f726c64637570313332233630","displayName":"TheMandrillzWorldcup132#60","fingerprint":"asset1q3wmd3m0mxl2hu5elfg29n8spt8a3kly5tf2lx","quantity":1},{"policy":"fbfef0c4d74ae29cb8e2f80bb58cb2ea22d023a0f427214a9c10d0d1","name":"5468654d616e6472696c6c7a576f726c64637570313638233632","displayName":"TheMandrillzWorldcup168#62","fingerprint":"asset1t552penslmldavs2zr0qmy48ru528acmsr3749","quantity":1},{"policy":"fbfef0c4d74ae29cb8e2f80bb58cb2ea22d023a0f427214a9c10d0d1","name":"5468654d616e6472696c6c7a576f726c64637570313536233430","displayName":"TheMandrillzWorldcup156#40","fingerprint":"asset18xvuwrj0r0rdkrug33g3vgzjew93sr3zn3wsf3","quantity":1},{"policy":"fbfef0c4d74ae29cb8e2f80bb58cb2ea22d023a0f427214a9c10d0d1","name":"5468654d616e6472696c6c7a576f726c64637570323136233539","displayName":"TheMandrillzWorldcup216#59","fingerprint":"asset1wlumhsd9qe2lr86manv94djv3asd6xxsl8ncnh","quantity":1},{"policy":"fbfef0c4d74ae29cb8e2f80bb58cb2ea22d023a0f427214a9c10d0d1","name":"5468654d616e6472696c6c7a576f726c64637570313434233338","displayName":"TheMandrillzWorldcup144#38","fingerprint":"asset1mgwf26tgu4nvglv25qa0x4vq4c29dcaft77vev","quantity":1},{"policy":"fbfef0c4d74ae29cb8e2f80bb58cb2ea22d023a0f427214a9c10d0d1","name":"5468654d616e6472696c6c7a576f726c64637570333438233434","displayName":"TheMandrillzWorldcup348#44","fingerprint":"asset1ejrw0j5w4dz5ju7ghfmrzlhfuzz9d224aj6xhf","quantity":1},{"policy":"fbfef0c4d74ae29cb8e2f80bb58cb2ea22d023a0f427214a9c10d0d1","name":"5468654d616e6472696c6c7a576f726c64637570323634233534","displayName":"TheMandrillzWorldcup264#54","fingerprint":"asset1n0ymmw9cxz3m4zys96a58ctxjzx0q9ldp4pnc4","quantity":1},{"policy":"fbfef0c4d74ae29cb8e2f80bb58cb2ea22d023a0f427214a9c10d0d1","name":"5468654d616e6472696c6c7a576f726c64637570333234233435","displayName":"TheMandrillzWorldcup324#45","fingerprint":"asset1ve8kudsk5rwwx3a2kqlah2q86e34k987cewre8","quantity":1},{"policy":"fbfef0c4d74ae29cb8e2f80bb58cb2ea22d023a0f427214a9c10d0d1","name":"5468654d616e6472696c6c7a576f726c64637570313830233533","displayName":"TheMandrillzWorldcup180#53","fingerprint":"asset1843yu4dfx37qjl8g3htp57par3guu5hz0r42dd","quantity":1},{"policy":"fbfef0c4d74ae29cb8e2f80bb58cb2ea22d023a0f427214a9c10d0d1","name":"5468654d616e6472696c6c7a576f726c64637570323034233437","displayName":"TheMandrillzWorldcup204#47","fingerprint":"asset1my82sx68frnr4at3cm5wy8hjj3gw5kz50ztt7y","quantity":1},{"policy":"fbfef0c4d74ae29cb8e2f80bb58cb2ea22d023a0f427214a9c10d0d1","name":"5468654d616e6472696c6c7a576f726c64637570333336233535","displayName":"TheMandrillzWorldcup336#55","fingerprint":"asset1t8shs07e2rtvd79knjvxyktlmc2d6gh3g5u5lt","quantity":1},{"policy":"fbfef0c4d74ae29cb8e2f80bb58cb2ea22d023a0f427214a9c10d0d1","name":"5468654d616e6472696c6c7a576f726c64637570313038233630","displayName":"TheMandrillzWorldcup108#60","fingerprint":"asset1xslnlgr5frl3s7y7aekczf5jt9vl2hga26wewy","quantity":1},{"policy":"fbfef0c4d74ae29cb8e2f80bb58cb2ea22d023a0f427214a9c10d0d1","name":"5468654d616e6472696c6c7a576f726c646375703234233337","displayName":"TheMandrillzWorldcup24#37","fingerprint":"asset137a9gls7snz3xjrvwj46qt9emuykjs5zz0f4ux","quantity":1},{"policy":"fbfef0c4d74ae29cb8e2f80bb58cb2ea22d023a0f427214a9c10d0d1","name":"5468654d616e6472696c6c7a576f726c64637570313230233632","displayName":"TheMandrillzWorldcup120#62","fingerprint":"asset10uttlae3hqltavxxetrft0zqrk0ckjpmxjafeh","quantity":1},{"policy":"fbfef0c4d74ae29cb8e2f80bb58cb2ea22d023a0f427214a9c10d0d1","name":"5468654d616e6472696c6c7a576f726c64637570323736233534","displayName":"TheMandrillzWorldcup276#54","fingerprint":"asset18r4p88zgy4kp36y5r5mmae4re5hxmx6kmux67j","quantity":1},{"policy":"fbfef0c4d74ae29cb8e2f80bb58cb2ea22d023a0f427214a9c10d0d1","name":"5468654d616e6472696c6c7a576f726c64637570323532233632","displayName":"TheMandrillzWorldcup252#62","fingerprint":"asset1fsshr9ytywrq46vygrqjrtmj3w70sck7g5p9r3","quantity":1},{"policy":"fbfef0c4d74ae29cb8e2f80bb58cb2ea22d023a0f427214a9c10d0d1","name":"5468654d616e6472696c6c7a576f726c64637570333630233433","displayName":"TheMandrillzWorldcup360#43","fingerprint":"asset1eze2wsa93lvg6u9rlmtawtdvafkufxhm4p7rr8","quantity":1},{"policy":"fbfef0c4d74ae29cb8e2f80bb58cb2ea22d023a0f427214a9c10d0d1","name":"5468654d616e6472696c6c7a576f726c64637570313835233632","displayName":"TheMandrillzWorldcup185#62","fingerprint":"asset16kk4u3q8lucyj5hqkxtkfugk27jg0hnk7yp3tn","quantity":1},{"policy":"fbfef0c4d74ae29cb8e2f80bb58cb2ea22d023a0f427214a9c10d0d1","name":"5468654d616e6472696c6c7a576f726c64637570323923313039","displayName":"TheMandrillzWorldcup29#109","fingerprint":"asset1x3srnyg3lfe2h5h8xm9wn8grtlru8z060smvq9","quantity":1},{"policy":"fbfef0c4d74ae29cb8e2f80bb58cb2ea22d023a0f427214a9c10d0d1","name":"5468654d616e6472696c6c7a576f726c64637570333323333133","displayName":"TheMandrillzWorldcup33#313","fingerprint":"asset1yua8950ulw3jq3xwkxmgn0tgnp0f47j0mp2063","quantity":1},{"policy":"fbfef0c4d74ae29cb8e2f80bb58cb2ea22d023a0f427214a9c10d0d1","name":"5468654d616e6472696c6c7a576f726c64637570323430233435","displayName":"TheMandrillzWorldcup240#45","fingerprint":"asset1kfpr6pmnsxme6wp54kzahewstwzh9dn4ze5nnm","quantity":1},{"policy":"fbfef0c4d74ae29cb8e2f80bb58cb2ea22d023a0f427214a9c10d0d1","name":"5468654d616e6472696c6c7a576f726c64637570333739233435","displayName":"TheMandrillzWorldcup379#45","fingerprint":"asset1m60guntzyfdkm90lvl7y7yyt03tw7v90juv4ph","quantity":1},{"policy":"fbfef0c4d74ae29cb8e2f80bb58cb2ea22d023a0f427214a9c10d0d1","name":"5468654d616e6472696c6c7a576f726c6463757033343123313235","displayName":"TheMandrillzWorldcup341#125","fingerprint":"asset1e8zl943lxhh5t6qu4tnl7yht3wtgk28fzukhx0","quantity":1},{"policy":"fbfef0c4d74ae29cb8e2f80bb58cb2ea22d023a0f427214a9c10d0d1","name":"5468654d616e6472696c6c7a576f726c64637570333233233639","displayName":"TheMandrillzWorldcup323#69","fingerprint":"asset1zjlgnnykpp72sph5jawh5usewa3ym2j6fdhvhg","quantity":1},{"policy":"fbfef0c4d74ae29cb8e2f80bb58cb2ea22d023a0f427214a9c10d0d1","name":"5468654d616e6472696c6c7a576f726c64637570333030233437","displayName":"TheMandrillzWorldcup300#47","fingerprint":"asset148tnpsch0qhscdz389s5sdfnfl72qdy8yuqt6u","quantity":1},{"policy":"fbfef0c4d74ae29cb8e2f80bb58cb2ea22d023a0f427214a9c10d0d1","name":"5468654d616e6472696c6c7a576f726c64637570323723313739","displayName":"TheMandrillzWorldcup27#179","fingerprint":"asset1ehfr0jtz70sf9z8rtg8uxtn2xenxu0fs5wa7pz","quantity":1},{"policy":"fbfef0c4d74ae29cb8e2f80bb58cb2ea22d023a0f427214a9c10d0d1","name":"5468654d616e6472696c6c7a576f726c6463757033373323313234","displayName":"TheMandrillzWorldcup373#124","fingerprint":"asset12rhs54r9hvdsafq8pc4jqc6s0l88egacmvvueg","quantity":1},{"policy":"fbfef0c4d74ae29cb8e2f80bb58cb2ea22d023a0f427214a9c10d0d1","name":"5468654d616e6472696c6c7a576f726c64637570333123313633","displayName":"TheMandrillzWorldcup31#163","fingerprint":"asset1p7qxkqduwhnq3r9ga334y8j2fl9hytazypflg9","quantity":1},{"policy":"fbfef0c4d74ae29cb8e2f80bb58cb2ea22d023a0f427214a9c10d0d1","name":"5468654d616e6472696c6c7a576f726c6463757033383323313335","displayName":"TheMandrillzWorldcup383#135","fingerprint":"asset1sfmfds8lvh5h7t0eua3ran2n7jfc9vxddq02lq","quantity":1},{"policy":"fbfef0c4d74ae29cb8e2f80bb58cb2ea22d023a0f427214a9c10d0d1","name":"5468654d616e6472696c6c7a576f726c64637570323831233931","displayName":"TheMandrillzWorldcup281#91","fingerprint":"asset16dvtg34w9sc7aahz4tqr2my267aayxxmq7a8st","quantity":1},{"policy":"fbfef0c4d74ae29cb8e2f80bb58cb2ea22d023a0f427214a9c10d0d1","name":"5468654d616e6472696c6c7a576f726c6463757033373623313030","displayName":"TheMandrillzWorldcup376#100","fingerprint":"asset1mzmglxhnj2z9qeclzymmfysc468nmmmxs4md7x","quantity":1},{"policy":"fbfef0c4d74ae29cb8e2f80bb58cb2ea22d023a0f427214a9c10d0d1","name":"5468654d616e6472696c6c7a576f726c6463757033373523313036","displayName":"TheMandrillzWorldcup375#106","fingerprint":"asset13gnpeg6swg56gzj5pe5g590h0tuh6e487lyuz2","quantity":1},{"policy":"fbfef0c4d74ae29cb8e2f80bb58cb2ea22d023a0f427214a9c10d0d1","name":"5468654d616e6472696c6c7a576f726c6463757033343523333233","displayName":"TheMandrillzWorldcup345#323","fingerprint":"asset16ze5ugmn0mnwdteqp9elcrdx9peuwvu6elrnmv","quantity":1},{"policy":"fbfef0c4d74ae29cb8e2f80bb58cb2ea22d023a0f427214a9c10d0d1","name":"5468654d616e6472696c6c7a576f726c64637570313932233335","displayName":"TheMandrillzWorldcup192#35","fingerprint":"asset1n23sn00p396pm0sfulk5kwxx7yuxzjvur0gvcz","quantity":1},{"policy":"fbfef0c4d74ae29cb8e2f80bb58cb2ea22d023a0f427214a9c10d0d1","name":"5468654d616e6472696c6c7a576f726c64637570333730233633","displayName":"TheMandrillzWorldcup370#63","fingerprint":"asset1v37hxv2kejcfc3jpw750nl4h8sqtafhkv9gmlg","quantity":1},{"policy":"fbfef0c4d74ae29cb8e2f80bb58cb2ea22d023a0f427214a9c10d0d1","name":"5468654d616e6472696c6c7a576f726c6463757033343423313937","displayName":"TheMandrillzWorldcup344#197","fingerprint":"asset1flduh86jq3kcq6l7nve84uu95wc0wsyrtcny9s","quantity":1},{"policy":"fbfef0c4d74ae29cb8e2f80bb58cb2ea22d023a0f427214a9c10d0d1","name":"5468654d616e6472696c6c7a576f726c64637570333132233339","displayName":"TheMandrillzWorldcup312#39","fingerprint":"asset1mehmatmtt7rsg35tddncdpdgclf07tf2kp4c4z","quantity":1},{"policy":"fbfef0c4d74ae29cb8e2f80bb58cb2ea22d023a0f427214a9c10d0d1","name":"5468654d616e6472696c6c7a576f726c6463757033363723333331","displayName":"TheMandrillzWorldcup367#331","fingerprint":"asset1ju2mmyhkeazn6fq7dlatnzauzza5km63dwy62y","quantity":1},{"policy":"fbfef0c4d74ae29cb8e2f80bb58cb2ea22d023a0f427214a9c10d0d1","name":"5468654d616e6472696c6c7a576f726c6463757033353723323932","displayName":"TheMandrillzWorldcup357#292","fingerprint":"asset1nvyxhhqau3uch79mw02my0vj7mqa2qk5ce9sfs","quantity":1},{"policy":"fbfef0c4d74ae29cb8e2f80bb58cb2ea22d023a0f427214a9c10d0d1","name":"5468654d616e6472696c6c7a576f726c6463757033373723313035","displayName":"TheMandrillzWorldcup377#105","fingerprint":"asset1k78n7qdsttczyrvm7yu80wpaje8w4r6m8rga86","quantity":1},{"policy":"fbfef0c4d74ae29cb8e2f80bb58cb2ea22d023a0f427214a9c10d0d1","name":"5468654d616e6472696c6c7a576f726c6463757033323523313036","displayName":"TheMandrillzWorldcup325#106","fingerprint":"asset186008w3wq3gnm34m37mmf7fvgv6f3m9hl6xfpy","quantity":1},{"policy":"fbfef0c4d74ae29cb8e2f80bb58cb2ea22d023a0f427214a9c10d0d1","name":"5468654d616e6472696c6c7a576f726c6463757033363523333037","displayName":"TheMandrillzWorldcup365#307","fingerprint":"asset1e7w86yl2fgdfahxhgwvngqmmmtmsgzxpr5f6uj","quantity":1},{"policy":"fbfef0c4d74ae29cb8e2f80bb58cb2ea22d023a0f427214a9c10d0d1","name":"5468654d616e6472696c6c7a576f726c64637570313323323733","displayName":"TheMandrillzWorldcup13#273","fingerprint":"asset1yhd83na2r3tg94w4p7m5yg09c7khrkza5zwzm8","quantity":1},{"policy":"fbfef0c4d74ae29cb8e2f80bb58cb2ea22d023a0f427214a9c10d0d1","name":"5468654d616e6472696c6c7a576f726c6463757033343323333230","displayName":"TheMandrillzWorldcup343#320","fingerprint":"asset1e4rrnm3tjfdx3kltuuuh8qgfk70eujv4qx6nfe","quantity":1},{"policy":"fbfef0c4d74ae29cb8e2f80bb58cb2ea22d023a0f427214a9c10d0d1","name":"5468654d616e6472696c6c7a576f726c64637570333738233439","displayName":"TheMandrillzWorldcup378#49","fingerprint":"asset1frte55he0juqzdp8j5scxx8uznjnj2r9yaqkjk","quantity":1},{"policy":"fbfef0c4d74ae29cb8e2f80bb58cb2ea22d023a0f427214a9c10d0d1","name":"5468654d616e6472696c6c7a576f726c64637570333723313634","displayName":"TheMandrillzWorldcup37#164","fingerprint":"asset1zynfftuhyulf50fpltmvwqn09c48gtc0uezkf2","quantity":1},{"policy":"fbfef0c4d74ae29cb8e2f80bb58cb2ea22d023a0f427214a9c10d0d1","name":"5468654d616e6472696c6c7a576f726c6463757033343923313131","displayName":"TheMandrillzWorldcup349#111","fingerprint":"asset13qjnvzj3prp0jfacahae8pw4c6njaqtat3mhga","quantity":1},{"policy":"fbfef0c4d74ae29cb8e2f80bb58cb2ea22d023a0f427214a9c10d0d1","name":"5468654d616e6472696c6c7a576f726c6463757033333923333033","displayName":"TheMandrillzWorldcup339#303","fingerprint":"asset1g24t2fqflvvzem86s9j4tsdtuyp629tzyqhgr3","quantity":1},{"policy":"fbfef0c4d74ae29cb8e2f80bb58cb2ea22d023a0f427214a9c10d0d1","name":"5468654d616e6472696c6c7a576f726c6463757033323623313830","displayName":"TheMandrillzWorldcup326#180","fingerprint":"asset1yajs37sl8ctyh78a7wxqjfc26z3vxwan0r53uq","quantity":1},{"policy":"fbfef0c4d74ae29cb8e2f80bb58cb2ea22d023a0f427214a9c10d0d1","name":"5468654d616e6472696c6c7a576f726c64637570313023333735","displayName":"TheMandrillzWorldcup10#375","fingerprint":"asset1g6875ze28a8d5zx3kp74a7nf6v8ypuvw8fyk59","quantity":1},{"policy":"fbfef0c4d74ae29cb8e2f80bb58cb2ea22d023a0f427214a9c10d0d1","name":"5468654d616e6472696c6c7a576f726c6463757033363423313835","displayName":"TheMandrillzWorldcup364#185","fingerprint":"asset19mqjtudcu3fe9mmfzft5kddteu43tf7gvagljr","quantity":1},{"policy":"fbfef0c4d74ae29cb8e2f80bb58cb2ea22d023a0f427214a9c10d0d1","name":"5468654d616e6472696c6c7a576f726c64637570323338233535","displayName":"TheMandrillzWorldcup238#55","fingerprint":"asset1z00f32t58yly3j9heg6m5ep9gyk75fuskz3twv","quantity":1},{"policy":"fbfef0c4d74ae29cb8e2f80bb58cb2ea22d023a0f427214a9c10d0d1","name":"5468654d616e6472696c6c7a576f726c6463757033373423313132","displayName":"TheMandrillzWorldcup374#112","fingerprint":"asset1fuhuqnwrse5tzzzqzrmt3xmnsx3yhn6usq333j","quantity":1},{"policy":"fbfef0c4d74ae29cb8e2f80bb58cb2ea22d023a0f427214a9c10d0d1","name":"5468654d616e6472696c6c7a576f726c64637570323123323831","displayName":"TheMandrillzWorldcup21#281","fingerprint":"asset1q6vashf5w63de5hwc2jjyf4p3zdlzqetkn0kee","quantity":1},{"policy":"fbfef0c4d74ae29cb8e2f80bb58cb2ea22d023a0f427214a9c10d0d1","name":"5468654d616e6472696c6c7a576f726c6463757033343223313538","displayName":"TheMandrillzWorldcup342#158","fingerprint":"asset1ex76uvrd4y8k947lrf90f6sndpy0nx2ev55r8z","quantity":1},{"policy":"fbfef0c4d74ae29cb8e2f80bb58cb2ea22d023a0f427214a9c10d0d1","name":"5468654d616e6472696c6c7a576f726c6463757033333123333234","displayName":"TheMandrillzWorldcup331#324","fingerprint":"asset175w3csdywv87ggywyc3twre7hz6kjrcucu6tpa","quantity":1},{"policy":"fbfef0c4d74ae29cb8e2f80bb58cb2ea22d023a0f427214a9c10d0d1","name":"5468654d616e6472696c6c7a576f726c6463757033383223313037","displayName":"TheMandrillzWorldcup382#107","fingerprint":"asset18lq9vfvxgwmvrxglsxe0qznghsuxgjwe9cvj6f","quantity":1},{"policy":"fbfef0c4d74ae29cb8e2f80bb58cb2ea22d023a0f427214a9c10d0d1","name":"5468654d616e6472696c6c7a576f726c64637570323032233938","displayName":"TheMandrillzWorldcup202#98","fingerprint":"asset1rhh7tm5j2ea7fzr3wa0873e6p3mrs82edvst7d","quantity":1},{"policy":"fbfef0c4d74ae29cb8e2f80bb58cb2ea22d023a0f427214a9c10d0d1","name":"5468654d616e6472696c6c7a576f726c6463757054726f706879233330","displayName":"TheMandrillzWorldcupTrophy#30","fingerprint":"asset1rks65le0qfz0m5ewghvaywa5lsatwczdzp9es3","quantity":1}],"totalItems":12717,"totalPages":128,"currentPage":0,"isDataOverSize":null}