{"data":[{"reportId":385,"reportName":"Report1_pool1mv9jm887f4gdpr0f5p8rerewjsdgvd29lt2awtdnmj3ggkq973a","epochRanges":[0,300],"isPoolSize":true,"isFeesPaid":true,"eventRegistration":true,"eventDeregistration":true,"eventReward":true,"eventPoolUpdate":true,"createdAt":"2024/04/11 11:47:36","status":"IN_PROGRESS"}],"totalItems":384,"totalPages":384,"currentPage":0,"isDataOverSize":null}