{"data":[{"stakeAddressId":4575959,"totalStake":1778649688,"time":"2024/03/02 05:02:31","fee":174301,"view":"stake1uxfh6favunna6y4uthysazn0m9j500l85mmp7skjtxth5nq9pc2cz"},{"stakeAddressId":4580960,"totalStake":112056970,"time":"2024/02/19 21:28:19","fee":183990,"view":"stake1uxnd8c02kkxn59nq9t5t6r0m2sw8qrfarw2mz5t5ws50ljgxn63zn"},{"stakeAddressId":4558911,"totalStake":211154075,"time":"2024/02/07 20:00:09","fee":174169,"view":"stake1uxqkkfzuxxpke22ljlzuevsj2k33qvh80pu2aqdv0rlt68g7avljv"},{"stakeAddressId":4552814,"totalStake":1158397173098,"time":"2024/02/04 22:14:16","fee":183990,"view":"stake1u98v5j5y33rups5d9z2zgqkme33m95eusm4vwesgr753m8q2lwdj2"},{"stakeAddressId":3806667,"totalStake":291545,"time":"2023/12/30 15:57:22","fee":174125,"view":"stake1uy9txmsvj9j562435vpcyd3ajnde7zr9qsmzw72y2jdpt4q09tdtn"},{"stakeAddressId":4091937,"totalStake":11848207656,"time":"2023/08/08 14:22:21","fee":183990,"view":"stake1u9llkrr99zkdspyphyjstp7qttxzqfw9k7ul5j2t389dd4c28pnhr"},{"stakeAddressId":3037845,"totalStake":15206262,"time":"2022/02/10 22:07:44","fee":175357,"view":"stake1u88jd5uxc3gz8h44s28vvgvf0gaupe5juqryqh9fydwnurce0ktfx"},{"stakeAddressId":645078,"totalStake":160602912629,"time":"2021/03/24 18:55:15","fee":175137,"view":"stake1uy6hyqpqd7zcus7uhsuye2jsdpk5l5z9rkqxaadlzhf8yqgjldl9d"},{"stakeAddressId":573094,"totalStake":5476486646,"time":"2021/03/12 01:57:05","fee":175137,"view":"stake1u84rsgtj8syhhrzeannnf09gjwtfm20vs9jf68ky4qgd69qlt2xql"},{"stakeAddressId":527231,"totalStake":61710097,"time":"2021/03/04 14:34:30","fee":175137,"view":"stake1u8axr2cvhrntzfk74cdg9rh9zguls96jvp9thkf4chk9wfsv4dh0y"}],"totalItems":174,"totalPages":18,"currentPage":0,"isDataOverSize":null}