{"data":[{"address":"addr1z8snz7c4974vzdpxu65ruphl3zjdvtxw8strf2c2tmqnxz2j2c79gy9l76sdg0xwhd7r0c0kna0tycz4y5s6mlenh8pq0xmsha","txCount":2181451,"balance":60936494302167830},{"address":"addr1w9qzpelu9hn45pefc0xr4ac4kdxeswq7pndul2vuj59u8tqaxdznu","txCount":734269,"balance":16047200898440482},{"address":"addr1wyf3xpvwjd82wtnax8tw8u5k6r5yfh0sza76k7c3y3pgpjcye7ar2","txCount":50327,"balance":8149774686897513},{"address":"addr1w9afj34vc68qdm7heuz7esmr8sj76wpa45t7dh3ag8xpplgml3zuk","txCount":31364,"balance":4115286432975940},{"address":"addr1zyc5zkajzqtyea4cf5d3y5mlq7fd9yfdz4hq78k3mywg8nhkrew0j6j9qjdde8a5py4m9yyh2mylaal4q899rgptn88qe57mt7","txCount":39530,"balance":3835030624989199},{"address":"addr1z8snz7c4974vzdpxu65ruphl3zjdvtxw8strf2c2tmqnxzgkfzj4qgs7k3f77pacnyh392326tsnh0v8qlgcyevxsslquxmw5a","txCount":100245,"balance":2313776879044977},{"address":"addr1z9tu3ecccgqlhgg2nkshfrt8td2zs8fmrwvrchgksl78x96j2c79gy9l76sdg0xwhd7r0c0kna0tycz4y5s6mlenh8pq26n58l","txCount":41765,"balance":2010505544626257},{"address":"addr1w8pydstdswmdqmg2rdt59dzql3zgfp9pt8sulnjgalycwdsj9js7w","txCount":90987,"balance":1935299668663159},{"address":"addr1z8snz7c4974vzdpxu65ruphl3zjdvtxw8strf2c2tmqnxztnqm37tpj0q63s0qns5wfe4flqzqqg55760472n7yt4v8skpaj3k","txCount":103291,"balance":1778152830218439},{"address":"addr1z8snz7c4974vzdpxu65ruphl3zjdvtxw8strf2c2tmqnxz2jyskd3y6etkv8ye450545xu6q4jfq5hv4e0uxwkpf8lsq048y90","txCount":52869,"balance":1115266312978024},{"address":"addr1z8snz7c4974vzdpxu65ruphl3zjdvtxw8strf2c2tmqnxz02znpd777wgl9wwpk0dvdzuxn93mqh82q7vv6s9jn25rws52z94g","txCount":37078,"balance":848500946197869},{"address":"addr1z8snz7c4974vzdpxu65ruphl3zjdvtxw8strf2c2tmqnxzwccf8ywaly0m99ngq68lus48lmafut7ku9geawu8u6k49suv42qq","txCount":53205,"balance":779805444123698},{"address":"addr1z8snz7c4974vzdpxu65ruphl3zjdvtxw8strf2c2tmqnxzfgf0jgfz5xdvg2pges20usxhw8zwnkggheqrxwmxd6huuqss46eh","txCount":24863,"balance":776052234909405},{"address":"addr1z8nvjzjeydcn4atcd93aac8allvrpjn7pjr2qsweukpnay0ycn5y6v5mjqqcs9xqa24kv5qk73tqsf3ufrtvxh9kts0qveyg6l","txCount":13945,"balance":774336905218952},{"address":"addr1zxem3j9xw7gyqnry0mfdhku7grrzu0707dc9fs68zwkln5sm5kjdmrpmng059yellupyvwgay2v0lz6663swmds7hp0qul0eqc","txCount":3312,"balance":721601529752671},{"address":"addr1z9es6px68rlmwatqwg6qxwqf3szyz0n4lm0m2e5j38nu0062a6yhtrq8a4cxg2trrtzddev7v974nafzmx4xaegv2ngqky7khv","txCount":29954,"balance":655653497819716},{"address":"addr1z8nvjzjeydcn4atcd93aac8allvrpjn7pjr2qsweukpnaytvcg6zm2vds6mz9x3h3yalqmnf24w86m09n40q3tgqxjms9yu6v8","txCount":36771,"balance":598735074910491},{"address":"addr1z85t4tvj3rwf40wqnx6x72kqq6c6stra7jvkupnlqrqyarthhd58w0qrqpyv4dc2c2mk98sduawl7l4gjuc9rafyv98sgylfw3","txCount":36754,"balance":585251434285139},{"address":"addr1z8snz7c4974vzdpxu65ruphl3zjdvtxw8strf2c2tmqnxzdqcjdumqxjmc7cx0sg275pq4kkqx9wc99ffjc65eq9qn8q5vtgde","txCount":35127,"balance":524499777433800},{"address":"addr1z9cy2gmar6cpn8yymll93lnd7lw96f27kn2p3eq5d4tjr7xnh3gfhnqcwez2pzmr4tryugrr0uahuk49xqw7dc645chscql0d7","txCount":82274,"balance":523368288298176}],"totalItems":94083,"totalPages":4705,"currentPage":0,"isDataOverSize":null}