{"data":[{"no":478,"status":"IN_PROGRESS","blkCount":6737,"outSum":41296370534911299,"txCount":81346,"startTime":"2024/04/09 21:44:51","endTime":"2024/04/14 21:44:51","maxSlot":432000,"rewardsDistributed":null,"account":39456,"syncingProgress":0.31691435185185185},{"no":477,"status":"FINISHED","blkCount":20970,"outSum":139341412960431263,"txCount":275822,"startTime":"2024/04/04 21:44:51","endTime":"2024/04/09 21:44:51","maxSlot":432000,"rewardsDistributed":null,"account":110959,"syncingProgress":1.0},{"no":476,"status":"FINISHED","blkCount":20964,"outSum":136099299726778858,"txCount":296447,"startTime":"2024/03/30 21:44:51","endTime":"2024/04/04 21:44:51","maxSlot":432000,"rewardsDistributed":9258528644590,"account":105781,"syncingProgress":1.0},{"no":475,"status":"FINISHED","blkCount":21227,"outSum":134259809780536964,"txCount":287074,"startTime":"2024/03/25 21:44:51","endTime":"2024/03/30 21:44:51","maxSlot":432000,"rewardsDistributed":9396961653689,"account":111303,"syncingProgress":1.0},{"no":474,"status":"FINISHED","blkCount":20927,"outSum":125518872233726027,"txCount":247259,"startTime":"2024/03/20 21:44:51","endTime":"2024/03/25 21:44:51","maxSlot":432000,"rewardsDistributed":9276468763622,"account":102054,"syncingProgress":1.0},{"no":473,"status":"FINISHED","blkCount":20984,"outSum":160327280570581856,"txCount":311957,"startTime":"2024/03/15 21:44:51","endTime":"2024/03/20 21:44:51","maxSlot":432000,"rewardsDistributed":9355780044464,"account":122777,"syncingProgress":1.0},{"no":472,"status":"FINISHED","blkCount":20954,"outSum":157256649670302979,"txCount":371308,"startTime":"2024/03/10 21:44:51","endTime":"2024/03/15 21:44:51","maxSlot":432000,"rewardsDistributed":9341676158057,"account":144614,"syncingProgress":1.0},{"no":471,"status":"FINISHED","blkCount":21235,"outSum":173069126079612543,"txCount":388963,"startTime":"2024/03/05 21:44:51","endTime":"2024/03/10 21:44:51","maxSlot":432000,"rewardsDistributed":61677587524908,"account":156147,"syncingProgress":1.0},{"no":470,"status":"FINISHED","blkCount":21311,"outSum":182377761595527198,"txCount":403952,"startTime":"2024/02/29 21:44:51","endTime":"2024/03/05 21:44:51","maxSlot":432000,"rewardsDistributed":9595998409782,"account":169594,"syncingProgress":1.0},{"no":469,"status":"FINISHED","blkCount":21263,"outSum":165719379510051978,"txCount":365139,"startTime":"2024/02/24 21:44:51","endTime":"2024/02/29 21:44:51","maxSlot":432000,"rewardsDistributed":9587191876435,"account":142733,"syncingProgress":1.0},{"no":468,"status":"FINISHED","blkCount":21307,"outSum":158870655740845627,"txCount":339236,"startTime":"2024/02/19 21:44:51","endTime":"2024/02/24 21:44:51","maxSlot":432000,"rewardsDistributed":9660629177595,"account":114802,"syncingProgress":1.0},{"no":467,"status":"FINISHED","blkCount":21160,"outSum":146304615417542504,"txCount":337319,"startTime":"2024/02/14 21:44:51","endTime":"2024/02/19 21:44:51","maxSlot":432000,"rewardsDistributed":9613855523849,"account":150361,"syncingProgress":1.0},{"no":466,"status":"FINISHED","blkCount":20923,"outSum":128055283691072449,"txCount":347241,"startTime":"2024/02/09 21:44:51","endTime":"2024/02/14 21:44:51","maxSlot":432000,"rewardsDistributed":9499830931430,"account":114362,"syncingProgress":1.0},{"no":465,"status":"FINISHED","blkCount":20872,"outSum":122720530223654636,"txCount":342914,"startTime":"2024/02/04 21:44:51","endTime":"2024/02/09 21:44:51","maxSlot":432000,"rewardsDistributed":9505784011465,"account":118895,"syncingProgress":1.0},{"no":464,"status":"FINISHED","blkCount":20730,"outSum":115844528416525603,"txCount":340234,"startTime":"2024/01/30 21:44:51","endTime":"2024/02/04 21:44:51","maxSlot":432000,"rewardsDistributed":9444602902707,"account":147920,"syncingProgress":1.0},{"no":463,"status":"FINISHED","blkCount":20404,"outSum":117760329627498588,"txCount":315429,"startTime":"2024/01/25 21:44:51","endTime":"2024/01/30 21:44:51","maxSlot":432000,"rewardsDistributed":9310882260246,"account":121178,"syncingProgress":1.0},{"no":462,"status":"FINISHED","blkCount":20927,"outSum":132998575450391389,"txCount":352162,"startTime":"2024/01/20 21:44:51","endTime":"2024/01/25 21:44:51","maxSlot":432000,"rewardsDistributed":9576231261544,"account":116864,"syncingProgress":1.0},{"no":461,"status":"FINISHED","blkCount":20734,"outSum":127831965354324633,"txCount":374017,"startTime":"2024/01/15 21:44:51","endTime":"2024/01/20 21:44:51","maxSlot":432000,"rewardsDistributed":9520573129228,"account":123245,"syncingProgress":1.0},{"no":460,"status":"FINISHED","blkCount":20863,"outSum":124593313184006186,"txCount":420768,"startTime":"2024/01/10 21:44:51","endTime":"2024/01/15 21:44:51","maxSlot":432000,"rewardsDistributed":9593459210469,"account":134259,"syncingProgress":1.0},{"no":459,"status":"FINISHED","blkCount":20957,"outSum":145044109720853753,"txCount":421387,"startTime":"2024/01/05 21:44:51","endTime":"2024/01/10 21:44:51","maxSlot":432000,"rewardsDistributed":9638806542886,"account":138544,"syncingProgress":1.0}],"totalItems":479,"totalPages":24,"currentPage":0,"isDataOverSize":null}