{"data":[{"txId":73622344,"txHash":"a457163fd6568cd5b9f54a384f5983bc02218109325b946dd8b5376d838317f6","txTime":"2023/08/13 21:35:14","epoch":429,"block":9156167,"slotNo":431423,"pledge":1176000000,"cost":340000000,"margin":0.01,"poolId":1578,"poolView":"pool1fe68cpruydltthqrdac4ckfdsgxnxv363znn6x0x6sqvsj6rzy2","stakeKey":["stake1uyjm0eqmt800yzurqv4cwhwkgm5cy9k2vk92l4zsdgeq4egfpxf4m"]},{"txId":73622193,"txHash":"890ae213f37fbc552874068344a625ee386977828194c6953da328303f31318f","txTime":"2023/08/13 21:31:40","epoch":429,"block":9156155,"slotNo":431209,"pledge":1176000000,"cost":340000000,"margin":0.01,"poolId":1579,"poolView":"pool1tw3q5fl37dpr5v69vdy4vpe9nsryrs9sev89u3rprel9v9vf8fn","stakeKey":["stake1u8eysycsu3z94axgrwgqyrqnzhsfqvwtd0yuz5qfnjz7l0ca45n32"]},{"txId":73622144,"txHash":"d80f605e769035d8f01f9a1a94863566c9324a01b1e60e7b19cb572e4076ef41","txTime":"2023/08/13 21:30:17","epoch":429,"block":9156150,"slotNo":431126,"pledge":10000000000,"cost":340000000,"margin":0.001,"poolId":997,"poolView":"pool1ngky6qkcfwg4y6pdz5m8mrmtknpp2sv06fh0lh02fqmevzcfxf6","stakeKey":["stake1uxsjaw3pq6f2n963mwryz806t3x6w8ee8869w4njf4thaqqcvcw6k"]},{"txId":73618495,"txHash":"acfa7f942844feea6d589081527f9b6c1efd46b0554db3954223e72d307d379a","txTime":"2023/08/13 20:08:00","epoch":429,"block":9155919,"slotNo":426189,"poolName":"OrangeAndBlue","pledge":100000000000,"cost":340000000,"margin":0.01,"poolId":5479,"poolView":"pool1mt3edrc94lwwragf223w8nx5mfs20qpvtzx2asgjz3jm7sd2qax","stakeKey":["stake1u8cwgz2594nsdt5fwsp5hveg2vfhj8hfxe2t0z846pz78qs4lwlkj"]},{"txId":73390739,"txHash":"529a0d51ab26e97e2c2485cf0eb3af6a1172aa93a6fdcdd09d1e0ffb7c3d2fd3","txTime":"2023/08/09 12:30:35","epoch":429,"block":9137621,"slotNo":53144,"poolName":"BitFins","pledge":350000000,"cost":340000000,"margin":0.01,"poolId":5288,"poolView":"pool1rzgmxrfvrp4ch9wj96rjun6f3959k0tu08xyxn8sf5zyz9qmzrl","stakeKey":["stake1u84upyh9zyv380v5jgu2093m5nlddxhl4r5y37pdklsuk3cz7a0pt"]},{"txId":73231922,"txHash":"9d7ee05922552ed7605821d09fe586aa91c22eae2ae889234e7f2a947dfdade0","txTime":"2023/08/07 12:18:48","epoch":428,"block":9129256,"slotNo":311637,"poolName":"Read Thy Self","pledge":2500000000,"cost":340000000,"margin":0.04,"poolId":4582,"poolView":"pool12lmfzu2n64dxtv35p5am4qhzkxe4uxcrxef63zfuylvwzly3zm4","stakeKey":["stake1u9vclkvmd0ystn0jjkhzfnwcdp9s0dyhkqrz87efextdjwcjj4nmr"]},{"txId":72985692,"txHash":"2f1d2a9743940963a48dd28de5464bbd4c1650ba4c2a9035ae220966f9727785","txTime":"2023/08/03 19:39:13","epoch":427,"block":9113682,"slotNo":424462,"poolName":"Rama DeFi Bangkok","pledge":10000000,"cost":340000000,"margin":0.9999,"poolId":4121,"poolView":"pool1clqazwqrc0mkuu20l22z8c8uqlwjtj5jna6rk940ufjjvqu0fka","stakeKey":["stake1uy0crjlq3zzetsnk3hn3dgq5vhjkt5xq2pv8552n5smcxcqtt7a9a"]},{"txId":72769854,"txHash":"1802f1fcc5534df61d0d07362e4f4c02dce46f4335aff83b6ddbf31e392857c5","txTime":"2023/07/31 11:30:19","epoch":427,"block":9099692,"slotNo":135928,"poolName":"One Equity","pledge":60000000000,"cost":340000000,"margin":0.0,"poolId":2223,"poolView":"pool188rwerlxm4se6qzlz7g9mh3zrccuh492ma0wemuuvyf3zgstqy4","stakeKey":["stake1u8u9rwhel06n8s8g64le3k89xlcus5xy4spmdn0u6uap2sszyhggs","stake1u8ytnlfmgurl77h6vpt2fgnpprrgnlhlmx4ys4jc5l7vfngvlvtxu","stake1uxsnxnsvdt0npd4wt57223se90fks00ljpjm00ynkhesaqcjkxd77"]},{"txId":72728468,"txHash":"56c92126ab58186aa8f51031b669a05fb354dde8778a32d3ed8b28d7db734318","txTime":"2023/07/30 18:51:27","epoch":427,"block":9096686,"slotNo":75996,"poolName":"Cryptofay","pledge":324900000000,"cost":340000000,"margin":0.01,"poolId":734,"poolView":"pool1ntr0gyvdenpqm9uwwguaw028ayuuck2vx580l2r3radvg6m38pl","stakeKey":["stake1u9zfykhsxruj0r8nyetp9sp6yqp4v424arj3reqyhrjrxwsnhn50z"]},{"txId":72565630,"txHash":"e41b6967d7424619e5531f6f1f80fbd63d6432bb22decd65fe928e6594fde1b8","txTime":"2023/07/28 09:47:09","epoch":426,"block":9086561,"slotNo":302538,"poolName":"BareMetal on Pure Green Energy","pledge":1500000000,"cost":340000000,"margin":0.0,"poolId":4284,"poolView":"pool16m5zwqdcplelkg93skjentwk7pcyhknjdxu49x9ea0mk7qhf94t","stakeKey":["stake1uylzy4pz50ezldk6dlq8j226umlprezqsssez8vp4yydxdsc9zepr"]}],"totalItems":2725,"totalPages":273,"currentPage":0}