{"data":[{"txHash":"3ae9c979f28dbb235262990c590a782145728efbd7f86aad8999acb7b772b7ed","fee":174301,"deposit":2000000,"time":"2024/04/09 03:36:35"},{"txHash":"0f4b42ddc4434759bb24e8f54c85ca3897240df3d87be670089130e3fff5391c","fee":174301,"deposit":2000000,"time":"2024/04/04 05:48:13"},{"txHash":"df7454fd957f8c538a1af4321250e9d4d5223701aadbb33e8554e3a91b93c311","fee":174125,"deposit":2000000,"time":"2024/03/31 07:16:08"},{"txHash":"318e5972fce62d6210ac8fad0562a997f210872436764f491e4cab73bc978c6f","fee":174301,"deposit":2000000,"time":"2024/02/22 07:36:45"},{"txHash":"b99180bc9b8fbebeb20f29777f7a23e6e3d11ddea38ae090d4a2d87aa748d87c","fee":174301,"deposit":2000000,"time":"2024/02/16 03:33:31"},{"txHash":"d7ffccbff06b4e4fba7a2da58057c5bdee5045a808d255455f12730dbb31c2ad","fee":174301,"deposit":2000000,"time":"2024/02/10 05:26:31"},{"txHash":"6963382955baa3b2ab28ee30ca5a7bc755c073223e3eb14ee959f4d7bcadfce4","fee":174301,"deposit":2000000,"time":"2024/02/02 09:03:56"},{"txHash":"dfa207bc06a374b9b0c49ef59595e5d4a74bc520fc9954ccb8f3d0c2067eb12c","fee":174125,"deposit":2000000,"time":"2024/01/31 05:16:48"},{"txHash":"aa439be6fc5d5622e1313a8fec18388daa7f6b9fdf693b03ab48886b0d4b4a86","fee":174301,"deposit":2000000,"time":"2024/01/26 06:21:58"},{"txHash":"86bb4710e4583139f3fb69c58ce86225a9b85c7838aeebe2644a8e961ce4b692","fee":174301,"deposit":2000000,"time":"2024/01/21 08:50:28"},{"txHash":"18b583628f8445a16e33da6c0321177a9e3e173d7af3d4b03e3464f33e02d4a2","fee":174301,"deposit":2000000,"time":"2024/01/19 04:20:51"},{"txHash":"83f48d4b847b0f282b564fa3a8574aee5ca982bf03a13394b54abbd0e0cd1c18","fee":180329,"deposit":2000000,"time":"2024/01/17 06:46:28"},{"txHash":"f3c00ebe4ad10a2865b868fda0fc485f4ba8ac5a93f3149eb885ecdc3e51c1e9","fee":174301,"deposit":2000000,"time":"2024/01/05 04:35:28"},{"txHash":"09e11204288823e3bfccc06ce791375f14b2ff3f9641709f068e5a5ac55bbd19","fee":174125,"deposit":2000000,"time":"2023/12/29 04:27:19"},{"txHash":"177752b59d3f7018816914195341549126d27e5c2b386d38bdb6636da45515dd","fee":174125,"deposit":2000000,"time":"2023/12/17 07:48:00"},{"txHash":"8d332141972cfa54251958bf02a97f65cba57a4cce3ef73cbadeff8e34733c53","fee":174125,"deposit":2000000,"time":"2023/12/11 06:46:46"},{"txHash":"7c109608a5d469fc1f5e0097f770c2e19f916606b4e6b3880580c6fed400f41c","fee":174301,"deposit":2000000,"time":"2023/10/20 10:32:51"},{"txHash":"9b0b61939bbf37743a2b952f0425191906ff1c05f96b475a28236ef8c3e1fc10","fee":174125,"deposit":2000000,"time":"2023/09/28 04:06:27"},{"txHash":"804a6a04a17eacefdb860232b3a057ff04f06e5c1b86dbfe3f70d976e8d0d7a7","fee":174301,"deposit":2000000,"time":"2023/09/06 02:15:26"},{"txHash":"0abd91edcdccc3ff76264372498d6dd176152b20caa07dbb96499befb534f445","fee":174301,"deposit":2000000,"time":"2023/08/20 04:27:40"}],"totalItems":27,"totalPages":2,"currentPage":0,"isDataOverSize":null}