{"data":[{"txId":73663262,"txHash":"04eacdf87d244737cd90679fef5af9d5670b7de1cb55f74ac9c673ee146aca8c","txTime":"2023/08/14 14:08:58","block":9159056,"epoch":430,"slotNo":100455847,"epochSlotNo":59047,"stakeKey":"stake1u8lwpyrn3hlufhvr5q4ez2c3srz2tnjc3w65f8v56p2kxfqmruewy"},{"txId":73663149,"txHash":"832e6902ae3745b72750fbdb7969be8e8dc512dfdd3517a72510651331d048ae","txTime":"2023/08/14 14:06:34","block":9159051,"epoch":430,"slotNo":100455703,"epochSlotNo":58903,"stakeKey":"stake1u8k60ytqxku8tk6n9uvv27fala2sxfesu6kf5wtja5glljsnfw05n"},{"txId":73662838,"txHash":"6c53963eed37a9a0ec92add5141207d7132cabea2a6ae0ed208e04f48b9500c2","txTime":"2023/08/14 13:59:35","block":9159038,"epoch":430,"slotNo":100455284,"epochSlotNo":58484,"stakeKey":"stake1u9a5fux96suwxngjwuy938ej7u0zrgazwg9pma77zpe3rmswwm76y"},{"txId":73662569,"txHash":"3d8e0cd5768f3f722190905c4644a063e47a3a93a0affc987cf97607f6283ef6","txTime":"2023/08/14 13:52:37","block":9159025,"epoch":430,"slotNo":100454866,"epochSlotNo":58066,"stakeKey":"stake1u9a5fux96suwxngjwuy938ej7u0zrgazwg9pma77zpe3rmswwm76y"},{"txId":73662288,"txHash":"3fe552f987dc0febe455e79594ca6ec8a31a6b868f26f05242f47a0caedbcae5","txTime":"2023/08/14 13:46:21","block":9159009,"epoch":430,"slotNo":100454490,"epochSlotNo":57690,"stakeKey":"stake1uxjwctqm4yfj040379djn4pawne0zu6hep3q8wf8zsvg20s7hcd2e"},{"txId":73661959,"txHash":"3f320656bcfa81bee0ea6f9767d5447e1062c695ffad5113ca5c6a8fcacbda84","txTime":"2023/08/14 13:38:24","block":9158984,"epoch":430,"slotNo":100454013,"epochSlotNo":57213,"stakeKey":"stake1u9ekm2vumezplz0afh0hu0epr3vehc2tu7h6xqs3ml6zyagyc2s2t"},{"txId":73661878,"txHash":"c3ab7dbd60d944e0767ea4402bf6183709286702bde829902944a1f84fe18948","txTime":"2023/08/14 13:36:43","block":9158980,"epoch":430,"slotNo":100453912,"epochSlotNo":57112,"stakeKey":"stake1uyrejt2ql89snl0p7lj57z5j2c59l2ajfkd05kxvmwt8vastgwyy0"},{"txId":73661874,"txHash":"cfe0f3b501d2a802dbfafa644ebd63eeb4e0ec9552be667f0f7ad7326dd175a4","txTime":"2023/08/14 13:35:50","block":9158979,"epoch":430,"slotNo":100453859,"epochSlotNo":57059,"stakeKey":"stake1u9aawxvgw9jhpxg86jt2mzkjfuzyyzegc257u37zmqfqnnqdrvzet"},{"txId":73661873,"txHash":"e333fde619002b2dfd1a6097a339ac9fceb7072a344ee453a3ce7d2d9029c3f9","txTime":"2023/08/14 13:35:50","block":9158979,"epoch":430,"slotNo":100453859,"epochSlotNo":57059,"stakeKey":"stake1uxlrs5qs078tkekadc38054qupamse46ge3j76vxd2spuhgn9lpkf"},{"txId":73661623,"txHash":"34234af19d3aedeedcbcb854763c344f44a3c916a0c33e544800dcfedc3fd2a5","txTime":"2023/08/14 13:30:15","block":9158964,"epoch":430,"slotNo":100453524,"epochSlotNo":56724,"stakeKey":"stake1u9gkza4leszw2naythwxqudvyjct68xmspukgl9x5jjd9xgzk296f"}],"totalItems":395748,"totalPages":39575,"currentPage":0}