{"data":[{"blockNo":237567,"slotNo":237599,"epochNo":10,"epochSlotNo":21599,"hash":"2a5fd14ba10583ba912ec75e03f24179d187ab7f37dcf769558952c954af2b22","time":"2017/11/17 21:44:31","txCount":0,"totalFees":0,"totalOutput":0,"slotLeader":"888c451ae09a16fed73e4ad2f01437f1baca37178ea2399fc604d90b"},{"blockNo":237566,"slotNo":237598,"epochNo":10,"epochSlotNo":21598,"hash":"327fec77eb58082c55a16792d5cf9c651e5963273992a86022a74f03afb2f320","time":"2017/11/17 21:44:11","txCount":0,"totalFees":0,"totalOutput":0,"slotLeader":"be09d88f50165c5ca50855a7112900c0ec1e30356aded5f880eb3799"},{"blockNo":237565,"slotNo":237597,"epochNo":10,"epochSlotNo":21597,"hash":"9a4487e20cb095ab3af0af1bcc36bdb276d30c93954d2ba85c9d3c48b791e6b9","time":"2017/11/17 21:43:51","txCount":0,"totalFees":0,"totalOutput":0,"slotLeader":"8e8a7b0f4a23f07a4d957eb0a1bb287aa2c9c9419cf57257acb70856"},{"blockNo":237564,"slotNo":237596,"epochNo":10,"epochSlotNo":21596,"hash":"9f52e5e8bc9fb7a2b42e03bd4533f3df2b84bcf4e86679ae6089de64b04e2061","time":"2017/11/17 21:43:31","txCount":0,"totalFees":0,"totalOutput":0,"slotLeader":"dc7e9ce2a36c442b5786f521a0272b91e208ba2173c07b0a1d567c0d"},{"blockNo":237563,"slotNo":237595,"epochNo":10,"epochSlotNo":21595,"hash":"6030a5a56bd1a5817121ca48e0b2fd1539103d1282dc3612c748d03b0dceb9fe","time":"2017/11/17 21:43:11","txCount":0,"totalFees":0,"totalOutput":0,"slotLeader":"7b00350597671036d1087787d1cba9e75cefec0bad8a82eff29aa4f8"},{"blockNo":237562,"slotNo":237594,"epochNo":10,"epochSlotNo":21594,"hash":"1827a3b08ed5868ba3b511742c1ef6c4e5bb274b32d84174a764cd1197d6e988","time":"2017/11/17 21:42:51","txCount":0,"totalFees":0,"totalOutput":0,"slotLeader":"64c61078e9577d3b66ecd9e4e99fa9e5e1b5cf6097c11b23d139f6b8"},{"blockNo":237561,"slotNo":237593,"epochNo":10,"epochSlotNo":21593,"hash":"fe34bdd8bd2db67f11b13df7d6ad3d45de387b37e7f64c8021800a5232106a72","time":"2017/11/17 21:42:31","txCount":0,"totalFees":0,"totalOutput":0,"slotLeader":"52df0f2c5539b2b1a8f7b91d8c0715ccb1954b31ddb65737bbd8a58d"},{"blockNo":237560,"slotNo":237592,"epochNo":10,"epochSlotNo":21592,"hash":"ee90f4e61b540012d3f9660129dab050d077ce5ffab03c0ecca413f3b70fd213","time":"2017/11/17 21:42:11","txCount":0,"totalFees":0,"totalOutput":0,"slotLeader":"7b00350597671036d1087787d1cba9e75cefec0bad8a82eff29aa4f8"},{"blockNo":237559,"slotNo":237591,"epochNo":10,"epochSlotNo":21591,"hash":"59e1137c87d1b585ffdcea7ac3e63d8de9aafd3acb36554132383b3ba43aeb1f","time":"2017/11/17 21:41:51","txCount":0,"totalFees":0,"totalOutput":0,"slotLeader":"be09d88f50165c5ca50855a7112900c0ec1e30356aded5f880eb3799"},{"blockNo":237558,"slotNo":237590,"epochNo":10,"epochSlotNo":21590,"hash":"2d197261053ccb468c99a7ebc7c4168fcaf5c6b96325afabbb2eaba2ad7d7ea9","time":"2017/11/17 21:41:31","txCount":0,"totalFees":0,"totalOutput":0,"slotLeader":"be09d88f50165c5ca50855a7112900c0ec1e30356aded5f880eb3799"},{"blockNo":237557,"slotNo":237589,"epochNo":10,"epochSlotNo":21589,"hash":"1c6aa16fd76a940b72292e23545146e0721c415a2e073e12525e75bfffa339fa","time":"2017/11/17 21:41:11","txCount":0,"totalFees":0,"totalOutput":0,"slotLeader":"888c451ae09a16fed73e4ad2f01437f1baca37178ea2399fc604d90b"},{"blockNo":237556,"slotNo":237588,"epochNo":10,"epochSlotNo":21588,"hash":"c9e65f4d5ca94ef03ef1ce7df19ce78ef3e70bc183d03e3d0ff39ed2291639c4","time":"2017/11/17 21:40:51","txCount":0,"totalFees":0,"totalOutput":0,"slotLeader":"7b00350597671036d1087787d1cba9e75cefec0bad8a82eff29aa4f8"},{"blockNo":237555,"slotNo":237587,"epochNo":10,"epochSlotNo":21587,"hash":"ea92f059be68e6814eefdd09a97cdfdc80bbb1561f583f31da266cc77f7c4be3","time":"2017/11/17 21:40:31","txCount":1,"totalFees":186803,"totalOutput":3784529891,"slotLeader":"8e8a7b0f4a23f07a4d957eb0a1bb287aa2c9c9419cf57257acb70856"},{"blockNo":237554,"slotNo":237586,"epochNo":10,"epochSlotNo":21586,"hash":"cfdbb0a6c37a1cf66a09756717236f47294d567151ccedd9fa77541c6edba0bc","time":"2017/11/17 21:40:11","txCount":0,"totalFees":0,"totalOutput":0,"slotLeader":"52df0f2c5539b2b1a8f7b91d8c0715ccb1954b31ddb65737bbd8a58d"},{"blockNo":237553,"slotNo":237585,"epochNo":10,"epochSlotNo":21585,"hash":"f0739f706dd17d1df569c07255bc9969de094890dd220a080a626a90b49156b9","time":"2017/11/17 21:39:51","txCount":0,"totalFees":0,"totalOutput":0,"slotLeader":"888c451ae09a16fed73e4ad2f01437f1baca37178ea2399fc604d90b"},{"blockNo":237552,"slotNo":237584,"epochNo":10,"epochSlotNo":21584,"hash":"d2e8a5ba24a3a21008a3a77fd31af6ed8794ffbe1f9be3dc9849ad30ca52f15d","time":"2017/11/17 21:39:31","txCount":0,"totalFees":0,"totalOutput":0,"slotLeader":"8e8a7b0f4a23f07a4d957eb0a1bb287aa2c9c9419cf57257acb70856"},{"blockNo":237551,"slotNo":237583,"epochNo":10,"epochSlotNo":21583,"hash":"db147fd91dfa16ebdfcfae81fa2ea3160f5f8f8a3093979e64e96d3b9095f03b","time":"2017/11/17 21:39:11","txCount":0,"totalFees":0,"totalOutput":0,"slotLeader":"dc7e9ce2a36c442b5786f521a0272b91e208ba2173c07b0a1d567c0d"},{"blockNo":237550,"slotNo":237582,"epochNo":10,"epochSlotNo":21582,"hash":"d5002c1a362972a3f84fd3d8b8979b835c279a3ffb815fa70b9c8ef0353d8e16","time":"2017/11/17 21:38:51","txCount":0,"totalFees":0,"totalOutput":0,"slotLeader":"7b00350597671036d1087787d1cba9e75cefec0bad8a82eff29aa4f8"},{"blockNo":237549,"slotNo":237581,"epochNo":10,"epochSlotNo":21581,"hash":"ac5d4d3903cf35120bf34d294ce93a501635d263e8a1c4161b2f33c1ab410a7c","time":"2017/11/17 21:38:31","txCount":0,"totalFees":0,"totalOutput":0,"slotLeader":"7b00350597671036d1087787d1cba9e75cefec0bad8a82eff29aa4f8"},{"blockNo":237548,"slotNo":237580,"epochNo":10,"epochSlotNo":21580,"hash":"fd71dd6260adc9d49765ead5ec19e0231f0c6a7cf11aaf841d47d6d4daed194a","time":"2017/11/17 21:38:11","txCount":0,"totalFees":0,"totalOutput":0,"slotLeader":"dc7e9ce2a36c442b5786f521a0272b91e208ba2173c07b0a1d567c0d"},{"blockNo":237547,"slotNo":237579,"epochNo":10,"epochSlotNo":21579,"hash":"ac69184dfdee8bbe8bb13434e177a266c2c273a4787a2e3c61005bb35f31449c","time":"2017/11/17 21:37:51","txCount":0,"totalFees":0,"totalOutput":0,"slotLeader":"64c61078e9577d3b66ecd9e4e99fa9e5e1b5cf6097c11b23d139f6b8"},{"blockNo":237546,"slotNo":237578,"epochNo":10,"epochSlotNo":21578,"hash":"86ed0985ecc89427a1b18a5a94ab51d574dfd67267270274c81688f8cccb9c93","time":"2017/11/17 21:37:31","txCount":0,"totalFees":0,"totalOutput":0,"slotLeader":"8e8a7b0f4a23f07a4d957eb0a1bb287aa2c9c9419cf57257acb70856"},{"blockNo":237545,"slotNo":237577,"epochNo":10,"epochSlotNo":21577,"hash":"4f4709d525640b694b9784cf198830c5e03eab9a33017d17202c543bd015128e","time":"2017/11/17 21:37:11","txCount":0,"totalFees":0,"totalOutput":0,"slotLeader":"52df0f2c5539b2b1a8f7b91d8c0715ccb1954b31ddb65737bbd8a58d"},{"blockNo":237544,"slotNo":237576,"epochNo":10,"epochSlotNo":21576,"hash":"8972eccc26d8b74e77cd08e2f5d8c8d4874b9b4f65f7a2f3a8f2bbad79ecb5a7","time":"2017/11/17 21:36:51","txCount":0,"totalFees":0,"totalOutput":0,"slotLeader":"64c61078e9577d3b66ecd9e4e99fa9e5e1b5cf6097c11b23d139f6b8"},{"blockNo":237543,"slotNo":237575,"epochNo":10,"epochSlotNo":21575,"hash":"fe72f7d884113734b4905de97a4e7ee360a19b31421a2c5df73b2866df3e8b68","time":"2017/11/17 21:36:31","txCount":0,"totalFees":0,"totalOutput":0,"slotLeader":"888c451ae09a16fed73e4ad2f01437f1baca37178ea2399fc604d90b"},{"blockNo":237542,"slotNo":237574,"epochNo":10,"epochSlotNo":21574,"hash":"7c205a90d891103d60d9a33ca7c3b8956f207e3fcb2dcf05b4ccc658287f9aea","time":"2017/11/17 21:36:11","txCount":0,"totalFees":0,"totalOutput":0,"slotLeader":"64c61078e9577d3b66ecd9e4e99fa9e5e1b5cf6097c11b23d139f6b8"},{"blockNo":237541,"slotNo":237573,"epochNo":10,"epochSlotNo":21573,"hash":"4474286923793d770ce5c4d23e9ad1c43f65da8e83360473cf92436ba6551615","time":"2017/11/17 21:35:51","txCount":0,"totalFees":0,"totalOutput":0,"slotLeader":"64c61078e9577d3b66ecd9e4e99fa9e5e1b5cf6097c11b23d139f6b8"},{"blockNo":237540,"slotNo":237572,"epochNo":10,"epochSlotNo":21572,"hash":"c74c16b3702d892c07993e8d66b09ab5b08e209ff8c9fb050650d6d08451a8f0","time":"2017/11/17 21:35:31","txCount":0,"totalFees":0,"totalOutput":0,"slotLeader":"be09d88f50165c5ca50855a7112900c0ec1e30356aded5f880eb3799"},{"blockNo":237539,"slotNo":237571,"epochNo":10,"epochSlotNo":21571,"hash":"1e1f5c65e41d0024f95b1d6e2263402238296f9c122fc78fbef6d114d01e369b","time":"2017/11/17 21:35:11","txCount":0,"totalFees":0,"totalOutput":0,"slotLeader":"8e8a7b0f4a23f07a4d957eb0a1bb287aa2c9c9419cf57257acb70856"},{"blockNo":237538,"slotNo":237570,"epochNo":10,"epochSlotNo":21570,"hash":"d9fe48f8c1d8c10ecb0d5e945300e9a9768a8050b8e7a03ffd79247d2f7672eb","time":"2017/11/17 21:34:51","txCount":0,"totalFees":0,"totalOutput":0,"slotLeader":"dc7e9ce2a36c442b5786f521a0272b91e208ba2173c07b0a1d567c0d"},{"blockNo":237537,"slotNo":237569,"epochNo":10,"epochSlotNo":21569,"hash":"a9f32edb29c01a5384c43cb46ac1bfe0a5acc5b40bf3d1ae5988bfd1bff24247","time":"2017/11/17 21:34:31","txCount":0,"totalFees":0,"totalOutput":0,"slotLeader":"7b00350597671036d1087787d1cba9e75cefec0bad8a82eff29aa4f8"},{"blockNo":237536,"slotNo":237568,"epochNo":10,"epochSlotNo":21568,"hash":"5ca0cf4978dc87e2f4762eae0c00c4af534d5c9d92e080dd7232e0875ec1a480","time":"2017/11/17 21:34:11","txCount":1,"totalFees":171246,"totalOutput":6163831472264,"slotLeader":"7b00350597671036d1087787d1cba9e75cefec0bad8a82eff29aa4f8"},{"blockNo":237535,"slotNo":237567,"epochNo":10,"epochSlotNo":21567,"hash":"1eeb392a7ef91ce2e6f3d9f59855c37ee6b461ce5b3d2f0c320db0e3eba48024","time":"2017/11/17 21:33:51","txCount":0,"totalFees":0,"totalOutput":0,"slotLeader":"8e8a7b0f4a23f07a4d957eb0a1bb287aa2c9c9419cf57257acb70856"},{"blockNo":237534,"slotNo":237566,"epochNo":10,"epochSlotNo":21566,"hash":"bf3078cb1f82f0e2edf82b51d7b325f7acf1a39c50ad6ad40926367eb6386ad6","time":"2017/11/17 21:33:31","txCount":0,"totalFees":0,"totalOutput":0,"slotLeader":"888c451ae09a16fed73e4ad2f01437f1baca37178ea2399fc604d90b"},{"blockNo":237533,"slotNo":237565,"epochNo":10,"epochSlotNo":21565,"hash":"3ff385cca9d9f24ae68dfb4614a5c8b67cb84b9ebf26e8e92bf31acad63b1f8c","time":"2017/11/17 21:33:11","txCount":0,"totalFees":0,"totalOutput":0,"slotLeader":"8e8a7b0f4a23f07a4d957eb0a1bb287aa2c9c9419cf57257acb70856"},{"blockNo":237532,"slotNo":237564,"epochNo":10,"epochSlotNo":21564,"hash":"b7dfef4657224bc5200718eccde559fdcbde0a6ed354d7ad8a63d72183bd171e","time":"2017/11/17 21:32:51","txCount":0,"totalFees":0,"totalOutput":0,"slotLeader":"52df0f2c5539b2b1a8f7b91d8c0715ccb1954b31ddb65737bbd8a58d"},{"blockNo":237531,"slotNo":237563,"epochNo":10,"epochSlotNo":21563,"hash":"688454ede0b911880c0a89cff642210fe6735dd775ff85f2cfcb8432b5116a67","time":"2017/11/17 21:32:31","txCount":0,"totalFees":0,"totalOutput":0,"slotLeader":"52df0f2c5539b2b1a8f7b91d8c0715ccb1954b31ddb65737bbd8a58d"},{"blockNo":237530,"slotNo":237562,"epochNo":10,"epochSlotNo":21562,"hash":"4236887ce0db322dfc25cd1c4f0ead3050a62a9f65a1876ec0f89654ec14fd9a","time":"2017/11/17 21:32:11","txCount":1,"totalFees":171070,"totalOutput":6163832643510,"slotLeader":"8e8a7b0f4a23f07a4d957eb0a1bb287aa2c9c9419cf57257acb70856"},{"blockNo":237529,"slotNo":237561,"epochNo":10,"epochSlotNo":21561,"hash":"078d679ead00a844b6e38c4ba421edb80c8ee3c34ca0758e0e08d1e61b2cb291","time":"2017/11/17 21:31:51","txCount":0,"totalFees":0,"totalOutput":0,"slotLeader":"be09d88f50165c5ca50855a7112900c0ec1e30356aded5f880eb3799"},{"blockNo":237528,"slotNo":237560,"epochNo":10,"epochSlotNo":21560,"hash":"42fb085c2518a675b6a6ddbf172a377be89cc7059404e0f2dcc6e74949e9b5fa","time":"2017/11/17 21:31:31","txCount":0,"totalFees":0,"totalOutput":0,"slotLeader":"888c451ae09a16fed73e4ad2f01437f1baca37178ea2399fc604d90b"},{"blockNo":237527,"slotNo":237559,"epochNo":10,"epochSlotNo":21559,"hash":"b16c8e136b503d2bf7608201a74566c8db4aa03f4a6f9c16721b7db9ca30db6e","time":"2017/11/17 21:31:11","txCount":0,"totalFees":0,"totalOutput":0,"slotLeader":"64c61078e9577d3b66ecd9e4e99fa9e5e1b5cf6097c11b23d139f6b8"},{"blockNo":237526,"slotNo":237558,"epochNo":10,"epochSlotNo":21558,"hash":"10f95d43aa9294e56b385ac583500cd9e9f5b3d0d87a9912b2fd9e317d82697b","time":"2017/11/17 21:30:51","txCount":0,"totalFees":0,"totalOutput":0,"slotLeader":"52df0f2c5539b2b1a8f7b91d8c0715ccb1954b31ddb65737bbd8a58d"},{"blockNo":237525,"slotNo":237557,"epochNo":10,"epochSlotNo":21557,"hash":"d0d9afa46a9fc566abef59f99957f7986a1fa491b6fdf61c418d7e3dd4f846d0","time":"2017/11/17 21:30:31","txCount":0,"totalFees":0,"totalOutput":0,"slotLeader":"8e8a7b0f4a23f07a4d957eb0a1bb287aa2c9c9419cf57257acb70856"},{"blockNo":237524,"slotNo":237556,"epochNo":10,"epochSlotNo":21556,"hash":"44c7216214928fba94e0589640bc2eb2d75f5f7be2bad67f692e2ba68c070c78","time":"2017/11/17 21:30:11","txCount":0,"totalFees":0,"totalOutput":0,"slotLeader":"888c451ae09a16fed73e4ad2f01437f1baca37178ea2399fc604d90b"},{"blockNo":237523,"slotNo":237555,"epochNo":10,"epochSlotNo":21555,"hash":"e4e72009a4d26b348f6bb4276ba2461b5c36614d096330676f32d4be30540430","time":"2017/11/17 21:29:51","txCount":0,"totalFees":0,"totalOutput":0,"slotLeader":"8e8a7b0f4a23f07a4d957eb0a1bb287aa2c9c9419cf57257acb70856"},{"blockNo":237522,"slotNo":237554,"epochNo":10,"epochSlotNo":21554,"hash":"f73710d5a55ef8ee12a9d1c34281984158812f0f8830d187b585d232b902bbdc","time":"2017/11/17 21:29:31","txCount":0,"totalFees":0,"totalOutput":0,"slotLeader":"be09d88f50165c5ca50855a7112900c0ec1e30356aded5f880eb3799"},{"blockNo":237521,"slotNo":237553,"epochNo":10,"epochSlotNo":21553,"hash":"fe361b99256e81451a0efdcc1d494551967c17b4a4a57a2047a73dc8d01851bf","time":"2017/11/17 21:29:11","txCount":0,"totalFees":0,"totalOutput":0,"slotLeader":"be09d88f50165c5ca50855a7112900c0ec1e30356aded5f880eb3799"},{"blockNo":237520,"slotNo":237552,"epochNo":10,"epochSlotNo":21552,"hash":"1b19687e7290cb2780d3df006ac27063dd4c21c0df09e21f0d288feedb031d32","time":"2017/11/17 21:28:51","txCount":0,"totalFees":0,"totalOutput":0,"slotLeader":"8e8a7b0f4a23f07a4d957eb0a1bb287aa2c9c9419cf57257acb70856"},{"blockNo":237519,"slotNo":237551,"epochNo":10,"epochSlotNo":21551,"hash":"1f6e168338ea6fd3d2df7ee54e1dcc9de597d5b64d7bf1d5efe4c5ea15a305b9","time":"2017/11/17 21:28:31","txCount":0,"totalFees":0,"totalOutput":0,"slotLeader":"dc7e9ce2a36c442b5786f521a0272b91e208ba2173c07b0a1d567c0d"},{"blockNo":237518,"slotNo":237550,"epochNo":10,"epochSlotNo":21550,"hash":"69de7f2ff501c83321dbec574d6a2349e22733e557ba0cd55706aaab0e1703c5","time":"2017/11/17 21:28:11","txCount":0,"totalFees":0,"totalOutput":0,"slotLeader":"888c451ae09a16fed73e4ad2f01437f1baca37178ea2399fc604d90b"},{"blockNo":237517,"slotNo":237549,"epochNo":10,"epochSlotNo":21549,"hash":"79b936d4d65542f2c6069dd72e446ed5e823c99e1cde83d700f5cee4bf69d1e2","time":"2017/11/17 21:27:51","txCount":0,"totalFees":0,"totalOutput":0,"slotLeader":"dc7e9ce2a36c442b5786f521a0272b91e208ba2173c07b0a1d567c0d"},{"blockNo":237516,"slotNo":237548,"epochNo":10,"epochSlotNo":21548,"hash":"aba2b1e5407ff0681461a147616acf682103fc6ce11c09954cc21a0d69b81741","time":"2017/11/17 21:27:31","txCount":0,"totalFees":0,"totalOutput":0,"slotLeader":"7b00350597671036d1087787d1cba9e75cefec0bad8a82eff29aa4f8"},{"blockNo":237515,"slotNo":237547,"epochNo":10,"epochSlotNo":21547,"hash":"14c179ffca934bfb0cecfe14d07ae25aa2be392022218b0fcc57fc1344a5e693","time":"2017/11/17 21:27:11","txCount":0,"totalFees":0,"totalOutput":0,"slotLeader":"be09d88f50165c5ca50855a7112900c0ec1e30356aded5f880eb3799"},{"blockNo":237514,"slotNo":237546,"epochNo":10,"epochSlotNo":21546,"hash":"28dc88ab922d7d9bbddd8bf62fc51755e44cd957a14807d828b1e2a16d7edfb1","time":"2017/11/17 21:26:51","txCount":0,"totalFees":0,"totalOutput":0,"slotLeader":"8e8a7b0f4a23f07a4d957eb0a1bb287aa2c9c9419cf57257acb70856"},{"blockNo":237513,"slotNo":237545,"epochNo":10,"epochSlotNo":21545,"hash":"e986f989098a2d08cd3d5e8f4e83483260e262c159296cd8b9b89120f9559ab3","time":"2017/11/17 21:26:31","txCount":0,"totalFees":0,"totalOutput":0,"slotLeader":"52df0f2c5539b2b1a8f7b91d8c0715ccb1954b31ddb65737bbd8a58d"},{"blockNo":237512,"slotNo":237544,"epochNo":10,"epochSlotNo":21544,"hash":"ea122ed97837ce57f1868ae7ac6ab21746072fabe2568e44ffb6d38f54b88183","time":"2017/11/17 21:26:11","txCount":0,"totalFees":0,"totalOutput":0,"slotLeader":"64c61078e9577d3b66ecd9e4e99fa9e5e1b5cf6097c11b23d139f6b8"},{"blockNo":237511,"slotNo":237543,"epochNo":10,"epochSlotNo":21543,"hash":"900d6d4f3827c532ec293e4b98c2bc20572a9a3fe5fd05f2c8e74f723952266a","time":"2017/11/17 21:25:51","txCount":0,"totalFees":0,"totalOutput":0,"slotLeader":"be09d88f50165c5ca50855a7112900c0ec1e30356aded5f880eb3799"},{"blockNo":237510,"slotNo":237542,"epochNo":10,"epochSlotNo":21542,"hash":"bc5f87b244d9261c689ab29cd4875da8e862be1140e3444c436839f62269a9a2","time":"2017/11/17 21:25:31","txCount":0,"totalFees":0,"totalOutput":0,"slotLeader":"888c451ae09a16fed73e4ad2f01437f1baca37178ea2399fc604d90b"},{"blockNo":237509,"slotNo":237541,"epochNo":10,"epochSlotNo":21541,"hash":"a40d76a53e408399c1fe3cb7841f4e01bd2362aab9afd493dd0712d44dd8b142","time":"2017/11/17 21:25:11","txCount":0,"totalFees":0,"totalOutput":0,"slotLeader":"64c61078e9577d3b66ecd9e4e99fa9e5e1b5cf6097c11b23d139f6b8"},{"blockNo":237508,"slotNo":237540,"epochNo":10,"epochSlotNo":21540,"hash":"34272b2e7407c7e97a434587b4a28bc3e65d1dd1e6933a9487ba3389eaaab7a7","time":"2017/11/17 21:24:51","txCount":0,"totalFees":0,"totalOutput":0,"slotLeader":"be09d88f50165c5ca50855a7112900c0ec1e30356aded5f880eb3799"},{"blockNo":237507,"slotNo":237539,"epochNo":10,"epochSlotNo":21539,"hash":"93b1a12b26b180b1c2f5e55462367db73b08995fc753f246344a592124c355f1","time":"2017/11/17 21:24:31","txCount":0,"totalFees":0,"totalOutput":0,"slotLeader":"dc7e9ce2a36c442b5786f521a0272b91e208ba2173c07b0a1d567c0d"},{"blockNo":237506,"slotNo":237538,"epochNo":10,"epochSlotNo":21538,"hash":"27298c8da788c3ad7c07baebd9503713aa5b76fc4acae75fa25ca5056b14d925","time":"2017/11/17 21:24:11","txCount":0,"totalFees":0,"totalOutput":0,"slotLeader":"64c61078e9577d3b66ecd9e4e99fa9e5e1b5cf6097c11b23d139f6b8"},{"blockNo":237505,"slotNo":237537,"epochNo":10,"epochSlotNo":21537,"hash":"d5c925ab97a5dc7d885d26224e86d1e6bd8bb8c054ab22c66835b47f68b5341d","time":"2017/11/17 21:23:51","txCount":0,"totalFees":0,"totalOutput":0,"slotLeader":"888c451ae09a16fed73e4ad2f01437f1baca37178ea2399fc604d90b"},{"blockNo":237504,"slotNo":237536,"epochNo":10,"epochSlotNo":21536,"hash":"1abee26b3578b43a805aa34a66f6fa3e76607df4b042e4faca1165299ab2fcfa","time":"2017/11/17 21:23:31","txCount":0,"totalFees":0,"totalOutput":0,"slotLeader":"dc7e9ce2a36c442b5786f521a0272b91e208ba2173c07b0a1d567c0d"},{"blockNo":237503,"slotNo":237535,"epochNo":10,"epochSlotNo":21535,"hash":"4a94f95f15f395c8876204d0de97ea3b9a6a3f9af5674357a4e1fe434a37916b","time":"2017/11/17 21:23:11","txCount":0,"totalFees":0,"totalOutput":0,"slotLeader":"be09d88f50165c5ca50855a7112900c0ec1e30356aded5f880eb3799"},{"blockNo":237502,"slotNo":237534,"epochNo":10,"epochSlotNo":21534,"hash":"69d56b063cfadeb98b9beaa312c38b7daf6696674871afc8432dfe910e7d67a2","time":"2017/11/17 21:22:51","txCount":0,"totalFees":0,"totalOutput":0,"slotLeader":"64c61078e9577d3b66ecd9e4e99fa9e5e1b5cf6097c11b23d139f6b8"},{"blockNo":237501,"slotNo":237533,"epochNo":10,"epochSlotNo":21533,"hash":"7c3b8c7802e6ad9ac10cc011dc1f59ccc193fb56abdff919a7f212a56ee16d4c","time":"2017/11/17 21:22:31","txCount":0,"totalFees":0,"totalOutput":0,"slotLeader":"be09d88f50165c5ca50855a7112900c0ec1e30356aded5f880eb3799"},{"blockNo":237500,"slotNo":237532,"epochNo":10,"epochSlotNo":21532,"hash":"b01971d0bf5ae7d9ac6ed9611cad1c1dd7354866e1e2fbf44f83eee6113236a0","time":"2017/11/17 21:22:11","txCount":0,"totalFees":0,"totalOutput":0,"slotLeader":"52df0f2c5539b2b1a8f7b91d8c0715ccb1954b31ddb65737bbd8a58d"},{"blockNo":237499,"slotNo":237531,"epochNo":10,"epochSlotNo":21531,"hash":"eabb2b44de805b6b8ad5db55ecbec6e54a58de4a992f815b89f81ccc5f8a9a09","time":"2017/11/17 21:21:51","txCount":0,"totalFees":0,"totalOutput":0,"slotLeader":"be09d88f50165c5ca50855a7112900c0ec1e30356aded5f880eb3799"},{"blockNo":237498,"slotNo":237530,"epochNo":10,"epochSlotNo":21530,"hash":"56447a90741de5fd892d6a8a7f9061b775af31c31ad567dcd87e48d33425b278","time":"2017/11/17 21:21:31","txCount":0,"totalFees":0,"totalOutput":0,"slotLeader":"7b00350597671036d1087787d1cba9e75cefec0bad8a82eff29aa4f8"},{"blockNo":237497,"slotNo":237529,"epochNo":10,"epochSlotNo":21529,"hash":"b42d7c4fb5d1a67147baceb9a1f966aa34ac44762e95e310988509ea29d28d74","time":"2017/11/17 21:21:11","txCount":0,"totalFees":0,"totalOutput":0,"slotLeader":"7b00350597671036d1087787d1cba9e75cefec0bad8a82eff29aa4f8"},{"blockNo":237496,"slotNo":237528,"epochNo":10,"epochSlotNo":21528,"hash":"b0a330f4eec1efc2cce01b0531e3833edd2bbf1e70532e21d4cf4f805b7e8232","time":"2017/11/17 21:20:51","txCount":0,"totalFees":0,"totalOutput":0,"slotLeader":"64c61078e9577d3b66ecd9e4e99fa9e5e1b5cf6097c11b23d139f6b8"},{"blockNo":237495,"slotNo":237527,"epochNo":10,"epochSlotNo":21527,"hash":"e96fb118f0ed46dd5dfa0a0a8962478cfa7e613b77f22b02978cb403a4fcf9d8","time":"2017/11/17 21:20:31","txCount":0,"totalFees":0,"totalOutput":0,"slotLeader":"7b00350597671036d1087787d1cba9e75cefec0bad8a82eff29aa4f8"},{"blockNo":237494,"slotNo":237526,"epochNo":10,"epochSlotNo":21526,"hash":"045f5668a4b47ec0a367b62b53f155243e4cceab93041878786f845250354a86","time":"2017/11/17 21:20:11","txCount":0,"totalFees":0,"totalOutput":0,"slotLeader":"8e8a7b0f4a23f07a4d957eb0a1bb287aa2c9c9419cf57257acb70856"},{"blockNo":237493,"slotNo":237525,"epochNo":10,"epochSlotNo":21525,"hash":"eb074f0e710cf34decb7045f8c851c606bf0d1de5d099eda965086ff73d600af","time":"2017/11/17 21:19:51","txCount":0,"totalFees":0,"totalOutput":0,"slotLeader":"52df0f2c5539b2b1a8f7b91d8c0715ccb1954b31ddb65737bbd8a58d"},{"blockNo":237492,"slotNo":237524,"epochNo":10,"epochSlotNo":21524,"hash":"6f26f71008b9770a1922e063b2afdf52412ffc42dd83d10902c1b545865684c1","time":"2017/11/17 21:19:31","txCount":0,"totalFees":0,"totalOutput":0,"slotLeader":"dc7e9ce2a36c442b5786f521a0272b91e208ba2173c07b0a1d567c0d"},{"blockNo":237491,"slotNo":237523,"epochNo":10,"epochSlotNo":21523,"hash":"e40114d63749b5599e036259ff4dba75d8fa0b3b635ed8bf56ff7ff0f1770716","time":"2017/11/17 21:19:11","txCount":0,"totalFees":0,"totalOutput":0,"slotLeader":"52df0f2c5539b2b1a8f7b91d8c0715ccb1954b31ddb65737bbd8a58d"},{"blockNo":237490,"slotNo":237522,"epochNo":10,"epochSlotNo":21522,"hash":"0ba649368050d1939ff73d770d754418da2b5d58404a876834687a7fe19a3d17","time":"2017/11/17 21:18:51","txCount":0,"totalFees":0,"totalOutput":0,"slotLeader":"7b00350597671036d1087787d1cba9e75cefec0bad8a82eff29aa4f8"},{"blockNo":237489,"slotNo":237521,"epochNo":10,"epochSlotNo":21521,"hash":"4566e58d90ae8c133e3fbf119a7e3ec2e2be138db30c13cd831a584ef337445d","time":"2017/11/17 21:18:31","txCount":0,"totalFees":0,"totalOutput":0,"slotLeader":"64c61078e9577d3b66ecd9e4e99fa9e5e1b5cf6097c11b23d139f6b8"},{"blockNo":237488,"slotNo":237520,"epochNo":10,"epochSlotNo":21520,"hash":"8d0d5358e559bf25f46d0943201ee0d84c72f3ab5621df2bba4d877e0efdebd3","time":"2017/11/17 21:18:11","txCount":0,"totalFees":0,"totalOutput":0,"slotLeader":"dc7e9ce2a36c442b5786f521a0272b91e208ba2173c07b0a1d567c0d"},{"blockNo":237487,"slotNo":237519,"epochNo":10,"epochSlotNo":21519,"hash":"bbc334a7f22dea473310a8edc1f2e538f83182b48c248601f943221f4fc46db5","time":"2017/11/17 21:17:51","txCount":0,"totalFees":0,"totalOutput":0,"slotLeader":"7b00350597671036d1087787d1cba9e75cefec0bad8a82eff29aa4f8"},{"blockNo":237486,"slotNo":237518,"epochNo":10,"epochSlotNo":21518,"hash":"8e1fc854df2e4ad570f9d1dfc738bac2a512ea4a4c00e0a862e9c44052b8cf01","time":"2017/11/17 21:17:31","txCount":0,"totalFees":0,"totalOutput":0,"slotLeader":"be09d88f50165c5ca50855a7112900c0ec1e30356aded5f880eb3799"},{"blockNo":237485,"slotNo":237517,"epochNo":10,"epochSlotNo":21517,"hash":"da9f96dd8f7baeb43e143311ccb5f40979322ada1d0a49393e5239d9789ddc4c","time":"2017/11/17 21:17:11","txCount":0,"totalFees":0,"totalOutput":0,"slotLeader":"52df0f2c5539b2b1a8f7b91d8c0715ccb1954b31ddb65737bbd8a58d"},{"blockNo":237484,"slotNo":237516,"epochNo":10,"epochSlotNo":21516,"hash":"48d03b188ef6ec5c9a392470e6be236c3ce6630946f6d329b8a810777d227804","time":"2017/11/17 21:16:51","txCount":0,"totalFees":0,"totalOutput":0,"slotLeader":"888c451ae09a16fed73e4ad2f01437f1baca37178ea2399fc604d90b"},{"blockNo":237483,"slotNo":237515,"epochNo":10,"epochSlotNo":21515,"hash":"04cba842409260f24e89e79704cf75841ef7e4ef76cf2114dcd8245f820472d7","time":"2017/11/17 21:16:31","txCount":0,"totalFees":0,"totalOutput":0,"slotLeader":"8e8a7b0f4a23f07a4d957eb0a1bb287aa2c9c9419cf57257acb70856"},{"blockNo":237482,"slotNo":237514,"epochNo":10,"epochSlotNo":21514,"hash":"3130b5dbb384b7fb64cbc01ed3f2cfa92a005bc74b7f6923464b7844c9d5df33","time":"2017/11/17 21:16:11","txCount":0,"totalFees":0,"totalOutput":0,"slotLeader":"64c61078e9577d3b66ecd9e4e99fa9e5e1b5cf6097c11b23d139f6b8"},{"blockNo":237481,"slotNo":237513,"epochNo":10,"epochSlotNo":21513,"hash":"29556aa8ddb7725f68513f8fbf5804652682525c3c856ca63aa6bfc8edacf882","time":"2017/11/17 21:15:51","txCount":1,"totalFees":171070,"totalOutput":6164128458507,"slotLeader":"7b00350597671036d1087787d1cba9e75cefec0bad8a82eff29aa4f8"},{"blockNo":237480,"slotNo":237512,"epochNo":10,"epochSlotNo":21512,"hash":"6738534b4bebe9ee874475b3e8add436e55cb559a1958a9cf55c52192403c6e4","time":"2017/11/17 21:15:31","txCount":0,"totalFees":0,"totalOutput":0,"slotLeader":"888c451ae09a16fed73e4ad2f01437f1baca37178ea2399fc604d90b"},{"blockNo":237479,"slotNo":237511,"epochNo":10,"epochSlotNo":21511,"hash":"35439e11c50abe20df3f0982ebed44c1cb577907fa34e999707dd5f62111f923","time":"2017/11/17 21:15:11","txCount":0,"totalFees":0,"totalOutput":0,"slotLeader":"dc7e9ce2a36c442b5786f521a0272b91e208ba2173c07b0a1d567c0d"},{"blockNo":237478,"slotNo":237510,"epochNo":10,"epochSlotNo":21510,"hash":"4b0b011025ae48e5a65009578b22f67fbe8800d5f6656540a449cf9e884c2da9","time":"2017/11/17 21:14:51","txCount":0,"totalFees":0,"totalOutput":0,"slotLeader":"888c451ae09a16fed73e4ad2f01437f1baca37178ea2399fc604d90b"},{"blockNo":237477,"slotNo":237509,"epochNo":10,"epochSlotNo":21509,"hash":"aabc0d374c49ce2b6eed1ef56b12c9b4d6299ac4cd2bdfec62d36c84c51ba4c2","time":"2017/11/17 21:14:31","txCount":0,"totalFees":0,"totalOutput":0,"slotLeader":"be09d88f50165c5ca50855a7112900c0ec1e30356aded5f880eb3799"},{"blockNo":237476,"slotNo":237508,"epochNo":10,"epochSlotNo":21508,"hash":"54a1fe4914e36c14e08bc7f8e5ba79239f493eb1062886e377fa86c6b2ae19cc","time":"2017/11/17 21:14:11","txCount":0,"totalFees":0,"totalOutput":0,"slotLeader":"be09d88f50165c5ca50855a7112900c0ec1e30356aded5f880eb3799"},{"blockNo":237475,"slotNo":237507,"epochNo":10,"epochSlotNo":21507,"hash":"d430b9f2d3a458a15d8e8b666ce231511d46bbc8490dca2a5a311f0e5460c0a2","time":"2017/11/17 21:13:51","txCount":0,"totalFees":0,"totalOutput":0,"slotLeader":"52df0f2c5539b2b1a8f7b91d8c0715ccb1954b31ddb65737bbd8a58d"},{"blockNo":237474,"slotNo":237506,"epochNo":10,"epochSlotNo":21506,"hash":"9a17746eccab2d33abc20ee303f7097a1b8abaa127ad24cbdd7be9b80c220657","time":"2017/11/17 21:13:31","txCount":1,"totalFees":171070,"totalOutput":6164228429577,"slotLeader":"888c451ae09a16fed73e4ad2f01437f1baca37178ea2399fc604d90b"},{"blockNo":237473,"slotNo":237505,"epochNo":10,"epochSlotNo":21505,"hash":"7ab1ec6f80b3d7575e50d88c3ed4d07b454b9ab2fe9eb8e21780c30510757dcb","time":"2017/11/17 21:13:11","txCount":0,"totalFees":0,"totalOutput":0,"slotLeader":"8e8a7b0f4a23f07a4d957eb0a1bb287aa2c9c9419cf57257acb70856"},{"blockNo":237472,"slotNo":237504,"epochNo":10,"epochSlotNo":21504,"hash":"b8d75776805f4da71fe006cd7da4c90cbe66a5b55da03f51c528496b7f0042a4","time":"2017/11/17 21:12:51","txCount":0,"totalFees":0,"totalOutput":0,"slotLeader":"888c451ae09a16fed73e4ad2f01437f1baca37178ea2399fc604d90b"},{"blockNo":237471,"slotNo":237503,"epochNo":10,"epochSlotNo":21503,"hash":"d774d6aa0bf6aa0cdaa6cf6b64eb9abb6daff08a3fd0ed34d9769c41e820316c","time":"2017/11/17 21:12:31","txCount":0,"totalFees":0,"totalOutput":0,"slotLeader":"7b00350597671036d1087787d1cba9e75cefec0bad8a82eff29aa4f8"},{"blockNo":237470,"slotNo":237502,"epochNo":10,"epochSlotNo":21502,"hash":"5b1ba10f9df2f065111986475642332d7d2d846643b400043903c840c445ad94","time":"2017/11/17 21:12:11","txCount":0,"totalFees":0,"totalOutput":0,"slotLeader":"52df0f2c5539b2b1a8f7b91d8c0715ccb1954b31ddb65737bbd8a58d"},{"blockNo":237469,"slotNo":237501,"epochNo":10,"epochSlotNo":21501,"hash":"4cd56875bbeaddf7de221877210d157bbc8c1e3bdabc573836f66065bfc8687b","time":"2017/11/17 21:11:51","txCount":0,"totalFees":0,"totalOutput":0,"slotLeader":"be09d88f50165c5ca50855a7112900c0ec1e30356aded5f880eb3799"},{"blockNo":237468,"slotNo":237500,"epochNo":10,"epochSlotNo":21500,"hash":"0325cf84b6b98991d6d480ec7b84a8f431d386b3356418458630852fbeb0259b","time":"2017/11/17 21:11:31","txCount":0,"totalFees":0,"totalOutput":0,"slotLeader":"8e8a7b0f4a23f07a4d957eb0a1bb287aa2c9c9419cf57257acb70856"}],"totalItems":21601,"totalPages":217,"currentPage":0,"isDataOverSize":null}