{"data":[{"txHash":"65c31f4a03df20ab82c16ce85e0c054776c2163341f0492f62701db1e78d1e14","value":647047,"fee":171573,"time":"2024/03/18 07:12:38"},{"txHash":"c93bb6290009ae7c2dbefa6650cd530242dd00ceadc4ae5baa2e37491d53a7dc","value":649474,"fee":171573,"time":"2024/03/11 18:21:08"},{"txHash":"80cf0dc4edef2a3f14f2e3323bb17358c4830d61eb6761664fe0a413167c4547","value":625892,"fee":171573,"time":"2024/03/06 00:53:57"},{"txHash":"3414d77343680c02b0639533d0862470106ca989896a5adb2239688df9566854","value":707407,"fee":171573,"time":"2024/03/02 03:26:40"},{"txHash":"dc50aed5a53ce0e433da7d6c6ff49b257a0ea2b1e49c5a5f90bba624781f6395","value":125365,"fee":172981,"time":"2024/02/22 04:52:52"},{"txHash":"fb69df2dbc4bd8f62fb5edc1594248477df7d7f027f5118339674269adc8603c","value":487027,"fee":173157,"time":"2024/01/17 06:22:18"},{"txHash":"f0552cd5d6058a952fc79d4cc545b461f5a8bfdac5cbe9c4952468b931f60b76","value":468120,"fee":173025,"time":"2024/01/08 10:51:52"},{"txHash":"fb6c3fa1d913f7311a6b16b4efef73092fa60a194d64885ee8a00be082179ec6","value":109094,"fee":173157,"time":"2023/12/28 04:02:36"},{"txHash":"540c46133ae2674a2bc5638b96ddd973630ca507f63807606f834d3384621566","value":3929715,"fee":171573,"time":"2023/12/22 05:03:59"},{"txHash":"2ed0435a9fac8535a56ce54807cff20dbeb8f3985255706b6d4840fa6bc9fee2","value":4225754,"fee":171573,"time":"2023/12/12 06:35:55"},{"txHash":"615b3f5e0184dd9a839505c8a5ca1450eed0c8f8cb61cba74f0dc2487df84ac5","value":4407475,"fee":171573,"time":"2023/12/07 04:27:27"},{"txHash":"5c6fc58bb89ab72f3d4e7b089a898fcfe8cd5f2d16a9f02a814b4ea469e646eb","value":3979149,"fee":171573,"time":"2023/12/02 05:28:54"},{"txHash":"8ac3e89891691966e1b7a2e083d0917f9ea85b0b4f1c9c3a05f22cdefda4635d","value":3774003,"fee":171573,"time":"2023/11/27 04:48:05"},{"txHash":"83f5022ad8edee0524fe0d1852a5c53e7502f9621846b8bf4425b1234cff581e","value":5101354,"fee":171573,"time":"2023/11/22 02:34:53"},{"txHash":"4eb2a393d6206a5308e66c0415c17ddba9667c8476f32d8a8981545991356e06","value":3859199,"fee":171573,"time":"2023/11/17 06:07:47"},{"txHash":"d3b35be0b9b3e35af04cf6530eb909d1a047d08b70453232bafbc4d16f17ad34","value":4599775,"fee":171573,"time":"2023/11/12 06:09:36"},{"txHash":"283113b59f0390294ffce681cbbe4bdab22a44813ca05781f25491e9af994b0d","value":482111,"fee":171573,"time":"2023/11/10 05:17:16"},{"txHash":"b3455f5f23a4a2dd732ed64c4e50229b15e7a6ca73032562a87b893f1b05d66c","value":596990,"fee":173201,"time":"2023/10/26 08:29:35"},{"txHash":"4ddfe2a19bacea9c207665a6e4c7f469e731a11681c9f293ab279b5f8960c7ff","value":25470,"fee":173069,"time":"2023/10/08 07:59:04"},{"txHash":"107762e701739cebc997fa635542a2a350ec9efa51030679fe73b38e3e1946af","value":830567,"fee":173157,"time":"2023/09/23 02:40:19"}],"totalItems":100,"totalPages":5,"currentPage":0,"isDataOverSize":null}