{"data":[{"scriptHash":"9068a7a3f008803edac87af1619860f2cdcde40c26987325ace138ad","scriptVersion":"PLUTUSV2","txCount":3813211,"txPurposes":["SPEND"]}],"totalItems":41392,"totalPages":41392,"currentPage":0,"isDataOverSize":null}