{"data":[{"txHash":"737956f64bfa665dbc7de603c4c4b0b6feb8f87b78de3f7d10d678e540f4bd19","time":"2023/08/14 14:19:14","blockNo":9159076,"epochNo":430,"epochSlotNo":59663,"stakeKeys":["stake1u93t2dn5wfu7wqqperx5wjnyj4pg960y5f45rzsu74yzz8gykjwxe"],"pools":[{"tickerName":"PSB","poolName":"PSILOBLOX","poolId":"pool17taqml487n9t4r9a6ppvf9qv0qlw2lu4zcrzwfdsfcv6xp7uqym"}]},{"txHash":"44f2869ce97095b21fc1654dddeb3d29e691ebb07bdfe03f51762f4520ccdae1","time":"2023/08/14 14:19:14","blockNo":9159076,"epochNo":430,"epochSlotNo":59663,"stakeKeys":["stake1u97v559w7sdjncktshwaecg4wvcfzejjgpn6nekz632hcwqkdvw6u"],"pools":[{"tickerName":"HRMS","poolName":"Hermes Stakepool Germany #1","poolId":"pool16fyda57p3c8gp5r6gmcq5tvqsp6mnzwvkxswgznkuh8wztrp6vv"}]},{"txHash":"34a087de167c648b1ac07102680a40dee6e8c7941642a56171e1eb864936de96","time":"2023/08/14 14:13:47","blockNo":9159068,"epochNo":430,"epochSlotNo":59336,"stakeKeys":["stake1uy4jfdvcqjs7xkzefnlac9klfz9pvdu044zjz86ud7kmyfsqhvy8e"],"pools":[{"tickerName":"PSB","poolName":"PSILOBLOX","poolId":"pool17taqml487n9t4r9a6ppvf9qv0qlw2lu4zcrzwfdsfcv6xp7uqym"}]},{"txHash":"fb31cec0840b30592e4abe0c7e3ed5bb35da5b283af1fb329d5b8b6c7fce1ec0","time":"2023/08/14 14:13:47","blockNo":9159068,"epochNo":430,"epochSlotNo":59336,"stakeKeys":["stake1uxpd7gge4u0673cnpqmp5ng4vcapzq9wgmdcy04a67k73lq2ut36f"],"pools":[{"tickerName":"BLADE","poolName":"BLADE Pool - bladepool.com","poolId":"pool16ajaae2n5lsyr4f9k9uz5y8tpf0996tw640dzu7chwp2wdrnz6a"}]},{"txHash":"ecb6a89053b3c21452081c4875209bfa8d2315666f4e33c07680682bae1cf83e","time":"2023/08/14 14:10:45","blockNo":9159065,"epochNo":430,"epochSlotNo":59154,"stakeKeys":["stake1uyhf405uz4s58g8cgnkahcp8tnvra4s058vk0lux5ykwusc8k7c6v"],"pools":[{"tickerName":"PSB","poolName":"PSILOBLOX","poolId":"pool17taqml487n9t4r9a6ppvf9qv0qlw2lu4zcrzwfdsfcv6xp7uqym"}]},{"txHash":"dacc89b3fcb17501bf337f5f0591574cc64dc1e80ff7a87f3f0c8d062b63b242","time":"2023/08/14 14:09:36","blockNo":9159058,"epochNo":430,"epochSlotNo":59085,"stakeKeys":["stake1uyrsdnvu2rgc82ma924f5376ptcqgq90p3jyuur2tn0djjgc79n3v"],"pools":[{"tickerName":"RATS","poolName":"RATS Pool","poolId":"pool1tcmk6at0dmkytxgq5j4u7fgsx9kytvfu7gz22lrs8hp9ztu7arw"}]},{"txHash":"027c9daaa38fe4031fbdbc5d15452f1de5956d6f680d0de2d5f18601b8d2dd47","time":"2023/08/14 14:08:58","blockNo":9159056,"epochNo":430,"epochSlotNo":59047,"stakeKeys":["stake1u8juc2y24h2xmx2s788kh3l5em2nj4zmam8x36hxdhkqz5s5v86k2"],"pools":[{"tickerName":"PSB","poolName":"PSILOBLOX","poolId":"pool17taqml487n9t4r9a6ppvf9qv0qlw2lu4zcrzwfdsfcv6xp7uqym"}]},{"txHash":"65acd6688108e1438f083dd68e52f1c27afe13f2a91c676997c19a67719e9f63","time":"2023/08/14 14:08:04","blockNo":9159055,"epochNo":430,"epochSlotNo":58993,"stakeKeys":["stake1u8z2lslevtu4c64z3dfp7d8a3f3ksqekm9xzm0hana62fps2wxjsl"],"pools":[{"tickerName":"PSB","poolName":"PSILOBLOX","poolId":"pool17taqml487n9t4r9a6ppvf9qv0qlw2lu4zcrzwfdsfcv6xp7uqym"}]},{"txHash":"b2aa59be8c3ddc8b354a9eb3ebae60f4dbd591ec8d7a8715c4bd9b276af4e4a2","time":"2023/08/14 14:07:52","blockNo":9159054,"epochNo":430,"epochSlotNo":58981,"stakeKeys":["stake1u8dhvckfdqn5hyuwm3gg0asalk4cezazh3jxs3tufmpl65syq6nee"],"pools":[{"tickerName":"PSB","poolName":"PSILOBLOX","poolId":"pool17taqml487n9t4r9a6ppvf9qv0qlw2lu4zcrzwfdsfcv6xp7uqym"}]},{"txHash":"01cab96ca3e18d761bb00c3c440974b921717aa0c430aa3a2356088358b0ee5a","time":"2023/08/14 14:07:20","blockNo":9159053,"epochNo":430,"epochSlotNo":58949,"stakeKeys":["stake1uxmu5453h2fqj06gwpll8dlfw6z9cxxwdjturukdzdj7hgsv5p9pe"],"pools":[{"tickerName":"AWP1","poolName":"Atomic Nodes #1","poolId":"pool15wkxegrfflzcyhurrjxsm9ljqtz09xr5rtnqsarnp7hmsz5um3t"}]},{"txHash":"29d6babd0500d10bc36deecdc2e857913c7da877b06089b7dc86b02b3192f2be","time":"2023/08/14 14:07:20","blockNo":9159053,"epochNo":430,"epochSlotNo":58949,"stakeKeys":["stake1u9yhwkn2l4w24qvppgxunj04vxvvpz50lr8330gz2w8hppq6p3cvr"],"pools":[{"tickerName":"PSB","poolName":"PSILOBLOX","poolId":"pool17taqml487n9t4r9a6ppvf9qv0qlw2lu4zcrzwfdsfcv6xp7uqym"}]},{"txHash":"0a7a2ee089ae2b19f29d3294bd1c2a447b6ed682b0acab483fc5385aa3b5537a","time":"2023/08/14 14:07:20","blockNo":9159053,"epochNo":430,"epochSlotNo":58949,"stakeKeys":["stake1u8724qgu25rxus6fnt6vfwgp5zez38zjthtdzvfz72tanas7azqh8"],"pools":[{"tickerName":"PSB","poolName":"PSILOBLOX","poolId":"pool17taqml487n9t4r9a6ppvf9qv0qlw2lu4zcrzwfdsfcv6xp7uqym"}]},{"txHash":"4424967d804ccadb704f8eaf2c219aa2feb8f3ab24b7a9fb0862856cb918a915","time":"2023/08/14 14:06:25","blockNo":9159050,"epochNo":430,"epochSlotNo":58894,"stakeKeys":["stake1uxccdl5z2sajwmkyv6pd44v60u0mfkx4fq9c374zhkl5udcwglhck"],"pools":[{"tickerName":"DDOS","poolName":"DDoS Pool","poolId":"pool15k0zeppza4qzgf6z7wmwsgvl5rz9f6489zxhrxqa8dj6jzju6ct"}]},{"txHash":"a7e55f43d829120c0c75d8cfeb7fae8150ee68b44f305db7a1f08844cbff1b2f","time":"2023/08/14 14:05:02","blockNo":9159049,"epochNo":430,"epochSlotNo":58811,"stakeKeys":["stake1uy2q3sx7s5msxrp9wzzu0pzkvd9e0372x5pl9z7tcmymvnc9cayle"],"pools":[{"tickerName":"IAGL1","poolName":"Iagon liquidity stake pool 1","poolId":"pool1ztk6dcj2nc3plnujf3ek6jqngtx8hcryufz56lyumemlcy2xxn0"}]},{"txHash":"2f96751b99455dc4fcac61df527076235f98716de1a880a5ca9b97b45bc4b99e","time":"2023/08/14 14:02:29","blockNo":9159045,"epochNo":430,"epochSlotNo":58658,"stakeKeys":["stake1uyzzc93tlmahxep05kysfvn8c0kzgxl433s6q9rgpp2hv0cttv9u4"],"pools":[{"tickerName":"HRMS","poolName":"Hermes Stakepool Germany #1","poolId":"pool16fyda57p3c8gp5r6gmcq5tvqsp6mnzwvkxswgznkuh8wztrp6vv"}]},{"txHash":"8948434f2b69aad20f127aa754310651ef8316f321c918df198b5fff7187904a","time":"2023/08/14 14:02:01","blockNo":9159044,"epochNo":430,"epochSlotNo":58630,"stakeKeys":["stake1u9a5fux96suwxngjwuy938ej7u0zrgazwg9pma77zpe3rmswwm76y"],"pools":[{"tickerName":"DDOS","poolName":"DDoS Pool","poolId":"pool15k0zeppza4qzgf6z7wmwsgvl5rz9f6489zxhrxqa8dj6jzju6ct"}]},{"txHash":"c286aa06cfe4aeffc1155de4e2e8a9f808b734177ee3de3f34ecf87d28a07754","time":"2023/08/14 13:56:49","blockNo":9159033,"epochNo":430,"epochSlotNo":58318,"stakeKeys":["stake1u998lyfu6h3cr9nwz5d8hyjhfjs25wnayd9lweuea8tyfvqrmtyy9"],"pools":[{"poolId":"pool1xmsdhync6k6grkkj7tuycskjpseykpr24luhlazl5nsngsy87gm"}]},{"txHash":"094c7c179f7de2aa1155e1ef45e5f343fa95792da58c3326590468a8e8cdce31","time":"2023/08/14 13:55:27","blockNo":9159030,"epochNo":430,"epochSlotNo":58236,"stakeKeys":["stake1uydj9qvrme02g57kzrg7r7evgvkpat26sjl2fj28tmlv9lcykrydz"],"pools":[{"tickerName":"SPF0","poolName":"\uD83D\uDFE3 Spectrum Finance | Standard ISP x1","poolId":"pool1yl46tklt9df02cf653fv74x2klucj3fc6mhm05n3enpk7lgxfjv"}]},{"txHash":"f66289472e23e95c1907292ac108221186137c07159789908363b825dbcba1b0","time":"2023/08/14 13:55:27","blockNo":9159030,"epochNo":430,"epochSlotNo":58236,"stakeKeys":["stake1u9a5fux96suwxngjwuy938ej7u0zrgazwg9pma77zpe3rmswwm76y"],"pools":[{"tickerName":"DDOS","poolName":"DDoS Pool","poolId":"pool15k0zeppza4qzgf6z7wmwsgvl5rz9f6489zxhrxqa8dj6jzju6ct"}]},{"txHash":"b365548d3e0a7504a48293a27b1de1e984739b34f7f6e4ec279ae51cfd4e6be7","time":"2023/08/14 13:51:38","blockNo":9159021,"epochNo":430,"epochSlotNo":58007,"stakeKeys":["stake1ux5hufdlzfsu2d6h90a6wddztuddnzq03m6g9rf72c36t5cqltlvf"],"pools":[{"tickerName":"HYPER","poolName":"Hyperlink Pool","poolId":"pool1yc6f3cqsc7jfh07hcns64v5cp8720mve870pgxf2wkr3u8l7tse"}]}],"totalItems":2879810,"totalPages":143991,"currentPage":0}