{"data":[{"id":1,"poolId":"pool1z5uqdk7dzdxaae5633fqfcu2eqzy3a3rgtuvy087fdld7yws0xt","poolName":"OctasPool","poolSize":65688501328494,"reward":3.029500,"feePercent":0.009000,"feeAmount":340000000,"pledge":530000000000,"saturation":90.680000,"numberDelegators":4590,"epochBlock":10,"lifetimeBlock":9470,"lifetimeRos":3.052278},{"id":2,"poolId":"pool1pu5jlj4q9w9jlxeu370a3c9myx47md5j5m2str0naunn2q3lkdy","poolName":"StakeNuts","poolSize":3940303241629,"reward":1.861500,"feePercent":0.049000,"feeAmount":340000000,"pledge":250000000000,"saturation":5.470000,"numberDelegators":174,"epochBlock":1,"lifetimeBlock":2454,"lifetimeRos":1.113341},{"id":3,"poolId":"pool1c8k78ny3xvsfgenhf4yzvpzwgzxmz0t0um0h2xnn2q83vjdr5dj","reward":0.000000,"feePercent":0.000000,"feeAmount":340000000,"pledge":50100000000,"numberDelegators":10,"lifetimeBlock":112},{"id":4,"poolId":"pool1q80jjs53w0fx836n8g38gtdwr8ck5zre3da90peuxn84sj3cu0r","poolName":"Switzerland Investment","poolSize":2162807741723,"reward":6.986100,"feePercent":0.000000,"feeAmount":340000000,"pledge":200000000000,"saturation":3.010000,"numberDelegators":818,"lifetimeBlock":457,"lifetimeRos":5.447689},{"id":5,"poolId":"pool1ddskftmsscw92d7vnj89pldwx5feegkgcmamgt5t0e4lkd7mdp8","poolSize":3482646259,"reward":0.000000,"feePercent":0.050000,"feeAmount":340000000,"pledge":7149000000,"saturation":0.000000,"numberDelegators":13,"lifetimeBlock":23,"lifetimeRos":0.000000},{"id":6,"poolId":"pool1qqqqqdk4zhsjuxxd8jyvwncf5eucfskz0xjjj64fdmlgj735lr9","poolName":"ATADA Stakepool in Austria","poolSize":70594190141310,"reward":4.015000,"feePercent":0.010000,"feeAmount":340000000,"pledge":2500000000000,"saturation":97.190000,"numberDelegators":2835,"epochBlock":12,"lifetimeBlock":12816,"lifetimeRos":3.872609},{"id":7,"poolId":"pool1dmqzwuql5mylffvn7ln3pr9j7kh4gdsssrmma5wgx56f6rtyf42","poolName":"Cryptobounty1","poolSize":9087106356954,"reward":3.920100,"feePercent":0.010000,"feeAmount":340000000,"pledge":1200000000000,"saturation":12.470000,"numberDelegators":513,"epochBlock":4,"lifetimeBlock":2723,"lifetimeRos":3.240018},{"id":8,"poolId":"pool13gdtqme63jprkug3j4wzslhmu0yk4kdx323rtxpjuz7rqv3yyes","reward":0.000000,"feePercent":0.036000,"feeAmount":340000000,"pledge":168000000000,"numberDelegators":3,"lifetimeBlock":1},{"id":9,"poolId":"pool1qzlw7z5mutmd39ldyjnp8n650weqe55z5p8dl3fagac3ge0nx8l","poolName":"Blue Cheese Stakehouse","poolSize":23075091319407,"reward":3.358000,"feePercent":0.020000,"feeAmount":340000000,"pledge":10000000000,"saturation":32.000000,"numberDelegators":1087,"epochBlock":3,"lifetimeBlock":5464,"lifetimeRos":3.254946},{"id":10,"poolId":"pool16tcjctesjnks0p8sfrlf8f3d3vrp2fdn2msy80sgg3cdjtayu3z","poolName":"TapTap Vienna","poolSize":10447995223312,"reward":3.372600,"feePercent":0.010000,"feeAmount":340000000,"pledge":5000000,"saturation":14.500000,"numberDelegators":794,"lifetimeBlock":5918,"lifetimeRos":3.038365}],"totalItems":5695,"totalPages":570,"currentPage":0}