{"data":[{"txId":89068111,"txHash":"ce41758fa0eb7be9fdb42518fbe53ec11138dd4786f560fe0a7688f5c4d01aba","txTime":"2024/04/11 07:01:28","epoch":478,"block":10171685,"epochSlotNo":119797,"slotNo":121252597,"poolName":"Skyskipper","pledge":1144000000,"cost":170000000,"margin":0.0,"poolId":5733,"poolView":"pool18s9snlm9kwex29wtgjjpkmwcn8j3fk3r22dpsehtjyqs754l70q","stakeKey":["stake1u8xelsnt4ujzjmsygzk6fp5z98hqd7twsa8gqpt3yt5559sl7aehg"]},{"txId":89059101,"txHash":"a1d6eb9e43f189d3223d0503a650bd8c9e64707824a04d6965ee3d9adb194de2","txTime":"2024/04/11 01:44:53","epoch":478,"block":10170718,"epochSlotNo":100802,"slotNo":121233602,"poolName":"Poem Stake Pool","pledge":50000000000,"cost":340000000,"margin":0.05,"poolId":2234,"poolView":"pool16cnz5x84vfjzxtsdg53zvly3vqumkjpshpl2fe5nmuyl6srx4m8","stakeKey":["stake1u9w3dpfmyzy6spnrxdw8v8ksc38lye47lwede3v6e8jre2gp0es46"]},{"txId":89054755,"txHash":"5511788c5f399df599614eb8943024248030fd235666ca224a3cacf92fc29e27","txTime":"2024/04/10 23:44:31","epoch":478,"block":10170405,"epochSlotNo":93580,"slotNo":121226380,"poolName":null,"pledge":125000000000,"cost":340000000,"margin":0.0,"poolId":5819,"poolView":"pool1k2cj852umvq5f527x9u7p58mnletdzx29gr4e4npv4nc6m3hch9","stakeKey":["stake1u89njhm7xxuauhn7w9gen02rscnru7a6ls9f8d4ge36d8sqxwv7w3"]},{"txId":89052289,"txHash":"b2afe4a4c8dd8599734299c5227f91ee7c146811218545aaa5bcc93eda482886","txTime":"2024/04/10 22:34:05","epoch":478,"block":10170191,"epochSlotNo":89354,"slotNo":121222154,"poolName":"Harbor Stake Pool","pledge":4000000000,"cost":170000000,"margin":0.02,"poolId":5147,"poolView":"pool14f0uj8vghxzs09p3rzvhlur0dnfwylxc67whaz087srtjjrcjgd","stakeKey":["stake1ux0fuap8m3m5904hqcr9rdefg3pen2tr6w4jprx72ddc5ag2040pm"]},{"txId":89041299,"txHash":"5c068465458fb2062c8f1e67e9deeda50353c1c6b3ce3255fe8659f9c24de93a","txTime":"2024/04/10 18:08:06","epoch":478,"block":10169418,"epochSlotNo":73395,"slotNo":121206195,"poolName":"Climate_Action_Fund","pledge":0,"cost":340000000,"margin":0.0,"poolId":1734,"poolView":"pool1qqmvjqwzcg3p0x89a9hd6lgwvqq8wy2w6mcx0csaxq4x6xz7qyn","stakeKey":["stake1uygsa3nv4kq2pwv0wt32vgvcx7aptu8kyqw8sh00r8yrvrc5hnhyf"]},{"txId":89032541,"txHash":"1976caa5603d1e7136344a862571dae89a355b98eec5ddea20a77021e09459ff","txTime":"2024/04/10 14:54:41","epoch":478,"block":10168811,"epochSlotNo":61790,"slotNo":121194590,"poolName":"BootyPool","pledge":10000000000,"cost":170000000,"margin":0.0,"poolId":5717,"poolView":"pool1s3nj2yp068r9c9zp8rc7cxxaalrp9pflwz9jualr8c7vyl08kj7","stakeKey":["stake1u8hfqvpm23sg26zfn6d0yh32qrptwua0vq9ne40x7k4x2zsxz4yv9"]},{"txId":89028458,"txHash":"713fb8d54b63b7d1153ae0a4329ec941b3b7799b7e2a164084ec7474f1a7557e","txTime":"2024/04/10 13:26:59","epoch":478,"block":10168548,"epochSlotNo":56528,"slotNo":121189328,"poolName":"BROCK Pool - Monthly Art Giveaways!","pledge":15000000000,"cost":170000000,"margin":0.0,"poolId":5349,"poolView":"pool1phc0dedrry2jp2s2tqngcw87vzx3mychvm7qqe3470etzsf3ph7","stakeKey":["stake1uyzna42eq20cv7wj86jmadwqhgecvxpkuv47l3q0qzcgntglr8jfs"]},{"txId":89027897,"txHash":"83cb7fc39a15a821799878df0023a442130c1650a2406244894bd964f7fd628d","txTime":"2024/04/10 13:13:35","epoch":478,"block":10168515,"epochSlotNo":55724,"slotNo":121188524,"poolName":"Woof Pool","pledge":165000000000,"cost":220000000,"margin":0.01,"poolId":4387,"poolView":"pool1cg559cdc25fkvs73umj6w5nxlwy3mpmj02xt7p4v69eqs5ncz9k","stakeKey":["stake1uyc8exnfhm64lxdyxfc3myjvfz2r43nd0hf3h8hcxdt0y4qgujhpy"]},{"txId":89017369,"txHash":"247303f45372a7132d92f04c93dbcfec51fb370fb18050f994c6860a9a5a27a8","txTime":"2024/04/10 08:17:26","epoch":478,"block":10167595,"epochSlotNo":37955,"slotNo":121170755,"poolName":"U0001","pledge":50000000,"cost":340000000,"margin":0.1,"poolId":5620,"poolView":"pool1flkcdxj7cq6sfgl4fujx50p20ylqgj02kgwvfj4g5w24s6th8vz","stakeKey":["stake1u8xlltjze2y7gs25j98rspxy999jxyuc3mh60ddzygk4fkqjese2n"]},{"txId":88991382,"txHash":"257b99299cbd23f6ec83bd8d2baad1e47a6e69d0061fef232a1c5e586d1352f3","txTime":"2024/04/09 20:35:22","epoch":477,"block":10165514,"epochSlotNo":427831,"slotNo":121128631,"poolName":"IBEX2 ADA Pool","pledge":5000000,"cost":340000000,"margin":0.024,"poolId":2763,"poolView":"pool1pyegru75d64xgg4jh83904nst8fs8qz6mvtxquatv44rkartevc","stakeKey":["stake1u9f83jfu6nmfkdj6r5ahpsx5heekq5f88wtlkyvhndrep8g4cv80t"]},{"txId":88990742,"txHash":"313aee76753bc5e2550934aad3b00e1cbb5fba6065d8226c14681818110f2db4","txTime":"2024/04/09 20:19:33","epoch":477,"block":10165461,"epochSlotNo":426882,"slotNo":121127682,"poolName":"IBEX ADA Pool","pledge":5000000,"cost":340000000,"margin":0.024,"poolId":2071,"poolView":"pool16v0jqnz2zuqsdrf6z94ec5rx9ds0xeghsvmddauzt6j5w2u7lsm","stakeKey":["stake1uylve7wsu0sdfanep9nw7q0lm26hg75n2u02ecpw9rxc3hgpr4sae"]},{"txId":88990427,"txHash":"8742623f064f5f6305db37992c12da516e0ba149bcb29c9c9d9f33236f97abf9","txTime":"2024/04/09 20:10:26","epoch":477,"block":10165434,"epochSlotNo":426335,"slotNo":121127135,"poolName":"Gratis ADA","pledge":20000000000,"cost":170000000,"margin":0.0,"poolId":2872,"poolView":"pool1gf8a46j6hvhad8e48hez4084x34snpua8k7t3kzy9w42q6w60z8","stakeKey":["stake1u9n9x75u0es4awhwheev9k5cyhfx7crmn5fwra7nyq3k9xsq6a3kv"]},{"txId":88989733,"txHash":"33b85b9d555a00693b68498d567f2e82cd04d0f8dac8ce1ed8711c5fad79c28a","txTime":"2024/04/09 19:52:43","epoch":477,"block":10165371,"epochSlotNo":425272,"slotNo":121126072,"poolName":"RAKUDA","pledge":4000000,"cost":340000000,"margin":0.9999,"poolId":5654,"poolView":"pool1rxgxstg6t7azlsrk4vuuwp0jgl9e776dg86zqzaa0qt6vz43n9r","stakeKey":["stake1uxk82vvccyes4tjl8sh324tapypcuq7m9vnmjfz00gc9acg0lm7wz"]},{"txId":88967848,"txHash":"459a92cd2c5bb7a1d4da66e509df08449f983d3c69496358ff940130b2fa456f","txTime":"2024/04/09 10:43:11","epoch":477,"block":10163725,"epochSlotNo":392300,"slotNo":121093100,"poolName":"BASHO","pledge":4000000,"cost":340000000,"margin":0.03,"poolId":3587,"poolView":"pool1asfgkqtmjuusclgx72xpzvpw336gkulchtstsx9lsj9uqzjckv0","stakeKey":["stake1u83u5rptlcnaw5q522d7lrttvqgys6xcuwt7pdt7j2ghsaqwdl4me"]},{"txId":88964543,"txHash":"2f0291d2dd43c33c5daed516d27a81bf5eea9acefb8fc331eab0d07d2811b3b9","txTime":"2024/04/09 08:59:06","epoch":477,"block":10163430,"epochSlotNo":386055,"slotNo":121086855,"poolName":"RAKUDA","pledge":5000000,"cost":340000000,"margin":0.9999,"poolId":5654,"poolView":"pool1rxgxstg6t7azlsrk4vuuwp0jgl9e776dg86zqzaa0qt6vz43n9r","stakeKey":["stake1uxk82vvccyes4tjl8sh324tapypcuq7m9vnmjfz00gc9acg0lm7wz"]},{"txId":88963415,"txHash":"b50f7d2a168990ef6b436d3d4664c1dff50bb758614ab733ccfe75633d739b16","txTime":"2024/04/09 08:19:06","epoch":477,"block":10163310,"epochSlotNo":383655,"slotNo":121084455,"poolName":"Moonstake 2","pledge":100000000000,"cost":340000000,"margin":0.025,"poolId":727,"poolView":"pool1ydmetputlff49n9ry5qjupemx3xwxdapm46je574afxdcy0907y","stakeKey":["stake1uywn99pkj6x7pqwvfasvj52z5hefcjwxcxcnlwxa0dfafmce8ndnu"]},{"txId":88963236,"txHash":"3496e7032f240167fb3149de32ab7387868a85d55ac5ff067e39a8394f52f40b","txTime":"2024/04/09 08:13:22","epoch":477,"block":10163299,"epochSlotNo":383311,"slotNo":121084111,"poolName":"Moonstake 1","pledge":100000000000,"cost":340000000,"margin":0.025,"poolId":721,"poolView":"pool1a6v2wt0m8wjra80zuw00sfdxn4w52cna96gcaglzvred6gnsusx","stakeKey":["stake1u9dacfk3amxfuh2tldj474ezpwxa3g35dwnegqte4m3xlqgsdmcen"]},{"txId":88959762,"txHash":"34e5440b28f6c2dd234439113de4d67f34bff49856e226c6e3609bf957521636","txTime":"2024/04/09 06:10:01","epoch":477,"block":10162918,"epochSlotNo":375910,"slotNo":121076710,"poolName":"LongShortSignal","pledge":200000000000,"cost":170000000,"margin":0.02,"poolId":858,"poolView":"pool1f4rs6v0cpsqa09ueddp6hhl8xwdwtdqglvcuce26srxdwmzxl6v","stakeKey":["stake1u9ejxp3gv9kcvx2zsvvwvngk8u54w8qx75luf2kr47mat0ct659zf"]},{"txId":88958206,"txHash":"d4817cc1efdf88e14641f14a774d85f7d5d13719882eecf4a30bfe1e8ec026ff","txTime":"2024/04/09 05:06:40","epoch":477,"block":10162736,"epochSlotNo":372109,"slotNo":121072909,"poolName":null,"pledge":0,"cost":340000000,"margin":0.01,"poolId":5818,"poolView":"pool1tnymyv08dl3k9wyfz040vq626542ztm60wwyu7szwl5l6x9h3vl","stakeKey":["stake1uxdgxxfa7vq4aa8zms89rkph050pg0fe8zey8gesy7tcxggkwtpmp"]},{"txId":88953338,"txHash":"3cfe51cd17b298d8d32e99669e1925585b3dee29bedb3d77f867c83fabee8863","txTime":"2024/04/09 02:35:29","epoch":477,"block":10162317,"epochSlotNo":363038,"slotNo":121063838,"poolName":"YOKOHAMA stake pool","pledge":5000000000,"cost":340000000,"margin":0.01,"poolId":3225,"poolView":"pool1n6z7rf722heq35v2dxvstfwezgdt8cv0mftpv4r9jay3wjk2kkt","stakeKey":["stake1uxmqqsrncfpsmq8j7u32p4up92w6nx4gfc0hay4zkevp8dgssnmpe"]}],"totalItems":33688,"totalPages":1685,"currentPage":0,"isDataOverSize":null}