{"data":[{"txHash":"139c9adddfda2df9e49779ea80ab3ceb55b350c177ec70112871d1389607196a","value":618306,"fee":171573,"time":"2023/06/15 03:25:55"}],"totalItems":76,"totalPages":76,"currentPage":0,"isDataOverSize":null}