{"data":[{"epoch":429,"block":3,"stakeAmount":3923179594227,"delegators":0,"fee":0,"ros":0.000000},{"epoch":428,"block":2,"stakeAmount":3915354690458,"delegators":593885827,"fee":370599796,"ros":1.113341},{"epoch":427,"block":2,"stakeAmount":4009391602414,"delegators":593249809,"fee":370567025,"ros":1.085919},{"epoch":426,"block":5,"stakeAmount":4015585550539,"delegators":1990063573,"fee":442537450,"ros":3.683078},{"epoch":425,"block":1,"stakeAmount":4012737491010,"delegators":139290437,"fee":347176900,"ros":0.253715}],"totalItems":220,"totalPages":44,"currentPage":0}