{"data":[{"id":388,"stakeKey":"stake1u9h5g7m75hwhqnesgz0mkdk5qqhnhzpyfwj2l2tm6n28v4s2w8uqq","username":"6cf8cdda-f402-4039-9b50-aea83154e6e6","reportName":"Yen test ExampleStakeKey 2","fromDate":"2010/01/01 00:00:00","toDate":"2023/07/12 00:00:00","isADATransfer":true,"isFeesPaid":true,"eventRegistration":true,"eventDelegation":true,"eventRewards":true,"eventWithdrawal":true,"eventDeregistration":true,"status":"IN_PROGRESS","type":"STAKE_KEY","createdAt":"2024/04/11 11:47:15"},{"id":387,"stakeKey":"stake1u9h5g7m75hwhqnesgz0mkdk5qqhnhzpyfwj2l2tm6n28v4s2w8uqq","username":"6cf8cdda-f402-4039-9b50-aea83154e6e6","reportName":"Yen test ExampleStakeKey 2","fromDate":"2010/01/01 00:00:00","toDate":"2023/07/12 00:00:00","isADATransfer":true,"isFeesPaid":true,"eventRegistration":true,"eventDelegation":true,"eventRewards":true,"eventWithdrawal":true,"eventDeregistration":true,"status":"GENERATED","type":"STAKE_KEY","createdAt":"2024/04/11 11:19:25"},{"id":386,"stakeKey":"stake1u9h5g7m75hwhqnesgz0mkdk5qqhnhzpyfwj2l2tm6n28v4s2w8uqq","username":"6cf8cdda-f402-4039-9b50-aea83154e6e6","reportName":"Yen test ExampleStakeKey 2","fromDate":"2010/01/01 00:00:00","toDate":"2023/07/12 00:00:00","isADATransfer":true,"isFeesPaid":true,"eventRegistration":true,"eventDelegation":true,"eventRewards":true,"eventWithdrawal":true,"eventDeregistration":true,"status":"GENERATED","type":"STAKE_KEY","createdAt":"2024/04/11 11:10:29"},{"id":385,"stakeKey":"stake1u9h5g7m75hwhqnesgz0mkdk5qqhnhzpyfwj2l2tm6n28v4s2w8uqq","username":"6cf8cdda-f402-4039-9b50-aea83154e6e6","reportName":"Yen test ExampleStakeKey 2","fromDate":"2010/01/01 00:00:00","toDate":"2023/07/12 00:00:00","isADATransfer":true,"isFeesPaid":true,"eventRegistration":true,"eventDelegation":true,"eventRewards":true,"eventWithdrawal":true,"eventDeregistration":true,"status":"GENERATED","type":"STAKE_KEY","createdAt":"2024/04/11 10:28:48"},{"id":384,"stakeKey":"stake1u9h5g7m75hwhqnesgz0mkdk5qqhnhzpyfwj2l2tm6n28v4s2w8uqq","username":"6cf8cdda-f402-4039-9b50-aea83154e6e6","reportName":"Yen test ExampleStakeKey 2","fromDate":"2010/01/01 00:00:00","toDate":"2023/07/12 00:00:00","isADATransfer":true,"isFeesPaid":true,"eventRegistration":true,"eventDelegation":true,"eventRewards":true,"eventWithdrawal":true,"eventDeregistration":true,"status":"GENERATED","type":"STAKE_KEY","createdAt":"2024/04/11 10:07:13"},{"id":383,"stakeKey":"stake1u9h5g7m75hwhqnesgz0mkdk5qqhnhzpyfwj2l2tm6n28v4s2w8uqq","username":"6cf8cdda-f402-4039-9b50-aea83154e6e6","reportName":"Yen test ExampleStakeKey 2","fromDate":"2010/01/01 00:00:00","toDate":"2023/07/12 00:00:00","isADATransfer":true,"isFeesPaid":true,"eventRegistration":true,"eventDelegation":true,"eventRewards":true,"eventWithdrawal":true,"eventDeregistration":true,"status":"GENERATED","type":"STAKE_KEY","createdAt":"2024/04/11 10:03:53"},{"id":382,"stakeKey":"stake1u9h5g7m75hwhqnesgz0mkdk5qqhnhzpyfwj2l2tm6n28v4s2w8uqq","username":"6cf8cdda-f402-4039-9b50-aea83154e6e6","reportName":"Yen test ExampleStakeKey 2","fromDate":"2010/01/01 00:00:00","toDate":"2023/07/12 00:00:00","isADATransfer":true,"isFeesPaid":true,"eventRegistration":true,"eventDelegation":true,"eventRewards":true,"eventWithdrawal":true,"eventDeregistration":true,"status":"GENERATED","type":"STAKE_KEY","createdAt":"2024/04/11 09:57:11"},{"id":381,"stakeKey":"stake1u9h5g7m75hwhqnesgz0mkdk5qqhnhzpyfwj2l2tm6n28v4s2w8uqq","username":"6cf8cdda-f402-4039-9b50-aea83154e6e6","reportName":"Yen test ExampleStakeKey 2","fromDate":"2010/01/01 00:00:00","toDate":"2023/07/12 00:00:00","isADATransfer":true,"isFeesPaid":true,"eventRegistration":true,"eventDelegation":true,"eventRewards":true,"eventWithdrawal":true,"eventDeregistration":true,"status":"GENERATED","type":"STAKE_KEY","createdAt":"2024/04/11 09:53:16"},{"id":380,"stakeKey":"stake1u9h5g7m75hwhqnesgz0mkdk5qqhnhzpyfwj2l2tm6n28v4s2w8uqq","username":"6cf8cdda-f402-4039-9b50-aea83154e6e6","reportName":"Yen test ExampleStakeKey 2","fromDate":"2010/01/01 00:00:00","toDate":"2023/07/12 00:00:00","isADATransfer":true,"isFeesPaid":true,"eventRegistration":true,"eventDelegation":true,"eventRewards":true,"eventWithdrawal":true,"eventDeregistration":true,"status":"GENERATED","type":"STAKE_KEY","createdAt":"2024/04/11 09:49:00"},{"id":379,"stakeKey":"stake1u9h5g7m75hwhqnesgz0mkdk5qqhnhzpyfwj2l2tm6n28v4s2w8uqq","username":"6cf8cdda-f402-4039-9b50-aea83154e6e6","reportName":"Yen test ExampleStakeKey 2","fromDate":"2010/01/01 00:00:00","toDate":"2023/07/12 00:00:00","isADATransfer":true,"isFeesPaid":true,"eventRegistration":true,"eventDelegation":true,"eventRewards":true,"eventWithdrawal":true,"eventDeregistration":true,"status":"GENERATED","type":"STAKE_KEY","createdAt":"2024/04/11 09:47:38"}],"totalItems":387,"totalPages":39,"currentPage":0,"isDataOverSize":null}