{"data":[{"address":"addr1z8snz7c4974vzdpxu65ruphl3zjdvtxw8strf2c2tmqnxz2j2c79gy9l76sdg0xwhd7r0c0kna0tycz4y5s6mlenh8pq0xmsha","txCount":2181451,"balance":60936494302167830},{"address":"addr1w9qzpelu9hn45pefc0xr4ac4kdxeswq7pndul2vuj59u8tqaxdznu","txCount":734269,"balance":16047200898440482},{"address":"addr1wyf3xpvwjd82wtnax8tw8u5k6r5yfh0sza76k7c3y3pgpjcye7ar2","txCount":50327,"balance":8149774686897513},{"address":"addr1w9afj34vc68qdm7heuz7esmr8sj76wpa45t7dh3ag8xpplgml3zuk","txCount":31364,"balance":4115286432975940},{"address":"addr1zyc5zkajzqtyea4cf5d3y5mlq7fd9yfdz4hq78k3mywg8nhkrew0j6j9qjdde8a5py4m9yyh2mylaal4q899rgptn88qe57mt7","txCount":39530,"balance":3835030624989199},{"address":"addr1z8snz7c4974vzdpxu65ruphl3zjdvtxw8strf2c2tmqnxzgkfzj4qgs7k3f77pacnyh392326tsnh0v8qlgcyevxsslquxmw5a","txCount":100245,"balance":2313776879044977},{"address":"addr1z9tu3ecccgqlhgg2nkshfrt8td2zs8fmrwvrchgksl78x96j2c79gy9l76sdg0xwhd7r0c0kna0tycz4y5s6mlenh8pq26n58l","txCount":41765,"balance":2010505544626257},{"address":"addr1w8pydstdswmdqmg2rdt59dzql3zgfp9pt8sulnjgalycwdsj9js7w","txCount":90987,"balance":1935299668663159},{"address":"addr1z8snz7c4974vzdpxu65ruphl3zjdvtxw8strf2c2tmqnxztnqm37tpj0q63s0qns5wfe4flqzqqg55760472n7yt4v8skpaj3k","txCount":103291,"balance":1778152830218439},{"address":"addr1z8snz7c4974vzdpxu65ruphl3zjdvtxw8strf2c2tmqnxz2jyskd3y6etkv8ye450545xu6q4jfq5hv4e0uxwkpf8lsq048y90","txCount":52869,"balance":1115266312978024},{"address":"addr1z8snz7c4974vzdpxu65ruphl3zjdvtxw8strf2c2tmqnxz02znpd777wgl9wwpk0dvdzuxn93mqh82q7vv6s9jn25rws52z94g","txCount":37078,"balance":848500946197869},{"address":"addr1z8snz7c4974vzdpxu65ruphl3zjdvtxw8strf2c2tmqnxzwccf8ywaly0m99ngq68lus48lmafut7ku9geawu8u6k49suv42qq","txCount":53205,"balance":779805444123698},{"address":"addr1z8snz7c4974vzdpxu65ruphl3zjdvtxw8strf2c2tmqnxzfgf0jgfz5xdvg2pges20usxhw8zwnkggheqrxwmxd6huuqss46eh","txCount":24863,"balance":776052234909405},{"address":"addr1z8nvjzjeydcn4atcd93aac8allvrpjn7pjr2qsweukpnay0ycn5y6v5mjqqcs9xqa24kv5qk73tqsf3ufrtvxh9kts0qveyg6l","txCount":13945,"balance":774336905218952},{"address":"addr1zxem3j9xw7gyqnry0mfdhku7grrzu0707dc9fs68zwkln5sm5kjdmrpmng059yellupyvwgay2v0lz6663swmds7hp0qul0eqc","txCount":3312,"balance":721601529752671},{"address":"addr1z9es6px68rlmwatqwg6qxwqf3szyz0n4lm0m2e5j38nu0062a6yhtrq8a4cxg2trrtzddev7v974nafzmx4xaegv2ngqky7khv","txCount":29954,"balance":655653497819716},{"address":"addr1z8nvjzjeydcn4atcd93aac8allvrpjn7pjr2qsweukpnaytvcg6zm2vds6mz9x3h3yalqmnf24w86m09n40q3tgqxjms9yu6v8","txCount":36771,"balance":598735074910491},{"address":"addr1z85t4tvj3rwf40wqnx6x72kqq6c6stra7jvkupnlqrqyarthhd58w0qrqpyv4dc2c2mk98sduawl7l4gjuc9rafyv98sgylfw3","txCount":36754,"balance":585251434285139},{"address":"addr1z8snz7c4974vzdpxu65ruphl3zjdvtxw8strf2c2tmqnxzdqcjdumqxjmc7cx0sg275pq4kkqx9wc99ffjc65eq9qn8q5vtgde","txCount":35127,"balance":524499777433800},{"address":"addr1z9cy2gmar6cpn8yymll93lnd7lw96f27kn2p3eq5d4tjr7xnh3gfhnqcwez2pzmr4tryugrr0uahuk49xqw7dc645chscql0d7","txCount":82274,"balance":523368288298176},{"address":"addr1z8snz7c4974vzdpxu65ruphl3zjdvtxw8strf2c2tmqnxzvwhd0c7uupv5nyfc2u8ee50plxurkydxaq3ghdckfpvnyqwd9fm9","txCount":42698,"balance":414734622045632},{"address":"addr1x94ec3t25egvhqy2n265xfhq882jxhkknurfe9ny4rl9k6dj764lvrxdayh2ux30fl0ktuh27csgmpevdu89jlxppvrst84slu","txCount":168381,"balance":411801120845471},{"address":"addr1z8nvjzjeydcn4atcd93aac8allvrpjn7pjr2qsweukpnaytpq3ryg76qvca5eu9c6py33ncg8zf09nh7gy2cvdps2yeqlvvkfh","txCount":15870,"balance":410717308288120},{"address":"addr1z8snz7c4974vzdpxu65ruphl3zjdvtxw8strf2c2tmqnxzfexpwjxduemhljcrgp4sn8zl3udcljp5w0027g06ygw09s9y05av","txCount":72140,"balance":410538602561251},{"address":"addr1z8snz7c4974vzdpxu65ruphl3zjdvtxw8strf2c2tmqnxzwuxpkccsn2j0v0l8sqmrfjku56stpf6f5jav29k0rk6s6qfragxm","txCount":30456,"balance":402848697562935},{"address":"addr1z8snz7c4974vzdpxu65ruphl3zjdvtxw8strf2c2tmqnxzv0566kn6zwqff7xtpr7mqd4ctprcffnvdmsk3t4tvcfztsvalv3y","txCount":45051,"balance":349194650519628},{"address":"addr1z8snz7c4974vzdpxu65ruphl3zjdvtxw8strf2c2tmqnxzf6g882n6sa2gxnk42heavu7uddl5jdl0ektf5f204mmc7s3ykuf9","txCount":34427,"balance":346331628354838},{"address":"addr1z9s3v9vyyctzr4xagvrayw87yvzre6qcq7qw2uvqfznf92qm5kjdmrpmng059yellupyvwgay2v0lz6663swmds7hp0q2jjlf4","txCount":1111,"balance":296675254083544},{"address":"addr1z8snz7c4974vzdpxu65ruphl3zjdvtxw8strf2c2tmqnxzt09v43k2frdj2x60yzh9y6wjh4xlf0m2pyvk5vy8cgdlyq0c6kwy","txCount":22288,"balance":286879179571710},{"address":"addr1z8nvjzjeydcn4atcd93aac8allvrpjn7pjr2qsweukpnayvwn8ns9d9rn074cn39gdlnzq8gneqxtektt3etelutfgysw42u27","txCount":9875,"balance":270791330059647},{"address":"addr1z8nvjzjeydcn4atcd93aac8allvrpjn7pjr2qsweukpnay2tqrfwamagnyfv43jgm94yvkmsnfvpzlytmkl0cs0uh8zqszu5da","txCount":21090,"balance":267847482339088},{"address":"addr1xyllamhuvdyf5u5d8vfxckw4xlvdmj6k5ygkwp925wu2jrrupshega3f5ym0freunp0p46rchpthvsyty398fh0msywsxkwn8k","txCount":17246,"balance":234307828023774},{"address":"addr1xyllamhuvdyf5u5d8vfxckw4xlvdmj6k5ygkwp925wu2jrx0l2wkhq0pr72jsdrv2kn8v3pqnrt0qykpq9fwr2wn0czskpmsy0","txCount":17257,"balance":231754523263872},{"address":"addr1xyllamhuvdyf5u5d8vfxckw4xlvdmj6k5ygkwp925wu2jrqfpkhcpsthxpprf49lvfy2jhga5mygpfcj4qaypfzkmhnskam59w","txCount":17270,"balance":231232945061315},{"address":"addr1xyllamhuvdyf5u5d8vfxckw4xlvdmj6k5ygkwp925wu2jrza0x7l0scsd0wvfm3ljugdpsu4kctwfjyud65xfeht5uyqmhj27y","txCount":17248,"balance":231109615994699},{"address":"addr1xyllamhuvdyf5u5d8vfxckw4xlvdmj6k5ygkwp925wu2jrx8jkqyfeeuz5m6sfv27g9vav8w83lsaqewjqxnpnpjd9wsrtsq4d","txCount":17235,"balance":231042582663744},{"address":"addr1xyllamhuvdyf5u5d8vfxckw4xlvdmj6k5ygkwp925wu2jr8wdw2g8sat0hr2pdt2ct27n33z0w6dzsfy684ut24gjfsq27yaq5","txCount":17270,"balance":228737983326458},{"address":"addr1xyllamhuvdyf5u5d8vfxckw4xlvdmj6k5ygkwp925wu2jr80sfgalgyvgedlnhfl7u2059dkyhp453hm86797rm5qhasu99rva","txCount":17246,"balance":228665640395876},{"address":"addr1xyllamhuvdyf5u5d8vfxckw4xlvdmj6k5ygkwp925wu2jrplzwuv27k9keyjpag32pmx9mf63tn77feppvm7d0s5ndnsqnvs7q","txCount":17255,"balance":228384848848682},{"address":"addr1xyllamhuvdyf5u5d8vfxckw4xlvdmj6k5ygkwp925wu2jr93q9zvxe5ehfytyye9m3dq3knvuz2fdnax7lhhjm4vvjgq8sm0dq","txCount":17263,"balance":228211143739330},{"address":"addr1xyllamhuvdyf5u5d8vfxckw4xlvdmj6k5ygkwp925wu2jrzypq27sagqxt4jwt57mdsef3zu65ng4zmzxaa246s97nxsk2pcf2","txCount":17290,"balance":228022132460961},{"address":"addr1xyllamhuvdyf5u5d8vfxckw4xlvdmj6k5ygkwp925wu2jr8nschmu7dwefmhkd078735ucq2yh90ylkzxrenz9cy8udsfs6cve","txCount":17257,"balance":227931996615527},{"address":"addr1xyllamhuvdyf5u5d8vfxckw4xlvdmj6k5ygkwp925wu2jrzs80extwffmz4yagvdxvr6cpd8nm3qne020739j706h3jqg4he26","txCount":17256,"balance":225550699804689},{"address":"addr1xyllamhuvdyf5u5d8vfxckw4xlvdmj6k5ygkwp925wu2jr8ccartl0f44hvc4vq8n3042epqvqq8cd4g9znpl5kdeypsx3mmtf","txCount":17269,"balance":225436884685580},{"address":"addr1xyllamhuvdyf5u5d8vfxckw4xlvdmj6k5ygkwp925wu2jrz3z228hznt0rz2enxfzhtk2270gels0ht9uvf9wmyxs99qskwr26","txCount":17249,"balance":225134813491432},{"address":"addr1xyllamhuvdyf5u5d8vfxckw4xlvdmj6k5ygkwp925wu2jrrys5sq3xea3866499dczkshygljanhepcqjfwyhe3fpads9vkce4","txCount":17264,"balance":225132319557754},{"address":"addr1z8snz7c4974vzdpxu65ruphl3zjdvtxw8strf2c2tmqnxz0gpt0uunh50mk7eshu6wd0wxlc5vx3huqnm3zy5lhnva2q9z2ktr","txCount":26013,"balance":223262366695795},{"address":"addr1xyllamhuvdyf5u5d8vfxckw4xlvdmj6k5ygkwp925wu2jrpsaw6lwmnlk6z0aehzea9nwfvdvang9v42yylt83ym8zqqm20svx","txCount":17239,"balance":222536715175214},{"address":"addr1wxj88juwkzmpcqacd9hua2cur2yl50kgx3tjs588c2470qc2ftfae","txCount":70067,"balance":204570026433356},{"address":"addr1z8297ay4dlcdngmat86080adn8f8jlvveammehrunpx60aqm5kjdmrpmng059yellupyvwgay2v0lz6663swmds7hp0qnm8ly0","txCount":599,"balance":197647614617743},{"address":"addr1z8snz7c4974vzdpxu65ruphl3zjdvtxw8strf2c2tmqnxzfpahn0eymy6pz4yr4mvptlpjv9eh2swz0u0hjj4qp439kq4064e4","txCount":22622,"balance":195419748369823},{"address":"addr1z8snz7c4974vzdpxu65ruphl3zjdvtxw8strf2c2tmqnxzgyqjr3j8kwe05hu3xlkm4pw49engd8hajl34c8zgljqwks23umps","txCount":17757,"balance":188616775866297},{"address":"addr1z8snz7c4974vzdpxu65ruphl3zjdvtxw8strf2c2tmqnxzgkkjz6dwqjl6mw927sgs9l73hphzmwawmvaw6qjmw8xtustvdjgm","txCount":55807,"balance":184150678103857},{"address":"addr1xxqqegnx4ref4q6derz2n0zs0jeanaxdq7ynfhwv3luhsgmys5sq3xea3866499dczkshygljanhepcqjfwyhe3fpadsa5wd69","txCount":17571,"balance":164329361413554},{"address":"addr1xxqqegnx4ref4q6derz2n0zs0jeanaxdq7ynfhwv3luhsglwdw2g8sat0hr2pdt2ct27n33z0w6dzsfy684ut24gjfsqjxugry","txCount":17578,"balance":163227917373873},{"address":"addr1xxqqegnx4ref4q6derz2n0zs0jeanaxdq7ynfhwv3luhsgcfpkhcpsthxpprf49lvfy2jhga5mygpfcj4qaypfzkmhnsw9rpx7","txCount":17566,"balance":162420641689814},{"address":"addr1xxqqegnx4ref4q6derz2n0zs0jeanaxdq7ynfhwv3luhsga3q9zvxe5ehfytyye9m3dq3knvuz2fdnax7lhhjm4vvjgqlgr6ws","txCount":17617,"balance":162160702375910},{"address":"addr1xxqqegnx4ref4q6derz2n0zs0jeanaxdq7ynfhwv3luhsgelzwuv27k9keyjpag32pmx9mf63tn77feppvm7d0s5ndnsct59as","txCount":17591,"balance":161900107268111},{"address":"addr1xxqqegnx4ref4q6derz2n0zs0jeanaxdq7ynfhwv3luhsg70l2wkhq0pr72jsdrv2kn8v3pqnrt0qykpq9fwr2wn0czswer98l","txCount":17614,"balance":161306404929239},{"address":"addr1xxqqegnx4ref4q6derz2n0zs0jeanaxdq7ynfhwv3luhsgesaw6lwmnlk6z0aehzea9nwfvdvang9v42yylt83ym8zqqrjh90k","txCount":17608,"balance":160357400789291},{"address":"addr1xxqqegnx4ref4q6derz2n0zs0jeanaxdq7ynfhwv3luhsgmupshega3f5ym0freunp0p46rchpthvsyty398fh0msyws7wkxyx","txCount":17544,"balance":159357352494417},{"address":"addr1xxqqegnx4ref4q6derz2n0zs0jeanaxdq7ynfhwv3luhsglccartl0f44hvc4vq8n3042epqvqq8cd4g9znpl5kdeyps7frwge","txCount":17584,"balance":159159046616998},{"address":"addr1xxqqegnx4ref4q6derz2n0zs0jeanaxdq7ynfhwv3luhsg6ypq27sagqxt4jwt57mdsef3zu65ng4zmzxaa246s97nxswjed26","txCount":17597,"balance":158951752280576},{"address":"addr1xxqqegnx4ref4q6derz2n0zs0jeanaxdq7ynfhwv3luhsgl0sfgalgyvgedlnhfl7u2059dkyhp453hm86797rm5qhasyaak0d","txCount":17532,"balance":158768567248426},{"address":"addr1xxqqegnx4ref4q6derz2n0zs0jeanaxdq7ynfhwv3luhsg78jkqyfeeuz5m6sfv27g9vav8w83lsaqewjqxnpnpjd9wsmng4ka","txCount":17617,"balance":158288366689440},{"address":"addr1xxqqegnx4ref4q6derz2n0zs0jeanaxdq7ynfhwv3luhsg6s80extwffmz4yagvdxvr6cpd8nm3qne020739j706h3jqsd0vf2","txCount":17582,"balance":157376153504693},{"address":"addr1xxqqegnx4ref4q6derz2n0zs0jeanaxdq7ynfhwv3luhsg63z228hznt0rz2enxfzhtk2270gels0ht9uvf9wmyxs99qgwkkf2","txCount":17603,"balance":157163310140051},{"address":"addr1xxqqegnx4ref4q6derz2n0zs0jeanaxdq7ynfhwv3luhsglnschmu7dwefmhkd078735ucq2yh90ylkzxrenz9cy8uds3gzd0f","txCount":17587,"balance":155730490746454},{"address":"addr1z8nvjzjeydcn4atcd93aac8allvrpjn7pjr2qsweukpnayd8awyllkdhpwm7r3tnvvm0mzx592fzgazhuevl679cf7lq35qw53","txCount":8463,"balance":154480125428295},{"address":"addr1xxqqegnx4ref4q6derz2n0zs0jeanaxdq7ynfhwv3luhsg6a0x7l0scsd0wvfm3ljugdpsu4kctwfjyud65xfeht5uyqr02la5","txCount":17579,"balance":153630908361671},{"address":"addr1z8nvjzjeydcn4atcd93aac8allvrpjn7pjr2qsweukpnayg3sm3lpp76yuejdf6w3qyry2spy8xjmjrlxy2cstm3fthsjc3xze","txCount":13494,"balance":151263537461299},{"address":"addr1z8nvjzjeydcn4atcd93aac8allvrpjn7pjr2qsweukpnayg4pn8uxr87tguqw8jkn6p233rk7k683ppl2mspr8appw9q640ms8","txCount":12366,"balance":123250994783305},{"address":"addr1z8nvjzjeydcn4atcd93aac8allvrpjn7pjr2qsweukpnayvrzwt47mccrc8akjdnwat82r82man0g3s2m9czqdja6mfsqmv4gp","txCount":18413,"balance":112953622833673},{"address":"addr1z8nvjzjeydcn4atcd93aac8allvrpjn7pjr2qsweukpnay0ef79d3kt9gau4rwz9203u7jz2px3psy9pykwfnvqzm2ksscncu4","txCount":5146,"balance":103829471800859},{"address":"addr1x97atw4jlfulpp73agh4hav2nfwlcwcfqcgr9mpucde9vmnupshega3f5ym0freunp0p46rchpthvsyty398fh0msywsxgwa75","txCount":13719,"balance":86285358821527},{"address":"addr1x97atw4jlfulpp73agh4hav2nfwlcwcfqcgr9mpucde9vm3lzwuv27k9keyjpag32pmx9mf63tn77feppvm7d0s5ndnsqdv78z","txCount":13684,"balance":82364879476870},{"address":"addr1x97atw4jlfulpp73agh4hav2nfwlcwcfqcgr9mpucde9vmh0sfgalgyvgedlnhfl7u2059dkyhp453hm86797rm5qhasum9d4l","txCount":13687,"balance":81853861383392},{"address":"addr1x97atw4jlfulpp73agh4hav2nfwlcwcfqcgr9mpucde9vmjs80extwffmz4yagvdxvr6cpd8nm3qne020739j706h3jqgthhnc","txCount":13648,"balance":81798561314621},{"address":"addr1x97atw4jlfulpp73agh4hav2nfwlcwcfqcgr9mpucde9vmsfpkhcpsthxpprf49lvfy2jhga5mygpfcj4qaypfzkmhnskrm6uv","txCount":13723,"balance":81702339570392},{"address":"addr1z8snz7c4974vzdpxu65ruphl3zjdvtxw8strf2c2tmqnxzv2a2tjwe3u2qyzh9qfafu22hat2k8vpe65r4sh2gxqqqrqltjryn","txCount":21586,"balance":81558349001804},{"address":"addr1x97atw4jlfulpp73agh4hav2nfwlcwcfqcgr9mpucde9vmnys5sq3xea3866499dczkshygljanhepcqjfwyhe3fpads9jkkqh","txCount":13694,"balance":80893242376441},{"address":"addr1x97atw4jlfulpp73agh4hav2nfwlcwcfqcgr9mpucde9vmk0l2wkhq0pr72jsdrv2kn8v3pqnrt0qykpq9fwr2wn0czsklm7ad","txCount":13678,"balance":80875614901948},{"address":"addr1x97atw4jlfulpp73agh4hav2nfwlcwcfqcgr9mpucde9vmj3z228hznt0rz2enxfzhtk2270gels0ht9uvf9wmyxs99qsgwdnc","txCount":13693,"balance":80029243507765},{"address":"addr1x97atw4jlfulpp73agh4hav2nfwlcwcfqcgr9mpucde9vm43q9zvxe5ehfytyye9m3dq3knvuz2fdnax7lhhjm4vvjgq8wmp5z","txCount":13675,"balance":79968849619538},{"address":"addr1x97atw4jlfulpp73agh4hav2nfwlcwcfqcgr9mpucde9vm3saw6lwmnlk6z0aehzea9nwfvdvang9v42yylt83ym8zqqm5074y","txCount":13715,"balance":79191116587989},{"address":"addr1z9cy2gmar6cpn8yymll93lnd7lw96f27kn2p3eq5d4tjr7rshnr04ple6jjfc0cvcmcpcxmsh576v7j2mjk8tw890vespzvgwd","txCount":77409,"balance":78825347273187},{"address":"addr1x97atw4jlfulpp73agh4hav2nfwlcwcfqcgr9mpucde9vmk8jkqyfeeuz5m6sfv27g9vav8w83lsaqewjqxnpnpjd9wsr4swv0","txCount":13634,"balance":77988104035715},{"address":"addr1x97atw4jlfulpp73agh4hav2nfwlcwcfqcgr9mpucde9vmhccartl0f44hvc4vq8n3042epqvqq8cd4g9znpl5kdeypsx0m4jt","txCount":13681,"balance":77264860757627},{"address":"addr1x97atw4jlfulpp73agh4hav2nfwlcwcfqcgr9mpucde9vmja0x7l0scsd0wvfm3ljugdpsu4kctwfjyud65xfeht5uyqmfjy8x","txCount":13697,"balance":75270575549501},{"address":"addr1x97atw4jlfulpp73agh4hav2nfwlcwcfqcgr9mpucde9vmjypq27sagqxt4jwt57mdsef3zu65ng4zmzxaa246s97nxsk5pksg","txCount":13660,"balance":74502862638676},{"address":"addr1x97atw4jlfulpp73agh4hav2nfwlcwcfqcgr9mpucde9vmhwdw2g8sat0hr2pdt2ct27n33z0w6dzsfy684ut24gjfsq2qynek","txCount":13702,"balance":74176979979297},{"address":"addr1x97atw4jlfulpp73agh4hav2nfwlcwcfqcgr9mpucde9vmhnschmu7dwefmhkd078735ucq2yh90ylkzxrenz9cy8udsfw6k4m","txCount":13645,"balance":73961808578382},{"address":"addr1z82ker9gjrlunvsfc6gl6xzvlwrpk5wk4xcwfemcgdyv36rwy7w4xmdgekdc6w8788z9a960cq3t3juayh2r8ad5um2sktfsg6","txCount":12275,"balance":73894546271253},{"address":"addr1xyc5zkajzqtyea4cf5d3y5mlq7fd9yfdz4hq78k3mywg8nhnschmu7dwefmhkd078735ucq2yh90ylkzxrenz9cy8udsucw27j","txCount":4832,"balance":71869965766130},{"address":"addr1xyc5zkajzqtyea4cf5d3y5mlq7fd9yfdz4hq78k3mywg8n3saw6lwmnlk6z0aehzea9nwfvdvang9v42yylt83ym8zqqwzmz7d","txCount":4815,"balance":71816146812370},{"address":"addr1xyc5zkajzqtyea4cf5d3y5mlq7fd9yfdz4hq78k3mywg8nh0sfgalgyvgedlnhfl7u2059dkyhp453hm86797rm5qhasfd337k","txCount":4826,"balance":71729785492262},{"address":"addr1xyc5zkajzqtyea4cf5d3y5mlq7fd9yfdz4hq78k3mywg8njs80extwffmz4yagvdxvr6cpd8nm3qne020739j706h3jqaartc3","txCount":4844,"balance":71311676027485},{"address":"addr1xyc5zkajzqtyea4cf5d3y5mlq7fd9yfdz4hq78k3mywg8nhccartl0f44hvc4vq8n3042epqvqq8cd4g9znpl5kdeypsne0fez","txCount":4834,"balance":71252816815998},{"address":"addr1xyc5zkajzqtyea4cf5d3y5mlq7fd9yfdz4hq78k3mywg8nja0x7l0scsd0wvfm3ljugdpsu4kctwfjyud65xfeht5uyqwlxcv0","txCount":4827,"balance":68627526978627},{"address":"addr1xyc5zkajzqtyea4cf5d3y5mlq7fd9yfdz4hq78k3mywg8nnys5sq3xea3866499dczkshygljanhepcqjfwyhe3fpadssyz2t7","txCount":4822,"balance":68621125940277}],"totalItems":94083,"totalPages":941,"currentPage":0,"isDataOverSize":null}