{"data":[{"txHash":"0395a81d0b86747d3d26db7086202ba3026a3cef31da4c2328b92617ffe6dd3a","txTime":"2024/04/11 11:37:50","block":10172439,"epoch":478,"slotNo":121269179,"epochSlotNo":136379,"stakeKey":"stake1uxzs5788z0r7pda0evsvqg7rqfjw53evcukwzdk57pwzfnq8paked"},{"txHash":"c7080a44aaa7147877f3e553b353094d9c757f8a94342c83934f313700c79969","txTime":"2024/04/11 11:31:44","block":10172423,"epoch":478,"slotNo":121268813,"epochSlotNo":136013,"stakeKey":"stake1u9kpgshvnl5w72qmv6ry3g03zxwvjkl6m0urmszk2ms0ysg2we5zd"},{"txHash":"0aa7c2e9164afea3e494e296f670baae1af23db8e13c6cde4009d2e0ddf46e64","txTime":"2024/04/11 11:30:19","block":10172418,"epoch":478,"slotNo":121268728,"epochSlotNo":135928,"stakeKey":"stake1uyucnakzxzv9f2fgzkx8j6n0vq66fe0nv463qhx2xf558pc0yahav"},{"txHash":"f7910d315eb290a91a3954d140c5d34c325336b476027cc5573b90dfa7e1834b","txTime":"2024/04/11 11:25:23","block":10172399,"epoch":478,"slotNo":121268432,"epochSlotNo":135632,"stakeKey":"stake1uymp9ut7h7xtujuaz8spgcfyqgxg80429at33cu9zc5jdfccvjkm4"},{"txHash":"da9f38e5c38c35be5b9c4e7290268f9e4d109af2182515142e129286195e5632","txTime":"2024/04/11 11:17:09","block":10172382,"epoch":478,"slotNo":121267938,"epochSlotNo":135138,"stakeKey":"stake1uy97f5zr0kulvfps3cmyqps5rvfg4xq6dl054uxz9enfx5g5tdr3n"},{"txHash":"9c1ce5adc6430c1397b29ed068689ae8f73755bff6085719dac14c914d7731e2","txTime":"2024/04/11 11:13:03","block":10172371,"epoch":478,"slotNo":121267692,"epochSlotNo":134892,"stakeKey":"stake1ux50qd9vtxk7uwkdwfqj5ft9rjg0ppmd2d39unz6tmjr26qcflcdy"},{"txHash":"db60e26c0e475d736ec986016880415985eef01c93de6b6031ed15a3a40e5bfc","txTime":"2024/04/11 11:07:45","block":10172366,"epoch":478,"slotNo":121267374,"epochSlotNo":134574,"stakeKey":"stake1u9gfvlauqnqdvwe5yu8zp4a94wkv3maqr5kg8lvqdsef46c6v4gyl"},{"txHash":"c0fe86c8fdbe0ed892426a4c9531c036611570339bdb24564b453f0f1b9b3146","txTime":"2024/04/11 10:59:59","block":10172347,"epoch":478,"slotNo":121266908,"epochSlotNo":134108,"stakeKey":"stake1u9pv9r2a0wa9qrv784tv6533upuatqmegqde53jrgkxt68gwcklsc"},{"txHash":"4f7636d967d32ba750c06fa6b5e874ffdbcce95cfd60b9082ffebf0be26ca6a9","txTime":"2024/04/11 10:59:59","block":10172347,"epoch":478,"slotNo":121266908,"epochSlotNo":134108,"stakeKey":"stake1u99lkfcmmj03r4324jfzwkqeugpus37km0ewsrayk4994jg4fppww"},{"txHash":"117c2c43378dbe437c5b8f6d742a0cae0035808294d22a248ac8c4c6a371cbf8","txTime":"2024/04/11 10:54:12","block":10172337,"epoch":478,"slotNo":121266561,"epochSlotNo":133761,"stakeKey":"stake1uypfhlwmz385ky2ezjgawrvmyvs8ugp4us75mwux566fggqcrsqdt"},{"txHash":"cbf76020b9e1779448b75eb3d220808b9363241308e2cfb296c4ec843d675405","txTime":"2024/04/11 10:50:22","block":10172319,"epoch":478,"slotNo":121266331,"epochSlotNo":133531,"stakeKey":"stake1u8le5xpnyewjkq4audnz9mn4xev8x04g50ugsz0wwtxngvqpxll7s"},{"txHash":"1fab8e10788f440b903d801ee2c5dd3aa150220f1e4a2b304cd463e3377b28c4","txTime":"2024/04/11 10:48:18","block":10172310,"epoch":478,"slotNo":121266207,"epochSlotNo":133407,"stakeKey":"stake1u93yzsgunw3peh5c4wj40g6nrnm8nut7yw0c0csscqnxd7g8zukjr"},{"txHash":"c292ae7fb85b1390bab8bd56fa8076782efa788b927c08e83ce1ec4ffdaae4b9","txTime":"2024/04/11 10:46:44","block":10172303,"epoch":478,"slotNo":121266113,"epochSlotNo":133313,"stakeKey":"stake1uy8qaaefn3r4aplemwkturn3kt656d8kskl4h8q8xjrf4vsay33jd"},{"txHash":"3f05d0b0d584e992caa9a81506c1d5c688c5776038f7a904f351272373bc875b","txTime":"2024/04/11 10:42:15","block":10172291,"epoch":478,"slotNo":121265844,"epochSlotNo":133044,"stakeKey":"stake1uy96tm9uyu6zwg20zl833v7pyzace6hpdrufvxen8rtf6ega5tm6z"},{"txHash":"a42a598621bc3c461480b9df7c63d6839245c011f5d1ddeeda0c99a96229864a","txTime":"2024/04/11 10:32:44","block":10172267,"epoch":478,"slotNo":121265273,"epochSlotNo":132473,"stakeKey":"stake1u99d8yh7hwzw66c376l8nd0h80upx9murlld78hep7k8fdcntzkke"},{"txHash":"e8a9f9773c1ba0acac5d4b20069d34bf90cbed3b2eebfecb552fe5e248f79000","txTime":"2024/04/11 10:27:34","block":10172254,"epoch":478,"slotNo":121264963,"epochSlotNo":132163,"stakeKey":"stake1uyf526mmhprnsqnvxgh9ylpd67djfg46ufcm658zyvqcrzgw60e9h"},{"txHash":"651921c1f7cc3cc0d62ce05820dca331b6da0dac2200cfc66c883342f76a7b73","txTime":"2024/04/11 10:23:33","block":10172245,"epoch":478,"slotNo":121264722,"epochSlotNo":131922,"stakeKey":"stake1uxtaqvsl86dt9sxmj6u5y5xjqpsnsylqf9trlhvgf5rwj8qgark76"},{"txHash":"905a28f4b062e0b947a6bd6e3d253b131be03c886fd5b8223e417190f6cd01b5","txTime":"2024/04/11 10:16:51","block":10172230,"epoch":478,"slotNo":121264320,"epochSlotNo":131520,"stakeKey":"stake1uxtsleyzm0cn9l4fjuakp7lnq02hmqcr3pw6cu5ss8s49jghmlugv"},{"txHash":"73e07d1a68f7f278e61e04c93262186e201eff02776e923db437c20f6185b302","txTime":"2024/04/11 10:16:51","block":10172230,"epoch":478,"slotNo":121264320,"epochSlotNo":131520,"stakeKey":"stake1u80d5ss4pqjku055jmqsef0c7ch9szp9xdxy48l8t2ngp5sytpfk0"},{"txHash":"f1879335c761a7cf04d80e62d90c5e050e373667d0ab54957b620e1632e19d13","txTime":"2024/04/11 10:09:38","block":10172212,"epoch":478,"slotNo":121263887,"epochSlotNo":131087,"stakeKey":"stake1uyuv9fzp3xs4pqs3eed0yk8ka4l7ey9xf0xz2a9d5rnhgjqg252pq"}],"totalItems":473120,"totalPages":23656,"currentPage":0,"isDataOverSize":null}