{"data":[{"epoch":477,"block":6,"stakeAmount":5705218388590,"delegators":null,"fee":null,"ros":0.000000},{"epoch":476,"block":13,"stakeAmount":5697423373291,"delegators":5073975638,"fee":601435128,"ros":6.714083},{"epoch":475,"block":5,"stakeAmount":5688585662443,"delegators":1757396926,"fee":430549368,"ros":2.280483},{"epoch":474,"block":6,"stakeAmount":5727331002954,"delegators":2177742663,"fee":452207561,"ros":2.814069},{"epoch":473,"block":6,"stakeAmount":5797629328636,"delegators":2187082309,"fee":452688784,"ros":2.791567}],"totalItems":268,"totalPages":54,"currentPage":0,"isDataOverSize":null}