{"data":[{"txId":89041482,"txHash":"ef2c61aa5664287c1c40c0ac674113eab64402730a2f8afd31b3d23d98d446ac","txTime":"2024/04/10 18:12:33","epoch":478,"block":10169438,"epochSlotNo":73662,"slotNo":121206462,"poolName":"Climate_Action_Fund","pledge":0,"cost":340000000,"margin":0.0,"poolId":1734,"poolView":"pool1qqmvjqwzcg3p0x89a9hd6lgwvqq8wy2w6mcx0csaxq4x6xz7qyn","stakeKey":["stake1uygsa3nv4kq2pwv0wt32vgvcx7aptu8kyqw8sh00r8yrvrc5hnhyf"]},{"txId":88858618,"txHash":"c144b00f5e3b2e8338e6de458e7a0287ba0f532b4ddf8e0b2c5b6028bd1a1aa9","txTime":"2024/04/07 13:26:10","epoch":477,"block":10155876,"epochSlotNo":229279,"slotNo":120930079,"poolName":"MOMONGA","pledge":2000000000,"cost":340000000,"margin":0.01,"poolId":5367,"poolView":"pool16wkx7ajj8wlsjtarmy4p3a2qpsq7qah6p8pnevtz5v09kqe4ygy","stakeKey":["stake1ux5wx3thpjk96x3mjxwgkln0wy5eg4fpdvfvert2f2q88ucx5sk0n"]},{"txId":88633457,"txHash":"41be4915286b3d017e1673035475e6ea02ff71ae9ab6beb0c4092107e2bad437","txTime":"2024/04/03 11:51:10","epoch":476,"block":10138838,"epochSlotNo":309979,"slotNo":120578779,"poolName":null,"pledge":15000000000,"cost":360000000,"margin":0.03,"poolId":3479,"poolView":"pool1h8uur6gvtcsw0cdjgnt5njc33ajefgg756xllkd45w7zsml6ydd","stakeKey":["stake1u9jyd6q92n86fp9x27x0ju2yf5yxfqh8vm5my6fpwj227dc8m0aqy"]},{"txId":88589153,"txHash":"413bd4a541348806408bbbc23c4f2a22e04234d4a968cfb44fa4140cc46fbb5f","txTime":"2024/04/02 18:23:09","epoch":476,"block":10135802,"epochSlotNo":247098,"slotNo":120515898,"poolName":"Khan Pool","pledge":26000000000,"cost":340000000,"margin":0.035,"poolId":2392,"poolView":"pool1nr2pl3yqx65hq6y2r8unlnrejfkypeh84zezf44u7glcz50yzet","stakeKey":["stake1uxgwkdkp5dcrvhxvskw98t0med6f0v9zcy66qy3lh25ed8s7lp3u4"]},{"txId":88494886,"txHash":"d12d7a1a0513734418083be52d3762cf57a32c7156db5e47807f4061eee2005a","txTime":"2024/04/01 06:07:34","epoch":476,"block":10129444,"epochSlotNo":116563,"slotNo":120385363,"poolName":"Sapporo Stake Pool","pledge":30000000000,"cost":340000000,"margin":0.01,"poolId":4430,"poolView":"pool1n7eagzjgs3suervkql229a8080j5k68x25jkl8zfxxtuu6802lc","stakeKey":["stake1ux8ueckjejmakv5p84zkcywp40wt4f50ayj0ug4x78ppyyqw9pzgx"]},{"txId":88321308,"txHash":"24afbe5aaa5735513f2cd50716a01abdf0444290478c1385ee4473c83fb95799","txTime":"2024/03/29 01:36:19","epoch":475,"block":10116043,"epochSlotNo":273088,"slotNo":120109888,"poolName":"Ruby Stake Pool","pledge":1000000000,"cost":340000000,"margin":0.03,"poolId":3834,"poolView":"pool19seeqvu6hfr3qru6kx3rp4khymssa82j00jfm3d6k3ua590wdwv","stakeKey":["stake1u8xlkmatwj9dvfe0xkh7lm0nx8t93fnxyzdvd97j2t0z3dsfpj039"]},{"txId":88296000,"txHash":"128cdedb275c33b0f2e4cf47ba582faa3f62a0a8d22630a8c65d8d1d06f0a30d","txTime":"2024/03/28 18:57:19","epoch":475,"block":10114843,"epochSlotNo":249148,"slotNo":120085948,"poolName":null,"pledge":2000000,"cost":340000000,"margin":0.1,"poolId":5574,"poolView":"pool15xt9rwxzgunwhhue548q3q22mclumqz5al9umanl8tn269sr66m","stakeKey":["stake1u89xkkx658ma5q9ncxljstygdlc274unzskzzfuuuthqz2cx8eldx"]},{"txId":88265518,"txHash":"c084857cc569704244a130b62ff47cb4e31da9aff3a1acbc134ab0bf85b11305","txTime":"2024/03/28 06:53:34","epoch":475,"block":10112620,"epochSlotNo":205723,"slotNo":120042523,"poolName":"HashKey Cloud","pledge":1000000000,"cost":340000000,"margin":0.03,"poolId":5753,"poolView":"pool17ntzw85gdf9zefhy60y3z43qfv8zv4569vq7m2pjewrzc02dz4f","stakeKey":["stake1u90caqxhlt3snepv2e9k4tmd65vvuv0kpr2tmftagpt0j3gr6wdew"]},{"txId":88187224,"txHash":"93fb316d9b7e0362fdae25b2ed887b8041599f8d9647c9ebf9734606e80ba820","txTime":"2024/03/26 21:32:13","epoch":475,"block":10106742,"epochSlotNo":85642,"slotNo":119922442,"poolName":"SudoRooters","pledge":50000000000,"cost":170000000,"margin":0.015,"poolId":5529,"poolView":"pool1vvzajfqpfltmprgnrdgx3qu2yqj68ujg3g3pllpvst89gfw575w","stakeKey":["stake1u9dkdcvzn40gcaklxnn24827fvlph5pq4c8r0p49wrl8qlq6un5v4","stake1u9elkguc622rxzfjahwj2knfkpur0tkegexl5zgzhrl7quq54nx6m"]},{"txId":88149762,"txHash":"5c6f075e27f5ec3bb2cc2ceb5b48e928ef55cd2a7ede993dba075032cb0f445f","txTime":"2024/03/26 07:49:02","epoch":475,"block":10104326,"epochSlotNo":36251,"slotNo":119873051,"poolName":null,"pledge":20000000000,"cost":340000000,"margin":0.02,"poolId":1983,"poolView":"pool1n63w8h83hutkw6kww4hvewk30ljvvylfw4lv7y59ynd25a8yfqp","stakeKey":["stake1uycwx0rtk4vhwar2ctumfsajtxzyu9583hpnasjefd87d8s7x6dd2"]},{"txId":88115497,"txHash":"e952e8ebbfea819e898d9c9774dc1e42e6009544027d7f69ef03a084d23820b4","txTime":"2024/03/25 18:48:25","epoch":474,"block":10102062,"epochSlotNo":421414,"slotNo":119826214,"poolName":"Profiler","pledge":14000000000,"cost":340000000,"margin":0.01,"poolId":3284,"poolView":"pool1ff8xnapzllnlwh3zevzktqmjx5dhq2uxxz4e4xnu878xqgmfghx","stakeKey":["stake1uye6vutpfuhaq7fykl2sdrcc3dq6kl88y83yppvlymxznhcykk5cu"]},{"txId":88109492,"txHash":"ecca2fa6645e086ef6d73bf6c041388fa2a84e58e390831b8f49a24db32386e1","txTime":"2024/03/25 16:41:19","epoch":474,"block":10101684,"epochSlotNo":413788,"slotNo":119818588,"poolName":null,"pledge":2000000,"cost":340000000,"margin":0.069,"poolId":4890,"poolView":"pool1fxrxatul2edy2cvys2j25cafstvysf80juadr3a7542pggcjvv6","stakeKey":["stake1uxhwcqdwhgdwgyhax4vly0c0lh4x2dr7ts8mq5j4ttjtw6q8re6xn"]},{"txId":88109142,"txHash":"4b0ce0950591107c6a5e67d068f84a75ccce824d2b95f8277ac55d0c0a3b5d16","txTime":"2024/03/25 16:34:01","epoch":474,"block":10101656,"epochSlotNo":413350,"slotNo":119818150,"poolName":null,"pledge":2000000,"cost":340000000,"margin":0.069,"poolId":4877,"poolView":"pool13q546lq5lmw9pp9cfwwmx53uh4ysajy28upydg5n8tcx5ayz682","stakeKey":["stake1u8mgfu5avpuyu4hp02tenzlj45da4mccrekk59a29k8d39ck0lptl"]},{"txId":88108224,"txHash":"2da30fccef0f9539f5028e84eccf10a95a6375db479e1c59ce3825e264ce70ac","txTime":"2024/03/25 16:15:57","epoch":474,"block":10101597,"epochSlotNo":412266,"slotNo":119817066,"poolName":null,"pledge":2000000,"cost":340000000,"margin":0.069,"poolId":4876,"poolView":"pool1zlp7tdvtc2t989hnzxsenh4k74tt4gwpg000smf908jj64w4vg4","stakeKey":["stake1uysmql58h47rlmdu4t822xywjzv684lt5wwc37tnccrwupcrn6288"]},{"txId":88100950,"txHash":"6a416a02b3af5cf4496df00033cc22f1eaf75192413db3aef7e043b54f090745","txTime":"2024/03/25 13:37:30","epoch":474,"block":10101113,"epochSlotNo":402759,"slotNo":119807559,"poolName":null,"pledge":2000000,"cost":340000000,"margin":0.05,"poolId":5282,"poolView":"pool1j9nlvppmd5e2ms7w6xx7r6rgc37q2r930gkj2ssdu5a7jr53tev","stakeKey":["stake1uxa728cks3akrz0qdaxcspzxcah8fl6lq93gvv577t9t89q6q025d"]},{"txId":88100812,"txHash":"7004b83f094b55cb0cab65ff77f3382f1d973ae9a0e661aa3137716de87f7f88","txTime":"2024/03/25 13:33:14","epoch":474,"block":10101098,"epochSlotNo":402503,"slotNo":119807303,"poolName":null,"pledge":2000000,"cost":340000000,"margin":0.05,"poolId":5281,"poolView":"pool1l5c0jhhlknegjgqzpyq78f9dqn6dxkzmc3548hnk96xqcf7spx2","stakeKey":["stake1uxcq8g2hypg9heag3vydt7mutjnafpshjphx26w7hsxfj7s8gekrs"]},{"txId":88100695,"txHash":"c67b5744daaa92ac5a3bb60f7517b8025a225f1c47f1abf14b146f380321a735","txTime":"2024/03/25 13:29:32","epoch":474,"block":10101088,"epochSlotNo":402281,"slotNo":119807081,"poolName":null,"pledge":2000000,"cost":340000000,"margin":0.05,"poolId":5223,"poolView":"pool1wfma2hqtzksrf9wq7a5ww8ugguxezaetey80pe9arg2n7kvev82","stakeKey":["stake1uxaw77mu0j8n6w52lcd7l05hsfl0kcanke6pd54z9aez44sgsluzk"]},{"txId":88100567,"txHash":"94b5e28460dfbfe5432d1151d8368a79d87a70b293e05413a3a5b7d6497b2aa0","txTime":"2024/03/25 13:25:32","epoch":474,"block":10101075,"epochSlotNo":402041,"slotNo":119806841,"poolName":null,"pledge":2000000,"cost":340000000,"margin":0.05,"poolId":4850,"poolView":"pool103w4na57zyunn2s7r8cgrnqgsn3tskj4w69yx3alx4sezphv53t","stakeKey":["stake1uxsz0wmf79zkhaepcwydxc5gvq9vem828z35hrevjvd6nmgjxfnc2"]},{"txId":88079951,"txHash":"00af5ee7fedd4504c9138c973c757e2c4c9ea6611d4c66dc9dc289afa27abffa","txTime":"2024/03/25 00:36:16","epoch":474,"block":10098832,"epochSlotNo":355885,"slotNo":119760685,"poolName":"The Kube Room","pledge":5000000000,"cost":170000000,"margin":0.02,"poolId":351,"poolView":"pool137x32lrkprphrd0aa8x4jqz98z6lc0wawlc88hdjeps4qe408ad","stakeKey":["stake1ux5kh2y29eg48pd36gvs88stj3w2w7k9kqljlq9nkal7gkchq4q0t"]},{"txId":88019787,"txHash":"abe422dfbed861cc48fa57a680aa847c1c7118294ebae5026c3246e694682e29","txTime":"2024/03/23 16:26:39","epoch":474,"block":10093143,"epochSlotNo":240108,"slotNo":119644908,"poolName":"SWAG","pledge":100000000000,"cost":170000000,"margin":0.01,"poolId":44,"poolView":"pool10capak8jppvj8h46e35xdth6h22pahtr3lcgscrpa06jzv0xn8w","stakeKey":["stake1u90fnpcuhwaynvg7rffzmauypgxyzcw6ylf3us3qs7lraps02pkhx"]}],"totalItems":2962,"totalPages":149,"currentPage":0,"isDataOverSize":null}