{"data":[{"address":"addr1q8mwprrn99pa7e9yjxtyed7wlnr3g53yawrvleh78eqhd8m3v8wyum2ayqx7k4rsmyqmrey0g9smthryf20e8m7exrhsksc3d4","policy":"4429f7b432125357388b1d676c2d503b6d6fc78c414934bef9882e26","name":"43617264616e6f426f72656441706534383831","displayName":"CardanoBoredApe4881","fingerprint":"asset1a4ztu86t37fvcm2fx2492ya2ruke0rmx6fj5ta","quantity":14}],"totalItems":6410,"totalPages":6410,"currentPage":0,"isDataOverSize":null}