{"data":[{"txId":73663640,"txHash":"737956f64bfa665dbc7de603c4c4b0b6feb8f87b78de3f7d10d678e540f4bd19","txTime":"2023/08/14 14:19:14","block":9159076,"epoch":430,"slotNo":100456463,"epochSlotNo":59663,"stakeKey":"stake1u93t2dn5wfu7wqqperx5wjnyj4pg960y5f45rzsu74yzz8gykjwxe"},{"txId":73663438,"txHash":"34a087de167c648b1ac07102680a40dee6e8c7941642a56171e1eb864936de96","txTime":"2023/08/14 14:13:47","block":9159068,"epoch":430,"slotNo":100456136,"epochSlotNo":59336,"stakeKey":"stake1uy4jfdvcqjs7xkzefnlac9klfz9pvdu044zjz86ud7kmyfsqhvy8e"},{"txId":73663349,"txHash":"ecb6a89053b3c21452081c4875209bfa8d2315666f4e33c07680682bae1cf83e","txTime":"2023/08/14 14:10:45","block":9159065,"epoch":430,"slotNo":100455954,"epochSlotNo":59154,"stakeKey":"stake1uyhf405uz4s58g8cgnkahcp8tnvra4s058vk0lux5ykwusc8k7c6v"},{"txId":73663255,"txHash":"027c9daaa38fe4031fbdbc5d15452f1de5956d6f680d0de2d5f18601b8d2dd47","txTime":"2023/08/14 14:08:58","block":9159056,"epoch":430,"slotNo":100455847,"epochSlotNo":59047,"stakeKey":"stake1u8juc2y24h2xmx2s788kh3l5em2nj4zmam8x36hxdhkqz5s5v86k2"},{"txId":73663235,"txHash":"65acd6688108e1438f083dd68e52f1c27afe13f2a91c676997c19a67719e9f63","txTime":"2023/08/14 14:08:04","block":9159055,"epoch":430,"slotNo":100455793,"epochSlotNo":58993,"stakeKey":"stake1u8z2lslevtu4c64z3dfp7d8a3f3ksqekm9xzm0hana62fps2wxjsl"},{"txId":73663226,"txHash":"b2aa59be8c3ddc8b354a9eb3ebae60f4dbd591ec8d7a8715c4bd9b276af4e4a2","txTime":"2023/08/14 14:07:52","block":9159054,"epoch":430,"slotNo":100455781,"epochSlotNo":58981,"stakeKey":"stake1u8dhvckfdqn5hyuwm3gg0asalk4cezazh3jxs3tufmpl65syq6nee"},{"txId":73663207,"txHash":"01cab96ca3e18d761bb00c3c440974b921717aa0c430aa3a2356088358b0ee5a","txTime":"2023/08/14 14:07:20","block":9159053,"epoch":430,"slotNo":100455749,"epochSlotNo":58949,"stakeKey":"stake1uxmu5453h2fqj06gwpll8dlfw6z9cxxwdjturukdzdj7hgsv5p9pe"},{"txId":73663204,"txHash":"29d6babd0500d10bc36deecdc2e857913c7da877b06089b7dc86b02b3192f2be","txTime":"2023/08/14 14:07:20","block":9159053,"epoch":430,"slotNo":100455749,"epochSlotNo":58949,"stakeKey":"stake1u9yhwkn2l4w24qvppgxunj04vxvvpz50lr8330gz2w8hppq6p3cvr"},{"txId":73663190,"txHash":"0a7a2ee089ae2b19f29d3294bd1c2a447b6ed682b0acab483fc5385aa3b5537a","txTime":"2023/08/14 14:07:20","block":9159053,"epoch":430,"slotNo":100455749,"epochSlotNo":58949,"stakeKey":"stake1u8724qgu25rxus6fnt6vfwgp5zez38zjthtdzvfz72tanas7azqh8"},{"txId":73663112,"txHash":"4424967d804ccadb704f8eaf2c219aa2feb8f3ab24b7a9fb0862856cb918a915","txTime":"2023/08/14 14:06:25","block":9159050,"epoch":430,"slotNo":100455694,"epochSlotNo":58894,"stakeKey":"stake1uxccdl5z2sajwmkyv6pd44v60u0mfkx4fq9c374zhkl5udcwglhck"}],"totalItems":1748348,"totalPages":174835,"currentPage":0}