{"data":[{"blockNo":10172465,"slotNo":121269707,"epochNo":478,"epochSlotNo":136907,"hash":"54644ba5f27725a8b400e5a358965edf451918a7abc05ad599944f71c474602c","time":"2024/04/11 11:46:38","txCount":8,"totalFees":2842755,"totalOutput":70164528932183,"slotLeader":"50e113d1ada46a83a16d5ee6cfdc1a8baed6634c9f046ed30131eb11"}],"totalItems":10172641,"totalPages":10172641,"currentPage":0,"isDataOverSize":null}