{"data":[{"address":"addr1z8snz7c4974vzdpxu65ruphl3zjdvtxw8strf2c2tmqnxz2j2c79gy9l76sdg0xwhd7r0c0kna0tycz4y5s6mlenh8pq0xmsha","addressType":"PAYMENT_ADDRESS","quantity":3916060408275887},{"address":"addr1vyjcjxd32xg3tvy6wkxwssvwqft8a7z6l0h9g936hcdjaysxgfyjn","addressType":"PAYMENT_ADDRESS","quantity":1429883975549255},{"address":"addr1vxpzmhj8vsu62fs8pumd85tx0tgfndrzcygump0q38670asr4vgg6","addressType":"PAYMENT_ADDRESS","quantity":1270018555886789},{"address":"addr1w835n68qeax023uperwgwlruk3d8yjl4k98r433nhw5waqgkx8prf","addressType":"PAYMENT_ADDRESS","quantity":1233031483200000},{"address":"addr1v9ww300mnrsq6zcpk8rsgr3287hjz9wrf238gt4j5eq2aegf6yt37","addressType":"PAYMENT_ADDRESS","quantity":931120887000000},{"address":"addr1qxkmr0m22xeqludcg5rjdmecjxasu9fat0680qehtcsnftaadgykewa9ufvegeuca9yyq03d9v7ea2y2zthgu7hfgjtsddp6gr","addressType":"PAYMENT_ADDRESS","quantity":645292370073658},{"address":"stake1uxjskqrl3l0q0vz402hsgq5vu6ft0ne4949pqjewzx5j4gge6zh2x","addressType":"STAKE_ADDRESS","quantity":500000000000069},{"address":"addr1z9cy2gmar6cpn8yymll93lnd7lw96f27kn2p3eq5d4tjr7rshnr04ple6jjfc0cvcmcpcxmsh576v7j2mjk8tw890vespzvgwd","addressType":"PAYMENT_ADDRESS","quantity":390111155728682},{"address":"addr1vye3eh372ra3p2vzkrjw7zdq0fp9ksuvygfve6c672u2jnsr0drnx","addressType":"PAYMENT_ADDRESS","quantity":370359152000000},{"address":"addr1qyy6pfk8qm5aadl7vkdj0uglcqnj3j6la5r4u2a0p7g7p6a5xk3382mjjr0zq77l5wcvyz26zc702ee7eqnv3s69j8pqtf8kvg","addressType":"PAYMENT_ADDRESS","quantity":175000000000000}],"totalItems":144481,"totalPages":14449,"currentPage":0,"isDataOverSize":null}