{"data":[{"txHash":"0abace3a99b8094332918c8092803a014f2e662620570c383e29c3383a488f96","txTime":"2024/04/11 11:47:14","block":10172466,"epoch":478,"slotNo":121269743,"epochSlotNo":136943,"stakeKey":"stake1u935v44ecvwf4gs8f5jxhpfx2nd2ylkz084ycn86se5j22swdxm82"},{"txHash":"896d89782a8971c7cd66ca83e93f86febeb63563c0724ff2b8014e866e2b3fba","txTime":"2024/04/11 11:47:14","block":10172466,"epoch":478,"slotNo":121269743,"epochSlotNo":136943,"stakeKey":"stake1u984rtull504vtkvcwzpc9ym5ny7n3jpyxxh35yr8pe8lfsuvxd0p"},{"txHash":"a277ed66086e6601ba9aaf30c8395c3370154f32c8e89595b3ad371a05e91e9d","txTime":"2024/04/11 11:42:58","block":10172456,"epoch":478,"slotNo":121269487,"epochSlotNo":136687,"stakeKey":"stake1u8q3uja0su2s4986ut5u7592uy2kfxg7jqy3g4xn5w8hcesrtd5le"},{"txHash":"a46256ba290264c82699f6d440fa7881a56637f0c202cf5a281e952f27bf3f21","txTime":"2024/04/11 11:42:58","block":10172456,"epoch":478,"slotNo":121269487,"epochSlotNo":136687,"stakeKey":"stake1u8v4wgqp74uvtmyhevhp4vn26nwpqj3m7mkvvgaej3wgh5gnkuj90"},{"txHash":"a215d0716c50af655ad6cd3cf96dd06f73ea81c0c51a0a8bb8e35934e290e7c2","txTime":"2024/04/11 11:37:50","block":10172439,"epoch":478,"slotNo":121269179,"epochSlotNo":136379,"stakeKey":"stake1u9g3x88ctyjddgx0cuh36sj6vxpqjtcsq9rgyuf5qfp3gpqtn0x3u"},{"txHash":"4a479ceb4f23b55e0ff3ca70434513eda3ded8c7364aef7175449a779ba72836","txTime":"2024/04/11 11:25:45","block":10172400,"epoch":478,"slotNo":121268454,"epochSlotNo":135654,"stakeKey":"stake1u9cvnhrs695zhutx66mw042l3zhjy4falkktsdn7zanjx0g28ycjs"},{"txHash":"27331a2c9473c9f9d578927942b6aa38e77fd9022e78ba9aba8338a50d5f9960","txTime":"2024/04/11 11:25:45","block":10172400,"epoch":478,"slotNo":121268454,"epochSlotNo":135654,"stakeKey":"stake1uxv06j8rnx5agtvl95cwv8clf4q6f0570ppf5rq2z6m69sc2gu5vm"},{"txHash":"80b64169632c0e640ebb02d8f7835a41ea252318c0da4e1776bb228cb6450e49","txTime":"2024/04/11 11:16:07","block":10172377,"epoch":478,"slotNo":121267876,"epochSlotNo":135076,"stakeKey":"stake1u904jw7effuk36zvjyrgpqm66tqkeqaf99aw95jplaateag4zqxfm"},{"txHash":"1e0f26d15323fc2d6f474c255a9a086f60f39073acd6594b694465216b63bf6f","txTime":"2024/04/11 11:15:03","block":10172375,"epoch":478,"slotNo":121267812,"epochSlotNo":135012,"stakeKey":"stake1ux50qd9vtxk7uwkdwfqj5ft9rjg0ppmd2d39unz6tmjr26qcflcdy"},{"txHash":"9c36db7157379d1353309eb3d9de17716bb82a450cfe1701441475c90e0b0e3b","txTime":"2024/04/11 11:07:45","block":10172366,"epoch":478,"slotNo":121267374,"epochSlotNo":134574,"stakeKey":"stake1ux2eh9ntekvfl7l0cxnza5l7zkjagzzl32en30nn5ypwjyge3j0s7"},{"txHash":"c7f82647635a4fdc6ecea90203f72b6a3b30e9c42870280cb5103f0ea036f2d2","txTime":"2024/04/11 11:06:04","block":10172362,"epoch":478,"slotNo":121267273,"epochSlotNo":134473,"stakeKey":"stake1u9r6y985407layntqewc4r4x9ng54l9zmdvnx4gv72yh8fsqfmys6"},{"txHash":"1b263486b007399fdd2c0346fbe5025c0387465885471115acfb39bb0c770aa8","txTime":"2024/04/11 10:58:45","block":10172345,"epoch":478,"slotNo":121266834,"epochSlotNo":134034,"stakeKey":"stake1uysgzez5hyavtzxyy0qma3zyjj3c0cz07usdgyanwh975dgtmfp70"},{"txHash":"77d55d14bd8f0b111612eb92f8066b026aa502a6a0641f98d90d2a01e8017343","txTime":"2024/04/11 10:58:34","block":10172344,"epoch":478,"slotNo":121266823,"epochSlotNo":134023,"stakeKey":"stake1u9pdln52znv28c06u8lc7zfmdpmnpgw5gtyfgfvt2lsvjzgls3l9v"},{"txHash":"e455de586f1f5f9d2243396db8c005d784eff6af537e553e9af6d8b68bf5fbc7","txTime":"2024/04/11 10:58:07","block":10172342,"epoch":478,"slotNo":121266796,"epochSlotNo":133996,"stakeKey":"stake1u9l4wr3y69pgqqppadjcqd796ud9zxt6t3nctzkhwq0dtns0mg7tg"},{"txHash":"e678117ed20d1aadfbed53f54e1f1ccab46f8823948eab163abbf31108d0a314","txTime":"2024/04/11 10:50:17","block":10172318,"epoch":478,"slotNo":121266326,"epochSlotNo":133526,"stakeKey":"stake1u8cd3zduzf3znff20xhj4nx2l4y42vf8ya4vqjnfreej4jqc0zw7d"},{"txHash":"1414f89776f9c65b790dcfa81d1738ab01deeaa7727842389aad411d4078c217","txTime":"2024/04/11 10:47:40","block":10172306,"epoch":478,"slotNo":121266169,"epochSlotNo":133369,"stakeKey":"stake1uy69jgpwj8vpv8cqqccdpl6ve70uvzy7hd9s3hfz5njt5yq86l0ea"},{"txHash":"b1a3e0a34de761d75bfb7d7a646c34b03d68a131ed750fad77a75fc1a16d1996","txTime":"2024/04/11 10:44:21","block":10172297,"epoch":478,"slotNo":121265970,"epochSlotNo":133170,"stakeKey":"stake1uy8qaaefn3r4aplemwkturn3kt656d8kskl4h8q8xjrf4vsay33jd"},{"txHash":"1a5b90608ac637b0d308fbca3a14421dab039432578259531443f4d67fc5a4f3","txTime":"2024/04/11 10:44:21","block":10172297,"epoch":478,"slotNo":121265970,"epochSlotNo":133170,"stakeKey":"stake1u8at5sn4cl6zgela0sdxqh5uay2wu7n2u6ctleh7s6lt56gewagz6"},{"txHash":"f860ada78986ce45e047c37ea65f8d85cbe9a3076b30f36595b64b8637e52d94","txTime":"2024/04/11 10:42:15","block":10172291,"epoch":478,"slotNo":121265844,"epochSlotNo":133044,"stakeKey":"stake1u9jh94kmgpwdra9yc0vm2crfd5qadkrwrpmn3yehq7te83cyd4kmg"},{"txHash":"61306e8cc6224e3dae28831541b5b4edf88aeb712e466088018a6b774e331a22","txTime":"2024/04/11 10:39:46","block":10172288,"epoch":478,"slotNo":121265695,"epochSlotNo":132895,"stakeKey":"stake1uyx3e0hm7jmdw2ghxvzkejw3kza0rcywawyfuyt3jrkhq0che7585"},{"txHash":"8a17a309450c4374aa5d742563a1c8479f025a2fff7d64eb73ed7b578c7ddcce","txTime":"2024/04/11 10:38:11","block":10172282,"epoch":478,"slotNo":121265600,"epochSlotNo":132800,"stakeKey":"stake1u9ju4539d4zvjrd6mahnuge3hemvyj3vrmzrfyre3hh7qlcpuw3ms"},{"txHash":"34ae00c7f4f20eae7f8fee2fdf104e68f60f3014292716815b09c5b1a92c8091","txTime":"2024/04/11 10:37:12","block":10172281,"epoch":478,"slotNo":121265541,"epochSlotNo":132741,"stakeKey":"stake1uy4e3axvdg403plmptaanxsyp3eclpagjwfjsqg726u8xzc03mns0"},{"txHash":"52898fc4045525e6213c67b19a63efe6d5d882842f30f97cac19706a1dcf2920","txTime":"2024/04/11 10:30:23","block":10172261,"epoch":478,"slotNo":121265132,"epochSlotNo":132332,"stakeKey":"stake1u9envtyd0ddyj9mjr4edxcu0ewtcw8derl86arhwyggx92gkrdxkr"},{"txHash":"b5cd7a45aaa326e8340cb4c7f0d1129f9aaa628a8c423850b3efb601619f505b","txTime":"2024/04/11 10:24:23","block":10172247,"epoch":478,"slotNo":121264772,"epochSlotNo":131972,"stakeKey":"stake1uxtt36sadj5v8s8rft65h7ckdepflytsfk9s5vef6dz7ftqgzzmtc"},{"txHash":"9d1f82614ab02799c908e12d4c1b0ecb0702f5d622601fe2c9cc573ea93bffc8","txTime":"2024/04/11 10:18:13","block":10172232,"epoch":478,"slotNo":121264402,"epochSlotNo":131602,"stakeKey":"stake1ux6q0fk37lysrt0ak5sm0wpnea74ewrmtanshkqpz6y0j7gg02cdj"},{"txHash":"6e5d65e5930fe14ad8d8e9150e6223c2096cf35931751a985f19d35007d07fee","txTime":"2024/04/11 10:15:54","block":10172229,"epoch":478,"slotNo":121264263,"epochSlotNo":131463,"stakeKey":"stake1u8ly0j0f0xhzf6wkhwejese9v2392gwheyw2v87uwfjvdlc7lrf6j"},{"txHash":"026a87b8c2fcbfe48e2afd6a503153f72a04821fb082f9d6a32b88c6fc76e2a5","txTime":"2024/04/11 10:07:53","block":10172210,"epoch":478,"slotNo":121263782,"epochSlotNo":130982,"stakeKey":"stake1u9qa0h3wfag2tlz64xxanx98x5ddcyv49ek469e64jn6uksnjy4ar"},{"txHash":"beb884197d4a675e72638a6297f9c7ccadd8b32ec386d12d4c35b9f4b28a05f7","txTime":"2024/04/11 10:00:38","block":10172189,"epoch":478,"slotNo":121263347,"epochSlotNo":130547,"stakeKey":"stake1uxmxx4k94a677myyeex33agrwvl3v68cj87dtk8hze9wkdsdmzsnj"},{"txHash":"aff7530203effc2222c2b7b1fa87a6c2f3ccc08d29078fe4b63e8c783ebf0c06","txTime":"2024/04/11 09:51:42","block":10172163,"epoch":478,"slotNo":121262811,"epochSlotNo":130011,"stakeKey":"stake1uxuwltpe9qece8u4caz8shku6hkaaykrs309ygw2u72ee4gvs0rut"},{"txHash":"3e67c8651f6b5e86bc8d4e155a411d32a67f0b24e5867b508d987367f49052e6","txTime":"2024/04/11 09:48:45","block":10172155,"epoch":478,"slotNo":121262634,"epochSlotNo":129834,"stakeKey":"stake1uxyflpav2wyrpmelump9ld40hgpwc9lu32rdr0kgxpx8y9qpp027j"},{"txHash":"ec45ff73c630b6b12d0c584a4b34cfc8a80445c31506a7fd2a04933e50513a57","txTime":"2024/04/11 09:44:13","block":10172144,"epoch":478,"slotNo":121262362,"epochSlotNo":129562,"stakeKey":"stake1u8h730d6uetpr2ddst7h37a6ns6896ql8a96jcnafgsp99gh4lxcy"},{"txHash":"6db3f251f5ec43008c825b972f990f70a6c814ddb398570742232ac3b12ffb36","txTime":"2024/04/11 09:42:09","block":10172140,"epoch":478,"slotNo":121262238,"epochSlotNo":129438,"stakeKey":"stake1u99nqtjlc59scd8nhx9myspx4v70k9jkthssyurdm4w85tceeeg44"},{"txHash":"eeefa2cb7646be23e5a26b8b9237394177e7baa6567a7b32428989330508907a","txTime":"2024/04/11 09:34:49","block":10172118,"epoch":478,"slotNo":121261798,"epochSlotNo":128998,"stakeKey":"stake1u8h2gjhpchwzwe07esyed86jzahw72q6vt6lwhpzyfqz7qcutd4k0"},{"txHash":"1213f2321acebad05699ab321dc14186832fd835b7b57f7e1c2c8c3d7303ffd6","txTime":"2024/04/11 09:31:19","block":10172110,"epoch":478,"slotNo":121261588,"epochSlotNo":128788,"stakeKey":"stake1uxugsg55hcm3sm23agymg73qkfge2s8hcez0dd72ff5r87c0557k0"},{"txHash":"5336490c8f2c6eb7b0a480fc7d110b1c63871002c008ff3bd7019dab201a8568","txTime":"2024/04/11 09:29:37","block":10172108,"epoch":478,"slotNo":121261486,"epochSlotNo":128686,"stakeKey":"stake1uy4ngrfce2slxfm75sma3w2qt4cp79c5x0wwk3enn6c8nts536dkq"},{"txHash":"a330de3c00dd40dfaf17563e1c15ee159f240a60220906f2d5bb91899e92e7f0","txTime":"2024/04/11 09:28:59","block":10172106,"epoch":478,"slotNo":121261448,"epochSlotNo":128648,"stakeKey":"stake1u8wgtscyd6nhh3vfej35jdnf29rmnthvt8f90r4kjvec0ss4q9dt0"},{"txHash":"aa3e436962a4d94ee726e8e912dfeed7bdc453ace37d988168eb1386c736ac18","txTime":"2024/04/11 09:26:39","block":10172104,"epoch":478,"slotNo":121261308,"epochSlotNo":128508,"stakeKey":"stake1u8fyke58pk9e4ukmhryq02hmqz3hn4ja7yx9tc8dcxnwlucknm4ld"},{"txHash":"ca69dce0edb9182df12f386baef5f834ade54a623052e1a5df4f4961df0eb2d7","txTime":"2024/04/11 09:16:47","block":10172072,"epoch":478,"slotNo":121260716,"epochSlotNo":127916,"stakeKey":"stake1uxx0tvhwlt85hc450r7vxguxxtudp9lyj0d7shtefua62gsfz4fxm"},{"txHash":"ad524bd27fef077cc13bd5125895e9a40890f570bc2697b5de6c1e30cd5bde95","txTime":"2024/04/11 09:10:15","block":10172057,"epoch":478,"slotNo":121260324,"epochSlotNo":127524,"stakeKey":"stake1u8plvc5c3ga99fe0uwxsl2p7pp6s6uw6vlymjwap8jldv2sqtfs2y"},{"txHash":"7c26ba36d1338dc9d3ba04f5eb38cf2b3121b69928213c7c9f545e5639f85a8d","txTime":"2024/04/11 08:59:55","block":10172027,"epoch":478,"slotNo":121259704,"epochSlotNo":126904,"stakeKey":"stake1uy0p23wewrune6ukzev2p4lh6e4mw5wcz6uqrnxqg0lds7gdhs2x9"},{"txHash":"7c26ba36d1338dc9d3ba04f5eb38cf2b3121b69928213c7c9f545e5639f85a8d","txTime":"2024/04/11 08:59:55","block":10172027,"epoch":478,"slotNo":121259704,"epochSlotNo":126904,"stakeKey":"stake1ux37fugrga29pedfnc7dhtv4wmxx4weq02ujmqztyqqrx2g9npzzp"},{"txHash":"59a7b5fdd189b69003b5a72ac2556292957423fa342b1e86fd37d4f75c85e04f","txTime":"2024/04/11 08:59:55","block":10172027,"epoch":478,"slotNo":121259704,"epochSlotNo":126904,"stakeKey":"stake1uxnzc6x0a0py6756x0mnxl0j3ry9nzx5s02lwsrqk63vpygfjhndu"},{"txHash":"d8b06dee60674c196b97320a8eb300bd513f9e11da5a85bd1a347fdcb1b9781f","txTime":"2024/04/11 08:57:01","block":10172021,"epoch":478,"slotNo":121259530,"epochSlotNo":126730,"stakeKey":"stake1uyxkg6gaerguevksu2kf3fert3xfle3f25d9eyz3awgcdwcgnj9r2"},{"txHash":"ff03f28350d1666faeabd37ccf1b53228f89507a4c25c2f92a539294105965a0","txTime":"2024/04/11 08:56:40","block":10172019,"epoch":478,"slotNo":121259509,"epochSlotNo":126709,"stakeKey":"stake1uxkgtvx6lj4fsyyzlv5spvd6zyemgkwrskx2rn8wtfjktugalykyt"},{"txHash":"466d837fe3480523f7abf0cb460022626223b0e478d0d3e2ae140c249a4f93a0","txTime":"2024/04/11 08:54:28","block":10172009,"epoch":478,"slotNo":121259377,"epochSlotNo":126577,"stakeKey":"stake1u9jyx86gej5z45cd00w6sn2wxk6e985hmfda6c3de7zhflqqapjdh"},{"txHash":"4b07be2664d3647b7ad9455c6ec28cbdb213f05ac9ecc7fc45b9b3444ec0c7d0","txTime":"2024/04/11 08:50:36","block":10172001,"epoch":478,"slotNo":121259145,"epochSlotNo":126345,"stakeKey":"stake1u8xvykkwp53vcadh6npn8zs0sn7ewp9mrupa66fjthzk49ck5daj0"},{"txHash":"fb5ecb401854a07ea2bcb58ceddbd66ff35411fb12fb709ff998f704b3d19e77","txTime":"2024/04/11 08:50:34","block":10172000,"epoch":478,"slotNo":121259143,"epochSlotNo":126343,"stakeKey":"stake1uydr0yvyet5pnklly5t9lg6v5tnjsa653jtus72jy9kmhrgt7fnrq"},{"txHash":"ddb1a0a0b4f7cb23b716edb79da8b808869c43e9f2e04a958bb4f4f673c2d15a","txTime":"2024/04/11 08:49:38","block":10171998,"epoch":478,"slotNo":121259087,"epochSlotNo":126287,"stakeKey":"stake1u9kfgvtw6ldzqqdhs0rfqfx4dx52khzyql9efyt2h2umpagldsw58"},{"txHash":"d515d5dcf25e8112569a748f7662ab79748b50b58732c68c664b532381a499b2","txTime":"2024/04/11 08:46:46","block":10171989,"epoch":478,"slotNo":121258915,"epochSlotNo":126115,"stakeKey":"stake1uy2zcc4gccvkqtfa5a8a3yyrnwprpg7hsq3jw4up8gk625qhhsyns"},{"txHash":"a031e54398eec8ba6e935fc5aab0fe8b5acb158c7a2db803987c8618def0d80c","txTime":"2024/04/11 08:38:00","block":10171966,"epoch":478,"slotNo":121258389,"epochSlotNo":125589,"stakeKey":"stake1uxng0z0n2d2wrqfjcdwxhqp5kf0m6c5u47fc36gvael2ygq84wpl2"},{"txHash":"563067895e50a7df1b3aff034e2ff113c96e9b9d9b546755b9ed2f87c3edcd99","txTime":"2024/04/11 08:28:47","block":10171928,"epoch":478,"slotNo":121257836,"epochSlotNo":125036,"stakeKey":"stake1u8lv63qpm0xs0gh2t7ny3l8jg7ap0kachxgckpn39ecuvxgpfw8ua"},{"txHash":"1eeae665b4289b7e58a7df5a4143493d28afd1be078ca9da5808c41a44520dda","txTime":"2024/04/11 08:27:58","block":10171926,"epoch":478,"slotNo":121257787,"epochSlotNo":124987,"stakeKey":"stake1uyz3qep8qsps2u9nmu70qy4pxwwvuhnfcdrd3v83rtum8vgdh65je"},{"txHash":"b7efad360d25bd46d67ccf739477f5e2649cf92bce22231f2b4e34857d2234a6","txTime":"2024/04/11 08:22:46","block":10171914,"epoch":478,"slotNo":121257475,"epochSlotNo":124675,"stakeKey":"stake1uxnsspcltw8pqc6yqsquwaexrkpxw3wdu23duwm928lcuegkr7xzv"},{"txHash":"5ca70941f845c20850a3c6ed7b67612b147a01349b18e98670cf0356cc6901d3","txTime":"2024/04/11 08:22:18","block":10171912,"epoch":478,"slotNo":121257447,"epochSlotNo":124647,"stakeKey":"stake1uyrtzxz79gc3va899l394qt7gssu5f9j2ju2n732wh4nufs70arve"},{"txHash":"9cf931db3f6acce993a61417d7d1e8d37d7447b8a4a2845252b9e076f622a201","txTime":"2024/04/11 08:20:08","block":10171909,"epoch":478,"slotNo":121257317,"epochSlotNo":124517,"stakeKey":"stake1u8vmkw2yzy5ccf0s4g65fzhltlwcg8jzpn0jegkmccrekyg7zstd6"},{"txHash":"6afe3a52a2d47278fac66e11acb0add97a35c88e4b9fa99306b1478d35f6d2da","txTime":"2024/04/11 08:20:08","block":10171909,"epoch":478,"slotNo":121257317,"epochSlotNo":124517,"stakeKey":"stake1ux2x46vg3xeee96h3cv3z263tekxj3ae6peukxlrfyr6aeseznyx4"},{"txHash":"713d5039616b3959cba13c8991eee38f39131940570a93ea2380724d2f319f69","txTime":"2024/04/11 08:16:14","block":10171893,"epoch":478,"slotNo":121257083,"epochSlotNo":124283,"stakeKey":"stake1uxnnm2uk2c6ycp26g2v5dh4t9t3maq5xchk2lzsxvdupj8c4vuhh7"},{"txHash":"fc49ef20efa988b45781876db8a8df9c3d5a3595d17c46f438bcfcd8253aa37d","txTime":"2024/04/11 08:16:14","block":10171893,"epoch":478,"slotNo":121257083,"epochSlotNo":124283,"stakeKey":"stake1u97f7wp4fl9xge5qual2505gljfzwfl9l0q8wu9a2ht6ghqslfxqe"},{"txHash":"7a9c0b74b21f7dafeceed2d5c59626a934627299a2b74194e484366b9387ad27","txTime":"2024/04/11 08:12:38","block":10171881,"epoch":478,"slotNo":121256867,"epochSlotNo":124067,"stakeKey":"stake1u85ulkwnlegtnqnzh8gaw507qnksaq5gkrlpegwkmymdgrga2d6zd"},{"txHash":"26ecd3e387b2edb58529cd9195d03bb0eea6a680639caf84d1c35868e218f71e","txTime":"2024/04/11 08:09:15","block":10171870,"epoch":478,"slotNo":121256664,"epochSlotNo":123864,"stakeKey":"stake1uxsxs6e2xyag07wlzl50gz5j0zu7getfde0passmdlshqkqp8dc66"},{"txHash":"8ae99924afca89b16beaa97788c6ff87917379ab754724384debfb34237108f3","txTime":"2024/04/11 08:09:15","block":10171870,"epoch":478,"slotNo":121256664,"epochSlotNo":123864,"stakeKey":"stake1ux6yv4wxg8gy7jhe5k82hd63yhxj5887z56dw0hsauwsszc5f7cwk"},{"txHash":"e10c5a9e76df6b085eb0e4571221ac71e6531ced3d9b726527749799eefedc5b","txTime":"2024/04/11 08:09:15","block":10171870,"epoch":478,"slotNo":121256664,"epochSlotNo":123864,"stakeKey":"stake1uy7crz4ehndqcgesa0yxdyj3cznk023grv52wlseha25r7q7ru24y"},{"txHash":"e999c67709f4c79a87d19bd85e5ca6a8ba3f772c1a87dc29642a457daa04ec2f","txTime":"2024/04/11 08:05:22","block":10171866,"epoch":478,"slotNo":121256431,"epochSlotNo":123631,"stakeKey":"stake1ux6rsp2gvvww8zgsx0v7kajylnw0vz6dxlxs83aneppn8mqxqzwaw"},{"txHash":"af791252645408939fe88f1328b0406b9860cf0c407c0967b40be2093cec144c","txTime":"2024/04/11 07:56:45","block":10171833,"epoch":478,"slotNo":121255914,"epochSlotNo":123114,"stakeKey":"stake1u8h6kl75e042mkr858atqpmdlhgh03xsrx95xhfnqehwmacstv49g"},{"txHash":"b96141b8913a921ae1b46a06dccc0f00974c7feb804776c2ce89adf8bddfba89","txTime":"2024/04/11 07:55:19","block":10171830,"epoch":478,"slotNo":121255828,"epochSlotNo":123028,"stakeKey":"stake1uyl4uddh9uej05lfagphax5fk90mfq0rdn56ky7x8ydm4kqt9u9qx"},{"txHash":"3a694ff48d64f9894e9b08cb231c34bb6ee88ee02f1c6e0b08e779636b413a0d","txTime":"2024/04/11 07:54:05","block":10171827,"epoch":478,"slotNo":121255754,"epochSlotNo":122954,"stakeKey":"stake1u82kgkwpt8w82h6pslxskfpy0f9mjug3andj92796zatptg9l728p"},{"txHash":"fee0b4c9a9197cb27832c94c6aac4d1e55f2d3ad9a5aa02de04ac9e842abda85","txTime":"2024/04/11 07:54:05","block":10171827,"epoch":478,"slotNo":121255754,"epochSlotNo":122954,"stakeKey":"stake1u83vak8dh8vcxec7784r6kpf5jms9k9mjuq2yh99s2385qczdj33w"},{"txHash":"c014d186a0f33873d472f98239b456f5426044c926c485ea4445234341cf7854","txTime":"2024/04/11 07:36:06","block":10171784,"epoch":478,"slotNo":121254675,"epochSlotNo":121875,"stakeKey":"stake1uxjf346dgyk8gvavdjn6ygqkjmpydgp756td0eqs0e9n9ksc4x4um"},{"txHash":"39159ccb9fc864763a177e2ff294892df38475228c0346d8c3168d3c26e10d66","txTime":"2024/04/11 07:31:56","block":10171771,"epoch":478,"slotNo":121254425,"epochSlotNo":121625,"stakeKey":"stake1uxq6u3kpln0psw0fgfkr4thgr32rmydkmhevpjm682yn6qgghwfyr"},{"txHash":"80b95fed59489a40ead62c15e3a480fedd87e6db750f4f33619a395552e08214","txTime":"2024/04/11 07:26:35","block":10171758,"epoch":478,"slotNo":121254104,"epochSlotNo":121304,"stakeKey":"stake1uxfu5qtklee7azkdd3lr4nrdc3a5nnjcu05rhksafwwtqtc0h7f4h"},{"txHash":"6629a1afb2570dd2c3b7b60b7f15003765d71823cc1ba6204d08179453a44fd7","txTime":"2024/04/11 07:19:23","block":10171736,"epoch":478,"slotNo":121253672,"epochSlotNo":120872,"stakeKey":"stake1u9jjzpd7h6f8kkh04t57pvnq8s7sj87c4vl4w2tdkrt70eqseuyr5"},{"txHash":"e51bb49e3a714a0c243f4f9c6b01952d1a0f5f5aef5507078717357e379e396d","txTime":"2024/04/11 07:17:21","block":10171728,"epoch":478,"slotNo":121253550,"epochSlotNo":120750,"stakeKey":"stake1u9gtvhczxg382gr5qqt8u87s9ycfc3fxsax05ykwcjm8sxqdmu9rd"},{"txHash":"08d9233116b3e5b0f132d21d6d5fb05bfc55228af1d8228846abe7ee04d16260","txTime":"2024/04/11 07:12:38","block":10171717,"epoch":478,"slotNo":121253267,"epochSlotNo":120467,"stakeKey":"stake1u9cd4fqmvr200l6622s6lhw8hd377gqnpxgefs8ew09ex7g6wy2t4"},{"txHash":"ee18fd165029cf34a179fd13d14d3b18634f28023fd972a744dfa3e8f7e6c5d0","txTime":"2024/04/11 07:09:43","block":10171705,"epoch":478,"slotNo":121253092,"epochSlotNo":120292,"stakeKey":"stake1uyra30fukq4gquwelrzzvcw3k9wthvp97xuqu8xas90ev5qthwd49"},{"txHash":"accb837b8abf2f3c44bbbe926e0b55e5b421f5bdaf4e7a4e451a4dbf5660bd53","txTime":"2024/04/11 07:09:43","block":10171705,"epoch":478,"slotNo":121253092,"epochSlotNo":120292,"stakeKey":"stake1u8alltlmvvd6cx4w59c0z06tlj6783ydat7mh82tcjq23kq28dyah"},{"txHash":"87b2bc4133ce3253d9ca7c37051326e579020b73f80e2fd28f578c6cadece438","txTime":"2024/04/11 07:08:08","block":10171702,"epoch":478,"slotNo":121252997,"epochSlotNo":120197,"stakeKey":"stake1uxkvszs59wpnqa07v7hzg9hzweq7thxrckfzg9epqzjnqzcpg322d"},{"txHash":"aaf3e3c991985353d5db2c54c11fb712c1af4e9c9d3493c7b40cc4711272b704","txTime":"2024/04/11 07:07:16","block":10171700,"epoch":478,"slotNo":121252945,"epochSlotNo":120145,"stakeKey":"stake1uyjh6slzw7wgvd05ld0e35m2ajfcv7dr25lt44zeeppsznsactpuz"},{"txHash":"bb84f9def0e46f5b8d459bfb50b632645e398985747c6a2fe4a93099493fc463","txTime":"2024/04/11 07:05:02","block":10171695,"epoch":478,"slotNo":121252811,"epochSlotNo":120011,"stakeKey":"stake1u8qw0e9l77kg7fhqc29rjpck03g7fex2xackg3sp3yalurq65h2lm"},{"txHash":"71d1ec55e31de0ab018cb2cba20ec16be6edbac9b8d3b2ad7cf9a1e5da20c4ed","txTime":"2024/04/11 06:57:33","block":10171675,"epoch":478,"slotNo":121252362,"epochSlotNo":119562,"stakeKey":"stake1u9v0zr0dfcvdl5qqkyjt7vje3m8kcr5sakec3d9ha50svpg28p8gy"},{"txHash":"87e7722372ab39ad8ef81e6589572125b4db4912ee77bc0089bcdea5568ff1db","txTime":"2024/04/11 06:57:33","block":10171675,"epoch":478,"slotNo":121252362,"epochSlotNo":119562,"stakeKey":"stake1uy0l4h4tu88mx53zf7erengmh6ge2rxnd4zanrxk0833jys8xtlp4"},{"txHash":"46512a555ae5cbb707a819a801f8a70d3a7cdd12389b75ba6c01a436a0ac55ed","txTime":"2024/04/11 06:55:20","block":10171672,"epoch":478,"slotNo":121252229,"epochSlotNo":119429,"stakeKey":"stake1uy07ekzl2gxcr2qyskamfklqzw8rnlhg5zkx67nv37nlhncqcupkr"},{"txHash":"3de012751c3259eff6e090efc2e9aec4ae53cf36082744b8345d448b7cc3417c","txTime":"2024/04/11 06:52:52","block":10171661,"epoch":478,"slotNo":121252081,"epochSlotNo":119281,"stakeKey":"stake1u8tc5taew4nqncp7v62rjmktxjtmsluyvc7gznc7xe5frust7ydx2"},{"txHash":"fd285038069c318ca4b80b453faf7b9dbf09bb1911fe7fef6563b789f2b289db","txTime":"2024/04/11 06:49:09","block":10171644,"epoch":478,"slotNo":121251858,"epochSlotNo":119058,"stakeKey":"stake1uxz67e0rcvsdswskys52yq2kqvz7sg4f8l7d8vmdnvtyzzq9zj8rz"},{"txHash":"c1824c4c8a4a38e461c5e1d30e07fa569a8e2f1300a7f82154a1bd8a9509b7a6","txTime":"2024/04/11 06:43:05","block":10171618,"epoch":478,"slotNo":121251494,"epochSlotNo":118694,"stakeKey":"stake1uxsr0p46fnpnrer3pwwa66qldwkdj86g55uvupjuhyng2yg5awxyp"},{"txHash":"65b85184afb36b8258b2bd10d29bb48821a6aa865f1cd0fc72fe304d3458b9ba","txTime":"2024/04/11 06:43:05","block":10171618,"epoch":478,"slotNo":121251494,"epochSlotNo":118694,"stakeKey":"stake1u9k8yeugw7d300jfc2fgqlqwtaggr5ll7ynkl5rcdxpns2ql4627x"},{"txHash":"196373281b8658dc8484bd0184a9247009c9490c6bd716f5b39e1bc8f06a6c31","txTime":"2024/04/11 06:39:35","block":10171610,"epoch":478,"slotNo":121251284,"epochSlotNo":118484,"stakeKey":"stake1ux6c4y8v9geq2t269la3z5p6h0cwclvy0dm24kmwvm97g6sygfe86"},{"txHash":"a8762f08bc9c9cc9949b3eade671b53cd8b51ff61f18b5515674985601a64eb5","txTime":"2024/04/11 06:29:34","block":10171580,"epoch":478,"slotNo":121250683,"epochSlotNo":117883,"stakeKey":"stake1uxr4h8lhqscpqcefj4pzq4rgqwgeaztzdvc7z74n3zspl6c07thdv"},{"txHash":"94a1082ef1d9340ee832c1c481203712813ea4dbed453f298acb2fe0f240c564","txTime":"2024/04/11 06:26:06","block":10171573,"epoch":478,"slotNo":121250475,"epochSlotNo":117675,"stakeKey":"stake1uxnn2q0m89pt0cc8tgkkq0623dnaurprfdajzrrha4vgnrc7s54nh"},{"txHash":"64ccd182afec908b0d8eb7816ff8d906ae24a2ea35821490b2c18f77cf1e2a24","txTime":"2024/04/11 06:25:30","block":10171572,"epoch":478,"slotNo":121250439,"epochSlotNo":117639,"stakeKey":"stake1u80rrph02s27rggfxyr0h62a4kudy3jwshjvhcya47r4ltsp3fua0"},{"txHash":"460a8a7259d8f4cd730025f51ae0635b55f249bbb157150ba49d1bfb5a308ea1","txTime":"2024/04/11 06:25:30","block":10171572,"epoch":478,"slotNo":121250439,"epochSlotNo":117639,"stakeKey":"stake1u934p75pup2j36c3u5kr92khre8cxv4ed8p860auh5r80cgj0rh6e"},{"txHash":"254e6051cdf2a782de26a4203f77a2b98cba26354e98d404981456169cf5318a","txTime":"2024/04/11 06:25:01","block":10171570,"epoch":478,"slotNo":121250410,"epochSlotNo":117610,"stakeKey":"stake1uxv452dc53065gmlzl9vjf43rukyg68rcfrd8jcru0dkpzc4zmck7"},{"txHash":"6c7a432dcf3dedbe95a9ec4d2bec320297740aa6537bc26b3e013f3480a3b49e","txTime":"2024/04/11 06:24:35","block":10171568,"epoch":478,"slotNo":121250384,"epochSlotNo":117584,"stakeKey":"stake1uydhampf3qlzyd77kppewe8f3kgkyqxtrpnd306c6w38thg6uhrew"},{"txHash":"b5e8049a2bc6c8903e8dbdaec34e858c9a076097a5456a95499bb71d63eb7dd7","txTime":"2024/04/11 06:21:23","block":10171553,"epoch":478,"slotNo":121250192,"epochSlotNo":117392,"stakeKey":"stake1u8620ng8el4u3cd8psmfwns72awsx2wfvdzca2ceenfygxcguqy8f"},{"txHash":"1baf892589757696ba3788beae77cdebf857759b119f61c893f215ecc857c925","txTime":"2024/04/11 06:21:23","block":10171553,"epoch":478,"slotNo":121250192,"epochSlotNo":117392,"stakeKey":"stake1uxw9dfu87kzc6u2lln79xsuk7mjl3sa6sddve5y5kggswdsv0rzwe"},{"txHash":"92ca0dcaf582107a7c2234cb2e569bfe0f3e31e03d3625c0e6c32e594b663490","txTime":"2024/04/11 06:13:26","block":10171517,"epoch":478,"slotNo":121249715,"epochSlotNo":116915,"stakeKey":"stake1uxq9kxvacth48ex60hwezqf4v27mt233glfa5y2ktx38u6gg5dj5c"},{"txHash":"9152bf57b188f58bb75cff262c35956fb068316fbfb5bfd192016f0b2f3f56a6","txTime":"2024/04/11 06:07:48","block":10171496,"epoch":478,"slotNo":121249377,"epochSlotNo":116577,"stakeKey":"stake1u9l4wr3y69pgqqppadjcqd796ud9zxt6t3nctzkhwq0dtns0mg7tg"},{"txHash":"2777c76d2b8f78e36fe9c446a2fc26fe54de6270110eff675345e383cb7b29ff","txTime":"2024/04/11 06:06:53","block":10171494,"epoch":478,"slotNo":121249322,"epochSlotNo":116522,"stakeKey":"stake1uy8kc8c6esy5zat6egqqqfz66g4uxfr6cd833xh5eeteessv7a52f"},{"txHash":"203b9504030e97c0316218fb30785240d9dfac50662f0ce0276ef314feaf80e6","txTime":"2024/04/11 06:00:05","block":10171466,"epoch":478,"slotNo":121248914,"epochSlotNo":116114,"stakeKey":"stake1uyhzmwqc8g3a2z4755fwp4y44y5fqh04q2p3gw97heezs8sql6xf3"},{"txHash":"0d25cdf4853aacd97544a3f357d046c6f30030a4e7c465e8f3dea1e57bfd8132","txTime":"2024/04/11 05:58:09","block":10171461,"epoch":478,"slotNo":121248798,"epochSlotNo":115998,"stakeKey":"stake1uxg335ntuqg78ukvtu94y9vmhy0nqhyy7ynu89ewymr28ycj7a34r"},{"txHash":"8cb9edd169a9125494d11630498b0af9c5c06394b6ebe6f468143087d41110f9","txTime":"2024/04/11 05:57:00","block":10171456,"epoch":478,"slotNo":121248729,"epochSlotNo":115929,"stakeKey":"stake1uxr27kwzd6uncrl6j87xr5823gt6nv7xnlvg6qrhxmtmtxcvwqd6k"}],"totalItems":1874891,"totalPages":18749,"currentPage":0,"isDataOverSize":null}