{"data":[{"scriptHash":"a5bb0e5bb275a573d744a021f9b3bff73595468e002755b447e01559","after":null,"before":"2023/12/31 23:58:30","isMultiSig":false,"isOpen":false,"numberOfTokens":420420,"numberOfAssetHolders":548477,"tokens":[{"name":"72,79,83,75,89,67,97,115,104,71,114,97,98,48,48,48,49,52,52,55,54,53","displayName":"HOSKYCashGrab000144765","policy":"a5bb0e5bb275a573d744a021f9b3bff73595468e002755b447e01559","policyIsNativeScript":false,"fingerprint":"asset104zrq6q9j82d3lfphqs8902wxje4r29gekk2cl"},{"name":"72,79,83,75,89,67,97,115,104,71,114,97,98,48,48,48,48,56,53,56,52,53","displayName":"HOSKYCashGrab000085845","policy":"a5bb0e5bb275a573d744a021f9b3bff73595468e002755b447e01559","policyIsNativeScript":false,"fingerprint":"asset15f9hul3ej3w5vjn32wz97qn48wjs6rkzhgpr2d"},{"name":"72,79,83,75,89,67,97,115,104,71,114,97,98,48,48,48,48,55,48,51,53,48","displayName":"HOSKYCashGrab000070350","policy":"a5bb0e5bb275a573d744a021f9b3bff73595468e002755b447e01559","policyIsNativeScript":false,"fingerprint":"asset1utyaalacffzykg90rqn5zcq857t5kac6wq9fph"},{"name":"72,79,83,75,89,67,97,115,104,71,114,97,98,48,48,48,48,55,48,54,49,54","displayName":"HOSKYCashGrab000070616","policy":"a5bb0e5bb275a573d744a021f9b3bff73595468e002755b447e01559","policyIsNativeScript":false,"fingerprint":"asset16k6ry0m7722fx9f78lx3pduw07rp6d0kqeaunr"},{"name":"72,79,83,75,89,67,97,115,104,71,114,97,98,48,48,48,48,51,50,48,51,55","displayName":"HOSKYCashGrab000032037","policy":"a5bb0e5bb275a573d744a021f9b3bff73595468e002755b447e01559","policyIsNativeScript":false,"fingerprint":"asset1lw9ee0wjzkew937r7s9l5qlpcrxtf4rc9sjve5"}]},{"scriptHash":"f0ff48bbb7bbe9d59a40f1ce90e9e9d0ff5002ec48f232b49ca0fb9a","after":null,"before":null,"isMultiSig":false,"isOpen":true,"numberOfTokens":260033,"numberOfAssetHolders":297242,"tokens":[{"name":"100,101,108,105,110,116,117,114,105,97,115","displayName":"delinturias","policy":"f0ff48bbb7bbe9d59a40f1ce90e9e9d0ff5002ec48f232b49ca0fb9a","policyIsNativeScript":false,"fingerprint":"asset1e8qwhgaxdsqkxgkl7u84gk5nmnxan92gkxmtsm"},{"name":"97,108,97,105,110,109,101,114,105,110,111","displayName":"alainmerino","policy":"f0ff48bbb7bbe9d59a40f1ce90e9e9d0ff5002ec48f232b49ca0fb9a","policyIsNativeScript":false,"fingerprint":"asset1ddkeqx9racx2z736nag0fpezhd8ctk82glgrex"},{"name":"109,101,116,116,108,101,114,116,111,108,101,100,111","displayName":"mettlertoledo","policy":"f0ff48bbb7bbe9d59a40f1ce90e9e9d0ff5002ec48f232b49ca0fb9a","policyIsNativeScript":false,"fingerprint":"asset1r3zu6382hea4lm3sfux5alhmugkrgsmnt4wavm"},{"name":"108,105,116,115,116,97,107,105,110,103","displayName":"litstaking","policy":"f0ff48bbb7bbe9d59a40f1ce90e9e9d0ff5002ec48f232b49ca0fb9a","policyIsNativeScript":false,"fingerprint":"asset13l9u73z9f78vcdw6fm240h4ru8f7sp8aszc5s2"},{"name":"121,118,114,119,97,108,108,101,116","displayName":"yvrwallet","policy":"f0ff48bbb7bbe9d59a40f1ce90e9e9d0ff5002ec48f232b49ca0fb9a","policyIsNativeScript":false,"fingerprint":"asset19vneqcqwkwe7np0j90c6yvaw90upesqh5nqyu8"}]},{"scriptHash":"a0028f350aaabe0545fdcb56b039bfb08e4bb4d8c4d7c3c7d481c235","after":null,"before":"2021/12/31 23:59:41","isMultiSig":false,"isOpen":false,"numberOfTokens":1,"numberOfAssetHolders":201021,"tokens":[{"name":"72,79,83,75,89","displayName":"HOSKY","policy":"a0028f350aaabe0545fdcb56b039bfb08e4bb4d8c4d7c3c7d481c235","policyIsNativeScript":false,"fingerprint":"asset17q7r59zlc3dgw0venc80pdv566q6yguw03f0d9","metadata":{"url":"https://hosky.io","ticker":"HOSKY","decimals":0,"logo":"https://uat-cf-explorer-token-logos.s3.eu-west-1.amazonaws.com/mainnet/a0028f350aaabe0545fdcb56b039bfb08e4bb4d8c4d7c3c7d481c235484f534b59","description":"The PREMIERE low-quality s**t coin doggo meme token, exclusively on the Cardano Ecosystem. We are THE s**t, we are NOT s**t."}}]},{"scriptHash":"123da5e4ef337161779c6729d2acd765f7a33a833b2a21a063ef65a5","after":null,"before":"2122/04/30 13:03:22","isMultiSig":false,"isOpen":true,"numberOfTokens":168,"numberOfAssetHolders":136036,"tokens":[{"name":"83,105,99,107,67,105,116,121,51,54,56","displayName":"SickCity368","policy":"123da5e4ef337161779c6729d2acd765f7a33a833b2a21a063ef65a5","policyIsNativeScript":false,"fingerprint":"asset1s4uy5ta43f7pfapffelar8g2dph9fc4qgpc6gq"},{"name":"83,105,99,107,67,105,116,121,51,53,48","displayName":"SickCity350","policy":"123da5e4ef337161779c6729d2acd765f7a33a833b2a21a063ef65a5","policyIsNativeScript":false,"fingerprint":"asset1yg4mls6a5dn08rcce3hw5fy84vc5t28jljfymx"},{"name":"83,105,99,107,67,105,116,121,51,53,50","displayName":"SickCity352","policy":"123da5e4ef337161779c6729d2acd765f7a33a833b2a21a063ef65a5","policyIsNativeScript":false,"fingerprint":"asset1s8rhe40sxk0j29fmnavpuwu8lky33kk8se9jty"},{"name":"83,105,99,107,67,105,116,121,51,52,55","displayName":"SickCity347","policy":"123da5e4ef337161779c6729d2acd765f7a33a833b2a21a063ef65a5","policyIsNativeScript":false,"fingerprint":"asset1unpqlftx6ntexvz2r9dr9d4wt7vf4ur838pum5"},{"name":"83,105,99,107,67,105,116,121,51,54,51","displayName":"SickCity363","policy":"123da5e4ef337161779c6729d2acd765f7a33a833b2a21a063ef65a5","policyIsNativeScript":false,"fingerprint":"asset12lvugn2vw65yht9fjepuraw5ec05d7sa8jua5d"}]},{"scriptHash":"4bf184e01e0f163296ab253edd60774e2d34367d0e7b6cbc689b567d","after":null,"before":"2025/09/24 14:59:57","isMultiSig":false,"isOpen":true,"numberOfTokens":100001,"numberOfAssetHolders":132127,"tokens":[{"name":"80,97,118,105,97,80,108,117,115,51,53,80,108,117,115,49,48,54","displayName":"PaviaPlus35Plus106","policy":"4bf184e01e0f163296ab253edd60774e2d34367d0e7b6cbc689b567d","policyIsNativeScript":false,"fingerprint":"asset1kw4slm9jm7ksvh27sxwy2x80v3q43u40h0cfnc"},{"name":"80,97,118,105,97,80,108,117,115,49,56,54,80,108,117,115,49,50,51","displayName":"PaviaPlus186Plus123","policy":"4bf184e01e0f163296ab253edd60774e2d34367d0e7b6cbc689b567d","policyIsNativeScript":false,"fingerprint":"asset1sa28syl5cscnu98sgg7pelqea0u2lxuhh5x5nm"},{"name":"80,97,118,105,97,80,108,117,115,49,49,49,77,105,110,117,115,49,54,48","displayName":"PaviaPlus111Minus160","policy":"4bf184e01e0f163296ab253edd60774e2d34367d0e7b6cbc689b567d","policyIsNativeScript":false,"fingerprint":"asset10ca6rg0d3eagmy349j6vwvkthagc4ykepgclrq"},{"name":"80,97,118,105,97,77,105,110,117,115,49,57,53,80,108,117,115,51,55","displayName":"PaviaMinus195Plus37","policy":"4bf184e01e0f163296ab253edd60774e2d34367d0e7b6cbc689b567d","policyIsNativeScript":false,"fingerprint":"asset13gjmwutkv4gpg3y2j52f35fukft8wx5tr640w3"},{"name":"80,97,118,105,97,80,108,117,115,49,52,53,80,108,117,115,50,57","displayName":"PaviaPlus145Plus29","policy":"4bf184e01e0f163296ab253edd60774e2d34367d0e7b6cbc689b567d","policyIsNativeScript":false,"fingerprint":"asset1303l60rletfpwr7e6efm9h8ydsp8n8vt4hwjnh"}]},{"scriptHash":"29a8fb8318718bd756124f0c144f56d4b4579dc5edf2dd42d669ac61","after":null,"before":null,"isMultiSig":false,"isOpen":true,"numberOfTokens":93058,"numberOfAssetHolders":129393,"tokens":[{"name":"102,117,114,110,105,115,104,98,114,57,49,88","displayName":"furnishbr91X","policy":"29a8fb8318718bd756124f0c144f56d4b4579dc5edf2dd42d669ac61","policyIsNativeScript":false,"fingerprint":"asset15e468pewm7k09nasj3hjkqc0ydjthsmn6ks5v4"},{"name":"102,117,114,110,105,115,104,115,87,116,84,120","displayName":"furnishsWtTx","policy":"29a8fb8318718bd756124f0c144f56d4b4579dc5edf2dd42d669ac61","policyIsNativeScript":false,"fingerprint":"asset1k7namhywcwexn3q68kynwkm82xv5uvgazevlgt"},{"name":"102,117,114,110,105,115,104,53,90,97,117,113","displayName":"furnish5Zauq","policy":"29a8fb8318718bd756124f0c144f56d4b4579dc5edf2dd42d669ac61","policyIsNativeScript":false,"fingerprint":"asset19gn7fuzsd8yakn4hrq45kfwnx9rn4luqrpmdt2"},{"name":"102,117,114,110,105,115,104,56,57,110,74,55","displayName":"furnish89nJ7","policy":"29a8fb8318718bd756124f0c144f56d4b4579dc5edf2dd42d669ac61","policyIsNativeScript":false,"fingerprint":"asset1d28hupr3xr7fasm2x3m8hdhjpzrcmety25t74p"},{"name":"102,117,114,110,105,115,104,82,72,67,115,67","displayName":"furnishRHCsC","policy":"29a8fb8318718bd756124f0c144f56d4b4579dc5edf2dd42d669ac61","policyIsNativeScript":false,"fingerprint":"asset1f462m90w87w4t0d6y96mzds3ywgzmjvr8qdznk"}]},{"scriptHash":"fbfef0c4d74ae29cb8e2f80bb58cb2ea22d023a0f427214a9c10d0d1","after":null,"before":"2023/11/18 15:11:07","isMultiSig":false,"isOpen":false,"numberOfTokens":109020,"numberOfAssetHolders":123188,"tokens":[{"name":"84,104,101,77,97,110,100,114,105,108,108,122,87,111,114,108,100,99,117,112,51,56,50,35,49,52,54","displayName":"TheMandrillzWorldcup382#146","policy":"fbfef0c4d74ae29cb8e2f80bb58cb2ea22d023a0f427214a9c10d0d1","policyIsNativeScript":false,"fingerprint":"asset1w847tp4rp8lnqmn588yrknc7uh0p3g4h3k2awg"},{"name":"84,104,101,77,97,110,100,114,105,108,108,122,87,111,114,108,100,99,117,112,51,55,51,35,55","displayName":"TheMandrillzWorldcup373#7","policy":"fbfef0c4d74ae29cb8e2f80bb58cb2ea22d023a0f427214a9c10d0d1","policyIsNativeScript":false,"fingerprint":"asset1q3exyys9wv9jqar6ue83ulpyaf8ldtmsxz7uf9"},{"name":"84,104,101,77,97,110,100,114,105,108,108,122,87,111,114,108,100,99,117,112,54,55,35,49,49,53","displayName":"TheMandrillzWorldcup67#115","policy":"fbfef0c4d74ae29cb8e2f80bb58cb2ea22d023a0f427214a9c10d0d1","policyIsNativeScript":false,"fingerprint":"asset1a6msehzg2nqla096dwnlayj34qygkmjwcrr26j"},{"name":"84,104,101,77,97,110,100,114,105,108,108,122,87,111,114,108,100,99,117,112,49,50,54,35,49,54,55","displayName":"TheMandrillzWorldcup126#167","policy":"fbfef0c4d74ae29cb8e2f80bb58cb2ea22d023a0f427214a9c10d0d1","policyIsNativeScript":false,"fingerprint":"asset1p8w93z3z33u93qn2ux4nqc007qugp0rd2s92qn"},{"name":"84,104,101,77,97,110,100,114,105,108,108,122,87,111,114,108,100,99,117,112,51,54,53,35,49,54,53","displayName":"TheMandrillzWorldcup365#165","policy":"fbfef0c4d74ae29cb8e2f80bb58cb2ea22d023a0f427214a9c10d0d1","policyIsNativeScript":false,"fingerprint":"asset1z8cs5vhkgq9wgjcdhgzxd7j2n86lcv83jaax3c"}]},{"scriptHash":"af2e27f580f7f08e93190a81f72462f153026d06450924726645891b","after":null,"before":"2022/12/31 02:44:42","isMultiSig":false,"isOpen":false,"numberOfTokens":1,"numberOfAssetHolders":99952,"tokens":[{"name":"68,82,73,80","displayName":"DRIP","policy":"af2e27f580f7f08e93190a81f72462f153026d06450924726645891b","policyIsNativeScript":false,"fingerprint":"asset14yqf3pclzx88jjahydyfad8pxw5xhuca6j7k2p","metadata":{"url":"https://dripdropz.io","ticker":"DRIP","decimals":6,"logo":"https://uat-cf-explorer-token-logos.s3.eu-west-1.amazonaws.com/mainnet/af2e27f580f7f08e93190a81f72462f153026d06450924726645891b44524950","description":"DripDropz Token"}}]},{"scriptHash":"dd5505a024a49a38528eb9a07cc1fee8e7620a2d1d25aee6d76697ea","after":null,"before":null,"isMultiSig":false,"isOpen":true,"numberOfTokens":66000,"numberOfAssetHolders":82106,"tokens":[{"name":"102,114,97,109,101,48,110,81,120,105,69","displayName":"frame0nQxiE","policy":"dd5505a024a49a38528eb9a07cc1fee8e7620a2d1d25aee6d76697ea","policyIsNativeScript":false,"fingerprint":"asset1kzlh2seczwtv0676ag2h5twa2ylad8mlucy6ud"},{"name":"102,114,97,109,101,48,89,108,121,50,71","displayName":"frame0Yly2G","policy":"dd5505a024a49a38528eb9a07cc1fee8e7620a2d1d25aee6d76697ea","policyIsNativeScript":false,"fingerprint":"asset1ywmall4zkkkxlsz0segzw3cs0f6y0sznjsv2mv"},{"name":"102,114,97,109,101,48,54,99,87,77,110","displayName":"frame06cWMn","policy":"dd5505a024a49a38528eb9a07cc1fee8e7620a2d1d25aee6d76697ea","policyIsNativeScript":false,"fingerprint":"asset1r2zrluecz6qg9dv579t43qpwuyq27pwuk4n270"},{"name":"102,114,97,109,101,50,71,74,108,67,119","displayName":"frame2GJlCw","policy":"dd5505a024a49a38528eb9a07cc1fee8e7620a2d1d25aee6d76697ea","policyIsNativeScript":false,"fingerprint":"asset1059u5thm20epezus7hl8fc2cdh3den9lk0z8he"},{"name":"102,114,97,109,101,48,79,72,98,77,116","displayName":"frame0OHbMt","policy":"dd5505a024a49a38528eb9a07cc1fee8e7620a2d1d25aee6d76697ea","policyIsNativeScript":false,"fingerprint":"asset1hcspnhgkq5p4tdk7mtch0zdq0gt28lkzgvq89e"}]},{"scriptHash":"b84d709a29b5f2f0f79d48941df55d3e5823a1ecc290a6091d1f6841","after":null,"before":"2022/03/29 05:22:53","isMultiSig":false,"isOpen":false,"numberOfTokens":56515,"numberOfAssetHolders":80981,"tokens":[{"name":"67,117,116,121,77,97,108,48,50,54,54,55","displayName":"CutyMal02667","policy":"b84d709a29b5f2f0f79d48941df55d3e5823a1ecc290a6091d1f6841","policyIsNativeScript":false,"fingerprint":"asset1ncgwhzt3llctn59vyx4evysy3fssk77acswzkh"},{"name":"67,117,116,121,77,97,108,48,50,54,56,52","displayName":"CutyMal02684","policy":"b84d709a29b5f2f0f79d48941df55d3e5823a1ecc290a6091d1f6841","policyIsNativeScript":false,"fingerprint":"asset1t380unyn78jrnrtgk5la564lnlnlenlt3vu80w"},{"name":"67,117,116,121,77,97,108,48,50,54,54,52","displayName":"CutyMal02664","policy":"b84d709a29b5f2f0f79d48941df55d3e5823a1ecc290a6091d1f6841","policyIsNativeScript":false,"fingerprint":"asset19c6s4fhunlaw39je4zdl7z5jtdunpxm50p5nmc"},{"name":"67,117,116,121,77,97,108,48,50,54,54,53","displayName":"CutyMal02665","policy":"b84d709a29b5f2f0f79d48941df55d3e5823a1ecc290a6091d1f6841","policyIsNativeScript":false,"fingerprint":"asset1qwmzyhng7x90jnlkm2ehzhjhe2fdmxtqwlxplw"},{"name":"67,117,116,121,77,97,108,48,50,54,51,53","displayName":"CutyMal02635","policy":"b84d709a29b5f2f0f79d48941df55d3e5823a1ecc290a6091d1f6841","policyIsNativeScript":false,"fingerprint":"asset15wncpxvpuncm9fzcjyfge3eqxtkz2pxtfs4gtv"}]},{"scriptHash":"101dcbab5b3c6d18f9121613cb999d12600e5e7e77c147d455b51443","after":null,"before":"2021/12/27 17:42:16","isMultiSig":false,"isOpen":false,"numberOfTokens":62504,"numberOfAssetHolders":80085,"tokens":[{"name":"99,78,99,50,49,76,80,65,78,101,118,101,114,69,110,103,105,110,101,67,79,71,55","displayName":"cNc21LPANeverEngineCOG7","policy":"101dcbab5b3c6d18f9121613cb999d12600e5e7e77c147d455b51443","policyIsNativeScript":false,"fingerprint":"asset1qahnhs6j0ldnfnnrahp9hpcsvw8fs0664xuery"},{"name":"99,78,99,50,49,76,80,65,78,101,118,101,114,69,110,103,105,110,101,67,79,71,49,48","displayName":"cNc21LPANeverEngineCOG10","policy":"101dcbab5b3c6d18f9121613cb999d12600e5e7e77c147d455b51443","policyIsNativeScript":false,"fingerprint":"asset1sjc7hczkg0vkphrv42qnk9j8u39pgvak3cpdhh"},{"name":"99,78,99,50,49,76,80,65,78,101,118,101,114,69,110,103,105,110,101,67,79,71,56","displayName":"cNc21LPANeverEngineCOG8","policy":"101dcbab5b3c6d18f9121613cb999d12600e5e7e77c147d455b51443","policyIsNativeScript":false,"fingerprint":"asset14ukth6kc3etsvu6sg2qs9e583f00y6d8km4rcu"},{"name":"99,78,99,50,49,76,80,65,78,101,118,101,114,69,110,103,105,110,101,67,79,71,57","displayName":"cNc21LPANeverEngineCOG9","policy":"101dcbab5b3c6d18f9121613cb999d12600e5e7e77c147d455b51443","policyIsNativeScript":false,"fingerprint":"asset1rlhxe0rs3elqxg9vujpcnsx6pwv2dh8tvsnlq6"},{"name":"99,78,99,50,49,76,80,65,82,117,103,112,117,108,108,49,51,54,50","displayName":"cNc21LPARugpull1362","policy":"101dcbab5b3c6d18f9121613cb999d12600e5e7e77c147d455b51443","policyIsNativeScript":false,"fingerprint":"asset12tef4g6k6azg30t8yns69l2h2tzcl8xzseutcq"}]},{"scriptHash":"d894897411707efa755a76deb66d26dfd50593f2e70863e1661e98a0","after":null,"before":null,"isMultiSig":false,"isOpen":true,"numberOfTokens":1,"numberOfAssetHolders":62190,"tokens":[{"name":"115,112,97,99,101,99,111,105,110,115","displayName":"spacecoins","policy":"d894897411707efa755a76deb66d26dfd50593f2e70863e1661e98a0","policyIsNativeScript":false,"fingerprint":"asset1pmmzqf2akudknt05ealtvcvsy7n6wnc9dd03mf","metadata":{"url":"https://spacecoins.io","ticker":"SPACE","decimals":0,"logo":"https://uat-cf-explorer-token-logos.s3.eu-west-1.amazonaws.com/mainnet/d894897411707efa755a76deb66d26dfd50593f2e70863e1661e98a07370616365636f696e73","description":"the OG Cardano community token - whatever you do, your did it!"}}]},{"scriptHash":"5ad8deb64bfec21ad2d96e1270b5873d0c4d0f231b928b4c39eb2435","after":null,"before":null,"isMultiSig":false,"isOpen":true,"numberOfTokens":1,"numberOfAssetHolders":58223,"tokens":[{"name":"97,100,111,115,105,97","displayName":"adosia","policy":"5ad8deb64bfec21ad2d96e1270b5873d0c4d0f231b928b4c39eb2435","policyIsNativeScript":false,"fingerprint":"asset1hmayqzg5drlze5nn2q5uug684pgc949tgww6hv","metadata":{"url":"https://adosia.com","ticker":"ADO","decimals":6,"logo":"https://uat-cf-explorer-token-logos.s3.eu-west-1.amazonaws.com/mainnet/5ad8deb64bfec21ad2d96e1270b5873d0c4d0f231b928b4c39eb243561646f736961","description":"Adosia brings IoT utility to the Cardano blockchain to enable new economic opportunities"}}]},{"scriptHash":"4247d5091db82330100904963ab8d0850976c80d3f1b927e052e07bd","after":null,"before":null,"isMultiSig":false,"isOpen":true,"numberOfTokens":1,"numberOfAssetHolders":54939,"tokens":[{"name":"84,111,107,104,117,110","displayName":"Tokhun","policy":"4247d5091db82330100904963ab8d0850976c80d3f1b927e052e07bd","policyIsNativeScript":false,"fingerprint":"asset1lur4e4jhsgrmfpvtru2tfrq2z5z5d8t5nr03vw","metadata":{"url":"https://tokhun.io","ticker":"Tokhun","decimals":0,"logo":"https://uat-cf-explorer-token-logos.s3.eu-west-1.amazonaws.com/mainnet/4247d5091db82330100904963ab8d0850976c80d3f1b927e052e07bd546f6b68756e","description":"A closed loop Utility token for Tokhun.io NFT & FT marketplace & minting platform."}}]},{"scriptHash":"afc910d7a306d20c12903979d4935ae4307241d03245743548e76783","after":null,"before":"2021/11/13 20:16:42","isMultiSig":false,"isOpen":false,"numberOfTokens":1,"numberOfAssetHolders":52872,"tokens":[{"name":"65,83,72,73,66","displayName":"ASHIB","policy":"afc910d7a306d20c12903979d4935ae4307241d03245743548e76783","policyIsNativeScript":false,"fingerprint":"asset1wrng86n9sz6t5d0lemvudur4ul6mgduv0gzuj8","metadata":{"url":"https://ashib.io","ticker":"ASHIB","decimals":6,"logo":"https://uat-cf-explorer-token-logos.s3.eu-west-1.amazonaws.com/mainnet/afc910d7a306d20c12903979d4935ae4307241d03245743548e767834153484942","description":"ADA Shiba Inu is the 2.0 version of Shiba Inu built on Cardano"}}]},{"scriptHash":"5a2cdc6e3aa9612fe4676672f443e7efd39c309d45e7919a4bf27750","after":null,"before":"2025/07/04 08:04:51","isMultiSig":false,"isOpen":true,"numberOfTokens":44301,"numberOfAssetHolders":52347,"tokens":[{"name":"66,111,115,115,80,108,97,110,101,116,68,105,115,116,114,105,99,116,83,105,120,49,52,49,56,51","displayName":"BossPlanetDistrictSix14183","policy":"5a2cdc6e3aa9612fe4676672f443e7efd39c309d45e7919a4bf27750","policyIsNativeScript":false,"fingerprint":"asset1pm4u6rzu4kkh0j7v6uc42vwpqmecnapnnd2sna"},{"name":"66,111,115,115,80,108,97,110,101,116,68,105,115,116,114,105,99,116,84,119,111,49,49,56,57,51","displayName":"BossPlanetDistrictTwo11893","policy":"5a2cdc6e3aa9612fe4676672f443e7efd39c309d45e7919a4bf27750","policyIsNativeScript":false,"fingerprint":"asset1q5wvm2nj2wa9a26zajvs9sw9r8jyesthf83wne"},{"name":"66,111,115,115,80,108,97,110,101,116,68,105,115,116,114,105,99,116,79,110,101,53,53,49,56","displayName":"BossPlanetDistrictOne5518","policy":"5a2cdc6e3aa9612fe4676672f443e7efd39c309d45e7919a4bf27750","policyIsNativeScript":false,"fingerprint":"asset154zj3r38cca0vpgekv4jthmv259w95ekp3kkcj"},{"name":"66,111,115,115,80,108,97,110,101,116,68,105,115,116,114,105,99,116,70,111,117,114,49,52,48,50,49","displayName":"BossPlanetDistrictFour14021","policy":"5a2cdc6e3aa9612fe4676672f443e7efd39c309d45e7919a4bf27750","policyIsNativeScript":false,"fingerprint":"asset1n5y2zz5aucvjmrqt386rd54qhd4phn0ej6ggnw"},{"name":"66,111,115,115,80,108,97,110,101,116,68,105,115,116,114,105,99,116,70,111,117,114,49,51,54,48,49","displayName":"BossPlanetDistrictFour13601","policy":"5a2cdc6e3aa9612fe4676672f443e7efd39c309d45e7919a4bf27750","policyIsNativeScript":false,"fingerprint":"asset16ju3hdz9y4ddhqcc4qv0rve32emn6puwpu56ae"}]},{"scriptHash":"0fe7b9c1abbf139414d8e138721a85dd8d6e24ee7dc0d895587b4f57","after":null,"before":"2022/01/02 03:06:02","isMultiSig":false,"isOpen":false,"numberOfTokens":13658,"numberOfAssetHolders":51731,"tokens":[{"name":"106,99,48,48,48,48,48,48,49,54","displayName":"jc00000016","policy":"0fe7b9c1abbf139414d8e138721a85dd8d6e24ee7dc0d895587b4f57","policyIsNativeScript":false,"fingerprint":"asset1384j943rw0mekqamprpzj6hlgd94h5d9s28hc5"},{"name":"106,99,48,48,48,48,48,48,48,51","displayName":"jc00000003","policy":"0fe7b9c1abbf139414d8e138721a85dd8d6e24ee7dc0d895587b4f57","policyIsNativeScript":false,"fingerprint":"asset16ad6yje3sz6cc4hlq0ywuvyyyzm0fjat8e2xaf"},{"name":"106,99,48,48,48,48,48,48,50,49","displayName":"jc00000021","policy":"0fe7b9c1abbf139414d8e138721a85dd8d6e24ee7dc0d895587b4f57","policyIsNativeScript":false,"fingerprint":"asset1a9z2maafuu50aks7y25zgd28ceq50xypds56k0"},{"name":"106,99,48,48,48,48,48,48,49,49","displayName":"jc00000011","policy":"0fe7b9c1abbf139414d8e138721a85dd8d6e24ee7dc0d895587b4f57","policyIsNativeScript":false,"fingerprint":"asset108q44jr3qv0eqn98a8c6c8et65utqlhfwarrg0"},{"name":"106,99,48,48,48,48,48,48,48,53","displayName":"jc00000005","policy":"0fe7b9c1abbf139414d8e138721a85dd8d6e24ee7dc0d895587b4f57","policyIsNativeScript":false,"fingerprint":"asset1jrr2zhxg2zrz4ynde7plplrqya7zp7kls2xrpt"}]},{"scriptHash":"bb78d3b6638537d6df7ae43791ead3d50e75fdae82131eff2b7ae994","after":null,"before":"2022/06/30 23:59:54","isMultiSig":false,"isOpen":false,"numberOfTokens":39001,"numberOfAssetHolders":50346,"tokens":[{"name":"85,110,98,111,117,110,100,101,100,69,97,114,116,104,77,105,110,117,115,57,52,77,105,110,117,115,52,48","displayName":"UnboundedEarthMinus94Minus40","policy":"bb78d3b6638537d6df7ae43791ead3d50e75fdae82131eff2b7ae994","policyIsNativeScript":false,"fingerprint":"asset1ahazzljzr2z8kcym0u4wuv5n8cfh4uqpayakmr"},{"name":"85,110,98,111,117,110,100,101,100,69,97,114,116,104,80,108,117,115,55,54,80,108,117,115,49,49","displayName":"UnboundedEarthPlus76Plus11","policy":"bb78d3b6638537d6df7ae43791ead3d50e75fdae82131eff2b7ae994","policyIsNativeScript":false,"fingerprint":"asset1m5urycwtl6zgce9tm92th9uzhyalr7zgy9dqrn"},{"name":"85,110,98,111,117,110,100,101,100,69,97,114,116,104,77,105,110,117,115,50,48,80,108,117,115,56,56","displayName":"UnboundedEarthMinus20Plus88","policy":"bb78d3b6638537d6df7ae43791ead3d50e75fdae82131eff2b7ae994","policyIsNativeScript":false,"fingerprint":"asset1qyepvva0yyu58u8fuxc8l5qal0rzhrvsy6f3nc"},{"name":"85,110,98,111,117,110,100,101,100,69,97,114,116,104,80,108,117,115,49,80,108,117,115,52,51","displayName":"UnboundedEarthPlus1Plus43","policy":"bb78d3b6638537d6df7ae43791ead3d50e75fdae82131eff2b7ae994","policyIsNativeScript":false,"fingerprint":"asset1234hsu4tr837negsqpdms4vlmwx6y79wngdmr0"},{"name":"85,110,98,111,117,110,100,101,100,69,97,114,116,104,80,108,117,115,52,80,108,117,115,56,54","displayName":"UnboundedEarthPlus4Plus86","policy":"bb78d3b6638537d6df7ae43791ead3d50e75fdae82131eff2b7ae994","policyIsNativeScript":false,"fingerprint":"asset1mqjh2mnqfya6nfkqutk08wz4c3uakppdn4v0xn"}]},{"scriptHash":"1d7f33bd23d85e1a25d87d86fac4f199c3197a2f7afeb662a0f34e1e","after":null,"before":"2021/06/30 16:45:44","isMultiSig":true,"isOpen":false,"numberOfTokens":1,"numberOfAssetHolders":47835,"tokens":[{"name":"119,111,114,108,100,109,111,98,105,108,101,116,111,107,101,110","displayName":"worldmobiletoken","policy":"1d7f33bd23d85e1a25d87d86fac4f199c3197a2f7afeb662a0f34e1e","policyIsNativeScript":false,"fingerprint":"asset1h7jsujzt4s8pup6nrzthr9nhajl0gmwhlzcqw7","metadata":{"url":"https://worldmobiletoken.com","ticker":"WMT","decimals":6,"logo":"https://uat-cf-explorer-token-logos.s3.eu-west-1.amazonaws.com/mainnet/1d7f33bd23d85e1a25d87d86fac4f199c3197a2f7afeb662a0f34e1e776f726c646d6f62696c65746f6b656e","description":"WMT is a utility token created to connect the unconnected and bank the unbanked. With nearly 4 billion people left offline, digital exclusion is a significant problem. Together with Input Output, World Mobile will deliver a revolutionary, scalable network in Africa and beyond. Let’s kickstart the sharing economy, reboot telecoms, and open a new world!"}}]},{"scriptHash":"8654e8b350e298c80d2451beb5ed80fc9eee9f38ce6b039fb8706bc3","after":null,"before":"2021/12/15 21:27:34","isMultiSig":false,"isOpen":false,"numberOfTokens":1,"numberOfAssetHolders":47054,"tokens":[{"name":"76,79,66,83,84,69,82","displayName":"LOBSTER","policy":"8654e8b350e298c80d2451beb5ed80fc9eee9f38ce6b039fb8706bc3","policyIsNativeScript":false,"fingerprint":"asset19skal0agalysqpgfx63gswkpzc3hs24h9g9pg0","metadata":{"url":null,"ticker":"$LOBSTER","decimals":null,"logo":"https://uat-cf-explorer-token-logos.s3.eu-west-1.amazonaws.com/mainnet/8654e8b350e298c80d2451beb5ed80fc9eee9f38ce6b039fb8706bc34c4f4253544552","description":"The ROYAL memecoin that was destined to rule the Cardano metaverse"}}]}],"totalItems":128236,"totalPages":6412,"currentPage":0,"isDataOverSize":null}