{"data":[{"time":"2024/04/09 03:36:35","tickerName":"CRDN2","slotNo":121067504,"poolData":"{\"name\":\"CARDANIANS.io #3\",\"ticker\":\"CRDN2\",\"description\":\"We are guards of cardano - we are Cardanians.\",\"homepage\":\"https://cardanians.io\",\"extended\":\"https://cardanians.io/_storage/pool-crdn2-extended.json\"}","blockNo":10162506,"poolId":"pool189lsf6c2upyhmrzddyvyfjxxkqnte9pw8aqx7f4cuf85sjxlm02","epochNo":477,"txHash":"3ae9c979f28dbb235262990c590a782145728efbd7f86aad8999acb7b772b7ed","epochSlotNo":366704},{"time":"2024/04/04 05:48:13","tickerName":"CRDN2","slotNo":120643402,"poolData":"{\"name\":\"CARDANIANS.io #3\",\"ticker\":\"CRDN2\",\"description\":\"We are guards of cardano - we are Cardanians.\",\"homepage\":\"https://cardanians.io\",\"extended\":\"https://cardanians.io/_storage/pool-crdn2-extended.json\"}","blockNo":10141977,"poolId":"pool189lsf6c2upyhmrzddyvyfjxxkqnte9pw8aqx7f4cuf85sjxlm02","epochNo":476,"txHash":"0f4b42ddc4434759bb24e8f54c85ca3897240df3d87be670089130e3fff5391c","epochSlotNo":374602},{"time":"2024/03/31 07:16:08","tickerName":"CRDN2","slotNo":120303077,"poolData":"{\"name\":\"CARDANIANS.io #3\",\"ticker\":\"CRDN2\",\"description\":\"We are guards of cardano - we are Cardanians.\",\"homepage\":\"https://cardanians.io\",\"extended\":\"https://cardanians.io/_storage/pool-crdn2-extended.json\"}","blockNo":10125434,"poolId":"pool189lsf6c2upyhmrzddyvyfjxxkqnte9pw8aqx7f4cuf85sjxlm02","epochNo":476,"txHash":"df7454fd957f8c538a1af4321250e9d4d5223701aadbb33e8554e3a91b93c311","epochSlotNo":34277},{"time":"2024/02/22 07:36:45","tickerName":"CRDN2","slotNo":117021114,"poolData":"{\"name\":\"CARDANIANS.io #3\",\"ticker\":\"CRDN2\",\"description\":\"We are guards of cardano - we are Cardanians.\",\"homepage\":\"https://cardanians.io\",\"extended\":\"https://cardanians.io/_storage/pool-crdn2-extended.json\"}","blockNo":9964938,"poolId":"pool189lsf6c2upyhmrzddyvyfjxxkqnte9pw8aqx7f4cuf85sjxlm02","epochNo":468,"txHash":"318e5972fce62d6210ac8fad0562a997f210872436764f491e4cab73bc978c6f","epochSlotNo":208314},{"time":"2024/02/16 03:33:31","tickerName":"CRDN2","slotNo":116488120,"poolData":"{\"name\":\"CARDANIANS.io #3\",\"ticker\":\"CRDN2\",\"description\":\"We are guards of cardano - we are Cardanians.\",\"homepage\":\"https://cardanians.io\",\"extended\":\"https://cardanians.io/_storage/pool-crdn2-extended.json\"}","blockNo":9938656,"poolId":"pool189lsf6c2upyhmrzddyvyfjxxkqnte9pw8aqx7f4cuf85sjxlm02","epochNo":467,"txHash":"b99180bc9b8fbebeb20f29777f7a23e6e3d11ddea38ae090d4a2d87aa748d87c","epochSlotNo":107320},{"time":"2024/02/10 05:26:31","tickerName":"CRDN2","slotNo":115976500,"poolData":"{\"name\":\"CARDANIANS.io #3\",\"ticker\":\"CRDN2\",\"description\":\"We are guards of cardano - we are Cardanians.\",\"homepage\":\"https://cardanians.io\",\"extended\":\"https://cardanians.io/_storage/pool-crdn2-extended.json\"}","blockNo":9913788,"poolId":"pool189lsf6c2upyhmrzddyvyfjxxkqnte9pw8aqx7f4cuf85sjxlm02","epochNo":466,"txHash":"d7ffccbff06b4e4fba7a2da58057c5bdee5045a808d255455f12730dbb31c2ad","epochSlotNo":27700},{"time":"2024/02/02 09:03:56","tickerName":"CRDN2","slotNo":115298345,"poolData":"{\"name\":\"CARDANIANS.io #3\",\"ticker\":\"CRDN2\",\"description\":\"We are guards of cardano - we are Cardanians.\",\"homepage\":\"https://cardanians.io\",\"extended\":\"https://cardanians.io/_storage/pool-crdn2-extended.json\"}","blockNo":9881168,"poolId":"pool189lsf6c2upyhmrzddyvyfjxxkqnte9pw8aqx7f4cuf85sjxlm02","epochNo":464,"txHash":"6963382955baa3b2ab28ee30ca5a7bc755c073223e3eb14ee959f4d7bcadfce4","epochSlotNo":213545},{"time":"2024/01/31 05:16:48","tickerName":"CRDN2","slotNo":115111917,"poolData":"{\"name\":\"CARDANIANS.io #3\",\"ticker\":\"CRDN2\",\"description\":\"We are guards of cardano - we are Cardanians.\",\"homepage\":\"https://cardanians.io\",\"extended\":\"https://cardanians.io/_storage/pool-crdn2-extended.json\"}","blockNo":9872163,"poolId":"pool189lsf6c2upyhmrzddyvyfjxxkqnte9pw8aqx7f4cuf85sjxlm02","epochNo":464,"txHash":"dfa207bc06a374b9b0c49ef59595e5d4a74bc520fc9954ccb8f3d0c2067eb12c","epochSlotNo":27117},{"time":"2024/01/26 06:21:58","tickerName":"CRDN1","slotNo":114683827,"poolData":"{\"name\":\"CARDANIANS.io #2\",\"ticker\":\"CRDN1\",\"description\":\"We are guards of cardano - we are Cardanians.\",\"homepage\":\"https://cardanians.io\",\"extended\":\"https://cardanians.io/_storage/pool-crdn1-extended.json\"}","blockNo":9851970,"poolId":"pool1ukeqarukv9gxwy9pt8jkr4qvad2yf87758g3xzemmvmtk8lrynp","epochNo":463,"txHash":"aa439be6fc5d5622e1313a8fec18388daa7f6b9fdf693b03ab48886b0d4b4a86","epochSlotNo":31027},{"time":"2024/01/21 08:50:28","tickerName":"CRDN1","slotNo":114260737,"poolData":"{\"name\":\"CARDANIANS.io #2\",\"ticker\":\"CRDN1\",\"description\":\"We are guards of cardano - we are Cardanians.\",\"homepage\":\"https://cardanians.io\",\"extended\":\"https://cardanians.io/_storage/pool-crdn1-extended.json\"}","blockNo":9831574,"poolId":"pool1ukeqarukv9gxwy9pt8jkr4qvad2yf87758g3xzemmvmtk8lrynp","epochNo":462,"txHash":"86bb4710e4583139f3fb69c58ce86225a9b85c7838aeebe2644a8e961ce4b692","epochSlotNo":39937}],"totalItems":38,"totalPages":4,"currentPage":0,"isDataOverSize":null}