{"data":[{"address":"addr1q8mwprrn99pa7e9yjxtyed7wlnr3g53yawrvleh78eqhd8m3v8wyum2ayqx7k4rsmyqmrey0g9smthryf20e8m7exrhsksc3d4","policy":"4429f7b432125357388b1d676c2d503b6d6fc78c414934bef9882e26","name":"43617264616e6f426f72656441706534383831","displayName":"CardanoBoredApe4881","fingerprint":"asset1a4ztu86t37fvcm2fx2492ya2ruke0rmx6fj5ta","quantity":14},{"address":"addr1qxnxg65s5rs7vsmy0mcksnr6rpy69hj82p3fph7xpjacm9zf6k52x63ag5f5cpgghhyctz7d66haqadf3m9xsu5ky46qdhkytk","policy":"4429f7b432125357388b1d676c2d503b6d6fc78c414934bef9882e26","name":"43617264616e6f426f726564417065373439","displayName":"CardanoBoredApe749","fingerprint":"asset1pa554x848qf4cs52e4wdgxk99h9n7qnpjru9v4","quantity":10},{"address":"addr1qxnxg65s5rs7vsmy0mcksnr6rpy69hj82p3fph7xpjacm9zf6k52x63ag5f5cpgghhyctz7d66haqadf3m9xsu5ky46qdhkytk","policy":"4429f7b432125357388b1d676c2d503b6d6fc78c414934bef9882e26","name":"43617264616e6f426f726564417065343939","displayName":"CardanoBoredApe499","fingerprint":"asset12xj8v43s8534s8r8yw9gn7m03sxkwnkxwt8usw","quantity":10},{"address":"addr1qxnxg65s5rs7vsmy0mcksnr6rpy69hj82p3fph7xpjacm9zf6k52x63ag5f5cpgghhyctz7d66haqadf3m9xsu5ky46qdhkytk","policy":"4429f7b432125357388b1d676c2d503b6d6fc78c414934bef9882e26","name":"43617264616e6f426f72656441706534393534","displayName":"CardanoBoredApe4954","fingerprint":"asset1rsv98c9lk3k4kug7085qc6mq2p4fv32eqfnv09","quantity":10},{"address":"addr1q8mwprrn99pa7e9yjxtyed7wlnr3g53yawrvleh78eqhd8m3v8wyum2ayqx7k4rsmyqmrey0g9smthryf20e8m7exrhsksc3d4","policy":"4429f7b432125357388b1d676c2d503b6d6fc78c414934bef9882e26","name":"43617264616e6f426f72656441706534393235","displayName":"CardanoBoredApe4925","fingerprint":"asset1gefau2fqp75drcpr6w40fdqsv0nv58v7s4jjk5","quantity":10},{"address":"addr1qxnxg65s5rs7vsmy0mcksnr6rpy69hj82p3fph7xpjacm9zf6k52x63ag5f5cpgghhyctz7d66haqadf3m9xsu5ky46qdhkytk","policy":"4429f7b432125357388b1d676c2d503b6d6fc78c414934bef9882e26","name":"43617264616e6f426f72656441706531353634","displayName":"CardanoBoredApe1564","fingerprint":"asset157lc9epwpwrvvy4wd2r0a2dw4mgpy260hc6jvf","quantity":9},{"address":"addr1q8xps8t8j433tg3ywujph2aavvxgxdjq8qshua6ypz7z0tzx5r5uz8jg50qgf5r73eg5lx0e8nnu8lqya0uffxmpqwaqkuzpm0","policy":"4429f7b432125357388b1d676c2d503b6d6fc78c414934bef9882e26","name":"43617264616e6f426f726564417065313030","displayName":"CardanoBoredApe100","fingerprint":"asset18zkxyhwl8nd7cwmuetqtglkav3fkcju6qe92ur","quantity":9},{"address":"addr1qxnxg65s5rs7vsmy0mcksnr6rpy69hj82p3fph7xpjacm9zf6k52x63ag5f5cpgghhyctz7d66haqadf3m9xsu5ky46qdhkytk","policy":"4429f7b432125357388b1d676c2d503b6d6fc78c414934bef9882e26","name":"43617264616e6f426f72656441706532313732","displayName":"CardanoBoredApe2172","fingerprint":"asset1zxst2q8d9dwuxxs4zczvrmsuwzjyvxctma8vrr","quantity":9},{"address":"addr1qxnxg65s5rs7vsmy0mcksnr6rpy69hj82p3fph7xpjacm9zf6k52x63ag5f5cpgghhyctz7d66haqadf3m9xsu5ky46qdhkytk","policy":"4429f7b432125357388b1d676c2d503b6d6fc78c414934bef9882e26","name":"43617264616e6f426f726564417065363638","displayName":"CardanoBoredApe668","fingerprint":"asset1krvc5k7s7ytep84cwyfv8sytggtkhhuuvfvgaf","quantity":9},{"address":"addr1qxnxg65s5rs7vsmy0mcksnr6rpy69hj82p3fph7xpjacm9zf6k52x63ag5f5cpgghhyctz7d66haqadf3m9xsu5ky46qdhkytk","policy":"4429f7b432125357388b1d676c2d503b6d6fc78c414934bef9882e26","name":"43617264616e6f426f72656441706534393538","displayName":"CardanoBoredApe4958","fingerprint":"asset1vpzzta6h6pmw4a6h2rqskkh90sdh54ck79cr44","quantity":9}],"totalItems":6410,"totalPages":641,"currentPage":0,"isDataOverSize":null}