{"data":[{"epoch":418,"time":"2023/06/14 21:44:54","amount":618306,"poolView":null,"poolHash":null},{"epoch":417,"time":"2023/06/09 21:47:26","amount":542259,"poolView":null,"poolHash":null},{"epoch":416,"time":"2023/06/04 21:46:57","amount":4342,"poolView":null,"poolHash":null},{"epoch":415,"time":"2023/05/30 21:45:29","amount":3962599,"poolView":null,"poolHash":null},{"epoch":414,"time":"2023/05/25 21:46:32","amount":3875723,"poolView":null,"poolHash":null},{"epoch":413,"time":"2023/05/20 21:47:36","amount":4714280,"poolView":null,"poolHash":null},{"epoch":412,"time":"2023/05/15 21:46:10","amount":3806002,"poolView":null,"poolHash":null},{"epoch":411,"time":"2023/05/10 21:46:15","amount":5566597,"poolView":null,"poolHash":null},{"epoch":410,"time":"2023/05/05 21:45:10","amount":4430507,"poolView":null,"poolHash":null},{"epoch":409,"time":"2023/04/30 21:47:21","amount":4347218,"poolView":null,"poolHash":null},{"epoch":408,"time":"2023/04/25 21:46:35","amount":4693954,"poolView":null,"poolHash":null},{"epoch":407,"time":"2023/04/20 21:46:22","amount":3948212,"poolView":null,"poolHash":null},{"epoch":406,"time":"2023/04/15 21:46:34","amount":5734514,"poolView":null,"poolHash":null},{"epoch":405,"time":"2023/04/10 21:45:36","amount":3642294,"poolView":null,"poolHash":null},{"epoch":404,"time":"2023/04/05 21:45:37","amount":3583656,"poolView":null,"poolHash":null},{"epoch":403,"time":"2023/03/31 21:49:49","amount":2864821,"poolView":null,"poolHash":null},{"epoch":402,"time":"2023/03/26 21:46:12","amount":3274478,"poolView":null,"poolHash":null},{"epoch":401,"time":"2023/03/21 21:45:15","amount":4686878,"poolView":null,"poolHash":null},{"epoch":400,"time":"2023/03/16 21:48:38","amount":4582095,"poolView":null,"poolHash":null},{"epoch":399,"time":"2023/03/11 21:48:16","amount":4213756,"poolView":null,"poolHash":null},{"epoch":398,"time":"2023/03/06 21:46:33","amount":4113741,"poolView":null,"poolHash":null},{"epoch":397,"time":"2023/03/01 21:45:54","amount":5344238,"poolView":null,"poolHash":null},{"epoch":396,"time":"2023/02/24 21:47:42","amount":1819974,"poolView":null,"poolHash":null},{"epoch":395,"time":"2023/02/19 21:44:59","amount":1274877,"poolView":null,"poolHash":null},{"epoch":394,"time":"2023/02/14 21:46:16","amount":7307,"poolView":null,"poolHash":null},{"epoch":393,"time":"2023/02/09 21:46:32","amount":1855559,"poolView":null,"poolHash":null},{"epoch":392,"time":"2023/02/04 21:48:54","amount":51705,"poolView":null,"poolHash":null},{"epoch":391,"time":"2023/01/30 21:46:15","amount":5237723,"poolView":null,"poolHash":null},{"epoch":390,"time":"2023/01/25 21:46:08","amount":4254968,"poolView":null,"poolHash":null},{"epoch":389,"time":"2023/01/20 21:48:38","amount":1145707,"poolView":null,"poolHash":null},{"epoch":372,"time":"2022/10/27 21:44:55","amount":686812,"poolView":null,"poolHash":null},{"epoch":371,"time":"2022/10/22 21:46:23","amount":476980,"poolView":null,"poolHash":null},{"epoch":370,"time":"2022/10/17 21:48:28","amount":407774,"poolView":null,"poolHash":null},{"epoch":369,"time":"2022/10/12 21:45:08","amount":470990,"poolView":null,"poolHash":null},{"epoch":367,"time":"2022/10/02 21:45:57","amount":5588153,"poolView":null,"poolHash":null},{"epoch":366,"time":"2022/09/27 21:45:11","amount":3495,"poolView":null,"poolHash":null},{"epoch":364,"time":"2022/09/17 21:45:01","amount":5329948,"poolView":null,"poolHash":null},{"epoch":363,"time":"2022/09/12 21:53:14","amount":5569409,"poolView":null,"poolHash":null},{"epoch":362,"time":"2022/09/07 21:56:05","amount":4396376,"poolView":null,"poolHash":null},{"epoch":361,"time":"2022/09/02 21:49:50","amount":4331638,"poolView":null,"poolHash":null},{"epoch":360,"time":"2022/08/28 21:45:32","amount":4634081,"poolView":null,"poolHash":null},{"epoch":359,"time":"2022/08/23 21:45:52","amount":5194325,"poolView":null,"poolHash":null},{"epoch":358,"time":"2022/08/18 21:44:58","amount":4776111,"poolView":null,"poolHash":null},{"epoch":357,"time":"2022/08/13 21:46:53","amount":3831316,"poolView":null,"poolHash":null},{"epoch":356,"time":"2022/08/08 21:45:00","amount":4719199,"poolView":null,"poolHash":null},{"epoch":355,"time":"2022/08/03 21:45:02","amount":3915218,"poolView":null,"poolHash":null},{"epoch":354,"time":"2022/07/29 21:44:51","amount":3823732,"poolView":null,"poolHash":null},{"epoch":353,"time":"2022/07/24 21:47:00","amount":5206019,"poolView":null,"poolHash":null},{"epoch":352,"time":"2022/07/19 21:44:58","amount":3592009,"poolView":null,"poolHash":null},{"epoch":351,"time":"2022/07/14 21:45:36","amount":4537381,"poolView":null,"poolHash":null},{"epoch":350,"time":"2022/07/09 21:45:34","amount":2811492,"poolView":null,"poolHash":null},{"epoch":349,"time":"2022/07/04 21:45:30","amount":1267578,"poolView":null,"poolHash":null},{"epoch":303,"time":"2021/11/16 21:45:05","amount":2112777,"poolView":null,"poolHash":null},{"epoch":302,"time":"2021/11/11 21:46:52","amount":2322178,"poolView":null,"poolHash":null},{"epoch":301,"time":"2021/11/06 21:46:27","amount":1183342,"poolView":null,"poolHash":null},{"epoch":300,"time":"2021/11/01 21:49:05","amount":1811269,"poolView":null,"poolHash":null},{"epoch":299,"time":"2021/10/27 21:46:25","amount":2913738,"poolView":null,"poolHash":null},{"epoch":298,"time":"2021/10/22 21:47:43","amount":1954409,"poolView":null,"poolHash":null},{"epoch":297,"time":"2021/10/17 21:47:15","amount":1720001,"poolView":null,"poolHash":null},{"epoch":296,"time":"2021/10/12 21:44:59","amount":1988733,"poolView":null,"poolHash":null},{"epoch":295,"time":"2021/10/07 21:44:59","amount":2533294,"poolView":null,"poolHash":null},{"epoch":294,"time":"2021/10/02 21:50:11","amount":1558981,"poolView":null,"poolHash":null},{"epoch":293,"time":"2021/09/27 21:46:53","amount":2470208,"poolView":null,"poolHash":null},{"epoch":292,"time":"2021/09/22 21:46:03","amount":1846864,"poolView":null,"poolHash":null},{"epoch":291,"time":"2021/09/17 21:46:33","amount":1827005,"poolView":null,"poolHash":null},{"epoch":290,"time":"2021/09/12 21:47:46","amount":2217815,"poolView":null,"poolHash":null},{"epoch":289,"time":"2021/09/07 21:45:31","amount":2514700,"poolView":null,"poolHash":null},{"epoch":288,"time":"2021/09/02 21:45:01","amount":2243217,"poolView":null,"poolHash":null},{"epoch":287,"time":"2021/08/28 21:47:10","amount":1681659,"poolView":null,"poolHash":null},{"epoch":286,"time":"2021/08/23 21:46:15","amount":1744471,"poolView":null,"poolHash":null},{"epoch":285,"time":"2021/08/18 21:45:28","amount":1641420,"poolView":null,"poolHash":null},{"epoch":284,"time":"2021/08/13 21:46:01","amount":1120837,"poolView":null,"poolHash":null},{"epoch":283,"time":"2021/08/08 21:46:08","amount":1265431,"poolView":null,"poolHash":null},{"epoch":282,"time":"2021/08/03 21:44:51","amount":1087525,"poolView":null,"poolHash":null},{"epoch":281,"time":"2021/07/29 21:46:38","amount":1099570,"poolView":null,"poolHash":null},{"epoch":280,"time":"2021/07/24 21:45:36","amount":189813,"poolView":null,"poolHash":null},{"epoch":279,"time":"2021/07/19 21:46:59","amount":16803,"poolView":null,"poolHash":null},{"epoch":278,"time":"2021/07/14 21:45:00","amount":12227,"poolView":null,"poolHash":null},{"epoch":277,"time":"2021/07/09 21:46:07","amount":21006,"poolView":null,"poolHash":null},{"epoch":276,"time":"2021/07/04 21:45:46","amount":20757,"poolView":null,"poolHash":null},{"epoch":275,"time":"2021/06/29 21:47:35","amount":16509,"poolView":null,"poolHash":null},{"epoch":274,"time":"2021/06/24 21:45:55","amount":11642,"poolView":null,"poolHash":null},{"epoch":273,"time":"2021/06/19 21:45:24","amount":19026,"poolView":null,"poolHash":null},{"epoch":272,"time":"2021/06/14 21:45:23","amount":18957,"poolView":null,"poolHash":null},{"epoch":271,"time":"2021/06/09 21:44:58","amount":12150,"poolView":null,"poolHash":null},{"epoch":270,"time":"2021/06/04 21:46:23","amount":11512,"poolView":null,"poolHash":null},{"epoch":269,"time":"2021/05/30 21:45:17","amount":17088,"poolView":null,"poolHash":null},{"epoch":268,"time":"2021/05/25 21:45:09","amount":13614,"poolView":null,"poolHash":null},{"epoch":267,"time":"2021/05/20 21:44:51","amount":20296,"poolView":null,"poolHash":null},{"epoch":266,"time":"2021/05/15 21:49:56","amount":10313,"poolView":null,"poolHash":null},{"epoch":265,"time":"2021/05/10 21:45:31","amount":14379,"poolView":null,"poolHash":null},{"epoch":264,"time":"2021/05/05 21:47:27","amount":17056,"poolView":null,"poolHash":null},{"epoch":263,"time":"2021/04/30 21:45:27","amount":12305,"poolView":null,"poolHash":null},{"epoch":262,"time":"2021/04/25 21:47:01","amount":15078,"poolView":null,"poolHash":null},{"epoch":261,"time":"2021/04/20 21:45:05","amount":19276,"poolView":null,"poolHash":null},{"epoch":260,"time":"2021/04/15 22:08:57","amount":17322,"poolView":null,"poolHash":null},{"epoch":259,"time":"2021/04/10 21:47:06","amount":15520,"poolView":null,"poolHash":null},{"epoch":258,"time":"2021/04/05 21:45:46","amount":12235,"poolView":null,"poolHash":null},{"epoch":257,"time":"2021/03/31 21:48:20","amount":17861,"poolView":null,"poolHash":null},{"epoch":256,"time":"2021/03/26 21:44:51","amount":16829,"poolView":null,"poolHash":null}],"totalItems":118,"totalPages":2,"currentPage":0,"isDataOverSize":null}