{"data":[{"blockNo":9159121,"slotNo":100457434,"epochNo":430,"epochSlotNo":60634,"hash":"31a120de993bab96dd18a611ab5c85d3dadaf3916e8e3489be823ad5d205434c","time":"2023/08/14 14:35:25","txCount":4,"totalFees":2299255,"totalOutput":1321703666655,"slotLeader":"90ac71b92a4c29f7a9bbde83ba2e6e2c17b69e41db204a55e7a338ae"},{"blockNo":9159120,"slotNo":100457428,"epochNo":430,"epochSlotNo":60628,"hash":"86f428fd0bd287971570a709de2a66dedbece0465ac76bfbc1655b72cffb9921","time":"2023/08/14 14:35:19","txCount":16,"totalFees":6493838,"totalOutput":2950907020522,"slotLeader":"e293c14533a3521ba5f8e3e1976ea39e47dad69d6666847f2587eb72"},{"blockNo":9159119,"slotNo":100457409,"epochNo":430,"epochSlotNo":60609,"hash":"4c7339b535e44dbc17c8fb6b91857be16bd2e88a6a960f7ffc050d184af67f84","time":"2023/08/14 14:35:00","txCount":5,"totalFees":1101049,"totalOutput":3969335878,"slotLeader":"7d89d3f11170f5874c5b781b80864be392edcd9c8715ccce18155a8f"},{"blockNo":9159118,"slotNo":100457400,"epochNo":430,"epochSlotNo":60600,"hash":"ce15b82b75ce4223c8a841ac08c5e7e06ab31152b36845c48254f53f82199a1a","time":"2023/08/14 14:34:51","txCount":38,"totalFees":12633000,"totalOutput":3949770765311,"slotLeader":"17a6a1f2fb36d9ef275805db17409af7ab753b9d27bdd41b89510bb9"},{"blockNo":9159117,"slotNo":100457346,"epochNo":430,"epochSlotNo":60546,"hash":"62aaeeded67f46ef7a42db8f2125226b767975dd78d118661d5b4fdc9b71ced6","time":"2023/08/14 14:33:57","txCount":12,"totalFees":4149751,"totalOutput":983121257224,"slotLeader":"e4abcf4408584601e7c707a8902996c0c291e1a3c8300b327ae3f6ab"},{"blockNo":9159116,"slotNo":100457337,"epochNo":430,"epochSlotNo":60537,"hash":"457ef7a73f986d70feee1131a21cd6d697539d5f9fcaeb7a81b67986b6298ea3","time":"2023/08/14 14:33:48","txCount":53,"totalFees":14610851,"totalOutput":235824705524,"slotLeader":"60397646d7d1ad6fe2ddccfe7efc9cba61f6d3d94d29e8f41de73240"},{"blockNo":9159115,"slotNo":100457272,"epochNo":430,"epochSlotNo":60472,"hash":"df5ca7850011782a38b1af6e81c1b6cb6474fdabfb872360c94871ef45b54e29","time":"2023/08/14 14:32:43","txCount":34,"totalFees":12588738,"totalOutput":1594101200709,"slotLeader":"09d372205e474b745eeedd87aa86295cfdef9b85991ad640101756bc"},{"blockNo":9159114,"slotNo":100457215,"epochNo":430,"epochSlotNo":60415,"hash":"f6fd51610675fd4599bdc7c1958ec16063e6fc15d3b0b34c1156d38446935b72","time":"2023/08/14 14:31:46","txCount":13,"totalFees":3916991,"totalOutput":1026067677565,"slotLeader":"636fab1b0059766eb08c3bd089e71a949db856bb845e3bff31fad5ad"},{"blockNo":9159113,"slotNo":100457198,"epochNo":430,"epochSlotNo":60398,"hash":"02a7631e9fd9eb21c0f0fd07de12badfd561b84d9d5d072d41dc022ba06f5754","time":"2023/08/14 14:31:29","txCount":10,"totalFees":4165187,"totalOutput":8676225014757,"slotLeader":"04357793d81097a7d2c15ec6cd6067a58cdd2fb21aaf07e56c306ecf"},{"blockNo":9159112,"slotNo":100457187,"epochNo":430,"epochSlotNo":60387,"hash":"185050500475446fa4e5d3c57e44d57a4fb087c83ab779959f8ed03739cd5b05","time":"2023/08/14 14:31:18","txCount":7,"totalFees":2272214,"totalOutput":470242134733,"slotLeader":"842dd6ff41539eb5a47a7915082458d8e7d592ae5e8eca23e26c7346"},{"blockNo":9159111,"slotNo":100457175,"epochNo":430,"epochSlotNo":60375,"hash":"07f4dc60e007f87c1bb69aeaf517726d642c887ed5e84108a0788d55ed5e71c8","time":"2023/08/14 14:31:06","txCount":0,"totalFees":0,"totalOutput":0,"slotLeader":"a5b36528fbbb2709e1b29fbdc3816399ef2bd1c916efa416aa325f1a"},{"blockNo":9159110,"slotNo":100457173,"epochNo":430,"epochSlotNo":60373,"hash":"955b488ec27954b346d3d287821f246421a9f23c0f98dfeeaede48ab5814963e","time":"2023/08/14 14:31:04","txCount":3,"totalFees":1513259,"totalOutput":57846614081,"slotLeader":"00000036d515e12e18cd3c88c74f09a67984c2c279a5296aa96efe89"},{"blockNo":9159109,"slotNo":100457170,"epochNo":430,"epochSlotNo":60370,"hash":"2b9ec0f4d67be0b9d1e9fa2e6cdb39f71840b5eee964d73a5ee56cc8c6b960b3","time":"2023/08/14 14:31:01","txCount":17,"totalFees":4887119,"totalOutput":626828502014,"slotLeader":"3a2c7b31a5024ea2cfed07205500a4d55f9d71f2691227d77bb2dc66"},{"blockNo":9159108,"slotNo":100457142,"epochNo":430,"epochSlotNo":60342,"hash":"6fe70138146297a8311566ca6bc91a9bf03a999916e16f8a7481d1b6692f1cd8","time":"2023/08/14 14:30:33","txCount":10,"totalFees":2109560,"totalOutput":116513032906,"slotLeader":"7d89d3f11170f5874c5b781b80864be392edcd9c8715ccce18155a8f"},{"blockNo":9159107,"slotNo":100457135,"epochNo":430,"epochSlotNo":60335,"hash":"4e1af45e41935d7824fdb390b1bf3bdcdede3a95f7d3ef8f7d41df4fbaf025d0","time":"2023/08/14 14:30:26","txCount":13,"totalFees":3421776,"totalOutput":49230387266,"slotLeader":"56f78c5478524496790461eefd4d9380f71dfb231358736902648dfe"},{"blockNo":9159106,"slotNo":100457110,"epochNo":430,"epochSlotNo":60310,"hash":"197802a2697d201eaa15a31ee7b193d0dc8130849156e298fa650134ca9ec6c9","time":"2023/08/14 14:30:01","txCount":11,"totalFees":4042954,"totalOutput":48642548033677,"slotLeader":"0b38a13726b9dc3aa11be08af93003e775d9d62091765e0e1e3d027b"},{"blockNo":9159105,"slotNo":100457098,"epochNo":430,"epochSlotNo":60298,"hash":"7aa90bf4a45863787e401f9091ef78c93fd3f5178c80022ac68a0e0df7870fa2","time":"2023/08/14 14:29:49","txCount":2,"totalFees":438585,"totalOutput":167078036294,"slotLeader":"b3cc3005f1dccbc88230eb66d6e99c2f1bfa32273044473e17d9e10b"},{"blockNo":9159104,"slotNo":100457095,"epochNo":430,"epochSlotNo":60295,"hash":"80423a66c4830b0cf8701472ae864782689011ce5b73d4a26d5cf22a601cfd66","time":"2023/08/14 14:29:46","txCount":9,"totalFees":4949224,"totalOutput":846719482495,"slotLeader":"fd832d27b5fbe0489409613f50e2139b54a21e613c8a7609dcff556e"},{"blockNo":9159103,"slotNo":100457086,"epochNo":430,"epochSlotNo":60286,"hash":"a3d1bc78b1a930880a336c6b51c786204e9e07a11ed6d0e643b5940a008b200e","time":"2023/08/14 14:29:37","txCount":40,"totalFees":11420422,"totalOutput":359133642765,"slotLeader":"fcc675f8266022c4a0f8a7f1e24b00896fd742b35f147304c2354442"},{"blockNo":9159102,"slotNo":100457073,"epochNo":430,"epochSlotNo":60273,"hash":"b54f7bc75bc29833929f67a8f59e8b57d3f9bff8ee8fef5a0b10861a3bef859c","time":"2023/08/14 14:29:24","txCount":43,"totalFees":13392628,"totalOutput":56696077081720,"slotLeader":"b67b0635ab2b26df9e44ba14fac3560720ca0902446d68fe282d4b97"}],"totalItems":2919,"totalPages":146,"currentPage":0}