{"data":[{"epochNo":450,"amount":3231647221,"time":"2023/11/26 21:44:36","type":"REWARD_WITHDRAWN"},{"epochNo":450,"amount":3231647221,"time":"2023/11/21 21:44:51","type":"REWARD_RECEIVED"},{"epochNo":449,"amount":571570801,"time":"2023/11/21 21:44:43","type":"REWARD_WITHDRAWN"},{"epochNo":449,"amount":571570801,"time":"2023/11/16 21:44:57","type":"REWARD_RECEIVED"},{"epochNo":448,"amount":0,"time":"2023/11/16 21:44:12","type":"REWARD_WITHDRAWN"},{"epochNo":447,"amount":1025559248,"time":"2023/11/11 21:44:49","type":"REWARD_WITHDRAWN"},{"epochNo":447,"amount":1025559248,"time":"2023/11/06 21:45:50","type":"REWARD_RECEIVED"},{"epochNo":446,"amount":580535051,"time":"2023/11/06 21:44:41","type":"REWARD_WITHDRAWN"},{"epochNo":446,"amount":580535051,"time":"2023/11/01 21:46:00","type":"REWARD_RECEIVED"},{"epochNo":445,"amount":1490785690,"time":"2023/11/01 21:44:49","type":"REWARD_WITHDRAWN"},{"epochNo":445,"amount":1490785690,"time":"2023/10/27 21:45:10","type":"REWARD_RECEIVED"},{"epochNo":444,"amount":575328197,"time":"2023/10/27 21:44:39","type":"REWARD_WITHDRAWN"},{"epochNo":444,"amount":575328197,"time":"2023/10/22 21:45:08","type":"REWARD_RECEIVED"},{"epochNo":443,"amount":577718346,"time":"2023/10/22 21:44:05","type":"REWARD_WITHDRAWN"},{"epochNo":443,"amount":577718346,"time":"2023/10/17 21:45:40","type":"REWARD_RECEIVED"},{"epochNo":442,"amount":1012623176,"time":"2023/10/17 21:44:02","type":"REWARD_WITHDRAWN"},{"epochNo":442,"amount":1012623176,"time":"2023/10/12 21:45:12","type":"REWARD_RECEIVED"},{"epochNo":441,"amount":581323081,"time":"2023/10/12 21:44:33","type":"REWARD_WITHDRAWN"},{"epochNo":441,"amount":581323081,"time":"2023/10/07 21:45:01","type":"REWARD_RECEIVED"},{"epochNo":440,"amount":2843104135,"time":"2023/10/07 21:43:27","type":"REWARD_WITHDRAWN"}],"totalItems":100,"totalPages":5,"currentPage":0,"isDataOverSize":null}