{"data":[{"hash":"abe769b9a2bbefeb35277ab6ecdc5ce3f012adf6334f91525fc7f73918b20686","blockNo":10172464,"blockHash":"6c718d9de7acb0aa61177751a5ce575bfa886d008a8bc4c9394ced85f37bf184","epochNo":478,"epochSlotNo":136888,"slot":121269688,"time":"2024/04/11 11:46:19","addressesInput":["addr1qxcm3fdjxr68c4p3azpha7955qfc3g8w65gt2zggqg6h0u7727ftmzaxea02vs6np2r0s80fyy9jj3fnzkujwuvs2wxqmgh2m6"],"addressesOutput":["addr1zyq0kyrml023kwjk8zr86d5gaxrt5w8lxnah8r6m6s4jp4g3r6dxnzml343sx8jweqn4vn3fz2kj8kgu9czghx0jrsyqqktyhv","addr1qxcm3fdjxr68c4p3azpha7955qfc3g8w65gt2zggqg6h0u7727ftmzaxea02vs6np2r0s80fyy9jj3fnzkujwuvs2wxqmgh2m6"],"fee":258030,"totalOutput":121315383,"balance":null,"tokens":[]},{"hash":"09658a07ab19ca0d107550bce080769c32708f6797d20cdc2133c043d849278f","blockNo":10172462,"blockHash":"1640f3b71678d1318d3a093557ad2006d6bfd1b8f85b231f5a5e555d0d55a38c","epochNo":478,"epochSlotNo":136844,"slot":121269644,"time":"2024/04/11 11:45:35","addressesInput":["addr1qy83e662l23ur56yu9hh349nfdqg6xsh0s447um879g54v3md0uwgpv76xnmapxg9e4yctne0fm5fxkfqkzuf5yqa5hs96he0l","addr1qy83e662l23ur56yu9hh349nfdqg6xsh0s447um879g54v3md0uwgpv76xnmapxg9e4yctne0fm5fxkfqkzuf5yqa5hs96he0l","addr1qy83e662l23ur56yu9hh349nfdqg6xsh0s447um879g54v3md0uwgpv76xnmapxg9e4yctne0fm5fxkfqkzuf5yqa5hs96he0l"],"addressesOutput":["addr1x8rjw3pawl0kelu4mj3c8x20fsczf5pl744s9mxz9v8n7efvjel5h55fgjcxgchp830r7h2l5msrlpt8262r3nvr8ekstg4qrx","addr1qy83e662l23ur56yu9hh349nfdqg6xsh0s447um879g54v3md0uwgpv76xnmapxg9e4yctne0fm5fxkfqkzuf5yqa5hs96he0l","addr1qy83e662l23ur56yu9hh349nfdqg6xsh0s447um879g54v3md0uwgpv76xnmapxg9e4yctne0fm5fxkfqkzuf5yqa5hs96he0l"],"fee":359145,"totalOutput":23029969,"balance":null,"tokens":[]},{"hash":"a98b0b5c4113dea9c3f2e69a93de77d54a124126c3c68909ec22c92450a0f46c","blockNo":10172460,"blockHash":"56dd6080cc57ef778f1307cb0aa3c1eecc54a47cb422b1e51f02b86a14f4d9c3","epochNo":478,"epochSlotNo":136730,"slot":121269530,"time":"2024/04/11 11:43:41","addressesInput":["addr1q9dsahzt3jq2rrw5mw9re0xdxmenh0l06zfkrztemawlethgevx6w9cex7xjz96mxg6vjnnmt33yv0p50a7we28rrl6q6j5vmy","addr1q9dsahzt3jq2rrw5mw9re0xdxmenh0l06zfkrztemawlethgevx6w9cex7xjz96mxg6vjnnmt33yv0p50a7we28rrl6q6j5vmy"],"addressesOutput":["addr1v9qw6gtr5p0cx20elqpr0hwvw6uluruy9yqfqdymgtjlpzc2svmyu","addr1q9dsahzt3jq2rrw5mw9re0xdxmenh0l06zfkrztemawlethgevx6w9cex7xjz96mxg6vjnnmt33yv0p50a7we28rrl6q6j5vmy","addr1q9dsahzt3jq2rrw5mw9re0xdxmenh0l06zfkrztemawlethgevx6w9cex7xjz96mxg6vjnnmt33yv0p50a7we28rrl6q6j5vmy"],"fee":181913,"totalOutput":119234599,"balance":null,"tokens":[]},{"hash":"a29e41ca57b44bf66c20f98cf44f42cd79a472f75d4e088699ebb795c2552570","blockNo":10172457,"blockHash":"67ea6b5388dca9afef852561765d94f227467230796adebdfad5e387ce97713b","epochNo":478,"epochSlotNo":136701,"slot":121269501,"time":"2024/04/11 11:43:12","addressesInput":["addr1qxcm3fdjxr68c4p3azpha7955qfc3g8w65gt2zggqg6h0u7727ftmzaxea02vs6np2r0s80fyy9jj3fnzkujwuvs2wxqmgh2m6","addr1qxcm3fdjxr68c4p3azpha7955qfc3g8w65gt2zggqg6h0u7727ftmzaxea02vs6np2r0s80fyy9jj3fnzkujwuvs2wxqmgh2m6"],"addressesOutput":["addr1qys6p3j97mfxe72rxkh5d9lp3cdjqp37dd8t5yjq5vl9m93h0dy20dzu4wpwtfre93yd2ph2e57ppft6kyc0dg28yp7shh7t9v","addr1wykq7svdj3ys97tyyn9uv55r5x9azmef8p4yjy4a50v0r7qmspxts","addr1qxcm3fdjxr68c4p3azpha7955qfc3g8w65gt2zggqg6h0u7727ftmzaxea02vs6np2r0s80fyy9jj3fnzkujwuvs2wxqmgh2m6"],"fee":256578,"totalOutput":126818109,"balance":null,"tokens":[]},{"hash":"5a0f59187faf1ab7ef54e8da3498918f280699e28f08a5395a2c2bbf6249c9e2","blockNo":10172456,"blockHash":"3318c512c55081b21f2c6a5914b98b08c3b1ee6dec480ad126e4ada11d2ede9a","epochNo":478,"epochSlotNo":136687,"slot":121269487,"time":"2024/04/11 11:42:58","addressesInput":["addr1q96lgr540fsvx3rh4v7eceman5a5s9gxuuc5aznd6lwcm47fp24gdt5vngdqd5d835r8ermmjd977gdfjy8s6k8t4h3q7uky07","addr1q96lgr540fsvx3rh4v7eceman5a5s9gxuuc5aznd6lwcm47fp24gdt5vngdqd5d835r8ermmjd977gdfjy8s6k8t4h3q7uky07"],"addressesOutput":["addr1qxlznre6uernyz53u9837kc8j37rgwgzx2xkzpdefkeuqg4q87hzs5em9shq4rgzkak0qzgd9ast5fvegt3h0d5un5gq8uycmp","addr1q96lgr540fsvx3rh4v7eceman5a5s9gxuuc5aznd6lwcm47fp24gdt5vngdqd5d835r8ermmjd977gdfjy8s6k8t4h3q7uky07","addr1q96lgr540fsvx3rh4v7eceman5a5s9gxuuc5aznd6lwcm47fp24gdt5vngdqd5d835r8ermmjd977gdfjy8s6k8t4h3q7uky07"],"fee":254073,"totalOutput":6705859717,"balance":null,"tokens":[]},{"hash":"1fff30a87c488a6f027569b21aa4b6bbf84f03979f5f3a8e8c258c3f5d309937","blockNo":10172456,"blockHash":"3318c512c55081b21f2c6a5914b98b08c3b1ee6dec480ad126e4ada11d2ede9a","epochNo":478,"epochSlotNo":136687,"slot":121269487,"time":"2024/04/11 11:42:58","addressesInput":["DdzFFzCqrht5PnZRFo1DVpeMej1PM4463KUA5pFvwoEJVPvRfri15dZE29XaTYrKVxHH7X6zqvhnqFHx9SnATUoDHTRDKRvY8i2pig3x","DdzFFzCqrhsoVDhnuwgnWvrpvBx8xpwW3KiWMtVydJfWPpNfgi2L5Dub2ZKRYW2TAWEjz81mWCXakZcLBUJm3iUyaCQTmQWqgdsvKoJt","DdzFFzCqrhsqHP5MyMdVCPRgSbMFAPyyz2VqPcHTW2LWkqS2WNz4a9CKrYKscahXT2pujNezzisZg2PDe9SNAc8U2mXmRErJ11nKr5UA"],"addressesOutput":["addr1q93lmzpp99l5tj5wjgxq7242acwunv9lr8d837wt3y3unecdz0676tjy0g0cu5x8cehyayejszqdka20xtmuden4pdvq9ykqx7","DdzFFzCqrht4ncjNqviTVYYbWaen35CGmoZHx7Vh5rk5J995bjUr4EjWKCYhWyvdXWEWBdXQApKe4Hxanze6nEKtmya1SVxyyrW4ggep","DdzFFzCqrhsyBT5f1E6HjqgtHPBKjAaDsZQ2AFBKLjvmq5Qhnt1HGt3dUsCp8AL34NrAtb78uHfdbUf6WiY6QCva7LxJtCcu3RUb8v3a"],"fee":561017,"totalOutput":1032178243,"balance":null,"tokens":[]},{"hash":"818f76953c84836f23a9945538630ba218e484562159df6039eddaa001016145","blockNo":10172454,"blockHash":"129230e70f232e68780ad0a1a90ec3e6adb278ccd6887e9ab5f6922e7b1fbe1c","epochNo":478,"epochSlotNo":136622,"slot":121269422,"time":"2024/04/11 11:41:53","addressesInput":["addr1qxlznre6uernyz53u9837kc8j37rgwgzx2xkzpdefkeuqg4q87hzs5em9shq4rgzkak0qzgd9ast5fvegt3h0d5un5gq8uycmp"],"addressesOutput":["addr1q80frc90mz4jvd68m7nthsuex4h66gndlsrpgfpx78fer9dyky9v2tyg45e7t0f7v9rljnsn38ty00l6y4pjgnaa45csr5v66f","addr1qxlznre6uernyz53u9837kc8j37rgwgzx2xkzpdefkeuqg4q87hzs5em9shq4rgzkak0qzgd9ast5fvegt3h0d5un5gq8uycmp"],"fee":180153,"totalOutput":18218550,"balance":null,"tokens":[]},{"hash":"3b642234aeb552143b3b6f292eae9597ac4d45107a624a8841f69cd5b3aee4b6","blockNo":10172443,"blockHash":"e310f7703c67765dd63662c5e0665f575813fb764beb93c9211b592388a38d92","epochNo":478,"epochSlotNo":136430,"slot":121269230,"time":"2024/04/11 11:38:41","addressesInput":["addr1qy0ysgn5v6zgh7dsxptxsxex506gtssz697w5h89ll4j4v3nwvrnm9qmn5x8eltqn48s37dnhlpczpdf87f06h4khpaqmtm7jk","addr1qy0ysgn5v6zgh7dsxptxsxex506gtssz697w5h89ll4j4v3nwvrnm9qmn5x8eltqn48s37dnhlpczpdf87f06h4khpaqmtm7jk","addr1qy0ysgn5v6zgh7dsxptxsxex506gtssz697w5h89ll4j4v3nwvrnm9qmn5x8eltqn48s37dnhlpczpdf87f06h4khpaqmtm7jk","addr1qy0ysgn5v6zgh7dsxptxsxex506gtssz697w5h89ll4j4v3nwvrnm9qmn5x8eltqn48s37dnhlpczpdf87f06h4khpaqmtm7jk","addr1qy0ysgn5v6zgh7dsxptxsxex506gtssz697w5h89ll4j4v3nwvrnm9qmn5x8eltqn48s37dnhlpczpdf87f06h4khpaqmtm7jk","addr1qy0ysgn5v6zgh7dsxptxsxex506gtssz697w5h89ll4j4v3nwvrnm9qmn5x8eltqn48s37dnhlpczpdf87f06h4khpaqmtm7jk","addr1qy0ysgn5v6zgh7dsxptxsxex506gtssz697w5h89ll4j4v3nwvrnm9qmn5x8eltqn48s37dnhlpczpdf87f06h4khpaqmtm7jk","addr1qy0ysgn5v6zgh7dsxptxsxex506gtssz697w5h89ll4j4v3nwvrnm9qmn5x8eltqn48s37dnhlpczpdf87f06h4khpaqmtm7jk","addr1qy0ysgn5v6zgh7dsxptxsxex506gtssz697w5h89ll4j4v3nwvrnm9qmn5x8eltqn48s37dnhlpczpdf87f06h4khpaqmtm7jk","addr1qy0ysgn5v6zgh7dsxptxsxex506gtssz697w5h89ll4j4v3nwvrnm9qmn5x8eltqn48s37dnhlpczpdf87f06h4khpaqmtm7jk","addr1qy0ysgn5v6zgh7dsxptxsxex506gtssz697w5h89ll4j4v3nwvrnm9qmn5x8eltqn48s37dnhlpczpdf87f06h4khpaqmtm7jk","addr1qy0ysgn5v6zgh7dsxptxsxex506gtssz697w5h89ll4j4v3nwvrnm9qmn5x8eltqn48s37dnhlpczpdf87f06h4khpaqmtm7jk","addr1qy0ysgn5v6zgh7dsxptxsxex506gtssz697w5h89ll4j4v3nwvrnm9qmn5x8eltqn48s37dnhlpczpdf87f06h4khpaqmtm7jk"],"addressesOutput":["addr1q9526yv375frk7qv96pzlt35wr4htwacqku3wkl3zjk5nfpy9egzh8c4pu78pa54a7k9s5csz0z3erc92qe5w7x8a9qswx7ucr","addr1qy0ysgn5v6zgh7dsxptxsxex506gtssz697w5h89ll4j4v3nwvrnm9qmn5x8eltqn48s37dnhlpczpdf87f06h4khpaqmtm7jk","addr1qy0ysgn5v6zgh7dsxptxsxex506gtssz697w5h89ll4j4v3nwvrnm9qmn5x8eltqn48s37dnhlpczpdf87f06h4khpaqmtm7jk","addr1qy0ysgn5v6zgh7dsxptxsxex506gtssz697w5h89ll4j4v3nwvrnm9qmn5x8eltqn48s37dnhlpczpdf87f06h4khpaqmtm7jk","addr1qy0ysgn5v6zgh7dsxptxsxex506gtssz697w5h89ll4j4v3nwvrnm9qmn5x8eltqn48s37dnhlpczpdf87f06h4khpaqmtm7jk","addr1qy0ysgn5v6zgh7dsxptxsxex506gtssz697w5h89ll4j4v3nwvrnm9qmn5x8eltqn48s37dnhlpczpdf87f06h4khpaqmtm7jk","addr1qy0ysgn5v6zgh7dsxptxsxex506gtssz697w5h89ll4j4v3nwvrnm9qmn5x8eltqn48s37dnhlpczpdf87f06h4khpaqmtm7jk"],"fee":239905,"totalOutput":18869393569,"balance":null,"tokens":[]},{"hash":"cfd4273188112415dbd5466c4628ebf32a09a05a973284552e04174be450f55e","blockNo":10172441,"blockHash":"b947dcd1b02c28a2666294e12f75ca87d55f8000ca4d419c0b32095fc8389a6f","epochNo":478,"epochSlotNo":136404,"slot":121269204,"time":"2024/04/11 11:38:15","addressesInput":["DdzFFzCqrhsvj9ep85MV9TLzqxbD5GBXvxnWfmC3qbm8PMpx1qnRB9HKa8JPpPo6uEDY82UoXYq4YdxGjDiEjRgQ2XjuWpxpsxqirFEo","DdzFFzCqrht2KDkVgEtMUEeU3R2SQ8kcf3QCYKCg9spCeLVPPXK8gEt5gAjbqNHPw5CTwbN5zNaDUGX2MP2LxyJSsmkBXJZmtdEQx84B","DdzFFzCqrhsvGg9v5KRLtZ2zTC1Wm95K8uDohPf1BGLk36PJkLjwZG3K3JuZXw1GsEj6ScUmxAuYgJaXLqhwQkdaU9pxSgwcsqDB7ypH"],"addressesOutput":["addr1q93lmzpp99l5tj5wjgxq7242acwunv9lr8d837wt3y3unecdz0676tjy0g0cu5x8cehyayejszqdka20xtmuden4pdvq9ykqx7","DdzFFzCqrhsqHP5MyMdVCPRgSbMFAPyyz2VqPcHTW2LWkqS2WNz4a9CKrYKscahXT2pujNezzisZg2PDe9SNAc8U2mXmRErJ11nKr5UA","DdzFFzCqrhsoVDhnuwgnWvrpvBx8xpwW3KiWMtVydJfWPpNfgi2L5Dub2ZKRYW2TAWEjz81mWCXakZcLBUJm3iUyaCQTmQWqgdsvKoJt"],"fee":561017,"totalOutput":2253359446,"balance":null,"tokens":[]},{"hash":"8f806fa37a3bd634a83f7922dbbf8dc667b618c3c6c3f3327ac401c858fd6286","blockNo":10172439,"blockHash":"979b8f3e1378012d04547cfd1bd2e77a9e9c5206d9e4009982f0324d673792b1","epochNo":478,"epochSlotNo":136379,"slot":121269179,"time":"2024/04/11 11:37:50","addressesInput":["addr1vy3qpx09uscywhppj5vp08hu0ekg9zwmq2ysfq6qyh2mpps865j6t","addr1w9xc5279jqxql020jp295d377nqrms826gnhgqxt5g5m9dqlfqf3f","addr1w835n68qeax023uperwgwlruk3d8yjl4k98r433nhw5waqgkx8prf","addr1w8vh8ssekk52ye3pt7a2j8upv3qphzmar2sj68353xds9lq5urex7","addr1v9jgqy4r9c26sj6q47w6t09pu3x8vjxuu6jz9qa4nyugkscyeel9y","addr1wx7sq0pglkvnhw3vnzngan75d6zv04ejj79d2ds9ctpn96snndvv5","addr1v8pr9mwnqarw808gtllvmlxvk70hnszrukjeqfstr9t9g5crud8c4","addr1w8dmtwktj7lktd0zv0wpxuny590ndshmj3z8xxmq3tjyvdggs35jy","addr1wyc8urje6ynqlq9jvu2w6l9wlqetrw0upmmx6nj03x9deqcef2j2y","addr1w8tqqyccvj7402zns2tea78d42etw520fzvf22zmyasjdtsv3e5rz","addr1w9ggsd8qrd34gxgfk8s20vzskq3ev8p85delsfs7hd3erecw0v047","addr1w9qfemey79jd0dhu6kjm9vkz6ytljsykchhqcx7tk8fkcpgrfu9yp","addr1w9ajju6j56lsupjlcdas2dqwz90dlq8xdrg9yfslrksspfqmvfc4a"],"addressesOutput":["addr1vy3qpx09uscywhppj5vp08hu0ekg9zwmq2ysfq6qyh2mpps865j6t","addr1v8pr9mwnqarw808gtllvmlxvk70hnszrukjeqfstr9t9g5crud8c4","addr1q8rphk830f43xcce4mq3fyum6w4g3c4w0rw6y3fa920gw7k0ystxgkfsvlps8jh66m6egu533qzcy7n492429zu09hvs0tjhqt","addr1w8dmtwktj7lktd0zv0wpxuny590ndshmj3z8xxmq3tjyvdggs35jy","addr1wx7sq0pglkvnhw3vnzngan75d6zv04ejj79d2ds9ctpn96snndvv5","addr1w9xc5279jqxql020jp295d377nqrms826gnhgqxt5g5m9dqlfqf3f","addr1wyc8urje6ynqlq9jvu2w6l9wlqetrw0upmmx6nj03x9deqcef2j2y","addr1w8vh8ssekk52ye3pt7a2j8upv3qphzmar2sj68353xds9lq5urex7","addr1w9ajju6j56lsupjlcdas2dqwz90dlq8xdrg9yfslrksspfqmvfc4a","addr1w8tqqyccvj7402zns2tea78d42etw520fzvf22zmyasjdtsv3e5rz","addr1w835n68qeax023uperwgwlruk3d8yjl4k98r433nhw5waqgkx8prf","addr1w9ggsd8qrd34gxgfk8s20vzskq3ev8p85delsfs7hd3erecw0v047","addr1w9qfemey79jd0dhu6kjm9vkz6ytljsykchhqcx7tk8fkcpgrfu9yp"],"fee":392277,"totalOutput":5592233557,"balance":null,"tokens":[]}],"totalItems":2129666,"totalPages":212967,"currentPage":0,"isDataOverSize":null}