{"data":[{"txHash":"1d3e6450acd7bd96039cbceac293f4a2fcfb9832136e2ae9274dae5d6f083f6c","amount":167828950,"fee":173817,"time":"2024/04/09 04:38:25","type":"RECEIVED","status":"SUCCESS"},{"txHash":"3ae9c979f28dbb235262990c590a782145728efbd7f86aad8999acb7b772b7ed","amount":-2174301,"fee":174301,"time":"2024/04/09 03:36:35","type":"CERTIFICATE_HOLD_PAID","status":"SUCCESS"},{"txHash":"5eea1df0b54fa654f8f55001e679016bce608b1e63910f06039cb3c5decccab9","amount":16956170,"fee":191950,"time":"2024/04/09 03:25:16","type":"RECEIVED","status":"SUCCESS"},{"txHash":"b737770773499b6d428aa7ce81765583692318359492b254e535281c2dbec795","amount":-1015334289,"fee":178189,"time":"2024/04/07 05:11:56","type":"SENT","status":"SUCCESS"},{"txHash":"5082bf8266a5f874881f53a5bea4117907b643601d843f6517c6ea6be390a614","amount":1828691,"fee":171309,"time":"2024/04/07 05:07:35","type":"CERTIFICATE_HOLD_DEPOSIT_REFUNDED","status":"SUCCESS"},{"txHash":"e7dd55795305cda2a2650c2ddbb71e19cc9d9b37862927cf2136f09ec1e73ecf","amount":-250168977,"fee":168977,"time":"2024/04/06 06:08:08","type":"SENT","status":"SUCCESS"},{"txHash":"745c678c21dfe929c361fe9253daa8420575dab379374ec12d74ebf4865a41d5","amount":610585810,"fee":183497,"time":"2024/04/05 08:11:32","type":"RECEIVED","status":"SUCCESS"},{"txHash":"fca9e0d17ad578e90ab7f4dbe6001c250962eda3865e8a0b85b8f7d2f555dab2","amount":55408126,"fee":183150,"time":"2024/04/05 06:06:38","type":"RECEIVED","status":"SUCCESS"},{"txHash":"0f4b42ddc4434759bb24e8f54c85ca3897240df3d87be670089130e3fff5391c","amount":-2174301,"fee":174301,"time":"2024/04/04 05:48:13","type":"CERTIFICATE_HOLD_PAID","status":"SUCCESS"},{"txHash":"a512032e3b500aef34fcdb39fe63f6664ab0d627e437f75d50a6af0402fef912","amount":599854940,"fee":173817,"time":"2024/04/04 05:41:24","type":"RECEIVED","status":"SUCCESS"},{"txHash":"cdd6f97f79de275fdcd8fd929df9f989a850441ad44a3ad46ecc9662a7d85073","amount":-476356520,"fee":172520,"time":"2024/04/01 17:08:33","type":"SENT","status":"SUCCESS"},{"txHash":"59c7c5134f745811f60608252967014622210362b4095b34b916dff7809db8c9","amount":1828515,"fee":171485,"time":"2024/04/01 17:04:36","type":"CERTIFICATE_HOLD_DEPOSIT_REFUNDED","status":"SUCCESS"},{"txHash":"5cf109ffc9a4d8bbc382431d69ae93515de26573d76666165dc19dbfda0e1fa1","amount":404197100,"fee":181121,"time":"2024/03/31 07:36:32","type":"RECEIVED","status":"SUCCESS"},{"txHash":"df7454fd957f8c538a1af4321250e9d4d5223701aadbb33e8554e3a91b93c311","amount":-2174125,"fee":174125,"time":"2024/03/31 07:16:08","type":"CERTIFICATE_HOLD_PAID","status":"SUCCESS"},{"txHash":"2cd8e54cccbdc6dcc996a42926afd3e6ce7ecd2fc527b4f675e9eb28bf535fb4","amount":72505030,"fee":187850,"time":"2024/03/31 06:18:46","type":"RECEIVED","status":"SUCCESS"},{"txHash":"c2892160b7291b6b3beac3577332fca0adb619dd5059216c0c258d8308557d19","amount":-1507748789,"fee":202289,"time":"2024/03/20 06:46:07","type":"SENT","status":"SUCCESS"},{"txHash":"70f67aab9366c4c247822eebd9683b63e6bc08f7b54dc59329688f2698b7dca3","amount":1828691,"fee":171309,"time":"2024/03/20 06:43:08","type":"CERTIFICATE_HOLD_DEPOSIT_REFUNDED","status":"SUCCESS"},{"txHash":"3d68b62cd4b547cd312bc09ea6eea75ad52fa124784bdc3eb59bcb20529a0d1a","amount":-500169153,"fee":169153,"time":"2024/03/20 06:11:46","type":"SENT","status":"SUCCESS"},{"txHash":"65c31f4a03df20ab82c16ce85e0c054776c2163341f0492f62701db1e78d1e14","amount":475474,"fee":171573,"time":"2024/03/18 07:12:38","type":"REWARD_WITHDRAWN","status":"SUCCESS"},{"txHash":"b58e9a9298eae04795997a76ad1336691cc027881b6f2ab316929d63da714b49","amount":-500169153,"fee":169153,"time":"2024/03/17 08:08:12","type":"SENT","status":"SUCCESS"}],"totalItems":519,"totalPages":26,"currentPage":0,"isDataOverSize":null}