{"data":[{"txHash":"0abace3a99b8094332918c8092803a014f2e662620570c383e29c3383a488f96","time":"2024/04/11 11:47:14","blockNo":10172466,"epochNo":478,"epochSlotNo":136943,"slotNo":121269743,"stakeKeys":["stake1u935v44ecvwf4gs8f5jxhpfx2nd2ylkz084ycn86se5j22swdxm82"],"pools":[{"tickerName":"TW001","poolName":"Trust Nodes","poolId":"pool1gaztx97t53k47fr7282d70tje8323vvzx8pshgts30t9krw62tm","logoUrl":null,"iconUrl":null}]}],"totalItems":3102511,"totalPages":3102511,"currentPage":0,"isDataOverSize":null}