{"data":[{"txHash":"a883505c19c173e88cc5b570862b3224767e9d0fdab3fca0beb1293c1df88599","amount":-238133670,"fee":176281,"time":"2023/06/16 15:13:46","type":"SENT","status":"SUCCESS"},{"txHash":"a1d1faf6b87af850560c73f1d8e05bda2734be5c8b11894c499724c68b2448b3","amount":1828515,"fee":171485,"time":"2023/06/16 15:12:22","type":"CERTIFICATE_HOLD_DEPOSIT_REFUNDED","status":"SUCCESS"},{"txHash":"5cb2a4cc57dcd0016dba5c583b4a1a7b81f293cc861f7c1c3ed180f938589719","amount":224291504,"fee":700000,"time":"2023/06/16 13:23:14","type":"RECEIVED","status":"SUCCESS"},{"txHash":"84842fcd6fe8694cf85d84ee66e219ebfef65b4bb16590c8faaf9d95b9cfe23a","amount":10946340,"fee":700000,"time":"2023/06/16 13:11:41","type":"RECEIVED","status":"SUCCESS"},{"txHash":"5008112cd4a9c9000056b2f5cff1f585cdce1a40a93b4aec5da5299c42efffb1","amount":-4845313077,"fee":313077,"time":"2023/06/16 12:47:40","type":"SENT","status":"SUCCESS"},{"txHash":"573f0352bb54246fab677d155b9cbd7757fdea8456b796b53ef4b1de42891871","amount":124259741,"fee":700000,"time":"2023/06/15 03:54:57","type":"RECEIVED","status":"SUCCESS"},{"txHash":"139c9adddfda2df9e49779ea80ab3ceb55b350c177ec70112871d1389607196a","amount":446733,"fee":171573,"time":"2023/06/15 03:25:55","type":"REWARD_WITHDRAWN","status":"SUCCESS"},{"txHash":"e8f5239986d9d6378fff87ddad6bc89580a6faa47a515b8e7fd3bb31f3431675","amount":53562878,"fee":700000,"time":"2023/06/14 05:27:16","type":"RECEIVED","status":"SUCCESS"},{"txHash":"0cd78ac76602b1b3ffdbdcc5bb4063d6ba93c47349bd160e26b06cb879fdfb00","amount":1139941700,"fee":173817,"time":"2023/06/14 04:39:15","type":"RECEIVED","status":"SUCCESS"},{"txHash":"2485b0d0a4f07e3ade5b179ba310566b26d0428a9e0451a73fba797707af541a","amount":14859483,"fee":700000,"time":"2023/06/14 04:05:09","type":"RECEIVED","status":"SUCCESS"},{"txHash":"3b7de34946a6b9e82acb53a01b30a6428478c2f929b9a8dffd1458e83c402fd0","amount":1430345356,"fee":700000,"time":"2023/06/11 06:43:28","type":"RECEIVED","status":"SUCCESS"},{"txHash":"d81bc586429a3111773606df7d370f44429bdd5785a48db8d99cf698d5f4fbfe","amount":14792614,"fee":700000,"time":"2023/06/11 04:15:06","type":"RECEIVED","status":"SUCCESS"},{"txHash":"b736c7392c69dc2f2328332b9c163190a397220c43d428e622b0975add3ab7d9","amount":370686,"fee":171573,"time":"2023/06/11 03:48:23","type":"REWARD_WITHDRAWN","status":"SUCCESS"},{"txHash":"1834bc812fcf84a14c0aa73037f22b5e19aa9c227efc24885466214c812aa3e0","amount":53993804,"fee":700000,"time":"2023/06/09 15:18:19","type":"RECEIVED","status":"SUCCESS"},{"txHash":"7f18484128007be909a285a74080b181524b613911e5a73e55e0adc8f7402c9d","amount":88676847,"fee":700000,"time":"2023/06/09 15:09:56","type":"RECEIVED","status":"SUCCESS"},{"txHash":"823cfeef24aba10c38c54681e69670147033564e1fc8cceb4bfe61d03498e55f","amount":8097440,"fee":700000,"time":"2023/06/07 18:04:55","type":"RECEIVED","status":"SUCCESS"},{"txHash":"a0ab867385446fc67fafb779bfaa6f1061b551cd5562be1d1cbf338d376e0077","amount":-167143,"fee":171485,"time":"2023/06/07 14:16:59","type":"REWARD_WITHDRAWN","status":"SUCCESS"},{"txHash":"8a0ddcb5d4086319fd75a94411298eb619e0753003fda6098b50a68d8b7b97cd","amount":15248162,"fee":700000,"time":"2023/06/06 14:42:17","type":"RECEIVED","status":"SUCCESS"},{"txHash":"0220423fdb0dadbc97fbfafc359237b1d97df6527207a9e5642b6243e8464f24","amount":41546534,"fee":700000,"time":"2023/06/05 03:48:04","type":"RECEIVED","status":"SUCCESS"},{"txHash":"1c1637835da5706c9ad6e503d616364c1dccc3ee3b815eaaf3588012d598bbbf","amount":523874355,"fee":700000,"time":"2023/06/04 17:32:10","type":"RECEIVED","status":"SUCCESS"}],"totalItems":292,"totalPages":15,"currentPage":0,"isDataOverSize":null}