{"data":[{"txId":73663948,"txHash":"1078277ce0883f3d1989acc0b9b484f5d81b324b85f4a0984895db4bac867808","txTime":"2023/08/14 14:26:08","epoch":430,"block":9159096,"slotNo":60077,"poolName":"Tempus","pledge":28000000000,"cost":340000000,"margin":0.0075,"poolId":5529,"poolView":"pool18qahj5ggudguk69g9aaztf5dvapmazql4hdvd7v0947j7gy4wqf","stakeKey":["stake1uxegk76zsyh5sh7pnn4rr6a776zgfekex88ukanc8d0lm7qssgr88"]},{"txId":73650079,"txHash":"6b3df9fb32be2e781fef04e467dae9a343a7b39f04e3ae1c2df60bd7bbb35304","txTime":"2023/08/14 08:38:33","epoch":430,"block":9158150,"slotNo":39222,"poolName":"Cardanoscan Pool 2","pledge":10000000000,"cost":340000000,"margin":0.0189,"poolId":1549,"poolView":"pool1mfgqn8n658vjdcvg3xgtr3qyet64fht0dzsukqeznxw36z8g2k6","stakeKey":["stake1u9mg37lpjjr80pr4kqx0kdh88f5aywmvuxah28q4gezfswqa65adx"]},{"txId":73649671,"txHash":"8590fab2f05ad4007b45e4db592160eede59a3e7cf5e8f50dd93884fce2f16f4","txTime":"2023/08/14 08:27:40","epoch":430,"block":9158121,"slotNo":38569,"poolName":"Cardanoscan Pool 1","pledge":20000000000,"cost":340000000,"margin":0.0189,"poolId":1252,"poolView":"pool10hex9l4wjgqarvhr94xgyh9frv5lhtajhrj4dah0kl65jtws30k","stakeKey":["stake1ux3scv40mwslfwm5pwksft6pd3rxhrwzhjcv4mxlmx8qmeg8ydxzy"]},{"txId":73646242,"txHash":"6d19e90d7b56248641cf9a858f235394ddc12cf71b2756a00b0c6c99e88f31a9","txTime":"2023/08/14 06:53:42","epoch":430,"block":9157846,"slotNo":32931,"poolName":"CLIO1","pledge":1250000000000,"cost":340000000,"margin":0.0099,"poolId":174,"poolView":"pool1c89d4drtwn0048mekkdkzllz559ahnntxelyw2mppxnmc36hjlx","stakeKey":["stake1u97pa0j0wtj5r3l6462z0xmlf5tg0dxpmss3y20almfnj5gc4tmrw","stake1u9dqkqmdtdcav5qd933xwvwxgamrsdkr0zsn63ca0v4lz5cm7tvq0","stake1uywma333mgeccv3aa2gvrkhz4qtz0cq9sszrnws8pv78gqqq6a65g","stake1uyxzraaxr3cv8k978stmxyvvcg9vgurl4mw0lfsvzgdkkyqx6mm2u"]},{"txId":73641983,"txHash":"a43c6f26fb151a244bd0935c9158a50fddbb42b8e845398f8a53877c214d524f","txTime":"2023/08/14 04:37:47","epoch":430,"block":9157419,"slotNo":24776,"poolName":"Tre Viet - Bamboo Pool","pledge":100000000,"cost":340000000,"margin":0.01,"poolId":5581,"poolView":"pool1y89sy2e927hvvt66wnukx5xnnrarzxrt55eypttaw3n06u0uam4","stakeKey":["stake1uxgdhxhas67kk0uzpwy3hqxqg648hney2em8dwv62ry2j6cqhx774"]},{"txId":73621989,"txHash":"29cf22c05223508761055f2010ae08006c2a9d99ec9bfe889c4f63b822646bce","txTime":"2023/08/13 21:27:29","epoch":429,"block":9156143,"slotNo":430958,"pledge":600000000000,"cost":340000000,"margin":0.03,"poolId":25,"poolView":"pool1jhzf2mm6zdlhl6w89uhgx8nq8p6ykcc86qq58vjy0ejyxrrksfj","stakeKey":["stake1u98smhcptv87gtky8h4429g65sy0gglas52dljf7j5wnapq6d0m0a","stake1uy8tcvlfqlken2z8m52e98ven6d5uv0wegeym9dty7tsahcr4zpk5"]},{"txId":73619968,"txHash":"212ca8e00feae8e2c7340b3d3b91c5efc195ce11ef72e18d60f263597c9dc553","txTime":"2023/08/13 20:42:28","epoch":429,"block":9156018,"slotNo":428257,"poolName":"HonestPool","pledge":515000000,"cost":340000000,"margin":0.075,"poolId":5667,"poolView":"pool1samrdfdupytre8zuqf5y3sda0kxhp894yvjpnhwwczukwd4mx6y","stakeKey":["stake1u99r0e65hw22uxmtmqekfcetzzs29rjvw3h66al4p0z27xc2dtpdj"]},{"txId":73618070,"txHash":"07b321decfaca192fadcfb8f6e3f3599b53242f5a5ef082e1a61e3178447fb86","txTime":"2023/08/13 19:58:17","epoch":429,"block":9155893,"slotNo":425606,"poolName":"The Vivid Pool","pledge":25000000000,"cost":340000000,"margin":0.0,"poolId":5430,"poolView":"pool1nw42xqnaplxsx3fq4ytl4x4qqvhs7g5uymnm906pfvx5636fglw","stakeKey":["stake1ux4h2ev6z3c6jlrprg68246v3dc8w3tdtz7hgakts3r0cngvm7vjy","stake1uyu6ly2xg43cy3jm95nhkvjdywkjv70lc3u0rlzdjqyefngn86ldc"]},{"txId":73614685,"txHash":"3ff8fef74e7f4b7c1de51e38fdd414a50e7ff2474b2ebfe561bb55bd1490861f","txTime":"2023/08/13 18:33:38","epoch":429,"block":9155636,"slotNo":420527,"poolName":"Sprout Pool","pledge":5000000000,"cost":340000000,"margin":0.02,"poolId":3119,"poolView":"pool155x3l57d4xu52t93f9r55cqaysej4pc2dl3jkc9d6w5ckyu6u7n","stakeKey":["stake1uxt8dhqkawp2428cekmhvdy8g77yxqzm8dwntna6axctmlg2t6zln"]},{"txId":73612040,"txHash":"2b018cd55566813554ebeac32a2e23d41c5ae6a2adf1ec75552aa36b42700ab3","txTime":"2023/08/13 17:21:51","epoch":429,"block":9155442,"slotNo":416220,"poolName":"RIOT","pledge":600000000000,"cost":340000000,"margin":0.01,"poolId":31,"poolView":"pool1pk7cjkcdsawxf25dwml0ely8vhjx7wp7nqans3jwatanceyqae0","stakeKey":["stake1ux8hwgvmgc98u6zaez5ljnc25nvjqgpvlwv3fqcckvs26ec289tgv"]}],"totalItems":31852,"totalPages":3186,"currentPage":0}