{"data":[{"hash":"2e95857ffcd26ad3b6126b906c33f74c851bc87af05bdcaee4c10cfdf0c13d91","blockNo":10172465,"blockHash":"54644ba5f27725a8b400e5a358965edf451918a7abc05ad599944f71c474602c","epochNo":478,"epochSlotNo":136907,"slot":121269707,"time":"2024/04/11 11:46:38","addressesInput":["addr1qxhzr4545jau66q55pkypmtyrrp3fe5ucnz2kzp9d9ksnwrsxfk6rvced60w4h629n75rs2wsfpyg5yjuxjc3rvd0adqc8cpl0","addr1qxhzr4545jau66q55pkypmtyrrp3fe5ucnz2kzp9d9ksnwrsxfk6rvced60w4h629n75rs2wsfpyg5yjuxjc3rvd0adqc8cpl0","addr1z8kllanr6dlut7t480zzytsd52l7pz4y3kcgxlfvx2ddavlzvhy059jgfl9snaewatuc4faqmktmqfpl9ppxaqfz7a4ssvc9l5","addr1qxhzr4545jau66q55pkypmtyrrp3fe5ucnz2kzp9d9ksnwrsxfk6rvced60w4h629n75rs2wsfpyg5yjuxjc3rvd0adqc8cpl0"],"addressesOutput":["addr1vxhjr75nmmt6z2tqkzdar0y46qrljpgnh6yh0jjqe96c94ceefj7w","addr1q89kxqjr98zc0xrv6vm9gjqsq0mv5gfkdxzg8x7st348wl8zvhy059jgfl9snaewatuc4faqmktmqfpl9ppxaqfz7a4sxrzjzp","addr1qxhzr4545jau66q55pkypmtyrrp3fe5ucnz2kzp9d9ksnwrsxfk6rvced60w4h629n75rs2wsfpyg5yjuxjc3rvd0adqc8cpl0","addr1qxhzr4545jau66q55pkypmtyrrp3fe5ucnz2kzp9d9ksnwrsxfk6rvced60w4h629n75rs2wsfpyg5yjuxjc3rvd0adqc8cpl0"],"fee":413145,"totalOutput":18767035852,"balance":null,"tokens":[]}],"totalItems":88985851,"totalPages":88985851,"currentPage":0,"isDataOverSize":null}