{"data":[{"epoch":473,"time":"2024/03/15 21:45:26","amount":647047,"type":"MEMBER","poolView":"pool189lsf6c2upyhmrzddyvyfjxxkqnte9pw8aqx7f4cuf85sjxlm02","poolHash":"397f04eb0ae0497d8c4d691844c8c6b026bc942e3f406f26b8e24f48"},{"epoch":472,"time":"2024/03/10 21:45:06","amount":649474,"type":"MEMBER","poolView":"pool189lsf6c2upyhmrzddyvyfjxxkqnte9pw8aqx7f4cuf85sjxlm02","poolHash":"397f04eb0ae0497d8c4d691844c8c6b026bc942e3f406f26b8e24f48"},{"epoch":471,"time":"2024/03/05 21:45:28","amount":625892,"type":"MEMBER","poolView":"pool189lsf6c2upyhmrzddyvyfjxxkqnte9pw8aqx7f4cuf85sjxlm02","poolHash":"397f04eb0ae0497d8c4d691844c8c6b026bc942e3f406f26b8e24f48"},{"epoch":470,"time":"2024/02/29 21:45:58","amount":707407,"type":"MEMBER","poolView":"pool189lsf6c2upyhmrzddyvyfjxxkqnte9pw8aqx7f4cuf85sjxlm02","poolHash":"397f04eb0ae0497d8c4d691844c8c6b026bc942e3f406f26b8e24f48"},{"epoch":468,"time":"2024/02/19 21:45:22","amount":125365,"type":"MEMBER","poolView":"pool189lsf6c2upyhmrzddyvyfjxxkqnte9pw8aqx7f4cuf85sjxlm02","poolHash":"397f04eb0ae0497d8c4d691844c8c6b026bc942e3f406f26b8e24f48"},{"epoch":461,"time":"2024/01/15 21:45:12","amount":313935,"type":"MEMBER","poolView":"pool189lsf6c2upyhmrzddyvyfjxxkqnte9pw8aqx7f4cuf85sjxlm02","poolHash":"397f04eb0ae0497d8c4d691844c8c6b026bc942e3f406f26b8e24f48"},{"epoch":460,"time":"2024/01/10 21:45:09","amount":173092,"type":"MEMBER","poolView":"pool189lsf6c2upyhmrzddyvyfjxxkqnte9pw8aqx7f4cuf85sjxlm02","poolHash":"397f04eb0ae0497d8c4d691844c8c6b026bc942e3f406f26b8e24f48"},{"epoch":459,"time":"2024/01/05 21:45:31","amount":468120,"type":"MEMBER","poolView":"pool189lsf6c2upyhmrzddyvyfjxxkqnte9pw8aqx7f4cuf85sjxlm02","poolHash":"397f04eb0ae0497d8c4d691844c8c6b026bc942e3f406f26b8e24f48"},{"epoch":457,"time":"2023/12/26 21:45:09","amount":109094,"type":"MEMBER","poolView":"pool189lsf6c2upyhmrzddyvyfjxxkqnte9pw8aqx7f4cuf85sjxlm02","poolHash":"397f04eb0ae0497d8c4d691844c8c6b026bc942e3f406f26b8e24f48"},{"epoch":456,"time":"2023/12/21 21:45:01","amount":3929715,"type":"MEMBER","poolView":"pool189lsf6c2upyhmrzddyvyfjxxkqnte9pw8aqx7f4cuf85sjxlm02","poolHash":"397f04eb0ae0497d8c4d691844c8c6b026bc942e3f406f26b8e24f48"},{"epoch":454,"time":"2023/12/11 21:46:00","amount":4225754,"type":"MEMBER","poolView":"pool189lsf6c2upyhmrzddyvyfjxxkqnte9pw8aqx7f4cuf85sjxlm02","poolHash":"397f04eb0ae0497d8c4d691844c8c6b026bc942e3f406f26b8e24f48"},{"epoch":453,"time":"2023/12/06 21:45:15","amount":4407475,"type":"MEMBER","poolView":"pool189lsf6c2upyhmrzddyvyfjxxkqnte9pw8aqx7f4cuf85sjxlm02","poolHash":"397f04eb0ae0497d8c4d691844c8c6b026bc942e3f406f26b8e24f48"},{"epoch":452,"time":"2023/12/01 21:44:52","amount":3979149,"type":"MEMBER","poolView":"pool189lsf6c2upyhmrzddyvyfjxxkqnte9pw8aqx7f4cuf85sjxlm02","poolHash":"397f04eb0ae0497d8c4d691844c8c6b026bc942e3f406f26b8e24f48"},{"epoch":451,"time":"2023/11/26 21:44:58","amount":3774003,"type":"MEMBER","poolView":"pool189lsf6c2upyhmrzddyvyfjxxkqnte9pw8aqx7f4cuf85sjxlm02","poolHash":"397f04eb0ae0497d8c4d691844c8c6b026bc942e3f406f26b8e24f48"},{"epoch":450,"time":"2023/11/21 21:44:51","amount":5101354,"type":"MEMBER","poolView":"pool189lsf6c2upyhmrzddyvyfjxxkqnte9pw8aqx7f4cuf85sjxlm02","poolHash":"397f04eb0ae0497d8c4d691844c8c6b026bc942e3f406f26b8e24f48"},{"epoch":449,"time":"2023/11/16 21:44:57","amount":3859199,"type":"MEMBER","poolView":"pool189lsf6c2upyhmrzddyvyfjxxkqnte9pw8aqx7f4cuf85sjxlm02","poolHash":"397f04eb0ae0497d8c4d691844c8c6b026bc942e3f406f26b8e24f48"},{"epoch":448,"time":"2023/11/11 21:46:14","amount":4599775,"type":"MEMBER","poolView":"pool189lsf6c2upyhmrzddyvyfjxxkqnte9pw8aqx7f4cuf85sjxlm02","poolHash":"397f04eb0ae0497d8c4d691844c8c6b026bc942e3f406f26b8e24f48"},{"epoch":447,"time":"2023/11/06 21:45:50","amount":482111,"type":"MEMBER","poolView":"pool189lsf6c2upyhmrzddyvyfjxxkqnte9pw8aqx7f4cuf85sjxlm02","poolHash":"397f04eb0ae0497d8c4d691844c8c6b026bc942e3f406f26b8e24f48"},{"epoch":444,"time":"2023/10/22 21:45:08","amount":596990,"type":"MEMBER","poolView":"pool1wt0pf4u2xktp0f7apveu242w6nkm4ltk3m8g039lvuhwq4zdtf3","poolHash":"72de14d78a359617a7dd0b33c5554ed4edbafd768ece87c4bf672ee0"},{"epoch":441,"time":"2023/10/07 21:45:01","amount":8552,"type":"MEMBER","poolView":"pool1wt0pf4u2xktp0f7apveu242w6nkm4ltk3m8g039lvuhwq4zdtf3","poolHash":"72de14d78a359617a7dd0b33c5554ed4edbafd768ece87c4bf672ee0"}],"totalItems":145,"totalPages":8,"currentPage":0,"isDataOverSize":null}