{"data":[{"txHash":"a883505c19c173e88cc5b570862b3224767e9d0fdab3fca0beb1293c1df88599","amount":-238133670,"fee":176281,"time":"2023/06/16 15:13:46","type":"SENT","status":"SUCCESS"},{"txHash":"a1d1faf6b87af850560c73f1d8e05bda2734be5c8b11894c499724c68b2448b3","amount":1828515,"fee":171485,"time":"2023/06/16 15:12:22","type":"CERTIFICATE_HOLD_DEPOSIT_REFUNDED","status":"SUCCESS"},{"txHash":"5cb2a4cc57dcd0016dba5c583b4a1a7b81f293cc861f7c1c3ed180f938589719","amount":224291504,"fee":700000,"time":"2023/06/16 13:23:14","type":"RECEIVED","status":"SUCCESS"},{"txHash":"84842fcd6fe8694cf85d84ee66e219ebfef65b4bb16590c8faaf9d95b9cfe23a","amount":10946340,"fee":700000,"time":"2023/06/16 13:11:41","type":"RECEIVED","status":"SUCCESS"},{"txHash":"5008112cd4a9c9000056b2f5cff1f585cdce1a40a93b4aec5da5299c42efffb1","amount":-4845313077,"fee":313077,"time":"2023/06/16 12:47:40","type":"SENT","status":"SUCCESS"},{"txHash":"573f0352bb54246fab677d155b9cbd7757fdea8456b796b53ef4b1de42891871","amount":124259741,"fee":700000,"time":"2023/06/15 03:54:57","type":"RECEIVED","status":"SUCCESS"},{"txHash":"139c9adddfda2df9e49779ea80ab3ceb55b350c177ec70112871d1389607196a","amount":446733,"fee":171573,"time":"2023/06/15 03:25:55","type":"REWARD_WITHDRAWN","status":"SUCCESS"},{"txHash":"e8f5239986d9d6378fff87ddad6bc89580a6faa47a515b8e7fd3bb31f3431675","amount":53562878,"fee":700000,"time":"2023/06/14 05:27:16","type":"RECEIVED","status":"SUCCESS"},{"txHash":"0cd78ac76602b1b3ffdbdcc5bb4063d6ba93c47349bd160e26b06cb879fdfb00","amount":1139941700,"fee":173817,"time":"2023/06/14 04:39:15","type":"RECEIVED","status":"SUCCESS"},{"txHash":"2485b0d0a4f07e3ade5b179ba310566b26d0428a9e0451a73fba797707af541a","amount":14859483,"fee":700000,"time":"2023/06/14 04:05:09","type":"RECEIVED","status":"SUCCESS"},{"txHash":"3b7de34946a6b9e82acb53a01b30a6428478c2f929b9a8dffd1458e83c402fd0","amount":1430345356,"fee":700000,"time":"2023/06/11 06:43:28","type":"RECEIVED","status":"SUCCESS"},{"txHash":"d81bc586429a3111773606df7d370f44429bdd5785a48db8d99cf698d5f4fbfe","amount":14792614,"fee":700000,"time":"2023/06/11 04:15:06","type":"RECEIVED","status":"SUCCESS"},{"txHash":"b736c7392c69dc2f2328332b9c163190a397220c43d428e622b0975add3ab7d9","amount":370686,"fee":171573,"time":"2023/06/11 03:48:23","type":"REWARD_WITHDRAWN","status":"SUCCESS"},{"txHash":"1834bc812fcf84a14c0aa73037f22b5e19aa9c227efc24885466214c812aa3e0","amount":53993804,"fee":700000,"time":"2023/06/09 15:18:19","type":"RECEIVED","status":"SUCCESS"},{"txHash":"7f18484128007be909a285a74080b181524b613911e5a73e55e0adc8f7402c9d","amount":88676847,"fee":700000,"time":"2023/06/09 15:09:56","type":"RECEIVED","status":"SUCCESS"},{"txHash":"823cfeef24aba10c38c54681e69670147033564e1fc8cceb4bfe61d03498e55f","amount":8097440,"fee":700000,"time":"2023/06/07 18:04:55","type":"RECEIVED","status":"SUCCESS"},{"txHash":"a0ab867385446fc67fafb779bfaa6f1061b551cd5562be1d1cbf338d376e0077","amount":-167143,"fee":171485,"time":"2023/06/07 14:16:59","type":"REWARD_WITHDRAWN","status":"SUCCESS"},{"txHash":"8a0ddcb5d4086319fd75a94411298eb619e0753003fda6098b50a68d8b7b97cd","amount":15248162,"fee":700000,"time":"2023/06/06 14:42:17","type":"RECEIVED","status":"SUCCESS"},{"txHash":"0220423fdb0dadbc97fbfafc359237b1d97df6527207a9e5642b6243e8464f24","amount":41546534,"fee":700000,"time":"2023/06/05 03:48:04","type":"RECEIVED","status":"SUCCESS"},{"txHash":"1c1637835da5706c9ad6e503d616364c1dccc3ee3b815eaaf3588012d598bbbf","amount":523874355,"fee":700000,"time":"2023/06/04 17:32:10","type":"RECEIVED","status":"SUCCESS"},{"txHash":"521e438e77d96cee727e24fb39772d455f1ad403f68fabe9f18ee5805807b104","amount":334782866,"fee":700000,"time":"2023/06/04 09:38:07","type":"RECEIVED","status":"SUCCESS"},{"txHash":"b18c13e269bfe72c1b53e22f575acf4fed6e3bff321ff7f39af9043bd933ac2a","amount":-216166909,"fee":166909,"time":"2023/06/03 06:17:23","type":"SENT","status":"SUCCESS"},{"txHash":"6510d0a3e5989a464b3ce3241b7e7bb669adefe3f59a64b6086341e8950fc258","amount":11870444,"fee":700000,"time":"2023/06/02 14:47:28","type":"RECEIVED","status":"SUCCESS"},{"txHash":"8c6cd670086bf22fe1b80cf584695a2974ecf14c633b755e0c324bac2b9042d5","amount":10392248,"fee":700000,"time":"2023/06/01 01:31:07","type":"RECEIVED","status":"SUCCESS"},{"txHash":"4c3a5e739efc04d582c17975a709ff4211ba98ee9e33a66bfbe1be55dc918df0","amount":3791026,"fee":171573,"time":"2023/05/31 04:16:16","type":"REWARD_WITHDRAWN","status":"SUCCESS"},{"txHash":"41be64c2c9a5940737a1d5b765bbdbb3fe32a7a2611298ed8c46cf3d955568ee","amount":9206263,"fee":700000,"time":"2023/05/30 17:42:57","type":"RECEIVED","status":"SUCCESS"},{"txHash":"4af6daaca90a4efdf56e66daf5d95f8b3d7571ed156e1503b6f6cd7120438476","amount":7798764,"fee":700000,"time":"2023/05/29 08:19:52","type":"RECEIVED","status":"SUCCESS"},{"txHash":"e26020c3e8259ff3a4cd754c9fb63095d3df5d7c69da3b6de098ff865102d6ee","amount":12024394,"fee":700000,"time":"2023/05/28 08:45:45","type":"RECEIVED","status":"SUCCESS"},{"txHash":"67a8df5cdf5c39da5aa01c3fc9b0a125e8c1bd24f4cb0d833de95f28f9645ebf","amount":29908896,"fee":700000,"time":"2023/05/27 04:54:15","type":"RECEIVED","status":"SUCCESS"},{"txHash":"ab6d01ac9070fe028d2648cb35bfd201e6b383306fe2f54293deca3e090ee47d","amount":7934201,"fee":700000,"time":"2023/05/26 18:35:14","type":"RECEIVED","status":"SUCCESS"},{"txHash":"3ca7d035d07b355d27abc8116d3a496d2a565fa8ebc1fae2dbbf691c433211fc","amount":10939995,"fee":700000,"time":"2023/05/26 03:55:17","type":"RECEIVED","status":"SUCCESS"},{"txHash":"cfe65f7c649041784aeb11989258d70a65ba5c9462153cd19fef6cda347f0209","amount":3704150,"fee":171573,"time":"2023/05/26 03:52:27","type":"REWARD_WITHDRAWN","status":"SUCCESS"},{"txHash":"2bb20b726824f7a4fa3f37e120133ef69396c9d6d513fb9ffcfc6add91d8ed25","amount":12920792,"fee":700000,"time":"2023/05/25 06:11:32","type":"RECEIVED","status":"SUCCESS"},{"txHash":"a7429b150135d6ccaae56a879b65401779ba7082d07c3cd46ececf4bd47c527c","amount":7668532,"fee":700000,"time":"2023/05/24 07:30:51","type":"RECEIVED","status":"SUCCESS"},{"txHash":"8681b14ec1c0d8d09ccaadbb47c701469047c4ea4d12d55a117ccb0927375007","amount":7727059,"fee":700000,"time":"2023/05/23 14:20:39","type":"RECEIVED","status":"SUCCESS"},{"txHash":"c53d367731d669aaa95294871beee3a10f0cba860060e373b6b46bbb0312e335","amount":53038099,"fee":700000,"time":"2023/05/22 08:39:17","type":"RECEIVED","status":"SUCCESS"},{"txHash":"8534ae2cd7836d07fd0c2eb346babc466cddc3d2f4203330455eee6bde43f44a","amount":983428794,"fee":700000,"time":"2023/05/21 16:56:28","type":"RECEIVED","status":"SUCCESS"},{"txHash":"d6a6b70db7a443039a4ca5513413c0d2b8bfc665743b7574c6cda855fdc8cb91","amount":20783821,"fee":700000,"time":"2023/05/21 14:43:35","type":"RECEIVED","status":"SUCCESS"},{"txHash":"4143c6ca9fd56c4954f2a66cfa8f6d8f609e5010b6ccc65e9a57a015b631039d","amount":7021007,"fee":700000,"time":"2023/05/21 07:06:01","type":"RECEIVED","status":"SUCCESS"},{"txHash":"1c91dfd12dc68638d28cc3e3fe301d146c0dee5849bcb815ab80aed9e858d45c","amount":9020480,"fee":700000,"time":"2023/05/21 05:42:31","type":"RECEIVED","status":"SUCCESS"},{"txHash":"2f59cbd1bae09e627e23ac9d2639ef6dcde46c80f6094e3cef278c2882b4edbc","amount":4542707,"fee":171573,"time":"2023/05/21 00:06:04","type":"REWARD_WITHDRAWN","status":"SUCCESS"},{"txHash":"08e315b5adca3b2948c22a12c615fde2ec45a1a5e48681e549fe8ed52b479418","amount":-50178965,"fee":178965,"time":"2023/05/20 15:59:40","type":"SENT","status":"SUCCESS"},{"txHash":"e13e16aef577ff4707187d974c5989013408d250a8b0be475a0bdc88d8cb1f19","amount":-950251301,"fee":251301,"time":"2023/05/20 06:53:40","type":"SENT","status":"SUCCESS"},{"txHash":"abcf5c4e2982b90db86a370a7846b8ccf5920a082d151a9d8e2e1e01fe9456b3","amount":-1500209105,"fee":209105,"time":"2023/05/17 16:47:14","type":"SENT","status":"SUCCESS"},{"txHash":"b4271f482e12fb5904f75f03e0f1bb6e14bdc3a9b2717065d7f65e035a29e1fc","amount":-5500197225,"fee":197225,"time":"2023/05/16 05:06:51","type":"SENT","status":"SUCCESS"},{"txHash":"7b729c687a93098aac2b9490413637ff8d2ba29dcdd0c09f57a48eb48c3e7ba0","amount":3634429,"fee":171573,"time":"2023/05/16 04:19:51","type":"REWARD_WITHDRAWN","status":"SUCCESS"},{"txHash":"665f44aae1a90809d7d5946543f28da187f0b054f27931f2187733f5c7ed833e","amount":-253166909,"fee":166909,"time":"2023/05/13 10:15:02","type":"SENT","status":"SUCCESS"},{"txHash":"46082ef6851bca6d880aae895b4620fc60aea209cbd62396b90ada635efff4fb","amount":63265546,"fee":700000,"time":"2023/05/11 18:20:16","type":"RECEIVED","status":"SUCCESS"},{"txHash":"21de64c42aac476f256dc9097f1c35b39b4c5c0acf82efb17d6565f74d68c054","amount":676691153,"fee":700000,"time":"2023/05/11 17:38:25","type":"RECEIVED","status":"SUCCESS"},{"txHash":"29951f652b517f6d5b1747f71f27b7ff2a6a0cb109b72215a39482eeaa6b4f07","amount":-172805,"fee":172805,"time":"2023/05/11 02:26:27","type":"CERTIFICATE_FEE_PAID","status":"SUCCESS"},{"txHash":"6dec159d5d7b199c6bfe1ae4f46f65a3cfbdd7389ab314da6b63cd756da97088","amount":5395024,"fee":171573,"time":"2023/05/11 02:04:58","type":"REWARD_WITHDRAWN","status":"SUCCESS"},{"txHash":"3584846ad0d88ce1fead64ea97e14c2409aa59d470c52b11e82720831e1a26d3","amount":-2500167085,"fee":167085,"time":"2023/05/08 07:23:31","type":"SENT","status":"SUCCESS"},{"txHash":"e124713aba3ddfab23b844eba809eb3421feb7339a91673a0645c090f866ea64","amount":-740166909,"fee":166909,"time":"2023/05/07 04:39:06","type":"SENT","status":"SUCCESS"},{"txHash":"cdf5300a449c86a6b8c283ea9d82085b337156eefd33e2477ccd68da9f0a8121","amount":4258934,"fee":171573,"time":"2023/05/06 05:28:28","type":"REWARD_WITHDRAWN","status":"SUCCESS"},{"txHash":"55233024c6174a3fddc6c41e2cbc53a9ac454f25ad06381dddd2e118771de8ce","amount":244752548,"fee":700000,"time":"2023/05/05 10:08:46","type":"RECEIVED","status":"SUCCESS"},{"txHash":"5abc975986eaba97686476ce57d0ef31adceb3a394ba554a9cb06874917f1ece","amount":390688315,"fee":173817,"time":"2023/05/04 09:45:24","type":"RECEIVED","status":"SUCCESS"},{"txHash":"5e2891a4803673a77182ad61db4be8156ee9b42e29be19d560a38f9bce47de45","amount":4175645,"fee":171573,"time":"2023/05/01 04:46:20","type":"REWARD_WITHDRAWN","status":"SUCCESS"},{"txHash":"fe8fff62e53712d676fd105f5eebbde13f604f3efea84173e3c8727df2aedc24","amount":-1000166909,"fee":166909,"time":"2023/04/29 05:17:10","type":"SENT","status":"SUCCESS"},{"txHash":"f61e021cdd4686e5ab27fea13e05ed1938f2581e0fee8e7ec9212c1e6ed1916f","amount":260654869,"fee":700000,"time":"2023/04/27 05:48:55","type":"RECEIVED","status":"SUCCESS"},{"txHash":"664754a7f120c19c785aca9a02d384c9da1d9d149a410b04d174dbd209bdd6e2","amount":4522381,"fee":171573,"time":"2023/04/26 04:04:55","type":"REWARD_WITHDRAWN","status":"SUCCESS"},{"txHash":"bf1a23617c449a33a30d9cf6a38aeae7f6ea922b0844925cf8ab2e9528a7bec0","amount":21204863,"fee":700000,"time":"2023/04/25 04:48:52","type":"RECEIVED","status":"SUCCESS"},{"txHash":"d8a268fa9ca9f4ed4450cd246fa5d7c98a2137bc2833ec938cb0559d63e5074e","amount":131204843,"fee":700000,"time":"2023/04/22 14:05:34","type":"RECEIVED","status":"SUCCESS"},{"txHash":"abec3f3fd358f2615e6d9c67845dbf558c9b788509a34833742874098977833c","amount":165093452,"fee":700000,"time":"2023/04/22 12:52:56","type":"RECEIVED","status":"SUCCESS"},{"txHash":"dcc5e81bb4fc2f5ccff7c477a577691163d97eee1e5c649915546f20500783da","amount":3776639,"fee":171573,"time":"2023/04/21 03:32:56","type":"REWARD_WITHDRAWN","status":"SUCCESS"},{"txHash":"7b7533f6a01705836d08855f14826064eb87a37b693be630e746574f3e6acfca","amount":108259747,"fee":700000,"time":"2023/04/19 03:48:29","type":"RECEIVED","status":"SUCCESS"},{"txHash":"d6fe684ab48743bd2a892858641370e154b6736c6ba180649eabf1159a7543c9","amount":62709600,"fee":700000,"time":"2023/04/18 18:49:42","type":"RECEIVED","status":"SUCCESS"},{"txHash":"b76487eb43b6e88a03a039968e995a3569819893bb3da64d5d5a0fa1a5be2267","amount":55718557,"fee":700000,"time":"2023/04/17 06:04:32","type":"RECEIVED","status":"SUCCESS"},{"txHash":"dcf08ac65b21bf6ecb22b47e6c246d851943619023973281ccc1437c1ce0db73","amount":558129614,"fee":181121,"time":"2023/04/16 13:07:22","type":"RECEIVED","status":"SUCCESS"},{"txHash":"cd6c8b01668a1f2d51d753301abd1114eaec0576b16ed432f0a0d858d0fd5bb7","amount":5562941,"fee":171573,"time":"2023/04/16 05:04:11","type":"REWARD_WITHDRAWN","status":"SUCCESS"},{"txHash":"fa4040d157a147b02655dcc35cd9fa7e84b49a06a914a6735633c58af60ce778","amount":3470721,"fee":171573,"time":"2023/04/11 04:21:42","type":"REWARD_WITHDRAWN","status":"SUCCESS"},{"txHash":"b38bafdbd38231e3dedc113abd0e142d7f8b5114cf390d018e1967e29aea1889","amount":3411907,"fee":171749,"time":"2023/04/06 04:38:56","type":"REWARD_WITHDRAWN","status":"SUCCESS"},{"txHash":"dc9ef0707adcc72b1db12282304db3c0a3535d9be6b7c59f0c119d2dc6ebb53c","amount":-56167085,"fee":167085,"time":"2023/04/05 06:45:52","type":"SENT","status":"SUCCESS"},{"txHash":"339381590cef4f04aa549cb815d8a1e386f89ce152e1a8179a0bbe0e83a6de8b","amount":-500179141,"fee":179141,"time":"2023/04/02 16:29:02","type":"SENT","status":"SUCCESS"},{"txHash":"f6d53a68845d0722c5afaf01c5b27f2d7eae8123b82d66239b53a2a10e23d170","amount":-172805,"fee":172805,"time":"2023/04/01 03:12:49","type":"CERTIFICATE_FEE_PAID","status":"SUCCESS"},{"txHash":"8f1987a7907abd32894f37679097c6cae96257cf494e38042c95427097b07627","amount":2693248,"fee":171573,"time":"2023/04/01 03:10:25","type":"REWARD_WITHDRAWN","status":"SUCCESS"},{"txHash":"c4d187efbbe669020cba25753300d5f54673bd89b42dd8da52f3fd19ee2268b1","amount":3043195236,"fee":700000,"time":"2023/03/28 07:30:15","type":"RECEIVED","status":"SUCCESS"},{"txHash":"6e55997063d22c0165c3f9e51e37dc1eb6dad3868325caa13f47186f6ed351cc","amount":3102905,"fee":171573,"time":"2023/03/27 05:24:49","type":"REWARD_WITHDRAWN","status":"SUCCESS"},{"txHash":"928a31b071e0441c1dd34ce9c11054c000011fb5c430b9be2fdd5b97f2446a64","amount":4515305,"fee":171573,"time":"2023/03/22 07:06:47","type":"REWARD_WITHDRAWN","status":"SUCCESS"},{"txHash":"e296b79dc9059a18f05bf41d481faba4324f13e94ea6a8b1f823675ed0d6b14f","amount":4410522,"fee":171573,"time":"2023/03/17 05:18:01","type":"REWARD_WITHDRAWN","status":"SUCCESS"},{"txHash":"31c017683e2369592e08a501566c6573d5ec550279bd6294da3cbce0abe18bc0","amount":-2500167085,"fee":167085,"time":"2023/03/14 07:05:29","type":"SENT","status":"SUCCESS"},{"txHash":"9ff88e46db43a96684eed39154c5d16bf587d145c5ff57b3f87dbb83c72448d5","amount":-404179141,"fee":179141,"time":"2023/03/12 09:18:25","type":"SENT","status":"SUCCESS"},{"txHash":"7747fa42c06eca10bed68cba891584aa78af74a4dbf696e04d8455ffefe254ba","amount":4042183,"fee":171573,"time":"2023/03/12 07:15:32","type":"REWARD_WITHDRAWN","status":"SUCCESS"},{"txHash":"bdaadbac95859ee79b80bd3801d86e1bcd8129ab07806dc59a6129405a536067","amount":239624135,"fee":181957,"time":"2023/03/07 18:05:39","type":"RECEIVED","status":"SUCCESS"},{"txHash":"8cfa252984791b642036617cf8b3d6406006841f907d170f5ba178fbf165d9d9","amount":3942168,"fee":171573,"time":"2023/03/07 07:41:04","type":"REWARD_WITHDRAWN","status":"SUCCESS"},{"txHash":"b0c122379c1c5507e50904e726ad0fa4b951e3b27d5143b25688971377e5ea6e","amount":95797904,"fee":400000,"time":"2023/03/02 07:53:37","type":"RECEIVED","status":"SUCCESS"},{"txHash":"9afaa5ab93165ee36d581f86deeeb0b24236b0b0918300e39a5e376db279dc24","amount":5172665,"fee":171573,"time":"2023/03/02 06:58:22","type":"REWARD_WITHDRAWN","status":"SUCCESS"},{"txHash":"5c3498f68f1152620846e7465989e9b515a8946827a9107c75ce454c05f76ffb","amount":1648401,"fee":171573,"time":"2023/02/25 07:07:21","type":"REWARD_WITHDRAWN","status":"SUCCESS"},{"txHash":"bebdc9576945ffaba2e11f66765c39613693ad0ba91bcdd5f919d7bf213f9eff","amount":-172805,"fee":172805,"time":"2023/02/20 17:48:50","type":"CERTIFICATE_FEE_PAID","status":"SUCCESS"},{"txHash":"89735598a1bc2ffed9531ca297b74b34d3b2e37d1e1c0e8eafb8519fb109ce85","amount":413851215,"fee":183497,"time":"2023/02/20 08:31:19","type":"RECEIVED","status":"SUCCESS"},{"txHash":"6aa89c3a570cd1e73306ea6caa82159aa841df5f3655ba69ce7b5ef5d348f097","amount":1103304,"fee":171573,"time":"2023/02/20 07:16:17","type":"REWARD_WITHDRAWN","status":"SUCCESS"},{"txHash":"975e00848c8bddcac160e9a4c65e2292ba71894445177073f03c5ad568d35c86","amount":47887728,"fee":400000,"time":"2023/02/19 11:43:30","type":"RECEIVED","status":"SUCCESS"},{"txHash":"116f2c62672a358a420ee048fb61a21816e17d6d000a711d2a89baa5dd6b2525","amount":256026228,"fee":173817,"time":"2023/02/18 13:44:33","type":"RECEIVED","status":"SUCCESS"},{"txHash":"297a4745581160079bc4a78b7b93aac8e4caa5f8fbb841984111bb1926c5c76f","amount":59812282,"fee":400000,"time":"2023/02/16 20:45:22","type":"RECEIVED","status":"SUCCESS"},{"txHash":"037f07c773bd2c9f37cc3562a9daf3367074de01ace48bbbd3846cd49139a8d7","amount":-164178,"fee":171485,"time":"2023/02/15 07:41:56","type":"REWARD_WITHDRAWN","status":"SUCCESS"},{"txHash":"520529450f474d7235319b1469d8b795ec3123a08680b19b728c22f545be56b6","amount":33068434,"fee":400000,"time":"2023/02/13 19:39:26","type":"RECEIVED","status":"SUCCESS"},{"txHash":"8808662b6e7f9606971273b91dc40d262c40fdf6178b3930c9f7a21ddc88b398","amount":5194768068,"fee":182133,"time":"2023/02/11 17:50:00","type":"RECEIVED","status":"SUCCESS"},{"txHash":"5392cc13ef1bd30a8e8519c648120501e326f37f2b646549136c428994426b05","amount":1683986,"fee":171573,"time":"2023/02/10 05:19:12","type":"REWARD_WITHDRAWN","status":"SUCCESS"},{"txHash":"de42ac2630163fa2a871300690f1b6978da4f2456cbefd542fd916ae5bdd050f","amount":86580628,"fee":400000,"time":"2023/02/09 18:49:24","type":"RECEIVED","status":"SUCCESS"},{"txHash":"6504ba35637e0e9cc363cbd0978a9b1d0e9f46324f2fec3fa25b45bbbd374992","amount":22870004,"fee":400000,"time":"2023/02/09 15:38:58","type":"RECEIVED","status":"SUCCESS"},{"txHash":"7cc154f96ca5c12273fdd347073acbba97bc7bdbd6a6e5bf3fecd4228c82b09c","amount":23044810,"fee":400000,"time":"2023/02/09 15:38:42","type":"RECEIVED","status":"SUCCESS"}],"totalItems":292,"totalPages":3,"currentPage":0,"isDataOverSize":null}