{"data":[{"hash":"c12ac2cdff1a8c014bb7a40dcc720c9b21be22ea97eb2a698d26f5a7286ed1e2","blockNo":10079507,"blockHash":"1ff2598bdd51b03776dd3c20f003ac2f737b881101f57e6a99e77085e268cf5c","epochNo":473,"epochSlotNo":386727,"slot":119359527,"time":"2024/03/20 09:10:18","addressesInput":["addr1q8elqhkuvtyelgcedpup58r893awhg3l87a4rz5d5acatuj9y84nruafrmta2rewd5l46g8zxy4l49ly8kye79ddr3ksqal35g","addr1q8elqhkuvtyelgcedpup58r893awhg3l87a4rz5d5acatuj9y84nruafrmta2rewd5l46g8zxy4l49ly8kye79ddr3ksqal35g","addr1q8elqhkuvtyelgcedpup58r893awhg3l87a4rz5d5acatuj9y84nruafrmta2rewd5l46g8zxy4l49ly8kye79ddr3ksqal35g","addr1q8elqhkuvtyelgcedpup58r893awhg3l87a4rz5d5acatuj9y84nruafrmta2rewd5l46g8zxy4l49ly8kye79ddr3ksqal35g","addr1q8elqhkuvtyelgcedpup58r893awhg3l87a4rz5d5acatuj9y84nruafrmta2rewd5l46g8zxy4l49ly8kye79ddr3ksqal35g","addr1q8elqhkuvtyelgcedpup58r893awhg3l87a4rz5d5acatuj9y84nruafrmta2rewd5l46g8zxy4l49ly8kye79ddr3ksqal35g","addr1q8elqhkuvtyelgcedpup58r893awhg3l87a4rz5d5acatuj9y84nruafrmta2rewd5l46g8zxy4l49ly8kye79ddr3ksqal35g","addr1q8elqhkuvtyelgcedpup58r893awhg3l87a4rz5d5acatuj9y84nruafrmta2rewd5l46g8zxy4l49ly8kye79ddr3ksqal35g","addr1q8elqhkuvtyelgcedpup58r893awhg3l87a4rz5d5acatuj9y84nruafrmta2rewd5l46g8zxy4l49ly8kye79ddr3ksqal35g","addr1q8elqhkuvtyelgcedpup58r893awhg3l87a4rz5d5acatuj9y84nruafrmta2rewd5l46g8zxy4l49ly8kye79ddr3ksqal35g","addr1q8elqhkuvtyelgcedpup58r893awhg3l87a4rz5d5acatuj9y84nruafrmta2rewd5l46g8zxy4l49ly8kye79ddr3ksqal35g","addr1q8elqhkuvtyelgcedpup58r893awhg3l87a4rz5d5acatuj9y84nruafrmta2rewd5l46g8zxy4l49ly8kye79ddr3ksqal35g","Ae2tdPwUPEYwFx4dmJheyNPPYXtvHbJLeCaA96o6Y2iiUL18cAt7AizN2zG","addr1q8elqhkuvtyelgcedpup58r893awhg3l87a4rz5d5acatuj9y84nruafrmta2rewd5l46g8zxy4l49ly8kye79ddr3ksqal35g","Ae2tdPwUPEYwFx4dmJheyNPPYXtvHbJLeCaA96o6Y2iiUL18cAt7AizN2zG","addr1q8elqhkuvtyelgcedpup58r893awhg3l87a4rz5d5acatuj9y84nruafrmta2rewd5l46g8zxy4l49ly8kye79ddr3ksqal35g","addr1q8elqhkuvtyelgcedpup58r893awhg3l87a4rz5d5acatuj9y84nruafrmta2rewd5l46g8zxy4l49ly8kye79ddr3ksqal35g","addr1q8elqhkuvtyelgcedpup58r893awhg3l87a4rz5d5acatuj9y84nruafrmta2rewd5l46g8zxy4l49ly8kye79ddr3ksqal35g","addr1q8elqhkuvtyelgcedpup58r893awhg3l87a4rz5d5acatuj9y84nruafrmta2rewd5l46g8zxy4l49ly8kye79ddr3ksqal35g","addr1q8elqhkuvtyelgcedpup58r893awhg3l87a4rz5d5acatuj9y84nruafrmta2rewd5l46g8zxy4l49ly8kye79ddr3ksqal35g","addr1q8elqhkuvtyelgcedpup58r893awhg3l87a4rz5d5acatuj9y84nruafrmta2rewd5l46g8zxy4l49ly8kye79ddr3ksqal35g","addr1q8elqhkuvtyelgcedpup58r893awhg3l87a4rz5d5acatuj9y84nruafrmta2rewd5l46g8zxy4l49ly8kye79ddr3ksqal35g","addr1q8elqhkuvtyelgcedpup58r893awhg3l87a4rz5d5acatuj9y84nruafrmta2rewd5l46g8zxy4l49ly8kye79ddr3ksqal35g","addr1q8elqhkuvtyelgcedpup58r893awhg3l87a4rz5d5acatuj9y84nruafrmta2rewd5l46g8zxy4l49ly8kye79ddr3ksqal35g","addr1q8elqhkuvtyelgcedpup58r893awhg3l87a4rz5d5acatuj9y84nruafrmta2rewd5l46g8zxy4l49ly8kye79ddr3ksqal35g"],"addressesOutput":["addr1v804tgee0m3ww7z93zh64wr9flqh9psdhnxg6cykfudgulg6f633p","addr1q8elqhkuvtyelgcedpup58r893awhg3l87a4rz5d5acatuj9y84nruafrmta2rewd5l46g8zxy4l49ly8kye79ddr3ksqal35g"],"fee":354017,"totalOutput":177656759778213,"balance":-64000026292962,"tokens":[]}],"totalItems":1949,"totalPages":1949,"currentPage":0,"isDataOverSize":null}