{"data":[{"hash":"de6b6ef6d11c47cc4f0dfefa695f8b74cbd5d4ca5c888ba6912a3b9b7d0934b0","blockNo":9159121,"blockHash":"31a120de993bab96dd18a611ab5c85d3dadaf3916e8e3489be823ad5d205434c","epochNo":430,"epochSlotNo":60634,"slot":100457434,"time":"2023/08/14 14:35:25","addressesInput":["addr1q8yt526xy2ewkndm5mclrhq80rns00wqlf8zle3pn8h4udlpunhth5lszp36nhgzzzt5qsmnwukut8684rkqydhxrgzsqx4qf2"],"addressesOutput":["addr1q8hwhgwhm9y7s8p7a0xmqkegh5wwc0mxvtp32xk6k8h2snlpunhth5lszp36nhgzzzt5qsmnwukut8684rkqydhxrgzs38957m","addr1q8hwhgwhm9y7s8p7a0xmqkegh5wwc0mxvtp32xk6k8h2snlpunhth5lszp36nhgzzzt5qsmnwukut8684rkqydhxrgzs38957m"],"fee":171089,"totalOutput":27213854,"tokens":[]},{"hash":"4956cd465ce9bdad92fb1504180b84dcffd17b6709784022debe687a619c7f92","blockNo":9159121,"blockHash":"31a120de993bab96dd18a611ab5c85d3dadaf3916e8e3489be823ad5d205434c","epochNo":430,"epochSlotNo":60634,"slot":100457434,"time":"2023/08/14 14:35:25","addressesInput":["addr1qyqm2qh3k3ceq5gmzrnum4mueqz5dk9vdspm6wlah6e9ek5fsuen6vtdnjtz6fu7nr8gp7dpa676weakpqv2t53mnjxqujx2qj","addr1z85xhly07fjj4nm2arpy93223p6yntpn5lnc45jk5rj5mz62a6yhtrq8a4cxg2trrtzddev7v974nafzmx4xaegv2ngqqdu0tq","addr1qyqm2qh3k3ceq5gmzrnum4mueqz5dk9vdspm6wlah6e9ek5fsuen6vtdnjtz6fu7nr8gp7dpa676weakpqv2t53mnjxqujx2qj","addr1wxztapjhcreypa36ah5sla9653tvxcd08nex04eh37k4dggzgepfs"],"addressesOutput":["addr1z85xhly07fjj4nm2arpy93223p6yntpn5lnc45jk5rj5mz62a6yhtrq8a4cxg2trrtzddev7v974nafzmx4xaegv2ngqqdu0tq","addr1qyqm2qh3k3ceq5gmzrnum4mueqz5dk9vdspm6wlah6e9ek5fsuen6vtdnjtz6fu7nr8gp7dpa676weakpqv2t53mnjxqujx2qj","addr1q8xznk724ppkp0mvnn7es6em83pe4wadxwhwvkdyafjvs75jax0lzjs0y9e7gwrcw8ps36njnynjc8xa9ytuk5vlnhcsdp28zs","addr1qyqm2qh3k3ceq5gmzrnum4mueqz5dk9vdspm6wlah6e9ek5fsuen6vtdnjtz6fu7nr8gp7dpa676weakpqv2t53mnjxqujx2qj"],"fee":497673,"totalOutput":1316176659620,"tokens":[]},{"hash":"4970270b6f63ab335fad0c272411eb0993a044079864d6e2cef82025088e05f1","blockNo":9159121,"blockHash":"31a120de993bab96dd18a611ab5c85d3dadaf3916e8e3489be823ad5d205434c","epochNo":430,"epochSlotNo":60634,"slot":100457434,"time":"2023/08/14 14:35:25","addressesInput":["addr1wyehg40jpn90q6dsy9njxk8aek4xzqhg2shjyagnu6jzmsgvh30fu","addr1w9v5h80g9nk4qn3vxxxrzpwp2vnr4fv9jgd7jwcnk4eseqc2arf39","addr1wxfy7dlg4u7uzce0930uuqxlkdk0xwm5hxejz896dxjkrcslntswa","addr1w80k8xe6vckm3qgklhw98tqjekfvw3mgwux3stmtq3jlprga3u33c","addr1vyvdjjrhh0jn5zhkgr5k4lueuf3pg4zy33f8ttj20gunegcshaq7f","addr1w9zpzvuevtrchc7fugx63scn8fukdx4vr3lv7m5mh58x44gdxccus","addr1w8vh8ssekk52ye3pt7a2j8upv3qphzmar2sj68353xds9lq5urex7","addr1w9rm2cw8kt8zsedendqj93lk8jhrpgunmfpwwchx9rn6glsawuc2g","addr1wydt59wzpun66lvhe8agp9dvg6k82fgv2wl730uzp7eq8vq6ny7eh","addr1wxkajet4zhhuylr6475ykqerll0gl8x8v8kgmnrpxt2vrwq2eh67y","addr1v8rje94y8rjy6ym4gkc5lyugd3w3fcu5nn62wg8enhnf36szq4s2x","addr1w9lj9upsl7e9a4lxyhukvyhdcejmxmeg644jpzp8xvmpq5suamp37","addr1wyc8urje6ynqlq9jvu2w6l9wlqetrw0upmmx6nj03x9deqcef2j2y","addr1w835n68qeax023uperwgwlruk3d8yjl4k98r433nhw5waqgkx8prf","addr1v8pr9mwnqarw808gtllvmlxvk70hnszrukjeqfstr9t9g5crud8c4","addr1v8zmjscph8y23m5t5t7vfdz5k09x547mdr6jjlnw0y65z5cnn0hx4","addr1w8lxuvadtvhh54078kjyawf283jfq47s4hkpphh24hfqpac60mh3q","addr1wxugd4ufxmtrnh9jz28543daw9plce3x3nmcnamj5appugcpv2jrq","addr1wxqg5vgp3fsh6ddmr0vhc5xuhrckhyav9emdtwpfmafaf5q63x6rc","addr1wxau62drpn3e832yqhhjqjvw3qxuztuns2f93qvzq5w78qsavxpmv","addr1w9w4uang8fadgqp0c7tf2fqpaf6fahr9snayz0y4pluleuswrzhx7","addr1w8dmtwktj7lktd0zv0wpxuny590ndshmj3z8xxmq3tjyvdggs35jy","addr1wxcpjfdxav75dfr2m653l2pf38q5juwz8fst6v5sqdcjsns74jyxe","addr1vy3qpx09uscywhppj5vp08hu0ekg9zwmq2ysfq6qyh2mpps865j6t","addr1w828m0rdlumnp30dwmv33l4akzhxcpx7a64tuvjwhjn7pxgngjrpx","addr1wxwzcdr5ktshh3769t8ggqen84efevzs4wqqzdmzn8mz94qg2scsz","addr1w9xc5279jqxql020jp295d377nqrms826gnhgqxt5g5m9dqlfqf3f","addr1vxdevk8efsz3sdcwcdlfrgh4lmzn6qv68r8r44d00g6l36qzlhddj","addr1w92fpglpvanf795jm76q0nskx0tu6z5jpqph4n8dzvksyfcrtkfwy","addr1wydw0er8x552ku3dsflgtgmluzccjkz6swzwmu9tl7swlwsd2yyjx","addr1w8frpnd6lhleyh9wnh32gkc2z6fmgngedr8zh96xa2fguyqdetk4w","addr1w8zfqu4mjkn8ml6lhpkdqarfj9hfm00mzeu0vr9ej6ndt4s3zfysm","addr1wy0uq9nh5h22qxje9ck9hs5srnagduf9ylhnmrcdm0mhx0gch2l65"],"addressesOutput":["addr1vy3qpx09uscywhppj5vp08hu0ekg9zwmq2ysfq6qyh2mpps865j6t","addr1v8pr9mwnqarw808gtllvmlxvk70hnszrukjeqfstr9t9g5crud8c4","addr1q8mr033fhg297pwevzpvpt6drgtzg6kzpqyfqgnhvzx6augqul5yxc6tvphrq00ttn2d3w78096ppere3kxwmz52malst87ndc","addr1qytxal6gpza83x2tz4s9729372lgc9yg49ft7uc2pmteash0m9emxvhztd32each3fvzsxny8dh43zay0323vwg4nzhsce97da","addr1q8ctudl7m4rx33qnsum78glg06ml490kcnjeh4ykxy8af32jhhdth8hvxcrdfe30azmup64fd6r5ty4pcway73jwdp0sxt6cpj","addr1q8k7lpx69hpz6ns29m9e8k4evuhgqk8de99u0dd8kyyz27g2c4pzuncw7s08p4carp9gza0jz6jje80p8wczn943wqus5x7dx3","addr1w9rm2cw8kt8zsedendqj93lk8jhrpgunmfpwwchx9rn6glsawuc2g","addr1w8lxuvadtvhh54078kjyawf283jfq47s4hkpphh24hfqpac60mh3q","addr1wxwzcdr5ktshh3769t8ggqen84efevzs4wqqzdmzn8mz94qg2scsz","addr1wydt59wzpun66lvhe8agp9dvg6k82fgv2wl730uzp7eq8vq6ny7eh","addr1wydw0er8x552ku3dsflgtgmluzccjkz6swzwmu9tl7swlwsd2yyjx","addr1w80k8xe6vckm3qgklhw98tqjekfvw3mgwux3stmtq3jlprga3u33c","addr1w9w4uang8fadgqp0c7tf2fqpaf6fahr9snayz0y4pluleuswrzhx7","addr1wxugd4ufxmtrnh9jz28543daw9plce3x3nmcnamj5appugcpv2jrq","addr1w828m0rdlumnp30dwmv33l4akzhxcpx7a64tuvjwhjn7pxgngjrpx","addr1w9lj9upsl7e9a4lxyhukvyhdcejmxmeg644jpzp8xvmpq5suamp37","addr1wy0uq9nh5h22qxje9ck9hs5srnagduf9ylhnmrcdm0mhx0gch2l65","addr1w9xc5279jqxql020jp295d377nqrms826gnhgqxt5g5m9dqlfqf3f","addr1wyc8urje6ynqlq9jvu2w6l9wlqetrw0upmmx6nj03x9deqcef2j2y","addr1wxfy7dlg4u7uzce0930uuqxlkdk0xwm5hxejz896dxjkrcslntswa","addr1w835n68qeax023uperwgwlruk3d8yjl4k98r433nhw5waqgkx8prf","addr1w9zpzvuevtrchc7fugx63scn8fukdx4vr3lv7m5mh58x44gdxccus","addr1w8dmtwktj7lktd0zv0wpxuny590ndshmj3z8xxmq3tjyvdggs35jy","addr1w9v5h80g9nk4qn3vxxxrzpwp2vnr4fv9jgd7jwcnk4eseqc2arf39","addr1wxkajet4zhhuylr6475ykqerll0gl8x8v8kgmnrpxt2vrwq2eh67y","addr1wxqg5vgp3fsh6ddmr0vhc5xuhrckhyav9emdtwpfmafaf5q63x6rc","addr1wxau62drpn3e832yqhhjqjvw3qxuztuns2f93qvzq5w78qsavxpmv","addr1w8zfqu4mjkn8ml6lhpkdqarfj9hfm00mzeu0vr9ej6ndt4s3zfysm","addr1w8frpnd6lhleyh9wnh32gkc2z6fmgngedr8zh96xa2fguyqdetk4w","addr1wyehg40jpn90q6dsy9njxk8aek4xzqhg2shjyagnu6jzmsgvh30fu","addr1w92fpglpvanf795jm76q0nskx0tu6z5jpqph4n8dzvksyfcrtkfwy","addr1wxcpjfdxav75dfr2m653l2pf38q5juwz8fst6v5sqdcjsns74jyxe","addr1w8vh8ssekk52ye3pt7a2j8upv3qphzmar2sj68353xds9lq5urex7"],"fee":887585,"totalOutput":4325010292,"tokens":[]},{"hash":"92e61cef3a6ae1e05aabe5801dc04e5d7843c8b14dc7011006f6a0a075602d2b","blockNo":9159121,"blockHash":"31a120de993bab96dd18a611ab5c85d3dadaf3916e8e3489be823ad5d205434c","epochNo":430,"epochSlotNo":60634,"slot":100457434,"time":"2023/08/14 14:35:25","addressesInput":["addr1q9d70mdg0tx7vw8cxyafdzpg3dmgdvvshhs6u5u82vt0tqjsz6amejqlvvgy5rgnk32g62zcck8w8202axujmmyhw82qsec8c6","addr1q9d70mdg0tx7vw8cxyafdzpg3dmgdvvshhs6u5u82vt0tqjsz6amejqlvvgy5rgnk32g62zcck8w8202axujmmyhw82qsec8c6","addr1zxgx3far7qygq0k6epa0zcvcvrevmn0ypsnfsue94nsn3tvpw288a4x0xf8pxgcntelxmyclq83s0ykeehchz2wtspks905plm"],"addressesOutput":["addr1zxgx3far7qygq0k6epa0zcvcvrevmn0ypsnfsue94nsn3tvpw288a4x0xf8pxgcntelxmyclq83s0ykeehchz2wtspks905plm","addr1q9d70mdg0tx7vw8cxyafdzpg3dmgdvvshhs6u5u82vt0tqjsz6amejqlvvgy5rgnk32g62zcck8w8202axujmmyhw82qsec8c6","addr1q9d70mdg0tx7vw8cxyafdzpg3dmgdvvshhs6u5u82vt0tqjsz6amejqlvvgy5rgnk32g62zcck8w8202axujmmyhw82qsec8c6","addr1q9d70mdg0tx7vw8cxyafdzpg3dmgdvvshhs6u5u82vt0tqjsz6amejqlvvgy5rgnk32g62zcck8w8202axujmmyhw82qsec8c6","addr1q9d70mdg0tx7vw8cxyafdzpg3dmgdvvshhs6u5u82vt0tqjsz6amejqlvvgy5rgnk32g62zcck8w8202axujmmyhw82qsec8c6","addr1q9d70mdg0tx7vw8cxyafdzpg3dmgdvvshhs6u5u82vt0tqjsz6amejqlvvgy5rgnk32g62zcck8w8202axujmmyhw82qsec8c6","addr1q9d70mdg0tx7vw8cxyafdzpg3dmgdvvshhs6u5u82vt0tqjsz6amejqlvvgy5rgnk32g62zcck8w8202axujmmyhw82qsec8c6","addr1q9d70mdg0tx7vw8cxyafdzpg3dmgdvvshhs6u5u82vt0tqjsz6amejqlvvgy5rgnk32g62zcck8w8202axujmmyhw82qsec8c6","addr1q9d70mdg0tx7vw8cxyafdzpg3dmgdvvshhs6u5u82vt0tqjsz6amejqlvvgy5rgnk32g62zcck8w8202axujmmyhw82qsec8c6"],"fee":742908,"totalOutput":1174782889,"tokens":[]},{"hash":"b95cc1ea7c742df0c067710e5e28e3940017716d16fc2f18012ae226d9e4e3d7","blockNo":9159120,"blockHash":"86f428fd0bd287971570a709de2a66dedbece0465ac76bfbc1655b72cffb9921","epochNo":430,"epochSlotNo":60628,"slot":100457428,"time":"2023/08/14 14:35:19","addressesInput":["addr1qyx6utaxlcd6y0nf0juwq9xk0cpfz33dfspucqu7h8tp8g75hyxchxlmj7tr0n8nt5tpdd34cjkq7wtc74gzcg3nlcqqlumw8c","addr1q8xts332ukld57x5jf5nvl0jm3kacf582pcqkukv8sk2ksk5hyxchxlmj7tr0n8nt5tpdd34cjkq7wtc74gzcg3nlcqqx9zydl"],"addressesOutput":["addr1qxfnlxzxtep3suadggxxzefh5kwhqhsnaw9s5dqxd9su5z75hyxchxlmj7tr0n8nt5tpdd34cjkq7wtc74gzcg3nlcqqywa9wz"],"fee":182793,"totalOutput":6499641938,"tokens":[]},{"hash":"fe080b3feab45a1493055caf3e02521d7c872f7767570c89ca3eb5c002916a0a","blockNo":9159120,"blockHash":"86f428fd0bd287971570a709de2a66dedbece0465ac76bfbc1655b72cffb9921","epochNo":430,"epochSlotNo":60628,"slot":100457428,"time":"2023/08/14 14:35:19","addressesInput":["addr1q96jthsmghftlgtqta3p5fehqstq8ak4rx2nrxflcc7ehp7jj9djsz0020h68nz3rxknzdh93nryqzhq6h9z0nnzf0rsx38e4p","addr1qxgkm2s4z23s2rhl9pu8mlexjxqjasuf72pgac26eh3hxkxjj9djsz0020h68nz3rxknzdh93nryqzhq6h9z0nnzf0rsuj9swu","addr1qxqr42fdzh9909qnw5ql2nf394dqsudppe03rsekh38ckukjj9djsz0020h68nz3rxknzdh93nryqzhq6h9z0nnzf0rsahcqwm","addr1qyhzm3wr5chdqg5t3f84z3grvccuy4xuqrux7u3e03l0dm7jj9djsz0020h68nz3rxknzdh93nryqzhq6h9z0nnzf0rstes28w","addr1q8chss42qcevta7m3c5kplsqgvnj9pzvefepvu47mzknaexjj9djsz0020h68nz3rxknzdh93nryqzhq6h9z0nnzf0rsn4kdnq","addr1qy6yd9cxsmym0tzeqg2mt9paxpqrgqfmqwrclvqk04m4k4xjj9djsz0020h68nz3rxknzdh93nryqzhq6h9z0nnzf0rs03we7d","addr1q89z6qm7vk025zykk44rnvt5u605kzn3038p2dfk5p25rw7jj9djsz0020h68nz3rxknzdh93nryqzhq6h9z0nnzf0rsvf98m2"],"addressesOutput":["addr1qyyunv0kfd20k2ed9mcs0zlwe68tghslg6983jfy620ptzxewkgdemxyhjx7txknxzgndmz7zs5m0ud32ywg97j5xnqsm0m26n","addr1q9sdyf4z8tk3hev6v50nc2k06pgd2ls9d5q8zwfkwc4h2wnch7x49qsv5s0ujf7w72ycshydm57hsc3fen48uww3snpqra0r9l","addr1q9h9kufzd6n95229dlkr0uu58wy7d6c96qtdgs3jlamjqfvwtkgalmxed86jpjapl85mvzz2j0crramfnejkkjqr4c3qenejdl","addr1q8fauxrk3wjlfyhnza0zzdjs7dclcjqrtqj4jkhdt3dh33xjj9djsz0020h68nz3rxknzdh93nryqzhq6h9z0nnzf0rs6wm4jc","addr1q84vq0j3sa5x2j2geed7gmefhxf89zlf3c50ua8wqtmrrwxjj9djsz0020h68nz3rxknzdh93nryqzhq6h9z0nnzf0rscw37gy","addr1q8fzxwcgtpzlt2mdrq9ef94sndse7lu66jane99kkes0v7kjj9djsz0020h68nz3rxknzdh93nryqzhq6h9z0nnzf0rss9yw6x","addr1qyylds3nyusnkgvnfxxytphxgcyqlvnqyyz09kesrrfsdnwjj9djsz0020h68nz3rxknzdh93nryqzhq6h9z0nnzf0rs57dcx0","addr1q95v2gsdaup42w4644g2zf4gr9apecwjz2mp6qd7n6eujqkjj9djsz0020h68nz3rxknzdh93nryqzhq6h9z0nnzf0rs76m39s"],"fee":995429,"totalOutput":73030999,"tokens":[]},{"hash":"06a43f9edd73b019318f76b953abec34b638e9dca66098e347a11cf1163e206d","blockNo":9159120,"blockHash":"86f428fd0bd287971570a709de2a66dedbece0465ac76bfbc1655b72cffb9921","epochNo":430,"epochSlotNo":60628,"slot":100457428,"time":"2023/08/14 14:35:19","addressesInput":["addr1q95t9jtqkddd8cv863v08859hll3w2kk28llv2l437mqnzasqnldke2sn8ana0yqdtym2qusn8kzy8m0ysrgf3zwdhsslzq5ek","addr1q95t9jtqkddd8cv863v08859hll3w2kk28llv2l437mqnzasqnldke2sn8ana0yqdtym2qusn8kzy8m0ysrgf3zwdhsslzq5ek"],"addressesOutput":["addr1q97qc7ejs4822keq6xv7t7n63k0kkg92kk3hzdz702x3cu09vjfxv9n8ul955huj6q5etd8nj03wlmeggztqt68dsfqqh3e6d3","addr1q95t9jtqkddd8cv863v08859hll3w2kk28llv2l437mqnzasqnldke2sn8ana0yqdtym2qusn8kzy8m0ysrgf3zwdhsslzq5ek"],"fee":171881,"totalOutput":28157893,"tokens":[]},{"hash":"bf63eeae8a677806313a4031b184cf3723d86c79b3797e2aec176e9017b1c9bb","blockNo":9159120,"blockHash":"86f428fd0bd287971570a709de2a66dedbece0465ac76bfbc1655b72cffb9921","epochNo":430,"epochSlotNo":60628,"slot":100457428,"time":"2023/08/14 14:35:19","addressesInput":["addr1qy3g22ypmul3ya40j98qry0gaw5kjukj9kvh44j439a2mtkkrakerzxehehdulnn55lecm0n83t9r77w8crju6u3z6zsnu2tl6","addr1qy3g22ypmul3ya40j98qry0gaw5kjukj9kvh44j439a2mtkkrakerzxehehdulnn55lecm0n83t9r77w8crju6u3z6zsnu2tl6","addr1qy3g22ypmul3ya40j98qry0gaw5kjukj9kvh44j439a2mtkkrakerzxehehdulnn55lecm0n83t9r77w8crju6u3z6zsnu2tl6","addr1qy3g22ypmul3ya40j98qry0gaw5kjukj9kvh44j439a2mtkkrakerzxehehdulnn55lecm0n83t9r77w8crju6u3z6zsnu2tl6","addr1qy3g22ypmul3ya40j98qry0gaw5kjukj9kvh44j439a2mtkkrakerzxehehdulnn55lecm0n83t9r77w8crju6u3z6zsnu2tl6"],"addressesOutput":["addr1qxgjvmr2a5ywmdnph6rnjev5ny7faqjv7qtl5w92uzzcywe2c6x30wp6fq9vg8603h288jnasae83gm6g8yac2s9gd5q2stu0c","addr1qy3g22ypmul3ya40j98qry0gaw5kjukj9kvh44j439a2mtkkrakerzxehehdulnn55lecm0n83t9r77w8crju6u3z6zsnu2tl6"],"fee":179097,"totalOutput":27430425,"tokens":[]},{"hash":"3b15586ae529c84991e775e14006b23366903be34dfcaee9528e92caad0afed9","blockNo":9159120,"blockHash":"86f428fd0bd287971570a709de2a66dedbece0465ac76bfbc1655b72cffb9921","epochNo":430,"epochSlotNo":60628,"slot":100457428,"time":"2023/08/14 14:35:19","addressesInput":["addr1qycf5856twt00hnefyzp4uv46w89lnyk567emnyfkdyy9dmsm6tgynqf7gpwmh40l4epk3xqd46hkmcrtd5x8z65mudqygmu50"],"addressesOutput":["addr1q9v8mglgzgf72c4ex7ey7zs046j3xa4whyyc9v37fft8yykal8vmsa5nndmjfas24km235jdtcvpr8f5k84znj3k62pqcfllej","addr1q8dxwnptxyrks5mauy68z93pvjz2fl9xq7rl4074x3fxjznsm6tgynqf7gpwmh40l4epk3xqd46hkmcrtd5x8z65mudqeqw4cr"],"fee":168493,"totalOutput":37441122670,"tokens":[]},{"hash":"5107ad22d15dae67657418de1b538ef2984ea8d6247115988051b11af4fdb198","blockNo":9159120,"blockHash":"86f428fd0bd287971570a709de2a66dedbece0465ac76bfbc1655b72cffb9921","epochNo":430,"epochSlotNo":60628,"slot":100457428,"time":"2023/08/14 14:35:19","addressesInput":["addr1q9zundwas2hmaapp55g9m05z28dnps2c09ya93939994xgz9ccnvufcws3d86rs86he89zlx6wc66gqj2rakqg3u486sysuf5x"],"addressesOutput":["addr1q97hf0s8m4x8wtmp6azayjtvszwj0f25pnvys53zhfv25qyngsaxjf39m25h3f0x3md6cxqlppqxyeu742d7g4q2cc6q09v639","addr1qygz8mzp8zrd75d8r3wl3jxr7rf99rlc8q8yh6dh3wkphe69ccnvufcws3d86rs86he89zlx6wc66gqj2rakqg3u486s7a82zt"],"fee":168317,"totalOutput":24309827,"tokens":[]},{"hash":"8937d58e752d2fd063adfe7ac4cae24154373da64f82c92d495a228d491d881c","blockNo":9159120,"blockHash":"86f428fd0bd287971570a709de2a66dedbece0465ac76bfbc1655b72cffb9921","epochNo":430,"epochSlotNo":60628,"slot":100457428,"time":"2023/08/14 14:35:19","addressesInput":["addr1w9e7m6yn74r7m0f9mf548ldr8j4v6q05gprey2lhch8tj5gsvyte9","addr1z9cy2gmar6cpn8yymll93lnd7lw96f27kn2p3eq5d4tjr7xnh3gfhnqcwez2pzmr4tryugrr0uahuk49xqw7dc645chscql0d7","addr1vxj5ddcsx72sdmpcxc9wlserugx6rnznzpj2sn76gx66kvqcx4nym","addr1vxj5ddcsx72sdmpcxc9wlserugx6rnznzpj2sn76gx66kvqcx4nym"],"addressesOutput":["addr1vxj5ddcsx72sdmpcxc9wlserugx6rnznzpj2sn76gx66kvqcx4nym","addr1vxj5ddcsx72sdmpcxc9wlserugx6rnznzpj2sn76gx66kvqcx4nym","addr1z9cy2gmar6cpn8yymll93lnd7lw96f27kn2p3eq5d4tjr7xnh3gfhnqcwez2pzmr4tryugrr0uahuk49xqw7dc645chscql0d7","addr1q8zpgvveweyckk79nsgpnh8nh5etryaehv4pw6wgtc2xwktl4jn5f07njhn0pmxjlwch0vs2fgax3nv4gy33ukn3jk7sw663mf"],"fee":870027,"totalOutput":1907180104477,"tokens":[]},{"hash":"eab46fac14b97ea721c71e90a2efe8b32c325e1d66124e4cbe0c8f50157481ab","blockNo":9159120,"blockHash":"86f428fd0bd287971570a709de2a66dedbece0465ac76bfbc1655b72cffb9921","epochNo":430,"epochSlotNo":60628,"slot":100457428,"time":"2023/08/14 14:35:19","addressesInput":["DdzFFzCqrhtCZZWzNM868NCDy1EJo98iFVhurY6onM83EFSzbpPrLQD59sZNf5LN9iLAsFQ3LLDZoGSmJuQx2PGDspwEjLogr4ZmeVHM"],"addressesOutput":["DdzFFzCqrhswFKKV4dgy8E6VKju9XhcLxZntYq4TaRgr6dgyqaaqL17Vyw58Ap5pMywJEsCT5QQhrn7Mkz9ndG3UKBLmiC5djRwQXpSB","DdzFFzCqrhsszhtayXRXPsBrxiE2QqavPR2yXvqePBmwK35JJzLBNq3gMyDGe46ioUzMbDjRerqccaDVydpXpL1RCTVRYAVXddLLn9n3"],"fee":174653,"totalOutput":2399025347,"tokens":[]},{"hash":"030396df7ce050a80af232a722db346856940585aaa2d4b420faee2e56bb93e0","blockNo":9159120,"blockHash":"86f428fd0bd287971570a709de2a66dedbece0465ac76bfbc1655b72cffb9921","epochNo":430,"epochSlotNo":60628,"slot":100457428,"time":"2023/08/14 14:35:19","addressesInput":["DdzFFzCqrhtBZ7gdFPpiNRDDc5opWbDEHFHi4vMDS1T31qnaKEfsTkLsZnJGJEqtJrnsZ6VM3Adr2No4x1H9o4V8x6Sm9n3ZhuVubLbD"],"addressesOutput":["addr1v93v4s7z29zq3qqq3xjw0ynfv7q3kvxdxm07dzlx37qgs3qcz2y59","addr1v908w39dhhv6ljw3wd99zyrg728jqjvdwwaa79jkm5rmfwcth9t44","DdzFFzCqrht82H72qfMYf6GzQCyTx2fLE1VpqpMskw9H7JYx641ts62h2iFfoNbiyGci323e63mtSjcroV8EmsGi3NRer25pKgR2umXT","DdzFFzCqrhsmyM1dCQLy8wKZrj5fmZGHukaM7PJ5f2s3Gfi7oys5Zbh5wghcQwtAEpPTv8cdwAjkuEVJsngbhX1374rALJQRXe7SHr16"],"fee":178833,"totalOutput":205460140622,"tokens":[]},{"hash":"be0b57f0382fc6651ec9e5f7dd5da71495a5418c1111eff51c981a618773c4cc","blockNo":9159120,"blockHash":"86f428fd0bd287971570a709de2a66dedbece0465ac76bfbc1655b72cffb9921","epochNo":430,"epochSlotNo":60628,"slot":100457428,"time":"2023/08/14 14:35:19","addressesInput":["addr1qyy5yyx3an65rr7czft8r5dmkyx2jetpsu3zlxn537v58klc9qgr253g4ptk6p249u49rg6v2nw2aqt9240ya2f07rhqa0cue0","addr1qyy5yyx3an65rr7czft8r5dmkyx2jetpsu3zlxn537v58klc9qgr253g4ptk6p249u49rg6v2nw2aqt9240ya2f07rhqa0cue0","addr1qyy5yyx3an65rr7czft8r5dmkyx2jetpsu3zlxn537v58klc9qgr253g4ptk6p249u49rg6v2nw2aqt9240ya2f07rhqa0cue0"],"addressesOutput":["addr1q8ctlczt8fqjntg3g2g3cpf697g72l2dl4m5ta978gtddp2gjv5xxe2nftrkfd0d3q3dwfc34j2fmrxlm5jw5ge3e6yq56j4ga","addr1qyy5yyx3an65rr7czft8r5dmkyx2jetpsu3zlxn537v58klc9qgr253g4ptk6p249u49rg6v2nw2aqt9240ya2f07rhqa0cue0","addr1qyy5yyx3an65rr7czft8r5dmkyx2jetpsu3zlxn537v58klc9qgr253g4ptk6p249u49rg6v2nw2aqt9240ya2f07rhqa0cue0"],"fee":199469,"totalOutput":7713811,"tokens":[]},{"hash":"86a35a4073b5a4fdcefb3f79d8d07028d0affef86507c71073fb13dda72032b2","blockNo":9159120,"blockHash":"86f428fd0bd287971570a709de2a66dedbece0465ac76bfbc1655b72cffb9921","epochNo":430,"epochSlotNo":60628,"slot":100457428,"time":"2023/08/14 14:35:19","addressesInput":["addr1qx7tzh4qen0p50ntefz8yujwgqt7zulef6t6vrf7dq4xa82j2c79gy9l76sdg0xwhd7r0c0kna0tycz4y5s6mlenh8pqrkj6fh","addr1zxn9efv2f6w82hagxqtn62ju4m293tqvw0uhmdl64ch8uw6j2c79gy9l76sdg0xwhd7r0c0kna0tycz4y5s6mlenh8pq6s3z70","addr1z8snz7c4974vzdpxu65ruphl3zjdvtxw8strf2c2tmqnxz2j2c79gy9l76sdg0xwhd7r0c0kna0tycz4y5s6mlenh8pq0xmsha"],"addressesOutput":["addr1z8snz7c4974vzdpxu65ruphl3zjdvtxw8strf2c2tmqnxz2j2c79gy9l76sdg0xwhd7r0c0kna0tycz4y5s6mlenh8pq0xmsha","addr1q9d9xu3gefhdnp48qfudjn6ewa7awea6ur6zqrt93eug5p27ut07ts5pgm2agaf6dm9vzd4qk49zwg5ru3m2la4f9s8sfqnwk0","addr1qx7tzh4qen0p50ntefz8yujwgqt7zulef6t6vrf7dq4xa82j2c79gy9l76sdg0xwhd7r0c0kna0tycz4y5s6mlenh8pqrkj6fh"],"fee":910503,"totalOutput":163860215714,"tokens":[]},{"hash":"6e136229d0cbb89cf3537584bdc497709029d3bf3fc666096f488de100e2041b","blockNo":9159120,"blockHash":"86f428fd0bd287971570a709de2a66dedbece0465ac76bfbc1655b72cffb9921","epochNo":430,"epochSlotNo":60628,"slot":100457428,"time":"2023/08/14 14:35:19","addressesInput":["addr1qx7tzh4qen0p50ntefz8yujwgqt7zulef6t6vrf7dq4xa82j2c79gy9l76sdg0xwhd7r0c0kna0tycz4y5s6mlenh8pqrkj6fh","addr1wxn9efv2f6w82hagxqtn62ju4m293tqvw0uhmdl64ch8uwc0h43gt","addr1z8snz7c4974vzdpxu65ruphl3zjdvtxw8strf2c2tmqnxz02znpd777wgl9wwpk0dvdzuxn93mqh82q7vv6s9jn25rws52z94g"],"addressesOutput":["addr1z8snz7c4974vzdpxu65ruphl3zjdvtxw8strf2c2tmqnxz02znpd777wgl9wwpk0dvdzuxn93mqh82q7vv6s9jn25rws52z94g","addr1q9glz4vxsedxzsvvct7l39pvyv0vczcj4zcg0hsgl7c9ka20q6l4djpwaw53qvjs350rm5mfd302q353lrpqwe66n5xscflx2d","addr1qx7tzh4qen0p50ntefz8yujwgqt7zulef6t6vrf7dq4xa82j2c79gy9l76sdg0xwhd7r0c0kna0tycz4y5s6mlenh8pqrkj6fh"],"fee":789729,"totalOutput":102935078,"tokens":[]},{"hash":"235890a4ecf90a3853cfd15f0e06a2c829283a995f83672785e3975c996269a0","blockNo":9159120,"blockHash":"86f428fd0bd287971570a709de2a66dedbece0465ac76bfbc1655b72cffb9921","epochNo":430,"epochSlotNo":60628,"slot":100457428,"time":"2023/08/14 14:35:19","addressesInput":["addr1q999ds5lu5wwmdk4930mzlh75dz3wkdpfd5nrmpp9th2qu950tqt0t0pswly8x86hr8q5gwfgcstrf76y7mpgfw8jmkqp3uwrn","addr1q999ds5lu5wwmdk4930mzlh75dz3wkdpfd5nrmpp9th2qu950tqt0t0pswly8x86hr8q5gwfgcstrf76y7mpgfw8jmkqp3uwrn","addr1zxgx3far7qygq0k6epa0zcvcvrevmn0ypsnfsue94nsn3tvpw288a4x0xf8pxgcntelxmyclq83s0ykeehchz2wtspks905plm"],"addressesOutput":["addr1zxgx3far7qygq0k6epa0zcvcvrevmn0ypsnfsue94nsn3tvpw288a4x0xf8pxgcntelxmyclq83s0ykeehchz2wtspks905plm","addr1q999ds5lu5wwmdk4930mzlh75dz3wkdpfd5nrmpp9th2qu950tqt0t0pswly8x86hr8q5gwfgcstrf76y7mpgfw8jmkqp3uwrn","addr1q999ds5lu5wwmdk4930mzlh75dz3wkdpfd5nrmpp9th2qu950tqt0t0pswly8x86hr8q5gwfgcstrf76y7mpgfw8jmkqp3uwrn"],"fee":332616,"totalOutput":398644303,"tokens":[]},{"hash":"e8a95237d80eb6c4a26639bf1ccfe2146465b5a311d4a9cff4b1715a6bc36f1e","blockNo":9159120,"blockHash":"86f428fd0bd287971570a709de2a66dedbece0465ac76bfbc1655b72cffb9921","epochNo":430,"epochSlotNo":60628,"slot":100457428,"time":"2023/08/14 14:35:19","addressesInput":["addr1qx9d2n2ujew0krshzfht2fxscyrtxacyz32melg29ghtlvhsx7whkd37947h4l87t3kmftk8mwsx0ej6hh33lrvwwmzsuwqarv","addr1qx9d2n2ujew0krshzfht2fxscyrtxacyz32melg29ghtlvhsx7whkd37947h4l87t3kmftk8mwsx0ej6hh33lrvwwmzsuwqarv"],"addressesOutput":["addr1qx9d2n2ujew0krshzfht2fxscyrtxacyz32melg29ghtlvhsx7whkd37947h4l87t3kmftk8mwsx0ej6hh33lrvwwmzsuwqarv","addr1q8pcf5kkfp2hqfkr2e3j0kcfvkk7axr4vv9gcxc0skwhjsad3z3gwkw8qvcc7ae0l5pphdz3tt5u48a9stsygl9hzqvq22ylrq"],"fee":215617,"totalOutput":66156545,"tokens":[]},{"hash":"c287ebf257234609c138e57e128b795bf331a656c94881022a9402b04ec87540","blockNo":9159120,"blockHash":"86f428fd0bd287971570a709de2a66dedbece0465ac76bfbc1655b72cffb9921","epochNo":430,"epochSlotNo":60628,"slot":100457428,"time":"2023/08/14 14:35:19","addressesInput":["addr1qx7tzh4qen0p50ntefz8yujwgqt7zulef6t6vrf7dq4xa82j2c79gy9l76sdg0xwhd7r0c0kna0tycz4y5s6mlenh8pqrkj6fh","addr1z8snz7c4974vzdpxu65ruphl3zjdvtxw8strf2c2tmqnxz2j2c79gy9l76sdg0xwhd7r0c0kna0tycz4y5s6mlenh8pq0xmsha","addr1zxn9efv2f6w82hagxqtn62ju4m293tqvw0uhmdl64ch8uw6j2c79gy9l76sdg0xwhd7r0c0kna0tycz4y5s6mlenh8pq6s3z70"],"addressesOutput":["addr1z8snz7c4974vzdpxu65ruphl3zjdvtxw8strf2c2tmqnxz2j2c79gy9l76sdg0xwhd7r0c0kna0tycz4y5s6mlenh8pq0xmsha","addr1q98mpzupqczc90s0n25k2nzk28tnv47kk7ekp8xqg4x7fzleuev5saz8e630xsxm3656ankdex36legdtmzskpjexvaqfeqjes","addr1qx7tzh4qen0p50ntefz8yujwgqt7zulef6t6vrf7dq4xa82j2c79gy9l76sdg0xwhd7r0c0kna0tycz4y5s6mlenh8pqrkj6fh"],"fee":787184,"totalOutput":531336578112,"tokens":[]},{"hash":"9ad307e8a56823089272a135acbcdf6b36ef147ea220dedd8f9c8f1636687100","blockNo":9159120,"blockHash":"86f428fd0bd287971570a709de2a66dedbece0465ac76bfbc1655b72cffb9921","epochNo":430,"epochSlotNo":60628,"slot":100457428,"time":"2023/08/14 14:35:19","addressesInput":["addr1q9ksvhqzne32h3hlapwved3tzlet2632mwudjpskuudcyearmgtzpukp5t9dyaugspppfk6khnw04z827pwexjh6zh5qfzy3jy"],"addressesOutput":["addr1q9mw6f6f44edasayfxac5p35t0q4s34v77hvftrjqm33zfsrq2tt5rfhsfmltftj4wtkznjjkj2ek6cdrsk7uqkscc2s6fu8ma","addr1q9gtqdytfl4fthgx5zwpnh2q7asd9x08dd30puqfrl8w8varmgtzpukp5t9dyaugspppfk6khnw04z827pwexjh6zh5q52jpcu"],"fee":169197,"totalOutput":96001812761,"tokens":[]}],"totalItems":73404778,"totalPages":3670239,"currentPage":0}