{"data":[{"blockNo":10172465,"slotNo":121269707,"epochNo":478,"epochSlotNo":136907,"hash":"54644ba5f27725a8b400e5a358965edf451918a7abc05ad599944f71c474602c","time":"2024/04/11 11:46:38","txCount":8,"totalFees":2842755,"totalOutput":70164528932183,"slotLeader":"50e113d1ada46a83a16d5ee6cfdc1a8baed6634c9f046ed30131eb11"},{"blockNo":10172464,"slotNo":121269688,"epochNo":478,"epochSlotNo":136888,"hash":"6c718d9de7acb0aa61177751a5ce575bfa886d008a8bc4c9394ced85f37bf184","time":"2024/04/11 11:46:19","txCount":11,"totalFees":3946748,"totalOutput":594544057426,"slotLeader":"5ed675dd3d0640ca94bf8c3d6a5bfaac0f59930c99a94ffe3686cb70"},{"blockNo":10172463,"slotNo":121269681,"epochNo":478,"epochSlotNo":136881,"hash":"cde4bc60551753f361e7399c169e151f9185c1e8dfd0de8138e5052bc6bef70f","time":"2024/04/11 11:46:12","txCount":11,"totalFees":7509156,"totalOutput":8695773873181,"slotLeader":"0000fc522cea692e3e714b392d90cec75e4b87542c5f9638bf9a363a"},{"blockNo":10172462,"slotNo":121269644,"epochNo":478,"epochSlotNo":136844,"hash":"1640f3b71678d1318d3a093557ad2006d6bfd1b8f85b231f5a5e555d0d55a38c","time":"2024/04/11 11:45:35","txCount":43,"totalFees":12870441,"totalOutput":3454321673923,"slotLeader":"90ac71b92a4c29f7a9bbde83ba2e6e2c17b69e41db204a55e7a338ae"},{"blockNo":10172461,"slotNo":121269554,"epochNo":478,"epochSlotNo":136754,"hash":"b5d7357e55a326ce668d602a78ca308986125fbf175de7f469f00c2770cc46e4","time":"2024/04/11 11:44:05","txCount":11,"totalFees":3499042,"totalOutput":69547151289622,"slotLeader":"4e0356a826bbf3e0525cd4612061a1304710b0c8d12df5457ac17cdf"},{"blockNo":10172460,"slotNo":121269530,"epochNo":478,"epochSlotNo":136730,"hash":"56dd6080cc57ef778f1307cb0aa3c1eecc54a47cb422b1e51f02b86a14f4d9c3","time":"2024/04/11 11:43:41","txCount":11,"totalFees":3564101,"totalOutput":478783222577,"slotLeader":"00000110093effbf3ce788aebd3e7506b80322bd3995ad432e61fad5"},{"blockNo":10172459,"slotNo":121269504,"epochNo":478,"epochSlotNo":136704,"hash":"7719439bc233ee37b35876ed598e17ab8c6c9785ebdcaea03fc178c05345b98c","time":"2024/04/11 11:43:15","txCount":0,"totalFees":0,"totalOutput":0,"slotLeader":"a0fc643d831b144e1dd289f5acf4274aedc331b6a0e4257ef5376520"},{"blockNo":10172458,"slotNo":121269502,"epochNo":478,"epochSlotNo":136702,"hash":"bd6b27788b3c66d87890a19d3e5a0eabd5bbda23730bc0c6a768a851bb01a0dd","time":"2024/04/11 11:43:13","txCount":1,"totalFees":192360,"totalOutput":20943967,"slotLeader":"2c799c3eb2fb59dbf874500fa77df18a2acaa8cfec1793c928294a50"},{"blockNo":10172457,"slotNo":121269501,"epochNo":478,"epochSlotNo":136701,"hash":"67ea6b5388dca9afef852561765d94f227467230796adebdfad5e387ce97713b","time":"2024/04/11 11:43:12","txCount":4,"totalFees":1356131,"totalOutput":151583164485,"slotLeader":"78380abbe8bb86cddda2c79190294125c594630e9535d32907b99f89"},{"blockNo":10172456,"slotNo":121269487,"epochNo":478,"epochSlotNo":136687,"hash":"3318c512c55081b21f2c6a5914b98b08c3b1ee6dec480ad126e4ada11d2ede9a","time":"2024/04/11 11:42:58","txCount":16,"totalFees":3716869,"totalOutput":158976222686,"slotLeader":"aa8ce95c3862c3e5f6e1dccebfcf36f4379484ae9eb42d7a476483b9"},{"blockNo":10172455,"slotNo":121269471,"epochNo":478,"epochSlotNo":136671,"hash":"544b67d0f254fab31db8a6e1a689e562615c7ac4dda628bfe9074d0b208231d1","time":"2024/04/11 11:42:42","txCount":14,"totalFees":8742780,"totalOutput":12665226385194,"slotLeader":"0840d05089b5bff1e24fe57c1ed905cd6fda68e1147a5b5863d39562"},{"blockNo":10172454,"slotNo":121269422,"epochNo":478,"epochSlotNo":136622,"hash":"129230e70f232e68780ad0a1a90ec3e6adb278ccd6887e9ab5f6922e7b1fbe1c","time":"2024/04/11 11:41:53","txCount":32,"totalFees":7957865,"totalOutput":11370445297571,"slotLeader":"351a90a0253fb3595ccc460438b9947cd8a0b9a7f457f3478bbb31d8"},{"blockNo":10172453,"slotNo":121269349,"epochNo":478,"epochSlotNo":136549,"hash":"735fd989e4a2fac49ada6300f4075a6d9df97eb09aef6197294ce76bb0f3f99a","time":"2024/04/11 11:40:40","txCount":2,"totalFees":614688,"totalOutput":8042379863,"slotLeader":"fe59e220d8036bd7533bf393e26abde56ec7d49fa632e57bf696d134"},{"blockNo":10172452,"slotNo":121269345,"epochNo":478,"epochSlotNo":136545,"hash":"741182a48b80404ce365296d6c66427dac319cc5006dde296a830e2ab0422932","time":"2024/04/11 11:40:36","txCount":4,"totalFees":1136788,"totalOutput":386689443,"slotLeader":"c974db0e14dc25c261c2aed2fb034922fe279aa7dcc7c1d108e24161"},{"blockNo":10172451,"slotNo":121269336,"epochNo":478,"epochSlotNo":136536,"hash":"a23443660d011943026e17051a577295b54bdb6711ecd93526c072ff04783bf7","time":"2024/04/11 11:40:27","txCount":2,"totalFees":857194,"totalOutput":520271526,"slotLeader":"ea5f1fb21658736dce6e8c63a516e9e5d645e104b9efbfbb395d7e68"},{"blockNo":10172450,"slotNo":121269334,"epochNo":478,"epochSlotNo":136534,"hash":"2cbaa33e7ab91d92a74792308432be94d5e80d2d70a366a452e6c8ec0b9bae1f","time":"2024/04/11 11:40:25","txCount":2,"totalFees":1233640,"totalOutput":105954774517,"slotLeader":"3d0a287f918624a8b8d8eedcf87ed799deee99d66feb63d9fd811de8"},{"blockNo":10172449,"slotNo":121269330,"epochNo":478,"epochSlotNo":136530,"hash":"b99f76a17cedb630c3aac1c1d6d8d7ab2d3f081bf3f4656eae336a745c1be3c6","time":"2024/04/11 11:40:21","txCount":9,"totalFees":3207618,"totalOutput":209538013894,"slotLeader":"fd832d27b5fbe0489409613f50e2139b54a21e613c8a7609dcff556e"},{"blockNo":10172448,"slotNo":121269309,"epochNo":478,"epochSlotNo":136509,"hash":"f911f4f9120ea6bf6188aff0319a43f1a57a1bb4a78dc2a07eb5742ef1bbdffc","time":"2024/04/11 11:40:00","txCount":18,"totalFees":4303117,"totalOutput":1516077286818,"slotLeader":"f2fa0dfea7f4caba8cbdd042c4940c783ee57f9516062725b04e19a3"},{"blockNo":10172447,"slotNo":121269280,"epochNo":478,"epochSlotNo":136480,"hash":"8f5e6473c892879d2b7afc19b9599e1c2205a0d2fb96146e663d08853cd7660c","time":"2024/04/11 11:39:31","txCount":12,"totalFees":4479545,"totalOutput":92143353868,"slotLeader":"5b60373e718a3647ec57f610b9942f91286748ddeaa0ad226acb927b"},{"blockNo":10172446,"slotNo":121269256,"epochNo":478,"epochSlotNo":136456,"hash":"687bd269e1cde0ccb0cbaec236ba0fe56cee8f88cae54374724453b006d52144","time":"2024/04/11 11:39:07","txCount":1,"totalFees":287995,"totalOutput":31708271,"slotLeader":"663317cb93319fa42afd3b9cf5600826ab524b45cdee8518b4067d15"}],"totalItems":6737,"totalPages":337,"currentPage":0,"isDataOverSize":null}