{"data":[{"txHash":"5082bf8266a5f874881f53a5bea4117907b643601d843f6517c6ea6be390a614","fee":171309,"deposit":-2000000,"time":"2024/04/07 05:07:35"}],"totalItems":26,"totalPages":26,"currentPage":0,"isDataOverSize":null}