{"data":[{"txHash":"f6f12b2b1f0d7af22217ea40527b0cfd28ebffdf56f3472a13d5d22a63c6fd87","time":"2024/03/06 15:01:44","blockNo":10021492,"epochNo":471,"epochSlotNo":62213,"slotNo":118171013,"numberOfStakes":1,"rewards":52140000000000},{"txHash":"d689bee077e69269ea7e9e8f5b09f5f93af887c117cd7a1157d09bec209900dd","time":"2023/10/09 16:12:29","blockNo":9394726,"epochNo":441,"epochSlotNo":152858,"slotNo":105301658,"numberOfStakes":1,"rewards":50000000000000},{"txHash":"4b4ca196d524ae3877f772d5f0871e76aeedbf0330d2549178a834158593b299","time":"2023/05/02 17:22:04","blockNo":8722618,"epochNo":409,"epochSlotNo":157033,"slotNo":91481833,"numberOfStakes":1,"rewards":8931404863383},{"txHash":"0bc50b20e16268419048790f6ae3667a1480418dd9faed543bc0e8ca32ea7a08","time":"2022/11/08 19:50:46","blockNo":7989107,"epochNo":374,"epochSlotNo":165955,"slotNo":76370755,"numberOfStakes":20,"rewards":12920926388},{"txHash":"6ff389f4fc1b13291eeb67e0025524c7a3043bb262cf96b1618b58790231e649","time":"2022/11/08 19:50:46","blockNo":7989107,"epochNo":374,"epochSlotNo":165955,"slotNo":76370755,"numberOfStakes":200,"rewards":119005862638},{"txHash":"0e6a8c875deedd5cc0adafb0da1cdf782b5e941917de94a02ab5b85fbe99ba8b","time":"2022/11/08 19:50:34","blockNo":7989106,"epochNo":374,"epochSlotNo":165943,"slotNo":76370743,"numberOfStakes":200,"rewards":94623500691},{"txHash":"64135f68a56b4ddf50d6515ec16df4da757bfd097ceef85e55a0bb76f6d56a31","time":"2022/11/08 19:50:34","blockNo":7989106,"epochNo":374,"epochSlotNo":165943,"slotNo":76370743,"numberOfStakes":200,"rewards":125492230644},{"txHash":"a83bd9e60e1ef9584f9a8e4db1b8b9b91dca27a9fc2bcd4cead64124df065d3c","time":"2022/11/08 19:50:34","blockNo":7989106,"epochNo":374,"epochSlotNo":165943,"slotNo":76370743,"numberOfStakes":200,"rewards":78103346668},{"txHash":"d2978e9c5d74b3c2646fd0765ad79a1dd8df6c2931b773ce16c6b424ee9f6245","time":"2022/11/08 19:50:34","blockNo":7989106,"epochNo":374,"epochSlotNo":165943,"slotNo":76370743,"numberOfStakes":200,"rewards":186803892251},{"txHash":"4a1503b01c31bfa3dd3aba7bf3e7158098c31d09a654deedca9a27f50014b3b9","time":"2022/11/08 19:50:34","blockNo":7989106,"epochNo":374,"epochSlotNo":165943,"slotNo":76370743,"numberOfStakes":200,"rewards":68165040190},{"txHash":"0a5ba9cd2e837bfa1946193230f95fd15dd8595967dbf88ee07c5ff880ac3df6","time":"2022/11/08 19:50:24","blockNo":7989105,"epochNo":374,"epochSlotNo":165933,"slotNo":76370733,"numberOfStakes":200,"rewards":205478269870},{"txHash":"ba816bad2642c426390e2310bd0924a9562deac87c0ce2724295515db3adb952","time":"2022/11/08 19:50:24","blockNo":7989105,"epochNo":374,"epochSlotNo":165933,"slotNo":76370733,"numberOfStakes":200,"rewards":73912768364},{"txHash":"7a333d90e00cba2982ff45ca80eab14cd244ae5f28e4e999c881868be9145604","time":"2022/11/08 19:50:24","blockNo":7989105,"epochNo":374,"epochSlotNo":165933,"slotNo":76370733,"numberOfStakes":200,"rewards":123213532572},{"txHash":"84452284bb7dbd7907688aac58e2364c4ba32c713e2540b8df5838004671a155","time":"2022/11/08 19:50:24","blockNo":7989105,"epochNo":374,"epochSlotNo":165933,"slotNo":76370733,"numberOfStakes":200,"rewards":106051750692},{"txHash":"904381627bd2523d8b51a4961cb3c3c48973017eb72419e342c09d66fdf36a16","time":"2022/11/08 19:50:24","blockNo":7989105,"epochNo":374,"epochSlotNo":165933,"slotNo":76370733,"numberOfStakes":200,"rewards":84605416568},{"txHash":"d7eb10f09ee489a00b305c99c29e3903cdd05fe7d4d92b5b7a3e2d52b908dcc5","time":"2022/11/08 19:50:24","blockNo":7989105,"epochNo":374,"epochSlotNo":165933,"slotNo":76370733,"numberOfStakes":200,"rewards":112975494747},{"txHash":"cc23e4a13e58c6767ae7cdbace4edcf99d824c4630757036824360269acdbd36","time":"2022/11/08 19:50:24","blockNo":7989105,"epochNo":374,"epochSlotNo":165933,"slotNo":76370733,"numberOfStakes":200,"rewards":149691185420},{"txHash":"e95f82a2afe4c62e9a585fb99ae364cf178bbb8efbcced7f9f9e484472bb4cbd","time":"2022/11/08 19:49:59","blockNo":7989104,"epochNo":374,"epochSlotNo":165908,"slotNo":76370708,"numberOfStakes":200,"rewards":114786667748},{"txHash":"e0012bcf7087f6252f4adf01485024da66e06bce1bde6e71bd3381c320ad7b80","time":"2022/11/08 19:49:59","blockNo":7989104,"epochNo":374,"epochSlotNo":165908,"slotNo":76370708,"numberOfStakes":200,"rewards":120037374513},{"txHash":"9782a10c5408d44d4bd35ef46fa4fd331b9e801d07c7080cce6540f14da54b85","time":"2022/11/08 19:49:59","blockNo":7989104,"epochNo":374,"epochSlotNo":165908,"slotNo":76370708,"numberOfStakes":200,"rewards":87237798678}],"totalItems":1061,"totalPages":54,"currentPage":0,"isDataOverSize":null}