{"data":[{"time":"2024/03/18 07:12:38","stakeAddressId":null,"slotNo":119179667,"txId":null,"fee":null,"blockNo":10070825,"amount":647047,"epochNo":473,"txHash":"65c31f4a03df20ab82c16ce85e0c054776c2163341f0492f62701db1e78d1e14","epochSlotNo":206867},{"time":"2024/03/11 18:21:08","stakeAddressId":null,"slotNo":118614977,"txId":null,"fee":null,"blockNo":10043281,"amount":649474,"epochNo":472,"txHash":"c93bb6290009ae7c2dbefa6650cd530242dd00ceadc4ae5baa2e37491d53a7dc","epochSlotNo":74177},{"time":"2024/03/06 00:53:57","stakeAddressId":null,"slotNo":118120146,"txId":null,"fee":null,"blockNo":10018999,"amount":625892,"epochNo":471,"txHash":"80cf0dc4edef2a3f14f2e3323bb17358c4830d61eb6761664fe0a413167c4547","epochSlotNo":11346},{"time":"2024/03/02 03:26:40","stakeAddressId":null,"slotNo":117783709,"txId":null,"fee":null,"blockNo":10002407,"amount":707407,"epochNo":470,"txHash":"3414d77343680c02b0639533d0862470106ca989896a5adb2239688df9566854","epochSlotNo":106909},{"time":"2024/02/22 04:52:52","stakeAddressId":null,"slotNo":117011281,"txId":null,"fee":null,"blockNo":9964450,"amount":125365,"epochNo":468,"txHash":"dc50aed5a53ce0e433da7d6c6ff49b257a0ea2b1e49c5a5f90bba624781f6395","epochSlotNo":198481},{"time":"2024/01/17 06:22:18","stakeAddressId":null,"slotNo":113906247,"txId":null,"fee":null,"blockNo":9814479,"amount":487027,"epochNo":461,"txHash":"fb69df2dbc4bd8f62fb5edc1594248477df7d7f027f5118339674269adc8603c","epochSlotNo":117447},{"time":"2024/01/08 10:51:52","stakeAddressId":null,"slotNo":113144821,"txId":null,"fee":null,"blockNo":9777689,"amount":468120,"epochNo":459,"txHash":"f0552cd5d6058a952fc79d4cc545b461f5a8bfdac5cbe9c4952468b931f60b76","epochSlotNo":220021},{"time":"2023/12/28 04:02:36","stakeAddressId":null,"slotNo":112169865,"txId":null,"fee":null,"blockNo":9730052,"amount":109094,"epochNo":457,"txHash":"fb6c3fa1d913f7311a6b16b4efef73092fa60a194d64885ee8a00be082179ec6","epochSlotNo":109065},{"time":"2023/12/22 05:03:59","stakeAddressId":null,"slotNo":111655148,"txId":null,"fee":null,"blockNo":9704961,"amount":3929715,"epochNo":456,"txHash":"540c46133ae2674a2bc5638b96ddd973630ca507f63807606f834d3384621566","epochSlotNo":26348},{"time":"2023/12/12 06:35:55","stakeAddressId":null,"slotNo":110796664,"txId":null,"fee":null,"blockNo":9662850,"amount":4225754,"epochNo":454,"txHash":"2ed0435a9fac8535a56ce54807cff20dbeb8f3985255706b6d4840fa6bc9fee2","epochSlotNo":31864}],"totalItems":100,"totalPages":10,"currentPage":0,"isDataOverSize":null}