{"data":[{"txHash":"a1d1faf6b87af850560c73f1d8e05bda2734be5c8b11894c499724c68b2448b3","fee":171485,"deposit":-2000000,"time":"2023/06/16 15:12:22"}],"totalItems":4,"totalPages":4,"currentPage":0,"isDataOverSize":null}