{"data":[{"hash":"6d4316a380883c4d8eabb3906781d323c378e78c248d3a0ce0d7f4b4b4af2a2e","time":"2024/04/11 11:46:19","blockNo":10172464,"epochNo":478,"epochSlotNo":136888,"absoluteSlot":121269688,"addresses":null,"scriptPurposeTypes":["SPEND"]},{"hash":"836e9359c9ce496d498eb7db2e5e2fda11feda86a0e42c0c9f2b50c369a33053","time":"2024/04/11 11:46:19","blockNo":10172464,"epochNo":478,"epochSlotNo":136888,"absoluteSlot":121269688,"addresses":null,"scriptPurposeTypes":["SPEND"]},{"hash":"4622030867ecb4acdcfc1c2b6b21226aae2e850563f9e306b259e916f1c4ff8b","time":"2024/04/11 11:46:12","blockNo":10172463,"epochNo":478,"epochSlotNo":136881,"absoluteSlot":121269681,"addresses":null,"scriptPurposeTypes":["SPEND"]},{"hash":"5c0eafbf702456c126a7e4059f06d1a290cc9b35a06f76908a8c6e4f7714d6a2","time":"2024/04/11 11:42:42","blockNo":10172455,"epochNo":478,"epochSlotNo":136671,"absoluteSlot":121269471,"addresses":null,"scriptPurposeTypes":["SPEND"]},{"hash":"60d951f4afd9f38ff56b2ab0173f67416295e0cc3c52c4aecb0f85b6109693bf","time":"2024/04/11 11:41:53","blockNo":10172454,"epochNo":478,"epochSlotNo":136622,"absoluteSlot":121269422,"addresses":null,"scriptPurposeTypes":["SPEND"]},{"hash":"04bee1bba0d26c45f17594dc91596ed63aa1803bd901496fabc2b42ad8208ce9","time":"2024/04/11 11:36:11","blockNo":10172437,"epochNo":478,"epochSlotNo":136280,"absoluteSlot":121269080,"addresses":null,"scriptPurposeTypes":["SPEND"]},{"hash":"4a75c0f7a35a841a02dc7df9b5160c972f7b1bbeaa6d6aa7586553dcc2c18181","time":"2024/04/11 11:35:05","blockNo":10172433,"epochNo":478,"epochSlotNo":136214,"absoluteSlot":121269014,"addresses":null,"scriptPurposeTypes":["SPEND"]},{"hash":"50eff88e7e90b4f37c0d37b30f509e70660ad51f505d16236be4d5a9282097f7","time":"2024/04/11 11:35:05","blockNo":10172433,"epochNo":478,"epochSlotNo":136214,"absoluteSlot":121269014,"addresses":null,"scriptPurposeTypes":["SPEND"]},{"hash":"cf953646b8628289f1b4752de142505a3e77d08e857844f3d7d335486ad67464","time":"2024/04/11 11:32:19","blockNo":10172425,"epochNo":478,"epochSlotNo":136048,"absoluteSlot":121268848,"addresses":null,"scriptPurposeTypes":["SPEND"]},{"hash":"0dea484cde98c73fe119d55c6d88e5c10a2ad6dd0e2f515df3f72f62cbc0ca1f","time":"2024/04/11 11:31:44","blockNo":10172423,"epochNo":478,"epochSlotNo":136013,"absoluteSlot":121268813,"addresses":null,"scriptPurposeTypes":["SPEND"]},{"hash":"41aaf3acf3eef2f3b6d3a839d401469c05aaca326d977359983ff4d8ef1f47ee","time":"2024/04/11 11:27:51","blockNo":10172412,"epochNo":478,"epochSlotNo":135780,"absoluteSlot":121268580,"addresses":null,"scriptPurposeTypes":["SPEND"]},{"hash":"0ff2840687a0e320f623720bd0ab3f861617afa29a532c1c070dfbef3f46c5c8","time":"2024/04/11 11:27:14","blockNo":10172408,"epochNo":478,"epochSlotNo":135743,"absoluteSlot":121268543,"addresses":null,"scriptPurposeTypes":["SPEND"]},{"hash":"677f2d65a2a7757c6906abcdbcf359676b41a7aafa2e9294bbd695ff92c94088","time":"2024/04/11 11:24:05","blockNo":10172398,"epochNo":478,"epochSlotNo":135554,"absoluteSlot":121268354,"addresses":null,"scriptPurposeTypes":["SPEND"]},{"hash":"30d8c40fd8abd77a7a2ab60b2fe09e2e57ff04d0af6c5a2fe3bb63d326698113","time":"2024/04/11 11:19:26","blockNo":10172387,"epochNo":478,"epochSlotNo":135275,"absoluteSlot":121268075,"addresses":null,"scriptPurposeTypes":["SPEND"]},{"hash":"dc583968776873d27267eb1a14dd8928faa651f3e9e86aa56747f8ed982f796c","time":"2024/04/11 11:19:26","blockNo":10172387,"epochNo":478,"epochSlotNo":135275,"absoluteSlot":121268075,"addresses":null,"scriptPurposeTypes":["SPEND"]},{"hash":"bde31c0e957615f13d93f01addf7b6f934362dc3cada4385c92ea9aa1ef31b1f","time":"2024/04/11 11:19:09","blockNo":10172385,"epochNo":478,"epochSlotNo":135258,"absoluteSlot":121268058,"addresses":null,"scriptPurposeTypes":["SPEND"]},{"hash":"ae533a3dfb9f4b640c1fbc8ec8e0bc50f2bdf880f04241cb8f442b3977bea621","time":"2024/04/11 11:19:09","blockNo":10172385,"epochNo":478,"epochSlotNo":135258,"absoluteSlot":121268058,"addresses":null,"scriptPurposeTypes":["SPEND"]},{"hash":"24b0d408411193696fe9ab6278aab48c2faa34c5cc3efd8863592ddbccbaef62","time":"2024/04/11 11:17:58","blockNo":10172384,"epochNo":478,"epochSlotNo":135187,"absoluteSlot":121267987,"addresses":null,"scriptPurposeTypes":["SPEND"]},{"hash":"3b760a19e1a29fc29c25afd1b9e6cf77e8fd06342fcdef41065da4592aa8c2c7","time":"2024/04/11 11:17:38","blockNo":10172383,"epochNo":478,"epochSlotNo":135167,"absoluteSlot":121267967,"addresses":null,"scriptPurposeTypes":["SPEND"]},{"hash":"be9518623239d7aa2d9168498028dc2285218c5d5b22f5fa86d30880a691f1d1","time":"2024/04/11 11:17:38","blockNo":10172383,"epochNo":478,"epochSlotNo":135167,"absoluteSlot":121267967,"addresses":null,"scriptPurposeTypes":["SPEND"]}],"totalItems":398212,"totalPages":19911,"currentPage":0,"isDataOverSize":null}