{"data":[{"txId":73664314,"txHash":"63252e62d9697b1bce3c8b341f98f0a794ff355b0698c7ab826d74d460579f4f","txTime":"2023/08/14 14:34:51","block":9159118,"epoch":430,"slotNo":100457400,"epochSlotNo":60600,"stakeKey":"stake1uxsw878ngzpvrdqnyrkzlk4eaf6qzwmdn83jeqzz6g477nsh8st5f"},{"txId":73664037,"txHash":"ecb95aed03487f451d9a59a9c3f374eeac3af0f80c4fe02ee68bbc5baf99d8be","txTime":"2023/08/14 14:29:24","block":9159102,"epoch":430,"slotNo":100457073,"epochSlotNo":60273,"stakeKey":"stake1u9xuh7gauppfkqqeh8ydpkz28r94f4veccxw6xf8jucsr7qshwft2"},{"txId":73663902,"txHash":"b322f384811c40795b8d3858e3cb53efaaca3a75c0af5dbf7dc64da4d7d67413","txTime":"2023/08/14 14:25:11","block":9159091,"epoch":430,"slotNo":100456820,"epochSlotNo":60020,"stakeKey":"stake1uyjghxx5vh4fzxe8gx8x45pma8u9z7uqk9d3dshp2nzhsmck0p7r4"},{"txId":73663846,"txHash":"53622e7c9f6c414ecd6d47ecc91e96017b026b1ad560b938dc7704d25f5b3f35","txTime":"2023/08/14 14:23:24","block":9159085,"epoch":430,"slotNo":100456713,"epochSlotNo":59913,"stakeKey":"stake1uxavpphl5gxj2ca09vc5fh44nuw3k7xskuxnhktw2k2tgpcpalhtl"},{"txId":73663827,"txHash":"60a6fa94229c54f88938fe7c8f60a1782161534d04c5abe1c4d366f9101d18b0","txTime":"2023/08/14 14:23:15","block":9159084,"epoch":430,"slotNo":100456704,"epochSlotNo":59904,"stakeKey":"stake1u87sa9afs95q0ga8eh2efldand5eepdw6809s4wfhn9jyjcesng2l"},{"txId":73663807,"txHash":"14705a48b481f28bc6a361f2673a0ed9549ffba6108791b368c60928c3010d86","txTime":"2023/08/14 14:22:37","block":9159082,"epoch":430,"slotNo":100456666,"epochSlotNo":59866,"stakeKey":"stake1uyk57dma77vw5dcgyaplpglwdfcars6xne6zluxetpw32tqx57grh"},{"txId":73663640,"txHash":"737956f64bfa665dbc7de603c4c4b0b6feb8f87b78de3f7d10d678e540f4bd19","txTime":"2023/08/14 14:19:14","block":9159076,"epoch":430,"slotNo":100456463,"epochSlotNo":59663,"stakeKey":"stake1u93t2dn5wfu7wqqperx5wjnyj4pg960y5f45rzsu74yzz8gykjwxe"},{"txId":73663438,"txHash":"34a087de167c648b1ac07102680a40dee6e8c7941642a56171e1eb864936de96","txTime":"2023/08/14 14:13:47","block":9159068,"epoch":430,"slotNo":100456136,"epochSlotNo":59336,"stakeKey":"stake1uy4jfdvcqjs7xkzefnlac9klfz9pvdu044zjz86ud7kmyfsqhvy8e"},{"txId":73663349,"txHash":"ecb6a89053b3c21452081c4875209bfa8d2315666f4e33c07680682bae1cf83e","txTime":"2023/08/14 14:10:45","block":9159065,"epoch":430,"slotNo":100455954,"epochSlotNo":59154,"stakeKey":"stake1uyhf405uz4s58g8cgnkahcp8tnvra4s058vk0lux5ykwusc8k7c6v"},{"txId":73663255,"txHash":"027c9daaa38fe4031fbdbc5d15452f1de5956d6f680d0de2d5f18601b8d2dd47","txTime":"2023/08/14 14:08:58","block":9159056,"epoch":430,"slotNo":100455847,"epochSlotNo":59047,"stakeKey":"stake1u8juc2y24h2xmx2s788kh3l5em2nj4zmam8x36hxdhkqz5s5v86k2"}],"totalItems":1748354,"totalPages":174836,"currentPage":0}