{"data":[{"no":478,"status":"IN_PROGRESS","blkCount":6737,"outSum":41296370534911299,"txCount":81346,"startTime":"2024/04/09 21:44:51","endTime":"2024/04/14 21:44:51","maxSlot":432000,"rewardsDistributed":null,"account":39456,"syncingProgress":0.31691435185185185},{"no":477,"status":"FINISHED","blkCount":20970,"outSum":139341412960431263,"txCount":275822,"startTime":"2024/04/04 21:44:51","endTime":"2024/04/09 21:44:51","maxSlot":432000,"rewardsDistributed":null,"account":110959,"syncingProgress":1.0},{"no":476,"status":"FINISHED","blkCount":20964,"outSum":136099299726778858,"txCount":296447,"startTime":"2024/03/30 21:44:51","endTime":"2024/04/04 21:44:51","maxSlot":432000,"rewardsDistributed":9258528644590,"account":105781,"syncingProgress":1.0},{"no":475,"status":"FINISHED","blkCount":21227,"outSum":134259809780536964,"txCount":287074,"startTime":"2024/03/25 21:44:51","endTime":"2024/03/30 21:44:51","maxSlot":432000,"rewardsDistributed":9396961653689,"account":111303,"syncingProgress":1.0},{"no":474,"status":"FINISHED","blkCount":20927,"outSum":125518872233726027,"txCount":247259,"startTime":"2024/03/20 21:44:51","endTime":"2024/03/25 21:44:51","maxSlot":432000,"rewardsDistributed":9276468763622,"account":102054,"syncingProgress":1.0},{"no":473,"status":"FINISHED","blkCount":20984,"outSum":160327280570581856,"txCount":311957,"startTime":"2024/03/15 21:44:51","endTime":"2024/03/20 21:44:51","maxSlot":432000,"rewardsDistributed":9355780044464,"account":122777,"syncingProgress":1.0},{"no":472,"status":"FINISHED","blkCount":20954,"outSum":157256649670302979,"txCount":371308,"startTime":"2024/03/10 21:44:51","endTime":"2024/03/15 21:44:51","maxSlot":432000,"rewardsDistributed":9341676158057,"account":144614,"syncingProgress":1.0},{"no":471,"status":"FINISHED","blkCount":21235,"outSum":173069126079612543,"txCount":388963,"startTime":"2024/03/05 21:44:51","endTime":"2024/03/10 21:44:51","maxSlot":432000,"rewardsDistributed":61677587524908,"account":156147,"syncingProgress":1.0},{"no":470,"status":"FINISHED","blkCount":21311,"outSum":182377761595527198,"txCount":403952,"startTime":"2024/02/29 21:44:51","endTime":"2024/03/05 21:44:51","maxSlot":432000,"rewardsDistributed":9595998409782,"account":169594,"syncingProgress":1.0},{"no":469,"status":"FINISHED","blkCount":21263,"outSum":165719379510051978,"txCount":365139,"startTime":"2024/02/24 21:44:51","endTime":"2024/02/29 21:44:51","maxSlot":432000,"rewardsDistributed":9587191876435,"account":142733,"syncingProgress":1.0},{"no":468,"status":"FINISHED","blkCount":21307,"outSum":158870655740845627,"txCount":339236,"startTime":"2024/02/19 21:44:51","endTime":"2024/02/24 21:44:51","maxSlot":432000,"rewardsDistributed":9660629177595,"account":114802,"syncingProgress":1.0},{"no":467,"status":"FINISHED","blkCount":21160,"outSum":146304615417542504,"txCount":337319,"startTime":"2024/02/14 21:44:51","endTime":"2024/02/19 21:44:51","maxSlot":432000,"rewardsDistributed":9613855523849,"account":150361,"syncingProgress":1.0},{"no":466,"status":"FINISHED","blkCount":20923,"outSum":128055283691072449,"txCount":347241,"startTime":"2024/02/09 21:44:51","endTime":"2024/02/14 21:44:51","maxSlot":432000,"rewardsDistributed":9499830931430,"account":114362,"syncingProgress":1.0},{"no":465,"status":"FINISHED","blkCount":20872,"outSum":122720530223654636,"txCount":342914,"startTime":"2024/02/04 21:44:51","endTime":"2024/02/09 21:44:51","maxSlot":432000,"rewardsDistributed":9505784011465,"account":118895,"syncingProgress":1.0},{"no":464,"status":"FINISHED","blkCount":20730,"outSum":115844528416525603,"txCount":340234,"startTime":"2024/01/30 21:44:51","endTime":"2024/02/04 21:44:51","maxSlot":432000,"rewardsDistributed":9444602902707,"account":147920,"syncingProgress":1.0},{"no":463,"status":"FINISHED","blkCount":20404,"outSum":117760329627498588,"txCount":315429,"startTime":"2024/01/25 21:44:51","endTime":"2024/01/30 21:44:51","maxSlot":432000,"rewardsDistributed":9310882260246,"account":121178,"syncingProgress":1.0},{"no":462,"status":"FINISHED","blkCount":20927,"outSum":132998575450391389,"txCount":352162,"startTime":"2024/01/20 21:44:51","endTime":"2024/01/25 21:44:51","maxSlot":432000,"rewardsDistributed":9576231261544,"account":116864,"syncingProgress":1.0},{"no":461,"status":"FINISHED","blkCount":20734,"outSum":127831965354324633,"txCount":374017,"startTime":"2024/01/15 21:44:51","endTime":"2024/01/20 21:44:51","maxSlot":432000,"rewardsDistributed":9520573129228,"account":123245,"syncingProgress":1.0},{"no":460,"status":"FINISHED","blkCount":20863,"outSum":124593313184006186,"txCount":420768,"startTime":"2024/01/10 21:44:51","endTime":"2024/01/15 21:44:51","maxSlot":432000,"rewardsDistributed":9593459210469,"account":134259,"syncingProgress":1.0},{"no":459,"status":"FINISHED","blkCount":20957,"outSum":145044109720853753,"txCount":421387,"startTime":"2024/01/05 21:44:51","endTime":"2024/01/10 21:44:51","maxSlot":432000,"rewardsDistributed":9638806542886,"account":138544,"syncingProgress":1.0},{"no":458,"status":"FINISHED","blkCount":21021,"outSum":159374594704332450,"txCount":427089,"startTime":"2023/12/31 21:44:51","endTime":"2024/01/05 21:44:51","maxSlot":432000,"rewardsDistributed":9696043363850,"account":128046,"syncingProgress":1.0},{"no":457,"status":"FINISHED","blkCount":21328,"outSum":170504586396599986,"txCount":464626,"startTime":"2023/12/26 21:44:51","endTime":"2023/12/31 21:44:51","maxSlot":432000,"rewardsDistributed":9866018195118,"account":125840,"syncingProgress":1.0},{"no":456,"status":"FINISHED","blkCount":20977,"outSum":155039368699741047,"txCount":416022,"startTime":"2023/12/21 21:44:51","endTime":"2023/12/26 21:44:51","maxSlot":432000,"rewardsDistributed":9684613204106,"account":121975,"syncingProgress":1.0},{"no":455,"status":"FINISHED","blkCount":21198,"outSum":181541758102269814,"txCount":453454,"startTime":"2023/12/16 21:44:51","endTime":"2023/12/21 21:44:51","maxSlot":432000,"rewardsDistributed":9933496917865,"account":124646,"syncingProgress":1.0},{"no":454,"status":"FINISHED","blkCount":21160,"outSum":186243233284244828,"txCount":459281,"startTime":"2023/12/11 21:44:51","endTime":"2023/12/16 21:44:51","maxSlot":432000,"rewardsDistributed":9949573199525,"account":141896,"syncingProgress":1.0},{"no":453,"status":"FINISHED","blkCount":20926,"outSum":215957066314617465,"txCount":473615,"startTime":"2023/12/06 21:44:51","endTime":"2023/12/11 21:44:51","maxSlot":432000,"rewardsDistributed":9867394366888,"account":159336,"syncingProgress":1.0},{"no":452,"status":"FINISHED","blkCount":21301,"outSum":152740877822639619,"txCount":345563,"startTime":"2023/12/01 21:44:51","endTime":"2023/12/06 21:44:51","maxSlot":432000,"rewardsDistributed":10043938258477,"account":122755,"syncingProgress":1.0},{"no":451,"status":"FINISHED","blkCount":21110,"outSum":111773416029451800,"txCount":306235,"startTime":"2023/11/26 21:44:51","endTime":"2023/12/01 21:44:51","maxSlot":432000,"rewardsDistributed":9934955263179,"account":106595,"syncingProgress":1.0},{"no":450,"status":"FINISHED","blkCount":20874,"outSum":110560632083129802,"txCount":261868,"startTime":"2023/11/21 21:44:51","endTime":"2023/11/26 21:44:51","maxSlot":432000,"rewardsDistributed":9853042547029,"account":105789,"syncingProgress":1.0},{"no":449,"status":"FINISHED","blkCount":21025,"outSum":119283701112468737,"txCount":284057,"startTime":"2023/11/16 21:44:51","endTime":"2023/11/21 21:44:51","maxSlot":432000,"rewardsDistributed":9893651940891,"account":102349,"syncingProgress":1.0},{"no":448,"status":"FINISHED","blkCount":21134,"outSum":118059162440190062,"txCount":293835,"startTime":"2023/11/11 21:44:51","endTime":"2023/11/16 21:44:51","maxSlot":432000,"rewardsDistributed":10027944051413,"account":102657,"syncingProgress":1.0},{"no":447,"status":"FINISHED","blkCount":21214,"outSum":132373995169666643,"txCount":302829,"startTime":"2023/11/06 21:44:51","endTime":"2023/11/11 21:44:51","maxSlot":432000,"rewardsDistributed":10092906628872,"account":111993,"syncingProgress":1.0},{"no":446,"status":"FINISHED","blkCount":21014,"outSum":141546854300300186,"txCount":297377,"startTime":"2023/11/01 21:44:51","endTime":"2023/11/06 21:44:51","maxSlot":432000,"rewardsDistributed":10060570456409,"account":107227,"syncingProgress":1.0},{"no":445,"status":"FINISHED","blkCount":20936,"outSum":117257762938663757,"txCount":274087,"startTime":"2023/10/27 21:44:51","endTime":"2023/11/01 21:44:51","maxSlot":432000,"rewardsDistributed":10044167033664,"account":104725,"syncingProgress":1.0},{"no":444,"status":"FINISHED","blkCount":21097,"outSum":125462723038203822,"txCount":303107,"startTime":"2023/10/22 21:44:51","endTime":"2023/10/27 21:44:51","maxSlot":432000,"rewardsDistributed":10121085185079,"account":103510,"syncingProgress":1.0},{"no":443,"status":"FINISHED","blkCount":21157,"outSum":104296428858596508,"txCount":253478,"startTime":"2023/10/17 21:44:51","endTime":"2023/10/22 21:44:51","maxSlot":432000,"rewardsDistributed":10141881912781,"account":82332,"syncingProgress":1.0},{"no":442,"status":"FINISHED","blkCount":20981,"outSum":94019566789057763,"txCount":291448,"startTime":"2023/10/12 21:44:51","endTime":"2023/10/17 21:44:51","maxSlot":432000,"rewardsDistributed":10086260642090,"account":82480,"syncingProgress":1.0},{"no":441,"status":"FINISHED","blkCount":21271,"outSum":110825792522673174,"txCount":269273,"startTime":"2023/10/07 21:44:51","endTime":"2023/10/12 21:44:51","maxSlot":432000,"rewardsDistributed":60264910312086,"account":87497,"syncingProgress":1.0},{"no":440,"status":"FINISHED","blkCount":21134,"outSum":128908393766721740,"txCount":277367,"startTime":"2023/10/02 21:44:51","endTime":"2023/10/07 21:44:51","maxSlot":432000,"rewardsDistributed":10017503644470,"account":89661,"syncingProgress":1.0},{"no":439,"status":"FINISHED","blkCount":21209,"outSum":128027211511676103,"txCount":297109,"startTime":"2023/09/27 21:44:51","endTime":"2023/10/02 21:44:51","maxSlot":432000,"rewardsDistributed":10185197067105,"account":89174,"syncingProgress":1.0},{"no":438,"status":"FINISHED","blkCount":20984,"outSum":119379120884739269,"txCount":279913,"startTime":"2023/09/22 21:44:51","endTime":"2023/09/27 21:44:51","maxSlot":432000,"rewardsDistributed":10061038717145,"account":91177,"syncingProgress":1.0},{"no":437,"status":"FINISHED","blkCount":21255,"outSum":94767063080241258,"txCount":223934,"startTime":"2023/09/17 21:44:51","endTime":"2023/09/22 21:44:51","maxSlot":432000,"rewardsDistributed":10183573586239,"account":79691,"syncingProgress":1.0},{"no":436,"status":"FINISHED","blkCount":21262,"outSum":89408617167610784,"txCount":226919,"startTime":"2023/09/12 21:44:51","endTime":"2023/09/17 21:44:51","maxSlot":432000,"rewardsDistributed":10203194634174,"account":76718,"syncingProgress":1.0},{"no":435,"status":"FINISHED","blkCount":21021,"outSum":102492333099098530,"txCount":243515,"startTime":"2023/09/07 21:44:51","endTime":"2023/09/12 21:44:51","maxSlot":432000,"rewardsDistributed":10162913447150,"account":82218,"syncingProgress":1.0},{"no":434,"status":"FINISHED","blkCount":20986,"outSum":102045173716486017,"txCount":235503,"startTime":"2023/09/02 21:44:51","endTime":"2023/09/07 21:44:51","maxSlot":432000,"rewardsDistributed":10230029777566,"account":80128,"syncingProgress":1.0},{"no":433,"status":"FINISHED","blkCount":20936,"outSum":111085040415464665,"txCount":291722,"startTime":"2023/08/28 21:44:51","endTime":"2023/09/02 21:44:51","maxSlot":432000,"rewardsDistributed":10166507535879,"account":90858,"syncingProgress":1.0},{"no":432,"status":"FINISHED","blkCount":20294,"outSum":101099939507623643,"txCount":231353,"startTime":"2023/08/23 21:44:51","endTime":"2023/08/28 21:44:51","maxSlot":432000,"rewardsDistributed":9837461702005,"account":79595,"syncingProgress":1.0},{"no":431,"status":"FINISHED","blkCount":20920,"outSum":105338733215993019,"txCount":249407,"startTime":"2023/08/18 21:44:51","endTime":"2023/08/23 21:44:51","maxSlot":432000,"rewardsDistributed":10170310359352,"account":82592,"syncingProgress":1.0},{"no":430,"status":"FINISHED","blkCount":21089,"outSum":120339806375069416,"txCount":267744,"startTime":"2023/08/13 21:44:51","endTime":"2023/08/18 21:44:51","maxSlot":432000,"rewardsDistributed":10243644983484,"account":95655,"syncingProgress":1.0},{"no":429,"status":"FINISHED","blkCount":21105,"outSum":121040973716840189,"txCount":268374,"startTime":"2023/08/08 21:44:51","endTime":"2023/08/13 21:44:51","maxSlot":432000,"rewardsDistributed":10253116343126,"account":83495,"syncingProgress":1.0},{"no":428,"status":"FINISHED","blkCount":21049,"outSum":142826819270978077,"txCount":343684,"startTime":"2023/08/03 21:44:51","endTime":"2023/08/08 21:44:51","maxSlot":432000,"rewardsDistributed":10249970628190,"account":93377,"syncingProgress":1.0},{"no":427,"status":"FINISHED","blkCount":21085,"outSum":141011344982229462,"txCount":324427,"startTime":"2023/07/29 21:44:51","endTime":"2023/08/03 21:44:51","maxSlot":432000,"rewardsDistributed":10230281991068,"account":94600,"syncingProgress":1.0},{"no":426,"status":"FINISHED","blkCount":20990,"outSum":151093339728945485,"txCount":354148,"startTime":"2023/07/24 21:44:51","endTime":"2023/07/29 21:44:51","maxSlot":432000,"rewardsDistributed":10376890303916,"account":96755,"syncingProgress":1.0},{"no":425,"status":"FINISHED","blkCount":21054,"outSum":180341413396816082,"txCount":363198,"startTime":"2023/07/19 21:44:51","endTime":"2023/07/24 21:44:51","maxSlot":432000,"rewardsDistributed":10404233377932,"account":108670,"syncingProgress":1.0},{"no":424,"status":"FINISHED","blkCount":21035,"outSum":151691098747491190,"txCount":357976,"startTime":"2023/07/14 21:44:51","endTime":"2023/07/19 21:44:51","maxSlot":432000,"rewardsDistributed":10426008390163,"account":112557,"syncingProgress":1.0},{"no":423,"status":"FINISHED","blkCount":20898,"outSum":194244728235272375,"txCount":440283,"startTime":"2023/07/09 21:44:51","endTime":"2023/07/14 21:44:51","maxSlot":432000,"rewardsDistributed":10389879744142,"account":150721,"syncingProgress":1.0},{"no":422,"status":"FINISHED","blkCount":21026,"outSum":196015338300341599,"txCount":393560,"startTime":"2023/07/04 21:44:51","endTime":"2023/07/09 21:44:51","maxSlot":432000,"rewardsDistributed":10476206793607,"account":115649,"syncingProgress":1.0},{"no":421,"status":"FINISHED","blkCount":20907,"outSum":193876500831666334,"txCount":369999,"startTime":"2023/06/29 21:44:51","endTime":"2023/07/04 21:44:51","maxSlot":432000,"rewardsDistributed":10440340383417,"account":121886,"syncingProgress":1.0},{"no":420,"status":"FINISHED","blkCount":20649,"outSum":209606012392762274,"txCount":381428,"startTime":"2023/06/24 21:44:51","endTime":"2023/06/29 21:44:51","maxSlot":432000,"rewardsDistributed":10323212520970,"account":111234,"syncingProgress":1.0},{"no":419,"status":"FINISHED","blkCount":20685,"outSum":213187909625868447,"txCount":358311,"startTime":"2023/06/19 21:44:51","endTime":"2023/06/24 21:44:51","maxSlot":432000,"rewardsDistributed":10370631960414,"account":113082,"syncingProgress":1.0},{"no":418,"status":"FINISHED","blkCount":21066,"outSum":211945372457195257,"txCount":328689,"startTime":"2023/06/14 21:44:51","endTime":"2023/06/19 21:44:51","maxSlot":432000,"rewardsDistributed":10585561511286,"account":105364,"syncingProgress":1.0},{"no":417,"status":"FINISHED","blkCount":20947,"outSum":229341415829835756,"txCount":375738,"startTime":"2023/06/09 21:44:51","endTime":"2023/06/14 21:44:51","maxSlot":432000,"rewardsDistributed":10583186126683,"account":137902,"syncingProgress":1.0},{"no":416,"status":"FINISHED","blkCount":21143,"outSum":271718768316501847,"txCount":459276,"startTime":"2023/06/04 21:44:51","endTime":"2023/06/09 21:44:51","maxSlot":432000,"rewardsDistributed":10692606919541,"account":145042,"syncingProgress":1.0},{"no":415,"status":"FINISHED","blkCount":20820,"outSum":340656360587128774,"txCount":490273,"startTime":"2023/05/30 21:44:51","endTime":"2023/06/04 21:44:51","maxSlot":432000,"rewardsDistributed":10208760561611,"account":154432,"syncingProgress":1.0},{"no":414,"status":"FINISHED","blkCount":21215,"outSum":330158448807042729,"txCount":444338,"startTime":"2023/05/25 21:44:51","endTime":"2023/05/30 21:44:51","maxSlot":432000,"rewardsDistributed":10434050592290,"account":107579,"syncingProgress":1.0},{"no":413,"status":"FINISHED","blkCount":21252,"outSum":220004855460046356,"txCount":405070,"startTime":"2023/05/20 21:44:51","endTime":"2023/05/25 21:44:51","maxSlot":432000,"rewardsDistributed":10572358977010,"account":101605,"syncingProgress":1.0},{"no":412,"status":"FINISHED","blkCount":20966,"outSum":156445485958934885,"txCount":327949,"startTime":"2023/05/15 21:44:51","endTime":"2023/05/20 21:44:51","maxSlot":432000,"rewardsDistributed":10334330798509,"account":97407,"syncingProgress":1.0},{"no":411,"status":"FINISHED","blkCount":21418,"outSum":123110712071520678,"txCount":320430,"startTime":"2023/05/10 21:44:51","endTime":"2023/05/15 21:44:51","maxSlot":432000,"rewardsDistributed":10721817741628,"account":98084,"syncingProgress":1.0},{"no":410,"status":"FINISHED","blkCount":20933,"outSum":153813088313559108,"txCount":393568,"startTime":"2023/05/05 21:44:51","endTime":"2023/05/10 21:44:51","maxSlot":432000,"rewardsDistributed":10878810464468,"account":105852,"syncingProgress":1.0},{"no":409,"status":"FINISHED","blkCount":21000,"outSum":140466376407199319,"txCount":308718,"startTime":"2023/04/30 21:44:51","endTime":"2023/05/05 21:44:51","maxSlot":432000,"rewardsDistributed":19866047943885,"account":101199,"syncingProgress":1.0},{"no":408,"status":"FINISHED","blkCount":21176,"outSum":125446553715567444,"txCount":247207,"startTime":"2023/04/25 21:44:51","endTime":"2023/04/30 21:44:51","maxSlot":432000,"rewardsDistributed":11227584541950,"account":125248,"syncingProgress":1.0},{"no":407,"status":"FINISHED","blkCount":21107,"outSum":121822429953368605,"txCount":266509,"startTime":"2023/04/20 21:44:51","endTime":"2023/04/25 21:44:51","maxSlot":432000,"rewardsDistributed":11309089242896,"account":161057,"syncingProgress":1.0},{"no":406,"status":"FINISHED","blkCount":20954,"outSum":136142077216284087,"txCount":268036,"startTime":"2023/04/15 21:44:51","endTime":"2023/04/20 21:44:51","maxSlot":432000,"rewardsDistributed":11129591839138,"account":156495,"syncingProgress":1.0},{"no":405,"status":"FINISHED","blkCount":20811,"outSum":154870592730050562,"txCount":288208,"startTime":"2023/04/10 21:44:51","endTime":"2023/04/15 21:44:51","maxSlot":432000,"rewardsDistributed":11338983639040,"account":129751,"syncingProgress":1.0},{"no":404,"status":"FINISHED","blkCount":20828,"outSum":120639852071601443,"txCount":242851,"startTime":"2023/04/05 21:44:51","endTime":"2023/04/10 21:44:51","maxSlot":432000,"rewardsDistributed":11499486243777,"account":105060,"syncingProgress":1.0},{"no":403,"status":"FINISHED","blkCount":20893,"outSum":130837682844463759,"txCount":276814,"startTime":"2023/03/31 21:44:51","endTime":"2023/04/05 21:44:51","maxSlot":432000,"rewardsDistributed":11684739808599,"account":118672,"syncingProgress":1.0},{"no":402,"status":"FINISHED","blkCount":21128,"outSum":124860622322330102,"txCount":253864,"startTime":"2023/03/26 21:44:51","endTime":"2023/03/31 21:44:51","maxSlot":432000,"rewardsDistributed":11908170302152,"account":110937,"syncingProgress":1.0},{"no":401,"status":"FINISHED","blkCount":20869,"outSum":130682175038505997,"txCount":302002,"startTime":"2023/03/21 21:44:51","endTime":"2023/03/26 21:44:51","maxSlot":432000,"rewardsDistributed":11758529438341,"account":110211,"syncingProgress":1.0},{"no":400,"status":"FINISHED","blkCount":21062,"outSum":141102954940981682,"txCount":335752,"startTime":"2023/03/16 21:44:51","endTime":"2023/03/21 21:44:51","maxSlot":432000,"rewardsDistributed":11936456144412,"account":126803,"syncingProgress":1.0},{"no":399,"status":"FINISHED","blkCount":20970,"outSum":145160573958525779,"txCount":306486,"startTime":"2023/03/11 21:44:51","endTime":"2023/03/16 21:44:51","maxSlot":432000,"rewardsDistributed":12016810146468,"account":120113,"syncingProgress":1.0},{"no":398,"status":"FINISHED","blkCount":21190,"outSum":127361998599905598,"txCount":277507,"startTime":"2023/03/06 21:44:51","endTime":"2023/03/11 21:44:51","maxSlot":432000,"rewardsDistributed":12179940831606,"account":108517,"syncingProgress":1.0},{"no":397,"status":"FINISHED","blkCount":21003,"outSum":117709951461169925,"txCount":287849,"startTime":"2023/03/01 21:44:51","endTime":"2023/03/06 21:44:51","maxSlot":432000,"rewardsDistributed":12147090146433,"account":105825,"syncingProgress":1.0},{"no":396,"status":"FINISHED","blkCount":21174,"outSum":100466857069982496,"txCount":308357,"startTime":"2023/02/24 21:44:51","endTime":"2023/03/01 21:44:51","maxSlot":432000,"rewardsDistributed":12259764317006,"account":109368,"syncingProgress":1.0},{"no":395,"status":"FINISHED","blkCount":21034,"outSum":109977568455778703,"txCount":289491,"startTime":"2023/02/19 21:44:51","endTime":"2023/02/24 21:44:51","maxSlot":432000,"rewardsDistributed":12303266221964,"account":113167,"syncingProgress":1.0},{"no":394,"status":"FINISHED","blkCount":20553,"outSum":120057607323652241,"txCount":300303,"startTime":"2023/02/14 21:44:51","endTime":"2023/02/19 21:44:51","maxSlot":432000,"rewardsDistributed":12201379401545,"account":118212,"syncingProgress":1.0},{"no":393,"status":"FINISHED","blkCount":20821,"outSum":95262571199524147,"txCount":342053,"startTime":"2023/02/09 21:44:51","endTime":"2023/02/14 21:44:51","maxSlot":432000,"rewardsDistributed":12381829566817,"account":129278,"syncingProgress":1.0},{"no":392,"status":"FINISHED","blkCount":20579,"outSum":107395985749177512,"txCount":403692,"startTime":"2023/02/04 21:44:51","endTime":"2023/02/09 21:44:51","maxSlot":432000,"rewardsDistributed":12298080911210,"account":129807,"syncingProgress":1.0},{"no":391,"status":"FINISHED","blkCount":21084,"outSum":92524788844426681,"txCount":441211,"startTime":"2023/01/30 21:44:51","endTime":"2023/02/04 21:44:51","maxSlot":432000,"rewardsDistributed":12653621378959,"account":140441,"syncingProgress":1.0},{"no":390,"status":"FINISHED","blkCount":20916,"outSum":70899247389824611,"txCount":351917,"startTime":"2023/01/25 21:44:51","endTime":"2023/01/30 21:44:51","maxSlot":432000,"rewardsDistributed":12561004372370,"account":125042,"syncingProgress":1.0},{"no":389,"status":"FINISHED","blkCount":20811,"outSum":60501983019472623,"txCount":338858,"startTime":"2023/01/20 21:44:51","endTime":"2023/01/25 21:44:51","maxSlot":432000,"rewardsDistributed":12504915426939,"account":132643,"syncingProgress":1.0},{"no":388,"status":"FINISHED","blkCount":21194,"outSum":60398689652000727,"txCount":346785,"startTime":"2023/01/15 21:44:51","endTime":"2023/01/20 21:44:51","maxSlot":432000,"rewardsDistributed":12745669255313,"account":129082,"syncingProgress":1.0},{"no":387,"status":"FINISHED","blkCount":21065,"outSum":60411874080335007,"txCount":389223,"startTime":"2023/01/10 21:44:51","endTime":"2023/01/15 21:44:51","maxSlot":432000,"rewardsDistributed":12700719399178,"account":139734,"syncingProgress":1.0},{"no":386,"status":"FINISHED","blkCount":20893,"outSum":53435171650788176,"txCount":428509,"startTime":"2023/01/05 21:44:51","endTime":"2023/01/10 21:44:51","maxSlot":432000,"rewardsDistributed":12489541159334,"account":142591,"syncingProgress":1.0},{"no":385,"status":"FINISHED","blkCount":21174,"outSum":46236384154634244,"txCount":360365,"startTime":"2022/12/31 21:44:51","endTime":"2023/01/05 21:44:51","maxSlot":432000,"rewardsDistributed":12816841685083,"account":141384,"syncingProgress":1.0},{"no":384,"status":"FINISHED","blkCount":20998,"outSum":43353179952722832,"txCount":330287,"startTime":"2022/12/26 21:44:51","endTime":"2022/12/31 21:44:51","maxSlot":432000,"rewardsDistributed":12727838243851,"account":135265,"syncingProgress":1.0},{"no":383,"status":"FINISHED","blkCount":20917,"outSum":38696021442134029,"txCount":315814,"startTime":"2022/12/21 21:44:51","endTime":"2022/12/26 21:44:51","maxSlot":432000,"rewardsDistributed":12613693393371,"account":118721,"syncingProgress":1.0},{"no":382,"status":"FINISHED","blkCount":21186,"outSum":47645950459495732,"txCount":364530,"startTime":"2022/12/16 21:44:51","endTime":"2022/12/21 21:44:51","maxSlot":432000,"rewardsDistributed":12688478647195,"account":145188,"syncingProgress":1.0},{"no":381,"status":"FINISHED","blkCount":20976,"outSum":50719861031527086,"txCount":418468,"startTime":"2022/12/11 21:44:51","endTime":"2022/12/16 21:44:51","maxSlot":432000,"rewardsDistributed":12625046840917,"account":156151,"syncingProgress":1.0},{"no":380,"status":"FINISHED","blkCount":21270,"outSum":48309292267597435,"txCount":331323,"startTime":"2022/12/06 21:44:51","endTime":"2022/12/11 21:44:51","maxSlot":432000,"rewardsDistributed":12839205850108,"account":119989,"syncingProgress":1.0},{"no":379,"status":"FINISHED","blkCount":20948,"outSum":64897975428998694,"txCount":338491,"startTime":"2022/12/01 21:44:51","endTime":"2022/12/06 21:44:51","maxSlot":432000,"rewardsDistributed":12661794573764,"account":127173,"syncingProgress":1.0}],"totalItems":479,"totalPages":5,"currentPage":0,"isDataOverSize":null}