{"data":[{"hash":"1d3e6450acd7bd96039cbceac293f4a2fcfb9832136e2ae9274dae5d6f083f6c","blockNo":10162658,"blockHash":"934848ccf17cd3c22f4e752e9bace5bc88883b001fcaf01a5c9f7bfe70ca2222","epochNo":477,"epochSlotNo":370414,"slot":121071214,"time":"2024/04/09 04:38:25","addressesInput":["DdzFFzCqrhszAisfe4k7wNnA8Ue4L3AyHVpdeewZkyrfScRqRptz6RxzzVdbvYNscoq7cWyz69sECE2tKwC7gKFiqu5dzLZfTs3ez1xy"],"addressesOutput":["addr1q80jvnfk2t6egh5aznllcgmykxtxcj92fdq9svx4mxh5g6t0g3ahafwawp8nqsylhvmdgqp08wyzgjay475hh4x5wetqf2jkcr","DdzFFzCqrhshbnmSsnPPbRo643CQBuRhLDJ4FuhQcKYnRt3vRJBF3EWvbp6d9vNxDzvBqszHVpe3Crw6d4CWU3ZeYwXxUa3nCBqPxHfg"],"fee":173817,"totalOutput":1999264330,"balance":167828950,"tokens":[]}],"totalItems":519,"totalPages":519,"currentPage":0,"isDataOverSize":null}