{"data":[{"hash":"1d3e6450acd7bd96039cbceac293f4a2fcfb9832136e2ae9274dae5d6f083f6c","blockNo":10162658,"blockHash":"934848ccf17cd3c22f4e752e9bace5bc88883b001fcaf01a5c9f7bfe70ca2222","epochNo":477,"epochSlotNo":370414,"slot":121071214,"time":"2024/04/09 04:38:25","addressesInput":["DdzFFzCqrhszAisfe4k7wNnA8Ue4L3AyHVpdeewZkyrfScRqRptz6RxzzVdbvYNscoq7cWyz69sECE2tKwC7gKFiqu5dzLZfTs3ez1xy"],"addressesOutput":["addr1q80jvnfk2t6egh5aznllcgmykxtxcj92fdq9svx4mxh5g6t0g3ahafwawp8nqsylhvmdgqp08wyzgjay475hh4x5wetqf2jkcr","DdzFFzCqrhshbnmSsnPPbRo643CQBuRhLDJ4FuhQcKYnRt3vRJBF3EWvbp6d9vNxDzvBqszHVpe3Crw6d4CWU3ZeYwXxUa3nCBqPxHfg"],"fee":173817,"totalOutput":1999264330,"balance":167828950,"tokens":[]},{"hash":"3ae9c979f28dbb235262990c590a782145728efbd7f86aad8999acb7b772b7ed","blockNo":10162506,"blockHash":"a2111f2f2951cb63312aa62c7ad64dd1f2284be98db0b03826ebaa2cde60f070","epochNo":477,"epochSlotNo":366704,"slot":121067504,"time":"2024/04/09 03:36:35","addressesInput":["addr1qypq9ryl8msm5fw460sk8mr47zavra9080akj0jyvakqqpm0g3ahafwawp8nqsylhvmdgqp08wyzgjay475hh4x5wetqngl8x8"],"addressesOutput":["addr1q8m546ljkj8m7cpqf38flvvx5d2wns80sfc2f9vw3n3lj8n0g3ahafwawp8nqsylhvmdgqp08wyzgjay475hh4x5wetqfcuv3l"],"fee":174301,"totalOutput":14781869,"balance":-2174301,"tokens":[]},{"hash":"5eea1df0b54fa654f8f55001e679016bce608b1e63910f06039cb3c5decccab9","blockNo":10162481,"blockHash":"56f18a1995bdc07280da945ffadf1df6e6be993aa66a2d8986395b9b0397f6d1","epochNo":477,"epochSlotNo":366025,"slot":121066825,"time":"2024/04/09 03:25:16","addressesInput":["addr1v804tgee0m3ww7z93zh64wr9flqh9psdhnxg6cykfudgulg6f633p"],"addressesOutput":["addr1q8wv7uzma2uyam08mwlpjaptm7zd9hyp2efrfphqztujldhjea7kmx6jvj0yfwsgfjs5fde25el3ft9lrnzlnxq0qu9s5q862e","DdzFFzCqrhsqStdHd4Ce28CEaGRiDEamSy9tdx4o37d5YPqEpHXYAXAxqHhV9JYEjmCxkSezW81vAsbmRFEW9VGrjLwxARmGDWu6HbeH","addr1v9dlp7la064zzjxaapts0jx0vadeukr8vcndfu363lqdz4cyrw2gg","addr1qypq9ryl8msm5fw460sk8mr47zavra9080akj0jyvakqqpm0g3ahafwawp8nqsylhvmdgqp08wyzgjay475hh4x5wetqngl8x8","addr1vywzw89pt54c4qk63gq69ke0yr72jx9pctnt4cxnqf57kms6a5j3w","addr1q9ape9hcd8qnpsd8pzczpmxgxjyqx8znytwtf2v46tdf4c0uld6ed4fk0nqs584htq0xthzd9cjshdwnf6wktp9teeesxd5qp0","addr1q9ww2xmfm7hll0zmu3plmwglzal3sk77cc5pya9fqwffyepse0zqf2z800etkh35ycl7a40qsg3n5kxfzttrq2x62csq7qqu04","addr1v804tgee0m3ww7z93zh64wr9flqh9psdhnxg6cykfudgulg6f633p"],"fee":191950,"totalOutput":14746897640,"balance":16956170,"tokens":[]},{"hash":"b737770773499b6d428aa7ce81765583692318359492b254e535281c2dbec795","blockNo":10154392,"blockHash":"36e19eb899a40ecdbfa93f7ac867b9801795534ccbf59a52d658d519c92d4d03","epochNo":477,"epochSlotNo":199625,"slot":120900425,"time":"2024/04/07 05:11:56","addressesInput":["addr1q9h0rtdmlzv5q499mvn06rnm366cgvfnrdcd2zjm763ztjm0g3ahafwawp8nqsylhvmdgqp08wyzgjay475hh4x5wetqact3ak","addr1q99rwsl3swf4sh5cdxqgqep3kjz0z2p4m4e5d3pj8va5kpt0g3ahafwawp8nqsylhvmdgqp08wyzgjay475hh4x5wetqsl85gf","addr1qxseye8gwxlglamnpepltc6e9wrwh9kxc3vvfp2erzz9wzm0g3ahafwawp8nqsylhvmdgqp08wyzgjay475hh4x5wetq2j397m"],"addressesOutput":["DdzFFzCqrht7XfR9GRHzX2j6tYdemzQ34fTYLmiGAp4R9DxC3Aoiv51mGYt24NmXEfhsWjL8hcpbuAotFPmhXaQYjFNQBsUgG85R85kL"],"fee":178189,"totalOutput":1015156100,"balance":-1015334289,"tokens":[]},{"hash":"5082bf8266a5f874881f53a5bea4117907b643601d843f6517c6ea6be390a614","blockNo":10154374,"blockHash":"4e07e092b3452944113f2962fc1634c603cd1a533b84b759e0e952bd94053237","epochNo":477,"epochSlotNo":199364,"slot":120900164,"time":"2024/04/07 05:07:35","addressesInput":["addr1qxmsm92yl6pwv8fwx7llt0sqnlff259txyg898sqr6mswht0g3ahafwawp8nqsylhvmdgqp08wyzgjay475hh4x5wetqz7sy05"],"addressesOutput":["addr1q9h0rtdmlzv5q499mvn06rnm366cgvfnrdcd2zjm763ztjm0g3ahafwawp8nqsylhvmdgqp08wyzgjay475hh4x5wetqact3ak"],"fee":171309,"totalOutput":599509330,"balance":1828691,"tokens":[]},{"hash":"e7dd55795305cda2a2650c2ddbb71e19cc9d9b37862927cf2136f09ec1e73ecf","blockNo":10150318,"blockHash":"252e6d2ec29f6c7ce072c8feed4a6224c5824cd232ec707b0d202c46a7a12ecd","epochNo":477,"epochSlotNo":116597,"slot":120817397,"time":"2024/04/06 06:08:08","addressesInput":["addr1qyddcj8jzveu9080vpg4tutt4rvnmlaklsqdja6d0g9pxrt0g3ahafwawp8nqsylhvmdgqp08wyzgjay475hh4x5wetqwzz4gk"],"addressesOutput":["DdzFFzCqrhsfLzbjfUCpc35omPgAJUcy9fj9bwEqJEoJ9M5e1skt754CXj5yaXkRRiT5GHFqUz5vF3aqwWzuexe6Lav8z6a6yrRekr3N","addr1q99rwsl3swf4sh5cdxqgqep3kjz0z2p4m4e5d3pj8va5kpt0g3ahafwawp8nqsylhvmdgqp08wyzgjay475hh4x5wetqsl85gf"],"fee":168977,"totalOutput":610416833,"balance":-250168977,"tokens":[]},{"hash":"745c678c21dfe929c361fe9253daa8420575dab379374ec12d74ebf4865a41d5","blockNo":10146560,"blockHash":"f5b21bb34bfb9118590b52962e8f7f0a59e7925d5c493acec005c24a1f977556","epochNo":477,"epochSlotNo":37601,"slot":120738401,"time":"2024/04/05 08:11:32","addressesInput":["DdzFFzCqrhszAisfe4k7wNnA8Ue4L3AyHVpdeewZkyrfScRqRptz6RxzzVdbvYNscoq7cWyz69sECE2tKwC7gKFiqu5dzLZfTs3ez1xy","DdzFFzCqrhsxpYAyPr2QMCkJN8eNHg7ctQAWhrVZxM9K1mYmMJ72RxBLycikDdMgmueF4YEeCCyK3VqSnPeemMYB57kQLXmRQQzcu56A"],"addressesOutput":["addr1qyddcj8jzveu9080vpg4tutt4rvnmlaklsqdja6d0g9pxrt0g3ahafwawp8nqsylhvmdgqp08wyzgjay475hh4x5wetqwzz4gk","DdzFFzCqrht3ureLAMm33Tu1xXXqsKbpYHBFnjyqbsAJpqy3VzjWf191JUCokA2k9tazV7Zv5dFkyUMnJhbPBEZnyCW37pGpHRmtYMvS"],"fee":183497,"totalOutput":1055053088,"balance":610585810,"tokens":[]},{"hash":"fca9e0d17ad578e90ab7f4dbe6001c250962eda3865e8a0b85b8f7d2f555dab2","blockNo":10146224,"blockHash":"c6f4ce0e33d76734a4290ff63732e50a351300ca6383799a580d4c6f459a09e5","epochNo":477,"epochSlotNo":30107,"slot":120730907,"time":"2024/04/05 06:06:38","addressesInput":["addr1v804tgee0m3ww7z93zh64wr9flqh9psdhnxg6cykfudgulg6f633p"],"addressesOutput":["Ae2tdPwUPEZ7nAGTkhaiTEUDBuMUzep1tfXdyfdPffQFXsuez6Za6zMWsym","addr1q9l26055y0gjs9hkxv3zgqayu320dj0r3v2pawc36ts7ea6tqfm38pt04dnqlc8v77vzctzq6tjmxlhgaxct6xr0mtesul5dse","addr1qxseye8gwxlglamnpepltc6e9wrwh9kxc3vvfp2erzz9wzm0g3ahafwawp8nqsylhvmdgqp08wyzgjay475hh4x5wetq2j397m","addr1q8qmj9m5h6hp2aw2gq7jmflgd8ewnleysgl4hrrlm7kmh87phythf04wz46u5spa9kn7s60ja8ljfq3ltwx8lhadhw0s43htx2","addr1v804tgee0m3ww7z93zh64wr9flqh9psdhnxg6cykfudgulg6f633p"],"fee":183150,"totalOutput":10079317812,"balance":55408126,"tokens":[]},{"hash":"0f4b42ddc4434759bb24e8f54c85ca3897240df3d87be670089130e3fff5391c","blockNo":10141977,"blockHash":"9a188c8e90369c05b0c68662f8f66ca25a37e0e4176d88bd9fcdb2ed25dbe96b","epochNo":476,"epochSlotNo":374602,"slot":120643402,"time":"2024/04/04 05:48:13","addressesInput":["addr1qygccwdt2n4yr7526nhct9ft902agn2ydvkclcfvud8hqjr0g3ahafwawp8nqsylhvmdgqp08wyzgjay475hh4x5wetqh2q5a8"],"addressesOutput":["addr1qxmsm92yl6pwv8fwx7llt0sqnlff259txyg898sqr6mswht0g3ahafwawp8nqsylhvmdgqp08wyzgjay475hh4x5wetqz7sy05"],"fee":174301,"totalOutput":597680639,"balance":-2174301,"tokens":[]},{"hash":"a512032e3b500aef34fcdb39fe63f6664ab0d627e437f75d50a6af0402fef912","blockNo":10141963,"blockHash":"6865090a8742a6d140b2265ec69c58faab4b47829ffd3b5e84f6fcb812af12d7","epochNo":476,"epochSlotNo":374193,"slot":120642993,"time":"2024/04/04 05:41:24","addressesInput":["DdzFFzCqrhszAisfe4k7wNnA8Ue4L3AyHVpdeewZkyrfScRqRptz6RxzzVdbvYNscoq7cWyz69sECE2tKwC7gKFiqu5dzLZfTs3ez1xy"],"addressesOutput":["addr1qygccwdt2n4yr7526nhct9ft902agn2ydvkclcfvud8hqjr0g3ahafwawp8nqsylhvmdgqp08wyzgjay475hh4x5wetqh2q5a8","DdzFFzCqrhso5C1rBqyNvMdgu2teaSw2Lw7cphvYi6NGP31WhA5j4ohXMhmjQC46pSE3fpqVp5ynxkzpYgH6m4ge9pWQxhSrhqRQeetF"],"fee":173817,"totalOutput":9999264330,"balance":599854940,"tokens":[]}],"totalItems":519,"totalPages":52,"currentPage":0,"isDataOverSize":null}