{"data":[{"hash":"abe769b9a2bbefeb35277ab6ecdc5ce3f012adf6334f91525fc7f73918b20686","blockNo":10172464,"blockHash":"6c718d9de7acb0aa61177751a5ce575bfa886d008a8bc4c9394ced85f37bf184","epochNo":478,"epochSlotNo":136888,"slot":121269688,"time":"2024/04/11 11:46:19","addressesInput":["addr1qxcm3fdjxr68c4p3azpha7955qfc3g8w65gt2zggqg6h0u7727ftmzaxea02vs6np2r0s80fyy9jj3fnzkujwuvs2wxqmgh2m6"],"addressesOutput":["addr1zyq0kyrml023kwjk8zr86d5gaxrt5w8lxnah8r6m6s4jp4g3r6dxnzml343sx8jweqn4vn3fz2kj8kgu9czghx0jrsyqqktyhv","addr1qxcm3fdjxr68c4p3azpha7955qfc3g8w65gt2zggqg6h0u7727ftmzaxea02vs6np2r0s80fyy9jj3fnzkujwuvs2wxqmgh2m6"],"fee":258030,"totalOutput":121315383,"balance":null,"tokens":[]}],"totalItems":2129666,"totalPages":2129666,"currentPage":0,"isDataOverSize":null}