{"data":[{"id":8002857,"name":"43617264616e6f426f72656441706532393236","displayName":"CardanoBoredApe2926","policy":"4429f7b432125357388b1d676c2d503b6d6fc78c414934bef9882e26","policyIsNativeScript":false,"fingerprint":"asset18eatn2ymzs00nzjkxnkqtqulcssymepk7ah6ph","txCount":12,"supply":"1","totalVolume":"3","createdOn":"2023/03/19 22:12:57"},{"id":8003005,"name":"43617264616e6f426f72656441706532373630","displayName":"CardanoBoredApe2760","policy":"4429f7b432125357388b1d676c2d503b6d6fc78c414934bef9882e26","policyIsNativeScript":false,"fingerprint":"asset1u2228p7ks0r38dq8l2qufqczpuz8qgzp6jug5x","txCount":65,"supply":"1","totalVolume":"18","createdOn":"2023/03/19 22:01:46"},{"id":8004211,"name":"43617264616e6f426f72656441706532383930","displayName":"CardanoBoredApe2890","policy":"4429f7b432125357388b1d676c2d503b6d6fc78c414934bef9882e26","policyIsNativeScript":false,"fingerprint":"asset1rg79tan47yj87x9uzy7q7e293zz4tqm2pn2kz4","txCount":36,"supply":"1","totalVolume":"5","createdOn":"2023/03/19 22:02:16"},{"id":8003160,"name":"43617264616e6f426f72656441706533323933","displayName":"CardanoBoredApe3293","policy":"4429f7b432125357388b1d676c2d503b6d6fc78c414934bef9882e26","policyIsNativeScript":false,"fingerprint":"asset1d94m0uj8g78zpdz8hcgkrp573vcgjyxhawkv4q","txCount":23,"supply":"1","totalVolume":"5","createdOn":"2023/03/19 22:02:16"},{"id":8003768,"name":"43617264616e6f426f72656441706532383437","displayName":"CardanoBoredApe2847","policy":"4429f7b432125357388b1d676c2d503b6d6fc78c414934bef9882e26","policyIsNativeScript":false,"fingerprint":"asset1e5shz5caxwue5jcmzrde5hsvk7jvnwwm3tz57j","txCount":24,"supply":"1","totalVolume":"5","createdOn":"2023/03/19 22:05:58"},{"id":8006146,"name":"43617264616e6f426f72656441706533363231","displayName":"CardanoBoredApe3621","policy":"4429f7b432125357388b1d676c2d503b6d6fc78c414934bef9882e26","policyIsNativeScript":false,"fingerprint":"asset14hx290eaa8v83cpx4xkex67x485n9plyshhn5q","txCount":53,"supply":"1","totalVolume":"6","createdOn":"2023/03/19 22:19:55"},{"id":8007421,"name":"43617264616e6f426f72656441706533333533","displayName":"CardanoBoredApe3353","policy":"4429f7b432125357388b1d676c2d503b6d6fc78c414934bef9882e26","policyIsNativeScript":false,"fingerprint":"asset1n25rgnmn8s9ne0sx0xxxaqa3t6ajtnnf6uhvrg","txCount":27,"supply":"1","totalVolume":"14","createdOn":"2023/03/19 23:22:12"},{"id":8008464,"name":"43617264616e6f426f72656441706531383135","displayName":"CardanoBoredApe1815","policy":"4429f7b432125357388b1d676c2d503b6d6fc78c414934bef9882e26","policyIsNativeScript":false,"fingerprint":"asset19c9xzyzscw89hm2684xhu8mkqk5ydvrpksz2v8","txCount":12,"supply":"1","totalVolume":"4","createdOn":"2023/03/20 00:44:23"},{"id":8003225,"name":"43617264616e6f426f72656441706531333330","displayName":"CardanoBoredApe1330","policy":"4429f7b432125357388b1d676c2d503b6d6fc78c414934bef9882e26","policyIsNativeScript":false,"fingerprint":"asset1z8jztrrm0nx9uknxe5ldlt5zj3l5zvcczcxptr","txCount":36,"supply":"1","totalVolume":"2","createdOn":"2023/03/19 22:17:05"},{"id":8003529,"name":"43617264616e6f426f72656441706533373237","displayName":"CardanoBoredApe3727","policy":"4429f7b432125357388b1d676c2d503b6d6fc78c414934bef9882e26","policyIsNativeScript":false,"fingerprint":"asset16r5m0u9kdpncnxzs9zscq5z5n0ylxa0gt9kc60","txCount":36,"supply":"1","totalVolume":"1","createdOn":"2023/03/19 22:01:06"}],"totalItems":5000,"totalPages":500,"currentPage":0,"isDataOverSize":null}