{"data":[{"address":"addr1z8snz7c4974vzdpxu65ruphl3zjdvtxw8strf2c2tmqnxz2j2c79gy9l76sdg0xwhd7r0c0kna0tycz4y5s6mlenh8pq0xmsha","txCount":2181451,"balance":60936494302167830}],"totalItems":94083,"totalPages":94083,"currentPage":0,"isDataOverSize":null}