{"data":[{"time":"2024/04/09 03:36:35","tickerName":"CRDN2","slotNo":121067504,"poolData":"{\"name\":\"CARDANIANS.io #3\",\"ticker\":\"CRDN2\",\"description\":\"We are guards of cardano - we are Cardanians.\",\"homepage\":\"https://cardanians.io\",\"extended\":\"https://cardanians.io/_storage/pool-crdn2-extended.json\"}","blockNo":10162506,"poolId":"pool189lsf6c2upyhmrzddyvyfjxxkqnte9pw8aqx7f4cuf85sjxlm02","epochNo":477,"txHash":"3ae9c979f28dbb235262990c590a782145728efbd7f86aad8999acb7b772b7ed","epochSlotNo":366704}],"totalItems":38,"totalPages":38,"currentPage":0,"isDataOverSize":null}