{"data":[{"reportId":385,"reportName":"Report1_pool1mv9jm887f4gdpr0f5p8rerewjsdgvd29lt2awtdnmj3ggkq973a","epochRanges":[0,300],"isPoolSize":true,"isFeesPaid":true,"eventRegistration":true,"eventDeregistration":true,"eventReward":true,"eventPoolUpdate":true,"createdAt":"2024/04/11 11:47:36","status":"IN_PROGRESS"},{"reportId":384,"reportName":"Report1_pool1mv9jm887f4gdpr0f5p8rerewjsdgvd29lt2awtdnmj3ggkq973a","epochRanges":[0,300],"isPoolSize":true,"isFeesPaid":true,"eventRegistration":true,"eventDeregistration":true,"eventReward":true,"eventPoolUpdate":true,"createdAt":"2024/04/11 11:19:50","status":"GENERATED"},{"reportId":383,"reportName":"Report1_pool1mv9jm887f4gdpr0f5p8rerewjsdgvd29lt2awtdnmj3ggkq973a","epochRanges":[0,300],"isPoolSize":true,"isFeesPaid":true,"eventRegistration":true,"eventDeregistration":true,"eventReward":true,"eventPoolUpdate":true,"createdAt":"2024/04/11 11:11:09","status":"GENERATED"},{"reportId":382,"reportName":"Report1_pool1mv9jm887f4gdpr0f5p8rerewjsdgvd29lt2awtdnmj3ggkq973a","epochRanges":[0,300],"isPoolSize":true,"isFeesPaid":true,"eventRegistration":true,"eventDeregistration":true,"eventReward":true,"eventPoolUpdate":true,"createdAt":"2024/04/11 10:29:09","status":"GENERATED"},{"reportId":381,"reportName":"Report1_pool1mv9jm887f4gdpr0f5p8rerewjsdgvd29lt2awtdnmj3ggkq973a","epochRanges":[0,300],"isPoolSize":true,"isFeesPaid":true,"eventRegistration":true,"eventDeregistration":true,"eventReward":true,"eventPoolUpdate":true,"createdAt":"2024/04/11 10:07:59","status":"GENERATED"},{"reportId":380,"reportName":"Report1_pool1mv9jm887f4gdpr0f5p8rerewjsdgvd29lt2awtdnmj3ggkq973a","epochRanges":[0,300],"isPoolSize":true,"isFeesPaid":true,"eventRegistration":true,"eventDeregistration":true,"eventReward":true,"eventPoolUpdate":true,"createdAt":"2024/04/11 10:04:40","status":"GENERATED"},{"reportId":379,"reportName":"Report1_pool1mv9jm887f4gdpr0f5p8rerewjsdgvd29lt2awtdnmj3ggkq973a","epochRanges":[0,300],"isPoolSize":true,"isFeesPaid":true,"eventRegistration":true,"eventDeregistration":true,"eventReward":true,"eventPoolUpdate":true,"createdAt":"2024/04/11 09:57:48","status":"GENERATED"},{"reportId":378,"reportName":"Report1_pool1mv9jm887f4gdpr0f5p8rerewjsdgvd29lt2awtdnmj3ggkq973a","epochRanges":[0,300],"isPoolSize":true,"isFeesPaid":true,"eventRegistration":true,"eventDeregistration":true,"eventReward":true,"eventPoolUpdate":true,"createdAt":"2024/04/11 09:53:54","status":"GENERATED"},{"reportId":377,"reportName":"Report1_pool1mv9jm887f4gdpr0f5p8rerewjsdgvd29lt2awtdnmj3ggkq973a","epochRanges":[0,300],"isPoolSize":true,"isFeesPaid":true,"eventRegistration":true,"eventDeregistration":true,"eventReward":true,"eventPoolUpdate":true,"createdAt":"2024/04/11 09:49:38","status":"GENERATED"},{"reportId":376,"reportName":"Report1_pool1mv9jm887f4gdpr0f5p8rerewjsdgvd29lt2awtdnmj3ggkq973a","epochRanges":[0,300],"isPoolSize":true,"isFeesPaid":true,"eventRegistration":true,"eventDeregistration":true,"eventReward":true,"eventPoolUpdate":true,"createdAt":"2024/04/11 09:48:23","status":"GENERATED"},{"reportId":375,"reportName":"Report1_pool1mv9jm887f4gdpr0f5p8rerewjsdgvd29lt2awtdnmj3ggkq973a","epochRanges":[0,300],"isPoolSize":true,"isFeesPaid":true,"eventRegistration":true,"eventDeregistration":true,"eventReward":true,"eventPoolUpdate":true,"createdAt":"2024/04/11 09:44:11","status":"GENERATED"},{"reportId":374,"reportName":"Report1_pool1mv9jm887f4gdpr0f5p8rerewjsdgvd29lt2awtdnmj3ggkq973a","epochRanges":[0,300],"isPoolSize":true,"isFeesPaid":true,"eventRegistration":true,"eventDeregistration":true,"eventReward":true,"eventPoolUpdate":true,"createdAt":"2024/04/11 09:28:46","status":"GENERATED"},{"reportId":373,"reportName":"Report1_pool1mv9jm887f4gdpr0f5p8rerewjsdgvd29lt2awtdnmj3ggkq973a","epochRanges":[0,300],"isPoolSize":true,"isFeesPaid":true,"eventRegistration":true,"eventDeregistration":true,"eventReward":true,"eventPoolUpdate":true,"createdAt":"2024/04/11 09:27:18","status":"GENERATED"},{"reportId":372,"reportName":"Report1_pool1mv9jm887f4gdpr0f5p8rerewjsdgvd29lt2awtdnmj3ggkq973a","epochRanges":[0,300],"isPoolSize":true,"isFeesPaid":true,"eventRegistration":true,"eventDeregistration":true,"eventReward":true,"eventPoolUpdate":true,"createdAt":"2024/04/11 09:05:29","status":"GENERATED"},{"reportId":371,"reportName":"Report1_pool1mv9jm887f4gdpr0f5p8rerewjsdgvd29lt2awtdnmj3ggkq973a","epochRanges":[0,300],"isPoolSize":true,"isFeesPaid":true,"eventRegistration":true,"eventDeregistration":true,"eventReward":true,"eventPoolUpdate":true,"createdAt":"2024/04/11 09:02:23","status":"GENERATED"},{"reportId":370,"reportName":"Report1_pool1mv9jm887f4gdpr0f5p8rerewjsdgvd29lt2awtdnmj3ggkq973a","epochRanges":[0,300],"isPoolSize":true,"isFeesPaid":true,"eventRegistration":true,"eventDeregistration":true,"eventReward":true,"eventPoolUpdate":true,"createdAt":"2024/04/11 08:11:16","status":"GENERATED"},{"reportId":369,"reportName":"Report1_pool1mv9jm887f4gdpr0f5p8rerewjsdgvd29lt2awtdnmj3ggkq973a","epochRanges":[0,300],"isPoolSize":true,"isFeesPaid":true,"eventRegistration":true,"eventDeregistration":true,"eventReward":true,"eventPoolUpdate":true,"createdAt":"2024/04/11 07:53:24","status":"GENERATED"},{"reportId":368,"reportName":"Report1_pool1mv9jm887f4gdpr0f5p8rerewjsdgvd29lt2awtdnmj3ggkq973a","epochRanges":[0,300],"isPoolSize":true,"isFeesPaid":true,"eventRegistration":true,"eventDeregistration":true,"eventReward":true,"eventPoolUpdate":true,"createdAt":"2024/04/11 07:52:35","status":"GENERATED"},{"reportId":367,"reportName":"Report1_pool1mv9jm887f4gdpr0f5p8rerewjsdgvd29lt2awtdnmj3ggkq973a","epochRanges":[0,300],"isPoolSize":true,"isFeesPaid":true,"eventRegistration":true,"eventDeregistration":true,"eventReward":true,"eventPoolUpdate":true,"createdAt":"2024/04/10 13:12:00","status":"GENERATED"},{"reportId":366,"reportName":"Report1_pool1mv9jm887f4gdpr0f5p8rerewjsdgvd29lt2awtdnmj3ggkq973a","epochRanges":[0,300],"isPoolSize":true,"isFeesPaid":true,"eventRegistration":true,"eventDeregistration":true,"eventReward":true,"eventPoolUpdate":true,"createdAt":"2024/04/10 08:07:35","status":"GENERATED"}],"totalItems":384,"totalPages":20,"currentPage":0,"isDataOverSize":null}