{"data":[{"policy":"1e62c6c94cbd1a964e0f76dd9f8cdd83a8f000cfa242a20f9b8570c1","name":"4164616c616e74696342756464696573313335","displayName":"AdalanticBuddies135","fingerprint":"asset1wgavu2ku99hlzqq5skjeh57dmqjg98uly59w9u","quantity":1},{"policy":"21df12480552592031f6f4d0db4cf6f0de6f4a5c2eb63f3b5062580d","name":"43617264614c6f72647a3136","displayName":"CardaLordz16","fingerprint":"asset17kgf38m2pthf30yta39d0rryta3s82dfc4j9ms","quantity":1},{"policy":"11140b49b060dbddd24462ab86f22c0d013006c233228c7f339afcf2","name":"4164616c616e746963446f6c7068696e30343031","displayName":"AdalanticDolphin0401","fingerprint":"asset17nrulyr5mlfgx3luj596pafexc2aqkyf3gy0ye","quantity":1},{"policy":"11140b49b060dbddd24462ab86f22c0d013006c233228c7f339afcf2","name":"4164616c616e746963446f6c7068696e30313937","displayName":"AdalanticDolphin0197","fingerprint":"asset19m3r9q9kslvsdpcuk8hwtdmg8lk5n0tf730dkv","quantity":1},{"policy":"f11ddbdadbc7b78b7110293281844ba8acac918f1ed5767539d7d52e","name":"476f6f667947616e6734393330","displayName":"GoofyGang4930","fingerprint":"asset1zmr44uvmm0qc0qx54gxlfu0nfesljhmnsnnhae","quantity":1},{"policy":"f11ddbdadbc7b78b7110293281844ba8acac918f1ed5767539d7d52e","name":"476f6f667947616e6732393035","displayName":"GoofyGang2905","fingerprint":"asset1dhkvwkak88ahh4aqxdfl4vhvkx6vmc2zf30sj9","quantity":1},{"policy":"aa63d7de85fb677012ab0f3effa8ea1475d569c3801420b475efaefa","name":"55474c593033363132","displayName":"UGLY03612","fingerprint":"asset1xfzpkfdqhkajss56a4cnzw6fpj5majf6rckcr5","quantity":1},{"policy":"4277af377ea2832f66d907636590bcbe822e4b009d254d28d84bd7cb","name":"43617264616e6f4b69647a303034374643303138","displayName":"CardanoKidz0047FC018","fingerprint":"asset15edr9q4myxwhpu32dddaekdnfsuard6q5ctrsz","quantity":1},{"policy":"e986d38f4ead45a4f909cb51d61d8d95efc72b12d9302cdd040974d1","name":"486f736b696e736f6e7336333739","displayName":"Hoskinsons6379","fingerprint":"asset1vjjemxqaq7h85npxty9nhafttv3gszthpfkcrw","quantity":1},{"policy":"4277af377ea2832f66d907636590bcbe822e4b009d254d28d84bd7cb","name":"43617264616e6f4b69647a303034364643313833","displayName":"CardanoKidz0046FC183","fingerprint":"asset15udtmefxe0ggk8ptaffpu58ng9ud4jkxena6wx","quantity":1}],"totalItems":12717,"totalPages":1272,"currentPage":0,"isDataOverSize":null}