{"data":[{"hash":"33db93a23c2645d8e2b54948f5055c0f543f33e2b62fb724a9679fed07816c0c","blockNo":8864188,"blockHash":"50e51bba9e3df252a83f46782b721fac35e09b1c311ce8a71e8bd3ea0e6ef53e","epochNo":416,"epochSlotNo":33120,"slot":94381920,"time":"2023/06/05 06:56:51","addressesInput":["addr1qx4lr3y0ulc8qnucz3hta576400gm8vdslwpa5zdv2gte9h2q298tpdhl5sr4wj6gdn06gak7xac0u3lycrrs7sv4fkq09gzup"],"addressesOutput":["addr1qxmcc5q5q5fzuygst70zrkf2xnu9rdptuk502ag36qtpqtg4rskquvxrwn6p0amuk4vswqr4sl4p7cr95m9dtjdkkf0q8s6ryy"],"fee":165193,"totalOutput":999834807,"balance":null,"tokens":[]}],"totalItems":338,"totalPages":338,"currentPage":0,"isDataOverSize":null}