{"data":[{"epochNo":430,"amount":1034001461,"time":"2023/08/14 14:35:25","type":"REWARD_WITHDRAWN"},{"epochNo":430,"amount":1034001461,"time":"2023/08/13 21:45:03","type":"REWARD_RECEIVED"},{"epochNo":429,"amount":1379294216,"time":"2023/08/13 21:44:32","type":"REWARD_WITHDRAWN"},{"epochNo":429,"amount":1379294216,"time":"2023/08/08 21:45:12","type":"REWARD_RECEIVED"},{"epochNo":428,"amount":1194095685,"time":"2023/08/08 21:44:29","type":"REWARD_WITHDRAWN"},{"epochNo":428,"amount":1194095685,"time":"2023/08/03 21:44:55","type":"REWARD_RECEIVED"},{"epochNo":427,"amount":1696461018,"time":"2023/08/03 21:44:49","type":"REWARD_WITHDRAWN"},{"epochNo":427,"amount":1696461018,"time":"2023/07/29 21:45:43","type":"REWARD_RECEIVED"},{"epochNo":426,"amount":1685871301,"time":"2023/07/29 21:44:44","type":"REWARD_WITHDRAWN"},{"epochNo":426,"amount":1685871301,"time":"2023/07/24 21:45:42","type":"REWARD_RECEIVED"},{"epochNo":425,"amount":503030436,"time":"2023/07/24 21:44:37","type":"REWARD_WITHDRAWN"},{"epochNo":425,"amount":503030436,"time":"2023/07/19 21:45:17","type":"REWARD_RECEIVED"},{"epochNo":424,"amount":950097454,"time":"2023/07/19 21:44:40","type":"REWARD_WITHDRAWN"},{"epochNo":424,"amount":950097454,"time":"2023/07/14 21:44:58","type":"REWARD_RECEIVED"},{"epochNo":423,"amount":1088987650,"time":"2023/07/14 21:44:36","type":"REWARD_WITHDRAWN"},{"epochNo":423,"amount":1088987650,"time":"2023/07/09 21:44:51","type":"REWARD_RECEIVED"},{"epochNo":422,"amount":1231600721,"time":"2023/07/09 21:44:48","type":"REWARD_WITHDRAWN"},{"epochNo":422,"amount":1231600721,"time":"2023/07/04 21:45:05","type":"REWARD_RECEIVED"},{"epochNo":421,"amount":1065524318,"time":"2023/07/04 21:44:43","type":"REWARD_WITHDRAWN"},{"epochNo":421,"amount":1065524318,"time":"2023/06/29 21:46:01","type":"REWARD_RECEIVED"}],"totalItems":62,"totalPages":4,"currentPage":0}