{"data":[{"hash":"c12ac2cdff1a8c014bb7a40dcc720c9b21be22ea97eb2a698d26f5a7286ed1e2","blockNo":10079507,"blockHash":"1ff2598bdd51b03776dd3c20f003ac2f737b881101f57e6a99e77085e268cf5c","epochNo":473,"epochSlotNo":386727,"slot":119359527,"time":"2024/03/20 09:10:18","addressesInput":["addr1q8elqhkuvtyelgcedpup58r893awhg3l87a4rz5d5acatuj9y84nruafrmta2rewd5l46g8zxy4l49ly8kye79ddr3ksqal35g","addr1q8elqhkuvtyelgcedpup58r893awhg3l87a4rz5d5acatuj9y84nruafrmta2rewd5l46g8zxy4l49ly8kye79ddr3ksqal35g","addr1q8elqhkuvtyelgcedpup58r893awhg3l87a4rz5d5acatuj9y84nruafrmta2rewd5l46g8zxy4l49ly8kye79ddr3ksqal35g","addr1q8elqhkuvtyelgcedpup58r893awhg3l87a4rz5d5acatuj9y84nruafrmta2rewd5l46g8zxy4l49ly8kye79ddr3ksqal35g","addr1q8elqhkuvtyelgcedpup58r893awhg3l87a4rz5d5acatuj9y84nruafrmta2rewd5l46g8zxy4l49ly8kye79ddr3ksqal35g","addr1q8elqhkuvtyelgcedpup58r893awhg3l87a4rz5d5acatuj9y84nruafrmta2rewd5l46g8zxy4l49ly8kye79ddr3ksqal35g","addr1q8elqhkuvtyelgcedpup58r893awhg3l87a4rz5d5acatuj9y84nruafrmta2rewd5l46g8zxy4l49ly8kye79ddr3ksqal35g","addr1q8elqhkuvtyelgcedpup58r893awhg3l87a4rz5d5acatuj9y84nruafrmta2rewd5l46g8zxy4l49ly8kye79ddr3ksqal35g","addr1q8elqhkuvtyelgcedpup58r893awhg3l87a4rz5d5acatuj9y84nruafrmta2rewd5l46g8zxy4l49ly8kye79ddr3ksqal35g","addr1q8elqhkuvtyelgcedpup58r893awhg3l87a4rz5d5acatuj9y84nruafrmta2rewd5l46g8zxy4l49ly8kye79ddr3ksqal35g","addr1q8elqhkuvtyelgcedpup58r893awhg3l87a4rz5d5acatuj9y84nruafrmta2rewd5l46g8zxy4l49ly8kye79ddr3ksqal35g","addr1q8elqhkuvtyelgcedpup58r893awhg3l87a4rz5d5acatuj9y84nruafrmta2rewd5l46g8zxy4l49ly8kye79ddr3ksqal35g","Ae2tdPwUPEYwFx4dmJheyNPPYXtvHbJLeCaA96o6Y2iiUL18cAt7AizN2zG","addr1q8elqhkuvtyelgcedpup58r893awhg3l87a4rz5d5acatuj9y84nruafrmta2rewd5l46g8zxy4l49ly8kye79ddr3ksqal35g","Ae2tdPwUPEYwFx4dmJheyNPPYXtvHbJLeCaA96o6Y2iiUL18cAt7AizN2zG","addr1q8elqhkuvtyelgcedpup58r893awhg3l87a4rz5d5acatuj9y84nruafrmta2rewd5l46g8zxy4l49ly8kye79ddr3ksqal35g","addr1q8elqhkuvtyelgcedpup58r893awhg3l87a4rz5d5acatuj9y84nruafrmta2rewd5l46g8zxy4l49ly8kye79ddr3ksqal35g","addr1q8elqhkuvtyelgcedpup58r893awhg3l87a4rz5d5acatuj9y84nruafrmta2rewd5l46g8zxy4l49ly8kye79ddr3ksqal35g","addr1q8elqhkuvtyelgcedpup58r893awhg3l87a4rz5d5acatuj9y84nruafrmta2rewd5l46g8zxy4l49ly8kye79ddr3ksqal35g","addr1q8elqhkuvtyelgcedpup58r893awhg3l87a4rz5d5acatuj9y84nruafrmta2rewd5l46g8zxy4l49ly8kye79ddr3ksqal35g","addr1q8elqhkuvtyelgcedpup58r893awhg3l87a4rz5d5acatuj9y84nruafrmta2rewd5l46g8zxy4l49ly8kye79ddr3ksqal35g","addr1q8elqhkuvtyelgcedpup58r893awhg3l87a4rz5d5acatuj9y84nruafrmta2rewd5l46g8zxy4l49ly8kye79ddr3ksqal35g","addr1q8elqhkuvtyelgcedpup58r893awhg3l87a4rz5d5acatuj9y84nruafrmta2rewd5l46g8zxy4l49ly8kye79ddr3ksqal35g","addr1q8elqhkuvtyelgcedpup58r893awhg3l87a4rz5d5acatuj9y84nruafrmta2rewd5l46g8zxy4l49ly8kye79ddr3ksqal35g","addr1q8elqhkuvtyelgcedpup58r893awhg3l87a4rz5d5acatuj9y84nruafrmta2rewd5l46g8zxy4l49ly8kye79ddr3ksqal35g"],"addressesOutput":["addr1v804tgee0m3ww7z93zh64wr9flqh9psdhnxg6cykfudgulg6f633p","addr1q8elqhkuvtyelgcedpup58r893awhg3l87a4rz5d5acatuj9y84nruafrmta2rewd5l46g8zxy4l49ly8kye79ddr3ksqal35g"],"fee":354017,"totalOutput":177656759778213,"balance":-64000026292962,"tokens":[]},{"hash":"fbb5139e07c365370ab6d1ade60332932cdc7d6fa9b967edfcfbf0da5455a477","blockNo":10079305,"blockHash":"2d21e6aa36ae346537fce970dd74853f9f8cdbbca57713f60d642f9f6b0cc898","epochNo":473,"epochSlotNo":382237,"slot":119355037,"time":"2024/03/20 07:55:28","addressesInput":["Ae2tdPwUPEYwFx4dmJheyNPPYXtvHbJLeCaA96o6Y2iiUL18cAt7AizN2zG","Ae2tdPwUPEYwFx4dmJheyNPPYXtvHbJLeCaA96o6Y2iiUL18cAt7AizN2zG","Ae2tdPwUPEYwFx4dmJheyNPPYXtvHbJLeCaA96o6Y2iiUL18cAt7AizN2zG","Ae2tdPwUPEYwFx4dmJheyNPPYXtvHbJLeCaA96o6Y2iiUL18cAt7AizN2zG","Ae2tdPwUPEYwFx4dmJheyNPPYXtvHbJLeCaA96o6Y2iiUL18cAt7AizN2zG","Ae2tdPwUPEYwFx4dmJheyNPPYXtvHbJLeCaA96o6Y2iiUL18cAt7AizN2zG","Ae2tdPwUPEYwFx4dmJheyNPPYXtvHbJLeCaA96o6Y2iiUL18cAt7AizN2zG","Ae2tdPwUPEYwFx4dmJheyNPPYXtvHbJLeCaA96o6Y2iiUL18cAt7AizN2zG","Ae2tdPwUPEYwFx4dmJheyNPPYXtvHbJLeCaA96o6Y2iiUL18cAt7AizN2zG","Ae2tdPwUPEYwFx4dmJheyNPPYXtvHbJLeCaA96o6Y2iiUL18cAt7AizN2zG","Ae2tdPwUPEYwFx4dmJheyNPPYXtvHbJLeCaA96o6Y2iiUL18cAt7AizN2zG","Ae2tdPwUPEYwFx4dmJheyNPPYXtvHbJLeCaA96o6Y2iiUL18cAt7AizN2zG","Ae2tdPwUPEYwFx4dmJheyNPPYXtvHbJLeCaA96o6Y2iiUL18cAt7AizN2zG","Ae2tdPwUPEYwFx4dmJheyNPPYXtvHbJLeCaA96o6Y2iiUL18cAt7AizN2zG","Ae2tdPwUPEYwFx4dmJheyNPPYXtvHbJLeCaA96o6Y2iiUL18cAt7AizN2zG","Ae2tdPwUPEYwFx4dmJheyNPPYXtvHbJLeCaA96o6Y2iiUL18cAt7AizN2zG","Ae2tdPwUPEYwFx4dmJheyNPPYXtvHbJLeCaA96o6Y2iiUL18cAt7AizN2zG","Ae2tdPwUPEYwFx4dmJheyNPPYXtvHbJLeCaA96o6Y2iiUL18cAt7AizN2zG","Ae2tdPwUPEYwFx4dmJheyNPPYXtvHbJLeCaA96o6Y2iiUL18cAt7AizN2zG","Ae2tdPwUPEYwFx4dmJheyNPPYXtvHbJLeCaA96o6Y2iiUL18cAt7AizN2zG","Ae2tdPwUPEYwFx4dmJheyNPPYXtvHbJLeCaA96o6Y2iiUL18cAt7AizN2zG","Ae2tdPwUPEYwFx4dmJheyNPPYXtvHbJLeCaA96o6Y2iiUL18cAt7AizN2zG","Ae2tdPwUPEYwFx4dmJheyNPPYXtvHbJLeCaA96o6Y2iiUL18cAt7AizN2zG","Ae2tdPwUPEYwFx4dmJheyNPPYXtvHbJLeCaA96o6Y2iiUL18cAt7AizN2zG"],"addressesOutput":["addr1v804tgee0m3ww7z93zh64wr9flqh9psdhnxg6cykfudgulg6f633p","addr1q8elqhkuvtyelgcedpup58r893awhg3l87a4rz5d5acatuj9y84nruafrmta2rewd5l46g8zxy4l49ly8kye79ddr3ksqal35g"],"fee":346195,"totalOutput":562274534739175,"balance":-562274535085370,"tokens":[]},{"hash":"bbca5377f146576a651d1ae70b95d706668f8f7eda85c292bf2d681bad3757ae","blockNo":10079281,"blockHash":"943ff7726300f0baa56acc809fc0e05e859466a7fffb487a77994292e416a340","epochNo":473,"epochSlotNo":381824,"slot":119354624,"time":"2024/03/20 07:48:35","addressesInput":["Ae2tdPwUPEYwFx4dmJheyNPPYXtvHbJLeCaA96o6Y2iiUL18cAt7AizN2zG","Ae2tdPwUPEYwFx4dmJheyNPPYXtvHbJLeCaA96o6Y2iiUL18cAt7AizN2zG","Ae2tdPwUPEYwFx4dmJheyNPPYXtvHbJLeCaA96o6Y2iiUL18cAt7AizN2zG","Ae2tdPwUPEYwFx4dmJheyNPPYXtvHbJLeCaA96o6Y2iiUL18cAt7AizN2zG","Ae2tdPwUPEYwFx4dmJheyNPPYXtvHbJLeCaA96o6Y2iiUL18cAt7AizN2zG","Ae2tdPwUPEYwFx4dmJheyNPPYXtvHbJLeCaA96o6Y2iiUL18cAt7AizN2zG","Ae2tdPwUPEYwFx4dmJheyNPPYXtvHbJLeCaA96o6Y2iiUL18cAt7AizN2zG","Ae2tdPwUPEYwFx4dmJheyNPPYXtvHbJLeCaA96o6Y2iiUL18cAt7AizN2zG","Ae2tdPwUPEYwFx4dmJheyNPPYXtvHbJLeCaA96o6Y2iiUL18cAt7AizN2zG","Ae2tdPwUPEYwFx4dmJheyNPPYXtvHbJLeCaA96o6Y2iiUL18cAt7AizN2zG","Ae2tdPwUPEYwFx4dmJheyNPPYXtvHbJLeCaA96o6Y2iiUL18cAt7AizN2zG","Ae2tdPwUPEYwFx4dmJheyNPPYXtvHbJLeCaA96o6Y2iiUL18cAt7AizN2zG","Ae2tdPwUPEYwFx4dmJheyNPPYXtvHbJLeCaA96o6Y2iiUL18cAt7AizN2zG","Ae2tdPwUPEYwFx4dmJheyNPPYXtvHbJLeCaA96o6Y2iiUL18cAt7AizN2zG"],"addressesOutput":["addr1v804tgee0m3ww7z93zh64wr9flqh9psdhnxg6cykfudgulg6f633p","addr1q8elqhkuvtyelgcedpup58r893awhg3l87a4rz5d5acatuj9y84nruafrmta2rewd5l46g8zxy4l49ly8kye79ddr3ksqal35g"],"fee":269246,"totalOutput":542177254953986,"balance":-542177255223232,"tokens":[]},{"hash":"4911b09c8da1e792281f911afef2817147d1f7cb751f75a3be1f54c548a9c0e7","blockNo":10079270,"blockHash":"a3c8927bf4b0b8e6d3d1491ba0195e755381ea4004f919532220bb4840455d95","epochNo":473,"epochSlotNo":381539,"slot":119354339,"time":"2024/03/20 07:43:50","addressesInput":["Ae2tdPwUPEYwFx4dmJheyNPPYXtvHbJLeCaA96o6Y2iiUL18cAt7AizN2zG","Ae2tdPwUPEZLXq3gxpmnnnKQD2mWQokQfKwrWqks8to3zarvhbxsPABmD68","Ae2tdPwUPEYwFx4dmJheyNPPYXtvHbJLeCaA96o6Y2iiUL18cAt7AizN2zG","Ae2tdPwUPEYwFx4dmJheyNPPYXtvHbJLeCaA96o6Y2iiUL18cAt7AizN2zG","Ae2tdPwUPEYwFx4dmJheyNPPYXtvHbJLeCaA96o6Y2iiUL18cAt7AizN2zG","Ae2tdPwUPEYwFx4dmJheyNPPYXtvHbJLeCaA96o6Y2iiUL18cAt7AizN2zG","Ae2tdPwUPEYwFx4dmJheyNPPYXtvHbJLeCaA96o6Y2iiUL18cAt7AizN2zG","Ae2tdPwUPEYwFx4dmJheyNPPYXtvHbJLeCaA96o6Y2iiUL18cAt7AizN2zG","Ae2tdPwUPEYwFx4dmJheyNPPYXtvHbJLeCaA96o6Y2iiUL18cAt7AizN2zG","Ae2tdPwUPEYwFx4dmJheyNPPYXtvHbJLeCaA96o6Y2iiUL18cAt7AizN2zG","Ae2tdPwUPEYwFx4dmJheyNPPYXtvHbJLeCaA96o6Y2iiUL18cAt7AizN2zG","Ae2tdPwUPEYwFx4dmJheyNPPYXtvHbJLeCaA96o6Y2iiUL18cAt7AizN2zG"],"addressesOutput":["addr1v804tgee0m3ww7z93zh64wr9flqh9psdhnxg6cykfudgulg6f633p","addr1q8elqhkuvtyelgcedpup58r893awhg3l87a4rz5d5acatuj9y84nruafrmta2rewd5l46g8zxy4l49ly8kye79ddr3ksqal35g"],"fee":253864,"totalOutput":505150724957671,"balance":-366039592074434,"tokens":[]},{"hash":"3cc4fd2fdbd2b575e63870cc80ad1cdcf4e8e762ff8a0f7de106191d6f1f31e8","blockNo":9980751,"blockHash":"7722604eece737df6e0671dc4d3456fefdb4be156be91d8183ec990839d7c8d2","epochNo":469,"epochSlotNo":98278,"slot":117343078,"time":"2024/02/26 01:02:49","addressesInput":["addr1qyehg9hdy0genpemvc0fazfqcunnde6wfzd2kz7ennphvqyt7yuwgzn8lrnl5507cvzex9584q5qh2nxj46tqhej9pnspaysj5","addr1qyehg9hdy0genpemvc0fazfqcunnde6wfzd2kz7ennphvqyt7yuwgzn8lrnl5507cvzex9584q5qh2nxj46tqhej9pnspaysj5"],"addressesOutput":["Ae2tdPwUPEYwFx4dmJheyNPPYXtvHbJLeCaA96o6Y2iiUL18cAt7AizN2zG","addr1qyehg9hdy0genpemvc0fazfqcunnde6wfzd2kz7ennphvqyt7yuwgzn8lrnl5507cvzex9584q5qh2nxj46tqhej9pnspaysj5"],"fee":172805,"totalOutput":45845800,"balance":1254210,"tokens":[{"policy":"f0ff48bbb7bbe9d59a40f1ce90e9e9d0ff5002ec48f232b49ca0fb9a","name":"63727970746f6e69616e2e6e6674","displayName":"cryptonian.nft","fingerprint":"asset1r62f5d0hwrgky5ctn5hrel3f7muprjhgdum57v","quantity":1},{"policy":"f0ff48bbb7bbe9d59a40f1ce90e9e9d0ff5002ec48f232b49ca0fb9a","name":"69747363727970746f6e69616e","displayName":"itscryptonian","fingerprint":"asset1f2wm6n0xq50pwcmjeg0nutefkwcagklkeztxh8","quantity":1},{"policy":"f0ff48bbb7bbe9d59a40f1ce90e9e9d0ff5002ec48f232b49ca0fb9a","name":"63727970746f6e69616e2e616461","displayName":"cryptonian.ada","fingerprint":"asset1nspqeg97mql60ke3u7dk5v9lergw48j6wku3ef","quantity":1}]},{"hash":"0347b3408d944e857cf311a44911c3f4364c00c6d7026e47189b39a1d2d0de61","blockNo":9941090,"blockHash":"296ccc6028e1501a58aed45b73f8d99d0e9883252384fab1e19e037d1d5767b1","epochNo":467,"epochSlotNo":157877,"slot":116538677,"time":"2024/02/16 17:36:08","addressesInput":["addr1qytvuq2e5f2ejmcmsjqxwgucy5xsthehll48r9wrdqpdhdy8fzc9skcvljznvpnt2wu0nga0ueg38nm7kpdfln3jgvlq0y48a8"],"addressesOutput":["Ae2tdPwUPEYwFx4dmJheyNPPYXtvHbJLeCaA96o6Y2iiUL18cAt7AizN2zG","addr1q84ktkz3zemxfl8qs07x62a2nfg0lghcwxt3nv4fw7klgm58fzc9skcvljznvpnt2wu0nga0ueg38nm7kpdfln3jgvlqwurfc3"],"fee":167525,"totalOutput":2073042960,"balance":1000000,"tokens":[]},{"hash":"037fc8fb5df3a70510bc2ba11bbfd8daaad6c7412111a3af8d46ed3fe6e771c6","blockNo":9862105,"blockHash":"936090db7c3fad0f1eb1ff4acce46db7305e1e117fe2d7a3ae180733fec30543","epochNo":463,"epochSlotNo":245651,"slot":114898451,"time":"2024/01/28 17:59:02","addressesInput":["addr1q8525pnxxth84pf0cnnwnm0x3hljh0qg47yqvy4zd700wjeurwepw7t382n7kc5kdwcp4uwrjwjtxf5pvj46909qcalsnad8gv"],"addressesOutput":["Ae2tdPwUPEYwFx4dmJheyNPPYXtvHbJLeCaA96o6Y2iiUL18cAt7AizN2zG","addr1q8525pnxxth84pf0cnnwnm0x3hljh0qg47yqvy4zd700wjeurwepw7t382n7kc5kdwcp4uwrjwjtxf5pvj46909qcalsnad8gv"],"fee":171925,"totalOutput":2471666,"balance":1111980,"tokens":[{"policy":"f9dbc864067c1f8a7241b3360b49ceb75a35222b9b4f2e3969a4a568","name":"42595445","displayName":"BYTE","fingerprint":"asset1t4tmh08gju7x2x6e4q4g8hhvmp9exx6cgj3r8l","quantity":13675890988}]},{"hash":"5930843c6168188f18c067750f253a3b89184fb8aabd3f80ffbd31d767044999","blockNo":9841161,"blockHash":"999a8c5654ea28c32eef5f1fc2088b5ffccf302824ab75ddc85cab9f74be164e","epochNo":462,"epochSlotNo":240289,"slot":114461089,"time":"2024/01/23 16:29:40","addressesInput":["addr1q99j35etltzfv8ms5046u9d9kkk7elzkearwnq7yrj3h3j89qcgfyzs9xt4ygdk77d09fn7ufm8zgqmj6sv7wmrhgalqaels0y","addr1q99j35etltzfv8ms5046u9d9kkk7elzkearwnq7yrj3h3j89qcgfyzs9xt4ygdk77d09fn7ufm8zgqmj6sv7wmrhgalqaels0y","addr1q99j35etltzfv8ms5046u9d9kkk7elzkearwnq7yrj3h3j89qcgfyzs9xt4ygdk77d09fn7ufm8zgqmj6sv7wmrhgalqaels0y"],"addressesOutput":["Ae2tdPwUPEYwFx4dmJheyNPPYXtvHbJLeCaA96o6Y2iiUL18cAt7AizN2zG","addr1q99j35etltzfv8ms5046u9d9kkk7elzkearwnq7yrj3h3j89qcgfyzs9xt4ygdk77d09fn7ufm8zgqmj6sv7wmrhgalqaels0y"],"fee":176061,"totalOutput":216698829,"balance":1417990,"tokens":[{"policy":"6fbfbd8f90cdc5a89dab46def6edf52dacaf413d332d66c00235fc2d","metadata":{"url":"https://twitter.com/PinkTheSnail","ticker":"$SNAIL","decimals":0,"logo":"https://uat-cf-explorer-token-logos.s3.eu-west-1.amazonaws.com/mainnet/6fbfbd8f90cdc5a89dab46def6edf52dacaf413d332d66c00235fc2d534e41494c","description":"Hi!"},"name":"534e41494c","displayName":"SNAIL","fingerprint":"asset1h0ttnvc5rp2p3647knuwsyt309u0v9pdsyp54h","quantity":1},{"policy":"88407aa5dabb51403f40ee60f522544d3dd0100b93c0154146ba99b3","name":"76544150505958","displayName":"vTAPPYX","fingerprint":"asset1hhwxt72mhx2fxqjlkns200s04x8623jtugd3hl","quantity":1},{"policy":"0cf7296fe09e9225d8cc0a444ee60e8d4f09c1c5f3dbc8aaee1ebc70","name":"5448554e54","displayName":"THUNT","fingerprint":"asset1lrlcruj9mahs6uaqfe92f8he8shdy0k9g356sq","quantity":1}]},{"hash":"92dcf37f83fe0a9b49f3bea81a0bf31d19b47a074edaa3dd847ef15c10d7e537","blockNo":9776378,"blockHash":"a6c5f9020a56d4846cb48f23239fa94f97052013e0f139a1e3a45c69156b08af","epochNo":459,"epochSlotNo":192674,"slot":113117474,"time":"2024/01/08 03:16:05","addressesInput":["addr1q99j35etltzfv8ms5046u9d9kkk7elzkearwnq7yrj3h3j89qcgfyzs9xt4ygdk77d09fn7ufm8zgqmj6sv7wmrhgalqaels0y","addr1q99j35etltzfv8ms5046u9d9kkk7elzkearwnq7yrj3h3j89qcgfyzs9xt4ygdk77d09fn7ufm8zgqmj6sv7wmrhgalqaels0y"],"addressesOutput":["Ae2tdPwUPEYwFx4dmJheyNPPYXtvHbJLeCaA96o6Y2iiUL18cAt7AizN2zG","addr1q99j35etltzfv8ms5046u9d9kkk7elzkearwnq7yrj3h3j89qcgfyzs9xt4ygdk77d09fn7ufm8zgqmj6sv7wmrhgalqaels0y"],"fee":171089,"totalOutput":30298915,"balance":1081810,"tokens":[{"policy":"ad14d754d349ac1a6cbd3e08d404e67bc5b3ab265884736a5bf07eb0","name":"5448554e54","displayName":"THUNT","fingerprint":"asset1m3emteqqlwkhal65ghjc0qndtztg7ag6a2msty","quantity":1}]},{"hash":"ee01e51e280a9037c3cf42e24c06b885c8969019cb9e9ce2eb610ccfce057779","blockNo":9773270,"blockHash":"95174727b1dc98552f2878e249fd9d90db01b9e791dd8f0e72afc0a246a46a42","epochNo":459,"epochSlotNo":128460,"slot":113053260,"time":"2024/01/07 09:25:51","addressesInput":["addr1q99j35etltzfv8ms5046u9d9kkk7elzkearwnq7yrj3h3j89qcgfyzs9xt4ygdk77d09fn7ufm8zgqmj6sv7wmrhgalqaels0y","addr1q99j35etltzfv8ms5046u9d9kkk7elzkearwnq7yrj3h3j89qcgfyzs9xt4ygdk77d09fn7ufm8zgqmj6sv7wmrhgalqaels0y"],"addressesOutput":["Ae2tdPwUPEYwFx4dmJheyNPPYXtvHbJLeCaA96o6Y2iiUL18cAt7AizN2zG","addr1q99j35etltzfv8ms5046u9d9kkk7elzkearwnq7yrj3h3j89qcgfyzs9xt4ygdk77d09fn7ufm8zgqmj6sv7wmrhgalqaels0y"],"fee":171045,"totalOutput":124886833,"balance":1081810,"tokens":[{"policy":"5ba54a301fa78aa62006ee37a435e0abb5b08ec758395859569b87c0","name":"72534e454b","displayName":"rSNEK","fingerprint":"asset1gv7ld76myqxcscknmqrnejxd0exyg2z73e3m4c","quantity":1}]}],"totalItems":1949,"totalPages":195,"currentPage":0,"isDataOverSize":null}