{"data":[{"hash":"2e95857ffcd26ad3b6126b906c33f74c851bc87af05bdcaee4c10cfdf0c13d91","blockNo":10172465,"blockHash":"54644ba5f27725a8b400e5a358965edf451918a7abc05ad599944f71c474602c","epochNo":478,"epochSlotNo":136907,"slot":121269707,"time":"2024/04/11 11:46:38","addressesInput":["addr1qxhzr4545jau66q55pkypmtyrrp3fe5ucnz2kzp9d9ksnwrsxfk6rvced60w4h629n75rs2wsfpyg5yjuxjc3rvd0adqc8cpl0","addr1qxhzr4545jau66q55pkypmtyrrp3fe5ucnz2kzp9d9ksnwrsxfk6rvced60w4h629n75rs2wsfpyg5yjuxjc3rvd0adqc8cpl0","addr1z8kllanr6dlut7t480zzytsd52l7pz4y3kcgxlfvx2ddavlzvhy059jgfl9snaewatuc4faqmktmqfpl9ppxaqfz7a4ssvc9l5","addr1qxhzr4545jau66q55pkypmtyrrp3fe5ucnz2kzp9d9ksnwrsxfk6rvced60w4h629n75rs2wsfpyg5yjuxjc3rvd0adqc8cpl0"],"addressesOutput":["addr1vxhjr75nmmt6z2tqkzdar0y46qrljpgnh6yh0jjqe96c94ceefj7w","addr1q89kxqjr98zc0xrv6vm9gjqsq0mv5gfkdxzg8x7st348wl8zvhy059jgfl9snaewatuc4faqmktmqfpl9ppxaqfz7a4sxrzjzp","addr1qxhzr4545jau66q55pkypmtyrrp3fe5ucnz2kzp9d9ksnwrsxfk6rvced60w4h629n75rs2wsfpyg5yjuxjc3rvd0adqc8cpl0","addr1qxhzr4545jau66q55pkypmtyrrp3fe5ucnz2kzp9d9ksnwrsxfk6rvced60w4h629n75rs2wsfpyg5yjuxjc3rvd0adqc8cpl0"],"fee":413145,"totalOutput":18767035852,"balance":null,"tokens":[]},{"hash":"3e7f9cf475d5b664c29ba125e601e90aa8ec5f9b03901d7cc6f2d3d73e01cd35","blockNo":10172465,"blockHash":"54644ba5f27725a8b400e5a358965edf451918a7abc05ad599944f71c474602c","epochNo":478,"epochSlotNo":136907,"slot":121269707,"time":"2024/04/11 11:46:38","addressesInput":["addr1q86nev6n40z39qzjkmkej98fsq20jfu73qyftwqq6g5au7v00493yu2dpmqjpr5h5s3amd49jx0q93gedufjvdp7ex5s8f28q5"],"addressesOutput":["addr1qyuzvs2gtm9hgckr6edluxlx4rnypwx9zqhd7edu0ap5y38cpn6fkzd2tu5um8g7mfy9ym68nwwy4j7ls5zt29uj9k5q5tftrs","addr1qx9365cxnx2gys45sfr6y6j0svshu4nyjxaelqq525q25j500493yu2dpmqjpr5h5s3amd49jx0q93gedufjvdp7ex5sj68npw"],"fee":168141,"totalOutput":278835455,"balance":null,"tokens":[]},{"hash":"e46138954253fcbe9272be7dac920014c46651e6ab57f522183379a57d629044","blockNo":10172465,"blockHash":"54644ba5f27725a8b400e5a358965edf451918a7abc05ad599944f71c474602c","epochNo":478,"epochSlotNo":136907,"slot":121269707,"time":"2024/04/11 11:46:38","addressesInput":["addr1q8f838dfza885fj0fzv4u9jgl98l8tre9tppxezev2cnycernru4wmz3nz7xeucgcxgwr3amtxu0erpcdy3c2zt8j0jqjjpwej"],"addressesOutput":["addr1q8f838dfza885fj0fzv4u9jgl98l8tre9tppxezev2cnycernru4wmz3nz7xeucgcxgwr3amtxu0erpcdy3c2zt8j0jqjjpwej"],"fee":172046,"totalOutput":11888405579,"balance":null,"tokens":[]},{"hash":"9666e05e697f5fb91a6f2f114ed383b2947c2816d99e0497124ccffd2f3227a5","blockNo":10172465,"blockHash":"54644ba5f27725a8b400e5a358965edf451918a7abc05ad599944f71c474602c","epochNo":478,"epochSlotNo":136907,"slot":121269707,"time":"2024/04/11 11:46:38","addressesInput":["addr1w8p2lkrllqm0vj3qcv7uy5hg2rxa2he3vf7kgqfdp9sg2mc0sz6ay","addr1qxax7xrvlyxftfw23eldgwfsy9540g6cvjcpqatvh8qp3uutmyew4pzvkgnaawnd3whcrv7seq38ukqkk4l563524r9sfztzv3","addr1qxax7xrvlyxftfw23eldgwfsy9540g6cvjcpqatvh8qp3uutmyew4pzvkgnaawnd3whcrv7seq38ukqkk4l563524r9sfztzv3"],"addressesOutput":["addr1vxfa8dwzflct4re7qn2ls7t46w6rc479rafnwzqx4z2asuq6cg00t","addr1w8p2lkrllqm0vj3qcv7uy5hg2rxa2he3vf7kgqfdp9sg2mc0sz6ay","addr1qxax7xrvlyxftfw23eldgwfsy9540g6cvjcpqatvh8qp3uutmyew4pzvkgnaawnd3whcrv7seq38ukqkk4l563524r9sfztzv3"],"fee":220901,"totalOutput":107754982,"balance":null,"tokens":[]},{"hash":"8912c03eb7ac49266b8c9e252dc7f8f8ff10b17bd8d89a0e765766e85147f40a","blockNo":10172465,"blockHash":"54644ba5f27725a8b400e5a358965edf451918a7abc05ad599944f71c474602c","epochNo":478,"epochSlotNo":136907,"slot":121269707,"time":"2024/04/11 11:46:38","addressesInput":["addr1q8z6l2xlyzmyx9fv4ju8998aypuyqxtq5mtwr2rvj4hv77m5gj86kq7ntx2ec2c0z9c2gmmjvq6wzeszrdd7z5eu2x0qat0shg","addr1q8z6l2xlyzmyx9fv4ju8998aypuyqxtq5mtwr2rvj4hv77m5gj86kq7ntx2ec2c0z9c2gmmjvq6wzeszrdd7z5eu2x0qat0shg"],"addressesOutput":["addr1x8rjw3pawl0kelu4mj3c8x20fsczf5pl744s9mxz9v8n7efvjel5h55fgjcxgchp830r7h2l5msrlpt8262r3nvr8ekstg4qrx","addr1q8z6l2xlyzmyx9fv4ju8998aypuyqxtq5mtwr2rvj4hv77m5gj86kq7ntx2ec2c0z9c2gmmjvq6wzeszrdd7z5eu2x0qat0shg"],"fee":193969,"totalOutput":157692291,"balance":null,"tokens":[]},{"hash":"64d0a935475bd9551a3c32b986adab744c7d0bf738918785a58eb0382c710569","blockNo":10172465,"blockHash":"54644ba5f27725a8b400e5a358965edf451918a7abc05ad599944f71c474602c","epochNo":478,"epochSlotNo":136907,"slot":121269707,"time":"2024/04/11 11:46:38","addressesInput":["addr1wyf3xpvwjd82wtnax8tw8u5k6r5yfh0sza76k7c3y3pgpjcye7ar2","addr1wxxjtzuaprw2kulnzedpzagage95vptzvsy3c9ufmfvgwfsj8cv4s","addr1q8dzn92ccu9gjurcrqrde2farqqm5tem8z2zy7nm9prcdeym4wser9dhew93cmltkxfvcjrmt69ed4ehhtwm3wcfsehszzqvk6"],"addressesOutput":["addr1wx372m4f6tdspqpceehmxtjsp7h0z53aevzzuknr043nljqjugkvh","addr1wxxjtzuaprw2kulnzedpzagage95vptzvsy3c9ufmfvgwfsj8cv4s","addr1zyc5zkajzqtyea4cf5d3y5mlq7fd9yfdz4hq78k3mywg8nhkrew0j6j9qjdde8a5py4m9yyh2mylaal4q899rgptn88qe57mt7","addr1zyc5zkajzqtyea4cf5d3y5mlq7fd9yfdz4hq78k3mywg8nha57wx42dufy48hug9tjkem42urlcd7v8qaafq94pfufxsz63f4p","addr1zyc5zkajzqtyea4cf5d3y5mlq7fd9yfdz4hq78k3mywg8nhkrew0j6j9qjdde8a5py4m9yyh2mylaal4q899rgptn88qe57mt7","addr1zyc5zkajzqtyea4cf5d3y5mlq7fd9yfdz4hq78k3mywg8nha57wx42dufy48hug9tjkem42urlcd7v8qaafq94pfufxsz63f4p","addr1zyc5zkajzqtyea4cf5d3y5mlq7fd9yfdz4hq78k3mywg8nhkrew0j6j9qjdde8a5py4m9yyh2mylaal4q899rgptn88qe57mt7","addr1zyc5zkajzqtyea4cf5d3y5mlq7fd9yfdz4hq78k3mywg8nha57wx42dufy48hug9tjkem42urlcd7v8qaafq94pfufxsz63f4p","addr1zyc5zkajzqtyea4cf5d3y5mlq7fd9yfdz4hq78k3mywg8nhkrew0j6j9qjdde8a5py4m9yyh2mylaal4q899rgptn88qe57mt7","addr1zyc5zkajzqtyea4cf5d3y5mlq7fd9yfdz4hq78k3mywg8nha57wx42dufy48hug9tjkem42urlcd7v8qaafq94pfufxsz63f4p","addr1q8dzn92ccu9gjurcrqrde2farqqm5tem8z2zy7nm9prcdeym4wser9dhew93cmltkxfvcjrmt69ed4ehhtwm3wcfsehszzqvk6","addr1q8dzn92ccu9gjurcrqrde2farqqm5tem8z2zy7nm9prcdeym4wser9dhew93cmltkxfvcjrmt69ed4ehhtwm3wcfsehszzqvk6","addr1q8dzn92ccu9gjurcrqrde2farqqm5tem8z2zy7nm9prcdeym4wser9dhew93cmltkxfvcjrmt69ed4ehhtwm3wcfsehszzqvk6","addr1q8dzn92ccu9gjurcrqrde2farqqm5tem8z2zy7nm9prcdeym4wser9dhew93cmltkxfvcjrmt69ed4ehhtwm3wcfsehszzqvk6","addr1q8dzn92ccu9gjurcrqrde2farqqm5tem8z2zy7nm9prcdeym4wser9dhew93cmltkxfvcjrmt69ed4ehhtwm3wcfsehszzqvk6","addr1q8dzn92ccu9gjurcrqrde2farqqm5tem8z2zy7nm9prcdeym4wser9dhew93cmltkxfvcjrmt69ed4ehhtwm3wcfsehszzqvk6","addr1q8dzn92ccu9gjurcrqrde2farqqm5tem8z2zy7nm9prcdeym4wser9dhew93cmltkxfvcjrmt69ed4ehhtwm3wcfsehszzqvk6","addr1q8dzn92ccu9gjurcrqrde2farqqm5tem8z2zy7nm9prcdeym4wser9dhew93cmltkxfvcjrmt69ed4ehhtwm3wcfsehszzqvk6","addr1q8dzn92ccu9gjurcrqrde2farqqm5tem8z2zy7nm9prcdeym4wser9dhew93cmltkxfvcjrmt69ed4ehhtwm3wcfsehszzqvk6","addr1q8dzn92ccu9gjurcrqrde2farqqm5tem8z2zy7nm9prcdeym4wser9dhew93cmltkxfvcjrmt69ed4ehhtwm3wcfsehszzqvk6"],"fee":480022,"totalOutput":68714076628877,"balance":null,"tokens":[]},{"hash":"2f7289f4291231d55b944ce89e7af38906a745ec64763881abe758c8749c9645","blockNo":10172465,"blockHash":"54644ba5f27725a8b400e5a358965edf451918a7abc05ad599944f71c474602c","epochNo":478,"epochSlotNo":136907,"slot":121269707,"time":"2024/04/11 11:46:38","addressesInput":["addr1q9dn3wsrzuy62fu0lddzq8qzdyczqjle79p66cnydvf2lkwhy3954pmhklwxjz05vsx0qt4yw4a9275eldyrkp0c0hlq5ygnqp","addr1q8xyn3p8gdj8jgqcgh0wrgvlv9ywq9d30rzu4nsef7tz3m6j0lj9fyxlp9slvr8lv07a5xrmlze92y272n9gjmllzc2qn5ayw3"],"addressesOutput":["addr1q8xyn3p8gdj8jgqcgh0wrgvlv9ywq9d30rzu4nsef7tz3m6j0lj9fyxlp9slvr8lv07a5xrmlze92y272n9gjmllzc2qn5ayw3","addr1q9dn3wsrzuy62fu0lddzq8qzdyczqjle79p66cnydvf2lkwhy3954pmhklwxjz05vsx0qt4yw4a9275eldyrkp0c0hlq5ygnqp","addr1q8xyn3p8gdj8jgqcgh0wrgvlv9ywq9d30rzu4nsef7tz3m6j0lj9fyxlp9slvr8lv07a5xrmlze92y272n9gjmllzc2qn5ayw3"],"fee":401977,"totalOutput":498925639,"balance":null,"tokens":[]},{"hash":"f95931cb599d3d9b9ae08f103fa9c75d597f0eee1720b26071ecbaf0dd88ac43","blockNo":10172465,"blockHash":"54644ba5f27725a8b400e5a358965edf451918a7abc05ad599944f71c474602c","epochNo":478,"epochSlotNo":136907,"slot":121269707,"time":"2024/04/11 11:46:38","addressesInput":["addr1qx7tzh4qen0p50ntefz8yujwgqt7zulef6t6vrf7dq4xa82j2c79gy9l76sdg0xwhd7r0c0kna0tycz4y5s6mlenh8pqrkj6fh","addr1zxn9efv2f6w82hagxqtn62ju4m293tqvw0uhmdl64ch8uw6j2c79gy9l76sdg0xwhd7r0c0kna0tycz4y5s6mlenh8pq6s3z70","addr1z8snz7c4974vzdpxu65ruphl3zjdvtxw8strf2c2tmqnxzv0566kn6zwqff7xtpr7mqd4ctprcffnvdmsk3t4tvcfztsvalv3y"],"addressesOutput":["addr1z8snz7c4974vzdpxu65ruphl3zjdvtxw8strf2c2tmqnxzv0566kn6zwqff7xtpr7mqd4ctprcffnvdmsk3t4tvcfztsvalv3y","addr1qxkcunz0e0wykf4pwmmywl54rxfx8c9d2y39t7ny4qhh2f4vlg00sgsu5xzktphn8hzyr939xmwtzehsfvx9t3872elsaseqkn","addr1qx7tzh4qen0p50ntefz8yujwgqt7zulef6t6vrf7dq4xa82j2c79gy9l76sdg0xwhd7r0c0kna0tycz4y5s6mlenh8pqrkj6fh"],"fee":792554,"totalOutput":1418753653508,"balance":null,"tokens":[]},{"hash":"d1733bd09b79115e883d2427b2f47f533a7a9be80eb4b39fab06309e450ce7d2","blockNo":10172464,"blockHash":"6c718d9de7acb0aa61177751a5ce575bfa886d008a8bc4c9394ced85f37bf184","epochNo":478,"epochSlotNo":136888,"slot":121269688,"time":"2024/04/11 11:46:19","addressesInput":["addr1qxmnernpr0we248ssephspc6vhjxkkalv5u0rz0eujznvvask26ece3xln9z7ue46v8gf6lk9tfxm0wg5p9lafy33wws74ycrs"],"addressesOutput":["addr1vyh8crt336z4at3zup6nnfmy8ntpxc7s63pe9emefspfkdq0hukqy"],"fee":164515,"totalOutput":449835485,"balance":null,"tokens":[]},{"hash":"68013bfd514889aa8df1ac931ba30a95996455a215bb2890799f290745f9e4f6","blockNo":10172464,"blockHash":"6c718d9de7acb0aa61177751a5ce575bfa886d008a8bc4c9394ced85f37bf184","epochNo":478,"epochSlotNo":136888,"slot":121269688,"time":"2024/04/11 11:46:19","addressesInput":["addr1q9hgn200e9ntt8pta4st55x0s3kvdrc0zl0kynhkxxaxpu8zvhy059jgfl9snaewatuc4faqmktmqfpl9ppxaqfz7a4s2mwmhu","addr1q9hgn200e9ntt8pta4st55x0s3kvdrc0zl0kynhkxxaxpu8zvhy059jgfl9snaewatuc4faqmktmqfpl9ppxaqfz7a4s2mwmhu","addr1q9hgn200e9ntt8pta4st55x0s3kvdrc0zl0kynhkxxaxpu8zvhy059jgfl9snaewatuc4faqmktmqfpl9ppxaqfz7a4s2mwmhu","addr1q9hgn200e9ntt8pta4st55x0s3kvdrc0zl0kynhkxxaxpu8zvhy059jgfl9snaewatuc4faqmktmqfpl9ppxaqfz7a4s2mwmhu","addr1q9hgn200e9ntt8pta4st55x0s3kvdrc0zl0kynhkxxaxpu8zvhy059jgfl9snaewatuc4faqmktmqfpl9ppxaqfz7a4s2mwmhu"],"addressesOutput":["addr1z8kllanr6dlut7t480zzytsd52l7pz4y3kcgxlfvx2ddavlzvhy059jgfl9snaewatuc4faqmktmqfpl9ppxaqfz7a4ssvc9l5","addr1q9hgn200e9ntt8pta4st55x0s3kvdrc0zl0kynhkxxaxpu8zvhy059jgfl9snaewatuc4faqmktmqfpl9ppxaqfz7a4s2mwmhu"],"fee":297205,"totalOutput":4524254823,"balance":null,"tokens":[]},{"hash":"6f90fdc539e65530e96d75526741b5056fe952a2d4d51c68760bddf2fc41236f","blockNo":10172464,"blockHash":"6c718d9de7acb0aa61177751a5ce575bfa886d008a8bc4c9394ced85f37bf184","epochNo":478,"epochSlotNo":136888,"slot":121269688,"time":"2024/04/11 11:46:19","addressesInput":["addr1qy44x7y3llyhxpdj9v689l0lmjvgerzpjdynle60lvg8zdhe0swaf29j0jk0wxa2hh7fg7ywajur2h6d5j55fvwkzw9q86mwqt","addr1x8rjw3pawl0kelu4mj3c8x20fsczf5pl744s9mxz9v8n7efvjel5h55fgjcxgchp830r7h2l5msrlpt8262r3nvr8ekstg4qrx"],"addressesOutput":["addr1qy44x7y3llyhxpdj9v689l0lmjvgerzpjdynle60lvg8zdhe0swaf29j0jk0wxa2hh7fg7ywajur2h6d5j55fvwkzw9q86mwqt","addr1qy44x7y3llyhxpdj9v689l0lmjvgerzpjdynle60lvg8zdhe0swaf29j0jk0wxa2hh7fg7ywajur2h6d5j55fvwkzw9q86mwqt"],"fee":201663,"totalOutput":7066252,"balance":null,"tokens":[]},{"hash":"dc87420e8da3cd71b785beeb5a7f386459fb0d23c02cdf81dd732710ef4f338e","blockNo":10172464,"blockHash":"6c718d9de7acb0aa61177751a5ce575bfa886d008a8bc4c9394ced85f37bf184","epochNo":478,"epochSlotNo":136888,"slot":121269688,"time":"2024/04/11 11:46:19","addressesInput":["addr1q88nlawx6kkrpxkzuvreak9tq6y3chdfu29uhqv0yhe436xx0t0gdpe5aullxhvze42uhkf90zpm907jydk8g6x4z9sqzt0w5s"],"addressesOutput":["addr1q88nlawx6kkrpxkzuvreak9tq6y3chdfu29uhqv0yhe436xx0t0gdpe5aullxhvze42uhkf90zpm907jydk8g6x4z9sqzt0w5s","addr1q88nlawx6kkrpxkzuvreak9tq6y3chdfu29uhqv0yhe436xx0t0gdpe5aullxhvze42uhkf90zpm907jydk8g6x4z9sqzt0w5s","addr1q88nlawx6kkrpxkzuvreak9tq6y3chdfu29uhqv0yhe436xx0t0gdpe5aullxhvze42uhkf90zpm907jydk8g6x4z9sqzt0w5s","addr1q88nlawx6kkrpxkzuvreak9tq6y3chdfu29uhqv0yhe436xx0t0gdpe5aullxhvze42uhkf90zpm907jydk8g6x4z9sqzt0w5s"],"fee":182573,"totalOutput":30633742,"balance":null,"tokens":[]},{"hash":"85269710e33db62ceb81056eebb3a6472ecc8f0f378f305d0fdf95b3168c3585","blockNo":10172464,"blockHash":"6c718d9de7acb0aa61177751a5ce575bfa886d008a8bc4c9394ced85f37bf184","epochNo":478,"epochSlotNo":136888,"slot":121269688,"time":"2024/04/11 11:46:19","addressesInput":["addr1qyyjhlzttfhyh8mmaykqu3v0ej6ftrmxf97v94aace0ch5wzdft64sgx5ug2p7ych26fszh9x0ha5jpawpkk0r5zaegqaaqy5m"],"addressesOutput":["addr1vxdgue2sjtyrct32clwrprn2esu9hyspw3yaq4204q8qm2cgtujtv"],"fee":484564,"totalOutput":507000000,"balance":null,"tokens":[]},{"hash":"395b622d88ebaeea1f1c48cfe2b88ea9cbce846f14d8c276dafe6f39c664ae42","blockNo":10172464,"blockHash":"6c718d9de7acb0aa61177751a5ce575bfa886d008a8bc4c9394ced85f37bf184","epochNo":478,"epochSlotNo":136888,"slot":121269688,"time":"2024/04/11 11:46:19","addressesInput":["addr1qy0zlhxnpqfwlvqlc5gpuv9vd5cwy9hmxlcj4whyaneyna9ym7rmrk6g0dr2zzpvmr3zdyxkz5g87hpt3l33zk3603fqlu2qcw"],"addressesOutput":["addr1q9dfupytkpdzqrkmp664vgjneelgh0yvwkqkx9dccyyw5r96h2p5jcgwnv4tw5tq3yzd2dmh3sgcgfyta3tv8x3vdq8qsc8jza","addr1qy0zlhxnpqfwlvqlc5gpuv9vd5cwy9hmxlcj4whyaneyna9ym7rmrk6g0dr2zzpvmr3zdyxkz5g87hpt3l33zk3603fqlu2qcw","addr1qy0zlhxnpqfwlvqlc5gpuv9vd5cwy9hmxlcj4whyaneyna9ym7rmrk6g0dr2zzpvmr3zdyxkz5g87hpt3l33zk3603fqlu2qcw"],"fee":177293,"totalOutput":1015569330,"balance":null,"tokens":[]},{"hash":"14e841d81ca84db2fe9dbc74aa043831a581ce7d89d3d987a64cf3ecb7761b63","blockNo":10172464,"blockHash":"6c718d9de7acb0aa61177751a5ce575bfa886d008a8bc4c9394ced85f37bf184","epochNo":478,"epochSlotNo":136888,"slot":121269688,"time":"2024/04/11 11:46:19","addressesInput":["addr1x8rjw3pawl0kelu4mj3c8x20fsczf5pl744s9mxz9v8n7efvjel5h55fgjcxgchp830r7h2l5msrlpt8262r3nvr8ekstg4qrx","addr1q9a8au5w3hwttxl5p4djmf2q5nl8cf9dqsv2yvrj52utr3rc0vzr20ukqjxv6fk4snfzrhnv83hmnkxqjjpz2qm4n8gsmdz370"],"addressesOutput":["addr1x8rjw3pawl0kelu4mj3c8x20fsczf5pl744s9mxz9v8n7efvjel5h55fgjcxgchp830r7h2l5msrlpt8262r3nvr8ekstg4qrx","addr1q9a8au5w3hwttxl5p4djmf2q5nl8cf9dqsv2yvrj52utr3rc0vzr20ukqjxv6fk4snfzrhnv83hmnkxqjjpz2qm4n8gsmdz370"],"fee":234179,"totalOutput":51889650,"balance":null,"tokens":[]},{"hash":"cbc2eef02c46695331327cb4c87d60ef181e6b7808af298746eccb5e9e9092ae","blockNo":10172464,"blockHash":"6c718d9de7acb0aa61177751a5ce575bfa886d008a8bc4c9394ced85f37bf184","epochNo":478,"epochSlotNo":136888,"slot":121269688,"time":"2024/04/11 11:46:19","addressesInput":["addr1x8rjw3pawl0kelu4mj3c8x20fsczf5pl744s9mxz9v8n7efvjel5h55fgjcxgchp830r7h2l5msrlpt8262r3nvr8ekstg4qrx","addr1qx3ktgh8qhekus37nrxm0ussxpf443ge7jmfh6mhdxkvea2hma6g5mdghqlljz8g7x9j82dfyut08zxue95z32v8v3hs3wjnvk","addr1qx3ktgh8qhekus37nrxm0ussxpf443ge7jmfh6mhdxkvea2hma6g5mdghqlljz8g7x9j82dfyut08zxue95z32v8v3hs3wjnvk"],"addressesOutput":["addr1xxzvcf02fs5e282qk3pmjkau2emtcsj5wrukxak3np90n2evjel5h55fgjcxgchp830r7h2l5msrlpt8262r3nvr8eksg6pw3p","addr1q9ny67w344wsx3nea60zr24f8ekvkuurqgd7u0p7k9fg573sncx2tkempnpnlc5ql907rt82ulkn0kleksct3arfktksyklual","addr1qx5ryumq23uven2rrafcg9m0lnjx9vhcfp2xkgtllhta0gftk4w7p0wv7hru3vh4w2tlt7fkrh486ga5svxfha429wrqv2cv9e","addr1qx3ktgh8qhekus37nrxm0ussxpf443ge7jmfh6mhdxkvea2hma6g5mdghqlljz8g7x9j82dfyut08zxue95z32v8v3hs3wjnvk","addr1qx3ktgh8qhekus37nrxm0ussxpf443ge7jmfh6mhdxkvea2hma6g5mdghqlljz8g7x9j82dfyut08zxue95z32v8v3hs3wjnvk"],"fee":223073,"totalOutput":202859248,"balance":null,"tokens":[]},{"hash":"6d4316a380883c4d8eabb3906781d323c378e78c248d3a0ce0d7f4b4b4af2a2e","blockNo":10172464,"blockHash":"6c718d9de7acb0aa61177751a5ce575bfa886d008a8bc4c9394ced85f37bf184","epochNo":478,"epochSlotNo":136888,"slot":121269688,"time":"2024/04/11 11:46:19","addressesInput":["addr1wxr2a8htmzuhj39y2gq7ftkpxv98y2g67tg8zezthgq4jkg0a4ul4","addr1q87hqhxpdat6du2m4tzgkrftn89zdnmu2ql2fpmuwqe85zs4mrjqlk30ekjfdanrl04k6fc4xnhmnpz9lnmhge8wa77s7p0ukd","addr1z8nvjzjeydcn4atcd93aac8allvrpjn7pjr2qsweukpnayvrzwt47mccrc8akjdnwat82r82man0g3s2m9czqdja6mfsqmv4gp"],"addressesOutput":["addr1z8nvjzjeydcn4atcd93aac8allvrpjn7pjr2qsweukpnayvrzwt47mccrc8akjdnwat82r82man0g3s2m9czqdja6mfsqmv4gp","addr1q9awp870ywvu0u2l43x88fkqrw8dsyadg68wjukgj0uz2q4d50du0sv40r0neysh8dpnrk2v0xrcrst5xv6v8evads7qt2tkcx","addr1q87hqhxpdat6du2m4tzgkrftn89zdnmu2ql2fpmuwqe85zs4mrjqlk30ekjfdanrl04k6fc4xnhmnpz9lnmhge8wa77s7p0ukd"],"fee":812328,"totalOutput":100954079363,"balance":null,"tokens":[]},{"hash":"836e9359c9ce496d498eb7db2e5e2fda11feda86a0e42c0c9f2b50c369a33053","blockNo":10172464,"blockHash":"6c718d9de7acb0aa61177751a5ce575bfa886d008a8bc4c9394ced85f37bf184","epochNo":478,"epochSlotNo":136888,"slot":121269688,"time":"2024/04/11 11:46:19","addressesInput":["addr1wxr2a8htmzuhj39y2gq7ftkpxv98y2g67tg8zezthgq4jkg0a4ul4","addr1q87hqhxpdat6du2m4tzgkrftn89zdnmu2ql2fpmuwqe85zs4mrjqlk30ekjfdanrl04k6fc4xnhmnpz9lnmhge8wa77s7p0ukd","addr1wxr2a8htmzuhj39y2gq7ftkpxv98y2g67tg8zezthgq4jkg0a4ul4","addr1z8nvjzjeydcn4atcd93aac8allvrpjn7pjr2qsweukpnayw3e26v9tyaqqvhqlzngl5afw2ls5j5se2z7msh30pz0vwsscveaf"],"addressesOutput":["addr1z8nvjzjeydcn4atcd93aac8allvrpjn7pjr2qsweukpnayw3e26v9tyaqqvhqlzngl5afw2ls5j5se2z7msh30pz0vwsscveaf","addr1qx0jl0947px6kjyhraqzwl6akrl8wewj80rl4dqg07j24rs9uhqg0dkdwfpes0qtdse3a9vvgzyk2a3xyhg4f0gq4xrqjrx4ed","addr1q9fy0hfmmukjlqu29uxfrvu0zf6jxaedysunnylpp7aaydv6gkspmpwysxp8xf0v5pfhj4alqjqwcdlf4knnrvryqrgqngmddj","addr1q87hqhxpdat6du2m4tzgkrftn89zdnmu2ql2fpmuwqe85zs4mrjqlk30ekjfdanrl04k6fc4xnhmnpz9lnmhge8wa77s7p0ukd"],"fee":911325,"totalOutput":486679554150,"balance":null,"tokens":[]},{"hash":"abe769b9a2bbefeb35277ab6ecdc5ce3f012adf6334f91525fc7f73918b20686","blockNo":10172464,"blockHash":"6c718d9de7acb0aa61177751a5ce575bfa886d008a8bc4c9394ced85f37bf184","epochNo":478,"epochSlotNo":136888,"slot":121269688,"time":"2024/04/11 11:46:19","addressesInput":["addr1qxcm3fdjxr68c4p3azpha7955qfc3g8w65gt2zggqg6h0u7727ftmzaxea02vs6np2r0s80fyy9jj3fnzkujwuvs2wxqmgh2m6"],"addressesOutput":["addr1zyq0kyrml023kwjk8zr86d5gaxrt5w8lxnah8r6m6s4jp4g3r6dxnzml343sx8jweqn4vn3fz2kj8kgu9czghx0jrsyqqktyhv","addr1qxcm3fdjxr68c4p3azpha7955qfc3g8w65gt2zggqg6h0u7727ftmzaxea02vs6np2r0s80fyy9jj3fnzkujwuvs2wxqmgh2m6"],"fee":258030,"totalOutput":121315383,"balance":null,"tokens":[]},{"hash":"4622030867ecb4acdcfc1c2b6b21226aae2e850563f9e306b259e916f1c4ff8b","blockNo":10172463,"blockHash":"cde4bc60551753f361e7399c169e151f9185c1e8dfd0de8138e5052bc6bef70f","epochNo":478,"epochSlotNo":136881,"slot":121269681,"time":"2024/04/11 11:46:12","addressesInput":["addr1q87hqhxpdat6du2m4tzgkrftn89zdnmu2ql2fpmuwqe85zs4mrjqlk30ekjfdanrl04k6fc4xnhmnpz9lnmhge8wa77s7p0ukd","addr1z8nvjzjeydcn4atcd93aac8allvrpjn7pjr2qsweukpnayd8awyllkdhpwm7r3tnvvm0mzx592fzgazhuevl679cf7lq35qw53","addr1wxr2a8htmzuhj39y2gq7ftkpxv98y2g67tg8zezthgq4jkg0a4ul4"],"addressesOutput":["addr1z8nvjzjeydcn4atcd93aac8allvrpjn7pjr2qsweukpnayd8awyllkdhpwm7r3tnvvm0mzx592fzgazhuevl679cf7lq35qw53","addr1qy4npwkp062grz3jr2auxq9reekmeermj55uxt3jz36agfxtdkj4nq4ye2lrscq3u46r3arjpu4ppg7kk9chfmfpl0qsjlqlrx","addr1q87hqhxpdat6du2m4tzgkrftn89zdnmu2ql2fpmuwqe85zs4mrjqlk30ekjfdanrl04k6fc4xnhmnpz9lnmhge8wa77s7p0ukd"],"fee":805668,"totalOutput":1142670160745,"balance":null,"tokens":[]}],"totalItems":88985851,"totalPages":4449293,"currentPage":0,"isDataOverSize":null}