{"data":[{"txHash":"f6f12b2b1f0d7af22217ea40527b0cfd28ebffdf56f3472a13d5d22a63c6fd87","time":"2024/03/06 15:01:44","blockNo":10021492,"epochNo":471,"epochSlotNo":62213,"slotNo":118171013,"numberOfStakes":1,"rewards":52140000000000},{"txHash":"d689bee077e69269ea7e9e8f5b09f5f93af887c117cd7a1157d09bec209900dd","time":"2023/10/09 16:12:29","blockNo":9394726,"epochNo":441,"epochSlotNo":152858,"slotNo":105301658,"numberOfStakes":1,"rewards":50000000000000},{"txHash":"4b4ca196d524ae3877f772d5f0871e76aeedbf0330d2549178a834158593b299","time":"2023/05/02 17:22:04","blockNo":8722618,"epochNo":409,"epochSlotNo":157033,"slotNo":91481833,"numberOfStakes":1,"rewards":8931404863383},{"txHash":"0bc50b20e16268419048790f6ae3667a1480418dd9faed543bc0e8ca32ea7a08","time":"2022/11/08 19:50:46","blockNo":7989107,"epochNo":374,"epochSlotNo":165955,"slotNo":76370755,"numberOfStakes":20,"rewards":12920926388},{"txHash":"6ff389f4fc1b13291eeb67e0025524c7a3043bb262cf96b1618b58790231e649","time":"2022/11/08 19:50:46","blockNo":7989107,"epochNo":374,"epochSlotNo":165955,"slotNo":76370755,"numberOfStakes":200,"rewards":119005862638},{"txHash":"0e6a8c875deedd5cc0adafb0da1cdf782b5e941917de94a02ab5b85fbe99ba8b","time":"2022/11/08 19:50:34","blockNo":7989106,"epochNo":374,"epochSlotNo":165943,"slotNo":76370743,"numberOfStakes":200,"rewards":94623500691},{"txHash":"64135f68a56b4ddf50d6515ec16df4da757bfd097ceef85e55a0bb76f6d56a31","time":"2022/11/08 19:50:34","blockNo":7989106,"epochNo":374,"epochSlotNo":165943,"slotNo":76370743,"numberOfStakes":200,"rewards":125492230644},{"txHash":"a83bd9e60e1ef9584f9a8e4db1b8b9b91dca27a9fc2bcd4cead64124df065d3c","time":"2022/11/08 19:50:34","blockNo":7989106,"epochNo":374,"epochSlotNo":165943,"slotNo":76370743,"numberOfStakes":200,"rewards":78103346668},{"txHash":"d2978e9c5d74b3c2646fd0765ad79a1dd8df6c2931b773ce16c6b424ee9f6245","time":"2022/11/08 19:50:34","blockNo":7989106,"epochNo":374,"epochSlotNo":165943,"slotNo":76370743,"numberOfStakes":200,"rewards":186803892251},{"txHash":"4a1503b01c31bfa3dd3aba7bf3e7158098c31d09a654deedca9a27f50014b3b9","time":"2022/11/08 19:50:34","blockNo":7989106,"epochNo":374,"epochSlotNo":165943,"slotNo":76370743,"numberOfStakes":200,"rewards":68165040190},{"txHash":"0a5ba9cd2e837bfa1946193230f95fd15dd8595967dbf88ee07c5ff880ac3df6","time":"2022/11/08 19:50:24","blockNo":7989105,"epochNo":374,"epochSlotNo":165933,"slotNo":76370733,"numberOfStakes":200,"rewards":205478269870},{"txHash":"ba816bad2642c426390e2310bd0924a9562deac87c0ce2724295515db3adb952","time":"2022/11/08 19:50:24","blockNo":7989105,"epochNo":374,"epochSlotNo":165933,"slotNo":76370733,"numberOfStakes":200,"rewards":73912768364},{"txHash":"7a333d90e00cba2982ff45ca80eab14cd244ae5f28e4e999c881868be9145604","time":"2022/11/08 19:50:24","blockNo":7989105,"epochNo":374,"epochSlotNo":165933,"slotNo":76370733,"numberOfStakes":200,"rewards":123213532572},{"txHash":"84452284bb7dbd7907688aac58e2364c4ba32c713e2540b8df5838004671a155","time":"2022/11/08 19:50:24","blockNo":7989105,"epochNo":374,"epochSlotNo":165933,"slotNo":76370733,"numberOfStakes":200,"rewards":106051750692},{"txHash":"904381627bd2523d8b51a4961cb3c3c48973017eb72419e342c09d66fdf36a16","time":"2022/11/08 19:50:24","blockNo":7989105,"epochNo":374,"epochSlotNo":165933,"slotNo":76370733,"numberOfStakes":200,"rewards":84605416568},{"txHash":"d7eb10f09ee489a00b305c99c29e3903cdd05fe7d4d92b5b7a3e2d52b908dcc5","time":"2022/11/08 19:50:24","blockNo":7989105,"epochNo":374,"epochSlotNo":165933,"slotNo":76370733,"numberOfStakes":200,"rewards":112975494747},{"txHash":"cc23e4a13e58c6767ae7cdbace4edcf99d824c4630757036824360269acdbd36","time":"2022/11/08 19:50:24","blockNo":7989105,"epochNo":374,"epochSlotNo":165933,"slotNo":76370733,"numberOfStakes":200,"rewards":149691185420},{"txHash":"e95f82a2afe4c62e9a585fb99ae364cf178bbb8efbcced7f9f9e484472bb4cbd","time":"2022/11/08 19:49:59","blockNo":7989104,"epochNo":374,"epochSlotNo":165908,"slotNo":76370708,"numberOfStakes":200,"rewards":114786667748},{"txHash":"e0012bcf7087f6252f4adf01485024da66e06bce1bde6e71bd3381c320ad7b80","time":"2022/11/08 19:49:59","blockNo":7989104,"epochNo":374,"epochSlotNo":165908,"slotNo":76370708,"numberOfStakes":200,"rewards":120037374513},{"txHash":"9782a10c5408d44d4bd35ef46fa4fd331b9e801d07c7080cce6540f14da54b85","time":"2022/11/08 19:49:59","blockNo":7989104,"epochNo":374,"epochSlotNo":165908,"slotNo":76370708,"numberOfStakes":200,"rewards":87237798678},{"txHash":"7532377d054023d64d4de9fc6a3f4619447488796fad6021075a4a8b9a4500ef","time":"2022/11/08 19:49:56","blockNo":7989103,"epochNo":374,"epochSlotNo":165905,"slotNo":76370705,"numberOfStakes":200,"rewards":380190895165},{"txHash":"43efec8104dbf9e7aea25f494f90757848946dd5f2eec4d0755dde8d5246f7bd","time":"2022/11/08 19:49:56","blockNo":7989103,"epochNo":374,"epochSlotNo":165905,"slotNo":76370705,"numberOfStakes":200,"rewards":107979093165},{"txHash":"451870786d6686f07a287f27e09c7c7c80d0f1dc661c1b2fcea60cf9627c5d6d","time":"2022/11/08 19:49:56","blockNo":7989103,"epochNo":374,"epochSlotNo":165905,"slotNo":76370705,"numberOfStakes":200,"rewards":119114445871},{"txHash":"fbfab3ce52cadc5f079759c2e3d00ad28ddbebf207cf9a19366d24fbbffde9f8","time":"2022/11/08 19:49:35","blockNo":7989101,"epochNo":374,"epochSlotNo":165884,"slotNo":76370684,"numberOfStakes":200,"rewards":164513154936},{"txHash":"1d109a02cdaabe88b4519f02e1880bdc6e8bad905d42fa5f2246d345aff7c5cf","time":"2022/11/08 19:49:35","blockNo":7989101,"epochNo":374,"epochSlotNo":165884,"slotNo":76370684,"numberOfStakes":200,"rewards":69137695501},{"txHash":"82bf8cce4a972434ddb7de73fae77d1afec3a567256373c27ac7663092e8620d","time":"2022/11/08 19:49:35","blockNo":7989101,"epochNo":374,"epochSlotNo":165884,"slotNo":76370684,"numberOfStakes":200,"rewards":125817619441},{"txHash":"ee857053ebcab65968b86cb4281b96f4fb719c9e2d1fa97f21d90a2ca959c861","time":"2022/11/08 19:49:35","blockNo":7989101,"epochNo":374,"epochSlotNo":165884,"slotNo":76370684,"numberOfStakes":200,"rewards":118047637418},{"txHash":"b378c53b2b5b1f34f812f35bcdb1ffab7e4dbb49fe8dc7a52485faeed579b52d","time":"2022/11/08 19:49:30","blockNo":7989100,"epochNo":374,"epochSlotNo":165879,"slotNo":76370679,"numberOfStakes":200,"rewards":78318238608},{"txHash":"c3dd0c18201fa336635392d4a6dc169a105297813a90b15b601fbd0eb927dd33","time":"2022/11/08 19:49:23","blockNo":7989099,"epochNo":374,"epochSlotNo":165872,"slotNo":76370672,"numberOfStakes":200,"rewards":118879653219},{"txHash":"316e72852cb2efb9c923da2da517e01918226e5521eadce0166f1e794debf585","time":"2022/11/08 19:49:23","blockNo":7989099,"epochNo":374,"epochSlotNo":165872,"slotNo":76370672,"numberOfStakes":200,"rewards":193764335211},{"txHash":"64a7507062efef07bbb9a26bd9971151406d696b7e99b9e855f0ee14f41ce931","time":"2022/11/08 19:49:23","blockNo":7989099,"epochNo":374,"epochSlotNo":165872,"slotNo":76370672,"numberOfStakes":200,"rewards":102493441770},{"txHash":"3543543dafc4ce56adf8a48e82b2d8e83d4fb80bd7080e90a75b66a50820cf23","time":"2022/11/08 19:49:23","blockNo":7989099,"epochNo":374,"epochSlotNo":165872,"slotNo":76370672,"numberOfStakes":200,"rewards":131512943798},{"txHash":"098c0128ec7c540f5ddd2412e0c6ab81906d89dbe1ef3a7efdcb8f49d7c3fea9","time":"2022/11/08 19:48:21","blockNo":7989097,"epochNo":374,"epochSlotNo":165810,"slotNo":76370610,"numberOfStakes":200,"rewards":147331351818},{"txHash":"a68f8fe3a521f4bc37507ac1dced3245d12e33d187e13099c3bd4d29b67260c4","time":"2022/11/08 19:47:13","blockNo":7989096,"epochNo":374,"epochSlotNo":165742,"slotNo":76370542,"numberOfStakes":200,"rewards":84717577614},{"txHash":"b31694288f5eec844f1fa9ae314bd7eaba4ed2b955a340bb7ae77f12820ce7bc","time":"2022/11/08 19:47:13","blockNo":7989096,"epochNo":374,"epochSlotNo":165742,"slotNo":76370542,"numberOfStakes":200,"rewards":120502070902},{"txHash":"234bcbf56e97148520108c28a0c5ce96b60807973cc562645f95d9d7a33edade","time":"2022/11/08 19:47:13","blockNo":7989096,"epochNo":374,"epochSlotNo":165742,"slotNo":76370542,"numberOfStakes":200,"rewards":147773328658},{"txHash":"0b1fca8221b2abd1c3f8134704752d8e56dba61fe32186ee20cac2dccaf4be0c","time":"2022/11/08 19:47:13","blockNo":7989096,"epochNo":374,"epochSlotNo":165742,"slotNo":76370542,"numberOfStakes":200,"rewards":121575807983},{"txHash":"f0c7e9c62670a01d1688200bfa9b3da72cbf79d7dcb867c96c1c84086589af48","time":"2022/11/08 19:47:13","blockNo":7989096,"epochNo":374,"epochSlotNo":165742,"slotNo":76370542,"numberOfStakes":200,"rewards":77926961648},{"txHash":"9679e6f2012b0da0abe02edc71143c00b1fa9b0da6eaaa041685bdfe4939c8ec","time":"2022/11/08 19:47:13","blockNo":7989096,"epochNo":374,"epochSlotNo":165742,"slotNo":76370542,"numberOfStakes":200,"rewards":99083589451},{"txHash":"6fc0437a1fe48b5586f89c91286738f4eb1459d0a7b236141c6a9e15963c21aa","time":"2022/11/08 19:47:13","blockNo":7989096,"epochNo":374,"epochSlotNo":165742,"slotNo":76370542,"numberOfStakes":200,"rewards":193753149302},{"txHash":"add29543ac86e53a5a79cd19d5c712173ba9086f9287c7bb2f1315e519cb5ba3","time":"2022/11/08 19:47:13","blockNo":7989096,"epochNo":374,"epochSlotNo":165742,"slotNo":76370542,"numberOfStakes":200,"rewards":96459378359},{"txHash":"b461489170136a31698b929e1520ae377b244757fdbc82c65d4523c6cc4f25fb","time":"2022/11/08 19:46:53","blockNo":7989095,"epochNo":374,"epochSlotNo":165722,"slotNo":76370522,"numberOfStakes":200,"rewards":91658473180},{"txHash":"058bcba9c3f57486844e241f2098ad6d3c772a64fafe86694c4dee1754f91f22","time":"2022/11/08 19:46:53","blockNo":7989095,"epochNo":374,"epochSlotNo":165722,"slotNo":76370522,"numberOfStakes":200,"rewards":166842882534},{"txHash":"d2035863290f8285fd6607412122dc0db915437ab623f612d071158ca78fbfc0","time":"2022/11/08 19:46:53","blockNo":7989095,"epochNo":374,"epochSlotNo":165722,"slotNo":76370522,"numberOfStakes":200,"rewards":343529941922},{"txHash":"9aed58d66668b30f25f3082bb6b6a07c8d70c9828c69ebfd8cf23c7802aa8f26","time":"2022/11/08 19:46:53","blockNo":7989095,"epochNo":374,"epochSlotNo":165722,"slotNo":76370522,"numberOfStakes":200,"rewards":123387360727},{"txHash":"46a1e90d1e046c085365e046e74d57edaacc85e1d24771952947ed31453918d9","time":"2022/11/08 19:46:53","blockNo":7989095,"epochNo":374,"epochSlotNo":165722,"slotNo":76370522,"numberOfStakes":200,"rewards":143040515802},{"txHash":"911bbe13848935a22eccd5387fbaa5d3612cd6c509896fa73de251f8e2688b60","time":"2022/11/08 19:07:29","blockNo":7988996,"epochNo":374,"epochSlotNo":163358,"slotNo":76368158,"numberOfStakes":1,"rewards":33901607403799},{"txHash":"f480f39ad17d6477b971e0092c8c38b0c41606abdf749caa915b8cb8b1fc9100","time":"2022/05/26 13:35:43","blockNo":7295287,"epochNo":341,"epochSlotNo":57052,"slotNo":62005852,"numberOfStakes":135,"rewards":74334060338},{"txHash":"29d794140dd30530ccc4782fd72f46a76f7465367f8805f0e13326a2758c84c4","time":"2022/05/26 13:35:28","blockNo":7295286,"epochNo":341,"epochSlotNo":57037,"slotNo":62005837,"numberOfStakes":200,"rewards":87807439673},{"txHash":"837c7c48b4419aef61b88dffa1790e0f00e8736c6e910314aa3b5d5a35c5c95b","time":"2022/05/26 13:35:28","blockNo":7295286,"epochNo":341,"epochSlotNo":57037,"slotNo":62005837,"numberOfStakes":200,"rewards":128149869589},{"txHash":"41e1a8e8887da5b54151cfe1336d0a98fc82122d4da868322ecf8a24bca3a63a","time":"2022/05/26 13:35:28","blockNo":7295286,"epochNo":341,"epochSlotNo":57037,"slotNo":62005837,"numberOfStakes":200,"rewards":107624407721},{"txHash":"e974b1e6a1ab915288c651d56fecef647ce08fa35c0866a1d8219ff73803af2e","time":"2022/05/26 13:35:28","blockNo":7295286,"epochNo":341,"epochSlotNo":57037,"slotNo":62005837,"numberOfStakes":200,"rewards":157490721752},{"txHash":"632139a5bd04774a5b53ae64de939691726ce45895d61bd34137fa60c95fd117","time":"2022/05/26 13:35:28","blockNo":7295286,"epochNo":341,"epochSlotNo":57037,"slotNo":62005837,"numberOfStakes":200,"rewards":183183074465},{"txHash":"28dbf3e9269ff8ad3073c63ace39afee6e646bc21f2149c49b6ec7bf710e7ed2","time":"2022/05/26 13:35:28","blockNo":7295286,"epochNo":341,"epochSlotNo":57037,"slotNo":62005837,"numberOfStakes":200,"rewards":92300632077},{"txHash":"aafb7542f5dbd34c81be296ea5a29bb3f425a01a8d15945e9f37c076b6c835d7","time":"2022/05/26 13:35:28","blockNo":7295286,"epochNo":341,"epochSlotNo":57037,"slotNo":62005837,"numberOfStakes":200,"rewards":96038938870},{"txHash":"15aec88d934b47b40805bb7361e1a9a7a76c532b35272221c4b9a293489a44a9","time":"2022/05/26 13:35:21","blockNo":7295285,"epochNo":341,"epochSlotNo":57030,"slotNo":62005830,"numberOfStakes":200,"rewards":179467940309},{"txHash":"28bbfde4a79bee8ff7758fb17fd8ea183b71e5e815739bf6525d28c5918e9ea5","time":"2022/05/26 13:34:58","blockNo":7295284,"epochNo":341,"epochSlotNo":57007,"slotNo":62005807,"numberOfStakes":200,"rewards":88259388982},{"txHash":"dfdf81367182bc3139d9e7891c57022aaf6ededbba6723409ef689372879b57c","time":"2022/05/26 13:34:46","blockNo":7295283,"epochNo":341,"epochSlotNo":56995,"slotNo":62005795,"numberOfStakes":200,"rewards":133913819273},{"txHash":"832f1ee795fb435f7f6a1ee97ca9fdf988d29d19c381b25e7c542701f269d7e0","time":"2022/05/26 13:34:46","blockNo":7295283,"epochNo":341,"epochSlotNo":56995,"slotNo":62005795,"numberOfStakes":200,"rewards":81827663336},{"txHash":"94c9bb328c71ceca3bd260955817ed633c6e817e3d7238e3ff06603c34da0cec","time":"2022/05/26 13:34:46","blockNo":7295283,"epochNo":341,"epochSlotNo":56995,"slotNo":62005795,"numberOfStakes":200,"rewards":114926005867},{"txHash":"0e33c038b0876693134dc782f737b93cd25143878f52cea9a90d489bdf196485","time":"2022/05/26 13:34:46","blockNo":7295283,"epochNo":341,"epochSlotNo":56995,"slotNo":62005795,"numberOfStakes":200,"rewards":59561617199},{"txHash":"e2e17dfadcf89c59b6d70d4449423c24031fb8ac6214d29ef448078b9bd5b1fb","time":"2022/05/26 13:34:25","blockNo":7295282,"epochNo":341,"epochSlotNo":56974,"slotNo":62005774,"numberOfStakes":200,"rewards":106598378724},{"txHash":"3436756bbe4258599067f635da40c0ffe5bfacf19777eb1b33f05337383c4c9c","time":"2022/05/26 13:34:25","blockNo":7295282,"epochNo":341,"epochSlotNo":56974,"slotNo":62005774,"numberOfStakes":200,"rewards":141578313027},{"txHash":"e544ecc30827062bc40bf959351c94733b7adf39dbe562685ef5f3937103d92d","time":"2022/05/26 13:34:15","blockNo":7295281,"epochNo":341,"epochSlotNo":56964,"slotNo":62005764,"numberOfStakes":200,"rewards":139602462856},{"txHash":"ffeb20e95619ecadbc2cd34d07e5911f9a659d7dd05b36e5565b1bb12ae0f8c9","time":"2022/05/26 13:33:38","blockNo":7295280,"epochNo":341,"epochSlotNo":56927,"slotNo":62005727,"numberOfStakes":200,"rewards":102940567166},{"txHash":"064b083b8deb00b4a512e7293be3da845421170a85a31fd6d1190dbdeab96882","time":"2022/05/26 13:33:38","blockNo":7295280,"epochNo":341,"epochSlotNo":56927,"slotNo":62005727,"numberOfStakes":200,"rewards":88997277886},{"txHash":"a035d98d9cfb80b09c7455b56cc58820155debe26611e2332a671a7e98afe6b8","time":"2022/05/26 13:33:38","blockNo":7295280,"epochNo":341,"epochSlotNo":56927,"slotNo":62005727,"numberOfStakes":200,"rewards":104020859707},{"txHash":"caea0aa59908bb20ed91ed82e96ab0b727e5d46a96f14385d055fd44a849563d","time":"2022/05/26 13:33:38","blockNo":7295280,"epochNo":341,"epochSlotNo":56927,"slotNo":62005727,"numberOfStakes":200,"rewards":124925183817},{"txHash":"b59f7872b78a1295cbc7460306a03ddb6f7718e5912bc77d0e1b839be0c64cf7","time":"2022/05/26 13:33:38","blockNo":7295280,"epochNo":341,"epochSlotNo":56927,"slotNo":62005727,"numberOfStakes":200,"rewards":99599164033},{"txHash":"edef0e43abe381bcba95b12f123cd0561fd2e888aef37b3196b9f67d5c49d128","time":"2022/05/26 13:33:38","blockNo":7295280,"epochNo":341,"epochSlotNo":56927,"slotNo":62005727,"numberOfStakes":200,"rewards":133550535095},{"txHash":"e8bc92838f067430795881a922dc6e07b9f34217e7c9f03d9b913f6be896f279","time":"2022/05/26 13:32:46","blockNo":7295279,"epochNo":341,"epochSlotNo":56875,"slotNo":62005675,"numberOfStakes":200,"rewards":132133669262},{"txHash":"d61a0a444576ed58068ee3da5d89f93d8cc67c285c28585759d3b86acd2891b1","time":"2022/05/26 13:32:46","blockNo":7295279,"epochNo":341,"epochSlotNo":56875,"slotNo":62005675,"numberOfStakes":200,"rewards":126088372146},{"txHash":"849054fa223ca97969e8c8371c2a41e6f8508244d2517e9e9b2888249164eea3","time":"2022/05/26 13:32:46","blockNo":7295279,"epochNo":341,"epochSlotNo":56875,"slotNo":62005675,"numberOfStakes":200,"rewards":155749958373},{"txHash":"ca641b082452ff540aa59bd26db2ca3212d1f0f7863199365db7fd2e5888b97c","time":"2022/05/26 13:32:46","blockNo":7295279,"epochNo":341,"epochSlotNo":56875,"slotNo":62005675,"numberOfStakes":200,"rewards":110935942010},{"txHash":"01306e11465a18b8fce6babaada3739709f1a3b61db1f1fde436e21c447a7857","time":"2022/05/26 13:32:46","blockNo":7295279,"epochNo":341,"epochSlotNo":56875,"slotNo":62005675,"numberOfStakes":200,"rewards":103683195295},{"txHash":"13df3d3e60810d8b0c42f6c8ba85610d873eb1ad891703ea66b85af165e97196","time":"2022/05/26 13:32:46","blockNo":7295279,"epochNo":341,"epochSlotNo":56875,"slotNo":62005675,"numberOfStakes":200,"rewards":122243033053},{"txHash":"d76ef0c0a6debcf8f95111d2b45329fa5b58503d07ce506d67ab8322167a0a6b","time":"2022/05/26 13:32:46","blockNo":7295279,"epochNo":341,"epochSlotNo":56875,"slotNo":62005675,"numberOfStakes":200,"rewards":152303763511},{"txHash":"409e032ada350aacdaa2089427e739b6f42980b60e1cd2ca893eab1d25a3d084","time":"2022/05/26 13:32:26","blockNo":7295278,"epochNo":341,"epochSlotNo":56855,"slotNo":62005655,"numberOfStakes":200,"rewards":114249372044},{"txHash":"df8fedff1f82bf2ed86d1b1a16967672241f4059fda710696b8f952e0b355d54","time":"2022/05/26 13:32:26","blockNo":7295278,"epochNo":341,"epochSlotNo":56855,"slotNo":62005655,"numberOfStakes":200,"rewards":391512657740},{"txHash":"e1740db7f11c54f71780322aa6bf4ccf05617f210086ab427a9ffa36c309002b","time":"2022/05/26 13:32:26","blockNo":7295278,"epochNo":341,"epochSlotNo":56855,"slotNo":62005655,"numberOfStakes":200,"rewards":59332025330},{"txHash":"b454f77a779da64c7768b23b3f28646d648ce9fdbcbda993e656cf9578d2b36d","time":"2022/05/26 13:32:26","blockNo":7295278,"epochNo":341,"epochSlotNo":56855,"slotNo":62005655,"numberOfStakes":200,"rewards":180710456329},{"txHash":"70b368bf7adb61d6149984d73f312eb51721145f0f0dd13e6e38ee02298c0382","time":"2022/05/26 13:14:28","blockNo":7295227,"epochNo":341,"epochSlotNo":55777,"slotNo":62004577,"numberOfStakes":1,"rewards":28641975308642},{"txHash":"a8bdc25bf9dd08f59aa3a135c7ed52a6fd5d42b75ccc86d24a6a28fdd0b2a36a","time":"2022/02/21 17:09:19","blockNo":6910267,"epochNo":322,"epochSlotNo":156268,"slotNo":53897068,"numberOfStakes":34,"rewards":3819574621},{"txHash":"ab51070d9e1bc7711a43d8fef3a3ba023205e5dcbe9d07fcf1f5e2222b2cd484","time":"2022/02/21 17:09:19","blockNo":6910267,"epochNo":322,"epochSlotNo":156268,"slotNo":53897068,"numberOfStakes":200,"rewards":22455763026},{"txHash":"cb7f5dff33a36cca4676861fa56987031bdf23e047d5ec41776c95134d9b6efc","time":"2022/02/21 17:09:19","blockNo":6910267,"epochNo":322,"epochSlotNo":156268,"slotNo":53897068,"numberOfStakes":200,"rewards":22958978813},{"txHash":"1957cbb954d15b3c0dda4484e1894e0b7751495eeda2ddc51c12d6c567d311a4","time":"2022/02/21 17:07:36","blockNo":6910261,"epochNo":322,"epochSlotNo":156165,"slotNo":53896965,"numberOfStakes":200,"rewards":23603743931},{"txHash":"be13d3af8b2e4d34cf6ec2f6cacef76a050a06fcae04936068823b38ffc2344b","time":"2022/02/21 17:05:52","blockNo":6910259,"epochNo":322,"epochSlotNo":156061,"slotNo":53896861,"numberOfStakes":200,"rewards":39655722186},{"txHash":"eece220df402fda4feda427ae2db315d08d4ef501a1519db4ec3f7d2f2df2d65","time":"2022/02/21 17:04:42","blockNo":6910255,"epochNo":322,"epochSlotNo":155991,"slotNo":53896791,"numberOfStakes":200,"rewards":46445160644},{"txHash":"66497eb2ba7ab2a598264d651100450b8405ffb7fab6cafef9c11d6cf5438831","time":"2022/02/21 17:04:42","blockNo":6910255,"epochNo":322,"epochSlotNo":155991,"slotNo":53896791,"numberOfStakes":200,"rewards":51737491923},{"txHash":"03028e34c3b4a1d0c682ff60bc75e995983d5f2cbdb2ab07ba77bc823dd5337c","time":"2022/02/21 17:01:57","blockNo":6910247,"epochNo":322,"epochSlotNo":155826,"slotNo":53896626,"numberOfStakes":200,"rewards":23763247908},{"txHash":"7ca90ed8ecb1b0dda4d08905d437dcfe2025b49bc33d34ff972be7bbe4e48eeb","time":"2022/02/21 17:01:57","blockNo":6910247,"epochNo":322,"epochSlotNo":155826,"slotNo":53896626,"numberOfStakes":200,"rewards":23811552370},{"txHash":"f69b56cbdf169313b8a41bffbb93a30e2e8de4c693cc46891985e4882ad88271","time":"2022/02/21 16:56:20","blockNo":6910234,"epochNo":322,"epochSlotNo":155489,"slotNo":53896289,"numberOfStakes":200,"rewards":47511752316},{"txHash":"bb8cc0c944efa6ce25b2b1ff701a103c73bbad969ec3141e68f1f68e9b9fb7a7","time":"2022/02/21 16:55:48","blockNo":6910233,"epochNo":322,"epochSlotNo":155457,"slotNo":53896257,"numberOfStakes":200,"rewards":23119373617},{"txHash":"5dff1ecd514a6dc334b931628d560642f741a7d25aaf6a7ef5a57310fd86eec0","time":"2022/02/21 16:55:48","blockNo":6910233,"epochNo":322,"epochSlotNo":155457,"slotNo":53896257,"numberOfStakes":200,"rewards":43139443505},{"txHash":"f13f68e845211b759a261a4a14420562373025571c0de00835300a0beead02ca","time":"2022/02/21 16:52:01","blockNo":6910218,"epochNo":322,"epochSlotNo":155230,"slotNo":53896030,"numberOfStakes":200,"rewards":18933178096},{"txHash":"2ddc84955c1f6260965084b5620fd1baa992a5cc368cb46e2945128390d1ba41","time":"2022/02/21 16:52:01","blockNo":6910218,"epochNo":322,"epochSlotNo":155230,"slotNo":53896030,"numberOfStakes":200,"rewards":31531673129},{"txHash":"caa2253b20979941be7606b39561974513a9f95404ba7038978000be598f50c1","time":"2022/02/21 16:52:01","blockNo":6910218,"epochNo":322,"epochSlotNo":155230,"slotNo":53896030,"numberOfStakes":200,"rewards":17224738396},{"txHash":"0c7711453eb741736768162f32f696dd164a6abcea829a34a8dac34cecf95ea1","time":"2022/02/21 16:52:01","blockNo":6910218,"epochNo":322,"epochSlotNo":155230,"slotNo":53896030,"numberOfStakes":200,"rewards":37387427635},{"txHash":"cd1c51daf3144992df20302df046498b36929a4169dd1ce2835ca3da36ade70c","time":"2022/02/21 16:52:01","blockNo":6910218,"epochNo":322,"epochSlotNo":155230,"slotNo":53896030,"numberOfStakes":200,"rewards":30966692702},{"txHash":"9eca79e8c5d0b3e9ece860a92137913c9bb232a0f6910184b76c72828beeb28a","time":"2022/02/21 16:51:14","blockNo":6910216,"epochNo":322,"epochSlotNo":155183,"slotNo":53895983,"numberOfStakes":200,"rewards":33254613830}],"totalItems":1061,"totalPages":11,"currentPage":0,"isDataOverSize":null}