{"data":[{"txHash":"0395a81d0b86747d3d26db7086202ba3026a3cef31da4c2328b92617ffe6dd3a","txTime":"2024/04/11 11:37:50","block":10172439,"epoch":478,"slotNo":121269179,"epochSlotNo":136379,"stakeKey":"stake1uxzs5788z0r7pda0evsvqg7rqfjw53evcukwzdk57pwzfnq8paked"},{"txHash":"c7080a44aaa7147877f3e553b353094d9c757f8a94342c83934f313700c79969","txTime":"2024/04/11 11:31:44","block":10172423,"epoch":478,"slotNo":121268813,"epochSlotNo":136013,"stakeKey":"stake1u9kpgshvnl5w72qmv6ry3g03zxwvjkl6m0urmszk2ms0ysg2we5zd"},{"txHash":"0aa7c2e9164afea3e494e296f670baae1af23db8e13c6cde4009d2e0ddf46e64","txTime":"2024/04/11 11:30:19","block":10172418,"epoch":478,"slotNo":121268728,"epochSlotNo":135928,"stakeKey":"stake1uyucnakzxzv9f2fgzkx8j6n0vq66fe0nv463qhx2xf558pc0yahav"},{"txHash":"f7910d315eb290a91a3954d140c5d34c325336b476027cc5573b90dfa7e1834b","txTime":"2024/04/11 11:25:23","block":10172399,"epoch":478,"slotNo":121268432,"epochSlotNo":135632,"stakeKey":"stake1uymp9ut7h7xtujuaz8spgcfyqgxg80429at33cu9zc5jdfccvjkm4"},{"txHash":"da9f38e5c38c35be5b9c4e7290268f9e4d109af2182515142e129286195e5632","txTime":"2024/04/11 11:17:09","block":10172382,"epoch":478,"slotNo":121267938,"epochSlotNo":135138,"stakeKey":"stake1uy97f5zr0kulvfps3cmyqps5rvfg4xq6dl054uxz9enfx5g5tdr3n"},{"txHash":"9c1ce5adc6430c1397b29ed068689ae8f73755bff6085719dac14c914d7731e2","txTime":"2024/04/11 11:13:03","block":10172371,"epoch":478,"slotNo":121267692,"epochSlotNo":134892,"stakeKey":"stake1ux50qd9vtxk7uwkdwfqj5ft9rjg0ppmd2d39unz6tmjr26qcflcdy"},{"txHash":"db60e26c0e475d736ec986016880415985eef01c93de6b6031ed15a3a40e5bfc","txTime":"2024/04/11 11:07:45","block":10172366,"epoch":478,"slotNo":121267374,"epochSlotNo":134574,"stakeKey":"stake1u9gfvlauqnqdvwe5yu8zp4a94wkv3maqr5kg8lvqdsef46c6v4gyl"},{"txHash":"c0fe86c8fdbe0ed892426a4c9531c036611570339bdb24564b453f0f1b9b3146","txTime":"2024/04/11 10:59:59","block":10172347,"epoch":478,"slotNo":121266908,"epochSlotNo":134108,"stakeKey":"stake1u9pv9r2a0wa9qrv784tv6533upuatqmegqde53jrgkxt68gwcklsc"},{"txHash":"4f7636d967d32ba750c06fa6b5e874ffdbcce95cfd60b9082ffebf0be26ca6a9","txTime":"2024/04/11 10:59:59","block":10172347,"epoch":478,"slotNo":121266908,"epochSlotNo":134108,"stakeKey":"stake1u99lkfcmmj03r4324jfzwkqeugpus37km0ewsrayk4994jg4fppww"},{"txHash":"117c2c43378dbe437c5b8f6d742a0cae0035808294d22a248ac8c4c6a371cbf8","txTime":"2024/04/11 10:54:12","block":10172337,"epoch":478,"slotNo":121266561,"epochSlotNo":133761,"stakeKey":"stake1uypfhlwmz385ky2ezjgawrvmyvs8ugp4us75mwux566fggqcrsqdt"},{"txHash":"cbf76020b9e1779448b75eb3d220808b9363241308e2cfb296c4ec843d675405","txTime":"2024/04/11 10:50:22","block":10172319,"epoch":478,"slotNo":121266331,"epochSlotNo":133531,"stakeKey":"stake1u8le5xpnyewjkq4audnz9mn4xev8x04g50ugsz0wwtxngvqpxll7s"},{"txHash":"1fab8e10788f440b903d801ee2c5dd3aa150220f1e4a2b304cd463e3377b28c4","txTime":"2024/04/11 10:48:18","block":10172310,"epoch":478,"slotNo":121266207,"epochSlotNo":133407,"stakeKey":"stake1u93yzsgunw3peh5c4wj40g6nrnm8nut7yw0c0csscqnxd7g8zukjr"},{"txHash":"c292ae7fb85b1390bab8bd56fa8076782efa788b927c08e83ce1ec4ffdaae4b9","txTime":"2024/04/11 10:46:44","block":10172303,"epoch":478,"slotNo":121266113,"epochSlotNo":133313,"stakeKey":"stake1uy8qaaefn3r4aplemwkturn3kt656d8kskl4h8q8xjrf4vsay33jd"},{"txHash":"3f05d0b0d584e992caa9a81506c1d5c688c5776038f7a904f351272373bc875b","txTime":"2024/04/11 10:42:15","block":10172291,"epoch":478,"slotNo":121265844,"epochSlotNo":133044,"stakeKey":"stake1uy96tm9uyu6zwg20zl833v7pyzace6hpdrufvxen8rtf6ega5tm6z"},{"txHash":"a42a598621bc3c461480b9df7c63d6839245c011f5d1ddeeda0c99a96229864a","txTime":"2024/04/11 10:32:44","block":10172267,"epoch":478,"slotNo":121265273,"epochSlotNo":132473,"stakeKey":"stake1u99d8yh7hwzw66c376l8nd0h80upx9murlld78hep7k8fdcntzkke"},{"txHash":"e8a9f9773c1ba0acac5d4b20069d34bf90cbed3b2eebfecb552fe5e248f79000","txTime":"2024/04/11 10:27:34","block":10172254,"epoch":478,"slotNo":121264963,"epochSlotNo":132163,"stakeKey":"stake1uyf526mmhprnsqnvxgh9ylpd67djfg46ufcm658zyvqcrzgw60e9h"},{"txHash":"651921c1f7cc3cc0d62ce05820dca331b6da0dac2200cfc66c883342f76a7b73","txTime":"2024/04/11 10:23:33","block":10172245,"epoch":478,"slotNo":121264722,"epochSlotNo":131922,"stakeKey":"stake1uxtaqvsl86dt9sxmj6u5y5xjqpsnsylqf9trlhvgf5rwj8qgark76"},{"txHash":"905a28f4b062e0b947a6bd6e3d253b131be03c886fd5b8223e417190f6cd01b5","txTime":"2024/04/11 10:16:51","block":10172230,"epoch":478,"slotNo":121264320,"epochSlotNo":131520,"stakeKey":"stake1uxtsleyzm0cn9l4fjuakp7lnq02hmqcr3pw6cu5ss8s49jghmlugv"},{"txHash":"73e07d1a68f7f278e61e04c93262186e201eff02776e923db437c20f6185b302","txTime":"2024/04/11 10:16:51","block":10172230,"epoch":478,"slotNo":121264320,"epochSlotNo":131520,"stakeKey":"stake1u80d5ss4pqjku055jmqsef0c7ch9szp9xdxy48l8t2ngp5sytpfk0"},{"txHash":"f1879335c761a7cf04d80e62d90c5e050e373667d0ab54957b620e1632e19d13","txTime":"2024/04/11 10:09:38","block":10172212,"epoch":478,"slotNo":121263887,"epochSlotNo":131087,"stakeKey":"stake1uyuv9fzp3xs4pqs3eed0yk8ka4l7ey9xf0xz2a9d5rnhgjqg252pq"},{"txHash":"17d62754ade65762d6d0257443f64639dbb08c67a9d8a5da859a0a9f58acce97","txTime":"2024/04/11 10:01:11","block":10172190,"epoch":478,"slotNo":121263380,"epochSlotNo":130580,"stakeKey":"stake1u9w9uh867tnmz8nmww62tlwfw3uc0hwz6jmg8gga2rqc73q5mxxfk"},{"txHash":"71f2125a497231b58e392b328aa6f49eedbe5696dd8be0c4991d12499fd71514","txTime":"2024/04/11 09:55:18","block":10172175,"epoch":478,"slotNo":121263027,"epochSlotNo":130227,"stakeKey":"stake1uyrgmrh82dhr8tg486yhffdsswckc6kw66res3v78etpwvcn6sj5k"},{"txHash":"20c575815ad8ea25ef2a8d372b8a699179a180e8ab62551b84d8ed9e3f18edc0","txTime":"2024/04/11 09:37:15","block":10172128,"epoch":478,"slotNo":121261944,"epochSlotNo":129144,"stakeKey":"stake1u86uq9n75fnqmjlwn2e8jax90mwuvjuqsd7zd02dcln6ldg8cutve"},{"txHash":"650a4849c8a087c1a0b6058254440aed555becc7979fb07144bd706c1640c8a7","txTime":"2024/04/11 09:35:36","block":10172122,"epoch":478,"slotNo":121261845,"epochSlotNo":129045,"stakeKey":"stake1uyvg24tjwv8dz83wlvffcph3v9xcq82q53ahz9wzltrj9zc3f3xls"},{"txHash":"cabef2004b450cdeaa56a4b8def5d52b6be0255416225b345e2e6c4389b7ec65","txTime":"2024/04/11 09:33:25","block":10172116,"epoch":478,"slotNo":121261714,"epochSlotNo":128914,"stakeKey":"stake1u8wzy95h3mfwp3jk75k5mnv58ue5vrlrsargcqhl6d4px4cx6r4ge"},{"txHash":"041ec29cbf89bd4be31a15a0b940775fe002167ac30a6df0713985ec01181dd8","txTime":"2024/04/11 09:29:37","block":10172108,"epoch":478,"slotNo":121261486,"epochSlotNo":128686,"stakeKey":"stake1u8ly0j0f0xhzf6wkhwejese9v2392gwheyw2v87uwfjvdlc7lrf6j"},{"txHash":"8653679393c4cd549d508faa412b64a934c3db5b3e83dfe1e8e5757c99f9473d","txTime":"2024/04/11 09:25:53","block":10172102,"epoch":478,"slotNo":121261262,"epochSlotNo":128462,"stakeKey":"stake1uxugsg55hcm3sm23agymg73qkfge2s8hcez0dd72ff5r87c0557k0"},{"txHash":"f3ef44c0cb9667225efaa1f05373709b28f4caeafaaa138d98f8ad23f87785c9","txTime":"2024/04/11 09:25:53","block":10172102,"epoch":478,"slotNo":121261262,"epochSlotNo":128462,"stakeKey":"stake1u8wgtscyd6nhh3vfej35jdnf29rmnthvt8f90r4kjvec0ss4q9dt0"},{"txHash":"dc75a3d9a9104373245f79e56ad2e463ec3d26da0820ef3eaf55d584d4d7c670","txTime":"2024/04/11 09:23:48","block":10172094,"epoch":478,"slotNo":121261137,"epochSlotNo":128337,"stakeKey":"stake1u9whakm20sufr66ym7ywrzjpqx8n6xl7624lrzu4umz9ddqe250ap"},{"txHash":"33456ce55c4f29ea04bfbc7e2eccf1a6489a368120900fbf825bf934b6878791","txTime":"2024/04/11 09:07:24","block":10172049,"epoch":478,"slotNo":121260153,"epochSlotNo":127353,"stakeKey":"stake1uxsqlrch3gpr7e6djxhh0vn3lcdk5veyqyvwath5khqny9g2ythff"},{"txHash":"b10d5ed422b32d85b82e24b66761c8d8d087137323133b4d098a89d91df9919e","txTime":"2024/04/11 09:02:00","block":10172035,"epoch":478,"slotNo":121259829,"epochSlotNo":127029,"stakeKey":"stake1u968rrnjggxr3u5ywj62j4cysngrez7nuzefyf2h0yxh7mcvp2n96"},{"txHash":"3807d9db22177e58e863a5b7c5f7ded66964e774e5993823115c28ad80e0b082","txTime":"2024/04/11 08:59:55","block":10172027,"epoch":478,"slotNo":121259704,"epochSlotNo":126904,"stakeKey":"stake1u9tnsluuuc6f59naq2qgdjrut9whgc6c2r2fmshyda2kh8s7ng3es"},{"txHash":"b48432060ec8f017c76de2ca2db9f4bc5d190a9d2a2641db698a1597062d3400","txTime":"2024/04/11 08:56:40","block":10172019,"epoch":478,"slotNo":121259509,"epochSlotNo":126709,"stakeKey":"stake1uyg3sjtcqtap4skh7980wf4vq9pj7mym97zp3rmcrsmc5xqvsz5c7"},{"txHash":"9b39b4ff3aef235cd518d767391ac4186b7fbe24d1c764ac14c2fe569e3c8297","txTime":"2024/04/11 08:54:40","block":10172010,"epoch":478,"slotNo":121259389,"epochSlotNo":126589,"stakeKey":"stake1uy8qmyzz9p907zaa9qaxjfthadht2484hrcvut5xfupf60cn2yc8u"},{"txHash":"0ab3bb1cfb2081bd1d5856d2b4acdf0fc460bc211d70a955b4e0e7dd172b54da","txTime":"2024/04/11 08:40:09","block":10171971,"epoch":478,"slotNo":121258518,"epochSlotNo":125718,"stakeKey":"stake1u8putm4vam20xk4ugt3332gngasjygmpmmkkm2zqlkfruagzyujny"},{"txHash":"dbf9af0f49f3c6226f2f5f1ba5ac30fe792ed01c832bb2bb1353c6d7acb7593b","txTime":"2024/04/11 08:39:11","block":10171967,"epoch":478,"slotNo":121258460,"epochSlotNo":125660,"stakeKey":"stake1uxnzc6x0a0py6756x0mnxl0j3ry9nzx5s02lwsrqk63vpygfjhndu"},{"txHash":"40a731bc47e2e6b03f6241c44f1d7cfe1671bb07ba761a8911482aab44eeae7a","txTime":"2024/04/11 08:36:44","block":10171959,"epoch":478,"slotNo":121258313,"epochSlotNo":125513,"stakeKey":"stake1u9vc3frueza7x7y36764pn364t72zmuwfk6yx8zm9zewz4g2j3fqm"},{"txHash":"f56fa7e00d2b7f0ede15ec1a5ae81a751eaddd557ef894ec3b89d5b74559ad36","txTime":"2024/04/11 08:35:26","block":10171956,"epoch":478,"slotNo":121258235,"epochSlotNo":125435,"stakeKey":"stake1uxd6f85jgtv3kydlqr8pcnp4hwjst73jtfz7efxkgeqv8pgwnvuw4"},{"txHash":"6612db2b274cae3cf28f63a33eb76338ec2e2e3d417bf0c16b7ce9ef769cae93","txTime":"2024/04/11 08:03:10","block":10171856,"epoch":478,"slotNo":121256299,"epochSlotNo":123499,"stakeKey":"stake1u97p5k0kalwxcj5cfakhaxxm3x96qqpca36a2nwwelm25ns67jnua"},{"txHash":"1c37fae0487a48ff51a9f2dfaf267413ca402dd31c4b729ecde3904923075ad3","txTime":"2024/04/11 08:02:04","block":10171853,"epoch":478,"slotNo":121256233,"epochSlotNo":123433,"stakeKey":"stake1uxnmn76wql5mruwuuetzg044th2lspj0m5rezyasxnuw9hcdkx29l"},{"txHash":"d27a3b0420670efb43658f5b3c9255ab55eb175c359b3062fcec34322e7f7113","txTime":"2024/04/11 07:47:50","block":10171819,"epoch":478,"slotNo":121255379,"epochSlotNo":122579,"stakeKey":"stake1u82kgkwpt8w82h6pslxskfpy0f9mjug3andj92796zatptg9l728p"},{"txHash":"afd3e08e418772ec6c2c6ddc1c5dce4d07851dab5ccb75c2f8926bdaa4838717","txTime":"2024/04/11 07:36:59","block":10171786,"epoch":478,"slotNo":121254728,"epochSlotNo":121928,"stakeKey":"stake1u8kkpd78au4a492q3hcqu50av0ynlc6mq8y0k8xc7kpyq3qvwu93c"},{"txHash":"b86843b915d015a401d537fd55bb366fd8025bbb33d5c1cdd12c2a4c2e80ed5a","txTime":"2024/04/11 07:34:30","block":10171780,"epoch":478,"slotNo":121254579,"epochSlotNo":121779,"stakeKey":"stake1u9ez29qaefre0n8sf4qtsjra655jqvhdhc097f6eg24egdqh8nnyu"},{"txHash":"f371e28016dcfda79f96d44870865367bb1c02c71cda8c12371351e998e06f38","txTime":"2024/04/11 07:22:24","block":10171749,"epoch":478,"slotNo":121253853,"epochSlotNo":121053,"stakeKey":"stake1uyjrgspn29zfsjwl0ahzsv8ahzpm2tanv4jp8rk9c47w24swdpnlz"},{"txHash":"b9e35cf0cd898c0d2d66c9dfa8447e400fe9773cf874ca901645a5cc3b5aa4ac","txTime":"2024/04/11 07:20:10","block":10171742,"epoch":478,"slotNo":121253719,"epochSlotNo":120919,"stakeKey":"stake1u9uld0fq4xqmagkhg8qszec8y0yjm2vrnnha5dm2zwdu7qsu24syy"},{"txHash":"e6c58ee77713eaa927bc59e41ef0d53108b634809ca1d2407127a00617268827","txTime":"2024/04/11 07:10:23","block":10171709,"epoch":478,"slotNo":121253132,"epochSlotNo":120332,"stakeKey":"stake1u9au540825wvusrma9u4qc5htnesrsupew5mdurcevlgp3s0llu0w"},{"txHash":"388d9d03753a373acd55e3cf2779197e7910b034c68f4140e2165a4a24c65b64","txTime":"2024/04/11 07:09:57","block":10171708,"epoch":478,"slotNo":121253106,"epochSlotNo":120306,"stakeKey":"stake1uy4yy8tm6vd5p8rw7lgwr0230f9w5wahj0efm6gmdqws4mcgkw4ce"},{"txHash":"8d0ee3aadfd5267ccf01719a26eefc1fd9b2ae0f2f0c7726b11dff8c504fd404","txTime":"2024/04/11 06:57:33","block":10171675,"epoch":478,"slotNo":121252362,"epochSlotNo":119562,"stakeKey":"stake1u9vnnv8dlehnzvpr3utaucma0ms8lasg7h0czkdfme5uc2gc88383"},{"txHash":"85a51b4496074f46afd84995e7b04fcbbd78e29a5c1d2360d551a880664cc354","txTime":"2024/04/11 06:56:08","block":10171673,"epoch":478,"slotNo":121252277,"epochSlotNo":119477,"stakeKey":"stake1uy0l4h4tu88mx53zf7erengmh6ge2rxnd4zanrxk0833jys8xtlp4"},{"txHash":"e5c6d814985a7b09cb13ea191d3c21433aecfe85782e6ae71157643cb7b9f61d","txTime":"2024/04/11 06:52:21","block":10171657,"epoch":478,"slotNo":121252050,"epochSlotNo":119250,"stakeKey":"stake1uxndp47fv6nq8k53g6e0hun059ukdezsqdtuq3l0qdczd6scruw6l"},{"txHash":"bac6406ff916cbd690fd40a56eebbcd908eeb7e20f7f48e1c7301404e62e59e3","txTime":"2024/04/11 06:22:18","block":10171556,"epoch":478,"slotNo":121250247,"epochSlotNo":117447,"stakeKey":"stake1u9pyusw6jdher5jlzkga8szv9lt0wkqlwvh053n7a8kql4qmad4uu"},{"txHash":"ff68ccb81ebdd5551f9706099a5145f1dfcf0ab315b33a0ba79b702792bea102","txTime":"2024/04/11 06:14:11","block":10171524,"epoch":478,"slotNo":121249760,"epochSlotNo":116960,"stakeKey":"stake1ux7fvwkyuehuljyk5g4jrh0wtt5nzsefaduf4cpk92g8xkc5a6txh"},{"txHash":"791360e418651ac0a3d295e163f2bcb2b31727fbff384ca5599fb700154cb274","txTime":"2024/04/11 06:13:26","block":10171517,"epoch":478,"slotNo":121249715,"epochSlotNo":116915,"stakeKey":"stake1u9llxhrgjd9fhu55wnz597jazmrtjvqag2wyllzr3txnlxg84jnge"},{"txHash":"639bfb1a171a78594a36eb553dd0cdc7339b184ea951366691ef76a51dbc3bcc","txTime":"2024/04/11 06:08:31","block":10171499,"epoch":478,"slotNo":121249420,"epochSlotNo":116620,"stakeKey":"stake1u9l4wr3y69pgqqppadjcqd796ud9zxt6t3nctzkhwq0dtns0mg7tg"},{"txHash":"da07d7191d4a525c264d2c389e4c8c0f57909e49a3519b6601b41385903db3cb","txTime":"2024/04/11 06:06:45","block":10171493,"epoch":478,"slotNo":121249314,"epochSlotNo":116514,"stakeKey":"stake1u9l4wr3y69pgqqppadjcqd796ud9zxt6t3nctzkhwq0dtns0mg7tg"},{"txHash":"7110a9bac6ff6becd615801d2be724cfab4a8d662dcb6ea7d249fbcfcfcda2a6","txTime":"2024/04/11 06:02:44","block":10171477,"epoch":478,"slotNo":121249073,"epochSlotNo":116273,"stakeKey":"stake1uye6jk4gsemajhhauyyft2sh2qs6nzyjmgkg2pxv7al2f8c0kv2g9"},{"txHash":"5aa866007be0908e6f0988e076ee39a51ef2a2d76ad872464a302d3beed7cef8","txTime":"2024/04/11 06:01:25","block":10171473,"epoch":478,"slotNo":121248994,"epochSlotNo":116194,"stakeKey":"stake1uyq66q7l558dangd2ahttwsf7q7fzfd7cxeykhpyjlcg8pqx84dmf"},{"txHash":"8e7c3c114d097733a368d8fd9ecf729a147b68e5d341c5cc99af4310f24c7806","txTime":"2024/04/11 05:54:58","block":10171452,"epoch":478,"slotNo":121248607,"epochSlotNo":115807,"stakeKey":"stake1u825fngjd2rptvztks70ta5n6tc99zf6rned92346gpwqpc4zdyau"},{"txHash":"c367996021824ce2fc0c3a4250df864bf8e919f6c5b8f7672b62d387b020ed1c","txTime":"2024/04/11 05:50:52","block":10171437,"epoch":478,"slotNo":121248361,"epochSlotNo":115561,"stakeKey":"stake1u97j8h8krd5cvtxvz9mghmpcchvl8mw7ps57uchn5v75meq690xuu"},{"txHash":"37fc820aea105cd0f67f556a9d2a4d470a32db927c1310b27462b59750f28c29","txTime":"2024/04/11 05:50:15","block":10171436,"epoch":478,"slotNo":121248324,"epochSlotNo":115524,"stakeKey":"stake1u8jpd80zv4yls3q0yf8s9evd09kl395y9qwrn0zll6hfnesrt0y3y"},{"txHash":"9b48c601e7a90aa5c7934b2af0ae025bff79125d2684c8de35021e32687070ce","txTime":"2024/04/11 05:49:08","block":10171432,"epoch":478,"slotNo":121248257,"epochSlotNo":115457,"stakeKey":"stake1uyw2xdw7v9dn63hu0edj6zj0jn2r70l9kyw2fajjve6f0eqp0gm76"},{"txHash":"06d2d137d6d671daed81aeeaf7e272027d7196a7f6d72252384c30faff7ad310","txTime":"2024/04/11 05:48:58","block":10171431,"epoch":478,"slotNo":121248247,"epochSlotNo":115447,"stakeKey":"stake1u9crkrj6dz247exncc9ad4x7z8cgls330cy8sqwlwx607tqcavhxk"},{"txHash":"ad3c160df91df4ac437164429222b7ac7f26877bf08b5baa35c20d1cc4609d89","txTime":"2024/04/11 05:44:46","block":10171420,"epoch":478,"slotNo":121247995,"epochSlotNo":115195,"stakeKey":"stake1u9rst5yph2cdqfjy44kfvt4rtzwyyrk57lj4x9rsea5khqgqn7l7n"},{"txHash":"11741f4d05700703dc8f753c1f90a89dd3b3cf76f1c9f8f87fb8beece38bfeca","txTime":"2024/04/11 05:43:52","block":10171417,"epoch":478,"slotNo":121247941,"epochSlotNo":115141,"stakeKey":"stake1u9k8yeugw7d300jfc2fgqlqwtaggr5ll7ynkl5rcdxpns2ql4627x"},{"txHash":"30c1f4146c26897149da37a2b01dd89ad9484ebdd50c224677885ab2661423dc","txTime":"2024/04/11 05:43:47","block":10171416,"epoch":478,"slotNo":121247936,"epochSlotNo":115136,"stakeKey":"stake1uyy3pex583lvy38adsrzh7suv57skxgg6hpwz3kgnjf4tvg7hv97l"},{"txHash":"7debe4f480b4623c49e7728b59854a6938400f1d4b96c5e1aa57a4d8587b51f8","txTime":"2024/04/11 05:39:43","block":10171411,"epoch":478,"slotNo":121247692,"epochSlotNo":114892,"stakeKey":"stake1uyareuhpzmx8sgje0gzlvn70z4vrd9s7wayjf8dkufwf8vshzn8sz"},{"txHash":"9fc4477ac0091d5e532e5c9140f1516b0de5abbf362676833692f19a592bafa5","txTime":"2024/04/11 05:38:21","block":10171403,"epoch":478,"slotNo":121247610,"epochSlotNo":114810,"stakeKey":"stake1uyx0sxchqt8ptsffhrqd0h0hgex50qd955ema3lcnj4ayfqq3wga7"},{"txHash":"9497df47242099990d89333419037704ae19054044cc6a2972867de503fc9cad","txTime":"2024/04/11 05:24:30","block":10171354,"epoch":478,"slotNo":121246779,"epochSlotNo":113979,"stakeKey":"stake1uytyhymjtdsmuwysnnl2g66dg9v2mr6lrk5mtsu4u0pjgwqcr29p6"},{"txHash":"9b93ed5881e1d96bea8479b2dade1cd7c77faaafde322bc6aacf2a9ee20d31d0","txTime":"2024/04/11 05:14:08","block":10171320,"epoch":478,"slotNo":121246157,"epochSlotNo":113357,"stakeKey":"stake1u97t270n0rg00erex20l6kne5c6yxhrwvah0cxpjasmyxzqn9rq54"},{"txHash":"e607156374053ffc0745d58fb48fff4539d2040e52ea3e768c9af5c604552eb1","txTime":"2024/04/11 05:08:54","block":10171303,"epoch":478,"slotNo":121245843,"epochSlotNo":113043,"stakeKey":"stake1uyy68scjr2ff7fj4lss0frq4ky0uzp9a65cjjum2hp48zfqywmlkv"},{"txHash":"f1903dc4e3a59a9d3d9d9d3c2f040dbe9ce59ba90d4359af43ce139f1bcfda4e","txTime":"2024/04/11 05:05:39","block":10171295,"epoch":478,"slotNo":121245648,"epochSlotNo":112848,"stakeKey":"stake1u8a6gv8xt0v59s63rh2szlmsz9gdwewsqffj6yax2khp3mstnk5vh"},{"txHash":"cb9ecd581073553f82adbe02d2d443fdd104142fea2e57eecd965f292691b065","txTime":"2024/04/11 05:01:43","block":10171277,"epoch":478,"slotNo":121245412,"epochSlotNo":112612,"stakeKey":"stake1uxnd7xeqzqe8clkrmcfc8katxjnmnfz8qn8gypge4w72ykcfa2sdy"},{"txHash":"79ca4559c55f6cec7a8b02308e9688a1274feb2eaacc5a50837bef8e2ed83e64","txTime":"2024/04/11 05:00:54","block":10171276,"epoch":478,"slotNo":121245363,"epochSlotNo":112563,"stakeKey":"stake1uxu4d8u9rpfwcfa8sp4jzdd0edkr3rcsfmeqzmqjttwj4gc549v8t"},{"txHash":"3d43a149ae5ddfddf1011f3f0abc6ebe4eb1ab055173fa6e088bfa1c6bda4280","txTime":"2024/04/11 04:59:46","block":10171271,"epoch":478,"slotNo":121245295,"epochSlotNo":112495,"stakeKey":"stake1uyaj7l57dmcnstkhjskw5s0asqrklvhycnjyxrhya98ee6qmvhn6z"},{"txHash":"9c1d43a6fae4a0356b42f755ce8bca1030393a756acdb8c38de3f3b03f71b90e","txTime":"2024/04/11 04:58:07","block":10171267,"epoch":478,"slotNo":121245196,"epochSlotNo":112396,"stakeKey":"stake1u89nx2qytpqdm8yn9pesllkwrhne4vuyl8yrx5gtk24f5cqmh7l0u"},{"txHash":"19e52041035d8281726dcd8532cda4a0d35629a8e0c367781be693c78c5b7ae7","txTime":"2024/04/11 04:48:13","block":10171232,"epoch":478,"slotNo":121244602,"epochSlotNo":111802,"stakeKey":"stake1uyrpusq9ceyhcj7q58nlq4s3a3c8wt3znh8gwg2ujg5q2cql6u47r"},{"txHash":"4de7ea69bdf2aeed2619ca2cc277015fc167dc02aa7d9ec154d0f06142dd9368","txTime":"2024/04/11 04:44:41","block":10171222,"epoch":478,"slotNo":121244390,"epochSlotNo":111590,"stakeKey":"stake1u9u003lltjngje56s7kpqf4mfqtn3m6rwt9pdjfzn5fld4qldg2fz"},{"txHash":"010ad6701cc0d8b892dc502c2c38a1b84c169e0f4bf9d370d44e6bf826282b80","txTime":"2024/04/11 04:40:33","block":10171213,"epoch":478,"slotNo":121244142,"epochSlotNo":111342,"stakeKey":"stake1u9wkpklsa6gmttu43vev2l0za0wg4alvd70r9w8hkvuqldgmt2gl8"},{"txHash":"0212a537fcb53440d64c08a5c800375d0cef0b8ba7a7c16823e60b849f43bd93","txTime":"2024/04/11 04:12:06","block":10171133,"epoch":478,"slotNo":121242435,"epochSlotNo":109635,"stakeKey":"stake1uxapwyw4kdskdfqpklra7rs7zwznpxy88psa290prja4fhqsg53m6"},{"txHash":"24a1c9f4e119ed006e36e039daf75e27df51513aa3557bfdb3726508d5638be5","txTime":"2024/04/11 04:10:57","block":10171129,"epoch":478,"slotNo":121242366,"epochSlotNo":109566,"stakeKey":"stake1u9wx6a7c75667pjgg6gcp4lf8sxrxjed7yd5lut279rau2gxug3jx"},{"txHash":"c93fd5a4819bb1e2ec2a1d556c36b701e4aee155196d1252d2bc0c6126593ee2","txTime":"2024/04/11 04:09:38","block":10171124,"epoch":478,"slotNo":121242287,"epochSlotNo":109487,"stakeKey":"stake1u82pkwmdm8qm4uyk28qkuz0r0556htzf6kmeaydfhu7gkyqqmx8fa"},{"txHash":"8c2e069f2a1a53f23705644d8b0339606fab328e9e40d598d71c9dca2ed56be2","txTime":"2024/04/11 03:47:18","block":10171060,"epoch":478,"slotNo":121240947,"epochSlotNo":108147,"stakeKey":"stake1u9dgq5w3rf99gyhy8vxtz7y7pa3dk9e982g4ukqak5xj5vg2y2lvf"},{"txHash":"a57f9b05ca624b3bebd593e28c53573445fd28e18e294e47e513a66ee96935ef","txTime":"2024/04/11 03:32:15","block":10171019,"epoch":478,"slotNo":121240044,"epochSlotNo":107244,"stakeKey":"stake1u9p6e8rhay2w7l3gx3kevdgup4ln2yvc7s9eusujldj6ykga86djl"},{"txHash":"ce4aed6cbae2fe406e30c4df4fce6ccfd98f681b5b4da1300022bb5112be4ba0","txTime":"2024/04/11 03:29:08","block":10171010,"epoch":478,"slotNo":121239857,"epochSlotNo":107057,"stakeKey":"stake1u93t098qhwk39pzepqcy3senq9886w0qqt2c4s9kamww6jqml7ga4"},{"txHash":"b1988c62bff9f74d744ef2aec07a802fe065633cd9de685f94dca919c4762cd1","txTime":"2024/04/11 03:10:31","block":10170961,"epoch":478,"slotNo":121238740,"epochSlotNo":105940,"stakeKey":"stake1u992c0ttsd5ftzwkx52vsp05vsdpdgc327mmufhh2u6eznc6rhjv0"},{"txHash":"e7f275a34313c6b65f2a4ac6b32407beabd5ac4397a6d92b26171aa873de438b","txTime":"2024/04/11 03:07:27","block":10170949,"epoch":478,"slotNo":121238556,"epochSlotNo":105756,"stakeKey":"stake1uyj8zlg5n5hqlz0s63t7fmqwyl7jhw6vs36kr55ntk8j96s5uwjxf"},{"txHash":"4fff80d175f14efea6b085ea0be149757806e0bae4359c12676003f4b0ee2c45","txTime":"2024/04/11 03:06:20","block":10170945,"epoch":478,"slotNo":121238489,"epochSlotNo":105689,"stakeKey":"stake1u8jqvt70t328pg6qh582v2fg3v3s20ydnjtffmys7c62nhqcf2ewy"},{"txHash":"a4078343b44b1bf08e8ab2a660dc183fc5048e013d237a4dff0acf92e5dccf47","txTime":"2024/04/11 03:00:07","block":10170931,"epoch":478,"slotNo":121238116,"epochSlotNo":105316,"stakeKey":"stake1u90p3f279ytrwksa2weh7rlugah26q8xz32xwl3mymgttacdn0s7m"},{"txHash":"fb3fa940f85cff1cc72739392b82e161d62f4137f7e40eee228e0d7778516e03","txTime":"2024/04/11 02:58:24","block":10170925,"epoch":478,"slotNo":121238013,"epochSlotNo":105213,"stakeKey":"stake1u8tfg0xenk39989jp8y6rjy0pen4mqgm5ld32d6538vaaqgwjm842"},{"txHash":"429e6a55a6956e2167c7afadb3ac751fd1181314e8b5a58273e413e82f0fa7e6","txTime":"2024/04/11 02:57:01","block":10170923,"epoch":478,"slotNo":121237930,"epochSlotNo":105130,"stakeKey":"stake1u8z0ttjg0mpu9qd7yp4y58y4lr49uh4rt9gsyx8d3ye0dfgqun4x7"},{"txHash":"6447c1d806a217f1830af5d1afcf112c614aaae2862558c747bfb7083810b671","txTime":"2024/04/11 02:49:07","block":10170903,"epoch":478,"slotNo":121237456,"epochSlotNo":104656,"stakeKey":"stake1u9fpjry42pz97h0r4mel608eucpm9p7ckrau94k8a23nqzg8cqwl4"},{"txHash":"7fdc751f574624b46a23c17ec881de9e3458d816ff44deedbf0cb9ba39223a02","txTime":"2024/04/11 02:46:01","block":10170893,"epoch":478,"slotNo":121237270,"epochSlotNo":104470,"stakeKey":"stake1u8ls8eg0wkmv3p8t2z9s4q3hxsg6lej0677r2vsw0gxm2tsglpl57"},{"txHash":"f25c24dcb56cacb1a3b8ae688204d7a166e3e09406a5392c0a569929f831dca3","txTime":"2024/04/11 02:43:40","block":10170881,"epoch":478,"slotNo":121237129,"epochSlotNo":104329,"stakeKey":"stake1u92azawmcfdqgqnpu7psqhp9c97qygy4euxj8vqzsekc7xss4km9h"},{"txHash":"b49b352d91d8fbfac0971a4dae3129368f4eb5709cc81d70228f4ad3324bd11b","txTime":"2024/04/11 02:37:27","block":10170857,"epoch":478,"slotNo":121236756,"epochSlotNo":103956,"stakeKey":"stake1u8lual95j39q466ukjqpr9ealfar7vz0z795fsk0r4ew2uct0wmdh"},{"txHash":"7f9c0896f8f4e4aa3818d12ac06f23f87a1b9d13c23aac21cd438a8f1bf0620d","txTime":"2024/04/11 02:27:52","block":10170826,"epoch":478,"slotNo":121236181,"epochSlotNo":103381,"stakeKey":"stake1uxvywl4rennt5efzcchl7df3c9pzjmg7cu2xrg8hvzsy6kg2puwud"},{"txHash":"75fa4427004fd187706451e133ce81809cef7068d4f118b2154b182e17b57629","txTime":"2024/04/11 02:27:27","block":10170825,"epoch":478,"slotNo":121236156,"epochSlotNo":103356,"stakeKey":"stake1uykwk98fv3tq3avfcvmvryjtgak4humtl0hcsytdfe88h2cu8e05x"},{"txHash":"73ac47c21f5d407ee2e5390b5e62f1641fb12c2c6f2fe638b314daef776c62e7","txTime":"2024/04/11 02:26:23","block":10170819,"epoch":478,"slotNo":121236092,"epochSlotNo":103292,"stakeKey":"stake1u9g5cu0w4ht2gv6yc6mrkdvmyqeuquy4z24yz7jjlwy27rqu66jfk"},{"txHash":"695de203b04e313c0758c889a8f9816837aa37a6a05f199f983f0b4420da540c","txTime":"2024/04/11 02:03:23","block":10170765,"epoch":478,"slotNo":121234712,"epochSlotNo":101912,"stakeKey":"stake1uxx4rmvwkhjt2h5q6e2lsuncacmfglz4avkp4jmzquqz7lqx5xrma"},{"txHash":"a0d8007c869cb3a98eb481380620f6e20b6d1be160ad1de990fdccf4257ce3b1","txTime":"2024/04/11 01:58:23","block":10170754,"epoch":478,"slotNo":121234412,"epochSlotNo":101612,"stakeKey":"stake1ux90w0qdll90zw3t7v3rpd8uze4rdrkp73nme9ufncv6z4s9sfes2"},{"txHash":"94eea0c31bd376de1f42e0855389c749edb684a2a65241a0a507967808edd31e","txTime":"2024/04/11 01:50:59","block":10170737,"epoch":478,"slotNo":121233968,"epochSlotNo":101168,"stakeKey":"stake1uys89rapvkg8nwmkappuvn8sh3s3fd6j2mnlrgrc5dcm6lg65qhnp"}],"totalItems":473120,"totalPages":4732,"currentPage":0,"isDataOverSize":null}