{"data":[{"scriptHash":"9068a7a3f008803edac87af1619860f2cdcde40c26987325ace138ad","scriptVersion":"PLUTUSV2","txCount":3813211,"txPurposes":["SPEND"]},{"scriptHash":"a65ca58a4e9c755fa830173d2a5caed458ac0c73f97db7faae2e7e3b","scriptVersion":"PLUTUSV1","txCount":3590362,"txPurposes":["SPEND"]},{"scriptHash":"e1317b152faac13426e6a83e06ff88a4d62cce3c1634ab0a5ec13309","scriptVersion":"PLUTUSV1","txCount":3177059,"txPurposes":["SPEND"]},{"scriptHash":"4a59ebd93ea53d1bbf7f82232c7b012700a0cf4bb78d879dabb1a20a","scriptVersion":"PLUTUSV1","txCount":2609452,"txPurposes":["SPEND"]},{"scriptHash":"a55f409501bf65805bb0dc76f6f9ae90b61e19ed870bc00256813608","scriptVersion":"PLUTUSV1","txCount":1299095,"txPurposes":["SPEND"]},{"scriptHash":"ba158766c1bae60e2117ee8987621441fac66a5e0fb9c7aca58cf20a","scriptVersion":"PLUTUSV1","txCount":875080,"txPurposes":["SPEND"]},{"scriptHash":"4020e7fc2de75a0729c3cc3af715b34d98381e0cdbcfa99c950bc3ac","scriptVersion":"PLUTUSV1","txCount":732809,"txPurposes":["SPEND"]},{"scriptHash":"86ae9eebd8b97944a45201e4aec1330a72291af2d071644bba015959","scriptVersion":"PLUTUSV1","txCount":454713,"txPurposes":["SPEND"]},{"scriptHash":"e6c90a5923713af5786963dee0fdffd830ca7e0c86a041d9e5833e91","scriptVersion":"PLUTUSV1","txCount":398212,"txPurposes":["SPEND"]},{"scriptHash":"e4214b7cce62ac6fbba385d164df48e157eae5863521b4b67ca71d86","scriptVersion":"PLUTUSV1","txCount":392247,"txPurposes":["MINT"]},{"scriptHash":"15b95fdaceeb507073a1bd198803373beeafbd82560fbf8abe9073ff","scriptVersion":"PLUTUSV1","txCount":308664,"txPurposes":["SPEND"]},{"scriptHash":"f0c16278fb2dceaa8c32b52f282d6f57ccb6068077a56c7a8f0707a7","scriptVersion":"PLUTUSV2","txCount":279643,"txPurposes":["SPEND"]},{"scriptHash":"9b85d5e8611945505f078aeededcbed1d6ca11053f61e3f9d999fe44","scriptVersion":"PLUTUSV1","txCount":275928,"txPurposes":["SPEND"]},{"scriptHash":"00fb107bfbd51b3a5638867d3688e986ba38ff34fb738f5bd42b20d5","scriptVersion":"PLUTUSV2","txCount":259125,"txPurposes":["SPEND"]},{"scriptHash":"2618e94cdb06792f05ae9b1ec78b0231f4b7f4215b1b4cf52e6342de","scriptVersion":"PLUTUSV2","txCount":210566,"txPurposes":["SPEND"]},{"scriptHash":"b15a1a010843e8afb6f963b03d452be815b533dad0cd23d819c2d201","scriptVersion":"PLUTUSV2","txCount":178575,"txPurposes":["SPEND"]},{"scriptHash":"c727443d77df6cff95dca383994f4c3024d03ff56b02ecc22b0f3f65","scriptVersion":"PLUTUSV2","txCount":178415,"txPurposes":["SPEND"]},{"scriptHash":"22f12548a9b1e61fca4b5d9cb87f947f757d0b5e7fb2366fc32e40fe","scriptVersion":"PLUTUSV1","txCount":174978,"txPurposes":["SPEND"]},{"scriptHash":"6b9c456aa650cb808a9ab54326e039d5235ed69f069c9664a8fe5b69","scriptVersion":"PLUTUSV2","txCount":168222,"txPurposes":["SPEND"]},{"scriptHash":"0029cb7c88c7567b63d1a512c0ed626aa169688ec980730c0473b913","scriptVersion":"PLUTUSV1","txCount":166838,"txPurposes":["MINT"]}],"totalItems":41392,"totalPages":2070,"currentPage":0,"isDataOverSize":null}