{"data":[{"policy":"1e62c6c94cbd1a964e0f76dd9f8cdd83a8f000cfa242a20f9b8570c1","name":"4164616c616e74696342756464696573313335","displayName":"AdalanticBuddies135","fingerprint":"asset1wgavu2ku99hlzqq5skjeh57dmqjg98uly59w9u","quantity":1}],"totalItems":12717,"totalPages":12717,"currentPage":0,"isDataOverSize":null}