{"data":[{"txHash":"1d3e6450acd7bd96039cbceac293f4a2fcfb9832136e2ae9274dae5d6f083f6c","amount":167828950,"fee":173817,"time":"2024/04/09 04:38:25","type":"RECEIVED","status":"SUCCESS"},{"txHash":"3ae9c979f28dbb235262990c590a782145728efbd7f86aad8999acb7b772b7ed","amount":-2174301,"fee":174301,"time":"2024/04/09 03:36:35","type":"CERTIFICATE_HOLD_PAID","status":"SUCCESS"},{"txHash":"5eea1df0b54fa654f8f55001e679016bce608b1e63910f06039cb3c5decccab9","amount":16956170,"fee":191950,"time":"2024/04/09 03:25:16","type":"RECEIVED","status":"SUCCESS"},{"txHash":"b737770773499b6d428aa7ce81765583692318359492b254e535281c2dbec795","amount":-1015334289,"fee":178189,"time":"2024/04/07 05:11:56","type":"SENT","status":"SUCCESS"},{"txHash":"5082bf8266a5f874881f53a5bea4117907b643601d843f6517c6ea6be390a614","amount":1828691,"fee":171309,"time":"2024/04/07 05:07:35","type":"CERTIFICATE_HOLD_DEPOSIT_REFUNDED","status":"SUCCESS"},{"txHash":"e7dd55795305cda2a2650c2ddbb71e19cc9d9b37862927cf2136f09ec1e73ecf","amount":-250168977,"fee":168977,"time":"2024/04/06 06:08:08","type":"SENT","status":"SUCCESS"},{"txHash":"745c678c21dfe929c361fe9253daa8420575dab379374ec12d74ebf4865a41d5","amount":610585810,"fee":183497,"time":"2024/04/05 08:11:32","type":"RECEIVED","status":"SUCCESS"},{"txHash":"fca9e0d17ad578e90ab7f4dbe6001c250962eda3865e8a0b85b8f7d2f555dab2","amount":55408126,"fee":183150,"time":"2024/04/05 06:06:38","type":"RECEIVED","status":"SUCCESS"},{"txHash":"0f4b42ddc4434759bb24e8f54c85ca3897240df3d87be670089130e3fff5391c","amount":-2174301,"fee":174301,"time":"2024/04/04 05:48:13","type":"CERTIFICATE_HOLD_PAID","status":"SUCCESS"},{"txHash":"a512032e3b500aef34fcdb39fe63f6664ab0d627e437f75d50a6af0402fef912","amount":599854940,"fee":173817,"time":"2024/04/04 05:41:24","type":"RECEIVED","status":"SUCCESS"},{"txHash":"cdd6f97f79de275fdcd8fd929df9f989a850441ad44a3ad46ecc9662a7d85073","amount":-476356520,"fee":172520,"time":"2024/04/01 17:08:33","type":"SENT","status":"SUCCESS"},{"txHash":"59c7c5134f745811f60608252967014622210362b4095b34b916dff7809db8c9","amount":1828515,"fee":171485,"time":"2024/04/01 17:04:36","type":"CERTIFICATE_HOLD_DEPOSIT_REFUNDED","status":"SUCCESS"},{"txHash":"5cf109ffc9a4d8bbc382431d69ae93515de26573d76666165dc19dbfda0e1fa1","amount":404197100,"fee":181121,"time":"2024/03/31 07:36:32","type":"RECEIVED","status":"SUCCESS"},{"txHash":"df7454fd957f8c538a1af4321250e9d4d5223701aadbb33e8554e3a91b93c311","amount":-2174125,"fee":174125,"time":"2024/03/31 07:16:08","type":"CERTIFICATE_HOLD_PAID","status":"SUCCESS"},{"txHash":"2cd8e54cccbdc6dcc996a42926afd3e6ce7ecd2fc527b4f675e9eb28bf535fb4","amount":72505030,"fee":187850,"time":"2024/03/31 06:18:46","type":"RECEIVED","status":"SUCCESS"},{"txHash":"c2892160b7291b6b3beac3577332fca0adb619dd5059216c0c258d8308557d19","amount":-1507748789,"fee":202289,"time":"2024/03/20 06:46:07","type":"SENT","status":"SUCCESS"},{"txHash":"70f67aab9366c4c247822eebd9683b63e6bc08f7b54dc59329688f2698b7dca3","amount":1828691,"fee":171309,"time":"2024/03/20 06:43:08","type":"CERTIFICATE_HOLD_DEPOSIT_REFUNDED","status":"SUCCESS"},{"txHash":"3d68b62cd4b547cd312bc09ea6eea75ad52fa124784bdc3eb59bcb20529a0d1a","amount":-500169153,"fee":169153,"time":"2024/03/20 06:11:46","type":"SENT","status":"SUCCESS"},{"txHash":"65c31f4a03df20ab82c16ce85e0c054776c2163341f0492f62701db1e78d1e14","amount":475474,"fee":171573,"time":"2024/03/18 07:12:38","type":"REWARD_WITHDRAWN","status":"SUCCESS"},{"txHash":"b58e9a9298eae04795997a76ad1336691cc027881b6f2ab316929d63da714b49","amount":-500169153,"fee":169153,"time":"2024/03/17 08:08:12","type":"SENT","status":"SUCCESS"},{"txHash":"806cf1e6a951188f1d0d40ee72d420b6d4d73c504930415b4751617ebbbefb98","amount":504720703,"fee":190650,"time":"2024/03/15 18:30:44","type":"RECEIVED","status":"SUCCESS"},{"txHash":"5765698c5b75b1118917797493f41fc08541915a8ba352e10fcfdeb67930fe11","amount":-1000166909,"fee":166909,"time":"2024/03/15 07:43:46","type":"SENT","status":"SUCCESS"},{"txHash":"c93bb6290009ae7c2dbefa6650cd530242dd00ceadc4ae5baa2e37491d53a7dc","amount":477901,"fee":171573,"time":"2024/03/11 18:21:08","type":"REWARD_WITHDRAWN","status":"SUCCESS"},{"txHash":"1abe515d8f54380c0332f10337314e92c579ec142dd9eef943ad7840b2716d02","amount":-609166909,"fee":166909,"time":"2024/03/10 06:17:16","type":"SENT","status":"SUCCESS"},{"txHash":"11917de7a4c6563a1c3411ca18bf3cf11215f6781756733b9920e4da5ef2faa9","amount":1108731222,"fee":181297,"time":"2024/03/09 05:27:44","type":"RECEIVED","status":"SUCCESS"},{"txHash":"80cf0dc4edef2a3f14f2e3323bb17358c4830d61eb6761664fe0a413167c4547","amount":454319,"fee":171573,"time":"2024/03/06 00:53:57","type":"REWARD_WITHDRAWN","status":"SUCCESS"},{"txHash":"a332d1262180bc18df52b65ab14094b827e00846816868a2817415db515c76b2","amount":-215168977,"fee":168977,"time":"2024/03/04 06:31:24","type":"SENT","status":"SUCCESS"},{"txHash":"c3fa07b077aefea37e8fea079f37c6cbda0b3d1491818da8a81b8c6862e153d6","amount":-10167085,"fee":167085,"time":"2024/03/03 06:49:01","type":"SENT","status":"SUCCESS"},{"txHash":"f0c001afb0c3b93f914891f138533834e78165aacc3d52945b242559590f4a54","amount":1111503489,"fee":173817,"time":"2024/03/02 03:58:58","type":"RECEIVED","status":"SUCCESS"},{"txHash":"3414d77343680c02b0639533d0862470106ca989896a5adb2239688df9566854","amount":535834,"fee":171573,"time":"2024/03/02 03:26:40","type":"REWARD_WITHDRAWN","status":"SUCCESS"},{"txHash":"1b65f76b0881977a47e97fb859ac2f29483d831cb6dbe784f37484ea20f729e4","amount":58319966,"fee":205650,"time":"2024/03/01 04:31:25","type":"RECEIVED","status":"SUCCESS"},{"txHash":"3425072fd2fccb4e8f71d25089f470157fccd4a0842ed000a00dab489629640d","amount":340746066,"fee":173817,"time":"2024/02/24 04:52:55","type":"RECEIVED","status":"SUCCESS"},{"txHash":"731a404ed4726bdef95ae147fb4222b024636da33457afa56a1f5a46d1e381fe","amount":-312166909,"fee":166909,"time":"2024/02/24 03:53:19","type":"SENT","status":"SUCCESS"},{"txHash":"f06ac5c54e1354f31cc17ab3839a192f80f32119c81b81775e7fd3437fdddc27","amount":1490560218,"fee":181121,"time":"2024/02/23 07:12:13","type":"RECEIVED","status":"SUCCESS"},{"txHash":"318e5972fce62d6210ac8fad0562a997f210872436764f491e4cab73bc978c6f","amount":-2174301,"fee":174301,"time":"2024/02/22 07:36:45","type":"CERTIFICATE_HOLD_PAID","status":"SUCCESS"},{"txHash":"9cebbac4d9def3af6b0785b71abb0b887af3e602eacd5c9fdcc14615f46fcc0c","amount":38744302,"fee":177150,"time":"2024/02/22 07:31:07","type":"RECEIVED","status":"SUCCESS"},{"txHash":"40f005ad710330be87546df0c542a5f9e88e5431b21c89feabd1ed41b66937fe","amount":-1761500622,"fee":190622,"time":"2024/02/22 04:58:46","type":"SENT","status":"SUCCESS"},{"txHash":"dc50aed5a53ce0e433da7d6c6ff49b257a0ea2b1e49c5a5f90bba624781f6395","amount":1952384,"fee":172981,"time":"2024/02/22 04:52:52","type":"REWARD_WITHDRAWN_AND_CERTIFICATE_HOLD_DEPOSIT_REFUNDED","status":"SUCCESS"},{"txHash":"9a973e845eaa1ef7fbc26a6b73ac53249768c1d88f60c988cded1552d42892bc","amount":-989169153,"fee":169153,"time":"2024/02/21 17:50:51","type":"SENT","status":"SUCCESS"},{"txHash":"f71d0c7b0b4d61ce141f43e9cf8c304b3f2b8dbfe23f6ca5ea34baecef73e163","amount":108306372,"fee":173817,"time":"2024/02/21 09:00:47","type":"RECEIVED","status":"SUCCESS"},{"txHash":"703e479f70e0fc83db62008a48c61bcfa3321d0fe8999615abdb9690959fba15","amount":1039133439,"fee":187193,"time":"2024/02/20 16:57:53","type":"RECEIVED","status":"SUCCESS"},{"txHash":"bc67f40714507c421ac55d1dc5a8981cedfaecf11768ad73bcf9d0192d90d29a","amount":1007951076,"fee":196873,"time":"2024/02/18 13:31:18","type":"RECEIVED","status":"SUCCESS"},{"txHash":"a7d1797718c5a5f0331482eb524f51d883b46b7a63957ccd5a5b76456ab6a68a","amount":424733695,"fee":179000,"time":"2024/02/16 05:39:43","type":"RECEIVED","status":"SUCCESS"},{"txHash":"b99180bc9b8fbebeb20f29777f7a23e6e3d11ddea38ae090d4a2d87aa748d87c","amount":-2174301,"fee":174301,"time":"2024/02/16 03:33:31","type":"CERTIFICATE_HOLD_PAID","status":"SUCCESS"},{"txHash":"28ab4412b7bf2e4d2ce0985920195df02219361a238855cbcb50d2327c3e112c","amount":170767110,"fee":173817,"time":"2024/02/16 03:22:30","type":"RECEIVED","status":"SUCCESS"},{"txHash":"41894288dd14836d6eee16f2239770d005135ff3273b674010d5d67e14c60f96","amount":-1792876628,"fee":184228,"time":"2024/02/15 15:21:43","type":"SENT","status":"SUCCESS"},{"txHash":"7b4db427c3b3e56635db9de2e5322d4ae43425c489c06b470f05b4fc9eb32d72","amount":1828691,"fee":171309,"time":"2024/02/15 15:17:35","type":"CERTIFICATE_HOLD_DEPOSIT_REFUNDED","status":"SUCCESS"},{"txHash":"5f7e1cc8fb27949e3fd544c4280596d395ec458610b1535423f11676cef35f41","amount":343398111,"fee":183497,"time":"2024/02/12 13:27:11","type":"RECEIVED","status":"SUCCESS"},{"txHash":"8f4328d066a37fdcacd00f9767fef581897099d7fee0959d76f2185ff84637ad","amount":1055882416,"fee":183497,"time":"2024/02/11 08:13:24","type":"RECEIVED","status":"SUCCESS"},{"txHash":"fb6cdbfb9fe77ee49c9d02f2c3ea24fddc7c221f3bb970aa34cbb0da238cc3f8","amount":-388168317,"fee":168317,"time":"2024/02/10 17:59:02","type":"SENT","status":"SUCCESS"},{"txHash":"50fe06cd236af6b5e6355861422dda2f98eef9e4e581357567fa3071d5040400","amount":699092542,"fee":181121,"time":"2024/02/10 07:31:26","type":"RECEIVED","status":"SUCCESS"},{"txHash":"d7ffccbff06b4e4fba7a2da58057c5bdee5045a808d255455f12730dbb31c2ad","amount":-2174301,"fee":174301,"time":"2024/02/10 05:26:31","type":"CERTIFICATE_HOLD_PAID","status":"SUCCESS"},{"txHash":"6159e09c525e998fcfbbc0d4944ea38b941508518eea5734328df9d42670eddf","amount":83017486,"fee":180600,"time":"2024/02/10 05:15:45","type":"RECEIVED","status":"SUCCESS"},{"txHash":"402ae39bb562c6874dcc577878ad0b440abb0f04acfe0f0cdccbbd9fef81a631","amount":-1420602710,"fee":176105,"time":"2024/02/09 08:55:38","type":"SENT","status":"SUCCESS"},{"txHash":"2166152724be93f2840888dd948f0e086f0850e8caa0e95340b142cf50ead665","amount":1828691,"fee":171309,"time":"2024/02/09 08:53:06","type":"CERTIFICATE_HOLD_DEPOSIT_REFUNDED","status":"SUCCESS"},{"txHash":"68825076743b9f0eb0ce5a49eff82f5cc939f255443eae29327929850acbd965","amount":1093406378,"fee":173817,"time":"2024/02/07 08:17:11","type":"RECEIVED","status":"SUCCESS"},{"txHash":"c8542d189dd0920d4324fe267b0872662b4e9a64d1dc71a9cca13c8d519fd9ca","amount":-325168977,"fee":168977,"time":"2024/02/07 06:03:39","type":"SENT","status":"SUCCESS"},{"txHash":"6bea54f7aabc25fe77b5024c6c35d6bbc958bcf8ac992673ba0fbe82154ebc7e","amount":385414461,"fee":173817,"time":"2024/02/05 18:31:22","type":"RECEIVED","status":"SUCCESS"},{"txHash":"6963382955baa3b2ab28ee30ca5a7bc755c073223e3eb14ee959f4d7bcadfce4","amount":-2174301,"fee":174301,"time":"2024/02/02 09:03:56","type":"CERTIFICATE_HOLD_PAID","status":"SUCCESS"},{"txHash":"9020fa0bb6e5923fe2211d5c9e78e63ca6fc50e79a22bb80bd1dae35367f854c","amount":267296458,"fee":173817,"time":"2024/02/02 09:01:15","type":"RECEIVED","status":"SUCCESS"},{"txHash":"2e0f09f99df403e6fedefb2145c0fcd6d4c34afdec1a3f5c0c0374893a172dda","amount":-710499122,"fee":184201,"time":"2024/02/01 13:27:54","type":"SENT","status":"SUCCESS"},{"txHash":"bc50101870c209817b4eaffefe3c180a7fb5680ea773900ee568698db47277dd","amount":1828691,"fee":171309,"time":"2024/02/01 13:20:43","type":"CERTIFICATE_HOLD_DEPOSIT_REFUNDED","status":"SUCCESS"},{"txHash":"94cd61b6117a1522bd49c28e15f83b97f6984eaef48b7f33555245500f009c15","amount":289616105,"fee":173817,"time":"2024/02/01 12:07:58","type":"RECEIVED","status":"SUCCESS"},{"txHash":"53e6e1d9424b69ddef447199060c393c248e54facb4f9ac0d5926a11d17399b4","amount":214493304,"fee":173817,"time":"2024/02/01 08:29:48","type":"RECEIVED","status":"SUCCESS"},{"txHash":"28ea3aa6586cca4ebb85a2b56ff80f84c4cc64267ccdced6d03b8d17cb996cd6","amount":95371270,"fee":187100,"time":"2024/01/31 06:57:36","type":"RECEIVED","status":"SUCCESS"},{"txHash":"dfa207bc06a374b9b0c49ef59595e5d4a74bc520fc9954ccb8f3d0c2067eb12c","amount":-2174125,"fee":174125,"time":"2024/01/31 05:16:48","type":"CERTIFICATE_HOLD_PAID","status":"SUCCESS"},{"txHash":"9991b22a916ed7e2046368b110a3d929b2b6f683adc0170a5eee30e05990bbad","amount":111363877,"fee":179000,"time":"2024/01/31 05:12:59","type":"RECEIVED","status":"SUCCESS"},{"txHash":"106eb91fb683c4f12af8baee0d1194ffa54bc0606ad300332b876e6cd2676349","amount":-1053444522,"fee":170077,"time":"2024/01/30 13:53:04","type":"SENT","status":"SUCCESS"},{"txHash":"e17f99c6dedfb40108f53c7a1dcdeca36e55242a7d58e9c4c3d91c4137965520","amount":1828691,"fee":171309,"time":"2024/01/30 13:45:12","type":"CERTIFICATE_HOLD_DEPOSIT_REFUNDED","status":"SUCCESS"},{"txHash":"4124132429620db3c933ed99ed7023e81b787acfcfde20e29ea22ab96c634877","amount":-1046168977,"fee":168977,"time":"2024/01/29 06:30:26","type":"SENT","status":"SUCCESS"},{"txHash":"49856130c90cdd987f1508dc0971a7a5d5557ddca2c4cfcd80b500ecc641f3fa","amount":1046048154,"fee":200481,"time":"2024/01/29 04:01:56","type":"RECEIVED","status":"SUCCESS"},{"txHash":"aa439be6fc5d5622e1313a8fec18388daa7f6b9fdf693b03ab48886b0d4b4a86","amount":-2174301,"fee":174301,"time":"2024/01/26 06:21:58","type":"CERTIFICATE_HOLD_PAID","status":"SUCCESS"},{"txHash":"f99e392af22c7e6482553251f1b352d46c642d69654d15ae396062d57310e698","amount":1053910955,"fee":210337,"time":"2024/01/26 06:18:28","type":"RECEIVED","status":"SUCCESS"},{"txHash":"584922328218816510c49e71b04019154f051a83746162858faa761dbacf2908","amount":-56346753,"fee":164049,"time":"2024/01/22 08:21:53","type":"SENT","status":"SUCCESS"},{"txHash":"29a389ea1443b5543cb17c4386ab5a8fdcf408a7ec61281041fbfe085a5106c1","amount":1828515,"fee":171485,"time":"2024/01/22 08:16:40","type":"CERTIFICATE_HOLD_DEPOSIT_REFUNDED","status":"SUCCESS"},{"txHash":"86bb4710e4583139f3fb69c58ce86225a9b85c7838aeebe2644a8e961ce4b692","amount":-2174301,"fee":174301,"time":"2024/01/21 08:50:28","type":"CERTIFICATE_HOLD_PAID","status":"SUCCESS"},{"txHash":"256712c09ca91d5175c0035c3ce0a37272e0e8d81c2cb4227a461b483a622165","amount":-56166909,"fee":166909,"time":"2024/01/21 08:26:16","type":"SENT","status":"SUCCESS"},{"txHash":"9a49ebbe5e41ee5779cb7c8c45aa0abaa3b89e184a07a395913f457c68d1981d","amount":112859448,"fee":197600,"time":"2024/01/21 08:22:31","type":"RECEIVED","status":"SUCCESS"},{"txHash":"b98606fef02b56147d495fb5f3015f649cf5ad8ad1e5ba66298547c816439cb1","amount":-161657179,"fee":164049,"time":"2024/01/20 17:33:19","type":"SENT","status":"SUCCESS"},{"txHash":"f3a96b92878eae643b17e2aee0d47c50ca01bf763ff7347a085e77361146560c","amount":1828515,"fee":171485,"time":"2024/01/20 17:31:13","type":"CERTIFICATE_HOLD_DEPOSIT_REFUNDED","status":"SUCCESS"},{"txHash":"7e804164d721caf460db71a226052f716a6979d820a16bf6928add0b93d89571","amount":-150167085,"fee":167085,"time":"2024/01/20 14:52:00","type":"SENT","status":"SUCCESS"},{"txHash":"2ed1266a87391e8a4489042503a8d9942a7187b38df4915a392b4e975d64ed04","amount":-2100180725,"fee":180725,"time":"2024/01/20 10:12:32","type":"SENT","status":"SUCCESS"},{"txHash":"9b17f241d3969d46af4c261740bf48d59f59f04ec39d91f53b078bde320e3077","amount":2048020008,"fee":182617,"time":"2024/01/19 07:50:19","type":"RECEIVED","status":"SUCCESS"},{"txHash":"6fc345e941d62abbcaf91dc7035cce8d055cb87599b920a303375f6ec86227bf","amount":310435935,"fee":700000,"time":"2024/01/19 05:37:43","type":"RECEIVED","status":"SUCCESS"},{"txHash":"292c58df9652ddcc53a8057a73e4e9e69723976fc9c93a443b6a7a387d1190ad","amount":35506987,"fee":700000,"time":"2024/01/19 05:00:00","type":"RECEIVED","status":"SUCCESS"},{"txHash":"18b583628f8445a16e33da6c0321177a9e3e173d7af3d4b03e3464f33e02d4a2","amount":-2174301,"fee":174301,"time":"2024/01/19 04:20:51","type":"CERTIFICATE_HOLD_PAID","status":"SUCCESS"},{"txHash":"ee3ccd3bdbe822056f489273744fd05082ad161dfa474d5a2f607f5bea820d9d","amount":18387845,"fee":700000,"time":"2024/01/19 04:00:55","type":"RECEIVED","status":"SUCCESS"},{"txHash":"a180c9739a0ab883da21182eb69932208b4ab32c966cfe2539bd3970773c8246","amount":-10263011,"fee":164049,"time":"2024/01/18 18:42:09","type":"SENT","status":"SUCCESS"},{"txHash":"6b512fdad8a347c480b5cb21c749dd993671e0b127bf43a105d7581e5970d59c","amount":1828515,"fee":171485,"time":"2024/01/18 18:40:27","type":"CERTIFICATE_HOLD_DEPOSIT_REFUNDED","status":"SUCCESS"},{"txHash":"6b9898b2002ff77ca735dccd5a13eab8678fa9731fc5b320efca852403a069e9","amount":-530166909,"fee":166909,"time":"2024/01/17 08:39:08","type":"SENT","status":"SUCCESS"},{"txHash":"83f48d4b847b0f282b564fa3a8574aee5ca982bf03a13394b54abbd0e0cd1c18","amount":-2180329,"fee":180329,"time":"2024/01/17 06:46:28","type":"CERTIFICATE_HOLD_PAID","status":"SUCCESS"},{"txHash":"eb3456ec80f2394de6e0f0c6d747dd60384cbbcd8e5c87abf63bed3029bcc0e9","amount":538647186,"fee":700000,"time":"2024/01/17 06:40:16","type":"RECEIVED","status":"SUCCESS"},{"txHash":"a4e35424c54c774589a3c30095ca330dab4e7f3f939a219b9dff01215b02867d","amount":-200167085,"fee":167085,"time":"2024/01/17 06:26:07","type":"SENT","status":"SUCCESS"},{"txHash":"fb69df2dbc4bd8f62fb5edc1594248477df7d7f027f5118339674269adc8603c","amount":2313870,"fee":173157,"time":"2024/01/17 06:22:18","type":"REWARD_WITHDRAWN_AND_CERTIFICATE_HOLD_DEPOSIT_REFUNDED","status":"SUCCESS"},{"txHash":"7fbbc0566b38c14909bdb6d35c474e395ff5c4245a60674dce35004a7181584a","amount":-800173113,"fee":173113,"time":"2024/01/17 05:23:30","type":"SENT","status":"SUCCESS"},{"txHash":"a11f9df000f9e83f02e53bf0c9bd61577998530dd1ab6653a0d6e4ddb751ed49","amount":-500173113,"fee":173113,"time":"2024/01/16 06:43:17","type":"SENT","status":"SUCCESS"},{"txHash":"ff6fd4c49912d51ab5b790b64600262def4dede7085f9a2aee7fd490278ef681","amount":-577179141,"fee":179141,"time":"2024/01/16 06:04:24","type":"SENT","status":"SUCCESS"},{"txHash":"57383904efc86a7d42e185e964583e0f688168aee79529f4c036da27d7c2cbf5","amount":1075228295,"fee":190801,"time":"2024/01/16 04:44:35","type":"RECEIVED","status":"SUCCESS"},{"txHash":"4eb96bcc79f50416374b6a44ca7a88b6f8d5c8bb1fe062d6e4e80297fb23c0b8","amount":-1000187237,"fee":187237,"time":"2024/01/14 04:28:32","type":"SENT","status":"SUCCESS"},{"txHash":"f9a97e1b3ea36149dc9eae643662aa19218e7ccc6bcb5e9eb071972bb5124615","amount":520473782,"fee":183497,"time":"2024/01/13 06:58:13","type":"RECEIVED","status":"SUCCESS"}],"totalItems":519,"totalPages":6,"currentPage":0,"isDataOverSize":null}