{"data":[{"txHash":"4bcbb74389ca179ad48280176ed1a909e650dff6d327d4ba148bab7bbe95178d","fee":174301,"deposit":2000000,"time":"2023/01/02 11:24:29"}],"totalItems":4,"totalPages":4,"currentPage":0,"isDataOverSize":null}