{"data":[{"id":1733699,"name":"484f534b59","displayName":"HOSKY","policy":"a0028f350aaabe0545fdcb56b039bfb08e4bb4d8c4d7c3c7d481c235","policyIsNativeScript":true,"fingerprint":"asset17q7r59zlc3dgw0venc80pdv566q6yguw03f0d9","txCount":6737927,"supply":"1000000000000001","volumeIn24h":"3344735154954","totalVolume":"91392596228220491","numberOfHolders":144446,"createdOn":"2021/11/05 22:15:13","metadata":{"url":"https://hosky.io","ticker":"HOSKY","decimals":0,"logo":"https://uat-cf-explorer-token-logos.s3.eu-west-1.amazonaws.com/mainnet/a0028f350aaabe0545fdcb56b039bfb08e4bb4d8c4d7c3c7d481c235484f534b59","description":"The PREMIERE low-quality s**t coin doggo meme token, exclusively on the Cardano Ecosystem. We are THE s**t, we are NOT s**t."}}],"totalItems":9889207,"totalPages":9889207,"currentPage":0,"isDataOverSize":null}