{"data":[{"txHash":"2ca69dd7e0980e14d3a54a6c354a83e4a9a6969360a142e392691c2808541d0c","amount":"1","time":"2021/12/26 18:43:16"}],"totalItems":6,"totalPages":6,"currentPage":0,"isDataOverSize":null}