{"data":[{"epoch":473,"time":"2024/03/15 21:45:26","amount":647047,"type":"MEMBER","poolView":"pool189lsf6c2upyhmrzddyvyfjxxkqnte9pw8aqx7f4cuf85sjxlm02","poolHash":"397f04eb0ae0497d8c4d691844c8c6b026bc942e3f406f26b8e24f48"},{"epoch":472,"time":"2024/03/10 21:45:06","amount":649474,"type":"MEMBER","poolView":"pool189lsf6c2upyhmrzddyvyfjxxkqnte9pw8aqx7f4cuf85sjxlm02","poolHash":"397f04eb0ae0497d8c4d691844c8c6b026bc942e3f406f26b8e24f48"},{"epoch":471,"time":"2024/03/05 21:45:28","amount":625892,"type":"MEMBER","poolView":"pool189lsf6c2upyhmrzddyvyfjxxkqnte9pw8aqx7f4cuf85sjxlm02","poolHash":"397f04eb0ae0497d8c4d691844c8c6b026bc942e3f406f26b8e24f48"},{"epoch":470,"time":"2024/02/29 21:45:58","amount":707407,"type":"MEMBER","poolView":"pool189lsf6c2upyhmrzddyvyfjxxkqnte9pw8aqx7f4cuf85sjxlm02","poolHash":"397f04eb0ae0497d8c4d691844c8c6b026bc942e3f406f26b8e24f48"},{"epoch":468,"time":"2024/02/19 21:45:22","amount":125365,"type":"MEMBER","poolView":"pool189lsf6c2upyhmrzddyvyfjxxkqnte9pw8aqx7f4cuf85sjxlm02","poolHash":"397f04eb0ae0497d8c4d691844c8c6b026bc942e3f406f26b8e24f48"},{"epoch":461,"time":"2024/01/15 21:45:12","amount":313935,"type":"MEMBER","poolView":"pool189lsf6c2upyhmrzddyvyfjxxkqnte9pw8aqx7f4cuf85sjxlm02","poolHash":"397f04eb0ae0497d8c4d691844c8c6b026bc942e3f406f26b8e24f48"},{"epoch":460,"time":"2024/01/10 21:45:09","amount":173092,"type":"MEMBER","poolView":"pool189lsf6c2upyhmrzddyvyfjxxkqnte9pw8aqx7f4cuf85sjxlm02","poolHash":"397f04eb0ae0497d8c4d691844c8c6b026bc942e3f406f26b8e24f48"},{"epoch":459,"time":"2024/01/05 21:45:31","amount":468120,"type":"MEMBER","poolView":"pool189lsf6c2upyhmrzddyvyfjxxkqnte9pw8aqx7f4cuf85sjxlm02","poolHash":"397f04eb0ae0497d8c4d691844c8c6b026bc942e3f406f26b8e24f48"},{"epoch":457,"time":"2023/12/26 21:45:09","amount":109094,"type":"MEMBER","poolView":"pool189lsf6c2upyhmrzddyvyfjxxkqnte9pw8aqx7f4cuf85sjxlm02","poolHash":"397f04eb0ae0497d8c4d691844c8c6b026bc942e3f406f26b8e24f48"},{"epoch":456,"time":"2023/12/21 21:45:01","amount":3929715,"type":"MEMBER","poolView":"pool189lsf6c2upyhmrzddyvyfjxxkqnte9pw8aqx7f4cuf85sjxlm02","poolHash":"397f04eb0ae0497d8c4d691844c8c6b026bc942e3f406f26b8e24f48"},{"epoch":454,"time":"2023/12/11 21:46:00","amount":4225754,"type":"MEMBER","poolView":"pool189lsf6c2upyhmrzddyvyfjxxkqnte9pw8aqx7f4cuf85sjxlm02","poolHash":"397f04eb0ae0497d8c4d691844c8c6b026bc942e3f406f26b8e24f48"},{"epoch":453,"time":"2023/12/06 21:45:15","amount":4407475,"type":"MEMBER","poolView":"pool189lsf6c2upyhmrzddyvyfjxxkqnte9pw8aqx7f4cuf85sjxlm02","poolHash":"397f04eb0ae0497d8c4d691844c8c6b026bc942e3f406f26b8e24f48"},{"epoch":452,"time":"2023/12/01 21:44:52","amount":3979149,"type":"MEMBER","poolView":"pool189lsf6c2upyhmrzddyvyfjxxkqnte9pw8aqx7f4cuf85sjxlm02","poolHash":"397f04eb0ae0497d8c4d691844c8c6b026bc942e3f406f26b8e24f48"},{"epoch":451,"time":"2023/11/26 21:44:58","amount":3774003,"type":"MEMBER","poolView":"pool189lsf6c2upyhmrzddyvyfjxxkqnte9pw8aqx7f4cuf85sjxlm02","poolHash":"397f04eb0ae0497d8c4d691844c8c6b026bc942e3f406f26b8e24f48"},{"epoch":450,"time":"2023/11/21 21:44:51","amount":5101354,"type":"MEMBER","poolView":"pool189lsf6c2upyhmrzddyvyfjxxkqnte9pw8aqx7f4cuf85sjxlm02","poolHash":"397f04eb0ae0497d8c4d691844c8c6b026bc942e3f406f26b8e24f48"},{"epoch":449,"time":"2023/11/16 21:44:57","amount":3859199,"type":"MEMBER","poolView":"pool189lsf6c2upyhmrzddyvyfjxxkqnte9pw8aqx7f4cuf85sjxlm02","poolHash":"397f04eb0ae0497d8c4d691844c8c6b026bc942e3f406f26b8e24f48"},{"epoch":448,"time":"2023/11/11 21:46:14","amount":4599775,"type":"MEMBER","poolView":"pool189lsf6c2upyhmrzddyvyfjxxkqnte9pw8aqx7f4cuf85sjxlm02","poolHash":"397f04eb0ae0497d8c4d691844c8c6b026bc942e3f406f26b8e24f48"},{"epoch":447,"time":"2023/11/06 21:45:50","amount":482111,"type":"MEMBER","poolView":"pool189lsf6c2upyhmrzddyvyfjxxkqnte9pw8aqx7f4cuf85sjxlm02","poolHash":"397f04eb0ae0497d8c4d691844c8c6b026bc942e3f406f26b8e24f48"},{"epoch":444,"time":"2023/10/22 21:45:08","amount":596990,"type":"MEMBER","poolView":"pool1wt0pf4u2xktp0f7apveu242w6nkm4ltk3m8g039lvuhwq4zdtf3","poolHash":"72de14d78a359617a7dd0b33c5554ed4edbafd768ece87c4bf672ee0"},{"epoch":441,"time":"2023/10/07 21:45:01","amount":8552,"type":"MEMBER","poolView":"pool1wt0pf4u2xktp0f7apveu242w6nkm4ltk3m8g039lvuhwq4zdtf3","poolHash":"72de14d78a359617a7dd0b33c5554ed4edbafd768ece87c4bf672ee0"},{"epoch":440,"time":"2023/10/02 21:44:51","amount":16918,"type":"MEMBER","poolView":"pool1wt0pf4u2xktp0f7apveu242w6nkm4ltk3m8g039lvuhwq4zdtf3","poolHash":"72de14d78a359617a7dd0b33c5554ed4edbafd768ece87c4bf672ee0"},{"epoch":438,"time":"2023/09/22 21:45:05","amount":830567,"type":"MEMBER","poolView":"pool1wt0pf4u2xktp0f7apveu242w6nkm4ltk3m8g039lvuhwq4zdtf3","poolHash":"72de14d78a359617a7dd0b33c5554ed4edbafd768ece87c4bf672ee0"},{"epoch":437,"time":"2023/09/17 21:44:58","amount":2253132,"type":"MEMBER","poolView":"pool1xlphlhnjvfeh40vcqf9fdewztsj6kyxq6604kaccpv00umjfu0d","poolHash":"37c37fde7262737abd98024a96e5c25c25ab10c0d69f5b77180b1efe"},{"epoch":436,"time":"2023/09/12 21:45:10","amount":2437487,"type":"MEMBER","poolView":"pool1xlphlhnjvfeh40vcqf9fdewztsj6kyxq6604kaccpv00umjfu0d","poolHash":"37c37fde7262737abd98024a96e5c25c25ab10c0d69f5b77180b1efe"},{"epoch":435,"time":"2023/09/07 21:45:30","amount":273380,"type":"MEMBER","poolView":"pool1xlphlhnjvfeh40vcqf9fdewztsj6kyxq6604kaccpv00umjfu0d","poolHash":"37c37fde7262737abd98024a96e5c25c25ab10c0d69f5b77180b1efe"},{"epoch":428,"time":"2023/08/03 21:44:55","amount":858984,"type":"MEMBER","poolView":"pool1xlphlhnjvfeh40vcqf9fdewztsj6kyxq6604kaccpv00umjfu0d","poolHash":"37c37fde7262737abd98024a96e5c25c25ab10c0d69f5b77180b1efe"},{"epoch":427,"time":"2023/07/29 21:45:43","amount":1246178,"type":"MEMBER","poolView":"pool1xlphlhnjvfeh40vcqf9fdewztsj6kyxq6604kaccpv00umjfu0d","poolHash":"37c37fde7262737abd98024a96e5c25c25ab10c0d69f5b77180b1efe"},{"epoch":418,"time":"2023/06/14 21:44:54","amount":618306,"type":"MEMBER","poolView":"pool1xlphlhnjvfeh40vcqf9fdewztsj6kyxq6604kaccpv00umjfu0d","poolHash":"37c37fde7262737abd98024a96e5c25c25ab10c0d69f5b77180b1efe"},{"epoch":417,"time":"2023/06/09 21:47:26","amount":542259,"type":"MEMBER","poolView":"pool1xlphlhnjvfeh40vcqf9fdewztsj6kyxq6604kaccpv00umjfu0d","poolHash":"37c37fde7262737abd98024a96e5c25c25ab10c0d69f5b77180b1efe"},{"epoch":416,"time":"2023/06/04 21:46:57","amount":4342,"type":"MEMBER","poolView":"pool1xlphlhnjvfeh40vcqf9fdewztsj6kyxq6604kaccpv00umjfu0d","poolHash":"37c37fde7262737abd98024a96e5c25c25ab10c0d69f5b77180b1efe"},{"epoch":415,"time":"2023/05/30 21:45:29","amount":3962599,"type":"MEMBER","poolView":"pool1xlphlhnjvfeh40vcqf9fdewztsj6kyxq6604kaccpv00umjfu0d","poolHash":"37c37fde7262737abd98024a96e5c25c25ab10c0d69f5b77180b1efe"},{"epoch":414,"time":"2023/05/25 21:46:32","amount":3875723,"type":"MEMBER","poolView":"pool1ukeqarukv9gxwy9pt8jkr4qvad2yf87758g3xzemmvmtk8lrynp","poolHash":"e5b20e8f9661506710a159e561d40ceb54449fdea1d1130b3bdb36bb"},{"epoch":413,"time":"2023/05/20 21:47:36","amount":4714280,"type":"MEMBER","poolView":"pool1ukeqarukv9gxwy9pt8jkr4qvad2yf87758g3xzemmvmtk8lrynp","poolHash":"e5b20e8f9661506710a159e561d40ceb54449fdea1d1130b3bdb36bb"},{"epoch":412,"time":"2023/05/15 21:46:10","amount":3806002,"type":"MEMBER","poolView":"pool1ukeqarukv9gxwy9pt8jkr4qvad2yf87758g3xzemmvmtk8lrynp","poolHash":"e5b20e8f9661506710a159e561d40ceb54449fdea1d1130b3bdb36bb"},{"epoch":411,"time":"2023/05/10 21:46:15","amount":5566597,"type":"MEMBER","poolView":"pool1ukeqarukv9gxwy9pt8jkr4qvad2yf87758g3xzemmvmtk8lrynp","poolHash":"e5b20e8f9661506710a159e561d40ceb54449fdea1d1130b3bdb36bb"},{"epoch":410,"time":"2023/05/05 21:45:10","amount":4430507,"type":"MEMBER","poolView":"pool1ukeqarukv9gxwy9pt8jkr4qvad2yf87758g3xzemmvmtk8lrynp","poolHash":"e5b20e8f9661506710a159e561d40ceb54449fdea1d1130b3bdb36bb"},{"epoch":409,"time":"2023/04/30 21:47:21","amount":4347218,"type":"MEMBER","poolView":"pool1ukeqarukv9gxwy9pt8jkr4qvad2yf87758g3xzemmvmtk8lrynp","poolHash":"e5b20e8f9661506710a159e561d40ceb54449fdea1d1130b3bdb36bb"},{"epoch":408,"time":"2023/04/25 21:46:35","amount":4693954,"type":"MEMBER","poolView":"pool1ukeqarukv9gxwy9pt8jkr4qvad2yf87758g3xzemmvmtk8lrynp","poolHash":"e5b20e8f9661506710a159e561d40ceb54449fdea1d1130b3bdb36bb"},{"epoch":407,"time":"2023/04/20 21:46:22","amount":3948212,"type":"MEMBER","poolView":"pool1ukeqarukv9gxwy9pt8jkr4qvad2yf87758g3xzemmvmtk8lrynp","poolHash":"e5b20e8f9661506710a159e561d40ceb54449fdea1d1130b3bdb36bb"},{"epoch":406,"time":"2023/04/15 21:46:34","amount":5734514,"type":"MEMBER","poolView":"pool1zz7x8ergn02chznayj9fjds2gk5q6prmpdr49faspd65kzqsrjs","poolHash":"10bc63e4689bd58b8a7d248a99360a45a80d047b0b4752a7b00b754b"},{"epoch":405,"time":"2023/04/10 21:45:36","amount":3642294,"type":"MEMBER","poolView":"pool1zz7x8ergn02chznayj9fjds2gk5q6prmpdr49faspd65kzqsrjs","poolHash":"10bc63e4689bd58b8a7d248a99360a45a80d047b0b4752a7b00b754b"},{"epoch":404,"time":"2023/04/05 21:45:37","amount":3583656,"type":"MEMBER","poolView":"pool1zz7x8ergn02chznayj9fjds2gk5q6prmpdr49faspd65kzqsrjs","poolHash":"10bc63e4689bd58b8a7d248a99360a45a80d047b0b4752a7b00b754b"},{"epoch":403,"time":"2023/03/31 21:49:49","amount":2864821,"type":"MEMBER","poolView":"pool1zz7x8ergn02chznayj9fjds2gk5q6prmpdr49faspd65kzqsrjs","poolHash":"10bc63e4689bd58b8a7d248a99360a45a80d047b0b4752a7b00b754b"},{"epoch":402,"time":"2023/03/26 21:46:12","amount":3274478,"type":"MEMBER","poolView":"pool1zz7x8ergn02chznayj9fjds2gk5q6prmpdr49faspd65kzqsrjs","poolHash":"10bc63e4689bd58b8a7d248a99360a45a80d047b0b4752a7b00b754b"},{"epoch":401,"time":"2023/03/21 21:45:15","amount":4686878,"type":"MEMBER","poolView":"pool1zz7x8ergn02chznayj9fjds2gk5q6prmpdr49faspd65kzqsrjs","poolHash":"10bc63e4689bd58b8a7d248a99360a45a80d047b0b4752a7b00b754b"},{"epoch":400,"time":"2023/03/16 21:48:38","amount":4582095,"type":"MEMBER","poolView":"pool1zz7x8ergn02chznayj9fjds2gk5q6prmpdr49faspd65kzqsrjs","poolHash":"10bc63e4689bd58b8a7d248a99360a45a80d047b0b4752a7b00b754b"},{"epoch":399,"time":"2023/03/11 21:48:16","amount":4213756,"type":"MEMBER","poolView":"pool1zz7x8ergn02chznayj9fjds2gk5q6prmpdr49faspd65kzqsrjs","poolHash":"10bc63e4689bd58b8a7d248a99360a45a80d047b0b4752a7b00b754b"},{"epoch":398,"time":"2023/03/06 21:46:33","amount":4113741,"type":"MEMBER","poolView":"pool1dxwgzj66pual956mnv9delkelg873yvgr2dd8s279m0hxqvr475","poolHash":"699c814b5a0f3bf2d35b9b0adcfed9fa0fe891881a9ad3c15e2edf73"},{"epoch":397,"time":"2023/03/01 21:45:54","amount":5344238,"type":"MEMBER","poolView":"pool1dxwgzj66pual956mnv9delkelg873yvgr2dd8s279m0hxqvr475","poolHash":"699c814b5a0f3bf2d35b9b0adcfed9fa0fe891881a9ad3c15e2edf73"},{"epoch":396,"time":"2023/02/24 21:47:42","amount":1819974,"type":"MEMBER","poolView":"pool1dxwgzj66pual956mnv9delkelg873yvgr2dd8s279m0hxqvr475","poolHash":"699c814b5a0f3bf2d35b9b0adcfed9fa0fe891881a9ad3c15e2edf73"},{"epoch":395,"time":"2023/02/19 21:44:59","amount":1274877,"type":"MEMBER","poolView":"pool1dxwgzj66pual956mnv9delkelg873yvgr2dd8s279m0hxqvr475","poolHash":"699c814b5a0f3bf2d35b9b0adcfed9fa0fe891881a9ad3c15e2edf73"},{"epoch":394,"time":"2023/02/14 21:46:16","amount":7307,"type":"MEMBER","poolView":"pool1dxwgzj66pual956mnv9delkelg873yvgr2dd8s279m0hxqvr475","poolHash":"699c814b5a0f3bf2d35b9b0adcfed9fa0fe891881a9ad3c15e2edf73"},{"epoch":393,"time":"2023/02/09 21:46:32","amount":1855559,"type":"MEMBER","poolView":"pool1dxwgzj66pual956mnv9delkelg873yvgr2dd8s279m0hxqvr475","poolHash":"699c814b5a0f3bf2d35b9b0adcfed9fa0fe891881a9ad3c15e2edf73"},{"epoch":392,"time":"2023/02/04 21:48:54","amount":51705,"type":"MEMBER","poolView":"pool1dxwgzj66pual956mnv9delkelg873yvgr2dd8s279m0hxqvr475","poolHash":"699c814b5a0f3bf2d35b9b0adcfed9fa0fe891881a9ad3c15e2edf73"},{"epoch":391,"time":"2023/01/30 21:46:15","amount":5237723,"type":"MEMBER","poolView":"pool1dxwgzj66pual956mnv9delkelg873yvgr2dd8s279m0hxqvr475","poolHash":"699c814b5a0f3bf2d35b9b0adcfed9fa0fe891881a9ad3c15e2edf73"},{"epoch":390,"time":"2023/01/25 21:46:08","amount":4254968,"type":"MEMBER","poolView":"pool1ukeqarukv9gxwy9pt8jkr4qvad2yf87758g3xzemmvmtk8lrynp","poolHash":"e5b20e8f9661506710a159e561d40ceb54449fdea1d1130b3bdb36bb"},{"epoch":389,"time":"2023/01/20 21:48:38","amount":1145707,"type":"MEMBER","poolView":"pool1ukeqarukv9gxwy9pt8jkr4qvad2yf87758g3xzemmvmtk8lrynp","poolHash":"e5b20e8f9661506710a159e561d40ceb54449fdea1d1130b3bdb36bb"},{"epoch":372,"time":"2022/10/27 21:44:55","amount":686812,"type":"MEMBER","poolView":"pool1ukeqarukv9gxwy9pt8jkr4qvad2yf87758g3xzemmvmtk8lrynp","poolHash":"e5b20e8f9661506710a159e561d40ceb54449fdea1d1130b3bdb36bb"},{"epoch":371,"time":"2022/10/22 21:46:23","amount":476980,"type":"MEMBER","poolView":"pool1ukeqarukv9gxwy9pt8jkr4qvad2yf87758g3xzemmvmtk8lrynp","poolHash":"e5b20e8f9661506710a159e561d40ceb54449fdea1d1130b3bdb36bb"},{"epoch":370,"time":"2022/10/17 21:48:28","amount":407774,"type":"MEMBER","poolView":"pool1ukeqarukv9gxwy9pt8jkr4qvad2yf87758g3xzemmvmtk8lrynp","poolHash":"e5b20e8f9661506710a159e561d40ceb54449fdea1d1130b3bdb36bb"},{"epoch":369,"time":"2022/10/12 21:45:08","amount":470990,"type":"MEMBER","poolView":"pool1ukeqarukv9gxwy9pt8jkr4qvad2yf87758g3xzemmvmtk8lrynp","poolHash":"e5b20e8f9661506710a159e561d40ceb54449fdea1d1130b3bdb36bb"},{"epoch":367,"time":"2022/10/02 21:45:57","amount":5588153,"type":"MEMBER","poolView":"pool1vx9tzlkgafernd9vpjpxkenutx2gncj4yn88fpq69823qlwcqrt","poolHash":"618ab17ec8ea7239b4ac0c826b667c599489e25524ce74841a29d510"},{"epoch":366,"time":"2022/09/27 21:45:11","amount":3495,"type":"MEMBER","poolView":"pool1vx9tzlkgafernd9vpjpxkenutx2gncj4yn88fpq69823qlwcqrt","poolHash":"618ab17ec8ea7239b4ac0c826b667c599489e25524ce74841a29d510"},{"epoch":364,"time":"2022/09/17 21:45:01","amount":5329948,"type":"MEMBER","poolView":"pool1vx9tzlkgafernd9vpjpxkenutx2gncj4yn88fpq69823qlwcqrt","poolHash":"618ab17ec8ea7239b4ac0c826b667c599489e25524ce74841a29d510"},{"epoch":363,"time":"2022/09/12 21:53:14","amount":5569409,"type":"MEMBER","poolView":"pool1vx9tzlkgafernd9vpjpxkenutx2gncj4yn88fpq69823qlwcqrt","poolHash":"618ab17ec8ea7239b4ac0c826b667c599489e25524ce74841a29d510"},{"epoch":362,"time":"2022/09/07 21:56:05","amount":4396376,"type":"MEMBER","poolView":"pool1vx9tzlkgafernd9vpjpxkenutx2gncj4yn88fpq69823qlwcqrt","poolHash":"618ab17ec8ea7239b4ac0c826b667c599489e25524ce74841a29d510"},{"epoch":361,"time":"2022/09/02 21:49:50","amount":4331638,"type":"MEMBER","poolView":"pool1vx9tzlkgafernd9vpjpxkenutx2gncj4yn88fpq69823qlwcqrt","poolHash":"618ab17ec8ea7239b4ac0c826b667c599489e25524ce74841a29d510"},{"epoch":360,"time":"2022/08/28 21:45:32","amount":4634081,"type":"MEMBER","poolView":"pool1vx9tzlkgafernd9vpjpxkenutx2gncj4yn88fpq69823qlwcqrt","poolHash":"618ab17ec8ea7239b4ac0c826b667c599489e25524ce74841a29d510"},{"epoch":359,"time":"2022/08/23 21:45:52","amount":5194325,"type":"MEMBER","poolView":"pool1vx9tzlkgafernd9vpjpxkenutx2gncj4yn88fpq69823qlwcqrt","poolHash":"618ab17ec8ea7239b4ac0c826b667c599489e25524ce74841a29d510"},{"epoch":358,"time":"2022/08/18 21:44:58","amount":4776111,"type":"MEMBER","poolView":"pool1vx9tzlkgafernd9vpjpxkenutx2gncj4yn88fpq69823qlwcqrt","poolHash":"618ab17ec8ea7239b4ac0c826b667c599489e25524ce74841a29d510"},{"epoch":357,"time":"2022/08/13 21:46:53","amount":3831316,"type":"MEMBER","poolView":"pool1dxwgzj66pual956mnv9delkelg873yvgr2dd8s279m0hxqvr475","poolHash":"699c814b5a0f3bf2d35b9b0adcfed9fa0fe891881a9ad3c15e2edf73"},{"epoch":356,"time":"2022/08/08 21:45:00","amount":4719199,"type":"MEMBER","poolView":"pool1dxwgzj66pual956mnv9delkelg873yvgr2dd8s279m0hxqvr475","poolHash":"699c814b5a0f3bf2d35b9b0adcfed9fa0fe891881a9ad3c15e2edf73"},{"epoch":355,"time":"2022/08/03 21:45:02","amount":3915218,"type":"MEMBER","poolView":"pool1dxwgzj66pual956mnv9delkelg873yvgr2dd8s279m0hxqvr475","poolHash":"699c814b5a0f3bf2d35b9b0adcfed9fa0fe891881a9ad3c15e2edf73"},{"epoch":354,"time":"2022/07/29 21:44:51","amount":3823732,"type":"MEMBER","poolView":"pool1dxwgzj66pual956mnv9delkelg873yvgr2dd8s279m0hxqvr475","poolHash":"699c814b5a0f3bf2d35b9b0adcfed9fa0fe891881a9ad3c15e2edf73"},{"epoch":353,"time":"2022/07/24 21:47:00","amount":5206019,"type":"MEMBER","poolView":"pool1dxwgzj66pual956mnv9delkelg873yvgr2dd8s279m0hxqvr475","poolHash":"699c814b5a0f3bf2d35b9b0adcfed9fa0fe891881a9ad3c15e2edf73"},{"epoch":352,"time":"2022/07/19 21:44:58","amount":3592009,"type":"MEMBER","poolView":"pool1dxwgzj66pual956mnv9delkelg873yvgr2dd8s279m0hxqvr475","poolHash":"699c814b5a0f3bf2d35b9b0adcfed9fa0fe891881a9ad3c15e2edf73"},{"epoch":351,"time":"2022/07/14 21:45:36","amount":4537381,"type":"MEMBER","poolView":"pool1dxwgzj66pual956mnv9delkelg873yvgr2dd8s279m0hxqvr475","poolHash":"699c814b5a0f3bf2d35b9b0adcfed9fa0fe891881a9ad3c15e2edf73"},{"epoch":350,"time":"2022/07/09 21:45:34","amount":2811492,"type":"MEMBER","poolView":"pool1dxwgzj66pual956mnv9delkelg873yvgr2dd8s279m0hxqvr475","poolHash":"699c814b5a0f3bf2d35b9b0adcfed9fa0fe891881a9ad3c15e2edf73"},{"epoch":349,"time":"2022/07/04 21:45:30","amount":1267578,"type":"MEMBER","poolView":"pool1dxwgzj66pual956mnv9delkelg873yvgr2dd8s279m0hxqvr475","poolHash":"699c814b5a0f3bf2d35b9b0adcfed9fa0fe891881a9ad3c15e2edf73"},{"epoch":303,"time":"2021/11/16 21:45:05","amount":2112777,"type":"MEMBER","poolView":"pool1dxwgzj66pual956mnv9delkelg873yvgr2dd8s279m0hxqvr475","poolHash":"699c814b5a0f3bf2d35b9b0adcfed9fa0fe891881a9ad3c15e2edf73"},{"epoch":302,"time":"2021/11/11 21:46:52","amount":2322178,"type":"MEMBER","poolView":"pool1dxwgzj66pual956mnv9delkelg873yvgr2dd8s279m0hxqvr475","poolHash":"699c814b5a0f3bf2d35b9b0adcfed9fa0fe891881a9ad3c15e2edf73"},{"epoch":301,"time":"2021/11/06 21:46:27","amount":1183342,"type":"MEMBER","poolView":"pool1dxwgzj66pual956mnv9delkelg873yvgr2dd8s279m0hxqvr475","poolHash":"699c814b5a0f3bf2d35b9b0adcfed9fa0fe891881a9ad3c15e2edf73"},{"epoch":300,"time":"2021/11/01 21:49:05","amount":1811269,"type":"MEMBER","poolView":"pool1dxwgzj66pual956mnv9delkelg873yvgr2dd8s279m0hxqvr475","poolHash":"699c814b5a0f3bf2d35b9b0adcfed9fa0fe891881a9ad3c15e2edf73"},{"epoch":299,"time":"2021/10/27 21:46:25","amount":2913738,"type":"MEMBER","poolView":"pool1dxwgzj66pual956mnv9delkelg873yvgr2dd8s279m0hxqvr475","poolHash":"699c814b5a0f3bf2d35b9b0adcfed9fa0fe891881a9ad3c15e2edf73"},{"epoch":298,"time":"2021/10/22 21:47:43","amount":1954409,"type":"MEMBER","poolView":"pool1dxwgzj66pual956mnv9delkelg873yvgr2dd8s279m0hxqvr475","poolHash":"699c814b5a0f3bf2d35b9b0adcfed9fa0fe891881a9ad3c15e2edf73"},{"epoch":297,"time":"2021/10/17 21:47:15","amount":1720001,"type":"MEMBER","poolView":"pool1vquhv3kh6xkklckaenl8alyuhfsld57ef5573aqauueyqacx4ak","poolHash":"60397646d7d1ad6fe2ddccfe7efc9cba61f6d3d94d29e8f41de73240"},{"epoch":296,"time":"2021/10/12 21:44:59","amount":1988733,"type":"MEMBER","poolView":"pool1vquhv3kh6xkklckaenl8alyuhfsld57ef5573aqauueyqacx4ak","poolHash":"60397646d7d1ad6fe2ddccfe7efc9cba61f6d3d94d29e8f41de73240"},{"epoch":295,"time":"2021/10/07 21:44:59","amount":2533294,"type":"MEMBER","poolView":"pool1vquhv3kh6xkklckaenl8alyuhfsld57ef5573aqauueyqacx4ak","poolHash":"60397646d7d1ad6fe2ddccfe7efc9cba61f6d3d94d29e8f41de73240"},{"epoch":294,"time":"2021/10/02 21:50:11","amount":1558981,"type":"MEMBER","poolView":"pool1vquhv3kh6xkklckaenl8alyuhfsld57ef5573aqauueyqacx4ak","poolHash":"60397646d7d1ad6fe2ddccfe7efc9cba61f6d3d94d29e8f41de73240"},{"epoch":293,"time":"2021/09/27 21:46:53","amount":2470208,"type":"MEMBER","poolView":"pool1vquhv3kh6xkklckaenl8alyuhfsld57ef5573aqauueyqacx4ak","poolHash":"60397646d7d1ad6fe2ddccfe7efc9cba61f6d3d94d29e8f41de73240"},{"epoch":292,"time":"2021/09/22 21:46:03","amount":1846864,"type":"MEMBER","poolView":"pool1vquhv3kh6xkklckaenl8alyuhfsld57ef5573aqauueyqacx4ak","poolHash":"60397646d7d1ad6fe2ddccfe7efc9cba61f6d3d94d29e8f41de73240"},{"epoch":291,"time":"2021/09/17 21:46:33","amount":1827005,"type":"MEMBER","poolView":"pool1vquhv3kh6xkklckaenl8alyuhfsld57ef5573aqauueyqacx4ak","poolHash":"60397646d7d1ad6fe2ddccfe7efc9cba61f6d3d94d29e8f41de73240"},{"epoch":290,"time":"2021/09/12 21:47:46","amount":2217815,"type":"MEMBER","poolView":"pool1vquhv3kh6xkklckaenl8alyuhfsld57ef5573aqauueyqacx4ak","poolHash":"60397646d7d1ad6fe2ddccfe7efc9cba61f6d3d94d29e8f41de73240"},{"epoch":289,"time":"2021/09/07 21:45:31","amount":2514700,"type":"MEMBER","poolView":"pool1vquhv3kh6xkklckaenl8alyuhfsld57ef5573aqauueyqacx4ak","poolHash":"60397646d7d1ad6fe2ddccfe7efc9cba61f6d3d94d29e8f41de73240"},{"epoch":288,"time":"2021/09/02 21:45:01","amount":2243217,"type":"MEMBER","poolView":"pool1vquhv3kh6xkklckaenl8alyuhfsld57ef5573aqauueyqacx4ak","poolHash":"60397646d7d1ad6fe2ddccfe7efc9cba61f6d3d94d29e8f41de73240"},{"epoch":287,"time":"2021/08/28 21:47:10","amount":1681659,"type":"MEMBER","poolView":"pool1vquhv3kh6xkklckaenl8alyuhfsld57ef5573aqauueyqacx4ak","poolHash":"60397646d7d1ad6fe2ddccfe7efc9cba61f6d3d94d29e8f41de73240"},{"epoch":286,"time":"2021/08/23 21:46:15","amount":1744471,"type":"MEMBER","poolView":"pool1vquhv3kh6xkklckaenl8alyuhfsld57ef5573aqauueyqacx4ak","poolHash":"60397646d7d1ad6fe2ddccfe7efc9cba61f6d3d94d29e8f41de73240"},{"epoch":285,"time":"2021/08/18 21:45:28","amount":1641420,"type":"MEMBER","poolView":"pool1vquhv3kh6xkklckaenl8alyuhfsld57ef5573aqauueyqacx4ak","poolHash":"60397646d7d1ad6fe2ddccfe7efc9cba61f6d3d94d29e8f41de73240"},{"epoch":284,"time":"2021/08/13 21:46:01","amount":1120837,"type":"MEMBER","poolView":"pool1vquhv3kh6xkklckaenl8alyuhfsld57ef5573aqauueyqacx4ak","poolHash":"60397646d7d1ad6fe2ddccfe7efc9cba61f6d3d94d29e8f41de73240"},{"epoch":283,"time":"2021/08/08 21:46:08","amount":1265431,"type":"MEMBER","poolView":"pool1vquhv3kh6xkklckaenl8alyuhfsld57ef5573aqauueyqacx4ak","poolHash":"60397646d7d1ad6fe2ddccfe7efc9cba61f6d3d94d29e8f41de73240"}],"totalItems":145,"totalPages":2,"currentPage":0,"isDataOverSize":null}