{"data":[{"id":1733699,"name":"484f534b59","displayName":"HOSKY","policy":"a0028f350aaabe0545fdcb56b039bfb08e4bb4d8c4d7c3c7d481c235","policyIsNativeScript":true,"fingerprint":"asset17q7r59zlc3dgw0venc80pdv566q6yguw03f0d9","txCount":6737927,"supply":"1000000000000001","volumeIn24h":"3344735154954","totalVolume":"91392596228220491","numberOfHolders":144446,"createdOn":"2021/11/05 22:15:13","metadata":{"url":"https://hosky.io","ticker":"HOSKY","decimals":0,"logo":"https://uat-cf-explorer-token-logos.s3.eu-west-1.amazonaws.com/mainnet/a0028f350aaabe0545fdcb56b039bfb08e4bb4d8c4d7c3c7d481c235484f534b59","description":"The PREMIERE low-quality s**t coin doggo meme token, exclusively on the Cardano Ecosystem. We are THE s**t, we are NOT s**t."}},{"id":2318955,"name":"44524950","displayName":"DRIP","policy":"af2e27f580f7f08e93190a81f72462f153026d06450924726645891b","policyIsNativeScript":true,"fingerprint":"asset14yqf3pclzx88jjahydyfad8pxw5xhuca6j7k2p","txCount":3617432,"supply":"45000000000000000","volumeIn24h":"19594050410431","totalVolume":"107353308966774710338","numberOfHolders":96203,"createdOn":"2021/12/11 19:54:45","metadata":{"url":"https://dripdropz.io","ticker":"DRIP","decimals":6,"logo":"https://uat-cf-explorer-token-logos.s3.eu-west-1.amazonaws.com/mainnet/af2e27f580f7f08e93190a81f72462f153026d06450924726645891b44524950","description":"DripDropz Token"}},{"id":4010137,"name":"4d494e53574150","displayName":"MINSWAP","policy":"13aa2accf2e1561723aa26871e071fdf32c867cff7e7d50ad470d62f","policyIsNativeScript":false,"fingerprint":"asset1698xlrm0wkrl3ttjqh5vez0jqs6hhcf022su9d","txCount":3184188,"supply":"7129","volumeIn24h":"24","totalVolume":"30007","numberOfHolders":55,"createdOn":"2022/03/24 11:04:42"},{"id":1195159,"name":"4d494e","displayName":"MIN","policy":"29d222ce763455e3d7a09a665ce554f00ac89d2e99a1a83d267170c6","policyIsNativeScript":true,"fingerprint":"asset1d9v7aptfvpx7we2la8f25kwprkj2ma5rp6uwzv","txCount":3118686,"supply":"3000000000000000","volumeIn24h":"204227987734522","totalVolume":"749704931202992971","numberOfHolders":35621,"createdOn":"2021/10/10 10:17:49","metadata":{"url":"https://minswap.org/","ticker":"MIN","decimals":6,"logo":"https://uat-cf-explorer-token-logos.s3.eu-west-1.amazonaws.com/mainnet/29d222ce763455e3d7a09a665ce554f00ac89d2e99a1a83d267170c64d494e","description":"Minswap is a multi-pool decentralize exchange protocol on Cardano"}},{"id":253,"name":"7370616365636f696e73","displayName":"spacecoins","policy":"d894897411707efa755a76deb66d26dfd50593f2e70863e1661e98a0","policyIsNativeScript":true,"fingerprint":"asset1pmmzqf2akudknt05ealtvcvsy7n6wnc9dd03mf","txCount":2391079,"supply":"106631501","volumeIn24h":"108222","totalVolume":"26792205751","numberOfHolders":59254,"createdOn":"2021/03/02 04:45:42","metadata":{"url":"https://spacecoins.io","ticker":"SPACE","decimals":0,"logo":"https://uat-cf-explorer-token-logos.s3.eu-west-1.amazonaws.com/mainnet/d894897411707efa755a76deb66d26dfd50593f2e70863e1661e98a07370616365636f696e73","description":"the OG Cardano community token - whatever you do, your did it!"}},{"id":267,"name":"61646f736961","displayName":"adosia","policy":"5ad8deb64bfec21ad2d96e1270b5873d0c4d0f231b928b4c39eb2435","policyIsNativeScript":true,"fingerprint":"asset1hmayqzg5drlze5nn2q5uug684pgc949tgww6hv","txCount":2167946,"supply":"12000000000000000","volumeIn24h":"996090037480","totalVolume":"745413211913173611","numberOfHolders":55662,"createdOn":"2021/03/02 05:21:57","metadata":{"url":"https://adosia.com","ticker":"ADO","decimals":6,"logo":"https://uat-cf-explorer-token-logos.s3.eu-west-1.amazonaws.com/mainnet/5ad8deb64bfec21ad2d96e1270b5873d0c4d0f231b928b4c39eb243561646f736961","description":"Adosia brings IoT utility to the Cardano blockchain to enable new economic opportunities"}},{"id":4009676,"name":"436f726e75636f70696173205b76696120436861696e506f72742e696f5d","displayName":"Cornucopias [via ChainPort.io]","policy":"b6a7467ea1deb012808ef4e87b5ff371e85f7142d7b356a40d9b42a0","policyIsNativeScript":true,"fingerprint":"asset1c6uau7pufsxhnm7eg0eerhu4snwfd9sn7kvvvz","txCount":2129666,"supply":"413064116927599","volumeIn24h":"10068472965687","totalVolume":"27328263459306494","numberOfHolders":44073,"createdOn":"2022/03/24 08:01:50","metadata":{"url":null,"ticker":"COPI","decimals":6,"logo":"https://uat-cf-explorer-token-logos.s3.eu-west-1.amazonaws.com/mainnet/b6a7467ea1deb012808ef4e87b5ff371e85f7142d7b356a40d9b42a0436f726e75636f70696173205b76696120436861696e506f72742e696f5d","description":"Cornucopias’ “The Island” is a massive Play-to-Earn (P2E), Build-to-Earn (B2E), and Learn-to-Earn (L2E) blockchain-based game in which players can be rewarded with and/or own land, properties and other NFT-based assets with real world value, all by playing games in a fun and safe metaverse."}},{"id":2382083,"name":"4c4f4253544552","displayName":"LOBSTER","policy":"8654e8b350e298c80d2451beb5ed80fc9eee9f38ce6b039fb8706bc3","policyIsNativeScript":true,"fingerprint":"asset19skal0agalysqpgfx63gswkpzc3hs24h9g9pg0","txCount":2055820,"supply":"1000000000000000","volumeIn24h":"9958186760581","totalVolume":"1112396316323899501","numberOfHolders":43413,"createdOn":"2021/12/15 21:22:32","metadata":{"url":null,"ticker":"$LOBSTER","decimals":null,"logo":"https://uat-cf-explorer-token-logos.s3.eu-west-1.amazonaws.com/mainnet/8654e8b350e298c80d2451beb5ed80fc9eee9f38ce6b039fb8706bc34c4f4253544552","description":"The ROYAL memecoin that was destined to rule the Cardano metaverse"}},{"id":2842363,"name":"53554e444145","displayName":"SUNDAE","policy":"9a9693a9a37912a5097918f97918d15240c92ab729a0b7c4aa144d77","policyIsNativeScript":false,"fingerprint":"asset1m4u92ke6820pkk07m8qmmguye02ewr8g6tezr0","txCount":2004488,"supply":"2000000000000000","volumeIn24h":"56177722264464","totalVolume":"100721466069060982","numberOfHolders":94552,"createdOn":"2022/01/17 05:29:53","metadata":{"url":"https://sundaeswap.finance","ticker":"SUNDAE","decimals":6,"logo":"https://uat-cf-explorer-token-logos.s3.eu-west-1.amazonaws.com/mainnet/9a9693a9a37912a5097918f97918d15240c92ab729a0b7c4aa144d7753554e444145","description":"SundaeSwap is a decentralized exchange and liquidity provision protocol. SundaeSwap DAO Token allows holders to participate in SundaeSwap governance and additional features introduced by the DAO."}},{"id":362270,"name":"546f6b68756e","displayName":"Tokhun","policy":"4247d5091db82330100904963ab8d0850976c80d3f1b927e052e07bd","policyIsNativeScript":true,"fingerprint":"asset1lur4e4jhsgrmfpvtru2tfrq2z5z5d8t5nr03vw","txCount":1976848,"supply":"460000001","volumeIn24h":"47660","totalVolume":"1098652073203","numberOfHolders":52516,"createdOn":"2021/07/31 21:28:05","metadata":{"url":"https://tokhun.io","ticker":"Tokhun","decimals":0,"logo":"https://uat-cf-explorer-token-logos.s3.eu-west-1.amazonaws.com/mainnet/4247d5091db82330100904963ab8d0850976c80d3f1b927e052e07bd546f6b68756e","description":"A closed loop Utility token for Tokhun.io NFT & FT marketplace & minting platform."}}],"totalItems":9889207,"totalPages":988921,"currentPage":0,"isDataOverSize":null}