{"data":[{"txHash":"0abace3a99b8094332918c8092803a014f2e662620570c383e29c3383a488f96","txTime":"2024/04/11 11:47:14","block":10172466,"epoch":478,"slotNo":121269743,"epochSlotNo":136943,"stakeKey":"stake1u935v44ecvwf4gs8f5jxhpfx2nd2ylkz084ycn86se5j22swdxm82"},{"txHash":"896d89782a8971c7cd66ca83e93f86febeb63563c0724ff2b8014e866e2b3fba","txTime":"2024/04/11 11:47:14","block":10172466,"epoch":478,"slotNo":121269743,"epochSlotNo":136943,"stakeKey":"stake1u984rtull504vtkvcwzpc9ym5ny7n3jpyxxh35yr8pe8lfsuvxd0p"},{"txHash":"a277ed66086e6601ba9aaf30c8395c3370154f32c8e89595b3ad371a05e91e9d","txTime":"2024/04/11 11:42:58","block":10172456,"epoch":478,"slotNo":121269487,"epochSlotNo":136687,"stakeKey":"stake1u8q3uja0su2s4986ut5u7592uy2kfxg7jqy3g4xn5w8hcesrtd5le"},{"txHash":"a46256ba290264c82699f6d440fa7881a56637f0c202cf5a281e952f27bf3f21","txTime":"2024/04/11 11:42:58","block":10172456,"epoch":478,"slotNo":121269487,"epochSlotNo":136687,"stakeKey":"stake1u8v4wgqp74uvtmyhevhp4vn26nwpqj3m7mkvvgaej3wgh5gnkuj90"},{"txHash":"a215d0716c50af655ad6cd3cf96dd06f73ea81c0c51a0a8bb8e35934e290e7c2","txTime":"2024/04/11 11:37:50","block":10172439,"epoch":478,"slotNo":121269179,"epochSlotNo":136379,"stakeKey":"stake1u9g3x88ctyjddgx0cuh36sj6vxpqjtcsq9rgyuf5qfp3gpqtn0x3u"},{"txHash":"4a479ceb4f23b55e0ff3ca70434513eda3ded8c7364aef7175449a779ba72836","txTime":"2024/04/11 11:25:45","block":10172400,"epoch":478,"slotNo":121268454,"epochSlotNo":135654,"stakeKey":"stake1u9cvnhrs695zhutx66mw042l3zhjy4falkktsdn7zanjx0g28ycjs"},{"txHash":"27331a2c9473c9f9d578927942b6aa38e77fd9022e78ba9aba8338a50d5f9960","txTime":"2024/04/11 11:25:45","block":10172400,"epoch":478,"slotNo":121268454,"epochSlotNo":135654,"stakeKey":"stake1uxv06j8rnx5agtvl95cwv8clf4q6f0570ppf5rq2z6m69sc2gu5vm"},{"txHash":"80b64169632c0e640ebb02d8f7835a41ea252318c0da4e1776bb228cb6450e49","txTime":"2024/04/11 11:16:07","block":10172377,"epoch":478,"slotNo":121267876,"epochSlotNo":135076,"stakeKey":"stake1u904jw7effuk36zvjyrgpqm66tqkeqaf99aw95jplaateag4zqxfm"},{"txHash":"1e0f26d15323fc2d6f474c255a9a086f60f39073acd6594b694465216b63bf6f","txTime":"2024/04/11 11:15:03","block":10172375,"epoch":478,"slotNo":121267812,"epochSlotNo":135012,"stakeKey":"stake1ux50qd9vtxk7uwkdwfqj5ft9rjg0ppmd2d39unz6tmjr26qcflcdy"},{"txHash":"9c36db7157379d1353309eb3d9de17716bb82a450cfe1701441475c90e0b0e3b","txTime":"2024/04/11 11:07:45","block":10172366,"epoch":478,"slotNo":121267374,"epochSlotNo":134574,"stakeKey":"stake1ux2eh9ntekvfl7l0cxnza5l7zkjagzzl32en30nn5ypwjyge3j0s7"},{"txHash":"c7f82647635a4fdc6ecea90203f72b6a3b30e9c42870280cb5103f0ea036f2d2","txTime":"2024/04/11 11:06:04","block":10172362,"epoch":478,"slotNo":121267273,"epochSlotNo":134473,"stakeKey":"stake1u9r6y985407layntqewc4r4x9ng54l9zmdvnx4gv72yh8fsqfmys6"},{"txHash":"1b263486b007399fdd2c0346fbe5025c0387465885471115acfb39bb0c770aa8","txTime":"2024/04/11 10:58:45","block":10172345,"epoch":478,"slotNo":121266834,"epochSlotNo":134034,"stakeKey":"stake1uysgzez5hyavtzxyy0qma3zyjj3c0cz07usdgyanwh975dgtmfp70"},{"txHash":"77d55d14bd8f0b111612eb92f8066b026aa502a6a0641f98d90d2a01e8017343","txTime":"2024/04/11 10:58:34","block":10172344,"epoch":478,"slotNo":121266823,"epochSlotNo":134023,"stakeKey":"stake1u9pdln52znv28c06u8lc7zfmdpmnpgw5gtyfgfvt2lsvjzgls3l9v"},{"txHash":"e455de586f1f5f9d2243396db8c005d784eff6af537e553e9af6d8b68bf5fbc7","txTime":"2024/04/11 10:58:07","block":10172342,"epoch":478,"slotNo":121266796,"epochSlotNo":133996,"stakeKey":"stake1u9l4wr3y69pgqqppadjcqd796ud9zxt6t3nctzkhwq0dtns0mg7tg"},{"txHash":"e678117ed20d1aadfbed53f54e1f1ccab46f8823948eab163abbf31108d0a314","txTime":"2024/04/11 10:50:17","block":10172318,"epoch":478,"slotNo":121266326,"epochSlotNo":133526,"stakeKey":"stake1u8cd3zduzf3znff20xhj4nx2l4y42vf8ya4vqjnfreej4jqc0zw7d"},{"txHash":"1414f89776f9c65b790dcfa81d1738ab01deeaa7727842389aad411d4078c217","txTime":"2024/04/11 10:47:40","block":10172306,"epoch":478,"slotNo":121266169,"epochSlotNo":133369,"stakeKey":"stake1uy69jgpwj8vpv8cqqccdpl6ve70uvzy7hd9s3hfz5njt5yq86l0ea"},{"txHash":"b1a3e0a34de761d75bfb7d7a646c34b03d68a131ed750fad77a75fc1a16d1996","txTime":"2024/04/11 10:44:21","block":10172297,"epoch":478,"slotNo":121265970,"epochSlotNo":133170,"stakeKey":"stake1uy8qaaefn3r4aplemwkturn3kt656d8kskl4h8q8xjrf4vsay33jd"},{"txHash":"1a5b90608ac637b0d308fbca3a14421dab039432578259531443f4d67fc5a4f3","txTime":"2024/04/11 10:44:21","block":10172297,"epoch":478,"slotNo":121265970,"epochSlotNo":133170,"stakeKey":"stake1u8at5sn4cl6zgela0sdxqh5uay2wu7n2u6ctleh7s6lt56gewagz6"},{"txHash":"f860ada78986ce45e047c37ea65f8d85cbe9a3076b30f36595b64b8637e52d94","txTime":"2024/04/11 10:42:15","block":10172291,"epoch":478,"slotNo":121265844,"epochSlotNo":133044,"stakeKey":"stake1u9jh94kmgpwdra9yc0vm2crfd5qadkrwrpmn3yehq7te83cyd4kmg"},{"txHash":"61306e8cc6224e3dae28831541b5b4edf88aeb712e466088018a6b774e331a22","txTime":"2024/04/11 10:39:46","block":10172288,"epoch":478,"slotNo":121265695,"epochSlotNo":132895,"stakeKey":"stake1uyx3e0hm7jmdw2ghxvzkejw3kza0rcywawyfuyt3jrkhq0che7585"}],"totalItems":1874891,"totalPages":93745,"currentPage":0,"isDataOverSize":null}