{"data":[{"address":"addr1wxaclvy4mlwjvzkj5xwczr0chm3l0avp7lhw6g4838rrhxg62h7l7","policy":"123da5e4ef337161779c6729d2acd765f7a33a833b2a21a063ef65a5","name":"5369636b43697479333833","displayName":"SickCity383","fingerprint":"asset1cyx3vysdcnynhm4u08qhawkst7fzyka9hlf09f","quantity":269360},{"address":"addr1wxv4vucdvkxrppx0nf26tej0f3dv75gkys884scgyc434zs67wma9","policy":"123da5e4ef337161779c6729d2acd765f7a33a833b2a21a063ef65a5","name":"5369636b43697479333638","displayName":"SickCity368","fingerprint":"asset1s4uy5ta43f7pfapffelar8g2dph9fc4qgpc6gq","quantity":121745},{"address":"addr1q8f8a7a2cd9pn0sjmvk7wu83s2cdap27xz4ryardzze78ux8f7kkwgcm8ln8v30t6d0g9gh4ve7mq9yyp3lzrlv8yr5qzh7xc9","policy":"123da5e4ef337161779c6729d2acd765f7a33a833b2a21a063ef65a5","name":"5369636b43697479343530","displayName":"SickCity450","fingerprint":"asset1r8gkskdv09z8h9643n9kex0g037hmyzvth56tw","quantity":38745},{"address":"addr1q8f8a7a2cd9pn0sjmvk7wu83s2cdap27xz4ryardzze78ux8f7kkwgcm8ln8v30t6d0g9gh4ve7mq9yyp3lzrlv8yr5qzh7xc9","policy":"123da5e4ef337161779c6729d2acd765f7a33a833b2a21a063ef65a5","name":"5369636b43697479343434","displayName":"SickCity444","fingerprint":"asset1paj8pelyk6dae9fv0fkuul27l8uxhvnq0dtjc0","quantity":38545},{"address":"addr1q8f8a7a2cd9pn0sjmvk7wu83s2cdap27xz4ryardzze78ux8f7kkwgcm8ln8v30t6d0g9gh4ve7mq9yyp3lzrlv8yr5qzh7xc9","policy":"123da5e4ef337161779c6729d2acd765f7a33a833b2a21a063ef65a5","name":"5369636b43697479343436","displayName":"SickCity446","fingerprint":"asset1dr233nm9yhyza09uu74fzxe8t7hcep65x7mayf","quantity":38544},{"address":"addr1q8f8a7a2cd9pn0sjmvk7wu83s2cdap27xz4ryardzze78ux8f7kkwgcm8ln8v30t6d0g9gh4ve7mq9yyp3lzrlv8yr5qzh7xc9","policy":"123da5e4ef337161779c6729d2acd765f7a33a833b2a21a063ef65a5","name":"5369636b43697479343435","displayName":"SickCity445","fingerprint":"asset125pfva9txw4ue2l8ywtzrq3f3mukdpjay3tetp","quantity":38344},{"address":"addr1q8f8a7a2cd9pn0sjmvk7wu83s2cdap27xz4ryardzze78ux8f7kkwgcm8ln8v30t6d0g9gh4ve7mq9yyp3lzrlv8yr5qzh7xc9","policy":"123da5e4ef337161779c6729d2acd765f7a33a833b2a21a063ef65a5","name":"5369636b43697479343437","displayName":"SickCity447","fingerprint":"asset1ad4e68aqc06z6lszcygk8wpq4t3xl9ykls6ktq","quantity":38344},{"address":"addr1q8f8a7a2cd9pn0sjmvk7wu83s2cdap27xz4ryardzze78ux8f7kkwgcm8ln8v30t6d0g9gh4ve7mq9yyp3lzrlv8yr5qzh7xc9","policy":"123da5e4ef337161779c6729d2acd765f7a33a833b2a21a063ef65a5","name":"5369636b43697479343339","displayName":"SickCity439","fingerprint":"asset1uacscz5fmaf48xj4zyskvjd0qsyg0w4hawe37v","quantity":38342},{"address":"addr1q8f8a7a2cd9pn0sjmvk7wu83s2cdap27xz4ryardzze78ux8f7kkwgcm8ln8v30t6d0g9gh4ve7mq9yyp3lzrlv8yr5qzh7xc9","policy":"123da5e4ef337161779c6729d2acd765f7a33a833b2a21a063ef65a5","name":"5369636b43697479343431","displayName":"SickCity441","fingerprint":"asset1agct0ths0yegex4k7amcpnnpcrwu2rwnlmgjrn","quantity":38342},{"address":"addr1q8f8a7a2cd9pn0sjmvk7wu83s2cdap27xz4ryardzze78ux8f7kkwgcm8ln8v30t6d0g9gh4ve7mq9yyp3lzrlv8yr5qzh7xc9","policy":"123da5e4ef337161779c6729d2acd765f7a33a833b2a21a063ef65a5","name":"5369636b43697479343438","displayName":"SickCity448","fingerprint":"asset139ca0dv92l8vdp9clqrtrn7t2f60xp6tlxwh2w","quantity":38144}],"totalItems":136036,"totalPages":13604,"currentPage":0,"isDataOverSize":null}