{"data":[{"address":"addr1z8snz7c4974vzdpxu65ruphl3zjdvtxw8strf2c2tmqnxz2j2c79gy9l76sdg0xwhd7r0c0kna0tycz4y5s6mlenh8pq0xmsha","addressType":"PAYMENT_ADDRESS","quantity":3916060408275887}],"totalItems":144481,"totalPages":144481,"currentPage":0,"isDataOverSize":null}