{"data":[{"address":"addr1z8snz7c4974vzdpxu65ruphl3zjdvtxw8strf2c2tmqnxz2j2c79gy9l76sdg0xwhd7r0c0kna0tycz4y5s6mlenh8pq0xmsha","addressType":"PAYMENT_ADDRESS","quantity":3916060408275887},{"address":"addr1vyjcjxd32xg3tvy6wkxwssvwqft8a7z6l0h9g936hcdjaysxgfyjn","addressType":"PAYMENT_ADDRESS","quantity":1429883975549255},{"address":"addr1vxpzmhj8vsu62fs8pumd85tx0tgfndrzcygump0q38670asr4vgg6","addressType":"PAYMENT_ADDRESS","quantity":1270018555886789},{"address":"addr1w835n68qeax023uperwgwlruk3d8yjl4k98r433nhw5waqgkx8prf","addressType":"PAYMENT_ADDRESS","quantity":1233031483200000},{"address":"addr1v9ww300mnrsq6zcpk8rsgr3287hjz9wrf238gt4j5eq2aegf6yt37","addressType":"PAYMENT_ADDRESS","quantity":931120887000000},{"address":"addr1qxkmr0m22xeqludcg5rjdmecjxasu9fat0680qehtcsnftaadgykewa9ufvegeuca9yyq03d9v7ea2y2zthgu7hfgjtsddp6gr","addressType":"PAYMENT_ADDRESS","quantity":645292370073658},{"address":"stake1uxjskqrl3l0q0vz402hsgq5vu6ft0ne4949pqjewzx5j4gge6zh2x","addressType":"STAKE_ADDRESS","quantity":500000000000069},{"address":"addr1z9cy2gmar6cpn8yymll93lnd7lw96f27kn2p3eq5d4tjr7rshnr04ple6jjfc0cvcmcpcxmsh576v7j2mjk8tw890vespzvgwd","addressType":"PAYMENT_ADDRESS","quantity":390111155728682},{"address":"addr1vye3eh372ra3p2vzkrjw7zdq0fp9ksuvygfve6c672u2jnsr0drnx","addressType":"PAYMENT_ADDRESS","quantity":370359152000000},{"address":"addr1qyy6pfk8qm5aadl7vkdj0uglcqnj3j6la5r4u2a0p7g7p6a5xk3382mjjr0zq77l5wcvyz26zc702ee7eqnv3s69j8pqtf8kvg","addressType":"PAYMENT_ADDRESS","quantity":175000000000000},{"address":"addr1z9tu3ecccgqlhgg2nkshfrt8td2zs8fmrwvrchgksl78x96j2c79gy9l76sdg0xwhd7r0c0kna0tycz4y5s6mlenh8pq26n58l","addressType":"PAYMENT_ADDRESS","quantity":129136825854732},{"address":"addr1w9qzpelu9hn45pefc0xr4ac4kdxeswq7pndul2vuj59u8tqaxdznu","addressType":"PAYMENT_ADDRESS","quantity":70368074008999},{"address":"addr1z8nvjzjeydcn4atcd93aac8allvrpjn7pjr2qsweukpnayvgedqwg3tvxxvhlgnrzujmpw9qful70s6tfga5gyadds4qsksxeq","addressType":"PAYMENT_ADDRESS","quantity":42883154871568},{"address":"addr1v9gkml5d9fpccgz229s94syd5yjdh3kdd49z8zv00tww3usepevm3","addressType":"PAYMENT_ADDRESS","quantity":38766699691483},{"address":"addr1v9lw4ranfm9pgyytvp58yq000s9cgpenpqvmev3z64mte6q900c5z","addressType":"PAYMENT_ADDRESS","quantity":37042182795997},{"address":"addr1v9x4086xvwd0kj6umwsch7rh69rlaql76sh8fclu7vh6spc04gr5g","addressType":"PAYMENT_ADDRESS","quantity":34839055007212},{"address":"addr1q9pvvaw2ueckg49xnfk7pmfxnks74adpqdmq8298yql9v5wgjey59wwx8f0su6l95s94nnann38r7mz853qjzv9eqjpqy8hr2h","addressType":"PAYMENT_ADDRESS","quantity":34429436442831},{"address":"addr1v8wr7k4rpqzpqc3xh6ld4r55y8t8prvy2wc26zz7ljhzqlc7xkjay","addressType":"PAYMENT_ADDRESS","quantity":31798556631655},{"address":"stake1uyge03p8sy5y7kf83700tycxuywg4npw7t8uh5xdzhmrvrqgsgeaf","addressType":"STAKE_ADDRESS","quantity":25000000000000},{"address":"stake1ux7fgdkwjwgyer0ldfdh89fmq0n2awjzsy0jzkuyp4wxcmqn5239v","addressType":"STAKE_ADDRESS","quantity":25000000000000},{"address":"addr1v97dfn3fxw5jxr8473qeh8gufr2ddwx6pka6eegvc4ufkwqjqw4xs","addressType":"PAYMENT_ADDRESS","quantity":24050053233451},{"address":"addr1vxfa8dwzflct4re7qn2ls7t46w6rc479rafnwzqx4z2asuq6cg00t","addressType":"PAYMENT_ADDRESS","quantity":22453505195049},{"address":"addr1q80gk2qrymte8edqgg8t9zz8384vmsqxm5ufhmrxv4295u9dvqr3qneqx0sdfa6rfydg3rch78fsddy0ud4hsykf3mksyk6p34","addressType":"PAYMENT_ADDRESS","quantity":22000000000000},{"address":"addr1v82udhk5jvp8q52p0qyl492ncsf0fy4wkcs2nevyx80qllgu3lldq","addressType":"PAYMENT_ADDRESS","quantity":19453674700551},{"address":"addr1z9cy2gmar6cpn8yymll93lnd7lw96f27kn2p3eq5d4tjr7xnh3gfhnqcwez2pzmr4tryugrr0uahuk49xqw7dc645chscql0d7","addressType":"PAYMENT_ADDRESS","quantity":18428765756434},{"address":"addr1qy3f6rk2emu5gy8gtshundpqm606w6pvm97k0zkg2ygewx4lryfh6qat7xu5wv8d63acsr0dfltjzkja4nq2x0akvllswg677j","addressType":"PAYMENT_ADDRESS","quantity":17500000000000},{"address":"addr1z84549cnjrpalhjsprnjynx3m0hkrgt6j23wfu2wl27fcww60wckas4haxwwclas0g39cc8cvt2r8yalrfa9e8vxx92qrznltm","addressType":"PAYMENT_ADDRESS","quantity":14426975483307},{"address":"stake1u8ffzkegp8h48mare3g3ntf3xmjce3jqptsdtj38ee3yh3c9t4uum","addressType":"STAKE_ADDRESS","quantity":11231683326772},{"address":"DdzFFzCqrhss8WvYevo2dVVzfYzGYnonByNxPNsyvmMEg5UhEER2SbF9DFZnePzPVQSJgFBD7jDUSuuaHuy3qWRen3wjae2yEgxaeMse","addressType":"PAYMENT_ADDRESS","quantity":9174706007331},{"address":"DdzFFzCqrhsoqSXNzvJof7FTRVN4CVXrtFufpLKGBdjhWdVVU1fpvpJa6jPJu3Cox5UhzB1U81gqCVDebhC9JXUE7R4gtgmKkBVeAvzf","addressType":"PAYMENT_ADDRESS","quantity":8960626133676},{"address":"DdzFFzCqrht8eeTdAFw7sPHfaSMPZkYodLnosxSciBncH2J3ii3tN5zQ4fHvwH2Pjq1S53tJz5pbfJGHxQWuiZgntoAeKzgQKLrHFCNZ","addressType":"PAYMENT_ADDRESS","quantity":8607238969364},{"address":"stake1uyq4g3vqed986la2h7ywavup76xjr0kpfew30u99quw6w4qjxjucm","addressType":"STAKE_ADDRESS","quantity":8497187046668},{"address":"DdzFFzCqrhseBUCx6EoMYs8SFVc8zSzzqzVQnddA8DqMvCMoMezuSgVeKQRcx1p65BEvpPi9BjF8QCmC9g4ijzwBvHPEnVnjjEdFDvBW","addressType":"PAYMENT_ADDRESS","quantity":8451018055780},{"address":"DdzFFzCqrhsqD55tYyoLrHbAYZSBfD1od5MFCqBQNtFyCc45a23fPGZrZo6Rs4hhZhtjRCdzFU1JBbj34XZRbRRNv5WKpq3PJM1mN8RE","addressType":"PAYMENT_ADDRESS","quantity":8434838232297},{"address":"DdzFFzCqrhsuUfXJrmee4tF22QVUAUk4ngUxn247AnZ3QHbMuks1kni6UrssxYBXY8f9BYzi7GiJDeLcTvFD1X6vJv5qdn8jdNxW9vP7","addressType":"PAYMENT_ADDRESS","quantity":8303957442836},{"address":"DdzFFzCqrhtAE4AXYPH5JZutan57wgt4tX83ja1unDqoSGPPsNnxp8gZVcVzmFxHHc1oCvAj52ADg6YEirJqArgBRkfLwjcLfE6AvvWE","addressType":"PAYMENT_ADDRESS","quantity":8231045817400},{"address":"DdzFFzCqrhsx81Q8ggHj7y88KB4BZcEQRh9wfNqSxPorgCUmAYbpmUa1k5K6xiPfVdykSsjeJTAht6gSFFSb1pN3Eguc4bDhZGx7KvCP","addressType":"PAYMENT_ADDRESS","quantity":8112809439912},{"address":"DdzFFzCqrhsxKg2v9LiKSTdN2uQ56kie8eNd61nritQtGREKi7tX99VhP7qYNcbsT7E214Ci3NGJx6XCGratgcexBoiG7ChzM9CV46rm","addressType":"PAYMENT_ADDRESS","quantity":7985809448010},{"address":"DdzFFzCqrhtDBuHWJuDLgkLpbZ8eVB5Ktn6B5kj8z7V5oBmLEgfkZqz3LsK7i7wmyqa5QoVtZ9yQ8MTqNGhHVUE5bhBAeCA54UzXQUCG","addressType":"PAYMENT_ADDRESS","quantity":7985809448010},{"address":"DdzFFzCqrhshUzxaczBUVe9DCHUrH8SftDB2U7nFwWbQk3QzANWk8pVJ7yTR5KiFmRBExgjaqpvDcHhtkJHVsucJA46iJprEAs61z1Kq","addressType":"PAYMENT_ADDRESS","quantity":7963200190108},{"address":"DdzFFzCqrht38HbBTQMhD8jShVC5dpVFaUcd8vktyYbutTfBYwVTmQ6akmuTXBXLxvuec2bRP1mjjd96paS6GVm7tvxBsuJBpm4YL9cv","addressType":"PAYMENT_ADDRESS","quantity":7953587545590},{"address":"DdzFFzCqrhsm1pjyATgSGvqemZtVGbaNJfF5vcRVLrANn8KENzUCYtcg66zHM9EQY7fHs2cAqbor3Qs958m3xg2Fip4GPP1BsrPd1r9y","addressType":"PAYMENT_ADDRESS","quantity":7953546839768},{"address":"DdzFFzCqrhswk1LJTaSVQtdrhM7BUSDT6AMTx1temXQYxRjXxvsGscLHGs8CWbKsCyyjeXQs12JLaSEASM2kxkQje5T4meuLHxvDo6AZ","addressType":"PAYMENT_ADDRESS","quantity":7911611119134},{"address":"DdzFFzCqrht9MqMdB6unYw97KfZTu2bnVc6RxcnuJEnoPnogLzc1HtKUDZE7Lbbyfm6KeBH3KMbM6bqSjB6a1zBdk9NpFqV5ysnjZnGe","addressType":"PAYMENT_ADDRESS","quantity":7835299023797},{"address":"DdzFFzCqrhsqAfz7wo2AQmaaTQUq7qPgKUgXAPgRy8UbEByQALsAFwEAwwk6D7CLFdEmMevSdxbM4cYbsqttgDgRyW6F7pZF17AyrtfY","addressType":"PAYMENT_ADDRESS","quantity":7751723450392},{"address":"DdzFFzCqrht5uoR1KbhfNucMrsg7372Dz6KPVCCKvv5kJLnVe5SW4XtgupkFKyARmkk5gWtewyWRGWBv92dT47Q1jei5H83Sy9i1YxAP","addressType":"PAYMENT_ADDRESS","quantity":7542585282339},{"address":"DdzFFzCqrhssc8n8KyoJinnjUb3jYpLm6xnSv9N4qkGZFhroyB8VckQo7DNDHHHDryVh9aLbFuVeCvus4mV2No6uN7hcZdU71PWs7AVH","addressType":"PAYMENT_ADDRESS","quantity":7340581791153},{"address":"DdzFFzCqrht7oDDU1kDG9et1XdETxF8c6qf9qFKnusV1TRYuWqCFWQDrYXPRBn6BWV75t1AwtCcGSh8Rae6kyrnDZnpxFc2ZyrccmVQT","addressType":"PAYMENT_ADDRESS","quantity":7314622054120},{"address":"DdzFFzCqrhswMrobPVGQz4AanLRgqmYsxU9JHKkT1ePQxGpghUdzpvEbK6JswRxSeLyv6yfy4RDNayjFNbatNFMsrdTNFmDC3i24jFv1","addressType":"PAYMENT_ADDRESS","quantity":7307278418616},{"address":"DdzFFzCqrht5W2qVf2y8Tc21heggyQQBWBW8yb1rQ9UC3opMnwN1n9GejAL7QoVtmu39fTAUqnES9WXcH3oP1NiwWvKoQ3X5FYgoNYPC","addressType":"PAYMENT_ADDRESS","quantity":7285039601404},{"address":"DdzFFzCqrhsjjGtHESCVcnnmCWhnHmfbLGEdmwAGsHNc2xxe6wHLWxQKj7hCDKmhYbXNYwEiBi1zT4jaHCvTpggCk7LRMeJohK5ZaKpu","addressType":"PAYMENT_ADDRESS","quantity":7255630381498},{"address":"DdzFFzCqrht9LXqa8hEoC7wTDiFZaQb7jZNXiXg5Qc5EFJQaGMmWerKaCG95onzB6Ly6K2cLoBkcMupHYXnqyxuJLv3hGWgPBmSEguAn","addressType":"PAYMENT_ADDRESS","quantity":7254394525466},{"address":"DdzFFzCqrhsiLEeehFemsDfTCAmbMEEVMV25Q9QANvPLhizvqhdqw8KgK21Qyd2EwPH4uuiGsefmfr7zaYWQYn9FQM3r4b351csgZvAT","addressType":"PAYMENT_ADDRESS","quantity":7254394525466},{"address":"DdzFFzCqrht1Ww4wbVBXkqwmNPxW1bGdNML5WNQbYYN8nj9q8F7WQu4otxfKpUiQ7dqS6VoZv6UQ9Gu5poKC1PLdUxANAQCsrCWqMmqM","addressType":"PAYMENT_ADDRESS","quantity":7238970617603},{"address":"DdzFFzCqrht9C8mMKGUnAJf3v6rai87SeTDN7yJebm2wbxvwBLLEGUYdE8NHjxAkignX19Jy4MHbL9C3AEqkjKb4tPjuNfhvAhMu7gJK","addressType":"PAYMENT_ADDRESS","quantity":7231349663663},{"address":"DdzFFzCqrhsgg8KQkS5TgzvY4ECSRGSEgRU8WQkugvbAnf3X5KGqzsTxmUcKvxAsvkxk2qQyii2VNWCT6ZRNUzAA1DMPph7jpGDygdAw","addressType":"PAYMENT_ADDRESS","quantity":7231349663663},{"address":"DdzFFzCqrhsjMPmkZeJjHS1rSRyv3VEi76Gk2DNXYz1aZUjP7qvk786QXnMz3tZi4p9KFebkzjNLiyEGr8TzDoTZxL9MgzdSghKJZcgt","addressType":"PAYMENT_ADDRESS","quantity":7231349663663},{"address":"DdzFFzCqrht39aiPq7J7tcQ6TyKrzMqTftfQL67WYCkfDdzjEWNNtptVS9KZkxG1i2H4eUkfu8rS7FtJMPvXZyixx89fL6VibUZ1xbNs","addressType":"PAYMENT_ADDRESS","quantity":7231349663663},{"address":"DdzFFzCqrhspPo68XMT5tNUEoYLc6ytqDH8AvxqfwhHX6wayL39hVYfcDmLe7T3pRqVaMU3ZQgb4cXMcgeZZFSbtLSUjWm8s63n7hF9V","addressType":"PAYMENT_ADDRESS","quantity":7231349663663},{"address":"DdzFFzCqrhsyvzNPrqaws4LXWbPDYbGbCViW4jnNSX5TkW7sAM9FEuYEDPmMM1eDZYiRWXox7mAs7PyEqiJY8RC4uh8TgiNf5oHtm8g7","addressType":"PAYMENT_ADDRESS","quantity":7218637585105},{"address":"DdzFFzCqrht1sCdG6sEbA5QniFXCUaz4xmrbRkhG95cFEB7bitqtkoMSMCcNDPMuvwpCaLdamCWtqj5oEe8jKXcTgoGgANxyLd8Eu48f","addressType":"PAYMENT_ADDRESS","quantity":7127598732028},{"address":"DdzFFzCqrhtCMBATBcN9UMeQDv176RXWahpFN5U49K8LgUZdN5hZE5ZUrdxWbsTQFPtC1yQnkskXnBF2j1SF46iSsmxXc79FDs5eUdMQ","addressType":"PAYMENT_ADDRESS","quantity":7062700066990},{"address":"DdzFFzCqrhtBDvgJcBsDgDxZdN1d2Sq2N3y5FqQ8QzpgvUz3RjLcZnu74b4tVERCbsaAgUVETAQZtSzJ9xPsSXeb2rPWiCG8tZyZcnYT","addressType":"PAYMENT_ADDRESS","quantity":7062700066990},{"address":"DdzFFzCqrht58KxHY4zx1hXHEpmbtxbeMJiiToLk5mTxHS2NKJhJ3UxvrdHTYb7dG5yKBTBVPRVDzVe9QaUKJXCZdUQhvUqUcbjeAG8p","addressType":"PAYMENT_ADDRESS","quantity":7059423907173},{"address":"DdzFFzCqrht5vF8szfNJquWL6CcQxGXWx4yQ2JQEKd1E5s5YFhGAGS41EWSwUFQvgQUCk56wndcWUYetvmjm3igc7nUHnVxRP252uYWj","addressType":"PAYMENT_ADDRESS","quantity":7059423907173},{"address":"DdzFFzCqrhsjxw7bjfQ14XY9j9zQy8bSSHSexsLaMDghuZaXW5fENoofRArQt8UkcQZjn5EoQqXxvEg1kNwrFS5ad8V8cJaDQr2WKy6q","addressType":"PAYMENT_ADDRESS","quantity":7054763636949},{"address":"DdzFFzCqrhsuLHMVUTsSYFakNeGFBF3rzxWnR66M1v4jc1tMoCpHLbaC1zRr27RrTdmyLzHrLSQNnei22a5Dk55S1XwXC1mWuqrbztZ1","addressType":"PAYMENT_ADDRESS","quantity":7054763636949},{"address":"DdzFFzCqrht6dZk5JYj3L5hW12VMSz1QokiX8Nx89z8tze4DSiEVUboYuTYXXNf7x6MxFVrVVf4BYhmnzjXCQrYva3SCn1BdBUmjZha9","addressType":"PAYMENT_ADDRESS","quantity":7054763636949},{"address":"DdzFFzCqrht4YWGHFUrQSUifJferWdsY8to7GnwP9ZtB6km24nRtNE6EpuNMj5ThP6fQejVgvV3pZGUnQh82y1z41uPd7m5Txk1RKdba","addressType":"PAYMENT_ADDRESS","quantity":7054763636949},{"address":"DdzFFzCqrhsgxhhwG9RSyWWfG7Zy6rDGCgHYtiPg2hgUTu3iyQh38epkCWk3dnfeqKixjVHQo2S521YEzh8N9pCa5vqm9iMBRk9FsF7p","addressType":"PAYMENT_ADDRESS","quantity":7054763636949},{"address":"DdzFFzCqrhswpVq8PAShSX5ruY2rF5PrADZ1pAk6G9U8KSkJ23Zs41mqaVyfEdrCBAVpyHnvmboSXgLiKkZioaoWfgfBLALcuNf5pdxR","addressType":"PAYMENT_ADDRESS","quantity":7052700066990},{"address":"DdzFFzCqrhsxNdnFBZJinZ8zMoyQAKuTiy6oyFp5f6QcscvkaL5gkDBXr8CmVtorMf328JsujWmKZD5xzAi9HYr62zy1VWogfeAWncFs","addressType":"PAYMENT_ADDRESS","quantity":7052700066990},{"address":"DdzFFzCqrht2TXVYKiNbqbeKhiFUkkjPx3oxN6GLbLBWgzvz6hXH5tCPVbSMMYJ1pdiPu8snYyZaP1QrTWQ1x8SLdAztnWDbtpYWQShd","addressType":"PAYMENT_ADDRESS","quantity":7031465685278},{"address":"DdzFFzCqrhsew8rdc9e2Dv9pWSzf2cYGCfwwa747KMbK72TGtd5HiMJwHpkM2sjM7PhaM2YbzRJ5mwoFdbjkYiXyBKezktZmCHD2tYeB","addressType":"PAYMENT_ADDRESS","quantity":7005885153069},{"address":"DdzFFzCqrht13KZHaPnubATnkcBgZYyRZEX5ss5sCfAxUzEpCjQwztBGwXokWtPZyvfWe3LBGBhBeeCLpayQYfPAJuSLUrJiBwCZ85Fa","addressType":"PAYMENT_ADDRESS","quantity":6973827531090},{"address":"DdzFFzCqrhsh4qmhaYkGRX4ehQiPCwGGrKsqYL7gAZSmxdKnBCPGQy8nBztLtzCSTXQ9U6QzGsrsRMD2FH7DXqTbCpFr3FXP2J1nBpbQ","addressType":"PAYMENT_ADDRESS","quantity":6970646139918},{"address":"DdzFFzCqrhswTmrYUNNTdCRcUrsfyPBJc1fmDSF4kXhymePT2CJLGUDU51wmbYtmS4Pe5QiZVFd2S2Ccq2eJaDfLLEbcRRgifb6q8VK7","addressType":"PAYMENT_ADDRESS","quantity":6872391043231},{"address":"DdzFFzCqrhswbUgF1wNYma7m1iRnfMoZ5fDkwMsUHJFNHw1K31VSWVLnELfPU6N6fU3A2EEmkCPciMnP2mhNt8PD1Htuo4SmhnB4e9iE","addressType":"PAYMENT_ADDRESS","quantity":6867683872543},{"address":"DdzFFzCqrhsvcUdFMNWkWTFQUbo67FkUCXMGNNfQV3nmUxaHPW7F2mY3btnpLKH6xzkzMu9a1QGDQg9ReFP4jsEHDPmcMnHGk3z3DWm4","addressType":"PAYMENT_ADDRESS","quantity":6771745893938},{"address":"DdzFFzCqrhsitpLwXYvKMRqP5GGqndGJePrRaw4XTQZbeCfTiaMiPdqek8qL6PM1LJtBtNQxmt97YU1AS3aEYkUkSuNDdkz8f4SEDmjc","addressType":"PAYMENT_ADDRESS","quantity":6739074662447},{"address":"DdzFFzCqrhsm4Dr92UBTDHx1sM2kccnogKhD8yo3iddDWEQu1mtYSGnHr1wmsBcSH7SLKLun9uCGDRzrdnbUhGy2DYatxVmvPtYi2eaf","addressType":"PAYMENT_ADDRESS","quantity":6727119131137},{"address":"DdzFFzCqrhskCZs3xQeREMtkrTzGtvG28RbTdMd8oUgJPWEUBanfwnTehwwSqnsQ8BH3MZaJXbKweDeqLPLZys21ZWoudyfdPYEWtKFf","addressType":"PAYMENT_ADDRESS","quantity":6716618172968},{"address":"addr1q9m7ltsuz8fzcfmjs93f3gw4mqeprgyx59a27plrugw8p7ecpt8h8fdx9m5zek3y6wudzmzwzld6mlhgm0jt48e8ka6s375y2u","addressType":"PAYMENT_ADDRESS","quantity":6659610128876},{"address":"stake1u89tnj258vkk4p9fnd226e7lulh3xh58mvl66uzarzgkrxq7xz24l","addressType":"STAKE_ADDRESS","quantity":6408070692310},{"address":"DdzFFzCqrhsqyQwqSwxCcGX7sAEV3PuJyznFPyA8iQM9EqtmLZQsaNgKkyrWCVUZLs64zsFpYLWYRez2VCJHzgKhUJuvrTvboeKLhKPU","addressType":"PAYMENT_ADDRESS","quantity":6100342398090},{"address":"DdzFFzCqrhsif4M6y3AmM6ZuHvgbJa72sjdZA21zswk1UvRuLAVGEdf2aC6kQp3vW9J4743RZRAdEFw8w2U4eugHbuSRQzvZCZpMRRXW","addressType":"PAYMENT_ADDRESS","quantity":5640045932569},{"address":"DdzFFzCqrhsnvTaAfoWR9hbu2L8ycat73HfyuBKW5ZLMRJjyTHnkBXe17apA7h5DSEDHEoykpG3JtqRzo9UcaUEG3vgw79NqbiHjB7yc","addressType":"PAYMENT_ADDRESS","quantity":5615904352324},{"address":"addr1q8zaugmnxlq8yhnskq388276vv0gx9eu8gl4u0tf3qjylt2yd9yz6v3qqtdvkzz36vcddzkln9g44jlankq8qadgh26qpwe8er","addressType":"PAYMENT_ADDRESS","quantity":5583290624247},{"address":"DdzFFzCqrhsqZBiavDKWzxgmE71AzBLPAPNDYT8QDceAbnD1Xx2mzjFcENWSPgaWYwR7HJ3UY7M9mUxg3oczPwj83bvKvb8fxnVSTVsy","addressType":"PAYMENT_ADDRESS","quantity":5560469925022},{"address":"DdzFFzCqrht4Ag1KM4rgWoq4o6mXX8JG3TiMtrYDmAyvbfx9zhZ8PMMTAZpiT6Fhh9fBcVFFzYWDyxguB2pCJTjZdccv5MT81kKHgQhf","addressType":"PAYMENT_ADDRESS","quantity":5553542368528},{"address":"DdzFFzCqrhtCjKoLwjox9Zik7h1LC9LxWwZs3JvuGHrtVuncVHvAKfSfP1UKKXD1UrY2DCpEXmLpzGKV7tRvsUFymT9Q8B92zi4QhtqK","addressType":"PAYMENT_ADDRESS","quantity":3620407246602},{"address":"DdzFFzCqrhswDqNrEE1uDKpjqMMMjvuFLKVn2gw49nM6Sve9SpDAKHBTswxUcKJjK4Rhp2DcnoasiVoQ3i3N3Q3PWKYBsPqJbkVCVrrr","addressType":"PAYMENT_ADDRESS","quantity":2982034538564},{"address":"DdzFFzCqrht3s9iakKe3rBqKWwJxzGBhznkTaJx6pcRtMb111uuvnP68QCLhSTsqt89J7qM1p5UHaBFyxPsoFLtava5txvdDPQvm5nfF","addressType":"PAYMENT_ADDRESS","quantity":2912392352504},{"address":"DdzFFzCqrhsyk9i5syGDhj7kuvpYVi4EydP577Yv7Xg8XT5MNvEjKYfU4Zr2CfzYb6NYPVe137U5Q9h1SKDqXkHAkXvVWddShF1ajirX","addressType":"PAYMENT_ADDRESS","quantity":2836221006721},{"address":"DdzFFzCqrht6QNhHjYhFXBmXZNHGVXcLZ4wyKAS79P3V9SQY1funwnony5ySkaj9TBKbxW47jT7L8f3de452Ep1wMq9oEcoze79p5Lsw","addressType":"PAYMENT_ADDRESS","quantity":2774711645633},{"address":"stake1u9k5d2nkwfgj8j2k5j9jpzkak487ud9cljx85ljklr9gf7qfsaaq3","addressType":"STAKE_ADDRESS","quantity":2646403279915},{"address":"addr1wxn9efv2f6w82hagxqtn62ju4m293tqvw0uhmdl64ch8uwc0h43gt","addressType":"PAYMENT_ADDRESS","quantity":2419353245598},{"address":"addr1v8kqhz5lkdxqm8qtkn4lgd9f4890v0j6advjfmk5k9amu4c535lsu","addressType":"PAYMENT_ADDRESS","quantity":2416948058063},{"address":"addr1q93g3px85tdc49upsuugk67v5a0jpeq4hdg4zhlxzq34xr9gcdgdccqydlvr2plw7fdluu87f29vccspf35ttrlrjxls935yvj","addressType":"PAYMENT_ADDRESS","quantity":2383070425026},{"address":"addr1q89f720ycuhjgt5mqez05epz7hhzpq9fktm2xcjlg69tyu367jwkme55dlqlda3u9sdv07tdnjm9wu5zpwdrtusgnu6q6jxwt8","addressType":"PAYMENT_ADDRESS","quantity":2345836196047}],"totalItems":144481,"totalPages":1445,"currentPage":0,"isDataOverSize":null}