{"data":[{"epoch":477,"block":6,"stakeAmount":5705218388590,"delegators":null,"fee":null,"ros":0.000000},{"epoch":476,"block":13,"stakeAmount":5697423373291,"delegators":5073975638,"fee":601435128,"ros":6.714083},{"epoch":475,"block":5,"stakeAmount":5688585662443,"delegators":1757396926,"fee":430549368,"ros":2.280483},{"epoch":474,"block":6,"stakeAmount":5727331002954,"delegators":2177742663,"fee":452207561,"ros":2.814069},{"epoch":473,"block":6,"stakeAmount":5797629328636,"delegators":2187082309,"fee":452688784,"ros":2.791567},{"epoch":472,"block":8,"stakeAmount":5799628858063,"delegators":3037096050,"fee":496485496,"ros":3.895766},{"epoch":471,"block":5,"stakeAmount":5792909500763,"delegators":1791507708,"fee":432306917,"ros":2.282908},{"epoch":470,"block":2,"stakeAmount":5785324802847,"delegators":524307825,"fee":367014809,"ros":0.663742},{"epoch":469,"block":3,"stakeAmount":5776300227727,"delegators":949029851,"fee":388898489,"ros":1.206491},{"epoch":468,"block":4,"stakeAmount":5770351193313,"delegators":1379559720,"fee":411081416,"ros":1.760370},{"epoch":467,"block":7,"stakeAmount":5755300367813,"delegators":2662804154,"fee":477200214,"ros":3.434367},{"epoch":466,"block":3,"stakeAmount":4593065116715,"delegators":955364418,"fee":389224875,"ros":1.529837},{"epoch":465,"block":5,"stakeAmount":4627872857575,"delegators":1813159278,"fee":433422507,"ros":2.900791},{"epoch":464,"block":4,"stakeAmount":4242337333141,"delegators":1388388032,"fee":411536292,"ros":2.417435},{"epoch":463,"block":4,"stakeAmount":4234691111481,"delegators":1390378623,"fee":411638856,"ros":2.425365},{"epoch":462,"block":8,"stakeAmount":4227105471268,"delegators":3114890494,"fee":500493832,"ros":5.524482},{"epoch":461,"block":5,"stakeAmount":4245412886202,"delegators":1828168213,"fee":434195838,"ros":3.192773},{"epoch":460,"block":3,"stakeAmount":4305349879667,"delegators":971112946,"fee":390036314,"ros":1.660027},{"epoch":459,"block":3,"stakeAmount":4298278434348,"delegators":971635468,"fee":390063236,"ros":1.663682},{"epoch":458,"block":3,"stakeAmount":4283893368984,"delegators":975967601,"fee":390286448,"ros":1.676819},{"epoch":457,"block":3,"stakeAmount":4275447777835,"delegators":980175715,"fee":390503270,"ros":1.687463},{"epoch":456,"block":2,"stakeAmount":4269727000832,"delegators":546595026,"fee":368163151,"ros":0.938840},{"epoch":455,"block":2,"stakeAmount":4260744112367,"delegators":555611758,"fee":368627735,"ros":0.956421},{"epoch":454,"block":1,"stakeAmount":4252952210482,"delegators":117913712,"fee":346075470,"ros":0.202596},{"epoch":453,"block":7,"stakeAmount":4259763887126,"delegators":2773993549,"fee":482929215,"ros":4.867004},{"epoch":452,"block":6,"stakeAmount":4253309288405,"delegators":2332407849,"fee":460176640,"ros":4.083200},{"epoch":451,"block":1,"stakeAmount":4247824743964,"delegators":119381044,"fee":346151074,"ros":0.205367},{"epoch":450,"block":5,"stakeAmount":4239377413880,"delegators":1890286989,"fee":437396491,"ros":3.307786},{"epoch":449,"block":1,"stakeAmount":4229717209679,"delegators":120077646,"fee":346186966,"ros":0.207452},{"epoch":448,"block":7,"stakeAmount":4223534644580,"delegators":2795861943,"fee":484055978,"ros":4.949382},{"epoch":447,"block":2,"stakeAmount":4217274362190,"delegators":571492202,"fee":369445970,"ros":0.994081},{"epoch":446,"block":3,"stakeAmount":4211507864220,"delegators":1023001324,"fee":392709847,"ros":1.788811},{"epoch":445,"block":4,"stakeAmount":4152645415735,"delegators":1475802582,"fee":416040301,"ros":2.627809},{"epoch":444,"block":1,"stakeAmount":4146643545739,"delegators":126769062,"fee":346531739,"ros":0.223418},{"epoch":443,"block":4,"stakeAmount":3909166381812,"delegators":1478668289,"fee":416187956,"ros":2.799214},{"epoch":442,"block":3,"stakeAmount":3903815098525,"delegators":1028913654,"fee":393014478,"ros":1.942404},{"epoch":441,"block":5,"stakeAmount":3896614401977,"delegators":1935933899,"fee":439748434,"ros":3.692457},{"epoch":440,"block":2,"stakeAmount":3891480207218,"delegators":564992654,"fee":369111083,"ros":1.065424},{"epoch":439,"block":4,"stakeAmount":3883131059671,"delegators":1480455107,"fee":416280021,"ros":2.821692},{"epoch":438,"block":3,"stakeAmount":3877113624389,"delegators":1028120870,"fee":392973631,"ros":1.954387},{"epoch":437,"block":6,"stakeAmount":3872849125957,"delegators":2379031430,"fee":462578907,"ros":4.584901},{"epoch":436,"block":3,"stakeAmount":4005056481969,"delegators":1029485873,"fee":393043962,"ros":1.893910},{"epoch":435,"block":1,"stakeAmount":3996305940300,"delegators":129594241,"fee":346677306,"ros":0.237005},{"epoch":434,"block":5,"stakeAmount":3967300155378,"delegators":1960696468,"fee":441024319,"ros":3.672710},{"epoch":433,"block":8,"stakeAmount":3959980198109,"delegators":3320265084,"fee":511075698,"ros":6.309192},{"epoch":432,"block":4,"stakeAmount":3953819231240,"delegators":1497746442,"fee":417170952,"ros":2.803365},{"epoch":431,"block":8,"stakeAmount":3947899472110,"delegators":3323486909,"fee":511241702,"ros":6.335418},{"epoch":430,"block":4,"stakeAmount":3940303241629,"delegators":1505414794,"fee":417566062,"ros":2.827715},{"epoch":429,"block":3,"stakeAmount":3923179594227,"delegators":1049875811,"fee":394094548,"ros":1.972481},{"epoch":428,"block":2,"stakeAmount":3915354690458,"delegators":593885827,"fee":370599796,"ros":1.113341},{"epoch":427,"block":2,"stakeAmount":4009391602414,"delegators":593249809,"fee":370567025,"ros":1.085919},{"epoch":426,"block":5,"stakeAmount":4015585550539,"delegators":1990063573,"fee":442537450,"ros":3.683078},{"epoch":425,"block":1,"stakeAmount":4012737491010,"delegators":139290437,"fee":347176900,"ros":0.253715},{"epoch":424,"block":1,"stakeAmount":3997655360043,"delegators":140896202,"fee":347259636,"ros":0.257613},{"epoch":423,"block":2,"stakeAmount":3992259181899,"delegators":610838044,"fee":371473254,"ros":1.123116},{"epoch":422,"block":2,"stakeAmount":3989915977939,"delegators":610960110,"fee":371479543,"ros":1.124005},{"epoch":421,"block":3,"stakeAmount":4221185901231,"delegators":1081566884,"fee":395727421,"ros":1.887789},{"epoch":420,"block":2,"stakeAmount":4216117577824,"delegators":614744847,"fee":371674550,"ros":1.070007},{"epoch":419,"block":null,"stakeAmount":4214462928986,"delegators":0,"fee":0,"ros":0.000000},{"epoch":418,"block":null,"stakeAmount":4179713428829,"delegators":0,"fee":0,"ros":0.000000},{"epoch":417,"block":1,"stakeAmount":4176968837615,"delegators":150747982,"fee":347767246,"ros":0.263802},{"epoch":416,"block":4,"stakeAmount":4170077069768,"delegators":1572313308,"fee":421012989,"ros":2.790136},{"epoch":415,"block":7,"stakeAmount":4320686684948,"delegators":2898051386,"fee":489321260,"ros":5.016522},{"epoch":414,"block":6,"stakeAmount":4314378941838,"delegators":2474258205,"fee":467485439,"ros":4.274103},{"epoch":413,"block":3,"stakeAmount":5435557213888,"delegators":1128060647,"fee":398122999,"ros":1.526370},{"epoch":412,"block":5,"stakeAmount":5332466264831,"delegators":2100220498,"fee":448213254,"ros":2.916293},{"epoch":411,"block":7,"stakeAmount":5326765436452,"delegators":3082197024,"fee":498809310,"ros":4.313163},{"epoch":410,"block":4,"stakeAmount":5352900805888,"delegators":1652762225,"fee":425158096,"ros":2.279186},{"epoch":409,"block":3,"stakeAmount":5321636217327,"delegators":1154004415,"fee":399459744,"ros":1.595437},{"epoch":408,"block":28,"stakeAmount":19945755974538,"delegators":13787640535,"fee":1050404192,"ros":5.173830},{"epoch":407,"block":20,"stakeAmount":19933211329865,"delegators":9773409397,"fee":843572093,"ros":3.643164},{"epoch":406,"block":17,"stakeAmount":19924973586529,"delegators":8296194180,"fee":767459006,"ros":3.085526},{"epoch":405,"block":18,"stakeAmount":19900684751343,"delegators":9014360049,"fee":804462295,"ros":3.361165},{"epoch":404,"block":17,"stakeAmount":19888749745474,"delegators":8511311919,"fee":778542885,"ros":3.172626},{"epoch":403,"block":24,"stakeAmount":19876097253473,"delegators":12286101023,"fee":973037802,"ros":4.614280},{"epoch":402,"block":16,"stakeAmount":19866149908487,"delegators":8130324703,"fee":758912629,"ros":3.032009},{"epoch":401,"block":19,"stakeAmount":19621731971924,"delegators":9740219615,"fee":841861999,"ros":3.689242},{"epoch":400,"block":11,"stakeAmount":19645074222795,"delegators":5541766090,"fee":625537895,"ros":2.080343},{"epoch":399,"block":25,"stakeAmount":19629588271649,"delegators":13147468435,"fee":1017419509,"ros":5.009164},{"epoch":398,"block":19,"stakeAmount":19622837875206,"delegators":10041446671,"fee":857382636,"ros":3.805232},{"epoch":397,"block":19,"stakeAmount":19613666081815,"delegators":10081948608,"fee":859469487,"ros":3.822685},{"epoch":396,"block":9,"stakeAmount":19630113514408,"delegators":4617418909,"fee":577911174,"ros":1.731737},{"epoch":395,"block":11,"stakeAmount":19617321167933,"delegators":5729288228,"fee":635199919,"ros":2.154555},{"epoch":394,"block":5,"stakeAmount":19666941061405,"delegators":2463611879,"fee":466936890,"ros":0.918583},{"epoch":393,"block":17,"stakeAmount":19679681733971,"delegators":9161040891,"fee":812019983,"ros":3.455786},{"epoch":392,"block":15,"stakeAmount":19689593892249,"delegators":8091780351,"fee":756926643,"ros":3.044882},{"epoch":391,"block":3,"stakeAmount":5139840290211,"delegators":1359910453,"fee":410068993,"ros":1.949963},{"epoch":390,"block":8,"stakeAmount":5182070188527,"delegators":4171010386,"fee":554910104,"ros":6.049262},{"epoch":389,"block":3,"stakeAmount":5177071831217,"delegators":1369045851,"fee":410539692,"ros":1.948935},{"epoch":388,"block":7,"stakeAmount":5171317615833,"delegators":3626685749,"fee":526863934,"ros":5.250973},{"epoch":387,"block":4,"stakeAmount":5181013710746,"delegators":1939332002,"fee":439923521,"ros":2.769650},{"epoch":386,"block":5,"stakeAmount":5177189012106,"delegators":2478813547,"fee":467720151,"ros":3.556139},{"epoch":385,"block":3,"stakeAmount":5327138850257,"delegators":1379782647,"fee":411092902,"ros":1.908512},{"epoch":384,"block":6,"stakeAmount":5362208544491,"delegators":3086364889,"fee":499024058,"ros":4.289974},{"epoch":383,"block":1,"stakeAmount":5383574579531,"delegators":243084576,"fee":352524862,"ros":0.330153},{"epoch":382,"block":4,"stakeAmount":5378497627327,"delegators":1935289517,"fee":439715233,"ros":2.661000},{"epoch":381,"block":1,"stakeAmount":5374071212563,"delegators":243073734,"fee":352524304,"ros":0.330723},{"epoch":380,"block":null,"stakeAmount":5369203791638,"delegators":0,"fee":0,"ros":0.000000},{"epoch":379,"block":null,"stakeAmount":5364676089995,"delegators":0,"fee":0,"ros":0.000000},{"epoch":378,"block":6,"stakeAmount":5360187106347,"delegators":3100955711,"fee":499775846,"ros":4.312340}],"totalItems":268,"totalPages":3,"currentPage":0,"isDataOverSize":null}