{"data":[{"txId":89068111,"txHash":"ce41758fa0eb7be9fdb42518fbe53ec11138dd4786f560fe0a7688f5c4d01aba","txTime":"2024/04/11 07:01:28","epoch":478,"block":10171685,"epochSlotNo":119797,"slotNo":121252597,"poolName":"Skyskipper","pledge":1144000000,"cost":170000000,"margin":0.0,"poolId":5733,"poolView":"pool18s9snlm9kwex29wtgjjpkmwcn8j3fk3r22dpsehtjyqs754l70q","stakeKey":["stake1u8xelsnt4ujzjmsygzk6fp5z98hqd7twsa8gqpt3yt5559sl7aehg"]}],"totalItems":33688,"totalPages":33688,"currentPage":0,"isDataOverSize":null}