{"data":[{"txHash":"65c31f4a03df20ab82c16ce85e0c054776c2163341f0492f62701db1e78d1e14","value":647047,"fee":171573,"time":"2024/03/18 07:12:38"}],"totalItems":100,"totalPages":100,"currentPage":0,"isDataOverSize":null}