{"data":[{"txHash":"63252e62d9697b1bce3c8b341f98f0a794ff355b0698c7ab826d74d460579f4f","time":"2023/08/14 14:34:51","blockNo":9159118,"epochNo":430,"epochSlotNo":60600,"stakeKeys":["stake1uxsw878ngzpvrdqnyrkzlk4eaf6qzwmdn83jeqzz6g477nsh8st5f"],"pools":[{"tickerName":"DDOS","poolName":"DDoS Pool","poolId":"pool15k0zeppza4qzgf6z7wmwsgvl5rz9f6489zxhrxqa8dj6jzju6ct"}]},{"txHash":"ecb95aed03487f451d9a59a9c3f374eeac3af0f80c4fe02ee68bbc5baf99d8be","time":"2023/08/14 14:29:24","blockNo":9159102,"epochNo":430,"epochSlotNo":60273,"stakeKeys":["stake1u9xuh7gauppfkqqeh8ydpkz28r94f4veccxw6xf8jucsr7qshwft2"],"pools":[{"tickerName":"ONE1","poolName":"ONE Pool","poolId":"pool1n2yp66zk6m33sg8k20hsvmk9tw7xeeswzdcfxhnx9hm9jkxv5k4"}]},{"txHash":"b322f384811c40795b8d3858e3cb53efaaca3a75c0af5dbf7dc64da4d7d67413","time":"2023/08/14 14:25:11","blockNo":9159091,"epochNo":430,"epochSlotNo":60020,"stakeKeys":["stake1uyjghxx5vh4fzxe8gx8x45pma8u9z7uqk9d3dshp2nzhsmck0p7r4"],"pools":[{"tickerName":"RCADA","poolName":"Stake ADA Pool","poolId":"pool1p82vmqednsalje23mpnz9u3qt9ruj79xu83mr6p8t93fw5fcu3y"}]},{"txHash":"53622e7c9f6c414ecd6d47ecc91e96017b026b1ad560b938dc7704d25f5b3f35","time":"2023/08/14 14:23:24","blockNo":9159085,"epochNo":430,"epochSlotNo":59913,"stakeKeys":["stake1uxavpphl5gxj2ca09vc5fh44nuw3k7xskuxnhktw2k2tgpcpalhtl"],"pools":[{"tickerName":"DDOS","poolName":"DDoS Pool","poolId":"pool15k0zeppza4qzgf6z7wmwsgvl5rz9f6489zxhrxqa8dj6jzju6ct"}]},{"txHash":"60a6fa94229c54f88938fe7c8f60a1782161534d04c5abe1c4d366f9101d18b0","time":"2023/08/14 14:23:15","blockNo":9159084,"epochNo":430,"epochSlotNo":59904,"stakeKeys":["stake1u87sa9afs95q0ga8eh2efldand5eepdw6809s4wfhn9jyjcesng2l"],"pools":[{"tickerName":"21ADA","poolName":"21ADA","poolId":"pool170hmssk80z2ameg7jhj5m8psnkjejcc77vfpd0875yggxhhntd0"}]},{"txHash":"14705a48b481f28bc6a361f2673a0ed9549ffba6108791b368c60928c3010d86","time":"2023/08/14 14:22:37","blockNo":9159082,"epochNo":430,"epochSlotNo":59866,"stakeKeys":["stake1uyk57dma77vw5dcgyaplpglwdfcars6xne6zluxetpw32tqx57grh"],"pools":[{"tickerName":"FORTE","poolName":"The independent","poolId":"pool1gqgyta9sku3crjzfl9kj7kxsgfkt98y98yeu09kx22zscrezuj7"}]},{"txHash":"3bf05460cfb199a0eae710fcbd801191fdf075c78815bcadf8d27c4e93ac52e2","time":"2023/08/14 14:21:46","blockNo":9159080,"epochNo":430,"epochSlotNo":59815,"stakeKeys":["stake1u8n9cxykxqz0a3xql4a53knd4qcfcjhgz28te6sv97nc8rs05rhqv"],"pools":[{"tickerName":"SWM18","poolName":"SwimmingPool18","poolId":"pool13mas2wthxs28zftxskcsd8t87jk2w9ntc0u5uflt45sh7lcvs8h"}]},{"txHash":"737956f64bfa665dbc7de603c4c4b0b6feb8f87b78de3f7d10d678e540f4bd19","time":"2023/08/14 14:19:14","blockNo":9159076,"epochNo":430,"epochSlotNo":59663,"stakeKeys":["stake1u93t2dn5wfu7wqqperx5wjnyj4pg960y5f45rzsu74yzz8gykjwxe"],"pools":[{"tickerName":"PSB","poolName":"PSILOBLOX","poolId":"pool17taqml487n9t4r9a6ppvf9qv0qlw2lu4zcrzwfdsfcv6xp7uqym"}]},{"txHash":"44f2869ce97095b21fc1654dddeb3d29e691ebb07bdfe03f51762f4520ccdae1","time":"2023/08/14 14:19:14","blockNo":9159076,"epochNo":430,"epochSlotNo":59663,"stakeKeys":["stake1u97v559w7sdjncktshwaecg4wvcfzejjgpn6nekz632hcwqkdvw6u"],"pools":[{"tickerName":"HRMS","poolName":"Hermes Stakepool Germany #1","poolId":"pool16fyda57p3c8gp5r6gmcq5tvqsp6mnzwvkxswgznkuh8wztrp6vv"}]},{"txHash":"34a087de167c648b1ac07102680a40dee6e8c7941642a56171e1eb864936de96","time":"2023/08/14 14:13:47","blockNo":9159068,"epochNo":430,"epochSlotNo":59336,"stakeKeys":["stake1uy4jfdvcqjs7xkzefnlac9klfz9pvdu044zjz86ud7kmyfsqhvy8e"],"pools":[{"tickerName":"PSB","poolName":"PSILOBLOX","poolId":"pool17taqml487n9t4r9a6ppvf9qv0qlw2lu4zcrzwfdsfcv6xp7uqym"}]},{"txHash":"fb31cec0840b30592e4abe0c7e3ed5bb35da5b283af1fb329d5b8b6c7fce1ec0","time":"2023/08/14 14:13:47","blockNo":9159068,"epochNo":430,"epochSlotNo":59336,"stakeKeys":["stake1uxpd7gge4u0673cnpqmp5ng4vcapzq9wgmdcy04a67k73lq2ut36f"],"pools":[{"tickerName":"BLADE","poolName":"BLADE Pool - bladepool.com","poolId":"pool16ajaae2n5lsyr4f9k9uz5y8tpf0996tw640dzu7chwp2wdrnz6a"}]},{"txHash":"ecb6a89053b3c21452081c4875209bfa8d2315666f4e33c07680682bae1cf83e","time":"2023/08/14 14:10:45","blockNo":9159065,"epochNo":430,"epochSlotNo":59154,"stakeKeys":["stake1uyhf405uz4s58g8cgnkahcp8tnvra4s058vk0lux5ykwusc8k7c6v"],"pools":[{"tickerName":"PSB","poolName":"PSILOBLOX","poolId":"pool17taqml487n9t4r9a6ppvf9qv0qlw2lu4zcrzwfdsfcv6xp7uqym"}]},{"txHash":"dacc89b3fcb17501bf337f5f0591574cc64dc1e80ff7a87f3f0c8d062b63b242","time":"2023/08/14 14:09:36","blockNo":9159058,"epochNo":430,"epochSlotNo":59085,"stakeKeys":["stake1uyrsdnvu2rgc82ma924f5376ptcqgq90p3jyuur2tn0djjgc79n3v"],"pools":[{"tickerName":"RATS","poolName":"RATS Pool","poolId":"pool1tcmk6at0dmkytxgq5j4u7fgsx9kytvfu7gz22lrs8hp9ztu7arw"}]},{"txHash":"027c9daaa38fe4031fbdbc5d15452f1de5956d6f680d0de2d5f18601b8d2dd47","time":"2023/08/14 14:08:58","blockNo":9159056,"epochNo":430,"epochSlotNo":59047,"stakeKeys":["stake1u8juc2y24h2xmx2s788kh3l5em2nj4zmam8x36hxdhkqz5s5v86k2"],"pools":[{"tickerName":"PSB","poolName":"PSILOBLOX","poolId":"pool17taqml487n9t4r9a6ppvf9qv0qlw2lu4zcrzwfdsfcv6xp7uqym"}]},{"txHash":"65acd6688108e1438f083dd68e52f1c27afe13f2a91c676997c19a67719e9f63","time":"2023/08/14 14:08:04","blockNo":9159055,"epochNo":430,"epochSlotNo":58993,"stakeKeys":["stake1u8z2lslevtu4c64z3dfp7d8a3f3ksqekm9xzm0hana62fps2wxjsl"],"pools":[{"tickerName":"PSB","poolName":"PSILOBLOX","poolId":"pool17taqml487n9t4r9a6ppvf9qv0qlw2lu4zcrzwfdsfcv6xp7uqym"}]},{"txHash":"b2aa59be8c3ddc8b354a9eb3ebae60f4dbd591ec8d7a8715c4bd9b276af4e4a2","time":"2023/08/14 14:07:52","blockNo":9159054,"epochNo":430,"epochSlotNo":58981,"stakeKeys":["stake1u8dhvckfdqn5hyuwm3gg0asalk4cezazh3jxs3tufmpl65syq6nee"],"pools":[{"tickerName":"PSB","poolName":"PSILOBLOX","poolId":"pool17taqml487n9t4r9a6ppvf9qv0qlw2lu4zcrzwfdsfcv6xp7uqym"}]},{"txHash":"01cab96ca3e18d761bb00c3c440974b921717aa0c430aa3a2356088358b0ee5a","time":"2023/08/14 14:07:20","blockNo":9159053,"epochNo":430,"epochSlotNo":58949,"stakeKeys":["stake1uxmu5453h2fqj06gwpll8dlfw6z9cxxwdjturukdzdj7hgsv5p9pe"],"pools":[{"tickerName":"AWP1","poolName":"Atomic Nodes #1","poolId":"pool15wkxegrfflzcyhurrjxsm9ljqtz09xr5rtnqsarnp7hmsz5um3t"}]},{"txHash":"29d6babd0500d10bc36deecdc2e857913c7da877b06089b7dc86b02b3192f2be","time":"2023/08/14 14:07:20","blockNo":9159053,"epochNo":430,"epochSlotNo":58949,"stakeKeys":["stake1u9yhwkn2l4w24qvppgxunj04vxvvpz50lr8330gz2w8hppq6p3cvr"],"pools":[{"tickerName":"PSB","poolName":"PSILOBLOX","poolId":"pool17taqml487n9t4r9a6ppvf9qv0qlw2lu4zcrzwfdsfcv6xp7uqym"}]},{"txHash":"0a7a2ee089ae2b19f29d3294bd1c2a447b6ed682b0acab483fc5385aa3b5537a","time":"2023/08/14 14:07:20","blockNo":9159053,"epochNo":430,"epochSlotNo":58949,"stakeKeys":["stake1u8724qgu25rxus6fnt6vfwgp5zez38zjthtdzvfz72tanas7azqh8"],"pools":[{"tickerName":"PSB","poolName":"PSILOBLOX","poolId":"pool17taqml487n9t4r9a6ppvf9qv0qlw2lu4zcrzwfdsfcv6xp7uqym"}]},{"txHash":"4424967d804ccadb704f8eaf2c219aa2feb8f3ab24b7a9fb0862856cb918a915","time":"2023/08/14 14:06:25","blockNo":9159050,"epochNo":430,"epochSlotNo":58894,"stakeKeys":["stake1uxccdl5z2sajwmkyv6pd44v60u0mfkx4fq9c374zhkl5udcwglhck"],"pools":[{"tickerName":"DDOS","poolName":"DDoS Pool","poolId":"pool15k0zeppza4qzgf6z7wmwsgvl5rz9f6489zxhrxqa8dj6jzju6ct"}]}],"totalItems":2879817,"totalPages":143991,"currentPage":0}