{"data":[{"stakeAddressId":4575959,"totalStake":1778649688,"time":"2024/03/02 05:02:31","fee":174301,"view":"stake1uxfh6favunna6y4uthysazn0m9j500l85mmp7skjtxth5nq9pc2cz"},{"stakeAddressId":4580960,"totalStake":112056970,"time":"2024/02/19 21:28:19","fee":183990,"view":"stake1uxnd8c02kkxn59nq9t5t6r0m2sw8qrfarw2mz5t5ws50ljgxn63zn"},{"stakeAddressId":4558911,"totalStake":211154075,"time":"2024/02/07 20:00:09","fee":174169,"view":"stake1uxqkkfzuxxpke22ljlzuevsj2k33qvh80pu2aqdv0rlt68g7avljv"},{"stakeAddressId":4552814,"totalStake":1158397173098,"time":"2024/02/04 22:14:16","fee":183990,"view":"stake1u98v5j5y33rups5d9z2zgqkme33m95eusm4vwesgr753m8q2lwdj2"},{"stakeAddressId":3806667,"totalStake":291545,"time":"2023/12/30 15:57:22","fee":174125,"view":"stake1uy9txmsvj9j562435vpcyd3ajnde7zr9qsmzw72y2jdpt4q09tdtn"},{"stakeAddressId":4091937,"totalStake":11848207656,"time":"2023/08/08 14:22:21","fee":183990,"view":"stake1u9llkrr99zkdspyphyjstp7qttxzqfw9k7ul5j2t389dd4c28pnhr"},{"stakeAddressId":3216391,"totalStake":136969688,"time":"2023/07/29 16:16:59","fee":174301,"view":"stake1u8myq5ugk024xdhknklc9u9th8663qrqsq289gvs4y8gakq79h55m"},{"stakeAddressId":4087684,"totalStake":5872172033,"time":"2023/05/16 10:26:50","fee":183990,"view":"stake1u8teqda8mwt05jg347dyqkfsxcfwcn6mzlpdmtt497hy05cclsrrr"},{"stakeAddressId":3959485,"totalStake":357678,"time":"2023/02/27 19:56:53","fee":183990,"view":"stake1u9chprh3d8rqt33wk4k5clzz2rdfg3c4m04eureegpf8twqm4vy8c"},{"stakeAddressId":3959353,"totalStake":0,"time":"2023/02/27 17:23:56","fee":183990,"view":"stake1u8m8tlah74u96gd3dcvzrr2yxg8kmrd4ecz66ckr4lsl22s8eumy2"},{"stakeAddressId":3614748,"totalStake":3874639,"time":"2023/01/03 17:24:27","fee":196910,"view":"stake1u9uz4j024qfud557ucrqw3kqfdndjgaxj7m44x7tamkvmyqzdwe7v"},{"stakeAddressId":3798818,"totalStake":2528532,"time":"2022/12/15 23:36:03","fee":183990,"view":"stake1uy23hx6w39xkjk9gacc3k0jyr2kqx45z80vuf94t2j62slqw88k2x"},{"stakeAddressId":3432748,"totalStake":81597890422,"time":"2022/11/07 16:04:51","fee":183990,"view":"stake1u8ghu68vnydunhynrula4aktw6jgx4cl38zptuxdsz7m6kscynwth"},{"stakeAddressId":3033565,"totalStake":2744461,"time":"2022/07/13 08:34:24","fee":177293,"view":"stake1ux6w3qdy820j5s262ldn5aav0hlajwdetxtdldm58wc4ksq9rx6a0"},{"stakeAddressId":3443062,"totalStake":39172574,"time":"2022/07/08 00:29:52","fee":188601,"view":"stake1uyjlssnxwmgsgpkf6h3cmw6c73q6gz5y33qqmskkmd7z55s8ems6j"},{"stakeAddressId":3425740,"totalStake":57594062192,"time":"2022/07/04 20:01:58","fee":183990,"view":"stake1u9qm24gq4a4w6wz552l99r8m3hdsat8nrpe09j3w3y43h9gl5nnyw"},{"stakeAddressId":3338456,"totalStake":1089472,"time":"2022/05/18 16:54:08","fee":175357,"view":"stake1u9jau4m7hqw9cxmdaspkpl94xfpydr8tpwvwvnpjynywtlg5h4yh7"},{"stakeAddressId":3306423,"totalStake":0,"time":"2022/05/04 23:51:46","fee":174301,"view":"stake1uyymype8js5l7kpnmxn4ymrhj0cksn70d66yyj730jvgrxsp8r0m8"},{"stakeAddressId":3159805,"totalStake":223417363853,"time":"2022/03/17 18:28:10","fee":1000000,"view":"stake1uxlhuz4u3qn8kvu00v70wxde8ul2w473krvlekrgee49yjcp9mad8"},{"stakeAddressId":3154373,"totalStake":461369770,"time":"2022/03/15 16:36:35","fee":174301,"view":"stake1uxyljseqvp2vn36whq4zq2v6lzcdjuw3hl0klek9wzujx2cnscwnw"},{"stakeAddressId":3148861,"totalStake":3657,"time":"2022/03/14 01:36:48","fee":174301,"view":"stake1u9tymlsq8d4y5kuhaxs9n64awsnm8wlxkakqynk39764w7q6vtja6"},{"stakeAddressId":3091564,"totalStake":2986154382,"time":"2022/03/13 15:12:01","fee":174477,"view":"stake1uy5xaj8ynhtdr27xvs8jgrk9ntfyfyt5y8dnts9afcmh2rca3gaht"},{"stakeAddressId":3142497,"totalStake":392071,"time":"2022/03/10 23:15:26","fee":174301,"view":"stake1uy7tl0k2ryjkr5g0hdtz2krqndj88vlw3yv9hgwdl4txskccphtvm"},{"stakeAddressId":3140049,"totalStake":3364539093,"time":"2022/03/09 20:51:10","fee":174301,"view":"stake1u9yas3wc7cflh83mtxxtv3h32gkv3qtdwkd9eh29hwyq6tgr68lmh"},{"stakeAddressId":3139986,"totalStake":5572598793,"time":"2022/03/09 20:22:17","fee":174301,"view":"stake1uy5g22h562xxe35lcnkhyzz7vv4mdnx5f755q8s7plt84rc0qfjc0"},{"stakeAddressId":3139430,"totalStake":2945,"time":"2022/03/09 14:57:20","fee":174301,"view":"stake1u883yylzezpl50unjj0q84qw55x3thnqeywlr0c4usm3e2cs0eajk"},{"stakeAddressId":3139265,"totalStake":36354,"time":"2022/03/09 13:45:06","fee":174301,"view":"stake1uxhxvzpz8c44x53el68q7cdm40mxtgc7tys0ksdhj9u6psstxze6p"},{"stakeAddressId":3139241,"totalStake":2945,"time":"2022/03/09 13:33:53","fee":174301,"view":"stake1u8kv0mtsymmc0fkuhypnrv0yhc28s42ywdq7kvlp9vrftkcx5jq9m"},{"stakeAddressId":3116985,"totalStake":8941814,"time":"2022/02/28 18:08:49","fee":174477,"view":"stake1uxw2xy7vutwypv2hj3erllgydpftz55xtp8849j078c4qvscxu4hf"},{"stakeAddressId":3055498,"totalStake":9442,"time":"2022/02/14 10:29:54","fee":174301,"view":"stake1uxtddctlkkfgnacsqyj0az8tj950mxw5wnka0p5zgn9rtsskp6rf9"},{"stakeAddressId":3037845,"totalStake":15206262,"time":"2022/02/10 22:07:44","fee":175357,"view":"stake1u88jd5uxc3gz8h44s28vvgvf0gaupe5juqryqh9fydwnurce0ktfx"},{"stakeAddressId":2998157,"totalStake":0,"time":"2022/02/02 21:55:26","fee":174257,"view":"stake1u90yej9mfh68nmkvu0g0r4ruryekac7yw8sp6rzjmzumn0s42tyvm"},{"stakeAddressId":2990972,"totalStake":1073156392,"time":"2022/02/01 12:34:41","fee":183990,"view":"stake1u8v9rsqyc2wdslwtyqnu0f30a9kt8uvq82sks6z4s0emvvguwqpdn"},{"stakeAddressId":2986274,"totalStake":68634243,"time":"2022/01/31 14:25:06","fee":174301,"view":"stake1u9jks7swugft2zl7hjhd0am25glvpxm59yp8r850tkr7kwqeyzmk5"},{"stakeAddressId":2405745,"totalStake":418829,"time":"2022/01/25 09:22:31","fee":174301,"view":"stake1u92qtlwj6k0k6g605v6njp8nkc9al46g3gqnyneeefh2u7gs6nshd"},{"stakeAddressId":2852467,"totalStake":12145,"time":"2022/01/19 06:01:17","fee":174301,"view":"stake1uxrfyfw08f852xm8ac7tvzrvjd44g74v9mmlfhjhj46kekc869a7j"},{"stakeAddressId":2759870,"totalStake":118081,"time":"2022/01/10 19:39:48","fee":174257,"view":"stake1uxpujk0auehdz35tkp0dx70zxxl85vqx3xg42zk6m4ye5lshhztua"},{"stakeAddressId":846697,"totalStake":280271,"time":"2021/12/21 18:26:16","fee":175357,"view":"stake1u82qyxvsse5xp7ldnv8wk07ruw0hse7tc44c5vkn5c33vecnx8t75"},{"stakeAddressId":2510988,"totalStake":15626716451,"time":"2021/12/14 18:55:50","fee":174433,"view":"stake1uyw3y7gm3rlvp2rwjf005pzrv0gy4wwhxrxat63frhp0kxsrlu4lp"},{"stakeAddressId":2511960,"totalStake":4283628,"time":"2021/12/12 17:31:19","fee":250641,"view":"stake1uy2fm0yt9rcjhj09dqwerlr7apuqslk9hxdnmzcuqn6sz6q7sw087"},{"stakeAddressId":2440006,"totalStake":4279659857,"time":"2021/12/04 08:03:32","fee":183990,"view":"stake1u8a2jwzkvwfw3u9sunpuz42x2rv89rl59tnawaaz7td96xshvpwqf"},{"stakeAddressId":2310203,"totalStake":84597038653,"time":"2021/11/21 05:46:28","fee":174433,"view":"stake1uxc85qxrv3yglju2kn5qdgt73vf49tpp4rrm0tracc8uhwgy54qpd"},{"stakeAddressId":2198372,"totalStake":269833423,"time":"2021/11/12 03:44:12","fee":174257,"view":"stake1u8z40zpc6yykvrrmu0tmfcv3zmj7ur8390u7crakj3c27yq2anlrw"},{"stakeAddressId":1680915,"totalStake":1313824073,"time":"2021/11/07 22:12:37","fee":174257,"view":"stake1uxg8q2x2uv5kwx3n44x7t7rpn0e8n8f6h6yy3ytdzh49t7q0yyh2q"},{"stakeAddressId":2138454,"totalStake":665623719,"time":"2021/11/03 18:53:23","fee":174257,"view":"stake1uxd8nrjtlw3yq6cj9n59chur4vus7wlyd4ykjmd77vnxl6su7y726"},{"stakeAddressId":1903303,"totalStake":106722013,"time":"2021/10/11 01:04:22","fee":174257,"view":"stake1uyq3ymnrt7ewau0f2xcp6f5q4zyev84jm4dyv43tyux9zxsndhwpd"},{"stakeAddressId":1775780,"totalStake":4738076,"time":"2021/09/30 13:58:13","fee":175357,"view":"stake1uxt9nwn2ysdpz0hejzmapr5y6c3yh8hragf4x0dmmxu02fgpnzjqc"},{"stakeAddressId":1471630,"totalStake":923217,"time":"2021/09/05 19:40:59","fee":183990,"view":"stake1u97k05kufjydrqn55lc990uxsm8860dawylre9zp2c6yphswe8akr"},{"stakeAddressId":1442793,"totalStake":593918939,"time":"2021/09/05 09:34:41","fee":174257,"view":"stake1uyr8q2rz525nydzgckhngr7gx6s3uw976upz47hx0pn8t8sknp4j2"},{"stakeAddressId":1331387,"totalStake":105446297,"time":"2021/08/20 23:23:13","fee":175137,"view":"stake1u8accknxwfw3jxd0h7ug9npezxwsnu6tkprxpxl6jxjvn6stvmc0k"},{"stakeAddressId":1259987,"totalStake":6343843,"time":"2021/08/19 15:38:53","fee":173993,"view":"stake1u8yk3dcuj8yylwvnzz953yups6mmuvt0vtjmxl2gmgceqjqz2yfd2"},{"stakeAddressId":1317537,"totalStake":540026986,"time":"2021/08/18 19:15:08","fee":183990,"view":"stake1u8x3c9qslhveey79vj5pjfweu90ukaa4czh0wuhf7dymrus2cu2jl"},{"stakeAddressId":1251133,"totalStake":18840618668,"time":"2021/08/04 20:24:51","fee":174257,"view":"stake1uyqn0ggrv5gj76ful6vm8x3xdlahc2c8m5rsnrddr75mrnqgj0ja6"},{"stakeAddressId":1205663,"totalStake":6548123,"time":"2021/07/16 23:46:55","fee":174433,"view":"stake1uyytajxckqy95786g5kfctp7x9ynpckqgyzaczvzd3lqq0q33jmsf"},{"stakeAddressId":1199145,"totalStake":1864708429,"time":"2021/07/14 13:04:32","fee":174257,"view":"stake1uycrr5pyujk4er7a5308ptwgknhsshrkjs730a5wqsv94qs4n6gpd"},{"stakeAddressId":1165107,"totalStake":22744916,"time":"2021/07/03 14:44:06","fee":176237,"view":"stake1uyf2nv00vnptvl662sxnl7gyrj5jrqg62ttkffupxd3n8xcm6t2wq"},{"stakeAddressId":1130081,"totalStake":3286820470,"time":"2021/06/20 22:02:37","fee":174257,"view":"stake1uyeru4lr900g7ssafqmt3fc3l5zr7j7s06wdj6d03xysdkg8wwew5"},{"stakeAddressId":1122251,"totalStake":1902001,"time":"2021/06/18 00:03:57","fee":174257,"view":"stake1u90l0594cny5av89qgkpwmfddfvglt8qxh4s42fkhsltffcln4r8n"},{"stakeAddressId":1121204,"totalStake":17202034,"time":"2021/06/17 17:12:41","fee":174257,"view":"stake1u9khc6u8c59mew582adqapkpwwedlv6ue75ddzelsp2f09qjgptrr"},{"stakeAddressId":1112070,"totalStake":416369901,"time":"2021/06/14 19:54:22","fee":175137,"view":"stake1uyu6t6mnl5fdrzjjywfqczcr7j3gqrwz9y8urhfm8whttfgtn9427"},{"stakeAddressId":1057999,"totalStake":2257655969,"time":"2021/06/01 17:21:04","fee":174257,"view":"stake1uyczpazzfrkya354rf90c28nt4ck5qzlf39qc9xmyw9nu3ga47akx"},{"stakeAddressId":897871,"totalStake":32200097,"time":"2021/05/28 13:32:08","fee":174257,"view":"stake1uy0js55vwkrek5csza6uk7cy65n9dmcz6y8ntcyxhk2cfssxgc8rv"},{"stakeAddressId":1003275,"totalStake":3156688482,"time":"2021/05/23 16:37:28","fee":174257,"view":"stake1u9749dr7hs2w507kalwrwzml0k68u9trww50phgkvfme96cftjgtt"},{"stakeAddressId":804753,"totalStake":28978857,"time":"2021/05/21 11:21:38","fee":192253,"view":"stake1u9e45fvvd4ujpc0kka0pnx9zqdvh9wl96nsg6sje0f5hmfq45lrja"},{"stakeAddressId":921737,"totalStake":3762646,"time":"2021/05/15 00:37:11","fee":174257,"view":"stake1u9jx66c6v585gwxpzqjl9qa95e7u73dz238fafev3zctjhsrajw5f"},{"stakeAddressId":903108,"totalStake":60542114,"time":"2021/05/14 16:00:09","fee":174257,"view":"stake1u8yxp48ed7d2x3924cs7cduauahqp70vtvxhkxjl5un7pkc7c0fzj"},{"stakeAddressId":902003,"totalStake":2477429,"time":"2021/05/12 21:05:56","fee":174257,"view":"stake1u9hqe0j7kp8layc9qh57g97f35ewck3pgq7mgelwmz5g69qvmr60l"},{"stakeAddressId":874902,"totalStake":4658262051,"time":"2021/05/09 12:25:17","fee":174257,"view":"stake1u970ctahw258ulmwnt6zagw09znfyn547hcs38683x42e4ccusrjp"},{"stakeAddressId":857500,"totalStake":5326742,"time":"2021/05/06 23:46:42","fee":174257,"view":"stake1u8dx6xn30tlgh99vqzx8hmchcj9e2m4dqlc03wyw94nypqs5ypkjy"},{"stakeAddressId":694287,"totalStake":12401298,"time":"2021/05/06 16:55:56","fee":182485,"view":"stake1ux8rsqjwr09a6c6pewt2xspatfj2mgzh0xqff53cx9etr4qmlqrt6"},{"stakeAddressId":850669,"totalStake":38497,"time":"2021/05/06 02:17:49","fee":174257,"view":"stake1u9ms9afjgwywr6u0ldmhrltjmxknrw8l644h2vesuqjl3qsq4m0cv"},{"stakeAddressId":842281,"totalStake":146716449,"time":"2021/05/05 20:25:46","fee":174433,"view":"stake1u85c6xvy6d2zzpfg5zwln3m7vj8kcsw3shy7ujt4p4ncmqcqzypua"},{"stakeAddressId":823749,"totalStake":5543323982,"time":"2021/04/30 19:26:52","fee":174257,"view":"stake1u86y4nye3nq24xn5dwu25x3e6zsfu9x624cdmu97teusmac9s2geg"},{"stakeAddressId":773223,"totalStake":5799322862,"time":"2021/04/19 21:30:42","fee":174257,"view":"stake1u9ygqvtnwp0fyzcj45k2kxr9tzxw2dl5dq9fwndtps75ccqfwq6a5"},{"stakeAddressId":737053,"totalStake":437669869295,"time":"2021/04/17 10:56:13","fee":176017,"view":"stake1uxha3qgm83ae3fd47tjj5qmag9cv4kfl583wuah7kxun7fsvavst4"},{"stakeAddressId":713619,"totalStake":11404266,"time":"2021/04/09 03:13:06","fee":175137,"view":"stake1uycqaz60l6yh7950vhfszlhwzx9vpzpn5yrv0m8mv87ezesj2638r"},{"stakeAddressId":694365,"totalStake":4628779,"time":"2021/04/05 07:45:13","fee":174257,"view":"stake1uyfckx3mk6rqy6epdfqswhw3p6kpfad83mgcmyez2vacuws8yppkw"},{"stakeAddressId":648074,"totalStake":4071716,"time":"2021/03/25 11:53:23","fee":175137,"view":"stake1uxrmzeahgs8vnexskf5rm2ef3qa469z843tvme6yg5x39zgprxutm"},{"stakeAddressId":645078,"totalStake":160602912629,"time":"2021/03/24 18:55:15","fee":175137,"view":"stake1uy6hyqpqd7zcus7uhsuye2jsdpk5l5z9rkqxaadlzhf8yqgjldl9d"},{"stakeAddressId":595271,"totalStake":3608,"time":"2021/03/16 11:18:56","fee":175137,"view":"stake1u8v3zr9uw52n3fkd93hc3pd4l9wu5utujv7zv5q0lc9rcvq8l4e3w"},{"stakeAddressId":591733,"totalStake":614182320,"time":"2021/03/15 18:13:25","fee":174257,"view":"stake1u8f36uk9zztzha9jtevnrqens00tvkh2390855vs6lq6zcc8rqkyg"},{"stakeAddressId":579034,"totalStake":3193664599,"time":"2021/03/13 12:53:34","fee":174257,"view":"stake1u9lyqdrdnfqdtcyan60guda3pkf367jdyj62mjet8psmazgyp08a0"},{"stakeAddressId":573094,"totalStake":5476486646,"time":"2021/03/12 01:57:05","fee":175137,"view":"stake1u84rsgtj8syhhrzeannnf09gjwtfm20vs9jf68ky4qgd69qlt2xql"},{"stakeAddressId":558755,"totalStake":2665206757,"time":"2021/03/09 04:04:44","fee":175137,"view":"stake1u8yr52sqn06ayl4mrgr5pas2ady87w4reah6lfws00vvr4cc5skqj"},{"stakeAddressId":544927,"totalStake":103425,"time":"2021/03/06 22:13:57","fee":174257,"view":"stake1ux2rf8zxtrmy2nlc39qf95edxvceld9plznvfphqmdqyg7chlfa9e"},{"stakeAddressId":527231,"totalStake":61710097,"time":"2021/03/04 14:34:30","fee":175137,"view":"stake1u8axr2cvhrntzfk74cdg9rh9zguls96jvp9thkf4chk9wfsv4dh0y"},{"stakeAddressId":511636,"totalStake":1238815,"time":"2021/03/02 16:59:38","fee":175137,"view":"stake1u8p2h7gfsysecxvr4zgnvhkt5nwdpqgy37jxq5zgjpjm40ggcf3jx"},{"stakeAddressId":472309,"totalStake":1526812,"time":"2021/02/25 15:08:44","fee":174257,"view":"stake1uxzutrtmxwv2rf2j3hdpps66ch0jydmkr58vwgnetddcdwg32u4rc"},{"stakeAddressId":461888,"totalStake":976711317,"time":"2021/02/24 05:41:03","fee":181341,"view":"stake1uxhsqn8ud0ka5g9f20auel7qu78vyqx32gw4zqgnvrt2cvcp427cv"},{"stakeAddressId":410721,"totalStake":3716354029,"time":"2021/02/18 21:42:11","fee":174521,"view":"stake1u95yajx7xslj57t56syputnt34mh2h0t4hhf708a6zlv4rg5keyd6"},{"stakeAddressId":410757,"totalStake":0,"time":"2021/02/18 09:01:02","fee":175137,"view":"stake1uyml4e2nf05yjxsq6c9mpzf69qclahppvjlve7phn3dfn8cd3pcyk"},{"stakeAddressId":370294,"totalStake":1048439318,"time":"2021/02/12 16:09:51","fee":174521,"view":"stake1u9f3jwk36vgfg883sje7xhuxge93f0t0h3f622n4awqsl3cm0ypk4"},{"stakeAddressId":51442,"totalStake":36561535,"time":"2021/02/11 05:43:55","fee":174697,"view":"stake1uxvch652rp276ve9gyw8vphfzcu5yv9hnn3p3xa2cw6m5gcagdcsn"},{"stakeAddressId":238921,"totalStake":8599864,"time":"2021/01/29 22:18:44","fee":174433,"view":"stake1uxksexwep9s73nuvc4ar38x0y0eek9aj6xf8dmtpt8ugwqc4skyfu"},{"stakeAddressId":271602,"totalStake":35060914,"time":"2021/01/22 21:37:28","fee":174433,"view":"stake1u9eu9745eh4rqmznyy0r70xnfkhzy4zg6x0ypm8s62skcyqqzpxs2"},{"stakeAddressId":80043,"totalStake":85673845442,"time":"2020/08/31 18:56:51","fee":174433,"view":"stake1uxufgcfssz5m07asscm9zwjha30d0txhswar8z44ew9d2ys2ulwwg"},{"stakeAddressId":68835,"totalStake":14869555,"time":"2020/08/21 00:22:21","fee":174257,"view":"stake1u8xv4hnp8z4nnr48us77n39cmfnrecvql2d3k5uwawgmlqcfs6p4g"},{"stakeAddressId":55364,"totalStake":10557203209,"time":"2020/08/10 02:21:51","fee":174257,"view":"stake1uy8dsqcsm7en504m2fpaaujejm7mmlttfwam3elt2myhzmgqntvry"},{"stakeAddressId":14364,"totalStake":1118375014,"time":"2020/07/30 18:05:51","fee":174257,"view":"stake1uxc8keph8hj37hct6p57dzzjvnn5txapdyztv2t93nr2c7s68qkty"},{"stakeAddressId":8501,"totalStake":2435387511594,"time":"2020/07/30 15:09:31","fee":174257,"view":"stake1uy0uykuukdn7wpx3qcp2sy37v2zpayxvm8d90ufj5rf3gucpl7697"}],"totalItems":174,"totalPages":2,"currentPage":0,"isDataOverSize":null}