{"data":[{"scriptHash":"a5bb0e5bb275a573d744a021f9b3bff73595468e002755b447e01559","after":null,"before":"2023/12/31 23:58:30","isMultiSig":false,"isOpen":false,"numberOfTokens":420420,"numberOfAssetHolders":548477,"tokens":[{"name":"72,79,83,75,89,67,97,115,104,71,114,97,98,48,48,48,49,52,52,55,54,53","displayName":"HOSKYCashGrab000144765","policy":"a5bb0e5bb275a573d744a021f9b3bff73595468e002755b447e01559","policyIsNativeScript":false,"fingerprint":"asset104zrq6q9j82d3lfphqs8902wxje4r29gekk2cl"},{"name":"72,79,83,75,89,67,97,115,104,71,114,97,98,48,48,48,48,56,53,56,52,53","displayName":"HOSKYCashGrab000085845","policy":"a5bb0e5bb275a573d744a021f9b3bff73595468e002755b447e01559","policyIsNativeScript":false,"fingerprint":"asset15f9hul3ej3w5vjn32wz97qn48wjs6rkzhgpr2d"},{"name":"72,79,83,75,89,67,97,115,104,71,114,97,98,48,48,48,48,55,48,51,53,48","displayName":"HOSKYCashGrab000070350","policy":"a5bb0e5bb275a573d744a021f9b3bff73595468e002755b447e01559","policyIsNativeScript":false,"fingerprint":"asset1utyaalacffzykg90rqn5zcq857t5kac6wq9fph"},{"name":"72,79,83,75,89,67,97,115,104,71,114,97,98,48,48,48,48,55,48,54,49,54","displayName":"HOSKYCashGrab000070616","policy":"a5bb0e5bb275a573d744a021f9b3bff73595468e002755b447e01559","policyIsNativeScript":false,"fingerprint":"asset16k6ry0m7722fx9f78lx3pduw07rp6d0kqeaunr"},{"name":"72,79,83,75,89,67,97,115,104,71,114,97,98,48,48,48,48,51,50,48,51,55","displayName":"HOSKYCashGrab000032037","policy":"a5bb0e5bb275a573d744a021f9b3bff73595468e002755b447e01559","policyIsNativeScript":false,"fingerprint":"asset1lw9ee0wjzkew937r7s9l5qlpcrxtf4rc9sjve5"}]}],"totalItems":128236,"totalPages":128236,"currentPage":0,"isDataOverSize":null}