{"data":[{"epoch":418,"time":"2023/06/14 21:44:54","amount":618306,"poolView":null,"poolHash":null},{"epoch":417,"time":"2023/06/09 21:47:26","amount":542259,"poolView":null,"poolHash":null},{"epoch":416,"time":"2023/06/04 21:46:57","amount":4342,"poolView":null,"poolHash":null},{"epoch":415,"time":"2023/05/30 21:45:29","amount":3962599,"poolView":null,"poolHash":null},{"epoch":414,"time":"2023/05/25 21:46:32","amount":3875723,"poolView":null,"poolHash":null},{"epoch":413,"time":"2023/05/20 21:47:36","amount":4714280,"poolView":null,"poolHash":null},{"epoch":412,"time":"2023/05/15 21:46:10","amount":3806002,"poolView":null,"poolHash":null},{"epoch":411,"time":"2023/05/10 21:46:15","amount":5566597,"poolView":null,"poolHash":null},{"epoch":410,"time":"2023/05/05 21:45:10","amount":4430507,"poolView":null,"poolHash":null},{"epoch":409,"time":"2023/04/30 21:47:21","amount":4347218,"poolView":null,"poolHash":null},{"epoch":408,"time":"2023/04/25 21:46:35","amount":4693954,"poolView":null,"poolHash":null},{"epoch":407,"time":"2023/04/20 21:46:22","amount":3948212,"poolView":null,"poolHash":null},{"epoch":406,"time":"2023/04/15 21:46:34","amount":5734514,"poolView":null,"poolHash":null},{"epoch":405,"time":"2023/04/10 21:45:36","amount":3642294,"poolView":null,"poolHash":null},{"epoch":404,"time":"2023/04/05 21:45:37","amount":3583656,"poolView":null,"poolHash":null},{"epoch":403,"time":"2023/03/31 21:49:49","amount":2864821,"poolView":null,"poolHash":null},{"epoch":402,"time":"2023/03/26 21:46:12","amount":3274478,"poolView":null,"poolHash":null},{"epoch":401,"time":"2023/03/21 21:45:15","amount":4686878,"poolView":null,"poolHash":null},{"epoch":400,"time":"2023/03/16 21:48:38","amount":4582095,"poolView":null,"poolHash":null},{"epoch":399,"time":"2023/03/11 21:48:16","amount":4213756,"poolView":null,"poolHash":null}],"totalItems":118,"totalPages":6,"currentPage":0,"isDataOverSize":null}