{"data":[{"txId":89041482,"txHash":"ef2c61aa5664287c1c40c0ac674113eab64402730a2f8afd31b3d23d98d446ac","txTime":"2024/04/10 18:12:33","epoch":478,"block":10169438,"epochSlotNo":73662,"slotNo":121206462,"poolName":"Climate_Action_Fund","pledge":0,"cost":340000000,"margin":0.0,"poolId":1734,"poolView":"pool1qqmvjqwzcg3p0x89a9hd6lgwvqq8wy2w6mcx0csaxq4x6xz7qyn","stakeKey":["stake1uygsa3nv4kq2pwv0wt32vgvcx7aptu8kyqw8sh00r8yrvrc5hnhyf"]}],"totalItems":2962,"totalPages":2962,"currentPage":0,"isDataOverSize":null}