{"data":[{"txHash":"29951f652b517f6d5b1747f71f27b7ff2a6a0cb109b72215a39482eeaa6b4f07","outSum":3401506267,"fee":172805,"time":"2023/05/11 02:26:27","poolName":"stakefish","poolId":"pool1xlphlhnjvfeh40vcqf9fdewztsj6kyxq6604kaccpv00umjfu0d"}],"totalItems":12,"totalPages":12,"currentPage":0,"isDataOverSize":null}