{"data":[{"txHash":"0abace3a99b8094332918c8092803a014f2e662620570c383e29c3383a488f96","time":"2024/04/11 11:47:14","blockNo":10172466,"epochNo":478,"epochSlotNo":136943,"slotNo":121269743,"stakeKeys":["stake1u935v44ecvwf4gs8f5jxhpfx2nd2ylkz084ycn86se5j22swdxm82"],"pools":[{"tickerName":"TW001","poolName":"Trust Nodes","poolId":"pool1gaztx97t53k47fr7282d70tje8323vvzx8pshgts30t9krw62tm","logoUrl":null,"iconUrl":null}]},{"txHash":"896d89782a8971c7cd66ca83e93f86febeb63563c0724ff2b8014e866e2b3fba","time":"2024/04/11 11:47:14","blockNo":10172466,"epochNo":478,"epochSlotNo":136943,"slotNo":121269743,"stakeKeys":["stake1u984rtull504vtkvcwzpc9ym5ny7n3jpyxxh35yr8pe8lfsuvxd0p"],"pools":[{"tickerName":"EVE3","poolName":"Everstake","poolId":"pool1xmsdhync6k6grkkj7tuycskjpseykpr24luhlazl5nsngsy87gm","logoUrl":null,"iconUrl":null}]},{"txHash":"6710a7b43c98755f25ef1fabb4fbdbbc8bbda4fbac9aad2063795f8d68764bb2","time":"2024/04/11 11:45:35","blockNo":10172462,"epochNo":478,"epochSlotNo":136844,"slotNo":121269644,"stakeKeys":["stake1u8v4wgqp74uvtmyhevhp4vn26nwpqj3m7mkvvgaej3wgh5gnkuj90"],"pools":[{"tickerName":"BLC","poolName":"BigLazyCat","poolId":"pool13k6tphjfsgqdq7h27p4x86ruchcdg2x073luw8pndh3ajxvwvja","logoUrl":null,"iconUrl":null}]},{"txHash":"a277ed66086e6601ba9aaf30c8395c3370154f32c8e89595b3ad371a05e91e9d","time":"2024/04/11 11:42:58","blockNo":10172456,"epochNo":478,"epochSlotNo":136687,"slotNo":121269487,"stakeKeys":["stake1u8q3uja0su2s4986ut5u7592uy2kfxg7jqy3g4xn5w8hcesrtd5le"],"pools":[{"tickerName":"TW001","poolName":"Trust Nodes","poolId":"pool1gaztx97t53k47fr7282d70tje8323vvzx8pshgts30t9krw62tm","logoUrl":null,"iconUrl":null}]},{"txHash":"a46256ba290264c82699f6d440fa7881a56637f0c202cf5a281e952f27bf3f21","time":"2024/04/11 11:42:58","blockNo":10172456,"epochNo":478,"epochSlotNo":136687,"slotNo":121269487,"stakeKeys":["stake1u8v4wgqp74uvtmyhevhp4vn26nwpqj3m7mkvvgaej3wgh5gnkuj90"],"pools":[{"tickerName":"BLC","poolName":"BigLazyCat","poolId":"pool13k6tphjfsgqdq7h27p4x86ruchcdg2x073luw8pndh3ajxvwvja","logoUrl":null,"iconUrl":null}]},{"txHash":"a215d0716c50af655ad6cd3cf96dd06f73ea81c0c51a0a8bb8e35934e290e7c2","time":"2024/04/11 11:37:50","blockNo":10172439,"epochNo":478,"epochSlotNo":136379,"slotNo":121269179,"stakeKeys":["stake1u9g3x88ctyjddgx0cuh36sj6vxpqjtcsq9rgyuf5qfp3gpqtn0x3u"],"pools":[{"tickerName":"ALLEY","poolName":"Alleycat Stake Pool","poolId":"pool193rdch53x9c53rmftlqgzj22vmz6w8z8hhut2ckzd2zej45zpap","logoUrl":null,"iconUrl":null}]},{"txHash":"c39f0666dcc4934c3ddededfa392ea99bcb77e4597c21c0e733465bb053e23f1","time":"2024/04/11 11:37:50","blockNo":10172439,"epochNo":478,"epochSlotNo":136379,"slotNo":121269179,"stakeKeys":["stake1uykg4pq7p7gtqnfeuqlvl79te60kxfzueekp437a97lytxgtg9hea"],"pools":[{"tickerName":"CERRA","poolName":"CERRA ISPO","poolId":"pool1j5zdx73kk2w53vd5qqw3wqehywh2tpljltfy3rdmuuge5k7pg8m","logoUrl":null,"iconUrl":null}]},{"txHash":"4a479ceb4f23b55e0ff3ca70434513eda3ded8c7364aef7175449a779ba72836","time":"2024/04/11 11:25:45","blockNo":10172400,"epochNo":478,"epochSlotNo":135654,"slotNo":121268454,"stakeKeys":["stake1u9cvnhrs695zhutx66mw042l3zhjy4falkktsdn7zanjx0g28ycjs"],"pools":[{"tickerName":"OCTAS","poolName":"OctasPool","poolId":"pool1z5uqdk7dzdxaae5633fqfcu2eqzy3a3rgtuvy087fdld7yws0xt","logoUrl":null,"iconUrl":null}]},{"txHash":"27331a2c9473c9f9d578927942b6aa38e77fd9022e78ba9aba8338a50d5f9960","time":"2024/04/11 11:25:45","blockNo":10172400,"epochNo":478,"epochSlotNo":135654,"slotNo":121268454,"stakeKeys":["stake1uxv06j8rnx5agtvl95cwv8clf4q6f0570ppf5rq2z6m69sc2gu5vm"],"pools":[{"tickerName":"LBF2","poolName":"Ledger by Figment 2","poolId":"pool1f2wfjqkf2wx6jq93pdck6hgmy9zgw32lmvrq9zejl7scqxjqfze","logoUrl":null,"iconUrl":null}]},{"txHash":"eb75fb7941ee25a000d98b0a8e9cb1134b2f1cded7f1cfd4e0bb0111e120f82c","time":"2024/04/11 11:19:09","blockNo":10172385,"epochNo":478,"epochSlotNo":135258,"slotNo":121268058,"stakeKeys":["stake1u8mwclurkf7kq0yqjrlmp4an66tczvrac2yyl3l4n8pw3ygs343d3"],"pools":[{"tickerName":"21ADA","poolName":"21ADA","poolId":"pool170hmssk80z2ameg7jhj5m8psnkjejcc77vfpd0875yggxhhntd0","logoUrl":null,"iconUrl":null}]},{"txHash":"80b64169632c0e640ebb02d8f7835a41ea252318c0da4e1776bb228cb6450e49","time":"2024/04/11 11:16:07","blockNo":10172377,"epochNo":478,"epochSlotNo":135076,"slotNo":121267876,"stakeKeys":["stake1u904jw7effuk36zvjyrgpqm66tqkeqaf99aw95jplaateag4zqxfm"],"pools":[{"tickerName":"FORTE","poolName":"The independent","poolId":"pool1gqgyta9sku3crjzfl9kj7kxsgfkt98y98yeu09kx22zscrezuj7","logoUrl":null,"iconUrl":null}]},{"txHash":"1e0f26d15323fc2d6f474c255a9a086f60f39073acd6594b694465216b63bf6f","time":"2024/04/11 11:15:03","blockNo":10172375,"epochNo":478,"epochSlotNo":135012,"slotNo":121267812,"stakeKeys":["stake1ux50qd9vtxk7uwkdwfqj5ft9rjg0ppmd2d39unz6tmjr26qcflcdy"],"pools":[{"tickerName":"TW001","poolName":"Trust Nodes","poolId":"pool1gaztx97t53k47fr7282d70tje8323vvzx8pshgts30t9krw62tm","logoUrl":null,"iconUrl":null}]},{"txHash":"a2cbe4057ba381cd58701ab36a320eabaa3b1098651da0c8892f354070447ce7","time":"2024/04/11 11:13:03","blockNo":10172371,"epochNo":478,"epochSlotNo":134892,"slotNo":121267692,"stakeKeys":["stake1uxdqqfhxrp6gsk98t58t53mt8ef5uxxx25477crhu73w0ls3mczuy"],"pools":[{"tickerName":"APE","poolName":"ADA Ape Pool","poolId":"pool18j287g2sccele52hhxc0csk2ghfghwndqm9yahdqnhjks840wtq","logoUrl":null,"iconUrl":null}]},{"txHash":"ba94650ae738c0a7b54a0c07dfb6297f2e345a9c9bafcb1aae2314d42a65ff0e","time":"2024/04/11 11:13:03","blockNo":10172371,"epochNo":478,"epochSlotNo":134892,"slotNo":121267692,"stakeKeys":["stake1u8dwfcqpgc07nzy3hlp44ck9e8c6e0v0yuu3u5xdxht9xpss2td6j"],"pools":[{"tickerName":"APE","poolName":"ADA Ape Pool","poolId":"pool18j287g2sccele52hhxc0csk2ghfghwndqm9yahdqnhjks840wtq","logoUrl":null,"iconUrl":null}]},{"txHash":"d3350d7200e7a7d0afa189b60aca3abc470075fd1330ddd07ee77d5126db2eda","time":"2024/04/11 11:13:03","blockNo":10172371,"epochNo":478,"epochSlotNo":134892,"slotNo":121267692,"stakeKeys":["stake1u9vm2r2hm73chxaf6ccxvmezn52f9aheh4z9zgqj97lzw4qfqp5xn"],"pools":[{"tickerName":"APE","poolName":"ADA Ape Pool","poolId":"pool18j287g2sccele52hhxc0csk2ghfghwndqm9yahdqnhjks840wtq","logoUrl":null,"iconUrl":null}]},{"txHash":"1f41e88d9bfdebd8514fcab57300f9241d78eb0be73781ef5df85ddf0dfa6a1d","time":"2024/04/11 11:10:42","blockNo":10172369,"epochNo":478,"epochSlotNo":134751,"slotNo":121267551,"stakeKeys":["stake1u8wumcdg7kyw3g49yle9fk9746jf54ywj0lsmh0j8zn2pcct0d9l7"],"pools":[{"tickerName":"DAPP","poolName":"Dapp Central Stake Pool","poolId":"pool1qakys0fxx5p2fxcnsc2tyjpqa88q7qgtdh5t3a32hplv6fg25r9","logoUrl":null,"iconUrl":null}]},{"txHash":"9c36db7157379d1353309eb3d9de17716bb82a450cfe1701441475c90e0b0e3b","time":"2024/04/11 11:07:45","blockNo":10172366,"epochNo":478,"epochSlotNo":134574,"slotNo":121267374,"stakeKeys":["stake1ux2eh9ntekvfl7l0cxnza5l7zkjagzzl32en30nn5ypwjyge3j0s7"],"pools":[{"tickerName":"EVE3","poolName":"Everstake","poolId":"pool1xmsdhync6k6grkkj7tuycskjpseykpr24luhlazl5nsngsy87gm","logoUrl":null,"iconUrl":null}]},{"txHash":"c7f82647635a4fdc6ecea90203f72b6a3b30e9c42870280cb5103f0ea036f2d2","time":"2024/04/11 11:06:04","blockNo":10172362,"epochNo":478,"epochSlotNo":134473,"slotNo":121267273,"stakeKeys":["stake1u9r6y985407layntqewc4r4x9ng54l9zmdvnx4gv72yh8fsqfmys6"],"pools":[{"tickerName":"NORTH","poolName":"#5 Nordic Pool","poolId":"pool1nz9h4raywm6mu2v8l7htuaqvmn06l3mepuaxynpzlwljsf8txhy","logoUrl":null,"iconUrl":null}]},{"txHash":"1b263486b007399fdd2c0346fbe5025c0387465885471115acfb39bb0c770aa8","time":"2024/04/11 10:58:45","blockNo":10172345,"epochNo":478,"epochSlotNo":134034,"slotNo":121266834,"stakeKeys":["stake1uysgzez5hyavtzxyy0qma3zyjj3c0cz07usdgyanwh975dgtmfp70"],"pools":[{"tickerName":"EVE3","poolName":"Everstake","poolId":"pool1xmsdhync6k6grkkj7tuycskjpseykpr24luhlazl5nsngsy87gm","logoUrl":null,"iconUrl":null}]},{"txHash":"77d55d14bd8f0b111612eb92f8066b026aa502a6a0641f98d90d2a01e8017343","time":"2024/04/11 10:58:34","blockNo":10172344,"epochNo":478,"epochSlotNo":134023,"slotNo":121266823,"stakeKeys":["stake1u9pdln52znv28c06u8lc7zfmdpmnpgw5gtyfgfvt2lsvjzgls3l9v"],"pools":[{"tickerName":"TW001","poolName":"Trust Nodes","poolId":"pool1gaztx97t53k47fr7282d70tje8323vvzx8pshgts30t9krw62tm","logoUrl":null,"iconUrl":null}]}],"totalItems":3102511,"totalPages":155126,"currentPage":0,"isDataOverSize":null}