{"data":[{"id":8002857,"name":"43617264616e6f426f72656441706532393236","displayName":"CardanoBoredApe2926","policy":"4429f7b432125357388b1d676c2d503b6d6fc78c414934bef9882e26","policyIsNativeScript":false,"fingerprint":"asset18eatn2ymzs00nzjkxnkqtqulcssymepk7ah6ph","txCount":12,"supply":"1","totalVolume":"3","createdOn":"2023/03/19 22:12:57"}],"totalItems":5000,"totalPages":5000,"currentPage":0,"isDataOverSize":null}