{"data":[{"scriptHash":"9068a7a3f008803edac87af1619860f2cdcde40c26987325ace138ad","scriptVersion":"PLUTUSV2","txCount":3813211,"txPurposes":["SPEND"]},{"scriptHash":"a65ca58a4e9c755fa830173d2a5caed458ac0c73f97db7faae2e7e3b","scriptVersion":"PLUTUSV1","txCount":3590362,"txPurposes":["SPEND"]},{"scriptHash":"e1317b152faac13426e6a83e06ff88a4d62cce3c1634ab0a5ec13309","scriptVersion":"PLUTUSV1","txCount":3177059,"txPurposes":["SPEND"]},{"scriptHash":"4a59ebd93ea53d1bbf7f82232c7b012700a0cf4bb78d879dabb1a20a","scriptVersion":"PLUTUSV1","txCount":2609452,"txPurposes":["SPEND"]},{"scriptHash":"a55f409501bf65805bb0dc76f6f9ae90b61e19ed870bc00256813608","scriptVersion":"PLUTUSV1","txCount":1299095,"txPurposes":["SPEND"]},{"scriptHash":"ba158766c1bae60e2117ee8987621441fac66a5e0fb9c7aca58cf20a","scriptVersion":"PLUTUSV1","txCount":875080,"txPurposes":["SPEND"]},{"scriptHash":"4020e7fc2de75a0729c3cc3af715b34d98381e0cdbcfa99c950bc3ac","scriptVersion":"PLUTUSV1","txCount":732809,"txPurposes":["SPEND"]},{"scriptHash":"86ae9eebd8b97944a45201e4aec1330a72291af2d071644bba015959","scriptVersion":"PLUTUSV1","txCount":454713,"txPurposes":["SPEND"]},{"scriptHash":"e6c90a5923713af5786963dee0fdffd830ca7e0c86a041d9e5833e91","scriptVersion":"PLUTUSV1","txCount":398212,"txPurposes":["SPEND"]},{"scriptHash":"e4214b7cce62ac6fbba385d164df48e157eae5863521b4b67ca71d86","scriptVersion":"PLUTUSV1","txCount":392247,"txPurposes":["MINT"]},{"scriptHash":"15b95fdaceeb507073a1bd198803373beeafbd82560fbf8abe9073ff","scriptVersion":"PLUTUSV1","txCount":308664,"txPurposes":["SPEND"]},{"scriptHash":"f0c16278fb2dceaa8c32b52f282d6f57ccb6068077a56c7a8f0707a7","scriptVersion":"PLUTUSV2","txCount":279643,"txPurposes":["SPEND"]},{"scriptHash":"9b85d5e8611945505f078aeededcbed1d6ca11053f61e3f9d999fe44","scriptVersion":"PLUTUSV1","txCount":275928,"txPurposes":["SPEND"]},{"scriptHash":"00fb107bfbd51b3a5638867d3688e986ba38ff34fb738f5bd42b20d5","scriptVersion":"PLUTUSV2","txCount":259125,"txPurposes":["SPEND"]},{"scriptHash":"2618e94cdb06792f05ae9b1ec78b0231f4b7f4215b1b4cf52e6342de","scriptVersion":"PLUTUSV2","txCount":210566,"txPurposes":["SPEND"]},{"scriptHash":"b15a1a010843e8afb6f963b03d452be815b533dad0cd23d819c2d201","scriptVersion":"PLUTUSV2","txCount":178575,"txPurposes":["SPEND"]},{"scriptHash":"c727443d77df6cff95dca383994f4c3024d03ff56b02ecc22b0f3f65","scriptVersion":"PLUTUSV2","txCount":178415,"txPurposes":["SPEND"]},{"scriptHash":"22f12548a9b1e61fca4b5d9cb87f947f757d0b5e7fb2366fc32e40fe","scriptVersion":"PLUTUSV1","txCount":174978,"txPurposes":["SPEND"]},{"scriptHash":"6b9c456aa650cb808a9ab54326e039d5235ed69f069c9664a8fe5b69","scriptVersion":"PLUTUSV2","txCount":168222,"txPurposes":["SPEND"]},{"scriptHash":"0029cb7c88c7567b63d1a512c0ed626aa169688ec980730c0473b913","scriptVersion":"PLUTUSV1","txCount":166838,"txPurposes":["MINT"]},{"scriptHash":"7045237d1eb0199c84dffe58fe6df7dc5d255eb4d418e4146d5721f8","scriptVersion":"PLUTUSV2","txCount":158654,"txPurposes":["SPEND"]},{"scriptHash":"483788748bd6129043bfc87fba9c0b5bc7e49b892efdc9dd783e3285","scriptVersion":"PLUTUSV1","txCount":152359,"txPurposes":["SPEND"]},{"scriptHash":"0237cc313756ebb5bcfc2728f7bdc6a8047b471220a305aa373b278a","scriptVersion":"PLUTUSV1","txCount":130692,"txPurposes":["SPEND"]},{"scriptHash":"21bd8c2e0df2fbe92137f78dbaba48f62308e52303049f0d628b6c4c","scriptVersion":"PLUTUSV2","txCount":100377,"txPurposes":["SPEND"]},{"scriptHash":"54e8d424816f5bbd423353009ff7c31ada2cbdefe651175014117f46","scriptVersion":"PLUTUSV2","txCount":81506,"txPurposes":["SPEND"]},{"scriptHash":"d42d10695c0c2f7b3f7e32a0559c80704da8cf320289e7831b99d825","scriptVersion":"PLUTUSV1","txCount":73489,"txPurposes":["SPEND"]},{"scriptHash":"de1585e046f16fdf79767300233c1affbe9d30340656acfde45e9142","scriptVersion":"PLUTUSV2","txCount":72711,"txPurposes":["SPEND"]},{"scriptHash":"74db9c7a23605cacae4ee635a15af6e63c5a39915c481254eeb9758b","scriptVersion":"PLUTUSV1","txCount":71368,"txPurposes":["SPEND"]},{"scriptHash":"a473cb8eb0b61c03b8696fceab1c1a89fa3ec834572850e7c2abe783","scriptVersion":"PLUTUSV2","txCount":70063,"txPurposes":["SPEND"]},{"scriptHash":"646ad13fb9e22d3b802049d85e95dc04edb6471eaa9237a932d38d49","scriptVersion":"PLUTUSV1","txCount":66337,"txPurposes":["SPEND"]},{"scriptHash":"98df3b00a1500fcb77daa0520550fb088fc923399788b89637b9de59","scriptVersion":"PLUTUSV1","txCount":65553,"txPurposes":["SPEND"]},{"scriptHash":"a27b0572bf383c751e13597a600538e465bf9f4eb2df497b15101b27","scriptVersion":"PLUTUSV1","txCount":57645,"txPurposes":["SPEND"]},{"scriptHash":"9d28a9ff246270bb141962fd6d0741190349a329ebc861f0667f1d61","scriptVersion":"PLUTUSV2","txCount":57455,"txPurposes":["SPEND"]},{"scriptHash":"22f6999d4effc0ade05f6e1a70b702c65d6b3cdf0e301e4a8267f585","scriptVersion":"PLUTUSV2","txCount":57355,"txPurposes":["MINT"]},{"scriptHash":"1a7c64521bd1849e693730558db5bc3d9c514f96eceb004471b5fa49","scriptVersion":"PLUTUSV2","txCount":57205,"txPurposes":["SPEND"]},{"scriptHash":"e4d2fb0b8d275852103fd75801e2c7dcf6ed3e276c74cabadbe5b8b6","scriptVersion":"PLUTUSV2","txCount":56553,"txPurposes":["SPEND"]},{"scriptHash":"687df05d58764c7d98c9602871e1276aa5f028b9695369f40f430865","scriptVersion":"PLUTUSV2","txCount":50359,"txPurposes":["SPEND"]},{"scriptHash":"343f54d6adfb256b1e9041a72a8b519670086570d5611df499c797aa","scriptVersion":"PLUTUSV2","txCount":49942,"txPurposes":["SPEND"]},{"scriptHash":"0ca50950adbb06c5c5f6833924a66ac873e43202588b6d338602d78d","scriptVersion":"PLUTUSV1","txCount":46032,"txPurposes":["SPEND"]},{"scriptHash":"8c6a730759f61b9089f0370cf986a2775d143cbf75c1f1fa6c932ab0","scriptVersion":"PLUTUSV1","txCount":45359,"txPurposes":["SPEND"]},{"scriptHash":"9fd47e0d578fb539b9ec7e016dc5ee25844110a96712d55989b0751b","scriptVersion":"PLUTUSV1","txCount":44433,"txPurposes":["SPEND"]},{"scriptHash":"57c8e718c201fba10a9da1748d675b54281d3b1b983c5d1687fc7317","scriptVersion":"PLUTUSV1","txCount":41572,"txPurposes":["SPEND"]},{"scriptHash":"e628bfd68c07a7a38fcd7d8df650812a9dfdbee54b1ed4c25c87ffbf","scriptVersion":"PLUTUSV2","txCount":41344,"txPurposes":["SPEND"]},{"scriptHash":"c2afd87ff836f64a20c33dc252e850cdd55f31627d64012d0960856f","scriptVersion":"PLUTUSV1","txCount":40913,"txPurposes":["SPEND"]},{"scriptHash":"f66d78b4a3cb3d37afa0ec36461e51ecbde00f26c8f0a68f94b69880","scriptVersion":"PLUTUSV2","txCount":40177,"txPurposes":["MINT"]},{"scriptHash":"e8baad9288dc9abdc099b46f2ac006b1a82c7df4996e067f00c04e8d","scriptVersion":"PLUTUSV1","txCount":36751,"txPurposes":["SPEND"]},{"scriptHash":"d27ad3ed7b073018d429e57c2f8d1f52445aa241e280e6da149a91b4","scriptVersion":"PLUTUSV2","txCount":34086,"txPurposes":["SPEND"]},{"scriptHash":"f350350cd40d0d8e8744f2c6cad54a0abc9d51f107f57fb95c181a3f","scriptVersion":"PLUTUSV2","txCount":33405,"txPurposes":["SPEND"]},{"scriptHash":"0449932f9da0258d220c39f803ceb8e2c45fdc605e8dd42f35558b58","scriptVersion":"PLUTUSV1","txCount":33214,"txPurposes":["SPEND"]},{"scriptHash":"3422c13d5a97e68fe725d3d740b7f96cb315e3b44d03a2be28863beb","scriptVersion":"PLUTUSV1","txCount":31362,"txPurposes":["SPEND"]},{"scriptHash":"31415bb210164cf6b84d1b12537f0792d2912d156e0f1ed1d91c83ce","scriptVersion":"PLUTUSV2","txCount":31271,"txPurposes":["SPEND"]},{"scriptHash":"279f842c33eed9054b9e3c70cd6a3b32298259c24b78b895cb41d91a","scriptVersion":"PLUTUSV2","txCount":30513,"txPurposes":["MINT","SPEND"]},{"scriptHash":"a3c70492105826529484dae1647038c6a986bacdfcaefaaacd3aa62d","scriptVersion":"PLUTUSV2","txCount":30096,"txPurposes":["SPEND"]},{"scriptHash":"730d04da38ffb7756072340338098c04413e75fedfb5669289e7c7bf","scriptVersion":"PLUTUSV1","txCount":29952,"txPurposes":["SPEND"]},{"scriptHash":"a04ce7a52545e5e33c2867e148898d9e667a69602285f6a1298f9d68","scriptVersion":"PLUTUSV2","txCount":28969,"txPurposes":["MINT"]},{"scriptHash":"55ff0e63efa0694e8065122c552e80c7b51768b7f20917af25752a7c","scriptVersion":"PLUTUSV2","txCount":28022,"txPurposes":["SPEND"]},{"scriptHash":"e0baa1f0887a766daf5196f92c88728e356e71255c5ad00866607484","scriptVersion":"PLUTUSV1","txCount":27816,"txPurposes":["MINT"]},{"scriptHash":"f1ec90d33208778214cdc7fa90858ac5620253d99f84c10335928cab","scriptVersion":"PLUTUSV1","txCount":27811,"txPurposes":["SPEND"]},{"scriptHash":"9c30c6f741ccd6b4dece11acfd505365abab14450ea2214435f8124e","scriptVersion":"PLUTUSV1","txCount":27537,"txPurposes":["SPEND"]},{"scriptHash":"cb08fd2cf22dc45b23a7ff9c03468d94c93133606ba2abfdc833a76a","scriptVersion":"PLUTUSV1","txCount":26189,"txPurposes":["SPEND"]},{"scriptHash":"41223b3ecf502363dc465dce5ad6671b83ac790e229d3f49e68c3353","scriptVersion":"PLUTUSV2","txCount":25594,"txPurposes":["MINT"]},{"scriptHash":"a904455f964515aa9290ca443efe93fe8d654c1ebc22b1562af07c39","scriptVersion":"PLUTUSV2","txCount":25290,"txPurposes":["SPEND"]},{"scriptHash":"acee18e799d5b4e30046e2eaad1f75fc95997dd6ec37995f02670ccd","scriptVersion":"PLUTUSV2","txCount":25289,"txPurposes":["SPEND"]},{"scriptHash":"e88f72f6b4673db78efe148b1cd90c689115ddb3d7e356a0003148cf","scriptVersion":"PLUTUSV2","txCount":25289,"txPurposes":["SPEND"]},{"scriptHash":"071bd7f4b5e059ea90e763467cf559167b21c82ef1cb5fe34fb7a9e5","scriptVersion":"PLUTUSV2","txCount":25193,"txPurposes":["SPEND"]},{"scriptHash":"6a836e8bb408ef5110a7477039a9f5fc41e55be9fc7eb5464def826b","scriptVersion":"PLUTUSV2","txCount":25192,"txPurposes":["SPEND"]},{"scriptHash":"9392bfc154f465f6788192c0176feca44c4b43318585b246712629db","scriptVersion":"PLUTUSV2","txCount":25192,"txPurposes":["SPEND"]},{"scriptHash":"1313058e934ea72e7d31d6e3f296d0e844ddf0177dab7b11244280cb","scriptVersion":"PLUTUSV2","txCount":25164,"txPurposes":["SPEND"]},{"scriptHash":"8d258b9d08dcab73f3165a11751d464b46056264091c1789da588726","scriptVersion":"PLUTUSV2","txCount":25163,"txPurposes":["SPEND"]},{"scriptHash":"a3e56ea9d2db008038ce6fb32e500faef1523dcb042e5a637d633fc8","scriptVersion":"PLUTUSV2","txCount":25163,"txPurposes":["SPEND"]},{"scriptHash":"edfff663d37fc5f9753bc4222e0da2bfe08aa48db0837d2c329adeb3","scriptVersion":"PLUTUSV2","txCount":24883,"txPurposes":["SPEND"]},{"scriptHash":"da11a50969a7f77225a9e9e2c86e43d391a69dd47f339a4fd830d165","scriptVersion":"PLUTUSV2","txCount":24179,"txPurposes":["SPEND"]},{"scriptHash":"14386d24c827f3ce74bdf6c875e548d928e12036c145ebec14f04df5","scriptVersion":"PLUTUSV2","txCount":23600,"txPurposes":["SPEND"]},{"scriptHash":"e7e8550ae1a8a3e2fa5923004662d53cfd62ed62496e4df7496c462c","scriptVersion":"PLUTUSV1","txCount":23460,"txPurposes":["SPEND"]},{"scriptHash":"2c0f418d944902f96424cbc65283a18bd16f29386a4912bda3d8f1f8","scriptVersion":"PLUTUSV1","txCount":23398,"txPurposes":["SPEND"]},{"scriptHash":"7bd80451bde142f4e9d9af436de303fb4c0aaf51d96b14a41e2e07de","scriptVersion":"PLUTUSV2","txCount":23317,"txPurposes":["SPEND"]},{"scriptHash":"73ede893f547edbd25da6953fda33caacd01f44047922bf7c5ceb951","scriptVersion":"PLUTUSV2","txCount":22907,"txPurposes":["SPEND"]},{"scriptHash":"af3d70acf4bd5b3abb319a7d75c89fb3e56eafcdd46b2e9b57a2557f","scriptVersion":"PLUTUSV2","txCount":22595,"txPurposes":["MINT"]},{"scriptHash":"6c59481b23efbdc48b5ead4f31e5a9bc73609b220f25191634b94244","scriptVersion":"PLUTUSV1","txCount":22103,"txPurposes":["SPEND"]},{"scriptHash":"42f0e3706d2e0a0761db8da21387aadabe609a7cf328d249ebc2eeff","scriptVersion":"PLUTUSV1","txCount":21886,"txPurposes":["MINT"]},{"scriptHash":"1042576d1de963437bd4bb50dcd91459756e6812b7c06dd543a332c8","scriptVersion":"PLUTUSV2","txCount":21410,"txPurposes":["SPEND"]},{"scriptHash":"ca925263da4c59bf675f3cc485c894575cfe9b2b50ae5c3a360a62cd","scriptVersion":"PLUTUSV2","txCount":20985,"txPurposes":["SPEND"]},{"scriptHash":"6a0e34af4d51828a50c6f3d4b1610381de87f95d199a143efdcb8123","scriptVersion":"PLUTUSV2","txCount":20984,"txPurposes":["SPEND"]},{"scriptHash":"5917ad9f27bb40482eac40027f9dd69898215ef4843a525c4355193b","scriptVersion":"PLUTUSV2","txCount":20984,"txPurposes":["SPEND"]},{"scriptHash":"4bc56efcd08fce705ff34bc016a644ca30b6f5cd27f56e57bdb7f899","scriptVersion":"PLUTUSV1","txCount":20401,"txPurposes":["SPEND"]},{"scriptHash":"232c10966ce4d8e67c2eae17bb57c2cf4854a57509a752fbb3c02bd1","scriptVersion":"PLUTUSV1","txCount":19609,"txPurposes":["SPEND"]},{"scriptHash":"fa3603d2283e3dadee0b5810faf590ea9da6c7fea91095657f98a9c2","scriptVersion":"PLUTUSV2","txCount":18693,"txPurposes":["SPEND"]},{"scriptHash":"73c3f85a23b2b81d7df84a9616b666b1e1c8c5fcfff6783d9c4a1a45","scriptVersion":"PLUTUSV1","txCount":18676,"txPurposes":["SPEND"]},{"scriptHash":"21ca2902ad0406bc2ce361ad91157b3542544d86d4e3d3e3c43f1763","scriptVersion":"PLUTUSV1","txCount":18117,"txPurposes":["MINT"]},{"scriptHash":"8c5a532c6332f85e6a927750e129aba954eec6ead209cd72d08f5a32","scriptVersion":"PLUTUSV2","txCount":17164,"txPurposes":["SPEND"]},{"scriptHash":"1579f32be90cf3825e7194568240dae5e0b87c7c40108ed7cdfe89f8","scriptVersion":"PLUTUSV2","txCount":17163,"txPurposes":["SPEND"]},{"scriptHash":"6bb0851fa2bf40c6729c9d5df97a4201fdea2b3ae169ad5242bfe47a","scriptVersion":"PLUTUSV2","txCount":17163,"txPurposes":["SPEND"]},{"scriptHash":"451e7db46cf0e46aacc15257b0af84510fe9da5bd7e28e4d37f31e8d","scriptVersion":"PLUTUSV2","txCount":16893,"txPurposes":["SPEND"]},{"scriptHash":"800ca266a8f29a834dc8c4a9bc507cb3d9f4cd078934ddcc8ff97823","scriptVersion":"PLUTUSV2","txCount":16878,"txPurposes":["SPEND"]},{"scriptHash":"755a2328e135e2b584f47685e86cc54c4bc8269560f71a4b6ea0e637","scriptVersion":"PLUTUSV1","txCount":16821,"txPurposes":["SPEND"]},{"scriptHash":"bbfd348839e9063b9194010cfd601cacd2de6744595975a7de977142","scriptVersion":"PLUTUSV2","txCount":16768,"txPurposes":["SPEND"]},{"scriptHash":"4aef6e0795e1f8241eb19ade6221a85d610523714e4d59d4e9095091","scriptVersion":"PLUTUSV2","txCount":16634,"txPurposes":["MINT"]},{"scriptHash":"1a9cf06cd17107f521441065eb64567f49451c83f8fed5cd6c6bdf0d","scriptVersion":"PLUTUSV2","txCount":16253,"txPurposes":["SPEND"]},{"scriptHash":"55126301921898feca9c79517d5464b7e52bc4a7e0e6110a46a27f08","scriptVersion":"PLUTUSV1","txCount":16041,"txPurposes":["SPEND"]},{"scriptHash":"d6b4febe9fb33d2d54d0a1522d79755591825011ae4859a8344b675b","scriptVersion":"PLUTUSV1","txCount":15952,"txPurposes":["SPEND"]}],"totalItems":41392,"totalPages":414,"currentPage":0,"isDataOverSize":null}