{"data":[{"no":430,"status":"IN_PROGRESS","blkCount":2919,"outSum":15787341054756449,"txCount":40631,"startTime":"2023/08/13 21:44:51","endTime":"2023/08/18 21:44:51","maxSlot":432000,"account":0},{"no":429,"status":"FINISHED","blkCount":21105,"outSum":121040973716840189,"txCount":268374,"startTime":"2023/08/08 21:44:51","endTime":"2023/08/13 21:44:51","maxSlot":432000,"account":83495},{"no":428,"status":"FINISHED","blkCount":21049,"outSum":142826819270978077,"txCount":343684,"startTime":"2023/08/03 21:44:51","endTime":"2023/08/08 21:44:51","maxSlot":432000,"rewardsDistributed":10249970628190,"account":93377},{"no":427,"status":"FINISHED","blkCount":21085,"outSum":141011344982229462,"txCount":324427,"startTime":"2023/07/29 21:44:51","endTime":"2023/08/03 21:44:51","maxSlot":432000,"rewardsDistributed":10230281991068,"account":54255},{"no":426,"status":"FINISHED","blkCount":20990,"outSum":151093339728945485,"txCount":354148,"startTime":"2023/07/24 21:44:51","endTime":"2023/07/29 21:44:51","maxSlot":432000,"rewardsDistributed":10376890303916,"account":96755},{"no":425,"status":"FINISHED","blkCount":21054,"outSum":180341413396816082,"txCount":363198,"startTime":"2023/07/19 21:44:51","endTime":"2023/07/24 21:44:51","maxSlot":432000,"rewardsDistributed":10404233377932,"account":108670},{"no":424,"status":"FINISHED","blkCount":21035,"outSum":151691098747491190,"txCount":357976,"startTime":"2023/07/14 21:44:51","endTime":"2023/07/19 21:44:51","maxSlot":432000,"rewardsDistributed":10426008390163,"account":112557},{"no":423,"status":"FINISHED","blkCount":20898,"outSum":194244728235272375,"txCount":440283,"startTime":"2023/07/09 21:44:51","endTime":"2023/07/14 21:44:51","maxSlot":432000,"rewardsDistributed":10389879744142,"account":150721},{"no":422,"status":"FINISHED","blkCount":21026,"outSum":196015338300341599,"txCount":393560,"startTime":"2023/07/04 21:44:51","endTime":"2023/07/09 21:44:51","maxSlot":432000,"rewardsDistributed":10476206793607,"account":115649},{"no":421,"status":"FINISHED","blkCount":20907,"outSum":193876500831666334,"txCount":369999,"startTime":"2023/06/29 21:44:51","endTime":"2023/07/04 21:44:51","maxSlot":432000,"rewardsDistributed":10440340383417,"account":121886},{"no":420,"status":"FINISHED","blkCount":20649,"outSum":209606012392762274,"txCount":381428,"startTime":"2023/06/24 21:44:51","endTime":"2023/06/29 21:44:51","maxSlot":432000,"rewardsDistributed":10323212520970,"account":111234},{"no":419,"status":"FINISHED","blkCount":20685,"outSum":213187909625868447,"txCount":358311,"startTime":"2023/06/19 21:44:51","endTime":"2023/06/24 21:44:51","maxSlot":432000,"rewardsDistributed":10370631960414,"account":113082},{"no":418,"status":"FINISHED","blkCount":21066,"outSum":211945372457195257,"txCount":328689,"startTime":"2023/06/14 21:44:51","endTime":"2023/06/19 21:44:51","maxSlot":432000,"rewardsDistributed":10585561511286,"account":105364},{"no":417,"status":"FINISHED","blkCount":20947,"outSum":229341415829835756,"txCount":375738,"startTime":"2023/06/09 21:44:51","endTime":"2023/06/14 21:44:51","maxSlot":432000,"rewardsDistributed":10583186126683,"account":137902},{"no":416,"status":"FINISHED","blkCount":21143,"outSum":271718768316501847,"txCount":459276,"startTime":"2023/06/04 21:44:51","endTime":"2023/06/09 21:44:51","maxSlot":432000,"rewardsDistributed":10692606919541,"account":145042},{"no":415,"status":"FINISHED","blkCount":20820,"outSum":340656360587128774,"txCount":490273,"startTime":"2023/05/30 21:44:51","endTime":"2023/06/04 21:44:51","maxSlot":432000,"rewardsDistributed":10208760561611,"account":154432},{"no":414,"status":"FINISHED","blkCount":21215,"outSum":330158448807042729,"txCount":444338,"startTime":"2023/05/25 21:44:51","endTime":"2023/05/30 21:44:51","maxSlot":432000,"rewardsDistributed":10434050592290,"account":107579},{"no":413,"status":"FINISHED","blkCount":21252,"outSum":220004855460046356,"txCount":405070,"startTime":"2023/05/20 21:44:51","endTime":"2023/05/25 21:44:51","maxSlot":432000,"rewardsDistributed":10572358977010,"account":101605},{"no":412,"status":"FINISHED","blkCount":20966,"outSum":156445485958934885,"txCount":327949,"startTime":"2023/05/15 21:44:51","endTime":"2023/05/20 21:44:51","maxSlot":432000,"rewardsDistributed":10334330798509,"account":97407},{"no":411,"status":"FINISHED","blkCount":21418,"outSum":123110712071520678,"txCount":320430,"startTime":"2023/05/10 21:44:51","endTime":"2023/05/15 21:44:51","maxSlot":432000,"rewardsDistributed":10721817741628,"account":98084}],"totalItems":431,"totalPages":22,"currentPage":0}