{"data":[{"blockNo":9159079,"slotNo":100456548,"epochNo":430,"epochSlotNo":59748,"hash":"292b60f42c86a408d2b1ec96adf314c23e149a9490733db78510100ea56c7c0b","time":"2023/08/14 14:20:39","txCount":20,"totalFees":8021588,"totalOutput":31693561738945,"slotLeader":"556e4281187cee08332ad1ed2a0e910b05e0850a2d01a1a9af848d07"},{"blockNo":9159078,"slotNo":100456508,"epochNo":430,"epochSlotNo":59708,"hash":"89f999fe8c5d2d19f847dcabbed1b217f1fefe7c4468ea34fd24bad1713e7e93","time":"2023/08/14 14:19:59","txCount":19,"totalFees":4789314,"totalOutput":37420772591,"slotLeader":"aef742cd720083790f58b8dced44b868e2496335061c2c5256b44e45"},{"blockNo":9159077,"slotNo":100456492,"epochNo":430,"epochSlotNo":59692,"hash":"8cba74b8c1eed29b06b696b26dd35d82607ab7aef65c6c8ff359ce5dcdba3f1a","time":"2023/08/14 14:19:43","txCount":21,"totalFees":10811088,"totalOutput":11695716485708,"slotLeader":"120ccc012f6b2ef1669acb15d2499cc9a226b6374184d1e322b1aa5f"},{"blockNo":9159076,"slotNo":100456463,"epochNo":430,"epochSlotNo":59663,"hash":"fba6cdc107074f63c70298113aad0e1d5a6869e31fbe9f6fcfeb8c1dbb271e3e","time":"2023/08/14 14:19:14","txCount":58,"totalFees":17290100,"totalOutput":34095688236596,"slotLeader":"c01546efeba17d531d60447356fc4c19b29c632aeac3377d21f75b4e"},{"blockNo":9159075,"slotNo":100456431,"epochNo":430,"epochSlotNo":59631,"hash":"c1d71f5148b731b332d55ba2c7964fa7cf6a36810d884c2e181ca6faa63d0c17","time":"2023/08/14 14:18:42","txCount":56,"totalFees":15201123,"totalOutput":6312263176317,"slotLeader":"660f20fb9d419173ac623786ad3e6dc11a23951981e0e83e98233d29"},{"blockNo":9159074,"slotNo":100456255,"epochNo":430,"epochSlotNo":59455,"hash":"8bb8b59037e447a63c5689126ab19645d48cfd4eb1373b4f4150bfdd54d14593","time":"2023/08/14 14:15:46","txCount":25,"totalFees":9995296,"totalOutput":3988552505093,"slotLeader":"62c337b473a2e2548ed3cb76002a56bc1305bad95c26c6efd89085af"},{"blockNo":9159073,"slotNo":100456222,"epochNo":430,"epochSlotNo":59422,"hash":"7b866cb933f7cc06598dbef0ba1061e7cef5017ea9dee904b3d3c30c67f892b8","time":"2023/08/14 14:15:13","txCount":0,"totalFees":0,"totalOutput":0,"slotLeader":"b3cdd3bbf09af72badca85e515c0206d6d22038e2af843521e10a928"},{"blockNo":9159072,"slotNo":100456221,"epochNo":430,"epochSlotNo":59421,"hash":"5de1c8e7e68ce46e395998321982b20af453ba1c4464269027b591d832c11462","time":"2023/08/14 14:15:12","txCount":14,"totalFees":3672535,"totalOutput":265149324285,"slotLeader":"bbbe8bd9d3942563c7cf02e2d605516fb8376e3a49689d9b028cc2ab"},{"blockNo":9159071,"slotNo":100456200,"epochNo":430,"epochSlotNo":59400,"hash":"48a18daf9fc1f3d76a64af724bfb2a929d3d77bc156c0d904351264ecccf57f8","time":"2023/08/14 14:14:51","txCount":3,"totalFees":1194086,"totalOutput":2426056363959,"slotLeader":"a532904ca60e13e88437b58e7c6ff66b8d5e7ec8d3f4b9e4be7820ec"},{"blockNo":9159070,"slotNo":100456195,"epochNo":430,"epochSlotNo":59395,"hash":"08a70141939011263ef6a089456c02343be1723fba3eb94a86f25d6ce9d3bd98","time":"2023/08/14 14:14:46","txCount":23,"totalFees":7968130,"totalOutput":54475350974364,"slotLeader":"9a22c008779c455a124d86191047d35690a0ca2c094a34d90cd29542"},{"blockNo":9159069,"slotNo":100456168,"epochNo":430,"epochSlotNo":59368,"hash":"54bd282c71d52cc26e547539677e8e649b838fa6409c4530c0fde38b1ffa4c21","time":"2023/08/14 14:14:19","txCount":30,"totalFees":10356189,"totalOutput":9706562939942,"slotLeader":"566ebd3406088123f8dcc99630f122520db5d479e661c72b43571627"},{"blockNo":9159068,"slotNo":100456136,"epochNo":430,"epochSlotNo":59336,"hash":"9f8548cc218527e55d1151b2dd2baf21238bab46e1f457a5d4fcb3d6dce703f9","time":"2023/08/14 14:13:47","txCount":36,"totalFees":12784414,"totalOutput":35946452951943,"slotLeader":"e6ac159ee8063742eadcb48be45f29d9a67b4158439070032f42d10c"},{"blockNo":9159067,"slotNo":100456098,"epochNo":430,"epochSlotNo":59298,"hash":"906555d53da15c2fe7a8fc987704ecbea0a229991ff977a18cac17137988d26a","time":"2023/08/14 14:13:09","txCount":54,"totalFees":14619936,"totalOutput":48702804589817,"slotLeader":"34eb602eb435e3c6a4feb6d766a44735ca09e963f82098973c85951e"},{"blockNo":9159066,"slotNo":100455997,"epochNo":430,"epochSlotNo":59197,"hash":"6dfed779ea589244910bb5045256fe3ee4ac2f05884b45b38666c84abf4137d4","time":"2023/08/14 14:11:28","txCount":23,"totalFees":5390947,"totalOutput":2117429823078,"slotLeader":"446109cdad3e7dfc6e0bb4be5ecf25df02fcc2ec8f6df46a3ca2c537"},{"blockNo":9159065,"slotNo":100455954,"epochNo":430,"epochSlotNo":59154,"hash":"f04e4147afe327b3daa8c0814a7fcab72e3c89a3eac7767a34558523937b1894","time":"2023/08/14 14:10:45","txCount":16,"totalFees":5655377,"totalOutput":231161292519,"slotLeader":"fb21d3e5ed7684742936778239a7bed2bcee1292964ddeb716d3a903"},{"blockNo":9159064,"slotNo":100455928,"epochNo":430,"epochSlotNo":59128,"hash":"81be28e07bbcd0e2a0507a085357c7fc0d6f45707949d2a3e75c408ae637e56b","time":"2023/08/14 14:10:19","txCount":1,"totalFees":259907,"totalOutput":17469864503,"slotLeader":"df1750df9b2df285fcfb50f4740657a18ee3af42727d410c37b86207"},{"blockNo":9159063,"slotNo":100455926,"epochNo":430,"epochSlotNo":59126,"hash":"85d3163ea59fcaa28d6b8a70c4ae7e04f813780a51b23addcc6c407d4b40ac0c","time":"2023/08/14 14:10:17","txCount":3,"totalFees":667144,"totalOutput":6531225831,"slotLeader":"5cfc3c3314ffe6748ff3a4ca34b4b841ed81caacfee24c341c21a905"},{"blockNo":9159062,"slotNo":100455922,"epochNo":430,"epochSlotNo":59122,"hash":"a74e0ded777289575f9d0e9c47ec5bf3a40f7eb867028c951f98664863772551","time":"2023/08/14 14:10:13","txCount":0,"totalFees":0,"totalOutput":0,"slotLeader":"c2c52eab0d713209b337d8ff8fe28e1ccae2f70eb7ed1ee27e8c866a"},{"blockNo":9159061,"slotNo":100455920,"epochNo":430,"epochSlotNo":59120,"hash":"0085b7009953953218219efea07e171e20b8fcacfdafeb5d1116df39b5c78038","time":"2023/08/14 14:10:11","txCount":11,"totalFees":2299537,"totalOutput":10577685695882,"slotLeader":"c83beb18d532234c72a304ab935982be670c22e771b227a3febc3a82"},{"blockNo":9159060,"slotNo":100455911,"epochNo":430,"epochSlotNo":59111,"hash":"16d37ab60c21af64a08fc84c04d4163eb8964ed243d2af42136f101c891e1ed8","time":"2023/08/14 14:10:02","txCount":0,"totalFees":0,"totalOutput":0,"slotLeader":"fa610fe0a56f4f2bca9d08b0b84d3bf6ad2c6a6d263579927d462473"}],"totalItems":9159255,"totalPages":457963,"currentPage":0}