{"data":[{"txId":62497360,"txHash":"3ff2feb2937a7217be66d3d099ff9592e6d1cbf8e82487ad31c589288e833053","txTime":"2023/02/22 08:12:49","block":8430734,"epoch":395,"slotNo":85487278,"epochSlotNo":210478,"stakeKey":"stake1u9wkzrf32mrk0wmqlr4r4szzy4qz9wspdurgpn97rp95e7q30xam8"},{"txId":62497192,"txHash":"a0fbe4d78fbc8433f3fadbe957b64357809996d2adbaf063fbc540c029c7a5c6","txTime":"2023/02/22 08:06:38","block":8430714,"epoch":395,"slotNo":85486907,"epochSlotNo":210107,"stakeKey":"stake1u8sq42qpawzzc8ezht5x49ufscg2kf4cprf4luzwn6x74lqj5ghr2"},{"txId":62497020,"txHash":"fc65b8cf4e6eeb8b5ad4aebb6c1a1ea75b5d2f0344d6a5cbe2f0edb9821416ff","txTime":"2023/02/22 08:00:03","block":8430699,"epoch":395,"slotNo":85486512,"epochSlotNo":209712,"stakeKey":"stake1uxtegdwfj9a8lq5xfh7lmw6hkkyyyam4cfsla45ksd292dghewhck"},{"txId":62496907,"txHash":"bd4d3c6ded5a59075f3e73eb3f6fedaa340c57ed1d15fa9e9589c739bfd28fe2","txTime":"2023/02/22 07:55:11","block":8430689,"epoch":395,"slotNo":85486220,"epochSlotNo":209420,"stakeKey":"stake1u8um3f9yguvf0lqrhlqnuyvey33c2rf39sknju6tja93aucjlu5n4"},{"txId":62496832,"txHash":"d612375315dfc203250e4bf537192be0615834a939b9df5985fb50423cff71a6","txTime":"2023/02/22 07:52:30","block":8430679,"epoch":395,"slotNo":85486059,"epochSlotNo":209259,"stakeKey":"stake1ux8c3rhg6xv6w72mnlpnnkh4am8npthuknmmz5hfpqy6t3sv6h3de"},{"txId":62496566,"txHash":"3b9d6c9438548ca5be1614893581fc386a491caa5d8d964094b256971f4c7739","txTime":"2023/02/22 07:41:21","block":8430643,"epoch":395,"slotNo":85485390,"epochSlotNo":208590,"stakeKey":"stake1u8475kfnt6k3r822yjy0wg05l0ld4nvwezr5frh8jkdga8sk2et96"},{"txId":62496539,"txHash":"59b4a6dafa224a9aafdc6e8240447dc15a1949344122ae67bb192f987e6c4fb4","txTime":"2023/02/22 07:40:13","block":8430640,"epoch":395,"slotNo":85485322,"epochSlotNo":208522,"stakeKey":"stake1u8858uy852vwt9sxdvtg2476hkfx92y466p45hvdfj4xdxs9ers57"},{"txId":62496392,"txHash":"0ac08d05657029bdf5a20a2ed828292644f64202806f78211ea375d46bddad2d","txTime":"2023/02/22 07:35:48","block":8430624,"epoch":395,"slotNo":85485057,"epochSlotNo":208257,"stakeKey":"stake1u8h9m4ad6wzrz9jn86a43gfcvtua63vgzye7srcmj3mdxzc3ns65v"},{"txId":62496337,"txHash":"26c6c11d3ee2284f71b850b213e8ef054b6a7cbe2cd09b62b69a1554670e117c","txTime":"2023/02/22 07:32:33","block":8430614,"epoch":395,"slotNo":85484862,"epochSlotNo":208062,"stakeKey":"stake1uy730pxx352nrdddhck8ck4gucuqz7ujjg2sdvc3lxrrpys8m8ewp"},{"txId":62496313,"txHash":"169b2fa16d612b2a18752de27d2b29bb4b1599294575a06b0be16491142b7291","txTime":"2023/02/22 07:31:34","block":8430609,"epoch":395,"slotNo":85484803,"epochSlotNo":208003,"stakeKey":"stake1u9sxd2t2mumy87fp3yq9envf8zkksfxq6yyjaey784ttxac5dx2dk"},{"txId":62496302,"txHash":"5bc7fedab322df08b36b005f2402ff9d7d9c8fdf879cbd37144a701c96c23f9d","txTime":"2023/02/22 07:31:34","block":8430609,"epoch":395,"slotNo":85484803,"epochSlotNo":208003,"stakeKey":"stake1uxg3wl6qluhkh0wmxw70nl999jj8s6e8whc69jvzyccnevszrlra5"},{"txId":62496281,"txHash":"e7f17e08e869b5107fdd8192278df801af2cf11d36a492531010138857390c7f","txTime":"2023/02/22 07:30:47","block":8430608,"epoch":395,"slotNo":85484756,"epochSlotNo":207956,"stakeKey":"stake1u92ncgc7khrrrfj7uazu35pfhlzunzd5djk533esfwz5w7q3z663t"},{"txId":62496187,"txHash":"df4208d95e97831f68e23448aab7e20b8c6e98ef2675871f6782bf70616ceaba","txTime":"2023/02/22 07:27:44","block":8430602,"epoch":395,"slotNo":85484573,"epochSlotNo":207773,"stakeKey":"stake1uydd4m7gmpvr63swpd5mlhw7w289yw8ht96ufmmk4d4wsxg6szpul"},{"txId":62496169,"txHash":"de9898240442ad3352b5d9119e7367c199d7ae30d76a2175a2cb9908a297c7a6","txTime":"2023/02/22 07:27:44","block":8430602,"epoch":395,"slotNo":85484573,"epochSlotNo":207773,"stakeKey":"stake1uyvud5ct3g0ylph5as7kafdyz2ypz9fhu8zej7uqaksxqqc3wqkkz"},{"txId":62495934,"txHash":"831ed1a2f34ed4cf7dbfe1f141df992f286b3b440df3acf4a51c33cd7588daf7","txTime":"2023/02/22 07:19:37","block":8430581,"epoch":395,"slotNo":85484086,"epochSlotNo":207286,"stakeKey":"stake1uxwjgyngzc8lpysnlpxr0hg5ak327jhkl0snxhej72lyfpsv3jqk3"},{"txId":62495826,"txHash":"aa2c469a24b8be3d84b205855d2f7265ffa6a3a32aa99bff4ede26d5a5579ee2","txTime":"2023/02/22 07:15:22","block":8430570,"epoch":395,"slotNo":85483831,"epochSlotNo":207031,"stakeKey":"stake1uxgfxyndust2mw09z6h2ssd02saluxxxq8ph3hk607jjwws73m7f9"},{"txId":62495796,"txHash":"4a750bce0091b1578896c721d0adf98c9fa5dd080fb272f7ca550cf21ad378fa","txTime":"2023/02/22 07:14:21","block":8430565,"epoch":395,"slotNo":85483770,"epochSlotNo":206970,"stakeKey":"stake1uyn8c5p8ru8gupa8wek6lwdwypkhzfm2k70jas82h9utjrct6cnnx"},{"txId":62495616,"txHash":"524a7d19452f9e2b60c66dad83e337d2be32578645e8e597fdf0e8e0236a5ac3","txTime":"2023/02/22 07:07:05","block":8430548,"epoch":395,"slotNo":85483334,"epochSlotNo":206534,"stakeKey":"stake1u8mrnmvrayqpw9nqc95d4qhty7cca8v0akq09upvtwmp40genhe8y"},{"txId":62495592,"txHash":"9954ab37f8ec873763400eafe9213b3c7a0339017588c9dc5de2f467f11a092f","txTime":"2023/02/22 07:06:05","block":8430545,"epoch":395,"slotNo":85483274,"epochSlotNo":206474,"stakeKey":"stake1u8ruuzyn2fapdqpmmszdzmyeynjw0mzjzuak7fluwhp4rhgahtchr"},{"txId":62495506,"txHash":"248cdf159429fd427a4c927c2af574cd9ad6d3c0681ba492cc0fbcae147b9efc","txTime":"2023/02/22 07:02:09","block":8430531,"epoch":395,"slotNo":85483038,"epochSlotNo":206238,"stakeKey":"stake1uy0eazmdzx4382yamj853lfe4n9fas8sdrtm0xyjg4dg5astj0ysn"}],"totalItems":1669886,"totalPages":83495,"currentPage":0}