{"data":[{"txId":61478057,"txHash":"07ac92e0891c68e2c129bde0b9ae7da793e73d5724f676b1d5416e91a9dc8e49","txTime":"2023/02/07 02:04:38","block":8367675,"epoch":392,"slotNo":84169187,"epochSlotNo":188387,"stakeKey":"stake1u8pgzvrqpxjwnuh4p6xhln28qdgf7lvkp3s8pjp2ngpyasg09uy0d"},{"txId":61477943,"txHash":"c778d31c05f46894fb249e2b2a6d8a37fff3eca6af7589ca4555541b94c6dbab","txTime":"2023/02/07 02:01:58","block":8367667,"epoch":392,"slotNo":84169027,"epochSlotNo":188227,"stakeKey":"stake1uxsygv9r5ftx6vqm2t007c6hzjjpf6gnr490lzg7lmyp6ngd28mr5"},{"txId":61477921,"txHash":"5ec0c557dbd465f1f7e867ffcea0a615e823f0b986876f8b33e1f2fc86f77f3a","txTime":"2023/02/07 02:01:30","block":8367665,"epoch":392,"slotNo":84168999,"epochSlotNo":188199,"stakeKey":"stake1uyujc392esw4y4dv224uhw0scl7m80ge874u577u0va5gpq0lxru7"},{"txId":61477870,"txHash":"1ac5ad72adc51123e9fd6e977347787edd1601f21c7f72a381ad35a235fabd35","txTime":"2023/02/07 02:00:43","block":8367660,"epoch":392,"slotNo":84168952,"epochSlotNo":188152,"stakeKey":"stake1uxmvcjdu3tdze54dc4nv5su8dh5xjjvvfz3ldws0f5jq44qeau3fr"},{"txId":61477619,"txHash":"0c9846c595d644ec6ff1eb5fbc4a3b30f1b4262c8ec5088f78070813f70c42d6","txTime":"2023/02/07 01:56:22","block":8367650,"epoch":392,"slotNo":84168691,"epochSlotNo":187891,"stakeKey":"stake1u97sy8usydf46d64mz0sykw4lpvdvg5wf5swmrz83gddy6g7wwuc0"},{"txId":61477134,"txHash":"b036bebf81125f42296e29705c0fa5df5ef6a992f2bbca877855c7ee0c9a7bd6","txTime":"2023/02/07 01:46:13","block":8367627,"epoch":392,"slotNo":84168082,"epochSlotNo":187282,"stakeKey":"stake1uyt5guduzqdgs8dgu5zqywcnlrxf72uphzuy0vxx4wyql7sgpdh7c"},{"txId":61476984,"txHash":"b5891290a4e1f10eb8dd50239cb305062f6afb956145809323e24a4c2a136c46","txTime":"2023/02/07 01:42:36","block":8367612,"epoch":392,"slotNo":84167865,"epochSlotNo":187065,"stakeKey":"stake1uxuu6gpjqmhzsrdwkz9ngm0qwseeenhnukekl3k0ddwt5mquvnsm3"},{"txId":61476947,"txHash":"a779150e0963cd40a9461d9251aa61433cb877cb1aab3b41bbbce3c4de629b71","txTime":"2023/02/07 01:42:03","block":8367609,"epoch":392,"slotNo":84167832,"epochSlotNo":187032,"stakeKey":"stake1uymrt4p9rw3643a0g4dtgkemlnlqw6fx7hq9gz3ezdmdqnglfjx5g"},{"txId":61476832,"txHash":"86c6b73726e3bebbc677e2c549a3e60ab8ccf35114496854ee772eae45f2b0f0","txTime":"2023/02/07 01:40:13","block":8367600,"epoch":392,"slotNo":84167722,"epochSlotNo":186922,"stakeKey":"stake1uxazkehxukeu4ytfglxq94y5vqtf7c53as2kwshpy4ukkzskutal3"},{"txId":61476236,"txHash":"54e3879da32071a07c8a8068482a1179c4446e53d118a2ad04ac64571471ceb0","txTime":"2023/02/07 01:28:21","block":8367563,"epoch":392,"slotNo":84167010,"epochSlotNo":186210,"stakeKey":"stake1uyec0lnh8q5tpzpqlu5v235hu49k2pq747m2mwrs5nyfw3s6txkaf"},{"txId":61476169,"txHash":"bc6c8aebc10cc91bdb494cc6f0f33cf27eabaff7aa86b8e5dd11ff3727dbe603","txTime":"2023/02/07 01:26:30","block":8367557,"epoch":392,"slotNo":84166899,"epochSlotNo":186099,"stakeKey":"stake1uyy92r3elg545nr370un25ej683deh8jquascwyk2p4j5mgae6qc9"},{"txId":61475557,"txHash":"21133e93d144e503cf7f8f6661b44f2926d1a3b1c41a1179651114a9b015a638","txTime":"2023/02/07 01:14:49","block":8367529,"epoch":392,"slotNo":84166198,"epochSlotNo":185398,"stakeKey":"stake1uyc95uq6l4prkc46aju80cvyq03dpx95mqgfa6zvfehmhxqughqe5"},{"txId":61475554,"txHash":"3330b7e258f65ef8a6e3f8307579388be0bbbe5742c9ce537514291ceb72971b","txTime":"2023/02/07 01:14:49","block":8367529,"epoch":392,"slotNo":84166198,"epochSlotNo":185398,"stakeKey":"stake1ux3tkhun8zk245axa7jm2u46wx664gtgvl0cnxv9hrx745gfmt76f"},{"txId":61475255,"txHash":"8ffe691c30be40235d4688eeaf7e86d83647ada8584fcdf38b00ea93525f4b8b","txTime":"2023/02/07 01:07:49","block":8367510,"epoch":392,"slotNo":84165778,"epochSlotNo":184978,"stakeKey":"stake1u99nf5wp09cngucmt6yyh6xz7ew8knydvtfsjgyluq8mk5cg9v4dt"},{"txId":61475232,"txHash":"a1744db6d90879fbd234fbd98863b069cf96470ccb9973aac393791ac16f87a6","txTime":"2023/02/07 01:07:21","block":8367509,"epoch":392,"slotNo":84165750,"epochSlotNo":184950,"stakeKey":"stake1u9g59crdup60mrkfv0m6g2xmve37mapky40x63hcudxxcqswyjkyq"},{"txId":61474848,"txHash":"965035d3d172e90a774a69720edf7b2e0deb80f1f43224736cf13eca60949afd","txTime":"2023/02/07 00:59:59","block":8367484,"epoch":392,"slotNo":84165308,"epochSlotNo":184508,"stakeKey":"stake1uyu8xxwzlfj05pvcgj99e5hn7raruj5kr2jhl7en7jh556q80axs2"},{"txId":61474421,"txHash":"c9a05d2036fddb359af3af10e56cd2a876c5a7981dd572ea5748eb83214f6426","txTime":"2023/02/07 00:51:59","block":8367464,"epoch":392,"slotNo":84164828,"epochSlotNo":184028,"stakeKey":"stake1u9qcugw4azlgshpj25zcmetuvz2c0z32ay779swejcdqtac6mx0dl"},{"txId":61473786,"txHash":"aac4d40015c0984222ca182af813a9e907bfbe2068f6c69ef847fd1e4b164fef","txTime":"2023/02/07 00:40:23","block":8367420,"epoch":392,"slotNo":84164132,"epochSlotNo":183332,"stakeKey":"stake1u8u3j9jv9ak47yukpsk0v0pvtemhzmv5qmumx98sxv4zz8c3q9qsj"},{"txId":61473783,"txHash":"572a3a5ba53ae86d87525719f63d665f1008d798d0d307bb66585d2f26f7b5c8","txTime":"2023/02/07 00:40:23","block":8367420,"epoch":392,"slotNo":84164132,"epochSlotNo":183332,"stakeKey":"stake1ux9mcweuusya7kggkqpqytsx8k60rjxytae8zk82r8phqdq7t65nz"},{"txId":61473757,"txHash":"069cde199ad349dd3fd6df7fc49fc1d69f961794888a1c0d15bc9f9e33e24b87","txTime":"2023/02/07 00:40:13","block":8367419,"epoch":392,"slotNo":84164122,"epochSlotNo":183322,"stakeKey":"stake1uxnvqzffq7dy7sw27syht0gdarcqdz2cn5rfq3vzj45vsvsfgudef"}],"totalItems":1659793,"totalPages":82990,"currentPage":0}