{"data":[{"blockNo":7956632,"slotNo":75702702,"epochNo":372,"epochSlotNo":361902,"hash":"b1396e3c08254dedf1ec955314d4bc0579b97da15eab6fb7600a4bc616cfa0ed","time":"2022/11/01 02:16:33","txCount":9,"totalFees":3364892,"totalOutput":3554980724,"slotLeader":"a0fc643d831b144e1dd289f5acf4274aedc331b6a0e4257ef5376520"},{"blockNo":7956631,"slotNo":75702692,"epochNo":372,"epochSlotNo":361892,"hash":"5defd2b47b39137e8e9ac7e55a86ddd7e3671c3f09b88c1d9ae9a430800ab232","time":"2022/11/01 02:16:23","txCount":24,"totalFees":8888408,"totalOutput":888365954639,"slotLeader":"dd47ad6a8fe21ca342e28a163cb74e69b13d519538de3d06ac26aad2"},{"blockNo":7956630,"slotNo":75702672,"epochNo":372,"epochSlotNo":361872,"hash":"65238e614ed82e9ee2c4ce1ede8aa63fac2a618ce2559a783c7065882ffa9f11","time":"2022/11/01 02:16:03","txCount":15,"totalFees":4396680,"totalOutput":255250936747,"slotLeader":"a374a14d2fa809b5e999a474b5d085b10be2fc95e6e82da045d9e8f6"},{"blockNo":7956629,"slotNo":75702659,"epochNo":372,"epochSlotNo":361859,"hash":"4785dc02ef79292858cbc88cc32a7f82c07c0c40f9e99ffa5d7889108604f91a","time":"2022/11/01 02:15:50","txCount":1,"totalFees":193881,"totalOutput":7771097,"slotLeader":"2bf5a031b46b34c07937a769ff6f82b6a78a25c71022eaaf1f20eec9"},{"blockNo":7956628,"slotNo":75702658,"epochNo":372,"epochSlotNo":361858,"hash":"ce8a971046ae5e415031a4af4d3a4a45017e1d8189eacfea5845c0507bde2a5c","time":"2022/11/01 02:15:49","txCount":14,"totalFees":6073009,"totalOutput":89178456409,"slotLeader":"62d31aef92824633bb3041e6cdcf81b7a611792a3f9d7fad8a476aec"},{"blockNo":7956627,"slotNo":75702638,"epochNo":372,"epochSlotNo":361838,"hash":"b6b616727d51b8efee56f7bbde3e8cbf0318089cba4f7bcde87d0de3e4efe9bc","time":"2022/11/01 02:15:29","txCount":2,"totalFees":528639,"totalOutput":29264093,"slotLeader":"163cc36624d9332f6ae7770e8df8b8bad7e71711eb6c2ed7971c99d4"},{"blockNo":7956626,"slotNo":75702634,"epochNo":372,"epochSlotNo":361834,"hash":"bfdd9a811d1eb5761a28b9f8de206ddd1de6c94f9ee771ac10e87cc3df057c91","time":"2022/11/01 02:15:25","txCount":4,"totalFees":780628,"totalOutput":1182596678,"slotLeader":"263498e010c7a49bbfd7c4e1aab29809fca7ed993f9e14192a75871e"},{"blockNo":7956625,"slotNo":75702632,"epochNo":372,"epochSlotNo":361832,"hash":"4e9002894d1f4d767088e147cdce1883f288e0362093ffec28d7305684b33fcb","time":"2022/11/01 02:15:23","txCount":8,"totalFees":3983225,"totalOutput":1672124561973,"slotLeader":"89f7ebe5936075aae36b1f7f2e1e9e5d2decd5230cfb962d01e12c84"},{"blockNo":7956624,"slotNo":75702625,"epochNo":372,"epochSlotNo":361825,"hash":"9a3863a513d1ac5be49cf96f6011b9c4ac91b6168b443a4aa2d1d4786a331fe0","time":"2022/11/01 02:15:16","txCount":8,"totalFees":2602476,"totalOutput":2969461390,"slotLeader":"7e00129d906afbba06a6b279fcf6e4295986a1104b7f5c4046c653bc"},{"blockNo":7956623,"slotNo":75702618,"epochNo":372,"epochSlotNo":361818,"hash":"02fa79139d84d88001882e89f35c24a0cb5e39f06470da82d9eb939bc7b0debb","time":"2022/11/01 02:15:09","txCount":16,"totalFees":4270759,"totalOutput":321621284434,"slotLeader":"8a8e0fa9953e6a02c73bf9c7471c08c20e4067cccb4afff6201cb6ef"},{"blockNo":7956622,"slotNo":75702599,"epochNo":372,"epochSlotNo":361799,"hash":"dbd396ffd97cadb9a43a34ca468f57f2fb6540fd0aaf8cd34e7488ab5d29b023","time":"2022/11/01 02:14:50","txCount":7,"totalFees":2111926,"totalOutput":3632318237,"slotLeader":"3a203ec1a8bae5098be953c3759e9fae42eea3d5714293500c6b3013"},{"blockNo":7956621,"slotNo":75702594,"epochNo":372,"epochSlotNo":361794,"hash":"01c6a28b824d57021ed95346d89f3dc5f0a2ca2c1b3be7fb82e17e10dd1201b2","time":"2022/11/01 02:14:45","txCount":19,"totalFees":6381780,"totalOutput":1807986582566,"slotLeader":"e2c17915148f698723cb234f3cd89e9325f40b89af9fd6e1f9d1701a"},{"blockNo":7956620,"slotNo":75702576,"epochNo":372,"epochSlotNo":361776,"hash":"e056ee38b8d430c56f48e020fea143564f411158a576a84fec9ba903ea6f4b38","time":"2022/11/01 02:14:27","txCount":45,"totalFees":14276719,"totalOutput":869198045525,"slotLeader":"bbebbbf81c42de5b84fbbc82c4feab78f8bd8bcf8b5af7c73a06664a"},{"blockNo":7956619,"slotNo":75702527,"epochNo":372,"epochSlotNo":361727,"hash":"4d6ac1487717034590000f7ffcfbf8c6c4ec1d33dc7a838d2b0ed970238e0053","time":"2022/11/01 02:13:38","txCount":30,"totalFees":9970306,"totalOutput":865951085367,"slotLeader":"9e734b6c2263c0917bfc550e9c949f41afa3fe000377243bd29df399"},{"blockNo":7956618,"slotNo":75702512,"epochNo":372,"epochSlotNo":361712,"hash":"a2bca08227140e3bb98938b5ff80b8d76311e0c4c2a35db1315463fafa38017f","time":"2022/11/01 02:13:23","txCount":37,"totalFees":12453520,"totalOutput":3029523141821,"slotLeader":"f619a10b7ccea6167c5f169634e834b57739c2db892185f2efa9f1eb"},{"blockNo":7956617,"slotNo":75702474,"epochNo":372,"epochSlotNo":361674,"hash":"26d267c307a134a1926808e406c3dc54b8adada19c275404e3a250254f40f0b6","time":"2022/11/01 02:12:45","txCount":1,"totalFees":256229,"totalOutput":94249899505,"slotLeader":"28cf6c6c01ecbfbd5e807fd879132f07b2c6f0712b930442a229d380"},{"blockNo":7956616,"slotNo":75702472,"epochNo":372,"epochSlotNo":361672,"hash":"34f302e6a4383e743d73f36b7e043c6c89ba93b01c854d936667113308149995","time":"2022/11/01 02:12:43","txCount":10,"totalFees":3322368,"totalOutput":5974726945350,"slotLeader":"96840eba5a4d0ff0d42f7ad5ac83343a0c6a87b1c71bf106cc544855"},{"blockNo":7956615,"slotNo":75702462,"epochNo":372,"epochSlotNo":361662,"hash":"9d0d4e7cf7b1d901b02577657c6d860e36d116cb8dc31f79f780c6f67eab889c","time":"2022/11/01 02:12:33","txCount":31,"totalFees":8954316,"totalOutput":28505718077,"slotLeader":"2f09336a66c36d0df40dc42f2454fe4f4311c23d312e3683be434081"},{"blockNo":7956614,"slotNo":75702460,"epochNo":372,"epochSlotNo":361660,"hash":"b128530107ecc20362e54d5cd95c85a348a9cbc5aefc14e6510a41777a998c67","time":"2022/11/01 02:12:31","txCount":49,"totalFees":15400460,"totalOutput":2671270903066,"slotLeader":"153806dbcd134ddee69a8c5204e38ac80448f62342f8c23cfe4b7edf"},{"blockNo":7956613,"slotNo":75702377,"epochNo":372,"epochSlotNo":361577,"hash":"1fb64368402974e2d1201cf0e74107f77155eb1eeb7f98d49b41933fe41c3f8c","time":"2022/11/01 02:11:08","txCount":14,"totalFees":4636255,"totalOutput":1332262976,"slotLeader":"9f1bd8718fffe41cbd70761991819fbbd9552b4c44c30e1a6fc96766"}],"totalItems":7956808,"totalPages":397841,"currentPage":0}