{"data":[{"txId":62100925,"txHash":"83f920a06cef48e165d2239295cb5e6770f84688904f37bd3f07c0090d05527c","txTime":"2023/02/15 18:56:42","block":8403721,"epoch":394,"slotNo":84921111,"epochSlotNo":76311,"stakeKey":"stake1u9mptke4nchjnkrcrqluyuvex3vda30w9hl8c4vmj38wfsquhf4pg"},{"txId":62100694,"txHash":"262f3016ca32830517cde8faf4d2ba23971bc77784a8bb378dabbcac9945860c","txTime":"2023/02/15 18:52:11","block":8403711,"epoch":394,"slotNo":84920840,"epochSlotNo":76040,"stakeKey":"stake1u9phz0hn95hnjctq55tnxn5nn7dxjd90dehrwsd2vl0fr2q0q8f9u"},{"txId":62100604,"txHash":"add784981aa645789c23761bcef5608933cbb8bb545c9d974b88afc8e5a4b118","txTime":"2023/02/15 18:50:34","block":8403706,"epoch":394,"slotNo":84920743,"epochSlotNo":75943,"stakeKey":"stake1u9z2cwzxzwkn78y4hp602vzhvp7rfq2rhjhxazmnhlaa89q34386n"},{"txId":62100520,"txHash":"c973e20902609782de16c3bedb4c5b843d8ba0d2b2693ccb851df5a6802e205a","txTime":"2023/02/15 18:48:45","block":8403704,"epoch":394,"slotNo":84920634,"epochSlotNo":75834,"stakeKey":"stake1ux7zdxjztvu2uufxt5fdet8a03qkhydd46jwmf45m4nqr0gltwdnl"},{"txId":62099636,"txHash":"8474682dd11e33c3c7bbd2448863a1fe60f4745d7617f938e6088866d268d410","txTime":"2023/02/15 18:32:45","block":8403667,"epoch":394,"slotNo":84919674,"epochSlotNo":74874,"stakeKey":"stake1uyutzvx0hlfucpmqqgud6qwepdlzqr27t6ku0u05krklzgcv0wst8"},{"txId":62099478,"txHash":"b163cb946a5cb25c51d36a1d2ca07a8086943bfbba2853cbfde16ead67c83da0","txTime":"2023/02/15 18:29:21","block":8403660,"epoch":394,"slotNo":84919470,"epochSlotNo":74670,"stakeKey":"stake1u82vc2erzpn7k8jy8ru6j8mqhesqk86z3l0zysdyfy9d52s8k4zwa"},{"txId":62099101,"txHash":"8baf45f40ebb5be98cf0f30a5644909dc457f13ab340cf15c44cf40d4cad3862","txTime":"2023/02/15 18:21:39","block":8403636,"epoch":394,"slotNo":84919008,"epochSlotNo":74208,"stakeKey":"stake1uxwzf4wkluke0wnawa47tzlk2huz2cyxrg5ld36eseamuqs3zdgxp"},{"txId":62098713,"txHash":"d3766c5d0079d6db2d62bff8d1fbec7eccad537cda536187d51850784fe06a0e","txTime":"2023/02/15 18:14:18","block":8403619,"epoch":394,"slotNo":84918567,"epochSlotNo":73767,"stakeKey":"stake1u879pyf2cl3cl3dp8mvqd209w44wsnk802xtjhrp6lt456q75q9a4"},{"txId":62098280,"txHash":"eea389e8bbeba19d4c4594ad86c54e6c0c29f32979dd870000999909ddbf652a","txTime":"2023/02/15 18:05:09","block":8403596,"epoch":394,"slotNo":84918018,"epochSlotNo":73218,"stakeKey":"stake1uyeq9wafd0kk6dfupfr5j5xuwyd3gmr9asmq428cqmw5u2s2njfuh"},{"txId":62098160,"txHash":"5d43e66db85970741f24dde398ec3ae26c36a16a333884fdfacfa22a7f99831e","txTime":"2023/02/15 18:01:49","block":8403585,"epoch":394,"slotNo":84917818,"epochSlotNo":73018,"stakeKey":"stake1u8tcn5c00pu7cajc7snsc2uekk4ek0wg9gyv7k70w9gqfvcdg9te8"},{"txId":62097947,"txHash":"1b318d7d19d10174b194e1a79019569e50c22223e5b237f0f6e32917e719739e","txTime":"2023/02/15 17:57:24","block":8403570,"epoch":394,"slotNo":84917553,"epochSlotNo":72753,"stakeKey":"stake1uxayxvdqe0guvp23jffhyhclt5ur3cmjhaa65vkkfkwt02gaky0d5"},{"txId":62097926,"txHash":"06effa1811732d2ecb6501d46a8b873ab43bdde8f25c7b0e2c5fa49d14a59864","txTime":"2023/02/15 17:56:53","block":8403569,"epoch":394,"slotNo":84917522,"epochSlotNo":72722,"stakeKey":"stake1u89my03xm76nkw0066l7d0wn4asu039hj3fvfvncdemrasgl3fjkv"},{"txId":62097493,"txHash":"80876e76bef4f9036d69f6136272a31c6e55044ba9da0bb4d2d018abdde886c9","txTime":"2023/02/15 17:49:13","block":8403545,"epoch":394,"slotNo":84917062,"epochSlotNo":72262,"stakeKey":"stake1u8rv3yk4vkmghc3kktg0ufj8ve6nrgtg4x9f3t6uqhqdajgf0jlgr"},{"txId":62097326,"txHash":"b5a18098d37058a87aacc025546950cd64d52005d391312e302caa819313ac98","txTime":"2023/02/15 17:46:43","block":8403539,"epoch":394,"slotNo":84916912,"epochSlotNo":72112,"stakeKey":"stake1uxht9f406frf633ddj4z9lwrpagycczau7skzl7g2pf8y3cw6kcpp"},{"txId":62097271,"txHash":"2012929574453fffc20a8a8f1d23108da6f29c10fa973da4ccdbbb274fba248c","txTime":"2023/02/15 17:46:14","block":8403538,"epoch":394,"slotNo":84916883,"epochSlotNo":72083,"stakeKey":"stake1u9epnadujw00yqmsmy5ncqlgmhr3fkrvdfnd053md6xgd2s8gjl6k"},{"txId":62097189,"txHash":"43cfaace89aa5cbc93d343b09f6063a9158cf40f149c2af254fd7303adc5ab5e","txTime":"2023/02/15 17:43:14","block":8403536,"epoch":394,"slotNo":84916703,"epochSlotNo":71903,"stakeKey":"stake1uxnguu2pqjgfkwjnf8lqkwu44s2zhsuffm9vpu0xjsqffystjfxn6"},{"txId":62097124,"txHash":"e7f3affdb662af0b1edc49b7545ea0fcce7f35d39fb9500ecfd780e92d94f46d","txTime":"2023/02/15 17:41:32","block":8403532,"epoch":394,"slotNo":84916601,"epochSlotNo":71801,"stakeKey":"stake1uyqx7vs9ztan0srm0k67vpyqxhepfayhymkwdg34nwactdslp7ley"},{"txId":62097066,"txHash":"b80ea26e0dd19af7e46d63358007849de2861ba28ee028e39ac00cd5261697d9","txTime":"2023/02/15 17:40:43","block":8403531,"epoch":394,"slotNo":84916552,"epochSlotNo":71752,"stakeKey":"stake1u9q9cjtvjuaew4ygeya4s0f5g9jxc5mqegq7maue4gplllc9tl3ls"},{"txId":62097041,"txHash":"79224c309a7ae8588f62c1243fb238b83987e24c8eb483ff9f59b0d1cf66dd81","txTime":"2023/02/15 17:39:20","block":8403529,"epoch":394,"slotNo":84916469,"epochSlotNo":71669,"stakeKey":"stake1uy95ff6uwu5sy9sejehplxq0rqfl08luwq50yj6x96jpe0g4kfle3"},{"txId":62096753,"txHash":"9ea12b8e7242fe599bd9f85f9d540dd0c006f01c32530507291d438b9c64d5d9","txTime":"2023/02/15 17:33:19","block":8403508,"epoch":394,"slotNo":84916108,"epochSlotNo":71308,"stakeKey":"stake1uxte6nr34kj3tmlvh6w5h6fwvuvwrvhtx87p8g899n7aykqwnunkt"}],"totalItems":353717,"totalPages":17686,"currentPage":0}