{"data":[{"hash":"2cac56dc9d516c1f5688a5e2c9d336a1c5e2b6257ac59769aacac8426e701e91","blockNo":8295586,"blockHash":"6168a89f3704a9dbe5a00e4e419f1b681d6d053d461973ced92499eb44263f19","epochNo":388,"epochSlotNo":424159,"slot":82676959,"time":"2023/01/20 19:34:10","addressesInput":["addr1qyht4ja0zcn45qvyx477qlyp6j5ftu5ng0prt9608dxp6l2j2c79gy9l76sdg0xwhd7r0c0kna0tycz4y5s6mlenh8pq4jxtdy","addr1z8snz7c4974vzdpxu65ruphl3zjdvtxw8strf2c2tmqnxz2j2c79gy9l76sdg0xwhd7r0c0kna0tycz4y5s6mlenh8pq0xmsha","addr1wxn9efv2f6w82hagxqtn62ju4m293tqvw0uhmdl64ch8uwc0h43gt","addr1qyht4ja0zcn45qvyx477qlyp6j5ftu5ng0prt9608dxp6l2j2c79gy9l76sdg0xwhd7r0c0kna0tycz4y5s6mlenh8pq4jxtdy"],"addressesOutput":["addr1qyht4ja0zcn45qvyx477qlyp6j5ftu5ng0prt9608dxp6l2j2c79gy9l76sdg0xwhd7r0c0kna0tycz4y5s6mlenh8pq4jxtdy","addr1qyht4ja0zcn45qvyx477qlyp6j5ftu5ng0prt9608dxp6l2j2c79gy9l76sdg0xwhd7r0c0kna0tycz4y5s6mlenh8pq4jxtdy","addr1q8wpw2v940dzvg4tua940yn7ctve8g80xfr3tgm372w2gw0q6v2y4p34hc0tqmq6n845dkkf3jxm2k9htfkh46srtvyspthqqs","addr1z8snz7c4974vzdpxu65ruphl3zjdvtxw8strf2c2tmqnxz2j2c79gy9l76sdg0xwhd7r0c0kna0tycz4y5s6mlenh8pq0xmsha"],"fee":964193,"totalOutput":2393589596479,"tokens":[]},{"hash":"fd29449dbefae573f8fe18ca2b1b42d8e24e1c6d3455ee9372a8747c56ab77d9","blockNo":8295586,"blockHash":"6168a89f3704a9dbe5a00e4e419f1b681d6d053d461973ced92499eb44263f19","epochNo":388,"epochSlotNo":424159,"slot":82676959,"time":"2023/01/20 19:34:10","addressesInput":["addr1qyht4ja0zcn45qvyx477qlyp6j5ftu5ng0prt9608dxp6l2j2c79gy9l76sdg0xwhd7r0c0kna0tycz4y5s6mlenh8pq4jxtdy","addr1z8snz7c4974vzdpxu65ruphl3zjdvtxw8strf2c2tmqnxz2j2c79gy9l76sdg0xwhd7r0c0kna0tycz4y5s6mlenh8pq0xmsha","addr1qyht4ja0zcn45qvyx477qlyp6j5ftu5ng0prt9608dxp6l2j2c79gy9l76sdg0xwhd7r0c0kna0tycz4y5s6mlenh8pq4jxtdy","addr1wxn9efv2f6w82hagxqtn62ju4m293tqvw0uhmdl64ch8uwc0h43gt"],"addressesOutput":["addr1qyht4ja0zcn45qvyx477qlyp6j5ftu5ng0prt9608dxp6l2j2c79gy9l76sdg0xwhd7r0c0kna0tycz4y5s6mlenh8pq4jxtdy","addr1qyht4ja0zcn45qvyx477qlyp6j5ftu5ng0prt9608dxp6l2j2c79gy9l76sdg0xwhd7r0c0kna0tycz4y5s6mlenh8pq4jxtdy","addr1qxtnn6fpcm3neyq478c8szmxrwe8zw62cgnc8lhhkrgtljcx5rgsv75mu4vn7gfnn6r0n9lmemrmpxlpnmahe4sxksxszx768s","addr1z8snz7c4974vzdpxu65ruphl3zjdvtxw8strf2c2tmqnxz2j2c79gy9l76sdg0xwhd7r0c0kna0tycz4y5s6mlenh8pq0xmsha"],"fee":825138,"totalOutput":551443441093,"tokens":[]},{"hash":"a2f353fded70543469392f2666d17b483ae728857cc5baec8bff759742a4aa10","blockNo":8295586,"blockHash":"6168a89f3704a9dbe5a00e4e419f1b681d6d053d461973ced92499eb44263f19","epochNo":388,"epochSlotNo":424159,"slot":82676959,"time":"2023/01/20 19:34:10","addressesInput":["addr1v9ywm0h3r8cnxrs04gfy7c3s2j44utjyvn5ldjdca0c2ltccgqdes"],"addressesOutput":["addr1q88sxqqcpne29kr9ujysvsah439un3ut7jqxfv3r5etukdgpra2k3lrtcj6eg5vw48u3x3ctpxa0d5ey0zflmlyyc86qaunvfy"],"fee":233745,"totalOutput":4766255,"tokens":[]},{"hash":"8a6b4c3ee86e49860f20db3c5d7287f0424ab9c9fb5db4d1646b51f1e9d447b3","blockNo":8295586,"blockHash":"6168a89f3704a9dbe5a00e4e419f1b681d6d053d461973ced92499eb44263f19","epochNo":388,"epochSlotNo":424159,"slot":82676959,"time":"2023/01/20 19:34:10","addressesInput":["addr1qyr7zlkm432arrv6449vrr335gkpcjp68j8cxauhjjypn4ffxthxgz2nryfypfshzjjann0ttr4a0jjt0khrvpcp9v7srgxqaj","addr1zxgx3far7qygq0k6epa0zcvcvrevmn0ypsnfsue94nsn3tvpw288a4x0xf8pxgcntelxmyclq83s0ykeehchz2wtspks905plm"],"addressesOutput":["addr1zxgx3far7qygq0k6epa0zcvcvrevmn0ypsnfsue94nsn3tvpw288a4x0xf8pxgcntelxmyclq83s0ykeehchz2wtspks905plm","addr1qyr7zlkm432arrv6449vrr335gkpcjp68j8cxauhjjypn4ffxthxgz2nryfypfshzjjann0ttr4a0jjt0khrvpcp9v7srgxqaj","addr1qyr7zlkm432arrv6449vrr335gkpcjp68j8cxauhjjypn4ffxthxgz2nryfypfshzjjann0ttr4a0jjt0khrvpcp9v7srgxqaj","addr1qyr7zlkm432arrv6449vrr335gkpcjp68j8cxauhjjypn4ffxthxgz2nryfypfshzjjann0ttr4a0jjt0khrvpcp9v7srgxqaj","addr1qyr7zlkm432arrv6449vrr335gkpcjp68j8cxauhjjypn4ffxthxgz2nryfypfshzjjann0ttr4a0jjt0khrvpcp9v7srgxqaj","addr1qyr7zlkm432arrv6449vrr335gkpcjp68j8cxauhjjypn4ffxthxgz2nryfypfshzjjann0ttr4a0jjt0khrvpcp9v7srgxqaj"],"fee":344447,"totalOutput":2606674674,"tokens":[]},{"hash":"65be8973efde9fa0d4148779667ecb011adb0c1bbdc6a84d72ebdffdd9fd7cd3","blockNo":8295586,"blockHash":"6168a89f3704a9dbe5a00e4e419f1b681d6d053d461973ced92499eb44263f19","epochNo":388,"epochSlotNo":424159,"slot":82676959,"time":"2023/01/20 19:34:10","addressesInput":["addr1qxgdsuw8sktlup0n97r7zzudu7ry5s3l7v5n07zuqhzvjgvxdqwp50y6v0nacyrfmlgpk0r0rysgfqdm3x4atw4wcx2qculdlr"],"addressesOutput":["addr1zxgx3far7qygq0k6epa0zcvcvrevmn0ypsnfsue94nsn3tvpw288a4x0xf8pxgcntelxmyclq83s0ykeehchz2wtspks905plm","addr1qxgdsuw8sktlup0n97r7zzudu7ry5s3l7v5n07zuqhzvjgvxdqwp50y6v0nacyrfmlgpk0r0rysgfqdm3x4atw4wcx2qculdlr"],"fee":225121,"totalOutput":25421152,"tokens":[]},{"hash":"a1a5857e79e245c1f6add25b38c1971a4d2b002f47a8412481ac0f0a523c2cdc","blockNo":8295586,"blockHash":"6168a89f3704a9dbe5a00e4e419f1b681d6d053d461973ced92499eb44263f19","epochNo":388,"epochSlotNo":424159,"slot":82676959,"time":"2023/01/20 19:34:10","addressesInput":["addr1q9vfv5nwqfyu2m4sxmn7ndrm766vhmg6upz9wx8qdu04u4alaykdwmcjrj32esra9ket2y0jvvz6cfj7mz83ujwjya4qtdjvzs","addr1q9vfv5nwqfyu2m4sxmn7ndrm766vhmg6upz9wx8qdu04u4alaykdwmcjrj32esra9ket2y0jvvz6cfj7mz83ujwjya4qtdjvzs","addr1q9vfv5nwqfyu2m4sxmn7ndrm766vhmg6upz9wx8qdu04u4alaykdwmcjrj32esra9ket2y0jvvz6cfj7mz83ujwjya4qtdjvzs"],"addressesOutput":["addr1q9u3ggzvqj27cdlefrys6upqc2uh0h8z4l286lvxca39mvqn4m3rlsrz4h6acm7y56jxqpaqvql4q52a5cu65tft88zql6e3tr","addr1qxy2z4k3grgj0apdz0uqxj032pljr4qet4eh3nmklgnlztdlaykdwmcjrj32esra9ket2y0jvvz6cfj7mz83ujwjya4q3mqy7m","addr1qxy2z4k3grgj0apdz0uqxj032pljr4qet4eh3nmklgnlztdlaykdwmcjrj32esra9ket2y0jvvz6cfj7mz83ujwjya4q3mqy7m","addr1qxy2z4k3grgj0apdz0uqxj032pljr4qet4eh3nmklgnlztdlaykdwmcjrj32esra9ket2y0jvvz6cfj7mz83ujwjya4q3mqy7m","addr1qxy2z4k3grgj0apdz0uqxj032pljr4qet4eh3nmklgnlztdlaykdwmcjrj32esra9ket2y0jvvz6cfj7mz83ujwjya4q3mqy7m"],"fee":182309,"totalOutput":287119231,"tokens":[]},{"hash":"70ba24867feb755d33b7ce38d932d84fb30dd7a5a75f3d7d24669ccdbd10dcf7","blockNo":8295586,"blockHash":"6168a89f3704a9dbe5a00e4e419f1b681d6d053d461973ced92499eb44263f19","epochNo":388,"epochSlotNo":424159,"slot":82676959,"time":"2023/01/20 19:34:10","addressesInput":["addr1qyjgu00a0unxyfd009nkart5u9trw8dw44ldwyuflqhstujcch8reszqj5jpj8atq3vvx27jk7ds84t8nj7hn4x8kysske87v4","addr1qyjgu00a0unxyfd009nkart5u9trw8dw44ldwyuflqhstujcch8reszqj5jpj8atq3vvx27jk7ds84t8nj7hn4x8kysske87v4"],"addressesOutput":["addr1zxgx3far7qygq0k6epa0zcvcvrevmn0ypsnfsue94nsn3tvpw288a4x0xf8pxgcntelxmyclq83s0ykeehchz2wtspks905plm","addr1qyjgu00a0unxyfd009nkart5u9trw8dw44ldwyuflqhstujcch8reszqj5jpj8atq3vvx27jk7ds84t8nj7hn4x8kysske87v4","addr1qyjgu00a0unxyfd009nkart5u9trw8dw44ldwyuflqhstujcch8reszqj5jpj8atq3vvx27jk7ds84t8nj7hn4x8kysske87v4"],"fee":402749,"totalOutput":52992300,"tokens":[]},{"hash":"ea18ef5fde2a13f22591e1be06f899c3a5697e2bd292e8b3176f02d9a8a77de7","blockNo":8295586,"blockHash":"6168a89f3704a9dbe5a00e4e419f1b681d6d053d461973ced92499eb44263f19","epochNo":388,"epochSlotNo":424159,"slot":82676959,"time":"2023/01/20 19:34:10","addressesInput":["addr1q8ltk7fw6uednrw8guc77pj8eudw880lzacnqgsw99fscy73wkpa5mcyzllh5drd493cuvdspa5xaywdjefl6u86xqts9akaxg","addr1wy30zf2g4xc7v872fdweewrlj3lh2lgttelmydn0cvhyplsg3vnkq"],"addressesOutput":["addr1q8ltk7fw6uednrw8guc77pj8eudw880lzacnqgsw99fscy73wkpa5mcyzllh5drd493cuvdspa5xaywdjefl6u86xqts9akaxg","addr1wy30zf2g4xc7v872fdweewrlj3lh2lgttelmydn0cvhyplsg3vnkq"],"fee":817173,"totalOutput":752912595,"tokens":[]},{"hash":"42b131bf19f41cd9e9d29e8c61c9af21cf17f63fafa34dee513d35748a4b24b5","blockNo":8295586,"blockHash":"6168a89f3704a9dbe5a00e4e419f1b681d6d053d461973ced92499eb44263f19","epochNo":388,"epochSlotNo":424159,"slot":82676959,"time":"2023/01/20 19:34:10","addressesInput":["addr1v86kupvfxyge95pzn09ym2sptet57984cysrdc4dweylhvss9xryw","addr1vyh0nxwaxamh6x6vxtpeh2zy3pzfvm8dcpnzqfqspt79q9q7m27s2"],"addressesOutput":["addr1qxterqnvnrxjllpuu6cfh3c25tcqs0472327j9sc3dsj0ws0q4shl5h833ea6gvw6u6k6a5hdptx27mcxaf0phchxkvqd63h8q","addr1v86kupvfxyge95pzn09ym2sptet57984cysrdc4dweylhvss9xryw"],"fee":236913,"totalOutput":34928210,"tokens":[]},{"hash":"f691ebadd0df88e32519711b059ce0ffa65d3d4cdb673989531021b6c0af5512","blockNo":8295586,"blockHash":"6168a89f3704a9dbe5a00e4e419f1b681d6d053d461973ced92499eb44263f19","epochNo":388,"epochSlotNo":424159,"slot":82676959,"time":"2023/01/20 19:34:10","addressesInput":["addr1qx2m4zd5yrs99y6hma8pypqr2x4zsr7n0z9uy4nkzv476faclpnrpajhsrw5gfs7atew9wahgjtsz2cz65rwg022vp7seshsv4","addr1qx2m4zd5yrs99y6hma8pypqr2x4zsr7n0z9uy4nkzv476faclpnrpajhsrw5gfs7atew9wahgjtsz2cz65rwg022vp7seshsv4"],"addressesOutput":["addr1qyn6t3nwhasa8gslcs6mj4qay78d3ufm7val0pz0uh3gy8dsf86vnnyx9qhjvka6etzkjpw82lz25vjfexnd9a6l08tqymvfqp","addr1qyn6t3nwhasa8gslcs6mj4qay78d3ufm7val0pz0uh3gy8dsf86vnnyx9qhjvka6etzkjpw82lz25vjfexnd9a6l08tqymvfqp","addr1qx2m4zd5yrs99y6hma8pypqr2x4zsr7n0z9uy4nkzv476faclpnrpajhsrw5gfs7atew9wahgjtsz2cz65rwg022vp7seshsv4"],"fee":190493,"totalOutput":22135340,"tokens":[]},{"hash":"814b775fcee1f49f236088b911b518af35756878b5295986134f343e4911a552","blockNo":8295586,"blockHash":"6168a89f3704a9dbe5a00e4e419f1b681d6d053d461973ced92499eb44263f19","epochNo":388,"epochSlotNo":424159,"slot":82676959,"time":"2023/01/20 19:34:10","addressesInput":["addr1zxgx3far7qygq0k6epa0zcvcvrevmn0ypsnfsue94nsn3tvpw288a4x0xf8pxgcntelxmyclq83s0ykeehchz2wtspks905plm","addr1qyfslrtkmr62ru93lr53epvr8xuxy9ckgsqcwudxtrd7ed8e6vw2evuytjmc7w07rgnqlglh4q34v0q75g2sl9kx8k9qqdrnrl","addr1qyfslrtkmr62ru93lr53epvr8xuxy9ckgsqcwudxtrd7ed8e6vw2evuytjmc7w07rgnqlglh4q34v0q75g2sl9kx8k9qqdrnrl","addr1qyfslrtkmr62ru93lr53epvr8xuxy9ckgsqcwudxtrd7ed8e6vw2evuytjmc7w07rgnqlglh4q34v0q75g2sl9kx8k9qqdrnrl","addr1qyfslrtkmr62ru93lr53epvr8xuxy9ckgsqcwudxtrd7ed8e6vw2evuytjmc7w07rgnqlglh4q34v0q75g2sl9kx8k9qqdrnrl","addr1qyfslrtkmr62ru93lr53epvr8xuxy9ckgsqcwudxtrd7ed8e6vw2evuytjmc7w07rgnqlglh4q34v0q75g2sl9kx8k9qqdrnrl"],"addressesOutput":["addr1q9wzflyct04puexnpzmxnwq7ym8n4hchvzmr9ujm0rthkfyg090a5a6en7e483rh98d67efcenetg9xpr6fvv2llmhts3gcmme","addr1q9cwvremt6n320s2e3agq0jyq82yhrk3htsu0w426xnz5us70z4w0jgvcdkkynmm8wmds66jd9kusnjfpu6raw5fqp0sr07p5w","addr1q8yarm6zyrttgwkham5w65xfr23zk8gd9wqywvxl0lrtgechqzs4x8ad2ukn5gakzyxzz0y3rugaslvhwlvw72ws05xq78d9ud","addr1qyfslrtkmr62ru93lr53epvr8xuxy9ckgsqcwudxtrd7ed8e6vw2evuytjmc7w07rgnqlglh4q34v0q75g2sl9kx8k9qqdrnrl","addr1qyfslrtkmr62ru93lr53epvr8xuxy9ckgsqcwudxtrd7ed8e6vw2evuytjmc7w07rgnqlglh4q34v0q75g2sl9kx8k9qqdrnrl","addr1qyfslrtkmr62ru93lr53epvr8xuxy9ckgsqcwudxtrd7ed8e6vw2evuytjmc7w07rgnqlglh4q34v0q75g2sl9kx8k9qqdrnrl","addr1qyfslrtkmr62ru93lr53epvr8xuxy9ckgsqcwudxtrd7ed8e6vw2evuytjmc7w07rgnqlglh4q34v0q75g2sl9kx8k9qqdrnrl"],"fee":458068,"totalOutput":1313108530,"tokens":[]},{"hash":"f0d14017821c93ee8dd70c7c54971424644331f399ff71cd25aa4eaa600a161d","blockNo":8295586,"blockHash":"6168a89f3704a9dbe5a00e4e419f1b681d6d053d461973ced92499eb44263f19","epochNo":388,"epochSlotNo":424159,"slot":82676959,"time":"2023/01/20 19:34:10","addressesInput":["addr1q9yen4gmsn46lnrsj5l390jkw69gpyge92sj7t8tsnev0ewjr9k296rhxcxdtuxyx2gzytmua8y3qhfle5rqzqfggqgsk40xzp"],"addressesOutput":["addr1q9cwvremt6n320s2e3agq0jyq82yhrk3htsu0w426xnz5us70z4w0jgvcdkkynmm8wmds66jd9kusnjfpu6raw5fqp0sr07p5w","addr1q867h77l84gmjszeqmlc0zzanxjyaycqwkka0juv872fhf7jr9k296rhxcxdtuxyx2gzytmua8y3qhfle5rqzqfggqgsrndvuq"],"fee":195718,"totalOutput":2638869,"tokens":[]},{"hash":"a1008f45032325ba832d3889b5b6f14fefd351640cec319d57dc3ee508f26a28","blockNo":8295586,"blockHash":"6168a89f3704a9dbe5a00e4e419f1b681d6d053d461973ced92499eb44263f19","epochNo":388,"epochSlotNo":424159,"slot":82676959,"time":"2023/01/20 19:34:10","addressesInput":["Ae2tdPwUPEYwNguM7TB3dMnZMfZxn1pjGHyGdjaF4mFqZF9L3bj6cdhiH8t","Ae2tdPwUPEYwNguM7TB3dMnZMfZxn1pjGHyGdjaF4mFqZF9L3bj6cdhiH8t"],"addressesOutput":["addr1q8jgkgqyrvzexydun6f4lxrvuxd94cfrzngk44cwpl2mmaslqlezdc2z2nen3qd8xkwlu3swgclzpmv3euxxde5797fsm6sgjs","addr1q9sg0gtymx2z8a2kkcyt0vm8cqggecdyg9ysmqqj70zk9ad53tcenkwk777lxwx7zz3p6etdzhrrj5d7uz4y26wrvu5qx4a8un","addr1qylz8fh8me5tyfvta8sr4nfpn977s7gvlcavetmnqy63me6flkvt695pyg29az4nglke2zc6l8heqcstr9zfp4dsq0wscmr0yu","Ae2tdPwUPEYwNguM7TB3dMnZMfZxn1pjGHyGdjaF4mFqZF9L3bj6cdhiH8t"],"fee":250131,"totalOutput":119957243565,"tokens":[]},{"hash":"f58401181c211aedcbe2af8f7d1424a51a4851e2b2df55e56fa90201be074ff5","blockNo":8295586,"blockHash":"6168a89f3704a9dbe5a00e4e419f1b681d6d053d461973ced92499eb44263f19","epochNo":388,"epochSlotNo":424159,"slot":82676959,"time":"2023/01/20 19:34:10","addressesInput":["addr1qyaucuhu8ezd9cysjznlsfefh0w52xdny8cmf2c40jffv0rwqa7p05nh8zglmfaz5wwn60hxeyvx0kugppj3rlhhaf2qe6sf9n","addr1q97kwckv8w3jrwawqhjqd2cm27z5gk087rn2kqke25gg36nwqa7p05nh8zglmfaz5wwn60hxeyvx0kugppj3rlhhaf2qtf8g5t"],"addressesOutput":["addr1vy8m5a9rzjwgk8vfxhgj074tna0httztjuqpansfclzhmxczzdhz9","addr1q8zdvzknpywhullg2yy68zslphxh7zxntlht0umj3eg4rktwqa7p05nh8zglmfaz5wwn60hxeyvx0kugppj3rlhhaf2qmn8j9n"],"fee":173113,"totalOutput":118433882,"tokens":[]},{"hash":"46f865f017731848097a67e0e8ea3d5666fcb0d7de023d540cbad864c1a48dfc","blockNo":8295586,"blockHash":"6168a89f3704a9dbe5a00e4e419f1b681d6d053d461973ced92499eb44263f19","epochNo":388,"epochSlotNo":424159,"slot":82676959,"time":"2023/01/20 19:34:10","addressesInput":["addr1qxysur8vesxaeuxkz7kvtwz7kcvshf4p6d5mackww5s36xd9l3zg73lzqune24gm0ydzc62e5tpum5g5fy3rhd2ve48ss45ajh","addr1qxkykz5jsxcgs7ydl4pqk2ahkhrgeqq7uw9f7y8k7eqk6x49l3zg73lzqune24gm0ydzc62e5tpum5g5fy3rhd2ve48spqvu8j"],"addressesOutput":["addr1qy5xxleu5epz3ujfu5hevy5hze9jutnz229xursahv2ekpezavh040pgxrzxa23usfhzy3ttmjqupzctnq754e9yjersdn2w8u","addr1q8uupwapscmmafyg420ln857tlra0ymuyz6pf4cu6uj73j49l3zg73lzqune24gm0ydzc62e5tpum5g5fy3rhd2ve48s6emv4u"],"fee":178305,"totalOutput":43380851,"tokens":[]},{"hash":"b7665036fb58de36328ae76b23cc333a518ddadf523224fb0a64f68b6e7cad02","blockNo":8295586,"blockHash":"6168a89f3704a9dbe5a00e4e419f1b681d6d053d461973ced92499eb44263f19","epochNo":388,"epochSlotNo":424159,"slot":82676959,"time":"2023/01/20 19:34:10","addressesInput":["addr1zxgx3far7qygq0k6epa0zcvcvrevmn0ypsnfsue94nsn3tvpw288a4x0xf8pxgcntelxmyclq83s0ykeehchz2wtspks905plm","addr1q8csfhyken3zh9vuzszhhyq7xv0vn7sw8vw7nrkt0ynjrtwssvh0j2j8gdymxdaz6gwg97hcn9fg5jkys233zmcqfwysq3t7d0"],"addressesOutput":["addr1zxgx3far7qygq0k6epa0zcvcvrevmn0ypsnfsue94nsn3tvpw288a4x0xf8pxgcntelxmyclq83s0ykeehchz2wtspks905plm","addr1q8csfhyken3zh9vuzszhhyq7xv0vn7sw8vw7nrkt0ynjrtwssvh0j2j8gdymxdaz6gwg97hcn9fg5jkys233zmcqfwysq3t7d0"],"fee":315230,"totalOutput":20713570,"tokens":[]},{"hash":"4c4afe5cc27d7075e021176df3b2392e7053a352bf4301e483ac11cc0fc1f2bd","blockNo":8295586,"blockHash":"6168a89f3704a9dbe5a00e4e419f1b681d6d053d461973ced92499eb44263f19","epochNo":388,"epochSlotNo":424159,"slot":82676959,"time":"2023/01/20 19:34:10","addressesInput":["addr1wxr2a8htmzuhj39y2gq7ftkpxv98y2g67tg8zezthgq4jkg0a4ul4","addr1z8nvjzjeydcn4atcd93aac8allvrpjn7pjr2qsweukpnayw8509kp8r0ackk0d45d3gmh5yg9pty67r9zmfs3gcyv08qxshhsw","addr1qxeugc32x6gxqfm6xe0p3q4vzn5p3hdykeychhxmh2043fqaz2s0jvfkvtnl6uauda23mjuxdjvr0rxtstvn62v5sw0qjt0rkz"],"addressesOutput":["addr1z8nvjzjeydcn4atcd93aac8allvrpjn7pjr2qsweukpnayw8509kp8r0ackk0d45d3gmh5yg9pty67r9zmfs3gcyv08qxshhsw","addr1qxenlyy3fgm503ehd0fnwfr7ctaatvg9475rddyy0e4j0upzxvrveeyjlelax4h77d2ndrtcdrmx7un90upr606tu46sn28fhx","addr1qxeugc32x6gxqfm6xe0p3q4vzn5p3hdykeychhxmh2043fqaz2s0jvfkvtnl6uauda23mjuxdjvr0rxtstvn62v5sw0qjt0rkz"],"fee":822608,"totalOutput":431444367448,"tokens":[]},{"hash":"6db9fb11c203c71c48c2bf318ddd2e949a6fb3500905639dd1241ba06c263af6","blockNo":8295586,"blockHash":"6168a89f3704a9dbe5a00e4e419f1b681d6d053d461973ced92499eb44263f19","epochNo":388,"epochSlotNo":424159,"slot":82676959,"time":"2023/01/20 19:34:10","addressesInput":["addr1zxgx3far7qygq0k6epa0zcvcvrevmn0ypsnfsue94nsn3tvpw288a4x0xf8pxgcntelxmyclq83s0ykeehchz2wtspks905plm","addr1qygsp29x56nf79nhvws4wacy0j0maaulcte5fufk96929j3dva55q0vhe9u849kuyaujkkdgs8q3tvel3ath7t2f6l0syp42ad"],"addressesOutput":["addr1zxgx3far7qygq0k6epa0zcvcvrevmn0ypsnfsue94nsn3tvpw288a4x0xf8pxgcntelxmyclq83s0ykeehchz2wtspks905plm","addr1qygsp29x56nf79nhvws4wacy0j0maaulcte5fufk96929j3dva55q0vhe9u849kuyaujkkdgs8q3tvel3ath7t2f6l0syp42ad"],"fee":315480,"totalOutput":141953227,"tokens":[]},{"hash":"f5c5ebdf345e19bd0f8c4fd95c0b07565ed6dbf7b7c21ebd1e1f82417d509a73","blockNo":8295586,"blockHash":"6168a89f3704a9dbe5a00e4e419f1b681d6d053d461973ced92499eb44263f19","epochNo":388,"epochSlotNo":424159,"slot":82676959,"time":"2023/01/20 19:34:10","addressesInput":["addr1qx692g8ec0a47rjp427q7ztwzrjnc0gzz5zk7suksu4567gh9am4cztz4lgyu2sjc4kn5ptz5xgp7kz6u4lun4ns97ws0njaj9","addr1qx692g8ec0a47rjp427q7ztwzrjnc0gzz5zk7suksu4567gh9am4cztz4lgyu2sjc4kn5ptz5xgp7kz6u4lun4ns97ws0njaj9","addr1zxgx3far7qygq0k6epa0zcvcvrevmn0ypsnfsue94nsn3tvpw288a4x0xf8pxgcntelxmyclq83s0ykeehchz2wtspks905plm"],"addressesOutput":["addr1zxgx3far7qygq0k6epa0zcvcvrevmn0ypsnfsue94nsn3tvpw288a4x0xf8pxgcntelxmyclq83s0ykeehchz2wtspks905plm","addr1qx692g8ec0a47rjp427q7ztwzrjnc0gzz5zk7suksu4567gh9am4cztz4lgyu2sjc4kn5ptz5xgp7kz6u4lun4ns97ws0njaj9"],"fee":533600,"totalOutput":9302501,"tokens":[]},{"hash":"7807d2a1a0d16fa77629822265149ec98b13dd8db08652d3279fb4e78b3e476d","blockNo":8295586,"blockHash":"6168a89f3704a9dbe5a00e4e419f1b681d6d053d461973ced92499eb44263f19","epochNo":388,"epochSlotNo":424159,"slot":82676959,"time":"2023/01/20 19:34:10","addressesInput":["addr1q9v7v3zs6adqy2j2cznaqnwkm5nmqxxjrzgxvyfl6zldr7n0pw9suak39dkam6psup2w4gc6lnvetsf52ylkfpsnqa6sxz9w7k","addr1q9v7v3zs6adqy2j2cznaqnwkm5nmqxxjrzgxvyfl6zldr7n0pw9suak39dkam6psup2w4gc6lnvetsf52ylkfpsnqa6sxz9w7k"],"addressesOutput":["addr1q9v7v3zs6adqy2j2cznaqnwkm5nmqxxjrzgxvyfl6zldr7n0pw9suak39dkam6psup2w4gc6lnvetsf52ylkfpsnqa6sxz9w7k","addr1wy30zf2g4xc7v872fdweewrlj3lh2lgttelmydn0cvhyplsg3vnkq"],"fee":181693,"totalOutput":129029366,"tokens":[]}],"totalItems":59417693,"totalPages":2970885,"currentPage":0}