{"data":[{"blockNo":8407727,"slotNo":85008064,"epochNo":394,"epochSlotNo":163264,"hash":"476aea21b4250924477c29ed87e63ecbf797bc696f8ec45e2f1cdac1004d01f5","time":"2023/02/16 19:05:55","txCount":0,"totalFees":0,"totalOutput":0,"slotLeader":"f018942907ac50ed7f831f14755ad93698188492d09d229655e6ade1"},{"blockNo":8407726,"slotNo":85008063,"epochNo":394,"epochSlotNo":163263,"hash":"19ebdff01168f25e2e976c04b495b72a2c5d0fff2a981f9b838cb51b3f28e67d","time":"2023/02/16 19:05:54","txCount":11,"totalFees":6182082,"totalOutput":22434202243656,"slotLeader":"1d2972246d8adda98836626a34e337525f5206e552715d28379b5fdb"},{"blockNo":8407725,"slotNo":85008052,"epochNo":394,"epochSlotNo":163252,"hash":"3bdd505edc0b1b765388a3893326036b8d762a0bac37837e62b556accb416ea0","time":"2023/02/16 19:05:43","txCount":28,"totalFees":9438553,"totalOutput":379954444588,"slotLeader":"970e9a7ae4677b152c27a0eba3db996b372de094d24fc2974768f3da"},{"blockNo":8407724,"slotNo":85008016,"epochNo":394,"epochSlotNo":163216,"hash":"55a1ee5ff6031c428f26d0d7281d4282b920ed3562ebf468bcdc99594df0f6da","time":"2023/02/16 19:05:07","txCount":28,"totalFees":7850350,"totalOutput":378971527866,"slotLeader":"cfff13497008842ab170eae18ecf43be7eb4fa51bdd503821ddaaf19"},{"blockNo":8407723,"slotNo":85008010,"epochNo":394,"epochSlotNo":163210,"hash":"280a529c341031aed0196b5b68daa2d189b7c0e234aff2100509e855d9503a94","time":"2023/02/16 19:05:01","txCount":26,"totalFees":10268843,"totalOutput":24982296684856,"slotLeader":"a374a14d2fa809b5e999a474b5d085b10be2fc95e6e82da045d9e8f6"},{"blockNo":8407722,"slotNo":85007945,"epochNo":394,"epochSlotNo":163145,"hash":"1da6b36409ef5994546765bc548b2667b6b989542b3fee61eb6a0ed495e6bdac","time":"2023/02/16 19:03:56","txCount":10,"totalFees":2245061,"totalOutput":176303309101,"slotLeader":"c1f5cfd4330339e90ba83a64d269a81cf415d7adab36403e27b910f7"},{"blockNo":8407721,"slotNo":85007924,"epochNo":394,"epochSlotNo":163124,"hash":"f8a452ce7abf803dbacb1d2a462cc1efbf3bd0f4c9e09f79201e418caeaa19f7","time":"2023/02/16 19:03:35","txCount":17,"totalFees":3987806,"totalOutput":154474116832,"slotLeader":"f619a10b7ccea6167c5f169634e834b57739c2db892185f2efa9f1eb"},{"blockNo":8407720,"slotNo":85007903,"epochNo":394,"epochSlotNo":163103,"hash":"aaf9bc215c3aab2f6ac240b254896d0d2be05e14742be280f9e60ac267264a87","time":"2023/02/16 19:03:14","txCount":31,"totalFees":10631737,"totalOutput":2047600941859,"slotLeader":"c22942e1b855136643d1e6e5a75266fb891d87727a8cbf06acd17208"},{"blockNo":8407719,"slotNo":85007867,"epochNo":394,"epochSlotNo":163067,"hash":"019a2a3cde6ffcc76ef9f226925bf101dd353a10f265fef5ec4a3a5c40b2be16","time":"2023/02/16 19:02:38","txCount":27,"totalFees":8318657,"totalOutput":326319741289,"slotLeader":"36e0db9278d5b481dad2f2f84c42d20c324b046aaff97ff45fa4e134"},{"blockNo":8407718,"slotNo":85007838,"epochNo":394,"epochSlotNo":163038,"hash":"cc9539e4278c1059957b0b106829b40d2a7d528aee74742beaa8028a5046e24c","time":"2023/02/16 19:02:09","txCount":11,"totalFees":6259697,"totalOutput":25262041461985,"slotLeader":"40ff71258d2c73da9e2a5ee3abb9be256e745e7f74c31eb8d4be5299"}],"totalItems":7520,"totalPages":752,"currentPage":0}