{"data":[{"hash":"daa481cde43dec3414ed88703667993a50c6c61c2499ee4c04e990d5ad7ea960","blockNo":8138017,"blockHash":"987f6d0f8e214d416c64d582a1c3edda932b49b02676daba2a32a9f0476151f4","epochNo":381,"epochSlotNo":215267,"slot":79444067,"time":"2022/12/14 09:32:38","addressesInput":["addr1qyht4ja0zcn45qvyx477qlyp6j5ftu5ng0prt9608dxp6l2j2c79gy9l76sdg0xwhd7r0c0kna0tycz4y5s6mlenh8pq4jxtdy","addr1z8snz7c4974vzdpxu65ruphl3zjdvtxw8strf2c2tmqnxz2j2c79gy9l76sdg0xwhd7r0c0kna0tycz4y5s6mlenh8pq0xmsha","addr1wxn9efv2f6w82hagxqtn62ju4m293tqvw0uhmdl64ch8uwc0h43gt","addr1qyht4ja0zcn45qvyx477qlyp6j5ftu5ng0prt9608dxp6l2j2c79gy9l76sdg0xwhd7r0c0kna0tycz4y5s6mlenh8pq4jxtdy"],"addressesOutput":["addr1qyht4ja0zcn45qvyx477qlyp6j5ftu5ng0prt9608dxp6l2j2c79gy9l76sdg0xwhd7r0c0kna0tycz4y5s6mlenh8pq4jxtdy","addr1qyht4ja0zcn45qvyx477qlyp6j5ftu5ng0prt9608dxp6l2j2c79gy9l76sdg0xwhd7r0c0kna0tycz4y5s6mlenh8pq4jxtdy","addr1qyk50r0yaldtg4z9krxz6ydykyr9fyju0gkzdtlucqqktxjv0sdnpyhly89dz39hvtu5qt5fpeel6l6kghsaz06lshkqsnqjfu","addr1z8snz7c4974vzdpxu65ruphl3zjdvtxw8strf2c2tmqnxz2j2c79gy9l76sdg0xwhd7r0c0kna0tycz4y5s6mlenh8pq0xmsha"],"fee":805395,"totalOutput":987966635744,"tokens":[]},{"hash":"4bec79ad97d4fe6ebf1e80962654fa9f6513d050296b71c3b97c6adeaa56e41a","blockNo":8138017,"blockHash":"987f6d0f8e214d416c64d582a1c3edda932b49b02676daba2a32a9f0476151f4","epochNo":381,"epochSlotNo":215267,"slot":79444067,"time":"2022/12/14 09:32:38","addressesInput":["addr1vyyzfylquxnkfwm3xuwx2vfg9qajy6tne3qw8jzt6cfcpfs0vfydp","addr1v9wmh4t2yzkcj05w456extdgwaxz7u3rt3ea3g404tjzsmcdjk9r6"],"addressesOutput":["addr1qxkfje6gmuue4kwc3tgn6c82kx95sqwl8zplv8gvth6sw5nax082sqe4efg360fmpq2cj3ryyk0zuqfqlpujy5jpdu8qez2un9","addr1v9wmh4t2yzkcj05w456extdgwaxz7u3rt3ea3g404tjzsmcdjk9r6","addr1q93y76vvypcseexf3y5e4crncu4ahl4ase7cy0et4zz0pxhxe42rgj258e474t3x9ktnlhqssmqqgqse0dl2ap4gsvsqx4sgp8"],"fee":194981,"totalOutput":6184299,"tokens":[]},{"hash":"c0da157282ce2e11389fd5515a4f0a7dfcb2bf1c44963aea74ea0b418ace5a5c","blockNo":8138017,"blockHash":"987f6d0f8e214d416c64d582a1c3edda932b49b02676daba2a32a9f0476151f4","epochNo":381,"epochSlotNo":215267,"slot":79444067,"time":"2022/12/14 09:32:38","addressesInput":["addr1q8k7lfvlx57wqmncvtexe7qfuraghydz42aj2p4fqkncxgfr2uypjjwsmv399rr7wzkcdl4zyn677tec49zn0s3ddx9spa54h9","addr1q98q4qw6ajsmajkawckpc62epeym79gwtl9enefcg5f5espr2uypjjwsmv399rr7wzkcdl4zyn677tec49zn0s3ddx9s7p754x","addr1q8k7lfvlx57wqmncvtexe7qfuraghydz42aj2p4fqkncxgfr2uypjjwsmv399rr7wzkcdl4zyn677tec49zn0s3ddx9spa54h9"],"addressesOutput":["addr1zxgx3far7qygq0k6epa0zcvcvrevmn0ypsnfsue94nsn3tvpw288a4x0xf8pxgcntelxmyclq83s0ykeehchz2wtspks905plm","addr1q8k7lfvlx57wqmncvtexe7qfuraghydz42aj2p4fqkncxgfr2uypjjwsmv399rr7wzkcdl4zyn677tec49zn0s3ddx9spa54h9"],"fee":243469,"totalOutput":8217061,"tokens":[]},{"hash":"7f37dd2c34f1cde887192b24b3a0b22ceca7b1327c058419c4db040353aedef2","blockNo":8138017,"blockHash":"987f6d0f8e214d416c64d582a1c3edda932b49b02676daba2a32a9f0476151f4","epochNo":381,"epochSlotNo":215267,"slot":79444067,"time":"2022/12/14 09:32:38","addressesInput":["addr1qxhe6gf4qz5wk9ve0zywnhzahw2p6glr0tdhtqs4fgkr4t53cfkykf67nxte3pm7s5qzhnugvku2k8x94h9lcxm07knqu9tau4","addr1qxhe6gf4qz5wk9ve0zywnhzahw2p6glr0tdhtqs4fgkr4t53cfkykf67nxte3pm7s5qzhnugvku2k8x94h9lcxm07knqu9tau4"],"addressesOutput":["addr1vxwqz8qrk2prjstsx76403ss0xjwldjgvu7q3zqe7lzcldsx3m0uu"],"fee":388300,"totalOutput":312143200,"tokens":[]},{"hash":"6a9c4deec2ce5c64660a0ed406e96587932fe1153dc46dbd700fe3f8dbb7c97a","blockNo":8138017,"blockHash":"987f6d0f8e214d416c64d582a1c3edda932b49b02676daba2a32a9f0476151f4","epochNo":381,"epochSlotNo":215267,"slot":79444067,"time":"2022/12/14 09:32:38","addressesInput":["addr1wy30zf2g4xc7v872fdweewrlj3lh2lgttelmydn0cvhyplsg3vnkq","addr1q8s3rl2t8ru52x44hw5t6jujmwdfafc2t5wzwcj49xl34y8pjevrh6jdmpxr3mrgxtmzuawqvtej7suphf9z9h9trsaqcuquk9"],"addressesOutput":["addr1q8s3rl2t8ru52x44hw5t6jujmwdfafc2t5wzwcj49xl34y8pjevrh6jdmpxr3mrgxtmzuawqvtej7suphf9z9h9trsaqcuquk9","addr1wy30zf2g4xc7v872fdweewrlj3lh2lgttelmydn0cvhyplsg3vnkq"],"fee":1149461,"totalOutput":893671742,"tokens":[]},{"hash":"0b7a8a3783e700bfd4c16d236dcc8dc100c4ec954f70a0a7696272b05655e1b8","blockNo":8138017,"blockHash":"987f6d0f8e214d416c64d582a1c3edda932b49b02676daba2a32a9f0476151f4","epochNo":381,"epochSlotNo":215267,"slot":79444067,"time":"2022/12/14 09:32:38","addressesInput":["addr1vye53wwjhsc0av8d8ml3zw9495mt5fmcza6hmn5nn9t3whsd3h53a"],"addressesOutput":["addr1qxff6tdqwt7nvx4g35y9ud3uupth6lgpx3zfgaf4ac8lsqwcg5nxq20adpfu32dnv9c6yqud6f69ztwgqedzslhwewrsf4pprh","addr1qytcgpelg4m8n0hrgkx8nhr6servtt4qhmntxufdga32lzhuynvp2sdsx64g8dy3fd4pd7hs9lyn0j5vhwuzthz8xkessrfdse","addr1q8vlwynu60ndpu5psfwqz7ahkvj0v2axqnrskq5twu7apd3l9a8az7p23rcj2s0uxf9csuf5xkvqal6nwxgu3qgwxsjsa5qx4d"],"fee":228817,"totalOutput":50771183,"tokens":[]},{"hash":"ee67a2796546ff521e4052e456162ea6f7e57fb75767beab6447e2a3c8ded193","blockNo":8138017,"blockHash":"987f6d0f8e214d416c64d582a1c3edda932b49b02676daba2a32a9f0476151f4","epochNo":381,"epochSlotNo":215267,"slot":79444067,"time":"2022/12/14 09:32:38","addressesInput":["addr1qxlu03xzkm2rzllys63dfqket8n7lg64nrhkusexmmw67knf899nkjwmshnata4rtnypye7qsnl92h468c7wzl3t4zzsa0sf2s","addr1qxlu03xzkm2rzllys63dfqket8n7lg64nrhkusexmmw67knf899nkjwmshnata4rtnypye7qsnl92h468c7wzl3t4zzsa0sf2s","addr1qxlu03xzkm2rzllys63dfqket8n7lg64nrhkusexmmw67knf899nkjwmshnata4rtnypye7qsnl92h468c7wzl3t4zzsa0sf2s","addr1qxlu03xzkm2rzllys63dfqket8n7lg64nrhkusexmmw67knf899nkjwmshnata4rtnypye7qsnl92h468c7wzl3t4zzsa0sf2s"],"addressesOutput":["addr1zxgx3far7qygq0k6epa0zcvcvrevmn0ypsnfsue94nsn3tvpw288a4x0xf8pxgcntelxmyclq83s0ykeehchz2wtspks905plm","addr1qxlu03xzkm2rzllys63dfqket8n7lg64nrhkusexmmw67knf899nkjwmshnata4rtnypye7qsnl92h468c7wzl3t4zzsa0sf2s","addr1qxlu03xzkm2rzllys63dfqket8n7lg64nrhkusexmmw67knf899nkjwmshnata4rtnypye7qsnl92h468c7wzl3t4zzsa0sf2s"],"fee":250949,"totalOutput":8243090,"tokens":[]},{"hash":"8dee9dd4fe04c403676956119b52ba3e8a9cc6026659dbbd2f3a8b5415bc5577","blockNo":8138017,"blockHash":"987f6d0f8e214d416c64d582a1c3edda932b49b02676daba2a32a9f0476151f4","epochNo":381,"epochSlotNo":215267,"slot":79444067,"time":"2022/12/14 09:32:38","addressesInput":["addr1qyquszkd9c925456kfxcnzyxjvtvx0gnvp66z673zu32uhh6aqj9qdeh274pynr5vu49u32qzf6h3c0hhpjnqqx9sssszf4kpc"],"addressesOutput":["addr1vyshd53ulvrgues7c9qkaddvszncdlm0gfagzuwzmtjdc0c8u3gfu","addr1qy9g0d4tj593d77akarl5s6mhrnhrvyhvtepcajp5tm7ey06aqj9qdeh274pynr5vu49u32qzf6h3c0hhpjnqqx9ssssvl4c25"],"fee":167085,"totalOutput":63163343,"tokens":[]},{"hash":"107ebfbb0c05ddb48b71adc382f94b7d95598b20ed13bdeab32f40e4ece46580","blockNo":8138017,"blockHash":"987f6d0f8e214d416c64d582a1c3edda932b49b02676daba2a32a9f0476151f4","epochNo":381,"epochSlotNo":215267,"slot":79444067,"time":"2022/12/14 09:32:38","addressesInput":["addr1q8h83cj4pe87yefpgx0vlrr4ku8zvuphjnyze630g3pmxuhw0r392rj0ufjjzsv7e7x8tdcwyecr09xg9n4z73zrkdeqsajzge"],"addressesOutput":["addr1q8h83cj4pe87yefpgx0vlrr4ku8zvuphjnyze630g3pmxuhw0r392rj0ufjjzsv7e7x8tdcwyecr09xg9n4z73zrkdeqsajzge","addr1q8h83cj4pe87yefpgx0vlrr4ku8zvuphjnyze630g3pmxuhw0r392rj0ufjjzsv7e7x8tdcwyecr09xg9n4z73zrkdeqsajzge"],"fee":238776,"totalOutput":61161224,"tokens":[]},{"hash":"c38b8151e03b02c0dad652c401c9880bda8366c4c6e6924cbaba2538ee13dad0","blockNo":8138017,"blockHash":"987f6d0f8e214d416c64d582a1c3edda932b49b02676daba2a32a9f0476151f4","epochNo":381,"epochSlotNo":215267,"slot":79444067,"time":"2022/12/14 09:32:38","addressesInput":["addr1qyez458jd6ve07k7fkd2d8lfahg5sk923c0rupf6gmccdxwdjgj994r74ssfyewvnc0ll4k2ddn2zvuvvha7vyvn398sdgch2d","addr1qyez458jd6ve07k7fkd2d8lfahg5sk923c0rupf6gmccdxwdjgj994r74ssfyewvnc0ll4k2ddn2zvuvvha7vyvn398sdgch2d","addr1qyez458jd6ve07k7fkd2d8lfahg5sk923c0rupf6gmccdxwdjgj994r74ssfyewvnc0ll4k2ddn2zvuvvha7vyvn398sdgch2d","addr1qyez458jd6ve07k7fkd2d8lfahg5sk923c0rupf6gmccdxwdjgj994r74ssfyewvnc0ll4k2ddn2zvuvvha7vyvn398sdgch2d","addr1qyez458jd6ve07k7fkd2d8lfahg5sk923c0rupf6gmccdxwdjgj994r74ssfyewvnc0ll4k2ddn2zvuvvha7vyvn398sdgch2d","addr1qyez458jd6ve07k7fkd2d8lfahg5sk923c0rupf6gmccdxwdjgj994r74ssfyewvnc0ll4k2ddn2zvuvvha7vyvn398sdgch2d"],"addressesOutput":["addr1qyr6hvwz4kav3642lhj447pjwm7yezvlm2atd37xy2ladrgn3d7dkqdvccdxe0daralu4jzfsrkp705dwz0635ylgchs9vmggv","addr1qyez458jd6ve07k7fkd2d8lfahg5sk923c0rupf6gmccdxwdjgj994r74ssfyewvnc0ll4k2ddn2zvuvvha7vyvn398sdgch2d","addr1qyez458jd6ve07k7fkd2d8lfahg5sk923c0rupf6gmccdxwdjgj994r74ssfyewvnc0ll4k2ddn2zvuvvha7vyvn398sdgch2d"],"fee":181033,"totalOutput":42589187,"tokens":[]},{"hash":"79fb9a98c2db789a09bcf29c0c6bc7c14bf8c95cd7846186bc626093525440d7","blockNo":8138017,"blockHash":"987f6d0f8e214d416c64d582a1c3edda932b49b02676daba2a32a9f0476151f4","epochNo":381,"epochSlotNo":215267,"slot":79444067,"time":"2022/12/14 09:32:38","addressesInput":["addr1qyrjk5rwn6w3nxrgwawka2jmxejpnaxy8q4f8jkyxwsscsey5s7snwamssxtaqdcnqlsr3v5vamcjsvv848l2qwkujjq0jrt47","addr1zxgx3far7qygq0k6epa0zcvcvrevmn0ypsnfsue94nsn3tvpw288a4x0xf8pxgcntelxmyclq83s0ykeehchz2wtspks905plm"],"addressesOutput":["addr1qyrjk5rwn6w3nxrgwawka2jmxejpnaxy8q4f8jkyxwsscsey5s7snwamssxtaqdcnqlsr3v5vamcjsvv848l2qwkujjq0jrt47","addr1qyrjk5rwn6w3nxrgwawka2jmxejpnaxy8q4f8jkyxwsscsey5s7snwamssxtaqdcnqlsr3v5vamcjsvv848l2qwkujjq0jrt47"],"fee":264701,"totalOutput":190063599,"tokens":[]},{"hash":"da9f4e6318707ec8a7d547581cacd97746da7799978b47a8e5e309c88bfbadb8","blockNo":8138017,"blockHash":"987f6d0f8e214d416c64d582a1c3edda932b49b02676daba2a32a9f0476151f4","epochNo":381,"epochSlotNo":215267,"slot":79444067,"time":"2022/12/14 09:32:38","addressesInput":["addr1qx86er7ldm7n56ckpctq85gq77egy4fenxes4f7n909qz7vxjrtgl5rf2n6mda5l9pv989rpdvjvkpr8jlmfxxu83lxs95pmd5","addr1qy8nfl33j87pn9rtv47a44uudjayl0m083d7dr42w6kpjduxjrtgl5rf2n6mda5l9pv989rpdvjvkpr8jlmfxxu83lxs5mfyzr"],"addressesOutput":["addr1q90yc4jkaqz0n93j8jmrppdvg6sakgmld0haenfdv8s9wp0yk5p7f3grsvjtwn7t4qd5j337e4g65rn5z6rhf50v9cgscg47p4","addr1q9j9zgxsp0jugh8c40l8gm8qyuq83vm0xjzvlfheklgcsfyxjrtgl5rf2n6mda5l9pv989rpdvjvkpr8jlmfxxu83lxswrykc9"],"fee":180153,"totalOutput":46144839,"tokens":[]},{"hash":"5b98c8fb68e94ade613b7a92c747760c99325bf8a9ad7426b3711608da9bb994","blockNo":8138017,"blockHash":"987f6d0f8e214d416c64d582a1c3edda932b49b02676daba2a32a9f0476151f4","epochNo":381,"epochSlotNo":215267,"slot":79444067,"time":"2022/12/14 09:32:38","addressesInput":["addr1q9kkvlxqdvqe98nqnz67n0ljhf7mrj4zutc8d38p79dwg7akdcq0ted04q37k85a7afz7xjr8k9c0jdysnntqnr3f3rsavfc0y"],"addressesOutput":["DdzFFzCqrht4QeKEvxcRipZVc5wZ3ntWGrnfGce7t54EWy8Cvp3nT5dKCsFNHpZTebQUM8BU1Fkk4UKrN37pK1jN5SPrnJZNo5vi1FHr"],"fee":166585,"totalOutput":2247026554,"tokens":[]},{"hash":"9aaed09406edde73172b8a5336168beb53c903bf2e944315dd3ec43c76b438b7","blockNo":8138017,"blockHash":"987f6d0f8e214d416c64d582a1c3edda932b49b02676daba2a32a9f0476151f4","epochNo":381,"epochSlotNo":215267,"slot":79444067,"time":"2022/12/14 09:32:38","addressesInput":["addr1q82mg9407g5qqmvrskz7rwlq36e2vmj3sntefgterca0aw02wd8r7wxgd95tmm66g7duzj5ssglernq9yv4gznu0da3saj8te6","addr1q82mg9407g5qqmvrskz7rwlq36e2vmj3sntefgterca0aw02wd8r7wxgd95tmm66g7duzj5ssglernq9yv4gznu0da3saj8te6"],"addressesOutput":["Ae2tdPwUPEYyL4RpzwdFcYcNo7Npq3xS6qefTcavbHX6YB379yixVxeW5RB","addr1q82mg9407g5qqmvrskz7rwlq36e2vmj3sntefgterca0aw02wd8r7wxgd95tmm66g7duzj5ssglernq9yv4gznu0da3saj8te6","addr1q82mg9407g5qqmvrskz7rwlq36e2vmj3sntefgterca0aw02wd8r7wxgd95tmm66g7duzj5ssglernq9yv4gznu0da3saj8te6"],"fee":173949,"totalOutput":255814334,"tokens":[]},{"hash":"7e3477e6649e5e5667a6e0bb94e462539fb2366edcde752c16bf9715a1f05478","blockNo":8138017,"blockHash":"987f6d0f8e214d416c64d582a1c3edda932b49b02676daba2a32a9f0476151f4","epochNo":381,"epochSlotNo":215267,"slot":79444067,"time":"2022/12/14 09:32:38","addressesInput":["addr1q9gc6qeh3ft8fm7lj22yagxmr9r028wk6qku05t05ys7qleks5fcv8jcwk8ztcw7jgksfvrjkzpx3w8xhf9nycwjkfas5sud34"],"addressesOutput":["addr1v9cfha0wn47drlaq7efvzvc2hdnxdsjk0784ynlt6lrmm7ctp4mtl"],"fee":164515,"totalOutput":24515844,"tokens":[]},{"hash":"0f76e1dbb46a7a5cdbd3795603c234388705abf1fe175472cb2b4f0b35544736","blockNo":8138017,"blockHash":"987f6d0f8e214d416c64d582a1c3edda932b49b02676daba2a32a9f0476151f4","epochNo":381,"epochSlotNo":215267,"slot":79444067,"time":"2022/12/14 09:32:38","addressesInput":["addr1qxkcfgecamv0d4vxntmx7vt725kssyy5j8pxs9qvkdwqmwgdq8raqjnaumn80pqp0aygmg54m8paesc84292pj9707vqhlgarc","addr1qxkcfgecamv0d4vxntmx7vt725kssyy5j8pxs9qvkdwqmwgdq8raqjnaumn80pqp0aygmg54m8paesc84292pj9707vqhlgarc"],"addressesOutput":["addr1zyq0kyrml023kwjk8zr86d5gaxrt5w8lxnah8r6m6s4jp4g3r6dxnzml343sx8jweqn4vn3fz2kj8kgu9czghx0jrsyqqktyhv","addr1q9ad5mud938r7l24eaac4v57ydlj72hazgprts9f7daaz09mm95jvs5h94099yglxr7v6ug6pp43780huy040lm4utmqx8g5eu","addr1qxkcfgecamv0d4vxntmx7vt725kssyy5j8pxs9qvkdwqmwgdq8raqjnaumn80pqp0aygmg54m8paesc84292pj9707vqhlgarc"],"fee":208838,"totalOutput":24503811,"tokens":[]},{"hash":"bbd8c40b50cb953a9d96d1a2d2ea5b604579030a65a75051737e6bde5024e7d3","blockNo":8138016,"blockHash":"3868ce2e629b3efc49851802f7c4c25598402d45e78759a7af2bc0f4beae7112","epochNo":381,"epochSlotNo":215229,"slot":79444029,"time":"2022/12/14 09:32:00","addressesInput":["addr1qxd27x9kg4v3xzrvjpjw70fa4m3afpkp9qtpndn5e06ay5mfr5vlz2pa9qtm4epc5hez30knpgs7cvu59qrtmqe63n7qleaaqy","addr1qxd27x9kg4v3xzrvjpjw70fa4m3afpkp9qtpndn5e06ay5mfr5vlz2pa9qtm4epc5hez30knpgs7cvu59qrtmqe63n7qleaaqy","addr1qxd27x9kg4v3xzrvjpjw70fa4m3afpkp9qtpndn5e06ay5mfr5vlz2pa9qtm4epc5hez30knpgs7cvu59qrtmqe63n7qleaaqy"],"addressesOutput":["addr1v9ywm0h3r8cnxrs04gfy7c3s2j44utjyvn5ldjdca0c2ltccgqdes","addr1qxd27x9kg4v3xzrvjpjw70fa4m3afpkp9qtpndn5e06ay5mfr5vlz2pa9qtm4epc5hez30knpgs7cvu59qrtmqe63n7qleaaqy"],"fee":204755,"totalOutput":88445588,"tokens":[]},{"hash":"1986dbaa8d81971ef21da541836f2df52a7abb9e83f1e4284c305558dba6afa0","blockNo":8138016,"blockHash":"3868ce2e629b3efc49851802f7c4c25598402d45e78759a7af2bc0f4beae7112","epochNo":381,"epochSlotNo":215229,"slot":79444029,"time":"2022/12/14 09:32:00","addressesInput":["addr1qyj3uhl7wqu4le088l0v9cg6uas85aqhfrq6r7nmvp5agtudzq9w9hetedzx7zuqx9wn8fjcg56j8a3mj3e9pwwn2m7qet9fvx","addr1zxgx3far7qygq0k6epa0zcvcvrevmn0ypsnfsue94nsn3tvpw288a4x0xf8pxgcntelxmyclq83s0ykeehchz2wtspks905plm"],"addressesOutput":["addr1q908qpgd4xj409y6vew20kqpu3cnxmzyutwaj6tkxm8e0tcgkvryq49p7qgz45dyyffda4rc993dq5mdeagtt4jun0asx6yx7l","addr1q9cwvremt6n320s2e3agq0jyq82yhrk3htsu0w426xnz5us70z4w0jgvcdkkynmm8wmds66jd9kusnjfpu6raw5fqp0sr07p5w","addr1q8345vr9znhtyc4vrk7f77ve69746736ednxahxuvtvjcv3hrm0jslelm3ff9h8asgtlmf07rp7j4kj0ayge2r5fa94qjce2wr","addr1qyj3uhl7wqu4le088l0v9cg6uas85aqhfrq6r7nmvp5agtudzq9w9hetedzx7zuqx9wn8fjcg56j8a3mj3e9pwwn2m7qet9fvx","addr1qyj3uhl7wqu4le088l0v9cg6uas85aqhfrq6r7nmvp5agtudzq9w9hetedzx7zuqx9wn8fjcg56j8a3mj3e9pwwn2m7qet9fvx"],"fee":395985,"totalOutput":174725423,"tokens":[]},{"hash":"d3eaf269be4065cc4407b05d97c24a2de9d63478f3f8d7072c757e1c347f40a0","blockNo":8138016,"blockHash":"3868ce2e629b3efc49851802f7c4c25598402d45e78759a7af2bc0f4beae7112","epochNo":381,"epochSlotNo":215229,"slot":79444029,"time":"2022/12/14 09:32:00","addressesInput":["addr1qy5uzug6mmtmheqta6htgk9zlk65w34ultcgv9dsm8lfndxnxvz8unl3s2zx7yky9shl0gqex3j9wrdtms4ruu99meus7zlykx"],"addressesOutput":["addr1x9qrftc5m9u9u8q76hkpmh6axdtn9vgwgk995q4ke6vugqktlwr5crwh4pavuuq77thgvglr407c5hm0tcgsa0tc2v6qggqvkf","addr1q807m4msaw6yzqce3kh6k0rnj2seswgy6kqufu8t3pw4a5wnxvz8unl3s2zx7yky9shl0gqex3j9wrdtms4ruu99meuswcs6cm","addr1q807m4msaw6yzqce3kh6k0rnj2seswgy6kqufu8t3pw4a5wnxvz8unl3s2zx7yky9shl0gqex3j9wrdtms4ruu99meuswcs6cm","addr1q807m4msaw6yzqce3kh6k0rnj2seswgy6kqufu8t3pw4a5wnxvz8unl3s2zx7yky9shl0gqex3j9wrdtms4ruu99meuswcs6cm","addr1q807m4msaw6yzqce3kh6k0rnj2seswgy6kqufu8t3pw4a5wnxvz8unl3s2zx7yky9shl0gqex3j9wrdtms4ruu99meuswcs6cm"],"fee":176897,"totalOutput":2996955050,"tokens":[]},{"hash":"40b864b438ff608f2b319e34cab97a69bc5b924d3bdd486ed79aa325fcf3681c","blockNo":8138016,"blockHash":"3868ce2e629b3efc49851802f7c4c25598402d45e78759a7af2bc0f4beae7112","epochNo":381,"epochSlotNo":215229,"slot":79444029,"time":"2022/12/14 09:32:00","addressesInput":["addr1q9wfx8hskd6mv99mt6lfehhcs9g8k8q3d30r50z3e9s2tz3mh6ltshgd0zaw480gfvw3l9p4rdf5a0rm9typujekukwqpsj3th","addr1q9wfx8hskd6mv99mt6lfehhcs9g8k8q3d30r50z3e9s2tz3mh6ltshgd0zaw480gfvw3l9p4rdf5a0rm9typujekukwqpsj3th","addr1q9wfx8hskd6mv99mt6lfehhcs9g8k8q3d30r50z3e9s2tz3mh6ltshgd0zaw480gfvw3l9p4rdf5a0rm9typujekukwqpsj3th"],"addressesOutput":["addr1qxdeykjj3xdcryxw4z0jchpufay0epszytf2j62uhv2hjwctvfkrk7rzwnu3ckpvpy62xu5w68z9zjfrwjcmqekxgkqsm7xrtd","addr1q9wfx8hskd6mv99mt6lfehhcs9g8k8q3d30r50z3e9s2tz3mh6ltshgd0zaw480gfvw3l9p4rdf5a0rm9typujekukwqpsj3th"],"fee":171485,"totalOutput":2068375383,"tokens":[]}],"totalItems":56685526,"totalPages":2834277,"currentPage":0}