{"data":[{"txId":56997457,"txHash":"5c8ef35538abb14b85bc5c0b7f2409d88e0b4635c5701534b2acc0e07eca294a","txTime":"2022/12/09 23:58:04","block":8119479,"epoch":380,"slotNo":79063993,"epochSlotNo":267193,"stakeKey":"stake1u925hr0adgw646nqyx5t90usf8ger3chyftp4e2a7ghztacu38kpg"},{"txId":56997338,"txHash":"0b2179144a219518cd00cda9380ff4fe9f5212428657aa2a8d7c0f41aef1ae3d","txTime":"2022/12/09 23:55:29","block":8119470,"epoch":380,"slotNo":79063838,"epochSlotNo":267038,"stakeKey":"stake1u9wxgz9m0alnq53g2fkz2tngsz3fzfampwnth69fg6c2lsq9va0y4"},{"txId":56997320,"txHash":"393315806f990bdb69033eaa0375827e1067a80ddadf22da644a74a08811fb47","txTime":"2022/12/09 23:54:55","block":8119465,"epoch":380,"slotNo":79063804,"epochSlotNo":267004,"stakeKey":"stake1uy04dccsj2unnt5n4jm64vj8tzmex5mxr28ct0vr2ysq3ugj9gq8q"},{"txId":56997051,"txHash":"24e2bc7aa194aa08986edaf440b8d57fe55d9abbed228853b3888ab7c54c94d0","txTime":"2022/12/09 23:49:43","block":8119450,"epoch":380,"slotNo":79063492,"epochSlotNo":266692,"stakeKey":"stake1u8jmnjrt50nnmnw0xge34s7lv6g22dew5gty3a78j0f436clh3w0g"},{"txId":56996979,"txHash":"40a9fbbe183165e4230e5ff4d00dd43c2824d5a36d79eb747fcb5e1086d4546c","txTime":"2022/12/09 23:48:19","block":8119447,"epoch":380,"slotNo":79063408,"epochSlotNo":266608,"stakeKey":"stake1ux8anxwuaxafxs9r0vwmxlsny2rpnwzy4j88wf6gsq8deycndnxys"},{"txId":56996974,"txHash":"1b596fcf99c1feb3108982dd7fcefbe80f20d9e26c0b475e936fc9b6213d8687","txTime":"2022/12/09 23:48:19","block":8119447,"epoch":380,"slotNo":79063408,"epochSlotNo":266608,"stakeKey":"stake1uyj932nfhndgqmlkkjl7qr0xczc6pru4rdd3e0swf6ndfcchs8h3c"},{"txId":56996904,"txHash":"5c8a92a4cc8b8d56d3481b60f739f12bd5fdf9787870515e8281a93ee9834afa","txTime":"2022/12/09 23:48:12","block":8119445,"epoch":380,"slotNo":79063401,"epochSlotNo":266601,"stakeKey":"stake1u94qm3j3277qfnkf84sxh9ae4qty6x6atlhaa4tt2mff82qzgz8zp"},{"txId":56996877,"txHash":"0c4ca944d26d8b345e44eeac0d312787ddc35eefd551b0a0f2739f89619a1998","txTime":"2022/12/09 23:46:22","block":8119444,"epoch":380,"slotNo":79063291,"epochSlotNo":266491,"stakeKey":"stake1u8zh5ygleu2mzgnvcmwzz0ryyg6aawcfeeff3t6y3d0ku3sz8fgy0"},{"txId":56996780,"txHash":"dcf7a9ddffd94fcbde2d0b0014ba3177ce4abe3d56489df0ad4792e80dc1280c","txTime":"2022/12/09 23:44:17","block":8119437,"epoch":380,"slotNo":79063166,"epochSlotNo":266366,"stakeKey":"stake1uy0ldr7g60katawg0y6hljjyjesxk43d3qp50xy9u6sneqct99c9f"},{"txId":56996479,"txHash":"2bee4b2ebfa4935d18e29f5c522efbf565ef153fbcc7bd6bbcd7fea1776deb46","txTime":"2022/12/09 23:38:55","block":8119418,"epoch":380,"slotNo":79062844,"epochSlotNo":266044,"stakeKey":"stake1uyxcmljejydjgt9x73wgfyx0ap5v3sd264d9mhuh44nnsfgj2ezn2"},{"txId":56995750,"txHash":"783b76aec697f9296109708ffae8361f43d6fd9c7752f339c1f24c61f61c509b","txTime":"2022/12/09 23:24:20","block":8119369,"epoch":380,"slotNo":79061969,"epochSlotNo":265169,"stakeKey":"stake1u8lrnjr9tywm4yx7tr0e4vaja8mq7zfvcvdc0c3nk08sv4qqemcav"},{"txId":56995595,"txHash":"dce4a49292ead445d7cdcfc604e33d590c807fe1180907317223718b59d02858","txTime":"2022/12/09 23:21:34","block":8119357,"epoch":380,"slotNo":79061803,"epochSlotNo":265003,"stakeKey":"stake1uyx9er9xtspxwd2nuqcr7xlsjkhhawhyy2dwrgcj2swlenqc4etnt"},{"txId":56995320,"txHash":"1f697f380af953f223b5fc0d693150d30d0ea2ab0dbeb93e18a7d7433c60e8b8","txTime":"2022/12/09 23:15:40","block":8119339,"epoch":380,"slotNo":79061449,"epochSlotNo":264649,"stakeKey":"stake1uydx4u3gd2c6cs3xrqrt35pkdw747ljlst6xd2lhestv4sc6ly02l"},{"txId":56995204,"txHash":"640f671b8481f0a78060dc252e8989b03338587205a913dcb5605a714a7f7b8d","txTime":"2022/12/09 23:13:06","block":8119331,"epoch":380,"slotNo":79061295,"epochSlotNo":264495,"stakeKey":"stake1u9m0jrl0fwujpzv6qh3la8u5wyye6mvudkkslzmxtq0x5hsefjgqc"},{"txId":56995110,"txHash":"f962d6a5e68b7d770c833f9655704431c3757f1de79ad93a4495f25e1561a040","txTime":"2022/12/09 23:11:12","block":8119327,"epoch":380,"slotNo":79061181,"epochSlotNo":264381,"stakeKey":"stake1u97lvcwv7kggndatvn2hs0c96vyknhz0gdvwa2k8lr8njmsamfk7p"},{"txId":56995050,"txHash":"881c54e23107cc050f01189ce3c071620d99ef36e7f4fb0734aa6da0534fb7db","txTime":"2022/12/09 23:10:02","block":8119321,"epoch":380,"slotNo":79061111,"epochSlotNo":264311,"stakeKey":"stake1u9gjw5v7nattyrpwza8lp9rl32sptjzfjlwslxkdec8q6xswrtxcg"},{"txId":56994883,"txHash":"47cb64107d258cfe70a009b12b7f3b591d2a7a32248803eb358b0b657c091740","txTime":"2022/12/09 23:06:45","block":8119312,"epoch":380,"slotNo":79060914,"epochSlotNo":264114,"stakeKey":"stake1u86zz44n4glq4kdj8x3k9r4shwzm4kzlygql2cvvxhwmnwcu8ck7z"},{"txId":56994825,"txHash":"375d25f24f4174c6148b3d8786ad2786a8c9a99244afa82a78669b06355bc983","txTime":"2022/12/09 23:06:09","block":8119310,"epoch":380,"slotNo":79060878,"epochSlotNo":264078,"stakeKey":"stake1u9hlv58zqt2flzcpzycv7zet38qpvpfwds4c0je2mrsp4lcc48a37"},{"txId":56994809,"txHash":"58393b05c419fc7c16a721e421420c4691c992b46deadb030b2849a0926bbff3","txTime":"2022/12/09 23:06:09","block":8119310,"epoch":380,"slotNo":79060878,"epochSlotNo":264078,"stakeKey":"stake1u8hleau0gnf5g3a2dtehxw4jgd289f0xsj08mev8ndvj4pg4zlqt0"},{"txId":56994085,"txHash":"46d696dacb5f0a13d48e6eeb7acab9313d3fb9ae17d7ec653cf30b58bf886950","txTime":"2022/12/09 22:51:41","block":8119267,"epoch":380,"slotNo":79060010,"epochSlotNo":263210,"stakeKey":"stake1ux4x72d6dy4k8mnm3nmgsec9yhylyxsvalumadck4xrluzcvrd5k0"}],"totalItems":1618506,"totalPages":80926,"currentPage":0}