{"data":[{"txId":70684872,"txHash":"7cb1b122d442943ae92d5c431fc3dba4bdbdb3c7e810851e5065d7f043d0754c","txTime":"2023/07/05 06:44:30","block":8989471,"epoch":422,"slotNo":96973179,"epochSlotNo":32379,"stakeKey":"stake1uylkr4a2pp4xnvtfyxcw22tnmglc6uh9luazxujafkhsk8gt3hjld"},{"txId":70684731,"txHash":"9134e95a8da3d08ada4aa50b971efcb0125b1b420fd97e4b4e9a8d8ced1e5ca8","txTime":"2023/07/05 06:41:44","block":8989466,"epoch":422,"slotNo":96973013,"epochSlotNo":32213,"stakeKey":"stake1u946a2s5y5hrjsaaua3slfyt68u5es05vtme0hz7kzskqlsm7geun"},{"txId":70684671,"txHash":"2a804a7a5992d7221a57831dd36d49ddbc267855cb97e903c28c80cdafd223c2","txTime":"2023/07/05 06:41:10","block":8989464,"epoch":422,"slotNo":96972979,"epochSlotNo":32179,"stakeKey":"stake1ux7xhw8n4cw4utsthnxpyx69pspfss5d00664nj5cyqmwagq65rcg"},{"txId":70684260,"txHash":"45adc9453e0e69de1ea8761aace8b08dd08d40d245f0350bbe4cd1884c0aef3e","txTime":"2023/07/05 06:35:44","block":8989446,"epoch":422,"slotNo":96972653,"epochSlotNo":31853,"stakeKey":"stake1u97vtx8p9cu4pf6vfjphq7gd839hm7xfc0paw2v0t9p62xsr2cwj6"},{"txId":70684244,"txHash":"7c0a836064c9b2aeadcfcfe871c9d6dbacad6f44c83305a81472f7d5ed44fbaa","txTime":"2023/07/05 06:35:44","block":8989446,"epoch":422,"slotNo":96972653,"epochSlotNo":31853,"stakeKey":"stake1u8asaf65t65tv4gw5evzm34e29ldpsr7zqakj8fqwm9tkfgrqehav"},{"txId":70683550,"txHash":"d1221fb9d62881a3981c7d04406947d5816cda57f28d74a94bd7e2948e8d3ab7","txTime":"2023/07/05 06:21:17","block":8989406,"epoch":422,"slotNo":96971786,"epochSlotNo":30986,"stakeKey":"stake1uyqds292ekepp92pl4gzaez9n2as43n99cufwndu3svzwpqmfye9y"},{"txId":70683345,"txHash":"fc59516c790b4ab6388d4291bb69c7c34944406ba45340b2a0238c67aba69907","txTime":"2023/07/05 06:17:41","block":8989395,"epoch":422,"slotNo":96971570,"epochSlotNo":30770,"stakeKey":"stake1uxvjfyxyacsmpsdsnddyk8v0hfvs39ezccu44qa77ljf5mgxt8nun"},{"txId":70682384,"txHash":"eb89e5ce1d4dd2410e85f002fd473174e393ca2dceb3765963364bbc2a4e0cce","txTime":"2023/07/05 06:00:57","block":8989352,"epoch":422,"slotNo":96970566,"epochSlotNo":29766,"stakeKey":"stake1uyqyqugtadrjckw09tqw97mv8hel3vemvgrlp6dt7z3qpes0knnss"},{"txId":70681578,"txHash":"4ddd4b0443fd18ef3e81f6c94c941225b2556cda967c52a23fd21f73770febc9","txTime":"2023/07/05 05:46:33","block":8989309,"epoch":422,"slotNo":96969702,"epochSlotNo":28902,"stakeKey":"stake1uywuhklrfcte7ukneadxkgzvx33nrhepaqqnr564dt9zf9q429yhm"},{"txId":70681297,"txHash":"a9f15240062b71e62f5d7fc8a1d9275bc77f3d3c1fcf1b7c9a98293a0a9a82d1","txTime":"2023/07/05 05:40:04","block":8989290,"epoch":422,"slotNo":96969313,"epochSlotNo":28513,"stakeKey":"stake1u8hvcln3lv4crdndrma03rmg6t0eej7dccc548jvk4n6s7gvtem4m"},{"txId":70680953,"txHash":"976c12c269bf477f3b39e321c64805ee228cd5cb1bed95d96cb620f2e59dd282","txTime":"2023/07/05 05:33:24","block":8989271,"epoch":422,"slotNo":96968913,"epochSlotNo":28113,"stakeKey":"stake1uxet7xh3tx5wvwnkxcrhvv2nx3js4v0txann6uudaltgceqd986ad"},{"txId":70680862,"txHash":"67d615e5f29373963536e6a84574423ceebb96bb36efd3f4d65e85b8ea2507c5","txTime":"2023/07/05 05:31:57","block":8989262,"epoch":422,"slotNo":96968826,"epochSlotNo":28026,"stakeKey":"stake1u8a69wlpkyggvnj7hgrdxr62gn624v6akfn40kr7hut3ezgtmf36g"},{"txId":70680797,"txHash":"a3f50ce441a08240fa4a6bc93ab6e8823d2797b6ace27e5d328e242c2f9d666b","txTime":"2023/07/05 05:31:05","block":8989260,"epoch":422,"slotNo":96968774,"epochSlotNo":27974,"stakeKey":"stake1uymdl65fzk8xra6xgaxjrsfdhpex63smwr02lph04cqtezsfwheuc"},{"txId":70680712,"txHash":"a5236705c94798b78fea75ad49e16c4d1b0bcf8167f51ade5169dd896c1f09ad","txTime":"2023/07/05 05:28:36","block":8989252,"epoch":422,"slotNo":96968625,"epochSlotNo":27825,"stakeKey":"stake1u8f8wfcv7s7ypusyrk39zgwglq2azn9prv9mms3cz54ur9gegxwhs"},{"txId":70680087,"txHash":"afe08aead191d4c618ca99360cecafe60da40d471c371d6d411f14b9f179f6bd","txTime":"2023/07/05 05:18:44","block":8989221,"epoch":422,"slotNo":96968033,"epochSlotNo":27233,"stakeKey":"stake1uxcs8h06ktmgmwxcrj4tl26u43l2dz299k39hgf9ddfl5aqyrggx3"},{"txId":70679991,"txHash":"6bf7a3c7f2a8902b01370a1b038f29252bcd0a6defe3a15b5dfe5a61b9147ee2","txTime":"2023/07/05 05:17:12","block":8989217,"epoch":422,"slotNo":96967941,"epochSlotNo":27141,"stakeKey":"stake1u9200xudyulqc2zl6r8nsyrery409fnps94j4djyzsn3n5ga53ywz"},{"txId":70679199,"txHash":"8bdc3a3c24050b50482dd3da2aa0da345b485bc8fc7bc8dad7de5dc15c418a33","txTime":"2023/07/05 04:59:06","block":8989172,"epoch":422,"slotNo":96966855,"epochSlotNo":26055,"stakeKey":"stake1uyxhyhpynn0ldt9gpue3vxkcenvnd80setgzq0eszm5maygvwq9x9"},{"txId":70679111,"txHash":"82c60aab5cd45fd9bad39ecbab3fb264850e0ae764bdf8d26608c8640d973e8f","txTime":"2023/07/05 04:57:32","block":8989166,"epoch":422,"slotNo":96966761,"epochSlotNo":25961,"stakeKey":"stake1u8r677z9k4w73q3l59x923chz336vskkq0lkadtuckc79ac3m7xas"},{"txId":70678959,"txHash":"f9278046124a5ced790e017a4459c8566a46cf9641dcd1e4d19b76012ff2167b","txTime":"2023/07/05 04:53:12","block":8989154,"epoch":422,"slotNo":96966501,"epochSlotNo":25701,"stakeKey":"stake1ux4dazshtt0sw6ywjg8q8tp5xw54hhhn68pwp8zth68337g7kcqxg"},{"txId":70678644,"txHash":"77953fd73ce35e1909a69d4f5fecba75fc6a55b360b63567ae5db87712598fb4","txTime":"2023/07/05 04:46:09","block":8989142,"epoch":422,"slotNo":96966078,"epochSlotNo":25278,"stakeKey":"stake1ux63rweryvp858wztmc8j6j6zdkkvvqj9p5kc9snad83dccjt2pdf"}],"totalItems":1733464,"totalPages":86674,"currentPage":0}