{"data":[{"hash":"6152e40d309f01ceb3871dfb55aab6938c0cfad8293d499163b26f565f17a554","blockNo":8318612,"blockHash":"aed76ce4672ad49b11d05953a56ddb1e940648ac7aa85a7c12a95f37bb3df73f","epochNo":390,"epochSlotNo":38260,"slot":83155060,"time":"2023/01/26 08:22:31","addressesInput":["addr1qyj6p93qglrdd9j7rahrfmtc6axr0remqraqjlyad6txgyjneq00wx38jqvx94eujxkayz4aeyvg65kd2r24elp5tcyqnfwm7y","addr1q8ma24f70h6muve2x0zzuexxejcfk38kcaey8h4rxy3cav2neq00wx38jqvx94eujxkayz4aeyvg65kd2r24elp5tcyq5wa3t2"],"addressesOutput":["addr1q96mw5y93l25msfgppewfrf2lanr03ep6fa4al3yxklzeqwpew4k86m998dusejca6t3lhd0x6c9ugskzdglntp24ygqvpqj93","addr1qxlvzhv7nfmsq97u93z87z0p7rez3atee0xaectntgen4hzneq00wx38jqvx94eujxkayz4aeyvg65kd2r24elp5tcyqpmq4vj"],"fee":186665,"totalOutput":65497178,"tokens":[]},{"hash":"2b12fb3746e14ef758f17111d2161bb144bbacac23cbda65bf9dc79d7a9542cd","blockNo":8318612,"blockHash":"aed76ce4672ad49b11d05953a56ddb1e940648ac7aa85a7c12a95f37bb3df73f","epochNo":390,"epochSlotNo":38260,"slot":83155060,"time":"2023/01/26 08:22:31","addressesInput":["addr1q9j7fpp37ycf0ezu8h2aty2nv2nlg53l7je6d0pn03eglyaxuag8hnemcy34kplf2a0vlfae6fm22u5e8s23p943h7fq8p6sck","addr1qx5ppdln0swyaj8r0qtp704pf8w6atjjm4nxr9mxqttjsl4xuag8hnemcy34kplf2a0vlfae6fm22u5e8s23p943h7fqs40zu9","addr1q980g3s98m64j2ppxg8u0ag9t5a22w4jdnzr33u2ekq34p9xuag8hnemcy34kplf2a0vlfae6fm22u5e8s23p943h7fqnd96pf","addr1q80gkrr3cempnp0tmdttxx0zpdsaqhu4t2ldsuya7ejqz0dxuag8hnemcy34kplf2a0vlfae6fm22u5e8s23p943h7fqrkr3e5","addr1qx500m9nt46arfy7gqsmnhrj703u6d5mweq8qqgzn222mddxuag8hnemcy34kplf2a0vlfae6fm22u5e8s23p943h7fqta7qz9","addr1qx8tx4xvz0hk2lletzs8tjade53zqddfyc497asclha8x79xuag8hnemcy34kplf2a0vlfae6fm22u5e8s23p943h7fqms4gxt","addr1qxyeml6l2ttrl6yufs2fr8p8764tgl4pwjxe4ent4l6yvwaxuag8hnemcy34kplf2a0vlfae6fm22u5e8s23p943h7fq7dy42r","addr1qx500m9nt46arfy7gqsmnhrj703u6d5mweq8qqgzn222mddxuag8hnemcy34kplf2a0vlfae6fm22u5e8s23p943h7fqta7qz9"],"addressesOutput":["addr1zyq0kyrml023kwjk8zr86d5gaxrt5w8lxnah8r6m6s4jp4g3r6dxnzml343sx8jweqn4vn3fz2kj8kgu9czghx0jrsyqqktyhv","addr1qx500m9nt46arfy7gqsmnhrj703u6d5mweq8qqgzn222mddxuag8hnemcy34kplf2a0vlfae6fm22u5e8s23p943h7fqta7qz9"],"fee":244170,"totalOutput":144178901,"tokens":[]},{"hash":"ab544b9c6f848ffdff77adbf43c0d8144f8c72d2209e2ce7c2491b50e871de12","blockNo":8318612,"blockHash":"aed76ce4672ad49b11d05953a56ddb1e940648ac7aa85a7c12a95f37bb3df73f","epochNo":390,"epochSlotNo":38260,"slot":83155060,"time":"2023/01/26 08:22:31","addressesInput":["addr1vxfa8dwzflct4re7qn2ls7t46w6rc479rafnwzqx4z2asuq6cg00t","addr1vxfa8dwzflct4re7qn2ls7t46w6rc479rafnwzqx4z2asuq6cg00t","addr1vxfa8dwzflct4re7qn2ls7t46w6rc479rafnwzqx4z2asuq6cg00t","addr1vxfa8dwzflct4re7qn2ls7t46w6rc479rafnwzqx4z2asuq6cg00t","addr1vxfa8dwzflct4re7qn2ls7t46w6rc479rafnwzqx4z2asuq6cg00t"],"addressesOutput":["addr1qxagg2wk8pax5k88e6kz3faclckmkjmllfek3y4vvclh90uaef2t6d403lf4accj5rx5n2k94uzm7zcyz4ajtfj9k8yqpvsx6s","addr1vxfa8dwzflct4re7qn2ls7t46w6rc479rafnwzqx4z2asuq6cg00t","addr1vxfa8dwzflct4re7qn2ls7t46w6rc479rafnwzqx4z2asuq6cg00t","addr1vxfa8dwzflct4re7qn2ls7t46w6rc479rafnwzqx4z2asuq6cg00t","addr1vxfa8dwzflct4re7qn2ls7t46w6rc479rafnwzqx4z2asuq6cg00t"],"fee":245669,"totalOutput":431099202,"tokens":[]},{"hash":"ee1757b1cf9144ded60f54e64a44e195e7ddb967415595a41977c305f670a46a","blockNo":8318612,"blockHash":"aed76ce4672ad49b11d05953a56ddb1e940648ac7aa85a7c12a95f37bb3df73f","epochNo":390,"epochSlotNo":38260,"slot":83155060,"time":"2023/01/26 08:22:31","addressesInput":["addr1q8we50jj4h85pmsp7y3605437chckd66lvn8ya26pnxwn7f52swwvghlxt9j3ey7aq94gchevkmdlc9gngla3uq9pnnssw0zkw","addr1q8we50jj4h85pmsp7y3605437chckd66lvn8ya26pnxwn7f52swwvghlxt9j3ey7aq94gchevkmdlc9gngla3uq9pnnssw0zkw"],"addressesOutput":["addr1q99dxdglkngeavhk5el0nc4r9l26lzkjpcex962gla8ll64g44s6eqgqacj0es3vjpvgqxxf0nt5epy7ejqfaxc7c4uq2tj6vq","addr1q8we50jj4h85pmsp7y3605437chckd66lvn8ya26pnxwn7f52swwvghlxt9j3ey7aq94gchevkmdlc9gngla3uq9pnnssw0zkw"],"fee":189217,"totalOutput":44643669,"tokens":[]},{"hash":"cda9db45d993fb63845a6493cf84b21cf32988b644d3d1db7e3c0b2699ba81e6","blockNo":8318612,"blockHash":"aed76ce4672ad49b11d05953a56ddb1e940648ac7aa85a7c12a95f37bb3df73f","epochNo":390,"epochSlotNo":38260,"slot":83155060,"time":"2023/01/26 08:22:31","addressesInput":["addr1wy30zf2g4xc7v872fdweewrlj3lh2lgttelmydn0cvhyplsg3vnkq","addr1qyeq35jt49mrtck4ea0yrxuuqml500sf0tu5r7hrw8afc7zyeay5cs4mvjtk6wh2xcw5dwzys8nf06e5vefsufxlqlmq35lu9u"],"addressesOutput":["addr1qyeq35jt49mrtck4ea0yrxuuqml500sf0tu5r7hrw8afc7zyeay5cs4mvjtk6wh2xcw5dwzys8nf06e5vefsufxlqlmq35lu9u","addr1wy30zf2g4xc7v872fdweewrlj3lh2lgttelmydn0cvhyplsg3vnkq"],"fee":817789,"totalOutput":171247873,"tokens":[]},{"hash":"5a7f0c93e3fd8dfbf73bdb557a76f00aca43e23eaf7ec2f514b57e66cacb8c71","blockNo":8318612,"blockHash":"aed76ce4672ad49b11d05953a56ddb1e940648ac7aa85a7c12a95f37bb3df73f","epochNo":390,"epochSlotNo":38260,"slot":83155060,"time":"2023/01/26 08:22:31","addressesInput":["addr1zxgx3far7qygq0k6epa0zcvcvrevmn0ypsnfsue94nsn3tvpw288a4x0xf8pxgcntelxmyclq83s0ykeehchz2wtspks905plm","addr1qyxumff7x2n2qjntku7yh4vtn7m7p09mhv6wqgn0j28q6ladsa7pxjpccdjf4wp908x6994x4e8ayjlajnnget9cprsqn4glg7"],"addressesOutput":["addr1zxgx3far7qygq0k6epa0zcvcvrevmn0ypsnfsue94nsn3tvpw288a4x0xf8pxgcntelxmyclq83s0ykeehchz2wtspks905plm","addr1qyxumff7x2n2qjntku7yh4vtn7m7p09mhv6wqgn0j28q6ladsa7pxjpccdjf4wp908x6994x4e8ayjlajnnget9cprsqn4glg7"],"fee":315436,"totalOutput":133279649,"tokens":[]},{"hash":"0d764a2430fd5cedbd8c00518134831068bb1b86fdf3c3693321d801d15b3275","blockNo":8318612,"blockHash":"aed76ce4672ad49b11d05953a56ddb1e940648ac7aa85a7c12a95f37bb3df73f","epochNo":390,"epochSlotNo":38260,"slot":83155060,"time":"2023/01/26 08:22:31","addressesInput":["addr1qxh38lj3rmurtlmrcg0dn474d78cteupf9epnzu5thtkl38lf8gudcxr5egrxajc8kak889dhy9vdcky3rcsyhwlrk5se2t0wj","addr1qxsg4z28v8grhzc3j0dp62d9x0ptew30e32v69vacdgd7ahlf8gudcxr5egrxajc8kak889dhy9vdcky3rcsyhwlrk5s4qhfv0"],"addressesOutput":["addr1q96mw5y93l25msfgppewfrf2lanr03ep6fa4al3yxklzeqwpew4k86m998dusejca6t3lhd0x6c9ugskzdglntp24ygqvpqj93","addr1qxk5udu9aaze2jcsuwmruw4erae2n299n8c7606nvgvm5m0lf8gudcxr5egrxajc8kak889dhy9vdcky3rcsyhwlrk5sm7ecyt"],"fee":186665,"totalOutput":65497178,"tokens":[]},{"hash":"156ebc2d960593bb0eba38d44a438d04d58d0342086c1c7fe6daab399a4c0f8a","blockNo":8318612,"blockHash":"aed76ce4672ad49b11d05953a56ddb1e940648ac7aa85a7c12a95f37bb3df73f","epochNo":390,"epochSlotNo":38260,"slot":83155060,"time":"2023/01/26 08:22:31","addressesInput":["addr1q9tsa7azqhuwpckxk50evpgx7yesjxzqf7whjx7wudz9qlfxccvsdcm4kq7pkm6vwgfr7useptduyz9p34kc554jk7fqmz8se4","addr1w9k9jjqmy0hmm3ytt6k57v094x78xcymyg8j2xgkxju5y3qxz4y0w"],"addressesOutput":["addr1q9tsa7azqhuwpckxk50evpgx7yesjxzqf7whjx7wudz9qlfxccvsdcm4kq7pkm6vwgfr7useptduyz9p34kc554jk7fqmz8se4","addr1q9tsa7azqhuwpckxk50evpgx7yesjxzqf7whjx7wudz9qlfxccvsdcm4kq7pkm6vwgfr7useptduyz9p34kc554jk7fqmz8se4","addr1qxsgae4x0z3q0hjjqcwya7vzp9f9ex52lrly0wadmfgvhpfyzttqmp0evfcrwxkda77m5lg8c9ta2aafdf83jxyvhw3sgp9v30","addr1qxy832y77h0k95d4dp753ja67wlcs9sr0w3yhgvdspagpxa0ykjqjfg6m5vucn06w9e89w35w6dzsq26tmcypqdxx9dqpkvm2n"],"fee":839613,"totalOutput":82323402,"tokens":[]},{"hash":"d9ad5ee758669da119f1af71a3ec61da10d21a06345fe5c74b64c97f6100396e","blockNo":8318612,"blockHash":"aed76ce4672ad49b11d05953a56ddb1e940648ac7aa85a7c12a95f37bb3df73f","epochNo":390,"epochSlotNo":38260,"slot":83155060,"time":"2023/01/26 08:22:31","addressesInput":["addr1vy4nmtfc4jfftgqg369hs2ku6kvcncgzhkemq6mh0u3zgpslf59wr"],"addressesOutput":["addr1q9sg5tr0qld0wufxvttkg6rwt4h3q2cyhc864yu0kfce7dswepvcuwwd0jzkdk5prtpe326nnxv2jllxzzvezdc3mrtqggf29e","addr1qxfhhc5jvmtpzwzy49yp8h84gs7qzugd3qqjg7upc6635yg3hj7peggewwa0hsadm58amh9ku3p4u74rjl4pxu0x0pmqclwenf","addr1qxnnkquh43p6jwyjv24tpwa75u0vlhpcyw9y40v3a0x6eza88vpe0tzr4yufyc42kzamafc7elwrsgu2f27er67d4j9stchnpw","DdzFFzCqrhtCBnAYd1eBTRT2sUGgqt5vM3CVjeSxVqvK5xmWwDyjijUTwNRJbY3ZwuDNHct4ziz7xdXvaxvtAEwsEjb99fkjFJAiS42H","addr1vy4nmtfc4jfftgqg369hs2ku6kvcncgzhkemq6mh0u3zgpslf59wr"],"fee":184800,"totalOutput":234031122999,"tokens":[]},{"hash":"ff06a24b2652f95f25b27fe07c65189f2d05829d703cd346fc5ef5d91b3081c5","blockNo":8318612,"blockHash":"aed76ce4672ad49b11d05953a56ddb1e940648ac7aa85a7c12a95f37bb3df73f","epochNo":390,"epochSlotNo":38260,"slot":83155060,"time":"2023/01/26 08:22:31","addressesInput":["addr1qyjtum0ur2hvdakkyp38n5n2haqvy9347m8v6t4xcwhkmgwpxrpjl767h4jj2vhyl43c0ddnn2ak0f4guv09unkcrfkst8cgd7"],"addressesOutput":["addr1w89s3lfv7gkugker5llecq6x3k2vjvfnvp4692laeqe6w6s93vj3j"],"fee":251860,"totalOutput":2172240,"tokens":[]},{"hash":"f24922a8f7395bbbd82b3df22bdeb2aaf6a29146a8ad038446dfecadba26436b","blockNo":8318612,"blockHash":"aed76ce4672ad49b11d05953a56ddb1e940648ac7aa85a7c12a95f37bb3df73f","epochNo":390,"epochSlotNo":38260,"slot":83155060,"time":"2023/01/26 08:22:31","addressesInput":["addr1wy30zf2g4xc7v872fdweewrlj3lh2lgttelmydn0cvhyplsg3vnkq","addr1qy95g00rpy280qwszftyxcppqtm8k2lx05qq6yr4g58njcuujh79z72dujq2pk9qdp0998rtued8p0chmd0n0w7p4e9ssnuqfv"],"addressesOutput":["addr1qy95g00rpy280qwszftyxcppqtm8k2lx05qq6yr4g58njcuujh79z72dujq2pk9qdp0998rtued8p0chmd0n0w7p4e9ssnuqfv","addr1wy30zf2g4xc7v872fdweewrlj3lh2lgttelmydn0cvhyplsg3vnkq"],"fee":817877,"totalOutput":1145307074,"tokens":[]},{"hash":"662e8202f1805036296b857d1ba83c2f451c003a9762ff12e59e425a96820b55","blockNo":8318612,"blockHash":"aed76ce4672ad49b11d05953a56ddb1e940648ac7aa85a7c12a95f37bb3df73f","epochNo":390,"epochSlotNo":38260,"slot":83155060,"time":"2023/01/26 08:22:31","addressesInput":["addr1q95jpd92n20p8vujp2rl0wh3pn9lj8tdzerpeu7xqkcf66eef56ty877tvumzny7s02fmqp2uee27mkfe6f7397j4n5s46nxzv","addr1q95jpd92n20p8vujp2rl0wh3pn9lj8tdzerpeu7xqkcf66eef56ty877tvumzny7s02fmqp2uee27mkfe6f7397j4n5s46nxzv","addr1q95jpd92n20p8vujp2rl0wh3pn9lj8tdzerpeu7xqkcf66eef56ty877tvumzny7s02fmqp2uee27mkfe6f7397j4n5s46nxzv"],"addressesOutput":["DdzFFzCqrhskzhRYeyR4x1JAm59wXZrUdCdfzMS5xDTeb2i2DjsSsWefTgtQDmxiLMZF7g6xkCtwmwFG2zAJJPw99tyYP336CnjMU34j","addr1q95jpd92n20p8vujp2rl0wh3pn9lj8tdzerpeu7xqkcf66eef56ty877tvumzny7s02fmqp2uee27mkfe6f7397j4n5s46nxzv"],"fee":172321,"totalOutput":264821336,"tokens":[]},{"hash":"71e9db2c008445a8ce60cdaa099afc7b26fd7e96345fb096212e3fd67334d05b","blockNo":8318612,"blockHash":"aed76ce4672ad49b11d05953a56ddb1e940648ac7aa85a7c12a95f37bb3df73f","epochNo":390,"epochSlotNo":38260,"slot":83155060,"time":"2023/01/26 08:22:31","addressesInput":["addr1zxgx3far7qygq0k6epa0zcvcvrevmn0ypsnfsue94nsn3tvpw288a4x0xf8pxgcntelxmyclq83s0ykeehchz2wtspks905plm","addr1q8yu2ddzzc85n09wlptgtj4f7cm2smsrhxfj07h7nphxfw5mmqskn4xenzmm05qeucxnk9eswsgzallp28unc909m5dsd8fsra"],"addressesOutput":["addr1zxgx3far7qygq0k6epa0zcvcvrevmn0ypsnfsue94nsn3tvpw288a4x0xf8pxgcntelxmyclq83s0ykeehchz2wtspks905plm","addr1q8yu2ddzzc85n09wlptgtj4f7cm2smsrhxfj07h7nphxfw5mmqskn4xenzmm05qeucxnk9eswsgzallp28unc909m5dsd8fsra"],"fee":297442,"totalOutput":2970704,"tokens":[]},{"hash":"f39c2c590db5f51ddd2ce750f2ed52fd1b20f3be7c8414021b580cd4c46516d4","blockNo":8318612,"blockHash":"aed76ce4672ad49b11d05953a56ddb1e940648ac7aa85a7c12a95f37bb3df73f","epochNo":390,"epochSlotNo":38260,"slot":83155060,"time":"2023/01/26 08:22:31","addressesInput":["addr1qxr9hqec8zrj37t6qre32krqrysauy9sukzfp8g25tu9ky4fjwpcpfl6jrnuq7h7vsuqj3g7axxs3s7ahdeynkm6wqdqsnp3ur","addr1qxr9hqec8zrj37t6qre32krqrysauy9sukzfp8g25tu9ky4fjwpcpfl6jrnuq7h7vsuqj3g7axxs3s7ahdeynkm6wqdqsnp3ur","addr1qxr9hqec8zrj37t6qre32krqrysauy9sukzfp8g25tu9ky4fjwpcpfl6jrnuq7h7vsuqj3g7axxs3s7ahdeynkm6wqdqsnp3ur","addr1qxr9hqec8zrj37t6qre32krqrysauy9sukzfp8g25tu9ky4fjwpcpfl6jrnuq7h7vsuqj3g7axxs3s7ahdeynkm6wqdqsnp3ur"],"addressesOutput":["addr1wxn9efv2f6w82hagxqtn62ju4m293tqvw0uhmdl64ch8uwc0h43gt","addr1q8yyuq3yyzeshe7e9mwy2zcxkjd4td6y7ftk7m4he3cnrkdfjwpcpfl6jrnuq7h7vsuqj3g7axxs3s7ahdeynkm6wqdqachqkg"],"fee":190405,"totalOutput":6471409,"tokens":[]},{"hash":"0dd079c9c71905d5c3b317dd72b78f23f8ccb87956b5c12a92c22ef1f3921dfe","blockNo":8318612,"blockHash":"aed76ce4672ad49b11d05953a56ddb1e940648ac7aa85a7c12a95f37bb3df73f","epochNo":390,"epochSlotNo":38260,"slot":83155060,"time":"2023/01/26 08:22:31","addressesInput":["addr1qxkvfwnhs6tnnq8nj782mfhdm94uz3e8pftgtapw0lq6vdywfh7pjml04c2yrj6tnn5x7meyj9cy8z69835y8tps4e2qpekwml","addr1qxkvfwnhs6tnnq8nj782mfhdm94uz3e8pftgtapw0lq6vdywfh7pjml04c2yrj6tnn5x7meyj9cy8z69835y8tps4e2qpekwml"],"addressesOutput":["addr1q99dxdglkngeavhk5el0nc4r9l26lzkjpcex962gla8ll64g44s6eqgqacj0es3vjpvgqxxf0nt5epy7ejqfaxc7c4uq2tj6vq","addr1qxkvfwnhs6tnnq8nj782mfhdm94uz3e8pftgtapw0lq6vdywfh7pjml04c2yrj6tnn5x7meyj9cy8z69835y8tps4e2qpekwml"],"fee":189217,"totalOutput":44643669,"tokens":[]},{"hash":"58b54acbf73dec3ea88bccad5db87fa4409d2efb0853a397e22b6a2c7b1202fc","blockNo":8318612,"blockHash":"aed76ce4672ad49b11d05953a56ddb1e940648ac7aa85a7c12a95f37bb3df73f","epochNo":390,"epochSlotNo":38260,"slot":83155060,"time":"2023/01/26 08:22:31","addressesInput":["addr1v9ywm0h3r8cnxrs04gfy7c3s2j44utjyvn5ldjdca0c2ltccgqdes"],"addressesOutput":["addr1q8gx7x3xykvzk95mscsmtkjt3086vpcnmx4vve804u5u5ufzjl6afczy7fk9ujhavyxddc3qtxxqdvl2hgq5ypggkpmsa5yv9p","addr1q9e7s6zvfn9zvhq5zqvsvva09m48ltr8lt8lfmrn5x6pmcls42cr05gs584g0ux0ykdlvx0c52gym20pd2n5zw8pyqxqxfgf9e"],"fee":198237,"totalOutput":4801763,"tokens":[]},{"hash":"f69b76546c7e1f858e0d2075489f18f586ea193efc029222d11006ed6d23875c","blockNo":8318612,"blockHash":"aed76ce4672ad49b11d05953a56ddb1e940648ac7aa85a7c12a95f37bb3df73f","epochNo":390,"epochSlotNo":38260,"slot":83155060,"time":"2023/01/26 08:22:31","addressesInput":["addr1q936l9jj2nf972kdtzry8sa3f3jq4jzuxe89qff3k5ddtgueg6wvgz44rujzudma8q39s8nezqwq775n85sdlzvt6ywsthd7r6","addr1q8mpwjjqsmjmk25c95hdw3dkey2enu5z4fasupk96pxpx8veg6wvgz44rujzudma8q39s8nezqwq775n85sdlzvt6yws72sced"],"addressesOutput":["addr1vy9z06wasv30m2yz3k0cg9rgavdae9l5rz7672a2h4tf8kq0u483q","addr1qxcd67xv885lxpgwfu97znslnh3hm6yqjevalechxxrqjfveg6wvgz44rujzudma8q39s8nezqwq775n85sdlzvt6yws5wy8ks"],"fee":173113,"totalOutput":6653774,"tokens":[]},{"hash":"4c4f57fefca681782ce633e3ae8529f0db1650c784948ff83879ef8ee831e5c5","blockNo":8318612,"blockHash":"aed76ce4672ad49b11d05953a56ddb1e940648ac7aa85a7c12a95f37bb3df73f","epochNo":390,"epochSlotNo":38260,"slot":83155060,"time":"2023/01/26 08:22:31","addressesInput":["addr1q8u3dvp82nhs4znwd55xrz66h4wxzflfqpwtktgl72wuyxh9hk8taq4f73478hhawj6knlq7jmtu65pp59xaa966eqzsqt395d","addr1qx9nxyk903whvqmykjxqj60pxm0dzdcynlgu0k40t558sg89hk8taq4f73478hhawj6knlq7jmtu65pp59xaa966eqzscwpqz0"],"addressesOutput":["addr1q96mw5y93l25msfgppewfrf2lanr03ep6fa4al3yxklzeqwpew4k86m998dusejca6t3lhd0x6c9ugskzdglntp24ygqvpqj93","addr1qyy32xplptvnxgdjvvwq8hx7thgz839ng0n436ylql3ygeh9hk8taq4f73478hhawj6knlq7jmtu65pp59xaa966eqzs73tjst"],"fee":186665,"totalOutput":65407959,"tokens":[]},{"hash":"4483f252377e2376801e0913ae4406252bff475242303b16c707b0569afa01dc","blockNo":8318612,"blockHash":"aed76ce4672ad49b11d05953a56ddb1e940648ac7aa85a7c12a95f37bb3df73f","epochNo":390,"epochSlotNo":38260,"slot":83155060,"time":"2023/01/26 08:22:31","addressesInput":["addr1q9ynkpgtn7wguec37vxj77e6xgzsgjuda27e4wu67udskyx53pvs77jhw4grqwjjkww5g28etymjytjzuvq6ydha076sl2k872"],"addressesOutput":["addr1qy3egms8ut35fkjjw8rvkpt93xwga2y0hjga9wkskgcdlveunas7vr0c9mlejg9ge5qa9qv8le3q8p0lrpn38t0g6psseffz3w","addr1q9uwysg942qqrcplk73esww49mgg0vs3fdr3kgtxw5y6rj8a2xuhdzx3t37gr4t2q2evr8mrqz57krjg24thfedhqpkqucvmkk","addr1q9ynkpgtn7wguec37vxj77e6xgzsgjuda27e4wu67udskyx53pvs77jhw4grqwjjkww5g28etymjytjzuvq6ydha076sl2k872"],"fee":273465,"totalOutput":13450277,"tokens":[]},{"hash":"76b487c5059a0e5fef3b26e4b1809aeec4820394061460f80ea3a3f54f2ae86d","blockNo":8318612,"blockHash":"aed76ce4672ad49b11d05953a56ddb1e940648ac7aa85a7c12a95f37bb3df73f","epochNo":390,"epochSlotNo":38260,"slot":83155060,"time":"2023/01/26 08:22:31","addressesInput":["addr1qxuaqndvz0r4lal4kegw2g4nt07vhvz8rcxp8e4s6exsuecyx6c8v524c9a5r2krczvslgyw05k2fmhds8vk4ee6qy8sgflxjr"],"addressesOutput":["DdzFFzCqrhtAJRM2or5RpGwMsSvzwhiFbZXjc3grQAmTxJJdzPvZajJTGnYo2ff8poHFu196jJevBrxUoLz5rrBXihbnazZi8kUvZscE","addr1qxznyfwyu7s9yvqeyja8ejvtctvdjl83acuecvzv3gsuzrqyx6c8v524c9a5r2krczvslgyw05k2fmhds8vk4ee6qy8sgl0gk5"],"fee":170033,"totalOutput":126956642,"tokens":[]}],"totalItems":59799658,"totalPages":2989983,"currentPage":0}