{"data":[{"blockNo":6806346,"slotNo":51687211,"epochNo":317,"epochSlotNo":106411,"hash":"5fe931ab432b3584c5fa23777a149d9526ee38eca520108ddafbd6d67f81a8a0","time":"2022/01/27 03:18:22","txCount":37,"totalFees":13569639,"totalOutput":355995185500,"slotLeader":"33c1bf1a04ba85d8fd6119a08ee7f4ad659add075e2208b28862a2a1"},{"blockNo":6806345,"slotNo":51687192,"epochNo":317,"epochSlotNo":106392,"hash":"37796e1391eb572f5e6df1f4ce10f9a051d54196d669277b539fa37545c11a40","time":"2022/01/27 03:18:03","txCount":40,"totalFees":15113562,"totalOutput":18409387573,"slotLeader":"e645c034522f32522bf1c64a7f46128c562880abc26abe5f65f25a84"},{"blockNo":6806344,"slotNo":51687190,"epochNo":317,"epochSlotNo":106390,"hash":"f0dbc5fe682a770a9a5ab3afde1501588bb04e593a87fe15c1ba818884e34213","time":"2022/01/27 03:18:01","txCount":53,"totalFees":14066199,"totalOutput":341638891681,"slotLeader":"7113de447fb62c38e3e3aeec434cac6fc76e05e997b84227e9c637b8"},{"blockNo":6806343,"slotNo":51687131,"epochNo":317,"epochSlotNo":106331,"hash":"bddb122140a468c0a312705459374303e1263b2da26d3d65910152de94084b60","time":"2022/01/27 03:17:02","txCount":37,"totalFees":13358190,"totalOutput":95991055038,"slotLeader":"7d7ac07a2f2a25b7a4db868a40720621c4939cf6aefbb9a11464f1a6"},{"blockNo":6806342,"slotNo":51687125,"epochNo":317,"epochSlotNo":106325,"hash":"a5f9ba2fe96ade382ed590766b96ac50b151a3fdd1d3b94f77c875cb16535f05","time":"2022/01/27 03:16:56","txCount":55,"totalFees":14928261,"totalOutput":2141088229455,"slotLeader":"50e113d1ada46a83a16d5ee6cfdc1a8baed6634c9f046ed30131eb11"},{"blockNo":6806341,"slotNo":51687082,"epochNo":317,"epochSlotNo":106282,"hash":"6b668467448181fbbb8de4237817dfae1f4250aed6ad192ae140391d672fd3e9","time":"2022/01/27 03:16:13","txCount":61,"totalFees":16951778,"totalOutput":2328219018514,"slotLeader":"a532904ca60e13e88437b58e7c6ff66b8d5e7ec8d3f4b9e4be7820ec"},{"blockNo":6806340,"slotNo":51687068,"epochNo":317,"epochSlotNo":106268,"hash":"12c46c062ac1bec99c64e3972a22bdfe1e884850f9e299c6e351d1a586d07edf","time":"2022/01/27 03:15:59","txCount":47,"totalFees":15555352,"totalOutput":576071847389,"slotLeader":"903c38e5905f1587d5ecf8c875a181725fb4b12b3eb06ce1d20bb1c6"},{"blockNo":6806339,"slotNo":51687062,"epochNo":317,"epochSlotNo":106262,"hash":"a4991e41cd87dacfee6f52c35f0d629f3ca637a95149afca8b0f8b94cdca582f","time":"2022/01/27 03:15:53","txCount":26,"totalFees":13673958,"totalOutput":125811173080,"slotLeader":"0c2cfc283e0bbb85b9ef9d852c99ae7ee13f20f36b70fd648c6c3448"},{"blockNo":6806338,"slotNo":51687051,"epochNo":317,"epochSlotNo":106251,"hash":"a98222cbec19a82533fb1cd90fd43ccc7705957a9bfe8948343c50e866c8b2ba","time":"2022/01/27 03:15:42","txCount":51,"totalFees":13081690,"totalOutput":100880176533,"slotLeader":"4a2aa209e00f2926bd0d8a286592bbdea4d35a593c05d41efe29e642"},{"blockNo":6806337,"slotNo":51687021,"epochNo":317,"epochSlotNo":106221,"hash":"f1e7609c8e855ba2b8b701da4386764645c1f195bdb48ad6334753cbe02492c4","time":"2022/01/27 03:15:12","txCount":14,"totalFees":8276848,"totalOutput":6919705911117,"slotLeader":"b6a310df0c12af2bcab4cb1ceef2aea7b52080f1ee114b9eae5465de"},{"blockNo":6806336,"slotNo":51687020,"epochNo":317,"epochSlotNo":106220,"hash":"460318bf41e9795502e8de3fe98909a76b2f19b59609044ca8354498af362971","time":"2022/01/27 03:15:11","txCount":23,"totalFees":6528582,"totalOutput":37319000455,"slotLeader":"28489654d3fcce6affdde39f37c2d68dda5f42fc9f9feb8dd46d614a"},{"blockNo":6806335,"slotNo":51687018,"epochNo":317,"epochSlotNo":106218,"hash":"8602879d0fd30aac017d8d2905ed4ac85e34926ca681d820364182ffb042af38","time":"2022/01/27 03:15:09","txCount":33,"totalFees":10631173,"totalOutput":77103873427,"slotLeader":"903c38e5905f1587d5ecf8c875a181725fb4b12b3eb06ce1d20bb1c6"},{"blockNo":6806334,"slotNo":51686991,"epochNo":317,"epochSlotNo":106191,"hash":"9456d8e77bb47cd6e0b21306f7ec222777125547b7217ae1ab43e5a96f721dc8","time":"2022/01/27 03:14:42","txCount":49,"totalFees":14338712,"totalOutput":179857287246,"slotLeader":"c1bef45a2abbb3a862cdd9142236dff38763cc32e91fc8f282823ee6"},{"blockNo":6806333,"slotNo":51686980,"epochNo":317,"epochSlotNo":106180,"hash":"0b0468ac02f035dfa5816a230cc47f46ab3609f9ba61dddfad8ae284091948b3","time":"2022/01/27 03:14:31","txCount":34,"totalFees":12503269,"totalOutput":30016756673,"slotLeader":"71efddeabf5dd8211853a5ed30548391ccb54fa3b55e5828db9afee6"},{"blockNo":6806332,"slotNo":51686955,"epochNo":317,"epochSlotNo":106155,"hash":"af7858dd562c0f1c43e1d258a0190b47282cd59152d798490c4e5fe8ede1f176","time":"2022/01/27 03:14:06","txCount":54,"totalFees":16062687,"totalOutput":296295997799,"slotLeader":"e98e298624ce6efe34635318bdd5d634bed732bb238989d3d1b6fc9e"},{"blockNo":6806331,"slotNo":51686937,"epochNo":317,"epochSlotNo":106137,"hash":"55fbf5a4dcc3efce02dce54c73c84602ff3ec2160e3d1482cf92a40f2053a7bb","time":"2022/01/27 03:13:48","txCount":46,"totalFees":13404328,"totalOutput":1279039193146,"slotLeader":"4a78ca15af1b42f94106e94d419c2cdf72667389cf2b1b04df8f140e"},{"blockNo":6806330,"slotNo":51686885,"epochNo":317,"epochSlotNo":106085,"hash":"2bf8cd1c3eb9b8495f96ce977b29ce171a0f6b4beff7366c8c830cbc509b998f","time":"2022/01/27 03:12:56","txCount":22,"totalFees":11362795,"totalOutput":18680721040,"slotLeader":"0c2cfc283e0bbb85b9ef9d852c99ae7ee13f20f36b70fd648c6c3448"},{"blockNo":6806329,"slotNo":51686874,"epochNo":317,"epochSlotNo":106074,"hash":"a48aa397686c9d4925344ff17b7061c07c23605e1c8f45fb11e109e0fb2da5df","time":"2022/01/27 03:12:45","txCount":49,"totalFees":13343299,"totalOutput":1101548972429,"slotLeader":"768a4abe40bf4ec986087a6f356984da85ac3b8388dfa6840e3cdcf7"},{"blockNo":6806328,"slotNo":51686871,"epochNo":317,"epochSlotNo":106071,"hash":"36cf8a38e43ea0b1f59db4a1528c8202b682aa3118a553582cc470d0803a07ce","time":"2022/01/27 03:12:42","txCount":45,"totalFees":13333708,"totalOutput":2657387635960,"slotLeader":"1bdb8db050fb6cfd13a8e34ddec812e0aec77c589f71fc396cd9d950"},{"blockNo":6806327,"slotNo":51686858,"epochNo":317,"epochSlotNo":106058,"hash":"5e401ca636fa4f5269c5bab22c7e5d8fe4e3b7f6fd97085ff2c9ca8a60cf38b6","time":"2022/01/27 03:12:29","txCount":44,"totalFees":13933431,"totalOutput":122567675127,"slotLeader":"e0bfd78fd14b0336186ff6ca79a45f3619102b5bb484f7e0124dfdc0"}],"totalItems":6806522,"totalPages":340327,"currentPage":0}