{"data":[{"no":337,"status":"SYNCING","blkCount":15974,"outSum":110624411402977819,"txCount":380903,"startTime":"2022/05/05 21:47:30","endTime":"2022/05/09 18:22:15","maxSlot":432000},{"no":336,"status":"FINISHED","blkCount":20500,"outSum":154117532952824797,"txCount":529384,"startTime":"2022/04/30 21:45:16","endTime":"2022/05/05 21:44:43","maxSlot":432000},{"no":335,"status":"FINISHED","blkCount":20446,"outSum":138040819555980954,"txCount":584346,"startTime":"2022/04/25 21:45:07","endTime":"2022/04/30 21:44:36","maxSlot":432000},{"no":334,"status":"FINISHED","blkCount":20232,"outSum":131645454661322443,"txCount":515610,"startTime":"2022/04/20 21:45:15","endTime":"2022/04/25 21:44:50","maxSlot":432000},{"no":333,"status":"FINISHED","blkCount":20290,"outSum":167258482644606026,"txCount":573296,"startTime":"2022/04/15 21:47:28","endTime":"2022/04/20 21:44:48","maxSlot":432000},{"no":332,"status":"FINISHED","blkCount":20391,"outSum":225986048270909920,"txCount":584705,"startTime":"2022/04/10 21:46:19","endTime":"2022/04/15 21:44:42","maxSlot":432000},{"no":331,"status":"FINISHED","blkCount":20704,"outSum":234802085034384403,"txCount":450346,"startTime":"2022/04/05 21:45:02","endTime":"2022/04/10 21:44:42","maxSlot":432000},{"no":330,"status":"FINISHED","blkCount":20685,"outSum":227835307465812724,"txCount":499577,"startTime":"2022/03/31 21:46:34","endTime":"2022/04/05 21:44:35","maxSlot":432000},{"no":329,"status":"FINISHED","blkCount":20353,"outSum":305422090960286271,"txCount":546489,"startTime":"2022/03/26 21:44:51","endTime":"2022/03/31 21:44:35","maxSlot":432000},{"no":328,"status":"FINISHED","blkCount":20579,"outSum":227059210495141108,"txCount":550807,"startTime":"2022/03/21 21:45:16","endTime":"2022/03/26 21:43:35","maxSlot":432000}],"totalItems":338,"totalPages":34,"currentPage":0}