{"data":[{"blockNo":8377687,"slotNo":84378174,"epochNo":392,"epochSlotNo":397374,"hash":"cd647c1f58d8d3986ab9a8d82bf6f16bf22b12752291fdaf18238c01e9e3a2f7","time":"2023/02/09 12:07:45","txCount":39,"totalFees":12191769,"totalOutput":23592004532067,"slotLeader":"58494275c20e5786646ccc1f7d19a4c190382f374b0762208d596580"},{"blockNo":8377686,"slotNo":84378140,"epochNo":392,"epochSlotNo":397340,"hash":"5293a32083d0caf9633bd71021ae416a9dddeb27ed6d86367d66b91ba2e8cdbf","time":"2023/02/09 12:07:11","txCount":47,"totalFees":11310692,"totalOutput":246592403041,"slotLeader":"61d2598400211dcda6878511eb6d84719e5c502c7aa63d500f7a57ce"},{"blockNo":8377685,"slotNo":84378119,"epochNo":392,"epochSlotNo":397319,"hash":"86b0c86e08e7b7aedce2e0889170aa543adffc9661928935c2447abba06bcb71","time":"2023/02/09 12:06:50","txCount":38,"totalFees":11319945,"totalOutput":2727018898524,"slotLeader":"c83beb18d532234c72a304ab935982be670c22e771b227a3febc3a82"},{"blockNo":8377684,"slotNo":84378104,"epochNo":392,"epochSlotNo":397304,"hash":"6a98070e52202a3bbc44c5362d84fc8d9d8748860cfd9a121fd415ea2a29cc31","time":"2023/02/09 12:06:35","txCount":15,"totalFees":3800237,"totalOutput":33420987081,"slotLeader":"6658713e2cbfa4e347691a0435953f5acbe9f03d330e94caa3a0cfb4"},{"blockNo":8377683,"slotNo":84378102,"epochNo":392,"epochSlotNo":397302,"hash":"00ad99587e9364778106fc6d1faf1014e10ad4af5c04c26813d65287c684f1c8","time":"2023/02/09 12:06:33","txCount":70,"totalFees":18011646,"totalOutput":5646295432168,"slotLeader":"087cb9a9dab66751853893b0de0628aee88c36f82fd0c1ee3b998548"},{"blockNo":8377682,"slotNo":84378094,"epochNo":392,"epochSlotNo":397294,"hash":"104537963d2f4c8bea012c8c384d1ecc146bb3152243135593da47f3d738964f","time":"2023/02/09 12:06:25","txCount":34,"totalFees":11850841,"totalOutput":4313575782017,"slotLeader":"259d8027c33ee454ec2319531269495c07fefcdb52a513c5090f59ed"},{"blockNo":8377681,"slotNo":84378036,"epochNo":392,"epochSlotNo":397236,"hash":"39f67cda92d42138a930eaad70de854c83a9dd3e7b8acbcc1f90840f021dae12","time":"2023/02/09 12:05:27","txCount":54,"totalFees":14611554,"totalOutput":3342898118394,"slotLeader":"86d56db6754947d5c6dfd788568c189cc188d448aa6bc4ee634f655a"},{"blockNo":8377680,"slotNo":84377989,"epochNo":392,"epochSlotNo":397189,"hash":"34d468445f33ac01a384c17fe916e3e4293c19d7a7f7058d5dd261684a0cfd6f","time":"2023/02/09 12:04:40","txCount":48,"totalFees":13932886,"totalOutput":2133562786844,"slotLeader":"689a60c22ae02ece9405e0cd5fefdb7ceffc0a52c61c42d9955a9b1b"},{"blockNo":8377679,"slotNo":84377963,"epochNo":392,"epochSlotNo":397163,"hash":"3a5999a15bfb258cf9fb565e88ba905d745779561b0d3ed11724d97fd25662ca","time":"2023/02/09 12:04:14","txCount":19,"totalFees":7475857,"totalOutput":3800242923253,"slotLeader":"60397646d7d1ad6fe2ddccfe7efc9cba61f6d3d94d29e8f41de73240"},{"blockNo":8377678,"slotNo":84377962,"epochNo":392,"epochSlotNo":397162,"hash":"5545192e857095ed986fd9ba7e9443dd5f5fdefd91d1644b68a10695c80e670c","time":"2023/02/09 12:04:13","txCount":56,"totalFees":15968596,"totalOutput":176824972259,"slotLeader":"41b8741536cd484687a4c3adcdc07211cfce03ca58727212336acc5e"}],"totalItems":18880,"totalPages":1888,"currentPage":0}