{"data":[{"blockNo":8296588,"slotNo":82697825,"epochNo":389,"epochSlotNo":13025,"hash":"647101885784ce32f09427a5d6f70c357b2cdbec28a6252ea65f0b2d6cca2752","time":"2023/01/21 01:21:56","txCount":3,"totalFees":675979,"totalOutput":84531577300,"slotLeader":"00beef284975ef87856c1343f6bf50172253177fdebc756524d43fc1"},{"blockNo":8296587,"slotNo":82697820,"epochNo":389,"epochSlotNo":13020,"hash":"adf00693c165218af27707105be8505389d9afb31385e8a0db0153cd57ef49eb","time":"2023/01/21 01:21:51","txCount":13,"totalFees":4635970,"totalOutput":258831968443,"slotLeader":"40c5a505a4276c94e49b848c1b0aa62c4ea244574f4e2e28ebb29210"},{"blockNo":8296586,"slotNo":82697802,"epochNo":389,"epochSlotNo":13002,"hash":"6c5152090c7b8203e312dbaf4535976241dbbaf3a31fada70344ee4d5daa49a8","time":"2023/01/21 01:21:33","txCount":10,"totalFees":2523116,"totalOutput":11066889703,"slotLeader":"a374a14d2fa809b5e999a474b5d085b10be2fc95e6e82da045d9e8f6"},{"blockNo":8296585,"slotNo":82697786,"epochNo":389,"epochSlotNo":12986,"hash":"6b10906b370e8e2e6f2ed54ae0473f71c02f3ba3016040fc67927d3b6d4cebe1","time":"2023/01/21 01:21:17","txCount":13,"totalFees":4883825,"totalOutput":2572998705008,"slotLeader":"5121819e5114235cb8c377ecf0a9d4e311898c447043e3b5b2848f63"},{"blockNo":8296584,"slotNo":82697774,"epochNo":389,"epochSlotNo":12974,"hash":"8087fd2f346d504cf12b84de612aabe46a0563d23a424d188a90bd2c795c8b41","time":"2023/01/21 01:21:05","txCount":12,"totalFees":4386549,"totalOutput":972130186390,"slotLeader":"a89b86373838360143aba3911eaae54bf9420868965d48d447e4510a"},{"blockNo":8296583,"slotNo":82697764,"epochNo":389,"epochSlotNo":12964,"hash":"458f461740b1251e53735da14ef8655edda7626c199de6a2a102067737f92018","time":"2023/01/21 01:20:55","txCount":19,"totalFees":6852675,"totalOutput":1507975926150,"slotLeader":"0054fc7a4e34f9a1eef15a05fdfc9d323deeb9b72a4b5ec514247e66"},{"blockNo":8296582,"slotNo":82697749,"epochNo":389,"epochSlotNo":12949,"hash":"06730d0c0a619bfff3ef2e4f9df4b4b91420113e4795a2e2b87e3ee8ab6a3de5","time":"2023/01/21 01:20:40","txCount":10,"totalFees":4294085,"totalOutput":112382233922,"slotLeader":"b900dfcf894c473620bf379f8c63aa300d8c8842a94a758758bdcd33"},{"blockNo":8296581,"slotNo":82697736,"epochNo":389,"epochSlotNo":12936,"hash":"1bca0653fb609f53a68fac42c5d6c446bfdfe774a8b2c7bfefa8a1f209de3b37","time":"2023/01/21 01:20:27","txCount":1,"totalFees":166821,"totalOutput":2173666358,"slotLeader":"83b259c187f8b88eda564b1f56ce2786360a9dc224f737fcdd8703c1"},{"blockNo":8296580,"slotNo":82697735,"epochNo":389,"epochSlotNo":12935,"hash":"c53a5038bb196075ba58db1a113f529cd54fab0a90ff120c5a97abbf17eab8fa","time":"2023/01/21 01:20:26","txCount":27,"totalFees":7137568,"totalOutput":1967588701466,"slotLeader":"463e481957f266d93e4decbfb73003380ab17223e0e569f71c7a525a"},{"blockNo":8296579,"slotNo":82697704,"epochNo":389,"epochSlotNo":12904,"hash":"b721ad8858547a4f863c0945af5f88d255525e28717e6c870e0851009269aeae","time":"2023/01/21 01:19:55","txCount":31,"totalFees":8440908,"totalOutput":3124067340743,"slotLeader":"6ec2284f8e312b5b122d85b97db828ff364d49e3c51c449bfc8889bf"}],"totalItems":592,"totalPages":60,"currentPage":0}