{"data":[{"address":"addr1qye8nh09n8zftagc6pxfmh0d6rvhp6s72rssnkzstnhc499mw46qmm7yh77x7drszn8hvpe75smdawsz2xpeuksm2q6s9zwcsc","quantity":9223372036854775807},{"address":"addr1q9qvtc54rs7r23pknsclu28g37pn5gaaeavrr0f6d5wf2y4mw46qmm7yh77x7drszn8hvpe75smdawsz2xpeuksm2q6sufwkv7","quantity":9199999999999999997},{"address":"addr1qy9f2ej35gcww8w3hqeavhqhhqaqvjgxwa0swav5rglzch4mw46qmm7yh77x7drszn8hvpe75smdawsz2xpeuksm2q6s9u76re","quantity":9190000000000000001},{"address":"addr1qy2jejk6d2yp8z29spxqyszpta35vd74pceklrl5l0y35w9mw46qmm7yh77x7drszn8hvpe75smdawsz2xpeuksm2q6sg2d43e","quantity":9180000000000000001},{"address":"addr1qy02grarzysfg8w262jenjpn8mj7vjy6e0uftdhevsw4n49mw46qmm7yh77x7drszn8hvpe75smdawsz2xpeuksm2q6spgm99l","quantity":9160000000000000001},{"address":"addr1qxl5sl9el8jz0htk9dudxy4vjulr7hswlawt9wv7d96vjf9mw46qmm7yh77x7drszn8hvpe75smdawsz2xpeuksm2q6serk5yj","quantity":9150000000000000001},{"address":"addr1q8kygyx83e4vvdtmwla4m0z9q6dlywcktt7lhv6xhn48wnamw46qmm7yh77x7drszn8hvpe75smdawsz2xpeuksm2q6svkw87e","quantity":9140000000000000001},{"address":"addr1q8dgnd9qz7sd04mvudt79g03qkr88w96ssezy9g48tenyrdmw46qmm7yh77x7drszn8hvpe75smdawsz2xpeuksm2q6satyxk2","quantity":9139000000000000001},{"address":"addr1qygzs903legxwndxuqeqn85q0h6zpnat0t3f77pzmzddyuamw46qmm7yh77x7drszn8hvpe75smdawsz2xpeuksm2q6s5df48z","quantity":9138000000000000001},{"address":"addr1qxtva6lfpal5sg8hehwe7u88rlg588ha2tmcu86sk7up7samw46qmm7yh77x7drszn8hvpe75smdawsz2xpeuksm2q6su3ewfp","quantity":9113000000000000001},{"address":"addr1q8f93zearf9jlkwcmvqhhgl7am9qhnepy7amd7xauj6dl39mw46qmm7yh77x7drszn8hvpe75smdawsz2xpeuksm2q6salq5sk","quantity":9111000000000000001},{"address":"addr1q9mes2fu4anx6qldczvman5l64p7nwt6kptju73ah46xtc9mw46qmm7yh77x7drszn8hvpe75smdawsz2xpeuksm2q6sc3d54z","quantity":9111000000000000001},{"address":"addr1qx3xt5vv704qxn8grmgsycsqvpcf3gtdhzs60ks7a2s28yamw46qmm7yh77x7drszn8hvpe75smdawsz2xpeuksm2q6sfxknjy","quantity":9108999999999999981},{"address":"addr1qxcwxknxgrt5nev34t82nh7fe8tf9n0deycfg7vtdnuj9w9mw46qmm7yh77x7drszn8hvpe75smdawsz2xpeuksm2q6s3rqsk8","quantity":9106999999999999981},{"address":"addr1q9nptcyc7jtjemaktlkgffjcmf700dcz5f2eg8n6vqm7qldmw46qmm7yh77x7drszn8hvpe75smdawsz2xpeuksm2q6satc7tt","quantity":9105999999999999981},{"address":"addr1q8272d47f0re6tan3eupzs4hmp0sq05eyk6fe7ukhv55a34mw46qmm7yh77x7drszn8hvpe75smdawsz2xpeuksm2q6s569an3","quantity":9103999999999999981},{"address":"addr1q85jc4tw6d3dj3n800j77tesephwtr6dpqfadff7rg4y5h4mw46qmm7yh77x7drszn8hvpe75smdawsz2xpeuksm2q6st2lwg7","quantity":9101999999999999981},{"address":"addr1qxx0d8ms8ma9x94x37hfyplvweef6sx9exymreaugsr2z34mw46qmm7yh77x7drszn8hvpe75smdawsz2xpeuksm2q6sg7j3wh","quantity":9099999999999999981},{"address":"addr1qynymkxefkrnexs2nzvzwew4wyq07d97gv2etzvjte824zdmw46qmm7yh77x7drszn8hvpe75smdawsz2xpeuksm2q6sd46fl0","quantity":9093999999999999981},{"address":"addr1q9vgrfkhytdj6q6npu98na7hr5w5lxgcekpjuvjccf4nxeamw46qmm7yh77x7drszn8hvpe75smdawsz2xpeuksm2q6spy2ncs","quantity":9093999999999999981}],"totalItems":8656,"totalPages":433,"currentPage":0}