{"data":[{"hash":"63e00218a76e1282af326bf019cc830fc0de5d804e636f2bd1193937a1feacb3","blockNo":6852237,"blockHash":"877d8afaad5250a730a1b9f9ae44819e90434e44ad7f66d3403aa336313fd343","epochNo":319,"epochSlotNo":215742,"slot":52660542,"time":"2022/02/07 09:40:33","addressesInput":["addr1qy4ssmmysxr2sxtxxejxgg0w34gy2hhcvzqgl3tzf0cx8333ypp85fwcs8meq97ckf0fuf86vy5955t5357v7yw4w4cqt8qqc0","addr1qy4ssmmysxr2sxtxxejxgg0w34gy2hhcvzqgl3tzf0cx8333ypp85fwcs8meq97ckf0fuf86vy5955t5357v7yw4w4cqt8qqc0"],"addressesOutput":["addr1w999n67e86jn6xal07pzxtrmqynspgx0fwmcmpua4wc6yzsxpljz3","addr1qy4ssmmysxr2sxtxxejxgg0w34gy2hhcvzqgl3tzf0cx8333ypp85fwcs8meq97ckf0fuf86vy5955t5357v7yw4w4cqt8qqc0"],"fee":228855,"totalOutput":179133688,"tokens":[]},{"hash":"6ae7a4eecc3e9b4009811696352b15e7eb6b19ad8838f76ab952197a9f7222b3","blockNo":6852180,"blockHash":"c77deb32b3077d87c803d76025e03d3893ce9e49158af9f65be3285b526f71cd","epochNo":319,"epochSlotNo":214428,"slot":52659228,"time":"2022/02/07 09:18:39","addressesInput":["addr1qxmllm7g0ktaftjgs2nsaq5s62t8g5yajxzdjxmaz8qm43m7j4dk4pjzlm2ya039s36wzzvj45753x87nldqegc3xfrqnl5vee","addr1qxmllm7g0ktaftjgs2nsaq5s62t8g5yajxzdjxmaz8qm43m7j4dk4pjzlm2ya039s36wzzvj45753x87nldqegc3xfrqnl5vee","addr1qxmllm7g0ktaftjgs2nsaq5s62t8g5yajxzdjxmaz8qm43m7j4dk4pjzlm2ya039s36wzzvj45753x87nldqegc3xfrqnl5vee","addr1qxmllm7g0ktaftjgs2nsaq5s62t8g5yajxzdjxmaz8qm43m7j4dk4pjzlm2ya039s36wzzvj45753x87nldqegc3xfrqnl5vee"],"addressesOutput":["addr1wxaptpmxcxawvr3pzlhgnpmzz3ql43n2tc8mn3av5kx0yzs09tqh8","addr1qxmllm7g0ktaftjgs2nsaq5s62t8g5yajxzdjxmaz8qm43m7j4dk4pjzlm2ya039s36wzzvj45753x87nldqegc3xfrqnl5vee"],"fee":220845,"totalOutput":112823407,"tokens":[]},{"hash":"0bbd699bf089479857c9a46275f77c42c646b336553bb2374cee596370fbf6cd","blockNo":6852113,"blockHash":"caf55bf00c8daa5d3098b6b4785c8e05e8a21e722fa5755bde748a0142856822","epochNo":319,"epochSlotNo":212942,"slot":52657742,"time":"2022/02/07 08:53:53","addressesInput":["addr1q9gryuhqgctg07xxdr2knzylg02pr8chsznrgusw3yh6rk0nhg9pdyuuy63884c8u39f2w7rctqp6vzf7mlzxfzyv30semcrtz"],"addressesOutput":["addr1q885st3hq2ehskmmkexy9r2z63vfaeka4043wl4p69mctxd2drg62ktgu7mk6uwp6wuuhz304qm3xj9yp8rar2nq8jjspcsdrm","addr1qy497hna5078q5ktlgv9df0dcpep74yv7fndfzw0zejs800nhg9pdyuuy63884c8u39f2w7rctqp6vzf7mlzxfzyv30shuuwse"],"fee":181121,"totalOutput":84671570,"tokens":[]},{"hash":"23ce410f8e8cc5fbaf3e56d43dcb8c884e0edc6f4a8b4c3e465fd2e44e4e6994","blockNo":6852053,"blockHash":"2fd89a5f2c3a5449bfb41f5e66991257452e97038ad0eebb0bab70fc6c315ccd","epochNo":319,"epochSlotNo":211740,"slot":52656540,"time":"2022/02/07 08:33:51","addressesInput":["addr1q83tgyjn20zmsagfya472pxv4ptupcgj5y593sw3s0www88nhg9pdyuuy63884c8u39f2w7rctqp6vzf7mlzxfzyv30ss2770g","addr1q96qsfxvw0h2fw82wswyvrjemrhl4xjac2yq5l0xkj436v8nhg9pdyuuy63884c8u39f2w7rctqp6vzf7mlzxfzyv30s0rc6fv"],"addressesOutput":["addr1q885st3hq2ehskmmkexy9r2z63vfaeka4043wl4p69mctxd2drg62ktgu7mk6uwp6wuuhz304qm3xj9yp8rar2nq8jjspcsdrm","addr1q9gryuhqgctg07xxdr2knzylg02pr8chsznrgusw3yh6rk0nhg9pdyuuy63884c8u39f2w7rctqp6vzf7mlzxfzyv30semcrtz"],"fee":189041,"totalOutput":86334171,"tokens":[]},{"hash":"9c342a487dbe5eed14d8f591de340170d8d730470928ae9e7e3113224e495f33","blockNo":6851983,"blockHash":"c689f58d2e853debca77410d189eef878f04318fd095114fee65b8fddee2ada5","epochNo":319,"epochSlotNo":210309,"slot":52655109,"time":"2022/02/07 08:10:00","addressesInput":["addr1q96qsfxvw0h2fw82wswyvrjemrhl4xjac2yq5l0xkj436v8nhg9pdyuuy63884c8u39f2w7rctqp6vzf7mlzxfzyv30s0rc6fv"],"addressesOutput":["addr1vx49lptpjkw2rn9ww795l3zml043hxaaguc44umhkn6xznqamccnv","addr1q83tgyjn20zmsagfya472pxv4ptupcgj5y593sw3s0www88nhg9pdyuuy63884c8u39f2w7rctqp6vzf7mlzxfzyv30ss2770g"],"fee":177909,"totalOutput":178523212,"tokens":[]},{"hash":"ab62da324109c824cb6ff561df900809a1d7c57c95cee69d19f63f6882579f32","blockNo":6851960,"blockHash":"a8742810f8fedc96b049ac18d1c99b460fc0459d6dbfb28e1e4608e8422e536d","epochNo":319,"epochSlotNo":209948,"slot":52654748,"time":"2022/02/07 08:03:59","addressesInput":["addr1qymaumdm272r24d0s46827plplhc6t520lufdr5vdqn0z8hze4zwjlw3vpjum04n0gjymwde8c9p5r67yqupkzy8yz5qwdv2cd","addr1qymaumdm272r24d0s46827plplhc6t520lufdr5vdqn0z8hze4zwjlw3vpjum04n0gjymwde8c9p5r67yqupkzy8yz5qwdv2cd"],"addressesOutput":["addr1w999n67e86jn6xal07pzxtrmqynspgx0fwmcmpua4wc6yzsxpljz3","addr1qymaumdm272r24d0s46827plplhc6t520lufdr5vdqn0z8hze4zwjlw3vpjum04n0gjymwde8c9p5r67yqupkzy8yz5qwdv2cd","addr1qymaumdm272r24d0s46827plplhc6t520lufdr5vdqn0z8hze4zwjlw3vpjum04n0gjymwde8c9p5r67yqupkzy8yz5qwdv2cd"],"fee":423447,"totalOutput":64983042,"tokens":[]},{"hash":"a198e45df3483e59911cbb649e1bc4e682c3915a33b1af6bc32cb9e569bd4da5","blockNo":6851716,"blockHash":"c288d04e1edc50820727a86fd0c69674a02a4d0251ae49068de9e9361573bb17","epochNo":319,"epochSlotNo":204163,"slot":52648963,"time":"2022/02/07 06:27:34","addressesInput":["addr1qyya3tqthg9ajrfh2ux0chm6dse50r74cqrppwfqd5naxrav002vf6te3g057nrg4ry2fxlas0cdyt5y8x0e7z6mmmpspdvr6h","addr1qyya3tqthg9ajrfh2ux0chm6dse50r74cqrppwfqd5naxrav002vf6te3g057nrg4ry2fxlas0cdyt5y8x0e7z6mmmpspdvr6h"],"addressesOutput":["addr1q9934ju6d5g0usvh8ntafrjennrrar3pu5tmvge54c72huckkylfec09kecz7ycul8vvcvwh95rm23uputfd0fwp3fwqf7w20k","addr1qyya3tqthg9ajrfh2ux0chm6dse50r74cqrppwfqd5naxrav002vf6te3g057nrg4ry2fxlas0cdyt5y8x0e7z6mmmpspdvr6h","addr1qyya3tqthg9ajrfh2ux0chm6dse50r74cqrppwfqd5naxrav002vf6te3g057nrg4ry2fxlas0cdyt5y8x0e7z6mmmpspdvr6h"],"fee":176897,"totalOutput":28440034,"tokens":[]},{"hash":"5d36958142496a3c74b2080259a3ba7e63b241371c92d1d9b62ed276565fe09e","blockNo":6851504,"blockHash":"e326ae03a23021f97f0173948052a428b40aa9c1240195980e0b40ce67cfb925","epochNo":319,"epochSlotNo":199988,"slot":52644788,"time":"2022/02/07 05:17:59","addressesInput":["addr1qyecjgprat9qjdfkv6ln45eww5a9lwkgqn92x6lspd339ky00hv6dpawknxe42d8dlx42msv2nt8yej77vudk0uruvtsh2aeym","addr1qyecjgprat9qjdfkv6ln45eww5a9lwkgqn92x6lspd339ky00hv6dpawknxe42d8dlx42msv2nt8yej77vudk0uruvtsh2aeym","addr1qyecjgprat9qjdfkv6ln45eww5a9lwkgqn92x6lspd339ky00hv6dpawknxe42d8dlx42msv2nt8yej77vudk0uruvtsh2aeym","addr1qyecjgprat9qjdfkv6ln45eww5a9lwkgqn92x6lspd339ky00hv6dpawknxe42d8dlx42msv2nt8yej77vudk0uruvtsh2aeym"],"addressesOutput":["addr1qxgzmve2rgs59gtuywtrpzh64qz92ksdj00nace0n8t24kgv9jgacxc5hh23f0fwpvu7l7xrpf99vvmnsvfp2zwj4vvq0g83nh","addr1qyecjgprat9qjdfkv6ln45eww5a9lwkgqn92x6lspd339ky00hv6dpawknxe42d8dlx42msv2nt8yej77vudk0uruvtsh2aeym","addr1qyecjgprat9qjdfkv6ln45eww5a9lwkgqn92x6lspd339ky00hv6dpawknxe42d8dlx42msv2nt8yej77vudk0uruvtsh2aeym"],"fee":204529,"totalOutput":335731177,"tokens":[]},{"hash":"4fc53f2559f41e4ed209b6f3259a2a264047b5ab4d7da73b504151ad8388b993","blockNo":6850984,"blockHash":"f950ca3268c001b2a4522e7a3b2b39e7397d7fe3657e068a7a1a61cccc0dbc58","epochNo":319,"epochSlotNo":188793,"slot":52633593,"time":"2022/02/07 02:11:24","addressesInput":["addr1qyfqrqhuljs6s05xn9camr3fkfk98d4xyn9vwf75dnnylwzdweftyc5cx76lqf466ugl8wf6wx3tkmfrjyfrp0ewur9s50zf72"],"addressesOutput":["addr1w999n67e86jn6xal07pzxtrmqynspgx0fwmcmpua4wc6yzsxpljz3","addr1qyfqrqhuljs6s05xn9camr3fkfk98d4xyn9vwf75dnnylwzdweftyc5cx76lqf466ugl8wf6wx3tkmfrjyfrp0ewur9s50zf72"],"fee":280695,"totalOutput":21314811,"tokens":[]},{"hash":"e84b47c622fe8ddff11f8a20006d09a34a3e38dfecabdd5ed883cb6a05b0af76","blockNo":6850739,"blockHash":"57790992509aa148392396d6c752fff920753c640c05b4499a126ed52db53fb1","epochNo":319,"epochSlotNo":183741,"slot":52628541,"time":"2022/02/07 00:47:12","addressesInput":["addr1q8fjdde87jrua78trg9ylv7gpvd5skzcv5nqp3wl467ykzgsmz083klcvm744y0n7yyg49ykzz0j628xpu4n5u0r0r4qrfqf6q","addr1q8fjdde87jrua78trg9ylv7gpvd5skzcv5nqp3wl467ykzgsmz083klcvm744y0n7yyg49ykzz0j628xpu4n5u0r0r4qrfqf6q","addr1q8fjdde87jrua78trg9ylv7gpvd5skzcv5nqp3wl467ykzgsmz083klcvm744y0n7yyg49ykzz0j628xpu4n5u0r0r4qrfqf6q","addr1q8fjdde87jrua78trg9ylv7gpvd5skzcv5nqp3wl467ykzgsmz083klcvm744y0n7yyg49ykzz0j628xpu4n5u0r0r4qrfqf6q"],"addressesOutput":["addr1vx9hkfrpphudd734jvxlhumagugjlyulccyrhtn2jwza33c8705k4","addr1q8fjdde87jrua78trg9ylv7gpvd5skzcv5nqp3wl467ykzgsmz083klcvm744y0n7yyg49ykzz0j628xpu4n5u0r0r4qrfqf6q"],"fee":283421,"totalOutput":19300371,"tokens":[]},{"hash":"f15fe6e23902e3bc2d9872ab809bde7e336ba08830887b1a0bc145cfc9900bce","blockNo":6850723,"blockHash":"2e2e469a1e7189f9b6b7d671c275784da1d50de3b6f732f46f2a2257d349c5d0","epochNo":319,"epochSlotNo":183410,"slot":52628210,"time":"2022/02/07 00:41:41","addressesInput":["addr1w999n67e86jn6xal07pzxtrmqynspgx0fwmcmpua4wc6yzsxpljz3","addr1qyecjgprat9qjdfkv6ln45eww5a9lwkgqn92x6lspd339ky00hv6dpawknxe42d8dlx42msv2nt8yej77vudk0uruvtsh2aeym","addr1qyecjgprat9qjdfkv6ln45eww5a9lwkgqn92x6lspd339ky00hv6dpawknxe42d8dlx42msv2nt8yej77vudk0uruvtsh2aeym"],"addressesOutput":["addr1w999n67e86jn6xal07pzxtrmqynspgx0fwmcmpua4wc6yzsxpljz3","addr1qyecjgprat9qjdfkv6ln45eww5a9lwkgqn92x6lspd339ky00hv6dpawknxe42d8dlx42msv2nt8yej77vudk0uruvtsh2aeym"],"fee":1220535,"totalOutput":93011886,"tokens":[]},{"hash":"814878321c2420bd46264c31f59b5d13fcdd7b37231b03c541b3fb79e0b076e7","blockNo":6850493,"blockHash":"578babe8f4d3c6146a6c8029cd21504bda255d4edd6b0bb5bd6691533f94314f","epochNo":319,"epochSlotNo":178245,"slot":52623045,"time":"2022/02/06 23:15:36","addressesInput":["addr1qx8mlyl6j2mgx3sghkvtwg2kpdqlx92elt5a4sfel0szhjga49c73yv32axatm687gp8req4y0v6thvmec00sz5fdn3scsvkf3","addr1q9lgs3cprg4tytxea977lu24zc92sw4pzkurs7edx84mjsga49c73yv32axatm687gp8req4y0v6thvmec00sz5fdn3sa3g3zh"],"addressesOutput":["addr1v9gmln9yj2llkum0qr5u7vk84etvqv6g9arzuh9h3s3z8uc7ja4d2","addr1qy7n3gckhe8pt779t4p6gl3fpyhx4qhtt73599w2ux7j7jsa49c73yv32axatm687gp8req4y0v6thvmec00sz5fdn3scqwm2l"],"fee":234493,"totalOutput":2927878856,"tokens":[]},{"hash":"f20a9e1a99b6d8ac56a1689af8ccdfabf07784ba6d0f5a41f7c894c72c2218c7","blockNo":6850289,"blockHash":"2de7242569726601c4d4c0f77e260d01eaf0e65325194a4248a35ab6a3e434a1","epochNo":319,"epochSlotNo":174130,"slot":52618930,"time":"2022/02/06 22:07:01","addressesInput":["addr1qxmllm7g0ktaftjgs2nsaq5s62t8g5yajxzdjxmaz8qm43m7j4dk4pjzlm2ya039s36wzzvj45753x87nldqegc3xfrqnl5vee"],"addressesOutput":["addr1qxmllm7g0ktaftjgs2nsaq5s62t8g5yajxzdjxmaz8qm43m7j4dk4pjzlm2ya039s36wzzvj45753x87nldqegc3xfrqnl5vee","addr1qxmllm7g0ktaftjgs2nsaq5s62t8g5yajxzdjxmaz8qm43m7j4dk4pjzlm2ya039s36wzzvj45753x87nldqegc3xfrqnl5vee","addr1qxmllm7g0ktaftjgs2nsaq5s62t8g5yajxzdjxmaz8qm43m7j4dk4pjzlm2ya039s36wzzvj45753x87nldqegc3xfrqnl5vee"],"fee":176589,"totalOutput":11881902,"tokens":[]},{"hash":"3ac533261ddf45854ac28ad386578299008d6910cb5d05227bc644849055c7b1","blockNo":6850161,"blockHash":"2a30b79e66a9a760fc452db646b9d8c1829c12aa095e00a6f6a8641ecf4d991d","epochNo":319,"epochSlotNo":171648,"slot":52616448,"time":"2022/02/06 21:25:39","addressesInput":["addr1q8njpfaq2juy8djeqh7xs4k9n0uyz7q00gr4ttn82xdc6xuz2kfgd2rjm46qt0vqvtu6lmrwna0gzmsvv37ngqtmywwq4pn0pl","addr1q8njpfaq2juy8djeqh7xs4k9n0uyz7q00gr4ttn82xdc6xuz2kfgd2rjm46qt0vqvtu6lmrwna0gzmsvv37ngqtmywwq4pn0pl","addr1q8njpfaq2juy8djeqh7xs4k9n0uyz7q00gr4ttn82xdc6xuz2kfgd2rjm46qt0vqvtu6lmrwna0gzmsvv37ngqtmywwq4pn0pl"],"addressesOutput":["addr1w999n67e86jn6xal07pzxtrmqynspgx0fwmcmpua4wc6yzsxpljz3","addr1q8njpfaq2juy8djeqh7xs4k9n0uyz7q00gr4ttn82xdc6xuz2kfgd2rjm46qt0vqvtu6lmrwna0gzmsvv37ngqtmywwq4pn0pl"],"fee":258567,"totalOutput":57177386,"tokens":[]},{"hash":"a61eab77e0255cd26a69423f2dff0841a7bef6e7d9b764fe4f44a5c77f51f01e","blockNo":6850159,"blockHash":"852de9134183dce207292e9bf914092f08aaa3b5b89debe00a7f5c04ce7362b8","epochNo":319,"epochSlotNo":171644,"slot":52616444,"time":"2022/02/06 21:25:35","addressesInput":["addr1q86er3g4c55y5q2jm6x0uyzjj9z77fh3trxsp28yjjvz4u8nhg9pdyuuy63884c8u39f2w7rctqp6vzf7mlzxfzyv30srrlrta","addr1qx26z4j76ahzkvst9edhsf33utr983lx3zpjzwkutvz5z9lnhg9pdyuuy63884c8u39f2w7rctqp6vzf7mlzxfzyv30srt3da0","addr1q86er3g4c55y5q2jm6x0uyzjj9z77fh3trxsp28yjjvz4u8nhg9pdyuuy63884c8u39f2w7rctqp6vzf7mlzxfzyv30srrlrta"],"addressesOutput":["addr1vx829szuwzs0dnnawu080c9kg6m9udlv8pl3r4qpnh3gt2gsz6r7e","addr1q96qsfxvw0h2fw82wswyvrjemrhl4xjac2yq5l0xkj436v8nhg9pdyuuy63884c8u39f2w7rctqp6vzf7mlzxfzyv30s0rc6fv"],"fee":185521,"totalOutput":244701121,"tokens":[]},{"hash":"9c1dcfd999720cb17d6c244e4ad38762a2b7d4415fc8583b8e5fe1f0f355448f","blockNo":6850043,"blockHash":"1c8915bd86b3adf45a4cbf8be3eae7c7ea4d24b87b60af0d115e5d04526fce1b","epochNo":319,"epochSlotNo":169296,"slot":52614096,"time":"2022/02/06 20:46:27","addressesInput":["addr1qy0xznhgdhqj9u4g6jjdntf2cxy5lyad8j2p6a6dp8jwwttfq4uncdzu6hqlxn7gva2xsaln40x226fl8fsnqyyvzxtqqm3qw9","addr1qy0xznhgdhqj9u4g6jjdntf2cxy5lyad8j2p6a6dp8jwwttfq4uncdzu6hqlxn7gva2xsaln40x226fl8fsnqyyvzxtqqm3qw9"],"addressesOutput":["addr1w999n67e86jn6xal07pzxtrmqynspgx0fwmcmpua4wc6yzsxpljz3","addr1qy0xznhgdhqj9u4g6jjdntf2cxy5lyad8j2p6a6dp8jwwttfq4uncdzu6hqlxn7gva2xsaln40x226fl8fsnqyyvzxtqqm3qw9"],"fee":242295,"totalOutput":8205318,"tokens":[]},{"hash":"d58905abd2d3850b5a6ea02c22f602b56418cd831d14370597b03f958d111005","blockNo":6849970,"blockHash":"ab7dc1c899e9abc0569b179d365449f2eb1dd722be6a25d0a6a10ed1b7215fb0","epochNo":319,"epochSlotNo":167771,"slot":52612571,"time":"2022/02/06 20:21:02","addressesInput":["addr1q9gyq3vjurj3pgw8zej5pud8ephezrluddjq7tjsnchgpnca49c73yv32axatm687gp8req4y0v6thvmec00sz5fdn3s8hdw0x"],"addressesOutput":["addr1v8paqejhmkaqu5sdgkk5tpvkz7gype6wxv6tsg8apw8h2tsanrc9y","addr1qx8mlyl6j2mgx3sghkvtwg2kpdqlx92elt5a4sfel0szhjga49c73yv32axatm687gp8req4y0v6thvmec00sz5fdn3scsvkf3"],"fee":225385,"totalOutput":3061113349,"tokens":[]},{"hash":"88ae6e5dfdcdcc5b4f1f72b8cbda5f3d31716cfe7811797cbb5ac09c1bf671be","blockNo":6849664,"blockHash":"d48d4accfd6649ac8de3faf3fc33aa15d886db8fd80c3a5819cc8d4bfb343fd0","epochNo":319,"epochSlotNo":161371,"slot":52606171,"time":"2022/02/06 18:34:22","addressesInput":["addr1qy0xznhgdhqj9u4g6jjdntf2cxy5lyad8j2p6a6dp8jwwttfq4uncdzu6hqlxn7gva2xsaln40x226fl8fsnqyyvzxtqqm3qw9","addr1qy0xznhgdhqj9u4g6jjdntf2cxy5lyad8j2p6a6dp8jwwttfq4uncdzu6hqlxn7gva2xsaln40x226fl8fsnqyyvzxtqqm3qw9"],"addressesOutput":["addr1qx5sf6gdtaggwf66zkq8xhecdqhaxuzedvwqv0dnvmfazx8a9mg7mdul802d9l0sds2ml0s6hn5vywt7lq2chwf4qgqqmf3mr4","addr1qy0xznhgdhqj9u4g6jjdntf2cxy5lyad8j2p6a6dp8jwwttfq4uncdzu6hqlxn7gva2xsaln40x226fl8fsnqyyvzxtqqm3qw9","addr1qy0xznhgdhqj9u4g6jjdntf2cxy5lyad8j2p6a6dp8jwwttfq4uncdzu6hqlxn7gva2xsaln40x226fl8fsnqyyvzxtqqm3qw9"],"fee":206597,"totalOutput":42447613,"tokens":[]},{"hash":"c84a0c979b83235c4d7791963363aac1545398aacae66a3a0168af1826407071","blockNo":6849640,"blockHash":"7636824b5170ac007e9dbd09d4b9025a28f79c8561e188ce6e92551c6030fdaa","epochNo":319,"epochSlotNo":160818,"slot":52605618,"time":"2022/02/06 18:25:09","addressesInput":["addr1q82hk36g35gdamvak08ctn8kdqn4qwvjt2q034tscekwrgprlkahfsmech9j9n9vflajrw0e46rv4lmv3a55e8x4a4ss8c6qe7"],"addressesOutput":["addr1v8yhw08rxu89ptzql3ksqfm2qvljqvv30hm8drrrdjp986gd6auyx","addr1q82hk36g35gdamvak08ctn8kdqn4qwvjt2q034tscekwrgprlkahfsmech9j9n9vflajrw0e46rv4lmv3a55e8x4a4ss8c6qe7","addr1q82hk36g35gdamvak08ctn8kdqn4qwvjt2q034tscekwrgprlkahfsmech9j9n9vflajrw0e46rv4lmv3a55e8x4a4ss8c6qe7"],"fee":248573,"totalOutput":212342940,"tokens":[]},{"hash":"1e7ce79f32c3d7d361702df973bd8032cdf3ec3c3720362caaa8bfcdd31626ab","blockNo":6849538,"blockHash":"12596f2ec8ab73f6de443858c1cae8324fa69ec8ea4b5a49de0e06527f44a885","epochNo":319,"epochSlotNo":158642,"slot":52603442,"time":"2022/02/06 17:48:53","addressesInput":["addr1qy0xznhgdhqj9u4g6jjdntf2cxy5lyad8j2p6a6dp8jwwttfq4uncdzu6hqlxn7gva2xsaln40x226fl8fsnqyyvzxtqqm3qw9","addr1qy0xznhgdhqj9u4g6jjdntf2cxy5lyad8j2p6a6dp8jwwttfq4uncdzu6hqlxn7gva2xsaln40x226fl8fsnqyyvzxtqqm3qw9"],"addressesOutput":["addr1w999n67e86jn6xal07pzxtrmqynspgx0fwmcmpua4wc6yzsxpljz3","addr1qy0xznhgdhqj9u4g6jjdntf2cxy5lyad8j2p6a6dp8jwwttfq4uncdzu6hqlxn7gva2xsaln40x226fl8fsnqyyvzxtqqm3qw9"],"fee":244263,"totalOutput":10356060,"tokens":[]}],"totalItems":462,"totalPages":24,"currentPage":0}