{"data":[{"hash":"9bec15a727e0aa4152af919b8f9a1ff1e8a12bb09534b098bd91d2dc526fabca","blockNo":8425673,"blockHash":"924bfacf684067d06872e218c167aab6ccc40bee082dd8cc8c384217a5466a5f","epochNo":395,"epochSlotNo":105331,"slot":85382131,"time":"2023/02/21 03:00:22","addressesInput":["DdzFFzCqrhsfbDpDAD5oWqPBHSX9sB7PZ5pxVe35poHfzUnGx87r36PKcLvxp4iLTg2e5G8wVkAU1Wo4bdAGJ32Vt1sEtmtmzGazzmkr","DdzFFzCqrhsg9vqZyTFzeaqTtmtUrhMdku3bjLB9ghcLdUXvZhdfNYn4hkS6mGUKW2mB7JaF4ErGYKLLU9aDytT1TBtUhsWmgpuyKRoo","DdzFFzCqrhsj4oXGbWRzLbNaAGvQaqa84ADgQA1g5PfrzdMDkPHezWfvT8d7L3RVWrSim8NRwNYonmNParrqo18nUKVa69JDG6ZvRK5H","DdzFFzCqrhsdyXPxZsXxwnT3JTgdaKU1J8H6eHBEeEqaz7UwoaLiynUcthdA9yPrRLEbCqK6cNesuvxorBspZ6dwRiVM6iLF2YVxhH4K","DdzFFzCqrhszPTPUk2JFGXmkdUwNy94H6nXKRiN8ZvUQvRHCwUh6aqjEiP6iXJXrLgRqgKVBn7cP6A8xCgn9DD2GhLwE3tGsGyiXq6Vp","DdzFFzCqrht1XLU6W1eJ4KK56jFwLqSg9HNsFF71DmFvsrQoffGpNBFejanLKPxsvTer3fhmmuu8aTDRah6ujY4V47vqMQkMMsqu2qCf"],"addressesOutput":["addr1q9atjfpqwdtg7ytz0pz9zcaqvx8zr2uv6ysvc4csqynr683dzefudzxhadht99nh8gv4l3z93d486ygllgxuh2drrrpsdw6fws","DdzFFzCqrhsowX5Ynxrn6SUgdCeCChsLvMzE6NVisuUXZhHUrqtrDFZfJKBLQETtuDRyr2L4i8Pa883x2sVENsBs1UUhezYkvDV3JLzp","DdzFFzCqrht9XWaSA9okkAeHzfxc18a9xWkbNTmdXUjEdhdde5BvspaRfZGdDJ65C83azMhJxvLLAEAMSVwivs2t6WZKqYCA9dt5aBVE","DdzFFzCqrhsdu3Q9fUMP1L2KJ1kHZBEPysoCXBGRPKYwAFPoRavE1nyHNWsEhE9kj8yBLCvs93zPgxxd75oix2R8K2mJ5YJDHCu7aA95","DdzFFzCqrhsiKUWPYydgDKTziCDuMu2XWiHawUcRkTGYSABhmJyW19wXECuTfEoferFzHoPGPk4nV51GXqRAALF9jzYTJQUV9YR4wVDk"],"fee":1102349,"totalOutput":20940203179,"tokens":[]},{"hash":"42374db3fd92d6ac18e8e9b9c8122d4a32e810f285119a9547362d94b8b70cb8","blockNo":8425656,"blockHash":"7efce9f2e271bab7fee80098795d22041b1af08f94b67e3d1e78de597bb709fd","epochNo":395,"epochSlotNo":105002,"slot":85381802,"time":"2023/02/21 02:54:53","addressesInput":["DdzFFzCqrhsxhhowLv7e5ZUA4ABphquud7a4dMf5kEKcdCRACTYmKtdVd8WWjGRQ5nugYn6QLAKRhNRJ5VMCAmnLh2BtLYAoPE6YxfDF","DdzFFzCqrhtBpSjTVDpLLduaUqPwc3oJfhQRY35a6vUKZx5sKY9LqM6HKQhi1WSbnK67uixtG67kCM7FrjtmC6hXBq4ShyCT6uyLmGRF","DdzFFzCqrht1CJyBM1Zs7U2BvMYQDntb4gTjmY3pyup5x34rc4znc54NjLHyBQwecLBhAd9yWooc8f52ge6UCnBEony9JonAqKbAJhf2","DdzFFzCqrhsg58Emeqb44V2XVAhHJdBhoWQofYaW7jLiSCnLxAdBDyzSiyKeC6Q7Jtych9ZQ9XNHwpG9TAmXxTQf9J3r34hwtaUUwWga","DdzFFzCqrhsmmaP1FrQP6bCb9YYczErdyASEPtCjJHqunqTpfQjzLsdHabdXLPRwruVsCcGeJJJEiYJQg1ppXyHJBMVYuqt8BZ5RHBJq","DdzFFzCqrhsozS3ffdVy1cxRoZKX51NxATQYWim63jEm8prL144JcCVdvCF6wLt3usLCyT4yQiSMQwsup6ytoRmEDKRDFVx4ZWJHh9XC","DdzFFzCqrhtBpSjTVDpLLduaUqPwc3oJfhQRY35a6vUKZx5sKY9LqM6HKQhi1WSbnK67uixtG67kCM7FrjtmC6hXBq4ShyCT6uyLmGRF","DdzFFzCqrhtBpSjTVDpLLduaUqPwc3oJfhQRY35a6vUKZx5sKY9LqM6HKQhi1WSbnK67uixtG67kCM7FrjtmC6hXBq4ShyCT6uyLmGRF","DdzFFzCqrhsj81m1pSC9ehLTPWnN33ognW42Ycxwa1V3bRLKcMrSGGBB9maf175qNTg2XgxXA4PE7MWGDnLrz2boSCBApLDXnMWcx9NU"],"addressesOutput":["addr1q9atjfpqwdtg7ytz0pz9zcaqvx8zr2uv6ysvc4csqynr683dzefudzxhadht99nh8gv4l3z93d486ygllgxuh2drrrpsdw6fws","DdzFFzCqrhsg9vqZyTFzeaqTtmtUrhMdku3bjLB9ghcLdUXvZhdfNYn4hkS6mGUKW2mB7JaF4ErGYKLLU9aDytT1TBtUhsWmgpuyKRoo","DdzFFzCqrhsfbDpDAD5oWqPBHSX9sB7PZ5pxVe35poHfzUnGx87r36PKcLvxp4iLTg2e5G8wVkAU1Wo4bdAGJ32Vt1sEtmtmzGazzmkr","DdzFFzCqrht1XLU6W1eJ4KK56jFwLqSg9HNsFF71DmFvsrQoffGpNBFejanLKPxsvTer3fhmmuu8aTDRah6ujY4V47vqMQkMMsqu2qCf","DdzFFzCqrhszPTPUk2JFGXmkdUwNy94H6nXKRiN8ZvUQvRHCwUh6aqjEiP6iXJXrLgRqgKVBn7cP6A8xCgn9DD2GhLwE3tGsGyiXq6Vp"],"fee":1131389,"totalOutput":37526330328,"tokens":[]},{"hash":"feb026f9f27b513ea38f337d9d610cc71f4373c1ddd61d6495d21bc9b7e93b5b","blockNo":8425516,"blockHash":"f26d8e6e5c47837332a3eeaf40a79293606a38c65929dfbbd5a5d76875fd2e35","epochNo":395,"epochSlotNo":101945,"slot":85378745,"time":"2023/02/21 02:03:56","addressesInput":["DdzFFzCqrhsimh1x9FApJwJSY2hx3hAwoSCFLWPqCkCnZHqGFk7J1QkbP9pp3MQwYphFkyudhHymV7NrSM2h2ve4NL5UwMNnPbnNZRjK","DdzFFzCqrht5iHyfPbZtg6e7ugWtTNJt3mvwkAnDnTua4s2sFZ7W7ec7kYhvDyBC2bCtaFfhyhV3GGjwqET18PVTREsVFTNMD48uZk68","DdzFFzCqrhsy8yUhmtfXtWGBz1sVF9JyEEKYP8mSSoqH827oVgd7Qgp2nrc6z1LHUzbCH3RprpUnksTS8UvbEMVVVj9FEozo7Jdu8A7y","DdzFFzCqrhszty3Y2AYkVKyoCUaoeMwENu7FSdhXssTHqnaeLrPSA2shfu4drWg4XzD5bbDieYE5789Pfmq6vwjDcNApfx3hvEiGN6Xv","DdzFFzCqrhsktnwggYpJYF9CimSd6e7ET8i4pMhoh5UMfc5KncQSdcrbcxfEhiaqWjcsArQB3xEjiajnXDJikEAqzPqChAEXAxNn1RNF","DdzFFzCqrhszbbLimNU6T4wUSpTLwh2w1bVkXnULuKFTjAgQmP7Ayoc9tkm9DATQsMgj65f594om4zyQpN1kRg7Aa5Sgi1imoSynTpRq","DdzFFzCqrhsq5v6MF3dvDVvvnS6wPkbYn3tfSFisnCiigmByAhH9rStH4jdt19P8KuiLBLKLPVAxYDXti8nG3dowj5PyG1fTK3Yg93Sy","DdzFFzCqrhtDAsTSCnrWhBHQSbPA82CdMCouVgZ2Sq5DERaNB7MpAegCX4n6Bdbutt2Dk7iT3JZsVoNUWN98PqbWPCaU6UixkkyddAuh","DdzFFzCqrhsxmXQVrFyq8SEwXPB6FXTw7EUw2DcSz9nXrYUwFDVJySPUDauNJVn5mF2efrzk5mbQRpbHbRKVyFHm26MP7c4Y1Tc6RzJk","DdzFFzCqrht5fzeKmCgaqWgPUo6YzdqNGo6NR4L3SpnzCSucr6vqfiW7Wo2VdwY8U7RebGAecnz1bbw5SaA15s1cnbgW1WBbHdigGnLv","DdzFFzCqrht5RhU27Gpg3F8Ss9wBegYmB2cCoJLVdK3YeW8xBomey5WGYC58b13PTMtszea3uNwVJF56irg56tEKeB8MFQws7DzTeqtP","DdzFFzCqrht5iHyfPbZtg6e7ugWtTNJt3mvwkAnDnTua4s2sFZ7W7ec7kYhvDyBC2bCtaFfhyhV3GGjwqET18PVTREsVFTNMD48uZk68","DdzFFzCqrht46x7AUtHY5iHcomn6v3x451DmFboMBCvVKWH8d27JAh3c6hSFUADFUkeMNGVtb3tQz1Hhgbrs2y4Z6mRcGzqaFWbDg8jG","DdzFFzCqrhsp2vspJNuWmdX5LSxLfHuEKPvsJyYrEgMyVjpJ4599faogzw2KiK822WsYX3qALEJALf3syMDNvuAtEL7SDwLGRBtzZMjM","DdzFFzCqrhsduzdbpurdg6NUM66Q3T3wPiFozBNvgMVhT6CpppaZz1zxhH9GGtMScRVUbbxoXDh7SAQZ3aE5pG9tbew19pg4QkbvXjT6"],"addressesOutput":["addr1q9atjfpqwdtg7ytz0pz9zcaqvx8zr2uv6ysvc4csqynr683dzefudzxhadht99nh8gv4l3z93d486ygllgxuh2drrrpsdw6fws","DdzFFzCqrhsxhhowLv7e5ZUA4ABphquud7a4dMf5kEKcdCRACTYmKtdVd8WWjGRQ5nugYn6QLAKRhNRJ5VMCAmnLh2BtLYAoPE6YxfDF","DdzFFzCqrhsmmaP1FrQP6bCb9YYczErdyASEPtCjJHqunqTpfQjzLsdHabdXLPRwruVsCcGeJJJEiYJQg1ppXyHJBMVYuqt8BZ5RHBJq","DdzFFzCqrhsj81m1pSC9ehLTPWnN33ognW42Ycxwa1V3bRLKcMrSGGBB9maf175qNTg2XgxXA4PE7MWGDnLrz2boSCBApLDXnMWcx9NU","DdzFFzCqrht1CJyBM1Zs7U2BvMYQDntb4gTjmY3pyup5x34rc4znc54NjLHyBQwecLBhAd9yWooc8f52ge6UCnBEony9JonAqKbAJhf2"],"fee":1189469,"totalOutput":35284356760,"tokens":[]},{"hash":"fa86e746ef77b001c36be668f42b14de24d63c5e3eef1baf73e616bd3c1a48a6","blockNo":8425262,"blockHash":"c6e849c7bb70162696568bb0466262c005dba525d882b8ea09f5c607fe42d5f4","epochNo":395,"epochSlotNo":97033,"slot":85373833,"time":"2023/02/21 00:42:04","addressesInput":["DdzFFzCqrht5i7GxUmm8r28cLjfFjC2zHWz4CMenXXmEm26rFjA4w27QwXDGDeyBxRXpqRDC438DQiHnJoy6nnfGuSNfEJ2bY3XvmAJj","DdzFFzCqrhsy8yUhmtfXtWGBz1sVF9JyEEKYP8mSSoqH827oVgd7Qgp2nrc6z1LHUzbCH3RprpUnksTS8UvbEMVVVj9FEozo7Jdu8A7y","DdzFFzCqrht4F7MYLrKNLZvjtGHYKvajsawyrt8Ypz2G1WR3XFMPAqasSyb2QtbsJxqWQz6qrtdnsMtJa86tTeXhFkpvXNufBVvXiaRs","DdzFFzCqrhsgqUTDw7eMNK7HJFvgcKqCywWPrifScTTSdt9orLebh9waZFftj6gYy1ZhaHCqbDjGEZ7H3T4imKdGegAim9DGRetQK8A8","DdzFFzCqrhsdzK42MpiYLrWq4RcVTktQvBLy44xqqfUNDCQmY5mdyZ4Rrk9mb41wQD84G41uUWBfdgN6cEN692v4xFfKn2UNqejQ5Ur1","DdzFFzCqrhsrXHo3vUnMiqcsNJQ3Ygq5u7dYjcfjy3T4f2h2zCJCYWJtYtjP2GRXpEcTxFHZzw61eRPbDegzRXFYha52qYvJfoe7byWS","DdzFFzCqrhsdzK42MpiYLrWq4RcVTktQvBLy44xqqfUNDCQmY5mdyZ4Rrk9mb41wQD84G41uUWBfdgN6cEN692v4xFfKn2UNqejQ5Ur1","DdzFFzCqrht1qtJ9mH5jpdooNzyFEfRxkh9WUbub8C3tuizo5uwHryP16wb7hpwNaUo37YGg24jA1CZfuPf3npe7nGrfStq86dTdePJz","DdzFFzCqrht8WSxGChXrw5R7YYzexspZVy26GxUFBsmkNgEqeBRWH8A4JoWSWJw82hFMK66m1DrQYGoifTZVyv23Eu6kWk1ZH869Aza6","DdzFFzCqrht5vt1rQECsGXotBcGq16njRkUZWT4tcypZWsFztTL9Ky5XXp4U6a4rGt5nBoNVhXD9mUazATHAdf4z26Uot22gB6Cwui4A","DdzFFzCqrhsmy9bq8aF1DjNgMccCx1LbsAtPNa6uCFmBdKFK6VwJbPJeMQLNrUQs4Y26kB5ns3mbqSkiL92L5R6hcq8h2YAgrn84X6xr","DdzFFzCqrhspfddUcQmaZdGagvAUZPhF6BFHadu21KZ5Tqd86MHq9Z92W1Gwt6412hMseKLxDwsDPJPmvCrKzeE9HpLnhcXnaXJTMmT3","DdzFFzCqrht8esBbqNqaMHzxYU46sPKmeqpQS7Ue3LTsn1ngYUqtTmg11rLGnz6GUtoDF23ehy17yxJzbh3NW7f2D4Qq88tRKePTdTtu"],"addressesOutput":["addr1q9atjfpqwdtg7ytz0pz9zcaqvx8zr2uv6ysvc4csqynr683dzefudzxhadht99nh8gv4l3z93d486ygllgxuh2drrrpsdw6fws","DdzFFzCqrhsimh1x9FApJwJSY2hx3hAwoSCFLWPqCkCnZHqGFk7J1QkbP9pp3MQwYphFkyudhHymV7NrSM2h2ve4NL5UwMNnPbnNZRjK","DdzFFzCqrhszbbLimNU6T4wUSpTLwh2w1bVkXnULuKFTjAgQmP7Ayoc9tkm9DATQsMgj65f594om4zyQpN1kRg7Aa5Sgi1imoSynTpRq","DdzFFzCqrhsp2vspJNuWmdX5LSxLfHuEKPvsJyYrEgMyVjpJ4599faogzw2KiK822WsYX3qALEJALf3syMDNvuAtEL7SDwLGRBtzZMjM","DdzFFzCqrhtDAsTSCnrWhBHQSbPA82CdMCouVgZ2Sq5DERaNB7MpAegCX4n6Bdbutt2Dk7iT3JZsVoNUWN98PqbWPCaU6UixkkyddAuh"],"fee":1170109,"totalOutput":31522199536,"tokens":[]},{"hash":"2d6db358f04282a29279f646b099055eb199a84159321b7c3698ba675282df14","blockNo":8425060,"blockHash":"823405f65d01eb0b13f3634bb5a6dc52766a105c9a7ae93dd3ca3705be2a0720","epochNo":395,"epochSlotNo":92646,"slot":85369446,"time":"2023/02/20 23:28:57","addressesInput":["DdzFFzCqrhstAP9DrZPCfMfuyMv2puuUcRSYtPbW2NYVnQ4vQMCfxhswHwtgo9XaE3qMSHcJBAY5PANvEUQjGvgRvSCiYTLRpGwRt838","DdzFFzCqrhszPTrb5Dsj3j7hDK3dwrs3b2KLAxLmiQejykYqXGjoNfXYZVLrCAX1ng6dry3u5nHPLhsmDY1HTgBMPWWUgk4PE8RSoFWA","DdzFFzCqrhseM9cfVicqMJrP2G4SW48datCAsvHk5xMAwCHGvat3JRyCu11uhWkZs6yjYT6WeT9evJGGTTWXfLF8u6cW4ccRfo2L6M67","DdzFFzCqrhsknLkHqXZbJ7M8Y6dUb9JxcaT4TsvBvzKG9nap6wh3TKT1ufugHCgFZbJ8GAWkBdQPCnJVAx7ApSYY2DvS72r6bxAmSbop","DdzFFzCqrht1HgD3aERQu5YFUmyGDTyKVZpzxGaXd93rPxEjjJd4mWPpALyRU22r2KJjMR9TwZSRu1sBxvfcd6DJWZtjyAHM4uErVfGE","DdzFFzCqrhsfHbsREJSCMVhPpKadRe84we4SFk6N2TiAQSeUJxpK9rVSNS8EC1GrWiu5SxEDpkyzKeNf68957g9ygcJybsVRpj3NZzMo","DdzFFzCqrht1Y81RoDXe2ex4dRp3EBjqbj3KfT832zsPvJGworgBFV8S1BYnXHnoKQiQrhCTE3S8ScgTsaPSM8CtxsaWgCk2KA9p4ac2"],"addressesOutput":["addr1q9atjfpqwdtg7ytz0pz9zcaqvx8zr2uv6ysvc4csqynr683dzefudzxhadht99nh8gv4l3z93d486ygllgxuh2drrrpsdw6fws","DdzFFzCqrht5i7GxUmm8r28cLjfFjC2zHWz4CMenXXmEm26rFjA4w27QwXDGDeyBxRXpqRDC438DQiHnJoy6nnfGuSNfEJ2bY3XvmAJj","DdzFFzCqrhsgqUTDw7eMNK7HJFvgcKqCywWPrifScTTSdt9orLebh9waZFftj6gYy1ZhaHCqbDjGEZ7H3T4imKdGegAim9DGRetQK8A8","DdzFFzCqrht4F7MYLrKNLZvjtGHYKvajsawyrt8Ypz2G1WR3XFMPAqasSyb2QtbsJxqWQz6qrtdnsMtJa86tTeXhFkpvXNufBVvXiaRs","DdzFFzCqrht5vt1rQECsGXotBcGq16njRkUZWT4tcypZWsFztTL9Ky5XXp4U6a4rGt5nBoNVhXD9mUazATHAdf4z26Uot22gB6Cwui4A"],"fee":1112029,"totalOutput":28851989627,"tokens":[]},{"hash":"1f0bdc78588cb1c53dc0cc55469e648997c343d4de9c5b7b0fb9bd21caa643de","blockNo":8424924,"blockHash":"dad083c6fb6e52f9e77cf08e36dafbfdfd89aa16619a9a85a39ddfa1f92ef025","epochNo":395,"epochSlotNo":89629,"slot":85366429,"time":"2023/02/20 22:38:40","addressesInput":["DdzFFzCqrhsx5yKH3jaja1tSqg5fVriUfKhiyLLDs4WnVW1VXH7StdyS6mksMMTGaVEkf5RNcWbyBZZRX4oFXYyYZakucv8XPDvP7XEP"],"addressesOutput":["addr1q9atjfpqwdtg7ytz0pz9zcaqvx8zr2uv6ysvc4csqynr683dzefudzxhadht99nh8gv4l3z93d486ygllgxuh2drrrpsdw6fws","DdzFFzCqrhstAP9DrZPCfMfuyMv2puuUcRSYtPbW2NYVnQ4vQMCfxhswHwtgo9XaE3qMSHcJBAY5PANvEUQjGvgRvSCiYTLRpGwRt838"],"fee":393597,"totalOutput":462345598,"tokens":[]},{"hash":"06551aa6ecf10165f8c1fe6e20bf4e84d3356d10e0f895a39e1b1fe2f081711b","blockNo":8424912,"blockHash":"2ff2e419c7082236b7f93e40c2a6a1dd057805e4a96d145c7eade7a431d0bf63","epochNo":395,"epochSlotNo":89359,"slot":85366159,"time":"2023/02/20 22:34:10","addressesInput":["DdzFFzCqrht9HGBDGsvRxMTGywtySEUV2EpzyT6v35RQW5rTm1mmg4wf6pZ1qqwiR6bdyRfzN8kqWfCrXLAHiSW1kRxsKd7yUeMp8Eaj","DdzFFzCqrhsqqigxrixGehDUMHRzwdqHJ1GsiKfp9HotRQPukXZujSEWjCvKxKCMJYVAsdwKe2YmukuokXiLskzzA4riT13EU6BDJweU"],"addressesOutput":["addr1q9atjfpqwdtg7ytz0pz9zcaqvx8zr2uv6ysvc4csqynr683dzefudzxhadht99nh8gv4l3z93d486ygllgxuh2drrrpsdw6fws","DdzFFzCqrhsx5yKH3jaja1tSqg5fVriUfKhiyLLDs4WnVW1VXH7StdyS6mksMMTGaVEkf5RNcWbyBZZRX4oFXYyYZakucv8XPDvP7XEP"],"fee":403277,"totalOutput":463989095,"tokens":[]},{"hash":"d8c800be0b6f78ed279e61c1a28e997819b500561818316a4f8cfd86bafe62cd","blockNo":8424747,"blockHash":"b9c6a9eb0706ef30e506701f7a787c933f9f7aabbdf121401c50045324877b68","epochNo":395,"epochSlotNo":85891,"slot":85362691,"time":"2023/02/20 21:36:22","addressesInput":["addr1qxd9x9c3cfjgk099mseutfcyc68wne9y32qnxg2z96clmpm56spmqx2dm4vspmm5x7kv8hfhku09tc7fkvyawke9ttss0s7e0x","addr1q803mtecpq6vwgs4yuaudntsmyx0z3frrrqjd5wxqddmswt56spmqx2dm4vspmm5x7kv8hfhku09tc7fkvyawke9ttsshy33l8","addr1q803mtecpq6vwgs4yuaudntsmyx0z3frrrqjd5wxqddmswt56spmqx2dm4vspmm5x7kv8hfhku09tc7fkvyawke9ttsshy33l8","addr1q803mtecpq6vwgs4yuaudntsmyx0z3frrrqjd5wxqddmswt56spmqx2dm4vspmm5x7kv8hfhku09tc7fkvyawke9ttsshy33l8"],"addressesOutput":["addr1wxn9efv2f6w82hagxqtn62ju4m293tqvw0uhmdl64ch8uwc0h43gt","addr1q9ftchskx4ye4d3j7zyn9rhe5gacj2hu5tgyg7s07jm9mlt56spmqx2dm4vspmm5x7kv8hfhku09tc7fkvyawke9ttssdxwuav","addr1q9ftchskx4ye4d3j7zyn9rhe5gacj2hu5tgyg7s07jm9mlt56spmqx2dm4vspmm5x7kv8hfhku09tc7fkvyawke9ttssdxwuav","addr1q9ftchskx4ye4d3j7zyn9rhe5gacj2hu5tgyg7s07jm9mlt56spmqx2dm4vspmm5x7kv8hfhku09tc7fkvyawke9ttssdxwuav","addr1q9ftchskx4ye4d3j7zyn9rhe5gacj2hu5tgyg7s07jm9mlt56spmqx2dm4vspmm5x7kv8hfhku09tc7fkvyawke9ttssdxwuav","addr1q9ftchskx4ye4d3j7zyn9rhe5gacj2hu5tgyg7s07jm9mlt56spmqx2dm4vspmm5x7kv8hfhku09tc7fkvyawke9ttssdxwuav","addr1q9ftchskx4ye4d3j7zyn9rhe5gacj2hu5tgyg7s07jm9mlt56spmqx2dm4vspmm5x7kv8hfhku09tc7fkvyawke9ttssdxwuav","addr1q9ftchskx4ye4d3j7zyn9rhe5gacj2hu5tgyg7s07jm9mlt56spmqx2dm4vspmm5x7kv8hfhku09tc7fkvyawke9ttssdxwuav","addr1q9ftchskx4ye4d3j7zyn9rhe5gacj2hu5tgyg7s07jm9mlt56spmqx2dm4vspmm5x7kv8hfhku09tc7fkvyawke9ttssdxwuav"],"fee":392321,"totalOutput":396612406,"tokens":[]},{"hash":"2b7301862ff5b34482d06611ed74c914b4eb644934d5a1b123736c5251c1f33d","blockNo":8424590,"blockHash":"280e9741830e2ab5ccd673c1eadeee3f24fda6d04eb14369a3d4013b874fb5d2","epochNo":395,"epochSlotNo":82615,"slot":85359415,"time":"2023/02/20 20:41:46","addressesInput":["addr1qxvfczek4uzgsdd4trqg6qu62r8ms2akfcm78km53hku6jycns9ndtcy3q6m2kxq35pe55x0hq4mvn3hu0dhfr0de4yq577lxc","addr1qxvfczek4uzgsdd4trqg6qu62r8ms2akfcm78km53hku6jycns9ndtcy3q6m2kxq35pe55x0hq4mvn3hu0dhfr0de4yq577lxc"],"addressesOutput":["addr1qxvfczek4uzgsdd4trqg6qu62r8ms2akfcm78km53hku6jycns9ndtcy3q6m2kxq35pe55x0hq4mvn3hu0dhfr0de4yq577lxc","addr1qxvfczek4uzgsdd4trqg6qu62r8ms2akfcm78km53hku6jycns9ndtcy3q6m2kxq35pe55x0hq4mvn3hu0dhfr0de4yq577lxc"],"fee":237985,"totalOutput":2180416758308,"tokens":[]},{"hash":"7a0a672da3c0ac12025c614c30e52d8c6e3040edf762194facfc9d89db3470d0","blockNo":8424367,"blockHash":"548284a6fa106819422746239c046d34d56d7c64debbf7f23deb8a265f3e4d07","epochNo":395,"epochSlotNo":77710,"slot":85354510,"time":"2023/02/20 19:20:01","addressesInput":["DdzFFzCqrhszhN7BFAMJ6Gu78JeaYoKJDXxqNwtsHoEEHgdRVbdVvazw4kaeGEqSyFVaDGLgXHEjkBELZGkoyU3DStW97e3FRMX2hmge","DdzFFzCqrht5NMw2FWbDmgqQFDW5DHuyZUeh4KAeXMEfhDNnpYpDjQZPEDuEhK24Qt3poJT5KhLTbC5RZ78JfREpAQzLGoCSZP7wVMAH","DdzFFzCqrht1f9mrYaJzAojteNsT3GLqNLDfxamsSzSiPSSPttKAc83exxN6JjXLAy36yfphGSL6xSAE8Utq6iJVony62Mwyuyb88uS7","DdzFFzCqrhshPHXTeWJDZoKeLgd2LiJUVqRogYZ4P52oXf1F1PAmysKwrCyMVX5gMo9DfuQFV5DQbc9YDdBRoCUUEU7PzBsgsqGRaK2P","DdzFFzCqrht18BhtA5usGDto8rAeqd3CggmmVjhcDHSTZvxbjA58UWEfKtVKzotCV2VSS58xmpZ8BNys9LkJVpmNrBzxY9f2zMGxJmvk"],"addressesOutput":["addr1q9atjfpqwdtg7ytz0pz9zcaqvx8zr2uv6ysvc4csqynr683dzefudzxhadht99nh8gv4l3z93d486ygllgxuh2drrrpsdw6fws","DdzFFzCqrhsqqigxrixGehDUMHRzwdqHJ1GsiKfp9HotRQPukXZujSEWjCvKxKCMJYVAsdwKe2YmukuokXiLskzzA4riT13EU6BDJweU","DdzFFzCqrht1HgD3aERQu5YFUmyGDTyKVZpzxGaXd93rPxEjjJd4mWPpALyRU22r2KJjMR9TwZSRu1sBxvfcd6DJWZtjyAHM4uErVfGE","DdzFFzCqrhsknLkHqXZbJ7M8Y6dUb9JxcaT4TsvBvzKG9nap6wh3TKT1ufugHCgFZbJ8GAWkBdQPCnJVAx7ApSYY2DvS72r6bxAmSbop","DdzFFzCqrht1Y81RoDXe2ex4dRp3EBjqbj3KfT832zsPvJGworgBFV8S1BYnXHnoKQiQrhCTE3S8ScgTsaPSM8CtxsaWgCk2KA9p4ac2"],"fee":1092669,"totalOutput":21856125358,"tokens":[]},{"hash":"bb4bd555e82e49a21a364e4c799bef11320a4553ecaf46a1a5da5458d72dd24e","blockNo":8424351,"blockHash":"d8961c92051ce8a9f91d18bf3c3f75893a3290d68336438be8012d424c7130dd","epochNo":395,"epochSlotNo":77330,"slot":85354130,"time":"2023/02/20 19:13:41","addressesInput":["DdzFFzCqrhszhN7BFAMJ6Gu78JeaYoKJDXxqNwtsHoEEHgdRVbdVvazw4kaeGEqSyFVaDGLgXHEjkBELZGkoyU3DStW97e3FRMX2hmge","DdzFFzCqrhtBjyKBo7wQH4veAY1gmQZRwrUqmgBkHU8ZAoGJxG18sCB35Ffc9zHFheoS2sWyG1duzsyyckKnZKa6pzycUGHEFYJayX1y","DdzFFzCqrhsy9uH64VktZq1ciNFxDq3J3f4GXtxW8aDVZt2pp8UGCQjpnxzH1WtJzocH9M6hWiYU4xDvpa717W9iakpfpP74jSYoQn1i","DdzFFzCqrhsuDq4WvVz8yrJewBHxyvoRc5LmVEyCEDzZX1Cx8prvwUTH5scUYrBY44szK5yYrSntF1juk5vXVUE87coy2iNE5rJsriYx","DdzFFzCqrhtBYurmP8rKPA7hFtj7sEZDYJ2qwTVWUUJf4Z6tustDXex92Uup8M5q7qC3LJuXSA2FoY7Mw8RchYbtdD2WgwrupfEUcm6g","DdzFFzCqrhsm1RAYLceym4pkESM7DJhRszEVDkr4zKWedSevJcEvaGrgZCjHUsauVgkdsQ2B1pL15v5aBPmgqvuoByd6r24PBxhfX7KX","DdzFFzCqrht9pvDbA9xm1eFhJxU1iTbZekuu2dRbq2aaq4sNtmdGm72JNgT6KrFmQ9YtHwwtygVcJwWczvegaLQhSK3PLDs4BPrHbNVC","DdzFFzCqrhshzijUgVCC3pyhcmS4TApCR6TGPFsFif87B9V8D7HoRhh6mtaV26M9sBcbeUrep66qUdbgSwepmzMpjUwa4ATLQ8FvPUmP","DdzFFzCqrht7HcFtPmWqPAiBtqpa8MD8JJ7PUudAd36cLDcW2z9YsnPkd29ywWey8FQ2GuusU9ntCDFmxj6fLLEkWBu1BTguUFrEdQ64","DdzFFzCqrhswg3oF8PdXVVN4SCobvUm4sMXCJ8htMWnra25vEkU6DjvqtAae2fMp1ThxHQy8Etw6GuZSq3zoRrdMkXBiMQNfm5bBRdCR"],"addressesOutput":["addr1q9atjfpqwdtg7ytz0pz9zcaqvx8zr2uv6ysvc4csqynr683dzefudzxhadht99nh8gv4l3z93d486ygllgxuh2drrrpsdw6fws","DdzFFzCqrhshPHXTeWJDZoKeLgd2LiJUVqRogYZ4P52oXf1F1PAmysKwrCyMVX5gMo9DfuQFV5DQbc9YDdBRoCUUEU7PzBsgsqGRaK2P","DdzFFzCqrht5NMw2FWbDmgqQFDW5DHuyZUeh4KAeXMEfhDNnpYpDjQZPEDuEhK24Qt3poJT5KhLTbC5RZ78JfREpAQzLGoCSZP7wVMAH","DdzFFzCqrht18BhtA5usGDto8rAeqd3CggmmVjhcDHSTZvxbjA58UWEfKtVKzotCV2VSS58xmpZ8BNys9LkJVpmNrBzxY9f2zMGxJmvk","DdzFFzCqrht1f9mrYaJzAojteNsT3GLqNLDfxamsSzSiPSSPttKAc83exxN6JjXLAy36yfphGSL6xSAE8Utq6iJVony62Mwyuyb88uS7"],"fee":1141069,"totalOutput":40257613409,"tokens":[]},{"hash":"87b4e494aa90e1b2167e75b67adc1a436d5ed4e384e0628af23a2754c25afb30","blockNo":8424291,"blockHash":"890f61fefe58a1412c68f42243342038354a071f609704ee347ec5b55fef9756","epochNo":395,"epochSlotNo":75907,"slot":85352707,"time":"2023/02/20 18:49:58","addressesInput":["DdzFFzCqrhtBDZa1HEyYHPY19eVwdyE8o4bXoaqDSmnUmqEn17feQEmHxqxFbQtEWuLcJwm3wKdqxifMSoU3AY2x1NhKUs85RadcVZ1o","DdzFFzCqrhsq5v6MF3dvDVvvnS6wPkbYn3tfSFisnCiigmByAhH9rStH4jdt19P8KuiLBLKLPVAxYDXti8nG3dowj5PyG1fTK3Yg93Sy","DdzFFzCqrhshFW7C5KUGQZodKzHCFxjdEWMptVQoTgcKE7czUorT2c3t7KPhTV4xm1gMX5RrtPSdRpCbK4iDctV2xNHhq2BcunVQVYAV","DdzFFzCqrhse41QWB368dgFt34SgSa9vHcKRJknSXC1Mjhs7mFWAUuEcomRdhyvKYJhdpQpFgVUkcQ74ZM6vqEV7UhhaBicQfnE628W9","DdzFFzCqrht7CLPVnWRJL21JV3n4HW4iGYdSvUgTawN8fo8msdNAPYbnUVP7QNuKs1hYoH1j3kQi29uDYAbxC3PBDVG9ijDkiCSUGQ1E","DdzFFzCqrhsu9VGJG2qZvd4YRqqEQFrX3PvWxyHvWP4CRiGHnNxzj6BHMmx9AuhzMVc9gPhLnbej3CQKWYSHSBYtkcJFTvPSxKqQgzPd"],"addressesOutput":["addr1q9atjfpqwdtg7ytz0pz9zcaqvx8zr2uv6ysvc4csqynr683dzefudzxhadht99nh8gv4l3z93d486ygllgxuh2drrrpsdw6fws","DdzFFzCqrhtBYurmP8rKPA7hFtj7sEZDYJ2qwTVWUUJf4Z6tustDXex92Uup8M5q7qC3LJuXSA2FoY7Mw8RchYbtdD2WgwrupfEUcm6g","DdzFFzCqrhswg3oF8PdXVVN4SCobvUm4sMXCJ8htMWnra25vEkU6DjvqtAae2fMp1ThxHQy8Etw6GuZSq3zoRrdMkXBiMQNfm5bBRdCR","DdzFFzCqrhtBjyKBo7wQH4veAY1gmQZRwrUqmgBkHU8ZAoGJxG18sCB35Ffc9zHFheoS2sWyG1duzsyyckKnZKa6pzycUGHEFYJayX1y","DdzFFzCqrhsuDq4WvVz8yrJewBHxyvoRc5LmVEyCEDzZX1Cx8prvwUTH5scUYrBY44szK5yYrSntF1juk5vXVUE87coy2iNE5rJsriYx"],"fee":1102349,"totalOutput":32081863175,"tokens":[]},{"hash":"df50c5345d83cd4a55650a9387acf6cc06093940d72228f320d60bcdbd17a648","blockNo":8424275,"blockHash":"a68403ae8a4a84db03fb7aedd1159a67b1538b4d4e597966bcc152b01ec227d4","epochNo":395,"epochSlotNo":75602,"slot":85352402,"time":"2023/02/20 18:44:53","addressesInput":["DdzFFzCqrhsyPSG9gTnXhVm8Y3ZJX12d51BQZzCA2yMvBGGEePx18TH2mqBqQme5LCXSZY4gSqBNLraFM8kkxkFgPz5NYcp5MKTz11Tr","DdzFFzCqrhsgaoTrQSCdFWE3qvWwtVKoYoZw1saV8iTkquXAC6F2qa8TUNHLaZ74z2bPC6mgBq3obBrxAwZxDeueERxHjpEJs65SFYQn","DdzFFzCqrhsxtG4MCm6qtpZENcwR8ybxYoUnDMgY1rXCjmEcffRrn3E78UtE13jtJAzwNGKa2sDXoztAarDNmTxDVf3Jf8yZMkP7Yqtz","DdzFFzCqrht8XuYUPoZun5RRiuxUiVnvWPKQbqgw4iZMSBfatk7VX8uZ5tn32ExZca8FpwnBZVDsy3RyMy27fpU9FqAwJAKjC6RhLWed","DdzFFzCqrht8qYvsLhQL7cZFpctwPovwNQtbscT4EMbmVuiwodyY672nox25PKq9MhpB8A23xdRNxUGRfnSWmYDTBdb2QpiqePkqHCuV","DdzFFzCqrhsp154exME65oaaQRkAqiynrPL1Zmx2hw77SUuicuTkLrSJQD8TkZ9MkSvM2VZ1bzREpLw2x3YuCZCL25wBrPvRoQoBVqv8","DdzFFzCqrhsiPuxYcZUNa7o16bd7c2tXN957Rx85FyFUmPVwwHZyHiT76Jw8RcBVEkeDzo64YWMpGJsANXUXgroQKwGjLN7Qqa8SzQ2Y","DdzFFzCqrhsiKXtAnNVVWiL1eAvqt3NemVHstgZG6BWhj4Erry7wsdsn9YqGRWHtQT4pnpuxzSr9YNf6CSB3pBheViThLVh8n89qLt3m","DdzFFzCqrht8s8X9ca24ihQU1R2SFgU8HmJciRJj2WfhbAhWbMSStejrNzUZeDCpDdm3Q5YGFip5gYVP2SzEn9aFJd336Z6SHE54MoZp","DdzFFzCqrhtAnYWDndJBc6EXuaKiqxZX46fCf6fXx8VY6LrTsourHJuNye4oLT45RhTSqQ5vUZXYsbXX3A6jNtE9cjunpiwA1ysk7Hfv","DdzFFzCqrht4vMKDTffQFL2gZLExJveyTzGaip86Ka4YVpRaCYBKrhDRDieGwvN9MRP4tkDKT437NhVa4fBqgt8t7riiQejhnSq2QmRk","DdzFFzCqrhsyPSG9gTnXhVm8Y3ZJX12d51BQZzCA2yMvBGGEePx18TH2mqBqQme5LCXSZY4gSqBNLraFM8kkxkFgPz5NYcp5MKTz11Tr"],"addressesOutput":["addr1q9atjfpqwdtg7ytz0pz9zcaqvx8zr2uv6ysvc4csqynr683dzefudzxhadht99nh8gv4l3z93d486ygllgxuh2drrrpsdw6fws","DdzFFzCqrhshFW7C5KUGQZodKzHCFxjdEWMptVQoTgcKE7czUorT2c3t7KPhTV4xm1gMX5RrtPSdRpCbK4iDctV2xNHhq2BcunVQVYAV"],"fee":497657,"totalOutput":40347596102,"tokens":[]},{"hash":"fb2d822c074e6062388d8e2f92ff011a1fbe728dc37bd22ef74f754114cbd1da","blockNo":8424264,"blockHash":"d51b2b8be9c66e0e3b02fd461233921cfeed433f255f919daa11da89b94ad5b0","epochNo":395,"epochSlotNo":75351,"slot":85352151,"time":"2023/02/20 18:40:42","addressesInput":["addr1qxys73l3hryn8fc2ph0vpq0d202spw33tadhycczsywtvtv3628la2lcg3lqy85p5je4yrgza2kr0aus4sszeqxaudus7n9958","addr1qxys73l3hryn8fc2ph0vpq0d202spw33tadhycczsywtvtv3628la2lcg3lqy85p5je4yrgza2kr0aus4sszeqxaudus7n9958","addr1qxys73l3hryn8fc2ph0vpq0d202spw33tadhycczsywtvtv3628la2lcg3lqy85p5je4yrgza2kr0aus4sszeqxaudus7n9958"],"addressesOutput":["addr1wxn9efv2f6w82hagxqtn62ju4m293tqvw0uhmdl64ch8uwc0h43gt","addr1qxys73l3hryn8fc2ph0vpq0d202spw33tadhycczsywtvtv3628la2lcg3lqy85p5je4yrgza2kr0aus4sszeqxaudus7n9958","addr1qxys73l3hryn8fc2ph0vpq0d202spw33tadhycczsywtvtv3628la2lcg3lqy85p5je4yrgza2kr0aus4sszeqxaudus7n9958"],"fee":503638,"totalOutput":51292604,"tokens":[]},{"hash":"aa49cb26b0360194fecd93640f5b5acbac820e227671606572785f85c27297ed","blockNo":8424251,"blockHash":"2963788e7831fb3f7579c2c76e89262fd05a2258e41891dc508f5d62ea1eb0d1","epochNo":395,"epochSlotNo":75122,"slot":85351922,"time":"2023/02/20 18:36:53","addressesInput":["addr1qxys73l3hryn8fc2ph0vpq0d202spw33tadhycczsywtvtv3628la2lcg3lqy85p5je4yrgza2kr0aus4sszeqxaudus7n9958","addr1qxys73l3hryn8fc2ph0vpq0d202spw33tadhycczsywtvtv3628la2lcg3lqy85p5je4yrgza2kr0aus4sszeqxaudus7n9958","addr1qxys73l3hryn8fc2ph0vpq0d202spw33tadhycczsywtvtv3628la2lcg3lqy85p5je4yrgza2kr0aus4sszeqxaudus7n9958","addr1qxys73l3hryn8fc2ph0vpq0d202spw33tadhycczsywtvtv3628la2lcg3lqy85p5je4yrgza2kr0aus4sszeqxaudus7n9958"],"addressesOutput":["addr1wxaptpmxcxawvr3pzlhgnpmzz3ql43n2tc8mn3av5kx0yzs09tqh8","addr1qxys73l3hryn8fc2ph0vpq0d202spw33tadhycczsywtvtv3628la2lcg3lqy85p5je4yrgza2kr0aus4sszeqxaudus7n9958"],"fee":415418,"totalOutput":53716720,"tokens":[]},{"hash":"617e358e2034443adb9c9b1b18a09f874963ea8d2b76044bcfe64f2b5a70901a","blockNo":8424159,"blockHash":"5ab2cb05c06f3650985493d83cc9c61a7f86dcc207c3b0cde34834bed48697c2","epochNo":395,"epochSlotNo":73049,"slot":85349849,"time":"2023/02/20 18:02:20","addressesInput":["DdzFFzCqrhseJE9XeiU87pEVW1H1PrPWmTTAri7ewXZqw2HW26LSBTh3ksP73rwtFWHFFjxrSz3eM2WzcXssceCLBnR1UjxGKF1yTvST","DdzFFzCqrhshmFRcpFJVa8jZW9x9VQ1y377YVdGKaLnZKKg1a1PNCKDSfUZpo9CtFmHkTzySfuyA2FtEDsQh6wt5WHWfkYPJmpoFWraZ","DdzFFzCqrhsh4fCEq9BLoZqFaU9C79UTr4jJ1ftkWEFPttBj6vRqv1CcuwZrDK1EunGbnFUn3Rar3piFN6Vucwz33bqMbZGHiq9GfBK6","DdzFFzCqrht3XWHDc3hT6DwGWdCazsN4YidgQb3DNLd4vD2gBhYk3AYrSdrMFYxHn7tpiGXwMwQ6mMun1yr4qu46f9EPda5NiQYP3eJB"],"addressesOutput":["addr1q9atjfpqwdtg7ytz0pz9zcaqvx8zr2uv6ysvc4csqynr683dzefudzxhadht99nh8gv4l3z93d486ygllgxuh2drrrpsdw6fws","DdzFFzCqrhsp154exME65oaaQRkAqiynrPL1Zmx2hw77SUuicuTkLrSJQD8TkZ9MkSvM2VZ1bzREpLw2x3YuCZCL25wBrPvRoQoBVqv8","DdzFFzCqrhsu9VGJG2qZvd4YRqqEQFrX3PvWxyHvWP4CRiGHnNxzj6BHMmx9AuhzMVc9gPhLnbej3CQKWYSHSBYtkcJFTvPSxKqQgzPd","DdzFFzCqrhse41QWB368dgFt34SgSa9vHcKRJknSXC1Mjhs7mFWAUuEcomRdhyvKYJhdpQpFgVUkcQ74ZM6vqEV7UhhaBicQfnE628W9","DdzFFzCqrhtBDZa1HEyYHPY19eVwdyE8o4bXoaqDSmnUmqEn17feQEmHxqxFbQtEWuLcJwm3wKdqxifMSoU3AY2x1NhKUs85RadcVZ1o"],"fee":1082989,"totalOutput":35093126233,"tokens":[]},{"hash":"3e0aad785e2f735f8fbbcda164342f9fe202320a42824ac583233b122eab5cd6","blockNo":8424148,"blockHash":"976fdd661c419a1ca1d739e91cd3e0a876e59aefa9fe25b5c59daedc6f1b9ff5","epochNo":395,"epochSlotNo":72708,"slot":85349508,"time":"2023/02/20 17:56:39","addressesInput":["DdzFFzCqrht8cPpnzC8WTwDm6TZTfWxE6DzjBEFJi4xkdtVq4hzDNT79vpX258CXvvBBgwLdMupiNtMEwTUZmmvnC2uJLRvnwfthMWNk","DdzFFzCqrhsoFz5oeqEkbuHrFBxPDCAbQZ9zdtdpbSe4FvUJs6xdx1aBvfrWF6rkjoG5PbAR7C4ikSQRDDviT4Yj1ntfaiWRjDbw63RT","DdzFFzCqrhsdseAJntmgneSGnj9hHD7G3fCmR4kwe7qwLt4pDWxtU7gw6BjMVZYyoou9EhgPZ4aDecb69zmgQ7gAsqh8ikc632wHew51","DdzFFzCqrhsxB8LfY3E1g4by4iBMCJYj4PBhXiF11AQk5YHtfszdRgazCtdxnQdX1tVnK94Wy8sLHBPJvxw8WQixVHVRCuXY2JvVCtNF"],"addressesOutput":["addr1q9atjfpqwdtg7ytz0pz9zcaqvx8zr2uv6ysvc4csqynr683dzefudzxhadht99nh8gv4l3z93d486ygllgxuh2drrrpsdw6fws","DdzFFzCqrht3XWHDc3hT6DwGWdCazsN4YidgQb3DNLd4vD2gBhYk3AYrSdrMFYxHn7tpiGXwMwQ6mMun1yr4qu46f9EPda5NiQYP3eJB"],"fee":420217,"totalOutput":41657517499,"tokens":[]},{"hash":"f094017bf76ff6783a475c7a406612d0ba9a8d50484c85b02a4f2f8c67bb69ea","blockNo":8423956,"blockHash":"0ce257b6b2327218efef1b4646dfff1da020e0556290ea4f3345c121471a18e2","epochNo":395,"epochSlotNo":68685,"slot":85345485,"time":"2023/02/20 16:49:36","addressesInput":["DdzFFzCqrhsyrHQYTTb3tmXVPNBgvJPzpVjpAXbmMELUZSs6hu1rrc5fdGwLFr4jHj8z3L7P1gogd5FA6tD1KyzZwHFGr3nyu1Jd5W2S","DdzFFzCqrht9JXfnyVbWVzaAK8SHY9rPvq91qPbkXiCq2BXgvR61y6ZJpM2ZnLPXTPDsHxQqpBiGWoriWoxEAJ43VbAbsCHv2SU19F9V","DdzFFzCqrht2LCPyZ9NEjdXrVL8Fd1HfHqwWo3re5XogBbhKgUckRb7i8j5p1mjgq7zNLfRv3TSjs5BWMKV8XbtfMVnvYL7za3TsUo4J","DdzFFzCqrht36AMwqxZBH4K3PzyYvmma7giDJKzwdo5sBZeCrmvjgyCR1xWcHyPtc7cpyq5V5XzEdbrF2gjEKsZmqhsSs41CvuxCDidF","DdzFFzCqrhsoPWAudWhCFADf868Sy7YM69xm8fHwAHDuXTZVAHB4iArqV1W6YwxCdyZdzfFPUwQvtBsTmPPu1G1jVCSTfo4V87BDPMrd","DdzFFzCqrhsoPWAudWhCFADf868Sy7YM69xm8fHwAHDuXTZVAHB4iArqV1W6YwxCdyZdzfFPUwQvtBsTmPPu1G1jVCSTfo4V87BDPMrd","DdzFFzCqrhsx3APxRRJ7imAE4C9SQzrnaoiJmMnheLHDEBCtvG629JjjNHPeY2GhJN9RzARgD3jqQc5P2UZbfP9NdAb8cpE5YEXX9SVp","DdzFFzCqrhsev8ABdvpAcVJ99FsWsnM3Mu2eNVaJrY2bEnciRJGmR1KAXSCCNbEkrsKhoyMgLbzyVkT95XocvbqnWLdtokPGiUmcmZVe","DdzFFzCqrht6wVcVMaHLybbwNyWHc3BN7oaMATLuRyFJshjFenntC7ePUNivVs2nNijKGryBmPob6MJamsCDuAqg7WErrovYsSxeQEb5","DdzFFzCqrhsr1RcoY9YU6RUfhfEb7FVETqnAEM4Q3yMNv8LFVMQ5AaXbiPwY4vfagsre5u4pPHk4gPeziUeFY8xohhNGKM3ESTrfwNxe"],"addressesOutput":["addr1q9atjfpqwdtg7ytz0pz9zcaqvx8zr2uv6ysvc4csqynr683dzefudzxhadht99nh8gv4l3z93d486ygllgxuh2drrrpsdw6fws","DdzFFzCqrhsdseAJntmgneSGnj9hHD7G3fCmR4kwe7qwLt4pDWxtU7gw6BjMVZYyoou9EhgPZ4aDecb69zmgQ7gAsqh8ikc632wHew51","DdzFFzCqrhsgvc5zEq3XpN2Wy44VC7nUwEBzFjWjkk2nK7UTf6QqzPEqGq8D8mFVpXt3fRdHKrYt4YTgYTgT5SaGxppe4UFsnKSX9y5Z","DdzFFzCqrhseJE9XeiU87pEVW1H1PrPWmTTAri7ewXZqw2HW26LSBTh3ksP73rwtFWHFFjxrSz3eM2WzcXssceCLBnR1UjxGKF1yTvST","DdzFFzCqrhshmFRcpFJVa8jZW9x9VQ1y377YVdGKaLnZKKg1a1PNCKDSfUZpo9CtFmHkTzySfuyA2FtEDsQh6wt5WHWfkYPJmpoFWraZ"],"fee":1141069,"totalOutput":37914522696,"tokens":[]},{"hash":"36aae46eb28d9995e37e51759b1aaa432ad2bda63995f78fa0cdf2d1023ff585","blockNo":8423594,"blockHash":"9612cbf168940a3f6e4769e697411f0b9d7f17832175162fdf8756e63cd5fc89","epochNo":395,"epochSlotNo":60504,"slot":85337304,"time":"2023/02/20 14:33:15","addressesInput":["addr1q8hpyvkcwpyeeq5xprj0hhyp49qx7kqprx5xhjs2vd60fx6zmhet75tnxa8l4gj20eljsycfxetsj96s7tuyaqpj7ufqajh2uq"],"addressesOutput":["addr1wxn9efv2f6w82hagxqtn62ju4m293tqvw0uhmdl64ch8uwc0h43gt","addr1q8hpyvkcwpyeeq5xprj0hhyp49qx7kqprx5xhjs2vd60fx6zmhet75tnxa8l4gj20eljsycfxetsj96s7tuyaqpj7ufqajh2uq","addr1q8hpyvkcwpyeeq5xprj0hhyp49qx7kqprx5xhjs2vd60fx6zmhet75tnxa8l4gj20eljsycfxetsj96s7tuyaqpj7ufqajh2uq"],"fee":212625,"totalOutput":62414081,"tokens":[]},{"hash":"54c540701c798e2c3f0a2339a57cd735e4d400ae26a231143a88ba844f0c0aaf","blockNo":8423438,"blockHash":"68472a99369c2e1af8123e5687afc69c484533a744630fb3eeab956917ec6dc9","epochNo":395,"epochSlotNo":57095,"slot":85333895,"time":"2023/02/20 13:36:26","addressesInput":["addr1q8pyth24383uunj233m8ajrp4qz6a0zpwpn4hhpahncht2ezuq20wwz394xr5htm9c32fc98tl6u8qcrnryrg4g9harsyxhc40","addr1q9r77mtrm7fhhwsjuk8xdt4shs6rjmz42egma9cvmscat6ezuq20wwz394xr5htm9c32fc98tl6u8qcrnryrg4g9hars3kzw5v","addr1q9r77mtrm7fhhwsjuk8xdt4shs6rjmz42egma9cvmscat6ezuq20wwz394xr5htm9c32fc98tl6u8qcrnryrg4g9hars3kzw5v"],"addressesOutput":["addr1zxgx3far7qygq0k6epa0zcvcvrevmn0ypsnfsue94nsn3tvpw288a4x0xf8pxgcntelxmyclq83s0ykeehchz2wtspks905plm","addr1qyx7ekua7u84m9qcylsqavflstawjdj3400wcmz9asd843fzuq20wwz394xr5htm9c32fc98tl6u8qcrnryrg4g9hars0p79re","addr1qyx7ekua7u84m9qcylsqavflstawjdj3400wcmz9asd843fzuq20wwz394xr5htm9c32fc98tl6u8qcrnryrg4g9hars0p79re"],"fee":307973,"totalOutput":18727444,"tokens":[]}],"totalItems":14076,"totalPages":704,"currentPage":0}