{"data":[{"blockNo":6859404,"slotNo":52810825,"epochNo":319,"epochSlotNo":366025,"hash":"a78695d81c7db11e743e34c82ca72085a58e41a5f62266b33e255d42d49a93f6","time":"2022/02/09 03:25:16","txCount":8,"totalFees":7505775,"totalOutput":9295180742008,"slotLeader":"4ae0fed71f173ce25da0754f80a1567320b1640d6add28d4264b8b24"},{"blockNo":6859403,"slotNo":52810823,"epochNo":319,"epochSlotNo":366023,"hash":"afa650468b9241acb31728b9defb9c62705b6e6e6d04c5f27b3174aa18138757","time":"2022/02/09 03:25:14","txCount":32,"totalFees":12341336,"totalOutput":60973387724,"slotLeader":"db827cb962df26faab4c289f72f36aeee0e42453f1c78b27ea4e22ba"},{"blockNo":6859402,"slotNo":52810793,"epochNo":319,"epochSlotNo":365993,"hash":"3a0c8ccad3c92b16d850f9b4e72b198177bbe50b8526f96488d56370d107cee3","time":"2022/02/09 03:24:44","txCount":18,"totalFees":9336548,"totalOutput":24086335500,"slotLeader":"971212db48d9390662faa0fa725950f3b9ac1a898227f5fcf1096399"},{"blockNo":6859401,"slotNo":52810770,"epochNo":319,"epochSlotNo":365970,"hash":"733cabd0e736429517cb404baca71b46262d64b7adb0d5e0a84153daff8de5d4","time":"2022/02/09 03:24:21","txCount":46,"totalFees":15724726,"totalOutput":403189088601,"slotLeader":"cdae4a1a08974113e77ea332cb1da97d9e3fca5cf797f9394739214b"},{"blockNo":6859400,"slotNo":52810712,"epochNo":319,"epochSlotNo":365912,"hash":"39059a1c4364b2831b177c25cba055eb84436981e7f62df6f28dfd38a9e241de","time":"2022/02/09 03:23:23","txCount":35,"totalFees":12135141,"totalOutput":115238188088,"slotLeader":"f6541f3ca941d96d3c243eae01fea874d6be403b2dd2c6575245de6e"},{"blockNo":6859399,"slotNo":52810705,"epochNo":319,"epochSlotNo":365905,"hash":"15f8f6558aeb94691affb06d706f0cd45d917e96c05faf28ab989c576c9a4923","time":"2022/02/09 03:23:16","txCount":22,"totalFees":10288929,"totalOutput":35087667120,"slotLeader":"636fab1b0059766eb08c3bd089e71a949db856bb845e3bff31fad5ad"},{"blockNo":6859398,"slotNo":52810702,"epochNo":319,"epochSlotNo":365902,"hash":"c1cec43ef93b44ea114475da0e7938efb8cf310dd2ee7ed931b8d1fcf274d410","time":"2022/02/09 03:23:13","txCount":47,"totalFees":13567264,"totalOutput":14831648344844,"slotLeader":"32c6e03b9a94ce5d40527408634b02feaf82c015fde9d368e9f35714"},{"blockNo":6859397,"slotNo":52810636,"epochNo":319,"epochSlotNo":365836,"hash":"4d209ab587aaed6f8fd8ad169e74593b6627c47a6d51abf13a3769da20cbc7f9","time":"2022/02/09 03:22:07","txCount":23,"totalFees":11298681,"totalOutput":81624641639,"slotLeader":"971212db48d9390662faa0fa725950f3b9ac1a898227f5fcf1096399"},{"blockNo":6859396,"slotNo":52810588,"epochNo":319,"epochSlotNo":365788,"hash":"a137fbf72d41f97e255d677803cf561cd60e9ed871377b01c4d8f982008a7767","time":"2022/02/09 03:21:19","txCount":50,"totalFees":15219168,"totalOutput":250185463459,"slotLeader":"38ee2f8d878f7c444bd80d38c3b4cff02d3a3477c9e77d262065d9ad"},{"blockNo":6859395,"slotNo":52810559,"epochNo":319,"epochSlotNo":365759,"hash":"94513d8331a3027c355855cf751d42a01a1d45ba95ec34f8d1c942afb50f9652","time":"2022/02/09 03:20:50","txCount":43,"totalFees":12889030,"totalOutput":79339836032,"slotLeader":"ea595c6f726db925b6832af51795fd8a46e700874c735d204f7c5841"},{"blockNo":6859394,"slotNo":52810547,"epochNo":319,"epochSlotNo":365747,"hash":"a667c37d593f285ec3e77846f9271a04a3a7c4842f8f13133c206e3cf6067124","time":"2022/02/09 03:20:38","txCount":5,"totalFees":7318122,"totalOutput":2590080001957,"slotLeader":"55eaf38bf6eb1c6755d67175b59f93940f09abd6792d525c55089903"},{"blockNo":6859393,"slotNo":52810531,"epochNo":319,"epochSlotNo":365731,"hash":"0a1d2939d6c43214004f8d33653398bb12edc1296c781b607bdbe830d721e868","time":"2022/02/09 03:20:22","txCount":15,"totalFees":8276765,"totalOutput":466939830500,"slotLeader":"bce696401137ff3d305e6a8dbb6ac0cd9b41570bda42deb4e83d86f2"},{"blockNo":6859392,"slotNo":52810505,"epochNo":319,"epochSlotNo":365705,"hash":"6e85a09bfd0d9f56f859071a6e966f0d10b387cc86b51518419d7de1abff9cb9","time":"2022/02/09 03:19:56","txCount":46,"totalFees":15814494,"totalOutput":468672566972,"slotLeader":"315787d387683291b48e285069f95010fc1507246f8c80423f51e1ed"},{"blockNo":6859391,"slotNo":52810478,"epochNo":319,"epochSlotNo":365678,"hash":"1432e05272978fbded5084c509f5029d886e7d3ad5ecffc81391b9e1aad42508","time":"2022/02/09 03:19:29","txCount":27,"totalFees":11054561,"totalOutput":28520459746506,"slotLeader":"2ba96bc27be2bdde3ec11b9f696cf21fad39e49097be9b0193e6b572"},{"blockNo":6859390,"slotNo":52810448,"epochNo":319,"epochSlotNo":365648,"hash":"f0b2c2a420dda91488f5a0bcff3d40dfc6e2f2a8a5cf44ea1d7bf5f67dcc2de2","time":"2022/02/09 03:18:59","txCount":46,"totalFees":15198270,"totalOutput":101686915071,"slotLeader":"4b5e02dce5f549a0c332d8b02f91c43a506311fe1cd4498ddcf46bd0"},{"blockNo":6859389,"slotNo":52810437,"epochNo":319,"epochSlotNo":365637,"hash":"08be94c2e677c4e005daa2d51a1ad6ad3793e8a7e58cb481b942c3f9788256ec","time":"2022/02/09 03:18:48","txCount":22,"totalFees":10120958,"totalOutput":19048968140,"slotLeader":"c51e4e6cb25065ad0740249c66eafa11e186120602aff1cdca53110a"},{"blockNo":6859388,"slotNo":52810435,"epochNo":319,"epochSlotNo":365635,"hash":"422a8ba0d102c5cbd46610ddb4d44d1c6393b3859adc6b12483983763e75570d","time":"2022/02/09 03:18:46","txCount":34,"totalFees":12714605,"totalOutput":166818021943,"slotLeader":"9b97ad981c8456110e17b1297a58961147209b7dc0d8e78b44ed8bcb"},{"blockNo":6859387,"slotNo":52810403,"epochNo":319,"epochSlotNo":365603,"hash":"ce4bb1048d6814c9f56e655cc6b2ace584d732592e32b5c905ae717cc0c5417e","time":"2022/02/09 03:18:14","txCount":23,"totalFees":10908922,"totalOutput":36079816677,"slotLeader":"936316c217c6f217640ed8d132cb0ff8133eef73e74e4c28002b9eb3"},{"blockNo":6859386,"slotNo":52810323,"epochNo":319,"epochSlotNo":365523,"hash":"50b7cc0fbe34804d9d4539cf175b2cc0e59fdfa4da5e9956c987a1f46722bca6","time":"2022/02/09 03:16:54","txCount":15,"totalFees":9475569,"totalOutput":1831141309,"slotLeader":"533a710c19bdddc144ab19900d37a81488088259981a5d4885031ce3"},{"blockNo":6859385,"slotNo":52810300,"epochNo":319,"epochSlotNo":365500,"hash":"44e51459f9feacd71f33c48cfe70d745c966fce3417a4df0f42b695c68761c1e","time":"2022/02/09 03:16:31","txCount":64,"totalFees":16846735,"totalOutput":1571235963387,"slotLeader":"7113de447fb62c38e3e3aeec434cac6fc76e05e997b84227e9c637b8"}],"totalItems":6859580,"totalPages":342979,"currentPage":0}