{"data":[{"blockNo":6856400,"slotNo":52748033,"epochNo":319,"epochSlotNo":303233,"hash":"3e3a1ba2a71597f9ce26a31c6ff246ee31d8c55400d4dd767c93a6ee2ebd7345","time":"2022/02/08 09:58:44","txCount":37,"totalFees":13425829,"totalOutput":1600867419482,"slotLeader":"5b9a5633289c52003d359bce18f77f571a701fd3942a52bde3262558"},{"blockNo":6856399,"slotNo":52748024,"epochNo":319,"epochSlotNo":303224,"hash":"ee547525fa45937d87c4d0f8358a75b90b291a1318daafdb71b5bec88ca85758","time":"2022/02/08 09:58:35","txCount":29,"totalFees":12135053,"totalOutput":718325216608,"slotLeader":"e2c17915148f698723cb234f3cd89e9325f40b89af9fd6e1f9d1701a"},{"blockNo":6856398,"slotNo":52748015,"epochNo":319,"epochSlotNo":303215,"hash":"dcae9e7c637e0fb6e23797288b2a49aa8ebbf7cb7e075943e0b1053e8e4cd6a9","time":"2022/02/08 09:58:26","txCount":40,"totalFees":13357573,"totalOutput":2411794066796,"slotLeader":"ec826010110c7b8123a6e635afb96815c7d08b9a6f2c57b44f70a8b7"},{"blockNo":6856397,"slotNo":52748012,"epochNo":319,"epochSlotNo":303212,"hash":"6900e76d66f33b359e16021148b91e278cd30392243eeb176b53a84b85e0431d","time":"2022/02/08 09:58:23","txCount":33,"totalFees":10546691,"totalOutput":14015067810704,"slotLeader":"52e22df52e90370f639c99f5c760f0cd67d7f871cd0d0764fae47cd9"},{"blockNo":6856396,"slotNo":52747993,"epochNo":319,"epochSlotNo":303193,"hash":"63ac1a3078b5e699821f8a3f134ea36e29c1e793377778be2d8be4c1ad3c5a25","time":"2022/02/08 09:58:04","txCount":37,"totalFees":13687740,"totalOutput":676689942157,"slotLeader":"a3ee9595fc779621978c97960b4835e14fd2dfea7fff28ccb977b56b"},{"blockNo":6856395,"slotNo":52747987,"epochNo":319,"epochSlotNo":303187,"hash":"7c4e5e6ee5c0efe43d32c61edcd3ac2ae65dbccb111574da5118fcc7e2339727","time":"2022/02/08 09:57:58","txCount":42,"totalFees":15487196,"totalOutput":361669544411,"slotLeader":"e645c034522f32522bf1c64a7f46128c562880abc26abe5f65f25a84"},{"blockNo":6856394,"slotNo":52747984,"epochNo":319,"epochSlotNo":303184,"hash":"e9a7017e5f3c931cd7e7fe74a4876d59dae88581da66e5e0e435f7cdfc450da7","time":"2022/02/08 09:57:55","txCount":19,"totalFees":8687014,"totalOutput":20316415618,"slotLeader":"a7784228ea544bc94455e76f527aaee53266929f0bb2896893a0444f"},{"blockNo":6856393,"slotNo":52747978,"epochNo":319,"epochSlotNo":303178,"hash":"31b77db23b1c20425312086193b782ae1bd7da49902ecb740e2ef48e2df2568d","time":"2022/02/08 09:57:49","txCount":34,"totalFees":12465980,"totalOutput":15129470786604,"slotLeader":"60397646d7d1ad6fe2ddccfe7efc9cba61f6d3d94d29e8f41de73240"},{"blockNo":6856392,"slotNo":52747968,"epochNo":319,"epochSlotNo":303168,"hash":"aece7919867353cc21a093930b28d39888aa88b72f39e807302849047beb4f2c","time":"2022/02/08 09:57:39","txCount":16,"totalFees":8241559,"totalOutput":145811004211,"slotLeader":"dec7757e2ba0fcea7fd93a9999bf342d1974338fb91355ac68c13320"},{"blockNo":6856391,"slotNo":52747955,"epochNo":319,"epochSlotNo":303155,"hash":"0c1e1cdd6f43ea70bc01a30761537adcccbedf2083d9239ba198c8ba726384f2","time":"2022/02/08 09:57:26","txCount":20,"totalFees":9954146,"totalOutput":8424901882,"slotLeader":"d808aa16caa44c3226b76340f9f9535719d6e1018d46f499c100b6f1"}],"totalItems":14302,"totalPages":1431,"currentPage":0}