{"data":[{"txId":41402936,"txHash":"f58718bf457ff816b0ed068ee1148cefb397eaa1319c71f3335eb0b6ee3e7d90","txTime":"2022/05/16 01:30:39","block":7251846,"epoch":339,"slotNo":61098348,"epochSlotNo":13548,"stakeKey":"stake1u9jg8228rxdaqhrjr9crf6haqwmx2qq7addggr677mgwdnqfejzv7"},{"txId":41402883,"txHash":"be40e693cb651e2e48c9b53628efe80d45b4bd55507ff279763853ed07792457","txTime":"2022/05/16 01:30:22","block":7251845,"epoch":339,"slotNo":61098331,"epochSlotNo":13531,"stakeKey":"stake1u98x2nghen097l9kvr65fp5wff7v243a87xlh2as6ry3r2g72t24c"},{"txId":41402866,"txHash":"e2705ab3da381bd11a9e51be510d24571b91490bf69bfea565e2ada8fcde08e1","txTime":"2022/05/16 01:30:13","block":7251844,"epoch":339,"slotNo":61098322,"epochSlotNo":13522,"stakeKey":"stake1u9ljyyp6zx9g3ufpe0j36u3h2yepjc8kfc6sxdgmn9mhpnqw87jke"},{"txId":41402726,"txHash":"bed434f6150e1f1dcca4be2e540b32e7e3af4b16d5fc8b655f5e68cafed88518","txTime":"2022/05/16 01:27:35","block":7251840,"epoch":339,"slotNo":61098164,"epochSlotNo":13364,"stakeKey":"stake1uyjhkcfgz27vk64h22cms9trz3cdxyth3ra7tnhkqsssx3ch683k3"},{"txId":41402483,"txHash":"ff7bbbd80204f24aa7c93d499129d263e4a6946ce94d588f9dd818e523ce93cb","txTime":"2022/05/16 01:25:26","block":7251835,"epoch":339,"slotNo":61098035,"epochSlotNo":13235,"stakeKey":"stake1uy3m8z22v7pv4fujejrdvfvqqkkdtv8z7uzwwl3mwha6zusp9naee"},{"txId":41402318,"txHash":"8826b82fce10df8395451d28a70c57191d3122544655b5a47a3460bd30c41cce","txTime":"2022/05/16 01:22:18","block":7251831,"epoch":339,"slotNo":61097847,"epochSlotNo":13047,"stakeKey":"stake1ux70c57dq3x89y6fd7xmsjum3jtnk3tp8pt7as5f33zwgwc6v5hhp"},{"txId":41401921,"txHash":"63baa55609454f62611f87f7722ac227c09e3667a6c547ee28231ee62c17ed51","txTime":"2022/05/16 01:18:33","block":7251823,"epoch":339,"slotNo":61097622,"epochSlotNo":12822,"stakeKey":"stake1uyk7ztewzg5g42m4canhqyvxx367eaud46xus6z8va88jlsvy3v6x"},{"txId":41401689,"txHash":"a54ccbd24209d963ee10b4c49066ee37235a1bf80f1269836c9a72ac2b7fd873","txTime":"2022/05/16 01:16:44","block":7251817,"epoch":339,"slotNo":61097513,"epochSlotNo":12713,"stakeKey":"stake1u9jg5uz9jjmfv3lhureagxre4r4hltd6p8aflqux9vqmlcq5y7flu"},{"txId":41401575,"txHash":"98636f064f38ecf31baa4cdd733cb4b5b81f483fb053d04ad843dd9809cfa77b","txTime":"2022/05/16 01:16:11","block":7251815,"epoch":339,"slotNo":61097480,"epochSlotNo":12680,"stakeKey":"stake1u8l3qcxk0p3gpw6v66h2ajaj5rkku9hntrcmc4cc52kpwmcxdj42l"},{"txId":41401337,"txHash":"4ea15ab64e82a247723694149a59c7ce8b23da15308a95dd3c06610ba2f66648","txTime":"2022/05/16 01:10:39","block":7251809,"epoch":339,"slotNo":61097148,"epochSlotNo":12348,"stakeKey":"stake1uydash24k5qw5s0u0vzcs4m8q6vfq7pfz2tw0cn8hwdk9qsjslewk"},{"txId":41400992,"txHash":"3a48895f980ba46d31132e987ecf0a8019d121d6b5e6b2953a9358d8de7ce37d","txTime":"2022/05/16 01:05:36","block":7251800,"epoch":339,"slotNo":61096845,"epochSlotNo":12045,"stakeKey":"stake1u9j3vlz5guvt65l9f56z3yfmw6plegzj93rdfv40x67h48s60nyvv"},{"txId":41400898,"txHash":"f5a6abb8e8bdd536959c31a6242ee6c6d9545cbc1c15f65a29fc39f56a4dd8c6","txTime":"2022/05/16 01:05:15","block":7251798,"epoch":339,"slotNo":61096824,"epochSlotNo":12024,"stakeKey":"stake1uyf9yr83rmlh4g73vrtqyaulwmlceftk4l4dchw7xkvu9scaxralq"},{"txId":41400822,"txHash":"453dde6272f740b0492031fdc1c6c80da4051d5a5146fc60d298d3e006787688","txTime":"2022/05/16 01:04:03","block":7251796,"epoch":339,"slotNo":61096752,"epochSlotNo":11952,"stakeKey":"stake1u8j4u0pfjlklwnwa0awvzgya79hjmhwvjl033ayh582fsggaph932"},{"txId":41400285,"txHash":"2803de810493fd5886e5a30eb7408db9bc0850be5a96c749e4a236c0d4f1d941","txTime":"2022/05/16 01:00:36","block":7251783,"epoch":339,"slotNo":61096545,"epochSlotNo":11745,"stakeKey":"stake1uyzk5u46w848asxgl0l7hamugulp3zrt0f7ruc3ejn7py9qg6xyyc"},{"txId":41400123,"txHash":"3f623958da72d8bb45209ac552bdbd9d965a11d7dd2ae4a0f4d2ca2e3b5b7724","txTime":"2022/05/16 00:59:27","block":7251780,"epoch":339,"slotNo":61096476,"epochSlotNo":11676,"stakeKey":"stake1u8u6alfz4rr0vc4p85yy46faqd09lhhj6578ddr6fj2usks94c55g"},{"txId":41400043,"txHash":"0d9786b5283962e4ead6415ea37499ecc06645cd0ca9789c55e1c65986163c7d","txTime":"2022/05/16 00:59:06","block":7251778,"epoch":339,"slotNo":61096455,"epochSlotNo":11655,"stakeKey":"stake1u8nrr5l2hzgzazk52tckeag3f79mxc9k5l273ppc2xqy2vsezzcmn"},{"txId":41399982,"txHash":"38ca9fb729d8b4e565d1eb4d0c069c3835ce2a04807a28b68675f5495cba83fb","txTime":"2022/05/16 00:58:25","block":7251777,"epoch":339,"slotNo":61096414,"epochSlotNo":11614,"stakeKey":"stake1u97dq9st48hjemj07zy3x4t9akmymgeuuf9sxkdu9ywxpfgmq66cf"},{"txId":41399943,"txHash":"f7480c48515b7bf0c1fa529cd0c56d78c299a45b240fc31d433a28139ec860e2","txTime":"2022/05/16 00:58:17","block":7251776,"epoch":339,"slotNo":61096406,"epochSlotNo":11606,"stakeKey":"stake1u9d0alp4vv69t7yuyahnv740xu5ftjg08t535hutqsqt88c84twcn"},{"txId":41398174,"txHash":"5ace3739782626eae9aa1d72886e113ab01fae395bb6d52adac52637f3dc261c","txTime":"2022/05/16 00:46:07","block":7251745,"epoch":339,"slotNo":61095676,"epochSlotNo":10876,"stakeKey":"stake1u8sumcctdp79xmc454tnrvt476hr662nmsul6vn3qxnd5sschr946"},{"txId":41398084,"txHash":"937ad0362f2cc93349d3d3342e5bf38ef0bdf683741289c3137ea001e528fdcf","txTime":"2022/05/16 00:45:54","block":7251744,"epoch":339,"slotNo":61095663,"epochSlotNo":10863,"stakeKey":"stake1u95qwh5p4xpve2c3xqsw9pe472g5dppv698hp6xn9de66lqwgxuch"}],"totalItems":1508832,"totalPages":75442,"currentPage":0}