{"data":[{"txId":56840164,"txHash":"5c157bf74d3717b01dd42be8f8e4503640d312f364c44c83eaac30b3868363f7","txTime":"2022/12/07 15:37:24","block":8109459,"epoch":380,"slotNo":78861153,"epochSlotNo":64353,"stakeKey":"stake1u9txx3uuh9fyfxxrr9ntazunnldw7tt2sprk7ff6a5n06fgyywr6y"},{"txId":56839870,"txHash":"a0f58effd079bc64dbc45e1d1602dd5d3311553d9c56ab29b0081cb0ce47382e","txTime":"2022/12/07 15:33:00","block":8109440,"epoch":380,"slotNo":78860889,"epochSlotNo":64089,"stakeKey":"stake1u80heqgemamwl0my5r6tauwz2pyqf5cdnl5esvn4gzess8gxc7d2m"},{"txId":56839583,"txHash":"dc202b4ddea7347ad65d48785c277e914e27b58578b1803208997df786ddca4b","txTime":"2022/12/07 15:28:21","block":8109428,"epoch":380,"slotNo":78860610,"epochSlotNo":63810,"stakeKey":"stake1uy56dq77q4wpajmf30u5zn4tnyjsuc02lsqqlcdpsvtupvgkrjpsu"},{"txId":56839411,"txHash":"a131085927f7a451144f2dd005a009fcb042f179f5192c00101e3251c7258269","txTime":"2022/12/07 15:25:57","block":8109420,"epoch":380,"slotNo":78860466,"epochSlotNo":63666,"stakeKey":"stake1uy0krzxf4x8ykc4czrv7vjucjx4ux97h6vhnyvwvwn4jnscd3y7kw"},{"txId":56839288,"txHash":"73734f4a731bee1d261823f0cb98475abb7d7f9f37ecf53818481e43fae9d89f","txTime":"2022/12/07 15:23:56","block":8109414,"epoch":380,"slotNo":78860345,"epochSlotNo":63545,"stakeKey":"stake1u83n7h0pcww8axkrpg3p8wzlqqy5zpt6ednfe3hkm7puwgqj76rkj"},{"txId":56838947,"txHash":"cff97aa605dfc14a9271322ec1f69db86dd6c4291312f5d26dde358f2671edc0","txTime":"2022/12/07 15:18:05","block":8109392,"epoch":380,"slotNo":78859994,"epochSlotNo":63194,"stakeKey":"stake1uylr7n2teh44t8tzkl9uhu0prk757wqsdv9xcj2dxla0u4cyj88yh"},{"txId":56838908,"txHash":"963a319ffa2274b328ae0782b6d230049546afcac87018777e7285c401bdc6d6","txTime":"2022/12/07 15:17:27","block":8109390,"epoch":380,"slotNo":78859956,"epochSlotNo":63156,"stakeKey":"stake1uyl4533akaqrpyqcwn9ea8x2gyzdaaxs26z6ze9n04p45lqcgy4ew"},{"txId":56838896,"txHash":"02afd7a6d5facaf6b599a6dd0233b67732e15fc04c9de56ba9b3ff74bfdb8a6e","txTime":"2022/12/07 15:17:10","block":8109389,"epoch":380,"slotNo":78859939,"epochSlotNo":63139,"stakeKey":"stake1u9anyv0sx545836ts3hu238ywd2ay3ngys8y98uccrcjl8q5w4038"},{"txId":56838856,"txHash":"f82a6b86f3ff7b9325428b36d4d4ef60a613917d8e8cba80be8982f2064d4163","txTime":"2022/12/07 15:16:24","block":8109385,"epoch":380,"slotNo":78859893,"epochSlotNo":63093,"stakeKey":"stake1u8xgav2s5p6gzsntxrfp80zulq0pau6mvkgx7dyuyhqxw7ce838aj"},{"txId":56838802,"txHash":"f33151d9d36d20f60565d47d507165452759b3141c1850a8d9b8306f6235ba01","txTime":"2022/12/07 15:15:33","block":8109382,"epoch":380,"slotNo":78859842,"epochSlotNo":63042,"stakeKey":"stake1uyyw20rasvw28k7lcvu7p2a3a0xtstr0ve54deayts6pmygz3dntx"},{"txId":56838796,"txHash":"6af7eda09691a32c564614fee8871887c51d42a519398e75ad9cae9bb7e0f426","txTime":"2022/12/07 15:15:23","block":8109381,"epoch":380,"slotNo":78859832,"epochSlotNo":63032,"stakeKey":"stake1u8xu5csclr7p6xnkxwmlcrjwjx32vhhh4ax89u7qv5gtvrgr4h3dt"},{"txId":56838702,"txHash":"ee15e2996949d27cc8b6c564f0083aa2db2ea458e1e359b6c0f62ab303fd63e9","txTime":"2022/12/07 15:14:07","block":8109376,"epoch":380,"slotNo":78859756,"epochSlotNo":62956,"stakeKey":"stake1ux4f2fxrxhqlyxane520ayncpaup2aeeq75kg4r38nkcwrckcnht0"},{"txId":56838319,"txHash":"ab6a385b96f4b5880fe94bb12356de56148ca519fe5641c72e78bc97c4ce4913","txTime":"2022/12/07 15:07:12","block":8109352,"epoch":380,"slotNo":78859341,"epochSlotNo":62541,"stakeKey":"stake1uy9rf63l5nqvv2g2j0yvhyfqec2v0pywa0mmcgdxvmgjvuclx86nz"},{"txId":56838188,"txHash":"eed5ce82209d1e155939711981ea9a8e579450ac44e78bd6bdc7323ec947a1bd","txTime":"2022/12/07 15:05:11","block":8109345,"epoch":380,"slotNo":78859220,"epochSlotNo":62420,"stakeKey":"stake1u8r4ka95qzx54a8np3zhu2nurxzqexx470mc24zwv73dfmq8fuxam"},{"txId":56837925,"txHash":"18aadca89591fdaf5e800ac4d57b6677c006dec8f449965b2ec8f9f6d2583c25","txTime":"2022/12/07 15:01:08","block":8109329,"epoch":380,"slotNo":78858977,"epochSlotNo":62177,"stakeKey":"stake1uxf5ztfqq3s6fk6zj70dgw3ket7vh2jrtskrkhwkntkwmsg99w9tj"},{"txId":56837357,"txHash":"b68015f4e6c149f71e0ce44e412dfeae49c5d176ddfab151ff5188fc5240b025","txTime":"2022/12/07 14:51:29","block":8109294,"epoch":380,"slotNo":78858398,"epochSlotNo":61598,"stakeKey":"stake1u8xu5csclr7p6xnkxwmlcrjwjx32vhhh4ax89u7qv5gtvrgr4h3dt"},{"txId":56836889,"txHash":"c2fe760808322f9b4cd2028cb4696fc42b198d5a0b8e81efa36162efd59aa57a","txTime":"2022/12/07 14:44:21","block":8109269,"epoch":380,"slotNo":78857970,"epochSlotNo":61170,"stakeKey":"stake1u8xu5csclr7p6xnkxwmlcrjwjx32vhhh4ax89u7qv5gtvrgr4h3dt"},{"txId":56835878,"txHash":"d5384031b9ba0e02b694a7a4a1375964119504e981c45c432cc58e42c2a4bf00","txTime":"2022/12/07 14:23:45","block":8109220,"epoch":380,"slotNo":78856734,"epochSlotNo":59934,"stakeKey":"stake1uy53fccjjgkjc6x5uvt3nxlqz3jcu59e6wd08ej9tl6ypngy24d8e"},{"txId":56835121,"txHash":"b8a986e42744c5f06260613e0b6f9f81e3ddee7f061398e94e7dcc35615a230c","txTime":"2022/12/07 14:10:16","block":8109173,"epoch":380,"slotNo":78855925,"epochSlotNo":59125,"stakeKey":"stake1ux99wee4f9j6zz6g2hmk9l43shhpdyp0tfxeetqa33c3k0qfgfkqz"},{"txId":56834643,"txHash":"d41431bed1fee9b7c5309be88f14e5eaabfd5f52f40f658977c1118c3e87761d","txTime":"2022/12/07 14:00:28","block":8109138,"epoch":380,"slotNo":78855337,"epochSlotNo":58537,"stakeKey":"stake1u8lswd3sl2el3qkqcapcgsz858cgpk4cwgyxuuectelghqcxxa5a8"}],"totalItems":335399,"totalPages":16770,"currentPage":0}