{"data":[{"hash":"0c465aaabb110582f85e114147fc0a5f205a4acd40bb60e15d2cafb30bd1bda1","blockNo":7082648,"blockHash":"042b073aae1fac207a9c70f2700fc66749a078ebfb6219915ddf5b05832f9fce","epochNo":330,"epochSlotNo":333702,"slot":57530502,"time":"2022/04/04 18:26:33","addressesInput":["addr1q8zaugmnxlq8yhnskq388276vv0gx9eu8gl4u0tf3qjylt2yd9yz6v3qqtdvkzz36vcddzkln9g44jlankq8qadgh26qpwe8er"],"addressesOutput":["addr1qxccr0vdkxee6cztj6ncqrv2eqnrq7xraqy2yflzzx0dz8f6cyqlfzxtjny7s6tkkljh3ky2sng9fhdnj9vad47edvjsfggp7u","addr1q8zaugmnxlq8yhnskq388276vv0gx9eu8gl4u0tf3qjylt2yd9yz6v3qqtdvkzz36vcddzkln9g44jlankq8qadgh26qpwe8er"],"fee":190681,"totalOutput":49437701566,"tokens":[]},{"hash":"7091c93ba85b545bb342ac27e3c6b46f07e32eb7b45fe93470c6da99df33c9d1","blockNo":7082648,"blockHash":"042b073aae1fac207a9c70f2700fc66749a078ebfb6219915ddf5b05832f9fce","epochNo":330,"epochSlotNo":333702,"slot":57530502,"time":"2022/04/04 18:26:33","addressesInput":["addr1qx4q5ylnkcj3sc5sx90rqh5wxnllsll3u9pva7nnuzlxuxjpu30zry5n732j6ucc8dwas053autqfl6s868talkyd99q22fs4y"],"addressesOutput":["addr1w999n67e86jn6xal07pzxtrmqynspgx0fwmcmpua4wc6yzsxpljz3","addr1qx4q5ylnkcj3sc5sx90rqh5wxnllsll3u9pva7nnuzlxuxjpu30zry5n732j6ucc8dwas053autqfl6s868talkyd99q22fs4y"],"fee":318768,"totalOutput":63513940,"tokens":[]},{"hash":"379ecf263e0ab373bb7d70015dc76de1e7a5a4a17e979e14b4e53cb9d4df9d67","blockNo":7082648,"blockHash":"042b073aae1fac207a9c70f2700fc66749a078ebfb6219915ddf5b05832f9fce","epochNo":330,"epochSlotNo":333702,"slot":57530502,"time":"2022/04/04 18:26:33","addressesInput":["addr1qxadzha3wezjlqyse2lsmgjau6svh0rmwcv2qjcsk30r0lj09j5j45dzn3as59a4sllkr2eem8gl49mp6gjgyu36249qt5lmxj"],"addressesOutput":["DdzFFzCqrhsq7Dry3har5pG7wAjkqDQoWgtqeAfFcEKTxYMQr5XgKeSkZEDZKCo3STuXPDePLqGdwJugrX8UC9z86FCJBEWZSVwAXyvF","addr1qxk9fcvkxzg5mdw9mx8nu7hzmpg8ny8yx87jwv9dfjnyymz09j5j45dzn3as59a4sllkr2eem8gl49mp6gjgyu36249qfvmst7"],"fee":169109,"totalOutput":509090122,"tokens":[]},{"hash":"bd59441408962c86186886be4e7a61a967d80def1c6b2d7b1cb4b25d54c154cd","blockNo":7082648,"blockHash":"042b073aae1fac207a9c70f2700fc66749a078ebfb6219915ddf5b05832f9fce","epochNo":330,"epochSlotNo":333702,"slot":57530502,"time":"2022/04/04 18:26:33","addressesInput":["addr1q99jhw9u584g7mh9deaafy7yg50zexxlw2pnteq85xhggq7srdnk88076e2ly8y3t7c77x7ad5t66vecyw2w5zta9qmqvr8e8n","addr1q99jhw9u584g7mh9deaafy7yg50zexxlw2pnteq85xhggq7srdnk88076e2ly8y3t7c77x7ad5t66vecyw2w5zta9qmqvr8e8n","addr1w999n67e86jn6xal07pzxtrmqynspgx0fwmcmpua4wc6yzsxpljz3"],"addressesOutput":["addr1q9cwvremt6n320s2e3agq0jyq82yhrk3htsu0w426xnz5us70z4w0jgvcdkkynmm8wmds66jd9kusnjfpu6raw5fqp0sr07p5w","addr1qyn6lg4d8v4278wyqytk0ept4kufr4p70xwm299epqzkkqxx06qllrhteqz0mdqx07apxcm6936u4sgla8z44k7jn25s8jdzmq","addr1qxrldnmyze9a3hw626yjjvw9z3f23fwgmsz88e07c93rw3tflezrdtu3kxa88qm699gpyvms9pcyv46zmfcsd079mwusjznghg","addr1q99jhw9u584g7mh9deaafy7yg50zexxlw2pnteq85xhggq7srdnk88076e2ly8y3t7c77x7ad5t66vecyw2w5zta9qmqvr8e8n"],"fee":1386672,"totalOutput":57290004,"tokens":[]},{"hash":"e9268642fd3a82238db5ca6473a8c46b65778542d9d28f3ae26b32e3faf2cba5","blockNo":7082648,"blockHash":"042b073aae1fac207a9c70f2700fc66749a078ebfb6219915ddf5b05832f9fce","epochNo":330,"epochSlotNo":333702,"slot":57530502,"time":"2022/04/04 18:26:33","addressesInput":["addr1w9yr0zr530tp9yzrhly8lw5upddu0eym3yh0mjwa0qlr9pgmkzgv0","addr1qy2zyl9lfd3w69gmgmlrg4z68g5hfw7en3pky3exklatylwp9639ae4uvdk7t3vvvvsk6u3636pdnplna2yhnv5tkgps5sswsu"],"addressesOutput":["addr1qy2zyl9lfd3w69gmgmlrg4z68g5hfw7en3pky3exklatylwp9639ae4uvdk7t3vvvvsk6u3636pdnplna2yhnv5tkgps5sswsu","addr1qy2zyl9lfd3w69gmgmlrg4z68g5hfw7en3pky3exklatylwp9639ae4uvdk7t3vvvvsk6u3636pdnplna2yhnv5tkgps5sswsu"],"fee":1035665,"totalOutput":107931921,"tokens":[]},{"hash":"95dd4a6155449daafc6777655c205718773f6d5029ef1adb87325fbc88877b0b","blockNo":7082648,"blockHash":"042b073aae1fac207a9c70f2700fc66749a078ebfb6219915ddf5b05832f9fce","epochNo":330,"epochSlotNo":333702,"slot":57530502,"time":"2022/04/04 18:26:33","addressesInput":["addr1wxaptpmxcxawvr3pzlhgnpmzz3ql43n2tc8mn3av5kx0yzs09tqh8","addr1vytkjutvprmngk8r4p3s3hmzxp8fjd0wsaqpvx3fnf7mrnca2zllh","addr1vytkjutvprmngk8r4p3s3hmzxp8fjd0wsaqpvx3fnf7mrnca2zllh","addr1w9qzpelu9hn45pefc0xr4ac4kdxeswq7pndul2vuj59u8tqaxdznu"],"addressesOutput":["addr1w9qzpelu9hn45pefc0xr4ac4kdxeswq7pndul2vuj59u8tqaxdznu","addr1w9jx45flh83z6wuqypyash54mszwmdj8r64fydafxtfc6jgrw4rm3","addr1qy36wkyvmycuxwun8n9h9s3uw8w8u9qk2vvtj9mpk5hqltspsyxuxj8am3aaxxhxzhsqkvt25zaf67583xvtxdfu5upqumvv60","addr1vytkjutvprmngk8r4p3s3hmzxp8fjd0wsaqpvx3fnf7mrnca2zllh","addr1vytkjutvprmngk8r4p3s3hmzxp8fjd0wsaqpvx3fnf7mrnca2zllh"],"fee":1219215,"totalOutput":2096085710,"tokens":[]},{"hash":"bacad25ce99df32bc394ea3ad34b0a1f49b3b1488357c58aa5f535b1c7fd08ae","blockNo":7082648,"blockHash":"042b073aae1fac207a9c70f2700fc66749a078ebfb6219915ddf5b05832f9fce","epochNo":330,"epochSlotNo":333702,"slot":57530502,"time":"2022/04/04 18:26:33","addressesInput":["addr1q8vzns0canmswn2ewpf2py9fmaju4yzpewj4vn34ympe8q4v3tz6fway0ql52u8xwral8ypn68pd3hv4k8mdmu7k3uuqxqhptn"],"addressesOutput":["addr1q8elth94e2emk7svlvy2s7247p5j5ulhynq6dcswulzyl055p4a2uysk8ucley8uknwchyh78umktd22g54fuymsl2rsq2jaqh","addr1q8vzns0canmswn2ewpf2py9fmaju4yzpewj4vn34ympe8q4v3tz6fway0ql52u8xwral8ypn68pd3hv4k8mdmu7k3uuqxqhptn"],"fee":168317,"totalOutput":4831683,"tokens":[]},{"hash":"26486a04c03201c6d2bb772d343006899e1ba3abd213e1b0a9daf1df0b4f190a","blockNo":7082648,"blockHash":"042b073aae1fac207a9c70f2700fc66749a078ebfb6219915ddf5b05832f9fce","epochNo":330,"epochSlotNo":333702,"slot":57530502,"time":"2022/04/04 18:26:33","addressesInput":["addr1q8z36clvq97tmtjf2cf8m0ukk5q0l360vtgj8k3jme08273tn6xmzwem5crg2njg2wtu43s75muddx9cwmjq286jxn7qpe95m9","addr1q8z36clvq97tmtjf2cf8m0ukk5q0l360vtgj8k3jme08273tn6xmzwem5crg2njg2wtu43s75muddx9cwmjq286jxn7qpe95m9"],"addressesOutput":["DdzFFzCqrhsv6Z6AmnKUQF6u99LfFaPZdUuirU5W61nwa4P87aJXHzishFeiYn3pZ75kybhWDxmesagHB6nfqqSveM6vyNARZg32aN9i","addr1q8z36clvq97tmtjf2cf8m0ukk5q0l360vtgj8k3jme08273tn6xmzwem5crg2njg2wtu43s75muddx9cwmjq286jxn7qpe95m9"],"fee":395200,"totalOutput":424090290,"tokens":[]},{"hash":"b17b19be672d7f8c9f912b042cd212b7a7d081726109599c0025f23dde92511c","blockNo":7082648,"blockHash":"042b073aae1fac207a9c70f2700fc66749a078ebfb6219915ddf5b05832f9fce","epochNo":330,"epochSlotNo":333702,"slot":57530502,"time":"2022/04/04 18:26:33","addressesInput":["addr1qx9ta3su52vf6fcvx99pqsuqrtsr8q08knt35m9xju2hqtd2h6m8xgtkucal8ymjeev78legnhcrt4lnvzmt0y8yy57q2rd3jw"],"addressesOutput":["addr1w999n67e86jn6xal07pzxtrmqynspgx0fwmcmpua4wc6yzsxpljz3","addr1qx9ta3su52vf6fcvx99pqsuqrtsr8q08knt35m9xju2hqtd2h6m8xgtkucal8ymjeev78legnhcrt4lnvzmt0y8yy57q2rd3jw"],"fee":229344,"totalOutput":15972759,"tokens":[]},{"hash":"ce1f853a0f408760135b98176b08e2ee76559ecf9bad67103dd954fbf01ab41c","blockNo":7082648,"blockHash":"042b073aae1fac207a9c70f2700fc66749a078ebfb6219915ddf5b05832f9fce","epochNo":330,"epochSlotNo":333702,"slot":57530502,"time":"2022/04/04 18:26:33","addressesInput":["addr1q9h78xeek76w0gnzptp2uwqkr94q3sd7pvxq093092hccv9e6dvs44yp72akpfv0seuur5ulfl4u9cfj584f5vhfp8hqyd5p2j","addr1q8dcwu8pkensv02rdzawh6z938rmwdj393svtkusvnwp4gae6dvs44yp72akpfv0seuur5ulfl4u9cfj584f5vhfp8hq33mv5k"],"addressesOutput":["addr1wxaptpmxcxawvr3pzlhgnpmzz3ql43n2tc8mn3av5kx0yzs09tqh8","addr1q8dcwu8pkensv02rdzawh6z938rmwdj393svtkusvnwp4gae6dvs44yp72akpfv0seuur5ulfl4u9cfj584f5vhfp8hq33mv5k","addr1q8dcwu8pkensv02rdzawh6z938rmwdj393svtkusvnwp4gae6dvs44yp72akpfv0seuur5ulfl4u9cfj584f5vhfp8hq33mv5k"],"fee":263789,"totalOutput":776170619,"tokens":[]},{"hash":"6446a292f48bd8cd7940250e2c831570c435e3d16aa54968bc4528dfd68b077f","blockNo":7082648,"blockHash":"042b073aae1fac207a9c70f2700fc66749a078ebfb6219915ddf5b05832f9fce","epochNo":330,"epochSlotNo":333702,"slot":57530502,"time":"2022/04/04 18:26:33","addressesInput":["addr1qyzx2hzrwax07qcnwssr94dzl0m80e7s55sr682f6tnfsa76rn5g47k4cp72qdg6zraw07unslmens359ujp8muyc0eqq0x9z5","addr1wxdct40gvyv525zlq79wahkuhmgadjs3q5lkrclemxvlu3qyda7l2"],"addressesOutput":["addr1wxdct40gvyv525zlq79wahkuhmgadjs3q5lkrclemxvlu3qyda7l2","addr1wxvd7wcq59gqljmhm2s9yp2slvygljfr8xtc3wykx7uaukgt8lqh6","addr1qyzx2hzrwax07qcnwssr94dzl0m80e7s55sr682f6tnfsa76rn5g47k4cp72qdg6zraw07unslmens359ujp8muyc0eqq0x9z5"],"fee":630685,"totalOutput":195102779,"tokens":[]},{"hash":"13f600deee5ed22ac59a64e992f2c51942d9869a6bdc7752d330b4351d9fe18c","blockNo":7082648,"blockHash":"042b073aae1fac207a9c70f2700fc66749a078ebfb6219915ddf5b05832f9fce","epochNo":330,"epochSlotNo":333702,"slot":57530502,"time":"2022/04/04 18:26:33","addressesInput":["addr1qyzpdne2qph2jx658h3rhmnu8enwq4r4t0t9w94k82hcgvxfwd6a40smlpar7nkjm2awmlgvk7fm9nzrt50dg32jtx9s83gjkf","addr1q8yc509s65hyfnmqadvnkjewtzwayhmdtlkxt69faag6sakfwd6a40smlpar7nkjm2awmlgvk7fm9nzrt50dg32jtx9suhk4ju","addr1qyzpdne2qph2jx658h3rhmnu8enwq4r4t0t9w94k82hcgvxfwd6a40smlpar7nkjm2awmlgvk7fm9nzrt50dg32jtx9s83gjkf"],"addressesOutput":["addr1vyr3cgqmugzcep99n5uszzp8hp27e00jvh2ry64f4fu9q5ssugp6k","addr1qyvpc02gsuckj26fuvh9qsyh4e95meyg7ujlnzj0e0etgrkfwd6a40smlpar7nkjm2awmlgvk7fm9nzrt50dg32jtx9s8ceds8"],"fee":281441,"totalOutput":780692906,"tokens":[]},{"hash":"f01261ebc8d277cab492bbf8746f88ddffe8ab63f51e3749f7d89a1cc3f1b084","blockNo":7082648,"blockHash":"042b073aae1fac207a9c70f2700fc66749a078ebfb6219915ddf5b05832f9fce","epochNo":330,"epochSlotNo":333702,"slot":57530502,"time":"2022/04/04 18:26:33","addressesInput":["addr1qyh5pfjnee9vf5t5y0vh467l5094u2jkg007lx4hq7pp7e3pyv7l540dqhcyzh7gvmkuuw7xkxd8tf6e0tqxqusz8t9q5ktcmx"],"addressesOutput":["addr1q8mlfjjt44n5v0h7mq3yfd49anyvxxy3aq2kn8ym2d4f3suzzjnpsd5gxccp6ttv2qsep8njnxzavlcprjyvwk93n9dszj8vkv","addr1q8nl3lq4jf8gfn4q0xjk0ewvuywffe3gkf9w392g6x0c6a3pyv7l540dqhcyzh7gvmkuuw7xkxd8tf6e0tqxqusz8t9q5qq3ew"],"fee":249673,"totalOutput":39025315,"tokens":[]},{"hash":"16fb55c2dd917676890a53597288fdc2745db4441fbc0634869370fce96e02f1","blockNo":7082648,"blockHash":"042b073aae1fac207a9c70f2700fc66749a078ebfb6219915ddf5b05832f9fce","epochNo":330,"epochSlotNo":333702,"slot":57530502,"time":"2022/04/04 18:26:33","addressesInput":["addr1w999n67e86jn6xal07pzxtrmqynspgx0fwmcmpua4wc6yzsxpljz3","addr1qys5lumkducz0geh7wj2svpynaaxe6q3qcweexrp8cldtzuzyk5zuhpekzz56c23wy50jkjgul3mkcq87g5jqp7fhfpqxp7cvy"],"addressesOutput":["addr1w999n67e86jn6xal07pzxtrmqynspgx0fwmcmpua4wc6yzsxpljz3","addr1qys5lumkducz0geh7wj2svpynaaxe6q3qcweexrp8cldtzuzyk5zuhpekzz56c23wy50jkjgul3mkcq87g5jqp7fhfpqxp7cvy"],"fee":484171,"totalOutput":30872050,"tokens":[]},{"hash":"516b3325de7376a16c00430ca8021bdfe0a5fac3fcda9cb6bd797d0c8ff21545","blockNo":7082648,"blockHash":"042b073aae1fac207a9c70f2700fc66749a078ebfb6219915ddf5b05832f9fce","epochNo":330,"epochSlotNo":333702,"slot":57530502,"time":"2022/04/04 18:26:33","addressesInput":["addr1w999n67e86jn6xal07pzxtrmqynspgx0fwmcmpua4wc6yzsxpljz3","addr1q8ef4gz3lgrf659llcv4g83ffhtjf9k8lrxjh0hk5gqwxxkdw448wr9mnd0xtrgzsez2uj5ts5x6tsvf4tgwzcuks55qlxdhzr"],"addressesOutput":["addr1w999n67e86jn6xal07pzxtrmqynspgx0fwmcmpua4wc6yzsxpljz3","addr1q8ef4gz3lgrf659llcv4g83ffhtjf9k8lrxjh0hk5gqwxxkdw448wr9mnd0xtrgzsez2uj5ts5x6tsvf4tgwzcuks55qlxdhzr"],"fee":484171,"totalOutput":135360954,"tokens":[]},{"hash":"b11caa60087599706d4ae5ee3b63ccea4c0d9c051d68143c1415a30cea7beb5a","blockNo":7082648,"blockHash":"042b073aae1fac207a9c70f2700fc66749a078ebfb6219915ddf5b05832f9fce","epochNo":330,"epochSlotNo":333702,"slot":57530502,"time":"2022/04/04 18:26:33","addressesInput":["addr1q93rdfhr9kxzxyzhu6stlk5xeucmrq4cg0jvn4vt2767fs9uqqzzgucatn7mg8dghwew30aaeuzmang9tglcxxsvehaq8eh3al"],"addressesOutput":["addr1q93rdfhr9kxzxyzhu6stlk5xeucmrq4cg0jvn4vt2767fs9uqqzzgucatn7mg8dghwew30aaeuzmang9tglcxxsvehaq8eh3al"],"fee":178789,"totalOutput":4064875347,"tokens":[]},{"hash":"d850a9ebfd177f2d96340dc850eb6d76f4efb019521b5ea0a00a3ab0c2c625e5","blockNo":7082648,"blockHash":"042b073aae1fac207a9c70f2700fc66749a078ebfb6219915ddf5b05832f9fce","epochNo":330,"epochSlotNo":333702,"slot":57530502,"time":"2022/04/04 18:26:33","addressesInput":["addr1q93n7tk65as5vzcvg4je3mxmw8p0flv7nsv6t9gpyds9pwdp98979e3c3g4rs60axt5j5ua68msuxskt94t70twresmqkkelvc"],"addressesOutput":["addr1qyrj2p956zt74hq2ltd008ychsuacmwtwehqk5xfq0m9yeanwws88sve2edjsypalx306jtmcp2pp7tvn9ynt9c5anrsn7krs7","addr1q93n7tk65as5vzcvg4je3mxmw8p0flv7nsv6t9gpyds9pwdp98979e3c3g4rs60axt5j5ua68msuxskt94t70twresmqkkelvc"],"fee":181957,"totalOutput":52346512713,"tokens":[]},{"hash":"9ef414d4e423d79ed5f3bfec52fbf2a35ceb1133d85b0aab6b23e37a478d050b","blockNo":7082648,"blockHash":"042b073aae1fac207a9c70f2700fc66749a078ebfb6219915ddf5b05832f9fce","epochNo":330,"epochSlotNo":333702,"slot":57530502,"time":"2022/04/04 18:26:33","addressesInput":["addr1w8aqhs9aaw25jzc95chkqwje7c3ky4r7j60r3fde9zynumg7qn7kc","addr1vxhyh65zj2eyzcfxuctggd24fpa452a8kzksc03u3xer4gcj636te","addr1vx48m24l4dsw3pm0378k7vqygyt22t5lmkrz4h25g6lln8qspm4j4","addr1w9ajju6j56lsupjlcdas2dqwz90dlq8xdrg9yfslrksspfqmvfc4a","addr1w9wqtvzn8yt8jexr5su6y3c4nkl9yhwfw0anvutfz37ymmqnsuy0z","addr1wy6hzff6r2nyup6dlwtxc9zhm76na6q07r45t8lv2089xrga4xn9e","addr1w8usfr3avzl8qh5wm9wcy8uv7cr800ft5vjz5dw3pxeh8fgdp6e6r","addr1w84y5t5l32s9raedcegt64qfa2kseexgjqlqs3qg2akclqsatc9jv","addr1v8n0sqs92w3ekztaz0ym0g95ltptgj092fxjlhd9t3tjc3g8uq4l5","addr1w94tcvd04rvkpa7c6057fq6sfxqcpu7q539gdskvx8jz0zgld4mju","addr1w96sfxpp02q9x0u2s983d2jp28k0evzr4sm22ump368jk0gxwwkpz","addr1w835n68qeax023uperwgwlruk3d8yjl4k98r433nhw5waqgkx8prf","addr1w9xc5279jqxql020jp295d377nqrms826gnhgqxt5g5m9dqlfqf3f","addr1wx524gq72mduxehj6w2tt56fjq5z97d79m6zevu87s6ujxq7x9y9d","addr1wxkajet4zhhuylr6475ykqerll0gl8x8v8kgmnrpxt2vrwq2eh67y","addr1vy3qpx09uscywhppj5vp08hu0ekg9zwmq2ysfq6qyh2mpps865j6t","addr1v8pr9mwnqarw808gtllvmlxvk70hnszrukjeqfstr9t9g5crud8c4","addr1w93lm2nrudtf27lfqpz244mdjff3slqdutlydajpgy6gpjgtu4lv9","addr1wx6hd6gradhx8m7l2sn5w8pp2vuh22glwq65w07wjfqlf7qlh3dvr","addr1w9xnt8ucaje6tevrafvtcc0yzs8d9m3ck67uvmperh29v0ckjalnj","addr1wyk4u2dymyn37qy4ck2t9gmvrez9axw8kjf4hn7d3lvd5ysfpau7r","addr1wxmmuv2aufg48cqx37qmmvfysr4rm43rr4ajac333z7m37guzfn54","addr1w92fpglpvanf795jm76q0nskx0tu6z5jpqph4n8dzvksyfcrtkfwy","addr1w8ssx8c4jgxvze4p8qqtdvqd7exjl3ths6pxycgjsnw66wqshlgar","addr1w8f6tnftjuhccrqrn2akhv37lkrhmzzlfnjw2z7qdwkttdgvm5c57","addr1w8d53566qrlwdgnv2x9rjn98rmlwz7ff58rrrwglwau27dssx37uq","addr1wxgg25t3tk30jqzl2elqz94lzgmr8a9c9m5z902ds5sjh0g7uaj8z"],"addressesOutput":["addr1vy3qpx09uscywhppj5vp08hu0ekg9zwmq2ysfq6qyh2mpps865j6t","addr1v8pr9mwnqarw808gtllvmlxvk70hnszrukjeqfstr9t9g5crud8c4","addr1q8d2eucfuxr9xf37xhtteg8jwt3a7afl37d9dmaw9sccyugjthky0lljdynrew09wqatg7uvx0gnsahp69344h8nsm3snkcfpr","addr1qy5mq27ap2an0j02msukv6a34s9mk6fu7rvvlxyz8dpcmfsl7wn5v6x6kzkg43rjek5h0shprdhax6e9ve900rc7yvjsg8a4c7","addr1q90qjwg3z9axf297v8l3hx4m20z23uljcrpfrt9wcal6umt6h54gvhnnt3lfqg6l3mlc846j69d2u4ne2xyx46a22g8qp02n48","addr1w9xc5279jqxql020jp295d377nqrms826gnhgqxt5g5m9dqlfqf3f","addr1wx524gq72mduxehj6w2tt56fjq5z97d79m6zevu87s6ujxq7x9y9d","addr1w9xnt8ucaje6tevrafvtcc0yzs8d9m3ck67uvmperh29v0ckjalnj","addr1wy6hzff6r2nyup6dlwtxc9zhm76na6q07r45t8lv2089xrga4xn9e","addr1w8ssx8c4jgxvze4p8qqtdvqd7exjl3ths6pxycgjsnw66wqshlgar","addr1w8usfr3avzl8qh5wm9wcy8uv7cr800ft5vjz5dw3pxeh8fgdp6e6r","addr1w9ajju6j56lsupjlcdas2dqwz90dlq8xdrg9yfslrksspfqmvfc4a","addr1wxgg25t3tk30jqzl2elqz94lzgmr8a9c9m5z902ds5sjh0g7uaj8z","addr1wyk4u2dymyn37qy4ck2t9gmvrez9axw8kjf4hn7d3lvd5ysfpau7r","addr1w835n68qeax023uperwgwlruk3d8yjl4k98r433nhw5waqgkx8prf","addr1w8aqhs9aaw25jzc95chkqwje7c3ky4r7j60r3fde9zynumg7qn7kc","addr1w94tcvd04rvkpa7c6057fq6sfxqcpu7q539gdskvx8jz0zgld4mju","addr1wxkajet4zhhuylr6475ykqerll0gl8x8v8kgmnrpxt2vrwq2eh67y","addr1w92fpglpvanf795jm76q0nskx0tu6z5jpqph4n8dzvksyfcrtkfwy","addr1w93lm2nrudtf27lfqpz244mdjff3slqdutlydajpgy6gpjgtu4lv9","addr1w8d53566qrlwdgnv2x9rjn98rmlwz7ff58rrrwglwau27dssx37uq","addr1w9wqtvzn8yt8jexr5su6y3c4nkl9yhwfw0anvutfz37ymmqnsuy0z","addr1w8f6tnftjuhccrqrn2akhv37lkrhmzzlfnjw2z7qdwkttdgvm5c57","addr1wx6hd6gradhx8m7l2sn5w8pp2vuh22glwq65w07wjfqlf7qlh3dvr","addr1w96sfxpp02q9x0u2s983d2jp28k0evzr4sm22ump368jk0gxwwkpz","addr1wxmmuv2aufg48cqx37qmmvfysr4rm43rr4ajac333z7m37guzfn54","addr1w84y5t5l32s9raedcegt64qfa2kseexgjqlqs3qg2akclqsatc9jv"],"fee":533165,"totalOutput":7446308959,"tokens":[]},{"hash":"04489f97c54b30d9c6dd712872073552736a4a5f6228a3de06e8fec40734abbf","blockNo":7082647,"blockHash":"6299269dc8a93176f5a13d46e17f7c733ec1f0f0bacebb0e60dcab0a7927ad7f","epochNo":330,"epochSlotNo":333690,"slot":57530490,"time":"2022/04/04 18:26:21","addressesInput":["addr1q8q92v8nfd3jtxd26a3p85279htpxk6uypytzxf8zrkdjuxkzuq6quyjj5rzca7aj3anak9566atauuqgc3qd76evgys5k0an0","addr1q8jxnmsnv8rrr4sndn3sp4fvrkxwjn442k6nldl0l04a7qwkzuq6quyjj5rzca7aj3anak9566atauuqgc3qd76evgyskplg84"],"addressesOutput":["addr1w9yr0zr530tp9yzrhly8lw5upddu0eym3yh0mjwa0qlr9pgmkzgv0","addr1q8q92v8nfd3jtxd26a3p85279htpxk6uypytzxf8zrkdjuxkzuq6quyjj5rzca7aj3anak9566atauuqgc3qd76evgys5k0an0"],"fee":180681,"totalOutput":32043798,"tokens":[]},{"hash":"4f6b3f692d81fbad77171f1747d7165e678cf99fb33b4d2404e555ea1f7fdc7b","blockNo":7082647,"blockHash":"6299269dc8a93176f5a13d46e17f7c733ec1f0f0bacebb0e60dcab0a7927ad7f","epochNo":330,"epochSlotNo":333690,"slot":57530490,"time":"2022/04/04 18:26:21","addressesInput":["addr1qy36wkyvmycuxwun8n9h9s3uw8w8u9qk2vvtj9mpk5hqltspsyxuxj8am3aaxxhxzhsqkvt25zaf67583xvtxdfu5upqumvv60","addr1qy36wkyvmycuxwun8n9h9s3uw8w8u9qk2vvtj9mpk5hqltspsyxuxj8am3aaxxhxzhsqkvt25zaf67583xvtxdfu5upqumvv60"],"addressesOutput":["addr1wxaptpmxcxawvr3pzlhgnpmzz3ql43n2tc8mn3av5kx0yzs09tqh8","addr1qy36wkyvmycuxwun8n9h9s3uw8w8u9qk2vvtj9mpk5hqltspsyxuxj8am3aaxxhxzhsqkvt25zaf67583xvtxdfu5upqumvv60"],"fee":212881,"totalOutput":249822317,"tokens":[]}],"totalItems":36646009,"totalPages":1832301,"currentPage":0}