{"data":[{"blockNo":6852396,"slotNo":52663966,"epochNo":319,"epochSlotNo":219166,"hash":"8c785aba09b28bd8d1f765de4ff73590a99fc46719a633d54ba682bc9c683b9f","time":"2022/02/07 10:37:37","txCount":60,"totalFees":16896596,"totalOutput":818442953854,"slotLeader":"41c8a40ab0b78d727655d165f946722728dfb01df2fcc2e148b3c98d"},{"blockNo":6852395,"slotNo":52663939,"epochNo":319,"epochSlotNo":219139,"hash":"0c5b4e17d7c8e60ecef9e25cc93774159cffb65952b82dee6aa0b2b1eb617cee","time":"2022/02/07 10:37:10","txCount":21,"totalFees":10083742,"totalOutput":12546984181,"slotLeader":"09d372205e474b745eeedd87aa86295cfdef9b85991ad640101756bc"},{"blockNo":6852394,"slotNo":52663929,"epochNo":319,"epochSlotNo":219129,"hash":"ea2e51dec601d1a1725175e0e53ff66d29f86310ad9fe286c7bb5b2a90f4e8c5","time":"2022/02/07 10:37:00","txCount":10,"totalFees":8287008,"totalOutput":13300851225191,"slotLeader":"74b26596160232737854ec18cde45feff530cac762bade758bd27372"},{"blockNo":6852393,"slotNo":52663924,"epochNo":319,"epochSlotNo":219124,"hash":"b9d612375e0414e473da82bc8d90cb6d91728a7f17f688f507d35c28162c2571","time":"2022/02/07 10:36:55","txCount":38,"totalFees":13558918,"totalOutput":4611707918,"slotLeader":"41c8a40ab0b78d727655d165f946722728dfb01df2fcc2e148b3c98d"},{"blockNo":6852392,"slotNo":52663888,"epochNo":319,"epochSlotNo":219088,"hash":"63dd614f72f03dc7439881c54e7c6fccec30d89176edbffe5feba67706570cd5","time":"2022/02/07 10:36:19","txCount":41,"totalFees":14190924,"totalOutput":10052540690005,"slotLeader":"6658713e2cbfa4e347691a0435953f5acbe9f03d330e94caa3a0cfb4"},{"blockNo":6852391,"slotNo":52663872,"epochNo":319,"epochSlotNo":219072,"hash":"b3815f46836082555af32b26f51fe26dbf78e5c46610d89b26e3827205cabd8f","time":"2022/02/07 10:36:03","txCount":24,"totalFees":10084492,"totalOutput":16415828633,"slotLeader":"ffb3fe58689ae0d70d6fb939a842ee78ecfa10eab561274327e78b7b"},{"blockNo":6852390,"slotNo":52663870,"epochNo":319,"epochSlotNo":219070,"hash":"593fa3baea3af9bf90d6c01ee4c50e5026c31096ede5a76966ec2dcfa6b30ba9","time":"2022/02/07 10:36:01","txCount":30,"totalFees":12416932,"totalOutput":1103229921809,"slotLeader":"970e9a7ae4677b152c27a0eba3db996b372de094d24fc2974768f3da"},{"blockNo":6852389,"slotNo":52663847,"epochNo":319,"epochSlotNo":219047,"hash":"2187bdccf9df5840bdf9c171284ad1f2bdda52c165bc268e5a6cea14d1f7c822","time":"2022/02/07 10:35:38","txCount":13,"totalFees":9183026,"totalOutput":5181298144455,"slotLeader":"105a6816701a47f2fd43239a9340606640913012811485543bb05968"},{"blockNo":6852388,"slotNo":52663823,"epochNo":319,"epochSlotNo":219023,"hash":"cf8c11c4f23f4c20b56d54ac044de5509345225d6edc3264e4192bbe3a50bcd8","time":"2022/02/07 10:35:14","txCount":24,"totalFees":10258991,"totalOutput":1916426317499,"slotLeader":"d7513627b3d50819c1c84687bfd15f02f00cd11c37d7935a67540089"},{"blockNo":6852387,"slotNo":52663814,"epochNo":319,"epochSlotNo":219014,"hash":"9ec8bfbfce51109f09dee1bb99908e149770a6727143a5c1425fe1218eb21870","time":"2022/02/07 10:35:05","txCount":15,"totalFees":7657771,"totalOutput":4007033490,"slotLeader":"d679d78bbfefe7e03e05e7a42f9088075af0f15f501a631c67e64037"},{"blockNo":6852386,"slotNo":52663766,"epochNo":319,"epochSlotNo":218966,"hash":"cd261037c4b9aa78d58d3975b1a652e38257e9f9b92c7ac016b0b3b80ded6d6f","time":"2022/02/07 10:34:17","txCount":22,"totalFees":11099542,"totalOutput":1329329860521,"slotLeader":"e98e298624ce6efe34635318bdd5d634bed732bb238989d3d1b6fc9e"},{"blockNo":6852385,"slotNo":52663720,"epochNo":319,"epochSlotNo":218920,"hash":"0af3ec20242ce9e7eb30ef3e3a11e57692f6668a983af7c0a92c93c604c1e4db","time":"2022/02/07 10:33:31","txCount":34,"totalFees":12035780,"totalOutput":405715483381,"slotLeader":"7f6c103302f96390d478a170fe80938b76fccd8a23490e3b6ddebcf7"},{"blockNo":6852384,"slotNo":52663694,"epochNo":319,"epochSlotNo":218894,"hash":"16b30c13f621588c4c0195e1e3a29b25382b2553cf11cf8250b8b86745ff3802","time":"2022/02/07 10:33:05","txCount":23,"totalFees":10031261,"totalOutput":260750301074,"slotLeader":"40ff71258d2c73da9e2a5ee3abb9be256e745e7f74c31eb8d4be5299"},{"blockNo":6852383,"slotNo":52663680,"epochNo":319,"epochSlotNo":218880,"hash":"fff5ba1de1bd6e2bcc1c31bfb400c6b12ee499ad33d433c57b3e2476141567d8","time":"2022/02/07 10:32:51","txCount":42,"totalFees":13305867,"totalOutput":1347614281645,"slotLeader":"6feba2d1c9ff8b6f216259fc8824e8803202f882e33a07b6a235c5ac"},{"blockNo":6852382,"slotNo":52663640,"epochNo":319,"epochSlotNo":218840,"hash":"6e95f21a2df5b770652c471504e6004624dea7d08c599178b2017f552bb3a1f9","time":"2022/02/07 10:32:11","txCount":27,"totalFees":11482294,"totalOutput":2251725455990,"slotLeader":"4deb0ba979fe7af5a5a4896ef68cdae029ad116542555cb422f46348"},{"blockNo":6852381,"slotNo":52663635,"epochNo":319,"epochSlotNo":218835,"hash":"fd058b43eaa965f5fb3d29c65ce470f2a167434f2f979fb2836cdd0f56ac05f2","time":"2022/02/07 10:32:06","txCount":19,"totalFees":9843794,"totalOutput":6060858977,"slotLeader":"a531c8c1fa9423ffa6eff3262c87ab4f18b8c290f71df6aca310a947"},{"blockNo":6852380,"slotNo":52663633,"epochNo":319,"epochSlotNo":218833,"hash":"5eab45c37f6cc481aea596b380a50b39700d685d7ec3eab4f5ae1d440fc8d543","time":"2022/02/07 10:32:04","txCount":20,"totalFees":10215788,"totalOutput":333322335581,"slotLeader":"2cf87fadec7130c7e41910492073ae4dbe65ca462c1fdc3d2a56d015"},{"blockNo":6852379,"slotNo":52663614,"epochNo":319,"epochSlotNo":218814,"hash":"5688b608cbc1d54151ae12bbca378b37456c895b637110e0af5c579e8e2230b2","time":"2022/02/07 10:31:45","txCount":12,"totalFees":7496371,"totalOutput":10506609300,"slotLeader":"849cdde779a0a0faaa4276dac342f762bd6c84d6cbf637a92a20bb88"},{"blockNo":6852378,"slotNo":52663563,"epochNo":319,"epochSlotNo":218763,"hash":"3d5e8cac7c46986bcadfba49cdcf658b58106998fd8d8fa693e5eb5f523c7922","time":"2022/02/07 10:30:54","txCount":13,"totalFees":8373406,"totalOutput":12542111873,"slotLeader":"1e174471d30ea762a6bf6ce8b1c615549f3dd066cf48ca6be6e7698b"},{"blockNo":6852377,"slotNo":52663521,"epochNo":319,"epochSlotNo":218721,"hash":"0df758e50eea0696a901f882a384678addf42673cabd9b5136662026598ba961","time":"2022/02/07 10:30:12","txCount":32,"totalFees":12393691,"totalOutput":63714643610,"slotLeader":"d248ded3c18e0e80d07a46f00a2d808075b989ccb1a0e40a76e5cee1"}],"totalItems":6852572,"totalPages":342629,"currentPage":0}