{"data":[{"txId":56934334,"txHash":"4b8bffc3d50c977b7656e9118281fb91fcea723cab4ab1bdcb8c58acc6ae0268","txTime":"2022/12/09 01:09:27","block":8115447,"epoch":380,"slotNo":78981876,"epochSlotNo":185076,"stakeKey":"stake1u8jskrpmq6eu7k9fh02hhnsy6q84c7r4g9u66zx3t4736ksxypeph"},{"txId":56934191,"txHash":"5d176e01c0f134492a587053f1a41fe71a8575aeab38aac25a17b4faa27797e6","txTime":"2022/12/09 01:06:02","block":8115433,"epoch":380,"slotNo":78981671,"epochSlotNo":184871,"stakeKey":"stake1uywhwraqyvzsunfply5u7v8nrka3ryzn64xpvwmsc2357hca9he9z"},{"txId":56933977,"txHash":"e7774d4b1511565769070825529c6f801d9b439a8010c6260f5f960e84b85680","txTime":"2022/12/09 01:00:54","block":8115417,"epoch":380,"slotNo":78981363,"epochSlotNo":184563,"stakeKey":"stake1u9y6p2ewsk46fw586c8rw7nhyc6j05cu7wh2qjl66d3splsea4uvp"},{"txId":56933368,"txHash":"96df2cd58a0dca772f85398c6f1354018e918060e2eef8e35b88194f86151c88","txTime":"2022/12/09 00:45:29","block":8115371,"epoch":380,"slotNo":78980438,"epochSlotNo":183638,"stakeKey":"stake1uym37892kzddjewktv5jf6u7h2jx036z2vttr29a5gdvzccqdhtsh"},{"txId":56933313,"txHash":"a8af20ddc6eaf5f7e6e2b59466dda4cacab6e233fa2c8a85080769594bfb0a3a","txTime":"2022/12/09 00:44:02","block":8115368,"epoch":380,"slotNo":78980351,"epochSlotNo":183551,"stakeKey":"stake1ux0cqele5egcvch5t053frqm6y0lgny2qahlhazllkmj7aq6mhyv7"},{"txId":56933099,"txHash":"63e086f69a20aca2addd8e331875765dc557c6ef188820e97f1d471fc0f3ef8f","txTime":"2022/12/09 00:38:13","block":8115357,"epoch":380,"slotNo":78980002,"epochSlotNo":183202,"stakeKey":"stake1u9q630up86lmnwumq7taphw7mrlhggnac5cq087n8duqunggldfd4"},{"txId":56933052,"txHash":"f26bdf9076a94925a8af96b66432cfc5130823e0a55e93fbef0169d87d580c2c","txTime":"2022/12/09 00:37:09","block":8115352,"epoch":380,"slotNo":78979938,"epochSlotNo":183138,"stakeKey":"stake1uy9w29s32lk2nk4w9a2pk0hgxyxnlwzqe7wzgdmraavprjcjkxp2d"},{"txId":56932440,"txHash":"8114d33df061e2c88ab7fd83215a20e59221e77de4eda3774e0febacde028c11","txTime":"2022/12/09 00:23:33","block":8115301,"epoch":380,"slotNo":78979122,"epochSlotNo":182322,"stakeKey":"stake1u9q780lah0yfu8arlu4psjssfftt2v2se025dzzfk8ccsnqz8gz5d"},{"txId":56932273,"txHash":"74d4f07cd469867054fd021f73f3082909f87705d94d16de9e930cd09c352145","txTime":"2022/12/09 00:19:04","block":8115287,"epoch":380,"slotNo":78978853,"epochSlotNo":182053,"stakeKey":"stake1u939d4qz94ja2q89ry0xlh3gf6w6ztgtvq8vrks3u762kgcp0sur9"},{"txId":56932197,"txHash":"e8c42a84abc9bc2479f30c56d08090d57732fa0305f8d440148a9e307bebfded","txTime":"2022/12/09 00:17:23","block":8115280,"epoch":380,"slotNo":78978752,"epochSlotNo":181952,"stakeKey":"stake1uy6gg0s2ac4c9t85qx3lfas905u6f7l03rzueqk04slq7lssmyp8d"},{"txId":56932091,"txHash":"a0ea1bd1111fdc8e5bced7e9e15d01c49eb9a6da6050530bd32f882c6da3b722","txTime":"2022/12/09 00:15:31","block":8115275,"epoch":380,"slotNo":78978640,"epochSlotNo":181840,"stakeKey":"stake1u8uymljt8tnzddw73tfd5s6u7yhjtsuu3rgunfudlvazskgacs8zg"},{"txId":56932039,"txHash":"bd098f9153b2dcff4f9354f6903c57df38ebb894bc2b8ac5cc3cb2614f409261","txTime":"2022/12/09 00:14:48","block":8115272,"epoch":380,"slotNo":78978597,"epochSlotNo":181797,"stakeKey":"stake1uxhj5d2xmk2n3nm7mfdccnh58u7d8py0cnk3ecm0l5jzqxsf7jadx"},{"txId":56932027,"txHash":"dd7a54630c4d98bc984ea669b306cfee0732e49287f9852baae037d468566d5c","txTime":"2022/12/09 00:14:05","block":8115271,"epoch":380,"slotNo":78978554,"epochSlotNo":181754,"stakeKey":"stake1uxmrlusrs2hvy3ylu6xydlslp2ewzrlx2a5rrav3ca439wsqkyn00"},{"txId":56931896,"txHash":"b2712391492a98032d48c83e4f416e7bc5b5b58495011da678d33d3167be6015","txTime":"2022/12/09 00:11:38","block":8115263,"epoch":380,"slotNo":78978407,"epochSlotNo":181607,"stakeKey":"stake1uy5kd6pd6tt4xtn3xt7edgan5yulejcxygk88dzvr0quuzgecxy23"},{"txId":56931885,"txHash":"91e95a85f3502637c3dc832e096a6104759e80fb822be3e80739c1c88a7241e5","txTime":"2022/12/09 00:11:38","block":8115263,"epoch":380,"slotNo":78978407,"epochSlotNo":181607,"stakeKey":"stake1uxv7uxs8cv6jy5750rkr5l7d2lhqhwgwx84rt04xrw4qr8qgqck7l"},{"txId":56931781,"txHash":"f1998b147cc19bd7f54cb143770222f85ad01d975311df3098ed7c3be7ae133c","txTime":"2022/12/09 00:09:02","block":8115254,"epoch":380,"slotNo":78978251,"epochSlotNo":181451,"stakeKey":"stake1u86xe87cnlaww9ptyxlwe0pc8gg8rqru6khhzqzzza985esgg95wk"},{"txId":56931668,"txHash":"a7839aa9f0e761bd269711e99b5f01032ad74507296dd4cc31964580afdcccf3","txTime":"2022/12/09 00:07:22","block":8115250,"epoch":380,"slotNo":78978151,"epochSlotNo":181351,"stakeKey":"stake1uyzlrf88qprfgcdep5nw2gvdvswvvx6ftgz3rfh8njj99gc225cec"},{"txId":56931641,"txHash":"1238354d7db7510224ee92322aff914e704ff360ede7f717eea86920aa1271de","txTime":"2022/12/09 00:06:35","block":8115249,"epoch":380,"slotNo":78978104,"epochSlotNo":181304,"stakeKey":"stake1uxhqkecxpmqwc2r8jnd5g7npvj5y5lre4ecf3kms3gpfgkcr4dfrk"},{"txId":56931018,"txHash":"a7302714dc264852f1891474cda4ffd3403c915f89c2a7c7784738c648ecf566","txTime":"2022/12/08 23:53:01","block":8115209,"epoch":380,"slotNo":78977290,"epochSlotNo":180490,"stakeKey":"stake1uxv7uxs8cv6jy5750rkr5l7d2lhqhwgwx84rt04xrw4qr8qgqck7l"},{"txId":56930929,"txHash":"5f6f5b4e138808a76cfd98ae852a0bdfd17292bc50a1475e4d7b2822faafcb3b","txTime":"2022/12/08 23:51:12","block":8115200,"epoch":380,"slotNo":78977181,"epochSlotNo":180381,"stakeKey":"stake1uyh4sfr7qm360y4rvj0ejgaxjdx4dmc4p26mh8g4mv58legj73a36"}],"totalItems":1618094,"totalPages":80905,"currentPage":0}