{"data":[{"txId":59824162,"txHash":"cae8cf86c7b7cbf2faa5d5c3d2f66a739c4662df43657265c29d5ad69e1e0cb9","txTime":"2023/01/16 07:44:56","block":8276546,"epoch":388,"slotNo":82288805,"epochSlotNo":36005,"stakeKey":"stake1u96xwexve5xz0p6m6amanhf4ccaset4cr4cmm9f6zwq8xrgluszmt"},{"txId":59824037,"txHash":"fb36b673d78bfaeaa30c7a016e05c517a999b3e9454e1855fbddfbcfdbc3962a","txTime":"2023/01/16 07:41:10","block":8276536,"epoch":388,"slotNo":82288579,"epochSlotNo":35779,"stakeKey":"stake1uysmwlseyz0ssnq6e0p67u2vfhanu0ndwc5eh0uwjfc005q5238m8"},{"txId":59823946,"txHash":"bad5a76b107f8d08a53bab04b44b7e231809030422bb18c9ad57b681375c57c7","txTime":"2023/01/16 07:38:56","block":8276527,"epoch":388,"slotNo":82288445,"epochSlotNo":35645,"stakeKey":"stake1uym5tegq7qels4la9xs6tw8qlx4zkfy097wu9unvusdzfxc6q5uxs"},{"txId":59823921,"txHash":"f3d4f8c7cc0cccdc411d4948ccc15ecc527b2b2dd8f35d4efe879c588c8c549d","txTime":"2023/01/16 07:38:34","block":8276526,"epoch":388,"slotNo":82288423,"epochSlotNo":35623,"stakeKey":"stake1u9j7s8gch3q44qpywsst2vmla6f27kml9lmfua5n8rdc7psdwwayr"},{"txId":59823898,"txHash":"71319c7ec5299dd406e29c46cedba1b48a7b45bfda15574f5c077939ee0ccf8c","txTime":"2023/01/16 07:38:02","block":8276524,"epoch":388,"slotNo":82288391,"epochSlotNo":35591,"stakeKey":"stake1u844m9364v0wql000yfcchjafcl4swc6ts6p5pdlhj4m29cnhf4wr"},{"txId":59823853,"txHash":"3b6773d73a9513a25a5e5edd57051011aaa256ddded6a1ddd225f39c5cc0a144","txTime":"2023/01/16 07:36:38","block":8276517,"epoch":388,"slotNo":82288307,"epochSlotNo":35507,"stakeKey":"stake1u9us6l0rdqy92mg3x24mr4k7h27pyv4e48utll0kwgt3yvcqlplz9"},{"txId":59823775,"txHash":"ee1b858f990af71413af7a902aac5be3b6a7346486af86d796cafafa4c50d4d2","txTime":"2023/01/16 07:34:37","block":8276508,"epoch":388,"slotNo":82288186,"epochSlotNo":35386,"stakeKey":"stake1uyga9vmavr5a2akqm068zp2j9aegw0nqr4l3y4vd3z03cjguep2hp"},{"txId":59823747,"txHash":"914c24bd4cbf1343e302a7664225463350e4617ebf4fa1270bfb93f85e65bb95","txTime":"2023/01/16 07:34:16","block":8276507,"epoch":388,"slotNo":82288165,"epochSlotNo":35365,"stakeKey":"stake1u96syetvkkzhwvjh2pt2t4v0thh8q2jryahlly8j9u46m3cpmx3mr"},{"txId":59823683,"txHash":"c2e1305eb08dbaefc26e51676f76e29ce662cd3b775e65a59131d729807692e4","txTime":"2023/01/16 07:32:59","block":8276503,"epoch":388,"slotNo":82288088,"epochSlotNo":35288,"stakeKey":"stake1uyxczekv5a68xqekvpks5076yy0ea6976u0l2uuw5255a7sc8hnwn"},{"txId":59823674,"txHash":"3c94dda152c8b24a478d0c3a68cfdb5306b6d85a14cffceae60577778c4aec2a","txTime":"2023/01/16 07:32:59","block":8276503,"epoch":388,"slotNo":82288088,"epochSlotNo":35288,"stakeKey":"stake1uxsnxun7j7hxqhztsdeyscv3a5gun7s63e45rtgd7urjsnc5a3une"},{"txId":59823581,"txHash":"18efebb5158ac254c807dd2b072feba16897ff9879a2cec002b379c96f86c87c","txTime":"2023/01/16 07:30:01","block":8276495,"epoch":388,"slotNo":82287910,"epochSlotNo":35110,"stakeKey":"stake1uywkaurzevxallulctzquy79st9edxh62jd5vm890tks38gazn0te"},{"txId":59823500,"txHash":"6f8a03b195145c277464e52795edd404c4b49e0ed400b8686737600e94e1f676","txTime":"2023/01/16 07:28:19","block":8276491,"epoch":388,"slotNo":82287808,"epochSlotNo":35008,"stakeKey":"stake1uyg73uzsc9h5axnt0kz4y56d93qpxr0vr8aymh6wy6z00xg3gu6e7"},{"txId":59823456,"txHash":"5ba7661a530669d58afc09a9fb3dcb6aeb43539dddd461c812617599d53cb995","txTime":"2023/01/16 07:26:48","block":8276490,"epoch":388,"slotNo":82287717,"epochSlotNo":34917,"stakeKey":"stake1u95e92zyezf8eaertl9myg4fssaeedu60ehamd0tn3uds6grd0cl9"},{"txId":59823436,"txHash":"945eb2529c9e6b0035afd13f3cb9ebfa9d53f957cee91b63a8ec7c84d1ab2daf","txTime":"2023/01/16 07:26:48","block":8276490,"epoch":388,"slotNo":82287717,"epochSlotNo":34917,"stakeKey":"stake1ux7066hwxphjflwtvlpd8j23ugp6lnprqclzh3e9snsk35cgsgwwt"},{"txId":59823433,"txHash":"981204534832178fca610a2673b1e4ca70704cc0dfbfe5ec21d3a30d5f04b6c7","txTime":"2023/01/16 07:26:48","block":8276490,"epoch":388,"slotNo":82287717,"epochSlotNo":34917,"stakeKey":"stake1u8zdyswwgp6px52ud5qa0tsz6unqas2sr0tupk3jaelk82s0zq9m4"},{"txId":59823174,"txHash":"4c52aaca3c5e994cfda0daea25611e841c28dfd88c4a5749456c113e5c69f402","txTime":"2023/01/16 07:19:53","block":8276474,"epoch":388,"slotNo":82287302,"epochSlotNo":34502,"stakeKey":"stake1uy7nz0ytn69uqkt6hcpg0y32syce48ge7c8amxxf7ddvccs7mgtuw"},{"txId":59822976,"txHash":"e4cfebdd343ac0992f6b6d5766c803dd8a170d8cda9008d8864b6718e27edbfb","txTime":"2023/01/16 07:16:12","block":8276457,"epoch":388,"slotNo":82287081,"epochSlotNo":34281,"stakeKey":"stake1uy8n08qwyxdwjauul036ps2qeaz4tz057za7hjaucv3vr9gz3v52y"},{"txId":59822841,"txHash":"da4faf159daef83ecaf0d7fda8f3334f70773ef6ccbe21ac215cd5faca818ba8","txTime":"2023/01/16 07:13:42","block":8276447,"epoch":388,"slotNo":82286931,"epochSlotNo":34131,"stakeKey":"stake1ux7c6j7vr5hz5n82mwa69an6rczf860zcsmsg4g98gaclzgeu3vw9"},{"txId":59822531,"txHash":"5421325425585b451166941547de46fa5abb06b8c5e68065324de0629b4d7e84","txTime":"2023/01/16 07:06:48","block":8276433,"epoch":388,"slotNo":82286517,"epochSlotNo":33717,"stakeKey":"stake1uyjm5ad62e6ynlfshw8fvnmw02hd69lwc5l05u79ktw04ksxt6shf"},{"txId":59822521,"txHash":"edce70a8f54c20295504e901ca24f18f32cdb3c4239dd62cc10bb80f3d430a86","txTime":"2023/01/16 07:06:48","block":8276433,"epoch":388,"slotNo":82286517,"epochSlotNo":33717,"stakeKey":"stake1uxsdshrd8hdf4qd3met3ggj9zf6a6u6mqv60dmcc6dsxrcqt8me6a"}],"totalItems":1646861,"totalPages":82344,"currentPage":0}