{"data":[{"txId":56306321,"txHash":"636f617f6e0e13f720db43a6d8e3bc11f034d81d303c20570ed4f20491537ddb","txTime":"2022/11/29 22:04:20","block":8076883,"epoch":378,"slotNo":78193169,"epochSlotNo":260369,"stakeKey":"stake1u9tpk0sg2xwenmpm8tjnd4kx8rzx02euxfl2p57474xc30sce0qzv"},{"txId":56306089,"txHash":"b7eb28a9a31e6b5f16fafbdacc2ec8e71129078d164a720937d45e5085bb1813","txTime":"2022/11/29 22:00:51","block":8076876,"epoch":378,"slotNo":78192960,"epochSlotNo":260160,"stakeKey":"stake1u8gs2epak6nha4zqca7y0ax03d7t34hvtp3z6xzxlwuthwcrqwq8h"},{"txId":56305924,"txHash":"346d7b694a9163e92f1e7289622e8c98537fd7409dd91d229370f01dec9ef402","txTime":"2022/11/29 21:55:46","block":8076867,"epoch":378,"slotNo":78192655,"epochSlotNo":259855,"stakeKey":"stake1uxjewecwcf4l788946exvz9d6hqphz0yvh206kf2aw9tpmsdpayh5"},{"txId":56305884,"txHash":"d8085fdb06f4a32c9ba9539eb23e37fcfa7ec6bd787f2d25b679ce8764c6d3e0","txTime":"2022/11/29 21:54:03","block":8076863,"epoch":378,"slotNo":78192552,"epochSlotNo":259752,"stakeKey":"stake1uyxzyxdy2sjm6he2ylwsphgke8rfxrpauduywx2nkjxetnc43xnsg"},{"txId":56305848,"txHash":"0580f0364d5cdc312f1108006e98efe838ac6ebc824342a5f6a3152d2341ff2f","txTime":"2022/11/29 21:53:36","block":8076862,"epoch":378,"slotNo":78192525,"epochSlotNo":259725,"stakeKey":"stake1u8gffhcmm35rapyf5cr2wmdxta39tn37kcfw6673g7a487qa44mcv"},{"txId":56305725,"txHash":"ffdc70aa4f6e317e57a165b1eb0432d392b7d23a7bfa40ae6e1d4dcdf6a25bea","txTime":"2022/11/29 21:50:47","block":8076856,"epoch":378,"slotNo":78192356,"epochSlotNo":259556,"stakeKey":"stake1u9kg6vvx6ql0qsa5d9azsdx0xnywsfazs9sthl9d5lsxk9qdvleup"},{"txId":56305550,"txHash":"e056cf7b43814146a52705ac36c337299b3f7426f3ef23b717b7db80b9d48004","txTime":"2022/11/29 21:47:40","block":8076845,"epoch":378,"slotNo":78192169,"epochSlotNo":259369,"stakeKey":"stake1u82jr6t42ctj0mx6muu787rnzudt363c4mj7cpzkcr3tm2qjhn78c"},{"txId":56305070,"txHash":"f58f8a113ed684762d2c8afb70b4de3708d0bbdc2213898b67b561df507c27a8","txTime":"2022/11/29 21:37:15","block":8076818,"epoch":378,"slotNo":78191544,"epochSlotNo":258744,"stakeKey":"stake1u9gfmj9ajrxmaxtwh8ydpshmxm9xp9uu2a7yxcd9t6h7qeqvlgxm6"},{"txId":56304414,"txHash":"6805942e110463485c82c2c137bf13e86867dcd095e375485f8b7392621d63ed","txTime":"2022/11/29 21:24:44","block":8076784,"epoch":378,"slotNo":78190793,"epochSlotNo":257993,"stakeKey":"stake1uxrtj9tn399umzx2lhhr4p95429ee4r7zrkkzp8lql5dn4qaf2fsn"},{"txId":56304198,"txHash":"da22af7ff56cb6f74dcdcdb4fff5e5ff19a6a437b0f0caf5be3cfb1bdc5fb82a","txTime":"2022/11/29 21:21:22","block":8076773,"epoch":378,"slotNo":78190591,"epochSlotNo":257791,"stakeKey":"stake1uxnhhc228f9fsv2ew2swtzwavtk67a7zy84ztp8d8fqrytqhnnd3k"},{"txId":56303628,"txHash":"14d46fcd5ab5f3b3651596918afd5cd73b47338006273f089112f0a10596cf71","txTime":"2022/11/29 21:09:54","block":8076739,"epoch":378,"slotNo":78189903,"epochSlotNo":257103,"stakeKey":"stake1u8vfdnpawj2qvwjs49wzpzjw6s0m9q3n6vs90pxnhle7j6c08n4vh"},{"txId":56303237,"txHash":"d2d461d2d01b3450a8fe2fb5a2102a1ebb12a0cceb47820b2c58d2ca88bfd788","txTime":"2022/11/29 21:02:28","block":8076709,"epoch":378,"slotNo":78189457,"epochSlotNo":256657,"stakeKey":"stake1u9gyzumljtlwa9dc5wjgc73jz84rx9smutky9z4gftujdlqugxrse"},{"txId":56302551,"txHash":"bdf5ba19b6af888183f94971416486fca1ff955d37b67f88bbe513bdb47998dc","txTime":"2022/11/29 20:49:36","block":8076666,"epoch":378,"slotNo":78188685,"epochSlotNo":255885,"stakeKey":"stake1ux4umsa582jehsc65ce3uhmzt4lwt93gpgn372epyu6asccdzuxkh"},{"txId":56301563,"txHash":"da66af0d152750f520e5bd266d702d47c0e01d2854d20a64d9f8975c9d319a3a","txTime":"2022/11/29 20:26:54","block":8076600,"epoch":378,"slotNo":78187323,"epochSlotNo":254523,"stakeKey":"stake1ux070tsrhvjypthwe6uypnfnqwmgtaqq8wfa0tzsuc3e8ps58v3ft"},{"txId":56300965,"txHash":"ccfd4a38ee72e2ec517aadb6e529d76e8fa134ff537f8efdeb52ce7d7c3df722","txTime":"2022/11/29 20:14:43","block":8076563,"epoch":378,"slotNo":78186592,"epochSlotNo":253792,"stakeKey":"stake1u8aw4xwda8aysaumx84ckvp50lj0jznhkhwv5uaexl5v32c6mfd5x"},{"txId":56300505,"txHash":"56a38950187e8c07868a2dd2aa33a225f54574ca4865def70fb51247a96e7b72","txTime":"2022/11/29 20:04:43","block":8076528,"epoch":378,"slotNo":78185992,"epochSlotNo":253192,"stakeKey":"stake1uxf3x5cxhgxr2g6z683e7rzpdfm8qwgy9a26m6thz8vl9hsy030t0"},{"txId":56300294,"txHash":"a353653db01633b12621835f8168611d51f3f92981a8138ef857a4fbbd43c528","txTime":"2022/11/29 20:00:23","block":8076521,"epoch":378,"slotNo":78185732,"epochSlotNo":252932,"stakeKey":"stake1ux2f6w5qsu2ydzkd5qj2qq38y95a9xvd0l8t0etjnndemdcd7fhnk"},{"txId":56300078,"txHash":"d1775c4eceed914f3387976272ccca901b7444907e693ad3e6bc71d5d261dd17","txTime":"2022/11/29 19:56:04","block":8076510,"epoch":378,"slotNo":78185473,"epochSlotNo":252673,"stakeKey":"stake1uxzp3fjdyevgm90gh0zffrptf6yp0k2zvppgcthhswdkwlg8pje5t"},{"txId":56300067,"txHash":"9833be1ceb6bedabb283587722b14b85d7da2e34b7b202e4df2e2fadc176bb5f","txTime":"2022/11/29 19:56:04","block":8076510,"epoch":378,"slotNo":78185473,"epochSlotNo":252673,"stakeKey":"stake1uysw4pdfg5hna5l0hwh85wxjs4znpa2ryrrvehnjxwl7y0ghsa9td"},{"txId":56299332,"txHash":"343d3909575bbd2241c1acbaf176f5c716764cd1a374c6a427cbcf4e9cc061fb","txTime":"2022/11/29 19:39:38","block":8076474,"epoch":378,"slotNo":78184487,"epochSlotNo":251687,"stakeKey":"stake1uytaayjc96gcrvr58lsuhquphmg04medl9vmzq9dv25zr6gyw9zf7"}],"totalItems":333897,"totalPages":16695,"currentPage":0}