{"data":[{"blockNo":8109459,"slotNo":78861153,"epochNo":380,"epochSlotNo":64353,"hash":"8978b7fd5dbdae290aed70bacc0d6af439ed24b38367f24112c8948250930602","time":"2022/12/07 15:37:24","txCount":8,"totalFees":2699026,"totalOutput":420788195,"slotLeader":"485903de80a59c1156ca235ec715ed434ddc0e394d1e75885976df62"},{"blockNo":8109458,"slotNo":78861146,"epochNo":380,"epochSlotNo":64346,"hash":"fd0f24483c001f628a06a13052ac3f5e19944a1fb1c38187b339c6747263fbae","time":"2022/12/07 15:37:17","txCount":14,"totalFees":4758669,"totalOutput":65648665145,"slotLeader":"d248ded3c18e0e80d07a46f00a2d808075b989ccb1a0e40a76e5cee1"},{"blockNo":8109457,"slotNo":78861128,"epochNo":380,"epochSlotNo":64328,"hash":"73e99599603b22ec226cc73c5ebd9928a63a0caa52d53f44f13d00d88e54ef3d","time":"2022/12/07 15:36:59","txCount":6,"totalFees":1475094,"totalOutput":61920617754,"slotLeader":"61d2598400211dcda6878511eb6d84719e5c502c7aa63d500f7a57ce"},{"blockNo":8109456,"slotNo":78861120,"epochNo":380,"epochSlotNo":64320,"hash":"0440e6c220100f39011aa84f62f96fb04da0ef27e99803e9ff25c826dcaa6de5","time":"2022/12/07 15:36:51","txCount":21,"totalFees":6971541,"totalOutput":121563418308,"slotLeader":"bd8286b7f327621459728c0cd1f7a731eaf7b2fd0df1c6b09b2932a5"},{"blockNo":8109455,"slotNo":78861112,"epochNo":380,"epochSlotNo":64312,"hash":"b4487fc1854d2534b2d5e285e436fb15213ccf6ecaa63a622e54d814c06ff50c","time":"2022/12/07 15:36:43","txCount":8,"totalFees":2734680,"totalOutput":4740183070,"slotLeader":"cb3e1428aa4d240ca528edfd992d6509b47335849a91f0d70e5b0ffd"},{"blockNo":8109454,"slotNo":78861095,"epochNo":380,"epochSlotNo":64295,"hash":"e5211261c5ae6f0e7193c6d46f6a34e0f09bb8b0a316fae516b7c509d9a84a94","time":"2022/12/07 15:36:26","txCount":1,"totalFees":172849,"totalOutput":377327091,"slotLeader":"79c4d4fe108f480fee98f307adac12571df2959651f833b595141cd1"},{"blockNo":8109453,"slotNo":78861093,"epochNo":380,"epochSlotNo":64293,"hash":"ebe5c7a858cd62a82421c13d8198cdf6a3c25a1fe652d66b62f31549f2161ba4","time":"2022/12/07 15:36:24","txCount":3,"totalFees":906361,"totalOutput":1411887950,"slotLeader":"483b0d11a79c52d088f93e8a0930999c1bb17f2b04b26c7167d9bb0e"},{"blockNo":8109452,"slotNo":78861091,"epochNo":380,"epochSlotNo":64291,"hash":"dd8861689d4cfc1585e0e36d29e44e09cb50c3fbe93daabfbe21b377e0939bbc","time":"2022/12/07 15:36:22","txCount":15,"totalFees":5807308,"totalOutput":413091972541,"slotLeader":"7a990e7ee931f9d548a977d5cf2194f26f7e2f1158752e0bb94a073f"},{"blockNo":8109451,"slotNo":78861079,"epochNo":380,"epochSlotNo":64279,"hash":"f093753a81fd1c21c9511c69b31d17872909f40eb2c6934cc207a9fe3e4676a9","time":"2022/12/07 15:36:10","txCount":14,"totalFees":4786851,"totalOutput":8456002004,"slotLeader":"30432a0b85b6f80b3e9cd356d8b76b9793f5530c91050c1688da4922"},{"blockNo":8109450,"slotNo":78861069,"epochNo":380,"epochSlotNo":64269,"hash":"feb28e3edcc90be09f8050aefaf126ca92665e1af91a33a360be0575f8b1bc9d","time":"2022/12/07 15:36:00","txCount":14,"totalFees":5555788,"totalOutput":18531874747224,"slotLeader":"5b60373e718a3647ec57f610b9942f91286748ddeaa0ad226acb927b"}],"totalItems":3136,"totalPages":314,"currentPage":0}