{"data":[{"blockNo":8139021,"slotNo":79464050,"epochNo":381,"epochSlotNo":235250,"hash":"e674bd77467f8714e52745ed790848063dc9bf4541128e1f6d0f853af1558f81","time":"2022/12/14 15:05:41","txCount":5,"totalFees":1116034,"totalOutput":3366754442,"slotLeader":"cb11e3e5013a120ee55e8d99bdb7395366bd3164d3da1737300a2b7e"},{"blockNo":8139020,"slotNo":79464044,"epochNo":381,"epochSlotNo":235244,"hash":"d3e001385cc9e243415a316df8658af844819dfbe3b4bbed3c44ac4f13d0a9e2","time":"2022/12/14 15:05:35","txCount":43,"totalFees":13950547,"totalOutput":839784985634,"slotLeader":"03e5b1d3dc6da6101ed402d0ba310d900a110c59627472eb4e34ce24"},{"blockNo":8139019,"slotNo":79464030,"epochNo":381,"epochSlotNo":235230,"hash":"9814c5220ec3eb2bbfc311a67bec79fae64ab5d27daebd27ec31627c0e0d7a96","time":"2022/12/14 15:05:21","txCount":46,"totalFees":14994628,"totalOutput":18836705783290,"slotLeader":"365a5a9c59aa3971d96511a5bce24c4598849d0d3c2d61217dc0b488"},{"blockNo":8139018,"slotNo":79463986,"epochNo":381,"epochSlotNo":235186,"hash":"6528430a1c88ca8872cccdf3787357f35b5596b6fa3dfa6964a8d8ef6a4d436c","time":"2022/12/14 15:04:37","txCount":51,"totalFees":15402585,"totalOutput":3121104983551,"slotLeader":"fc7c663438fd4b61c5d0c064128467a550fd4e721fe6d5f237f5b416"},{"blockNo":8139017,"slotNo":79463911,"epochNo":381,"epochSlotNo":235111,"hash":"322b153a28dd5b60952fc569ac0a1f42a62e099116de930fde903fda0fa83cb2","time":"2022/12/14 15:03:22","txCount":4,"totalFees":762456,"totalOutput":224513063879,"slotLeader":"3c68076a8b81226f6d7da352dda415db00299701624b6cf71d7cc086"},{"blockNo":8139016,"slotNo":79463905,"epochNo":381,"epochSlotNo":235105,"hash":"845c51df6d770e9e4f9b81d86d6f0a838ea2f631c283d4f8dd599e38880ffec0","time":"2022/12/14 15:03:16","txCount":7,"totalFees":2276710,"totalOutput":2448844897,"slotLeader":"c1d314a78a43f3d5baa9c2e4105015384211416f220af4a24a8ea3ee"},{"blockNo":8139015,"slotNo":79463898,"epochNo":381,"epochSlotNo":235098,"hash":"e5bf455462ea60c50edba2f3d16fda9fb61a0058b6a09a6027dbb9850a06937c","time":"2022/12/14 15:03:09","txCount":40,"totalFees":11242061,"totalOutput":9511106468111,"slotLeader":"ac5ba151fae6889e25021acc723b0e34655828bf3328b6f1180e1d65"},{"blockNo":8139014,"slotNo":79463856,"epochNo":381,"epochSlotNo":235056,"hash":"b7f91dc759cdf04f643fae58cc174f39939d55370b5774cc243853830a4a18ae","time":"2022/12/14 15:02:27","txCount":16,"totalFees":5047519,"totalOutput":199283731026,"slotLeader":"ccf9fa7bd7cc72f851effb0e229f7ab163ae670250c38b18dbdd8f8f"},{"blockNo":8139013,"slotNo":79463835,"epochNo":381,"epochSlotNo":235035,"hash":"42a5af23823ff5f67b114ac38dfbfcf3174616f77d0fcfa3fd1687e91f0ae037","time":"2022/12/14 15:02:06","txCount":7,"totalFees":1640974,"totalOutput":16254534532,"slotLeader":"d765dee553a7e041d525b1782a10eb0a5e52e96ed55ed173d8bb82a7"},{"blockNo":8139012,"slotNo":79463832,"epochNo":381,"epochSlotNo":235032,"hash":"854b9fa34c33a17f554baa71abdf1feb019e3f66c98d8d02fc9fd5566db33c00","time":"2022/12/14 15:02:03","txCount":31,"totalFees":10438620,"totalOutput":18325369875570,"slotLeader":"7d45120fc9e82f8b69d886057d80630b721e8f033cb8e3f26621d7bd"},{"blockNo":8139011,"slotNo":79463793,"epochNo":381,"epochSlotNo":234993,"hash":"b81757d1d5bbd8d99fa8591b0ff3a1b32ee0e9f5944740c11c3fe6e173d78a98","time":"2022/12/14 15:01:24","txCount":0,"totalFees":0,"totalOutput":0,"slotLeader":"921dc3fc11681ad9ccde08c9bc23041808f4b7e8ba231be557db8ab5"},{"blockNo":8139010,"slotNo":79463792,"epochNo":381,"epochSlotNo":234992,"hash":"662b7a915243123935fdf1325d4163ae21fc681cf43aeea1c85fbb6a521411b8","time":"2022/12/14 15:01:23","txCount":20,"totalFees":5283583,"totalOutput":145379481566,"slotLeader":"90ac71b92a4c29f7a9bbde83ba2e6e2c17b69e41db204a55e7a338ae"},{"blockNo":8139009,"slotNo":79463772,"epochNo":381,"epochSlotNo":234972,"hash":"92f7ee8fea72010c62a4b364e4a3841ea09b7abc9b9cd2b0f420ad1e1e128806","time":"2022/12/14 15:01:03","txCount":50,"totalFees":15086583,"totalOutput":52631396143229,"slotLeader":"a4dcead63ac83d18e481683cc9fff0980837256eac6a6b303b56f0ab"},{"blockNo":8139008,"slotNo":79463727,"epochNo":381,"epochSlotNo":234927,"hash":"d268304c0467c5fc4617a5d3d5c238613324d643fae9b3e91486c335bda3af91","time":"2022/12/14 15:00:18","txCount":0,"totalFees":0,"totalOutput":0,"slotLeader":"052100e65f3fa89fe1e2d3ae521446b2013b3c91ef5c7961e1b1a1ac"},{"blockNo":8139007,"slotNo":79463726,"epochNo":381,"epochSlotNo":234926,"hash":"006c9d46530e345d7af3d5977dafa3dfcd9d54d1ff436f2e5ee2dabe1b7a4dd1","time":"2022/12/14 15:00:17","txCount":14,"totalFees":4172320,"totalOutput":605058196996,"slotLeader":"4a2aa209e00f2926bd0d8a286592bbdea4d35a593c05d41efe29e642"},{"blockNo":8139006,"slotNo":79463704,"epochNo":381,"epochSlotNo":234904,"hash":"eb99e4c30a818e66adc3fe377e6d3008881f966f5659654e1d228d78c8666a5a","time":"2022/12/14 14:59:55","txCount":14,"totalFees":3868865,"totalOutput":10285400830,"slotLeader":"57e0985d50391676b06b2ecf640d03d59735cd0c9a99d6e9e6f805eb"},{"blockNo":8139005,"slotNo":79463700,"epochNo":381,"epochSlotNo":234900,"hash":"98ad09275d22e465a1593120a9e4a9da444a2e55f03bf9372751f11befa3cbe8","time":"2022/12/14 14:59:51","txCount":48,"totalFees":13969329,"totalOutput":5408341811355,"slotLeader":"b619d366a0acc2e5a8e0f8e373d6eb926a01811f05a381aaa7a8564c"},{"blockNo":8139004,"slotNo":79463633,"epochNo":381,"epochSlotNo":234833,"hash":"6fef8f7a6d28a74f72af206090f8f5738be2e755eb6bb60db9d85ea4194b4268","time":"2022/12/14 14:58:44","txCount":18,"totalFees":3945592,"totalOutput":856570227278,"slotLeader":"22cfa3b8612c146a0737c974dcfcbb8cddd86f3a511cf531ce8d91a1"},{"blockNo":8139003,"slotNo":79463609,"epochNo":381,"epochSlotNo":234809,"hash":"f651512421a21a82bd91ef58c9a830d8f4765f3438c2f98845fce15d510dd872","time":"2022/12/14 14:58:20","txCount":9,"totalFees":3762841,"totalOutput":4973733574919,"slotLeader":"37e0b7c9c58753b14707dd34267ebbd50917e9b80d4f76da07e0e1b8"},{"blockNo":8139002,"slotNo":79463599,"epochNo":381,"epochSlotNo":234799,"hash":"22bc42d7df5f6c4c67c81e22c31199d836e343dd298d8f8be01bc61c44fd7d6c","time":"2022/12/14 14:58:10","txCount":46,"totalFees":13388601,"totalOutput":1202619393219,"slotLeader":"926b65d00c21aa1fb19e44faa2293e342578ed6a80aca4a551191a70"}],"totalItems":8139197,"totalPages":406960,"currentPage":0}