{"data":[{"txId":57552333,"txHash":"77137ca4b12168fe03d70da564796f740d33ca2e7d34684bd6308d72c754b62c","txTime":"2022/12/16 12:12:06","block":8146894,"epoch":381,"slotNo":79626435,"epochSlotNo":397635,"stakeKey":"stake1u9fzc4pqsecz0q2cmtkpwk3ll0ahcz9l47lwaktsnatrtls047mmv"},{"txId":57552216,"txHash":"985f20c480db46d1c38b9967828b7bba938407d24133c6d65a502ccdf2721a7b","txTime":"2022/12/16 12:09:53","block":8146884,"epoch":381,"slotNo":79626302,"epochSlotNo":397502,"stakeKey":"stake1u8yvv25g56gcs5xgrje99t2nmsrs6n88m8klvgq6mcz6f2c6hlekf"},{"txId":57551109,"txHash":"139fefc2be275df3e03f89cf132e90c26cd73863618a6da22d3a5ddeae6afc36","txTime":"2022/12/16 11:44:46","block":8146838,"epoch":381,"slotNo":79624795,"epochSlotNo":395995,"stakeKey":"stake1u9upa84y2q0hjvussyuz7v9fvvg2hykqzq06f36s652lwycj8787m"},{"txId":57550275,"txHash":"d281f824b0ca31b8a0c17d3d02d1715a23746b80ca260abc817a2d01c37dd20e","txTime":"2022/12/16 11:21:54","block":8146788,"epoch":381,"slotNo":79623423,"epochSlotNo":394623,"stakeKey":"stake1uyvc4waecc2m3q2dm4f2vtws3xgssyyf44xz0fn7ghgzxzcxgc0ya"},{"txId":57550217,"txHash":"1aa7475deaf0cd2c52ac1176393e82f1f95d2ccdca991d0a67934ad7ee340ad2","txTime":"2022/12/16 11:20:07","block":8146784,"epoch":381,"slotNo":79623316,"epochSlotNo":394516,"stakeKey":"stake1uy4m589gev0erwuar4n30lr3zrna7qhdppcy4qyzfme5yvctewhf2"},{"txId":57549888,"txHash":"a0b062b097b7fb7ffeba82d18eab92012812ac9a3b92da11f25dcb6f7087d1e7","txTime":"2022/12/16 11:12:04","block":8146761,"epoch":381,"slotNo":79622833,"epochSlotNo":394033,"stakeKey":"stake1u8c9dje3a84kcknj3qxtnx92fwmcv78qcsk2nq06kqduragq3yz22"},{"txId":57549640,"txHash":"a98cc57cc3ba4870cab49c067144c053bacfb2def2b340516854a56bf3f1759b","txTime":"2022/12/16 11:05:57","block":8146735,"epoch":381,"slotNo":79622466,"epochSlotNo":393666,"stakeKey":"stake1ux4xulxksv6q3kqw6wkuttn040jctgcthvznkaqapxngptspkjdj2"},{"txId":57548427,"txHash":"a59621ef0884cc6a98a2c9750556354c74990f3613c72d441ad26e60b1ad7cd7","txTime":"2022/12/16 10:34:18","block":8146654,"epoch":381,"slotNo":79620567,"epochSlotNo":391767,"stakeKey":"stake1uxj7qn9erecma9h0zeyg4xca6pkz625gkq5c07r6ln50qvq8wde0r"},{"txId":57548277,"txHash":"7ab4b7810c6d4254beb869b0f060022ac68d81f0a5872fc372358d8899edccd3","txTime":"2022/12/16 10:30:46","block":8146644,"epoch":381,"slotNo":79620355,"epochSlotNo":391555,"stakeKey":"stake1uxqu60el7r6u3wntlya454y63n763hc8yahz7zd3uq4juscfw2td8"},{"txId":57548224,"txHash":"fd55b6a2855d2bfcf113e35de9a500895a8c19c0c652188e39dee2866501757d","txTime":"2022/12/16 10:29:47","block":8146640,"epoch":381,"slotNo":79620296,"epochSlotNo":391496,"stakeKey":"stake1u8hs4r3r9n2fxca93x2zr6l4y2vpdv0qz9a5jztgwp48eaqy4jrvt"},{"txId":57548218,"txHash":"585898926817f950642c51d73344e7564ffef9ac2287fe2d675c64f0c1c0ebaa","txTime":"2022/12/16 10:29:47","block":8146640,"epoch":381,"slotNo":79620296,"epochSlotNo":391496,"stakeKey":"stake1uxckykdqdauvl7at82290c26nqys0tgcpluhg3yln2fx9rspg5ryv"},{"txId":57548144,"txHash":"445e3fbd216e168984a2b79247aedc0e20024cb801bf7bb9b86ae353263ddbc2","txTime":"2022/12/16 10:28:02","block":8146631,"epoch":381,"slotNo":79620191,"epochSlotNo":391391,"stakeKey":"stake1uxmwxugwfhtlhdvf0ar993m2dm7zkllkuxslc7f32t3085cav3qhp"},{"txId":57548045,"txHash":"7a88ec5429e69937022e7a921dfdf712b068b940b0525df068c005cdaaeb8e5b","txTime":"2022/12/16 10:25:49","block":8146623,"epoch":381,"slotNo":79620058,"epochSlotNo":391258,"stakeKey":"stake1uyg6dhcykz7kytdwp4thtfx9g97c9nkmaxssqwpu2tk6dlgdc7cz3"},{"txId":57547969,"txHash":"755d84be983ecf646ccc00b7bda95a3317539f32ba48926e98da6df15372a7d5","txTime":"2022/12/16 10:24:00","block":8146618,"epoch":381,"slotNo":79619949,"epochSlotNo":391149,"stakeKey":"stake1ux0gl2e60yesum69t50wp0srgcpjupdcjjhzue39h0zfxwgr9xy7m"},{"txId":57547937,"txHash":"89237ca540d66678071d674e94ca2a88220e04ad88c8dca583d06dd3756f66fd","txTime":"2022/12/16 10:23:15","block":8146616,"epoch":381,"slotNo":79619904,"epochSlotNo":391104,"stakeKey":"stake1uyqe0qh2a9dylda0qr7v6mxpzaacekklctd8e25rpehk2yqhg43e4"},{"txId":57547935,"txHash":"d66656d6c81e73e39fefe618134380d60c8e1f585075f46ae59a0da005faed91","txTime":"2022/12/16 10:23:15","block":8146616,"epoch":381,"slotNo":79619904,"epochSlotNo":391104,"stakeKey":"stake1u95v6lw889suuglfawsu8dvxqnw9y8mvg7h97mjwrd29qvsm9z52c"},{"txId":57547924,"txHash":"d35709d5f0c8ccf3cafddcbb88e89372522e00d5951314fa083da51de053de60","txTime":"2022/12/16 10:23:15","block":8146616,"epoch":381,"slotNo":79619904,"epochSlotNo":391104,"stakeKey":"stake1uxk07ms0e48wj30akdfc4faafyxv25ukx7vkgfw73ncq4dqkwqsuj"},{"txId":57547748,"txHash":"8567e2fdcf1eee43df5d8ecefbf5792c2de0601c5a8c1ec027677529ad0df744","txTime":"2022/12/16 10:18:01","block":8146605,"epoch":381,"slotNo":79619590,"epochSlotNo":390790,"stakeKey":"stake1uy2halrcw6sqnmjzdmjreue5c59748vfnx23jmt0cmmxx6qvg3j0z"},{"txId":57547563,"txHash":"833957358587a4d23cbdc87e740637ad5b73597a1157867f76272aaf704a8525","txTime":"2022/12/16 10:14:04","block":8146593,"epoch":381,"slotNo":79619353,"epochSlotNo":390553,"stakeKey":"stake1u95tu7rdzaclvj7rfh2cqw3epwsl3xrsm39cz3qhnkfgaagjeg7ut"},{"txId":57547182,"txHash":"98da273b0b483cfdb15908fe369683b32f3bcdcaf82cce9b90f5de5ac9f3a413","txTime":"2022/12/16 10:04:20","block":8146559,"epoch":381,"slotNo":79618769,"epochSlotNo":389969,"stakeKey":"stake1u8n4l8t957cqz8890jv8g47hqx5t8t4nyuytacxl0x8zjacmfdgdk"}],"totalItems":337303,"totalPages":16866,"currentPage":0}