{"data":[{"hash":"c93f4381146ef5671c92d1defb4a4b1d1a0208956e2e36aecfb8572470812c86","blockNo":7953622,"blockHash":"94319449fb3c284ac36b4c05257684333541ae1a9ec9f36e260e05598fa82fb6","epochNo":372,"epochSlotNo":300438,"slot":75641238,"time":"2022/10/31 09:12:09","addressesInput":["addr1q8txqhdshvqx7pyjkpxqmna7dwuh5zu2shwr60v2p4gax34zvwtndvhhdvp5ux33mqsjze74ay0gzkn6tsm9jgk2suesdzed8p","addr1zxgx3far7qygq0k6epa0zcvcvrevmn0ypsnfsue94nsn3tvpw288a4x0xf8pxgcntelxmyclq83s0ykeehchz2wtspks905plm"],"addressesOutput":["addr1q8txqhdshvqx7pyjkpxqmna7dwuh5zu2shwr60v2p4gax34zvwtndvhhdvp5ux33mqsjze74ay0gzkn6tsm9jgk2suesdzed8p","addr1q8txqhdshvqx7pyjkpxqmna7dwuh5zu2shwr60v2p4gax34zvwtndvhhdvp5ux33mqsjze74ay0gzkn6tsm9jgk2suesdzed8p"],"fee":267694,"totalOutput":5510563,"tokens":[]},{"hash":"662d7cc2a7c6bddf0278869b5e737e1712404c256ede1d9ef464d6895bc62029","blockNo":7953622,"blockHash":"94319449fb3c284ac36b4c05257684333541ae1a9ec9f36e260e05598fa82fb6","epochNo":372,"epochSlotNo":300438,"slot":75641238,"time":"2022/10/31 09:12:09","addressesInput":["addr1qxpxrcx80ag46weu9ehq5klzg4pnezn5aae2catunze6322ple36jlf55mm6xur37ngw997rjk95ldazjvx2xmc5709qnna902","addr1q9yj2djcyk4qlv4mcmxrk846c29hxqw6n4hhjxrueehgrz6ple36jlf55mm6xur37ngw997rjk95ldazjvx2xmc5709qe0je4y","addr1q9yj2djcyk4qlv4mcmxrk846c29hxqw6n4hhjxrueehgrz6ple36jlf55mm6xur37ngw997rjk95ldazjvx2xmc5709qe0je4y","addr1qyrwjd8r3flw25nf94p8mgf57psaeyl3fscf3w522ewec3jple36jlf55mm6xur37ngw997rjk95ldazjvx2xmc5709quz0d8a","addr1q9yj2djcyk4qlv4mcmxrk846c29hxqw6n4hhjxrueehgrz6ple36jlf55mm6xur37ngw997rjk95ldazjvx2xmc5709qe0je4y","addr1qyzp44r6k2v6splkfmnhc0gezta3z7xmtmjktkcvgsdrrejple36jlf55mm6xur37ngw997rjk95ldazjvx2xmc5709qx9qam4","addr1qxccy9h7r82u7zw9qts66s0cn8vfk9zemzyl02tegtnpq42ple36jlf55mm6xur37ngw997rjk95ldazjvx2xmc5709qnqe9cc","addr1q9yj2djcyk4qlv4mcmxrk846c29hxqw6n4hhjxrueehgrz6ple36jlf55mm6xur37ngw997rjk95ldazjvx2xmc5709qe0je4y"],"addressesOutput":["addr1qx7ryxl47an2st42m5mdflx0aepnejjkjckzsvruk88kcfhnmq44f03kr5866dmw3x6x0xy7htr5wmg3l3tpaq3yl3tqg808kx","addr1q9c9cssfj8fxmtkq3vgludvnq92pdhec4lclyuzsckw8tvzple36jlf55mm6xur37ngw997rjk95ldazjvx2xmc5709q4lzulr"],"fee":217025,"totalOutput":86147529,"tokens":[]},{"hash":"d617d2e8d44b36b89d57ad8fa7d476e9c9795bba6981fbc960ce7f7948f6fb85","blockNo":7953622,"blockHash":"94319449fb3c284ac36b4c05257684333541ae1a9ec9f36e260e05598fa82fb6","epochNo":372,"epochSlotNo":300438,"slot":75641238,"time":"2022/10/31 09:12:09","addressesInput":["addr1q8ww79v2crq0kfve6ksqe7darae79y52uf8fk0pd708enpv4npdqlnxy6awglp7rtaqgnzl4uz60avhtnqadtgthu5wq55ygd9"],"addressesOutput":["addr1q8ypvmtauhehtk6krp9zyjpa5wfgj7sxaz37cd72gzrfnhsl8vnzdvcjwpl56w3a249k5z7x9gwcrlh458mun37yr0fsze36qy","addr1q8ww79v2crq0kfve6ksqe7darae79y52uf8fk0pd708enpv4npdqlnxy6awglp7rtaqgnzl4uz60avhtnqadtgthu5wq55ygd9"],"fee":169329,"totalOutput":842028148097,"tokens":[]},{"hash":"a8c47711a697535ef917fa26faa928c92321cfc21754d2076fbe0bb105e449ea","blockNo":7953622,"blockHash":"94319449fb3c284ac36b4c05257684333541ae1a9ec9f36e260e05598fa82fb6","epochNo":372,"epochSlotNo":300438,"slot":75641238,"time":"2022/10/31 09:12:09","addressesInput":["addr1q973haxq0ah5x93clt8lc8catz2taele95c34ulnurx4qgvnnekuepjvp6w799tawm7q68h44weejn43ku85ae8hu8tq3rq9sw","addr1q973haxq0ah5x93clt8lc8catz2taele95c34ulnurx4qgvnnekuepjvp6w799tawm7q68h44weejn43ku85ae8hu8tq3rq9sw"],"addressesOutput":["addr1q99cdraha3dmucp2zthvdmkr0g4avhkelt24hsjt2d9rmp0rd8lpusq94k6jkvpy752j988ak49m628y42yq73075wnqkk6p2w","addr1q973haxq0ah5x93clt8lc8catz2taele95c34ulnurx4qgvnnekuepjvp6w799tawm7q68h44weejn43ku85ae8hu8tq3rq9sw"],"fee":172145,"totalOutput":42159257,"tokens":[]},{"hash":"3aecd891cf71ddbf68ffe3f30233f3c855ce0a312b5af4859668d6963cb04d69","blockNo":7953621,"blockHash":"7b694ffa5006f8686e8a02df75a88a1a8d6ecfccaae11b67ce891a17c072fdfd","epochNo":372,"epochSlotNo":300436,"slot":75641236,"time":"2022/10/31 09:12:07","addressesInput":["addr1zxgx3far7qygq0k6epa0zcvcvrevmn0ypsnfsue94nsn3tvpw288a4x0xf8pxgcntelxmyclq83s0ykeehchz2wtspks905plm","addr1qxk8wflncf3xdalyg8eu2katp3e0jfe096hf7krlz26gc7pwgefky8zavl57cve77jy5zeykcp8dmmjfwps70fscljfqadv5xh"],"addressesOutput":["addr1qxk8wflncf3xdalyg8eu2katp3e0jfe096hf7krlz26gc7pwgefky8zavl57cve77jy5zeykcp8dmmjfwps70fscljfqadv5xh","addr1qxk8wflncf3xdalyg8eu2katp3e0jfe096hf7krlz26gc7pwgefky8zavl57cve77jy5zeykcp8dmmjfwps70fscljfqadv5xh"],"fee":263984,"totalOutput":6328824,"tokens":[]},{"hash":"632022450c32685ccd7c65dac4780aa65a7a689c7922e8f7a8ad4697fe35b329","blockNo":7953621,"blockHash":"7b694ffa5006f8686e8a02df75a88a1a8d6ecfccaae11b67ce891a17c072fdfd","epochNo":372,"epochSlotNo":300436,"slot":75641236,"time":"2022/10/31 09:12:07","addressesInput":["addr1qxuxmayt3k3kge6vet72na64nsufrjeyklk7a2fsccjz7ytatu399y3syvp3d7lt42ja6y6cytcpk36u93en4xjtevwsewwk6u","addr1qxuxmayt3k3kge6vet72na64nsufrjeyklk7a2fsccjz7ytatu399y3syvp3d7lt42ja6y6cytcpk36u93en4xjtevwsewwk6u"],"addressesOutput":["addr1v89w4j93c75dfh99qg5lhzvqx82984gh7r2ylh7pv8zzg4cxs67jj","addr1qxuxmayt3k3kge6vet72na64nsufrjeyklk7a2fsccjz7ytatu399y3syvp3d7lt42ja6y6cytcpk36u93en4xjtevwsewwk6u"],"fee":168669,"totalOutput":641309454,"tokens":[]},{"hash":"73f29100fffefc0f0eca0f9dd6a31158ce51aa6cebd07db0ce61ee278c4b4fa0","blockNo":7953619,"blockHash":"e89959ec85d8ad59d76a767b86ae41211f9182d9949ed9efe561be39924b83af","epochNo":372,"epochSlotNo":300433,"slot":75641233,"time":"2022/10/31 09:12:04","addressesInput":["addr1v8ujg8vpknvk28fd39pxjcrcr3mzygqxc2t9t36jx6wsjvc64clp2"],"addressesOutput":["addr1v90sl2ymczgehl9ygtcxmj4c4cyrtmtmtak6uqhg49rlkuq5x7d9f","addr1q85xpge7dvpu2v5nndhdpqvz33jdl88l3mct7dsnh9tdn3smagm8qj0tuv9whqxg3k95eqdnfcmahgtj5l7lmm87nkyqsd5q43"],"fee":200455,"totalOutput":24799545,"tokens":[]},{"hash":"ff6a5c825922d794756fae998e59330e938be349498a414d342f024798901f5c","blockNo":7953618,"blockHash":"4e36f9d4855f9ef56d5c117b76167f4b6c99f5ed2961148d5ec78531f7af72b7","epochNo":372,"epochSlotNo":300431,"slot":75641231,"time":"2022/10/31 09:12:02","addressesInput":["addr1zxgx3far7qygq0k6epa0zcvcvrevmn0ypsnfsue94nsn3tvpw288a4x0xf8pxgcntelxmyclq83s0ykeehchz2wtspks905plm","addr1q8tzt2fz0guenm0py02dyva2pea4cjlhx6z5ekds7fczvar9esg5flh4pleu04egfcu84avp39dxch3u20h2sfkgfdfq5v4euk"],"addressesOutput":["addr1zxgx3far7qygq0k6epa0zcvcvrevmn0ypsnfsue94nsn3tvpw288a4x0xf8pxgcntelxmyclq83s0ykeehchz2wtspks905plm","addr1q8tzt2fz0guenm0py02dyva2pea4cjlhx6z5ekds7fczvar9esg5flh4pleu04egfcu84avp39dxch3u20h2sfkgfdfq5v4euk"],"fee":297398,"totalOutput":6021462,"tokens":[]},{"hash":"63caab62fb728d9750a6fba532bff05d8197946192a43cccc5dc73ab72df079e","blockNo":7953618,"blockHash":"4e36f9d4855f9ef56d5c117b76167f4b6c99f5ed2961148d5ec78531f7af72b7","epochNo":372,"epochSlotNo":300431,"slot":75641231,"time":"2022/10/31 09:12:02","addressesInput":["addr1zxj47sy4qxlktqzmkrw8dahe46gtv8seakrshsqz26qnvzypw288a4x0xf8pxgcntelxmyclq83s0ykeehchz2wtspksr3q9nx","addr1q9e2deuxnjxlc49mfk5783d2puseexfwf7mnxy99m63u9qkwj6cafy6dcemsrw5889p4y93fcvpdjey902cn5vevw2dqfpt9ry"],"addressesOutput":["addr1q9e2deuxnjxlc49mfk5783d2puseexfwf7mnxy99m63u9qkwj6cafy6dcemsrw5889p4y93fcvpdjey902cn5vevw2dqfpt9ry","addr1q9e2deuxnjxlc49mfk5783d2puseexfwf7mnxy99m63u9qkwj6cafy6dcemsrw5889p4y93fcvpdjey902cn5vevw2dqfpt9ry"],"fee":517415,"totalOutput":4471946,"tokens":[]},{"hash":"f21e66108dd771513d344f9553786ec65ddbe9de5f96639b8c8c3112fa142419","blockNo":7953618,"blockHash":"4e36f9d4855f9ef56d5c117b76167f4b6c99f5ed2961148d5ec78531f7af72b7","epochNo":372,"epochSlotNo":300431,"slot":75641231,"time":"2022/10/31 09:12:02","addressesInput":["addr1vyj37la3r7z0s9jnaedhdggd6206xmk8w9a2le5ffyxt0eqgecgvn","addr1wxaptpmxcxawvr3pzlhgnpmzz3ql43n2tc8mn3av5kx0yzs09tqh8","addr1w9qzpelu9hn45pefc0xr4ac4kdxeswq7pndul2vuj59u8tqaxdznu","addr1vyj37la3r7z0s9jnaedhdggd6206xmk8w9a2le5ffyxt0eqgecgvn"],"addressesOutput":["addr1w9qzpelu9hn45pefc0xr4ac4kdxeswq7pndul2vuj59u8tqaxdznu","addr1w9jx45flh83z6wuqypyash54mszwmdj8r64fydafxtfc6jgrw4rm3","addr1qygjj6zwnqknf7pj3g3ekmtts9555rsqqah43s5dj4w7kzwzecckhualllqcu0qmtghe0af36un5vqmdl0hzdwaqp66s7e0k3k","addr1vyj37la3r7z0s9jnaedhdggd6206xmk8w9a2le5ffyxt0eqgecgvn","addr1vyj37la3r7z0s9jnaedhdggd6206xmk8w9a2le5ffyxt0eqgecgvn"],"fee":1171871,"totalOutput":117441588705,"tokens":[]},{"hash":"96b62b832ef8eb413f86b726a576b93ababcc7eda98c1a7dc0a19cb743b7e012","blockNo":7953617,"blockHash":"28b93a98329b99b6a39c23d81945258bb93176595e77dcdbdd06ea0329b6f7e9","epochNo":372,"epochSlotNo":300426,"slot":75641226,"time":"2022/10/31 09:11:57","addressesInput":["addr1qygjj6zwnqknf7pj3g3ekmtts9555rsqqah43s5dj4w7kzwzecckhualllqcu0qmtghe0af36un5vqmdl0hzdwaqp66s7e0k3k"],"addressesOutput":["addr1wxaptpmxcxawvr3pzlhgnpmzz3ql43n2tc8mn3av5kx0yzs09tqh8","addr1qygjj6zwnqknf7pj3g3ekmtts9555rsqqah43s5dj4w7kzwzecckhualllqcu0qmtghe0af36un5vqmdl0hzdwaqp66s7e0k3k"],"fee":180725,"totalOutput":99162690,"tokens":[]},{"hash":"894bb33b032754ff9c4bd4a64c6ae68c22d187c2e20a26ce2be6f9b2bb1349ff","blockNo":7953617,"blockHash":"28b93a98329b99b6a39c23d81945258bb93176595e77dcdbdd06ea0329b6f7e9","epochNo":372,"epochSlotNo":300426,"slot":75641226,"time":"2022/10/31 09:11:57","addressesInput":["addr1q8k0qzrszzc2x937qz0lvshhgdfj5480z8kptwnsyzxn2cz6nhschzsz4vpr4j0t74xtnez0f9fkxv590kxtan6ycw9spt52ha"],"addressesOutput":["addr1qxfhsl0dvwth0wdgk3d0nc8mssynmwclel35qc3mumty4x66nhschzsz4vpr4j0t74xtnez0f9fkxv590kxtan6ycw9s6tnatd"],"fee":175357,"totalOutput":2627824643,"tokens":[]},{"hash":"2c6d449c8f00990f4917356f19474bd8a891cd30d5a1512185f67aece7368f17","blockNo":7953617,"blockHash":"28b93a98329b99b6a39c23d81945258bb93176595e77dcdbdd06ea0329b6f7e9","epochNo":372,"epochSlotNo":300426,"slot":75641226,"time":"2022/10/31 09:11:57","addressesInput":["addr1q8nqs9npcp8en639nfsrmmmhmmr27gpfasuqznh9dc8x6ceeuye9wyw7tvg808a2clej5s8j6vsem5zq4ly67c5sw4gqq4kayr","addr1q8nqs9npcp8en639nfsrmmmhmmr27gpfasuqznh9dc8x6ceeuye9wyw7tvg808a2clej5s8j6vsem5zq4ly67c5sw4gqq4kayr","addr1q8nqs9npcp8en639nfsrmmmhmmr27gpfasuqznh9dc8x6ceeuye9wyw7tvg808a2clej5s8j6vsem5zq4ly67c5sw4gqq4kayr"],"addressesOutput":["addr1qyg0yu7eqhzwm44nzajswmw8kmtntyyzajd27zj2atr4z86d4ym7lrxgj2552hqnaxhrrz9radz86a3rjljezfrsd5pql56xkr","addr1qyadquvt78c6n7e99ewemcgu76fwx4j48q4avcqj05ggrjeeuye9wyw7tvg808a2clej5s8j6vsem5zq4ly67c5sw4gq29r5t8"],"fee":194849,"totalOutput":22312798,"tokens":[]},{"hash":"c92ea85f9532340749bf8cddc188bbd71ec5411de431726c663966d24457d696","blockNo":7953617,"blockHash":"28b93a98329b99b6a39c23d81945258bb93176595e77dcdbdd06ea0329b6f7e9","epochNo":372,"epochSlotNo":300426,"slot":75641226,"time":"2022/10/31 09:11:57","addressesInput":["addr1qxu4htdeyyh8vquaeqkh9gksyvsx8m75c22nq2ccp0d8ljaetwkmjgfwwcpemjpdw23dqgeqv0hafs54xq43sz760l9sc5k9tm","addr1qxu4htdeyyh8vquaeqkh9gksyvsx8m75c22nq2ccp0d8ljaetwkmjgfwwcpemjpdw23dqgeqv0hafs54xq43sz760l9sc5k9tm"],"addressesOutput":["addr1qxu4htdeyyh8vquaeqkh9gksyvsx8m75c22nq2ccp0d8ljaetwkmjgfwwcpemjpdw23dqgeqv0hafs54xq43sz760l9sc5k9tm","addr1qxu4htdeyyh8vquaeqkh9gksyvsx8m75c22nq2ccp0d8ljaetwkmjgfwwcpemjpdw23dqgeqv0hafs54xq43sz760l9sc5k9tm"],"fee":230910,"totalOutput":1226881173,"tokens":[]},{"hash":"89c9d5151340e692366475b8c1133a499be70762ab2358875e0dbfd08051c201","blockNo":7953617,"blockHash":"28b93a98329b99b6a39c23d81945258bb93176595e77dcdbdd06ea0329b6f7e9","epochNo":372,"epochSlotNo":300426,"slot":75641226,"time":"2022/10/31 09:11:57","addressesInput":["addr1vydz72jvm5dgnr9rah423fftq9fwqm3g8ac3vzwsvlkzptswanztg"],"addressesOutput":["addr1v96y2dls722uew3zd7q5d3edc60d8p3wucck3t9h8vscangq6rmax","addr1q8j73kq334a8437z84gnypj3xp76m6r50xddwchll5k2wwzpvm92fgtcw06aghzeyzn0n79r6fjytgk63fljska0aagqnh37qm"],"fee":201053,"totalOutput":4798947,"tokens":[]},{"hash":"802e4143401cf2fa2c29fd3d104b4bd1569c8cf7e8b230e2347a2b13de212c2e","blockNo":7953617,"blockHash":"28b93a98329b99b6a39c23d81945258bb93176595e77dcdbdd06ea0329b6f7e9","epochNo":372,"epochSlotNo":300426,"slot":75641226,"time":"2022/10/31 09:11:57","addressesInput":["addr1zxgx3far7qygq0k6epa0zcvcvrevmn0ypsnfsue94nsn3tvpw288a4x0xf8pxgcntelxmyclq83s0ykeehchz2wtspks905plm","addr1q9per9seu0aq2fd8gnvhz6y37ax0ze6nj39k526aren24t9atgzue6ktp5sf9yd3d8zqs72n9srsge0dwcxh4540skxqptexen","addr1q9per9seu0aq2fd8gnvhz6y37ax0ze6nj39k526aren24t9atgzue6ktp5sf9yd3d8zqs72n9srsge0dwcxh4540skxqptexen"],"addressesOutput":["addr1q9per9seu0aq2fd8gnvhz6y37ax0ze6nj39k526aren24t9atgzue6ktp5sf9yd3d8zqs72n9srsge0dwcxh4540skxqptexen","addr1q9per9seu0aq2fd8gnvhz6y37ax0ze6nj39k526aren24t9atgzue6ktp5sf9yd3d8zqs72n9srsge0dwcxh4540skxqptexen","addr1q9per9seu0aq2fd8gnvhz6y37ax0ze6nj39k526aren24t9atgzue6ktp5sf9yd3d8zqs72n9srsge0dwcxh4540skxqptexen"],"fee":276175,"totalOutput":368464997,"tokens":[]},{"hash":"c60a4c5d49da1a77c17d03b815e929386496b70b7bf1303ce7043108f6016e46","blockNo":7953617,"blockHash":"28b93a98329b99b6a39c23d81945258bb93176595e77dcdbdd06ea0329b6f7e9","epochNo":372,"epochSlotNo":300426,"slot":75641226,"time":"2022/10/31 09:11:57","addressesInput":["addr1qxkmr0m22xeqludcg5rjdmecjxasu9fat0680qehtcsnftaadgykewa9ufvegeuca9yyq03d9v7ea2y2zthgu7hfgjtsddp6gr","addr1qxkmr0m22xeqludcg5rjdmecjxasu9fat0680qehtcsnftaadgykewa9ufvegeuca9yyq03d9v7ea2y2zthgu7hfgjtsddp6gr","addr1qxkmr0m22xeqludcg5rjdmecjxasu9fat0680qehtcsnftaadgykewa9ufvegeuca9yyq03d9v7ea2y2zthgu7hfgjtsddp6gr"],"addressesOutput":["addr1qxkmr0m22xeqludcg5rjdmecjxasu9fat0680qehtcsnftaadgykewa9ufvegeuca9yyq03d9v7ea2y2zthgu7hfgjtsddp6gr","addr1qyqwtrw8w2q6smuk6n4un3yw2lxtdngkkgkdf55jvgjq2jgzdfmu69lzqgenlxnnalvxkdwqe9cxg3mvcdkul9fvdt2sskz398","addr1qxkmr0m22xeqludcg5rjdmecjxasu9fat0680qehtcsnftaadgykewa9ufvegeuca9yyq03d9v7ea2y2zthgu7hfgjtsddp6gr"],"fee":245405,"totalOutput":96884868183,"tokens":[]},{"hash":"c7b4b8fffa6eb754f5ad982e4f60a13fc811e91004b16c664474316868fc1e1c","blockNo":7953617,"blockHash":"28b93a98329b99b6a39c23d81945258bb93176595e77dcdbdd06ea0329b6f7e9","epochNo":372,"epochSlotNo":300426,"slot":75641226,"time":"2022/10/31 09:11:57","addressesInput":["addr1qyg8ee97uy0symlempyge48e3zevqgtud7wks2ftn9u2rg3xqa2zz9qt0muzvkpr55npt8n5svlxn4e8r0eymm4nyvjq2l7rk7"],"addressesOutput":["addr1qy5vu75cys5eg06j44au8jlm5uchfqph2z2llwtu8ls8vefz5q4zztvprvy3l7jv5xnj3flynd5k0r85uh2cv9xmm9rs3xaejc","addr1qy4t0hjuqyx2cpv4k0jdtdmhxraem4lzzcc4qy7660s0wm3xqa2zz9qt0muzvkpr55npt8n5svlxn4e8r0eymm4nyvjql2ll8r"],"fee":168493,"totalOutput":63799831507,"tokens":[]},{"hash":"a95b8a9326dac9f77b6c900521cdd0b3a70f7d753632f1dae134ee1041530f6e","blockNo":7953617,"blockHash":"28b93a98329b99b6a39c23d81945258bb93176595e77dcdbdd06ea0329b6f7e9","epochNo":372,"epochSlotNo":300426,"slot":75641226,"time":"2022/10/31 09:11:57","addressesInput":["addr1qy46trekuyxt07yakekxt0v4u43zfxgeq9ey2723usf8gp5kmsv6azhef58c5fqhr5ulq26a82z6aalkfgagtv0hrucqyc7mvn","addr1qy46trekuyxt07yakekxt0v4u43zfxgeq9ey2723usf8gp5kmsv6azhef58c5fqhr5ulq26a82z6aalkfgagtv0hrucqyc7mvn","addr1qy46trekuyxt07yakekxt0v4u43zfxgeq9ey2723usf8gp5kmsv6azhef58c5fqhr5ulq26a82z6aalkfgagtv0hrucqyc7mvn","addr1qy46trekuyxt07yakekxt0v4u43zfxgeq9ey2723usf8gp5kmsv6azhef58c5fqhr5ulq26a82z6aalkfgagtv0hrucqyc7mvn","addr1qy46trekuyxt07yakekxt0v4u43zfxgeq9ey2723usf8gp5kmsv6azhef58c5fqhr5ulq26a82z6aalkfgagtv0hrucqyc7mvn","addr1qy46trekuyxt07yakekxt0v4u43zfxgeq9ey2723usf8gp5kmsv6azhef58c5fqhr5ulq26a82z6aalkfgagtv0hrucqyc7mvn","addr1qy46trekuyxt07yakekxt0v4u43zfxgeq9ey2723usf8gp5kmsv6azhef58c5fqhr5ulq26a82z6aalkfgagtv0hrucqyc7mvn","addr1qy46trekuyxt07yakekxt0v4u43zfxgeq9ey2723usf8gp5kmsv6azhef58c5fqhr5ulq26a82z6aalkfgagtv0hrucqyc7mvn","addr1qy46trekuyxt07yakekxt0v4u43zfxgeq9ey2723usf8gp5kmsv6azhef58c5fqhr5ulq26a82z6aalkfgagtv0hrucqyc7mvn","addr1qy46trekuyxt07yakekxt0v4u43zfxgeq9ey2723usf8gp5kmsv6azhef58c5fqhr5ulq26a82z6aalkfgagtv0hrucqyc7mvn","addr1qy46trekuyxt07yakekxt0v4u43zfxgeq9ey2723usf8gp5kmsv6azhef58c5fqhr5ulq26a82z6aalkfgagtv0hrucqyc7mvn","addr1qy46trekuyxt07yakekxt0v4u43zfxgeq9ey2723usf8gp5kmsv6azhef58c5fqhr5ulq26a82z6aalkfgagtv0hrucqyc7mvn","addr1qy46trekuyxt07yakekxt0v4u43zfxgeq9ey2723usf8gp5kmsv6azhef58c5fqhr5ulq26a82z6aalkfgagtv0hrucqyc7mvn","addr1qy46trekuyxt07yakekxt0v4u43zfxgeq9ey2723usf8gp5kmsv6azhef58c5fqhr5ulq26a82z6aalkfgagtv0hrucqyc7mvn","addr1zxgx3far7qygq0k6epa0zcvcvrevmn0ypsnfsue94nsn3tvpw288a4x0xf8pxgcntelxmyclq83s0ykeehchz2wtspks905plm"],"addressesOutput":["addr1q8ku8s5kr9mwlkfph6uqhc48z60vk2m22lwz443d6luydahgu475qms3c6eluet9uz4eg3vhewxa8vtfmn2q0gf6v2qq2g49st","addr1q9cwvremt6n320s2e3agq0jyq82yhrk3htsu0w426xnz5us70z4w0jgvcdkkynmm8wmds66jd9kusnjfpu6raw5fqp0sr07p5w","addr1q9n9ukqgnzl7gtm9g9fj9mczjc8jmtlapryn3nw25l4743u7gx8f5mnacuvsw9njdlex9r5yr22lxs544uc6swc4jq6qgnhg9u","addr1qy46trekuyxt07yakekxt0v4u43zfxgeq9ey2723usf8gp5kmsv6azhef58c5fqhr5ulq26a82z6aalkfgagtv0hrucqyc7mvn","addr1qy46trekuyxt07yakekxt0v4u43zfxgeq9ey2723usf8gp5kmsv6azhef58c5fqhr5ulq26a82z6aalkfgagtv0hrucqyc7mvn"],"fee":508584,"totalOutput":479755063,"tokens":[]},{"hash":"47d8c2cb86ee4c4fa174e6e752f5261745281b34592d10c1d288074bcd12389a","blockNo":7953617,"blockHash":"28b93a98329b99b6a39c23d81945258bb93176595e77dcdbdd06ea0329b6f7e9","epochNo":372,"epochSlotNo":300426,"slot":75641226,"time":"2022/10/31 09:11:57","addressesInput":["addr1qxuxmayt3k3kge6vet72na64nsufrjeyklk7a2fsccjz7ytatu399y3syvp3d7lt42ja6y6cytcpk36u93en4xjtevwsewwk6u"],"addressesOutput":["addr1v89w4j93c75dfh99qg5lhzvqx82984gh7r2ylh7pv8zzg4cxs67jj","addr1qxuxmayt3k3kge6vet72na64nsufrjeyklk7a2fsccjz7ytatu399y3syvp3d7lt42ja6y6cytcpk36u93en4xjtevwsewwk6u"],"fee":167085,"totalOutput":328335898,"tokens":[]}],"totalItems":53354915,"totalPages":2667746,"currentPage":0}