{"data":[{"no":339,"status":"SYNCING","blkCount":575,"outSum":4223430092572359,"txCount":27326,"startTime":"2022/05/15 21:51:33","endTime":"2022/05/16 01:31:25","maxSlot":432000},{"no":338,"status":"FINISHED","blkCount":20640,"outSum":155826482334397398,"txCount":542058,"startTime":"2022/05/10 21:46:50","endTime":"2022/05/15 21:44:36","maxSlot":432000},{"no":337,"status":"FINISHED","blkCount":20794,"outSum":149145009689192596,"txCount":478517,"startTime":"2022/05/05 21:47:30","endTime":"2022/05/10 21:44:32","maxSlot":432000},{"no":336,"status":"FINISHED","blkCount":20500,"outSum":154117532952824797,"txCount":529384,"startTime":"2022/04/30 21:45:16","endTime":"2022/05/05 21:44:43","maxSlot":432000},{"no":335,"status":"FINISHED","blkCount":20446,"outSum":138040819555980954,"txCount":584346,"startTime":"2022/04/25 21:45:07","endTime":"2022/04/30 21:44:36","maxSlot":432000},{"no":334,"status":"FINISHED","blkCount":20232,"outSum":131645454661322443,"txCount":515610,"startTime":"2022/04/20 21:45:15","endTime":"2022/04/25 21:44:50","maxSlot":432000},{"no":333,"status":"FINISHED","blkCount":20290,"outSum":167258482644606026,"txCount":573296,"startTime":"2022/04/15 21:47:28","endTime":"2022/04/20 21:44:48","maxSlot":432000},{"no":332,"status":"FINISHED","blkCount":20391,"outSum":225986048270909920,"txCount":584705,"startTime":"2022/04/10 21:46:19","endTime":"2022/04/15 21:44:42","maxSlot":432000},{"no":331,"status":"FINISHED","blkCount":20704,"outSum":234802085034384403,"txCount":450346,"startTime":"2022/04/05 21:45:02","endTime":"2022/04/10 21:44:42","maxSlot":432000},{"no":330,"status":"FINISHED","blkCount":20685,"outSum":227835307465812724,"txCount":499577,"startTime":"2022/03/31 21:46:34","endTime":"2022/04/05 21:44:35","maxSlot":432000}],"totalItems":340,"totalPages":34,"currentPage":0}