{"data":[{"hash":"05529095195fd9d6be4992445d9d1ebd88769d02adea110483c0acaf766290c0","blockNo":8276433,"blockHash":"95523ac589a2ddb4e5059640898b5b90f1ea82dcc760d44eeb2b8ec991286a09","epochNo":388,"epochSlotNo":33717,"slot":82286517,"time":"2023/01/16 07:06:48","addressesInput":["addr1qx76hnwx8qukkylx5te0em5gf7kgjqadv6x8z406mpyxz6nn3lmaa3wnh8ka8wxllq5f9kpp6spcwum5vvas6xgvuedsh0rgkp","addr1qx76hnwx8qukkylx5te0em5gf7kgjqadv6x8z406mpyxz6nn3lmaa3wnh8ka8wxllq5f9kpp6spcwum5vvas6xgvuedsh0rgkp","addr1qx76hnwx8qukkylx5te0em5gf7kgjqadv6x8z406mpyxz6nn3lmaa3wnh8ka8wxllq5f9kpp6spcwum5vvas6xgvuedsh0rgkp","addr1qx76hnwx8qukkylx5te0em5gf7kgjqadv6x8z406mpyxz6nn3lmaa3wnh8ka8wxllq5f9kpp6spcwum5vvas6xgvuedsh0rgkp","addr1qx76hnwx8qukkylx5te0em5gf7kgjqadv6x8z406mpyxz6nn3lmaa3wnh8ka8wxllq5f9kpp6spcwum5vvas6xgvuedsh0rgkp"],"addressesOutput":["addr1qx76hnwx8qukkylx5te0em5gf7kgjqadv6x8z406mpyxz6nn3lmaa3wnh8ka8wxllq5f9kpp6spcwum5vvas6xgvuedsh0rgkp","addr1qx76hnwx8qukkylx5te0em5gf7kgjqadv6x8z406mpyxz6nn3lmaa3wnh8ka8wxllq5f9kpp6spcwum5vvas6xgvuedsh0rgkp","addr1qx76hnwx8qukkylx5te0em5gf7kgjqadv6x8z406mpyxz6nn3lmaa3wnh8ka8wxllq5f9kpp6spcwum5vvas6xgvuedsh0rgkp","addr1qx76hnwx8qukkylx5te0em5gf7kgjqadv6x8z406mpyxz6nn3lmaa3wnh8ka8wxllq5f9kpp6spcwum5vvas6xgvuedsh0rgkp","addr1qx76hnwx8qukkylx5te0em5gf7kgjqadv6x8z406mpyxz6nn3lmaa3wnh8ka8wxllq5f9kpp6spcwum5vvas6xgvuedsh0rgkp"],"fee":835841,"totalOutput":335023434,"tokens":[]},{"hash":"e6f45ab45cb835c8ff274c9d2d54d7cfc7e46b1ea38679d2122cc6a0bf5ef834","blockNo":8276408,"blockHash":"0588f01cc96d6ebc11113b127e0f7486fde6b49f3afad5a103f97f435b270ebf","epochNo":388,"epochSlotNo":33112,"slot":82285912,"time":"2023/01/16 06:56:43","addressesInput":["addr1qx76hnwx8qukkylx5te0em5gf7kgjqadv6x8z406mpyxz6nn3lmaa3wnh8ka8wxllq5f9kpp6spcwum5vvas6xgvuedsh0rgkp","addr1qx76hnwx8qukkylx5te0em5gf7kgjqadv6x8z406mpyxz6nn3lmaa3wnh8ka8wxllq5f9kpp6spcwum5vvas6xgvuedsh0rgkp","addr1qx76hnwx8qukkylx5te0em5gf7kgjqadv6x8z406mpyxz6nn3lmaa3wnh8ka8wxllq5f9kpp6spcwum5vvas6xgvuedsh0rgkp","addr1qx76hnwx8qukkylx5te0em5gf7kgjqadv6x8z406mpyxz6nn3lmaa3wnh8ka8wxllq5f9kpp6spcwum5vvas6xgvuedsh0rgkp","addr1qx76hnwx8qukkylx5te0em5gf7kgjqadv6x8z406mpyxz6nn3lmaa3wnh8ka8wxllq5f9kpp6spcwum5vvas6xgvuedsh0rgkp","addr1qx76hnwx8qukkylx5te0em5gf7kgjqadv6x8z406mpyxz6nn3lmaa3wnh8ka8wxllq5f9kpp6spcwum5vvas6xgvuedsh0rgkp","addr1qx76hnwx8qukkylx5te0em5gf7kgjqadv6x8z406mpyxz6nn3lmaa3wnh8ka8wxllq5f9kpp6spcwum5vvas6xgvuedsh0rgkp","addr1qx76hnwx8qukkylx5te0em5gf7kgjqadv6x8z406mpyxz6nn3lmaa3wnh8ka8wxllq5f9kpp6spcwum5vvas6xgvuedsh0rgkp","addr1qx76hnwx8qukkylx5te0em5gf7kgjqadv6x8z406mpyxz6nn3lmaa3wnh8ka8wxllq5f9kpp6spcwum5vvas6xgvuedsh0rgkp","addr1qx76hnwx8qukkylx5te0em5gf7kgjqadv6x8z406mpyxz6nn3lmaa3wnh8ka8wxllq5f9kpp6spcwum5vvas6xgvuedsh0rgkp","addr1qx76hnwx8qukkylx5te0em5gf7kgjqadv6x8z406mpyxz6nn3lmaa3wnh8ka8wxllq5f9kpp6spcwum5vvas6xgvuedsh0rgkp","addr1qx76hnwx8qukkylx5te0em5gf7kgjqadv6x8z406mpyxz6nn3lmaa3wnh8ka8wxllq5f9kpp6spcwum5vvas6xgvuedsh0rgkp"],"addressesOutput":["addr1qx76hnwx8qukkylx5te0em5gf7kgjqadv6x8z406mpyxz6nn3lmaa3wnh8ka8wxllq5f9kpp6spcwum5vvas6xgvuedsh0rgkp","addr1qx76hnwx8qukkylx5te0em5gf7kgjqadv6x8z406mpyxz6nn3lmaa3wnh8ka8wxllq5f9kpp6spcwum5vvas6xgvuedsh0rgkp","addr1qx76hnwx8qukkylx5te0em5gf7kgjqadv6x8z406mpyxz6nn3lmaa3wnh8ka8wxllq5f9kpp6spcwum5vvas6xgvuedsh0rgkp","addr1qx76hnwx8qukkylx5te0em5gf7kgjqadv6x8z406mpyxz6nn3lmaa3wnh8ka8wxllq5f9kpp6spcwum5vvas6xgvuedsh0rgkp","addr1qx76hnwx8qukkylx5te0em5gf7kgjqadv6x8z406mpyxz6nn3lmaa3wnh8ka8wxllq5f9kpp6spcwum5vvas6xgvuedsh0rgkp"],"fee":846929,"totalOutput":336029176,"tokens":[]},{"hash":"3b64483a8fdffabd422161af3fef7cb096195544cee56d3f6227ef1e0c1ce54b","blockNo":8276395,"blockHash":"548078ec16a0c3fcd0c797471b4a6925f369ed691da8b213982b767e11987141","epochNo":388,"epochSlotNo":32858,"slot":82285658,"time":"2023/01/16 06:52:29","addressesInput":["addr1qyau90sx7tcv8mgh5vq746gq9muulj7vg2undntv5hc7scwvs6xa7v38v6mx3jnmsa948aufl5pty77gyh726h89903q6peye5","addr1q9jq5glm3054xcv4zfzaxgcex0y4z6hvquqhtcyu25ng2gwvs6xa7v38v6mx3jnmsa948aufl5pty77gyh726h89903qekw0nr","addr1q96jp4r4cl79jumhg3r9jatavz7wwlgv0r7la0k0ezm2eexvs6xa7v38v6mx3jnmsa948aufl5pty77gyh726h89903qyhuept"],"addressesOutput":["addr1q9zlayp0x74ege6y453fwact9qlnpy8h3eav6gmwdxca62r0uzuns53dep9f9pcdxr2aj8evztuewzzp65qtytr6nc9qy789jc","addr1qxmy6ffrqve6et8vysml85jx2pvlh2veh46an83ly3fpuf7vs6xa7v38v6mx3jnmsa948aufl5pty77gyh726h89903qjsnzma"],"fee":396897,"totalOutput":29410859,"tokens":[]},{"hash":"cc974c17740d73c1bdff5edc439a7db8a059b4a296d2d29f5fee7cb9f8f1435f","blockNo":8276373,"blockHash":"76f2088df0573f9211e03224bd117da9129f1efd35bfdd7ddf5376f62def9f92","epochNo":388,"epochSlotNo":32369,"slot":82285169,"time":"2023/01/16 06:44:20","addressesInput":["addr1q9vj9w32w77p47ca725hantcf5nrzcex66vqq58kqm4l04y6hn99676mvdj6qvd34vfqh3jx6vy8tyfkuy6u3xcghq8sex2gzq","addr1q9vj9w32w77p47ca725hantcf5nrzcex66vqq58kqm4l04y6hn99676mvdj6qvd34vfqh3jx6vy8tyfkuy6u3xcghq8sex2gzq","addr1q9vj9w32w77p47ca725hantcf5nrzcex66vqq58kqm4l04y6hn99676mvdj6qvd34vfqh3jx6vy8tyfkuy6u3xcghq8sex2gzq"],"addressesOutput":["addr1zxgx3far7qygq0k6epa0zcvcvrevmn0ypsnfsue94nsn3tvpw288a4x0xf8pxgcntelxmyclq83s0ykeehchz2wtspks905plm","addr1q9vj9w32w77p47ca725hantcf5nrzcex66vqq58kqm4l04y6hn99676mvdj6qvd34vfqh3jx6vy8tyfkuy6u3xcghq8sex2gzq","addr1q9vj9w32w77p47ca725hantcf5nrzcex66vqq58kqm4l04y6hn99676mvdj6qvd34vfqh3jx6vy8tyfkuy6u3xcghq8sex2gzq"],"fee":301505,"totalOutput":117513973,"tokens":[]},{"hash":"b03be78a90c5dc252f5499e2ba088fcbe96188e5f52dcc759002c54a883d51fe","blockNo":8276278,"blockHash":"e77a2b9e20f447539b2ac1bd3ebc26d29841d853103438051a122a77a1837619","epochNo":388,"epochSlotNo":30231,"slot":82283031,"time":"2023/01/16 06:08:42","addressesInput":["addr1q9vj9w32w77p47ca725hantcf5nrzcex66vqq58kqm4l04y6hn99676mvdj6qvd34vfqh3jx6vy8tyfkuy6u3xcghq8sex2gzq","addr1q9vj9w32w77p47ca725hantcf5nrzcex66vqq58kqm4l04y6hn99676mvdj6qvd34vfqh3jx6vy8tyfkuy6u3xcghq8sex2gzq","addr1zxgx3far7qygq0k6epa0zcvcvrevmn0ypsnfsue94nsn3tvpw288a4x0xf8pxgcntelxmyclq83s0ykeehchz2wtspks905plm"],"addressesOutput":["addr1q9vj9w32w77p47ca725hantcf5nrzcex66vqq58kqm4l04y6hn99676mvdj6qvd34vfqh3jx6vy8tyfkuy6u3xcghq8sex2gzq","addr1q9vj9w32w77p47ca725hantcf5nrzcex66vqq58kqm4l04y6hn99676mvdj6qvd34vfqh3jx6vy8tyfkuy6u3xcghq8sex2gzq","addr1q9vj9w32w77p47ca725hantcf5nrzcex66vqq58kqm4l04y6hn99676mvdj6qvd34vfqh3jx6vy8tyfkuy6u3xcghq8sex2gzq"],"fee":422945,"totalOutput":117815478,"tokens":[]},{"hash":"d676a4398e5e366bfa312ff6b55f95530b45bcfb4bc72dcfb5d1f6ff0b3e5f68","blockNo":8276166,"blockHash":"09c998eff076109c3ec1da3dc20795d427646a2f44e61f4e936fe271383b7158","epochNo":388,"epochSlotNo":28217,"slot":82281017,"time":"2023/01/16 05:35:08","addressesInput":["DdzFFzCqrht9QGYBcGE8iX8JD7ZouCPHN9z1SQTngjt4yvVirs7ub33TkUmmahkzevKKuRQtBZUU2W9LepZiE6LiAP7MEwd9KbtYZmd3","DdzFFzCqrhsz5QR5X3U8c3yGX5Y3M49xgNJEQ7feCY1TQHwTeCiv2AR3pz9R4qhF72VP3QM1h28GUGzm9SiTMpmoAquJHmJJh2JwjG3C","DdzFFzCqrhsm8QDz65APV5R7wL52Xh73K4dn1Grz1wGjdYHDD5Cu2vpRCoRqWQtqZTZU11mPSV2oFwcY8NWEfjYEb1bfsLH9vHB4VoF1","DdzFFzCqrhsrwFPxkz5aWXDR2n1sJNGDuzLpUBw1oBZFvoUoFdXPQrZKGUpckGJ7rfSxcTC3wn1883mQmNwCt2et8K8m6BPUBpVS63F6","DdzFFzCqrhsz5QR5X3U8c3yGX5Y3M49xgNJEQ7feCY1TQHwTeCiv2AR3pz9R4qhF72VP3QM1h28GUGzm9SiTMpmoAquJHmJJh2JwjG3C","DdzFFzCqrhsptVGyTvNxpWqE59CXT29sqw6CNfu9kVtBNX9uDd4T5TBPXFTsYnwFUofJD88wkhbPJMBmwkxnmNrSk9SzxGW1hQ9vuXa1","DdzFFzCqrhsidrbfR9DzwjNh85RxodzTYKNRdwWFZ5u18gg8crNLBJo67n4f9JaUyuonPoh8QaycDhZHPbAXRCUkWoPGD8w2BdDr95xF","DdzFFzCqrhskFYAhDrt1vrTbNLwzPXBck5nLN2CjJjpeAhDmd9yDuhqPhrhLkp26cBYZehN7XiY1aohbDQLj836KXfYaiiACZshyqAbY"],"addressesOutput":["addr1q9atjfpqwdtg7ytz0pz9zcaqvx8zr2uv6ysvc4csqynr683dzefudzxhadht99nh8gv4l3z93d486ygllgxuh2drrrpsdw6fws","DdzFFzCqrhsiwGoKXrijLQyu3jE2r7WiYoAXzGVcYGcSxg7PMjwgfEBt3YCmdMUgYtgVSYr8XYd4wj7rZKiZiqjDgKLwih6T5KkjoHBf","DdzFFzCqrht7kbSUnqDtc4ELHheXympwF69DhKTbX4Y8EBUhLxShGnyjvnw5MawNsjar6durMFUgQ7JKJZporGtwTTJQgwmHDDhM2umU","DdzFFzCqrhsm1QR4y4W8XDFwFyA7iyK84Gm7FJCydz5EcNrQjJtwSunUS8zcUnMtmc7tcQHyooPtxDoH5shKH6NDMQ3BKgcW2krEpoxD","DdzFFzCqrhsraAvZP9uq9z5qSe3n8FTPiwXEWhrgRKAUM8h7YfHwNJ7fpB8TMFHt9y5KXPXxhcb9QDp1ABejgTzJqc1xMVpwQVVTWLhV"],"fee":982801,"totalOutput":56362496421,"tokens":[]},{"hash":"9feaf4eb890c841d8717c4796efc8ec959982ea2c986f632c424747f8cca1e81","blockNo":8276163,"blockHash":"101e59b07a98fe769a9fc9e644814812b053c1084bd001ce4bc84d46dac7d3aa","epochNo":388,"epochSlotNo":28088,"slot":82280888,"time":"2023/01/16 05:32:59","addressesInput":["addr1q9vj9w32w77p47ca725hantcf5nrzcex66vqq58kqm4l04y6hn99676mvdj6qvd34vfqh3jx6vy8tyfkuy6u3xcghq8sex2gzq","addr1q9vj9w32w77p47ca725hantcf5nrzcex66vqq58kqm4l04y6hn99676mvdj6qvd34vfqh3jx6vy8tyfkuy6u3xcghq8sex2gzq","addr1q9vj9w32w77p47ca725hantcf5nrzcex66vqq58kqm4l04y6hn99676mvdj6qvd34vfqh3jx6vy8tyfkuy6u3xcghq8sex2gzq","addr1q9vj9w32w77p47ca725hantcf5nrzcex66vqq58kqm4l04y6hn99676mvdj6qvd34vfqh3jx6vy8tyfkuy6u3xcghq8sex2gzq"],"addressesOutput":["addr1zxgx3far7qygq0k6epa0zcvcvrevmn0ypsnfsue94nsn3tvpw288a4x0xf8pxgcntelxmyclq83s0ykeehchz2wtspks905plm","addr1q9vj9w32w77p47ca725hantcf5nrzcex66vqq58kqm4l04y6hn99676mvdj6qvd34vfqh3jx6vy8tyfkuy6u3xcghq8sex2gzq","addr1q9vj9w32w77p47ca725hantcf5nrzcex66vqq58kqm4l04y6hn99676mvdj6qvd34vfqh3jx6vy8tyfkuy6u3xcghq8sex2gzq"],"fee":303089,"totalOutput":118238423,"tokens":[]},{"hash":"9202b728b080d032decedbcbd17c58c9088aa941c19796b4ea71f82dc1c1db6a","blockNo":8276154,"blockHash":"b12cb9fa4028eda8a7c367c5b9cd0e582149743dcda938391c8ff400186d3066","epochNo":388,"epochSlotNo":27998,"slot":82280798,"time":"2023/01/16 05:31:29","addressesInput":["addr1q9zws2346vjsy052m0yuxussh2y3wafuryg9ey5c09pa3fev5hssk4080v642sexdvnaat8v6gzh3d6chseues8rmzassww5dh","addr1qxgxy9fyz0gtgpg0g656wx0me94c9cm32mjerpxwzlmkd33v5hssk4080v642sexdvnaat8v6gzh3d6chseues8rmzashzqeuu","addr1qxgxy9fyz0gtgpg0g656wx0me94c9cm32mjerpxwzlmkd33v5hssk4080v642sexdvnaat8v6gzh3d6chseues8rmzashzqeuu","addr1qygypgtd787grvh9kyhvcreadx07tl86fc9d6hw7l7383qev5hssk4080v642sexdvnaat8v6gzh3d6chseues8rmzas3szzqe","addr1qxgxy9fyz0gtgpg0g656wx0me94c9cm32mjerpxwzlmkd33v5hssk4080v642sexdvnaat8v6gzh3d6chseues8rmzashzqeuu"],"addressesOutput":["addr1wxn9efv2f6w82hagxqtn62ju4m293tqvw0uhmdl64ch8uwc0h43gt","addr1qxgxy9fyz0gtgpg0g656wx0me94c9cm32mjerpxwzlmkd33v5hssk4080v642sexdvnaat8v6gzh3d6chseues8rmzashzqeuu","addr1qxgxy9fyz0gtgpg0g656wx0me94c9cm32mjerpxwzlmkd33v5hssk4080v642sexdvnaat8v6gzh3d6chseues8rmzashzqeuu"],"fee":549178,"totalOutput":244173227,"tokens":[]},{"hash":"fbfae02a630546e42a2da7d0defadab6942642b8fd5d7ed4f7e09295d05db8f6","blockNo":8275954,"blockHash":"62420637076503c86f1edc3c27cdacaa02c90a85f02d30afaf7252e3af40f553","epochNo":388,"epochSlotNo":23393,"slot":82276193,"time":"2023/01/16 04:14:44","addressesInput":["addr1qx9e75492fhx2w47q3h5x4hdtwxrx80za97nfremfdkrtgxvs6xa7v38v6mx3jnmsa948aufl5pty77gyh726h89903qpkd3fp","addr1qx0etz5u3h5edwhucpzahvwr6n2927ct755yf2v4r7kyufwvs6xa7v38v6mx3jnmsa948aufl5pty77gyh726h89903qwlsnks"],"addressesOutput":["addr1q96jp4r4cl79jumhg3r9jatavz7wwlgv0r7la0k0ezm2eexvs6xa7v38v6mx3jnmsa948aufl5pty77gyh726h89903qyhuept","addr1q96jp4r4cl79jumhg3r9jatavz7wwlgv0r7la0k0ezm2eexvs6xa7v38v6mx3jnmsa948aufl5pty77gyh726h89903qyhuept"],"fee":387261,"totalOutput":27287147,"tokens":[]},{"hash":"c9e11409b2ea0754b1bc844ce63da92887488b746d8176ba6f2c4e565bb6a546","blockNo":8275923,"blockHash":"4bcb6f6194549120d505dcdf6d1cfa7824cb804ee6caabf3a1a3c08349087613","epochNo":388,"epochSlotNo":22687,"slot":82275487,"time":"2023/01/16 04:02:58","addressesInput":["addr1q9vj9w32w77p47ca725hantcf5nrzcex66vqq58kqm4l04y6hn99676mvdj6qvd34vfqh3jx6vy8tyfkuy6u3xcghq8sex2gzq","addr1q9vj9w32w77p47ca725hantcf5nrzcex66vqq58kqm4l04y6hn99676mvdj6qvd34vfqh3jx6vy8tyfkuy6u3xcghq8sex2gzq"],"addressesOutput":["addr1zxgx3far7qygq0k6epa0zcvcvrevmn0ypsnfsue94nsn3tvpw288a4x0xf8pxgcntelxmyclq83s0ykeehchz2wtspks905plm","addr1q9vj9w32w77p47ca725hantcf5nrzcex66vqq58kqm4l04y6hn99676mvdj6qvd34vfqh3jx6vy8tyfkuy6u3xcghq8sex2gzq","addr1q9vj9w32w77p47ca725hantcf5nrzcex66vqq58kqm4l04y6hn99676mvdj6qvd34vfqh3jx6vy8tyfkuy6u3xcghq8sex2gzq"],"fee":253985,"totalOutput":77679031,"tokens":[]},{"hash":"ce19c935c266eb83093f51950fbd8047d006593b51a754d5783abca3d513ae30","blockNo":8275855,"blockHash":"916bccd30a53eaf177d4a71154132804ac4781332442e234c01f6df8a5d94ab7","epochNo":388,"epochSlotNo":21086,"slot":82273886,"time":"2023/01/16 03:36:17","addressesInput":["addr1q9jq5glm3054xcv4zfzaxgcex0y4z6hvquqhtcyu25ng2gwvs6xa7v38v6mx3jnmsa948aufl5pty77gyh726h89903qekw0nr","addr1q8f2welmlefszl7p833eks98jcgyyemp7ctvzfpmf3w2rw7vs6xa7v38v6mx3jnmsa948aufl5pty77gyh726h89903qeult0a"],"addressesOutput":["addr1wxn9efv2f6w82hagxqtn62ju4m293tqvw0uhmdl64ch8uwc0h43gt","addr1qx9e75492fhx2w47q3h5x4hdtwxrx80za97nfremfdkrtgxvs6xa7v38v6mx3jnmsa948aufl5pty77gyh726h89903qpkd3fp"],"fee":402793,"totalOutput":29674408,"tokens":[]},{"hash":"4d0ae5be633499fee33cbf7d964aa17173d21ddbc79b34902525e5ef160de7dd","blockNo":8275844,"blockHash":"2035c56def77d40f17300b7baada76fabfef2d72c449929b05e35d22cbf7253d","epochNo":388,"epochSlotNo":20893,"slot":82273693,"time":"2023/01/16 03:33:04","addressesInput":["addr1q8kpxdvjc43lawxndtm07sl4plqymftafxyam6lul7sysa0vzv6e93trl6udx6hklapl2r7qfkjh6jvfmh4lelaqfp6s83mr46","addr1q8kpxdvjc43lawxndtm07sl4plqymftafxyam6lul7sysa0vzv6e93trl6udx6hklapl2r7qfkjh6jvfmh4lelaqfp6s83mr46"],"addressesOutput":["addr1q8kpxdvjc43lawxndtm07sl4plqymftafxyam6lul7sysa0vzv6e93trl6udx6hklapl2r7qfkjh6jvfmh4lelaqfp6s83mr46","addr1q8kpxdvjc43lawxndtm07sl4plqymftafxyam6lul7sysa0vzv6e93trl6udx6hklapl2r7qfkjh6jvfmh4lelaqfp6s83mr46"],"fee":237985,"totalOutput":2760956379802,"tokens":[]},{"hash":"061529fb6cfb7bde474dd736222cc86c3c16b13cda1e5b6a010db0968bb00997","blockNo":8275821,"blockHash":"112b9da91324a2f1922d05540706963377f3a9a11f352d8f4958c15a340136ba","epochNo":388,"epochSlotNo":20419,"slot":82273219,"time":"2023/01/16 03:25:10","addressesInput":["addr1q8jgxqwcfc2qtqdvj8j4h9cljkppgdu5vq0jm7xyysmr7qdnzfzekz7vqkwd9ljq7mpmzzmvxwwnqrulntc0gw6wzkpquf6n63","addr1q96zc72t3y9qgcxz5npjt5753dw9lagyzenpjmsp5spd76dnzfzekz7vqkwd9ljq7mpmzzmvxwwnqrulntc0gw6wzkpqjtsgke","addr1qxtmpsw43usykphylhymuxwyua50drf03n644lttgf688q4nzfzekz7vqkwd9ljq7mpmzzmvxwwnqrulntc0gw6wzkpq59y5y4"],"addressesOutput":["addr1qxsce5nqh22snqlxfm8evhwsuql65ess0ljz2ptx8kvss6r36fujmd290f4epfd6mx7l6jtrwtj2lyqrvgavhmp2pwaqets40e","addr1qyxx6xutqp57rvc2fj7njynuasjska8vjlhau8rh2c3qvp9nzfzekz7vqkwd9ljq7mpmzzmvxwwnqrulntc0gw6wzkpqe9tkrl","addr1qyxx6xutqp57rvc2fj7njynuasjska8vjlhau8rh2c3qvp9nzfzekz7vqkwd9ljq7mpmzzmvxwwnqrulntc0gw6wzkpqe9tkrl","addr1qyxx6xutqp57rvc2fj7njynuasjska8vjlhau8rh2c3qvp9nzfzekz7vqkwd9ljq7mpmzzmvxwwnqrulntc0gw6wzkpqe9tkrl"],"fee":307181,"totalOutput":20748761,"tokens":[]},{"hash":"77e52782d384172e601fb2f5f3fe7e950a9474ea3711a94bf1f8ae81f37fb011","blockNo":8275700,"blockHash":"71e2804f58db354c3670ab7e6fbc96120cf4f3e803793286e612204620668361","epochNo":388,"epochSlotNo":17880,"slot":82270680,"time":"2023/01/16 02:42:51","addressesInput":["DdzFFzCqrhsuWALqaZ7cRjZGHFPUqmDCkPcyTAUWtbaZjg5S2wnYm1gM7ifkzENXKcCiwc9qnq2kUVzgoV9jPnnjcYPjTzypa7exvUaK","DdzFFzCqrht9AksMVK3c3bhoq4X13h22ukuB7G6WMWn2XJgCE3M8WiXg2CzveQZw6mvu9KCxUKrUcduFiK3i2rTcetzNfmUonv4VGobN","DdzFFzCqrhswCMzGfMeSzKoJAR97Ks8YpdB1Bq3yiaqnUKDHaXquCHuTpQTgBFp89fefJjUv3W7MwTMrbnn8ok3wNxMiAcb6QiZi4RyP","DdzFFzCqrhss26nyVvr32Xp9RBhDMikRk9uVCVMVwHCNMNp8jf3YssaiNZSW3NdDcfTyQzoTs3HPbP4JrxddWuijuiBXekFe3BMkR2u4","DdzFFzCqrhsrcr8oHFzTkzNiCEpJWeUMRFfzCu1LqMucyDLQZZKBmviq5YdC8Jyd93ja3GR5kVhfEhTH5VujqR6K2746eTWte1D1UGod"],"addressesOutput":["addr1q9atjfpqwdtg7ytz0pz9zcaqvx8zr2uv6ysvc4csqynr683dzefudzxhadht99nh8gv4l3z93d486ygllgxuh2drrrpsdw6fws","DdzFFzCqrhsrwFPxkz5aWXDR2n1sJNGDuzLpUBw1oBZFvoUoFdXPQrZKGUpckGJ7rfSxcTC3wn1883mQmNwCt2et8K8m6BPUBpVS63F6","DdzFFzCqrht9QGYBcGE8iX8JD7ZouCPHN9z1SQTngjt4yvVirs7ub33TkUmmahkzevKKuRQtBZUU2W9LepZiE6LiAP7MEwd9KbtYZmd3","DdzFFzCqrhsptVGyTvNxpWqE59CXT29sqw6CNfu9kVtBNX9uDd4T5TBPXFTsYnwFUofJD88wkhbPJMBmwkxnmNrSk9SzxGW1hQ9vuXa1","DdzFFzCqrhsfPsmFmXq18NaFNSDDC3ExEoRQYnQ5TdHVoqMm8BiFfznkGbtcDM4xvE3PRtJfCoeEkW9ru7afzyNxu5AZob2QsWuVksS1"],"fee":953761,"totalOutput":55990596131,"tokens":[]},{"hash":"47533ec868c508da9ce6faf1927f8c35f923c63d5d0b76286d4ef40998362a54","blockNo":8275438,"blockHash":"fcdad511f6119c592d4f03e746851c696f25dbdb1fbb7d6ab001004860e9ca78","epochNo":388,"epochSlotNo":12579,"slot":82265379,"time":"2023/01/16 01:14:30","addressesInput":["addr1q9smyhzcf8xy7f7x0t0yec2avfk6pe4jkqu8dgyrvy94jwdnzfzekz7vqkwd9ljq7mpmzzmvxwwnqrulntc0gw6wzkpqvm2qm3","addr1q84ctg97nv45ndzq27lnkjztt8shkhmm0a6lfy905a8hw3dnzfzekz7vqkwd9ljq7mpmzzmvxwwnqrulntc0gw6wzkpq22r57y","addr1q9azd3t778turdrg4p734c2vplzddauntsrxcumyu6jujmdnzfzekz7vqkwd9ljq7mpmzzmvxwwnqrulntc0gw6wzkpqye9rfe"],"addressesOutput":["addr1q9zg7xmzpuaa80r3gd827dphx8m7ewf200m49yzq0hhu0rtkjyd6gen5qdlkzmgn27vuepltesmk2r8fz4ulz0kymjlsa2hsd7","addr1q8jgxqwcfc2qtqdvj8j4h9cljkppgdu5vq0jm7xyysmr7qdnzfzekz7vqkwd9ljq7mpmzzmvxwwnqrulntc0gw6wzkpquf6n63","addr1q8jgxqwcfc2qtqdvj8j4h9cljkppgdu5vq0jm7xyysmr7qdnzfzekz7vqkwd9ljq7mpmzzmvxwwnqrulntc0gw6wzkpquf6n63","addr1q8jgxqwcfc2qtqdvj8j4h9cljkppgdu5vq0jm7xyysmr7qdnzfzekz7vqkwd9ljq7mpmzzmvxwwnqrulntc0gw6wzkpquf6n63"],"fee":298733,"totalOutput":20234704,"tokens":[]},{"hash":"0264c60a287ba87f54cb3f48486d1e97aa60d16bdd4c96ea264252d70cabe4b8","blockNo":8275134,"blockHash":"f3eeb43d2aa2391045a83d1f46bf5da7dbbb2c1cf62e14a51ebe80103a3e2001","epochNo":388,"epochSlotNo":6376,"slot":82259176,"time":"2023/01/15 23:31:07","addressesInput":["addr1qyznv25t88ctzgvv8zpk84rh2a2r6dgwp3ru2f8yvugzyrxvs6xa7v38v6mx3jnmsa948aufl5pty77gyh726h89903qgc8nhz"],"addressesOutput":["addr1qx0s5cpjdt8x40eqmeut5p4lk47u8zxw8tnd20w03ftgyhvcrzdg6he4wh3mvckyf6el4e97gfh94zefgqye5xccyn9srhthhn","addr1q8f2welmlefszl7p833eks98jcgyyemp7ctvzfpmf3w2rw7vs6xa7v38v6mx3jnmsa948aufl5pty77gyh726h89903qeult0a"],"fee":385457,"totalOutput":27034341,"tokens":[]},{"hash":"1e523e4cfcff64969573ea487514b230293b2f666cbe94101273a273e9b8d704","blockNo":8275104,"blockHash":"6f964e586c18c0cc7b1fce1f11006bac701a2dea34a4088c4366cb2bab571847","epochNo":388,"epochSlotNo":5763,"slot":82258563,"time":"2023/01/15 23:20:54","addressesInput":["DdzFFzCqrhsuQN4PEAtuYQeTwfrudM66bUpKrPPwMpDtjNjYsEZtbj6xbQXDzsijngMhUZepjrHLQkvQh8XBLVR72y8mMajvMWhUXxyp","DdzFFzCqrhsoHor9r6659AtQGbEw2S8r9V6cEAi7bEfJGgfPycSRK6qTMR42MmVWRQz4jz7Eb71YDMRQEUT8DaZx6tLDGYTTYZQR7Eno"],"addressesOutput":["addr1q9atjfpqwdtg7ytz0pz9zcaqvx8zr2uv6ysvc4csqynr683dzefudzxhadht99nh8gv4l3z93d486ygllgxuh2drrrpsdw6fws","DdzFFzCqrhss26nyVvr32Xp9RBhDMikRk9uVCVMVwHCNMNp8jf3YssaiNZSW3NdDcfTyQzoTs3HPbP4JrxddWuijuiBXekFe3BMkR2u4"],"fee":372081,"totalOutput":1599811877,"tokens":[]},{"hash":"2ef911f3a6960440f764b9dcb3a27f44ccd204d2777865a534885fb5af797a98","blockNo":8275094,"blockHash":"8cac4ece4b38903c1d09757bd1d494ae5f5d6269c77f05a9dcda19b0b08b6cdd","epochNo":388,"epochSlotNo":5594,"slot":82258394,"time":"2023/01/15 23:18:05","addressesInput":["addr1q8307s9d8fgr0lvffu9epjgzl48xndzvkc5v840d6qt938wvs6xa7v38v6mx3jnmsa948aufl5pty77gyh726h89903qj263ku"],"addressesOutput":["addr1v8xrq0fva4den66px69rvr4c6afq4c6cgwjf6j08r3mzctgnadase","addr1qyznv25t88ctzgvv8zpk84rh2a2r6dgwp3ru2f8yvugzyrxvs6xa7v38v6mx3jnmsa948aufl5pty77gyh726h89903qgc8nhz"],"fee":384137,"totalOutput":32419798,"tokens":[]},{"hash":"10fc5dcad70f50d9f41e81ee79ad11ffb7c443086fb0a6a796514faaf1e3203a","blockNo":8275067,"blockHash":"ba7c74d14af826d9bb13db7476f3e0b055b7f887971012da42893a35688b74b3","epochNo":388,"epochSlotNo":5171,"slot":82257971,"time":"2023/01/15 23:11:02","addressesInput":["addr1qyuqwgjpuq70gpl0kczjnydyz02wpk7wkv76v49zqrqh4xkvs6xa7v38v6mx3jnmsa948aufl5pty77gyh726h89903q3775zh"],"addressesOutput":["addr1q8e8r50hrf4u8sv8xhtmp9qreshd2uezrm5w2xv38zylerjus8d9ul485lrrtv20phw6fwwl30zlplf4ph59lwd6at5s3luczv","addr1q8307s9d8fgr0lvffu9epjgzl48xndzvkc5v840d6qt938wvs6xa7v38v6mx3jnmsa948aufl5pty77gyh726h89903qj263ku"],"fee":387393,"totalOutput":33971945,"tokens":[]},{"hash":"d14259dfbde5e53e65a1fb0d52f8cd595fd9e51c6e12ed3c32429c1756dcd291","blockNo":8275057,"blockHash":"8f6a34ba6981fa4277359eca1879e1514dce78d505ce8f27ae8151ad0c3e6576","epochNo":388,"epochSlotNo":4989,"slot":82257789,"time":"2023/01/15 23:08:00","addressesInput":["addr1q90weez8ks2dtt7pcves77hqpn9cvgaakq89sfafarkseykvs6xa7v38v6mx3jnmsa948aufl5pty77gyh726h89903q6sr8cv","addr1q9tvku8lu6g9c55u4ypaqc9qaw0exjtr3mrxfnvggykkr6xvs6xa7v38v6mx3jnmsa948aufl5pty77gyh726h89903q380rkp"],"addressesOutput":["addr1wxn9efv2f6w82hagxqtn62ju4m293tqvw0uhmdl64ch8uwc0h43gt","addr1qyuqwgjpuq70gpl0kczjnydyz02wpk7wkv76v49zqrqh4xkvs6xa7v38v6mx3jnmsa948aufl5pty77gyh726h89903q3775zh"],"fee":410097,"totalOutput":38359338,"tokens":[]}],"totalItems":12990,"totalPages":650,"currentPage":0}