{"data":[{"hash":"3218357b67e5358e42a9fd1b902451ce697e8096077bf4433d5c8eef7d7cf39d","blockNo":8097934,"blockHash":"2e43be81092d0e6f22938bb20e742d2c32c6e5f94c6c18bcc55f88e4c8159afd","epochNo":379,"epochSlotNo":259172,"slot":78623972,"time":"2022/12/04 21:44:23","addressesInput":["addr1v94s0z0ldscgx9kgrdl7gq9254tn7m9yaqywfexy3y7qunqxe0ezd"],"addressesOutput":["addr1v94s0z0ldscgx9kgrdl7gq9254tn7m9yaqywfexy3y7qunqxe0ezd"],"fee":205409,"totalOutput":1673871,"tokens":[]},{"hash":"cfea410e1c3c2c4e1d1390af400c1b18ee32495787a293af8b88828f75769e34","blockNo":8097934,"blockHash":"2e43be81092d0e6f22938bb20e742d2c32c6e5f94c6c18bcc55f88e4c8159afd","epochNo":379,"epochSlotNo":259172,"slot":78623972,"time":"2022/12/04 21:44:23","addressesInput":["addr1q9g57tp65z358e3nxlhggv8nsylsdh9ldhjsr4c73vushlwq49dwf60ug2z66lcan6flmz9m5vjy3hcacx05ggayyuds9qynvf"],"addressesOutput":["addr1vxmk2ypz56nedm0dzad7hn8w74lh40aavt05pemenwr2ejq8y0vdn","addr1q9g57tp65z358e3nxlhggv8nsylsdh9ldhjsr4c73vushlwq49dwf60ug2z66lcan6flmz9m5vjy3hcacx05ggayyuds9qynvf"],"fee":167085,"totalOutput":56763733,"tokens":[]},{"hash":"04179dd4b2d8d53ed4f5aedf68739975114d9dcff4dd904eab8541a37171127e","blockNo":8097934,"blockHash":"2e43be81092d0e6f22938bb20e742d2c32c6e5f94c6c18bcc55f88e4c8159afd","epochNo":379,"epochSlotNo":259172,"slot":78623972,"time":"2022/12/04 21:44:23","addressesInput":["addr1v94yvljgqk533k8daral3kywq5rth70ersy70wmaepzduyq9wgh5k","addr1v976vnc7fsvgw0g8zn3ae5euu9er923t46a7zcz6arpntuqx009fd","addr1vy3qpx09uscywhppj5vp08hu0ekg9zwmq2ysfq6qyh2mpps865j6t","addr1vyk7vfm4079gquyhzxfnkzun05lj9pvg4sne0cd30tdtsjs6433gp"],"addressesOutput":["addr1vy3qpx09uscywhppj5vp08hu0ekg9zwmq2ysfq6qyh2mpps865j6t","addr1vyk7vfm4079gquyhzxfnkzun05lj9pvg4sne0cd30tdtsjs6433gp","addr1qyk3was3ga3an8w2r6j58gulxdng8m0j7tz8g5n5kjeqwpcwsk0txxkl2wqlmthqfcyt75kp0jnxr3v0tg6nq8vhnkyqxzc2w8","addr1v976vnc7fsvgw0g8zn3ae5euu9er923t46a7zcz6arpntuqx009fd"],"fee":192253,"totalOutput":7347529061,"tokens":[]},{"hash":"77eaebae73c51f0a37d4faa677aff7c01223c137578fb2c47aaaf6fcc1c43e77","blockNo":8097934,"blockHash":"2e43be81092d0e6f22938bb20e742d2c32c6e5f94c6c18bcc55f88e4c8159afd","epochNo":379,"epochSlotNo":259172,"slot":78623972,"time":"2022/12/04 21:44:23","addressesInput":["addr1v86nunchv0s0lq6vn866uutev7u5ulw9p5zmghhwrc2j7jcy6wxx6"],"addressesOutput":["addr1v86nunchv0s0lq6vn866uutev7u5ulw9p5zmghhwrc2j7jcy6wxx6"],"fee":207213,"totalOutput":1844477,"tokens":[]},{"hash":"72f12b886bcf48fac37b0865704e7a8d002e0bdcc4a4e3e1bfaf585506e42435","blockNo":8097934,"blockHash":"2e43be81092d0e6f22938bb20e742d2c32c6e5f94c6c18bcc55f88e4c8159afd","epochNo":379,"epochSlotNo":259172,"slot":78623972,"time":"2022/12/04 21:44:23","addressesInput":["addr1q9974t7k64u87fwv6ex7mqa072tvnl66y4u0wznld247ldh72q8d75v7qnvgtc56fmth6ymsvxunx4xedmdl3qnpgjwqsx4925","addr1q9974t7k64u87fwv6ex7mqa072tvnl66y4u0wznld247ldh72q8d75v7qnvgtc56fmth6ymsvxunx4xedmdl3qnpgjwqsx4925","addr1zxgx3far7qygq0k6epa0zcvcvrevmn0ypsnfsue94nsn3tvpw288a4x0xf8pxgcntelxmyclq83s0ykeehchz2wtspks905plm","addr1q9974t7k64u87fwv6ex7mqa072tvnl66y4u0wznld247ldh72q8d75v7qnvgtc56fmth6ymsvxunx4xedmdl3qnpgjwqsx4925","addr1q9974t7k64u87fwv6ex7mqa072tvnl66y4u0wznld247ldh72q8d75v7qnvgtc56fmth6ymsvxunx4xedmdl3qnpgjwqsx4925","addr1q9974t7k64u87fwv6ex7mqa072tvnl66y4u0wznld247ldh72q8d75v7qnvgtc56fmth6ymsvxunx4xedmdl3qnpgjwqsx4925","addr1q9974t7k64u87fwv6ex7mqa072tvnl66y4u0wznld247ldh72q8d75v7qnvgtc56fmth6ymsvxunx4xedmdl3qnpgjwqsx4925","addr1q9974t7k64u87fwv6ex7mqa072tvnl66y4u0wznld247ldh72q8d75v7qnvgtc56fmth6ymsvxunx4xedmdl3qnpgjwqsx4925","addr1q9974t7k64u87fwv6ex7mqa072tvnl66y4u0wznld247ldh72q8d75v7qnvgtc56fmth6ymsvxunx4xedmdl3qnpgjwqsx4925","addr1q9974t7k64u87fwv6ex7mqa072tvnl66y4u0wznld247ldh72q8d75v7qnvgtc56fmth6ymsvxunx4xedmdl3qnpgjwqsx4925"],"addressesOutput":["addr1q9974t7k64u87fwv6ex7mqa072tvnl66y4u0wznld247ldh72q8d75v7qnvgtc56fmth6ymsvxunx4xedmdl3qnpgjwqsx4925","addr1q9974t7k64u87fwv6ex7mqa072tvnl66y4u0wznld247ldh72q8d75v7qnvgtc56fmth6ymsvxunx4xedmdl3qnpgjwqsx4925"],"fee":580110,"totalOutput":146616550,"tokens":[]},{"hash":"59b3817562f42510f8840d77d2e6515d9c8a366e530a37297fc3c91b1019f976","blockNo":8097934,"blockHash":"2e43be81092d0e6f22938bb20e742d2c32c6e5f94c6c18bcc55f88e4c8159afd","epochNo":379,"epochSlotNo":259172,"slot":78623972,"time":"2022/12/04 21:44:23","addressesInput":["addr1vycwhrkdlufnyu07tzsdd3zpk7aad6kxtgyvrff0zjw53gsssuugd"],"addressesOutput":["addr1q8xtlx6jfx0alvdq6n9pq9ls4n57gsds6xs9cpxfh9eytys4w0ltt9q34v5ks5hh6qlf8kkc8d4wshl8nd4se4rs587swldutp","addr1q9jw47wllx297dwatkgj6mkymcjsh49fzk8u2s9srlshrzxgv4cz24hgfaknjxgemmtq8rpg9066jeyxx9xdaysdh07qsy2l96"],"fee":322757,"totalOutput":4309260,"tokens":[]},{"hash":"d384b04cbb617b4d39c60ac41f23ec2aa4c4111383a2be4bfd6a7a658c2d4974","blockNo":8097934,"blockHash":"2e43be81092d0e6f22938bb20e742d2c32c6e5f94c6c18bcc55f88e4c8159afd","epochNo":379,"epochSlotNo":259172,"slot":78623972,"time":"2022/12/04 21:44:23","addressesInput":["addr1q8rdqdasn43u2d09r9m7qmm08fu6cf2tuf3agp7w5yqlv666azeskq6yn5r4f84aq6mqsl99vfemgyyv0635ywpeuvqqkwr6xc","addr1zxgx3far7qygq0k6epa0zcvcvrevmn0ypsnfsue94nsn3tvpw288a4x0xf8pxgcntelxmyclq83s0ykeehchz2wtspks905plm"],"addressesOutput":["addr1zxgx3far7qygq0k6epa0zcvcvrevmn0ypsnfsue94nsn3tvpw288a4x0xf8pxgcntelxmyclq83s0ykeehchz2wtspks905plm","addr1q8rdqdasn43u2d09r9m7qmm08fu6cf2tuf3agp7w5yqlv666azeskq6yn5r4f84aq6mqsl99vfemgyyv0635ywpeuvqqkwr6xc"],"fee":296488,"totalOutput":4655543,"tokens":[]},{"hash":"c0bb9f14691f9bb02df0254982334fd04421798fd2fb0aa70e48119192853290","blockNo":8097934,"blockHash":"2e43be81092d0e6f22938bb20e742d2c32c6e5f94c6c18bcc55f88e4c8159afd","epochNo":379,"epochSlotNo":259172,"slot":78623972,"time":"2022/12/04 21:44:23","addressesInput":["addr1q98fwqujtv54r83k86pf2kjnwjyak9pn26wzclyw9xcee0x60fydtwvg87ts3ju3rxfya9afawcffhnhha3lx4kvtkfq8yyeee"],"addressesOutput":["addr1vxmk2ypz56nedm0dzad7hn8w74lh40aavt05pemenwr2ejq8y0vdn","addr1q9fq20psdca2qk7gu8jg7mstuk7fg8px4slg53g3m3d0x9760fydtwvg87ts3ju3rxfya9afawcffhnhha3lx4kvtkfq4kh25h"],"fee":167085,"totalOutput":60027333,"tokens":[]},{"hash":"1a914138ae180ae65dd8234dd32e8fc8618d3ebaa86da8723f2db2940a17015f","blockNo":8097934,"blockHash":"2e43be81092d0e6f22938bb20e742d2c32c6e5f94c6c18bcc55f88e4c8159afd","epochNo":379,"epochSlotNo":259172,"slot":78623972,"time":"2022/12/04 21:44:23","addressesInput":["addr1qy8xx0ha3kz7wqva5p0fwkjar8h8y9hqy4tst3u87rqvar3kxqmay6me4vt2x4k0tcsm5ddyrcsy8r8udh4a3rz6wj3qaw7f5s"],"addressesOutput":["addr1qxa286jwr9uprc59c5unnspqxwzdnzpntr0ktakw9prxewcy4ypwygdmx5ez3c663008rrcvelc7p9rzar259kn5x3zqv9kkn7","addr1qy8xx0ha3kz7wqva5p0fwkjar8h8y9hqy4tst3u87rqvar3kxqmay6me4vt2x4k0tcsm5ddyrcsy8r8udh4a3rz6wj3qaw7f5s"],"fee":168317,"totalOutput":1499663366,"tokens":[]},{"hash":"8473ef2f04a9acf86b14a8eb46fa44c5297509a9f1bf74090b35a930df8c2e2d","blockNo":8097934,"blockHash":"2e43be81092d0e6f22938bb20e742d2c32c6e5f94c6c18bcc55f88e4c8159afd","epochNo":379,"epochSlotNo":259172,"slot":78623972,"time":"2022/12/04 21:44:23","addressesInput":["addr1qxzyga20fw0fuqt4lgat8642lzdhgqtju8m4cpxcvx89l5eunulk27xfpydjdctxu34tdsl5pmma3p9fjxnq2vfj0e6smuphtz","addr1qxzyga20fw0fuqt4lgat8642lzdhgqtju8m4cpxcvx89l5eunulk27xfpydjdctxu34tdsl5pmma3p9fjxnq2vfj0e6smuphtz","addr1qxzyga20fw0fuqt4lgat8642lzdhgqtju8m4cpxcvx89l5eunulk27xfpydjdctxu34tdsl5pmma3p9fjxnq2vfj0e6smuphtz"],"addressesOutput":["addr1zxgx3far7qygq0k6epa0zcvcvrevmn0ypsnfsue94nsn3tvpw288a4x0xf8pxgcntelxmyclq83s0ykeehchz2wtspks905plm","addr1qxzyga20fw0fuqt4lgat8642lzdhgqtju8m4cpxcvx89l5eunulk27xfpydjdctxu34tdsl5pmma3p9fjxnq2vfj0e6smuphtz","addr1qxzyga20fw0fuqt4lgat8642lzdhgqtju8m4cpxcvx89l5eunulk27xfpydjdctxu34tdsl5pmma3p9fjxnq2vfj0e6smuphtz"],"fee":232557,"totalOutput":5538238,"tokens":[]},{"hash":"6319a7a7ef2033ee571f00a1dff513f6f5092cb1373192949a55bd5b12a07e95","blockNo":8097934,"blockHash":"2e43be81092d0e6f22938bb20e742d2c32c6e5f94c6c18bcc55f88e4c8159afd","epochNo":379,"epochSlotNo":259172,"slot":78623972,"time":"2022/12/04 21:44:23","addressesInput":["addr1q8mv732d0q7vzqcx6hw6waqsxhxcncurjsuyye6k3gmwh3fglqsfmysp3zzxckzy55mtthfy0kgwy5myaz585xklqghsfvq4ed","addr1q8mv732d0q7vzqcx6hw6waqsxhxcncurjsuyye6k3gmwh3fglqsfmysp3zzxckzy55mtthfy0kgwy5myaz585xklqghsfvq4ed"],"addressesOutput":["addr1zxgx3far7qygq0k6epa0zcvcvrevmn0ypsnfsue94nsn3tvpw288a4x0xf8pxgcntelxmyclq83s0ykeehchz2wtspks905plm","addr1q8mv732d0q7vzqcx6hw6waqsxhxcncurjsuyye6k3gmwh3fglqsfmysp3zzxckzy55mtthfy0kgwy5myaz585xklqghsfvq4ed","addr1q8mv732d0q7vzqcx6hw6waqsxhxcncurjsuyye6k3gmwh3fglqsfmysp3zzxckzy55mtthfy0kgwy5myaz585xklqghsfvq4ed","addr1q8mv732d0q7vzqcx6hw6waqsxhxcncurjsuyye6k3gmwh3fglqsfmysp3zzxckzy55mtthfy0kgwy5myaz585xklqghsfvq4ed","addr1q8mv732d0q7vzqcx6hw6waqsxhxcncurjsuyye6k3gmwh3fglqsfmysp3zzxckzy55mtthfy0kgwy5myaz585xklqghsfvq4ed","addr1q8mv732d0q7vzqcx6hw6waqsxhxcncurjsuyye6k3gmwh3fglqsfmysp3zzxckzy55mtthfy0kgwy5myaz585xklqghsfvq4ed","addr1q8mv732d0q7vzqcx6hw6waqsxhxcncurjsuyye6k3gmwh3fglqsfmysp3zzxckzy55mtthfy0kgwy5myaz585xklqghsfvq4ed","addr1q8mv732d0q7vzqcx6hw6waqsxhxcncurjsuyye6k3gmwh3fglqsfmysp3zzxckzy55mtthfy0kgwy5myaz585xklqghsfvq4ed","addr1q8mv732d0q7vzqcx6hw6waqsxhxcncurjsuyye6k3gmwh3fglqsfmysp3zzxckzy55mtthfy0kgwy5myaz585xklqghsfvq4ed"],"fee":401033,"totalOutput":190159626,"tokens":[]},{"hash":"dc36680431e84ba57814966d7652f060d98b910be572f090ce1b7b3c6bc3d7d6","blockNo":8097934,"blockHash":"2e43be81092d0e6f22938bb20e742d2c32c6e5f94c6c18bcc55f88e4c8159afd","epochNo":379,"epochSlotNo":259172,"slot":78623972,"time":"2022/12/04 21:44:23","addressesInput":["addr1v8v3auqmw0eszza3ww29ea2pwftuqrqqyu26zvzjq9dt2ncydzvs5"],"addressesOutput":["addr1q9znauzh060rq466ddqvjdl4vc3x57ue9tz58qlsc9nwhuqarqcekes4ucmtwufghfc2vwm3nfgsu6kxqgkct430dfrslh2hsv","addr1v8v3auqmw0eszza3ww29ea2pwftuqrqqyu26zvzjq9dt2ncydzvs5"],"fee":171221,"totalOutput":13001381642,"tokens":[]},{"hash":"b2d1e212c57d39b3ca60151ca05c3c09a918c1a0f462b40aef57d2a61e99a806","blockNo":8097934,"blockHash":"2e43be81092d0e6f22938bb20e742d2c32c6e5f94c6c18bcc55f88e4c8159afd","epochNo":379,"epochSlotNo":259172,"slot":78623972,"time":"2022/12/04 21:44:23","addressesInput":["addr1v8v3auqmw0eszza3ww29ea2pwftuqrqqyu26zvzjq9dt2ncydzvs5"],"addressesOutput":["addr1q8ukxjj4azgzen6qxp32gknyxuasukwp68m5fwtz9a7gtalevd99t6ys9n85qvrz53dxgdempevur50hgjukytmushms2r8c5r","addr1v8v3auqmw0eszza3ww29ea2pwftuqrqqyu26zvzjq9dt2ncydzvs5"],"fee":171221,"totalOutput":5857844025,"tokens":[]},{"hash":"8eb6ce48b97f39e76fa28971ee67aec89959ac3018517cb027e15e5b51485c05","blockNo":8097934,"blockHash":"2e43be81092d0e6f22938bb20e742d2c32c6e5f94c6c18bcc55f88e4c8159afd","epochNo":379,"epochSlotNo":259172,"slot":78623972,"time":"2022/12/04 21:44:23","addressesInput":["addr1vxnnuv6z75dxsh8q5dq4j27ga2nzlsp7mxkncayvmsxxmfq6tvhqj","addr1zyq0kyrml023kwjk8zr86d5gaxrt5w8lxnah8r6m6s4jp4g3r6dxnzml343sx8jweqn4vn3fz2kj8kgu9czghx0jrsyqqktyhv","addr1vxnnuv6z75dxsh8q5dq4j27ga2nzlsp7mxkncayvmsxxmfq6tvhqj","addr1z9cy2gmar6cpn8yymll93lnd7lw96f27kn2p3eq5d4tjr7rshnr04ple6jjfc0cvcmcpcxmsh576v7j2mjk8tw890vespzvgwd","addr1vxnnuv6z75dxsh8q5dq4j27ga2nzlsp7mxkncayvmsxxmfq6tvhqj"],"addressesOutput":["addr1vxnnuv6z75dxsh8q5dq4j27ga2nzlsp7mxkncayvmsxxmfq6tvhqj","addr1vxnnuv6z75dxsh8q5dq4j27ga2nzlsp7mxkncayvmsxxmfq6tvhqj","addr1vxnnuv6z75dxsh8q5dq4j27ga2nzlsp7mxkncayvmsxxmfq6tvhqj","addr1z9cy2gmar6cpn8yymll93lnd7lw96f27kn2p3eq5d4tjr7rshnr04ple6jjfc0cvcmcpcxmsh576v7j2mjk8tw890vespzvgwd","addr1q9ydqzqajr8qv7m97uqkxlxgq96u0mcafa09su34seh6mgmpk7ylc5d0pwz23xd4zat7yze0tyqyyfwnkhvsyfkt8r0sr8weql"],"fee":676916,"totalOutput":150550916050,"tokens":[]},{"hash":"7a8b991202264c7bafd1350cf6aa2973db0400ab598ab0e593fd7cedc5bde11a","blockNo":8097934,"blockHash":"2e43be81092d0e6f22938bb20e742d2c32c6e5f94c6c18bcc55f88e4c8159afd","epochNo":379,"epochSlotNo":259172,"slot":78623972,"time":"2022/12/04 21:44:23","addressesInput":["addr1q9jc7n0pcml4vk2pzewtnqflvtax2qv8pzdjmm7354dva80ll8mkvwe96ngh6y2e4mxqnc5kf5wud3sd8zdvu4l3ud4shuq9qg","addr1qxepj5f6z6t2dccaq6dchch0n236tta7km79vnrr629prchll8mkvwe96ngh6y2e4mxqnc5kf5wud3sd8zdvu4l3ud4sggmswt"],"addressesOutput":["addr1q87k9zrel8zsqpqhue55u7356gch8a4wp7xfpg5et2nn3q72h8y4gwedd2z2nx6544nalel0zd0g0kel44c96xy3vxvqwq22c9","addr1q9wckvysafxy3t35df5rh686kp58kl2cjzkzs27agy6kyglll8mkvwe96ngh6y2e4mxqnc5kf5wud3sd8zdvu4l3ud4srs05k9"],"fee":204837,"totalOutput":9407157,"tokens":[]},{"hash":"f9ef22f9317941e99881fd2f0d472a37b5cbc312d3dad478eda1c0dae4e69287","blockNo":8097934,"blockHash":"2e43be81092d0e6f22938bb20e742d2c32c6e5f94c6c18bcc55f88e4c8159afd","epochNo":379,"epochSlotNo":259172,"slot":78623972,"time":"2022/12/04 21:44:23","addressesInput":["addr1q99rdflpxcz2j9h90zrh3fle4ffnnc5pg99f5nv74udaqntyrnwn4w3mj3s6233qc05pje5r86ksxzldw68q90clcensc5j4c2"],"addressesOutput":["addr1vxmk2ypz56nedm0dzad7hn8w74lh40aavt05pemenwr2ejq8y0vdn","addr1q99rdflpxcz2j9h90zrh3fle4ffnnc5pg99f5nv74udaqntyrnwn4w3mj3s6233qc05pje5r86ksxzldw68q90clcensc5j4c2"],"fee":167085,"totalOutput":1101874158,"tokens":[]},{"hash":"c7b5b60110e0e69a534fe61c932b835cae8213768ce7dc74729eff7335a1a0df","blockNo":8097934,"blockHash":"2e43be81092d0e6f22938bb20e742d2c32c6e5f94c6c18bcc55f88e4c8159afd","epochNo":379,"epochSlotNo":259172,"slot":78623972,"time":"2022/12/04 21:44:23","addressesInput":["addr1q8rdqdasn43u2d09r9m7qmm08fu6cf2tuf3agp7w5yqlv666azeskq6yn5r4f84aq6mqsl99vfemgyyv0635ywpeuvqqkwr6xc","addr1zxgx3far7qygq0k6epa0zcvcvrevmn0ypsnfsue94nsn3tvpw288a4x0xf8pxgcntelxmyclq83s0ykeehchz2wtspks905plm"],"addressesOutput":["addr1zxgx3far7qygq0k6epa0zcvcvrevmn0ypsnfsue94nsn3tvpw288a4x0xf8pxgcntelxmyclq83s0ykeehchz2wtspks905plm","addr1q8rdqdasn43u2d09r9m7qmm08fu6cf2tuf3agp7w5yqlv666azeskq6yn5r4f84aq6mqsl99vfemgyyv0635ywpeuvqqkwr6xc"],"fee":297442,"totalOutput":90174805,"tokens":[]},{"hash":"245b5cd1f6f3a4b0f1bdcca5c8910bbe7603ed116efd918d077f46771db9aa30","blockNo":8097934,"blockHash":"2e43be81092d0e6f22938bb20e742d2c32c6e5f94c6c18bcc55f88e4c8159afd","epochNo":379,"epochSlotNo":259172,"slot":78623972,"time":"2022/12/04 21:44:23","addressesInput":["addr1wy30zf2g4xc7v872fdweewrlj3lh2lgttelmydn0cvhyplsg3vnkq","addr1q9trscuns0yn0j6dvzghtem4scnjlw6m6hs065ynfuscslveqppgwffzzm8v83e9m7vfhj94tr7a08qlcdguhtqqs4eqgdhz5l"],"addressesOutput":["addr1q9trscuns0yn0j6dvzghtem4scnjlw6m6hs065ynfuscslveqppgwffzzm8v83e9m7vfhj94tr7a08qlcdguhtqqs4eqgdhz5l","addr1wy30zf2g4xc7v872fdweewrlj3lh2lgttelmydn0cvhyplsg3vnkq"],"fee":817437,"totalOutput":314014170,"tokens":[]},{"hash":"0b78ebb2f199c9bf26e3378ae92c35284cc3673b2116dd9dbdf9a87e3045f5d2","blockNo":8097934,"blockHash":"2e43be81092d0e6f22938bb20e742d2c32c6e5f94c6c18bcc55f88e4c8159afd","epochNo":379,"epochSlotNo":259172,"slot":78623972,"time":"2022/12/04 21:44:23","addressesInput":["addr1qyxre50kn97lvj4hs66g3jjkupjtg69u862kgwqrqxdzjmnjlrlc3rxkg4wv0rqe9l3gxy0klzk837rph5k5ng02qr5q57fpya","addr1q9wzjxa7f346p4c9gtemsytxy689suuh9js9yd7yr3hqvlnjlrlc3rxkg4wv0rqe9l3gxy0klzk837rph5k5ng02qr5qvrlmkf"],"addressesOutput":["addr1qyxkh73drretfy4tn6vm6sy8nqg8qsr430s7kd56a5lrkc3pyz5y63nkptuvmkt3sh5n9g6exg4khx2vjwr56tma0vnss389xs","addr1qx82smr8rsux0467fxku4m03rjj5dqq5wshzp9h9673lzvmjlrlc3rxkg4wv0rqe9l3gxy0klzk837rph5k5ng02qr5qtrcrz4"],"fee":176413,"totalOutput":49214839,"tokens":[]},{"hash":"3798dd283828b3c1d126d7f943ae1126cb25887abd4d9e66462f2c2c58534ff4","blockNo":8097934,"blockHash":"2e43be81092d0e6f22938bb20e742d2c32c6e5f94c6c18bcc55f88e4c8159afd","epochNo":379,"epochSlotNo":259172,"slot":78623972,"time":"2022/12/04 21:44:23","addressesInput":["addr1q9pvgdxrcya3fzdwwxam4egz3rv3val42xuckgtxc8gpkzw3wvq748fvdv72u8xsx2zxstrxmf2nl7jhk5vkv5l98t6qjv2fe6","addr1zxgx3far7qygq0k6epa0zcvcvrevmn0ypsnfsue94nsn3tvpw288a4x0xf8pxgcntelxmyclq83s0ykeehchz2wtspks905plm"],"addressesOutput":["addr1zxgx3far7qygq0k6epa0zcvcvrevmn0ypsnfsue94nsn3tvpw288a4x0xf8pxgcntelxmyclq83s0ykeehchz2wtspks905plm","addr1q9pvgdxrcya3fzdwwxam4egz3rv3val42xuckgtxc8gpkzw3wvq748fvdv72u8xsx2zxstrxmf2nl7jhk5vkv5l98t6qjv2fe6"],"fee":297530,"totalOutput":3655113,"tokens":[]}],"totalItems":56016221,"totalPages":2800812,"currentPage":0}