{"data":[{"hash":"206c5f89efa9989ea0fbe7eaa209144d61b1061cac65085c9690619eb3c577ee","blockNo":8270043,"blockHash":"5a02a81fe3473ecbb641fe2218836893681e43af2655177c65302d7b4103ac63","epochNo":387,"epochSlotNo":335440,"slot":82156240,"time":"2023/01/14 18:55:31","addressesInput":["addr1q9zr33tqzjetjtunz0v4pvjkns9r90hdv8mxnsa57pap8fnprydk5h0km6n3j3rf5pqhluux44auzgjpf6qwza3tjcas4le303","addr1q9zr33tqzjetjtunz0v4pvjkns9r90hdv8mxnsa57pap8fnprydk5h0km6n3j3rf5pqhluux44auzgjpf6qwza3tjcas4le303","addr1q8t37cj3dlhqtxpaw90v0k45jtjxzgvsdn2rqfc8hlvu2snprydk5h0km6n3j3rf5pqhluux44auzgjpf6qwza3tjcasu0a5wn","addr1q8ptns5z8chx8tslh3qce6ujexc5y06cr6ja96fp3rt5janprydk5h0km6n3j3rf5pqhluux44auzgjpf6qwza3tjcasrw6acw","addr1q9zr33tqzjetjtunz0v4pvjkns9r90hdv8mxnsa57pap8fnprydk5h0km6n3j3rf5pqhluux44auzgjpf6qwza3tjcas4le303","addr1qx4c87ae9apktzg7h4p2wmnqwyvt0qejstyxlzuqfz6p53nprydk5h0km6n3j3rf5pqhluux44auzgjpf6qwza3tjcascnp0ap"],"addressesOutput":["addr1qxaytrgrkmw6hwejcjmh4rujc0lszy77caks8s60fuj778lkfgzuun4ksjazgcwmtpnt98eg7dkhqa9ult4q3snnz30qf73mxj","addr1q8xv3stsjl5h0zmxtuwp8q5uw95mzgdzpzmezrzq0jxzxymprydk5h0km6n3j3rf5pqhluux44auzgjpf6qwza3tjcasvj0adc"],"fee":217333,"totalOutput":83559363,"tokens":[]},{"hash":"fd9abf6a07ce597546fc47b5f93a1dd92f4392e08f26f9a7cc5ee03392975ce9","blockNo":8270043,"blockHash":"5a02a81fe3473ecbb641fe2218836893681e43af2655177c65302d7b4103ac63","epochNo":387,"epochSlotNo":335440,"slot":82156240,"time":"2023/01/14 18:55:31","addressesInput":["addr1q92y9kmddsn9lcj8gutzsthlwhlktg5rwhnktv026vemuhe7wsy75xc3w27j0aw27d9ed77kx3vpwvfx9xj79273cumq5uah28","addr1q92y9kmddsn9lcj8gutzsthlwhlktg5rwhnktv026vemuhe7wsy75xc3w27j0aw27d9ed77kx3vpwvfx9xj79273cumq5uah28"],"addressesOutput":["addr1q9x6exmdygk8rceh47fpdygtwp569k5hdx4v8cnvzgs5m233mw7v07thurdcz9lglju6jpg6hc2h2fj6r9mqz4ch60pqf2jp37","addr1q9jtz5rldc40dp5vwzjwvz2m2sej4x4ku26en4nyly24d47cfgtf6vumnlg0xhqaq5n956wampwyec4upt5047danehq05getn","addr1q92y9kmddsn9lcj8gutzsthlwhlktg5rwhnktv026vemuhe7wsy75xc3w27j0aw27d9ed77kx3vpwvfx9xj79273cumq5uah28"],"fee":224301,"totalOutput":12694133,"tokens":[]},{"hash":"ddf5211cfc6e576871009d8148440e0dd46a93a1e26696c42f8bdbeaf58e2949","blockNo":8270043,"blockHash":"5a02a81fe3473ecbb641fe2218836893681e43af2655177c65302d7b4103ac63","epochNo":387,"epochSlotNo":335440,"slot":82156240,"time":"2023/01/14 18:55:31","addressesInput":["addr1zxgx3far7qygq0k6epa0zcvcvrevmn0ypsnfsue94nsn3tvpw288a4x0xf8pxgcntelxmyclq83s0ykeehchz2wtspks905plm","addr1q80ykhja4wr0tyhhhymch4wtnwvy2a62txg6vw04fmpdfvtkzhnj08k4095mz35v2f3gara6rntedq4fkq8jffp5zz8q5jrgfd"],"addressesOutput":["addr1zxgx3far7qygq0k6epa0zcvcvrevmn0ypsnfsue94nsn3tvpw288a4x0xf8pxgcntelxmyclq83s0ykeehchz2wtspks905plm","addr1qxspywhewc2zkje6mgtp2587r3h0u3x4qfwqw2usjw3mx5mkzhnj08k4095mz35v2f3gara6rntedq4fkq8jffp5zz8qvvvpeq"],"fee":321212,"totalOutput":6006268,"tokens":[]},{"hash":"0a22d2205a075e2f7235e151646ec1b3fa5dad3ce0bf0964bd118a6ee39c8ab4","blockNo":8270043,"blockHash":"5a02a81fe3473ecbb641fe2218836893681e43af2655177c65302d7b4103ac63","epochNo":387,"epochSlotNo":335440,"slot":82156240,"time":"2023/01/14 18:55:31","addressesInput":["addr1v95sf69jcfhnmknvffwmfvlvnccatqwfjcyh0nlfc6gh5scta2yzg","addr1vytrsjxyrjk2kztxkjqeqf3sanxwaewf6d296fnadn4jersawrwxw"],"addressesOutput":["addr1qy422rug5x3nyg9yehyx6pq4n0v4crwdj6q5mtqp5p4a0azsarcfzrzn7d6837d564srtwyjc7x753yq698qzx82u8vqaamn9s","addr1v9u7va2sktlnz8dp3qadpnxxlv4m03672jy6elmntlxxs7q9nnwl9"],"fee":180021,"totalOutput":1050926158,"tokens":[]},{"hash":"ad0dbaf41c37e6c3ed49a40707c2f2df1582e6cb1e6abb063c83cb4a1e81e1dd","blockNo":8270043,"blockHash":"5a02a81fe3473ecbb641fe2218836893681e43af2655177c65302d7b4103ac63","epochNo":387,"epochSlotNo":335440,"slot":82156240,"time":"2023/01/14 18:55:31","addressesInput":["addr1qyvet8vtx3zjkxcvdv3ll4k2te97l8km8nfzrz70424w7uhtvdc36kfncpaljhyrnxqhpe53p43f0lf2wgl0yzm8v92sj8zjnk","addr1q8803pnxju3rk2vsh8mgjzkxjk0kugef96km6gus0cpvtt0tvdc36kfncpaljhyrnxqhpe53p43f0lf2wgl0yzm8v92s29unsh","addr1qxfpsapqujzrh3f2vjep6j4fw3eltfq39u0zmfplly26cf8tvdc36kfncpaljhyrnxqhpe53p43f0lf2wgl0yzm8v92semfzky"],"addressesOutput":["addr1q9ddetscs6h0qy4ccrmrars2crlzv02jtwldx5k93hjamyrynkwrtmxapnusr836tvvzh09ef7r4qa5t5fmqkewf0hwq4he2e6","addr1q89j3z2mna7znldvg5hwnjq07k3mf6q70ul60r3ae4cnrnltvdc36kfncpaljhyrnxqhpe53p43f0lf2wgl0yzm8v92sahexql","addr1q89j3z2mna7znldvg5hwnjq07k3mf6q70ul60r3ae4cnrnltvdc36kfncpaljhyrnxqhpe53p43f0lf2wgl0yzm8v92sahexql","addr1q89j3z2mna7znldvg5hwnjq07k3mf6q70ul60r3ae4cnrnltvdc36kfncpaljhyrnxqhpe53p43f0lf2wgl0yzm8v92sahexql","addr1q89j3z2mna7znldvg5hwnjq07k3mf6q70ul60r3ae4cnrnltvdc36kfncpaljhyrnxqhpe53p43f0lf2wgl0yzm8v92sahexql"],"fee":188953,"totalOutput":935655475,"tokens":[]},{"hash":"2a41e206b322a4c700f09e1a261546b139ba2a348b9c0e08114c8a6f33bcade7","blockNo":8270043,"blockHash":"5a02a81fe3473ecbb641fe2218836893681e43af2655177c65302d7b4103ac63","epochNo":387,"epochSlotNo":335440,"slot":82156240,"time":"2023/01/14 18:55:31","addressesInput":["addr1qx9v0adt4hyez9y8kxf36zvcrrcv03sd0dz60jz6ewnhx6ljdfykj2lyswwch7pt2re3rmsrfcrea30cjg38g8q7wvmq2xa52t","addr1qx9v0adt4hyez9y8kxf36zvcrrcv03sd0dz60jz6ewnhx6ljdfykj2lyswwch7pt2re3rmsrfcrea30cjg38g8q7wvmq2xa52t","addr1qx9v0adt4hyez9y8kxf36zvcrrcv03sd0dz60jz6ewnhx6ljdfykj2lyswwch7pt2re3rmsrfcrea30cjg38g8q7wvmq2xa52t","addr1qx9v0adt4hyez9y8kxf36zvcrrcv03sd0dz60jz6ewnhx6ljdfykj2lyswwch7pt2re3rmsrfcrea30cjg38g8q7wvmq2xa52t","addr1zxgx3far7qygq0k6epa0zcvcvrevmn0ypsnfsue94nsn3tvpw288a4x0xf8pxgcntelxmyclq83s0ykeehchz2wtspks905plm","addr1qx9v0adt4hyez9y8kxf36zvcrrcv03sd0dz60jz6ewnhx6ljdfykj2lyswwch7pt2re3rmsrfcrea30cjg38g8q7wvmq2xa52t","addr1qx9v0adt4hyez9y8kxf36zvcrrcv03sd0dz60jz6ewnhx6ljdfykj2lyswwch7pt2re3rmsrfcrea30cjg38g8q7wvmq2xa52t"],"addressesOutput":["addr1qxznw2cchdz3drq6q8nl85sdluxqrnnf0zkjd8980wkql4gd47h5heln7s8c8za32jcj09fr59cus66mampv5c5ks73sv9g7xz","addr1q9cwvremt6n320s2e3agq0jyq82yhrk3htsu0w426xnz5us70z4w0jgvcdkkynmm8wmds66jd9kusnjfpu6raw5fqp0sr07p5w","addr1q9xn5nenthzewv9pjdaqdnahr7msmy38xdsarcfmyd0yfk8k4zkshugsdlz667xq9wg57e8w4ew3xek4nyw707apwq4sm0rf2z","addr1qx9v0adt4hyez9y8kxf36zvcrrcv03sd0dz60jz6ewnhx6ljdfykj2lyswwch7pt2re3rmsrfcrea30cjg38g8q7wvmq2xa52t","addr1qx9v0adt4hyez9y8kxf36zvcrrcv03sd0dz60jz6ewnhx6ljdfykj2lyswwch7pt2re3rmsrfcrea30cjg38g8q7wvmq2xa52t","addr1qx9v0adt4hyez9y8kxf36zvcrrcv03sd0dz60jz6ewnhx6ljdfykj2lyswwch7pt2re3rmsrfcrea30cjg38g8q7wvmq2xa52t","addr1qx9v0adt4hyez9y8kxf36zvcrrcv03sd0dz60jz6ewnhx6ljdfykj2lyswwch7pt2re3rmsrfcrea30cjg38g8q7wvmq2xa52t","addr1qx9v0adt4hyez9y8kxf36zvcrrcv03sd0dz60jz6ewnhx6ljdfykj2lyswwch7pt2re3rmsrfcrea30cjg38g8q7wvmq2xa52t"],"fee":644305,"totalOutput":217896097,"tokens":[]},{"hash":"0bb7fc64c3490c2378e7f270e66b858577188b2c54b9cedc1449c43eb87eebac","blockNo":8270043,"blockHash":"5a02a81fe3473ecbb641fe2218836893681e43af2655177c65302d7b4103ac63","epochNo":387,"epochSlotNo":335440,"slot":82156240,"time":"2023/01/14 18:55:31","addressesInput":["addr1q9y5sn7dwf54sckv6rddsk7xsvwqktstzfdlgkfx7hyyvacjq7anacq02wrer75ht09hatvjczq93axx8wmwtrgyfxpq6vft89","addr1q9y5sn7dwf54sckv6rddsk7xsvwqktstzfdlgkfx7hyyvacjq7anacq02wrer75ht09hatvjczq93axx8wmwtrgyfxpq6vft89"],"addressesOutput":["addr1zxgx3far7qygq0k6epa0zcvcvrevmn0ypsnfsue94nsn3tvpw288a4x0xf8pxgcntelxmyclq83s0ykeehchz2wtspks905plm","addr1q9y5sn7dwf54sckv6rddsk7xsvwqktstzfdlgkfx7hyyvacjq7anacq02wrer75ht09hatvjczq93axx8wmwtrgyfxpq6vft89","addr1q9y5sn7dwf54sckv6rddsk7xsvwqktstzfdlgkfx7hyyvacjq7anacq02wrer75ht09hatvjczq93axx8wmwtrgyfxpq6vft89"],"fee":249365,"totalOutput":133941060,"tokens":[]},{"hash":"cdc6e7d783eeadac81e87bdd20c62807cadf0178c72cd159a93be5b1042a04af","blockNo":8270043,"blockHash":"5a02a81fe3473ecbb641fe2218836893681e43af2655177c65302d7b4103ac63","epochNo":387,"epochSlotNo":335440,"slot":82156240,"time":"2023/01/14 18:55:31","addressesInput":["addr1q8j95tn98gnr8pvpykzeaqd5pkmt7c55cs07slhsd7m3etvvk9ney8pgspgzm28q587uj9d9gs2jgms9ds252dhg3ynqte95z8"],"addressesOutput":["addr1q8j95tn98gnr8pvpykzeaqd5pkmt7c55cs07slhsd7m3etvvk9ney8pgspgzm28q587uj9d9gs2jgms9ds252dhg3ynqte95z8","addr1q9cwvremt6n320s2e3agq0jyq82yhrk3htsu0w426xnz5us70z4w0jgvcdkkynmm8wmds66jd9kusnjfpu6raw5fqp0sr07p5w","addr1q8j95tn98gnr8pvpykzeaqd5pkmt7c55cs07slhsd7m3etvvk9ney8pgspgzm28q587uj9d9gs2jgms9ds252dhg3ynqte95z8"],"fee":204309,"totalOutput":82788284,"tokens":[]},{"hash":"783bc175261580b0a7deff673dec49ae2ca6d0ba4c53d0e4b2f3c56c08ab1b10","blockNo":8270043,"blockHash":"5a02a81fe3473ecbb641fe2218836893681e43af2655177c65302d7b4103ac63","epochNo":387,"epochSlotNo":335440,"slot":82156240,"time":"2023/01/14 18:55:31","addressesInput":["addr1qyje8gnfuum0xz9azcqk553tvlpw6jkkyceuzl5ka56e52v74tnfv80r5cmy0q8c9d2pcdez7pdn4fw83s2ezv3ru7ds4mzxum","addr1qyje8gnfuum0xz9azcqk553tvlpw6jkkyceuzl5ka56e52v74tnfv80r5cmy0q8c9d2pcdez7pdn4fw83s2ezv3ru7ds4mzxum"],"addressesOutput":["addr1zxgx3far7qygq0k6epa0zcvcvrevmn0ypsnfsue94nsn3tvpw288a4x0xf8pxgcntelxmyclq83s0ykeehchz2wtspks905plm","addr1qyje8gnfuum0xz9azcqk553tvlpw6jkkyceuzl5ka56e52v74tnfv80r5cmy0q8c9d2pcdez7pdn4fw83s2ezv3ru7ds4mzxum","addr1qyje8gnfuum0xz9azcqk553tvlpw6jkkyceuzl5ka56e52v74tnfv80r5cmy0q8c9d2pcdez7pdn4fw83s2ezv3ru7ds4mzxum"],"fee":248573,"totalOutput":133554629,"tokens":[]},{"hash":"ac88ce427d17e12af712b803d01b71e2b98ac19d2aba4ffb996f84a19244f7e0","blockNo":8270043,"blockHash":"5a02a81fe3473ecbb641fe2218836893681e43af2655177c65302d7b4103ac63","epochNo":387,"epochSlotNo":335440,"slot":82156240,"time":"2023/01/14 18:55:31","addressesInput":["addr1wy30zf2g4xc7v872fdweewrlj3lh2lgttelmydn0cvhyplsg3vnkq","addr1qy7p8hdchaclvrgcxrmmjaejt347u5rlzels260d8mw356ksfd85m55wgyfn4dq9cw2dmmatgqe72laemw34y8lemmnq9ap9qa"],"addressesOutput":["addr1qy7p8hdchaclvrgcxrmmjaejt347u5rlzels260d8mw356ksfd85m55wgyfn4dq9cw2dmmatgqe72laemw34y8lemmnq9ap9qa","addr1wy30zf2g4xc7v872fdweewrlj3lh2lgttelmydn0cvhyplsg3vnkq"],"fee":817261,"totalOutput":232736415,"tokens":[]},{"hash":"b2c2c70cbc03b0e64172299cf536e42d7c45dfcca6befce1d91f615e6a16edd3","blockNo":8270043,"blockHash":"5a02a81fe3473ecbb641fe2218836893681e43af2655177c65302d7b4103ac63","epochNo":387,"epochSlotNo":335440,"slot":82156240,"time":"2023/01/14 18:55:31","addressesInput":["addr1qyq5h2ajpsjtw09dswtv6xlx05tntmjwn4jka0gmt8e7df32xpqgmmk2uasfap59kmw24csl2nycpdrq57qujhd2dq8sm9hszc","addr1wxdct40gvyv525zlq79wahkuhmgadjs3q5lkrclemxvlu3qyda7l2"],"addressesOutput":["addr1qxkmr0m22xeqludcg5rjdmecjxasu9fat0680qehtcsnftaadgykewa9ufvegeuca9yyq03d9v7ea2y2zthgu7hfgjtsddp6gr","addr1qyq5h2ajpsjtw09dswtv6xlx05tntmjwn4jka0gmt8e7df32xpqgmmk2uasfap59kmw24csl2nycpdrq57qujhd2dq8sm9hszc","addr1qyq5h2ajpsjtw09dswtv6xlx05tntmjwn4jka0gmt8e7df32xpqgmmk2uasfap59kmw24csl2nycpdrq57qujhd2dq8sm9hszc"],"fee":345763,"totalOutput":19625186,"tokens":[]},{"hash":"e4d35ba32d74822798f00bec141a52bd5ef2cc03f70efeb6401167c85ef6a273","blockNo":8270043,"blockHash":"5a02a81fe3473ecbb641fe2218836893681e43af2655177c65302d7b4103ac63","epochNo":387,"epochSlotNo":335440,"slot":82156240,"time":"2023/01/14 18:55:31","addressesInput":["addr1vy4nmtfc4jfftgqg369hs2ku6kvcncgzhkemq6mh0u3zgpslf59wr","addr1vy4nmtfc4jfftgqg369hs2ku6kvcncgzhkemq6mh0u3zgpslf59wr","addr1vy4nmtfc4jfftgqg369hs2ku6kvcncgzhkemq6mh0u3zgpslf59wr","addr1vy4nmtfc4jfftgqg369hs2ku6kvcncgzhkemq6mh0u3zgpslf59wr","addr1vy4nmtfc4jfftgqg369hs2ku6kvcncgzhkemq6mh0u3zgpslf59wr"],"addressesOutput":["addr1q9de8wdnpknqajwlkekr2tt2f2a4vex2y2tr4u0k72267tynfg24hvyw8ye6xnmnry43gsu597gpwhrv9ceurq3vt7uqk8meaq","addr1vyk4lhukgcgn0efq9ema0etr85r67eu7vt7ysfhdwkdqyngstptxq","addr1q8euqq6w82nsdapke6m929qr9v0a2ttl06hda30ndplkecn0ftzyzs3t2m52239we9zzzp55e4s8xx3p379xzstfftvsm027j7","addr1q8vrvvfzp4dfue9fyqz9u8gzt2yyxrwdsuc7z546q6l54ak7jlvqlwpjvzkuy3h7e4zven605ssuz4g55r4yrdvzafjsqujtxx","addr1q9vkd0eym9wgds9qw468gxm90ke7hcfzlhl02udsxp3y2p6ev6ljfk2usmq2qat5wsdk2ldna0sj9l0774cmqvrzg5rs9t6896","addr1q9d6qx9vevr0xg9pjtv85ssz93scf3mt6f7u72d2lqwzsdxfeqzunfuzdvas294dmd6d265aep7u87eg8ypwx4flq84qg23adm","addr1qxquytnger2lwmjhpeg4unryxlfzuqm4h8q7ew8vj609yh2rz94gk354qfzqyjljahxes0lfhqdd6vsfa4sffpeawxes2edp6e","addr1qynk2fj2qqaszyevtq9dun7ewgr7w8aasgth9a8fgspndqpgvmq0c8wad2k9rk6l5t9tgdmr5lwq7c4fcyqgvamfv3yq0d3m45","addr1vy4nmtfc4jfftgqg369hs2ku6kvcncgzhkemq6mh0u3zgpslf59wr"],"fee":202650,"totalOutput":413741502307,"tokens":[]},{"hash":"9d3d721c79f2a17ae17095a41f5efbcc2c7636d85c7dac3ee326e1b3c897da24","blockNo":8270043,"blockHash":"5a02a81fe3473ecbb641fe2218836893681e43af2655177c65302d7b4103ac63","epochNo":387,"epochSlotNo":335440,"slot":82156240,"time":"2023/01/14 18:55:31","addressesInput":["addr1zxgx3far7qygq0k6epa0zcvcvrevmn0ypsnfsue94nsn3tvpw288a4x0xf8pxgcntelxmyclq83s0ykeehchz2wtspks905plm","addr1qxspywhewc2zkje6mgtp2587r3h0u3x4qfwqw2usjw3mx5mkzhnj08k4095mz35v2f3gara6rntedq4fkq8jffp5zz8qvvvpeq"],"addressesOutput":["addr1zxgx3far7qygq0k6epa0zcvcvrevmn0ypsnfsue94nsn3tvpw288a4x0xf8pxgcntelxmyclq83s0ykeehchz2wtspks905plm","addr1qxspywhewc2zkje6mgtp2587r3h0u3x4qfwqw2usjw3mx5mkzhnj08k4095mz35v2f3gara6rntedq4fkq8jffp5zz8qvvvpeq"],"fee":321520,"totalOutput":9122514,"tokens":[]},{"hash":"5c30ffc352b33a96293151613bfcd81aa7623ba0e48b2a3416a6e6ff1d5a14ec","blockNo":8270043,"blockHash":"5a02a81fe3473ecbb641fe2218836893681e43af2655177c65302d7b4103ac63","epochNo":387,"epochSlotNo":335440,"slot":82156240,"time":"2023/01/14 18:55:31","addressesInput":["addr1qxkmr0m22xeqludcg5rjdmecjxasu9fat0680qehtcsnftaadgykewa9ufvegeuca9yyq03d9v7ea2y2zthgu7hfgjtsddp6gr","addr1qxkmr0m22xeqludcg5rjdmecjxasu9fat0680qehtcsnftaadgykewa9ufvegeuca9yyq03d9v7ea2y2zthgu7hfgjtsddp6gr","addr1qxkmr0m22xeqludcg5rjdmecjxasu9fat0680qehtcsnftaadgykewa9ufvegeuca9yyq03d9v7ea2y2zthgu7hfgjtsddp6gr"],"addressesOutput":["addr1qxkmr0m22xeqludcg5rjdmecjxasu9fat0680qehtcsnftaadgykewa9ufvegeuca9yyq03d9v7ea2y2zthgu7hfgjtsddp6gr","addr1qylcuml2tugd0f8cr4e3ppwrpw6jdset7y8rax76hfldllsep9h2lgsvvkfvva5yx0n39rccwaj8vc8j52fvs4kzcsjsvqhq7u","addr1qxkmr0m22xeqludcg5rjdmecjxasu9fat0680qehtcsnftaadgykewa9ufvegeuca9yyq03d9v7ea2y2zthgu7hfgjtsddp6gr"],"fee":247165,"totalOutput":105639171541,"tokens":[]},{"hash":"3bb3bce5fa13930514b564f03f6eaa4d035305f8e88a534c922b5aa8b1047763","blockNo":8270043,"blockHash":"5a02a81fe3473ecbb641fe2218836893681e43af2655177c65302d7b4103ac63","epochNo":387,"epochSlotNo":335440,"slot":82156240,"time":"2023/01/14 18:55:31","addressesInput":["addr1q97vu5c77ry26zsysymhd563rpvzd0vmcwjfc3v30qjctq34s2vueu0mqzll55kv93vdamsduz0v2tljj6n4e6uyfy2shlqdpl","addr1qxjr4jfdpgqkxw5fhg9qp4gg8fehq2kf7vzj24se8tzhukf4s2vueu0mqzll55kv93vdamsduz0v2tljj6n4e6uyfy2sm0lgr9"],"addressesOutput":["DdzFFzCqrht1RNZWeN8Lr9EgQGArbHkeGLtYtPijZFzNwXjR5PoUfGVJwu44C18VsxZxYfH5h8Crwxb5MGiHktQcJoayeyBpKfBDArUT"],"fee":500000,"totalOutput":3975000000,"tokens":[]},{"hash":"484e188db8bba94ac5c940f93b3462d946ffad6c22aaf06296993125c9afbaa1","blockNo":8270043,"blockHash":"5a02a81fe3473ecbb641fe2218836893681e43af2655177c65302d7b4103ac63","epochNo":387,"epochSlotNo":335440,"slot":82156240,"time":"2023/01/14 18:55:31","addressesInput":["addr1qyua7n9nq8y6anlgeepewmyajkggfuw0ewyp8n2zpz2y4g0hrxetcszc0a04salgycu8a5swxhhatk6fea62kec458nsv0a3ry","addr1qyfvqcdaqh7lpq57hz4v9lcc99g4523mqtepnzt5qf2tfd0hrxetcszc0a04salgycu8a5swxhhatk6fea62kec458ns7xg5m7"],"addressesOutput":["DdzFFzCqrhsoT7VgHfKPTgV9YqxLKZ31Byt4b4kPMKe5BZheELjJJxF5kaBsdt12o6oEci7SPkgUZ7pMXApnnt1oaXwBFqSYh4cbLSSJ","addr1q8c8zpj024vwettnjmp3nqgel73j72v40q8ucj76mfgc6phhrxetcszc0a04salgycu8a5swxhhatk6fea62kec458nsflkvm4","addr1q8c8zpj024vwettnjmp3nqgel73j72v40q8ucj76mfgc6phhrxetcszc0a04salgycu8a5swxhhatk6fea62kec458nsflkvm4","addr1q8c8zpj024vwettnjmp3nqgel73j72v40q8ucj76mfgc6phhrxetcszc0a04salgycu8a5swxhhatk6fea62kec458nsflkvm4"],"fee":180901,"totalOutput":55644798,"tokens":[]},{"hash":"8b41625b316ad34816de403f1c547f60a7ce5c4d6e4dd7fc5f32b855364d22fa","blockNo":8270043,"blockHash":"5a02a81fe3473ecbb641fe2218836893681e43af2655177c65302d7b4103ac63","epochNo":387,"epochSlotNo":335440,"slot":82156240,"time":"2023/01/14 18:55:31","addressesInput":["addr1q8zuyefa3x0fq4adax7jhd0d54vqykd7fh8dcfzer6hc8q0qeuuvxvn2qn5tsa2ecclgum8lh27lxjwvfm88u7zz3tsq4x27z9"],"addressesOutput":["addr1q8zuyefa3x0fq4adax7jhd0d54vqykd7fh8dcfzer6hc8q0qeuuvxvn2qn5tsa2ecclgum8lh27lxjwvfm88u7zz3tsq4x27z9"],"fee":175005,"totalOutput":2233957,"tokens":[]},{"hash":"7911850830c2eb8260789c0864b628b709b8b468a8a7f6d3af6a18c1d5be42dc","blockNo":8270043,"blockHash":"5a02a81fe3473ecbb641fe2218836893681e43af2655177c65302d7b4103ac63","epochNo":387,"epochSlotNo":335440,"slot":82156240,"time":"2023/01/14 18:55:31","addressesInput":["addr1qxnnk3jfjz6uyekqt2qvua5yrmcny6qerd49a7h6w0q2quphxh2325nqpw9dkptrgvju86y52pg5c7yud9vwqx6m2t2qxu0qpa","addr1zxgx3far7qygq0k6epa0zcvcvrevmn0ypsnfsue94nsn3tvpw288a4x0xf8pxgcntelxmyclq83s0ykeehchz2wtspks905plm","addr1qxnnk3jfjz6uyekqt2qvua5yrmcny6qerd49a7h6w0q2quphxh2325nqpw9dkptrgvju86y52pg5c7yud9vwqx6m2t2qxu0qpa"],"addressesOutput":["addr1qxnnk3jfjz6uyekqt2qvua5yrmcny6qerd49a7h6w0q2quphxh2325nqpw9dkptrgvju86y52pg5c7yud9vwqx6m2t2qxu0qpa","addr1qxnnk3jfjz6uyekqt2qvua5yrmcny6qerd49a7h6w0q2quphxh2325nqpw9dkptrgvju86y52pg5c7yud9vwqx6m2t2qxu0qpa","addr1qxnnk3jfjz6uyekqt2qvua5yrmcny6qerd49a7h6w0q2quphxh2325nqpw9dkptrgvju86y52pg5c7yud9vwqx6m2t2qxu0qpa","addr1qxnnk3jfjz6uyekqt2qvua5yrmcny6qerd49a7h6w0q2quphxh2325nqpw9dkptrgvju86y52pg5c7yud9vwqx6m2t2qxu0qpa"],"fee":286252,"totalOutput":7437966879,"tokens":[]},{"hash":"3236fbcd8385eb7609fba5945d17f9671932dc1903e30c65a9dc988f3daea038","blockNo":8270043,"blockHash":"5a02a81fe3473ecbb641fe2218836893681e43af2655177c65302d7b4103ac63","epochNo":387,"epochSlotNo":335440,"slot":82156240,"time":"2023/01/14 18:55:31","addressesInput":["addr1qyx2qcfcsxqtpwtnulfrwh2qrum5ncyuhv8x4nt429dtpvaex63vtcepqvhvacmu9el7xpn3dnh89gvetyj3fd0clmus3snx2w","addr1qyx2qcfcsxqtpwtnulfrwh2qrum5ncyuhv8x4nt429dtpvaex63vtcepqvhvacmu9el7xpn3dnh89gvetyj3fd0clmus3snx2w"],"addressesOutput":["addr1zxgx3far7qygq0k6epa0zcvcvrevmn0ypsnfsue94nsn3tvpw288a4x0xf8pxgcntelxmyclq83s0ykeehchz2wtspks905plm","addr1qyx2qcfcsxqtpwtnulfrwh2qrum5ncyuhv8x4nt429dtpvaex63vtcepqvhvacmu9el7xpn3dnh89gvetyj3fd0clmus3snx2w","addr1qyx2qcfcsxqtpwtnulfrwh2qrum5ncyuhv8x4nt429dtpvaex63vtcepqvhvacmu9el7xpn3dnh89gvetyj3fd0clmus3snx2w"],"fee":227233,"totalOutput":79657962,"tokens":[]},{"hash":"7c7daf1ff4363d6ab6ae7a23ce6932b03f6b3b4f775e5afe43d21e436d58dffe","blockNo":8270043,"blockHash":"5a02a81fe3473ecbb641fe2218836893681e43af2655177c65302d7b4103ac63","epochNo":387,"epochSlotNo":335440,"slot":82156240,"time":"2023/01/14 18:55:31","addressesInput":["addr1zxgx3far7qygq0k6epa0zcvcvrevmn0ypsnfsue94nsn3tvpw288a4x0xf8pxgcntelxmyclq83s0ykeehchz2wtspks905plm","addr1qy87nx57ulw4c0wn88029zxwnsjg7wuenxkcu0l2uz4n3kv4gunlgnjgv6qwwrufklgfpvh82xjdn2lx0shvhccgwk7qa4vca5"],"addressesOutput":["addr1qy87nx57ulw4c0wn88029zxwnsjg7wuenxkcu0l2uz4n3kv4gunlgnjgv6qwwrufklgfpvh82xjdn2lx0shvhccgwk7qa4vca5","addr1qy87nx57ulw4c0wn88029zxwnsjg7wuenxkcu0l2uz4n3kv4gunlgnjgv6qwwrufklgfpvh82xjdn2lx0shvhccgwk7qa4vca5"],"fee":264203,"totalOutput":239280429,"tokens":[]}],"totalItems":59002250,"totalPages":2950113,"currentPage":0}