{"data":[{"txId":53886336,"txHash":"894bb33b032754ff9c4bd4a64c6ae68c22d187c2e20a26ce2be6f9b2bb1349ff","txTime":"2022/10/31 09:11:57","block":7953617,"epoch":372,"slotNo":75641226,"epochSlotNo":300426,"stakeKey":"stake1u9dfmcvt3gp2kq36e84l2n9eu385j5mrx2zhmr97eazv8zcq8ylzr"},{"txId":53886142,"txHash":"43df4a8fae676c9f6d8514b197b00f4a4319e5d80e95d7cc5d59879137c49784","txTime":"2022/10/31 09:06:40","block":7953601,"epoch":372,"slotNo":75640909,"epochSlotNo":300109,"stakeKey":"stake1u8exnvccad6lhqz8mt023ryn3tx7w7lkahryef43dfp79rgyxgdx2"},{"txId":53886112,"txHash":"5aa0e3714bf950271ef8abdaca7586e221e3571478ebdfdd6bf6989777f6c586","txTime":"2022/10/31 09:05:56","block":7953598,"epoch":372,"slotNo":75640865,"epochSlotNo":300065,"stakeKey":"stake1u9f7x3k3kgfv5lkrvhnn6yrrftjnzk63uxs5m0t3pn37yfcv9gq0r"},{"txId":53886034,"txHash":"0ae7f7a5fb9506c1c9b006bfef2899867479a9e2d8866549976257651214dcc1","txTime":"2022/10/31 09:04:01","block":7953593,"epoch":372,"slotNo":75640750,"epochSlotNo":299950,"stakeKey":"stake1u9rnkawv7cfxv97ng4eyr69ggpaf37rmnxmamqqvyt483rg8dfdmv"},{"txId":53885648,"txHash":"88acdfddcf6c67234ddc819741afcd5e1b9ff1b7d82955dce0c3e528a8257f1f","txTime":"2022/10/31 08:52:18","block":7953558,"epoch":372,"slotNo":75640047,"epochSlotNo":299247,"stakeKey":"stake1uxqc8vclhha3wxk3az6m9x4a4vjk8qc4dtnjges6ptkl2rg7t3hwn"},{"txId":53885290,"txHash":"b572cf9e0d447353e7a765d7ca076daf0b6f07b47a1d08b0f9f94c7314cec8ce","txTime":"2022/10/31 08:43:35","block":7953532,"epoch":372,"slotNo":75639524,"epochSlotNo":298724,"stakeKey":"stake1uxvxxz8tgva8a5lhcd8ptvryqljxpws5j458r3jllf08jlcdtx7ym"},{"txId":53885268,"txHash":"e3a13d4b2efc7e2b060111bedd4ba9f1451734711f81bae0ec1e9795df68a954","txTime":"2022/10/31 08:43:06","block":7953529,"epoch":372,"slotNo":75639495,"epochSlotNo":298695,"stakeKey":"stake1u8pnm7wfc905kpccpx0ukumlmarxnzjdzud2f62zljhmxrslx2xu7"},{"txId":53885217,"txHash":"27ad4e0ffbd4ef7b8b14a1dcf0f2eeb40c345b79f799e2934a42be8b2fe1b52f","txTime":"2022/10/31 08:42:26","block":7953526,"epoch":372,"slotNo":75639455,"epochSlotNo":298655,"stakeKey":"stake1u9hxgx2esf4gh8lwrlw334j582hcgd9q05swe3kn08dpe2cps6xjs"},{"txId":53885176,"txHash":"4a94c258df0f32eb91fcefd217f32c6e308ee2a7b4c8a70f110522e5629bafa6","txTime":"2022/10/31 08:40:42","block":7953521,"epoch":372,"slotNo":75639351,"epochSlotNo":298551,"stakeKey":"stake1uywzlxz325e4tadjf8l29unpqt3wttn33dmwd95g4pm6ahghustpu"},{"txId":53885023,"txHash":"78aa95d26405d9e7f439909c200b3691d45c37a38cc3dbdce2324a8602193832","txTime":"2022/10/31 08:36:45","block":7953504,"epoch":372,"slotNo":75639114,"epochSlotNo":298314,"stakeKey":"stake1uymf8k9jagx0ytyd4pztzntlz2f07c8nrm6yxl0yfzp4r8gtgp57j"},{"txId":53884770,"txHash":"7ca72df0d068000bab2338cac8f798be12e9df76c1f31165a3c7017aec1def78","txTime":"2022/10/31 08:29:17","block":7953473,"epoch":372,"slotNo":75638666,"epochSlotNo":297866,"stakeKey":"stake1uyarry2pmaagqzh2vwsn30ks3009cjdsjj65h4ec76xdcfq24cdp7"},{"txId":53884729,"txHash":"f273e93cb26615df5a29c7bb52c3b583adf87be2776f180897151c8d314e79b5","txTime":"2022/10/31 08:27:52","block":7953469,"epoch":372,"slotNo":75638581,"epochSlotNo":297781,"stakeKey":"stake1uxuqprxkylvlcydm8s0sn9j8g3ne6zrycz8v7u49a0xj9ug396zyy"},{"txId":53884687,"txHash":"116140dc45ab10b0b0ee22c2eed2991b11a2c203ff7ff08134d5b50ecff86a53","txTime":"2022/10/31 08:26:43","block":7953466,"epoch":372,"slotNo":75638512,"epochSlotNo":297712,"stakeKey":"stake1u9wejmfwe2kw8yz57q3n3c5fvgfpg44xxm4qhuxty2kyl6g3r7rz4"},{"txId":53884667,"txHash":"c05857a8a174a9fe08bf53b964566a9205bce57b39e8d83bc5af9fc38187580a","txTime":"2022/10/31 08:26:04","block":7953462,"epoch":372,"slotNo":75638473,"epochSlotNo":297673,"stakeKey":"stake1ux7q9cfugqc5de2v4z4dfnsj5u2xhw9pcnvr8s00rqz6cwct9dxtz"},{"txId":53884598,"txHash":"695b65bd7be287d7d86d73957c85a0a7c04a048826937de2096672f53d4c3c15","txTime":"2022/10/31 08:24:28","block":7953459,"epoch":372,"slotNo":75638377,"epochSlotNo":297577,"stakeKey":"stake1u9sr6jj7wpsyj25d5vsn47ur3e7uwy7ugv36c8ptjmgjhfqtcwhzx"},{"txId":53884567,"txHash":"d56ac382ff147a1268220e118e96d3ead446cfa602945215a849a80456e356d2","txTime":"2022/10/31 08:23:18","block":7953456,"epoch":372,"slotNo":75638307,"epochSlotNo":297507,"stakeKey":"stake1uyk4f2jfr7cdms65nagnfy6xrg04k7wh2l0l0jhfgx550uge36er6"},{"txId":53884544,"txHash":"11110f5e59ddec6d978e959b17d1bc409f54e2fda846c2e9f85aa55ef4155b1c","txTime":"2022/10/31 08:23:18","block":7953456,"epoch":372,"slotNo":75638307,"epochSlotNo":297507,"stakeKey":"stake1ux40wmkg63fzxvrl844s70dzyaus2s99ze8xyv0hw77aszsgnwykk"},{"txId":53884289,"txHash":"95dbb260a034c3cc385f30a244760806badb2c7f598f0d960f17d501baff4015","txTime":"2022/10/31 08:15:09","block":7953434,"epoch":372,"slotNo":75637818,"epochSlotNo":297018,"stakeKey":"stake1uy2xr2aqp93760xmvg2w4789v9nkjz27maqnpqyep0fuedcxf6pp3"},{"txId":53883626,"txHash":"8844cbb37d2bc0725a0d40124242e7ef9a240924dc3f5bc08409f159cb2ac25f","txTime":"2022/10/31 07:56:52","block":7953376,"epoch":372,"slotNo":75636721,"epochSlotNo":295921,"stakeKey":"stake1u890zh2wd5fueaapgjgys5k0gmp9r2a9nvxrwu0u9udrpdgezs7yq"},{"txId":53883494,"txHash":"1452daab569471250a5175759c6f41839bbe4b77aac3498b1a8995755888e545","txTime":"2022/10/31 07:53:08","block":7953367,"epoch":372,"slotNo":75636497,"epochSlotNo":295697,"stakeKey":"stake1u96g2sflykh2d0ruvag9aer4rangx86z7q9mj7fp0wlux5c093qvf"}],"totalItems":1593455,"totalPages":79673,"currentPage":0}