{"data":[{"hash":"57011158b100041f5e61f861a4d87a7b2d97812ebef8d43e411a5f53256f5cf3","blockNo":8053343,"blockHash":"ba44bbad2ff916026d426885b893eb4528ae11b03ae32c46cd290a33091586a5","epochNo":377,"epochSlotNo":204264,"slot":77705064,"time":"2022/11/24 06:29:15","addressesInput":["addr1zxgx3far7qygq0k6epa0zcvcvrevmn0ypsnfsue94nsn3tvpw288a4x0xf8pxgcntelxmyclq83s0ykeehchz2wtspks905plm","addr1q8r0tfjw5w7mvfknlsv9wtal3dtrpqq25p629nma7j8hhsfmfrv5ushzep295jyuk9ckq47ss9jccx8lzvl4x92dp4cswwpwxl"],"addressesOutput":["addr1zxgx3far7qygq0k6epa0zcvcvrevmn0ypsnfsue94nsn3tvpw288a4x0xf8pxgcntelxmyclq83s0ykeehchz2wtspks905plm","addr1q8r0tfjw5w7mvfknlsv9wtal3dtrpqq25p629nma7j8hhsfmfrv5ushzep295jyuk9ckq47ss9jccx8lzvl4x92dp4cswwpwxl"],"fee":297838,"totalOutput":12088122,"tokens":[]},{"hash":"f86819559faaeabd753daa134294c61a289bad2dc4240c2eb90a6aafc2772692","blockNo":8053343,"blockHash":"ba44bbad2ff916026d426885b893eb4528ae11b03ae32c46cd290a33091586a5","epochNo":377,"epochSlotNo":204264,"slot":77705064,"time":"2022/11/24 06:29:15","addressesInput":["addr1qyffl2mtu93xqdzd8nc887cjytyt0u2mv8qgscc4gun56xql55y695cjpekasx9llks9qk39yh9qc8jmpp4xgc2f3r6qxdzm4d"],"addressesOutput":["addr1qxrfzc0pmpgxvdcn5fqruah2kdmsk2f6cchdyf46tzgfttgl55y695cjpekasx9llks9qk39yh9qc8jmpp4xgc2f3r6q2w5lej"],"fee":171573,"totalOutput":1431632676,"tokens":[]},{"hash":"91eafecd0c2ccba65ef205090056e6e658c90c09bf42345df8080a690fcbf7cc","blockNo":8053343,"blockHash":"ba44bbad2ff916026d426885b893eb4528ae11b03ae32c46cd290a33091586a5","epochNo":377,"epochSlotNo":204264,"slot":77705064,"time":"2022/11/24 06:29:15","addressesInput":["addr1qy5qr52ggpjt5d99w5hq55ep8r878gzjt3saw4uash4ghuamartauqh3dkd5syhua8rhdxsjqhze9wy7fzh2xdjch9xq27lk8l"],"addressesOutput":["addr1qxk2ft5yzsl8sltnqh7f4d4apv7jnuep7069upnwz4k5mfamartauqh3dkd5syhua8rhdxsjqhze9wy7fzh2xdjch9xqprzd5a","addr1qxk2ft5yzsl8sltnqh7f4d4apv7jnuep7069upnwz4k5mfamartauqh3dkd5syhua8rhdxsjqhze9wy7fzh2xdjch9xqprzd5a","addr1qxk2ft5yzsl8sltnqh7f4d4apv7jnuep7069upnwz4k5mfamartauqh3dkd5syhua8rhdxsjqhze9wy7fzh2xdjch9xqprzd5a","addr1qxk2ft5yzsl8sltnqh7f4d4apv7jnuep7069upnwz4k5mfamartauqh3dkd5syhua8rhdxsjqhze9wy7fzh2xdjch9xqprzd5a"],"fee":181561,"totalOutput":9445380293,"tokens":[]},{"hash":"ae7f71678e8883f30aea1ef408481d3c2910e83caddb2443c90b23042d3b0ebd","blockNo":8053343,"blockHash":"ba44bbad2ff916026d426885b893eb4528ae11b03ae32c46cd290a33091586a5","epochNo":377,"epochSlotNo":204264,"slot":77705064,"time":"2022/11/24 06:29:15","addressesInput":["addr1qy9eelehuyuyczc3upx4qacvtjexky3h6829e6a5vf8ttycslvs79szhqud7t9lrg6gxtwcjudzjpay9cfe963y0j90ssqgzkq","addr1wypr0np3xatwhddulsnj3aaac65qg768zgs2xpd2xuaj0zscmvh0n"],"addressesOutput":["addr1wypr0np3xatwhddulsnj3aaac65qg768zgs2xpd2xuaj0zscmvh0n","addr1qy9eelehuyuyczc3upx4qacvtjexky3h6829e6a5vf8ttycslvs79szhqud7t9lrg6gxtwcjudzjpay9cfe963y0j90ssqgzkq"],"fee":331085,"totalOutput":7255021,"tokens":[]},{"hash":"db36094aa2bb61d1d3fae76bbe1f4cc9accfb855ae79fd7399d9cc4dd67d3c2c","blockNo":8053343,"blockHash":"ba44bbad2ff916026d426885b893eb4528ae11b03ae32c46cd290a33091586a5","epochNo":377,"epochSlotNo":204264,"slot":77705064,"time":"2022/11/24 06:29:15","addressesInput":["addr1qx42fzch0ptsgtm3ksyk0f92y7km0upvynlv0yswsky6jj925j93w7zhqshhrdqfv7j25fadklczcf87c7fqapvf49yqjv32cp","addr1qx42fzch0ptsgtm3ksyk0f92y7km0upvynlv0yswsky6jj925j93w7zhqshhrdqfv7j25fadklczcf87c7fqapvf49yqjv32cp"],"addressesOutput":["addr1qx42fzch0ptsgtm3ksyk0f92y7km0upvynlv0yswsky6jj925j93w7zhqshhrdqfv7j25fadklczcf87c7fqapvf49yqjv32cp","addr1qx42fzch0ptsgtm3ksyk0f92y7km0upvynlv0yswsky6jj925j93w7zhqshhrdqfv7j25fadklczcf87c7fqapvf49yqjv32cp"],"fee":233854,"totalOutput":358909014,"tokens":[]},{"hash":"0781064366c33daf87a40add6ba5ac98dbaba8a4070d8b2c85940da404c3f12a","blockNo":8053343,"blockHash":"ba44bbad2ff916026d426885b893eb4528ae11b03ae32c46cd290a33091586a5","epochNo":377,"epochSlotNo":204264,"slot":77705064,"time":"2022/11/24 06:29:15","addressesInput":["addr1q8du5zwfegf47wgem09q2nx2la8qq0jwwdyc2t8txkds40eltpjh4ztmcpqylqzjqdn4dekwxw56hl7687dyhgl59sfq3urct6","addr1q8du5zwfegf47wgem09q2nx2la8qq0jwwdyc2t8txkds40eltpjh4ztmcpqylqzjqdn4dekwxw56hl7687dyhgl59sfq3urct6","addr1q8du5zwfegf47wgem09q2nx2la8qq0jwwdyc2t8txkds40eltpjh4ztmcpqylqzjqdn4dekwxw56hl7687dyhgl59sfq3urct6"],"addressesOutput":["addr1wxn9efv2f6w82hagxqtn62ju4m293tqvw0uhmdl64ch8uwc0h43gt","addr1q8du5zwfegf47wgem09q2nx2la8qq0jwwdyc2t8txkds40eltpjh4ztmcpqylqzjqdn4dekwxw56hl7687dyhgl59sfq3urct6","addr1q8puxxkacwkf76n5xzsfrfs0z6gysf2fzskdvxm4tnzyyt3ltpjh4ztmcpqylqzjqdn4dekwxw56hl7687dyhgl59sfqxft4tg"],"fee":210997,"totalOutput":9747597,"tokens":[]},{"hash":"e48b6249fc1d7802e90c4dd935f2cc295a779c3f2d33039b245378c872163865","blockNo":8053343,"blockHash":"ba44bbad2ff916026d426885b893eb4528ae11b03ae32c46cd290a33091586a5","epochNo":377,"epochSlotNo":204264,"slot":77705064,"time":"2022/11/24 06:29:15","addressesInput":["addr1qxehtqqfkdcf67lrsa5wlgqvjwufklzxnvmr3q7f5px630rgqmxzq7jqs5hz68jqs4sz2p7kf2fd8zjra86c9aeg9qnsn8c4yg","addr1qx2vzpwd9ktpm5a5pu9ynmljz4sd3svau6078xukauyfnnrgqmxzq7jqs5hz68jqs4sz2p7kf2fd8zjra86c9aeg9qnsa4qgsv","addr1q8gr0w8t6nvv92mc22xqd38826gx4zka4pqtmmf406c866mgqmxzq7jqs5hz68jqs4sz2p7kf2fd8zjra86c9aeg9qns09hgcs"],"addressesOutput":["addr1q8u69s9ul0ue5j599kshqqg8segg990ax2547hlxv2d7ntlfy56txyggzms0tylaen92hzjyt7ukp8s3hvgl7wddgxsqaf0sxg","addr1qxk567d0y6c3vekvk9hjn5txtsqplqznkqujzn8cfv59u8rgqmxzq7jqs5hz68jqs4sz2p7kf2fd8zjra86c9aeg9qns042ypz"],"fee":205101,"totalOutput":37085066,"tokens":[]},{"hash":"85496170500055dd10e53422a05ba909e324603ed290c54d62b27fcb5561644e","blockNo":8053343,"blockHash":"ba44bbad2ff916026d426885b893eb4528ae11b03ae32c46cd290a33091586a5","epochNo":377,"epochSlotNo":204264,"slot":77705064,"time":"2022/11/24 06:29:15","addressesInput":["addr1q800h57vhlprmcmy6aqfmad5vlms4susqspqmz5vajd4678nxq832z6zq568fqrg2hpzc3c9344gssejeluxll2lwkmsya902a"],"addressesOutput":["addr1wxn9efv2f6w82hagxqtn62ju4m293tqvw0uhmdl64ch8uwc0h43gt","addr1q800h57vhlprmcmy6aqfmad5vlms4susqspqmz5vajd4678nxq832z6zq568fqrg2hpzc3c9344gssejeluxll2lwkmsya902a"],"fee":179845,"totalOutput":7335431606,"tokens":[]},{"hash":"685a68e777646288f102d29d43ce2abb30b99ee29d8df55a403dd1b4e39a9c2e","blockNo":8053343,"blockHash":"ba44bbad2ff916026d426885b893eb4528ae11b03ae32c46cd290a33091586a5","epochNo":377,"epochSlotNo":204264,"slot":77705064,"time":"2022/11/24 06:29:15","addressesInput":["addr1zxgx3far7qygq0k6epa0zcvcvrevmn0ypsnfsue94nsn3tvpw288a4x0xf8pxgcntelxmyclq83s0ykeehchz2wtspks905plm","addr1qx0cfeepdex509vm63p0whl73ut35lxqatz7g2kghh2ssl63gdq6g7cwfm39wgfzaf2mpxcg7hgfu5mt3t7u06kw03ustydg39","addr1qye24rqhgcnazd6psqrh4yc3e320zrrsqeqwxyc07c9mwqj3gdq6g7cwfm39wgfzaf2mpxcg7hgfu5mt3t7u06kw03us38xkx6"],"addressesOutput":["addr1q86ylp637q7hv7a9r387nz8d9zdhem2v06pjyg75fvcmen3rg8t4q3f80r56p93xqzhcup0w7e5heq7lnayjzqau3dfs7yrls5","addr1q9cwvremt6n320s2e3agq0jyq82yhrk3htsu0w426xnz5us70z4w0jgvcdkkynmm8wmds66jd9kusnjfpu6raw5fqp0sr07p5w","addr1q8lc0h7es2cdm4c6nvjkqfkdnzhhsfxl92xe7qe3ztkg6xle32u4p207st8ha7n3rqemlwstggvktgnys7p2grulz0tq2gseke","addr1q8jpf3esyywem04m0rajx2ttll5sf7kcrks0xf9u6ryck7z3gdq6g7cwfm39wgfzaf2mpxcg7hgfu5mt3t7u06kw03usj3knw2","addr1q8jpf3esyywem04m0rajx2ttll5sf7kcrks0xf9u6ryck7z3gdq6g7cwfm39wgfzaf2mpxcg7hgfu5mt3t7u06kw03usj3knw2","addr1q8jpf3esyywem04m0rajx2ttll5sf7kcrks0xf9u6ryck7z3gdq6g7cwfm39wgfzaf2mpxcg7hgfu5mt3t7u06kw03usj3knw2"],"fee":430984,"totalOutput":222555354,"tokens":[]},{"hash":"56190397240dc324769c7c989aeda783058711dbe24156889196acbfab6421b9","blockNo":8053343,"blockHash":"ba44bbad2ff916026d426885b893eb4528ae11b03ae32c46cd290a33091586a5","epochNo":377,"epochSlotNo":204264,"slot":77705064,"time":"2022/11/24 06:29:15","addressesInput":["addr1qy7e6ypnk0rezelwvlcz8xgmlqhvuwadvv2zlph5gj9anqlwyspsjucldp65ve0adxjs74e43sz6rx0cg5uz7l7xssrshgp8uu","addr1qy7e6ypnk0rezelwvlcz8xgmlqhvuwadvv2zlph5gj9anqlwyspsjucldp65ve0adxjs74e43sz6rx0cg5uz7l7xssrshgp8uu"],"addressesOutput":["addr1wxn9efv2f6w82hagxqtn62ju4m293tqvw0uhmdl64ch8uwc0h43gt","addr1qy7e6ypnk0rezelwvlcz8xgmlqhvuwadvv2zlph5gj9anqlwyspsjucldp65ve0adxjs74e43sz6rx0cg5uz7l7xssrshgp8uu","addr1qy7e6ypnk0rezelwvlcz8xgmlqhvuwadvv2zlph5gj9anqlwyspsjucldp65ve0adxjs74e43sz6rx0cg5uz7l7xssrshgp8uu"],"fee":249541,"totalOutput":208185896,"tokens":[]},{"hash":"5c5cedbf83432d4dc29dc4c38b4683e157cb8b805095412efbdf5d54b241e6cc","blockNo":8053343,"blockHash":"ba44bbad2ff916026d426885b893eb4528ae11b03ae32c46cd290a33091586a5","epochNo":377,"epochSlotNo":204264,"slot":77705064,"time":"2022/11/24 06:29:15","addressesInput":["addr1q8al72mswzt8zyrkfnkpcpdxunysfge0t235gn0ztt2qk92n0wcp58qknjvc8pqvkjtl796tjnulzxhk4qx4tq2fx8esk6cc5d","addr1q8al72mswzt8zyrkfnkpcpdxunysfge0t235gn0ztt2qk92n0wcp58qknjvc8pqvkjtl796tjnulzxhk4qx4tq2fx8esk6cc5d","addr1q8al72mswzt8zyrkfnkpcpdxunysfge0t235gn0ztt2qk92n0wcp58qknjvc8pqvkjtl796tjnulzxhk4qx4tq2fx8esk6cc5d","addr1q8al72mswzt8zyrkfnkpcpdxunysfge0t235gn0ztt2qk92n0wcp58qknjvc8pqvkjtl796tjnulzxhk4qx4tq2fx8esk6cc5d"],"addressesOutput":["addr1wxn9efv2f6w82hagxqtn62ju4m293tqvw0uhmdl64ch8uwc0h43gt","addr1q8al72mswzt8zyrkfnkpcpdxunysfge0t235gn0ztt2qk92n0wcp58qknjvc8pqvkjtl796tjnulzxhk4qx4tq2fx8esk6cc5d","addr1q8fq9zpklf6qnx906yd7euwlzcw7j9statpu2srvhsg9456n0wcp58qknjvc8pqvkjtl796tjnulzxhk4qx4tq2fx8esa29h0c"],"fee":196345,"totalOutput":2274712851,"tokens":[]},{"hash":"caf9f40683d78c9de84ac12dde0ea42c3504806b9ff1815030bd7f3a03e0e242","blockNo":8053343,"blockHash":"ba44bbad2ff916026d426885b893eb4528ae11b03ae32c46cd290a33091586a5","epochNo":377,"epochSlotNo":204264,"slot":77705064,"time":"2022/11/24 06:29:15","addressesInput":["addr1q94v6wdhsnsrwc9mhvhnqu88z62k27e77kgv3qznfqyl9j7pzaw6qtaltlm8e3x57vkpdhgdglsv5h3upd2mflmumupq203n9a"],"addressesOutput":["addr1q94v6wdhsnsrwc9mhvhnqu88z62k27e77kgv3qznfqyl9j7pzaw6qtaltlm8e3x57vkpdhgdglsv5h3upd2mflmumupq203n9a","addr1q9cwvremt6n320s2e3agq0jyq82yhrk3htsu0w426xnz5us70z4w0jgvcdkkynmm8wmds66jd9kusnjfpu6raw5fqp0sr07p5w","addr1q94v6wdhsnsrwc9mhvhnqu88z62k27e77kgv3qznfqyl9j7pzaw6qtaltlm8e3x57vkpdhgdglsv5h3upd2mflmumupq203n9a"],"fee":195993,"totalOutput":4804007,"tokens":[]},{"hash":"a07ca8e882e98e4ec9806be6a8d55a75c39691a0c841d2783993af87e91fda1f","blockNo":8053343,"blockHash":"ba44bbad2ff916026d426885b893eb4528ae11b03ae32c46cd290a33091586a5","epochNo":377,"epochSlotNo":204264,"slot":77705064,"time":"2022/11/24 06:29:15","addressesInput":["addr1qxdu4cs0jucd3e2ukdvxwjsu59htysgygjh6vd7tsxxqrk692hkyjces4ygav6dvlvc4vz36hwdw9helpny5zuf4mfsqyu2nac","addr1qxdu4cs0jucd3e2ukdvxwjsu59htysgygjh6vd7tsxxqrk692hkyjces4ygav6dvlvc4vz36hwdw9helpny5zuf4mfsqyu2nac"],"addressesOutput":["addr1qxdu4cs0jucd3e2ukdvxwjsu59htysgygjh6vd7tsxxqrk692hkyjces4ygav6dvlvc4vz36hwdw9helpny5zuf4mfsqyu2nac","addr1qxdu4cs0jucd3e2ukdvxwjsu59htysgygjh6vd7tsxxqrk692hkyjces4ygav6dvlvc4vz36hwdw9helpny5zuf4mfsqyu2nac"],"fee":175181,"totalOutput":8204099,"tokens":[]},{"hash":"39df0ad3f29e13a991b8485363a621d2d6f2fda29728ec707f33fb87c9232c4f","blockNo":8053343,"blockHash":"ba44bbad2ff916026d426885b893eb4528ae11b03ae32c46cd290a33091586a5","epochNo":377,"epochSlotNo":204264,"slot":77705064,"time":"2022/11/24 06:29:15","addressesInput":["addr1v9emvg0als9s8a5ytj0qchgyzln4py293c55glenrswxrtsx795ml"],"addressesOutput":["addr1q8q0mlzktcdhalj5enafmtjazvk5e0vwkpzvzanwhselh6rjl63rwanp0up5l3dr4a0yaj8yaaa4mrd6783cnrntrvesm8dscc","addr1q8q0mlzktcdhalj5enafmtjazvk5e0vwkpzvzanwhselh6rjl63rwanp0up5l3dr4a0yaj8yaaa4mrd6783cnrntrvesm8dscc"],"fee":487625,"totalOutput":5512375,"tokens":[]},{"hash":"6aa4bfd8de044f7b8b6dcbbaaf6ea3d9f9f0a4269afdc272fba0a8bd62970e5b","blockNo":8053343,"blockHash":"ba44bbad2ff916026d426885b893eb4528ae11b03ae32c46cd290a33091586a5","epochNo":377,"epochSlotNo":204264,"slot":77705064,"time":"2022/11/24 06:29:15","addressesInput":["addr1wxn9efv2f6w82hagxqtn62ju4m293tqvw0uhmdl64ch8uwc0h43gt"],"addressesOutput":["addr1q8w0cgfht0jgazd0ng0xgpepam2vssf5prmnhac8zklscwcl6y20935754664y8xy369devp8vr9d7dx8q3xj47j4w7smfumke"],"fee":517781,"totalOutput":3469065,"tokens":[]},{"hash":"5f98959d3eac1e4b4f13e875925ee94eadbf3d1a86bccb9386381c956f17a55d","blockNo":8053343,"blockHash":"ba44bbad2ff916026d426885b893eb4528ae11b03ae32c46cd290a33091586a5","epochNo":377,"epochSlotNo":204264,"slot":77705064,"time":"2022/11/24 06:29:15","addressesInput":["addr1v87ww5m3chdky27teuvld9uvva47z6f4qupp666f7qwcmggd8ey6u","addr1vy67eakxylwhx95q64vp5krd2vr979e5p6kjwuuxlxdp4agznyr7a","addr1vxhwwcegeks67vya4gfnwzrh2f9klrjyz2jk3c9ck8r54jc4w8er9","addr1v9ezz44vfdvwjr45uxfa76dsp4r7nack096ryy0wh7m7pqcnpq6cu","addr1vxvr6ma6nvw2ervzk8kl604fcj72cffyhv875lzgu8wdw9q76e2ws","addr1v9hf2dy3hxc2z80hxfx6c6jfs47hd3nux99ftyfgtxeph3c7t75qg","addr1v8partxrrefltjtx8j2dyc8rmqzafwrlzpa6eq7jullvvps3tuf38","addr1v80rrlg7g004kdv5g9jtryykkx3q6x0xpwm4u50e54tgmjsh9e85p","addr1v9k4ya3w5l4vsgq2kylttjsvp9k4xu2x5vahdkwpt70ax3gea4gfv","addr1vyc7ca9flp5gfeapd78uxzzq7l6qnsytj85n62lr5smhgssen2u2s","addr1vxtear3daay02hpg37pp8jzf3ck9pcte364atvdv37vwmgs3xsqdg"],"addressesOutput":["addr1v9hf2dy3hxc2z80hxfx6c6jfs47hd3nux99ftyfgtxeph3c7t75qg","addr1vy67eakxylwhx95q64vp5krd2vr979e5p6kjwuuxlxdp4agznyr7a","addr1v9k4ya3w5l4vsgq2kylttjsvp9k4xu2x5vahdkwpt70ax3gea4gfv","addr1vxtear3daay02hpg37pp8jzf3ck9pcte364atvdv37vwmgs3xsqdg","addr1vxhwwcegeks67vya4gfnwzrh2f9klrjyz2jk3c9ck8r54jc4w8er9","addr1v87ww5m3chdky27teuvld9uvva47z6f4qupp666f7qwcmggd8ey6u","addr1vxvr6ma6nvw2ervzk8kl604fcj72cffyhv875lzgu8wdw9q76e2ws","addr1v80rrlg7g004kdv5g9jtryykkx3q6x0xpwm4u50e54tgmjsh9e85p","addr1v8partxrrefltjtx8j2dyc8rmqzafwrlzpa6eq7jullvvps3tuf38","addr1v9ezz44vfdvwjr45uxfa76dsp4r7nack096ryy0wh7m7pqcnpq6cu","addr1q8np03nartdzz6xg70za8tr8n5wy3s96v74f7yj487wp4hl78eaayellx4tg57xxqu6l7jp98am6dh9c2ajhtsqqk0pqweulkr"],"fee":349949,"totalOutput":18947668,"tokens":[]},{"hash":"db4b6d04c9bebbdaebe299fa38050d6f46fd1684c1000092cb75886a713d8d8a","blockNo":8053343,"blockHash":"ba44bbad2ff916026d426885b893eb4528ae11b03ae32c46cd290a33091586a5","epochNo":377,"epochSlotNo":204264,"slot":77705064,"time":"2022/11/24 06:29:15","addressesInput":["addr1q9k0hha2kup70r0szj43z20h9jjql2m2kt70nz0tefey98rvj0lszqmxapjk49zp7gp3yxmvxxuzh43zpmszfxmz9chset8c6v","addr1q9k0hha2kup70r0szj43z20h9jjql2m2kt70nz0tefey98rvj0lszqmxapjk49zp7gp3yxmvxxuzh43zpmszfxmz9chset8c6v","addr1q9k0hha2kup70r0szj43z20h9jjql2m2kt70nz0tefey98rvj0lszqmxapjk49zp7gp3yxmvxxuzh43zpmszfxmz9chset8c6v"],"addressesOutput":["addr1q9ad5mud938r7l24eaac4v57ydlj72hazgprts9f7daaz09mm95jvs5h94099yglxr7v6ug6pp43780huy040lm4utmqx8g5eu","addr1wxr2a8htmzuhj39y2gq7ftkpxv98y2g67tg8zezthgq4jkg0a4ul4","addr1q9k0hha2kup70r0szj43z20h9jjql2m2kt70nz0tefey98rvj0lszqmxapjk49zp7gp3yxmvxxuzh43zpmszfxmz9chset8c6v"],"fee":229210,"totalOutput":12224333392,"tokens":[]},{"hash":"9db5530d1eb650d943b5ddac30bbf7743a6ac87f5386e5ef6753cfdc4a0005e9","blockNo":8053343,"blockHash":"ba44bbad2ff916026d426885b893eb4528ae11b03ae32c46cd290a33091586a5","epochNo":377,"epochSlotNo":204264,"slot":77705064,"time":"2022/11/24 06:29:15","addressesInput":["addr1q9qjjxm2g2v9jfsg3c9xl48lsdqwg78m0wecpsrzx3tgh9flrrmjzf0ch6psdexf24qls0gmm3tu4kv7e38dlsgqjyeqfralc2","addr1qyhcqw4ruf8023dfvpagxtj24v74u2vxc98psz20hxkfa73lrrmjzf0ch6psdexf24qls0gmm3tu4kv7e38dlsgqjyequ353cv"],"addressesOutput":["addr1q9cv8wyqqej8sm6lc8utjqkf7zh8ph7uxxrs0ukvf0m63wx5l2mm690s0czm8ta79a08vdxyau0zl2lc0lpgue2hn5nsn6lkfc","addr1qyq6ytsdslpr6wag8z95t7qz55d7xtdsfxmtv3als345y43lrrmjzf0ch6psdexf24qls0gmm3tu4kv7e38dlsgqjyeqx00ctm"],"fee":187369,"totalOutput":5111862,"tokens":[]},{"hash":"b8c3e44228628a81e4891d2af4f4a035548eb1cdd17854588e9132505dfc402f","blockNo":8053343,"blockHash":"ba44bbad2ff916026d426885b893eb4528ae11b03ae32c46cd290a33091586a5","epochNo":377,"epochSlotNo":204264,"slot":77705064,"time":"2022/11/24 06:29:15","addressesInput":["addr1qx3tnaxc3za46e0ddrh8xawq00j5n6ef8d53ltuy86ym05ks093hsdezrv4ytd9ehzgr3rqzmrmrkg6m8wenqjw39kgqt423ev","addr1qx3tnaxc3za46e0ddrh8xawq00j5n6ef8d53ltuy86ym05ks093hsdezrv4ytd9ehzgr3rqzmrmrkg6m8wenqjw39kgqt423ev","addr1qx3tnaxc3za46e0ddrh8xawq00j5n6ef8d53ltuy86ym05ks093hsdezrv4ytd9ehzgr3rqzmrmrkg6m8wenqjw39kgqt423ev","addr1qx3tnaxc3za46e0ddrh8xawq00j5n6ef8d53ltuy86ym05ks093hsdezrv4ytd9ehzgr3rqzmrmrkg6m8wenqjw39kgqt423ev"],"addressesOutput":["DdzFFzCqrhsi8nWNhhoNAB2hwKEDeoRS8jjp5bUu7hNCWp41a8fsbogMEgbC3wv49Wbx3e66bE9sTzFo5JgtjppTGMskVuDuMpDaegnF","addr1qx3tnaxc3za46e0ddrh8xawq00j5n6ef8d53ltuy86ym05ks093hsdezrv4ytd9ehzgr3rqzmrmrkg6m8wenqjw39kgqt423ev","addr1qx3tnaxc3za46e0ddrh8xawq00j5n6ef8d53ltuy86ym05ks093hsdezrv4ytd9ehzgr3rqzmrmrkg6m8wenqjw39kgqt423ev"],"fee":178657,"totalOutput":1577833910,"tokens":[]},{"hash":"2180538794e98a04c39186fee94a11df9ed783ba7d4d177305cabb3c2b73ee9e","blockNo":8053343,"blockHash":"ba44bbad2ff916026d426885b893eb4528ae11b03ae32c46cd290a33091586a5","epochNo":377,"epochSlotNo":204264,"slot":77705064,"time":"2022/11/24 06:29:15","addressesInput":["addr1qx57rwggt7sgdgw6lfrpwf0t9t8xumaj55l2u2680892vfu0jdml3dc9eandd504f5cd52mkwvrze56jwzcx5my0wp0s7097mp","addr1qx57rwggt7sgdgw6lfrpwf0t9t8xumaj55l2u2680892vfu0jdml3dc9eandd504f5cd52mkwvrze56jwzcx5my0wp0s7097mp","addr1qx57rwggt7sgdgw6lfrpwf0t9t8xumaj55l2u2680892vfu0jdml3dc9eandd504f5cd52mkwvrze56jwzcx5my0wp0s7097mp"],"addressesOutput":["addr1wxaptpmxcxawvr3pzlhgnpmzz3ql43n2tc8mn3av5kx0yzs09tqh8","addr1qx57rwggt7sgdgw6lfrpwf0t9t8xumaj55l2u2680892vfu0jdml3dc9eandd504f5cd52mkwvrze56jwzcx5my0wp0s7097mp","addr1qx57rwggt7sgdgw6lfrpwf0t9t8xumaj55l2u2680892vfu0jdml3dc9eandd504f5cd52mkwvrze56jwzcx5my0wp0s7097mp"],"fee":228289,"totalOutput":74796044,"tokens":[]}],"totalItems":55246152,"totalPages":2762308,"currentPage":0}