{"data":[{"txId":58895076,"txHash":"0297c3caa1fd2b3d8537a8dcd84259bf15c3970a99bae09bd7bd38d569cfc161","txTime":"2023/01/05 00:04:13","block":8228995,"epoch":385,"slotNo":81310762,"epochSlotNo":353962,"stakeKey":"stake1u8d5vsuxnwfkr0ddupeas7ll3fwa3ffk2sahfqsp6hhe42g7gka4f"},{"txId":58895011,"txHash":"332bccaf7e8f5166055fd0515754a8d59344fe8f9e909ad5ab367f7b16b1bc3a","txTime":"2023/01/05 00:03:25","block":8228993,"epoch":385,"slotNo":81310714,"epochSlotNo":353914,"stakeKey":"stake1u8ytq39d7vglym27ujc0qq82ju5pxmmwgnftqnjc07ext6g2xlfnq"},{"txId":58894956,"txHash":"6567410dc2642f5e69d833e95a2050fa5bcef3025c59e7a0c847131466561ad9","txTime":"2023/01/05 00:03:10","block":8228991,"epoch":385,"slotNo":81310699,"epochSlotNo":353899,"stakeKey":"stake1u9enupppe40959vp4syewqeyv8jwhh5z9xpfyvjymnlg6psrdgltq"},{"txId":58894348,"txHash":"5413cf22e7bb4630715f6b8de22538c741956a334f48273f27f653fc8e200451","txTime":"2023/01/04 23:52:50","block":8228967,"epoch":385,"slotNo":81310079,"epochSlotNo":353279,"stakeKey":"stake1u8ke9cufu86fpvhmzvfs0g05nct3zykmq24f6dxz8car66qfjkrws"},{"txId":58894266,"txHash":"2f0ded7ed5fef85b1295ca3effd5c90c67f5d5531dfd48f0940b9b3c2b574751","txTime":"2023/01/04 23:50:59","block":8228962,"epoch":385,"slotNo":81309968,"epochSlotNo":353168,"stakeKey":"stake1uyftfgn7a2c3hlfaje554ef72z8f0daht33e2qkkmdvx63ssadpxg"},{"txId":58893892,"txHash":"587aecfb39ccb424fefac7610ae831a443275a6aa5c0fdf6c18b39976adb0b4c","txTime":"2023/01/04 23:44:26","block":8228938,"epoch":385,"slotNo":81309575,"epochSlotNo":352775,"stakeKey":"stake1uygsee3ldykfa73gqy5lf52a9zj02rvaugf4kx9rz89m4qgpkszf7"},{"txId":58893200,"txHash":"406c30045b2fc8a200dcbdb423d70da59483ea6e907993e0b67bd5243788b312","txTime":"2023/01/04 23:32:09","block":8228896,"epoch":385,"slotNo":81308838,"epochSlotNo":352038,"stakeKey":"stake1ux5mu9ydk48jlq2l72qtm68xvn74u28gcxnaap6ahap3fvs4cheha"},{"txId":58893002,"txHash":"1f4c2646800712de249f9f4d6853908306ea8d07bd1611a38080384581b0493c","txTime":"2023/01/04 23:28:37","block":8228883,"epoch":385,"slotNo":81308626,"epochSlotNo":351826,"stakeKey":"stake1u9gashuhsm6fj2gaude30r29nxyd9wvj0fq0455ahkct78gyy7vys"},{"txId":58892874,"txHash":"a277e9efa6df99770cdcf72bb1f01afba4f651ce38b65511c3a01fb69671ac1f","txTime":"2023/01/04 23:26:35","block":8228876,"epoch":385,"slotNo":81308504,"epochSlotNo":351704,"stakeKey":"stake1u948agvmpztrlq3axg2x56hkmfvdzluxt84tu6kku8gfxychzlfhy"},{"txId":58892851,"txHash":"a09347d16a0173431666ec1bcfb58c1ee0f0dcb29256eae4930bb9674860fe5a","txTime":"2023/01/04 23:26:35","block":8228876,"epoch":385,"slotNo":81308504,"epochSlotNo":351704,"stakeKey":"stake1ux8kqukzjf0fj5m6fvvuu7vt0pwdch6c5k32v5fcd5g43zcfvpmlh"},{"txId":58892837,"txHash":"37f853a7d3c1a40f184980b493dd2ad2d89f862a9f19e2ad9653f61dc3bfc139","txTime":"2023/01/04 23:25:50","block":8228873,"epoch":385,"slotNo":81308459,"epochSlotNo":351659,"stakeKey":"stake1uy32s98egve5ux48jlv0aejrwjzv7fx86q68dzx6esc592gf95l90"},{"txId":58892516,"txHash":"64254b87f5ee6800e789063c0adcfd1ae45021bc0f518abd66f19ebf8eb6d7f5","txTime":"2023/01/04 23:20:02","block":8228857,"epoch":385,"slotNo":81308111,"epochSlotNo":351311,"stakeKey":"stake1u9hlpc4szj8232kxf4lcwkdgmfzp87pf4cterdmq2hfsd7g97r8kd"},{"txId":58892439,"txHash":"78662fe2acacff12707329c6acaacb92f7606569a2e90127a43a91f55ceac6d9","txTime":"2023/01/04 23:19:05","block":8228853,"epoch":385,"slotNo":81308054,"epochSlotNo":351254,"stakeKey":"stake1uxjg3f0adpemhvs7gjqlxx48d5l8dtkdewz0x5m86xk7atce403ed"},{"txId":58891847,"txHash":"759454e474f0d49b96ebde3f3cf4821e44d22a367e6b7a68e2c03b3922c2f148","txTime":"2023/01/04 23:07:11","block":8228824,"epoch":385,"slotNo":81307340,"epochSlotNo":350540,"stakeKey":"stake1uynmrwhe378vtvhnuqw8n4ql3sgq08tzeyv49pkpazz7vgsyk9hux"},{"txId":58891775,"txHash":"cc4aa315d30f6be20656aae3648cd841ab43e3e44ddc4f73791dfaf52b920d7f","txTime":"2023/01/04 23:06:31","block":8228823,"epoch":385,"slotNo":81307300,"epochSlotNo":350500,"stakeKey":"stake1u9wgmxku863ycmx99g8604v2rvxdx6uzjwg2mxz7mksak8qykfveg"},{"txId":58891739,"txHash":"34552f2605f80024b3b82f9c3f7fea37b9922ffb41b27433705b7bb9d73bbf6d","txTime":"2023/01/04 23:06:21","block":8228822,"epoch":385,"slotNo":81307290,"epochSlotNo":350490,"stakeKey":"stake1u9ge6wuwmmvatgmmpzfh4gunlgk2d93z45aven69ltrpd5g7q89l5"},{"txId":58891609,"txHash":"e2e2bbedacadfac263a9cef571fef2887f60832d21842ce03c0d6a6ecd7307f2","txTime":"2023/01/04 23:03:24","block":8228817,"epoch":385,"slotNo":81307113,"epochSlotNo":350313,"stakeKey":"stake1u85x044qqcrsux6j7al9dmxyx45l4s4pe20n00wsyge5dus68ujf3"},{"txId":58891475,"txHash":"08a0a7d9e9a162b61e04b94a6140c87c57f10566d2fab28d2f00f5ab1bdf00ba","txTime":"2023/01/04 23:00:51","block":8228810,"epoch":385,"slotNo":81306960,"epochSlotNo":350160,"stakeKey":"stake1uy6uw9p3jyj4zm6dr0c396hnts22hm974ga9n8xlkrzw25qeqq4qp"},{"txId":58891246,"txHash":"263198eb4522f5f3eee17428b13d0586577b56ecd29a7772ef71a12c1ad059b5","txTime":"2023/01/04 22:57:26","block":8228792,"epoch":385,"slotNo":81306755,"epochSlotNo":349955,"stakeKey":"stake1uyahpnn62gw2tq88q3szfsqt0qxs3u2vpmtpvkxv4ppk8fc47cc4p"},{"txId":58890981,"txHash":"f15d7d875b9aba379bfaf58ceee0cec6d527ad8a6b8e1d5f2608ce2d2b866aa5","txTime":"2023/01/04 22:53:47","block":8228783,"epoch":385,"slotNo":81306536,"epochSlotNo":349736,"stakeKey":"stake1uyavdfj4u6xu96z3r8lewdey5s8an8f3c3rvgsswsx55d6qwmlu4f"}],"totalItems":341896,"totalPages":17095,"currentPage":0}