{"data":[{"txId":60184983,"txHash":"c00018da21c3602f6fc2a30a8fc45c9d17d6c61d6db5ddcb617236127d0cabdb","txTime":"2023/01/21 01:20:55","block":8296583,"epoch":389,"slotNo":82697764,"epochSlotNo":12964,"stakeKey":"stake1u9hlh2d9ffmy2hxf6ydc4n5skah2sz964d56we745w5ukfsvgjhj6"},{"txId":60184916,"txHash":"827875aeec5ffe40ddd568820831adcfdef7fb370d3d753dd18e2ca8cd09ce16","txTime":"2023/01/21 01:19:55","block":8296579,"epoch":389,"slotNo":82697704,"epochSlotNo":12904,"stakeKey":"stake1u99lhvhz2ekrlp2aymj2n0yptu748jt28hqy45a2j5f4mqc46nqya"},{"txId":60184777,"txHash":"74bda699cfb8c337a099f540374c48561d6474df6b391d0d81c8395015e7f0d0","txTime":"2023/01/21 01:17:21","block":8296573,"epoch":389,"slotNo":82697550,"epochSlotNo":12750,"stakeKey":"stake1u9hqcq5rnjttsujl5e6jm202d3fpqr9he4vkzxfpruc9mtcugq0wx"},{"txId":60184712,"txHash":"970bd74b948dc00d7d7fd1c364fb11e01cb4e3ab933298c7db3321027dca88b3","txTime":"2023/01/21 01:15:54","block":8296567,"epoch":389,"slotNo":82697463,"epochSlotNo":12663,"stakeKey":"stake1u9zmnawvr0aspwr09ndjhs3dw34m2gae84frauhdcdsj5yqcv6feq"},{"txId":60184707,"txHash":"7d6b7479c15e3558d72b5305f12f31279e1222e76df9ca443c29d4bf4c6febb0","txTime":"2023/01/21 01:15:54","block":8296567,"epoch":389,"slotNo":82697463,"epochSlotNo":12663,"stakeKey":"stake1uy6pvuwfrczwpp50kdw3ug52qvujedg95290n7swe5vqm3sctmc3r"},{"txId":60184624,"txHash":"1d6d0bc5b3cea0a2ed9fa83192fe85a14c4ea54fb5335420f6de134d58bc2824","txTime":"2023/01/21 01:14:38","block":8296560,"epoch":389,"slotNo":82697387,"epochSlotNo":12587,"stakeKey":"stake1u9acptlzakfe5ld05dj3efj0zp9fc04ndu4ylaa3zwvwyyq0ss6du"},{"txId":60184583,"txHash":"7f29597c95f50aed81fe5ba47a6c44b43443d00e2a0dae3eafe436273f2f69a1","txTime":"2023/01/21 01:14:18","block":8296559,"epoch":389,"slotNo":82697367,"epochSlotNo":12567,"stakeKey":"stake1ux29gfgrv4muge8n9agn7nd44yx4qjv6dcpveqhlxy8smcstxlhj5"},{"txId":60184542,"txHash":"d0910991b2307b8306aba54a7f0cf319f5d46948a8386d2ae69449440f2e2225","txTime":"2023/01/21 01:14:16","block":8296558,"epoch":389,"slotNo":82697365,"epochSlotNo":12565,"stakeKey":"stake1u8j49vmpgp2978lyc5wrfsl4qhe8pxpupr47e6cl5t8az0cqw4l36"},{"txId":60184506,"txHash":"7359434c2baec905a95082735a582d7f9090fe4d6d0a091792211634a03f2bf4","txTime":"2023/01/21 01:12:27","block":8296556,"epoch":389,"slotNo":82697256,"epochSlotNo":12456,"stakeKey":"stake1u8d7dh7s5chhmxt5jvrt3vszzmh0yu9hr0kw58wslqmy8zgr86j6d"},{"txId":60184373,"txHash":"0e428f033d37694c1dbac4b62eb1242be15da73f14ceb3912639f521d23c5a08","txTime":"2023/01/21 01:10:46","block":8296552,"epoch":389,"slotNo":82697155,"epochSlotNo":12355,"stakeKey":"stake1ux2fd505k9z5njfm6xegtnevjkpzdgwczjujnequ5z5pjdss66yvu"},{"txId":60184350,"txHash":"1c9d9e90fcd5094aebe80edd6d9ffbd0c1c98ea15c2532203b00a477fabbfc11","txTime":"2023/01/21 01:10:22","block":8296551,"epoch":389,"slotNo":82697131,"epochSlotNo":12331,"stakeKey":"stake1u8uq34gq8v8tenanwgmxlz37khu6jatj3sqqrl5ggzny9eqchp3cc"},{"txId":60184242,"txHash":"fbfeb9c639173550ee6137f7b5e9c1ba098e3ea0142f8e811a6eeee0c5a44850","txTime":"2023/01/21 01:08:47","block":8296549,"epoch":389,"slotNo":82697036,"epochSlotNo":12236,"stakeKey":"stake1uydz7waluvea4l6s5vt6r84ffzqmhu8zpkjyjrznv9sxu2qa6y4f8"},{"txId":60184116,"txHash":"4d9aede46466068dc4b88d5f27d1e51e14f8c11471679b306e7ff8e725165bf9","txTime":"2023/01/21 01:05:45","block":8296542,"epoch":389,"slotNo":82696854,"epochSlotNo":12054,"stakeKey":"stake1u8n5hqhwvd3jzwfk6sdx785cljk3vlsnvvp0fkqvkagvh8gsmzz8u"},{"txId":60184110,"txHash":"3a97c6f01ce6b2684088fce495a96a19300f789473a318c3a2ea5f64a138eaf6","txTime":"2023/01/21 01:05:45","block":8296542,"epoch":389,"slotNo":82696854,"epochSlotNo":12054,"stakeKey":"stake1uxvnjf78svr60hkpzmfuyeys5gxn8t98ggvq4r8crqpj6hs5prycv"},{"txId":60184070,"txHash":"908ef173dc49ba055479b802545c2608e717ed47095aec583fb7fdf12d691fc1","txTime":"2023/01/21 01:04:55","block":8296540,"epoch":389,"slotNo":82696804,"epochSlotNo":12004,"stakeKey":"stake1uxnghdy8sfa75yqjgwdjrl2s20rhdhfq4dml0vmge3rmjwqvy4alg"},{"txId":60184053,"txHash":"a3f586aced5cc39eb322379483a48bdfd7440789cde732e509a7faa6b6f53e3c","txTime":"2023/01/21 01:04:30","block":8296539,"epoch":389,"slotNo":82696779,"epochSlotNo":11979,"stakeKey":"stake1u8k5fxvgnu30h9cvjq404mqydgnj5ecasfjm2nmqx3y5azchwhs2h"},{"txId":60183930,"txHash":"a5899323d48cafc81b639e357080908dc591f2058ef1296b9aa4d0be2e4d0d67","txTime":"2023/01/21 01:02:58","block":8296533,"epoch":389,"slotNo":82696687,"epochSlotNo":11887,"stakeKey":"stake1u9x4wznyee7259wmjfaa0c0rp0q7petghcerufe4jnuuhaqvsv22p"},{"txId":60183902,"txHash":"cce0339f95211dfb38a7a57a395a9e0c8f39ce3fd509f8b92b38e869f11e37ec","txTime":"2023/01/21 01:02:02","block":8296532,"epoch":389,"slotNo":82696631,"epochSlotNo":11831,"stakeKey":"stake1u80u9hlw0tu97ut6v3u4kvv0t7557ctd27uxgysf3glwljgy5c8vk"},{"txId":60183765,"txHash":"8e59c4548dfdde45796123062981c2d954450c1e0a6436325675170664cdb09a","txTime":"2023/01/21 00:59:57","block":8296525,"epoch":389,"slotNo":82696506,"epochSlotNo":11706,"stakeKey":"stake1u8lrsf688u8a9a3nys4p60mrdup2fvv9qvshs80awpkgwmcxcqsnk"},{"txId":60183392,"txHash":"b68d99ae0e461e2ef9da6527e41cec2ba1d3d175bdfff3915557e51fc2d9abf3","txTime":"2023/01/21 00:54:27","block":8296507,"epoch":389,"slotNo":82696176,"epochSlotNo":11376,"stakeKey":"stake1uxyza6gqew7wl8ce9vz60df9u2ks2c5qn0aykjamym7xfssqy0cq7"}],"totalItems":1649491,"totalPages":82475,"currentPage":0}