{"data":[{"txId":57110637,"txHash":"1cf39bd98a72751327036c2cc738345c48e54b496d99d96353d0e13f24b22605","txTime":"2022/12/11 21:05:09","block":8127495,"epoch":380,"slotNo":79226418,"epochSlotNo":429618,"stakeKey":"stake1u9qydfa8h0ad0sfyvhdgzkkur9rqkgv9cvrdgpc2ceq7jrcmldsqy"},{"txId":57110540,"txHash":"9aad41ed7771ed15f9d756c3968bd90aeeb72a956f58263f32ea850673933e3b","txTime":"2022/12/11 21:02:57","block":8127488,"epoch":380,"slotNo":79226286,"epochSlotNo":429486,"stakeKey":"stake1u92d7ddytpzlc4wanmsvwpkukqnnl94j4p3z3z579yhl93gqkemzv"},{"txId":57110494,"txHash":"960d38e4ffec33ca4d919b5513491d31936a57eb96899186a4bb3298fa39308a","txTime":"2022/12/11 21:01:56","block":8127485,"epoch":380,"slotNo":79226225,"epochSlotNo":429425,"stakeKey":"stake1uyzlrs36nvcpv77f6hv004fsvjj3u47l8jrrm0xcgkc5n2g6d5mvt"},{"txId":57110452,"txHash":"3a1eb7596ff9fef854378508d2e2af21a1021716f0c1545575896847b3f7596c","txTime":"2022/12/11 21:01:04","block":8127482,"epoch":380,"slotNo":79226173,"epochSlotNo":429373,"stakeKey":"stake1uycjr9lpnknkzwfpjc6pyuwkvmkgfv9adeaeqs7snzjt0ccewjhzs"},{"txId":57110369,"txHash":"88f54ad951be206da95951870b292b54ad858407f9c80dc7f5d37c2dc12ae8d3","txTime":"2022/12/11 20:59:40","block":8127479,"epoch":380,"slotNo":79226089,"epochSlotNo":429289,"stakeKey":"stake1uxrz6dlz6ka9d0s09dy50730vteqk6ca5vf3cepxzpwkrjg3hgemy"},{"txId":57110129,"txHash":"911899fa12e240339cc5256e72360bd8616b9454c11b6b1f40d974a619833631","txTime":"2022/12/11 20:56:03","block":8127462,"epoch":380,"slotNo":79225872,"epochSlotNo":429072,"stakeKey":"stake1u99uxmpwzkz43sjnmp5z4flsalg09ug2wvt64cq74254r6g056wsj"},{"txId":57110115,"txHash":"df6f525b441a58371d842bde6bced0824b59b11d8cf981f59b2654e4dd4fd2d1","txTime":"2022/12/11 20:55:50","block":8127461,"epoch":380,"slotNo":79225859,"epochSlotNo":429059,"stakeKey":"stake1uxr6dphd09ytad7z2nfntgzd73urwjr77yc2x4m0kvnmrashegqh7"},{"txId":57109967,"txHash":"98edb3a1e2a95c626e06f5e613363be5263c5b2192584ae0f41c725b0c78d9c9","txTime":"2022/12/11 20:53:45","block":8127454,"epoch":380,"slotNo":79225734,"epochSlotNo":428934,"stakeKey":"stake1u82plpg6j782ttsjau4n4samaxe8xxz6ymhgz097xn2d6sqvk9js0"},{"txId":57109933,"txHash":"b4fe4f2f262c30dc2c8996f0e384979ae77967af81c9c1cd8a607c7f703a420a","txTime":"2022/12/11 20:53:36","block":8127453,"epoch":380,"slotNo":79225725,"epochSlotNo":428925,"stakeKey":"stake1u9f0zv9tqwlyzkfwqdmystztj60hz7d76jd23us0udvs20sr2xxr4"},{"txId":57109475,"txHash":"df14456a2ce5c54e8ca6bebd332b4739d1a11bc2049ba7350336a075f3bc9b38","txTime":"2022/12/11 20:44:43","block":8127434,"epoch":380,"slotNo":79225192,"epochSlotNo":428392,"stakeKey":"stake1u8klutqa50njdjfpuczqcqns9cw7aef49n7xk8wj7c73das2278sg"},{"txId":57109422,"txHash":"17ac4a969d28a9d906df18a06bcbabda483bb2f87b190a36c4a4b15cff4c9279","txTime":"2022/12/11 20:44:02","block":8127430,"epoch":380,"slotNo":79225151,"epochSlotNo":428351,"stakeKey":"stake1uyqu504ln2ezpc5yx5c89es2ssh88mwcx3hp6wn6q5a3w3gf2zztk"},{"txId":57108995,"txHash":"a1f000ec6417f7f414cff100fe0993c1508b4d6582ffd30bf87265f7faa56685","txTime":"2022/12/11 20:37:34","block":8127411,"epoch":380,"slotNo":79224763,"epochSlotNo":427963,"stakeKey":"stake1u9tdnqvnu2cm5vqxpfttxuttfazz0y7pta0lq3ssrurjxuczv3ec4"},{"txId":57108721,"txHash":"0128daa39c58f49464deff2c05fa0d1e240847639ee0df95b0b308109bd2a20b","txTime":"2022/12/11 20:32:15","block":8127390,"epoch":380,"slotNo":79224444,"epochSlotNo":427644,"stakeKey":"stake1uymv2ukmgf4pyg2tq757letkpk7l9k3ymq5yqr8jz3vwsusvmu5mr"},{"txId":57108595,"txHash":"b255b9d5295a789c2945f591610b017a2ddca1af172dd793c646d40b9cb18988","txTime":"2022/12/11 20:29:58","block":8127381,"epoch":380,"slotNo":79224307,"epochSlotNo":427507,"stakeKey":"stake1uxt9a54r3zg3t7f7372a0lwkwwktu9x0ppvezmkk7y3kh2qe57c4q"},{"txId":57108355,"txHash":"4177997944443d8276678dfe1aa39c7f49ca0441bc3baf6010698236f415effc","txTime":"2022/12/11 20:26:21","block":8127364,"epoch":380,"slotNo":79224090,"epochSlotNo":427290,"stakeKey":"stake1u92tf53zu73wgrquuvr0usmzccalzpaq3mys8u73jlaat5svmap76"},{"txId":57108321,"txHash":"90908eceb122bea8a104f962823aab7c6dfa1568968f48951d02269a65f5d850","txTime":"2022/12/11 20:25:56","block":8127361,"epoch":380,"slotNo":79224065,"epochSlotNo":427265,"stakeKey":"stake1u9298kvudevhefvlgznw4z04ya288e0e3hg9nv0s59l0e2gafa0d9"},{"txId":57107922,"txHash":"1f148cd7673eb0fd3a34def6fff656b1176a8aad221f4eba38586af17957e5d2","txTime":"2022/12/11 20:19:54","block":8127341,"epoch":380,"slotNo":79223703,"epochSlotNo":426903,"stakeKey":"stake1u9zzxzejfpfxrvtvy5r9duzs65d4v8prtf3qavcat49e9xg5320ea"},{"txId":57107804,"txHash":"3c1eb8b56da6fd5ff2e9c55d07b1a36740efd61cc63f4fd28ad90890e391f82e","txTime":"2022/12/11 20:17:35","block":8127335,"epoch":380,"slotNo":79223564,"epochSlotNo":426764,"stakeKey":"stake1ux7yst6upg9arunvshfeswck3g06ckdtgu4rkkfvy7dcdzgmxjk80"},{"txId":57107739,"txHash":"b2124ce34c06b72c851ef4b9491149d21020759b31cce88e04d9b963ead3cdeb","txTime":"2022/12/11 20:16:29","block":8127330,"epoch":380,"slotNo":79223498,"epochSlotNo":426698,"stakeKey":"stake1u8f3mchwdj0ypt8q9exlaqgsjws20ulywkdkz6c3dzjdu5c2qqwz9"},{"txId":57107465,"txHash":"f15f79caffc463c7cdf7f4a78205eb8e46d2f0eb0652864fae36263a72ffcc5c","txTime":"2022/12/11 20:12:39","block":8127320,"epoch":380,"slotNo":79223268,"epochSlotNo":426468,"stakeKey":"stake1uyv5upnt7xjpk90jwzmrzgugj9kda2luzfncr4gwvnmujfcycqm9s"}],"totalItems":1619334,"totalPages":80967,"currentPage":0}