{"data":[{"address":"addr1z8snz7c4974vzdpxu65ruphl3zjdvtxw8strf2c2tmqnxz2j2c79gy9l76sdg0xwhd7r0c0kna0tycz4y5s6mlenh8pq0xmsha","txCount":421175,"balance":45437730006018},{"address":"addr1w9qzpelu9hn45pefc0xr4ac4kdxeswq7pndul2vuj59u8tqaxdznu","txCount":430185,"balance":15717933252912},{"address":"addr1w8pydstdswmdqmg2rdt59dzql3zgfp9pt8sulnjgalycwdsj9js7w","txCount":60651,"balance":6800588938570},{"address":"addr1wy0nmrl40z3nx9d0d79pu5u7zett4hl2apfuj9caqgf7jjqcj3r8z","txCount":131,"balance":4059955221586},{"address":"addr1z8nvjzjeydcn4atcd93aac8allvrpjn7pjr2qsweukpnayvwn8ns9d9rn074cn39gdlnzq8gneqxtektt3etelutfgysw42u27","txCount":6467,"balance":3843908484654},{"address":"addr1w93j7t23z99448k7xspzrppjtgun0janh0rcq6k8wt2e8vc2fraw4","txCount":3058,"balance":3565513662176},{"address":"addr1zy5qnd3uxaunza6r8n3gch26hmzm392nywhw2jgcwf8nvrqfzup4e9umthe6xgvhcxu4d5cygcj0h3vdslrt3whadmnsgw0pxk","txCount":3,"balance":2874629000000},{"address":"addr1z8nvjzjeydcn4atcd93aac8allvrpjn7pjr2qsweukpnayg3sm3lpp76yuejdf6w3qyry2spy8xjmjrlxy2cstm3fthsjc3xze","txCount":5215,"balance":2600196705343},{"address":"addr1z8nvjzjeydcn4atcd93aac8allvrpjn7pjr2qsweukpnay2tqrfwamagnyfv43jgm94yvkmsnfvpzlytmkl0cs0uh8zqszu5da","txCount":5659,"balance":2562501324892},{"address":"addr1z8nvjzjeydcn4atcd93aac8allvrpjn7pjr2qsweukpnayg4pn8uxr87tguqw8jkn6p233rk7k683ppl2mspr8appw9q640ms8","txCount":4163,"balance":1648400236112},{"address":"addr1z85t4tvj3rwf40wqnx6x72kqq6c6stra7jvkupnlqrqyarthhd58w0qrqpyv4dc2c2mk98sduawl7l4gjuc9rafyv98sgylfw3","txCount":3315,"balance":1580909899871},{"address":"addr1z8nvjzjeydcn4atcd93aac8allvrpjn7pjr2qsweukpnaytvcg6zm2vds6mz9x3h3yalqmnf24w86m09n40q3tgqxjms9yu6v8","txCount":12101,"balance":1499788205513},{"address":"addr1zxgx3far7qygq0k6epa0zcvcvrevmn0ypsnfsue94nsn3tvpw288a4x0xf8pxgcntelxmyclq83s0ykeehchz2wtspks905plm","txCount":404202,"balance":1366567925082},{"address":"addr1z8nvjzjeydcn4atcd93aac8allvrpjn7pjr2qsweukpnay0juqg4tpvktqnle8j0ukcnww78l7ze4lrgunuwqnxtvjps8lclpw","txCount":1298,"balance":1335225167846},{"address":"addr1z8c7eyxnxgy80qs5ehrl4yy93tzkyqjnmx0cfsgrxkfge27q47h8tv3jp07j8yneaxj7qc63zyzqhl933xsglcsgtqcqxzc2je","txCount":55998,"balance":1231559038939},{"address":"addr1w9jx45flh83z6wuqypyash54mszwmdj8r64fydafxtfc6jgrw4rm3","txCount":429245,"balance":872192667498},{"address":"addr1zyh4ygwdy2mnhxntq4fw8jcwgtrtqeu6fslwy64029wk8wcfzup4e9umthe6xgvhcxu4d5cygcj0h3vdslrt3whadmnsujfr0f","txCount":1,"balance":762600000000},{"address":"addr1w9j4z3xz6sze3se4d06rawhpqt5sag98l0fykwt5q08nwxgvmk5vf","txCount":2905,"balance":724485730913},{"address":"addr1zykhtew0z93z6hmgu2ew7kl9puqz0wmafp0f3jypuejkwmrfjcnq9fczt4qkxgec2hz6x7f38vnj8xuxywk4x4qgzh9skq4p22","txCount":1069,"balance":722656188270},{"address":"addr1z8nvjzjeydcn4atcd93aac8allvrpjn7pjr2qsweukpnayw8509kp8r0ackk0d45d3gmh5yg9pty67r9zmfs3gcyv08qxshhsw","txCount":2317,"balance":722532332320}],"totalItems":15980,"totalPages":799,"currentPage":0}