{"data":[{"hash":"73978fb764aea93a036f258bdd0947797f1556325e93605f8b7764e1a40de211","blockNo":9037237,"blockHash":"b791046497ac33d874459ab196cb788262817c0961d51f56bcc0a1f0ae52ecfe","epochNo":424,"epochSlotNo":152829,"slot":97957629,"time":"2023/07/16 16:12:00","addressesInput":["addr1q80rgpzlxe0euk6dmt4csw2wuzud7795zjqrs0zts2xxg4acytmfwrnj9zyf3ec5sp7ntw0m4axz3ta7t6kgl439qu0sr64c56","addr1qx3m5v2wqvtk9yywkaahspj8yujcmdqva4y6wl2rszu2n94s3c3k5f3n7ch8azq2336sqju5haaqgneznmfqu4u7d3vq8th3yp"],"addressesOutput":["addr1qx3m5v2wqvtk9yywkaahspj8yujcmdqva4y6wl2rszu2n94s3c3k5f3n7ch8azq2336sqju5haaqgneznmfqu4u7d3vq8th3yp","addr1qxkxshq4msm5f5cqdpnjuaxuulrawd7ts4t35u243da7hsjp4xekmtdxjfxrlens00zkuczmkpxjpnu4z0d4gfhlgdss6h7nmc","addr1qx3m5v2wqvtk9yywkaahspj8yujcmdqva4y6wl2rszu2n94s3c3k5f3n7ch8azq2336sqju5haaqgneznmfqu4u7d3vq8th3yp","addr1q80rgpzlxe0euk6dmt4csw2wuzud7795zjqrs0zts2xxg4acytmfwrnj9zyf3ec5sp7ntw0m4axz3ta7t6kgl439qu0sr64c56"],"fee":183585,"totalOutput":182817194,"tokens":[]},{"hash":"c54eca8700b8c68284bdb6e3ca4a495770a3aadcc4fe94f33deb8eec8a70bc0b","blockNo":9037237,"blockHash":"b791046497ac33d874459ab196cb788262817c0961d51f56bcc0a1f0ae52ecfe","epochNo":424,"epochSlotNo":152829,"slot":97957629,"time":"2023/07/16 16:12:00","addressesInput":["addr1q836qf2vqzv57uc42rupyw039fsvnlfuaxumry25x9fwcg43hmpsthwgqxya4j9k9rhq4ha72fzu2wuyueuw6lkz846sde0a0x","addr1q836qf2vqzv57uc42rupyw039fsvnlfuaxumry25x9fwcg43hmpsthwgqxya4j9k9rhq4ha72fzu2wuyueuw6lkz846sde0a0x"],"addressesOutput":["addr1w9cah00qyrx0m2d3kjtfv0avfh4q5gmuftmufk6rkq5y4vc83drar","addr1q836qf2vqzv57uc42rupyw039fsvnlfuaxumry25x9fwcg43hmpsthwgqxya4j9k9rhq4ha72fzu2wuyueuw6lkz846sde0a0x"],"fee":238128,"totalOutput":8980467316,"tokens":[]},{"hash":"1057279ae7bb56105bf75884b0cd410237b66d4f316150669e89fdc5ea52b30a","blockNo":9037237,"blockHash":"b791046497ac33d874459ab196cb788262817c0961d51f56bcc0a1f0ae52ecfe","epochNo":424,"epochSlotNo":152829,"slot":97957629,"time":"2023/07/16 16:12:00","addressesInput":["addr1wxr2a8htmzuhj39y2gq7ftkpxv98y2g67tg8zezthgq4jkg0a4ul4"],"addressesOutput":["addr1q836qf2vqzv57uc42rupyw039fsvnlfuaxumry25x9fwcg43hmpsthwgqxya4j9k9rhq4ha72fzu2wuyueuw6lkz846sde0a0x"],"fee":863112,"totalOutput":3136888,"tokens":[]},{"hash":"b4d025da4c1b56792bafc931a536db25dda421b06cc98b4d9db2f15231e5bb8b","blockNo":9037237,"blockHash":"b791046497ac33d874459ab196cb788262817c0961d51f56bcc0a1f0ae52ecfe","epochNo":424,"epochSlotNo":152829,"slot":97957629,"time":"2023/07/16 16:12:00","addressesInput":["addr1q99j0k4ej7ta3njl8486wyntychgudqcdvatjykxwvujccfxc5mdgasaldtrp8x3ndy37f3axelppdc8ztpa2k586kkqhxvy8q","addr1q99j0k4ej7ta3njl8486wyntychgudqcdvatjykxwvujccfxc5mdgasaldtrp8x3ndy37f3axelppdc8ztpa2k586kkqhxvy8q","addr1q99j0k4ej7ta3njl8486wyntychgudqcdvatjykxwvujccfxc5mdgasaldtrp8x3ndy37f3axelppdc8ztpa2k586kkqhxvy8q"],"addressesOutput":["addr1zxgx3far7qygq0k6epa0zcvcvrevmn0ypsnfsue94nsn3tvpw288a4x0xf8pxgcntelxmyclq83s0ykeehchz2wtspks905plm","addr1q99j0k4ej7ta3njl8486wyntychgudqcdvatjykxwvujccfxc5mdgasaldtrp8x3ndy37f3axelppdc8ztpa2k586kkqhxvy8q","addr1q99j0k4ej7ta3njl8486wyntychgudqcdvatjykxwvujccfxc5mdgasaldtrp8x3ndy37f3axelppdc8ztpa2k586kkqhxvy8q"],"fee":226749,"totalOutput":350722108,"tokens":[]},{"hash":"37220c61764149c2e76abe708c2eaefbe3b6d3c04a9a5c63e6f2667e39c10408","blockNo":9037237,"blockHash":"b791046497ac33d874459ab196cb788262817c0961d51f56bcc0a1f0ae52ecfe","epochNo":424,"epochSlotNo":152829,"slot":97957629,"time":"2023/07/16 16:12:00","addressesInput":["addr1qyuq842mwu0pkms38asz29k6hpgs5jgpm2swgzxywcv4v5xfpgww004aerggs8x87eml34yz07tfd4xmcyyew0d6gfcqgam4j0"],"addressesOutput":["addr1qy7xl0fnu9qaefg0uwnkn9ytnrpzpksgy4z76s4a6tvgwj73z7enk5dtdzwvltdvy42g3lvpw3knzdurjdq4lfyxjepsdwqzsk","addr1qyuq842mwu0pkms38asz29k6hpgs5jgpm2swgzxywcv4v5xfpgww004aerggs8x87eml34yz07tfd4xmcyyew0d6gfcqgam4j0"],"fee":168317,"totalOutput":2498475245,"tokens":[]},{"hash":"39b90d8308ea55e874d828946188395ad5cfd34d9922af3b4a46f52f134b1eb2","blockNo":9037237,"blockHash":"b791046497ac33d874459ab196cb788262817c0961d51f56bcc0a1f0ae52ecfe","epochNo":424,"epochSlotNo":152829,"slot":97957629,"time":"2023/07/16 16:12:00","addressesInput":["addr1qyht4ja0zcn45qvyx477qlyp6j5ftu5ng0prt9608dxp6l2j2c79gy9l76sdg0xwhd7r0c0kna0tycz4y5s6mlenh8pq4jxtdy","addr1qyht4ja0zcn45qvyx477qlyp6j5ftu5ng0prt9608dxp6l2j2c79gy9l76sdg0xwhd7r0c0kna0tycz4y5s6mlenh8pq4jxtdy","addr1zxn9efv2f6w82hagxqtn62ju4m293tqvw0uhmdl64ch8uw6j2c79gy9l76sdg0xwhd7r0c0kna0tycz4y5s6mlenh8pq6s3z70","addr1z8snz7c4974vzdpxu65ruphl3zjdvtxw8strf2c2tmqnxz2jyskd3y6etkv8ye450545xu6q4jfq5hv4e0uxwkpf8lsq048y90"],"addressesOutput":["addr1qyht4ja0zcn45qvyx477qlyp6j5ftu5ng0prt9608dxp6l2j2c79gy9l76sdg0xwhd7r0c0kna0tycz4y5s6mlenh8pq4jxtdy","addr1qyht4ja0zcn45qvyx477qlyp6j5ftu5ng0prt9608dxp6l2j2c79gy9l76sdg0xwhd7r0c0kna0tycz4y5s6mlenh8pq4jxtdy","addr1qyygeej623fsmp9fh0cjhanf88cwjh8eknhqhmp3vlsjyu3rnuvxjlracxq4s0rje24zgglwhs8lqdn4puryr34syads75ymds","addr1z8snz7c4974vzdpxu65ruphl3zjdvtxw8strf2c2tmqnxz2jyskd3y6etkv8ye450545xu6q4jfq5hv4e0uxwkpf8lsq048y90"],"fee":826737,"totalOutput":4636748194316,"tokens":[]},{"hash":"63dde2a739271feafb3fc1a2d0b6b3a40ff196312f2ba55f16f47157b7167123","blockNo":9037237,"blockHash":"b791046497ac33d874459ab196cb788262817c0961d51f56bcc0a1f0ae52ecfe","epochNo":424,"epochSlotNo":152829,"slot":97957629,"time":"2023/07/16 16:12:00","addressesInput":["addr1zxn9efv2f6w82hagxqtn62ju4m293tqvw0uhmdl64ch8uw6j2c79gy9l76sdg0xwhd7r0c0kna0tycz4y5s6mlenh8pq6s3z70","addr1z8snz7c4974vzdpxu65ruphl3zjdvtxw8strf2c2tmqnxzwccf8ywaly0m99ngq68lus48lmafut7ku9geawu8u6k49suv42qq","addr1qyht4ja0zcn45qvyx477qlyp6j5ftu5ng0prt9608dxp6l2j2c79gy9l76sdg0xwhd7r0c0kna0tycz4y5s6mlenh8pq4jxtdy","addr1qyht4ja0zcn45qvyx477qlyp6j5ftu5ng0prt9608dxp6l2j2c79gy9l76sdg0xwhd7r0c0kna0tycz4y5s6mlenh8pq4jxtdy"],"addressesOutput":["addr1qyht4ja0zcn45qvyx477qlyp6j5ftu5ng0prt9608dxp6l2j2c79gy9l76sdg0xwhd7r0c0kna0tycz4y5s6mlenh8pq4jxtdy","addr1qyht4ja0zcn45qvyx477qlyp6j5ftu5ng0prt9608dxp6l2j2c79gy9l76sdg0xwhd7r0c0kna0tycz4y5s6mlenh8pq4jxtdy","addr1qy7rs4pf742s9k6p4ew2w2dplu8nlr35467uqk9xnfkekg884jqfuwdyvmzmvtf4mffls5c8q6u8rhd5glxpwljp9ppsxmjr9k","addr1z8snz7c4974vzdpxu65ruphl3zjdvtxw8strf2c2tmqnxzwccf8ywaly0m99ngq68lus48lmafut7ku9geawu8u6k49suv42qq"],"fee":827626,"totalOutput":157175889327,"tokens":[]},{"hash":"582b3ba316e6cd8eeb1c50d5bba4e30a6e70b41d9ee1d05a1b26c8984f31c542","blockNo":9037237,"blockHash":"b791046497ac33d874459ab196cb788262817c0961d51f56bcc0a1f0ae52ecfe","epochNo":424,"epochSlotNo":152829,"slot":97957629,"time":"2023/07/16 16:12:00","addressesInput":["addr1qyht4ja0zcn45qvyx477qlyp6j5ftu5ng0prt9608dxp6l2j2c79gy9l76sdg0xwhd7r0c0kna0tycz4y5s6mlenh8pq4jxtdy","addr1z8snz7c4974vzdpxu65ruphl3zjdvtxw8strf2c2tmqnxz2j2c79gy9l76sdg0xwhd7r0c0kna0tycz4y5s6mlenh8pq0xmsha","addr1zxn9efv2f6w82hagxqtn62ju4m293tqvw0uhmdl64ch8uw6j2c79gy9l76sdg0xwhd7r0c0kna0tycz4y5s6mlenh8pq6s3z70","addr1zxn9efv2f6w82hagxqtn62ju4m293tqvw0uhmdl64ch8uw6j2c79gy9l76sdg0xwhd7r0c0kna0tycz4y5s6mlenh8pq6s3z70","addr1qyht4ja0zcn45qvyx477qlyp6j5ftu5ng0prt9608dxp6l2j2c79gy9l76sdg0xwhd7r0c0kna0tycz4y5s6mlenh8pq4jxtdy"],"addressesOutput":["addr1qyht4ja0zcn45qvyx477qlyp6j5ftu5ng0prt9608dxp6l2j2c79gy9l76sdg0xwhd7r0c0kna0tycz4y5s6mlenh8pq4jxtdy","addr1qyht4ja0zcn45qvyx477qlyp6j5ftu5ng0prt9608dxp6l2j2c79gy9l76sdg0xwhd7r0c0kna0tycz4y5s6mlenh8pq4jxtdy","addr1qyqm7w6atjhd9uvsq2uywgppquwa3elkc6va4dax3se97mvguef0vzcpps4p680kcdj6chauh8gjzraa8wejp883dwys4c2sm5","addr1qxmaxjuemtjzr99egey5tfx2vp4qtza6kplpzmguvcrj6p8qqqcqwmfqypyspundgnl2jlxj77dq2m3j3g8znpyll9nsl2s09j","addr1z8snz7c4974vzdpxu65ruphl3zjdvtxw8strf2c2tmqnxz2j2c79gy9l76sdg0xwhd7r0c0kna0tycz4y5s6mlenh8pq0xmsha"],"fee":902993,"totalOutput":42141133138,"tokens":[]},{"hash":"a475d693ecbdbf49c7cbb0112a1d02f84b0d0cbe38a8ce79b3523c40913402be","blockNo":9037237,"blockHash":"b791046497ac33d874459ab196cb788262817c0961d51f56bcc0a1f0ae52ecfe","epochNo":424,"epochSlotNo":152829,"slot":97957629,"time":"2023/07/16 16:12:00","addressesInput":["addr1qyht4ja0zcn45qvyx477qlyp6j5ftu5ng0prt9608dxp6l2j2c79gy9l76sdg0xwhd7r0c0kna0tycz4y5s6mlenh8pq4jxtdy","addr1z8snz7c4974vzdpxu65ruphl3zjdvtxw8strf2c2tmqnxz2j2c79gy9l76sdg0xwhd7r0c0kna0tycz4y5s6mlenh8pq0xmsha","addr1qyht4ja0zcn45qvyx477qlyp6j5ftu5ng0prt9608dxp6l2j2c79gy9l76sdg0xwhd7r0c0kna0tycz4y5s6mlenh8pq4jxtdy","addr1zxn9efv2f6w82hagxqtn62ju4m293tqvw0uhmdl64ch8uw6j2c79gy9l76sdg0xwhd7r0c0kna0tycz4y5s6mlenh8pq6s3z70"],"addressesOutput":["addr1qyht4ja0zcn45qvyx477qlyp6j5ftu5ng0prt9608dxp6l2j2c79gy9l76sdg0xwhd7r0c0kna0tycz4y5s6mlenh8pq4jxtdy","addr1qyht4ja0zcn45qvyx477qlyp6j5ftu5ng0prt9608dxp6l2j2c79gy9l76sdg0xwhd7r0c0kna0tycz4y5s6mlenh8pq4jxtdy","addr1q9h9e9pf29f33vjen739shjjeqpzpn6kwnujay0g97q60jklhlz5rnxx074u0ggu3qgumkhq976ylm6t46rvn2snx8gqndh4w0","addr1z8snz7c4974vzdpxu65ruphl3zjdvtxw8strf2c2tmqnxz2j2c79gy9l76sdg0xwhd7r0c0kna0tycz4y5s6mlenh8pq0xmsha"],"fee":827008,"totalOutput":69316851394,"tokens":[]},{"hash":"6207d6537ac8dd5c130654c1fb5ac66078b3ddc38755db97482ceac59ddfa22d","blockNo":9037237,"blockHash":"b791046497ac33d874459ab196cb788262817c0961d51f56bcc0a1f0ae52ecfe","epochNo":424,"epochSlotNo":152829,"slot":97957629,"time":"2023/07/16 16:12:00","addressesInput":["addr1qyht4ja0zcn45qvyx477qlyp6j5ftu5ng0prt9608dxp6l2j2c79gy9l76sdg0xwhd7r0c0kna0tycz4y5s6mlenh8pq4jxtdy","addr1zxn9efv2f6w82hagxqtn62ju4m293tqvw0uhmdl64ch8uw6j2c79gy9l76sdg0xwhd7r0c0kna0tycz4y5s6mlenh8pq6s3z70","addr1z8snz7c4974vzdpxu65ruphl3zjdvtxw8strf2c2tmqnxz2j2c79gy9l76sdg0xwhd7r0c0kna0tycz4y5s6mlenh8pq0xmsha","addr1qyht4ja0zcn45qvyx477qlyp6j5ftu5ng0prt9608dxp6l2j2c79gy9l76sdg0xwhd7r0c0kna0tycz4y5s6mlenh8pq4jxtdy"],"addressesOutput":["addr1qyht4ja0zcn45qvyx477qlyp6j5ftu5ng0prt9608dxp6l2j2c79gy9l76sdg0xwhd7r0c0kna0tycz4y5s6mlenh8pq4jxtdy","addr1qyht4ja0zcn45qvyx477qlyp6j5ftu5ng0prt9608dxp6l2j2c79gy9l76sdg0xwhd7r0c0kna0tycz4y5s6mlenh8pq4jxtdy","addr1q9v075vu4kf9h8veyx7hzjclvse5x77w96q8cfjttu98nwxuzhawvzxm24v0updqlmjsm3k3n4awdteen5elyg0hg8nql8ef6v","addr1z8snz7c4974vzdpxu65ruphl3zjdvtxw8strf2c2tmqnxz2j2c79gy9l76sdg0xwhd7r0c0kna0tycz4y5s6mlenh8pq0xmsha"],"fee":828158,"totalOutput":28761060234545,"tokens":[]},{"hash":"91f7c235987843586335f42494bb7afb3ba12e4ee26d1b7ccde4b1770cdae2d6","blockNo":9037237,"blockHash":"b791046497ac33d874459ab196cb788262817c0961d51f56bcc0a1f0ae52ecfe","epochNo":424,"epochSlotNo":152829,"slot":97957629,"time":"2023/07/16 16:12:00","addressesInput":["addr1qyht4ja0zcn45qvyx477qlyp6j5ftu5ng0prt9608dxp6l2j2c79gy9l76sdg0xwhd7r0c0kna0tycz4y5s6mlenh8pq4jxtdy","addr1z8snz7c4974vzdpxu65ruphl3zjdvtxw8strf2c2tmqnxz2j2c79gy9l76sdg0xwhd7r0c0kna0tycz4y5s6mlenh8pq0xmsha","addr1zxn9efv2f6w82hagxqtn62ju4m293tqvw0uhmdl64ch8uw6j2c79gy9l76sdg0xwhd7r0c0kna0tycz4y5s6mlenh8pq6s3z70","addr1qyht4ja0zcn45qvyx477qlyp6j5ftu5ng0prt9608dxp6l2j2c79gy9l76sdg0xwhd7r0c0kna0tycz4y5s6mlenh8pq4jxtdy"],"addressesOutput":["addr1qyht4ja0zcn45qvyx477qlyp6j5ftu5ng0prt9608dxp6l2j2c79gy9l76sdg0xwhd7r0c0kna0tycz4y5s6mlenh8pq4jxtdy","addr1qyht4ja0zcn45qvyx477qlyp6j5ftu5ng0prt9608dxp6l2j2c79gy9l76sdg0xwhd7r0c0kna0tycz4y5s6mlenh8pq4jxtdy","addr1q8ctmhkz665j7mvaku7gyfy0zupah66nt7mpptf4zs7k40wky9fy33cg77uhld3gkfgsca6x29aw392zq0ef9rkugk7s6lsu2k","addr1z8snz7c4974vzdpxu65ruphl3zjdvtxw8strf2c2tmqnxz2j2c79gy9l76sdg0xwhd7r0c0kna0tycz4y5s6mlenh8pq0xmsha"],"fee":827093,"totalOutput":4872881694502,"tokens":[]},{"hash":"e3222b8565eaa91f2d7f4d52bd40069d5ed42e221be14b712455a4651bda5536","blockNo":9037237,"blockHash":"b791046497ac33d874459ab196cb788262817c0961d51f56bcc0a1f0ae52ecfe","epochNo":424,"epochSlotNo":152829,"slot":97957629,"time":"2023/07/16 16:12:00","addressesInput":["addr1qyht4ja0zcn45qvyx477qlyp6j5ftu5ng0prt9608dxp6l2j2c79gy9l76sdg0xwhd7r0c0kna0tycz4y5s6mlenh8pq4jxtdy","addr1z8snz7c4974vzdpxu65ruphl3zjdvtxw8strf2c2tmqnxztnqm37tpj0q63s0qns5wfe4flqzqqg55760472n7yt4v8skpaj3k","addr1qyht4ja0zcn45qvyx477qlyp6j5ftu5ng0prt9608dxp6l2j2c79gy9l76sdg0xwhd7r0c0kna0tycz4y5s6mlenh8pq4jxtdy","addr1zxn9efv2f6w82hagxqtn62ju4m293tqvw0uhmdl64ch8uw6j2c79gy9l76sdg0xwhd7r0c0kna0tycz4y5s6mlenh8pq6s3z70"],"addressesOutput":["addr1qyht4ja0zcn45qvyx477qlyp6j5ftu5ng0prt9608dxp6l2j2c79gy9l76sdg0xwhd7r0c0kna0tycz4y5s6mlenh8pq4jxtdy","addr1qyht4ja0zcn45qvyx477qlyp6j5ftu5ng0prt9608dxp6l2j2c79gy9l76sdg0xwhd7r0c0kna0tycz4y5s6mlenh8pq4jxtdy","addr1qxjxswqlk0muln5a6fhu6r5vn3l3hqeml5f5gdkl6x48egyxh3yzvvenmzpgmmahjq97qxvastsyg0m8j90prr0c5mvsgk2a7u","addr1z8snz7c4974vzdpxu65ruphl3zjdvtxw8strf2c2tmqnxztnqm37tpj0q63s0qns5wfe4flqzqqg55760472n7yt4v8skpaj3k"],"fee":827274,"totalOutput":7584287063,"tokens":[]},{"hash":"059940c907fbfee4f28a7aaeef377348ff73d1a0118749ced8b54ac1fd1c1a50","blockNo":9037237,"blockHash":"b791046497ac33d874459ab196cb788262817c0961d51f56bcc0a1f0ae52ecfe","epochNo":424,"epochSlotNo":152829,"slot":97957629,"time":"2023/07/16 16:12:00","addressesInput":["addr1qykr38utcvr0mrp8lt7vuz9y068uesw4e730eh72ggmdk40tr650yhs4dva3vg2egzsmln9jrm7yvlnjw0hg4stzxwustp6wq2"],"addressesOutput":["addr1qyy9x4t3jrr468dcfx3sknk05mkfg0r24s3pex9qwf5h6eq59efx5s6fy3k9jqal8ky6099tqur60kjas6fuyu6fy3tsuqgqs3","addr1qykr38utcvr0mrp8lt7vuz9y068uesw4e730eh72ggmdk40tr650yhs4dva3vg2egzsmln9jrm7yvlnjw0hg4stzxwustp6wq2"],"fee":168317,"totalOutput":3999831683,"tokens":[]},{"hash":"fde438fa3bc771b918cf18c17eb490e70476a2383071c9716fe38b248563b8a7","blockNo":9037237,"blockHash":"b791046497ac33d874459ab196cb788262817c0961d51f56bcc0a1f0ae52ecfe","epochNo":424,"epochSlotNo":152829,"slot":97957629,"time":"2023/07/16 16:12:00","addressesInput":["addr1zxgx3far7qygq0k6epa0zcvcvrevmn0ypsnfsue94nsn3tvpw288a4x0xf8pxgcntelxmyclq83s0ykeehchz2wtspks905plm","addr1q96lmva2vryu2mm4myvclzyd9kdq2vpvgrxmdzw6cvm70a8jcxy3zd8jvy698vt8cllglcysv69fug2cv7rwzuufnffqkg5eht"],"addressesOutput":["addr1q96lmva2vryu2mm4myvclzyd9kdq2vpvgrxmdzw6cvm70a8jcxy3zd8jvy698vt8cllglcysv69fug2cv7rwzuufnffqkg5eht","addr1q96lmva2vryu2mm4myvclzyd9kdq2vpvgrxmdzw6cvm70a8jcxy3zd8jvy698vt8cllglcysv69fug2cv7rwzuufnffqkg5eht"],"fee":266712,"totalOutput":69226811,"tokens":[]},{"hash":"ab5fc9b04978d51e3c01858f36bd1768218e425193d448a4ca9e15910be5184f","blockNo":9037236,"blockHash":"462aae678161b8ace0901626ce863a7f70db10fc452386bbe3f02557dd82ba1f","epochNo":424,"epochSlotNo":152812,"slot":97957612,"time":"2023/07/16 16:11:43","addressesInput":["addr1qx30pgj5u5qczjnn8x2dy9tst2f5kt94u3l7qsttrhr0mlnmnj02ccrw5phgexh37svh2k62rkpm9er7qqs9cu0uj5usl0nd5s"],"addressesOutput":["addr1qys6p3j97mfxe72rxkh5d9lp3cdjqp37dd8t5yjq5vl9m93h0dy20dzu4wpwtfre93yd2ph2e57ppft6kyc0dg28yp7shh7t9v","addr1wy6z9sfat2t7drl8yhfaws9hl9ktx90rk3xs8g479zrrh6cqv5m2x","addr1qx30pgj5u5qczjnn8x2dy9tst2f5kt94u3l7qsttrhr0mlnmnj02ccrw5phgexh37svh2k62rkpm9er7qqs9cu0uj5usl0nd5s"],"fee":273518,"totalOutput":2707942760,"tokens":[]},{"hash":"a57de149cb9646d2d4bf4e7eee6abc53adbcabb23cb5ec83f24a05ef52df4a69","blockNo":9037236,"blockHash":"462aae678161b8ace0901626ce863a7f70db10fc452386bbe3f02557dd82ba1f","epochNo":424,"epochSlotNo":152812,"slot":97957612,"time":"2023/07/16 16:11:43","addressesInput":["addr1q8mqp58p4lruaw2llh3n70u7sl78qyv9t3kwgx90k7g9nnmx3lv6luspzqzz88mnp5rfqsmq4uhxq77659qyf638emcsdsuqed","addr1q8mqp58p4lruaw2llh3n70u7sl78qyv9t3kwgx90k7g9nnmx3lv6luspzqzz88mnp5rfqsmq4uhxq77659qyf638emcsdsuqed"],"addressesOutput":["addr1wxr2a8htmzuhj39y2gq7ftkpxv98y2g67tg8zezthgq4jkg0a4ul4","addr1q8mqp58p4lruaw2llh3n70u7sl78qyv9t3kwgx90k7g9nnmx3lv6luspzqzz88mnp5rfqsmq4uhxq77659qyf638emcsdsuqed"],"fee":184817,"totalOutput":364998028,"tokens":[]},{"hash":"4d76c867c478420d9ea9f0962fb2dedd2a3894e5baba12fadae51138c05dacb5","blockNo":9037236,"blockHash":"462aae678161b8ace0901626ce863a7f70db10fc452386bbe3f02557dd82ba1f","epochNo":424,"epochSlotNo":152812,"slot":97957612,"time":"2023/07/16 16:11:43","addressesInput":["addr1qyf0whk9vh7u08hewn0zufjry7qq7au9kn46953h7ytma8sqhv6ck6njfuey3pzx4cud29he78haaqu8w2vhwsxrsstqc8gkaj"],"addressesOutput":["addr1q8mre9732sfd9a32k2ym26ymdxvl0a0nkjc64hs45dd64rgqhv6ck6njfuey3pzx4cud29he78haaqu8w2vhwsxrsstq5nfuzd","addr1q926s36rpy06g8yt3ymwk8aqz8wkx7lw5p2sv7q0gdke53ezg4sufym03cfm8ndqj3he2dy2ww6ea0y5at0qv558x9rs072z6q","addr1qxm57gfyavq8n5letec2fmptlryexwzw8khdpg9q33xja0dvjjvuj2z4vz9sanrla7ehnq373cgwa4jfj5e2dsvamw0scawwke","addr1q8mre9732sfd9a32k2ym26ymdxvl0a0nkjc64hs45dd64rgqhv6ck6njfuey3pzx4cud29he78haaqu8w2vhwsxrsstq5nfuzd"],"fee":225209,"totalOutput":94256976,"tokens":[]},{"hash":"51b5a77527f9e9ac27b47f16b53fb182f25788de7892a8fc328a2e6ce77df52c","blockNo":9037236,"blockHash":"462aae678161b8ace0901626ce863a7f70db10fc452386bbe3f02557dd82ba1f","epochNo":424,"epochSlotNo":152812,"slot":97957612,"time":"2023/07/16 16:11:43","addressesInput":["addr1w8cvzcnclvkua25vx26j72pddatuedsxspm62mr63urs0fctuuzfv","addr1qxtpep0fv775hqm45rzcawr4rzgvmf02q3q2a4rvg8zl4xa2qpx89us8amdp2tqy808tkypr85da8asyqlfmm9l4tzuqly2t3a"],"addressesOutput":["addr1qxtpep0fv775hqm45rzcawr4rzgvmf02q3q2a4rvg8zl4xa2qpx89us8amdp2tqy808tkypr85da8asyqlfmm9l4tzuqly2t3a","addr1w8cvzcnclvkua25vx26j72pddatuedsxspm62mr63urs0fctuuzfv"],"fee":227417,"totalOutput":1673662978,"tokens":[]},{"hash":"1b82abff92e9cee3d2c2b4c6b99c2332c5d06fa974a0a23f180d370d1d1d20cc","blockNo":9037236,"blockHash":"462aae678161b8ace0901626ce863a7f70db10fc452386bbe3f02557dd82ba1f","epochNo":424,"epochSlotNo":152812,"slot":97957612,"time":"2023/07/16 16:11:43","addressesInput":["addr1qxjxswqlk0muln5a6fhu6r5vn3l3hqeml5f5gdkl6x48egyxh3yzvvenmzpgmmahjq97qxvastsyg0m8j90prr0c5mvsgk2a7u","addr1q93cnyfgvrxqpxfspcx3g0r9v8mmdzjn608ns3rklh4d8u5xh3yzvvenmzpgmmahjq97qxvastsyg0m8j90prr0c5mvsc7uxc8","addr1q8jykhzsrkw7w2u0zjprlqhu39mk85vyfvscvs50fph3hkuxh3yzvvenmzpgmmahjq97qxvastsyg0m8j90prr0c5mvsf9d6hq","addr1qxjxswqlk0muln5a6fhu6r5vn3l3hqeml5f5gdkl6x48egyxh3yzvvenmzpgmmahjq97qxvastsyg0m8j90prr0c5mvsgk2a7u","addr1qxjxswqlk0muln5a6fhu6r5vn3l3hqeml5f5gdkl6x48egyxh3yzvvenmzpgmmahjq97qxvastsyg0m8j90prr0c5mvsgk2a7u","addr1qxjxswqlk0muln5a6fhu6r5vn3l3hqeml5f5gdkl6x48egyxh3yzvvenmzpgmmahjq97qxvastsyg0m8j90prr0c5mvsgk2a7u","addr1qxywg7xtmycr3ny6c8p95yyzfz3axvgupr3r28yaq2amak5xh3yzvvenmzpgmmahjq97qxvastsyg0m8j90prr0c5mvsuxw9uy","addr1qx8t0adumj0r6n6zy3fhjqm2t4ayz5djug7fmdgmfedjn0uxh3yzvvenmzpgmmahjq97qxvastsyg0m8j90prr0c5mvstrpddh","addr1q98ttk9kuqwcl7v6ru0jyca9ylq5wgaahyuxc9vrv39nt3vxh3yzvvenmzpgmmahjq97qxvastsyg0m8j90prr0c5mvs7jxvwj","addr1qxjxswqlk0muln5a6fhu6r5vn3l3hqeml5f5gdkl6x48egyxh3yzvvenmzpgmmahjq97qxvastsyg0m8j90prr0c5mvsgk2a7u","addr1q8jykhzsrkw7w2u0zjprlqhu39mk85vyfvscvs50fph3hkuxh3yzvvenmzpgmmahjq97qxvastsyg0m8j90prr0c5mvsf9d6hq"],"addressesOutput":["addr1zxn9efv2f6w82hagxqtn62ju4m293tqvw0uhmdl64ch8uw6j2c79gy9l76sdg0xwhd7r0c0kna0tycz4y5s6mlenh8pq6s3z70","addr1qywrmnn0gku5ee6x9eww3jpewxh005ffl98dvfr0pd6qctuxh3yzvvenmzpgmmahjq97qxvastsyg0m8j90prr0c5mvs8l45xk"],"fee":311713,"totalOutput":80834239,"tokens":[]},{"hash":"b44d6c3b908f46daeb2c0fe36755c5fb7a5f00506fd427b4b574f72b00874557","blockNo":9037236,"blockHash":"462aae678161b8ace0901626ce863a7f70db10fc452386bbe3f02557dd82ba1f","epochNo":424,"epochSlotNo":152812,"slot":97957612,"time":"2023/07/16 16:11:43","addressesInput":["addr1v8elmfnjhdrgd6jyn95st9cjmcgnkzaksvxaapqwd3wg7egec60nw"],"addressesOutput":["addr1qxg2u4se552ktvhusvcuuxxcgkylm0dd3jnaqn3xwzhjptx2essy5f49vdq5xd9t8jt7nw7xv8373lwg2nh8hk3laphq2fe8u5","addr1v8elmfnjhdrgd6jyn95st9cjmcgnkzaksvxaapqwd3wg7egec60nw"],"fee":175093,"totalOutput":567933004,"tokens":[]}],"totalItems":71474307,"totalPages":3573716,"currentPage":0}