{"data":[{"hash":"609bb1a35e80a86b0dd7794dc92c189cd46a9424f2dfcddb824dcec114b2c7a1","blockNo":7820327,"blockHash":"aedd1e550097c42badc147a19f58efe01f178616c7f3d17ad6e398cdfde61c00","epochNo":366,"epochSlotNo":154780,"slot":72903580,"time":"2022/09/29 16:44:31","addressesInput":["addr1q8e8r50hrf4u8sv8xhtmp9qreshd2uezrm5w2xv38zylerjus8d9ul485lrrtv20phw6fwwl30zlplf4ph59lwd6at5s3luczv","addr1q8pxk7vdfmah7kqd5jwrn3zf2kdt28vq4kl07tu8l00r3c2us8d9ul485lrrtv20phw6fwwl30zlplf4ph59lwd6at5sxnmuzv","addr1q8e8r50hrf4u8sv8xhtmp9qreshd2uezrm5w2xv38zylerjus8d9ul485lrrtv20phw6fwwl30zlplf4ph59lwd6at5s3luczv"],"addressesOutput":["addr1qye59a9rtalftkh2g93ntgd6x8rg74sylr267l3kz5ryrut0uzuns53dep9f9pcdxr2aj8evztuewzzp65qtytr6nc9qrd3xe2","addr1qxxrfd8slxfal64utfz5rvmytrfqudv6phh8yl0r33vfzejus8d9ul485lrrtv20phw6fwwl30zlplf4ph59lwd6at5s976jx3","addr1qxxrfd8slxfal64utfz5rvmytrfqudv6phh8yl0r33vfzejus8d9ul485lrrtv20phw6fwwl30zlplf4ph59lwd6at5s976jx3","addr1qxxrfd8slxfal64utfz5rvmytrfqudv6phh8yl0r33vfzejus8d9ul485lrrtv20phw6fwwl30zlplf4ph59lwd6at5s976jx3"],"fee":567001,"totalOutput":64450026,"tokens":[]},{"hash":"b18f3ea33cf689b7dc1cc3f1be100cdd11587bfe8adee0756c7c8eb8a66ff758","blockNo":7820154,"blockHash":"596524ee4eeddf4bd8c873b15f3aff94452be2b179906673170cb4bcdbd1ddcb","epochNo":366,"epochSlotNo":151140,"slot":72899940,"time":"2022/09/29 15:43:51","addressesInput":["DdzFFzCqrht55sShscB5jqYY2bT1B6qQonGmWRL9Xq2iEgA5cV92ZJSEEMWhJc5iKjDjdjGKuzoNip3cUcxiddGfiB2ZCuiu8ZfbParM","DdzFFzCqrhswwLrCJQiJtSo9CZDE7an9M2b35yCRLfDbSikt1vG5p8ZkqT9KoVUqYaPgNzE8BYqpGuGUNvq34QZL1jeV2JGkvFGKJzuK","DdzFFzCqrhseirXXjqemMej3yqr3U4XG2bs6gv9z3iUMUPPQYGNhx3nbbHtFPv1MhrvkbF4mHdNtn18dPSB9hytMTb35tYvYZCPfx28m","DdzFFzCqrhskjNjs4S9CQEgREpqmpUysWCCgV9JxUXD5zk9Qyy1ZeM5nhWY39ussRR9NBhtG38SsWfiFThXYXyNst6Q1RNgzLomuk8wd","DdzFFzCqrhtBaB8AXMe5nzxuHUh9qxCVQphcgzrRutT4qRWXM8DwfjJkUZ9Eadz1QaPwPSL2th9ms2xzFS2qxU1dAKEuC7ma91VCy3rQ","DdzFFzCqrhsuYLvMmfVyiCyC4DzVXYNGx38tG2zCQmSeUBhCn8GpmtBve6ebyzYgxFqnk7GHrKRwNS8h9vwD8kTKnY9SnaVcRfehgCRn","DdzFFzCqrht6rs1Xa1TNjKy26X62p3tJZjoSW8D7nwXrX1vAQ5Jk6CXaGSmQFBXPn6AEASaVKTyR1FpALGsKcSRxkxyx617GKyFwgoqH","DdzFFzCqrhseo76Y6iKPwKCRg5Cb5T9tTrXPT3AbCKoREeEzmX94hMGXTicpHfH2Hzk4VfdtLirDnxAQmfGVN7b4AkjTqHqgWEStpgVS","DdzFFzCqrht3RrJfSwxrU1XTYodLBs324Ki9e2rW3AMxEviCGYJWJJASzNfq9GHxmWKrpeCw39dSVhUeLc4hMLcqg2imVyVgzwnN5Fg6","DdzFFzCqrhszHcnWLWfmXL27gTn6wqqte1fhwjeiuhuYQRa3Cz1JxTd5oCJmY5tbkT38k7d3PEd6zZ3dmBL7N6VxXwAhQASwuHLDGvFN","DdzFFzCqrhtBzsRiWKgH6ExwGvVL9KhkuDQjCqTiN4NH22Ew82iY6LJHuLjpY8cuD4dPnGmqfFc8Sbo1KP66gaAEKzfvhe2tRuGKdb1u","DdzFFzCqrhszFt1Qu3So4fvxHr9BnRFehc4CANy7hD7W3jK5L1Aa5UqhkKZKbw99cDtYUFAcEEbW7Tzr56euEPRXMkjqkA8bSRhc7fhb","DdzFFzCqrhsm8tTewwy3N8a4CVHdGWRxTfY83y35bwi1GafYPTfXCK7c9xCqHp5iGj6v9adhrgBQodZMA2dHRw6kj5JXYEt1s8dq9oKg","DdzFFzCqrhsoXW7fT53FUo5pY5RcuJ7iqFXyfEwAwdAYRZ2KEpdC7BQgkpUFZ9a8mZucSEDCgSgQ42GC9W4KPgzV2HguSeKPdxDTXZVB","DdzFFzCqrhtCYTEHAqbNHmdUsgpPwiPqshhtydxbdFd1pfmQb2kcNWUhDfXxx9urExrYBkJXzbAfgBPeFCGe1rYcy7vBkscePgfeBgxo","DdzFFzCqrht55sShscB5jqYY2bT1B6qQonGmWRL9Xq2iEgA5cV92ZJSEEMWhJc5iKjDjdjGKuzoNip3cUcxiddGfiB2ZCuiu8ZfbParM","DdzFFzCqrht2TEP9pPmkR4nNs1jEzYth3yc4eTf9aARCAtiMRq6AeEhiv2pJELFAK3z6FpmZ4DgeDdszJ6PVGhkd7CJrgGN4DrdrMHrA","DdzFFzCqrhsyXtaW8dU9F5a3Dg4o4WjDb4K1wpyKr2PbpA3ayaGAeNKGPChjXT5Ho2J3ZZb8nEmEyTiDhVqUwpq6RKCHF2KbtF6kCoUD","DdzFFzCqrhsvd8GfnK1FQcuSdi7GZpCVuK5dmnYtYfnCot6pNXbT9hh2ECCnpjzdn9uZi9ZnAFvk2cX2zfu4Keb4oySbPTyCUu1fiFVx","DdzFFzCqrhsiEnzxvArPdXKUKW3HUVsnzUQsNSRw96iZnwS2yqDKsS189Yy9rhdFpdsuYYXapgF3i1eTb7frHFzrTKS2QF2ZYx4n44Fs"],"addressesOutput":["addr1q9atjfpqwdtg7ytz0pz9zcaqvx8zr2uv6ysvc4csqynr683dzefudzxhadht99nh8gv4l3z93d486ygllgxuh2drrrpsdw6fws","DdzFFzCqrhseCKY6HDdZyYRRWwpBCSgQqapeyXaxQ8aoJswxcWsq1pZGj5wp2S6gYnd2hZFV8y7Dpugsj8ey8X2MoYaSrV39iUBdAJND","DdzFFzCqrht7PdiERwydJtzRFGCz57pHu8miDsd84zHshH5SZmmAwRAJKx5qC4qY82wXMuZsQF8ZSaD1HePrLna82MLsG2QEaocRKeSv"],"fee":921289,"totalOutput":55165625841,"tokens":[]},{"hash":"dee7f7d918c4f26d335ea68e0995de52ad45fefcb666123d3c1b9b9d4985eb22","blockNo":7820082,"blockHash":"dda9e714ccbceb95c5bd835e26da3bbb1f1ea6d4582bb85bab30a43bf28aea14","epochNo":366,"epochSlotNo":149662,"slot":72898462,"time":"2022/09/29 15:19:13","addressesInput":["addr1q8kccqlzah3hp9rpnhnacdr5ffhhp7990qdqulqgyn7syk708k6krrpuf75x3ydyycmjjfpwm28gstqdzdg934p7avxs538k4a","addr1q8kccqlzah3hp9rpnhnacdr5ffhhp7990qdqulqgyn7syk708k6krrpuf75x3ydyycmjjfpwm28gstqdzdg934p7avxs538k4a","addr1q8kccqlzah3hp9rpnhnacdr5ffhhp7990qdqulqgyn7syk708k6krrpuf75x3ydyycmjjfpwm28gstqdzdg934p7avxs538k4a","addr1q8kccqlzah3hp9rpnhnacdr5ffhhp7990qdqulqgyn7syk708k6krrpuf75x3ydyycmjjfpwm28gstqdzdg934p7avxs538k4a","addr1q8kccqlzah3hp9rpnhnacdr5ffhhp7990qdqulqgyn7syk708k6krrpuf75x3ydyycmjjfpwm28gstqdzdg934p7avxs538k4a","addr1q8kccqlzah3hp9rpnhnacdr5ffhhp7990qdqulqgyn7syk708k6krrpuf75x3ydyycmjjfpwm28gstqdzdg934p7avxs538k4a","addr1q8kccqlzah3hp9rpnhnacdr5ffhhp7990qdqulqgyn7syk708k6krrpuf75x3ydyycmjjfpwm28gstqdzdg934p7avxs538k4a","addr1q8kccqlzah3hp9rpnhnacdr5ffhhp7990qdqulqgyn7syk708k6krrpuf75x3ydyycmjjfpwm28gstqdzdg934p7avxs538k4a","addr1q8kccqlzah3hp9rpnhnacdr5ffhhp7990qdqulqgyn7syk708k6krrpuf75x3ydyycmjjfpwm28gstqdzdg934p7avxs538k4a","addr1q8kccqlzah3hp9rpnhnacdr5ffhhp7990qdqulqgyn7syk708k6krrpuf75x3ydyycmjjfpwm28gstqdzdg934p7avxs538k4a","addr1q8kccqlzah3hp9rpnhnacdr5ffhhp7990qdqulqgyn7syk708k6krrpuf75x3ydyycmjjfpwm28gstqdzdg934p7avxs538k4a","addr1q8kccqlzah3hp9rpnhnacdr5ffhhp7990qdqulqgyn7syk708k6krrpuf75x3ydyycmjjfpwm28gstqdzdg934p7avxs538k4a","addr1q8kccqlzah3hp9rpnhnacdr5ffhhp7990qdqulqgyn7syk708k6krrpuf75x3ydyycmjjfpwm28gstqdzdg934p7avxs538k4a","addr1q8kccqlzah3hp9rpnhnacdr5ffhhp7990qdqulqgyn7syk708k6krrpuf75x3ydyycmjjfpwm28gstqdzdg934p7avxs538k4a","addr1q8kccqlzah3hp9rpnhnacdr5ffhhp7990qdqulqgyn7syk708k6krrpuf75x3ydyycmjjfpwm28gstqdzdg934p7avxs538k4a"],"addressesOutput":["addr1q8kccqlzah3hp9rpnhnacdr5ffhhp7990qdqulqgyn7syk708k6krrpuf75x3ydyycmjjfpwm28gstqdzdg934p7avxs538k4a","addr1q8kccqlzah3hp9rpnhnacdr5ffhhp7990qdqulqgyn7syk708k6krrpuf75x3ydyycmjjfpwm28gstqdzdg934p7avxs538k4a","addr1q8kccqlzah3hp9rpnhnacdr5ffhhp7990qdqulqgyn7syk708k6krrpuf75x3ydyycmjjfpwm28gstqdzdg934p7avxs538k4a","addr1q8kccqlzah3hp9rpnhnacdr5ffhhp7990qdqulqgyn7syk708k6krrpuf75x3ydyycmjjfpwm28gstqdzdg934p7avxs538k4a","addr1q8kccqlzah3hp9rpnhnacdr5ffhhp7990qdqulqgyn7syk708k6krrpuf75x3ydyycmjjfpwm28gstqdzdg934p7avxs538k4a","addr1q8kccqlzah3hp9rpnhnacdr5ffhhp7990qdqulqgyn7syk708k6krrpuf75x3ydyycmjjfpwm28gstqdzdg934p7avxs538k4a"],"fee":442833,"totalOutput":300775623,"tokens":[]},{"hash":"a0f66b05abcc3ac7ec82c3506b2300f56dcb6482185fa2abe71082c9d983375c","blockNo":7819904,"blockHash":"cc71d75718c852b25e2a2b4a836eb0c5e0459c17abad0c3d5c1e74a89953f6ec","epochNo":366,"epochSlotNo":145813,"slot":72894613,"time":"2022/09/29 14:15:04","addressesInput":["DdzFFzCqrht17EksWtZBRP9MJ1xSRyqwh27ZmmDPYSa5kCoGiva6FTWuYcWkLnvKqH2wzoqZ3ieWQ5yUE6SUTsaWbBHusZPrJJiXftSc","DdzFFzCqrhsrrThcnQAcwzs7Un3xmmLRTgPggohuvdS8mL6kD5tKL4D9yF3WKEyvdQFC2HTSaM5rLucxkXgLCwCbMPF8U2z1BeQs4Drz","DdzFFzCqrhsjqHpao3qzfdF9HCAHWyAUw7pSYKn1fF1B8u5FogurFaYLDUyD9WW7SahP8SnoJDqg2BYxVxEJdikzyDvG8BgtpR2X1b63","DdzFFzCqrhtAeDoARwJ9SoLiwq1qGZTnLwzJWthiC1U48MddY5BCfLtVBu5FykveJZXgVy8M6hcqtHAdVPwnUQnjHQi1zWx2L1yZj63u","DdzFFzCqrhsjiuBTWN4idL1QCF1cLNtKQmemkoWs8gRB7Xm8xsHzAQ3hpTo24vd6JqBVc8b39sR5MozYqqdd6cNFQb4eRSVGDPZP3MBL","DdzFFzCqrhtAuHX5qWYKg44qTdj78cwwRNhSaqLjp61jqiPJTaeN9cjBRjixbrKbK4Ve3oTtU8BnCwqHRaENevzsS4JH6ZbuUT7gn15b","DdzFFzCqrhss7CCFyTeerQHD4vLvKQz4vYsL15xJgvCxywr6fdjLDTYL6m9STQMeoJc8QDmG9MGK674rijDn1wjDz3XH5b2geue1KXZb","DdzFFzCqrhsuneKPDqyQRPQANwqZ3ysyhud4RdjLF8fBhHvdBCg3tVUFrGsKJPrTSc3kXGjQZHRq9udLY29kVdK3jT7uJLFd7tuhi8eu","DdzFFzCqrhshCV7Pc6qh11tvnSP316yJKB42RBCBfepbBUdcZvWQxj3PhimvjyQPREBiTyCPK5KoJW3EFvRCZ3Zg3CdaZfecP9Y8xRkq","DdzFFzCqrhspfD3B9UvXJ8X9YbXXSXYDVHiznBmAv8RfpYAKBqDF6peCR4HGFxWcZGm2SbVBdFypn1FwLC6ehNYGaiQ62etVFK4piirh","DdzFFzCqrhsx9Z5ngfJEmphFcQo2ND5LRruW1zktkvjj2KtCPjZhdj4ZULY8oBRjn1HMwcXugqjMVcFWJwxTvvyo9z9hMivJJP8g5GJ8"],"addressesOutput":["addr1q9atjfpqwdtg7ytz0pz9zcaqvx8zr2uv6ysvc4csqynr683dzefudzxhadht99nh8gv4l3z93d486ygllgxuh2drrrpsdw6fws","DdzFFzCqrhszHcnWLWfmXL27gTn6wqqte1fhwjeiuhuYQRa3Cz1JxTd5oCJmY5tbkT38k7d3PEd6zZ3dmBL7N6VxXwAhQASwuHLDGvFN","DdzFFzCqrhsvd8GfnK1FQcuSdi7GZpCVuK5dmnYtYfnCot6pNXbT9hh2ECCnpjzdn9uZi9ZnAFvk2cX2zfu4Keb4oySbPTyCUu1fiFVx"],"fee":834169,"totalOutput":71727151177,"tokens":[]},{"hash":"6b024830698f4fc4491053aafcd6f2a2410d768a1d0ed6eb8097fdae2ec55ed0","blockNo":7819653,"blockHash":"eb5757e45d553482636c434bf002314bab31cb505c1aec67a9fd42d9515b8f80","epochNo":366,"epochSlotNo":141252,"slot":72890052,"time":"2022/09/29 12:59:03","addressesInput":["DdzFFzCqrhsmVj8dziv7BnNcWxW6hzCi4c97LEjZw1cAzmC6ExezgmkgWbA7KAoKnMEMRNScVdSFXf8jK3WjbwddJwgR3VMKuByM5set","DdzFFzCqrhsiT2skeTpoTqSZrMs8KWePRotYsk9bwCX6voJkoZ8FLPvjxPFRUSEeVjBFzMucLQDLrutKXrXXrgrJRVshJqq6Tsrfy2u8","DdzFFzCqrhsziCRcf77tdLjoSm49MwmUMd9DbCT26Bew28EezJdyFdEtzRQ3g2XACLwrxS93CQrpusew3SiwUfGotJypiETEG5nKFNLp","DdzFFzCqrhsiwkg2E69N9KxtnN3TVkicKBuDfsQZHyUBP93DcRVdUWKSA9Xcc9odk7Nu7STgQmkxipQRLbQq9gqNbNs7JjeXxF9LZsg2","DdzFFzCqrhsuvEJ92xJVrwJE7pNZ4ft8MBzJKFy5GDj1a2tZPfmGUHy3opoWAx9RKr6TPUQvrmZWNuwKnsnoMcH5rw363szVLZkJvVm8","DdzFFzCqrhtBTQyvRyxJV82UJiCqC5EmC3dEGf2RDUSqqnpvwN2erscP3DFPAnSVWYeu5aYxx9EfztQdB6tHmdDJRbrf3C9gAqLFfzx7","DdzFFzCqrhsvFhAHDHpEfR9rMDSqqVwQLZt9QDRuGAx4fEH4B7BWQeaqvoMHfXN7WMh4Xo5wU1KFJdp4y1TGXdrsYajWwP7PHqnkvMQw","DdzFFzCqrht9hQE9zekQw1Bo382273XW3KiDLouvZtkv9zpe9ut7YoY3QPenHoLW4RV6iUQvX34H5pSN2x3hv8RUiY6vvH7tV3cqzK38"],"addressesOutput":["addr1q9atjfpqwdtg7ytz0pz9zcaqvx8zr2uv6ysvc4csqynr683dzefudzxhadht99nh8gv4l3z93d486ygllgxuh2drrrpsdw6fws","DdzFFzCqrhtAeDoARwJ9SoLiwq1qGZTnLwzJWthiC1U48MddY5BCfLtVBu5FykveJZXgVy8M6hcqtHAdVPwnUQnjHQi1zWx2L1yZj63u","DdzFFzCqrhsjiuBTWN4idL1QCF1cLNtKQmemkoWs8gRB7Xm8xsHzAQ3hpTo24vd6JqBVc8b39sR5MozYqqdd6cNFQb4eRSVGDPZP3MBL"],"fee":805129,"totalOutput":53386838577,"tokens":[]},{"hash":"f56004d158028618b73d8b45a451e413625598ea4f9f4b873397353e5c3dadac","blockNo":7819605,"blockHash":"6d049670f77702c71460630c2dc08c6ba400aa2ffee3468b23d456775ee37d11","epochNo":366,"epochSlotNo":140459,"slot":72889259,"time":"2022/09/29 12:45:50","addressesInput":["DdzFFzCqrhsuewEbhqxXwvDXXY6BNGiwj1xZh2zKYBdLpuNVCgZYhP3UYn6Dr1LK9NpNoTTCJ3vPCrkt74x6F2dX449mSrZtjc7sSgyJ","DdzFFzCqrht4stVboVLcHNkrE6brprtV4KbpeScBZUfgL51x4Xa7ZDtQz3s1NZ4CNWFwTDse7h4uB416bGThGV7MK1HMfVnFrp47c9uR","DdzFFzCqrhskoBaGukKGzrp1wcUcnygCQrhmfXNg3HWXxSG1XcmjspqgEimkF4xC9FucxKVzaJ98yPyi5PsJ9x2B4YJcdHQu5bdT88a5","DdzFFzCqrhszNog5Tg3L79iYNCLEhz8FXyCRTRYe6Pr4vcY2gBbgTzhHzRypEe86iQzZU3DVUVu9DMM16pVfyihEV9kdqG5b766eG8nF"],"addressesOutput":["addr1q9atjfpqwdtg7ytz0pz9zcaqvx8zr2uv6ysvc4csqynr683dzefudzxhadht99nh8gv4l3z93d486ygllgxuh2drrrpsdw6fws","DdzFFzCqrhtBTQyvRyxJV82UJiCqC5EmC3dEGf2RDUSqqnpvwN2erscP3DFPAnSVWYeu5aYxx9EfztQdB6tHmdDJRbrf3C9gAqLFfzx7"],"fee":482081,"totalOutput":5537744419,"tokens":[]},{"hash":"5204d442a6cb2b8ce7bfad341811bc396161a83ac6d04e1c87a9e516cd23b1d0","blockNo":7819253,"blockHash":"c717ff60df27b1c7cafe30f52df9f6dda02527378721a83527bd594abde4bec1","epochNo":366,"epochSlotNo":133478,"slot":72882278,"time":"2022/09/29 10:49:29","addressesInput":["addr1q93wa774w5l69qvg0vm86yn8m6kkfscxheyaqq8x49svhk3qxqnl90qt2lakyj2xkp0flcvwx4y4fl3vxuskyvr4cjsqdk8882","addr1zxj47sy4qxlktqzmkrw8dahe46gtv8seakrshsqz26qnvzypw288a4x0xf8pxgcntelxmyclq83s0ykeehchz2wtspksr3q9nx"],"addressesOutput":["addr1q8sutnaw7gwvzcwl70clf6llrmjs4gev9w8qgh7n9zcmyxpqxqnl90qt2lakyj2xkp0flcvwx4y4fl3vxuskyvr4cjsqz3djfe","addr1q86ylp637q7hv7a9r387nz8d9zdhem2v06pjyg75fvcmen3rg8t4q3f80r56p93xqzhcup0w7e5heq7lnayjzqau3dfs7yrls5","addr1q9cwvremt6n320s2e3agq0jyq82yhrk3htsu0w426xnz5us70z4w0jgvcdkkynmm8wmds66jd9kusnjfpu6raw5fqp0sr07p5w","addr1q8tc0e98v524kw75k359dmewegrtk0k0ykf6ptns4rruzthlew6r2p8kl0kual54x86490mua5dup4hs0jrdep2yvamqj3nt0g","addr1q8sutnaw7gwvzcwl70clf6llrmjs4gev9w8qgh7n9zcmyxpqxqnl90qt2lakyj2xkp0flcvwx4y4fl3vxuskyvr4cjsqz3djfe"],"fee":1163570,"totalOutput":47490972,"tokens":[]},{"hash":"22d2482f5913156ee1a26836265570a4ab7f1d0f82b0a1e8667b7fa9ca60233b","blockNo":7818119,"blockHash":"bcba4eda98667fddb53e04f02c59b379be80f1087c22685b6f854525acb42727","epochNo":366,"epochSlotNo":110365,"slot":72859165,"time":"2022/09/29 04:24:16","addressesInput":["DdzFFzCqrhskoBaGukKGzrp1wcUcnygCQrhmfXNg3HWXxSG1XcmjspqgEimkF4xC9FucxKVzaJ98yPyi5PsJ9x2B4YJcdHQu5bdT88a5","DdzFFzCqrhsmTDoUxi8vQgL4J84Yff82k6c8TLShd58f6zRHssP3RyebuDqCvCKrDtosZNXbxnvbHnMKysjJG442W1d3LRuEuqHvCP9A"],"addressesOutput":["addr1q9atjfpqwdtg7ytz0pz9zcaqvx8zr2uv6ysvc4csqynr683dzefudzxhadht99nh8gv4l3z93d486ygllgxuh2drrrpsdw6fws","DdzFFzCqrhszNog5Tg3L79iYNCLEhz8FXyCRTRYe6Pr4vcY2gBbgTzhHzRypEe86iQzZU3DVUVu9DMM16pVfyihEV9kdqG5b766eG8nF"],"fee":462721,"totalOutput":665619270,"tokens":[]},{"hash":"9d6aae04c1f0543aa25165663b307b12fc6861ea20910aa57d2381e3e240859b","blockNo":7818067,"blockHash":"f949b3274990dfee51c99328c8e1ec73deda810f6d09297bf7f82619a2f7c1d1","epochNo":366,"epochSlotNo":109192,"slot":72857992,"time":"2022/09/29 04:04:43","addressesInput":["DdzFFzCqrhsrT5oJj7RhygAtQgneSHfiNiViRhJWNYHBAr1iCGeDYY4jfiJkPL6aTJSzZCZ96gpephvrTX2KY7PVDcbRA9GA1RN2YCrs","DdzFFzCqrht7eEeMTGdgjfmkVFLaHoaU23HJ1zJKmb7WcZb3Vwkuz1tzndqfhqGY5zesCvNyG8korjcrr4NtHSK9WheSVyHoTzamAWVu","DdzFFzCqrhsjBV7KeReJUQekNyTrxh7gxBCtmntMz4mZjhpLFkb5Xug26e7BrKeA5DwjAVtDNU56xHMdd197CD4YyiphXmM2chCdjoKd","DdzFFzCqrhsxWk732iBXMyru27VnJUiVP1hQnXAuwknXpMNtV6vvfTs92udATihGn89BEEA3Dgc8mhNWFNyauaKVvenVYBzkGw4Xvq7W","DdzFFzCqrhsjNtk87xo5zW52F2RVWKsFgM7Za3xA8BaqpxacBQkhYWrvWnrt5UY2YxXLw7d6BQr24XH8sXsiMrZeFTRiPsmSKRqb6CMD","DdzFFzCqrhsjiUgJqXgiQ64kQ1MSJCWq1embg75AMot1rJSeA2RQgvAnWgt6n7CA9twm1r8sNwNYje3pizFcqg12U7dnzCo8F62dmdHi","DdzFFzCqrhswnxvR5MCxB88iFkJXkwtdKTDkP5xZXYBNiJy9DhfnM3u6nPSohuzqAghXtoNyB3n37psxhJwW2Mt9QBWiahFbJjiMy2wx","DdzFFzCqrhsjBhfnoMCGb7fC2aRRXhfK516AcRdPk5gPtyR7giuFDRy9czNjy7XhhJ94UCk46nNRVyYUST5XpgG6PHrPtWA61PoSU4ow","DdzFFzCqrhsfeoKLPLjLFVauWJAoCJmZTLdqXsUwbhv3gygEbsPTMYZfU6xPp7RugiGmBNWREZmrKxZak7VbyubYYTWtRNCNz5egWmLE","DdzFFzCqrhszfQvRzyLoHLF1gmZ6Vb3MzroeCS1RXq4c4JCPYuqUnEZt8HReNSJ4v959SH1YD85dtRmFaxr3Gb2U69WGmFEKMdKm1rxP","DdzFFzCqrhsmxSLPZTeVCWusRYjyFvSTuZEgvmFAtQ8X828DtzTuXQeaLaT1sX5yDGoEDfMN8GhguN8x2WRx776cyc1f7hstyKkengDh","DdzFFzCqrht59UVhHC9owtZnFXuUCwsZWQThAySn43m8ZsD8rBGBjkH4fzwaGAsyV9CxGNw76nX2eB4YUbZBiqFpUN7rpxUsq85B9XRX","DdzFFzCqrhsshtVtK7jS7UYzaELT8Xgu19N77xe6kidhWsVxeGpouG1GUzw9dLaFhrWXErcS9jge7B1YMvdNpceR2PPqpoKuStWM1jGf","DdzFFzCqrhstg2KBMjWmzwXH9kdYTAD7MsrK24a8j696sH5ZkNFwfPLmv8APvhKcAZekS5YXu1Cw81QAAWFFH9J5YS3aQ1mTYCRxgt9j","DdzFFzCqrhsuQpZcXHneSfQpr6EstfiC671bf5TMmdFpXZkBJ6bUkgLDXqykHjCLoXzyFoGmRkkuGTrwCw74Lwa7B8xL26NnePWFYXdY","DdzFFzCqrhsyJWZh5oPYvcExR5gAoi5mFUDtWbuZRSbxrrhc1CbdGxXwrzbFwkz4aY8iYFV4HKWbHhE2XKedWNm3uoKEP1iKiWkrkt5c","DdzFFzCqrhsmX1n42CN1o2N68RSN9psEX87i5nKUwNQzxK2ebvFkquZ55LksNgVRouBqVNNRRNxQmhMQDU434XEspc9JWzkJKbcbAXZB","DdzFFzCqrhshi6bvE2Wmdw11xRzUiwkr4Y6dfT7fJTMkYjtFxt2FBJGPyyoNS3N7oBFiuRM76b4RJ9fdnDXB4zXsD6DuUEZzagaWhrUb","DdzFFzCqrhsnKhkgDwUAHRK3zWKngpGJ8BeWzWUDm8XKzUR2SEuRsV1f2DKfkJ9P7iTNZHTsCqseBiaYKjpYabBTBaJgYf62bjoQQy4B","DdzFFzCqrht5v3tU9p2AzQxjEt6YS1vQ7zfib9BJyqjRei6o5iimtcCU3W6mRLd7Mw3sEUGB7A9vpdtzKUDHc9TqhktzTUVHEfyJY5yE","DdzFFzCqrhsjazbpGVtwGvkeEK17JJAsSXVkFVDt8dYgMmioUXX8EzMnsAd6iUCxqXX8kddYCZhoJS8e5hc7pX5GWQGAcmTSNhXtqLzu"],"addressesOutput":["addr1q9atjfpqwdtg7ytz0pz9zcaqvx8zr2uv6ysvc4csqynr683dzefudzxhadht99nh8gv4l3z93d486ygllgxuh2drrrpsdw6fws","DdzFFzCqrhsmTDoUxi8vQgL4J84Yff82k6c8TLShd58f6zRHssP3RyebuDqCvCKrDtosZNXbxnvbHnMKysjJG442W1d3LRuEuqHvCP9A","DdzFFzCqrhsoshJtVw4RZqVF2kCb2rdCAZMKcV6rGvyoToDvcX9oNB1fPwpDgokDQWCbnE8DRUhgkhq7evGmrkL8hsmcxdbtSyc4XM9X"],"fee":930969,"totalOutput":51330064771,"tokens":[]},{"hash":"f286fb16e09421e54e91d231ce58e80db8ea2d7b8c16608bb68e1aabb85c62cf","blockNo":7817858,"blockHash":"a69d77c422e16ee97d3c396cb28cabcb5101427a66494c3e71b8e3bdd2eccda5","epochNo":366,"epochSlotNo":104301,"slot":72853101,"time":"2022/09/29 02:43:12","addressesInput":["addr1q9qxsdgvetp6prrjcrrjprj5dx745x2r4tf70qqvdrdvhg65s0dc4kefaltvsph8cz4p8zc4hpagnmxfz4tn7scmetfszvkqt2","addr1qx7a38wylyury6upmz394gtmlgllct7sjtuj9d9z6pazww25s0dc4kefaltvsph8cz4p8zc4hpagnmxfz4tn7scmetfsc0274n"],"addressesOutput":["addr1vyc7ca9flp5gfeapd78uxzzq7l6qnsytj85n62lr5smhgssen2u2s","addr1qxnjk6af6s06aw4ll8ru3llecws0g4mjunfe45h2qwv3g425s0dc4kefaltvsph8cz4p8zc4hpagnmxfz4tn7scmetfs3yh26q"],"fee":389065,"totalOutput":33093306,"tokens":[]},{"hash":"803cadff30dd7796a6f20b6d202602806776bf7e8bc868233704f734df2ee513","blockNo":7817793,"blockHash":"9ace327e50a13ceeacda263981d9d872ba43fcc72a60ba3b7a40fc54fac0cce1","epochNo":366,"epochSlotNo":103148,"slot":72851948,"time":"2022/09/29 02:23:59","addressesInput":["addr1qyc4xt2c3cyvfhd5t4x4a2rtc6tlhquegjfhyaye686n3qe32vk43rsgcnwmgh2dt65xh35hlwpej3ynwf6fn5048zpse4wwzc","addr1qyc4xt2c3cyvfhd5t4x4a2rtc6tlhquegjfhyaye686n3qe32vk43rsgcnwmgh2dt65xh35hlwpej3ynwf6fn5048zpse4wwzc"],"addressesOutput":["addr1qyc4xt2c3cyvfhd5t4x4a2rtc6tlhquegjfhyaye686n3qe32vk43rsgcnwmgh2dt65xh35hlwpej3ynwf6fn5048zpse4wwzc","addr1qyc4xt2c3cyvfhd5t4x4a2rtc6tlhquegjfhyaye686n3qe32vk43rsgcnwmgh2dt65xh35hlwpej3ynwf6fn5048zpse4wwzc"],"fee":237985,"totalOutput":800189676305,"tokens":[]},{"hash":"9283fb4a1a91391d830c1a6859c152fa2e85bffcf4d05086b16fe36a1d70a065","blockNo":7817534,"blockHash":"db171e46a7f0f6f1e2b2d51ffd671a68ff328c00349492127db02417014afcf0","epochNo":366,"epochSlotNo":98494,"slot":72847294,"time":"2022/09/29 01:06:25","addressesInput":["addr1q8w6xruarackyex3ku9f0m344723ksuw6ejzfqruacglfqtar6yl38wymv693k5axgj087nucvqrz80h3gec30etm6esa4uwtu","addr1qxa7sfxuy7wkpmcwrg8ma5uqer4llf5carfhn3amlmecxcrar6yl38wymv693k5axgj087nucvqrz80h3gec30etm6es7mj3gm"],"addressesOutput":["addr1q8fjdde87jrua78trg9ylv7gpvd5skzcv5nqp3wl467ykzgsmz083klcvm744y0n7yyg49ykzz0j628xpu4n5u0r0r4qrfqf6q","addr1q9umfy644y4cptvfm9wknjew38034m0amgpkejd77wuedhmar6yl38wymv693k5axgj087nucvqrz80h3gec30etm6esyhzk27","addr1q9umfy644y4cptvfm9wknjew38034m0amgpkejd77wuedhmar6yl38wymv693k5axgj087nucvqrz80h3gec30etm6esyhzk27","addr1q9umfy644y4cptvfm9wknjew38034m0amgpkejd77wuedhmar6yl38wymv693k5axgj087nucvqrz80h3gec30etm6esyhzk27"],"fee":308897,"totalOutput":20853592,"tokens":[]},{"hash":"a7964279e49d060c5593b828fd6c9604ccb1945b22704e3fb09ce55d151bc636","blockNo":7817084,"blockHash":"838b10d22acb14122c9ee3966c9c978087d96b8b44a4e8d341370efbd537753f","epochNo":366,"epochSlotNo":89699,"slot":72838499,"time":"2022/09/28 22:39:50","addressesInput":["addr1qxvfczek4uzgsdd4trqg6qu62r8ms2akfcm78km53hku6jycns9ndtcy3q6m2kxq35pe55x0hq4mvn3hu0dhfr0de4yq577lxc","addr1qxvfczek4uzgsdd4trqg6qu62r8ms2akfcm78km53hku6jycns9ndtcy3q6m2kxq35pe55x0hq4mvn3hu0dhfr0de4yq577lxc"],"addressesOutput":["addr1qxvfczek4uzgsdd4trqg6qu62r8ms2akfcm78km53hku6jycns9ndtcy3q6m2kxq35pe55x0hq4mvn3hu0dhfr0de4yq577lxc","addr1qxvfczek4uzgsdd4trqg6qu62r8ms2akfcm78km53hku6jycns9ndtcy3q6m2kxq35pe55x0hq4mvn3hu0dhfr0de4yq577lxc"],"fee":237985,"totalOutput":2150081193466,"tokens":[]},{"hash":"09dd65539a50931e66b1865e4f0537467a56ca997d3f3650531acf76e0047a1d","blockNo":7816443,"blockHash":"034b78725c6d0a7fc335e53973a5396cc0059f8ae1c89868ea60f6999d71366b","epochNo":366,"epochSlotNo":76730,"slot":72825530,"time":"2022/09/28 19:03:41","addressesInput":["addr1qyecjgprat9qjdfkv6ln45eww5a9lwkgqn92x6lspd339ky00hv6dpawknxe42d8dlx42msv2nt8yej77vudk0uruvtsh2aeym"],"addressesOutput":["addr1qyecjgprat9qjdfkv6ln45eww5a9lwkgqn92x6lspd339ky00hv6dpawknxe42d8dlx42msv2nt8yej77vudk0uruvtsh2aeym","addr1q96wpwla2ef6d5y7wvtvk0nzhez9ja7alzh3ef6sajnkye2pl7zwesg24e8nh2zjdwn593eem6w4zwkwjhshzu937pxqn2lwt9","addr1q9gnz2qeck34nfhmne4dar5w763nrcxn7qq0d2qatwl6nheg79la6tvt3a2e44s73x0rr6hfpw0zp897mv0w32xxclgsqrpw3y","addr1qyecjgprat9qjdfkv6ln45eww5a9lwkgqn92x6lspd339ky00hv6dpawknxe42d8dlx42msv2nt8yej77vudk0uruvtsh2aeym","addr1qyecjgprat9qjdfkv6ln45eww5a9lwkgqn92x6lspd339ky00hv6dpawknxe42d8dlx42msv2nt8yej77vudk0uruvtsh2aeym"],"fee":489125,"totalOutput":152422634,"tokens":[]},{"hash":"aaaecd2114173b37e7af6e3bcccdb4c7b9b878c4c21fc4aa8b33edcb5554c7ef","blockNo":7816088,"blockHash":"0c7c36a6f909958cc60a6339d841948f37729ce2b12cecca362590766bd55fd1","epochNo":366,"epochSlotNo":69550,"slot":72818350,"time":"2022/09/28 17:04:01","addressesInput":["DdzFFzCqrhskoBaGukKGzrp1wcUcnygCQrhmfXNg3HWXxSG1XcmjspqgEimkF4xC9FucxKVzaJ98yPyi5PsJ9x2B4YJcdHQu5bdT88a5","DdzFFzCqrht8vX18fUx8enyZ3bB733vfLKghdjRBnJ79B98CrngwRpDkVZhHWukgw5FQxMRM3thpBKmjrGbUR3foeRKbFHm2bzq7S72m","DdzFFzCqrhskoBaGukKGzrp1wcUcnygCQrhmfXNg3HWXxSG1XcmjspqgEimkF4xC9FucxKVzaJ98yPyi5PsJ9x2B4YJcdHQu5bdT88a5","DdzFFzCqrhss1rhxao5FtkE1roW84NW2ivnEi64WcPCKziHXSY6NVxYHPZEassFaTMaLaNXyS8cyUGDwhktjezed79rtq2GACE2KprEo","DdzFFzCqrht7ea3EABenRQx89FZ2wWL98vTUtZS2xQJDAHDP7CRMaGS3Jpqrpe6wExPfpf8Mdkym4a8y1av3ajWYsE79xBcvYeWoC8ej","DdzFFzCqrhsgadKV3BvtSQ3zcYd8RmcWyqxwnyfpDCDPcXccfVGXBm5TBinqKdjQuLeYZ4eYmQSMx1kqrcVxFUKFxUhGvc485Bmp8PFi","DdzFFzCqrht7ea3EABenRQx89FZ2wWL98vTUtZS2xQJDAHDP7CRMaGS3Jpqrpe6wExPfpf8Mdkym4a8y1av3ajWYsE79xBcvYeWoC8ej","DdzFFzCqrht9hXwEvszikdBzm8zhiEgcpMfRiQX2KFHsHeY3Mapg8QeZZ4Bkf94eRteoQoZnGRVLBw52wGoNxs59FTAfosg9FQLrBmV3","DdzFFzCqrhspG5bsCnA6h9WAvQLFkUfyPT8ckZjJaCgDcmEWmN8fyeHmoD4mnPKjZiVbAdPEubxz6YRZMhp5Svw3DcQryWDLcm2AeVNa","DdzFFzCqrhszKpTpdkQcpuwzyAoFMAsS9zKHnW7wY5KLHZuYptZWasLN495irPqL6qppjzt2ZZRb9HVziRasp5imHdRoVdhRsPvtuspU","DdzFFzCqrhspRqrBz8LDS3UzzyzRtsN9C75HoRQ3jb7eCSPWVcopFvKrCWUxKFXQWbb1ntxvKsYwbc5uZimhWqRqHzcabGD1GeRiearg"],"addressesOutput":["addr1q9atjfpqwdtg7ytz0pz9zcaqvx8zr2uv6ysvc4csqynr683dzefudzxhadht99nh8gv4l3z93d486ygllgxuh2drrrpsdw6fws","DdzFFzCqrhshi6bvE2Wmdw11xRzUiwkr4Y6dfT7fJTMkYjtFxt2FBJGPyyoNS3N7oBFiuRM76b4RJ9fdnDXB4zXsD6DuUEZzagaWhrUb","DdzFFzCqrht7Yf8GPRueBYtwgCRC7h866ZL4UEV5ZZBhqrVqgZonkMpYg1tM6QdbBHQUr9t6KFTTfgp5xVZgTJAsEJ6hNQD2pGZC96sJ"],"fee":834169,"totalOutput":52354163913,"tokens":[]},{"hash":"d6bfe389f9a928a5d362b139227156c840c427eddb5f336fa9ebd7eabb287dad","blockNo":7816053,"blockHash":"cfa29202d10b46a744abecbcf07f0b27b7df106dbaee42e3758d0bb64e483d54","epochNo":366,"epochSlotNo":68744,"slot":72817544,"time":"2022/09/28 16:50:35","addressesInput":["addr1qyhdlaush2v63sx8k09uaut5lkf5w43jds3yfl34t0xyr6fwmlmepw5e4rqv0v7temchflvngatrympzgnlr2k7vg85ss6j2tj","addr1qyhdlaush2v63sx8k09uaut5lkf5w43jds3yfl34t0xyr6fwmlmepw5e4rqv0v7temchflvngatrympzgnlr2k7vg85ss6j2tj"],"addressesOutput":["addr1qyhdlaush2v63sx8k09uaut5lkf5w43jds3yfl34t0xyr6fwmlmepw5e4rqv0v7temchflvngatrympzgnlr2k7vg85ss6j2tj","addr1qyhdlaush2v63sx8k09uaut5lkf5w43jds3yfl34t0xyr6fwmlmepw5e4rqv0v7temchflvngatrympzgnlr2k7vg85ss6j2tj"],"fee":237985,"totalOutput":1509793152159,"tokens":[]},{"hash":"cf976ccfd119cd6de83972e28e948c489fa88b3b1896bfd14c306c48197767ae","blockNo":7815294,"blockHash":"75e8ec4f420b0fece9c55ef909cfa40936ce0c6ee5e2e183a742aa432c898930","epochNo":366,"epochSlotNo":53441,"slot":72802241,"time":"2022/09/28 12:35:32","addressesInput":["addr1q8e8r50hrf4u8sv8xhtmp9qreshd2uezrm5w2xv38zylerjus8d9ul485lrrtv20phw6fwwl30zlplf4ph59lwd6at5s3luczv","addr1q8e8r50hrf4u8sv8xhtmp9qreshd2uezrm5w2xv38zylerjus8d9ul485lrrtv20phw6fwwl30zlplf4ph59lwd6at5s3luczv","addr1q8e8r50hrf4u8sv8xhtmp9qreshd2uezrm5w2xv38zylerjus8d9ul485lrrtv20phw6fwwl30zlplf4ph59lwd6at5s3luczv"],"addressesOutput":["addr1z8c7eyxnxgy80qs5ehrl4yy93tzkyqjnmx0cfsgrxkfge27q47h8tv3jp07j8yneaxj7qc63zyzqhl933xsglcsgtqcqxzc2je","addr1q8e8r50hrf4u8sv8xhtmp9qreshd2uezrm5w2xv38zylerjus8d9ul485lrrtv20phw6fwwl30zlplf4ph59lwd6at5s3luczv","addr1q8e8r50hrf4u8sv8xhtmp9qreshd2uezrm5w2xv38zylerjus8d9ul485lrrtv20phw6fwwl30zlplf4ph59lwd6at5s3luczv"],"fee":579102,"totalOutput":67236437,"tokens":[]},{"hash":"6dff0892e11e0bf645b1ef1e758a0d733b67a87c81992c952162caddb68e4518","blockNo":7815273,"blockHash":"deae30642d55f475a62b5c71e6095aa1dd521a312f39db3ad347b4e25e9c5a14","epochNo":366,"epochSlotNo":52915,"slot":72801715,"time":"2022/09/28 12:26:46","addressesInput":["addr1zxj47sy4qxlktqzmkrw8dahe46gtv8seakrshsqz26qnvzypw288a4x0xf8pxgcntelxmyclq83s0ykeehchz2wtspksr3q9nx","addr1q87t0arpcfw2hf6rhcesuy06jglyt56afvn94cfpsz7fn3jxrvs3x7fgkmzwecxgkwhzejm8yfjrvtnmuezzajrqfxmsxsyxmr","addr1qyarmxy0j69w2s7vyu552cq5ltgtr7xxup275f9htq79wzjxrvs3x7fgkmzwecxgkwhzejm8yfjrvtnmuezzajrqfxmst978q5","addr1qyarmxy0j69w2s7vyu552cq5ltgtr7xxup275f9htq79wzjxrvs3x7fgkmzwecxgkwhzejm8yfjrvtnmuezzajrqfxmst978q5","addr1qyarmxy0j69w2s7vyu552cq5ltgtr7xxup275f9htq79wzjxrvs3x7fgkmzwecxgkwhzejm8yfjrvtnmuezzajrqfxmst978q5"],"addressesOutput":["addr1q86ylp637q7hv7a9r387nz8d9zdhem2v06pjyg75fvcmen3rg8t4q3f80r56p93xqzhcup0w7e5heq7lnayjzqau3dfs7yrls5","addr1q9cwvremt6n320s2e3agq0jyq82yhrk3htsu0w426xnz5us70z4w0jgvcdkkynmm8wmds66jd9kusnjfpu6raw5fqp0sr07p5w","addr1q9z2z7lrry2guqvyejjmt7c3hjehf645t7tawpzceje7d27xmrul7eq7ach6rpghqraz4jn4l38jf8awfj93umwekzvsxespnr","addr1qyarmxy0j69w2s7vyu552cq5ltgtr7xxup275f9htq79wzjxrvs3x7fgkmzwecxgkwhzejm8yfjrvtnmuezzajrqfxmst978q5"],"fee":1162570,"totalOutput":37319048,"tokens":[]},{"hash":"0bb2e1897edd2a02495d72f887615b58771ba103edd19514fb3bc240c08c255e","blockNo":7815113,"blockHash":"9a6e3278ecf365954acb3761e4639549ed75c5466716644402480910ea1a2bf7","epochNo":366,"epochSlotNo":49545,"slot":72798345,"time":"2022/09/28 11:30:36","addressesInput":["DdzFFzCqrhsuoXfpS4ubx6TvNf6xJEYh2u4GWeRdAWeH1TndSfBhFZm8pFUEDzBJfCzhmMGaPC8Hw2HsLeauLEzFuyY2oPHz1fvVE4cJ","DdzFFzCqrhstPnu2o1rZHKztZm1oodgNuFYbRCxqWKes4ZvwKupgd7WL7nPF7isAzYBmDfg3kJaQPrETVoas5rRjnWs3et7Kz9FHFyiY","DdzFFzCqrhskgfjXtNMrevmF4SuPLkuR1AtAX6u6hHLFkSMj1vY3a6FZs9pdP3JmZJFp8ujfSC1TZ2LNzwjSKa2r7tmhiH6KGHxhCrhT","DdzFFzCqrhstMJqH5K5oh1RUCLxd4bMt3rrs8gjpMtKh8bFuGbEAT9bwRpkUN5hwNHH9ghwD9jZTd7dE74Pc1hjopgB7iUvhsT3s1HgP","DdzFFzCqrhsvvs9L4MYvALHSDe4Y6psRBYvnY1BkM8tcdT99WASZdmLz5PJd4ot4vnL3ubogcwmn57QMvYLA38Uyi6BH77i85VP1NuGK","DdzFFzCqrht9Seecti2a84C35kNuhi8UNgM8j7wVP62Fk48ae6oSMusvP2C7rqZUVPG9CKZyJPNFVSL3cRHZtj72eEqB9p7mKoVVwE89","DdzFFzCqrht8SNYHFLPaxA5zqvSYovWTCCcTYojHw4S6f7beWAWcUWoCDfeMAmFSk1z7rYs1gUTYB97vtWi9mRrd3m2zYcWMAy5CGzso","DdzFFzCqrhsmoji2JuYpeSbfP96ReEKstKnFt79hPXK8qEH18pTjT423qq1Aau4jtZL2JXuH2i3FZRQLCESmEVUxG7EPYmjzDNe29GCf","DdzFFzCqrhspfD3B9UvXJ8X9YbXXSXYDVHiznBmAv8RfpYAKBqDF6peCR4HGFxWcZGm2SbVBdFypn1FwLC6ehNYGaiQ62etVFK4piirh","DdzFFzCqrhsrUJYFLE3khGoxed3XN2oMNSwxPny4DBMsDoCdSBUbCvcf2CZvomB5upxePpo7Ni5hUz6ungLbMVJ6uiqVWCXTEAFFPCEj","DdzFFzCqrhsp7eeDGaqdRcCXmeGxHbcNzNj1Lh23aajG1QSEYMqoRvPAhbhkZZVvMi8t1ExCN2SkXpfg4JQT3x9PgExUe6Bn9AcuXpHU","DdzFFzCqrhsjBV7KeReJUQekNyTrxh7gxBCtmntMz4mZjhpLFkb5Xug26e7BrKeA5DwjAVtDNU56xHMdd197CD4YyiphXmM2chCdjoKd","DdzFFzCqrht7ea3EABenRQx89FZ2wWL98vTUtZS2xQJDAHDP7CRMaGS3Jpqrpe6wExPfpf8Mdkym4a8y1av3ajWYsE79xBcvYeWoC8ej","DdzFFzCqrhsghdrPAm8718UqyBgXnsDmg3C7XDcJ2KtvLd7LPcrxn59gNUiFHvcPkEUMNjk5Kz6LcXdyGWhLPixXC31MaNeYSFaF4D3M","DdzFFzCqrhssK9TyRcdhgM7UQmnziEkSUKc2BhZjf6UkoGd6cE8JMtocWtBDecJ5V5mRmajLVdcF8jN7KUmdGfT9YrU71sB6wcpgvhXC","DdzFFzCqrhsrUJYFLE3khGoxed3XN2oMNSwxPny4DBMsDoCdSBUbCvcf2CZvomB5upxePpo7Ni5hUz6ungLbMVJ6uiqVWCXTEAFFPCEj","DdzFFzCqrhswg7dG825KCQoJsXU47MtrEGpqEC4padWV1JNU6r2URR738fu7yMyB9yoUv3xU9nFYhzBnYv12KHhzictB3QB8cUcm2hny","DdzFFzCqrht4i7pHz8iGakxCR5SgtxBUXUSokHJmoF1vBe1txaHfXB7BmenHmxkctRRmYHEZLGBU2SH34pkq4V6sCqZAPsFoC6PJMrJ4","DdzFFzCqrhsmLedkrsjEUZohHRmpVcUhcXXK45JrZU8B8hAUA2CNCwuJcFpBjojB838VRMKnFkdkUYmUQz64psRvVA9bCL3AMG7Kkg5w","DdzFFzCqrhsvacvRgUsMpRoPNE8thEC4tCUaWCbyh9ma8F9JHzuR4hS2mzcvFEWF6j4XbNz1kFuZtxNtP8Mc4SDgU6ZwW36FTGE4u1Yq","DdzFFzCqrhsmLedkrsjEUZohHRmpVcUhcXXK45JrZU8B8hAUA2CNCwuJcFpBjojB838VRMKnFkdkUYmUQz64psRvVA9bCL3AMG7Kkg5w","DdzFFzCqrhsezCQnFvdSHEUoRsKdEBvBQvKXWK1tLsKedXS2dRmZzeUF6J8F4m5MzYusUpyHqQChece6rSMMUgp31XQDkw6qwTjUTyGQ"],"addressesOutput":["addr1q9atjfpqwdtg7ytz0pz9zcaqvx8zr2uv6ysvc4csqynr683dzefudzxhadht99nh8gv4l3z93d486ygllgxuh2drrrpsdw6fws","DdzFFzCqrht9hXwEvszikdBzm8zhiEgcpMfRiQX2KFHsHeY3Mapg8QeZZ4Bkf94eRteoQoZnGRVLBw52wGoNxs59FTAfosg9FQLrBmV3","DdzFFzCqrhss1rhxao5FtkE1roW84NW2ivnEi64WcPCKziHXSY6NVxYHPZEassFaTMaLaNXyS8cyUGDwhktjezed79rtq2GACE2KprEo"],"fee":940649,"totalOutput":50992423783,"tokens":[]},{"hash":"d7b8a67e1a5529e71bb640aa20da25130e0f04ab01a3f82d8167c92ff974ae75","blockNo":7815054,"blockHash":"e84152504e781b0b7c05e6daf445774965f57aae930ce4c70ef37ded68a85f1c","epochNo":366,"epochSlotNo":48637,"slot":72797437,"time":"2022/09/28 11:15:28","addressesInput":["addr1qyrkdjysf5hwf87p87z0t5cysymgx98kuel00hpzhh6dcvjus8d9ul485lrrtv20phw6fwwl30zlplf4ph59lwd6at5sq73v68","addr1q8e8r50hrf4u8sv8xhtmp9qreshd2uezrm5w2xv38zylerjus8d9ul485lrrtv20phw6fwwl30zlplf4ph59lwd6at5s3luczv","addr1qyrkdjysf5hwf87p87z0t5cysymgx98kuel00hpzhh6dcvjus8d9ul485lrrtv20phw6fwwl30zlplf4ph59lwd6at5sq73v68","addr1q8e8r50hrf4u8sv8xhtmp9qreshd2uezrm5w2xv38zylerjus8d9ul485lrrtv20phw6fwwl30zlplf4ph59lwd6at5s3luczv","addr1q8e8r50hrf4u8sv8xhtmp9qreshd2uezrm5w2xv38zylerjus8d9ul485lrrtv20phw6fwwl30zlplf4ph59lwd6at5s3luczv","addr1q8e8r50hrf4u8sv8xhtmp9qreshd2uezrm5w2xv38zylerjus8d9ul485lrrtv20phw6fwwl30zlplf4ph59lwd6at5s3luczv","addr1q9y0dmr80ayntnqadj3xqrgp3xfwv6n0gaa8l0zy5wy79jzus8d9ul485lrrtv20phw6fwwl30zlplf4ph59lwd6at5s36gd5h"],"addressesOutput":["addr1z8c7eyxnxgy80qs5ehrl4yy93tzkyqjnmx0cfsgrxkfge27q47h8tv3jp07j8yneaxj7qc63zyzqhl933xsglcsgtqcqxzc2je","addr1q8e8r50hrf4u8sv8xhtmp9qreshd2uezrm5w2xv38zylerjus8d9ul485lrrtv20phw6fwwl30zlplf4ph59lwd6at5s3luczv","addr1q8e8r50hrf4u8sv8xhtmp9qreshd2uezrm5w2xv38zylerjus8d9ul485lrrtv20phw6fwwl30zlplf4ph59lwd6at5s3luczv"],"fee":599210,"totalOutput":57355198,"tokens":[]}],"totalItems":10153,"totalPages":508,"currentPage":0}