{"data":[{"hash":"aaf9ffcb2d77b347612281afdcbcaf3653cb73f3976aaeb5469c6a81304a09ec","blockNo":8108457,"blockHash":"1140a3e14d4da57c473b7515b00dd83b4fc5456ce97302b286a61d333a4bf8e7","epochNo":380,"epochSlotNo":45311,"slot":78842111,"time":"2022/12/07 10:20:02","addressesInput":["addr1v9nudmgn6lqefaedktxg0rrlqsjdxma2uw9my66vcnp8lngkzrt8k","addr1v9nudmgn6lqefaedktxg0rrlqsjdxma2uw9my66vcnp8lngkzrt8k","addr1v9nudmgn6lqefaedktxg0rrlqsjdxma2uw9my66vcnp8lngkzrt8k"],"addressesOutput":["addr1q93jn59xmcjwgarvlh4w6l2hrmach0jeq4jzlpfdqflcdveqjucdkm7z4dadwex7ky9qpr7hu76qewpyay8ssenya35q3vr8n9","addr1v9nudmgn6lqefaedktxg0rrlqsjdxma2uw9my66vcnp8lngkzrt8k","addr1v9nudmgn6lqefaedktxg0rrlqsjdxma2uw9my66vcnp8lngkzrt8k"],"fee":176017,"totalOutput":7316401894,"tokens":[]},{"hash":"ea1e23c84bcc5667e31a13fe18c73ce51346ace69acd8e8054639dc9310a2e70","blockNo":8108457,"blockHash":"1140a3e14d4da57c473b7515b00dd83b4fc5456ce97302b286a61d333a4bf8e7","epochNo":380,"epochSlotNo":45311,"slot":78842111,"time":"2022/12/07 10:20:02","addressesInput":["addr1qynkhnewttm980vep92gw0ddz09cdr656vzfv86lqjxjkyzwnhgjsxn8fagxa0w5f0qw3qmru49e9a6uplzkt4zrffnsag50mz"],"addressesOutput":["addr1qxvtzh7h58sw5fc0qkwurk9khdu2ukqcu7253txtllysrezwnhgjsxn8fagxa0w5f0qw3qmru49e9a6uplzkt4zrffnsdzq3z6"],"fee":171749,"totalOutput":6983825815,"tokens":[]},{"hash":"c66af0113f8a6a755d19586d7821d558454d622fc903a194034d41ca72946bc8","blockNo":8108457,"blockHash":"1140a3e14d4da57c473b7515b00dd83b4fc5456ce97302b286a61d333a4bf8e7","epochNo":380,"epochSlotNo":45311,"slot":78842111,"time":"2022/12/07 10:20:02","addressesInput":["addr1q8fa7elm6wvnuzy4hgz6r6cp57yhflcfsvx5ykmwvynvdzn7j4qcdcfeyncdr28zj8ye9tymwnqfp0aukf35mw4l9zdsfzsjhc","addr1q8fa7elm6wvnuzy4hgz6r6cp57yhflcfsvx5ykmwvynvdzn7j4qcdcfeyncdr28zj8ye9tymwnqfp0aukf35mw4l9zdsfzsjhc"],"addressesOutput":["addr1qx402hj4uj6tx25wpwtt8wtuvs7qhepq0fddg57h6assy6cm9xge3cua9sndmelcuwda9caz4k3zstpqqjgx5wc5mmgsqsadf3","addr1qx09zen4v7xk3202axgnzym8089cmpynqhhkc5fuxwwwqur7j4qcdcfeyncdr28zj8ye9tymwnqfp0aukf35mw4l9zdsxfgp54"],"fee":178525,"totalOutput":92077565,"tokens":[]},{"hash":"975daba3a1121434447439ae41f4367c3204bc76dc8c547886d7c845ab1b1b91","blockNo":8108457,"blockHash":"1140a3e14d4da57c473b7515b00dd83b4fc5456ce97302b286a61d333a4bf8e7","epochNo":380,"epochSlotNo":45311,"slot":78842111,"time":"2022/12/07 10:20:02","addressesInput":["addr1qygw3fz5wv9x939haxntd5xxjjyl22za8zn4ue3ja3yu2d4r3h349h3nzkkpnp23fl5cgud5fw333uh6mtm6tmpmn2sqjhxclh","addr1zxgx3far7qygq0k6epa0zcvcvrevmn0ypsnfsue94nsn3tvpw288a4x0xf8pxgcntelxmyclq83s0ykeehchz2wtspks905plm"],"addressesOutput":["addr1zxgx3far7qygq0k6epa0zcvcvrevmn0ypsnfsue94nsn3tvpw288a4x0xf8pxgcntelxmyclq83s0ykeehchz2wtspks905plm","addr1qygw3fz5wv9x939haxntd5xxjjyl22za8zn4ue3ja3yu2d4r3h349h3nzkkpnp23fl5cgud5fw333uh6mtm6tmpmn2sqjhxclh"],"fee":297016,"totalOutput":7763478,"tokens":[]},{"hash":"df97fb95849a01f841cac6b19c37f5bf6776e22817cc3522731623ec7c3e80e0","blockNo":8108457,"blockHash":"1140a3e14d4da57c473b7515b00dd83b4fc5456ce97302b286a61d333a4bf8e7","epochNo":380,"epochSlotNo":45311,"slot":78842111,"time":"2022/12/07 10:20:02","addressesInput":["addr1qy3h5xzf4n8fs50sh7h4v2tpm33xxw7j3j7jljkfgcaydcqw8meglqj5fqw5q0446fh3rrtm5rqfatek7r735zkxyj5qcw4wcz"],"addressesOutput":["addr1qyjfjh0pvdpq2u3236uxw02scpxzjlpmk4yltp6e802llp77j78nxugdsm882t86nd04csnfgsrrywxcskf0lrnn94fqk0fr43","addr1q9gg3meddxlzalq0td6anj8ygdmdp67qmvsy4cuhcg98q9qw8meglqj5fqw5q0446fh3rrtm5rqfatek7r735zkxyj5qqtrka8"],"fee":169197,"totalOutput":68333912028,"tokens":[]},{"hash":"3416c3e9235ce29c48c958d0e18c6c4bc7643338d118f0fcd4548c37b39a20c7","blockNo":8108457,"blockHash":"1140a3e14d4da57c473b7515b00dd83b4fc5456ce97302b286a61d333a4bf8e7","epochNo":380,"epochSlotNo":45311,"slot":78842111,"time":"2022/12/07 10:20:02","addressesInput":["addr1qyftlrj5f3sht8ydarjn65aeq80ksfzzcsdcd9hv8085frz2lvl2sav69vp00wuxlcyl02f882agqzjm32vsc5phdduqdv3w7z"],"addressesOutput":["addr1qyftlrj5f3sht8ydarjn65aeq80ksfzzcsdcd9hv8085frz2lvl2sav69vp00wuxlcyl02f882agqzjm32vsc5phdduqdv3w7z","addr1v8huyepadc3g296m0m7ds7umtd84da7vj053v7rk8nd622gzesfmt"],"fee":176105,"totalOutput":33498222,"tokens":[]},{"hash":"c6b00e10b7ba1a053eff0bf5493f09fa12d718253d378a2d8846d650afd4c259","blockNo":8108457,"blockHash":"1140a3e14d4da57c473b7515b00dd83b4fc5456ce97302b286a61d333a4bf8e7","epochNo":380,"epochSlotNo":45311,"slot":78842111,"time":"2022/12/07 10:20:02","addressesInput":["addr1vxgjyk6zdlh2t3zahaxyktxmular0sqkhemu0k8dhlxxz8gj5pxcu"],"addressesOutput":["addr1qy7n6c3mgxpvtn3dq3eas0mhqxsrdpyxdg7dxja34h6dwxujme42h6ntpwu68yj2td9p4vx4wpkzgtqf8p36q6xww60sw69cul","addr1q977ftv0k7e490zf757yy0zt5qmmj05nyzf2kms8xe9j40xex07akuxyh05h4y3hreextyzru0g0rls6ranr6rc7sraqve7f6u","addr1vye602mzlse3gwdgf8wweccettp7qxjf6vyncf2ywsdv5mqlnunfx"],"fee":293717,"totalOutput":6706283,"tokens":[]},{"hash":"9936a83321682f31dfa2432ba67eb331965d4d99f709d6017896032252441bf1","blockNo":8108457,"blockHash":"1140a3e14d4da57c473b7515b00dd83b4fc5456ce97302b286a61d333a4bf8e7","epochNo":380,"epochSlotNo":45311,"slot":78842111,"time":"2022/12/07 10:20:02","addressesInput":["addr1q8c2ka2a94yrj040qrxud4znk3sgcj9wy5ulpxt90akv976f6mmvcqylnyjmq7lrd2ag9650y250pg88v8yy79ajpwxqluntdk"],"addressesOutput":["addr1zxgx3far7qygq0k6epa0zcvcvrevmn0ypsnfsue94nsn3tvpw288a4x0xf8pxgcntelxmyclq83s0ykeehchz2wtspks905plm","addr1q8c2ka2a94yrj040qrxud4znk3sgcj9wy5ulpxt90akv976f6mmvcqylnyjmq7lrd2ag9650y250pg88v8yy79ajpwxqluntdk"],"fee":205541,"totalOutput":89524915,"tokens":[]},{"hash":"090989ac0653a6857e45fc68d141d2a9eae302237762e2052faee22138ae3925","blockNo":8108457,"blockHash":"1140a3e14d4da57c473b7515b00dd83b4fc5456ce97302b286a61d333a4bf8e7","epochNo":380,"epochSlotNo":45311,"slot":78842111,"time":"2022/12/07 10:20:02","addressesInput":["addr1qxdu4pznslz47cxmf4j9fluhv6ahucjuws0f4xluqem6plhk76xvt5vtcv5c67pa6c9uqe8k9vplyqkfdaquwmusejdsaqm4vd","addr1qxdu4pznslz47cxmf4j9fluhv6ahucjuws0f4xluqem6plhk76xvt5vtcv5c67pa6c9uqe8k9vplyqkfdaquwmusejdsaqm4vd","addr1qxdu4pznslz47cxmf4j9fluhv6ahucjuws0f4xluqem6plhk76xvt5vtcv5c67pa6c9uqe8k9vplyqkfdaquwmusejdsaqm4vd"],"addressesOutput":["addr1q9zmpjupqmy9hqu3nxjkcv4wyrxh06nqlc3v9a2djrunpggvgyqlquzzshr99gaf5gdtqkczvej9lqzhlml72upqw0hq8vde39","addr1qxdu4pznslz47cxmf4j9fluhv6ahucjuws0f4xluqem6plhk76xvt5vtcv5c67pa6c9uqe8k9vplyqkfdaquwmusejdsaqm4vd"],"fee":194453,"totalOutput":7563547,"tokens":[]},{"hash":"31dccc3409c456e654eeba24b1a7d2d0fac02229efaf46b379b6eb50bd77794b","blockNo":8108457,"blockHash":"1140a3e14d4da57c473b7515b00dd83b4fc5456ce97302b286a61d333a4bf8e7","epochNo":380,"epochSlotNo":45311,"slot":78842111,"time":"2022/12/07 10:20:02","addressesInput":["addr1zxgx3far7qygq0k6epa0zcvcvrevmn0ypsnfsue94nsn3tvpw288a4x0xf8pxgcntelxmyclq83s0ykeehchz2wtspks905plm","addr1qxeet5w4eg6rq0tnhszmxh9qu2x02sz3pjqp640t9r4du0wkuw8ukw2jkphqqq38hrndz7fcz5slmwxk8jhvyw5d5jnsjnmel9"],"addressesOutput":["addr1zxgx3far7qygq0k6epa0zcvcvrevmn0ypsnfsue94nsn3tvpw288a4x0xf8pxgcntelxmyclq83s0ykeehchz2wtspks905plm","addr1qxeet5w4eg6rq0tnhszmxh9qu2x02sz3pjqp640t9r4du0wkuw8ukw2jkphqqq38hrndz7fcz5slmwxk8jhvyw5d5jnsjnmel9"],"fee":290214,"totalOutput":112184194,"tokens":[]},{"hash":"8e7670bbeeec14d2f98645d99ed177178210f68b83c7c477ca54395cc9e773f2","blockNo":8108457,"blockHash":"1140a3e14d4da57c473b7515b00dd83b4fc5456ce97302b286a61d333a4bf8e7","epochNo":380,"epochSlotNo":45311,"slot":78842111,"time":"2022/12/07 10:20:02","addressesInput":["addr1qxsrzmhumcvdy6jl62vqqpcgy9q6mvgxgfq8fqu6tvx68yl8vr6wta397ykcskl2zztmmjaqw9e4xpl4x8wsqj5sspfqdv9xae","addr1qxsrzmhumcvdy6jl62vqqpcgy9q6mvgxgfq8fqu6tvx68yl8vr6wta397ykcskl2zztmmjaqw9e4xpl4x8wsqj5sspfqdv9xae","addr1w8p2lkrllqm0vj3qcv7uy5hg2rxa2he3vf7kgqfdp9sg2mc0sz6ay","addr1qxllyh44j3dp48nlgkm37v9cm3d70c4uaq49cjlmnjzser88vr6wta397ykcskl2zztmmjaqw9e4xpl4x8wsqj5sspfqjzm39m"],"addressesOutput":["addr1vxfa8dwzflct4re7qn2ls7t46w6rc479rafnwzqx4z2asuq6cg00t","addr1qxsrzmhumcvdy6jl62vqqpcgy9q6mvgxgfq8fqu6tvx68yl8vr6wta397ykcskl2zztmmjaqw9e4xpl4x8wsqj5sspfqdv9xae"],"fee":236829,"totalOutput":1658042736,"tokens":[]},{"hash":"3ac3f7f017cdc8b97e7b364cf3d889b88261b59becf0cbd6273d15f5ad8a61c0","blockNo":8108457,"blockHash":"1140a3e14d4da57c473b7515b00dd83b4fc5456ce97302b286a61d333a4bf8e7","epochNo":380,"epochSlotNo":45311,"slot":78842111,"time":"2022/12/07 10:20:02","addressesInput":["addr1qxrdzw58xz8yza9sz66qd6fhd4rdfw2uct89dlt733h7sfsjytvrp76qpw05tmq0rqf97cax98t0mz72zxpyd60x9ajsd6dhar"],"addressesOutput":["addr1zxgx3far7qygq0k6epa0zcvcvrevmn0ypsnfsue94nsn3tvpw288a4x0xf8pxgcntelxmyclq83s0ykeehchz2wtspks905plm","addr1qxrdzw58xz8yza9sz66qd6fhd4rdfw2uct89dlt733h7sfsjytvrp76qpw05tmq0rqf97cax98t0mz72zxpyd60x9ajsd6dhar"],"fee":405829,"totalOutput":54320578,"tokens":[]},{"hash":"3adfc823666425de79d5ab2b0354db8b383723233b7c230fea853ab6d9e91175","blockNo":8108457,"blockHash":"1140a3e14d4da57c473b7515b00dd83b4fc5456ce97302b286a61d333a4bf8e7","epochNo":380,"epochSlotNo":45311,"slot":78842111,"time":"2022/12/07 10:20:02","addressesInput":["addr1q83sr89ez36vudc2xynf287pdrkp8qd58e3gwru9kymgzuw87cppp4kavkfve537lj7tswx7x2lu7qfjd9ps4cllqx6qea045x","addr1q83sr89ez36vudc2xynf287pdrkp8qd58e3gwru9kymgzuw87cppp4kavkfve537lj7tswx7x2lu7qfjd9ps4cllqx6qea045x","addr1q8tdf4frhccysp8u3s4qev7xg2d04ml3xj7ypvmlucaduh787cppp4kavkfve537lj7tswx7x2lu7qfjd9ps4cllqx6qc4tnnr","addr1q83sr89ez36vudc2xynf287pdrkp8qd58e3gwru9kymgzuw87cppp4kavkfve537lj7tswx7x2lu7qfjd9ps4cllqx6qea045x"],"addressesOutput":["addr1vyjdya9lmyfmysdgej3qc6thwat33lwm3umk8uwnvhy9g3gzvd2jp","addr1qyge3d5wtlnmhrzv8flmm26py6rvj58yzr9uvhelkw0ft4k87cppp4kavkfve537lj7tswx7x2lu7qfjd9ps4cllqx6qf28avg","addr1qyge3d5wtlnmhrzv8flmm26py6rvj58yzr9uvhelkw0ft4k87cppp4kavkfve537lj7tswx7x2lu7qfjd9ps4cllqx6qf28avg","addr1qyge3d5wtlnmhrzv8flmm26py6rvj58yzr9uvhelkw0ft4k87cppp4kavkfve537lj7tswx7x2lu7qfjd9ps4cllqx6qf28avg"],"fee":234097,"totalOutput":15885363,"tokens":[]},{"hash":"aa34aadf085f3f735ac6f3064dcc6ca1a444e2c158e24d42574eef2303354cc0","blockNo":8108457,"blockHash":"1140a3e14d4da57c473b7515b00dd83b4fc5456ce97302b286a61d333a4bf8e7","epochNo":380,"epochSlotNo":45311,"slot":78842111,"time":"2022/12/07 10:20:02","addressesInput":["addr1q9t6kl8h4rt88lgy46vn3v4nal7u6m4jg3wh3rc2lajjzle6fn69vdpazgzhlt2rnyrx42fkm83atem23u56a0433jrqkm4qxq","addr1q9t6kl8h4rt88lgy46vn3v4nal7u6m4jg3wh3rc2lajjzle6fn69vdpazgzhlt2rnyrx42fkm83atem23u56a0433jrqkm4qxq","addr1q9t6kl8h4rt88lgy46vn3v4nal7u6m4jg3wh3rc2lajjzle6fn69vdpazgzhlt2rnyrx42fkm83atem23u56a0433jrqkm4qxq","addr1q9t6kl8h4rt88lgy46vn3v4nal7u6m4jg3wh3rc2lajjzle6fn69vdpazgzhlt2rnyrx42fkm83atem23u56a0433jrqkm4qxq"],"addressesOutput":["addr1q8q58nulmgk5s8cs5u0x4zecw7wjmmmktalyg2j3f6w62kxgmkpmznsdn4qutlan9xlhmw99x6rz0wrc3hfjca44khpsme68qz","addr1q9t6kl8h4rt88lgy46vn3v4nal7u6m4jg3wh3rc2lajjzle6fn69vdpazgzhlt2rnyrx42fkm83atem23u56a0433jrqkm4qxq"],"fee":182805,"totalOutput":104817195,"tokens":[]},{"hash":"c0bc46dee2107e79ae98333430b8b230f10ac9339c8f9ae399c8404d7aab76e7","blockNo":8108457,"blockHash":"1140a3e14d4da57c473b7515b00dd83b4fc5456ce97302b286a61d333a4bf8e7","epochNo":380,"epochSlotNo":45311,"slot":78842111,"time":"2022/12/07 10:20:02","addressesInput":["addr1qycpcjtajj7xm4u9vz5f385qr53vpwral6hdkz3cz6jeyqewrggrwh3lmm8ngxcsj3h77gz0lcf22n4h76020mz5jngq6g5lfd","addr1qyq40mq4f2zn8jau4kfcateuem52xs6qsp40jmclpqndwf3wrggrwh3lmm8ngxcsj3h77gz0lcf22n4h76020mz5jngq2p49xd","addr1q99nt07hxtt0j08d326ma9jjpguhn24zlhvdfnzht6x32rfwrggrwh3lmm8ngxcsj3h77gz0lcf22n4h76020mz5jngq27z8f4","addr1qycpcjtajj7xm4u9vz5f385qr53vpwral6hdkz3cz6jeyqewrggrwh3lmm8ngxcsj3h77gz0lcf22n4h76020mz5jngq6g5lfd","addr1q99nt07hxtt0j08d326ma9jjpguhn24zlhvdfnzht6x32rfwrggrwh3lmm8ngxcsj3h77gz0lcf22n4h76020mz5jngq27z8f4","addr1qycpcjtajj7xm4u9vz5f385qr53vpwral6hdkz3cz6jeyqewrggrwh3lmm8ngxcsj3h77gz0lcf22n4h76020mz5jngq6g5lfd"],"addressesOutput":["addr1wxr2a8htmzuhj39y2gq7ftkpxv98y2g67tg8zezthgq4jkg0a4ul4","addr1q99nt07hxtt0j08d326ma9jjpguhn24zlhvdfnzht6x32rfwrggrwh3lmm8ngxcsj3h77gz0lcf22n4h76020mz5jngq27z8f4"],"fee":203517,"totalOutput":419199957,"tokens":[]},{"hash":"bfe29bd235cc2c9eb36a89cc09da467648bea321bc7b4ebd5f357fb025882d2b","blockNo":8108457,"blockHash":"1140a3e14d4da57c473b7515b00dd83b4fc5456ce97302b286a61d333a4bf8e7","epochNo":380,"epochSlotNo":45311,"slot":78842111,"time":"2022/12/07 10:20:02","addressesInput":["addr1q86sdyjpetx20t63hsmzh2chm9v9n6kdj4ghds34xqahvkyss4s9t67prdcm2q7qgsqq3pyw376d79v9k2yagdnq2udswllxkr","addr1qyh3cs2ls94p82k7zhkjmuh3dmy03tfatvfgj6ny6c6tgevss4s9t67prdcm2q7qgsqq3pyw376d79v9k2yagdnq2udswf6kpu"],"addressesOutput":["addr1qxcgm4key05grugae9le4nx892jnhfljny5fqtpa3ynj6erq4r9hpvcttd0zv54q7f5acy2f9n2s6lc8gcgwz3jwm8ks75z5td","addr1q85qn6r4jpave46zsguuheg4mfdgl36frzmklrqtg7qt8kyss4s9t67prdcm2q7qgsqq3pyw376d79v9k2yagdnq2udsk425pp"],"fee":200393,"totalOutput":94964587,"tokens":[]},{"hash":"7f05ab6bc9a492b7d959c73f64d550dcfc7c3f51c7c6bb58f834a19d64c1af53","blockNo":8108457,"blockHash":"1140a3e14d4da57c473b7515b00dd83b4fc5456ce97302b286a61d333a4bf8e7","epochNo":380,"epochSlotNo":45311,"slot":78842111,"time":"2022/12/07 10:20:02","addressesInput":["addr1qxmkw36fd6lck6pnrafrgdjgxjhk6705wsvzznttzn0rqg8lpx394vsxh38laldvhmsq6jjlwaanmfwarnt5qsd26agsqhr9ng","addr1q9rraddvcu3nyu25dpmlen5sypqhwg0td6sy4p363wt6fjllpx394vsxh38laldvhmsq6jjlwaanmfwarnt5qsd26ags75y0hu","addr1qx3zwk3a4w3k72qwngz3mdxcegqfzt2zp4c6lelwurypsj8lpx394vsxh38laldvhmsq6jjlwaanmfwarnt5qsd26ags5zgmw7","addr1qx0vwdylryeaxtj0jr2qjtxtswj7kmh2vq7wzeh6vxfzk20lpx394vsxh38laldvhmsq6jjlwaanmfwarnt5qsd26ags0n9vem","addr1q9rraddvcu3nyu25dpmlen5sypqhwg0td6sy4p363wt6fjllpx394vsxh38laldvhmsq6jjlwaanmfwarnt5qsd26ags75y0hu","addr1q8atlkv6xtkjvjuxrjqjeydp49zqhphwq44lr36z03vztg8lpx394vsxh38laldvhmsq6jjlwaanmfwarnt5qsd26agsghk68z","addr1qxmkw36fd6lck6pnrafrgdjgxjhk6705wsvzznttzn0rqg8lpx394vsxh38laldvhmsq6jjlwaanmfwarnt5qsd26agsqhr9ng","addr1qxmkw36fd6lck6pnrafrgdjgxjhk6705wsvzznttzn0rqg8lpx394vsxh38laldvhmsq6jjlwaanmfwarnt5qsd26agsqhr9ng","addr1qygcga2ettdtuhdsz9xex876ceyrpm5xxl88zcu675xl93hlpx394vsxh38laldvhmsq6jjlwaanmfwarnt5qsd26agswd75ct","addr1qxmkw36fd6lck6pnrafrgdjgxjhk6705wsvzznttzn0rqg8lpx394vsxh38laldvhmsq6jjlwaanmfwarnt5qsd26agsqhr9ng","addr1qxxn7trwkmmay37hk6daj2qac804avpxd7j7ptxxyjyq8rhlpx394vsxh38laldvhmsq6jjlwaanmfwarnt5qsd26ags9l3n07","addr1q9daz6rdrvwu69utma7kzk7yvgwnq238wnl3sqmslkmqk00lpx394vsxh38laldvhmsq6jjlwaanmfwarnt5qsd26agsnkkfpe","addr1qxmkw36fd6lck6pnrafrgdjgxjhk6705wsvzznttzn0rqg8lpx394vsxh38laldvhmsq6jjlwaanmfwarnt5qsd26agsqhr9ng","addr1qx0vwdylryeaxtj0jr2qjtxtswj7kmh2vq7wzeh6vxfzk20lpx394vsxh38laldvhmsq6jjlwaanmfwarnt5qsd26ags0n9vem","addr1q9rraddvcu3nyu25dpmlen5sypqhwg0td6sy4p363wt6fjllpx394vsxh38laldvhmsq6jjlwaanmfwarnt5qsd26ags75y0hu"],"addressesOutput":["addr1zxgx3far7qygq0k6epa0zcvcvrevmn0ypsnfsue94nsn3tvpw288a4x0xf8pxgcntelxmyclq83s0ykeehchz2wtspks905plm","addr1qxmkw36fd6lck6pnrafrgdjgxjhk6705wsvzznttzn0rqg8lpx394vsxh38laldvhmsq6jjlwaanmfwarnt5qsd26agsqhr9ng","addr1qxmkw36fd6lck6pnrafrgdjgxjhk6705wsvzznttzn0rqg8lpx394vsxh38laldvhmsq6jjlwaanmfwarnt5qsd26agsqhr9ng"],"fee":495457,"totalOutput":47424619,"tokens":[]},{"hash":"04e8a191252964ba5ab368bf8b5c69d07460e979404858ec0583830acbe9e03e","blockNo":8108457,"blockHash":"1140a3e14d4da57c473b7515b00dd83b4fc5456ce97302b286a61d333a4bf8e7","epochNo":380,"epochSlotNo":45311,"slot":78842111,"time":"2022/12/07 10:20:02","addressesInput":["addr1wxr2a8htmzuhj39y2gq7ftkpxv98y2g67tg8zezthgq4jkg0a4ul4","addr1z8nvjzjeydcn4atcd93aac8allvrpjn7pjr2qsweukpnaydxtjwu2v3p33c9uflnj0gsqf36v4ls709umx8qqgj9d34s5wshwx","addr1qxeugc32x6gxqfm6xe0p3q4vzn5p3hdykeychhxmh2043fqaz2s0jvfkvtnl6uauda23mjuxdjvr0rxtstvn62v5sw0qjt0rkz"],"addressesOutput":["addr1z8nvjzjeydcn4atcd93aac8allvrpjn7pjr2qsweukpnaydxtjwu2v3p33c9uflnj0gsqf36v4ls709umx8qqgj9d34s5wshwx","addr1qx93jl92dy656flhez48t5v9pw54vfuzzk09rylushx4k0yd559c4cwq8jueatd0s0dv25tg9y6uw8a502fs28m0szgqvtk390","addr1qxeugc32x6gxqfm6xe0p3q4vzn5p3hdykeychhxmh2043fqaz2s0jvfkvtnl6uauda23mjuxdjvr0rxtstvn62v5sw0qjt0rkz"],"fee":810186,"totalOutput":446638729973,"tokens":[]},{"hash":"c7f7ed5e834cc963abfb190b919e8a424074ce96a88931a15c1f07fd7a486ecd","blockNo":8108457,"blockHash":"1140a3e14d4da57c473b7515b00dd83b4fc5456ce97302b286a61d333a4bf8e7","epochNo":380,"epochSlotNo":45311,"slot":78842111,"time":"2022/12/07 10:20:02","addressesInput":["addr1q9ueag668f5tchdszlxfg98mvhj5qc6a5n9957e9vn9w5trgnc0ds6x9y33pp5v40t0nv7095jqhk63xcnuz8zl57dgszsse0h","addr1wy30zf2g4xc7v872fdweewrlj3lh2lgttelmydn0cvhyplsg3vnkq","addr1q9ueag668f5tchdszlxfg98mvhj5qc6a5n9957e9vn9w5trgnc0ds6x9y33pp5v40t0nv7095jqhk63xcnuz8zl57dgszsse0h"],"addressesOutput":["addr1q9ueag668f5tchdszlxfg98mvhj5qc6a5n9957e9vn9w5trgnc0ds6x9y33pp5v40t0nv7095jqhk63xcnuz8zl57dgszsse0h","addr1wy30zf2g4xc7v872fdweewrlj3lh2lgttelmydn0cvhyplsg3vnkq"],"fee":830989,"totalOutput":29450774,"tokens":[]},{"hash":"af3db4f0f6a287158dc35dbb5c43e0f8241e97b6ac7c5b602f5d4446e7338f09","blockNo":8108457,"blockHash":"1140a3e14d4da57c473b7515b00dd83b4fc5456ce97302b286a61d333a4bf8e7","epochNo":380,"epochSlotNo":45311,"slot":78842111,"time":"2022/12/07 10:20:02","addressesInput":["addr1z8nvjzjeydcn4atcd93aac8allvrpjn7pjr2qsweukpnayg3sm3lpp76yuejdf6w3qyry2spy8xjmjrlxy2cstm3fthsjc3xze","addr1wxr2a8htmzuhj39y2gq7ftkpxv98y2g67tg8zezthgq4jkg0a4ul4","addr1qxeugc32x6gxqfm6xe0p3q4vzn5p3hdykeychhxmh2043fqaz2s0jvfkvtnl6uauda23mjuxdjvr0rxtstvn62v5sw0qjt0rkz"],"addressesOutput":["addr1z8nvjzjeydcn4atcd93aac8allvrpjn7pjr2qsweukpnayg3sm3lpp76yuejdf6w3qyry2spy8xjmjrlxy2cstm3fthsjc3xze","addr1q984l36e0unyhrtp38yth7hmn2nv9kvxhpp6hg6v3vw8xj4e9lr9305j9hesxmsnez7kk6acvsvrvfhjkcql7esfw34s5y8ftd","addr1qxeugc32x6gxqfm6xe0p3q4vzn5p3hdykeychhxmh2043fqaz2s0jvfkvtnl6uauda23mjuxdjvr0rxtstvn62v5sw0qjt0rkz"],"fee":810051,"totalOutput":2622066478366,"tokens":[]}],"totalItems":56182815,"totalPages":2809141,"currentPage":0}