{"data":[{"blockNo":8109459,"slotNo":78861153,"epochNo":380,"epochSlotNo":64353,"hash":"8978b7fd5dbdae290aed70bacc0d6af439ed24b38367f24112c8948250930602","time":"2022/12/07 15:37:24","txCount":8,"totalFees":2699026,"totalOutput":420788195,"slotLeader":"485903de80a59c1156ca235ec715ed434ddc0e394d1e75885976df62"},{"blockNo":8109458,"slotNo":78861146,"epochNo":380,"epochSlotNo":64346,"hash":"fd0f24483c001f628a06a13052ac3f5e19944a1fb1c38187b339c6747263fbae","time":"2022/12/07 15:37:17","txCount":14,"totalFees":4758669,"totalOutput":65648665145,"slotLeader":"d248ded3c18e0e80d07a46f00a2d808075b989ccb1a0e40a76e5cee1"},{"blockNo":8109457,"slotNo":78861128,"epochNo":380,"epochSlotNo":64328,"hash":"73e99599603b22ec226cc73c5ebd9928a63a0caa52d53f44f13d00d88e54ef3d","time":"2022/12/07 15:36:59","txCount":6,"totalFees":1475094,"totalOutput":61920617754,"slotLeader":"61d2598400211dcda6878511eb6d84719e5c502c7aa63d500f7a57ce"},{"blockNo":8109456,"slotNo":78861120,"epochNo":380,"epochSlotNo":64320,"hash":"0440e6c220100f39011aa84f62f96fb04da0ef27e99803e9ff25c826dcaa6de5","time":"2022/12/07 15:36:51","txCount":21,"totalFees":6971541,"totalOutput":121563418308,"slotLeader":"bd8286b7f327621459728c0cd1f7a731eaf7b2fd0df1c6b09b2932a5"},{"blockNo":8109455,"slotNo":78861112,"epochNo":380,"epochSlotNo":64312,"hash":"b4487fc1854d2534b2d5e285e436fb15213ccf6ecaa63a622e54d814c06ff50c","time":"2022/12/07 15:36:43","txCount":8,"totalFees":2734680,"totalOutput":4740183070,"slotLeader":"cb3e1428aa4d240ca528edfd992d6509b47335849a91f0d70e5b0ffd"},{"blockNo":8109454,"slotNo":78861095,"epochNo":380,"epochSlotNo":64295,"hash":"e5211261c5ae6f0e7193c6d46f6a34e0f09bb8b0a316fae516b7c509d9a84a94","time":"2022/12/07 15:36:26","txCount":1,"totalFees":172849,"totalOutput":377327091,"slotLeader":"79c4d4fe108f480fee98f307adac12571df2959651f833b595141cd1"},{"blockNo":8109453,"slotNo":78861093,"epochNo":380,"epochSlotNo":64293,"hash":"ebe5c7a858cd62a82421c13d8198cdf6a3c25a1fe652d66b62f31549f2161ba4","time":"2022/12/07 15:36:24","txCount":3,"totalFees":906361,"totalOutput":1411887950,"slotLeader":"483b0d11a79c52d088f93e8a0930999c1bb17f2b04b26c7167d9bb0e"},{"blockNo":8109452,"slotNo":78861091,"epochNo":380,"epochSlotNo":64291,"hash":"dd8861689d4cfc1585e0e36d29e44e09cb50c3fbe93daabfbe21b377e0939bbc","time":"2022/12/07 15:36:22","txCount":15,"totalFees":5807308,"totalOutput":413091972541,"slotLeader":"7a990e7ee931f9d548a977d5cf2194f26f7e2f1158752e0bb94a073f"},{"blockNo":8109451,"slotNo":78861079,"epochNo":380,"epochSlotNo":64279,"hash":"f093753a81fd1c21c9511c69b31d17872909f40eb2c6934cc207a9fe3e4676a9","time":"2022/12/07 15:36:10","txCount":14,"totalFees":4786851,"totalOutput":8456002004,"slotLeader":"30432a0b85b6f80b3e9cd356d8b76b9793f5530c91050c1688da4922"},{"blockNo":8109450,"slotNo":78861069,"epochNo":380,"epochSlotNo":64269,"hash":"feb28e3edcc90be09f8050aefaf126ca92665e1af91a33a360be0575f8b1bc9d","time":"2022/12/07 15:36:00","txCount":14,"totalFees":5555788,"totalOutput":18531874747224,"slotLeader":"5b60373e718a3647ec57f610b9942f91286748ddeaa0ad226acb927b"},{"blockNo":8109449,"slotNo":78861055,"epochNo":380,"epochSlotNo":64255,"hash":"d0a88c846e71e0562d2606ef2539662456efe049863f2a22293409aee96183d0","time":"2022/12/07 15:35:46","txCount":17,"totalFees":6681122,"totalOutput":41282492429,"slotLeader":"2f606921baedcad68bbc765b9ab82b2b201d42bd35262517ce5d7d96"},{"blockNo":8109448,"slotNo":78861045,"epochNo":380,"epochSlotNo":64245,"hash":"a7ec6fb880c7308a2fd59b0a867c8bd209e17bfc35920610873d9358d5d5b154","time":"2022/12/07 15:35:36","txCount":8,"totalFees":2042525,"totalOutput":8838523384,"slotLeader":"4987d8a81c1e79f600771b4331fe84ce2f700f2855ae345d915dbf51"},{"blockNo":8109447,"slotNo":78861038,"epochNo":380,"epochSlotNo":64238,"hash":"38b2843aa0023b024c2ffff293154b85874f951328bde11b7f0030b5f3453fe3","time":"2022/12/07 15:35:29","txCount":7,"totalFees":2623116,"totalOutput":897553979959,"slotLeader":"e75ff353a1a2e454d3fe59249f87dad63b4270b16caf4b819bae5f69"},{"blockNo":8109446,"slotNo":78861030,"epochNo":380,"epochSlotNo":64230,"hash":"8c8008a1a451efe4542dbbf204a2a6b23751e531b439efd33ed2814ada4ad06c","time":"2022/12/07 15:35:21","txCount":20,"totalFees":5853654,"totalOutput":123256693771,"slotLeader":"936f24e391afc0738c816ae1f1388957b977de3d0e065dc9ba38af8d"},{"blockNo":8109445,"slotNo":78861026,"epochNo":380,"epochSlotNo":64226,"hash":"5577eb53870948537cc1bc1073d90307bd36e48b7d5e39f8ac356890e96df84d","time":"2022/12/07 15:35:17","txCount":46,"totalFees":12368262,"totalOutput":1514415473941,"slotLeader":"95954fa839905a201d8d97cc31be8bbd4ac2ad0df1d201accce3a23e"},{"blockNo":8109444,"slotNo":78860989,"epochNo":380,"epochSlotNo":64189,"hash":"6226d0053fec854d45767be01af46e249bf63632fb29ebf6defd8f028de40d9b","time":"2022/12/07 15:34:40","txCount":31,"totalFees":10117842,"totalOutput":17842659138405,"slotLeader":"da482311081902f95d08bb05d878126904a1e133dd06901e05e652ce"},{"blockNo":8109443,"slotNo":78860940,"epochNo":380,"epochSlotNo":64140,"hash":"e1e5500dde7cd75e20d5293559363c07864d4e4371c4830453fc27e959ef569e","time":"2022/12/07 15:33:51","txCount":4,"totalFees":1107812,"totalOutput":1176090928,"slotLeader":"52e22df52e90370f639c99f5c760f0cd67d7f871cd0d0764fae47cd9"},{"blockNo":8109442,"slotNo":78860936,"epochNo":380,"epochSlotNo":64136,"hash":"c8c9c2fbd7efb3a923554d5d6e84c15bb7782ede51035038ce4156d0cdd72b38","time":"2022/12/07 15:33:47","txCount":28,"totalFees":10685154,"totalOutput":479393672197,"slotLeader":"737929797be1a93e3a61cda089e33368e3b91f3884b0d684462a32ec"},{"blockNo":8109441,"slotNo":78860903,"epochNo":380,"epochSlotNo":64103,"hash":"1dd54b99683f2b3ff56536f2355751182eb2b29a338916febbcbcc0899910d90","time":"2022/12/07 15:33:14","txCount":18,"totalFees":5370864,"totalOutput":322131917879,"slotLeader":"446109cdad3e7dfc6e0bb4be5ecf25df02fcc2ec8f6df46a3ca2c537"},{"blockNo":8109440,"slotNo":78860889,"epochNo":380,"epochSlotNo":64089,"hash":"6b8e90b47ac7549579733bb1629c872110871ce8359d6385f0bca5c71761922d","time":"2022/12/07 15:33:00","txCount":18,"totalFees":5349250,"totalOutput":492051530075,"slotLeader":"34ae2462f0fab1866281947a022d85bddf29f45a8b9699baabbbfcb9"}],"totalItems":8109635,"totalPages":405482,"currentPage":0}