{"data":[{"blockNo":8411731,"slotNo":85091517,"epochNo":394,"epochSlotNo":246717,"hash":"09d8cb009fb95fe611149b4d53f920e448ffafd0d37e62d436b23a2ff361c842","time":"2023/02/17 18:16:48","txCount":11,"totalFees":3175841,"totalOutput":17542148175019,"slotLeader":"b59366e330a6db8260ad9aae8446ba8c908931d1b9cb3cca5d1d84aa"},{"blockNo":8411730,"slotNo":85091505,"epochNo":394,"epochSlotNo":246705,"hash":"181db6d4e81a0954a558c542c6010a98e60fa38d533082f8afa6735b314314a4","time":"2023/02/17 18:16:36","txCount":7,"totalFees":2075707,"totalOutput":74421350502,"slotLeader":"351a90a0253fb3595ccc460438b9947cd8a0b9a7f457f3478bbb31d8"},{"blockNo":8411729,"slotNo":85091503,"epochNo":394,"epochSlotNo":246703,"hash":"076b2b8c598f1d8bb6665470c4001ddfc667fb21ca615bd4a9da9bae592dc921","time":"2023/02/17 18:16:34","txCount":32,"totalFees":11227143,"totalOutput":28691832240563,"slotLeader":"36e0db9278d5b481dad2f2f84c42d20c324b046aaff97ff45fa4e134"},{"blockNo":8411728,"slotNo":85091450,"epochNo":394,"epochSlotNo":246650,"hash":"0907327dce3c7ac4d4ca6d0e623616cd192b4e45f54d8f7e4da3dcf2155bb3dd","time":"2023/02/17 18:15:41","txCount":19,"totalFees":4948199,"totalOutput":2538243566162,"slotLeader":"2146dfb28bb438d70cd5f7532357c81b6ab25d55163094c9618ab8fc"},{"blockNo":8411727,"slotNo":85091429,"epochNo":394,"epochSlotNo":246629,"hash":"d3980922e806c90b73c0f4f0473afd5aae2c8f541d8a2b19bac85fae6556b9f9","time":"2023/02/17 18:15:20","txCount":33,"totalFees":9596204,"totalOutput":3623644252816,"slotLeader":"118af2b045067d1eb1816bc9e0030e11d294b27c0e89c02b27b83f58"},{"blockNo":8411726,"slotNo":85091426,"epochNo":394,"epochSlotNo":246626,"hash":"c16c9855fda3d75b52f94f895d912231688edbb5d1e7a2fa8653b38fee7d63a7","time":"2023/02/17 18:15:17","txCount":18,"totalFees":9315624,"totalOutput":26042032456624,"slotLeader":"c8a15d64b34aed5d3bca88915ceb53533a45ee1487c7b2398df24d42"},{"blockNo":8411725,"slotNo":85091364,"epochNo":394,"epochSlotNo":246564,"hash":"821d21a435bea25663390378763d8d5e0406c491d9904494d67a07220df03196","time":"2023/02/17 18:14:15","txCount":49,"totalFees":15147340,"totalOutput":4155788134649,"slotLeader":"eaa28db3bf0b7bb815b552fc9e0cecdda62933ce6c67067183c79acd"},{"blockNo":8411724,"slotNo":85091277,"epochNo":394,"epochSlotNo":246477,"hash":"481d34b6a3834510fd0a4654fc3d5091a68c15c1e8264160908253f82eb04d82","time":"2023/02/17 18:12:48","txCount":31,"totalFees":7978896,"totalOutput":1264630821161,"slotLeader":"660f20fb9d419173ac623786ad3e6dc11a23951981e0e83e98233d29"},{"blockNo":8411723,"slotNo":85091267,"epochNo":394,"epochSlotNo":246467,"hash":"a07a50bd013dde72f138457e298cc7661960617f9dc43325198f0a28fc67d778","time":"2023/02/17 18:12:38","txCount":21,"totalFees":9522770,"totalOutput":47311364433701,"slotLeader":"c2c52eab0d713209b337d8ff8fe28e1ccae2f70eb7ed1ee27e8c866a"},{"blockNo":8411722,"slotNo":85091222,"epochNo":394,"epochSlotNo":246422,"hash":"0af9ae99d473b49a845106808631fc3b716ede900883846169a007019904f0d8","time":"2023/02/17 18:11:53","txCount":11,"totalFees":2677926,"totalOutput":15869807744,"slotLeader":"00000036d515e12e18cd3c88c74f09a67984c2c279a5296aa96efe89"}],"totalItems":11524,"totalPages":1153,"currentPage":0}