{"data":[{"blockNo":8403722,"slotNo":84921116,"epochNo":394,"epochSlotNo":76316,"hash":"2c70874ca90089a5a9809c417bf9b0d3be5a47329d66e380e87476a7c1d2be5a","time":"2023/02/15 18:56:47","txCount":5,"totalFees":3669266,"totalOutput":30913906969,"slotLeader":"a89b86373838360143aba3911eaae54bf9420868965d48d447e4510a"},{"blockNo":8403721,"slotNo":84921111,"epochNo":394,"epochSlotNo":76311,"hash":"bc06e2f0af6e8498cc0f4825c90960ec0dc4d50fd5efe6cd42bb1d1f65dffff9","time":"2023/02/15 18:56:42","txCount":23,"totalFees":8530684,"totalOutput":4548820793018,"slotLeader":"a6fc7ec669c64333e6c411b50e9c99323d8043391aacbe2b49f7cb29"},{"blockNo":8403720,"slotNo":84921083,"epochNo":394,"epochSlotNo":76283,"hash":"146218d531c709240a24b545d1985cb294d2c3ad6c363db1d45868ac1fa1161a","time":"2023/02/15 18:56:14","txCount":57,"totalFees":15598052,"totalOutput":205571226690,"slotLeader":"8a8e0fa9953e6a02c73bf9c7471c08c20e4067cccb4afff6201cb6ef"},{"blockNo":8403719,"slotNo":84921044,"epochNo":394,"epochSlotNo":76244,"hash":"75e179320bc83aebdb24ec95f5ab042124ed7c3f313b8d683f3df2c7da901888","time":"2023/02/15 18:55:35","txCount":38,"totalFees":12225565,"totalOutput":22525637170455,"slotLeader":"a631b46315b1567ef0ce2b2ad4cb63faac09f32ceba6716a7e331e5e"},{"blockNo":8403718,"slotNo":84920967,"epochNo":394,"epochSlotNo":76167,"hash":"088d153b79b07a034393920d1f6bcbcce6a161c77fb451eb6c478ca84d10ee25","time":"2023/02/15 18:54:18","txCount":4,"totalFees":841839,"totalOutput":34645999279,"slotLeader":"30432a0b85b6f80b3e9cd356d8b76b9793f5530c91050c1688da4922"},{"blockNo":8403717,"slotNo":84920962,"epochNo":394,"epochSlotNo":76162,"hash":"fda246ba32b8b4252c7e1b62113c2a7eba5b9f54f785f3e4830e21a91f0ac1c6","time":"2023/02/15 18:54:13","txCount":23,"totalFees":5530894,"totalOutput":60113351343,"slotLeader":"971212db48d9390662faa0fa725950f3b9ac1a898227f5fcf1096399"},{"blockNo":8403716,"slotNo":84920931,"epochNo":394,"epochSlotNo":76131,"hash":"0149920d0bb6a1240fccebdc049b16544dd8e8ab3466298ca3b40624baea3519","time":"2023/02/15 18:53:42","txCount":9,"totalFees":2119334,"totalOutput":27485123824,"slotLeader":"07ac7dee6c82177096b70ccf21cfb8965c1fb08e079f9ca4af4b2b3e"},{"blockNo":8403715,"slotNo":84920919,"epochNo":394,"epochSlotNo":76119,"hash":"b9d9795fdec8cca56e258daf093d68200574ba535bd1fb78450ef1abd7ffff0b","time":"2023/02/15 18:53:30","txCount":24,"totalFees":6095754,"totalOutput":20586673054680,"slotLeader":"c63dab6d780a74cbae2a27696c9723f55b3092b2bd001256df03827f"},{"blockNo":8403714,"slotNo":84920881,"epochNo":394,"epochSlotNo":76081,"hash":"d13e2135274e747ad21245333f03a9017e57c5ea447de65400e4e78a466b20ed","time":"2023/02/15 18:52:52","txCount":15,"totalFees":8894645,"totalOutput":31051928472223,"slotLeader":"8e0bb9b126acd8e65a023602377d9a7a6f15af394d1f7bdd852182b8"},{"blockNo":8403713,"slotNo":84920865,"epochNo":394,"epochSlotNo":76065,"hash":"e2c29ee82842e7a07a360c72e7730912ce5ae893ca3264d1d2577849693ca241","time":"2023/02/15 18:52:36","txCount":0,"totalFees":0,"totalOutput":0,"slotLeader":"618ab17ec8ea7239b4ac0c826b667c599489e25524ce74841a29d510"},{"blockNo":8403712,"slotNo":84920863,"epochNo":394,"epochSlotNo":76063,"hash":"3449a343c94cb51aa085d77263861bc49a35b9cd2ae67bad94b5643b6b6e6673","time":"2023/02/15 18:52:34","txCount":25,"totalFees":10050331,"totalOutput":5411540518564,"slotLeader":"fcc675f8266022c4a0f8a7f1e24b00896fd742b35f147304c2354442"},{"blockNo":8403711,"slotNo":84920840,"epochNo":394,"epochSlotNo":76040,"hash":"862279eb1bd41db213688e0970bb99b623dd454a4813974de24ff47b0af236c3","time":"2023/02/15 18:52:11","txCount":17,"totalFees":5505062,"totalOutput":5277664519892,"slotLeader":"7f6c103302f96390d478a170fe80938b76fccd8a23490e3b6ddebcf7"},{"blockNo":8403710,"slotNo":84920824,"epochNo":394,"epochSlotNo":76024,"hash":"fe60ebddd90dd97f6282d1fead563a50dd924c04131fe5fb0390bbef796ef48e","time":"2023/02/15 18:51:55","txCount":8,"totalFees":2061692,"totalOutput":227662183293,"slotLeader":"c4a4b16b33b63da2117f4a84d3ea686f34fcf9f4603ce016af9e39aa"},{"blockNo":8403709,"slotNo":84920811,"epochNo":394,"epochSlotNo":76011,"hash":"eeb7e3c25edb6b872a6b6599d90e2130f12f34e75512de6bf05d751bdb0df187","time":"2023/02/15 18:51:42","txCount":13,"totalFees":3278931,"totalOutput":29697679609,"slotLeader":"c7e431518477a4156c2a8cd6523a6a73514e7fbbbf7eed363b9a22ad"},{"blockNo":8403708,"slotNo":84920797,"epochNo":394,"epochSlotNo":75997,"hash":"b231f7e71ae14c7454c8d8af6cef86bfbcb5376819ecb5882db318f27a44b5c3","time":"2023/02/15 18:51:28","txCount":15,"totalFees":3166448,"totalOutput":73382141975,"slotLeader":"dd7330d29709deb4e8dff5b49d50b174c9c884678992cca4a68d96d7"},{"blockNo":8403707,"slotNo":84920796,"epochNo":394,"epochSlotNo":75996,"hash":"fd4e1529082d61354128a2cfc6ebd8e9ad338dff2826252bfe69b1129ff42b1c","time":"2023/02/15 18:51:27","txCount":39,"totalFees":12911925,"totalOutput":23220515052619,"slotLeader":"f99151a5fd003b8bb92ba2af02ed6efec2923b520189cf89e1c264aa"},{"blockNo":8403706,"slotNo":84920743,"epochNo":394,"epochSlotNo":75943,"hash":"48f7de0b167f572bda91e7987712f9eddd2022191881a06bf2d1f75a3bf2290f","time":"2023/02/15 18:50:34","txCount":45,"totalFees":12232495,"totalOutput":586577885886,"slotLeader":"2f606921baedcad68bbc765b9ab82b2b201d42bd35262517ce5d7d96"},{"blockNo":8403705,"slotNo":84920676,"epochNo":394,"epochSlotNo":75876,"hash":"fbc9f8ac205171e87b92f1f1a174d638df9a26b1cac68201fbbf459264c69b49","time":"2023/02/15 18:49:27","txCount":35,"totalFees":9918803,"totalOutput":3551287370871,"slotLeader":"4045672633587d62688c258870681cab49c0d09a6542614e9a271678"},{"blockNo":8403704,"slotNo":84920634,"epochNo":394,"epochSlotNo":75834,"hash":"f3466581dfba650adbf97322644bd762e1e2ec4ee1142fab727539a0b9991c15","time":"2023/02/15 18:48:45","txCount":56,"totalFees":15976644,"totalOutput":5307595735107,"slotLeader":"fa58244068bef886049b3e8fbba8aa39f227ce78168efdf7629111c5"},{"blockNo":8403703,"slotNo":84920556,"epochNo":394,"epochSlotNo":75756,"hash":"0f5606cb96b266b4141f3a628beb03af01b9d111e62aa92a4168f211d3c22ca9","time":"2023/02/15 18:47:27","txCount":11,"totalFees":2895507,"totalOutput":2441457601,"slotLeader":"a10865dae2d543ee9f13e98bff70ea81565bb6e4343b15b765f78174"}],"totalItems":8403898,"totalPages":420195,"currentPage":0}