{"data":[{"txId":56850429,"txHash":"cdddeb52536aaf47d8420286489159578632e7e08f4f3754ae76110ec70a61ef","txTime":"2022/12/07 18:33:42","block":8109952,"epoch":380,"slotNo":78871731,"epochSlotNo":74931,"stakeKey":"stake1u8ptdzaxgxr07uhmehc8n07az4l789km38q6yrnpaxgyyqqu7j9dx"},{"txId":56849315,"txHash":"cc0f08bd7f1fb45da8cc65341d6d2d3974f8e30a844616af3168a4e3ee58547b","txTime":"2022/12/07 18:15:08","block":8109891,"epoch":380,"slotNo":78870617,"epochSlotNo":73817,"stakeKey":"stake1uxmw0s7m493slmay6mwtra2ywsjl5mvnj0ek3w0cm0pg8ysdkl2qa"},{"txId":56849312,"txHash":"ed7150421d4f14d2514d9ed03e9f786896a9f5fba9d7c17ce1c9a15d93222107","txTime":"2022/12/07 18:15:08","block":8109891,"epoch":380,"slotNo":78870617,"epochSlotNo":73817,"stakeKey":"stake1u8rsjfdakmnh4q758xfdcyrg7cyjxkjkwevp3qye447qmvglftada"},{"txId":56849262,"txHash":"cf41d32a0c7848a00dc63866ee6a95ac61d068ce7fc8932d0dee396d91600b43","txTime":"2022/12/07 18:14:04","block":8109889,"epoch":380,"slotNo":78870553,"epochSlotNo":73753,"stakeKey":"stake1ux7t9p09rul4xm56jg9j086gw96sgklzgwjyczlyfzmj7gs8fq06m"},{"txId":56849228,"txHash":"3a0bc2fb0a79c44a42e132c3ac0195aced475cc486b812048d7076426399a2f9","txTime":"2022/12/07 18:13:01","block":8109887,"epoch":380,"slotNo":78870490,"epochSlotNo":73690,"stakeKey":"stake1uxv5vugfle0p02xe7864l3gthxssps2rcupkf4hj9lkewmg5alft7"},{"txId":56849088,"txHash":"7b5a49025d8ca01fe2ad8c1a13e369908343533af404ff8ac3963b310749cabc","txTime":"2022/12/07 18:10:54","block":8109881,"epoch":380,"slotNo":78870363,"epochSlotNo":73563,"stakeKey":"stake1uyjvmx6ewgq9fuum4428aay2925tncqdmwxek4egrvr3cnq753mm7"},{"txId":56849078,"txHash":"c0d2ba50622e22842d5cc38ebeed61443e9bb51e3c3fdba341d4ab6468c07eb8","txTime":"2022/12/07 18:10:40","block":8109879,"epoch":380,"slotNo":78870349,"epochSlotNo":73549,"stakeKey":"stake1ux87wwtvt83sdaq5lra9jfhqca64njcnu8ny22q8ct4akws6k92an"},{"txId":56849047,"txHash":"d468991860b57ea4bba870ee8591bcb62350e667d8e43a2603707ac082a7459d","txTime":"2022/12/07 18:10:18","block":8109877,"epoch":380,"slotNo":78870327,"epochSlotNo":73527,"stakeKey":"stake1uy64w9yxxhklhkh890y64swkqwu96fwxldc076sk0xss2nqudfeup"},{"txId":56849037,"txHash":"77af89fb296d90d35b2c83725ea2f8999ee2ee57f2528f50f9589f66e15dcd54","txTime":"2022/12/07 18:10:18","block":8109877,"epoch":380,"slotNo":78870327,"epochSlotNo":73527,"stakeKey":"stake1u8gdpnzc3tundqxf38zqar7f7lng85nvq39l3ezh6latgrstypdzd"},{"txId":56848992,"txHash":"4d2fc1f4c4cf4ffac5985d9e003b571f4469ed33bdf5716dcc6d33e6bfa5a808","txTime":"2022/12/07 18:10:14","block":8109876,"epoch":380,"slotNo":78870323,"epochSlotNo":73523,"stakeKey":"stake1uxea6uah0mcajvaw5csgls5tcz3cax53j3wa0uk88mccx4q2k7csk"},{"txId":56848974,"txHash":"af57b376031b96b57827fa89f0da6a2a11e89a72c1a3ee9091c36d158a17e67f","txTime":"2022/12/07 18:10:14","block":8109876,"epoch":380,"slotNo":78870323,"epochSlotNo":73523,"stakeKey":"stake1uxzlrkwumdnz02gsmp2pqc7sqcutm8xj3xlt49507830q6sm4sx2v"},{"txId":56848857,"txHash":"dd5a7135269ec07bd99accbe22c8513361b9efef776a5d36f2fcd8ce1d4685ad","txTime":"2022/12/07 18:06:21","block":8109870,"epoch":380,"slotNo":78870090,"epochSlotNo":73290,"stakeKey":"stake1u92ylrnzr08jtugkerdkug67sg3gqyc2fpdyu3999exzl9gkerysn"},{"txId":56848842,"txHash":"e7d345da696b67eb2921e7b1b24d5648c83399ac2bf563228969c8dbd3133214","txTime":"2022/12/07 18:06:21","block":8109870,"epoch":380,"slotNo":78870090,"epochSlotNo":73290,"stakeKey":"stake1uykz66pkta4eh6rfnwl80pth9tdzy09vwgzzd0u2v4ynp4sfpsd2h"},{"txId":56848835,"txHash":"b24189d724caefd685b7358c415374e278c63367f9dd9e2ce7d40d2503212f2e","txTime":"2022/12/07 18:06:21","block":8109870,"epoch":380,"slotNo":78870090,"epochSlotNo":73290,"stakeKey":"stake1u8edhuuczqaxud424rw9su6kq5pw0p6xqx8tmgafk9t000qefk5je"},{"txId":56848693,"txHash":"78cc58ce0d562a7bf8544f0a7fca424248dca7b95f394eef2bd8b5bc298a58a1","txTime":"2022/12/07 18:03:33","block":8109865,"epoch":380,"slotNo":78869922,"epochSlotNo":73122,"stakeKey":"stake1uy4xle7dwtsxlzs3xc4696rpz3ssj3dfhdaf2cewwr5g79cljkd9k"},{"txId":56848596,"txHash":"0c00e90f2d997f939c66b90ddde5f7b4e9aa99cfc9964cd9da57ea9dfe774b41","txTime":"2022/12/07 18:01:41","block":8109862,"epoch":380,"slotNo":78869810,"epochSlotNo":73010,"stakeKey":"stake1u8qsn4a9ujfr9zrmr3tfmzk393v67gd09nnglue6yajg8qq6d8v0z"},{"txId":56848583,"txHash":"3f7dfac05a55e8e187e7926b5290045faa662fceeb02705d0fabdf43180c089a","txTime":"2022/12/07 18:01:41","block":8109862,"epoch":380,"slotNo":78869810,"epochSlotNo":73010,"stakeKey":"stake1u950yhdswesze74c3l7hcrl4fw90a876pxjhja78gzvrzgqcpwll4"},{"txId":56848486,"txHash":"69e1dfd2478dcd63c259e2925b38fb8e3ffe4ab5ef7aa611463db26037fea141","txTime":"2022/12/07 18:01:10","block":8109860,"epoch":380,"slotNo":78869779,"epochSlotNo":72979,"stakeKey":"stake1ux2dswxsuwf27zm5uk3nqxvsfjdqxjhttw7n23kye673c6q4gpfzj"},{"txId":56848424,"txHash":"bd398d59641861fc3d7efda285832e30a90eb6de05239ce85e8011c8673b583b","txTime":"2022/12/07 17:58:56","block":8109856,"epoch":380,"slotNo":78869645,"epochSlotNo":72845,"stakeKey":"stake1uxsrse8fy0tv9q0n8kk7t82cuju63vqs85nafr76f22fe4qzkxv7v"},{"txId":56848421,"txHash":"cfe165d14f1714d9123ab709c750974cab3fd171d0e5bbbd64f073ef8cc80d61","txTime":"2022/12/07 17:58:54","block":8109855,"epoch":380,"slotNo":78869643,"epochSlotNo":72843,"stakeKey":"stake1uys7hf3vdufj9q7wcram6p4spzv94g765uy0dtqukus35zc9pahnl"}],"totalItems":1617467,"totalPages":80874,"currentPage":0}