{"data":[{"txId":29756538,"txHash":"deca8d10f52563b0ebd13e8b4c038f3bced16535758d4722027a5710c8c9cd4c","txTime":"2022/02/02 18:26:53","block":6833372,"epoch":318,"slotNo":52260122,"epochSlotNo":247322,"stakeKey":"stake1uy07ff72wq06p0y833hrglj75gdq4dcacgxdz3lp988cjlsyj5qq6"},{"txId":29756532,"txHash":"818e1497fe50b4091e491bb5185b55ed965d24a66cb02c3bae5ef45c38422a95","txTime":"2022/02/02 18:26:53","block":6833372,"epoch":318,"slotNo":52260122,"epochSlotNo":247322,"stakeKey":"stake1uxlr8ke5z68j4e2z7xawek5vf7jz9lc3dxp0k7y7apukaygvdu8yh"},{"txId":29756509,"txHash":"c0a3de9c0c0f58676181ee4ac51836233c92bb7b88a2df7a2e1443f438c5b980","txTime":"2022/02/02 18:26:53","block":6833372,"epoch":318,"slotNo":52260122,"epochSlotNo":247322,"stakeKey":"stake1uxycwmymtfrx3qx9depfdhlgcgr30qcspcakz2cawwrg5cs9mvekv"},{"txId":29756376,"txHash":"6d7c7b4986bf6107652febc92260f4a825b32d44bc05fcefbb5015a20836b404","txTime":"2022/02/02 18:26:25","block":6833369,"epoch":318,"slotNo":52260094,"epochSlotNo":247294,"stakeKey":"stake1uy7rz372aq9j5gucy0zwmys7q4m7q2ytkxh8muvmsnns7pg3ah53h"},{"txId":29756130,"txHash":"5da3c3066e5cdd47c30715837caa523782bc18c9750e3391d3dfc82b3f917fa4","txTime":"2022/02/02 18:22:01","block":6833362,"epoch":318,"slotNo":52259830,"epochSlotNo":247030,"stakeKey":"stake1uxnn29jjj6jwx598v9rxeevhhqcjrg9k8typhdpepvajshc8690ve"},{"txId":29755932,"txHash":"a43149bd9259370e20d04d7e3431eee4453c4f20982539708bc3840e2210dd85","txTime":"2022/02/02 18:19:52","block":6833356,"epoch":318,"slotNo":52259701,"epochSlotNo":246901,"stakeKey":"stake1uygmamtjmws7q5em9p0cpfj9865aqs65tnupl7uh4kzenqgtheafj"},{"txId":29755862,"txHash":"af15e9e7813af81fc9dccffed2f7b5b495748fe3fdeb91f86210fafc36d4b22c","txTime":"2022/02/02 18:18:23","block":6833354,"epoch":318,"slotNo":52259612,"epochSlotNo":246812,"stakeKey":"stake1uy9z0m7df2x3a6f3ju8laznmdlsd8v4w6zqdj3szxv0ag9gakw2v9"},{"txId":29755844,"txHash":"e429cfeaddd82d3975ee1703b49f310655b6235cc03f27f61cf74f29e92f514d","txTime":"2022/02/02 18:18:23","block":6833354,"epoch":318,"slotNo":52259612,"epochSlotNo":246812,"stakeKey":"stake1u8y32sjlcnwysaraapf58842lzcg98zwh70cf54nkmjllqchwnql5"},{"txId":29755820,"txHash":"7b72150ec976962acd1e217c59b56c9636a95f8dbe827190519d34c4bf1173b0","txTime":"2022/02/02 18:18:23","block":6833354,"epoch":318,"slotNo":52259612,"epochSlotNo":246812,"stakeKey":"stake1uy7rykcjhh6fygjj6w3a6d7ec2dh58t66ee7eutzdetupag5fx929"},{"txId":29755558,"txHash":"fcb187f7a4a8d2a8f2f42512782d9268627edd083f27e476373483665ce2fd01","txTime":"2022/02/02 18:14:50","block":6833345,"epoch":318,"slotNo":52259399,"epochSlotNo":246599,"stakeKey":"stake1ux33ku59dvrf2dyp09jyj3y9zul083699n8fz357yww287qj79ucx"},{"txId":29755526,"txHash":"44a5a28933719680f5bb094ce180e502bbfdddfd8cf5da9ec4dd7e8189f3c3b9","txTime":"2022/02/02 18:14:36","block":6833344,"epoch":318,"slotNo":52259385,"epochSlotNo":246585,"stakeKey":"stake1uywzyaclhrd02tvd4eu7xmwxy2zzzfh3hg4xn25dmdds3hsmvmla5"},{"txId":29755517,"txHash":"7974bb40f2dac628a25c499b05edb56416f788398547137869ea63d98460bd94","txTime":"2022/02/02 18:14:36","block":6833344,"epoch":318,"slotNo":52259385,"epochSlotNo":246585,"stakeKey":"stake1ux5plzd7aepayvzujm6pqmhuwe3x5yzfgcr603rzpc06vxs8apv49"},{"txId":29755391,"txHash":"57fa224f4f83609dfe7d667603691b4388ca7a14d48058acc5e5961540521253","txTime":"2022/02/02 18:13:21","block":6833342,"epoch":318,"slotNo":52259310,"epochSlotNo":246510,"stakeKey":"stake1u9kjsd72xpcwrezue6uqcknfl7tq7cyq6r43j2u3wfgtyyqdhtfaf"},{"txId":29755382,"txHash":"fe75f8f7dd246165c34b9d443ac540a870f5d281d041c94165810a42d1028c0f","txTime":"2022/02/02 18:13:17","block":6833341,"epoch":318,"slotNo":52259306,"epochSlotNo":246506,"stakeKey":"stake1u9kn7ce2mhr9eqqesnzx8z6kkhtl629md6epqa7gj9tweyg338ldc"},{"txId":29755266,"txHash":"e835a5d2c82c3ea38e3349b257a801334ce98401db8af6c0e46e895d1ca6a15b","txTime":"2022/02/02 18:12:19","block":6833338,"epoch":318,"slotNo":52259248,"epochSlotNo":246448,"stakeKey":"stake1u8gtrlzdrdlrwyvzpzlypqdua9e5aydyksku25tufxlr3tqnzusqw"},{"txId":29755231,"txHash":"68867a0f6367a817082918d22446f83fb0c69d3b9583fe22938555c5deb8abf1","txTime":"2022/02/02 18:12:19","block":6833338,"epoch":318,"slotNo":52259248,"epochSlotNo":246448,"stakeKey":"stake1u9azd2tz6yqq40pg3y6cky05px3dfxz46qryqzhxl4s9g0c7e59yr"},{"txId":29755198,"txHash":"da6c8ee0431b35e3db7d37da8d6b2345af6c195d449434af4e7d1b08d91490a3","txTime":"2022/02/02 18:11:17","block":6833336,"epoch":318,"slotNo":52259186,"epochSlotNo":246386,"stakeKey":"stake1u9g582gzeu2t7x352prqwhkp5hdlp3hnmcn53qaku4hy3gg9jhax0"},{"txId":29755197,"txHash":"43bead32b61deb052ae8ba57f0d83c872b8aa6a5b0bd35a1629b3f9395eda57b","txTime":"2022/02/02 18:11:17","block":6833336,"epoch":318,"slotNo":52259186,"epochSlotNo":246386,"stakeKey":"stake1uyk7xz7s7jnp88dssk075yf4m9tpfkk48m30wyde0styqlsj3wajc"},{"txId":29755176,"txHash":"fd470f711aa57da75524893ea9f01d29fcede257d4c162eb056a491f5f2fbfa4","txTime":"2022/02/02 18:11:17","block":6833336,"epoch":318,"slotNo":52259186,"epochSlotNo":246386,"stakeKey":"stake1uxazq0pnkme8hv7sawgypsekv042edsgj5rw7kpdy7flgccftvduy"},{"txId":29755076,"txHash":"345350624f67f436eb2810392a2eb5c146caaef475f1feff58946a037e02c5ce","txTime":"2022/02/02 18:10:50","block":6833335,"epoch":318,"slotNo":52259159,"epochSlotNo":246359,"stakeKey":"stake1uxr0gc9ty29pnpacc3uk98w4ettvsyk7qrc5l5w0dc9472ske7vlv"}],"totalItems":1389980,"totalPages":69499,"currentPage":0}