{"data":[{"txId":56953580,"txHash":"7b893fd47966c62c70f9cc140c1779db08a07be5a833b1d4f466437997f1198e","txTime":"2022/12/09 09:33:45","block":8116936,"epoch":380,"slotNo":79012134,"epochSlotNo":215334,"stakeKey":"stake1u9uy9wpukzleflu293ddexkwz2ujc9966wxchea9ek6jqsg39vn9z"},{"txId":56953249,"txHash":"13ad11bd62e15d883f1b47f0ebb101947b375f93415c73b6db93f2450c86043f","txTime":"2022/12/09 09:24:49","block":8116908,"epoch":380,"slotNo":79011598,"epochSlotNo":214798,"stakeKey":"stake1u8z9fnn7v64cytgllvtc0fqvdhk9mznc9jdfcpuvrlc86pst0mrvj"},{"txId":56953202,"txHash":"1e76c3b82270da3838bb7f30dcf689d47f53253d48c4a79025526a9a8cf66cbf","txTime":"2022/12/09 09:22:52","block":8116904,"epoch":380,"slotNo":79011481,"epochSlotNo":214681,"stakeKey":"stake1u9v7s8cu4gnmzf278u4cfj7ukp4cm9hpkyp772u9ngr5rpcwtfxlx"},{"txId":56952994,"txHash":"ec06b0eca456f1047f35640037e9d70c70f6a7859c3fbf4e5b4bab9869516c93","txTime":"2022/12/09 09:17:12","block":8116888,"epoch":380,"slotNo":79011141,"epochSlotNo":214341,"stakeKey":"stake1u932hhvcl80lkdquephz7ky266zqc8pfhyvkmu486fz6xzq8l0nhm"},{"txId":56952902,"txHash":"fab29116c2d0729e2771f1a5b1885b1a003fb8c7fc078bfcd420825c2b383514","txTime":"2022/12/09 09:14:10","block":8116877,"epoch":380,"slotNo":79010959,"epochSlotNo":214159,"stakeKey":"stake1uyr2tlx6l7pvpqdehxvcsyddhz9kk4k62e7ceg93k480kus4kk49m"},{"txId":56952892,"txHash":"313e3f6230c4c09bed9fc608b7e6edca1c77a436e7a2666a67888aac9c06e179","txTime":"2022/12/09 09:14:10","block":8116877,"epoch":380,"slotNo":79010959,"epochSlotNo":214159,"stakeKey":"stake1uy6se0v5ck8q26sfv9tytvk3hf09ra6e9dcyrmcgflluzrsneeqle"},{"txId":56952878,"txHash":"fada7b26177268c8931b2427d057878b2ab1acc563462d60a1419e46422a43ed","txTime":"2022/12/09 09:13:30","block":8116874,"epoch":380,"slotNo":79010919,"epochSlotNo":214119,"stakeKey":"stake1u8vteayus5xaegxfkfke2hc8krug25ya7eq6ff77acjaxqgcznme6"},{"txId":56952663,"txHash":"eb6e3fcab3df6b59120e722f1d383d360b5e7f767ea8741451895a8f0be87587","txTime":"2022/12/09 09:08:29","block":8116858,"epoch":380,"slotNo":79010618,"epochSlotNo":213818,"stakeKey":"stake1uxlantujwjdvxqulvxamxngz0yfjzd80mk3qn0aa6gcakvg7rmjsv"},{"txId":56952501,"txHash":"8511189ce2dcf7109efb65f7b4308fdb9af501b0821df21a224270c27591f720","txTime":"2022/12/09 09:03:52","block":8116844,"epoch":380,"slotNo":79010341,"epochSlotNo":213541,"stakeKey":"stake1u9yp35p6mu2auzatelpk9gkmzur07mllt2je35dsfejm3gsam40dn"},{"txId":56952485,"txHash":"73064a2167040eac540e49804d89b020c7b40b147bd3b9ec0b1e09637fd40bda","txTime":"2022/12/09 09:03:07","block":8116842,"epoch":380,"slotNo":79010296,"epochSlotNo":213496,"stakeKey":"stake1u95k39ey04q7kwxf29gvppxay4e8wafg2sce5t3n3u6t6yc3kr4u3"},{"txId":56952419,"txHash":"c0d162976d69a85c04f7691c584ee94e3b45e21c1dcba729c25ecac52a19d066","txTime":"2022/12/09 09:01:37","block":8116836,"epoch":380,"slotNo":79010206,"epochSlotNo":213406,"stakeKey":"stake1uxt6jrujzyaxk3nlf2v00a5gcqkkczrtx9fkrtxvqp7gt2ghsphtn"},{"txId":56951926,"txHash":"e323ccde2aedcc045ee7f50e6c41efb9c0b6de8785954f8d5db400afb0f2c939","txTime":"2022/12/09 08:47:22","block":8116796,"epoch":380,"slotNo":79009351,"epochSlotNo":212551,"stakeKey":"stake1uy8us3pf0n68d60xn9jtuxnjpukhrm355s86lk29dapf8egcwdsnf"},{"txId":56951726,"txHash":"25ca0095f94498dfd8b30bf15fe701ecd26885139afe05b456f33c074b35e843","txTime":"2022/12/09 08:42:05","block":8116780,"epoch":380,"slotNo":79009034,"epochSlotNo":212234,"stakeKey":"stake1u9xakxpazkcf8a3jgl7tax09088fwdnef0huvhdgjla9z9s3w78tc"},{"txId":56951698,"txHash":"75b96bf5f3c30a2cd8d590d104154537ac05e3efcf9d61a819d6536c99e3f930","txTime":"2022/12/09 08:41:49","block":8116778,"epoch":380,"slotNo":79009018,"epochSlotNo":212218,"stakeKey":"stake1uygnjmutc6dwkyzh7y7smzj9ujxdw36l4pwq4g23rljg8fsgtfjms"},{"txId":56951635,"txHash":"ffad6aa4535b7dbf108671a22f9b46c5a5609f8226666ea89d1c1d92ba12a342","txTime":"2022/12/09 08:39:54","block":8116775,"epoch":380,"slotNo":79008903,"epochSlotNo":212103,"stakeKey":"stake1uy7trk00qe2mgq5zy942n0vk0pjkqj32qulnldkt87fdjwqpfna46"},{"txId":56951291,"txHash":"d126f9d24efb82efc46787b24b53392228cbc632fadaabf77d050574b2ae0603","txTime":"2022/12/09 08:28:49","block":8116737,"epoch":380,"slotNo":79008238,"epochSlotNo":211438,"stakeKey":"stake1ux40w0v3l7uu0l7wpm7h07k7ezuf7stgjjp0p66chxcmw4q2m5f4m"},{"txId":56950959,"txHash":"3800fe76c38c4064db30c933d165b9c7352602bc112fec069e2ac77f3eda24fa","txTime":"2022/12/09 08:19:56","block":8116706,"epoch":380,"slotNo":79007705,"epochSlotNo":210905,"stakeKey":"stake1uy3kdnaaew240gzt5tahjqr0pvtvuqld6zlv8hx3gl5c0ngm8yw9v"},{"txId":56950622,"txHash":"7df70487a7ac228cb818ec84ced3344f843e6f0450489362cebe4c796006eed7","txTime":"2022/12/09 08:09:25","block":8116678,"epoch":380,"slotNo":79007074,"epochSlotNo":210274,"stakeKey":"stake1u82a2pwnfwr2fwd4aem88zh4lzg3hmhkjkskryx9lhns0hcpnpfl9"},{"txId":56950504,"txHash":"7f300bceb2f428c181f828e75ebd82a238b098a36a3a2188f3a0547f2deae133","txTime":"2022/12/09 08:06:03","block":8116664,"epoch":380,"slotNo":79006872,"epochSlotNo":210072,"stakeKey":"stake1u95vumgapgtskc4my5tx2e3qtkl3pqa5njgc4rqmq7t5pcsjwpcy2"},{"txId":56950389,"txHash":"e5dbd509b8b67454d3a7b82bbe3c4ba9403b91d8bfb257e8d98d78d989518547","txTime":"2022/12/09 08:03:25","block":8116655,"epoch":380,"slotNo":79006714,"epochSlotNo":209914,"stakeKey":"stake1uxmmjkstxyu9j2a7qy8tw78pxpx5l7x983v5rfx8dsk5ccqwh8s85"}],"totalItems":1618199,"totalPages":80910,"currentPage":0}