{"data":[{"blockNo":8265036,"slotNo":82051445,"epochNo":387,"epochSlotNo":230645,"hash":"0aba83982f35d88419d9f1b62326772eeeb26c00f0c02ead87229700b65a5735","time":"2023/01/13 13:48:56","txCount":14,"totalFees":4018175,"totalOutput":35153990207,"slotLeader":"f1b265f1e545da9c6e003c5d703fb5a23283c646cd40b2d619671e7f"},{"blockNo":8265035,"slotNo":82051431,"epochNo":387,"epochSlotNo":230631,"hash":"a53b61091140b83449707a1f3967c7174ce634f54347234d9aad837fd76999a6","time":"2023/01/13 13:48:42","txCount":14,"totalFees":3573077,"totalOutput":1802812263376,"slotLeader":"bd5f6b254798e3ddde1a9c3609fa9d6e468d638bd9103afb02e29ae5"},{"blockNo":8265034,"slotNo":82051412,"epochNo":387,"epochSlotNo":230612,"hash":"86dda8a35c52e3bd335e3b83469108fb93a58b666b8420f135f74a8362e9a5e2","time":"2023/01/13 13:48:23","txCount":9,"totalFees":3550160,"totalOutput":1592574611268,"slotLeader":"000001b844f4e4c900ae0dfdc84a8845f71090b82fb473e6c70a31ee"},{"blockNo":8265033,"slotNo":82051400,"epochNo":387,"epochSlotNo":230600,"hash":"95f622644a30c90a01818e31b22fea204fa0c2573806210d7d8eb04fc34019e9","time":"2023/01/13 13:48:11","txCount":13,"totalFees":2640388,"totalOutput":44291236509,"slotLeader":"837a3cf8c96e97bed8e8be6deb390144b46171e3c843b75575d0f788"},{"blockNo":8265032,"slotNo":82051382,"epochNo":387,"epochSlotNo":230582,"hash":"5020cb2634007de84bf1bb437c3bfcea7b917e62afa174b4c70c7a104d8f8bd1","time":"2023/01/13 13:47:53","txCount":5,"totalFees":2672010,"totalOutput":52723657959,"slotLeader":"beb5390bc047831874ad69f615a6f023ea121865c75ec389d6c0a392"},{"blockNo":8265031,"slotNo":82051375,"epochNo":387,"epochSlotNo":230575,"hash":"80b88cb8796698c98e1f058cb0038218b326e4e31df1759dda3ea1b6f24b7907","time":"2023/01/13 13:47:46","txCount":8,"totalFees":2007243,"totalOutput":7293198421,"slotLeader":"6c518b4861bb88b1395ceb116342cecbcfb8736282655f9a61c4c368"},{"blockNo":8265030,"slotNo":82051366,"epochNo":387,"epochSlotNo":230566,"hash":"abeeb5a91fec577090cf73148997f3653e81b5cd1ad473ea3a81b4eddb4e122b","time":"2023/01/13 13:47:37","txCount":33,"totalFees":14701560,"totalOutput":5418315306363,"slotLeader":"000006d97fd0415d2dafdbb8b782717a3d3ff32f865792b8df7ddd00"},{"blockNo":8265029,"slotNo":82051335,"epochNo":387,"epochSlotNo":230535,"hash":"092c517c5a37381d04385fb0dbf3f378238a855c5ce38e0e49f8e3edb783cd78","time":"2023/01/13 13:47:06","txCount":17,"totalFees":5344696,"totalOutput":1218357093055,"slotLeader":"c01546efeba17d531d60447356fc4c19b29c632aeac3377d21f75b4e"},{"blockNo":8265028,"slotNo":82051313,"epochNo":387,"epochSlotNo":230513,"hash":"98c60b5e29a3f35a0e5d12aee0f0ee947c3f990e824989578dc8282908c813cc","time":"2023/01/13 13:46:44","txCount":20,"totalFees":8868603,"totalOutput":19902378478305,"slotLeader":"56b76df4f3653a6faf62f6f6838045cf9f3dde69a1eee353de526ee4"},{"blockNo":8265027,"slotNo":82051308,"epochNo":387,"epochSlotNo":230508,"hash":"3284fabc1f82a43ca3b9dd2dec706358da6a1fad7d3df915c9a92c78374a449e","time":"2023/01/13 13:46:39","txCount":49,"totalFees":15527782,"totalOutput":364208290845,"slotLeader":"3d82913d4c8da690aab6af622651f7a659da40af87dcb4b3b98ce830"},{"blockNo":8265026,"slotNo":82051258,"epochNo":387,"epochSlotNo":230458,"hash":"f527d1ca812bd8e0e85e395ada35f6b386740aaa6482bb6a0fa6dfdb7f7a36e7","time":"2023/01/13 13:45:49","txCount":30,"totalFees":10748969,"totalOutput":22926043333500,"slotLeader":"c779f67a0f3a1f2985626e345013015f71cf245dbcc8ac8457f42e56"},{"blockNo":8265025,"slotNo":82051233,"epochNo":387,"epochSlotNo":230433,"hash":"a9634a3f5a7cff951469a516de24d425e264f6e06fe5e94cbf17ad342a3ce41c","time":"2023/01/13 13:45:24","txCount":24,"totalFees":6373945,"totalOutput":429859959154,"slotLeader":"1b94521f14db543dd493b0c170ecb0ef56d7f5e611098d1b8dcfd167"},{"blockNo":8265024,"slotNo":82051197,"epochNo":387,"epochSlotNo":230397,"hash":"8809f50054f220ae17a26a27d6ef907707916448aa1f6bdc9867bd3083206641","time":"2023/01/13 13:44:48","txCount":7,"totalFees":1733895,"totalOutput":43847436038,"slotLeader":"17a6a1f2fb36d9ef275805db17409af7ab753b9d27bdd41b89510bb9"},{"blockNo":8265023,"slotNo":82051191,"epochNo":387,"epochSlotNo":230391,"hash":"09f8bd4b25ef67c627a7fc823e056b2e1dc0f86f0e5dd2883700ad1400fbd696","time":"2023/01/13 13:44:42","txCount":6,"totalFees":2224903,"totalOutput":3583538646,"slotLeader":"e455088c9164ae075f0300bc1a7234c30433556c6b88d4301a06cfe5"},{"blockNo":8265022,"slotNo":82051185,"epochNo":387,"epochSlotNo":230385,"hash":"49d4ac387ac83426fc16f3ae85dcce0754d13f7919686397eb44aeaef462c68a","time":"2023/01/13 13:44:36","txCount":1,"totalFees":513051,"totalOutput":2429502405,"slotLeader":"f17566678e30c1c75dd39e68829723a3c1aeff1d4f8924c6cdd18746"},{"blockNo":8265021,"slotNo":82051183,"epochNo":387,"epochSlotNo":230383,"hash":"23354f2adb9b15453c1f77774087d31d6c331e93a2d4e8d260fd7e08781d462f","time":"2023/01/13 13:44:34","txCount":0,"totalFees":0,"totalOutput":0,"slotLeader":"c27db049e669c55902e3f4d34d5366e3321b1f3c6517acdf7c766a5b"},{"blockNo":8265020,"slotNo":82051182,"epochNo":387,"epochSlotNo":230382,"hash":"a3fb47bbeaa9ecad09626c11a2a9ed25afaebcf8e738c790affbb3adb2c32604","time":"2023/01/13 13:44:33","txCount":26,"totalFees":8439163,"totalOutput":3821900826899,"slotLeader":"571b0be3f126255004d9828f37f11026551b9ca391c4aed3b05d6a75"},{"blockNo":8265019,"slotNo":82051181,"epochNo":387,"epochSlotNo":230381,"hash":"fa7218d3658a9ee5ed0f458b7d6f6946e9e6c0cfb825a8735e88cc778973aec5","time":"2023/01/13 13:44:32","txCount":31,"totalFees":13115785,"totalOutput":4195347901194,"slotLeader":"79c4d4fe108f480fee98f307adac12571df2959651f833b595141cd1"},{"blockNo":8265018,"slotNo":82051109,"epochNo":387,"epochSlotNo":230309,"hash":"8600b4b5714265f98de6776b476ed8121e338f4dfc0be7fa6e985ff79401bf61","time":"2023/01/13 13:43:20","txCount":1,"totalFees":192693,"totalOutput":92882144,"slotLeader":"6b51a5aae5b4b5f07f38acf12816b4f8a558ee2840d0dba69040aeb2"},{"blockNo":8265017,"slotNo":82051106,"epochNo":387,"epochSlotNo":230306,"hash":"c25d1fa0be2efd31460dabfc174dc9caee5a1a2a87e8bfbc77c1add7dc7e5a81","time":"2023/01/13 13:43:17","txCount":34,"totalFees":10137926,"totalOutput":597533546335,"slotLeader":"7d45120fc9e82f8b69d886057d80630b721e8f033cb8e3f26621d7bd"}],"totalItems":8265212,"totalPages":413261,"currentPage":0}