{"data":[{"blockNo":6725264,"slotNo":49958819,"epochNo":313,"epochSlotNo":106019,"hash":"c68ef9c302b776d5bfed6ca64b604e5496dae94d1e9d0d4602bea8b4bda4951c","time":"2022/01/07 03:11:50","txCount":32,"totalFees":11489842,"totalOutput":456421600441,"slotLeader":"6184f6e7229530a2d1f9f746112406100e2696dd7439ff8c52750700"},{"blockNo":6725263,"slotNo":49958808,"epochNo":313,"epochSlotNo":106008,"hash":"10216863f42af2be13733153be7c0733406731e4b033dfe57142480747192f8f","time":"2022/01/07 03:11:39","txCount":53,"totalFees":15889297,"totalOutput":329545054802,"slotLeader":"79c4d4fe108f480fee98f307adac12571df2959651f833b595141cd1"},{"blockNo":6725262,"slotNo":49958791,"epochNo":313,"epochSlotNo":105991,"hash":"a45185489878fab31d08be1d5b9e9aaffab784e55c1c8fb5a5a8b269924eef00","time":"2022/01/07 03:11:22","txCount":49,"totalFees":13480792,"totalOutput":1624116660730,"slotLeader":"6b51a5aae5b4b5f07f38acf12816b4f8a558ee2840d0dba69040aeb2"},{"blockNo":6725261,"slotNo":49958719,"epochNo":313,"epochSlotNo":105919,"hash":"35138b9683dc17ceada09b34ec197fac30a831edb4d7ec1074849e0396938365","time":"2022/01/07 03:10:10","txCount":31,"totalFees":6575303,"totalOutput":224114735358,"slotLeader":"00beef8710427e328a29555283c74b202b40bec9a62630a9f03b1e18"},{"blockNo":6725260,"slotNo":49958695,"epochNo":313,"epochSlotNo":105895,"hash":"132943ca7f2436c013f09e8af6f2019519cb92f0fd4792089dd69965be4346ab","time":"2022/01/07 03:09:46","txCount":36,"totalFees":10571145,"totalOutput":57226033819,"slotLeader":"4ef0c287cc67a951bb0f0eb8d56d1bf69939bd007a2681dbc3055ef6"},{"blockNo":6725259,"slotNo":49958680,"epochNo":313,"epochSlotNo":105880,"hash":"1233a466d14db428ea85cb601df5e3357f2ca2640b2dee2e694db3d59cf366ab","time":"2022/01/07 03:09:31","txCount":44,"totalFees":13295304,"totalOutput":270426240488,"slotLeader":"d785ff6a030ae9d521770c00f264a2aa423e928c85fc620b13d46eda"},{"blockNo":6725258,"slotNo":49958648,"epochNo":313,"epochSlotNo":105848,"hash":"358fa3d9e73c82e2e075b2603a4ea92c5c83484a70bfa955bcc1b4dcff6d5c86","time":"2022/01/07 03:08:59","txCount":51,"totalFees":14953761,"totalOutput":292857513724,"slotLeader":"6371c7935c90ddb9b2bca3e5ae04d69711ec1bc28749393116c6d44c"},{"blockNo":6725257,"slotNo":49958633,"epochNo":313,"epochSlotNo":105833,"hash":"a64a5cbb94757d25dd22c9c990fc089ee6647ac142cfbae1e54cf8cfc2aa2957","time":"2022/01/07 03:08:44","txCount":40,"totalFees":14295305,"totalOutput":50062418014,"slotLeader":"a07f6d16fc809cbd6c3dd8bb8e3fdc9e874e1cacba480a359b3f2252"},{"blockNo":6725256,"slotNo":49958598,"epochNo":313,"epochSlotNo":105798,"hash":"39407a240ed607426eb824145917fdc24cb08e9f213ac8c919dee99c0f360efb","time":"2022/01/07 03:08:09","txCount":72,"totalFees":17583374,"totalOutput":1197594064772,"slotLeader":"9b9890b811d67ba9e69810581e4fc119ca0c2354adb7cd6ff564b0a3"},{"blockNo":6725255,"slotNo":49958584,"epochNo":313,"epochSlotNo":105784,"hash":"3b7f6b0ff5e2a285076656685c37f35d6eb72bb92c62313963b7fbd757a65ade","time":"2022/01/07 03:07:55","txCount":64,"totalFees":15560987,"totalOutput":459815186093,"slotLeader":"2f09336a66c36d0df40dc42f2454fe4f4311c23d312e3683be434081"}],"totalItems":4908,"totalPages":491,"currentPage":0}