{"data":[{"address":"addr1vx0l928zuszdgn2qs062tyze320v0vmg3hdszkw3fykwdece25sw8","quantity":368600509474191032280},{"address":"addr1qyya3tqthg9ajrfh2ux0chm6dse50r74cqrppwfqd5naxrav002vf6te3g057nrg4ry2fxlas0cdyt5y8x0e7z6mmmpspdvr6h","quantity":6355113127070752768},{"address":"addr1qxszsqjtp8kf60yvk896cr9td2rkqnsxsgvej2ad8lah8x3hcdj45clk5lfnp6a2m7jdkpwd06t207rf6p2hzx6lv2jsl2szk3","quantity":69114000000000000},{"address":"addr1q9x2jzdeyj7q5u9uvhpzvpuf394f8tekyp26dg4q7kpcyw24mv86l2c6nvmhzu7n4rqjpp84p6ly3gucwtukw0tllf9sjln2tv","quantity":34125000000000000},{"address":"addr1q8fjdde87jrua78trg9ylv7gpvd5skzcv5nqp3wl467ykzgsmz083klcvm744y0n7yyg49ykzz0j628xpu4n5u0r0r4qrfqf6q","quantity":30678000000000000},{"address":"addr1qyecjgprat9qjdfkv6ln45eww5a9lwkgqn92x6lspd339ky00hv6dpawknxe42d8dlx42msv2nt8yej77vudk0uruvtsh2aeym","quantity":30592000000000000},{"address":"addr1qyfqrqhuljs6s05xn9camr3fkfk98d4xyn9vwf75dnnylwzdweftyc5cx76lqf466ugl8wf6wx3tkmfrjyfrp0ewur9s50zf72","quantity":21392000000000000},{"address":"addr1qxa7hxs2plv3ghfvm2ds0ddlgljjmr870nyj0dcuttr9emmhy29z9apw4amvddq7cz3u2c6jffld2rlzcrmuk57cdvcsnml3cx","quantity":19885140000000000},{"address":"addr1qymaumdm272r24d0s46827plplhc6t520lufdr5vdqn0z8hze4zwjlw3vpjum04n0gjymwde8c9p5r67yqupkzy8yz5qwdv2cd","quantity":7452000000000000},{"address":"addr1qxmllm7g0ktaftjgs2nsaq5s62t8g5yajxzdjxmaz8qm43m7j4dk4pjzlm2ya039s36wzzvj45753x87nldqegc3xfrqnl5vee","quantity":7340000000000000},{"address":"addr1q9rpxedn2mugqj3g66qe5mgunuzpjqmg27pmzac40k44z76heyqfqqeddffaspdfs9y3vf98lgmwrp750hqvsy66r4vqqy7k92","quantity":6165000000000000},{"address":"addr1qx7m5uazcx0734jqmzeamsrfwukv3qmp79x2rd5etncpc22heyqfqqeddffaspdfs9y3vf98lgmwrp750hqvsy66r4vqrt9ajv","quantity":6165000000000000},{"address":"addr1q93vyug8m3qrqc5qr9u28hzkvdpzyvmez85f58l8y9t2502xrdyd4ezx43vxjgw0dvz6dzy36jku3ptrr9mcv5dftkhsx6f5gt","quantity":5988000000000000},{"address":"addr1q8t3thze7q95p807umg7alfu507umvlyhu5yjeq2lh5t34mj7nlh4tqz48qap2v2r3c2s3nrnpyq8qtymqszzw8j6zcqcd0zkf","quantity":5688000000000000},{"address":"addr1q8njpfaq2juy8djeqh7xs4k9n0uyz7q00gr4ttn82xdc6xuz2kfgd2rjm46qt0vqvtu6lmrwna0gzmsvv37ngqtmywwq4pn0pl","quantity":5460000000000000},{"address":"addr1q9j9edkjryr9fnz6eyuwjcjutun9kpgtkdlulzquheldfeermhplrjkd38pvcn2r58dnl0v4rxs9lz6rdj5p77j3wvcs7ud37u","quantity":3787000000000000},{"address":"addr1q9kpz200jr0x50ckx434twhxqze0m0nh0j3e9rtycr3mk6lnhg9pdyuuy63884c8u39f2w7rctqp6vzf7mlzxfzyv30sjry4ex","quantity":3660000000000000},{"address":"addr1qxl95mc9efjduz732fg5j3yt85p5rz5yn5tktnpzr4ahghtj7nlh4tqz48qap2v2r3c2s3nrnpyq8qtymqszzw8j6zcqkkm2xp","quantity":3065000000000000},{"address":"addr1q9cy3zvtyzds983r6amaxhp24xm7r94m6jx2t8lxx9gdvhfhcdj45clk5lfnp6a2m7jdkpwd06t207rf6p2hzx6lv2jsx3w6yq","quantity":2703000000000000},{"address":"addr1qy0xznhgdhqj9u4g6jjdntf2cxy5lyad8j2p6a6dp8jwwttfq4uncdzu6hqlxn7gva2xsaln40x226fl8fsnqyyvzxtqqm3qw9","quantity":2268000000000000}],"totalItems":125,"totalPages":7,"currentPage":0}