{"data":[{"blockNo":7821456,"slotNo":72928547,"epochNo":366,"epochSlotNo":179747,"hash":"4cee6692b065c2e321f656333445b2c1692a251a2ce20c94ffe439b7ce828040","time":"2022/09/29 23:40:38","txCount":33,"totalFees":11429480,"totalOutput":14934393259929,"slotLeader":"bcfd7fb870c5c04b702e70d6d4d98b572bce999041897d0b51f3e215"},{"blockNo":7821455,"slotNo":72928488,"epochNo":366,"epochSlotNo":179688,"hash":"477bba8b6873a9708b5fb90b9c918f7a18d9eb59c06b89e4782cd70783c9e614","time":"2022/09/29 23:39:39","txCount":18,"totalFees":6413757,"totalOutput":6967814978718,"slotLeader":"7f6c103302f96390d478a170fe80938b76fccd8a23490e3b6ddebcf7"},{"blockNo":7821454,"slotNo":72928471,"epochNo":366,"epochSlotNo":179671,"hash":"b84392a81710fb5feaac4563b35158a793dbdbd00132458cc57423f712ba7163","time":"2022/09/29 23:39:22","txCount":12,"totalFees":6132695,"totalOutput":6200617061110,"slotLeader":"62c337b473a2e2548ed3cb76002a56bc1305bad95c26c6efd89085af"},{"blockNo":7821453,"slotNo":72928455,"epochNo":366,"epochSlotNo":179655,"hash":"6f3372b75c087295c4f25e72e19051807d28ce55bbab3458ef45c5812ba43e68","time":"2022/09/29 23:39:06","txCount":15,"totalFees":3674366,"totalOutput":107301691566,"slotLeader":"837a3cf8c96e97bed8e8be6deb390144b46171e3c843b75575d0f788"},{"blockNo":7821452,"slotNo":72928429,"epochNo":366,"epochSlotNo":179629,"hash":"8d6f225b1d59a82e6179335f5e96e798bd49daa681f77dcb6e78ecaadbc07617","time":"2022/09/29 23:38:40","txCount":5,"totalFees":1444638,"totalOutput":1736241343,"slotLeader":"4ea4b108b5a3cedd1abec6175e6f97a61520f64d234e555d231a440e"},{"blockNo":7821451,"slotNo":72928422,"epochNo":366,"epochSlotNo":179622,"hash":"82b0226a0853638610818d07bd79732034ce61f53fff6e6ffb866dbf451e5feb","time":"2022/09/29 23:38:33","txCount":39,"totalFees":11805791,"totalOutput":686127691515,"slotLeader":"d854986d64cb440f9554576eee79542ddd86afa49008f9223da2549e"},{"blockNo":7821450,"slotNo":72928368,"epochNo":366,"epochSlotNo":179568,"hash":"bdf4dd821a8154d1ee81c954c2921afee8be3c7c2dbe0ca22c69a967a22fd576","time":"2022/09/29 23:37:39","txCount":4,"totalFees":1902050,"totalOutput":142586769518,"slotLeader":"85a0503824424acda33cbd675ec611d5a34c44131782da800c750eaa"},{"blockNo":7821449,"slotNo":72928360,"epochNo":366,"epochSlotNo":179560,"hash":"de51d61cd07a4d24c71c46812cdded7abed787c279c4210c6329245867edf1a3","time":"2022/09/29 23:37:31","txCount":3,"totalFees":1745660,"totalOutput":4673485498217,"slotLeader":"14cb7963696b6f80abb2298dc60bc2abc7d813abb23ac19c6420bca0"},{"blockNo":7821448,"slotNo":72928355,"epochNo":366,"epochSlotNo":179555,"hash":"cc92f06909bcedd55d3ec6821a5754fafff119b84337805a1ff7f41c7a76ac99","time":"2022/09/29 23:37:26","txCount":37,"totalFees":11031978,"totalOutput":1790034333445,"slotLeader":"27814ffdea37e4b3ac8e412b8b2dfaba1f7105beaf2cb892b4ac6c14"},{"blockNo":7821447,"slotNo":72928291,"epochNo":366,"epochSlotNo":179491,"hash":"924ebfcbd4c69cbfaf401b1196652bf20aec8e259b4e5293c206ed77610b2505","time":"2022/09/29 23:36:22","txCount":1,"totalFees":174301,"totalOutput":52636262,"slotLeader":"fb4b7b76ea6d857f442cb9569d186f328fc846bb83222c3150ec3346"},{"blockNo":7821446,"slotNo":72928286,"epochNo":366,"epochSlotNo":179486,"hash":"ab69df254f53c6b999ce5d0eb7bf1a0c3c15606b319144bbcae12d39891fdd62","time":"2022/09/29 23:36:17","txCount":5,"totalFees":2561181,"totalOutput":158370141481,"slotLeader":"3a203ec1a8bae5098be953c3759e9fae42eea3d5714293500c6b3013"},{"blockNo":7821445,"slotNo":72928277,"epochNo":366,"epochSlotNo":179477,"hash":"3aaaddf106a25820c64f7ab8a360b4233c8fc3a5d07291b62a06feb438526a13","time":"2022/09/29 23:36:08","txCount":34,"totalFees":9641802,"totalOutput":92259367261,"slotLeader":"3caaa49b3f45a914736c393c97c4bb8611ab7d5f66ecb4e214e93606"},{"blockNo":7821444,"slotNo":72928220,"epochNo":366,"epochSlotNo":179420,"hash":"9849d19b1ccaea37a14a6f9e04e353b250f1f237f9567cf00c1c78793ae53251","time":"2022/09/29 23:35:11","txCount":9,"totalFees":2778290,"totalOutput":93577425756,"slotLeader":"dec7757e2ba0fcea7fd93a9999bf342d1974338fb91355ac68c13320"},{"blockNo":7821443,"slotNo":72928214,"epochNo":366,"epochSlotNo":179414,"hash":"3872005ee1456e6d912f4159fcebcb97b08f226787e1e43df667ce2794fbf3a3","time":"2022/09/29 23:35:05","txCount":10,"totalFees":2222696,"totalOutput":50904002428,"slotLeader":"ac5ba151fae6889e25021acc723b0e34655828bf3328b6f1180e1d65"},{"blockNo":7821442,"slotNo":72928195,"epochNo":366,"epochSlotNo":179395,"hash":"2a384f887e57d39b5a967d41be6d3bc9ebcb6499bb2ed54525b0ee4895118124","time":"2022/09/29 23:34:46","txCount":12,"totalFees":3392739,"totalOutput":3352475894,"slotLeader":"837a3cf8c96e97bed8e8be6deb390144b46171e3c843b75575d0f788"},{"blockNo":7821441,"slotNo":72928177,"epochNo":366,"epochSlotNo":179377,"hash":"4e075a39d45f33575e7cc78a4cbea7a1dcc359cfd38be3fd0124b4b10935ad21","time":"2022/09/29 23:34:28","txCount":28,"totalFees":9890364,"totalOutput":1235368307684,"slotLeader":"5016cf588331d0f6d0e57f7f6d36d8d4f53224c77c09380580ea6430"},{"blockNo":7821440,"slotNo":72928130,"epochNo":366,"epochSlotNo":179330,"hash":"6e79475fa0520f129c394e0fc6394b229662339b5faafbd3cfa4065d5c12b3b1","time":"2022/09/29 23:33:41","txCount":15,"totalFees":4524266,"totalOutput":7628799342,"slotLeader":"28cf6c6c01ecbfbd5e807fd879132f07b2c6f0712b930442a229d380"},{"blockNo":7821439,"slotNo":72928108,"epochNo":366,"epochSlotNo":179308,"hash":"dffc37040ef7ae78cd7619aa9cce40f9dcb13338a8d5db1358f898ae3a86ab0e","time":"2022/09/29 23:33:19","txCount":14,"totalFees":5564186,"totalOutput":376812599089,"slotLeader":"4f3410f074e7363091a1cc1c21b128ae423d1cce897bd19478e534bb"},{"blockNo":7821438,"slotNo":72928086,"epochNo":366,"epochSlotNo":179286,"hash":"e49f99d4d13fa9e4b92ccf4b050435226b493314edf88a58943fb9ba649daa19","time":"2022/09/29 23:32:57","txCount":0,"totalFees":0,"totalOutput":0,"slotLeader":"3b3327c0a885ba7c1ebeec8b44158aab79c32148d45b4c701344cd97"},{"blockNo":7821437,"slotNo":72928084,"epochNo":366,"epochSlotNo":179284,"hash":"f0f69f01d7f8653bebeb57bf277fed2bd17a9fdd7b7471284e54ee79ddd8b827","time":"2022/09/29 23:32:55","txCount":15,"totalFees":5378038,"totalOutput":60087528430,"slotLeader":"fdc55442d4c89bfa42bb62ac640ed710afd6eb79531e6dbb8459eb46"}],"totalItems":7821632,"totalPages":391082,"currentPage":0}