{"data":[{"hash":"102674adbb02999ac2c601552b4a9c8cd4062b5a5190a6eedb4aa469493a4524","blockNo":8109565,"blockHash":"be5de03df050b9a0f0ea84cca89d6f0afaaea1f28851604caa8a9e003ce6435f","epochNo":380,"epochSlotNo":66670,"slot":78863470,"time":"2022/12/07 16:16:01","addressesInput":["addr1qxuey0q5elzgxl59dnsresuf7ywt7tedd289jxmmsqmw9qcl4a7843764rakvn7dtyrq863whuq9vfxsl6cpg0n5kudqtrf59e","addr1qxuey0q5elzgxl59dnsresuf7ywt7tedd289jxmmsqmw9qcl4a7843764rakvn7dtyrq863whuq9vfxsl6cpg0n5kudqtrf59e","addr1qxssqvlcacaz3galh0yeesx55x75nzyhhajm97l36a2tdfcl4a7843764rakvn7dtyrq863whuq9vfxsl6cpg0n5kudqss0war","addr1qxuey0q5elzgxl59dnsresuf7ywt7tedd289jxmmsqmw9qcl4a7843764rakvn7dtyrq863whuq9vfxsl6cpg0n5kudqtrf59e","addr1qxuey0q5elzgxl59dnsresuf7ywt7tedd289jxmmsqmw9qcl4a7843764rakvn7dtyrq863whuq9vfxsl6cpg0n5kudqtrf59e","addr1qxuey0q5elzgxl59dnsresuf7ywt7tedd289jxmmsqmw9qcl4a7843764rakvn7dtyrq863whuq9vfxsl6cpg0n5kudqtrf59e","addr1qxuey0q5elzgxl59dnsresuf7ywt7tedd289jxmmsqmw9qcl4a7843764rakvn7dtyrq863whuq9vfxsl6cpg0n5kudqtrf59e","addr1qxuey0q5elzgxl59dnsresuf7ywt7tedd289jxmmsqmw9qcl4a7843764rakvn7dtyrq863whuq9vfxsl6cpg0n5kudqtrf59e","addr1qxuey0q5elzgxl59dnsresuf7ywt7tedd289jxmmsqmw9qcl4a7843764rakvn7dtyrq863whuq9vfxsl6cpg0n5kudqtrf59e","addr1qxuey0q5elzgxl59dnsresuf7ywt7tedd289jxmmsqmw9qcl4a7843764rakvn7dtyrq863whuq9vfxsl6cpg0n5kudqtrf59e","addr1qxq5lehud4522rrww6tjjvz94267lv6lgwtm3uafkdem5kgl4a7843764rakvn7dtyrq863whuq9vfxsl6cpg0n5kudq5tnekl","addr1qxuey0q5elzgxl59dnsresuf7ywt7tedd289jxmmsqmw9qcl4a7843764rakvn7dtyrq863whuq9vfxsl6cpg0n5kudqtrf59e"],"addressesOutput":["addr1vyc7ca9flp5gfeapd78uxzzq7l6qnsytj85n62lr5smhgssen2u2s","addr1q9zc25hyj7lp8a66rk9jqud73eu5dwequgxp2l5htusj52ql4a7843764rakvn7dtyrq863whuq9vfxsl6cpg0n5kudq9w9axy","addr1q9zc25hyj7lp8a66rk9jqud73eu5dwequgxp2l5htusj52ql4a7843764rakvn7dtyrq863whuq9vfxsl6cpg0n5kudq9w9axy","addr1q9zc25hyj7lp8a66rk9jqud73eu5dwequgxp2l5htusj52ql4a7843764rakvn7dtyrq863whuq9vfxsl6cpg0n5kudq9w9axy","addr1q9zc25hyj7lp8a66rk9jqud73eu5dwequgxp2l5htusj52ql4a7843764rakvn7dtyrq863whuq9vfxsl6cpg0n5kudq9w9axy","addr1q9zc25hyj7lp8a66rk9jqud73eu5dwequgxp2l5htusj52ql4a7843764rakvn7dtyrq863whuq9vfxsl6cpg0n5kudq9w9axy","addr1q9zc25hyj7lp8a66rk9jqud73eu5dwequgxp2l5htusj52ql4a7843764rakvn7dtyrq863whuq9vfxsl6cpg0n5kudq9w9axy","addr1q9zc25hyj7lp8a66rk9jqud73eu5dwequgxp2l5htusj52ql4a7843764rakvn7dtyrq863whuq9vfxsl6cpg0n5kudq9w9axy","addr1q9zc25hyj7lp8a66rk9jqud73eu5dwequgxp2l5htusj52ql4a7843764rakvn7dtyrq863whuq9vfxsl6cpg0n5kudq9w9axy","addr1q9zc25hyj7lp8a66rk9jqud73eu5dwequgxp2l5htusj52ql4a7843764rakvn7dtyrq863whuq9vfxsl6cpg0n5kudq9w9axy","addr1q9zc25hyj7lp8a66rk9jqud73eu5dwequgxp2l5htusj52ql4a7843764rakvn7dtyrq863whuq9vfxsl6cpg0n5kudq9w9axy"],"fee":658917,"totalOutput":82231304,"tokens":[]},{"hash":"57e659090edf2e4cc6c36c39fe97935c851065ab611d3873735c37d44a8b294c","blockNo":8109561,"blockHash":"e6719a3a85bd225367c63fd114c4a6433fd126fbd7ec29034a404ac51d258ddd","epochNo":380,"epochSlotNo":66590,"slot":78863390,"time":"2022/12/07 16:14:41","addressesInput":["addr1q8v4kr9jjppfattchjcj9zqkg6fr2r7hl3duqlvuad65d4ql4a7843764rakvn7dtyrq863whuq9vfxsl6cpg0n5kudqlqk7zg","addr1q8v4kr9jjppfattchjcj9zqkg6fr2r7hl3duqlvuad65d4ql4a7843764rakvn7dtyrq863whuq9vfxsl6cpg0n5kudqlqk7zg","addr1qxq5lehud4522rrww6tjjvz94267lv6lgwtm3uafkdem5kgl4a7843764rakvn7dtyrq863whuq9vfxsl6cpg0n5kudq5tnekl","addr1q8v4kr9jjppfattchjcj9zqkg6fr2r7hl3duqlvuad65d4ql4a7843764rakvn7dtyrq863whuq9vfxsl6cpg0n5kudqlqk7zg","addr1q8v4kr9jjppfattchjcj9zqkg6fr2r7hl3duqlvuad65d4ql4a7843764rakvn7dtyrq863whuq9vfxsl6cpg0n5kudqlqk7zg","addr1q8v4kr9jjppfattchjcj9zqkg6fr2r7hl3duqlvuad65d4ql4a7843764rakvn7dtyrq863whuq9vfxsl6cpg0n5kudqlqk7zg","addr1q8v4kr9jjppfattchjcj9zqkg6fr2r7hl3duqlvuad65d4ql4a7843764rakvn7dtyrq863whuq9vfxsl6cpg0n5kudqlqk7zg","addr1q8v4kr9jjppfattchjcj9zqkg6fr2r7hl3duqlvuad65d4ql4a7843764rakvn7dtyrq863whuq9vfxsl6cpg0n5kudqlqk7zg","addr1q8v4kr9jjppfattchjcj9zqkg6fr2r7hl3duqlvuad65d4ql4a7843764rakvn7dtyrq863whuq9vfxsl6cpg0n5kudqlqk7zg","addr1q8v4kr9jjppfattchjcj9zqkg6fr2r7hl3duqlvuad65d4ql4a7843764rakvn7dtyrq863whuq9vfxsl6cpg0n5kudqlqk7zg","addr1q8v4kr9jjppfattchjcj9zqkg6fr2r7hl3duqlvuad65d4ql4a7843764rakvn7dtyrq863whuq9vfxsl6cpg0n5kudqlqk7zg"],"addressesOutput":["addr1vyc67lpx2p4429pfmggqew493mdvky7wguyrsr8rmjcn6cgy0zcvd","addr1qxuey0q5elzgxl59dnsresuf7ywt7tedd289jxmmsqmw9qcl4a7843764rakvn7dtyrq863whuq9vfxsl6cpg0n5kudqtrf59e","addr1qxuey0q5elzgxl59dnsresuf7ywt7tedd289jxmmsqmw9qcl4a7843764rakvn7dtyrq863whuq9vfxsl6cpg0n5kudqtrf59e","addr1qxuey0q5elzgxl59dnsresuf7ywt7tedd289jxmmsqmw9qcl4a7843764rakvn7dtyrq863whuq9vfxsl6cpg0n5kudqtrf59e","addr1qxuey0q5elzgxl59dnsresuf7ywt7tedd289jxmmsqmw9qcl4a7843764rakvn7dtyrq863whuq9vfxsl6cpg0n5kudqtrf59e","addr1qxuey0q5elzgxl59dnsresuf7ywt7tedd289jxmmsqmw9qcl4a7843764rakvn7dtyrq863whuq9vfxsl6cpg0n5kudqtrf59e","addr1qxuey0q5elzgxl59dnsresuf7ywt7tedd289jxmmsqmw9qcl4a7843764rakvn7dtyrq863whuq9vfxsl6cpg0n5kudqtrf59e","addr1qxuey0q5elzgxl59dnsresuf7ywt7tedd289jxmmsqmw9qcl4a7843764rakvn7dtyrq863whuq9vfxsl6cpg0n5kudqtrf59e","addr1qxuey0q5elzgxl59dnsresuf7ywt7tedd289jxmmsqmw9qcl4a7843764rakvn7dtyrq863whuq9vfxsl6cpg0n5kudqtrf59e","addr1qxuey0q5elzgxl59dnsresuf7ywt7tedd289jxmmsqmw9qcl4a7843764rakvn7dtyrq863whuq9vfxsl6cpg0n5kudqtrf59e","addr1qxuey0q5elzgxl59dnsresuf7ywt7tedd289jxmmsqmw9qcl4a7843764rakvn7dtyrq863whuq9vfxsl6cpg0n5kudqtrf59e"],"fee":652933,"totalOutput":80597174,"tokens":[]},{"hash":"317a6fddbd27c08360d968fa6b342593651bb08daa063e45afbf9180e68f3584","blockNo":8109553,"blockHash":"7da6612f44e768d95da1d3ac86efac64cdfac6c7285090a03ba53d8b2a628244","epochNo":380,"epochSlotNo":66415,"slot":78863215,"time":"2022/12/07 16:11:46","addressesInput":["addr1qysqgr0kl35mlkkdp9rmqkeu5mmevytggw8p6h8dwdmsntcl4a7843764rakvn7dtyrq863whuq9vfxsl6cpg0n5kudqtryv0n","addr1qysqgr0kl35mlkkdp9rmqkeu5mmevytggw8p6h8dwdmsntcl4a7843764rakvn7dtyrq863whuq9vfxsl6cpg0n5kudqtryv0n","addr1qysqgr0kl35mlkkdp9rmqkeu5mmevytggw8p6h8dwdmsntcl4a7843764rakvn7dtyrq863whuq9vfxsl6cpg0n5kudqtryv0n","addr1qysqgr0kl35mlkkdp9rmqkeu5mmevytggw8p6h8dwdmsntcl4a7843764rakvn7dtyrq863whuq9vfxsl6cpg0n5kudqtryv0n","addr1qysqgr0kl35mlkkdp9rmqkeu5mmevytggw8p6h8dwdmsntcl4a7843764rakvn7dtyrq863whuq9vfxsl6cpg0n5kudqtryv0n","addr1qysqgr0kl35mlkkdp9rmqkeu5mmevytggw8p6h8dwdmsntcl4a7843764rakvn7dtyrq863whuq9vfxsl6cpg0n5kudqtryv0n","addr1qxq5lehud4522rrww6tjjvz94267lv6lgwtm3uafkdem5kgl4a7843764rakvn7dtyrq863whuq9vfxsl6cpg0n5kudq5tnekl","addr1qysqgr0kl35mlkkdp9rmqkeu5mmevytggw8p6h8dwdmsntcl4a7843764rakvn7dtyrq863whuq9vfxsl6cpg0n5kudqtryv0n","addr1qysqgr0kl35mlkkdp9rmqkeu5mmevytggw8p6h8dwdmsntcl4a7843764rakvn7dtyrq863whuq9vfxsl6cpg0n5kudqtryv0n","addr1qysqgr0kl35mlkkdp9rmqkeu5mmevytggw8p6h8dwdmsntcl4a7843764rakvn7dtyrq863whuq9vfxsl6cpg0n5kudqtryv0n","addr1q832pjpv9zzpnq5wkq0lpju88cs0krvdcynxsm4f9v8g4scl4a7843764rakvn7dtyrq863whuq9vfxsl6cpg0n5kudqn6frug","addr1qysqgr0kl35mlkkdp9rmqkeu5mmevytggw8p6h8dwdmsntcl4a7843764rakvn7dtyrq863whuq9vfxsl6cpg0n5kudqtryv0n"],"addressesOutput":["addr1q87k9zrel8zsqpqhue55u7356gch8a4wp7xfpg5et2nn3q72h8y4gwedd2z2nx6544nalel0zd0g0kel44c96xy3vxvqwq22c9","addr1q8v4kr9jjppfattchjcj9zqkg6fr2r7hl3duqlvuad65d4ql4a7843764rakvn7dtyrq863whuq9vfxsl6cpg0n5kudqlqk7zg","addr1q8v4kr9jjppfattchjcj9zqkg6fr2r7hl3duqlvuad65d4ql4a7843764rakvn7dtyrq863whuq9vfxsl6cpg0n5kudqlqk7zg","addr1q8v4kr9jjppfattchjcj9zqkg6fr2r7hl3duqlvuad65d4ql4a7843764rakvn7dtyrq863whuq9vfxsl6cpg0n5kudqlqk7zg","addr1q8v4kr9jjppfattchjcj9zqkg6fr2r7hl3duqlvuad65d4ql4a7843764rakvn7dtyrq863whuq9vfxsl6cpg0n5kudqlqk7zg","addr1q8v4kr9jjppfattchjcj9zqkg6fr2r7hl3duqlvuad65d4ql4a7843764rakvn7dtyrq863whuq9vfxsl6cpg0n5kudqlqk7zg","addr1q8v4kr9jjppfattchjcj9zqkg6fr2r7hl3duqlvuad65d4ql4a7843764rakvn7dtyrq863whuq9vfxsl6cpg0n5kudqlqk7zg","addr1q8v4kr9jjppfattchjcj9zqkg6fr2r7hl3duqlvuad65d4ql4a7843764rakvn7dtyrq863whuq9vfxsl6cpg0n5kudqlqk7zg","addr1q8v4kr9jjppfattchjcj9zqkg6fr2r7hl3duqlvuad65d4ql4a7843764rakvn7dtyrq863whuq9vfxsl6cpg0n5kudqlqk7zg","addr1q8v4kr9jjppfattchjcj9zqkg6fr2r7hl3duqlvuad65d4ql4a7843764rakvn7dtyrq863whuq9vfxsl6cpg0n5kudqlqk7zg","addr1q8v4kr9jjppfattchjcj9zqkg6fr2r7hl3duqlvuad65d4ql4a7843764rakvn7dtyrq863whuq9vfxsl6cpg0n5kudqlqk7zg"],"fee":658169,"totalOutput":84864832,"tokens":[]},{"hash":"8944c3ff6f25206a141eb4063a0317d14244a58f8ae91daeb417d46898dba873","blockNo":8109260,"blockHash":"717c09ff528c0b18a947c4fa2a41abac38ca71c492a0e7e857fb8c64f2e21451","epochNo":380,"epochSlotNo":60814,"slot":78857614,"time":"2022/12/07 14:38:25","addressesInput":["addr1q88lnurfsc3jyg5sgwqjfayl02ztmw2qfwqtpjsg0gvtkpezuq20wwz394xr5htm9c32fc98tl6u8qcrnryrg4g9hars5ckeqv","addr1q8zxwhlpzhc96eqwg57jkjrmqtj7jw8nhqevfs6yj5zkh2fzuq20wwz394xr5htm9c32fc98tl6u8qcrnryrg4g9harsgxwe0x"],"addressesOutput":["addr1qx033kkwpc3tg4s4kmfy03z3ywevz7t9v25facs2fzuzdspzuq20wwz394xr5htm9c32fc98tl6u8qcrnryrg4g9harspv4a4u","addr1qx033kkwpc3tg4s4kmfy03z3ywevz7t9v25facs2fzuzdspzuq20wwz394xr5htm9c32fc98tl6u8qcrnryrg4g9harspv4a4u"],"fee":207653,"totalOutput":10337261,"tokens":[]},{"hash":"2135a431aaec43489ef7968390e225ea2be4651a3ad0af8cf122b0ecbd334c7e","blockNo":8108784,"blockHash":"0cb6295ad7399308bdbe56b665c8b11fcadb9f1fd8a54c271e1f33dc49e1cfe8","epochNo":380,"epochSlotNo":51801,"slot":78848601,"time":"2022/12/07 12:08:12","addressesInput":["addr1q896raajajkh5hnetr2fcjgn5kvanx6c3sjfc2s2c39sf88y4fx70as64j7qekw4ee8khun9vk3cvydvdym4dlx4r38sce3s8p","addr1q896raajajkh5hnetr2fcjgn5kvanx6c3sjfc2s2c39sf88y4fx70as64j7qekw4ee8khun9vk3cvydvdym4dlx4r38sce3s8p","addr1q896raajajkh5hnetr2fcjgn5kvanx6c3sjfc2s2c39sf88y4fx70as64j7qekw4ee8khun9vk3cvydvdym4dlx4r38sce3s8p","addr1q8usepc3pc8ydmvyvq0x8y3g5uadearw9pr4jl8q47s0sshy4fx70as64j7qekw4ee8khun9vk3cvydvdym4dlx4r38snzd6cd","addr1qy0093umlhn46dpe8sse8vz96mqlkhvangzql9vgrz7cmwly4fx70as64j7qekw4ee8khun9vk3cvydvdym4dlx4r38svvzu0v","addr1qy2ffdht9q8mc3qyv0hc0gw4yxywck75j84lp749zap9hchy4fx70as64j7qekw4ee8khun9vk3cvydvdym4dlx4r38s49tyaj"],"addressesOutput":["addr1q9y8z7h648a44xj730689kggn0tn05a5h4yagwyt7u7wceu7t09k6klc7gd9cpp6cynstxhu455gj8a0lcw5p6g9e6wqv88a2a","addr1qywwf85pt400ukc4z6zrxdx6kx3fdrtwgaeynnpxf7mz66ly4fx70as64j7qekw4ee8khun9vk3cvydvdym4dlx4r38shcec3c","addr1qywwf85pt400ukc4z6zrxdx6kx3fdrtwgaeynnpxf7mz66ly4fx70as64j7qekw4ee8khun9vk3cvydvdym4dlx4r38shcec3c","addr1qywwf85pt400ukc4z6zrxdx6kx3fdrtwgaeynnpxf7mz66ly4fx70as64j7qekw4ee8khun9vk3cvydvdym4dlx4r38shcec3c","addr1qywwf85pt400ukc4z6zrxdx6kx3fdrtwgaeynnpxf7mz66ly4fx70as64j7qekw4ee8khun9vk3cvydvdym4dlx4r38shcec3c","addr1qywwf85pt400ukc4z6zrxdx6kx3fdrtwgaeynnpxf7mz66ly4fx70as64j7qekw4ee8khun9vk3cvydvdym4dlx4r38shcec3c","addr1qywwf85pt400ukc4z6zrxdx6kx3fdrtwgaeynnpxf7mz66ly4fx70as64j7qekw4ee8khun9vk3cvydvdym4dlx4r38shcec3c"],"fee":450929,"totalOutput":275809781,"tokens":[]},{"hash":"b0569288b1823b8583ae6a1f7fa4566e2a73aa4f17da2253a0b807b30c529f66","blockNo":8108455,"blockHash":"8be2c1f7de04cb620fca934e2aee10d64534ededbcb36ee2efbed43a07fc8ba1","epochNo":380,"epochSlotNo":45250,"slot":78842050,"time":"2022/12/07 10:19:01","addressesInput":["DdzFFzCqrhsza6KU7zrRqzegnh9eLTGWCXsvWtJFXRQbhqcsxqPsJbqRXn79pkdrAshRCDSfpiVdKAqaD8CNEpbVLFjHaBoU2SJbaWtL","DdzFFzCqrhsvuR58hQfqf1iT2VZedWQKDHCMnZ82v5siDwpvryrCwKWC9Xf8F6sEzLsi3jVCpbkXpVjhfE4CcMCPzRtZveYUfc7K1K9E","DdzFFzCqrhspD7QPhatnGewJeStpEzbYjL5iacYNQMB7omfnpiTirHV9D4WVypeKxPm84VWQyBfH9UDCpi6do27BLTsFnN6uVynTUi9L","DdzFFzCqrht6oQyhapCKn8dByho9u1KjZQLpNV7JreMEfjpmcBkz23BsbXFuZQ12e2TDYPYauYc9V3xqZxn9cH4Kowh9WcatfQyUArFH","DdzFFzCqrhsx1C3fChYia7pjGSrk2rfQW2Vw5pHxRkUo7rW98iwP2ncMyNo2r8eM5aP6sMcpvgtBd1YjPpcYSjVe5CCv8xYmxKZMjar9"],"addressesOutput":["addr1q9atjfpqwdtg7ytz0pz9zcaqvx8zr2uv6ysvc4csqynr683dzefudzxhadht99nh8gv4l3z93d486ygllgxuh2drrrpsdw6fws","DdzFFzCqrht7kTW3u6p1BVVJ7QdvKL8bQ3D4zWPFyHcAjBrtqrTYccyF9fjZfC1MEp8y2xjW8HfanQyjoPdKch73NwzUKXxq1htwLnoY","DdzFFzCqrht6sueSbQrNwxUWmHNu3zzageuJfU21tJCBxYVDDqkNYUNHSVjoCR6x1iwjH2FqCz7fz8F5SsoTACdRQcaDxPHGjukaVz44","DdzFFzCqrhsgk4BcHGTn2wp9fRY2G621x1a5ZL9gfhzofiGE5nP2wEX7mjSX58WCmjg71JYHe9z2yBGUtPsASjzoy6RJW12SAVC2PQXf","DdzFFzCqrhsrYujMXJWkw9QzyJUgwZeWA6vQK2ZkXxKiy8XSxzediiFCYzj2gCkUsrpWGhVYoDfJMEnu2jTNHqJCwi55KM7Y6uC6if5o"],"fee":932069,"totalOutput":62137213049,"tokens":[]},{"hash":"e4e454fa03dd56c22851263e96477f2d037847f2339138da2e5db1d1d4680c15","blockNo":8108399,"blockHash":"32f139d9683110b2c922804eb9fe0b5b81987b4851dad5a44ae6c16bfa141ff6","epochNo":380,"epochSlotNo":44170,"slot":78840970,"time":"2022/12/07 10:01:01","addressesInput":["addr1q93vyug8m3qrqc5qr9u28hzkvdpzyvmez85f58l8y9t2502xrdyd4ezx43vxjgw0dvz6dzy36jku3ptrr9mcv5dftkhsx6f5gt","addr1q93vyug8m3qrqc5qr9u28hzkvdpzyvmez85f58l8y9t2502xrdyd4ezx43vxjgw0dvz6dzy36jku3ptrr9mcv5dftkhsx6f5gt","addr1q93vyug8m3qrqc5qr9u28hzkvdpzyvmez85f58l8y9t2502xrdyd4ezx43vxjgw0dvz6dzy36jku3ptrr9mcv5dftkhsx6f5gt"],"addressesOutput":["addr1wxn9efv2f6w82hagxqtn62ju4m293tqvw0uhmdl64ch8uwc0h43gt","addr1q93vyug8m3qrqc5qr9u28hzkvdpzyvmez85f58l8y9t2502xrdyd4ezx43vxjgw0dvz6dzy36jku3ptrr9mcv5dftkhsx6f5gt"],"fee":222129,"totalOutput":35844513,"tokens":[]},{"hash":"689c285e6ed2cb600a9f5ef99ec92e2e3643e98a7a7841a15d682d4fd359f2a7","blockNo":8108069,"blockHash":"0d80afa64a710bfa36a91a5a505732b298538e684e56f3f5cdb83794f92fc5b9","epochNo":380,"epochSlotNo":36998,"slot":78833798,"time":"2022/12/07 08:01:29","addressesInput":["addr1q8tmwjdnhpsyrll4jgf2wh38c3ysshrkek7uf0u62djwcqrue6wlm2p5rlec9hnhdk8jtlsegvgx03dhhtnmn8rl477s4tlh5s"],"addressesOutput":["addr1vxy3d6clst9yf2qx6asx4qkst8craj9nu75zrpvec8m4afgd9wtx4","addr1qxggv0y8znq0g5jk25sc7jmheh4k3jvn3rcncm5kty6d5qtue6wlm2p5rlec9hnhdk8jtlsegvgx03dhhtnmn8rl477svvm9lh"],"fee":344185,"totalOutput":51752007,"tokens":[]},{"hash":"2f63576c9cd558a913227d086bd3ab91ccbc46a5a9b8610e46876e964e48db51","blockNo":8108062,"blockHash":"f7cf0168b3a9cf2569125f6758fcf4a594a0cfbf9530c20bdcbb7b8d6411e7e9","epochNo":380,"epochSlotNo":36745,"slot":78833545,"time":"2022/12/07 07:57:16","addressesInput":["addr1q9kw2zfc7vgaxuy4kj548umenqz7arkqlnuccdwrc9x6qvmue6wlm2p5rlec9hnhdk8jtlsegvgx03dhhtnmn8rl477slvg2lk"],"addressesOutput":["addr1vyc7ca9flp5gfeapd78uxzzq7l6qnsytj85n62lr5smhgssen2u2s","addr1q8tmwjdnhpsyrll4jgf2wh38c3ysshrkek7uf0u62djwcqrue6wlm2p5rlec9hnhdk8jtlsegvgx03dhhtnmn8rl477s4tlh5s"],"fee":344185,"totalOutput":57096192,"tokens":[]},{"hash":"845b1b366f2a1002489231808d863e99c9708cedd0a9a5eb0d70a2acb2c70abd","blockNo":8108008,"blockHash":"632da8511fbe4b50b2e9118994a461c60394964ad9ce3f3486a157e620da89df","epochNo":380,"epochSlotNo":35711,"slot":78832511,"time":"2022/12/07 07:40:02","addressesInput":["addr1q9kw2zfc7vgaxuy4kj548umenqz7arkqlnuccdwrc9x6qvmue6wlm2p5rlec9hnhdk8jtlsegvgx03dhhtnmn8rl477slvg2lk"],"addressesOutput":["addr1vyc7ca9flp5gfeapd78uxzzq7l6qnsytj85n62lr5smhgssen2u2s","addr1q9kw2zfc7vgaxuy4kj548umenqz7arkqlnuccdwrc9x6qvmue6wlm2p5rlec9hnhdk8jtlsegvgx03dhhtnmn8rl477slvg2lk"],"fee":344185,"totalOutput":62440377,"tokens":[]},{"hash":"e7ebbd8f627ede41adcf78c14f8572f15148acb309ef17cf9988c43d37de7a6b","blockNo":8108002,"blockHash":"79fcdf866b6cd2713ea31631f11648755b4b70aac5f95f456dec96919f329eda","epochNo":380,"epochSlotNo":35532,"slot":78832332,"time":"2022/12/07 07:37:03","addressesInput":["addr1qxqp9w5e2gw6mpjzeqhwztptjr730g2hq0g7vkkjyj6xgqnue6wlm2p5rlec9hnhdk8jtlsegvgx03dhhtnmn8rl477slhdw53"],"addressesOutput":["addr1vyc7ca9flp5gfeapd78uxzzq7l6qnsytj85n62lr5smhgssen2u2s","addr1q9kw2zfc7vgaxuy4kj548umenqz7arkqlnuccdwrc9x6qvmue6wlm2p5rlec9hnhdk8jtlsegvgx03dhhtnmn8rl477slvg2lk"],"fee":344185,"totalOutput":67784562,"tokens":[]},{"hash":"3b4b5b954a509f5e8e91fd4d7b956d2f8587f540cd54d57f7a975a386587942e","blockNo":8107469,"blockHash":"a465828b26647e62e1c2e719e4e32db4f59a7af799c670f1609feb533c7bfc0c","epochNo":380,"epochSlotNo":24034,"slot":78820834,"time":"2022/12/07 04:25:25","addressesInput":["addr1qxqpg3hhe9zah9usv8mgm9vk5ngs9638dcwr2pgn58dqrvm56spmqx2dm4vspmm5x7kv8hfhku09tc7fkvyawke9ttssj39ld6","addr1q8pkxajqw0qvdk6cjdqvgwdrggt22edjzd9txe5lw8wlxzt56spmqx2dm4vspmm5x7kv8hfhku09tc7fkvyawke9ttss20ndhn"],"addressesOutput":["addr1q9hfpauescvqtjndmq3e9feqqac9nyens7nygdzf2cuw4xw8gj9gewxpw9aaw6enugdf48dqzsw0aev772k9rjdcprxq2g3ngh","addr1q9329y7m2ef8llskx3re6lfl4u3v6e60wzxmj7p9f0xnmen56spmqx2dm4vspmm5x7kv8hfhku09tc7fkvyawke9ttss6gfydv","addr1q9329y7m2ef8llskx3re6lfl4u3v6e60wzxmj7p9f0xnmen56spmqx2dm4vspmm5x7kv8hfhku09tc7fkvyawke9ttss6gfydv"],"fee":206597,"totalOutput":978743921,"tokens":[]},{"hash":"fec81052c03fab8b7252423f42b622ec6cd863e0ed53320c39c252c94d3073be","blockNo":8107437,"blockHash":"420d5cd50541f3aec98ba232b6bed71e89dd41de257383167bd24f46bb838bdd","epochNo":380,"epochSlotNo":23307,"slot":78820107,"time":"2022/12/07 04:13:18","addressesInput":["addr1q998pukrcdhp2zrvx87eyjwfzkrcyv4lflaqa2f7w9dsdkz2wrev8smwz5yxcv0ajfyuj9v8sget7nl6p65nuu2mqmvq05pxha","addr1q998pukrcdhp2zrvx87eyjwfzkrcyv4lflaqa2f7w9dsdkz2wrev8smwz5yxcv0ajfyuj9v8sget7nl6p65nuu2mqmvq05pxha"],"addressesOutput":["addr1q998pukrcdhp2zrvx87eyjwfzkrcyv4lflaqa2f7w9dsdkz2wrev8smwz5yxcv0ajfyuj9v8sget7nl6p65nuu2mqmvq05pxha","addr1q998pukrcdhp2zrvx87eyjwfzkrcyv4lflaqa2f7w9dsdkz2wrev8smwz5yxcv0ajfyuj9v8sget7nl6p65nuu2mqmvq05pxha"],"fee":237985,"totalOutput":883875969003,"tokens":[]},{"hash":"146790db653d132a7e7b8e98bb3f32fa8407c0ce23f33dd7ac3304399357436c","blockNo":8106963,"blockHash":"37758039b69d5307d4ec247bd3f35f9ba29bb573b467db99a2442aa1d3d019a7","epochNo":380,"epochSlotNo":13218,"slot":78810018,"time":"2022/12/07 01:25:09","addressesInput":["DdzFFzCqrhstkSECv4yXDM9R5oTs3h6LSaEyZjAWnggNQQDcVQnVvvndhGrevqC11yGUYFfi21Tyus62BACfxUFNg15rpx8KProW1dVb","DdzFFzCqrhsptagdMTsqCSeYarPXk5MTzwowQ4DQHXA5tyGHQZHy6shtHCJVvFjCH1TQjBfxUXhYeD5urhJk1zwHR6kVekKAaE4oPyGp","DdzFFzCqrht9hQE9zekQw1Bo382273XW3KiDLouvZtkv9zpe9ut7YoY3QPenHoLW4RV6iUQvX34H5pSN2x3hv8RUiY6vvH7tV3cqzK38","DdzFFzCqrhspDJ3Nw9ai378yXuCV1nbuoi1vgfKMU74kY3M18Jnbv95N1AgzVdswrd9VhpjQn17FZk1ZSdnCsM7ET8UTtSBhD1aC7tLX","DdzFFzCqrhsvPba7wCuK74rrBS4adopva2rBFEHL643ctQCxfDygsMmTpZbKXHcSbSwcnfGVsZ5687r8aAmQ7T7tzSe2uJJgS1Cxziva","DdzFFzCqrhseBFP3ydKqzTLJZCkLtLvscgdybnbKjx6k6LaDJAUEETCji4TCBhXXPNzNJH8VLzGJxwqAsbg8fbYHmpJ8cDv38RmfaZd9","DdzFFzCqrhsqDCFuqPDGJkqn9icMxTGhcGpSG9MWxoVyjccm78UmdLM5biBBUbZy81NxitJ3xFzZypdXsjnjUCGXCvSHRbTrNQrvyYUf","DdzFFzCqrht8LCN16J5jP3VZ4MdT5S2kA6hVgP3zNWRuhH79WxtejSkWLHo9WPTSqdffBMhNkqPskbu5AwoipZ4MnEQ3f9rWtnVUPM4m","DdzFFzCqrhsdqEoS99NUi4nbfBUTaMxdh9HxHX5ApsqDwtUStbHzQgFTrS4dvpspxZ1ahK26zQKbzkCMkKZeeJixX8ALmmJjonqym7sg"],"addressesOutput":["addr1q9atjfpqwdtg7ytz0pz9zcaqvx8zr2uv6ysvc4csqynr683dzefudzxhadht99nh8gv4l3z93d486ygllgxuh2drrrpsdw6fws","DdzFFzCqrhspD7QPhatnGewJeStpEzbYjL5iacYNQMB7omfnpiTirHV9D4WVypeKxPm84VWQyBfH9UDCpi6do27BLTsFnN6uVynTUi9L","DdzFFzCqrht9eTRTwKSnm3EuhSMsKaMA7HfyrY5XWacaJt9RzqYTRrv4QoHD6hr9BBc6B3ApGcnjbA4ZNXubEGkBJB4aJxWx1EPiT839","DdzFFzCqrhsza6KU7zrRqzegnh9eLTGWCXsvWtJFXRQbhqcsxqPsJbqRXn79pkdrAshRCDSfpiVdKAqaD8CNEpbVLFjHaBoU2SJbaWtL","DdzFFzCqrht6oQyhapCKn8dByho9u1KjZQLpNV7JreMEfjpmcBkz23BsbXFuZQ12e2TDYPYauYc9V3xqZxn9cH4Kowh9WcatfQyUArFH"],"fee":970789,"totalOutput":65090158489,"tokens":[]},{"hash":"0e162cde764834bf87585f139912262f630bbf87b5998c52a25466841819fd64","blockNo":8106703,"blockHash":"3760917610760b7f50b036ded737f389aaca69845b024e5801b8064346135008","epochNo":380,"epochSlotNo":8240,"slot":78805040,"time":"2022/12/07 00:02:11","addressesInput":["addr1q87sm4r0z70pe6wwjy7el7d2zvx6rce05v8meh9dqgpl5lntfwww90n8hqpztgvk3uf8vu3pcs9s4ca27murgrfrk23qzyx00q","addr1q876g35rpeu8fst8lflmkxy3ht2ralm4nc4c7kz4gzdn7httfwww90n8hqpztgvk3uf8vu3pcs9s4ca27murgrfrk23q9c0tku","addr1q876g35rpeu8fst8lflmkxy3ht2ralm4nc4c7kz4gzdn7httfwww90n8hqpztgvk3uf8vu3pcs9s4ca27murgrfrk23q9c0tku","addr1q876g35rpeu8fst8lflmkxy3ht2ralm4nc4c7kz4gzdn7httfwww90n8hqpztgvk3uf8vu3pcs9s4ca27murgrfrk23q9c0tku","addr1q9lyr5lnq7uv0plruyt3rv54qgvlwevreu2hp324m9fw2cttfwww90n8hqpztgvk3uf8vu3pcs9s4ca27murgrfrk23qr3qrym","addr1q876g35rpeu8fst8lflmkxy3ht2ralm4nc4c7kz4gzdn7httfwww90n8hqpztgvk3uf8vu3pcs9s4ca27murgrfrk23q9c0tku","addr1q876g35rpeu8fst8lflmkxy3ht2ralm4nc4c7kz4gzdn7httfwww90n8hqpztgvk3uf8vu3pcs9s4ca27murgrfrk23q9c0tku","addr1q876g35rpeu8fst8lflmkxy3ht2ralm4nc4c7kz4gzdn7httfwww90n8hqpztgvk3uf8vu3pcs9s4ca27murgrfrk23q9c0tku","addr1q876g35rpeu8fst8lflmkxy3ht2ralm4nc4c7kz4gzdn7httfwww90n8hqpztgvk3uf8vu3pcs9s4ca27murgrfrk23q9c0tku","addr1q876g35rpeu8fst8lflmkxy3ht2ralm4nc4c7kz4gzdn7httfwww90n8hqpztgvk3uf8vu3pcs9s4ca27murgrfrk23q9c0tku","addr1q876g35rpeu8fst8lflmkxy3ht2ralm4nc4c7kz4gzdn7httfwww90n8hqpztgvk3uf8vu3pcs9s4ca27murgrfrk23q9c0tku","addr1q876g35rpeu8fst8lflmkxy3ht2ralm4nc4c7kz4gzdn7httfwww90n8hqpztgvk3uf8vu3pcs9s4ca27murgrfrk23q9c0tku","addr1q876g35rpeu8fst8lflmkxy3ht2ralm4nc4c7kz4gzdn7httfwww90n8hqpztgvk3uf8vu3pcs9s4ca27murgrfrk23q9c0tku","addr1q876g35rpeu8fst8lflmkxy3ht2ralm4nc4c7kz4gzdn7httfwww90n8hqpztgvk3uf8vu3pcs9s4ca27murgrfrk23q9c0tku","addr1q876g35rpeu8fst8lflmkxy3ht2ralm4nc4c7kz4gzdn7httfwww90n8hqpztgvk3uf8vu3pcs9s4ca27murgrfrk23q9c0tku","addr1q876g35rpeu8fst8lflmkxy3ht2ralm4nc4c7kz4gzdn7httfwww90n8hqpztgvk3uf8vu3pcs9s4ca27murgrfrk23q9c0tku","addr1q876g35rpeu8fst8lflmkxy3ht2ralm4nc4c7kz4gzdn7httfwww90n8hqpztgvk3uf8vu3pcs9s4ca27murgrfrk23q9c0tku","addr1q876g35rpeu8fst8lflmkxy3ht2ralm4nc4c7kz4gzdn7httfwww90n8hqpztgvk3uf8vu3pcs9s4ca27murgrfrk23q9c0tku","addr1q876g35rpeu8fst8lflmkxy3ht2ralm4nc4c7kz4gzdn7httfwww90n8hqpztgvk3uf8vu3pcs9s4ca27murgrfrk23q9c0tku","addr1q876g35rpeu8fst8lflmkxy3ht2ralm4nc4c7kz4gzdn7httfwww90n8hqpztgvk3uf8vu3pcs9s4ca27murgrfrk23q9c0tku","addr1q876g35rpeu8fst8lflmkxy3ht2ralm4nc4c7kz4gzdn7httfwww90n8hqpztgvk3uf8vu3pcs9s4ca27murgrfrk23q9c0tku","addr1q876g35rpeu8fst8lflmkxy3ht2ralm4nc4c7kz4gzdn7httfwww90n8hqpztgvk3uf8vu3pcs9s4ca27murgrfrk23q9c0tku"],"addressesOutput":["addr1qxslw59xlfskmjc6d4ned2q9vgt0tqzg8v025s36r53ky86gqpkycls76ra3njn6fdl4pv5x9gy35u66tvvpqsmwk2mqzqdtk6","addr1q8xu734wyp66m5uv7g888n85h87lc9wdrm07a2c2l2kahyrtfwww90n8hqpztgvk3uf8vu3pcs9s4ca27murgrfrk23qnk2g6s"],"fee":396941,"totalOutput":122477463,"tokens":[]},{"hash":"2df46f1d99f8ac20d3d7ee027b3073397a97f4cfa51b10516a774aabc145e6de","blockNo":8106557,"blockHash":"ce996e2703966f5cf7a963fa613a9374cee419c998a73580d7f1da394c89e6ce","epochNo":380,"epochSlotNo":5001,"slot":78801801,"time":"2022/12/06 23:08:12","addressesInput":["addr1q80ht2he70nat6jr8efrrh7gxl9udkltj7rc4ysvx7vvs0xlwk40nul86h4yx0jjx80usd7tcmd7h9u832fqcduceq7qdz0xej","addr1q80ht2he70nat6jr8efrrh7gxl9udkltj7rc4ysvx7vvs0xlwk40nul86h4yx0jjx80usd7tcmd7h9u832fqcduceq7qdz0xej"],"addressesOutput":["addr1q80ht2he70nat6jr8efrrh7gxl9udkltj7rc4ysvx7vvs0xlwk40nul86h4yx0jjx80usd7tcmd7h9u832fqcduceq7qdz0xej","addr1q80ht2he70nat6jr8efrrh7gxl9udkltj7rc4ysvx7vvs0xlwk40nul86h4yx0jjx80usd7tcmd7h9u832fqcduceq7qdz0xej"],"fee":238161,"totalOutput":3140896517672,"tokens":[]},{"hash":"914d219c5d5e570ea43e091f1c6a713cb417be650fee0df98bcd816cfb590b4f","blockNo":8106521,"blockHash":"ec2c6983cccc0af3d87c421f60ca306dbfec9ca488d8c23ec6d6afd756ddb6b2","epochNo":380,"epochSlotNo":4173,"slot":78800973,"time":"2022/12/06 22:54:24","addressesInput":["DdzFFzCqrhsmyhYnfhqaFGX6dS2HmmeVXfikLi2XqoFzV5dnHdm9jcLT9mJ5jMurBgHjzuGUd75aEs2xwjp9Qvvj1GsJDFjUN21NzKdC","DdzFFzCqrhsfHbsREJSCMVhPpKadRe84we4SFk6N2TiAQSeUJxpK9rVSNS8EC1GrWiu5SxEDpkyzKeNf68957g9ygcJybsVRpj3NZzMo","DdzFFzCqrhswQ9jxRyA7dF9yfn68bQM5prJVizutTsvyu5eYp9vsQijfrhZdHEcEaxJaBrjzp6FWeuTbPzcMhpAPKvj2cryan3DzamQW","DdzFFzCqrht1yuavDUxZ8W7cpD5hMmMX5WhcA9ByNRsFpSNxLRoQdLzchMpeM11oY4MZtqkKL36MC9ZBai7hnt6t2ywER3RHJ3Qxbhfm","DdzFFzCqrhtAiG4sLgH6iT5KiXZhYgB8ZzdEyGfkujbkYeDVnBC4AMG7nrJni8e6NVkJmva2qurFNMqGee8BmMwHrh9k5SnWka65uSFE"],"addressesOutput":["addr1q9atjfpqwdtg7ytz0pz9zcaqvx8zr2uv6ysvc4csqynr683dzefudzxhadht99nh8gv4l3z93d486ygllgxuh2drrrpsdw6fws","DdzFFzCqrhspDJ3Nw9ai378yXuCV1nbuoi1vgfKMU74kY3M18Jnbv95N1AgzVdswrd9VhpjQn17FZk1ZSdnCsM7ET8UTtSBhD1aC7tLX"],"fee":395797,"totalOutput":3591581485,"tokens":[]},{"hash":"e2821c8f10bbc0d35e5ff0070fc7e49a97e381996a6b22a0f277357daac70964","blockNo":8106505,"blockHash":"62db6792fc8d119fc821ad6c8076f0c8bde127e307fd17adbca3e9951a12e1e6","epochNo":380,"epochSlotNo":3821,"slot":78800621,"time":"2022/12/06 22:48:32","addressesInput":["addr1q9vj9w32w77p47ca725hantcf5nrzcex66vqq58kqm4l04y6hn99676mvdj6qvd34vfqh3jx6vy8tyfkuy6u3xcghq8sex2gzq","addr1q9vj9w32w77p47ca725hantcf5nrzcex66vqq58kqm4l04y6hn99676mvdj6qvd34vfqh3jx6vy8tyfkuy6u3xcghq8sex2gzq"],"addressesOutput":["addr1q8pmkcrttfhmx69wew50n7mu47j0t3n2tce7qwcrpqq7pe273es7ll4phmnhhjd0l04zv0ykce2dh7duv3lcnmnksqnsj4a25u","addr1q9vj9w32w77p47ca725hantcf5nrzcex66vqq58kqm4l04y6hn99676mvdj6qvd34vfqh3jx6vy8tyfkuy6u3xcghq8sex2gzq","addr1q9vj9w32w77p47ca725hantcf5nrzcex66vqq58kqm4l04y6hn99676mvdj6qvd34vfqh3jx6vy8tyfkuy6u3xcghq8sex2gzq"],"fee":203385,"totalOutput":16804448,"tokens":[]},{"hash":"14b583b59d857cfde4007fcfef2104512efc53d32637137d5a28ef99bbb63ed9","blockNo":8106430,"blockHash":"d6b75fdf2cd9c1e15326df8f4dbb6ea44d0ba7c2025aabe047e5c88a22388c47","epochNo":380,"epochSlotNo":2350,"slot":78799150,"time":"2022/12/06 22:24:01","addressesInput":["addr1q9vj9w32w77p47ca725hantcf5nrzcex66vqq58kqm4l04y6hn99676mvdj6qvd34vfqh3jx6vy8tyfkuy6u3xcghq8sex2gzq","addr1q9vj9w32w77p47ca725hantcf5nrzcex66vqq58kqm4l04y6hn99676mvdj6qvd34vfqh3jx6vy8tyfkuy6u3xcghq8sex2gzq","addr1q9vj9w32w77p47ca725hantcf5nrzcex66vqq58kqm4l04y6hn99676mvdj6qvd34vfqh3jx6vy8tyfkuy6u3xcghq8sex2gzq"],"addressesOutput":["addr1q8pmkcrttfhmx69wew50n7mu47j0t3n2tce7qwcrpqq7pe273es7ll4phmnhhjd0l04zv0ykce2dh7duv3lcnmnksqnsj4a25u","addr1q9vj9w32w77p47ca725hantcf5nrzcex66vqq58kqm4l04y6hn99676mvdj6qvd34vfqh3jx6vy8tyfkuy6u3xcghq8sex2gzq","addr1q9vj9w32w77p47ca725hantcf5nrzcex66vqq58kqm4l04y6hn99676mvdj6qvd34vfqh3jx6vy8tyfkuy6u3xcghq8sex2gzq"],"fee":224901,"totalOutput":19938633,"tokens":[]},{"hash":"0151c1e1a833ba50d0f344d0755309e383a420477fbe1a26fea9712b3c057eb1","blockNo":8106400,"blockHash":"26f160ddbefb0eb9d7f9b1d582f1d158a89f8b6571986a3b05c1168a92c7f87a","epochNo":380,"epochSlotNo":1656,"slot":78798456,"time":"2022/12/06 22:12:27","addressesInput":["addr1q9vj9w32w77p47ca725hantcf5nrzcex66vqq58kqm4l04y6hn99676mvdj6qvd34vfqh3jx6vy8tyfkuy6u3xcghq8sex2gzq","addr1q9vj9w32w77p47ca725hantcf5nrzcex66vqq58kqm4l04y6hn99676mvdj6qvd34vfqh3jx6vy8tyfkuy6u3xcghq8sex2gzq"],"addressesOutput":["addr1q8pmkcrttfhmx69wew50n7mu47j0t3n2tce7qwcrpqq7pe273es7ll4phmnhhjd0l04zv0ykce2dh7duv3lcnmnksqnsj4a25u","addr1q9vj9w32w77p47ca725hantcf5nrzcex66vqq58kqm4l04y6hn99676mvdj6qvd34vfqh3jx6vy8tyfkuy6u3xcghq8sex2gzq","addr1q9vj9w32w77p47ca725hantcf5nrzcex66vqq58kqm4l04y6hn99676mvdj6qvd34vfqh3jx6vy8tyfkuy6u3xcghq8sex2gzq"],"fee":209897,"totalOutput":18848984,"tokens":[]}],"totalItems":11950,"totalPages":598,"currentPage":0}