{"data":[{"hash":"21b07460a396e04f7170b7075a8c83efab5729404649e20f18dda32e3cb0ebad","blockNo":8234000,"blockHash":"a1ad4be2effa121bcd8a9a65932a5d9bca5ebb477ebc82bfdfab2eefaec9b5a0","epochNo":386,"epochSlotNo":24260,"slot":81413060,"time":"2023/01/06 04:29:11","addressesInput":["addr1vxq3y6jqaflx7a8jk2w6wuhzrggwla47hwzyunfns26cfms7ce49q"],"addressesOutput":["addr1q9ygdfulnnjvfq342vawk8vuzycaxx49mahhyd6fgjfnfk39fsn7tw8audu4q0qh26ame5ud6ntv748nm65qpv2awsrsmdwff5","addr1vxrmu3m2cc5k6xltupj86a2uzcuq8r4nhznrhfq0pkwl4hgqj2v8w","addr1qxy38xkj4l0uz96artx48gucruy024dkynp0nxjd4lrpurx503rs4veqanamqn3skw9jxcunpwdtpz7gtkpqjmlvt3hqtpu9pm"],"fee":213461,"totalOutput":41170069,"tokens":[]},{"hash":"69456c521e43b040aa1f23d1aecd102ed5de82c98c8444ac684fe1baa9cb3633","blockNo":8234000,"blockHash":"a1ad4be2effa121bcd8a9a65932a5d9bca5ebb477ebc82bfdfab2eefaec9b5a0","epochNo":386,"epochSlotNo":24260,"slot":81413060,"time":"2023/01/06 04:29:11","addressesInput":["addr1qy7f2yyp0cas2jc6ku5sv032ekfuudwl3pezhj7chpuxmp0gy67pe94xq7xclrmmheywdymvt6mtk2ldj7s0t68xx7pqcsauur","addr1zxgx3far7qygq0k6epa0zcvcvrevmn0ypsnfsue94nsn3tvpw288a4x0xf8pxgcntelxmyclq83s0ykeehchz2wtspks905plm","addr1qy7f2yyp0cas2jc6ku5sv032ekfuudwl3pezhj7chpuxmp0gy67pe94xq7xclrmmheywdymvt6mtk2ldj7s0t68xx7pqcsauur","addr1qy7f2yyp0cas2jc6ku5sv032ekfuudwl3pezhj7chpuxmp0gy67pe94xq7xclrmmheywdymvt6mtk2ldj7s0t68xx7pqcsauur","addr1qy7f2yyp0cas2jc6ku5sv032ekfuudwl3pezhj7chpuxmp0gy67pe94xq7xclrmmheywdymvt6mtk2ldj7s0t68xx7pqcsauur","addr1qy7f2yyp0cas2jc6ku5sv032ekfuudwl3pezhj7chpuxmp0gy67pe94xq7xclrmmheywdymvt6mtk2ldj7s0t68xx7pqcsauur","addr1qy7f2yyp0cas2jc6ku5sv032ekfuudwl3pezhj7chpuxmp0gy67pe94xq7xclrmmheywdymvt6mtk2ldj7s0t68xx7pqcsauur","addr1qy7f2yyp0cas2jc6ku5sv032ekfuudwl3pezhj7chpuxmp0gy67pe94xq7xclrmmheywdymvt6mtk2ldj7s0t68xx7pqcsauur"],"addressesOutput":["addr1qyt9d2l8fzgr63sscmdkxulsxmy2asd3nm89eyak7fd4yva36q5wz44d5yjvlgkpkrdvnua8cpv73kl7awjwzvvj6vvs560udl","addr1q9cwvremt6n320s2e3agq0jyq82yhrk3htsu0w426xnz5us70z4w0jgvcdkkynmm8wmds66jd9kusnjfpu6raw5fqp0sr07p5w","addr1q890p82a77qa0ycg8nvf2wv4fu9x2u2mchdhpv9vc2mnry25q2uemwve4qtleen88fl8gffvt2s5mnq88exmf7my5m9qaxe8m6","addr1qy7f2yyp0cas2jc6ku5sv032ekfuudwl3pezhj7chpuxmp0gy67pe94xq7xclrmmheywdymvt6mtk2ldj7s0t68xx7pqcsauur","addr1qy7f2yyp0cas2jc6ku5sv032ekfuudwl3pezhj7chpuxmp0gy67pe94xq7xclrmmheywdymvt6mtk2ldj7s0t68xx7pqcsauur","addr1qy7f2yyp0cas2jc6ku5sv032ekfuudwl3pezhj7chpuxmp0gy67pe94xq7xclrmmheywdymvt6mtk2ldj7s0t68xx7pqcsauur","addr1qy7f2yyp0cas2jc6ku5sv032ekfuudwl3pezhj7chpuxmp0gy67pe94xq7xclrmmheywdymvt6mtk2ldj7s0t68xx7pqcsauur","addr1qy7f2yyp0cas2jc6ku5sv032ekfuudwl3pezhj7chpuxmp0gy67pe94xq7xclrmmheywdymvt6mtk2ldj7s0t68xx7pqcsauur","addr1qy7f2yyp0cas2jc6ku5sv032ekfuudwl3pezhj7chpuxmp0gy67pe94xq7xclrmmheywdymvt6mtk2ldj7s0t68xx7pqcsauur","addr1qy7f2yyp0cas2jc6ku5sv032ekfuudwl3pezhj7chpuxmp0gy67pe94xq7xclrmmheywdymvt6mtk2ldj7s0t68xx7pqcsauur"],"fee":515835,"totalOutput":9970751576,"tokens":[]},{"hash":"a0b2d7bd7ee9f1083650a465cd3b37e33ca599cecdf3649d872f026bd2d985ba","blockNo":8234000,"blockHash":"a1ad4be2effa121bcd8a9a65932a5d9bca5ebb477ebc82bfdfab2eefaec9b5a0","epochNo":386,"epochSlotNo":24260,"slot":81413060,"time":"2023/01/06 04:29:11","addressesInput":["addr1zxgx3far7qygq0k6epa0zcvcvrevmn0ypsnfsue94nsn3tvpw288a4x0xf8pxgcntelxmyclq83s0ykeehchz2wtspks905plm","addr1qy8a26pecj6sfpfv0zamr0ak7k6kzxjq9k3dulmyq0pjt30fujtq4pff4xnjme7fd9m22tkc8j68895pczz5j4krehqsnndz2n"],"addressesOutput":["addr1zxgx3far7qygq0k6epa0zcvcvrevmn0ypsnfsue94nsn3tvpw288a4x0xf8pxgcntelxmyclq83s0ykeehchz2wtspks905plm","addr1qy8a26pecj6sfpfv0zamr0ak7k6kzxjq9k3dulmyq0pjt30fujtq4pff4xnjme7fd9m22tkc8j68895pczz5j4krehqsnndz2n"],"fee":316254,"totalOutput":180080372,"tokens":[]},{"hash":"1d8deb8bdb7cd3890d48a6454cfe8d428ae6801f93df3f28a47b75c40fbc1729","blockNo":8234000,"blockHash":"a1ad4be2effa121bcd8a9a65932a5d9bca5ebb477ebc82bfdfab2eefaec9b5a0","epochNo":386,"epochSlotNo":24260,"slot":81413060,"time":"2023/01/06 04:29:11","addressesInput":["addr1qxt43pfqxmczyw62g5nprnq79je7s03ju7e39cfk3dwgyd5avnkkxmrxvj9ssu7665qs4zfsjckesz46dsfnjt3f9eusw3k6j8"],"addressesOutput":["addr1wxaptpmxcxawvr3pzlhgnpmzz3ql43n2tc8mn3av5kx0yzs09tqh8","addr1qxt43pfqxmczyw62g5nprnq79je7s03ju7e39cfk3dwgyd5avnkkxmrxvj9ssu7665qs4zfsjckesz46dsfnjt3f9eusw3k6j8"],"fee":180725,"totalOutput":2153145843,"tokens":[]},{"hash":"93e70b664383886929be58a9254a2e4fa5a62396004a6432f966303a9f8a1caa","blockNo":8234000,"blockHash":"a1ad4be2effa121bcd8a9a65932a5d9bca5ebb477ebc82bfdfab2eefaec9b5a0","epochNo":386,"epochSlotNo":24260,"slot":81413060,"time":"2023/01/06 04:29:11","addressesInput":["addr1qx7sf0hcdyyn79q4xfru5fxtnpzuzhtrv63tj3zrhkdns92e83pmzfn2k5v8nmglsx7xutpv9uunj04yp9xlrt4gg08qlf882u","addr1qx7sf0hcdyyn79q4xfru5fxtnpzuzhtrv63tj3zrhkdns92e83pmzfn2k5v8nmglsx7xutpv9uunj04yp9xlrt4gg08qlf882u","addr1qx7sf0hcdyyn79q4xfru5fxtnpzuzhtrv63tj3zrhkdns92e83pmzfn2k5v8nmglsx7xutpv9uunj04yp9xlrt4gg08qlf882u"],"addressesOutput":["addr1zxgx3far7qygq0k6epa0zcvcvrevmn0ypsnfsue94nsn3tvpw288a4x0xf8pxgcntelxmyclq83s0ykeehchz2wtspks905plm","addr1qx7sf0hcdyyn79q4xfru5fxtnpzuzhtrv63tj3zrhkdns92e83pmzfn2k5v8nmglsx7xutpv9uunj04yp9xlrt4gg08qlf882u","addr1qx7sf0hcdyyn79q4xfru5fxtnpzuzhtrv63tj3zrhkdns92e83pmzfn2k5v8nmglsx7xutpv9uunj04yp9xlrt4gg08qlf882u"],"fee":232645,"totalOutput":405717326,"tokens":[]},{"hash":"1f523df0bce6378b501e5e9218d5946c56f9a293e2622b7d16ebef28c49b2b67","blockNo":8234000,"blockHash":"a1ad4be2effa121bcd8a9a65932a5d9bca5ebb477ebc82bfdfab2eefaec9b5a0","epochNo":386,"epochSlotNo":24260,"slot":81413060,"time":"2023/01/06 04:29:11","addressesInput":["addr1v84sae5tezlxm3kgvgv3rngn85djmfaw9qqpkultd33ppug8nwwzg","addr1vyc7ca9flp5gfeapd78uxzzq7l6qnsytj85n62lr5smhgssen2u2s","addr1vy40hvsd7xwvphq6kvap8lgkf46n950nqlahj2qwnvnkfvchhxp8x","addr1vy67eakxylwhx95q64vp5krd2vr979e5p6kjwuuxlxdp4agznyr7a","addr1vxllqy9ngsrf5tuclw69l27sm9hlplx7eyt9gqtc86qujtgrpnjxy","addr1vxudw0wknpxy9fdpva3qcanxjeqzq7qdq3k29gcksu4460qkzt2f0","addr1vyh8ltt3j9tha6aljp29cgrzu0ym2r8mhyflm2uqm9kwu0qw7hefz","addr1vye3eh372ra3p2vzkrjw7zdq0fp9ksuvygfve6c672u2jnsr0drnx","addr1vy82qhdhyexu08eg53mmn6jgneg6wg3hunzeqgd4mh90xmqv85dae","addr1v824s00r6sh8qh74ndwy3mxggh3e4aaewrwculww44x7frc4nmw4w","addr1v9t3lkgdf5jf97vkt83ung3x0lvzcs6mn33hfzsn2xk8wrg4md28l"],"addressesOutput":["addr1vy82qhdhyexu08eg53mmn6jgneg6wg3hunzeqgd4mh90xmqv85dae","addr1vyh8ltt3j9tha6aljp29cgrzu0ym2r8mhyflm2uqm9kwu0qw7hefz","addr1vy67eakxylwhx95q64vp5krd2vr979e5p6kjwuuxlxdp4agznyr7a","addr1vxudw0wknpxy9fdpva3qcanxjeqzq7qdq3k29gcksu4460qkzt2f0","addr1v824s00r6sh8qh74ndwy3mxggh3e4aaewrwculww44x7frc4nmw4w","addr1vxllqy9ngsrf5tuclw69l27sm9hlplx7eyt9gqtc86qujtgrpnjxy","addr1v84sae5tezlxm3kgvgv3rngn85djmfaw9qqpkultd33ppug8nwwzg","addr1v9t3lkgdf5jf97vkt83ung3x0lvzcs6mn33hfzsn2xk8wrg4md28l","addr1vy40hvsd7xwvphq6kvap8lgkf46n950nqlahj2qwnvnkfvchhxp8x","addr1vye3eh372ra3p2vzkrjw7zdq0fp9ksuvygfve6c672u2jnsr0drnx","addr1q8wgz02zs23sfrjk969jugzganqtap3sa3u2u205zz0vxpcyqwlp3vwn0vaftjjvk56lpsr66l89c6klgw89mfgjpprqpxpdmt"],"fee":349817,"totalOutput":17580659,"tokens":[]},{"hash":"c35e9996e9d5cc58f20213a8dc723485b4e32bbbec5e21dbd6f72747ae619365","blockNo":8234000,"blockHash":"a1ad4be2effa121bcd8a9a65932a5d9bca5ebb477ebc82bfdfab2eefaec9b5a0","epochNo":386,"epochSlotNo":24260,"slot":81413060,"time":"2023/01/06 04:29:11","addressesInput":["addr1q8h4au0k30nakymmshsn2c6flcj0a96ghurrz6f476n0kc30yrdmw7ygra4j0mz3u8amm7v2m97x3qarnyw80uhcmnxsa2cc8g","addr1q8h4au0k30nakymmshsn2c6flcj0a96ghurrz6f476n0kc30yrdmw7ygra4j0mz3u8amm7v2m97x3qarnyw80uhcmnxsa2cc8g","addr1q8h4au0k30nakymmshsn2c6flcj0a96ghurrz6f476n0kc30yrdmw7ygra4j0mz3u8amm7v2m97x3qarnyw80uhcmnxsa2cc8g"],"addressesOutput":["addr1v8lw5vxmrs8eyhcgdx6ndjpm53m7tr05jj0c9menh6lkcsgxqaw8x","addr1q8h4au0k30nakymmshsn2c6flcj0a96ghurrz6f476n0kc30yrdmw7ygra4j0mz3u8amm7v2m97x3qarnyw80uhcmnxsa2cc8g","addr1q8h4au0k30nakymmshsn2c6flcj0a96ghurrz6f476n0kc30yrdmw7ygra4j0mz3u8amm7v2m97x3qarnyw80uhcmnxsa2cc8g"],"fee":193705,"totalOutput":13762089,"tokens":[]},{"hash":"6a34fd920450ae27528b390e1504c000588cfad12bf2fe5961753c66ba4e8671","blockNo":8234000,"blockHash":"a1ad4be2effa121bcd8a9a65932a5d9bca5ebb477ebc82bfdfab2eefaec9b5a0","epochNo":386,"epochSlotNo":24260,"slot":81413060,"time":"2023/01/06 04:29:11","addressesInput":["addr1qxwqv0qmq6uqusd3nu59zg7wz0qqyfql5chyplvhaqvcjr7jhkdkrhmkh5vzq2nt5gfnuh0h6yrc86mxrvp8d83cxkjs79r8dw","addr1wy30zf2g4xc7v872fdweewrlj3lh2lgttelmydn0cvhyplsg3vnkq"],"addressesOutput":["addr1qxeugckjf508wucs208hpgg53r0y52cxdynd92myytnvnuwjhkdkrhmkh5vzq2nt5gfnuh0h6yrc86mxrvp8d83cxkjsgacz9y","addr1wy30zf2g4xc7v872fdweewrlj3lh2lgttelmydn0cvhyplsg3vnkq"],"fee":886077,"totalOutput":865794625,"tokens":[]},{"hash":"286193ac81d2663cd244dc6cf6fb2be20a2818684181c7925f7a7587f47750c8","blockNo":8234000,"blockHash":"a1ad4be2effa121bcd8a9a65932a5d9bca5ebb477ebc82bfdfab2eefaec9b5a0","epochNo":386,"epochSlotNo":24260,"slot":81413060,"time":"2023/01/06 04:29:11","addressesInput":["addr1v8v3auqmw0eszza3ww29ea2pwftuqrqqyu26zvzjq9dt2ncydzvs5"],"addressesOutput":["addr1q9lnn3zuv2dc9msy54gy6vmtxq29wgtg5pnqxd2acts0mms7a42y2tgw732g8hfgw4nrlnluvttpnwa2pzmklv2z7a0s9g29f3","addr1v9u7va2sktlnz8dp3qadpnxxlv4m03672jy6elmntlxxs7q9nnwl9"],"fee":171221,"totalOutput":404103140,"tokens":[]},{"hash":"61556e72b0d235f7046f86ba99394c8e309403470df5e9f99aa3e9483a22a39e","blockNo":8234000,"blockHash":"a1ad4be2effa121bcd8a9a65932a5d9bca5ebb477ebc82bfdfab2eefaec9b5a0","epochNo":386,"epochSlotNo":24260,"slot":81413060,"time":"2023/01/06 04:29:11","addressesInput":["addr1qx6mlk4hhu5tfgxeuc7jsn34tqp6w5qjyvqprgqm6n6nwekggzpvyh9r33wc5rz2etkm508ywf53g2q6et9xcfe0h2eqfuc0k4"],"addressesOutput":["addr1vx97dpvk0xzavkqvl93dmcsyay7e43sf92gy4fwdpxk94dcxuna2z","addr1q9km2vkrstw0f0f9ev3cd966d6puw5nelsy3mmhe6xtazxxggzpvyh9r33wc5rz2etkm508ywf53g2q6et9xcfe0h2eqcen2mf"],"fee":167085,"totalOutput":23266356,"tokens":[]},{"hash":"34fad529e7476268e3dc19b9200f92b16da893be2c3d382f123e3b643bc10b75","blockNo":8234000,"blockHash":"a1ad4be2effa121bcd8a9a65932a5d9bca5ebb477ebc82bfdfab2eefaec9b5a0","epochNo":386,"epochSlotNo":24260,"slot":81413060,"time":"2023/01/06 04:29:11","addressesInput":["addr1v9u9n50lkknfmymzm2m7d068ulwzqscnzv4qqgaz6wwupkq3e2877"],"addressesOutput":["addr1q908d4yjkcl8797wvmvvhhd4qrr4u0qdctfgqzr4dylnk9j393rzzc7f90huafayycurl9m0jxvpqh4uymnrdf3nfu3svznyyh","addr1vypr00ss7hkqejmvh53xkyf0p9q0a4z2uprxmx6njc463vgst3pe4"],"fee":171221,"totalOutput":144828779,"tokens":[]},{"hash":"f05f3eb8241c4c2761ce9e1765ce695a63e041aee7908dd0e5b96b0027adf388","blockNo":8234000,"blockHash":"a1ad4be2effa121bcd8a9a65932a5d9bca5ebb477ebc82bfdfab2eefaec9b5a0","epochNo":386,"epochSlotNo":24260,"slot":81413060,"time":"2023/01/06 04:29:11","addressesInput":["addr1qycfznrga6k462p9mjr55mfaazlj95p6jdw3jj24pfsh8zvqys2g6e7hdzeadrzgrp4wnqr88rm52nvpzksw07hs890s0ya6dj","addr1q8hwtwnsmy54j7xg0d5gue6y06f72rymrfh6sya4yd580h5qys2g6e7hdzeadrzgrp4wnqr88rm52nvpzksw07hs890smzwmtg","addr1q8hwtwnsmy54j7xg0d5gue6y06f72rymrfh6sya4yd580h5qys2g6e7hdzeadrzgrp4wnqr88rm52nvpzksw07hs890smzwmtg"],"addressesOutput":["addr1zxgx3far7qygq0k6epa0zcvcvrevmn0ypsnfsue94nsn3tvpw288a4x0xf8pxgcntelxmyclq83s0ykeehchz2wtspks905plm","addr1q8hwtwnsmy54j7xg0d5gue6y06f72rymrfh6sya4yd580h5qys2g6e7hdzeadrzgrp4wnqr88rm52nvpzksw07hs890smzwmtg","addr1q8hwtwnsmy54j7xg0d5gue6y06f72rymrfh6sya4yd580h5qys2g6e7hdzeadrzgrp4wnqr88rm52nvpzksw07hs890smzwmtg"],"fee":265777,"totalOutput":335844656,"tokens":[]},{"hash":"c86f2c63ca7509c67dd3d3374c909c4d99d638e08dcaed849f0a322085251bf1","blockNo":8234000,"blockHash":"a1ad4be2effa121bcd8a9a65932a5d9bca5ebb477ebc82bfdfab2eefaec9b5a0","epochNo":386,"epochSlotNo":24260,"slot":81413060,"time":"2023/01/06 04:29:11","addressesInput":["addr1q98zgda9ycvqz2lv4nm5u65fcxydv9qty7zlr3jktlcvm8j07tw5g6fevdfeaqx505wss8ymuhemcrjqu9jyvl8fwd0q38pc3l"],"addressesOutput":["addr1v9h2vllk4a0axapr0aj92y475nlz5sqy99uk7pexjf8exgg7jwxqn","addr1qxd06qkugha3fke40tffwttwfzgjxappzu8k5209xy6q0sz07tw5g6fevdfeaqx505wss8ymuhemcrjqu9jyvl8fwd0qd0jpak"],"fee":174213,"totalOutput":512875141,"tokens":[]},{"hash":"74b058b57591748607cfef204c9810d4c461a1c6921c463e235762bcfc23b0e4","blockNo":8234000,"blockHash":"a1ad4be2effa121bcd8a9a65932a5d9bca5ebb477ebc82bfdfab2eefaec9b5a0","epochNo":386,"epochSlotNo":24260,"slot":81413060,"time":"2023/01/06 04:29:11","addressesInput":["addr1qydk24kk0xdm9hqr4gcld4yjgh3narumqzlf2y3mlm8vd873yukw3vrupwwvlkd5punyyuha74e7vls38890ykpyf6wsetacm3","addr1qydk24kk0xdm9hqr4gcld4yjgh3narumqzlf2y3mlm8vd873yukw3vrupwwvlkd5punyyuha74e7vls38890ykpyf6wsetacm3","addr1qydk24kk0xdm9hqr4gcld4yjgh3narumqzlf2y3mlm8vd873yukw3vrupwwvlkd5punyyuha74e7vls38890ykpyf6wsetacm3","addr1qydk24kk0xdm9hqr4gcld4yjgh3narumqzlf2y3mlm8vd873yukw3vrupwwvlkd5punyyuha74e7vls38890ykpyf6wsetacm3"],"addressesOutput":["addr1qyg5yk36ee0rhl5hw5kxcfng5ygrsv55tuchs0nxjmh9uqmpmpaxya7n6kzmyy6f72st0akwx8zg5n6emrxa5mhywg9q3v23dv","addr1qydk24kk0xdm9hqr4gcld4yjgh3narumqzlf2y3mlm8vd873yukw3vrupwwvlkd5punyyuha74e7vls38890ykpyf6wsetacm3","addr1qydk24kk0xdm9hqr4gcld4yjgh3narumqzlf2y3mlm8vd873yukw3vrupwwvlkd5punyyuha74e7vls38890ykpyf6wsetacm3","addr1qydk24kk0xdm9hqr4gcld4yjgh3narumqzlf2y3mlm8vd873yukw3vrupwwvlkd5punyyuha74e7vls38890ykpyf6wsetacm3"],"fee":525949,"totalOutput":3043879662,"tokens":[]},{"hash":"01254088d5e85237e2164a09c7938e419945ee1f76d5e91966e178108a72156d","blockNo":8234000,"blockHash":"a1ad4be2effa121bcd8a9a65932a5d9bca5ebb477ebc82bfdfab2eefaec9b5a0","epochNo":386,"epochSlotNo":24260,"slot":81413060,"time":"2023/01/06 04:29:11","addressesInput":["addr1zxgx3far7qygq0k6epa0zcvcvrevmn0ypsnfsue94nsn3tvpw288a4x0xf8pxgcntelxmyclq83s0ykeehchz2wtspks905plm","addr1qxq4kdxa6ge3hx65zpkjv5z7a5zewg9qe5hc49nary08fqq6p64vr0z6h33m9lu9cyd94zsn29y5kv0gy0m0f3zueh7s2q2a5k"],"addressesOutput":["addr1qxq4kdxa6ge3hx65zpkjv5z7a5zewg9qe5hc49nary08fqq6p64vr0z6h33m9lu9cyd94zsn29y5kv0gy0m0f3zueh7s2q2a5k","addr1qxq4kdxa6ge3hx65zpkjv5z7a5zewg9qe5hc49nary08fqq6p64vr0z6h33m9lu9cyd94zsn29y5kv0gy0m0f3zueh7s2q2a5k"],"fee":264159,"totalOutput":433022232,"tokens":[]},{"hash":"172d9822feb3c0a3bd9ac75c2a4bda308ed920da255b415c2197a4d461da2686","blockNo":8234000,"blockHash":"a1ad4be2effa121bcd8a9a65932a5d9bca5ebb477ebc82bfdfab2eefaec9b5a0","epochNo":386,"epochSlotNo":24260,"slot":81413060,"time":"2023/01/06 04:29:11","addressesInput":["addr1qyv7x2m3s2pmkya7q6yp65wpuhet6lcq227gtfcnv3kq0e03h00lc4dd5jjhjyyn68yc86xdhdgg78q7czfjp6rvfyxq4yl6v2"],"addressesOutput":["addr1qxg5jmguvyf3cd60z0alvv9hk42dyjapt934sylykukfyjgy4ypwygdmx5ez3c663008rrcvelc7p9rzar259kn5x3zqjy7ydj","addr1qyv7x2m3s2pmkya7q6yp65wpuhet6lcq227gtfcnv3kq0e03h00lc4dd5jjhjyyn68yc86xdhdgg78q7czfjp6rvfyxq4yl6v2"],"fee":169417,"totalOutput":10672325508,"tokens":[]},{"hash":"c7ab2ea5ce7bd4e33e2baf0f77475dbd7b63c4e35afefadbd2dd9b744363dd20","blockNo":8234000,"blockHash":"a1ad4be2effa121bcd8a9a65932a5d9bca5ebb477ebc82bfdfab2eefaec9b5a0","epochNo":386,"epochSlotNo":24260,"slot":81413060,"time":"2023/01/06 04:29:11","addressesInput":["addr1qxmly4lkwtsm4yc32ngrjs55e0hhjf36wrdly74gqn5ctqa6kj0zwusu2zwc5lpjekc9800ujakn6shcxtfpkv0y9jlq9yphdy","addr1qxmly4lkwtsm4yc32ngrjs55e0hhjf36wrdly74gqn5ctqa6kj0zwusu2zwc5lpjekc9800ujakn6shcxtfpkv0y9jlq9yphdy"],"addressesOutput":["addr1wxn9efv2f6w82hagxqtn62ju4m293tqvw0uhmdl64ch8uwc0h43gt","addr1qxmly4lkwtsm4yc32ngrjs55e0hhjf36wrdly74gqn5ctqa6kj0zwusu2zwc5lpjekc9800ujakn6shcxtfpkv0y9jlq9yphdy","addr1qxmly4lkwtsm4yc32ngrjs55e0hhjf36wrdly74gqn5ctqa6kj0zwusu2zwc5lpjekc9800ujakn6shcxtfpkv0y9jlq9yphdy"],"fee":210865,"totalOutput":2495979363,"tokens":[]},{"hash":"909a6d5f4bebba9c0e9a4fae20e96fc9ad20352d674702618236b5ac58d9e1d1","blockNo":8234000,"blockHash":"a1ad4be2effa121bcd8a9a65932a5d9bca5ebb477ebc82bfdfab2eefaec9b5a0","epochNo":386,"epochSlotNo":24260,"slot":81413060,"time":"2023/01/06 04:29:11","addressesInput":["addr1q8qmqpdxpn5m547a2e40vm59uelnryhg7my5vmeghv3h73nlngf8sdrckwe8ln92nk9mfvc3thunlwgxgpm5876vnrhsclgxvv","addr1q8qmqpdxpn5m547a2e40vm59uelnryhg7my5vmeghv3h73nlngf8sdrckwe8ln92nk9mfvc3thunlwgxgpm5876vnrhsclgxvv","addr1q8qmqpdxpn5m547a2e40vm59uelnryhg7my5vmeghv3h73nlngf8sdrckwe8ln92nk9mfvc3thunlwgxgpm5876vnrhsclgxvv"],"addressesOutput":["addr1zxgx3far7qygq0k6epa0zcvcvrevmn0ypsnfsue94nsn3tvpw288a4x0xf8pxgcntelxmyclq83s0ykeehchz2wtspks905plm","addr1q8qmqpdxpn5m547a2e40vm59uelnryhg7my5vmeghv3h73nlngf8sdrckwe8ln92nk9mfvc3thunlwgxgpm5876vnrhsclgxvv","addr1q8qmqpdxpn5m547a2e40vm59uelnryhg7my5vmeghv3h73nlngf8sdrckwe8ln92nk9mfvc3thunlwgxgpm5876vnrhsclgxvv"],"fee":231721,"totalOutput":948513068,"tokens":[]},{"hash":"28172523ee81c3c272eaff8bc8f8e4c934ed792e780ad3812cc86745d7600aa7","blockNo":8234000,"blockHash":"a1ad4be2effa121bcd8a9a65932a5d9bca5ebb477ebc82bfdfab2eefaec9b5a0","epochNo":386,"epochSlotNo":24260,"slot":81413060,"time":"2023/01/06 04:29:11","addressesInput":["addr1vyxsv2hwa2z22z9pxdxdjsx372jk4af2y2glryxcn59atpcvpr4wc"],"addressesOutput":["addr1vyxsv2hwa2z22z9pxdxdjsx372jk4af2y2glryxcn59atpcvpr4wc"],"fee":182617,"totalOutput":88547872,"tokens":[]},{"hash":"4d6055a629ed4370bf44d117a443b27ea4b691f2ff66b489e2292c33d074e387","blockNo":8234000,"blockHash":"a1ad4be2effa121bcd8a9a65932a5d9bca5ebb477ebc82bfdfab2eefaec9b5a0","epochNo":386,"epochSlotNo":24260,"slot":81413060,"time":"2023/01/06 04:29:11","addressesInput":["addr1q9rdw9tw57pk7rkz629qxggzhqge6exe0lxrjnr6fz4hsy8q4csv2jfaggdrfpa54e2gzujc235932dajuqu062fymmq8hw25k"],"addressesOutput":["addr1q8yehruzplhuz3ct688jrfefggk0f2qc88r4hzj3dgdxqtx2h8y4gwedd2z2nx6544nalel0zd0g0kel44c96xy3vxvqaqdm3z","addr1q9rdw9tw57pk7rkz629qxggzhqge6exe0lxrjnr6fz4hsy8q4csv2jfaggdrfpa54e2gzujc235932dajuqu062fymmq8hw25k"],"fee":168053,"totalOutput":1103565126,"tokens":[]}],"totalItems":58291989,"totalPages":2914600,"currentPage":0}