{"data":[{"blockNo":6856400,"slotNo":52748033,"epochNo":319,"epochSlotNo":303233,"hash":"3e3a1ba2a71597f9ce26a31c6ff246ee31d8c55400d4dd767c93a6ee2ebd7345","time":"2022/02/08 09:58:44","txCount":37,"totalFees":13425829,"totalOutput":1600867419482,"slotLeader":"5b9a5633289c52003d359bce18f77f571a701fd3942a52bde3262558"},{"blockNo":6856399,"slotNo":52748024,"epochNo":319,"epochSlotNo":303224,"hash":"ee547525fa45937d87c4d0f8358a75b90b291a1318daafdb71b5bec88ca85758","time":"2022/02/08 09:58:35","txCount":29,"totalFees":12135053,"totalOutput":718325216608,"slotLeader":"e2c17915148f698723cb234f3cd89e9325f40b89af9fd6e1f9d1701a"},{"blockNo":6856398,"slotNo":52748015,"epochNo":319,"epochSlotNo":303215,"hash":"dcae9e7c637e0fb6e23797288b2a49aa8ebbf7cb7e075943e0b1053e8e4cd6a9","time":"2022/02/08 09:58:26","txCount":40,"totalFees":13357573,"totalOutput":2411794066796,"slotLeader":"ec826010110c7b8123a6e635afb96815c7d08b9a6f2c57b44f70a8b7"},{"blockNo":6856397,"slotNo":52748012,"epochNo":319,"epochSlotNo":303212,"hash":"6900e76d66f33b359e16021148b91e278cd30392243eeb176b53a84b85e0431d","time":"2022/02/08 09:58:23","txCount":33,"totalFees":10546691,"totalOutput":14015067810704,"slotLeader":"52e22df52e90370f639c99f5c760f0cd67d7f871cd0d0764fae47cd9"},{"blockNo":6856396,"slotNo":52747993,"epochNo":319,"epochSlotNo":303193,"hash":"63ac1a3078b5e699821f8a3f134ea36e29c1e793377778be2d8be4c1ad3c5a25","time":"2022/02/08 09:58:04","txCount":37,"totalFees":13687740,"totalOutput":676689942157,"slotLeader":"a3ee9595fc779621978c97960b4835e14fd2dfea7fff28ccb977b56b"},{"blockNo":6856395,"slotNo":52747987,"epochNo":319,"epochSlotNo":303187,"hash":"7c4e5e6ee5c0efe43d32c61edcd3ac2ae65dbccb111574da5118fcc7e2339727","time":"2022/02/08 09:57:58","txCount":42,"totalFees":15487196,"totalOutput":361669544411,"slotLeader":"e645c034522f32522bf1c64a7f46128c562880abc26abe5f65f25a84"},{"blockNo":6856394,"slotNo":52747984,"epochNo":319,"epochSlotNo":303184,"hash":"e9a7017e5f3c931cd7e7fe74a4876d59dae88581da66e5e0e435f7cdfc450da7","time":"2022/02/08 09:57:55","txCount":19,"totalFees":8687014,"totalOutput":20316415618,"slotLeader":"a7784228ea544bc94455e76f527aaee53266929f0bb2896893a0444f"},{"blockNo":6856393,"slotNo":52747978,"epochNo":319,"epochSlotNo":303178,"hash":"31b77db23b1c20425312086193b782ae1bd7da49902ecb740e2ef48e2df2568d","time":"2022/02/08 09:57:49","txCount":34,"totalFees":12465980,"totalOutput":15129470786604,"slotLeader":"60397646d7d1ad6fe2ddccfe7efc9cba61f6d3d94d29e8f41de73240"},{"blockNo":6856392,"slotNo":52747968,"epochNo":319,"epochSlotNo":303168,"hash":"aece7919867353cc21a093930b28d39888aa88b72f39e807302849047beb4f2c","time":"2022/02/08 09:57:39","txCount":16,"totalFees":8241559,"totalOutput":145811004211,"slotLeader":"dec7757e2ba0fcea7fd93a9999bf342d1974338fb91355ac68c13320"},{"blockNo":6856391,"slotNo":52747955,"epochNo":319,"epochSlotNo":303155,"hash":"0c1e1cdd6f43ea70bc01a30761537adcccbedf2083d9239ba198c8ba726384f2","time":"2022/02/08 09:57:26","txCount":20,"totalFees":9954146,"totalOutput":8424901882,"slotLeader":"d808aa16caa44c3226b76340f9f9535719d6e1018d46f499c100b6f1"},{"blockNo":6856390,"slotNo":52747952,"epochNo":319,"epochSlotNo":303152,"hash":"7ef6a6f378f51e0d6f7671ae9ffdca7a80fb2d416e9515a0220549e439ef5dc3","time":"2022/02/08 09:57:23","txCount":37,"totalFees":12801231,"totalOutput":7924502570836,"slotLeader":"2382bac66b58a4df1cf1775285529bbbefb9102ecea991e1da0aa064"},{"blockNo":6856389,"slotNo":52747938,"epochNo":319,"epochSlotNo":303138,"hash":"add6afd2ecc23bdb08babf6b88b92d35e55dec0c724c12687203a8331c7b0180","time":"2022/02/08 09:57:09","txCount":44,"totalFees":13650525,"totalOutput":100073910041,"slotLeader":"bcd7cf751b59f949170a7e6599f9ac03e49b32c19f3f1d8dad3ac210"},{"blockNo":6856388,"slotNo":52747904,"epochNo":319,"epochSlotNo":303104,"hash":"1cab5e2691c1235b08ffdfd473366eb1a5150f87195b12e1f68b2d7d3661940c","time":"2022/02/08 09:56:35","txCount":18,"totalFees":9708668,"totalOutput":674211701486,"slotLeader":"06b4d54e25e33f3adfa22098749005f7b610721e3c24d547450267ec"},{"blockNo":6856387,"slotNo":52747899,"epochNo":319,"epochSlotNo":303099,"hash":"5ceb82e89a85954f6535fa38c3edeb5ccc7d082b04cdbea5ae899ec487d52f8a","time":"2022/02/08 09:56:30","txCount":20,"totalFees":9410188,"totalOutput":367658750375,"slotLeader":"ddeb342bed35ab00242117343ada661db593fb25c55c818f2d3d784f"},{"blockNo":6856386,"slotNo":52747876,"epochNo":319,"epochSlotNo":303076,"hash":"2e171e1344ea1a4a35597b6c044370d6f97ed9af32a40529db5351dc8fd707f5","time":"2022/02/08 09:56:07","txCount":11,"totalFees":7446748,"totalOutput":1263849201,"slotLeader":"d679d78bbfefe7e03e05e7a42f9088075af0f15f501a631c67e64037"},{"blockNo":6856385,"slotNo":52747864,"epochNo":319,"epochSlotNo":303064,"hash":"9a9837998e8560dc4d814e29298e631adcc9c21e5a42a1f1af19803bcf970339","time":"2022/02/08 09:55:55","txCount":27,"totalFees":11906910,"totalOutput":18639149552482,"slotLeader":"35a38b78bf1f4b829a98d1ebf27d883b3f936eefcdfce2bd7a83c4c7"},{"blockNo":6856384,"slotNo":52747809,"epochNo":319,"epochSlotNo":303009,"hash":"58ca761f753c4f96cc7ac412bbebec8cf5dcf906901cf5b9cbb6fcfd8e9e1401","time":"2022/02/08 09:55:00","txCount":22,"totalFees":10624124,"totalOutput":148260569547,"slotLeader":"ce19882fd62e79faa113fcaef93950a4f0a5913b20a0689911b6f62d"},{"blockNo":6856383,"slotNo":52747783,"epochNo":319,"epochSlotNo":302983,"hash":"0aa138bc930e9914d160305550b2ed429ef16d10adef8eb65e94bfa1ddd4a5d7","time":"2022/02/08 09:54:34","txCount":44,"totalFees":13767643,"totalOutput":3467477233036,"slotLeader":"40d04c1367c25e6da2521f906f71bbb07858dc1d2209025364369173"},{"blockNo":6856382,"slotNo":52747758,"epochNo":319,"epochSlotNo":302958,"hash":"e2daa4006501a79fdd33e68c33b5f9aaf477c152d5922f27e489cd41b9366ac4","time":"2022/02/08 09:54:09","txCount":20,"totalFees":10076016,"totalOutput":21469651348,"slotLeader":"72583cf41012446cd1ca839c10049ecd65d31664b11e63d286041d61"},{"blockNo":6856381,"slotNo":52747693,"epochNo":319,"epochSlotNo":302893,"hash":"f1f1161eaa95e42d718dc4d6768deea4cdd76641ca426f235257b2facf33b36d","time":"2022/02/08 09:53:04","txCount":19,"totalFees":8844303,"totalOutput":1784324545458,"slotLeader":"ff069b3ecf738d4adfe83f7c20c64b82f94f7285ee41eedb2bfd297b"}],"totalItems":6856576,"totalPages":342829,"currentPage":0}