{"data":[{"blockNo":7196784,"slotNo":59944461,"epochNo":336,"epochSlotNo":155661,"hash":"f82279c008ff718f00367aa2a9c66a0e399a6420aa5b3ef198cc108315c2992f","time":"2022/05/02 16:59:12","txCount":58,"totalFees":17274309,"totalOutput":4444746290992,"slotLeader":"7d89d3f11170f5874c5b781b80864be392edcd9c8715ccce18155a8f"},{"blockNo":7196783,"slotNo":59944434,"epochNo":336,"epochSlotNo":155634,"hash":"d71bd7ae6135bd8367ebbfe79ba4876daf580aa0bcf31a3e9c915afe7ae4664a","time":"2022/05/02 16:58:45","txCount":44,"totalFees":13232588,"totalOutput":92403649175,"slotLeader":"f6541f3ca941d96d3c243eae01fea874d6be403b2dd2c6575245de6e"},{"blockNo":7196782,"slotNo":59944376,"epochNo":336,"epochSlotNo":155576,"hash":"545f149f681f544e20d7a6adc0c83a530c8a115eb6f67c03e2d7c42335be9e6b","time":"2022/05/02 16:57:47","txCount":2,"totalFees":429182,"totalOutput":502314571,"slotLeader":"75edaff5db48aa20512e3891747c2a8d68a44f65122142cc1d4dc393"},{"blockNo":7196781,"slotNo":59944375,"epochNo":336,"epochSlotNo":155575,"hash":"2a8743d6c41db03d4f34801658f2de3aca14abce48d32fb381fc33095d96127d","time":"2022/05/02 16:57:46","txCount":29,"totalFees":6958189,"totalOutput":53207604714,"slotLeader":"6539a70bb6e61540444133eab3a24288d1cd3ddc3598adde93475513"},{"blockNo":7196780,"slotNo":59944359,"epochNo":336,"epochSlotNo":155559,"hash":"e4cd5c7a55a93bd4063c49375eedd4fba7313c204c01b2bf7772b58db9e9169b","time":"2022/05/02 16:57:30","txCount":1,"totalFees":193089,"totalOutput":31732005,"slotLeader":"cdb10209d937fc1559c635e35b9147febde5307b4a7d276f868775cd"},{"blockNo":7196779,"slotNo":59944357,"epochNo":336,"epochSlotNo":155557,"hash":"520ab17763e2b9f2b0c8af07f37616c70db9ce98ddcd5c4d156e6dce6efd76f4","time":"2022/05/02 16:57:28","txCount":25,"totalFees":9128683,"totalOutput":1150259630388,"slotLeader":"0b38a13726b9dc3aa11be08af93003e775d9d62091765e0e1e3d027b"},{"blockNo":7196778,"slotNo":59944345,"epochNo":336,"epochSlotNo":155545,"hash":"e6e1bf5fb61414cead4a5dd5678dff0e01cd27417484fc80fd1e72400902b781","time":"2022/05/02 16:57:16","txCount":31,"totalFees":12419954,"totalOutput":3517944942513,"slotLeader":"04357793d81097a7d2c15ec6cd6067a58cdd2fb21aaf07e56c306ecf"},{"blockNo":7196777,"slotNo":59944321,"epochNo":336,"epochSlotNo":155521,"hash":"052e5b898a637dc1e46fd5affcbf09f764f2bca0d326e7d8b7b05949130afd52","time":"2022/05/02 16:56:52","txCount":1,"totalFees":176897,"totalOutput":2326373103,"slotLeader":"1b2523e031e0efe6e5fe0edf8c82fd51abf33a1a2feedad5456ef4d9"},{"blockNo":7196776,"slotNo":59944319,"epochNo":336,"epochSlotNo":155519,"hash":"6a858b96f91ebb96c6bbb9007f0f942ff0a22b41e4e0da5d868e9f25a7e2908c","time":"2022/05/02 16:56:50","txCount":9,"totalFees":4421029,"totalOutput":29190961530631,"slotLeader":"64e09628015d1065e4a11f032c90f677ba1f2f583ff0f55a158450b0"},{"blockNo":7196775,"slotNo":59944313,"epochNo":336,"epochSlotNo":155513,"hash":"da7d764d7a20a5ab32c336ef5e9bba94295ae8b07c5347555091f38a4cc063dc","time":"2022/05/02 16:56:44","txCount":15,"totalFees":5254037,"totalOutput":11528244921,"slotLeader":"00beef284975ef87856c1343f6bf50172253177fdebc756524d43fc1"}],"totalItems":7445,"totalPages":745,"currentPage":0}