{"data":[{"hash":"fb7804623df79803261ebf22534643c2e24563873e64be9dc78231461259a3fc","blockNo":8376476,"blockHash":"b9a7f374946b17344d5ebf2038c51934ebaab98ba79e049f96bead9bad68ef8c","epochNo":392,"epochSlotNo":372723,"slot":84353523,"time":"2023/02/09 05:16:54","addressesInput":["addr1q8tr4y9p7n04ufvd85659haq0zan3uxn64zncjgmx8qt8dcwmcnnhwnehu25w9gas9273cg2p4jppvtja838qpmfauvqnu5az7","addr1q8tr4y9p7n04ufvd85659haq0zan3uxn64zncjgmx8qt8dcwmcnnhwnehu25w9gas9273cg2p4jppvtja838qpmfauvqnu5az7","addr1q8tr4y9p7n04ufvd85659haq0zan3uxn64zncjgmx8qt8dcwmcnnhwnehu25w9gas9273cg2p4jppvtja838qpmfauvqnu5az7"],"addressesOutput":["addr1q9zef0545ecfdxjugv32d4rw4z2fywgylq2s7s9uu47gpz8uhaqyyurk33f80pqdk7yysx52sf8w7qfxxafx27lqq44sh7xsku","addr1q8tr4y9p7n04ufvd85659haq0zan3uxn64zncjgmx8qt8dcwmcnnhwnehu25w9gas9273cg2p4jppvtja838qpmfauvqnu5az7"],"fee":390693,"totalOutput":26780691,"tokens":[]},{"hash":"f37084b54148e6631e5cf8b2081a8f669a53989075ebfc60c1562673e143494d","blockNo":8376470,"blockHash":"5e46d65a1dde12c04a32cf71ceca16029b6eb9f17f90a42f0ddea3580e1c490f","epochNo":392,"epochSlotNo":372654,"slot":84353454,"time":"2023/02/09 05:15:45","addressesInput":["addr1q8tr4y9p7n04ufvd85659haq0zan3uxn64zncjgmx8qt8dcwmcnnhwnehu25w9gas9273cg2p4jppvtja838qpmfauvqnu5az7","addr1q8tr4y9p7n04ufvd85659haq0zan3uxn64zncjgmx8qt8dcwmcnnhwnehu25w9gas9273cg2p4jppvtja838qpmfauvqnu5az7","addr1q8tr4y9p7n04ufvd85659haq0zan3uxn64zncjgmx8qt8dcwmcnnhwnehu25w9gas9273cg2p4jppvtja838qpmfauvqnu5az7"],"addressesOutput":["addr1qyphpex5t0m38uka7ezgkpnz3t4xcft6ldz27vl7yct2wjed29vj567yps4y0yhczexm00xt6nmhe043tqv4q4e9tqlqvatw0g","addr1q8tr4y9p7n04ufvd85659haq0zan3uxn64zncjgmx8qt8dcwmcnnhwnehu25w9gas9273cg2p4jppvtja838qpmfauvqnu5az7"],"fee":386161,"totalOutput":91740544,"tokens":[]},{"hash":"82894066e3cb5276d0840fb22b1a13131164e59d27ca41c4903e9f75a70256e4","blockNo":8376324,"blockHash":"c3f8f5074f9c149d04c335eef125247b815d0f449d0a70a8d865c06212fb1e3b","epochNo":392,"epochSlotNo":369687,"slot":84350487,"time":"2023/02/09 04:26:18","addressesInput":["addr1qxkzghjylwnw275xhuctefuqpdamfssqdw9dhjm67tnajp7httwyktnm6dca79xc2lmr0vzwnleqxa30mhslcggyw7vsn85qpa","addr1qygu2npfzvxq5ea3ts3a6nk6uhklw0cd79gxhn0pkavampkhttwyktnm6dca79xc2lmr0vzwnleqxa30mhslcggyw7vs5pdd7x"],"addressesOutput":["addr1qxgxwcw4led59yy270jlswmh3tz58e7nhfmppjr0mdww0s763xyzqprvlzf0s8pwmzy4fa54kayfsy3434rpw9d4j82qq3t80d","addr1qygu2npfzvxq5ea3ts3a6nk6uhklw0cd79gxhn0pkavampkhttwyktnm6dca79xc2lmr0vzwnleqxa30mhslcggyw7vs5pdd7x"],"fee":369881,"totalOutput":34141096,"tokens":[]},{"hash":"453307b453c83cfc1e5b7d7687fc076d4fe816ddb4cb57f4f75bda8889844825","blockNo":8375922,"blockHash":"639f422c268c98fe4bc48b848b7125bb68e546201438bf60f082c247793858f9","epochNo":392,"epochSlotNo":361214,"slot":84342014,"time":"2023/02/09 02:05:05","addressesInput":["addr1qxwvhay480s3yem404hnddheaddsyqyh82lxxzcaddxhzarqzpxp80dc8348w4fvuegxu79xl8vcre3s0ducxusspktswstaw5","addr1qxwvhay480s3yem404hnddheaddsyqyh82lxxzcaddxhzarqzpxp80dc8348w4fvuegxu79xl8vcre3s0ducxusspktswstaw5","addr1qxwvhay480s3yem404hnddheaddsyqyh82lxxzcaddxhzarqzpxp80dc8348w4fvuegxu79xl8vcre3s0ducxusspktswstaw5","addr1qxwvhay480s3yem404hnddheaddsyqyh82lxxzcaddxhzarqzpxp80dc8348w4fvuegxu79xl8vcre3s0ducxusspktswstaw5"],"addressesOutput":["addr1qy68rzmgyqvgyh3jr22w6jz2qm0q7ca3lahw2v9wl7nqg6ms6jxls0ngn2qadghy4h7dterk0gzm3y7czmh8zlsfvmesnj7vnm","addr1qxwvhay480s3yem404hnddheaddsyqyh82lxxzcaddxhzarqzpxp80dc8348w4fvuegxu79xl8vcre3s0ducxusspktswstaw5","addr1qxwvhay480s3yem404hnddheaddsyqyh82lxxzcaddxhzarqzpxp80dc8348w4fvuegxu79xl8vcre3s0ducxusspktswstaw5"],"fee":238365,"totalOutput":167577195,"tokens":[]},{"hash":"ca95e3e07a0876dfa8637368692320d664afd6a46af533a6a8e9642f0ddbf45b","blockNo":8375897,"blockHash":"ee27d90743818112c8af1ba497c209122a3c2ed0c3280ef7c97bef3beb66038c","epochNo":392,"epochSlotNo":360637,"slot":84341437,"time":"2023/02/09 01:55:28","addressesInput":["addr1qyvqahx962e257u2w6cldp5j7t7eys05els0ecydxlaqmxca49c73yv32axatm687gp8req4y0v6thvmec00sz5fdn3sq4smnr","addr1q9mjra3zgc5x2wswtkxht5us720aqa04lact36e989f439ca49c73yv32axatm687gp8req4y0v6thvmec00sz5fdn3scya6z2","addr1q98thgqckm806yp4ee4na8qq6k0vuxhvj7qkjkkluwglgega49c73yv32axatm687gp8req4y0v6thvmec00sz5fdn3sy3wt05"],"addressesOutput":["addr1qyg5yk36ee0rhl5hw5kxcfng5ygrsv55tuchs0nxjmh9uqmpmpaxya7n6kzmyy6f72st0akwx8zg5n6emrxa5mhywg9q3v23dv","addr1q9mjra3zgc5x2wswtkxht5us720aqa04lact36e989f439ca49c73yv32axatm687gp8req4y0v6thvmec00sz5fdn3scya6z2","addr1q9mjra3zgc5x2wswtkxht5us720aqa04lact36e989f439ca49c73yv32axatm687gp8req4y0v6thvmec00sz5fdn3scya6z2"],"fee":409789,"totalOutput":31542185,"tokens":[]},{"hash":"b2bebe2db5906a6bacf98c65f3c55595946619e59047badef028c2cc6e5ccdbe","blockNo":8375425,"blockHash":"76f3834a2b3b04128181e0840c82f2cd87c56e9b19b79abfbea19a949338dfe6","epochNo":392,"epochSlotNo":351062,"slot":84331862,"time":"2023/02/08 23:15:53","addressesInput":["addr1q9dxpgpqtf4rua6hfyyl86zlkmm8d6cqph27fl6zlqvu3ckvs6xa7v38v6mx3jnmsa948aufl5pty77gyh726h89903qgcvgch","addr1qyau90sx7tcv8mgh5vq746gq9muulj7vg2undntv5hc7scwvs6xa7v38v6mx3jnmsa948aufl5pty77gyh726h89903q6peye5","addr1qyau90sx7tcv8mgh5vq746gq9muulj7vg2undntv5hc7scwvs6xa7v38v6mx3jnmsa948aufl5pty77gyh726h89903q6peye5"],"addressesOutput":["addr1q8e8r50hrf4u8sv8xhtmp9qreshd2uezrm5w2xv38zylerjus8d9ul485lrrtv20phw6fwwl30zlplf4ph59lwd6at5s3luczv","addr1q8utf6w3f57xnqlrxj568cyyrxde3fqpdye8cy5nx8whl9xvs6xa7v38v6mx3jnmsa948aufl5pty77gyh726h89903qujk9fl"],"fee":391265,"totalOutput":28253924,"tokens":[]},{"hash":"9ffc896cc18b314da16afa99bfd82266177142f8af3421c26660728810e0e5b9","blockNo":8375143,"blockHash":"2221fa0e98c85cea2048f6859ce335d2a7d7910d14d3c8a9b12308b3ed495484","epochNo":392,"epochSlotNo":345274,"slot":84326074,"time":"2023/02/08 21:39:25","addressesInput":["addr1q9wh5hmzmns6ttef9ccz5a640h0ehanu9yxmq25atvh3mssa49c73yv32axatm687gp8req4y0v6thvmec00sz5fdn3sm5sp6q","addr1q9mjra3zgc5x2wswtkxht5us720aqa04lact36e989f439ca49c73yv32axatm687gp8req4y0v6thvmec00sz5fdn3scya6z2","addr1q9mjra3zgc5x2wswtkxht5us720aqa04lact36e989f439ca49c73yv32axatm687gp8req4y0v6thvmec00sz5fdn3scya6z2"],"addressesOutput":["addr1qyg5yk36ee0rhl5hw5kxcfng5ygrsv55tuchs0nxjmh9uqmpmpaxya7n6kzmyy6f72st0akwx8zg5n6emrxa5mhywg9q3v23dv","addr1q9mjra3zgc5x2wswtkxht5us720aqa04lact36e989f439ca49c73yv32axatm687gp8req4y0v6thvmec00sz5fdn3scya6z2","addr1q9mjra3zgc5x2wswtkxht5us720aqa04lact36e989f439ca49c73yv32axatm687gp8req4y0v6thvmec00sz5fdn3scya6z2"],"fee":403541,"totalOutput":99602773,"tokens":[]},{"hash":"e0f06e83a85858c80f5f03a552ca53b5da7e7374ee20247e0775c3857552051e","blockNo":8374463,"blockHash":"bc0427785d1fdb6dcf5dbb2dad931dc837e7ac9cca7dc23a54bafbceb952b0c0","epochNo":392,"epochSlotNo":331094,"slot":84311894,"time":"2023/02/08 17:43:05","addressesInput":["addr1q87rw3kvffmkf3f4yq0fgjq3e2c49u2frtylxz00jvn9snanzfzekz7vqkwd9ljq7mpmzzmvxwwnqrulntc0gw6wzkpq3yv7za","addr1q8y2vx5dupj4j9myq8tydaphwe0l852qkp4plwx8gqfq9u9nzfzekz7vqkwd9ljq7mpmzzmvxwwnqrulntc0gw6wzkpqtnld68","addr1q8hg0gx0hkj7mv5yrnnvk2fusrtj2lqf3dt842l5swrgzk9nzfzekz7vqkwd9ljq7mpmzzmvxwwnqrulntc0gw6wzkpqhsde3e","addr1q82sylsd0z6xaa46ljd7ztglkp0a3jmff93zx9suknzjk6dnzfzekz7vqkwd9ljq7mpmzzmvxwwnqrulntc0gw6wzkpq220dhl"],"addressesOutput":["addr1q9zg7xmzpuaa80r3gd827dphx8m7ewf200m49yzq0hhu0rtkjyd6gen5qdlkzmgn27vuepltesmk2r8fz4ulz0kymjlsa2hsd7","addr1qxyyw7lwl0g2tat0nmealdavrp4aqz6lquc45hz0l55h8m4nzfzekz7vqkwd9ljq7mpmzzmvxwwnqrulntc0gw6wzkpq2ksxxu","addr1qxyyw7lwl0g2tat0nmealdavrp4aqz6lquc45hz0l55h8m4nzfzekz7vqkwd9ljq7mpmzzmvxwwnqrulntc0gw6wzkpq2ksxxu","addr1qxyyw7lwl0g2tat0nmealdavrp4aqz6lquc45hz0l55h8m4nzfzekz7vqkwd9ljq7mpmzzmvxwwnqrulntc0gw6wzkpq2ksxxu"],"fee":300669,"totalOutput":18147189,"tokens":[]},{"hash":"733793b2a998c6d00e9ad2f92fd9ef5267550b76c14491019f2b19f74e1d087f","blockNo":8371006,"blockHash":"a52fbfce43b7b16ef6a2dde9a3d13919e42c5b4c1b2089448ac498ccc3317b2b","epochNo":392,"epochSlotNo":257461,"slot":84238261,"time":"2023/02/07 21:15:52","addressesInput":["DdzFFzCqrhsfHbsREJSCMVhPpKadRe84we4SFk6N2TiAQSeUJxpK9rVSNS8EC1GrWiu5SxEDpkyzKeNf68957g9ygcJybsVRpj3NZzMo","DdzFFzCqrhsiRgHdsBEG2i7FZZ6r8ymtocS4yT12Ztx22M61KWkHFYVT8MfoQqhxuvYaUGuBr3qTyWQoDXNqXCKhtehwZuSboMw8KQeu"],"addressesOutput":["addr1q9atjfpqwdtg7ytz0pz9zcaqvx8zr2uv6ysvc4csqynr683dzefudzxhadht99nh8gv4l3z93d486ygllgxuh2drrrpsdw6fws","DdzFFzCqrhskEcinQWxYeaWWsdKCVbSWRpjKNNNT7EQqQeVhjeszBXhyDjj831vtumvn4C2og4UMaReFK2VNXdR5GSrw6rfWYCdnCFwX"],"fee":401077,"totalOutput":41765464183,"tokens":[]},{"hash":"20ee9ae5c04135191aa7de68571c41be13799a2473ded85c29602458a5a405bb","blockNo":8370025,"blockHash":"37c55abc4b570e29b83dd64edeea6b19d33082c2f867c4d49d4c45c7091c2390","epochNo":392,"epochSlotNo":236864,"slot":84217664,"time":"2023/02/07 15:32:35","addressesInput":["addr1qxq5lehud4522rrww6tjjvz94267lv6lgwtm3uafkdem5kgl4a7843764rakvn7dtyrq863whuq9vfxsl6cpg0n5kudq5tnekl","addr1qxt6n8kst0dq2nnm8l8enm346q84eha5vswgyed7c94c59ql4a7843764rakvn7dtyrq863whuq9vfxsl6cpg0n5kudqjakhzu","addr1qxq5lehud4522rrww6tjjvz94267lv6lgwtm3uafkdem5kgl4a7843764rakvn7dtyrq863whuq9vfxsl6cpg0n5kudq5tnekl","addr1qyhsw3304u49jkh53ekwk4afkp8r6ekg7247ud3gj6rzpjgl4a7843764rakvn7dtyrq863whuq9vfxsl6cpg0n5kudqkcu0fv","addr1qxq5lehud4522rrww6tjjvz94267lv6lgwtm3uafkdem5kgl4a7843764rakvn7dtyrq863whuq9vfxsl6cpg0n5kudq5tnekl","addr1qyhsw3304u49jkh53ekwk4afkp8r6ekg7247ud3gj6rzpjgl4a7843764rakvn7dtyrq863whuq9vfxsl6cpg0n5kudqkcu0fv","addr1qxq5lehud4522rrww6tjjvz94267lv6lgwtm3uafkdem5kgl4a7843764rakvn7dtyrq863whuq9vfxsl6cpg0n5kudq5tnekl","addr1qxq5lehud4522rrww6tjjvz94267lv6lgwtm3uafkdem5kgl4a7843764rakvn7dtyrq863whuq9vfxsl6cpg0n5kudq5tnekl","addr1qyhhkg4pk9xnqwqeas49c8z9d8grxu3p04yzajuwk9e00ecl4a7843764rakvn7dtyrq863whuq9vfxsl6cpg0n5kudqyntv69","addr1q9ckstmgpr6szsk3m67luzrpnj7uvkzxvj272vcgz6qk42ql4a7843764rakvn7dtyrq863whuq9vfxsl6cpg0n5kudqxp9t34","addr1qxq5lehud4522rrww6tjjvz94267lv6lgwtm3uafkdem5kgl4a7843764rakvn7dtyrq863whuq9vfxsl6cpg0n5kudq5tnekl","addr1qxt6n8kst0dq2nnm8l8enm346q84eha5vswgyed7c94c59ql4a7843764rakvn7dtyrq863whuq9vfxsl6cpg0n5kudqjakhzu","addr1qxt6n8kst0dq2nnm8l8enm346q84eha5vswgyed7c94c59ql4a7843764rakvn7dtyrq863whuq9vfxsl6cpg0n5kudqjakhzu","addr1qxq5lehud4522rrww6tjjvz94267lv6lgwtm3uafkdem5kgl4a7843764rakvn7dtyrq863whuq9vfxsl6cpg0n5kudq5tnekl","addr1qyhsw3304u49jkh53ekwk4afkp8r6ekg7247ud3gj6rzpjgl4a7843764rakvn7dtyrq863whuq9vfxsl6cpg0n5kudqkcu0fv","addr1qykdhnzxdrxteg796uxfgfl5me3tj53xqc5698f024epxhql4a7843764rakvn7dtyrq863whuq9vfxsl6cpg0n5kudqfw7h9z","addr1q9ckstmgpr6szsk3m67luzrpnj7uvkzxvj272vcgz6qk42ql4a7843764rakvn7dtyrq863whuq9vfxsl6cpg0n5kudqxp9t34"],"addressesOutput":["addr1vypeutdga9pqtzqcd0t2rzxe5v2a9g2tm2rx2cq325vnp6c5zdp8d","addr1q8ln8wl3dsdh6dmr93h9en8jelmmml09qs9ff006m696aygl4a7843764rakvn7dtyrq863whuq9vfxsl6cpg0n5kudqcq7ttc","addr1q8ln8wl3dsdh6dmr93h9en8jelmmml09qs9ff006m696aygl4a7843764rakvn7dtyrq863whuq9vfxsl6cpg0n5kudqcq7ttc","addr1q8ln8wl3dsdh6dmr93h9en8jelmmml09qs9ff006m696aygl4a7843764rakvn7dtyrq863whuq9vfxsl6cpg0n5kudqcq7ttc","addr1q8ln8wl3dsdh6dmr93h9en8jelmmml09qs9ff006m696aygl4a7843764rakvn7dtyrq863whuq9vfxsl6cpg0n5kudqcq7ttc","addr1q8ln8wl3dsdh6dmr93h9en8jelmmml09qs9ff006m696aygl4a7843764rakvn7dtyrq863whuq9vfxsl6cpg0n5kudqcq7ttc","addr1q8ln8wl3dsdh6dmr93h9en8jelmmml09qs9ff006m696aygl4a7843764rakvn7dtyrq863whuq9vfxsl6cpg0n5kudqcq7ttc","addr1q8ln8wl3dsdh6dmr93h9en8jelmmml09qs9ff006m696aygl4a7843764rakvn7dtyrq863whuq9vfxsl6cpg0n5kudqcq7ttc","addr1q8ln8wl3dsdh6dmr93h9en8jelmmml09qs9ff006m696aygl4a7843764rakvn7dtyrq863whuq9vfxsl6cpg0n5kudqcq7ttc","addr1q8ln8wl3dsdh6dmr93h9en8jelmmml09qs9ff006m696aygl4a7843764rakvn7dtyrq863whuq9vfxsl6cpg0n5kudqcq7ttc","addr1q8ln8wl3dsdh6dmr93h9en8jelmmml09qs9ff006m696aygl4a7843764rakvn7dtyrq863whuq9vfxsl6cpg0n5kudqcq7ttc","addr1q8ln8wl3dsdh6dmr93h9en8jelmmml09qs9ff006m696aygl4a7843764rakvn7dtyrq863whuq9vfxsl6cpg0n5kudqcq7ttc","addr1q8ln8wl3dsdh6dmr93h9en8jelmmml09qs9ff006m696aygl4a7843764rakvn7dtyrq863whuq9vfxsl6cpg0n5kudqcq7ttc","addr1q8ln8wl3dsdh6dmr93h9en8jelmmml09qs9ff006m696aygl4a7843764rakvn7dtyrq863whuq9vfxsl6cpg0n5kudqcq7ttc","addr1q8ln8wl3dsdh6dmr93h9en8jelmmml09qs9ff006m696aygl4a7843764rakvn7dtyrq863whuq9vfxsl6cpg0n5kudqcq7ttc"],"fee":873549,"totalOutput":107483181,"tokens":[]},{"hash":"f0b87bbff41a5ced69a624a201b9bbd08e32b067e731d201a5011ed780eb94aa","blockNo":8369762,"blockHash":"4d561472cfb673f43619090a37795c5e2047891c29398805293cd6071431a8b2","epochNo":392,"epochSlotNo":231585,"slot":84212385,"time":"2023/02/07 14:04:36","addressesInput":["DdzFFzCqrhstgxR8aHguexbYYC9ZjSXBrtask3qsSM2Rosvu5neoeg4qkxU18F88EdUf7uAhnki4Ejqqufk162YnLMEpoaZqfNPZ4iWJ","DdzFFzCqrhsfHbsREJSCMVhPpKadRe84we4SFk6N2TiAQSeUJxpK9rVSNS8EC1GrWiu5SxEDpkyzKeNf68957g9ygcJybsVRpj3NZzMo"],"addressesOutput":["addr1q9atjfpqwdtg7ytz0pz9zcaqvx8zr2uv6ysvc4csqynr683dzefudzxhadht99nh8gv4l3z93d486ygllgxuh2drrrpsdw6fws","DdzFFzCqrhsiRgHdsBEG2i7FZZ6r8ymtocS4yT12Ztx22M61KWkHFYVT8MfoQqhxuvYaUGuBr3qTyWQoDXNqXCKhtehwZuSboMw8KQeu"],"fee":401077,"totalOutput":41765783370,"tokens":[]},{"hash":"c9fc3e9af717c5af1aa1a96bf776a169cd06dd04119ff5a14fd439d643dce8e0","blockNo":8369678,"blockHash":"79143662e3dba5290b63746f76c28a2f2305ed6f1561196d1a18a29683e16fa7","epochNo":392,"epochSlotNo":229825,"slot":84210625,"time":"2023/02/07 13:35:16","addressesInput":["addr1qx495vcltjk2m9mzchwq2ujfqfpyzhsws3zjsqh5hmdxyranzfzekz7vqkwd9ljq7mpmzzmvxwwnqrulntc0gw6wzkpq7hfs39","addr1q9n4udsgwv6p30k3da9ttre93snsvmr7q7fet6fnlm4f3aanzfzekz7vqkwd9ljq7mpmzzmvxwwnqrulntc0gw6wzkpqejz7f5","addr1q87rw3kvffmkf3f4yq0fgjq3e2c49u2frtylxz00jvn9snanzfzekz7vqkwd9ljq7mpmzzmvxwwnqrulntc0gw6wzkpq3yv7za"],"addressesOutput":["addr1q9zg7xmzpuaa80r3gd827dphx8m7ewf200m49yzq0hhu0rtkjyd6gen5qdlkzmgn27vuepltesmk2r8fz4ulz0kymjlsa2hsd7","addr1q82sylsd0z6xaa46ljd7ztglkp0a3jmff93zx9suknzjk6dnzfzekz7vqkwd9ljq7mpmzzmvxwwnqrulntc0gw6wzkpq220dhl","addr1q82sylsd0z6xaa46ljd7ztglkp0a3jmff93zx9suknzjk6dnzfzekz7vqkwd9ljq7mpmzzmvxwwnqrulntc0gw6wzkpq220dhl","addr1q82sylsd0z6xaa46ljd7ztglkp0a3jmff93zx9suknzjk6dnzfzekz7vqkwd9ljq7mpmzzmvxwwnqrulntc0gw6wzkpq220dhl"],"fee":294949,"totalOutput":27010167,"tokens":[]},{"hash":"94ab4299d3f60bec458d6d0419d0ae4bc7db69b6d4ccc9e4f2e5ad6971b81657","blockNo":8369596,"blockHash":"908a9607642fb3c72401fd46d751ab3d1bfd88458d5f0e1f326efefe242bd34e","epochNo":392,"epochSlotNo":227974,"slot":84208774,"time":"2023/02/07 13:04:25","addressesInput":["addr1q8hpyvkcwpyeeq5xprj0hhyp49qx7kqprx5xhjs2vd60fx6zmhet75tnxa8l4gj20eljsycfxetsj96s7tuyaqpj7ufqajh2uq","addr1q8hpyvkcwpyeeq5xprj0hhyp49qx7kqprx5xhjs2vd60fx6zmhet75tnxa8l4gj20eljsycfxetsj96s7tuyaqpj7ufqajh2uq"],"addressesOutput":["addr1wxn9efv2f6w82hagxqtn62ju4m293tqvw0uhmdl64ch8uwc0h43gt","addr1q8hpyvkcwpyeeq5xprj0hhyp49qx7kqprx5xhjs2vd60fx6zmhet75tnxa8l4gj20eljsycfxetsj96s7tuyaqpj7ufqajh2uq"],"fee":213285,"totalOutput":66626706,"tokens":[]},{"hash":"e144a1b0c91d009655ca3571cc101d7df64b5dbcece7047e8530fb660738f2c9","blockNo":8369158,"blockHash":"ae9ee940e9f18ef40fc3316feac6f4459c9f133f8b6464eaf09d199536feaa86","epochNo":392,"epochSlotNo":219997,"slot":84200797,"time":"2023/02/07 10:51:28","addressesInput":["DdzFFzCqrhsyn7wmWLeqdfoaFqdUEoqFusr7RTQF3KFvNApXe9ri48u4FfvUmMAVaN9EaQJXt2ox96yvUxdjR3wj1oewjQpG2WgfJJto"],"addressesOutput":["addr1q9atjfpqwdtg7ytz0pz9zcaqvx8zr2uv6ysvc4csqynr683dzefudzxhadht99nh8gv4l3z93d486ygllgxuh2drrrpsdw6fws","DdzFFzCqrhstgxR8aHguexbYYC9ZjSXBrtask3qsSM2Rosvu5neoeg4qkxU18F88EdUf7uAhnki4Ejqqufk162YnLMEpoaZqfNPZ4iWJ"],"fee":391397,"totalOutput":41766037827,"tokens":[]},{"hash":"2d4059eb15726dfb6db4cf6b5291890391d16da59313d180212ad373109f8402","blockNo":8369135,"blockHash":"00ed9c3d60247fc33c4d8b5d383b9eca1a79426768b023d17a9d3f9cf12e2d5b","epochNo":392,"epochSlotNo":219556,"slot":84200356,"time":"2023/02/07 10:44:07","addressesInput":["DdzFFzCqrhtCkL2qKgJx2Wt1t8w5XBaQTfSeE5yNuizj2UgQhrSVn1apdRZ3RguQwgK6d8zpJL6D27yHdo8CcdXqubJUDu9vKeTGrfBK","DdzFFzCqrhsfHbsREJSCMVhPpKadRe84we4SFk6N2TiAQSeUJxpK9rVSNS8EC1GrWiu5SxEDpkyzKeNf68957g9ygcJybsVRpj3NZzMo"],"addressesOutput":["addr1q9atjfpqwdtg7ytz0pz9zcaqvx8zr2uv6ysvc4csqynr683dzefudzxhadht99nh8gv4l3z93d486ygllgxuh2drrrpsdw6fws","DdzFFzCqrhsyn7wmWLeqdfoaFqdUEoqFusr7RTQF3KFvNApXe9ri48u4FfvUmMAVaN9EaQJXt2ox96yvUxdjR3wj1oewjQpG2WgfJJto"],"fee":401077,"totalOutput":41767661884,"tokens":[]},{"hash":"dd63ca2e306722e8c8cf75c2eb2b74cfd8d86b24063f733d30b118e3866ac4cf","blockNo":8368877,"blockHash":"54fdf671ecf624987e3d1e4120ab274dfd61d84dc340dcfaefd4dfb65498b596","epochNo":392,"epochSlotNo":214133,"slot":84194933,"time":"2023/02/07 09:13:44","addressesInput":["addr1q8acghs8aee9dtwk9xdnys8pgp067vylfrehds7yk5zjp2pzuq20wwz394xr5htm9c32fc98tl6u8qcrnryrg4g9hars0sz8rp","addr1qyx7ekua7u84m9qcylsqavflstawjdj3400wcmz9asd843fzuq20wwz394xr5htm9c32fc98tl6u8qcrnryrg4g9hars0p79re"],"addressesOutput":["addr1qxcyjmsdntdmjs53ffc9awfhtlzd209x4tm34depsflrln49h6ct52eayzup4vrhazascpexzrg8t5yk3pen3uues98smq90q7","addr1q9r77mtrm7fhhwsjuk8xdt4shs6rjmz42egma9cvmscat6ezuq20wwz394xr5htm9c32fc98tl6u8qcrnryrg4g9hars3kzw5v"],"fee":272509,"totalOutput":15144761,"tokens":[]},{"hash":"933b0b8c5abe73eadcbd3995d743e7390fb66d1b2901cf0f203eed4907567912","blockNo":8368805,"blockHash":"8280b95ae1c25aebe1d5898e688a58461bf8c8f4b785234bc350058619756313","epochNo":392,"epochSlotNo":212627,"slot":84193427,"time":"2023/02/07 08:48:38","addressesInput":["DdzFFzCqrhsn1Djt3AwXi8N4BrSbwukd6sA41jShWxLSroTcWY4xCQBTk8QeT6Nr6bvGLJq9dcW3oU2dpWUEBFD3fWmLqMeyQJY6yPnS","DdzFFzCqrhtCrJAyunQADfPESXVtS3pfvX4EEb4pAwtU21888UXFcUQTYcxMa84US7wcY1XWNKLY3RRwsLGJPN89GL3FuqToF8Swsytn"],"addressesOutput":["addr1q9atjfpqwdtg7ytz0pz9zcaqvx8zr2uv6ysvc4csqynr683dzefudzxhadht99nh8gv4l3z93d486ygllgxuh2drrrpsdw6fws","DdzFFzCqrhtCkL2qKgJx2Wt1t8w5XBaQTfSeE5yNuizj2UgQhrSVn1apdRZ3RguQwgK6d8zpJL6D27yHdo8CcdXqubJUDu9vKeTGrfBK"],"fee":401077,"totalOutput":41767916341,"tokens":[]},{"hash":"53c0180db92dfa365a352ed2fece08556533c159ab80d8e2e6dd427b6a3ec352","blockNo":8368375,"blockHash":"83357a197e9b361b3bc66dabf536d199f4b438e4a1371047d3433671b63c739f","epochNo":392,"epochSlotNo":203140,"slot":84183940,"time":"2023/02/07 06:10:31","addressesInput":["DdzFFzCqrhsfHbsREJSCMVhPpKadRe84we4SFk6N2TiAQSeUJxpK9rVSNS8EC1GrWiu5SxEDpkyzKeNf68957g9ygcJybsVRpj3NZzMo","DdzFFzCqrhsmg7Tnd3qU1oZmw4Poyz5uXZXdeuZn6vCqhgmqS85R82CaKVdLwx6rQPEz6dQrE8VCbg4XM6ioN7BmLXu7EHr73rTVmXX9"],"addressesOutput":["addr1q9atjfpqwdtg7ytz0pz9zcaqvx8zr2uv6ysvc4csqynr683dzefudzxhadht99nh8gv4l3z93d486ygllgxuh2drrrpsdw6fws","DdzFFzCqrhsn1Djt3AwXi8N4BrSbwukd6sA41jShWxLSroTcWY4xCQBTk8QeT6Nr6bvGLJq9dcW3oU2dpWUEBFD3fWmLqMeyQJY6yPnS"],"fee":401077,"totalOutput":1384300600,"tokens":[]},{"hash":"90df51d62897ec434544251f2f5461ed779a2c9a925fe087f64f6f5d57dd0fbf","blockNo":8368295,"blockHash":"e064479c20e77a6032cae01132340ca7ce283043e8df771dd3bfafe8d05f2b8c","epochNo":392,"epochSlotNo":201357,"slot":84182157,"time":"2023/02/07 05:40:48","addressesInput":["addr1qysdvmvecllayy4rkksgsms5lu4vxhvxwtmx85ks3cctcdl49v0llr6kh86h28lyzeulsjnz9e0rfk2j0t9qend2e6xqvu3nts","addr1qysdvmvecllayy4rkksgsms5lu4vxhvxwtmx85ks3cctcdl49v0llr6kh86h28lyzeulsjnz9e0rfk2j0t9qend2e6xqvu3nts","addr1qysdvmvecllayy4rkksgsms5lu4vxhvxwtmx85ks3cctcdl49v0llr6kh86h28lyzeulsjnz9e0rfk2j0t9qend2e6xqvu3nts","addr1qysdvmvecllayy4rkksgsms5lu4vxhvxwtmx85ks3cctcdl49v0llr6kh86h28lyzeulsjnz9e0rfk2j0t9qend2e6xqvu3nts","addr1qysdvmvecllayy4rkksgsms5lu4vxhvxwtmx85ks3cctcdl49v0llr6kh86h28lyzeulsjnz9e0rfk2j0t9qend2e6xqvu3nts","addr1qysdvmvecllayy4rkksgsms5lu4vxhvxwtmx85ks3cctcdl49v0llr6kh86h28lyzeulsjnz9e0rfk2j0t9qend2e6xqvu3nts","addr1zxgx3far7qygq0k6epa0zcvcvrevmn0ypsnfsue94nsn3tvpw288a4x0xf8pxgcntelxmyclq83s0ykeehchz2wtspks905plm","addr1qysdvmvecllayy4rkksgsms5lu4vxhvxwtmx85ks3cctcdl49v0llr6kh86h28lyzeulsjnz9e0rfk2j0t9qend2e6xqvu3nts","addr1qysdvmvecllayy4rkksgsms5lu4vxhvxwtmx85ks3cctcdl49v0llr6kh86h28lyzeulsjnz9e0rfk2j0t9qend2e6xqvu3nts","addr1qysdvmvecllayy4rkksgsms5lu4vxhvxwtmx85ks3cctcdl49v0llr6kh86h28lyzeulsjnz9e0rfk2j0t9qend2e6xqvu3nts","addr1qysdvmvecllayy4rkksgsms5lu4vxhvxwtmx85ks3cctcdl49v0llr6kh86h28lyzeulsjnz9e0rfk2j0t9qend2e6xqvu3nts","addr1qysdvmvecllayy4rkksgsms5lu4vxhvxwtmx85ks3cctcdl49v0llr6kh86h28lyzeulsjnz9e0rfk2j0t9qend2e6xqvu3nts"],"addressesOutput":["addr1qx9gjyvuqmghprhrrmjn3zyggvxaxu9n9yezajxyntr2704yv698rn5muf7q9syrrqcskp49dpzzsvcsqk3rqstj0zuskf9x5v","addr1q9cwvremt6n320s2e3agq0jyq82yhrk3htsu0w426xnz5us70z4w0jgvcdkkynmm8wmds66jd9kusnjfpu6raw5fqp0sr07p5w","addr1q9emup67c9juara4nsck0nhjk7433k8zxfw97w7jyumltcfq0pe9eh38pmlxe8z7vnjft8248kzza6rhja9s0qh36n4qmv379h","addr1qysdvmvecllayy4rkksgsms5lu4vxhvxwtmx85ks3cctcdl49v0llr6kh86h28lyzeulsjnz9e0rfk2j0t9qend2e6xqvu3nts","addr1qysdvmvecllayy4rkksgsms5lu4vxhvxwtmx85ks3cctcdl49v0llr6kh86h28lyzeulsjnz9e0rfk2j0t9qend2e6xqvu3nts","addr1qysdvmvecllayy4rkksgsms5lu4vxhvxwtmx85ks3cctcdl49v0llr6kh86h28lyzeulsjnz9e0rfk2j0t9qend2e6xqvu3nts"],"fee":1275181,"totalOutput":672836607,"tokens":[]},{"hash":"2e59ecb432ceb680cee7ffd218001081e05d51994552047df2c14781a1155e2c","blockNo":8368032,"blockHash":"c239f228387537f526b9c4ebbe7ab78ba8460a3c7e9256ec2e5ff9d87b3fa841","epochNo":392,"epochSlotNo":195528,"slot":84176328,"time":"2023/02/07 04:03:39","addressesInput":["addr1q9vj9w32w77p47ca725hantcf5nrzcex66vqq58kqm4l04y6hn99676mvdj6qvd34vfqh3jx6vy8tyfkuy6u3xcghq8sex2gzq","addr1zxgx3far7qygq0k6epa0zcvcvrevmn0ypsnfsue94nsn3tvpw288a4x0xf8pxgcntelxmyclq83s0ykeehchz2wtspks905plm","addr1q9vj9w32w77p47ca725hantcf5nrzcex66vqq58kqm4l04y6hn99676mvdj6qvd34vfqh3jx6vy8tyfkuy6u3xcghq8sex2gzq"],"addressesOutput":["addr1q9vj9w32w77p47ca725hantcf5nrzcex66vqq58kqm4l04y6hn99676mvdj6qvd34vfqh3jx6vy8tyfkuy6u3xcghq8sex2gzq","addr1q9vj9w32w77p47ca725hantcf5nrzcex66vqq58kqm4l04y6hn99676mvdj6qvd34vfqh3jx6vy8tyfkuy6u3xcghq8sex2gzq","addr1q9vj9w32w77p47ca725hantcf5nrzcex66vqq58kqm4l04y6hn99676mvdj6qvd34vfqh3jx6vy8tyfkuy6u3xcghq8sex2gzq"],"fee":322566,"totalOutput":76535634,"tokens":[]}],"totalItems":13695,"totalPages":685,"currentPage":0}