{"data":[{"hash":"104fc42ae446817f769837eef342db7ea732de7d57669035c12b50cead5363c2","blockNo":7820455,"blockHash":"2cdaa7288348f74d202e1fa16da4ef4c115c9c119017e133217e1b045bcdf385","epochNo":366,"epochSlotNo":157298,"slot":72906098,"time":"2022/09/29 17:26:29","addressesInput":["addr1q90s296dukwcj0gad4khser5reuytu6uwhl09c6ds46ugkd0dk62lklu8hyxd8vrf2z5ffked7kgmv3drj7wvndt9v0shjlddr","addr1zxj47sy4qxlktqzmkrw8dahe46gtv8seakrshsqz26qnvzypw288a4x0xf8pxgcntelxmyclq83s0ykeehchz2wtspksr3q9nx","addr1q90s296dukwcj0gad4khser5reuytu6uwhl09c6ds46ugkd0dk62lklu8hyxd8vrf2z5ffked7kgmv3drj7wvndt9v0shjlddr"],"addressesOutput":["addr1q9hzaa7a9njwpdljg6p9q3tm78xy3v6ya98nnq2ftnjzeeg7kfu4km9gjtc5senkk0fa9nhf44x8kxwtv6rw5f5y3rtqd92d9g","addr1q9cwvremt6n320s2e3agq0jyq82yhrk3htsu0w426xnz5us70z4w0jgvcdkkynmm8wmds66jd9kusnjfpu6raw5fqp0sr07p5w","addr1q89tcrjgncjuj38xk8ema72apu7kvrn4dk6wxzgqwmt9gtt2z65m222438kc5j98eeh92qm5zzctp8pytdazkl5djr2qgunsxp","addr1q90s296dukwcj0gad4khser5reuytu6uwhl09c6ds46ugkd0dk62lklu8hyxd8vrf2z5ffked7kgmv3drj7wvndt9v0shjlddr","addr1q90s296dukwcj0gad4khser5reuytu6uwhl09c6ds46ugkd0dk62lklu8hyxd8vrf2z5ffked7kgmv3drj7wvndt9v0shjlddr","addr1q90s296dukwcj0gad4khser5reuytu6uwhl09c6ds46ugkd0dk62lklu8hyxd8vrf2z5ffked7kgmv3drj7wvndt9v0shjlddr"],"fee":687572,"totalOutput":231342851,"tokens":[]},{"hash":"474eb724b05e3357fdb01a56c740eb7fa32b2d14251f0d798fa12a53730177b1","blockNo":7820455,"blockHash":"2cdaa7288348f74d202e1fa16da4ef4c115c9c119017e133217e1b045bcdf385","epochNo":366,"epochSlotNo":157298,"slot":72906098,"time":"2022/09/29 17:26:29","addressesInput":["addr1qyf7a2kj5ld7pvf4882prka0cykwgfcrxqx4zqfqnpna2hp6xn3uptjxds8jmjcfrwj9t2pan9kysxlqfptwka6vg9kqlc64ev","addr1q8s6875myay679mrhh6c0qzwja0p8xtwyazcpqyz6qq33336xn3uptjxds8jmjcfrwj9t2pan9kysxlqfptwka6vg9kq378vdm","addr1qxf28l8qu3dntpkcjkr4t3egr6rpw2rvrp5el3w4g4uuehe6xn3uptjxds8jmjcfrwj9t2pan9kysxlqfptwka6vg9kqc2ew8d"],"addressesOutput":["addr1q8efk2qd93xrdpaz8p4kwlad94ev7k3exd7tzc7dpg6fuv36xn3uptjxds8jmjcfrwj9t2pan9kysxlqfptwka6vg9kq57srd9","addr1wxar2qwdzuxfvdyuxsk9aapy93vkkk904mxullqtkp90pmqh0xrmz","addr1q8efk2qd93xrdpaz8p4kwlad94ev7k3exd7tzc7dpg6fuv36xn3uptjxds8jmjcfrwj9t2pan9kysxlqfptwka6vg9kq57srd9"],"fee":517134,"totalOutput":89635820,"tokens":[]},{"hash":"b8fcf873b68d03db5c57bf00939c61e0aae2fc031508762f283a2c479e458162","blockNo":7820454,"blockHash":"1c28b01d7d949c53d1de38edff28678c92b38c903bf184fe7c334f91dc8c20fa","epochNo":366,"epochSlotNo":157294,"slot":72906094,"time":"2022/09/29 17:26:25","addressesInput":["addr1q8k3f4cuj9dsutunprhnlcke7tlnfx42jlm6wwrdkme79veat3ls9a9npj9nwps30mmf7k7s2nuf6peq0kf58e0spkqsdkqfu9","addr1q8k3f4cuj9dsutunprhnlcke7tlnfx42jlm6wwrdkme79veat3ls9a9npj9nwps30mmf7k7s2nuf6peq0kf58e0spkqsdkqfu9","addr1q8k3f4cuj9dsutunprhnlcke7tlnfx42jlm6wwrdkme79veat3ls9a9npj9nwps30mmf7k7s2nuf6peq0kf58e0spkqsdkqfu9","addr1q8k3f4cuj9dsutunprhnlcke7tlnfx42jlm6wwrdkme79veat3ls9a9npj9nwps30mmf7k7s2nuf6peq0kf58e0spkqsdkqfu9","addr1q8k3f4cuj9dsutunprhnlcke7tlnfx42jlm6wwrdkme79veat3ls9a9npj9nwps30mmf7k7s2nuf6peq0kf58e0spkqsdkqfu9","addr1q8k3f4cuj9dsutunprhnlcke7tlnfx42jlm6wwrdkme79veat3ls9a9npj9nwps30mmf7k7s2nuf6peq0kf58e0spkqsdkqfu9","addr1q8k3f4cuj9dsutunprhnlcke7tlnfx42jlm6wwrdkme79veat3ls9a9npj9nwps30mmf7k7s2nuf6peq0kf58e0spkqsdkqfu9","addr1q8k3f4cuj9dsutunprhnlcke7tlnfx42jlm6wwrdkme79veat3ls9a9npj9nwps30mmf7k7s2nuf6peq0kf58e0spkqsdkqfu9"],"addressesOutput":["addr1wxn9efv2f6w82hagxqtn62ju4m293tqvw0uhmdl64ch8uwc0h43gt","addr1q8k3f4cuj9dsutunprhnlcke7tlnfx42jlm6wwrdkme79veat3ls9a9npj9nwps30mmf7k7s2nuf6peq0kf58e0spkqsdkqfu9","addr1q8k3f4cuj9dsutunprhnlcke7tlnfx42jlm6wwrdkme79veat3ls9a9npj9nwps30mmf7k7s2nuf6peq0kf58e0spkqsdkqfu9"],"fee":216849,"totalOutput":45446892,"tokens":[]},{"hash":"3999c013ad64b9d003540f68d549097f88379318123e0aeac3b80ba62f1e2ae3","blockNo":7820453,"blockHash":"1409be2d5a7e3ec8d81bb9a4b358ffdeb48ed8077c5824061a302707d66ce4c5","epochNo":366,"epochSlotNo":157292,"slot":72906092,"time":"2022/09/29 17:26:23","addressesInput":["addr1qxxnydc79uwk3xc6zdvcr6hypp9tuu6yt0p7yw64qa0d0fwzjp9vft2da6skmq0s5rzn9gyrmstg4j29hht8ewxfy20qc8z4t0","addr1qxxnydc79uwk3xc6zdvcr6hypp9tuu6yt0p7yw64qa0d0fwzjp9vft2da6skmq0s5rzn9gyrmstg4j29hht8ewxfy20qc8z4t0"],"addressesOutput":["addr1zxj47sy4qxlktqzmkrw8dahe46gtv8seakrshsqz26qnvzypw288a4x0xf8pxgcntelxmyclq83s0ykeehchz2wtspksr3q9nx","addr1qxxnydc79uwk3xc6zdvcr6hypp9tuu6yt0p7yw64qa0d0fwzjp9vft2da6skmq0s5rzn9gyrmstg4j29hht8ewxfy20qc8z4t0","addr1qxxnydc79uwk3xc6zdvcr6hypp9tuu6yt0p7yw64qa0d0fwzjp9vft2da6skmq0s5rzn9gyrmstg4j29hht8ewxfy20qc8z4t0"],"fee":209941,"totalOutput":18234502,"tokens":[]},{"hash":"9e2ccd1e55d618ecadab8f3f7443c3ffefbebc8b24bae51afff38553459a4b20","blockNo":7820453,"blockHash":"1409be2d5a7e3ec8d81bb9a4b358ffdeb48ed8077c5824061a302707d66ce4c5","epochNo":366,"epochSlotNo":157292,"slot":72906092,"time":"2022/09/29 17:26:23","addressesInput":["addr1q9pfwmz7my89vy85pfmkeakdlvsjcnrg5wt275sgkejfhfc5dvq64ja4k05te50qdwdulh4hdqg0e2rqrjxfv0ar5lxqdmkytv"],"addressesOutput":["addr1qx820pkg0z5fpvl776njk7geeej0dhl055lvfr7ug7ctau7sqpcckf6f0awpm83ktq3h76cgekel4pj5v50dkjtk4cqsn9q8cc","addr1q8g8z8wtsx2lry3wju65c7s2fr5dl7zfdqadysl5h939rrg5dvq64ja4k05te50qdwdulh4hdqg0e2rqrjxfv0ar5lxqgt9lsd"],"fee":263885,"totalOutput":143027984,"tokens":[]},{"hash":"c305aad346b03a3fd467e03211e59e1f569f35b43d67c4f93fe4a7ad0b68832e","blockNo":7820453,"blockHash":"1409be2d5a7e3ec8d81bb9a4b358ffdeb48ed8077c5824061a302707d66ce4c5","epochNo":366,"epochSlotNo":157292,"slot":72906092,"time":"2022/09/29 17:26:23","addressesInput":["addr1q9kzd6uuret9996fj4k7ds8t43a4a9fgtg38xzawjkhzslym8yyvlykrd4zerhd8zvs9cwhqm639g0092ut7jyedc99q53swy5","addr1q9kzd6uuret9996fj4k7ds8t43a4a9fgtg38xzawjkhzslym8yyvlykrd4zerhd8zvs9cwhqm639g0092ut7jyedc99q53swy5","addr1q8nyadxeuamvm6llhaye5kz8eypceag52k8uydq2usycscym8yyvlykrd4zerhd8zvs9cwhqm639g0092ut7jyedc99qkckjyc"],"addressesOutput":["addr1wxn9efv2f6w82hagxqtn62ju4m293tqvw0uhmdl64ch8uwc0h43gt","addr1q9kzd6uuret9996fj4k7ds8t43a4a9fgtg38xzawjkhzslym8yyvlykrd4zerhd8zvs9cwhqm639g0092ut7jyedc99q53swy5","addr1q87eag8rzxcz86cw3n979mk3mfh0yzlxnk8t9hndl7qyh5vm8yyvlykrd4zerhd8zvs9cwhqm639g0092ut7jyedc99qhdvgs8"],"fee":232865,"totalOutput":52914503,"tokens":[]},{"hash":"8d527a407f8bd6b205c05b8ec9240b1d0579ff3aca7cfb0506a66bc0cfbce05d","blockNo":7820453,"blockHash":"1409be2d5a7e3ec8d81bb9a4b358ffdeb48ed8077c5824061a302707d66ce4c5","epochNo":366,"epochSlotNo":157292,"slot":72906092,"time":"2022/09/29 17:26:23","addressesInput":["addr1q887yv95zm6h7dxcf5z2uknjwzjshw6kt0svdydz27cy5k8rzr27g03klu862usxqsru794d03gzkk8n86ta34n85z0s4rnh8v","addr1qyr9rjzppxk3cej9uzd8ggcqcag63829eulmd0guhdzfqz8rzr27g03klu862usxqsru794d03gzkk8n86ta34n85z0sm6g2cg"],"addressesOutput":["addr1q8svlee79vjl9p6at2jxq90w5skhnat0p9hdx4hr6y2y0537deme999z6vkwrrnxc09nmq5wgh2urg4yy3ge0uwyyspqeaq9zj","addr1q9l9wvy2hwku8sdk08mtt65y7jnmm6w0z0z0ve3xz7kqcs8rzr27g03klu862usxqsru794d03gzkk8n86ta34n85z0s40lfq3"],"fee":174301,"totalOutput":23932460,"tokens":[]},{"hash":"0fb9be4b042c2c97e8e4195b680e0cc21780f5280d3a6d9f3045f453572cf051","blockNo":7820453,"blockHash":"1409be2d5a7e3ec8d81bb9a4b358ffdeb48ed8077c5824061a302707d66ce4c5","epochNo":366,"epochSlotNo":157292,"slot":72906092,"time":"2022/09/29 17:26:23","addressesInput":["addr1qydjcq6kvg29t75fpan9ph7dg4jtuts98dzzgc2txxykyxzpc4pj45nd4da6ezkwls9ztfmdghju6ppxmw84xvxr9rqqlsqyes","addr1qydjcq6kvg29t75fpan9ph7dg4jtuts98dzzgc2txxykyxzpc4pj45nd4da6ezkwls9ztfmdghju6ppxmw84xvxr9rqqlsqyes","addr1qydjcq6kvg29t75fpan9ph7dg4jtuts98dzzgc2txxykyxzpc4pj45nd4da6ezkwls9ztfmdghju6ppxmw84xvxr9rqqlsqyes","addr1qydjcq6kvg29t75fpan9ph7dg4jtuts98dzzgc2txxykyxzpc4pj45nd4da6ezkwls9ztfmdghju6ppxmw84xvxr9rqqlsqyes","addr1qydjcq6kvg29t75fpan9ph7dg4jtuts98dzzgc2txxykyxzpc4pj45nd4da6ezkwls9ztfmdghju6ppxmw84xvxr9rqqlsqyes"],"addressesOutput":["addr1v89w4j93c75dfh99qg5lhzvqx82984gh7r2ylh7pv8zzg4cxs67jj","addr1qydjcq6kvg29t75fpan9ph7dg4jtuts98dzzgc2txxykyxzpc4pj45nd4da6ezkwls9ztfmdghju6ppxmw84xvxr9rqqlsqyes"],"fee":173421,"totalOutput":278540006,"tokens":[]},{"hash":"6945984773433be50f41e0a48fb538ad4b4029511b420ea86ef01420ff8bac18","blockNo":7820453,"blockHash":"1409be2d5a7e3ec8d81bb9a4b358ffdeb48ed8077c5824061a302707d66ce4c5","epochNo":366,"epochSlotNo":157292,"slot":72906092,"time":"2022/09/29 17:26:23","addressesInput":["addr1q98pl42068yvuuk7yc5k7x6ulqucvtecv6k7q2j3hc69lcq9hql68u5mkxyv8u6azp20jpyhmqnj0pnd3qthu5ql8apsylnpph"],"addressesOutput":["addr1qy6whv03d38p0jkkqaq99anptjwzc3fje8gzgxwq72d294elgyn9segnyzr2kah5w6lxqhg9fuhwcqcx988rkgezensqrfpzs0","addr1qyjvdqzq74kef68r42dvs00qcd0qwrk3c7z4mmlwd62lstg9hql68u5mkxyv8u6azp20jpyhmqnj0pnd3qthu5ql8apsx9w0fq"],"fee":168317,"totalOutput":67817578,"tokens":[]},{"hash":"c746dc4fea10fca466e37bc5dc367a4de5cc63a4062d1ece46c41c3554cde5aa","blockNo":7820453,"blockHash":"1409be2d5a7e3ec8d81bb9a4b358ffdeb48ed8077c5824061a302707d66ce4c5","epochNo":366,"epochSlotNo":157292,"slot":72906092,"time":"2022/09/29 17:26:23","addressesInput":["addr1q9x7vr644x27zgwfwhpyunlw2f3awk59hnhm7sycw8zj2lafkv0jzuxxtcaq4her0p97j2hcf7l0rmkeum0plmph6vuqzk6j2y"],"addressesOutput":["addr1qxj0qd560cs97hn6f3cak8cg66rgdu4sy9dclj4ahflmtncah87skl6qdrdd694lt7elm8nxgtl3xt6zp89a525zhe4sq776la","addr1q9rt8q2axdvmweqks6mrgmnnm0v70ppd87wh49yvwplt7mafkv0jzuxxtcaq4her0p97j2hcf7l0rmkeum0plmph6vuqt73s49"],"fee":177601,"totalOutput":17028325251,"tokens":[]},{"hash":"2fa0baace3bf0169b37adf98cc0d2e33afe749a5bec7221aa9f7eecf53963c9e","blockNo":7820453,"blockHash":"1409be2d5a7e3ec8d81bb9a4b358ffdeb48ed8077c5824061a302707d66ce4c5","epochNo":366,"epochSlotNo":157292,"slot":72906092,"time":"2022/09/29 17:26:23","addressesInput":["addr1qy2wehd5lt6k67k2yv4qg4xdsh44n4mksxlj3ytq92jrmz8zwnjzy053m9tl5dg4cg5dsexel7h2v6gwsx06jkcq7ltqmnp3aj","addr1qy2wehd5lt6k67k2yv4qg4xdsh44n4mksxlj3ytq92jrmz8zwnjzy053m9tl5dg4cg5dsexel7h2v6gwsx06jkcq7ltqmnp3aj"],"addressesOutput":["addr1qytcg742r684qsw4tyf50f3n06ve96c02e0hyh85xxg4tz3jtn9swdaherysaxkwfkrplzn7m34mq9qdjfap27fwd3aqm44v3j","addr1qy2wehd5lt6k67k2yv4qg4xdsh44n4mksxlj3ytq92jrmz8zwnjzy053m9tl5dg4cg5dsexel7h2v6gwsx06jkcq7ltqmnp3aj","addr1qy2wehd5lt6k67k2yv4qg4xdsh44n4mksxlj3ytq92jrmz8zwnjzy053m9tl5dg4cg5dsexel7h2v6gwsx06jkcq7ltqmnp3aj"],"fee":176545,"totalOutput":55235578,"tokens":[]},{"hash":"aa721d097f0544defc83fad040462031f16d7ed0d5f602e148bd8cfbdad50837","blockNo":7820453,"blockHash":"1409be2d5a7e3ec8d81bb9a4b358ffdeb48ed8077c5824061a302707d66ce4c5","epochNo":366,"epochSlotNo":157292,"slot":72906092,"time":"2022/09/29 17:26:23","addressesInput":["addr1qxjactvptlvn9asffwr2xqw20ttj4zzy4xzg8muxa30wn66ra0yy0shnrhzg507rtnec9kegpfwtzuq5lnk9w6qkcfdqx4y0w8"],"addressesOutput":["addr1q985cykr75zcqt9hlln05cf4rr874kw535jhv5s5sqkx8p2ra0yy0shnrhzg507rtnec9kegpfwtzuq5lnk9w6qkcfdqyfnqe8","addr1q985cykr75zcqt9hlln05cf4rr874kw535jhv5s5sqkx8p2ra0yy0shnrhzg507rtnec9kegpfwtzuq5lnk9w6qkcfdqyfnqe8","addr1q985cykr75zcqt9hlln05cf4rr874kw535jhv5s5sqkx8p2ra0yy0shnrhzg507rtnec9kegpfwtzuq5lnk9w6qkcfdqyfnqe8","addr1q985cykr75zcqt9hlln05cf4rr874kw535jhv5s5sqkx8p2ra0yy0shnrhzg507rtnec9kegpfwtzuq5lnk9w6qkcfdqyfnqe8","addr1q985cykr75zcqt9hlln05cf4rr874kw535jhv5s5sqkx8p2ra0yy0shnrhzg507rtnec9kegpfwtzuq5lnk9w6qkcfdqyfnqe8","addr1q985cykr75zcqt9hlln05cf4rr874kw535jhv5s5sqkx8p2ra0yy0shnrhzg507rtnec9kegpfwtzuq5lnk9w6qkcfdqyfnqe8"],"fee":187457,"totalOutput":3083585398,"tokens":[]},{"hash":"01e2e778aaae46a55d3c2e90713d560585fcbbdda9fb490c4b4b42237a3c49ed","blockNo":7820453,"blockHash":"1409be2d5a7e3ec8d81bb9a4b358ffdeb48ed8077c5824061a302707d66ce4c5","epochNo":366,"epochSlotNo":157292,"slot":72906092,"time":"2022/09/29 17:26:23","addressesInput":["addr1qyvhwjwfan73ejau44cpq8t0gyg4wwgrkgteh45sxs4d7jhpe9vpfgp53dsk0a3u7909kpptha5s8ke6vdchx3wpxnqsx4qg4r","addr1qyvhwjwfan73ejau44cpq8t0gyg4wwgrkgteh45sxs4d7jhpe9vpfgp53dsk0a3u7909kpptha5s8ke6vdchx3wpxnqsx4qg4r","addr1qyvhwjwfan73ejau44cpq8t0gyg4wwgrkgteh45sxs4d7jhpe9vpfgp53dsk0a3u7909kpptha5s8ke6vdchx3wpxnqsx4qg4r","addr1qyvhwjwfan73ejau44cpq8t0gyg4wwgrkgteh45sxs4d7jhpe9vpfgp53dsk0a3u7909kpptha5s8ke6vdchx3wpxnqsx4qg4r"],"addressesOutput":["addr1zxj47sy4qxlktqzmkrw8dahe46gtv8seakrshsqz26qnvzypw288a4x0xf8pxgcntelxmyclq83s0ykeehchz2wtspksr3q9nx","addr1qyvhwjwfan73ejau44cpq8t0gyg4wwgrkgteh45sxs4d7jhpe9vpfgp53dsk0a3u7909kpptha5s8ke6vdchx3wpxnqsx4qg4r","addr1qyvhwjwfan73ejau44cpq8t0gyg4wwgrkgteh45sxs4d7jhpe9vpfgp53dsk0a3u7909kpptha5s8ke6vdchx3wpxnqsx4qg4r"],"fee":223757,"totalOutput":6185800,"tokens":[]},{"hash":"9e617a5a0d39dc9c76fb3661d7e389d93b2b2299bf950861f8d41fee5595312d","blockNo":7820452,"blockHash":"8bed7aeae3b0b7b5be126b86b07ceaa5460a7d7c2d27008a1fc2b9eab88fd5ab","epochNo":366,"epochSlotNo":157280,"slot":72906080,"time":"2022/09/29 17:26:11","addressesInput":["addr1qxy9jnzhf6nzqdwakked06377thpyzhg425gwnedpc8t2y6w2pp5l3alhy9gsam73su38t9c0wa87mezs526gc7xn9vq2lzg7t","addr1qxy9jnzhf6nzqdwakked06377thpyzhg425gwnedpc8t2y6w2pp5l3alhy9gsam73su38t9c0wa87mezs526gc7xn9vq2lzg7t","addr1qxy9jnzhf6nzqdwakked06377thpyzhg425gwnedpc8t2y6w2pp5l3alhy9gsam73su38t9c0wa87mezs526gc7xn9vq2lzg7t"],"addressesOutput":["addr1zxj47sy4qxlktqzmkrw8dahe46gtv8seakrshsqz26qnvzypw288a4x0xf8pxgcntelxmyclq83s0ykeehchz2wtspksr3q9nx","addr1qxy9jnzhf6nzqdwakked06377thpyzhg425gwnedpc8t2y6w2pp5l3alhy9gsam73su38t9c0wa87mezs526gc7xn9vq2lzg7t","addr1qxy9jnzhf6nzqdwakked06377thpyzhg425gwnedpc8t2y6w2pp5l3alhy9gsam73su38t9c0wa87mezs526gc7xn9vq2lzg7t"],"fee":220677,"totalOutput":9487383,"tokens":[]},{"hash":"2093c27e2188620b7b51802db2363e165395d066abd5795f3a47f89aa8fed3b5","blockNo":7820452,"blockHash":"8bed7aeae3b0b7b5be126b86b07ceaa5460a7d7c2d27008a1fc2b9eab88fd5ab","epochNo":366,"epochSlotNo":157280,"slot":72906080,"time":"2022/09/29 17:26:11","addressesInput":["addr1q8f6v5l9rfyuvqus6w88h7th65enzy68trdd77gxu9j5cnc477p9klp4jf4nxgyxu9m9qe99m0tevgd947lj9vgk9z3sss0gf2"],"addressesOutput":["addr1vyc7ca9flp5gfeapd78uxzzq7l6qnsytj85n62lr5smhgssen2u2s","addr1qxkguz2rzvt32rpaktk6chenuxmh2d505pklrjaljrwahvs477p9klp4jf4nxgyxu9m9qe99m0tevgd947lj9vgk9z3sm8yz5c"],"fee":167085,"totalOutput":80085409,"tokens":[]},{"hash":"f4f149d5fc34818f37bd77af986fe6df2f53d1cdf8fe60900f907b7199abc29c","blockNo":7820452,"blockHash":"8bed7aeae3b0b7b5be126b86b07ceaa5460a7d7c2d27008a1fc2b9eab88fd5ab","epochNo":366,"epochSlotNo":157280,"slot":72906080,"time":"2022/09/29 17:26:11","addressesInput":["addr1vyht4ja0zcn45qvyx477qlyp6j5ftu5ng0prt9608dxp6lgpnh5ft","addr1vyht4ja0zcn45qvyx477qlyp6j5ftu5ng0prt9608dxp6lgpnh5ft","addr1wxn9efv2f6w82hagxqtn62ju4m293tqvw0uhmdl64ch8uwc0h43gt","addr1z8snz7c4974vzdpxu65ruphl3zjdvtxw8strf2c2tmqnxz2j2c79gy9l76sdg0xwhd7r0c0kna0tycz4y5s6mlenh8pq0xmsha"],"addressesOutput":["addr1vyht4ja0zcn45qvyx477qlyp6j5ftu5ng0prt9608dxp6lgpnh5ft","addr1vyht4ja0zcn45qvyx477qlyp6j5ftu5ng0prt9608dxp6lgpnh5ft","addr1q9ljyuf9d6lyt47tt3jl2dewxvdu6qh29ed47wdls8vzckspwp2lynzfdwglm839kafrq3g826jury4ghwlmvv6nq6tqfjfw5r","addr1z8snz7c4974vzdpxu65ruphl3zjdvtxw8strf2c2tmqnxz2j2c79gy9l76sdg0xwhd7r0c0kna0tycz4y5s6mlenh8pq0xmsha"],"fee":800635,"totalOutput":1578004911150,"tokens":[]},{"hash":"a350efc61300f1565ef979477c2d9bf97be51e49d5fb7d52810706ffa9bb0c57","blockNo":7820452,"blockHash":"8bed7aeae3b0b7b5be126b86b07ceaa5460a7d7c2d27008a1fc2b9eab88fd5ab","epochNo":366,"epochSlotNo":157280,"slot":72906080,"time":"2022/09/29 17:26:11","addressesInput":["addr1q9dndrnv9w9xjkn4l8prfg98mwnes74amczkcdgcd460eqcf4q9ugsdqcxdsh7sec7tqhf8pphpwmrv0mx99tqszfeuqz886e2"],"addressesOutput":["addr1q9dndrnv9w9xjkn4l8prfg98mwnes74amczkcdgcd460eqcf4q9ugsdqcxdsh7sec7tqhf8pphpwmrv0mx99tqszfeuqz886e2"],"fee":171573,"totalOutput":203239803,"tokens":[]},{"hash":"f927d0d948371c78923ab493ee5ba179242c6ac33535dfeb0bce118493e666e3","blockNo":7820452,"blockHash":"8bed7aeae3b0b7b5be126b86b07ceaa5460a7d7c2d27008a1fc2b9eab88fd5ab","epochNo":366,"epochSlotNo":157280,"slot":72906080,"time":"2022/09/29 17:26:11","addressesInput":["addr1qykk9ue0wmnky9mh453ln84tf472036wqmhj46a45m6a8xqpqyck03v2n0nhz94r39gymw6q9xa0d8pg6daf3rsz7y3qdy8m9t","addr1qykk9ue0wmnky9mh453ln84tf472036wqmhj46a45m6a8xqpqyck03v2n0nhz94r39gymw6q9xa0d8pg6daf3rsz7y3qdy8m9t"],"addressesOutput":["addr1zxj47sy4qxlktqzmkrw8dahe46gtv8seakrshsqz26qnvzypw288a4x0xf8pxgcntelxmyclq83s0ykeehchz2wtspksr3q9nx","addr1qykk9ue0wmnky9mh453ln84tf472036wqmhj46a45m6a8xqpqyck03v2n0nhz94r39gymw6q9xa0d8pg6daf3rsz7y3qdy8m9t","addr1qykk9ue0wmnky9mh453ln84tf472036wqmhj46a45m6a8xqpqyck03v2n0nhz94r39gymw6q9xa0d8pg6daf3rsz7y3qdy8m9t"],"fee":223581,"totalOutput":7355523,"tokens":[]},{"hash":"17530ac9f251630a67b59529dc4cd62fe0bb4219add6793f46a24a9da7db34ff","blockNo":7820452,"blockHash":"8bed7aeae3b0b7b5be126b86b07ceaa5460a7d7c2d27008a1fc2b9eab88fd5ab","epochNo":366,"epochSlotNo":157280,"slot":72906080,"time":"2022/09/29 17:26:11","addressesInput":["addr1q9n9ukqgnzl7gtm9g9fj9mczjc8jmtlapryn3nw25l4743u7gx8f5mnacuvsw9njdlex9r5yr22lxs544uc6swc4jq6qgnhg9u","addr1q9n9ukqgnzl7gtm9g9fj9mczjc8jmtlapryn3nw25l4743u7gx8f5mnacuvsw9njdlex9r5yr22lxs544uc6swc4jq6qgnhg9u"],"addressesOutput":["addr1zxj47sy4qxlktqzmkrw8dahe46gtv8seakrshsqz26qnvzypw288a4x0xf8pxgcntelxmyclq83s0ykeehchz2wtspksr3q9nx","addr1q9n9ukqgnzl7gtm9g9fj9mczjc8jmtlapryn3nw25l4743u7gx8f5mnacuvsw9njdlex9r5yr22lxs544uc6swc4jq6qgnhg9u","addr1q9n9ukqgnzl7gtm9g9fj9mczjc8jmtlapryn3nw25l4743u7gx8f5mnacuvsw9njdlex9r5yr22lxs544uc6swc4jq6qgnhg9u"],"fee":239113,"totalOutput":8002388,"tokens":[]},{"hash":"e900a03e9cbec4820630278a1f80215c93e6e1fe51c93e4d87e4ad87a49db1a7","blockNo":7820452,"blockHash":"8bed7aeae3b0b7b5be126b86b07ceaa5460a7d7c2d27008a1fc2b9eab88fd5ab","epochNo":366,"epochSlotNo":157280,"slot":72906080,"time":"2022/09/29 17:26:11","addressesInput":["addr1qxf5vmarscyr5sm99d8zcx80x07jzpdrlq5ngfvunde8rfqwyfsxvfyl629mgkz54n78altt809f3cxtd9s0qwpajnrsx9wpvf","addr1w999n67e86jn6xal07pzxtrmqynspgx0fwmcmpua4wc6yzsxpljz3"],"addressesOutput":["addr1qxf5vmarscyr5sm99d8zcx80x07jzpdrlq5ngfvunde8rfqwyfsxvfyl629mgkz54n78altt809f3cxtd9s0qwpajnrsx9wpvf","addr1qxf5vmarscyr5sm99d8zcx80x07jzpdrlq5ngfvunde8rfqwyfsxvfyl629mgkz54n78altt809f3cxtd9s0qwpajnrsx9wpvf","addr1qxf5vmarscyr5sm99d8zcx80x07jzpdrlq5ngfvunde8rfqwyfsxvfyl629mgkz54n78altt809f3cxtd9s0qwpajnrsx9wpvf"],"fee":485356,"totalOutput":51076971,"tokens":[]}],"totalItems":50875058,"totalPages":2543753,"currentPage":0}