{"data":[{"txId":58909535,"txHash":"e9dee3f907b4cd7084cf4dfddaf087e31204d74d8f566aa9cfabb0b66309f66b","txTime":"2023/01/05 05:37:41","block":8229970,"epoch":385,"slotNo":81330770,"epochSlotNo":373970,"stakeKey":"stake1uyfc5ms6h7fek0h80pg0sud2dnhz55d8nyal7p980jdw3mcnd2wga"},{"txId":58909188,"txHash":"4f6b098856d69ef66a1802392b213901c2438686fdba39b9f22bd892e9327754","txTime":"2023/01/05 05:27:43","block":8229939,"epoch":385,"slotNo":81330172,"epochSlotNo":373372,"stakeKey":"stake1uyzlux9yylmudv0qja9mtmv7j6kqu3tqnxlfds4dkwvnpscsfrh08"},{"txId":58907849,"txHash":"a0b9ef7718932138deab7a33ee2294dd9d08b3ac3f515714831e251d5e5432e8","txTime":"2023/01/05 04:48:24","block":8229810,"epoch":385,"slotNo":81327813,"epochSlotNo":371013,"stakeKey":"stake1uxpcu7ejjskam6t9mu9arsvtr5hxkhma4nyt68nccx3pf9g50z8cf"},{"txId":58906833,"txHash":"286abec9331503f24375a94c341662a12b695bede3ee196f8af52bf42df6b8b4","txTime":"2023/01/05 04:21:43","block":8229731,"epoch":385,"slotNo":81326212,"epochSlotNo":369412,"stakeKey":"stake1u8fsz6ujf60vvxeyw2dkuqcv8fvm835s7wzth9kvus7mttg3c2sjz"},{"txId":58906614,"txHash":"0a6a66bfafabc0a9940085364c9b3ba676d15d73b8c7b5476516c6716b13d4cc","txTime":"2023/01/05 04:15:56","block":8229716,"epoch":385,"slotNo":81325865,"epochSlotNo":369065,"stakeKey":"stake1uxvcvf5c9fr5mmke2ne65v395x3gux252sl9t3meur6ehasq4vaaa"},{"txId":58906592,"txHash":"ab08e8024cfb582456b4f3c6d338e183259fd5b942b0cefe227dd381806cc623","txTime":"2023/01/05 04:15:53","block":8229715,"epoch":385,"slotNo":81325862,"epochSlotNo":369062,"stakeKey":"stake1ux076mq52clpx3stjnmg7hnp7slnxmjzndfp6k3xad7l9eqxvfc0q"},{"txId":58906561,"txHash":"2f9b51dd4776962afde667c2ef2b998f0275329a77d6949f3a70315571e27083","txTime":"2023/01/05 04:15:53","block":8229715,"epoch":385,"slotNo":81325862,"epochSlotNo":369062,"stakeKey":"stake1uyev2fpvuu0fyg3sqcy54scw9trx7plu5t0rskgpuudn9kqzakm8f"},{"txId":58905982,"txHash":"781105db205a4b2669871c7d189bf6d4d74a15f2333bf6ee4a97e12f4e7c565a","txTime":"2023/01/05 03:58:11","block":8229668,"epoch":385,"slotNo":81324800,"epochSlotNo":368000,"stakeKey":"stake1uxretcm58670t3fajyukf0ugzpt09vf2u8vma2cdpeskkag3mrypj"},{"txId":58905621,"txHash":"7ddd9e72b0ca8705c9699c8f8dbee6af04a7c388d89e7a544d9b9d6cd1e4f74d","txTime":"2023/01/05 03:47:47","block":8229647,"epoch":385,"slotNo":81324176,"epochSlotNo":367376,"stakeKey":"stake1uyp2nrmkkvz824skvt3z2tqlneely3yzanjn8aw2xfylwlg75s3fa"},{"txId":58905492,"txHash":"9ce08ffe8d1d7cfbfe809ff0885bbe6a4faad9a87bad0e1df7f9c315ab45afd3","txTime":"2023/01/05 03:44:07","block":8229634,"epoch":385,"slotNo":81323956,"epochSlotNo":367156,"stakeKey":"stake1u8h6ll7trca8yds9nsvzwxat9468shmd9hpy5uezljcfwcsra36fn"},{"txId":58905455,"txHash":"f9391653ccb5edf53fc7333d181498185bc74d427dabec77e48da6f18d5fdb62","txTime":"2023/01/05 03:43:30","block":8229631,"epoch":385,"slotNo":81323919,"epochSlotNo":367119,"stakeKey":"stake1u8n3l02ytgeesgn2qkx4xxr3x84wz5w6c8vj52k9vjvwgwsvlgmwh"},{"txId":58905398,"txHash":"432335dcee81038c4678ff76117dcf00c69ed7a41a34ed6169dc713b295b2df0","txTime":"2023/01/05 03:41:41","block":8229627,"epoch":385,"slotNo":81323810,"epochSlotNo":367010,"stakeKey":"stake1uytr8anak0vpkw78rntx5t4wl5ttv2qnn6mnl0a2nwhufnsf4g73e"},{"txId":58905156,"txHash":"d2c97ee2cbad0890e3b90b4caa90dc6a6cb582bef01a09cac89ab3abe1cfa15b","txTime":"2023/01/05 03:35:20","block":8229610,"epoch":385,"slotNo":81323429,"epochSlotNo":366629,"stakeKey":"stake1uxmpypwjcv0xrz7d2zflfr9mr9cuh39k5m7zqdcwqs5v8acldnd5u"},{"txId":58904556,"txHash":"98abaf50a5d05a083cca990011411ed816a965241f464424cfa89127909329f6","txTime":"2023/01/05 03:22:15","block":8229569,"epoch":385,"slotNo":81322644,"epochSlotNo":365844,"stakeKey":"stake1u8uwmdrgdhtapmhs54ds9k4m7j0q8vtj9l424vlea3jvp9cf9d9g5"},{"txId":58904539,"txHash":"1c954068cad515e18d2f4d5a5a68c63a06a8c5a598621841ae1622cef07da59d","txTime":"2023/01/05 03:21:32","block":8229567,"epoch":385,"slotNo":81322601,"epochSlotNo":365801,"stakeKey":"stake1uxdly98cw2vm4rq7rqaxws8nu8lpfde028nczjkv33vd8zsvgqgm2"},{"txId":58904201,"txHash":"2c79fde6f9b017129b38a87f1890f3eb720744194244c5e2ed3ce0a8402d17c0","txTime":"2023/01/05 03:13:50","block":8229539,"epoch":385,"slotNo":81322139,"epochSlotNo":365339,"stakeKey":"stake1u88qj09a9dnw09gft7l7cs4tdrxq7rgj6jtwxqls5f44xnqc73zkw"},{"txId":58903845,"txHash":"d60101309734bd3c6f832639bb9e03cf3e0f9817f43119586aa6c6d4dfc7b1dc","txTime":"2023/01/05 03:05:25","block":8229514,"epoch":385,"slotNo":81321634,"epochSlotNo":364834,"stakeKey":"stake1uxcgwc6aatmkkggxac6y6m3q7cde60yq5pl3ks5h3fmgk7sxtnhe4"},{"txId":58903162,"txHash":"e21967632127a4638919fdac21550476efd989fb6da0b3e53cc39e3b7c372b63","txTime":"2023/01/05 02:51:03","block":8229468,"epoch":385,"slotNo":81320772,"epochSlotNo":363972,"stakeKey":"stake1uy4xjjy3dskhmzp6858rkge8m4tqt5r6h542fkltpazjn8s69sgy7"},{"txId":58902969,"txHash":"de0827f5b3d3da8dd6617db411ff2f7f1e9e931801da531fd7f5035ad8a9d9cc","txTime":"2023/01/05 02:46:43","block":8229459,"epoch":385,"slotNo":81320512,"epochSlotNo":363712,"stakeKey":"stake1uyv2vzrnm2v448ejc0gwgw3jntyf47ed6axpxx5yx0s49qgtjle6t"},{"txId":58900341,"txHash":"100ad6288944f64cb421e105cb0a30d0d6cca9775fca8334970338b897028b48","txTime":"2023/01/05 01:52:15","block":8229310,"epoch":385,"slotNo":81317244,"epochSlotNo":360444,"stakeKey":"stake1u96075st8p059nj7rda3grtgrkawgt9g708y072pv0x0prqs4u82n"}],"totalItems":341927,"totalPages":17097,"currentPage":0}