{"data":[{"blockNo":8122485,"slotNo":79124903,"epochNo":380,"epochSlotNo":328103,"hash":"525ac0aced24d62fbb2bd86d6557916a0c4de8c387e19336e2f188c5b4767738","time":"2022/12/10 16:53:14","txCount":17,"totalFees":5696461,"totalOutput":59088101525,"slotLeader":"0775f0139af22e1ebf2c3278598816946e750029b70eace3c5135c3e"},{"blockNo":8122484,"slotNo":79124877,"epochNo":380,"epochSlotNo":328077,"hash":"0391f0869cbbe809d1821de32c9bf5655948176a1f6d44a7197e9721f78753c4","time":"2022/12/10 16:52:48","txCount":21,"totalFees":8218784,"totalOutput":1749482889660,"slotLeader":"643472a2db02c7f92f787355a2be6206d44201517594211a887b1e88"},{"blockNo":8122483,"slotNo":79124850,"epochNo":380,"epochSlotNo":328050,"hash":"ced41e5633fac380f36b74d27b0a68872a39bbd3d3f385c1e077ae8e5d874c44","time":"2022/12/10 16:52:21","txCount":2,"totalFees":811127,"totalOutput":2558327585,"slotLeader":"0001a003afb844ce6d9409fc49e049db654a78dc77f1151cb6cd548f"},{"blockNo":8122482,"slotNo":79124847,"epochNo":380,"epochSlotNo":328047,"hash":"a1512f9c0a7c9729a57a0d0927d7f5629877d784e1e03605cf93a8df6b295f55","time":"2022/12/10 16:52:18","txCount":14,"totalFees":4201363,"totalOutput":13191438799,"slotLeader":"17a6a1f2fb36d9ef275805db17409af7ab753b9d27bdd41b89510bb9"},{"blockNo":8122481,"slotNo":79124824,"epochNo":380,"epochSlotNo":328024,"hash":"4fc5b8596051cdb4be7b275f2256659613948088ecedf5bfbcd76c5318588a28","time":"2022/12/10 16:51:55","txCount":30,"totalFees":8741901,"totalOutput":631847009200,"slotLeader":"9a22c008779c455a124d86191047d35690a0ca2c094a34d90cd29542"},{"blockNo":8122480,"slotNo":79124786,"epochNo":380,"epochSlotNo":327986,"hash":"2ecdd6f2585d198293e2b6ba4b6b5d03d9eeadf89ffb25bc2de984a4c01950ba","time":"2022/12/10 16:51:17","txCount":3,"totalFees":1616173,"totalOutput":888238985,"slotLeader":"fddc2812f7f376e2bb82f00d3dfd42a65348be3f0fa464420a04fab5"},{"blockNo":8122479,"slotNo":79124784,"epochNo":380,"epochSlotNo":327984,"hash":"e5be88cf2177f450710ba83236c934faae69ea4a0476c11a7cf7d39c254840ee","time":"2022/12/10 16:51:15","txCount":19,"totalFees":5911574,"totalOutput":34501149593,"slotLeader":"b405a62715301a625c2fd5eb3f5b16be9f1f3f0452f5b8b9286997c4"},{"blockNo":8122478,"slotNo":79124781,"epochNo":380,"epochSlotNo":327981,"hash":"8bf84b9062ce3e83bc876536541509ea0a28ec0db5494dea0337ab07a1dfac08","time":"2022/12/10 16:51:12","txCount":28,"totalFees":11976914,"totalOutput":1539763553348,"slotLeader":"ed40b0a319f639a70b1e2a4de00f112c4f7b7d4849f0abd25c4336a4"},{"blockNo":8122477,"slotNo":79124723,"epochNo":380,"epochSlotNo":327923,"hash":"17b6c84934f67231c5a5efa83438b590a8d38179182c4ca7dcf4c949d5a11c18","time":"2022/12/10 16:50:14","txCount":14,"totalFees":4015203,"totalOutput":3980196977875,"slotLeader":"72583cf41012446cd1ca839c10049ecd65d31664b11e63d286041d61"},{"blockNo":8122476,"slotNo":79124702,"epochNo":380,"epochSlotNo":327902,"hash":"31824b4964beeb71c2693ecf69fcf6d465415e3b869fbb90554130ae657584ad","time":"2022/12/10 16:49:53","txCount":19,"totalFees":7045717,"totalOutput":17739951572907,"slotLeader":"571b0be3f126255004d9828f37f11026551b9ca391c4aed3b05d6a75"},{"blockNo":8122475,"slotNo":79124677,"epochNo":380,"epochSlotNo":327877,"hash":"a7f1d00ce72d8aa588e137633223da5c31a42080931f0ed5e846f6f605aeaa1f","time":"2022/12/10 16:49:28","txCount":1,"totalFees":339840,"totalOutput":199301330,"slotLeader":"849cdde779a0a0faaa4276dac342f762bd6c84d6cbf637a92a20bb88"},{"blockNo":8122474,"slotNo":79124675,"epochNo":380,"epochSlotNo":327875,"hash":"15b54e04518826b5c3a630a7ab69ef588dd83038feaef36b3e7fe93eb02b0b1d","time":"2022/12/10 16:49:26","txCount":6,"totalFees":1935625,"totalOutput":375934631735,"slotLeader":"dd7330d29709deb4e8dff5b49d50b174c9c884678992cca4a68d96d7"},{"blockNo":8122473,"slotNo":79124667,"epochNo":380,"epochSlotNo":327867,"hash":"f9cd7409dd31d7c7ab4b2563088aff7cbaa79b6baa5ed6609eaec15eeab583e9","time":"2022/12/10 16:49:18","txCount":4,"totalFees":1207393,"totalOutput":5112782228,"slotLeader":"446109cdad3e7dfc6e0bb4be5ecf25df02fcc2ec8f6df46a3ca2c537"},{"blockNo":8122472,"slotNo":79124657,"epochNo":380,"epochSlotNo":327857,"hash":"2e2a90cadc35384aa7849be5d5d527d2d619b628815f4a7e968784b82be02454","time":"2022/12/10 16:49:08","txCount":29,"totalFees":9638174,"totalOutput":175707553762,"slotLeader":"f619a10b7ccea6167c5f169634e834b57739c2db892185f2efa9f1eb"},{"blockNo":8122471,"slotNo":79124628,"epochNo":380,"epochSlotNo":327828,"hash":"4a0b8f8e9a993a5af8b001ea6ea5fbb0b1f4a24ead899e37bb026b8dde35cb41","time":"2022/12/10 16:48:39","txCount":22,"totalFees":9847435,"totalOutput":24321599984423,"slotLeader":"0c2e0c5a062389a3fd6fafddae26344d490866d7a34cad981b20f96b"},{"blockNo":8122470,"slotNo":79124613,"epochNo":380,"epochSlotNo":327813,"hash":"1a8e4c3f663c027511904826b2d102cd50ec3c9f904d0660de3f3098550f0bf9","time":"2022/12/10 16:48:24","txCount":40,"totalFees":12121236,"totalOutput":6712938573045,"slotLeader":"f747045bf6584b0e92d4b0bbdb399f8c9c4c082ff239c3288d7f0280"},{"blockNo":8122469,"slotNo":79124561,"epochNo":380,"epochSlotNo":327761,"hash":"5a17654bbd92e5429cc7f42e8c8ee3f7c7d8012b644023530945bebe22148e53","time":"2022/12/10 16:47:32","txCount":44,"totalFees":12069429,"totalOutput":2262519405601,"slotLeader":"c6fbd4e484a28211695206e1b53f1409e7cef8c62d3f6b24bab2f600"},{"blockNo":8122468,"slotNo":79124524,"epochNo":380,"epochSlotNo":327724,"hash":"e618f60f6dbc734d0a3471a2e09eb2bde018bd944b5b55dd448f7154fbb8f8dd","time":"2022/12/10 16:46:55","txCount":41,"totalFees":13857010,"totalOutput":1253301804131,"slotLeader":"463e481957f266d93e4decbfb73003380ab17223e0e569f71c7a525a"},{"blockNo":8122467,"slotNo":79124397,"epochNo":380,"epochSlotNo":327597,"hash":"b96b9e53511d7b6f3c6ea4dcdf33c57c148d55dfe5a9a3e90ce9dd1397b8046b","time":"2022/12/10 16:44:48","txCount":18,"totalFees":4638133,"totalOutput":61127444197,"slotLeader":"d4a3b639d0f0b050cbfc25dad467af58355f31edbc4959db1cc59051"},{"blockNo":8122466,"slotNo":79124366,"epochNo":380,"epochSlotNo":327566,"hash":"bf3709b3072bf3f0e9459bb09c1f6f20ab5af862376d2938ecf3eadf7d78e1ff","time":"2022/12/10 16:44:17","txCount":2,"totalFees":450110,"totalOutput":64818065,"slotLeader":"a10865dae2d543ee9f13e98bff70ea81565bb6e4343b15b765f78174"}],"totalItems":8122661,"totalPages":406134,"currentPage":0}