{"data":[{"hash":"067a7d1779640b8cc0e64f6a48514eeccf27c83dd38fa6eb60c3a5880fdb3d90","blockNo":8056915,"blockHash":"580604838daa4775f60c4522f6058cb2715b2928f51e55bb1c096eff6ed2f791","epochNo":377,"epochSlotNo":278811,"slot":77779611,"time":"2022/11/25 03:11:42","addressesInput":["DdzFFzCqrhspEt88SDDJBV65ayGAs2kZiYa5g5T82Ki14sdPtFcYvXpGvp2TxYQD33V9bw269TuAnv1vBZzXN8SRh5aGogsxt86Pawv4","DdzFFzCqrht7p5RySDs7bRPUvAukRewWjrXADkRssdw2kHUHFfr7gkFHhvuTtxL4r7YrmWcs8JwtqFrnmipKcpDMa1AnrQapy61yq3dd","DdzFFzCqrhsjLf3DZF1rnTRGhjBHE7nm1pt2wrPfxCTQaaTUktyxpC5fqvuuybJfm2yFa1hMF7qSMrz6m2AMhcChYJbnDAiJyh1Z3JFV","DdzFFzCqrhtBT1BoxSarMMa4DMWtRopGsuCsPkW6nDs2qdZR49wJxtWTuV4VywrsScRH8d8n6no2vjVfhn1HVZ1Nv7JGpSekMWh3RyE8"],"addressesOutput":["addr1q9atjfpqwdtg7ytz0pz9zcaqvx8zr2uv6ysvc4csqynr683dzefudzxhadht99nh8gv4l3z93d486ygllgxuh2drrrpsdw6fws","DdzFFzCqrhseqHYLzqckEFWuHkAHRBCo13bs3Za9nHoQr5s5PHbr6vedtEArfcWsCr6XUKbh2a2Bf5wqdAcPBbKwP5zHAxbST4Dfiuiv","DdzFFzCqrhspi4rq6u3W7w5ZdtSunHdo3vfJg8fo33Nhn7BDyYoYgRmMm32iXqTLCDQDDCrZiT7P8YBAhD9V5mZxeWunifXvsBRaBW9X","DdzFFzCqrht1XpCaGMrnznXWAcujySGGNWN9YQ7rDjv5cRXWfoiBhooDZoFAJkYUyZkBqFWWLLq3Zetgoi3hAgmQWK3AajHisDZLaVRD","DdzFFzCqrhsnyvNCYF3XimRaf7VbiW8Z1Bc7sxBFkTJaNBps4f5hqiYJCrmNG8n8t6EM5srGfHnnTKHZZDVzaoqcfWezQ8S3MGirygFz"],"fee":907341,"totalOutput":53973689014,"tokens":[]},{"hash":"f566ca7dfc01a9cdaa64c375650e53bbfeea409f3f66768e9cd98f3f82998724","blockNo":8056340,"blockHash":"1df2f7a33274b523b783aa9be496d39f4013684bc7163afa387efd228a25b382","epochNo":377,"epochSlotNo":267251,"slot":77768051,"time":"2022/11/24 23:59:02","addressesInput":["addr1q998pukrcdhp2zrvx87eyjwfzkrcyv4lflaqa2f7w9dsdkz2wrev8smwz5yxcv0ajfyuj9v8sget7nl6p65nuu2mqmvq05pxha","addr1q998pukrcdhp2zrvx87eyjwfzkrcyv4lflaqa2f7w9dsdkz2wrev8smwz5yxcv0ajfyuj9v8sget7nl6p65nuu2mqmvq05pxha"],"addressesOutput":["addr1q998pukrcdhp2zrvx87eyjwfzkrcyv4lflaqa2f7w9dsdkz2wrev8smwz5yxcv0ajfyuj9v8sget7nl6p65nuu2mqmvq05pxha","addr1q998pukrcdhp2zrvx87eyjwfzkrcyv4lflaqa2f7w9dsdkz2wrev8smwz5yxcv0ajfyuj9v8sget7nl6p65nuu2mqmvq05pxha"],"fee":237985,"totalOutput":882669364448,"tokens":[]},{"hash":"f175dfa395a4f64b3bf984e398df2fb0bd1fb8d63819af88549049e7086a7b9e","blockNo":8056165,"blockHash":"61e9c329756f52ccc1c1362fe909b9075741c8a4f43cddd78bd7ebcfb7f9dd40","epochNo":377,"epochSlotNo":263927,"slot":77764727,"time":"2022/11/24 23:03:38","addressesInput":["addr1qygu2npfzvxq5ea3ts3a6nk6uhklw0cd79gxhn0pkavampkhttwyktnm6dca79xc2lmr0vzwnleqxa30mhslcggyw7vs5pdd7x","addr1qygu2npfzvxq5ea3ts3a6nk6uhklw0cd79gxhn0pkavampkhttwyktnm6dca79xc2lmr0vzwnleqxa30mhslcggyw7vs5pdd7x","addr1qygu2npfzvxq5ea3ts3a6nk6uhklw0cd79gxhn0pkavampkhttwyktnm6dca79xc2lmr0vzwnleqxa30mhslcggyw7vs5pdd7x","addr1qxvgj63qaukn9h3xuz5w2mgu9mxa7dmzsr5jy2htw3edja7httwyktnm6dca79xc2lmr0vzwnleqxa30mhslcggyw7vs384p5f"],"addressesOutput":["addr1qygu2npfzvxq5ea3ts3a6nk6uhklw0cd79gxhn0pkavampkhttwyktnm6dca79xc2lmr0vzwnleqxa30mhslcggyw7vs5pdd7x","addr1qygu2npfzvxq5ea3ts3a6nk6uhklw0cd79gxhn0pkavampkhttwyktnm6dca79xc2lmr0vzwnleqxa30mhslcggyw7vs5pdd7x","addr1qygu2npfzvxq5ea3ts3a6nk6uhklw0cd79gxhn0pkavampkhttwyktnm6dca79xc2lmr0vzwnleqxa30mhslcggyw7vs5pdd7x"],"fee":485249,"totalOutput":40543722,"tokens":[]},{"hash":"4deee2c058c54f31b0171dfdf8e436ae05e1003072869faf0ad1a457a106d364","blockNo":8056082,"blockHash":"2f55d6ecc98d2817f061d06a33528f5c571208fcde5fcfd086be0e44b59dbd0d","epochNo":377,"epochSlotNo":262160,"slot":77762960,"time":"2022/11/24 22:34:11","addressesInput":["addr1qygu2npfzvxq5ea3ts3a6nk6uhklw0cd79gxhn0pkavampkhttwyktnm6dca79xc2lmr0vzwnleqxa30mhslcggyw7vs5pdd7x","addr1qygu2npfzvxq5ea3ts3a6nk6uhklw0cd79gxhn0pkavampkhttwyktnm6dca79xc2lmr0vzwnleqxa30mhslcggyw7vs5pdd7x"],"addressesOutput":["addr1vxg5lz80pchunnk55k89gc2x0gcm67mqmsneqqz7c0qu33srlvdjh","addr1qygu2npfzvxq5ea3ts3a6nk6uhklw0cd79gxhn0pkavampkhttwyktnm6dca79xc2lmr0vzwnleqxa30mhslcggyw7vs5pdd7x"],"fee":369661,"totalOutput":28027880,"tokens":[]},{"hash":"f29f2ce9752e0d4fb53069cb1fd797c8a12775209195004b62951e3e1863c546","blockNo":8055829,"blockHash":"5c5e2b1ccf675a21fa25896e412d55a9f63368836c7023e8cd5a107d7071965b","epochNo":377,"epochSlotNo":256663,"slot":77757463,"time":"2022/11/24 21:02:34","addressesInput":["addr1qx2u89qfc2nvk8lj84gjjcu7eku4d09w32y2ek7j42lamvl54c048ekzfsyzfez2c2qsghzsfy9e0uphlgjeqjx2zh4qfm9mua","addr1qx2u89qfc2nvk8lj84gjjcu7eku4d09w32y2ek7j42lamvl54c048ekzfsyzfez2c2qsghzsfy9e0uphlgjeqjx2zh4qfm9mua"],"addressesOutput":["addr1zyq0kyrml023kwjk8zr86d5gaxrt5w8lxnah8r6m6s4jp4g3r6dxnzml343sx8jweqn4vn3fz2kj8kgu9czghx0jrsyqqktyhv","addr1qx2u89qfc2nvk8lj84gjjcu7eku4d09w32y2ek7j42lamvl54c048ekzfsyzfez2c2qsghzsfy9e0uphlgjeqjx2zh4qfm9mua"],"fee":279326,"totalOutput":34341440,"tokens":[]},{"hash":"8d2d1095931a370b05bc41ab57eb7e949588a7debab7691bbb989828ba8e26ec","blockNo":8055552,"blockHash":"ef122f5e1fdf84d78862d5269e1174112d91aa1b1e15d8607a118b8bde4b1105","epochNo":377,"epochSlotNo":250609,"slot":77751409,"time":"2022/11/24 19:21:40","addressesInput":["addr1q9qhuuwtp3gpk4d0g6rl3tfa7qgx7zr7j7g5nm0wxc7gk2evqmvrrnylulhd86eukeqplqwvtpezppk66lnzufcy74fsphqnke","addr1q9qhuuwtp3gpk4d0g6rl3tfa7qgx7zr7j7g5nm0wxc7gk2evqmvrrnylulhd86eukeqplqwvtpezppk66lnzufcy74fsphqnke"],"addressesOutput":["addr1qyewjz9ywyem7q663cqt63vfy5m5sydnxk8l8q3kpnfm9vkvg6c6jtwpmyyap683cned3mz3e0utathsuwyaahndyddqn7ep9x","addr1q9wp82yqcj4fsxs0xcsrgh2kdyqzxx20mmzxvap4pvgygcpvqmvrrnylulhd86eukeqplqwvtpezppk66lnzufcy74fsat2rp2","addr1q9wp82yqcj4fsxs0xcsrgh2kdyqzxx20mmzxvap4pvgygcpvqmvrrnylulhd86eukeqplqwvtpezppk66lnzufcy74fsat2rp2"],"fee":300053,"totalOutput":24324354,"tokens":[]},{"hash":"57c164ee6cfacff12eb0bf2f54caac60c4f5ba690ae25dddb25b2f5d09e0efa3","blockNo":8055545,"blockHash":"65a0aa4432b0146b915634e501a18cbbfb6a6d23ac524baaaf147d55eb99a2dc","epochNo":377,"epochSlotNo":250428,"slot":77751228,"time":"2022/11/24 19:18:39","addressesInput":["addr1qxu5vdcyhnv2vhwh50cyy7czvlx6p9kg288qle28h5cpjd3vqmvrrnylulhd86eukeqplqwvtpezppk66lnzufcy74fs08nw7e","addr1qxu5vdcyhnv2vhwh50cyy7czvlx6p9kg288qle28h5cpjd3vqmvrrnylulhd86eukeqplqwvtpezppk66lnzufcy74fs08nw7e","addr1qxu5vdcyhnv2vhwh50cyy7czvlx6p9kg288qle28h5cpjd3vqmvrrnylulhd86eukeqplqwvtpezppk66lnzufcy74fs08nw7e","addr1q995674rz0c5qcmrk36xxf8dm46ejdq5fpzhellzkvmda23vqmvrrnylulhd86eukeqplqwvtpezppk66lnzufcy74fsxe09nu"],"addressesOutput":["addr1q9qhuuwtp3gpk4d0g6rl3tfa7qgx7zr7j7g5nm0wxc7gk2evqmvrrnylulhd86eukeqplqwvtpezppk66lnzufcy74fsphqnke","addr1q9qhuuwtp3gpk4d0g6rl3tfa7qgx7zr7j7g5nm0wxc7gk2evqmvrrnylulhd86eukeqplqwvtpezppk66lnzufcy74fsphqnke"],"fee":304805,"totalOutput":24624407,"tokens":[]},{"hash":"1d774bf8fe25a822e1fdcf8c1c8a45117939ab2f2af56f46f95cd4bd6bd043c1","blockNo":8055523,"blockHash":"f1de9362e098583865b9dd59812f214d7b53d615aaa92491d976a444c110ba18","epochNo":377,"epochSlotNo":249856,"slot":77750656,"time":"2022/11/24 19:09:07","addressesInput":["addr1q837uacfzyz8dut9w88nwp0h2acfpghaz6dd5e3cwnzhc2fvqmvrrnylulhd86eukeqplqwvtpezppk66lnzufcy74fs7eyf3t","addr1q837uacfzyz8dut9w88nwp0h2acfpghaz6dd5e3cwnzhc2fvqmvrrnylulhd86eukeqplqwvtpezppk66lnzufcy74fs7eyf3t","addr1q837uacfzyz8dut9w88nwp0h2acfpghaz6dd5e3cwnzhc2fvqmvrrnylulhd86eukeqplqwvtpezppk66lnzufcy74fs7eyf3t","addr1q837uacfzyz8dut9w88nwp0h2acfpghaz6dd5e3cwnzhc2fvqmvrrnylulhd86eukeqplqwvtpezppk66lnzufcy74fs7eyf3t","addr1q837uacfzyz8dut9w88nwp0h2acfpghaz6dd5e3cwnzhc2fvqmvrrnylulhd86eukeqplqwvtpezppk66lnzufcy74fs7eyf3t","addr1q837uacfzyz8dut9w88nwp0h2acfpghaz6dd5e3cwnzhc2fvqmvrrnylulhd86eukeqplqwvtpezppk66lnzufcy74fs7eyf3t","addr1q8hgjqn565qg6vnhk00p9055n5fy25fz70qgcgs34flkl5fvqmvrrnylulhd86eukeqplqwvtpezppk66lnzufcy74fst5laq7","addr1qyuua2j8q9g28zmwg6z3dgsfdxaryrw8qnw3xj9ghl3xlf3vqmvrrnylulhd86eukeqplqwvtpezppk66lnzufcy74fstga0ef","addr1q837uacfzyz8dut9w88nwp0h2acfpghaz6dd5e3cwnzhc2fvqmvrrnylulhd86eukeqplqwvtpezppk66lnzufcy74fs7eyf3t","addr1q837uacfzyz8dut9w88nwp0h2acfpghaz6dd5e3cwnzhc2fvqmvrrnylulhd86eukeqplqwvtpezppk66lnzufcy74fs7eyf3t","addr1q9t29xzhez72vgchy28k5d4w66fcuy6yygappv59m9s5au3vqmvrrnylulhd86eukeqplqwvtpezppk66lnzufcy74fstaljzg","addr1q844m3jg06kgs9a7vgskrsaemdlth22yqdhrygn69r9eweevqmvrrnylulhd86eukeqplqwvtpezppk66lnzufcy74fskyyt7e","addr1qyuq48g3rn9dkqnrc5x43wf33hee07fhnc7mj2v8sqmfd7evqmvrrnylulhd86eukeqplqwvtpezppk66lnzufcy74fscgnx7e"],"addressesOutput":["addr1qxu5vdcyhnv2vhwh50cyy7czvlx6p9kg288qle28h5cpjd3vqmvrrnylulhd86eukeqplqwvtpezppk66lnzufcy74fs08nw7e","addr1qxu5vdcyhnv2vhwh50cyy7czvlx6p9kg288qle28h5cpjd3vqmvrrnylulhd86eukeqplqwvtpezppk66lnzufcy74fs08nw7e","addr1qxu5vdcyhnv2vhwh50cyy7czvlx6p9kg288qle28h5cpjd3vqmvrrnylulhd86eukeqplqwvtpezppk66lnzufcy74fs08nw7e","addr1qxu5vdcyhnv2vhwh50cyy7czvlx6p9kg288qle28h5cpjd3vqmvrrnylulhd86eukeqplqwvtpezppk66lnzufcy74fs08nw7e","addr1qxu5vdcyhnv2vhwh50cyy7czvlx6p9kg288qle28h5cpjd3vqmvrrnylulhd86eukeqplqwvtpezppk66lnzufcy74fs08nw7e"],"fee":345505,"totalOutput":37889616,"tokens":[]},{"hash":"8ab2997d4c206979b51f00a83a0a8a8d5823dea879fac14413751d11cb107693","blockNo":8055521,"blockHash":"9e71766f83c730b5fffa14a95b0b9837ed144c1b88c0ce31abad6b65d3893150","epochNo":377,"epochSlotNo":249811,"slot":77750611,"time":"2022/11/24 19:08:22","addressesInput":["addr1qy2h2wmggxsa4x4l5r0k2lmmq4x7snx9259ul49xev7jqyca49c73yv32axatm687gp8req4y0v6thvmec00sz5fdn3svg9dp7","addr1qy2h2wmggxsa4x4l5r0k2lmmq4x7snx9259ul49xev7jqyca49c73yv32axatm687gp8req4y0v6thvmec00sz5fdn3svg9dp7","addr1qxgmrpp5t4520d9g0m5mcmpe9klv22h8kpvml6k6wvrgewqa49c73yv32axatm687gp8req4y0v6thvmec00sz5fdn3syqnm5d"],"addressesOutput":["addr1qyg5yk36ee0rhl5hw5kxcfng5ygrsv55tuchs0nxjmh9uqmpmpaxya7n6kzmyy6f72st0akwx8zg5n6emrxa5mhywg9q3v23dv","addr1qxgmrpp5t4520d9g0m5mcmpe9klv22h8kpvml6k6wvrgewqa49c73yv32axatm687gp8req4y0v6thvmec00sz5fdn3syqnm5d","addr1qxgmrpp5t4520d9g0m5mcmpe9klv22h8kpvml6k6wvrgewqa49c73yv32axatm687gp8req4y0v6thvmec00sz5fdn3syqnm5d"],"fee":400901,"totalOutput":306497673,"tokens":[]},{"hash":"3397c6776022b8ee5f1fb681e8f40fe8047e0c854d277493744de4250340cf46","blockNo":8055374,"blockHash":"a0653802e99077a245b6a35fa75cbde946b26a09590fb70e8ec73de7a4f29f7a","epochNo":377,"epochSlotNo":247174,"slot":77747974,"time":"2022/11/24 18:24:25","addressesInput":["DdzFFzCqrhsvYfkqV41WQv7s7P1ZCGLAvVCX4UWyRiykwDWvGFar8BkYEWgarKUgqjsTdCJqqvb1GeNWEmuA2MgPWNUXe4ukzsbvpsSo","DdzFFzCqrhsyVefFkRWheNFqpzgZQ9JoMgK61Zj7vZMCYjR1Zf2jUcPuUK3vgND1W7u2UfXZr9sE2xRqetWw92D7trBEBfpzFeMuDk4m","DdzFFzCqrhsj1WDBa39JpnFFKxUZRoFHsWhBwRWy9Ec2R8Kp27TBohQRDWiMErDEvxenEeeFm3i2eZQUTynJef5o8EpVA4jURC4U9BX7","DdzFFzCqrhsqUrwiX9ZjnrRcebZCcEEmznEJrVHph4tWvpgYNvpBzPg6tg11jLjGeF4PhCfcEvpTrvyqfwSWUcoCW79W5HED96MzQX5v","DdzFFzCqrht3isZeDjrGo4eYtYPUen3TWYGKtz93t8Bga8PBYzYBDH9xKeKH3NThm2YAnrGfg1JmDk9cDLgp4T5RDenrDQrDzetUy53P","DdzFFzCqrhtBkBXdHT8U3KhcDDRJoL18tUAh2M9MgtLLE2DBzQYKtkP27CrkwivCLKK24guTrs6NBXxhy9JquurjwQo7HYb24H8hkbx9","DdzFFzCqrhsfx2HmKDFvtLNBYZ79HbVnPYDLSWRiJaBendzKwFgga2RkagWFrGxQk1XqDSx4MD3uGeA6JDD39ChPhhB4oUhKxt8HCaie","DdzFFzCqrhssVcgqxM7tU5r8rumPQJpJuhLHADeKTGmgyZ1NZYo8TSPiRSZUsrYiABEXkKDLX8TYgM2ge8XVamd1RfWLb1QPBgwcTeVu","DdzFFzCqrhspGqXHLwbSt3ShmyNw6CNRebwmYn5yVP1kmY8B8qnR9tsK61q1BS9qcyQ55zuw7eKipXeRQ84KkEuit5NeQ7dZc85XC7rQ","DdzFFzCqrhsqYyhkQg7XdEpH8ebUykRuQYYt17Xtd5CW54UBPPQDfoffv9T9VzQVdTS3PpBdWhHFyWD2yYPduLbZJzDup7LyPbeWoauN","DdzFFzCqrhsv42TLDD5tcB6emASU4HPkEspu23QF8NFmX45Tog6LzLGgzMozGfn1wTePsSDyejtZttHf4LeZ5DnqHauZFULusyCP8Ki9","DdzFFzCqrhsteScYMt4ACRbh9KNHuNKDNgTEM5yRGC44RaeaJNEeWWGoLMiNUmvuYc9ULK1R5qhDQsFqwXqTPvwWP5DEWK9YF7ijB8i7","DdzFFzCqrht9efhcmuJtn1hPoJeVYc9pCNz1aGv5FRZ8LdpK2DWpdwNzmG62ZnuPVUM6twvz1Db3X7gZdYBbVeL2YzEFMf793kndoQ8e","DdzFFzCqrhsm1BrcNMqi3sa3NtwEkgME1uCeU5dxxtTNkp7iCSpczVk9ofykmtBNrzWer3rzrnyGaCk2PhY9jQpjahhBMjahvkMRek9h","DdzFFzCqrhsiwnUVLfYMu1f29W3vTWjvkXEmoGVKZy7Q443k3oK6ydBxyxejNCubeax5hYksDKishkaqRHUkKHeu9Zj8qB6xgi1UYAXy","DdzFFzCqrht516SZUnend85YfMfmHaRhZ8VJbDqW2fYep3t4QAncJmodokptKu26zaW9RdUPyVFmmYEB4LqqWV3N2oXViBWuDRAWNXcs","DdzFFzCqrht5Zq2CWTqZQ6SpGZ3GEp69vVWJmmsyb6pyNoz5dbyMVotCxszJBkohbjeBe7skyLcjy3vtVKyYPjdMq49p36tMMHNAa3em","DdzFFzCqrhsyNXHJzAZDc21zyjVEGaV4EBHk82G3HjtRbUPJLPPhNjARCPtK7QqHHzSSfke4CgtswuWEzdkp5YeCa6bWpgzRF92jXEDB","DdzFFzCqrhtAwvDtS8aLfsRa9XNaGsqoQrc8xUYq2EESdBNp1ZF5EYk25SZWhphGYTLxvmWmk1c8B9HHDU71myFqTF3nej6K42jZ53g4","DdzFFzCqrhskpAKmJcMt5hXw2e9FgCndL8HU2YipVvaoLwREuruhJRfTwA1WcG1UeaRG8FutfmajsnDdu19J7T7iPwcGS7gwrjV1hXLQ","DdzFFzCqrhskpAKmJcMt5hXw2e9FgCndL8HU2YipVvaoLwREuruhJRfTwA1WcG1UeaRG8FutfmajsnDdu19J7T7iPwcGS7gwrjV1hXLQ","DdzFFzCqrhsyggSvPrw2FPGcRaBAAW2YNqfMgcDmiPHQvnXp8rnu9xnboxnRh5sYCfxZ2BejczjNA9cqUuGzL7YJ3dv3rSFMYJdqCHmp","DdzFFzCqrhsqcjCXnp5J8PHMWQEhQPrZXscTyFG2b4ae7CXEK7r17htDNj4xkRVhKaqz3hDowzdPZKTYVKXxQdqg5mWJbKzozWyGi1SH","DdzFFzCqrhtAhsTSEa8Pfe6nyxeXKTYpUUtj3idGhx5ihkgoRwPqXhQSCHbvyxZ31kxSXXrorA9mwwMBD9izkMaDvsNFCSnMn4Cte311","DdzFFzCqrht8dAq8srtvV4eESDTMC75MWEkGuX4EPw8KBss3NureRN2AK9rginmCLuUEih6QDutnPRmPZCa8XUfBPQ9vJHWZBzTFnHpb","DdzFFzCqrht8XCjw82aC9VWE4cgrEV7tUiRAuNWrRnZBv8fYkf1KRnwV8H5XUgbyY9yVARu6zHWDLQN8Kbnk9spqtBqNn5kMoTYB4FM8"],"addressesOutput":["addr1q9atjfpqwdtg7ytz0pz9zcaqvx8zr2uv6ysvc4csqynr683dzefudzxhadht99nh8gv4l3z93d486ygllgxuh2drrrpsdw6fws","DdzFFzCqrhtBT1BoxSarMMa4DMWtRopGsuCsPkW6nDs2qdZR49wJxtWTuV4VywrsScRH8d8n6no2vjVfhn1HVZ1Nv7JGpSekMWh3RyE8","DdzFFzCqrhsmHyViLF735i3qq1mjnatXBWmTWzfVPjpf16S9pciasuL2XRtaS5rTAekEm6DyxSsh9BgAeHKwYp5n9BAFboDh68UYgrBW","DdzFFzCqrhspEt88SDDJBV65ayGAs2kZiYa5g5T82Ki14sdPtFcYvXpGvp2TxYQD33V9bw269TuAnv1vBZzXN8SRh5aGogsxt86Pawv4","DdzFFzCqrht7p5RySDs7bRPUvAukRewWjrXADkRssdw2kHUHFfr7gkFHhvuTtxL4r7YrmWcs8JwtqFrnmipKcpDMa1AnrQapy61yq3dd"],"fee":1120301,"totalOutput":54945786356,"tokens":[]},{"hash":"0149859a7be8e41d51fb13bf31fa59698e618a35727842d8425b493eac3b45e8","blockNo":8055330,"blockHash":"9e4db56cd14a67815e01d8cc1e60ef66faca240a20c3505fa5f86995daa08616","epochNo":377,"epochSlotNo":246278,"slot":77747078,"time":"2022/11/24 18:09:29","addressesInput":["addr1q93hzek4pf2ck7z4pmznjyfwfnmd29ncgehdthqcjnakd5cny8gzqr4zgv5yggpwte59fd67a9llag3zf5qhaqgw55yqn0axew","addr1q93hzek4pf2ck7z4pmznjyfwfnmd29ncgehdthqcjnakd5cny8gzqr4zgv5yggpwte59fd67a9llag3zf5qhaqgw55yqn0axew","addr1q93hzek4pf2ck7z4pmznjyfwfnmd29ncgehdthqcjnakd5cny8gzqr4zgv5yggpwte59fd67a9llag3zf5qhaqgw55yqn0axew","addr1q93hzek4pf2ck7z4pmznjyfwfnmd29ncgehdthqcjnakd5cny8gzqr4zgv5yggpwte59fd67a9llag3zf5qhaqgw55yqn0axew"],"addressesOutput":["addr1wxn9efv2f6w82hagxqtn62ju4m293tqvw0uhmdl64ch8uwc0h43gt","addr1q93hzek4pf2ck7z4pmznjyfwfnmd29ncgehdthqcjnakd5cny8gzqr4zgv5yggpwte59fd67a9llag3zf5qhaqgw55yqn0axew","addr1q93hzek4pf2ck7z4pmznjyfwfnmd29ncgehdthqcjnakd5cny8gzqr4zgv5yggpwte59fd67a9llag3zf5qhaqgw55yqn0axew"],"fee":262037,"totalOutput":1300732032,"tokens":[]},{"hash":"c0fe9ce0c6dd8bdd8e6f75371a26d938796f8c1feb78dc7199b362862937bf18","blockNo":8054908,"blockHash":"53e17d09a12c73ea2dc9ad35a59b024a9d4071bd10bc9347c017c32e9f9dc712","epochNo":377,"epochSlotNo":237763,"slot":77738563,"time":"2022/11/24 15:47:34","addressesInput":["addr1qxys73l3hryn8fc2ph0vpq0d202spw33tadhycczsywtvtv3628la2lcg3lqy85p5je4yrgza2kr0aus4sszeqxaudus7n9958","addr1qxys73l3hryn8fc2ph0vpq0d202spw33tadhycczsywtvtv3628la2lcg3lqy85p5je4yrgza2kr0aus4sszeqxaudus7n9958","addr1qxys73l3hryn8fc2ph0vpq0d202spw33tadhycczsywtvtv3628la2lcg3lqy85p5je4yrgza2kr0aus4sszeqxaudus7n9958"],"addressesOutput":["addr1q9ad5mud938r7l24eaac4v57ydlj72hazgprts9f7daaz09mm95jvs5h94099yglxr7v6ug6pp43780huy040lm4utmqx8g5eu","addr1wxn9efv2f6w82hagxqtn62ju4m293tqvw0uhmdl64ch8uwc0h43gt","addr1qxys73l3hryn8fc2ph0vpq0d202spw33tadhycczsywtvtv3628la2lcg3lqy85p5je4yrgza2kr0aus4sszeqxaudus7n9958","addr1qxys73l3hryn8fc2ph0vpq0d202spw33tadhycczsywtvtv3628la2lcg3lqy85p5je4yrgza2kr0aus4sszeqxaudus7n9958"],"fee":497038,"totalOutput":1497305893,"tokens":[]},{"hash":"cf5ee20305fd96523f02c66c8af2b60abf60bf4496590ecd3f8f7a3f9f60cde8","blockNo":8054890,"blockHash":"5d7a9576a9184d68bed4ad4c182ddc8d9e849d3cdb6f8d7194aea6b49675f67f","epochNo":377,"epochSlotNo":237479,"slot":77738279,"time":"2022/11/24 15:42:50","addressesInput":["addr1qxys73l3hryn8fc2ph0vpq0d202spw33tadhycczsywtvtv3628la2lcg3lqy85p5je4yrgza2kr0aus4sszeqxaudus7n9958","addr1qxys73l3hryn8fc2ph0vpq0d202spw33tadhycczsywtvtv3628la2lcg3lqy85p5je4yrgza2kr0aus4sszeqxaudus7n9958","addr1qxys73l3hryn8fc2ph0vpq0d202spw33tadhycczsywtvtv3628la2lcg3lqy85p5je4yrgza2kr0aus4sszeqxaudus7n9958"],"addressesOutput":["addr1q9ad5mud938r7l24eaac4v57ydlj72hazgprts9f7daaz09mm95jvs5h94099yglxr7v6ug6pp43780huy040lm4utmqx8g5eu","addr1wxr2a8htmzuhj39y2gq7ftkpxv98y2g67tg8zezthgq4jkg0a4ul4","addr1qxys73l3hryn8fc2ph0vpq0d202spw33tadhycczsywtvtv3628la2lcg3lqy85p5je4yrgza2kr0aus4sszeqxaudus7n9958","addr1qxys73l3hryn8fc2ph0vpq0d202spw33tadhycczsywtvtv3628la2lcg3lqy85p5je4yrgza2kr0aus4sszeqxaudus7n9958"],"fee":499194,"totalOutput":181332133,"tokens":[]},{"hash":"8e512304f2107d357e60c1bd681e35f942ff78959d53432e643ae8bad4bad545","blockNo":8054868,"blockHash":"2a7c2937fded4d9acc51d601aeeac48a2939f8dae225a34b7a640cc4ef7a55c0","epochNo":377,"epochSlotNo":236960,"slot":77737760,"time":"2022/11/24 15:34:11","addressesInput":["DdzFFzCqrhsqmPb9SdjbTBzheEzE9A7V6Rpm4h6YvQq7i1QjzZAFxDo81dvAcykg3Ls3oScR82AExyj1XZ87qg34H4U8HCXDGV3KtnWQ","DdzFFzCqrhstn8iZDRe4TNLorJLXpWjtG1GAmQrBgnd8tAp88nmUu5MLCrC88Fo9Q9Bh98LRJzCinrSVyYfjitSe5qpVt4mujzuPWJJe","DdzFFzCqrhspUoZGCcaHovegZD7oGCgb7UAqWmPZik5Qdsti7vXGMg1cf1dWTDJdMdJg1fNLzAct2jmjauUT8GbPB1VayyU66jsPdmuT","DdzFFzCqrhseW8RKCVMQ9DpqRHaHPP9i95MQmEHCBxJbVv92oM3SMG3EDqmKJzP4W9jhTTJvgSg8EWHG7CVraAPvXj2A7EQq8CpVY38X","DdzFFzCqrhtC7aUYMQPukpKifCr1umaP7VTWknNnfDYkKcDbq9RU39RUhRUtULpBV3feBfJL57QQnGEBPA9net8WttBghgV4CWbNK9No","DdzFFzCqrhseaNi9oaYUjBXqiejb4LUs44wZN4teypar8FSfupRvKt8nGWRcDys2jyDxCpdUckJnrpdBFNcT2oWSwEJax5pBu7eKhpoD","DdzFFzCqrhssvkF7NMpBAwvvcYUVZJmBCT3TKWR1uiinJS32CA1ioLqda7fKVqYRW6nwgWSyK2n1oCjQqomMQtP44BDK8kYZ928CrPr4","DdzFFzCqrhsgdb8LcTUZf6jnXQzGf2LjNpqEZY6Rw2rpq3C6Ky1jjGMwNUvPKwF4yNYSHYzwfsL2eZtnVNFzwyhnJTGcy1dGQXkRANfz","DdzFFzCqrhtD5P3JPd5BTGpHfkJoaq3Fah1w5nuXHrvrYDF1TUzJyZLQ1SxqcaJMahJ6duFjfJJTz6r4qEFWDRqtn4VWWh31M7cEZyUq","DdzFFzCqrhsrg6TqS6mUJpjTBK8CewXznvD8cf4kxgrRUS4E1JZ5xe65SPfXQq9ns1wLR4YXsA1rpZ8cdd3the78qjtfi2gXAqYdVJjZ","DdzFFzCqrht8QJjzGskGzzZfW8U4eTVNoZNKeCQKTzCFgdNZfuixBFEYCGSbivM7CkJ3Af3yziZ6yH9xzSKbyu978F7RFRyyvM7JqcP2","DdzFFzCqrhsygHZrjW4ZueAHRg5tX4AsE2fNcGGwEiDEjspnTnpLbMoDEtyHaEKmtTgZu6sgy8Hg6HXqEMXUbgVKPaiVknxszoWLjDnX","DdzFFzCqrht3yt3GK3s66Dzo3YGZQRKmhez2Y8c4NJwFaLwuTZEtB2Jqg9rsPMzpAhDHXyrAKHkGLXJYR1x8s1Ef82AkjY4kXuJ4e9Wm","DdzFFzCqrht4EN9nmdQRSqvor8oe1js3dm1fXnCEXY3nto5YscjVyuUJbfGXuaffj4iAQg7myRP7YFTZsA1BkBNHVJK8iPDAYhFAWXGg","DdzFFzCqrht2SgCex7v93FK7cZ3arHv5vjhPTxh7asC41eu9pwVm3GzTdxCS5DrjiLEqf7cE5JpE9qh7TC1guQRmG5b5JTVv1RLFosXZ","DdzFFzCqrhsnaV4DTb2oQJ5CnDD1XG4YZiZbGNDMx2fpDB1hrjkJsDEZp2Pb2yM5ZLYsZxoCQaQZFLEfMAH9m6gzfXgM9h6hicbAXfCY","DdzFFzCqrhtC2WFAVE49KNkYB11xEv8kXeo9EcgDV1VcwhYvzwLj4wfJ3QqgZpHaTZHYwnhuktLTYPZsBBMVAXKfoekrZTpF7qNRZpfg","DdzFFzCqrhspccuPxutok2bVFsrVj6v1QNMYHbjNG12nfJtJHH8bzuCo88NrpjCQHMx2Zph6k99k4xXXPwmBsZFTrJLXmuQzPChDfJJf","DdzFFzCqrhsuvKPM3jnehgg1hLM2gkghr8TBLgHjFuz3zYKQEGAppy71Cow9eUsSnw2UGyHAhc4WhGYoJtJhGkKgpqvmhs3SNmEZ4BCH","DdzFFzCqrhswk61ZKUAn9x9cFb6DsWfxESUhRKaFvZmcZdYyZEew3vxjrJ645vixQtRoq5vywtqawn6BVBPJJeT5LFu193bW8aNmstA5","DdzFFzCqrhtC8DFxC4yzeoByAw8TcTADdPZAKEBqnq6ToKokUpvYrjB8LzeqiG3yRuHtgfL8Fkquernv2ufHHEsvnQEpp8pMZnGqZ4RH"],"addressesOutput":["addr1q9atjfpqwdtg7ytz0pz9zcaqvx8zr2uv6ysvc4csqynr683dzefudzxhadht99nh8gv4l3z93d486ygllgxuh2drrrpsdw6fws","DdzFFzCqrhsqYyhkQg7XdEpH8ebUykRuQYYt17Xtd5CW54UBPPQDfoffv9T9VzQVdTS3PpBdWhHFyWD2yYPduLbZJzDup7LyPbeWoauN","DdzFFzCqrhsfx2HmKDFvtLNBYZ79HbVnPYDLSWRiJaBendzKwFgga2RkagWFrGxQk1XqDSx4MD3uGeA6JDD39ChPhhB4oUhKxt8HCaie","DdzFFzCqrhtBkBXdHT8U3KhcDDRJoL18tUAh2M9MgtLLE2DBzQYKtkP27CrkwivCLKK24guTrs6NBXxhy9JquurjwQo7HYb24H8hkbx9","DdzFFzCqrhsyVefFkRWheNFqpzgZQ9JoMgK61Zj7vZMCYjR1Zf2jUcPuUK3vgND1W7u2UfXZr9sE2xRqetWw92D7trBEBfpzFeMuDk4m"],"fee":1071901,"totalOutput":52169094937,"tokens":[]},{"hash":"8710cf2b5899ae68ab89d64c03de2aaf016bd23f835e39bec49cc6c526c9083f","blockNo":8054854,"blockHash":"1d7357c0ff84e5e9c46a6e1ef27e074e5e1168a36a72e35ea4b843178bed61ab","epochNo":377,"epochSlotNo":236600,"slot":77737400,"time":"2022/11/24 15:28:11","addressesInput":["addr1qxys73l3hryn8fc2ph0vpq0d202spw33tadhycczsywtvtv3628la2lcg3lqy85p5je4yrgza2kr0aus4sszeqxaudus7n9958","addr1qxys73l3hryn8fc2ph0vpq0d202spw33tadhycczsywtvtv3628la2lcg3lqy85p5je4yrgza2kr0aus4sszeqxaudus7n9958","addr1qxys73l3hryn8fc2ph0vpq0d202spw33tadhycczsywtvtv3628la2lcg3lqy85p5je4yrgza2kr0aus4sszeqxaudus7n9958","addr1qxys73l3hryn8fc2ph0vpq0d202spw33tadhycczsywtvtv3628la2lcg3lqy85p5je4yrgza2kr0aus4sszeqxaudus7n9958"],"addressesOutput":["addr1q9ad5mud938r7l24eaac4v57ydlj72hazgprts9f7daaz09mm95jvs5h94099yglxr7v6ug6pp43780huy040lm4utmqx8g5eu","addr1wxr2a8htmzuhj39y2gq7ftkpxv98y2g67tg8zezthgq4jkg0a4ul4","addr1qxys73l3hryn8fc2ph0vpq0d202spw33tadhycczsywtvtv3628la2lcg3lqy85p5je4yrgza2kr0aus4sszeqxaudus7n9958","addr1qxys73l3hryn8fc2ph0vpq0d202spw33tadhycczsywtvtv3628la2lcg3lqy85p5je4yrgza2kr0aus4sszeqxaudus7n9958"],"fee":500690,"totalOutput":1525501327,"tokens":[]},{"hash":"a02af7cfa6a26d2a89281295d595250a19980bd4344f68eb5cb4679e3b15b3c3","blockNo":8054845,"blockHash":"c5216cc2204a1b0eb761cff6a1d0a66802fce5e424879e440802754fdb2571de","epochNo":377,"epochSlotNo":236351,"slot":77737151,"time":"2022/11/24 15:24:02","addressesInput":["addr1qxys73l3hryn8fc2ph0vpq0d202spw33tadhycczsywtvtv3628la2lcg3lqy85p5je4yrgza2kr0aus4sszeqxaudus7n9958","addr1qxys73l3hryn8fc2ph0vpq0d202spw33tadhycczsywtvtv3628la2lcg3lqy85p5je4yrgza2kr0aus4sszeqxaudus7n9958","addr1qxys73l3hryn8fc2ph0vpq0d202spw33tadhycczsywtvtv3628la2lcg3lqy85p5je4yrgza2kr0aus4sszeqxaudus7n9958"],"addressesOutput":["addr1q9ad5mud938r7l24eaac4v57ydlj72hazgprts9f7daaz09mm95jvs5h94099yglxr7v6ug6pp43780huy040lm4utmqx8g5eu","addr1wxr2a8htmzuhj39y2gq7ftkpxv98y2g67tg8zezthgq4jkg0a4ul4","addr1qxys73l3hryn8fc2ph0vpq0d202spw33tadhycczsywtvtv3628la2lcg3lqy85p5je4yrgza2kr0aus4sszeqxaudus7n9958","addr1qxys73l3hryn8fc2ph0vpq0d202spw33tadhycczsywtvtv3628la2lcg3lqy85p5je4yrgza2kr0aus4sszeqxaudus7n9958"],"fee":501130,"totalOutput":120433957,"tokens":[]},{"hash":"87382fdeb6406da778022c2d580f8caa5084ec93e341c853fbc3d7e00a55c7d3","blockNo":8054554,"blockHash":"45f56e0e588606a45c8c780eaa9698ba544179dca20ef043facd7a911154ba19","epochNo":377,"epochSlotNo":230339,"slot":77731139,"time":"2022/11/24 13:43:50","addressesInput":["addr1qxa7hxs2plv3ghfvm2ds0ddlgljjmr870nyj0dcuttr9emmhy29z9apw4amvddq7cz3u2c6jffld2rlzcrmuk57cdvcsnml3cx","addr1qxa7hxs2plv3ghfvm2ds0ddlgljjmr870nyj0dcuttr9emmhy29z9apw4amvddq7cz3u2c6jffld2rlzcrmuk57cdvcsnml3cx","addr1qxa7hxs2plv3ghfvm2ds0ddlgljjmr870nyj0dcuttr9emmhy29z9apw4amvddq7cz3u2c6jffld2rlzcrmuk57cdvcsnml3cx","addr1qxa7hxs2plv3ghfvm2ds0ddlgljjmr870nyj0dcuttr9emmhy29z9apw4amvddq7cz3u2c6jffld2rlzcrmuk57cdvcsnml3cx"],"addressesOutput":["addr1q9k29p2t25c5lddmtf4ksy04p6s637v2hh2gl2kca7nmwpyc9g8ms57q2l8n3mk2egfavyjn45gl4jn6sm3w7l4edejsem37yq","addr1qxa7hxs2plv3ghfvm2ds0ddlgljjmr870nyj0dcuttr9emmhy29z9apw4amvddq7cz3u2c6jffld2rlzcrmuk57cdvcsnml3cx","addr1qxa7hxs2plv3ghfvm2ds0ddlgljjmr870nyj0dcuttr9emmhy29z9apw4amvddq7cz3u2c6jffld2rlzcrmuk57cdvcsnml3cx"],"fee":232689,"totalOutput":39537366,"tokens":[]},{"hash":"a04d56e097ae7000b9bb668d3a233f92d53df20c4a76fdde5b53d0cdc5bd589f","blockNo":8054508,"blockHash":"5623fe5df9368ab7cf23115c3037f39339892d6c08cab86fb5f590e693638cba","epochNo":377,"epochSlotNo":229211,"slot":77730011,"time":"2022/11/24 13:25:02","addressesInput":["DdzFFzCqrhsrrkbCjpvPnHVkcsmdNizHWFwzCVobkazukTqbgkU2NuwKD5joKhJRKPzcNyzx7DzUTX6y1J6HGWJUGZfVnVdqdCPUw1Jo","DdzFFzCqrht4fYmn1hEnSjzMeaVcUTWNhuMyiGa31Km5SzjP1nQxNTGFwZFbhhAXrEW46XsFyEWhDse5TDihz71ZwDKsUvPM8HvHvbbJ","DdzFFzCqrhspNoYSbZpfVW1v71gDvans1uLzA3ihGEGTUReKXxLShRTHw5NGir9dbwLm2ALH5uXGnBNVZC6ubd4zZn7dufRSS3HzLGfq","DdzFFzCqrhsw2jPmAp4wKuV51xCUs8taBDW1zpTx3s1KTdzk5GfHAXbJ9pkvQPsiTyMsuJSqbNHKc5jaGLicHVXMCQ3YYAmsrpqWNUmN","DdzFFzCqrhswyaVeDivwizUqDJhgzLqJFsE63Pw42ZXAZZ3Vmawie5VAkPzR8bSr6rbZwg1QWfAqaVDHwPYDWgMTJd1a8GxNThAcQaw9","DdzFFzCqrhsesPUdMCQUELqoV5MXLZMpM3xaMshuTJr6rg8i938yZmVdjdrXsNjD9doBve12S7iLo3nr9VvYpK4LengxkExCRDy7syBK","DdzFFzCqrhsn9KhCAAaZdsw7xxpY7iRGJFEKcar48y1q48rHJAeCYFQcYa6vfaz7hK8NwcULDhHu2KHzNGsJoWP3snUuV9o9FchAqfv8","DdzFFzCqrhssP2BKDS3MGKB4u8HVp7uZ7SLBa1APJkzjZjWf859U9AZ2Cd8aRY3iFKZ8xw7ZsUSKZmBg3PJDA2kmwwjcKKEs2Zv96j4x","DdzFFzCqrht5XXDanTMuYnp2NxeT3XNZDP8BaYG16bDbu6tkBHKpVkGJ5ru7a3xqjsMeZJSc5p1Ghm7Qty7rHv1mF5EFipcsSy7BNjRp","DdzFFzCqrhsvbwkDze9nR1ipPEqyGLeTX7BifkfReNuJfZ6c4TsW9d6fg8w9a1Hk2ryCNzwFHPZhdD9PiGQeErJ48kWQkVRrDL9WJdEH","DdzFFzCqrhsrFHQKxF49GdRLvubdcRrFdf9wHUeXg5TEf6VKqysTvvQPhQPStxXbB1ujXbDgUiULm3Tzd2vchMKgCXtStrYDZ9ztd1HY","DdzFFzCqrhtAj9VAmE9MV3idh63SSTgbGrFNQgVMtYLfrWMJipFzBNVVc7zfQjp1Bj8wojKxYvJqcNivK4jSnNFUisKVqveK5znFyzgP","DdzFFzCqrhsqigNhVYk2hmP3taiSziT4gy3rXLRcdQCekucRN5mFYTqiiq41USmaK8fDcrfAi5WpoFZmY9Bb7bme4PviPM6esBof6WGX","DdzFFzCqrht4UZAB8epayb8TAqD1MNFzkQdwYCmcHpywokqYBT5FedfXKo6XQeLZdvVsGjjEHr2h62RW543YkxB7M9zz6EnBsjdARCEE","DdzFFzCqrhsrg6TqS6mUJpjTBK8CewXznvD8cf4kxgrRUS4E1JZ5xe65SPfXQq9ns1wLR4YXsA1rpZ8cdd3the78qjtfi2gXAqYdVJjZ","DdzFFzCqrht14XYPbnNQCAJYwAPUXCVyVKbXuDMDSwbZfAENGAVDftgoaiqcEfcxs8P2v9WsTDqRczP5YgYXTKtDeR6rgos9RC4VxqeS"],"addressesOutput":["addr1q9atjfpqwdtg7ytz0pz9zcaqvx8zr2uv6ysvc4csqynr683dzefudzxhadht99nh8gv4l3z93d486ygllgxuh2drrrpsdw6fws","DdzFFzCqrht2SgCex7v93FK7cZ3arHv5vjhPTxh7asC41eu9pwVm3GzTdxCS5DrjiLEqf7cE5JpE9qh7TC1guQRmG5b5JTVv1RLFosXZ","DdzFFzCqrhseW8RKCVMQ9DpqRHaHPP9i95MQmEHCBxJbVv92oM3SMG3EDqmKJzP4W9jhTTJvgSg8EWHG7CVraAPvXj2A7EQq8CpVY38X","DdzFFzCqrhtD5P3JPd5BTGpHfkJoaq3Fah1w5nuXHrvrYDF1TUzJyZLQ1SxqcaJMahJ6duFjfJJTz6r4qEFWDRqtn4VWWh31M7cEZyUq","DdzFFzCqrhssvkF7NMpBAwvvcYUVZJmBCT3TKWR1uiinJS32CA1ioLqda7fKVqYRW6nwgWSyK2n1oCjQqomMQtP44BDK8kYZ928CrPr4"],"fee":1023501,"totalOutput":86362880629,"tokens":[]},{"hash":"5207c4484409785aa7809122eaac085b38e390a84fa89e303af247894571db96","blockNo":8054411,"blockHash":"7b4a78dcb4ab7f67c4f89b767ae4bbefcc00c7084e15c22d15f28f321113ed26","epochNo":377,"epochSlotNo":227252,"slot":77728052,"time":"2022/11/24 12:52:23","addressesInput":["addr1qy0xznhgdhqj9u4g6jjdntf2cxy5lyad8j2p6a6dp8jwwttfq4uncdzu6hqlxn7gva2xsaln40x226fl8fsnqyyvzxtqqm3qw9","addr1qy0xznhgdhqj9u4g6jjdntf2cxy5lyad8j2p6a6dp8jwwttfq4uncdzu6hqlxn7gva2xsaln40x226fl8fsnqyyvzxtqqm3qw9"],"addressesOutput":["addr1zxgx3far7qygq0k6epa0zcvcvrevmn0ypsnfsue94nsn3tvpw288a4x0xf8pxgcntelxmyclq83s0ykeehchz2wtspks905plm","addr1qy0xznhgdhqj9u4g6jjdntf2cxy5lyad8j2p6a6dp8jwwttfq4uncdzu6hqlxn7gva2xsaln40x226fl8fsnqyyvzxtqqm3qw9"],"fee":244085,"totalOutput":7206869,"tokens":[]},{"hash":"831581a76dcfbddbef0855ce0afdae78016c403db637795fcf06ed4e145f9be9","blockNo":8054181,"blockHash":"3272e00b7baf55e2645f0301903ecb38f3fd76d7c8bbe0c45d8f2d7aad2b3e65","epochNo":377,"epochSlotNo":222626,"slot":77723426,"time":"2022/11/24 11:35:17","addressesInput":["DdzFFzCqrht3Y3VYBDcggHWq4Wqc2exQdGqciGsnSYJ9omM71irdXvhkVHNsRGRgWNB8DvSfVK7rUEPX2f6fhhB9R74LjYfricexqTRE","DdzFFzCqrhshcPzyRruHCHbZ8N1MuqZDrub5kBZ2ajJWpZmmqTvZUJ5Acrb8J142Kr3vFpUQXQ8VRSpqaD1byzJHRJRYryjDTqBHtgFg","DdzFFzCqrhsjNnREqqVq2gW2tui8njct8eZsAwDDPePqzaMJxo6QW14sPYUyzbJrT3m1Y2JQtBxNae9ea7VLvJhpDDBfPovpAdoq737U","DdzFFzCqrhsmyQhP877LJePMyST72nenYpbVqtkwhJDgHf9WXtnfqdqnRgrXZe36F6sKCSHjQeso5wfZqjV2QbggcXoj21bpdArsoGq5","DdzFFzCqrht5LwS1uxw4VcGiHuCAjv3xtFVmYW5dqrHdnMYGkePDLCjfDdhd7nCrPYicrNLLAS3hgdkKSd74mU8WN7NGaVZ5AirSuy9H","DdzFFzCqrhsjcepMxBctAi78vV1Jw75vFtAiPjdqAjfVdSdA6sSTrRkGj61xjkbEGLQCQEoaYhvK5F5FvPTpMZ2ZoPUuWizidSLGt9v2","DdzFFzCqrhssbYiXDboyhekJHNoEAZMYSo9uNkpEhERN7KzhPochG6Ch3iRjCCU5zLi5CYajXeWEc6htG4aTRcMv43J2KFuXXZeHHqf1","DdzFFzCqrhsxDNDTwNDeCiUdXGH9JGGgtvjsuCn99PiCJHkoL5fgQg9xHXiF2qr7F4rsX5VCSCFEkiZkrW9JFZKAPTjevtuqT8rTuroQ","DdzFFzCqrhsqhsikvthMQypxKSJ2pXAEJVoC6hAGcCMHW97cQvmo3dfrnYvuytDZrvtNRqUavC6QuGgMAiRb3wy1MEuSteLa2mNgp84B","DdzFFzCqrhsp5afL496xw2yMwFoqYfd4Lz6R5Cme4qRnQRa47ZWj5jGBmRSPEoPdWKvzPgF3BEuRT1tnQmzUE4pADZfLfw2Xste6duKe","DdzFFzCqrhsnUA9ptwuJcvZQykPsmTuuaa35LAvTvu1sCkU1VvhCq4yJ6wSyRhiF2FiAwzPYYpexddhXWHqk61kH6ZqEdy8MhWsrBS56","DdzFFzCqrht82VYsBro6mh6cWkHGGqG73iBaYecFMgya8mrs1cvT4YAZhUVzWLf7uAtJDBK2SigTtAtywQVZ4GYNmc1VmkjQGFej7jUy","DdzFFzCqrhsp5afL496xw2yMwFoqYfd4Lz6R5Cme4qRnQRa47ZWj5jGBmRSPEoPdWKvzPgF3BEuRT1tnQmzUE4pADZfLfw2Xste6duKe","DdzFFzCqrhshDiPkRcnEXNFQJB4wgUMmAB9n2PyyrnaqiLDoqsqT3eNEvPCpQiTenivzbAFosmLUAJxTJPUM7oigMF9YgufQH5gB4Vfa","DdzFFzCqrht6HTfdS4AoosfVKjL43WkyfZfuVu1Gv4jL933S35DGPFVpk5RkPR9oiMgXQrpcKyapijRx1FAKfw9k8GB4Q4LBpnK5Eu2Y","DdzFFzCqrht8kBDf5uHCZLoNt1L8z2wstuAswdKqbFNiZSkk9QGA5nMT4rwzSkEaa9nBsBo6XMQWJ2BEjEkCVwQotQ2LVke5DK45nLEL","DdzFFzCqrht3ESCnQz3tGLmkCRcbSQkEygVdhKjWLcqV7c2EYR8TXH6ppUG9yvyEXkVUq7zDoJFG2KhRMTzuk6NCrCi4kxcbadXJacXZ","DdzFFzCqrhsqGUpmt6v4ggvcKAvqcUCkoDDaDwyJ12XsKsn6H862LhsonDyhKWMLwGRWM4w5JqhBV2yMuV5eWxC7Xx57LmZJxWrrejvw","DdzFFzCqrhskNzyR4REqm2aX6y3Gdsh33w9dXsCfrfQuJdY5bi59z477AtBK61MA23BR7qjUcevPJ4NLxKPsYbaJbVKR9WPmkaqFq5bm","DdzFFzCqrhsnUA9ptwuJcvZQykPsmTuuaa35LAvTvu1sCkU1VvhCq4yJ6wSyRhiF2FiAwzPYYpexddhXWHqk61kH6ZqEdy8MhWsrBS56","DdzFFzCqrhtBohPYDWK9raZLw6zL2aSrPUSAyVuPgYWYByx9FAfox7ZkmG36DvRE8XjCk4JjY7jfFXkmWfdTXiqykHKGYTDDg9NMMAmD","DdzFFzCqrhsm12MLxAKQsDosMWX1kNUxWveygVCRWx2oimY6hGeWAA69mkzZQasuGQhAvTnG4Xw8YGQZAwdKhEWdye3YTj8gD9abxGeG","DdzFFzCqrhsqkVZ7bF47iNnYbfj9sqRbFYXJHuhjmaDYrnDnduCNHSYLeknZjLLmQbnqAHRKXTE5sz5LmSq1zaS6TxDXExEqo6qmn14u"],"addressesOutput":["addr1q9atjfpqwdtg7ytz0pz9zcaqvx8zr2uv6ysvc4csqynr683dzefudzxhadht99nh8gv4l3z93d486ygllgxuh2drrrpsdw6fws","DdzFFzCqrhsvbwkDze9nR1ipPEqyGLeTX7BifkfReNuJfZ6c4TsW9d6fg8w9a1Hk2ryCNzwFHPZhdD9PiGQeErJ48kWQkVRrDL9WJdEH","DdzFFzCqrhspNoYSbZpfVW1v71gDvans1uLzA3ihGEGTUReKXxLShRTHw5NGir9dbwLm2ALH5uXGnBNVZC6ubd4zZn7dufRSS3HzLGfq","DdzFFzCqrhswyaVeDivwizUqDJhgzLqJFsE63Pw42ZXAZZ3Vmawie5VAkPzR8bSr6rbZwg1QWfAqaVDHwPYDWgMTJd1a8GxNThAcQaw9","DdzFFzCqrhsn9KhCAAaZdsw7xxpY7iRGJFEKcar48y1q48rHJAeCYFQcYa6vfaz7hK8NwcULDhHu2KHzNGsJoWP3snUuV9o9FchAqfv8"],"fee":1091261,"totalOutput":74684547403,"tokens":[]}],"totalItems":11720,"totalPages":586,"currentPage":0}