{"data":[{"txId":58870925,"txHash":"3a1538787a08dc7542dd41c6573480f907b8227a02da5e4982ef5c28312bbb56","txTime":"2023/01/04 18:26:19","block":8227991,"epoch":385,"slotNo":81290488,"epochSlotNo":333688,"stakeKey":"stake1uxpm7559z0n0m5qeksud84q3wfwq86r65tkdk9k63ceuhdqhvr9eh"},{"txId":58870775,"txHash":"26cab8b7cc226db75c2e26822bc96d10689005672b34cb1ff473644a7e4ae279","txTime":"2023/01/04 18:25:19","block":8227987,"epoch":385,"slotNo":81290428,"epochSlotNo":333628,"stakeKey":"stake1uxysna3fqnpfpjfh63x868tm55aqh7gznqhvd632w4qvahqp07y0x"},{"txId":58870564,"txHash":"88ee6c31c261597dadd47804ed3d7d3df79e1261596ba91816cd04fd71cb5d2d","txTime":"2023/01/04 18:22:56","block":8227982,"epoch":385,"slotNo":81290285,"epochSlotNo":333485,"stakeKey":"stake1u8hywky0vqpwrjkyvphsxgssvdyhjmslee97lvuktzjltqghxg20f"},{"txId":58870452,"txHash":"3fb6104ec97488b300e46c9cf6659f0d800a661a79d77faae687cf87554ac4ac","txTime":"2023/01/04 18:20:36","block":8227979,"epoch":385,"slotNo":81290145,"epochSlotNo":333345,"stakeKey":"stake1u9uvxcqjwer5q2ljh8gu9apedz80ylwvtjdt8vk3atapkwqe6mr44"},{"txId":58870444,"txHash":"68701276e215bb598a1eff3a1e4611af2d936e89039b0dbf780c43280e30456e","txTime":"2023/01/04 18:20:11","block":8227978,"epoch":385,"slotNo":81290120,"epochSlotNo":333320,"stakeKey":"stake1uy80p78r9mlsljzc5nkst3p8yyhznsy766h2j3ptld0lyrqk73vg4"},{"txId":58870158,"txHash":"1b5ef9b46ca06bba6a87803e00f985381a1318492c41d0c604bd33bf4932fdca","txTime":"2023/01/04 18:17:03","block":8227967,"epoch":385,"slotNo":81289932,"epochSlotNo":333132,"stakeKey":"stake1u9vrj9f3mp7s3h0pu5y6rarjm7dnuwzunulsen7v95dnlfcdxpdpu"},{"txId":58870027,"txHash":"62e245a5a0a23f5ee62261d9706b222b513f6374afc6ade73d8a894a620bac75","txTime":"2023/01/04 18:16:15","block":8227962,"epoch":385,"slotNo":81289884,"epochSlotNo":333084,"stakeKey":"stake1u9gwwkvp4euamac4p27hmkt9699g2ylfyf0w6qp2zw3e0ccwgne8h"},{"txId":58869961,"txHash":"8a29cb5125ab4227d35074d618131ddccb311b1f115da1b14545968ada9196e4","txTime":"2023/01/04 18:14:57","block":8227960,"epoch":385,"slotNo":81289806,"epochSlotNo":333006,"stakeKey":"stake1uyle45h53r74f4zlcq4z7k4zfyhwpr72fyyeqg20m8pplqs8juusz"},{"txId":58869925,"txHash":"d6e84cfa37972450365662e19e608ff9d1ed98ce479f748411de5e9a67708e38","txTime":"2023/01/04 18:14:30","block":8227957,"epoch":385,"slotNo":81289779,"epochSlotNo":332979,"stakeKey":"stake1uxa6z8ru3kjdn0tyfrdp6ke24xlympnhknt2s5qfqgr4mfcp88lxz"},{"txId":58869678,"txHash":"5f2605995af64928b81c4ae994a1262d32187741058c5ebfa16b304a6f338007","txTime":"2023/01/04 18:12:06","block":8227951,"epoch":385,"slotNo":81289635,"epochSlotNo":332835,"stakeKey":"stake1u9g60ahehlr2mkvxtqvm2pxga0r6le0f9d23u3035mpr43qz3jkft"},{"txId":58869674,"txHash":"bf0f8b46ee062199b0429889131ae433c71ff424fff0e5e415d83479ebdc3cc3","txTime":"2023/01/04 18:12:06","block":8227951,"epoch":385,"slotNo":81289635,"epochSlotNo":332835,"stakeKey":"stake1u9yvd745mrdxnuzvfrsssuc7frn7vnxg47ankffwzh3glys55kmtn"},{"txId":58869517,"txHash":"932536a8cc4900e48be346732af6b0721582171544bebf37ae0dbf3a896fdf49","txTime":"2023/01/04 18:11:09","block":8227947,"epoch":385,"slotNo":81289578,"epochSlotNo":332778,"stakeKey":"stake1uxxunwtku644cxt2rrazxzqcj3ng9vwpg522yh8w0mcemqgtxluhn"},{"txId":58869449,"txHash":"e338a8a911199d8d2500bfe0913d5c153386c2dc651b2085a2c1949d8e57eba7","txTime":"2023/01/04 18:10:52","block":8227945,"epoch":385,"slotNo":81289561,"epochSlotNo":332761,"stakeKey":"stake1u87exf4ze736ey9cnrlvmakml2qgs4qmmldle6duwtqrjmq2qf08d"},{"txId":58869414,"txHash":"5dbc2a08d10e369a746a120a0ed3d1014299b3c3ef8f176dda7b661c31ef7ca9","txTime":"2023/01/04 18:10:08","block":8227944,"epoch":385,"slotNo":81289517,"epochSlotNo":332717,"stakeKey":"stake1u8gxh7eshv7kfkesv6um7rg2mztzkvjuhjwfs0dsel2je0qkrr7u8"},{"txId":58869392,"txHash":"9c46e6a7b5b3d640417a8692b693c20c894ac98934eba88c750c93085538bcef","txTime":"2023/01/04 18:10:08","block":8227944,"epoch":385,"slotNo":81289517,"epochSlotNo":332717,"stakeKey":"stake1u8mrk0u9kyfxmvgzy0pw3jvhr6w0md8tp05a0wzy60f4n7swuxzkt"},{"txId":58869119,"txHash":"5264d9c1ae7bba7ece46c4b4b3bbcb8bd3151548804285874bc0d587fbec7ed7","txTime":"2023/01/04 18:07:03","block":8227935,"epoch":385,"slotNo":81289332,"epochSlotNo":332532,"stakeKey":"stake1u8760ecaj36w5gs3p40tv6tpn8dxdjqt4ddfww6e5f2supqe7e6ys"},{"txId":58869032,"txHash":"5f36ba81884e9f4b8591add27d664eb1a5e8e3e948f97c6aff57b53fe69fd0ae","txTime":"2023/01/04 18:06:23","block":8227933,"epoch":385,"slotNo":81289292,"epochSlotNo":332492,"stakeKey":"stake1u82dse5z40y4ktdyu6nnw3ekva26nvgqa2yaaxz89q6wlnst9z8ll"},{"txId":58868169,"txHash":"1b1d292aae9e89da60ee68c0e2a398c8f1ea747c255be8c65bff53a352a9b753","txTime":"2023/01/04 17:57:38","block":8227904,"epoch":385,"slotNo":81288767,"epochSlotNo":331967,"stakeKey":"stake1u9u0usz8gmeuua2vst99yselsmxn6fc9cuasw52npvv73sc2s7d96"},{"txId":58867918,"txHash":"08c4b7694121bbde9f8ff191a189e5ef08d3cff11c70e3f7e7ea874c61a760a0","txTime":"2023/01/04 17:55:02","block":8227893,"epoch":385,"slotNo":81288611,"epochSlotNo":331811,"stakeKey":"stake1ux9rt50g2h476rm02cx67dw07pll3zs3g7exr5kry8vsdtcg53ufc"},{"txId":58867811,"txHash":"6afdc344e88cd9dea47143bf86cd67c2247647fa007c9285ef0b92a8c6922cf7","txTime":"2023/01/04 17:54:05","block":8227891,"epoch":385,"slotNo":81288554,"epochSlotNo":331754,"stakeKey":"stake1uxwr2gpnueth66uqmuydh6xa88yswh9dec6tztxaneztmeshryfp5"}],"totalItems":1638663,"totalPages":81934,"currentPage":0}