{"data":[{"hash":"6bf650619bf1271809809a0c22fea0add9c7e0e4542ec94b5d6a1da5fa5fa52b","blockNo":7196549,"blockHash":"41e9286d83c178323fffee634d529f46d36bc98af4adbb5e0faa82a3cbec5b76","epochNo":336,"epochSlotNo":151170,"slot":59939970,"time":"2022/05/02 15:44:21","addressesInput":["addr1q80cpd59fsnf2ryph6ax8kr9sc65v3muu8da303pexggue2m5y5lkv9qvgare3nuclvzr7xnk4uw73u52yx0f40vrdyqml6vvg","addr1q80cpd59fsnf2ryph6ax8kr9sc65v3muu8da303pexggue2m5y5lkv9qvgare3nuclvzr7xnk4uw73u52yx0f40vrdyqml6vvg"],"addressesOutput":["addr1w999n67e86jn6xal07pzxtrmqynspgx0fwmcmpua4wc6yzsxpljz3","addr1q80cpd59fsnf2ryph6ax8kr9sc65v3muu8da303pexggue2m5y5lkv9qvgare3nuclvzr7xnk4uw73u52yx0f40vrdyqml6vvg","addr1q80cpd59fsnf2ryph6ax8kr9sc65v3muu8da303pexggue2m5y5lkv9qvgare3nuclvzr7xnk4uw73u52yx0f40vrdyqml6vvg","addr1q80cpd59fsnf2ryph6ax8kr9sc65v3muu8da303pexggue2m5y5lkv9qvgare3nuclvzr7xnk4uw73u52yx0f40vrdyqml6vvg"],"fee":226814,"totalOutput":33777434,"tokens":[]},{"hash":"580bd7d381b42aef591f4578f11e38ba091afd2ad1257c12abaa7accfd1da375","blockNo":7196405,"blockHash":"84199e89cc48f39b03eeb6b19d9de6faa4668e6d114b847ad32a7b231c642db3","epochNo":336,"epochSlotNo":148224,"slot":59937024,"time":"2022/05/02 14:55:15","addressesInput":["addr1q93hzek4pf2ck7z4pmznjyfwfnmd29ncgehdthqcjnakd5cny8gzqr4zgv5yggpwte59fd67a9llag3zf5qhaqgw55yqn0axew","addr1qy79c57zxezhtjralc2985xnjtz6djaj7qex8a0d5djd8sqny8gzqr4zgv5yggpwte59fd67a9llag3zf5qhaqgw55yqf6m385"],"addressesOutput":["addr1vxhmffqq3gqwmt03l83ces9l67regp2xq9sgrc4ra9qzrgsyx7xa3","addr1q8n55kvjzw4fp47yntwqkue3jylkzr2ytvrgt2njlxv5djqny8gzqr4zgv5yggpwte59fd67a9llag3zf5qhaqgw55yqrreje9"],"fee":300757,"totalOutput":22677341,"tokens":[]},{"hash":"76a988dec18239511ba9a6a05173772b954c225c06fc831105ee05e7833be7ae","blockNo":7196398,"blockHash":"be6b519259e8adc5822bb9f16cebe6d9b72cc2ffbabc0c06c0ccf3c76efd3943","epochNo":336,"epochSlotNo":148122,"slot":59936922,"time":"2022/05/02 14:53:33","addressesInput":["addr1qy0xznhgdhqj9u4g6jjdntf2cxy5lyad8j2p6a6dp8jwwttfq4uncdzu6hqlxn7gva2xsaln40x226fl8fsnqyyvzxtqqm3qw9","addr1qy0xznhgdhqj9u4g6jjdntf2cxy5lyad8j2p6a6dp8jwwttfq4uncdzu6hqlxn7gva2xsaln40x226fl8fsnqyyvzxtqqm3qw9"],"addressesOutput":["addr1w999n67e86jn6xal07pzxtrmqynspgx0fwmcmpua4wc6yzsxpljz3","addr1qy0xznhgdhqj9u4g6jjdntf2cxy5lyad8j2p6a6dp8jwwttfq4uncdzu6hqlxn7gva2xsaln40x226fl8fsnqyyvzxtqqm3qw9"],"fee":256484,"totalOutput":13467462,"tokens":[]},{"hash":"623e07b5299324bc61311a3004fe3343e88aedf715520096cae08c53b291f0a6","blockNo":7196394,"blockHash":"87feaff2fce6e1b30304f1e844e30d70095a7b47fbb85cc99bb088d048613c68","epochNo":336,"epochSlotNo":148061,"slot":59936861,"time":"2022/05/02 14:52:32","addressesInput":["addr1qy0xznhgdhqj9u4g6jjdntf2cxy5lyad8j2p6a6dp8jwwttfq4uncdzu6hqlxn7gva2xsaln40x226fl8fsnqyyvzxtqqm3qw9","addr1qy0xznhgdhqj9u4g6jjdntf2cxy5lyad8j2p6a6dp8jwwttfq4uncdzu6hqlxn7gva2xsaln40x226fl8fsnqyyvzxtqqm3qw9","addr1qy0xznhgdhqj9u4g6jjdntf2cxy5lyad8j2p6a6dp8jwwttfq4uncdzu6hqlxn7gva2xsaln40x226fl8fsnqyyvzxtqqm3qw9"],"addressesOutput":["addr1qy0xznhgdhqj9u4g6jjdntf2cxy5lyad8j2p6a6dp8jwwttfq4uncdzu6hqlxn7gva2xsaln40x226fl8fsnqyyvzxtqqm3qw9","addr1qy0xznhgdhqj9u4g6jjdntf2cxy5lyad8j2p6a6dp8jwwttfq4uncdzu6hqlxn7gva2xsaln40x226fl8fsnqyyvzxtqqm3qw9","addr1qy0xznhgdhqj9u4g6jjdntf2cxy5lyad8j2p6a6dp8jwwttfq4uncdzu6hqlxn7gva2xsaln40x226fl8fsnqyyvzxtqqm3qw9"],"fee":237309,"totalOutput":53254240,"tokens":[]},{"hash":"212611a0d10475c902f906ce3e3d16d97317b8999dfdf6826c249ed431e2aa44","blockNo":7196383,"blockHash":"009d3ee3e8333fe5f7d6bdd7b7cea2e2cf34e34e88f26fab384ee35070a09cbf","epochNo":336,"epochSlotNo":147880,"slot":59936680,"time":"2022/05/02 14:49:31","addressesInput":["addr1q87nw7t0q2hq9d92gee5qfpy59t9ez502g3dw26dagw5jgfwckm6l2w9j3a6jagshjent3tz2dkuz3q99t5dz8zq37rqkds28m","addr1qxhcwjsmq3hht9rulayz8t83qly0uaxvap4gcysu9hxfj93wckm6l2w9j3a6jagshjent3tz2dkuz3q99t5dz8zq37rqua0hmn","addr1q8dshkdcr9n7nmfxwz3jnrwl8v5aqpjeq62y8smt70zjqm3wckm6l2w9j3a6jagshjent3tz2dkuz3q99t5dz8zq37rqs6s8hh"],"addressesOutput":["addr1wxn9efv2f6w82hagxqtn62ju4m293tqvw0uhmdl64ch8uwc0h43gt","addr1q8j8fc5t4n0avcn7m8xag6sqyvwmh8444thm9ct2f07gue3wckm6l2w9j3a6jagshjent3tz2dkuz3q99t5dz8zq37rqzey0tm","addr1q8j8fc5t4n0avcn7m8xag6sqyvwmh8444thm9ct2f07gue3wckm6l2w9j3a6jagshjent3tz2dkuz3q99t5dz8zq37rqzey0tm"],"fee":465537,"totalOutput":39171861,"tokens":[]},{"hash":"b47604ff5d1b5db12b52e6de51ea62fa9ad7e2b023784d05f2f86126baa8bf4b","blockNo":7196378,"blockHash":"3c81202271f8fd44c3fb22864f063176bd81710740bd6c46fa1be161678047ee","epochNo":336,"epochSlotNo":147714,"slot":59936514,"time":"2022/05/02 14:46:45","addressesInput":["addr1qy7e0djx8kd9tm3scefg6xhpm3luk5me478feqlrjtl58u3wckm6l2w9j3a6jagshjent3tz2dkuz3q99t5dz8zq37rqmqwgrp","addr1q8dshkdcr9n7nmfxwz3jnrwl8v5aqpjeq62y8smt70zjqm3wckm6l2w9j3a6jagshjent3tz2dkuz3q99t5dz8zq37rqs6s8hh"],"addressesOutput":["addr1wxn9efv2f6w82hagxqtn62ju4m293tqvw0uhmdl64ch8uwc0h43gt","addr1qxhcwjsmq3hht9rulayz8t83qly0uaxvap4gcysu9hxfj93wckm6l2w9j3a6jagshjent3tz2dkuz3q99t5dz8zq37rqua0hmn","addr1qxhcwjsmq3hht9rulayz8t83qly0uaxvap4gcysu9hxfj93wckm6l2w9j3a6jagshjent3tz2dkuz3q99t5dz8zq37rqua0hmn"],"fee":452117,"totalOutput":39155983,"tokens":[]},{"hash":"c83280775d04d5adfa4efebfb43e0df8929a0b7ab188d904c9dd9c3a33559269","blockNo":7196369,"blockHash":"80bd084d6868a4212895d3608be4bbbdc812fcbf2887249202de68bfaa6f551a","epochNo":336,"epochSlotNo":147516,"slot":59936316,"time":"2022/05/02 14:43:27","addressesInput":["addr1qy7e0djx8kd9tm3scefg6xhpm3luk5me478feqlrjtl58u3wckm6l2w9j3a6jagshjent3tz2dkuz3q99t5dz8zq37rqmqwgrp","addr1q8usag6uctnjj7gm248z3fjud4lzctrz2x9q4n8hs6l9zv3wckm6l2w9j3a6jagshjent3tz2dkuz3q99t5dz8zq37rqs5n4cf","addr1qyaqletnhxdrpj8lz4ppa0ef3mrskavcv55x0rw35vjgxxewckm6l2w9j3a6jagshjent3tz2dkuz3q99t5dz8zq37rqf7wxc2"],"addressesOutput":["addr1wxn9efv2f6w82hagxqtn62ju4m293tqvw0uhmdl64ch8uwc0h43gt","addr1q8dshkdcr9n7nmfxwz3jnrwl8v5aqpjeq62y8smt70zjqm3wckm6l2w9j3a6jagshjent3tz2dkuz3q99t5dz8zq37rqs6s8hh","addr1q8dshkdcr9n7nmfxwz3jnrwl8v5aqpjeq62y8smt70zjqm3wckm6l2w9j3a6jagshjent3tz2dkuz3q99t5dz8zq37rqs6s8hh"],"fee":466461,"totalOutput":40430572,"tokens":[]},{"hash":"59fcc62f9d850ac0e9dba8b9bbebb5388a29a10f72c58790066296a8c1e5e23b","blockNo":7196365,"blockHash":"68c003c224fa8d4c01cbb81a77fa8d3a1188df02bddfc0d619609391a430a1f9","epochNo":336,"epochSlotNo":147408,"slot":59936208,"time":"2022/05/02 14:41:39","addressesInput":["addr1qyjjmjtgyc0ezyytqq59atm5cwp4swapxevy8pl28a0jq5ewckm6l2w9j3a6jagshjent3tz2dkuz3q99t5dz8zq37rqtkyqut","addr1q87nw7t0q2hq9d92gee5qfpy59t9ez502g3dw26dagw5jgfwckm6l2w9j3a6jagshjent3tz2dkuz3q99t5dz8zq37rqkds28m","addr1qyjjmjtgyc0ezyytqq59atm5cwp4swapxevy8pl28a0jq5ewckm6l2w9j3a6jagshjent3tz2dkuz3q99t5dz8zq37rqtkyqut"],"addressesOutput":["addr1wxn9efv2f6w82hagxqtn62ju4m293tqvw0uhmdl64ch8uwc0h43gt","addr1qy7e0djx8kd9tm3scefg6xhpm3luk5me478feqlrjtl58u3wckm6l2w9j3a6jagshjent3tz2dkuz3q99t5dz8zq37rqmqwgrp","addr1qy7e0djx8kd9tm3scefg6xhpm3luk5me478feqlrjtl58u3wckm6l2w9j3a6jagshjent3tz2dkuz3q99t5dz8zq37rqmqwgrp"],"fee":455681,"totalOutput":43297762,"tokens":[]},{"hash":"7e870b71ad0f474f12e932ad2dddde384549f20f41b5aa90b8ed499350579fb6","blockNo":7196357,"blockHash":"949ad6632832613df25e4a075fdd365ebf8d3c1eaba69b8bf34711112143cb14","epochNo":336,"epochSlotNo":147252,"slot":59936052,"time":"2022/05/02 14:39:03","addressesInput":["addr1qyf2k56dud76jhkxx7wa8ghf9skxmadjkxwk3te3acnn7mpwckm6l2w9j3a6jagshjent3tz2dkuz3q99t5dz8zq37rqvqylxh","addr1qyf2k56dud76jhkxx7wa8ghf9skxmadjkxwk3te3acnn7mpwckm6l2w9j3a6jagshjent3tz2dkuz3q99t5dz8zq37rqvqylxh"],"addressesOutput":["addr1wxn9efv2f6w82hagxqtn62ju4m293tqvw0uhmdl64ch8uwc0h43gt","addr1qyjjmjtgyc0ezyytqq59atm5cwp4swapxevy8pl28a0jq5ewckm6l2w9j3a6jagshjent3tz2dkuz3q99t5dz8zq37rqtkyqut","addr1qyjjmjtgyc0ezyytqq59atm5cwp4swapxevy8pl28a0jq5ewckm6l2w9j3a6jagshjent3tz2dkuz3q99t5dz8zq37rqtkyqut"],"fee":412737,"totalOutput":39731296,"tokens":[]},{"hash":"6046fcbdf5b1216ca49c5a1ea18b95f5826de655cacd67ef70d50a8d4448b077","blockNo":7196354,"blockHash":"5e2e2eac15be8f17649413a05ec5a970ad40c12317ddbdcb9c481d9493c2796d","epochNo":336,"epochSlotNo":147072,"slot":59935872,"time":"2022/05/02 14:36:03","addressesInput":["addr1qxhm20unlgpw6gtq56cdcw0phyjf6grcupx9sksmr0qtv4ewckm6l2w9j3a6jagshjent3tz2dkuz3q99t5dz8zq37rqh6a5ea","addr1q87nw7t0q2hq9d92gee5qfpy59t9ez502g3dw26dagw5jgfwckm6l2w9j3a6jagshjent3tz2dkuz3q99t5dz8zq37rqkds28m","addr1q9g75hr9d0v5c7jkaz666la3u60ry6mrcp8y9fha4dyes7ewckm6l2w9j3a6jagshjent3tz2dkuz3q99t5dz8zq37rqwn8fkp"],"addressesOutput":["addr1wxn9efv2f6w82hagxqtn62ju4m293tqvw0uhmdl64ch8uwc0h43gt","addr1qyf2k56dud76jhkxx7wa8ghf9skxmadjkxwk3te3acnn7mpwckm6l2w9j3a6jagshjent3tz2dkuz3q99t5dz8zq37rqvqylxh","addr1qyf2k56dud76jhkxx7wa8ghf9skxmadjkxwk3te3acnn7mpwckm6l2w9j3a6jagshjent3tz2dkuz3q99t5dz8zq37rqvqylxh"],"fee":425101,"totalOutput":44144033,"tokens":[]},{"hash":"6211470c333700d5e5fbfd725b818678b87094a719881c343ae63dc76c62219f","blockNo":7196349,"blockHash":"74825147613a139782cdf1251adf8718791f16f40194228cb7a862942c47689c","epochNo":336,"epochSlotNo":146974,"slot":59935774,"time":"2022/05/02 14:34:25","addressesInput":["addr1qynaykmpfptaxd4nfutr5sc3l0hagrm43y2gwec9kcjq4k3wckm6l2w9j3a6jagshjent3tz2dkuz3q99t5dz8zq37rqv738cs"],"addressesOutput":["addr1wxn9efv2f6w82hagxqtn62ju4m293tqvw0uhmdl64ch8uwc0h43gt","addr1q9g75hr9d0v5c7jkaz666la3u60ry6mrcp8y9fha4dyes7ewckm6l2w9j3a6jagshjent3tz2dkuz3q99t5dz8zq37rqwn8fkp"],"fee":381189,"totalOutput":38258972,"tokens":[]},{"hash":"7681fbf44502070b75749febaefdc03f199e766eb86ccef7422854af3f0b3675","blockNo":7196343,"blockHash":"8354ca3bd34a0595833e0fded7ae933ac4b1890592375c75c19facc10f40e517","epochNo":336,"epochSlotNo":146884,"slot":59935684,"time":"2022/05/02 14:32:55","addressesInput":["addr1q87nw7t0q2hq9d92gee5qfpy59t9ez502g3dw26dagw5jgfwckm6l2w9j3a6jagshjent3tz2dkuz3q99t5dz8zq37rqkds28m","addr1q8usag6uctnjj7gm248z3fjud4lzctrz2x9q4n8hs6l9zv3wckm6l2w9j3a6jagshjent3tz2dkuz3q99t5dz8zq37rqs5n4cf","addr1q87nw7t0q2hq9d92gee5qfpy59t9ez502g3dw26dagw5jgfwckm6l2w9j3a6jagshjent3tz2dkuz3q99t5dz8zq37rqkds28m"],"addressesOutput":["addr1wxn9efv2f6w82hagxqtn62ju4m293tqvw0uhmdl64ch8uwc0h43gt","addr1qynaykmpfptaxd4nfutr5sc3l0hagrm43y2gwec9kcjq4k3wckm6l2w9j3a6jagshjent3tz2dkuz3q99t5dz8zq37rqv738cs"],"fee":392321,"totalOutput":42640161,"tokens":[]},{"hash":"f118a1c5786cee757307ed2ade39768fbe1356f1ae8d489565a594cb4b6c2c38","blockNo":7196336,"blockHash":"dcf9299b5bab13fffe4c7b16c7789502510984c69f143d7fe7b79ec9960e3e42","epochNo":336,"epochSlotNo":146729,"slot":59935529,"time":"2022/05/02 14:30:20","addressesInput":["addr1q9wgq3nacqf2dfsy4d4w955xmcc8vdlcpw9fsjhdvec882pwckm6l2w9j3a6jagshjent3tz2dkuz3q99t5dz8zq37rq09x7k9","addr1qxclf9rglcg5p5at22da6jln6yhv4grfdt9vqu8a6pwqu4fwckm6l2w9j3a6jagshjent3tz2dkuz3q99t5dz8zq37rqkjgl6q"],"addressesOutput":["addr1wxn9efv2f6w82hagxqtn62ju4m293tqvw0uhmdl64ch8uwc0h43gt","addr1q8usag6uctnjj7gm248z3fjud4lzctrz2x9q4n8hs6l9zv3wckm6l2w9j3a6jagshjent3tz2dkuz3q99t5dz8zq37rqs5n4cf"],"fee":386909,"totalOutput":40791240,"tokens":[]},{"hash":"111b9ab403254f98706964b4db23a4fab73648814037672bd9acf7b7df85948b","blockNo":7196330,"blockHash":"85f292e30e6728dcb2eee8ddfc88143d614e04f5cf72d991f9bc3e73c6a2a36f","epochNo":336,"epochSlotNo":146615,"slot":59935415,"time":"2022/05/02 14:28:26","addressesInput":["addr1q87nw7t0q2hq9d92gee5qfpy59t9ez502g3dw26dagw5jgfwckm6l2w9j3a6jagshjent3tz2dkuz3q99t5dz8zq37rqkds28m","addr1q87nw7t0q2hq9d92gee5qfpy59t9ez502g3dw26dagw5jgfwckm6l2w9j3a6jagshjent3tz2dkuz3q99t5dz8zq37rqkds28m","addr1q87nw7t0q2hq9d92gee5qfpy59t9ez502g3dw26dagw5jgfwckm6l2w9j3a6jagshjent3tz2dkuz3q99t5dz8zq37rqkds28m"],"addressesOutput":["addr1wxn9efv2f6w82hagxqtn62ju4m293tqvw0uhmdl64ch8uwc0h43gt","addr1qxclf9rglcg5p5at22da6jln6yhv4grfdt9vqu8a6pwqu4fwckm6l2w9j3a6jagshjent3tz2dkuz3q99t5dz8zq37rqkjgl6q"],"fee":358309,"totalOutput":39289628,"tokens":[]},{"hash":"5e47d8d9ca0b2733112c12f788d1e5d9b455e6b72e435fadcc377cd7441b66ee","blockNo":7196317,"blockHash":"38aa49677cd9e1132dd4c25636a89b7042060699655daabb514cf5b2b9b9cac3","epochNo":336,"epochSlotNo":146343,"slot":59935143,"time":"2022/05/02 14:23:54","addressesInput":["addr1q8skpntee0u5a6m8ycgq99xg5vz7j3k3psannuye2hujlw3wckm6l2w9j3a6jagshjent3tz2dkuz3q99t5dz8zq37rqqlc2jd","addr1q87nw7t0q2hq9d92gee5qfpy59t9ez502g3dw26dagw5jgfwckm6l2w9j3a6jagshjent3tz2dkuz3q99t5dz8zq37rqkds28m","addr1wxdct40gvyv525zlq79wahkuhmgadjs3q5lkrclemxvlu3qyda7l2"],"addressesOutput":["addr1wxvd7wcq59gqljmhm2s9yp2slvygljfr8xtc3wykx7uaukgt8lqh6","addr1wxdct40gvyv525zlq79wahkuhmgadjs3q5lkrclemxvlu3qyda7l2","addr1q87nw7t0q2hq9d92gee5qfpy59t9ez502g3dw26dagw5jgfwckm6l2w9j3a6jagshjent3tz2dkuz3q99t5dz8zq37rqkds28m"],"fee":765633,"totalOutput":37682507,"tokens":[]},{"hash":"080e04733c43c9daa1820b3bf1eb908812e679ebf5ef02489e493c222057ee63","blockNo":7196302,"blockHash":"c0a584a38d71b051d22cc9b43d0cbb3d5b6e0bdb8254ec34edf197bd48cb1bd0","epochNo":336,"epochSlotNo":145763,"slot":59934563,"time":"2022/05/02 14:14:14","addressesInput":["addr1q87nw7t0q2hq9d92gee5qfpy59t9ez502g3dw26dagw5jgfwckm6l2w9j3a6jagshjent3tz2dkuz3q99t5dz8zq37rqkds28m","addr1q9wgq3nacqf2dfsy4d4w955xmcc8vdlcpw9fsjhdvec882pwckm6l2w9j3a6jagshjent3tz2dkuz3q99t5dz8zq37rq09x7k9"],"addressesOutput":["addr1wxn9efv2f6w82hagxqtn62ju4m293tqvw0uhmdl64ch8uwc0h43gt","addr1q8skpntee0u5a6m8ycgq99xg5vz7j3k3psannuye2hujlw3wckm6l2w9j3a6jagshjent3tz2dkuz3q99t5dz8zq37rqqlc2jd"],"fee":347265,"totalOutput":38448184,"tokens":[]},{"hash":"9a3d1f3d98a0c1a7bf24e036a749df260b2edd4d7e44a438d11041051064f50b","blockNo":7196297,"blockHash":"b78055b53cbbb7774b9c4ff546e608df2948acf00a645fb8d56cc4a88dc1e3c1","epochNo":336,"epochSlotNo":145681,"slot":59934481,"time":"2022/05/02 14:12:52","addressesInput":["addr1q87nw7t0q2hq9d92gee5qfpy59t9ez502g3dw26dagw5jgfwckm6l2w9j3a6jagshjent3tz2dkuz3q99t5dz8zq37rqkds28m","addr1q87nw7t0q2hq9d92gee5qfpy59t9ez502g3dw26dagw5jgfwckm6l2w9j3a6jagshjent3tz2dkuz3q99t5dz8zq37rqkds28m"],"addressesOutput":["addr1wxn9efv2f6w82hagxqtn62ju4m293tqvw0uhmdl64ch8uwc0h43gt","addr1q9wgq3nacqf2dfsy4d4w955xmcc8vdlcpw9fsjhdvec882pwckm6l2w9j3a6jagshjent3tz2dkuz3q99t5dz8zq37rq09x7k9"],"fee":212097,"totalOutput":23723174,"tokens":[]},{"hash":"4de3dfcc6ce1ca7bee430cb48ff076abab8024d9352b781b45e5c4c8f120ee7a","blockNo":7196264,"blockHash":"7307f6008e4becd993759835927e198866b6290361f8b1a7b9ac25407625b2c4","epochNo":336,"epochSlotNo":144983,"slot":59933783,"time":"2022/05/02 14:01:14","addressesInput":["addr1q87nw7t0q2hq9d92gee5qfpy59t9ez502g3dw26dagw5jgfwckm6l2w9j3a6jagshjent3tz2dkuz3q99t5dz8zq37rqkds28m","addr1q87nw7t0q2hq9d92gee5qfpy59t9ez502g3dw26dagw5jgfwckm6l2w9j3a6jagshjent3tz2dkuz3q99t5dz8zq37rqkds28m"],"addressesOutput":["addr1wx0aglsd278m2wdea3lqzmw9acjcgsgs49n3942e3xc82xcu406l6","addr1q87nw7t0q2hq9d92gee5qfpy59t9ez502g3dw26dagw5jgfwckm6l2w9j3a6jagshjent3tz2dkuz3q99t5dz8zq37rqkds28m","addr1q87nw7t0q2hq9d92gee5qfpy59t9ez502g3dw26dagw5jgfwckm6l2w9j3a6jagshjent3tz2dkuz3q99t5dz8zq37rqkds28m"],"fee":214561,"totalOutput":25728335,"tokens":[]},{"hash":"b625732b03853ec28c64f85d29c4167b03e883e907a7d3cbb4cea6dc9c854813","blockNo":7196140,"blockHash":"2537df884d8b06f622f4f59880c3b31fa5f79d92c91bece7349f7ed9f4af80b2","epochNo":336,"epochSlotNo":142340,"slot":59931140,"time":"2022/05/02 13:17:11","addressesInput":["addr1q8d63hfkruevs72c37qhphv7v2ucelghj9fyj8gkv0njh0gny8gzqr4zgv5yggpwte59fd67a9llag3zf5qhaqgw55yqfgx9q7","addr1q8d63hfkruevs72c37qhphv7v2ucelghj9fyj8gkv0njh0gny8gzqr4zgv5yggpwte59fd67a9llag3zf5qhaqgw55yqfgx9q7"],"addressesOutput":["addr1vxxy8xa4259f30qv3crwa3c0m8883d2krshjnhhdy4x7gjsxqkql3","addr1qy79c57zxezhtjralc2985xnjtz6djaj7qex8a0d5djd8sqny8gzqr4zgv5yggpwte59fd67a9llag3zf5qhaqgw55yqf6m385"],"fee":296313,"totalOutput":23924043,"tokens":[]},{"hash":"5506f7d1b025467164a6a3dfac93fcce0a60d5a2e2ffda837f0be6ef4ded8aca","blockNo":7196117,"blockHash":"d7a6e30580885da182fd2df4034967c713236c0f1130ec16f6458a9f0b57caa7","epochNo":336,"epochSlotNo":141837,"slot":59930637,"time":"2022/05/02 13:08:48","addressesInput":["addr1q93hzek4pf2ck7z4pmznjyfwfnmd29ncgehdthqcjnakd5cny8gzqr4zgv5yggpwte59fd67a9llag3zf5qhaqgw55yqn0axew","addr1qxf4023src64mjhfuadu4783nh9kawegl6c5cest76zay4cny8gzqr4zgv5yggpwte59fd67a9llag3zf5qhaqgw55yqhqzq6y","addr1q93hzek4pf2ck7z4pmznjyfwfnmd29ncgehdthqcjnakd5cny8gzqr4zgv5yggpwte59fd67a9llag3zf5qhaqgw55yqn0axew"],"addressesOutput":["addr1q87k9zrel8zsqpqhue55u7356gch8a4wp7xfpg5et2nn3q72h8y4gwedd2z2nx6544nalel0zd0g0kel44c96xy3vxvqwq22c9","addr1q8d63hfkruevs72c37qhphv7v2ucelghj9fyj8gkv0njh0gny8gzqr4zgv5yggpwte59fd67a9llag3zf5qhaqgw55yqfgx9q7"],"fee":304541,"totalOutput":21516931,"tokens":[]}],"totalItems":5453,"totalPages":273,"currentPage":0}