{"data":[{"blockNo":8259030,"slotNo":81930170,"epochNo":387,"epochSlotNo":109370,"hash":"a4330afa3a9d31cd064fb14fafa57f8081eadbd7d64b8768df883cb3588fe88b","time":"2023/01/12 04:07:41","txCount":14,"totalFees":5092691,"totalOutput":20402763364,"slotLeader":"c8a15d64b34aed5d3bca88915ceb53533a45ee1487c7b2398df24d42"},{"blockNo":8259029,"slotNo":81930153,"epochNo":387,"epochSlotNo":109353,"hash":"a45e1ed313b7ce953b85527d5eb387619b9069b75c87d817fa73312dc05d976f","time":"2023/01/12 04:07:24","txCount":23,"totalFees":5627933,"totalOutput":324958560864,"slotLeader":"5b5804135b07be6f3635a655ed1b68ddef1854523b45cd1840a6fc33"},{"blockNo":8259028,"slotNo":81930126,"epochNo":387,"epochSlotNo":109326,"hash":"bb5f0e82c0c50a271c8d208e20c9aee00705d4f19c12939838e33a90e9a6b0f8","time":"2023/01/12 04:06:57","txCount":0,"totalFees":0,"totalOutput":0,"slotLeader":"ad1b6687f605b3543f9315a5f966ea70fc5f35e7b2a4c3a943bef78d"},{"blockNo":8259027,"slotNo":81930122,"epochNo":387,"epochSlotNo":109322,"hash":"9237af2b2836f5ead1559244117a3afface92317d97d2e20bc0c15d4434c2139","time":"2023/01/12 04:06:53","txCount":22,"totalFees":8657412,"totalOutput":25763488675940,"slotLeader":"69ac9f5a2074c2809809264e42c996f7d991c5363b41ec55a1164442"},{"blockNo":8259026,"slotNo":81930100,"epochNo":387,"epochSlotNo":109300,"hash":"ee56ede1ada5f570fed55a73bf9d68f45c9980f0fddf77b2a071956561ee70bc","time":"2023/01/12 04:06:31","txCount":10,"totalFees":2322712,"totalOutput":10150917836,"slotLeader":"2f606921baedcad68bbc765b9ab82b2b201d42bd35262517ce5d7d96"},{"blockNo":8259025,"slotNo":81930092,"epochNo":387,"epochSlotNo":109292,"hash":"51fac9be13698e7c1940b2301adff1b49f64ed04f30ef4ba689eb84592bb4dbe","time":"2023/01/12 04:06:23","txCount":2,"totalFees":1085574,"totalOutput":794965543,"slotLeader":"2e65f9aa580a28d0df07dd2773c09da9604c40127b158919da9db85d"},{"blockNo":8259024,"slotNo":81930087,"epochNo":387,"epochSlotNo":109287,"hash":"c02806fb8b8898e862a44d6d3c5b7c30d4380c9ab4e0175a121ef76c2796aebc","time":"2023/01/12 04:06:18","txCount":15,"totalFees":4350429,"totalOutput":3123417889314,"slotLeader":"3caaa49b3f45a914736c393c97c4bb8611ab7d5f66ecb4e214e93606"},{"blockNo":8259023,"slotNo":81930073,"epochNo":387,"epochSlotNo":109273,"hash":"827c44d80f88ee05900303ac01bd69686851a63efa8750b50ca1f85bc4265553","time":"2023/01/12 04:06:04","txCount":5,"totalFees":1251999,"totalOutput":6448013442,"slotLeader":"6804118fe78be9bf9213b9e829803952be87814d28b305fa52bf11d9"},{"blockNo":8259022,"slotNo":81930069,"epochNo":387,"epochSlotNo":109269,"hash":"432c1d8f50ab5b2a60db4125e4fe498998a4be0c42122b5fdc533a8eacd898d2","time":"2023/01/12 04:06:00","txCount":36,"totalFees":12287173,"totalOutput":3225256048679,"slotLeader":"ec128b017b97390c7d06f28c11302e8c748b73f8bae0b818bf848bc0"},{"blockNo":8259021,"slotNo":81930022,"epochNo":387,"epochSlotNo":109222,"hash":"df1f5a46fe582c53f25ba705491f4dfff23c1789fdacdb2d8d5fd3d1e25b9a27","time":"2023/01/12 04:05:13","txCount":15,"totalFees":3369930,"totalOutput":1295481509866,"slotLeader":"76e80e1b3f622c7051f222453497b0667e12892f5d94ee565d17dc52"}],"totalItems":5293,"totalPages":530,"currentPage":0}