{"data":[{"hash":"e5ad2a41083db802244cc1ffe1929c3d13dd0ebced3faced894e2b25e246d59d","blockNo":8258028,"blockHash":"995656863cb17f3c1d31e4c4d71b843dd1338e73e4051c81d2467a80153fb940","epochNo":387,"epochSlotNo":89328,"slot":81910128,"time":"2023/01/11 22:33:39","addressesInput":["addr1qyxn7vr848adq7pk2keed0gf4q07jcdlvrr3d9md3ctn2ahks4m8ulv3ftgecy6p74lfypjh963pa82t2pjnzvmcmy9s0fltvz","addr1qyxn7vr848adq7pk2keed0gf4q07jcdlvrr3d9md3ctn2ahks4m8ulv3ftgecy6p74lfypjh963pa82t2pjnzvmcmy9s0fltvz"],"addressesOutput":["addr1zxgx3far7qygq0k6epa0zcvcvrevmn0ypsnfsue94nsn3tvpw288a4x0xf8pxgcntelxmyclq83s0ykeehchz2wtspks905plm","addr1qyxn7vr848adq7pk2keed0gf4q07jcdlvrr3d9md3ctn2ahks4m8ulv3ftgecy6p74lfypjh963pa82t2pjnzvmcmy9s0fltvz","addr1qyxn7vr848adq7pk2keed0gf4q07jcdlvrr3d9md3ctn2ahks4m8ulv3ftgecy6p74lfypjh963pa82t2pjnzvmcmy9s0fltvz"],"fee":234405,"totalOutput":105948264,"tokens":[]},{"hash":"17fec287e0ce4f50effa36cd0e2978430bd07c6bab3fdface13e9918609ce753","blockNo":8258028,"blockHash":"995656863cb17f3c1d31e4c4d71b843dd1338e73e4051c81d2467a80153fb940","epochNo":387,"epochSlotNo":89328,"slot":81910128,"time":"2023/01/11 22:33:39","addressesInput":["addr1v8adw2u5gm6klh7jr2eye3wq6plnkeuhnj2zqrrmyfv4mqs0yst0c","addr1v8adw2u5gm6klh7jr2eye3wq6plnkeuhnj2zqrrmyfv4mqs0yst0c"],"addressesOutput":["addr1qyyjr8zx80st73ws0r495tj03n98zql2fz6jz5cxgp8jrnyw9a70zcl0j8jlx8m3k2szhw82czhzseq2jgke42hz80tqr6s0hy","addr1qxg35uxzfad8hxg76uj7l8tswahe09yy7lavetn44u3ajhg8lddtd0wckg8x80tmzmwdu8q6dl6jakcptnjsvmsd77gs0329t4","addr1v8adw2u5gm6klh7jr2eye3wq6plnkeuhnj2zqrrmyfv4mqs0yst0c"],"fee":179350,"totalOutput":320488974252,"tokens":[]},{"hash":"cc04bddd4037d7ad828b980489dc49b8a3887f2bda075d769c5f92b95f4f8261","blockNo":8258028,"blockHash":"995656863cb17f3c1d31e4c4d71b843dd1338e73e4051c81d2467a80153fb940","epochNo":387,"epochSlotNo":89328,"slot":81910128,"time":"2023/01/11 22:33:39","addressesInput":["addr1q8666dyqryw9vyww0ssfa2dh0ranvp7jeuyq7m7rvn9rsucru0hmt6lm0357nu3a0h9njudcpzkvfuf8xvjpsahdvsqsvwls9y"],"addressesOutput":["addr1q9snl7zwnxlncdgxpc3pgpycrssxmy6mqn7q7eg2kwkhw0nx25jufqghjpkszgqlll0n6fsyssjqk2ngewv3f3wcj08q8a4y6x","addr1q8666dyqryw9vyww0ssfa2dh0ranvp7jeuyq7m7rvn9rsucru0hmt6lm0357nu3a0h9njudcpzkvfuf8xvjpsahdvsqsvwls9y"],"fee":169417,"totalOutput":11376919660,"tokens":[]},{"hash":"b2bca46f80466c0d6c8f96c5322885c142ba42c9c53b6eea0d482e495d983283","blockNo":8258028,"blockHash":"995656863cb17f3c1d31e4c4d71b843dd1338e73e4051c81d2467a80153fb940","epochNo":387,"epochSlotNo":89328,"slot":81910128,"time":"2023/01/11 22:33:39","addressesInput":["addr1q8ct04t2fpds6p6ehhuw7snkcx9krmnq8ua4c37ftvpacxuq7sc295ut780pvapzhjuxcsclsfeermpmvl3nzq2xz6hsmqf3st"],"addressesOutput":["addr1q87k9zrel8zsqpqhue55u7356gch8a4wp7xfpg5et2nn3q72h8y4gwedd2z2nx6544nalel0zd0g0kel44c96xy3vxvqwq22c9"],"fee":1100000,"totalOutput":1900000,"tokens":[]},{"hash":"d4348f135f9329a0e6efc6bcc97462d8c3fd28f67489c1a11222cfdd720e7b32","blockNo":8258028,"blockHash":"995656863cb17f3c1d31e4c4d71b843dd1338e73e4051c81d2467a80153fb940","epochNo":387,"epochSlotNo":89328,"slot":81910128,"time":"2023/01/11 22:33:39","addressesInput":["addr1qxkrt8rrxyhc6darvdvypc9vn7vvvc97jtgjcmkted58yrp0ye20kgw5cjy9unsntngxjzxke37pk9hlp259hz968swqpegpwy","addr1qxkrt8rrxyhc6darvdvypc9vn7vvvc97jtgjcmkted58yrp0ye20kgw5cjy9unsntngxjzxke37pk9hlp259hz968swqpegpwy","addr1qxkrt8rrxyhc6darvdvypc9vn7vvvc97jtgjcmkted58yrp0ye20kgw5cjy9unsntngxjzxke37pk9hlp259hz968swqpegpwy","addr1qxkrt8rrxyhc6darvdvypc9vn7vvvc97jtgjcmkted58yrp0ye20kgw5cjy9unsntngxjzxke37pk9hlp259hz968swqpegpwy","addr1qxkrt8rrxyhc6darvdvypc9vn7vvvc97jtgjcmkted58yrp0ye20kgw5cjy9unsntngxjzxke37pk9hlp259hz968swqpegpwy","addr1qxkrt8rrxyhc6darvdvypc9vn7vvvc97jtgjcmkted58yrp0ye20kgw5cjy9unsntngxjzxke37pk9hlp259hz968swqpegpwy","addr1qxkrt8rrxyhc6darvdvypc9vn7vvvc97jtgjcmkted58yrp0ye20kgw5cjy9unsntngxjzxke37pk9hlp259hz968swqpegpwy"],"addressesOutput":["addr1vycn8xgf7ft7v04anp9lh0js4s6l8walse5m4rc94vtyv8gcl67js","addr1qxkrt8rrxyhc6darvdvypc9vn7vvvc97jtgjcmkted58yrp0ye20kgw5cjy9unsntngxjzxke37pk9hlp259hz968swqpegpwy","addr1qxkrt8rrxyhc6darvdvypc9vn7vvvc97jtgjcmkted58yrp0ye20kgw5cjy9unsntngxjzxke37pk9hlp259hz968swqpegpwy"],"fee":184685,"totalOutput":25917025,"tokens":[]},{"hash":"6fb57bb36153fdcd712a812d6817a71bd9473094a15702955d1c89f767ae4211","blockNo":8258028,"blockHash":"995656863cb17f3c1d31e4c4d71b843dd1338e73e4051c81d2467a80153fb940","epochNo":387,"epochSlotNo":89328,"slot":81910128,"time":"2023/01/11 22:33:39","addressesInput":["addr1qy380r0qt3cfwaeraf56pw552p4t8xeve8nkhr68u6wzvzsn8u0uf5uj80ukrsp2k4lvn0adxkdtunf3ujw83saultwsx82e8f","addr1qy380r0qt3cfwaeraf56pw552p4t8xeve8nkhr68u6wzvzsn8u0uf5uj80ukrsp2k4lvn0adxkdtunf3ujw83saultwsx82e8f","addr1qy380r0qt3cfwaeraf56pw552p4t8xeve8nkhr68u6wzvzsn8u0uf5uj80ukrsp2k4lvn0adxkdtunf3ujw83saultwsx82e8f"],"addressesOutput":["addr1w8pydstdswmdqmg2rdt59dzql3zgfp9pt8sulnjgalycwdsj9js7w","addr1qy380r0qt3cfwaeraf56pw552p4t8xeve8nkhr68u6wzvzsn8u0uf5uj80ukrsp2k4lvn0adxkdtunf3ujw83saultwsx82e8f"],"fee":174917,"totalOutput":3816375153,"tokens":[]},{"hash":"6e37171a34e94ff098e497029d714a06125dc0d2a08b56519e7367a1af608e17","blockNo":8258028,"blockHash":"995656863cb17f3c1d31e4c4d71b843dd1338e73e4051c81d2467a80153fb940","epochNo":387,"epochSlotNo":89328,"slot":81910128,"time":"2023/01/11 22:33:39","addressesInput":["addr1q9renky0kur959ef6h5xvv20s8u9t83mka6zds85swqj7m7a09s48rmue7phec87eqwrurzd6hdcxe3u9pg30796cewspjca7s"],"addressesOutput":["addr1q89schpuyeqmkqh5aa40gf0nujgqq3u95y8weqzcam4fkeageeua7urxgl9aecjul3jpsqu3pgdj4vew4ngqf77wa0yq2xteda","addr1q9renky0kur959ef6h5xvv20s8u9t83mka6zds85swqj7m7a09s48rmue7phec87eqwrurzd6hdcxe3u9pg30796cewspjca7s"],"fee":239509,"totalOutput":29529821,"tokens":[]},{"hash":"dd43818740bf6a9833d0092c51850712633e5cabfc65da1de08b62d980943216","blockNo":8258028,"blockHash":"995656863cb17f3c1d31e4c4d71b843dd1338e73e4051c81d2467a80153fb940","epochNo":387,"epochSlotNo":89328,"slot":81910128,"time":"2023/01/11 22:33:39","addressesInput":["addr1q9rdw9tw57pk7rkz629qxggzhqge6exe0lxrjnr6fz4hsy8q4csv2jfaggdrfpa54e2gzujc235932dajuqu062fymmq8hw25k","addr1q9rdw9tw57pk7rkz629qxggzhqge6exe0lxrjnr6fz4hsy8q4csv2jfaggdrfpa54e2gzujc235932dajuqu062fymmq8hw25k"],"addressesOutput":["addr1zxgx3far7qygq0k6epa0zcvcvrevmn0ypsnfsue94nsn3tvpw288a4x0xf8pxgcntelxmyclq83s0ykeehchz2wtspks905plm","addr1q9rdw9tw57pk7rkz629qxggzhqge6exe0lxrjnr6fz4hsy8q4csv2jfaggdrfpa54e2gzujc235932dajuqu062fymmq8hw25k"],"fee":222613,"totalOutput":138806921,"tokens":[]},{"hash":"f208962549199da07f89a356e394b6f3a10ff7021c63448e5d538f57ae6611c8","blockNo":8258028,"blockHash":"995656863cb17f3c1d31e4c4d71b843dd1338e73e4051c81d2467a80153fb940","epochNo":387,"epochSlotNo":89328,"slot":81910128,"time":"2023/01/11 22:33:39","addressesInput":["addr1qxh9van3w69nzplh2w548l9cv08xefg2tr0j89cqkc6zrgcg56yz95c2yk8fj7apxq02h6s0ylrjc9c62zlml2l3jyvqstnrmd","addr1qxh9van3w69nzplh2w548l9cv08xefg2tr0j89cqkc6zrgcg56yz95c2yk8fj7apxq02h6s0ylrjc9c62zlml2l3jyvqstnrmd"],"addressesOutput":["addr1q8jj4kk4rsnnh68x268cvx4agda3afdlqqw9qgtx28elqh5v7cydza3u28d4nwwexzqj95af5ygycyhvvw2hyrjll3nsymuw5m"],"fee":187220,"totalOutput":197300000,"tokens":[]},{"hash":"9fae09a19c5c40879287f4dfc89e28d446fcb57b93f181609b2253aa7d14aba0","blockNo":8258028,"blockHash":"995656863cb17f3c1d31e4c4d71b843dd1338e73e4051c81d2467a80153fb940","epochNo":387,"epochSlotNo":89328,"slot":81910128,"time":"2023/01/11 22:33:39","addressesInput":["addr1q89rgxc0ysx6ydeu9g6rx5aa7v0rpndpzpdw96dnsjnh9mfe3m746lmsp5rhdh4sju0g0pktwtwtu840nezjrn5jjtcqdvpk04","addr1qyz9nyngzuwypyjkncyk209tuaryddnkysvlwpevykgw3dee3m746lmsp5rhdh4sju0g0pktwtwtu840nezjrn5jjtcqjurhgq","addr1q9u0wdetmsmrej4astsfrsyc0j4xh3ezg64lswzxgsufvv3e3m746lmsp5rhdh4sju0g0pktwtwtu840nezjrn5jjtcqtxp70r"],"addressesOutput":["addr1q9hhuy7scdqs0krchk6nkspduhz8ynzr5ucjvhw7cu85yy0hmsveaftphpyvexs8d28h0gtzcmsnd58u8709jdlkzu2suusv7t","addr1qyj3wpy7xencpnxvtmvk74hsq8ymt4phvvez4xx3nuqejdee3m746lmsp5rhdh4sju0g0pktwtwtu840nezjrn5jjtcqnskv6e","addr1qyj3wpy7xencpnxvtmvk74hsq8ymt4phvvez4xx3nuqejdee3m746lmsp5rhdh4sju0g0pktwtwtu840nezjrn5jjtcqnskv6e","addr1qyj3wpy7xencpnxvtmvk74hsq8ymt4phvvez4xx3nuqejdee3m746lmsp5rhdh4sju0g0pktwtwtu840nezjrn5jjtcqnskv6e"],"fee":214253,"totalOutput":60540793,"tokens":[]},{"hash":"e3aef58156d891d1aedb8d2e435d9e20b96f447700bf3fbdb3d2d923f1b85fbb","blockNo":8258028,"blockHash":"995656863cb17f3c1d31e4c4d71b843dd1338e73e4051c81d2467a80153fb940","epochNo":387,"epochSlotNo":89328,"slot":81910128,"time":"2023/01/11 22:33:39","addressesInput":["addr1v9wdhavk5y4909gehfzfxrnyqk97cfl85wx9lqryaf4t0vg6z77qm","addr1v9wa6entm75duchtu50mu6u6hkagdgqzaevt0cwryaw3pnca870vt"],"addressesOutput":["addr1v8qc24hpqau74y5ptuft7dx0krcf3vpysg3zjqa03h7r27sahpd66","addr1v9wa6entm75duchtu50mu6u6hkagdgqzaevt0cwryaw3pnca870vt"],"fee":174609,"totalOutput":30004656898,"tokens":[]},{"hash":"9eb4d65dbf0687268a9be41b76949bcf60e58afc7e788c449aa037434aef9ad6","blockNo":8258028,"blockHash":"995656863cb17f3c1d31e4c4d71b843dd1338e73e4051c81d2467a80153fb940","epochNo":387,"epochSlotNo":89328,"slot":81910128,"time":"2023/01/11 22:33:39","addressesInput":["addr1q9w68ed965wr7rrkney7pmeyuuuylmqfxyd5xzwfmq8cpmrl95ph8yudzfe8af3vx3w5rulp5d4lk6nuemkaq7scd3nq7tnxk4","addr1q9w68ed965wr7rrkney7pmeyuuuylmqfxyd5xzwfmq8cpmrl95ph8yudzfe8af3vx3w5rulp5d4lk6nuemkaq7scd3nq7tnxk4"],"addressesOutput":["addr1qx6p0q5yhhh6x527z23m54ml8ccv4h0ap9fgjg9nex55c8hdaa8llgu4jj9paax734w7lck269k73kpkax3hk0r8tfest2n3hn","addr1q9w68ed965wr7rrkney7pmeyuuuylmqfxyd5xzwfmq8cpmrl95ph8yudzfe8af3vx3w5rulp5d4lk6nuemkaq7scd3nq7tnxk4"],"fee":170077,"totalOutput":6396804162,"tokens":[]},{"hash":"d2d36dbeee89d3f520277935fd404e17a50fbc8dc7019e74b581ce12c09a182e","blockNo":8258028,"blockHash":"995656863cb17f3c1d31e4c4d71b843dd1338e73e4051c81d2467a80153fb940","epochNo":387,"epochSlotNo":89328,"slot":81910128,"time":"2023/01/11 22:33:39","addressesInput":["addr1q9zag7sazns6tc5fwlra9zesz2zd3wlmr9zkatghklldkzxqtdqwarj7we5latygaveylr8kah0yz6wck7eg0mp20dkq557xha","addr1qx2y9p7n998uhzv0czmfr9vuqfm2d4fnmx4ncm88axmjlt7qtdqwarj7we5latygaveylr8kah0yz6wck7eg0mp20dkqs82e7e"],"addressesOutput":["addr1q8t6edu6puzyjrh7eyy804phdg28s60m3e4t620e92gakmnrk7f4aggkhzs3reqq2p952fdkqq3e3hgw0eakp9y0rdvq03g6jf","addr1qyhz8kyxvm72vzsc8x0ucfqgpx7rwl6ugvz6fz8lkwuq9n7qtdqwarj7we5latygaveylr8kah0yz6wck7eg0mp20dkq7rxvye"],"fee":176061,"totalOutput":266620648,"tokens":[]},{"hash":"962b76bf820888f95c721b1495c0df978ec5b422c1cfd5c403f7c4652f351c21","blockNo":8258028,"blockHash":"995656863cb17f3c1d31e4c4d71b843dd1338e73e4051c81d2467a80153fb940","epochNo":387,"epochSlotNo":89328,"slot":81910128,"time":"2023/01/11 22:33:39","addressesInput":["addr1vxp2w8mu4e7ppv225yjt2ekh8jgvysszdewksy3pq2vd6zcd7whhn"],"addressesOutput":["addr1vxp2w8mu4e7ppv225yjt2ekh8jgvysszdewksy3pq2vd6zcd7whhn"],"fee":205277,"totalOutput":1674003,"tokens":[]},{"hash":"4fdadff2905d909aa249a6d5cf8873834c39ad673b31dd3efe5fe2e6ab6d428a","blockNo":8258028,"blockHash":"995656863cb17f3c1d31e4c4d71b843dd1338e73e4051c81d2467a80153fb940","epochNo":387,"epochSlotNo":89328,"slot":81910128,"time":"2023/01/11 22:33:39","addressesInput":["addr1qy86encxggq48s24rh5v9mg3tuajjme30ueguafpa9fyh4supdzgv9ya4lx5rr8lxz9fk4ejq4hwc5utkuypj2hgms3smp9dqp","addr1qy86encxggq48s24rh5v9mg3tuajjme30ueguafpa9fyh4supdzgv9ya4lx5rr8lxz9fk4ejq4hwc5utkuypj2hgms3smp9dqp"],"addressesOutput":["addr1zxgx3far7qygq0k6epa0zcvcvrevmn0ypsnfsue94nsn3tvpw288a4x0xf8pxgcntelxmyclq83s0ykeehchz2wtspks905plm","addr1qy86encxggq48s24rh5v9mg3tuajjme30ueguafpa9fyh4supdzgv9ya4lx5rr8lxz9fk4ejq4hwc5utkuypj2hgms3smp9dqp","addr1qy86encxggq48s24rh5v9mg3tuajjme30ueguafpa9fyh4supdzgv9ya4lx5rr8lxz9fk4ejq4hwc5utkuypj2hgms3smp9dqp"],"fee":249101,"totalOutput":122473665,"tokens":[]},{"hash":"6afc21e336f489ba651f1ba5e12d92099f328b0d075f7c77ab3e2e96f4455750","blockNo":8258028,"blockHash":"995656863cb17f3c1d31e4c4d71b843dd1338e73e4051c81d2467a80153fb940","epochNo":387,"epochSlotNo":89328,"slot":81910128,"time":"2023/01/11 22:33:39","addressesInput":["addr1qyu8qhjhh9rpyvys7t9fk6ndqhdr295at62gzmykf5jpscpcwp090w2xzgcfpuk2nd4x6pw6x5tf6h55s9kfvnfyrpsqemhwqv","addr1qyu8qhjhh9rpyvys7t9fk6ndqhdr295at62gzmykf5jpscpcwp090w2xzgcfpuk2nd4x6pw6x5tf6h55s9kfvnfyrpsqemhwqv"],"addressesOutput":["addr1qyu8qhjhh9rpyvys7t9fk6ndqhdr295at62gzmykf5jpscpcwp090w2xzgcfpuk2nd4x6pw6x5tf6h55s9kfvnfyrpsqemhwqv","addr1qyu8qhjhh9rpyvys7t9fk6ndqhdr295at62gzmykf5jpscpcwp090w2xzgcfpuk2nd4x6pw6x5tf6h55s9kfvnfyrpsqemhwqv"],"fee":233854,"totalOutput":2978372592,"tokens":[]},{"hash":"68a49731753ccd047a2ad29dbf7d5f7a462c8cec5e94651586acf33361a21c52","blockNo":8258028,"blockHash":"995656863cb17f3c1d31e4c4d71b843dd1338e73e4051c81d2467a80153fb940","epochNo":387,"epochSlotNo":89328,"slot":81910128,"time":"2023/01/11 22:33:39","addressesInput":["DdzFFzCqrhsoCPXta9CSqqbvPBBKaBAzAECdyLTQVKYL8degREQ9C3cJ1PPRiKVuL9Ue364qFzNfkfKzQtwHMGY3z1sxaHqLTrffgWGe","DdzFFzCqrhsk3TUiFDTYW3zuC9uzqUjrnrqfsFHWETjm5KnR3K6Hy8zTR4gmUQcAboeAm7u4XbqYBSrKWRtFGxBbNoe2an4xQfdGocTM","DdzFFzCqrhshttLT42sBXyRmatyD1jrcCHmDR7qAxv87jQxsARBvpDF9DcaHUHCyonRRbvZSCWe2W9LXakFpnrE4e695tVKFwY6Xsx4q"],"addressesOutput":["DdzFFzCqrhsf48xMkDVqbPQcR1ScR5iWxinpvwtFQZAPC2pkhjQKTBLYqgav6GSP7RfHsyRMjgZhp3WLYDv2mREejT1MkAjWVKv2aA2T","DdzFFzCqrhsqW8unr4ms5T7thzwoD8pbd9xiJKjtM5LHVnigU94Hv7NGEB13Q6APFeTv6Pf9pkiFVuRsJA3D967beMJv3bo3PjmUbNDA"],"fee":194189,"totalOutput":848160716419,"tokens":[]},{"hash":"30d11bd2488be979eed48ab878c2ccc4dfb95c7cc9d9d7d08cf1327677d4a04e","blockNo":8258028,"blockHash":"995656863cb17f3c1d31e4c4d71b843dd1338e73e4051c81d2467a80153fb940","epochNo":387,"epochSlotNo":89328,"slot":81910128,"time":"2023/01/11 22:33:39","addressesInput":["addr1qxdr0dw7wlvdehmkx55w79hyp7vtnn5vyfp78nw2pyehq6xdl9me74py0xdc60uh5nrgfu5rch4fjtmu7hxeu2xce0ksnycw5g","addr1zxgx3far7qygq0k6epa0zcvcvrevmn0ypsnfsue94nsn3tvpw288a4x0xf8pxgcntelxmyclq83s0ykeehchz2wtspks905plm","addr1qxdr0dw7wlvdehmkx55w79hyp7vtnn5vyfp78nw2pyehq6xdl9me74py0xdc60uh5nrgfu5rch4fjtmu7hxeu2xce0ksnycw5g"],"addressesOutput":["addr1q8kqxqq5yrm643hr4k3t8anxjq72vupmtful59ljcy56mfsmtjt90fcqrfcznpr5cvec2rw7vtyffq8nv8hvyzmpfjkqf20x57","addr1q9cwvremt6n320s2e3agq0jyq82yhrk3htsu0w426xnz5us70z4w0jgvcdkkynmm8wmds66jd9kusnjfpu6raw5fqp0sr07p5w","addr1qxta03na4xhyc0kmz0j5kfe5th6lwr39mysl3mp6mjwxu3tzswkyw2zz5x9ak7v327m6z48kjz0uryvm3htzpjh8vvfqkkn39z","addr1qxdr0dw7wlvdehmkx55w79hyp7vtnn5vyfp78nw2pyehq6xdl9me74py0xdc60uh5nrgfu5rch4fjtmu7hxeu2xce0ksnycw5g","addr1qxdr0dw7wlvdehmkx55w79hyp7vtnn5vyfp78nw2pyehq6xdl9me74py0xdc60uh5nrgfu5rch4fjtmu7hxeu2xce0ksnycw5g","addr1qxdr0dw7wlvdehmkx55w79hyp7vtnn5vyfp78nw2pyehq6xdl9me74py0xdc60uh5nrgfu5rch4fjtmu7hxeu2xce0ksnycw5g"],"fee":424276,"totalOutput":346209064,"tokens":[]},{"hash":"8246f59dce275c1d077a250abcbbf520df38714801b88fdf3f1a362236928ca4","blockNo":8258028,"blockHash":"995656863cb17f3c1d31e4c4d71b843dd1338e73e4051c81d2467a80153fb940","epochNo":387,"epochSlotNo":89328,"slot":81910128,"time":"2023/01/11 22:33:39","addressesInput":["addr1q875djqsyr7696pmf0s5hu8gxcu2memreye7y8686ry5ydzar5v5p3rsdt06uznxsnn5l5ddfex3nxzennwktxw7fr5qh9gd7f"],"addressesOutput":["addr1qycn7pukageklf7mq64wpnvd3vj6c02trr9rq00x297pqn6ar5v5p3rsdt06uznxsnn5l5ddfex3nxzennwktxw7fr5qxyfpsj"],"fee":173157,"totalOutput":673319805,"tokens":[]},{"hash":"861539beac43e794fcc7e4667d77d591367b8ddecea5fc13915937a2aa644025","blockNo":8258028,"blockHash":"995656863cb17f3c1d31e4c4d71b843dd1338e73e4051c81d2467a80153fb940","epochNo":387,"epochSlotNo":89328,"slot":81910128,"time":"2023/01/11 22:33:39","addressesInput":["addr1wxn9efv2f6w82hagxqtn62ju4m293tqvw0uhmdl64ch8uwc0h43gt","addr1z8snz7c4974vzdpxu65ruphl3zjdvtxw8strf2c2tmqnxz2j2c79gy9l76sdg0xwhd7r0c0kna0tycz4y5s6mlenh8pq0xmsha","addr1qyht4ja0zcn45qvyx477qlyp6j5ftu5ng0prt9608dxp6l2j2c79gy9l76sdg0xwhd7r0c0kna0tycz4y5s6mlenh8pq4jxtdy","addr1qyht4ja0zcn45qvyx477qlyp6j5ftu5ng0prt9608dxp6l2j2c79gy9l76sdg0xwhd7r0c0kna0tycz4y5s6mlenh8pq4jxtdy"],"addressesOutput":["addr1qyht4ja0zcn45qvyx477qlyp6j5ftu5ng0prt9608dxp6l2j2c79gy9l76sdg0xwhd7r0c0kna0tycz4y5s6mlenh8pq4jxtdy","addr1qyht4ja0zcn45qvyx477qlyp6j5ftu5ng0prt9608dxp6l2j2c79gy9l76sdg0xwhd7r0c0kna0tycz4y5s6mlenh8pq4jxtdy","addr1qxgxhndlmxt7wef7wrsrq9mselwk6ap7perd7eezaz26pyg5tjvmssg3ppadqy7rmrcvl2uqhm8c6rdl44yvlp33hcqquzzsgp","addr1z8snz7c4974vzdpxu65ruphl3zjdvtxw8strf2c2tmqnxz2j2c79gy9l76sdg0xwhd7r0c0kna0tycz4y5s6mlenh8pq0xmsha"],"fee":824022,"totalOutput":1136327759225,"tokens":[]}],"totalItems":58781218,"totalPages":2939061,"currentPage":0}