{"data":[{"blockNo":7820455,"slotNo":72906098,"epochNo":366,"epochSlotNo":157298,"hash":"2cdaa7288348f74d202e1fa16da4ef4c115c9c119017e133217e1b045bcdf385","time":"2022/09/29 17:26:29","txCount":2,"totalFees":1204706,"totalOutput":320978671,"slotLeader":"48c4f6c2b3ba2ab7e62f975b8a59c68d2c2929890973db1737babcaf"},{"blockNo":7820454,"slotNo":72906094,"epochNo":366,"epochSlotNo":157294,"hash":"1c28b01d7d949c53d1de38edff28678c92b38c903bf184fe7c334f91dc8c20fa","time":"2022/09/29 17:26:25","txCount":1,"totalFees":216849,"totalOutput":45446892,"slotLeader":"8a8e0fa9953e6a02c73bf9c7471c08c20e4067cccb4afff6201cb6ef"},{"blockNo":7820453,"slotNo":72906092,"epochNo":366,"epochSlotNo":157292,"hash":"1409be2d5a7e3ec8d81bb9a4b358ffdeb48ed8077c5824061a302707d66ce4c5","time":"2022/09/29 17:26:23","txCount":10,"totalFees":1988090,"totalOutput":20757799060,"slotLeader":"d765dee553a7e041d525b1782a10eb0a5e52e96ed55ed173d8bb82a7"},{"blockNo":7820452,"slotNo":72906080,"epochNo":366,"epochSlotNo":157280,"hash":"8bed7aeae3b0b7b5be126b86b07ceaa5460a7d7c2d27008a1fc2b9eab88fd5ab","time":"2022/09/29 17:26:11","txCount":10,"totalFees":2814511,"totalOutput":3017986487652,"slotLeader":"fc2d8488ef021561a83af7b56f973b94cfcfd8100433ee6fd0b0aa45"},{"blockNo":7820451,"slotNo":72906067,"epochNo":366,"epochSlotNo":157267,"hash":"06b93ad2aef0055e03bb2e4779301ac528b92838e39d51e226fb595b1ccc94dd","time":"2022/09/29 17:25:58","txCount":1,"totalFees":217025,"totalOutput":171679188,"slotLeader":"e56066e8cf0409ecb3f25aaac5cc97099af29e7a79609c6fe4d61e5d"},{"blockNo":7820450,"slotNo":72906061,"epochNo":366,"epochSlotNo":157261,"hash":"e26827cfce212dd4232c5ccb24e2370b58340f545e9f17f58d8919fa52ab9723","time":"2022/09/29 17:25:52","txCount":12,"totalFees":4166685,"totalOutput":22152983865,"slotLeader":"a3a542bf3a44361dad63349afcef16797afb957d1354e77bc0d37846"},{"blockNo":7820449,"slotNo":72906046,"epochNo":366,"epochSlotNo":157246,"hash":"6bd6f7e131b4d8dc701b597d5ef21a8c53a2d995c83ea933b8a863e1a2e3effe","time":"2022/09/29 17:25:37","txCount":30,"totalFees":7937495,"totalOutput":251624831902,"slotLeader":"b2753f0f7c707063180d579d013e81b04086a33d2d6c9b798e2ce505"},{"blockNo":7820448,"slotNo":72906008,"epochNo":366,"epochSlotNo":157208,"hash":"f4acb4752c9ca735eb138d898368b007c7aef50b440a30ea9f4914d72a8a94c3","time":"2022/09/29 17:24:59","txCount":4,"totalFees":1406288,"totalOutput":2649723088386,"slotLeader":"79c4d4fe108f480fee98f307adac12571df2959651f833b595141cd1"},{"blockNo":7820447,"slotNo":72906002,"epochNo":366,"epochSlotNo":157202,"hash":"f95970105f270a9bbbac2db1009cc57079f0900c44cf79b4e689d83587028c48","time":"2022/09/29 17:24:53","txCount":6,"totalFees":2346770,"totalOutput":22677171857,"slotLeader":"7d89d3f11170f5874c5b781b80864be392edcd9c8715ccce18155a8f"},{"blockNo":7820446,"slotNo":72905997,"epochNo":366,"epochSlotNo":157197,"hash":"005ed179b0b49b5128ff5bcdbacc4920b495435c5cca0c4abf3ab2eb3cdadc42","time":"2022/09/29 17:24:48","txCount":10,"totalFees":3119951,"totalOutput":3064015048,"slotLeader":"ea595c6f726db925b6832af51795fd8a46e700874c735d204f7c5841"}],"totalItems":7730,"totalPages":773,"currentPage":0}