{"data":[{"txId":40735963,"txHash":"1b5fb6b2acbfe7784ea80731b9d151c10ce3420b9a0f37ad96ff8aed53eb51a1","txTime":"2022/05/09 18:21:17","block":7225808,"epoch":337,"slotNo":60554186,"epochSlotNo":333386,"stakeKey":"stake1u884k5ayjq0laze7xdl3m3uaukdfuyszwxy3uzfqg29h53cspur9r"},{"txId":40735921,"txHash":"85a80d1d87c1b8c0d2dbe4ae7bf29fac2f3a878cefd2d4affb05797ae18d3447","txTime":"2022/05/09 18:20:35","block":7225807,"epoch":337,"slotNo":60554144,"epochSlotNo":333344,"stakeKey":"stake1ux62dqmyfr4f4nsnvys2tmwhkpu0ha6kvfn8xq3lwvzpa6sxelmg7"},{"txId":40735905,"txHash":"87398c115bcd649d4ce7f732142602281654f58d82eb4c248d8588819b899b07","txTime":"2022/05/09 18:20:33","block":7225806,"epoch":337,"slotNo":60554142,"epochSlotNo":333342,"stakeKey":"stake1u8z47agpjutmc689w9kymlvn5v8n0fx60twmqsn38p7r2dgugfra4"},{"txId":40735641,"txHash":"426a883758fa93054b585270e988aac453f335506b5a2b20f2f44478ea57449d","txTime":"2022/05/09 18:16:48","block":7225799,"epoch":337,"slotNo":60553917,"epochSlotNo":333117,"stakeKey":"stake1uxfw4ctpc4p2cqegvr3380maeyy2y36qjd6nspgx2g34xzgkmu0r9"},{"txId":40735219,"txHash":"2be06075f474cf0d03ef3cbda6305dc33de05e142a6ed05f9680e055d3a6d78e","txTime":"2022/05/09 18:11:48","block":7225781,"epoch":337,"slotNo":60553617,"epochSlotNo":332817,"stakeKey":"stake1uygwhwxvruwc94cm3km0u7tnylhjza2alesd0mn3rsmjuygszf7rc"},{"txId":40735030,"txHash":"b64081139a955d067caddd5384edb6a5b93b9e1fee40c6f66a59a3f1be3ec845","txTime":"2022/05/09 18:09:06","block":7225769,"epoch":337,"slotNo":60553455,"epochSlotNo":332655,"stakeKey":"stake1uy8x4lzdrtx88cer8crhtpagnnhkk4npgm9m9rzz95qpg3c4g0kvm"},{"txId":40734914,"txHash":"5845171a90f0b0a4980252914446954c333f1021286fd892d1000c25562f731c","txTime":"2022/05/09 18:08:11","block":7225763,"epoch":337,"slotNo":60553400,"epochSlotNo":332600,"stakeKey":"stake1uxjptesstllel9ymd79raa3xx3tjp58rmyfyhnc79nrx47sn4hh63"},{"txId":40734867,"txHash":"12fe72d5469b3d440cc9a8eae126b731d351b2254d8515c1b60e488972eb4b71","txTime":"2022/05/09 18:07:22","block":7225761,"epoch":337,"slotNo":60553351,"epochSlotNo":332551,"stakeKey":"stake1uyrz4ldygrsuklqesspklnrp5gvu9jrw3epdskrzpnqzefc6h5u85"},{"txId":40734731,"txHash":"3a0552b48ff7b907b1c2becef3bccfba4d1076f4aeaa77537841e4626f88fa0d","txTime":"2022/05/09 18:06:12","block":7225758,"epoch":337,"slotNo":60553281,"epochSlotNo":332481,"stakeKey":"stake1uxrv4e6aads9xz2cd42tq72jtjcmy2cj8gmt7x5wqfx0sfqnaenzp"},{"txId":40734517,"txHash":"49b0cf2a87cf33eecb8e900c0761288f38df8fcfe00de93a837bf69093a35a8a","txTime":"2022/05/09 18:03:10","block":7225750,"epoch":337,"slotNo":60553099,"epochSlotNo":332299,"stakeKey":"stake1uxtyh0vtg80yysemasjusa4whtrt8na4acfwsy4hgrzjfwsnaprmu"},{"txId":40734179,"txHash":"634278325887ce982a0fd5b5cf7d431f1425761b0c4d0ab3ad03bfdf52dcb88c","txTime":"2022/05/09 17:58:24","block":7225733,"epoch":337,"slotNo":60552813,"epochSlotNo":332013,"stakeKey":"stake1uy8e3svp76dh6gmpr9u8ygxpnfchd0y3mjaklxfwn7l35xsqpwskm"},{"txId":40733809,"txHash":"a055c3a4ef0e4c20c5918e0910f0152f842f4f28874f8025169ca27e32a0efc4","txTime":"2022/05/09 17:53:25","block":7225721,"epoch":337,"slotNo":60552514,"epochSlotNo":331714,"stakeKey":"stake1u9rqhpvegu9nen6xa5vhafgum8jm6r94rynsqjagsvyhvysymnnmh"},{"txId":40733781,"txHash":"e7067d61372af4fe71d9a9789afe31856b680e4f6264c5280a4c603ce083b1ce","txTime":"2022/05/09 17:53:14","block":7225720,"epoch":337,"slotNo":60552503,"epochSlotNo":331703,"stakeKey":"stake1uyp99qkwr4fmks6ue3zpe3hex2073a0dqxllkrvrurvz4vq2yqqtz"},{"txId":40733674,"txHash":"44c8012c734581af53d24fe38809d2cd25215905e009000a3faa8493b36e9196","txTime":"2022/05/09 17:52:00","block":7225715,"epoch":337,"slotNo":60552429,"epochSlotNo":331629,"stakeKey":"stake1ux7cqk2l6dh2ydynrk2yamc3wstl7vw37l9df25hpyrdxlqanv9ag"},{"txId":40733611,"txHash":"0179ec47286191fe29c16af257c845ab373a1cf5d4e422e60d058eecce81c650","txTime":"2022/05/09 17:50:59","block":7225713,"epoch":337,"slotNo":60552368,"epochSlotNo":331568,"stakeKey":"stake1u8twde8e240pca79w0yxtwt6yw7a5setmnehc334clp564c3df9lh"},{"txId":40733610,"txHash":"b05d906749865dbee630d9276f3b46e9a16e37d07783161fc056f7e07cba905f","txTime":"2022/05/09 17:50:59","block":7225713,"epoch":337,"slotNo":60552368,"epochSlotNo":331568,"stakeKey":"stake1uyfsqmn8483sn476sf4pcm007y4twq6zee3rrc8tws8mcpg5eh9gs"},{"txId":40733568,"txHash":"d8a60f7154f2a9903809e07929d83e16228812e6da0d7fdb05a3c1540620a0e3","txTime":"2022/05/09 17:50:53","block":7225712,"epoch":337,"slotNo":60552362,"epochSlotNo":331562,"stakeKey":"stake1uxw6a5wxk74xvt3466t9yzg5wuc8f5863frnkrkm9ctlc2gpdz9uy"},{"txId":40733479,"txHash":"58c203ba8c00478c00dad40235a8f816a5fd6736bf49254f0cfdc55ba733956f","txTime":"2022/05/09 17:50:27","block":7225710,"epoch":337,"slotNo":60552336,"epochSlotNo":331536,"stakeKey":"stake1u9a9qh8wdx8te70stpsqnn42a3jfa9at5tlcx44xp8mpk4cma4twx"},{"txId":40733285,"txHash":"be8b1f889d304b1217314c5140f6c90f5956a954fb7da3fbf51e619263c07422","txTime":"2022/05/09 17:47:34","block":7225704,"epoch":337,"slotNo":60552163,"epochSlotNo":331363,"stakeKey":"stake1uy943zhmp40pvq4sj0y5nxgjttywehm8dp5q5y47sc9hajgkulxa6"},{"txId":40733257,"txHash":"950efb59ff034804ed77d28d30a94bd317082e4a52f7bda2275bb90f6b709ff2","txTime":"2022/05/09 17:47:24","block":7225703,"epoch":337,"slotNo":60552153,"epochSlotNo":331353,"stakeKey":"stake1uyegremshffjqy73p25qj92zgrm2zzr4qs6jk20avaa40acfmth2z"}],"totalItems":274470,"totalPages":13724,"currentPage":0}