{"data":[{"blockNo":8296588,"slotNo":82697825,"epochNo":389,"epochSlotNo":13025,"hash":"647101885784ce32f09427a5d6f70c357b2cdbec28a6252ea65f0b2d6cca2752","time":"2023/01/21 01:21:56","txCount":3,"totalFees":675979,"totalOutput":84531577300,"slotLeader":"00beef284975ef87856c1343f6bf50172253177fdebc756524d43fc1"},{"blockNo":8296587,"slotNo":82697820,"epochNo":389,"epochSlotNo":13020,"hash":"adf00693c165218af27707105be8505389d9afb31385e8a0db0153cd57ef49eb","time":"2023/01/21 01:21:51","txCount":13,"totalFees":4635970,"totalOutput":258831968443,"slotLeader":"40c5a505a4276c94e49b848c1b0aa62c4ea244574f4e2e28ebb29210"},{"blockNo":8296586,"slotNo":82697802,"epochNo":389,"epochSlotNo":13002,"hash":"6c5152090c7b8203e312dbaf4535976241dbbaf3a31fada70344ee4d5daa49a8","time":"2023/01/21 01:21:33","txCount":10,"totalFees":2523116,"totalOutput":11066889703,"slotLeader":"a374a14d2fa809b5e999a474b5d085b10be2fc95e6e82da045d9e8f6"},{"blockNo":8296585,"slotNo":82697786,"epochNo":389,"epochSlotNo":12986,"hash":"6b10906b370e8e2e6f2ed54ae0473f71c02f3ba3016040fc67927d3b6d4cebe1","time":"2023/01/21 01:21:17","txCount":13,"totalFees":4883825,"totalOutput":2572998705008,"slotLeader":"5121819e5114235cb8c377ecf0a9d4e311898c447043e3b5b2848f63"},{"blockNo":8296584,"slotNo":82697774,"epochNo":389,"epochSlotNo":12974,"hash":"8087fd2f346d504cf12b84de612aabe46a0563d23a424d188a90bd2c795c8b41","time":"2023/01/21 01:21:05","txCount":12,"totalFees":4386549,"totalOutput":972130186390,"slotLeader":"a89b86373838360143aba3911eaae54bf9420868965d48d447e4510a"},{"blockNo":8296583,"slotNo":82697764,"epochNo":389,"epochSlotNo":12964,"hash":"458f461740b1251e53735da14ef8655edda7626c199de6a2a102067737f92018","time":"2023/01/21 01:20:55","txCount":19,"totalFees":6852675,"totalOutput":1507975926150,"slotLeader":"0054fc7a4e34f9a1eef15a05fdfc9d323deeb9b72a4b5ec514247e66"},{"blockNo":8296582,"slotNo":82697749,"epochNo":389,"epochSlotNo":12949,"hash":"06730d0c0a619bfff3ef2e4f9df4b4b91420113e4795a2e2b87e3ee8ab6a3de5","time":"2023/01/21 01:20:40","txCount":10,"totalFees":4294085,"totalOutput":112382233922,"slotLeader":"b900dfcf894c473620bf379f8c63aa300d8c8842a94a758758bdcd33"},{"blockNo":8296581,"slotNo":82697736,"epochNo":389,"epochSlotNo":12936,"hash":"1bca0653fb609f53a68fac42c5d6c446bfdfe774a8b2c7bfefa8a1f209de3b37","time":"2023/01/21 01:20:27","txCount":1,"totalFees":166821,"totalOutput":2173666358,"slotLeader":"83b259c187f8b88eda564b1f56ce2786360a9dc224f737fcdd8703c1"},{"blockNo":8296580,"slotNo":82697735,"epochNo":389,"epochSlotNo":12935,"hash":"c53a5038bb196075ba58db1a113f529cd54fab0a90ff120c5a97abbf17eab8fa","time":"2023/01/21 01:20:26","txCount":27,"totalFees":7137568,"totalOutput":1967588701466,"slotLeader":"463e481957f266d93e4decbfb73003380ab17223e0e569f71c7a525a"},{"blockNo":8296579,"slotNo":82697704,"epochNo":389,"epochSlotNo":12904,"hash":"b721ad8858547a4f863c0945af5f88d255525e28717e6c870e0851009269aeae","time":"2023/01/21 01:19:55","txCount":31,"totalFees":8440908,"totalOutput":3124067340743,"slotLeader":"6ec2284f8e312b5b122d85b97db828ff364d49e3c51c449bfc8889bf"},{"blockNo":8296578,"slotNo":82697703,"epochNo":389,"epochSlotNo":12903,"hash":"e4448d01ea9fcf95cd0d08f5fbe4542d35bedaa3b94649bae31a066140ade0ac","time":"2023/01/21 01:19:54","txCount":27,"totalFees":10732614,"totalOutput":20842137643585,"slotLeader":"00004614332ac81201d8302d4cb8262502af229256e143dc2156156e"},{"blockNo":8296577,"slotNo":82697634,"epochNo":389,"epochSlotNo":12834,"hash":"38097f4af727c7ebe699993f110f54c983a1581bbed5e9156062b16755c946ab","time":"2023/01/21 01:18:45","txCount":27,"totalFees":7067114,"totalOutput":101070732101,"slotLeader":"8e0bb9b126acd8e65a023602377d9a7a6f15af394d1f7bdd852182b8"},{"blockNo":8296576,"slotNo":82697611,"epochNo":389,"epochSlotNo":12811,"hash":"84e52b79b625cfe0ae26c9790034c8a07d45f62d18d47455313937cdbe68a40e","time":"2023/01/21 01:18:22","txCount":25,"totalFees":8523128,"totalOutput":933166805889,"slotLeader":"618ab17ec8ea7239b4ac0c826b667c599489e25524ce74841a29d510"},{"blockNo":8296575,"slotNo":82697580,"epochNo":389,"epochSlotNo":12780,"hash":"b194c6bad41680c11dfb6ee2f0c840c1a0207d09bb84c7b0e14be0258091f798","time":"2023/01/21 01:17:51","txCount":23,"totalFees":6022790,"totalOutput":113014972096,"slotLeader":"168b1fb18159fc3b126f9690924742fcfae2ecad94e13d76a8244ea5"},{"blockNo":8296574,"slotNo":82697554,"epochNo":389,"epochSlotNo":12754,"hash":"034d5e55ad3912f52ed365ad69d131deecd5baac4cb6a865eb3e01748ccbb125","time":"2023/01/21 01:17:25","txCount":5,"totalFees":1230600,"totalOutput":1173749627,"slotLeader":"f8328a36320b8719b07da68f3b28f019feb5907ac26a42420d3680b3"},{"blockNo":8296573,"slotNo":82697550,"epochNo":389,"epochSlotNo":12750,"hash":"7e7490ce483ba84ba2a5a216014002640227ef2e0dcdc43eac3b2a764a2d84b1","time":"2023/01/21 01:17:21","txCount":41,"totalFees":12697520,"totalOutput":1802250602234,"slotLeader":"cad3d1c69faad3a6777143009a367d07bf960a2a621d50bdf215bc0f"},{"blockNo":8296572,"slotNo":82697507,"epochNo":389,"epochSlotNo":12707,"hash":"2814f0a1bad2d42d911b59e43cef0caade154109eeaf5aab24a21a2c71c93e7e","time":"2023/01/21 01:16:38","txCount":10,"totalFees":2439093,"totalOutput":102661792715,"slotLeader":"09612bc8cf646ded39886839e962d050fb53b81fbe3487eed973554b"},{"blockNo":8296571,"slotNo":82697497,"epochNo":389,"epochSlotNo":12697,"hash":"f2def0b4964dec49fa308c583df5b64247b6108173111ef220d22a8facfca796","time":"2023/01/21 01:16:28","txCount":3,"totalFees":1370243,"totalOutput":2740397714,"slotLeader":"3116c834a09b0060aef7284f63d3275456364e3309b3c19ec328af60"},{"blockNo":8296570,"slotNo":82697494,"epochNo":389,"epochSlotNo":12694,"hash":"9ff5e38fbb80c3916706c9275349db2a96341e02c998b48503ba28350c6c6bda","time":"2023/01/21 01:16:25","txCount":15,"totalFees":5078391,"totalOutput":469131071592,"slotLeader":"f5b2ef0d7db63c8d00446cd7d9ce9cdb9e73023ffaa5e806decceb66"},{"blockNo":8296569,"slotNo":82697479,"epochNo":389,"epochSlotNo":12679,"hash":"85b862d90484be2cb86b531538ab5fcb05d7593e770ac5032630f58e5a5de71f","time":"2023/01/21 01:16:10","txCount":16,"totalFees":5651954,"totalOutput":389651949592,"slotLeader":"b6f7db82bc0ef7491d36bc4dd2b1be43529b04e16d7a6e6137abaad7"}],"totalItems":8296764,"totalPages":414839,"currentPage":0}