{"data":[{"txId":57091399,"txHash":"1df13298a01d22700ddad3df507e45119b82c9575e4dcfcbfe934303d69afae0","txTime":"2022/12/11 15:25:51","block":8126467,"epoch":380,"slotNo":79206060,"epochSlotNo":409260,"stakeKey":"stake1uxym08gezrdz8fhy9awgwuur2txstecduwemwkk92pf7kscw8xd22"},{"txId":57091386,"txHash":"b4c7d42fae7ba75c456c75ab6c02d34d3f1e4a633647fe8be27394b43aa10b87","txTime":"2022/12/11 15:24:29","block":8126466,"epoch":380,"slotNo":79205978,"epochSlotNo":409178,"stakeKey":"stake1uyp9hnw826w6vtn9gg9exgzpxjmpkx4y6gv4wr8rjekpqhqwxqzc7"},{"txId":57091131,"txHash":"cf0e3af8b911a5e8b99bc082bcd4e85abf87c04efec6776b2f1b33664f3c803e","txTime":"2022/12/11 15:19:42","block":8126453,"epoch":380,"slotNo":79205691,"epochSlotNo":408891,"stakeKey":"stake1u8eumwe3qttvrlm4gzp9x6f4m2xvcawrf8dqqajjmzxngsc6gjdwt"},{"txId":57090538,"txHash":"3b36096d0f61f859f85fe8f01de276a4fef69b4910a674a8a48498efd2bef7da","txTime":"2022/12/11 15:08:12","block":8126426,"epoch":380,"slotNo":79205001,"epochSlotNo":408201,"stakeKey":"stake1u96dkemu87v7tdfqx0tnph2cqq6q4yzvqdn80vp7jgul32swe9zge"},{"txId":57090510,"txHash":"122089163973e1380b82bd59010a64484e48f7f6208d71f745271cf68fcbef37","txTime":"2022/12/11 15:07:09","block":8126424,"epoch":380,"slotNo":79204938,"epochSlotNo":408138,"stakeKey":"stake1u8rjhynavcfvw9ee5yermkx7392px03fe88ufng8ppts0jctma5un"},{"txId":57090236,"txHash":"c9cde5ffe7ae3475fe23d2ba6c7bf9c58716870ee41e4801e65e5a193fba3948","txTime":"2022/12/11 15:00:59","block":8126409,"epoch":380,"slotNo":79204568,"epochSlotNo":407768,"stakeKey":"stake1uyewuqcvmawh8tkkd4l8wfk6gfdhe4z7l60g9hrvll233dgp3l2wf"},{"txId":57089790,"txHash":"7c24c32c05a81e9acf63713e753e6b2b62e422bef96cfaf4d614945e3ecc00da","txTime":"2022/12/11 14:51:23","block":8126386,"epoch":380,"slotNo":79203992,"epochSlotNo":407192,"stakeKey":"stake1uydvgjkkf20zznnk80297qhxk8jgpech2rm2r7zapkxqh2gjmukp9"},{"txId":57089425,"txHash":"5dd7388170f19568ad04c5f515e2d05886c8952c22d9a1f73d5c6c3f45ea096a","txTime":"2022/12/11 14:42:55","block":8126373,"epoch":380,"slotNo":79203484,"epochSlotNo":406684,"stakeKey":"stake1u8fyqs7yhmvnzf0w7akkl4fnyv0n0v2dcnekgmla4w7d7jqlvphf6"},{"txId":57089392,"txHash":"febc66188fbbc9704ceeac7e95f6cabe8c65fc757aea1f7de0fcbe957d24804d","txTime":"2022/12/11 14:42:19","block":8126370,"epoch":380,"slotNo":79203448,"epochSlotNo":406648,"stakeKey":"stake1u89l5wrpf6nh50lr4cs99yag7aq60xz8xftfuqut86wpflsvgq8gk"},{"txId":57089297,"txHash":"49db58fdc971d8476761e8e6c25b380dbd4facea3a8db7f858eaab2d44fbda2e","txTime":"2022/12/11 14:40:42","block":8126365,"epoch":380,"slotNo":79203351,"epochSlotNo":406551,"stakeKey":"stake1uya2nvw0c5xtd3qmqn86cy6k65phqe07k26mxh3mgt4yp0cvj6fk5"},{"txId":57088881,"txHash":"b562ed33af8b386ad81d7a5203eda700460da8002619b8355e280a7e5ca9364c","txTime":"2022/12/11 14:29:49","block":8126332,"epoch":380,"slotNo":79202698,"epochSlotNo":405898,"stakeKey":"stake1u8xqlrz4dh7vqc50uvx437s8cfl87gnyakwfjxy5ytthk8ccx499s"},{"txId":57087884,"txHash":"97cbb7e839fc99fa650ccb1b0c73cdd8eb7f0eec4564e5794210d3b760c86fe3","txTime":"2022/12/11 14:06:07","block":8126270,"epoch":380,"slotNo":79201276,"epochSlotNo":404476,"stakeKey":"stake1uyh2sf9dqpvqpwumsdnu2dqc4cf3xcsqxghvf9c5cy2y74c98q6xf"},{"txId":57087557,"txHash":"9fde5f8a7490c8f27c43f16b2e8038bf7d7eefc0e73ff43471ed6f855a4040a3","txTime":"2022/12/11 13:59:06","block":8126251,"epoch":380,"slotNo":79200855,"epochSlotNo":404055,"stakeKey":"stake1u8a4mhw6nm5awmzz6rwykx5rxt4evk3kta6s7c20200atpcgm75md"},{"txId":57087273,"txHash":"3186ce12114c945fc27d157e8c3bc4ed151dfc6dac93d3440e0e7108152d902f","txTime":"2022/12/11 13:52:57","block":8126236,"epoch":380,"slotNo":79200486,"epochSlotNo":403686,"stakeKey":"stake1u99drnjds9hlumwvznjl9cme6dk9ln254vp6sqvmuuk39eqqss8ja"},{"txId":57086975,"txHash":"9e6677184a50bed03dd92a9db8ee2ff6c770d173affd62efa6a702c2d7a3b0d2","txTime":"2022/12/11 13:46:41","block":8126216,"epoch":380,"slotNo":79200110,"epochSlotNo":403310,"stakeKey":"stake1uxh3jd6su4waajzw2xqngnfssw5h8uu6qxlttj5qyjyln7smvw6f8"},{"txId":57086753,"txHash":"2f68902fd8a366de2593068c389a1eba064eecc2849b970bae763b540954fa15","txTime":"2022/12/11 13:42:22","block":8126208,"epoch":380,"slotNo":79199851,"epochSlotNo":403051,"stakeKey":"stake1uyp8kmq720u7mspqq3nyxz89f63l8f6mm3e987pe22ddu8q2pqxtu"},{"txId":57085817,"txHash":"72481bcc1b2194970747bce8d573d7d8967fad5db85e10f77ddbeda47edb407e","txTime":"2022/12/11 13:17:29","block":8126134,"epoch":380,"slotNo":79198358,"epochSlotNo":401558,"stakeKey":"stake1uyakkj99c87dhwjhjyw3qlflwqrm2xe5lncpxfth9yu2s8clm9jea"},{"txId":57085638,"txHash":"0539b303765dc608977c95727469db547cb9d0d7ea16945ae9a6fce76ba9fda5","txTime":"2022/12/11 13:13:15","block":8126124,"epoch":380,"slotNo":79198104,"epochSlotNo":401304,"stakeKey":"stake1u9lem04ee6jdrlgp82e259uuazlmgf4n2g5cmpfscdur9sce6qd8q"},{"txId":57085268,"txHash":"86ccd5c9319f64122807327439036dead554237c7a9cfab21a491eb1738d770b","txTime":"2022/12/11 13:04:11","block":8126095,"epoch":380,"slotNo":79197560,"epochSlotNo":400760,"stakeKey":"stake1uyvgju0djrl03jy5f2k7n77w5jmevf5tapcp5fl9f2ju5kc3t3v09"},{"txId":57085195,"txHash":"87c3befcc1e33da0722ddbf5dcec50b4ef964f116a53f8798f0175d1a9487935","txTime":"2022/12/11 13:02:33","block":8126091,"epoch":380,"slotNo":79197462,"epochSlotNo":400662,"stakeKey":"stake1ux2q8d2ahhh6rnvhqsqaccv7gz30s7t42cxllqepxl7d37s3tfr3d"}],"totalItems":336145,"totalPages":16808,"currentPage":0}