{"data":[{"txId":57485228,"txHash":"f8fc5abaaf2733783a377c71ca42e709ba2693a1ad7d837f2a86acf37553a77a","txTime":"2022/12/15 18:29:44","block":8143859,"epoch":381,"slotNo":79562693,"epochSlotNo":333893,"stakeKey":"stake1u8c2suxx9y4ef0fek24fmt0fytk8mtuwqec0h8p7mpgefxcksr5la"},{"txId":57485116,"txHash":"d81f45130bd5a8a8aaccaba8a1a9097beca15f187e9ad119164fe97970dd7bca","txTime":"2022/12/15 18:28:33","block":8143856,"epoch":381,"slotNo":79562622,"epochSlotNo":333822,"stakeKey":"stake1u8jgkj23suk9h985dtslk5n0tz5eeqyjslrhmquj67p8s2s69wcd0"},{"txId":57485042,"txHash":"b31e32d92ebbdea79debc287baeae4735c3e415594ce65628a0d868673bf69e6","txTime":"2022/12/15 18:27:36","block":8143855,"epoch":381,"slotNo":79562565,"epochSlotNo":333765,"stakeKey":"stake1u80r4tmezaznuutpujc8w4gfdhle2h997lr4y69g7a0xegsf203j3"},{"txId":57484981,"txHash":"54a20bcf077f54dcd13fb060c3f8c18df4db9b5e566eab7b37cf3934414b916c","txTime":"2022/12/15 18:26:07","block":8143852,"epoch":381,"slotNo":79562476,"epochSlotNo":333676,"stakeKey":"stake1uxth2rn6l2jq42djt928z59mm8np40gnqzpm6ppp97mprssvzmuly"},{"txId":57484835,"txHash":"f6835d5ecd0a7fa4312223666a0c41876ae23aa92c22e4d7805a1f4d1d0fbbf7","txTime":"2022/12/15 18:24:16","block":8143847,"epoch":381,"slotNo":79562365,"epochSlotNo":333565,"stakeKey":"stake1u92s57gg9lw8mcsz6dzf0pvthaej3umru52gzfhzdp8ww4g7u3e7y"},{"txId":57484778,"txHash":"13e90524c3d40163177011814a19190aee222b60a0c645b25da7a1e29d1a8a73","txTime":"2022/12/15 18:23:14","block":8143845,"epoch":381,"slotNo":79562303,"epochSlotNo":333503,"stakeKey":"stake1uxtkjfa93v9fyv4s9zaexhrq6p84lgkjp2esuz30d4klnsgvp5d04"},{"txId":57484742,"txHash":"887144af3cd0c8dd03490260a38fbbad865cb18f3f765694f6a367f50b78f407","txTime":"2022/12/15 18:22:33","block":8143842,"epoch":381,"slotNo":79562262,"epochSlotNo":333462,"stakeKey":"stake1u8f8ffqhrgu44vnsdtul6kjls0cdv6avrcvjljpr4092c9q5p2xfj"},{"txId":57484535,"txHash":"09ae5a9abf2ecc58a968b19701ae8b1a0bf207c0e3d3cad54b823e69d6dd58c2","txTime":"2022/12/15 18:19:54","block":8143835,"epoch":381,"slotNo":79562103,"epochSlotNo":333303,"stakeKey":"stake1u8qtd0j39uyfw55lsvmst95mex7le9m3a9wauy730eqfd0q6w0497"},{"txId":57484432,"txHash":"a4e3f1fd87a4a173e6da48704fad4c9850388299369f9d7e360878fa561248d5","txTime":"2022/12/15 18:18:16","block":8143832,"epoch":381,"slotNo":79562005,"epochSlotNo":333205,"stakeKey":"stake1uxf9vdu4kf6atrfrxvlwruvx82cjmlasllledcar6j5mrdg5fydlp"},{"txId":57484204,"txHash":"16575fa8d91a3da6615157b5da1ac42493de11c053357b35dd1bd01c2ff5e195","txTime":"2022/12/15 18:14:33","block":8143821,"epoch":381,"slotNo":79561782,"epochSlotNo":332982,"stakeKey":"stake1uyxawtscn20k9nq0l0lze9v9km0jy6r806a3k2pjwydrsmctsya8h"},{"txId":57484197,"txHash":"01645400180dae66d48138f014968ae50851dca280c918edf3270a24d93c9c32","txTime":"2022/12/15 18:14:33","block":8143821,"epoch":381,"slotNo":79561782,"epochSlotNo":332982,"stakeKey":"stake1u9494wqag62ha5yfmsfaa9cgutsqsklcj78cn5ym8m7p69q90s3ym"},{"txId":57484095,"txHash":"bce19a3dcc8f9dc355bfdde643194cefd282f0953c02770748f6ae8c9700968f","txTime":"2022/12/15 18:13:19","block":8143811,"epoch":381,"slotNo":79561708,"epochSlotNo":332908,"stakeKey":"stake1uxglxy7t8ke5g88u30mrvw2ftucu755k22h7g3ctplm6nsqvcpzs2"},{"txId":57484073,"txHash":"f051abf8feaedc9010561ff2170630c58fa5ff3fb32e5afbc1eadb9412ecfcf0","txTime":"2022/12/15 18:13:06","block":8143809,"epoch":381,"slotNo":79561695,"epochSlotNo":332895,"stakeKey":"stake1u8makcy0wf8q8ww3pa58sw4w5d4ycsxs7ey7yrrmnr95v6qy35y7t"},{"txId":57484028,"txHash":"d34215646588378d6a09457cbc052659936c3fff8effd109f2769d89c98784c0","txTime":"2022/12/15 18:12:53","block":8143808,"epoch":381,"slotNo":79561682,"epochSlotNo":332882,"stakeKey":"stake1uywau62dsgz7qpls880cg00gazu6um4e0gdpfwsrkuv6lkqv7afrc"},{"txId":57483701,"txHash":"426d1129e5298cd20db947e625da010a658b4749d848b5c639a28ebae0e9a8a9","txTime":"2022/12/15 18:08:46","block":8143787,"epoch":381,"slotNo":79561435,"epochSlotNo":332635,"stakeKey":"stake1uyg9qv7e4lw5mre0fehvdlh7evt3hxj2yqv0zplvula8h2gul7c0g"},{"txId":57483053,"txHash":"5b54f7ae28abdd1c0677c05098fedded13d8a1269255b0840a7467be1611bd79","txTime":"2022/12/15 17:58:23","block":8143758,"epoch":381,"slotNo":79560812,"epochSlotNo":332012,"stakeKey":"stake1u9tdepjkvlut2a9ztkg7yw8hcwr4zc4yyqtkwuuek5aamlgx35wc2"},{"txId":57482962,"txHash":"1a9b96a710a42f1363489fc4db9c0d254cb34b894cd32e5c52beac78901554d8","txTime":"2022/12/15 17:56:38","block":8143756,"epoch":381,"slotNo":79560707,"epochSlotNo":331907,"stakeKey":"stake1uxz6u79g8t6042aj8uvyhtrhexfqddz6z3y7wl0f002jacseshhue"},{"txId":57482942,"txHash":"f6bc2ccc470de3f231fcf63313eab26d4efbb4c088af36c7c0dfff258238df82","txTime":"2022/12/15 17:56:38","block":8143756,"epoch":381,"slotNo":79560707,"epochSlotNo":331907,"stakeKey":"stake1uyg225czzesyh00zg7e7yek7qm3ea6yvqr0s7awvgyg5rws6cn6mh"},{"txId":57482911,"txHash":"a44dd277dc2576519819ebec81fd49bdac1720d4c393e3eded05fd327da2d8b1","txTime":"2022/12/15 17:55:57","block":8143754,"epoch":381,"slotNo":79560666,"epochSlotNo":331866,"stakeKey":"stake1u9z07jaudqanj4l36409n35du0mrukfzsk0aj9pw3z0wvec9xugh2"},{"txId":57482892,"txHash":"59e050afc52ba0eafa110a7cb8acb0c15ea7337644ee2f8f7da6508f3eed927c","txTime":"2022/12/15 17:55:48","block":8143753,"epoch":381,"slotNo":79560657,"epochSlotNo":331857,"stakeKey":"stake1uykpqr54zmkq88jpmyuy2vql54nwychpmlrc0q8yzxd6vjq06kzxl"}],"totalItems":1622587,"totalPages":81130,"currentPage":0}