{"data":[{"txId":29693315,"txHash":"5705427d7e78a7ecae5bd42131dfe4ba80c07be9eb137c68290c84f14b356fa8","txTime":"2022/02/02 05:52:26","block":6831343,"epoch":318,"slotNo":52214855,"epochSlotNo":202055,"stakeKey":"stake1u85vduvtam9cc8whlfx9my9wwd98ssgj2dc65adcc32u3rcqndgsg"},{"txId":29692743,"txHash":"05cd720a4cabab4ecf4df0192ffcd2c2065834239a92d4c352cb4301fe81f904","txTime":"2022/02/02 05:43:41","block":6831319,"epoch":318,"slotNo":52214330,"epochSlotNo":201530,"stakeKey":"stake1u9qwwda9ghajaksqkgggn7lk7kqksdtl2m3509p34nchymcx59thr"},{"txId":29692464,"txHash":"4225e111b7d0dc510ddc21043ebc127286279dea89a79b1fdbddd97e51bee3a6","txTime":"2022/02/02 05:40:47","block":6831310,"epoch":318,"slotNo":52214156,"epochSlotNo":201356,"stakeKey":"stake1u8xwwfe7z4uv83atk70rjxxvfcl90s0dn6vrcuwghur6grq06quma"},{"txId":29692451,"txHash":"cba9f2b233c578312bbb6ecc4950d6a497c31c64c50745f9e84a38d7dcdc8a4e","txTime":"2022/02/02 05:40:26","block":6831309,"epoch":318,"slotNo":52214135,"epochSlotNo":201335,"stakeKey":"stake1u84pyymmmsj99glfuylwnm5aq2th5q4mx8sc3pmsxpy0kugsrkrms"},{"txId":29692346,"txHash":"d96d59c616d7c0f232ca0cec3c82b75c31f6a78ae6d83686d3b99813de520485","txTime":"2022/02/02 05:39:20","block":6831306,"epoch":318,"slotNo":52214069,"epochSlotNo":201269,"stakeKey":"stake1uyq04j3sduu7vpqhfsxjveulxpt02ax6lwwxs0rm9n6l8rcwfx6ll"},{"txId":29692325,"txHash":"b80b0c4fdcc6df6723d73715e0e343a0967eaa4e49d1ca6e038ad7e28dbbd792","txTime":"2022/02/02 05:39:20","block":6831306,"epoch":318,"slotNo":52214069,"epochSlotNo":201269,"stakeKey":"stake1u8pxpxap8cayjf52e907k2en3a7mlmt0j7773p4hs8p3ufge6vy8e"},{"txId":29692201,"txHash":"f509bf305922633bbda9ceb9f8c0e5dcaf08cdc8e2e9da360043ebc19c73de4c","txTime":"2022/02/02 05:37:36","block":6831301,"epoch":318,"slotNo":52213965,"epochSlotNo":201165,"stakeKey":"stake1uy2y7uj750gn2p6g99ytw6nqprqsurru5jlyn5776sw27vsf6r2w3"},{"txId":29692036,"txHash":"4565122f28fccd29c8ac6b80a29cb4367f805410d3b8debd4f12611758554693","txTime":"2022/02/02 05:36:04","block":6831293,"epoch":318,"slotNo":52213873,"epochSlotNo":201073,"stakeKey":"stake1u9k6n4yfksdz7r77p8f0z2dq6dq74mhklrw93vpj5j88x8c28ps92"},{"txId":29692034,"txHash":"a2bbd1eb2a4d7f4c987270958688f7148cf6c19eb8031853f7b4ad9666b88d2e","txTime":"2022/02/02 05:36:04","block":6831293,"epoch":318,"slotNo":52213873,"epochSlotNo":201073,"stakeKey":"stake1uypttfsngx0achxgavmary9h9xuvmd0x2zrcs0qmvvef39qm4l4k2"},{"txId":29691990,"txHash":"a3063efa3fc190d1f6566e62e2fc1b90add07f90dfb03cec35a0f0795135c98e","txTime":"2022/02/02 05:35:14","block":6831292,"epoch":318,"slotNo":52213823,"epochSlotNo":201023,"stakeKey":"stake1uyj27z9ascfyx2ggyws6mqvvwuvzcsqrwrqjucxwvjq9jyqj68hef"},{"txId":29691407,"txHash":"48bce0487c37fcfb1257842871ec2ffe07b15577275f66afc7aa11faa63a5955","txTime":"2022/02/02 05:26:51","block":6831269,"epoch":318,"slotNo":52213320,"epochSlotNo":200520,"stakeKey":"stake1uxwd5jth7x6l4ycryxwmsal0x9fw5hz5q5t0j3jthag6vzq5yctdk"},{"txId":29690677,"txHash":"37cbefc54968a53d78f401325be1dda3a786cea233fcd52ae66788396f4878f6","txTime":"2022/02/02 05:18:55","block":6831245,"epoch":318,"slotNo":52212844,"epochSlotNo":200044,"stakeKey":"stake1uxzlcxxle8l9ku2wkg6k9ehk6a2r4ld3643fme50hq204aqu3kxm4"},{"txId":29690368,"txHash":"915acd212fd21e611bcbf3be5b03dc25a8a08e251962c991dd65a5ae2bf6bf0b","txTime":"2022/02/02 05:13:24","block":6831232,"epoch":318,"slotNo":52212513,"epochSlotNo":199713,"stakeKey":"stake1u84ekvn8j876sm3hl2a7ppyar9l6zv6ksey2mh6kn9s38qcan05qp"},{"txId":29690343,"txHash":"46e6941753b06c5b2f26df49b0bf152c49e2757f31f123f6f746fe62f24c37a3","txTime":"2022/02/02 05:13:24","block":6831232,"epoch":318,"slotNo":52212513,"epochSlotNo":199713,"stakeKey":"stake1uymjvps7sddjryxz890cafeaz29n94e6uprtlylqq3t3wwsjcftaz"},{"txId":29690031,"txHash":"ca416458aeb8fa6c0b1a8d3d2ea116d8fed5907e393f03d63e81cd71138080e8","txTime":"2022/02/02 05:07:53","block":6831220,"epoch":318,"slotNo":52212182,"epochSlotNo":199382,"stakeKey":"stake1uxsn2fq4zg9ep7k46v8y07ekyyjywnf3jwyxr7j62y80jkcaestxj"},{"txId":29689894,"txHash":"cf9e95cab69ad0e417f223a96650c8dfce568a76b9fc8f1b19beaffd4b81ef28","txTime":"2022/02/02 05:05:23","block":6831214,"epoch":318,"slotNo":52212032,"epochSlotNo":199232,"stakeKey":"stake1u8y3gfnllmxdkq6gw9jsh3y7t2eujld73x9f88ymnxju70s95hqaf"},{"txId":29689830,"txHash":"d9666a12260122138f8ecbe37f8b21009382dd3d21f0f61b5304c77f1c87854b","txTime":"2022/02/02 05:04:45","block":6831211,"epoch":318,"slotNo":52211994,"epochSlotNo":199194,"stakeKey":"stake1u9p5t29t5fcpzkt8mg4ejurzutd6je4qxhlggzup5fmty8g7k92cs"},{"txId":29689741,"txHash":"e369c1544105526afba3f5b416584181070eb9be6031bcc929d3e8a5192d2847","txTime":"2022/02/02 05:04:02","block":6831208,"epoch":318,"slotNo":52211951,"epochSlotNo":199151,"stakeKey":"stake1u80cjx7qf98dg3wlghauhw9k2602e2wejj8w6nj9ndplynsfrr5ph"},{"txId":29689618,"txHash":"bd4b9cc459abdf3629500c9dd654fdd7a7cf562d35596cf1c3a5ad20008c81f2","txTime":"2022/02/02 05:02:03","block":6831204,"epoch":318,"slotNo":52211832,"epochSlotNo":199032,"stakeKey":"stake1u8cns6zzf9afu3zm0ue7rjk9ltg02nd2kzlpdv2xnd4ndzg8c80at"},{"txId":29689428,"txHash":"3a14ba45fbfd707da1cf5bc1246fc51767eb3987cd338902a446876183264d8d","txTime":"2022/02/02 05:00:53","block":6831198,"epoch":318,"slotNo":52211762,"epochSlotNo":198962,"stakeKey":"stake1u9a2z0tgdwjpylm92x6kvw5nkd0xsplm2zjac04p0m34qhgjs7jyq"}],"totalItems":211663,"totalPages":10584,"currentPage":0}