{"data":[{"txId":30635333,"txHash":"c99e410058043a88fbf8764c9901c5e929728b7b200675f047554a92ec1844bd","txTime":"2022/02/09 09:05:25","block":6860405,"epoch":319,"slotNo":52831234,"epochSlotNo":386434,"stakeKey":"stake1ux3a7t8s0lqjkt3trf56y0vnn922ku5r0x9fptcfax335xqn8r72z"},{"txId":30635094,"txHash":"61b5424ca85261897965b6ffebbb8827534e9d2af5447b974c0a25a089882c2d","txTime":"2022/02/09 09:03:02","block":6860396,"epoch":319,"slotNo":52831091,"epochSlotNo":386291,"stakeKey":"stake1u9g9nj82klkuqafnyq620h8g5a57dv7957y63dttn5ykppchg2ndt"},{"txId":30635038,"txHash":"ca4ee7f7d16e0f4c42453d4269baba9eeeb8fdf892aa0731d8ddb61208c898fd","txTime":"2022/02/09 09:02:43","block":6860395,"epoch":319,"slotNo":52831072,"epochSlotNo":386272,"stakeKey":"stake1uyhh8glfe0pjme70qld9x5cy0vdksc4kch5ehwwlep7lv2q6jk495"},{"txId":30635034,"txHash":"0d92418d8706ae542c1754619067478b5a3291fea5cf007cd2029df0aa24e68f","txTime":"2022/02/09 09:02:43","block":6860395,"epoch":319,"slotNo":52831072,"epochSlotNo":386272,"stakeKey":"stake1u92grg3p54de2lz2f24spm7yngd94khs9pfytemyyvw60jceqcjg2"},{"txId":30635015,"txHash":"f72519da9d3a5da8d808eb619ec12bc9c3b730b71fb40406bfad81af1d9c5e64","txTime":"2022/02/09 09:02:27","block":6860394,"epoch":319,"slotNo":52831056,"epochSlotNo":386256,"stakeKey":"stake1uxjh80sj7dtp5judx9fqnv2jr9m0q3wlklv08pvwdjfcpecma6pq8"},{"txId":30634958,"txHash":"6fb579b2b8c39f9e717e0096015ae63f0841324bd188258c15309e89577c8aa3","txTime":"2022/02/09 09:00:29","block":6860390,"epoch":319,"slotNo":52830938,"epochSlotNo":386138,"stakeKey":"stake1uxcg84qhuwczce7gjdse4znt9uv85yr8fll6t6tmn49adkgnmqg47"},{"txId":30634914,"txHash":"a0603226bfecc11701ef1b58ff73dae6b5a2719677ad77a4d592e895408de698","txTime":"2022/02/09 08:59:55","block":6860388,"epoch":319,"slotNo":52830904,"epochSlotNo":386104,"stakeKey":"stake1u82l68x5f2g7r88e08p960dzamgkvtnk4jcc6pta62r9k7cg5d30u"},{"txId":30634803,"txHash":"fe25ab976704202f829bbc242375b310a2753bf44ae6ebeaea9b1783ab98f128","txTime":"2022/02/09 08:58:48","block":6860384,"epoch":319,"slotNo":52830837,"epochSlotNo":386037,"stakeKey":"stake1uytjk394zn8fvuh8y7tnft648pvzx78cs7edqjrdfcxzv5ce7dn0z"},{"txId":30634762,"txHash":"2b1e86ba632b3f06ccdb69ad313c4b09d7469f4307f395b145a36ee93dc15b2f","txTime":"2022/02/09 08:58:38","block":6860382,"epoch":319,"slotNo":52830827,"epochSlotNo":386027,"stakeKey":"stake1ux9x4vq23vr7wv3ypfdk2nx4jaeu9my2emathr0pkmqj6rqztahn5"},{"txId":30634655,"txHash":"a5ad3fab7303b438ba460b97aadb3f12e15155a1b675c68a92c7414903d1404a","txTime":"2022/02/09 08:57:05","block":6860377,"epoch":319,"slotNo":52830734,"epochSlotNo":385934,"stakeKey":"stake1u9d33zlnc2krzl6hrp6zel2pvfzzm05sse75a4y7hgegr3slzcgf9"},{"txId":30634589,"txHash":"7771f9ce8336ea7790a32b21ca0e9ba336b73441c13a174d94de294b776453a7","txTime":"2022/02/09 08:56:30","block":6860375,"epoch":319,"slotNo":52830699,"epochSlotNo":385899,"stakeKey":"stake1u8h685kyatj3ekfrf4znka393mpwvx34vkmmxuw50t3h44qcg7sav"},{"txId":30634553,"txHash":"4f925d3d61d8d95640dbc84507b47dbf3092740c893e9f93d8757d1185470df5","txTime":"2022/02/09 08:56:19","block":6860373,"epoch":319,"slotNo":52830688,"epochSlotNo":385888,"stakeKey":"stake1u95qr3f0d6ym0dwu7wztglpr007t06a7l8nc7rva2xvtu8sna69xs"},{"txId":30634460,"txHash":"53b94dcfdadedda6f52cfb2629b287a45ebbb8be877776778a1daa434faa6113","txTime":"2022/02/09 08:55:18","block":6860369,"epoch":319,"slotNo":52830627,"epochSlotNo":385827,"stakeKey":"stake1uxkupwvz9q8yj68mfw0dsgqyz8s2k7qyd7uvk3n44gkuh6sk30tsp"},{"txId":30634315,"txHash":"6c93c27cce23ae8ac6843e0643fb40c7874f1e8c43e836b1f5fb6bbba4aae864","txTime":"2022/02/09 08:52:13","block":6860363,"epoch":319,"slotNo":52830442,"epochSlotNo":385642,"stakeKey":"stake1uxk56pl40y7uq2yx39t2ja3q0dtmz279lw8med3qd0xtc9cueev4q"},{"txId":30634312,"txHash":"ecc48dbd27f48bf00b8ec9b7dd625f4b4d7ecf38051bf6d446bc29aa5633d907","txTime":"2022/02/09 08:52:13","block":6860363,"epoch":319,"slotNo":52830442,"epochSlotNo":385642,"stakeKey":"stake1ux88wkmmzrluwns33vy0m3m9jyk4r97axhgyuedvx98djhqaaszv5"},{"txId":30634241,"txHash":"6e1947bc5a0c8d1b10a80d7686765fee1361681fe5da9c4b39fbd86b500020c6","txTime":"2022/02/09 08:51:25","block":6860360,"epoch":319,"slotNo":52830394,"epochSlotNo":385594,"stakeKey":"stake1uxc9tk845pwat3296ygtqy5qq7jzp9fflmrget5hlnaczwc7glhap"},{"txId":30634227,"txHash":"f211f7368def9d53d047d8b233a4534849055465d143072b05e24bb78c19507e","txTime":"2022/02/09 08:51:25","block":6860360,"epoch":319,"slotNo":52830394,"epochSlotNo":385594,"stakeKey":"stake1uxrsqycz9s0mcsnaudfdexkhx76re55e7uh3xuxhyuldj6gz89lgf"},{"txId":30634214,"txHash":"a58b06ae76cbff509bb0776d051ed9bc1cd9d8cfcd9a5188c55d174d2fe1eed2","txTime":"2022/02/09 08:51:01","block":6860359,"epoch":319,"slotNo":52830370,"epochSlotNo":385570,"stakeKey":"stake1uxea6w9nlr6h5k4euf9tjavu5335kle07yw24qps6smpr0savxfmu"},{"txId":30634194,"txHash":"6ab39396c87ddbb9d42b2d1afcfef635d16115b3dc56810d8b1e9934f8a66461","txTime":"2022/02/09 08:50:21","block":6860358,"epoch":319,"slotNo":52830330,"epochSlotNo":385530,"stakeKey":"stake1uyqv6kta5jq9csarwwm9smkmffrddq6sgz6yv6jczqhnauca7vdjg"},{"txId":30634089,"txHash":"016521fee061603543d9e359a8eb26b52af62ebfcf23f689b81f40c3b2f9c033","txTime":"2022/02/09 08:49:08","block":6860355,"epoch":319,"slotNo":52830257,"epochSlotNo":385457,"stakeKey":"stake1ux7aky5xs3smqd7qlkhjzu8vtn9vlqg4k6fcknnfrgvnz7qx6zy5y"}],"totalItems":1403302,"totalPages":70166,"currentPage":0}