{"data":[{"blockNo":8531933,"slotNo":87555989,"epochNo":400,"epochSlotNo":119189,"hash":"22817b53cbd3adf16752d30059791212232deed7de886721cdef28609815082a","time":"2023/03/18 06:51:20","txCount":1,"totalFees":178613,"totalOutput":16310855,"slotLeader":"533a710c19bdddc144ab19900d37a81488088259981a5d4885031ce3"},{"blockNo":8531932,"slotNo":87555988,"epochNo":400,"epochSlotNo":119188,"hash":"0f358afa63a7c09a66f2fc14cb6dbc59f6e120741b39272d2cb294240acfcdd6","time":"2023/03/18 06:51:19","txCount":2,"totalFees":701063,"totalOutput":919558128,"slotLeader":"533a710c19bdddc144ab19900d37a81488088259981a5d4885031ce3"},{"blockNo":8531931,"slotNo":87555982,"epochNo":400,"epochSlotNo":119182,"hash":"0dc76af36bc9ec94e52cafe76d8367265719cbd768f8b386053944b42c1c2886","time":"2023/03/18 06:51:13","txCount":5,"totalFees":1789901,"totalOutput":35712835079196,"slotLeader":"00beef534478b59ba0b2b646348c8d1f81f60bf40a2195c6378dd5db"},{"blockNo":8531930,"slotNo":87555961,"epochNo":400,"epochSlotNo":119161,"hash":"084ecbcfb5c62077e58848f8448172ea339572b9788800ba7a349bc513b44317","time":"2023/03/18 06:50:52","txCount":0,"totalFees":0,"totalOutput":0,"slotLeader":"f0e3c8d48efb750cdf256b68babc880787bc688972acfbbee1ffc537"},{"blockNo":8531929,"slotNo":87555953,"epochNo":400,"epochSlotNo":119153,"hash":"a3f5dbd9b8bef1e8f1b27061a8ad112ea7a512dc508a37a542db38bbf3d2a87b","time":"2023/03/18 06:50:44","txCount":12,"totalFees":5001243,"totalOutput":27484552373000,"slotLeader":"49f23c86547526bbd0c9320d3704542c84472f426b923a3e429392eb"},{"blockNo":8531928,"slotNo":87555933,"epochNo":400,"epochSlotNo":119133,"hash":"a34afc61f53a1bb86d0381203ac00838304ab49e38a9d45338e0d59f2a295516","time":"2023/03/18 06:50:24","txCount":34,"totalFees":11554751,"totalOutput":5917727853089,"slotLeader":"b3f9883d3de29971c43e05fdb985281ffee737be0e5669094810ba6b"},{"blockNo":8531927,"slotNo":87555862,"epochNo":400,"epochSlotNo":119062,"hash":"93a814c3c32fb86763ee69b296fdd6a063a96098a6b2f8947460ab3ba50b993b","time":"2023/03/18 06:49:13","txCount":1,"totalFees":177733,"totalOutput":558364472,"slotLeader":"9dfeca095f80562460252072fd8438f08936ef5a2077583a9722bd97"},{"blockNo":8531926,"slotNo":87555859,"epochNo":400,"epochSlotNo":119059,"hash":"6d2635f25ba5b257b4eb4fe11b8228886886336976b2bdfea84b24133a202c20","time":"2023/03/18 06:49:10","txCount":7,"totalFees":2276844,"totalOutput":21410371440401,"slotLeader":"087cb9a9dab66751853893b0de0628aee88c36f82fd0c1ee3b998548"},{"blockNo":8531925,"slotNo":87555836,"epochNo":400,"epochSlotNo":119036,"hash":"cda8c83ab8e9cadebee8af6226400ce1c0e037cf4efe9655b879c2a9e4d698f0","time":"2023/03/18 06:48:47","txCount":2,"totalFees":399202,"totalOutput":346144167,"slotLeader":"dda4bc64e339336e3f7bc158177df0c71dc760ff11cb8b0651b3ece4"},{"blockNo":8531924,"slotNo":87555830,"epochNo":400,"epochSlotNo":119030,"hash":"279107d16837ae426667fa96f194d62cd7204473d349fa7f4046119faa57696f","time":"2023/03/18 06:48:41","txCount":17,"totalFees":6559087,"totalOutput":5579006083941,"slotLeader":"55eaf38bf6eb1c6755d67175b59f93940f09abd6792d525c55089903"}],"totalItems":5802,"totalPages":581,"currentPage":0}