{"data":[{"blockNo":7790425,"slotNo":72290495,"epochNo":364,"epochSlotNo":405695,"hash":"f12b24a755e306b36758ab1005d92b7e9c1511cf4fe740d44364424c54456484","time":"2022/09/22 14:26:26","txCount":5,"totalFees":1344960,"totalOutput":95543670796,"slotLeader":"618ab17ec8ea7239b4ac0c826b667c599489e25524ce74841a29d510"},{"blockNo":7790424,"slotNo":72290491,"epochNo":364,"epochSlotNo":405691,"hash":"bd0aac285f88c9a50a5bfce7c87891b00780d2dc2dc2280331b6af4b2e2049db","time":"2022/09/22 14:26:22","txCount":19,"totalFees":5512077,"totalOutput":3577725314,"slotLeader":"d66b1218d56cb0c9c3937207b3ae61bbff21ae212ae791722062f0e1"},{"blockNo":7790423,"slotNo":72290472,"epochNo":364,"epochSlotNo":405672,"hash":"b92ef6b40997e1e6643a48efcd5cd136c2752a01ec277f6f3c8822ced820b7e8","time":"2022/09/22 14:26:03","txCount":2,"totalFees":428066,"totalOutput":1734440099,"slotLeader":"1b268f4cba3faa7e36d8a0cc4adca2096fb856119412ee7330f692b5"},{"blockNo":7790422,"slotNo":72290469,"epochNo":364,"epochSlotNo":405669,"hash":"12c3470fa8236bcc0ebc72a540e464e08df94a42222eb2ed94f6c834e0b8e9de","time":"2022/09/22 14:26:00","txCount":32,"totalFees":12748544,"totalOutput":2846790689299,"slotLeader":"9ca4378a7ee308d910efd7a611a1df2181314c25723ff4cfa855664c"},{"blockNo":7790421,"slotNo":72290421,"epochNo":364,"epochSlotNo":405621,"hash":"5b53f9a3aa1a8d110f24f44f3345e6405c73d44e310b48e0801e1a19b928d804","time":"2022/09/22 14:25:12","txCount":5,"totalFees":1563377,"totalOutput":521724919,"slotLeader":"c7e431518477a4156c2a8cd6523a6a73514e7fbbbf7eed363b9a22ad"},{"blockNo":7790420,"slotNo":72290415,"epochNo":364,"epochSlotNo":405615,"hash":"7e4cb028f0e2b29281dc6bb51e7127ddb0ceb5991bed8065d831b52680a06e72","time":"2022/09/22 14:25:06","txCount":2,"totalFees":798282,"totalOutput":7226682530,"slotLeader":"0c2cfc283e0bbb85b9ef9d852c99ae7ee13f20f36b70fd648c6c3448"},{"blockNo":7790419,"slotNo":72290411,"epochNo":364,"epochSlotNo":405611,"hash":"59a8305c09cd7be5fa3cf8ef361bfa7b13cb69b55e20c94ae7b75c56d6a5ae55","time":"2022/09/22 14:25:02","txCount":9,"totalFees":5364721,"totalOutput":353454482069,"slotLeader":"76bfa1b2e6593740c3388ed881cbe851dbab8d8741652c9bad16cc94"},{"blockNo":7790418,"slotNo":72290398,"epochNo":364,"epochSlotNo":405598,"hash":"af6827b6b26666fc8c250b2f91f617010d18c086e36933c2a27747799fdcd3e4","time":"2022/09/22 14:24:49","txCount":4,"totalFees":840240,"totalOutput":936833165,"slotLeader":"397f04eb0ae0497d8c4d691844c8c6b026bc942e3f406f26b8e24f48"},{"blockNo":7790417,"slotNo":72290393,"epochNo":364,"epochSlotNo":405593,"hash":"a633de5de5a5b1a68580485d538668a386ed5ac0f48d14c427a643f2879114ba","time":"2022/09/22 14:24:44","txCount":11,"totalFees":4492668,"totalOutput":381514671878,"slotLeader":"a7784228ea544bc94455e76f527aaee53266929f0bb2896893a0444f"},{"blockNo":7790416,"slotNo":72290379,"epochNo":364,"epochSlotNo":405579,"hash":"ec62ae33d4a2331deaf0815a013daae92436ee99bb3315e48b2f6f910b45e1a4","time":"2022/09/22 14:24:30","txCount":23,"totalFees":7165881,"totalOutput":19587781015,"slotLeader":"83f09b0af923a095a1c17905e802a35d1044f974b25d2a755a2d8266"}],"totalItems":19691,"totalPages":1970,"currentPage":0}