{"data":[{"blockNo":7225813,"slotNo":60554244,"epochNo":337,"epochSlotNo":333444,"hash":"4941376ff9ebc3878b79fdb0e3c389e2d6d5dde6059b6dc107f673cc250bacb4","time":"2022/05/09 18:22:15","txCount":3,"totalFees":1499331,"totalOutput":3339392647835,"slotLeader":"34ae2462f0fab1866281947a022d85bddf29f45a8b9699baabbbfcb9"},{"blockNo":7225812,"slotNo":60554239,"epochNo":337,"epochSlotNo":333439,"hash":"258a32ab1c3c9d8cbc34d20d0e709be9262a0ab1663dc62f3dc535494c5f441e","time":"2022/05/09 18:22:10","txCount":18,"totalFees":4610424,"totalOutput":212377971238,"slotLeader":"f8328a36320b8719b07da68f3b28f019feb5907ac26a42420d3680b3"},{"blockNo":7225811,"slotNo":60554225,"epochNo":337,"epochSlotNo":333425,"hash":"8f5d560f8c110c7403bc37b0f97fe0d9d3e20a3db563d00999d57215c325d123","time":"2022/05/09 18:21:56","txCount":12,"totalFees":6270988,"totalOutput":2082690874017,"slotLeader":"093281f3d46eaa6422b2b9e257d67059d303805adb166073ab656a3b"},{"blockNo":7225810,"slotNo":60554217,"epochNo":337,"epochSlotNo":333417,"hash":"2ff5455920069facb8e3cde445aad0dfcbec7cfc7ea26c12edb9ccaf10b0814c","time":"2022/05/09 18:21:48","txCount":36,"totalFees":14119932,"totalOutput":5287075449718,"slotLeader":"c83beb18d532234c72a304ab935982be670c22e771b227a3febc3a82"},{"blockNo":7225809,"slotNo":60554188,"epochNo":337,"epochSlotNo":333388,"hash":"158c7f39f427e6171630accd9c7e836f6f60b4cdd0424051ecb1798a516ca12f","time":"2022/05/09 18:21:19","txCount":30,"totalFees":9832627,"totalOutput":1496733195420,"slotLeader":"d765dee553a7e041d525b1782a10eb0a5e52e96ed55ed173d8bb82a7"},{"blockNo":7225808,"slotNo":60554186,"epochNo":337,"epochSlotNo":333386,"hash":"f8327e0be37d9750881c505650ddfcf4f8d48f94aad6e86ca1e48abb38d8bf1f","time":"2022/05/09 18:21:17","txCount":25,"totalFees":9928900,"totalOutput":1098269395330,"slotLeader":"aa8ce95c3862c3e5f6e1dccebfcf36f4379484ae9eb42d7a476483b9"},{"blockNo":7225807,"slotNo":60554144,"epochNo":337,"epochSlotNo":333344,"hash":"f81e77ae20b8fe3e36b09681aa17e7abdb0f696f1fdac5377f707d90091ef7e3","time":"2022/05/09 18:20:35","txCount":40,"totalFees":12084102,"totalOutput":40592965455797,"slotLeader":"486d217a5ef6e9cb5e46a19900a56b1c1f4f1ec4374b744df5a1ef6a"},{"blockNo":7225806,"slotNo":60554142,"epochNo":337,"epochSlotNo":333342,"hash":"2504b5b6e03d93ecc4c8345843adba9501603243a963e4e200e48a14aecfee69","time":"2022/05/09 18:20:33","txCount":39,"totalFees":12350102,"totalOutput":5127210131676,"slotLeader":"40ff71258d2c73da9e2a5ee3abb9be256e745e7f74c31eb8d4be5299"},{"blockNo":7225805,"slotNo":60554117,"epochNo":337,"epochSlotNo":333317,"hash":"a075e2622f13a040ebdc974acc7e44c40e9f3c7c566dbe27dcd7a408fededc15","time":"2022/05/09 18:20:08","txCount":34,"totalFees":12865325,"totalOutput":11489420806157,"slotLeader":"cb3e1428aa4d240ca528edfd992d6509b47335849a91f0d70e5b0ffd"},{"blockNo":7225804,"slotNo":60554080,"epochNo":337,"epochSlotNo":333280,"hash":"5b41e516df78798f2b9ef08e9cec1c62f1bc6e0bb501a4963fc638ffc6d80ce9","time":"2022/05/09 18:19:31","txCount":38,"totalFees":13505219,"totalOutput":28202216537532,"slotLeader":"f51e13866bf3427d1a1e97ec3c6e22e662d3a030ac26812e111c94cf"},{"blockNo":7225803,"slotNo":60554051,"epochNo":337,"epochSlotNo":333251,"hash":"8294e4b2b240209020b5905ee3cab817cc4e1128e2e75be6d0f1126dbd8c8456","time":"2022/05/09 18:19:02","txCount":48,"totalFees":14843816,"totalOutput":527368878020,"slotLeader":"7e3a1ed8f2085923debacc6866aefaba941edd638ff0886061ebf521"},{"blockNo":7225802,"slotNo":60553987,"epochNo":337,"epochSlotNo":333187,"hash":"5427d39c3b9c7f23d7dbf91429589c7d21e77ddc6f7c3fbb48600a3594d51476","time":"2022/05/09 18:17:58","txCount":25,"totalFees":10369266,"totalOutput":47230329837881,"slotLeader":"c01546efeba17d531d60447356fc4c19b29c632aeac3377d21f75b4e"},{"blockNo":7225801,"slotNo":60553969,"epochNo":337,"epochSlotNo":333169,"hash":"ae67d1cd8bc62458dd4fed01c2dd21f6bbc3f9e39a4172c4d6c4d59fbafbb348","time":"2022/05/09 18:17:40","txCount":38,"totalFees":12083716,"totalOutput":603038557870,"slotLeader":"2d10d9ee5a86c5cedb75cacd033a2945cfd80315eb978858244cec1c"},{"blockNo":7225800,"slotNo":60553960,"epochNo":337,"epochSlotNo":333160,"hash":"941494acf6567b305e8899960a7f755fa76f5814725d838170f42b44de579b56","time":"2022/05/09 18:17:31","txCount":42,"totalFees":13101014,"totalOutput":3500675840551,"slotLeader":"0d8fb11358f653adc406c1508d27f9c1741c4eb06b75bef6d676489a"},{"blockNo":7225799,"slotNo":60553917,"epochNo":337,"epochSlotNo":333117,"hash":"67252fb42502f7566dcda29a1d0b890fbf3c983b5ffb292cf0595edf6618c65b","time":"2022/05/09 18:16:48","txCount":32,"totalFees":11727886,"totalOutput":1181787554722,"slotLeader":"e0ac9f1b68d0621a4e6723f369a50e81f27916acb7cd42bc03eaac93"},{"blockNo":7225798,"slotNo":60553859,"epochNo":337,"epochSlotNo":333059,"hash":"e5f0b5e69dd4b4500ae4438ba3af32d5586227c58e6d4e0fa76fca24794fa31c","time":"2022/05/09 18:15:50","txCount":14,"totalFees":6035173,"totalOutput":1501202887400,"slotLeader":"2e65f9aa580a28d0df07dd2773c09da9604c40127b158919da9db85d"},{"blockNo":7225797,"slotNo":60553855,"epochNo":337,"epochSlotNo":333055,"hash":"315b0fad43b0080dc6c91952e19602490a64428d4e47fa9c7615539b97840fdd","time":"2022/05/09 18:15:46","txCount":29,"totalFees":10989346,"totalOutput":2780978545858,"slotLeader":"1c8cd022e993a8366be641c17cb6d9c5d8944e00bfce3189d8b1515a"},{"blockNo":7225796,"slotNo":60553826,"epochNo":337,"epochSlotNo":333026,"hash":"7aae267ee146c4a11cab2eb7529d61f47515110eea3d0df6b6917648c00ad9d7","time":"2022/05/09 18:15:17","txCount":17,"totalFees":7587521,"totalOutput":156216520247,"slotLeader":"80790f58f82501881d46bbb4f6b9d6536ac1a60fdd18350a0b7d50b0"},{"blockNo":7225795,"slotNo":60553817,"epochNo":337,"epochSlotNo":333017,"hash":"22a89da00e28c5109f027b14b22a924a4289ef48bc367b8d1154bccf3cc630ce","time":"2022/05/09 18:15:08","txCount":38,"totalFees":11848868,"totalOutput":954385804858,"slotLeader":"43bf2e2c7601bd6dfb38564fc2c48f5b1a773fdb4095dee412f52e50"},{"blockNo":7225794,"slotNo":60553797,"epochNo":337,"epochSlotNo":332997,"hash":"8a9dfbc311bcf80739a8f173374caa702ea0e8db723f72eb86fdca12a04f46c0","time":"2022/05/09 18:14:48","txCount":2,"totalFees":693054,"totalOutput":9542668470,"slotLeader":"297b5acd8b90df8a1bfd98aa1a61f323b87fead4b8a2b55f2fb83ce6"}],"totalItems":7225989,"totalPages":361300,"currentPage":0}