{"data":[{"blockNo":1076040,"slotNo":31664980,"epochNo":77,"epochSlotNo":42580,"hash":"55917515951bf125b22c3b70fa0df82c84568d29e07f193782834324d0eedfb5","time":"2023/06/21 11:49:40","txCount":0,"totalFees":0,"totalOutput":0,"slotLeader":"ca128569cf8101f21418d52e28c50062803112dd3ad3ccc71885a38f"},{"blockNo":1076039,"slotNo":31664968,"epochNo":77,"epochSlotNo":42568,"hash":"d2f8b3fa8c2f7ab6d095fa171d4c5cd8ad383cf9edbb0a6cb7d6e99fb7e6d2cf","time":"2023/06/21 11:49:28","txCount":1,"totalFees":256669,"totalOutput":10459985,"slotLeader":"156ec40038c18f9f9ea77c3cf0107524a297b202673545b7b55af375"},{"blockNo":1076038,"slotNo":31664913,"epochNo":77,"epochSlotNo":42513,"hash":"2036a13170fe32ec8cccde518d8fb21acf269949b7e85271b5928a32d965290b","time":"2023/06/21 11:48:33","txCount":3,"totalFees":764756,"totalOutput":5092114594,"slotLeader":"99ebbcff468e4f00be5246f21de5e2db0e8b38f8bc0a7801c658f8cb"},{"blockNo":1076037,"slotNo":31664868,"epochNo":77,"epochSlotNo":42468,"hash":"2031ed73fa413df31c5aff5446d76bf431b8b2e7beef746f853ff4b5f085ed68","time":"2023/06/21 11:47:48","txCount":0,"totalFees":0,"totalOutput":0,"slotLeader":"baba8f13322b33c1ebc2bf1e805bd8ee5300657ff2c0f0749bc892e2"},{"blockNo":1076036,"slotNo":31664864,"epochNo":77,"epochSlotNo":42464,"hash":"8cee917f19089d75d829114d750c16b379931ba454ab75584644dcab1d642c81","time":"2023/06/21 11:47:44","txCount":3,"totalFees":757592,"totalOutput":9265252952,"slotLeader":"ba66d1d25d8bbc158ae1941b03a5592663cda35391d7ec03502b1ad9"},{"blockNo":1076035,"slotNo":31664777,"epochNo":77,"epochSlotNo":42377,"hash":"2a309607d6899c3bce4ffcf5a743f32ca0fd235c4379688fc2b5a2804e8fc691","time":"2023/06/21 11:46:17","txCount":0,"totalFees":0,"totalOutput":0,"slotLeader":"ba66d1d25d8bbc158ae1941b03a5592663cda35391d7ec03502b1ad9"},{"blockNo":1076034,"slotNo":31664729,"epochNo":77,"epochSlotNo":42329,"hash":"544ca6d41b5b3c753f5b26aa30bb66147af354d14db50256a8834b6fead6ca85","time":"2023/06/21 11:45:29","txCount":0,"totalFees":0,"totalOutput":0,"slotLeader":"8ed5ab11e76094fa2a2ab29fc3a57498d07e68f6fde6f326162eea88"},{"blockNo":1076033,"slotNo":31664706,"epochNo":77,"epochSlotNo":42306,"hash":"b983390ea33f72587b5eb927f3622ed6f2b8d18b2fc0d67e70850836944ed8da","time":"2023/06/21 11:45:06","txCount":0,"totalFees":0,"totalOutput":0,"slotLeader":"5cb14d2c1eeb6daace6057dbc8a6b3bea06b06f7dcf32ff35ee1bddc"},{"blockNo":1076032,"slotNo":31664681,"epochNo":77,"epochSlotNo":42281,"hash":"01ed943181d14ba5e4ac760ee4daa6fe304002931459ef25ccd23857679585db","time":"2023/06/21 11:44:41","txCount":0,"totalFees":0,"totalOutput":0,"slotLeader":"8ed5ab11e76094fa2a2ab29fc3a57498d07e68f6fde6f326162eea88"},{"blockNo":1076031,"slotNo":31664669,"epochNo":77,"epochSlotNo":42269,"hash":"9b8aa0b42e65bf213e781f71c89173b8e8ffb439dbfe9e713f5c6352ec114ad7","time":"2023/06/21 11:44:29","txCount":0,"totalFees":0,"totalOutput":0,"slotLeader":"a71a124e7504ab06afe9155efbe6b3e8f7d42efaa1662f98f11eedf0"},{"blockNo":1076030,"slotNo":31664668,"epochNo":77,"epochSlotNo":42268,"hash":"0202b6496f36d5d01d49ab660de4d3179c41c1e045e6b3fe23b3520489536f7f","time":"2023/06/21 11:44:28","txCount":0,"totalFees":0,"totalOutput":0,"slotLeader":"baba8f13322b33c1ebc2bf1e805bd8ee5300657ff2c0f0749bc892e2"},{"blockNo":1076029,"slotNo":31664651,"epochNo":77,"epochSlotNo":42251,"hash":"e00540fad16549c977065bfdc2937d8aa0807cede405ea9a5db6059810407c2b","time":"2023/06/21 11:44:11","txCount":0,"totalFees":0,"totalOutput":0,"slotLeader":"8ed5ab11e76094fa2a2ab29fc3a57498d07e68f6fde6f326162eea88"},{"blockNo":1076028,"slotNo":31664626,"epochNo":77,"epochSlotNo":42226,"hash":"b6b1a0ac5116879403c879fe37ff0e4f26ba3d96cf9f153fe4b10c140a03dd64","time":"2023/06/21 11:43:46","txCount":0,"totalFees":0,"totalOutput":0,"slotLeader":"7facad662e180ce45e5c504957cd1341940c72a708728f7ecfc6e349"},{"blockNo":1076027,"slotNo":31664586,"epochNo":77,"epochSlotNo":42186,"hash":"f0148e65e5df8303789a6b1262fdbb9880a86ba8192004bbb26b9bd296759735","time":"2023/06/21 11:43:06","txCount":0,"totalFees":0,"totalOutput":0,"slotLeader":"097ed33e2485fe2955bfbffa66d0b3e58909363bfb707c7194ee4e5f"},{"blockNo":1076026,"slotNo":31664553,"epochNo":77,"epochSlotNo":42153,"hash":"8347a8005d0934b6f9469b0c2dfee369be1abb371cd8012f79f7f5ee98e3dfad","time":"2023/06/21 11:42:33","txCount":0,"totalFees":0,"totalOutput":0,"slotLeader":"8ffb4c8e648c0662f2a91157c92feaa95f1a3d2728eaea8257b3d8d9"},{"blockNo":1076025,"slotNo":31664549,"epochNo":77,"epochSlotNo":42149,"hash":"9d53dd02dbcf4e36fd2001955c17fa14633f6f726a1c7f70a9879f6b39eb0358","time":"2023/06/21 11:42:29","txCount":0,"totalFees":0,"totalOutput":0,"slotLeader":"d84ba9070a6afa3e09f8e8b7f95df16e58f2e8b8a8c1170f579e2a39"},{"blockNo":1076024,"slotNo":31664543,"epochNo":77,"epochSlotNo":42143,"hash":"ca87b900da4b1f5a3da1031c2a8b5e18d50ca453950aa252e331ea7cca624707","time":"2023/06/21 11:42:23","txCount":1,"totalFees":179141,"totalOutput":1820859,"slotLeader":"8ed5ab11e76094fa2a2ab29fc3a57498d07e68f6fde6f326162eea88"},{"blockNo":1076023,"slotNo":31664525,"epochNo":77,"epochSlotNo":42125,"hash":"1ccbfb1dbb8d55967ff3e49d5cc195251f31d8877a3cf14168d19fb76ca926ad","time":"2023/06/21 11:42:05","txCount":1,"totalFees":192517,"totalOutput":309736449,"slotLeader":"8ed5ab11e76094fa2a2ab29fc3a57498d07e68f6fde6f326162eea88"},{"blockNo":1076022,"slotNo":31664484,"epochNo":77,"epochSlotNo":42084,"hash":"3c0a06aace82703cecbd17df45956579e9c761528076b0ba64c3d18f60e64ecc","time":"2023/06/21 11:41:24","txCount":0,"totalFees":0,"totalOutput":0,"slotLeader":"d3f9468c1d40296aedc8b8611d6180f674cc057ba0ceb9d8380daee6"},{"blockNo":1076021,"slotNo":31664460,"epochNo":77,"epochSlotNo":42060,"hash":"398f2f5401e3b116244eb1ae1a2a689d9de0148f71996d7469b3c6dcb8e37f30","time":"2023/06/21 11:41:00","txCount":0,"totalFees":0,"totalOutput":0,"slotLeader":"865def3b7ba910d9a963dd28944b16396892019398008dbb8b21f40a"}],"totalItems":1076041,"totalPages":53803,"currentPage":0}