{"data":[{"txId":54116387,"txHash":"80a4605a3ee82371fc788ca04f230141dd5abbd7176ceaa6baf1a9dbad95e789","txTime":"2022/11/02 12:49:30","block":7962644,"epoch":373,"slotNo":75827079,"epochSlotNo":54279,"stakeKey":"stake1u8clnt94xs7r55py34cg8h08evsqav3a7qnm3a0lngga8gs89sn57"},{"txId":54116359,"txHash":"91bb5b185531f40072722e4975bf3868d5e9679521441e891212468d871fdd0b","txTime":"2022/11/02 12:48:56","block":7962642,"epoch":373,"slotNo":75827045,"epochSlotNo":54245,"stakeKey":"stake1ux2g38wwzfsmdw6skf8augv46ypspkwsg5j7r54h5kq7vacxh4zmv"},{"txId":54116335,"txHash":"9a1251d6c87fe51e9bbd17a94eb2042e11c378ae45081b0177077151f4bc6b5e","txTime":"2022/11/02 12:48:42","block":7962641,"epoch":373,"slotNo":75827031,"epochSlotNo":54231,"stakeKey":"stake1uxnm5hyhzjm0un8au7l9sc0ef3c60ejr420ul62gwg36sgcsqay5f"},{"txId":54116183,"txHash":"d7c3c596b0b7a0e8132763d1e25231fc980a649291cd61d4cc742d71af1bf5b9","txTime":"2022/11/02 12:46:08","block":7962634,"epoch":373,"slotNo":75826877,"epochSlotNo":54077,"stakeKey":"stake1u978r08ppwh9ejjxltgskztxysn525sddx23tqsejsrwa3qs07lre"},{"txId":54116036,"txHash":"826214a16752541779e3d988d52f8bf6e3c9568c79b075d5a4d9c57ed9da655f","txTime":"2022/11/02 12:44:08","block":7962626,"epoch":373,"slotNo":75826757,"epochSlotNo":53957,"stakeKey":"stake1uy2asvgsnh8f8pgnjx248edwp3lt4znqwymxqn6rjjxpclg8cuat5"},{"txId":54115742,"txHash":"ab3b905be64189d552c6d8ec14ed8898f8a1f67083ff2d2f3a9bb7ddc9c90456","txTime":"2022/11/02 12:39:58","block":7962612,"epoch":373,"slotNo":75826507,"epochSlotNo":53707,"stakeKey":"stake1u8t9xk6vlghqz22uqdttv4aryxdafk6kcq7jnlkcmeucjuqklsf7w"},{"txId":54115599,"txHash":"f69a1c4727359f66df67ad177d5dec9aabf93f7a2f82ca7b2ba4d2923e5596af","txTime":"2022/11/02 12:37:48","block":7962606,"epoch":373,"slotNo":75826377,"epochSlotNo":53577,"stakeKey":"stake1u84sqwtdtx4lj7y2rcc6h58afftrx52vnxjxyjy5u0jtchcq0qt9j"},{"txId":54115134,"txHash":"74204e19fe6a0d45530522212bb5b682aefa9324a40cb7d252887fdd07fd476a","txTime":"2022/11/02 12:28:56","block":7962582,"epoch":373,"slotNo":75825845,"epochSlotNo":53045,"stakeKey":"stake1uychr9zaurmjf3dlwjxthrqrxdawmn24vydu4w09f6t6s2q3hecw0"},{"txId":54115124,"txHash":"d645385762379712891407a9a000f9c7163b62fc09c32cd854c89788888c6919","txTime":"2022/11/02 12:28:56","block":7962582,"epoch":373,"slotNo":75825845,"epochSlotNo":53045,"stakeKey":"stake1uyymejwre39nz67z3jzr92q6yulxf80dt44jfswn6dh3kjsczrumh"},{"txId":54114686,"txHash":"ea1737d427263bcceb4a90ef8d4e969006ec5f8f14b0ac7c931bad5782d6169c","txTime":"2022/11/02 12:21:30","block":7962563,"epoch":373,"slotNo":75825399,"epochSlotNo":52599,"stakeKey":"stake1uygwhq550d0gk9v7u56qyyh89dlldegugj67pxf0v8avq2gafa28x"},{"txId":54114664,"txHash":"da1c481a180e6b20f12d53e7d0d7452d65b2de8470f56a1735141d32f844aec3","txTime":"2022/11/02 12:21:14","block":7962562,"epoch":373,"slotNo":75825383,"epochSlotNo":52583,"stakeKey":"stake1u8j5uq42yahjfn496qgvrhwst7lzajuuv5ezl04a4v2xe0sd7hckm"},{"txId":54114623,"txHash":"4125b1c48d095b1b7395b775ec2158cc93a6452b1cd3eb373a868a738751b839","txTime":"2022/11/02 12:21:02","block":7962561,"epoch":373,"slotNo":75825371,"epochSlotNo":52571,"stakeKey":"stake1u82dntka0j7a7zlmxm30qgtp0eqdhd4la5d23cjehxgc5yq5umahq"},{"txId":54114616,"txHash":"22e1a0bb34abc803964a5865acdb25c79ce636d4fac4c2e4f71d9522724fdbce","txTime":"2022/11/02 12:21:02","block":7962561,"epoch":373,"slotNo":75825371,"epochSlotNo":52571,"stakeKey":"stake1uyh2r7m8yrs7cm0rrhzjf9tpguqflerz8rn0e3zp9adqe6cmn277n"},{"txId":54114339,"txHash":"1b558e994110d1e3c10f40a7ce7b904843a2caea7d13aed46af3ad7e8b5d2160","txTime":"2022/11/02 12:15:39","block":7962548,"epoch":373,"slotNo":75825048,"epochSlotNo":52248,"stakeKey":"stake1uxrrlkvzx8jvfzusjjutxxqzvszfdyv7k2ncm8rh2cwmfvgl6kjjz"},{"txId":54114121,"txHash":"ce6a0806b83b0515fc147883bc566a5d49b1c4d88b0173124d4147197bed5a25","txTime":"2022/11/02 12:12:05","block":7962541,"epoch":373,"slotNo":75824834,"epochSlotNo":52034,"stakeKey":"stake1u8mahs7x0qewlcrm90vfwyp5y37xjp7z3g9ezvxpjjc2y3stxcu29"},{"txId":54114010,"txHash":"8763aa3b333cecdb390723b90887058382c2e864329bd887294c7f70f15c9788","txTime":"2022/11/02 12:09:07","block":7962537,"epoch":373,"slotNo":75824656,"epochSlotNo":51856,"stakeKey":"stake1ux57h3u9gn7j9699jxued3jnjn979spdjdhahp00azd8jagkdx69y"},{"txId":54113892,"txHash":"8fe55ca2c8c39d3a30fc77862469c5a5f55b079dc34011ceeb5912b80009767b","txTime":"2022/11/02 12:07:04","block":7962531,"epoch":373,"slotNo":75824533,"epochSlotNo":51733,"stakeKey":"stake1u9wsgjuu9xsh8k26g0de6v9yfksh28ttwutx0rwl9g6zlxcjz9frw"},{"txId":54113420,"txHash":"34572357eb24d98e93e80d0c0219abebab1404de9ff004c7bb0260cb8bdd3fae","txTime":"2022/11/02 11:57:40","block":7962494,"epoch":373,"slotNo":75823969,"epochSlotNo":51169,"stakeKey":"stake1uxjgmrkwrkp0erh6d6n7aq3ygm3j7umw2ud3fn9ncn3dsts6kczde"},{"txId":54113398,"txHash":"0de15a3b731f2ceab00b4a0a0beb85d445d3a9ce16091be50e9567719d0782e2","txTime":"2022/11/02 11:57:40","block":7962494,"epoch":373,"slotNo":75823969,"epochSlotNo":51169,"stakeKey":"stake1uykmv0gd80jhgh4x9vqacwv730v9jeu5z022z94htzvy97cc3kf8w"},{"txId":54113239,"txHash":"a6c17064228a1df4cb4bfef50b27ee7b6c120305b8659357541769164498e272","txTime":"2022/11/02 11:53:35","block":7962482,"epoch":373,"slotNo":75823724,"epochSlotNo":50924,"stakeKey":"stake1uy3smyjk4p07maqxxqxw3q0m3u4e8kv3s8xgag9ln8uaxjs3ke2mk"}],"totalItems":1594366,"totalPages":79719,"currentPage":0}