{"data":[{"blockNo":8076890,"slotNo":78193322,"epochNo":378,"epochSlotNo":260522,"hash":"54843a4b553c5a4e9d3e4c4d7f1437133a1cc04f3b695bb3d582f5d93806b7a1","time":"2022/11/29 22:06:53","txCount":11,"totalFees":2743892,"totalOutput":99037756862,"slotLeader":"4ee9e4c2ec6fc68850330dbc75ccd7ebf7951f20e1085d324f36cf44"},{"blockNo":8076889,"slotNo":78193310,"epochNo":378,"epochSlotNo":260510,"hash":"782bd2426c15ca1dc4a2efae0a41c44f308c8f7bba5234383e1c37928fa898fd","time":"2022/11/29 22:06:41","txCount":2,"totalFees":370866,"totalOutput":555249928,"slotLeader":"936316c217c6f217640ed8d132cb0ff8133eef73e74e4c28002b9eb3"},{"blockNo":8076888,"slotNo":78193306,"epochNo":378,"epochSlotNo":260506,"hash":"3015dfb9b6bf84f3212591b0ebaf4ba9318ed9a03ffc389a6647f80ccac3ec29","time":"2022/11/29 22:06:37","txCount":8,"totalFees":2637364,"totalOutput":1674371351,"slotLeader":"49c24284e61ad58c6e59e865c74e9b0a0a36654eb2091ad846e1c4ec"},{"blockNo":8076887,"slotNo":78193297,"epochNo":378,"epochSlotNo":260497,"hash":"6b39e85c8c950b6572a225f265eb2b72b49fafda185739627c5205602c987b9a","time":"2022/11/29 22:06:28","txCount":2,"totalFees":476730,"totalOutput":15530718848996,"slotLeader":"936f24e391afc0738c816ae1f1388957b977de3d0e065dc9ba38af8d"},{"blockNo":8076886,"slotNo":78193295,"epochNo":378,"epochSlotNo":260495,"hash":"9e02be1f96f1ebdd4d6d9ed3a6754088e4655b5ab3c976cbad615ec47e96ee96","time":"2022/11/29 22:06:26","txCount":42,"totalFees":10685970,"totalOutput":899584739836,"slotLeader":"837a3cf8c96e97bed8e8be6deb390144b46171e3c843b75575d0f788"},{"blockNo":8076885,"slotNo":78193254,"epochNo":378,"epochSlotNo":260454,"hash":"3da9637a52d78ee85c42048771a4786e7e726353df1816fc9d9ebc3f9d5028b6","time":"2022/11/29 22:05:45","txCount":38,"totalFees":12046873,"totalOutput":18022608122891,"slotLeader":"cb9a5414581696cf9176787e99472790355a7de61d67a5643da95a86"},{"blockNo":8076884,"slotNo":78193203,"epochNo":378,"epochSlotNo":260403,"hash":"d86c28f3960173e4543e2472c5f4c8a47617a0047ac425aa04e7ba04e70ddcb9","time":"2022/11/29 22:04:54","txCount":24,"totalFees":6150752,"totalOutput":17443267242470,"slotLeader":"a532904ca60e13e88437b58e7c6ff66b8d5e7ec8d3f4b9e4be7820ec"},{"blockNo":8076883,"slotNo":78193169,"epochNo":378,"epochSlotNo":260369,"hash":"7b3d25454f00f8d9500242e30e7e899b4b3f8dcc6bc0151fb4c82cf6d9522e79","time":"2022/11/29 22:04:20","txCount":40,"totalFees":10856624,"totalOutput":109046978192,"slotLeader":"fd2a060be85493dfdb03eecb6343a76636823d223d680a202b900f65"},{"blockNo":8076882,"slotNo":78193149,"epochNo":378,"epochSlotNo":260349,"hash":"3e8fbe256f244db027b1a44eb5aaeb6639a89c4ac57ac19db3f842d2153b9ab4","time":"2022/11/29 22:04:00","txCount":43,"totalFees":14514700,"totalOutput":87478375963,"slotLeader":"079c374160b0ae34a5a20b8e95a5b5c8766239b2984f13d7ab962791"},{"blockNo":8076881,"slotNo":78193099,"epochNo":378,"epochSlotNo":260299,"hash":"c37fe6a88b964d944cd64a862cc462b28fa397959512f1b99c42f2570138440d","time":"2022/11/29 22:03:10","txCount":26,"totalFees":9962464,"totalOutput":5011946323938,"slotLeader":"0cbc37bbfc5161da696ae49bb5313f510def4ba6711de70c2beaf80d"}],"totalItems":12521,"totalPages":1253,"currentPage":0}