{"data":[{"blockNo":8282570,"slotNo":82411272,"epochNo":388,"epochSlotNo":158472,"hash":"d0018df5b158eeca234bcc5761d7d0b37b78ccf69de856d475aafabd46782c81","time":"2023/01/17 17:46:03","txCount":0,"totalFees":0,"totalOutput":0,"slotLeader":"bc00a90f9f448be5cfaa4e76dbc13353b83b59cb3f2c5e321555ca28"},{"blockNo":8282569,"slotNo":82411270,"epochNo":388,"epochSlotNo":158470,"hash":"6334929ef885ed805f74ab578f6b6061b0bc4f1c57c9f9b31ac9e6a9659c5eeb","time":"2023/01/17 17:46:01","txCount":11,"totalFees":6396611,"totalOutput":3783352220550,"slotLeader":"ea595c6f726db925b6832af51795fd8a46e700874c735d204f7c5841"},{"blockNo":8282568,"slotNo":82411255,"epochNo":388,"epochSlotNo":158455,"hash":"84adb58933b9ee387d7aadfa7179e4e6a8b7cbcce6531693a3c81d74621d8b8b","time":"2023/01/17 17:45:46","txCount":12,"totalFees":5688299,"totalOutput":123096200029,"slotLeader":"e0ac9f1b68d0621a4e6723f369a50e81f27916acb7cd42bc03eaac93"},{"blockNo":8282567,"slotNo":82411237,"epochNo":388,"epochSlotNo":158437,"hash":"ec750d43a8fd4a83a8590aae7817b2cb4f9eb875a3d022c59e27018df110aceb","time":"2023/01/17 17:45:28","txCount":6,"totalFees":1784973,"totalOutput":386085861005,"slotLeader":"a503e42a2c6ef347d834fa404fa4d4bfa6dfb48256ff95b067483980"},{"blockNo":8282566,"slotNo":82411225,"epochNo":388,"epochSlotNo":158425,"hash":"d4f508e2802e96554cb5d085389cc0696b5a33228c827e1f11101b75735e8e94","time":"2023/01/17 17:45:16","txCount":30,"totalFees":10691216,"totalOutput":1560988534795,"slotLeader":"76bfa1b2e6593740c3388ed881cbe851dbab8d8741652c9bad16cc94"},{"blockNo":8282565,"slotNo":82411189,"epochNo":388,"epochSlotNo":158389,"hash":"1b7f5020d8b7df698bbaf895b0bed58551286d5f76fd36b753128b29ea15043c","time":"2023/01/17 17:44:40","txCount":26,"totalFees":9682740,"totalOutput":4087341424111,"slotLeader":"6b51a5aae5b4b5f07f38acf12816b4f8a558ee2840d0dba69040aeb2"},{"blockNo":8282564,"slotNo":82411167,"epochNo":388,"epochSlotNo":158367,"hash":"419611d152a5d9af882e5294284d9e77d2fa2f7e423da27017d24b0f54da7d7c","time":"2023/01/17 17:44:18","txCount":10,"totalFees":2913731,"totalOutput":7409878449,"slotLeader":"c1d314a78a43f3d5baa9c2e4105015384211416f220af4a24a8ea3ee"},{"blockNo":8282563,"slotNo":82411158,"epochNo":388,"epochSlotNo":158358,"hash":"20df38b3a86dff0c103baae041f6b3b22538995d86b06b005799a4c9cf9ca3dc","time":"2023/01/17 17:44:09","txCount":7,"totalFees":2672646,"totalOutput":3094054921,"slotLeader":"ed40b0a319f639a70b1e2a4de00f112c4f7b7d4849f0abd25c4336a4"},{"blockNo":8282562,"slotNo":82411150,"epochNo":388,"epochSlotNo":158350,"hash":"8ecbfb16e4faea5d196ea91cde948398ad542eae67e2e0f1f9841376867dd028","time":"2023/01/17 17:44:01","txCount":5,"totalFees":2428499,"totalOutput":135479987949,"slotLeader":"7b92c27d47addf920a4b74db73d99c8ebe06057c802b332d945077d1"},{"blockNo":8282561,"slotNo":82411146,"epochNo":388,"epochSlotNo":158346,"hash":"76df1d98265b8c1a167a9159e4dd88586569939ffa02162b91ae6cfbc9474f1e","time":"2023/01/17 17:43:57","txCount":13,"totalFees":7138955,"totalOutput":1911506419235,"slotLeader":"7d50b9c6ec097e2a7f4ecb2f2914f9ad21e1a7bda884cb143937a73f"}],"totalItems":7768,"totalPages":777,"currentPage":0}