{"data":[{"blockNo":6860405,"slotNo":52831234,"epochNo":319,"epochSlotNo":386434,"hash":"d5141d76c2171a552585df13efbd45f0f917f84aeb25658d4bfcd652451798f6","time":"2022/02/09 09:05:25","txCount":39,"totalFees":14267882,"totalOutput":165418013699,"slotLeader":"b59366e330a6db8260ad9aae8446ba8c908931d1b9cb3cca5d1d84aa"},{"blockNo":6860404,"slotNo":52831229,"epochNo":319,"epochSlotNo":386429,"hash":"6e454e3c30bd1cfaa67afe3103667750e59bd25dcc399f93dd83614b3fa6d6be","time":"2022/02/09 09:05:20","txCount":19,"totalFees":9892310,"totalOutput":20863145244,"slotLeader":"2352f8c7d0b9f0bf5b342c135d5b25c910491deec1440bd9d27799a6"},{"blockNo":6860403,"slotNo":52831209,"epochNo":319,"epochSlotNo":386409,"hash":"9d0bc01e3f13374ea4d327ff714811af08685003c2a0dc6349259e56aeaa30e6","time":"2022/02/09 09:05:00","txCount":36,"totalFees":14009172,"totalOutput":147725655040,"slotLeader":"47bddc51beca48b96143c4707fcddf2c27bf84e1f1e87485fa5e40cd"},{"blockNo":6860402,"slotNo":52831195,"epochNo":319,"epochSlotNo":386395,"hash":"347e14f61bbb9753d9d7e38e95a6cf60ef460e2ba7576904cc0cd25b6d43a120","time":"2022/02/09 09:04:46","txCount":29,"totalFees":10696101,"totalOutput":87689745707,"slotLeader":"a532904ca60e13e88437b58e7c6ff66b8d5e7ec8d3f4b9e4be7820ec"},{"blockNo":6860401,"slotNo":52831167,"epochNo":319,"epochSlotNo":386367,"hash":"0d2f5c6993adeb0966688cf5cfb3e3f670e5f86bd4be164bd95ffde468790667","time":"2022/02/09 09:04:18","txCount":18,"totalFees":8680711,"totalOutput":29054395120,"slotLeader":"fcc675f8266022c4a0f8a7f1e24b00896fd742b35f147304c2354442"},{"blockNo":6860400,"slotNo":52831152,"epochNo":319,"epochSlotNo":386352,"hash":"4f061c1744134c5fc7d361b61bf533553f3242448334b47cdbaa1a8d1aa9b412","time":"2022/02/09 09:04:03","txCount":24,"totalFees":10699145,"totalOutput":76622500320,"slotLeader":"5a7d13018a8d4995606de677208f3ce57291b53b0cfb1f95ae0115c2"},{"blockNo":6860399,"slotNo":52831121,"epochNo":319,"epochSlotNo":386321,"hash":"aa5659ca0eaa757c7d359c80e2b64e40daa6a37bb9ad2c9712c79a4bc2b78ff3","time":"2022/02/09 09:03:32","txCount":12,"totalFees":8903508,"totalOutput":1897704484654,"slotLeader":"e14a650c7a58d229bbb663cb42fffb36d68c2a6cecf0fd7b9c47e399"},{"blockNo":6860398,"slotNo":52831111,"epochNo":319,"epochSlotNo":386311,"hash":"295ea03c0974a43666f235e2aa8bc1d8a7d1edd366feba3d8d2465104324170c","time":"2022/02/09 09:03:22","txCount":19,"totalFees":9668521,"totalOutput":8653157176,"slotLeader":"ddeb342bed35ab00242117343ada661db593fb25c55c818f2d3d784f"},{"blockNo":6860397,"slotNo":52831096,"epochNo":319,"epochSlotNo":386296,"hash":"566e6ac6e2272d64496b5311b690263ed78d11e7d8aacb12a8e021838a8b196e","time":"2022/02/09 09:03:07","txCount":12,"totalFees":8395809,"totalOutput":29584662097,"slotLeader":"78380abbe8bb86cddda2c79190294125c594630e9535d32907b99f89"},{"blockNo":6860396,"slotNo":52831091,"epochNo":319,"epochSlotNo":386291,"hash":"cd478d08f42e73be4213d53f33550087995aab4d6ed7ec0c0bcb762bc5c97d05","time":"2022/02/09 09:03:02","txCount":46,"totalFees":14829758,"totalOutput":96923346499,"slotLeader":"50a251d84927d932b9393cb462f300d215faedd5e8a5e791e869f32c"},{"blockNo":6860395,"slotNo":52831072,"epochNo":319,"epochSlotNo":386272,"hash":"ffffc2f56d43cf44da4f83bf8dd1df6ce3d2c011206911a60681254307de36c6","time":"2022/02/09 09:02:43","txCount":51,"totalFees":15464478,"totalOutput":1595468909780,"slotLeader":"56b76df4f3653a6faf62f6f6838045cf9f3dde69a1eee353de526ee4"},{"blockNo":6860394,"slotNo":52831056,"epochNo":319,"epochSlotNo":386256,"hash":"2467feda8b25dbdef76e6c9cb122dc0cc92df1c0db1c78b0529f8adeed67c90c","time":"2022/02/09 09:02:27","txCount":21,"totalFees":10903513,"totalOutput":232515085028,"slotLeader":"ea7cdd8918204b6c53e41ac6b0c319a1ffa95312660eeeb2ced8be3a"},{"blockNo":6860393,"slotNo":52831050,"epochNo":319,"epochSlotNo":386250,"hash":"07dc920bf9eb5fae1c929cbba88a920b1cc4909f7cb8810f814edfa48c288ee9","time":"2022/02/09 09:02:21","txCount":6,"totalFees":6518390,"totalOutput":1474528122,"slotLeader":"dd7330d29709deb4e8dff5b49d50b174c9c884678992cca4a68d96d7"},{"blockNo":6860392,"slotNo":52831037,"epochNo":319,"epochSlotNo":386237,"hash":"27ee10327f29b02194556fb346118f222cd076f7207f99e31e7fb659a8337084","time":"2022/02/09 09:02:08","txCount":26,"totalFees":11067394,"totalOutput":176305509989,"slotLeader":"9f1bd8718fffe41cbd70761991819fbbd9552b4c44c30e1a6fc96766"},{"blockNo":6860391,"slotNo":52830981,"epochNo":319,"epochSlotNo":386181,"hash":"db6ef3e983523a9869e82fec3dc1c0f9b42c9a91d04192925f9c92ce6ba51eb3","time":"2022/02/09 09:01:12","txCount":17,"totalFees":9491592,"totalOutput":382609790008,"slotLeader":"78380abbe8bb86cddda2c79190294125c594630e9535d32907b99f89"},{"blockNo":6860390,"slotNo":52830938,"epochNo":319,"epochSlotNo":386138,"hash":"faa09bbd08cbfc7ded89234e718204bdc57b2a88071c2fda058eb6993cc828d1","time":"2022/02/09 09:00:29","txCount":23,"totalFees":9982590,"totalOutput":32372865018,"slotLeader":"99127328c3fed20710b0b807f32b10ccd731125b30de38b9ff973a01"},{"blockNo":6860389,"slotNo":52830914,"epochNo":319,"epochSlotNo":386114,"hash":"462a68fe7dcf778fcde6292caf9ad9b17f015ef0fc9f16dda6f50b2e2c3f1d7d","time":"2022/02/09 09:00:05","txCount":11,"totalFees":8953885,"totalOutput":1520273780942,"slotLeader":"921dc3fc11681ad9ccde08c9bc23041808f4b7e8ba231be557db8ab5"},{"blockNo":6860388,"slotNo":52830904,"epochNo":319,"epochSlotNo":386104,"hash":"6e083b2be2935d093de714f34bf7582991f66e46d68cfa4ed684ac300e1591dd","time":"2022/02/09 08:59:55","txCount":28,"totalFees":12604608,"totalOutput":755658816497,"slotLeader":"c779f67a0f3a1f2985626e345013015f71cf245dbcc8ac8457f42e56"},{"blockNo":6860387,"slotNo":52830882,"epochNo":319,"epochSlotNo":386082,"hash":"be9a878ab1ddcf2c75c84fade9aebd5883147342d0ee5cdfe761d6b65507f1c3","time":"2022/02/09 08:59:33","txCount":38,"totalFees":13739030,"totalOutput":374812078178,"slotLeader":"88cc73feada202ed17343e969c373c16cda4a8902d02094ff3dfc438"},{"blockNo":6860386,"slotNo":52830876,"epochNo":319,"epochSlotNo":386076,"hash":"4dcb4ccdc812bcb33a011a43b06dc96f48adab83b1dc1837eef3526179a698ed","time":"2022/02/09 08:59:27","txCount":21,"totalFees":9793318,"totalOutput":168821889015,"slotLeader":"6b9da81e0b66fcdfaa67f55f08b28399b70e031f3cb13e6aa8f61b0a"}],"totalItems":6860581,"totalPages":343030,"currentPage":0}