{"data":[{"blockNo":8108958,"slotNo":78852000,"epochNo":380,"epochSlotNo":55200,"hash":"060eda030aadfd7537cb4403e2d0f5fd197f13671d96fd8a902841e4f9facf80","time":"2022/12/07 13:04:51","txCount":32,"totalFees":8367413,"totalOutput":2726793211948,"slotLeader":"f619a10b7ccea6167c5f169634e834b57739c2db892185f2efa9f1eb"},{"blockNo":8108957,"slotNo":78851955,"epochNo":380,"epochSlotNo":55155,"hash":"5ddf7dd1b6e41694e7419622a4b06b9fd47164979611df3e83e18a8112267a04","time":"2022/12/07 13:04:06","txCount":6,"totalFees":1166699,"totalOutput":24852989586,"slotLeader":"639288b5e4bf267ece78e9a4941dd794f50ec54785f84c687b4ab086"},{"blockNo":8108956,"slotNo":78851949,"epochNo":380,"epochSlotNo":55149,"hash":"3cd8bf0507ece2a0ae68045132da3620bc7baf42250d0a3a5e4cd09acebca3c6","time":"2022/12/07 13:04:00","txCount":9,"totalFees":3472262,"totalOutput":76470533305,"slotLeader":"30432a0b85b6f80b3e9cd356d8b76b9793f5530c91050c1688da4922"},{"blockNo":8108955,"slotNo":78851944,"epochNo":380,"epochSlotNo":55144,"hash":"325496b732c1388400cd3b1ed5b909acc66cb8dd5ddf918b7e0e2992a43689cf","time":"2022/12/07 13:03:55","txCount":17,"totalFees":3754598,"totalOutput":469315702780,"slotLeader":"00004614332ac81201d8302d4cb8262502af229256e143dc2156156e"},{"blockNo":8108954,"slotNo":78851925,"epochNo":380,"epochSlotNo":55125,"hash":"e0b741779a5c5f36b0ce84a8c56915fa1828514832f2129c19cd82e6791012d7","time":"2022/12/07 13:03:36","txCount":13,"totalFees":4425701,"totalOutput":47150760551,"slotLeader":"afb33d38e92e03f9ce86f0175cc33e487b8def0ee25235f1e40183d1"},{"blockNo":8108953,"slotNo":78851909,"epochNo":380,"epochSlotNo":55109,"hash":"2b90ec4c9925d8056446f797c3854f967f10cf8f9e03b3e79e2463fba1e5520e","time":"2022/12/07 13:03:20","txCount":16,"totalFees":5557698,"totalOutput":1686372909263,"slotLeader":"d66b1218d56cb0c9c3937207b3ae61bbff21ae212ae791722062f0e1"},{"blockNo":8108952,"slotNo":78851888,"epochNo":380,"epochSlotNo":55088,"hash":"dc0b9df1f29cfd68c1d7feca858dacfddd0beecd8d2f933343aab688040c0529","time":"2022/12/07 13:02:59","txCount":10,"totalFees":3376460,"totalOutput":3505573207497,"slotLeader":"3d2294baebe5bbeaa920af59e8461068582bb6c17522bbc7308e8567"},{"blockNo":8108951,"slotNo":78851878,"epochNo":380,"epochSlotNo":55078,"hash":"f5be22e6d4faea0a357fb5e09170a6317add20c6a2c0771e918af1f7d2371f59","time":"2022/12/07 13:02:49","txCount":2,"totalFees":466199,"totalOutput":3774186179,"slotLeader":"7a990e7ee931f9d548a977d5cf2194f26f7e2f1158752e0bb94a073f"},{"blockNo":8108950,"slotNo":78851872,"epochNo":380,"epochSlotNo":55072,"hash":"2eaf108fae22847356b9cf0df0d08e3f3d0b0ffa0e76e6ccc2863b7d57bc6d8e","time":"2022/12/07 13:02:43","txCount":0,"totalFees":0,"totalOutput":0,"slotLeader":"04357793d81097a7d2c15ec6cd6067a58cdd2fb21aaf07e56c306ecf"},{"blockNo":8108949,"slotNo":78851870,"epochNo":380,"epochSlotNo":55070,"hash":"34556d0c63dcb0c04cd093f8480edfb29747bc362524709ea5bcf963f90f61ea","time":"2022/12/07 13:02:41","txCount":12,"totalFees":4573704,"totalOutput":19347056757716,"slotLeader":"7d7ac07a2f2a25b7a4db868a40720621c4939cf6aefbb9a11464f1a6"}],"totalItems":2635,"totalPages":264,"currentPage":0}