{"data":[{"hash":"8557c28591402f4b9af6b037b3d8d3c45d61c61210766ac0b6df3b3f8570bdb7","blockNo":8114970,"blockHash":"8b66a0e8f20a4368f01fa25e77d3c2af6139b8f95eabf9361d3ed6a88c15689b","epochNo":380,"epochSlotNo":175357,"slot":78972157,"time":"2022/12/08 22:27:28","addressesInput":["addr1q8am507swh85uuxfuuccprkx894urmxs5q2zgqtgdcqpnwrnqvt30yukh8ppq0mkdj0vh2dma0jjquuew9xad8ew6z8qusprjn","addr1zxgx3far7qygq0k6epa0zcvcvrevmn0ypsnfsue94nsn3tvpw288a4x0xf8pxgcntelxmyclq83s0ykeehchz2wtspks905plm"],"addressesOutput":["addr1zxgx3far7qygq0k6epa0zcvcvrevmn0ypsnfsue94nsn3tvpw288a4x0xf8pxgcntelxmyclq83s0ykeehchz2wtspks905plm","addr1q8am507swh85uuxfuuccprkx894urmxs5q2zgqtgdcqpnwrnqvt30yukh8ppq0mkdj0vh2dma0jjquuew9xad8ew6z8qusprjn"],"fee":304542,"totalOutput":50254752,"tokens":[]},{"hash":"bd54ccd045df95412c0688ec6a417af41e58912372121154c21d12b7d5f8b568","blockNo":8114970,"blockHash":"8b66a0e8f20a4368f01fa25e77d3c2af6139b8f95eabf9361d3ed6a88c15689b","epochNo":380,"epochSlotNo":175357,"slot":78972157,"time":"2022/12/08 22:27:28","addressesInput":["addr1wxr2a8htmzuhj39y2gq7ftkpxv98y2g67tg8zezthgq4jkg0a4ul4"],"addressesOutput":["addr1qyc9pah56kvpwj9u8g4cfkqktvsvzq982ptmvkfmalvny0x9ehyeg2d5eeje7f2zn9xy3dkgq8ct3csu5la4scex54zsnyw6s2"],"fee":234499,"totalOutput":737458587,"tokens":[]},{"hash":"9016b7e8715880a0c18a89c2dc1d423b76a1f9298b40d37f96ff1beb7e26cd95","blockNo":8114970,"blockHash":"8b66a0e8f20a4368f01fa25e77d3c2af6139b8f95eabf9361d3ed6a88c15689b","epochNo":380,"epochSlotNo":175357,"slot":78972157,"time":"2022/12/08 22:27:28","addressesInput":["addr1qyly6kg22utw96phqz43ulnn90xl5xv8n9efzte9nfgk6a6utgvvfgddzg8h8y9ghmxa7dk9jqdpzkxf4j28ks69kqnsl4gm0a","addr1qyeqxne9tcryjp596f337zh34x3nvwvlgprydhvc4zwtzq6utgvvfgddzg8h8y9ghmxa7dk9jqdpzkxf4j28ks69kqns0xttzm","addr1qyu84m6sandtsnege6wpr65yutquh0eg8glvjdfdkndspd6utgvvfgddzg8h8y9ghmxa7dk9jqdpzkxf4j28ks69kqnsxzggjs","addr1qyu84m6sandtsnege6wpr65yutquh0eg8glvjdfdkndspd6utgvvfgddzg8h8y9ghmxa7dk9jqdpzkxf4j28ks69kqnsxzggjs","addr1qxvhz45r2hdlp9sy6zxqklh72fdgn20d2qv6067pq0xfd2zutgvvfgddzg8h8y9ghmxa7dk9jqdpzkxf4j28ks69kqns0tgsy8","addr1qyly6kg22utw96phqz43ulnn90xl5xv8n9efzte9nfgk6a6utgvvfgddzg8h8y9ghmxa7dk9jqdpzkxf4j28ks69kqnsl4gm0a","addr1qyu84m6sandtsnege6wpr65yutquh0eg8glvjdfdkndspd6utgvvfgddzg8h8y9ghmxa7dk9jqdpzkxf4j28ks69kqnsxzggjs","addr1qyu84m6sandtsnege6wpr65yutquh0eg8glvjdfdkndspd6utgvvfgddzg8h8y9ghmxa7dk9jqdpzkxf4j28ks69kqnsxzggjs","addr1q96e7nfh8vfvjv7ukx86vk78nw4yc9gww5pd6zd7y7m0uv6utgvvfgddzg8h8y9ghmxa7dk9jqdpzkxf4j28ks69kqns2l5z47","addr1qyu84m6sandtsnege6wpr65yutquh0eg8glvjdfdkndspd6utgvvfgddzg8h8y9ghmxa7dk9jqdpzkxf4j28ks69kqnsxzggjs","addr1qyu84m6sandtsnege6wpr65yutquh0eg8glvjdfdkndspd6utgvvfgddzg8h8y9ghmxa7dk9jqdpzkxf4j28ks69kqnsxzggjs","addr1qyu84m6sandtsnege6wpr65yutquh0eg8glvjdfdkndspd6utgvvfgddzg8h8y9ghmxa7dk9jqdpzkxf4j28ks69kqnsxzggjs","addr1qxhqmydramumdv3s2djd80qnp3getdm2jnznha5xurhjaajutgvvfgddzg8h8y9ghmxa7dk9jqdpzkxf4j28ks69kqnsva3dje","addr1qyeqxne9tcryjp596f337zh34x3nvwvlgprydhvc4zwtzq6utgvvfgddzg8h8y9ghmxa7dk9jqdpzkxf4j28ks69kqns0xttzm","addr1qyu84m6sandtsnege6wpr65yutquh0eg8glvjdfdkndspd6utgvvfgddzg8h8y9ghmxa7dk9jqdpzkxf4j28ks69kqnsxzggjs","addr1qyu84m6sandtsnege6wpr65yutquh0eg8glvjdfdkndspd6utgvvfgddzg8h8y9ghmxa7dk9jqdpzkxf4j28ks69kqnsxzggjs","addr1qyu84m6sandtsnege6wpr65yutquh0eg8glvjdfdkndspd6utgvvfgddzg8h8y9ghmxa7dk9jqdpzkxf4j28ks69kqnsxzggjs","addr1qyu84m6sandtsnege6wpr65yutquh0eg8glvjdfdkndspd6utgvvfgddzg8h8y9ghmxa7dk9jqdpzkxf4j28ks69kqnsxzggjs","addr1qyu84m6sandtsnege6wpr65yutquh0eg8glvjdfdkndspd6utgvvfgddzg8h8y9ghmxa7dk9jqdpzkxf4j28ks69kqnsxzggjs","addr1qyly6kg22utw96phqz43ulnn90xl5xv8n9efzte9nfgk6a6utgvvfgddzg8h8y9ghmxa7dk9jqdpzkxf4j28ks69kqnsl4gm0a"],"addressesOutput":["addr1q8sckhdtcwaew0ms60xl2glf9kc62z060dyfxv9z6wmy6trr7lkp7pfcl9ugpugmnxhus5cn86yyyz4fjhx0c2467qwqsh2myr","addr1qyk5s5uh4jmsc05jmy7r8239ntx8wngnnghl0nregse3lf6utgvvfgddzg8h8y9ghmxa7dk9jqdpzkxf4j28ks69kqnsw780n6","addr1qyk5s5uh4jmsc05jmy7r8239ntx8wngnnghl0nregse3lf6utgvvfgddzg8h8y9ghmxa7dk9jqdpzkxf4j28ks69kqnsw780n6","addr1qyk5s5uh4jmsc05jmy7r8239ntx8wngnnghl0nregse3lf6utgvvfgddzg8h8y9ghmxa7dk9jqdpzkxf4j28ks69kqnsw780n6"],"fee":366361,"totalOutput":93863225,"tokens":[]},{"hash":"00bf84a8b32a1a8c8e4175c9968297951fd5470497999abac695e719445f46c8","blockNo":8114970,"blockHash":"8b66a0e8f20a4368f01fa25e77d3c2af6139b8f95eabf9361d3ed6a88c15689b","epochNo":380,"epochSlotNo":175357,"slot":78972157,"time":"2022/12/08 22:27:28","addressesInput":["addr1q9spqpefsd54sj3v7jem3wc5kxr66uvgz4caqutj4g255p0awqnqfv62jq2w983a0y43pmqsc24fzfvastxnc2d7py8qf9uusm","addr1wxdct40gvyv525zlq79wahkuhmgadjs3q5lkrclemxvlu3qyda7l2"],"addressesOutput":["addr1qxkmr0m22xeqludcg5rjdmecjxasu9fat0680qehtcsnftaadgykewa9ufvegeuca9yyq03d9v7ea2y2zthgu7hfgjtsddp6gr","addr1wxdct40gvyv525zlq79wahkuhmgadjs3q5lkrclemxvlu3qyda7l2","addr1q9spqpefsd54sj3v7jem3wc5kxr66uvgz4caqutj4g255p0awqnqfv62jq2w983a0y43pmqsc24fzfvastxnc2d7py8qf9uusm"],"fee":339356,"totalOutput":26318918,"tokens":[]},{"hash":"1bfaedd140d091124a61997b18e5adca4393dfc314a80a2540cda717e72c96f2","blockNo":8114970,"blockHash":"8b66a0e8f20a4368f01fa25e77d3c2af6139b8f95eabf9361d3ed6a88c15689b","epochNo":380,"epochSlotNo":175357,"slot":78972157,"time":"2022/12/08 22:27:28","addressesInput":["addr1qyzlazpage4shn25l4rgqd2hz7pr9966jvx34qhlt7upuf7feqzunfuzdvas294dmd6d265aep7u87eg8ypwx4flq84q7y2j5x"],"addressesOutput":["addr1q8qj723h75t66jkjnv05k9s0ze7e0z94xvxst2nfs5cuy9w6s0qr3rpd6asg9nkkvywj79dfn66vjkprgpsm2na8fw8s3rq5f4","addr1qyzlazpage4shn25l4rgqd2hz7pr9966jvx34qhlt7upuf7feqzunfuzdvas294dmd6d265aep7u87eg8ypwx4flq84q7y2j5x"],"fee":169153,"totalOutput":17811610902,"tokens":[]},{"hash":"a9cb163fad6a52b4db49f4570cb563b2822ad7bc776717747ebb7dd02347bc97","blockNo":8114970,"blockHash":"8b66a0e8f20a4368f01fa25e77d3c2af6139b8f95eabf9361d3ed6a88c15689b","epochNo":380,"epochSlotNo":175357,"slot":78972157,"time":"2022/12/08 22:27:28","addressesInput":["addr1q9dgfvm3c465pr8nyjxf8k5fj9wsvhzpj6usuwmnratw5pfsd2whdghnvm5ctjgqrqr7gpszxd9me2gpa6ex3mf4ee2qc2ycpp","addr1q9dgfvm3c465pr8nyjxf8k5fj9wsvhzpj6usuwmnratw5pfsd2whdghnvm5ctjgqrqr7gpszxd9me2gpa6ex3mf4ee2qc2ycpp","addr1zxgx3far7qygq0k6epa0zcvcvrevmn0ypsnfsue94nsn3tvpw288a4x0xf8pxgcntelxmyclq83s0ykeehchz2wtspks905plm"],"addressesOutput":["addr1qxs76zpnfyq5w0xrpjwrkkghch0ew024j83hx0dg00f9xjrx828mrjy00s2sd8awhvummze55m8hq4fqghdzqlcaqwlshwkm0m","addr1q9cwvremt6n320s2e3agq0jyq82yhrk3htsu0w426xnz5us70z4w0jgvcdkkynmm8wmds66jd9kusnjfpu6raw5fqp0sr07p5w","addr1qxf3chxnz63th49ctggznhg726fxr8l5n42pahzt2wlu8qw9dx7vn5t6gqefmug26m6ge78w8862rsdwlqnkhmvmzafq9zkxgm","addr1q9dgfvm3c465pr8nyjxf8k5fj9wsvhzpj6usuwmnratw5pfsd2whdghnvm5ctjgqrqr7gpszxd9me2gpa6ex3mf4ee2qc2ycpp","addr1q9dgfvm3c465pr8nyjxf8k5fj9wsvhzpj6usuwmnratw5pfsd2whdghnvm5ctjgqrqr7gpszxd9me2gpa6ex3mf4ee2qc2ycpp"],"fee":349728,"totalOutput":221594563,"tokens":[]},{"hash":"9d3f2a2c7170c695873a0e540d1369d778c0a79f46a833087aee6bc999df99d5","blockNo":8114970,"blockHash":"8b66a0e8f20a4368f01fa25e77d3c2af6139b8f95eabf9361d3ed6a88c15689b","epochNo":380,"epochSlotNo":175357,"slot":78972157,"time":"2022/12/08 22:27:28","addressesInput":["addr1q9ueh8ymz95z57v8yvgd9cwsl4weg50cqpj85z2k0rwfl0u2mkc429m6a4ynkm40enp3t89g2x4vmr6y93qpdnenvqjq9qfl7e","addr1q9ueh8ymz95z57v8yvgd9cwsl4weg50cqpj85z2k0rwfl0u2mkc429m6a4ynkm40enp3t89g2x4vmr6y93qpdnenvqjq9qfl7e","addr1qxc9dcpavsc0d3wxl6q3wl7h6y34uqgmcst9sulkawrwcqu2mkc429m6a4ynkm40enp3t89g2x4vmr6y93qpdnenvqjqyw74z5"],"addressesOutput":["addr1wxaptpmxcxawvr3pzlhgnpmzz3ql43n2tc8mn3av5kx0yzs09tqh8","addr1q9ueh8ymz95z57v8yvgd9cwsl4weg50cqpj85z2k0rwfl0u2mkc429m6a4ynkm40enp3t89g2x4vmr6y93qpdnenvqjq9qfl7e","addr1q9ueh8ymz95z57v8yvgd9cwsl4weg50cqpj85z2k0rwfl0u2mkc429m6a4ynkm40enp3t89g2x4vmr6y93qpdnenvqjq9qfl7e"],"fee":199381,"totalOutput":298404596,"tokens":[]},{"hash":"8597dcdf1d3d9c97fbdbc77f5c02ea35f4bb96ff5995d36673b177cf5b85151d","blockNo":8114970,"blockHash":"8b66a0e8f20a4368f01fa25e77d3c2af6139b8f95eabf9361d3ed6a88c15689b","epochNo":380,"epochSlotNo":175357,"slot":78972157,"time":"2022/12/08 22:27:28","addressesInput":["addr1q855wk3c2n9nug8j6yxrn899e8jvknmsp4vxuxfywy5asgny86g0uup4s3a0tpryhdhkswc4aq3vsspeh470llstwf8qsjt973","addr1zxgx3far7qygq0k6epa0zcvcvrevmn0ypsnfsue94nsn3tvpw288a4x0xf8pxgcntelxmyclq83s0ykeehchz2wtspks905plm"],"addressesOutput":["addr1q855wk3c2n9nug8j6yxrn899e8jvknmsp4vxuxfywy5asgny86g0uup4s3a0tpryhdhkswc4aq3vsspeh470llstwf8qsjt973","addr1q855wk3c2n9nug8j6yxrn899e8jvknmsp4vxuxfywy5asgny86g0uup4s3a0tpryhdhkswc4aq3vsspeh470llstwf8qsjt973"],"fee":404824,"totalOutput":17473944,"tokens":[]},{"hash":"14f5e5bb48e3a626a30af4c899141d68d1f44aa034f77e485fe9eaddee1f9905","blockNo":8114970,"blockHash":"8b66a0e8f20a4368f01fa25e77d3c2af6139b8f95eabf9361d3ed6a88c15689b","epochNo":380,"epochSlotNo":175357,"slot":78972157,"time":"2022/12/08 22:27:28","addressesInput":["addr1qx60nnw4dg5esteewzwn2g77ckajmfwv84uvz88s2ke28vvvqqrj9fzxjkkyjh2kr8z3wgvgl87mdsv6t9cv4dm2vygq9l6qh7"],"addressesOutput":["DdzFFzCqrhsfHD2WL2mrAkyXaYLRucEgngG3udsYHoc1UyL8Ukpg5cZ8rpo8MPMT1pjjJoQaXZTAgs4Vn5ntzV65AGyS3hDbWCMLGRcZ","addr1qx60nnw4dg5esteewzwn2g77ckajmfwv84uvz88s2ke28vvvqqrj9fzxjkkyjh2kr8z3wgvgl87mdsv6t9cv4dm2vygq9l6qh7"],"fee":171334,"totalOutput":1024939256,"tokens":[]},{"hash":"f76a6130e84e25a93af72d2657475895ea2088984e8fb0cd5b9b7b2ad6dd41d2","blockNo":8114970,"blockHash":"8b66a0e8f20a4368f01fa25e77d3c2af6139b8f95eabf9361d3ed6a88c15689b","epochNo":380,"epochSlotNo":175357,"slot":78972157,"time":"2022/12/08 22:27:28","addressesInput":["addr1q9h5w3q5v6jh3sme8weyuempvmdhh08sg95hatnn6t9fvl8a3tjmjlunx8j5dv8377r87pzcjhz5hmmvk2xl8cykl05q3fs5mw"],"addressesOutput":["addr1qy4jxqjgss5n2zews8dwc0008amev93cqtt9wk8z30ecchs4e47rvtr73uy66pw3fawj3u0djg3x8q8va09984clvnlslmlqe4","addr1qyhxn600lhe3ucn87lvqxqmeqwrzc3w43vfg87yjj26rww0a3tjmjlunx8j5dv8377r87pzcjhz5hmmvk2xl8cykl05q6cq9ya","addr1qyhxn600lhe3ucn87lvqxqmeqwrzc3w43vfg87yjj26rww0a3tjmjlunx8j5dv8377r87pzcjhz5hmmvk2xl8cykl05q6cq9ya","addr1qyhxn600lhe3ucn87lvqxqmeqwrzc3w43vfg87yjj26rww0a3tjmjlunx8j5dv8377r87pzcjhz5hmmvk2xl8cykl05q6cq9ya","addr1qyhxn600lhe3ucn87lvqxqmeqwrzc3w43vfg87yjj26rww0a3tjmjlunx8j5dv8377r87pzcjhz5hmmvk2xl8cykl05q6cq9ya"],"fee":176897,"totalOutput":499643082,"tokens":[]},{"hash":"7ea4301397fc9cd75a2c67275c0ec9a7ea28554bae2d3f7f174943f902418af4","blockNo":8114970,"blockHash":"8b66a0e8f20a4368f01fa25e77d3c2af6139b8f95eabf9361d3ed6a88c15689b","epochNo":380,"epochSlotNo":175357,"slot":78972157,"time":"2022/12/08 22:27:28","addressesInput":["addr1qyf9pfankzaw6pu73qdkadn6xhwsumjprpyu7pa2a6jkzdfnqv8a3yurxvyt5h6c2dstt7wkqtxk87dq2spm4nm0cxlsdaxeve","addr1qyf9pfankzaw6pu73qdkadn6xhwsumjprpyu7pa2a6jkzdfnqv8a3yurxvyt5h6c2dstt7wkqtxk87dq2spm4nm0cxlsdaxeve"],"addressesOutput":["addr1zxgx3far7qygq0k6epa0zcvcvrevmn0ypsnfsue94nsn3tvpw288a4x0xf8pxgcntelxmyclq83s0ykeehchz2wtspks905plm","addr1qyf9pfankzaw6pu73qdkadn6xhwsumjprpyu7pa2a6jkzdfnqv8a3yurxvyt5h6c2dstt7wkqtxk87dq2spm4nm0cxlsdaxeve"],"fee":834549,"totalOutput":4809960,"tokens":[]},{"hash":"9530dfdc059591af3e72ac564c6ba04a34ecda4e1df1dad2fe3ca70405dafe4e","blockNo":8114970,"blockHash":"8b66a0e8f20a4368f01fa25e77d3c2af6139b8f95eabf9361d3ed6a88c15689b","epochNo":380,"epochSlotNo":175357,"slot":78972157,"time":"2022/12/08 22:27:28","addressesInput":["addr1qym9edx60nr7kyrc7v0q4hjlvn9zlev5vctj8u8cfcyylllxdgsgtqaeh90ws0hywulsn5p5t76w9maa2cxljuq3vv4q3etudc"],"addressesOutput":["addr1qym9edx60nr7kyrc7v0q4hjlvn9zlev5vctj8u8cfcyylllxdgsgtqaeh90ws0hywulsn5p5t76w9maa2cxljuq3vv4q3etudc"],"fee":199601,"totalOutput":60012750756,"tokens":[]},{"hash":"4e68ad790c0b85825074acd18a5b092af215225af3e27aaa5ee14bd604811b2d","blockNo":8114970,"blockHash":"8b66a0e8f20a4368f01fa25e77d3c2af6139b8f95eabf9361d3ed6a88c15689b","epochNo":380,"epochSlotNo":175357,"slot":78972157,"time":"2022/12/08 22:27:28","addressesInput":["addr1qxv797jy6uudkfnfnnq5afgvjqkjpm5stnw3nltt0kq4297p57sfxtytv8zarxw3sakthwysp94pvazcgl7dm49fu9qqu44ecz","addr1zxgx3far7qygq0k6epa0zcvcvrevmn0ypsnfsue94nsn3tvpw288a4x0xf8pxgcntelxmyclq83s0ykeehchz2wtspks905plm"],"addressesOutput":["addr1q89804x5ht9mhuy7scurkfcjgc3ysa7nptkvpefsa785rt0q7repfjws8l56wmx6daxkh2n0sp20ky8fm4pcckvxz3gq943crr","addr1q9cwvremt6n320s2e3agq0jyq82yhrk3htsu0w426xnz5us70z4w0jgvcdkkynmm8wmds66jd9kusnjfpu6raw5fqp0sr07p5w","addr1q94r3cavz0w6p36xe62rmpvzm42f3rtytmrcpdv49fxq2tnw2nsljtmcpxvhhcsguq0xsecwnvvuxhk9pxquj5vzdk8sn864ga","addr1qxv797jy6uudkfnfnnq5afgvjqkjpm5stnw3nltt0kq4297p57sfxtytv8zarxw3sakthwysp94pvazcgl7dm49fu9qqu44ecz","addr1qxv797jy6uudkfnfnnq5afgvjqkjpm5stnw3nltt0kq4297p57sfxtytv8zarxw3sakthwysp94pvazcgl7dm49fu9qqu44ecz","addr1qxv797jy6uudkfnfnnq5afgvjqkjpm5stnw3nltt0kq4297p57sfxtytv8zarxw3sakthwysp94pvazcgl7dm49fu9qqu44ecz"],"fee":409477,"totalOutput":456409462,"tokens":[]},{"hash":"1b90e2eddeebde6cc37026478a18158fe788d5aaf3a2e2e14603cada91ce3174","blockNo":8114969,"blockHash":"b501406e7823702d5cd7c4133624953c5e8939df507972d832d6c4aaca802856","epochNo":380,"epochSlotNo":175343,"slot":78972143,"time":"2022/12/08 22:27:14","addressesInput":["addr1zxgx3far7qygq0k6epa0zcvcvrevmn0ypsnfsue94nsn3tvpw288a4x0xf8pxgcntelxmyclq83s0ykeehchz2wtspks905plm","addr1qx3nu9nhx5t2ndveplwqfxev5zf2jnv8fpw4h4r0l7ueckcflvvkm0r6aj4e6xfyg2g2lhh99tkrqy5f2dln0pcxwkuqfwl63j"],"addressesOutput":["addr1qx3nu9nhx5t2ndveplwqfxev5zf2jnv8fpw4h4r0l7ueckcflvvkm0r6aj4e6xfyg2g2lhh99tkrqy5f2dln0pcxwkuqfwl63j","addr1qx3nu9nhx5t2ndveplwqfxev5zf2jnv8fpw4h4r0l7ueckcflvvkm0r6aj4e6xfyg2g2lhh99tkrqy5f2dln0pcxwkuqfwl63j"],"fee":263808,"totalOutput":5042352,"tokens":[]},{"hash":"81d973b9436bf6d0e84c2c67210d0c4e2fec13b99508e399ca55a32c00172cbb","blockNo":8114969,"blockHash":"b501406e7823702d5cd7c4133624953c5e8939df507972d832d6c4aaca802856","epochNo":380,"epochSlotNo":175343,"slot":78972143,"time":"2022/12/08 22:27:14","addressesInput":["addr1qxa67yj5dmk8vxlae4sz0r47wdk78l06y2juppe5uyg7qjtyjwxrvyny4hzc8s697epq5epteq98ywnd8kufvlrdw3xsuasmha","addr1zxgx3far7qygq0k6epa0zcvcvrevmn0ypsnfsue94nsn3tvpw288a4x0xf8pxgcntelxmyclq83s0ykeehchz2wtspks905plm"],"addressesOutput":["addr1qxa67yj5dmk8vxlae4sz0r47wdk78l06y2juppe5uyg7qjtyjwxrvyny4hzc8s697epq5epteq98ywnd8kufvlrdw3xsuasmha","addr1qxa67yj5dmk8vxlae4sz0r47wdk78l06y2juppe5uyg7qjtyjwxrvyny4hzc8s697epq5epteq98ywnd8kufvlrdw3xsuasmha"],"fee":265234,"totalOutput":38066556,"tokens":[]},{"hash":"f336af8b354a8bd0d0da817397b6aee6aaebc66bb6f0a23ba83dce9b5086f3fe","blockNo":8114969,"blockHash":"b501406e7823702d5cd7c4133624953c5e8939df507972d832d6c4aaca802856","epochNo":380,"epochSlotNo":175343,"slot":78972143,"time":"2022/12/08 22:27:14","addressesInput":["addr1vy67eakxylwhx95q64vp5krd2vr979e5p6kjwuuxlxdp4agznyr7a","addr1v8pkfj26hkle2jucfz3g20jjfnrs5dxzcnxs5fcefxzlqlc5wnk4a","addr1v80mugp5a7dk9466m5qwgkv5wc4fk0vkm0d48xctpmp7vgs4p8enw","addr1v972ze6ccl0jum3jpfklp0tnl9x3sm6q9ywm0jugxpy7g9gddxpmu","addr1vxfqqxpg5566zcylmywp82k86ghs96g9f6eqa7cmsnah3jqhkfnje","addr1vx33akl7f7me62870v7t6vq9fdwt52np2rrvf7yrgrxkf0q6qhzwe","addr1vyl74m32zc0h44x6mllugudhwaxqqzf60n26hxcvk2z9q6ghlndg8","addr1vynhj44dcz24g52fadv2x2fjmur5wz0rzhm6pqeuffh6zgq697d03","addr1v925pc9slqayq62qnjwatgthfr4tw4z8mgxs4lyhz0mzchqw8q6wr","addr1vyc7ca9flp5gfeapd78uxzzq7l6qnsytj85n62lr5smhgssen2u2s","addr1v8partxrrefltjtx8j2dyc8rmqzafwrlzpa6eq7jullvvps3tuf38"],"addressesOutput":["addr1vy67eakxylwhx95q64vp5krd2vr979e5p6kjwuuxlxdp4agznyr7a","addr1v972ze6ccl0jum3jpfklp0tnl9x3sm6q9ywm0jugxpy7g9gddxpmu","addr1vyl74m32zc0h44x6mllugudhwaxqqzf60n26hxcvk2z9q6ghlndg8","addr1v8pkfj26hkle2jucfz3g20jjfnrs5dxzcnxs5fcefxzlqlc5wnk4a","addr1vxfqqxpg5566zcylmywp82k86ghs96g9f6eqa7cmsnah3jqhkfnje","addr1v925pc9slqayq62qnjwatgthfr4tw4z8mgxs4lyhz0mzchqw8q6wr","addr1v80mugp5a7dk9466m5qwgkv5wc4fk0vkm0d48xctpmp7vgs4p8enw","addr1vx33akl7f7me62870v7t6vq9fdwt52np2rrvf7yrgrxkf0q6qhzwe","addr1v8partxrrefltjtx8j2dyc8rmqzafwrlzpa6eq7jullvvps3tuf38","addr1vynhj44dcz24g52fadv2x2fjmur5wz0rzhm6pqeuffh6zgq697d03","addr1qx3qzw58ge64j4585ja3m79h9qauccgpu8us2mcsuwrnf263amn4z2xfak49zmcz3qxq940gprae7q4ze6hmg9cax73qcty7ry"],"fee":348013,"totalOutput":18492618,"tokens":[]},{"hash":"4f25c497f7866b755b238af40f519abfea8ad381949e3777ada2f5c54b71a279","blockNo":8114969,"blockHash":"b501406e7823702d5cd7c4133624953c5e8939df507972d832d6c4aaca802856","epochNo":380,"epochSlotNo":175343,"slot":78972143,"time":"2022/12/08 22:27:14","addressesInput":["addr1qyht4ja0zcn45qvyx477qlyp6j5ftu5ng0prt9608dxp6l2j2c79gy9l76sdg0xwhd7r0c0kna0tycz4y5s6mlenh8pq4jxtdy","addr1wxn9efv2f6w82hagxqtn62ju4m293tqvw0uhmdl64ch8uwc0h43gt","addr1qyht4ja0zcn45qvyx477qlyp6j5ftu5ng0prt9608dxp6l2j2c79gy9l76sdg0xwhd7r0c0kna0tycz4y5s6mlenh8pq4jxtdy","addr1z8snz7c4974vzdpxu65ruphl3zjdvtxw8strf2c2tmqnxz2j2c79gy9l76sdg0xwhd7r0c0kna0tycz4y5s6mlenh8pq0xmsha"],"addressesOutput":["addr1qyht4ja0zcn45qvyx477qlyp6j5ftu5ng0prt9608dxp6l2j2c79gy9l76sdg0xwhd7r0c0kna0tycz4y5s6mlenh8pq4jxtdy","addr1qyht4ja0zcn45qvyx477qlyp6j5ftu5ng0prt9608dxp6l2j2c79gy9l76sdg0xwhd7r0c0kna0tycz4y5s6mlenh8pq4jxtdy","addr1qx85d7gjvwaltgkyj24mrwzfs8c3vktwp758mkzgtlpp9gxz6e2f7q9ge4rdcf4n76s4ste44j66uu5926wld8cfjxaqjqpz07","addr1z8snz7c4974vzdpxu65ruphl3zjdvtxw8strf2c2tmqnxz2j2c79gy9l76sdg0xwhd7r0c0kna0tycz4y5s6mlenh8pq0xmsha"],"fee":810183,"totalOutput":17792484552242,"tokens":[]},{"hash":"f05e66febe93a77d1f5fee0d7d5db943667d7972e75bbd57182149a6199847fb","blockNo":8114969,"blockHash":"b501406e7823702d5cd7c4133624953c5e8939df507972d832d6c4aaca802856","epochNo":380,"epochSlotNo":175343,"slot":78972143,"time":"2022/12/08 22:27:14","addressesInput":["addr1qxlz6sj6dz0v8u5wvafnjr9r3qm063gdc3ngngmugwq6xrl0wf27vf9ysvywvwtvyuclfu29fj6cwjjsaxaktywr7nsq54vamk","addr1qxlz6sj6dz0v8u5wvafnjr9r3qm063gdc3ngngmugwq6xrl0wf27vf9ysvywvwtvyuclfu29fj6cwjjsaxaktywr7nsq54vamk","addr1qxlz6sj6dz0v8u5wvafnjr9r3qm063gdc3ngngmugwq6xrl0wf27vf9ysvywvwtvyuclfu29fj6cwjjsaxaktywr7nsq54vamk","addr1qxlz6sj6dz0v8u5wvafnjr9r3qm063gdc3ngngmugwq6xrl0wf27vf9ysvywvwtvyuclfu29fj6cwjjsaxaktywr7nsq54vamk"],"addressesOutput":["addr1zxgx3far7qygq0k6epa0zcvcvrevmn0ypsnfsue94nsn3tvpw288a4x0xf8pxgcntelxmyclq83s0ykeehchz2wtspks905plm","addr1qxlz6sj6dz0v8u5wvafnjr9r3qm063gdc3ngngmugwq6xrl0wf27vf9ysvywvwtvyuclfu29fj6cwjjsaxaktywr7nsq54vamk","addr1qxlz6sj6dz0v8u5wvafnjr9r3qm063gdc3ngngmugwq6xrl0wf27vf9ysvywvwtvyuclfu29fj6cwjjsaxaktywr7nsq54vamk","addr1qxlz6sj6dz0v8u5wvafnjr9r3qm063gdc3ngngmugwq6xrl0wf27vf9ysvywvwtvyuclfu29fj6cwjjsaxaktywr7nsq54vamk"],"fee":221205,"totalOutput":2507486049,"tokens":[]},{"hash":"3ca8d899d5eed424f0283e9527e3399e99b964dc0d2f2630896a1582939cc8bb","blockNo":8114969,"blockHash":"b501406e7823702d5cd7c4133624953c5e8939df507972d832d6c4aaca802856","epochNo":380,"epochSlotNo":175343,"slot":78972143,"time":"2022/12/08 22:27:14","addressesInput":["addr1qy7tk9pulm4m5qk06hnv9r7geeeswv4tk279zrhwmk5k7pd6llmpakcq9sk8gcqd3z3xalsmx376m7h7rumhuep0y5sqa93axh","addr1qy7tk9pulm4m5qk06hnv9r7geeeswv4tk279zrhwmk5k7pd6llmpakcq9sk8gcqd3z3xalsmx376m7h7rumhuep0y5sqa93axh"],"addressesOutput":["addr1zxgx3far7qygq0k6epa0zcvcvrevmn0ypsnfsue94nsn3tvpw288a4x0xf8pxgcntelxmyclq83s0ykeehchz2wtspks905plm","addr1qy7tk9pulm4m5qk06hnv9r7geeeswv4tk279zrhwmk5k7pd6llmpakcq9sk8gcqd3z3xalsmx376m7h7rumhuep0y5sqa93axh","addr1qy7tk9pulm4m5qk06hnv9r7geeeswv4tk279zrhwmk5k7pd6llmpakcq9sk8gcqd3z3xalsmx376m7h7rumhuep0y5sqa93axh"],"fee":223581,"totalOutput":9824527,"tokens":[]},{"hash":"8db80dd278a348d64b5c0517ac1f19ebe9317b5ad02f90e3b04760c169cb85a5","blockNo":8114969,"blockHash":"b501406e7823702d5cd7c4133624953c5e8939df507972d832d6c4aaca802856","epochNo":380,"epochSlotNo":175343,"slot":78972143,"time":"2022/12/08 22:27:14","addressesInput":["Ae2tdPwUPEYwNguM7TB3dMnZMfZxn1pjGHyGdjaF4mFqZF9L3bj6cdhiH8t"],"addressesOutput":["DdzFFzCqrhsjxnuNs3Ce6hiVSqwcfKBdviohKxmy3gks4HEUvvHqJfX5WLEy2pfLBGcgAvedpPgHe6N6617LjqJKgedaaoHPERa9FEoU","DdzFFzCqrhsn2H5MQrcTYmijrt8dgLKRYQUTBZoHHgUsSxPzf5kEqwqunUMKZG9ZjQAVsq1Dqzqnyh1gfbKL1eBp2cz4BQGV1kqEzpWb","addr1qy72uh0up3yfnaer3l9zqaz8fwf82funsmud2r2p48kgqxlwuq6hgw97uyhgh8sds8lenqvd500lnqqvvdfdwuh8kyns8azvwz","Ae2tdPwUPEYwNguM7TB3dMnZMfZxn1pjGHyGdjaF4mFqZF9L3bj6cdhiH8t"],"fee":250281,"totalOutput":71477154570,"tokens":[]}],"totalItems":56286105,"totalPages":2814306,"currentPage":0}