{"data":[{"blockNo":8229996,"slotNo":81331124,"epochNo":385,"epochSlotNo":374324,"hash":"a48a7a6245e481a30602c7adb801385d6c80fa77b3d3c961f79df35029483ad5","time":"2023/01/05 05:43:35","txCount":1,"totalFees":817877,"totalOutput":1516016834,"slotLeader":"43bf2e2c7601bd6dfb38564fc2c48f5b1a773fdb4095dee412f52e50"},{"blockNo":8229995,"slotNo":81331123,"epochNo":385,"epochSlotNo":374323,"hash":"fa49537634078a65e4c48a2af4f115da0b379ec3e9a0d7ed63329d102b2093dc","time":"2023/01/05 05:43:34","txCount":5,"totalFees":1100946,"totalOutput":436495191916,"slotLeader":"fb4b7b76ea6d857f442cb9569d186f328fc846bb83222c3150ec3346"},{"blockNo":8229994,"slotNo":81331105,"epochNo":385,"epochSlotNo":374305,"hash":"121d862813818c701da26959a3fcb560b0eb99657c473516f67a08866c4d5859","time":"2023/01/05 05:43:16","txCount":20,"totalFees":5911583,"totalOutput":67009888907,"slotLeader":"8c289ee3b1b591a95c18ffce66957d1f07115afdf939c2a9b441fc22"},{"blockNo":8229993,"slotNo":81331077,"epochNo":385,"epochSlotNo":374277,"hash":"111e3328fab2f7ddb2a2419998a131dac46affcac7fb896083232a1427046e0a","time":"2023/01/05 05:42:48","txCount":13,"totalFees":5517298,"totalOutput":12217555809,"slotLeader":"6ec2284f8e312b5b122d85b97db828ff364d49e3c51c449bfc8889bf"},{"blockNo":8229992,"slotNo":81331050,"epochNo":385,"epochSlotNo":374250,"hash":"d4657b17704b6213460af70f78992b99e685287599c496652bb51960fe5d89a0","time":"2023/01/05 05:42:21","txCount":1,"totalFees":286305,"totalOutput":6160912606,"slotLeader":"c83beb18d532234c72a304ab935982be670c22e771b227a3febc3a82"},{"blockNo":8229991,"slotNo":81331048,"epochNo":385,"epochSlotNo":374248,"hash":"70122b2bb156e89411063e28c465639de596c10a9c4ab8751cac73beaad3e6db","time":"2023/01/05 05:42:19","txCount":3,"totalFees":1175050,"totalOutput":9816578281,"slotLeader":"d5b90a198d2411b5c82fbdfee5f94b86de49a8589bfa7720b9de358f"},{"blockNo":8229990,"slotNo":81331044,"epochNo":385,"epochSlotNo":374244,"hash":"a3803e4d7ce134a0b19aae9601bf42303908d95f865ee2c1d3b3993cb31fd03b","time":"2023/01/05 05:42:15","txCount":2,"totalFees":360746,"totalOutput":243111500,"slotLeader":"c34a7f59c556633dc88ec25c9743c5ebca3705e179a54db5638941cb"},{"blockNo":8229989,"slotNo":81331036,"epochNo":385,"epochSlotNo":374236,"hash":"be3962ddbe4616c51e0b09a797207c7a6e44da780f2e66d4e865a29824aac78b","time":"2023/01/05 05:42:07","txCount":0,"totalFees":0,"totalOutput":0,"slotLeader":"7d45120fc9e82f8b69d886057d80630b721e8f033cb8e3f26621d7bd"},{"blockNo":8229988,"slotNo":81331035,"epochNo":385,"epochSlotNo":374235,"hash":"08ac176bcaca8812d19c4ce318bd25dc9eb7a5159a214f72c18b778ea1df1da8","time":"2023/01/05 05:42:06","txCount":15,"totalFees":4979824,"totalOutput":196332485589,"slotLeader":"5f7ad5f7869dc00ffa143a44bfee70321fa3bf6de895420c95502bba"},{"blockNo":8229987,"slotNo":81331008,"epochNo":385,"epochSlotNo":374208,"hash":"362a812d880b3696369d63df50f75c44f865f2007acb8a5b30cfdd2178e003c8","time":"2023/01/05 05:41:39","txCount":14,"totalFees":6766795,"totalOutput":127062377350,"slotLeader":"463e481957f266d93e4decbfb73003380ab17223e0e569f71c7a525a"}],"totalItems":18326,"totalPages":1833,"currentPage":0}