{"data":[{"blockNo":8264035,"slotNo":82032850,"epochNo":387,"epochSlotNo":212050,"hash":"413212f0838e9efe876a2e7657e30de660823e0f502b18d817daa1fc354805e0","time":"2023/01/13 08:39:01","txCount":5,"totalFees":1366463,"totalOutput":251901004302,"slotLeader":"aa8b94010cd3c7199be1d619079c184a59e6f1ad930926bc2bd38579"},{"blockNo":8264034,"slotNo":82032835,"epochNo":387,"epochSlotNo":212035,"hash":"f234e58d806842b7438c53faf52c503b3239f1a3d90cebf8917404279692e2db","time":"2023/01/13 08:38:46","txCount":8,"totalFees":3001129,"totalOutput":14677448728,"slotLeader":"82906c841da0f4010b2fa1a2c3726b5571b02eea6abfb48d7c6a4184"},{"blockNo":8264033,"slotNo":82032818,"epochNo":387,"epochSlotNo":212018,"hash":"2ff0f23cfa785af8130497337fcb4ec004c77d10f05dcc4b1badc43b2e762860","time":"2023/01/13 08:38:29","txCount":12,"totalFees":2692873,"totalOutput":6131560296,"slotLeader":"c80d3b1f64feed0697bb97c97867a63ff1c33cb8b472bc33fdfa457e"},{"blockNo":8264032,"slotNo":82032801,"epochNo":387,"epochSlotNo":212001,"hash":"4cca5e186ceb589ec0f3b3da2f0fb7f5a7f0fb3cfed9e732da5b626bdbc5dd30","time":"2023/01/13 08:38:12","txCount":13,"totalFees":4718760,"totalOutput":2986618425494,"slotLeader":"c4ded02c3f7275e4b6157dd164bf941eea0af4596501c5ed16752ed2"},{"blockNo":8264031,"slotNo":82032788,"epochNo":387,"epochSlotNo":211988,"hash":"a3be8c3e6b11e10ccbc62532de11ed63191d394fd00ef59aaff4c9e990ee6c6f","time":"2023/01/13 08:37:59","txCount":5,"totalFees":1835614,"totalOutput":118306154813,"slotLeader":"e455088c9164ae075f0300bc1a7234c30433556c6b88d4301a06cfe5"},{"blockNo":8264030,"slotNo":82032772,"epochNo":387,"epochSlotNo":211972,"hash":"4d82ff51c1b15f03ad4cc5e219fbf07c969d03c009df11d5c3090e7197ec93cd","time":"2023/01/13 08:37:43","txCount":4,"totalFees":1079064,"totalOutput":2274845768257,"slotLeader":"16d7b39329f79540967e35631dd1f6630a608a5c94e642ee8b2e9e8a"},{"blockNo":8264029,"slotNo":82032765,"epochNo":387,"epochSlotNo":211965,"hash":"345cc7592e8a36c4f4cbeb3c43869012c79c531f25934ed29014dc78175356e9","time":"2023/01/13 08:37:36","txCount":4,"totalFees":1529717,"totalOutput":1547280338,"slotLeader":"b3cc3005f1dccbc88230eb66d6e99c2f1bfa32273044473e17d9e10b"},{"blockNo":8264028,"slotNo":82032753,"epochNo":387,"epochSlotNo":211953,"hash":"083a2d95410799670b1f4e8b293ed61404916db005ffaaa4c66e71d5219d3cee","time":"2023/01/13 08:37:24","txCount":10,"totalFees":3503968,"totalOutput":10078260087,"slotLeader":"92bda83eb105d569b23cb6fa1d407dd42de0d2d7e6562718b7ac5c02"},{"blockNo":8264027,"slotNo":82032739,"epochNo":387,"epochSlotNo":211939,"hash":"98b5c504fb6e8b354ee9e799bff4862de41d57e288cf5f61a8d0ff26df4a3e8a","time":"2023/01/13 08:37:10","txCount":17,"totalFees":5902683,"totalOutput":6551503484577,"slotLeader":"47605a7c1fc5e8195335fb91e3a0df07adb2993c1a5b4a78d55a1d6a"},{"blockNo":8264026,"slotNo":82032722,"epochNo":387,"epochSlotNo":211922,"hash":"8e1bdb48b35034c300dc930b1bf3b40757aebb06bffb60c45bd03f772ef1fc44","time":"2023/01/13 08:36:53","txCount":3,"totalFees":739451,"totalOutput":1472100141,"slotLeader":"40fd2f82c5b6eeee096d761c9d4c8352f3901467bd49a5658f30c6c2"},{"blockNo":8264025,"slotNo":82032713,"epochNo":387,"epochSlotNo":211913,"hash":"4d8745f11f50665c5c0fd07a86c6b3e81de37c19d87eb8e85b06c347aad4a88a","time":"2023/01/13 08:36:44","txCount":11,"totalFees":2329014,"totalOutput":244516055073,"slotLeader":"c83beb18d532234c72a304ab935982be670c22e771b227a3febc3a82"},{"blockNo":8264024,"slotNo":82032695,"epochNo":387,"epochSlotNo":211895,"hash":"fba5b9671dee6715ad453f0d19ac4c5beeaa9bed2e49410c3fb849099a56625e","time":"2023/01/13 08:36:26","txCount":7,"totalFees":1545488,"totalOutput":3776367638,"slotLeader":"903c38e5905f1587d5ecf8c875a181725fb4b12b3eb06ce1d20bb1c6"},{"blockNo":8264023,"slotNo":82032683,"epochNo":387,"epochSlotNo":211883,"hash":"cb689ff73326a153f48aae98d62846155cee308d0adc5b970929e3ff1f3b0fa7","time":"2023/01/13 08:36:14","txCount":1,"totalFees":301417,"totalOutput":2938803108,"slotLeader":"2cf87fadec7130c7e41910492073ae4dbe65ca462c1fdc3d2a56d015"},{"blockNo":8264022,"slotNo":82032682,"epochNo":387,"epochSlotNo":211882,"hash":"9a912ec30692b011b9e143fd73bc6db34ebcc823bcc277a077b160094c3e8bbc","time":"2023/01/13 08:36:13","txCount":31,"totalFees":9871569,"totalOutput":24206837848670,"slotLeader":"9d520aa1da84c4096431093f23b71aef7b53227e3a3f43da3a7b40d7"},{"blockNo":8264021,"slotNo":82032638,"epochNo":387,"epochSlotNo":211838,"hash":"cdd682e2a4a21d4060865a21f92089223ed7dd14fd88ae43b221c4d412cea8bc","time":"2023/01/13 08:35:29","txCount":22,"totalFees":7235953,"totalOutput":32008528115086,"slotLeader":"d785ff6a030ae9d521770c00f264a2aa423e928c85fc620b13d46eda"},{"blockNo":8264020,"slotNo":82032612,"epochNo":387,"epochSlotNo":211812,"hash":"a98cab11152ad96f9a3e1a9517a0069f1ba5d745fb6194fe75f104548dbef171","time":"2023/01/13 08:35:03","txCount":25,"totalFees":6627306,"totalOutput":1542974790201,"slotLeader":"7df262feae9201d1b2e32d4c825ca91b29fbafb2b8e556f6efb7f549"},{"blockNo":8264019,"slotNo":82032579,"epochNo":387,"epochSlotNo":211779,"hash":"5a47fcd6c3336d938e48c33bd6bef2aaed9a0c430bba9d8e5c5b1389045bf9a4","time":"2023/01/13 08:34:30","txCount":3,"totalFees":655044,"totalOutput":82506832,"slotLeader":"c4a4b16b33b63da2117f4a84d3ea686f34fcf9f4603ce016af9e39aa"},{"blockNo":8264018,"slotNo":82032572,"epochNo":387,"epochSlotNo":211772,"hash":"d5567245f0e3606f868d31acf6ed6c869407541b23b64f2b04002b55a7c9ec23","time":"2023/01/13 08:34:23","txCount":1,"totalFees":176281,"totalOutput":5341944,"slotLeader":"e118432cb62a1f13de9af18f7eff32a98fe97b751d444117f7655b86"},{"blockNo":8264017,"slotNo":82032570,"epochNo":387,"epochSlotNo":211770,"hash":"8060bfe2a0d4d432bbebdd52ee83b2ee4d012395403f1486ff619d7c1cd037a6","time":"2023/01/13 08:34:21","txCount":2,"totalFees":602883,"totalOutput":239763522110,"slotLeader":"3d5f6d2a147cf3c97aed0d7ea973e6a95abdf94255025bdf470c9809"},{"blockNo":8264016,"slotNo":82032565,"epochNo":387,"epochSlotNo":211765,"hash":"be7aebbf7e11e919993e7c73257d96ba81320a86cd9a8f4ead8dfd6d34555602","time":"2023/01/13 08:34:16","txCount":8,"totalFees":2593446,"totalOutput":1527180066469,"slotLeader":"9caffdb0feeb61d9a57484b8c153a50a09977b5b303af7171ed2ba9a"}],"totalItems":8264211,"totalPages":413211,"currentPage":0}