{"data":[{"txId":56179797,"txHash":"23ae9b6fabe3f86d2fbd604284ebbe32c179d8cbfed7813365d04bc5282849ab","txTime":"2022/11/27 23:55:16","block":8068869,"epoch":378,"slotNo":78027025,"epochSlotNo":94225,"stakeKey":"stake1u8pdhdm84qjnsz3jze55w832cng2ut06c22eradfqesecwsk8dgs8"},{"txId":56179784,"txHash":"370f2c31465050f2d8ca04e811f871326c76c1cb927dacd6ce0bea4f59005559","txTime":"2022/11/27 23:55:16","block":8068869,"epoch":378,"slotNo":78027025,"epochSlotNo":94225,"stakeKey":"stake1uynm86rhhxl5rluqhh8aaeeg6yjhftflpg2z8dq06l35zxq5uusqg"},{"txId":56179760,"txHash":"e7429435849529e144681060b3f9b07bb40ef5372066905540a6b82dafd7e7da","txTime":"2022/11/27 23:53:54","block":8068867,"epoch":378,"slotNo":78026943,"epochSlotNo":94143,"stakeKey":"stake1uyftkslh657clvqgs6tztwcs82vwdl2ujjvuhpqjfaq9zkqnn2gaj"},{"txId":56179750,"txHash":"31763fcd33f019aca8a9f0d44954be0da4576ffe77f64d0074883316680dc57f","txTime":"2022/11/27 23:53:13","block":8068866,"epoch":378,"slotNo":78026902,"epochSlotNo":94102,"stakeKey":"stake1uye83h4592ljpq4242tgx03fpgcm34n7yz48rdcnp2f5h0qhsa5mu"},{"txId":56179594,"txHash":"627ec2b084dcfdad8d1be04636f6dfe5fc5d93f04e0c0c7dd0da24d9b8e54045","txTime":"2022/11/27 23:49:04","block":8068850,"epoch":378,"slotNo":78026653,"epochSlotNo":93853,"stakeKey":"stake1u8ckhkygg3dd2a2ry4lklulgpatht4mxyqwp20048gnh48ge6qh3d"},{"txId":56179518,"txHash":"ee71d66ce8e515f19250d9ed83633b397c7017587ca0e5548fa6e51c73e7df76","txTime":"2022/11/27 23:47:30","block":8068846,"epoch":378,"slotNo":78026559,"epochSlotNo":93759,"stakeKey":"stake1uxwyqyptw0gl9wevret5gjmdwwskapuuuhxjjdx6hy4rluqgwswm5"},{"txId":56179405,"txHash":"c562c8c068c9bd5d4fd1a09885e0461f7a9eae405998741e5b0247b2f2356b84","txTime":"2022/11/27 23:44:41","block":8068835,"epoch":378,"slotNo":78026390,"epochSlotNo":93590,"stakeKey":"stake1u9jyy09r7ec2qd62sucd5kyq6lvqcxqnxrh9ukdghh64cegsthgft"},{"txId":56179399,"txHash":"d6d28d45987f7473552b525004ee7b65d5a63a9b4096bcd5c9fa7f1156f409d1","txTime":"2022/11/27 23:44:41","block":8068835,"epoch":378,"slotNo":78026390,"epochSlotNo":93590,"stakeKey":"stake1uy6y4reugwtnh8lnvuks3c4yam2rnqsgpu2f6gp9mg2pwnsc74pt0"},{"txId":56179335,"txHash":"17d04ec7f08559ac6efa9eaee87901bb6e649d96f0a0d33e275825a164df377d","txTime":"2022/11/27 23:43:25","block":8068833,"epoch":378,"slotNo":78026314,"epochSlotNo":93514,"stakeKey":"stake1uxzd7v4plcd76kx85wgg78k0lgqqmskgea9dj70rt35qxqq5wyruj"},{"txId":56179277,"txHash":"538e2326ea9b9e3272139a1d49320bbc84215548e38f996055171cd386cc1fe8","txTime":"2022/11/27 23:42:00","block":8068831,"epoch":378,"slotNo":78026229,"epochSlotNo":93429,"stakeKey":"stake1u8s6p58mktk979dsu7nuxqngk5qxs7mz3la87ej6n7j0saque3wj3"},{"txId":56179267,"txHash":"e0077bde2a9701394e3239bc8ea8fb9568ffeeb238b6197c34df7cec3a61d408","txTime":"2022/11/27 23:42:00","block":8068831,"epoch":378,"slotNo":78026229,"epochSlotNo":93429,"stakeKey":"stake1uyxelpx559lf4cwznhlxuundhzflea9ldru3jptk47h9d9cuwxk6y"},{"txId":56179255,"txHash":"0d9c23325f5be204b5e51f8880ef2e27eb254da617f8e892261bd2cf7256afc3","txTime":"2022/11/27 23:42:00","block":8068831,"epoch":378,"slotNo":78026229,"epochSlotNo":93429,"stakeKey":"stake1u8g37w5wtv34xn5uh2age7cyjqutfcgty2j49l3ndne8kjg5qy0pt"},{"txId":56179106,"txHash":"673c090161fef5cc90e34c412f36b09cd6d3b24f300c9bbfbfcca764b796d526","txTime":"2022/11/27 23:38:23","block":8068819,"epoch":378,"slotNo":78026012,"epochSlotNo":93212,"stakeKey":"stake1u8qd68etwr7w43q2hk5dhseufpcc946eysllal6nk95yxkq3qxsnu"},{"txId":56179101,"txHash":"b4c5e3a6040d3d29ba88e086fd25851b69eab08c6f952ccb6fcf16baaf176c73","txTime":"2022/11/27 23:38:00","block":8068818,"epoch":378,"slotNo":78025989,"epochSlotNo":93189,"stakeKey":"stake1uxcwd8r8gtv83rcmlcwuh8elvmwg385269ca2jjxj5cz7zcra2szm"},{"txId":56178860,"txHash":"386bd1429531355c5ac8c0c4a986144cf34f7347fedcfaf954588fa1c3569bf4","txTime":"2022/11/27 23:33:17","block":8068808,"epoch":378,"slotNo":78025706,"epochSlotNo":92906,"stakeKey":"stake1u9qlk5xqcu8gwdkvf4htrek4lmtrsew2t2haq02x05vsfusuf4qmq"},{"txId":56178846,"txHash":"f03cec70aef439da5f50bd38be69cd08a5c772c6d6adeeb02b9f910873d3e088","txTime":"2022/11/27 23:33:17","block":8068808,"epoch":378,"slotNo":78025706,"epochSlotNo":92906,"stakeKey":"stake1u9km2xhdk3hlpmj8ecdya3ehq4kff8rpkyt9yj2whwgsq5q5aw9lj"},{"txId":56178838,"txHash":"a3d73558cb18dda6e0a2066e3ffd03eeba4135313a987a0d127a109db47fcc8e","txTime":"2022/11/27 23:32:18","block":8068807,"epoch":378,"slotNo":78025647,"epochSlotNo":92847,"stakeKey":"stake1ux0r3l482k7yxlqxnfq0w96gx3dmujs08yls7rg552tsdncwpltj3"},{"txId":56178773,"txHash":"8a7cd6f5795c05d6b65623b86df7ef0d239783b6e264134058820b85f546c73a","txTime":"2022/11/27 23:30:57","block":8068802,"epoch":378,"slotNo":78025566,"epochSlotNo":92766,"stakeKey":"stake1u9lqaf2dzwm0gp93eusacmm34zxxm2985w8gyw38hedsr7q20rrev"},{"txId":56178619,"txHash":"6d788c320318212368705765ce8b973940fe6b0742871db05c5f9a5a44dea099","txTime":"2022/11/27 23:28:15","block":8068796,"epoch":378,"slotNo":78025404,"epochSlotNo":92604,"stakeKey":"stake1uyqkep9xvttakmcautdffmdq38extjzxa982ztsvpnva7aqj0fgyn"},{"txId":56178538,"txHash":"e89b339d00f714a38f93ed1b059d71e321663ca897ec2dc8e4b4d22049c2bf3a","txTime":"2022/11/27 23:26:48","block":8068791,"epoch":378,"slotNo":78025317,"epochSlotNo":92517,"stakeKey":"stake1u8cp7gu6nsmrnsezattju2zuhrsny7l326a8zwyygyh63lc9j6z3w"}],"totalItems":1612126,"totalPages":80607,"currentPage":0}