{"data":[{"blockNo":7953622,"slotNo":75641238,"epochNo":372,"epochSlotNo":300438,"hash":"94319449fb3c284ac36b4c05257684333541ae1a9ec9f36e260e05598fa82fb6","time":"2022/10/31 09:12:09","txCount":4,"totalFees":826193,"totalOutput":842161965446,"slotLeader":"3d1e6611b34537690ace03b54d689eceaf01a3b6c4487f487300ec37"},{"blockNo":7953621,"slotNo":75641236,"epochNo":372,"epochSlotNo":300436,"hash":"7b694ffa5006f8686e8a02df75a88a1a8d6ecfccaae11b67ce891a17c072fdfd","time":"2022/10/31 09:12:07","txCount":2,"totalFees":432653,"totalOutput":647638278,"slotLeader":"34eb602eb435e3c6a4feb6d766a44735ca09e963f82098973c85951e"},{"blockNo":7953620,"slotNo":75641234,"epochNo":372,"epochSlotNo":300434,"hash":"bde05dd7eed9c459e9ceafd830381d89a3f129ee1bc5c8f85645e1951c9d9659","time":"2022/10/31 09:12:05","txCount":0,"totalFees":0,"totalOutput":0,"slotLeader":"f99151a5fd003b8bb92ba2af02ed6efec2923b520189cf89e1c264aa"},{"blockNo":7953619,"slotNo":75641233,"epochNo":372,"epochSlotNo":300433,"hash":"e89959ec85d8ad59d76a767b86ae41211f9182d9949ed9efe561be39924b83af","time":"2022/10/31 09:12:04","txCount":1,"totalFees":200455,"totalOutput":24799545,"slotLeader":"5cff121b7239ea76035bcb79711674a29fdf35d0bbe83a212467fab9"},{"blockNo":7953618,"slotNo":75641231,"epochNo":372,"epochSlotNo":300431,"hash":"4e36f9d4855f9ef56d5c117b76167f4b6c99f5ed2961148d5ec78531f7af72b7","time":"2022/10/31 09:12:02","txCount":3,"totalFees":1986684,"totalOutput":117452082113,"slotLeader":"4b11b32e3a39fb417f5dddd9d058abdb2d1fdcd64360bee8928e05c2"},{"blockNo":7953617,"slotNo":75641226,"epochNo":372,"epochSlotNo":300426,"hash":"28b93a98329b99b6a39c23d81945258bb93176595e77dcdbdd06ea0329b6f7e9","time":"2022/10/31 09:11:57","txCount":13,"totalFees":3739056,"totalOutput":167578958587,"slotLeader":"d248ded3c18e0e80d07a46f00a2d808075b989ccb1a0e40a76e5cee1"},{"blockNo":7953616,"slotNo":75641208,"epochNo":372,"epochSlotNo":300408,"hash":"0f1a20332ce74a88b65b54be67010b9bceb1cc0fdc4ef4d9a0703978e0bfee3b","time":"2022/10/31 09:11:39","txCount":5,"totalFees":1373585,"totalOutput":7118339476,"slotLeader":"ec3308cedfbe904927d51f9a0d9cb93492da29e22e32900f85a15d8c"},{"blockNo":7953615,"slotNo":75641200,"epochNo":372,"epochSlotNo":300400,"hash":"4700e6e1ed87fd9bedacf2bcbd27034cf5d234750d33b61deb73dc1b63618386","time":"2022/10/31 09:11:31","txCount":16,"totalFees":5032646,"totalOutput":415991190321,"slotLeader":"abacadaba9f12a8b5382fc370e4e7e69421fb59831bb4ecca3a11d9b"},{"blockNo":7953614,"slotNo":75641177,"epochNo":372,"epochSlotNo":300377,"hash":"2a1b9b55ea70b94ab23baa14029733c61901f6240a36568adf7a5f5dea9739d7","time":"2022/10/31 09:11:08","txCount":12,"totalFees":2698165,"totalOutput":332115273754,"slotLeader":"8f67312cb7927075292fcc986927c986ccdd630a3bae1b52dd4671a4"},{"blockNo":7953613,"slotNo":75641162,"epochNo":372,"epochSlotNo":300362,"hash":"60c739267b7d1aae478bedd21e74e0eb97a11c80d7783cb8d469df3efd9bacc4","time":"2022/10/31 09:10:53","txCount":6,"totalFees":1765729,"totalOutput":4209116719,"slotLeader":"f1b265f1e545da9c6e003c5d703fb5a23283c646cd40b2d619671e7f"},{"blockNo":7953612,"slotNo":75641150,"epochNo":372,"epochSlotNo":300350,"hash":"e674985c38509f879c01998750818ac5bad749d9ce1d878c0dbf67d12ae03d40","time":"2022/10/31 09:10:41","txCount":5,"totalFees":1827151,"totalOutput":350410268079,"slotLeader":"b83ec9c4136a2d3cd15cbe691afa7f2437bce3d1240ac6f2c5d0e159"},{"blockNo":7953611,"slotNo":75641133,"epochNo":372,"epochSlotNo":300333,"hash":"089c41469fa46b0ac1e6e272efc684b1ffcba23763ebae8c9346ee140fff2c9d","time":"2022/10/31 09:10:24","txCount":11,"totalFees":2863572,"totalOutput":628848306243,"slotLeader":"7277d55c0b15a03495c0f768e71f88470d91772bc90ef0e4bd1a153f"},{"blockNo":7953610,"slotNo":75641117,"epochNo":372,"epochSlotNo":300317,"hash":"b77abda3ce7657c1a322bddffd42bd81056bbb676ebd07bada2b895f904e49f6","time":"2022/10/31 09:10:08","txCount":3,"totalFees":563515,"totalOutput":367996184218,"slotLeader":"9ad2692a4865c5999f27d65baf170be5ba38b25489c8e21007193edd"},{"blockNo":7953609,"slotNo":75641116,"epochNo":372,"epochSlotNo":300316,"hash":"8b425eed653e5f903619cf8fb3e3bbae04d0c5a05cc900410a535ceff028d4dd","time":"2022/10/31 09:10:07","txCount":7,"totalFees":3526385,"totalOutput":5589971215573,"slotLeader":"7e3a1ed8f2085923debacc6866aefaba941edd638ff0886061ebf521"},{"blockNo":7953608,"slotNo":75641106,"epochNo":372,"epochSlotNo":300306,"hash":"a84b4446a4362481e6ce5fcbf08268d33b06cf67d99cdb061d7740e1415b2da1","time":"2022/10/31 09:09:57","txCount":23,"totalFees":8391457,"totalOutput":764765566259,"slotLeader":"8833a263b80491140592cb907f46add5e1a1ddbce66725ce7675e2af"},{"blockNo":7953607,"slotNo":75641068,"epochNo":372,"epochSlotNo":300268,"hash":"95077164736e3ff2c770adcb8adce5f0743315108c9af440bc99088bf829d4c8","time":"2022/10/31 09:09:19","txCount":26,"totalFees":8145381,"totalOutput":396079576211,"slotLeader":"6b51a5aae5b4b5f07f38acf12816b4f8a558ee2840d0dba69040aeb2"},{"blockNo":7953606,"slotNo":75641031,"epochNo":372,"epochSlotNo":300231,"hash":"bc0cf410727f530edba0ceadd597f50f2df527da561ec9125e3105dc18e5a385","time":"2022/10/31 09:08:42","txCount":26,"totalFees":7836326,"totalOutput":2360450677356,"slotLeader":"b900dfcf894c473620bf379f8c63aa300d8c8842a94a758758bdcd33"},{"blockNo":7953605,"slotNo":75640984,"epochNo":372,"epochSlotNo":300184,"hash":"b83d63c62306df993b9ef563886a6ed5ef240bfbc230b07f6ef9fa2aaa27aa9a","time":"2022/10/31 09:07:55","txCount":6,"totalFees":1428677,"totalOutput":10863498443,"slotLeader":"eaa28db3bf0b7bb815b552fc9e0cecdda62933ce6c67067183c79acd"},{"blockNo":7953604,"slotNo":75640975,"epochNo":372,"epochSlotNo":300175,"hash":"9eac0afec987131b752f3bed8ed22f3bf99357cd6ed5e7eaf8022b84d0c4799c","time":"2022/10/31 09:07:46","txCount":2,"totalFees":500739,"totalOutput":141507170,"slotLeader":"2c88e3a7f6279bda114f92dbbcd78b734f0ebff40ff2bdce647e9c53"},{"blockNo":7953603,"slotNo":75640969,"epochNo":372,"epochSlotNo":300169,"hash":"493bc3f450c8f1238abae0db293dd7dd2a0ea07fc541aef72a3667a663b76312","time":"2022/10/31 09:07:40","txCount":7,"totalFees":1916029,"totalOutput":21965192459,"slotLeader":"4a2aa209e00f2926bd0d8a286592bbdea4d35a593c05d41efe29e642"}],"totalItems":7953798,"totalPages":397690,"currentPage":0}