{"data":[{"blockNo":6838380,"slotNo":52367432,"epochNo":318,"epochSlotNo":354632,"hash":"9de0e07bdf8325b6fca59543f5a66f9aeb9ad89e7797e99bbc6995ef68637858","time":"2022/02/04 00:15:23","txCount":18,"totalFees":11249476,"totalOutput":1259093628973,"slotLeader":"2fd4fd5fbfe773a7105bf2e415c51f9943ded365855396e70ae3ca90"},{"blockNo":6838379,"slotNo":52367400,"epochNo":318,"epochSlotNo":354600,"hash":"5b1a833765e3982eb8856e1abba901d200c3c07c27d73ce8958fef25101db47a","time":"2022/02/04 00:14:51","txCount":27,"totalFees":9344466,"totalOutput":1168568618259,"slotLeader":"53215c471b7ac752e3ddf8f2c4c1e6ed111857bfaa675d5e31ce8bce"},{"blockNo":6838378,"slotNo":52367387,"epochNo":318,"epochSlotNo":354587,"hash":"73ac7cc544ddd6f4b6373f672680f3c8580c4177aded0b8efa5543c939f477a9","time":"2022/02/04 00:14:38","txCount":47,"totalFees":13836771,"totalOutput":16400043462,"slotLeader":"d4970177385f7c3c90f51af3dbc4a865221778b48f23e4dc60dd4a67"},{"blockNo":6838377,"slotNo":52367373,"epochNo":318,"epochSlotNo":354573,"hash":"e0278e3b48c851a24c5eceebc94c4eeb16dc08af276729bf311da4e6f7831639","time":"2022/02/04 00:14:24","txCount":34,"totalFees":12760894,"totalOutput":14391737132,"slotLeader":"40ff71258d2c73da9e2a5ee3abb9be256e745e7f74c31eb8d4be5299"},{"blockNo":6838376,"slotNo":52367341,"epochNo":318,"epochSlotNo":354541,"hash":"dd460cdf8498da02aaf795fd9042a75fdfa15042a22a92b06d9dfdf3b30700da","time":"2022/02/04 00:13:52","txCount":22,"totalFees":10875342,"totalOutput":82486431058,"slotLeader":"04c60c78417132a195cbb74975346462410f72612952a7c4ade7e438"},{"blockNo":6838375,"slotNo":52367333,"epochNo":318,"epochSlotNo":354533,"hash":"790ae6a4fd7e6485eab534096510aec36f4fb70c46e8c544b77bbfd0273341cb","time":"2022/02/04 00:13:44","txCount":11,"totalFees":8166831,"totalOutput":391844853388,"slotLeader":"6184f6e7229530a2d1f9f746112406100e2696dd7439ff8c52750700"},{"blockNo":6838374,"slotNo":52367331,"epochNo":318,"epochSlotNo":354531,"hash":"486e0b7e637ffcd9120aa46787b984a129e9ae7c1bbf3ef2edea8c82f93e470b","time":"2022/02/04 00:13:42","txCount":11,"totalFees":6660273,"totalOutput":857965554636,"slotLeader":"41b8741536cd484687a4c3adcdc07211cfce03ca58727212336acc5e"},{"blockNo":6838373,"slotNo":52367316,"epochNo":318,"epochSlotNo":354516,"hash":"e5fc37ad1c32eeb642ce40311be0878e123c4f3f9301ded49860570ab9d91413","time":"2022/02/04 00:13:27","txCount":17,"totalFees":7611731,"totalOutput":1207811709499,"slotLeader":"bdadf198bdc79d4f37c5dcd9ed0cdf402bdc2299c3ae4c87d688a6fe"},{"blockNo":6838372,"slotNo":52367261,"epochNo":318,"epochSlotNo":354461,"hash":"98ddf87cc9174b828575d0e5c37a6071f2837def202063792d1c142a67534293","time":"2022/02/04 00:12:32","txCount":20,"totalFees":9184137,"totalOutput":5159161810,"slotLeader":"0b38a13726b9dc3aa11be08af93003e775d9d62091765e0e1e3d027b"},{"blockNo":6838371,"slotNo":52367256,"epochNo":318,"epochSlotNo":354456,"hash":"16cb6c92fdb6c1ad5c10631f7797ec1088cdb1bfb54c1d47e5ebaa1abd1da8fd","time":"2022/02/04 00:12:27","txCount":28,"totalFees":11820496,"totalOutput":2284448044195,"slotLeader":"72583cf41012446cd1ca839c10049ecd65d31664b11e63d286041d61"},{"blockNo":6838370,"slotNo":52367214,"epochNo":318,"epochSlotNo":354414,"hash":"aaf434a4f18ba521416a8e57c9b790eb67a4ccb16674862a8ef573611d7671b3","time":"2022/02/04 00:11:45","txCount":27,"totalFees":10903807,"totalOutput":6374865525,"slotLeader":"c1d314a78a43f3d5baa9c2e4105015384211416f220af4a24a8ea3ee"},{"blockNo":6838369,"slotNo":52367202,"epochNo":318,"epochSlotNo":354402,"hash":"87ca07b34cda4fc4db89c6f4457384a4cd3809975a02dd83224e7f1e3e94ce3b","time":"2022/02/04 00:11:33","txCount":17,"totalFees":9663760,"totalOutput":1589059356836,"slotLeader":"000001b844f4e4c900ae0dfdc84a8845f71090b82fb473e6c70a31ee"},{"blockNo":6838368,"slotNo":52367187,"epochNo":318,"epochSlotNo":354387,"hash":"4d942b9e090c30361ccf8ab198ad4c88968c6b777a1b79ccad596a4eff052eaf","time":"2022/02/04 00:11:18","txCount":23,"totalFees":9312788,"totalOutput":10345112789830,"slotLeader":"53215c471b7ac752e3ddf8f2c4c1e6ed111857bfaa675d5e31ce8bce"},{"blockNo":6838367,"slotNo":52367168,"epochNo":318,"epochSlotNo":354368,"hash":"42265c32e6a47421e7ddef87a6bd01b2eb7952d2d322ff4e805c4c4f470c80eb","time":"2022/02/04 00:10:59","txCount":33,"totalFees":12110111,"totalOutput":281107573843,"slotLeader":"7e00129d906afbba06a6b279fcf6e4295986a1104b7f5c4046c653bc"},{"blockNo":6838366,"slotNo":52367163,"epochNo":318,"epochSlotNo":354363,"hash":"faebdc5ca3053fb981c7dbfcaccf3dca6bda046fb5be571aff4124b1bb6c07a1","time":"2022/02/04 00:10:54","txCount":44,"totalFees":12553086,"totalOutput":6485935172093,"slotLeader":"6b51a5aae5b4b5f07f38acf12816b4f8a558ee2840d0dba69040aeb2"},{"blockNo":6838365,"slotNo":52367146,"epochNo":318,"epochSlotNo":354346,"hash":"e91920d75b4ef077efdfd927028de94c9608e21e973a2e48676b85cd916760f1","time":"2022/02/04 00:10:37","txCount":33,"totalFees":12426407,"totalOutput":23816558961,"slotLeader":"903c38e5905f1587d5ecf8c875a181725fb4b12b3eb06ce1d20bb1c6"},{"blockNo":6838364,"slotNo":52367131,"epochNo":318,"epochSlotNo":354331,"hash":"e2d231b4297d60fefd9e68939e0552cbc0ad4a0fff8ef077d26b68f30a9cecfc","time":"2022/02/04 00:10:22","txCount":23,"totalFees":9970828,"totalOutput":82744031995,"slotLeader":"beb5390bc047831874ad69f615a6f023ea121865c75ec389d6c0a392"},{"blockNo":6838363,"slotNo":52367111,"epochNo":318,"epochSlotNo":354311,"hash":"ada84063c6d516ee03262ffde1ad3a350d92eaa48a88b4f400528dfe313a93cc","time":"2022/02/04 00:10:02","txCount":11,"totalFees":7345687,"totalOutput":3544407554,"slotLeader":"d679d78bbfefe7e03e05e7a42f9088075af0f15f501a631c67e64037"},{"blockNo":6838362,"slotNo":52367074,"epochNo":318,"epochSlotNo":354274,"hash":"f7f51010b393b8aa07205cf9e8941f062e7ff568e2ca122a1a3d505d6759de0f","time":"2022/02/04 00:09:25","txCount":21,"totalFees":9200737,"totalOutput":16119839274809,"slotLeader":"000000f66e28b0f18aef20555f4c4954234e3270dfbbdcc13f54e799"},{"blockNo":6838361,"slotNo":52367065,"epochNo":318,"epochSlotNo":354265,"hash":"a1238f99cfc6dcf969f5def1ff3ef3788e13144189494fd00bca19e231fc83b3","time":"2022/02/04 00:09:16","txCount":14,"totalFees":9561771,"totalOutput":212372895581,"slotLeader":"34eb602eb435e3c6a4feb6d766a44735ca09e963f82098973c85951e"}],"totalItems":6838556,"totalPages":341928,"currentPage":0}