{"data":[{"hash":"fdbb331e1914c2b992d042cc5330a5df474187e6e8c0c363e1923b7ed62302d3","blockNo":8101441,"blockHash":"9a8825fc2805fa91f6a4b7c1a8ef9d35869ac47123d52367ef01a59b9f58b609","epochNo":379,"epochSlotNo":330753,"slot":78695553,"time":"2022/12/05 17:37:24","addressesInput":["addr1q8lq0p7p9mj2a7sjrcp2wx69cws4tk94h4ea23ldz3n4nfskz0xvazav235lj9yq3xggtqh5np22sz2sz5hane2te3lqu4dtxw","addr1qxnhc66x2xtpr7dekqvqdwud2vm7dpzc7s9vy556xqfvcwskz0xvazav235lj9yq3xggtqh5np22sz2sz5hane2te3lqp4srxj","addr1qy4la8fw29svtz2spgccds5yy2fmjp8jsl0sx4nph7y9lqskz0xvazav235lj9yq3xggtqh5np22sz2sz5hane2te3lq6njgyx","addr1qxnhc66x2xtpr7dekqvqdwud2vm7dpzc7s9vy556xqfvcwskz0xvazav235lj9yq3xggtqh5np22sz2sz5hane2te3lqp4srxj","addr1qxnhc66x2xtpr7dekqvqdwud2vm7dpzc7s9vy556xqfvcwskz0xvazav235lj9yq3xggtqh5np22sz2sz5hane2te3lqp4srxj","addr1qxnhc66x2xtpr7dekqvqdwud2vm7dpzc7s9vy556xqfvcwskz0xvazav235lj9yq3xggtqh5np22sz2sz5hane2te3lqp4srxj"],"addressesOutput":["addr1q9ej668un88gnvkzd9cw9r8aj7d4htxaqprw50yzs0shmhv5hnm8tps2jw73pherd4l9yuuetxlp6gkeufq5p6ftjswsmasrtu","addr1q9e7m3z30vd7vlphu0x0juc5g9cm0xwlmkf8cyk6fhy6wcskz0xvazav235lj9yq3xggtqh5np22sz2sz5hane2te3lqvx4n7f"],"fee":188821,"totalOutput":127159808,"tokens":[]},{"hash":"f898d2afe9f42ae8f2444c96ad940a05c23b4f105cc6a497619499af6c033b62","blockNo":8101441,"blockHash":"9a8825fc2805fa91f6a4b7c1a8ef9d35869ac47123d52367ef01a59b9f58b609","epochNo":379,"epochSlotNo":330753,"slot":78695553,"time":"2022/12/05 17:37:24","addressesInput":["addr1qyg97mnjn2nwa0nrpxx4d3phdjvzcej3t8u0p3tjrauzuj5g88a5yef9w99dm2m5s8kcv82wkqnjyav9gwda09rffrgqns654u"],"addressesOutput":["addr1vxq2suwag52em5pd8zyjdf4tapr3e4vd5zsj82hzq6tqn7gfwv3ap","addr1q97fqtk7g3g2vt4q6qfktr7mzf33er6vrr64q9lwseev6yyg88a5yef9w99dm2m5s8kcv82wkqnjyav9gwda09rffrgq3556e2","addr1q97fqtk7g3g2vt4q6qfktr7mzf33er6vrr64q9lwseev6yyg88a5yef9w99dm2m5s8kcv82wkqnjyav9gwda09rffrgq3556e2"],"fee":169945,"totalOutput":3092747809,"tokens":[]},{"hash":"d5128143f444631b76f340574f892e1e3adfcbbb5fff3fea3702c4bfc2a5eeff","blockNo":8101441,"blockHash":"9a8825fc2805fa91f6a4b7c1a8ef9d35869ac47123d52367ef01a59b9f58b609","epochNo":379,"epochSlotNo":330753,"slot":78695553,"time":"2022/12/05 17:37:24","addressesInput":["addr1q9pyhyr3d55fh4ezyf2lzn907xltnme8fvtr7u065l2nkr72j0cuwtcv084jhl9j9k523l6yxm8ux7dk07q4l2hywf0qtzh0cg","addr1q9pyhyr3d55fh4ezyf2lzn907xltnme8fvtr7u065l2nkr72j0cuwtcv084jhl9j9k523l6yxm8ux7dk07q4l2hywf0qtzh0cg","addr1q9254dtempe2qway2dvpkrz9c773hxv7ucx4f50c42yq9rw2j0cuwtcv084jhl9j9k523l6yxm8ux7dk07q4l2hywf0qk7tuqz","addr1q9pyhyr3d55fh4ezyf2lzn907xltnme8fvtr7u065l2nkr72j0cuwtcv084jhl9j9k523l6yxm8ux7dk07q4l2hywf0qtzh0cg"],"addressesOutput":["addr1qy3426fqmadt2f63ulud672ahpzjxxuydduu9gu87p0e7w0yrttrlmy23qv5gjta34ly9jxfzdjkcapzjg5vcymsakuspn28j4","addr1qx3p20rvmcd4gy3vf2y6zuzjldyml9qv2h09hh6prq8keyw2j0cuwtcv084jhl9j9k523l6yxm8ux7dk07q4l2hywf0qrrtl0c"],"fee":360817,"totalOutput":108807971,"tokens":[]},{"hash":"c4b85690fd493aede12e6835e7ab1ba904fff35b1642265f3d97c3732b6cf1da","blockNo":8101441,"blockHash":"9a8825fc2805fa91f6a4b7c1a8ef9d35869ac47123d52367ef01a59b9f58b609","epochNo":379,"epochSlotNo":330753,"slot":78695553,"time":"2022/12/05 17:37:24","addressesInput":["addr1v8e2q47vltzlaanhuuvjmsptrj86ye4axlc4mwlwvz9jfdcdrj6ft"],"addressesOutput":["addr1q8xtlx6jfx0alvdq6n9pq9ls4n57gsds6xs9cpxfh9eytys4w0ltt9q34v5ks5hh6qlf8kkc8d4wshl8nd4se4rs587swldutp"],"fee":182925,"totalOutput":1491210,"tokens":[]},{"hash":"bd7d99aeeb513251a71f55d70038de787e80bb240b188cbf4eddca802d4a019c","blockNo":8101441,"blockHash":"9a8825fc2805fa91f6a4b7c1a8ef9d35869ac47123d52367ef01a59b9f58b609","epochNo":379,"epochSlotNo":330753,"slot":78695553,"time":"2022/12/05 17:37:24","addressesInput":["addr1qxn0vmynwyxt5m3wn434t5z5uzgcneu4wk3p9ce30lejmalzaw30k6jvgfsdsucxgyys7wrzaeg853vtjm4kyr7m59hq7kyfpy","addr1qxn0vmynwyxt5m3wn434t5z5uzgcneu4wk3p9ce30lejmalzaw30k6jvgfsdsucxgyys7wrzaeg853vtjm4kyr7m59hq7kyfpy"],"addressesOutput":["addr1qx2r09yryg8dq4jxmt6jcutuv4cn72ruhda5rhqtcwqn032gr8f3vs99zv7pmejz03556lltqywd7a796mc634fstdcqtuclq8","addr1q8afg2dct53f4p6mujnkwu0afchdfydp9gqpzrx7l9r5sxlzaw30k6jvgfsdsucxgyys7wrzaeg853vtjm4kyr7m59hqqkheyk","addr1q8afg2dct53f4p6mujnkwu0afchdfydp9gqpzrx7l9r5sxlzaw30k6jvgfsdsucxgyys7wrzaeg853vtjm4kyr7m59hqqkheyk","addr1q8afg2dct53f4p6mujnkwu0afchdfydp9gqpzrx7l9r5sxlzaw30k6jvgfsdsucxgyys7wrzaeg853vtjm4kyr7m59hqqkheyk"],"fee":221953,"totalOutput":4613076433,"tokens":[]},{"hash":"fa58c28bf7bdc5911c9726becdf46b90d3f5bcaa10c8833d850da2c79391f5ef","blockNo":8101441,"blockHash":"9a8825fc2805fa91f6a4b7c1a8ef9d35869ac47123d52367ef01a59b9f58b609","epochNo":379,"epochSlotNo":330753,"slot":78695553,"time":"2022/12/05 17:37:24","addressesInput":["addr1qxn8z6hn93cs4hz9xenz4cc06e9spfvcwcmspujt0le8k6ddk9xwvzkhjkul7dau8kggjvk898s8j0gs3wzshj6ky9gqljy2yn","addr1wy30zf2g4xc7v872fdweewrlj3lh2lgttelmydn0cvhyplsg3vnkq"],"addressesOutput":["addr1qxn8z6hn93cs4hz9xenz4cc06e9spfvcwcmspujt0le8k6ddk9xwvzkhjkul7dau8kggjvk898s8j0gs3wzshj6ky9gqljy2yn","addr1wy30zf2g4xc7v872fdweewrlj3lh2lgttelmydn0cvhyplsg3vnkq"],"fee":817437,"totalOutput":268229210,"tokens":[]},{"hash":"a4ac20df168a4c1bc89859fbda69dd0c8d0c7312109bc63e91cbc3902162f6fb","blockNo":8101441,"blockHash":"9a8825fc2805fa91f6a4b7c1a8ef9d35869ac47123d52367ef01a59b9f58b609","epochNo":379,"epochSlotNo":330753,"slot":78695553,"time":"2022/12/05 17:37:24","addressesInput":["addr1v9k40aafss0s70vfdxfxmgljdacdvthc35lgqanrgf6d3ugp44e33"],"addressesOutput":["addr1v9k40aafss0s70vfdxfxmgljdacdvthc35lgqanrgf6d3ugp44e33"],"fee":206993,"totalOutput":1844697,"tokens":[]},{"hash":"6826eeddca7d65eb731b935eacfd3311bc2a6de0b7a33ad6f93073f5585fdbe3","blockNo":8101441,"blockHash":"9a8825fc2805fa91f6a4b7c1a8ef9d35869ac47123d52367ef01a59b9f58b609","epochNo":379,"epochSlotNo":330753,"slot":78695553,"time":"2022/12/05 17:37:24","addressesInput":["addr1qxfvdjv9dhqxgtfh3yy8nv6cjgf4q8mlyqg2nkgha26j40chuh6napc8rx7ad0r80xqeyr72jvvc4v0vnhw650er9ysqfj5ag9","addr1q8wj0xsvlgyu8eajp76dtun035zj68agr5d7j22rdn92vhshuh6napc8rx7ad0r80xqeyr72jvvc4v0vnhw650er9ysqke4suf","addr1q88gzw9amzl7mzzhh6tu6cf36eakajuez6j5u9wxr67dx4qhuh6napc8rx7ad0r80xqeyr72jvvc4v0vnhw650er9ysqggekm4"],"addressesOutput":["addr1wxaptpmxcxawvr3pzlhgnpmzz3ql43n2tc8mn3av5kx0yzs09tqh8","addr1q88gzw9amzl7mzzhh6tu6cf36eakajuez6j5u9wxr67dx4qhuh6napc8rx7ad0r80xqeyr72jvvc4v0vnhw650er9ysqggekm4","addr1q88gzw9amzl7mzzhh6tu6cf36eakajuez6j5u9wxr67dx4qhuh6napc8rx7ad0r80xqeyr72jvvc4v0vnhw650er9ysqggekm4"],"fee":209633,"totalOutput":205159257,"tokens":[]},{"hash":"326756c75068f4737b2e3991f3f7511501dc8db1ff9fc766b54bd86c878e6029","blockNo":8101441,"blockHash":"9a8825fc2805fa91f6a4b7c1a8ef9d35869ac47123d52367ef01a59b9f58b609","epochNo":379,"epochSlotNo":330753,"slot":78695553,"time":"2022/12/05 17:37:24","addressesInput":["addr1qywpflwxm300406kpnh9xdhmnuxz4hjnyp3k2tsxfeurj75g7r34pt9cacckyh3yenmgh66qw7trqazdyvnyvgsvzazsul5907","addr1zxgx3far7qygq0k6epa0zcvcvrevmn0ypsnfsue94nsn3tvpw288a4x0xf8pxgcntelxmyclq83s0ykeehchz2wtspks905plm"],"addressesOutput":["addr1zxgx3far7qygq0k6epa0zcvcvrevmn0ypsnfsue94nsn3tvpw288a4x0xf8pxgcntelxmyclq83s0ykeehchz2wtspks905plm","addr1qywpflwxm300406kpnh9xdhmnuxz4hjnyp3k2tsxfeurj75g7r34pt9cacckyh3yenmgh66qw7trqazdyvnyvgsvzazsul5907"],"fee":297662,"totalOutput":111332456,"tokens":[]},{"hash":"b4947af4ccfb87e9bf9a535089caa6e55f8ecc8c57dcd3068d837da6d5c649a9","blockNo":8101441,"blockHash":"9a8825fc2805fa91f6a4b7c1a8ef9d35869ac47123d52367ef01a59b9f58b609","epochNo":379,"epochSlotNo":330753,"slot":78695553,"time":"2022/12/05 17:37:24","addressesInput":["addr1qxdsk5r73pweenmkat5uq7pyrdjxwcpttyhtpk5ak3e64vympdg8azzann8hd6hfcpuzgxmyvaszkkfwkrdfmdrn42cq5e5wqp","addr1qxdsk5r73pweenmkat5uq7pyrdjxwcpttyhtpk5ak3e64vympdg8azzann8hd6hfcpuzgxmyvaszkkfwkrdfmdrn42cq5e5wqp"],"addressesOutput":["addr1qxdsk5r73pweenmkat5uq7pyrdjxwcpttyhtpk5ak3e64vympdg8azzann8hd6hfcpuzgxmyvaszkkfwkrdfmdrn42cq5e5wqp","addr1qxdsk5r73pweenmkat5uq7pyrdjxwcpttyhtpk5ak3e64vympdg8azzann8hd6hfcpuzgxmyvaszkkfwkrdfmdrn42cq5e5wqp"],"fee":233854,"totalOutput":60670719,"tokens":[]},{"hash":"34d58ba8d3878a3d68e39cb21232ac9db3e6507740a0357a82f39224ce9f7dcd","blockNo":8101441,"blockHash":"9a8825fc2805fa91f6a4b7c1a8ef9d35869ac47123d52367ef01a59b9f58b609","epochNo":379,"epochSlotNo":330753,"slot":78695553,"time":"2022/12/05 17:37:24","addressesInput":["addr1qx6wpykhft39na83hn4njuuchsnct8kfthqm5286tqczfkhnph6wedyqdflrm7ekw70unuwlfjcaswxk7lxydjfm5ljqal3j25","addr1qym9vqvarjsxx65kgtfrkzgyyk78jhvuck5r0f7algvydu0nph6wedyqdflrm7ekw70unuwlfjcaswxk7lxydjfm5ljqfa45eg"],"addressesOutput":["addr1v85ty4ys4jfzv8vgzfdz4r5s2xmzk37d0p8n0tds33kn4asz4l5pf","addr1qystt0ydu6ypdhccxevh9yj4gj77yrwqmsw28vnhperca00nph6wedyqdflrm7ekw70unuwlfjcaswxk7lxydjfm5ljqlegtas"],"fee":174961,"totalOutput":1442795876,"tokens":[]},{"hash":"8fa3a080c12dd87b1fe70f528733d90fcdcecc085e1aa15bc8bd3ea9db786c69","blockNo":8101441,"blockHash":"9a8825fc2805fa91f6a4b7c1a8ef9d35869ac47123d52367ef01a59b9f58b609","epochNo":379,"epochSlotNo":330753,"slot":78695553,"time":"2022/12/05 17:37:24","addressesInput":["addr1q8kke03739msn08hthmnp44g4nsfryrgw2yquakpxj8576adtpvja2cpvje4t3vtkuym5w7wrwkfashnuhnanjnyuztqaqq0a6","addr1zxgx3far7qygq0k6epa0zcvcvrevmn0ypsnfsue94nsn3tvpw288a4x0xf8pxgcntelxmyclq83s0ykeehchz2wtspks905plm"],"addressesOutput":["addr1q8kke03739msn08hthmnp44g4nsfryrgw2yquakpxj8576adtpvja2cpvje4t3vtkuym5w7wrwkfashnuhnanjnyuztqaqq0a6","addr1q8kke03739msn08hthmnp44g4nsfryrgw2yquakpxj8576adtpvja2cpvje4t3vtkuym5w7wrwkfashnuhnanjnyuztqaqq0a6"],"fee":260873,"totalOutput":254739127,"tokens":[]},{"hash":"faee16b71f5d1309895f5ef683e235fee42a1a96873adf375648c989b43e0063","blockNo":8101441,"blockHash":"9a8825fc2805fa91f6a4b7c1a8ef9d35869ac47123d52367ef01a59b9f58b609","epochNo":379,"epochSlotNo":330753,"slot":78695553,"time":"2022/12/05 17:37:24","addressesInput":["addr1qxm82e5x7n4jjymh8ng4ft7sdaep58hwkmwcf5mmpxdvk9zrpsmlqjr559gwukwdzq88tm85lcsqetpeamxnh0mnvlxs68g3k9","addr1qxm82e5x7n4jjymh8ng4ft7sdaep58hwkmwcf5mmpxdvk9zrpsmlqjr559gwukwdzq88tm85lcsqetpeamxnh0mnvlxs68g3k9","addr1qxm82e5x7n4jjymh8ng4ft7sdaep58hwkmwcf5mmpxdvk9zrpsmlqjr559gwukwdzq88tm85lcsqetpeamxnh0mnvlxs68g3k9"],"addressesOutput":["addr1wxn9efv2f6w82hagxqtn62ju4m293tqvw0uhmdl64ch8uwc0h43gt","addr1qxm82e5x7n4jjymh8ng4ft7sdaep58hwkmwcf5mmpxdvk9zrpsmlqjr559gwukwdzq88tm85lcsqetpeamxnh0mnvlxs68g3k9","addr1qxm82e5x7n4jjymh8ng4ft7sdaep58hwkmwcf5mmpxdvk9zrpsmlqjr559gwukwdzq88tm85lcsqetpeamxnh0mnvlxs68g3k9"],"fee":189877,"totalOutput":589524267,"tokens":[]},{"hash":"4892d5d76bc79e24374bc59250d0a4ed3bf38685ba0c602c656468c95d3583e9","blockNo":8101441,"blockHash":"9a8825fc2805fa91f6a4b7c1a8ef9d35869ac47123d52367ef01a59b9f58b609","epochNo":379,"epochSlotNo":330753,"slot":78695553,"time":"2022/12/05 17:37:24","addressesInput":["addr1q8xsjn534j5heyjpn7xmnt0u2qqx33fdyue9q5k9ppfwnkqe5q83ety544uzes5rg7vch4httdkn9x42fszzqudqhewsuv8plk","addr1q8xsjn534j5heyjpn7xmnt0u2qqx33fdyue9q5k9ppfwnkqe5q83ety544uzes5rg7vch4httdkn9x42fszzqudqhewsuv8plk"],"addressesOutput":["addr1q8xsjn534j5heyjpn7xmnt0u2qqx33fdyue9q5k9ppfwnkqe5q83ety544uzes5rg7vch4httdkn9x42fszzqudqhewsuv8plk","addr1q8xsjn534j5heyjpn7xmnt0u2qqx33fdyue9q5k9ppfwnkqe5q83ety544uzes5rg7vch4httdkn9x42fszzqudqhewsuv8plk","addr1wxwrp3hhg8xdddx7ecg6el2s2dj6h2c5g582yg2yxhupyns8feg4m"],"fee":208357,"totalOutput":502165233,"tokens":[]},{"hash":"e99775a370b2653015054702b791510afb9e73a5e70a6b0bce0538d1cca34fba","blockNo":8101441,"blockHash":"9a8825fc2805fa91f6a4b7c1a8ef9d35869ac47123d52367ef01a59b9f58b609","epochNo":379,"epochSlotNo":330753,"slot":78695553,"time":"2022/12/05 17:37:24","addressesInput":["addr1z8jd97ct35n4s5ss8lt4sq0zclw0dmf7yak8fj46m0jm3d4f9ctj8uafekxwqm62tvg47lu6merf7y3smkm7q56sjl2qtlrh29","addr1qxj33mnt28x9aveq9jaucm0feytpjuzl45jpx7hpt2rh5jdf9ctj8uafekxwqm62tvg47lu6merf7y3smkm7q56sjl2qay4jkx","addr1qxj33mnt28x9aveq9jaucm0feytpjuzl45jpx7hpt2rh5jdf9ctj8uafekxwqm62tvg47lu6merf7y3smkm7q56sjl2qay4jkx","addr1qxmvuk54h6ps9y2up2xrw6fczwsg7f33yhp5ptug3f7a0wdf9ctj8uafekxwqm62tvg47lu6merf7y3smkm7q56sjl2qp6h5l5"],"addressesOutput":["addr1z8jd97ct35n4s5ss8lt4sq0zclw0dmf7yak8fj46m0jm3d4f9ctj8uafekxwqm62tvg47lu6merf7y3smkm7q56sjl2qtlrh29","addr1qxj33mnt28x9aveq9jaucm0feytpjuzl45jpx7hpt2rh5jdf9ctj8uafekxwqm62tvg47lu6merf7y3smkm7q56sjl2qay4jkx"],"fee":460523,"totalOutput":823753813,"tokens":[]},{"hash":"5d9934bb1cf220b66ab8e32cff1c348c11d82a1645b314990c4a5a40ca20b8ba","blockNo":8101441,"blockHash":"9a8825fc2805fa91f6a4b7c1a8ef9d35869ac47123d52367ef01a59b9f58b609","epochNo":379,"epochSlotNo":330753,"slot":78695553,"time":"2022/12/05 17:37:24","addressesInput":["addr1q83t47jltq5w0007cevsnxcwe8f3x6pqpmku46rklexf0x93vtdftl8r64ycfzpl0svnyyl4k0hlsaqsupazcdvss9aqeywzx7"],"addressesOutput":["addr1q9mzwrg3gzp7x67mac83hj2fgufqv8fhvnxvg67gpk87zt0jvdqme5xhzmrzn0cx7ycqzwlfp5v43pk6vukpfycuuzfstf64g9"],"fee":241380,"totalOutput":1198180,"tokens":[]},{"hash":"5e9c52df99f659574d15c88c6e335b81655b437ce7f57fe9a5357c32c5fa15ee","blockNo":8101441,"blockHash":"9a8825fc2805fa91f6a4b7c1a8ef9d35869ac47123d52367ef01a59b9f58b609","epochNo":379,"epochSlotNo":330753,"slot":78695553,"time":"2022/12/05 17:37:24","addressesInput":["addr1v9ywm0h3r8cnxrs04gfy7c3s2j44utjyvn5ldjdca0c2ltccgqdes"],"addressesOutput":["addr1qypdzqh2krfdm0mellc5sm97vkr0m94s08d5yffj543gyrpe8upzrxgl5wjprkram6ajkajsvjp9ms9kgdtx5kye050sf06u9v","addr1q9e7s6zvfn9zvhq5zqvsvva09m48ltr8lt8lfmrn5x6pmcls42cr05gs584g0ux0ykdlvx0c52gym20pd2n5zw8pyqxqxfgf9e"],"fee":198237,"totalOutput":4801763,"tokens":[]},{"hash":"fc0551410340f8fa4fb72816e4b2771ef77d82cd52077603bb6debc6bd9cbae9","blockNo":8101441,"blockHash":"9a8825fc2805fa91f6a4b7c1a8ef9d35869ac47123d52367ef01a59b9f58b609","epochNo":379,"epochSlotNo":330753,"slot":78695553,"time":"2022/12/05 17:37:24","addressesInput":["addr1qyxy8v9d6qksxju9fdmygf455fyf32hnxa2q8wedj7whpyav5sxflz6q7n8ntu592qkaf2xnnwlzg6uc9a0regflky0qqcdv0h","addr1w8q673nyx6vtcules4aqess7e9yuu6geja95xhg90hzy3wqpsjzzz","addr1w92w34pys9h4h02zxdfsp8lhcvdd5t9aaln9z96szsgh73scty4aj"],"addressesOutput":["addr1w92w34pys9h4h02zxdfsp8lhcvdd5t9aaln9z96szsgh73scty4aj","addr1w8q673nyx6vtcules4aqess7e9yuu6geja95xhg90hzy3wqpsjzzz","addr1qyxy8v9d6qksxju9fdmygf455fyf32hnxa2q8wedj7whpyav5sxflz6q7n8ntu592qkaf2xnnwlzg6uc9a0regflky0qqcdv0h"],"fee":469581,"totalOutput":73412385,"tokens":[]},{"hash":"5f15c105896d5fde922ecc1f72cad39c3a34caa34fb1eb2f74fcc2b0d84e2bed","blockNo":8101441,"blockHash":"9a8825fc2805fa91f6a4b7c1a8ef9d35869ac47123d52367ef01a59b9f58b609","epochNo":379,"epochSlotNo":330753,"slot":78695553,"time":"2022/12/05 17:37:24","addressesInput":["DdzFFzCqrhszYVsmfFYkGZ38beGjPVNh2exTd9L2xgfKGeVy1qnJW4HWr3ZFETULuLLYMJ9cPbFw6bfD4Yx9MyemW1zggKftPRk6t1pQ"],"addressesOutput":["addr1qx2rvyyh39unsxf4vvfywqeswpjw2ekxv982jykd03cn0uu5xcgf0zte8qvn2ccjgupnquryu4nvvc2w4yfv6lr3xles5jkhcv","addr1qymvmdxa7lkyqmyd23j6qdq6ng6etymcmvxlzmr0puq5pja532mgd9hwgn3k36ha42em3q7a0ue6huqje8whpuyzezwsx5ptdk","DdzFFzCqrht78EVoeWnhjsZ9QUTQFgteCrt5TEZwtFjqPd8Y9CKMRABTSNmwz6oawwJdtJR9S4fWnRNFmJEyPCm2MdyDundbHFY7Ppbh","DdzFFzCqrhsmxVxg9rZXibG4tSRKSWgkjVUxzukAgqHjBXPgwnkuy9UBmU7VREY2J27LouRhjQbRQ5uNk8g8Yw2tmCq8ja5CYdVwYPFe"],"fee":181121,"totalOutput":31823398551,"tokens":[]},{"hash":"0da094cf433909aa3d24efe45c4a4bd9be2c515c9620bc0b43089a62cbfe5bea","blockNo":8101441,"blockHash":"9a8825fc2805fa91f6a4b7c1a8ef9d35869ac47123d52367ef01a59b9f58b609","epochNo":379,"epochSlotNo":330753,"slot":78695553,"time":"2022/12/05 17:37:24","addressesInput":["addr1v8ed5favus306qk82g7kvrqqx34lpayqeu6an3nzynfzwscjx5tsr","addr1wxn9efv2f6w82hagxqtn62ju4m293tqvw0uhmdl64ch8uwc0h43gt"],"addressesOutput":["addr1v8ed5favus306qk82g7kvrqqx34lpayqeu6an3nzynfzwscjx5tsr","addr1wxn9efv2f6w82hagxqtn62ju4m293tqvw0uhmdl64ch8uwc0h43gt"],"fee":212055,"totalOutput":416870553,"tokens":[]}],"totalItems":56065626,"totalPages":2803282,"currentPage":0}