{"data":[{"txId":28666970,"txHash":"d1507b3cb333d171660d52dbc53b052d153a1fc65c26b38634513fd22221df5d","txTime":"2022/01/26 03:56:40","block":6802342,"epoch":317,"slotNo":51603109,"epochSlotNo":22309,"stakeKey":"stake1u8sctye0gnregyvg8598aj20sfr86dhx0h49xw5mu9h02dst8278z"},{"txId":28666945,"txHash":"ce9495f64e8e478ba3ba18824c3fe7360b201dbda36aecdc56a34320d9b8540d","txTime":"2022/01/26 03:56:14","block":6802341,"epoch":317,"slotNo":51603083,"epochSlotNo":22283,"stakeKey":"stake1u9kyc6s9055pqdnhj74gw4xr4094e8lgtdum0fhhutagktswksc74"},{"txId":28666921,"txHash":"3b3645007cce994b5bf17e175cda8f40dbdba1dd274e59b8ae0ac3bfb1c4713e","txTime":"2022/01/26 03:56:14","block":6802341,"epoch":317,"slotNo":51603083,"epochSlotNo":22283,"stakeKey":"stake1u9le0szn0ka2krv6pctmeg5ukaldu4n26m8wxcnt86ss4lgdl7d75"},{"txId":28666677,"txHash":"5fa5834269a348aa8a5f0b5e261ced13c668e8fe169c67117bed6af3ce1dba64","txTime":"2022/01/26 03:54:09","block":6802335,"epoch":317,"slotNo":51602958,"epochSlotNo":22158,"stakeKey":"stake1uxdenf6all3qru955xupvjkshx2lhlxh5su3kyx42yhppkq5umh09"},{"txId":28666641,"txHash":"dbd8596b6e5d36564b24a74d8db5219f65747d32ae0677926843b4a805742be3","txTime":"2022/01/26 03:53:50","block":6802334,"epoch":317,"slotNo":51602939,"epochSlotNo":22139,"stakeKey":"stake1uyxtp0a9za0psh2p7uzcse4sy60vukvps3wczhyypnddhlghfnue7"},{"txId":28666273,"txHash":"82a54e1c850d4e4d56e55b89e57a40d808be5d0477f7d5a0a083543eebd7e800","txTime":"2022/01/26 03:50:59","block":6802325,"epoch":317,"slotNo":51602768,"epochSlotNo":21968,"stakeKey":"stake1uxarmrp7jq8t53zqxz98ms8f8g7hdkehcpac2eujj7zkwtsdva7z6"},{"txId":28666270,"txHash":"33498bdf26b4ba289c040009ffb712986a90d5f8bfceaf4b1cab2b1c0edb247f","txTime":"2022/01/26 03:50:59","block":6802325,"epoch":317,"slotNo":51602768,"epochSlotNo":21968,"stakeKey":"stake1u8p2jwlpn9e67z07y7d25qtqqr5ptf0qzga33nl0mexaklclkf6un"},{"txId":28666267,"txHash":"9e22b00bba950f7034beacc40dd7369a5ed27f5dc1c4663813949ac894f3f09b","txTime":"2022/01/26 03:50:59","block":6802325,"epoch":317,"slotNo":51602768,"epochSlotNo":21968,"stakeKey":"stake1uxndlypeuzv2uvgc8gvh8ra76e589vhshhazv8afkq8gunqmsyfk7"},{"txId":28666239,"txHash":"142873c368d80b06aeea2ad31dec123378319e78bf0368e09184800655f19ae4","txTime":"2022/01/26 03:50:57","block":6802324,"epoch":317,"slotNo":51602766,"epochSlotNo":21966,"stakeKey":"stake1uxqgtzcgchl68dexvp35vkgspzhyj3823jtanfuxrlyhcrsfn6r8j"},{"txId":28666224,"txHash":"faa426da37d80d9c3abc8ab688c0e8279dcecf6d845f03e815d84f87669b5b43","txTime":"2022/01/26 03:50:57","block":6802324,"epoch":317,"slotNo":51602766,"epochSlotNo":21966,"stakeKey":"stake1u96kgq02wp8xjqze5ux8wfmykkjptllvw6h8p8sn9t9jsespq9r95"},{"txId":28666115,"txHash":"abce8b15eefe6d7188cba455d9b0362e93b1508efc4527ae39b021f3c436d171","txTime":"2022/01/26 03:49:29","block":6802320,"epoch":317,"slotNo":51602678,"epochSlotNo":21878,"stakeKey":"stake1u8v4sezeapgn49yt49gd2z95ewxj8scu5mp55htt3sapn4ctl7mxr"},{"txId":28666042,"txHash":"1420e48a5b8963ec55d582362eed4b9d0966cb1d5d239759aba9d50316e76647","txTime":"2022/01/26 03:49:22","block":6802319,"epoch":317,"slotNo":51602671,"epochSlotNo":21871,"stakeKey":"stake1uywte377zsuwv7dutppe6vmgu89nxndz4fa8tnql20vmkssvxn4rl"},{"txId":28665928,"txHash":"00d947ebc6655a742498605879a0c0efbc673e6336689c9eb9ff9973cfa0de6d","txTime":"2022/01/26 03:47:51","block":6802315,"epoch":317,"slotNo":51602580,"epochSlotNo":21780,"stakeKey":"stake1u986rphvcyut655m2fuk3cyspef20uf6pgmhwhg6tk8f2ycm9epxn"},{"txId":28665902,"txHash":"2abc936c62abd78bdef2ccb9f66ab2001617bea0ccada5c2809ba6e60fc508b8","txTime":"2022/01/26 03:47:51","block":6802315,"epoch":317,"slotNo":51602580,"epochSlotNo":21780,"stakeKey":"stake1uykytk57lmx0ftjfufxydtdxeq3pdqcmpzrp8npgqwjgz7gyc85cf"},{"txId":28665830,"txHash":"6ad6dc289a18fea87acd9f2f83eda6b230f7748bb3f236d5517e414ae3fe6c30","txTime":"2022/01/26 03:46:35","block":6802313,"epoch":317,"slotNo":51602504,"epochSlotNo":21704,"stakeKey":"stake1u9d8k47uyacfgtfenjs87w59t23d3ectfy328smwxnudmzs6n8et9"},{"txId":28665829,"txHash":"630adc40503953fa2ed4ae2f27a032f191d8771ee6678796de117f040cb5079e","txTime":"2022/01/26 03:46:35","block":6802313,"epoch":317,"slotNo":51602504,"epochSlotNo":21704,"stakeKey":"stake1u844xa48kzcqx7k4m95kjgpmgw22qmdgjuq2renaa43c0kqs32jzd"},{"txId":28665828,"txHash":"ae4c09cc8dbebbd02e3f20c651a913f89719b12b8cabeab694db0ffadd41f7c6","txTime":"2022/01/26 03:46:35","block":6802313,"epoch":317,"slotNo":51602504,"epochSlotNo":21704,"stakeKey":"stake1uymdexe2750npnwqac690zrh9czleny5pvvp5mrv4xnah7c3z5hsd"},{"txId":28665827,"txHash":"b560a679be62bffc6c1c80169f43eb670b27abd6dab3433bfd9caf8c4f40a5ba","txTime":"2022/01/26 03:46:35","block":6802313,"epoch":317,"slotNo":51602504,"epochSlotNo":21704,"stakeKey":"stake1uyzz34ffg7pprptjn4ymjj53mv33taadq24ls94zj4q4gnqfhmlaw"},{"txId":28665825,"txHash":"ecef90f91301bdad31f3c9fe8fddad98b437c8fa3455af0d5f82ac59722a2469","txTime":"2022/01/26 03:46:35","block":6802313,"epoch":317,"slotNo":51602504,"epochSlotNo":21704,"stakeKey":"stake1u9zaj5e0ylykacpc43zkg8pjtgt2xjz3paagwv48sumkpfqs28e2d"},{"txId":28665815,"txHash":"84a92bb89f0773554adf6259acad14a9dcbebb07bd72996548f48c7b3ec07349","txTime":"2022/01/26 03:46:14","block":6802312,"epoch":317,"slotNo":51602483,"epochSlotNo":21683,"stakeKey":"stake1u8ufr33f4zjtpvrfumv6wp6tfj3au3qd7j2upldzee46f2qzy0vg8"}],"totalItems":1371159,"totalPages":68558,"currentPage":0}