{"data":[{"hash":"1bd735b4c813a19c25d6c41f5d55dd05a954b037de4c3614542a4b9fdbe8d9f8","blockNo":8233784,"blockHash":"2371cc7255737b4a2ff343c12496e8d29acca1e8f01e8c16c9b21462160ec365","epochNo":386,"epochSlotNo":19590,"slot":81408390,"time":"2023/01/06 03:11:21","addressesInput":["DdzFFzCqrhsfSpSHVswovc6c6MwV4tbcVJawu5XGDk84fDitwiAd9cLZWr5XpzhXDo2xQxg8E8HaGawVPZ95d6qiGrLSdhm6RjcAHWR9","DdzFFzCqrhsjhPzg3GUxszNGT8pmPuWe34P1oeCFDmLZN1CA5gLbeZkjjwGmdM6VpLiaAPKp8HpmUWWsBc5oJWHmzjNLt67eQMt7LTTr","DdzFFzCqrhswVMhcFDHsNK7WoWbUCNE2AGFAuwu1n3WuXyGYqWRRcVtsqzAvn9LVgqHaCrBwnAcm59FhDDWqw2bgsE1hSSSMM1bJzLZE","DdzFFzCqrhswvSgV959mQ6P21rTQ8U5Pc8tCraxizAMhWni6BEEAVex4cL2hWdRPtobA8Y9CjZHenj2VqGe4Zd4qExvz3hvZb72R4Swy","DdzFFzCqrhsg8t9gHHzg7rgennwbL6Xw9G6JHG2nh4dJeuVateFJWKLRCdd6GQHthg6nZSsKCqeNkgr3EuRnZmiGNnfRXrEGtoNxBhHV","DdzFFzCqrhsg8t9gHHzg7rgennwbL6Xw9G6JHG2nh4dJeuVateFJWKLRCdd6GQHthg6nZSsKCqeNkgr3EuRnZmiGNnfRXrEGtoNxBhHV","DdzFFzCqrhseF14JiCBEToV65ZL6SfAYxSa1hBJQ6aqAfGFgSyEPbzNpFgWuPoA64AS2Gsi5kUgfKjWYjxyJwWqb7XgmviwrEC9jYViD","DdzFFzCqrht8EnebW1kggWWiXTjA2Lt8eqPWTCRiy4ce8zpxn12yqmjsAP7oGYUgVX9bkLwBgQDHsay5ymF5i6dgsMytvtfUo2BeVjMJ","DdzFFzCqrhsyfBhHEbgBDPFPVdSva8ZsLtDmWjUwu5g4oN2jVJHLjFrppx4WLQJgwdxds8MohcrUX6nj9BUyBRHKdwWShevdZk2sa7e6","DdzFFzCqrhsrLmynV8bQv1JvcbHBQBEsZcBHRoC3AM5XSoZj9Z35gY1ZQqKrRawRF8S3CLJwGgj6h7UYfhBuFjyUGXk6PsTHBAXxqsx8","DdzFFzCqrht1cSob7Gn3LWYRJ3qFAhug4EiUGE9uiXM3ocjhtCuPFTiXvLYoVMtNmTop4ob8Ti1syhRdRSueb3uCNic23ZyrhHYqp4QC","DdzFFzCqrhswmRUbSk4oRc2gFr83A38zUZ9aSVgDPjVedrKwccE5DviGC2H3w6DZeJpVfK972W9kR3F2k53sUdZqfcmCbUnSRwGWuijz","DdzFFzCqrht6G5Fw8LFX6hbjb49BQkGjEaYDsHFJT94vtKo5nqL5gZiKw81DV3Vbh4sSe3d2yHVmhaWcjE9Khh2T1oW3w57qQHTLL153","DdzFFzCqrhtCc5YzhRtZnK8ZbQHrkwvfQeX6mSDK7U1MHwGB7yusdYiKYiHeQ3jrQtRbFNCBw44wg33QcLhsSNuMDewJZKwPF1jbbgLW","DdzFFzCqrht5zVkrKPpQisPUwT67PdqRrW2oxYCQe3YbiiMwRpSq7BchQFwU6D8J4uRjJsJnyrFq8o25aLgcbg3wqGdm3JQWL4qAWYXQ","DdzFFzCqrhsimHKQit9D4Ra6KtpwwspnT2WYjT8ESuocqQ3dtvCU3hwKn6bDXWzQgXyotrg5mdP3pJuNxC3AgJwYarkbX9s1eX1e3NLt","DdzFFzCqrhtAuyXPbiKzN37Qfjwjc9FBjRTKUa8Smds1VSdgAjdx39zhNu7SRrgch1Pa6bdbEFZ6ApCaf1f1goG7yJPqTtvx8buRfhg5","DdzFFzCqrhsnnTiHDp3hRYQqPY2y6rx8H5ftT8UeTjfbSH2gTvf5yb4Y9pGbhpbbCSVQLmySny19tfL9dWaNWoZA28VFURHdHcLgXfgg","DdzFFzCqrhseF14JiCBEToV65ZL6SfAYxSa1hBJQ6aqAfGFgSyEPbzNpFgWuPoA64AS2Gsi5kUgfKjWYjxyJwWqb7XgmviwrEC9jYViD"],"addressesOutput":["addr1q9atjfpqwdtg7ytz0pz9zcaqvx8zr2uv6ysvc4csqynr683dzefudzxhadht99nh8gv4l3z93d486ygllgxuh2drrrpsdw6fws","DdzFFzCqrhsgt5ycX2WxE1qu5221tmyK1QgCpLkG4BhqtsfPJ8hRhR2XZ4e2RNndUESBAGpcNA8ZQo78LQbDCn56ZH5kqemeuRF3czcq","DdzFFzCqrhsj9ydxKLsrg5Ts7fXJVmVa2x9w4EqqFtNqu82jzrbScmch6vTBrtZBee95VpbmbaKSgdaYpkqgBkGR2NMvLVSDdAfUZ3aE","DdzFFzCqrht8ZxuSit3Eoh8dvjVrM53Q1uVgqeZE7MC2HzVxPSh4iPysYsbjY6tceJtTWP3MxHyUCqFoKJuHRv5hVEpbV51es7fkxRVH","DdzFFzCqrhtCPvMVTKVibk1LCrtw46f9FKVXTmc8URKEBW3pJhnh5dkKDyLEtQJMyf7PbDMHwPN9vm1dBsw2MPvVtjzqWbYVLeA6WpC9"],"fee":1082813,"totalOutput":59369936910,"tokens":[]},{"hash":"40defa993398a674953e246f21551b5790e883bd0257216c593f8e06db20c293","blockNo":8233358,"blockHash":"74d6891fc8cd4a84a12108edc198723d43e5a10208be304bdb876134e5bf5ed2","epochNo":386,"epochSlotNo":10709,"slot":81399509,"time":"2023/01/06 00:43:20","addressesInput":["DdzFFzCqrhstyT8NLgx5kJoTUrB5FDv5rjT5vHaUmHprjtBRMeUcUHJnwBJjLZqnzEirRAQ4THZmWPF6XTvZbtygSthRf1kTGmJfeyjx","DdzFFzCqrhsqqAKcZk5skCMhMJEhxUfa3JCzV2SNYuv6qPYF4nWpNjYbkcGkHx8pN3U2pGBBgZwYsKkif85W5AVAFGEzBUFFeext8tHw","DdzFFzCqrhseUJda7eVzfCncpLp1o1brTpBkgJMKSUugJxau71T394WWDGa9Fxq759qLYaxnUPYs6jQzid9aR7yqtsmHj4jZbhZ74tM3","DdzFFzCqrhsdyXPxZsXxwnT3JTgdaKU1J8H6eHBEeEqaz7UwoaLiynUcthdA9yPrRLEbCqK6cNesuvxorBspZ6dwRiVM6iLF2YVxhH4K","DdzFFzCqrhsqTPsHTL6rMvRhtjEDpKxgQo3zVuo5fshpCwqLEL1Y75XBcNVW2pQt1SH2AMhpfiBV96GzxyBgdNZtky8gkbHUQ16psq9S","DdzFFzCqrht3KfwyULvyuqWkaazEjXKLfqcTcLUYku7asN8wDgEaBTPY1Kuzpcwi5Nhkp88HKrYCHtHa6ySVFj3aseeH7ne7avoTDqpG","DdzFFzCqrhsfHbsREJSCMVhPpKadRe84we4SFk6N2TiAQSeUJxpK9rVSNS8EC1GrWiu5SxEDpkyzKeNf68957g9ygcJybsVRpj3NZzMo","DdzFFzCqrhtC7wrouZwUvWMjrrXo2g6MYr2gkWVdiMxFrs2fNNFc41faTf3g35czv14qpgBjpf2zxFw6Cff7ARxCbKbhExVvwqZjRmoq","DdzFFzCqrht1QUknCVPXYakrCwQzrBoDD9CTixwyETzyjhvZ3JZo6g2TH5GuaZrtAZGNR1Ek4HKD566qoj3csSCBD84dNJtp99Qwdidb","DdzFFzCqrhsjuUaLcoTNAbPn8mRHf5EmKeEazwnhXQgHPkf3eJMbntftVZGCyXFtRnxYuFiheEQxoTPtG4LrNKBPMJfNCjYy7KE8t7SA","DdzFFzCqrhstyT8NLgx5kJoTUrB5FDv5rjT5vHaUmHprjtBRMeUcUHJnwBJjLZqnzEirRAQ4THZmWPF6XTvZbtygSthRf1kTGmJfeyjx","DdzFFzCqrhstyT8NLgx5kJoTUrB5FDv5rjT5vHaUmHprjtBRMeUcUHJnwBJjLZqnzEirRAQ4THZmWPF6XTvZbtygSthRf1kTGmJfeyjx","DdzFFzCqrhszjpbkzpcMz4iLgmWf9698xYQ2hPumYSUNXNFqM3iG7wnFDZxau1aZKYYqktKZc6keD1fLuWkyMATYrji81jg1eguJFmY8"],"addressesOutput":["addr1q9atjfpqwdtg7ytz0pz9zcaqvx8zr2uv6ysvc4csqynr683dzefudzxhadht99nh8gv4l3z93d486ygllgxuh2drrrpsdw6fws","DdzFFzCqrht1cSob7Gn3LWYRJ3qFAhug4EiUGE9uiXM3ocjhtCuPFTiXvLYoVMtNmTop4ob8Ti1syhRdRSueb3uCNic23ZyrhHYqp4QC","DdzFFzCqrhsyfBhHEbgBDPFPVdSva8ZsLtDmWjUwu5g4oN2jVJHLjFrppx4WLQJgwdxds8MohcrUX6nj9BUyBRHKdwWShevdZk2sa7e6","DdzFFzCqrhswVMhcFDHsNK7WoWbUCNE2AGFAuwu1n3WuXyGYqWRRcVtsqzAvn9LVgqHaCrBwnAcm59FhDDWqw2bgsE1hSSSMM1bJzLZE","DdzFFzCqrhswvSgV959mQ6P21rTQ8U5Pc8tCraxizAMhWni6BEEAVex4cL2hWdRPtobA8Y9CjZHenj2VqGe4Zd4qExvz3hvZb72R4Swy"],"fee":1024733,"totalOutput":54168614302,"tokens":[]},{"hash":"788646226f61cef56fe5e680656da7c293150132e1c94c4bb1192fc6791847ce","blockNo":8233159,"blockHash":"037b82ee4c6454f541ec8e33e7cf521f48e9007ec2ba0a771aef721805dbe107","epochNo":386,"epochSlotNo":6841,"slot":81395641,"time":"2023/01/05 23:38:52","addressesInput":["addr1q80ht2he70nat6jr8efrrh7gxl9udkltj7rc4ysvx7vvs0xlwk40nul86h4yx0jjx80usd7tcmd7h9u832fqcduceq7qdz0xej","addr1q80ht2he70nat6jr8efrrh7gxl9udkltj7rc4ysvx7vvs0xlwk40nul86h4yx0jjx80usd7tcmd7h9u832fqcduceq7qdz0xej"],"addressesOutput":["addr1q80ht2he70nat6jr8efrrh7gxl9udkltj7rc4ysvx7vvs0xlwk40nul86h4yx0jjx80usd7tcmd7h9u832fqcduceq7qdz0xej","addr1q80ht2he70nat6jr8efrrh7gxl9udkltj7rc4ysvx7vvs0xlwk40nul86h4yx0jjx80usd7tcmd7h9u832fqcduceq7qdz0xej"],"fee":238161,"totalOutput":3149271398713,"tokens":[]},{"hash":"7dd73c15e2e4306a8529409018f226b3538ab1f2ae2bdaf8c6b0173284f4c619","blockNo":8233154,"blockHash":"35c40c196d70a2e972bb1c3590b4c1b408e9ec11211edf47f67f6e6fb09fa056","epochNo":386,"epochSlotNo":6770,"slot":81395570,"time":"2023/01/05 23:37:41","addressesInput":["addr1qxvfczek4uzgsdd4trqg6qu62r8ms2akfcm78km53hku6jycns9ndtcy3q6m2kxq35pe55x0hq4mvn3hu0dhfr0de4yq577lxc","addr1qxvfczek4uzgsdd4trqg6qu62r8ms2akfcm78km53hku6jycns9ndtcy3q6m2kxq35pe55x0hq4mvn3hu0dhfr0de4yq577lxc"],"addressesOutput":["addr1qxvfczek4uzgsdd4trqg6qu62r8ms2akfcm78km53hku6jycns9ndtcy3q6m2kxq35pe55x0hq4mvn3hu0dhfr0de4yq577lxc","addr1qxvfczek4uzgsdd4trqg6qu62r8ms2akfcm78km53hku6jycns9ndtcy3q6m2kxq35pe55x0hq4mvn3hu0dhfr0de4yq577lxc"],"fee":237985,"totalOutput":2170698748187,"tokens":[]},{"hash":"70db59a40a476f1ae21e86bca805087fc1ddf104175be27238651a67bdd423da","blockNo":8233153,"blockHash":"8025e5dde824fcf7710bbde9bd1408438c0c5617e245b3d86e86b23cd000b9b3","epochNo":386,"epochSlotNo":6768,"slot":81395568,"time":"2023/01/05 23:37:39","addressesInput":["addr1q8wfgyveuxahvqp8w5p9wcrup0nsznrzjq7lwp8773h3wdzhl7knf3ck7750m459y4p0z7eu96czxarp88380m8hrwfsrzw3hq"],"addressesOutput":["addr1q9fa3t9yuurladrftgvr4f4ff5zr7qhvx8k7z7uka8kcy74gwrlwcngm0ssey0ntu30cwa86fdedel255hg3ccrygymq5knl0m","addr1qy7a892p3qy5v4qk6s6uu2pzkhrcx35h3pz6nfg08nwxzpjhl7knf3ck7750m459y4p0z7eu96czxarp88380m8hrwfsvzggwe"],"fee":381453,"totalOutput":35450813,"tokens":[]},{"hash":"d348837689f54499fee55dc7d4fc3c46f613bc77a543b576f88661fe83f0acb5","blockNo":8233077,"blockHash":"ccf10137b9b9046f23d0f23fe9ebb9dfbc889ed78513d1c7dbd682bd4888e21b","epochNo":386,"epochSlotNo":5012,"slot":81393812,"time":"2023/01/05 23:08:23","addressesInput":["DdzFFzCqrhsu2e58ntDrkMm1JFPhXAJxT1j7s1RVB7iiTrb1ARjb3XDnUxGCZq8xDMcSM1VQVsEFtMpg8LV3HRDC4eYZStcWbRRNE8zM","DdzFFzCqrhsgYidDuGLR9qod6DizbSPD1VdDDu7J114EQFgcr1376BG5AGPWzV6rmgptgAmeXQPuqPhR9s59qhkEvV2D1s61MSEXTp1e","DdzFFzCqrhsfHbsREJSCMVhPpKadRe84we4SFk6N2TiAQSeUJxpK9rVSNS8EC1GrWiu5SxEDpkyzKeNf68957g9ygcJybsVRpj3NZzMo","DdzFFzCqrhsg7eMqLNPYDQMMiR8neG21NiBZQY9mhmba7MJMeVnnWR27yf3NgkLRJGmoRZwsrqTAD5wveSvkfx8RQviExF5aJfX14W8L","DdzFFzCqrhtAbLVhUAYUSicYb5kTadWS6jFhosZJY6kpBc1Ki9BhU7vw1nfDFjLDVZ1JuEBWTJB7MrQEQNivSRbNZZuLin8PjBaXqPDn","DdzFFzCqrhsjpZrHJ7eAGcH8B8apruA49zh8uReZpBNJ3GteaAXFcx4h57pwEv3fLETP71XFHFRkKiadE8j2AkGpGtv7kDY1cgwUKDFN","DdzFFzCqrht5L6eUkVT89yrh8yrKSBuWD1PPECtxhxiVruJ9JZt55L7RaXdWY1yYYoAf1zU3TYGPD3YTxfjWSaHUVQdi5xtJgzfWsXD9","DdzFFzCqrhspzF2Da7iVv9y8hpdz7iJVbibtt3s9NLuD6b9vvfSDQaxoByQrArgtcHeBoJ9TerY1re41Y3GRXyjhCBKYZZ8yHPhVGYdD","DdzFFzCqrht1Zik3Yb2hhDyEENU44YanTEp5LVLow6SpnvTNNBejkqFVfdXMPhFhBAiJyU5tcwTyBQz7Rytzc5jofLCqwkx654KTpRhh"],"addressesOutput":["addr1q9atjfpqwdtg7ytz0pz9zcaqvx8zr2uv6ysvc4csqynr683dzefudzxhadht99nh8gv4l3z93d486ygllgxuh2drrrpsdw6fws","DdzFFzCqrhtC7wrouZwUvWMjrrXo2g6MYr2gkWVdiMxFrs2fNNFc41faTf3g35czv14qpgBjpf2zxFw6Cff7ARxCbKbhExVvwqZjRmoq","DdzFFzCqrhsjuUaLcoTNAbPn8mRHf5EmKeEazwnhXQgHPkf3eJMbntftVZGCyXFtRnxYuFiheEQxoTPtG4LrNKBPMJfNCjYy7KE8t7SA","DdzFFzCqrhszjpbkzpcMz4iLgmWf9698xYQ2hPumYSUNXNFqM3iG7wnFDZxau1aZKYYqktKZc6keD1fLuWkyMATYrji81jg1eguJFmY8","DdzFFzCqrht3KfwyULvyuqWkaazEjXKLfqcTcLUYku7asN8wDgEaBTPY1Kuzpcwi5Nhkp88HKrYCHtHa6ySVFj3aseeH7ne7avoTDqpG"],"fee":986013,"totalOutput":62699650797,"tokens":[]},{"hash":"97367156f7a44766e7a25d59adb6c21423201afea9ad9f7934aad8856894fa7d","blockNo":8233025,"blockHash":"6590bb3d9b41cc9b09f625841c012a0b49ecc6010ce319b45688d6b815623e37","epochNo":386,"epochSlotNo":3915,"slot":81392715,"time":"2023/01/05 22:50:06","addressesInput":["addr1q9vj9w32w77p47ca725hantcf5nrzcex66vqq58kqm4l04y6hn99676mvdj6qvd34vfqh3jx6vy8tyfkuy6u3xcghq8sex2gzq","addr1q9vj9w32w77p47ca725hantcf5nrzcex66vqq58kqm4l04y6hn99676mvdj6qvd34vfqh3jx6vy8tyfkuy6u3xcghq8sex2gzq","addr1q9vj9w32w77p47ca725hantcf5nrzcex66vqq58kqm4l04y6hn99676mvdj6qvd34vfqh3jx6vy8tyfkuy6u3xcghq8sex2gzq","addr1q9vj9w32w77p47ca725hantcf5nrzcex66vqq58kqm4l04y6hn99676mvdj6qvd34vfqh3jx6vy8tyfkuy6u3xcghq8sex2gzq","addr1q9vj9w32w77p47ca725hantcf5nrzcex66vqq58kqm4l04y6hn99676mvdj6qvd34vfqh3jx6vy8tyfkuy6u3xcghq8sex2gzq","addr1zxgx3far7qygq0k6epa0zcvcvrevmn0ypsnfsue94nsn3tvpw288a4x0xf8pxgcntelxmyclq83s0ykeehchz2wtspks905plm","addr1q9vj9w32w77p47ca725hantcf5nrzcex66vqq58kqm4l04y6hn99676mvdj6qvd34vfqh3jx6vy8tyfkuy6u3xcghq8sex2gzq"],"addressesOutput":["addr1q9gfxryutr872uzp975wmezyqrnz24ljtthvmkdyztgdg69yxwk6g05khlg5tkwdaeepm0hh2p5e8lhymqac3u99f2wqwa94du","addr1q9cwvremt6n320s2e3agq0jyq82yhrk3htsu0w426xnz5us70z4w0jgvcdkkynmm8wmds66jd9kusnjfpu6raw5fqp0sr07p5w","addr1qxpv89ax9ecadpv8ms8n4utulk44vnw9evu0wffqq7nttvnvk6wstla2mqvfa0xnjxlaxw3eucx3elngh8hh38tjyr6sqp2g04","addr1q9vj9w32w77p47ca725hantcf5nrzcex66vqq58kqm4l04y6hn99676mvdj6qvd34vfqh3jx6vy8tyfkuy6u3xcghq8sex2gzq","addr1q9vj9w32w77p47ca725hantcf5nrzcex66vqq58kqm4l04y6hn99676mvdj6qvd34vfqh3jx6vy8tyfkuy6u3xcghq8sex2gzq","addr1q9vj9w32w77p47ca725hantcf5nrzcex66vqq58kqm4l04y6hn99676mvdj6qvd34vfqh3jx6vy8tyfkuy6u3xcghq8sex2gzq"],"fee":525127,"totalOutput":37040918,"tokens":[]},{"hash":"543fed2834a7ae96bf5535389223968a307e611c0ad5771a0015d5008438622b","blockNo":8232978,"blockHash":"44c4f8be5ddfae5772eec915a10ad5dc3d83848254472c02c3a855ee4b558b24","epochNo":386,"epochSlotNo":2844,"slot":81391644,"time":"2023/01/05 22:32:15","addressesInput":["addr1q9vj9w32w77p47ca725hantcf5nrzcex66vqq58kqm4l04y6hn99676mvdj6qvd34vfqh3jx6vy8tyfkuy6u3xcghq8sex2gzq","addr1q9vj9w32w77p47ca725hantcf5nrzcex66vqq58kqm4l04y6hn99676mvdj6qvd34vfqh3jx6vy8tyfkuy6u3xcghq8sex2gzq","addr1q9vj9w32w77p47ca725hantcf5nrzcex66vqq58kqm4l04y6hn99676mvdj6qvd34vfqh3jx6vy8tyfkuy6u3xcghq8sex2gzq"],"addressesOutput":["addr1wxn9efv2f6w82hagxqtn62ju4m293tqvw0uhmdl64ch8uwc0h43gt","addr1q9vj9w32w77p47ca725hantcf5nrzcex66vqq58kqm4l04y6hn99676mvdj6qvd34vfqh3jx6vy8tyfkuy6u3xcghq8sex2gzq","addr1q9vj9w32w77p47ca725hantcf5nrzcex66vqq58kqm4l04y6hn99676mvdj6qvd34vfqh3jx6vy8tyfkuy6u3xcghq8sex2gzq"],"fee":219093,"totalOutput":12559687,"tokens":[]},{"hash":"60e376467a98178cdd445d221022e8bee50617f0efc46de86c6619ac52d342f4","blockNo":8232668,"blockHash":"092a57f15d2ef6cb2465cc350c104b2c9801feffd87578852d5c66c5aadf7d77","epochNo":385,"epochSlotNo":428428,"slot":81385228,"time":"2023/01/05 20:45:19","addressesInput":["DdzFFzCqrhsfHbsREJSCMVhPpKadRe84we4SFk6N2TiAQSeUJxpK9rVSNS8EC1GrWiu5SxEDpkyzKeNf68957g9ygcJybsVRpj3NZzMo","DdzFFzCqrhseMYA75RrhoErHbyzV5Wn2hk1W2KT7cT9B1yPvEM8Br5RGfMSRWdSGFMsZUBj6FegkqswJuAipG7B6umHJhMew4Tn5pALF","DdzFFzCqrhsoHor9r6659AtQGbEw2S8r9V6cEAi7bEfJGgfPycSRK6qTMR42MmVWRQz4jz7Eb71YDMRQEUT8DaZx6tLDGYTTYZQR7Eno"],"addressesOutput":["addr1q9atjfpqwdtg7ytz0pz9zcaqvx8zr2uv6ysvc4csqynr683dzefudzxhadht99nh8gv4l3z93d486ygllgxuh2drrrpsdw6fws","DdzFFzCqrhtAbLVhUAYUSicYb5kTadWS6jFhosZJY6kpBc1Ki9BhU7vw1nfDFjLDVZ1JuEBWTJB7MrQEQNivSRbNZZuLin8PjBaXqPDn"],"fee":381761,"totalOutput":1099467596,"tokens":[]},{"hash":"f1d9fcca3b0f8e5bfc4ec6fc1f3589c13044b865a606364f0300e8056112ded8","blockNo":8232541,"blockHash":"92e04e1e1f79bde5cdcbf55e56248188625843b47f4ee4ef8f96114f67b3471d","epochNo":385,"epochSlotNo":425614,"slot":81382414,"time":"2023/01/05 19:58:25","addressesInput":["addr1q8kuf3avpeextrrww4tdcy7uppfwelnavekc0fud9ay3wc446kggcrdtugprunrs7zaegfwdw085kn6zfw7fk2wlkxlsevsras","addr1q9nm7nkatp2nhk6nsn46ex0pae8e3n69gtzeka7l8yjns5946kggcrdtugprunrs7zaegfwdw085kn6zfw7fk2wlkxlsm8khzk","addr1q9cv8lj7vpj4zlnknhf2auvvnlg9g5tf6363hwsrdwacta946kggcrdtugprunrs7zaegfwdw085kn6zfw7fk2wlkxlslx8nkf","addr1q8kuf3avpeextrrww4tdcy7uppfwelnavekc0fud9ay3wc446kggcrdtugprunrs7zaegfwdw085kn6zfw7fk2wlkxlsevsras"],"addressesOutput":["addr1qxkq570hkfrz4ty6s5x4kg2s809keyzt6jqy66yes0ktx0cf0tqh54na94ppsygkhd98v9r9vft49k2ddqkju9393nzstfan7f","addr1q9s706k7sts5t5fazf9ynqz4f6h0p4l4tqd9mwkqcxd2sy446kggcrdtugprunrs7zaegfwdw085kn6zfw7fk2wlkxlspuvg42","addr1q9s706k7sts5t5fazf9ynqz4f6h0p4l4tqd9mwkqcxd2sy446kggcrdtugprunrs7zaegfwdw085kn6zfw7fk2wlkxlspuvg42","addr1q9s706k7sts5t5fazf9ynqz4f6h0p4l4tqd9mwkqcxd2sy446kggcrdtugprunrs7zaegfwdw085kn6zfw7fk2wlkxlspuvg42","addr1q9s706k7sts5t5fazf9ynqz4f6h0p4l4tqd9mwkqcxd2sy446kggcrdtugprunrs7zaegfwdw085kn6zfw7fk2wlkxlspuvg42","addr1q9s706k7sts5t5fazf9ynqz4f6h0p4l4tqd9mwkqcxd2sy446kggcrdtugprunrs7zaegfwdw085kn6zfw7fk2wlkxlspuvg42","addr1q9s706k7sts5t5fazf9ynqz4f6h0p4l4tqd9mwkqcxd2sy446kggcrdtugprunrs7zaegfwdw085kn6zfw7fk2wlkxlspuvg42","addr1q9s706k7sts5t5fazf9ynqz4f6h0p4l4tqd9mwkqcxd2sy446kggcrdtugprunrs7zaegfwdw085kn6zfw7fk2wlkxlspuvg42"],"fee":299569,"totalOutput":834187944,"tokens":[]},{"hash":"3171d20367385ecff9bd2588043c2c1961b3cd0a68160f559e1341ab64532cd7","blockNo":8232525,"blockHash":"a49b8cac85c98a4160479c5a16744131945d45017e6dcd09ed241a7cab9b27be","epochNo":385,"epochSlotNo":425280,"slot":81382080,"time":"2023/01/05 19:52:51","addressesInput":["addr1qy0xznhgdhqj9u4g6jjdntf2cxy5lyad8j2p6a6dp8jwwttfq4uncdzu6hqlxn7gva2xsaln40x226fl8fsnqyyvzxtqqm3qw9","addr1qy0xznhgdhqj9u4g6jjdntf2cxy5lyad8j2p6a6dp8jwwttfq4uncdzu6hqlxn7gva2xsaln40x226fl8fsnqyyvzxtqqm3qw9"],"addressesOutput":["addr1zxgx3far7qygq0k6epa0zcvcvrevmn0ypsnfsue94nsn3tvpw288a4x0xf8pxgcntelxmyclq83s0ykeehchz2wtspks905plm","addr1qy0xznhgdhqj9u4g6jjdntf2cxy5lyad8j2p6a6dp8jwwttfq4uncdzu6hqlxn7gva2xsaln40x226fl8fsnqyyvzxtqqm3qw9","addr1qy0xznhgdhqj9u4g6jjdntf2cxy5lyad8j2p6a6dp8jwwttfq4uncdzu6hqlxn7gva2xsaln40x226fl8fsnqyyvzxtqqm3qw9"],"fee":246901,"totalOutput":29901861,"tokens":[]},{"hash":"612abae5679c6c28816572035078c567e5bf9c11d25d4fbac515721c44f11e05","blockNo":8232521,"blockHash":"2d59021ee8263637a548b54d750480d1307dd9444fb3fb4b4dc5415d4dfeb167","epochNo":385,"epochSlotNo":425203,"slot":81382003,"time":"2023/01/05 19:51:34","addressesInput":["addr1qy0xznhgdhqj9u4g6jjdntf2cxy5lyad8j2p6a6dp8jwwttfq4uncdzu6hqlxn7gva2xsaln40x226fl8fsnqyyvzxtqqm3qw9","addr1qy0xznhgdhqj9u4g6jjdntf2cxy5lyad8j2p6a6dp8jwwttfq4uncdzu6hqlxn7gva2xsaln40x226fl8fsnqyyvzxtqqm3qw9"],"addressesOutput":["addr1zxgx3far7qygq0k6epa0zcvcvrevmn0ypsnfsue94nsn3tvpw288a4x0xf8pxgcntelxmyclq83s0ykeehchz2wtspks905plm","addr1qy0xznhgdhqj9u4g6jjdntf2cxy5lyad8j2p6a6dp8jwwttfq4uncdzu6hqlxn7gva2xsaln40x226fl8fsnqyyvzxtqqm3qw9","addr1qy0xznhgdhqj9u4g6jjdntf2cxy5lyad8j2p6a6dp8jwwttfq4uncdzu6hqlxn7gva2xsaln40x226fl8fsnqyyvzxtqqm3qw9"],"fee":247561,"totalOutput":79907252,"tokens":[]},{"hash":"3b2bf69a2d5ff1cd8a7a8b50293c327b0e0e91e2f09229cfea2bce3b057aceac","blockNo":8232519,"blockHash":"69238e442f7ae54e4d155dccb910bd1f78b6f79852776f5d5c75a577f9767790","epochNo":385,"epochSlotNo":425138,"slot":81381938,"time":"2023/01/05 19:50:29","addressesInput":["addr1qy0xznhgdhqj9u4g6jjdntf2cxy5lyad8j2p6a6dp8jwwttfq4uncdzu6hqlxn7gva2xsaln40x226fl8fsnqyyvzxtqqm3qw9","addr1qy0xznhgdhqj9u4g6jjdntf2cxy5lyad8j2p6a6dp8jwwttfq4uncdzu6hqlxn7gva2xsaln40x226fl8fsnqyyvzxtqqm3qw9"],"addressesOutput":["addr1zxgx3far7qygq0k6epa0zcvcvrevmn0ypsnfsue94nsn3tvpw288a4x0xf8pxgcntelxmyclq83s0ykeehchz2wtspks905plm","addr1qy0xznhgdhqj9u4g6jjdntf2cxy5lyad8j2p6a6dp8jwwttfq4uncdzu6hqlxn7gva2xsaln40x226fl8fsnqyyvzxtqqm3qw9","addr1qy0xznhgdhqj9u4g6jjdntf2cxy5lyad8j2p6a6dp8jwwttfq4uncdzu6hqlxn7gva2xsaln40x226fl8fsnqyyvzxtqqm3qw9"],"fee":248221,"totalOutput":81477983,"tokens":[]},{"hash":"bde5ba5df59d3fdeebe82c7242507dee304328a3ddcc8882597ed3c047193ff1","blockNo":8232517,"blockHash":"dfd175da0ae38c2fc1e19e541e68384b19bb3e9dbaf0cddb5f16bd924af75e48","epochNo":385,"epochSlotNo":425046,"slot":81381846,"time":"2023/01/05 19:48:57","addressesInput":["addr1qy0xznhgdhqj9u4g6jjdntf2cxy5lyad8j2p6a6dp8jwwttfq4uncdzu6hqlxn7gva2xsaln40x226fl8fsnqyyvzxtqqm3qw9","addr1qy0xznhgdhqj9u4g6jjdntf2cxy5lyad8j2p6a6dp8jwwttfq4uncdzu6hqlxn7gva2xsaln40x226fl8fsnqyyvzxtqqm3qw9"],"addressesOutput":["addr1zxgx3far7qygq0k6epa0zcvcvrevmn0ypsnfsue94nsn3tvpw288a4x0xf8pxgcntelxmyclq83s0ykeehchz2wtspks905plm","addr1qy0xznhgdhqj9u4g6jjdntf2cxy5lyad8j2p6a6dp8jwwttfq4uncdzu6hqlxn7gva2xsaln40x226fl8fsnqyyvzxtqqm3qw9","addr1qy0xznhgdhqj9u4g6jjdntf2cxy5lyad8j2p6a6dp8jwwttfq4uncdzu6hqlxn7gva2xsaln40x226fl8fsnqyyvzxtqqm3qw9"],"fee":248881,"totalOutput":83049374,"tokens":[]},{"hash":"dc9d9bf75d2def60d53700e42197f011e4a6531fda743c427a7d5d67e539c874","blockNo":8232511,"blockHash":"75da6873c12f192a9a9ba494b5b7987ac1c5c6b06914c7a4ff72d1a3f02275c4","epochNo":385,"epochSlotNo":424980,"slot":81381780,"time":"2023/01/05 19:47:51","addressesInput":["addr1qy0xznhgdhqj9u4g6jjdntf2cxy5lyad8j2p6a6dp8jwwttfq4uncdzu6hqlxn7gva2xsaln40x226fl8fsnqyyvzxtqqm3qw9","addr1qy0xznhgdhqj9u4g6jjdntf2cxy5lyad8j2p6a6dp8jwwttfq4uncdzu6hqlxn7gva2xsaln40x226fl8fsnqyyvzxtqqm3qw9"],"addressesOutput":["addr1zxgx3far7qygq0k6epa0zcvcvrevmn0ypsnfsue94nsn3tvpw288a4x0xf8pxgcntelxmyclq83s0ykeehchz2wtspks905plm","addr1qy0xznhgdhqj9u4g6jjdntf2cxy5lyad8j2p6a6dp8jwwttfq4uncdzu6hqlxn7gva2xsaln40x226fl8fsnqyyvzxtqqm3qw9","addr1qy0xznhgdhqj9u4g6jjdntf2cxy5lyad8j2p6a6dp8jwwttfq4uncdzu6hqlxn7gva2xsaln40x226fl8fsnqyyvzxtqqm3qw9","addr1qy0xznhgdhqj9u4g6jjdntf2cxy5lyad8j2p6a6dp8jwwttfq4uncdzu6hqlxn7gva2xsaln40x226fl8fsnqyyvzxtqqm3qw9"],"fee":279505,"totalOutput":35290592,"tokens":[]},{"hash":"b1d5322ca0609e5a872d63df660671c09c37ed4cb8750be3fd888aa550cfffad","blockNo":8232244,"blockHash":"77535ec51f1932ac28dfba249af6dd624ff5c197cd950c1fbb51fc15f8c2c934","epochNo":385,"epochSlotNo":419973,"slot":81376773,"time":"2023/01/05 18:24:24","addressesInput":["DdzFFzCqrhshwA5ULc3nqpKpyggZqfx9oVJFY8xPHR5H1kuMawDTNMu5DhPsDA4HygKweanjqPXrx2rMTBNmv4Ezi6UwuxdantcFHmS8","DdzFFzCqrht6yca5DWnpifF9VvJNJngUSi2xTPeyN9MDCtVTQ2eiBbDocu9LArZzxpU1W7qsb7TTyAYZvVC6jwpcTFMGzCoQi8hN1cxh","DdzFFzCqrhskott2E6KaV2vuzhQYqaXKaALcZrLiXFPMY3LNXcPpogj8P93pN9Ua9WasXamob7uy8LKCD9b5gR8nE5b58So9Woh8qaBF","DdzFFzCqrht2xtXVEYpUhXNXZ2G9oQujc9GvkdgHVdjFjRS6DfKGu25y3DT1fVnx1EvNVSqhu9ZLCtut7agGjZtnqsJrdKw2k3RzkFU3"],"addressesOutput":["addr1q9atjfpqwdtg7ytz0pz9zcaqvx8zr2uv6ysvc4csqynr683dzefudzxhadht99nh8gv4l3z93d486ygllgxuh2drrrpsdw6fws","DdzFFzCqrhseMYA75RrhoErHbyzV5Wn2hk1W2KT7cT9B1yPvEM8Br5RGfMSRWdSGFMsZUBj6FegkqswJuAipG7B6umHJhMew4Tn5pALF","DdzFFzCqrhsg7eMqLNPYDQMMiR8neG21NiBZQY9mhmba7MJMeVnnWR27yf3NgkLRJGmoRZwsrqTAD5wveSvkfx8RQviExF5aJfX14W8L","DdzFFzCqrht1Zik3Yb2hhDyEENU44YanTEp5LVLow6SpnvTNNBejkqFVfdXMPhFhBAiJyU5tcwTyBQz7Rytzc5jofLCqwkx654KTpRhh","DdzFFzCqrhsjpZrHJ7eAGcH8B8apruA49zh8uReZpBNJ3GteaAXFcx4h57pwEv3fLETP71XFHFRkKiadE8j2AkGpGtv7kDY1cgwUKDFN"],"fee":937613,"totalOutput":54393651558,"tokens":[]},{"hash":"f6ddf9552bdcd344e84c08a87987f24fe2727fad4fa549517a1bfa5611b26653","blockNo":8231635,"blockHash":"a79259964a0b886c8bb7a572431731ee647bd33f700d0e718e3003564ec42200","epochNo":385,"epochSlotNo":407180,"slot":81363980,"time":"2023/01/05 14:51:11","addressesInput":["addr1qxn0kuqk8mysdv8rpqhl39vp6njnxd7dw3yvkcvdk9ke4revmezswc6ql6x9kekl6zm3ptc6g9jlwln9lt6sml5mcl0sndmr62"],"addressesOutput":["addr1zyq0kyrml023kwjk8zr86d5gaxrt5w8lxnah8r6m6s4jp4g3r6dxnzml343sx8jweqn4vn3fz2kj8kgu9czghx0jrsyqqktyhv","addr1qxn0kuqk8mysdv8rpqhl39vp6njnxd7dw3yvkcvdk9ke4revmezswc6ql6x9kekl6zm3ptc6g9jlwln9lt6sml5mcl0sndmr62"],"fee":418850,"totalOutput":41351150,"tokens":[]},{"hash":"4e9ed1020657af6ba5a8611b99d533301e93d5de1bc12c8243dc059dfc9c6531","blockNo":8231374,"blockHash":"a6d8bd8f683700b77927717c2e34ce3f17f66c8c40b2253cf9b03b97bce95df6","epochNo":385,"epochSlotNo":401328,"slot":81358128,"time":"2023/01/05 13:13:39","addressesInput":["DdzFFzCqrhtAC3bBopcTAUHUDgBAAcBH6vgo7tj8Vxsx22LD5KTApvis44sA5yvo5Pn1UoyCgF2LN6ULW1jmULvt79qyjFn19FyHzVmv","DdzFFzCqrhsquaZqLm4u4NRmcXDCjA4cGLzVCbCdmm5wHZuokt18JnVkg6pdE7GB1KsCGWUCPE6cFmhw5ac2Fc1SjdK5Jv9k8vXfbXQK","DdzFFzCqrhshmsy8zVqdszT1iLiyNif6UC3YssVj5W3WbnqBZBBYu33TY4YPobnD4ppEAv1NyVaDUxrU5xVDYhBjtrFXGj5uHWvJiBfJ","DdzFFzCqrht9zH7gKkPtGLtbgE1atxdo98gkSkhAyLvL72EGbWYLTQvh9gNu9yJz7hBXmx1wsS1Lk7hPhyA39xeLST56sEWd3TFjuXM4","DdzFFzCqrhsxccE8iwd2Wzy4L77TmQnEpQJVjR81xBR2CUR5NYJCn2qXqq2rvC3uNpiERdEhXsMEUWGUffEAFLYRtWYnpGoCG1td7tYj","DdzFFzCqrht3oA7dqTymF9P4mvKrBkfByyNFfhY7cbo9Hf34HKmnPuwY8TfvkijTgJU1bW7MsTKzpWR5yCf3FUJg8PfAdWz5WN71EbMj","DdzFFzCqrhsdzK42MpiYLrWq4RcVTktQvBLy44xqqfUNDCQmY5mdyZ4Rrk9mb41wQD84G41uUWBfdgN6cEN692v4xFfKn2UNqejQ5Ur1","DdzFFzCqrhtCx9D2AdR5Pn5ruPJG142bEVYHVnWFQyBpGUynSDJ1n1y3EJfuVF8nuc1Mp9PzR9qLYfQtpfevwsRyMnAx9z6uijUsDkiQ","DdzFFzCqrht6GRNhrBrsFgCirapdJYpuB4c2HfCFhfYC6XmAV2Kerh43hMfdEucRUvEvTBWQtEpR26mJ4G6QgbPFfiftAKbPFywTTJyc","DdzFFzCqrht6QyfH5YhcGGWFzWgWqzuRDRZBRR9eDu9VApW6wZcGKxtMUGyqwzreqtWUbnVghR4XhW9Sa4G1unPrWQu7JiQEa5bei45P","DdzFFzCqrht5YRwWdgrwovMiPE5DBwbfACuApeHYADrviRNbfisvMtUk68bewnbgTuDvjoZacy38rvnn2GTHuZYyhatH5mSg1VUSDkzu","DdzFFzCqrht1d7RMjEamLpNbceUNcdgAKoccDZsP1LELNbCcJPaaBdubdV4Jbtp1P94V5BBS5epoRWoc4gzCipnxBb6wzkMpsznAxTX8","DdzFFzCqrhspk57py4EaHaLb3NvUfFgL9dKGX2mCXoCu8m7eKcep1M7c2BJ6GdtwQ9djEtQkBt3WTojHTp85Jj4iS33amSmuCxT9NpJL","DdzFFzCqrhsvwhCer2iyH4XDzcU5eGAYdpEN7ZgkKfYHZxH1mUHa4aqcaJHnkvCjim1ay2mTWddWxKt4g1MXhv72zQFaXYdyQnSr6GKX","DdzFFzCqrht15ZgxD5pLy3hReUbcPAwsmYxB5JcCsAAAJ94WgbcTrVVnR3KTdcaiMmVv7yfWPa3bQWuWRU8FFoEqpN2PGuZniFWXxjGj","DdzFFzCqrhtD7J6iBCxo9iEuV4M1ESMXjFC2rBYxqQvxMuwpnH8cKK3YqaqzaK421YfgumECcNgezt7wy3kTpm8wmwh3WQhFfW4uiC6P","DdzFFzCqrhsvZuVETmy651chR1XqDsvGuLm2wBo2uA1MRKLHfHS2mMNwEHgxAYfJLTD8JEavU7A4ztm5gfpePAAtschSELqzeuGSocjs","DdzFFzCqrht7Pk3GyKunsoiFKL8oqAX5vCMQFpREughp8TcEX2DaLAxZ5NP4pDfVVCkCnLKZ29LzEMQFHPNGmdXJe4QoaZttPNJu8Ewo","DdzFFzCqrht4VRcgExDpM5ysAqhj2xbRjmCVgxVbwxUHKogEVmCRACjCyK2znKSbxWDCjqM6DB4JtnDCKrFip5YuoNJmbwDEZyQikUX3"],"addressesOutput":["addr1q9atjfpqwdtg7ytz0pz9zcaqvx8zr2uv6ysvc4csqynr683dzefudzxhadht99nh8gv4l3z93d486ygllgxuh2drrrpsdw6fws","DdzFFzCqrhskott2E6KaV2vuzhQYqaXKaALcZrLiXFPMY3LNXcPpogj8P93pN9Ua9WasXamob7uy8LKCD9b5gR8nE5b58So9Woh8qaBF","DdzFFzCqrhshwA5ULc3nqpKpyggZqfx9oVJFY8xPHR5H1kuMawDTNMu5DhPsDA4HygKweanjqPXrx2rMTBNmv4Ezi6UwuxdantcFHmS8","DdzFFzCqrhtCLBeyXFy1dbWUfvWHYyzdQUcG8qZJwkdB57UaNUrgHfti7s29Kgdhzn2tdg6s5rY6RV6hZDRHWCZUTKX7bwTUTTQG1BWw","DdzFFzCqrht3w9w2fkH8REGpXyWok9jDTmBrTtxb4HXgFBxbNiA7xhDVfuBgHN5T3zKjnRWbV412JojBB3ZkyKRaW97GtiPBncK9N3ii"],"fee":1082813,"totalOutput":57121379388,"tokens":[]},{"hash":"00e27e4a00df0acfa3c9cb307662f4444aada3541e3a39c2df495cd93dcf614c","blockNo":8230968,"blockHash":"71ddb4f7b42920030eac8d923fabeee5ff31eacc66cc24c6541856d8f94f5121","epochNo":385,"epochSlotNo":393596,"slot":81350396,"time":"2023/01/05 11:04:47","addressesInput":["addr1qx76hnwx8qukkylx5te0em5gf7kgjqadv6x8z406mpyxz6nn3lmaa3wnh8ka8wxllq5f9kpp6spcwum5vvas6xgvuedsh0rgkp","addr1qx76hnwx8qukkylx5te0em5gf7kgjqadv6x8z406mpyxz6nn3lmaa3wnh8ka8wxllq5f9kpp6spcwum5vvas6xgvuedsh0rgkp","addr1qx76hnwx8qukkylx5te0em5gf7kgjqadv6x8z406mpyxz6nn3lmaa3wnh8ka8wxllq5f9kpp6spcwum5vvas6xgvuedsh0rgkp"],"addressesOutput":["addr1wxn9efv2f6w82hagxqtn62ju4m293tqvw0uhmdl64ch8uwc0h43gt","addr1qx76hnwx8qukkylx5te0em5gf7kgjqadv6x8z406mpyxz6nn3lmaa3wnh8ka8wxllq5f9kpp6spcwum5vvas6xgvuedsh0rgkp","addr1qx76hnwx8qukkylx5te0em5gf7kgjqadv6x8z406mpyxz6nn3lmaa3wnh8ka8wxllq5f9kpp6spcwum5vvas6xgvuedsh0rgkp","addr1qx76hnwx8qukkylx5te0em5gf7kgjqadv6x8z406mpyxz6nn3lmaa3wnh8ka8wxllq5f9kpp6spcwum5vvas6xgvuedsh0rgkp"],"fee":441029,"totalOutput":103741226,"tokens":[]},{"hash":"4f4acd85effa43ecd00b24f8718e13c6af765c961306fea7fc0cf37a0a9cbbe7","blockNo":8230958,"blockHash":"477b474889df62659616949faa5d58840020ae8e42c459bfa31ba8b15d9807de","epochNo":385,"epochSlotNo":393396,"slot":81350196,"time":"2023/01/05 11:01:27","addressesInput":["addr1qx76hnwx8qukkylx5te0em5gf7kgjqadv6x8z406mpyxz6nn3lmaa3wnh8ka8wxllq5f9kpp6spcwum5vvas6xgvuedsh0rgkp","addr1qx76hnwx8qukkylx5te0em5gf7kgjqadv6x8z406mpyxz6nn3lmaa3wnh8ka8wxllq5f9kpp6spcwum5vvas6xgvuedsh0rgkp"],"addressesOutput":["addr1wxn9efv2f6w82hagxqtn62ju4m293tqvw0uhmdl64ch8uwc0h43gt","addr1qx76hnwx8qukkylx5te0em5gf7kgjqadv6x8z406mpyxz6nn3lmaa3wnh8ka8wxllq5f9kpp6spcwum5vvas6xgvuedsh0rgkp","addr1qx76hnwx8qukkylx5te0em5gf7kgjqadv6x8z406mpyxz6nn3lmaa3wnh8ka8wxllq5f9kpp6spcwum5vvas6xgvuedsh0rgkp"],"fee":406621,"totalOutput":104113468,"tokens":[]}],"totalItems":12620,"totalPages":631,"currentPage":0}