{"data":[{"txId":57072645,"txHash":"f3877c35563f76b6ed51b25a8644aad4ef7f4612bbe12495901acab041a2044b","txTime":"2022/12/11 06:35:30","block":8124983,"epoch":380,"slotNo":79174239,"epochSlotNo":377439,"stakeKey":"stake1uyzz0fpupeyjva2rdmkupndehrl7akp7z0vddf0l2puay8ctvu465"},{"txId":57072614,"txHash":"e7531b580a244839b929bd1962c5ac008b612990012c4e6f6c76924299316084","txTime":"2022/12/11 06:34:16","block":8124981,"epoch":380,"slotNo":79174165,"epochSlotNo":377365,"stakeKey":"stake1uxe62n0lel5jjhffmc46hp6c965q9lvw9vhqwwqepewc02qqsz68l"},{"txId":57072580,"txHash":"0784e33a5ee18509bf25a8f827d8d844210d88d9a7266980ce8c50f30b32960e","txTime":"2022/12/11 06:33:07","block":8124977,"epoch":380,"slotNo":79174096,"epochSlotNo":377296,"stakeKey":"stake1uyhngyv6f2k66ys5022pej3kvrqupgsp8zekcpj27rnk6qq9hn6ta"},{"txId":57072175,"txHash":"c43e06ac458df6b8b41cf834a3eacda8597eab21e8cd386b17bd673c85d4bb9a","txTime":"2022/12/11 06:21:36","block":8124945,"epoch":380,"slotNo":79173405,"epochSlotNo":376605,"stakeKey":"stake1uyemyjsyqpenwlwawkdv0cw6jg0ndsyfh0zxrkhc57ctgksrlpz52"},{"txId":57072166,"txHash":"84ea3326bc9223d26bd47953849bd8f888384f0d240b48d92ae429d29d352490","txTime":"2022/12/11 06:21:36","block":8124945,"epoch":380,"slotNo":79173405,"epochSlotNo":376605,"stakeKey":"stake1uxv8pgdjny2x06frp665qtx9puymwx6h9zvnc4h5v2jlw7sufm2pf"},{"txId":57072152,"txHash":"001b381ce70b084fffaee93b75cb47e19c23d56a96dbdb67022a06811f2af141","txTime":"2022/12/11 06:20:23","block":8124944,"epoch":380,"slotNo":79173332,"epochSlotNo":376532,"stakeKey":"stake1u98h7cc068nrwrvh4hrkmddkr3fv2yzf0z7pxhxuatyss0cwd9evd"},{"txId":57072119,"txHash":"2286614785cd3b8450d3e0d8efda82cfb9d9bce398766a27cee650e4d1c1d4f8","txTime":"2022/12/11 06:19:27","block":8124941,"epoch":380,"slotNo":79173276,"epochSlotNo":376476,"stakeKey":"stake1u8gagqk77xkdqd5ztgtj756kp4tzle3tv8jg6qw4098vykcy2v27y"},{"txId":57072106,"txHash":"7b3e0b97fde2c27fbf2adf902625a66bb65aa3a155070900f2d3947de21eea12","txTime":"2022/12/11 06:19:11","block":8124939,"epoch":380,"slotNo":79173260,"epochSlotNo":376460,"stakeKey":"stake1uyhwvq9gpdh8fyqhsph6artyc3m3xgdvhge5xpazcf925fgwvmtl4"},{"txId":57072094,"txHash":"b5095b91ebe77b7d6e17f91b659f2268efd7a668d9dfbab7334485729c9820ac","txTime":"2022/12/11 06:18:36","block":8124937,"epoch":380,"slotNo":79173225,"epochSlotNo":376425,"stakeKey":"stake1uxkplljsk4ggxcg8m8ufsqnpa24yhqdd0vqnd7e0mn5gfpcmu37a4"},{"txId":57072080,"txHash":"2bd68c7d2c8b82d43abc12d5e213b723c28b29208c2f256cb5ee57936a596d1c","txTime":"2022/12/11 06:18:36","block":8124937,"epoch":380,"slotNo":79173225,"epochSlotNo":376425,"stakeKey":"stake1ux4zsgd7e7cydume36253xvlct23zp5cquwjkwta9p24nkc4t9pwu"},{"txId":57072070,"txHash":"f342c238dea583667af325b41765320d2add6ad70ef3a01972b9aa5eae56e71d","txTime":"2022/12/11 06:18:01","block":8124936,"epoch":380,"slotNo":79173190,"epochSlotNo":376390,"stakeKey":"stake1uy96za9af7cckmagkmnws595kgx9q00c9v0wdyvhrl58ydqwaca5j"},{"txId":57072054,"txHash":"0cfc289bb5594d3fdd3d37b0838a0327769dd43f1b0cfd045f207ae70b97d664","txTime":"2022/12/11 06:17:32","block":8124934,"epoch":380,"slotNo":79173161,"epochSlotNo":376361,"stakeKey":"stake1uxl2zmqdjqc29feqc7jz5hqhrs4zex4du88nrcke97zz8pqfufprk"},{"txId":57072036,"txHash":"66a7475512f291a1ff5fdd85ac0fc937d8269a2abc2fe43fd98aa427e501c894","txTime":"2022/12/11 06:17:32","block":8124934,"epoch":380,"slotNo":79173161,"epochSlotNo":376361,"stakeKey":"stake1uyt7mpdydhf7tf7mt0pgswjkqs29evyd0v069s6h7mc3nxs8eqn3a"},{"txId":57072016,"txHash":"af344c4275b209618670c21bda004efe507113da2a478bff69d9047f4f4265af","txTime":"2022/12/11 06:16:33","block":8124933,"epoch":380,"slotNo":79173102,"epochSlotNo":376302,"stakeKey":"stake1uxpecjuplcfy080h75ll3slff4dft5rg2uh2xh0dlhehr8sw20c8w"},{"txId":57071979,"txHash":"89f29e27a9c306f2bc9eb006acf05c47d840ea0972a98e56e15c7fa570667550","txTime":"2022/12/11 06:15:38","block":8124931,"epoch":380,"slotNo":79173047,"epochSlotNo":376247,"stakeKey":"stake1uyrcgwxv5zf2h88294q5atvu5ase0g7wa2lxzz52yy2cczcp03hlz"},{"txId":57071848,"txHash":"df55ba7a9710471f9daa6774d1a754144ffb10b4cc41692023af67287eed0c06","txTime":"2022/12/11 06:11:32","block":8124919,"epoch":380,"slotNo":79172801,"epochSlotNo":376001,"stakeKey":"stake1uxtf6qxc0zdxh6w2ddrktfnkl5dzzaas242n8mkh4x90khggxhyay"},{"txId":57070860,"txHash":"0935a77aa44a3d08808d9e5fa7d38e59fd27d88e843c425b7b40a2af60536c7a","txTime":"2022/12/11 05:43:23","block":8124833,"epoch":380,"slotNo":79171112,"epochSlotNo":374312,"stakeKey":"stake1uygdvgqh2u6vghlq0g3xwv57hxl95dmg62n2tr8grj3phcg6psfyr"},{"txId":57070656,"txHash":"4a364021095eaee5d0135e173118b3bbaa65dbf728d4fd87b842784a1667d94e","txTime":"2022/12/11 05:37:07","block":8124800,"epoch":380,"slotNo":79170736,"epochSlotNo":373936,"stakeKey":"stake1u9hx4ghnfxfs6v4ck0hc46zu088a6j2x2c4uqxmhmkujzwcvl0d5a"},{"txId":57070637,"txHash":"603be6535d1cb76674dcd6dee69d2f2bc96c7c1428d8fffc16d8ad003f976b07","txTime":"2022/12/11 05:37:07","block":8124800,"epoch":380,"slotNo":79170736,"epochSlotNo":373936,"stakeKey":"stake1u9znnt9nmfel336rlz36gegu4q2xqvlqs8lgcrskku0l7jsr4rdwm"},{"txId":57070497,"txHash":"f7fe031192e9295bcc6d3df25171b3fa2280fd561c1a0c7fc305c9c94f7a639d","txTime":"2022/12/11 05:32:56","block":8124791,"epoch":380,"slotNo":79170485,"epochSlotNo":373685,"stakeKey":"stake1uy9pd4tkd60pu6zkvsmxuzhtc8tmjs2mgpj29f4ytmk6q5c8ejt9g"}],"totalItems":1619004,"totalPages":80951,"currentPage":0}