{"data":[{"hash":"232ba5e76ba582f66cccedde539207d86ab5f93c246dcdc233de83118a8a01ca","blockNo":6860405,"blockHash":"d5141d76c2171a552585df13efbd45f0f917f84aeb25658d4bfcd652451798f6","epochNo":319,"epochSlotNo":386434,"slot":52831234,"time":"2022/02/09 09:05:25","addressesInput":["addr1qxdsggepc3v3v8f2dxg328hcu7nppzmwlz5gd99jwekr0rk74nzlt85jav3fmdnq0pzkpcdm5wj0mnzzqv6lcxmw2fmqm2d5qp"],"addressesOutput":["addr1v94tm5xh9uj09s75t7zuvu4ns069hd8kcdx8rfuska9szgsnj6h67","addr1qxdsggepc3v3v8f2dxg328hcu7nppzmwlz5gd99jwekr0rk74nzlt85jav3fmdnq0pzkpcdm5wj0mnzzqv6lcxmw2fmqm2d5qp"],"fee":167085,"totalOutput":492491529,"tokens":[]},{"hash":"c99e410058043a88fbf8764c9901c5e929728b7b200675f047554a92ec1844bd","blockNo":6860405,"blockHash":"d5141d76c2171a552585df13efbd45f0f917f84aeb25658d4bfcd652451798f6","epochNo":319,"epochSlotNo":386434,"slot":52831234,"time":"2022/02/09 09:05:25","addressesInput":["addr1qytgpxtu0uzaqwwk34dfrjv7juwv98lsxk0xdj4lmc5q7ddrmuk0ql7p9vhzkxnf5g7e8x254degx7v2jzhsn6drrgvqlu99nf","addr1qytgpxtu0uzaqwwk34dfrjv7juwv98lsxk0xdj4lmc5q7ddrmuk0ql7p9vhzkxnf5g7e8x254degx7v2jzhsn6drrgvqlu99nf"],"addressesOutput":["addr1qytgpxtu0uzaqwwk34dfrjv7juwv98lsxk0xdj4lmc5q7ddrmuk0ql7p9vhzkxnf5g7e8x254degx7v2jzhsn6drrgvqlu99nf"],"fee":193749,"totalOutput":78492969,"tokens":[]},{"hash":"1f744af72756711e01e87d88c3c44f9a4e025b795736847f95a0c7f38f1e97ef","blockNo":6860405,"blockHash":"d5141d76c2171a552585df13efbd45f0f917f84aeb25658d4bfcd652451798f6","epochNo":319,"epochSlotNo":386434,"slot":52831234,"time":"2022/02/09 09:05:25","addressesInput":["addr1qyt5czmx9rdpc9qgvgmdkf489675337aly973flup6aaqmth2ar86lrtaqs7qqdv7z3ly2ffp5tn87t2ph33xvs93hxsjt4xme"],"addressesOutput":["addr1q9ux27ddrp9y6q5vc0x5fdwhhcwuw4lyxn5ujzydg33cfeq46c9u7ss20ypvv3zzsmlu70v9rxzmunq2xp98rvats5tqmjhlzz"],"fee":165457,"totalOutput":12834543,"tokens":[]},{"hash":"0eff27f9d786fb104762b5275b9dbeb8ab6adf1ff9a7e91f467d7c0d47eb1ab6","blockNo":6860405,"blockHash":"d5141d76c2171a552585df13efbd45f0f917f84aeb25658d4bfcd652451798f6","epochNo":319,"epochSlotNo":386434,"slot":52831234,"time":"2022/02/09 09:05:25","addressesInput":["addr1qytp4dsvgkmg6lnf7tyasvu0a84qux2v7wxew42l3hmdj99u70mnzs62urlxshe5gf8dl8yn6avq9vkah0n9akh025lqgxxnez"],"addressesOutput":["addr1q8n4x7ncuxvrqsnmc9zjs3qsjgpngguhw7388z4wsqrqv3223h3r4sf26sktry6vz726jhenahhu32mgxzt9vc0ksz5sp39tyn","addr1qxp639ta77hdxmpwu7tysfm4s55x4k3f72c47kegsm296tau70mnzs62urlxshe5gf8dl8yn6avq9vkah0n9akh025lqsm0ydh"],"fee":177557,"totalOutput":4925254,"tokens":[]},{"hash":"6ce035c1ca15cf787595c3e1a9e0cf45ab6d01f286d4a444f1f796be41802a5b","blockNo":6860405,"blockHash":"d5141d76c2171a552585df13efbd45f0f917f84aeb25658d4bfcd652451798f6","epochNo":319,"epochSlotNo":386434,"slot":52831234,"time":"2022/02/09 09:05:25","addressesInput":["addr1qxrfrm67smamdztwt652s8x6zme5egspdystq0dxvjnc8vs5fpj8prxphvchql5asrdmvm42y2u9vwanyx88cq256akquydnxy","addr1qxrfrm67smamdztwt652s8x6zme5egspdystq0dxvjnc8vs5fpj8prxphvchql5asrdmvm42y2u9vwanyx88cq256akquydnxy"],"addressesOutput":["addr1wxaptpmxcxawvr3pzlhgnpmzz3ql43n2tc8mn3av5kx0yzs09tqh8","addr1qxrfrm67smamdztwt652s8x6zme5egspdystq0dxvjnc8vs5fpj8prxphvchql5asrdmvm42y2u9vwanyx88cq256akquydnxy"],"fee":210417,"totalOutput":224724321,"tokens":[]},{"hash":"312e0327ee4aa46ee526f35d88cf9ab07140518849fd2172e7fa9ee9942226b1","blockNo":6860405,"blockHash":"d5141d76c2171a552585df13efbd45f0f917f84aeb25658d4bfcd652451798f6","epochNo":319,"epochSlotNo":386434,"slot":52831234,"time":"2022/02/09 09:05:25","addressesInput":["addr1qxlgxes3ezv3dpzfgpg7w70x5sc095099d9yclw0v2gs52ge59qrunjvwg3qdlaus4cuu7svuez9u656vefjll0w05hq0jx26e"],"addressesOutput":["addr1v8gfp4xamvmchqp9qc27nh4ytjmh6uuvhnjzmemdn3dx9agnuq6hd","addr1qxlgxes3ezv3dpzfgpg7w70x5sc095099d9yclw0v2gs52ge59qrunjvwg3qdlaus4cuu7svuez9u656vefjll0w05hq0jx26e"],"fee":167085,"totalOutput":22658614,"tokens":[]},{"hash":"73324eb5ee1e84ac540a3d2cd0a1e562fc9e65e761e8f2a8a2b6390ec5e54f4f","blockNo":6860405,"blockHash":"d5141d76c2171a552585df13efbd45f0f917f84aeb25658d4bfcd652451798f6","epochNo":319,"epochSlotNo":386434,"slot":52831234,"time":"2022/02/09 09:05:25","addressesInput":["addr1q83gcayxy2etj82mqhdswf538es8umqzjaxexexd38h5gpgc580jn77wm78rp3dsf8rrpcsaxrcggptf7ks05ktw02wsjzjuke","addr1q83gcayxy2etj82mqhdswf538es8umqzjaxexexd38h5gpgc580jn77wm78rp3dsf8rrpcsaxrcggptf7ks05ktw02wsjzjuke","addr1q83gcayxy2etj82mqhdswf538es8umqzjaxexexd38h5gpgc580jn77wm78rp3dsf8rrpcsaxrcggptf7ks05ktw02wsjzjuke"],"addressesOutput":["DdzFFzCqrht4XPqt2qZAvbVjQEqr2hQVmqnGAYVMptJDAwUvJMEGKb2RCHVvtLRnjNC8gZJB7Z5JeXj3EKJcMMBL4RWiFHupRVEV7fbs","addr1q83gcayxy2etj82mqhdswf538es8umqzjaxexexd38h5gpgc580jn77wm78rp3dsf8rrpcsaxrcggptf7ks05ktw02wsjzjuke","addr1q83gcayxy2etj82mqhdswf538es8umqzjaxexexd38h5gpgc580jn77wm78rp3dsf8rrpcsaxrcggptf7ks05ktw02wsjzjuke"],"fee":303969,"totalOutput":73401366,"tokens":[]},{"hash":"d73c33cf562c79878ad586a64e8104b095f0dbe817687cd46607c3a338b8373e","blockNo":6860405,"blockHash":"d5141d76c2171a552585df13efbd45f0f917f84aeb25658d4bfcd652451798f6","epochNo":319,"epochSlotNo":386434,"slot":52831234,"time":"2022/02/09 09:05:25","addressesInput":["addr1q8r4rmsscee7r39yjauffhmls57s39pwy5t72vtu2ks2xp9a3rwqtq3xddxjchp2vdd5jnn93k6p8vh0s26g5swqx7qsvrqjth"],"addressesOutput":["addr1q8r4rmsscee7r39yjauffhmls57s39pwy5t72vtu2ks2xp9a3rwqtq3xddxjchp2vdd5jnn93k6p8vh0s26g5swqx7qsvrqjth","addr1q8r4rmsscee7r39yjauffhmls57s39pwy5t72vtu2ks2xp9a3rwqtq3xddxjchp2vdd5jnn93k6p8vh0s26g5swqx7qsvrqjth"],"fee":168317,"totalOutput":116831683,"tokens":[]},{"hash":"dd2754f5520e42ed27de30bfc51ecac6330b1327bc1f09850774aa63fd207ad3","blockNo":6860405,"blockHash":"d5141d76c2171a552585df13efbd45f0f917f84aeb25658d4bfcd652451798f6","epochNo":319,"epochSlotNo":386434,"slot":52831234,"time":"2022/02/09 09:05:25","addressesInput":["addr1q89k6rwtj4dufvnd4nuj3tjpjq4ggxxr8kytek5nr7p8rjgxuc4y056rmr307t3hr9g69tmyawsgv4v77sh6ds72s37qlm4w34"],"addressesOutput":["DdzFFzCqrhsyjUtcioEwAD7kVFTZUsotRo8VsxWw3YwBb8BNgycKXPkBpUvLzgwbN9zepUArb1qEaaM878mx6keiw9ab1K7eL9csW2XR","addr1q89k6rwtj4dufvnd4nuj3tjpjq4ggxxr8kytek5nr7p8rjgxuc4y056rmr307t3hr9g69tmyawsgv4v77sh6ds72s37qlm4w34","addr1q89k6rwtj4dufvnd4nuj3tjpjq4ggxxr8kytek5nr7p8rjgxuc4y056rmr307t3hr9g69tmyawsgv4v77sh6ds72s37qlm4w34"],"fee":184289,"totalOutput":1981072637,"tokens":[]},{"hash":"e5b1c84b604518c94c5d87b7ef5e9dcdefee7339bd29c49f23ceccc049d46d6c","blockNo":6860405,"blockHash":"d5141d76c2171a552585df13efbd45f0f917f84aeb25658d4bfcd652451798f6","epochNo":319,"epochSlotNo":386434,"slot":52831234,"time":"2022/02/09 09:05:25","addressesInput":["addr1q9uau54al32ep29uxsk5xdw4fx6u36vdhplm89gv2jv8mgmxyd6fsawz9uasqtws7agj5vwxjxv7qfxp5aru9gnfjz3s58mjdt","addr1q9uau54al32ep29uxsk5xdw4fx6u36vdhplm89gv2jv8mgmxyd6fsawz9uasqtws7agj5vwxjxv7qfxp5aru9gnfjz3s58mjdt","addr1w9yr0zr530tp9yzrhly8lw5upddu0eym3yh0mjwa0qlr9pgmkzgv0"],"addressesOutput":["addr1q9uau54al32ep29uxsk5xdw4fx6u36vdhplm89gv2jv8mgmxyd6fsawz9uasqtws7agj5vwxjxv7qfxp5aru9gnfjz3s58mjdt","addr1q9uau54al32ep29uxsk5xdw4fx6u36vdhplm89gv2jv8mgmxyd6fsawz9uasqtws7agj5vwxjxv7qfxp5aru9gnfjz3s58mjdt","addr1q9uau54al32ep29uxsk5xdw4fx6u36vdhplm89gv2jv8mgmxyd6fsawz9uasqtws7agj5vwxjxv7qfxp5aru9gnfjz3s58mjdt"],"fee":1140605,"totalOutput":57229746,"tokens":[]},{"hash":"5370bf0d908cffeefbf70c0e8fe523726772dee8da016669ef0a81b71d6d69fb","blockNo":6860405,"blockHash":"d5141d76c2171a552585df13efbd45f0f917f84aeb25658d4bfcd652451798f6","epochNo":319,"epochSlotNo":386434,"slot":52831234,"time":"2022/02/09 09:05:25","addressesInput":["addr1vyx3g7tu83qnfxg6hy8992n8xahelkhpx67peya2jdg94fsckecr0","addr1vy3qpx09uscywhppj5vp08hu0ekg9zwmq2ysfq6qyh2mpps865j6t","addr1vx8r20674ayegdcuyp7sp0jyn0mfgdnelxaz4wu4fz9wwsgvj8pwv","addr1vyp5ayk0822akma8lfajwpmytcdprzk6dlxw60gvf27nt8cge27zt","addr1vx0cd798py6p7z609wfkxhcp0cxwukhax6vxg3xs3gxtw8cxc30hf","addr1vygsm9qsf6gksmsefzen3hsuau7jyslyyk68x6yqh474sagsxl34t","addr1v8pr9mwnqarw808gtllvmlxvk70hnszrukjeqfstr9t9g5crud8c4","addr1vydtn73lzllkey24jv0xqlgwkd2wsex20fgm3q79tl5vvsq62j4rr","addr1v98a9a3ekgx2nsmduzx2gtha9uclt6z2qd9gmcvjjsr7ywcpunfef","addr1v9ww300mnrsq6zcpk8rsgr3287hjz9wrf238gt4j5eq2aegf6yt37","addr1vyp6tshmlkhw37qw90exxxf95c0t2lhx59pg3a8sqd4nsmq5k4r7w","addr1vxuk4scgd0aac7yz9304p46wtrnzef50t86vvanf8nyu3cq36yxdq","addr1vxlhtswjtxjzd4gntqy54mh6ydqtan4kncr7pzp62jcvwgsel7cd4"],"addressesOutput":["addr1vy3qpx09uscywhppj5vp08hu0ekg9zwmq2ysfq6qyh2mpps865j6t","addr1v8pr9mwnqarw808gtllvmlxvk70hnszrukjeqfstr9t9g5crud8c4","addr1qxsqk8nn49ytge9nsupzz3xhwqjp2efzhuml85yj9katgulxn430dduaz5efhgx7kkkyhk0sqtytjgsfmcchmvx5n4xs9c3cvk","addr1vyp6tshmlkhw37qw90exxxf95c0t2lhx59pg3a8sqd4nsmq5k4r7w","addr1vydtn73lzllkey24jv0xqlgwkd2wsex20fgm3q79tl5vvsq62j4rr","addr1v98a9a3ekgx2nsmduzx2gtha9uclt6z2qd9gmcvjjsr7ywcpunfef","addr1vx0cd798py6p7z609wfkxhcp0cxwukhax6vxg3xs3gxtw8cxc30hf","addr1vyx3g7tu83qnfxg6hy8992n8xahelkhpx67peya2jdg94fsckecr0","addr1vyp5ayk0822akma8lfajwpmytcdprzk6dlxw60gvf27nt8cge27zt","addr1vxuk4scgd0aac7yz9304p46wtrnzef50t86vvanf8nyu3cq36yxdq","addr1v9ww300mnrsq6zcpk8rsgr3287hjz9wrf238gt4j5eq2aegf6yt37","addr1vxlhtswjtxjzd4gntqy54mh6ydqtan4kncr7pzp62jcvwgsel7cd4","addr1vygsm9qsf6gksmsefzen3hsuau7jyslyyk68x6yqh474sagsxl34t"],"fee":295873,"totalOutput":5672351449,"tokens":[]},{"hash":"373eea9cdfdeeb080d06b00d8b1652df3926bd03dfe9abbbb1f564cb6eacb530","blockNo":6860405,"blockHash":"d5141d76c2171a552585df13efbd45f0f917f84aeb25658d4bfcd652451798f6","epochNo":319,"epochSlotNo":386434,"slot":52831234,"time":"2022/02/09 09:05:25","addressesInput":["addr1v8g3ws3nwhxlkavul9anjepu9l5asjhg709lmsnulxx9kdcaaurjn","addr1vyvmdaqanttyyclt57fd9ehh9hrwfaf8al40axvsr4yfe8qha05am","addr1v9usc8u3ypzc884jauw2ql9408uwwqsa3dj3eq5kylsquqcx8jlh9","addr1v95rdt42rug5ee367cautkrk7wux4ygey3ev358r47xe0sssshsye","addr1vxnfsfv733myk02hd25h025lhv278t4xfzz4z3hll5ca9ag6jfrsn","addr1v98a9a3ekgx2nsmduzx2gtha9uclt6z2qd9gmcvjjsr7ywcpunfef","addr1vx7m9det66f5utfcjsssllxgqkjanvs8dx3ye8zq28l8u0ccysy0z","addr1vyplfygdk0pmpnv8mvt449xfgu9xzm8rx9jnykxpx3a7p6gs532ye","addr1vxr9f336af4yntz87gtdrrhdj5cxuch5jpk9zljpllezgxgcx6v3r","addr1v9we547xfsgahl2mj8kpkhpwj5nnw80ng9qvcxgwhsp226q8wy930","addr1vy0rzktdrtfeu6urn9w8v4z9faqtjvzectkeuzzl9h0qnpccjp2v5","addr1v8pr9mwnqarw808gtllvmlxvk70hnszrukjeqfstr9t9g5crud8c4","addr1vyp5ayk0822akma8lfajwpmytcdprzk6dlxw60gvf27nt8cge27zt","addr1vx0rklrlp9wjvx5vjy7tmunvgpe2ryyt9wyy5ytyk7k29jc5j0ucq","addr1v9ww300mnrsq6zcpk8rsgr3287hjz9wrf238gt4j5eq2aegf6yt37","addr1vy38ngc02ufxqjkey4srs6pr0yhskrhjdwhrwv7ax4zlzsgayewny","addr1vyl4sfc5ezhmnfw5dqr86rxudmp3n0cqewxvlagru0my28qfzjvqw","addr1vytg0m3ds0thgk7992xjq2aexndm23aghglgc9cfff6gpxg65sv8t","addr1v8el0cpvhtc8lmpyly6ncwd9c426xjxn90lj2ekssnw3urgdgn77l","addr1vxxpm9xmtlh6pzncj2zcphccwnztw6dcnlqz5m3smvj6zxqhz5drf","addr1vy3qpx09uscywhppj5vp08hu0ekg9zwmq2ysfq6qyh2mpps865j6t","addr1vyp6tshmlkhw37qw90exxxf95c0t2lhx59pg3a8sqd4nsmq5k4r7w","addr1v9xfl25m2x57c8g875sv4xe3p6j2tj2sqm27yjj4tt5kk2gme3vmd","addr1v89jryfhl2qaqge9sf6e9m0yqt22sv8d3c6s0pw7ued4ptsehgxht"],"addressesOutput":["addr1vy3qpx09uscywhppj5vp08hu0ekg9zwmq2ysfq6qyh2mpps865j6t","addr1v8pr9mwnqarw808gtllvmlxvk70hnszrukjeqfstr9t9g5crud8c4","addr1q8tz0rxqp80v4efff07zsa7e878906rwmdtxhqpj7hu3pnursa0jkn0paj6k05fyf0nf5eeh9k8ww76m8n7gu9mtwnwq9zes3l","addr1q86ktre0zg5zeh260vlgg94qfu7z7y2am05jds4cylc92harc63zg6zadz4wpys0s44gn6zr323y5apcp4v5ltf6vchsm7mkwv","addr1q8nnwjm3nylpjtumakj98rn4feqxqpvk8v4aqe4eec2fpxfg6rntvt83z3lmh96whp2f8l3mkgrez0ukwstd077xheysqwjpqp","addr1vyp6tshmlkhw37qw90exxxf95c0t2lhx59pg3a8sqd4nsmq5k4r7w","addr1v8el0cpvhtc8lmpyly6ncwd9c426xjxn90lj2ekssnw3urgdgn77l","addr1vxr9f336af4yntz87gtdrrhdj5cxuch5jpk9zljpllezgxgcx6v3r","addr1vyl4sfc5ezhmnfw5dqr86rxudmp3n0cqewxvlagru0my28qfzjvqw","addr1vyvmdaqanttyyclt57fd9ehh9hrwfaf8al40axvsr4yfe8qha05am","addr1vx7m9det66f5utfcjsssllxgqkjanvs8dx3ye8zq28l8u0ccysy0z","addr1v8g3ws3nwhxlkavul9anjepu9l5asjhg709lmsnulxx9kdcaaurjn","addr1v89jryfhl2qaqge9sf6e9m0yqt22sv8d3c6s0pw7ued4ptsehgxht","addr1vy0rzktdrtfeu6urn9w8v4z9faqtjvzectkeuzzl9h0qnpccjp2v5","addr1vx0rklrlp9wjvx5vjy7tmunvgpe2ryyt9wyy5ytyk7k29jc5j0ucq","addr1v98a9a3ekgx2nsmduzx2gtha9uclt6z2qd9gmcvjjsr7ywcpunfef","addr1v9usc8u3ypzc884jauw2ql9408uwwqsa3dj3eq5kylsquqcx8jlh9","addr1v95rdt42rug5ee367cautkrk7wux4ygey3ev358r47xe0sssshsye","addr1vyp5ayk0822akma8lfajwpmytcdprzk6dlxw60gvf27nt8cge27zt","addr1v9ww300mnrsq6zcpk8rsgr3287hjz9wrf238gt4j5eq2aegf6yt37","addr1v9xfl25m2x57c8g875sv4xe3p6j2tj2sqm27yjj4tt5kk2gme3vmd","addr1v9we547xfsgahl2mj8kpkhpwj5nnw80ng9qvcxgwhsp226q8wy930","addr1vxxpm9xmtlh6pzncj2zcphccwnztw6dcnlqz5m3smvj6zxqhz5drf","addr1vxnfsfv733myk02hd25h025lhv278t4xfzz4z3hll5ca9ag6jfrsn"],"fee":430645,"totalOutput":5687371026,"tokens":[]},{"hash":"9fc0ef2f34917f1a2464a3deee0b51487be7dc0774193a52c95155de3d1f0ef8","blockNo":6860405,"blockHash":"d5141d76c2171a552585df13efbd45f0f917f84aeb25658d4bfcd652451798f6","epochNo":319,"epochSlotNo":386434,"slot":52831234,"time":"2022/02/09 09:05:25","addressesInput":["addr1v8hgeevqsprgnu47ssz3yv7m69wdryav966q4p2v863vp8snrxpwl","addr1v89jryfhl2qaqge9sf6e9m0yqt22sv8d3c6s0pw7ued4ptsehgxht","addr1v8el0cpvhtc8lmpyly6ncwd9c426xjxn90lj2ekssnw3urgdgn77l","addr1v8g3ws3nwhxlkavul9anjepu9l5asjhg709lmsnulxx9kdcaaurjn","addr1vx3ks6szalg27sx8ju59wgxegphkdnnadaka7s0lhvq387cfxd4hp","addr1vyl4sfc5ezhmnfw5dqr86rxudmp3n0cqewxvlagru0my28qfzjvqw","addr1vy9fjp8p845pqsyxc5e8da9vf0e36nvp624gt2rpe4j27mscm7572","addr1vyvmdaqanttyyclt57fd9ehh9hrwfaf8al40axvsr4yfe8qha05am","addr1vxwha0vk8f74dzca355qy84d0ccqtdr5r9fzrpg8k2wkhuszs022h","addr1vx0rklrlp9wjvx5vjy7tmunvgpe2ryyt9wyy5ytyk7k29jc5j0ucq","addr1vy3qpx09uscywhppj5vp08hu0ekg9zwmq2ysfq6qyh2mpps865j6t","addr1vy0rzktdrtfeu6urn9w8v4z9faqtjvzectkeuzzl9h0qnpccjp2v5","addr1vyg2xmum5yrd0cr42pswy6zrc5fhdr8cuj55u5y5sg6pzjsnpcn54","addr1vxr9f336af4yntz87gtdrrhdj5cxuch5jpk9zljpllezgxgcx6v3r","addr1v8pr9mwnqarw808gtllvmlxvk70hnszrukjeqfstr9t9g5crud8c4","addr1vx7m9det66f5utfcjsssllxgqkjanvs8dx3ye8zq28l8u0ccysy0z","addr1vyp6tshmlkhw37qw90exxxf95c0t2lhx59pg3a8sqd4nsmq5k4r7w"],"addressesOutput":["addr1vy3qpx09uscywhppj5vp08hu0ekg9zwmq2ysfq6qyh2mpps865j6t","addr1v8pr9mwnqarw808gtllvmlxvk70hnszrukjeqfstr9t9g5crud8c4","addr1qxshg6nk73d7nn3d06nh0w206sffc0zl6520u0nw2yng67tnzsfgrmkdtgq834fuf7u2uyltjrgn8uqc6w0f7n6pxxks0a22yu","addr1qx8rfn7hqrhv3rcmz9ykp87hfw680z9g2ac63ry7wk66dlgemks5jlmekslk7l3jeqnk0v3s6pdx04s0vgewxr40wmnqfmy27d","addr1q9dcstyqvdltq878jv207j7j284ke5an3k73n4ddu2j0e55mwkefrdq2sqff685nvkzta5vsxd2x53p0f6cuqhxjj4ms342xye","addr1vyp6tshmlkhw37qw90exxxf95c0t2lhx59pg3a8sqd4nsmq5k4r7w","addr1v8el0cpvhtc8lmpyly6ncwd9c426xjxn90lj2ekssnw3urgdgn77l","addr1vxr9f336af4yntz87gtdrrhdj5cxuch5jpk9zljpllezgxgcx6v3r","addr1vyl4sfc5ezhmnfw5dqr86rxudmp3n0cqewxvlagru0my28qfzjvqw","addr1vyvmdaqanttyyclt57fd9ehh9hrwfaf8al40axvsr4yfe8qha05am","addr1vx7m9det66f5utfcjsssllxgqkjanvs8dx3ye8zq28l8u0ccysy0z","addr1v8g3ws3nwhxlkavul9anjepu9l5asjhg709lmsnulxx9kdcaaurjn","addr1v89jryfhl2qaqge9sf6e9m0yqt22sv8d3c6s0pw7ued4ptsehgxht","addr1vy0rzktdrtfeu6urn9w8v4z9faqtjvzectkeuzzl9h0qnpccjp2v5","addr1vx0rklrlp9wjvx5vjy7tmunvgpe2ryyt9wyy5ytyk7k29jc5j0ucq","addr1vxwha0vk8f74dzca355qy84d0ccqtdr5r9fzrpg8k2wkhuszs022h","addr1vx3ks6szalg27sx8ju59wgxegphkdnnadaka7s0lhvq387cfxd4hp"],"fee":449829,"totalOutput":5674870635,"tokens":[]},{"hash":"6e7f1c1a8ca1efb1f6c94288039ba534e6f52e3d8f1d501971c3ab8f5ba83cab","blockNo":6860405,"blockHash":"d5141d76c2171a552585df13efbd45f0f917f84aeb25658d4bfcd652451798f6","epochNo":319,"epochSlotNo":386434,"slot":52831234,"time":"2022/02/09 09:05:25","addressesInput":["addr1vy3qpx09uscywhppj5vp08hu0ekg9zwmq2ysfq6qyh2mpps865j6t","addr1v8el0cpvhtc8lmpyly6ncwd9c426xjxn90lj2ekssnw3urgdgn77l","addr1v8g3ws3nwhxlkavul9anjepu9l5asjhg709lmsnulxx9kdcaaurjn","addr1vy7vr2dk4p9xjus2hk2rxar46v2u5v42z0q39u7jrc8rwwcgcmurh","addr1vxr9f336af4yntz87gtdrrhdj5cxuch5jpk9zljpllezgxgcx6v3r","addr1vy0rzktdrtfeu6urn9w8v4z9faqtjvzectkeuzzl9h0qnpccjp2v5","addr1vx5aekqyz93mar8zsh47c6qzqcdg6skqjajqh90hcc73leq55kx9h","addr1vyvmdaqanttyyclt57fd9ehh9hrwfaf8al40axvsr4yfe8qha05am","addr1vx7m9det66f5utfcjsssllxgqkjanvs8dx3ye8zq28l8u0ccysy0z","addr1v89jryfhl2qaqge9sf6e9m0yqt22sv8d3c6s0pw7ued4ptsehgxht","addr1vy97y5934ujgurrz6l8y08nakfej3ke9yd6yrl36gspxwksv73dvs","addr1vyp6tshmlkhw37qw90exxxf95c0t2lhx59pg3a8sqd4nsmq5k4r7w","addr1vyl4sfc5ezhmnfw5dqr86rxudmp3n0cqewxvlagru0my28qfzjvqw","addr1vx0rklrlp9wjvx5vjy7tmunvgpe2ryyt9wyy5ytyk7k29jc5j0ucq","addr1v8pr9mwnqarw808gtllvmlxvk70hnszrukjeqfstr9t9g5crud8c4"],"addressesOutput":["addr1vy3qpx09uscywhppj5vp08hu0ekg9zwmq2ysfq6qyh2mpps865j6t","addr1v8pr9mwnqarw808gtllvmlxvk70hnszrukjeqfstr9t9g5crud8c4","addr1q8c08jjcpxkg2tk4ur5pnq8zlzg2ha0v7cv9qdslzpnr5ru39un9uh9cpgrc9ef4u9k90q48dewmkmdgd6eac9tcqvfqvnduwj","addr1q9ll8zteqzze0p7t50gxf4fvamuntaklgxrr992fs2qf3zjjfw4wecekw9xgl0wlhdqr4rt6h0dx4g8lhjvwvan898yqpxc3u7","addr1q9gdwma3qcux3p92h89zf4j6d9dukwwrtlt00nfjr6kg5ydwadzc0yx6n0lvlvd5cpjlpj24jcn625l3ntxa0q3e7jysgupj2d","addr1vyp6tshmlkhw37qw90exxxf95c0t2lhx59pg3a8sqd4nsmq5k4r7w","addr1v8el0cpvhtc8lmpyly6ncwd9c426xjxn90lj2ekssnw3urgdgn77l","addr1vxr9f336af4yntz87gtdrrhdj5cxuch5jpk9zljpllezgxgcx6v3r","addr1vyl4sfc5ezhmnfw5dqr86rxudmp3n0cqewxvlagru0my28qfzjvqw","addr1vyvmdaqanttyyclt57fd9ehh9hrwfaf8al40axvsr4yfe8qha05am","addr1vx7m9det66f5utfcjsssllxgqkjanvs8dx3ye8zq28l8u0ccysy0z","addr1v8g3ws3nwhxlkavul9anjepu9l5asjhg709lmsnulxx9kdcaaurjn","addr1v89jryfhl2qaqge9sf6e9m0yqt22sv8d3c6s0pw7ued4ptsehgxht","addr1vy0rzktdrtfeu6urn9w8v4z9faqtjvzectkeuzzl9h0qnpccjp2v5","addr1vx0rklrlp9wjvx5vjy7tmunvgpe2ryyt9wyy5ytyk7k29jc5j0ucq"],"fee":439181,"totalOutput":5667009972,"tokens":[]},{"hash":"050031ae908c8f3fce8ad40dc4981dc11479b5ca14f12160c9b828ab34303cb2","blockNo":6860405,"blockHash":"d5141d76c2171a552585df13efbd45f0f917f84aeb25658d4bfcd652451798f6","epochNo":319,"epochSlotNo":386434,"slot":52831234,"time":"2022/02/09 09:05:25","addressesInput":["addr1vypr00ss7hkqejmvh53xkyf0p9q0a4z2uprxmx6njc463vgst3pe4"],"addressesOutput":["Ae2tdPwUPEZGfHs6ySbqRubbyGpacgZRLgjkfjQHbREcuwXhSVA1sRkgiqU","addr1v8v3auqmw0eszza3ww29ea2pwftuqrqqyu26zvzjq9dt2ncydzvs5"],"fee":171221,"totalOutput":2020139306,"tokens":[]},{"hash":"e73863b3e4b150c36a2124d5718495f93ba0e11657c4d3cd727e99dd88c46a0d","blockNo":6860405,"blockHash":"d5141d76c2171a552585df13efbd45f0f917f84aeb25658d4bfcd652451798f6","epochNo":319,"epochSlotNo":386434,"slot":52831234,"time":"2022/02/09 09:05:25","addressesInput":["addr1v9u7va2sktlnz8dp3qadpnxxlv4m03672jy6elmntlxxs7q9nnwl9"],"addressesOutput":["DdzFFzCqrhsrbm4b8sAXD5LcqJgseuNGE7tUdJJAnb8bPtyVF2jXnwrxoF7RZomR4mkscxdZ9B4jPHTUNB8PecEszSiK96iCFo9qT8Uz","addr1v9u7va2sktlnz8dp3qadpnxxlv4m03672jy6elmntlxxs7q9nnwl9"],"fee":171221,"totalOutput":207386337,"tokens":[]},{"hash":"94b0a2f5462e1095de6aaa09d79925310d439ca81133c2b3dd4223309b9f1a25","blockNo":6860405,"blockHash":"d5141d76c2171a552585df13efbd45f0f917f84aeb25658d4bfcd652451798f6","epochNo":319,"epochSlotNo":386434,"slot":52831234,"time":"2022/02/09 09:05:25","addressesInput":["addr1q9jvqlh6up5mmnwmvu7st907ej7776g6sql9rr80lgyecv6x9642r5s9exxtc6fyk5qrp5cct83peu74yn4f4uj9z6wqp4yzv9","addr1q9jvqlh6up5mmnwmvu7st907ej7776g6sql9rr80lgyecv6x9642r5s9exxtc6fyk5qrp5cct83peu74yn4f4uj9z6wqp4yzv9"],"addressesOutput":["addr1wy2mjh76em44qurn5x73nzqrxua7ataasftql0u2h6g88lc3gtgpz","addr1qy9yrva9vnxjd09vvnr7v8z7qzr73vyyd40qhnhz98yk9aq3wj76wr3m5njwkezqp2qzed6cgy40q3ax3yxddm29ygcqez2pvl","addr1q9jvqlh6up5mmnwmvu7st907ej7776g6sql9rr80lgyecv6x9642r5s9exxtc6fyk5qrp5cct83peu74yn4f4uj9z6wqp4yzv9"],"fee":203738,"totalOutput":598092584,"tokens":[]},{"hash":"ec6ae8ed9ddd41d1897c3b8b7a5d612dce5715ba1eeab81fd48360a9776108ee","blockNo":6860405,"blockHash":"d5141d76c2171a552585df13efbd45f0f917f84aeb25658d4bfcd652451798f6","epochNo":319,"epochSlotNo":386434,"slot":52831234,"time":"2022/02/09 09:05:25","addressesInput":["addr1w999n67e86jn6xal07pzxtrmqynspgx0fwmcmpua4wc6yzsxpljz3","addr1q9muxqfqax4q0tejfuwka77hkuglanhqe83srts864heke028ty096s792q8l4xm8cjfm5zazpzg56dv7n54upks9uyq7qelyc"],"addressesOutput":["addr1q9cwvremt6n320s2e3agq0jyq82yhrk3htsu0w426xnz5us70z4w0jgvcdkkynmm8wmds66jd9kusnjfpu6raw5fqp0sr07p5w","addr1q99ne3mt67q2ardhldr27xt45tdmxw3l0dwm50mdctr0vqjgsz4nsx9psfkplklt2lzcyh6tw6fjrt4p2wmg6rd2wssqmzwf28","addr1q963nz0uzw6jkaqdajearlu54pg94rytgjczwhyw43vskg3d4w2e5qqdhpaflvjvw7qagxfu78afdd690kfq5xshsr6ss3z6cz","addr1q9muxqfqax4q0tejfuwka77hkuglanhqe83srts864heke028ty096s792q8l4xm8cjfm5zazpzg56dv7n54upks9uyq7qelyc","addr1q9muxqfqax4q0tejfuwka77hkuglanhqe83srts864heke028ty096s792q8l4xm8cjfm5zazpzg56dv7n54upks9uyq7qelyc"],"fee":1185639,"totalOutput":181751778,"tokens":[]},{"hash":"1323abde16122378fab12479b6831fb61acb40308303634fffb1d1970d76250d","blockNo":6860405,"blockHash":"d5141d76c2171a552585df13efbd45f0f917f84aeb25658d4bfcd652451798f6","epochNo":319,"epochSlotNo":386434,"slot":52831234,"time":"2022/02/09 09:05:25","addressesInput":["addr1qyw9l3qsqhnhvydeehjuu4xxmtqh2ax2lkhau5d8vv9gv3n8s5y6e2tjf8kl9qkdt8tuue4anf0m2hjdnx09x7swdfpqpmjqyl","addr1q9hmgtqszehezzxwrz3hjkhej22ze2tqyee4ggd8r0gxgqn8s5y6e2tjf8kl9qkdt8tuue4anf0m2hjdnx09x7swdfpqqyknf4","addr1q8z4dannkpjvx2nled3gyhh6a5h7u6tu0dutycr3u4r2azr8s5y6e2tjf8kl9qkdt8tuue4anf0m2hjdnx09x7swdfpqwq7da5"],"addressesOutput":["addr1qxwrlfau0y0407xsmnaa5c8ees4yjmmh5wkzzg8k7d6wywak0gzt8ead7zxk4lmxzcjjs7vywpxdwahcc5agh5pp945sh68ulu","addr1qxrky7rqxhhqvdux9pqxcw5z7ls598qwt9jj0qysafl2tylyqgwhpypwqhsylfslwc3lvf3xey28gu079suafqwdqffqw5sv75","addr1qyamjdvxvkta9a97l5l0ndljvk0uhym062z3r9zjn62v55rs6jxls0ngn2qadghy4h7dterk0gzm3y7czmh8zlsfvmeshk0rge","addr1q9hfc3nmfmg00qdsg84vxly6jmxu0e9erfpw9pwqkadxzcurcamxnhjcnueavyg3hrduczjgh9kvh8gfcv0x269270wserrfm7","addr1q9nymtycrm73wk8xrzgjmmjsd5ladvygl3jylx4rvha4uhr8s5y6e2tjf8kl9qkdt8tuue4anf0m2hjdnx09x7swdfpqe7x6y2","addr1q80mla86kaz20nlmkqt7f7t7dhd3sxf8v0j9f44lmlqzfqm8s5y6e2tjf8kl9qkdt8tuue4anf0m2hjdnx09x7swdfpqwfm9dr","addr1qx2n70633xjmdru6fzhvce9lrs43phcdkj9u3kxu9ndtaxr8s5y6e2tjf8kl9qkdt8tuue4anf0m2hjdnx09x7swdfpql5rjl7","addr1qywcm0gwd6hh2ryg9aqysyhace4h93u5yujqa9lfr6qyrfn8s5y6e2tjf8kl9qkdt8tuue4anf0m2hjdnx09x7swdfpq3ug3an"],"fee":199557,"totalOutput":43061764285,"tokens":[]},{"hash":"837daa4a826076a1a212f5605272538c301adaadde44aee05bdfc86fcfcf661e","blockNo":6860405,"blockHash":"d5141d76c2171a552585df13efbd45f0f917f84aeb25658d4bfcd652451798f6","epochNo":319,"epochSlotNo":386434,"slot":52831234,"time":"2022/02/09 09:05:25","addressesInput":["addr1vxltl04shjggafz75fqqcxvwjsnccgwdpw8uglqhtgreuussqfwzk","addr1v9gk9qlj3vx9ze6k889lzeheg8rvf5vff38crwzc2dvvvccwsslka"],"addressesOutput":["addr1vxltl04shjggafz75fqqcxvwjsnccgwdpw8uglqhtgreuussqfwzk","addr1qy8vrlw40lw4etyu40zfga9hrj5szg9g099nqcvh5xtcjzjtlxr6cn3c5x82qn90lv093dne7fhnpmc0cp9c02e0x4asu73ssr","addr1q9yffuktgdduczke6pndxkf0h5ae99mum44drnawc5vc9lprst8a0lxck4nesjzs60jyp824t8ma803593646kq7kpqshwdadf"],"fee":194981,"totalOutput":373705019,"tokens":[]}],"totalItems":30471056,"totalPages":1523553,"currentPage":0}