{"data":[{"blockNo":8068874,"slotNo":78027101,"epochNo":378,"epochSlotNo":94301,"hash":"3ad371829256187fd98862d23d7938bed841347dbdfe16175fc99d9041db7443","time":"2022/11/27 23:56:32","txCount":12,"totalFees":5183436,"totalOutput":64220199007,"slotLeader":"40ff71258d2c73da9e2a5ee3abb9be256e745e7f74c31eb8d4be5299"},{"blockNo":8068873,"slotNo":78027085,"epochNo":378,"epochSlotNo":94285,"hash":"d9a5deb9a6ac54ff0cd8323b9f5ecea6667124712f7edcd57d652602a8953f46","time":"2022/11/27 23:56:16","txCount":2,"totalFees":941554,"totalOutput":4761322010,"slotLeader":"34eb602eb435e3c6a4feb6d766a44735ca09e963f82098973c85951e"},{"blockNo":8068872,"slotNo":78027083,"epochNo":378,"epochSlotNo":94283,"hash":"276b442569aed706acf564167b7beaff065e6ebf46b6b147d70969d48f931d64","time":"2022/11/27 23:56:14","txCount":3,"totalFees":572843,"totalOutput":11608277802,"slotLeader":"2bf5a031b46b34c07937a769ff6f82b6a78a25c71022eaaf1f20eec9"},{"blockNo":8068871,"slotNo":78027080,"epochNo":378,"epochSlotNo":94280,"hash":"83cdedd0c0c155006e8fbbf2b677b0b274b7008f527a304aa36f59163ecab7ac","time":"2022/11/27 23:56:11","txCount":29,"totalFees":6745844,"totalOutput":377555051612,"slotLeader":"fc7c663438fd4b61c5d0c064128467a550fd4e721fe6d5f237f5b416"},{"blockNo":8068870,"slotNo":78027029,"epochNo":378,"epochSlotNo":94229,"hash":"376e0f87d9ebafc5ffe9ff0e43ea4c1d00dac28abba2e337eb071994d9c27092","time":"2022/11/27 23:55:20","txCount":2,"totalFees":865778,"totalOutput":10498889031,"slotLeader":"b49a54a4bca1160af57d6314d4c1110b0c071db47eaaa08b619c4fa1"},{"blockNo":8068869,"slotNo":78027025,"epochNo":378,"epochSlotNo":94225,"hash":"c8b23db230e197c9a62c0b1a3be30225d2a24e265e5fff694a750046cbcee7ff","time":"2022/11/27 23:55:16","txCount":48,"totalFees":13083321,"totalOutput":1743605899864,"slotLeader":"662796197f741c9b9f0d9830530d01300ee5c63f549784ff2ac81c17"},{"blockNo":8068868,"slotNo":78026946,"epochNo":378,"epochSlotNo":94146,"hash":"931692f4148cb6b4a3ae06fe2f20d5d2cd7930284fa2726db200da443faecf54","time":"2022/11/27 23:53:57","txCount":3,"totalFees":1001731,"totalOutput":236898206,"slotLeader":"f018942907ac50ed7f831f14755ad93698188492d09d229655e6ade1"},{"blockNo":8068867,"slotNo":78026943,"epochNo":378,"epochSlotNo":94143,"hash":"6ec878a71efea39d6f0aee93738124cebd1b0847c6203e72f2f665fdd838980a","time":"2022/11/27 23:53:54","txCount":24,"totalFees":7771835,"totalOutput":117227026478,"slotLeader":"09612bc8cf646ded39886839e962d050fb53b81fbe3487eed973554b"},{"blockNo":8068866,"slotNo":78026902,"epochNo":378,"epochSlotNo":94102,"hash":"b3b756f7c86e8527f3b24b04f6ad68648ee2d4eed50762a03885ae19ad831415","time":"2022/11/27 23:53:13","txCount":47,"totalFees":11941827,"totalOutput":342994093683,"slotLeader":"09d372205e474b745eeedd87aa86295cfdef9b85991ad640101756bc"},{"blockNo":8068865,"slotNo":78026820,"epochNo":378,"epochSlotNo":94020,"hash":"b632879e01af3d208a3a9d906106f359a6232fb84d821f20e042283744fedce7","time":"2022/11/27 23:51:51","txCount":5,"totalFees":2610034,"totalOutput":18957570852222,"slotLeader":"72de14d78a359617a7dd0b33c5554ed4edbafd768ece87c4bf672ee0"}],"totalItems":4505,"totalPages":451,"currentPage":0}