{"data":[{"blockNo":6809349,"slotNo":51750324,"epochNo":317,"epochSlotNo":169524,"hash":"dc15d103b296b75d2a588cc4e40fb3c4ff91e9c386f2b8b340410f110491906c","time":"2022/01/27 20:50:15","txCount":28,"totalFees":11559158,"totalOutput":11422226344,"slotLeader":"ae66e56ab11ccb39e882669f220a37956c683e4ce84fefd910012d7a"},{"blockNo":6809348,"slotNo":51750315,"epochNo":317,"epochSlotNo":169515,"hash":"3aae74e756ccd2ec091f8953b62e510ab2e66fb8fff4d53d3bb4948cd51b535a","time":"2022/01/27 20:50:06","txCount":31,"totalFees":11238433,"totalOutput":28895045396,"slotLeader":"9b9890b811d67ba9e69810581e4fc119ca0c2354adb7cd6ff564b0a3"},{"blockNo":6809347,"slotNo":51750283,"epochNo":317,"epochSlotNo":169483,"hash":"6194fd73ca89ab868ef8ca69f309093b11d1791ab22e20d43947bb1d1a8b9ee8","time":"2022/01/27 20:49:34","txCount":29,"totalFees":10603325,"totalOutput":11584080948491,"slotLeader":"48794370608c8d41cf4ad665833da210ad4fed6c6fd40b48bfad9ca8"},{"blockNo":6809346,"slotNo":51750279,"epochNo":317,"epochSlotNo":169479,"hash":"c4e9728b94c2ee857b1d8b552074f09eb1b1bdcf37679f5a7d260070ca955f79","time":"2022/01/27 20:49:30","txCount":42,"totalFees":15582556,"totalOutput":18116518874,"slotLeader":"92229dcf782ce8a82050fdeecb9334cc4d906c6eb66cdbdcea86fb5f"},{"blockNo":6809345,"slotNo":51750224,"epochNo":317,"epochSlotNo":169424,"hash":"2e87b0f3d4af104658f7fe13ed3b0d7aa532b6904b184675f7965c4086d5a314","time":"2022/01/27 20:48:35","txCount":24,"totalFees":11289168,"totalOutput":9711846485,"slotLeader":"ae66e56ab11ccb39e882669f220a37956c683e4ce84fefd910012d7a"},{"blockNo":6809344,"slotNo":51750207,"epochNo":317,"epochSlotNo":169407,"hash":"abb6edca9403f6c62d31f77394e806da7da50b132dc61a2180448495e3104912","time":"2022/01/27 20:48:18","txCount":25,"totalFees":10867624,"totalOutput":8223044846031,"slotLeader":"0001a003afb844ce6d9409fc49e049db654a78dc77f1151cb6cd548f"},{"blockNo":6809343,"slotNo":51750161,"epochNo":317,"epochSlotNo":169361,"hash":"1c0e7d9beb7aa0c5da64188b73a3d6e8d2b38f43c85bb7274242913c5b0efcb1","time":"2022/01/27 20:47:32","txCount":17,"totalFees":9382611,"totalOutput":256883123726,"slotLeader":"f839821b8c95969d853e4b547952b84a3bb20cd96c6b564ddfd95c0b"},{"blockNo":6809342,"slotNo":51750115,"epochNo":317,"epochSlotNo":169315,"hash":"ecf4af5444a59988507025e7d76cb6bedba4700e6257ec10e5c347e3e617b2c6","time":"2022/01/27 20:46:46","txCount":36,"totalFees":11194527,"totalOutput":41247756324,"slotLeader":"8264de3cdb1798dd8758e24cda5101184b44543e7c4421c7815f9ed8"},{"blockNo":6809341,"slotNo":51750110,"epochNo":317,"epochSlotNo":169310,"hash":"d5a0d3f54b1ac8ab1d923325dd0f2eaa7fda334dee067f400aedf7a729e655f0","time":"2022/01/27 20:46:41","txCount":20,"totalFees":9437257,"totalOutput":258459933286,"slotLeader":"f76e3a1104a9d816a67d5826a155c9e2979a839d0d944346d47e33ab"},{"blockNo":6809340,"slotNo":51750105,"epochNo":317,"epochSlotNo":169305,"hash":"10ab82d8fd768d94a3b523835ffedcd8ab4b8c55cf59fb8d7a755eeccfa0dc0b","time":"2022/01/27 20:46:36","txCount":60,"totalFees":15390560,"totalOutput":6833332804410,"slotLeader":"000000f66e28b0f18aef20555f4c4954234e3270dfbbdcc13f54e799"}],"totalItems":8013,"totalPages":802,"currentPage":0}