{"data":[{"txId":61404264,"txHash":"974fbfb9dc40285ce80ddad1ea254a748f2e13c8d1de31f88f2a59056a5c5614","txTime":"2023/02/06 02:51:53","block":8363668,"epoch":392,"slotNo":84085622,"epochSlotNo":104822,"stakeKey":"stake1u9qrscq4rp7fxvtpv38u67lqcn398a66cy5zh3q3c7qpufcknn9u3"},{"txId":61404181,"txHash":"e80a88d506a9e38a438085a26300af9d8f36fe3b4a03239c1af10f51b85d12c7","txTime":"2023/02/06 02:49:52","block":8363662,"epoch":392,"slotNo":84085501,"epochSlotNo":104701,"stakeKey":"stake1uy588r7g7mx5teh0uc5d3f27k40xnnl0ljltz9f2p02qqmslsms2v"},{"txId":61403681,"txHash":"407678ba98df9ace92c20fb9211bc9d22625acc8d1955db895fa5b0fbe540706","txTime":"2023/02/06 02:38:03","block":8363636,"epoch":392,"slotNo":84084792,"epochSlotNo":103992,"stakeKey":"stake1uxa6xcma7m7fvdep0fs8m8tptuc8de6h97ak8ttlpvm349gskfx2n"},{"txId":61403258,"txHash":"db8db16859ec3fdc8790fc04ab992a5dc82e6c2e85958a39e436e6799baf5d05","txTime":"2023/02/06 02:29:21","block":8363604,"epoch":392,"slotNo":84084270,"epochSlotNo":103470,"stakeKey":"stake1uyq4w0536z4t8cr7j70l7usrg77s0ewczxa37mp4jsf5xxck6myvp"},{"txId":61403026,"txHash":"7d095217716ceaf7fe633148b80932dad0837cb4a6f6b520bfb4457e9e5fc0c6","txTime":"2023/02/06 02:24:49","block":8363595,"epoch":392,"slotNo":84083998,"epochSlotNo":103198,"stakeKey":"stake1uym6xfk3gghq5mt6yrsp6s3atludg02ntku4wldearew8qsznvjmy"},{"txId":61402903,"txHash":"9127e14baed7434757493f202e26d0a9a99d6bcfdcb0d3e6ad42f15b6c0e5336","txTime":"2023/02/06 02:22:24","block":8363584,"epoch":392,"slotNo":84083853,"epochSlotNo":103053,"stakeKey":"stake1uye2kzejhd8u2f7cglkpr6a4l072828m7uyued4uj4cdm8gv8kn7q"},{"txId":61402730,"txHash":"33a738567b5d72fc2ed26e687712b681f95d514c2cad5b52d31fdb2fa5e3190a","txTime":"2023/02/06 02:18:46","block":8363572,"epoch":392,"slotNo":84083635,"epochSlotNo":102835,"stakeKey":"stake1u9rf79yqdamqqqpd8vdwyzjwkkhvhcgnjnxn3ajxnt333acztut69"},{"txId":61402686,"txHash":"6567ff3c07d954ac4675af423d441a82a0d768252ed766826b6f1978870b7bc8","txTime":"2023/02/06 02:18:32","block":8363571,"epoch":392,"slotNo":84083621,"epochSlotNo":102821,"stakeKey":"stake1u8nkvnz7vl0ap90n54gemmuk7277sm2fqxhcsdsr8nwujgcmulpya"},{"txId":61402670,"txHash":"117361d1568eb60e232f856d6d70db85be5851ecbd0db1f2a42de7327b7349f2","txTime":"2023/02/06 02:16:52","block":8363570,"epoch":392,"slotNo":84083521,"epochSlotNo":102721,"stakeKey":"stake1u87cs2xhq2kj568ncydjrpqnglegy7t7mm9jrmn3pe2qvksssgu9r"},{"txId":61402594,"txHash":"a6d07ab2f37966714327efe3586f1f3ccd468af9c41d4cd66637db2fc74cb174","txTime":"2023/02/06 02:15:07","block":8363564,"epoch":392,"slotNo":84083416,"epochSlotNo":102616,"stakeKey":"stake1uxqsk04pt8t4cecawgfq78mcpqhpyrh32uujxmgqynyehlqp6j0hx"},{"txId":61402590,"txHash":"39177c0104e712f234c2f31aa4158a3a3837516dd23a9013d271f31c54f9f22b","txTime":"2023/02/06 02:15:07","block":8363564,"epoch":392,"slotNo":84083416,"epochSlotNo":102616,"stakeKey":"stake1uxd26zzxql8t75u48uzhncmgrkzym5genp4qqn9xyf5x45cf4slaa"},{"txId":61402531,"txHash":"87447dc5910bf6a09554e98826ebc51d93ed1eddaf588acd1864d90f046c86db","txTime":"2023/02/06 02:13:41","block":8363556,"epoch":392,"slotNo":84083330,"epochSlotNo":102530,"stakeKey":"stake1ux90lw2dawfd6xyx5zvy4548ct4yaj70nlt89dj3fa7kltc74526h"},{"txId":61402067,"txHash":"289a43e7db11af86e1bbc7223738826ff84dff1a7792bc612c42d9254a4094e8","txTime":"2023/02/06 02:05:00","block":8363526,"epoch":392,"slotNo":84082809,"epochSlotNo":102009,"stakeKey":"stake1u8qls9nkpr9xauv7jwptjctwtk2h45fc5zfhe7eqj27yzvckh6ljh"},{"txId":61401796,"txHash":"e5950478f3df322da7926b1fb65f21ed15932c36d1de09cab9e0247470c77e5e","txTime":"2023/02/06 01:59:23","block":8363507,"epoch":392,"slotNo":84082472,"epochSlotNo":101672,"stakeKey":"stake1uxdh66m0ma3qk6fpcpvlpzh23ccnqmry35zpuj3kerp4glqu7zedm"},{"txId":61401575,"txHash":"74dc8e08f5eb0ba8a678540c607545b82f18f94c5c9c7d3d2a4f7c9edffb4edf","txTime":"2023/02/06 01:54:57","block":8363495,"epoch":392,"slotNo":84082206,"epochSlotNo":101406,"stakeKey":"stake1u8hs4tt4z2wsg7926grgnnfzvctd6uzd27zk9fmlv70r4dgnn83zj"},{"txId":61400962,"txHash":"d4f28d4bf1672e025a9f7d7eab7039b0ff51091bbac8d24a15bc8c9673b4d263","txTime":"2023/02/06 01:42:36","block":8363463,"epoch":392,"slotNo":84081465,"epochSlotNo":100665,"stakeKey":"stake1uytvuwf3uvsl9hat8lqt05kk6p4wktq8zst77as48k0zd7s3utzsj"},{"txId":61400944,"txHash":"c41b5b9e57dd71d7678bc0eaa0026b9139167ac25b3d9f9124d61f059a6066f0","txTime":"2023/02/06 01:42:03","block":8363462,"epoch":392,"slotNo":84081432,"epochSlotNo":100632,"stakeKey":"stake1u9zfyxchyvp39e2w57c2npfapwckl9afa8x3a37kwg6xqucsss64h"},{"txId":61400774,"txHash":"dbdd93fa2f67584f898b36b294bb59fa5595d30cdb67ec00f97be0c911dffa04","txTime":"2023/02/06 01:38:20","block":8363450,"epoch":392,"slotNo":84081209,"epochSlotNo":100409,"stakeKey":"stake1uxaf2gppu45ycduflsksavjzv9gflw5j4uranay8l6x4uqc4kpnyg"},{"txId":61400703,"txHash":"82bf0dfab3839e5cbc1fae77d4ca143cd7b05a4abef98e50153cb98a965d2eda","txTime":"2023/02/06 01:38:02","block":8363448,"epoch":392,"slotNo":84081191,"epochSlotNo":100391,"stakeKey":"stake1uxlf7qcakq83xqrcjdmzyw6lz4cdn0njnjs6uxty60z673q9yqeh3"},{"txId":61400273,"txHash":"0825b9c505562229ee93b6130b0e0545a266fc7bee531c2996c9e97e85306c00","txTime":"2023/02/06 01:28:43","block":8363427,"epoch":392,"slotNo":84080632,"epochSlotNo":99832,"stakeKey":"stake1u9n209tgtckf5x7juvnujdr94amxzartl2gp3jpg7dl6dsqn8g58k"}],"totalItems":1659175,"totalPages":82959,"currentPage":0}