{"data":[{"blockNo":8096431,"slotNo":78592171,"epochNo":379,"epochSlotNo":227371,"hash":"5da881cdfe1cabb01fe1f4ab7b315ef0e146455cfce746b9071d11aa13779c77","time":"2022/12/04 12:54:22","txCount":4,"totalFees":910550,"totalOutput":621092943,"slotLeader":"699c814b5a0f3bf2d35b9b0adcfed9fa0fe891881a9ad3c15e2edf73"},{"blockNo":8096430,"slotNo":78592160,"epochNo":379,"epochSlotNo":227360,"hash":"8b3d7e2be3a7ae289141b9d7ace68805d864cc52acd5fd15b15e97c153a91247","time":"2022/12/04 12:54:11","txCount":26,"totalFees":7003551,"totalOutput":476527859376,"slotLeader":"3200ed8ab323773d4d1a64333a0d79b93dc8f3a45c37f88141e34317"},{"blockNo":8096429,"slotNo":78592119,"epochNo":379,"epochSlotNo":227319,"hash":"acd2b6ef602ac2faf9742f0fcd350ddbf70d542400e76d917ec1a5be39e92615","time":"2022/12/04 12:53:30","txCount":25,"totalFees":9604442,"totalOutput":135396794025,"slotLeader":"53215c471b7ac752e3ddf8f2c4c1e6ed111857bfaa675d5e31ce8bce"},{"blockNo":8096428,"slotNo":78592070,"epochNo":379,"epochSlotNo":227270,"hash":"831b6920c8ea33591d8b565810f3ba8ab1a343f5b5f0d259c16a758bc1f8bd92","time":"2022/12/04 12:52:41","txCount":33,"totalFees":9902951,"totalOutput":335370917811,"slotLeader":"e455088c9164ae075f0300bc1a7234c30433556c6b88d4301a06cfe5"},{"blockNo":8096427,"slotNo":78592012,"epochNo":379,"epochSlotNo":227212,"hash":"5248dd7a5c573d1157a45eda730180ab4c537e3b72e563bab9789b738ce635b9","time":"2022/12/04 12:51:43","txCount":5,"totalFees":1132960,"totalOutput":260182018,"slotLeader":"3d2294baebe5bbeaa920af59e8461068582bb6c17522bbc7308e8567"},{"blockNo":8096426,"slotNo":78592003,"epochNo":379,"epochSlotNo":227203,"hash":"6c6b16af7a247d85d7ceb1c4a9b20ec30e903ec047c6d6f2dcef7b87525b92b2","time":"2022/12/04 12:51:34","txCount":1,"totalFees":296840,"totalOutput":33656780,"slotLeader":"cf2b0acb72eecb56a05ba6b79922d4b47fedfb93b168a2eb1e5fa260"},{"blockNo":8096425,"slotNo":78591996,"epochNo":379,"epochSlotNo":227196,"hash":"46509c3c848a0acd69a87dab0e7dee0c1c4149be58bc60e1249b070021c90c6e","time":"2022/12/04 12:51:27","txCount":8,"totalFees":3622496,"totalOutput":19676860414464,"slotLeader":"b40683f4baad755ff60f26dc73c3e371ac4c5e422feef2fc1f5f29bf"},{"blockNo":8096424,"slotNo":78591983,"epochNo":379,"epochSlotNo":227183,"hash":"28b98328758ade527a19242237e8ee87bcabe87c26cf623da2a043036d1a413b","time":"2022/12/04 12:51:14","txCount":7,"totalFees":2223354,"totalOutput":70167825447,"slotLeader":"a9807616077f17a66dc12c562bfc8dbc1a0b9ad1c96591fd56ffafb5"},{"blockNo":8096423,"slotNo":78591977,"epochNo":379,"epochSlotNo":227177,"hash":"34e840768eb2e7c2bdda0bfa6dfc8196d5d1dc3f896cee85935b3f4503dbcafd","time":"2022/12/04 12:51:08","txCount":3,"totalFees":2089427,"totalOutput":117946826,"slotLeader":"07c30535c3781afef83200ebee872e4abe0aa8cc7c448ccd68730bb8"},{"blockNo":8096422,"slotNo":78591972,"epochNo":379,"epochSlotNo":227172,"hash":"d49b4da279be7aa91e07a2493b6bbfcd15ce36b58126ca461826ea310c05897f","time":"2022/12/04 12:51:03","txCount":7,"totalFees":3553058,"totalOutput":188756181234,"slotLeader":"00beef0a9be2f6d897ed24a613cf547bb20cd282a04edfc53d477114"},{"blockNo":8096421,"slotNo":78591961,"epochNo":379,"epochSlotNo":227161,"hash":"a7bff23c0c5ca6db712fac3205180e98ba88c9398ebafb63fe6de40bd1ae7590","time":"2022/12/04 12:50:52","txCount":4,"totalFees":1779538,"totalOutput":3249359573,"slotLeader":"d4a3b639d0f0b050cbfc25dad467af58355f31edbc4959db1cc59051"},{"blockNo":8096420,"slotNo":78591959,"epochNo":379,"epochSlotNo":227159,"hash":"af2edba82c634f6a56adb35e64659411a6f182594858c0ff51164630866218ff","time":"2022/12/04 12:50:50","txCount":49,"totalFees":14443316,"totalOutput":1734365733122,"slotLeader":"903c38e5905f1587d5ecf8c875a181725fb4b12b3eb06ce1d20bb1c6"},{"blockNo":8096419,"slotNo":78591860,"epochNo":379,"epochSlotNo":227060,"hash":"a8160f4081dbacef8287377d00e10bc839320cfd408a251bcf7849744bb7c1bc","time":"2022/12/04 12:49:11","txCount":22,"totalFees":7407180,"totalOutput":2869186589409,"slotLeader":"71efddeabf5dd8211853a5ed30548391ccb54fa3b55e5828db9afee6"},{"blockNo":8096418,"slotNo":78591819,"epochNo":379,"epochSlotNo":227019,"hash":"602879c31f2034e95b255a4a783794fbd6febd0b54a3f58a5c13006790dc6825","time":"2022/12/04 12:48:30","txCount":9,"totalFees":3387397,"totalOutput":14453050931,"slotLeader":"e0ac9f1b68d0621a4e6723f369a50e81f27916acb7cd42bc03eaac93"},{"blockNo":8096417,"slotNo":78591809,"epochNo":379,"epochSlotNo":227009,"hash":"40fe1a7cc3dbf6f0ea1c57df14a3bcada218b03369619d5081a52fdf00c4e2be","time":"2022/12/04 12:48:20","txCount":44,"totalFees":14699575,"totalOutput":5516072158034,"slotLeader":"936f24e391afc0738c816ae1f1388957b977de3d0e065dc9ba38af8d"},{"blockNo":8096416,"slotNo":78591713,"epochNo":379,"epochSlotNo":226913,"hash":"a93c22c8feb80a7dec09e32d3affda9e0067c17b656765cedd19c7c4b91605d0","time":"2022/12/04 12:46:44","txCount":45,"totalFees":12161851,"totalOutput":113822728598,"slotLeader":"2e65f9aa580a28d0df07dd2773c09da9604c40127b158919da9db85d"},{"blockNo":8096415,"slotNo":78591666,"epochNo":379,"epochSlotNo":226866,"hash":"b4f9d6d981cd859b8bdcbc350a5fa0c72c9ba7f4f33a58c087bd4cc82fc90bd6","time":"2022/12/04 12:45:57","txCount":6,"totalFees":1589718,"totalOutput":375581737672,"slotLeader":"2fc479904f9482d1b573977a3af26bb5577545014521eee513f54ef1"},{"blockNo":8096414,"slotNo":78591659,"epochNo":379,"epochSlotNo":226859,"hash":"f32f4803ea977c347cd6f115f7a04a4885cb0338ac1cf90728e4d2b7ba4f528a","time":"2022/12/04 12:45:50","txCount":1,"totalFees":811204,"totalOutput":17924872565937,"slotLeader":"636fab1b0059766eb08c3bd089e71a949db856bb845e3bff31fad5ad"},{"blockNo":8096413,"slotNo":78591658,"epochNo":379,"epochSlotNo":226858,"hash":"318e246de4b389b50090d2657d927eb7d229cf44fb908145f4268fda808d6aa9","time":"2022/12/04 12:45:49","txCount":20,"totalFees":7987054,"totalOutput":130210800366,"slotLeader":"032cd96779710e1bdc766de1896277896be4d3b9aa86d4caccd22c8b"},{"blockNo":8096412,"slotNo":78591631,"epochNo":379,"epochSlotNo":226831,"hash":"2e05c49048423d9a7d902ef86b321a0439489ab4a2ae7a7fa9e27955d1ac72e0","time":"2022/12/04 12:45:22","txCount":15,"totalFees":3355960,"totalOutput":18889956416969,"slotLeader":"94864d27407c1dd0569e4acb9c7fa6ec2cc19a6193d9171f2d811232"}],"totalItems":8096607,"totalPages":404831,"currentPage":0}