{"data":[{"hash":"4d0d82c37a075bccfc7b5bb410506ba9044ad7fc12deba5163b8c9374d1d0874","blockNo":8924001,"blockHash":"fd171890bbd8894c0c3409fbce79f5ff34f5dbfb34d6ca7e9d12d1688a9f347b","epochNo":418,"epochSlotNo":398440,"slot":95611240,"time":"2023/06/19 12:25:31","addressesInput":["addr1vxzq9lq33a5j65ajxlcrqyg9uqv3lwu7shlemc0qx0qtejqn4vx0w","addr1vxzq9lq33a5j65ajxlcrqyg9uqv3lwu7shlemc0qx0qtejqn4vx0w","addr1wyd8cezjr0gcf8nfxuc9trd4hs7ec520jmkwkqzywx6l5jg0al0ya"],"addressesOutput":["addr1wyd8cezjr0gcf8nfxuc9trd4hs7ec520jmkwkqzywx6l5jg0al0ya","addr1vxzq9lq33a5j65ajxlcrqyg9uqv3lwu7shlemc0qx0qtejqn4vx0w","addr1vxzq9lq33a5j65ajxlcrqyg9uqv3lwu7shlemc0qx0qtejqn4vx0w"],"fee":210637,"totalOutput":10911767,"tokens":[]},{"hash":"7173af13bf4c6a1f57d66564371c408abb238768c6b604d41d380c7f55774d10","blockNo":8924001,"blockHash":"fd171890bbd8894c0c3409fbce79f5ff34f5dbfb34d6ca7e9d12d1688a9f347b","epochNo":418,"epochSlotNo":398440,"slot":95611240,"time":"2023/06/19 12:25:31","addressesInput":["addr1zxgx3far7qygq0k6epa0zcvcvrevmn0ypsnfsue94nsn3tvpw288a4x0xf8pxgcntelxmyclq83s0ykeehchz2wtspks905plm","addr1q8aje42y59ydpw78pjvx8c6ysgjwa9wrmd5elpj0343stcstfpclap4p9s23mqnd5wy5dztps0wn9v78k5a7kz5wkhtqa6s9h0","addr1q8aje42y59ydpw78pjvx8c6ysgjwa9wrmd5elpj0343stcstfpclap4p9s23mqnd5wy5dztps0wn9v78k5a7kz5wkhtqa6s9h0","addr1q8aje42y59ydpw78pjvx8c6ysgjwa9wrmd5elpj0343stcstfpclap4p9s23mqnd5wy5dztps0wn9v78k5a7kz5wkhtqa6s9h0"],"addressesOutput":["addr1qyzfjm8v8jjzn6nek0r3q6p8z033yglhna8h5l7hac4p040s4zz0a2a0gx033mvavs7uylfueakjqn76zlfmvra7hrtq53zjzs","addr1q9cwvremt6n320s2e3agq0jyq82yhrk3htsu0w426xnz5us70z4w0jgvcdkkynmm8wmds66jd9kusnjfpu6raw5fqp0sr07p5w","addr1q9zrcx2yge0q6vhgtp05uh8wkyaehnjng73edam4pds8eel99vtz78sfxmkqk5jn4lz3pm44dgmgvaj9uqrk630r0w6qufy5gl","addr1q8aje42y59ydpw78pjvx8c6ysgjwa9wrmd5elpj0343stcstfpclap4p9s23mqnd5wy5dztps0wn9v78k5a7kz5wkhtqa6s9h0","addr1q8aje42y59ydpw78pjvx8c6ysgjwa9wrmd5elpj0343stcstfpclap4p9s23mqnd5wy5dztps0wn9v78k5a7kz5wkhtqa6s9h0","addr1q8aje42y59ydpw78pjvx8c6ysgjwa9wrmd5elpj0343stcstfpclap4p9s23mqnd5wy5dztps0wn9v78k5a7kz5wkhtqa6s9h0","addr1q8aje42y59ydpw78pjvx8c6ysgjwa9wrmd5elpj0343stcstfpclap4p9s23mqnd5wy5dztps0wn9v78k5a7kz5wkhtqa6s9h0","addr1q8aje42y59ydpw78pjvx8c6ysgjwa9wrmd5elpj0343stcstfpclap4p9s23mqnd5wy5dztps0wn9v78k5a7kz5wkhtqa6s9h0","addr1q8aje42y59ydpw78pjvx8c6ysgjwa9wrmd5elpj0343stcstfpclap4p9s23mqnd5wy5dztps0wn9v78k5a7kz5wkhtqa6s9h0","addr1q8aje42y59ydpw78pjvx8c6ysgjwa9wrmd5elpj0343stcstfpclap4p9s23mqnd5wy5dztps0wn9v78k5a7kz5wkhtqa6s9h0","addr1q8aje42y59ydpw78pjvx8c6ysgjwa9wrmd5elpj0343stcstfpclap4p9s23mqnd5wy5dztps0wn9v78k5a7kz5wkhtqa6s9h0"],"fee":496541,"totalOutput":8788460607,"tokens":[]},{"hash":"a392c9203a33f7b5f8be9a318d1eacd57fec4e58863a82804eba95af6bc0a3b1","blockNo":8924001,"blockHash":"fd171890bbd8894c0c3409fbce79f5ff34f5dbfb34d6ca7e9d12d1688a9f347b","epochNo":418,"epochSlotNo":398440,"slot":95611240,"time":"2023/06/19 12:25:31","addressesInput":["addr1qx5wxfr9cv8arqee4ps3aa0c5wzw6d433ckrjq4gwpuncwxdakt8hax5jfknymuv86u4h5spm6zd3req78gxgufyjrys802qm7","addr1q9368t0zdn5z625gkkdvpeldjt3dfdmhsckpd47p7twlak7dakt8hax5jfknymuv86u4h5spm6zd3req78gxgufyjrysyfs4fs"],"addressesOutput":["addr1qyhg2enxe357dqdrcqgmh5zqvq9cqrc723dcsj09pfy9a3pm4qtqj29j2eymn393wgszmfcza83pzult2nera7ff7wusys5krp","addr1qx5wxfr9cv8arqee4ps3aa0c5wzw6d433ckrjq4gwpuncwxdakt8hax5jfknymuv86u4h5spm6zd3req78gxgufyjrys802qm7"],"fee":176853,"totalOutput":106652032,"tokens":[]},{"hash":"b7ad1fa72d15a998fc489eddd33ef60893c8d6d1e7393bccaf70987d8fee7307","blockNo":8924001,"blockHash":"fd171890bbd8894c0c3409fbce79f5ff34f5dbfb34d6ca7e9d12d1688a9f347b","epochNo":418,"epochSlotNo":398440,"slot":95611240,"time":"2023/06/19 12:25:31","addressesInput":["addr1qygu4nmt35ra4wccw5vfvatvegd70mgtz3x60ug9uxpqe3njsurkwh2zzu7lud6dr2jkh3sx9vhww0kwn8nfz3d9u0msylkazm"],"addressesOutput":["addr1qygu4nmt35ra4wccw5vfvatvegd70mgtz3x60ug9uxpqe3njsurkwh2zzu7lud6dr2jkh3sx9vhww0kwn8nfz3d9u0msylkazm","addr1wxuk2z6g2gq5m2rr9ruhyq3f5mnxpffmcpnqypxtazxtc3sq24p4k","addr1qyauurrth3v0t5yv2zlgl5qy2y7ejun909v2j0ckcwcdjkkyu9eg5hc9gszdsttcnxw023qc2gzkg5kt8gznw56ur03sr3xpd9","addr1qygu4nmt35ra4wccw5vfvatvegd70mgtz3x60ug9uxpqe3njsurkwh2zzu7lud6dr2jkh3sx9vhww0kwn8nfz3d9u0msylkazm"],"fee":317125,"totalOutput":164024357,"tokens":[]},{"hash":"a4b666a6776c797a046ad37622a0fefaece80db5bc6fd238cf141386a7811e6f","blockNo":8924001,"blockHash":"fd171890bbd8894c0c3409fbce79f5ff34f5dbfb34d6ca7e9d12d1688a9f347b","epochNo":418,"epochSlotNo":398440,"slot":95611240,"time":"2023/06/19 12:25:31","addressesInput":["addr1qxsdmrummt67gvzgjgvwm5w6lzflaweemu65ev4q77dvesq6995nzgcvyvvjag3dxndxwv0sc4f2fr8zs7hs966lxrdqzllcm4","addr1qyfg7r9we6tldkyd5aw0dwd6z04z9g3y6r06y05usazrkrg6995nzgcvyvvjag3dxndxwv0sc4f2fr8zs7hs966lxrdqae3ev9","addr1qxcunx6a395avhelyp6htw02fat4rl0jnfaetqshsn4sx9c6995nzgcvyvvjag3dxndxwv0sc4f2fr8zs7hs966lxrdqw9w2rp","addr1qxcunx6a395avhelyp6htw02fat4rl0jnfaetqshsn4sx9c6995nzgcvyvvjag3dxndxwv0sc4f2fr8zs7hs966lxrdqw9w2rp","addr1q94zmzmqvj3e3pym8fpfefm278cewd5k2tmaxr6kl7hwp2c6995nzgcvyvvjag3dxndxwv0sc4f2fr8zs7hs966lxrdq75kmp0","addr1qyjy8egne970sk99jvv29eyzzpx9grrrkdgqcwptldvt8ps6995nzgcvyvvjag3dxndxwv0sc4f2fr8zs7hs966lxrdq78u4wc","addr1qy4lqu4ptulgg75m6y06hxhmk66tdltzsjmaey4a2slcwds6995nzgcvyvvjag3dxndxwv0sc4f2fr8zs7hs966lxrdq8va2kt","addr1qx3her9rffvk08w5e87tp97a8t2m2kl0g80xfxezqy70m8s6995nzgcvyvvjag3dxndxwv0sc4f2fr8zs7hs966lxrdqaks4ar","addr1q9d7h2c86tmlhq6ujvu4yqnvd2mhan5rjek0jyeefkedzmq6995nzgcvyvvjag3dxndxwv0sc4f2fr8zs7hs966lxrdq6ns32v","addr1qyxfsjse9x5v7qr5zpcpryd48mz9phg2d99kwu2fnjfrs8s6995nzgcvyvvjag3dxndxwv0sc4f2fr8zs7hs966lxrdq6f5w05"],"addressesOutput":["addr1q9dg3dalxeyaznlt4lwgu46mr6ucvx2uphh5cl6hf7cr0d2e7c2q52hscnfz6r0w9qcw37gtvx99snq6crwxlsftnu5q38g5yw"],"fee":215265,"totalOutput":2703995933,"tokens":[]},{"hash":"ebd22ec43c348b539d061cef8c26eceddd0eba0dd9e100289f1dc19a702bcd3e","blockNo":8924001,"blockHash":"fd171890bbd8894c0c3409fbce79f5ff34f5dbfb34d6ca7e9d12d1688a9f347b","epochNo":418,"epochSlotNo":398440,"slot":95611240,"time":"2023/06/19 12:25:31","addressesInput":["addr1q9z5magdhv5ts5ly5rdskwk5afd4tjesp3wtlfkql8qnwgegd994t0kamz9hye375x7n4lwwvez6gedk7r8tq6fwr7dqz66rtf","addr1q9z5magdhv5ts5ly5rdskwk5afd4tjesp3wtlfkql8qnwgegd994t0kamz9hye375x7n4lwwvez6gedk7r8tq6fwr7dqz66rtf"],"addressesOutput":["addr1w99u2mhu6z8uuuzl7d9uq94xgn9rpdh4e5nl2mjhhkml3xg5qnw4g","addr1q9z5magdhv5ts5ly5rdskwk5afd4tjesp3wtlfkql8qnwgegd994t0kamz9hye375x7n4lwwvez6gedk7r8tq6fwr7dqz66rtf"],"fee":175093,"totalOutput":20309202480,"tokens":[]},{"hash":"f2a0b81772da9f2eea8b787cd0cc5a8508cce86e9b90722072d151f0f59a425c","blockNo":8924001,"blockHash":"fd171890bbd8894c0c3409fbce79f5ff34f5dbfb34d6ca7e9d12d1688a9f347b","epochNo":418,"epochSlotNo":398440,"slot":95611240,"time":"2023/06/19 12:25:31","addressesInput":["addr1wxc45xspppp73takl93mq029905ptdfnmtgv6g7cr8pdyqgvks3s8","addr1qxuyr3cg6dn23uzqf24c3rt5f6jgzjl5h76fkfzfk8s7ukz70ppeu8k33ugsnewj5yrepf9k8ezdpg9yhxxvjkfyv2rsfffy9x"],"addressesOutput":["addr1qxkmr0m22xeqludcg5rjdmecjxasu9fat0680qehtcsnftaadgykewa9ufvegeuca9yyq03d9v7ea2y2zthgu7hfgjtsddp6gr","addr1qxuyr3cg6dn23uzqf24c3rt5f6jgzjl5h76fkfzfk8s7ukz70ppeu8k33ugsnewj5yrepf9k8ezdpg9yhxxvjkfyv2rsfffy9x","addr1qxuyr3cg6dn23uzqf24c3rt5f6jgzjl5h76fkfzfk8s7ukz70ppeu8k33ugsnewj5yrepf9k8ezdpg9yhxxvjkfyv2rsfffy9x"],"fee":264284,"totalOutput":66916032,"tokens":[]},{"hash":"673a7d6925c0fb654e215a10619b48e52c52f04a737ec94c6349f7a76f6d406c","blockNo":8924001,"blockHash":"fd171890bbd8894c0c3409fbce79f5ff34f5dbfb34d6ca7e9d12d1688a9f347b","epochNo":418,"epochSlotNo":398440,"slot":95611240,"time":"2023/06/19 12:25:31","addressesInput":["addr1wxn9efv2f6w82hagxqtn62ju4m293tqvw0uhmdl64ch8uwc0h43gt"],"addressesOutput":["addr1q9h7lwzp7pl22kp0ez5l2vnl68uw4q2t8dl7pxrfcnytyh68tevrtrytavc5dzj8gw8j24hcldn8rkemkkl309vet6psd9m0lg"],"fee":221166,"totalOutput":3278834,"tokens":[]},{"hash":"b4a1b20414e5de4caa05f4c18a47642fa928ad36f24f8c3e4e7d5045c9d9d2d2","blockNo":8924001,"blockHash":"fd171890bbd8894c0c3409fbce79f5ff34f5dbfb34d6ca7e9d12d1688a9f347b","epochNo":418,"epochSlotNo":398440,"slot":95611240,"time":"2023/06/19 12:25:31","addressesInput":["addr1q9h9ejjsd9nx7jzceyj7csrj2whlwxafgmvgu8yngx3euwgcw78xkr0luc5v6cy3cn4h5vzcwqf2xt9gl6k70e7lhwfsnk7yv7"],"addressesOutput":["addr1q99ufr64lsfk6lgqrtqfdwgk6zmp0lc2pvh8qv9nm3al4agcw78xkr0luc5v6cy3cn4h5vzcwqf2xt9gl6k70e7lhwfsftwzl0"],"fee":171573,"totalOutput":177712055,"tokens":[]},{"hash":"442e1b08f740f78f2b03a502e41b3fe40bd4b3b4b9e34dd24d40679ff3f45cd2","blockNo":8924001,"blockHash":"fd171890bbd8894c0c3409fbce79f5ff34f5dbfb34d6ca7e9d12d1688a9f347b","epochNo":418,"epochSlotNo":398440,"slot":95611240,"time":"2023/06/19 12:25:31","addressesInput":["addr1q9h7lwzp7pl22kp0ez5l2vnl68uw4q2t8dl7pxrfcnytyh68tevrtrytavc5dzj8gw8j24hcldn8rkemkkl309vet6psd9m0lg","addr1q9h7lwzp7pl22kp0ez5l2vnl68uw4q2t8dl7pxrfcnytyh68tevrtrytavc5dzj8gw8j24hcldn8rkemkkl309vet6psd9m0lg","addr1q9h7lwzp7pl22kp0ez5l2vnl68uw4q2t8dl7pxrfcnytyh68tevrtrytavc5dzj8gw8j24hcldn8rkemkkl309vet6psd9m0lg","addr1q9h7lwzp7pl22kp0ez5l2vnl68uw4q2t8dl7pxrfcnytyh68tevrtrytavc5dzj8gw8j24hcldn8rkemkkl309vet6psd9m0lg"],"addressesOutput":["addr1wxn9efv2f6w82hagxqtn62ju4m293tqvw0uhmdl64ch8uwc0h43gt","addr1q9h7lwzp7pl22kp0ez5l2vnl68uw4q2t8dl7pxrfcnytyh68tevrtrytavc5dzj8gw8j24hcldn8rkemkkl309vet6psd9m0lg","addr1q9h7lwzp7pl22kp0ez5l2vnl68uw4q2t8dl7pxrfcnytyh68tevrtrytavc5dzj8gw8j24hcldn8rkemkkl309vet6psd9m0lg","addr1q9h7lwzp7pl22kp0ez5l2vnl68uw4q2t8dl7pxrfcnytyh68tevrtrytavc5dzj8gw8j24hcldn8rkemkkl309vet6psd9m0lg"],"fee":196433,"totalOutput":12252084965,"tokens":[]},{"hash":"833fbbb26c1ed2e35bcfb1a95c066eae9db5821c8357288855e977c87349b55a","blockNo":8924001,"blockHash":"fd171890bbd8894c0c3409fbce79f5ff34f5dbfb34d6ca7e9d12d1688a9f347b","epochNo":418,"epochSlotNo":398440,"slot":95611240,"time":"2023/06/19 12:25:31","addressesInput":["addr1q836qf2vqzv57uc42rupyw039fsvnlfuaxumry25x9fwcg43hmpsthwgqxya4j9k9rhq4ha72fzu2wuyueuw6lkz846sde0a0x"],"addressesOutput":["addr1wxr2a8htmzuhj39y2gq7ftkpxv98y2g67tg8zezthgq4jkg0a4ul4","addr1w99u2mhu6z8uuuzl7d9uq94xgn9rpdh4e5nl2mjhhkml3xg5qnw4g","addr1q836qf2vqzv57uc42rupyw039fsvnlfuaxumry25x9fwcg43hmpsthwgqxya4j9k9rhq4ha72fzu2wuyueuw6lkz846sde0a0x"],"fee":237600,"totalOutput":7020629295,"tokens":[]},{"hash":"f99c5a6e56d7fbcb6247ad9dc4a058d4b79e0fc9202a50eae06d81fafe433154","blockNo":8924001,"blockHash":"fd171890bbd8894c0c3409fbce79f5ff34f5dbfb34d6ca7e9d12d1688a9f347b","epochNo":418,"epochSlotNo":398440,"slot":95611240,"time":"2023/06/19 12:25:31","addressesInput":["addr1q88ahx5ttzem56jexzal2hcahglj9krpqmxm58pm3f60ra7xpkjgrn305ctrlhx3s87nq4nks5pwlvqt45lpr8jht8nqs3tcpv"],"addressesOutput":["addr1wxr2a8htmzuhj39y2gq7ftkpxv98y2g67tg8zezthgq4jkg0a4ul4","addr1q88ahx5ttzem56jexzal2hcahglj9krpqmxm58pm3f60ra7xpkjgrn305ctrlhx3s87nq4nks5pwlvqt45lpr8jht8nqs3tcpv"],"fee":250000,"totalOutput":2614655516,"tokens":[]},{"hash":"20a77f7b01793d919175d09a59cef7419aafe596a0d1e03de8dcf3b1407d3b70","blockNo":8924001,"blockHash":"fd171890bbd8894c0c3409fbce79f5ff34f5dbfb34d6ca7e9d12d1688a9f347b","epochNo":418,"epochSlotNo":398440,"slot":95611240,"time":"2023/06/19 12:25:31","addressesInput":["addr1q82a9jka5kltkg2zguewpc70dg5haenhd9lk8nkye3chvq6qfl4uedvycjj0frz3mt8vfmy5qrmqa332acysdv6vstmqjkws0y","addr1q82a9jka5kltkg2zguewpc70dg5haenhd9lk8nkye3chvq6qfl4uedvycjj0frz3mt8vfmy5qrmqa332acysdv6vstmqjkws0y"],"addressesOutput":["addr1zxn9efv2f6w82hagxqtn62ju4m293tqvw0uhmdl64ch8uw6j2c79gy9l76sdg0xwhd7r0c0kna0tycz4y5s6mlenh8pq6s3z70","addr1qy5e7z6ncd36ravmdukhnnsrt5e36fjdcqvznjyukshlmrjqfl4uedvycjj0frz3mt8vfmy5qrmqa332acysdv6vstmqh8junp","addr1qy5e7z6ncd36ravmdukhnnsrt5e36fjdcqvznjyukshlmrjqfl4uedvycjj0frz3mt8vfmy5qrmqa332acysdv6vstmqh8junp"],"fee":207301,"totalOutput":17688497310,"tokens":[]},{"hash":"6469bda3255dde1c3ddce13c232aaf2c1e5ec6cbf309becd1b345e8fa952e6c2","blockNo":8924001,"blockHash":"fd171890bbd8894c0c3409fbce79f5ff34f5dbfb34d6ca7e9d12d1688a9f347b","epochNo":418,"epochSlotNo":398440,"slot":95611240,"time":"2023/06/19 12:25:31","addressesInput":["addr1q8j20ewxspp8hpayqswuvz6g9462ha55086fg3png7cja2mx3lv6luspzqzz88mnp5rfqsmq4uhxq77659qyf638emcsq76hte","addr1q8j20ewxspp8hpayqswuvz6g9462ha55086fg3png7cja2mx3lv6luspzqzz88mnp5rfqsmq4uhxq77659qyf638emcsq76hte"],"addressesOutput":["addr1wxr2a8htmzuhj39y2gq7ftkpxv98y2g67tg8zezthgq4jkg0a4ul4","addr1q8j20ewxspp8hpayqswuvz6g9462ha55086fg3png7cja2mx3lv6luspzqzz88mnp5rfqsmq4uhxq77659qyf638emcsq76hte"],"fee":183629,"totalOutput":5059062576,"tokens":[]},{"hash":"b4ab0b5274a00e71a868e26f7af8b68eb746fb7f5ed949b40de451af682b21f2","blockNo":8924001,"blockHash":"fd171890bbd8894c0c3409fbce79f5ff34f5dbfb34d6ca7e9d12d1688a9f347b","epochNo":418,"epochSlotNo":398440,"slot":95611240,"time":"2023/06/19 12:25:31","addressesInput":["addr1q9trulz8kyefy4geu2y8xgrrgy954efkhh0pzm9k8408m8z8e7ycs6yf49kaydzwugmq39en0djdljmq2jv70yyz5wwqgmmhs0"],"addressesOutput":["addr1wxr2a8htmzuhj39y2gq7ftkpxv98y2g67tg8zezthgq4jkg0a4ul4","addr1q9trulz8kyefy4geu2y8xgrrgy954efkhh0pzm9k8408m8z8e7ycs6yf49kaydzwugmq39en0djdljmq2jv70yyz5wwqgmmhs0"],"fee":178393,"totalOutput":3161386596,"tokens":[]},{"hash":"b6e2f2392f17cb68a44167823cfc5d7cc52089fe1ddb162dcd08621a14d9de43","blockNo":8924001,"blockHash":"fd171890bbd8894c0c3409fbce79f5ff34f5dbfb34d6ca7e9d12d1688a9f347b","epochNo":418,"epochSlotNo":398440,"slot":95611240,"time":"2023/06/19 12:25:31","addressesInput":["addr1qyj6rl2khrta0pvr4n9ad39pzr7qj3vr3qjc957rz7v59u5lxrwez0kvjnhlhgp6w5skpfj3rpgxuhdchk9vzmz0uzgsaqyxes"],"addressesOutput":["addr1qx9hcknppdd3unu8p82fahu9qgy8gjwnhc0wrcnefuqyyfylxrwez0kvjnhlhgp6w5skpfj3rpgxuhdchk9vzmz0uzgs64ceyh","addr1qy2zfhs28vj6akahpsmqz5alu64vkxz02u4r2kfj32qg0q5lxrwez0kvjnhlhgp6w5skpfj3rpgxuhdchk9vzmz0uzgsknq7s9"],"fee":168053,"totalOutput":356160587,"tokens":[]},{"hash":"238a5fbd516f9c115c5f4d0ad3af061845e23110489d26beaa103755f2efed6b","blockNo":8924001,"blockHash":"fd171890bbd8894c0c3409fbce79f5ff34f5dbfb34d6ca7e9d12d1688a9f347b","epochNo":418,"epochSlotNo":398440,"slot":95611240,"time":"2023/06/19 12:25:31","addressesInput":["addr1qyu7ccd85wua4atuhk7fcvrx7f2sqwkgrwwke48tdmqt2nyq83zgx8d50tsry79x7cnzsqug6u6umgcf9776ptjagfzqfucf7z"],"addressesOutput":["addr1q80vl7hy2ktsa0253gv3kjm4kc2whetqlnwzfcn505wznfanmxflpw7natld9aypwvd48a6w4jdjadtuxt2paejjl59slc624a","addr1qyu7ccd85wua4atuhk7fcvrx7f2sqwkgrwwke48tdmqt2nyq83zgx8d50tsry79x7cnzsqug6u6umgcf9776ptjagfzqfucf7z"],"fee":168317,"totalOutput":469481683,"tokens":[]},{"hash":"2bdb84409ec4e57a9dee4f5ddb2864f236b50974b34433f670ff1a7c32f89a79","blockNo":8924001,"blockHash":"fd171890bbd8894c0c3409fbce79f5ff34f5dbfb34d6ca7e9d12d1688a9f347b","epochNo":418,"epochSlotNo":398440,"slot":95611240,"time":"2023/06/19 12:25:31","addressesInput":["addr1v9ywm0h3r8cnxrs04gfy7c3s2j44utjyvn5ldjdca0c2ltccgqdes"],"addressesOutput":["addr1q8gx7x3xykvzk95mscsmtkjt3086vpcnmx4vve804u5u5ufzjl6afczy7fk9ujhavyxddc3qtxxqdvl2hgq5ypggkpmsa5yv9p","addr1q9e7s6zvfn9zvhq5zqvsvva09m48ltr8lt8lfmrn5x6pmcls42cr05gs584g0ux0ykdlvx0c52gym20pd2n5zw8pyqxqxfgf9e"],"fee":198237,"totalOutput":4801763,"tokens":[]},{"hash":"0b16014fa791d9fc202eba479dc1cc92e14fa70aae7f7b2fb90abaec507d7de7","blockNo":8924001,"blockHash":"fd171890bbd8894c0c3409fbce79f5ff34f5dbfb34d6ca7e9d12d1688a9f347b","epochNo":418,"epochSlotNo":398440,"slot":95611240,"time":"2023/06/19 12:25:31","addressesInput":["addr1qyh96xhlqerq8qmqcnp6wyhdpjwdx074rmwxlvs9h8xg8earmgtzpukp5t9dyaugspppfk6khnw04z827pwexjh6zh5qm6yyx3"],"addressesOutput":["DdzFFzCqrhsjiPwwYCA48d7ZWZwkuivE5YVBEBaS4WXuxEGkB96k5VvzmCQE7eejV9KJAXhGJmsmXoCVpFgYnpP8QJ9KZopVMdpEeWKk","addr1qy5e6vscsezgpc9fcdl6nmzw4e0tltcavdejzln9873jqu4rmgtzpukp5t9dyaugspppfk6khnw04z827pwexjh6zh5q6hm60n"],"fee":170033,"totalOutput":46305085772,"tokens":[]},{"hash":"99d7551f7207144234c5ed8a4ec70bf486f08944520cf9706e9ac53d0490f7af","blockNo":8924001,"blockHash":"fd171890bbd8894c0c3409fbce79f5ff34f5dbfb34d6ca7e9d12d1688a9f347b","epochNo":418,"epochSlotNo":398440,"slot":95611240,"time":"2023/06/19 12:25:31","addressesInput":["addr1qxweer3ryy3wrmcsx5qn2t2f572d5lrtw6f4e56dfc3eze69clu9puh8aceull80k4wgvwekp80seutppf3n7hq8s7zq37ke3k","addr1q8dn3kmvl8msqldjq7fj8tssm3sazeq5wadygq70jjpx2969clu9puh8aceull80k4wgvwekp80seutppf3n7hq8s7zqt096ad","addr1qxweer3ryy3wrmcsx5qn2t2f572d5lrtw6f4e56dfc3eze69clu9puh8aceull80k4wgvwekp80seutppf3n7hq8s7zq37ke3k"],"addressesOutput":["addr1zxn9efv2f6w82hagxqtn62ju4m293tqvw0uhmdl64ch8uw6j2c79gy9l76sdg0xwhd7r0c0kna0tycz4y5s6mlenh8pq6s3z70","addr1qxzsa4kkvcn7kdtgype4zjlqtr48z6umcxtnzzw5h2p0pgz9clu9puh8aceull80k4wgvwekp80seutppf3n7hq8s7zq8jh7u0","addr1qxzsa4kkvcn7kdtgype4zjlqtr48z6umcxtnzzw5h2p0pgz9clu9puh8aceull80k4wgvwekp80seutppf3n7hq8s7zq8jh7u0"],"fee":231721,"totalOutput":92224648,"tokens":[]}],"totalItems":69376866,"totalPages":3468844,"currentPage":0}