{"data":[{"hash":"b3dd393f812971d893ace2144bd110f1d712f2ce61a86ef68d72a9d2781c8d7f","blockNo":8799582,"blockHash":"1e330fe286d933aa2ca0ec451acf5f11f738849971c5193ba6cf3f9ce3cd6348","epochNo":413,"epochSlotNo":6972,"slot":93059772,"time":"2023/05/20 23:41:03","addressesInput":["addr1qxqh5dd3zh0veyfyzmmy7hdel6ezr2svw932cny850jvhcxwpv0wmta603yku66jnvqawukv66m3fysja9pjphca557s06curf","addr1qxqh5dd3zh0veyfyzmmy7hdel6ezr2svw932cny850jvhcxwpv0wmta603yku66jnvqawukv66m3fysja9pjphca557s06curf","addr1qxqh5dd3zh0veyfyzmmy7hdel6ezr2svw932cny850jvhcxwpv0wmta603yku66jnvqawukv66m3fysja9pjphca557s06curf"],"addressesOutput":["addr1qya3dks3dyt4mtxaqgnyny58uf36ptr94hkec9da99hss9vjlh34veqa5x8hz5nkrxavkgrjqvp27vtxcdqs5ectuf3qtsnevf","addr1qxqh5dd3zh0veyfyzmmy7hdel6ezr2svw932cny850jvhcxwpv0wmta603yku66jnvqawukv66m3fysja9pjphca557s06curf"],"fee":210293,"totalOutput":17350695,"tokens":[]},{"hash":"02cf76fdcb8c21baf38ea58d7148d5c4e03d05ef582111d3021eaa80384801a0","blockNo":8799560,"blockHash":"610046f703850a5bf8c8a833b4683871d7dca19452ec048c4dd31c2e6c3d1fc5","epochNo":413,"epochSlotNo":6482,"slot":93059282,"time":"2023/05/20 23:32:53","addressesInput":["addr1qxqh5dd3zh0veyfyzmmy7hdel6ezr2svw932cny850jvhcxwpv0wmta603yku66jnvqawukv66m3fysja9pjphca557s06curf","addr1qxqh5dd3zh0veyfyzmmy7hdel6ezr2svw932cny850jvhcxwpv0wmta603yku66jnvqawukv66m3fysja9pjphca557s06curf"],"addressesOutput":["addr1qya3dks3dyt4mtxaqgnyny58uf36ptr94hkec9da99hss9vjlh34veqa5x8hz5nkrxavkgrjqvp27vtxcdqs5ectuf3qtsnevf","addr1qxqh5dd3zh0veyfyzmmy7hdel6ezr2svw932cny850jvhcxwpv0wmta603yku66jnvqawukv66m3fysja9pjphca557s06curf"],"fee":173729,"totalOutput":3250738,"tokens":[]},{"hash":"84bc08a028df2ca456d19bceeddc7673039f8fabc3f071caf21c0fcd4ec64723","blockNo":8799533,"blockHash":"89d92702d232561a206d1e0a6f082a8ba1a376232629014ee87f4cbb2b3c042e","epochNo":413,"epochSlotNo":5977,"slot":93058777,"time":"2023/05/20 23:24:28","addressesInput":["addr1qxqh5dd3zh0veyfyzmmy7hdel6ezr2svw932cny850jvhcxwpv0wmta603yku66jnvqawukv66m3fysja9pjphca557s06curf"],"addressesOutput":["addr1qya3dks3dyt4mtxaqgnyny58uf36ptr94hkec9da99hss9vjlh34veqa5x8hz5nkrxavkgrjqvp27vtxcdqs5ectuf3qtsnevf","addr1qxqh5dd3zh0veyfyzmmy7hdel6ezr2svw932cny850jvhcxwpv0wmta603yku66jnvqawukv66m3fysja9pjphca557s06curf"],"fee":172189,"totalOutput":3424467,"tokens":[]},{"hash":"abfaa3a9199d3fae973c236d04018e07b27f0a808f420a0650ed8dd37aa49a3d","blockNo":8799438,"blockHash":"015d51c87c9e9575dfa8e5d94453d2ab3a11cec08ea168f4443507925c226a81","epochNo":413,"epochSlotNo":4066,"slot":93056866,"time":"2023/05/20 22:52:37","addressesInput":["addr1qxqh5dd3zh0veyfyzmmy7hdel6ezr2svw932cny850jvhcxwpv0wmta603yku66jnvqawukv66m3fysja9pjphca557s06curf"],"addressesOutput":["addr1q9gp7mfa2mz0ejn8j8pycs7ydh8dvrrpf4n96ep8medg7psedsx55jhewdw8ag088qtv2hm3mygyg5ry74xr38n56nnsw6xqh3","addr1qxqh5dd3zh0veyfyzmmy7hdel6ezr2svw932cny850jvhcxwpv0wmta603yku66jnvqawukv66m3fysja9pjphca557s06curf"],"fee":170473,"totalOutput":13596656,"tokens":[]},{"hash":"2da1bcc5bfb02f5acdd1d6e8cdb5c541479c7622e8db8aeb8067a50fa1072f38","blockNo":8799421,"blockHash":"75e2fe864fdc640a36181881e8564009b2a32872ca5384665b34dbe00c4824d6","epochNo":413,"epochSlotNo":3710,"slot":93056510,"time":"2023/05/20 22:46:41","addressesInput":["addr1qxqh5dd3zh0veyfyzmmy7hdel6ezr2svw932cny850jvhcxwpv0wmta603yku66jnvqawukv66m3fysja9pjphca557s06curf","addr1qxqh5dd3zh0veyfyzmmy7hdel6ezr2svw932cny850jvhcxwpv0wmta603yku66jnvqawukv66m3fysja9pjphca557s06curf"],"addressesOutput":["addr1q8epdn85hr5g9axvgmsucm4xm00vff3v2w7f4ytrhv6xafersryeuczwll42apvedrpwds63dsvqwvnpdptz5l0ye2yq3rcfc0","addr1qxqh5dd3zh0veyfyzmmy7hdel6ezr2svw932cny850jvhcxwpv0wmta603yku66jnvqawukv66m3fysja9pjphca557s06curf"],"fee":173773,"totalOutput":15111927,"tokens":[]},{"hash":"311930154e20c67c4ee0a98881ce41bb86619dca159e53dd02cfe1268df350db","blockNo":8799409,"blockHash":"312366a428e62708492b528c33583b29ab89886dc2a0602f7cb452aa62f99d6b","epochNo":413,"epochSlotNo":3398,"slot":93056198,"time":"2023/05/20 22:41:29","addressesInput":["addr1qxqh5dd3zh0veyfyzmmy7hdel6ezr2svw932cny850jvhcxwpv0wmta603yku66jnvqawukv66m3fysja9pjphca557s06curf"],"addressesOutput":["addr1vy6p2t2lspjhf2nr2g7hfygkxdeulw3vvr8yhrkyv9qvzncmulqgh","addr1qxqh5dd3zh0veyfyzmmy7hdel6ezr2svw932cny850jvhcxwpv0wmta603yku66jnvqawukv66m3fysja9pjphca557s06curf"],"fee":169065,"totalOutput":16492000,"tokens":[]},{"hash":"1bd2c6da3689b2d495d3783f71c7cc95aeeaae3a21c204683f799a86834eecd8","blockNo":8799285,"blockHash":"b84edcb4c04c62cf200c50978f1101a053630dada226449aec587171b2767104","epochNo":413,"epochSlotNo":604,"slot":93053404,"time":"2023/05/20 21:54:55","addressesInput":["addr1qxqh5dd3zh0veyfyzmmy7hdel6ezr2svw932cny850jvhcxwpv0wmta603yku66jnvqawukv66m3fysja9pjphca557s06curf","addr1qxqh5dd3zh0veyfyzmmy7hdel6ezr2svw932cny850jvhcxwpv0wmta603yku66jnvqawukv66m3fysja9pjphca557s06curf"],"addressesOutput":["addr1q9fgeh8zzjwv98scpt2khz6fvyq492gmmp67pqx5fk3qn904zgj9azhd74xwwa7mj84nrdvplt6hd0hftaq60przpm2qstnmz4","addr1qxqh5dd3zh0veyfyzmmy7hdel6ezr2svw932cny850jvhcxwpv0wmta603yku66jnvqawukv66m3fysja9pjphca557s06curf"],"fee":174037,"totalOutput":18005863,"tokens":[]},{"hash":"4754ff51ad986e672a1824886f08d474ea2302f67d262abd709aadd3af13020e","blockNo":8799280,"blockHash":"947ddf007a36b291a0021e9fba95a5f5ae01eb81de19cf38ff17adb6776e669e","epochNo":413,"epochSlotNo":344,"slot":93053144,"time":"2023/05/20 21:50:35","addressesInput":["addr1q9p0mr5kjegd0sgm5k857pdyaez4zwptmw50k50txjrjtmwwpv0wmta603yku66jnvqawukv66m3fysja9pjphca557sr2s7yk","addr1qxqh5dd3zh0veyfyzmmy7hdel6ezr2svw932cny850jvhcxwpv0wmta603yku66jnvqawukv66m3fysja9pjphca557s06curf","addr1qxqh5dd3zh0veyfyzmmy7hdel6ezr2svw932cny850jvhcxwpv0wmta603yku66jnvqawukv66m3fysja9pjphca557s06curf"],"addressesOutput":["addr1qxqh5dd3zh0veyfyzmmy7hdel6ezr2svw932cny850jvhcxwpv0wmta603yku66jnvqawukv66m3fysja9pjphca557s06curf","addr1qxqh5dd3zh0veyfyzmmy7hdel6ezr2svw932cny850jvhcxwpv0wmta603yku66jnvqawukv66m3fysja9pjphca557s06curf","addr1qxqh5dd3zh0veyfyzmmy7hdel6ezr2svw932cny850jvhcxwpv0wmta603yku66jnvqawukv66m3fysja9pjphca557s06curf","addr1qxqh5dd3zh0veyfyzmmy7hdel6ezr2svw932cny850jvhcxwpv0wmta603yku66jnvqawukv66m3fysja9pjphca557s06curf"],"fee":226661,"totalOutput":25179746,"tokens":[]},{"hash":"0f94afd6d5cc866cf44b2089dd397c1615d552125ef3b6e36e96fab184a3591d","blockNo":8799275,"blockHash":"a8ab6e71386f2315ca13f62bd8d7019c620a876eae48871155e75f9ad5ca4c5d","epochNo":412,"epochSlotNo":431909,"slot":93052709,"time":"2023/05/20 21:43:20","addressesInput":["addr1qxqh5dd3zh0veyfyzmmy7hdel6ezr2svw932cny850jvhcxwpv0wmta603yku66jnvqawukv66m3fysja9pjphca557s06curf","addr1qxqh5dd3zh0veyfyzmmy7hdel6ezr2svw932cny850jvhcxwpv0wmta603yku66jnvqawukv66m3fysja9pjphca557s06curf","addr1qxqh5dd3zh0veyfyzmmy7hdel6ezr2svw932cny850jvhcxwpv0wmta603yku66jnvqawukv66m3fysja9pjphca557s06curf"],"addressesOutput":["addr1qya3dks3dyt4mtxaqgnyny58uf36ptr94hkec9da99hss9vjlh34veqa5x8hz5nkrxavkgrjqvp27vtxcdqs5ectuf3qtsnevf","addr1qxqh5dd3zh0veyfyzmmy7hdel6ezr2svw932cny850jvhcxwpv0wmta603yku66jnvqawukv66m3fysja9pjphca557s06curf"],"fee":212185,"totalOutput":7555547,"tokens":[]},{"hash":"b4c37c2b7399896fd12a2f106ae7e0ab60888e2e221c4cee15210165ae3a9876","blockNo":8799270,"blockHash":"7acd001702047d9ca54b1566d8543f0062013c455b8ff9ee963af1448f2c2ca7","epochNo":412,"epochSlotNo":431769,"slot":93052569,"time":"2023/05/20 21:41:00","addressesInput":["addr1vy6p2t2lspjhf2nr2g7hfygkxdeulw3vvr8yhrkyv9qvzncmulqgh"],"addressesOutput":["addr1qxqh5dd3zh0veyfyzmmy7hdel6ezr2svw932cny850jvhcxwpv0wmta603yku66jnvqawukv66m3fysja9pjphca557s06curf"],"fee":764781,"totalOutput":1195219,"tokens":[]},{"hash":"e7d1c0ab21e58826ed3c41d22806cdfe0caf9e9961163a8b52688c70db0e4967","blockNo":8799269,"blockHash":"4c3294a6d2ce6e6346cae5a6a7965c4cb60fd6dc9b1a00dfd4713b888ed3db36","epochNo":412,"epochSlotNo":431665,"slot":93052465,"time":"2023/05/20 21:39:16","addressesInput":["addr1qxqh5dd3zh0veyfyzmmy7hdel6ezr2svw932cny850jvhcxwpv0wmta603yku66jnvqawukv66m3fysja9pjphca557s06curf"],"addressesOutput":["addr1vy6p2t2lspjhf2nr2g7hfygkxdeulw3vvr8yhrkyv9qvzncmulqgh","addr1q9p0mr5kjegd0sgm5k857pdyaez4zwptmw50k50txjrjtmwwpv0wmta603yku66jnvqawukv66m3fysja9pjphca557sr2s7yk"],"fee":169241,"totalOutput":19960439,"tokens":[]},{"hash":"1e6a598a8ba5dbd403d46e0c3c7f8ed21dc1d01b0a4e97297d428b5a6f45eca0","blockNo":8799227,"blockHash":"bd5a07f951a2306824db8dc6fe0c1b98720c9dd88aaa870b131612215bfcf50f","epochNo":412,"epochSlotNo":430924,"slot":93051724,"time":"2023/05/20 21:26:55","addressesInput":["addr1vy6p2t2lspjhf2nr2g7hfygkxdeulw3vvr8yhrkyv9qvzncmulqgh"],"addressesOutput":["addr1qxqh5dd3zh0veyfyzmmy7hdel6ezr2svw932cny850jvhcxwpv0wmta603yku66jnvqawukv66m3fysja9pjphca557s06curf"],"fee":764781,"totalOutput":1195219,"tokens":[]},{"hash":"b08f0e1762ab3142484692c8231d03a983a63e54c2a6752f4d7a2e9eb8a9e164","blockNo":8799225,"blockHash":"c05801563f4088511065ae6d126ccc094e191757bd59f89a7ad979d2978657a5","epochNo":412,"epochSlotNo":430881,"slot":93051681,"time":"2023/05/20 21:26:12","addressesInput":["addr1qxqh5dd3zh0veyfyzmmy7hdel6ezr2svw932cny850jvhcxwpv0wmta603yku66jnvqawukv66m3fysja9pjphca557s06curf"],"addressesOutput":["addr1vy6p2t2lspjhf2nr2g7hfygkxdeulw3vvr8yhrkyv9qvzncmulqgh","addr1qxqh5dd3zh0veyfyzmmy7hdel6ezr2svw932cny850jvhcxwpv0wmta603yku66jnvqawukv66m3fysja9pjphca557s06curf"],"fee":169241,"totalOutput":22089680,"tokens":[]},{"hash":"f7191f49281d87c125394764577dc389d90a2f51e82dba74d149e45a31f760a7","blockNo":8799218,"blockHash":"5efd594a2186ddc910cd8991eb808300d3ba75df2fc50b7f3910dfb66cf400d4","epochNo":412,"epochSlotNo":430717,"slot":93051517,"time":"2023/05/20 21:23:28","addressesInput":["addr1vy6p2t2lspjhf2nr2g7hfygkxdeulw3vvr8yhrkyv9qvzncmulqgh"],"addressesOutput":["addr1qxqh5dd3zh0veyfyzmmy7hdel6ezr2svw932cny850jvhcxwpv0wmta603yku66jnvqawukv66m3fysja9pjphca557s06curf"],"fee":764781,"totalOutput":1195219,"tokens":[]},{"hash":"f6b016cd457d2b72bfba5f22fb62de70d4cfffcd7131533aaa19978bda1e8432","blockNo":8799216,"blockHash":"ca97a6e44f3db08897970cbefa16a6363cb141a2734206b67f8ad970a43b18fa","epochNo":412,"epochSlotNo":430678,"slot":93051478,"time":"2023/05/20 21:22:49","addressesInput":["addr1qxqh5dd3zh0veyfyzmmy7hdel6ezr2svw932cny850jvhcxwpv0wmta603yku66jnvqawukv66m3fysja9pjphca557s06curf","addr1qxqh5dd3zh0veyfyzmmy7hdel6ezr2svw932cny850jvhcxwpv0wmta603yku66jnvqawukv66m3fysja9pjphca557s06curf"],"addressesOutput":["addr1vy6p2t2lspjhf2nr2g7hfygkxdeulw3vvr8yhrkyv9qvzncmulqgh","addr1qxqh5dd3zh0veyfyzmmy7hdel6ezr2svw932cny850jvhcxwpv0wmta603yku66jnvqawukv66m3fysja9pjphca557s06curf"],"fee":207389,"totalOutput":7337294,"tokens":[]},{"hash":"16ae7b147ba9bf9e9bf8b2c908c9f9df2925c4a5312f45b199dec25a22f20deb","blockNo":8799206,"blockHash":"cc9396eaa48703fb784152ef38ed4a372a207ad3a39fceeda9bf46a6483c7d51","epochNo":412,"epochSlotNo":430511,"slot":93051311,"time":"2023/05/20 21:20:02","addressesInput":["addr1vy6p2t2lspjhf2nr2g7hfygkxdeulw3vvr8yhrkyv9qvzncmulqgh"],"addressesOutput":["addr1qxqh5dd3zh0veyfyzmmy7hdel6ezr2svw932cny850jvhcxwpv0wmta603yku66jnvqawukv66m3fysja9pjphca557s06curf"],"fee":764781,"totalOutput":1195219,"tokens":[]},{"hash":"693e10e26298bcd708bd2311eaee25163cf04364617ee96011d4204ef7e591ef","blockNo":8799205,"blockHash":"a0ea4b9ab00a3c9a08829419cc2b34ac628944cbeaeaddb4b09e079381bc516b","epochNo":412,"epochSlotNo":430481,"slot":93051281,"time":"2023/05/20 21:19:32","addressesInput":["addr1qxqh5dd3zh0veyfyzmmy7hdel6ezr2svw932cny850jvhcxwpv0wmta603yku66jnvqawukv66m3fysja9pjphca557s06curf","addr1qxqh5dd3zh0veyfyzmmy7hdel6ezr2svw932cny850jvhcxwpv0wmta603yku66jnvqawukv66m3fysja9pjphca557s06curf","addr1qxqh5dd3zh0veyfyzmmy7hdel6ezr2svw932cny850jvhcxwpv0wmta603yku66jnvqawukv66m3fysja9pjphca557s06curf"],"addressesOutput":["addr1vy6p2t2lspjhf2nr2g7hfygkxdeulw3vvr8yhrkyv9qvzncmulqgh","addr1qxqh5dd3zh0veyfyzmmy7hdel6ezr2svw932cny850jvhcxwpv0wmta603yku66jnvqawukv66m3fysja9pjphca557s06curf"],"fee":172409,"totalOutput":24218921,"tokens":[]},{"hash":"7debb1a63183820877cde835b56f0015f13adad05fd273c2665542f79744d9fd","blockNo":8799194,"blockHash":"8b1a0dbf3b33458d72eb5905a021a39cbe269c08b343b17c957f1bd7d94f4ced","epochNo":412,"epochSlotNo":430368,"slot":93051168,"time":"2023/05/20 21:17:39","addressesInput":["addr1vy6p2t2lspjhf2nr2g7hfygkxdeulw3vvr8yhrkyv9qvzncmulqgh"],"addressesOutput":["addr1qxqh5dd3zh0veyfyzmmy7hdel6ezr2svw932cny850jvhcxwpv0wmta603yku66jnvqawukv66m3fysja9pjphca557s06curf"],"fee":764781,"totalOutput":1195219,"tokens":[]},{"hash":"008e95e1d5841d8fc32cd3acb84ab9e6b8f359c12d5f33e0e26c4cd9de1ced5a","blockNo":8799173,"blockHash":"13674afe5d3bc3f04cf26d7738d6204146e27095a8a678f955392116651e0d5a","epochNo":412,"epochSlotNo":429898,"slot":93050698,"time":"2023/05/20 21:09:49","addressesInput":["addr1vy6p2t2lspjhf2nr2g7hfygkxdeulw3vvr8yhrkyv9qvzncmulqgh"],"addressesOutput":["addr1qxqh5dd3zh0veyfyzmmy7hdel6ezr2svw932cny850jvhcxwpv0wmta603yku66jnvqawukv66m3fysja9pjphca557s06curf"],"fee":764781,"totalOutput":1195219,"tokens":[]},{"hash":"274efe545eaf7cd318428e4c72d59a5ee2a7455b01091bcea17eb9d11b10deba","blockNo":8798809,"blockHash":"a1b96cd7a56d78d232dc43791d6355503e1310afe82a4ea9728220610f0c5284","epochNo":412,"epochSlotNo":422440,"slot":93043240,"time":"2023/05/20 19:05:31","addressesInput":["addr1qxqh5dd3zh0veyfyzmmy7hdel6ezr2svw932cny850jvhcxwpv0wmta603yku66jnvqawukv66m3fysja9pjphca557s06curf","addr1qxqh5dd3zh0veyfyzmmy7hdel6ezr2svw932cny850jvhcxwpv0wmta603yku66jnvqawukv66m3fysja9pjphca557s06curf"],"addressesOutput":["addr1qya3dks3dyt4mtxaqgnyny58uf36ptr94hkec9da99hss9vjlh34veqa5x8hz5nkrxavkgrjqvp27vtxcdqs5ectuf3qtsnevf","addr1qxqh5dd3zh0veyfyzmmy7hdel6ezr2svw932cny850jvhcxwpv0wmta603yku66jnvqawukv66m3fysja9pjphca557s06curf"],"fee":208533,"totalOutput":9857999,"tokens":[]}],"totalItems":34,"totalPages":2,"currentPage":0}