{"data":[{"hash":"11cb7156bcda6b9533f86652419a0a2df3c41b08d4f141bc6f266a365989c8c3","blockNo":6860281,"blockHash":"ab2b5a482192d6efbad2fa39fbfe2bd8daf4e7fbaa69500f19c4e5d6a9b70ffd","epochNo":319,"epochSlotNo":383884,"slot":52828684,"time":"2022/02/09 08:22:55","addressesInput":["addr1qyrjd2mt7jlnd8al9mr5qywm9vsvhtpym6p90f89rv4jkwg2pyn8fvqgg02pk93uks0kmqda3cu4whj3xpnvnm6wr8tsmp7xrx","addr1q8hm5s0g0qxasm0tadhfzemtxlumn0pc6st050z5k3wlc7q2pyn8fvqgg02pk93uks0kmqda3cu4whj3xpnvnm6wr8ts974k5t","addr1q94523hsme5e6y78y4fjh649g7jmg2krjanf4xzuac3pw3q2pyn8fvqgg02pk93uks0kmqda3cu4whj3xpnvnm6wr8ts3rd92m"],"addressesOutput":["addr1qynzx4y9dnmkd96celuuls74zr8smchlj74dvq27hj7wv3nsq7w35xfes57sktgqgl7lnv96haunhysly60s3553vntq2fe4xh","addr1q8rucdw2knuxt9f7c47fclwv7pk4nkqq6f68jvmrrlez28g2pyn8fvqgg02pk93uks0kmqda3cu4whj3xpnvnm6wr8tsmj4h24","addr1q8rucdw2knuxt9f7c47fclwv7pk4nkqq6f68jvmrrlez28g2pyn8fvqgg02pk93uks0kmqda3cu4whj3xpnvnm6wr8tsmj4h24"],"fee":265293,"totalOutput":15536349,"tokens":[]},{"hash":"55ad857ade84f583bfbe82ea653412c0ab8f110a7efbf8b00e0f2d85b04f56d6","blockNo":6860272,"blockHash":"141e1e9826bc21d8712ff7bc2d23c687bae81364e3f580588c4336caa5cef307","epochNo":319,"epochSlotNo":383740,"slot":52828540,"time":"2022/02/09 08:20:31","addressesInput":["addr1qy0xznhgdhqj9u4g6jjdntf2cxy5lyad8j2p6a6dp8jwwttfq4uncdzu6hqlxn7gva2xsaln40x226fl8fsnqyyvzxtqqm3qw9"],"addressesOutput":["addr1w999n67e86jn6xal07pzxtrmqynspgx0fwmcmpua4wc6yzsxpljz3","addr1qy0xznhgdhqj9u4g6jjdntf2cxy5lyad8j2p6a6dp8jwwttfq4uncdzu6hqlxn7gva2xsaln40x226fl8fsnqyyvzxtqqm3qw9"],"fee":240183,"totalOutput":9703183,"tokens":[]},{"hash":"70800abaaf1d21d78f6c10f0a1628b89180ebdea536fb1ae503f518830a19098","blockNo":6860016,"blockHash":"9e7e6713a883340067efa2494d0b91e27dfe2781d0a03897a5d0d69a2b81007a","epochNo":319,"epochSlotNo":378579,"slot":52823379,"time":"2022/02/09 06:54:30","addressesInput":["addr1qy83mzpxy40gw8pqrjgagrv75ssrd8lkrvz82qzuc2kc5r7vt2m6ue6hqwf8vx7rtsjm5eyxkxy0624fjl9qlvakz74q8fha2t","addr1qy83mzpxy40gw8pqrjgagrv75ssrd8lkrvz82qzuc2kc5r7vt2m6ue6hqwf8vx7rtsjm5eyxkxy0624fjl9qlvakz74q8fha2t","addr1qy83mzpxy40gw8pqrjgagrv75ssrd8lkrvz82qzuc2kc5r7vt2m6ue6hqwf8vx7rtsjm5eyxkxy0624fjl9qlvakz74q8fha2t"],"addressesOutput":["addr1wy2mjh76em44qurn5x73nzqrxua7ataasftql0u2h6g88lc3gtgpz","addr1qy83mzpxy40gw8pqrjgagrv75ssrd8lkrvz82qzuc2kc5r7vt2m6ue6hqwf8vx7rtsjm5eyxkxy0624fjl9qlvakz74q8fha2t"],"fee":192738,"totalOutput":4667262,"tokens":[]},{"hash":"22ef21b02d03a2a8ceeaf10c1336fce13792ba049f196c8b19d0509cc1048e27","blockNo":6859701,"blockHash":"2c2f42e6d26a3c37bd77cb26539eb1159ea1a0f63c66bf1e1c38f7316eb79a37","epochNo":319,"epochSlotNo":372489,"slot":52817289,"time":"2022/02/09 05:13:00","addressesInput":["addr1q9u8ec3x4nry49afkvrmu26kx7u67g49dx4zxpnwker8zlevarngxaqdlyqw85tju7l6hyffclquxm98dzkraad6md9qc9quux","addr1w9yr0zr530tp9yzrhly8lw5upddu0eym3yh0mjwa0qlr9pgmkzgv0"],"addressesOutput":["addr1q80whnaz6rgtx67vmaaa4mwzxcjnph72ss0lxel03c2lcpgrcmw88vp400h85nxgyw5rgfdfqape5lk3y9pfcyh08ass6a5vtd","addr1qxq47au29wss4g8acjk0zsmwwq0h34hhzump6stye9wuldm7nm0t6ad3jz9hy5v3smye0nvcumtzu43k7r36ag0w29qqdafvvk","addr1qyh70cf9v4898vm5dewap2klx4h0etzhcfkgv3c2235vjqck25arrwtyqtg4068zv6f9k42f25tzmcw3usx8z96a8mhshyqxvh","addr1q9u8ec3x4nry49afkvrmu26kx7u67g49dx4zxpnwker8zlevarngxaqdlyqw85tju7l6hyffclquxm98dzkraad6md9qc9quux","addr1q9u8ec3x4nry49afkvrmu26kx7u67g49dx4zxpnwker8zlevarngxaqdlyqw85tju7l6hyffclquxm98dzkraad6md9qc9quux"],"fee":1079357,"totalOutput":195197576,"tokens":[]},{"hash":"d17784ecf8f4d805aeda9561a9cbfbdd9ff9c280b7da6a745123cc8127049edc","blockNo":6859685,"blockHash":"e4a663f756d8bcee9adc9c3f26263ebcda061748b6863d13a2ee5b0ff0537438","epochNo":319,"epochSlotNo":372177,"slot":52816977,"time":"2022/02/09 05:07:48","addressesInput":["addr1q8fjdde87jrua78trg9ylv7gpvd5skzcv5nqp3wl467ykzgsmz083klcvm744y0n7yyg49ykzz0j628xpu4n5u0r0r4qrfqf6q","addr1q8fjdde87jrua78trg9ylv7gpvd5skzcv5nqp3wl467ykzgsmz083klcvm744y0n7yyg49ykzz0j628xpu4n5u0r0r4qrfqf6q"],"addressesOutput":["addr1qyyhymjpwnujamadjnlh8xmgx80wzuhqm368s6ulgl9mawrr99nkrt2meqa2z55hep7jnj8rkmt0e84z440lt0grvysse3fyck","addr1q8fjdde87jrua78trg9ylv7gpvd5skzcv5nqp3wl467ykzgsmz083klcvm744y0n7yyg49ykzz0j628xpu4n5u0r0r4qrfqf6q","addr1q8fjdde87jrua78trg9ylv7gpvd5skzcv5nqp3wl467ykzgsmz083klcvm744y0n7yyg49ykzz0j628xpu4n5u0r0r4qrfqf6q"],"fee":284345,"totalOutput":55043311,"tokens":[]},{"hash":"6077a9ba72dd8b99318193e7561828383f3f087fa2862d913961e53c1089b6f1","blockNo":6859643,"blockHash":"79134641ebbea58d1c16ddd685303c7f89ec1b17edef04e7c296106beef9fc6b","epochNo":319,"epochSlotNo":371174,"slot":52815974,"time":"2022/02/09 04:51:05","addressesInput":["addr1qymuk7lm4np4dyadtyv7rsvr6ztn52mr0j5zcl0ylufky3ev7xyue5vv22v423x2smvuumdvh404f8vv75m3qfcfadyqa3q0s4","addr1q8dg6cl027fqsx7vycsw7mk9lcl0s8xny43d0nvxa53frcev7xyue5vv22v423x2smvuumdvh404f8vv75m3qfcfadyqr8wnaw"],"addressesOutput":["addr1qy7f68x7yxvtzc7muuzzxdde4a4wnnjju0tewfwrc0pcuj069ud75z3pwkagrp8rlhtumfupxmqyr7urs7gjylhuymaq3rnq6l","addr1q949jdxpcmck74cr6hjk67s2nzl88l2nyxfjkzxhyvwye0fv7xyue5vv22v423x2smvuumdvh404f8vv75m3qfcfadyqqk9sgf"],"fee":179361,"totalOutput":6453645,"tokens":[]},{"hash":"c1bad820c53fd259a18fbd8d4167219593ed58efbfacbec0ce212a0d8e5db4c1","blockNo":6859630,"blockHash":"434200ecae99a498f8b056186f9aed0b30cb95b02ff3e50cce42b216df4db9ca","epochNo":319,"epochSlotNo":370873,"slot":52815673,"time":"2022/02/09 04:46:04","addressesInput":["addr1q8fjdde87jrua78trg9ylv7gpvd5skzcv5nqp3wl467ykzgsmz083klcvm744y0n7yyg49ykzz0j628xpu4n5u0r0r4qrfqf6q","addr1q8fjdde87jrua78trg9ylv7gpvd5skzcv5nqp3wl467ykzgsmz083klcvm744y0n7yyg49ykzz0j628xpu4n5u0r0r4qrfqf6q","addr1q8fjdde87jrua78trg9ylv7gpvd5skzcv5nqp3wl467ykzgsmz083klcvm744y0n7yyg49ykzz0j628xpu4n5u0r0r4qrfqf6q"],"addressesOutput":["addr1q9k9cxnfldflfmy6psv450a89wtptayymt7p9hdfhlk2afetgmcv80svr23qlqpl3gsf0r474rsythgarf44qdddyvpq9r50vs","addr1q8fjdde87jrua78trg9ylv7gpvd5skzcv5nqp3wl467ykzgsmz083klcvm744y0n7yyg49ykzz0j628xpu4n5u0r0r4qrfqf6q","addr1q8fjdde87jrua78trg9ylv7gpvd5skzcv5nqp3wl467ykzgsmz083klcvm744y0n7yyg49ykzz0j628xpu4n5u0r0r4qrfqf6q"],"fee":285929,"totalOutput":57327656,"tokens":[]},{"hash":"3cd5c678390069194df13c98c20591aa6fbf8567208cd8e591bf0277774aa621","blockNo":6859536,"blockHash":"e06399cba7631ac0b16068e4697d2ac2a1f9df7cf75ef5e462aa18619d1842bd","epochNo":319,"epochSlotNo":368770,"slot":52813570,"time":"2022/02/09 04:11:01","addressesInput":["addr1qysdvmvecllayy4rkksgsms5lu4vxhvxwtmx85ks3cctcdl49v0llr6kh86h28lyzeulsjnz9e0rfk2j0t9qend2e6xqvu3nts","addr1qysdvmvecllayy4rkksgsms5lu4vxhvxwtmx85ks3cctcdl49v0llr6kh86h28lyzeulsjnz9e0rfk2j0t9qend2e6xqvu3nts","addr1qysdvmvecllayy4rkksgsms5lu4vxhvxwtmx85ks3cctcdl49v0llr6kh86h28lyzeulsjnz9e0rfk2j0t9qend2e6xqvu3nts","addr1qysdvmvecllayy4rkksgsms5lu4vxhvxwtmx85ks3cctcdl49v0llr6kh86h28lyzeulsjnz9e0rfk2j0t9qend2e6xqvu3nts"],"addressesOutput":["addr1v85s50tsaeh7mcn7mfv66644gkg4exlex5agr0vcmpew5zcat2fxr","addr1qysdvmvecllayy4rkksgsms5lu4vxhvxwtmx85ks3cctcdl49v0llr6kh86h28lyzeulsjnz9e0rfk2j0t9qend2e6xqvu3nts"],"fee":207081,"totalOutput":25429119,"tokens":[]},{"hash":"56618a1ebc1585b92a8f1b8ce4f214f3752cfa5cfd16ca90f70c9d6b89e29b4f","blockNo":6859530,"blockHash":"8b8df78d246c588a58d409710d43199420967f454495a80c75dc7a1b08a7359c","epochNo":319,"epochSlotNo":368702,"slot":52813502,"time":"2022/02/09 04:09:53","addressesInput":["addr1qxfcth69yw2h49ptmaakllln8fu5904aqqk596fhe0vj2epv7xyue5vv22v423x2smvuumdvh404f8vv75m3qfcfadyq3g6j3w"],"addressesOutput":["addr1qys3ugt5hae4af3n55j5nsmkl87ms354hahsa6gcpzt6ful69ud75z3pwkagrp8rlhtumfupxmqyr7urs7gjylhuymaqcm0vn4","addr1q8dg6cl027fqsx7vycsw7mk9lcl0s8xny43d0nvxa53frcev7xyue5vv22v423x2smvuumdvh404f8vv75m3qfcfadyqr8wnaw"],"fee":175225,"totalOutput":2977804,"tokens":[]},{"hash":"a47b6265733f8111bf4a9605c16dade7463102b4185428763353f9bf6f4e430a","blockNo":6859521,"blockHash":"42deb07a33c02c8d54c3078b678838d0385c7c4272762afcb940d87764ccccfa","epochNo":319,"epochSlotNo":368538,"slot":52813338,"time":"2022/02/09 04:07:09","addressesInput":["addr1q9j9edkjryr9fnz6eyuwjcjutun9kpgtkdlulzquheldfeermhplrjkd38pvcn2r58dnl0v4rxs9lz6rdj5p77j3wvcs7ud37u","addr1q9j9edkjryr9fnz6eyuwjcjutun9kpgtkdlulzquheldfeermhplrjkd38pvcn2r58dnl0v4rxs9lz6rdj5p77j3wvcs7ud37u","addr1q9j9edkjryr9fnz6eyuwjcjutun9kpgtkdlulzquheldfeermhplrjkd38pvcn2r58dnl0v4rxs9lz6rdj5p77j3wvcs7ud37u","addr1q9j9edkjryr9fnz6eyuwjcjutun9kpgtkdlulzquheldfeermhplrjkd38pvcn2r58dnl0v4rxs9lz6rdj5p77j3wvcs7ud37u","addr1q9j9edkjryr9fnz6eyuwjcjutun9kpgtkdlulzquheldfeermhplrjkd38pvcn2r58dnl0v4rxs9lz6rdj5p77j3wvcs7ud37u","addr1q9j9edkjryr9fnz6eyuwjcjutun9kpgtkdlulzquheldfeermhplrjkd38pvcn2r58dnl0v4rxs9lz6rdj5p77j3wvcs7ud37u","addr1q9j9edkjryr9fnz6eyuwjcjutun9kpgtkdlulzquheldfeermhplrjkd38pvcn2r58dnl0v4rxs9lz6rdj5p77j3wvcs7ud37u"],"addressesOutput":["addr1qy4ssmmysxr2sxtxxejxgg0w34gy2hhcvzqgl3tzf0cx8333ypp85fwcs8meq97ckf0fuf86vy5955t5357v7yw4w4cqt8qqc0","addr1q9j9edkjryr9fnz6eyuwjcjutun9kpgtkdlulzquheldfeermhplrjkd38pvcn2r58dnl0v4rxs9lz6rdj5p77j3wvcs7ud37u","addr1q9j9edkjryr9fnz6eyuwjcjutun9kpgtkdlulzquheldfeermhplrjkd38pvcn2r58dnl0v4rxs9lz6rdj5p77j3wvcs7ud37u"],"fee":256757,"totalOutput":305232302,"tokens":[]},{"hash":"28452ba421a65862d0fca134632e80937391991cb15386c1d7276204c6397f69","blockNo":6859379,"blockHash":"1d0d651e872463435d76b6e75f45c561ff88d7fa95bcd95b81cf5728d575a75b","epochNo":319,"epochSlotNo":365359,"slot":52810159,"time":"2022/02/09 03:14:10","addressesInput":["addr1qyfqrqhuljs6s05xn9camr3fkfk98d4xyn9vwf75dnnylwzdweftyc5cx76lqf466ugl8wf6wx3tkmfrjyfrp0ewur9s50zf72","addr1qyfqrqhuljs6s05xn9camr3fkfk98d4xyn9vwf75dnnylwzdweftyc5cx76lqf466ugl8wf6wx3tkmfrjyfrp0ewur9s50zf72"],"addressesOutput":["addr1w999n67e86jn6xal07pzxtrmqynspgx0fwmcmpua4wc6yzsxpljz3","addr1qyfqrqhuljs6s05xn9camr3fkfk98d4xyn9vwf75dnnylwzdweftyc5cx76lqf466ugl8wf6wx3tkmfrjyfrp0ewur9s50zf72"],"fee":292023,"totalOutput":18004236,"tokens":[]},{"hash":"542a258df32879b3972d7bbfb6884105556e13de9cd5d59f94508ea5c65ca129","blockNo":6858990,"blockHash":"44221d9526a1870e59e3781833d065b2fba76e57e55cee6e448a76396064f4f1","epochNo":319,"epochSlotNo":357560,"slot":52802360,"time":"2022/02/09 01:04:11","addressesInput":["addr1q83fuawzq95z6p58p7e4rygtylp7efel256y98lq8s74chmspp3yjgkrxjyd2qdmfgyu0m7kcy6hr6v6r9crzzg0pejqghepph","addr1q83fuawzq95z6p58p7e4rygtylp7efel256y98lq8s74chmspp3yjgkrxjyd2qdmfgyu0m7kcy6hr6v6r9crzzg0pejqghepph"],"addressesOutput":["addr1qy4l06wn59mr3ym9gjazfye7dw6mwqdl2ugv898wsn8kye364ek64p0aylkwy3h4jmqu83hphk0wjlsddnkl6h6xkvhqm3zegg","addr1q83fuawzq95z6p58p7e4rygtylp7efel256y98lq8s74chmspp3yjgkrxjyd2qdmfgyu0m7kcy6hr6v6r9crzzg0pejqghepph","addr1q83fuawzq95z6p58p7e4rygtylp7efel256y98lq8s74chmspp3yjgkrxjyd2qdmfgyu0m7kcy6hr6v6r9crzzg0pejqghepph"],"fee":205629,"totalOutput":17755770,"tokens":[]},{"hash":"953e912c00652722b698b3af069c5cb6f2f63790af0ff9f73024c0831f09265d","blockNo":6858862,"blockHash":"e673bbf3bc82f8c8672398c5c4d4a11247ad48ec65805ea51767666d22ea1cc6","epochNo":319,"epochSlotNo":354938,"slot":52799738,"time":"2022/02/09 00:20:29","addressesInput":["addr1qx6ctyk53vmsqw4dtg9lf7k2dmxdrpapqapxp536y2jzc52f52e4hztcwdawm5wyw7q70zmmutlkvcp9x8w2vp23cl4seanf8s"],"addressesOutput":["addr1q8exgzzsw9y4c4hg797nad4ltapygfv24avxrqxqt0z64ty6j3wwzme32ldpwth05nkztfc9wapmqr4j4xqjzuauvwcsshfm0r","addr1qx6ctyk53vmsqw4dtg9lf7k2dmxdrpapqapxp536y2jzc52f52e4hztcwdawm5wyw7q70zmmutlkvcp9x8w2vp23cl4seanf8s","addr1qx6ctyk53vmsqw4dtg9lf7k2dmxdrpapqapxp536y2jzc52f52e4hztcwdawm5wyw7q70zmmutlkvcp9x8w2vp23cl4seanf8s"],"fee":201009,"totalOutput":21617833,"tokens":[]},{"hash":"36a4a54fdb42443bf81438aea3ccd5b35afe2df972395c50fd98d593049565be","blockNo":6858845,"blockHash":"b30e09db5fd8347e14ab5b14e37beb74ea3d5a9e89f74111aa96adf8ae428a72","epochNo":319,"epochSlotNo":354664,"slot":52799464,"time":"2022/02/09 00:15:55","addressesInput":["addr1qyfqrqhuljs6s05xn9camr3fkfk98d4xyn9vwf75dnnylwzdweftyc5cx76lqf466ugl8wf6wx3tkmfrjyfrp0ewur9s50zf72","addr1qyfqrqhuljs6s05xn9camr3fkfk98d4xyn9vwf75dnnylwzdweftyc5cx76lqf466ugl8wf6wx3tkmfrjyfrp0ewur9s50zf72","addr1qyfqrqhuljs6s05xn9camr3fkfk98d4xyn9vwf75dnnylwzdweftyc5cx76lqf466ugl8wf6wx3tkmfrjyfrp0ewur9s50zf72","addr1qyfqrqhuljs6s05xn9camr3fkfk98d4xyn9vwf75dnnylwzdweftyc5cx76lqf466ugl8wf6wx3tkmfrjyfrp0ewur9s50zf72","addr1qyfqrqhuljs6s05xn9camr3fkfk98d4xyn9vwf75dnnylwzdweftyc5cx76lqf466ugl8wf6wx3tkmfrjyfrp0ewur9s50zf72","addr1qyfqrqhuljs6s05xn9camr3fkfk98d4xyn9vwf75dnnylwzdweftyc5cx76lqf466ugl8wf6wx3tkmfrjyfrp0ewur9s50zf72"],"addressesOutput":["addr1v8n5c2arcu5k7mq5s3h9qgkgj25ffaeqyvgv9tpv9lycnpqnntlg7","addr1qyfqrqhuljs6s05xn9camr3fkfk98d4xyn9vwf75dnnylwzdweftyc5cx76lqf466ugl8wf6wx3tkmfrjyfrp0ewur9s50zf72","addr1qyfqrqhuljs6s05xn9camr3fkfk98d4xyn9vwf75dnnylwzdweftyc5cx76lqf466ugl8wf6wx3tkmfrjyfrp0ewur9s50zf72"],"fee":255965,"totalOutput":77296818,"tokens":[]},{"hash":"d096bbd4eb9fd5ddb7f10de617589b6b319d4196b28ad47ae69513f0cb5290d6","blockNo":6858742,"blockHash":"d32ebdbefb891f155452555aa94ce6f1ec63f2e9739176d18ce7baf248284724","epochNo":319,"epochSlotNo":352374,"slot":52797174,"time":"2022/02/08 23:37:45","addressesInput":["addr1q865j2h6587ckusdmhx93ad9wy8gmavkzfk60chz6hf387smvraqm8sw4z2f86vcx4pts99qmmx6zgyxq8j22esfqdjq02g7cc","addr1q865j2h6587ckusdmhx93ad9wy8gmavkzfk60chz6hf387smvraqm8sw4z2f86vcx4pts99qmmx6zgyxq8j22esfqdjq02g7cc"],"addressesOutput":["addr1v8hc68v2xfga6dmyhvxdv4qpzug9etvm6cz5v3kmcnt9ltqa62d44","addr1q865j2h6587ckusdmhx93ad9wy8gmavkzfk60chz6hf387smvraqm8sw4z2f86vcx4pts99qmmx6zgyxq8j22esfqdjq02g7cc","addr1q865j2h6587ckusdmhx93ad9wy8gmavkzfk60chz6hf387smvraqm8sw4z2f86vcx4pts99qmmx6zgyxq8j22esfqdjq02g7cc"],"fee":205013,"totalOutput":23317755,"tokens":[]},{"hash":"23cb43fa51a0de288561fcf3ccbb69dd3fb1b65920240f48b726c16b2fe99a43","blockNo":6858663,"blockHash":"127d718ef6caa084546c15e12fa8f38cffca434fa9738dda72939ec90979bd73","epochNo":319,"epochSlotNo":350495,"slot":52795295,"time":"2022/02/08 23:06:26","addressesInput":["addr1qyyy0acdrmv36a44f4cuk4mln8wy4jdt69wq5qy7qzet74lwn0h3rv97jh40whhqrwms5ad7s0k083vwa4h92z4tnrdsq5aa2x","addr1qyyy0acdrmv36a44f4cuk4mln8wy4jdt69wq5qy7qzet74lwn0h3rv97jh40whhqrwms5ad7s0k083vwa4h92z4tnrdsq5aa2x","addr1qxtntxrzesen5c74wgkgm5gjrgr7kkpw7zz5k70rl4jdxxlwn0h3rv97jh40whhqrwms5ad7s0k083vwa4h92z4tnrdsp7hnsq","addr1qy8j8f4m5dzwqucxtfs99mfmr0p975jyju7ysgllwxa80c0wn0h3rv97jh40whhqrwms5ad7s0k083vwa4h92z4tnrdswffc9v","addr1q9gg0xn0j2pywje0rss8d8tnuh70eypgvwk3w58977gsug8wn0h3rv97jh40whhqrwms5ad7s0k083vwa4h92z4tnrdsunr66h"],"addressesOutput":["addr1vyw250em0p6nyz6nfrug8qtgrxlrrd7yzd8hyr65fl40ezsycfnvh","addr1qydupyd7pq436hc9uf8a5yuvcl47t64ddaplaap7lstnuvlwn0h3rv97jh40whhqrwms5ad7s0k083vwa4h92z4tnrdsvhx93e"],"fee":282761,"totalOutput":40910259,"tokens":[]},{"hash":"2c7499d38065fa48005c913b2a949d86490c2a71272c757ab839320bdc16ba08","blockNo":6858649,"blockHash":"7a08324409e060e4504d7219927331618b6f0684730fd2f1741c862fa8d05874","epochNo":319,"epochSlotNo":350211,"slot":52795011,"time":"2022/02/08 23:01:42","addressesInput":["addr1qx6ctyk53vmsqw4dtg9lf7k2dmxdrpapqapxp536y2jzc52f52e4hztcwdawm5wyw7q70zmmutlkvcp9x8w2vp23cl4seanf8s","addr1qx6ctyk53vmsqw4dtg9lf7k2dmxdrpapqapxp536y2jzc52f52e4hztcwdawm5wyw7q70zmmutlkvcp9x8w2vp23cl4seanf8s","addr1qx6ctyk53vmsqw4dtg9lf7k2dmxdrpapqapxp536y2jzc52f52e4hztcwdawm5wyw7q70zmmutlkvcp9x8w2vp23cl4seanf8s","addr1qx6ctyk53vmsqw4dtg9lf7k2dmxdrpapqapxp536y2jzc52f52e4hztcwdawm5wyw7q70zmmutlkvcp9x8w2vp23cl4seanf8s"],"addressesOutput":["addr1wy2mjh76em44qurn5x73nzqrxua7ataasftql0u2h6g88lc3gtgpz","addr1qx6ctyk53vmsqw4dtg9lf7k2dmxdrpapqapxp536y2jzc52f52e4hztcwdawm5wyw7q70zmmutlkvcp9x8w2vp23cl4seanf8s"],"fee":219358,"totalOutput":74793842,"tokens":[]},{"hash":"1eb72467b834ab13081a12888c425d0deebb97eabb2164391122c2b74eb72e6f","blockNo":6858399,"blockHash":"55664d1e885d865b5b00ecb3e524ae14ba66a0e15f63a87ee75f1ef89d127d43","epochNo":319,"epochSlotNo":345109,"slot":52789909,"time":"2022/02/08 21:36:40","addressesInput":["addr1vx0l928zuszdgn2qs062tyze320v0vmg3hdszkw3fykwdece25sw8","addr1vx0l928zuszdgn2qs062tyze320v0vmg3hdszkw3fykwdece25sw8"],"addressesOutput":["addr1v864dv80sv5vjfpvu7pd4zlm9ue8z683lkfh2qrpdmfnhfqausx3p","addr1q9t6auk3en7kkxe2pu7vht4yzgws9rk469pu4s2fjh32nwe64ek64p0aylkwy3h4jmqu83hphk0wjlsddnkl6h6xkvhqjmh2vy","addr1vx0l928zuszdgn2qs062tyze320v0vmg3hdszkw3fykwdece25sw8"],"fee":178745,"totalOutput":7321255,"tokens":[]},{"hash":"f47027e57d638f673f4838fa4300d27ba41c987373eea8d9fa906ff8d9813900","blockNo":6858352,"blockHash":"d583e7b8d7f55c2963c3d6bf14b2c99a8099fb5c17ef860c810a668cba6d37a7","epochNo":319,"epochSlotNo":344050,"slot":52788850,"time":"2022/02/08 21:19:01","addressesInput":["addr1vx0l928zuszdgn2qs062tyze320v0vmg3hdszkw3fykwdece25sw8","addr1vx0l928zuszdgn2qs062tyze320v0vmg3hdszkw3fykwdece25sw8"],"addressesOutput":["addr1v864dv80sv5vjfpvu7pd4zlm9ue8z683lkfh2qrpdmfnhfqausx3p","addr1qx6ctyk53vmsqw4dtg9lf7k2dmxdrpapqapxp536y2jzc52f52e4hztcwdawm5wyw7q70zmmutlkvcp9x8w2vp23cl4seanf8s","addr1vx0l928zuszdgn2qs062tyze320v0vmg3hdszkw3fykwdece25sw8"],"fee":178745,"totalOutput":13321255,"tokens":[]},{"hash":"31ccb731082d8f97f6610ed35332c18f9de77855781f503878c4f001a71dd2d2","blockNo":6858343,"blockHash":"4d0095a69198ffa6a09c7bf77ca097ad8eb48114a9d927601df8c7cd83b491f4","epochNo":319,"epochSlotNo":343850,"slot":52788650,"time":"2022/02/08 21:15:41","addressesInput":["addr1vx0l928zuszdgn2qs062tyze320v0vmg3hdszkw3fykwdece25sw8","addr1vx0l928zuszdgn2qs062tyze320v0vmg3hdszkw3fykwdece25sw8"],"addressesOutput":["addr1v864dv80sv5vjfpvu7pd4zlm9ue8z683lkfh2qrpdmfnhfqausx3p","addr1qy8j8f4m5dzwqucxtfs99mfmr0p975jyju7ysgllwxa80c0wn0h3rv97jh40whhqrwms5ad7s0k083vwa4h92z4tnrdswffc9v","addr1vx0l928zuszdgn2qs062tyze320v0vmg3hdszkw3fykwdece25sw8"],"fee":178745,"totalOutput":10321255,"tokens":[]}],"totalItems":563,"totalPages":29,"currentPage":0}