{"data":[{"txId":62167532,"txHash":"59262ea38581c8f6730fcc0a1c3283b6c8248ff1aecf3b2d65f6a0dd89e09191","txTime":"2023/02/16 19:05:43","block":8407725,"epoch":394,"slotNo":85008052,"epochSlotNo":163252,"stakeKey":"stake1uy6v9svtjcsz5fdwgktjqdxs0hkex63a0cavm4jduqv0hucwq06wh"},{"txId":62167374,"txHash":"d8829358806e6903c3bf3d6f7d1c3bfff1c8bbd55f1b181b4964d7dc52cb747b","txTime":"2023/02/16 19:02:03","block":8407717,"epoch":394,"slotNo":85007832,"epochSlotNo":163032,"stakeKey":"stake1uxu7hnevlgah5f42uay9mq8lrgv0v0y2alsvt3ua4s7aeysydy79n"},{"txId":62167345,"txHash":"89ccf9385c30343c67a882f1c4f581b034f91e714883b71979e6f54cd928e48c","txTime":"2023/02/16 19:01:54","block":8407716,"epoch":394,"slotNo":85007823,"epochSlotNo":163023,"stakeKey":"stake1u8rtm3j7x53kmf696uahykyk3fyrwd0dn27mtqlk7xztw8qeswlef"},{"txId":62167326,"txHash":"30c8f9bdb80ceed2d1bc4fb1da9e76615c22ba7d6a37e6cbc8670622fd2cba6f","txTime":"2023/02/16 19:01:54","block":8407716,"epoch":394,"slotNo":85007823,"epochSlotNo":163023,"stakeKey":"stake1u95l5hdnd97l2afcnn902jj84pl5yz7sk7nvcmystczy8qq2fne3w"},{"txId":62167255,"txHash":"1f11badb0f80128f29c5bb58272f67acffc0c0c963ffb14ae27d2d41bb66ee0f","txTime":"2023/02/16 19:00:09","block":8407714,"epoch":394,"slotNo":85007718,"epochSlotNo":162918,"stakeKey":"stake1u8lp4u0s6ffjcaqarwdt6jurx0hj9xsu28q9prle06uefvsrfwn7p"},{"txId":62167212,"txHash":"a998ec1872bbf1af2956279b46eb65ee86a63617741885dee637f48a1a55aaa9","txTime":"2023/02/16 18:58:54","block":8407713,"epoch":394,"slotNo":85007643,"epochSlotNo":162843,"stakeKey":"stake1u9shn008a3g7k7jzy9yc7ude2lhpq99nldrw042g3g6cl2c8j8s30"},{"txId":62167167,"txHash":"a771bc3da50fada4e391fc988fd698a55cadb8941fd38fe76180dbd0e325fa45","txTime":"2023/02/16 18:58:05","block":8407711,"epoch":394,"slotNo":85007594,"epochSlotNo":162794,"stakeKey":"stake1uxqapfsrxms5ftujr8udvrxgrma534d92l24t36e8452xhcysarnc"},{"txId":62166955,"txHash":"dfff1b11e7f8b0f99c4be8fbf9c1805f8e19884225972e576e7981c668800372","txTime":"2023/02/16 18:53:51","block":8407700,"epoch":394,"slotNo":85007340,"epochSlotNo":162540,"stakeKey":"stake1uxd608c6lt26eetnv4rgan4u0j3ac3z5vqxz28x4qrjlujcslhvf9"},{"txId":62166826,"txHash":"3fa535e3aadba410f2047fa79a26438a02705b8fe7baf10a88cbfe6d4925efa2","txTime":"2023/02/16 18:51:27","block":8407692,"epoch":394,"slotNo":85007196,"epochSlotNo":162396,"stakeKey":"stake1u8tqx432wqyx25fheq6djpelkxtg0tpfd0h3lkz3fmzfddqdlfwtd"},{"txId":62166816,"txHash":"62776c0f80b209f34310489c3578d94dbf0d826a9d5deec1e1f52af20f348c2a","txTime":"2023/02/16 18:51:27","block":8407692,"epoch":394,"slotNo":85007196,"epochSlotNo":162396,"stakeKey":"stake1u9sd84aarmgn44a5agal9ngftc6625qxx6fza6lp3s8w54qkxt3dj"},{"txId":62166798,"txHash":"cc726a0ca08f7a7719fd44dd44cb55ac9b832342b77ec283a151e8edba2499dc","txTime":"2023/02/16 18:50:59","block":8407690,"epoch":394,"slotNo":85007168,"epochSlotNo":162368,"stakeKey":"stake1u8kwl0lgjkr90tpzc9k3ayfjeh3nsrftwh862wlkk8mlw3gy2xj7w"},{"txId":62166777,"txHash":"e3270098827c1fbfc2340cad39f276e280be0d41b2f2162031c791928934e130","txTime":"2023/02/16 18:50:48","block":8407689,"epoch":394,"slotNo":85007157,"epochSlotNo":162357,"stakeKey":"stake1uxasq25wv2cl864w49kqrhmgrs256h2hg5tx7qrgdc6gwrqngansl"},{"txId":62166503,"txHash":"ab75c1962478a8fe5fe8dcc101d4311337ef4d6023d9ee721aa526209d5cf0e7","txTime":"2023/02/16 18:45:46","block":8407673,"epoch":394,"slotNo":85006855,"epochSlotNo":162055,"stakeKey":"stake1uxakj4fhqh2dkks9s7reay5gr4rg332lj6rzggeff5sqcfc0u8zvx"},{"txId":62166333,"txHash":"146cf6792217dd72aeb013f740c786702d514c089fe7bba8b37e2408f33ef5e7","txTime":"2023/02/16 18:42:39","block":8407665,"epoch":394,"slotNo":85006668,"epochSlotNo":161868,"stakeKey":"stake1u94m5fe0dzpmx7c76shhu4d97g0jnnmf607axygnn7h7m4stlyfdd"},{"txId":62166214,"txHash":"3188aa12aa72105a42f03575715f247b9ebf412a79bd6079e34eae5581fe4042","txTime":"2023/02/16 18:39:40","block":8407656,"epoch":394,"slotNo":85006489,"epochSlotNo":161689,"stakeKey":"stake1u9qn6mjgthluwmrpezsa9qc0psvxvchtkf0qdkqx2wt8gmqmh87f4"},{"txId":62165952,"txHash":"3764be45c93a5d55401638a8806454f340c35a73a0cb146f89820130fe6efef1","txTime":"2023/02/16 18:34:18","block":8407644,"epoch":394,"slotNo":85006167,"epochSlotNo":161367,"stakeKey":"stake1u898555sl8r767nff23vp5gp3wk0jc3d2dxjqm8jenrkduqt54tgj"},{"txId":62165672,"txHash":"69d80277510f56350b20057c7f5984ebb2c20de49ed3e8f4c677549ee7e836e4","txTime":"2023/02/16 18:28:38","block":8407627,"epoch":394,"slotNo":85005827,"epochSlotNo":161027,"stakeKey":"stake1u9vjclczy9m45fcrj267kjl7luck3vhhsjjwqcj2ax0unxchvt97h"},{"txId":62165670,"txHash":"aa8c67f36e929a8e1283137c4ac4aa6178070d6609d246f20e1fb489e9a94e3a","txTime":"2023/02/16 18:28:33","block":8407626,"epoch":394,"slotNo":85005822,"epochSlotNo":161022,"stakeKey":"stake1uyyev3ghxrmxaxxdv2qkrchlu8jxtt0rd5s3h4mk9kxv9ucksp7x5"},{"txId":62165544,"txHash":"5fe887ff19be8cad7d77b0437899411c8c2f9ff89d92bf315bc32a9a63296f17","txTime":"2023/02/16 18:26:25","block":8407612,"epoch":394,"slotNo":85005694,"epochSlotNo":160894,"stakeKey":"stake1uyaaegts5uz6phg40j3rutcsv0zar40m2jutr56hkmwxmcg709av4"},{"txId":62165444,"txHash":"6a639a1f700b33e968805c129759db1ff60a61b379b6ea7b7004cd5a5b866c94","txTime":"2023/02/16 18:24:05","block":8407605,"epoch":394,"slotNo":85005554,"epochSlotNo":160754,"stakeKey":"stake1u9tm8t37kyggzvfej75gtfs2w8tn2gw7wwc3zf5c0rqllksx6lcm8"}],"totalItems":1666690,"totalPages":83335,"currentPage":0}