{"data":[{"blockNo":8278562,"slotNo":82329220,"epochNo":388,"epochSlotNo":76420,"hash":"058cf5a6f9f365fb2019ff744be2a8cb17b68a174de3b07c371e1957d2cf5e77","time":"2023/01/16 18:58:31","txCount":2,"totalFees":510302,"totalOutput":254801768,"slotLeader":"397f04eb0ae0497d8c4d691844c8c6b026bc942e3f406f26b8e24f48"},{"blockNo":8278561,"slotNo":82329219,"epochNo":388,"epochSlotNo":76419,"hash":"d03d27c19e3e9773882044646c397636b3bb4a8118ede7883ecc525ff0d836b7","time":"2023/01/16 18:58:30","txCount":15,"totalFees":6005749,"totalOutput":1296562090093,"slotLeader":"120ccc012f6b2ef1669acb15d2499cc9a226b6374184d1e322b1aa5f"},{"blockNo":8278560,"slotNo":82329205,"epochNo":388,"epochSlotNo":76405,"hash":"40830901fc5e3abb240f8d49ff9fb8bc2d35995dc65d9af7e7997064e9344dd6","time":"2023/01/16 18:58:16","txCount":0,"totalFees":0,"totalOutput":0,"slotLeader":"82906c841da0f4010b2fa1a2c3726b5571b02eea6abfb48d7c6a4184"},{"blockNo":8278559,"slotNo":82329204,"epochNo":388,"epochSlotNo":76404,"hash":"83968172f40ca65eaca61b3a94896a8bcc2b1e3983a2d806d9818ebc225518d4","time":"2023/01/16 18:58:15","txCount":25,"totalFees":6554582,"totalOutput":138748145080,"slotLeader":"fdc55442d4c89bfa42bb62ac640ed710afd6eb79531e6dbb8459eb46"},{"blockNo":8278558,"slotNo":82329191,"epochNo":388,"epochSlotNo":76391,"hash":"d95efaceb1ac47003372a4e3c89308db623b7751055f943a8eea8f57ede5da43","time":"2023/01/16 18:58:02","txCount":3,"totalFees":597464,"totalOutput":27735756285,"slotLeader":"059b4217a24a8c67a363968ff1db13a17ed96e611362450c115b2415"},{"blockNo":8278557,"slotNo":82329189,"epochNo":388,"epochSlotNo":76389,"hash":"9d0dcf11fcfdf9f38ba64e455d5e722a3d929b6cbd1c3212f2faa08bb656e7b3","time":"2023/01/16 18:58:00","txCount":49,"totalFees":13729448,"totalOutput":399532095051,"slotLeader":"bbebbbf81c42de5b84fbbc82c4feab78f8bd8bcf8b5af7c73a06664a"},{"blockNo":8278556,"slotNo":82329129,"epochNo":388,"epochSlotNo":76329,"hash":"2fc96a83981ae97c1fd7d8d89905f487d94974d518cf4b15d81c1185ca25803a","time":"2023/01/16 18:57:00","txCount":6,"totalFees":2347833,"totalOutput":5501634745,"slotLeader":"c51e4e6cb25065ad0740249c66eafa11e186120602aff1cdca53110a"},{"blockNo":8278555,"slotNo":82329124,"epochNo":388,"epochSlotNo":76324,"hash":"833fd0c53675a4c21081676923ea8042e1580ec6bd1f603d9a2d9b0f7d5cfd19","time":"2023/01/16 18:56:55","txCount":40,"totalFees":13525094,"totalOutput":358640441164,"slotLeader":"48794370608c8d41cf4ad665833da210ad4fed6c6fd40b48bfad9ca8"},{"blockNo":8278554,"slotNo":82329116,"epochNo":388,"epochSlotNo":76316,"hash":"16f5bb4c25f64e288fe9f33b688612aef4d3f6f24db9aec6c8e37f74f39c2753","time":"2023/01/16 18:56:47","txCount":25,"totalFees":10133153,"totalOutput":7622976536738,"slotLeader":"120ccc012f6b2ef1669acb15d2499cc9a226b6374184d1e322b1aa5f"},{"blockNo":8278553,"slotNo":82329071,"epochNo":388,"epochSlotNo":76271,"hash":"cbd623f662d563d0f35b327f2d36f13f4024d46f647fe1315032c78df67c7928","time":"2023/01/16 18:56:02","txCount":22,"totalFees":8180420,"totalOutput":36614003954,"slotLeader":"d5b90a198d2411b5c82fbdfee5f94b86de49a8589bfa7720b9de358f"},{"blockNo":8278552,"slotNo":82329056,"epochNo":388,"epochSlotNo":76256,"hash":"f97ba9c0cb0d243a7b937c53f522ea0ba5d056809f2253d01a22547323fecd48","time":"2023/01/16 18:55:47","txCount":5,"totalFees":1196899,"totalOutput":9416811741,"slotLeader":"94864d27407c1dd0569e4acb9c7fa6ec2cc19a6193d9171f2d811232"},{"blockNo":8278551,"slotNo":82329048,"epochNo":388,"epochSlotNo":76248,"hash":"432f58d58b849d5e9d6301193deedf4d5b6689db200628e47ba1b428a940e391","time":"2023/01/16 18:55:39","txCount":15,"totalFees":4211270,"totalOutput":453989571849,"slotLeader":"3a203ec1a8bae5098be953c3759e9fae42eea3d5714293500c6b3013"},{"blockNo":8278550,"slotNo":82329030,"epochNo":388,"epochSlotNo":76230,"hash":"e58caf57a13791c6e3b2eafe522bfaea4ef105fd79506b6a0ce0270a6ca396bd","time":"2023/01/16 18:55:21","txCount":42,"totalFees":12351789,"totalOutput":2570237282966,"slotLeader":"837a3cf8c96e97bed8e8be6deb390144b46171e3c843b75575d0f788"},{"blockNo":8278549,"slotNo":82328996,"epochNo":388,"epochSlotNo":76196,"hash":"09c0cc8f83eba44c7507f4b81d2d3eb65297205770848d610175dd38c741b7e2","time":"2023/01/16 18:54:47","txCount":35,"totalFees":10036247,"totalOutput":1055324202333,"slotLeader":"c51e4e6cb25065ad0740249c66eafa11e186120602aff1cdca53110a"},{"blockNo":8278548,"slotNo":82328965,"epochNo":388,"epochSlotNo":76165,"hash":"2a089b94f434dc2e5a347a6f49e300e4ee65ec570cffa2204bb872dc2e093b36","time":"2023/01/16 18:54:16","txCount":1,"totalFees":654693,"totalOutput":2864439292,"slotLeader":"da482311081902f95d08bb05d878126904a1e133dd06901e05e652ce"},{"blockNo":8278547,"slotNo":82328963,"epochNo":388,"epochSlotNo":76163,"hash":"7e23441e7d15485510b98e16fdfa64cf65deb85400e1773606aa211775e5bffb","time":"2023/01/16 18:54:14","txCount":16,"totalFees":5255349,"totalOutput":138125547146,"slotLeader":"c2c52eab0d713209b337d8ff8fe28e1ccae2f70eb7ed1ee27e8c866a"},{"blockNo":8278546,"slotNo":82328946,"epochNo":388,"epochSlotNo":76146,"hash":"f57e32055b51e909c7a86bacb615f21acb962c3d3758d606c8d30f4c9c483320","time":"2023/01/16 18:53:57","txCount":1,"totalFees":243909,"totalOutput":76541721,"slotLeader":"d765dee553a7e041d525b1782a10eb0a5e52e96ed55ed173d8bb82a7"},{"blockNo":8278545,"slotNo":82328945,"epochNo":388,"epochSlotNo":76145,"hash":"9421a775015e6ce3ec3458b3f36e00066e3022da1b307d3f5268a7cd5c8206d4","time":"2023/01/16 18:53:56","txCount":2,"totalFees":403271,"totalOutput":275774675530,"slotLeader":"c2e85124c962d9eada3bdf2c0a27a0f5b153bb861c16432daf504dfe"},{"blockNo":8278544,"slotNo":82328944,"epochNo":388,"epochSlotNo":76144,"hash":"dfb6216567407ac9219e239be0c8c93fd25a29d8beb6c310153671aa56e4dcbf","time":"2023/01/16 18:53:55","txCount":45,"totalFees":13849662,"totalOutput":4113541228984,"slotLeader":"e8167261090f590718d0f6fd338c55eac1fecc38da7d14028f1ec67e"},{"blockNo":8278543,"slotNo":82328906,"epochNo":388,"epochSlotNo":76106,"hash":"114ffc26b557f99869a040e14b6877a8f6f7be1ea91f354fc682ed49ac7adf08","time":"2023/01/16 18:53:17","txCount":54,"totalFees":15414646,"totalOutput":4706386092449,"slotLeader":"bbe8aaed7d10e53102f4cd78fd3e504d8ff0c0009243da208893b970"}],"totalItems":8278738,"totalPages":413937,"currentPage":0}