{"data":[{"blockNo":6847390,"slotNo":52558542,"epochNo":319,"epochSlotNo":113742,"hash":"88805f30ea3bb5895ba0f88d3f9c22dc062b644dced3206d8f42df42e75c579e","time":"2022/02/06 05:20:33","txCount":47,"totalFees":14291610,"totalOutput":1023206541971,"slotLeader":"e13efa0c5fa2ac9a8c8603a6f7497f7b44929770aa9737c061981bef"},{"blockNo":6847389,"slotNo":52558508,"epochNo":319,"epochSlotNo":113708,"hash":"e4541c046eff31d94ec71575ea56d2b8297881587b0532b9463b21543ae9250a","time":"2022/02/06 05:19:59","txCount":18,"totalFees":9806197,"totalOutput":1498485622301,"slotLeader":"4f04025065314e75684cd38357ac6af703fcef705d9b4f638e3caf46"},{"blockNo":6847388,"slotNo":52558506,"epochNo":319,"epochSlotNo":113706,"hash":"8b7c630523c6bbe874ffdd2665dbba695a5eaff534bd784819faa001d5fb540a","time":"2022/02/06 05:19:57","txCount":61,"totalFees":17480868,"totalOutput":223601157037,"slotLeader":"768a4abe40bf4ec986087a6f356984da85ac3b8388dfa6840e3cdcf7"},{"blockNo":6847387,"slotNo":52558462,"epochNo":319,"epochSlotNo":113662,"hash":"1f9c5cdc10cc2aa8229fb6f9154e96b2d1489e0d3348b59078e9171d1ad2c466","time":"2022/02/06 05:19:13","txCount":18,"totalFees":9739082,"totalOutput":121431957346,"slotLeader":"57eb48cdf25980039f087207af09fafb4970018e322d37c11c9a2496"},{"blockNo":6847386,"slotNo":52558405,"epochNo":319,"epochSlotNo":113605,"hash":"e3082e8bb24a25b3c0f205f89b8c1de035b9cfdcd7d17f00a5f12a13dd607b35","time":"2022/02/06 05:18:16","txCount":28,"totalFees":12197463,"totalOutput":37229239651,"slotLeader":"c779f67a0f3a1f2985626e345013015f71cf245dbcc8ac8457f42e56"},{"blockNo":6847385,"slotNo":52558383,"epochNo":319,"epochSlotNo":113583,"hash":"73a7aa1aa6d5e199f604440864876523d4628cf204f4fe2858bdef86c8fbd33a","time":"2022/02/06 05:17:54","txCount":17,"totalFees":9197933,"totalOutput":621777052111,"slotLeader":"bc00a90f9f448be5cfaa4e76dbc13353b83b59cb3f2c5e321555ca28"},{"blockNo":6847384,"slotNo":52558379,"epochNo":319,"epochSlotNo":113579,"hash":"a6423368c760121d2d6e4ca4d7a5a9994f31cc8f4331e1bf1bd7afec332f7942","time":"2022/02/06 05:17:50","txCount":19,"totalFees":9256106,"totalOutput":33722104258,"slotLeader":"88ad8407d0ca94fae8254604b29fbc2c5ae3d00a47b7117664ad849d"},{"blockNo":6847383,"slotNo":52558333,"epochNo":319,"epochSlotNo":113533,"hash":"e148f1c517bf147b062be2ef1007ca8b973d1d8e94311d4fa1ffc72ec1b6c546","time":"2022/02/06 05:17:04","txCount":26,"totalFees":10773876,"totalOutput":1726003785,"slotLeader":"76bfa1b2e6593740c3388ed881cbe851dbab8d8741652c9bad16cc94"},{"blockNo":6847382,"slotNo":52558327,"epochNo":319,"epochSlotNo":113527,"hash":"731e99a786befd22d6392cbeed4856c7feb026a939a31277c9e8a4739d3138d9","time":"2022/02/06 05:16:58","txCount":39,"totalFees":15337306,"totalOutput":141859115242,"slotLeader":"fb4b7b76ea6d857f442cb9569d186f328fc846bb83222c3150ec3346"},{"blockNo":6847381,"slotNo":52558324,"epochNo":319,"epochSlotNo":113524,"hash":"b28903ea1412cf0bf112da1a4f7202b199e2c2762e7eaff6b88143265e8354ed","time":"2022/02/06 05:16:55","txCount":36,"totalFees":12509691,"totalOutput":1007966348898,"slotLeader":"4511bcca3896bcb6d43b66fb89fe079f00f44bed505c9ca232704dc9"}],"totalItems":5292,"totalPages":530,"currentPage":0}