{"data":[{"txId":59990073,"txHash":"84c5c2c1069293330d624c2a3223f8dffc2f5d23a1994eadc8433533cd5e9765","txTime":"2023/01/18 09:37:11","block":8285497,"epoch":388,"slotNo":82468340,"epochSlotNo":215540,"stakeKey":"stake1u9pah9ghw5vmn6zrsyfp5rxl8mrc26e98wvng4zht2rqyssvw63pp"},{"txId":59990028,"txHash":"8881fb646b0b076cdb2fa69d165a6eacd277f96d1aedad47395424e972e17021","txTime":"2023/01/18 09:36:07","block":8285492,"epoch":388,"slotNo":82468276,"epochSlotNo":215476,"stakeKey":"stake1u9pah9ghw5vmn6zrsyfp5rxl8mrc26e98wvng4zht2rqyssvw63pp"},{"txId":59989023,"txHash":"c0698cbfd1b9c35207ee3369cd65dba46fb33c925878b905e645f1818050d17b","txTime":"2023/01/18 09:05:46","block":8285404,"epoch":388,"slotNo":82466455,"epochSlotNo":213655,"stakeKey":"stake1uyepy0mfk6v3l87gkr9c43a0a9v7w5smxf9swltckf2ccpg73tw3m"},{"txId":59988225,"txHash":"a4bee316f59e3a8afd54fd87a87930f33fab473974e61b433c2c594fb73afea9","txTime":"2023/01/18 08:39:41","block":8285322,"epoch":388,"slotNo":82464890,"epochSlotNo":212090,"stakeKey":"stake1u88ef3m70hjdd05whgd707dw35tznfmwlap4ye429ea7g3gaypez0"},{"txId":59988075,"txHash":"beee4b3a238aa83fa1c04766086b9a82c78502d75e3bf62512915961535721e0","txTime":"2023/01/18 08:36:22","block":8285312,"epoch":388,"slotNo":82464691,"epochSlotNo":211891,"stakeKey":"stake1u9n4edx2dfyqyx0dhq89vkawdd6s0p7nw5u7qg6lfkkejcg6av5v3"},{"txId":59987725,"txHash":"025cf894177f139ef99fa78f4591e15444527dc93895436bc1f6c76fbdd9496d","txTime":"2023/01/18 08:25:31","block":8285278,"epoch":388,"slotNo":82464040,"epochSlotNo":211240,"stakeKey":"stake1u9pah9ghw5vmn6zrsyfp5rxl8mrc26e98wvng4zht2rqyssvw63pp"},{"txId":59987401,"txHash":"efac7b2d1f32f0784e64eea87e1ea32b35253ff7f79a6c7e3b10b38b283321f4","txTime":"2023/01/18 08:16:24","block":8285245,"epoch":388,"slotNo":82463493,"epochSlotNo":210693,"stakeKey":"stake1u9urgayg6x56f22u6n8fwlk8a0fecjn3suzmyhuax3q4csquu7tph"},{"txId":59987354,"txHash":"47b7466785a5ae2db1e3dc672cfe0ea1cc4d8b4593b64536abdc4583716cd051","txTime":"2023/01/18 08:14:51","block":8285237,"epoch":388,"slotNo":82463400,"epochSlotNo":210600,"stakeKey":"stake1u9pah9ghw5vmn6zrsyfp5rxl8mrc26e98wvng4zht2rqyssvw63pp"},{"txId":59987315,"txHash":"bafa26fd6bce34a31f86f695f346a40c5ce1af6879879c560e8f1deb07d91f9a","txTime":"2023/01/18 08:13:57","block":8285232,"epoch":388,"slotNo":82463346,"epochSlotNo":210546,"stakeKey":"stake1uy3rwjfrzeaft0r3828fpmn7773easp9ahhnsd2gjyuxwfsw8kngg"},{"txId":59987203,"txHash":"444796cbf68debc554a771f3518ebe5801ad399b5518a97fd8cecf6ec9dcc11e","txTime":"2023/01/18 08:10:21","block":8285221,"epoch":388,"slotNo":82463130,"epochSlotNo":210330,"stakeKey":"stake1u8q6sq6zwyc8dh6ghfqn0yxhc8c5r3uw0kkwzcpt6nzlcvc3fj4cv"},{"txId":59987114,"txHash":"ce2187d4693d834edf545c8409f05d099d25f6b98c8c1fd385c5d1cc18f5f15e","txTime":"2023/01/18 08:07:10","block":8285208,"epoch":388,"slotNo":82462939,"epochSlotNo":210139,"stakeKey":"stake1uyax06nd04j4klekzx7mpfkjfftd8m9ueualp6x3ky5gz4cc3ezhc"},{"txId":59986929,"txHash":"e9be1bdcd6922a678ad34127d342812c70fcd188c0bc1b77a57235c1d6d708d2","txTime":"2023/01/18 08:02:01","block":8285188,"epoch":388,"slotNo":82462630,"epochSlotNo":209830,"stakeKey":"stake1uywuh4g0n5r7luckctumtzw700xu2scjz9ecncunv4vu74cxrpfuc"},{"txId":59986724,"txHash":"ed68d16dfd005d9a4d3bb7662d526cf9ed8f723c33920d810e410ae892832135","txTime":"2023/01/18 07:54:56","block":8285174,"epoch":388,"slotNo":82462205,"epochSlotNo":209405,"stakeKey":"stake1u9lg3cm7myy2kfgg9wmhtuf57tuh0auu0a0ecfzfj8euptq47wmca"},{"txId":59986608,"txHash":"63bc6ef4e4c8c5ff1b82ec5038ca5de00f9224da3eaade2bb797dd661d974d0f","txTime":"2023/01/18 07:52:10","block":8285161,"epoch":388,"slotNo":82462039,"epochSlotNo":209239,"stakeKey":"stake1uyacawqhx4wnjm0e0vw2qkvamf45xavgey6s06m6u9ee66cmnr97r"},{"txId":59986130,"txHash":"cc438b63030cd1d3397f4080029ab5fb635632835d4b9375c6313df3571c8cdb","txTime":"2023/01/18 07:39:41","block":8285110,"epoch":388,"slotNo":82461290,"epochSlotNo":208490,"stakeKey":"stake1u8wq67a4yfkny0wvune8glaylywp6atwq93fmk6ppxmm45sjrr9xk"},{"txId":59985815,"txHash":"01027553131250c5a1d8c0219b5950e9a79c67d74f3c258cae2d871522bb0118","txTime":"2023/01/18 07:29:54","block":8285080,"epoch":388,"slotNo":82460703,"epochSlotNo":207903,"stakeKey":"stake1u9m7m8s93c5rm7kc3yemltre5d8aqwruuga8uywkd384gncn5yrku"},{"txId":59985724,"txHash":"74f35fbda29397982dae8bf9bca7e000866050abe3f4b7d492b26ed61fe8b878","txTime":"2023/01/18 07:26:46","block":8285071,"epoch":388,"slotNo":82460515,"epochSlotNo":207715,"stakeKey":"stake1uxwqsy7p6a3hvjp7azg0drv2q2z8pw80jc6qfc95avrum0glmqfhr"},{"txId":59985413,"txHash":"6cb638681573f23b359bf0ee158b2033187896233704be13f3dd091c1f1d500a","txTime":"2023/01/18 07:15:09","block":8285044,"epoch":388,"slotNo":82459818,"epochSlotNo":207018,"stakeKey":"stake1u8x7jt3cfg6mm6ktd2z5xd9jx046gdc8c600ed0k6uwcz7g24x7wn"},{"txId":59985325,"txHash":"ea5ee639b837b981fbe759ab5151e27195fab1418c9a86f822db3841a9377027","txTime":"2023/01/18 07:12:00","block":8285034,"epoch":388,"slotNo":82459629,"epochSlotNo":206829,"stakeKey":"stake1ux8k7xhcq55qyqvjx6awlkjkn2t637rslh8e7c9lphwq20czw0ech"},{"txId":59984971,"txHash":"ce4d6c23670020836cdad183940897dd55b504ba405ea7dc093fa67e35a3ed30","txTime":"2023/01/18 07:01:34","block":8285004,"epoch":388,"slotNo":82459003,"epochSlotNo":206203,"stakeKey":"stake1u84kp50wtrv3tdcxr873z00y5snv6r4jmjdxqgr4s4t6pqsqmwtt2"}],"totalItems":345752,"totalPages":17288,"currentPage":0}