{"data":[{"txId":59823790,"txHash":"c31242b0af6fe517542ea5b0d696044f4c20e64b19c22ee4158a3a0a8479e408","txTime":"2023/01/16 07:35:08","block":8276511,"epoch":388,"slotNo":82288217,"epochSlotNo":35417,"stakeKey":"stake1u9j7s8gch3q44qpywsst2vmla6f27kml9lmfua5n8rdc7psdwwayr"},{"txId":59823764,"txHash":"da23ee385ff997998b92a14de0b8a449146086b89ddc93ba8da968c1dbd3f886","txTime":"2023/01/16 07:34:37","block":8276508,"epoch":388,"slotNo":82288186,"epochSlotNo":35386,"stakeKey":"stake1uxsnxun7j7hxqhztsdeyscv3a5gun7s63e45rtgd7urjsnc5a3une"},{"txId":59823613,"txHash":"1ff208b484719cacbaa50254512d93fffccfb5375b624305e4435ff50cf93a41","txTime":"2023/01/16 07:30:58","block":8276497,"epoch":388,"slotNo":82287967,"epochSlotNo":35167,"stakeKey":"stake1uyxczekv5a68xqekvpks5076yy0ea6976u0l2uuw5255a7sc8hnwn"},{"txId":59823401,"txHash":"cf831df025b9a58b9e56c9be58365eef0e42f6972bf7a286682ea6e12e41c314","txTime":"2023/01/16 07:25:48","block":8276489,"epoch":388,"slotNo":82287657,"epochSlotNo":34857,"stakeKey":"stake1u9yla5s9m2vksj48s8xayxqwnt57zky67jugr8dmcaqf6csg0xfky"},{"txId":59823329,"txHash":"7d0d252a069b5ac3e09667cf070b3487752085c888ebcf1021a6a1e4698c9afa","txTime":"2023/01/16 07:24:19","block":8276481,"epoch":388,"slotNo":82287568,"epochSlotNo":34768,"stakeKey":"stake1uxpqtvhv9lt5tmasmkd5yhwkemuukd9gfh47nskzfwmwtvq3watxy"},{"txId":59822997,"txHash":"dd0770cdc935defc79596bdbf74ab6874e22921c5b562ebfb760430d9c03445c","txTime":"2023/01/16 07:16:12","block":8276457,"epoch":388,"slotNo":82287081,"epochSlotNo":34281,"stakeKey":"stake1u89hwqy2yw0rzg7ryx7xj0qs0djysvtxeykcr6mtxqr2x8gvz2zsw"},{"txId":59822977,"txHash":"824819c101b508b5daac56c6f891113f37aef38884cc16af26af2f1b877cf7c4","txTime":"2023/01/16 07:16:12","block":8276457,"epoch":388,"slotNo":82287081,"epochSlotNo":34281,"stakeKey":"stake1uyswth5x5n3v0ppx50x3v9yvfem4ddpn6whw9vh7lhr5a6q9ft376"},{"txId":59822967,"txHash":"8f6a44cc4dd2a037f60a90518f38c345b9e4733933f7a379be7461952e412af8","txTime":"2023/01/16 07:15:36","block":8276455,"epoch":388,"slotNo":82287045,"epochSlotNo":34245,"stakeKey":"stake1ux7066hwxphjflwtvlpd8j23ugp6lnprqclzh3e9snsk35cgsgwwt"},{"txId":59822890,"txHash":"c8d1fd8fa43dd6a3132713854f550c77a76c91fe6c55e943fa0b08be093a8e0a","txTime":"2023/01/16 07:14:10","block":8276449,"epoch":388,"slotNo":82286959,"epochSlotNo":34159,"stakeKey":"stake1u9wwcddatm2k2l5g6ym8ttugw59gnyk2pqhvnfq6dhc72agzfdafp"},{"txId":59822814,"txHash":"41a90c80b27eb3fc1155399e6cdf248991cee443ca0102e7c9fa3c2590aacf5b","txTime":"2023/01/16 07:12:15","block":8276445,"epoch":388,"slotNo":82286844,"epochSlotNo":34044,"stakeKey":"stake1u9r7mqgenvq7r8c7zy49ru9lme7h7w2h0crrq2z42cqt3mc9qfym6"},{"txId":59822226,"txHash":"1475a771a6f122f43b8950987bb009c8bd5bb06f4936b734ea2144ae65d4e381","txTime":"2023/01/16 06:59:36","block":8276416,"epoch":388,"slotNo":82286085,"epochSlotNo":33285,"stakeKey":"stake1u9efz7ll8ca7gmt4p6pqhaepq8w366eakjs2cn06fel30rs23cgug"},{"txId":59822148,"txHash":"77a7f4f54fed89feece24b96f48cc8fed624b0d10e4fc904bda8a19dfc96a0b2","txTime":"2023/01/16 06:57:39","block":8276412,"epoch":388,"slotNo":82285968,"epochSlotNo":33168,"stakeKey":"stake1u8053xr7uqcmjrsggju5sqjyr3m4wtm3vjxqdf9gg45k8qg9qthzq"},{"txId":59821933,"txHash":"cb0bfab02b54d7f58033c6773b3d200cca6bed942d923eeeef932cbfdf3de575","txTime":"2023/01/16 06:52:54","block":8276398,"epoch":388,"slotNo":82285683,"epochSlotNo":32883,"stakeKey":"stake1uxgu8d7dr9m97p56fqqdx5y2ujeavewenjgl3vv3drh7jvgp7qqkq"},{"txId":59821725,"txHash":"cfc605d4aa87c51ae3de06bcffd31d5b49919b887549a5af8de401c7d44607d8","txTime":"2023/01/16 06:48:44","block":8276385,"epoch":388,"slotNo":82285433,"epochSlotNo":32633,"stakeKey":"stake1u8krgh7972ryntwt82w4dsp932tad2ru0hrz60y47k5tmpcv3npml"},{"txId":59821682,"txHash":"6d9bcca882bc267ca6e875ce794eb07e9056f9bfacdebfb293930e4d68c2b0a2","txTime":"2023/01/16 06:46:39","block":8276379,"epoch":388,"slotNo":82285308,"epochSlotNo":32508,"stakeKey":"stake1uyrk6a49t5lk7qxrjx4cygrqcwt6c6pkwmackqexjhtpyhqpsgl0t"},{"txId":59821512,"txHash":"7a66be79660afd19e43060cd218eaa86f4c356529cc99e016b4f49a868a95f27","txTime":"2023/01/16 06:42:44","block":8276371,"epoch":388,"slotNo":82285073,"epochSlotNo":32273,"stakeKey":"stake1uxu586p2drprme5hf5d63j76kjv6f0mzerth3wpfax9c8vsprl0sn"},{"txId":59821477,"txHash":"dabdb398f50840c95dbeaefd399f4626c3a7b2da2c2860b7ce8859a0bd229727","txTime":"2023/01/16 06:41:36","block":8276369,"epoch":388,"slotNo":82285005,"epochSlotNo":32205,"stakeKey":"stake1uy3ca3ck0zkg7w68xru0qywgej4pl0w0uqt0denmenkuyzslx39mf"},{"txId":59821426,"txHash":"b80dcbf0a7affeeba9f99bde285b255c2fea4fdb7ed362c355d20bdc212da7e7","txTime":"2023/01/16 06:40:40","block":8276368,"epoch":388,"slotNo":82284949,"epochSlotNo":32149,"stakeKey":"stake1u86swfkv50xfj0nscg5w2224fh4wqaxfaj8myym238ap5fczn4z6f"},{"txId":59821187,"txHash":"5247acfcb145cad4bc55d6571093fdc3ec29fabb2332257b722da6fcf5105555","txTime":"2023/01/16 06:33:54","block":8276350,"epoch":388,"slotNo":82284543,"epochSlotNo":31743,"stakeKey":"stake1uxqd7ak9w2hfuauffwv92l89d0aj7uaa2euuvn4wfqayxfgj08hjn"},{"txId":59820765,"txHash":"b0d88ac7bd9ad8f01f931cd72e8e060b2776d3e545d0dc9d1a1c152eca5da0f5","txTime":"2023/01/16 06:23:44","block":8276316,"epoch":388,"slotNo":82283933,"epochSlotNo":31133,"stakeKey":"stake1uyr4vjhx3sv9jlzlch08790dssnq55wf7w3g7g3yx6zys7sycdxcm"}],"totalItems":345229,"totalPages":17262,"currentPage":0}