{"data":[{"blockNo":8097934,"slotNo":78623972,"epochNo":379,"epochSlotNo":259172,"hash":"2e43be81092d0e6f22938bb20e742d2c32c6e5f94c6c18bcc55f88e4c8159afd","time":"2022/12/04 21:44:23","txCount":22,"totalFees":7211984,"totalOutput":180607618081,"slotLeader":"ed40b0a319f639a70b1e2a4de00f112c4f7b7d4849f0abd25c4336a4"},{"blockNo":8097933,"slotNo":78623947,"epochNo":379,"epochSlotNo":259147,"hash":"2708a7790b056fc82535fa296f6c0e3ed3f058ed19e6e57bd6ffb96749f721d9","time":"2022/12/04 21:43:58","txCount":29,"totalFees":11156018,"totalOutput":136046153789277,"slotLeader":"71a659c3e71b0ddd0cf9a67bdb3f7fd656934c4a995801ee0ea4c482"},{"blockNo":8097932,"slotNo":78623923,"epochNo":379,"epochSlotNo":259123,"hash":"d1df5a4b67137f3792c8f275fc18b083716c31cacf63bf6f1c4157327aa4fa6d","time":"2022/12/04 21:43:34","txCount":4,"totalFees":1034045,"totalOutput":697747382,"slotLeader":"fd30f95effb4f28920020901e3a4ad04f4d3585bc46953de762e8c0c"},{"blockNo":8097931,"slotNo":78623919,"epochNo":379,"epochSlotNo":259119,"hash":"716f1f332f1b0e85e5283f6cc24d5b8cfad24664e23275fbf747ebd5e0f517fd","time":"2022/12/04 21:43:30","txCount":17,"totalFees":5857667,"totalOutput":397743120359,"slotLeader":"b573268bf369e3f3a4e6dd16fdd78ca01eb164c1daa29d611ef885d2"},{"blockNo":8097930,"slotNo":78623908,"epochNo":379,"epochSlotNo":259108,"hash":"6c8dd68e4b805a0b686597b8b26ed846d69dbcb766fd225ae063f0d62b3e8be0","time":"2022/12/04 21:43:19","txCount":10,"totalFees":2310949,"totalOutput":1164710241,"slotLeader":"7d45120fc9e82f8b69d886057d80630b721e8f033cb8e3f26621d7bd"},{"blockNo":8097929,"slotNo":78623896,"epochNo":379,"epochSlotNo":259096,"hash":"a987a118e005df7ef5b03ae29f6534f66dcc7466c5b46e1c0f8c45d86ea0186e","time":"2022/12/04 21:43:07","txCount":26,"totalFees":6321261,"totalOutput":11772263822479,"slotLeader":"4ee9e4c2ec6fc68850330dbc75ccd7ebf7951f20e1085d324f36cf44"},{"blockNo":8097928,"slotNo":78623856,"epochNo":379,"epochSlotNo":259056,"hash":"d22f756eddf062d05a62569a2c6c9e9bd0359265101d1dd7a471aafaed3f1159","time":"2022/12/04 21:42:27","txCount":8,"totalFees":1652603,"totalOutput":129053461924,"slotLeader":"83ea16a7f183288173077c54a1e2b3cbcd0f2336e1bc85e2cc6397e0"},{"blockNo":8097927,"slotNo":78623848,"epochNo":379,"epochSlotNo":259048,"hash":"9253d639e515d52642da074e96a62d8bd0ad5bc17b835cad96d1b410a2fc8df4","time":"2022/12/04 21:42:19","txCount":47,"totalFees":15113748,"totalOutput":34248854115033,"slotLeader":"0338d4f1c5e8ebee0689e22148c1483d411c5587d0ab986b8e824428"},{"blockNo":8097926,"slotNo":78623796,"epochNo":379,"epochSlotNo":258996,"hash":"c1b220b284f5a1420f86eefbe5db00e77b98ccb66d3d0062f016c6cc5e9dba52","time":"2022/12/04 21:41:27","txCount":4,"totalFees":1072599,"totalOutput":416430408,"slotLeader":"3d5f6d2a147cf3c97aed0d7ea973e6a95abdf94255025bdf470c9809"},{"blockNo":8097925,"slotNo":78623789,"epochNo":379,"epochSlotNo":258989,"hash":"af12f181905e7c5a26e0cc359248d5c5809d6367153dd844833f82c4b5ebdf92","time":"2022/12/04 21:41:20","txCount":18,"totalFees":4624866,"totalOutput":3118623707481,"slotLeader":"463e481957f266d93e4decbfb73003380ab17223e0e569f71c7a525a"}],"totalItems":12559,"totalPages":1256,"currentPage":0}