{"data":[{"hash":"89a1894e75fb5ff1885914616eec6dfb77bd13c99f4e2ed64ad2e152e105d283","blockNo":8296588,"blockHash":"647101885784ce32f09427a5d6f70c357b2cdbec28a6252ea65f0b2d6cca2752","epochNo":389,"epochSlotNo":13025,"slot":82697825,"time":"2023/01/21 01:21:56","addressesInput":["addr1q8666dyqryw9vyww0ssfa2dh0ranvp7jeuyq7m7rvn9rsucru0hmt6lm0357nu3a0h9njudcpzkvfuf8xvjpsahdvsqsvwls9y"],"addressesOutput":["addr1q9xknjeuf500tuxtkswgp6rf3umtjakqv6lkxkv0z82525xm62s029f6p260j97qju6fzj0402q4qucst2lfd6nh8m3q3724gz","addr1q8666dyqryw9vyww0ssfa2dh0ranvp7jeuyq7m7rvn9rsucru0hmt6lm0357nu3a0h9njudcpzkvfuf8xvjpsahdvsqsvwls9y"],"fee":169417,"totalOutput":23044077496,"tokens":[]},{"hash":"0dfb1bc525f330b0e3f779506e6fee6a474aca8f29f010eb32b547d2f292e2f1","blockNo":8296588,"blockHash":"647101885784ce32f09427a5d6f70c357b2cdbec28a6252ea65f0b2d6cca2752","epochNo":389,"epochSlotNo":13025,"slot":82697825,"time":"2023/01/21 01:21:56","addressesInput":["addr1qxkmr0m22xeqludcg5rjdmecjxasu9fat0680qehtcsnftaadgykewa9ufvegeuca9yyq03d9v7ea2y2zthgu7hfgjtsddp6gr","addr1qxkmr0m22xeqludcg5rjdmecjxasu9fat0680qehtcsnftaadgykewa9ufvegeuca9yyq03d9v7ea2y2zthgu7hfgjtsddp6gr","addr1qxkmr0m22xeqludcg5rjdmecjxasu9fat0680qehtcsnftaadgykewa9ufvegeuca9yyq03d9v7ea2y2zthgu7hfgjtsddp6gr"],"addressesOutput":["addr1qxkmr0m22xeqludcg5rjdmecjxasu9fat0680qehtcsnftaadgykewa9ufvegeuca9yyq03d9v7ea2y2zthgu7hfgjtsddp6gr","addr1qxr7dhuhudt9j6pfzhnayse2x38kdct6jr7lr738dd39xqz660vf6aszws2gvv7galrlug6k5ydy5jrepnnvcxs7026s50ywy3","addr1qxkmr0m22xeqludcg5rjdmecjxasu9fat0680qehtcsnftaadgykewa9ufvegeuca9yyq03d9v7ea2y2zthgu7hfgjtsddp6gr"],"fee":241049,"totalOutput":56053593366,"tokens":[]},{"hash":"1f2db6dc86fe0e25250165b06a35345dfbe75f53f2a57133c145574404acef7d","blockNo":8296588,"blockHash":"647101885784ce32f09427a5d6f70c357b2cdbec28a6252ea65f0b2d6cca2752","epochNo":389,"epochSlotNo":13025,"slot":82697825,"time":"2023/01/21 01:21:56","addressesInput":["addr1qynhnys67sm40sly6ltedjw40xu27ghnuyu0cm9qrkmujzpt8mf858zjg06vq2jhyd74fnc67e23eyw83225r6hjy69smymflt","addr1qynhnys67sm40sly6ltedjw40xu27ghnuyu0cm9qrkmujzpt8mf858zjg06vq2jhyd74fnc67e23eyw83225r6hjy69smymflt","addr1qynhnys67sm40sly6ltedjw40xu27ghnuyu0cm9qrkmujzpt8mf858zjg06vq2jhyd74fnc67e23eyw83225r6hjy69smymflt","addr1qynhnys67sm40sly6ltedjw40xu27ghnuyu0cm9qrkmujzpt8mf858zjg06vq2jhyd74fnc67e23eyw83225r6hjy69smymflt","addr1qynhnys67sm40sly6ltedjw40xu27ghnuyu0cm9qrkmujzpt8mf858zjg06vq2jhyd74fnc67e23eyw83225r6hjy69smymflt","addr1qynhnys67sm40sly6ltedjw40xu27ghnuyu0cm9qrkmujzpt8mf858zjg06vq2jhyd74fnc67e23eyw83225r6hjy69smymflt","addr1qynhnys67sm40sly6ltedjw40xu27ghnuyu0cm9qrkmujzpt8mf858zjg06vq2jhyd74fnc67e23eyw83225r6hjy69smymflt","addr1qynhnys67sm40sly6ltedjw40xu27ghnuyu0cm9qrkmujzpt8mf858zjg06vq2jhyd74fnc67e23eyw83225r6hjy69smymflt","addr1qynhnys67sm40sly6ltedjw40xu27ghnuyu0cm9qrkmujzpt8mf858zjg06vq2jhyd74fnc67e23eyw83225r6hjy69smymflt","addr1qynhnys67sm40sly6ltedjw40xu27ghnuyu0cm9qrkmujzpt8mf858zjg06vq2jhyd74fnc67e23eyw83225r6hjy69smymflt","addr1qynhnys67sm40sly6ltedjw40xu27ghnuyu0cm9qrkmujzpt8mf858zjg06vq2jhyd74fnc67e23eyw83225r6hjy69smymflt","addr1qynhnys67sm40sly6ltedjw40xu27ghnuyu0cm9qrkmujzpt8mf858zjg06vq2jhyd74fnc67e23eyw83225r6hjy69smymflt","addr1qynhnys67sm40sly6ltedjw40xu27ghnuyu0cm9qrkmujzpt8mf858zjg06vq2jhyd74fnc67e23eyw83225r6hjy69smymflt","addr1qynhnys67sm40sly6ltedjw40xu27ghnuyu0cm9qrkmujzpt8mf858zjg06vq2jhyd74fnc67e23eyw83225r6hjy69smymflt","addr1qynhnys67sm40sly6ltedjw40xu27ghnuyu0cm9qrkmujzpt8mf858zjg06vq2jhyd74fnc67e23eyw83225r6hjy69smymflt","addr1qynhnys67sm40sly6ltedjw40xu27ghnuyu0cm9qrkmujzpt8mf858zjg06vq2jhyd74fnc67e23eyw83225r6hjy69smymflt","addr1qynhnys67sm40sly6ltedjw40xu27ghnuyu0cm9qrkmujzpt8mf858zjg06vq2jhyd74fnc67e23eyw83225r6hjy69smymflt","addr1qynhnys67sm40sly6ltedjw40xu27ghnuyu0cm9qrkmujzpt8mf858zjg06vq2jhyd74fnc67e23eyw83225r6hjy69smymflt","addr1qynhnys67sm40sly6ltedjw40xu27ghnuyu0cm9qrkmujzpt8mf858zjg06vq2jhyd74fnc67e23eyw83225r6hjy69smymflt"],"addressesOutput":["addr1zxgx3far7qygq0k6epa0zcvcvrevmn0ypsnfsue94nsn3tvpw288a4x0xf8pxgcntelxmyclq83s0ykeehchz2wtspks905plm","addr1qynhnys67sm40sly6ltedjw40xu27ghnuyu0cm9qrkmujzpt8mf858zjg06vq2jhyd74fnc67e23eyw83225r6hjy69smymflt","addr1qynhnys67sm40sly6ltedjw40xu27ghnuyu0cm9qrkmujzpt8mf858zjg06vq2jhyd74fnc67e23eyw83225r6hjy69smymflt","addr1qynhnys67sm40sly6ltedjw40xu27ghnuyu0cm9qrkmujzpt8mf858zjg06vq2jhyd74fnc67e23eyw83225r6hjy69smymflt","addr1qynhnys67sm40sly6ltedjw40xu27ghnuyu0cm9qrkmujzpt8mf858zjg06vq2jhyd74fnc67e23eyw83225r6hjy69smymflt","addr1qynhnys67sm40sly6ltedjw40xu27ghnuyu0cm9qrkmujzpt8mf858zjg06vq2jhyd74fnc67e23eyw83225r6hjy69smymflt"],"fee":265513,"totalOutput":5433906438,"tokens":[]},{"hash":"f338f7658c068c852b08d6d44bda199bbf3aa049950b1976752b8e25c019d2c5","blockNo":8296587,"blockHash":"adf00693c165218af27707105be8505389d9afb31385e8a0db0153cd57ef49eb","epochNo":389,"epochSlotNo":13020,"slot":82697820,"time":"2023/01/21 01:21:51","addressesInput":["addr1zxgx3far7qygq0k6epa0zcvcvrevmn0ypsnfsue94nsn3tvpw288a4x0xf8pxgcntelxmyclq83s0ykeehchz2wtspks905plm","addr1qxk7k6ehkwg5kzmtylcng2rkl7lkmjwhdkjxtdylulr6x6dy7wgy2ag9ynutpgacjdu87negv5t44y5qz0c0cl8ygytqup9adk"],"addressesOutput":["addr1q8fzrfwgscjcz67lgrm4wp3yvvqtals23uwte3zsz5dg8tclwerkt6vczxc5zhatmdr3uure4qp096pa0k2xd8edyvxsnqez68","addr1q9cwvremt6n320s2e3agq0jyq82yhrk3htsu0w426xnz5us70z4w0jgvcdkkynmm8wmds66jd9kusnjfpu6raw5fqp0sr07p5w","addr1q86trfvaqrj4q8dmtdnxrnnuk8466xdq08juespttq5c40aefqnyz6043s5ljjrpjpjfkny60h0fu0c6fnta7scjnddqdgd0yw","addr1qxk7k6ehkwg5kzmtylcng2rkl7lkmjwhdkjxtdylulr6x6dy7wgy2ag9ynutpgacjdu87negv5t44y5qz0c0cl8ygytqup9adk","addr1qxk7k6ehkwg5kzmtylcng2rkl7lkmjwhdkjxtdylulr6x6dy7wgy2ag9ynutpgacjdu87negv5t44y5qz0c0cl8ygytqup9adk"],"fee":396593,"totalOutput":98125573,"tokens":[]},{"hash":"8c4d8fd6fbf8cb3927bdc8c21280574e608c9d528e3f9b60d44618c3cdd032fd","blockNo":8296587,"blockHash":"adf00693c165218af27707105be8505389d9afb31385e8a0db0153cd57ef49eb","epochNo":389,"epochSlotNo":13020,"slot":82697820,"time":"2023/01/21 01:21:51","addressesInput":["addr1q8s9dgu8jg9mkmf2kz5kzyhrkuakcz6l3phg8rdt3qj6m0pgldvsylvqdz0r5r778pkfsl2nxyhqvhle9vkp8aqxd4aqt33tvp","addr1zxgx3far7qygq0k6epa0zcvcvrevmn0ypsnfsue94nsn3tvpw288a4x0xf8pxgcntelxmyclq83s0ykeehchz2wtspks905plm"],"addressesOutput":["addr1q8s9dgu8jg9mkmf2kz5kzyhrkuakcz6l3phg8rdt3qj6m0pgldvsylvqdz0r5r778pkfsl2nxyhqvhle9vkp8aqxd4aqt33tvp","addr1q8s9dgu8jg9mkmf2kz5kzyhrkuakcz6l3phg8rdt3qj6m0pgldvsylvqdz0r5r778pkfsl2nxyhqvhle9vkp8aqxd4aqt33tvp"],"fee":267196,"totalOutput":24796745,"tokens":[]},{"hash":"17508cf1fb186d33fd1c97405918f691883e68a69f941d4a332c43fcd27beacc","blockNo":8296587,"blockHash":"adf00693c165218af27707105be8505389d9afb31385e8a0db0153cd57ef49eb","epochNo":389,"epochSlotNo":13020,"slot":82697820,"time":"2023/01/21 01:21:51","addressesInput":["addr1q97cyaztckdr4ngzdwthmp9588gtu2v53jyvrye3rglu64ce7khc7tu4xj8qj4fkp3gn0ya32unexewzh04syslqqzds0e6dh5","addr1q97cyaztckdr4ngzdwthmp9588gtu2v53jyvrye3rglu64ce7khc7tu4xj8qj4fkp3gn0ya32unexewzh04syslqqzds0e6dh5"],"addressesOutput":["addr1zxgx3far7qygq0k6epa0zcvcvrevmn0ypsnfsue94nsn3tvpw288a4x0xf8pxgcntelxmyclq83s0ykeehchz2wtspks905plm","addr1q97cyaztckdr4ngzdwthmp9588gtu2v53jyvrye3rglu64ce7khc7tu4xj8qj4fkp3gn0ya32unexewzh04syslqqzds0e6dh5","addr1q97cyaztckdr4ngzdwthmp9588gtu2v53jyvrye3rglu64ce7khc7tu4xj8qj4fkp3gn0ya32unexewzh04syslqqzds0e6dh5"],"fee":233393,"totalOutput":87526121,"tokens":[]},{"hash":"56c1af5d37f953c383fcef773d0bf463a391261c3a731480e95519fa8d7a0bf4","blockNo":8296587,"blockHash":"adf00693c165218af27707105be8505389d9afb31385e8a0db0153cd57ef49eb","epochNo":389,"epochSlotNo":13020,"slot":82697820,"time":"2023/01/21 01:21:51","addressesInput":["addr1q9ky2ff7eu4p2jy64mq6f09dqga8mfd3yg6hlvud4tl7kpnyc5m8hn5zxj995vzlzjyrpr9vsqryz9d7phw292ny53qsnzgw7t","addr1q920x0xm6wlu250cqagq5376hzq507m06pk06gp3rccynzmyc5m8hn5zxj995vzlzjyrpr9vsqryz9d7phw292ny53qsqx0emf"],"addressesOutput":["addr1wxr2a8htmzuhj39y2gq7ftkpxv98y2g67tg8zezthgq4jkg0a4ul4","addr1q920x0xm6wlu250cqagq5376hzq507m06pk06gp3rccynzmyc5m8hn5zxj995vzlzjyrpr9vsqryz9d7phw292ny53qsqx0emf","addr1q920x0xm6wlu250cqagq5376hzq507m06pk06gp3rccynzmyc5m8hn5zxj995vzlzjyrpr9vsqryz9d7phw292ny53qsqx0emf"],"fee":267009,"totalOutput":4106451986,"tokens":[]},{"hash":"6e62aed896cb27a7449efbb8c049f7948e0070889db119e8ef064119805c76d8","blockNo":8296587,"blockHash":"adf00693c165218af27707105be8505389d9afb31385e8a0db0153cd57ef49eb","epochNo":389,"epochSlotNo":13020,"slot":82697820,"time":"2023/01/21 01:21:51","addressesInput":["addr1vxdq78vkf484ku67gyr737yag99gm3uwzhmy37cufg38fxgnllgn6","addr1w96dh8r6yds9et9wfmnrtg267mnrck3ej9wysyj5a6uhtzchkcr5d","addr1qypujfpfkyw2xqlagh2durvwq445xp6py0gyyu9ekvhv445m09t5u3hnw8z6dfaaunp4te3kg0n8e80mwkc9cu54w4kqtchqls"],"addressesOutput":["addr1qypsr4makl3afn7agp3v6erfuxgwza7fue52mswjf0pffv7m2amnqdkvnvftcymrnlvwstuvrjelkg6pl3ekf6qrpm8qaeepg0","addr1vxdq78vkf484ku67gyr737yag99gm3uwzhmy37cufg38fxgnllgn6","addr1qypujfpfkyw2xqlagh2durvwq445xp6py0gyyu9ekvhv445m09t5u3hnw8z6dfaaunp4te3kg0n8e80mwkc9cu54w4kqtchqls"],"fee":1138461,"totalOutput":6161539,"tokens":[]},{"hash":"56cb0afedc093a2e1e0c9023d831ef7d2e948145ad4813f70c8f0f04637f870d","blockNo":8296587,"blockHash":"adf00693c165218af27707105be8505389d9afb31385e8a0db0153cd57ef49eb","epochNo":389,"epochSlotNo":13020,"slot":82697820,"time":"2023/01/21 01:21:51","addressesInput":["addr1zxgx3far7qygq0k6epa0zcvcvrevmn0ypsnfsue94nsn3tgvp7yludr26w44pjv927202tt7ayffdwxjj688k690f03sr4chmz","addr1q974a2q8x3z5cwxa4zt5geuqfflvyd76xr82jnnuczswu2g868nf4ds6ly5rkaxa9fff7p0klm85vvuvah2m0m6qm22s7l8x5r"],"addressesOutput":["addr1q974a2q8x3z5cwxa4zt5geuqfflvyd76xr82jnnuczswu2g868nf4ds6ly5rkaxa9fff7p0klm85vvuvah2m0m6qm22s7l8x5r"],"fee":344718,"totalOutput":7457904,"tokens":[]},{"hash":"c8106df4794b1a282c63d5a4c04f98d5d3557d934f2403fb8a6df28bea9f32f9","blockNo":8296587,"blockHash":"adf00693c165218af27707105be8505389d9afb31385e8a0db0153cd57ef49eb","epochNo":389,"epochSlotNo":13020,"slot":82697820,"time":"2023/01/21 01:21:51","addressesInput":["addr1qywxee6xhg4nghawz8mkzklnscasw4qqnf40w5p5ex5z9nrww4ezv2nkqwsprr6n9jmqump59efenmfcg29nne7z43ssjmqgwa","addr1qywxee6xhg4nghawz8mkzklnscasw4qqnf40w5p5ex5z9nrww4ezv2nkqwsprr6n9jmqump59efenmfcg29nne7z43ssjmqgwa"],"addressesOutput":["addr1zxgx3far7qygq0k6epa0zcvcvrevmn0ypsnfsue94nsn3tvpw288a4x0xf8pxgcntelxmyclq83s0ykeehchz2wtspks905plm","addr1qywxee6xhg4nghawz8mkzklnscasw4qqnf40w5p5ex5z9nrww4ezv2nkqwsprr6n9jmqump59efenmfcg29nne7z43ssjmqgwa","addr1qywxee6xhg4nghawz8mkzklnscasw4qqnf40w5p5ex5z9nrww4ezv2nkqwsprr6n9jmqump59efenmfcg29nne7z43ssjmqgwa"],"fee":230797,"totalOutput":111239154,"tokens":[]},{"hash":"ec24cb3bc1869794eee978a10521fbd161eb2366da522baf020da68b05d0e55e","blockNo":8296587,"blockHash":"adf00693c165218af27707105be8505389d9afb31385e8a0db0153cd57ef49eb","epochNo":389,"epochSlotNo":13020,"slot":82697820,"time":"2023/01/21 01:21:51","addressesInput":["addr1q98qec5ea038rssnlsmd2j58hmyy70rx7f4s2uq0kt9vq5vcsvc5lzwdf0jr90xyjd60vcnv5fs23f87kajc92uplk3sh8h4gv","addr1q98qec5ea038rssnlsmd2j58hmyy70rx7f4s2uq0kt9vq5vcsvc5lzwdf0jr90xyjd60vcnv5fs23f87kajc92uplk3sh8h4gv","addr1q98qec5ea038rssnlsmd2j58hmyy70rx7f4s2uq0kt9vq5vcsvc5lzwdf0jr90xyjd60vcnv5fs23f87kajc92uplk3sh8h4gv"],"addressesOutput":["addr1q8hpyvkcwpyeeq5xprj0hhyp49qx7kqprx5xhjs2vd60fx6zmhet75tnxa8l4gj20eljsycfxetsj96s7tuyaqpj7ufqajh2uq","addr1q98qec5ea038rssnlsmd2j58hmyy70rx7f4s2uq0kt9vq5vcsvc5lzwdf0jr90xyjd60vcnv5fs23f87kajc92uplk3sh8h4gv","addr1q98qec5ea038rssnlsmd2j58hmyy70rx7f4s2uq0kt9vq5vcsvc5lzwdf0jr90xyjd60vcnv5fs23f87kajc92uplk3sh8h4gv"],"fee":239993,"totalOutput":14302008,"tokens":[]},{"hash":"5275539a042113c6f8172df53b9b477c90391e2c6e30c923905ec86c875c5657","blockNo":8296587,"blockHash":"adf00693c165218af27707105be8505389d9afb31385e8a0db0153cd57ef49eb","epochNo":389,"epochSlotNo":13020,"slot":82697820,"time":"2023/01/21 01:21:51","addressesInput":["addr1qy6grlgkepsw74xecqkqtjy3zsaphz98zta6qukc6wy8mj3c6w04l2zxs80dzuwx5ws8753te34sun747x0szcvmd4gs7494eg"],"addressesOutput":["addr1qxnlrxq8jffygmpzkffch9qe0wrnyuyg73jawr899hx7xmlv4z48aanms6thqzlqehfcux0gvmus72t6jxu4ft49z52su9s6z9","addr1qy6grlgkepsw74xecqkqtjy3zsaphz98zta6qukc6wy8mj3c6w04l2zxs80dzuwx5ws8753te34sun747x0szcvmd4gs7494eg"],"fee":173333,"totalOutput":28909375,"tokens":[]},{"hash":"200a8800e8e774fa1716a32bd67ca4fa028193b65a2b29914956d81f71f7df2b","blockNo":8296587,"blockHash":"adf00693c165218af27707105be8505389d9afb31385e8a0db0153cd57ef49eb","epochNo":389,"epochSlotNo":13020,"slot":82697820,"time":"2023/01/21 01:21:51","addressesInput":["addr1v8adw2u5gm6klh7jr2eye3wq6plnkeuhnj2zqrrmyfv4mqs0yst0c"],"addressesOutput":["addr1q9zmxhwzxl747f2juaeejm4a2fqd379ra86r49gz5llw3ukgvafzx5v8gnehm6xmq47qsuh9kmc9ne9a860h5qap90esc75xs5","addr1v8adw2u5gm6klh7jr2eye3wq6plnkeuhnj2zqrrmyfv4mqs0yst0c"],"fee":174100,"totalOutput":254095832184,"tokens":[]},{"hash":"73d1fe8c67e0e6e69744c0d2d8a437027dc3b449442a6151b1785bb0758d9440","blockNo":8296587,"blockHash":"adf00693c165218af27707105be8505389d9afb31385e8a0db0153cd57ef49eb","epochNo":389,"epochSlotNo":13020,"slot":82697820,"time":"2023/01/21 01:21:51","addressesInput":["addr1wxdct40gvyv525zlq79wahkuhmgadjs3q5lkrclemxvlu3qyda7l2","addr1qxdngw5r2zr8kqvda2yqcc7zln9eyv6def9ypgkrxknkjfwtneenhfsn0k8zlta8z60y2066tufwf8tw0s9c4ppgqv2qvptwxd"],"addressesOutput":["addr1qxkmr0m22xeqludcg5rjdmecjxasu9fat0680qehtcsnftaadgykewa9ufvegeuca9yyq03d9v7ea2y2zthgu7hfgjtsddp6gr","addr1qxdngw5r2zr8kqvda2yqcc7zln9eyv6def9ypgkrxknkjfwtneenhfsn0k8zlta8z60y2066tufwf8tw0s9c4ppgqv2qvptwxd","addr1wxc45xspppp73takl93mq029905ptdfnmtgv6g7cr8pdyqgvks3s8","addr1qxdngw5r2zr8kqvda2yqcc7zln9eyv6def9ypgkrxknkjfwtneenhfsn0k8zlta8z60y2066tufwf8tw0s9c4ppgqv2qvptwxd"],"fee":362591,"totalOutput":181829548,"tokens":[]},{"hash":"c13dfbe6d9ca88312094c7e2fe2b00f62d74b19b060c90f72067a60be46f2e21","blockNo":8296587,"blockHash":"adf00693c165218af27707105be8505389d9afb31385e8a0db0153cd57ef49eb","epochNo":389,"epochSlotNo":13020,"slot":82697820,"time":"2023/01/21 01:21:51","addressesInput":["addr1q9j9edkjryr9fnz6eyuwjcjutun9kpgtkdlulzquheldfeermhplrjkd38pvcn2r58dnl0v4rxs9lz6rdj5p77j3wvcs7ud37u","addr1q9j9edkjryr9fnz6eyuwjcjutun9kpgtkdlulzquheldfeermhplrjkd38pvcn2r58dnl0v4rxs9lz6rdj5p77j3wvcs7ud37u","addr1q9j9edkjryr9fnz6eyuwjcjutun9kpgtkdlulzquheldfeermhplrjkd38pvcn2r58dnl0v4rxs9lz6rdj5p77j3wvcs7ud37u","addr1q9j9edkjryr9fnz6eyuwjcjutun9kpgtkdlulzquheldfeermhplrjkd38pvcn2r58dnl0v4rxs9lz6rdj5p77j3wvcs7ud37u","addr1q9j9edkjryr9fnz6eyuwjcjutun9kpgtkdlulzquheldfeermhplrjkd38pvcn2r58dnl0v4rxs9lz6rdj5p77j3wvcs7ud37u","addr1q9j9edkjryr9fnz6eyuwjcjutun9kpgtkdlulzquheldfeermhplrjkd38pvcn2r58dnl0v4rxs9lz6rdj5p77j3wvcs7ud37u"],"addressesOutput":["addr1vx4z63eel5kym0m20km4lfwm5jzrutv3kr9hgqp7gvrxr8qfle9zc","addr1q9j9edkjryr9fnz6eyuwjcjutun9kpgtkdlulzquheldfeermhplrjkd38pvcn2r58dnl0v4rxs9lz6rdj5p77j3wvcs7ud37u","addr1q9j9edkjryr9fnz6eyuwjcjutun9kpgtkdlulzquheldfeermhplrjkd38pvcn2r58dnl0v4rxs9lz6rdj5p77j3wvcs7ud37u","addr1q9j9edkjryr9fnz6eyuwjcjutun9kpgtkdlulzquheldfeermhplrjkd38pvcn2r58dnl0v4rxs9lz6rdj5p77j3wvcs7ud37u","addr1q9j9edkjryr9fnz6eyuwjcjutun9kpgtkdlulzquheldfeermhplrjkd38pvcn2r58dnl0v4rxs9lz6rdj5p77j3wvcs7ud37u"],"fee":639381,"totalOutput":54677605,"tokens":[]},{"hash":"5c2271958627aac96fdb7dc97182f2d3c811053f8eba8cbe081b8f270adf4dde","blockNo":8296587,"blockHash":"adf00693c165218af27707105be8505389d9afb31385e8a0db0153cd57ef49eb","epochNo":389,"epochSlotNo":13020,"slot":82697820,"time":"2023/01/21 01:21:51","addressesInput":["addr1q9lpx7aqga3hh92aqxfmz6c042zua6hecp2hzlfw7crepqfg843zc34sd0ss9787a32s3ecv86x5aydpnxafs2m8pe2spg720y","addr1q9lpx7aqga3hh92aqxfmz6c042zua6hecp2hzlfw7crepqfg843zc34sd0ss9787a32s3ecv86x5aydpnxafs2m8pe2spg720y"],"addressesOutput":["addr1v9nudmgn6lqefaedktxg0rrlqsjdxma2uw9my66vcnp8lngkzrt8k","addr1q9lpx7aqga3hh92aqxfmz6c042zua6hecp2hzlfw7crepqfg843zc34sd0ss9787a32s3ecv86x5aydpnxafs2m8pe2spg720y"],"fee":168405,"totalOutput":14658701,"tokens":[]},{"hash":"55b0ccdfaa835eff7ce91f7f5209a9064dbca603c8f804bbc10051c67007c183","blockNo":8296586,"blockHash":"6c5152090c7b8203e312dbaf4535976241dbbaf3a31fada70344ee4d5daa49a8","epochNo":389,"epochSlotNo":13002,"slot":82697802,"time":"2023/01/21 01:21:33","addressesInput":["addr1zxgx3far7qygq0k6epa0zcvcvrevmn0ypsnfsue94nsn3tvpw288a4x0xf8pxgcntelxmyclq83s0ykeehchz2wtspks905plm","addr1qyfjwl2y7zetrth6e9rsnkax0am2f939dvmkhhjzkww8snuv9pvhvvlwahxrj0ka9k65ej04rwl8ygla7jnxlgnmz7yqrjjqj8","addr1qyfjwl2y7zetrth6e9rsnkax0am2f939dvmkhhjzkww8snuv9pvhvvlwahxrj0ka9k65ej04rwl8ygla7jnxlgnmz7yqrjjqj8"],"addressesOutput":["addr1zxgx3far7qygq0k6epa0zcvcvrevmn0ypsnfsue94nsn3tvpw288a4x0xf8pxgcntelxmyclq83s0ykeehchz2wtspks905plm","addr1qyfjwl2y7zetrth6e9rsnkax0am2f939dvmkhhjzkww8snuv9pvhvvlwahxrj0ka9k65ej04rwl8ygla7jnxlgnmz7yqrjjqj8","addr1qyfjwl2y7zetrth6e9rsnkax0am2f939dvmkhhjzkww8snuv9pvhvvlwahxrj0ka9k65ej04rwl8ygla7jnxlgnmz7yqrjjqj8"],"fee":335107,"totalOutput":539592987,"tokens":[]},{"hash":"c9510f382fef477dd3b9338ded25bbe536bb9b38bac9bbf802c959ff6add1df8","blockNo":8296586,"blockHash":"6c5152090c7b8203e312dbaf4535976241dbbaf3a31fada70344ee4d5daa49a8","epochNo":389,"epochSlotNo":13002,"slot":82697802,"time":"2023/01/21 01:21:33","addressesInput":["addr1qxrndw89849jg42as0rv9vc05rff3wh2lsd5sgf8rt3g88vlfpflhcv433p7g0u6ts8t3pq4m7x20vz6avh6lnu4szgqhapmcj","addr1qxrndw89849jg42as0rv9vc05rff3wh2lsd5sgf8rt3g88vlfpflhcv433p7g0u6ts8t3pq4m7x20vz6avh6lnu4szgqhapmcj"],"addressesOutput":["addr1qyg5yk36ee0rhl5hw5kxcfng5ygrsv55tuchs0nxjmh9uqmpmpaxya7n6kzmyy6f72st0akwx8zg5n6emrxa5mhywg9q3v23dv","addr1qxrndw89849jg42as0rv9vc05rff3wh2lsd5sgf8rt3g88vlfpflhcv433p7g0u6ts8t3pq4m7x20vz6avh6lnu4szgqhapmcj","addr1qxrndw89849jg42as0rv9vc05rff3wh2lsd5sgf8rt3g88vlfpflhcv433p7g0u6ts8t3pq4m7x20vz6avh6lnu4szgqhapmcj"],"fee":366273,"totalOutput":128817203,"tokens":[]},{"hash":"9ac2f5b16c43cd0b5f13220945a522a7f636fcda3d004c136513e44443634770","blockNo":8296586,"blockHash":"6c5152090c7b8203e312dbaf4535976241dbbaf3a31fada70344ee4d5daa49a8","epochNo":389,"epochSlotNo":13002,"slot":82697802,"time":"2023/01/21 01:21:33","addressesInput":["addr1qxlkvltyv0gymvj4c6r50cl2l25xn4sujhjuzdc8kwdpxt58qsmxtwyps67aqm8xdyndd43xsq3ep7mcdpt6t3dnf7hqhjyrf8","addr1qxlkvltyv0gymvj4c6r50cl2l25xn4sujhjuzdc8kwdpxt58qsmxtwyps67aqm8xdyndd43xsq3ep7mcdpt6t3dnf7hqhjyrf8"],"addressesOutput":["addr1zxgx3far7qygq0k6epa0zcvcvrevmn0ypsnfsue94nsn3tvpw288a4x0xf8pxgcntelxmyclq83s0ykeehchz2wtspks905plm","addr1qxlkvltyv0gymvj4c6r50cl2l25xn4sujhjuzdc8kwdpxt58qsmxtwyps67aqm8xdyndd43xsq3ep7mcdpt6t3dnf7hqhjyrf8"],"fee":223185,"totalOutput":165928821,"tokens":[]},{"hash":"d07f8b8799276762b4a0a7708c9a9fbd0aab82b0118b51c6e140d55bead88a63","blockNo":8296586,"blockHash":"6c5152090c7b8203e312dbaf4535976241dbbaf3a31fada70344ee4d5daa49a8","epochNo":389,"epochSlotNo":13002,"slot":82697802,"time":"2023/01/21 01:21:33","addressesInput":["addr1q8xfnjyxuqgytzuyd6c953a8ged5rj22lcnv86dkate47rm6fxkwntsftfeemur49kmq7vuqrrqswcl887ys29upy0as56jjga"],"addressesOutput":["addr1vx2fa8cc0qxwsm7gv8wmkpksu4df3mfyjt32qcxrd846ujg7qd2vd","addr1q9gsj3x89qr6jtfuejkurz5zqzhdt6qpx2c42mx0zqtsw4m6fxkwntsftfeemur49kmq7vuqrrqswcl887ys29upy0asdenfht"],"fee":167085,"totalOutput":176430408,"tokens":[]}],"totalItems":59442593,"totalPages":2972130,"currentPage":0}