{"data":[{"txId":60542027,"txHash":"d6dfc16dbd7f3478de0f58fb9e8f01609e3e169313a0d94f3c65157c067d6a91","txTime":"2023/01/26 08:21:03","block":8318609,"epoch":390,"slotNo":83154972,"epochSlotNo":38172,"stakeKey":"stake1u856r2xjre2t8t5jchqk7qrhcg3cuzsaruv6ufqwslvxxag6z8y0q"},{"txId":60541523,"txHash":"54f0df17a802c5ce676ab9cc39837cf75dd481a0387d7e980ad71adda9e37410","txTime":"2023/01/26 08:10:51","block":8318570,"epoch":390,"slotNo":83154360,"epochSlotNo":37560,"stakeKey":"stake1uxeufxaqgm8r95x8vjdh9rfr7yhvz5mfwlkyprclmta9x4sgtc4la"},{"txId":60541417,"txHash":"eb31de03aaaeff545b23d1670e9056244147153c4555ba294ef249d4abece5fd","txTime":"2023/01/26 08:08:36","block":8318564,"epoch":390,"slotNo":83154225,"epochSlotNo":37425,"stakeKey":"stake1u925pk43r2rfaeu6d922k462c8lj2ttf8e30vlpx0zeawnccpsspw"},{"txId":60540341,"txHash":"5b15e0b57ba58d1920d857cbbb3dcb267246d47610e810dbc09d62beef880ea2","txTime":"2023/01/26 07:42:33","block":8318487,"epoch":390,"slotNo":83152662,"epochSlotNo":35862,"stakeKey":"stake1ux0fm8y4ck33pht7ud8pmghcmzkx4w25jjujjz6839qtt2qrknqv9"},{"txId":60540338,"txHash":"884b76357b9702dd2cb1204c3c07b5d900d41d949936b85dd17fb2cbd2c30b66","txTime":"2023/01/26 07:42:33","block":8318487,"epoch":390,"slotNo":83152662,"epochSlotNo":35862,"stakeKey":"stake1u8hu3x8h7hy8ymgxc5yuj5wm7rkn9ffcs4kku70xgtskqxq8zhsqy"},{"txId":60540105,"txHash":"0a1a4b0193ab02dde8e1fa3df9da8166e61bc8ad8c15f4925684bad3096fb533","txTime":"2023/01/26 07:37:03","block":8318475,"epoch":390,"slotNo":83152332,"epochSlotNo":35532,"stakeKey":"stake1u89rcs7r4sx2jdsr2s29axeturuc8rgaz5vv9x5awflhv2s7r2mfx"},{"txId":60539869,"txHash":"4db1092b34eaf16cc2ecc63c099da299bc69718862c008c4e6c4e6a480a480b0","txTime":"2023/01/26 07:31:12","block":8318454,"epoch":390,"slotNo":83151981,"epochSlotNo":35181,"stakeKey":"stake1uyn379wq84x9pmu37nsfzq8pw9xs0way94w57evna5txvqcymrm5h"},{"txId":60539687,"txHash":"87dfac4d14c74dbf582cef80f9f2221e0b1a49fbb95f51cd086f96996dec6e00","txTime":"2023/01/26 07:27:25","block":8318442,"epoch":390,"slotNo":83151754,"epochSlotNo":34954,"stakeKey":"stake1uyyrpf78c9pw7lkj8pgp3ucu3fca8tve0pnxsm5deju84rgun48cv"},{"txId":60539412,"txHash":"6f2a7adaf57957e85ed9c19e3e35a98fae8783373ad3e1224b9a771bb91dba32","txTime":"2023/01/26 07:20:10","block":8318423,"epoch":390,"slotNo":83151319,"epochSlotNo":34519,"stakeKey":"stake1uxkg74exkyuheyusgvhc2e5z2yyk0ak4vrhm2khne0n2m6shxy6he"},{"txId":60539327,"txHash":"21a1c0d73af8a13736e1f5d7b266dd02c44370ad17283d263cdbd7c4bf19b5a7","txTime":"2023/01/26 07:18:26","block":8318420,"epoch":390,"slotNo":83151215,"epochSlotNo":34415,"stakeKey":"stake1uxy6jvlug0stqp58yjgnhp26qwmrjn9us67k4tmteqpqlmcgrplwy"},{"txId":60539115,"txHash":"0a25d980420a29d2fada9a6bd986c835d6c7964f02ba204c8059a6d7df31dcb2","txTime":"2023/01/26 07:12:36","block":8318397,"epoch":390,"slotNo":83150865,"epochSlotNo":34065,"stakeKey":"stake1uxy2xjwu59qcgxuqrwqce8pwjukwapfyyhhcm023e7tr46qjlv77j"},{"txId":60538933,"txHash":"c438554932fd4583616b624d378a4773c80da080e1e3c2a137d672075d55d125","txTime":"2023/01/26 07:07:17","block":8318382,"epoch":390,"slotNo":83150546,"epochSlotNo":33746,"stakeKey":"stake1ux0l4a8w0tqdv00wjzt8p9h893p8eet0mldhffact86wf6qvkvz2s"},{"txId":60537758,"txHash":"ba64fea381b3194a8c65197b56d744de4d0fa4f15e8ce310585f1b7eb1e6fb4e","txTime":"2023/01/26 06:37:22","block":8318290,"epoch":390,"slotNo":83148751,"epochSlotNo":31951,"stakeKey":"stake1u8c2x03hmqe0uft2t6yv8k5qmprkqk94u259zh6hvg9540c6lqk0x"},{"txId":60537745,"txHash":"879b1641cf3a4da7d8baf85dfb5f4d90f559703038050dd11be4e458d4e336f7","txTime":"2023/01/26 06:36:31","block":8318288,"epoch":390,"slotNo":83148700,"epochSlotNo":31900,"stakeKey":"stake1uxcz6e43m8kzstdkva7t6xnlsfhvlg0sn0kdvj454pwm9nss2srsg"},{"txId":60537519,"txHash":"02424bae8772b66854aac7c71361c811e532cb0a1bf7942a0f6c026fc82b151a","txTime":"2023/01/26 06:30:30","block":8318274,"epoch":390,"slotNo":83148339,"epochSlotNo":31539,"stakeKey":"stake1u86gpnw94zcnw7ftl5qzedlkmlvjhuww44wg9l79fjysafg3y5yq4"},{"txId":60537366,"txHash":"582ddb49ff40b61e9832a7071b47c8592f7eb415453291aa24a1048ee6d88e2b","txTime":"2023/01/26 06:27:09","block":8318264,"epoch":390,"slotNo":83148138,"epochSlotNo":31338,"stakeKey":"stake1uxn8m69yg8kvhwcuvf4yyuzx7n3gc2x0rssn7dhe7y5yegq9296hc"},{"txId":60537308,"txHash":"43b5701be78b2ccbd54822e708ba9ce16c5eaa0f506fb1a8208fccee32bd5d00","txTime":"2023/01/26 06:25:22","block":8318261,"epoch":390,"slotNo":83148031,"epochSlotNo":31231,"stakeKey":"stake1uytcla9vmgkahvlxevm370sqfgvvpvdrmg9mhm0duncgdxqm8xgl6"},{"txId":60537116,"txHash":"b008658828568c7d41be11b224829b7a223e89ec551324ca6785cac5c80dec0e","txTime":"2023/01/26 06:20:35","block":8318248,"epoch":390,"slotNo":83147744,"epochSlotNo":30944,"stakeKey":"stake1uxwl8wpfz5f7ygetf8cgrw2uczsdssek90uanvjym36wq7g3da28e"},{"txId":60537090,"txHash":"252f4a2b82f283837351612a78555c04de76cd18d91a2cb2b63fe993111f9aa8","txTime":"2023/01/26 06:20:10","block":8318246,"epoch":390,"slotNo":83147719,"epochSlotNo":30919,"stakeKey":"stake1u9vkg0nc40gh3hmfvsrmwml22xhnxhefcggvpc3qfth5lycsxl0wp"},{"txId":60536983,"txHash":"b4c6bdd62f0f8b95fabbd64db7efe4a693463e84d24b3ff8b73db11a2d4b2d7a","txTime":"2023/01/26 06:17:56","block":8318238,"epoch":390,"slotNo":83147585,"epochSlotNo":30785,"stakeKey":"stake1u8qglch3c2agurnu88pzctsmawemzgmgh9peegvsujtn9ksh6ctqs"}],"totalItems":347718,"totalPages":17386,"currentPage":0}