{"data":[{"txId":59593286,"txHash":"ed2b48a4cb263844c60a0fa8fa911e24de4198b68bf2403b699bcf4dbb5789c3","txTime":"2023/01/13 13:39:28","block":8265000,"epoch":387,"slotNo":82050877,"epochSlotNo":230077,"stakeKey":"stake1uy2f92g28ggjdk25xg7kx00glewc6j9n65xz79wlr4n9ussqugqkz"},{"txId":59593189,"txHash":"ffd580c6e6dc63ee3b443dd031de4e0217cf59fba692ef0c58c2198c86a5ae6a","txTime":"2023/01/13 13:37:49","block":8264996,"epoch":387,"slotNo":82050778,"epochSlotNo":229978,"stakeKey":"stake1uy2n52vsepy7dmfd8zw0g5kqt4x8480fymsurfdx3hwtylss4wlmg"},{"txId":59592730,"txHash":"3c10dfe8799e6ff22e26efc008e3dd3a94ca311c09b8d978e75060ebe7e0cc12","txTime":"2023/01/13 13:29:16","block":8264977,"epoch":387,"slotNo":82050265,"epochSlotNo":229465,"stakeKey":"stake1u9zn8fqxvqdrm55amwczckhjc24f8atftw3j9nyffxqfufsxg33hp"},{"txId":59591970,"txHash":"3ddb14ea5c2fec5e7e47aa01c05dc4d7a9a80042d55550c5de3328d6b2579dbc","txTime":"2023/01/13 13:13:07","block":8264917,"epoch":387,"slotNo":82049296,"epochSlotNo":228496,"stakeKey":"stake1u88veh8dua0fyvckrr66fjh6h4ru3v93ht2z2rmhddpfaeqdcy0mk"},{"txId":59591668,"txHash":"5f7f0656ab7c581b7f4e72731b688a30e9d87410ef3530436aff1e27d766f316","txTime":"2023/01/13 13:06:32","block":8264895,"epoch":387,"slotNo":82048901,"epochSlotNo":228101,"stakeKey":"stake1u9k5x3hywwzjnmr4nzsdqrt69uapclr9t7rn4gazq3ak9xcs6wla2"},{"txId":59591244,"txHash":"d256437d22f16a8b9c5273ac32139e5ea8c242f5e2e56dfb893e6c8612a13567","txTime":"2023/01/13 12:57:29","block":8264862,"epoch":387,"slotNo":82048358,"epochSlotNo":227558,"stakeKey":"stake1uxzfp8c3nmmfdu6qc6lmje2xcptuljyggvqjddmsfl9eyps6ldypx"},{"txId":59591159,"txHash":"9c79f03fe78e85e46dc62529b7beedb839a802b00ab3ae32c3af8d768b919596","txTime":"2023/01/13 12:55:36","block":8264857,"epoch":387,"slotNo":82048245,"epochSlotNo":227445,"stakeKey":"stake1u8a4j40j5rmtfzlpxexgtmns5nvanhnj8ymqk2c927el6qqtf387h"},{"txId":59590476,"txHash":"606e6af7ddb582d610d445bdb312c9fea55624baadd5b4c61a673b9bba1e7bc2","txTime":"2023/01/13 12:40:02","block":8264802,"epoch":387,"slotNo":82047311,"epochSlotNo":226511,"stakeKey":"stake1u82wtvuvd3fz7cwv4lfqwtfx0t9238z4sxwremqdycycnxgn5r7aw"},{"txId":59590439,"txHash":"1752b500a16f0277a9e7e214e1415a2a996b35304bb594dd6364ffc3c5b382b6","txTime":"2023/01/13 12:38:56","block":8264800,"epoch":387,"slotNo":82047245,"epochSlotNo":226445,"stakeKey":"stake1u9728qwule3wkns5jnzmh0qtd6pevck46j0f93nwasf704stwscl2"},{"txId":59590415,"txHash":"58e82e9bbda319d788160f3f84e7ddb79e51fab2e69c12977a08bad8178b99dc","txTime":"2023/01/13 12:38:22","block":8264799,"epoch":387,"slotNo":82047211,"epochSlotNo":226411,"stakeKey":"stake1uye02j9xr6efquns0aevx6juet5teasap38wykmgghfnwlc4sn45v"},{"txId":59589932,"txHash":"ce0b2b270d023410257eeee08c9785df9f05a7aa4968723824d305465db70b88","txTime":"2023/01/13 12:27:00","block":8264766,"epoch":387,"slotNo":82046529,"epochSlotNo":225729,"stakeKey":"stake1uy982pnk57dufp44u7f336fpnqlg83px3tpmqydkfhu7csccc3ut7"},{"txId":59589763,"txHash":"b3ae21a98632ee461d709d25d81b7ef6df741b9c75af4fc0cb1b730457f390c0","txTime":"2023/01/13 12:23:23","block":8264751,"epoch":387,"slotNo":82046312,"epochSlotNo":225512,"stakeKey":"stake1u9z9zvx3w7v3k0mmed0je37ns4qgwwdg8uhmdxuwct4kdmc8pjetv"},{"txId":59589540,"txHash":"2889e54fb754827c1341fdc20c61c1ea44fde7f015e6cb4a0d3ba8c5709f46c5","txTime":"2023/01/13 12:18:52","block":8264737,"epoch":387,"slotNo":82046041,"epochSlotNo":225241,"stakeKey":"stake1uyllcnhkhze5n7g53j8n0n06ueku7pcucxvfnvhzvxecusszw8tht"},{"txId":59589501,"txHash":"1e86c3cb8298618fdb281cc62e519f69e53bed5566169f2137387e4bc0578d13","txTime":"2023/01/13 12:18:14","block":8264735,"epoch":387,"slotNo":82046003,"epochSlotNo":225203,"stakeKey":"stake1uygulsh9cwtqyjmv2u40f0de5cpwfr6xnqdjjyjg7ndkjyqarfcta"},{"txId":59589474,"txHash":"d0e918577e9c84bac7ac79c1e7f74791ebb3f4a8fb1bfe6c11f2d32bbb281190","txTime":"2023/01/13 12:17:43","block":8264733,"epoch":387,"slotNo":82045972,"epochSlotNo":225172,"stakeKey":"stake1u865tqqcpg0dxcm67zjwfk07cafwn63tee7jgcp2h2us9us688nxh"},{"txId":59589009,"txHash":"4d3074183556bb75475a9cabf752417700759c785a78beb874ac17a35d51060e","txTime":"2023/01/13 12:07:02","block":8264699,"epoch":387,"slotNo":82045331,"epochSlotNo":224531,"stakeKey":"stake1u95nfde346eygkfcpxr5wkw0eflpvfl3jm9ec8gj7dzhhwqzsl6vv"},{"txId":59588839,"txHash":"16f05144dee444c5c10e51c7915f442418f16ea4e4f4f7259a0ce1f5223bdcac","txTime":"2023/01/13 12:03:43","block":8264688,"epoch":387,"slotNo":82045132,"epochSlotNo":224332,"stakeKey":"stake1u9lwzv80dexe5wuzac34zyqqnmz2v72g2r47qecepstcvyq6tn5ss"},{"txId":59588729,"txHash":"552e6fc35a9cb56592e7d3b6ee30b15f8144a680176bfc59cdb6744bb577e418","txTime":"2023/01/13 12:02:14","block":8264684,"epoch":387,"slotNo":82045043,"epochSlotNo":224243,"stakeKey":"stake1u8d9w8fcmr6u0cls06srjuelj24fm9cf9k2sv72dx9vcxhcl7wre7"},{"txId":59588389,"txHash":"4ad5dc72e43ff335a9b91678bfea071ea7afda762764a5b4f1f9ad415ccaa33c","txTime":"2023/01/13 11:54:10","block":8264660,"epoch":387,"slotNo":82044559,"epochSlotNo":223759,"stakeKey":"stake1uy8mmpwd2fe9g0pu07v4kaurdhchurvw8vf4ys00hlaqunqsk58m6"},{"txId":59588219,"txHash":"a2b603aa099409f4fd00ef7dc6f265bf8b7f6238674921b04ba5bce59b866650","txTime":"2023/01/13 11:50:36","block":8264650,"epoch":387,"slotNo":82044345,"epochSlotNo":223545,"stakeKey":"stake1ux8tks4qyerte76q8e6fh22r9x4dgz8cg8787nw5as832xgqdppkf"}],"totalItems":344291,"totalPages":17215,"currentPage":0}