{"data":[{"txId":61601478,"txHash":"46c3495a4c5c32c40de3aa392024fa9ade8f88a2f366da524a2e5a82894844fc","txTime":"2023/02/08 18:58:26","block":8374680,"epoch":392,"slotNo":84316415,"epochSlotNo":335615,"stakeKey":"stake1u9neclwkl0me7wrx9an7u4nxgv7cq7603rk5a033m0aeq4sdks27h"},{"txId":61601432,"txHash":"de825f8f0653a9e016149cf7664bd68241bccdbc847cc25f4546179339ecc77d","txTime":"2023/02/08 18:57:39","block":8374677,"epoch":392,"slotNo":84316368,"epochSlotNo":335568,"stakeKey":"stake1u9x5gw5mjpurxr5mfv3ly8jchk8rpzlfvedrxh6pqs5wkmglm5uxh"},{"txId":61601422,"txHash":"1d1728e8f64ad6ef4f3bb7e6f935d224ba65a0672696135683a6a28bd28a9012","txTime":"2023/02/08 18:57:22","block":8374676,"epoch":392,"slotNo":84316351,"epochSlotNo":335551,"stakeKey":"stake1u8hrkdds6prnhknzh9sz9xac5getkz65qumkgc4vesxenkq40e840"},{"txId":61600548,"txHash":"87af97d48dd911be490526eede4722c7af89d35000216f4d7e69255e62c3d0a3","txTime":"2023/02/08 18:42:17","block":8374627,"epoch":392,"slotNo":84315446,"epochSlotNo":334646,"stakeKey":"stake1u9nzsxpt0hxt3lry08248plelwgy8dt7nx7sjagky4jtehs2grrwv"},{"txId":61600410,"txHash":"50d9b0e3da1e6bd188ed2d5ce4e6d6f6e769360b56590938090e121a34f783be","txTime":"2023/02/08 18:39:29","block":8374618,"epoch":392,"slotNo":84315278,"epochSlotNo":334478,"stakeKey":"stake1u9qcnfkalursxfqt0tfgmmfkkmyrtcpuady2xp8ewqe3cksqgprty"},{"txId":61599627,"txHash":"57dab56df869e95d500f2bbcaabf8e2877496e75dc7f66620b3035d893d326e7","txTime":"2023/02/08 18:24:51","block":8374573,"epoch":392,"slotNo":84314400,"epochSlotNo":333600,"stakeKey":"stake1u9w29mfcgv630vc8qj27mns828l06x47zppcdgpkx9v9dgsq6vm5r"},{"txId":61599249,"txHash":"240d9ecbd39705bd81906df9701046bcf7888024169c9a8799bf6874e4f02862","txTime":"2023/02/08 18:18:17","block":8374557,"epoch":392,"slotNo":84314006,"epochSlotNo":333206,"stakeKey":"stake1u8s38h59gppcrtgwqkvtrvpr4c86t6lwqaphhvmd4rjhafsjzahzs"},{"txId":61599238,"txHash":"6619b991d32f4e943ce859d16529769ba7c0947e4743c0fa0530dff742e6ae7b","txTime":"2023/02/08 18:16:27","block":8374556,"epoch":392,"slotNo":84313896,"epochSlotNo":333096,"stakeKey":"stake1u8pejukjcnnerrz4kcay4d2wv6pelq0g5h3zqwxtl5aqutg5hclm4"},{"txId":61598728,"txHash":"0ab297bcdcd606e6f0256033628fe7c5c78aae54a23fe52f2291807a5b8174f9","txTime":"2023/02/08 18:06:59","block":8374527,"epoch":392,"slotNo":84313328,"epochSlotNo":332528,"stakeKey":"stake1uxl7yqx4ttfy9kw6470g5sd86u3ct3j8c6u5e8cxpg9uvygf5456e"},{"txId":61598669,"txHash":"9bbe3d622c2817d8573e079d7512ae18707b9f51a5fbb801d752968de406e3f9","txTime":"2023/02/08 18:06:08","block":8374524,"epoch":392,"slotNo":84313277,"epochSlotNo":332477,"stakeKey":"stake1u9a28h5q7xjpgzj38gdhv0mm36jayfkxe3kyzp3c570f22q98tazk"},{"txId":61598174,"txHash":"8da88a9023853d12d0cff4ff1dd6fe6a33f04ba80ebc92aa07769fc1b0fabdd2","txTime":"2023/02/08 17:55:52","block":8374502,"epoch":392,"slotNo":84312661,"epochSlotNo":331861,"stakeKey":"stake1ux75jlf7gxxelvsuetw68ytvxzxxa8s33xrqlfegaw07s6cwsqpr8"},{"txId":61598067,"txHash":"841f1abc1a6fcfe53c35754da0a7f08bca517d617f0e524192911b4d0075bf1a","txTime":"2023/02/08 17:54:00","block":8374496,"epoch":392,"slotNo":84312549,"epochSlotNo":331749,"stakeKey":"stake1u8sc3jppckke3d5e7wcu9hyv75r473lpj0hnmlvw0y4jzqsar5528"},{"txId":61597961,"txHash":"39db88e3cab726c5a3992f81ce6194d8a6f0ad31d02f93d8b14f9582f565217b","txTime":"2023/02/08 17:52:18","block":8374489,"epoch":392,"slotNo":84312447,"epochSlotNo":331647,"stakeKey":"stake1u9yc2ts833cy5dh44fl4xpuek3uz23tkqey6gjfk7633vrgak3h47"},{"txId":61597582,"txHash":"0fdceaa40c1bc6edd2d8bb801bb991e28260c36812c3983d7e0ae54a35c78937","txTime":"2023/02/08 17:46:03","block":8374469,"epoch":392,"slotNo":84312072,"epochSlotNo":331272,"stakeKey":"stake1u9ydhlshl0tl3sf3xuj8tpgu9yv8sgfes05xujalnavrfzc5v8tq3"},{"txId":61597073,"txHash":"1dadde5bb7ba82af4a25075c136d37ea1b0c4ecbf635d4de705c407520aa1916","txTime":"2023/02/08 17:38:10","block":8374452,"epoch":392,"slotNo":84311599,"epochSlotNo":330799,"stakeKey":"stake1u8z3j24ljjmeg9tgn6xrwq5usc5zmf6wanmy7tc55mzx5mcxuw74u"},{"txId":61597041,"txHash":"ed7d905cebab0ba76681cd3ab4ae8d047beaaab809f6e1a7fe75086c05753deb","txTime":"2023/02/08 17:37:49","block":8374451,"epoch":392,"slotNo":84311578,"epochSlotNo":330778,"stakeKey":"stake1u878lg07hngnx096hter4wvpmaney4nttgxcv9gswhdelssx29m4v"},{"txId":61597019,"txHash":"3804ccc46c5201a82280b337757daac3cd1c4559c1614a9cbc56a252226e5e09","txTime":"2023/02/08 17:37:09","block":8374449,"epoch":392,"slotNo":84311538,"epochSlotNo":330738,"stakeKey":"stake1u97tz8lr6uryya063fmxycgza8k0zdcky3eykc32nzctqwsh4tk5y"},{"txId":61596991,"txHash":"bfe66c19ea3a517f3bcc9309dee2198013b3ead45010e3819d36908bced4aeb6","txTime":"2023/02/08 17:36:58","block":8374448,"epoch":392,"slotNo":84311527,"epochSlotNo":330727,"stakeKey":"stake1uy660e5xfega9yp7ve5vrt6uhtwrq8ktl5lzutf7k6gx35sxu20vn"},{"txId":61596972,"txHash":"b127f0fcc13b96085e843825560b0726286d00a326e4814329920c9b123db375","txTime":"2023/02/08 17:36:42","block":8374447,"epoch":392,"slotNo":84311511,"epochSlotNo":330711,"stakeKey":"stake1uxphv55u7d67fvzvzvevauq674r8u53ftufjvv4y5es23zq95kfuk"},{"txId":61596933,"txHash":"5f700e48ec834b4bc300011f8d4db43717434cecf2273432c073df1f83170a54","txTime":"2023/02/08 17:36:03","block":8374445,"epoch":392,"slotNo":84311472,"epochSlotNo":330672,"stakeKey":"stake1u9cltkpdnfcyk896jf95tjt7n4w6nm2aawguy6ep8ln2k9qk79zkd"}],"totalItems":351704,"totalPages":17586,"currentPage":0}