{"data":[{"hash":"404dad7a3665cb7c5f6b4d0376032ef6d6bcd32e2f3ae202cf82f70abd7335a3","blockNo":7979693,"blockHash":"1c947dd2ee2eb48b1b41a38272fc0d2e46cd9264cec9df7f86728c838918e6e6","epochNo":373,"epochSlotNo":399992,"slot":76172792,"time":"2022/11/06 12:51:23","addressesInput":["addr1v9u7va2sktlnz8dp3qadpnxxlv4m03672jy6elmntlxxs7q9nnwl9","addr1vypr00ss7hkqejmvh53xkyf0p9q0a4z2uprxmx6njc463vgst3pe4","addr1v825wt0grsjpr5wku9ykrhf4lz76uuh2hqlttfpeyeew4nc8jg0c3","addr1vypr00ss7hkqejmvh53xkyf0p9q0a4z2uprxmx6njc463vgst3pe4"],"addressesOutput":["addr1vxgj9qz9lx4d57nlel2n5g6lpwymr5ynrzneus9aq56mqpgyrpwym","addr1vypr00ss7hkqejmvh53xkyf0p9q0a4z2uprxmx6njc463vgst3pe4"],"fee":197249,"totalOutput":234688407,"tokens":[]},{"hash":"beea55e74254855a41de93405cd0807fe65050355cac0675d00f63b26b7117ef","blockNo":7979693,"blockHash":"1c947dd2ee2eb48b1b41a38272fc0d2e46cd9264cec9df7f86728c838918e6e6","epochNo":373,"epochSlotNo":399992,"slot":76172792,"time":"2022/11/06 12:51:23","addressesInput":["addr1zxgx3far7qygq0k6epa0zcvcvrevmn0ypsnfsue94nsn3tvpw288a4x0xf8pxgcntelxmyclq83s0ykeehchz2wtspks905plm","addr1qyfsrklfmuns50use4sru9n7j7rru4pq2vuqzgw9nz2njn53ka9kndg5hfrx47l5fkxd0rfv0c3rzw0gnaw9pxpywnfqaxkfpl"],"addressesOutput":["addr1zxgx3far7qygq0k6epa0zcvcvrevmn0ypsnfsue94nsn3tvpw288a4x0xf8pxgcntelxmyclq83s0ykeehchz2wtspks905plm","addr1qyfsrklfmuns50use4sru9n7j7rru4pq2vuqzgw9nz2njn53ka9kndg5hfrx47l5fkxd0rfv0c3rzw0gnaw9pxpywnfqaxkfpl"],"fee":296972,"totalOutput":171492556,"tokens":[]},{"hash":"fb837ddbc1abb8ac12284a26a8ffaf2ef0b5fb7866c67c79b2d04a9eed45940e","blockNo":7979693,"blockHash":"1c947dd2ee2eb48b1b41a38272fc0d2e46cd9264cec9df7f86728c838918e6e6","epochNo":373,"epochSlotNo":399992,"slot":76172792,"time":"2022/11/06 12:51:23","addressesInput":["addr1zxgx3far7qygq0k6epa0zcvcvrevmn0ypsnfsue94nsn3tvpw288a4x0xf8pxgcntelxmyclq83s0ykeehchz2wtspks905plm","addr1q8ayn6w8p8q6eqq57quxtpdqeuq7f8v0l4096frcgjtrvuyacfn0g5dhfwaqzz5f9qjrvyr5e25m6k5g524nv54zjdhswc4w90"],"addressesOutput":["addr1zxgx3far7qygq0k6epa0zcvcvrevmn0ypsnfsue94nsn3tvpw288a4x0xf8pxgcntelxmyclq83s0ykeehchz2wtspks905plm","addr1q8ayn6w8p8q6eqq57quxtpdqeuq7f8v0l4096frcgjtrvuyacfn0g5dhfwaqzz5f9qjrvyr5e25m6k5g524nv54zjdhswc4w90"],"fee":297500,"totalOutput":6357010,"tokens":[]},{"hash":"f109b288f6c16df2c79c9ad290c1f3182bda93175f0d6c9131e5de09bf4a1163","blockNo":7979693,"blockHash":"1c947dd2ee2eb48b1b41a38272fc0d2e46cd9264cec9df7f86728c838918e6e6","epochNo":373,"epochSlotNo":399992,"slot":76172792,"time":"2022/11/06 12:51:23","addressesInput":["addr1qx5fr5fjurpezc2x2076xjzahzfyg8eva52vl5a9q6y8spf79l52pfzyhdtfxud47c4jvqt3yur0lqs3yszx9mecwy5qyx5n74"],"addressesOutput":["addr1zxgx3far7qygq0k6epa0zcvcvrevmn0ypsnfsue94nsn3tvpw288a4x0xf8pxgcntelxmyclq83s0ykeehchz2wtspks905plm","addr1qx5fr5fjurpezc2x2076xjzahzfyg8eva52vl5a9q6y8spf79l52pfzyhdtfxud47c4jvqt3yur0lqs3yszx9mecwy5qyx5n74","addr1qx5fr5fjurpezc2x2076xjzahzfyg8eva52vl5a9q6y8spf79l52pfzyhdtfxud47c4jvqt3yur0lqs3yszx9mecwy5qyx5n74"],"fee":202329,"totalOutput":3797671,"tokens":[]},{"hash":"c23ad98d2f186f40de549353b0b3fc3f14c2c1c40411cc81793e5cc47b7e5a88","blockNo":7979693,"blockHash":"1c947dd2ee2eb48b1b41a38272fc0d2e46cd9264cec9df7f86728c838918e6e6","epochNo":373,"epochSlotNo":399992,"slot":76172792,"time":"2022/11/06 12:51:23","addressesInput":["addr1wxn9efv2f6w82hagxqtn62ju4m293tqvw0uhmdl64ch8uwc0h43gt"],"addressesOutput":["addr1qx9ull4pl4uxnl8xkk9uwpn7mx5x6n63j3ylpk3ttj5l04ksh4llc6g6w9jkkfp6sf546s6nm6jkpjs2epszyel9644qe894da"],"fee":516725,"totalOutput":3483275,"tokens":[]},{"hash":"d78081dce8102fd290e44dd5581cbf73b5902d1e5011f823acf609d242c1e074","blockNo":7979693,"blockHash":"1c947dd2ee2eb48b1b41a38272fc0d2e46cd9264cec9df7f86728c838918e6e6","epochNo":373,"epochSlotNo":399992,"slot":76172792,"time":"2022/11/06 12:51:23","addressesInput":["addr1zxj47sy4qxlktqzmkrw8dahe46gtv8seakrshsqz26qnvzypw288a4x0xf8pxgcntelxmyclq83s0ykeehchz2wtspksr3q9nx","addr1qxdc78h0p2wf7fnvk9ueyyctsjxd8nep39k37u3gnr4egcmmnswa38vcxsgke3dckhmttaaj8rh4v6n2284x02mfz3xqcj25mc"],"addressesOutput":["addr1zxj47sy4qxlktqzmkrw8dahe46gtv8seakrshsqz26qnvzypw288a4x0xf8pxgcntelxmyclq83s0ykeehchz2wtspksr3q9nx","addr1qxdc78h0p2wf7fnvk9ueyyctsjxd8nep39k37u3gnr4egcmmnswa38vcxsgke3dckhmttaaj8rh4v6n2284x02mfz3xqcj25mc"],"fee":605808,"totalOutput":7743515,"tokens":[]},{"hash":"27b91601d41386a949f20e3d17956bd750eda632aa79e8ed3b3691794eb644d4","blockNo":7979693,"blockHash":"1c947dd2ee2eb48b1b41a38272fc0d2e46cd9264cec9df7f86728c838918e6e6","epochNo":373,"epochSlotNo":399992,"slot":76172792,"time":"2022/11/06 12:51:23","addressesInput":["addr1vypr00ss7hkqejmvh53xkyf0p9q0a4z2uprxmx6njc463vgst3pe4"],"addressesOutput":["addr1qxy0vqzxnv2p7twudf0qnhqr55w0f4dd49qx56lhdc2djkvd7adhg6kfl6qyrmycj8w5kny8ex8kakf2e7c38h9g3mvqzhgrkp","addr1v9u7va2sktlnz8dp3qadpnxxlv4m03672jy6elmntlxxs7q9nnwl9"],"fee":171221,"totalOutput":118835416,"tokens":[]},{"hash":"16a72f9422025de88e4e5e870f68f35af1f71a4a553d1f34b338c84b20b5664f","blockNo":7979693,"blockHash":"1c947dd2ee2eb48b1b41a38272fc0d2e46cd9264cec9df7f86728c838918e6e6","epochNo":373,"epochSlotNo":399992,"slot":76172792,"time":"2022/11/06 12:51:23","addressesInput":["addr1qy3k2508vtttra6tfyfuhlw7gvelw7juzxu442mdk6ehykr70hxagwngtv73ucggghu5j0q28js94qcwmv9lsej3ruxsx4q0st","addr1qy3k2508vtttra6tfyfuhlw7gvelw7juzxu442mdk6ehykr70hxagwngtv73ucggghu5j0q28js94qcwmv9lsej3ruxsx4q0st","addr1wy30zf2g4xc7v872fdweewrlj3lh2lgttelmydn0cvhyplsg3vnkq"],"addressesOutput":["addr1qy3k2508vtttra6tfyfuhlw7gvelw7juzxu442mdk6ehykr70hxagwngtv73ucggghu5j0q28js94qcwmv9lsej3ruxsx4q0st","addr1wy30zf2g4xc7v872fdweewrlj3lh2lgttelmydn0cvhyplsg3vnkq"],"fee":826149,"totalOutput":12980278,"tokens":[]},{"hash":"f5de380a6b83b1c74895d4a0ecf5d79c55eefa7f57bd3a1b708582ec2ad80620","blockNo":7979693,"blockHash":"1c947dd2ee2eb48b1b41a38272fc0d2e46cd9264cec9df7f86728c838918e6e6","epochNo":373,"epochSlotNo":399992,"slot":76172792,"time":"2022/11/06 12:51:23","addressesInput":["addr1q8hwdsdqjpvm54l3wpkyes34uutl5saxhq53hhs5urhnk0u2wmfyrjv7qlhhtxrkzc5y75cjlutt070p9tt6c5tcnruszk03yk","addr1q8hwdsdqjpvm54l3wpkyes34uutl5saxhq53hhs5urhnk0u2wmfyrjv7qlhhtxrkzc5y75cjlutt070p9tt6c5tcnruszk03yk"],"addressesOutput":["addr1zxgx3far7qygq0k6epa0zcvcvrevmn0ypsnfsue94nsn3tvpw288a4x0xf8pxgcntelxmyclq83s0ykeehchz2wtspks905plm","addr1q8hwdsdqjpvm54l3wpkyes34uutl5saxhq53hhs5urhnk0u2wmfyrjv7qlhhtxrkzc5y75cjlutt070p9tt6c5tcnruszk03yk"],"fee":207741,"totalOutput":5093442,"tokens":[]},{"hash":"bee31f461816fdf4b0b4849561b01936d19e7d94227ed9b5404b4fafec2158e4","blockNo":7979693,"blockHash":"1c947dd2ee2eb48b1b41a38272fc0d2e46cd9264cec9df7f86728c838918e6e6","epochNo":373,"epochSlotNo":399992,"slot":76172792,"time":"2022/11/06 12:51:23","addressesInput":["addr1q9kxt6wfyqwhmlnmwzg0p9z4rju256p3kfjpeldv65enqaesq35ay9n5yspfkry8a6gldece03ehvlrlkze4d9ahwq3qf2xlzg","addr1q9kxt6wfyqwhmlnmwzg0p9z4rju256p3kfjpeldv65enqaesq35ay9n5yspfkry8a6gldece03ehvlrlkze4d9ahwq3qf2xlzg"],"addressesOutput":["addr1wxaptpmxcxawvr3pzlhgnpmzz3ql43n2tc8mn3av5kx0yzs09tqh8","addr1q9kxt6wfyqwhmlnmwzg0p9z4rju256p3kfjpeldv65enqaesq35ay9n5yspfkry8a6gldece03ehvlrlkze4d9ahwq3qf2xlzg"],"fee":182177,"totalOutput":560803027,"tokens":[]},{"hash":"636ceae0e8fc36d4de525908cd4d964fa3c2a6e67998d628b6d5741956cfb85d","blockNo":7979693,"blockHash":"1c947dd2ee2eb48b1b41a38272fc0d2e46cd9264cec9df7f86728c838918e6e6","epochNo":373,"epochSlotNo":399992,"slot":76172792,"time":"2022/11/06 12:51:23","addressesInput":["addr1vxj5ddcsx72sdmpcxc9wlserugx6rnznzpj2sn76gx66kvqcx4nym","addr1vxj5ddcsx72sdmpcxc9wlserugx6rnznzpj2sn76gx66kvqcx4nym","addr1z9cy2gmar6cpn8yymll93lnd7lw96f27kn2p3eq5d4tjr7rshnr04ple6jjfc0cvcmcpcxmsh576v7j2mjk8tw890vespzvgwd","addr1w9e7m6yn74r7m0f9mf548ldr8j4v6q05gprey2lhch8tj5gsvyte9"],"addressesOutput":["addr1vxj5ddcsx72sdmpcxc9wlserugx6rnznzpj2sn76gx66kvqcx4nym","addr1vxj5ddcsx72sdmpcxc9wlserugx6rnznzpj2sn76gx66kvqcx4nym","addr1z9cy2gmar6cpn8yymll93lnd7lw96f27kn2p3eq5d4tjr7rshnr04ple6jjfc0cvcmcpcxmsh576v7j2mjk8tw890vespzvgwd","addr1qxj4ym536gft5pxm6v6celqknscj26mvk93p78yxdk5x3q8ewtnj5lnraru93y36k6vunf2ztskw6jvqp9kmdphfheyqcs3ue5"],"fee":830515,"totalOutput":191888738924,"tokens":[]},{"hash":"77ff4dfa70bb47fab8b2e84359c70f55beab37f337c14b6e739b64415d1e1016","blockNo":7979693,"blockHash":"1c947dd2ee2eb48b1b41a38272fc0d2e46cd9264cec9df7f86728c838918e6e6","epochNo":373,"epochSlotNo":399992,"slot":76172792,"time":"2022/11/06 12:51:23","addressesInput":["addr1qy44r8qxcs5z9vp7rtvmtjyrfd407052lh6ccl3974pcsnx24d3m90rtj892wgzv07zzgfp2p77mqtakj24d4far4ddswev0sr","addr1qy44r8qxcs5z9vp7rtvmtjyrfd407052lh6ccl3974pcsnx24d3m90rtj892wgzv07zzgfp2p77mqtakj24d4far4ddswev0sr"],"addressesOutput":["addr1wxn9efv2f6w82hagxqtn62ju4m293tqvw0uhmdl64ch8uwc0h43gt","addr1qxs76zpnfyq5w0xrpjwrkkghch0ew024j83hx0dg00f9xjrx828mrjy00s2sd8awhvummze55m8hq4fqghdzqlcaqwlshwkm0m","addr1qy44r8qxcs5z9vp7rtvmtjyrfd407052lh6ccl3974pcsnx24d3m90rtj892wgzv07zzgfp2p77mqtakj24d4far4ddswev0sr","addr1qxqyujjnhem77w5z23c759aq8cefjzuw4qf2qa8dfqrkq8x24d3m90rtj892wgzv07zzgfp2p77mqtakj24d4far4ddscyv7a8"],"fee":216849,"totalOutput":35188956,"tokens":[]},{"hash":"30e0e01972fd617994d8241e92e9117fd9ca8925f9fdda65a3d4d286de239d62","blockNo":7979693,"blockHash":"1c947dd2ee2eb48b1b41a38272fc0d2e46cd9264cec9df7f86728c838918e6e6","epochNo":373,"epochSlotNo":399992,"slot":76172792,"time":"2022/11/06 12:51:23","addressesInput":["addr1qxwz0gd4jmvy3wzfmdwee52am85mkku6yh6ukyer6nejwmslumzqwk4a8fgvjr5hrsmhg6zlshy8zdl8qwue0cq0w9nsyyrhew","addr1zxgx3far7qygq0k6epa0zcvcvrevmn0ypsnfsue94nsn3tvpw288a4x0xf8pxgcntelxmyclq83s0ykeehchz2wtspks905plm"],"addressesOutput":["addr1zxgx3far7qygq0k6epa0zcvcvrevmn0ypsnfsue94nsn3tvpw288a4x0xf8pxgcntelxmyclq83s0ykeehchz2wtspks905plm","addr1qxwz0gd4jmvy3wzfmdwee52am85mkku6yh6ukyer6nejwmslumzqwk4a8fgvjr5hrsmhg6zlshy8zdl8qwue0cq0w9nsyyrhew"],"fee":297134,"totalOutput":135978659,"tokens":[]},{"hash":"2c7a0d78e4838934492d68bf8f2b7106e8d8700ab2bd973cf181d149e98bb542","blockNo":7979693,"blockHash":"1c947dd2ee2eb48b1b41a38272fc0d2e46cd9264cec9df7f86728c838918e6e6","epochNo":373,"epochSlotNo":399992,"slot":76172792,"time":"2022/11/06 12:51:23","addressesInput":["addr1v9ywm0h3r8cnxrs04gfy7c3s2j44utjyvn5ldjdca0c2ltccgqdes"],"addressesOutput":["addr1q9j78hwn27s5nkktfhjs3tm9h75082lkr6j445k7llza6made4wq5m8pc4lz89cr4t4fdg8wk6mlrhpnd6ugfuve26wqwcz3t0"],"fee":182133,"totalOutput":4817867,"tokens":[]},{"hash":"ad7ae07bb1dee5d261c55ab0d89f445989486e3090d354c8aeba2e3cc2c9855e","blockNo":7979693,"blockHash":"1c947dd2ee2eb48b1b41a38272fc0d2e46cd9264cec9df7f86728c838918e6e6","epochNo":373,"epochSlotNo":399992,"slot":76172792,"time":"2022/11/06 12:51:23","addressesInput":["addr1q9vc8ngfhgdk3a3wh7k04vg8742mmh9auu64zlwea2terpgfxwuz75nrk745pe3vkf89fvl5dgsncdzxddn3jk2k7tqstjqyzs","addr1q9vc8ngfhgdk3a3wh7k04vg8742mmh9auu64zlwea2terpgfxwuz75nrk745pe3vkf89fvl5dgsncdzxddn3jk2k7tqstjqyzs","addr1q9vc8ngfhgdk3a3wh7k04vg8742mmh9auu64zlwea2terpgfxwuz75nrk745pe3vkf89fvl5dgsncdzxddn3jk2k7tqstjqyzs"],"addressesOutput":["addr1q9vc8ngfhgdk3a3wh7k04vg8742mmh9auu64zlwea2terpgfxwuz75nrk745pe3vkf89fvl5dgsncdzxddn3jk2k7tqstjqyzs","addr1q9cwvremt6n320s2e3agq0jyq82yhrk3htsu0w426xnz5us70z4w0jgvcdkkynmm8wmds66jd9kusnjfpu6raw5fqp0sr07p5w","addr1q9vc8ngfhgdk3a3wh7k04vg8742mmh9auu64zlwea2terpgfxwuz75nrk745pe3vkf89fvl5dgsncdzxddn3jk2k7tqstjqyzs"],"fee":219357,"totalOutput":7149234,"tokens":[]},{"hash":"50f4a7ace869166b90ec5b75c615422b750e63415c5d8d69d874822cdeec1a94","blockNo":7979693,"blockHash":"1c947dd2ee2eb48b1b41a38272fc0d2e46cd9264cec9df7f86728c838918e6e6","epochNo":373,"epochSlotNo":399992,"slot":76172792,"time":"2022/11/06 12:51:23","addressesInput":["addr1qy7ldfvd3dv305t6q20j56unh90g5ddv49jhnrh6u6m2kj5s8rvzxycv8s9w257yvz2enr7p9kmpnxeq7jntle0y0dzqgqrkm2"],"addressesOutput":["addr1qy7ldfvd3dv305t6q20j56unh90g5ddv49jhnrh6u6m2kj5s8rvzxycv8s9w257yvz2enr7p9kmpnxeq7jntle0y0dzqgqrkm2"],"fee":175157,"totalOutput":2173804500,"tokens":[]},{"hash":"6446e018581a30f1b764d4186bdf817c2405106dc0ecd8aa0cbb2d4bbb34c25f","blockNo":7979693,"blockHash":"1c947dd2ee2eb48b1b41a38272fc0d2e46cd9264cec9df7f86728c838918e6e6","epochNo":373,"epochSlotNo":399992,"slot":76172792,"time":"2022/11/06 12:51:23","addressesInput":["addr1zxgx3far7qygq0k6epa0zcvcvrevmn0ypsnfsue94nsn3tvpw288a4x0xf8pxgcntelxmyclq83s0ykeehchz2wtspks905plm","addr1q8tyfq99ntsnhsh492fhhv2d3uhzjknuy7w0l8fz53u98wyle574z00q4ag20c0wjqljur0utsvkq6ge4wdtefzlfyyqewmcld"],"addressesOutput":["addr1zxgx3far7qygq0k6epa0zcvcvrevmn0ypsnfsue94nsn3tvpw288a4x0xf8pxgcntelxmyclq83s0ykeehchz2wtspks905plm","addr1q8tyfq99ntsnhsh492fhhv2d3uhzjknuy7w0l8fz53u98wyle574z00q4ag20c0wjqljur0utsvkq6ge4wdtefzlfyyqewmcld"],"fee":297442,"totalOutput":161025728,"tokens":[]},{"hash":"cde03e9581de43dc81fffd6e33342f4613362e620047826a64dd14552bf6ace6","blockNo":7979693,"blockHash":"1c947dd2ee2eb48b1b41a38272fc0d2e46cd9264cec9df7f86728c838918e6e6","epochNo":373,"epochSlotNo":399992,"slot":76172792,"time":"2022/11/06 12:51:23","addressesInput":["addr1qyn57yewp6rpzd0pfa52pape4szkhr5utpsru3dmta6pv47y4axtxty4x9mhy0xrssj59dx3fzl8cjjk4mjxalecwq4swg8zhr","addr1qyn57yewp6rpzd0pfa52pape4szkhr5utpsru3dmta6pv47y4axtxty4x9mhy0xrssj59dx3fzl8cjjk4mjxalecwq4swg8zhr"],"addressesOutput":["addr1zxgx3far7qygq0k6epa0zcvcvrevmn0ypsnfsue94nsn3tvpw288a4x0xf8pxgcntelxmyclq83s0ykeehchz2wtspks905plm","addr1qyn57yewp6rpzd0pfa52pape4szkhr5utpsru3dmta6pv47y4axtxty4x9mhy0xrssj59dx3fzl8cjjk4mjxalecwq4swg8zhr"],"fee":212141,"totalOutput":281067684,"tokens":[]},{"hash":"fbb5329d56b48d387ae0733e1d1ad745099691367e7e4404050461233f2ae706","blockNo":7979693,"blockHash":"1c947dd2ee2eb48b1b41a38272fc0d2e46cd9264cec9df7f86728c838918e6e6","epochNo":373,"epochSlotNo":399992,"slot":76172792,"time":"2022/11/06 12:51:23","addressesInput":["addr1qyakvq8sknespjcnd0hvnszaj6at6rk7kwdg920eqqtzv6ac6jju83fawh0cqjqvdnkeuc5q73negcp5mzk3y35hkucqptru8e"],"addressesOutput":["addr1v9ywm0h3r8cnxrs04gfy7c3s2j44utjyvn5ldjdca0c2ltccgqdes","addr1qyakvq8sknespjcnd0hvnszaj6at6rk7kwdg920eqqtzv6ac6jju83fawh0cqjqvdnkeuc5q73negcp5mzk3y35hkucqptru8e"],"fee":175661,"totalOutput":45292680,"tokens":[]},{"hash":"8ac4cbefccf8034381341e80f22db407f8a4496109732c5d6552df753ce64ccd","blockNo":7979693,"blockHash":"1c947dd2ee2eb48b1b41a38272fc0d2e46cd9264cec9df7f86728c838918e6e6","epochNo":373,"epochSlotNo":399992,"slot":76172792,"time":"2022/11/06 12:51:23","addressesInput":["addr1w900lhhyxkenvzluf2kaazfufs09xq4v9lmdfc3y9c0ta0qy3jxrp","addr1w8ssx8c4jgxvze4p8qqtdvqd7exjl3ths6pxycgjsnw66wqshlgar","addr1w84y5t5l32s9raedcegt64qfa2kseexgjqlqs3qg2akclqsatc9jv","addr1w9gpqcjytr8fe3nj8r7vautftvtr4l4nzkveh7e23pstkwgaak8p3","addr1v9k7rycfeqe585j0v34czeyq46qwgn9as2w2rq838497kwg089a4u","addr1wyf9n27a7sa5y0lmfn9duuj6llvgvfw5slk8yq3nktwej4sjuzja2","addr1wxrjur2nnd9q9qm38lml9gvlfhgmcx98xuqvsm5kxrlxpqsm6yka4","addr1vy3qpx09uscywhppj5vp08hu0ekg9zwmq2ysfq6qyh2mpps865j6t","addr1w8dmtwktj7lktd0zv0wpxuny590ndshmj3z8xxmq3tjyvdggs35jy","addr1w8usfr3avzl8qh5wm9wcy8uv7cr800ft5vjz5dw3pxeh8fgdp6e6r","addr1w93lm2nrudtf27lfqpz244mdjff3slqdutlydajpgy6gpjgtu4lv9","addr1w9rerwzk0f5v4den9u2c7anv2d4dl88hq9cq0xgcmernsfsak7w6r","addr1w9xc5279jqxql020jp295d377nqrms826gnhgqxt5g5m9dqlfqf3f","addr1v8ek2fa8za8chucvkeushlmppt8z8hx2whhd78h4nlj4adg5tkm56","addr1wyunayz9dmalcsh2f2ey3hmtszgt278yhrhfwszkw20ph2cqetfsl","addr1w8n8hyq3zc9eugnav265f8549nagc7ejdg2euhrvyzh5q0szhc5kw","addr1wxau62drpn3e832yqhhjqjvw3qxuztuns2f93qvzq5w78qsavxpmv","addr1w80k8xe6vckm3qgklhw98tqjekfvw3mgwux3stmtq3jlprga3u33c","addr1v8pr9mwnqarw808gtllvmlxvk70hnszrukjeqfstr9t9g5crud8c4","addr1w8vh8ssekk52ye3pt7a2j8upv3qphzmar2sj68353xds9lq5urex7","addr1w9ajju6j56lsupjlcdas2dqwz90dlq8xdrg9yfslrksspfqmvfc4a","addr1w828m0rdlumnp30dwmv33l4akzhxcpx7a64tuvjwhjn7pxgngjrpx","addr1wxugd4ufxmtrnh9jz28543daw9plce3x3nmcnamj5appugcpv2jrq","addr1wxtm4swek98d4lp3c8a7pdzphzh9gt68s2jl6csps3j5w5c67cs2k","addr1v9yw464r3c97ngr9cwg795std729hyc6005wgyz78pzgmrce2lc32","addr1w835n68qeax023uperwgwlruk3d8yjl4k98r433nhw5waqgkx8prf","addr1wxje849hq4nmnqs8u3s3tdhyjum7sw4y9j29hlmh6x944cg7xdmn6","addr1w92fpglpvanf795jm76q0nskx0tu6z5jpqph4n8dzvksyfcrtkfwy","addr1w8tqqyccvj7402zns2tea78d42etw520fzvf22zmyasjdtsv3e5rz"],"addressesOutput":["addr1vy3qpx09uscywhppj5vp08hu0ekg9zwmq2ysfq6qyh2mpps865j6t","addr1v8pr9mwnqarw808gtllvmlxvk70hnszrukjeqfstr9t9g5crud8c4","addr1qxw5k8p56xwqs78y3exkmamrkqtjj3r0x5yfc9t2r358cgcgpl33hd8ct4glgxzfglfnrhyw38au45dgl2awgmnnqhnq347vff","addr1q8240xks5aetnyq973mtw7an0y6zu2j2s59q9eusje658srzph6nl2n00vumxmephf7h7xsv88j2g2qwqptvslesyt3qg4sfmf","addr1qxd0yd8sk277c8rd59undx0hn5u9my4a524vy4jv6d5rrmya0k03ew8qu34m7c73vvlnpm6u370528268cw2ky6nq8gsgfdsem","addr1w9xc5279jqxql020jp295d377nqrms826gnhgqxt5g5m9dqlfqf3f","addr1w92fpglpvanf795jm76q0nskx0tu6z5jpqph4n8dzvksyfcrtkfwy","addr1w8usfr3avzl8qh5wm9wcy8uv7cr800ft5vjz5dw3pxeh8fgdp6e6r","addr1w8vh8ssekk52ye3pt7a2j8upv3qphzmar2sj68353xds9lq5urex7","addr1wyf9n27a7sa5y0lmfn9duuj6llvgvfw5slk8yq3nktwej4sjuzja2","addr1w8n8hyq3zc9eugnav265f8549nagc7ejdg2euhrvyzh5q0szhc5kw","addr1wxugd4ufxmtrnh9jz28543daw9plce3x3nmcnamj5appugcpv2jrq","addr1w828m0rdlumnp30dwmv33l4akzhxcpx7a64tuvjwhjn7pxgngjrpx","addr1w8tqqyccvj7402zns2tea78d42etw520fzvf22zmyasjdtsv3e5rz","addr1wxje849hq4nmnqs8u3s3tdhyjum7sw4y9j29hlmh6x944cg7xdmn6","addr1w8dmtwktj7lktd0zv0wpxuny590ndshmj3z8xxmq3tjyvdggs35jy","addr1w80k8xe6vckm3qgklhw98tqjekfvw3mgwux3stmtq3jlprga3u33c","addr1w9rerwzk0f5v4den9u2c7anv2d4dl88hq9cq0xgcmernsfsak7w6r","addr1wxau62drpn3e832yqhhjqjvw3qxuztuns2f93qvzq5w78qsavxpmv","addr1w93lm2nrudtf27lfqpz244mdjff3slqdutlydajpgy6gpjgtu4lv9","addr1w9ajju6j56lsupjlcdas2dqwz90dlq8xdrg9yfslrksspfqmvfc4a","addr1wyunayz9dmalcsh2f2ey3hmtszgt278yhrhfwszkw20ph2cqetfsl","addr1w835n68qeax023uperwgwlruk3d8yjl4k98r433nhw5waqgkx8prf","addr1w9gpqcjytr8fe3nj8r7vautftvtr4l4nzkveh7e23pstkwgaak8p3","addr1w84y5t5l32s9raedcegt64qfa2kseexgjqlqs3qg2akclqsatc9jv","addr1w8ssx8c4jgxvze4p8qqtdvqd7exjl3ths6pxycgjsnw66wqshlgar","addr1w900lhhyxkenvzluf2kaazfufs09xq4v9lmdfc3y9c0ta0qy3jxrp","addr1wxrjur2nnd9q9qm38lml9gvlfhgmcx98xuqvsm5kxrlxpqsm6yka4","addr1wxtm4swek98d4lp3c8a7pdzphzh9gt68s2jl6csps3j5w5c67cs2k"],"fee":597713,"totalOutput":7100775769,"tokens":[]}],"totalItems":53870627,"totalPages":2693532,"currentPage":0}