{"data":[{"blockNo":8234000,"slotNo":81413060,"epochNo":386,"epochSlotNo":24260,"hash":"a1ad4be2effa121bcd8a9a65932a5d9bca5ebb477ebc82bfdfab2eefaec9b5a0","time":"2023/01/06 04:29:11","txCount":31,"totalFees":10011268,"totalOutput":87291649075,"slotLeader":"a24a0b7f7dec890db8c59c47646290522234a522a98f00cf2d589a80"},{"blockNo":8233999,"slotNo":81413023,"epochNo":386,"epochSlotNo":24223,"hash":"30f310178f666419f6d63e77562e2a39f1a95701ff4ece58e976bd462a6f4077","time":"2023/01/06 04:28:34","txCount":5,"totalFees":2348143,"totalOutput":1510641030,"slotLeader":"1bdb8db050fb6cfd13a8e34ddec812e0aec77c589f71fc396cd9d950"},{"blockNo":8233998,"slotNo":81413017,"epochNo":386,"epochSlotNo":24217,"hash":"62fd365e191b8cffd2287deb704492302530ac52bb08ee6881272e8763e83ac1","time":"2023/01/06 04:28:28","txCount":15,"totalFees":6754940,"totalOutput":1321167398642,"slotLeader":"153806dbcd134ddee69a8c5204e38ac80448f62342f8c23cfe4b7edf"},{"blockNo":8233997,"slotNo":81413015,"epochNo":386,"epochSlotNo":24215,"hash":"ee8b53f99bf6c54cd13432cebf2949cb636c179cd00bce0fa70e66e3d6e92122","time":"2023/01/06 04:28:26","txCount":30,"totalFees":12237130,"totalOutput":201036007330,"slotLeader":"fa58244068bef886049b3e8fbba8aa39f227ce78168efdf7629111c5"},{"blockNo":8233996,"slotNo":81412953,"epochNo":386,"epochSlotNo":24153,"hash":"781b4eff1e1f410b5517cc889597a780c251c6e7b05bf94dd2df4e7e2e32dd34","time":"2023/01/06 04:27:24","txCount":17,"totalFees":6221421,"totalOutput":11094792573950,"slotLeader":"b0c53bbb91bd03c5417c87c7488a83de68f5ea27aefb886c9fc4ff27"},{"blockNo":8233995,"slotNo":81412938,"epochNo":386,"epochSlotNo":24138,"hash":"183fd2c48629ca7a1e3f3608cdc881f5f6aaa40929405c88941590d2ae4dd4ba","time":"2023/01/06 04:27:09","txCount":4,"totalFees":1831025,"totalOutput":138475662437,"slotLeader":"000000f66e28b0f18aef20555f4c4954234e3270dfbbdcc13f54e799"},{"blockNo":8233994,"slotNo":81412932,"epochNo":386,"epochSlotNo":24132,"hash":"556fa445d76200e56bfdcdb5a262747ca19489dd405f15e25fd7f7f8e9c2bd00","time":"2023/01/06 04:27:03","txCount":30,"totalFees":10655566,"totalOutput":1390679342134,"slotLeader":"50a251d84927d932b9393cb462f300d215faedd5e8a5e791e869f32c"},{"blockNo":8233993,"slotNo":81412885,"epochNo":386,"epochSlotNo":24085,"hash":"c9034c3b064d76a2e850843493448cc845436cd5d2f2449623523f9b8abf1a88","time":"2023/01/06 04:26:16","txCount":8,"totalFees":2500271,"totalOutput":319484367339,"slotLeader":"fa58244068bef886049b3e8fbba8aa39f227ce78168efdf7629111c5"},{"blockNo":8233992,"slotNo":81412883,"epochNo":386,"epochSlotNo":24083,"hash":"08da48210bb0970d538df67a58b26b7f5b9a80f2f6168e617cb14636bc52348e","time":"2023/01/06 04:26:14","txCount":34,"totalFees":12009419,"totalOutput":101635752550,"slotLeader":"37303e39c681371e158fdd7268f4546d581114dc3fbcc87cbc6856f0"},{"blockNo":8233991,"slotNo":81412834,"epochNo":386,"epochSlotNo":24034,"hash":"b474f5ade446e8af95622f0ff8703bc5e6b7568ae317560760770fd7a1731a3a","time":"2023/01/06 04:25:25","txCount":0,"totalFees":0,"totalOutput":0,"slotLeader":"3e695a66ff6e2ed3806701bc0f6e8dfc85db114b71864999425147c5"}],"totalItems":1156,"totalPages":116,"currentPage":0}