{"data":[{"txId":30586515,"txHash":"9feb237a7ea86c6bc33dbbcc983c4180c89f96de1ce3d151367cac4e9c734762","txTime":"2022/02/09 03:18:59","block":6859390,"epoch":319,"slotNo":52810448,"epochSlotNo":365648,"stakeKey":"stake1u85q72rl5mlt70vekuwe5y9d2hlkakjtfkrs8plpdwg4r4cr55twl"},{"txId":30586310,"txHash":"3ec05db19bc45ee9dfd0354fa85745aa2a462ac08d6ea2965df5627d49b49a45","txTime":"2022/02/09 03:16:16","block":6859384,"epoch":319,"slotNo":52810285,"epochSlotNo":365485,"stakeKey":"stake1u8qxpm4e0cjhr265mgnsc9fm9xwrrtsa2h26cxmr56pwajcuzqqy0"},{"txId":30585939,"txHash":"d2dbe4c8293c058e79ecdc4b0bf43c0ef459b5c5f557d23d80725127cf80a0e0","txTime":"2022/02/09 03:10:28","block":6859370,"epoch":319,"slotNo":52809937,"epochSlotNo":365137,"stakeKey":"stake1u8a97898tax9g5esj5qc536aac6q477jrxvh345e9jzegwspsupdg"},{"txId":30585468,"txHash":"43c9008d7f2dddfb117211d9afc21b74851913462be52e550c4ba0b34684854d","txTime":"2022/02/09 03:03:08","block":6859347,"epoch":319,"slotNo":52809497,"epochSlotNo":364697,"stakeKey":"stake1u999xgvmyztyu8e0rpgv77833r6n30ezg5mm9mzlk97tryqlp0vzd"},{"txId":30585120,"txHash":"3890bd47864cfd93ff9959ede70d9546e7ca2742be99659d25e923d6aacd7cbe","txTime":"2022/02/09 02:59:52","block":6859335,"epoch":319,"slotNo":52809301,"epochSlotNo":364501,"stakeKey":"stake1u8mzczs0acz7j8y3qlzrngcsam6lj76s0d9ym25jhsuk5lgfyw6lx"},{"txId":30585119,"txHash":"d7c7e38230debca01aacd28159659d8f4741a39e4477902bf0bcfa1464b024ea","txTime":"2022/02/09 02:59:52","block":6859335,"epoch":319,"slotNo":52809301,"epochSlotNo":364501,"stakeKey":"stake1uydjzwsvta8ngmyjs0hnwqr5aj07cn4ajj4lhanfmvg47zqwcwlj6"},{"txId":30584952,"txHash":"20b4a2199685a07bc233a84d956048738bb97984118457e7a6807feae9e9fd01","txTime":"2022/02/09 02:59:14","block":6859328,"epoch":319,"slotNo":52809263,"epochSlotNo":364463,"stakeKey":"stake1uxz055sap04e6t3k6ljcns0n8zxe46utvyrcqkml7tn6wgqv5fcn5"},{"txId":30584789,"txHash":"2d8db11112941175becbfd821984fbace01a24ac3bc56825143c727da45c9a80","txTime":"2022/02/09 02:57:37","block":6859322,"epoch":319,"slotNo":52809166,"epochSlotNo":364366,"stakeKey":"stake1u8u0fss2yfqfazw4qnap5h0kpsxzleyd4n7uzascy64jsmc64l9k4"},{"txId":30584450,"txHash":"15371637f5b5cedff520ff35b1159f2d1efe3ea045b5f8cdaabf49690eeff403","txTime":"2022/02/09 02:53:57","block":6859312,"epoch":319,"slotNo":52808946,"epochSlotNo":364146,"stakeKey":"stake1u8e29mt2p8mjgkmwjf0kundevkqng9ekvkparrgtxessrss7u4q5q"},{"txId":30584439,"txHash":"c826994ecff81d28daf6a54110c9cd28e0c98039272d4819cb16bdfdfdcc3f6b","txTime":"2022/02/09 02:53:57","block":6859312,"epoch":319,"slotNo":52808946,"epochSlotNo":364146,"stakeKey":"stake1u8n530nr0xgjt4l94c6nn678eeqmf6h574m7knz4fjtgyjsw8ha0z"},{"txId":30584284,"txHash":"43ea15617ee9a4413e3f92eb403ae31e6af788956730175d434d56d6af93cce1","txTime":"2022/02/09 02:52:21","block":6859307,"epoch":319,"slotNo":52808850,"epochSlotNo":364050,"stakeKey":"stake1uyps3cdghw67gycm8nayw6mgtnma5l8rd8uu62lwmcazvvqgzfzw6"},{"txId":30584199,"txHash":"b675d334d815a77e685a2efd98982f5ca0b77b0b62c3507d8938670c7c056ebc","txTime":"2022/02/09 02:51:09","block":6859303,"epoch":319,"slotNo":52808778,"epochSlotNo":363978,"stakeKey":"stake1u9kg9l3wz5d632f7hdv40wavcptrwacxax4lqxke93f4v2qpdvymk"},{"txId":30584108,"txHash":"0d46e9fb15fa1bda7ea2d2165f03104f6e00dc0cdc48ece3f076fe08390afa3c","txTime":"2022/02/09 02:50:02","block":6859300,"epoch":319,"slotNo":52808711,"epochSlotNo":363911,"stakeKey":"stake1uxlupw6ak25wyheheey3a8vzk9qylly2dcxzvv476ugwy2q980a4h"},{"txId":30584106,"txHash":"323617adfd071d56fe66db07e28cb1a332826628924a36b0fbda67e1c7c1c900","txTime":"2022/02/09 02:50:02","block":6859300,"epoch":319,"slotNo":52808711,"epochSlotNo":363911,"stakeKey":"stake1uynnuxv7zfye6yet04ngg22gmcpgqaahdjt8hhnlw2xerjcqhsdxp"},{"txId":30584095,"txHash":"3357b7791ab05f9b11f64552c46034a9b05a8f307db2c862f1788da835e7a334","txTime":"2022/02/09 02:50:02","block":6859300,"epoch":319,"slotNo":52808711,"epochSlotNo":363911,"stakeKey":"stake1u8j2c49er9f3ergpva8udmywpd5y6r7www234c58qynp9es25p40v"},{"txId":30584093,"txHash":"6a5f8238d16b75de39503a44537d327c0f8162bbe5f61cfcbe4ecc41b5460d95","txTime":"2022/02/09 02:50:02","block":6859300,"epoch":319,"slotNo":52808711,"epochSlotNo":363911,"stakeKey":"stake1u88af8mzlprfu9ptmmadmy06g00ktfek7732jv5xxwzrh7snc4e08"},{"txId":30583887,"txHash":"59f2638a094ab9e1705a56043e03bec39e387a64c84f5c740ae53c2595ff7bcf","txTime":"2022/02/09 02:45:53","block":6859289,"epoch":319,"slotNo":52808462,"epochSlotNo":363662,"stakeKey":"stake1u9j3f453apa3w8eq7a6squy2j4xr9q738yx56a5wdghje8s3ehz22"},{"txId":30583839,"txHash":"2ba3f554bcd9df43a30b9e2d008480a0a2a4b6e4ec865964400596e14bed6125","txTime":"2022/02/09 02:44:45","block":6859287,"epoch":319,"slotNo":52808394,"epochSlotNo":363594,"stakeKey":"stake1uy06ww3ajf8jfxnsxmh9zp6z3vku000z4ax4p4tzz9dr5qsasx8vn"},{"txId":30583832,"txHash":"cb9fac335059577fd830e44c020fc3378b645c2d0d07bb64aa75df0f4dfa20d3","txTime":"2022/02/09 02:44:45","block":6859287,"epoch":319,"slotNo":52808394,"epochSlotNo":363594,"stakeKey":"stake1u858trlk058dlwmhynzpsxmzvx082r2k90r9kpy2ljxn9gg9ex9g3"},{"txId":30583811,"txHash":"bf16116bdd3ab7436f0cd01307073415cdabf07050c5e9a25dba4af013cd6720","txTime":"2022/02/09 02:44:27","block":6859286,"epoch":319,"slotNo":52808376,"epochSlotNo":363576,"stakeKey":"stake1uxvj43wjmhczftw0pxj79x3wqptnf6aqqwww52my38m4e2c9yvvnj"}],"totalItems":215750,"totalPages":10788,"currentPage":0}