{"data":[{"txId":60470465,"txHash":"edc7f2ea19bf41b487a0000abe72c6cb32137755c66cb2d3c5aabd046444c95d","txTime":"2023/01/25 09:15:11","block":8314593,"epoch":389,"slotNo":83071820,"epochSlotNo":387020,"stakeKey":"stake1u9gj6zrf52xekjp4pty7yvfzzh66p7d4ufeq9mqhz8ltdnqrvms4c"},{"txId":60469641,"txHash":"37d060965686fc1f51353d5a9ba4e50c3222c0da52c49cd86d24bd5d72e5b701","txTime":"2023/01/25 08:53:56","block":8314530,"epoch":389,"slotNo":83070545,"epochSlotNo":385745,"stakeKey":"stake1u9kqlxysgfmwwhwhyyghwkvdjrvlc9afsyc4pcmvshjnvhqemv4sh"},{"txId":60468949,"txHash":"864dbca5dfe28a9672c097ed450403e7d49a67379307b04d410a7a14fef19847","txTime":"2023/01/25 08:35:01","block":8314477,"epoch":389,"slotNo":83069410,"epochSlotNo":384610,"stakeKey":"stake1uxgz5aqlhullhjl2auj72z0u7xt38at7e32wqn6zdursexc8h9heu"},{"txId":60468913,"txHash":"0f5594f36f9f06c7c18c454c770dfd990397aeee9278dedf5913bc8b3de1aa36","txTime":"2023/01/25 08:33:52","block":8314475,"epoch":389,"slotNo":83069341,"epochSlotNo":384541,"stakeKey":"stake1uxk0juwzun3lteraz0ugval70kvnq9skmxzylhswe77y9ngy2fs4n"},{"txId":60468659,"txHash":"3bdc4081f78bd64a1ab0d8171429e31b1ccbbd26958225d734095c6b6dd1adc2","txTime":"2023/01/25 08:26:20","block":8314450,"epoch":389,"slotNo":83068889,"epochSlotNo":384089,"stakeKey":"stake1u8xnf3znxkn3489zkydj4kthw5pjr9n0rqv8lljv02qkc9qgr0mgh"},{"txId":60468592,"txHash":"7c7466d44052f98cf189ad13959274e05b97b2494b11a4ec504c2454e2cb33a1","txTime":"2023/01/25 08:25:00","block":8314444,"epoch":389,"slotNo":83068809,"epochSlotNo":384009,"stakeKey":"stake1uyfvjc2q5q2pezwahytngv9t4krectrfkkrapnlawfu9mzgq0hz7g"},{"txId":60468142,"txHash":"dded1abb0f7d64438fec803c7e36c6bb807ea81ed7bad6d52a7cd455fd89eb25","txTime":"2023/01/25 08:12:52","block":8314418,"epoch":389,"slotNo":83068081,"epochSlotNo":383281,"stakeKey":"stake1u997nru8vgxvtarut2p4f0wqnk3wjxxs5r9js40tj3ed48cx6p2ts"},{"txId":60468060,"txHash":"7d7e30204b227d92f590f131726d5d2f62939aafb78ea840ce108527234b4787","txTime":"2023/01/25 08:10:30","block":8314411,"epoch":389,"slotNo":83067939,"epochSlotNo":383139,"stakeKey":"stake1u852v02f936mwc78kfcczvfefqu2l3kr794ayenkuccf36glfkt69"},{"txId":60467570,"txHash":"d9afd43a295101172ccc57175cc3c791de7a1327635cb0d05a2c763b9c9d8c3d","txTime":"2023/01/25 07:58:23","block":8314365,"epoch":389,"slotNo":83067212,"epochSlotNo":382412,"stakeKey":"stake1uyyd73smagpj98ss4jmyd345wa5fp943wxpm8e232gh5tqss83990"},{"txId":60467253,"txHash":"876b8d07315d6133d820ac387ea5ca2f86b3138079925b64ccfbb7cd8a2fb2dc","txTime":"2023/01/25 07:49:42","block":8314338,"epoch":389,"slotNo":83066691,"epochSlotNo":381891,"stakeKey":"stake1u9cz24xnsp79ham5lm6r94atkzlr23vkh4zaywphu9lgk0q3ezta8"},{"txId":60467223,"txHash":"1f3502d882385e5f3ba210e27eba6796b302d124f991bee1ad6a0c748a611b74","txTime":"2023/01/25 07:49:42","block":8314338,"epoch":389,"slotNo":83066691,"epochSlotNo":381891,"stakeKey":"stake1u8wzrar9ku4sx52gphgl76tal2cqcgqkekz6zajtn3yhfag476set"},{"txId":60466998,"txHash":"5bdaa66f3e1ffe6e32b27ae7f25482f994444d74ae8d8f38fdc91475d26d425f","txTime":"2023/01/25 07:43:13","block":8314325,"epoch":389,"slotNo":83066302,"epochSlotNo":381502,"stakeKey":"stake1ux4j9xujcuksacc55279put8ge9d2xha0l90sxsrqzqc9zcqdfycx"},{"txId":60466953,"txHash":"a404f4baf83c5fdfc21cd65c559508565ea70456d4d47904cfc635959f43e72a","txTime":"2023/01/25 07:42:05","block":8314323,"epoch":389,"slotNo":83066234,"epochSlotNo":381434,"stakeKey":"stake1uxu98tr74t2dusznyk8nyvt0psp56pker2zym4py7fcn0gqnsswka"},{"txId":60466572,"txHash":"2fdb3e04d68838d810c6525b96238bd187c9bbf98c17f24a5af38608f3fb4fb4","txTime":"2023/01/25 07:32:20","block":8314295,"epoch":389,"slotNo":83065649,"epochSlotNo":380849,"stakeKey":"stake1u8hw3q4z6azuhxu3v9zz5ara630pqr6tjerh5lyx6a4taps4a8stn"},{"txId":60466089,"txHash":"94a9a089ad22fe9201bc082c0dea2cdcf7d932ae6b3fcdc1bd82a90801b32e45","txTime":"2023/01/25 07:19:18","block":8314268,"epoch":389,"slotNo":83064867,"epochSlotNo":380067,"stakeKey":"stake1u95800kn9r4hqg4v0csnsx7m8u4udv3nakkrkw8y0hlwtwsu8hlk0"},{"txId":60465580,"txHash":"b8318fc836890213f95ddd3edb17603871a58d1fe400dda2ca308270bb6b72d9","txTime":"2023/01/25 07:06:45","block":8314231,"epoch":389,"slotNo":83064114,"epochSlotNo":379314,"stakeKey":"stake1uxmvr929qx8wfywed3n3elwmjxzy8auy4ar8aa5fmuksmlgls5nm4"},{"txId":60465129,"txHash":"4b2ed5f0a22ce59b746a24a96ba7ce1407335adeb852f5ea9ca6f7e7df2ccd48","txTime":"2023/01/25 06:55:43","block":8314192,"epoch":389,"slotNo":83063452,"epochSlotNo":378652,"stakeKey":"stake1u8qeplvhuteqzh5mfkwqxfr23rqkqftwxlhlr5cu5mtscsqrn0k5h"},{"txId":60464806,"txHash":"ac26b73d014c6e05a4cc622bcfcfd7cb52aeed5e7a4a27b773bbfc416dc53596","txTime":"2023/01/25 06:49:04","block":8314171,"epoch":389,"slotNo":83063053,"epochSlotNo":378253,"stakeKey":"stake1u9mjudmc9thlse3end6fy5nlje2d5nh5mlk9ff7g4k0ctwqhamcd5"},{"txId":60464357,"txHash":"f39d4899b9598cb93d523068305cbcc92a1ed4ad93021b98bb87d01b06a2fbe7","txTime":"2023/01/25 06:39:00","block":8314149,"epoch":389,"slotNo":83062449,"epochSlotNo":377649,"stakeKey":"stake1u80mkq89ctyu5xj7qs4xykrs58mp47p6dff6p6mrt4efxuqf8zffp"},{"txId":60464191,"txHash":"8645aaf1752f21763053309cffe311c49d0cee6156c7488adc4f2bbed355b00e","txTime":"2023/01/25 06:36:20","block":8314139,"epoch":389,"slotNo":83062289,"epochSlotNo":377489,"stakeKey":"stake1uy2qw8gnv4effz766gqzu95f7ud5y03mkz58cnm8pqenz9s82d538"}],"totalItems":347488,"totalPages":17375,"currentPage":0}