{"data":[{"txId":57333888,"txHash":"d31c03bfd2fbe9479a5886dc44c230edefb13a51bf9b3666fe433a8799e204c2","txTime":"2022/12/14 09:25:35","block":8137997,"epoch":381,"slotNo":79443644,"epochSlotNo":214844,"stakeKey":"stake1u8exa3sktdhan37t3ru47994lwswg5djsapf5svn50aejmcrnzukh"},{"txId":57333834,"txHash":"f922655da1655986a5cde5a2f034ca23ce4f32e8403f51e57022289b59709501","txTime":"2022/12/14 09:23:36","block":8137993,"epoch":381,"slotNo":79443525,"epochSlotNo":214725,"stakeKey":"stake1uyqla28acjrgal6msmqk36rmcpzq39dv6kuwx5mff4350nca7f0vr"},{"txId":57333450,"txHash":"d046b156f3def367dee4c7e36fa1fcc2cee00dc65839f2ce05bcf422020a75bc","txTime":"2022/12/14 09:11:12","block":8137954,"epoch":381,"slotNo":79442781,"epochSlotNo":213981,"stakeKey":"stake1uxvt5a92kttmvleqlda4akc3yux62wklfuupv2zafkeugjg2fg8af"},{"txId":57332862,"txHash":"9cef1c43b5d241d04ca7d3b91ba550b0cb3a447e4fb5b6ca7345a7429601b776","txTime":"2022/12/14 08:51:33","block":8137901,"epoch":381,"slotNo":79441602,"epochSlotNo":212802,"stakeKey":"stake1uxde6lfsnq42whs3gghw4dpy3st943wul8vfd456mgd8xmsfmjqe5"},{"txId":57332854,"txHash":"58aed81ccbc393ffb1b066bcc186efd7c3083e82f54052e438ad321dc6e6c605","txTime":"2022/12/14 08:51:33","block":8137901,"epoch":381,"slotNo":79441602,"epochSlotNo":212802,"stakeKey":"stake1u938p9nnretkag90r6nfcgw5vysl8pxfwl03ylqnlazwynsc8ydxl"},{"txId":57331838,"txHash":"257cd89550a65b274157b8f6f0190fcc08fbb13eb792ad08f5334d0e7feaff8f","txTime":"2022/12/14 08:22:19","block":8137829,"epoch":381,"slotNo":79439848,"epochSlotNo":211048,"stakeKey":"stake1uyu9sdd5uuhdn0p4ww0f0nz7ypemmf74ppls7xzrpuv292gsax3en"},{"txId":57331739,"txHash":"e507dabcb52fd07f3eb1e79011c0db39891bf1eacda3ec00eb3c5641eb5cae51","txTime":"2022/12/14 08:19:07","block":8137822,"epoch":381,"slotNo":79439656,"epochSlotNo":210856,"stakeKey":"stake1uyy473wkvkpz53244099has8zh4uunztm3s9js6z36rmtmclpn082"},{"txId":57331556,"txHash":"0aa62cc58bad9b68fc41b6fa560a9c3d3185502245059a7823f117d43f890de2","txTime":"2022/12/14 08:13:19","block":8137809,"epoch":381,"slotNo":79439308,"epochSlotNo":210508,"stakeKey":"stake1u88jnn0jw0tufmayml32vnvdckvkzd6ymuy7ln0akyhpvuq97rjp9"},{"txId":57331438,"txHash":"2eda1811e9bad32fc413b4343930606833c1e7edb42d0e71710b0a3a266cad5e","txTime":"2022/12/14 08:10:26","block":8137800,"epoch":381,"slotNo":79439135,"epochSlotNo":210335,"stakeKey":"stake1uxm4lx64ll7095pm436p3cugt2weqnf7ysykvxvamy2anws0lexac"},{"txId":57331382,"txHash":"56cf74ddfadffa0855538b344d2c29d1d831d26bc8fa6ffd9ef29fc96df635a6","txTime":"2022/12/14 08:07:53","block":8137791,"epoch":381,"slotNo":79438982,"epochSlotNo":210182,"stakeKey":"stake1ux9chlreuj356xtzafps4tpmy5cmlmwk2dfh2kt5ym9q8gq6nrm5p"},{"txId":57331371,"txHash":"421d07031bf488f556df528c5a139da763e57d3bc31397293fddbb4965a803a9","txTime":"2022/12/14 08:07:53","block":8137791,"epoch":381,"slotNo":79438982,"epochSlotNo":210182,"stakeKey":"stake1u8hhj2a5rlenqaqa09h0te8gz67asluenrq0037njxpenzcpt3knp"},{"txId":57331229,"txHash":"2f999aef2b9f4d915743dd6a8addc66e008f6cc9d19b23d968c34200af57d55d","txTime":"2022/12/14 08:03:23","block":8137771,"epoch":381,"slotNo":79438712,"epochSlotNo":209912,"stakeKey":"stake1u9dwcml6u8w699zptpdfmnj4kjxcpqh4pyqt9cz0y6y4f5qqdfde7"},{"txId":57331097,"txHash":"6b7d9540e561cfabdae321811fbcbf1237f1b927b151cb7b8b9d130ad7fef92c","txTime":"2022/12/14 07:59:57","block":8137755,"epoch":381,"slotNo":79438506,"epochSlotNo":209706,"stakeKey":"stake1u9dwcml6u8w699zptpdfmnj4kjxcpqh4pyqt9cz0y6y4f5qqdfde7"},{"txId":57330792,"txHash":"a572a79e9bae4c6452510d74802d6f1f6e3ccd78bd38037f59d50dbe0c6b453e","txTime":"2022/12/14 07:49:58","block":8137727,"epoch":381,"slotNo":79437907,"epochSlotNo":209107,"stakeKey":"stake1u86cwfrf58yjn2k2vlx2mxl4zv63l340qvznvw4f00tfurqa55635"},{"txId":57330048,"txHash":"18789f53cdc8ae3cab92e59b45a0dcc48eb26a369720e3b6e8d24b8a1d036daa","txTime":"2022/12/14 07:27:00","block":8137653,"epoch":381,"slotNo":79436529,"epochSlotNo":207729,"stakeKey":"stake1u8p43rg5qz5su456u3sf4zsv3kf33qpqtky77knfg8jexcqlfyy3d"},{"txId":57329882,"txHash":"2fc439ca7d9f4cff9706ad2f1e5513fe6f573b36a3cc41668c6facf2d9c8421a","txTime":"2022/12/14 07:21:12","block":8137633,"epoch":381,"slotNo":79436181,"epochSlotNo":207381,"stakeKey":"stake1ux8vfuq4xg3c0upswmvy82tyh3lldje0wwrcqhcr2yqf33sgsy6p3"},{"txId":57329368,"txHash":"f3d7363b1f16a95efbd6cd09a2eefbb2ca7cba7f18cebf1f08341d36ba4667f1","txTime":"2022/12/14 07:04:17","block":8137588,"epoch":381,"slotNo":79435166,"epochSlotNo":206366,"stakeKey":"stake1uxledapjg85knzveaf86vgt6l7jwpd6axqlpmfttng5azhcuapels"},{"txId":57329258,"txHash":"dabc32212c3a0fb16f6a8d2283a10ecfe435a7ca06bc5d19d1ce9cc12495d415","txTime":"2022/12/14 07:00:28","block":8137581,"epoch":381,"slotNo":79434937,"epochSlotNo":206137,"stakeKey":"stake1uydvlezkx736usuyjx4f406jx0d95pytvce4cw4cpnhvm4chvmakp"},{"txId":57329101,"txHash":"a940c362a1d98cebd6237c4e18c666d2adf4cbfd9741a8f837f61cbbe052ccfe","txTime":"2022/12/14 06:55:08","block":8137569,"epoch":381,"slotNo":79434617,"epochSlotNo":205817,"stakeKey":"stake1uxlcvwgl6zyru6nfj55j7pcal9clzghezh7cuata7m3zrag7eaxsz"},{"txId":57329085,"txHash":"2fe12a5b6fbc65877a4670bd33204df2c1474e0ef39062c30a1b56bbc5e7f8a5","txTime":"2022/12/14 06:54:23","block":8137568,"epoch":381,"slotNo":79434572,"epochSlotNo":205772,"stakeKey":"stake1ux9enj80sznly5yenlgjn9taea75xcc9220l9jq5hshzz2ss8uvrj"}],"totalItems":336817,"totalPages":16841,"currentPage":0}