{"data":[{"hash":"65bfd410e522d5b94cefa1a8bb50c88b2245757ef0c1101a99ad6f0d200bba2b","blockNo":8367279,"blockHash":"6d28e1f6a8188f21a2fa7208e3a963fce89c15f887d65047c784386590e2f87c","epochNo":392,"epochSlotNo":180366,"slot":84161166,"time":"2023/02/06 23:50:57","addressesInput":["addr1q8fjdde87jrua78trg9ylv7gpvd5skzcv5nqp3wl467ykzgsmz083klcvm744y0n7yyg49ykzz0j628xpu4n5u0r0r4qrfqf6q","addr1q8fjdde87jrua78trg9ylv7gpvd5skzcv5nqp3wl467ykzgsmz083klcvm744y0n7yyg49ykzz0j628xpu4n5u0r0r4qrfqf6q"],"addressesOutput":["addr1zxgx3far7qygq0k6epa0zcvcvrevmn0ypsnfsue94nsn3tvpw288a4x0xf8pxgcntelxmyclq83s0ykeehchz2wtspks905plm","addr1q8fjdde87jrua78trg9ylv7gpvd5skzcv5nqp3wl467ykzgsmz083klcvm744y0n7yyg49ykzz0j628xpu4n5u0r0r4qrfqf6q","addr1q8fjdde87jrua78trg9ylv7gpvd5skzcv5nqp3wl467ykzgsmz083klcvm744y0n7yyg49ykzz0j628xpu4n5u0r0r4qrfqf6q"],"fee":429061,"totalOutput":116376769,"tokens":[]},{"hash":"fcb8f591d0a95c9153539414fa94690ee2b6dd632a8ee92f2dfa7306d98461ad","blockNo":8366884,"blockHash":"58fa6e20f6963e5f229c5f8f646ec943ec6cb5f03f9f42ee23e495ffc087ac62","epochNo":392,"epochSlotNo":172166,"slot":84152966,"time":"2023/02/06 21:34:17","addressesInput":["addr1q9vj9w32w77p47ca725hantcf5nrzcex66vqq58kqm4l04y6hn99676mvdj6qvd34vfqh3jx6vy8tyfkuy6u3xcghq8sex2gzq","addr1q9vj9w32w77p47ca725hantcf5nrzcex66vqq58kqm4l04y6hn99676mvdj6qvd34vfqh3jx6vy8tyfkuy6u3xcghq8sex2gzq","addr1zxgx3far7qygq0k6epa0zcvcvrevmn0ypsnfsue94nsn3tvpw288a4x0xf8pxgcntelxmyclq83s0ykeehchz2wtspks905plm"],"addressesOutput":["addr1q9vj9w32w77p47ca725hantcf5nrzcex66vqq58kqm4l04y6hn99676mvdj6qvd34vfqh3jx6vy8tyfkuy6u3xcghq8sex2gzq","addr1q9vj9w32w77p47ca725hantcf5nrzcex66vqq58kqm4l04y6hn99676mvdj6qvd34vfqh3jx6vy8tyfkuy6u3xcghq8sex2gzq","addr1q9vj9w32w77p47ca725hantcf5nrzcex66vqq58kqm4l04y6hn99676mvdj6qvd34vfqh3jx6vy8tyfkuy6u3xcghq8sex2gzq"],"fee":322566,"totalOutput":77085345,"tokens":[]},{"hash":"78e09a62afb7ddd9fe52a06206e9a1cbd4e9a72ac1634932ef9da16210e7eacc","blockNo":8366794,"blockHash":"7ba2b0b903e7f22091197e7955e64b4616085bca33da553d3c98398dfc437610","epochNo":392,"epochSlotNo":170219,"slot":84151019,"time":"2023/02/06 21:01:50","addressesInput":["addr1q9vj9w32w77p47ca725hantcf5nrzcex66vqq58kqm4l04y6hn99676mvdj6qvd34vfqh3jx6vy8tyfkuy6u3xcghq8sex2gzq","addr1q9vj9w32w77p47ca725hantcf5nrzcex66vqq58kqm4l04y6hn99676mvdj6qvd34vfqh3jx6vy8tyfkuy6u3xcghq8sex2gzq","addr1q9vj9w32w77p47ca725hantcf5nrzcex66vqq58kqm4l04y6hn99676mvdj6qvd34vfqh3jx6vy8tyfkuy6u3xcghq8sex2gzq"],"addressesOutput":["addr1zxgx3far7qygq0k6epa0zcvcvrevmn0ypsnfsue94nsn3tvpw288a4x0xf8pxgcntelxmyclq83s0ykeehchz2wtspks905plm","addr1q9vj9w32w77p47ca725hantcf5nrzcex66vqq58kqm4l04y6hn99676mvdj6qvd34vfqh3jx6vy8tyfkuy6u3xcghq8sex2gzq","addr1q9vj9w32w77p47ca725hantcf5nrzcex66vqq58kqm4l04y6hn99676mvdj6qvd34vfqh3jx6vy8tyfkuy6u3xcghq8sex2gzq"],"fee":252797,"totalOutput":77407911,"tokens":[]},{"hash":"a84106ffb83f6d99b396f456054ff0ec347bda6bcfa6f4f2954ebb49a292491a","blockNo":8366738,"blockHash":"9f150457132cf39c18106c123e750ce662d1bfdfc7abd35e7bebef8294642b3c","epochNo":392,"epochSlotNo":169173,"slot":84149973,"time":"2023/02/06 20:44:24","addressesInput":["DdzFFzCqrht4DJvcxtQTfiZiUqviisFjBwEQMuzGTaqoweyJRRrucbAkxAD9bUwvgTrioEVyv5dA2g9gLaxSDdBnGeseUoMfUf93MJqy","DdzFFzCqrhstHRSW8EUnAexcxUotfNBT6arskNn8gU5BPNHMrCStBL2oCSxmpF53M1vwXf82UZK1u8hBLqrNXywccaKXarLNK9CqZnby"],"addressesOutput":["addr1q9atjfpqwdtg7ytz0pz9zcaqvx8zr2uv6ysvc4csqynr683dzefudzxhadht99nh8gv4l3z93d486ygllgxuh2drrrpsdw6fws","DdzFFzCqrhsyKbwtZrqg8HjmMqS29Jxy9ptXq9maMgFK5hTGezrytGwh93Xjq4CC7EoBVKUvqyxmDgLM3P1hi3ZeT37uhFc88WCyK39p"],"fee":401077,"totalOutput":1384809514,"tokens":[]},{"hash":"161494b94bb52882d88d716a5728fda85db3e6ba1f57c28e43e8fe0af606fefd","blockNo":8366713,"blockHash":"e86543831c3d6b186c83a97b287ec063bb3bbd23de4f6f3e21e4c2bf1a4389a9","epochNo":392,"epochSlotNo":168481,"slot":84149281,"time":"2023/02/06 20:32:52","addressesInput":["addr1q9vj9w32w77p47ca725hantcf5nrzcex66vqq58kqm4l04y6hn99676mvdj6qvd34vfqh3jx6vy8tyfkuy6u3xcghq8sex2gzq","addr1q9vj9w32w77p47ca725hantcf5nrzcex66vqq58kqm4l04y6hn99676mvdj6qvd34vfqh3jx6vy8tyfkuy6u3xcghq8sex2gzq","addr1q9vj9w32w77p47ca725hantcf5nrzcex66vqq58kqm4l04y6hn99676mvdj6qvd34vfqh3jx6vy8tyfkuy6u3xcghq8sex2gzq"],"addressesOutput":["addr1zxgx3far7qygq0k6epa0zcvcvrevmn0ypsnfsue94nsn3tvpw288a4x0xf8pxgcntelxmyclq83s0ykeehchz2wtspks905plm","addr1q9vj9w32w77p47ca725hantcf5nrzcex66vqq58kqm4l04y6hn99676mvdj6qvd34vfqh3jx6vy8tyfkuy6u3xcghq8sex2gzq","addr1q9vj9w32w77p47ca725hantcf5nrzcex66vqq58kqm4l04y6hn99676mvdj6qvd34vfqh3jx6vy8tyfkuy6u3xcghq8sex2gzq"],"fee":252797,"totalOutput":77923781,"tokens":[]},{"hash":"b2b32cfd3bda799a547fdc5e9f47dbc68718d23bba445a803edd54ad08316f20","blockNo":8366659,"blockHash":"2349f98d2927002a4ea36821d01558655058f551d2846caaf90fe32baee4eb50","epochNo":392,"epochSlotNo":167601,"slot":84148401,"time":"2023/02/06 20:18:12","addressesInput":["addr1q9vj9w32w77p47ca725hantcf5nrzcex66vqq58kqm4l04y6hn99676mvdj6qvd34vfqh3jx6vy8tyfkuy6u3xcghq8sex2gzq","addr1q9vj9w32w77p47ca725hantcf5nrzcex66vqq58kqm4l04y6hn99676mvdj6qvd34vfqh3jx6vy8tyfkuy6u3xcghq8sex2gzq","addr1q9vj9w32w77p47ca725hantcf5nrzcex66vqq58kqm4l04y6hn99676mvdj6qvd34vfqh3jx6vy8tyfkuy6u3xcghq8sex2gzq"],"addressesOutput":["addr1zxgx3far7qygq0k6epa0zcvcvrevmn0ypsnfsue94nsn3tvpw288a4x0xf8pxgcntelxmyclq83s0ykeehchz2wtspks905plm","addr1q9vj9w32w77p47ca725hantcf5nrzcex66vqq58kqm4l04y6hn99676mvdj6qvd34vfqh3jx6vy8tyfkuy6u3xcghq8sex2gzq","addr1q9vj9w32w77p47ca725hantcf5nrzcex66vqq58kqm4l04y6hn99676mvdj6qvd34vfqh3jx6vy8tyfkuy6u3xcghq8sex2gzq"],"fee":252797,"totalOutput":78439651,"tokens":[]},{"hash":"01366a46e978dc4cf0afb2765377ec2064d9c72f77f21035115ba8f652275c50","blockNo":8366528,"blockHash":"70f94ed5d37ea3dd54cfeb69af2150cf44033ec7ec456bffb7a3a5d45f624aba","epochNo":392,"epochSlotNo":164749,"slot":84145549,"time":"2023/02/06 19:30:40","addressesInput":["DdzFFzCqrhsfJ8wh59M8RR7wyPExtQh9EqgjnVcCuzaAX4KKMp3vjRHNYoJGFQeZJB3TqiczHryqSohGe4dkWA5eFPWfah9r34VscS4Y","DdzFFzCqrht9xM1X5kzhJ1UmykP3MaAXP931mZx8tTu9u8vinp12W6L7Ed7vmMLdHcWk1yghC1DbbHkc4CfpbrbDYx3g3hxoU4aamw6s","DdzFFzCqrhsxV9PHh7xMsaK8guALVbs5w7bCozo9wutYM27Cm5NwKdbZPiYNkgbZQSfRvcvAvXQuoRjfstGhCBj5Ni19Kpucn4xWk9jP"],"addressesOutput":["addr1q9atjfpqwdtg7ytz0pz9zcaqvx8zr2uv6ysvc4csqynr683dzefudzxhadht99nh8gv4l3z93d486ygllgxuh2drrrpsdw6fws","DdzFFzCqrhstHRSW8EUnAexcxUotfNBT6arskNn8gU5BPNHMrCStBL2oCSxmpF53M1vwXf82UZK1u8hBLqrNXywccaKXarLNK9CqZnby"],"fee":410757,"totalOutput":1374095010,"tokens":[]},{"hash":"1eecb7cb909eeff144ea5506b54935e2de13733d7c1eb0ad6d24cf31bdb5acff","blockNo":8366495,"blockHash":"b4c57aa0419c7f2a3bd19d4cbd9a94651470d56f2a97a11ebac4e019ca89803c","epochNo":392,"epochSlotNo":164240,"slot":84145040,"time":"2023/02/06 19:22:11","addressesInput":["addr1q9vj9w32w77p47ca725hantcf5nrzcex66vqq58kqm4l04y6hn99676mvdj6qvd34vfqh3jx6vy8tyfkuy6u3xcghq8sex2gzq","addr1q9vj9w32w77p47ca725hantcf5nrzcex66vqq58kqm4l04y6hn99676mvdj6qvd34vfqh3jx6vy8tyfkuy6u3xcghq8sex2gzq"],"addressesOutput":["addr1zxgx3far7qygq0k6epa0zcvcvrevmn0ypsnfsue94nsn3tvpw288a4x0xf8pxgcntelxmyclq83s0ykeehchz2wtspks905plm","addr1q9vj9w32w77p47ca725hantcf5nrzcex66vqq58kqm4l04y6hn99676mvdj6qvd34vfqh3jx6vy8tyfkuy6u3xcghq8sex2gzq","addr1q9vj9w32w77p47ca725hantcf5nrzcex66vqq58kqm4l04y6hn99676mvdj6qvd34vfqh3jx6vy8tyfkuy6u3xcghq8sex2gzq"],"fee":244481,"totalOutput":78843298,"tokens":[]},{"hash":"de800ea777bdd8343c034d404305eaa78323d6e3a42c8523e13dcfab08d41d9f","blockNo":8366483,"blockHash":"490bc70b02819824c36108fb253ec5f3407e274ff935f2a52db77858eb66f796","epochNo":392,"epochSlotNo":163938,"slot":84144738,"time":"2023/02/06 19:17:09","addressesInput":["addr1q9vj9w32w77p47ca725hantcf5nrzcex66vqq58kqm4l04y6hn99676mvdj6qvd34vfqh3jx6vy8tyfkuy6u3xcghq8sex2gzq","addr1q9vj9w32w77p47ca725hantcf5nrzcex66vqq58kqm4l04y6hn99676mvdj6qvd34vfqh3jx6vy8tyfkuy6u3xcghq8sex2gzq"],"addressesOutput":["addr1zxgx3far7qygq0k6epa0zcvcvrevmn0ypsnfsue94nsn3tvpw288a4x0xf8pxgcntelxmyclq83s0ykeehchz2wtspks905plm","addr1q9vj9w32w77p47ca725hantcf5nrzcex66vqq58kqm4l04y6hn99676mvdj6qvd34vfqh3jx6vy8tyfkuy6u3xcghq8sex2gzq","addr1q9vj9w32w77p47ca725hantcf5nrzcex66vqq58kqm4l04y6hn99676mvdj6qvd34vfqh3jx6vy8tyfkuy6u3xcghq8sex2gzq"],"fee":246593,"totalOutput":80419569,"tokens":[]},{"hash":"6a694f397e56fbbdaa090da6928fea2a4c27cac15e4752993ec59cc85f28fc2c","blockNo":8366165,"blockHash":"10a461f3a89fb4d55db6b303559c098f108e63f371e3a66454be472bc97c4719","epochNo":392,"epochSlotNo":157485,"slot":84138285,"time":"2023/02/06 17:29:36","addressesInput":["addr1qy365jlw9ys7xk90ffzj5a76d8h6f564whq97fv88wsgrfm5mnxfh58zh2ygjm077y325dquf9d0y2xja86a6jrdlhwqfsvjmc","addr1q8ze7xsgxpxnuwn2j9m6srwqnxavasjuyqza94ckkvzqt4t5mnxfh58zh2ygjm077y325dquf9d0y2xja86a6jrdlhwq8gy59c","addr1q8ze7xsgxpxnuwn2j9m6srwqnxavasjuyqza94ckkvzqt4t5mnxfh58zh2ygjm077y325dquf9d0y2xja86a6jrdlhwq8gy59c","addr1q8ze7xsgxpxnuwn2j9m6srwqnxavasjuyqza94ckkvzqt4t5mnxfh58zh2ygjm077y325dquf9d0y2xja86a6jrdlhwq8gy59c","addr1q8ze7xsgxpxnuwn2j9m6srwqnxavasjuyqza94ckkvzqt4t5mnxfh58zh2ygjm077y325dquf9d0y2xja86a6jrdlhwq8gy59c"],"addressesOutput":["addr1qxe5rdx4pyw459nhe7jcyv8s9cdzelg6kr2skwtevrn3dcnntpfeqsdtn675vv2lzgtew8m5swunvqfen4mh2pskuh5sts7w25","addr1qy86pjlndawv32msk289mggvnpnsdhwyz4gcylwdp4h93et5mnxfh58zh2ygjm077y325dquf9d0y2xja86a6jrdlhwqnh7clu","addr1qy86pjlndawv32msk289mggvnpnsdhwyz4gcylwdp4h93et5mnxfh58zh2ygjm077y325dquf9d0y2xja86a6jrdlhwqnh7clu","addr1qy86pjlndawv32msk289mggvnpnsdhwyz4gcylwdp4h93et5mnxfh58zh2ygjm077y325dquf9d0y2xja86a6jrdlhwqnh7clu"],"fee":347441,"totalOutput":30478723,"tokens":[]},{"hash":"856b1d0a3f1262f1deafc9f12049350cb1bd4185d18546349289bed8bb75a718","blockNo":8366100,"blockHash":"0b0ff1e19685e1afd2f9fec1212ac64cad75cdc7cf0fc39349635f2d28371606","epochNo":392,"epochSlotNo":156337,"slot":84137137,"time":"2023/02/06 17:10:28","addressesInput":["addr1qyexywmx5ya2s4ey76234hd7zy43fk6syxswenrdwsffu2t5mnxfh58zh2ygjm077y325dquf9d0y2xja86a6jrdlhwq54mpku","addr1q8ze7xsgxpxnuwn2j9m6srwqnxavasjuyqza94ckkvzqt4t5mnxfh58zh2ygjm077y325dquf9d0y2xja86a6jrdlhwq8gy59c","addr1q8ze7xsgxpxnuwn2j9m6srwqnxavasjuyqza94ckkvzqt4t5mnxfh58zh2ygjm077y325dquf9d0y2xja86a6jrdlhwq8gy59c"],"addressesOutput":["addr1qxe5rdx4pyw459nhe7jcyv8s9cdzelg6kr2skwtevrn3dcnntpfeqsdtn675vv2lzgtew8m5swunvqfen4mh2pskuh5sts7w25","addr1qy365jlw9ys7xk90ffzj5a76d8h6f564whq97fv88wsgrfm5mnxfh58zh2ygjm077y325dquf9d0y2xja86a6jrdlhwqfsvjmc","addr1qy365jlw9ys7xk90ffzj5a76d8h6f564whq97fv88wsgrfm5mnxfh58zh2ygjm077y325dquf9d0y2xja86a6jrdlhwqfsvjmc","addr1qy365jlw9ys7xk90ffzj5a76d8h6f564whq97fv88wsgrfm5mnxfh58zh2ygjm077y325dquf9d0y2xja86a6jrdlhwqfsvjmc"],"fee":338685,"totalOutput":24281091,"tokens":[]},{"hash":"3f28b1386d88baaae44515199975a8fa85eae11b4579548cc90de088d46d41b1","blockNo":8365946,"blockHash":"8d4b68f9a41f03b38704f351dbad4588e1cd7864742ebf28812234aebe7ae416","epochNo":392,"epochSlotNo":153244,"slot":84134044,"time":"2023/02/06 16:18:55","addressesInput":["DdzFFzCqrhsfHbsREJSCMVhPpKadRe84we4SFk6N2TiAQSeUJxpK9rVSNS8EC1GrWiu5SxEDpkyzKeNf68957g9ygcJybsVRpj3NZzMo","DdzFFzCqrhsjtfimzBhCZnoTQHNbzkYX1zDeh1AwYsxuU2Q2kcWJmEMa7FGLUbyr3s8jzeG2i5BBb9gFsaX7frHoDMcmr8oBjQZCCZpY"],"addressesOutput":["addr1q9atjfpqwdtg7ytz0pz9zcaqvx8zr2uv6ysvc4csqynr683dzefudzxhadht99nh8gv4l3z93d486ygllgxuh2drrrpsdw6fws","DdzFFzCqrht9xM1X5kzhJ1UmykP3MaAXP931mZx8tTu9u8vinp12W6L7Ed7vmMLdHcWk1yghC1DbbHkc4CfpbrbDYx3g3hxoU4aamw6s"],"fee":401077,"totalOutput":1373135187,"tokens":[]},{"hash":"26f10961f9c8243122dac95c3c064eaf3dd94ee1ed52ec74a6e4a7ff77e4b873","blockNo":8365914,"blockHash":"e561105c7602db188af28a0a9763332c917da6b1a04061fb0656480c9324ad9b","epochNo":392,"epochSlotNo":152319,"slot":84133119,"time":"2023/02/06 16:03:30","addressesInput":["addr1q8ze7xsgxpxnuwn2j9m6srwqnxavasjuyqza94ckkvzqt4t5mnxfh58zh2ygjm077y325dquf9d0y2xja86a6jrdlhwq8gy59c","addr1qy28x84exw899kq97uzmf2ld54jue52r0ey9tkygu0yxpfm5mnxfh58zh2ygjm077y325dquf9d0y2xja86a6jrdlhwq4sdrul","addr1qy28x84exw899kq97uzmf2ld54jue52r0ey9tkygu0yxpfm5mnxfh58zh2ygjm077y325dquf9d0y2xja86a6jrdlhwq4sdrul"],"addressesOutput":["addr1qxe5rdx4pyw459nhe7jcyv8s9cdzelg6kr2skwtevrn3dcnntpfeqsdtn675vv2lzgtew8m5swunvqfen4mh2pskuh5sts7w25","addr1qyexywmx5ya2s4ey76234hd7zy43fk6syxswenrdwsffu2t5mnxfh58zh2ygjm077y325dquf9d0y2xja86a6jrdlhwq54mpku","addr1qyexywmx5ya2s4ey76234hd7zy43fk6syxswenrdwsffu2t5mnxfh58zh2ygjm077y325dquf9d0y2xja86a6jrdlhwq54mpku"],"fee":337585,"totalOutput":22692943,"tokens":[]},{"hash":"7fbea28a769b970a566de877bcd15bf494197d3593e17fc60a350fda88b8e114","blockNo":8365886,"blockHash":"5a66f954f89c31073a51179944ab6460db0e551d91e3dc468f65f84e6d0db643","epochNo":392,"epochSlotNo":151865,"slot":84132665,"time":"2023/02/06 15:55:56","addressesInput":["addr1qx3c9apct82ghkrmjmuf323pn92aa7gpgvzxuluzgvxwvsm5mnxfh58zh2ygjm077y325dquf9d0y2xja86a6jrdlhwq0y96wv","addr1q8ze7xsgxpxnuwn2j9m6srwqnxavasjuyqza94ckkvzqt4t5mnxfh58zh2ygjm077y325dquf9d0y2xja86a6jrdlhwq8gy59c","addr1qxjq6ph0sqgglaja6ejd6tdk9p5cwq6dg9y7kfmph5mu8vr5mnxfh58zh2ygjm077y325dquf9d0y2xja86a6jrdlhwqn3nqrp"],"addressesOutput":["addr1qxe5rdx4pyw459nhe7jcyv8s9cdzelg6kr2skwtevrn3dcnntpfeqsdtn675vv2lzgtew8m5swunvqfen4mh2pskuh5sts7w25","addr1qy28x84exw899kq97uzmf2ld54jue52r0ey9tkygu0yxpfm5mnxfh58zh2ygjm077y325dquf9d0y2xja86a6jrdlhwq4sdrul","addr1qy28x84exw899kq97uzmf2ld54jue52r0ey9tkygu0yxpfm5mnxfh58zh2ygjm077y325dquf9d0y2xja86a6jrdlhwq4sdrul","addr1qy28x84exw899kq97uzmf2ld54jue52r0ey9tkygu0yxpfm5mnxfh58zh2ygjm077y325dquf9d0y2xja86a6jrdlhwq4sdrul"],"fee":346649,"totalOutput":145337198,"tokens":[]},{"hash":"de8c2de4a3fb3b8d3ba07c2e08bfef143a396a64e9dc6e3443f9fc69d6d657e9","blockNo":8365817,"blockHash":"6da962be250894b17afbfd362ebff22cd3c87482cb44b5f96ff8fe3c2806935c","epochNo":392,"epochSlotNo":150471,"slot":84131271,"time":"2023/02/06 15:32:42","addressesInput":["DdzFFzCqrhtB8fgQHs1iEtBnGHwQzQjkipJnWCuSMD6haRWuQyJFtAeVoi5minQ1abNGiiDW45M5xA9Jxe9RhkeBugiyyyAfAwgrs8rY"],"addressesOutput":["addr1q9atjfpqwdtg7ytz0pz9zcaqvx8zr2uv6ysvc4csqynr683dzefudzxhadht99nh8gv4l3z93d486ygllgxuh2drrrpsdw6fws","DdzFFzCqrhsjtfimzBhCZnoTQHNbzkYX1zDeh1AwYsxuU2Q2kcWJmEMa7FGLUbyr3s8jzeG2i5BBb9gFsaX7frHoDMcmr8oBjQZCCZpY"],"fee":391397,"totalOutput":1373389644,"tokens":[]},{"hash":"ba2ee069a38d282c4dc0f63af7bba63d26e574ba9a4b339d2c1b74fbb2b89e4c","blockNo":8365796,"blockHash":"b2f9d863d1412149effe9eddfc0390bef501490b81f2dc60b967e271878d5dcd","epochNo":392,"epochSlotNo":149966,"slot":84130766,"time":"2023/02/06 15:24:17","addressesInput":["DdzFFzCqrhtAPtbdBFdvUSG4nK3YYH7Uj9wH7dZE4hjNjS1qW3sc76qebourGGaWPKL2S3DeUo3zV9xwUZvBjodvUZocdvcKE71TGzt3","DdzFFzCqrhssCJ7GvHmVjt9ttB7d1RmZ8LcrESsk4UircYNjNQMyGjbrq2yUiouWh72BcZimVeqBWEBHtKVkNgh5s5WhiunCGf5wCEJz"],"addressesOutput":["addr1q9atjfpqwdtg7ytz0pz9zcaqvx8zr2uv6ysvc4csqynr683dzefudzxhadht99nh8gv4l3z93d486ygllgxuh2drrrpsdw6fws","DdzFFzCqrhtB8fgQHs1iEtBnGHwQzQjkipJnWCuSMD6haRWuQyJFtAeVoi5minQ1abNGiiDW45M5xA9Jxe9RhkeBugiyyyAfAwgrs8rY"],"fee":401077,"totalOutput":1375013701,"tokens":[]},{"hash":"daf77e913a452fd0817cfb133f3b1ec574d0f2f55558d53cdfe3092846c2a7df","blockNo":8365687,"blockHash":"f6feff22c00396d092ec8b8c65820c7c6a3e3c0c8bf26607ba2d22f0a3846ca6","epochNo":392,"epochSlotNo":147407,"slot":84128207,"time":"2023/02/06 14:41:38","addressesInput":["addr1q82hk36g35gdamvak08ctn8kdqn4qwvjt2q034tscekwrgprlkahfsmech9j9n9vflajrw0e46rv4lmv3a55e8x4a4ss8c6qe7","addr1q82hk36g35gdamvak08ctn8kdqn4qwvjt2q034tscekwrgprlkahfsmech9j9n9vflajrw0e46rv4lmv3a55e8x4a4ss8c6qe7"],"addressesOutput":["addr1wxn9efv2f6w82hagxqtn62ju4m293tqvw0uhmdl64ch8uwc0h43gt","addr1q82hk36g35gdamvak08ctn8kdqn4qwvjt2q034tscekwrgprlkahfsmech9j9n9vflajrw0e46rv4lmv3a55e8x4a4ss8c6qe7"],"fee":318005,"totalOutput":29063705,"tokens":[]},{"hash":"e1f3cd2235a5835812e9626210099ff6404466956dee8079155e2b0003ca8b06","blockNo":8365369,"blockHash":"ca52670ebf416094fd642e84e337806eb34ae7f1a13991971a995a8ec4b55202","epochNo":392,"epochSlotNo":141393,"slot":84122193,"time":"2023/02/06 13:01:24","addressesInput":["DdzFFzCqrhsiYW83X4h8kTVwtV2ZMgn35gZCR9vHszoNyksWdeKn2CnDCV1UK5VLVNWBzCjocAiZHzxxnGDdHQ3agpS2Lz3xKWqk8i1Y"],"addressesOutput":["addr1q9atjfpqwdtg7ytz0pz9zcaqvx8zr2uv6ysvc4csqynr683dzefudzxhadht99nh8gv4l3z93d486ygllgxuh2drrrpsdw6fws","DdzFFzCqrhssCJ7GvHmVjt9ttB7d1RmZ8LcrESsk4UircYNjNQMyGjbrq2yUiouWh72BcZimVeqBWEBHtKVkNgh5s5WhiunCGf5wCEJz"],"fee":391397,"totalOutput":1139773014,"tokens":[]},{"hash":"e477fce05eb88a27d4e8371e6c279e86df7c3090105750526666119b2377d890","blockNo":8363813,"blockHash":"25666b81a3ba4227a2f2ab121fec907a011bbb8e5a1c816a58297e0ea89e751c","epochNo":392,"epochSlotNo":108133,"slot":84088933,"time":"2023/02/06 03:47:04","addressesInput":["addr1q9vj9w32w77p47ca725hantcf5nrzcex66vqq58kqm4l04y6hn99676mvdj6qvd34vfqh3jx6vy8tyfkuy6u3xcghq8sex2gzq","addr1zxgx3far7qygq0k6epa0zcvcvrevmn0ypsnfsue94nsn3tvpw288a4x0xf8pxgcntelxmyclq83s0ykeehchz2wtspks905plm","addr1q9vj9w32w77p47ca725hantcf5nrzcex66vqq58kqm4l04y6hn99676mvdj6qvd34vfqh3jx6vy8tyfkuy6u3xcghq8sex2gzq"],"addressesOutput":["addr1zxgx3far7qygq0k6epa0zcvcvrevmn0ypsnfsue94nsn3tvpw288a4x0xf8pxgcntelxmyclq83s0ykeehchz2wtspks905plm","addr1q9vj9w32w77p47ca725hantcf5nrzcex66vqq58kqm4l04y6hn99676mvdj6qvd34vfqh3jx6vy8tyfkuy6u3xcghq8sex2gzq","addr1q9vj9w32w77p47ca725hantcf5nrzcex66vqq58kqm4l04y6hn99676mvdj6qvd34vfqh3jx6vy8tyfkuy6u3xcghq8sex2gzq"],"fee":377189,"totalOutput":8866068,"tokens":[]},{"hash":"fcab66cb44b529b1fc155820f33d63d30d50d23895f3cdc4d22c0310ece4c9d3","blockNo":8363809,"blockHash":"7da6972e495324761d3a8c6d48812c41a5277b004f92b515e722e932fda018ee","epochNo":392,"epochSlotNo":107996,"slot":84088796,"time":"2023/02/06 03:44:47","addressesInput":["addr1q9vj9w32w77p47ca725hantcf5nrzcex66vqq58kqm4l04y6hn99676mvdj6qvd34vfqh3jx6vy8tyfkuy6u3xcghq8sex2gzq","addr1zxgx3far7qygq0k6epa0zcvcvrevmn0ypsnfsue94nsn3tvpw288a4x0xf8pxgcntelxmyclq83s0ykeehchz2wtspks905plm","addr1q9vj9w32w77p47ca725hantcf5nrzcex66vqq58kqm4l04y6hn99676mvdj6qvd34vfqh3jx6vy8tyfkuy6u3xcghq8sex2gzq"],"addressesOutput":["addr1zxgx3far7qygq0k6epa0zcvcvrevmn0ypsnfsue94nsn3tvpw288a4x0xf8pxgcntelxmyclq83s0ykeehchz2wtspks905plm","addr1q9vj9w32w77p47ca725hantcf5nrzcex66vqq58kqm4l04y6hn99676mvdj6qvd34vfqh3jx6vy8tyfkuy6u3xcghq8sex2gzq","addr1q9vj9w32w77p47ca725hantcf5nrzcex66vqq58kqm4l04y6hn99676mvdj6qvd34vfqh3jx6vy8tyfkuy6u3xcghq8sex2gzq"],"fee":377321,"totalOutput":9256187,"tokens":[]}],"totalItems":13672,"totalPages":684,"currentPage":0}