{"data":[{"hash":"c3b2eabef8e6ad04b9ecc91a78f3c5ee9a3db558fee5a72b885894ec64796dc6","blockNo":8266038,"blockHash":"ea5bba46b542716a31f0c7422933293d8e300c57095589360efe1285ecb23626","epochNo":387,"epochSlotNo":252279,"slot":82073079,"time":"2023/01/13 19:49:30","addressesInput":["addr1qyht4ja0zcn45qvyx477qlyp6j5ftu5ng0prt9608dxp6l2j2c79gy9l76sdg0xwhd7r0c0kna0tycz4y5s6mlenh8pq4jxtdy","addr1wxn9efv2f6w82hagxqtn62ju4m293tqvw0uhmdl64ch8uwc0h43gt","addr1qyht4ja0zcn45qvyx477qlyp6j5ftu5ng0prt9608dxp6l2j2c79gy9l76sdg0xwhd7r0c0kna0tycz4y5s6mlenh8pq4jxtdy","addr1z8snz7c4974vzdpxu65ruphl3zjdvtxw8strf2c2tmqnxz2j2c79gy9l76sdg0xwhd7r0c0kna0tycz4y5s6mlenh8pq0xmsha"],"addressesOutput":["addr1qyht4ja0zcn45qvyx477qlyp6j5ftu5ng0prt9608dxp6l2j2c79gy9l76sdg0xwhd7r0c0kna0tycz4y5s6mlenh8pq4jxtdy","addr1qyht4ja0zcn45qvyx477qlyp6j5ftu5ng0prt9608dxp6l2j2c79gy9l76sdg0xwhd7r0c0kna0tycz4y5s6mlenh8pq4jxtdy","addr1q8a7qshf0skll7kg7lycuqgpjexdmf3vnf9kzmkzjjz936ht39sj7vwe4f34hntdj8r0mvnw8fqlk6xh3yrqd85jy4tsezrkvg","addr1z8snz7c4974vzdpxu65ruphl3zjdvtxw8strf2c2tmqnxz2j2c79gy9l76sdg0xwhd7r0c0kna0tycz4y5s6mlenh8pq0xmsha"],"fee":816602,"totalOutput":597718519773,"tokens":[]},{"hash":"d762c2770143ef715b39b02621df00f1cacd586d189470233b1e3c818d1c206c","blockNo":8266038,"blockHash":"ea5bba46b542716a31f0c7422933293d8e300c57095589360efe1285ecb23626","epochNo":387,"epochSlotNo":252279,"slot":82073079,"time":"2023/01/13 19:49:30","addressesInput":["addr1qy8z9ctjacvr9kuwn53ntw3tscx7tmz9u907a79qftvhhrdrvgl2rdxxr9cgwd0ervxrcvk32kwp6dzfteqf262cf89q2sln3n","addr1zxgx3far7qygq0k6epa0zcvcvrevmn0ypsnfsue94nsn3tvpw288a4x0xf8pxgcntelxmyclq83s0ykeehchz2wtspks905plm"],"addressesOutput":["addr1zxgx3far7qygq0k6epa0zcvcvrevmn0ypsnfsue94nsn3tvpw288a4x0xf8pxgcntelxmyclq83s0ykeehchz2wtspks905plm","addr1qy8z9ctjacvr9kuwn53ntw3tscx7tmz9u907a79qftvhhrdrvgl2rdxxr9cgwd0ervxrcvk32kwp6dzfteqf262cf89q2sln3n","addr1qy8z9ctjacvr9kuwn53ntw3tscx7tmz9u907a79qftvhhrdrvgl2rdxxr9cgwd0ervxrcvk32kwp6dzfteqf262cf89q2sln3n","addr1qy8z9ctjacvr9kuwn53ntw3tscx7tmz9u907a79qftvhhrdrvgl2rdxxr9cgwd0ervxrcvk32kwp6dzfteqf262cf89q2sln3n"],"fee":313107,"totalOutput":705077340,"tokens":[]},{"hash":"bdf453e999e2fa53edd72b70a052c3d16658f9ae6ecdb93215ed15a308505a79","blockNo":8266038,"blockHash":"ea5bba46b542716a31f0c7422933293d8e300c57095589360efe1285ecb23626","epochNo":387,"epochSlotNo":252279,"slot":82073079,"time":"2023/01/13 19:49:30","addressesInput":["addr1v867z2ygva5j6pw8k3qc6uhk94w2pqmhvc2eml2l6tyug2cu4f9ae"],"addressesOutput":["addr1q9ckyepu2ptuj6eeutejjjz6ljsljc89gt2k059tmzvy85s4cv3t4j6kuul6ukm3ktawunwmq9yuvdw4zfcqdxrp0zlsgryc4r","addr1v9u7va2sktlnz8dp3qadpnxxlv4m03672jy6elmntlxxs7q9nnwl9"],"fee":171221,"totalOutput":9999828779,"tokens":[]},{"hash":"bdcd18236309bcf0152d989111b97b11d6ad44cd8fda8082726fa14ae8ff6918","blockNo":8266038,"blockHash":"ea5bba46b542716a31f0c7422933293d8e300c57095589360efe1285ecb23626","epochNo":387,"epochSlotNo":252279,"slot":82073079,"time":"2023/01/13 19:49:30","addressesInput":["addr1qyms45mkltnckprvhs2vrry8ssp6hzruw2q6yl090xc3kls0m4m7uzl5pvqwplf2nxy39fehwa6hyqx9fenr4uc6jnlqxuy59y"],"addressesOutput":["addr1qyy60k487acls6n6zt2h5a5s2tf2djl9cmx2v36j5qwflec0m4m7uzl5pvqwplf2nxy39fehwa6hyqx9fenr4uc6jnlqg3lfd3"],"fee":172805,"totalOutput":999027195,"tokens":[]},{"hash":"ff945830645af475676811af3b21d88c36337038a0fceccb4bf2ad87ed83ed85","blockNo":8266038,"blockHash":"ea5bba46b542716a31f0c7422933293d8e300c57095589360efe1285ecb23626","epochNo":387,"epochSlotNo":252279,"slot":82073079,"time":"2023/01/13 19:49:30","addressesInput":["addr1qytjj9pdh9plvn680xkf43x865hwgqesy746e9xa9jzu2fqh9y2zmw2r7e85w7dvntzv04fwuspnqfat4j2d6ty9c5jqvs7wuc","addr1qytjj9pdh9plvn680xkf43x865hwgqesy746e9xa9jzu2fqh9y2zmw2r7e85w7dvntzv04fwuspnqfat4j2d6ty9c5jqvs7wuc","addr1qytjj9pdh9plvn680xkf43x865hwgqesy746e9xa9jzu2fqh9y2zmw2r7e85w7dvntzv04fwuspnqfat4j2d6ty9c5jqvs7wuc"],"addressesOutput":["addr1qytjj9pdh9plvn680xkf43x865hwgqesy746e9xa9jzu2fqh9y2zmw2r7e85w7dvntzv04fwuspnqfat4j2d6ty9c5jqvs7wuc","addr1qytjj9pdh9plvn680xkf43x865hwgqesy746e9xa9jzu2fqh9y2zmw2r7e85w7dvntzv04fwuspnqfat4j2d6ty9c5jqvs7wuc"],"fee":241544,"totalOutput":11054271912,"tokens":[]},{"hash":"957369ec4ce27136248f6075c235c4fcbbe21639ccdc6476b90a823c0bdb3d5c","blockNo":8266038,"blockHash":"ea5bba46b542716a31f0c7422933293d8e300c57095589360efe1285ecb23626","epochNo":387,"epochSlotNo":252279,"slot":82073079,"time":"2023/01/13 19:49:30","addressesInput":["addr1q975p7rjsvnddxf574nja2hja6qpyd7kfezctqwfd383hlxjjtd6kxnz7tazkuscpf4cpe2pxdy2g0ea4960uunldc9qukgx3q","addr1q975p7rjsvnddxf574nja2hja6qpyd7kfezctqwfd383hlxjjtd6kxnz7tazkuscpf4cpe2pxdy2g0ea4960uunldc9qukgx3q"],"addressesOutput":["addr1zxgx3far7qygq0k6epa0zcvcvrevmn0ypsnfsue94nsn3tvpw288a4x0xf8pxgcntelxmyclq83s0ykeehchz2wtspks905plm","addr1q975p7rjsvnddxf574nja2hja6qpyd7kfezctqwfd383hlxjjtd6kxnz7tazkuscpf4cpe2pxdy2g0ea4960uunldc9qukgx3q","addr1q975p7rjsvnddxf574nja2hja6qpyd7kfezctqwfd383hlxjjtd6kxnz7tazkuscpf4cpe2pxdy2g0ea4960uunldc9qukgx3q"],"fee":227497,"totalOutput":68378138,"tokens":[]},{"hash":"e1564448e824eb8dff27407f78332bd05790a728d71ad2118c8197196c241c4a","blockNo":8266038,"blockHash":"ea5bba46b542716a31f0c7422933293d8e300c57095589360efe1285ecb23626","epochNo":387,"epochSlotNo":252279,"slot":82073079,"time":"2023/01/13 19:49:30","addressesInput":["addr1q9nvx4337mwngqpm9m9tkujlx74f64dqmfzzze6l9z8d3xwd9v4nanjg783kfgsltu2fwh0e6tczrf6mmgse4ea9yc5qm06f6n","addr1q9nvx4337mwngqpm9m9tkujlx74f64dqmfzzze6l9z8d3xwd9v4nanjg783kfgsltu2fwh0e6tczrf6mmgse4ea9yc5qm06f6n","addr1q9nvx4337mwngqpm9m9tkujlx74f64dqmfzzze6l9z8d3xwd9v4nanjg783kfgsltu2fwh0e6tczrf6mmgse4ea9yc5qm06f6n","addr1q9nvx4337mwngqpm9m9tkujlx74f64dqmfzzze6l9z8d3xwd9v4nanjg783kfgsltu2fwh0e6tczrf6mmgse4ea9yc5qm06f6n","addr1q9nvx4337mwngqpm9m9tkujlx74f64dqmfzzze6l9z8d3xwd9v4nanjg783kfgsltu2fwh0e6tczrf6mmgse4ea9yc5qm06f6n"],"addressesOutput":["addr1q8cf8g4wn3wy45nvpt60yvdz00f54943ldyqs3nmumuyrxxtxvdp25tmg9rughsyvvqx8nf7k67x9846nfrt0utye2wsm08mep","addr1q9nvx4337mwngqpm9m9tkujlx74f64dqmfzzze6l9z8d3xwd9v4nanjg783kfgsltu2fwh0e6tczrf6mmgse4ea9yc5qm06f6n","addr1q9nvx4337mwngqpm9m9tkujlx74f64dqmfzzze6l9z8d3xwd9v4nanjg783kfgsltu2fwh0e6tczrf6mmgse4ea9yc5qm06f6n"],"fee":205101,"totalOutput":1107027724,"tokens":[]},{"hash":"488e0fc6f4e9c18c7f9920e9bba3c6794e3fcb78a3d9381aa172263ef1ef0976","blockNo":8266038,"blockHash":"ea5bba46b542716a31f0c7422933293d8e300c57095589360efe1285ecb23626","epochNo":387,"epochSlotNo":252279,"slot":82073079,"time":"2023/01/13 19:49:30","addressesInput":["addr1v8v3auqmw0eszza3ww29ea2pwftuqrqqyu26zvzjq9dt2ncydzvs5"],"addressesOutput":["addr1q9zmst7ns08pa2hf4llvxqu299p9ypw6d754drckwktgugltnqdmpj6aml0rqatfh03g4v72ryftnhva9dwep70tjxaqcm9gqa","addr1v95sf69jcfhnmknvffwmfvlvnccatqwfjcyh0nlfc6gh5scta2yzg"],"fee":171221,"totalOutput":2404303515,"tokens":[]},{"hash":"79dd008ed334db82c0b3b0beba496ba91db2549aa39a3e64f4e9d75a395ec75f","blockNo":8266038,"blockHash":"ea5bba46b542716a31f0c7422933293d8e300c57095589360efe1285ecb23626","epochNo":387,"epochSlotNo":252279,"slot":82073079,"time":"2023/01/13 19:49:30","addressesInput":["addr1q94z4unxt3sufzp6hls0x89m3v4pzl44xscxsk7f0mv4vln29texvhrpcjyr40lq7vwthze2z9lt2dpsdpdujlke2elq72jcqe","addr1q94z4unxt3sufzp6hls0x89m3v4pzl44xscxsk7f0mv4vln29texvhrpcjyr40lq7vwthze2z9lt2dpsdpdujlke2elq72jcqe"],"addressesOutput":["addr1q94z4unxt3sufzp6hls0x89m3v4pzl44xscxsk7f0mv4vln29texvhrpcjyr40lq7vwthze2z9lt2dpsdpdujlke2elq72jcqe","addr1q94z4unxt3sufzp6hls0x89m3v4pzl44xscxsk7f0mv4vln29texvhrpcjyr40lq7vwthze2z9lt2dpsdpdujlke2elq72jcqe"],"fee":233854,"totalOutput":582124932,"tokens":[]},{"hash":"743a98650f8d7de64ab68d44303e46a0f9c87b7ddff3e57e60a682bfcf17b51a","blockNo":8266038,"blockHash":"ea5bba46b542716a31f0c7422933293d8e300c57095589360efe1285ecb23626","epochNo":387,"epochSlotNo":252279,"slot":82073079,"time":"2023/01/13 19:49:30","addressesInput":["addr1qylv72pgpuagwe7m7u5zz6d2t4fc2tc8689hs209kgcs0j4gfvmppcn069sms8u49jxprn6sdcsc6g8cywatngaj9n9qj0gef4"],"addressesOutput":["addr1qyxpa3wntkqn84ez7k3tacxpd4wy7altcrm72mxunun6c6nnkf2ew4e7d27wtjxhx7ufqnpzg54fzmsmq9xj596yn9kqtzgq0x","addr1qynwcyssefqt8y0lmdy6gl3dstwr2v5jg8jm86u0y5xhc74gfvmppcn069sms8u49jxprn6sdcsc6g8cywatngaj9n9qgtxyse"],"fee":174609,"totalOutput":4752852602,"tokens":[]},{"hash":"155101defe143cb4fafa7cecb3029e5913fc4305c4adc083289d1ea241b02946","blockNo":8266038,"blockHash":"ea5bba46b542716a31f0c7422933293d8e300c57095589360efe1285ecb23626","epochNo":387,"epochSlotNo":252279,"slot":82073079,"time":"2023/01/13 19:49:30","addressesInput":["addr1vy4nmtfc4jfftgqg369hs2ku6kvcncgzhkemq6mh0u3zgpslf59wr","addr1vy4nmtfc4jfftgqg369hs2ku6kvcncgzhkemq6mh0u3zgpslf59wr","addr1vy4nmtfc4jfftgqg369hs2ku6kvcncgzhkemq6mh0u3zgpslf59wr"],"addressesOutput":["addr1q8zlt6j5nk07kayu3rva639p92tack72hamug0rffspllju4chx398lgrdf7c05q05rz0vqvu4g4pu5qclk798vspznsk3yrhd","DdzFFzCqrhsyRqsGUzp5uEANkjN294rfCkuLSmBAABX8uVf6jjMPRPEgnA7wTw9PUzCuvokHma9hqrRTjsoX7P9Bf7bxKmaYrWopw9Ey","addr1q8pcgl2j5wk6kj7dmmtz9k6xndaetcl3ytxd693stw7pm9prxqe9wqjc92aajau5z4qz99u3y547q8ejv2jxkzqx525s7287xg","addr1q93xd77ggdd77cz5urye352at30d7qtyj4yrj9ente2cljztrqdpwq8s5fq6ng5d3qxr8gh7v5n29rqxuzytspz6u76st9e3sr","addr1q89t4vge7aqjntszrtnkhhlvagyuupff6n5cw88m22cfafdcprf7heze6ck39syzp7pyymaxeu3js0k0jkuvr85q2e8s9n8cge","addr1qy49jknru96zssyv9xxkt7dsde3mmmwyd22czhxen0lsxzqddgtlrjaazqmucxslcuv69j3h7puuln2zs8ug2zaec00s5073ws","addr1qxrqcapfshaf02srsrlwl7qqdffhef2ymdkggf9hnjktlfw2aqqup3lefm52ek3t5jn6xk94kskaxshcv72l7sqc4fyqc6fzd7","addr1vy4nmtfc4jfftgqg369hs2ku6kvcncgzhkemq6mh0u3zgpslf59wr"],"fee":198350,"totalOutput":226347242337,"tokens":[]},{"hash":"019f9d7f1763b78806dc94c034df36fe1282ecae4dcc596783e4ba9ae1678f65","blockNo":8266038,"blockHash":"ea5bba46b542716a31f0c7422933293d8e300c57095589360efe1285ecb23626","epochNo":387,"epochSlotNo":252279,"slot":82073079,"time":"2023/01/13 19:49:30","addressesInput":["addr1wxaptpmxcxawvr3pzlhgnpmzz3ql43n2tc8mn3av5kx0yzs09tqh8"],"addressesOutput":["addr1qxjf3f89n8lqfx3d0zks28zmta4fzj68s823nhmkqpny8phr27t4sy2lcajjvsjdc88wy9vz8dnc4g5l8ytrx8h7kddsk6pnfu"],"fee":311149,"totalOutput":123188851,"tokens":[]},{"hash":"b32666f1309fa0267f63187cfcd71b59760100769fec59b6ca062b0a630e2282","blockNo":8266038,"blockHash":"ea5bba46b542716a31f0c7422933293d8e300c57095589360efe1285ecb23626","epochNo":387,"epochSlotNo":252279,"slot":82073079,"time":"2023/01/13 19:49:30","addressesInput":["addr1qxtr3p44akc7tdnqtaf494kkcw9je6khx65vuwq2wnj57suk8zrttmd3ukmxqh6n2ttddsut9n4dwd4gecuq5a89fapsgr3ysr","addr1qxtr3p44akc7tdnqtaf494kkcw9je6khx65vuwq2wnj57suk8zrttmd3ukmxqh6n2ttddsut9n4dwd4gecuq5a89fapsgr3ysr"],"addressesOutput":["addr1qxtr3p44akc7tdnqtaf494kkcw9je6khx65vuwq2wnj57suk8zrttmd3ukmxqh6n2ttddsut9n4dwd4gecuq5a89fapsgr3ysr","addr1qxtr3p44akc7tdnqtaf494kkcw9je6khx65vuwq2wnj57suk8zrttmd3ukmxqh6n2ttddsut9n4dwd4gecuq5a89fapsgr3ysr"],"fee":233854,"totalOutput":2163304240,"tokens":[]},{"hash":"8bade6e3c841be98fdec80442af6a636003610145cfc553b306cb72537735fed","blockNo":8266038,"blockHash":"ea5bba46b542716a31f0c7422933293d8e300c57095589360efe1285ecb23626","epochNo":387,"epochSlotNo":252279,"slot":82073079,"time":"2023/01/13 19:49:30","addressesInput":["addr1qym9v6hr52gesj6pe7q6vheste5y6a4jmgvgd9m0hs62tyrjn5zkcq4azwk4hekysxu0e4j0vxkcwlfgzq0zad9wr5wsjkz5xs","addr1qym2xu9am6tqskkr27crnaq4n33l7j49yyuk0tw2eaal9umjn5zkcq4azwk4hekysxu0e4j0vxkcwlfgzq0zad9wr5wsze9uru","addr1q8nzy39d2qhgxxw83pjj8zn99ph5qe2dwfp72ahllw6xcytjn5zkcq4azwk4hekysxu0e4j0vxkcwlfgzq0zad9wr5wsnyjfdv","addr1qym9v6hr52gesj6pe7q6vheste5y6a4jmgvgd9m0hs62tyrjn5zkcq4azwk4hekysxu0e4j0vxkcwlfgzq0zad9wr5wsjkz5xs"],"addressesOutput":["addr1qym2xu9am6tqskkr27crnaq4n33l7j49yyuk0tw2eaal9umjn5zkcq4azwk4hekysxu0e4j0vxkcwlfgzq0zad9wr5wsze9uru","addr1w9k9jjqmy0hmm3ytt6k57v094x78xcymyg8j2xgkxju5y3qxz4y0w","addr1qxsgae4x0z3q0hjjqcwya7vzp9f9ex52lrly0wadmfgvhpfyzttqmp0evfcrwxkda77m5lg8c9ta2aafdf83jxyvhw3sgp9v30"],"fee":201845,"totalOutput":36163061,"tokens":[]},{"hash":"fb4049afa84226416a07d55164ef7ea6e226f9f2c32e0d1d4a209eac8e16f8e0","blockNo":8266038,"blockHash":"ea5bba46b542716a31f0c7422933293d8e300c57095589360efe1285ecb23626","epochNo":387,"epochSlotNo":252279,"slot":82073079,"time":"2023/01/13 19:49:30","addressesInput":["addr1qysudwzzmg2dvwzlywncj2azw6d097gnca0ydq9ev795h44g00cupkr3e7pw59uyvpqgfmxk2z25mkxnxssesvyx3dvs85tk44"],"addressesOutput":["addr1qysudwzzmg2dvwzlywncj2azw6d097gnca0ydq9ev795h44g00cupkr3e7pw59uyvpqgfmxk2z25mkxnxssesvyx3dvs85tk44"],"fee":171782,"totalOutput":857462649,"tokens":[]},{"hash":"c5ab5724f5e2241360feef77fb9f90da7b380a54678f6fdea3b5970fe597aed7","blockNo":8266038,"blockHash":"ea5bba46b542716a31f0c7422933293d8e300c57095589360efe1285ecb23626","epochNo":387,"epochSlotNo":252279,"slot":82073079,"time":"2023/01/13 19:49:30","addressesInput":["addr1qyakuml7rjzkapzw5mjh5hprhdt39s2w8n6fw0etcjzjraj70xylzv4fqstt0nja6xu7kq7w3g7npuc2djt784djmaxsxtn0cy","addr1qyakuml7rjzkapzw5mjh5hprhdt39s2w8n6fw0etcjzjraj70xylzv4fqstt0nja6xu7kq7w3g7npuc2djt784djmaxsxtn0cy"],"addressesOutput":["addr1wxn9efv2f6w82hagxqtn62ju4m293tqvw0uhmdl64ch8uwc0h43gt","addr1qyakuml7rjzkapzw5mjh5hprhdt39s2w8n6fw0etcjzjraj70xylzv4fqstt0nja6xu7kq7w3g7npuc2djt784djmaxsxtn0cy"],"fee":240000,"totalOutput":9199984169,"tokens":[]},{"hash":"72f2513d6b3a58914e6ff213f620d1f038fd80f3f7727984c2bc2f57ff227da2","blockNo":8266038,"blockHash":"ea5bba46b542716a31f0c7422933293d8e300c57095589360efe1285ecb23626","epochNo":387,"epochSlotNo":252279,"slot":82073079,"time":"2023/01/13 19:49:30","addressesInput":["addr1qyakuml7rjzkapzw5mjh5hprhdt39s2w8n6fw0etcjzjraj70xylzv4fqstt0nja6xu7kq7w3g7npuc2djt784djmaxsxtn0cy"],"addressesOutput":["addr1wxaptpmxcxawvr3pzlhgnpmzz3ql43n2tc8mn3av5kx0yzs09tqh8","addr1qyakuml7rjzkapzw5mjh5hprhdt39s2w8n6fw0etcjzjraj70xylzv4fqstt0nja6xu7kq7w3g7npuc2djt784djmaxsxtn0cy"],"fee":240000,"totalOutput":604272635,"tokens":[]},{"hash":"58342cb88940f7016eb596ffbe222d7d5e6d6b2f02e3890f335e84fd2792e2bf","blockNo":8266038,"blockHash":"ea5bba46b542716a31f0c7422933293d8e300c57095589360efe1285ecb23626","epochNo":387,"epochSlotNo":252279,"slot":82073079,"time":"2023/01/13 19:49:30","addressesInput":["addr1q8780k3flxv0gqkmhknnqhw9g0dfa0yfdurh5ypm7zh0hcnhmfkhxpe9eskysumy2dzp09d0jadtsvfrxcs7r894t0eszmm9z4","addr1q8780k3flxv0gqkmhknnqhw9g0dfa0yfdurh5ypm7zh0hcnhmfkhxpe9eskysumy2dzp09d0jadtsvfrxcs7r894t0eszmm9z4"],"addressesOutput":["addr1wxaptpmxcxawvr3pzlhgnpmzz3ql43n2tc8mn3av5kx0yzs09tqh8","addr1q8780k3flxv0gqkmhknnqhw9g0dfa0yfdurh5ypm7zh0hcnhmfkhxpe9eskysumy2dzp09d0jadtsvfrxcs7r894t0eszmm9z4"],"fee":184377,"totalOutput":31055801,"tokens":[]},{"hash":"6e384e0cd30e0aee7c07dcd510769ad5c9f3afa2662a8f60b9551c9f9ce6d3f4","blockNo":8266038,"blockHash":"ea5bba46b542716a31f0c7422933293d8e300c57095589360efe1285ecb23626","epochNo":387,"epochSlotNo":252279,"slot":82073079,"time":"2023/01/13 19:49:30","addressesInput":["addr1zxgx3far7qygq0k6epa0zcvcvrevmn0ypsnfsue94nsn3tvpw288a4x0xf8pxgcntelxmyclq83s0ykeehchz2wtspks905plm","addr1qy3aw2rrsc593l9hqhazxj0v72dtk5xwdrs92rnquyh8hgrjx9sad0hsa7tp6kjtty8m6q0cr7t8awmgp884hmp0rj8sx3gulm"],"addressesOutput":["addr1zxgx3far7qygq0k6epa0zcvcvrevmn0ypsnfsue94nsn3tvpw288a4x0xf8pxgcntelxmyclq83s0ykeehchz2wtspks905plm","addr1qy3aw2rrsc593l9hqhazxj0v72dtk5xwdrs92rnquyh8hgrjx9sad0hsa7tp6kjtty8m6q0cr7t8awmgp884hmp0rj8sx3gulm"],"fee":316606,"totalOutput":100888689,"tokens":[]},{"hash":"bf5a1bb56fa0976d49413b5d08975e8636adf7c7646c42c7aabf0fb0db98b64a","blockNo":8266038,"blockHash":"ea5bba46b542716a31f0c7422933293d8e300c57095589360efe1285ecb23626","epochNo":387,"epochSlotNo":252279,"slot":82073079,"time":"2023/01/13 19:49:30","addressesInput":["addr1wxaptpmxcxawvr3pzlhgnpmzz3ql43n2tc8mn3av5kx0yzs09tqh8"],"addressesOutput":["addr1qx7gkm5vmtwe0t9rmz0p04kdjwzmcgxnxan2ejpngm9rjulr27t4sy2lcajjvsjdc88wy9vz8dnc4g5l8ytrx8h7kddsx428sk"],"fee":311149,"totalOutput":123188851,"tokens":[]}],"totalItems":58924199,"totalPages":2946210,"currentPage":0}