{"data":[{"blockNo":8531933,"slotNo":87555989,"epochNo":400,"epochSlotNo":119189,"hash":"22817b53cbd3adf16752d30059791212232deed7de886721cdef28609815082a","time":"2023/03/18 06:51:20","txCount":1,"totalFees":178613,"totalOutput":16310855,"slotLeader":"533a710c19bdddc144ab19900d37a81488088259981a5d4885031ce3"},{"blockNo":8531932,"slotNo":87555988,"epochNo":400,"epochSlotNo":119188,"hash":"0f358afa63a7c09a66f2fc14cb6dbc59f6e120741b39272d2cb294240acfcdd6","time":"2023/03/18 06:51:19","txCount":2,"totalFees":701063,"totalOutput":919558128,"slotLeader":"533a710c19bdddc144ab19900d37a81488088259981a5d4885031ce3"},{"blockNo":8531931,"slotNo":87555982,"epochNo":400,"epochSlotNo":119182,"hash":"0dc76af36bc9ec94e52cafe76d8367265719cbd768f8b386053944b42c1c2886","time":"2023/03/18 06:51:13","txCount":5,"totalFees":1789901,"totalOutput":35712835079196,"slotLeader":"00beef534478b59ba0b2b646348c8d1f81f60bf40a2195c6378dd5db"},{"blockNo":8531930,"slotNo":87555961,"epochNo":400,"epochSlotNo":119161,"hash":"084ecbcfb5c62077e58848f8448172ea339572b9788800ba7a349bc513b44317","time":"2023/03/18 06:50:52","txCount":0,"totalFees":0,"totalOutput":0,"slotLeader":"f0e3c8d48efb750cdf256b68babc880787bc688972acfbbee1ffc537"},{"blockNo":8531929,"slotNo":87555953,"epochNo":400,"epochSlotNo":119153,"hash":"a3f5dbd9b8bef1e8f1b27061a8ad112ea7a512dc508a37a542db38bbf3d2a87b","time":"2023/03/18 06:50:44","txCount":12,"totalFees":5001243,"totalOutput":27484552373000,"slotLeader":"49f23c86547526bbd0c9320d3704542c84472f426b923a3e429392eb"},{"blockNo":8531928,"slotNo":87555933,"epochNo":400,"epochSlotNo":119133,"hash":"a34afc61f53a1bb86d0381203ac00838304ab49e38a9d45338e0d59f2a295516","time":"2023/03/18 06:50:24","txCount":34,"totalFees":11554751,"totalOutput":5917727853089,"slotLeader":"b3f9883d3de29971c43e05fdb985281ffee737be0e5669094810ba6b"},{"blockNo":8531927,"slotNo":87555862,"epochNo":400,"epochSlotNo":119062,"hash":"93a814c3c32fb86763ee69b296fdd6a063a96098a6b2f8947460ab3ba50b993b","time":"2023/03/18 06:49:13","txCount":1,"totalFees":177733,"totalOutput":558364472,"slotLeader":"9dfeca095f80562460252072fd8438f08936ef5a2077583a9722bd97"},{"blockNo":8531926,"slotNo":87555859,"epochNo":400,"epochSlotNo":119059,"hash":"6d2635f25ba5b257b4eb4fe11b8228886886336976b2bdfea84b24133a202c20","time":"2023/03/18 06:49:10","txCount":7,"totalFees":2276844,"totalOutput":21410371440401,"slotLeader":"087cb9a9dab66751853893b0de0628aee88c36f82fd0c1ee3b998548"},{"blockNo":8531925,"slotNo":87555836,"epochNo":400,"epochSlotNo":119036,"hash":"cda8c83ab8e9cadebee8af6226400ce1c0e037cf4efe9655b879c2a9e4d698f0","time":"2023/03/18 06:48:47","txCount":2,"totalFees":399202,"totalOutput":346144167,"slotLeader":"dda4bc64e339336e3f7bc158177df0c71dc760ff11cb8b0651b3ece4"},{"blockNo":8531924,"slotNo":87555830,"epochNo":400,"epochSlotNo":119030,"hash":"279107d16837ae426667fa96f194d62cd7204473d349fa7f4046119faa57696f","time":"2023/03/18 06:48:41","txCount":17,"totalFees":6559087,"totalOutput":5579006083941,"slotLeader":"55eaf38bf6eb1c6755d67175b59f93940f09abd6792d525c55089903"},{"blockNo":8531923,"slotNo":87555787,"epochNo":400,"epochSlotNo":118987,"hash":"73fed281cc11d4aa20c964df07faef6680a19e24773597153235d6882796e9af","time":"2023/03/18 06:47:58","txCount":2,"totalFees":445524,"totalOutput":160948532,"slotLeader":"2dc733ef313c5c5ead9b93b96918106b067e343b21bbc2d3576e2913"},{"blockNo":8531922,"slotNo":87555771,"epochNo":400,"epochSlotNo":118971,"hash":"cf402c149dc0226beb96dff5dd5ef8317c9884641ae3efb642241c4c07e411ed","time":"2023/03/18 06:47:42","txCount":7,"totalFees":2332636,"totalOutput":42252004100,"slotLeader":"d6b4480e5dc5dbedfa703d188646c8c7c0191f7eae756911ceba20e2"},{"blockNo":8531921,"slotNo":87555751,"epochNo":400,"epochSlotNo":118951,"hash":"6027d05399137c6d3c738aabc61a11d0f98ddde4d51ec531411925b026844b24","time":"2023/03/18 06:47:22","txCount":1,"totalFees":168317,"totalOutput":56038953,"slotLeader":"76bfa1b2e6593740c3388ed881cbe851dbab8d8741652c9bad16cc94"},{"blockNo":8531920,"slotNo":87555748,"epochNo":400,"epochSlotNo":118948,"hash":"d2930dfa3a7392f034badbaf08c0e8941b4311d6e5d8cf39892bdcdd8326aa3d","time":"2023/03/18 06:47:19","txCount":6,"totalFees":1636515,"totalOutput":65452122917,"slotLeader":"4ed1c8475cc3e497bbf00a5827266faec51ad9c3cce1b02122b33cba"},{"blockNo":8531919,"slotNo":87555736,"epochNo":400,"epochSlotNo":118936,"hash":"96b4abd67a1aff33705108ccf5298e8361b2357d654258744dced732b602a6d4","time":"2023/03/18 06:47:07","txCount":1,"totalFees":170737,"totalOutput":3319907844,"slotLeader":"86c8a19e4d6227da12d7c9c63c5fd7a83bf227a92089778f7d9ec0f9"},{"blockNo":8531918,"slotNo":87555735,"epochNo":400,"epochSlotNo":118935,"hash":"dafb75c7d1bc6f288295651c3f6389b50087cbf594811c2f6bd62d9834a753e4","time":"2023/03/18 06:47:06","txCount":0,"totalFees":0,"totalOutput":0,"slotLeader":"be80794a946cf5e578846fc81e3c62ac13f4ab3335e0f5dc046edad4"},{"blockNo":8531917,"slotNo":87555734,"epochNo":400,"epochSlotNo":118934,"hash":"470345f1c3b0c3e306511b6b20a808f25889d0bf4221e9cfdd1d5e72625c7cd9","time":"2023/03/18 06:47:05","txCount":10,"totalFees":3811602,"totalOutput":210629467847,"slotLeader":"727ceb44ef548cbb6f36d7023dfbd8400d48aea0c84b675beff1dd12"},{"blockNo":8531916,"slotNo":87555713,"epochNo":400,"epochSlotNo":118913,"hash":"1175387c1de6a73a0a196876474cbdfe0eec0d99530582e525e363a3f061ba48","time":"2023/03/18 06:46:44","txCount":36,"totalFees":8237397,"totalOutput":2182251549514,"slotLeader":"de1d84fcbacbbc51ee5511b371c621a5335ce94d5d5d720d4c066107"},{"blockNo":8531915,"slotNo":87555643,"epochNo":400,"epochSlotNo":118843,"hash":"756ceb90c0797b0526f1a902a019db09980dfa6173b53bc736852519fd22854f","time":"2023/03/18 06:45:34","txCount":12,"totalFees":3372967,"totalOutput":40209904809,"slotLeader":"d9812f8d30b5db4b03e5b76cfd242db9cd2763da4671ed062be808a0"},{"blockNo":8531914,"slotNo":87555619,"epochNo":400,"epochSlotNo":118819,"hash":"a1607a3a3e7ea163e88ec40187097c7faf2c87a865bc1535d04c5c84358ccb37","time":"2023/03/18 06:45:10","txCount":7,"totalFees":2104305,"totalOutput":86827767305,"slotLeader":"a087620de93bee6faeb0c33ca5e647f9c4e1e037d8f28e95dc583179"}],"totalItems":8532109,"totalPages":426606,"currentPage":0}