{"data":[{"hash":"304358ea8ac1453b3ca3ce3758ac756a1a9abd17fbe14b83d99c51ec99a3354c","blockNo":8076877,"blockHash":"64dd51b1bb8d7f26676508d6e799e8ca4aa1b6261c9bbd987d970cfb6b960478","epochNo":378,"epochSlotNo":260162,"slot":78192962,"time":"2022/11/29 22:00:53","addressesInput":["DdzFFzCqrhswBvN4hSURe8iVUXZVkaoaraSWgN1pEoKgcZgPB4z6HPgjWELoGNrqTPubnKPjJEtjgpvAV6XUjDPc3uHpaXan4aW2CFDe","DdzFFzCqrhsh4YL99LFnYfD9aCcp6vNw9YjW4bK46KvNKZmivUDyv4YRFwpxzVSE8yCNyfw8gdbmrdvRBkfujDPDQbedosnDjBZvaBtB","DdzFFzCqrhsoKjVTNbVeQq7KAB7T1fJadUuoasMjfGY34jngUEWRPmYUtRgHX8bUc1nHvo8xuX34mwX1qqBTjmr46njD1eYbD6x7YzgB","DdzFFzCqrht4jSw69XcYEq3Ure5h87jxj9p6ofJjhJd6zLz55pzvcfU8MJLSBhURKt6enZht1brosg9Fg8w3ZrTXTrfPp8ty194EA86g"],"addressesOutput":["addr1q9atjfpqwdtg7ytz0pz9zcaqvx8zr2uv6ysvc4csqynr683dzefudzxhadht99nh8gv4l3z93d486ygllgxuh2drrrpsdw6fws","DdzFFzCqrhswnmt3i97kBQY959QKv2UHQv7czANrrJZPKB2XaVRq1iYH7RmuNER8yFJ4PMuhC3NPupkUxzt5Qx8neLFibg2kTWEqyHNR","DdzFFzCqrht55pq59M97bvmiKX4nr1y2sgLD1WCdnTZBgvBbrJv5oBDDW3nMpb2rjhgtUSDMTyoA94iNzdq4EM45KXuHpqUPiCa8jk1e","DdzFFzCqrhsvyboWkAAv2KpUSRL9sRQXwizMuyV3eLiejJYGBzAcv2niuf8LkBMUJeDpH4awhmgTvdQAYpoT4n9eizQHtb78MtQWCYwd","DdzFFzCqrhsiKgV3mSTbHEbrhciL1ka7bHuZtppizN2vWJFH54nxzHMUDXvciRX7AahfCMT3o3cyTV5UPm75W1XDjxsrjhP1juw2DpmD"],"fee":907341,"totalOutput":58917446017,"tokens":[]},{"hash":"44fd0f9fba1641ec9ba9910ce20628362ffface7010bc1373d30f5c23bac10d4","blockNo":8076855,"blockHash":"8e9dd51410720ac8d711fd7fa529e811ef811a5e0f909080240c5b1ae1755976","epochNo":378,"epochSlotNo":259527,"slot":78192327,"time":"2022/11/29 21:50:18","addressesInput":["DdzFFzCqrht5K5dqe9BFv5NYtwvh4tpBGMfptQEe4NTyfUDy1D1JT1SDZDBsTHdZp9iotNP4kUR1JVNpnWsUE1qS2aD6YMXFCs4EU7nS","DdzFFzCqrhsuUAu25GV8HnWi3mDJYKNefczNtEQXsXodRsEfhiuUaPqtCsEKFtvZ34eY6Vt6pTi62Uki9PiNdyYNx6UgJWjY1E3Yk27o","DdzFFzCqrhssm55xEkXscd9GnqPFfxUnvaovqrqsH9EP3b1LnTr92mCCACxYdDyoNSCCXACQiixZvSzTsxZLkBvvdwZ2N2RUwJgzCkFk","DdzFFzCqrht9cNKTfwFcW5EifL2HMGk7az1KAk84vVXS2WtctZ5Qi6P2bzZfijkCZW4A5GQAmy7frMqm6GPx9Qu5Hbkyt6sopiBL3TQP","DdzFFzCqrht7onnPGZrsVZUWW69UEit95TfkxmkzL57xtZX1iCVyxf6Fto5mJwo4JGE7jkCFzcs5s8DgfykEjHYmXjqyUzpxhixjuqF7"],"addressesOutput":["addr1q9atjfpqwdtg7ytz0pz9zcaqvx8zr2uv6ysvc4csqynr683dzefudzxhadht99nh8gv4l3z93d486ygllgxuh2drrrpsdw6fws","DdzFFzCqrhswBvN4hSURe8iVUXZVkaoaraSWgN1pEoKgcZgPB4z6HPgjWELoGNrqTPubnKPjJEtjgpvAV6XUjDPc3uHpaXan4aW2CFDe","DdzFFzCqrhsoKjVTNbVeQq7KAB7T1fJadUuoasMjfGY34jngUEWRPmYUtRgHX8bUc1nHvo8xuX34mwX1qqBTjmr46njD1eYbD6x7YzgB"],"fee":733761,"totalOutput":99999112391,"tokens":[]},{"hash":"ccd192c46f698913b7c4bbbbbd9246e4b910e93f00a8dcee9d480893206ad25f","blockNo":8076827,"blockHash":"4de5532ef6099c1bbe5e27430810363e21520a218c26d7c7cd1b6174ef92eab6","epochNo":378,"epochSlotNo":258985,"slot":78191785,"time":"2022/11/29 21:41:16","addressesInput":["DdzFFzCqrhsrLmynV8bQv1JvcbHBQBEsZcBHRoC3AM5XSoZj9Z35gY1ZQqKrRawRF8S3CLJwGgj6h7UYfhBuFjyUGXk6PsTHBAXxqsx8","DdzFFzCqrhsqLoQspbnG2TjuVPk9eSaj58CQgQYXbPHEVVWv9H9T3KsfK54XbkbyYYwiCsuTky54oKoStUCeXBVJSP1gmNcCToStPBAy","DdzFFzCqrht4cmvChDBFUy2yWHdWTDFW2igWAoqRHBpRCKpwwJnGrsr4ehL5j8ywj91rRgFxATykEjK2fody4wTe6jYA3FCjV2FQ1a5B","DdzFFzCqrhsnZRDprEu6mHe5xcCAbaiaP5pY377t3aAKtM8xsvMRS2nrPbsC584RnsJJrrk5wBzEPrZB3zpbSWWFq3zLs8uDix2Qc1nx","DdzFFzCqrhshAmCQLweGu4EdvtWcLFzUcQLqjSfXGZYiqZakKPB55kBexaugQVNsCr1tVv6LSRG9KjmzpJrS7RZ9nJQgmhZGsWS441vf","DdzFFzCqrht9ip8PuhFLr6UASciYTAijaNP5hJ1ADyXere5D4v5iGy9DWrZcfCcY2XQwfQYCmYZE4auquPb42JVjbTGoP5sZ1pixRemx","DdzFFzCqrhszbFHXLDwJYw6H1afdPXagbjuqgCnCAPFF3SpF3Lps1eLcMNeosFQmT1tdNXHFnubqTFwNJeLLuid5qkZSVod4XYwWSET9"],"addressesOutput":["addr1q9atjfpqwdtg7ytz0pz9zcaqvx8zr2uv6ysvc4csqynr683dzefudzxhadht99nh8gv4l3z93d486ygllgxuh2drrrpsdw6fws","DdzFFzCqrht5K5dqe9BFv5NYtwvh4tpBGMfptQEe4NTyfUDy1D1JT1SDZDBsTHdZp9iotNP4kUR1JVNpnWsUE1qS2aD6YMXFCs4EU7nS","DdzFFzCqrhsuUAu25GV8HnWi3mDJYKNefczNtEQXsXodRsEfhiuUaPqtCsEKFtvZ34eY6Vt6pTi62Uki9PiNdyYNx6UgJWjY1E3Yk27o","DdzFFzCqrhsh4YL99LFnYfD9aCcp6vNw9YjW4bK46KvNKZmivUDyv4YRFwpxzVSE8yCNyfw8gdbmrdvRBkfujDPDQbedosnDjBZvaBtB","DdzFFzCqrhssm55xEkXscd9GnqPFfxUnvaovqrqsH9EP3b1LnTr92mCCACxYdDyoNSCCXACQiixZvSzTsxZLkBvvdwZ2N2RUwJgzCkFk"],"fee":936381,"totalOutput":82801092179,"tokens":[]},{"hash":"c57d76cd4c0f32ff154084aa486022bdde90805a863d0a19e4fc4c41576efafc","blockNo":8076756,"blockHash":"5e13a84fa4b57e595a1ed64f1fa0bd5b5335981834faab12ceac640fc4f2fe77","epochNo":378,"epochSlotNo":257483,"slot":78190283,"time":"2022/11/29 21:16:14","addressesInput":["DdzFFzCqrht1k2RKi1NspKWMUYNbTqFMZAoQ7dmJ5MMExdAYgvZFCM3LKxkUn6DSNDu9p7mAfyUTVAYzuVznx4HZDgHUbrh1F7hRG3hg","DdzFFzCqrhsfcnnuFgG6iyYHaMkhkoMBJuHE4kNTm5JGH4wGWAx8N5hM9eGmuEwapsZaUXSwauS1vbg1LNE6kYh2k1A28oxw89udVaZo","DdzFFzCqrhsu4SZmzaRLR1vdfGKCzCZT2Lh1UQXmkiwNj1vh4VbzJ5TNrKpu6RrEzMsp1hg4MFKksJ3vJ7iKS1dnvMtPMxyqudAYQHd1","DdzFFzCqrhsh3ZaEoCkEMboKaqtJT4vas4kaJ8bYpjC3m3wzTUYUVkSZ1VBaymrZxRPiUC853j2qHd9Dezmze595gYvfmxAE3Go7wdEd","DdzFFzCqrht4FF5cDVdZ4bHuwRKebQMpsbzfj7uWDS5Za3Qbwu891ycRty4r62KAZUCbseATu5EMRZDK9wpNZZEuHfHFu5a5ZPGcLqi9","DdzFFzCqrhsebhQdpiz5njDZNTzY6VC2rf3VHkxXXgobNuoEiSCFYUo3h5eDW6dHgQqUyP22TJcGtp51VJE23vBkRPLVGcG2hWeCtAfE","DdzFFzCqrhsxgx6qNqMbn3pnxfDyELMRCVRQikcrkcU3i2SGCDnvshuRXsaMAYfsmVysz6mBhjyE8rBie813CaBYkNV2mK9MkYb7UsJi","DdzFFzCqrhsrvHChvv8XiccSKBZV6LnbkGDHT46cesX9vois8K46MFqSZY1sF1Ewwx1Pan95ZPsja4Nq5fXznJqmQAm4XcUqNQZwDShc","DdzFFzCqrhsm9QX2K9eDycZhLrcsSX47421AFfSv3dTmSpAFP5ouaDjQdHfj89TKta83XZGrAgqGW1E1fUFEUYyvGpXWy9KZPjhQECiS","DdzFFzCqrhsvacgSYgdhHDie2xm5N2KYdTWBfJu5LGvccYR3DETAAnDAAu2fGjqyE3JWbBFaAgper6WgduvVn1LnrFaFmW6ye5JrZpSK","DdzFFzCqrht7j8AVQustQgrpvVEBcawLuXgBJciWrY9Y52D9Pi3NKq9bokK5jAysC6ykrXE6SbC9YWs6eyFAUxVdBcdGNSGHn4FUwHQM","DdzFFzCqrhspCbtfasXRDHi2nvibDEujZAJCEqsNyiyXyGHu25dJmvqATjyAkmpjTYrUHEDs561tytLRG3MNwaWCHMpbQd4YY6uhCPXf","DdzFFzCqrhsfqGsR7nkfX2X46HEg1VCjrbVQ6YCL3Ggst21f4owCkQ5obo85jKFid7eo5gYpiYhuLs1DmyCLP2xc4h3Bu8WW7HRPoGPi","DdzFFzCqrhshAmCQLweGu4EdvtWcLFzUcQLqjSfXGZYiqZakKPB55kBexaugQVNsCr1tVv6LSRG9KjmzpJrS7RZ9nJQgmhZGsWS441vf","DdzFFzCqrhskSurCCoUeY5xxGL2iXXPfWikmnmr95VmVz4XmQNoR2JvZGruHxRkMpq7mseYKh59kjmvodoUZjAJ7SvsqWvkxULzAr6bn","DdzFFzCqrhshaUwQEioQHmWsbJH53AZ7WLxjzao6yrWL1isvftjen7FVZ4w12N2s7Z3Uc5CvQzsBtEbidYe6YWeWBUXHbZ5w1Zkc6BgH"],"addressesOutput":["addr1q9atjfpqwdtg7ytz0pz9zcaqvx8zr2uv6ysvc4csqynr683dzefudzxhadht99nh8gv4l3z93d486ygllgxuh2drrrpsdw6fws","DdzFFzCqrht4cmvChDBFUy2yWHdWTDFW2igWAoqRHBpRCKpwwJnGrsr4ehL5j8ywj91rRgFxATykEjK2fody4wTe6jYA3FCjV2FQ1a5B","DdzFFzCqrht9ip8PuhFLr6UASciYTAijaNP5hJ1ADyXere5D4v5iGy9DWrZcfCcY2XQwfQYCmYZE4auquPb42JVjbTGoP5sZ1pixRemx","DdzFFzCqrhsqLoQspbnG2TjuVPk9eSaj58CQgQYXbPHEVVWv9H9T3KsfK54XbkbyYYwiCsuTky54oKoStUCeXBVJSP1gmNcCToStPBAy","DdzFFzCqrhsnZRDprEu6mHe5xcCAbaiaP5pY377t3aAKtM8xsvMRS2nrPbsC584RnsJJrrk5wBzEPrZB3zpbSWWFq3zLs8uDix2Qc1nx"],"fee":1023501,"totalOutput":84864647209,"tokens":[]},{"hash":"8a9ebc1e77471a2e4f9133c1a45473862893bf14eed9f92f3d76cef29ff21fdb","blockNo":8076698,"blockHash":"bc3bd677fd40e74e8a7142c7fbd9f3e49c33daf7ff52151ba26c8d3970bad34a","epochNo":378,"epochSlotNo":256495,"slot":78189295,"time":"2022/11/29 20:59:46","addressesInput":["addr1q9ka45278dq4ak3x4h4jwfxyly2atpsfcfm3rlakcgzansjsgde6jmd3xhw2htq8tp8mjvg3fu9xdx6kwlcphd4rxnnsua750a"],"addressesOutput":["addr1vy7f4vupv9vxlmstxpgyx0qreydmezdnckyavac06jlg6fg4zay8u","addr1qxjn63jagjdmmkscymfgusyvcl3ql9pf7cluexls9jdf6tzsgde6jmd3xhw2htq8tp8mjvg3fu9xdx6kwlcphd4rxnnstg7ffy"],"fee":366625,"totalOutput":21959335,"tokens":[]},{"hash":"2fba59006a8a15b18edaa2d5b912a585870f972b331c6f45102cd9b5d43523b6","blockNo":8076508,"blockHash":"d5d43015114fab140b39df1786d5dbcfc7eedfc4ee2edf3bd66f477e488a46bd","epochNo":378,"epochSlotNo":252615,"slot":78185415,"time":"2022/11/29 19:55:06","addressesInput":["DdzFFzCqrhskmLzauji5boJ7xCY9X8f4bNqZvXNa4RwRMUhyN9KzsvcECeDJnfsZWx5KFLhmcU5f557AoLovAS92wAJ216rP19613fhJ","DdzFFzCqrht2mVPqbojWtfXBdmEWELFNp9wB2YtsjfkLSe4om1tdJwgSBW8A3y5xbX1kBnBzLFbCD1GLnodKKv74CVKYa8tWLthKZcNU","DdzFFzCqrhshpAySakdLhUWL6gTLMn8FJWCiLtfnCsp9uSpbuH3AuB7afCminpNKdM6HGHnpdEtDkSJ1DLStrTzdGf7ERDU1TtX3b9gg","DdzFFzCqrht9hQE9zekQw1Bo382273XW3KiDLouvZtkv9zpe9ut7YoY3QPenHoLW4RV6iUQvX34H5pSN2x3hv8RUiY6vvH7tV3cqzK38","DdzFFzCqrhtCJr3QGBY5PZzRf5BXdownscpTvgL267b6Rd1zc9kxRvmE8duCdQVfjYRuUtzC9jVct2hZ4gJP3RWtKWRLjdwpDADXmUai","DdzFFzCqrht1k2RKi1NspKWMUYNbTqFMZAoQ7dmJ5MMExdAYgvZFCM3LKxkUn6DSNDu9p7mAfyUTVAYzuVznx4HZDgHUbrh1F7hRG3hg","DdzFFzCqrhsmYEsDQ1fVfqX3xMgsG6JvPFm2vM3utZ3DP95nNh15tEGjVwB9HohGiq8fR1phMMbVsuctvdLFDd9G3jjuCz2MxbAis7XR","DdzFFzCqrhseA6kfmXhDqoqHvyLpujPiQnhW6E8ZJsS1489xs1quBB3veyzciWdUt999HquhgwxvaEMpdqLCKUS2eZdVaPcoJsjDJXsN","DdzFFzCqrht1HXkN8Vqh43wUMcpwq321DhFxgtkgaiV1vfqHkqVSGBuvLi5MC6mRAW1dzrwQ8DaeCSMsGqDc8fkqvwa4BBDY8bVwgPQc","DdzFFzCqrhsyroWjUdoK7qbqP2DFNQisyiaCXzoGqagWCQ3H6b5nChJ25SGCmNaWGSXxUgbUStmoxbcAENQJnNMg5ocZaeGCEC86KBUu","DdzFFzCqrhseQWnuQzot9uY1wiESnBhf8UjFtFH795iqcx4okeQVWqEh1WUngwhi7UoUrSXvbKfg9LdMbZRvA8Cc9on8xopFcZDvqCV7","DdzFFzCqrhsyroWjUdoK7qbqP2DFNQisyiaCXzoGqagWCQ3H6b5nChJ25SGCmNaWGSXxUgbUStmoxbcAENQJnNMg5ocZaeGCEC86KBUu","DdzFFzCqrht5tg33MNmN1XWQAMgrPbvsH8HdKDYKTKyNxNoR7Y7wXoBmNPzQM4eAKPJ7iSzTWzqHA97jxBaKQ7X6qbB1v4BS7bA4ZiEV","DdzFFzCqrhsxqLzYyfxLydT7ZDihdVhtEThZKMmGJA9weRguM4dasMpqKQBknQ9UA9Pv7AspemV94iFDtYD3msApm1ojk2D3LXmuXxMz"],"addressesOutput":["addr1q9atjfpqwdtg7ytz0pz9zcaqvx8zr2uv6ysvc4csqynr683dzefudzxhadht99nh8gv4l3z93d486ygllgxuh2drrrpsdw6fws","DdzFFzCqrht7j8AVQustQgrpvVEBcawLuXgBJciWrY9Y52D9Pi3NKq9bokK5jAysC6ykrXE6SbC9YWs6eyFAUxVdBcdGNSGHn4FUwHQM","DdzFFzCqrhskSurCCoUeY5xxGL2iXXPfWikmnmr95VmVz4XmQNoR2JvZGruHxRkMpq7mseYKh59kjmvodoUZjAJ7SvsqWvkxULzAr6bn","DdzFFzCqrhsfqGsR7nkfX2X46HEg1VCjrbVQ6YCL3Ggst21f4owCkQ5obo85jKFid7eo5gYpiYhuLs1DmyCLP2xc4h3Bu8WW7HRPoGPi","DdzFFzCqrhsvacgSYgdhHDie2xm5N2KYdTWBfJu5LGvccYR3DETAAnDAAu2fGjqyE3JWbBFaAgper6WgduvVn1LnrFaFmW6ye5JrZpSK"],"fee":1004141,"totalOutput":50319749217,"tokens":[]},{"hash":"d1cc772b3f89fd6c27b705df1d3ce10b0854434833402dfa308d28e2c3a17f77","blockNo":8076300,"blockHash":"a1c2050a0d2540c98722b9751400cd579c1f936131dfbef254abaae7d57bb3bc","epochNo":378,"epochSlotNo":247844,"slot":78180644,"time":"2022/11/29 18:35:35","addressesInput":["addr1qy0xznhgdhqj9u4g6jjdntf2cxy5lyad8j2p6a6dp8jwwttfq4uncdzu6hqlxn7gva2xsaln40x226fl8fsnqyyvzxtqqm3qw9","addr1qy0xznhgdhqj9u4g6jjdntf2cxy5lyad8j2p6a6dp8jwwttfq4uncdzu6hqlxn7gva2xsaln40x226fl8fsnqyyvzxtqqm3qw9"],"addressesOutput":["addr1zxgx3far7qygq0k6epa0zcvcvrevmn0ypsnfsue94nsn3tvpw288a4x0xf8pxgcntelxmyclq83s0ykeehchz2wtspks905plm","addr1qy0xznhgdhqj9u4g6jjdntf2cxy5lyad8j2p6a6dp8jwwttfq4uncdzu6hqlxn7gva2xsaln40x226fl8fsnqyyvzxtqqm3qw9"],"fee":252093,"totalOutput":11440197,"tokens":[]},{"hash":"d34d96261d6d0141040488b34428bf4b742021efeca0d0c913e5567aea1698f4","blockNo":8076294,"blockHash":"18e647fb61b4e4967cd6a85f84ae34ca69c7447c4c5fa2c707cf519089ca405a","epochNo":378,"epochSlotNo":247730,"slot":78180530,"time":"2022/11/29 18:33:41","addressesInput":["DdzFFzCqrhsnETkwuAS2ZwKr6GZnxjpaXScWeg8qZBRjUmwkp1HYcoTjrmHpvXmKPHizGTxoNutgoJjPPsXvncnzj387hv2Bpp1nhTiU","DdzFFzCqrht9hQE9zekQw1Bo382273XW3KiDLouvZtkv9zpe9ut7YoY3QPenHoLW4RV6iUQvX34H5pSN2x3hv8RUiY6vvH7tV3cqzK38","DdzFFzCqrht9sVcdP6BSC74zSdKCSyPHnFbrJRoD3KbSjosDUF9grtLskVZ6ARaRdhLrYayQY3hHkKXYfXCdAopqJu24N6xUdDQogoVG","DdzFFzCqrhsyxi268c4UEdTy4pgM2qZvkghrUzFCgwKxXKMxrmoh4pb3TRE5ReeaAfdokwBjAWav95DPMRLE62josbTNahBjzGURbwwq","DdzFFzCqrhstgr4vznLRs7tqAnTtp71BZjDgbT9N74Mf4pD5YjjKrBTMJJeLT89s4ShoMHNkNDcobPW91dJz1XH7oE4b8eVzcuczF9sz","DdzFFzCqrhsjfmeeff4xFpj3tpYghzeoNL6A37xFXbtuVBvyeEte3Vw5dPcjCAvxnJQCGXSABCyGbpgJJNzpxj371hv3jj1xSU8hBye7","DdzFFzCqrhtC8LzSnXeV39A88buHHRz2Cg1TrGqjuiTQ88M5W5yZeQchkBc3m6wVkjpnW7KRqNynq1cdY3SPsfwdsfFU13NDH3GjFbL9","DdzFFzCqrhtBq7vNanPVyE7mRU28SqEJiWnfeLWZVMTZEhVS5w4Veyc2cnx3dihnc7hZTpQkdAJMNnW7CEXhoWiMv2bsG65MZ3tx5zYe","DdzFFzCqrht2UVRYq5PZxoWzVqX7UgQ6z41Mdaf5jvh6UfFuezha7b1fXHV254qEc2cGdmLkuidjc7Em3QqAhRFGc8M4oQJARi1e8Qmh","DdzFFzCqrhseovGj53KLeCR4KYbpsDMz2ittdopnLDvBawCWPfm57x5RAvR3DZfCwS46F6jiiLttLwnUrSRGVZEaMFzPUAxTdqndc17z","DdzFFzCqrhsom8kzpTyU4zChbGWchBGwWHpbudVtnBJmPzHv5hL6TL61VKNyoenQ6FBvXUaAWPFBzrpsKvBjP8Rqw9g2U2VzL6aorWqn","DdzFFzCqrhsqPmujRJwvxirMdZin6y675eZ8NRUHFPtAn4P3v8k9nUsp9485o5QMLg4HrFjwc8emZ3tQeH6cu3nbjj8S1S9YJ2PeGH6B","DdzFFzCqrht88QmRuyWrHJFkoW8HaP1NEsefj1MTZ2tgeiYcMkcZtEQ27g5ADTwzTjTbyLqiPCfAyvyrLhHuS4igiag5NQJR5ocDN4AG","DdzFFzCqrht8is2GKNkp3ke331HdAisNBEGhM15NR1Z13fRjCeuNHbszDktA1DgQ8y5wA3caHHMsw6ddXteiLRv3Sc8qXzP1MPfU27fh","DdzFFzCqrht9hQE9zekQw1Bo382273XW3KiDLouvZtkv9zpe9ut7YoY3QPenHoLW4RV6iUQvX34H5pSN2x3hv8RUiY6vvH7tV3cqzK38","DdzFFzCqrhskoBaGukKGzrp1wcUcnygCQrhmfXNg3HWXxSG1XcmjspqgEimkF4xC9FucxKVzaJ98yPyi5PsJ9x2B4YJcdHQu5bdT88a5","DdzFFzCqrhsubfyKvb5RponDoeicnoqigGQ1TybuWS964R9Q4WF8uCAfXtxvsPYa9MMsQ3mrwfJQYR6unXEZbmJ5UiDogXiJDHEmWDvo","DdzFFzCqrhtBZ927fUudoXZiPNvuLZVjXQUJYcS5BUML1CUXL5eP86CQJoNC9cvEdDW7RDd1ExdwS7kCE6idN3dnfscNA1JPp7rfA7Hz","DdzFFzCqrhskvm9yLdbGK89ELdrHzK1DFFLRGuAajxuh1kjicXD7R4HQasqMdiuLYyMcxR3P8hPA9T1Sn9CWpjckCeEyRPNEDaiUH7Jf","DdzFFzCqrhswYG5yqEmxzQiF91CBE5h4CoeZnADBn3nwuwwr8g4G1hU9qS2WDstt2SWRkcKZut8tF6Yp6USMx69AF48QvhBzQBXATWcF","DdzFFzCqrhtCC1a6kSjGTyWaWqDZFHksFc9deJvLVyqJeCmKeLC4WbiwEJixbE2napsFj6gDkyXESQXTPeY8mipirArofgco6jLrD88r","DdzFFzCqrhtC8LzSnXeV39A88buHHRz2Cg1TrGqjuiTQ88M5W5yZeQchkBc3m6wVkjpnW7KRqNynq1cdY3SPsfwdsfFU13NDH3GjFbL9","DdzFFzCqrhsrE7CsXBV8652WdEuu4mPrQSDn2HGxvq4h5kBi4TdfirMZUmYcDftqixweRs9ghgEsBczMtARMsEyVj7NSgk2RXTThDEUb","DdzFFzCqrhssuMYaFwYWnfWQSkawZEJtYSqfkTYREnUxJsfoduScUDLzDXqHrbDKgqNKzPW5FxLbCmyaD4jpGe8k2Y9PYZM4NWHa21iH","DdzFFzCqrht8wV7qVLVacxRTReztuuuZpRYqHddaCqZwvNU8VDY4djX5k35XqDNcBM4LutcLQuGPkSTpJd36fMh93ZJmTzkwWTe3mY1K","DdzFFzCqrhsdzK42MpiYLrWq4RcVTktQvBLy44xqqfUNDCQmY5mdyZ4Rrk9mb41wQD84G41uUWBfdgN6cEN692v4xFfKn2UNqejQ5Ur1"],"addressesOutput":["addr1q9atjfpqwdtg7ytz0pz9zcaqvx8zr2uv6ysvc4csqynr683dzefudzxhadht99nh8gv4l3z93d486ygllgxuh2drrrpsdw6fws","DdzFFzCqrht1HXkN8Vqh43wUMcpwq321DhFxgtkgaiV1vfqHkqVSGBuvLi5MC6mRAW1dzrwQ8DaeCSMsGqDc8fkqvwa4BBDY8bVwgPQc","DdzFFzCqrht5tg33MNmN1XWQAMgrPbvsH8HdKDYKTKyNxNoR7Y7wXoBmNPzQM4eAKPJ7iSzTWzqHA97jxBaKQ7X6qbB1v4BS7bA4ZiEV","DdzFFzCqrhshpAySakdLhUWL6gTLMn8FJWCiLtfnCsp9uSpbuH3AuB7afCminpNKdM6HGHnpdEtDkSJ1DLStrTzdGf7ERDU1TtX3b9gg","DdzFFzCqrhskmLzauji5boJ7xCY9X8f4bNqZvXNa4RwRMUhyN9KzsvcECeDJnfsZWx5KFLhmcU5f557AoLovAS92wAJ216rP19613fhJ"],"fee":1120301,"totalOutput":65663546156,"tokens":[]},{"hash":"a82424ec2753a5f14ed2cc3bbfac0aaf8f2983c0acb91d646326443f8d982fe8","blockNo":8076292,"blockHash":"7da5eaaefe448fa55ca27b37d2c141c34f7989b9af1a4dbc1812097db2af028e","epochNo":378,"epochSlotNo":247693,"slot":78180493,"time":"2022/11/29 18:33:04","addressesInput":["addr1qy0xznhgdhqj9u4g6jjdntf2cxy5lyad8j2p6a6dp8jwwttfq4uncdzu6hqlxn7gva2xsaln40x226fl8fsnqyyvzxtqqm3qw9","addr1qy0xznhgdhqj9u4g6jjdntf2cxy5lyad8j2p6a6dp8jwwttfq4uncdzu6hqlxn7gva2xsaln40x226fl8fsnqyyvzxtqqm3qw9","addr1qy0xznhgdhqj9u4g6jjdntf2cxy5lyad8j2p6a6dp8jwwttfq4uncdzu6hqlxn7gva2xsaln40x226fl8fsnqyyvzxtqqm3qw9"],"addressesOutput":["addr1zxgx3far7qygq0k6epa0zcvcvrevmn0ypsnfsue94nsn3tvpw288a4x0xf8pxgcntelxmyclq83s0ykeehchz2wtspks905plm","addr1qy0xznhgdhqj9u4g6jjdntf2cxy5lyad8j2p6a6dp8jwwttfq4uncdzu6hqlxn7gva2xsaln40x226fl8fsnqyyvzxtqqm3qw9"],"fee":254117,"totalOutput":8651258,"tokens":[]},{"hash":"b79a54036c95d8ea773505406c66b476b8969742684239d05da122a6994341b7","blockNo":8076287,"blockHash":"2f0bfa137f38cefa164dfc2699b443c06134c1ef8178924c13e596aee2f24de1","epochNo":378,"epochSlotNo":247627,"slot":78180427,"time":"2022/11/29 18:31:58","addressesInput":["addr1qy0xznhgdhqj9u4g6jjdntf2cxy5lyad8j2p6a6dp8jwwttfq4uncdzu6hqlxn7gva2xsaln40x226fl8fsnqyyvzxtqqm3qw9","addr1qy0xznhgdhqj9u4g6jjdntf2cxy5lyad8j2p6a6dp8jwwttfq4uncdzu6hqlxn7gva2xsaln40x226fl8fsnqyyvzxtqqm3qw9"],"addressesOutput":["addr1zxgx3far7qygq0k6epa0zcvcvrevmn0ypsnfsue94nsn3tvpw288a4x0xf8pxgcntelxmyclq83s0ykeehchz2wtspks905plm","addr1qy0xznhgdhqj9u4g6jjdntf2cxy5lyad8j2p6a6dp8jwwttfq4uncdzu6hqlxn7gva2xsaln40x226fl8fsnqyyvzxtqqm3qw9"],"fee":250245,"totalOutput":7849425,"tokens":[]},{"hash":"fcfd9fc8d4a702c4acf324e072fe16f29a891bc596359aeea6005445a62119ab","blockNo":8076220,"blockHash":"75745e70cd106bd074db7e374c1015069a775ed73eb042afaa10d335c6a3a134","epochNo":378,"epochSlotNo":246309,"slot":78179109,"time":"2022/11/29 18:10:00","addressesInput":["addr1qxrvjkdpkcq4kvvrud5m0e59lfqlt5csclwukgq4l2lpxssgynj4r7mwnt33h6tzuef57v2dpdrrxy79c2swke6r6qzsg92x4x","addr1qxrvjkdpkcq4kvvrud5m0e59lfqlt5csclwukgq4l2lpxssgynj4r7mwnt33h6tzuef57v2dpdrrxy79c2swke6r6qzsg92x4x"],"addressesOutput":["addr1q9nf2ds5ckt7uh6lxmsrhfddkca9cn5ctae6c2qwcsdgg2zuuvl5m7hhukqtt5kdkw9mna0sxpkrxsh40qdgse76jdrqd29cxl","addr1qxrvjkdpkcq4kvvrud5m0e59lfqlt5csclwukgq4l2lpxssgynj4r7mwnt33h6tzuef57v2dpdrrxy79c2swke6r6qzsg92x4x","addr1qxrvjkdpkcq4kvvrud5m0e59lfqlt5csclwukgq4l2lpxssgynj4r7mwnt33h6tzuef57v2dpdrrxy79c2swke6r6qzsg92x4x"],"fee":360685,"totalOutput":291180359,"tokens":[]},{"hash":"f36d1a78628704fbc8a9449be2d4f67150db2c5bb6658f8b436ddc6364ff2d5e","blockNo":8076149,"blockHash":"48bf5c7b7c31f6ef9b8aa5cc1a7a9cd5c02efb623eb59dc4bfdaea6fb8f90841","epochNo":378,"epochSlotNo":244645,"slot":78177445,"time":"2022/11/29 17:42:16","addressesInput":["addr1qxrvjkdpkcq4kvvrud5m0e59lfqlt5csclwukgq4l2lpxssgynj4r7mwnt33h6tzuef57v2dpdrrxy79c2swke6r6qzsg92x4x","addr1qxrvjkdpkcq4kvvrud5m0e59lfqlt5csclwukgq4l2lpxssgynj4r7mwnt33h6tzuef57v2dpdrrxy79c2swke6r6qzsg92x4x","addr1qxrvjkdpkcq4kvvrud5m0e59lfqlt5csclwukgq4l2lpxssgynj4r7mwnt33h6tzuef57v2dpdrrxy79c2swke6r6qzsg92x4x","addr1qxrvjkdpkcq4kvvrud5m0e59lfqlt5csclwukgq4l2lpxssgynj4r7mwnt33h6tzuef57v2dpdrrxy79c2swke6r6qzsg92x4x","addr1qxrvjkdpkcq4kvvrud5m0e59lfqlt5csclwukgq4l2lpxssgynj4r7mwnt33h6tzuef57v2dpdrrxy79c2swke6r6qzsg92x4x"],"addressesOutput":["addr1q9nf2ds5ckt7uh6lxmsrhfddkca9cn5ctae6c2qwcsdgg2zuuvl5m7hhukqtt5kdkw9mna0sxpkrxsh40qdgse76jdrqd29cxl","addr1qxrvjkdpkcq4kvvrud5m0e59lfqlt5csclwukgq4l2lpxssgynj4r7mwnt33h6tzuef57v2dpdrrxy79c2swke6r6qzsg92x4x","addr1qxrvjkdpkcq4kvvrud5m0e59lfqlt5csclwukgq4l2lpxssgynj4r7mwnt33h6tzuef57v2dpdrrxy79c2swke6r6qzsg92x4x"],"fee":365789,"totalOutput":341541044,"tokens":[]},{"hash":"aaa6a3917f65067bc4049849e095f20a910ee5e687c11b5bd8c8c6b8c14aeb48","blockNo":8075969,"blockHash":"4193f4ad1b76a98bc3d5968d831a5f0c6ceb87c0b0856791f7416874fcff4cd4","epochNo":378,"epochSlotNo":240595,"slot":78173395,"time":"2022/11/29 16:34:46","addressesInput":["addr1q9vj9w32w77p47ca725hantcf5nrzcex66vqq58kqm4l04y6hn99676mvdj6qvd34vfqh3jx6vy8tyfkuy6u3xcghq8sex2gzq","addr1q9vj9w32w77p47ca725hantcf5nrzcex66vqq58kqm4l04y6hn99676mvdj6qvd34vfqh3jx6vy8tyfkuy6u3xcghq8sex2gzq","addr1q9vj9w32w77p47ca725hantcf5nrzcex66vqq58kqm4l04y6hn99676mvdj6qvd34vfqh3jx6vy8tyfkuy6u3xcghq8sex2gzq"],"addressesOutput":["addr1q8mux56s2a9yfp63eqhtamy2e657efd7v94edzafgyad46a4xyz3pvz5hcep5kdjnj9cah70gqhu0vksh0kwy8lptkhqmhttnz","addr1q9vj9w32w77p47ca725hantcf5nrzcex66vqq58kqm4l04y6hn99676mvdj6qvd34vfqh3jx6vy8tyfkuy6u3xcghq8sex2gzq","addr1q9vj9w32w77p47ca725hantcf5nrzcex66vqq58kqm4l04y6hn99676mvdj6qvd34vfqh3jx6vy8tyfkuy6u3xcghq8sex2gzq"],"fee":236605,"totalOutput":27213444,"tokens":[]},{"hash":"d89d7ad97186320b29877f2814fb7539dedbb1a5a71f69ee29f5ea229ac70c4f","blockNo":8075940,"blockHash":"f42b100599b5468556b5da29d5ac1765c0903c01995096115308621a6bd7c959","epochNo":378,"epochSlotNo":240008,"slot":78172808,"time":"2022/11/29 16:24:59","addressesInput":["addr1q9vj9w32w77p47ca725hantcf5nrzcex66vqq58kqm4l04y6hn99676mvdj6qvd34vfqh3jx6vy8tyfkuy6u3xcghq8sex2gzq","addr1q9vj9w32w77p47ca725hantcf5nrzcex66vqq58kqm4l04y6hn99676mvdj6qvd34vfqh3jx6vy8tyfkuy6u3xcghq8sex2gzq","addr1q9vj9w32w77p47ca725hantcf5nrzcex66vqq58kqm4l04y6hn99676mvdj6qvd34vfqh3jx6vy8tyfkuy6u3xcghq8sex2gzq","addr1q9vj9w32w77p47ca725hantcf5nrzcex66vqq58kqm4l04y6hn99676mvdj6qvd34vfqh3jx6vy8tyfkuy6u3xcghq8sex2gzq","addr1q9vj9w32w77p47ca725hantcf5nrzcex66vqq58kqm4l04y6hn99676mvdj6qvd34vfqh3jx6vy8tyfkuy6u3xcghq8sex2gzq","addr1q9vj9w32w77p47ca725hantcf5nrzcex66vqq58kqm4l04y6hn99676mvdj6qvd34vfqh3jx6vy8tyfkuy6u3xcghq8sex2gzq","addr1q9vj9w32w77p47ca725hantcf5nrzcex66vqq58kqm4l04y6hn99676mvdj6qvd34vfqh3jx6vy8tyfkuy6u3xcghq8sex2gzq","addr1q9vj9w32w77p47ca725hantcf5nrzcex66vqq58kqm4l04y6hn99676mvdj6qvd34vfqh3jx6vy8tyfkuy6u3xcghq8sex2gzq"],"addressesOutput":["addr1q8mux56s2a9yfp63eqhtamy2e657efd7v94edzafgyad46a4xyz3pvz5hcep5kdjnj9cah70gqhu0vksh0kwy8lptkhqmhttnz","addr1q9vj9w32w77p47ca725hantcf5nrzcex66vqq58kqm4l04y6hn99676mvdj6qvd34vfqh3jx6vy8tyfkuy6u3xcghq8sex2gzq","addr1q9vj9w32w77p47ca725hantcf5nrzcex66vqq58kqm4l04y6hn99676mvdj6qvd34vfqh3jx6vy8tyfkuy6u3xcghq8sex2gzq"],"fee":251609,"totalOutput":332483736,"tokens":[]},{"hash":"21b4d219a2080c94666b8bfecefad74ff4095aa1eda3319858756ff03f0500c5","blockNo":8075812,"blockHash":"e78ccdb2bfafb5cceeb9329c4590c4d25d8bd68f67916bbcc6e66480e7ee2179","epochNo":378,"epochSlotNo":237548,"slot":78170348,"time":"2022/11/29 15:43:59","addressesInput":["addr1qxn0kuqk8mysdv8rpqhl39vp6njnxd7dw3yvkcvdk9ke4revmezswc6ql6x9kekl6zm3ptc6g9jlwln9lt6sml5mcl0sndmr62","addr1qxn0kuqk8mysdv8rpqhl39vp6njnxd7dw3yvkcvdk9ke4revmezswc6ql6x9kekl6zm3ptc6g9jlwln9lt6sml5mcl0sndmr62","addr1qxn0kuqk8mysdv8rpqhl39vp6njnxd7dw3yvkcvdk9ke4revmezswc6ql6x9kekl6zm3ptc6g9jlwln9lt6sml5mcl0sndmr62"],"addressesOutput":["addr1zyq0kyrml023kwjk8zr86d5gaxrt5w8lxnah8r6m6s4jp4g3r6dxnzml343sx8jweqn4vn3fz2kj8kgu9czghx0jrsyqqktyhv","addr1q9ad5mud938r7l24eaac4v57ydlj72hazgprts9f7daaz09mm95jvs5h94099yglxr7v6ug6pp43780huy040lm4utmqx8g5eu","addr1qxn0kuqk8mysdv8rpqhl39vp6njnxd7dw3yvkcvdk9ke4revmezswc6ql6x9kekl6zm3ptc6g9jlwln9lt6sml5mcl0sndmr62"],"fee":374542,"totalOutput":55623677,"tokens":[]},{"hash":"1a4fce8488ddcbedea5df5f13cb55b7fc51295e5c6414eab6d2ba3991ef0a694","blockNo":8075804,"blockHash":"fddea2fd6b9bceeef0abf8c97f4d798a9b16dc6cfa2cb94525a44022fc11986b","epochNo":378,"epochSlotNo":237370,"slot":78170170,"time":"2022/11/29 15:41:01","addressesInput":["DdzFFzCqrhtAgrkDs9JEZW3UCXM7WUEAiVfMb8qsEg56uab3FKwCi3zYFf41kiVhvDAaUwgbNBKedWfUCNLm11fvGMP5ztXUuNqfZDRn","DdzFFzCqrht4gpEJi1MKUKtb13soK2CgbynHUyp3fcZ4GpugcYsrsw8vjTQgCaTMbSjkedpPg9wC865cMxGKTye8Dw5Hid6VWUpmt1s2","DdzFFzCqrhsxa9JdBcyk5CsDXgctakWfJHe5136wqqhFt16uHPAKEHUKZitvgVUfnREEgAnt2cfiDxWfMFG1o92m7qJkT2tDmzwRWKqq","DdzFFzCqrhsnETkwuAS2ZwKr6GZnxjpaXScWeg8qZBRjUmwkp1HYcoTjrmHpvXmKPHizGTxoNutgoJjPPsXvncnzj387hv2Bpp1nhTiU","DdzFFzCqrhtAwEdbP6Kw7H8hJ2CjxDick4Refx23K576oe6mmdqLjFQMWGaWze64LUcNujrus7AGpF1fY4ZygmXZcrDUXKLiVjTAQwLt","DdzFFzCqrhsmoji2JuYpeSbfP96ReEKstKnFt79hPXK8qEH18pTjT423qq1Aau4jtZL2JXuH2i3FZRQLCESmEVUxG7EPYmjzDNe29GCf","DdzFFzCqrhsyxNvcfQ48kDMfK8VEnc74iAuTBiGhP15KETsvTPLaoC35Vk5BPiXYyoidLN4ip9HFVCVYNG5NBsTJ3zM1N3SUkkTLbTWd","DdzFFzCqrhsnETkwuAS2ZwKr6GZnxjpaXScWeg8qZBRjUmwkp1HYcoTjrmHpvXmKPHizGTxoNutgoJjPPsXvncnzj387hv2Bpp1nhTiU","DdzFFzCqrhsryWH62oexvSvmTa8FHUA6DeKVGfivfgLMabjGFGSsx1mJP1mkLRJLCSr6dX5Z5r5aMkXFeuX6v1aMMfAfcKswVN9ZtMG8","DdzFFzCqrhsxQxnc5xf66mdca8MqixKAgJ8cAScz6dg6qHjxVTqLn8jsjixZa1Qk3EFQFasrstVGrtAiDRidyfGGdvhaTWezdzgpWw3N","DdzFFzCqrhswjkybAhcqanMk7oQbp6VsdqBKci46B194FB7trrYtx7W7CmyTsRHYTV1BLaf94ED6LfjZ8j1xTRhbv81KwYbLAHKgdzcN","DdzFFzCqrhshCV7Pc6qh11tvnSP316yJKB42RBCBfepbBUdcZvWQxj3PhimvjyQPREBiTyCPK5KoJW3EFvRCZ3Zg3CdaZfecP9Y8xRkq","DdzFFzCqrht83bnwf9Nydy6udRz4t1FKem5EYHLnq6TAiLJQHMH5FMoVBgu6kb7nxe9rSapSa4kMCkNcd4PiykiZiVoREE6sgocSaqeU","DdzFFzCqrhshpWeexbGnH92qfQ1HRdNRqq3yntEomHt73VZTvnLumVLQVHUE71bhiApnuLA3UMuBXeKHxHGhSfnZ2k2io7tNsQckR4E3","DdzFFzCqrht1fkyWJgRtQ71mCfrdRukMWanxQpnfdVb8FQf5Cfb62U999fXkXGv5wzYDp8DKMo8bxqor3P4Z1YuehCVAFL7nzBefgPVi","DdzFFzCqrhsom8kzpTyU4zChbGWchBGwWHpbudVtnBJmPzHv5hL6TL61VKNyoenQ6FBvXUaAWPFBzrpsKvBjP8Rqw9g2U2VzL6aorWqn","DdzFFzCqrht5KpFW1reAhzSCx3Wf96jSzuFhhu1Y44m9TRxFmy7jvxqgwvbRZbG54KMz6EADGejVEmxCDyXt9q6dmJKvEbxRT6kEHHyH","DdzFFzCqrht69Pip1CM7oVzR1LxYopL6TATafut9WctpRgTEv4x1rY46rtztuzwLhgg9RY4RxCLWjpcumwE8MwputUR7dWodJ31AWFkt"],"addressesOutput":["addr1q9atjfpqwdtg7ytz0pz9zcaqvx8zr2uv6ysvc4csqynr683dzefudzxhadht99nh8gv4l3z93d486ygllgxuh2drrrpsdw6fws","DdzFFzCqrhsjfmeeff4xFpj3tpYghzeoNL6A37xFXbtuVBvyeEte3Vw5dPcjCAvxnJQCGXSABCyGbpgJJNzpxj371hv3jj1xSU8hBye7","DdzFFzCqrht2UVRYq5PZxoWzVqX7UgQ6z41Mdaf5jvh6UfFuezha7b1fXHV254qEc2cGdmLkuidjc7Em3QqAhRFGc8M4oQJARi1e8Qmh","DdzFFzCqrhseovGj53KLeCR4KYbpsDMz2ittdopnLDvBawCWPfm57x5RAvR3DZfCwS46F6jiiLttLwnUrSRGVZEaMFzPUAxTdqndc17z","DdzFFzCqrht88QmRuyWrHJFkoW8HaP1NEsefj1MTZ2tgeiYcMkcZtEQ27g5ADTwzTjTbyLqiPCfAyvyrLhHuS4igiag5NQJR5ocDN4AG"],"fee":1042861,"totalOutput":50147718622,"tokens":[]},{"hash":"db4cf4a74639117c02685288793b5f8906674a427e7f665295239d5b1d64153b","blockNo":8075712,"blockHash":"1926aaa7cc32528e59787bc661cf65e38ec41ca0faf1c1fef9a59032fddb22a3","epochNo":378,"epochSlotNo":235704,"slot":78168504,"time":"2022/11/29 15:13:15","addressesInput":["addr1qxn0kuqk8mysdv8rpqhl39vp6njnxd7dw3yvkcvdk9ke4revmezswc6ql6x9kekl6zm3ptc6g9jlwln9lt6sml5mcl0sndmr62"],"addressesOutput":["addr1wxn9efv2f6w82hagxqtn62ju4m293tqvw0uhmdl64ch8uwc0h43gt","addr1qxn0kuqk8mysdv8rpqhl39vp6njnxd7dw3yvkcvdk9ke4revmezswc6ql6x9kekl6zm3ptc6g9jlwln9lt6sml5mcl0sndmr62","addr1qxn0kuqk8mysdv8rpqhl39vp6njnxd7dw3yvkcvdk9ke4revmezswc6ql6x9kekl6zm3ptc6g9jlwln9lt6sml5mcl0sndmr62"],"fee":349949,"totalOutput":63798219,"tokens":[]},{"hash":"bb975ac8cb0f1847d41e852e3924a789c45e837f053c3b9cd1cfefda3d17e084","blockNo":8075697,"blockHash":"6637d2443bca4a6b51d119faca1bb49463c9784921bc6c3c9c28cd66a56d05b1","epochNo":378,"epochSlotNo":235482,"slot":78168282,"time":"2022/11/29 15:09:33","addressesInput":["addr1qxn0kuqk8mysdv8rpqhl39vp6njnxd7dw3yvkcvdk9ke4revmezswc6ql6x9kekl6zm3ptc6g9jlwln9lt6sml5mcl0sndmr62"],"addressesOutput":["addr1wxn9efv2f6w82hagxqtn62ju4m293tqvw0uhmdl64ch8uwc0h43gt","addr1qxn0kuqk8mysdv8rpqhl39vp6njnxd7dw3yvkcvdk9ke4revmezswc6ql6x9kekl6zm3ptc6g9jlwln9lt6sml5mcl0sndmr62","addr1qxn0kuqk8mysdv8rpqhl39vp6njnxd7dw3yvkcvdk9ke4revmezswc6ql6x9kekl6zm3ptc6g9jlwln9lt6sml5mcl0sndmr62"],"fee":350125,"totalOutput":72247918,"tokens":[]},{"hash":"33b01214473ca9be25756a54061186aff290352a5610cc6dae085c2bb988161d","blockNo":8075678,"blockHash":"0eae5b35e8d3820482610a613d6f82122e95b35e4ff4c5f0358eff1505b770d5","epochNo":378,"epochSlotNo":235172,"slot":78167972,"time":"2022/11/29 15:04:23","addressesInput":["addr1qxn0kuqk8mysdv8rpqhl39vp6njnxd7dw3yvkcvdk9ke4revmezswc6ql6x9kekl6zm3ptc6g9jlwln9lt6sml5mcl0sndmr62"],"addressesOutput":["addr1wxn9efv2f6w82hagxqtn62ju4m293tqvw0uhmdl64ch8uwc0h43gt","addr1qxn0kuqk8mysdv8rpqhl39vp6njnxd7dw3yvkcvdk9ke4revmezswc6ql6x9kekl6zm3ptc6g9jlwln9lt6sml5mcl0sndmr62","addr1qxn0kuqk8mysdv8rpqhl39vp6njnxd7dw3yvkcvdk9ke4revmezswc6ql6x9kekl6zm3ptc6g9jlwln9lt6sml5mcl0sndmr62"],"fee":349905,"totalOutput":81667793,"tokens":[]},{"hash":"6cd5c56f44c680e5706acc633ec08aed1037db5e3908ac37d3aa076eb2f518b8","blockNo":8075647,"blockHash":"08ccca0ed13909bf7d1d14d5f738f12d6cba0611e41a553ee85ee9044d334692","epochNo":378,"epochSlotNo":234326,"slot":78167126,"time":"2022/11/29 14:50:17","addressesInput":["addr1qxn0kuqk8mysdv8rpqhl39vp6njnxd7dw3yvkcvdk9ke4revmezswc6ql6x9kekl6zm3ptc6g9jlwln9lt6sml5mcl0sndmr62"],"addressesOutput":["addr1wxn9efv2f6w82hagxqtn62ju4m293tqvw0uhmdl64ch8uwc0h43gt","addr1qxn0kuqk8mysdv8rpqhl39vp6njnxd7dw3yvkcvdk9ke4revmezswc6ql6x9kekl6zm3ptc6g9jlwln9lt6sml5mcl0sndmr62","addr1qxn0kuqk8mysdv8rpqhl39vp6njnxd7dw3yvkcvdk9ke4revmezswc6ql6x9kekl6zm3ptc6g9jlwln9lt6sml5mcl0sndmr62"],"fee":349949,"totalOutput":89087448,"tokens":[]}],"totalItems":11812,"totalPages":591,"currentPage":0}