{"data":[{"hash":"5e30f93f5e643c8486dfb000aec6979327c5e40a3b54f4e89158a036073a290d","blockNo":6805345,"blockHash":"ec38c534741f8ae5049c9083282917ea35e49c0401cf8ebb947d8cb2f145013c","epochNo":317,"epochSlotNo":84639,"slot":51665439,"time":"2022/01/26 21:15:30","addressesInput":["addr1q8t3gv053axnzwda72tvsxm9qmjmjjshpfsdc7dn0r9qtf58km9fjucngn4x9g9xgldv0z3klv5dumzvswejuamryl9sv2yhpk","addr1q8t3gv053axnzwda72tvsxm9qmjmjjshpfsdc7dn0r9qtf58km9fjucngn4x9g9xgldv0z3klv5dumzvswejuamryl9sv2yhpk"],"addressesOutput":["addr1wxaptpmxcxawvr3pzlhgnpmzz3ql43n2tc8mn3av5kx0yzs09tqh8","addr1q8t3gv053axnzwda72tvsxm9qmjmjjshpfsdc7dn0r9qtf58km9fjucngn4x9g9xgldv0z3klv5dumzvswejuamryl9sv2yhpk"],"fee":214465,"totalOutput":14622028,"tokens":[]},{"hash":"d6e249e8ac1624641718e3f42feda2f34f34d0864c8edd04859774c0f1cd0860","blockNo":6805345,"blockHash":"ec38c534741f8ae5049c9083282917ea35e49c0401cf8ebb947d8cb2f145013c","epochNo":317,"epochSlotNo":84639,"slot":51665439,"time":"2022/01/26 21:15:30","addressesInput":["addr1wxaptpmxcxawvr3pzlhgnpmzz3ql43n2tc8mn3av5kx0yzs09tqh8"],"addressesOutput":["addr1q956ew2a30hgk3fpvra7cah3fw2j3e2732xqc5489g4svnwvsrufx5zlnzujg5us2xad956ptjlumtcua804nh6n4gxsp39ypn"],"fee":337650,"totalOutput":1134162350,"tokens":[]},{"hash":"f1bed85c833c718129176c1c3ebe9b526e42f4c1c67bf495c1e7d808730577fc","blockNo":6805345,"blockHash":"ec38c534741f8ae5049c9083282917ea35e49c0401cf8ebb947d8cb2f145013c","epochNo":317,"epochSlotNo":84639,"slot":51665439,"time":"2022/01/26 21:15:30","addressesInput":["addr1vypr00ss7hkqejmvh53xkyf0p9q0a4z2uprxmx6njc463vgst3pe4","addr1vyp74m68xsjyrzxkyz5h5yye2tr4755dx90l65r2slcfu4s39luht","addr1vypr00ss7hkqejmvh53xkyf0p9q0a4z2uprxmx6njc463vgst3pe4"],"addressesOutput":["addr1qxh700zluef3p8c5lfelpmnc850x6m4npuj5dlgvjxdv7yq3ecf3nkqtcx8s82aa3xdqp3lftgf6wsqh0x898a9crxgqdftlsy","addr1v8v3auqmw0eszza3ww29ea2pwftuqrqqyu26zvzjq9dt2ncydzvs5"],"fee":188821,"totalOutput":2053063962,"tokens":[]},{"hash":"57bafa1c771ca3015276a963cf900eb03346787a10ae39bdb6ff311649a43d25","blockNo":6805345,"blockHash":"ec38c534741f8ae5049c9083282917ea35e49c0401cf8ebb947d8cb2f145013c","epochNo":317,"epochSlotNo":84639,"slot":51665439,"time":"2022/01/26 21:15:30","addressesInput":["addr1w999n67e86jn6xal07pzxtrmqynspgx0fwmcmpua4wc6yzsxpljz3","addr1qylt5yveuasmfx25fnrkm2a07muk9ns94hlr8vx86y6u3pgr2t88jhztk249lpp8z2f9369jrv0ed7v4u692haj2yakq7xggj9"],"addressesOutput":["addr1w999n67e86jn6xal07pzxtrmqynspgx0fwmcmpua4wc6yzsxpljz3","addr1qylt5yveuasmfx25fnrkm2a07muk9ns94hlr8vx86y6u3pgr2t88jhztk249lpp8z2f9369jrv0ed7v4u692haj2yakq7xggj9"],"fee":1071775,"totalOutput":4511584,"tokens":[]},{"hash":"e908ab39c2b934d490d9ea7ea880567c8483dfb5ece1b0cf75f2e897ef7b3002","blockNo":6805345,"blockHash":"ec38c534741f8ae5049c9083282917ea35e49c0401cf8ebb947d8cb2f145013c","epochNo":317,"epochSlotNo":84639,"slot":51665439,"time":"2022/01/26 21:15:30","addressesInput":["addr1q9qfmuttvl2tgup05wl9jn6u362ew4a5yu0xhlrgkzcg4xeyhyc2r2tqeq24m7uk3nkjetyxvtgjqxtqk8g6g5qkzkcqrln6ha"],"addressesOutput":["addr1q9cj52qaccn46wyukxsxdsjjdv6uhkqmkjl57hn4rhl7dkw6s0qr3rpd6asg9nkkvywj79dfn66vjkprgpsm2na8fw8s8g8cwr","addr1q87z59r6nns8qeeyz87ht0lhlqlhsh2c69z6t9uuppcx90fyhyc2r2tqeq24m7uk3nkjetyxvtgjqxtqk8g6g5qkzkcq8r2dwg"],"fee":168273,"totalOutput":4045196786,"tokens":[]},{"hash":"b26197755d014db834f2fa8ceb548973db4b13c5a8e8c5aee969ff4751b6cd6f","blockNo":6805345,"blockHash":"ec38c534741f8ae5049c9083282917ea35e49c0401cf8ebb947d8cb2f145013c","epochNo":317,"epochSlotNo":84639,"slot":51665439,"time":"2022/01/26 21:15:30","addressesInput":["addr1qxwa8dgly3we2u8lsehtxl6ce47xefj5z6jf0mapsznk20uxsyjqgpvze2q5h40vk70edwj8qsa6cpgft23pfj2w7sssedx89a"],"addressesOutput":["addr1qy8uen6tyfeqqwxqte99faplagtyn5dmnrzyljmxphxg2gm9uh570n0pacmgtsrhh60ydsg5e4z3xck7c9zg7lvaa0fqffwfkp"],"fee":194930,"totalOutput":2128500,"tokens":[]},{"hash":"29a77561b8600cc8f74a3fb37a3ed05a3c51fc30a3c0b2ad288124690c9db4b7","blockNo":6805345,"blockHash":"ec38c534741f8ae5049c9083282917ea35e49c0401cf8ebb947d8cb2f145013c","epochNo":317,"epochSlotNo":84639,"slot":51665439,"time":"2022/01/26 21:15:30","addressesInput":["addr1qxwa8dgly3we2u8lsehtxl6ce47xefj5z6jf0mapsznk20uxsyjqgpvze2q5h40vk70edwj8qsa6cpgft23pfj2w7sssedx89a"],"addressesOutput":["addr1qywmcvpc6qwa0pq3pnxfczrhwhpf5xukwwwhl24mx0xjuhtz9r97fhyx2p2ash3v0uenpt6jjt8t544aur5hu8as5h3slqu2uz"],"fee":194930,"totalOutput":2636770,"tokens":[]},{"hash":"5481957378fd78afb7433ce41322c55183c8651b1e4c4a43ee1c9c4a3f8bd79e","blockNo":6805345,"blockHash":"ec38c534741f8ae5049c9083282917ea35e49c0401cf8ebb947d8cb2f145013c","epochNo":317,"epochSlotNo":84639,"slot":51665439,"time":"2022/01/26 21:15:30","addressesInput":["addr1qyswkhmh3vsas7etjw968w7e6078f7tj5c0fq4punsns2ss90rwn7a8wcsngmnu5p7q4ygt2y9gpmx63kxxuhss04xaqwc4vrm","addr1qyswkhmh3vsas7etjw968w7e6078f7tj5c0fq4punsns2ss90rwn7a8wcsngmnu5p7q4ygt2y9gpmx63kxxuhss04xaqwc4vrm"],"addressesOutput":["addr1q9ew9mpvzugd5facdcmyh6jpg3j08zvvwqx7cxz4yyhc9s7esvru0hr39fne6ksy3up0dgdhw8u784zln8xdkgdu3p5ser8khl","addr1qxnpm94e50yt9pzqy9n29k0qrxng2wvwyga8ns3e309vaj93qe8ykdr06z55pqq7ljs9skd3qq0l5n8vy6rfch3n9dyst2nxlr","addr1qxq47au29wss4g8acjk0zsmwwq0h34hhzump6stye9wuldm7nm0t6ad3jz9hy5v3smye0nvcumtzu43k7r36ag0w29qqdafvvk"],"fee":200699,"totalOutput":71178581,"tokens":[]},{"hash":"66c5ff7e4fc6a52f2125e0e1f466e1efa48a94951f23b31c563e21e4569250bb","blockNo":6805345,"blockHash":"ec38c534741f8ae5049c9083282917ea35e49c0401cf8ebb947d8cb2f145013c","epochNo":317,"epochSlotNo":84639,"slot":51665439,"time":"2022/01/26 21:15:30","addressesInput":["addr1vyq89lwmpg4fzqt5qazcq3fflphv4rl0kyzh0j3xfe69naqd6zehs"],"addressesOutput":["addr1qygaf7q6vldqmrzpfzjx7q9xxl0u2eulelg4cdu8n6edm80aykge22qt6hthjuxg4natqgdwuhxnj0rs5ep4snlg64mq2nmy4y","addr1q9fqzgg56z646g654cgx5sktmtddyqkmnlkqm9s7tnq5ne8wg5ev2732w5h3mdkd82c6yapgk4wm2yn72jl0eu3npg0sqegh9j","addr1qxxft5rq66qra8x0mhlgelfatpt4ntkh6ca4jfg0c5x0sdcuurqjfaqgp8e2vetz9xa58a3ze0wxe4hajn9lmlytmtfqq9t0lt","addr1qyvgf52feu8xzu8kzj9xxtupa0530qyp4jkqk4qafn93dy7r0n88e7lcl0xnvqpusvdswfugdrk5wwq0nlfk0wf5x85qpj5xrx"],"fee":275149,"totalOutput":189914963,"tokens":[]},{"hash":"63d646164d5baae163be43df33e105451487473fdbffdbf8072642d91773e613","blockNo":6805345,"blockHash":"ec38c534741f8ae5049c9083282917ea35e49c0401cf8ebb947d8cb2f145013c","epochNo":317,"epochSlotNo":84639,"slot":51665439,"time":"2022/01/26 21:15:30","addressesInput":["addr1vxhk7xla3z7e22rqum92d40lkcj94s3pqvej980zar60sksnykrzy"],"addressesOutput":["addr1qy07st4a99msz6h9r4an3syc6aksyw0q4d5ud2wtuhvheldcesud8j254pzz4tsckm9pt6wz6fh0p2zy7z6cmrhv96csnzkza6","addr1qyu8t4su6rttndxegpm60wvveacuyxc4md60v96gkpgvvwd8q0zv0gl4shjyxcvf2cq5am45ycgfatydvsjyzjn3jy2s4m7354","addr1q93w8k2lzpz3jg60nhxypks0js3s3xe2vefsnq6fn49pryth86vzy5kf9v8d54t9y0nfnzh0xq27xwj4ujkwyxk0cueqagk7q2","addr1q8uq0cmj9rdverp8pccsx872z7qdjd533rmk96l9464xn8f50kfr86dp30g5qs3qyjnl2fh52aqj09lgmfyz04fdk6msq9v5zp","addr1q8rsup22szd436jlcyyk8nd47aduv6d50anzjx5mje0m8nr4dwvpwc9xdwc6crxm7hd3k99m7mc2gwghx3qnc7eldlcsdpd6yd","addr1q8jq42h59xavz6545qf6vp5x6dvuqxfvzgnpka6jwrh9anffnxmnxqz4gnkufvp3vj30mhhsgzgf2a3wpswfh4fpzrvsn782mf","addr1qxtfpnms3rdtzlauas83m8yd20zpzmp6u0je42wl7vxpcz48r3upy8zv4a98ks60cdkppemv3as9q5rnchjxhttf435s4axdn8","addr1q85694x5244mlkmlxgqdfsjrcfqvnlx75uf5lycyjwrwewjje2fh5p89j4cm66xj25p65qen6nd72pdq0gwjstwl2z6qfpgv75","addr1qxl7mhsgsgdy4ftuts78yjhaytsprlzf2qwl4fdle80mgqnynlh5xrzu5junxuhl4fealcxkpugu7ac6t48jzwse4lhsqakg30","addr1qy3gerrh2z066mnzawqmquyz8kee2n29p5trn2e5pj7yemhthnrpnfmv5cue8k6zcpeenajyjer9khgt4zcgal8mgmsqrlu75e","addr1qy6nr9va9kfenkw47gj6gjcdqnlk3at2803c5m7j6h7tyanp4pvrhj5harr4t4u4wercshrswlpn2q0v7nh9j2fyagds3rr7cm","addr1vxrmu3m2cc5k6xltupj86a2uzcuq8r4nhznrhfq0pkwl4hgqj2v8w","addr1vxhk7xla3z7e22rqum92d40lkcj94s3pqvej980zar60sksnykrzy"],"fee":470729,"totalOutput":11694848363,"tokens":[]},{"hash":"6171cbb21fb46960410aef57ae2f06eb4992f8657bdaa8775841374bfd98ea55","blockNo":6805345,"blockHash":"ec38c534741f8ae5049c9083282917ea35e49c0401cf8ebb947d8cb2f145013c","epochNo":317,"epochSlotNo":84639,"slot":51665439,"time":"2022/01/26 21:15:30","addressesInput":["addr1vyaz5maxfth2x7yc0u27z3d9hvax9dy93pm7akxmyu2u3vclrrrke"],"addressesOutput":["addr1q9ksqglhns56gpe0k486v8zh9ff7gx4xaqremgvxr0z5ry5d0yf3yzetcut27z2ha0ezslcxnufpr9khp3ryw0q4x25sfv8uwa","addr1vxrmu3m2cc5k6xltupj86a2uzcuq8r4nhznrhfq0pkwl4hgqj2v8w","addr1v89av8qgl9q9hplugqr2awc824mc7kn930vcnzm37kgcgssact83p"],"fee":252049,"totalOutput":224747951,"tokens":[]},{"hash":"1dfa33179692cb3e3be89a472ea34561ca6c0b3b7f1922bb9eb9c99f7463fefc","blockNo":6805345,"blockHash":"ec38c534741f8ae5049c9083282917ea35e49c0401cf8ebb947d8cb2f145013c","epochNo":317,"epochSlotNo":84639,"slot":51665439,"time":"2022/01/26 21:15:30","addressesInput":["addr1q8g6j088uw9jzclwatvpkm6xsj9mn9u34kf4v69yrmpajlhykggp7s3jxhz3y3mnq6s7mnk953vayctujjsmtvcj8qksl9raek","addr1qypr4vz9p48sqxknufjktvsf8p7kxstpqw8u69d82dn5uk8ykggp7s3jxhz3y3mnq6s7mnk953vayctujjsmtvcj8qks40k0xu","addr1q96u6eq9rnzgll8wagcpqy7se8hzk6jz7gj6stk947zmu0hykggp7s3jxhz3y3mnq6s7mnk953vayctujjsmtvcj8qkslhvxwd","addr1q9a4ael0qhfzs9sxyhgcewfluf7zrfc5ktpq6f49pgzqx70ykggp7s3jxhz3y3mnq6s7mnk953vayctujjsmtvcj8qkslfvpcq"],"addressesOutput":["Ae2tdPwUPEZ9gAUGeKH5dxtC2LXnfMytHr9334KFbPKhYwWLvNuDacQyEGH","addr1qx6ftx6pjhnvckkct4fneu7362kxjjyc65sjwkp44sg9wvlykggp7s3jxhz3y3mnq6s7mnk953vayctujjsmtvcj8qksss7l4x"],"fee":191769,"totalOutput":518362772,"tokens":[]},{"hash":"26e41b489b5d8445e8714cb4192da34d7f24f5bfaca79392dbdb6fa77cd0dfd6","blockNo":6805345,"blockHash":"ec38c534741f8ae5049c9083282917ea35e49c0401cf8ebb947d8cb2f145013c","epochNo":317,"epochSlotNo":84639,"slot":51665439,"time":"2022/01/26 21:15:30","addressesInput":["addr1q9xu0unyavtejyhkha59jvtxh8hcjst9gkt3k02xk8c3tq02ajy0mtl44eh7fcrx2lm334z44mu9x5u6nytaw8kwjzvqt4mlgp","addr1q9xu0unyavtejyhkha59jvtxh8hcjst9gkt3k02xk8c3tq02ajy0mtl44eh7fcrx2lm334z44mu9x5u6nytaw8kwjzvqt4mlgp"],"addressesOutput":["addr1qyscgc53f2xf24a6djr76kvztzav7ka7vptc26kxmx9dvf0vwxyumkwqy8mxw95305gdgj9t7rpd77mk2cqx63k925gq3zg0u4","addr1qx55m3zswt98et9qd825jglk7spht880hu0tq53u9n2ze6k0en2h2uqnuj26erdsc8qhv7t42g3lzt5qk3dq5hsl7ljq6gruj3","addr1q8xmgq3w8jy60un5x4u5l4pk5q895r29lnkg9p8g3tgjjhgw7n4uess4haph6hdve2suq3ryu6jwgrv8g43aaml7hxaqkdpg9z"],"fee":179757,"totalOutput":111375755,"tokens":[]},{"hash":"8450a539c924f7acaeb0e8661419bf789f76f90c73598eeb30961af825ccdb1d","blockNo":6805345,"blockHash":"ec38c534741f8ae5049c9083282917ea35e49c0401cf8ebb947d8cb2f145013c","epochNo":317,"epochSlotNo":84639,"slot":51665439,"time":"2022/01/26 21:15:30","addressesInput":["addr1q8c8qytl5yp234tgt27stz205snv44vadxa86n3s82f6rzmj6tpksffws3hlqywk6dvpyg4k70u6xmqkxvantkv2kp4s4973dk"],"addressesOutput":["addr1q9gfz2dpdvev0yvnph2jgdh5ugwrfq0mnm5gzl972q0gxpvxdtxynggtwq540uzww6p66ezxkwa7w9snynphc36kuqesxk56gx","addr1q8uecj3duxkgcklkp6x3zmtr983pgc4ttvcy7ug2wf57varj6tpksffws3hlqywk6dvpyg4k70u6xmqkxvantkv2kp4sst2d64"],"fee":168493,"totalOutput":20802546565,"tokens":[]},{"hash":"67e3011bf278ab4165c1a77c98b256576fddfe019181c5867ed5b0ee22394906","blockNo":6805345,"blockHash":"ec38c534741f8ae5049c9083282917ea35e49c0401cf8ebb947d8cb2f145013c","epochNo":317,"epochSlotNo":84639,"slot":51665439,"time":"2022/01/26 21:15:30","addressesInput":["addr1wxaptpmxcxawvr3pzlhgnpmzz3ql43n2tc8mn3av5kx0yzs09tqh8"],"addressesOutput":["addr1qxhdmlvtwc58mj2jquqsry42qtc03y9gpt7yju7ynf6cllupwcegsdr2656x9wkswt2scvf30rka0tlmdp2xnc6ar9vqp8a4g0"],"fee":339245,"totalOutput":4160755,"tokens":[]},{"hash":"8aae1af8e7378d1d4259f9555ab56faa6bba9d6d40dc2bb7daf814d1242a8d4c","blockNo":6805345,"blockHash":"ec38c534741f8ae5049c9083282917ea35e49c0401cf8ebb947d8cb2f145013c","epochNo":317,"epochSlotNo":84639,"slot":51665439,"time":"2022/01/26 21:15:30","addressesInput":["addr1wxaptpmxcxawvr3pzlhgnpmzz3ql43n2tc8mn3av5kx0yzs09tqh8"],"addressesOutput":["addr1qyj706fecumjjhrk5nzwxrht3ksvkfewlw2wf0eygt9n825klmkh8e8vwn5tu4hk0nj8veg25w9gug8avnc47xkhpapqp806pd"],"fee":337650,"totalOutput":476162350,"tokens":[]},{"hash":"9937c5e9880b6d9e1bc69895aec3dd82c998663a2c1f34b6d81650e504df2ecb","blockNo":6805345,"blockHash":"ec38c534741f8ae5049c9083282917ea35e49c0401cf8ebb947d8cb2f145013c","epochNo":317,"epochSlotNo":84639,"slot":51665439,"time":"2022/01/26 21:15:30","addressesInput":["addr1q92v4vdaqkzmhhcgq09rdk37kvr2ymtamlp4jgd4z940sq5m9079j0jzq65dv77wn6fxkz9z7pfxu2egj2faacn86unqm3sczs","addr1q92v4vdaqkzmhhcgq09rdk37kvr2ymtamlp4jgd4z940sq5m9079j0jzq65dv77wn6fxkz9z7pfxu2egj2faacn86unqm3sczs"],"addressesOutput":["addr1qxt593tu70444cqzm5ukg25khys3r5s70znkujhsg80tmu076vfunuv4vh9zqehffvd50uv9qzrzfs4tjhtuxs38htqqc28smv","addr1q92v4vdaqkzmhhcgq09rdk37kvr2ymtamlp4jgd4z940sq5m9079j0jzq65dv77wn6fxkz9z7pfxu2egj2faacn86unqm3sczs","addr1q92v4vdaqkzmhhcgq09rdk37kvr2ymtamlp4jgd4z940sq5m9079j0jzq65dv77wn6fxkz9z7pfxu2egj2faacn86unqm3sczs"],"fee":390121,"totalOutput":33229829,"tokens":[]},{"hash":"2912a0c1861780431c92cbfdaca320ec2c18c236f5cd4fe111ddb1e1422b962b","blockNo":6805345,"blockHash":"ec38c534741f8ae5049c9083282917ea35e49c0401cf8ebb947d8cb2f145013c","epochNo":317,"epochSlotNo":84639,"slot":51665439,"time":"2022/01/26 21:15:30","addressesInput":["addr1wxaptpmxcxawvr3pzlhgnpmzz3ql43n2tc8mn3av5kx0yzs09tqh8"],"addressesOutput":["addr1qx5kyyqpg7xysmqly07qg030425q5ctcjyvxzz8rfcm2ma0fum5wemf2lxe2pvkul6kuu7j2j4p0nt3z0zhz9l5t0tyq6g4qkr"],"fee":337650,"totalOutput":74162350,"tokens":[]},{"hash":"68dc236babee596e49d55d13fe5be74a1622f2e5890fac772f3dd523efca2a65","blockNo":6805345,"blockHash":"ec38c534741f8ae5049c9083282917ea35e49c0401cf8ebb947d8cb2f145013c","epochNo":317,"epochSlotNo":84639,"slot":51665439,"time":"2022/01/26 21:15:30","addressesInput":["addr1v9u7va2sktlnz8dp3qadpnxxlv4m03672jy6elmntlxxs7q9nnwl9","addr1v9u7va2sktlnz8dp3qadpnxxlv4m03672jy6elmntlxxs7q9nnwl9","addr1v9u7va2sktlnz8dp3qadpnxxlv4m03672jy6elmntlxxs7q9nnwl9"],"addressesOutput":["addr1v8g6kzuvlufpzevv9hmusexhfxltmnt77tx9gz64wqaz60q5t6ny7","addr1v8v3auqmw0eszza3ww29ea2pwftuqrqqyu26zvzjq9dt2ncydzvs5"],"fee":185681,"totalOutput":104191994,"tokens":[]},{"hash":"96228cbe2433969a15e2f6ffdf85ab76137dc8885f91ad97a23f66e55ce69c45","blockNo":6805345,"blockHash":"ec38c534741f8ae5049c9083282917ea35e49c0401cf8ebb947d8cb2f145013c","epochNo":317,"epochSlotNo":84639,"slot":51665439,"time":"2022/01/26 21:15:30","addressesInput":["addr1q8wvkpqjcyqqnepjznmwxwrca3l3mvsz4cf73cs4wlgk6ne5xg0as94yhete5h3cughxn4860yvdja0rjce2r42hjvfs34e26v"],"addressesOutput":["addr1qyy5edc8nswky6weu2qeve9vvs4ytspsl5n5njeg7njllq54gfyvawrrdq5qvvahfmmu65m83qaswuzpnuaq0g7ulxlsnqmv5n","addr1q8ynfnd7ccwxqluc9nf2yanp53fys0k3fhev5975yfx5prf5xg0as94yhete5h3cughxn4860yvdja0rjce2r42hjvfsdplgvm"],"fee":169021,"totalOutput":1798861958,"tokens":[]}],"totalItems":28653648,"totalPages":1432683,"currentPage":0}