{"data":[{"blockNo":7196784,"slotNo":59944461,"epochNo":336,"epochSlotNo":155661,"hash":"f82279c008ff718f00367aa2a9c66a0e399a6420aa5b3ef198cc108315c2992f","time":"2022/05/02 16:59:12","txCount":58,"totalFees":17274309,"totalOutput":4444746290992,"slotLeader":"7d89d3f11170f5874c5b781b80864be392edcd9c8715ccce18155a8f"},{"blockNo":7196783,"slotNo":59944434,"epochNo":336,"epochSlotNo":155634,"hash":"d71bd7ae6135bd8367ebbfe79ba4876daf580aa0bcf31a3e9c915afe7ae4664a","time":"2022/05/02 16:58:45","txCount":44,"totalFees":13232588,"totalOutput":92403649175,"slotLeader":"f6541f3ca941d96d3c243eae01fea874d6be403b2dd2c6575245de6e"},{"blockNo":7196782,"slotNo":59944376,"epochNo":336,"epochSlotNo":155576,"hash":"545f149f681f544e20d7a6adc0c83a530c8a115eb6f67c03e2d7c42335be9e6b","time":"2022/05/02 16:57:47","txCount":2,"totalFees":429182,"totalOutput":502314571,"slotLeader":"75edaff5db48aa20512e3891747c2a8d68a44f65122142cc1d4dc393"},{"blockNo":7196781,"slotNo":59944375,"epochNo":336,"epochSlotNo":155575,"hash":"2a8743d6c41db03d4f34801658f2de3aca14abce48d32fb381fc33095d96127d","time":"2022/05/02 16:57:46","txCount":29,"totalFees":6958189,"totalOutput":53207604714,"slotLeader":"6539a70bb6e61540444133eab3a24288d1cd3ddc3598adde93475513"},{"blockNo":7196780,"slotNo":59944359,"epochNo":336,"epochSlotNo":155559,"hash":"e4cd5c7a55a93bd4063c49375eedd4fba7313c204c01b2bf7772b58db9e9169b","time":"2022/05/02 16:57:30","txCount":1,"totalFees":193089,"totalOutput":31732005,"slotLeader":"cdb10209d937fc1559c635e35b9147febde5307b4a7d276f868775cd"},{"blockNo":7196779,"slotNo":59944357,"epochNo":336,"epochSlotNo":155557,"hash":"520ab17763e2b9f2b0c8af07f37616c70db9ce98ddcd5c4d156e6dce6efd76f4","time":"2022/05/02 16:57:28","txCount":25,"totalFees":9128683,"totalOutput":1150259630388,"slotLeader":"0b38a13726b9dc3aa11be08af93003e775d9d62091765e0e1e3d027b"},{"blockNo":7196778,"slotNo":59944345,"epochNo":336,"epochSlotNo":155545,"hash":"e6e1bf5fb61414cead4a5dd5678dff0e01cd27417484fc80fd1e72400902b781","time":"2022/05/02 16:57:16","txCount":31,"totalFees":12419954,"totalOutput":3517944942513,"slotLeader":"04357793d81097a7d2c15ec6cd6067a58cdd2fb21aaf07e56c306ecf"},{"blockNo":7196777,"slotNo":59944321,"epochNo":336,"epochSlotNo":155521,"hash":"052e5b898a637dc1e46fd5affcbf09f764f2bca0d326e7d8b7b05949130afd52","time":"2022/05/02 16:56:52","txCount":1,"totalFees":176897,"totalOutput":2326373103,"slotLeader":"1b2523e031e0efe6e5fe0edf8c82fd51abf33a1a2feedad5456ef4d9"},{"blockNo":7196776,"slotNo":59944319,"epochNo":336,"epochSlotNo":155519,"hash":"6a858b96f91ebb96c6bbb9007f0f942ff0a22b41e4e0da5d868e9f25a7e2908c","time":"2022/05/02 16:56:50","txCount":9,"totalFees":4421029,"totalOutput":29190961530631,"slotLeader":"64e09628015d1065e4a11f032c90f677ba1f2f583ff0f55a158450b0"},{"blockNo":7196775,"slotNo":59944313,"epochNo":336,"epochSlotNo":155513,"hash":"da7d764d7a20a5ab32c336ef5e9bba94295ae8b07c5347555091f38a4cc063dc","time":"2022/05/02 16:56:44","txCount":15,"totalFees":5254037,"totalOutput":11528244921,"slotLeader":"00beef284975ef87856c1343f6bf50172253177fdebc756524d43fc1"},{"blockNo":7196774,"slotNo":59944311,"epochNo":336,"epochSlotNo":155511,"hash":"e4cda8464a32ec5b5b95ddf787c2cd339c2864a39340b28b3163910e8a930bfa","time":"2022/05/02 16:56:42","txCount":27,"totalFees":10826813,"totalOutput":88645484605,"slotLeader":"bdadf198bdc79d4f37c5dcd9ed0cdf402bdc2299c3ae4c87d688a6fe"},{"blockNo":7196773,"slotNo":59944290,"epochNo":336,"epochSlotNo":155490,"hash":"baeb55792704acccd34447ff9e3f521ffe41a9be30fd8fc0ffa81ddf360d4771","time":"2022/05/02 16:56:21","txCount":38,"totalFees":12067621,"totalOutput":11053623501,"slotLeader":"4fd4f6b6c164e0bf9b514f7facc6dcae87ed4eca857605da92990d35"},{"blockNo":7196772,"slotNo":59944268,"epochNo":336,"epochSlotNo":155468,"hash":"ae6ad407979df8dfe018bd1a144d1546067e966dd1a0a8f612dd1a0bb7627f75","time":"2022/05/02 16:55:59","txCount":38,"totalFees":12968761,"totalOutput":29386254323,"slotLeader":"37303e39c681371e158fdd7268f4546d581114dc3fbcc87cbc6856f0"},{"blockNo":7196771,"slotNo":59944236,"epochNo":336,"epochSlotNo":155436,"hash":"54546b667c4de7c8b121d207f9cafbcaafc468928023c83d6e23300984106479","time":"2022/05/02 16:55:27","txCount":22,"totalFees":9458831,"totalOutput":788915923169,"slotLeader":"c65ca06828caa8fc9b0bb015af93ef71685544c6ed2abbb7c59b0e62"},{"blockNo":7196770,"slotNo":59944223,"epochNo":336,"epochSlotNo":155423,"hash":"435d1b5e7c15147f00845504e4af71b25d5f2adf56559680c09ffeb2c5c42b58","time":"2022/05/02 16:55:14","txCount":26,"totalFees":9795271,"totalOutput":50471407846,"slotLeader":"21ad7ca84128f182623df17e6cb29ca1e83889e0013f1004cf5beb73"},{"blockNo":7196769,"slotNo":59944196,"epochNo":336,"epochSlotNo":155396,"hash":"12caee5be1783b9d09bc30e3bcab954092b97b5a8c7e925ade43f4768e9725bf","time":"2022/05/02 16:54:47","txCount":12,"totalFees":4704260,"totalOutput":1350164393380,"slotLeader":"39654d8b4eebd091f6ce64d4be8fc05c5e50187b821b9a334076ce55"},{"blockNo":7196768,"slotNo":59944193,"epochNo":336,"epochSlotNo":155393,"hash":"9e3b6d008d73a93a3b77339cc89d4ffc184e8f80a4b81fb47ed093f82c4051ba","time":"2022/05/02 16:54:44","txCount":29,"totalFees":12454215,"totalOutput":10842752315018,"slotLeader":"662796197f741c9b9f0d9830530d01300ee5c63f549784ff2ac81c17"},{"blockNo":7196767,"slotNo":59944169,"epochNo":336,"epochSlotNo":155369,"hash":"7aed0d4b0be8f1950b8a7df183a625909212a0e059dcecac66969dc23bf4cba3","time":"2022/05/02 16:54:20","txCount":3,"totalFees":1148773,"totalOutput":908925042,"slotLeader":"00beef0a9be2f6d897ed24a613cf547bb20cd282a04edfc53d477114"},{"blockNo":7196766,"slotNo":59944167,"epochNo":336,"epochSlotNo":155367,"hash":"55017c4c107fc5bb57e45b36b419f9095bc8847803470229d4dc243b38a4b8a2","time":"2022/05/02 16:54:18","txCount":19,"totalFees":5858391,"totalOutput":1169140177343,"slotLeader":"f4762ca1dce3c32c0d7a7e6d9f8a54bf40338e99ae5f3ad0172c9a2f"},{"blockNo":7196765,"slotNo":59944158,"epochNo":336,"epochSlotNo":155358,"hash":"57b55bef285abf6de01ea32e4cddbad9a6edfcedd5d29d50ab5e14659793b4f3","time":"2022/05/02 16:54:09","txCount":26,"totalFees":8268103,"totalOutput":63855298506,"slotLeader":"315787d387683291b48e285069f95010fc1507246f8c80423f51e1ed"}],"totalItems":7196960,"totalPages":359848,"currentPage":0}