{"data":[{"no":336,"status":"SYNCING","blkCount":7445,"outSum":54259455964692576,"txCount":198036,"startTime":"2022/04/30 21:45:16","endTime":"2022/05/02 16:59:12","maxSlot":432000},{"no":335,"status":"FINISHED","blkCount":20446,"outSum":138040819555980954,"txCount":584346,"startTime":"2022/04/25 21:45:07","endTime":"2022/04/30 21:44:36","maxSlot":432000},{"no":334,"status":"FINISHED","blkCount":20232,"outSum":131645454661322443,"txCount":515610,"startTime":"2022/04/20 21:45:15","endTime":"2022/04/25 21:44:50","maxSlot":432000},{"no":333,"status":"FINISHED","blkCount":20290,"outSum":167258482644606026,"txCount":573296,"startTime":"2022/04/15 21:47:28","endTime":"2022/04/20 21:44:48","maxSlot":432000},{"no":332,"status":"FINISHED","blkCount":20391,"outSum":225986048270909920,"txCount":584705,"startTime":"2022/04/10 21:46:19","endTime":"2022/04/15 21:44:42","maxSlot":432000},{"no":331,"status":"FINISHED","blkCount":20704,"outSum":234802085034384403,"txCount":450346,"startTime":"2022/04/05 21:45:02","endTime":"2022/04/10 21:44:42","maxSlot":432000},{"no":330,"status":"FINISHED","blkCount":20685,"outSum":227835307465812724,"txCount":499577,"startTime":"2022/03/31 21:46:34","endTime":"2022/04/05 21:44:35","maxSlot":432000},{"no":329,"status":"FINISHED","blkCount":20353,"outSum":305422090960286271,"txCount":546489,"startTime":"2022/03/26 21:44:51","endTime":"2022/03/31 21:44:35","maxSlot":432000},{"no":328,"status":"FINISHED","blkCount":20579,"outSum":227059210495141108,"txCount":550807,"startTime":"2022/03/21 21:45:16","endTime":"2022/03/26 21:43:35","maxSlot":432000},{"no":327,"status":"FINISHED","blkCount":20346,"outSum":282038373010023801,"txCount":568933,"startTime":"2022/03/16 21:45:06","endTime":"2022/03/21 21:44:10","maxSlot":432000}],"totalItems":337,"totalPages":34,"currentPage":0}