{"data":[{"blockNo":9037237,"slotNo":97957629,"epochNo":424,"epochSlotNo":152829,"hash":"b791046497ac33d874459ab196cb788262817c0961d51f56bcc0a1f0ae52ecfe","time":"2023/07/16 16:12:00","txCount":14,"totalFees":7981809,"totalOutput":38562992961530,"slotLeader":"727ceb44ef548cbb6f36d7023dfbd8400d48aea0c84b675beff1dd12"},{"blockNo":9037236,"slotNo":97957612,"epochNo":424,"epochSlotNo":152812,"hash":"462aae678161b8ace0901626ce863a7f70db10fc452386bbe3f02557dd82ba1f","time":"2023/07/16 16:11:43","txCount":10,"totalFees":2781811,"totalOutput":92310380156,"slotLeader":"463e481957f266d93e4decbfb73003380ab17223e0e569f71c7a525a"},{"blockNo":9037235,"slotNo":97957605,"epochNo":424,"epochSlotNo":152805,"hash":"bda1468e5f02ec63c391a8c086b1f4d01f0dda2d415467aff110b78c5a25c4ff","time":"2023/07/16 16:11:36","txCount":43,"totalFees":13785355,"totalOutput":1288897106034,"slotLeader":"c6fbd4e484a28211695206e1b53f1409e7cef8c62d3f6b24bab2f600"},{"blockNo":9037234,"slotNo":97957562,"epochNo":424,"epochSlotNo":152762,"hash":"0dc6b46e0f70a3f8cad4c7bcfc20a9f65614a21636479ddf7b5137c048714724","time":"2023/07/16 16:10:53","txCount":6,"totalFees":3744747,"totalOutput":562192989765,"slotLeader":"d765dee553a7e041d525b1782a10eb0a5e52e96ed55ed173d8bb82a7"},{"blockNo":9037233,"slotNo":97957559,"epochNo":424,"epochSlotNo":152759,"hash":"119886366f1920da836805212260401dc72d09951779dd85d51d27e9f89302d4","time":"2023/07/16 16:10:50","txCount":5,"totalFees":2810115,"totalOutput":45531623250870,"slotLeader":"00beef0a9be2f6d897ed24a613cf547bb20cd282a04edfc53d477114"},{"blockNo":9037232,"slotNo":97957553,"epochNo":424,"epochSlotNo":152753,"hash":"49d7dfe96305b526da968ee4c97938917f0906b5a11bd4ece8b57756d8d26906","time":"2023/07/16 16:10:44","txCount":15,"totalFees":6252322,"totalOutput":2649563104032,"slotLeader":"c83beb18d532234c72a304ab935982be670c22e771b227a3febc3a82"},{"blockNo":9037231,"slotNo":97957535,"epochNo":424,"epochSlotNo":152735,"hash":"b7e0e12dbf02bf56dfdc76b3630afb2b62a88d08344c473b6ae566641ba135df","time":"2023/07/16 16:10:26","txCount":20,"totalFees":9031981,"totalOutput":31968484408666,"slotLeader":"54f5f2618a3da4bb0b384895d8f3922189acbb8e9637201ebb26bc18"},{"blockNo":9037230,"slotNo":97957519,"epochNo":424,"epochSlotNo":152719,"hash":"d9533c7ac43b0354d0535fd9f0ede75136a047772133e623156d7aee140edcfc","time":"2023/07/16 16:10:10","txCount":23,"totalFees":6134051,"totalOutput":943435462622,"slotLeader":"f4762ca1dce3c32c0d7a7e6d9f8a54bf40338e99ae5f3ad0172c9a2f"},{"blockNo":9037229,"slotNo":97957513,"epochNo":424,"epochSlotNo":152713,"hash":"b543318f48120f3a378f29cb1d16b249367c4ef41d26150da8bcb4b156017503","time":"2023/07/16 16:10:04","txCount":28,"totalFees":10881669,"totalOutput":5510034157312,"slotLeader":"c94e6fe1123bf111b77b57994bcd836af8ba2b3aa72cfcefbec2d3d4"},{"blockNo":9037228,"slotNo":97957473,"epochNo":424,"epochSlotNo":152673,"hash":"f6483f05f31a0ac6d1f1035b12832348a5c99f3c4a3f5c6745d1f2b3d5def869","time":"2023/07/16 16:09:24","txCount":29,"totalFees":8636155,"totalOutput":3272074733701,"slotLeader":"fa610fe0a56f4f2bca9d08b0b84d3bf6ad2c6a6d263579927d462473"},{"blockNo":9037227,"slotNo":97957435,"epochNo":424,"epochSlotNo":152635,"hash":"5ea0940512a493f3a0f49e45d852c104290397966893ed41117ac0ae299fe26f","time":"2023/07/16 16:08:46","txCount":12,"totalFees":3549327,"totalOutput":389177282507,"slotLeader":"5ed675dd3d0640ca94bf8c3d6a5bfaac0f59930c99a94ffe3686cb70"},{"blockNo":9037226,"slotNo":97957417,"epochNo":424,"epochSlotNo":152617,"hash":"d761ce3dfd19fb01748a31f2d652971df9d276ce09e767d0736064d1c0c922d4","time":"2023/07/16 16:08:28","txCount":1,"totalFees":262811,"totalOutput":2236989,"slotLeader":"689a60c22ae02ece9405e0cd5fefdb7ceffc0a52c61c42d9955a9b1b"},{"blockNo":9037225,"slotNo":97957415,"epochNo":424,"epochSlotNo":152615,"hash":"3e164b1baa3423a507c690e5f61b73b669042458357b877c2213ee086244beca","time":"2023/07/16 16:08:26","txCount":15,"totalFees":5794396,"totalOutput":5224416856448,"slotLeader":"76bfa1b2e6593740c3388ed881cbe851dbab8d8741652c9bad16cc94"},{"blockNo":9037224,"slotNo":97957400,"epochNo":424,"epochSlotNo":152600,"hash":"12a7c51d9b4a0f29959242c83b5128406883f00faaabf42aa47871bfc0f2bb89","time":"2023/07/16 16:08:11","txCount":19,"totalFees":8399072,"totalOutput":7923881106984,"slotLeader":"09d372205e474b745eeedd87aa86295cfdef9b85991ad640101756bc"},{"blockNo":9037223,"slotNo":97957386,"epochNo":424,"epochSlotNo":152586,"hash":"4f7d338555da96894b573bff99e131acb6694b91764fac5f92d26615010f8f97","time":"2023/07/16 16:07:57","txCount":5,"totalFees":1986143,"totalOutput":307744346896,"slotLeader":"c83beb18d532234c72a304ab935982be670c22e771b227a3febc3a82"},{"blockNo":9037222,"slotNo":97957385,"epochNo":424,"epochSlotNo":152585,"hash":"5ab30bf4bdbe6fe65eeb41fc8695e50ebba4177c00b25938add633722e6703a6","time":"2023/07/16 16:07:56","txCount":43,"totalFees":14384912,"totalOutput":2532637044560,"slotLeader":"2a748e3885f6f73320ad16a8331247b81fe01b8d39f57eec9caa5091"},{"blockNo":9037221,"slotNo":97957376,"epochNo":424,"epochSlotNo":152576,"hash":"f6c1a07d6e1f2c8e8486d0ab697fffd3c0306df09f8151ba069ed4ffd11653c5","time":"2023/07/16 16:07:47","txCount":46,"totalFees":14272015,"totalOutput":51246935432408,"slotLeader":"1e174471d30ea762a6bf6ce8b1c615549f3dd066cf48ca6be6e7698b"},{"blockNo":9037220,"slotNo":97957293,"epochNo":424,"epochSlotNo":152493,"hash":"8aaf0481dd3c7009f17be98f1325c3ff77c9b94d370c995599829da7770e4717","time":"2023/07/16 16:06:24","txCount":41,"totalFees":12405534,"totalOutput":7170266354507,"slotLeader":"f84aed8cedb63195f68ec94a59b3e9b979b7eb0dd41085ae945473d7"},{"blockNo":9037219,"slotNo":97957200,"epochNo":424,"epochSlotNo":152400,"hash":"31494b0da2cb04e20760a9146fa26e0aa7a9324a34a020bd1403dd3ce75305c5","time":"2023/07/16 16:04:51","txCount":40,"totalFees":12283285,"totalOutput":6486949266363,"slotLeader":"3116c834a09b0060aef7284f63d3275456364e3309b3c19ec328af60"},{"blockNo":9037218,"slotNo":97957165,"epochNo":424,"epochSlotNo":152365,"hash":"f15a12d2395489af90f59085689492c2efbc8703aac7059adb12d662d97b09fc","time":"2023/07/16 16:04:16","txCount":60,"totalFees":16321439,"totalOutput":3473335018749,"slotLeader":"a532904ca60e13e88437b58e7c6ff66b8d5e7ec8d3f4b9e4be7820ec"}],"totalItems":9037413,"totalPages":451871,"currentPage":0}