{"data":[{"hash":"aa16444716bbc8f282a1bf2c19c269a5628094fbd1b9ed5b3f18ede851d5eecd","blockNo":8053304,"blockHash":"ee241612a3397dd8b0d62b72ada1a2f2244dc2d69e5c14f6d94485ba07ad770e","epochNo":377,"epochSlotNo":203410,"slot":77704210,"time":"2022/11/24 06:15:01","addressesInput":["DdzFFzCqrhsoHor9r6659AtQGbEw2S8r9V6cEAi7bEfJGgfPycSRK6qTMR42MmVWRQz4jz7Eb71YDMRQEUT8DaZx6tLDGYTTYZQR7Eno","DdzFFzCqrhsjytELpeBJymcQRaH5MXb4GrWfuzkfz9BbcD5a9T9uQRPjdNgKhQf4vvdPT6ruDeNDziGGNF5ZgXyCi7q5kVjd6azZCxRB"],"addressesOutput":["addr1q9atjfpqwdtg7ytz0pz9zcaqvx8zr2uv6ysvc4csqynr683dzefudzxhadht99nh8gv4l3z93d486ygllgxuh2drrrpsdw6fws","DdzFFzCqrhsg7bAR9NTiMjHHJdMcjZZueGfX28rV3WijTeWVCw9DCtvhZJq22D195NxHZZ1wVFvbDjYH34CTUVDojBBqX9GeaBYWrmnT"],"fee":364205,"totalOutput":1351948049,"tokens":[]},{"hash":"0f8af419b0526cb9e5de6486b1cfcd3592414245fe7b01fffaefbaa4128c00b8","blockNo":8053146,"blockHash":"d7df2e881fd8b2e43f110a4c0e3ed93283003446d489a46b0f7e633ca744034e","epochNo":377,"epochSlotNo":200265,"slot":77701065,"time":"2022/11/24 05:22:36","addressesInput":["addr1qygu2npfzvxq5ea3ts3a6nk6uhklw0cd79gxhn0pkavampkhttwyktnm6dca79xc2lmr0vzwnleqxa30mhslcggyw7vs5pdd7x","addr1qygu2npfzvxq5ea3ts3a6nk6uhklw0cd79gxhn0pkavampkhttwyktnm6dca79xc2lmr0vzwnleqxa30mhslcggyw7vs5pdd7x","addr1qygu2npfzvxq5ea3ts3a6nk6uhklw0cd79gxhn0pkavampkhttwyktnm6dca79xc2lmr0vzwnleqxa30mhslcggyw7vs5pdd7x","addr1qygu2npfzvxq5ea3ts3a6nk6uhklw0cd79gxhn0pkavampkhttwyktnm6dca79xc2lmr0vzwnleqxa30mhslcggyw7vs5pdd7x"],"addressesOutput":["addr1qygu2npfzvxq5ea3ts3a6nk6uhklw0cd79gxhn0pkavampkhttwyktnm6dca79xc2lmr0vzwnleqxa30mhslcggyw7vs5pdd7x","addr1qygu2npfzvxq5ea3ts3a6nk6uhklw0cd79gxhn0pkavampkhttwyktnm6dca79xc2lmr0vzwnleqxa30mhslcggyw7vs5pdd7x","addr1qygu2npfzvxq5ea3ts3a6nk6uhklw0cd79gxhn0pkavampkhttwyktnm6dca79xc2lmr0vzwnleqxa30mhslcggyw7vs5pdd7x"],"fee":486833,"totalOutput":59211541,"tokens":[]},{"hash":"4107cef3ef0ee1e999e7836ef7873b0200c9a522d4fccc0f94294275ba35d49c","blockNo":8052955,"blockHash":"95b138894fa73e29144dc70cc7e04cc13b602362772454d561dbadf949b22062","epochNo":377,"epochSlotNo":195983,"slot":77696783,"time":"2022/11/24 04:11:14","addressesInput":["addr1q92u6cn74agl0tg8fe8vlu04j8lpv8j2ttnt3fd5pwr8ynj4e438at6377kswnjwelclty07zc0y5khxhzjmgzuxwf8qwtgms3","addr1q92u6cn74agl0tg8fe8vlu04j8lpv8j2ttnt3fd5pwr8ynj4e438at6377kswnjwelclty07zc0y5khxhzjmgzuxwf8qwtgms3"],"addressesOutput":["addr1q92u6cn74agl0tg8fe8vlu04j8lpv8j2ttnt3fd5pwr8ynj4e438at6377kswnjwelclty07zc0y5khxhzjmgzuxwf8qwtgms3","addr1q92u6cn74agl0tg8fe8vlu04j8lpv8j2ttnt3fd5pwr8ynj4e438at6377kswnjwelclty07zc0y5khxhzjmgzuxwf8qwtgms3"],"fee":237985,"totalOutput":702480537058,"tokens":[]},{"hash":"6b4d4627e95e0b1a44cd8f7163de5a1ebcd553787d891045581ffde7b0fb9a96","blockNo":8052696,"blockHash":"3edbb8f2930fb50f935fee35af9bfd74a9a14c8eecc28aa377465833a4226b06","epochNo":377,"epochSlotNo":190734,"slot":77691534,"time":"2022/11/24 02:43:45","addressesInput":["addr1q9mjra3zgc5x2wswtkxht5us720aqa04lact36e989f439ca49c73yv32axatm687gp8req4y0v6thvmec00sz5fdn3scya6z2","addr1q9kk6u7squkg684ujpk27rxekhl99snf5u7n75ldxzmzwpga49c73yv32axatm687gp8req4y0v6thvmec00sz5fdn3sta403x","addr1q9mjra3zgc5x2wswtkxht5us720aqa04lact36e989f439ca49c73yv32axatm687gp8req4y0v6thvmec00sz5fdn3scya6z2","addr1q9mjra3zgc5x2wswtkxht5us720aqa04lact36e989f439ca49c73yv32axatm687gp8req4y0v6thvmec00sz5fdn3scya6z2","addr1q9mjra3zgc5x2wswtkxht5us720aqa04lact36e989f439ca49c73yv32axatm687gp8req4y0v6thvmec00sz5fdn3scya6z2"],"addressesOutput":["addr1qyjffxympwr0q4lw3r9l76ad68v69288x2a25tef22r8xjtjz46tksml0h7q57ax4uhe4et4ufp782dayrxf966sdkwqu5p87e","addr1qxgmrpp5t4520d9g0m5mcmpe9klv22h8kpvml6k6wvrgewqa49c73yv32axatm687gp8req4y0v6thvmec00sz5fdn3syqnm5d"],"fee":366097,"totalOutput":29125102,"tokens":[]},{"hash":"ba4dd454f1b20e2eddecf3e871dfb680a13ce865fee672fa65f90d6d97779fd7","blockNo":8052548,"blockHash":"0f37f64b3943dbeaa742786900b9d0e05e49d5b9bf5dd9f3b9a524e01d72b8d7","epochNo":377,"epochSlotNo":187569,"slot":77688369,"time":"2022/11/24 01:51:00","addressesInput":["DdzFFzCqrhsr4ZV71W7jkcWkFqvuKTEdUSr7BUVPo3eRafCZWsEDWfBnTZU61pZzDzJAzpDVAw4h4VivSNAdkwEN56vX6PP5Rnmtexs1","DdzFFzCqrht4yZwgzXbL7pfHXWwD7AeRSbAU4YF2E5ZYFqhbqB4K8daLBYoFDmsdNteB4o4tnn6zNcXHsZxf6gRyaEvqYqhF23v2wPQc","DdzFFzCqrht3n89DLkkZiv6GMfHTYAw5tUNVCp8kPo5W3DSQ1H3UcTZu74Kr6sUPj15B4v3hJFgPpZEzwHS25qHEFiKLFpUXVCF7kZXz","DdzFFzCqrhsityiJnfT4jfP6pVJeRRJvfeEjR349AjNactiuDMpTTLtBe8LbLPQu1AFrLfkR2EWknN419vBsMoKRMUzQFfhNKc1KCi8x","DdzFFzCqrht2Kdnr7jbgjppx7JZSW5WUg8CgmeNytvX8wivYS9pLwMFDs2AfxDy6UMjEMmm4MzzUdowQsgJXuGUcHg3Lv7Q35ZjLVr3V","DdzFFzCqrhsvchsLuVubehXANmVgLCczQxUNXTofZgzXThHFgcwdXP17aRuFJb2iFFLUqQmPuj6CEhcKu5vbUMQh98ifYfsiKCXN8Q8R","DdzFFzCqrhsnqeg7rmPjmAYTuHa7eynkKcWfdV992tneUFxoBoRnE8iJ1mrp7FBNg3MiPKuPkvB7pqDTzz9kg92Zbav5EeiJAr138tZv","DdzFFzCqrhtBUHtimeS5fVhGsDJc3SiUVc8tc8HYQaJTDoaS4gdwpswZE6CG3VcmrRKTbBoYCsvXSEKD22r2ndA4idKMsyeUy89Zq8s2","DdzFFzCqrhsuEpL4feu26MgAt4yCi1zqdBYs9Brivs7DyS6h5rA8SAJVQQs7z8Lae1f6qSYSgHE5ayrEZgg4xpBC6H9rBy5AenuTeBfu","DdzFFzCqrhstBbAkfEMG5FdGKv7yTUXk8Av6bzBVyk1YnyHZndXVKpP3eKdvbtDEb7mLnnhBfc2CmRDxRuXeTqKkbWuGnDrpk7vaA36N","DdzFFzCqrht5aUdne2d9YsqQYZ1rmXns4hjeihpSuQb4eHEV6ZKQdc9PZxFCnxM7uwdoK6KmKRMLv9Nd83fhTAAUbjZJ8CTq3sBxiLs4","DdzFFzCqrhsnxLwbqJPgkNjKonEerpw3WBHW9kH1V16b5efqdzBQPXSBdoNN3fwhQmEbDrCpycTFdxhpajtAfnLcGegygYqsoW1D1hfK","DdzFFzCqrhsmPMSP2wcXBQVGnsdgGCzr1DjdHRMecyTAeXJbniGP3ccjYdqfqZu9WyboEL8ZhAxbaM3UWf2docAVsiVTGgCUCaqT38V7"],"addressesOutput":["addr1q9atjfpqwdtg7ytz0pz9zcaqvx8zr2uv6ysvc4csqynr683dzefudzxhadht99nh8gv4l3z93d486ygllgxuh2drrrpsdw6fws","DdzFFzCqrhsjytELpeBJymcQRaH5MXb4GrWfuzkfz9BbcD5a9T9uQRPjdNgKhQf4vvdPT6ruDeNDziGGNF5ZgXyCi7q5kVjd6azZCxRB","DdzFFzCqrhsoQvGHTSjYvxDj5kVpkEeNYQfbwEVFeR9ZMKon829Gz1mUJHKpiBH1mpaDpCQt7RmVpzDTLGM1uHwFkkdAYUCRw4adKbQJ","DdzFFzCqrhsp1a9GGam2nVJwN31Du4swWRdq6mysyUw7fHgSxT4VA3DnXrDtDsmYSCGWHsipjwVC3cNG4iw8APdGM5GUoveKRdo4p2SE","DdzFFzCqrhsqgV3ZVT6ccuzRa8kiW4j5ofHXpuuKdCqLyVVd4jrYW8FbDsGZhkEhgrxFergUfxXnW6UMAiD5JWidSuj6NdjyA6nYhjxy"],"fee":994461,"totalOutput":55409080605,"tokens":[]},{"hash":"2fffc37a4f5c01960ae22f9313d64bfa20c3ac7ef870056445236bb21968a04e","blockNo":8052279,"blockHash":"61df66af08aa14c250c211e6cfd3d73b95f9be3c22adaa6e2c72c5d4efc9ba39","epochNo":377,"epochSlotNo":182565,"slot":77683365,"time":"2022/11/24 00:27:36","addressesInput":["addr1qxzavjgcrqlse89u6p87cqahsepmhyp5sfgvx7tpqcf8n5l6wmvzcun764vwdlan6ctg303ktw5h2ejwv2epgzk6u00qjkxtr5","addr1qxzavjgcrqlse89u6p87cqahsepmhyp5sfgvx7tpqcf8n5l6wmvzcun764vwdlan6ctg303ktw5h2ejwv2epgzk6u00qjkxtr5","addr1qxzavjgcrqlse89u6p87cqahsepmhyp5sfgvx7tpqcf8n5l6wmvzcun764vwdlan6ctg303ktw5h2ejwv2epgzk6u00qjkxtr5"],"addressesOutput":["addr1q99fl8p8ukf2dg6scffezks8m0x7pt9mfdlxwkv4j64neh0qhgp4pjzspv7eh8094yces5ruz5pmz5uhxj8jefmmg2ns94znns","addr1qxnznrmul59fm7ch3wcx9vzcy3m7cpy5vnh2ke5s9j7rp9h6wmvzcun764vwdlan6ctg303ktw5h2ejwv2epgzk6u00qpq8cnr"],"fee":364821,"totalOutput":56598077,"tokens":[]},{"hash":"fb02936e60cd9e8dedfe4dd9c47eca3e2109af75fe40bf3fdf6dbb6dc41d13c5","blockNo":8052274,"blockHash":"36232ef9e86a0a813b635d2c437e1b1ced8369b890251ff27443e2de69957f36","epochNo":377,"epochSlotNo":182339,"slot":77683139,"time":"2022/11/24 00:23:50","addressesInput":["addr1zxgx3far7qygq0k6epa0zcvcvrevmn0ypsnfsue94nsn3tvpw288a4x0xf8pxgcntelxmyclq83s0ykeehchz2wtspks905plm","addr1q8ftlt86p25gxa2z56y60xq5d2lj7rhc6u58z7550hz8vdh6wmvzcun764vwdlan6ctg303ktw5h2ejwv2epgzk6u00qj3jjxn"],"addressesOutput":["addr1qxzavjgcrqlse89u6p87cqahsepmhyp5sfgvx7tpqcf8n5l6wmvzcun764vwdlan6ctg303ktw5h2ejwv2epgzk6u00qjkxtr5","addr1qyh8wye7cjrq9z2g8apuevf7ynpfq4nuxexehspr0rhhd5p4vcqjgzs7hs73qwczkaf2nkgda350uryvmz8asachc7vsm0nc7d","addr1q9cwvremt6n320s2e3agq0jyq82yhrk3htsu0w426xnz5us70z4w0jgvcdkkynmm8wmds66jd9kusnjfpu6raw5fqp0sr07p5w","addr1q8s6szpvgls855pnmtzcuvtajp9cznp685ndn2lpv3e8fd63ekc0p9n3q367jxq32ll45fr68lud8c03y4ruytr3qvfquvqjd6","addr1qxzavjgcrqlse89u6p87cqahsepmhyp5sfgvx7tpqcf8n5l6wmvzcun764vwdlan6ctg303ktw5h2ejwv2epgzk6u00qjkxtr5"],"fee":810825,"totalOutput":39630293,"tokens":[]},{"hash":"1d7aea52c675a81744a10cdcda5b28486fcb9c56646473bcc923397f6e056ae2","blockNo":8052102,"blockHash":"f46af42da85b111d01e29ed281063a911e1b1159d44cc32e79895a325866cf3d","epochNo":377,"epochSlotNo":178830,"slot":77679630,"time":"2022/11/23 23:25:21","addressesInput":["DdzFFzCqrhsqfQB44YJayi3SYUtXCLoyq89tU1YAd1pdR8YcJTQQrvPG3WHNSwXkMAoYbSvoDizPYJKhcgTEtu6vZUgSxA9v5Gdn1R5X","DdzFFzCqrhsqLRtkHaqeSXg7i6GVs5YvW9crXJGShqQWUB4WyEaj9rU39Nx2iLmpZ9y7MeaMXmq74QxHNzCQhSiappAii1akLBvq8oof","DdzFFzCqrhsxWHD9mqSZpZ8f9SmzUnSPP83kRW8Fb9CRVfxjPBryKA2Sxn98RLNC5nvrRBjpmdBc9HuQbugf7TeSozNAXSmMRLroU1Gp","DdzFFzCqrhszoFEqMSPNpEvMw3m41y1vUVU9pFXvQWv1gm9DKzHFCqjFjMJ7wPZK7CUi6NQfphEfAaC7U5jYX1LLN3XX9pM2TG7mkq7z","DdzFFzCqrhsdpJPps1stTQzoDR7hsGVsVynLhnEwqb8xvedN8FiazTSP6ucTCKj2KK1MXy8WftjzLiKGWDQthR36D9WhhV6Apg3e2W3K","DdzFFzCqrhseRpEBrwiNzxqQ9jAHwKQshMqxv5aKnZkB2pLsyRV85XxZQuJgMKbJXGPP3cx1ZYgJQEd9vNaA5jS3J7W4qoKGeXhqSA7k","DdzFFzCqrhsm95XrdcmUFvRAZBBN7jdxgY8pra6X6hc6k6TEVAKCLy79RNSUHGr98YzhYSPBJyKb4ZDvoSJ4P1jWtyoZKVaczt9nf6ax","DdzFFzCqrhstE4qWjQvwuppm15brUYJocRrDV3TPDYPztKQg5vKkiW85Twm8HQTR7VnGJAmXzaCmdDd8StWET5Btbkpj6er69Mz9JdDH","DdzFFzCqrhsh7x1XG9QwT9JcjrRUotgxRizqXWMKaJG2eq3EKebU1B5ShYnhx7xFGXV19gMuSjjHDSaYsMxHVft9KpfryMEy1LX79n6V","DdzFFzCqrhsthYqzf5qAnGL9ggUavLLB2zkQEXkQq35ufrQ6TuVTJqaZq773ymhXYjUbt8HLhDgavEvpXpr6DqS48bL1NbqzuUiuy7PB","DdzFFzCqrhsfYAQUEXaRoe4La3RqL4BaVqkCfkS52S7FPvB3P9ccLx58eFTeB8kdRFL2Zcyi41KdeDAjsytPQYir7iQYZ52V4FRvUbh3","DdzFFzCqrhsyeNh5nnbZK8P4uFcnydErm5i9eTuvF6yKV5WY3dhEt1Fp2cs9VZ95y2xjpT3LKErVyiHPqtNanasUmhmcA5XtFZJJrf31","DdzFFzCqrhsrrkbCjpvPnHVkcsmdNizHWFwzCVobkazukTqbgkU2NuwKD5joKhJRKPzcNyzx7DzUTX6y1J6HGWJUGZfVnVdqdCPUw1Jo","DdzFFzCqrhsp5afL496xw2yMwFoqYfd4Lz6R5Cme4qRnQRa47ZWj5jGBmRSPEoPdWKvzPgF3BEuRT1tnQmzUE4pADZfLfw2Xste6duKe","DdzFFzCqrht9cNKTfwFcW5EifL2HMGk7az1KAk84vVXS2WtctZ5Qi6P2bzZfijkCZW4A5GQAmy7frMqm6GPx9Qu5Hbkyt6sopiBL3TQP","DdzFFzCqrhsxWHD9mqSZpZ8f9SmzUnSPP83kRW8Fb9CRVfxjPBryKA2Sxn98RLNC5nvrRBjpmdBc9HuQbugf7TeSozNAXSmMRLroU1Gp","DdzFFzCqrhsiLxYQr2yQiuC78wJJpe3FrwDyi3hrzijTVdPZd4aCdbTMxDVKgVqkavWiSax8neqUMrYC9jcJWiCRaFQ4PVH8FJEgMYBU","DdzFFzCqrht5EyXMcCsMqPNjsqykKAkjoGucvXFffMguxwLyhpKkrHimNXqxMkkMTr9SyVemJxeQ8sZRwKFfsHmAzZCNoA4NDmeaKCSi","DdzFFzCqrht9eaVxG9LEQaCw8dezr2LGdvqg6rj98ABY5ceTRDHFM9q5F79baxAiJdiPZVh4um8iZXhrxNtBwXo4haWzoujr8hTwQ7Ga"],"addressesOutput":["addr1q9atjfpqwdtg7ytz0pz9zcaqvx8zr2uv6ysvc4csqynr683dzefudzxhadht99nh8gv4l3z93d486ygllgxuh2drrrpsdw6fws","DdzFFzCqrhtBUHtimeS5fVhGsDJc3SiUVc8tc8HYQaJTDoaS4gdwpswZE6CG3VcmrRKTbBoYCsvXSEKD22r2ndA4idKMsyeUy89Zq8s2","DdzFFzCqrht5aUdne2d9YsqQYZ1rmXns4hjeihpSuQb4eHEV6ZKQdc9PZxFCnxM7uwdoK6KmKRMLv9Nd83fhTAAUbjZJ8CTq3sBxiLs4","DdzFFzCqrht2Kdnr7jbgjppx7JZSW5WUg8CgmeNytvX8wivYS9pLwMFDs2AfxDy6UMjEMmm4MzzUdowQsgJXuGUcHg3Lv7Q35ZjLVr3V","DdzFFzCqrhsnqeg7rmPjmAYTuHa7eynkKcWfdV992tneUFxoBoRnE8iJ1mrp7FBNg3MiPKuPkvB7pqDTzz9kg92Zbav5EeiJAr138tZv"],"fee":1052541,"totalOutput":94309887140,"tokens":[]},{"hash":"b85ce79d19c5b7dccf44cad892316fa9ef147cd9a728631f7d379e44e41cd2aa","blockNo":8051904,"blockHash":"9082b0fbbea0fae2e8066f58245551dfedc15e1beb56b048670e53973b88a863","epochNo":377,"epochSlotNo":174973,"slot":77675773,"time":"2022/11/23 22:21:04","addressesInput":["addr1q9p7vddqexcjacq5mgxgal9g5wrxwz5udd3wc70xlvsldkqggm8kutdwa0a3ch3txcvn2jq2pg2nv9uaaqajd0jf5r3sauzqq2","addr1qx38rkgy82xryat6mkqr3segy8846705lpldytz8crjt8mqggm8kutdwa0a3ch3txcvn2jq2pg2nv9uaaqajd0jf5r3sawj7ha","addr1qx38rkgy82xryat6mkqr3segy8846705lpldytz8crjt8mqggm8kutdwa0a3ch3txcvn2jq2pg2nv9uaaqajd0jf5r3sawj7ha"],"addressesOutput":["addr1q8r3lxgm88hlp48fvl0dg3mfr92g4pjuvf7grxrehdfjzt7xggt4pcg8xu3xvn4z6s0nu30yxepvk75pq78f44mt637spfuyx2","addr1q9lljjwxmhs2mh73neq97spgu306zr745gtym78tfpza0tsggm8kutdwa0a3ch3txcvn2jq2pg2nv9uaaqajd0jf5r3stafjdr"],"fee":270793,"totalOutput":15547562,"tokens":[]},{"hash":"41a96b5df21f573893a09d6dcc823ad079a9cc5e5635cf0fa329f6c41d7df531","blockNo":8051836,"blockHash":"8a60d38adccef2f3be1e5790eaab6b9eb2b4ab0cdbf80f8fb856ceacac12f3e5","epochNo":377,"epochSlotNo":173319,"slot":77674119,"time":"2022/11/23 21:53:30","addressesInput":["DdzFFzCqrht7wCWCgRDecKXLn1DXoH29PmJTpLfDgmBezSBd37qrEEsAzU1uHUsVKfm4kroxgx5Wjti61Jk4wy4RZQPJQCtGy3GX9ixU","DdzFFzCqrhtBjhKvzMTYdMjngTnaj98X6ahg8N6PC8qKU6iJVAUC85xCtxst9VEP7JDX8Z62KZHhizhhbC988KXjeDqGmiMMru6BU83v","DdzFFzCqrhsxMv5NfEn8wgCXBYJJU3b36PkcSB9sYCtoxBRQvdGGaz2HCaK47i6Z21bWG1EgQfy7FvK2txzRygwF4re9GLZqaxokPgwR","DdzFFzCqrhshtWL5ywhCF4QfJnrKMVjaxjqBmsLUokuRww5NJGxv3dGucBHA2ieo77hRfsweHRPSmcxs2fVXdGvUBRb6stFVr5Nm1kjT","DdzFFzCqrhspCycUd2Ynqy9BBMSCKBKwhPSzWYsyHW1y4zzLFQ8hojywKnzMERiCWhcHc3fxHQ5yMmDi1g9a5UzGJtnyA9MaWST8omGm","DdzFFzCqrht1qtaDsEEryZWPhRb1dzuLfZErQpud2eWBpLYWBvnm9efxmtKc4qMTANVxcNJxzQ61nkKrMETe4i8nJJQXmXa6V4iThfo4","DdzFFzCqrhsthEp4uGEC8Uum4zp9srFFjKwjK3C33kVPUGyc2fEgiN6LNWsdvQ6JSg4fXv7y1zoRbWxMJbjjiVCBEjSxcAwWjnvfvUQ4","DdzFFzCqrht5iXi2xbUAjLggfQTEFs6RuaDb86afirgs9jt2VqxtQcfhhyT2isgF9u8ER7zt278n5eAEdwSRaobvJ8ZLPLBeGBSq7zVL","DdzFFzCqrhsewpm6LVxPu1p9imQ1BW8yp2adtpXKzBYgeoY1zktQwkSXAURvMWDeC9isARzvwMNc5q44R8HQbLusktvGEhw9iqEs1zyS","DdzFFzCqrhszQYPEG1sGHcK4BASmUcAFVbAAQLgpxD5vTp4YyhJN8kKKZEZiDfc9meCe5McR7VWAb9Vpg4HYr9CTFh6aP8NyPvmJ7hdy","DdzFFzCqrhsiK5XAYLYzcA78wgYEzqxkuErJDzc1hL8tgpMnmbrhd97jb8C7MLnQbhsWFDTTYpS9WLGCJAuD6VnvpfekgeKz4W9FNZxg","DdzFFzCqrhsn7atyEPqKDCf6YaRwT1aZEfTphm6YYuaVAMiAHruNPBmoVQ162Z1hoWYajXS4TXtyE9zj55DW3pDZ1zFuE8YdQVtPc2xV","DdzFFzCqrhsuQvAPoPrgLab89vt6FjHEYDMr6kHvVmwiZeHCxvT5894nWUtxSvrwAgsBvDCkfRgWmdZVc3sef9c9uTHzhmrcAW8ZV9m1","DdzFFzCqrhsqoBE6st16f9xw7fnvbP4i39XCqMVATc1em9yBqjMSLUkpY3WjLhv7UKv8LbzQfFY7XRwkc5QAYWb6hybXf7g4vS2YXquy","DdzFFzCqrht8JDFe7iJ6dXFmWBig5Nhx2y7h9mktdomzeJaCh5Y975risyFTwSHMbRZV37BjZAPLcUhJUPhh7LjVPbVwhCpdeeZtaoh7","DdzFFzCqrht5yAum52T92BXZDe67o1DtwT8XxhNNJH1FNsBgseywZBKW4mMYCsUz3wFss4BNoxQDyG9jWxnTiPT7yAAc9zdcBMkyPUCM","DdzFFzCqrhtB6BENMKSncexgqXgb91MukUMFscWD5J9xEgjEUopGFQEqWfTcmxV6UkkyzX3xTENv3ziHEEyUzrZnQ6NeuzvVQrpLAEig"],"addressesOutput":["addr1q9atjfpqwdtg7ytz0pz9zcaqvx8zr2uv6ysvc4csqynr683dzefudzxhadht99nh8gv4l3z93d486ygllgxuh2drrrpsdw6fws","DdzFFzCqrhsqfQB44YJayi3SYUtXCLoyq89tU1YAd1pdR8YcJTQQrvPG3WHNSwXkMAoYbSvoDizPYJKhcgTEtu6vZUgSxA9v5Gdn1R5X","DdzFFzCqrhszoFEqMSPNpEvMw3m41y1vUVU9pFXvQWv1gm9DKzHFCqjFjMJ7wPZK7CUi6NQfphEfAaC7U5jYX1LLN3XX9pM2TG7mkq7z","DdzFFzCqrhseRpEBrwiNzxqQ9jAHwKQshMqxv5aKnZkB2pLsyRV85XxZQuJgMKbJXGPP3cx1ZYgJQEd9vNaA5jS3J7W4qoKGeXhqSA7k","DdzFFzCqrhsyeNh5nnbZK8P4uFcnydErm5i9eTuvF6yKV5WY3dhEt1Fp2cs9VZ95y2xjpT3LKErVyiHPqtNanasUmhmcA5XtFZJJrf31"],"fee":1033181,"totalOutput":53847504119,"tokens":[]},{"hash":"8435487d1c514da90b4b992d9787a10ec2b7dc8db7a6040c0eda72f16e47d5c0","blockNo":8051481,"blockHash":"9fbdec11d61c34dcb4a759c3421d663e1a5e14a9ebababd994aca665d6b5e263","epochNo":377,"epochSlotNo":165184,"slot":77665984,"time":"2022/11/23 19:37:55","addressesInput":["addr1q8rwf9e69p4k8q5xans9hsutqnh9z7tzcl4kcug0gk09dvh6wmvzcun764vwdlan6ctg303ktw5h2ejwv2epgzk6u00qfvhk9y","addr1qyhu5gr5vpxfgks8me45lxmvha6p844apvr2glmvz3wkr2l6wmvzcun764vwdlan6ctg303ktw5h2ejwv2epgzk6u00qgwnumu"],"addressesOutput":["addr1v8rlcmvjthdryyxuwwclvhzg865y9q8gcmcyqcxdyxgf9rc8wr760","addr1q8ftlt86p25gxa2z56y60xq5d2lj7rhc6u58z7550hz8vdh6wmvzcun764vwdlan6ctg303ktw5h2ejwv2epgzk6u00qj3jjxn"],"fee":365305,"totalOutput":25441118,"tokens":[]},{"hash":"f9988d7dada14b800fe8dd989cf9343fbed3607143699531cf596b44dcbabdc1","blockNo":8051475,"blockHash":"53523f34715d144a6ec23b78fcfce9edaedf0ac6d233e064686ecea8e74f8976","epochNo":377,"epochSlotNo":164958,"slot":77665758,"time":"2022/11/23 19:34:09","addressesInput":["addr1q9x2jzdeyj7q5u9uvhpzvpuf394f8tekyp26dg4q7kpcyw24mv86l2c6nvmhzu7n4rqjpp84p6ly3gucwtukw0tllf9sjln2tv"],"addressesOutput":["addr1zxgx3far7qygq0k6epa0zcvcvrevmn0ypsnfsue94nsn3tvpw288a4x0xf8pxgcntelxmyclq83s0ykeehchz2wtspks905plm","addr1q9x2jzdeyj7q5u9uvhpzvpuf394f8tekyp26dg4q7kpcyw24mv86l2c6nvmhzu7n4rqjpp84p6ly3gucwtukw0tllf9sjln2tv"],"fee":420217,"totalOutput":93130284,"tokens":[]},{"hash":"bae1a08511bd194ab9495b5499d084dfe678bda81fe2bd818822ca7edea022b2","blockNo":8051229,"blockHash":"5bddac106764b0ba3a5421407622bcb3464e676b04a3ca624fe89bb35a230d80","epochNo":377,"epochSlotNo":160071,"slot":77660871,"time":"2022/11/23 18:12:42","addressesInput":["addr1qxys73l3hryn8fc2ph0vpq0d202spw33tadhycczsywtvtv3628la2lcg3lqy85p5je4yrgza2kr0aus4sszeqxaudus7n9958","addr1qxys73l3hryn8fc2ph0vpq0d202spw33tadhycczsywtvtv3628la2lcg3lqy85p5je4yrgza2kr0aus4sszeqxaudus7n9958","addr1qxys73l3hryn8fc2ph0vpq0d202spw33tadhycczsywtvtv3628la2lcg3lqy85p5je4yrgza2kr0aus4sszeqxaudus7n9958","addr1qxys73l3hryn8fc2ph0vpq0d202spw33tadhycczsywtvtv3628la2lcg3lqy85p5je4yrgza2kr0aus4sszeqxaudus7n9958","addr1qxys73l3hryn8fc2ph0vpq0d202spw33tadhycczsywtvtv3628la2lcg3lqy85p5je4yrgza2kr0aus4sszeqxaudus7n9958","addr1qxys73l3hryn8fc2ph0vpq0d202spw33tadhycczsywtvtv3628la2lcg3lqy85p5je4yrgza2kr0aus4sszeqxaudus7n9958"],"addressesOutput":["addr1q9ad5mud938r7l24eaac4v57ydlj72hazgprts9f7daaz09mm95jvs5h94099yglxr7v6ug6pp43780huy040lm4utmqx8g5eu","addr1wxaptpmxcxawvr3pzlhgnpmzz3ql43n2tc8mn3av5kx0yzs09tqh8","addr1qxys73l3hryn8fc2ph0vpq0d202spw33tadhycczsywtvtv3628la2lcg3lqy85p5je4yrgza2kr0aus4sszeqxaudus7n9958","addr1qxys73l3hryn8fc2ph0vpq0d202spw33tadhycczsywtvtv3628la2lcg3lqy85p5je4yrgza2kr0aus4sszeqxaudus7n9958"],"fee":503550,"totalOutput":1179078893,"tokens":[]},{"hash":"49a12426ed141b89483f17712d7caeeb39ae3618d55615c05abacccb6faae558","blockNo":8051216,"blockHash":"d55e0520f7ee3d326272a88df9c32be97f2ef92086a160bc6f0b05b7669d6f9d","epochNo":377,"epochSlotNo":159729,"slot":77660529,"time":"2022/11/23 18:07:00","addressesInput":["addr1qxys73l3hryn8fc2ph0vpq0d202spw33tadhycczsywtvtv3628la2lcg3lqy85p5je4yrgza2kr0aus4sszeqxaudus7n9958","addr1qxys73l3hryn8fc2ph0vpq0d202spw33tadhycczsywtvtv3628la2lcg3lqy85p5je4yrgza2kr0aus4sszeqxaudus7n9958","addr1qxys73l3hryn8fc2ph0vpq0d202spw33tadhycczsywtvtv3628la2lcg3lqy85p5je4yrgza2kr0aus4sszeqxaudus7n9958"],"addressesOutput":["addr1q9ad5mud938r7l24eaac4v57ydlj72hazgprts9f7daaz09mm95jvs5h94099yglxr7v6ug6pp43780huy040lm4utmqx8g5eu","addr1wxaptpmxcxawvr3pzlhgnpmzz3ql43n2tc8mn3av5kx0yzs09tqh8","addr1qxys73l3hryn8fc2ph0vpq0d202spw33tadhycczsywtvtv3628la2lcg3lqy85p5je4yrgza2kr0aus4sszeqxaudus7n9958","addr1qxys73l3hryn8fc2ph0vpq0d202spw33tadhycczsywtvtv3628la2lcg3lqy85p5je4yrgza2kr0aus4sszeqxaudus7n9958"],"fee":500426,"totalOutput":120410702,"tokens":[]},{"hash":"9fedee6c0765685d0f723e966fbbeb91f7e13a0fa171fe29640e1247658b11c2","blockNo":8051023,"blockHash":"8443f1398f82936c2062501f4f913d68b0ace60bc446518eb657d3d050859195","epochNo":377,"epochSlotNo":155959,"slot":77656759,"time":"2022/11/23 17:04:10","addressesInput":["addr1qx38rkgy82xryat6mkqr3segy8846705lpldytz8crjt8mqggm8kutdwa0a3ch3txcvn2jq2pg2nv9uaaqajd0jf5r3sawj7ha","addr1qyw2u3jnmjd5525uzwpa65amgjapd432jvrjkmq0uq9dxlcggm8kutdwa0a3ch3txcvn2jq2pg2nv9uaaqajd0jf5r3sk9nxzy","addr1q8lznvppnvjy2f9hhxc3vcrnv5fvmr3u92p3es4j45d95sgggm8kutdwa0a3ch3txcvn2jq2pg2nv9uaaqajd0jf5r3swd2c25"],"addressesOutput":["addr1q87k9zrel8zsqpqhue55u7356gch8a4wp7xfpg5et2nn3q72h8y4gwedd2z2nx6544nalel0zd0g0kel44c96xy3vxvqwq22c9","addr1q9p7vddqexcjacq5mgxgal9g5wrxwz5udd3wc70xlvsldkqggm8kutdwa0a3ch3txcvn2jq2pg2nv9uaaqajd0jf5r3sauzqq2"],"fee":251037,"totalOutput":12251040,"tokens":[]},{"hash":"84e242a4edb1c859dcb5b2de8ee735db1bfcc13c105dd4c3a4e666b6cf884858","blockNo":8050469,"blockHash":"d58b7ae906893fc56cd86f9792d837a324af73ccd27323117c50272e5560f0ab","epochNo":377,"epochSlotNo":144674,"slot":77645474,"time":"2022/11/23 13:56:05","addressesInput":["addr1qxa7hxs2plv3ghfvm2ds0ddlgljjmr870nyj0dcuttr9emmhy29z9apw4amvddq7cz3u2c6jffld2rlzcrmuk57cdvcsnml3cx"],"addressesOutput":["addr1qxqj4catnx5a5afql0t5gn6zzjtjuzg8cdk6xrn3qh24pwvzed4j32w2p927l82jzyzunn8dwf5gltqvs4aulstgxp2skr4gj4","addr1qxa7hxs2plv3ghfvm2ds0ddlgljjmr870nyj0dcuttr9emmhy29z9apw4amvddq7cz3u2c6jffld2rlzcrmuk57cdvcsnml3cx","addr1qxa7hxs2plv3ghfvm2ds0ddlgljjmr870nyj0dcuttr9emmhy29z9apw4amvddq7cz3u2c6jffld2rlzcrmuk57cdvcsnml3cx"],"fee":227233,"totalOutput":40182193,"tokens":[]},{"hash":"69b87dc4fed1f532661588dea7ded7e6b65ced2a55460463bed80cffdbd2565a","blockNo":8050434,"blockHash":"052e52e86987073b81a4bc98ad0db6b79915689d1d7b4c403de15d0705ab701a","epochNo":377,"epochSlotNo":144131,"slot":77644931,"time":"2022/11/23 13:47:02","addressesInput":["addr1q8ft3nxk4fnhtsr48czxhxyv49q5aye0ey3zq9dww80shu9rhvdaj7dhhue4aj0ttva5mc24hpgd3k0nzs5cdwft4qfq8ncrt2"],"addressesOutput":["addr1zxgx3far7qygq0k6epa0zcvcvrevmn0ypsnfsue94nsn3tvpw288a4x0xf8pxgcntelxmyclq83s0ykeehchz2wtspks905plm","addr1q8ft3nxk4fnhtsr48czxhxyv49q5aye0ey3zq9dww80shu9rhvdaj7dhhue4aj0ttva5mc24hpgd3k0nzs5cdwft4qfq8ncrt2","addr1q8ft3nxk4fnhtsr48czxhxyv49q5aye0ey3zq9dww80shu9rhvdaj7dhhue4aj0ttva5mc24hpgd3k0nzs5cdwft4qfq8ncrt2","addr1q8ft3nxk4fnhtsr48czxhxyv49q5aye0ey3zq9dww80shu9rhvdaj7dhhue4aj0ttva5mc24hpgd3k0nzs5cdwft4qfq8ncrt2","addr1q8ft3nxk4fnhtsr48czxhxyv49q5aye0ey3zq9dww80shu9rhvdaj7dhhue4aj0ttva5mc24hpgd3k0nzs5cdwft4qfq8ncrt2","addr1q8ft3nxk4fnhtsr48czxhxyv49q5aye0ey3zq9dww80shu9rhvdaj7dhhue4aj0ttva5mc24hpgd3k0nzs5cdwft4qfq8ncrt2","addr1q8ft3nxk4fnhtsr48czxhxyv49q5aye0ey3zq9dww80shu9rhvdaj7dhhue4aj0ttva5mc24hpgd3k0nzs5cdwft4qfq8ncrt2","addr1q8ft3nxk4fnhtsr48czxhxyv49q5aye0ey3zq9dww80shu9rhvdaj7dhhue4aj0ttva5mc24hpgd3k0nzs5cdwft4qfq8ncrt2","addr1q8ft3nxk4fnhtsr48czxhxyv49q5aye0ey3zq9dww80shu9rhvdaj7dhhue4aj0ttva5mc24hpgd3k0nzs5cdwft4qfq8ncrt2","addr1q8ft3nxk4fnhtsr48czxhxyv49q5aye0ey3zq9dww80shu9rhvdaj7dhhue4aj0ttva5mc24hpgd3k0nzs5cdwft4qfq8ncrt2","addr1q8ft3nxk4fnhtsr48czxhxyv49q5aye0ey3zq9dww80shu9rhvdaj7dhhue4aj0ttva5mc24hpgd3k0nzs5cdwft4qfq8ncrt2","addr1q8ft3nxk4fnhtsr48czxhxyv49q5aye0ey3zq9dww80shu9rhvdaj7dhhue4aj0ttva5mc24hpgd3k0nzs5cdwft4qfq8ncrt2","addr1q8ft3nxk4fnhtsr48czxhxyv49q5aye0ey3zq9dww80shu9rhvdaj7dhhue4aj0ttva5mc24hpgd3k0nzs5cdwft4qfq8ncrt2","addr1q8ft3nxk4fnhtsr48czxhxyv49q5aye0ey3zq9dww80shu9rhvdaj7dhhue4aj0ttva5mc24hpgd3k0nzs5cdwft4qfq8ncrt2","addr1q8ft3nxk4fnhtsr48czxhxyv49q5aye0ey3zq9dww80shu9rhvdaj7dhhue4aj0ttva5mc24hpgd3k0nzs5cdwft4qfq8ncrt2"],"fee":460741,"totalOutput":5474404963,"tokens":[]},{"hash":"fb5109d5cd57d4c2bc8518004636110f27eec6197fe6d5a43959c356f895c8bd","blockNo":8050434,"blockHash":"052e52e86987073b81a4bc98ad0db6b79915689d1d7b4c403de15d0705ab701a","epochNo":377,"epochSlotNo":144131,"slot":77644931,"time":"2022/11/23 13:47:02","addressesInput":["DdzFFzCqrhsksJDmPJwTdsQdMAn7c1mgkYLRRRhJWiMSGjTbPcwAkKRK7ewamBkQpPMxjV7f3vMfTY1fs8xsJ15CFABjcwDA4LSLuxzC","DdzFFzCqrhtAJoN8QLFHuWAUkL6WUs3HHQsTw5nFBRjDxgJrHZejhkrB23kBmvkKkA1ujqCNagFPTmG7J8G4RWXqepHmDq1BReKmba67","DdzFFzCqrht4N9wD953FX8K4eNAPeUvjG64HAHRiWNFbrd4gCuoHNjBwGhbGF6z88qo5DFXUswEx8DAv7F5Zf6MPCtNV8ZaGAJkr5666","DdzFFzCqrht79cvmiqEZh7irZjbMWLv9ZsqgYUPoozF43XhXB2WCk4gHMFqAgY9NBQyvB7m4rGDS3NFhhUsqjcXUaERcYzx159YpL427","DdzFFzCqrhsmUtFJtPw1GQTnA8G8UqhnEVyfWndAmNQxVQrmo6RE6FjBjUC34Gz4h8hcYKWWvT7ztagzsHBY7eaAhrk13U9G5RPqTwyT","DdzFFzCqrhsmQ7i42GHKW5hSzWtML3NACkyq7P5VQ7YrSFcm5r7gh8exEVQwXP29gyhoeSt4Yd4wygr9fFHUBb6Jmtx5sRELUFMZf2hW"],"addressesOutput":["addr1q9atjfpqwdtg7ytz0pz9zcaqvx8zr2uv6ysvc4csqynr683dzefudzxhadht99nh8gv4l3z93d486ygllgxuh2drrrpsdw6fws","DdzFFzCqrht5yAum52T92BXZDe67o1DtwT8XxhNNJH1FNsBgseywZBKW4mMYCsUz3wFss4BNoxQDyG9jWxnTiPT7yAAc9zdcBMkyPUCM","DdzFFzCqrhsuQvAPoPrgLab89vt6FjHEYDMr6kHvVmwiZeHCxvT5894nWUtxSvrwAgsBvDCkfRgWmdZVc3sef9c9uTHzhmrcAW8ZV9m1","DdzFFzCqrhsxWUDSqZGyzsmYhLPo3rFzcEqVEQb5P7oyY9a5Fdf7oyEdmnECFx7FcyRD2LtMkH5CcdMtRzQKRZxsrrK1NchW9LnuqswZ","DdzFFzCqrht4Dxp9w3SooUUJJXhQbFD2rdLGvmux1eEBXM9qaLneybPECpoG6mfa9XiYuAfRVAoiGGrW8UJ7DSQCi7Mc6CW6ThNhFxF8"],"fee":919617,"totalOutput":52950706853,"tokens":[]},{"hash":"495830f3feb81f5a0605fc2cc899bc92cf01e0ab9e588eef04da2cedb9514f0a","blockNo":8050380,"blockHash":"fa0a907dc4d207631edb644497283b29a64536544339d9d751722d964d776477","epochNo":377,"epochSlotNo":143120,"slot":77643920,"time":"2022/11/23 13:30:11","addressesInput":["addr1q8ft3nxk4fnhtsr48czxhxyv49q5aye0ey3zq9dww80shu9rhvdaj7dhhue4aj0ttva5mc24hpgd3k0nzs5cdwft4qfq8ncrt2","addr1q8ft3nxk4fnhtsr48czxhxyv49q5aye0ey3zq9dww80shu9rhvdaj7dhhue4aj0ttva5mc24hpgd3k0nzs5cdwft4qfq8ncrt2"],"addressesOutput":["addr1wxn9efv2f6w82hagxqtn62ju4m293tqvw0uhmdl64ch8uwc0h43gt","addr1q8ft3nxk4fnhtsr48czxhxyv49q5aye0ey3zq9dww80shu9rhvdaj7dhhue4aj0ttva5mc24hpgd3k0nzs5cdwft4qfq8ncrt2","addr1q8ft3nxk4fnhtsr48czxhxyv49q5aye0ey3zq9dww80shu9rhvdaj7dhhue4aj0ttva5mc24hpgd3k0nzs5cdwft4qfq8ncrt2"],"fee":405081,"totalOutput":5479835454,"tokens":[]},{"hash":"00c2c9dda2366668d1204c2d5c06637c744c29e59ca91d86adc5f143f3899d84","blockNo":8050270,"blockHash":"d9f49ca1ae64d1be37c8cbb86ace55606c5c2c35a2f59297f30dea8652388591","epochNo":377,"epochSlotNo":140933,"slot":77641733,"time":"2022/11/23 12:53:44","addressesInput":["addr1qxn0kuqk8mysdv8rpqhl39vp6njnxd7dw3yvkcvdk9ke4revmezswc6ql6x9kekl6zm3ptc6g9jlwln9lt6sml5mcl0sndmr62"],"addressesOutput":["addr1zyq0kyrml023kwjk8zr86d5gaxrt5w8lxnah8r6m6s4jp4g3r6dxnzml343sx8jweqn4vn3fz2kj8kgu9czghx0jrsyqqktyhv","addr1qxn0kuqk8mysdv8rpqhl39vp6njnxd7dw3yvkcvdk9ke4revmezswc6ql6x9kekl6zm3ptc6g9jlwln9lt6sml5mcl0sndmr62"],"fee":360814,"totalOutput":145428472,"tokens":[]}],"totalItems":11697,"totalPages":585,"currentPage":0}