{"data":[{"time":"2023/06/21 04:12:46","amount":15590931905,"txHash":"4b1e51a27b39dcd62670c01367d5c3e080b0a19bf43d17cd74c478e1f5a391dc","epochNo":77,"blockNo":1074890,"epochSlotNo":15166},{"time":"2023/06/16 05:21:55","amount":16188589887,"txHash":"dee8e5bb8cddf37bebcc779a4edd06abe9f82606f93870c39720adf006f7eb59","epochNo":76,"blockNo":1056705,"epochSlotNo":19315},{"time":"2023/06/12 14:35:24","amount":16134577560,"txHash":"4e3e04c049a5dde33894ca3d57392f04448a4429eb31f0c3cf0717297ccba448","epochNo":75,"blockNo":1043619,"epochSlotNo":138924},{"time":"2023/06/06 08:38:32","amount":15901439692,"txHash":"c9d9f29668edf4a5f13b5e58f03c28268bdb082cbd993325cf67a4aa58f8e157","epochNo":74,"blockNo":1020299,"epochSlotNo":31112},{"time":"2023/06/01 08:06:57","amount":15698340098,"txHash":"f42c05adc133fa923ab5e04b569365c584b88d4eca07eaea6d1b2e87337745b7","epochNo":73,"blockNo":1001694,"epochSlotNo":29217},{"time":"2023/05/27 08:27:30","amount":15983737524,"txHash":"ab335026aa9aeb5a581f5493c6bd6cf110f93ae47eab9880b71894797a559ed0","epochNo":72,"blockNo":983475,"epochSlotNo":30450},{"time":"2023/05/22 07:05:17","amount":15764664813,"txHash":"7094e9d00df9cddcfbd1cfe43670449e173b4f9cfebbd07f28f9b166fad469f2","epochNo":71,"blockNo":964562,"epochSlotNo":25517},{"time":"2023/05/17 09:20:52","amount":16214136548,"txHash":"3da076b13255eae6bddc4405f347492d9e4f6cfe286040d1cedd8e49e2f00764","epochNo":70,"blockNo":946650,"epochSlotNo":33652},{"time":"2023/05/12 05:51:47","amount":16161993361,"txHash":"d8518f353bf5d5b0e7ae39b6d8a229de3ee466b62965e01815a34f2d4b096c3d","epochNo":69,"blockNo":928040,"epochSlotNo":21107},{"time":"2023/05/07 08:30:30","amount":16510254195,"txHash":"15ddb4873efab63664829a3180dd94c6ad4a081a558c1956753fb5f284f1a456","epochNo":68,"blockNo":910763,"epochSlotNo":30630},{"time":"2023/05/02 08:57:16","amount":16232140500,"txHash":"eb08dc3b8fc2cc8d9e1f7e0b09634a62dc7bf6fd5819575548144defeec562a1","epochNo":67,"blockNo":893996,"epochSlotNo":32236},{"time":"2023/04/27 05:59:56","amount":16353713695,"txHash":"f1670c86ebe605038b4ad72c7d9ec8681ed9916bf2cc726867a2e24a967e85ef","epochNo":66,"blockNo":877790,"epochSlotNo":21596},{"time":"2023/04/22 07:07:51","amount":15735674030,"txHash":"2280c3a1a64b541525c06ffc8d7f4ae50d9255c4688e9d2aaddeb081cef1d566","epochNo":65,"blockNo":861604,"epochSlotNo":25671},{"time":"2023/04/17 06:00:21","amount":16170331128,"txHash":"aab44bd6a88767efc2cd25c0a33685284ad73503de5b4182d257e0036c41a6cf","epochNo":64,"blockNo":843588,"epochSlotNo":21621},{"time":"2023/04/12 04:09:47","amount":16038231025,"txHash":"5dc06a5680dc8b5f7e15fe523cc69592e41cffa4f8b53c0755b61f88b4aaa479","epochNo":63,"blockNo":825625,"epochSlotNo":14987},{"time":"2023/04/07 04:46:55","amount":16259213357,"txHash":"bb0dc3a42d2a11fbbd3c355f3a80d5e9d3c478f8dea9ad05635fe45e1c45cd3c","epochNo":62,"blockNo":806697,"epochSlotNo":17215},{"time":"2023/04/02 06:57:26","amount":15806395769,"txHash":"239d5520491aa623d753a33455ce9e963535777e1fc58efdb7b1e04e556540fe","epochNo":61,"blockNo":787664,"epochSlotNo":25046},{"time":"2023/03/28 08:20:33","amount":15874930049,"txHash":"018fdf05dc6ec0925276004d3bc46a20bbc2c6847c89337ed969b167ed97cb88","epochNo":60,"blockNo":770473,"epochSlotNo":30033},{"time":"2023/03/23 09:22:04","amount":16343758643,"txHash":"5032b318a1e4a213d7e75a3ae24b5c60d3d003d5c0f4ba1c9fe068267a92f929","epochNo":59,"blockNo":753477,"epochSlotNo":33724},{"time":"2023/03/18 09:13:35","amount":16734702512,"txHash":"f0e58c54f51735653a09441ef44341f92b674ec47e106e2b8210b146a0df13de","epochNo":58,"blockNo":736950,"epochSlotNo":33215}],"totalItems":27,"totalPages":2,"currentPage":0}