{"data":[{"txId":59926343,"txHash":"a07f4a447218640cbbf01db542ccf8ee59d96e3fea59416581daafba96236c1b","txTime":"2023/01/17 17:34:34","block":8282529,"epoch":388,"slotNo":82410583,"epochSlotNo":157783,"stakeKey":"stake1u89suyspp85dz00q75dh7yyeuvwkjkxe7l97qtdgws84scgrrzuzp"},{"txId":59925844,"txHash":"0e7420bcd07970148aae0a1c452631c589cbdf07374b5b6411aa12d6f0ba13b8","txTime":"2023/01/17 17:26:01","block":8282499,"epoch":388,"slotNo":82410070,"epochSlotNo":157270,"stakeKey":"stake1u9hauwu5dfd6ua29lxfttnz2s492nyw3kg3ra62xflhlffgmprzvm"},{"txId":59925437,"txHash":"65359e3c963a71fd94b42265e4fc59359220ca0bb5200a1f9098d55dd6e72d44","txTime":"2023/01/17 17:19:41","block":8282472,"epoch":388,"slotNo":82409690,"epochSlotNo":156890,"stakeKey":"stake1u8thpexpmqqygkdwwe8rawk9vll55aja6nygmxq2nffl68q9hr23x"},{"txId":59924643,"txHash":"5706977a58bb278527f1fd067ef004012d68353d52f8c466d61e40216bc3ff65","txTime":"2023/01/17 17:05:40","block":8282432,"epoch":388,"slotNo":82408849,"epochSlotNo":156049,"stakeKey":"stake1u9yxu923lm8yrk7cd947ga0dfd7fed9csurvlxjk7yrtkhckn544s"},{"txId":59924540,"txHash":"b8a8433e0fa8169d5be52046ae054c6709f9dfc641e50ab76ec1dc44fd270539","txTime":"2023/01/17 17:03:42","block":8282430,"epoch":388,"slotNo":82408731,"epochSlotNo":155931,"stakeKey":"stake1u8r3c49e4xej7pvv4g6xlz0ve2j3upcp6husk72v8s9ffnswgw4cq"},{"txId":59924286,"txHash":"8331b4cf04790e5d5903359e22f0bbb505433fe3008ac01cfe795a56ffc6b2ba","txTime":"2023/01/17 16:59:52","block":8282415,"epoch":388,"slotNo":82408501,"epochSlotNo":155701,"stakeKey":"stake1u8qym8zc93ztfhjm53e6wagjs6gptccaspdhmxxquvzwtys9dj69w"},{"txId":59924035,"txHash":"bda0baa760b1f4e70b8084c02d3038f9d3ee0bb1a36195ee8ec88919b15864cc","txTime":"2023/01/17 16:55:27","block":8282404,"epoch":388,"slotNo":82408236,"epochSlotNo":155436,"stakeKey":"stake1u95dhajygaw7kq3q4d2zn4wy2zae6n0x2f639nnumnmpzhgsdznfk"},{"txId":59923775,"txHash":"9a661448386d44d75768ad2a71cfff22473079a0417d8496951a9a5a64c74d65","txTime":"2023/01/17 16:50:33","block":8282384,"epoch":388,"slotNo":82407942,"epochSlotNo":155142,"stakeKey":"stake1uylnk75422w85nmd9c2war5nhgvfjsftemmz92wsyg94nrspukspw"},{"txId":59923416,"txHash":"b5307ee9f13591163f2e5a87cc082862d30ee2f04e67be90761e5beea5bdcbd9","txTime":"2023/01/17 16:43:54","block":8282363,"epoch":388,"slotNo":82407543,"epochSlotNo":154743,"stakeKey":"stake1uyrtcyx8jjy4sml5knpt8cz5z2yzxl4vcyfw8nl9ll8u68szrwp8s"},{"txId":59921452,"txHash":"ef3802075c178a1be9dbb6896cbac1f3201b27901020bf65764a951a8a3a908a","txTime":"2023/01/17 16:10:29","block":8282258,"epoch":388,"slotNo":82405538,"epochSlotNo":152738,"stakeKey":"stake1u9zqe8m0qntv5xsmn3glxuymr0hcrvrhct3fklcwyyy8tscw8p4qf"},{"txId":59921162,"txHash":"4f74c4a6784b8a9e64258b3911cc2e0895e54aa1321cf605edce2e7260a90658","txTime":"2023/01/17 16:06:02","block":8282245,"epoch":388,"slotNo":82405271,"epochSlotNo":152471,"stakeKey":"stake1uxr3g53lj2qxxjgux5zsc6a6ugfa2gxqqu7hsyv3at8tdzggz6d93"},{"txId":59920541,"txHash":"35af1dbf30a805b14fbb5601c60678519115bc86cd1c5ea88a5e17159f2c606e","txTime":"2023/01/17 15:54:58","block":8282211,"epoch":388,"slotNo":82404607,"epochSlotNo":151807,"stakeKey":"stake1uyqnzmy24hem3860umdl2zajsnaywu946sa5m70w8u86m0g6sfxm9"},{"txId":59920292,"txHash":"749dff12475eb8b6dd341d0e8398e6a83f1d5d139fc41dd9559952d9e858eff5","txTime":"2023/01/17 15:49:52","block":8282197,"epoch":388,"slotNo":82404301,"epochSlotNo":151501,"stakeKey":"stake1uyw0tq7csvhsqr4g5rmlh8esj0xsx83lrpezy7yvpqagfas5zmr73"},{"txId":59920252,"txHash":"6f3124a2648ec298438385cb4418c8b4d8efdf7c1a454a26998f28a25e4a4b56","txTime":"2023/01/17 15:49:39","block":8282195,"epoch":388,"slotNo":82404288,"epochSlotNo":151488,"stakeKey":"stake1u9thqn4al9e5c624durhzzfy8ekjylevd38gfk6ca9s0t4sw9m3hc"},{"txId":59919949,"txHash":"85b2a42377030e248ee88f52e1d1b59e616a5921eb9345ce753592e0ef74285e","txTime":"2023/01/17 15:43:42","block":8282181,"epoch":388,"slotNo":82403931,"epochSlotNo":151131,"stakeKey":"stake1u8jl5hc78fmprwwg8kenjlq5fc76hywvq0m82n4d74dhgfcxg2txk"},{"txId":59918958,"txHash":"88755cdb5d0c882afd5c0d98ca702532e1cb20909ae5e3190d691f36140d1bf4","txTime":"2023/01/17 15:27:06","block":8282132,"epoch":388,"slotNo":82402935,"epochSlotNo":150135,"stakeKey":"stake1uylrmf3g56mxw2qnmqn88xws9adtugsp2lnhvr3fzkduczq8k6uyd"},{"txId":59918878,"txHash":"440c8b6a7b90951363b15b509f3fd09bac287c010b553e45c22fa2e1ddb33433","txTime":"2023/01/17 15:24:54","block":8282127,"epoch":388,"slotNo":82402803,"epochSlotNo":150003,"stakeKey":"stake1u8nptagc6ytcsytf6jc73jctfh6n7nc5tl5r47mjpzn00vcc0ye5u"},{"txId":59918804,"txHash":"c398910710f49649bdae9f8e43ac6b8909c0284ffcb7c3336217656ea846cdb6","txTime":"2023/01/17 15:23:57","block":8282122,"epoch":388,"slotNo":82402746,"epochSlotNo":149946,"stakeKey":"stake1u88dxtfqhepm8v466r2lkk4sytk3ztas0cq2shlqsqlwz8cjmynvw"},{"txId":59918484,"txHash":"af292f733441b1824450d2c4c7689127abcccf2b906d36364fe91a866edbaf9c","txTime":"2023/01/17 15:17:39","block":8282104,"epoch":388,"slotNo":82402368,"epochSlotNo":149568,"stakeKey":"stake1uxwm9a0edyx3np089ckc3rhfm993e3cgvdkpgx7tl8fzp9czz54np"},{"txId":59917987,"txHash":"cb6f7c02529b0f31ebcf1330200537422b749d3ce3b37e1837764c93371a8db2","txTime":"2023/01/17 15:08:11","block":8282080,"epoch":388,"slotNo":82401800,"epochSlotNo":149000,"stakeKey":"stake1uyla6yj0ndgsxue9742ptpgmdygllppphfl065hd5fkdgmqm8mfxa"}],"totalItems":345605,"totalPages":17281,"currentPage":0}