{"data":[{"blockNo":8228995,"slotNo":81310762,"epochNo":385,"epochSlotNo":353962,"hash":"b90ea00eaa6d126ea7e1d924f3c8ca57090d894a3a1cbf4d3deed16c20a7445c","time":"2023/01/05 00:04:13","txCount":8,"totalFees":2213883,"totalOutput":63741107339,"slotLeader":"5ed675dd3d0640ca94bf8c3d6a5bfaac0f59930c99a94ffe3686cb70"},{"blockNo":8228994,"slotNo":81310760,"epochNo":385,"epochSlotNo":353960,"hash":"7ed0a7981d51030a7ad1e1c6ef779b1f5e7a313608e1a55c88e45e358d0a0c9c","time":"2023/01/05 00:04:11","txCount":41,"totalFees":14412019,"totalOutput":1278809731502,"slotLeader":"e455088c9164ae075f0300bc1a7234c30433556c6b88d4301a06cfe5"},{"blockNo":8228993,"slotNo":81310714,"epochNo":385,"epochSlotNo":353914,"hash":"bd9eba47814895c6329b9dc5965b83c8c044d2167c21a2744a82607bd1d92ca9","time":"2023/01/05 00:03:25","txCount":37,"totalFees":12287424,"totalOutput":2605288850521,"slotLeader":"a374a14d2fa809b5e999a474b5d085b10be2fc95e6e82da045d9e8f6"},{"blockNo":8228992,"slotNo":81310705,"epochNo":385,"epochSlotNo":353905,"hash":"a5f6ed1b05d737530dc8522c4bc85d385d5f83759310806908556584c07e42a5","time":"2023/01/05 00:03:16","txCount":37,"totalFees":12634352,"totalOutput":1356046575803,"slotLeader":"6539a70bb6e61540444133eab3a24288d1cd3ddc3598adde93475513"},{"blockNo":8228991,"slotNo":81310699,"epochNo":385,"epochSlotNo":353899,"hash":"58208466ea84819f49b3f35c207f64d5467677850c9236d7f0fa5c701efd3912","time":"2023/01/05 00:03:10","txCount":37,"totalFees":14000652,"totalOutput":8378548393205,"slotLeader":"cb3e1428aa4d240ca528edfd992d6509b47335849a91f0d70e5b0ffd"},{"blockNo":8228990,"slotNo":81310655,"epochNo":385,"epochSlotNo":353855,"hash":"1eee2511c06f847da5bfa15a4ff0c3ca3c80155a8d004288b3fe9e07381f9a8d","time":"2023/01/05 00:02:26","txCount":17,"totalFees":8207981,"totalOutput":2765766546611,"slotLeader":"17a6a1f2fb36d9ef275805db17409af7ab753b9d27bdd41b89510bb9"},{"blockNo":8228989,"slotNo":81310598,"epochNo":385,"epochSlotNo":353798,"hash":"735eb63731788db9474a7e1ac972501ac9a2b587a729289763b2a39daa064e5f","time":"2023/01/05 00:01:29","txCount":26,"totalFees":11147077,"totalOutput":250667574581,"slotLeader":"490353aa6b85efb28922acd9e0ee1dcf6d0c269b9f0583718b0274ba"},{"blockNo":8228988,"slotNo":81310555,"epochNo":385,"epochSlotNo":353755,"hash":"4693f220f65a49dc06320f48f35f6e6deb75b4d1bee8d318a3fd6cc76ab9a9eb","time":"2023/01/05 00:00:46","txCount":51,"totalFees":13384787,"totalOutput":2086213915824,"slotLeader":"e455088c9164ae075f0300bc1a7234c30433556c6b88d4301a06cfe5"},{"blockNo":8228987,"slotNo":81310541,"epochNo":385,"epochSlotNo":353741,"hash":"6c4f6166ffc7c9242cdd54b7a9d7d357638f3d388787865db7ea632320ec5463","time":"2023/01/05 00:00:32","txCount":46,"totalFees":14563166,"totalOutput":4174842578530,"slotLeader":"e4ac73ef83e1d5950a3fe84b3a4b51045f9b01d2db18121395b4ac94"},{"blockNo":8228986,"slotNo":81310477,"epochNo":385,"epochSlotNo":353677,"hash":"fef7c92b1a32687a46439edf386db8f24946963ee5990eeafd5ea2ab628560ca","time":"2023/01/04 23:59:28","txCount":7,"totalFees":2612522,"totalOutput":156706378300,"slotLeader":"be6d07b366b26dd577682e0e499c0d81988d8b3f49b52b853691eeba"}],"totalItems":17325,"totalPages":1733,"currentPage":0}