{"data":[{"txId":60184793,"txHash":"9c263193a8787fe36a5cda4263aeef32aedbcba8c8df0353c8989a57d96ee8c7","txTime":"2023/01/21 01:17:21","block":8296573,"epoch":389,"slotNo":82697550,"epochSlotNo":12750,"stakeKey":"stake1u8yy6pggv3cw4g9e88xh79l2lh6zu48pgav6929a3a6t8eqeta7j7"},{"txId":60184175,"txHash":"c2a9fee5b2d7df03233fd9a2ac369bde88da96a2a033abe0e694d8cbf8c5ef02","txTime":"2023/01/21 01:06:39","block":8296545,"epoch":389,"slotNo":82696908,"epochSlotNo":12108,"stakeKey":"stake1uyv0jcuvkv53uz52t4ju5dnj27twe3cyxlv9wfgspd3x57q5rzfph"},{"txId":60183980,"txHash":"b61ceb139bcf1d3120b04aaf188df5dcee63a0c86d087590a5c44f21a9d96e0d","txTime":"2023/01/21 01:03:39","block":8296536,"epoch":389,"slotNo":82696728,"epochSlotNo":11928,"stakeKey":"stake1u8tks88qkl5jrthhtax4vvpvs862w687yvf9r0l2ee28hvgw343x4"},{"txId":60183349,"txHash":"b2cd600bbd560ea401bee29d4573d4eb5d5d8daa206d6257484fcfaa3428db64","txTime":"2023/01/21 00:53:55","block":8296506,"epoch":389,"slotNo":82696144,"epochSlotNo":11344,"stakeKey":"stake1u8nwvhc3n4akff7w73xyz2skexe706dsm5p0ztg5casdpfcudzhxc"},{"txId":60183193,"txHash":"7dbcf587402ca41e2e2284310655c3d7ec4b7b270964ef9019a615b5b1b5d7d4","txTime":"2023/01/21 00:51:21","block":8296502,"epoch":389,"slotNo":82695990,"epochSlotNo":11190,"stakeKey":"stake1u9depwjdzdhe7tuwfnr7fpz5ewz0cef9gfhr6ks7zssvths20r3zx"},{"txId":60183088,"txHash":"2b1b0bf0db0252e06dd24420dcbe389945c180c1d06befdc14d31670d20bbd0b","txTime":"2023/01/21 00:49:55","block":8296499,"epoch":389,"slotNo":82695904,"epochSlotNo":11104,"stakeKey":"stake1uxyza6gqew7wl8ce9vz60df9u2ks2c5qn0aykjamym7xfssqy0cq7"},{"txId":60182984,"txHash":"017fc5d2693476a04414332e3f2ab660bafd6221fc8a41d59ffad69929b2a165","txTime":"2023/01/21 00:48:34","block":8296494,"epoch":389,"slotNo":82695823,"epochSlotNo":11023,"stakeKey":"stake1u8lrsf688u8a9a3nys4p60mrdup2fvv9qvshs80awpkgwmcxcqsnk"},{"txId":60182792,"txHash":"73ceb5a20b5b875e6a9c87f15052ded11a62cb93a2c73d8175709dca0fd087db","txTime":"2023/01/21 00:46:04","block":8296490,"epoch":389,"slotNo":82695673,"epochSlotNo":10873,"stakeKey":"stake1uxq0e7h9apg9rv5vt5udrx7svpn9cxcyzh499cqumx0qmrczq6xdq"},{"txId":60182718,"txHash":"da62e1c63c3e5022a24f08fb6bca372838426e3c96c101eb01bb096a9f21248b","txTime":"2023/01/21 00:45:17","block":8296487,"epoch":389,"slotNo":82695626,"epochSlotNo":10826,"stakeKey":"stake1u8jyjj3nkuhp5f9gna2jzxtr883zj8qwwkpd56gk88jzu5se8v0ln"},{"txId":60181661,"txHash":"6e02f8c9d459534d714ad1228993b1de14cd207dce5f6a3b8e93f164993ca89e","txTime":"2023/01/21 00:30:09","block":8296451,"epoch":389,"slotNo":82694718,"epochSlotNo":9918,"stakeKey":"stake1u883umq4t9aecmv3lna3nns9j0c02fr66ckafx9rnaff4rsnpys5p"},{"txId":60181641,"txHash":"558d0f47e1d5cb9a626a092fb96b2e16baee58a7a3966091b98ef1295b475dee","txTime":"2023/01/21 00:30:09","block":8296451,"epoch":389,"slotNo":82694718,"epochSlotNo":9918,"stakeKey":"stake1u8w98g49sprz6drtcfku5nxxtf9jgz9dek2mhg485098tygs34h9m"},{"txId":60181464,"txHash":"e0cde699acd539c9263686f7d008eb60537d9abfd75f93c46999e4ea72bd5a24","txTime":"2023/01/21 00:28:00","block":8296443,"epoch":389,"slotNo":82694589,"epochSlotNo":9789,"stakeKey":"stake1ux3l59nt3qdsp4ej3aa2ngrduqrw5rzz5nqwd7n0ac246kshdjpwq"},{"txId":60181312,"txHash":"5b089baed7e289aa5c47f9885f4491b04ed7485786785c39df234e8aa4187245","txTime":"2023/01/21 00:26:24","block":8296439,"epoch":389,"slotNo":82694493,"epochSlotNo":9693,"stakeKey":"stake1uy7tyl7yvcv2c6qesa8s4xnw4ke0acu58uu6mmeg5feqlksa4mgnq"},{"txId":60180863,"txHash":"59df3147b4c98206b6cc82732c0f6d0798b4bc73c79d5c6ea52a9d6ccb17d843","txTime":"2023/01/21 00:21:25","block":8296421,"epoch":389,"slotNo":82694194,"epochSlotNo":9394,"stakeKey":"stake1u890alfvvz26vx6x0gh68959pk5h9m850g44nhnaurpca0gkavtph"},{"txId":60180627,"txHash":"c00e3fe67ebce8a19f08dd70c7f95a0fe076371a38cbbbc763bae7cab9c230da","txTime":"2023/01/21 00:18:17","block":8296410,"epoch":389,"slotNo":82694006,"epochSlotNo":9206,"stakeKey":"stake1u9gl4gt62lpmusyck54l8us6u7fnen9h8mq39k7lz33ndxchpn0yl"},{"txId":60180471,"txHash":"efb516bb8fffed62936c7618c17bb83d9400d530433dd471a96f7be4a54af2b2","txTime":"2023/01/21 00:16:34","block":8296407,"epoch":389,"slotNo":82693903,"epochSlotNo":9103,"stakeKey":"stake1uyrysvajze6qa3afcxuh0asjzrcznkm8w27hkusqs9nvwpqj2uzld"},{"txId":60180450,"txHash":"2c2e73ad862265bf62add630d50e04310174b1b6efd078b68bcb66541af07f28","txTime":"2023/01/21 00:16:13","block":8296406,"epoch":389,"slotNo":82693882,"epochSlotNo":9082,"stakeKey":"stake1ux9jsqx2m059awx5vze429z86ytesn6az2x354un778d0agms0yxl"},{"txId":60179874,"txHash":"1b742b34e8faee52f7dde54af9272ec98cd672938304de572069add1aff36d4f","txTime":"2023/01/21 00:08:46","block":8296389,"epoch":389,"slotNo":82693435,"epochSlotNo":8635,"stakeKey":"stake1u83umrm2haggcdulqggl8r49ssdq4rnasx44tkr74kxj0mgjsuxnr"},{"txId":60179475,"txHash":"cbc7b687329f8add496aba27d37aba14d010a5c5f86ed7baa2873b1948f4ee85","txTime":"2023/01/21 00:05:00","block":8296377,"epoch":389,"slotNo":82693209,"epochSlotNo":8409,"stakeKey":"stake1u8mxd0uvc28lpnppap0rjmggs4dsem7w55wcx2x4fe2h8ucjddyeu"},{"txId":60178145,"txHash":"838d06ec4af6d7de33cc3c7192a3a58bf747789908a1f6293b43196ae44f98a3","txTime":"2023/01/20 23:47:19","block":8296335,"epoch":389,"slotNo":82692148,"epochSlotNo":7348,"stakeKey":"stake1uyl487u0ln4ydxa8uk0y20af0mpqcuxhl84z2hek4l5xtfc634c8v"}],"totalItems":346352,"totalPages":17318,"currentPage":0}