{"data":[{"txId":56698468,"txHash":"fc32a6390328d89d7d8c03dcb2b89858814429c67d9fbcf62afaeadbcab34f0b","txTime":"2022/12/05 17:32:14","block":8101427,"epoch":379,"slotNo":78695243,"epochSlotNo":330443,"stakeKey":"stake1u8uymljt8tnzddw73tfd5s6u7yhjtsuu3rgunfudlvazskgacs8zg"},{"txId":56698213,"txHash":"1d7544a1abcd7efc11b0e5093f1e36324a9ace230aaf1e95d129dd8ca76d6dfd","txTime":"2022/12/05 17:27:11","block":8101416,"epoch":379,"slotNo":78694940,"epochSlotNo":330140,"stakeKey":"stake1u8uymljt8tnzddw73tfd5s6u7yhjtsuu3rgunfudlvazskgacs8zg"},{"txId":56698109,"txHash":"4fab4a131dfff258d20f7364c407c4b351df5fb0960a08b1c97529060622e074","txTime":"2022/12/05 17:24:59","block":8101407,"epoch":379,"slotNo":78694808,"epochSlotNo":330008,"stakeKey":"stake1uyl4uer6wvljrpw5eghtajjkxutykz2l2wqenhj4xggjjugmwflvt"},{"txId":56698061,"txHash":"e427ade24889a24aba4d4ca314818ea5e7f6da0fc3f366b8f6552ed6ea33021b","txTime":"2022/12/05 17:24:14","block":8101404,"epoch":379,"slotNo":78694763,"epochSlotNo":329963,"stakeKey":"stake1ux8hjyl7r5zn3vm5hm25t8q9nvnqle5vjhuv8gu79jmgzxg5wvmqy"},{"txId":56698005,"txHash":"fee72b24232875671191d2fb2af055b547f3f80bdb95891c7ce4a9c63baa1f8b","txTime":"2022/12/05 17:23:06","block":8101401,"epoch":379,"slotNo":78694695,"epochSlotNo":329895,"stakeKey":"stake1u8uymljt8tnzddw73tfd5s6u7yhjtsuu3rgunfudlvazskgacs8zg"},{"txId":56697808,"txHash":"2bf3136c7b8f80ddac67df29e9c20d93530d26986e886b2fbdcdc32d280806f0","txTime":"2022/12/05 17:19:32","block":8101387,"epoch":379,"slotNo":78694481,"epochSlotNo":329681,"stakeKey":"stake1uy02tuhwxpruu7du2z0qjl28jjm5dtwn56z3sxqj8nmlt4q2d0y5l"},{"txId":56697759,"txHash":"468b99289e95c586e878f540b3cbda5180a4bb41faf108a84f5e21ff36c09484","txTime":"2022/12/05 17:18:25","block":8101386,"epoch":379,"slotNo":78694414,"epochSlotNo":329614,"stakeKey":"stake1u8uymljt8tnzddw73tfd5s6u7yhjtsuu3rgunfudlvazskgacs8zg"},{"txId":56697322,"txHash":"6070cfec80abe58fb03b9b85fdf46b362da2c08514e42afdf073638e43feb245","txTime":"2022/12/05 17:09:45","block":8101363,"epoch":379,"slotNo":78693894,"epochSlotNo":329094,"stakeKey":"stake1u9l3kph9and0lu40hp2ryph5k2mc5xex0jjr3zgerzwy3gqtmhgj0"},{"txId":56697208,"txHash":"82fa6764588a7cf7986462e24b4cce32340332b0dea2af8fd8989d74215bb65e","txTime":"2022/12/05 17:07:40","block":8101358,"epoch":379,"slotNo":78693769,"epochSlotNo":328969,"stakeKey":"stake1u9fyuhsts8z9ssfq7exce0dwt4m8p8t650tmvdrm3ps90vqepp6vp"},{"txId":56697179,"txHash":"2f788d6f35e95541f8b197aeab42fc745b8cc878b8029f581b761bc0da634d01","txTime":"2022/12/05 17:06:09","block":8101355,"epoch":379,"slotNo":78693678,"epochSlotNo":328878,"stakeKey":"stake1uxnd3p6v86rqzx5hkf40uu8azkhrkawfpvznpua59yuda6gw42f0r"},{"txId":56696982,"txHash":"08730408822a2c33e87d7e3f31e8c534e2aed3cf9c10072eed9ee0add8403566","txTime":"2022/12/05 17:02:38","block":8101345,"epoch":379,"slotNo":78693467,"epochSlotNo":328667,"stakeKey":"stake1u8jct0268dwm7vuf4rurw5em5dn6s8yxeevt03lp8tgmvpqjcxkwt"},{"txId":56696681,"txHash":"40935155271a11d662bf1b9ca5fba3230224b727ea2e1561f1d62a7c98852999","txTime":"2022/12/05 16:57:02","block":8101329,"epoch":379,"slotNo":78693131,"epochSlotNo":328331,"stakeKey":"stake1u9z3gzjrs8vnvkcwcjwnlg033hgnuak929paezc6n4dvx9qs0ggm2"},{"txId":56696536,"txHash":"62bfab24709ef529c6aeec96f1e4a0ed1c413186c14ce9ba8f85428ed37dddb5","txTime":"2022/12/05 16:55:08","block":8101324,"epoch":379,"slotNo":78693017,"epochSlotNo":328217,"stakeKey":"stake1uylmmcwwcjps43le99pesndgfkvgsr7mujmhxdkv0truwac4a77yq"},{"txId":56696262,"txHash":"ed881704791f6ffef16695a331164bae5eac623e3af6826aa26a6aabd4200328","txTime":"2022/12/05 16:50:54","block":8101310,"epoch":379,"slotNo":78692763,"epochSlotNo":327963,"stakeKey":"stake1uxjyqefycwghztjgz93p7mg9w8z00wdmy8qqexzw76quv7qk5j8j3"},{"txId":56695901,"txHash":"ccac8de4b54fbd8b37d544b8f0f2ddfbb4591a629c9be5af5dcb4c83ed0079e1","txTime":"2022/12/05 16:43:30","block":8101297,"epoch":379,"slotNo":78692319,"epochSlotNo":327519,"stakeKey":"stake1uyhkww4u96ukhwj0h94huyejn68fz3sag5yhref59s7xyps692dfz"},{"txId":56695794,"txHash":"fc64e97e7d16bd803d428a25d7a9f5853c6e7d0b56ab02a4c328c7c91ffd7617","txTime":"2022/12/05 16:42:04","block":8101290,"epoch":379,"slotNo":78692233,"epochSlotNo":327433,"stakeKey":"stake1u8zjpj4h94685c5u73pce5xdsljy0xzcfr4qk6nlfv6ps2cfnzqdg"},{"txId":56694579,"txHash":"f06203e2e9dea6cbf46308fb61eddb61d0b316fa5fcdf75c48b77845174e1957","txTime":"2022/12/05 16:19:23","block":8101231,"epoch":379,"slotNo":78690872,"epochSlotNo":326072,"stakeKey":"stake1uykewyw3hvu3cacpqxwttg562x5dea07cutnjay0k94nf7gt6tpk4"},{"txId":56693433,"txHash":"abea03a9282eaabb1faa1ee7ddf5f6e15585ecbcad1c1192e044deafbd2200c0","txTime":"2022/12/05 15:58:21","block":8101165,"epoch":379,"slotNo":78689610,"epochSlotNo":324810,"stakeKey":"stake1uy5uthx6uahqt5wh9g96ajewvy7s8fyjh260l0sazwkt55qvtxla6"},{"txId":56693420,"txHash":"eb4edb1ec021a9b05ece4a3a4bf4b201c40b898ccd12473d9b46b781a68c95aa","txTime":"2022/12/05 15:57:11","block":8101164,"epoch":379,"slotNo":78689540,"epochSlotNo":324740,"stakeKey":"stake1u965srwwvpe7c8nxmvla6uxpq6x7clpdz5uy7drdajlcuws8h3d3y"},{"txId":56693391,"txHash":"7b2798905d8d6bca0a314ffe35c62e6248c29803f6cff3c456afad1d5080404b","txTime":"2022/12/05 15:57:08","block":8101163,"epoch":379,"slotNo":78689537,"epochSlotNo":324737,"stakeKey":"stake1u95309dwrzcq5y0aa6jd8uqwxqpckjk3druexjyglquq24qkfvjd2"}],"totalItems":335034,"totalPages":16752,"currentPage":0}