{"data":[{"no":422,"status":"IN_PROGRESS","blkCount":1522,"outSum":12941329731181118,"txCount":32864,"startTime":"2023/07/04 21:45:05","endTime":"2023/07/09 21:45:05","maxSlot":432000},{"no":421,"status":"REWARDING","blkCount":20907,"outSum":193876500831666334,"txCount":369999,"startTime":"2023/06/29 21:46:01","endTime":"2023/07/04 21:44:43","maxSlot":432000},{"no":420,"status":"REWARDING","blkCount":20649,"outSum":209606012392762274,"txCount":381428,"startTime":"2023/06/24 21:45:05","endTime":"2023/06/29 21:44:38","maxSlot":432000},{"no":419,"status":"FINISHED","blkCount":20685,"outSum":213187909625868447,"txCount":358311,"startTime":"2023/06/19 21:45:21","endTime":"2023/06/24 21:44:39","maxSlot":432000},{"no":418,"status":"FINISHED","blkCount":21066,"outSum":211945372457195257,"txCount":328689,"startTime":"2023/06/14 21:44:54","endTime":"2023/06/19 21:44:13","maxSlot":432000},{"no":417,"status":"FINISHED","blkCount":20947,"outSum":229341415829835756,"txCount":375738,"startTime":"2023/06/09 21:47:26","endTime":"2023/06/14 21:44:28","maxSlot":432000},{"no":416,"status":"FINISHED","blkCount":21143,"outSum":271718768316501847,"txCount":459276,"startTime":"2023/06/04 21:46:57","endTime":"2023/06/09 21:44:47","maxSlot":432000},{"no":415,"status":"FINISHED","blkCount":20820,"outSum":340656360587128774,"txCount":490273,"startTime":"2023/05/30 21:45:29","endTime":"2023/06/04 21:44:50","maxSlot":432000},{"no":414,"status":"FINISHED","blkCount":21215,"outSum":330158448807042729,"txCount":444338,"startTime":"2023/05/25 21:46:32","endTime":"2023/05/30 21:44:42","maxSlot":432000},{"no":413,"status":"FINISHED","blkCount":21252,"outSum":220004855460046356,"txCount":405070,"startTime":"2023/05/20 21:47:36","endTime":"2023/05/25 21:44:33","maxSlot":432000}],"totalItems":423,"totalPages":43,"currentPage":0}