{"data":[{"hash":"1699b6c9e12c3a6648cf8bbca859782ba1aff999ff0666e3801fffa480bd60fc","blockNo":8109959,"blockHash":"f7119853bfee9f567831ff760454c8b990643b7bec41b16f7310cb8578289afe","epochNo":380,"epochSlotNo":75074,"slot":78871874,"time":"2022/12/07 18:36:05","addressesInput":["addr1q82fpv0jls0ztk8ptsnjmmg70smzsa4lnsyzyy0xw8m2w5cf52kug6dpunmgf72lpys0kvwekexx4h8y2qlr9m3xs2hsf4p3j5"],"addressesOutput":["addr1q9awah0eh7tvv9dzlk820z7v9mqtyc4wxzyvvfnvw2eupgpnx83prkcwxaqzwctra8lm6nefhf77mhfyejk3ual902xqhwk420"],"fee":167467,"totalOutput":42168297,"tokens":[]},{"hash":"4a1d4fe9de8e7424b06f6f2d4739d8cb24b1ff3f8174e5a2ed7935df24148ad9","blockNo":8109959,"blockHash":"f7119853bfee9f567831ff760454c8b990643b7bec41b16f7310cb8578289afe","epochNo":380,"epochSlotNo":75074,"slot":78871874,"time":"2022/12/07 18:36:05","addressesInput":["addr1q9g9prgepmcp6nlmnw8psc2479gcxdce8zcf8kp5yenmnyy9hqtzur6ea0c2cufdpx5t24hltc6fxf3dth8qy9m49l4qez0dr4","addr1zxgx3far7qygq0k6epa0zcvcvrevmn0ypsnfsue94nsn3tvpw288a4x0xf8pxgcntelxmyclq83s0ykeehchz2wtspks905plm"],"addressesOutput":["addr1zxgx3far7qygq0k6epa0zcvcvrevmn0ypsnfsue94nsn3tvpw288a4x0xf8pxgcntelxmyclq83s0ykeehchz2wtspks905plm","addr1q9g9prgepmcp6nlmnw8psc2479gcxdce8zcf8kp5yenmnyy9hqtzur6ea0c2cufdpx5t24hltc6fxf3dth8qy9m49l4qez0dr4"],"fee":296972,"totalOutput":9190822,"tokens":[]},{"hash":"db71683da0bc1a320d4f2013dfa878376108545bce72f0cba486a1a92b03d0b8","blockNo":8109959,"blockHash":"f7119853bfee9f567831ff760454c8b990643b7bec41b16f7310cb8578289afe","epochNo":380,"epochSlotNo":75074,"slot":78871874,"time":"2022/12/07 18:36:05","addressesInput":["addr1vy2vxgnqfg0g0uedagk0ml7ld2kzga8pzqx6mf0uy4z8ksgke92x6","addr1v86kupvfxyge95pzn09ym2sptet57984cysrdc4dweylhvss9xryw"],"addressesOutput":["addr1q83f767p3zjl70lep3ee4umrjnsam5saaf89acqwv5s3rdl2t4pfakzkkmq8frdx8xnk2886mvf3zsdy00j4zk48yttqy0gx48","addr1v86kupvfxyge95pzn09ym2sptet57984cysrdc4dweylhvss9xryw"],"fee":226001,"totalOutput":33759313,"tokens":[]},{"hash":"474804547c0463cb48f59032485d6860b0061ce9da372fae1594d16d3a7a0407","blockNo":8109959,"blockHash":"f7119853bfee9f567831ff760454c8b990643b7bec41b16f7310cb8578289afe","epochNo":380,"epochSlotNo":75074,"slot":78871874,"time":"2022/12/07 18:36:05","addressesInput":["addr1qyrctj7pu7j5dfztmlx2srsmzfryhsmpmw0dh306npd9kv868x63phmusl2zfjj2mwanadqq9hfxvmvz8lqrjvrt32dstd2h7g","addr1qyrctj7pu7j5dfztmlx2srsmzfryhsmpmw0dh306npd9kv868x63phmusl2zfjj2mwanadqq9hfxvmvz8lqrjvrt32dstd2h7g"],"addressesOutput":["addr1zxgx3far7qygq0k6epa0zcvcvrevmn0ypsnfsue94nsn3tvpw288a4x0xf8pxgcntelxmyclq83s0ykeehchz2wtspks905plm","addr1qyrctj7pu7j5dfztmlx2srsmzfryhsmpmw0dh306npd9kv868x63phmusl2zfjj2mwanadqq9hfxvmvz8lqrjvrt32dstd2h7g","addr1qyrctj7pu7j5dfztmlx2srsmzfryhsmpmw0dh306npd9kv868x63phmusl2zfjj2mwanadqq9hfxvmvz8lqrjvrt32dstd2h7g","addr1qyrctj7pu7j5dfztmlx2srsmzfryhsmpmw0dh306npd9kv868x63phmusl2zfjj2mwanadqq9hfxvmvz8lqrjvrt32dstd2h7g","addr1qyrctj7pu7j5dfztmlx2srsmzfryhsmpmw0dh306npd9kv868x63phmusl2zfjj2mwanadqq9hfxvmvz8lqrjvrt32dstd2h7g"],"fee":273081,"totalOutput":23847415,"tokens":[]},{"hash":"2fd747840ee668172fcf84b7318254daa21e0f20aacb3d8c8f2c726240afdf31","blockNo":8109959,"blockHash":"f7119853bfee9f567831ff760454c8b990643b7bec41b16f7310cb8578289afe","epochNo":380,"epochSlotNo":75074,"slot":78871874,"time":"2022/12/07 18:36:05","addressesInput":["addr1q9zuceym5ulk4pue7a5nmevvvpzpc3c5sz7nx67xmzxe2khtycuxpknfeuvqz6djxx4u2e8njdcjen8cfwt27k5lujaq7u0tpf","addr1q9zuceym5ulk4pue7a5nmevvvpzpc3c5sz7nx67xmzxe2khtycuxpknfeuvqz6djxx4u2e8njdcjen8cfwt27k5lujaq7u0tpf","addr1q9zuceym5ulk4pue7a5nmevvvpzpc3c5sz7nx67xmzxe2khtycuxpknfeuvqz6djxx4u2e8njdcjen8cfwt27k5lujaq7u0tpf"],"addressesOutput":["addr1zxgx3far7qygq0k6epa0zcvcvrevmn0ypsnfsue94nsn3tvpw288a4x0xf8pxgcntelxmyclq83s0ykeehchz2wtspks905plm","addr1q9zuceym5ulk4pue7a5nmevvvpzpc3c5sz7nx67xmzxe2khtycuxpknfeuvqz6djxx4u2e8njdcjen8cfwt27k5lujaq7u0tpf","addr1q9zuceym5ulk4pue7a5nmevvvpzpc3c5sz7nx67xmzxe2khtycuxpknfeuvqz6djxx4u2e8njdcjen8cfwt27k5lujaq7u0tpf"],"fee":237001,"totalOutput":58847859,"tokens":[]},{"hash":"3c16f643cfb7ef5baaeb7b54bf19b201fe35d1952226eaef6ab39a4a97aedf70","blockNo":8109959,"blockHash":"f7119853bfee9f567831ff760454c8b990643b7bec41b16f7310cb8578289afe","epochNo":380,"epochSlotNo":75074,"slot":78871874,"time":"2022/12/07 18:36:05","addressesInput":["addr1qycdkw3eutrqw0qdqgsdsm2afus5c9mdz0qc9asdmjy8m67td2nmnz2h3kj8u5dfm2klsarx5506c66eupfxfllu8aqs2y9pes","addr1qycdkw3eutrqw0qdqgsdsm2afus5c9mdz0qc9asdmjy8m67td2nmnz2h3kj8u5dfm2klsarx5506c66eupfxfllu8aqs2y9pes"],"addressesOutput":["addr1wxaptpmxcxawvr3pzlhgnpmzz3ql43n2tc8mn3av5kx0yzs09tqh8","addr1qycdkw3eutrqw0qdqgsdsm2afus5c9mdz0qc9asdmjy8m67td2nmnz2h3kj8u5dfm2klsarx5506c66eupfxfllu8aqs2y9pes","addr1qycdkw3eutrqw0qdqgsdsm2afus5c9mdz0qc9asdmjy8m67td2nmnz2h3kj8u5dfm2klsarx5506c66eupfxfllu8aqs2y9pes"],"fee":256229,"totalOutput":18203223,"tokens":[]},{"hash":"69e991d9a5869e744b3cd8b82f026d16bda392a40271f2f132c327d6f2fc14fe","blockNo":8109959,"blockHash":"f7119853bfee9f567831ff760454c8b990643b7bec41b16f7310cb8578289afe","epochNo":380,"epochSlotNo":75074,"slot":78871874,"time":"2022/12/07 18:36:05","addressesInput":["addr1qyjy33752vm4xkwthu6xxyutauwyxqpck9afzfjltyt8lc3yfrrag5eh2dvuh0e5vvfchmcugvqr3vt6jyn97kgk0l3qpmncm6","addr1qyjy33752vm4xkwthu6xxyutauwyxqpck9afzfjltyt8lc3yfrrag5eh2dvuh0e5vvfchmcugvqr3vt6jyn97kgk0l3qpmncm6"],"addressesOutput":["addr1qyjy33752vm4xkwthu6xxyutauwyxqpck9afzfjltyt8lc3yfrrag5eh2dvuh0e5vvfchmcugvqr3vt6jyn97kgk0l3qpmncm6","addr1qyjy33752vm4xkwthu6xxyutauwyxqpck9afzfjltyt8lc3yfrrag5eh2dvuh0e5vvfchmcugvqr3vt6jyn97kgk0l3qpmncm6"],"fee":233854,"totalOutput":16048837137,"tokens":[]},{"hash":"1938bf3fb6febe2bbb5df503df744057d420c2cc2d1019515c95102cf79ccda3","blockNo":8109959,"blockHash":"f7119853bfee9f567831ff760454c8b990643b7bec41b16f7310cb8578289afe","epochNo":380,"epochSlotNo":75074,"slot":78871874,"time":"2022/12/07 18:36:05","addressesInput":["addr1q9cz9dzm0xqd3rjseymkses9t2zfvedn5k92fpqfhwjg5svkcz5j7x4fw2474vzegw8kvrsyynw7qrgzr8ma93kr29gsa3cn0x"],"addressesOutput":["addr1vys29q4xtlpdw6uk0cndqhc7uj22zmum54598rhaqfq8p6ck8nx20","addr1q95nz3zns30gkxqq579sakx5cl604464932vrdzj2xwhm4ukcz5j7x4fw2474vzegw8kvrsyynw7qrgzr8ma93kr29gspqcuq3"],"fee":190317,"totalOutput":27676952,"tokens":[]},{"hash":"8beccbb971fcf12d869add53d971f0bfc6ab9a3e455f222f04925effef94a943","blockNo":8109959,"blockHash":"f7119853bfee9f567831ff760454c8b990643b7bec41b16f7310cb8578289afe","epochNo":380,"epochSlotNo":75074,"slot":78871874,"time":"2022/12/07 18:36:05","addressesInput":["addr1v9u7va2sktlnz8dp3qadpnxxlv4m03672jy6elmntlxxs7q9nnwl9"],"addressesOutput":["addr1q82ksh32uryy5rvglw8kmrpdk3hlmlecpchc4n07e59kjm3xfyxpv3lda5rwq2mfzv3ddw9vp79w2lt0z85zelphy3ksrexu98","addr1v9u7va2sktlnz8dp3qadpnxxlv4m03672jy6elmntlxxs7q9nnwl9"],"fee":171221,"totalOutput":494442234,"tokens":[]},{"hash":"fa96efe018f73a2e8aa39bcdce02842cf2fa7b802aa38927bcf3ac2b446af42d","blockNo":8109959,"blockHash":"f7119853bfee9f567831ff760454c8b990643b7bec41b16f7310cb8578289afe","epochNo":380,"epochSlotNo":75074,"slot":78871874,"time":"2022/12/07 18:36:05","addressesInput":["addr1vy4gjklyep5dcwetrf85rpjtrzgav9kh5wpftjkqvccjpccd6umzq"],"addressesOutput":["addr1q9fccawh4gy45aepvduqcxvcntjphyx3s86kcm97sc0px6tq6rt9dw8vva7nwtthzrs87pe30s2fnayj6t5vr0f048wsvqt8ww","addr1vxrmu3m2cc5k6xltupj86a2uzcuq8r4nhznrhfq0pkwl4hgqj2v8w","addr1qy6us0mnarpls4j52pyesveds0e7agv9l4trhl7tm9sp2td082zqfz322sdx3d965j7nug905n4ca0luugj6nfu7ntsq5uqa8t","addr1q9sqymdugqd5wm9my2qmwgghm4avpz927gc29pzmtqx387zjh7d0zdcyzaycstmy0gefdq3qgl2vxqh3enxcerjhf6dsem5ral","addr1qyejs52qysry8vhjj64d7qggddhfy3lwwwypeun72vh02xcs4jjeudjmcee8zm6700znkuge5h53z6p35yy4nzjc308svnckkv"],"fee":391969,"totalOutput":349608031,"tokens":[]},{"hash":"f886720a9bced039842580421faeab766534b08c752ebe3ab5fbe2e48b3dde64","blockNo":8109959,"blockHash":"f7119853bfee9f567831ff760454c8b990643b7bec41b16f7310cb8578289afe","epochNo":380,"epochSlotNo":75074,"slot":78871874,"time":"2022/12/07 18:36:05","addressesInput":["addr1q8vkcw4dl0j8cflrgyhecz0vfwchudw7yn2z7kzyy4p6s9907j5ewg7s2rcn5c93uk4mfsrz8awh025ksgaw5dv6pr6qum98ky"],"addressesOutput":["addr1qxy7pctsdudcy4rqh4ye2nxqfkk4zk09ytnyngddzlee3pnmll3euug3aqdy4m24tkuxn6gk4zhzgugyrxgn0r2u03yq563vjw","addr1q9xj8dhq09u7v2ky97xkgms58jtc8thtpn9s4gjvl9ht4qa07j5ewg7s2rcn5c93uk4mfsrz8awh025ksgaw5dv6pr6q7n8qhd","addr1q9xj8dhq09u7v2ky97xkgms58jtc8thtpn9s4gjvl9ht4qa07j5ewg7s2rcn5c93uk4mfsrz8awh025ksgaw5dv6pr6q7n8qhd","addr1q9xj8dhq09u7v2ky97xkgms58jtc8thtpn9s4gjvl9ht4qa07j5ewg7s2rcn5c93uk4mfsrz8awh025ksgaw5dv6pr6q7n8qhd"],"fee":251257,"totalOutput":18188830,"tokens":[]},{"hash":"c33d860a6b9cf9b1b48814f12eadee9c3aafe9eee799f5ce65c590b956008b69","blockNo":8109959,"blockHash":"f7119853bfee9f567831ff760454c8b990643b7bec41b16f7310cb8578289afe","epochNo":380,"epochSlotNo":75074,"slot":78871874,"time":"2022/12/07 18:36:05","addressesInput":["addr1qx5f5lq2zf7z9s8yfwqgrh2pavmuw0ud9p958dpnmlg890vdr0esa2whkw7syy52gzcj0e8nm0l0lqm74quh3sn2hr3snv0y2f"],"addressesOutput":["addr1q9jd4jyp33tz5y5xh6pkd85mgm8nul2w6rvazwqhngsgsphygrhh9e4eh8u0p649l8f4j6t3fmn0g630a52ady6rnz2sed4pcl","addr1qxqq82ftxfgshsq8vqwv93tcf4udp7cv2d0w73c58ywf8xvdr0esa2whkw7syy52gzcj0e8nm0l0lqm74quh3sn2hr3s9w2k9m","addr1qxqq82ftxfgshsq8vqwv93tcf4udp7cv2d0w73c58ywf8xvdr0esa2whkw7syy52gzcj0e8nm0l0lqm74quh3sn2hr3s9w2k9m","addr1qxqq82ftxfgshsq8vqwv93tcf4udp7cv2d0w73c58ywf8xvdr0esa2whkw7syy52gzcj0e8nm0l0lqm74quh3sn2hr3s9w2k9m","addr1qxqq82ftxfgshsq8vqwv93tcf4udp7cv2d0w73c58ywf8xvdr0esa2whkw7syy52gzcj0e8nm0l0lqm74quh3sn2hr3s9w2k9m"],"fee":176897,"totalOutput":1312169558,"tokens":[]},{"hash":"8961c6c71e2bc9508d8e8268e9c319b208ea1987530a9139f4002ce2471ad6e3","blockNo":8109959,"blockHash":"f7119853bfee9f567831ff760454c8b990643b7bec41b16f7310cb8578289afe","epochNo":380,"epochSlotNo":75074,"slot":78871874,"time":"2022/12/07 18:36:05","addressesInput":["addr1qyc9pah56kvpwj9u8g4cfkqktvsvzq982ptmvkfmalvny0x9ehyeg2d5eeje7f2zn9xy3dkgq8ct3csu5la4scex54zsnyw6s2","addr1qyc9pah56kvpwj9u8g4cfkqktvsvzq982ptmvkfmalvny0x9ehyeg2d5eeje7f2zn9xy3dkgq8ct3csu5la4scex54zsnyw6s2"],"addressesOutput":["addr1wxaptpmxcxawvr3pzlhgnpmzz3ql43n2tc8mn3av5kx0yzs09tqh8","addr1qyc9pah56kvpwj9u8g4cfkqktvsvzq982ptmvkfmalvny0x9ehyeg2d5eeje7f2zn9xy3dkgq8ct3csu5la4scex54zsnyw6s2"],"fee":179229,"totalOutput":2313350111,"tokens":[]},{"hash":"60fb6b3ab81c8801ed0c8e25f122fdb87ec4eecc030794100f48f2ed034e85ab","blockNo":8109959,"blockHash":"f7119853bfee9f567831ff760454c8b990643b7bec41b16f7310cb8578289afe","epochNo":380,"epochSlotNo":75074,"slot":78871874,"time":"2022/12/07 18:36:05","addressesInput":["addr1qyht4ja0zcn45qvyx477qlyp6j5ftu5ng0prt9608dxp6l2j2c79gy9l76sdg0xwhd7r0c0kna0tycz4y5s6mlenh8pq4jxtdy","addr1wxn9efv2f6w82hagxqtn62ju4m293tqvw0uhmdl64ch8uwc0h43gt","addr1z8snz7c4974vzdpxu65ruphl3zjdvtxw8strf2c2tmqnxz2j2c79gy9l76sdg0xwhd7r0c0kna0tycz4y5s6mlenh8pq0xmsha","addr1wxn9efv2f6w82hagxqtn62ju4m293tqvw0uhmdl64ch8uwc0h43gt","addr1qyht4ja0zcn45qvyx477qlyp6j5ftu5ng0prt9608dxp6l2j2c79gy9l76sdg0xwhd7r0c0kna0tycz4y5s6mlenh8pq4jxtdy"],"addressesOutput":["addr1qyht4ja0zcn45qvyx477qlyp6j5ftu5ng0prt9608dxp6l2j2c79gy9l76sdg0xwhd7r0c0kna0tycz4y5s6mlenh8pq4jxtdy","addr1qyht4ja0zcn45qvyx477qlyp6j5ftu5ng0prt9608dxp6l2j2c79gy9l76sdg0xwhd7r0c0kna0tycz4y5s6mlenh8pq4jxtdy","addr1qxgmgwuppy69x662kch7ktxkrf3gtf98jcxx0g0ke4sxnmteqh7r28gqmycgjtxxwhwldafjd8a8h8ezx6th3rt7nrxq2ury5y","addr1qyc9pah56kvpwj9u8g4cfkqktvsvzq982ptmvkfmalvny0x9ehyeg2d5eeje7f2zn9xy3dkgq8ct3csu5la4scex54zsnyw6s2","addr1z8snz7c4974vzdpxu65ruphl3zjdvtxw8strf2c2tmqnxz2j2c79gy9l76sdg0xwhd7r0c0kna0tycz4y5s6mlenh8pq0xmsha"],"fee":885599,"totalOutput":15487053929,"tokens":[]},{"hash":"c133895e7d7b6ec92e6bd8c3484fcfce78c93295a1b57727cb3b42859b9a8bfd","blockNo":8109959,"blockHash":"f7119853bfee9f567831ff760454c8b990643b7bec41b16f7310cb8578289afe","epochNo":380,"epochSlotNo":75074,"slot":78871874,"time":"2022/12/07 18:36:05","addressesInput":["addr1qxtvwhlk9fq9k964ny97ntyq4nm5f9veueprx0mx4087dqelk9z8fr90xpznsusg3wysvj9gahe2046hwdruaejmjz8q7mj3wn"],"addressesOutput":["addr1qx22d7d29sg8c0jl7qxmc74sng3zhr6sdgd8hph278ujn3yqsvhzgpr6u90407c8p9qkma5rjmtgr8w33z2c9wzuu2eqlrjes3"],"fee":168582,"totalOutput":43630000,"tokens":[]},{"hash":"1e52db58b6bd0572a0d47342f47e5f54f98000816d09175a1e20473aaa6047cd","blockNo":8109959,"blockHash":"f7119853bfee9f567831ff760454c8b990643b7bec41b16f7310cb8578289afe","epochNo":380,"epochSlotNo":75074,"slot":78871874,"time":"2022/12/07 18:36:05","addressesInput":["addr1zxgx3far7qygq0k6epa0zcvcvrevmn0ypsnfsue94nsn3tvpw288a4x0xf8pxgcntelxmyclq83s0ykeehchz2wtspks905plm","addr1q9ws63pp0t08hvugq3zhr330n3362ru3prv46s3vkcq384fhml32kcea3c5jy8xm69jea9zpdwx28ddnnrrayal99j7qz3w4pj"],"addressesOutput":["addr1zxgx3far7qygq0k6epa0zcvcvrevmn0ypsnfsue94nsn3tvpw288a4x0xf8pxgcntelxmyclq83s0ykeehchz2wtspks905plm","addr1q9ws63pp0t08hvugq3zhr330n3362ru3prv46s3vkcq384fhml32kcea3c5jy8xm69jea9zpdwx28ddnnrrayal99j7qz3w4pj"],"fee":296884,"totalOutput":82278720,"tokens":[]},{"hash":"e4e4e5bfe854ea1cce645b40da86abdac717047ce690706fe05163e2138bfdd5","blockNo":8109959,"blockHash":"f7119853bfee9f567831ff760454c8b990643b7bec41b16f7310cb8578289afe","epochNo":380,"epochSlotNo":75074,"slot":78871874,"time":"2022/12/07 18:36:05","addressesInput":["addr1qy7y5kpg7h8x9cq8whm7a09vhcu8zn63j32yan5w7mkyz6cqlnus7yj7z2admm7pe6j2ts6nze6jnspryf0at5gv2d0q2as0d4"],"addressesOutput":["addr1q9p8thkwtgnznlzkg6g92437xuh33e3gfcutx22z5z3236qqlnus7yj7z2admm7pe6j2ts6nze6jnspryf0at5gv2d0q6d2v7n"],"fee":171749,"totalOutput":166660230159,"tokens":[]},{"hash":"d3ef35b43cada53b2c1fb0c930cc98eb579df21068adfed94015c6bd302e515f","blockNo":8109959,"blockHash":"f7119853bfee9f567831ff760454c8b990643b7bec41b16f7310cb8578289afe","epochNo":380,"epochSlotNo":75074,"slot":78871874,"time":"2022/12/07 18:36:05","addressesInput":["addr1qy0vwe0wvaty2ae7n3nwfszygd53zvazhk82mnvzzqnlfztmzfy8p622feul9ucz2yq0258n52nl2h00mxuycyfcp4fq8jm5me","addr1qy0vwe0wvaty2ae7n3nwfszygd53zvazhk82mnvzzqnlfztmzfy8p622feul9ucz2yq0258n52nl2h00mxuycyfcp4fq8jm5me"],"addressesOutput":["addr1zxgx3far7qygq0k6epa0zcvcvrevmn0ypsnfsue94nsn3tvpw288a4x0xf8pxgcntelxmyclq83s0ykeehchz2wtspks905plm","addr1qy0vwe0wvaty2ae7n3nwfszygd53zvazhk82mnvzzqnlfztmzfy8p622feul9ucz2yq0258n52nl2h00mxuycyfcp4fq8jm5me"],"fee":346913,"totalOutput":29132117,"tokens":[]},{"hash":"223b5416dcf5238fcd9b029f051931cf36ca05c0f2d58ca9f12eed73a2accbb1","blockNo":8109959,"blockHash":"f7119853bfee9f567831ff760454c8b990643b7bec41b16f7310cb8578289afe","epochNo":380,"epochSlotNo":75074,"slot":78871874,"time":"2022/12/07 18:36:05","addressesInput":["addr1q9ll9pqu7q6rmz9zuz0p8gypn9ha3dlpecnzcwyz46svxmfkd2xetpc9gtqz2khjcxwgl79eflpsxqlrd0ultca0gngqztuy53"],"addressesOutput":["addr1vyjdya9lmyfmysdgej3qc6thwat33lwm3umk8uwnvhy9g3gzvd2jp","addr1q9ll9pqu7q6rmz9zuz0p8gypn9ha3dlpecnzcwyz46svxmfkd2xetpc9gtqz2khjcxwgl79eflpsxqlrd0ultca0gngqztuy53","addr1q9ll9pqu7q6rmz9zuz0p8gypn9ha3dlpecnzcwyz46svxmfkd2xetpc9gtqz2khjcxwgl79eflpsxqlrd0ultca0gngqztuy53","addr1q9ll9pqu7q6rmz9zuz0p8gypn9ha3dlpecnzcwyz46svxmfkd2xetpc9gtqz2khjcxwgl79eflpsxqlrd0ultca0gngqztuy53","addr1q9ll9pqu7q6rmz9zuz0p8gypn9ha3dlpecnzcwyz46svxmfkd2xetpc9gtqz2khjcxwgl79eflpsxqlrd0ultca0gngqztuy53"],"fee":175665,"totalOutput":292023271,"tokens":[]},{"hash":"c7345df3704e2182c598fa40138599681b4e1f2fec43e220375ca42ef86ebb11","blockNo":8109959,"blockHash":"f7119853bfee9f567831ff760454c8b990643b7bec41b16f7310cb8578289afe","epochNo":380,"epochSlotNo":75074,"slot":78871874,"time":"2022/12/07 18:36:05","addressesInput":["addr1v972ze6ccl0jum3jpfklp0tnl9x3sm6q9ywm0jugxpy7g9gddxpmu","addr1vxllqy9ngsrf5tuclw69l27sm9hlplx7eyt9gqtc86qujtgrpnjxy","addr1vx33akl7f7me62870v7t6vq9fdwt52np2rrvf7yrgrxkf0q6qhzwe","addr1vxudw0wknpxy9fdpva3qcanxjeqzq7qdq3k29gcksu4460qkzt2f0","addr1v9derlkwqz9gq8zs08mqcl48lmuh7xvjncef7cgfdxhwscg66txdr","addr1vx7nxwj66szcpzquy0v3s32nv6eu8zk82q0nyeg83tx5eustkdth2","addr1vyc7ca9flp5gfeapd78uxzzq7l6qnsytj85n62lr5smhgssen2u2s","addr1v9gx6wckvg4ufu0npd5g5j93fhtaa5zdeau549cagp6wyzcd7nku5","addr1vy40hvsd7xwvphq6kvap8lgkf46n950nqlahj2qwnvnkfvchhxp8x","addr1v824s00r6sh8qh74ndwy3mxggh3e4aaewrwculww44x7frc4nmw4w","addr1vynhj44dcz24g52fadv2x2fjmur5wz0rzhm6pqeuffh6zgq697d03"],"addressesOutput":["addr1vxudw0wknpxy9fdpva3qcanxjeqzq7qdq3k29gcksu4460qkzt2f0","addr1vx7nxwj66szcpzquy0v3s32nv6eu8zk82q0nyeg83tx5eustkdth2","addr1v972ze6ccl0jum3jpfklp0tnl9x3sm6q9ywm0jugxpy7g9gddxpmu","addr1v9derlkwqz9gq8zs08mqcl48lmuh7xvjncef7cgfdxhwscg66txdr","addr1vx33akl7f7me62870v7t6vq9fdwt52np2rrvf7yrgrxkf0q6qhzwe","addr1v9gx6wckvg4ufu0npd5g5j93fhtaa5zdeau549cagp6wyzcd7nku5","addr1v824s00r6sh8qh74ndwy3mxggh3e4aaewrwculww44x7frc4nmw4w","addr1vxllqy9ngsrf5tuclw69l27sm9hlplx7eyt9gqtc86qujtgrpnjxy","addr1vynhj44dcz24g52fadv2x2fjmur5wz0rzhm6pqeuffh6zgq697d03","addr1vy40hvsd7xwvphq6kvap8lgkf46n950nqlahj2qwnvnkfvchhxp8x","addr1qxm2y24rz4q5hlj6jwq2ttphkyfeg7mdk5kn6f8juf4xf09qvf8zj2ffm06sgpzvdscgqw96h7fqs7tcaqlw8dwl44ks577kge"],"fee":349553,"totalOutput":18422238,"tokens":[]}],"totalItems":56209501,"totalPages":2810476,"currentPage":0}