{"data":[{"hash":"2d9b9bc779011d5a8ea83f8adcddf5d8d6c68fdb3e3d4c008b7eeb80e3612212","blockNo":6852396,"blockHash":"8c785aba09b28bd8d1f765de4ff73590a99fc46719a633d54ba682bc9c683b9f","epochNo":319,"epochSlotNo":219166,"slot":52663966,"time":"2022/02/07 10:37:37","addressesInput":["addr1qym370hvkx3ux930kp9p95cnjnrweazg2xuu96a8cltf4xfuxuaatsn65yxgt2jwthwshavzu5h4mn5jtl8zq5se362s9zj7dv"],"addressesOutput":["addr1v9peuu5a962f3x2xsqeftp69t4lw9qzyn45qzjuprdu7gdcq0djlm","addr1q9tdqccqwe4vz0r2t3knhasp5guq8gmhhlpwjdv8ye00jkfuxuaatsn65yxgt2jwthwshavzu5h4mn5jtl8zq5se362s62ht6z"],"fee":167041,"totalOutput":14155623,"tokens":[]},{"hash":"292bcb1622b6644383568dc277d17699bc27dab874f03114b018d424d25c1f37","blockNo":6852396,"blockHash":"8c785aba09b28bd8d1f765de4ff73590a99fc46719a633d54ba682bc9c683b9f","epochNo":319,"epochSlotNo":219166,"slot":52663966,"time":"2022/02/07 10:37:37","addressesInput":["addr1q9v5c8grhg3aw89cc5ejgdw8wlcjeqv8faj3ts4d778vg7v7uknv3zs068l2c4rva4672uklck25d8dd3cksajgclj7qm8w5j5"],"addressesOutput":["addr1v85jrdm9wfdlx4jk9xcexrltr7c457ac40qk222pk28wlkscvn58t","addr1qy97kmk4avq7cc82pf6h2h3cfxgv0q88vv97wy7j6vyap857uknv3zs068l2c4rva4672uklck25d8dd3cksajgclj7q2xwr3m"],"fee":176677,"totalOutput":1040780217,"tokens":[]},{"hash":"a9a21d7a3cd1ed72e528849252a7d37f524529370376de90fd7a7d9b1bf2593c","blockNo":6852396,"blockHash":"8c785aba09b28bd8d1f765de4ff73590a99fc46719a633d54ba682bc9c683b9f","epochNo":319,"epochSlotNo":219166,"slot":52663966,"time":"2022/02/07 10:37:37","addressesInput":["addr1q8f95e56snnusnyj4axm2w4up4qqjx7p6jttcsm4afe3hxercpvjjhygw7xqq24ukqmz9pp65tnfjtsmms4th3a9m5cszmma46"],"addressesOutput":["addr1qye8a20ey8rcns9ushfyhwqwvuuzkc8ke6asgu8kw75ju2frcpvjjhygw7xqq24ukqmz9pp65tnfjtsmms4th3a9m5csxnyq3m"],"fee":172805,"totalOutput":3134761144,"tokens":[]},{"hash":"0bd84a03243cce84891edbf2839f176c3a2f79c5c6fe5b4cf0e23e09497c6383","blockNo":6852396,"blockHash":"8c785aba09b28bd8d1f765de4ff73590a99fc46719a633d54ba682bc9c683b9f","epochNo":319,"epochSlotNo":219166,"slot":52663966,"time":"2022/02/07 10:37:37","addressesInput":["addr1q9uxdn8n23267jk67q2en30q5sxw65keumrg3mgyfgwemflqnujvwn259gfphyqcmpnzy2rwyrutfzzvdpn6a00mpkzsccqsr9"],"addressesOutput":["addr1w999n67e86jn6xal07pzxtrmqynspgx0fwmcmpua4wc6yzsxpljz3","addr1q9uxdn8n23267jk67q2en30q5sxw65keumrg3mgyfgwemflqnujvwn259gfphyqcmpnzy2rwyrutfzzvdpn6a00mpkzsccqsr9"],"fee":279303,"totalOutput":38689260,"tokens":[]},{"hash":"bde447f3db0422aedf69f0082442dee4ac2454f4c1a14ae63dc5fd5dc6bfe72f","blockNo":6852396,"blockHash":"8c785aba09b28bd8d1f765de4ff73590a99fc46719a633d54ba682bc9c683b9f","epochNo":319,"epochSlotNo":219166,"slot":52663966,"time":"2022/02/07 10:37:37","addressesInput":["addr1qyglmpnv2rlvqzc88ns0ym0d2ueksfuuae4wajkk60jvacy8zu9v6zls3l4lgrcqu2qvclsulehx9nw3wcn3ssg3s8wqpudhty","addr1w999n67e86jn6xal07pzxtrmqynspgx0fwmcmpua4wc6yzsxpljz3"],"addressesOutput":["addr1q9cwvremt6n320s2e3agq0jyq82yhrk3htsu0w426xnz5us70z4w0jgvcdkkynmm8wmds66jd9kusnjfpu6raw5fqp0sr07p5w","addr1q99ne3mt67q2ardhldr27xt45tdmxw3l0dwm50mdctr0vqjgsz4nsx9psfkplklt2lzcyh6tw6fjrt4p2wmg6rd2wssqmzwf28","addr1qyxcrreestr52h6meptvgh583yr3wv5t6e9pqhluu6fp9qdfvy63h5k6amdud0uxv88etncnr3cz2vdfenwth76rmapq3vmjg9","addr1qyglmpnv2rlvqzc88ns0ym0d2ueksfuuae4wajkk60jvacy8zu9v6zls3l4lgrcqu2qvclsulehx9nw3wcn3ssg3s8wqpudhty","addr1qyglmpnv2rlvqzc88ns0ym0d2ueksfuuae4wajkk60jvacy8zu9v6zls3l4lgrcqu2qvclsulehx9nw3wcn3ssg3s8wqpudhty"],"fee":1179111,"totalOutput":837456135,"tokens":[]},{"hash":"c5af530d0d7deea3ea64750171151db498188b647e73448af5aecbea7e71cd2a","blockNo":6852396,"blockHash":"8c785aba09b28bd8d1f765de4ff73590a99fc46719a633d54ba682bc9c683b9f","epochNo":319,"epochSlotNo":219166,"slot":52663966,"time":"2022/02/07 10:37:37","addressesInput":["addr1q8x9kylx0uwsyt86vgmt9an24yt3m3cmrpl0gl0dvuw8gtp66se20umaugn7q92lmjghdngajsvvalpk5g4p28fykkvspmzhwj","addr1q8x9kylx0uwsyt86vgmt9an24yt3m3cmrpl0gl0dvuw8gtp66se20umaugn7q92lmjghdngajsvvalpk5g4p28fykkvspmzhwj"],"addressesOutput":["addr1wxaptpmxcxawvr3pzlhgnpmzz3ql43n2tc8mn3av5kx0yzs09tqh8","addr1q8x9kylx0uwsyt86vgmt9an24yt3m3cmrpl0gl0dvuw8gtp66se20umaugn7q92lmjghdngajsvvalpk5g4p28fykkvspmzhwj"],"fee":212441,"totalOutput":8948182,"tokens":[]},{"hash":"34900a4a0f5f0c5f179147fdf289cc04c80e825226714d64c05f337e013adabd","blockNo":6852396,"blockHash":"8c785aba09b28bd8d1f765de4ff73590a99fc46719a633d54ba682bc9c683b9f","epochNo":319,"epochSlotNo":219166,"slot":52663966,"time":"2022/02/07 10:37:37","addressesInput":["addr1qy6xf59e4ljxv8xfrtsa8m02qmqplkwvnq80hlj5u0keww44dd4l7hfgmctzrah6cr4haxwycjh3nulhnu9kdmpuvplq9vnwta"],"addressesOutput":["addr1v865khva5mk6fhu8zh85eclmgrysjevqj468hgqtpslf6yqyk4aqp","addr1qy6xf59e4ljxv8xfrtsa8m02qmqplkwvnq80hlj5u0keww44dd4l7hfgmctzrah6cr4haxwycjh3nulhnu9kdmpuvplq9vnwta","addr1qy6xf59e4ljxv8xfrtsa8m02qmqplkwvnq80hlj5u0keww44dd4l7hfgmctzrah6cr4haxwycjh3nulhnu9kdmpuvplq9vnwta"],"fee":198369,"totalOutput":48347947,"tokens":[]},{"hash":"17cc1b0c443da79f763cedcad22df9560af347a55be0f9196e1f75a8642da377","blockNo":6852396,"blockHash":"8c785aba09b28bd8d1f765de4ff73590a99fc46719a633d54ba682bc9c683b9f","epochNo":319,"epochSlotNo":219166,"slot":52663966,"time":"2022/02/07 10:37:37","addressesInput":["addr1qx7802cdpc9kfhz027g2l6x2rjly3txuelahwd6l92zq0lfvep55nfane06hggrc2gvnpdj4gcf26kzhkd3fs874hzhswhq3ne"],"addressesOutput":["DdzFFzCqrht8v9XrqR5KPXdjGhSw6wtFx6xRwhF7tXLuyC2JGUAAwSLiusiWcN7SSN9Gqy2Gd9sdcoKmYwdrJxYnJPa88vjZjkiF9Mdf","addr1q886g2f9k4s536swn7vqtkle73q9udwlavf37h3k6g2ptmevep55nfane06hggrc2gvnpdj4gcf26kzhkd3fs874hzhs3r9a4k"],"fee":169857,"totalOutput":347939619093,"tokens":[]},{"hash":"a886bfcc8e0434ad38b9245a9fe61c9d46655891ee0c151c173caab537a44411","blockNo":6852396,"blockHash":"8c785aba09b28bd8d1f765de4ff73590a99fc46719a633d54ba682bc9c683b9f","epochNo":319,"epochSlotNo":219166,"slot":52663966,"time":"2022/02/07 10:37:37","addressesInput":["Ae2tdPwUPEZLZzVw7CEXcY5iSaPcoCExpra7bXX1emhJmvLLrCKQMr8dFaE"],"addressesOutput":["DdzFFzCqrhszR8Dx4bszcyU1apqXtrTLDg7t9TtJtCnSGJQp5LKDdCZFG9UbvJgncmTtUQChwqmoQXSBx3tDWBtovw71cYdqenHLdUtx","Ae2tdPwUPEZLZzVw7CEXcY5iSaPcoCExpra7bXX1emhJmvLLrCKQMr8dFaE"],"fee":189381,"totalOutput":14854685884,"tokens":[]},{"hash":"0a36c473ebac1eecd4113b71a6bd15a67f0c8ff344c06622297f136a794577f8","blockNo":6852396,"blockHash":"8c785aba09b28bd8d1f765de4ff73590a99fc46719a633d54ba682bc9c683b9f","epochNo":319,"epochSlotNo":219166,"slot":52663966,"time":"2022/02/07 10:37:37","addressesInput":["addr1vycn2qfe5vclxgls0za75mwcde4etuh2l4ttnq55xuhm97ssjgj0v"],"addressesOutput":["addr1q8768zhvmdsp33m0cpu6dfq6xgsf8fvnpp8twl5nw2cgtvvf5x20kgr6u8m3asyzmdk26cfvm8ea6ur8e72cfu5rd8rs8s7458","addr1vxrmu3m2cc5k6xltupj86a2uzcuq8r4nhznrhfq0pkwl4hgqj2v8w","addr1q8yjeg89lw25a4ktwfx87r2c6gw7dkteytfegs84l4s45vd3fpwwzwg06zmvc9dv7ktzw8jtvnl7u735gumuzmatw96qnxkymv"],"fee":216321,"totalOutput":47783679,"tokens":[]},{"hash":"c22739d11c4281bb3ce6350e543c813b91b8bd7c5ad8a8c07e7922a500216a73","blockNo":6852396,"blockHash":"8c785aba09b28bd8d1f765de4ff73590a99fc46719a633d54ba682bc9c683b9f","epochNo":319,"epochSlotNo":219166,"slot":52663966,"time":"2022/02/07 10:37:37","addressesInput":["addr1vx99s0fely93dvjv2wa0umjdj3rlqdry2jwsks3f3ecv9xqymevgv"],"addressesOutput":["addr1q92xh04e70wq886wvmk0ydf7pzyn4lt33wfnz3czzxzht5sn3zf2xvmgkjjf5ay98f8dxdzps5e9gz8tfgms8yz4sqmq0qan8d","addr1vxrmu3m2cc5k6xltupj86a2uzcuq8r4nhznrhfq0pkwl4hgqj2v8w","addr1q8yjeg89lw25a4ktwfx87r2c6gw7dkteytfegs84l4s45vd3fpwwzwg06zmvc9dv7ktzw8jtvnl7u735gumuzmatw96qnxkymv"],"fee":217025,"totalOutput":47782975,"tokens":[]},{"hash":"0a45e7cf04110fc364c75f5c669c0e2e78ed5be63dd8da63a11c9ffea4b5cd21","blockNo":6852396,"blockHash":"8c785aba09b28bd8d1f765de4ff73590a99fc46719a633d54ba682bc9c683b9f","epochNo":319,"epochSlotNo":219166,"slot":52663966,"time":"2022/02/07 10:37:37","addressesInput":["addr1v9755tqn4j8lp9uep2tre6k5k4pvx6jktc03ygafaz55u9qtnkd2n"],"addressesOutput":["addr1qxej2uvmaq5f2vz0c6s78sduj5xmf3ajaa2adjqwtn3e4hkqs36c6ky4dj8tkv9rpmny0nstpfuc7pclc3aggehlda2q2x0paf","addr1v9755tqn4j8lp9uep2tre6k5k4pvx6jktc03ygafaz55u9qtnkd2n"],"fee":320777,"totalOutput":394019387,"tokens":[]},{"hash":"b8528182c521bcd003254b28b9a0067c11b605c8502f88fbb295f6df0de5341d","blockNo":6852396,"blockHash":"8c785aba09b28bd8d1f765de4ff73590a99fc46719a633d54ba682bc9c683b9f","epochNo":319,"epochSlotNo":219166,"slot":52663966,"time":"2022/02/07 10:37:37","addressesInput":["addr1qyajj660gs8fjhwchqhzz069l90rn40qlxy3jck7avlpgpfm994573qwn9wa3wpwyyl5t7278827p7vfr93da6e7zszs93ztts","addr1qyajj660gs8fjhwchqhzz069l90rn40qlxy3jck7avlpgpfm994573qwn9wa3wpwyyl5t7278827p7vfr93da6e7zszs93ztts"],"addressesOutput":["addr1qyajj660gs8fjhwchqhzz069l90rn40qlxy3jck7avlpgpfm994573qwn9wa3wpwyyl5t7278827p7vfr93da6e7zszs93ztts","addr1qyajj660gs8fjhwchqhzz069l90rn40qlxy3jck7avlpgpfm994573qwn9wa3wpwyyl5t7278827p7vfr93da6e7zszs93ztts"],"fee":227174,"totalOutput":748745342,"tokens":[]},{"hash":"f35f531a6efc73e6d88274b40bc9386d84216afc70c23bf4d0151e7fd759e9c4","blockNo":6852396,"blockHash":"8c785aba09b28bd8d1f765de4ff73590a99fc46719a633d54ba682bc9c683b9f","epochNo":319,"epochSlotNo":219166,"slot":52663966,"time":"2022/02/07 10:37:37","addressesInput":["addr1q8007gna98xrmh3etwttqt8x4pa6ax5k38780nmtwmkk0kz5xh99uks9mx9au44talyuus42hsff4yjef0lm6935cgfs3e672p","addr1q8007gna98xrmh3etwttqt8x4pa6ax5k38780nmtwmkk0kz5xh99uks9mx9au44talyuus42hsff4yjef0lm6935cgfs3e672p"],"addressesOutput":["addr1qyxj4zdpcz5rkkj8fqe0dczqfcgteecdcm930vn6rr3l9kx2thuypekl5waxf55axxdqhmz69r9ge8lkn7pcsd2ax0jslp0ljk","addr1q8007gna98xrmh3etwttqt8x4pa6ax5k38780nmtwmkk0kz5xh99uks9mx9au44talyuus42hsff4yjef0lm6935cgfs3e672p"],"fee":171793,"totalOutput":12826911,"tokens":[]},{"hash":"6cd3d6dd85455254b34d974985a786edef074b1a354fb6e8078d618f938a2ee3","blockNo":6852396,"blockHash":"8c785aba09b28bd8d1f765de4ff73590a99fc46719a633d54ba682bc9c683b9f","epochNo":319,"epochSlotNo":219166,"slot":52663966,"time":"2022/02/07 10:37:37","addressesInput":["addr1v93wzey0wy6s007f8jyc577a379xjg6ljlgrhzllh6ts3lsy928sa"],"addressesOutput":["addr1q82av3f5rfx48lmm8rngux39dt8nqrvuze5lwa266y9huth5fu05agq57waahx0eunmxqrp5gymfuh27sp4cctayc3esmlf84l","addr1v93wzey0wy6s007f8jyc577a379xjg6ljlgrhzllh6ts3lsy928sa"],"fee":212361,"totalOutput":424280629,"tokens":[]},{"hash":"14211da147c039bf0c07b5fb4983f5103e902063a16f266cbc92694060a7160b","blockNo":6852396,"blockHash":"8c785aba09b28bd8d1f765de4ff73590a99fc46719a633d54ba682bc9c683b9f","epochNo":319,"epochSlotNo":219166,"slot":52663966,"time":"2022/02/07 10:37:37","addressesInput":["addr1q8n6z49rcchrheexkcsv4yzk3s0jtps5d7l7gwuy4qed6tvejmrf2spltcxn60c33hps463e6wlcuu23eu8ljjlhpmps9xg4q2"],"addressesOutput":["DdzFFzCqrhsp2dunjnxzfNsopUHvg9RNzcyULJW7hLM5KAHfeyZURHoQkPE94ecwsepn7U3oj6udEKsJkehSH7ajeAJwi7p8kwEAXTP2","addr1qywnv4wpheu0hpz2v4n4a4vufemkmwk5g7s5xzz9s9tlx0vejmrf2spltcxn60c33hps463e6wlcuu23eu8ljjlhpmpsqzr77h"],"fee":169153,"totalOutput":4000718692,"tokens":[]},{"hash":"531f98e4933204670f47e9ae9c20572fbc5d2597601e69bd78e0c6af2de54c90","blockNo":6852396,"blockHash":"8c785aba09b28bd8d1f765de4ff73590a99fc46719a633d54ba682bc9c683b9f","epochNo":319,"epochSlotNo":219166,"slot":52663966,"time":"2022/02/07 10:37:37","addressesInput":["addr1v8l65ve575fz52k83qwr63ur7ngh0yyh272cnfnn32h6z6qwcythz"],"addressesOutput":["addr1qxdwuflwf9lntfvkadr24nzqurzh63vccp908gd88jqcxk35qjw3ll7m5qxnd7rk4q3cqusa7urz30rjf7n3h20cmtzqz6vtu7","addr1v8l65ve575fz52k83qwr63ur7ngh0yyh272cnfnn32h6z6qwcythz"],"fee":198897,"totalOutput":453837054,"tokens":[]},{"hash":"09682befd923098accdc06a6d264317677f5ecfee4ebfc65f4f42856e2c20ff0","blockNo":6852396,"blockHash":"8c785aba09b28bd8d1f765de4ff73590a99fc46719a633d54ba682bc9c683b9f","epochNo":319,"epochSlotNo":219166,"slot":52663966,"time":"2022/02/07 10:37:37","addressesInput":["addr1w9yr0zr530tp9yzrhly8lw5upddu0eym3yh0mjwa0qlr9pgmkzgv0","addr1q9a0r449twma4mm7uht86e78qrumw0z3r40c0hgsnhqmqqw4kzz65pqwdsgv2x2qrnvv5a93ddjuxcwsjqrm5jcny76q33n4zr"],"addressesOutput":["addr1q9a0r449twma4mm7uht86e78qrumw0z3r40c0hgsnhqmqqw4kzz65pqwdsgv2x2qrnvv5a93ddjuxcwsjqrm5jcny76q33n4zr","addr1q9a0r449twma4mm7uht86e78qrumw0z3r40c0hgsnhqmqqw4kzz65pqwdsgv2x2qrnvv5a93ddjuxcwsjqrm5jcny76q33n4zr"],"fee":1027569,"totalOutput":23304576,"tokens":[]},{"hash":"eefe9394b5aae5a62d9f129c04e537606a16ecdc55a2eac5cf47d419302b226a","blockNo":6852396,"blockHash":"8c785aba09b28bd8d1f765de4ff73590a99fc46719a633d54ba682bc9c683b9f","epochNo":319,"epochSlotNo":219166,"slot":52663966,"time":"2022/02/07 10:37:37","addressesInput":["addr1q9d0rnmcmqgrxptauj04e3xtzw7e3cuxu39d5tyl75lufnex9g7pwpwda6ce4uy3l5fpnhqqszec3z7739dz2gwj8qlqeyg973","addr1q9d0rnmcmqgrxptauj04e3xtzw7e3cuxu39d5tyl75lufnex9g7pwpwda6ce4uy3l5fpnhqqszec3z7739dz2gwj8qlqeyg973","addr1q9d0rnmcmqgrxptauj04e3xtzw7e3cuxu39d5tyl75lufnex9g7pwpwda6ce4uy3l5fpnhqqszec3z7739dz2gwj8qlqeyg973"],"addressesOutput":["addr1v90qghy4qhzlfqdl68ec770cpznff4m5zdkkr7f4lcdzq7g6x2zpn","addr1q9d0rnmcmqgrxptauj04e3xtzw7e3cuxu39d5tyl75lufnex9g7pwpwda6ce4uy3l5fpnhqqszec3z7739dz2gwj8qlqeyg973","addr1q9d0rnmcmqgrxptauj04e3xtzw7e3cuxu39d5tyl75lufnex9g7pwpwda6ce4uy3l5fpnhqqszec3z7739dz2gwj8qlqeyg973"],"fee":394213,"totalOutput":40433213,"tokens":[]},{"hash":"244bfb8b28534a421aff248aed5eea44e412e1b7c3dcd3ffedae8987861ce354","blockNo":6852396,"blockHash":"8c785aba09b28bd8d1f765de4ff73590a99fc46719a633d54ba682bc9c683b9f","epochNo":319,"epochSlotNo":219166,"slot":52663966,"time":"2022/02/07 10:37:37","addressesInput":["addr1qyjqcmw0w5s049mvjnew6wtdhc5aupynsc2myewceajawuw568htw03uedc8v4fpsk6qafp6nugeq07msnf38afsrqgsutpj2x"],"addressesOutput":["addr1qy6z78u4xee3qxrces07jtelg5ur0ed0pxr70c2x472ghgzkgapxhudsv4za4348rspljyxvtydm4t34fvpnke0ug2fqdud9zc","addr1qypdnglcdxw7zkzhlua6wzcah3l2gap3wuezh4qmj28spv7568htw03uedc8v4fpsk6qafp6nugeq07msnf38afsrqgs0c7agy"],"fee":188205,"totalOutput":16767595971,"tokens":[]}],"totalItems":30222893,"totalPages":1511145,"currentPage":0}