{"data":[{"hash":"900db78ff6e83bfc24be1d0bab7d33ca1e0b56bf377b02505001da9f8fdede98","blockNo":6725264,"blockHash":"c68ef9c302b776d5bfed6ca64b604e5496dae94d1e9d0d4602bea8b4bda4951c","epochNo":313,"epochSlotNo":106019,"slot":49958819,"time":"2022/01/07 03:11:50","addressesInput":["addr1qxtl22429scw8gx447s7uugtq5hm824jm5pfqvpangu700vlpq5yua4660g34xhfm3en2m5lzanfpursr8dzlej0cz8qw6v4pa","addr1w999n67e86jn6xal07pzxtrmqynspgx0fwmcmpua4wc6yzsxpljz3"],"addressesOutput":["addr1qxtl22429scw8gx447s7uugtq5hm824jm5pfqvpangu700vlpq5yua4660g34xhfm3en2m5lzanfpursr8dzlej0cz8qw6v4pa","addr1qxtl22429scw8gx447s7uugtq5hm824jm5pfqvpangu700vlpq5yua4660g34xhfm3en2m5lzanfpursr8dzlej0cz8qw6v4pa"],"fee":1013401,"totalOutput":197664165,"tokens":[]},{"hash":"e4ea0b13965bb01bc94d18d351eaa47aadd56091d28f4523c8c8f2cbdd2e9e7e","blockNo":6725264,"blockHash":"c68ef9c302b776d5bfed6ca64b604e5496dae94d1e9d0d4602bea8b4bda4951c","epochNo":313,"epochSlotNo":106019,"slot":49958819,"time":"2022/01/07 03:11:50","addressesInput":["addr1qxqxyp0peldyx8yy4tgcrers58fs5xp3m45z53j020q3tuf6u6ukqj39ma6hxlmm7cee7mh73697cdc6ldt903vjpgnqqvlly5","addr1vxqxyp0peldyx8yy4tgcrers58fs5xp3m45z53j020q3tugwyr9nt","addr1vxqxyp0peldyx8yy4tgcrers58fs5xp3m45z53j020q3tugwyr9nt"],"addressesOutput":["addr1qxqxyp0peldyx8yy4tgcrers58fs5xp3m45z53j020q3tuf6u6ukqj39ma6hxlmm7cee7mh73697cdc6ldt903vjpgnqqvlly5"],"fee":172717,"totalOutput":7353416140,"tokens":[]},{"hash":"83027d2a9aa965d00cf209faf5b36a0c6fe8462c4f8fa574470fce4042025037","blockNo":6725264,"blockHash":"c68ef9c302b776d5bfed6ca64b604e5496dae94d1e9d0d4602bea8b4bda4951c","epochNo":313,"epochSlotNo":106019,"slot":49958819,"time":"2022/01/07 03:11:50","addressesInput":["addr1qxecws8r6ktsx0v0fmlaf6pznr9jc9p44rdewervuq9pepdzvr9gjhsz5w76tnfe7gssxkumw7rtrvmu0zww0ze84qdslvjzzp","addr1qxecws8r6ktsx0v0fmlaf6pznr9jc9p44rdewervuq9pepdzvr9gjhsz5w76tnfe7gssxkumw7rtrvmu0zww0ze84qdslvjzzp"],"addressesOutput":["addr1q97cel8hzlcalc4w2xzjuca379erevv065pj0vefx27wu97fk5q7edylqz88e0fk0nuqsgzmw278zz8aq3jgtsal0hrsgaza4w","addr1qxecws8r6ktsx0v0fmlaf6pznr9jc9p44rdewervuq9pepdzvr9gjhsz5w76tnfe7gssxkumw7rtrvmu0zww0ze84qdslvjzzp"],"fee":169901,"totalOutput":1934638360,"tokens":[]},{"hash":"69b4de7e9350bd2486ed8f1d7d1e74f059b4fcabf972914f97fb424074d457cb","blockNo":6725264,"blockHash":"c68ef9c302b776d5bfed6ca64b604e5496dae94d1e9d0d4602bea8b4bda4951c","epochNo":313,"epochSlotNo":106019,"slot":49958819,"time":"2022/01/07 03:11:50","addressesInput":["addr1q9jgywc5zfhtd72xn36jsw7v4t7l7arqv9heemwnfafpn2592jfcqznm695p9wqe052nrdwn5r6tw0l9uam89cz7tftqsrv94r"],"addressesOutput":["addr1qy9e2hzdxzlduggud3ad6m36eknjtjngfcu5nzqsqr3dnwkd52r6e3ph4mtrmyarmknpguqcfzlw2x6uu65jzlhyzensnxdy6g","addr1q9dsgfmjj0sq4274sgzclas3hr6g66d9ne5h36qtjkdjftv92jfcqznm695p9wqe052nrdwn5r6tw0l9uam89cz7tftqcw0h8l"],"fee":263665,"totalOutput":1335386256,"tokens":[]},{"hash":"4a980437e1a7f698f4c2fc17391feb505744784ae3ae7ecc762f7749fcc2f851","blockNo":6725264,"blockHash":"c68ef9c302b776d5bfed6ca64b604e5496dae94d1e9d0d4602bea8b4bda4951c","epochNo":313,"epochSlotNo":106019,"slot":49958819,"time":"2022/01/07 03:11:50","addressesInput":["addr1w999n67e86jn6xal07pzxtrmqynspgx0fwmcmpua4wc6yzsxpljz3","addr1q86knlyngulfrmnlzvtz0ylw8v3ruymskkma75c2hatdn3s2hztk634h8u23glw90pmkcm9vt42ca97g2xn9sgg3wzeqed2slp"],"addressesOutput":["addr1w999n67e86jn6xal07pzxtrmqynspgx0fwmcmpua4wc6yzsxpljz3","addr1q86knlyngulfrmnlzvtz0ylw8v3ruymskkma75c2hatdn3s2hztk634h8u23glw90pmkcm9vt42ca97g2xn9sgg3wzeqed2slp"],"fee":1031881,"totalOutput":197217769,"tokens":[]},{"hash":"92d8902b5516a0fc9fb6ee14d539c67dff7186c75cc6d82642e9aafd2fb6aacd","blockNo":6725264,"blockHash":"c68ef9c302b776d5bfed6ca64b604e5496dae94d1e9d0d4602bea8b4bda4951c","epochNo":313,"epochSlotNo":106019,"slot":49958819,"time":"2022/01/07 03:11:50","addressesInput":["addr1q8cs2y6yw7nt6j3hs9n45lr8q6syd0qxl8jv60mttgjfdygs08fmw3a5ntsy3pz4n4r02tn6p47f8k5qwczjvc0yuerqye6ga7","addr1q8cs2y6yw7nt6j3hs9n45lr8q6syd0qxl8jv60mttgjfdygs08fmw3a5ntsy3pz4n4r02tn6p47f8k5qwczjvc0yuerqye6ga7"],"addressesOutput":["addr1qylx8p3rtcd58t4apethpmf9m7v8ppcmq85rql2079re7yxqxvgzte7dvxz8cyul7s3ezdk6l485k6mc56ljsau2whpqvkht6w","addr1q8cs2y6yw7nt6j3hs9n45lr8q6syd0qxl8jv60mttgjfdygs08fmw3a5ntsy3pz4n4r02tn6p47f8k5qwczjvc0yuerqye6ga7","addr1q8cs2y6yw7nt6j3hs9n45lr8q6syd0qxl8jv60mttgjfdygs08fmw3a5ntsy3pz4n4r02tn6p47f8k5qwczjvc0yuerqye6ga7"],"fee":204089,"totalOutput":12781020,"tokens":[]},{"hash":"a2e6fad13d774e5746674dd8db329da2b8a6c2c6cc774ad66093417828fb4d5a","blockNo":6725264,"blockHash":"c68ef9c302b776d5bfed6ca64b604e5496dae94d1e9d0d4602bea8b4bda4951c","epochNo":313,"epochSlotNo":106019,"slot":49958819,"time":"2022/01/07 03:11:50","addressesInput":["addr1qykfjus356ewyzkgvwxnnu2tw4m9xnz58vk90w3gz4akk8narqp9hekyy2vh7mdgzna87kd29tyykh3jae95v7ne9q8qz9spyq","addr1qykfjus356ewyzkgvwxnnu2tw4m9xnz58vk90w3gz4akk8narqp9hekyy2vh7mdgzna87kd29tyykh3jae95v7ne9q8qz9spyq"],"addressesOutput":["addr1w999n67e86jn6xal07pzxtrmqynspgx0fwmcmpua4wc6yzsxpljz3","addr1qykfjus356ewyzkgvwxnnu2tw4m9xnz58vk90w3gz4akk8narqp9hekyy2vh7mdgzna87kd29tyykh3jae95v7ne9q8qz9spyq","addr1qykfjus356ewyzkgvwxnnu2tw4m9xnz58vk90w3gz4akk8narqp9hekyy2vh7mdgzna87kd29tyykh3jae95v7ne9q8qz9spyq"],"fee":435045,"totalOutput":43242907,"tokens":[]},{"hash":"8a3d11eaf6fb65b42b145636b1f4bb9e9df2e8939d7aaf54752159562bfbce0c","blockNo":6725264,"blockHash":"c68ef9c302b776d5bfed6ca64b604e5496dae94d1e9d0d4602bea8b4bda4951c","epochNo":313,"epochSlotNo":106019,"slot":49958819,"time":"2022/01/07 03:11:50","addressesInput":["addr1qytqm2f3gy349xvl2kpa2sasu6n3ukuyrldrttf7k5pjc4p2dduwaq8523t5p2mrd5rt2fyq8zuvnrpjdhf0ccqz9mdqu0uukm"],"addressesOutput":["addr1v8y6nmesv9wtrz672re5y4h87ke5dkwm6sflul3zayerkzqak6gc2","addr1qx5m7pg8k957x7ect4mzrw4y2d004yrjyh4mlu343hl2wve2dduwaq8523t5p2mrd5rt2fyq8zuvnrpjdhf0ccqz9mdqyykur3"],"fee":167085,"totalOutput":37324532,"tokens":[]},{"hash":"44f7249c8e4b4057e4e3a4695969d0b7d7928ae271276ccc7a0b1268b9eece26","blockNo":6725264,"blockHash":"c68ef9c302b776d5bfed6ca64b604e5496dae94d1e9d0d4602bea8b4bda4951c","epochNo":313,"epochSlotNo":106019,"slot":49958819,"time":"2022/01/07 03:11:50","addressesInput":["addr1v9vxx29q6nu9znkcck98q5cf4lfxa7rcku7uwgk39qwydeszwm9pz"],"addressesOutput":["addr1qy55d34g9yawf8yd8a2dm5klyftspwqk2smgsqn7668tn7m2zax8aa2fqpn6u7e3cwcrgn80sw9x4g0nfmrv6eatswsszqfe4u","addr1vxrmu3m2cc5k6xltupj86a2uzcuq8r4nhznrhfq0pkwl4hgqj2v8w","addr1q8zecqvjxv8wy7pd3j5ca62lj624nk355y5e9llpegyygwq8p0rqu8hqkk0pnfnkf0nwhk68ndc92w2n70ekqd44lzqqa3zsvl"],"fee":228993,"totalOutput":79771007,"tokens":[]},{"hash":"e1a2759bc50c69f2797123506db23c805753fbecc8a583590d5e4a8fc4a5c6e6","blockNo":6725264,"blockHash":"c68ef9c302b776d5bfed6ca64b604e5496dae94d1e9d0d4602bea8b4bda4951c","epochNo":313,"epochSlotNo":106019,"slot":49958819,"time":"2022/01/07 03:11:50","addressesInput":["addr1q87n3runae0pdlwzgahctuppghwgkmlz32p0ygh0qcyc4gae6pf2037ewhz5g9zsp5fmjvj8jnwmtgff4wfekqgs3qjqthd8mz"],"addressesOutput":["DdzFFzCqrhsv9Vd7Uf98yYpKLW3wujTA4cPTYwDEwRxmCN1U2HpZBxm9ZuN2EgJQoHcwHZEFhBW2qVQriqUafJuNbGgqj8aAeFDbzTqd","addr1q87n3runae0pdlwzgahctuppghwgkmlz32p0ygh0qcyc4gae6pf2037ewhz5g9zsp5fmjvj8jnwmtgff4wfekqgs3qjqthd8mz"],"fee":169989,"totalOutput":417878534240,"tokens":[]},{"hash":"169ab78efb8e060ef020d9e89289a51210b180ffbd5d3226a32da36e6e30660b","blockNo":6725264,"blockHash":"c68ef9c302b776d5bfed6ca64b604e5496dae94d1e9d0d4602bea8b4bda4951c","epochNo":313,"epochSlotNo":106019,"slot":49958819,"time":"2022/01/07 03:11:50","addressesInput":["addr1q8puavna7huc7h5yws5504m5xanwn40trx36jd3qjuw94sfkmlvhutpavavll7a6nw3lc9nutvd67zyw2gete23hrn7qrgaytj"],"addressesOutput":["addr1q82zghc4y7f5fw39hku5zmf0lrf4ethedhwc2xy8d0qy4fydmfzx6ltqp3vdp92yqnrzyjv8vhl6qlgawnvgrc3wzdpqc5gmww","addr1q83ldwlx68e7qemvy323hlerj7t5zwqw0m0qt5q0nv88p73kmlvhutpavavll7a6nw3lc9nutvd67zyw2gete23hrn7qu763x4"],"fee":168273,"totalOutput":506177612,"tokens":[]},{"hash":"a79d7f152f6e4a3bbe4d80536e4e70bb97777f8b4b12e9070cf611dd20497b9c","blockNo":6725264,"blockHash":"c68ef9c302b776d5bfed6ca64b604e5496dae94d1e9d0d4602bea8b4bda4951c","epochNo":313,"epochSlotNo":106019,"slot":49958819,"time":"2022/01/07 03:11:50","addressesInput":["addr1w999n67e86jn6xal07pzxtrmqynspgx0fwmcmpua4wc6yzsxpljz3","addr1q999atqqwulmv9z2gr7h72pgh0wprvyyh3ctu4f4r8dxyn2ma4wzhtpu8wt2na6c2dsh6asrq7xnachjn4parrm0jfnq36r445","addr1q999atqqwulmv9z2gr7h72pgh0wprvyyh3ctu4f4r8dxyn2ma4wzhtpu8wt2na6c2dsh6asrq7xnachjn4parrm0jfnq36r445","addr1q999atqqwulmv9z2gr7h72pgh0wprvyyh3ctu4f4r8dxyn2ma4wzhtpu8wt2na6c2dsh6asrq7xnachjn4parrm0jfnq36r445","addr1q999atqqwulmv9z2gr7h72pgh0wprvyyh3ctu4f4r8dxyn2ma4wzhtpu8wt2na6c2dsh6asrq7xnachjn4parrm0jfnq36r445","addr1q999atqqwulmv9z2gr7h72pgh0wprvyyh3ctu4f4r8dxyn2ma4wzhtpu8wt2na6c2dsh6asrq7xnachjn4parrm0jfnq36r445","addr1q999atqqwulmv9z2gr7h72pgh0wprvyyh3ctu4f4r8dxyn2ma4wzhtpu8wt2na6c2dsh6asrq7xnachjn4parrm0jfnq36r445","addr1q999atqqwulmv9z2gr7h72pgh0wprvyyh3ctu4f4r8dxyn2ma4wzhtpu8wt2na6c2dsh6asrq7xnachjn4parrm0jfnq36r445","addr1q999atqqwulmv9z2gr7h72pgh0wprvyyh3ctu4f4r8dxyn2ma4wzhtpu8wt2na6c2dsh6asrq7xnachjn4parrm0jfnq36r445"],"addressesOutput":["addr1q9cwvremt6n320s2e3agq0jyq82yhrk3htsu0w426xnz5us70z4w0jgvcdkkynmm8wmds66jd9kusnjfpu6raw5fqp0sr07p5w","addr1q9pqctxj8gllwn40gzmvhv9rd0l8m2scv9kz2npuqx8s9d7j8xa2rpg6ng0d6trhjw0yphlt894l238qxs7urjmzkdwsax6257","addr1q9p5xjdq7ckqqt5g4cf7y0wkakdr6a2w8287dtjtt7vpglx3wj7t2kc7e4yctevtu3kfj3rrajfw3fnckgpkzyjyjn5sdsla0y","addr1q999atqqwulmv9z2gr7h72pgh0wprvyyh3ctu4f4r8dxyn2ma4wzhtpu8wt2na6c2dsh6asrq7xnachjn4parrm0jfnq36r445","addr1q999atqqwulmv9z2gr7h72pgh0wprvyyh3ctu4f4r8dxyn2ma4wzhtpu8wt2na6c2dsh6asrq7xnachjn4parrm0jfnq36r445"],"fee":1063649,"totalOutput":2263761489,"tokens":[]},{"hash":"103a1c5366b1d904eb6236d2173a2f1d211f6cd726b7eafeed77fa99db3f42e5","blockNo":6725264,"blockHash":"c68ef9c302b776d5bfed6ca64b604e5496dae94d1e9d0d4602bea8b4bda4951c","epochNo":313,"epochSlotNo":106019,"slot":49958819,"time":"2022/01/07 03:11:50","addressesInput":["addr1q8ggzh20nes5lr3a04e3qwjv8g48sgv8gq36mu7jyer23jys4k3h40jpavycrv3d0fcn663zkeu8gn5l3rkv7mgavu0q0wey7u","addr1q8ggzh20nes5lr3a04e3qwjv8g48sgv8gq36mu7jyer23jys4k3h40jpavycrv3d0fcn663zkeu8gn5l3rkv7mgavu0q0wey7u"],"addressesOutput":["addr1q89ycwjtm7wexu6k0x6kvh4g394tzh6vq829khytjlhqg3r5kee9zd7yldnc6fm647uxeq4a3jgtn6djwlf0mcssrplsx3nurf","addr1q8ggzh20nes5lr3a04e3qwjv8g48sgv8gq36mu7jyer23jys4k3h40jpavycrv3d0fcn663zkeu8gn5l3rkv7mgavu0q0wey7u","addr1q8ggzh20nes5lr3a04e3qwjv8g48sgv8gq36mu7jyer23jys4k3h40jpavycrv3d0fcn663zkeu8gn5l3rkv7mgavu0q0wey7u"],"fee":174741,"totalOutput":84686234,"tokens":[]},{"hash":"90e6d038cb6c1ba5fb0716c714e9805b846427a6023eef8d579ef6a0797d58eb","blockNo":6725264,"blockHash":"c68ef9c302b776d5bfed6ca64b604e5496dae94d1e9d0d4602bea8b4bda4951c","epochNo":313,"epochSlotNo":106019,"slot":49958819,"time":"2022/01/07 03:11:50","addressesInput":["addr1qywtujt5p7wyqqxu3fwth3fs2jcmclkvv3966fh9xrtfqdjk46q73pl4gepdpqk8gf9lw5k5lvc778ynq26pwqaumnrsr0azk3"],"addressesOutput":["addr1q89ycwjtm7wexu6k0x6kvh4g394tzh6vq829khytjlhqg3r5kee9zd7yldnc6fm647uxeq4a3jgtn6djwlf0mcssrplsx3nurf","addr1q857nmgvndm6qk5pkqxw4fh7hmkcm0z4etfgw2g5r0725x2k46q73pl4gepdpqk8gf9lw5k5lvc778ynq26pwqaumnrsaypja2"],"fee":177249,"totalOutput":298695567,"tokens":[]},{"hash":"44d98ab348007405c616df924c95988f5b41ceac59df202c2ad00f8ef36a0c74","blockNo":6725264,"blockHash":"c68ef9c302b776d5bfed6ca64b604e5496dae94d1e9d0d4602bea8b4bda4951c","epochNo":313,"epochSlotNo":106019,"slot":49958819,"time":"2022/01/07 03:11:50","addressesInput":["addr1vypr00ss7hkqejmvh53xkyf0p9q0a4z2uprxmx6njc463vgst3pe4"],"addressesOutput":["DdzFFzCqrhsrNpvmBbUDpTh5TgcNzz4tFDQK6Tmi9D79qQDd2YQnXkuB53ZvLNosXBAuxp9HqKgm1mb4tUsdrMHzpqbxkBqLAPKFeDbr","addr1v9u7va2sktlnz8dp3qadpnxxlv4m03672jy6elmntlxxs7q9nnwl9"],"fee":171221,"totalOutput":2021932672,"tokens":[]},{"hash":"93d7a036b6e6d227303397d5006c6b4a41af069e5c0de9e597f931a10931d9bd","blockNo":6725264,"blockHash":"c68ef9c302b776d5bfed6ca64b604e5496dae94d1e9d0d4602bea8b4bda4951c","epochNo":313,"epochSlotNo":106019,"slot":49958819,"time":"2022/01/07 03:11:50","addressesInput":["addr1v9m083969rnctldjvz25y06y3d5578ph3yugt9u23sjadjs9reknn"],"addressesOutput":["addr1qy63ze6c485z458nup643jjzwr0rpk6tjf6uxgu4j5h0eccz6qqwdf76knm9s2wvuccst4fkn4k2fl9xuxu4s69e5kast69ht5","addr1vxrmu3m2cc5k6xltupj86a2uzcuq8r4nhznrhfq0pkwl4hgqj2v8w","addr1q8gly58jwewu5cl2vsn6yukqdyu7xtfca3vszgv7c7zm6nu0paqnuud5f4eu60mmudj46yfrfe46vw4r2vzkahh52x5sx405ej"],"fee":211745,"totalOutput":58788255,"tokens":[]},{"hash":"7b8884e50df292303afe2d95afe156402629167b931bcde4ade9eef159141a62","blockNo":6725264,"blockHash":"c68ef9c302b776d5bfed6ca64b604e5496dae94d1e9d0d4602bea8b4bda4951c","epochNo":313,"epochSlotNo":106019,"slot":49958819,"time":"2022/01/07 03:11:50","addressesInput":["addr1v9uk9m4pjd95fjmrsfyz4tag8jndqky3l29f4srxdyvdfxcyyfsue"],"addressesOutput":["addr1qxl23y9t5xguytx2rlmwsf4f6uqpjvcq3q2k8xafrjc5jqw0vaqfk5tmmguccd5pfycsa49jjumh7qskr6hyqg944rusrym9hf","addr1qy8u7n4uq08757wf39pkeeqrkyu9l65ywvlvjegggqzr4uzwe9zfhadx4lqc88wrzp3n7c7zt8483qstncfv8eqfxy5sq2p98n"],"fee":201053,"totalOutput":18798947,"tokens":[]},{"hash":"b2c080ddeb3b5ccc3f934f6e91bc1d329d15387112129cbf6650addf846a072f","blockNo":6725264,"blockHash":"c68ef9c302b776d5bfed6ca64b604e5496dae94d1e9d0d4602bea8b4bda4951c","epochNo":313,"epochSlotNo":106019,"slot":49958819,"time":"2022/01/07 03:11:50","addressesInput":["addr1vy80y98hdw04ju3yqeppp6q2j0tl3hakfesaxz656lpcqfsqwu4cq","addr1v8x0ejzehagqqq9egtdha4sr47kftyymgfywk43r9dea32gmrg4e2"],"addressesOutput":["addr1qyvzrsc2gzv2mrpun6zl7w29nca9sc2x35z2k2t682kh5wl3urxdeezlr0rf8v5d5fyv58qnm9ulpzf6cuu9q9ulqn7q6n9lmf","addr1v8x0ejzehagqqq9egtdha4sr47kftyymgfywk43r9dea32gmrg4e2"],"fee":189173,"totalOutput":246720844,"tokens":[]},{"hash":"a47561bb2644339d4e62f9fc130abedcd4e0ec38d9f0e0875e6918dce4f5888a","blockNo":6725264,"blockHash":"c68ef9c302b776d5bfed6ca64b604e5496dae94d1e9d0d4602bea8b4bda4951c","epochNo":313,"epochSlotNo":106019,"slot":49958819,"time":"2022/01/07 03:11:50","addressesInput":["addr1q8pa4e6um674y3s8evls83alpf5m2yk64haphfla8xw2au4y9c3u5r7dpprntshnph7atd6sfjyv70lke72fq4xfph8qqztvmj"],"addressesOutput":["addr1q9pc55yzd9zexwtl67xehtq00tpwmrxd8dg478avnhk2kcjwmy4vsvn42mfxmt8ky68eytkaks977keeqdhlkf09r8rs75qeup","addr1qxp8yrc9ccnp26rgckge7jguw9fqcwlqus6l4ha0rd22yz4y9c3u5r7dpprntshnph7atd6sfjyv70lke72fq4xfph8qlpy6jc"],"fee":169021,"totalOutput":477138530,"tokens":[]},{"hash":"cfa920a3ca5b061c86de183c013be0226eb6dcaf2af971ca668a7953b263c8ec","blockNo":6725264,"blockHash":"c68ef9c302b776d5bfed6ca64b604e5496dae94d1e9d0d4602bea8b4bda4951c","epochNo":313,"epochSlotNo":106019,"slot":49958819,"time":"2022/01/07 03:11:50","addressesInput":["addr1wy2mjh76em44qurn5x73nzqrxua7ataasftql0u2h6g88lc3gtgpz","addr1vys3dl8yt6udaes7funs4l9lu377spumyw3er0h7a6emt3cnj24hf","addr1wy2mjh76em44qurn5x73nzqrxua7ataasftql0u2h6g88lc3gtgpz"],"addressesOutput":["addr1vys3dl8yt6udaes7funs4l9lu377spumyw3er0h7a6emt3cnj24hf","addr1q84cpxkmw9e5pplz85fencjr88vlcr2ktx7mq4j9ephcqayhj0zg8s7emp2qwsvrzdly5fndqs0f8rtxksdhsm3q6hcslhlsjv","addr1q9y25lrkurjpucnyzgq4zslhxdwkw89hru9aap7c0ejza2qs34ru9dv685dax2x8mfm0k3sauhrugkzu2ngd92jc0sgsg230zk"],"fee":974888,"totalOutput":3161198944,"tokens":[]}],"totalItems":25630383,"totalPages":1281520,"currentPage":0}