{"data":[{"blockNo":8407727,"slotNo":85008064,"epochNo":394,"epochSlotNo":163264,"hash":"476aea21b4250924477c29ed87e63ecbf797bc696f8ec45e2f1cdac1004d01f5","time":"2023/02/16 19:05:55","txCount":0,"totalFees":0,"totalOutput":0,"slotLeader":"f018942907ac50ed7f831f14755ad93698188492d09d229655e6ade1"},{"blockNo":8407726,"slotNo":85008063,"epochNo":394,"epochSlotNo":163263,"hash":"19ebdff01168f25e2e976c04b495b72a2c5d0fff2a981f9b838cb51b3f28e67d","time":"2023/02/16 19:05:54","txCount":11,"totalFees":6182082,"totalOutput":22434202243656,"slotLeader":"1d2972246d8adda98836626a34e337525f5206e552715d28379b5fdb"},{"blockNo":8407725,"slotNo":85008052,"epochNo":394,"epochSlotNo":163252,"hash":"3bdd505edc0b1b765388a3893326036b8d762a0bac37837e62b556accb416ea0","time":"2023/02/16 19:05:43","txCount":28,"totalFees":9438553,"totalOutput":379954444588,"slotLeader":"970e9a7ae4677b152c27a0eba3db996b372de094d24fc2974768f3da"},{"blockNo":8407724,"slotNo":85008016,"epochNo":394,"epochSlotNo":163216,"hash":"55a1ee5ff6031c428f26d0d7281d4282b920ed3562ebf468bcdc99594df0f6da","time":"2023/02/16 19:05:07","txCount":28,"totalFees":7850350,"totalOutput":378971527866,"slotLeader":"cfff13497008842ab170eae18ecf43be7eb4fa51bdd503821ddaaf19"},{"blockNo":8407723,"slotNo":85008010,"epochNo":394,"epochSlotNo":163210,"hash":"280a529c341031aed0196b5b68daa2d189b7c0e234aff2100509e855d9503a94","time":"2023/02/16 19:05:01","txCount":26,"totalFees":10268843,"totalOutput":24982296684856,"slotLeader":"a374a14d2fa809b5e999a474b5d085b10be2fc95e6e82da045d9e8f6"},{"blockNo":8407722,"slotNo":85007945,"epochNo":394,"epochSlotNo":163145,"hash":"1da6b36409ef5994546765bc548b2667b6b989542b3fee61eb6a0ed495e6bdac","time":"2023/02/16 19:03:56","txCount":10,"totalFees":2245061,"totalOutput":176303309101,"slotLeader":"c1f5cfd4330339e90ba83a64d269a81cf415d7adab36403e27b910f7"},{"blockNo":8407721,"slotNo":85007924,"epochNo":394,"epochSlotNo":163124,"hash":"f8a452ce7abf803dbacb1d2a462cc1efbf3bd0f4c9e09f79201e418caeaa19f7","time":"2023/02/16 19:03:35","txCount":17,"totalFees":3987806,"totalOutput":154474116832,"slotLeader":"f619a10b7ccea6167c5f169634e834b57739c2db892185f2efa9f1eb"},{"blockNo":8407720,"slotNo":85007903,"epochNo":394,"epochSlotNo":163103,"hash":"aaf9bc215c3aab2f6ac240b254896d0d2be05e14742be280f9e60ac267264a87","time":"2023/02/16 19:03:14","txCount":31,"totalFees":10631737,"totalOutput":2047600941859,"slotLeader":"c22942e1b855136643d1e6e5a75266fb891d87727a8cbf06acd17208"},{"blockNo":8407719,"slotNo":85007867,"epochNo":394,"epochSlotNo":163067,"hash":"019a2a3cde6ffcc76ef9f226925bf101dd353a10f265fef5ec4a3a5c40b2be16","time":"2023/02/16 19:02:38","txCount":27,"totalFees":8318657,"totalOutput":326319741289,"slotLeader":"36e0db9278d5b481dad2f2f84c42d20c324b046aaff97ff45fa4e134"},{"blockNo":8407718,"slotNo":85007838,"epochNo":394,"epochSlotNo":163038,"hash":"cc9539e4278c1059957b0b106829b40d2a7d528aee74742beaa8028a5046e24c","time":"2023/02/16 19:02:09","txCount":11,"totalFees":6259697,"totalOutput":25262041461985,"slotLeader":"40ff71258d2c73da9e2a5ee3abb9be256e745e7f74c31eb8d4be5299"},{"blockNo":8407717,"slotNo":85007832,"epochNo":394,"epochSlotNo":163032,"hash":"bf4cf0df2b9a35c767ec022ef6f512327e440fa22900c1ff55dd72b64ce6a908","time":"2023/02/16 19:02:03","txCount":21,"totalFees":4892990,"totalOutput":70114628967,"slotLeader":"fe59e220d8036bd7533bf393e26abde56ec7d49fa632e57bf696d134"},{"blockNo":8407716,"slotNo":85007823,"epochNo":394,"epochSlotNo":163023,"hash":"b985e87e32dbd4506a0bacf5d6769a5e3c068ebeadfffaacc1602f451354ab2f","time":"2023/02/16 19:01:54","txCount":61,"totalFees":18065697,"totalOutput":6630672260958,"slotLeader":"463e481957f266d93e4decbfb73003380ab17223e0e569f71c7a525a"},{"blockNo":8407715,"slotNo":85007757,"epochNo":394,"epochSlotNo":162957,"hash":"721fc7470679e8ed3c2e3f4c3f153ab16c4643d9fe3534ac1e29b32d9a5d899e","time":"2023/02/16 19:00:48","txCount":40,"totalFees":13053931,"totalOutput":6477872406421,"slotLeader":"d9812f8d30b5db4b03e5b76cfd242db9cd2763da4671ed062be808a0"},{"blockNo":8407714,"slotNo":85007718,"epochNo":394,"epochSlotNo":162918,"hash":"af8f6ff15b0d108da3c62772bffce2a5db299c56eb9662a133a56f011d91967d","time":"2023/02/16 19:00:09","txCount":42,"totalFees":13315847,"totalOutput":2858045933018,"slotLeader":"7c5d59f69e113939aa1e19f081cc0884e2b85a55768a4347bf356191"},{"blockNo":8407713,"slotNo":85007643,"epochNo":394,"epochSlotNo":162843,"hash":"f411be02ea9715acb71a600b860fc989adfd1807f7f52c9dd2bbf43fa6a4f378","time":"2023/02/16 18:58:54","txCount":32,"totalFees":11009397,"totalOutput":25157206263136,"slotLeader":"768a4abe40bf4ec986087a6f356984da85ac3b8388dfa6840e3cdcf7"},{"blockNo":8407712,"slotNo":85007601,"epochNo":394,"epochSlotNo":162801,"hash":"2395a0898ca2ef19388c5bbf562910a53dd242bc6d1c91c5babd08a4c76d646a","time":"2023/02/16 18:58:12","txCount":2,"totalFees":396650,"totalOutput":766439618,"slotLeader":"cf2b0acb72eecb56a05ba6b79922d4b47fedfb93b168a2eb1e5fa260"},{"blockNo":8407711,"slotNo":85007594,"epochNo":394,"epochSlotNo":162794,"hash":"8e2d1baab34f40cc75ae07cf48219a9887de836644bdb90afc9a151df5fa99a6","time":"2023/02/16 18:58:05","txCount":33,"totalFees":9117657,"totalOutput":17259943600955,"slotLeader":"000006d97fd0415d2dafdbb8b782717a3d3ff32f865792b8df7ddd00"},{"blockNo":8407710,"slotNo":85007563,"epochNo":394,"epochSlotNo":162763,"hash":"a6cd14cde5609f13c17a36f2578fc76fbfa0132aa1f6e8e4424b9ca129a4a113","time":"2023/02/16 18:57:34","txCount":37,"totalFees":12294721,"totalOutput":39148488664046,"slotLeader":"d058aaaeea58887b79ecb57708d1694bd323276a6b54185bd86415e7"},{"blockNo":8407709,"slotNo":85007516,"epochNo":394,"epochSlotNo":162716,"hash":"147af2cb807fd90c8f1530e3365badf9a73a9dd9e7f4757888ff068cf1d0a5cb","time":"2023/02/16 18:56:47","txCount":7,"totalFees":3586424,"totalOutput":8639200721709,"slotLeader":"55eaf38bf6eb1c6755d67175b59f93940f09abd6792d525c55089903"},{"blockNo":8407708,"slotNo":85007504,"epochNo":394,"epochSlotNo":162704,"hash":"062014d6cb4fe02e32737a98e8505619e2481825047f2637b9206ed7c626adad","time":"2023/02/16 18:56:35","txCount":3,"totalFees":2308692,"totalOutput":4546432888647,"slotLeader":"618ab17ec8ea7239b4ac0c826b667c599489e25524ce74841a29d510"}],"totalItems":8407903,"totalPages":420396,"currentPage":0}