{"data":[{"hash":"842db128cb37faed5b371ebb446b652af02e271d671174d41f4ccbb75ed1d39c","blockNo":8258777,"blockHash":"eed42ef61b998d987baf0743e26cdec90bd78e6f411745512e73cecfc68ff88a","epochNo":387,"epochSlotNo":104660,"slot":81925460,"time":"2023/01/12 02:49:11","addressesInput":["addr1q9vj9w32w77p47ca725hantcf5nrzcex66vqq58kqm4l04y6hn99676mvdj6qvd34vfqh3jx6vy8tyfkuy6u3xcghq8sex2gzq","addr1q9vj9w32w77p47ca725hantcf5nrzcex66vqq58kqm4l04y6hn99676mvdj6qvd34vfqh3jx6vy8tyfkuy6u3xcghq8sex2gzq","addr1q9vj9w32w77p47ca725hantcf5nrzcex66vqq58kqm4l04y6hn99676mvdj6qvd34vfqh3jx6vy8tyfkuy6u3xcghq8sex2gzq","addr1zxgx3far7qygq0k6epa0zcvcvrevmn0ypsnfsue94nsn3tvpw288a4x0xf8pxgcntelxmyclq83s0ykeehchz2wtspks905plm","addr1q9vj9w32w77p47ca725hantcf5nrzcex66vqq58kqm4l04y6hn99676mvdj6qvd34vfqh3jx6vy8tyfkuy6u3xcghq8sex2gzq"],"addressesOutput":["addr1zxgx3far7qygq0k6epa0zcvcvrevmn0ypsnfsue94nsn3tvpw288a4x0xf8pxgcntelxmyclq83s0ykeehchz2wtspks905plm","addr1q9vj9w32w77p47ca725hantcf5nrzcex66vqq58kqm4l04y6hn99676mvdj6qvd34vfqh3jx6vy8tyfkuy6u3xcghq8sex2gzq","addr1q9vj9w32w77p47ca725hantcf5nrzcex66vqq58kqm4l04y6hn99676mvdj6qvd34vfqh3jx6vy8tyfkuy6u3xcghq8sex2gzq"],"fee":557370,"totalOutput":14238860,"tokens":[]},{"hash":"371b51ea95f22c48525390a72fa71cf4f7800908b45bf64a5d77748439b14be2","blockNo":8258769,"blockHash":"ec9495b46cb09ef2cc81f84ca75f8c1cf2dbbb60b55d668f9700e3a56f932722","epochNo":387,"epochSlotNo":104349,"slot":81925149,"time":"2023/01/12 02:44:00","addressesInput":["DdzFFzCqrhsudLEzawZyLyan2wYbqwKbVMRVwkxhjoDaKTykP5VWb1VaoHmjGjejFRMTaXJSWUEEwShC9UVhp9thAq1iNo7VHyKycYKk","DdzFFzCqrhtB7ji3Bq8pDCptaBuu8Gy9Yp6zg74CM65aRHnr19xVJ11iJR4Wbf5BZzDVBQeJZ34joDCSYDC2N9f43q51VbUtPTsxrUdc","DdzFFzCqrhst9vM8SpWboKDG8dq1RVyfeMryuE3C2L1rACBJccBrSUdBppJbXrYCB8yRynBm5SoPMwkMwYK8mk4Z7YDu2Kt6Cwq9FfjC","DdzFFzCqrhszU1GjnoWXehqSFW9sJcfeBrhaiwNQV49v5e4TNuJYKkn6Dyfp8gSXdEnNoEaSCr3VD81VsLZfJNdVYpsxncyr77wgcnRT","DdzFFzCqrht2qyTizyxNYT9bPtWc6Ssbp4Lc6DGKnwAz4ifGvXUrdc828aqzRjNcFaYmFoDCuvoLz4xaqWzsiCf4hMkwbWfvimPhVMbh","DdzFFzCqrht3PyvLiQEGCDvnUtT2FMNzCKFvrCYYDsXEpPgdCMJMN7UyhWH4cr934CQToFThzh4LhHaoJcCsWYCi2SKm5NLH3Fug9yEK","DdzFFzCqrhsfEqoF5Yote4L172kdNPxs7DmkMsCpcdy7hbaAkpdE1wTJXATdVTHmWLeHBjjoDfwQqEdW7GKANZ47NFmvv9j4oQbkfbfB"],"addressesOutput":["addr1q9atjfpqwdtg7ytz0pz9zcaqvx8zr2uv6ysvc4csqynr683dzefudzxhadht99nh8gv4l3z93d486ygllgxuh2drrrpsdw6fws","DdzFFzCqrhsru3NXpmABV3aoikAK3eErodBKhzqDeYDpDWSQmdroChY9qUshmXJBAqBFq49rmy5LWL3CgKpVzQCBXo6E3a5uAG2Vu13q","DdzFFzCqrhsnw1DDBwcUQVFKViVJDZ33raE9bfBHVweA4gmo81CAVcARKCMFNQCXWubb1HfjYHyafRWU5ip9v9w3twqk5qUFSQ7HSFME","DdzFFzCqrhsx1YfeiH2v5u1s3Z4VX2SdGAQiMXZm5yAgog8U9jit7vNf2gHhJ32bd5b3zmQBEUr4uLLZWbPLLUs2TZ5p5HrEHWRxr7xt","DdzFFzCqrhsrg4KUVS7sf93ZjxhcGuv5kvzSEVrv2KHv1eoGSLYzH5imeSBgcnjK6835TmWvTenq1pzFaVNQEVENGDLMJErHqFRxWX37"],"fee":970877,"totalOutput":54417819548,"tokens":[]},{"hash":"45c6a33524edc53cf84321edcab6225fbe20c888018c9182951260441feae9bb","blockNo":8258479,"blockHash":"808b488fa64bb30c415fd42a3eba144d78e6b1f74fd6f0f3f3b65d872cbbee62","epochNo":387,"epochSlotNo":98845,"slot":81919645,"time":"2023/01/12 01:12:16","addressesInput":["addr1q8hpyvkcwpyeeq5xprj0hhyp49qx7kqprx5xhjs2vd60fx6zmhet75tnxa8l4gj20eljsycfxetsj96s7tuyaqpj7ufqajh2uq","addr1q8hpyvkcwpyeeq5xprj0hhyp49qx7kqprx5xhjs2vd60fx6zmhet75tnxa8l4gj20eljsycfxetsj96s7tuyaqpj7ufqajh2uq","addr1q8hpyvkcwpyeeq5xprj0hhyp49qx7kqprx5xhjs2vd60fx6zmhet75tnxa8l4gj20eljsycfxetsj96s7tuyaqpj7ufqajh2uq"],"addressesOutput":["addr1vyc7ca9flp5gfeapd78uxzzq7l6qnsytj85n62lr5smhgssen2u2s","addr1q8hpyvkcwpyeeq5xprj0hhyp49qx7kqprx5xhjs2vd60fx6zmhet75tnxa8l4gj20eljsycfxetsj96s7tuyaqpj7ufqajh2uq","addr1q8hpyvkcwpyeeq5xprj0hhyp49qx7kqprx5xhjs2vd60fx6zmhet75tnxa8l4gj20eljsycfxetsj96s7tuyaqpj7ufqajh2uq"],"fee":263225,"totalOutput":204137219,"tokens":[]},{"hash":"672e3dc1ee4abcfb2fb329e3ffa0bce9ad983d3c191ac8a73e53431cf010e4b1","blockNo":8258327,"blockHash":"f1633d690d61b4c67bee3f8c8b32f119ffafe9f203028ee9cfbc4afec322ba09","epochNo":387,"epochSlotNo":95484,"slot":81916284,"time":"2023/01/12 00:16:15","addressesInput":["DdzFFzCqrht9HbZfA4gyjUKsc5fVWa3MvecJUZrdkhK7LhQaJWkpssqqbNBCmg9hNUXMSBRzDG4N4SoHN9uk7RisWtBGjXqxy2AbAF37","DdzFFzCqrhsoHor9r6659AtQGbEw2S8r9V6cEAi7bEfJGgfPycSRK6qTMR42MmVWRQz4jz7Eb71YDMRQEUT8DaZx6tLDGYTTYZQR7Eno"],"addressesOutput":["addr1q9atjfpqwdtg7ytz0pz9zcaqvx8zr2uv6ysvc4csqynr683dzefudzxhadht99nh8gv4l3z93d486ygllgxuh2drrrpsdw6fws","DdzFFzCqrhsudLEzawZyLyan2wYbqwKbVMRVwkxhjoDaKTykP5VWb1VaoHmjGjejFRMTaXJSWUEEwShC9UVhp9thAq1iNo7VHyKycYKk"],"fee":372081,"totalOutput":786962919,"tokens":[]},{"hash":"6218496d43d2284d7bef625b0564b4d9485a3b832af07b297a6a13a227035c80","blockNo":8258092,"blockHash":"d87eec934fe2f795c190f9adddeea50550bb42be2659eb21c66222d858048987","epochNo":387,"epochSlotNo":90624,"slot":81911424,"time":"2023/01/11 22:55:15","addressesInput":["DdzFFzCqrht1qtJ9mH5jpdooNzyFEfRxkh9WUbub8C3tuizo5uwHryP16wb7hpwNaUo37YGg24jA1CZfuPf3npe7nGrfStq86dTdePJz","DdzFFzCqrhsr12UjHF19fTf6kSFqUs8Z1dyYrBYdQTbpoaGFKcMWjzyc93abdDCQ9AehPS3x8DahpqncrsVmC9dX4yBpjGGBVsdvdaNt","DdzFFzCqrhszxNUXyMXAdFaZrFwt72RAxfow9yk3A8BquguEev9Aq8D3rLACus6icGxJB2xiEjL4apyJUpC7SDVG7PqrP5wEVYXWPNSx","DdzFFzCqrhstm8p8KnHd8zr4kyKiBhreHbQ23jsAhFx54WATf1WS2jA23WgvotJsRS4qqEAHxuqZe2hiAheW5gnxAryQpxhSbn1eQLL5","DdzFFzCqrhsgqzEPsP6XQiVjqpSUMJBr13jzh5fKKNodJc4545KDhTp6ZZ3bUQhyvb6kDDRJgwP1ATTtEuykN4S2cX7c8X65WdAdm7UF","DdzFFzCqrhsdzK42MpiYLrWq4RcVTktQvBLy44xqqfUNDCQmY5mdyZ4Rrk9mb41wQD84G41uUWBfdgN6cEN692v4xFfKn2UNqejQ5Ur1","DdzFFzCqrhsdzK42MpiYLrWq4RcVTktQvBLy44xqqfUNDCQmY5mdyZ4Rrk9mb41wQD84G41uUWBfdgN6cEN692v4xFfKn2UNqejQ5Ur1","DdzFFzCqrhtBQUdW4dV8fE1g3LpEZZXqUi4NB9nHe7townonoZRqqcmHx4kSEfBAakgBTCe2W3jwjkSHpYn5iJ3sYjSffDWLvH63BPfA","DdzFFzCqrhsecnCDG3Be6bNdWM5TGYM5GgpozPVpyK5SAYo4XwTAVuRCGjaDXut1hHcWidtQHhizh9gpLpXWoDAGuDXh9V3KkpZv4Hwz","DdzFFzCqrht8XCjw82aC9VWE4cgrEV7tUiRAuNWrRnZBv8fYkf1KRnwV8H5XUgbyY9yVARu6zHWDLQN8Kbnk9spqtBqNn5kMoTYB4FM8","DdzFFzCqrhtCracHk6SibbZjjDjDREMXrYNRQbAgMkqw5JvDSCiCgbFNqWVsGvyfndtj7piUc4KqAnmDGEiqiwr1iSqU82sw88ZJ8wwy","DdzFFzCqrht7wV2zW9mnfm8h9QwEzcsUCcwcX2Vi6ERsYn3VxZm87eUEizstNY8f9B7ufkR2yrLyMo9q8dwJrJt5eNUQ3RpQUyrQKLDv","DdzFFzCqrhsjiUgJqXgiQ64kQ1MSJCWq1embg75AMot1rJSeA2RQgvAnWgt6n7CA9twm1r8sNwNYje3pizFcqg12U7dnzCo8F62dmdHi","DdzFFzCqrhsxWrUu3hA67ATucUcbNrtmXyGfsRWcnw7bngG9AvhgDg91eZHRYvR5Sad1gBewN2UD9YtaRocgcxye9s2zUUiYTUcVQQZV","DdzFFzCqrhszxNUXyMXAdFaZrFwt72RAxfow9yk3A8BquguEev9Aq8D3rLACus6icGxJB2xiEjL4apyJUpC7SDVG7PqrP5wEVYXWPNSx","DdzFFzCqrhsr12UjHF19fTf6kSFqUs8Z1dyYrBYdQTbpoaGFKcMWjzyc93abdDCQ9AehPS3x8DahpqncrsVmC9dX4yBpjGGBVsdvdaNt","DdzFFzCqrhspAR4N36UYctSPtMoJvQXks2MugF64QfqzokTfzgr5jGz78JusARCweLfurL7Es8Mx58Q8BkY3zXu1SRh9Qu6LmpQ3zRuL","DdzFFzCqrhsuDj2mRpyHrBwPodXAtua7GZFZNsSUumdgdmDiHiEAaX8vdeyeYdnfFkKTUjQWYkXpezZ62s21yU6Dg85gj6hkY2HByTog","DdzFFzCqrhsdzK42MpiYLrWq4RcVTktQvBLy44xqqfUNDCQmY5mdyZ4Rrk9mb41wQD84G41uUWBfdgN6cEN692v4xFfKn2UNqejQ5Ur1","DdzFFzCqrhtCNEWcqSLvDfsauVCE9964f2KG8ocuXyDXZxGe2NuSWZ2BKxCVyt5Wa8xZxCrGvyGWZWJpxz4XuSYQ1AWBXxDx2Rq2Z7Sq","DdzFFzCqrhsjiUgJqXgiQ64kQ1MSJCWq1embg75AMot1rJSeA2RQgvAnWgt6n7CA9twm1r8sNwNYje3pizFcqg12U7dnzCo8F62dmdHi","DdzFFzCqrhsuGqv8Zw7Tim24dVdNTw6tp7VucHDgEuG6KE4sD4boZBzaHTyadY6vUfmktmvocACQMoRTroa4wCm9hpcnPPgqB97gjz7g","DdzFFzCqrht3VdF7KsxzizzwEBQpXXyhVpxj3m3cBby3r4gc6GnCigbR4PTz7Q2F38py4JxfsbC3Ky7m9pXRzHySb3p1aEtY6DCLEGLw"],"addressesOutput":["addr1q9atjfpqwdtg7ytz0pz9zcaqvx8zr2uv6ysvc4csqynr683dzefudzxhadht99nh8gv4l3z93d486ygllgxuh2drrrpsdw6fws","DdzFFzCqrht9HbZfA4gyjUKsc5fVWa3MvecJUZrdkhK7LhQaJWkpssqqbNBCmg9hNUXMSBRzDG4N4SoHN9uk7RisWtBGjXqxy2AbAF37","DdzFFzCqrhtB7ji3Bq8pDCptaBuu8Gy9Yp6zg74CM65aRHnr19xVJ11iJR4Wbf5BZzDVBQeJZ34joDCSYDC2N9f43q51VbUtPTsxrUdc","DdzFFzCqrhsfEqoF5Yote4L172kdNPxs7DmkMsCpcdy7hbaAkpdE1wTJXATdVTHmWLeHBjjoDfwQqEdW7GKANZ47NFmvv9j4oQbkfbfB","DdzFFzCqrht2qyTizyxNYT9bPtWc6Ssbp4Lc6DGKnwAz4ifGvXUrdc828aqzRjNcFaYmFoDCuvoLz4xaqWzsiCf4hMkwbWfvimPhVMbh"],"fee":1125757,"totalOutput":53149460358,"tokens":[]},{"hash":"5d2649f0a3ab652ac8a3f5554aa2066ca6bbe9318ba73ca677232a7b6dc0e2ca","blockNo":8257887,"blockHash":"06d72065af8fce29c5ffb0ed140be61357ded2fa63c14c17dae5d152cfee958b","epochNo":387,"epochSlotNo":85883,"slot":81906683,"time":"2023/01/11 21:36:14","addressesInput":["DdzFFzCqrhsrDrX26Kn9xFWF4Z9ArcLoSkoMrDaJe34GGXnQxWwmy4ESDHWXEq8rwtC5PbCeMtZeE9NKoktdohyTVHuKVeETAmJJyQku","DdzFFzCqrhst6j91pd1A82Lf3FtM4Mte8FqK6ZcRdiH8WCoGkasZtLrgpLUersr5upH54E5Bth2Qwm7BMMZSB6p9dTct9wVMUYTjBLPP","DdzFFzCqrht41rrgg7wUDf6t7Xv7zuJvRxbXHkEPFzEzZ73zD3eoDTeAY8s5ZWR6BS3dSRBrm8vr5MrM6vjF3mu6qKPTCWKq3ajXsuge","DdzFFzCqrht5fpPiHtMNEKfQ43pkRabGpCgi7SKvBrGi6UzcfXwwaDZLPRoDpaK9K2XKXX5cUSiFdCCybP1xMDAt3Myr5LDdTe2sLzpj","DdzFFzCqrht2LzE2x5BFmLJSZSYN5W5SGNMgKngpFQKzcTpukvZD7TxYN1WsETqkTwAjRqueHNUTnnoTXZtRcRXvDDdQ27noAC5i1djk","DdzFFzCqrhtBSB2Urh2DHndcD9fyjRLd7NR8nTRk9aebyZ7BLEz2N474RntSZNRRd81394BNP7duVy5UTAUWXRtbPC4srb3hTuLqvuf2","DdzFFzCqrhstm8p8KnHd8zr4kyKiBhreHbQ23jsAhFx54WATf1WS2jA23WgvotJsRS4qqEAHxuqZe2hiAheW5gnxAryQpxhSbn1eQLL5","DdzFFzCqrhssmpSXUtRy9NFatrFkcNtrjDEBnV3Nh55kRS2KpzoPmBgfSxniLNZioYtWTndCFizntgHNnm422cCuvg5cWuYx2k3o94Kb","DdzFFzCqrht8PsY44x1YqA5h9jm6RzFTyYyfkuDVV6gbfYKKBb5cadmzgAhhjWSg3nqppNgFYq3MddWGvHq7sjwXcCkWrGqecvJfVVrd"],"addressesOutput":["addr1q9atjfpqwdtg7ytz0pz9zcaqvx8zr2uv6ysvc4csqynr683dzefudzxhadht99nh8gv4l3z93d486ygllgxuh2drrrpsdw6fws","DdzFFzCqrhtCNEWcqSLvDfsauVCE9964f2KG8ocuXyDXZxGe2NuSWZ2BKxCVyt5Wa8xZxCrGvyGWZWJpxz4XuSYQ1AWBXxDx2Rq2Z7Sq","DdzFFzCqrht7wV2zW9mnfm8h9QwEzcsUCcwcX2Vi6ERsYn3VxZm87eUEizstNY8f9B7ufkR2yrLyMo9q8dwJrJt5eNUQ3RpQUyrQKLDv","DdzFFzCqrhspAR4N36UYctSPtMoJvQXks2MugF64QfqzokTfzgr5jGz78JusARCweLfurL7Es8Mx58Q8BkY3zXu1SRh9Qu6LmpQ3zRuL","DdzFFzCqrhsgqzEPsP6XQiVjqpSUMJBr13jzh5fKKNodJc4545KDhTp6ZZ3bUQhyvb6kDDRJgwP1ATTtEuykN4S2cX7c8X65WdAdm7UF"],"fee":990237,"totalOutput":58085524272,"tokens":[]},{"hash":"770e5dc84deda707bea5998f824c89210a7cee3c1bc1285e67d227bb8fb49101","blockNo":8257791,"blockHash":"873fc0bba380ec384bbe3b3cc966446789dd87bf291b618c551e33c591db0493","epochNo":387,"epochSlotNo":83799,"slot":81904599,"time":"2023/01/11 21:01:30","addressesInput":["DdzFFzCqrhshSn5LEUUzFJEQ4Qg1JN5nb3CvNDyAGYWwAogYZDuBrwNsEBYvCPyQcoth8DbLEGNzZRqQTRFSuZWrH8Xg7e4mqpf2PXHD","DdzFFzCqrhsuN2cyrcdKV393VeXbWmm8Zx8ACXPwiFfEPEm3zb6gkcR89TcNKVQFC7xZT3RrEjcLXaXayhTAu2wnytkbAiWCmagK1jRg","DdzFFzCqrhsqWEbPceNTQS3ckDH7ryejTLhm4PV3oWWnmyyoN7yu1r8HkZ9SgbzUTdHR4YSEeYnkBLSCfDxvnb5M7U15brAhxETz242j","DdzFFzCqrhsvfJ1Vq1NRE9zsFuYZnkJ9mbAfsfMXzjkpL5hSqMz8LAsQ3c7e5siemhWKPuznEq3amrwP3uP7WythWDp4noLdxZf4T5ES","DdzFFzCqrhtAWkcGQApszU862puYiqHPApo6n2UPbU1oSZZmFy4qn3B1xxptyK6Sm5p94EumiN46WUULM7FXZLnWxNEmYNuVg3G2xEBk","DdzFFzCqrht2UfbayiLLp3kXBvFS2FYztwkrsDKpFH1ti2yS6MLCfer3RtUNSvsWGVomT76SdSUrNH2bG1ZoxSGo656ciGmZ8WzEdh5r","DdzFFzCqrhsyQKWQkyqoRZr4qw95VeThLrr1XzFeydqY2T24rnjiiq6nR8vGpqep8i56s3JAeaYmjF2M1PXPXhWzCVPVFLUYUD4LR9x8","DdzFFzCqrhsg7CKxJZBHByipRGRP2ubuYwBV7gLU2EaByssqn95ufXhqEhfSmAceFyPLTQYmJH1w9JNEqsvFPT2B4XXtPDwAmtpAbXUB","DdzFFzCqrht2UfbayiLLp3kXBvFS2FYztwkrsDKpFH1ti2yS6MLCfer3RtUNSvsWGVomT76SdSUrNH2bG1ZoxSGo656ciGmZ8WzEdh5r","DdzFFzCqrhsqDyJVsZc6cCYeX9juYhbxyjTUaCHA7Jhp7xwdGpKPLuxNi9L6YaNemZhF54bQERu6gxffnaPc1HQarcj8YVnYHtcU7dQw","DdzFFzCqrhsk1E1piewjHkSh69Cn4ocnmHuH27LbXuM48tdYBru3WWBYswP5QUgLFHcSm5wspAmdnADPA86iZhLzawx6zVFs7LjaVbSi","DdzFFzCqrht7uTipJzs1N2DaLGLkuA7CMkfNJ7LLX4bxNtJRd9mPmdwgRpu9bQaaECSb7ASBytxKXvf2x2mvVMiEKrHKpHhRWemhQQ7H","DdzFFzCqrhsdzK42MpiYLrWq4RcVTktQvBLy44xqqfUNDCQmY5mdyZ4Rrk9mb41wQD84G41uUWBfdgN6cEN692v4xFfKn2UNqejQ5Ur1"],"addressesOutput":["addr1q9atjfpqwdtg7ytz0pz9zcaqvx8zr2uv6ysvc4csqynr683dzefudzxhadht99nh8gv4l3z93d486ygllgxuh2drrrpsdw6fws","DdzFFzCqrhssmpSXUtRy9NFatrFkcNtrjDEBnV3Nh55kRS2KpzoPmBgfSxniLNZioYtWTndCFizntgHNnm422cCuvg5cWuYx2k3o94Kb","DdzFFzCqrht5fpPiHtMNEKfQ43pkRabGpCgi7SKvBrGi6UzcfXwwaDZLPRoDpaK9K2XKXX5cUSiFdCCybP1xMDAt3Myr5LDdTe2sLzpj","DdzFFzCqrhsrDrX26Kn9xFWF4Z9ArcLoSkoMrDaJe34GGXnQxWwmy4ESDHWXEq8rwtC5PbCeMtZeE9NKoktdohyTVHuKVeETAmJJyQku","DdzFFzCqrht2LzE2x5BFmLJSZSYN5W5SGNMgKngpFQKzcTpukvZD7TxYN1WsETqkTwAjRqueHNUTnnoTXZtRcRXvDDdQ27noAC5i1djk"],"fee":1028957,"totalOutput":54953394631,"tokens":[]},{"hash":"0ea1f6ca963809478de59925438af2bd04a5e05b973a8570f3a782eb2104f532","blockNo":8257737,"blockHash":"a514f0f27e3cb822dfd6ca8b7fe977987fd399cd7bae083cde57b20aafe89bf3","epochNo":387,"epochSlotNo":82786,"slot":81903586,"time":"2023/01/11 20:44:37","addressesInput":["addr1qxvfczek4uzgsdd4trqg6qu62r8ms2akfcm78km53hku6jycns9ndtcy3q6m2kxq35pe55x0hq4mvn3hu0dhfr0de4yq577lxc","addr1qxvfczek4uzgsdd4trqg6qu62r8ms2akfcm78km53hku6jycns9ndtcy3q6m2kxq35pe55x0hq4mvn3hu0dhfr0de4yq577lxc"],"addressesOutput":["addr1qxvfczek4uzgsdd4trqg6qu62r8ms2akfcm78km53hku6jycns9ndtcy3q6m2kxq35pe55x0hq4mvn3hu0dhfr0de4yq577lxc","addr1qxvfczek4uzgsdd4trqg6qu62r8ms2akfcm78km53hku6jycns9ndtcy3q6m2kxq35pe55x0hq4mvn3hu0dhfr0de4yq577lxc"],"fee":237985,"totalOutput":2171842158958,"tokens":[]},{"hash":"7637a36c0be55677dec0fe936d39fd6061b9c5c6ae7058eb6aaec2ede4e4d005","blockNo":8257629,"blockHash":"a0e616a073601f1919bf8427a3f885fdaed022453e9acfc941026567f133d8f2","epochNo":387,"epochSlotNo":80711,"slot":81901511,"time":"2023/01/11 20:10:02","addressesInput":["DdzFFzCqrhsixczHrcPjd5MbNmcj4yW8oz5cawjQ6CFXVZvucJEnu5h148dmw2ivNytSU5DSvVoA2iCPaj8aNunNwo2vn2X2F2QAszYh","DdzFFzCqrhskQYejtDmW1kY9UDZ3CLw1L1CXSznRrtgfHoXjCtvHTtMBfrBE5tcSCo4euK4vN2KdNR6BRid9jh2ppUi1h34aVQw1BiK3","DdzFFzCqrhtBEExUQmvLMLjv4pnbhPZVT2CACPLG44jfXmcciQRgh9vt93H9WMqXMh9VCnCeMrdGN8ebygEzS2WHYBkvyb2H8nyZz4gg","DdzFFzCqrhsjPM8BKi6i9wG5hZe1MudiC1MKFDjUZnfnHb59gQhbRZ6rWnyMcvyY32XE83RBNdPhWHcNTegRaYEfnFvEsZiJpFC3zTfm","DdzFFzCqrhspV2rFTKfQDHwCH5RMXzNn3FwfY4xx4C1GYHkhMhUpv82LEvENhJigCrZTdFukqPywTtLaAjA1tzEWCwMJKhBwsBSCCnMq","DdzFFzCqrhshgKcNDMXGkjmArEcfevcXwsiTAQ5h7qSHULv74J4dHqxrLTj8P7nrnroFs1x9Hi3iUgtEqG4nM7jjMu5TKi3BoKgEkoay","DdzFFzCqrhtBaB8AXMe5nzxuHUh9qxCVQphcgzrRutT4qRWXM8DwfjJkUZ9Eadz1QaPwPSL2th9ms2xzFS2qxU1dAKEuC7ma91VCy3rQ"],"addressesOutput":["addr1q9atjfpqwdtg7ytz0pz9zcaqvx8zr2uv6ysvc4csqynr683dzefudzxhadht99nh8gv4l3z93d486ygllgxuh2drrrpsdw6fws","DdzFFzCqrhsqDyJVsZc6cCYeX9juYhbxyjTUaCHA7Jhp7xwdGpKPLuxNi9L6YaNemZhF54bQERu6gxffnaPc1HQarcj8YVnYHtcU7dQw","DdzFFzCqrhsvfJ1Vq1NRE9zsFuYZnkJ9mbAfsfMXzjkpL5hSqMz8LAsQ3c7e5siemhWKPuznEq3amrwP3uP7WythWDp4noLdxZf4T5ES","DdzFFzCqrhsuN2cyrcdKV393VeXbWmm8Zx8ACXPwiFfEPEm3zb6gkcR89TcNKVQFC7xZT3RrEjcLXaXayhTAu2wnytkbAiWCmagK1jRg","DdzFFzCqrhsqWEbPceNTQS3ckDH7ryejTLhm4PV3oWWnmyyoN7yu1r8HkZ9SgbzUTdHR4YSEeYnkBLSCfDxvnb5M7U15brAhxETz242j"],"fee":970877,"totalOutput":51303170929,"tokens":[]},{"hash":"4cbf800abf7cde4b3855b274f81609322ad0b9bd09ce8e4b53dc1d2d68ad0d65","blockNo":8257464,"blockHash":"a89963a87183b4f2a69c91cc1dc75edf6f3896da5ce94df53fe76dc06c677101","epochNo":387,"epochSlotNo":76826,"slot":81897626,"time":"2023/01/11 19:05:17","addressesInput":["DdzFFzCqrht6hNHm3TqKc7CoYBcsphSxWDfD5ZYwCdXdCGcAEmJq5gpieDHT82hwCubESQzo1xRzbdNZSZxXa69sXNyvkqLdBGpEZ4ju","DdzFFzCqrhsk1E1piewjHkSh69Cn4ocnmHuH27LbXuM48tdYBru3WWBYswP5QUgLFHcSm5wspAmdnADPA86iZhLzawx6zVFs7LjaVbSi","DdzFFzCqrhsrmUqube9nT9CCEfFcyqmqmAKRA6CLPWrvRFaWwvnTpz3xEmbZCV7WQ43tJotyNno8dSDRv6n9eaKcwBM7BJ7g1fCMQLmu","DdzFFzCqrhsrmUqube9nT9CCEfFcyqmqmAKRA6CLPWrvRFaWwvnTpz3xEmbZCV7WQ43tJotyNno8dSDRv6n9eaKcwBM7BJ7g1fCMQLmu","DdzFFzCqrhsvxa4noszGY1b9bFpi9G8yFtgQKHBExua4ZNSGthdR5ibbcecCcdYdpB8WH9cuGc3XuUHVpX7pJFm4SYnxHxNSTbS1rHwq","DdzFFzCqrhsjPM8BKi6i9wG5hZe1MudiC1MKFDjUZnfnHb59gQhbRZ6rWnyMcvyY32XE83RBNdPhWHcNTegRaYEfnFvEsZiJpFC3zTfm"],"addressesOutput":["addr1q9atjfpqwdtg7ytz0pz9zcaqvx8zr2uv6ysvc4csqynr683dzefudzxhadht99nh8gv4l3z93d486ygllgxuh2drrrpsdw6fws","DdzFFzCqrhskQYejtDmW1kY9UDZ3CLw1L1CXSznRrtgfHoXjCtvHTtMBfrBE5tcSCo4euK4vN2KdNR6BRid9jh2ppUi1h34aVQw1BiK3"],"fee":410801,"totalOutput":290428921,"tokens":[]},{"hash":"2a8868afebd2dec01cfc346835f3c9595fcfa4ab4d41795c919426af8248b5d9","blockNo":8257424,"blockHash":"2e2aeff90e9c85f5c661e0c051c808f23a1e79383d0fad705d97b8f03b36b878","epochNo":387,"epochSlotNo":75973,"slot":81896773,"time":"2023/01/11 18:51:04","addressesInput":["addr1q9vj9w32w77p47ca725hantcf5nrzcex66vqq58kqm4l04y6hn99676mvdj6qvd34vfqh3jx6vy8tyfkuy6u3xcghq8sex2gzq","addr1q9vj9w32w77p47ca725hantcf5nrzcex66vqq58kqm4l04y6hn99676mvdj6qvd34vfqh3jx6vy8tyfkuy6u3xcghq8sex2gzq"],"addressesOutput":["addr1zxgx3far7qygq0k6epa0zcvcvrevmn0ypsnfsue94nsn3tvpw288a4x0xf8pxgcntelxmyclq83s0ykeehchz2wtspks905plm","addr1q9vj9w32w77p47ca725hantcf5nrzcex66vqq58kqm4l04y6hn99676mvdj6qvd34vfqh3jx6vy8tyfkuy6u3xcghq8sex2gzq","addr1q9vj9w32w77p47ca725hantcf5nrzcex66vqq58kqm4l04y6hn99676mvdj6qvd34vfqh3jx6vy8tyfkuy6u3xcghq8sex2gzq","addr1q9vj9w32w77p47ca725hantcf5nrzcex66vqq58kqm4l04y6hn99676mvdj6qvd34vfqh3jx6vy8tyfkuy6u3xcghq8sex2gzq","addr1q9vj9w32w77p47ca725hantcf5nrzcex66vqq58kqm4l04y6hn99676mvdj6qvd34vfqh3jx6vy8tyfkuy6u3xcghq8sex2gzq"],"fee":311273,"totalOutput":170231485,"tokens":[]},{"hash":"8dcfdd0496b4aa8f2a089ba18e2fde38964ff61f0e5ab79fbab2ea5a7241c594","blockNo":8257402,"blockHash":"6091d227cd9c9ca2fe1d8533ba85aa39fdaebccb1c7bf99beffd1fb113d8db9e","epochNo":387,"epochSlotNo":75644,"slot":81896444,"time":"2023/01/11 18:45:35","addressesInput":["addr1q8tr4y9p7n04ufvd85659haq0zan3uxn64zncjgmx8qt8dcwmcnnhwnehu25w9gas9273cg2p4jppvtja838qpmfauvqnu5az7","addr1q8tr4y9p7n04ufvd85659haq0zan3uxn64zncjgmx8qt8dcwmcnnhwnehu25w9gas9273cg2p4jppvtja838qpmfauvqnu5az7","addr1q8tr4y9p7n04ufvd85659haq0zan3uxn64zncjgmx8qt8dcwmcnnhwnehu25w9gas9273cg2p4jppvtja838qpmfauvqnu5az7","addr1q8tr4y9p7n04ufvd85659haq0zan3uxn64zncjgmx8qt8dcwmcnnhwnehu25w9gas9273cg2p4jppvtja838qpmfauvqnu5az7"],"addressesOutput":["addr1q87a53nwllync9g5umqs8wf060jm9mjvjdapynalnchskehuhaqyyurk33f80pqdk7yysx52sf8w7qfxxafx27lqq44sp4q5xh","addr1q8tr4y9p7n04ufvd85659haq0zan3uxn64zncjgmx8qt8dcwmcnnhwnehu25w9gas9273cg2p4jppvtja838qpmfauvqnu5az7"],"fee":352105,"totalOutput":60271379,"tokens":[]},{"hash":"0d90a3c0e2ce047855dcd507060407ad09d03559c80f21f70b217e88612426d1","blockNo":8257356,"blockHash":"35312f64ec388a80d8190a3366fefd6d75e8fa08b34ec0ddd8ff7e9e01e8300b","epochNo":387,"epochSlotNo":74650,"slot":81895450,"time":"2023/01/11 18:29:01","addressesInput":["addr1q8tr4y9p7n04ufvd85659haq0zan3uxn64zncjgmx8qt8dcwmcnnhwnehu25w9gas9273cg2p4jppvtja838qpmfauvqnu5az7","addr1q8tr4y9p7n04ufvd85659haq0zan3uxn64zncjgmx8qt8dcwmcnnhwnehu25w9gas9273cg2p4jppvtja838qpmfauvqnu5az7","addr1q8tr4y9p7n04ufvd85659haq0zan3uxn64zncjgmx8qt8dcwmcnnhwnehu25w9gas9273cg2p4jppvtja838qpmfauvqnu5az7"],"addressesOutput":["addr1vyx5t4h63wvlq8ftqrptfwfeku47872j9g9chx3v4vl35rggnp372","addr1q8tr4y9p7n04ufvd85659haq0zan3uxn64zncjgmx8qt8dcwmcnnhwnehu25w9gas9273cg2p4jppvtja838qpmfauvqnu5az7"],"fee":349289,"totalOutput":72623484,"tokens":[]},{"hash":"1962c3733ea5260429ae20ef807114ef3072dcc05c318d9279074a15d5d27b20","blockNo":8257026,"blockHash":"9ffeed714d5d7604bb62aa1cba873d269a5db0bc1f34a797a33f0c7c7acc97d8","epochNo":387,"epochSlotNo":67651,"slot":81888451,"time":"2023/01/11 16:32:22","addressesInput":["addr1qy0xznhgdhqj9u4g6jjdntf2cxy5lyad8j2p6a6dp8jwwttfq4uncdzu6hqlxn7gva2xsaln40x226fl8fsnqyyvzxtqqm3qw9","addr1zxgx3far7qygq0k6epa0zcvcvrevmn0ypsnfsue94nsn3tvpw288a4x0xf8pxgcntelxmyclq83s0ykeehchz2wtspks905plm","addr1qy0xznhgdhqj9u4g6jjdntf2cxy5lyad8j2p6a6dp8jwwttfq4uncdzu6hqlxn7gva2xsaln40x226fl8fsnqyyvzxtqqm3qw9"],"addressesOutput":["addr1zxgx3far7qygq0k6epa0zcvcvrevmn0ypsnfsue94nsn3tvpw288a4x0xf8pxgcntelxmyclq83s0ykeehchz2wtspks905plm","addr1qy0xznhgdhqj9u4g6jjdntf2cxy5lyad8j2p6a6dp8jwwttfq4uncdzu6hqlxn7gva2xsaln40x226fl8fsnqyyvzxtqqm3qw9","addr1qy0xznhgdhqj9u4g6jjdntf2cxy5lyad8j2p6a6dp8jwwttfq4uncdzu6hqlxn7gva2xsaln40x226fl8fsnqyyvzxtqqm3qw9"],"fee":433232,"totalOutput":9967187,"tokens":[]},{"hash":"e2737a5b1428d58f1284bb91a43874b8c3b49ff2b2d4645f18ba4036ab5216ba","blockNo":8257022,"blockHash":"242f4cd92cb16b00ba0596fba890673deee747299fe4182ce72b382749fe4f0f","epochNo":387,"epochSlotNo":67560,"slot":81888360,"time":"2023/01/11 16:30:51","addressesInput":["addr1qy0xznhgdhqj9u4g6jjdntf2cxy5lyad8j2p6a6dp8jwwttfq4uncdzu6hqlxn7gva2xsaln40x226fl8fsnqyyvzxtqqm3qw9","addr1zxgx3far7qygq0k6epa0zcvcvrevmn0ypsnfsue94nsn3tvpw288a4x0xf8pxgcntelxmyclq83s0ykeehchz2wtspks905plm","addr1qy0xznhgdhqj9u4g6jjdntf2cxy5lyad8j2p6a6dp8jwwttfq4uncdzu6hqlxn7gva2xsaln40x226fl8fsnqyyvzxtqqm3qw9"],"addressesOutput":["addr1zxgx3far7qygq0k6epa0zcvcvrevmn0ypsnfsue94nsn3tvpw288a4x0xf8pxgcntelxmyclq83s0ykeehchz2wtspks905plm","addr1qy0xznhgdhqj9u4g6jjdntf2cxy5lyad8j2p6a6dp8jwwttfq4uncdzu6hqlxn7gva2xsaln40x226fl8fsnqyyvzxtqqm3qw9","addr1qy0xznhgdhqj9u4g6jjdntf2cxy5lyad8j2p6a6dp8jwwttfq4uncdzu6hqlxn7gva2xsaln40x226fl8fsnqyyvzxtqqm3qw9"],"fee":432542,"totalOutput":10716365,"tokens":[]},{"hash":"d983c36d8c3d334240270783c0333873ea809d865e11dae4e4af18e5e127d3ff","blockNo":8257004,"blockHash":"9d9adc326a622a70c2977c8f5d97ae60640164cde22d02ea080fb8bbd5654ea9","epochNo":387,"epochSlotNo":67139,"slot":81887939,"time":"2023/01/11 16:23:50","addressesInput":["addr1qy0xznhgdhqj9u4g6jjdntf2cxy5lyad8j2p6a6dp8jwwttfq4uncdzu6hqlxn7gva2xsaln40x226fl8fsnqyyvzxtqqm3qw9","addr1qy0xznhgdhqj9u4g6jjdntf2cxy5lyad8j2p6a6dp8jwwttfq4uncdzu6hqlxn7gva2xsaln40x226fl8fsnqyyvzxtqqm3qw9","addr1qy0xznhgdhqj9u4g6jjdntf2cxy5lyad8j2p6a6dp8jwwttfq4uncdzu6hqlxn7gva2xsaln40x226fl8fsnqyyvzxtqqm3qw9"],"addressesOutput":["addr1qxh82p5jjfxzzrxdafvwlpd78crvq67lnz8yt5sdwdvsnvmptzp7uemy34mcltku4dl69fqc3edzxyqqwt4469pm9weq50gtvp","addr1qy0xznhgdhqj9u4g6jjdntf2cxy5lyad8j2p6a6dp8jwwttfq4uncdzu6hqlxn7gva2xsaln40x226fl8fsnqyyvzxtqqm3qw9","addr1qy0xznhgdhqj9u4g6jjdntf2cxy5lyad8j2p6a6dp8jwwttfq4uncdzu6hqlxn7gva2xsaln40x226fl8fsnqyyvzxtqqm3qw9"],"fee":222701,"totalOutput":28834357,"tokens":[]},{"hash":"57bf4c4aef8780b4b3a7af75ab7808e8451c58c809bf6bb069dcf941d779f495","blockNo":8256940,"blockHash":"4ce3b30ac5e9c944fbf23181b5b283ddfe95d5219c5d0e4d7321c5f2bd30bb06","epochNo":387,"epochSlotNo":66062,"slot":81886862,"time":"2023/01/11 16:05:53","addressesInput":["addr1q9vj9w32w77p47ca725hantcf5nrzcex66vqq58kqm4l04y6hn99676mvdj6qvd34vfqh3jx6vy8tyfkuy6u3xcghq8sex2gzq","addr1q9vj9w32w77p47ca725hantcf5nrzcex66vqq58kqm4l04y6hn99676mvdj6qvd34vfqh3jx6vy8tyfkuy6u3xcghq8sex2gzq"],"addressesOutput":["addr1zxgx3far7qygq0k6epa0zcvcvrevmn0ypsnfsue94nsn3tvpw288a4x0xf8pxgcntelxmyclq83s0ykeehchz2wtspks905plm","addr1q9vj9w32w77p47ca725hantcf5nrzcex66vqq58kqm4l04y6hn99676mvdj6qvd34vfqh3jx6vy8tyfkuy6u3xcghq8sex2gzq"],"fee":300493,"totalOutput":10334245,"tokens":[]},{"hash":"705130b082e0cfda4618826c4e8ec92e2ca97daf14271aeb6b4d717abce3907e","blockNo":8256927,"blockHash":"bcce7790f741d714e8c03f5614690a2a40174c9a4deffe05f2abf8a8c40a3e8b","epochNo":387,"epochSlotNo":65856,"slot":81886656,"time":"2023/01/11 16:02:27","addressesInput":["addr1q9vj9w32w77p47ca725hantcf5nrzcex66vqq58kqm4l04y6hn99676mvdj6qvd34vfqh3jx6vy8tyfkuy6u3xcghq8sex2gzq","addr1q9vj9w32w77p47ca725hantcf5nrzcex66vqq58kqm4l04y6hn99676mvdj6qvd34vfqh3jx6vy8tyfkuy6u3xcghq8sex2gzq"],"addressesOutput":["addr1zxgx3far7qygq0k6epa0zcvcvrevmn0ypsnfsue94nsn3tvpw288a4x0xf8pxgcntelxmyclq83s0ykeehchz2wtspks905plm","addr1q9vj9w32w77p47ca725hantcf5nrzcex66vqq58kqm4l04y6hn99676mvdj6qvd34vfqh3jx6vy8tyfkuy6u3xcghq8sex2gzq","addr1q9vj9w32w77p47ca725hantcf5nrzcex66vqq58kqm4l04y6hn99676mvdj6qvd34vfqh3jx6vy8tyfkuy6u3xcghq8sex2gzq"],"fee":304013,"totalOutput":11957908,"tokens":[]},{"hash":"b1fb8ed2169d0b4ec90cd079f041f2361653005034cfdd6e27898328631a7981","blockNo":8256922,"blockHash":"c5aa40d8c928107d620a47f7efcedad62238aff4cb87d04c3507268d1d9621fe","epochNo":387,"epochSlotNo":65736,"slot":81886536,"time":"2023/01/11 16:00:27","addressesInput":["addr1q9vj9w32w77p47ca725hantcf5nrzcex66vqq58kqm4l04y6hn99676mvdj6qvd34vfqh3jx6vy8tyfkuy6u3xcghq8sex2gzq","addr1zxgx3far7qygq0k6epa0zcvcvrevmn0ypsnfsue94nsn3tvpw288a4x0xf8pxgcntelxmyclq83s0ykeehchz2wtspks905plm","addr1q9vj9w32w77p47ca725hantcf5nrzcex66vqq58kqm4l04y6hn99676mvdj6qvd34vfqh3jx6vy8tyfkuy6u3xcghq8sex2gzq"],"addressesOutput":["addr1zxgx3far7qygq0k6epa0zcvcvrevmn0ypsnfsue94nsn3tvpw288a4x0xf8pxgcntelxmyclq83s0ykeehchz2wtspks905plm","addr1q9vj9w32w77p47ca725hantcf5nrzcex66vqq58kqm4l04y6hn99676mvdj6qvd34vfqh3jx6vy8tyfkuy6u3xcghq8sex2gzq","addr1q9vj9w32w77p47ca725hantcf5nrzcex66vqq58kqm4l04y6hn99676mvdj6qvd34vfqh3jx6vy8tyfkuy6u3xcghq8sex2gzq"],"fee":497217,"totalOutput":13580781,"tokens":[]},{"hash":"6bbd13ed826a54ce0b6fd269ffd8bef7a944e844be9629300832f2635922b1a5","blockNo":8256920,"blockHash":"b4fc360eceb286d20a0dcd03c7989453de1896af361a2a680834914bb2816bf4","epochNo":387,"epochSlotNo":65685,"slot":81886485,"time":"2023/01/11 15:59:36","addressesInput":["addr1q9vj9w32w77p47ca725hantcf5nrzcex66vqq58kqm4l04y6hn99676mvdj6qvd34vfqh3jx6vy8tyfkuy6u3xcghq8sex2gzq","addr1q9vj9w32w77p47ca725hantcf5nrzcex66vqq58kqm4l04y6hn99676mvdj6qvd34vfqh3jx6vy8tyfkuy6u3xcghq8sex2gzq","addr1q9vj9w32w77p47ca725hantcf5nrzcex66vqq58kqm4l04y6hn99676mvdj6qvd34vfqh3jx6vy8tyfkuy6u3xcghq8sex2gzq"],"addressesOutput":["addr1zxgx3far7qygq0k6epa0zcvcvrevmn0ypsnfsue94nsn3tvpw288a4x0xf8pxgcntelxmyclq83s0ykeehchz2wtspks905plm","addr1q9vj9w32w77p47ca725hantcf5nrzcex66vqq58kqm4l04y6hn99676mvdj6qvd34vfqh3jx6vy8tyfkuy6u3xcghq8sex2gzq","addr1q9vj9w32w77p47ca725hantcf5nrzcex66vqq58kqm4l04y6hn99676mvdj6qvd34vfqh3jx6vy8tyfkuy6u3xcghq8sex2gzq"],"fee":306037,"totalOutput":14060758,"tokens":[]}],"totalItems":12832,"totalPages":642,"currentPage":0}