{"data":[{"txId":25770109,"txHash":"cb7089bdcb6457e89d8272b87f33f536a2b70a1ae9d8dcc4abfe9f3427eb03de","txTime":"2022/01/07 03:08:09","block":6725256,"epoch":313,"slotNo":49958598,"epochSlotNo":105798,"stakeKey":"stake1uyl5wqehtssp9kqd9j3y32c9cjh4e20g8qn8zjp9zynr49qxd5at4"},{"txId":25769929,"txHash":"e013f998d66a491081e9995b437167287c5e4fe51959cea87aa343e26407d32e","txTime":"2022/01/07 03:06:06","block":6725250,"epoch":313,"slotNo":49958475,"epochSlotNo":105675,"stakeKey":"stake1u9upa9969727kxuvqn4dceu9dfz0mcln9kk2uy3fzh9zqas04p8lc"},{"txId":25769847,"txHash":"68116880344e939ceef012dfcaed6754fa9f3d9f95e378ca047f8ccf90ae86f5","txTime":"2022/01/07 03:05:40","block":6725249,"epoch":313,"slotNo":49958449,"epochSlotNo":105649,"stakeKey":"stake1uyzn3sv49vxcqmedzas8jc03gdysu2ped3tu9plmk852c9s27dymv"},{"txId":25769517,"txHash":"84e6e5fe2c504a15a9ed00fba6cc7f24acba242e3d6da966778a66eaa18687be","txTime":"2022/01/07 03:02:13","block":6725241,"epoch":313,"slotNo":49958242,"epochSlotNo":105442,"stakeKey":"stake1u9wth7y3ke4zddmjdl93pd4f39z3kmvkvl8e222fl66a07snjh50a"},{"txId":25769263,"txHash":"e4a241bd403abec1e0b7423c363d36096da85b25357aaf8f14a9ca3f8c0f4670","txTime":"2022/01/07 02:58:34","block":6725231,"epoch":313,"slotNo":49958023,"epochSlotNo":105223,"stakeKey":"stake1ux45tup20yzdf2le7z5jtnkh22xv4l6er2t52mel3d640gsy47ju6"},{"txId":25769039,"txHash":"aed891af065f4033f1e4e859e63759d1ecabb438368095d80fe6f993cb90bfb9","txTime":"2022/01/07 02:56:05","block":6725224,"epoch":313,"slotNo":49957874,"epochSlotNo":105074,"stakeKey":"stake1u9h4gs9prgmynyztvwg2kenzd5ll0l6d990grcmg3vmtfpsektswx"},{"txId":25768960,"txHash":"04ca84c58f3344716ea7fc5f66b19ed762aff0502220ef184503e17e66d4d58a","txTime":"2022/01/07 02:55:25","block":6725223,"epoch":313,"slotNo":49957834,"epochSlotNo":105034,"stakeKey":"stake1uxpdn82dynzd3hqewvp5d4wzzhlkcpr8qgm60q0fn22wa4qe5q5mv"},{"txId":25768937,"txHash":"c6e8adbed032c2dc260965adbfa6483a4ebab0012b718119b9a801d7760b74a2","txTime":"2022/01/07 02:54:57","block":6725222,"epoch":313,"slotNo":49957806,"epochSlotNo":105006,"stakeKey":"stake1u970l3xq95c8p4ux994ven42f6h2s26reyxvk9e83depnes9lpjtl"},{"txId":25768635,"txHash":"0cdce61e86168a711cc36945d5201c2511f7f9dec042a78feb61a805bc0bea3c","txTime":"2022/01/07 02:51:33","block":6725202,"epoch":313,"slotNo":49957602,"epochSlotNo":104802,"stakeKey":"stake1u9mmppfyfg9pehhn0yeyaf522zkcy7pkd7vymjefcxfhxsg60zh5g"},{"txId":25768463,"txHash":"10aabed84f358685c206e14b85500e6deaecfde6839f6c545e590a032c316838","txTime":"2022/01/07 02:49:40","block":6725198,"epoch":313,"slotNo":49957489,"epochSlotNo":104689,"stakeKey":"stake1u8cjca7whl6639s44weqtm5uzxf3vp2v7t7uq7lvc72ynngtft5cs"},{"txId":25768322,"txHash":"544c0ba6d9ebf91b8c8756069d027c688e9b70984874743f5e2be74f785b84d3","txTime":"2022/01/07 02:47:40","block":6725193,"epoch":313,"slotNo":49957369,"epochSlotNo":104569,"stakeKey":"stake1u9u48rcp5742ghlvknk4nn9jalwzhe53qnk9kjg4kymxmegkvlaa6"},{"txId":25767994,"txHash":"50877518d047eadad1710053e5ac40c10553380aab449dfe840ae32cd61d12d5","txTime":"2022/01/07 02:44:05","block":6725183,"epoch":313,"slotNo":49957154,"epochSlotNo":104354,"stakeKey":"stake1uysq9nr8ltkpuehdk7gwlcyawej7vylhpqv06k37npzlurstlytsl"},{"txId":25767619,"txHash":"9aba2a80fd6b3ce934793b108b7b9fbee573cee0aaa0c8faf2b9e4bd0e9314ce","txTime":"2022/01/07 02:40:16","block":6725173,"epoch":313,"slotNo":49956925,"epochSlotNo":104125,"stakeKey":"stake1uxw4ptps7q5hk934jxazlykuzqdj6e962drhvg37jnpr67cuenxkx"},{"txId":25767588,"txHash":"7e06b1eead053dd93cffbeb1dd812b6d29e779a79da3e2e44b929604e480caad","txTime":"2022/01/07 02:39:25","block":6725172,"epoch":313,"slotNo":49956874,"epochSlotNo":104074,"stakeKey":"stake1uygje7lgq0fafrtpgqaljx20umnn96d6jsqvqz9p3n72hecn7qc68"},{"txId":25767334,"txHash":"94116acb5c99a2c3608dd7c782455b571718d1bd73fb145c9c93103a2d200387","txTime":"2022/01/07 02:36:54","block":6725166,"epoch":313,"slotNo":49956723,"epochSlotNo":103923,"stakeKey":"stake1uyglrfs7ce58h6w7ue92c5hfc5xyw2t9258684kkjattq2qx2n3jp"},{"txId":25767330,"txHash":"79c747fc1b58bd8c3a36106b8a76f601bba9f5e36b562caea7f9e423c8d90d52","txTime":"2022/01/07 02:36:54","block":6725166,"epoch":313,"slotNo":49956723,"epochSlotNo":103923,"stakeKey":"stake1ux7spj2qrdmd0d43kmyzkqv797x8s3qeg9l9a6y9gre3kacf36yvc"},{"txId":25766954,"txHash":"d641c4a7d905d424df78ef6f75e3906ea794c6f5617565b712110133ab21a473","txTime":"2022/01/07 02:32:45","block":6725152,"epoch":313,"slotNo":49956474,"epochSlotNo":103674,"stakeKey":"stake1uxm3fvvmgymqelvjt6ndvyw4scdh6h46fvs66d7t4zau4pqde2kqp"},{"txId":25766841,"txHash":"51dcba8afff923042b9363b83ab5a07b567f38127271f65547488fe0e496faa9","txTime":"2022/01/07 02:31:41","block":6725147,"epoch":313,"slotNo":49956410,"epochSlotNo":103610,"stakeKey":"stake1uy952mdfvevdyjnr4r52prcggf4x96grd8jm4xwly5lve9q4al2qe"},{"txId":25766344,"txHash":"71b02780283fcaa0e745a3405404cd4efb7b7831c797aaeb9d6767c6755e00bf","txTime":"2022/01/07 02:26:05","block":6725127,"epoch":313,"slotNo":49956074,"epochSlotNo":103274,"stakeKey":"stake1uyeukpev76s9mdy25jf96mpxqryq93xucdq7y2ka5ry6lfqfma24d"},{"txId":25765648,"txHash":"72135817aa3d7df86a167b5692e52caa30c15d76f98663cf9c202fced71aac55","txTime":"2022/01/07 02:18:47","block":6725108,"epoch":313,"slotNo":49955636,"epochSlotNo":102836,"stakeKey":"stake1u8mcenw5eylvxk2hxmxd2hgecrp8wfwnhde4gcr7we5gzega2gu6a"}],"totalItems":185826,"totalPages":9292,"currentPage":0}