{"data":[{"txId":59066595,"txHash":"f6e4a7eef588aa930ff0df3c139cabe301a73a75ca06f28550bc4731eac75b10","txTime":"2023/01/07 02:47:18","block":8237995,"epoch":386,"slotNo":81493347,"epochSlotNo":104547,"stakeKey":"stake1u8kmemz2t0nnqxntjjhcnnwut5rhne23px2qkfkfcdf2gjg5x64jq"},{"txId":59066168,"txHash":"e93d95dad10ffd2e82c70497cc5a0aaa5b1f744e0ba28cd18b52f46317e48515","txTime":"2023/01/07 02:38:38","block":8237971,"epoch":386,"slotNo":81492827,"epochSlotNo":104027,"stakeKey":"stake1uyxhgpkmuhczv2a0cknyjezls8jn6286vh7xs8l42u27mfqnaym9y"},{"txId":59065983,"txHash":"022154b69a69a2781498786912f0517c73b09233f87726a29c0da3ab65113c1a","txTime":"2023/01/07 02:35:03","block":8237959,"epoch":386,"slotNo":81492612,"epochSlotNo":103812,"stakeKey":"stake1u9vs9du4h6dxca6jwxhw2w5yzcdet69szlg89e50k2k0j5gd3kjvj"},{"txId":59065774,"txHash":"cda85a214f24a8d9b38f0ffb5483f4413360d48aa5582950847f0d095d938113","txTime":"2023/01/07 02:30:21","block":8237947,"epoch":386,"slotNo":81492330,"epochSlotNo":103530,"stakeKey":"stake1u9nm7r7gjdfzhvpcfnnxajcqd6nxvqtulmekc2vv7ntzawsmy3z07"},{"txId":59065643,"txHash":"32fc30a29bb38aaae0efb47cd260fccc345753d372bf0f296d3af378ad3ac461","txTime":"2023/01/07 02:28:02","block":8237936,"epoch":386,"slotNo":81492191,"epochSlotNo":103391,"stakeKey":"stake1u8dzt35xpnaxycfwlyle2v3k82zmrtmlmk7hfwk5s886zjqk0vats"},{"txId":59065493,"txHash":"c31d7dee05440fdde3317d2cadc8fba60f4319690476214991f19ada9c19a09a","txTime":"2023/01/07 02:25:00","block":8237929,"epoch":386,"slotNo":81492009,"epochSlotNo":103209,"stakeKey":"stake1u9rrj6fe6ntmj0n52whqmgwzlnfu6wg3yu5m9c5mj9arpgcyxw2al"},{"txId":59065202,"txHash":"897e5df633c4fcbea3c00a111a1aea6dfdb763983dfffc2ff51565c9eb592440","txTime":"2023/01/07 02:18:34","block":8237909,"epoch":386,"slotNo":81491623,"epochSlotNo":102823,"stakeKey":"stake1u9nm7r7gjdfzhvpcfnnxajcqd6nxvqtulmekc2vv7ntzawsmy3z07"},{"txId":59065095,"txHash":"a5c970159142484e250bc198df33e5c6dcfaca6c63925dcfd05a474a34bf5aec","txTime":"2023/01/07 02:16:47","block":8237905,"epoch":386,"slotNo":81491516,"epochSlotNo":102716,"stakeKey":"stake1u98993836rmj0n9kkqvy44duj4sc77y9g0drw88ucuv8zucwdf4sk"},{"txId":59064984,"txHash":"e3877c064d73896228edf53af6f8711007b4fd4233ff150d318a4f6dd167e852","txTime":"2023/01/07 02:15:07","block":8237903,"epoch":386,"slotNo":81491416,"epochSlotNo":102616,"stakeKey":"stake1ux8tks4qyerte76q8e6fh22r9x4dgz8cg8787nw5as832xgqdppkf"},{"txId":59064872,"txHash":"7e3461d87458e90caac6da229eff1cc52d523e886fd1dde2f4191c7d1eb2ea86","txTime":"2023/01/07 02:12:27","block":8237898,"epoch":386,"slotNo":81491256,"epochSlotNo":102456,"stakeKey":"stake1uyyfugtmag2t07vly0su20d392tqs0v9j3vg5tvtccjvhrs6txtfw"},{"txId":59064363,"txHash":"7b157b7fb13fbebbfe0c5d92a9864ce479387f758a3e45331a01d6f42e27367b","txTime":"2023/01/07 02:03:00","block":8237868,"epoch":386,"slotNo":81490689,"epochSlotNo":101889,"stakeKey":"stake1ux2cfltkuwayh0lxjnm6szqnsgr9wwzm2rtj6a48j59g3usql5zv2"},{"txId":59064351,"txHash":"114896c6a6335e0fe93328b504230546a3525d29175219f5cff09d1855c59fdd","txTime":"2023/01/07 02:02:58","block":8237867,"epoch":386,"slotNo":81490687,"epochSlotNo":101887,"stakeKey":"stake1u947lrp4qjj3gapd3z8zmzrrurmwukduczhza7kcek7hdqcuxz5uj"},{"txId":59064283,"txHash":"087d4b7a8164e10dd5eb508c48a92a4c0b4c9821962fa10ec7e575e9e1428214","txTime":"2023/01/07 02:01:42","block":8237864,"epoch":386,"slotNo":81490611,"epochSlotNo":101811,"stakeKey":"stake1u9qrqvvryk0mwffek8jy5ak09n2nj0s55nudxlhwlcnwgngs7sdam"},{"txId":59064206,"txHash":"7fb049e3264acb3991b170a81e0ad614e6fd457424011c2ffd7417bf9f9caf0d","txTime":"2023/01/07 02:01:00","block":8237861,"epoch":386,"slotNo":81490569,"epochSlotNo":101769,"stakeKey":"stake1u9kfxvwffu56e6d475dll2047rzk2dlj6nnx6rmheg09yjqt970ua"},{"txId":59063971,"txHash":"00c39d2dae6c54e98be7b7c050018077546aaf99607b19bb99b2a49663c97fe5","txTime":"2023/01/07 01:55:29","block":8237847,"epoch":386,"slotNo":81490238,"epochSlotNo":101438,"stakeKey":"stake1uycgz6zt82dqhc6dk7jwfkrwty85jzujp9vd2tsm5q0gjjqtt36nc"},{"txId":59063826,"txHash":"ea03b3a92e0542bb51eb67a6fb0c6f2bb643645d844267069b0b39900103a9b0","txTime":"2023/01/07 01:52:40","block":8237839,"epoch":386,"slotNo":81490069,"epochSlotNo":101269,"stakeKey":"stake1u8q4ap969758g843yqufgqk9z3tsvk07wl2ak2f0mxp0skqvlw5gy"},{"txId":59063766,"txHash":"d3eb4e7211c8b472577d7245f1c371b4a849da69d6e20133e547498cfe026ac1","txTime":"2023/01/07 01:51:40","block":8237836,"epoch":386,"slotNo":81490009,"epochSlotNo":101209,"stakeKey":"stake1u8azvwsj8rw894sqcqm2dh6zfurret8u66wjuxtdml84w6sddef0u"},{"txId":59063282,"txHash":"ebadeec8715fbf0f8a2d208a80e672c5a560fcb3682f9bc1e9309c1bfcb9b28f","txTime":"2023/01/07 01:42:47","block":8237804,"epoch":386,"slotNo":81489476,"epochSlotNo":100676,"stakeKey":"stake1u8ts39lc4mee728stc7lzphz7trtl3r4hxj4t9pvdv4yhmg8gsnmx"},{"txId":59063219,"txHash":"ed388cc3e1a9fdaa211e711ab33b24453ebaf6d3f17b140f57f2e4307148712f","txTime":"2023/01/07 01:42:18","block":8237800,"epoch":386,"slotNo":81489447,"epochSlotNo":100647,"stakeKey":"stake1uymxc4h2rs8whjp2kry3cplnescj9cad8z95tqs4zlu7qzgjgada5"},{"txId":59063212,"txHash":"b53f701211779828b607c22dfb68458307b1493463bb07b07fb2a5719407ac97","txTime":"2023/01/07 01:42:18","block":8237800,"epoch":386,"slotNo":81489447,"epochSlotNo":100647,"stakeKey":"stake1u9cnl0j4lj8exem04g52dwvgccd4xkj695hrqd8ry0s8ukspvz4qu"}],"totalItems":1640263,"totalPages":82014,"currentPage":0}