{"data":[{"txId":59047489,"txHash":"74c56e20b15cb23d20253ab837c14c6ef8237db2f5bc49d5041c89ff43f3e2e9","txTime":"2023/01/06 21:17:06","block":8237001,"epoch":386,"slotNo":81473535,"epochSlotNo":84735,"stakeKey":"stake1u8xygej986s66gvzq7pzjdkx0yyzekmuypleyw6ysw4ef8swjwh68"},{"txId":59046076,"txHash":"040fd3bcb51dd7130fa40a9218992e4a43714d31f84465e3e5bcc717b1f0b93e","txTime":"2023/01/06 20:55:10","block":8236930,"epoch":386,"slotNo":81472219,"epochSlotNo":83419,"stakeKey":"stake1u89atu87p96hwv5lkq9g9eu32q89ng2nz7ljwhlag3m67tqnrvp4v"},{"txId":59045951,"txHash":"ec9cee1389faf7df1313fbd9ce4680facd488f67924604190846128d88e6b410","txTime":"2023/01/06 20:54:15","block":8236927,"epoch":386,"slotNo":81472164,"epochSlotNo":83364,"stakeKey":"stake1u9u4nex7hkwt96ks8dsc74wjtvuhqqqecckqeepupzs7tls90aczz"},{"txId":59045197,"txHash":"240333f7561c7c093abb9c18f3a918b69d49b787a77798b3786cb64b54119a25","txTime":"2023/01/06 20:41:51","block":8236891,"epoch":386,"slotNo":81471420,"epochSlotNo":82620,"stakeKey":"stake1u9da6dfp37husepmahealvlzwnvvs5kmgw24n8qvtn6p2eg000tv2"},{"txId":59045146,"txHash":"b63d253b96ed3478f3c01986cade267f1e8d7fd2e079d849f626c07d06c9284f","txTime":"2023/01/06 20:40:45","block":8236890,"epoch":386,"slotNo":81471354,"epochSlotNo":82554,"stakeKey":"stake1uywkzyaz2enfpay95kzj9nyjgws6tw7cy896r03f3ar2u0c9wdae2"},{"txId":59044603,"txHash":"4b27a98ae9e68906027daad2231ee279c0f00a4f52d11a095776a477c5d80ecb","txTime":"2023/01/06 20:32:04","block":8236866,"epoch":386,"slotNo":81470833,"epochSlotNo":82033,"stakeKey":"stake1uyha7zg2n4nnqka5u7lkw0c9gkr8ehl5x50ana6sxzna2rsf6nvq3"},{"txId":59044368,"txHash":"12553a0da0ea35fe3423b4cf72fa754fad0be3e602d32045d634dee538c0da2a","txTime":"2023/01/06 20:28:57","block":8236857,"epoch":386,"slotNo":81470646,"epochSlotNo":81846,"stakeKey":"stake1uxfhlguz73dmlp55dzf3nwqrskhvhgf0m6lr9ux3kw2qahq07u25e"},{"txId":59044334,"txHash":"f6b767d689cc5e0a3707de512edfe3248726aa1866d680a36126ade8a19b107b","txTime":"2023/01/06 20:28:45","block":8236856,"epoch":386,"slotNo":81470634,"epochSlotNo":81834,"stakeKey":"stake1u8pqtejuql88fm0065psemtaxerqktzh49q52l8ae7lwpzc93wjg4"},{"txId":59043920,"txHash":"e316634e6f95c27b29bafb9d32a71d3e54d2ef3b178a1682e403140c3dc74681","txTime":"2023/01/06 20:23:39","block":8236844,"epoch":386,"slotNo":81470328,"epochSlotNo":81528,"stakeKey":"stake1uynns29qklpyjaw2e6tfr0fxcsw3vdlgyaj2fcec2hw560qtufv5v"},{"txId":59043317,"txHash":"0af10f6f2cf47f3ea7272cf83460cd2dbd0a2d251fb2fb066183fd8078168d68","txTime":"2023/01/06 20:14:11","block":8236820,"epoch":386,"slotNo":81469760,"epochSlotNo":80960,"stakeKey":"stake1uynns29qklpyjaw2e6tfr0fxcsw3vdlgyaj2fcec2hw560qtufv5v"},{"txId":59042731,"txHash":"e508646d0318b3d0a6709fd13d18c8e0e92909f63b2138dadfd35dc1adb915d7","txTime":"2023/01/06 20:06:34","block":8236796,"epoch":386,"slotNo":81469303,"epochSlotNo":80503,"stakeKey":"stake1uxzplyanu0l5z2ax529kqu4sgh6wa0hypgy67wwqy7unh0q0wqpxv"},{"txId":59042475,"txHash":"362bae7d4ae9db22c94d8abd589fd0b9c70c6e1b80ad121c45bd71b6b4503a04","txTime":"2023/01/06 20:02:48","block":8236785,"epoch":386,"slotNo":81469077,"epochSlotNo":80277,"stakeKey":"stake1uxqaatqmwjgj34yuwrhdnxrqeg6z4nwuhrzhws24xzdnylqtpxfyf"},{"txId":59042216,"txHash":"437aaec9a7f89176a8ed478b2f37380bad53073060a361567520b4cdfb7a802a","txTime":"2023/01/06 19:59:33","block":8236775,"epoch":386,"slotNo":81468882,"epochSlotNo":80082,"stakeKey":"stake1u8gut7l49mkr8f7fzcgtut8qxed4xcecg6yhxapdzxcdrfcnazklr"},{"txId":59042164,"txHash":"7de3f7df9cdfb78cf84f3aa3c1c19905ff8c790395c06a590266c7f7ed8f2804","txTime":"2023/01/06 19:59:01","block":8236773,"epoch":386,"slotNo":81468850,"epochSlotNo":80050,"stakeKey":"stake1uxgg5tfnlg3979ay92k7pykphme8pq9hrat9dj0770nj3dsrpceck"},{"txId":59041873,"txHash":"47b66231086acdd84aa77ac6732eadac8f8981eb57c64f5694eb2d14eda14095","txTime":"2023/01/06 19:54:37","block":8236764,"epoch":386,"slotNo":81468586,"epochSlotNo":79786,"stakeKey":"stake1uxpe96ep8yxg9n72gvrz2n9gxvwm7kenm99t39dzaqq8pdgsyncqz"},{"txId":59041718,"txHash":"2edc83f0dea8f8c7966b64b537d983a83a564f5671ae753f60621556288f2662","txTime":"2023/01/06 19:52:37","block":8236760,"epoch":386,"slotNo":81468466,"epochSlotNo":79666,"stakeKey":"stake1u824gq50mr7y42gewj8tzwms2akn7c2nnasnj0r58jqz9zggeggtj"},{"txId":59041269,"txHash":"00c7010b56aeb8d2b316863b48477279bd5906121b2d0207d1d522f3a812e6a8","txTime":"2023/01/06 19:45:56","block":8236748,"epoch":386,"slotNo":81468065,"epochSlotNo":79265,"stakeKey":"stake1u97tqjyqhqy605jrxychzgj0mzx53tdpj3esnsfy49htxtqvszeuc"},{"txId":59041089,"txHash":"9c6af3f017668ca296416bf679eb729080e91769175b4f1078c0202ed8a7417d","txTime":"2023/01/06 19:44:05","block":8236741,"epoch":386,"slotNo":81467954,"epochSlotNo":79154,"stakeKey":"stake1u820gg2ahpzu8crew29ahlgqxrdzkj97jq0wyen54x4dj0g552770"},{"txId":59040350,"txHash":"239d6482fff83ba99ad979ce6b6bd9346fa166ac9c927d12755f187487e0504d","txTime":"2023/01/06 19:34:39","block":8236712,"epoch":386,"slotNo":81467388,"epochSlotNo":78588,"stakeKey":"stake1uxdn53n3faxvlgn52rcm2fatrmzw2mnnzf7kz8yfvgavftcfep05z"},{"txId":59040305,"txHash":"690f6ef6145b179597041595672c9100f2d57ef3826d204eb7c797c5fcfeec6a","txTime":"2023/01/06 19:34:17","block":8236711,"epoch":386,"slotNo":81467366,"epochSlotNo":78566,"stakeKey":"stake1u9mkrxyqq8axdp3da074usdhmu9gwskvvxrxnc90aufr8gqyln4tl"}],"totalItems":342436,"totalPages":17122,"currentPage":0}