{"data":[{"blockNo":8374684,"slotNo":84316499,"epochNo":392,"epochSlotNo":335699,"hash":"89e36e9e4078812443e93686cc60e501cc9db69e9d0eebcda485c42bb109cf59","time":"2023/02/08 18:59:50","txCount":6,"totalFees":1567230,"totalOutput":4218403466,"slotLeader":"96a46d5a796a30483492c3717f80b7c6ef87e9525af162ffacf74fdb"},{"blockNo":8374683,"slotNo":84316489,"epochNo":392,"epochSlotNo":335689,"hash":"f66dc7e7ef923204dfe94a24806997a98cb8549f237fc361dc66281721b82edf","time":"2023/02/08 18:59:40","txCount":18,"totalFees":4832999,"totalOutput":1123445799283,"slotLeader":"b3f9883d3de29971c43e05fdb985281ffee737be0e5669094810ba6b"},{"blockNo":8374682,"slotNo":84316465,"epochNo":392,"epochSlotNo":335665,"hash":"9477b0525741daec38917816f3319bbd485cbed2d036cd3dea0b116355336fda","time":"2023/02/08 18:59:16","txCount":25,"totalFees":8168876,"totalOutput":65198463973,"slotLeader":"94864d27407c1dd0569e4acb9c7fa6ec2cc19a6193d9171f2d811232"},{"blockNo":8374681,"slotNo":84316434,"epochNo":392,"epochSlotNo":335634,"hash":"f6139c3f46bfc97d0230281cd8fbbf81c45fb262d4fb57c0c395ee4d816488e2","time":"2023/02/08 18:58:45","txCount":18,"totalFees":7512635,"totalOutput":89128879545,"slotLeader":"f1b265f1e545da9c6e003c5d703fb5a23283c646cd40b2d619671e7f"},{"blockNo":8374680,"slotNo":84316415,"epochNo":392,"epochSlotNo":335615,"hash":"112379e572504376e27590370a816a0721700acba21d30997403a90ea76ad38b","time":"2023/02/08 18:58:26","txCount":27,"totalFees":8566815,"totalOutput":22664384312688,"slotLeader":"105a6816701a47f2fd43239a9340606640913012811485543bb05968"},{"blockNo":8374679,"slotNo":84316388,"epochNo":392,"epochSlotNo":335588,"hash":"6692a706e4247f60c57ef60d2481ca9dc54aa517821ad66cfa706ad1f6f30800","time":"2023/02/08 18:57:59","txCount":16,"totalFees":4652684,"totalOutput":409519490073,"slotLeader":"7113de447fb62c38e3e3aeec434cac6fc76e05e997b84227e9c637b8"},{"blockNo":8374678,"slotNo":84316370,"epochNo":392,"epochSlotNo":335570,"hash":"6af7ab7b56e2401b4c1d3e02db8d511b2e7affbc184d4f1cbecabca4bb48fea2","time":"2023/02/08 18:57:41","txCount":1,"totalFees":233854,"totalOutput":6734644217,"slotLeader":"486d217a5ef6e9cb5e46a19900a56b1c1f4f1ec4374b744df5a1ef6a"},{"blockNo":8374677,"slotNo":84316368,"epochNo":392,"epochSlotNo":335568,"hash":"28dbb9651dd8f823dd8463484afb7bb06d7a67a2eb7cab81e4ebe5d1bbec8d04","time":"2023/02/08 18:57:39","txCount":21,"totalFees":5893326,"totalOutput":569543728954,"slotLeader":"28cf6c6c01ecbfbd5e807fd879132f07b2c6f0712b930442a229d380"},{"blockNo":8374676,"slotNo":84316351,"epochNo":392,"epochSlotNo":335551,"hash":"56c7aedd93bcefdf9dd59176462f861952dea22710e30bf7c885cbdbd12cbe86","time":"2023/02/08 18:57:22","txCount":22,"totalFees":7650197,"totalOutput":5871399797563,"slotLeader":"2bf5a031b46b34c07937a769ff6f82b6a78a25c71022eaaf1f20eec9"},{"blockNo":8374675,"slotNo":84316327,"epochNo":392,"epochSlotNo":335527,"hash":"0c85c43727db511acf379c960de0438042b89c09bf883fb475aab8f1740ce599","time":"2023/02/08 18:56:58","txCount":16,"totalFees":3821017,"totalOutput":5695459073256,"slotLeader":"89eba2781e5cd11ccda6be56503702a39e9941e522f04cd5bba22957"},{"blockNo":8374674,"slotNo":84316302,"epochNo":392,"epochSlotNo":335502,"hash":"5cebd3f9f0a08a0d40b7073fbc0c60d80b11d04735145161973763f5be112277","time":"2023/02/08 18:56:33","txCount":5,"totalFees":1141682,"totalOutput":10337382264,"slotLeader":"da482311081902f95d08bb05d878126904a1e133dd06901e05e652ce"},{"blockNo":8374673,"slotNo":84316297,"epochNo":392,"epochSlotNo":335497,"hash":"78510c7e620d8eaa89d3b098e2e33632841f50f18e68bfb6146fc90f64265aa9","time":"2023/02/08 18:56:28","txCount":18,"totalFees":8225294,"totalOutput":7709063179585,"slotLeader":"926b65d00c21aa1fb19e44faa2293e342578ed6a80aca4a551191a70"},{"blockNo":8374672,"slotNo":84316284,"epochNo":392,"epochSlotNo":335484,"hash":"c6ec6ad7330fdff7634ef58885128aa92af76e59dffb58a6655817e124f97d8b","time":"2023/02/08 18:56:15","txCount":26,"totalFees":8178505,"totalOutput":2166579628809,"slotLeader":"19521342b6c4cefb13f091a075a221a3e765435a0646902dd5379f3a"},{"blockNo":8374671,"slotNo":84316247,"epochNo":392,"epochSlotNo":335447,"hash":"37e3424369ac93f6d7dc9c2e9490ec3708e9577a73e7ed2e80e869ca64e8025c","time":"2023/02/08 18:55:38","txCount":18,"totalFees":4700032,"totalOutput":68743630330,"slotLeader":"b91e740582b7166b2238c19dbb081de4cb86be0b27ead58401510c05"},{"blockNo":8374670,"slotNo":84316229,"epochNo":392,"epochSlotNo":335429,"hash":"6da33e244e12c33ae4378fcf08869fffcf64cd5291a032e0d1577261c5a06c0a","time":"2023/02/08 18:55:20","txCount":22,"totalFees":7877173,"totalOutput":3878211173270,"slotLeader":"cb9a5414581696cf9176787e99472790355a7de61d67a5643da95a86"},{"blockNo":8374669,"slotNo":84316210,"epochNo":392,"epochSlotNo":335410,"hash":"a2e8fab72005d40ccc114c2dd742e865c1072768c4357e4e6e1e4f88f02904d8","time":"2023/02/08 18:55:01","txCount":7,"totalFees":1431202,"totalOutput":347240005433,"slotLeader":"4594f67c08f0007d1fac243169624b710375cb834bbe81f6b4d79f32"},{"blockNo":8374668,"slotNo":84316203,"epochNo":392,"epochSlotNo":335403,"hash":"8aa700611e8d6f7867ba32c358f0370c2c67838c462e06eda2fb4ae629f090b5","time":"2023/02/08 18:54:54","txCount":36,"totalFees":10167581,"totalOutput":290106554671,"slotLeader":"a5b36528fbbb2709e1b29fbdc3816399ef2bd1c916efa416aa325f1a"},{"blockNo":8374667,"slotNo":84316174,"epochNo":392,"epochSlotNo":335374,"hash":"0b667ba399cff1437ba30b8274ad43bd37284017778153d9c4ca39e54436cf4e","time":"2023/02/08 18:54:25","txCount":41,"totalFees":12920249,"totalOutput":3009640068686,"slotLeader":"6c518b4861bb88b1395ceb116342cecbcfb8736282655f9a61c4c368"},{"blockNo":8374666,"slotNo":84316129,"epochNo":392,"epochSlotNo":335329,"hash":"010a211588bee0fbd2850cd95cff83d1f9c7c21d98426831e50592788b53ea7b","time":"2023/02/08 18:53:40","txCount":50,"totalFees":13853125,"totalOutput":1863593780004,"slotLeader":"d854986d64cb440f9554576eee79542ddd86afa49008f9223da2549e"},{"blockNo":8374665,"slotNo":84316076,"epochNo":392,"epochSlotNo":335276,"hash":"b234b6fc2ddc1fbdee61fd5e5627d0673596e625fb33b0b34684403287de4e93","time":"2023/02/08 18:52:47","txCount":7,"totalFees":1687517,"totalOutput":3918068746,"slotLeader":"188d429c9e1b559b3ed53529ec4cc948d72e4a8f2e5849523bb789d9"}],"totalItems":8374860,"totalPages":418743,"currentPage":0}