{"data":[{"txId":62246437,"txHash":"812449f0817731b414e30c80271db4e2c7a69f1f4c1059d9e51f2bb8bac6aed8","txTime":"2023/02/18 05:31:48","block":8413727,"epoch":394,"slotNo":85132017,"epochSlotNo":287217,"stakeKey":"stake1uy0ln9c37t3urcvz4k04xzgxkdlermu9ayxnvkvd8j720es2lyv59"},{"txId":62246268,"txHash":"8bcce19427adb588478233854429977d58519a19710990b61180cce6db27e5fa","txTime":"2023/02/18 05:25:04","block":8413706,"epoch":394,"slotNo":85131613,"epochSlotNo":286813,"stakeKey":"stake1uy8gkqsd39kes2nq546xmtr5cu3675nv3aaxmf32cxdh20cysajza"},{"txId":62246264,"txHash":"a48ec7501e6b6dc9a5916f804e760ed4eae5f226e96412069381b60a79df62ed","txTime":"2023/02/18 05:24:53","block":8413705,"epoch":394,"slotNo":85131602,"epochSlotNo":286802,"stakeKey":"stake1uynlpfekatyud93zzyuc779l3x2n9jg2tet25u0h2lm96kcxmuyl6"},{"txId":62245632,"txHash":"04a1e080e370a700af34d527e89c59b80ad1a293252e119530622c52dce1d13b","txTime":"2023/02/18 05:03:44","block":8413652,"epoch":394,"slotNo":85130333,"epochSlotNo":285533,"stakeKey":"stake1ux62sc6wg0zz9esxjp4szja6py28dw52kdf0qtxmamdr6scyxhrze"},{"txId":62245615,"txHash":"701cd555f63772f9ba55ed70640ab1e106dcf6b2524f4a87a298abd3830614a3","txTime":"2023/02/18 05:02:43","block":8413649,"epoch":394,"slotNo":85130272,"epochSlotNo":285472,"stakeKey":"stake1u90ssc758vheueqz5zfkqpkfd46khejyn858spdnhywlerctjx7ge"},{"txId":62245493,"txHash":"9a6946a7efa1586bd8439ea0393e95d5cf1183652b8c8039e4215d4465bc015a","txTime":"2023/02/18 04:59:00","block":8413637,"epoch":394,"slotNo":85130049,"epochSlotNo":285249,"stakeKey":"stake1u90cd0s6ft06h0qeafvgjdjp6swkpyttr2wspgkrvpn9ezg2fda27"},{"txId":62245463,"txHash":"d0285bd6bf55ddb2cc93aabec9884874076adca760f87a609e0be1bd1d93ede1","txTime":"2023/02/18 04:57:41","block":8413634,"epoch":394,"slotNo":85129970,"epochSlotNo":285170,"stakeKey":"stake1ux93unrue2pcfy4rl7jaaymwahtqlmc6j4jl73x2q3cnrkc97e2kf"},{"txId":62245415,"txHash":"17e441aeff5cfde54fbd5f51510cba9f04f20da936883afe0ddd29a8b5fdf439","txTime":"2023/02/18 04:56:36","block":8413630,"epoch":394,"slotNo":85129905,"epochSlotNo":285105,"stakeKey":"stake1u8r82hqw270x8zlks0pprpeha3y5aw5msw9y5mscd0e8rpq6sshme"},{"txId":62245369,"txHash":"0437a8805879d7f4de69c188b8a28e9fb327fdf86d89f5f8c450bddcf64757e5","txTime":"2023/02/18 04:54:12","block":8413621,"epoch":394,"slotNo":85129761,"epochSlotNo":284961,"stakeKey":"stake1u90kyrr96y7qc04fcvx5gxhudk580zl8rdnjz34w8el4u2g5t54yu"},{"txId":62245188,"txHash":"9775abd33c139fff7f43d268791ebb1feb751afafd521fe09237f3f09b514ac3","txTime":"2023/02/18 04:48:51","block":8413606,"epoch":394,"slotNo":85129440,"epochSlotNo":284640,"stakeKey":"stake1uxphxxjh2e0w0ehjq0tesdsq445da2rnhzwlv47d2smvhvc5gvtwp"},{"txId":62245149,"txHash":"051df12d49a3d2947b2e5eeaaf1d69e4b34e645022ee5dbf5cb00d75ee41b3d0","txTime":"2023/02/18 04:47:37","block":8413600,"epoch":394,"slotNo":85129366,"epochSlotNo":284566,"stakeKey":"stake1uxxplucv53eajxr9yk4qkrjdnawa22838m8w0255uq6av0cuf6zt0"},{"txId":62245024,"txHash":"32fe57167bfafec16c036cb868013840a0536df4a42bd23f837c1d70f19f0345","txTime":"2023/02/18 04:44:25","block":8413591,"epoch":394,"slotNo":85129174,"epochSlotNo":284374,"stakeKey":"stake1u87h36fs5s6mvjdjcnj65vmwc2wn8r6x0f2wgktqwvfulhgt0dgm6"},{"txId":62244428,"txHash":"39133bf0a747b4d65b2834bb1992ffc9fa0274e2a4b561827736451673308637","txTime":"2023/02/18 04:24:49","block":8413541,"epoch":394,"slotNo":85127998,"epochSlotNo":283198,"stakeKey":"stake1u84vqh3n802psnjayhfl7dntsj7wk32kwxxcj5za7hemtrq7h2700"},{"txId":62244230,"txHash":"7684646efcdbc1d2cc3112147c09721309cc505c4432b3e68551f2e992867ab5","txTime":"2023/02/18 04:18:03","block":8413519,"epoch":394,"slotNo":85127592,"epochSlotNo":282792,"stakeKey":"stake1uy6fvfgxt0rw5q737emkg2a8mmf8qzj2tv7tc8mhwdzkrncgenz5c"},{"txId":62244108,"txHash":"fe4c8a29fcf57761f663c3030e2ab55841597186e0cc6c9f00ab42af508ccc5f","txTime":"2023/02/18 04:13:48","block":8413500,"epoch":394,"slotNo":85127337,"epochSlotNo":282537,"stakeKey":"stake1uylzc7ng4txl97qtug3r904p7fgmfsrhwg6ccv69gqr47ygx2yn0d"},{"txId":62244077,"txHash":"f27a41539e1930fca1e09ffab815653cd60e65f11afecae9881c092b71fe9a9f","txTime":"2023/02/18 04:11:58","block":8413498,"epoch":394,"slotNo":85127227,"epochSlotNo":282427,"stakeKey":"stake1u9vh8m8ma5m754pzalv8tkwfdusta2hy2le3k8hfhqd5c4csymmyy"},{"txId":62243845,"txHash":"925f358b9c59d4464a36cdd54070757e99c63f8c10b92407e5affec731a328ea","txTime":"2023/02/18 04:04:21","block":8413481,"epoch":394,"slotNo":85126770,"epochSlotNo":281970,"stakeKey":"stake1uxr576wlsc9kychvxcg5pn500pelurjc3w2pn29gq7ahqjcwz3ruj"},{"txId":62243374,"txHash":"3ccbdffdc58887715592159ed6bacbf8ee2ba57d9b5685717bff55542d8351fd","txTime":"2023/02/18 03:48:40","block":8413439,"epoch":394,"slotNo":85125829,"epochSlotNo":281029,"stakeKey":"stake1uy2vjnq7pmwp9xgs65pn5t4uvzypqsmq2gy7c8xnh6c5xfgru7hdm"},{"txId":62243280,"txHash":"b1278f39c60f6e0df240ffa234c694d0324c6852a478740c6b59589cbc9d5ec8","txTime":"2023/02/18 03:47:00","block":8413435,"epoch":394,"slotNo":85125729,"epochSlotNo":280929,"stakeKey":"stake1u8gvlg4nlgy8l2xkmp67mk9n5tf8tn8rurv3ajykaxxk5kqaa0jwm"},{"txId":62243031,"txHash":"5274dc2cb4a846e49d23132074b43e6a8c73ea0813b11c973cfab7340c50b671","txTime":"2023/02/18 03:38:06","block":8413414,"epoch":394,"slotNo":85125195,"epochSlotNo":280395,"stakeKey":"stake1uyy4anumel30j3ymlvn4lg2sv7qv3kshe050tn3gr7q8grq2khvww"}],"totalItems":1667385,"totalPages":83370,"currentPage":0}