{"data":[{"blockNo":6857401,"slotNo":52769298,"epochNo":319,"epochSlotNo":324498,"hash":"a5781915e5bdff1aad1667a9707853d2344d365fcf63f066df481e2d8752aaa3","time":"2022/02/08 15:53:09","txCount":16,"totalFees":10277748,"totalOutput":9689678773728,"slotLeader":"47605a7c1fc5e8195335fb91e3a0df07adb2993c1a5b4a78d55a1d6a"},{"blockNo":6857400,"slotNo":52769282,"epochNo":319,"epochSlotNo":324482,"hash":"225e126f21b4ec3e8f18ad0733c9083018e63f015f4fd9d28378304f0caef903","time":"2022/02/08 15:52:53","txCount":13,"totalFees":8620383,"totalOutput":13726785619868,"slotLeader":"ea5f1fb21658736dce6e8c63a516e9e5d645e104b9efbfbb395d7e68"},{"blockNo":6857399,"slotNo":52769275,"epochNo":319,"epochSlotNo":324475,"hash":"898dd7b46c800f03a0d7d4fcc52278a6d5d84084aff4d693c92d9de263872347","time":"2022/02/08 15:52:46","txCount":16,"totalFees":9005421,"totalOutput":36688875887,"slotLeader":"0dbd895b0d875c64aa8d76fefcfc8765e46f383e983b38464eeafb3c"},{"blockNo":6857398,"slotNo":52769245,"epochNo":319,"epochSlotNo":324445,"hash":"ceffcdb54c46b60bffc239015bf7e56d13c54e8696da752f42528faa02b40be9","time":"2022/02/08 15:52:16","txCount":42,"totalFees":16261381,"totalOutput":670573516511,"slotLeader":"e455088c9164ae075f0300bc1a7234c30433556c6b88d4301a06cfe5"},{"blockNo":6857397,"slotNo":52769202,"epochNo":319,"epochSlotNo":324402,"hash":"ba56bca7212752e7cb9527d3cdabfb05a602a05dbdf482980998a1c4f9c090d5","time":"2022/02/08 15:51:33","txCount":14,"totalFees":8660768,"totalOutput":1712423136,"slotLeader":"11c660b87cb43e4720b053895b3137b4c08f367dbd030127c9c6de9e"},{"blockNo":6857396,"slotNo":52769194,"epochNo":319,"epochSlotNo":324394,"hash":"d4622fcebd25b5e9cffdcdeebc17525f71ac0bee6566ff3fc27ecb7b3b67736c","time":"2022/02/08 15:51:25","txCount":21,"totalFees":8907981,"totalOutput":2668069198342,"slotLeader":"788898a81174665316af96880459dcca053f7825abb1b0db9a433630"},{"blockNo":6857395,"slotNo":52769190,"epochNo":319,"epochSlotNo":324390,"hash":"ac776e8837e93ba0a0b7bd27ccb68f26e17fc2d3dfbf4757928f0d666f5f2aa5","time":"2022/02/08 15:51:21","txCount":77,"totalFees":20055205,"totalOutput":1038206036641,"slotLeader":"b3cdd3bbf09af72badca85e515c0206d6d22038e2af843521e10a928"},{"blockNo":6857394,"slotNo":52769182,"epochNo":319,"epochSlotNo":324382,"hash":"147135d23c26399f48ef4100d1b199a89061cd7b312c0f12f08cd0392d2a6781","time":"2022/02/08 15:51:13","txCount":21,"totalFees":9683838,"totalOutput":40530747361,"slotLeader":"5b5804135b07be6f3635a655ed1b68ddef1854523b45cd1840a6fc33"},{"blockNo":6857393,"slotNo":52769178,"epochNo":319,"epochSlotNo":324378,"hash":"09ebcb292decc3a2e2904c00823de99f4be7327d2866d30f8a50acae67d9bc05","time":"2022/02/08 15:51:09","txCount":23,"totalFees":10177373,"totalOutput":6807821469520,"slotLeader":"e40edb5a243c9ef00296860c6b7c8272fd5923ac52b5050d68e80d9b"},{"blockNo":6857392,"slotNo":52769176,"epochNo":319,"epochSlotNo":324376,"hash":"aa0f2b48b5814f0596e45bc3a83c5bafb8072f11f11bc495cf9bc31d2b687888","time":"2022/02/08 15:51:07","txCount":67,"totalFees":18930145,"totalOutput":1327515664480,"slotLeader":"1b2523e031e0efe6e5fe0edf8c82fd51abf33a1a2feedad5456ef4d9"}],"totalItems":15303,"totalPages":1531,"currentPage":0}