{"data":[{"hash":"e627a0aa2cfe94611a84e9d0f28e8691be84e75ba6563ae16ae217864f5f2b03","blockNo":8311603,"blockHash":"51db84614bee724a5dc7829915b61f84b4a84f34c4d3290bd8a98e5b79529758","epochNo":389,"epochSlotNo":325542,"slot":83010342,"time":"2023/01/24 16:10:33","addressesInput":["addr1q9y560qdqtzvldpgjck5v8vkz4p8wclzxzw89hvjesuqk52hytl64n0uz2utk5dhj690vjjvkcqluz6paeedm54zj5rsetppr8","addr1zxgx3far7qygq0k6epa0zcvcvrevmn0ypsnfsue94nsn3tvpw288a4x0xf8pxgcntelxmyclq83s0ykeehchz2wtspks905plm"],"addressesOutput":["addr1q9meks43s2gg5w8s67n4wjfy476t6scg6h34x497le6j886pgt7rsny5d0ncq0ncm8mdm4xag8ej46fsf4fuxsnuhyxq4r0mlu","addr1q9cwvremt6n320s2e3agq0jyq82yhrk3htsu0w426xnz5us70z4w0jgvcdkkynmm8wmds66jd9kusnjfpu6raw5fqp0sr07p5w","addr1qy5jmz3e9l3gqsazmfajgss7z74gcjngemgw6qkyz84s4256saskw5wvl80w7dhpfvcmwnhdvmemx3gz7qgpge70gulqpu8qdm","addr1q9y560qdqtzvldpgjck5v8vkz4p8wclzxzw89hvjesuqk52hytl64n0uz2utk5dhj690vjjvkcqluz6paeedm54zj5rsetppr8","addr1q9y560qdqtzvldpgjck5v8vkz4p8wclzxzw89hvjesuqk52hytl64n0uz2utk5dhj690vjjvkcqluz6paeedm54zj5rsetppr8","addr1q9y560qdqtzvldpgjck5v8vkz4p8wclzxzw89hvjesuqk52hytl64n0uz2utk5dhj690vjjvkcqluz6paeedm54zj5rsetppr8","addr1q9y560qdqtzvldpgjck5v8vkz4p8wclzxzw89hvjesuqk52hytl64n0uz2utk5dhj690vjjvkcqluz6paeedm54zj5rsetppr8"],"fee":432752,"totalOutput":1055991936,"tokens":[]},{"hash":"30646d44d1c78ab4b1fbcebff837434ec26f4736fbe57977d98bc156d8481cb1","blockNo":8311603,"blockHash":"51db84614bee724a5dc7829915b61f84b4a84f34c4d3290bd8a98e5b79529758","epochNo":389,"epochSlotNo":325542,"slot":83010342,"time":"2023/01/24 16:10:33","addressesInput":["addr1q9nwpkk486eed8jcr0q7gwlc492rx2yr0mr4zqd6v3d6z2nxurdd204nj609sx7pusal3225xv5gxlk82yqm5ezm5y4qcza4hm"],"addressesOutput":["addr1v8tpg7vndpyl2q2v4aqtunm8kf7h687l7wk63nj3qjhfdnsxyewt9"],"fee":223219,"totalOutput":2595566430,"tokens":[]},{"hash":"eec566e95f852ff456f25fc327117239093a4faf147d09c389c5edce6b087d0b","blockNo":8311603,"blockHash":"51db84614bee724a5dc7829915b61f84b4a84f34c4d3290bd8a98e5b79529758","epochNo":389,"epochSlotNo":325542,"slot":83010342,"time":"2023/01/24 16:10:33","addressesInput":["addr1q8htur70emay8k95n64545dkj4qxtr4rlyzkdt3xc5exf92cnql5jdn6euqp2uh08vmdhjqsznetgfsygl0d8zj804es8zzrdk","addr1zxgx3far7qygq0k6epa0zcvcvrevmn0ypsnfsue94nsn3tvpw288a4x0xf8pxgcntelxmyclq83s0ykeehchz2wtspks905plm","addr1q8htur70emay8k95n64545dkj4qxtr4rlyzkdt3xc5exf92cnql5jdn6euqp2uh08vmdhjqsznetgfsygl0d8zj804es8zzrdk"],"addressesOutput":["addr1qyn2ywpmh0t5n40njl4ydkv5exr5p5y9jrkgft4t4aes7my8e5srvvtcpru6v320yaxq00rrzsnzks37f6q7rncq5sesnpyg8w","addr1q9cwvremt6n320s2e3agq0jyq82yhrk3htsu0w426xnz5us70z4w0jgvcdkkynmm8wmds66jd9kusnjfpu6raw5fqp0sr07p5w","addr1q9rugu7eyp6ahecd8d2p90flymrrq64cg74w5jxgxf2cr7sh7j0jks74p9elmhv7ze4lhwhp6wtnjmw6q80j90cc5dnssq3nhq","addr1q8htur70emay8k95n64545dkj4qxtr4rlyzkdt3xc5exf92cnql5jdn6euqp2uh08vmdhjqsznetgfsygl0d8zj804es8zzrdk","addr1q8htur70emay8k95n64545dkj4qxtr4rlyzkdt3xc5exf92cnql5jdn6euqp2uh08vmdhjqsznetgfsygl0d8zj804es8zzrdk"],"fee":405106,"totalOutput":304765186,"tokens":[]},{"hash":"ca89a2a1f1eb6c3b133c90eb0677b4bc78ccf5f304901afd16d2d80277679efd","blockNo":8311603,"blockHash":"51db84614bee724a5dc7829915b61f84b4a84f34c4d3290bd8a98e5b79529758","epochNo":389,"epochSlotNo":325542,"slot":83010342,"time":"2023/01/24 16:10:33","addressesInput":["addr1zxgx3far7qygq0k6epa0zcvcvrevmn0ypsnfsue94nsn3tvpw288a4x0xf8pxgcntelxmyclq83s0ykeehchz2wtspks905plm","addr1qyzeykfy5ck332fnrk9ku9eam9vp5ygdkyg2uz358awjd9szsfy9nj2lal9u9fmkhcf92z9kfesymjs4v3a2799wk6lstp62fk"],"addressesOutput":["addr1qyzeykfy5ck332fnrk9ku9eam9vp5ygdkyg2uz358awjd9szsfy9nj2lal9u9fmkhcf92z9kfesymjs4v3a2799wk6lstp62fk","addr1qyzeykfy5ck332fnrk9ku9eam9vp5ygdkyg2uz358awjd9szsfy9nj2lal9u9fmkhcf92z9kfesymjs4v3a2799wk6lstp62fk"],"fee":263337,"totalOutput":1702101130,"tokens":[]},{"hash":"0595ee79f3618233143dd22e0b13dfa6638d6179feba7bac073d727cc975a02f","blockNo":8311602,"blockHash":"2f3fde0cb96e644df1f19215b1bca57fa013f35e81cafe1894c5bacc5dec64b2","epochNo":389,"epochSlotNo":325539,"slot":83010339,"time":"2023/01/24 16:10:30","addressesInput":["addr1q980uhwzasf5rquydqkccch7ntnz5y9a8t0kmp0gnkt48x54g7dy5s27yfw2fxsp843t7ltjw638lzz6tqf4m8yxafgq9fgnj7","addr1zxgx3far7qygq0k6epa0zcvcvrevmn0ypsnfsue94nsn3tvpw288a4x0xf8pxgcntelxmyclq83s0ykeehchz2wtspks905plm"],"addressesOutput":["addr1zxgx3far7qygq0k6epa0zcvcvrevmn0ypsnfsue94nsn3tvpw288a4x0xf8pxgcntelxmyclq83s0ykeehchz2wtspks905plm","addr1qx8c22nez6ykzmtznk0086pwufxxwj4290kydfzdumn7np54g7dy5s27yfw2fxsp843t7ltjw638lzz6tqf4m8yxafgq7kxnjd","addr1qx8c22nez6ykzmtznk0086pwufxxwj4290kydfzdumn7np54g7dy5s27yfw2fxsp843t7ltjw638lzz6tqf4m8yxafgq7kxnjd","addr1qx8c22nez6ykzmtznk0086pwufxxwj4290kydfzdumn7np54g7dy5s27yfw2fxsp843t7ltjw638lzz6tqf4m8yxafgq7kxnjd"],"fee":376392,"totalOutput":363773285,"tokens":[]},{"hash":"e12c3a9e7ff6ca234d36e1b2441c9806a1ea759c86ef64ca79b3ad2cb8a428a1","blockNo":8311602,"blockHash":"2f3fde0cb96e644df1f19215b1bca57fa013f35e81cafe1894c5bacc5dec64b2","epochNo":389,"epochSlotNo":325539,"slot":83010339,"time":"2023/01/24 16:10:30","addressesInput":["addr1qx2kqkvhhx62xhxcdjatdvvqc39eh3p8sjkk7afq4v9m340k5a43q84fqvttcu23j0v4m5rzkp7cxp5wuv9cgccfs7xsdldu7v","addr1zxgx3far7qygq0k6epa0zcvcvrevmn0ypsnfsue94nsn3tvpw288a4x0xf8pxgcntelxmyclq83s0ykeehchz2wtspks905plm"],"addressesOutput":["addr1qx2kqkvhhx62xhxcdjatdvvqc39eh3p8sjkk7afq4v9m340k5a43q84fqvttcu23j0v4m5rzkp7cxp5wuv9cgccfs7xsdldu7v","addr1qx2kqkvhhx62xhxcdjatdvvqc39eh3p8sjkk7afq4v9m340k5a43q84fqvttcu23j0v4m5rzkp7cxp5wuv9cgccfs7xsdldu7v"],"fee":264291,"totalOutput":253332435,"tokens":[]},{"hash":"48b65f24932416b41ca10641af7dc0d435f032a4e881751119b274830dfbbf1f","blockNo":8311602,"blockHash":"2f3fde0cb96e644df1f19215b1bca57fa013f35e81cafe1894c5bacc5dec64b2","epochNo":389,"epochSlotNo":325539,"slot":83010339,"time":"2023/01/24 16:10:30","addressesInput":["addr1q8jmeedzusuvdewyx4tupgvlvtugk9pa0mzsuqz9dcf3dfnch4uw3j5kzg8d79ctvmsmk9h2ajrzry0yw7kwq4a9c6hq678s7n","addr1wy30zf2g4xc7v872fdweewrlj3lh2lgttelmydn0cvhyplsg3vnkq","addr1q8jmeedzusuvdewyx4tupgvlvtugk9pa0mzsuqz9dcf3dfnch4uw3j5kzg8d79ctvmsmk9h2ajrzry0yw7kwq4a9c6hq678s7n"],"addressesOutput":["addr1q8jmeedzusuvdewyx4tupgvlvtugk9pa0mzsuqz9dcf3dfnch4uw3j5kzg8d79ctvmsmk9h2ajrzry0yw7kwq4a9c6hq678s7n","addr1wy30zf2g4xc7v872fdweewrlj3lh2lgttelmydn0cvhyplsg3vnkq"],"fee":820341,"totalOutput":63886029,"tokens":[]},{"hash":"55be9aa02a386bfbcc326cb9794cd5431fbe88e9f2f55d2f00fddb09192f47c4","blockNo":8311602,"blockHash":"2f3fde0cb96e644df1f19215b1bca57fa013f35e81cafe1894c5bacc5dec64b2","epochNo":389,"epochSlotNo":325539,"slot":83010339,"time":"2023/01/24 16:10:30","addressesInput":["addr1q8k3tvcvjdwyhlk3vgrq3c3xvaseernne5emhwekh9xduk2jaer28mpj7nalvtd9g72zk77zrfe6swf5mateqqccd7hsgsn4zc","addr1q8k3tvcvjdwyhlk3vgrq3c3xvaseernne5emhwekh9xduk2jaer28mpj7nalvtd9g72zk77zrfe6swf5mateqqccd7hsgsn4zc"],"addressesOutput":["addr1zxgx3far7qygq0k6epa0zcvcvrevmn0ypsnfsue94nsn3tvpw288a4x0xf8pxgcntelxmyclq83s0ykeehchz2wtspks905plm","addr1q8k3tvcvjdwyhlk3vgrq3c3xvaseernne5emhwekh9xduk2jaer28mpj7nalvtd9g72zk77zrfe6swf5mateqqccd7hsgsn4zc","addr1q8k3tvcvjdwyhlk3vgrq3c3xvaseernne5emhwekh9xduk2jaer28mpj7nalvtd9g72zk77zrfe6swf5mateqqccd7hsgsn4zc"],"fee":232909,"totalOutput":104949964,"tokens":[]},{"hash":"6ea33a646f0d5362f4b059de3bcb367227dc4909c2fcd8527264fda6ed5cda68","blockNo":8311601,"blockHash":"9f66ff277f8bb30c2e964c33ce93895280681badfcca0c48299533227b74f190","epochNo":389,"epochSlotNo":325532,"slot":83010332,"time":"2023/01/24 16:10:23","addressesInput":["addr1q9jwl05w4vfk4qy4dxzq8vmykp0qqapp4lyth8yup3t0qyddvchnqagpj8acyx4rs07y8xnn0q5atwtec4d9f80um45slu3pe2","addr1q9jwl05w4vfk4qy4dxzq8vmykp0qqapp4lyth8yup3t0qyddvchnqagpj8acyx4rs07y8xnn0q5atwtec4d9f80um45slu3pe2"],"addressesOutput":["addr1zxgx3far7qygq0k6epa0zcvcvrevmn0ypsnfsue94nsn3tvpw288a4x0xf8pxgcntelxmyclq83s0ykeehchz2wtspks905plm","addr1q9jwl05w4vfk4qy4dxzq8vmykp0qqapp4lyth8yup3t0qyddvchnqagpj8acyx4rs07y8xnn0q5atwtec4d9f80um45slu3pe2","addr1q9jwl05w4vfk4qy4dxzq8vmykp0qqapp4lyth8yup3t0qyddvchnqagpj8acyx4rs07y8xnn0q5atwtec4d9f80um45slu3pe2"],"fee":434781,"totalOutput":129473641,"tokens":[]},{"hash":"b597d5ea78dd89b364f9d7e70b9bb838401e8aaae094c4eeaeb9cb22845d0f6d","blockNo":8311601,"blockHash":"9f66ff277f8bb30c2e964c33ce93895280681badfcca0c48299533227b74f190","epochNo":389,"epochSlotNo":325532,"slot":83010332,"time":"2023/01/24 16:10:23","addressesInput":["addr1wy30zf2g4xc7v872fdweewrlj3lh2lgttelmydn0cvhyplsg3vnkq","addr1qx766gly54v7lcy2mraphm539d0u7xvzynt2wccv926l0da8wlwj97mltgf6dezer24r6d8l4066wplka98jjsjed04qhtucqg"],"addressesOutput":["addr1qx766gly54v7lcy2mraphm539d0u7xvzynt2wccv926l0da8wlwj97mltgf6dezer24r6d8l4066wplka98jjsjed04qhtucqg","addr1wy30zf2g4xc7v872fdweewrlj3lh2lgttelmydn0cvhyplsg3vnkq"],"fee":817965,"totalOutput":1041403934,"tokens":[]},{"hash":"76ef7e8281cf6fdad633e9c06d3a1b0f79311e10e7a7079018b988d28496f045","blockNo":8311601,"blockHash":"9f66ff277f8bb30c2e964c33ce93895280681badfcca0c48299533227b74f190","epochNo":389,"epochSlotNo":325532,"slot":83010332,"time":"2023/01/24 16:10:23","addressesInput":["addr1zxgx3far7qygq0k6epa0zcvcvrevmn0ypsnfsue94nsn3tvpw288a4x0xf8pxgcntelxmyclq83s0ykeehchz2wtspks905plm","addr1qxsvhj9djx4ya0dqrxw5wlrh7p63u5lr3tqd5vgprj8p79zhlnz3ju8acaxjctz8049eq00tpu8zs7dpu39g9wmuxekq9rjfck"],"addressesOutput":["addr1zxgx3far7qygq0k6epa0zcvcvrevmn0ypsnfsue94nsn3tvpw288a4x0xf8pxgcntelxmyclq83s0ykeehchz2wtspks905plm","addr1qxsvhj9djx4ya0dqrxw5wlrh7p63u5lr3tqd5vgprj8p79zhlnz3ju8acaxjctz8049eq00tpu8zs7dpu39g9wmuxekq9rjfck"],"fee":317032,"totalOutput":139535307,"tokens":[]},{"hash":"e48eae12cbacd20f675c185edd467f1b0319b71d50910ad6f5cfae39b6cf3119","blockNo":8311601,"blockHash":"9f66ff277f8bb30c2e964c33ce93895280681badfcca0c48299533227b74f190","epochNo":389,"epochSlotNo":325532,"slot":83010332,"time":"2023/01/24 16:10:23","addressesInput":["addr1vy4nmtfc4jfftgqg369hs2ku6kvcncgzhkemq6mh0u3zgpslf59wr"],"addressesOutput":["addr1qx0yw7wgrkcphj8kvkwcfaj80v60hrmtnn5p4xa76vlvevfs7qlp27epx8fs8j9jahpys8ekymkv5hme85h8x5sfpw4shrn76w","addr1q84yn4qw45kwdggae75q4aq2g2fltm7a64647pta93fmdq6cs3rjruu8fwryhny0vk52rh8apk79q3rdx6eejtfzkzuqwp8ekd","addr1q8m54642jfc3zmd4ta8mq5jwvyda0mrumq48vpsze96rc30rztxjp22u3j2kvkfqt0cgn72nd5gtljfvwr8m09een3nsax7462","addr1qyfxx8whznzadwez8mp7l2g3sle25d6937ldx46tkalpfttgew6ccquhfgsp8umj0ngq6kfyk86lksjzktmtavzethsqph6g3r","addr1q85zmscq0mtpr9tx2kyg0txpnjry9z248raydarr2q45p996mzvk2anf3u3y3qvxlegr6gmu5t8eua7v52gd2fmsk56qhua7z6","addr1q9k93kfscffhxgnqklmjlwdr7f8jl5xvpe533q22pnc8hw6ymjgqs200hhz5pc28ccxxn2hl3wrewg7zkk4myalxjguqf9au2p","DdzFFzCqrhsgHu7ypFvFKjcafoYcdBqbGCsELEZAr4Xf7aQmSz48xfgA3BFdRkGtyc5AkpNJNoEiTSQcSc1bc28SqCqNdRrM9eTYWJsm","Ae2tdPwUPEZApW8ggq9Az9ikaqsRe1cBLiJLv1Si6wx8J7LEsxCg1r7yUJz","addr1vy4nmtfc4jfftgqg369hs2ku6kvcncgzhkemq6mh0u3zgpslf59wr"],"fee":197500,"totalOutput":329911951274,"tokens":[]},{"hash":"0d65aadd925b8686d1ea382017578e38547e3d7528b2b73d2df3b096029b417e","blockNo":8311601,"blockHash":"9f66ff277f8bb30c2e964c33ce93895280681badfcca0c48299533227b74f190","epochNo":389,"epochSlotNo":325532,"slot":83010332,"time":"2023/01/24 16:10:23","addressesInput":["addr1v8v3auqmw0eszza3ww29ea2pwftuqrqqyu26zvzjq9dt2ncydzvs5"],"addressesOutput":["addr1qxrjenvgp6pmpyd54uyr8ndlyk3c9jvtp96esw64x32kntnas9y8qgnx3kv02lcs0j64ymhas2c07hyp4av974h4fqcs8ahs6u","addr1v8v3auqmw0eszza3ww29ea2pwftuqrqqyu26zvzjq9dt2ncydzvs5"],"fee":171221,"totalOutput":9990822035,"tokens":[]},{"hash":"e5ab54c8399097b15103ec0fb8da16ee087ea76477f82a738379ec96be654797","blockNo":8311601,"blockHash":"9f66ff277f8bb30c2e964c33ce93895280681badfcca0c48299533227b74f190","epochNo":389,"epochSlotNo":325532,"slot":83010332,"time":"2023/01/24 16:10:23","addressesInput":["addr1wxkajet4zhhuylr6475ykqerll0gl8x8v8kgmnrpxt2vrwq2eh67y","addr1w828m0rdlumnp30dwmv33l4akzhxcpx7a64tuvjwhjn7pxgngjrpx","addr1vy3qpx09uscywhppj5vp08hu0ekg9zwmq2ysfq6qyh2mpps865j6t","addr1vyglp0qscp3kdvcmwz0x50wg4zrj6hhcw4vzfgjzsgvjymsgwskxx","addr1w8kg93av72vypfg0ensxzzhlyvw5dragz7rmnssjf277negkwdj2h","addr1v8pr9mwnqarw808gtllvmlxvk70hnszrukjeqfstr9t9g5crud8c4","addr1w8w4s678y7jcrpkqgkwagujwcuzfvnfkt7he0w80y934xxsgg75th","addr1w9xc5279jqxql020jp295d377nqrms826gnhgqxt5g5m9dqlfqf3f","addr1w900lhhyxkenvzluf2kaazfufs09xq4v9lmdfc3y9c0ta0qy3jxrp","addr1w9lxatm8dn4uvyqsplsvht6xn345fxjv8mkn6cevp2jl9nscn42cr","addr1w86ncpmugegspd2a44qcyyyazp9l33nm67hdu7xgynm5slqaz6l0g","addr1w80k8xe6vckm3qgklhw98tqjekfvw3mgwux3stmtq3jlprga3u33c","addr1w835n68qeax023uperwgwlruk3d8yjl4k98r433nhw5waqgkx8prf"],"addressesOutput":["addr1vy3qpx09uscywhppj5vp08hu0ekg9zwmq2ysfq6qyh2mpps865j6t","addr1v8pr9mwnqarw808gtllvmlxvk70hnszrukjeqfstr9t9g5crud8c4","addr1qycv8nfqjkwj9u4waer86wtn4w4ytnfw5ed8gcmvx22rg6dnvnvq3p2fj5axnz0nuv0cg7l5ueljprjhcwhrgspkmhxqx284au","addr1w9lxatm8dn4uvyqsplsvht6xn345fxjv8mkn6cevp2jl9nscn42cr","addr1w86ncpmugegspd2a44qcyyyazp9l33nm67hdu7xgynm5slqaz6l0g","addr1w9xc5279jqxql020jp295d377nqrms826gnhgqxt5g5m9dqlfqf3f","addr1wxkajet4zhhuylr6475ykqerll0gl8x8v8kgmnrpxt2vrwq2eh67y","addr1w900lhhyxkenvzluf2kaazfufs09xq4v9lmdfc3y9c0ta0qy3jxrp","addr1w835n68qeax023uperwgwlruk3d8yjl4k98r433nhw5waqgkx8prf","addr1w828m0rdlumnp30dwmv33l4akzhxcpx7a64tuvjwhjn7pxgngjrpx","addr1w8w4s678y7jcrpkqgkwagujwcuzfvnfkt7he0w80y934xxsgg75th","addr1w8kg93av72vypfg0ensxzzhlyvw5dragz7rmnssjf277negkwdj2h","addr1w80k8xe6vckm3qgklhw98tqjekfvw3mgwux3stmtq3jlprga3u33c"],"fee":328301,"totalOutput":4659170194,"tokens":[]},{"hash":"3655405650ba5bec861dfef8730bb55b1b1126f9c075044878ce60c8829bfc4c","blockNo":8311601,"blockHash":"9f66ff277f8bb30c2e964c33ce93895280681badfcca0c48299533227b74f190","epochNo":389,"epochSlotNo":325532,"slot":83010332,"time":"2023/01/24 16:10:23","addressesInput":["addr1q8gclkf827c22h85uzded8jf36c454zw2s39gslyfqeheefryzl8anw078sddezj4fgsauzlc0r7vegn0axs2px2k22s5qxeh9","addr1qx7wse2ulr9s4h9k0g58p4v803ueg8nj49yuc2mt9v3as73ryzl8anw078sddezj4fgsauzlc0r7vegn0axs2px2k22svu94kw","addr1q9jmh38kshk4n7zsa7kgus7m8mq4ytfvreau9fczmr2238fryzl8anw078sddezj4fgsauzlc0r7vegn0axs2px2k22svdyjuy","addr1qx7wse2ulr9s4h9k0g58p4v803ueg8nj49yuc2mt9v3as73ryzl8anw078sddezj4fgsauzlc0r7vegn0axs2px2k22svu94kw"],"addressesOutput":["addr1wxn9efv2f6w82hagxqtn62ju4m293tqvw0uhmdl64ch8uwc0h43gt","addr1q8p6tynqaq397k0d33r26lzvp6s0qg50wwwsmfyhjg0d0leryzl8anw078sddezj4fgsauzlc0r7vegn0axs2px2k22s8xwz73","addr1q9u06l55mf908ekygluzm0ut730f99ttwm5gdg99p39874pryzl8anw078sddezj4fgsauzlc0r7vegn0axs2px2k22smfzxlg"],"fee":200085,"totalOutput":259222564,"tokens":[]},{"hash":"67acd2e6289dcff02bb6c477addcba0e8c1a00c6459881ca8a554642f9093e65","blockNo":8311601,"blockHash":"9f66ff277f8bb30c2e964c33ce93895280681badfcca0c48299533227b74f190","epochNo":389,"epochSlotNo":325532,"slot":83010332,"time":"2023/01/24 16:10:23","addressesInput":["addr1q8ypkz2glt6cd8ytxq3tq8xnpnyngwtw4y7l4x9v94lt83s7yhl66f2dpfcnfsmps247cz3tm5k6my4mpergtz5vnmts7l8am5"],"addressesOutput":["addr1q8sr46h7jyrmdgcnyw5spypc28cwt7rmjpxx70d4vskeuuge73vulc4kwc646xjtxqq9gj8ans4p3cdsqupk5j7thaaqdsskq8","addr1q8ypkz2glt6cd8ytxq3tq8xnpnyngwtw4y7l4x9v94lt83s7yhl66f2dpfcnfsmps247cz3tm5k6my4mpergtz5vnmts7l8am5"],"fee":169417,"totalOutput":296564966674,"tokens":[]},{"hash":"013837e74b3b7babbb14aeb891951a22e2aa1f8a062749c0b87543000f13922f","blockNo":8311601,"blockHash":"9f66ff277f8bb30c2e964c33ce93895280681badfcca0c48299533227b74f190","epochNo":389,"epochSlotNo":325532,"slot":83010332,"time":"2023/01/24 16:10:23","addressesInput":["addr1v9u7va2sktlnz8dp3qadpnxxlv4m03672jy6elmntlxxs7q9nnwl9"],"addressesOutput":["DdzFFzCqrhsmgiSxRgPCsznsgzyLKbFGUacrvd9VHrXaPs8WUE975QpQuiCHBPfc5sL1ktrmKm9sC6JBqAsYuMB4pND7XgEsnBKoJ7eA","addr1v95sf69jcfhnmknvffwmfvlvnccatqwfjcyh0nlfc6gh5scta2yzg"],"fee":171221,"totalOutput":270933096,"tokens":[]},{"hash":"837a6ca8c010bf14c6673df67aa2d3becb1b994d39be30ded9e9e72b5ec2c711","blockNo":8311601,"blockHash":"9f66ff277f8bb30c2e964c33ce93895280681badfcca0c48299533227b74f190","epochNo":389,"epochSlotNo":325532,"slot":83010332,"time":"2023/01/24 16:10:23","addressesInput":["addr1qyjguhw0ag43pgy2yvjsuyzuspjl0nemhvffzpf0z8pvk0rczv3cq440zwjyfve0uyqtjzs3n94mn3nctm6hfapqr00srf84t3","addr1q9lply0kn7asjcdul4jzfptly7vvf88tt4xccknj6a7t2drczv3cq440zwjyfve0uyqtjzs3n94mn3nctm6hfapqr00srn4csr","addr1q9c2jzkw4jhlnf4wf5xr9kud5m9nv76wsu5qwl430y3uuenczv3cq440zwjyfve0uyqtjzs3n94mn3nctm6hfapqr00s0qhx9l","addr1w9645geguy679dvy73mgt6rvc4xyhjpxj4s0wxjtd6swvdc5dxgc3","addr1w9645geguy679dvy73mgt6rvc4xyhjpxj4s0wxjtd6swvdc5dxgc3","addr1w9645geguy679dvy73mgt6rvc4xyhjpxj4s0wxjtd6swvdc5dxgc3","addr1w9645geguy679dvy73mgt6rvc4xyhjpxj4s0wxjtd6swvdc5dxgc3","addr1w9645geguy679dvy73mgt6rvc4xyhjpxj4s0wxjtd6swvdc5dxgc3","addr1w9645geguy679dvy73mgt6rvc4xyhjpxj4s0wxjtd6swvdc5dxgc3","addr1w9645geguy679dvy73mgt6rvc4xyhjpxj4s0wxjtd6swvdc5dxgc3"],"addressesOutput":["addr1w9645geguy679dvy73mgt6rvc4xyhjpxj4s0wxjtd6swvdc5dxgc3","addr1w9645geguy679dvy73mgt6rvc4xyhjpxj4s0wxjtd6swvdc5dxgc3","addr1w9645geguy679dvy73mgt6rvc4xyhjpxj4s0wxjtd6swvdc5dxgc3","addr1w9645geguy679dvy73mgt6rvc4xyhjpxj4s0wxjtd6swvdc5dxgc3","addr1w9645geguy679dvy73mgt6rvc4xyhjpxj4s0wxjtd6swvdc5dxgc3","addr1w9645geguy679dvy73mgt6rvc4xyhjpxj4s0wxjtd6swvdc5dxgc3","addr1w9645geguy679dvy73mgt6rvc4xyhjpxj4s0wxjtd6swvdc5dxgc3","addr1qxpyvnvaepmc832pck8qjvz3w6g72gvsltvt8jnnayxpesrczv3cq440zwjyfve0uyqtjzs3n94mn3nctm6hfapqr00sx57ywj","addr1q8hz5s0lvt3ylt5fq20r7033eyzuysx0z3n67x6936j6xynczv3cq440zwjyfve0uyqtjzs3n94mn3nctm6hfapqr00sszxpdr","addr1qyr7z8mh0g6qwj5fxnxrkqctw3vslz252ehlxn89jmfmu5tczv3cq440zwjyfve0uyqtjzs3n94mn3nctm6hfapqr00sw8w9pl","addr1qyursz7vppxjhmgdp37xprgju98n0nv2ms07qrnel22sxemczv3cq440zwjyfve0uyqtjzs3n94mn3nctm6hfapqr00s69jfl3","addr1qyjytr02wrcadmjqgz73g227z27k028shu6j7lhz6nn00frczv3cq440zwjyfve0uyqtjzs3n94mn3nctm6hfapqr00sf6x3yn","addr1qyunyuwhe0asn7pja55vy9pcqxul0gx4zckpdu3k4y4748tczv3cq440zwjyfve0uyqtjzs3n94mn3nctm6hfapqr00szgne4m","addr1q9qa59l4nsq29hqc8335rwk6l997gjshhewqtd3vvz2eqrmczv3cq440zwjyfve0uyqtjzs3n94mn3nctm6hfapqr00syfxlc8"],"fee":1334751,"totalOutput":22365555,"tokens":[]},{"hash":"ea618c5a07507a40bc6eb057b8cc4717617be62dfc4dc36e1cb2ff329c3b4c8f","blockNo":8311601,"blockHash":"9f66ff277f8bb30c2e964c33ce93895280681badfcca0c48299533227b74f190","epochNo":389,"epochSlotNo":325532,"slot":83010332,"time":"2023/01/24 16:10:23","addressesInput":["addr1qytr4xpecq64f94zjhglqwrx5w3ylzr6tcj37eme2xq980warl9q0se5g2fdz2mm9mxwnqfg437t0ndzxmhyavrcrvvqzaakwr","addr1qxs0cxg7p9kcfjqltxllew5j64sp3kdp0uphe7mfp9fpul7arl9q0se5g2fdz2mm9mxwnqfg437t0ndzxmhyavrcrvvq22l4zt","addr1q83uafr7e060m5dzu5qslrhk4fe2xrvrtcsgscf4kxh2mnxarl9q0se5g2fdz2mm9mxwnqfg437t0ndzxmhyavrcrvvqgrrwds"],"addressesOutput":["addr1qxatpavtrey7vhmtlj6argkpcwts6yj8z87kpzss5r9zenxarl9q0se5g2fdz2mm9mxwnqfg437t0ndzxmhyavrcrvvql4dqe9","addr1q94ne0kyrx5hzdlu5sanynjp29l8wgqe50j3tvwkxmeufnkarl9q0se5g2fdz2mm9mxwnqfg437t0ndzxmhyavrcrvvqnqjvl0","addr1q94ne0kyrx5hzdlu5sanynjp29l8wgqe50j3tvwkxmeufnkarl9q0se5g2fdz2mm9mxwnqfg437t0ndzxmhyavrcrvvqnqjvl0"],"fee":185873,"totalOutput":486448088,"tokens":[]},{"hash":"c9ae1cf203f12e8175a777c72159941d67fefaf5ac07fa2598b365c6068be64f","blockNo":8311601,"blockHash":"9f66ff277f8bb30c2e964c33ce93895280681badfcca0c48299533227b74f190","epochNo":389,"epochSlotNo":325532,"slot":83010332,"time":"2023/01/24 16:10:23","addressesInput":["addr1qy8p3s0kv0xkh2u5fs7rfsr6fes7n85n254dy70ksv38jegwrrqlvc7ddw4egnpuxnq85nnpax0fx4f26fuldqez09jslsshrk"],"addressesOutput":["addr1qy8p3s0kv0xkh2u5fs7rfsr6fes7n85n254dy70ksv38jegwrrqlvc7ddw4egnpuxnq85nnpax0fx4f26fuldqez09jslsshrk","addr1qy8p3s0kv0xkh2u5fs7rfsr6fes7n85n254dy70ksv38jegwrrqlvc7ddw4egnpuxnq85nnpax0fx4f26fuldqez09jslsshrk"],"fee":298455,"totalOutput":44655245,"tokens":[]}],"totalItems":59680660,"totalPages":2984033,"currentPage":0}