{"data":[{"txId":60470385,"txHash":"941f40da492592959060b42d4f39ca7cc27ee13d4eebb538a280727c6e908f87","txTime":"2023/01/25 09:13:35","block":8314585,"epoch":389,"slotNo":83071724,"epochSlotNo":386924,"stakeKey":"stake1u9gj6zrf52xekjp4pty7yvfzzh66p7d4ufeq9mqhz8ltdnqrvms4c"},{"txId":60470264,"txHash":"e102f24d54ce498ae8ff63200cec194fe1df3e0a502f74a0e14452f11f7a747a","txTime":"2023/01/25 09:11:09","block":8314580,"epoch":389,"slotNo":83071578,"epochSlotNo":386778,"stakeKey":"stake1u86ccavte0u0lak7x4ucc90qvrjrc7dn7ne2uthp3ggkueg4mtj2c"},{"txId":60470060,"txHash":"d9e43116a4237a2a17161375d19e48e1fc06ff747ac9480449d5f26a5605bb3a","txTime":"2023/01/25 09:05:20","block":8314558,"epoch":389,"slotNo":83071229,"epochSlotNo":386429,"stakeKey":"stake1uxt68rsghwdvsrg2u9keklduyj8n08sctvptu4l47xg2mxcd3kdqu"},{"txId":60469961,"txHash":"c1dbcd2acb2f589ffd43155c71c1d4bc8ce63d54ddb4d3728deb402ef2eaa567","txTime":"2023/01/25 09:02:22","block":8314547,"epoch":389,"slotNo":83071051,"epochSlotNo":386251,"stakeKey":"stake1u8np2xgvfy50qgehvuffn3p7a49wp2chh7wna3wpgqpc7nsfw8eay"},{"txId":60469939,"txHash":"740bad8af4aea2a9be965e01144b77515bcf3760d00f0a7bc4699ce48057a6ac","txTime":"2023/01/25 09:01:56","block":8314545,"epoch":389,"slotNo":83071025,"epochSlotNo":386225,"stakeKey":"stake1uy02fc6fxhhguta249eu08d8zky5993l3r4w4rwhm9nyrhc0agsfw"},{"txId":60469907,"txHash":"e3dc191e0018205cc64f64417139c3914937280bff84a8f1fca7562c2d3b6426","txTime":"2023/01/25 09:01:02","block":8314543,"epoch":389,"slotNo":83070971,"epochSlotNo":386171,"stakeKey":"stake1u8hcvffve0njlyp6895kvpecaccgve34k5ma5c96v42zg8qv7fhum"},{"txId":60469853,"txHash":"452aeac5ce3bd71917fcb452d66cc5236d0b875852bf2523f9efd641f6ea1ce9","txTime":"2023/01/25 08:59:18","block":8314539,"epoch":389,"slotNo":83070867,"epochSlotNo":386067,"stakeKey":"stake1uyqcfr23jtf0ekqp7ju54vv3tk7qhd4yzu6g62nwa2m6f8gqdcrlq"},{"txId":60469764,"txHash":"dc483c003150df92e5f57da01088872e39c0fc41cf586eb1de0eb50bbcc780b1","txTime":"2023/01/25 08:57:36","block":8314537,"epoch":389,"slotNo":83070765,"epochSlotNo":385965,"stakeKey":"stake1uxps05835slrl57x356p5sntt97j80h888zu60sfm68qcrcsh3xkc"},{"txId":60469562,"txHash":"7314b411d5ad7c0039229ec6e901ad7318ada92a8deaf2cc8d25aab20d3facd8","txTime":"2023/01/25 08:51:58","block":8314527,"epoch":389,"slotNo":83070427,"epochSlotNo":385627,"stakeKey":"stake1uy34xxh2rarunr86wf76s7n40rkjfelrsazmx8e3qkcpgngmkgf5v"},{"txId":60469433,"txHash":"2b94fef2a1c416e55a5802c726973012dac6ce7f1c1775404876e9c11026d4e2","txTime":"2023/01/25 08:50:02","block":8314520,"epoch":389,"slotNo":83070311,"epochSlotNo":385511,"stakeKey":"stake1u9dg7kqtmmut40hzjskquy9l6aunegl3z2ywhup823x5zqgrfwr0j"},{"txId":60469407,"txHash":"6053870a52058c3c51f2c41831269c1732a239e7a392a289f4c3fe21afcd5e48","txTime":"2023/01/25 08:47:28","block":8314519,"epoch":389,"slotNo":83070157,"epochSlotNo":385357,"stakeKey":"stake1u9q7avavuwt58wsw2hxzj9jdx4nhq0tlnfcv5c79z2xg9tsaehwwa"},{"txId":60469016,"txHash":"fcff41e71198116b9c808615223e82fe928c0891c436d82e44bdcc55f38e650f","txTime":"2023/01/25 08:36:15","block":8314482,"epoch":389,"slotNo":83069484,"epochSlotNo":384684,"stakeKey":"stake1uy7yu8m6ynujcvvv6p53w9td4ck8d8dee0lwkdcart8qp7s0xlfc2"},{"txId":60468977,"txHash":"de1f8a4146e41a7540009b05f1d95e5ef49aab639290ff2bfc8208076e0b90e5","txTime":"2023/01/25 08:35:25","block":8314479,"epoch":389,"slotNo":83069434,"epochSlotNo":384634,"stakeKey":"stake1uxk0juwzun3lteraz0ugval70kvnq9skmxzylhswe77y9ngy2fs4n"},{"txId":60468806,"txHash":"c662482a17f43f515f5aa5656b67261a63bd76e0ba68e510ca560f541fab2869","txTime":"2023/01/25 08:30:08","block":8314465,"epoch":389,"slotNo":83069117,"epochSlotNo":384317,"stakeKey":"stake1u894n4la9j7uha57hny93yc0zl2024u3395zaedpfvypuesevqfau"},{"txId":60468757,"txHash":"7b2ed28611100c3b37de9fd25d0605dd19770c902e8bda2d25e0f211b4705a5b","txTime":"2023/01/25 08:28:26","block":8314460,"epoch":389,"slotNo":83069015,"epochSlotNo":384215,"stakeKey":"stake1uywd7w85qlmhptt305vydw8thf7wfr9gfmy0ewtzcpfsujctas5fw"},{"txId":60468505,"txHash":"c328e90de26db9f9836b2df547f0b3af7d290d23d398b8685f5dcf85f92bad34","txTime":"2023/01/25 08:24:45","block":8314442,"epoch":389,"slotNo":83068794,"epochSlotNo":383994,"stakeKey":"stake1u8xnf3znxkn3489zkydj4kthw5pjr9n0rqv8lljv02qkc9qgr0mgh"},{"txId":60468234,"txHash":"d49bbef11049fbc2234c2001923785366a9c678eb3345b1f092a0d96f33509ff","txTime":"2023/01/25 08:14:21","block":8314422,"epoch":389,"slotNo":83068170,"epochSlotNo":383370,"stakeKey":"stake1uynla6c472ugm392hxdp5e9wduych3ve4nz2f5zvxztj3pgsfzzrm"},{"txId":60467908,"txHash":"8496213e88d3ae46a04cdc7917aff9996542e6a055974fe5f22e5efc2e18377a","txTime":"2023/01/25 08:06:07","block":8314391,"epoch":389,"slotNo":83067676,"epochSlotNo":382876,"stakeKey":"stake1uytky008y8kaspstn5ar7tccr2hegnk6ydw4jf3qkj3g27s9r53dc"},{"txId":60467903,"txHash":"a6d4584752577cdc12c34c6d56b5435d7dd2ce3744318e88a1ac4e8a780f143a","txTime":"2023/01/25 08:06:07","block":8314391,"epoch":389,"slotNo":83067676,"epochSlotNo":382876,"stakeKey":"stake1u84scrx0k4t63j62swlkfashpg5vldqjgd6ppkhwswpyfhsadwcc0"},{"txId":60467852,"txHash":"bf4e1f4e8d2c25c7a9b792aa0a26e521b5944ffdad44f6805f16d36fee578d29","txTime":"2023/01/25 08:04:43","block":8314386,"epoch":389,"slotNo":83067592,"epochSlotNo":382792,"stakeKey":"stake1uyvghjf7ms3sfxfm39urfngj3psynrv606tkq9jmhc2npzspatzuh"}],"totalItems":1652081,"totalPages":82605,"currentPage":0}