{"data":[{"blockNo":6833375,"slotNo":52260174,"epochNo":318,"epochSlotNo":247374,"hash":"829c642929cf5127cdf6f42684d767f7fb3db8d248c98d89ac41df9acf5325bd","time":"2022/02/02 18:27:45","txCount":19,"totalFees":8626891,"totalOutput":19090296310,"slotLeader":"c5293f2ba88ac474787358b9c2f4fae7b3c4408f79cdf89a12c9ece4"},{"blockNo":6833374,"slotNo":52260170,"epochNo":318,"epochSlotNo":247370,"hash":"476db7ad4523b5ecff51377698d0d2733083ff5ae59003ed7702c79afdc2f440","time":"2022/02/02 18:27:41","txCount":65,"totalFees":16012475,"totalOutput":355198546031,"slotLeader":"79c4d4fe108f480fee98f307adac12571df2959651f833b595141cd1"},{"blockNo":6833373,"slotNo":52260156,"epochNo":318,"epochSlotNo":247356,"hash":"c561e908b41904860af370e47964e0a701370c1080fcad59fd4175f6ea9d1611","time":"2022/02/02 18:27:27","txCount":42,"totalFees":13013202,"totalOutput":18318225918,"slotLeader":"00000110093effbf3ce788aebd3e7506b80322bd3995ad432e61fad5"},{"blockNo":6833372,"slotNo":52260122,"epochNo":318,"epochSlotNo":247322,"hash":"89bced070193b1128821125129292aaaf12620ac448ee9fbbe96b26aa3ff1f0e","time":"2022/02/02 18:26:53","txCount":54,"totalFees":15106076,"totalOutput":335504285211,"slotLeader":"17a6a1f2fb36d9ef275805db17409af7ab753b9d27bdd41b89510bb9"},{"blockNo":6833371,"slotNo":52260116,"epochNo":318,"epochSlotNo":247316,"hash":"96ea113097837569a1dcac3a722514658477115522f74c5a04e3e70d96bfba9c","time":"2022/02/02 18:26:47","txCount":26,"totalFees":11446645,"totalOutput":23128754459,"slotLeader":"3257f318b0f84542aef842dc86ca362e5f35ce21a827b142233d5b63"},{"blockNo":6833370,"slotNo":52260098,"epochNo":318,"epochSlotNo":247298,"hash":"40d42d6f247821e09332c6c8caa5a451ab7da827928cf148e1b73918a5b4c576","time":"2022/02/02 18:26:29","txCount":29,"totalFees":13794978,"totalOutput":2023844384077,"slotLeader":"d31f204c4a1701068d3a116b9c50662b60f365178336d6f7825ea547"},{"blockNo":6833369,"slotNo":52260094,"epochNo":318,"epochSlotNo":247294,"hash":"bd9f7362a26c96fd72e6714a03ffaf9942107863180a2fb380d5ca73b2b10953","time":"2022/02/02 18:26:25","txCount":70,"totalFees":15976822,"totalOutput":150683333424,"slotLeader":"9479b6e386c65d8308a776e30350c0720c67b3c28fb4624920ac9199"},{"blockNo":6833368,"slotNo":52260075,"epochNo":318,"epochSlotNo":247275,"hash":"33b9729a94c7bbc8025f448b89827af1a5661c670d7a46ca6eb825d976e5f987","time":"2022/02/02 18:26:06","txCount":33,"totalFees":12398818,"totalOutput":192458150904,"slotLeader":"89f7ebe5936075aae36b1f7f2e1e9e5d2decd5230cfb962d01e12c84"},{"blockNo":6833367,"slotNo":52260051,"epochNo":318,"epochSlotNo":247251,"hash":"f331cb87b862aca3d6e0599bf5f1acc46f769c44ca9551735ca1bdafe3457f2f","time":"2022/02/02 18:25:42","txCount":60,"totalFees":16457967,"totalOutput":682190978503,"slotLeader":"c48ed34a5f24ca6dcbac194e45ed9f0b6ac720018eac038ffa9488bd"},{"blockNo":6833366,"slotNo":52260028,"epochNo":318,"epochSlotNo":247228,"hash":"1066cbb7159cfd8a8ea69d2ed68f77e503ff44a01e020d16a27b62269fa8d409","time":"2022/02/02 18:25:19","txCount":31,"totalFees":11852171,"totalOutput":24712575608,"slotLeader":"c5293f2ba88ac474787358b9c2f4fae7b3c4408f79cdf89a12c9ece4"},{"blockNo":6833365,"slotNo":52259988,"epochNo":318,"epochSlotNo":247188,"hash":"ae42cc2e76640aa5ca619d46c166c413fd1adc46742908c6bbd481185f65ad71","time":"2022/02/02 18:24:39","txCount":42,"totalFees":13133513,"totalOutput":3973976063790,"slotLeader":"903e554b27f6c66a2032bedc3d74fdf6b58b2f09a05e13b9af71807f"},{"blockNo":6833364,"slotNo":52259985,"epochNo":318,"epochSlotNo":247185,"hash":"224f7a2dc89156a81574f0e401e56a3057b14c0f6235b75871c9b017b8ae17e2","time":"2022/02/02 18:24:36","txCount":14,"totalFees":8190721,"totalOutput":7781110503,"slotLeader":"f1b265f1e545da9c6e003c5d703fb5a23283c646cd40b2d619671e7f"},{"blockNo":6833363,"slotNo":52259898,"epochNo":318,"epochSlotNo":247098,"hash":"182e10d7a5641eb87b2b862be75afda1da2751972af68e624c38cfe3502442fe","time":"2022/02/02 18:23:09","txCount":46,"totalFees":13815004,"totalOutput":35091949368,"slotLeader":"30f9a4c529f89d60ad1bd1c33c0e13c20b347fec7cac794c557efcee"},{"blockNo":6833362,"slotNo":52259830,"epochNo":318,"epochSlotNo":247030,"hash":"670af70620d09448afbb013aa7886226467e972597c74602e642350b9b299a60","time":"2022/02/02 18:22:01","txCount":38,"totalFees":12470036,"totalOutput":490708450699,"slotLeader":"39a561d4c1861c687579748bf06342f558e2bc04c49af70c81c8332d"},{"blockNo":6833361,"slotNo":52259800,"epochNo":318,"epochSlotNo":247000,"hash":"053503ce63f7b1f4f83158d0cfda5ea64ea722fc9bd28a2228259267c3b0bd8f","time":"2022/02/02 18:21:31","txCount":38,"totalFees":12489872,"totalOutput":1566210425554,"slotLeader":"7113de447fb62c38e3e3aeec434cac6fc76e05e997b84227e9c637b8"},{"blockNo":6833360,"slotNo":52259792,"epochNo":318,"epochSlotNo":246992,"hash":"fbd0f50ad93516c77547d5e09d018564af14da65088be00546df057499377d9e","time":"2022/02/02 18:21:23","txCount":28,"totalFees":11706734,"totalOutput":15972410745,"slotLeader":"707725a41873178814530f39fb14a4b2842d05377e2b62a546fe2014"},{"blockNo":6833359,"slotNo":52259790,"epochNo":318,"epochSlotNo":246990,"hash":"fb30f49746a152cac67f5b0d5f7687191b13d78b272e2e2845df0bec3048bea4","time":"2022/02/02 18:21:21","txCount":35,"totalFees":13683407,"totalOutput":137799982652,"slotLeader":"5ea0be57485dfdd737e36ecdb95d03b1472be4450267fbdae9625e99"},{"blockNo":6833358,"slotNo":52259783,"epochNo":318,"epochSlotNo":246983,"hash":"ea9a5946eef9bd185febd1797f74ab2e39df76a9fa0ef72fa1a94ac6af69ab8f","time":"2022/02/02 18:21:14","txCount":12,"totalFees":8323398,"totalOutput":6073581297378,"slotLeader":"aa65bf8422f6b5af3a1197e9fe6649539025f2e18257cfb2f1e631aa"},{"blockNo":6833357,"slotNo":52259775,"epochNo":318,"epochSlotNo":246975,"hash":"cf0aac0c28d53e0cf6d59196e9aad815e84f7a47d7435da2ace1122791e5d0f0","time":"2022/02/02 18:21:06","txCount":22,"totalFees":9606616,"totalOutput":52919062957,"slotLeader":"e65debd0f8929713b22de09383fa13107b0a351194497bee8c2f0c13"},{"blockNo":6833356,"slotNo":52259701,"epochNo":318,"epochSlotNo":246901,"hash":"b14fa1451f331319f8ce5de441019c7f78da9c9be9bdb65ca8848bea0d3b8b3c","time":"2022/02/02 18:19:52","txCount":43,"totalFees":11514097,"totalOutput":58902712419,"slotLeader":"2382bac66b58a4df1cf1775285529bbbefb9102ecea991e1da0aa064"}],"totalItems":6833551,"totalPages":341678,"currentPage":0}