{"data":[{"txId":50796172,"txHash":"718cfbfdaa7b5c6d9814bf410d8f23f1236e32ccfa6f25617ea46f97109e1884","txTime":"2022/09/22 14:24:20","block":7790415,"epoch":364,"slotNo":72290369,"epochSlotNo":405569,"stakeKey":"stake1uy7s06cm0vrm8vpa5jjmq2f803vwlrh8nvwfy688fhuwfvg3cxyke"},{"txId":50795770,"txHash":"cef8ea013fd26e1196f72a83e82e1785cceb82f1c3b1822e506f9c3e2d8d0d83","txTime":"2022/09/22 14:15:56","block":7790398,"epoch":364,"slotNo":72289865,"epochSlotNo":405065,"stakeKey":"stake1u92zdx5m7j93arsy69z32gt8jn5lr6a7pg67py53u4dayegtr5x44"},{"txId":50795491,"txHash":"9edbf43bbffd79a9139012e260aa20eac7bedb83f2969b1ce93d547f25deec9b","txTime":"2022/09/22 14:09:11","block":7790379,"epoch":364,"slotNo":72289460,"epochSlotNo":404660,"stakeKey":"stake1uxv3xumxula4l6w3tegejqumtpyy77wh44scqqpty78q5scdzthah"},{"txId":50795404,"txHash":"508de1dd475eb24ad63290871a63b405e45cf8860a6552f157373500d383e93e","txTime":"2022/09/22 14:07:17","block":7790374,"epoch":364,"slotNo":72289346,"epochSlotNo":404546,"stakeKey":"stake1ux3v7tk4wtrjtyve7srqqhy2n4f4ypj9m406hjyr6pwmvmq3fz4zp"},{"txId":50795168,"txHash":"139bdbc22659a55f3c391aea35082edb3fbb0031de9c3b806eb8e65c1ef70357","txTime":"2022/09/22 14:01:08","block":7790356,"epoch":364,"slotNo":72288977,"epochSlotNo":404177,"stakeKey":"stake1uyy0g5shw9husa35jgqy6473a0wr3nveqy9tramw3hx0k4q0gx02d"},{"txId":50795018,"txHash":"81a7b27cdbaec7644e7f9c318326773a7a2b974e7b5254b766c58cc1cc47f30e","txTime":"2022/09/22 13:58:06","block":7790346,"epoch":364,"slotNo":72288795,"epochSlotNo":403995,"stakeKey":"stake1u9k6xn2e3uadrw6q00hzrweuvn04u3sm6yfj68xfrauaj9q8vuc29"},{"txId":50794787,"txHash":"61eb27ddf9ce04d2f14fe54e1297c91d6bba3e7c2161dc5a612a29014b07f51b","txTime":"2022/09/22 13:52:34","block":7790332,"epoch":364,"slotNo":72288463,"epochSlotNo":403663,"stakeKey":"stake1uylx87cf66jkgws6vgx2my0wvkh0j9fqf5p7hdw90sjx2pgctk64m"},{"txId":50794681,"txHash":"3f1a2ddc37223e66c394aa2532c49e6ffb0f7e6a80b66c3e07e31d7ea6234c5f","txTime":"2022/09/22 13:50:19","block":7790323,"epoch":364,"slotNo":72288328,"epochSlotNo":403528,"stakeKey":"stake1u9yj9nhtx5e3t7nm8wpvhzxyl7meq95ee6s5ukpdmegsj5gyg6mpr"},{"txId":50794432,"txHash":"2bd95e80ed942127b72381fbf448d2547b5d9b846c1e7487fce2b37cf61a248e","txTime":"2022/09/22 13:45:25","block":7790307,"epoch":364,"slotNo":72288034,"epochSlotNo":403234,"stakeKey":"stake1uxfdv9k289umfacv7n2d5h5geajdp6w4uecq637w7qqgw0g47h9sy"},{"txId":50794390,"txHash":"8dc08dbfd4cbc050c4d1dbc8caaf346e24f8801085a110c1b7e8c77746bf6790","txTime":"2022/09/22 13:44:11","block":7790305,"epoch":364,"slotNo":72287960,"epochSlotNo":403160,"stakeKey":"stake1u9s3jw4pv8qff5fvwpzzgpevknejfyg0gpqpeedj0xzs2qcfgsf4d"},{"txId":50794312,"txHash":"d02bf9f56ac64df49601fe06edc6d78b021a550c54a4923437209f0292326467","txTime":"2022/09/22 13:42:08","block":7790295,"epoch":364,"slotNo":72287837,"epochSlotNo":403037,"stakeKey":"stake1uyefveq2x7qpf90qv8yszasf8a2tele8rrdy7htk0c3zcdqx3rujh"},{"txId":50794084,"txHash":"024288471d5ae492e34afbdf032a5b5545e5821869b789f5d133f2b26833597d","txTime":"2022/09/22 13:35:42","block":7790280,"epoch":364,"slotNo":72287451,"epochSlotNo":402651,"stakeKey":"stake1u95xs20j2umdpefu6gctq2nzznneynsaq65j3ss5yvd0tnsmsccq8"},{"txId":50793826,"txHash":"bc079939178e3288627b8f513a1eaef49335be261a234d02e9f964d313b56e93","txTime":"2022/09/22 13:29:37","block":7790260,"epoch":364,"slotNo":72287086,"epochSlotNo":402286,"stakeKey":"stake1u8t984dlecmwnmtvxskhur09tqscmnjjsyafjtm4c2ve0ngfjfmlc"},{"txId":50793736,"txHash":"63cb561c6c02706513b29f1292c345a9e377b9eeb5c43bf89e240c403c319bfe","txTime":"2022/09/22 13:27:15","block":7790253,"epoch":364,"slotNo":72286944,"epochSlotNo":402144,"stakeKey":"stake1u9ranvhekew8j9pvhwrm2q806z7wx30xaqdvl8aqrxkxs7sdqvg93"},{"txId":50793265,"txHash":"5945f0b49ae6924964a0bf202c1983a099c41830565eaba1be446218fe0111f2","txTime":"2022/09/22 13:16:49","block":7790232,"epoch":364,"slotNo":72286318,"epochSlotNo":401518,"stakeKey":"stake1u8v3qlv7drep7cr5e9wt94r409v5n0n6p0f3yfgp9c3t0zq2l6wej"},{"txId":50792975,"txHash":"babfc2dad7da8441fd03bd0870fb3c7297e164361b8773512855ed5104aa81b5","txTime":"2022/09/22 13:12:03","block":7790211,"epoch":364,"slotNo":72286032,"epochSlotNo":401232,"stakeKey":"stake1u9lskdx0xuxnm2s9gz8w8k94c8azfe3lk70ssh6ler0dj9g66s8de"},{"txId":50792974,"txHash":"7a460aa3d9e2340cbd0311eda2d69f5cde56c8b95acd4d516a4d2c1973fbc40a","txTime":"2022/09/22 13:12:03","block":7790211,"epoch":364,"slotNo":72286032,"epochSlotNo":401232,"stakeKey":"stake1uy355fsphmz5g8dxh6qsa7uuhh7kuthp8vjl6dvhles8zgq3j8muy"},{"txId":50792848,"txHash":"b14ca8eb45a4fbd5f8b2622b13df998ee2f3451d3e6fb121427207d4504c8025","txTime":"2022/09/22 13:08:55","block":7790201,"epoch":364,"slotNo":72285844,"epochSlotNo":401044,"stakeKey":"stake1uxdavyrntm422txtpzqj7xa9hs5vf5pexyegwr4ln6frfcgnf07cm"},{"txId":50792505,"txHash":"5e8268c7804bd3a7621fc9ddbc96dc283f882bb5ce045cbc72e86985be26b743","txTime":"2022/09/22 13:01:14","block":7790174,"epoch":364,"slotNo":72285383,"epochSlotNo":400583,"stakeKey":"stake1u8hmrgrx77vkrstu8qnnm8kakfh8f03wvzwhfeepsug87ycnr85dy"},{"txId":50792296,"txHash":"a4e13f014f18dbc033edfbd831a5d6a9eb2c2171e3dd064ec84c1002e1bbf195","txTime":"2022/09/22 12:57:06","block":7790161,"epoch":364,"slotNo":72285135,"epochSlotNo":400335,"stakeKey":"stake1u95mt7xehm4rqnavvd7kk8vxu8ucw5mhqfwenerrnw9m8uqtlx0f5"}],"totalItems":315632,"totalPages":15782,"currentPage":0}