{"data":[{"txId":55879247,"txHash":"19fe78d23b56b0f49738f7010fee39ab12979af4e589724b3f1d77bf3f0a183e","txTime":"2022/11/24 06:29:15","block":8053343,"epoch":377,"slotNo":77705064,"epochSlotNo":204264,"stakeKey":"stake1uxlpnmg39fjrqum075jkrffmhztev8tv4ypwm88vlrl6umqrspqgk"},{"txId":55879060,"txHash":"10e6e54ccda8a48b2af058514ec7d23f2c8fdb76cf884235fd9f74cd81da5392","txTime":"2022/11/24 06:25:06","block":8053332,"epoch":377,"slotNo":77704815,"epochSlotNo":204015,"stakeKey":"stake1u972uy8g8hd6wznv2fuuz9pclrygad6e97cv0y499jr2qugmqmaw5"},{"txId":55879015,"txHash":"ff3f2a3eff72bc5fb2ac2e076c1b4adc8b0a2d32de2efea889cc3e3d88dd3a31","txTime":"2022/11/24 06:23:09","block":8053328,"epoch":377,"slotNo":77704698,"epochSlotNo":203898,"stakeKey":"stake1u82yv3trp0ee8fr7275wv8dmh939qrmp9jqt43z54xr3vlg4n7t7k"},{"txId":55878538,"txHash":"b9fd892b1ca7efc0f2f9d175db20391d2bcc0d4bcf3a5b38f568cace54060c3d","txTime":"2022/11/24 06:13:20","block":8053296,"epoch":377,"slotNo":77704109,"epochSlotNo":203309,"stakeKey":"stake1uxahhld7gpk2s2tsfh6r4030t0t0dfedscse3scc7hxstkqd3dr4k"},{"txId":55878087,"txHash":"8ab7e00e76d26fa39a963ce9103e8521847c3152b500fb1ac1b99dbee4bd7c21","txTime":"2022/11/24 06:04:02","block":8053267,"epoch":377,"slotNo":77703551,"epochSlotNo":202751,"stakeKey":"stake1u9ee6frc5xd0juemc657xqt98r4lw90hww7hwdxd09xy00cs6vjcd"},{"txId":55877897,"txHash":"11976d49de6f00a5e8805aaa5568fa134bd301f5e3f626298e5702751aaf8800","txTime":"2022/11/24 05:59:21","block":8053258,"epoch":377,"slotNo":77703270,"epochSlotNo":202470,"stakeKey":"stake1u8ykk2tlcaul22kf85ql60hkp98m2lkwxnmsg4c6w5shqjspmdce5"},{"txId":55877477,"txHash":"ac50bf2cd6885bd3acf8afc5789408f27f1376a1a21f8830db8ecfbea485c53f","txTime":"2022/11/24 05:50:27","block":8053229,"epoch":377,"slotNo":77702736,"epochSlotNo":201936,"stakeKey":"stake1uy65vjcnzgmy25ad33xacfu8m6act50xttgkc3cwsje942c3znxek"},{"txId":55877282,"txHash":"3134db373787c6734414b04f21ba1e43f72faac27d823a92993eb98596d37e80","txTime":"2022/11/24 05:46:24","block":8053213,"epoch":377,"slotNo":77702493,"epochSlotNo":201693,"stakeKey":"stake1uxxh68jmmnh7kn0g9clwd2jrhwcy9sn9mdmddkmgvs6e65qljsakz"},{"txId":55877228,"txHash":"2e9e97b3b2604c14467bd17b0bbb3dbef1726e8c083d460a637ea0bed016c6e9","txTime":"2022/11/24 05:45:04","block":8053212,"epoch":377,"slotNo":77702413,"epochSlotNo":201613,"stakeKey":"stake1u8smte456draprpyn8zn9qy9n7kpsppnwxrz9tf0ejw6les3tze9g"},{"txId":55876985,"txHash":"2d4a238fa87dce6e0c70a0d81767fd429dd61b2418a67310ad9a0edaa3ea9b3f","txTime":"2022/11/24 05:40:31","block":8053196,"epoch":377,"slotNo":77702140,"epochSlotNo":201340,"stakeKey":"stake1u9s7pdnkujx068gezxnhjc228f4y2rrgyckjzvznuyyq7wqfdc7sf"},{"txId":55876893,"txHash":"f0434bfa882dd4e65fa5fc4d7a54f6b3df04a010cd10390300350e1240a0b7c5","txTime":"2022/11/24 05:38:46","block":8053194,"epoch":377,"slotNo":77702035,"epochSlotNo":201235,"stakeKey":"stake1uyrfscmr0cjeqyhlrsq3ruhkefq55xmqlzwx4yluxgrmfrgg5admp"},{"txId":55876708,"txHash":"25c8faa6dbefb744edaeda381c115933973febfe9573d59ba0cde5e2b220ffb9","txTime":"2022/11/24 05:34:31","block":8053179,"epoch":377,"slotNo":77701780,"epochSlotNo":200980,"stakeKey":"stake1u8lm5neh3sunlj42tzddf4xsdlpw7pml9tquxjw4haz3r3q85lwzw"},{"txId":55876558,"txHash":"2dddb51c11ff34420f208df403991f3397304787bcff6c48eaff94235734711b","txTime":"2022/11/24 05:31:46","block":8053172,"epoch":377,"slotNo":77701615,"epochSlotNo":200815,"stakeKey":"stake1u8ajru4pdrsfnpx6hs80avk0gk4d02qqctr8ju397nu6sqqj6lp0m"},{"txId":55876507,"txHash":"6a4868bab28c5b59313495de88cea31ec54dd1d55470bf6191257e5e6f9c8d70","txTime":"2022/11/24 05:30:49","block":8053167,"epoch":377,"slotNo":77701558,"epochSlotNo":200758,"stakeKey":"stake1uy76xprhg3f62xvyq97aumsgfqus8y49vhd2p62p27nlqesz0ryr7"},{"txId":55876482,"txHash":"dad75ec6ddf40479869094fe9a5503bf8d04e1c6c344070cc5869084036926a6","txTime":"2022/11/24 05:30:32","block":8053165,"epoch":377,"slotNo":77701541,"epochSlotNo":200741,"stakeKey":"stake1u9zqz6jg494wlzerfs2maph6ezcedlh54t4tktt9uykae3ssa8kgf"},{"txId":55876383,"txHash":"a9bead0f445609ca191f24251ff6ee087cb7c7ac63cee99956e9bebbec1c2c04","txTime":"2022/11/24 05:28:13","block":8053162,"epoch":377,"slotNo":77701402,"epochSlotNo":200602,"stakeKey":"stake1uxp733q5m9gpfa6609xywp4s8jdqnzzwyzc4llkaldaxdkq34kfhx"},{"txId":55876305,"txHash":"34c66a062c061ee3330317e0700fc6704772c6f39151e7074b3942172d074dc6","txTime":"2022/11/24 05:26:38","block":8053157,"epoch":377,"slotNo":77701307,"epochSlotNo":200507,"stakeKey":"stake1u9z6ywzstn563dsg49en0vedsmrndl653uyukqnq3zzx9vg969j0z"},{"txId":55876217,"txHash":"52d2abf31bdda0233fbb1c1293e9764f474221f73b16d73475734390a76ad374","txTime":"2022/11/24 05:25:19","block":8053152,"epoch":377,"slotNo":77701228,"epochSlotNo":200428,"stakeKey":"stake1ux0uue03fsx5eeum3zs5lg3twwfvr5dqd9fzuneqjjlcyccq3hh3a"},{"txId":55876039,"txHash":"2dbda6fef86f601285513d0f2506f2bd27130e7927df5cb3a739b7daff57667b","txTime":"2022/11/24 05:22:36","block":8053146,"epoch":377,"slotNo":77701065,"epochSlotNo":200265,"stakeKey":"stake1u9p0mngd0t8ej2zecde9v65x6ddglrvna8kjgzy0h8rqadqcdckpm"},{"txId":55875782,"txHash":"bfa2ea8331462a22ff0150f09c83a80ad1f0ab714c2820b4ef01824c3caef807","txTime":"2022/11/24 05:16:22","block":8053133,"epoch":377,"slotNo":77700691,"epochSlotNo":199891,"stakeKey":"stake1uxanq0vcfqrqymy8m9p6q8kg929cnz9tst34nw4sw2p7zzg5r8a4l"}],"totalItems":1609719,"totalPages":80486,"currentPage":0}