{"data":[{"hash":"8cb07dbbb5f876269cc844639ecc65435481c7b922f4187c132e77dd18157413","blockNo":8264035,"blockHash":"413212f0838e9efe876a2e7657e30de660823e0f502b18d817daa1fc354805e0","epochNo":387,"epochSlotNo":212050,"slot":82032850,"time":"2023/01/13 08:39:01","addressesInput":["addr1q8ww79v2crq0kfve6ksqe7darae79y52uf8fk0pd708enpv4npdqlnxy6awglp7rtaqgnzl4uz60avhtnqadtgthu5wq55ygd9"],"addressesOutput":["addr1q9fdu9gsvdxzxn2m4njq0lz2kstfwtay0a73kmg3wfwsk3ae7x8jdsjcwjz2zexz0vgh282fv27n685e5ty8a37dgd8qxn0ylf","addr1q8ww79v2crq0kfve6ksqe7darae79y52uf8fk0pd708enpv4npdqlnxy6awglp7rtaqgnzl4uz60avhtnqadtgthu5wq55ygd9"],"fee":169593,"totalOutput":249781954926,"tokens":[]},{"hash":"294bfbd20530a115a806a593a24c0764fd484d5870b490433ac906257122400d","blockNo":8264035,"blockHash":"413212f0838e9efe876a2e7657e30de660823e0f502b18d817daa1fc354805e0","epochNo":387,"epochSlotNo":212050,"slot":82032850,"time":"2023/01/13 08:39:01","addressesInput":["addr1qyu6eslfeq9khe4w89n52vrfuq7fx9w3x0uyej07z8pap4sd4fcv8s7zhum20w47walveyvmr3rdnpc7vx6gtmym5raq2s2ere"],"addressesOutput":["addr1qyu6eslfeq9khe4w89n52vrfuq7fx9w3x0uyej07z8pap4sd4fcv8s7zhum20w47walveyvmr3rdnpc7vx6gtmym5raq2s2ere"],"fee":174601,"totalOutput":203597199,"tokens":[]},{"hash":"4c827f1bb348e3d0ac9d970d52f62d9ad0f202960ff3c97f3d74d7c4b87e9ebe","blockNo":8264035,"blockHash":"413212f0838e9efe876a2e7657e30de660823e0f502b18d817daa1fc354805e0","epochNo":387,"epochSlotNo":212050,"slot":82032850,"time":"2023/01/13 08:39:01","addressesInput":["addr1zxgx3far7qygq0k6epa0zcvcvrevmn0ypsnfsue94nsn3tvpw288a4x0xf8pxgcntelxmyclq83s0ykeehchz2wtspks905plm","addr1qx0t9hdsc4x4qv3uuxvjmr7xxuerzlek79g7ygh53k405gvrl32rm46ah3fdqrndvj30al3dwlxgwhzkracsqc7xr3lqdszc06"],"addressesOutput":["addr1qx0t9hdsc4x4qv3uuxvjmr7xxuerzlek79g7ygh53k405gvrl32rm46ah3fdqrndvj30al3dwlxgwhzkracsqc7xr3lqdszc06","addr1qx0t9hdsc4x4qv3uuxvjmr7xxuerzlek79g7ygh53k405gvrl32rm46ah3fdqrndvj30al3dwlxgwhzkracsqc7xr3lqdszc06"],"fee":266536,"totalOutput":189653163,"tokens":[]},{"hash":"6be46e6d150f1e252e8a48cc8586d511e1278a32672ccc3c68e792916b0f432d","blockNo":8264035,"blockHash":"413212f0838e9efe876a2e7657e30de660823e0f502b18d817daa1fc354805e0","epochNo":387,"epochSlotNo":212050,"slot":82032850,"time":"2023/01/13 08:39:01","addressesInput":["addr1qysey083wkw45l2kt6y3fxqvlpta2csu3fegqz9vwyzjmudl7f2crz6u8ec64d8uvemcjwmehgp4uffzx7qwuzzegdcskn7w5h","addr1qx7wxalkyv5seyu7ax7wq4l2tfwxdykej65fn00nthfp5vdl7f2crz6u8ec64d8uvemcjwmehgp4uffzx7qwuzzegdcshq9hx8","addr1qx7wxalkyv5seyu7ax7wq4l2tfwxdykej65fn00nthfp5vdl7f2crz6u8ec64d8uvemcjwmehgp4uffzx7qwuzzegdcshq9hx8","addr1qx7wxalkyv5seyu7ax7wq4l2tfwxdykej65fn00nthfp5vdl7f2crz6u8ec64d8uvemcjwmehgp4uffzx7qwuzzegdcshq9hx8","addr1zxgx3far7qygq0k6epa0zcvcvrevmn0ypsnfsue94nsn3tvpw288a4x0xf8pxgcntelxmyclq83s0ykeehchz2wtspks905plm"],"addressesOutput":["addr1q8ejmqx77dxzhz8u70346yza2txvsrcx6w039s0a0eg3akdyxd8lufec0r4pd83ajznjw93eufg8yj7t90yxcjcznh9sucy3se","addr1q9cwvremt6n320s2e3agq0jyq82yhrk3htsu0w426xnz5us70z4w0jgvcdkkynmm8wmds66jd9kusnjfpu6raw5fqp0sr07p5w","addr1q9f22jzp2fcef4a9x7u9930p03rafxe9z43ugnfk43e6ve0flwxrj0r5rzn349yjwnz64zjxzgugfr24nr63tclaestq6vgd0n","addr1qx7wxalkyv5seyu7ax7wq4l2tfwxdykej65fn00nthfp5vdl7f2crz6u8ec64d8uvemcjwmehgp4uffzx7qwuzzegdcshq9hx8","addr1qx7wxalkyv5seyu7ax7wq4l2tfwxdykej65fn00nthfp5vdl7f2crz6u8ec64d8uvemcjwmehgp4uffzx7qwuzzegdcshq9hx8","addr1qx7wxalkyv5seyu7ax7wq4l2tfwxdykej65fn00nthfp5vdl7f2crz6u8ec64d8uvemcjwmehgp4uffzx7qwuzzegdcshq9hx8","addr1qx7wxalkyv5seyu7ax7wq4l2tfwxdykej65fn00nthfp5vdl7f2crz6u8ec64d8uvemcjwmehgp4uffzx7qwuzzegdcshq9hx8","addr1qx7wxalkyv5seyu7ax7wq4l2tfwxdykej65fn00nthfp5vdl7f2crz6u8ec64d8uvemcjwmehgp4uffzx7qwuzzegdcshq9hx8"],"fee":467692,"totalOutput":1619435659,"tokens":[]},{"hash":"8e4ba81039565ed6317b9aa094482d513b29a6ef3f280e58169b7f921609ffcb","blockNo":8264035,"blockHash":"413212f0838e9efe876a2e7657e30de660823e0f502b18d817daa1fc354805e0","epochNo":387,"epochSlotNo":212050,"slot":82032850,"time":"2023/01/13 08:39:01","addressesInput":["addr1qyq5rzea50379d4x4wwvqesqk0r9za9lenkegxz9j37p4rst3yppthp2ytgvly0yjd6j9nqqrgrxux4dqjh4y8zz6zdswl3ex0","addr1qyq5rzea50379d4x4wwvqesqk0r9za9lenkegxz9j37p4rst3yppthp2ytgvly0yjd6j9nqqrgrxux4dqjh4y8zz6zdswl3ex0"],"addressesOutput":["addr1zxgx3far7qygq0k6epa0zcvcvrevmn0ypsnfsue94nsn3tvpw288a4x0xf8pxgcntelxmyclq83s0ykeehchz2wtspks905plm","addr1qyq5rzea50379d4x4wwvqesqk0r9za9lenkegxz9j37p4rst3yppthp2ytgvly0yjd6j9nqqrgrxux4dqjh4y8zz6zdswl3ex0","addr1qyq5rzea50379d4x4wwvqesqk0r9za9lenkegxz9j37p4rst3yppthp2ytgvly0yjd6j9nqqrgrxux4dqjh4y8zz6zdswl3ex0","addr1qyq5rzea50379d4x4wwvqesqk0r9za9lenkegxz9j37p4rst3yppthp2ytgvly0yjd6j9nqqrgrxux4dqjh4y8zz6zdswl3ex0"],"fee":288041,"totalOutput":106363355,"tokens":[]},{"hash":"9287f6e94faa8e42353e59b3f82b447453a2e76995f1e62f1edcb8e7dedd35f6","blockNo":8264034,"blockHash":"f234e58d806842b7438c53faf52c503b3239f1a3d90cebf8917404279692e2db","epochNo":387,"epochSlotNo":212035,"slot":82032835,"time":"2023/01/13 08:38:46","addressesInput":["addr1q9nvrqgxc0hv64t8zndtlce725zls76ss8menvxq9ey45z9f4w89v720k4jw4mwj6ds04dgf9kfqa9lrfqe4255vwsfsk8tr8f"],"addressesOutput":["addr1qxwayhq4qtdcunjgrcny47zfmc6g6lh9n4uq97at77kev8ar5y8s36uw8lrwejrtvtqw8xga8l43wccxu69z5uk3wf3s9yqwvx","addr1qymgpxzpvrlv0amvu4etqqu00t83zywksslsh8nz0gq8zg9f4w89v720k4jw4mwj6ds04dgf9kfqa9lrfqe4255vwsfs586ah6"],"fee":363105,"totalOutput":22827550,"tokens":[]},{"hash":"9503462f0ab064b51988f5f820760a578e04e9eea6f4feba2f46042c68cea84a","blockNo":8264034,"blockHash":"f234e58d806842b7438c53faf52c503b3239f1a3d90cebf8917404279692e2db","epochNo":387,"epochSlotNo":212035,"slot":82032835,"time":"2023/01/13 08:38:46","addressesInput":["addr1q8hh6upqrzw0f2wfzj3nyfegjmu2r2c880xzhwt3fmvnucwrrd30yvz68czy898nc69a593v4fhdndzshlrv582myxws0upqlj","addr1q8hh6upqrzw0f2wfzj3nyfegjmu2r2c880xzhwt3fmvnucwrrd30yvz68czy898nc69a593v4fhdndzshlrv582myxws0upqlj","addr1q8hh6upqrzw0f2wfzj3nyfegjmu2r2c880xzhwt3fmvnucwrrd30yvz68czy898nc69a593v4fhdndzshlrv582myxws0upqlj","addr1q8hh6upqrzw0f2wfzj3nyfegjmu2r2c880xzhwt3fmvnucwrrd30yvz68czy898nc69a593v4fhdndzshlrv582myxws0upqlj","addr1q8hh6upqrzw0f2wfzj3nyfegjmu2r2c880xzhwt3fmvnucwrrd30yvz68czy898nc69a593v4fhdndzshlrv582myxws0upqlj","addr1q8hh6upqrzw0f2wfzj3nyfegjmu2r2c880xzhwt3fmvnucwrrd30yvz68czy898nc69a593v4fhdndzshlrv582myxws0upqlj","addr1zxgx3far7qygq0k6epa0zcvcvrevmn0ypsnfsue94nsn3tvpw288a4x0xf8pxgcntelxmyclq83s0ykeehchz2wtspks905plm"],"addressesOutput":["addr1q86ylp637q7hv7a9r387nz8d9zdhem2v06pjyg75fvcmen3rg8t4q3f80r56p93xqzhcup0w7e5heq7lnayjzqau3dfs7yrls5","addr1q9cwvremt6n320s2e3agq0jyq82yhrk3htsu0w426xnz5us70z4w0jgvcdkkynmm8wmds66jd9kusnjfpu6raw5fqp0sr07p5w","addr1qxltspsjvrfudmussy2wp02dlljunnv6sfs08dxwntg5anyxq6hnqtftx8qhl02gyplz2u45gagsqewavtssqqcuc3vs5l77za","addr1q8hh6upqrzw0f2wfzj3nyfegjmu2r2c880xzhwt3fmvnucwrrd30yvz68czy898nc69a593v4fhdndzshlrv582myxws0upqlj","addr1q8hh6upqrzw0f2wfzj3nyfegjmu2r2c880xzhwt3fmvnucwrrd30yvz68czy898nc69a593v4fhdndzshlrv582myxws0upqlj"],"fee":450158,"totalOutput":146036903,"tokens":[]},{"hash":"f7dcd17e65c4d677a124671a9d88c452c05aafe24ce5f1ea85cb8c94afd4be24","blockNo":8264034,"blockHash":"f234e58d806842b7438c53faf52c503b3239f1a3d90cebf8917404279692e2db","epochNo":387,"epochSlotNo":212035,"slot":82032835,"time":"2023/01/13 08:38:46","addressesInput":["addr1zxgx3far7qygq0k6epa0zcvcvrevmn0ypsnfsue94nsn3tvpw288a4x0xf8pxgcntelxmyclq83s0ykeehchz2wtspks905plm","addr1qyg80wl2mkrqkugexvq2p0aw3stkc7mlgp2p5fq2s9w6uh6l5zkd388nm7s6xvfxk0dgfxyzhevjzav690g2nvqzmasqlu07rn"],"addressesOutput":["addr1qyg80wl2mkrqkugexvq2p0aw3stkc7mlgp2p5fq2s9w6uh6l5zkd388nm7s6xvfxk0dgfxyzhevjzav690g2nvqzmasqlu07rn","addr1qyg80wl2mkrqkugexvq2p0aw3stkc7mlgp2p5fq2s9w6uh6l5zkd388nm7s6xvfxk0dgfxyzhevjzav690g2nvqzmasqlu07rn"],"fee":271230,"totalOutput":17463220,"tokens":[]},{"hash":"55d181105d0c999299e4c20399f5cdd7f1d3abf779e75953d7e4189ca6b542e0","blockNo":8264034,"blockHash":"f234e58d806842b7438c53faf52c503b3239f1a3d90cebf8917404279692e2db","epochNo":387,"epochSlotNo":212035,"slot":82032835,"time":"2023/01/13 08:38:46","addressesInput":["addr1qx6fsw5l5cscp73qzzy0sytcpm2r98p0npj54kqke4yeyl45q4ea69r9hg7stcpazhfpjekh6p2zjl5pfe0m08zzwnxqvypauc","addr1qx6fsw5l5cscp73qzzy0sytcpm2r98p0npj54kqke4yeyl45q4ea69r9hg7stcpazhfpjekh6p2zjl5pfe0m08zzwnxqvypauc","addr1qx6fsw5l5cscp73qzzy0sytcpm2r98p0npj54kqke4yeyl45q4ea69r9hg7stcpazhfpjekh6p2zjl5pfe0m08zzwnxqvypauc","addr1qx6fsw5l5cscp73qzzy0sytcpm2r98p0npj54kqke4yeyl45q4ea69r9hg7stcpazhfpjekh6p2zjl5pfe0m08zzwnxqvypauc"],"addressesOutput":["addr1vycs4rqhj2smz8wuqp5mfasnxkwm4myl6v3szyjtf8ks8dq04fuhc","addr1qx6fsw5l5cscp73qzzy0sytcpm2r98p0npj54kqke4yeyl45q4ea69r9hg7stcpazhfpjekh6p2zjl5pfe0m08zzwnxqvypauc","addr1qx6fsw5l5cscp73qzzy0sytcpm2r98p0npj54kqke4yeyl45q4ea69r9hg7stcpazhfpjekh6p2zjl5pfe0m08zzwnxqvypauc"],"fee":194497,"totalOutput":14383875,"tokens":[]},{"hash":"61fae499e47b65cfb9da90a91d89ff8f08a3fdf26fe22f81bf3b6310212eae51","blockNo":8264034,"blockHash":"f234e58d806842b7438c53faf52c503b3239f1a3d90cebf8917404279692e2db","epochNo":387,"epochSlotNo":212035,"slot":82032835,"time":"2023/01/13 08:38:46","addressesInput":["addr1qxwnnu626h5s3lzkx8rtzmrlyycfhtv0j6derrmzd0quenadhkdp0sas5mfcuw4lsljkuz55sgunchfsr53ndkm93kcq9ej959","addr1qxwnnu626h5s3lzkx8rtzmrlyycfhtv0j6derrmzd0quenadhkdp0sas5mfcuw4lsljkuz55sgunchfsr53ndkm93kcq9ej959"],"addressesOutput":["addr1zxgx3far7qygq0k6epa0zcvcvrevmn0ypsnfsue94nsn3tvpw288a4x0xf8pxgcntelxmyclq83s0ykeehchz2wtspks905plm","addr1qxwnnu626h5s3lzkx8rtzmrlyycfhtv0j6derrmzd0quenadhkdp0sas5mfcuw4lsljkuz55sgunchfsr53ndkm93kcq9ej959","addr1qxwnnu626h5s3lzkx8rtzmrlyycfhtv0j6derrmzd0quenadhkdp0sas5mfcuw4lsljkuz55sgunchfsr53ndkm93kcq9ej959"],"fee":227101,"totalOutput":20709028,"tokens":[]},{"hash":"6e497be4158aefef8ea3032165af508fc87d49bb034294aad78a606d82c37d83","blockNo":8264034,"blockHash":"f234e58d806842b7438c53faf52c503b3239f1a3d90cebf8917404279692e2db","epochNo":387,"epochSlotNo":212035,"slot":82032835,"time":"2023/01/13 08:38:46","addressesInput":["addr1q8tqrzx2g062zvyfr3na2m6fvlgsmah3hpshnwjrsqhd7kpdntvxjt95cze67edn2pc4ythdtf0eadh77xkzc83je87slh7lf9","addr1q8tqrzx2g062zvyfr3na2m6fvlgsmah3hpshnwjrsqhd7kpdntvxjt95cze67edn2pc4ythdtf0eadh77xkzc83je87slh7lf9","addr1q8tqrzx2g062zvyfr3na2m6fvlgsmah3hpshnwjrsqhd7kpdntvxjt95cze67edn2pc4ythdtf0eadh77xkzc83je87slh7lf9","addr1q8tqrzx2g062zvyfr3na2m6fvlgsmah3hpshnwjrsqhd7kpdntvxjt95cze67edn2pc4ythdtf0eadh77xkzc83je87slh7lf9"],"addressesOutput":["addr1q9ad5mud938r7l24eaac4v57ydlj72hazgprts9f7daaz09mm95jvs5h94099yglxr7v6ug6pp43780huy040lm4utmqx8g5eu","addr1wxn9efv2f6w82hagxqtn62ju4m293tqvw0uhmdl64ch8uwc0h43gt","addr1q8tqrzx2g062zvyfr3na2m6fvlgsmah3hpshnwjrsqhd7kpdntvxjt95cze67edn2pc4ythdtf0eadh77xkzc83je87slh7lf9"],"fee":208442,"totalOutput":211590532,"tokens":[]},{"hash":"2f9f3bf3f81e1567d528818791facdc520d7f4f6480948ef19d0c4609ef47b08","blockNo":8264034,"blockHash":"f234e58d806842b7438c53faf52c503b3239f1a3d90cebf8917404279692e2db","epochNo":387,"epochSlotNo":212035,"slot":82032835,"time":"2023/01/13 08:38:46","addressesInput":["addr1zxgx3far7qygq0k6epa0zcvcvrevmn0ypsnfsue94nsn3tvpw288a4x0xf8pxgcntelxmyclq83s0ykeehchz2wtspks905plm","addr1qx0t9hdsc4x4qv3uuxvjmr7xxuerzlek79g7ygh53k405gvrl32rm46ah3fdqrndvj30al3dwlxgwhzkracsqc7xr3lqdszc06"],"addressesOutput":["addr1qx0t9hdsc4x4qv3uuxvjmr7xxuerzlek79g7ygh53k405gvrl32rm46ah3fdqrndvj30al3dwlxgwhzkracsqc7xr3lqdszc06","addr1qx0t9hdsc4x4qv3uuxvjmr7xxuerzlek79g7ygh53k405gvrl32rm46ah3fdqrndvj30al3dwlxgwhzkracsqc7xr3lqdszc06"],"fee":265846,"totalOutput":132634314,"tokens":[]},{"hash":"8e0945552e4f3d1c64e3de700e681696e5e70c50f5ec369ebe5fba1f0f538360","blockNo":8264034,"blockHash":"f234e58d806842b7438c53faf52c503b3239f1a3d90cebf8917404279692e2db","epochNo":387,"epochSlotNo":212035,"slot":82032835,"time":"2023/01/13 08:38:46","addressesInput":["addr1qyzntp7xry8733rw64j2hz7k8w8mhc4rtctnp6ypkxke7fw0jxa66vsa2849qsmqjhlgr44ctq2cglf4w5fxrp7lhl9s7a2ckw","addr1wxj88juwkzmpcqacd9hua2cur2yl50kgx3tjs588c2470qc2ftfae","addr1wxj88juwkzmpcqacd9hua2cur2yl50kgx3tjs588c2470qc2ftfae","addr1w80ptp0qgmcklhmeweesqgeurtlma8fsxsr9dt8au30fzss0czhl9","addr1qyzntp7xry8733rw64j2hz7k8w8mhc4rtctnp6ypkxke7fw0jxa66vsa2849qsmqjhlgr44ctq2cglf4w5fxrp7lhl9s7a2ckw"],"addressesOutput":["addr1w80ptp0qgmcklhmeweesqgeurtlma8fsxsr9dt8au30fzss0czhl9","addr1qyzntp7xry8733rw64j2hz7k8w8mhc4rtctnp6ypkxke7fw0jxa66vsa2849qsmqjhlgr44ctq2cglf4w5fxrp7lhl9s7a2ckw","addr1wxj88juwkzmpcqacd9hua2cur2yl50kgx3tjs588c2470qc2ftfae","addr1wxj88juwkzmpcqacd9hua2cur2yl50kgx3tjs588c2470qc2ftfae","addr1qyzntp7xry8733rw64j2hz7k8w8mhc4rtctnp6ypkxke7fw0jxa66vsa2849qsmqjhlgr44ctq2cglf4w5fxrp7lhl9s7a2ckw"],"fee":1020750,"totalOutput":14111803306,"tokens":[]},{"hash":"4feb6a59b2901efd09bacf23cde79979fe88893b61a44974517f2804f37bab54","blockNo":8264033,"blockHash":"2ff0f23cfa785af8130497337fcb4ec004c77d10f05dcc4b1badc43b2e762860","epochNo":387,"epochSlotNo":212018,"slot":82032818,"time":"2023/01/13 08:38:29","addressesInput":["addr1qyydvfyplkuqwgtn0lf5zhsegz8fw4rpgwdfu0gj33muevsfwkrty2x392hf3ahk6xnnvwjwvg4tx522hgj74zp52rqsl67apk","addr1qy9n78kcdfrmnxly3cwjkez8vq0f20p9u0fv7xq5780pytgfwkrty2x392hf3ahk6xnnvwjwvg4tx522hgj74zp52rqsqvrqst"],"addressesOutput":["addr1q96q6la78cjdlz3gskzxtem703fpxnftvh3dmdqhxtems7xkxc42hne7g2leg7h0glrw9s6km2xqc0rkg3lgfflskqcq6aedsl","addr1qy9n78kcdfrmnxly3cwjkez8vq0f20p9u0fv7xq5780pytgfwkrty2x392hf3ahk6xnnvwjwvg4tx522hgj74zp52rqsqvrqst"],"fee":178657,"totalOutput":8142101,"tokens":[]},{"hash":"44042e3cb65bc64ba1f6067fb12fbe1a52069c3a46afa8dbafd3fb6de22b405e","blockNo":8264033,"blockHash":"2ff0f23cfa785af8130497337fcb4ec004c77d10f05dcc4b1badc43b2e762860","epochNo":387,"epochSlotNo":212018,"slot":82032818,"time":"2023/01/13 08:38:29","addressesInput":["addr1q8h7q053uyqax2txkj3gd74jxlsur8wsg5v0pu0qd5jjfeaf4w89v720k4jw4mwj6ds04dgf9kfqa9lrfqe4255vwsfs3r00fw"],"addressesOutput":["addr1qxwayhq4qtdcunjgrcny47zfmc6g6lh9n4uq97at77kev8ar5y8s36uw8lrwejrtvtqw8xga8l43wccxu69z5uk3wf3s9yqwvx","addr1q9nvrqgxc0hv64t8zndtlce725zls76ss8menvxq9ey45z9f4w89v720k4jw4mwj6ds04dgf9kfqa9lrfqe4255vwsfsk8tr8f"],"fee":363105,"totalOutput":24358665,"tokens":[]},{"hash":"25592109b0f238482c8cf2fcfcbf6c0a60ea5fa2283a3dbac21fd32fe5f958d4","blockNo":8264033,"blockHash":"2ff0f23cfa785af8130497337fcb4ec004c77d10f05dcc4b1badc43b2e762860","epochNo":387,"epochSlotNo":212018,"slot":82032818,"time":"2023/01/13 08:38:29","addressesInput":["addr1qy2y5c5uhkayuusc5gfk7y2sx976quu3hd3j70vpu9wancu5dpgwrrrqm5n5extlldyvjge4q4m8yuey4chut7d0jccq64ssen"],"addressesOutput":["addr1qxajc2hrt9h9t3xdrkpjjkj2543g5l04pdux6sf092x9ceu5dpgwrrrqm5n5extlldyvjge4q4m8yuey4chut7d0jccq0yujn6"],"fee":173157,"totalOutput":469623022,"tokens":[]},{"hash":"7e24bf8d4a51bf563ae6ea3317c67f73d6d22d0fdf6af8cf17ff416902f4e1ab","blockNo":8264033,"blockHash":"2ff0f23cfa785af8130497337fcb4ec004c77d10f05dcc4b1badc43b2e762860","epochNo":387,"epochSlotNo":212018,"slot":82032818,"time":"2023/01/13 08:38:29","addressesInput":["addr1qyt7y5yhe7wnl7jpxm9m9nvn4xt6f627dgdqz3kqcuq8h30egnnx4wdecyeg3qd7akqsr2jnrw5pgrync6yellyjswwsdp5w6l","addr1q8n459ut350736ls7ruhx3mhwvd6lu5qc2esh89v7lygf50egnnx4wdecyeg3qd7akqsr2jnrw5pgrync6yellyjswwsag3sm8","addr1qyn9k8mkhq6m387gx6p0lnq3dkdxtamap6cux2k7sg5qenlegnnx4wdecyeg3qd7akqsr2jnrw5pgrync6yellyjswwsqjn693","addr1q8e0tda786v9ksyr2yy7hlta5wl05q0lq3f5ud08sd06n68egnnx4wdecyeg3qd7akqsr2jnrw5pgrync6yellyjswwssuchvx","addr1q8rmd423dmjypp9vlntmw0wletyt8cpqa6va2pny6jletzhegnnx4wdecyeg3qd7akqsr2jnrw5pgrync6yellyjswwsv7l56n","addr1qxrwasujfydsx5qaf9ly6hs9s5fkrhc4skhk0s07ucfdu20egnnx4wdecyeg3qd7akqsr2jnrw5pgrync6yellyjswws5v5a9d","addr1qyej43g56ztr7fe5lmsqwlqkwefsnmpnwtgc0g469u5lg4hegnnx4wdecyeg3qd7akqsr2jnrw5pgrync6yellyjswwsy50zs5","addr1qxqr47z06zx847ltmrr5xsplf34u7ysrzxuxuqdqamw0y40egnnx4wdecyeg3qd7akqsr2jnrw5pgrync6yellyjswwsjcn6pl","addr1qywzfqnufalshf4ccvl4vjx688na5q20y3stdjkqzleluc0egnnx4wdecyeg3qd7akqsr2jnrw5pgrync6yellyjswwsnfcn47","addr1qx5gz0ldurr5xzksndkm05xtsvw2n7kug0k2dr6ydra7ffhegnnx4wdecyeg3qd7akqsr2jnrw5pgrync6yellyjswwsu5mxf3"],"addressesOutput":["addr1wxn9efv2f6w82hagxqtn62ju4m293tqvw0uhmdl64ch8uwc0h43gt","addr1qyej43g56ztr7fe5lmsqwlqkwefsnmpnwtgc0g469u5lg4hegnnx4wdecyeg3qd7akqsr2jnrw5pgrync6yellyjswwsy50zs5","addr1qyaf3u52zs425veasdsnm6fv5jhsp0gh4qclwg92trjee40egnnx4wdecyeg3qd7akqsr2jnrw5pgrync6yellyjswwsfn4ep7"],"fee":320381,"totalOutput":2171049156,"tokens":[]},{"hash":"344d0c5b6a94f7bcad4f2d79be4461cde1650b14eb85cc5a8a97b157fee0a674","blockNo":8264033,"blockHash":"2ff0f23cfa785af8130497337fcb4ec004c77d10f05dcc4b1badc43b2e762860","epochNo":387,"epochSlotNo":212018,"slot":82032818,"time":"2023/01/13 08:38:29","addressesInput":["addr1q9cxc75tcy93a4mq2u9ndn32g7lemj3kzdjpj7znzf32pp0w76c6ph3284z9qpjm2edurfh6tkhkl65hjq04vnkm9zuqfaaqzs"],"addressesOutput":["addr1q87k9zrel8zsqpqhue55u7356gch8a4wp7xfpg5et2nn3q72h8y4gwedd2z2nx6544nalel0zd0g0kel44c96xy3vxvqwq22c9","addr1qxxraurv6j6q8syxea3qgzshk7z4xrcjjlnutn03f8gd6g8w76c6ph3284z9qpjm2edurfh6tkhkl65hjq04vnkm9zuqyvpyjf"],"fee":168317,"totalOutput":70275152,"tokens":[]},{"hash":"8dc2d70805784eca35252aad177c28b362a6279a436a8b73471a59617767d4d1","blockNo":8264033,"blockHash":"2ff0f23cfa785af8130497337fcb4ec004c77d10f05dcc4b1badc43b2e762860","epochNo":387,"epochSlotNo":212018,"slot":82032818,"time":"2023/01/13 08:38:29","addressesInput":["addr1qy85d84u0ky88rqdex3sxv7gu2hgglcy4w9vfp363799g0w79x367cgaxcafzkfrp40m5fwq5968srhtphzkw5aw6rlq3cm87c"],"addressesOutput":["addr1qy33rhd3j6z9jz2ly4yhjw0hmj896cqjd30ht8sj0zy43e756kjgggstxt556890xuat3mxvw47f4un6vxweqyg8wv3qrs0kqn"],"fee":172937,"totalOutput":1271506,"tokens":[]},{"hash":"2bd8237d0b9ed6aed51034d8077ce2c7d554d8d54d49e86f8deec5168d85f18e","blockNo":8264033,"blockHash":"2ff0f23cfa785af8130497337fcb4ec004c77d10f05dcc4b1badc43b2e762860","epochNo":387,"epochSlotNo":212018,"slot":82032818,"time":"2023/01/13 08:38:29","addressesInput":["addr1qyd0dezaxuk7jfe76yvx0mhj59t78xufsfy8rnqlv7nalar366xu6hhwwvv4nhwgfkjc2m2cxcayxhaj0n2l79de56qsyvh96y","addr1qxn9cufdez9zedv4v0f49gtyvlupvkq8crntnhnuyup2ah358ruj0rmwqptuxd2uv3750m8hnvcy2uqqsx4c72za20js52afs2","addr1qyd0dezaxuk7jfe76yvx0mhj59t78xufsfy8rnqlv7nalar366xu6hhwwvv4nhwgfkjc2m2cxcayxhaj0n2l79de56qsyvh96y"],"addressesOutput":["addr1qyd0dezaxuk7jfe76yvx0mhj59t78xufsfy8rnqlv7nalar366xu6hhwwvv4nhwgfkjc2m2cxcayxhaj0n2l79de56qsyvh96y","addr1qxn9cufdez9zedv4v0f49gtyvlupvkq8crntnhnuyup2ah358ruj0rmwqptuxd2uv3750m8hnvcy2uqqsx4c72za20js52afs2","addr1qxn9cufdez9zedv4v0f49gtyvlupvkq8crntnhnuyup2ah358ruj0rmwqptuxd2uv3750m8hnvcy2uqqsx4c72za20js52afs2","addr1qyd0dezaxuk7jfe76yvx0mhj59t78xufsfy8rnqlv7nalar366xu6hhwwvv4nhwgfkjc2m2cxcayxhaj0n2l79de56qsyvh96y"],"fee":185477,"totalOutput":19285773,"tokens":[]}],"totalItems":58888734,"totalPages":2944437,"currentPage":0}