{"data":[{"blockNo":8068874,"slotNo":78027101,"epochNo":378,"epochSlotNo":94301,"hash":"3ad371829256187fd98862d23d7938bed841347dbdfe16175fc99d9041db7443","time":"2022/11/27 23:56:32","txCount":12,"totalFees":5183436,"totalOutput":64220199007,"slotLeader":"40ff71258d2c73da9e2a5ee3abb9be256e745e7f74c31eb8d4be5299"},{"blockNo":8068873,"slotNo":78027085,"epochNo":378,"epochSlotNo":94285,"hash":"d9a5deb9a6ac54ff0cd8323b9f5ecea6667124712f7edcd57d652602a8953f46","time":"2022/11/27 23:56:16","txCount":2,"totalFees":941554,"totalOutput":4761322010,"slotLeader":"34eb602eb435e3c6a4feb6d766a44735ca09e963f82098973c85951e"},{"blockNo":8068872,"slotNo":78027083,"epochNo":378,"epochSlotNo":94283,"hash":"276b442569aed706acf564167b7beaff065e6ebf46b6b147d70969d48f931d64","time":"2022/11/27 23:56:14","txCount":3,"totalFees":572843,"totalOutput":11608277802,"slotLeader":"2bf5a031b46b34c07937a769ff6f82b6a78a25c71022eaaf1f20eec9"},{"blockNo":8068871,"slotNo":78027080,"epochNo":378,"epochSlotNo":94280,"hash":"83cdedd0c0c155006e8fbbf2b677b0b274b7008f527a304aa36f59163ecab7ac","time":"2022/11/27 23:56:11","txCount":29,"totalFees":6745844,"totalOutput":377555051612,"slotLeader":"fc7c663438fd4b61c5d0c064128467a550fd4e721fe6d5f237f5b416"},{"blockNo":8068870,"slotNo":78027029,"epochNo":378,"epochSlotNo":94229,"hash":"376e0f87d9ebafc5ffe9ff0e43ea4c1d00dac28abba2e337eb071994d9c27092","time":"2022/11/27 23:55:20","txCount":2,"totalFees":865778,"totalOutput":10498889031,"slotLeader":"b49a54a4bca1160af57d6314d4c1110b0c071db47eaaa08b619c4fa1"},{"blockNo":8068869,"slotNo":78027025,"epochNo":378,"epochSlotNo":94225,"hash":"c8b23db230e197c9a62c0b1a3be30225d2a24e265e5fff694a750046cbcee7ff","time":"2022/11/27 23:55:16","txCount":48,"totalFees":13083321,"totalOutput":1743605899864,"slotLeader":"662796197f741c9b9f0d9830530d01300ee5c63f549784ff2ac81c17"},{"blockNo":8068868,"slotNo":78026946,"epochNo":378,"epochSlotNo":94146,"hash":"931692f4148cb6b4a3ae06fe2f20d5d2cd7930284fa2726db200da443faecf54","time":"2022/11/27 23:53:57","txCount":3,"totalFees":1001731,"totalOutput":236898206,"slotLeader":"f018942907ac50ed7f831f14755ad93698188492d09d229655e6ade1"},{"blockNo":8068867,"slotNo":78026943,"epochNo":378,"epochSlotNo":94143,"hash":"6ec878a71efea39d6f0aee93738124cebd1b0847c6203e72f2f665fdd838980a","time":"2022/11/27 23:53:54","txCount":24,"totalFees":7771835,"totalOutput":117227026478,"slotLeader":"09612bc8cf646ded39886839e962d050fb53b81fbe3487eed973554b"},{"blockNo":8068866,"slotNo":78026902,"epochNo":378,"epochSlotNo":94102,"hash":"b3b756f7c86e8527f3b24b04f6ad68648ee2d4eed50762a03885ae19ad831415","time":"2022/11/27 23:53:13","txCount":47,"totalFees":11941827,"totalOutput":342994093683,"slotLeader":"09d372205e474b745eeedd87aa86295cfdef9b85991ad640101756bc"},{"blockNo":8068865,"slotNo":78026820,"epochNo":378,"epochSlotNo":94020,"hash":"b632879e01af3d208a3a9d906106f359a6232fb84d821f20e042283744fedce7","time":"2022/11/27 23:51:51","txCount":5,"totalFees":2610034,"totalOutput":18957570852222,"slotLeader":"72de14d78a359617a7dd0b33c5554ed4edbafd768ece87c4bf672ee0"},{"blockNo":8068864,"slotNo":78026814,"epochNo":378,"epochSlotNo":94014,"hash":"7249f51ff51d42ac4abc707a99d2edc3b8f1b558028f255129a200cf114fbc57","time":"2022/11/27 23:51:45","txCount":1,"totalFees":359585,"totalOutput":63312375,"slotLeader":"92bda83eb105d569b23cb6fa1d407dd42de0d2d7e6562718b7ac5c02"},{"blockNo":8068863,"slotNo":78026811,"epochNo":378,"epochSlotNo":94011,"hash":"6b48b741359ab7018e6fd32619c4e4011aaae1055861db94276911d2d12cff69","time":"2022/11/27 23:51:42","txCount":1,"totalFees":297574,"totalOutput":8040526,"slotLeader":"beb5390bc047831874ad69f615a6f023ea121865c75ec389d6c0a392"},{"blockNo":8068862,"slotNo":78026808,"epochNo":378,"epochSlotNo":94008,"hash":"31992b428adb98ce24ac96357b67e5203466632a69880514f9d27362b6342fb1","time":"2022/11/27 23:51:39","txCount":12,"totalFees":2716727,"totalOutput":251036966061,"slotLeader":"9ca4378a7ee308d910efd7a611a1df2181314c25723ff4cfa855664c"},{"blockNo":8068861,"slotNo":78026787,"epochNo":378,"epochSlotNo":93987,"hash":"fe740a3aabb33a0a801ebe91f1a3b6e975c00705fabb615fa3d4cad20073deda","time":"2022/11/27 23:51:18","txCount":8,"totalFees":2130645,"totalOutput":6926196910,"slotLeader":"0840d05089b5bff1e24fe57c1ed905cd6fda68e1147a5b5863d39562"},{"blockNo":8068860,"slotNo":78026782,"epochNo":378,"epochSlotNo":93982,"hash":"ac8ca7f2effaef1092b23dc00a606f56427abe7c0e744a5ec2172adab9280981","time":"2022/11/27 23:51:13","txCount":4,"totalFees":1171871,"totalOutput":4779799627,"slotLeader":"643472a2db02c7f92f787355a2be6206d44201517594211a887b1e88"},{"blockNo":8068859,"slotNo":78026776,"epochNo":378,"epochSlotNo":93976,"hash":"a628f183068cac44d0d2204f28915fdcd0cae3d3acd47a7c211ba60b70917629","time":"2022/11/27 23:51:07","txCount":28,"totalFees":7835102,"totalOutput":17683030227923,"slotLeader":"5f7ad5f7869dc00ffa143a44bfee70321fa3bf6de895420c95502bba"},{"blockNo":8068858,"slotNo":78026737,"epochNo":378,"epochSlotNo":93937,"hash":"c277d4a1507afac77c329eb7d3c42ba93f0826ace1b2e8490955074cdf29d2c0","time":"2022/11/27 23:50:28","txCount":10,"totalFees":3741113,"totalOutput":48708837468,"slotLeader":"80cb48c2953a78d25f69dbcea305fbcce0c520c25d401cd75a259cf1"},{"blockNo":8068857,"slotNo":78026720,"epochNo":378,"epochSlotNo":93920,"hash":"afc83e61e143f414942058f0b1bb7b0820ee9e4746d8d7076cc18d3d2b31a43f","time":"2022/11/27 23:50:11","txCount":13,"totalFees":4886129,"totalOutput":17961291347519,"slotLeader":"fc2d8488ef021561a83af7b56f973b94cfcfd8100433ee6fd0b0aa45"},{"blockNo":8068856,"slotNo":78026694,"epochNo":378,"epochSlotNo":93894,"hash":"4f560687314b7ad3c680e7f44d4a396dc50c3fb9b466ddb7a93a0bd58494d3bb","time":"2022/11/27 23:49:45","txCount":6,"totalFees":2122872,"totalOutput":34434466187,"slotLeader":"d5b90a198d2411b5c82fbdfee5f94b86de49a8589bfa7720b9de358f"},{"blockNo":8068855,"slotNo":78026687,"epochNo":378,"epochSlotNo":93887,"hash":"c50503711886d19594dad124d349e169a7f78dc9d28f1d417a160937e6ede3d1","time":"2022/11/27 23:49:38","txCount":4,"totalFees":1002454,"totalOutput":5325474858,"slotLeader":"e985b5698de1386439e62b5b7ab2cc9f814b91b4a1fef5970f38694d"}],"totalItems":8069050,"totalPages":403453,"currentPage":0}