{"data":[{"blockNo":8229996,"slotNo":81331124,"epochNo":385,"epochSlotNo":374324,"hash":"a48a7a6245e481a30602c7adb801385d6c80fa77b3d3c961f79df35029483ad5","time":"2023/01/05 05:43:35","txCount":1,"totalFees":817877,"totalOutput":1516016834,"slotLeader":"43bf2e2c7601bd6dfb38564fc2c48f5b1a773fdb4095dee412f52e50"},{"blockNo":8229995,"slotNo":81331123,"epochNo":385,"epochSlotNo":374323,"hash":"fa49537634078a65e4c48a2af4f115da0b379ec3e9a0d7ed63329d102b2093dc","time":"2023/01/05 05:43:34","txCount":5,"totalFees":1100946,"totalOutput":436495191916,"slotLeader":"fb4b7b76ea6d857f442cb9569d186f328fc846bb83222c3150ec3346"},{"blockNo":8229994,"slotNo":81331105,"epochNo":385,"epochSlotNo":374305,"hash":"121d862813818c701da26959a3fcb560b0eb99657c473516f67a08866c4d5859","time":"2023/01/05 05:43:16","txCount":20,"totalFees":5911583,"totalOutput":67009888907,"slotLeader":"8c289ee3b1b591a95c18ffce66957d1f07115afdf939c2a9b441fc22"},{"blockNo":8229993,"slotNo":81331077,"epochNo":385,"epochSlotNo":374277,"hash":"111e3328fab2f7ddb2a2419998a131dac46affcac7fb896083232a1427046e0a","time":"2023/01/05 05:42:48","txCount":13,"totalFees":5517298,"totalOutput":12217555809,"slotLeader":"6ec2284f8e312b5b122d85b97db828ff364d49e3c51c449bfc8889bf"},{"blockNo":8229992,"slotNo":81331050,"epochNo":385,"epochSlotNo":374250,"hash":"d4657b17704b6213460af70f78992b99e685287599c496652bb51960fe5d89a0","time":"2023/01/05 05:42:21","txCount":1,"totalFees":286305,"totalOutput":6160912606,"slotLeader":"c83beb18d532234c72a304ab935982be670c22e771b227a3febc3a82"},{"blockNo":8229991,"slotNo":81331048,"epochNo":385,"epochSlotNo":374248,"hash":"70122b2bb156e89411063e28c465639de596c10a9c4ab8751cac73beaad3e6db","time":"2023/01/05 05:42:19","txCount":3,"totalFees":1175050,"totalOutput":9816578281,"slotLeader":"d5b90a198d2411b5c82fbdfee5f94b86de49a8589bfa7720b9de358f"},{"blockNo":8229990,"slotNo":81331044,"epochNo":385,"epochSlotNo":374244,"hash":"a3803e4d7ce134a0b19aae9601bf42303908d95f865ee2c1d3b3993cb31fd03b","time":"2023/01/05 05:42:15","txCount":2,"totalFees":360746,"totalOutput":243111500,"slotLeader":"c34a7f59c556633dc88ec25c9743c5ebca3705e179a54db5638941cb"},{"blockNo":8229989,"slotNo":81331036,"epochNo":385,"epochSlotNo":374236,"hash":"be3962ddbe4616c51e0b09a797207c7a6e44da780f2e66d4e865a29824aac78b","time":"2023/01/05 05:42:07","txCount":0,"totalFees":0,"totalOutput":0,"slotLeader":"7d45120fc9e82f8b69d886057d80630b721e8f033cb8e3f26621d7bd"},{"blockNo":8229988,"slotNo":81331035,"epochNo":385,"epochSlotNo":374235,"hash":"08ac176bcaca8812d19c4ce318bd25dc9eb7a5159a214f72c18b778ea1df1da8","time":"2023/01/05 05:42:06","txCount":15,"totalFees":4979824,"totalOutput":196332485589,"slotLeader":"5f7ad5f7869dc00ffa143a44bfee70321fa3bf6de895420c95502bba"},{"blockNo":8229987,"slotNo":81331008,"epochNo":385,"epochSlotNo":374208,"hash":"362a812d880b3696369d63df50f75c44f865f2007acb8a5b30cfdd2178e003c8","time":"2023/01/05 05:41:39","txCount":14,"totalFees":6766795,"totalOutput":127062377350,"slotLeader":"463e481957f266d93e4decbfb73003380ab17223e0e569f71c7a525a"},{"blockNo":8229986,"slotNo":81330980,"epochNo":385,"epochSlotNo":374180,"hash":"53ee4cd53c05c2ed5e48285a53e0cd500993bec127fa4ee7fe1fba9a99c760f9","time":"2023/01/05 05:41:11","txCount":9,"totalFees":2898147,"totalOutput":115464481384,"slotLeader":"bd87416177933138a533c62b205a98598c91da3ebfb8d6826c336b8e"},{"blockNo":8229985,"slotNo":81330971,"epochNo":385,"epochSlotNo":374171,"hash":"04b78a448ff11cb01cbcfd7d4c74dcd6d4f3c753ff5403c0895b0d0d2be1f82c","time":"2023/01/05 05:41:02","txCount":2,"totalFees":420498,"totalOutput":39584268691,"slotLeader":"1c908c07101f9c99aea3febc41f556d50e4060a4d5e2215ba0a18a3f"},{"blockNo":8229984,"slotNo":81330963,"epochNo":385,"epochSlotNo":374163,"hash":"5783532e296fe5f8bc424c45a03d2a55dd2882ba0cc014b8589911fd98e9a70a","time":"2023/01/05 05:40:54","txCount":5,"totalFees":1561301,"totalOutput":1630326102,"slotLeader":"d4a3b639d0f0b050cbfc25dad467af58355f31edbc4959db1cc59051"},{"blockNo":8229983,"slotNo":81330955,"epochNo":385,"epochSlotNo":374155,"hash":"9500772ae8599384dec24e4e1d791a41d4c18e95e072246f6f3688b62a4082a5","time":"2023/01/05 05:40:46","txCount":28,"totalFees":9089300,"totalOutput":361708190346,"slotLeader":"675304517e38e66880714b3c4816f47866c302edafceb96945fd056f"},{"blockNo":8229982,"slotNo":81330913,"epochNo":385,"epochSlotNo":374113,"hash":"d6f4b1110bfe9bb0661df450099c1fc8005be422ce7b4cf7a2449788ffc48a51","time":"2023/01/05 05:40:04","txCount":2,"totalFees":984368,"totalOutput":245110170,"slotLeader":"e594951faeec31cb8efc70c3e36887f18f8bc62c718f25ec64807dfa"},{"blockNo":8229981,"slotNo":81330910,"epochNo":385,"epochSlotNo":374110,"hash":"ec9310d5d73baa246359b37540b8a72cd3007ab3336100fa5213a7d6bdef3b7e","time":"2023/01/05 05:40:01","txCount":11,"totalFees":3470254,"totalOutput":949510099280,"slotLeader":"00beef8710427e328a29555283c74b202b40bec9a62630a9f03b1e18"},{"blockNo":8229980,"slotNo":81330896,"epochNo":385,"epochSlotNo":374096,"hash":"8ae4c71a8be87fbf05cd134c385bef74449840f18de6adaf9d698ff03e3ff37e","time":"2023/01/05 05:39:47","txCount":7,"totalFees":3746483,"totalOutput":8055474411,"slotLeader":"aef742cd720083790f58b8dced44b868e2496335061c2c5256b44e45"},{"blockNo":8229979,"slotNo":81330881,"epochNo":385,"epochSlotNo":374081,"hash":"307c3308cb42ca91deb2399e9ccf8847fb8a554ac4d8bd993ca7edab47a17213","time":"2023/01/05 05:39:32","txCount":6,"totalFees":1369162,"totalOutput":1518589023,"slotLeader":"a0fc643d831b144e1dd289f5acf4274aedc331b6a0e4257ef5376520"},{"blockNo":8229978,"slotNo":81330872,"epochNo":385,"epochSlotNo":374072,"hash":"25a7ff22c68e125cc9d39b3b459a02628decf02a3ba169d63b1b0edff7b69545","time":"2023/01/05 05:39:23","txCount":6,"totalFees":1997892,"totalOutput":53871899541,"slotLeader":"eb7d911eb4c0ca066badadab42d80d5b59a5ce996389523a26edb64a"},{"blockNo":8229977,"slotNo":81330862,"epochNo":385,"epochSlotNo":374062,"hash":"723361b0328bc621ad2bb252940c07d60e620af4efa175780f3a50bf897b64c0","time":"2023/01/05 05:39:13","txCount":1,"totalFees":333849,"totalOutput":257616911,"slotLeader":"a7784228ea544bc94455e76f527aaee53266929f0bb2896893a0444f"}],"totalItems":8230172,"totalPages":411509,"currentPage":0}