{"data":[{"hash":"d753323c3883a87478ef2fbb1e13e0f872bffa27fd0d26d161c574318ad174ce","blockNo":8413733,"blockHash":"9ed5bcc400ab2c068cd07339737eea21129c4548b18952cf73d2a4431477f7ed","epochNo":394,"epochSlotNo":287365,"slot":85132165,"time":"2023/02/18 05:34:16","addressesInput":["addr1qyht4ja0zcn45qvyx477qlyp6j5ftu5ng0prt9608dxp6l2j2c79gy9l76sdg0xwhd7r0c0kna0tycz4y5s6mlenh8pq4jxtdy","addr1wxn9efv2f6w82hagxqtn62ju4m293tqvw0uhmdl64ch8uwc0h43gt","addr1qyht4ja0zcn45qvyx477qlyp6j5ftu5ng0prt9608dxp6l2j2c79gy9l76sdg0xwhd7r0c0kna0tycz4y5s6mlenh8pq4jxtdy","addr1z8snz7c4974vzdpxu65ruphl3zjdvtxw8strf2c2tmqnxz2j2c79gy9l76sdg0xwhd7r0c0kna0tycz4y5s6mlenh8pq0xmsha"],"addressesOutput":["addr1qyht4ja0zcn45qvyx477qlyp6j5ftu5ng0prt9608dxp6l2j2c79gy9l76sdg0xwhd7r0c0kna0tycz4y5s6mlenh8pq4jxtdy","addr1qyht4ja0zcn45qvyx477qlyp6j5ftu5ng0prt9608dxp6l2j2c79gy9l76sdg0xwhd7r0c0kna0tycz4y5s6mlenh8pq4jxtdy","addr1qxpj3ykg0c97zvrn7m7q08y9yjaldmf3emk33sp004wfqlp87f24qea26phvvgm7s0u04vjm0u72rqqw00c728lv5hyqn6ku6d","addr1z8snz7c4974vzdpxu65ruphl3zjdvtxw8strf2c2tmqnxz2j2c79gy9l76sdg0xwhd7r0c0kna0tycz4y5s6mlenh8pq0xmsha"],"fee":943457,"totalOutput":3471576748368,"tokens":[]},{"hash":"680ce84330de85d244e689713efaadb02486f6d3f56496a2e21c7c41b85c84cc","blockNo":8413733,"blockHash":"9ed5bcc400ab2c068cd07339737eea21129c4548b18952cf73d2a4431477f7ed","epochNo":394,"epochSlotNo":287365,"slot":85132165,"time":"2023/02/18 05:34:16","addressesInput":["addr1qyht4ja0zcn45qvyx477qlyp6j5ftu5ng0prt9608dxp6l2j2c79gy9l76sdg0xwhd7r0c0kna0tycz4y5s6mlenh8pq4jxtdy","addr1z8snz7c4974vzdpxu65ruphl3zjdvtxw8strf2c2tmqnxz2j2c79gy9l76sdg0xwhd7r0c0kna0tycz4y5s6mlenh8pq0xmsha","addr1qyht4ja0zcn45qvyx477qlyp6j5ftu5ng0prt9608dxp6l2j2c79gy9l76sdg0xwhd7r0c0kna0tycz4y5s6mlenh8pq4jxtdy","addr1wxn9efv2f6w82hagxqtn62ju4m293tqvw0uhmdl64ch8uwc0h43gt"],"addressesOutput":["addr1qyht4ja0zcn45qvyx477qlyp6j5ftu5ng0prt9608dxp6l2j2c79gy9l76sdg0xwhd7r0c0kna0tycz4y5s6mlenh8pq4jxtdy","addr1qyht4ja0zcn45qvyx477qlyp6j5ftu5ng0prt9608dxp6l2j2c79gy9l76sdg0xwhd7r0c0kna0tycz4y5s6mlenh8pq4jxtdy","addr1q8ed2zah0g8claf2rafve0e0khrzw05ejtwag6w5n3ypes0a6u7wgujrr75zr44l90wztvh32fn7zndq7064k3keg98sj20fkq","addr1z8snz7c4974vzdpxu65ruphl3zjdvtxw8strf2c2tmqnxz2j2c79gy9l76sdg0xwhd7r0c0kna0tycz4y5s6mlenh8pq0xmsha"],"fee":824999,"totalOutput":22539573386089,"tokens":[]},{"hash":"8dd774051a0f9aa84c1dfcba7104f66df22109d00b74e24213a3aa9d7e7c38a8","blockNo":8413733,"blockHash":"9ed5bcc400ab2c068cd07339737eea21129c4548b18952cf73d2a4431477f7ed","epochNo":394,"epochSlotNo":287365,"slot":85132165,"time":"2023/02/18 05:34:16","addressesInput":["addr1qyd5md7a67ls0ngwqaapusfdsks7v58rh8z2drz67qv4wspe3s3agv0cpx5enum4hmqewaaz67a0m9pdqzthhpch752smepv0l"],"addressesOutput":["addr1qxnjaxfsx36sx9gglype36cm6gz6qn3z4najjyu9ww8e6lee3s3agv0cpx5enum4hmqewaaz67a0m9pdqzthhpch752sgq5ktu"],"fee":172805,"totalOutput":99827195,"tokens":[]},{"hash":"4fb684a24d5ac5ea006ba2aedf08b509ba5d95abd08f0a3059fe62df94769fd3","blockNo":8413733,"blockHash":"9ed5bcc400ab2c068cd07339737eea21129c4548b18952cf73d2a4431477f7ed","epochNo":394,"epochSlotNo":287365,"slot":85132165,"time":"2023/02/18 05:34:16","addressesInput":["addr1zxgx3far7qygq0k6epa0zcvcvrevmn0ypsnfsue94nsn3tvpw288a4x0xf8pxgcntelxmyclq83s0ykeehchz2wtspks905plm","addr1q9dk726a54axux0744xcev3wekf56lw0zjdupvnceghvn62u38g7zrj83g9245rmj7x27v5e789dn0nrt60pmyvhj4us8z36wg"],"addressesOutput":["addr1zxgx3far7qygq0k6epa0zcvcvrevmn0ypsnfsue94nsn3tvpw288a4x0xf8pxgcntelxmyclq83s0ykeehchz2wtspks905plm","addr1q9dk726a54axux0744xcev3wekf56lw0zjdupvnceghvn62u38g7zrj83g9245rmj7x27v5e789dn0nrt60pmyvhj4us8z36wg"],"fee":301592,"totalOutput":11360481,"tokens":[]},{"hash":"1db7674fb128bee5d4c3018b00441ee4e640d54193439611dacb46f63fb85140","blockNo":8413733,"blockHash":"9ed5bcc400ab2c068cd07339737eea21129c4548b18952cf73d2a4431477f7ed","epochNo":394,"epochSlotNo":287365,"slot":85132165,"time":"2023/02/18 05:34:16","addressesInput":["addr1zxgx3far7qygq0k6epa0zcvcvrevmn0ypsnfsue94nsn3tvpw288a4x0xf8pxgcntelxmyclq83s0ykeehchz2wtspks905plm","addr1qxqs0q4quyax4cu0tw9a6tnkxx98xfq3hsx34m0mhjhza4h95xu4j056fm8e3y20syadvy2lf57m4xy8s0qasn0twwxs0s2ga7"],"addressesOutput":["addr1qxx3cexlje3rjxrkugknxepwltsyurcrzsz7wwqyhh0yfup44q0wj0sgcwzyu0ycevnauarwsg2qywrhevf5gpea8pfs489p4j","addr1q9cwvremt6n320s2e3agq0jyq82yhrk3htsu0w426xnz5us70z4w0jgvcdkkynmm8wmds66jd9kusnjfpu6raw5fqp0sr07p5w","addr1q9mnqeuzpvu5x9sw0gf9ckvspngjgcd5vh35dglkxewwvkupa0330vdl0px0sxkuupekdryk28lqhdqej3zhzghknyeqf90vuu","addr1qxqs0q4quyax4cu0tw9a6tnkxx98xfq3hsx34m0mhjhza4h95xu4j056fm8e3y20syadvy2lf57m4xy8s0qasn0twwxs0s2ga7","addr1qxqs0q4quyax4cu0tw9a6tnkxx98xfq3hsx34m0mhjhza4h95xu4j056fm8e3y20syadvy2lf57m4xy8s0qasn0twwxs0s2ga7","addr1qxqs0q4quyax4cu0tw9a6tnkxx98xfq3hsx34m0mhjhza4h95xu4j056fm8e3y20syadvy2lf57m4xy8s0qasn0twwxs0s2ga7"],"fee":410424,"totalOutput":328708760,"tokens":[]},{"hash":"583bb6d54b1f516554201ccfa93bb3638823d3d57aaadc52c6709aeae1b6b242","blockNo":8413733,"blockHash":"9ed5bcc400ab2c068cd07339737eea21129c4548b18952cf73d2a4431477f7ed","epochNo":394,"epochSlotNo":287365,"slot":85132165,"time":"2023/02/18 05:34:16","addressesInput":["addr1qx7zetgkru70f7uqh8w9jktmrxyfuj9wqu0md68ghzgzr9pgddnlexhz86za456w3d5eccm7ukr73gr4mv24pklhw62qz3wkd6"],"addressesOutput":["addr1qx7zetgkru70f7uqh8w9jktmrxyfuj9wqu0md68ghzgzr9pgddnlexhz86za456w3d5eccm7ukr73gr4mv24pklhw62qz3wkd6"],"fee":237854,"totalOutput":12184231,"tokens":[]},{"hash":"d6338a6d2ee3bc4a626a5651c64effcf0330403fb17a450c18ec4f07221dc7cd","blockNo":8413733,"blockHash":"9ed5bcc400ab2c068cd07339737eea21129c4548b18952cf73d2a4431477f7ed","epochNo":394,"epochSlotNo":287365,"slot":85132165,"time":"2023/02/18 05:34:16","addressesInput":["addr1q9n489n9cjggjwzq9mx4fr9ga7c6t4x2d8rvygm86fdkzgljptmtrdvym8z59nrrngfs8wrrc9208hcnmmzwt9w7508sc52dt3","addr1q9n489n9cjggjwzq9mx4fr9ga7c6t4x2d8rvygm86fdkzgljptmtrdvym8z59nrrngfs8wrrc9208hcnmmzwt9w7508sc52dt3","addr1zxgx3far7qygq0k6epa0zcvcvrevmn0ypsnfsue94nsn3tvpw288a4x0xf8pxgcntelxmyclq83s0ykeehchz2wtspks905plm"],"addressesOutput":["addr1q9sx4tfcll8wczckv7d4r8dg7zt6l6s632crfwfdzv4gnep479wrw25tcw8men7nxthzfx5fm0urxufh7lfur53vvykssfyetr","addr1q9cwvremt6n320s2e3agq0jyq82yhrk3htsu0w426xnz5us70z4w0jgvcdkkynmm8wmds66jd9kusnjfpu6raw5fqp0sr07p5w","addr1qx2m2cnu5pysdrkdsy48pdusvtp6rn37f5xg6ctqxd0s25r38jzt2ms5yx628lp67p6te2kphalxlpjz4w7208mgfr9sawmfzc","addr1q9n489n9cjggjwzq9mx4fr9ga7c6t4x2d8rvygm86fdkzgljptmtrdvym8z59nrrngfs8wrrc9208hcnmmzwt9w7508sc52dt3","addr1q9n489n9cjggjwzq9mx4fr9ga7c6t4x2d8rvygm86fdkzgljptmtrdvym8z59nrrngfs8wrrc9208hcnmmzwt9w7508sc52dt3","addr1q9n489n9cjggjwzq9mx4fr9ga7c6t4x2d8rvygm86fdkzgljptmtrdvym8z59nrrngfs8wrrc9208hcnmmzwt9w7508sc52dt3","addr1q9n489n9cjggjwzq9mx4fr9ga7c6t4x2d8rvygm86fdkzgljptmtrdvym8z59nrrngfs8wrrc9208hcnmmzwt9w7508sc52dt3"],"fee":432091,"totalOutput":645985497,"tokens":[]},{"hash":"c23d5f4494e304e42b319b8a0a64b784abca3fc16542f8b4cdbcc023160eb87a","blockNo":8413733,"blockHash":"9ed5bcc400ab2c068cd07339737eea21129c4548b18952cf73d2a4431477f7ed","epochNo":394,"epochSlotNo":287365,"slot":85132165,"time":"2023/02/18 05:34:16","addressesInput":["addr1q9sr9nsv8px5cyfsct4mfmflxcxv6ndr5nruh734us26lgjyjkjxtfqlzgd7hnrzkennwrvm0rzuq4qa73hqmkyspw2qkl7p4m","addr1zxgx3far7qygq0k6epa0zcvcvrevmn0ypsnfsue94nsn3tvpw288a4x0xf8pxgcntelxmyclq83s0ykeehchz2wtspks905plm"],"addressesOutput":["addr1q9sr9nsv8px5cyfsct4mfmflxcxv6ndr5nruh734us26lgjyjkjxtfqlzgd7hnrzkennwrvm0rzuq4qa73hqmkyspw2qkl7p4m","addr1q9sr9nsv8px5cyfsct4mfmflxcxv6ndr5nruh734us26lgjyjkjxtfqlzgd7hnrzkennwrvm0rzuq4qa73hqmkyspw2qkl7p4m"],"fee":264027,"totalOutput":74735973,"tokens":[]},{"hash":"088f891a57bd467f87635487c567230793739ba309c55faf4b300fdfc3394c5b","blockNo":8413733,"blockHash":"9ed5bcc400ab2c068cd07339737eea21129c4548b18952cf73d2a4431477f7ed","epochNo":394,"epochSlotNo":287365,"slot":85132165,"time":"2023/02/18 05:34:16","addressesInput":["Ae2tdPwUPEYwNguM7TB3dMnZMfZxn1pjGHyGdjaF4mFqZF9L3bj6cdhiH8t"],"addressesOutput":["addr1qx7txd8nck0j5r0yz5lj554dhk2amfaavaemlemuy0u3mj4ukv6083vl9gx7g9fl9ff2m0v4mknm6emnhlnhcglerh9qtm6hmc","Ae2tdPwUPEYwNguM7TB3dMnZMfZxn1pjGHyGdjaF4mFqZF9L3bj6cdhiH8t"],"fee":224481,"totalOutput":69221946730,"tokens":[]},{"hash":"3f4ad5c6ab705d84b4a4d27dfe11f15ea7da83dc6feff3315a81498f0ff7f864","blockNo":8413733,"blockHash":"9ed5bcc400ab2c068cd07339737eea21129c4548b18952cf73d2a4431477f7ed","epochNo":394,"epochSlotNo":287365,"slot":85132165,"time":"2023/02/18 05:34:16","addressesInput":["addr1qxd0nqf8r9yl0a930hy9mc44a556jm54vsf6r43jyna45erm79rm9qfa9shul9c0aft4y5fqecu8gghys63ddksfr07sv3v46m"],"addressesOutput":["addr1qxd0nqf8r9yl0a930hy9mc44a556jm54vsf6r43jyna45erm79rm9qfa9shul9c0aft4y5fqecu8gghys63ddksfr07sv3v46m","addr1qxd0nqf8r9yl0a930hy9mc44a556jm54vsf6r43jyna45erm79rm9qfa9shul9c0aft4y5fqecu8gghys63ddksfr07sv3v46m","addr1qxd0nqf8r9yl0a930hy9mc44a556jm54vsf6r43jyna45erm79rm9qfa9shul9c0aft4y5fqecu8gghys63ddksfr07sv3v46m","addr1qxd0nqf8r9yl0a930hy9mc44a556jm54vsf6r43jyna45erm79rm9qfa9shul9c0aft4y5fqecu8gghys63ddksfr07sv3v46m"],"fee":181385,"totalOutput":647818615,"tokens":[]},{"hash":"52ae290270cf0d8188fc5dafa7c73d8e650bb588d07b347fe7d0d43c20ba91ce","blockNo":8413733,"blockHash":"9ed5bcc400ab2c068cd07339737eea21129c4548b18952cf73d2a4431477f7ed","epochNo":394,"epochSlotNo":287365,"slot":85132165,"time":"2023/02/18 05:34:16","addressesInput":["addr1q9pnurn952qxnzd5zllhuhecua4xczz79nh9xcq2gl6wlvfsdnr5gnvpatrxgerzddd33jzhxyvua9ehc76e23m7dees48uuzf","addr1zxgx3far7qygq0k6epa0zcvcvrevmn0ypsnfsue94nsn3tvpw288a4x0xf8pxgcntelxmyclq83s0ykeehchz2wtspks905plm"],"addressesOutput":["addr1q9pnurn952qxnzd5zllhuhecua4xczz79nh9xcq2gl6wlvfsdnr5gnvpatrxgerzddd33jzhxyvua9ehc76e23m7dees48uuzf","addr1q9pnurn952qxnzd5zllhuhecua4xczz79nh9xcq2gl6wlvfsdnr5gnvpatrxgerzddd33jzhxyvua9ehc76e23m7dees48uuzf","addr1q9pnurn952qxnzd5zllhuhecua4xczz79nh9xcq2gl6wlvfsdnr5gnvpatrxgerzddd33jzhxyvua9ehc76e23m7dees48uuzf"],"fee":274148,"totalOutput":210230987,"tokens":[]},{"hash":"aecd01e6d59c0ba9699c6e7a186ab1b75fef4295072a0f15e4f2bd3da6db5b02","blockNo":8413733,"blockHash":"9ed5bcc400ab2c068cd07339737eea21129c4548b18952cf73d2a4431477f7ed","epochNo":394,"epochSlotNo":287365,"slot":85132165,"time":"2023/02/18 05:34:16","addressesInput":["addr1q9qsu8cjzte7mr38tkp0rpjmjxur4afq2svpfj0j4cq8t4ydyasdcfpkhugwfvxeg2u2cd64hdj3lymvhk8eq230nnxqflummr","addr1q9qsu8cjzte7mr38tkp0rpjmjxur4afq2svpfj0j4cq8t4ydyasdcfpkhugwfvxeg2u2cd64hdj3lymvhk8eq230nnxqflummr"],"addressesOutput":["addr1qyg5yk36ee0rhl5hw5kxcfng5ygrsv55tuchs0nxjmh9uqmpmpaxya7n6kzmyy6f72st0akwx8zg5n6emrxa5mhywg9q3v23dv","addr1q9qsu8cjzte7mr38tkp0rpjmjxur4afq2svpfj0j4cq8t4ydyasdcfpkhugwfvxeg2u2cd64hdj3lymvhk8eq230nnxqflummr","addr1q9qsu8cjzte7mr38tkp0rpjmjxur4afq2svpfj0j4cq8t4ydyasdcfpkhugwfvxeg2u2cd64hdj3lymvhk8eq230nnxqflummr"],"fee":401737,"totalOutput":210260547,"tokens":[]},{"hash":"c97f5ad9c666114ace169017179eebe4af1bb742cb4d49e517d65de31dad9c04","blockNo":8413733,"blockHash":"9ed5bcc400ab2c068cd07339737eea21129c4548b18952cf73d2a4431477f7ed","epochNo":394,"epochSlotNo":287365,"slot":85132165,"time":"2023/02/18 05:34:16","addressesInput":["addr1zxgx3far7qygq0k6epa0zcvcvrevmn0ypsnfsue94nsn3tvpw288a4x0xf8pxgcntelxmyclq83s0ykeehchz2wtspks905plm","addr1q9dk726a54axux0744xcev3wekf56lw0zjdupvnceghvn62u38g7zrj83g9245rmj7x27v5e789dn0nrt60pmyvhj4us8z36wg"],"addressesOutput":["addr1zxgx3far7qygq0k6epa0zcvcvrevmn0ypsnfsue94nsn3tvpw288a4x0xf8pxgcntelxmyclq83s0ykeehchz2wtspks905plm","addr1q9dk726a54axux0744xcev3wekf56lw0zjdupvnceghvn62u38g7zrj83g9245rmj7x27v5e789dn0nrt60pmyvhj4us8z36wg"],"fee":301592,"totalOutput":17782086,"tokens":[]},{"hash":"02486e9a0d4382b97e3a951bfdb476aafb05844bf6f6013ed1662d88bd2590c8","blockNo":8413732,"blockHash":"8df541302d77c6cb1a7f97e450aea94cd652d874053bba16911162ce55ba7736","epochNo":394,"epochSlotNo":287326,"slot":85132126,"time":"2023/02/18 05:33:37","addressesInput":["addr1qxec7gvpgme9w9c3epsjupe0ynvn70k853d24zdczzkwpq4a2udvhmee2jyf3u4hrlsad7m86mv2l8gz0z9ul6gmgmuqcamsk6"],"addressesOutput":["addr1v9nudmgn6lqefaedktxg0rrlqsjdxma2uw9my66vcnp8lngkzrt8k","addr1qxec7gvpgme9w9c3epsjupe0ynvn70k853d24zdczzkwpq4a2udvhmee2jyf3u4hrlsad7m86mv2l8gz0z9ul6gmgmuqcamsk6","addr1qxec7gvpgme9w9c3epsjupe0ynvn70k853d24zdczzkwpq4a2udvhmee2jyf3u4hrlsad7m86mv2l8gz0z9ul6gmgmuqcamsk6"],"fee":379297,"totalOutput":32378771,"tokens":[]},{"hash":"71991033c46466d23890af18c1a2ac7f15ba6c9f0e2ae4f7b544ffa222568bc2","blockNo":8413732,"blockHash":"8df541302d77c6cb1a7f97e450aea94cd652d874053bba16911162ce55ba7736","epochNo":394,"epochSlotNo":287326,"slot":85132126,"time":"2023/02/18 05:33:37","addressesInput":["addr1q8fjv53gchn5mk38jk9takevv2m3edjve8ardwysh6d79mdg8akgnwf3y4r2uzqf00rw0pvsucql0pqkzag5n450facqlpqzz8","addr1q9dwzug2qzdsqvpvrn886nqdtwr02n9kxtwqsxce2gacvedg8akgnwf3y4r2uzqf00rw0pvsucql0pqkzag5n450facqeuerev"],"addressesOutput":["DdzFFzCqrhsehqpFwFEiv8zoKHscSHWTkv2BxeHFaAjrBLVRV1GWLyRTfzVEeskkwVtDYE55XVTdUzJZ5eyQ6WMCtHyb13SsFjHfRDt3","addr1q9dwzug2qzdsqvpvrn886nqdtwr02n9kxtwqsxce2gacvedg8akgnwf3y4r2uzqf00rw0pvsucql0pqkzag5n450facqeuerev"],"fee":176897,"totalOutput":96196318948,"tokens":[]},{"hash":"b9749ca86b8503847c4eb9be4f73ad44cc7fd51f7ef35bb09547edb270261121","blockNo":8413732,"blockHash":"8df541302d77c6cb1a7f97e450aea94cd652d874053bba16911162ce55ba7736","epochNo":394,"epochSlotNo":287326,"slot":85132126,"time":"2023/02/18 05:33:37","addressesInput":["addr1q8d0hjruzskvxjyz62uz4gddls8fhwjta7224yktzffm39jc7jdxezl0wa9r3llkeynsat93lz5grale3eg4nvv2v6zseee499"],"addressesOutput":["addr1qylnttxfhu8fhs4s6pk7jkjavugu8d5mlmymzj6sw7sxprm09gfxv3uujedp96hzhnl2je8vs7dfuphf4d4mxamtep4sf8fg0x","addr1q869xvuz6hyrapl76zgflrxy60vmrua0cfevl3zpyhp6wkjc7jdxezl0wa9r3llkeynsat93lz5grale3eg4nvv2v6zs6mdc2g","addr1q869xvuz6hyrapl76zgflrxy60vmrua0cfevl3zpyhp6wkjc7jdxezl0wa9r3llkeynsat93lz5grale3eg4nvv2v6zs6mdc2g","addr1q869xvuz6hyrapl76zgflrxy60vmrua0cfevl3zpyhp6wkjc7jdxezl0wa9r3llkeynsat93lz5grale3eg4nvv2v6zs6mdc2g","addr1q869xvuz6hyrapl76zgflrxy60vmrua0cfevl3zpyhp6wkjc7jdxezl0wa9r3llkeynsat93lz5grale3eg4nvv2v6zs6mdc2g"],"fee":177425,"totalOutput":48615082051,"tokens":[]},{"hash":"16db1ecb1031db9f9dadddaaf81f04345a34566e4a419aeeb77b16b2c76f2d20","blockNo":8413732,"blockHash":"8df541302d77c6cb1a7f97e450aea94cd652d874053bba16911162ce55ba7736","epochNo":394,"epochSlotNo":287326,"slot":85132126,"time":"2023/02/18 05:33:37","addressesInput":["addr1qy4u5788wkn5khlwk7d8z7rw6kaqu25uucqc8t87ph8aeujpjfheftuughwlyjjsw3s44y6sj48c9tap45f7ytr6dkhsxd4l7f"],"addressesOutput":["addr1qy4u5788wkn5khlwk7d8z7rw6kaqu25uucqc8t87ph8aeujpjfheftuughwlyjjsw3s44y6sj48c9tap45f7ytr6dkhsxd4l7f"],"fee":237854,"totalOutput":17352225,"tokens":[]},{"hash":"259e7f2e441783673d80d7b2ddea56db17cfc01a35efe1746fcfb78c42198b1b","blockNo":8413732,"blockHash":"8df541302d77c6cb1a7f97e450aea94cd652d874053bba16911162ce55ba7736","epochNo":394,"epochSlotNo":287326,"slot":85132126,"time":"2023/02/18 05:33:37","addressesInput":["addr1q9cdg0rgxr30qqpw95yxerhq7pf4d7dmhd5f3vsexqqxc5ehj2gy32qytwawuld8t8h68thqvem3met2tv8dcs6m4vuq6h5m9a","addr1q9cdg0rgxr30qqpw95yxerhq7pf4d7dmhd5f3vsexqqxc5ehj2gy32qytwawuld8t8h68thqvem3met2tv8dcs6m4vuq6h5m9a","addr1zxgx3far7qygq0k6epa0zcvcvrevmn0ypsnfsue94nsn3tvpw288a4x0xf8pxgcntelxmyclq83s0ykeehchz2wtspks905plm"],"addressesOutput":["addr1zxgx3far7qygq0k6epa0zcvcvrevmn0ypsnfsue94nsn3tvpw288a4x0xf8pxgcntelxmyclq83s0ykeehchz2wtspks905plm","addr1q9cdg0rgxr30qqpw95yxerhq7pf4d7dmhd5f3vsexqqxc5ehj2gy32qytwawuld8t8h68thqvem3met2tv8dcs6m4vuq6h5m9a","addr1q9cdg0rgxr30qqpw95yxerhq7pf4d7dmhd5f3vsexqqxc5ehj2gy32qytwawuld8t8h68thqvem3met2tv8dcs6m4vuq6h5m9a"],"fee":348040,"totalOutput":5935243,"tokens":[]},{"hash":"71a1af09a2c276a04e8e5559920fde5a225d1fa4d1636f319c859366251ec5d4","blockNo":8413732,"blockHash":"8df541302d77c6cb1a7f97e450aea94cd652d874053bba16911162ce55ba7736","epochNo":394,"epochSlotNo":287326,"slot":85132126,"time":"2023/02/18 05:33:37","addressesInput":["addr1v94725lv4umktv89cg2t04qjn4qq3p6l6zegvtx5esu2zuqfd487u"],"addressesOutput":["addr1qx2txzpw25mss8e63vnr69w02n3rnttgtdz0qedhvnun4z82vgl47mdcdnzafqxqr4ap30ecd244qladzstq7f0myspshu6zkl","addr1v94725lv4umktv89cg2t04qjn4qq3p6l6zegvtx5esu2zuqfd487u"],"fee":173900,"totalOutput":131110224,"tokens":[]},{"hash":"4ca3f7d6c77b0d43aade0cfce1bdb6bb72f10b355a669b0d1816dd1a33b4c0fe","blockNo":8413732,"blockHash":"8df541302d77c6cb1a7f97e450aea94cd652d874053bba16911162ce55ba7736","epochNo":394,"epochSlotNo":287326,"slot":85132126,"time":"2023/02/18 05:33:37","addressesInput":["addr1vxx2pcyvm0pslgxayxpn6ums6enyj0kv9zcndhchn7tlkhgfedep5","addr1vxx2pcyvm0pslgxayxpn6ums6enyj0kv9zcndhchn7tlkhgfedep5","addr1w9qzpelu9hn45pefc0xr4ac4kdxeswq7pndul2vuj59u8tqaxdznu","addr1wxaptpmxcxawvr3pzlhgnpmzz3ql43n2tc8mn3av5kx0yzs09tqh8"],"addressesOutput":["addr1w9qzpelu9hn45pefc0xr4ac4kdxeswq7pndul2vuj59u8tqaxdznu","addr1w9jx45flh83z6wuqypyash54mszwmdj8r64fydafxtfc6jgrw4rm3","addr1qyxk2ax2a24glj43aprn6mmgp8324sz6das0ukvpusx6hw6syszwj53ap7fwka4wxsed307n8vw3yu4svdhdupf437xsn8t7ft","addr1vxx2pcyvm0pslgxayxpn6ums6enyj0kv9zcndhchn7tlkhgfedep5","addr1vxx2pcyvm0pslgxayxpn6ums6enyj0kv9zcndhchn7tlkhgfedep5"],"fee":1326189,"totalOutput":19403295406,"tokens":[]}],"totalItems":61504079,"totalPages":3075204,"currentPage":0}