{"data":[{"txId":53167595,"txHash":"4b378c197aad25df13da9f629a8df6232f4bd6725ee529cd135d60b28c16f47a","txTime":"2022/10/23 23:40:39","block":7922583,"epoch":371,"slotNo":75002148,"epochSlotNo":93348,"stakeKey":"stake1uyck0f5vkg0a24rl5454z2v5jmegstrh39wx8us0k2dy2xsk2uqh8"},{"txId":53167222,"txHash":"110fbe1ed3ee71b48b80e025b84443ce7132b59760b084b66d3597189dc4550f","txTime":"2022/10/23 23:34:05","block":7922565,"epoch":371,"slotNo":75001754,"epochSlotNo":92954,"stakeKey":"stake1uyczuc34vhqqmykc0anjuqlhzy8gqhhhfhf5h4lkkfe4gwqnrh687"},{"txId":53167011,"txHash":"d5f5bb7c5611818765f208847c4a46c2787a17d681b820078642e456c8e912ba","txTime":"2022/10/23 23:30:59","block":7922557,"epoch":371,"slotNo":75001568,"epochSlotNo":92768,"stakeKey":"stake1uyck0f5vkg0a24rl5454z2v5jmegstrh39wx8us0k2dy2xsk2uqh8"},{"txId":53166616,"txHash":"63bbb5238e4ca335217883cba56525024d5b8b66254fed4de87011419e206f35","txTime":"2022/10/23 23:24:59","block":7922543,"epoch":371,"slotNo":75001208,"epochSlotNo":92408,"stakeKey":"stake1uynn9l6drt56dx8fr8wp9sdvf7hkhdu34vlu9cc5tpurfjqdu76cy"},{"txId":53166557,"txHash":"5788101c1e23586e2b020d24e498223b90afe27c6e0f733795ba2450d2d6cfee","txTime":"2022/10/23 23:23:39","block":7922541,"epoch":371,"slotNo":75001128,"epochSlotNo":92328,"stakeKey":"stake1uxl407yhdmfy2dgynnxxn3jh8e5slndusdvej55s0mjn2uck83579"},{"txId":53166502,"txHash":"2959a2cda32ffad36c3be4b5f557a1b006c214ff5152ed234a13c8f068a8ccbd","txTime":"2022/10/23 23:23:05","block":7922540,"epoch":371,"slotNo":75001094,"epochSlotNo":92294,"stakeKey":"stake1u8uer8rkh6l2nur8z2j5utmpww2h35ny48fvr786ng6u72cqklsgz"},{"txId":53166477,"txHash":"f881d8609137ded4736424ea3928a8aa68fdb8222bec25256f3d7f8b9866db53","txTime":"2022/10/23 23:22:32","block":7922539,"epoch":371,"slotNo":75001061,"epochSlotNo":92261,"stakeKey":"stake1ux3m3yskrntzmg4kyszcudyt6npz509jl4jxx68yg6h5pasyp5ep2"},{"txId":53166186,"txHash":"6064c91f55a3d92a21abbaf4193c15dba5fe404d768164f73848a66b089f5d36","txTime":"2022/10/23 23:17:14","block":7922525,"epoch":371,"slotNo":75000743,"epochSlotNo":91943,"stakeKey":"stake1u9xq67uwje3znqjy96v4p5p22usqnsr7fwn9jpv3nfzyags0p403m"},{"txId":53166000,"txHash":"cfee3d328dd4cfb5eba866082f7e5859f1eff606a5db437178bb0414d2882cdb","txTime":"2022/10/23 23:15:14","block":7922517,"epoch":371,"slotNo":75000623,"epochSlotNo":91823,"stakeKey":"stake1uygjzemr7kukga7eh5pryh2l3x22raewdkpnlq2e2d5rqwc0khy4n"},{"txId":53165956,"txHash":"c33561cea9124e47123a027ffc4fc1e079ec6e1a8e9d038aa59c0c6aa508b816","txTime":"2022/10/23 23:15:11","block":7922516,"epoch":371,"slotNo":75000620,"epochSlotNo":91820,"stakeKey":"stake1uygyukqgyr66sx29r4rgwx2c9hxey5zux3gx5ss2jd7x78gpeqccf"},{"txId":53165167,"txHash":"4860874c69c559c21fd0b2f0966423657246db3a3dfc3df2b25bab46543465d7","txTime":"2022/10/23 23:01:08","block":7922484,"epoch":371,"slotNo":74999777,"epochSlotNo":90977,"stakeKey":"stake1uya5dp7qczx8wc3gq7fmdj7927wrajzvpr0xheafjsqa7wsf3gdas"},{"txId":53165128,"txHash":"9b46295a5cc0532f958f5519bdd94ae9fb194579a82dd97cdf95f3c34527c9e5","txTime":"2022/10/23 23:00:00","block":7922481,"epoch":371,"slotNo":74999709,"epochSlotNo":90909,"stakeKey":"stake1uytdxltk9j3ynf0qxl4vgjhepyhhtujejthamzq4ew0g7tsnwq7pf"},{"txId":53164993,"txHash":"82f941382367295dd15f49e583d599b6d77221883817ec5248d55ce15dab63b0","txTime":"2022/10/23 22:58:18","block":7922474,"epoch":371,"slotNo":74999607,"epochSlotNo":90807,"stakeKey":"stake1uxx7jqzssufgst50c4sul3mdk4dnc77p3dsp98w5lhmpxng23f864"},{"txId":53164200,"txHash":"c0f3e0c1373fd12fd48fa2cfa8bc7a5dde83141749b0f395d307732c10c8a0ed","txTime":"2022/10/23 22:46:25","block":7922443,"epoch":371,"slotNo":74998894,"epochSlotNo":90094,"stakeKey":"stake1uyu4dwsn2wmz58p8m4x6l0ej6wfg5ekwyr2wd8gt08t93uckt60ed"},{"txId":53163775,"txHash":"6c19a0675edb0d40a22d59b0c2c3e51d1ebde3baed15be529657015740d09a9c","txTime":"2022/10/23 22:39:09","block":7922424,"epoch":371,"slotNo":74998458,"epochSlotNo":89658,"stakeKey":"stake1u8hg2s2ne6aas7f78nf8j2s5f4mzqc9mtyd8gezwdsgde8q0zcgwa"},{"txId":53163753,"txHash":"3b99b9088595a7ab72ba443e8afe3123b72b0653fd5a69a4005aea349c7e2c3b","txTime":"2022/10/23 22:38:35","block":7922422,"epoch":371,"slotNo":74998424,"epochSlotNo":89624,"stakeKey":"stake1ux7cln7sfhezu5lq0tp65mu527hx4ylu3xy2mvgq5ty0znqz63aw5"},{"txId":53163742,"txHash":"3071ba47594b58bb5af856fc038a31449ef6fedcfe064a76b9bc97ed42326a93","txTime":"2022/10/23 22:38:32","block":7922421,"epoch":371,"slotNo":74998421,"epochSlotNo":89621,"stakeKey":"stake1u922f4f46jgscf49ycmzu9grlaegnjw8h5tqxeagaa060cgvgjswz"},{"txId":53163099,"txHash":"874571a8734ac1bc9509cfa5434ef723bb039a963d4a0b0f1a3e04cb40268f02","txTime":"2022/10/23 22:28:42","block":7922387,"epoch":371,"slotNo":74997831,"epochSlotNo":89031,"stakeKey":"stake1u8nllvnc66plexhyxjteunge0wd0fdehh0w2frm52r5hnag8l7t4g"},{"txId":53162962,"txHash":"d32d0521b922c967c86a1c605b0d948d7d25f5168f7f0b43f788fa43747982f1","txTime":"2022/10/23 22:27:08","block":7922382,"epoch":371,"slotNo":74997737,"epochSlotNo":88937,"stakeKey":"stake1u9lechphe3v57vxt28329mmlcpsw5knj23el4tr6jphdq9ggqp5sf"},{"txId":53162648,"txHash":"55f01b5022c9bb486f116e8ae384e0b45a6822533e73a36b80239d16e1aa806b","txTime":"2022/10/23 22:21:41","block":7922374,"epoch":371,"slotNo":74997410,"epochSlotNo":88610,"stakeKey":"stake1u8lhpzczecy9shv3nyy92mk7jpsg7pk4fuqs6axswljy9tgfjkvdf"}],"totalItems":1590298,"totalPages":79515,"currentPage":0}