{"data":[{"txId":59546210,"txHash":"256cbf98720205c26dbb8e899d5e2cf28d6f0b3d2b88b39dc1a20b3a5cbe863d","txTime":"2023/01/12 20:55:22","block":8262033,"epoch":387,"slotNo":81990631,"epochSlotNo":169831,"stakeKey":"stake1u9vlmahej4kweccf8qhuj9lgemsnsnnnehmgm08su2q5lrgn00hkv"},{"txId":59546191,"txHash":"1a4b4681674181b81ebee753214fdb48e64e479eb91132fa00f064598b3fc1e0","txTime":"2023/01/12 20:55:22","block":8262033,"epoch":387,"slotNo":81990631,"epochSlotNo":169831,"stakeKey":"stake1uy629x4r57jwh0vuktqa90xaq4xvcrm65fmcs6zcawhchjgka4p2l"},{"txId":59546148,"txHash":"9c19b7b82a49fd9de3cf320b5ebab42536bfce53103406350dc9a707c16563e1","txTime":"2023/01/12 20:55:18","block":8262032,"epoch":387,"slotNo":81990627,"epochSlotNo":169827,"stakeKey":"stake1u9n332rrqwmg6nh4e9p9u558wf3d0vwp0q08ev7mr6salfg8fwj0r"},{"txId":59546086,"txHash":"feae1581a5db39acfc8a365c49054c9d9ba6e11749ad9cb9e6d6dfafb5656e91","txTime":"2023/01/12 20:53:52","block":8262030,"epoch":387,"slotNo":81990541,"epochSlotNo":169741,"stakeKey":"stake1u9ygk4cfrzalv40hqj5uk7fa0vfq540eucps5y6f2qhzdssmv50xl"},{"txId":59546055,"txHash":"06fa2f593c3d40741adb3586411f6a233281421f9205e6ec6a9e726cefd9288d","txTime":"2023/01/12 20:53:31","block":8262029,"epoch":387,"slotNo":81990520,"epochSlotNo":169720,"stakeKey":"stake1u9r9nwjwd32s7mtk92jf4gjrjrl3cm38ly0qs6g46083vtch9vaug"},{"txId":59545812,"txHash":"5e63c1738799b99e16ee92c4d038a68484273143d60d260ae5a8544f309d08b2","txTime":"2023/01/12 20:49:20","block":8262017,"epoch":387,"slotNo":81990269,"epochSlotNo":169469,"stakeKey":"stake1ux54rx7k9jnz42wqy9myr0ssjfl46thgz7lsgu3hnc9nm7g254rey"},{"txId":59545725,"txHash":"8e580d47a5e6ba01db9b6a6aa4f3e4949c68602c5ade2eafd7c3448e0e06cb39","txTime":"2023/01/12 20:47:32","block":8262010,"epoch":387,"slotNo":81990161,"epochSlotNo":169361,"stakeKey":"stake1u9j5qt6huse3kguvtwz0fsjmv3gz5d5944xh9g8hyaekcygch80ng"},{"txId":59545688,"txHash":"bdf9d0bf1c0ddf6775678181a1e5b086c6427c871a259e8e3e19c605c75ceb8a","txTime":"2023/01/12 20:46:35","block":8262007,"epoch":387,"slotNo":81990104,"epochSlotNo":169304,"stakeKey":"stake1uy020qcdv0sjg2atqau80jdwx3tdnxu0fzhgauncnxsdgnshmj9ga"},{"txId":59545563,"txHash":"7b32203522da66ac5d06e8ddb6f4ffa3e98b6ca0177b9ba67a9ba9104490eedc","txTime":"2023/01/12 20:44:20","block":8262003,"epoch":387,"slotNo":81989969,"epochSlotNo":169169,"stakeKey":"stake1u8zj47tc9eeanvfgp2ky9tlfklep3473qfht4lx5k6pfcfcf7494c"},{"txId":59545468,"txHash":"7d28a484abe2be76854aa95bd69b671a8b1fb3126f9bca57e49b931efb8cc9df","txTime":"2023/01/12 20:42:59","block":8261996,"epoch":387,"slotNo":81989888,"epochSlotNo":169088,"stakeKey":"stake1ux3ka0nfku76lrjlmlzsnuv7angt5j5zncs0yh4k7wvruvqumn0pw"},{"txId":59545457,"txHash":"f51e59d9992aae979f796150f42dd7451abb0553c7d7048e2532cb9c31d7f721","txTime":"2023/01/12 20:42:59","block":8261996,"epoch":387,"slotNo":81989888,"epochSlotNo":169088,"stakeKey":"stake1uylhu8e0v9saf7qc5mfmm2pjkl4g7dj2xtltgckj69adaaggdty42"},{"txId":59545427,"txHash":"35a8f81d78dd62c79a111561ab6ff9e1ecd4ac71dc73f48fae1cb17458784207","txTime":"2023/01/12 20:42:21","block":8261995,"epoch":387,"slotNo":81989850,"epochSlotNo":169050,"stakeKey":"stake1uynvvlkkhgsx6gxmqexvkmft04ypud89kjl4xgrvy8u569s8ckc8f"},{"txId":59545382,"txHash":"16d849a180425d84f6f59332004da9f71597a707eafb6421907354bb32a591c3","txTime":"2023/01/12 20:41:42","block":8261994,"epoch":387,"slotNo":81989811,"epochSlotNo":169011,"stakeKey":"stake1uxaz4pnwm44x564l8cmkgw5janntkh28vwahr67mu7gkw3sf2887h"},{"txId":59545360,"txHash":"a8a7f388c168ba20549ebcfc6ff378eec0ff209532fe258a0b1130b9df155491","txTime":"2023/01/12 20:41:11","block":8261993,"epoch":387,"slotNo":81989780,"epochSlotNo":168980,"stakeKey":"stake1uytxru566jlcec8r7awlrj3pa9tzuqlepv2j0w79v70asqq4y80ys"},{"txId":59545292,"txHash":"9dc9d901ada2ab2ed86180741ebe9f2c0680a3259df80539c8f795167fc70b55","txTime":"2023/01/12 20:40:48","block":8261991,"epoch":387,"slotNo":81989757,"epochSlotNo":168957,"stakeKey":"stake1u8485xcu9644k67dzjv85lpmqav4xktlks395rm6pre0hzc0d59ca"},{"txId":59545191,"txHash":"bde9a96d9ca6bfafa0d98c70776d13d70da7df8e5160e96f802e29dee0f78bf0","txTime":"2023/01/12 20:38:50","block":8261988,"epoch":387,"slotNo":81989639,"epochSlotNo":168839,"stakeKey":"stake1uxy6hhvvcgxx2zhs2kjrpn3j5azu988vzgwqjasauhaxf3qfj36cp"},{"txId":59545065,"txHash":"bd11270d310220274a7097e5b9855652e0ea83bccfed01e0c3e3c565a0ba4343","txTime":"2023/01/12 20:37:03","block":8261982,"epoch":387,"slotNo":81989532,"epochSlotNo":168732,"stakeKey":"stake1u9zhvkfz6ne8v2twyl7u0pvfkd0cd9tpu3vfxer42qncf8qss7e9s"},{"txId":59545032,"txHash":"929945be54448d857620bf91f606f497202a80f5ca4ad711a27bb9a49946e8e8","txTime":"2023/01/12 20:36:30","block":8261978,"epoch":387,"slotNo":81989499,"epochSlotNo":168699,"stakeKey":"stake1u89nc75yps282zhrwr9vdrmfaqaqnyzaj4x9qy5nvdj4m3qh7y04m"},{"txId":59544786,"txHash":"88d94e0e41a0671a5aca6c051b676cb383fcdf126c979f022a3f1b8a13144cdc","txTime":"2023/01/12 20:32:51","block":8261965,"epoch":387,"slotNo":81989280,"epochSlotNo":168480,"stakeKey":"stake1u97pracpqhrf9psrw4njem8xhql7dnzqs6lcvk08fkktvag02wavu"},{"txId":59544712,"txHash":"d34901bf4da21409a79f9ad8968650e96ff06a45fab02f132e2103e4f0e5f22a","txTime":"2023/01/12 20:31:52","block":8261961,"epoch":387,"slotNo":81989221,"epochSlotNo":168421,"stakeKey":"stake1uyg60xnhetrm48f5rhdm2lfpl8vmdvkxva4dxyge5ujcxaqmmzg8e"}],"totalItems":1644334,"totalPages":82217,"currentPage":0}