{"data":[{"blockNo":7979693,"slotNo":76172792,"epochNo":373,"epochSlotNo":399992,"hash":"1c947dd2ee2eb48b1b41a38272fc0d2e46cd9264cec9df7f86728c838918e6e6","time":"2022/11/06 12:51:23","txCount":21,"totalFees":6881042,"totalOutput":203202393100,"slotLeader":"2ba96bc27be2bdde3ec11b9f696cf21fad39e49097be9b0193e6b572"},{"blockNo":7979692,"slotNo":76172765,"epochNo":373,"epochSlotNo":399965,"hash":"260e566d1a363eddd893de30c1fa2d23ce36bfb0caefb184b62f8ec35edeee53","time":"2022/11/06 12:50:56","txCount":6,"totalFees":1492526,"totalOutput":43932853138,"slotLeader":"9e734b6c2263c0917bfc550e9c949f41afa3fe000377243bd29df399"},{"blockNo":7979691,"slotNo":76172759,"epochNo":373,"epochSlotNo":399959,"hash":"0dae9aaf34f263d3db5402b80b90b547877c7a24b645095d26d41ca0eaebd1d7","time":"2022/11/06 12:50:50","txCount":13,"totalFees":3758771,"totalOutput":8036780447,"slotLeader":"550f5dc96814537404c7544175d348262699e448d74005dfa26540d3"},{"blockNo":7979690,"slotNo":76172745,"epochNo":373,"epochSlotNo":399945,"hash":"9dfcbc52932c793f241e0ca34862dec2aded330d0ed144b7302d323c27d852af","time":"2022/11/06 12:50:36","txCount":7,"totalFees":2487419,"totalOutput":1056077432,"slotLeader":"d2f12c2f3094ed0784f048fe93a62d8b061525b356e043be084470d9"},{"blockNo":7979689,"slotNo":76172729,"epochNo":373,"epochSlotNo":399929,"hash":"9f6be358be44a29334d26a5add5e7b46b3d5aa8e290e1b5b1fb8043b4e923cc7","time":"2022/11/06 12:50:20","txCount":17,"totalFees":5824284,"totalOutput":6055370561672,"slotLeader":"3e695a66ff6e2ed3806701bc0f6e8dfc85db114b71864999425147c5"},{"blockNo":7979688,"slotNo":76172712,"epochNo":373,"epochSlotNo":399912,"hash":"0bf51d8cd61d7d32deda3d32bdec852b982d005933409fbd4e84493a8552b5b8","time":"2022/11/06 12:50:03","txCount":24,"totalFees":7990861,"totalOutput":2806685089890,"slotLeader":"032cd96779710e1bdc766de1896277896be4d3b9aa86d4caccd22c8b"},{"blockNo":7979687,"slotNo":76172691,"epochNo":373,"epochSlotNo":399891,"hash":"651a210eaba69bccadbf9635e14d0d6d29d7cfc52ead9bbf45866e1a86d21833","time":"2022/11/06 12:49:42","txCount":15,"totalFees":5474593,"totalOutput":15458783415310,"slotLeader":"4045672633587d62688c258870681cab49c0d09a6542614e9a271678"},{"blockNo":7979686,"slotNo":76172675,"epochNo":373,"epochSlotNo":399875,"hash":"7e24a00400a6ff932edf7d1f2544dbf9631a0615980247e7a5eba8296be32286","time":"2022/11/06 12:49:26","txCount":12,"totalFees":3483398,"totalOutput":442795584250,"slotLeader":"d31f204c4a1701068d3a116b9c50662b60f365178336d6f7825ea547"},{"blockNo":7979685,"slotNo":76172661,"epochNo":373,"epochSlotNo":399861,"hash":"5e2314838837d04a982e872d7dfa6c6b5fdfe1b293d6d3cc792f652ff7db2061","time":"2022/11/06 12:49:12","txCount":6,"totalFees":1382126,"totalOutput":198860172,"slotLeader":"f6541f3ca941d96d3c243eae01fea874d6be403b2dd2c6575245de6e"},{"blockNo":7979684,"slotNo":76172649,"epochNo":373,"epochSlotNo":399849,"hash":"72b459f3e4bf05d76e04cc3c5f8497702af3f660497959247a41cf2e7c6cd61e","time":"2022/11/06 12:49:00","txCount":1,"totalFees":167467,"totalOutput":373288704,"slotLeader":"cfff13497008842ab170eae18ecf43be7eb4fa51bdd503821ddaaf19"}],"totalItems":19570,"totalPages":1957,"currentPage":0}