{"data":[{"hash":"ae352b161f2577e48493995ab0d50b385901bc576e3c06adebb67acf9adf5e6f","blockNo":8116957,"blockHash":"22289712061d8ec10ccf36313954c05d7cc5eccf29487c64d234b08687eb2f71","epochNo":380,"epochSlotNo":215794,"slot":79012594,"time":"2022/12/09 09:41:25","addressesInput":["addr1q93vyug8m3qrqc5qr9u28hzkvdpzyvmez85f58l8y9t2502xrdyd4ezx43vxjgw0dvz6dzy36jku3ptrr9mcv5dftkhsx6f5gt","addr1q93vyug8m3qrqc5qr9u28hzkvdpzyvmez85f58l8y9t2502xrdyd4ezx43vxjgw0dvz6dzy36jku3ptrr9mcv5dftkhsx6f5gt"],"addressesOutput":["addr1q8ce6utu0dkaug6xtnpnrtqd4rjgxyulcqf0nt3k2tze8uyln0kgsea4eey2rftuaewu9jheugrd56rh3mf3z8z50f8s9z9hrn","addr1q93vyug8m3qrqc5qr9u28hzkvdpzyvmez85f58l8y9t2502xrdyd4ezx43vxjgw0dvz6dzy36jku3ptrr9mcv5dftkhsx6f5gt","addr1q93vyug8m3qrqc5qr9u28hzkvdpzyvmez85f58l8y9t2502xrdyd4ezx43vxjgw0dvz6dzy36jku3ptrr9mcv5dftkhsx6f5gt"],"fee":245757,"totalOutput":36114040,"tokens":[]},{"hash":"f2db31e45dee4a20ff6ccdfd755a00e9f01aa4dc812d4e94dff4b1782d43bda8","blockNo":8116943,"blockHash":"aee715032aec7bcfbd2473b33ac4db19676258d2b94d07401eb8b17cf33f2181","epochNo":380,"epochSlotNo":215543,"slot":79012343,"time":"2022/12/09 09:37:14","addressesInput":["addr1q93vyug8m3qrqc5qr9u28hzkvdpzyvmez85f58l8y9t2502xrdyd4ezx43vxjgw0dvz6dzy36jku3ptrr9mcv5dftkhsx6f5gt","addr1q93vyug8m3qrqc5qr9u28hzkvdpzyvmez85f58l8y9t2502xrdyd4ezx43vxjgw0dvz6dzy36jku3ptrr9mcv5dftkhsx6f5gt","addr1q93vyug8m3qrqc5qr9u28hzkvdpzyvmez85f58l8y9t2502xrdyd4ezx43vxjgw0dvz6dzy36jku3ptrr9mcv5dftkhsx6f5gt","addr1q93vyug8m3qrqc5qr9u28hzkvdpzyvmez85f58l8y9t2502xrdyd4ezx43vxjgw0dvz6dzy36jku3ptrr9mcv5dftkhsx6f5gt"],"addressesOutput":["addr1q8ce6utu0dkaug6xtnpnrtqd4rjgxyulcqf0nt3k2tze8uyln0kgsea4eey2rftuaewu9jheugrd56rh3mf3z8z50f8s9z9hrn","addr1q93vyug8m3qrqc5qr9u28hzkvdpzyvmez85f58l8y9t2502xrdyd4ezx43vxjgw0dvz6dzy36jku3ptrr9mcv5dftkhsx6f5gt","addr1q93vyug8m3qrqc5qr9u28hzkvdpzyvmez85f58l8y9t2502xrdyd4ezx43vxjgw0dvz6dzy36jku3ptrr9mcv5dftkhsx6f5gt"],"fee":267009,"totalOutput":99684723,"tokens":[]},{"hash":"07eb7e4a12d28b8cc8fbe04cc4e776db83cb9c6dc903102d5a03f275676b4cbe","blockNo":8116939,"blockHash":"67eb176a1c5a56f1bf185ca09d8e5dc668a245d61494542f4939234e79882d66","epochNo":380,"epochSlotNo":215395,"slot":79012195,"time":"2022/12/09 09:34:46","addressesInput":["addr1q93vyug8m3qrqc5qr9u28hzkvdpzyvmez85f58l8y9t2502xrdyd4ezx43vxjgw0dvz6dzy36jku3ptrr9mcv5dftkhsx6f5gt","addr1q93vyug8m3qrqc5qr9u28hzkvdpzyvmez85f58l8y9t2502xrdyd4ezx43vxjgw0dvz6dzy36jku3ptrr9mcv5dftkhsx6f5gt"],"addressesOutput":["addr1q8ce6utu0dkaug6xtnpnrtqd4rjgxyulcqf0nt3k2tze8uyln0kgsea4eey2rftuaewu9jheugrd56rh3mf3z8z50f8s9z9hrn","addr1q93vyug8m3qrqc5qr9u28hzkvdpzyvmez85f58l8y9t2502xrdyd4ezx43vxjgw0dvz6dzy36jku3ptrr9mcv5dftkhsx6f5gt","addr1q93vyug8m3qrqc5qr9u28hzkvdpzyvmez85f58l8y9t2502xrdyd4ezx43vxjgw0dvz6dzy36jku3ptrr9mcv5dftkhsx6f5gt"],"fee":265073,"totalOutput":108699330,"tokens":[]},{"hash":"3194ef668752c4612e660d2f97c4649f17701693f59b204f6e31803c50b74030","blockNo":8116926,"blockHash":"f3d94072d7d4696b5d2d7cb93556b60ceea66504792729009d616a3386829626","epochNo":380,"epochSlotNo":215171,"slot":79011971,"time":"2022/12/09 09:31:02","addressesInput":["addr1q93vyug8m3qrqc5qr9u28hzkvdpzyvmez85f58l8y9t2502xrdyd4ezx43vxjgw0dvz6dzy36jku3ptrr9mcv5dftkhsx6f5gt","addr1q93vyug8m3qrqc5qr9u28hzkvdpzyvmez85f58l8y9t2502xrdyd4ezx43vxjgw0dvz6dzy36jku3ptrr9mcv5dftkhsx6f5gt"],"addressesOutput":["addr1q8ce6utu0dkaug6xtnpnrtqd4rjgxyulcqf0nt3k2tze8uyln0kgsea4eey2rftuaewu9jheugrd56rh3mf3z8z50f8s9z9hrn","addr1q93vyug8m3qrqc5qr9u28hzkvdpzyvmez85f58l8y9t2502xrdyd4ezx43vxjgw0dvz6dzy36jku3ptrr9mcv5dftkhsx6f5gt","addr1q93vyug8m3qrqc5qr9u28hzkvdpzyvmez85f58l8y9t2502xrdyd4ezx43vxjgw0dvz6dzy36jku3ptrr9mcv5dftkhsx6f5gt"],"fee":273169,"totalOutput":99887082,"tokens":[]},{"hash":"f0ff28c545e349c10e7fbebde09f6d27409cd4d332cedd7f16912597dd6eafbe","blockNo":8116424,"blockHash":"f84c5ede170dab44ad574832ad9d158c05fba489f40aea3ee286fbb0a19e15c8","epochNo":380,"epochSlotNo":205215,"slot":79002015,"time":"2022/12/09 06:45:06","addressesInput":["addr1qyecjgprat9qjdfkv6ln45eww5a9lwkgqn92x6lspd339ky00hv6dpawknxe42d8dlx42msv2nt8yej77vudk0uruvtsh2aeym","addr1qyecjgprat9qjdfkv6ln45eww5a9lwkgqn92x6lspd339ky00hv6dpawknxe42d8dlx42msv2nt8yej77vudk0uruvtsh2aeym","addr1qyecjgprat9qjdfkv6ln45eww5a9lwkgqn92x6lspd339ky00hv6dpawknxe42d8dlx42msv2nt8yej77vudk0uruvtsh2aeym","addr1qyecjgprat9qjdfkv6ln45eww5a9lwkgqn92x6lspd339ky00hv6dpawknxe42d8dlx42msv2nt8yej77vudk0uruvtsh2aeym","addr1qyecjgprat9qjdfkv6ln45eww5a9lwkgqn92x6lspd339ky00hv6dpawknxe42d8dlx42msv2nt8yej77vudk0uruvtsh2aeym"],"addressesOutput":["addr1q97h952r7ectjjnj3fxwzme2jclhksznkptxpa3hpsaf22p5eddx68qchvt9u00jjr0vkkscez0xyzxs3pjsve4n8xmsdrp775","addr1qyecjgprat9qjdfkv6ln45eww5a9lwkgqn92x6lspd339ky00hv6dpawknxe42d8dlx42msv2nt8yej77vudk0uruvtsh2aeym","addr1qyecjgprat9qjdfkv6ln45eww5a9lwkgqn92x6lspd339ky00hv6dpawknxe42d8dlx42msv2nt8yej77vudk0uruvtsh2aeym"],"fee":398921,"totalOutput":331084584,"tokens":[]},{"hash":"d56b4a0e14a633aa5db60dcebddadc1fd359d2f8b63b245d58b809bd4dee5ddc","blockNo":8116248,"blockHash":"3f7ae865a01f8161d595a57d656a3adbf4666b87e982f8e51a5782a18724d731","epochNo":380,"epochSlotNo":201504,"slot":78998304,"time":"2022/12/09 05:43:15","addressesInput":["DdzFFzCqrht7uc5WV2zB474VGVb4svdmwo533m62jYELZmJaTv1RAjuw9u3boi7TGvQXJ6kVyPzyp98Pt4JTqa2gZEWrtBenhtVxGWW5","DdzFFzCqrhse9F7kghQRjuWH7WicaFH6vmj1wWMnUxdwzejiGXQ8tnM4HCnTq2GHW71H8kbB4fgCM9gTxZsfVfeVXSQA9VcALatjngiH","DdzFFzCqrht7uc5WV2zB474VGVb4svdmwo533m62jYELZmJaTv1RAjuw9u3boi7TGvQXJ6kVyPzyp98Pt4JTqa2gZEWrtBenhtVxGWW5","DdzFFzCqrhsoHor9r6659AtQGbEw2S8r9V6cEAi7bEfJGgfPycSRK6qTMR42MmVWRQz4jz7Eb71YDMRQEUT8DaZx6tLDGYTTYZQR7Eno"],"addressesOutput":["addr1q9atjfpqwdtg7ytz0pz9zcaqvx8zr2uv6ysvc4csqynr683dzefudzxhadht99nh8gv4l3z93d486ygllgxuh2drrrpsdw6fws","DdzFFzCqrhsvkTApC1sxDoX6WtbYKKQbwMp9fvkkYjfwC8wsyLs1vTNoSxTJsM8CFhb9LmKbvErTnJXGofndpxz4Qp9jdpc9fvpYctvC"],"fee":386117,"totalOutput":357250978,"tokens":[]},{"hash":"21aaeb09c7538589dfee90e2d18939e15422fc3555cdfc65c890cb5b38181ba3","blockNo":8115676,"blockHash":"417939db9b6a118141921ac82653d00a0f301304e54828b850372320347d37a8","epochNo":380,"epochSlotNo":189614,"slot":78986414,"time":"2022/12/09 02:25:05","addressesInput":["DdzFFzCqrhsnWCC19yiB8nzEt5CXQGk3wvdYSCLTwQpCH9i6Ua9YxJAzgJxii3Xn5yUssooNufE3XkSr4JerXGtZWZABzfKgGuddzTbs","DdzFFzCqrhsipxqmmttvUtV6b4ptNdA8o7UWCnUSp6dhyEndSqDYrHSoEFcFJPjcsuuv7AAcE6pFvGL44Pj6bLnjDmAkmyZrfDA8CvXe","DdzFFzCqrhsdyFFye7zekEjcCeFsKjFHzMganSD8SBmL9WMwLU5BU94NFE8XtEbfWdAeNdvkipSuaTn2bbwaXCuMJZZ8RS3ou1Yoerdn","DdzFFzCqrht3Ps6QHze5qtEy9tJyhGvmfn5n9xo5MDeXFtgo1TUtZ1iWthNyyxXjjx1XwXF2NRzsMGX5fQqoHSK2jRi6MWwp2jABS8y8","DdzFFzCqrhtAZtAKjtDM3v8HVGYyyxUQVHo8pVdEmi7DYQfCbQ9oqUSSyVaLW123o6ccxk4n3DWRYi3Z5TE6EjzaVD42tVf39tuLdL7n","DdzFFzCqrhsxRBs9XekHm3WKiQ22CJdvt6GoVBRyXRN2SmBEtFBXbcQaaTiHxEsh3CpGNPgrQ3CsbCHrvnwP3hEQbWLxpNSTBv6LNnuD","DdzFFzCqrhsqzAPyJup1cf3pXUWUL7NvHzfkbUPqZxyKQRSJ2xbUzw4yJittq43Y9odAEod7K5ZKSfjDKEGJeMaepqmPTuN2KgxcSvw9","DdzFFzCqrhstau7zx1Atxn4gxcR5Yvj2o6wGAnUsRVFqQqKaYe1bBPWza11kXaYSbPMNNmUFKy5ZpimLZRy71G38unAqtpPwqFuUK7Ec","DdzFFzCqrht3zBDUQMX2aGsytydwES48eVcw39dVazgp8jrgyWqiKVqdgmpWuMNpaB5VTkzCZhBVEEvpL2GQjbwQFt2djJxrzgeraaWW","DdzFFzCqrhsiGwQC1XRcaz4wkFn8S5se8h7yNsQB4ANeiDMakZToEcj3v9aZxcP62YyYNWGur1VdSFvpSCYySWm3kqU3qvRwDWZJopXo","DdzFFzCqrht3JkSbZKfm6YnUF1hvXfBEZShDLPeiAz4HVk8enLxgJNBzht1XcLwpda8LLdSZ2PSocDJ1aKyi6JSSLWpQVSNQky2KGBos","DdzFFzCqrhstcsdkzUzFHtLs7o5wL34xUs2zFZwvck6tD1PEMiPGwep2UdAK7sAG4voETUBQCMuzo8gCph744usd8yS94885YcvxTNS7","DdzFFzCqrhsteDudzk64UbYck8EcBpwotkedCyvd7He7NRYkYo2LGQnYErYAuUwMcBiYTpa9YhkbxQLekxa9mmCMy7VocBciuHggZdPL","DdzFFzCqrhszddhHT3pUpfUsVxAi6GR5ep3gbz59vpvGjbdQWwrWDCkz2u5YbyjGHKVyt83K9Zt2YNRDoCsRsy7itBU8vCJaKdWS5YKd","DdzFFzCqrhsrvd8eJzBVYfW9c99FYMZeyk13bdf5JrM3xgimXBdWgNSP2FTwFveZ95x2aU1hRbnKLLhpk2YPQBVjutJAoNdSASW1Dxm8","DdzFFzCqrhsf4F2Da4oJm2XJeX3RRMfDJtgBhepYETcZR5HmEsYbAt13BLxnFvuv7HVYQSzDDRvwYR8uD7hRzrx6fx8ftryP3gQVx7cQ","DdzFFzCqrht54e4EpL1G5r3MuBE9jt3e9eS9vnea7GGH4fBLtmb77JnUhH9K2zERLYMZhCd8vR4p7zYEc3TPzrKYR9Pfnmdd8SzbqHVi","DdzFFzCqrhsecmkgJE4VrMs8dbC1zXnTNnTmrJWrYHegm6EJVSijaVmeagz8eGhdPvuvhBVe4LSHVkFAMgfJ46h1GLRhZx5GZ9RzkMdD","DdzFFzCqrhss2DPEvD5jeQ7LupjPNocnaKkPxXn6RHxjwqBbqoR58NEuigL2go8gg5MPTkSr9EUoXuY3CVz6cdGFfUqQjzycmxeBLTFW","DdzFFzCqrhsmW5vTPrnEduxmrmmNrujRAPLoCneuC2JeusshMBPdXeqCyHAZtCLmRx893UPpUJ8yoh1nEWqEvCQm3V8RKCegVwZ1XTLf","DdzFFzCqrhsqtZQu9uazDkGuoXCwCLkmWi9FzVXVVAcq3ALb6vT76zhHoaXXYFT9PY3ibMX1X25h1FixpwxUbmBkPMh8UNmwnarwzAiU","DdzFFzCqrhseaNi9oaYUjBXqiejb4LUs44wZN4teypar8FSfupRvKt8nGWRcDys2jyDxCpdUckJnrpdBFNcT2oWSwEJax5pBu7eKhpoD","DdzFFzCqrhsdzK42MpiYLrWq4RcVTktQvBLy44xqqfUNDCQmY5mdyZ4Rrk9mb41wQD84G41uUWBfdgN6cEN692v4xFfKn2UNqejQ5Ur1","DdzFFzCqrhsta5bvC59iDLjn9dj7reAnLg8cSEGL4RvpPJkhC383mLwXUjFDGoiaYcHVifagLvBdoMGe7Rr8xzqTDxN43xbRaREqtseR"],"addressesOutput":["addr1q9atjfpqwdtg7ytz0pz9zcaqvx8zr2uv6ysvc4csqynr683dzefudzxhadht99nh8gv4l3z93d486ygllgxuh2drrrpsdw6fws","DdzFFzCqrhse9F7kghQRjuWH7WicaFH6vmj1wWMnUxdwzejiGXQ8tnM4HCnTq2GHW71H8kbB4fgCM9gTxZsfVfeVXSQA9VcALatjngiH","DdzFFzCqrhskGdRcfp41nyrGBuJ8bFqrRQ5f5trdoRqzf1Y2Su7CR1dnAjX2VPURWRicgWgCyRsSKbBYqsD6ybFUvS6KybjTxP7G3fvu","DdzFFzCqrhsisDKKeeLBQRq11MUn7t2tDtQeT1U69WAT5rxJDePjHEWiotGuGwetDoRvEkpEkuwbdDnGvvTutD2EBc6S5SJzQfAYNrN7","DdzFFzCqrhspMVrYqLqdQBz33n3qHUvkmcZAkF1tLMQshJ5Z6ru4Z88VbrMHeZwStDdUhYPmamhA3vGq2d1CqfhVyjdH6NQbE7dr8f4H"],"fee":1115989,"totalOutput":51418657430,"tokens":[]},{"hash":"436df14545f196c9604b13adff7597bd2b9909334114db9ac4a326b67698f2c6","blockNo":8115404,"blockHash":"7b04fd186525e674cc9bda78994337d2e03a59df10f547a31671fb13fa66cbbe","epochNo":380,"epochSlotNo":184259,"slot":78981059,"time":"2022/12/09 00:55:50","addressesInput":["addr1q93vyug8m3qrqc5qr9u28hzkvdpzyvmez85f58l8y9t2502xrdyd4ezx43vxjgw0dvz6dzy36jku3ptrr9mcv5dftkhsx6f5gt","addr1q93vyug8m3qrqc5qr9u28hzkvdpzyvmez85f58l8y9t2502xrdyd4ezx43vxjgw0dvz6dzy36jku3ptrr9mcv5dftkhsx6f5gt","addr1q93vyug8m3qrqc5qr9u28hzkvdpzyvmez85f58l8y9t2502xrdyd4ezx43vxjgw0dvz6dzy36jku3ptrr9mcv5dftkhsx6f5gt"],"addressesOutput":["addr1qy2zqmc6yv0wzynu4fz36hpg7zfqvkl35ypcpwjczhu6z3ymlr9h48l5xegttenjv6rf2yal7ky4q5yl2t98r59kyu6sqqmvg8","addr1q93vyug8m3qrqc5qr9u28hzkvdpzyvmez85f58l8y9t2502xrdyd4ezx43vxjgw0dvz6dzy36jku3ptrr9mcv5dftkhsx6f5gt","addr1q93vyug8m3qrqc5qr9u28hzkvdpzyvmez85f58l8y9t2502xrdyd4ezx43vxjgw0dvz6dzy36jku3ptrr9mcv5dftkhsx6f5gt"],"fee":278097,"totalOutput":40368097,"tokens":[]},{"hash":"98c7401041920de1a625098a874f5f374a1893a247416244af2595e67bd5771a","blockNo":8115328,"blockHash":"7ccf64fd1b1bc7e52f6e895d19e878c3459b13b74e52281b48506ca9b58b05b4","epochNo":380,"epochSlotNo":182748,"slot":78979548,"time":"2022/12/09 00:30:39","addressesInput":["DdzFFzCqrhszwFeLvk6VNCr99BRn7bk724GSKNS1pNfScp8Xxazn9azGNyVnsks9WjK3jSmTbh6XU7iZD84FxSkTVKsHKHDeV6EHfhEN","DdzFFzCqrhspCqJXYvbRgxrGuDNhUMkojRoLdzLpzTZH9ycPU7rmKqC7DZPM1oyZWW116h2vQZAnBKLnJT6axLZVVhfMBrE6Y8vesgqq","DdzFFzCqrhshcjQhArMEtKT6ouaQTvAvN4MQsbS3pR6hkFmYbJufTotmemLKSycEgehjBjnHJqJ7niipBsgaxUnUJ7m4a8vgaMQfhFzb","DdzFFzCqrhtAQVhEu79s8vUS1CZkxN9Sx9dghJuWhq3Yh3eZzuFv1oLZNtZGDQfDw22XgC3QWcdYvFwRXe4bdi1VjDLngEtU2epp8YHw","DdzFFzCqrhtAEzouYTD63jb2WbxVygaouR1nkEadR5SVnNRdxxLx8jhLuZCCTrHbkSSNKp7gLDFgnAAR7ZixXtiv2suP928NQzZf1DDj"],"addressesOutput":["addr1q9atjfpqwdtg7ytz0pz9zcaqvx8zr2uv6ysvc4csqynr683dzefudzxhadht99nh8gv4l3z93d486ygllgxuh2drrrpsdw6fws","DdzFFzCqrhsf4F2Da4oJm2XJeX3RRMfDJtgBhepYETcZR5HmEsYbAt13BLxnFvuv7HVYQSzDDRvwYR8uD7hRzrx6fx8ftryP3gQVx7cQ","DdzFFzCqrhsnWCC19yiB8nzEt5CXQGk3wvdYSCLTwQpCH9i6Ua9YxJAzgJxii3Xn5yUssooNufE3XkSr4JerXGtZWZABzfKgGuddzTbs","DdzFFzCqrhtAZtAKjtDM3v8HVGYyyxUQVHo8pVdEmi7DYQfCbQ9oqUSSyVaLW123o6ccxk4n3DWRYi3Z5TE6EjzaVD42tVf39tuLdL7n","DdzFFzCqrhstau7zx1Atxn4gxcR5Yvj2o6wGAnUsRVFqQqKaYe1bBPWza11kXaYSbPMNNmUFKy5ZpimLZRy71G38unAqtpPwqFuUK7Ec"],"fee":932069,"totalOutput":76616531732,"tokens":[]},{"hash":"51b339e1e6770e425a4e2f2f64a53c6c415229f4f29962762ae3dd6dbf8d3aa4","blockNo":8115014,"blockHash":"9765f528247f19d8c9f70a83e9f8ceab9bb4fabc2e25d5c646c8bf73ebde8369","epochNo":380,"epochSlotNo":176361,"slot":78973161,"time":"2022/12/08 22:44:12","addressesInput":["DdzFFzCqrhsfHbsREJSCMVhPpKadRe84we4SFk6N2TiAQSeUJxpK9rVSNS8EC1GrWiu5SxEDpkyzKeNf68957g9ygcJybsVRpj3NZzMo","DdzFFzCqrht5E8CewoNZBh3eHUZAwxxWHRk8LRth7Et84Uh8PeUfHQTtB3rWJF47aTeYvDWjYts47JKQFYHWP5iojvTMVGGhz67x8aed","DdzFFzCqrhsnBskApwYjUgDemKQqj9ZgDwgLHSP2y5GVjPobA83yQuujY6N8fSzJo8kfAXJcbNUA9AvYz2yYvmU6jK5oTnrHDUVcBfS4","DdzFFzCqrht9FRpS2WxAzjM1W17U8MEumiSBFwSts7FBhZbB8ydepDdbYxfh4ZgQhZ4TvFJoKHVwafHb94vSb2NLQCtBAwrhWS8puVxg","DdzFFzCqrht3fHeXx3og7ADwEpDEK4FFKYpfz9E4Y6NBhLavZTSAqh4WpbzRz8YFy5fNfWhhCPraVtov6MFiqFiSjRJkkaDJcirDBoAj"],"addressesOutput":["addr1q9atjfpqwdtg7ytz0pz9zcaqvx8zr2uv6ysvc4csqynr683dzefudzxhadht99nh8gv4l3z93d486ygllgxuh2drrrpsdw6fws","DdzFFzCqrhshcjQhArMEtKT6ouaQTvAvN4MQsbS3pR6hkFmYbJufTotmemLKSycEgehjBjnHJqJ7niipBsgaxUnUJ7m4a8vgaMQfhFzb","DdzFFzCqrhszwFeLvk6VNCr99BRn7bk724GSKNS1pNfScp8Xxazn9azGNyVnsks9WjK3jSmTbh6XU7iZD84FxSkTVKsHKHDeV6EHfhEN"],"fee":573645,"totalOutput":28020052781,"tokens":[]},{"hash":"5f1024f94f14c69d5167aab442d5c0c8467a6baba1b87ca91a81d46fabb68241","blockNo":8114189,"blockHash":"8581f34609add97879f04b004b7f5290582b8c36f8c3500908d5ae04ba9ca331","epochNo":380,"epochSlotNo":160259,"slot":78957059,"time":"2022/12/08 18:15:50","addressesInput":["addr1qxn0kuqk8mysdv8rpqhl39vp6njnxd7dw3yvkcvdk9ke4revmezswc6ql6x9kekl6zm3ptc6g9jlwln9lt6sml5mcl0sndmr62"],"addressesOutput":["addr1zyq0kyrml023kwjk8zr86d5gaxrt5w8lxnah8r6m6s4jp4g3r6dxnzml343sx8jweqn4vn3fz2kj8kgu9czghx0jrsyqqktyhv","addr1qxn0kuqk8mysdv8rpqhl39vp6njnxd7dw3yvkcvdk9ke4revmezswc6ql6x9kekl6zm3ptc6g9jlwln9lt6sml5mcl0sndmr62"],"fee":367106,"totalOutput":51422821,"tokens":[]},{"hash":"e96196191fa8a13510b208b49ada8508512a7f3f22dbcfff02a9886dae626101","blockNo":8114126,"blockHash":"8b330ba688db4fd948ce2fca54c1ef072fb3110b6e5ee8fed8b4e28def887644","epochNo":380,"epochSlotNo":159143,"slot":78955943,"time":"2022/12/08 17:57:14","addressesInput":["addr1qx4ydnyt4pq79es8slkkearavaa05jcdux2cyl6f7d92j2mue6wlm2p5rlec9hnhdk8jtlsegvgx03dhhtnmn8rl477sgh7m6p","addr1q90ly4v780lwkmn4hfxzcc3wv4utfmy4r34w99lgse0p2wnue6wlm2p5rlec9hnhdk8jtlsegvgx03dhhtnmn8rl477s9w4zep"],"addressesOutput":["addr1v9pa6yervft3kxjpm3qqm7l9uumd4paj0npd59h0mg7d9pswf307j","addr1q9tnvv33s9khunhgmxc5dxmv9jt70ekg4nmf5gmvj5qxncrue6wlm2p5rlec9hnhdk8jtlsegvgx03dhhtnmn8rl477sws3wl3"],"fee":350213,"totalOutput":27896067,"tokens":[]},{"hash":"a000a115e980a902dc396ff30b10858bfe0b8e774cccda1ca544cd7a4c8bd1e4","blockNo":8114088,"blockHash":"5c274af9dcc9989cefd836b6c0a604d723cd22fa32772bd3da41b4fea6d813b1","epochNo":380,"epochSlotNo":158548,"slot":78955348,"time":"2022/12/08 17:47:19","addressesInput":["addr1q9ssxkcn4e4266k7j0dx9chpk0rkx3cmdtk86hhvxndam3mue6wlm2p5rlec9hnhdk8jtlsegvgx03dhhtnmn8rl477smy0mdq"],"addressesOutput":["addr1vyc7ca9flp5gfeapd78uxzzq7l6qnsytj85n62lr5smhgssen2u2s","addr1q90ly4v780lwkmn4hfxzcc3wv4utfmy4r34w99lgse0p2wnue6wlm2p5rlec9hnhdk8jtlsegvgx03dhhtnmn8rl477s9w4zep"],"fee":344185,"totalOutput":30228618,"tokens":[]},{"hash":"e2a61fceb500891e53c22ba9205f99f0d7c3578270eea35d73c31bf1ffdf39c7","blockNo":8113004,"blockHash":"e1a282db48a6f2a16149da129cf0908d7bfa1c40fb344006bec4ed91978aacd9","epochNo":380,"epochSlotNo":136530,"slot":78933330,"time":"2022/12/08 11:40:21","addressesInput":["DdzFFzCqrhsjxAqPXHeziUTyokYNA7WbAYuE2sRdsk7UcKqaN5Sr3ZpLKsiXJkPcd8XGdfi96Y17cP9GmTnFJcqMX6mACtghd8ZDRNrd","DdzFFzCqrhstgbX5LwtHvJi3WhCK1uWgAikVSCsBGUaQuMYQACjxx5dQJWPXYaUWCb6biaAbwrAziiqBnuod9i4g6jxogNt7cTJrbVKK","DdzFFzCqrht8TVLnMPnSPv9vEiMjP1XXR7QJMjaef2vsn3ygESVuRsHyu41giBZqegqMMvYWVJuXiP5nNSEeHAL7k117zeJjr5QxM15F","DdzFFzCqrht5bV1GCjV74JfuUfSGVDdcFtvLxpkB4Hd1kBcoyNUkeMasnP4su2f4hz4UMrzy4p4KqSZRbZP14UHBWKrmobyuyFUmzUmZ","DdzFFzCqrhtC4Na7pRtDkGNT5xzPwCaWUiBYSLTU6aWpnAitDg1ZfTRsSnqHf5tja32WVoVj16okPHA1ECD12CT356G5by449aL32Rft","DdzFFzCqrhtBaB8AXMe5nzxuHUh9qxCVQphcgzrRutT4qRWXM8DwfjJkUZ9Eadz1QaPwPSL2th9ms2xzFS2qxU1dAKEuC7ma91VCy3rQ","DdzFFzCqrht7Ma8rftaQvTFLDrn15QKRzwMo7jiXtXdpBZqVkPvyroQTPGJTJHhy4YbdGVY2ihqcEbXHXFZm5XRLMXotTtknJ5sVnWpK","DdzFFzCqrhszQ4Smuxixu2HQu6M5BKg23UsGLXPpFyQxorZKXgideVon71DxAP7dg2qkv3RCT3stT7cvpgfQoojKfdxc92r9HpptjGik","DdzFFzCqrhseac1uNA2bbYeg3ZnRZyWDC5NAVQZ4L9nJVMH8CkBdh77uPq81ksekCsEyTpYeMQhWJkRZZyEQQWLeANVT3rh19k9MSsTb","DdzFFzCqrhsuvKPM3jnehgg1hLM2gkghr8TBLgHjFuz3zYKQEGAppy71Cow9eUsSnw2UGyHAhc4WhGYoJtJhGkKgpqvmhs3SNmEZ4BCH","DdzFFzCqrhsvQCeB9RDunGTQpFWwt1C4Nss9giPbRzckpUYM5WouUixUBWjYAwjwvCt943ripiKKaBcdaQAwRkJsoLMoLQdn94GGdxiv","DdzFFzCqrhsrkkB9UYDVUmn6bSNz2jvE4zkagpWHVqwArgGgX26jEN1sYq9zfNJU2rxR3TS35X8fXTcixSzAdTN7qnzic8hXxyoyznyN","DdzFFzCqrht3kJvdp4CzRpBULV41W96QewmvbKo8jLEEKoTjAxAuRUqx2FKNTosGEfuF11doyyfkeprQHK31ZPE1KkmmgdB5MSxNT9hd","DdzFFzCqrhsdzK42MpiYLrWq4RcVTktQvBLy44xqqfUNDCQmY5mdyZ4Rrk9mb41wQD84G41uUWBfdgN6cEN692v4xFfKn2UNqejQ5Ur1"],"addressesOutput":["addr1q9atjfpqwdtg7ytz0pz9zcaqvx8zr2uv6ysvc4csqynr683dzefudzxhadht99nh8gv4l3z93d486ygllgxuh2drrrpsdw6fws","DdzFFzCqrht3fHeXx3og7ADwEpDEK4FFKYpfz9E4Y6NBhLavZTSAqh4WpbzRz8YFy5fNfWhhCPraVtov6MFiqFiSjRJkkaDJcirDBoAj","DdzFFzCqrhspCqJXYvbRgxrGuDNhUMkojRoLdzLpzTZH9ycPU7rmKqC7DZPM1oyZWW116h2vQZAnBKLnJT6axLZVVhfMBrE6Y8vesgqq","DdzFFzCqrhsiTZGqC9bEiEeHYnc7BrpTWA8YyzP42kTScBujno2GyTaXvY6BrD7rayADm3U2nZqVxVtHjLLDmttz5uhfH1jgoHwBQAtw","DdzFFzCqrhsprH4JWexySFp6jF4FZNswEynuTbKjPeEi51wQDVcNJfkDSmR7WNMXE2WG1vFEsYv84QRq3qoq1FFS1DdDwNgVwkcCA6VT"],"fee":1019189,"totalOutput":50145776062,"tokens":[]},{"hash":"9723063aeb09368c27f9afe027ab4e55bdc3e2de396d0f82af7cfc24be332bda","blockNo":8112354,"blockHash":"79cbfd4318c5ac426ecf77a0458a02d9b1e2881bd918214ee5368fb0a22b8eee","epochNo":380,"epochSlotNo":123397,"slot":78920197,"time":"2022/12/08 08:01:28","addressesInput":["addr1qywsmahvhe2re6z8nk5a4wv9dv2f729w73ks2zj2xq86a0nue6wlm2p5rlec9hnhdk8jtlsegvgx03dhhtnmn8rl477s8q36le"],"addressesOutput":["addr1qyxpajlr2sv85a7qw86dvhfw29t787spcnp5a57gjl9ss8k2h8y4gwedd2z2nx6544nalel0zd0g0kel44c96xy3vxvqkd5h9p","addr1q9ssxkcn4e4266k7j0dx9chpk0rkx3cmdtk86hhvxndam3mue6wlm2p5rlec9hnhdk8jtlsegvgx03dhhtnmn8rl477smy0mdq"],"fee":345417,"totalOutput":32972803,"tokens":[]},{"hash":"2acd364ac4e0e545f72976d8b41ba4111602be0fe900e2c3742d698bd64369a2","blockNo":8112353,"blockHash":"8768388b03601ac90070e7ba915e46f9e1092f05060a7a27310e959e5c639c8f","epochNo":380,"epochSlotNo":123337,"slot":78920137,"time":"2022/12/08 08:00:28","addressesInput":["addr1q8cmyxzj5s97k62ktruhlz5kquj6lpxl3py2rhsnylaq87tue6wlm2p5rlec9hnhdk8jtlsegvgx03dhhtnmn8rl477sygm3gr"],"addressesOutput":["addr1q87k9zrel8zsqpqhue55u7356gch8a4wp7xfpg5et2nn3q72h8y4gwedd2z2nx6544nalel0zd0g0kel44c96xy3vxvqwq22c9","addr1qywsmahvhe2re6z8nk5a4wv9dv2f729w73ks2zj2xq86a0nue6wlm2p5rlec9hnhdk8jtlsegvgx03dhhtnmn8rl477s8q36le"],"fee":345417,"totalOutput":35718220,"tokens":[]},{"hash":"fad63f2efeb46b72c8fc32e74c68cfd6655768232489624cd61003171792f120","blockNo":8112231,"blockHash":"6d04202d940ddf003da7bef8c278904b69c91be3ba97bdadc0eb0be1734f4701","epochNo":380,"epochSlotNo":120708,"slot":78917508,"time":"2022/12/08 07:16:39","addressesInput":["addr1qyn5umy3umakp2m3qlvndcz7qchwyvmjpjl0mkwxe77kfhnue6wlm2p5rlec9hnhdk8jtlsegvgx03dhhtnmn8rl477svy77lq"],"addressesOutput":["addr1v8d42pvp6jq700wh8xnx7qgd6ckvnt34pz7qn82furp9l9qwxyj6n","addr1q8cmyxzj5s97k62ktruhlz5kquj6lpxl3py2rhsnylaq87tue6wlm2p5rlec9hnhdk8jtlsegvgx03dhhtnmn8rl477sygm3gr"],"fee":344185,"totalOutput":41063637,"tokens":[]},{"hash":"9ad8cbc2ec89cbbf7923fde1bdfe8815a46796e20401e438f5b1a28755608d7c","blockNo":8112176,"blockHash":"18b07f08d7dcd0fd04672058615287f65a8f19c90e80947a5f2b356f2e5912be","epochNo":380,"epochSlotNo":119845,"slot":78916645,"time":"2022/12/08 07:02:16","addressesInput":["addr1qxggv0y8znq0g5jk25sc7jmheh4k3jvn3rcncm5kty6d5qtue6wlm2p5rlec9hnhdk8jtlsegvgx03dhhtnmn8rl477svvm9lh"],"addressesOutput":["addr1vyc7ca9flp5gfeapd78uxzzq7l6qnsytj85n62lr5smhgssen2u2s","addr1qyn5umy3umakp2m3qlvndcz7qchwyvmjpjl0mkwxe77kfhnue6wlm2p5rlec9hnhdk8jtlsegvgx03dhhtnmn8rl477svy77lq"],"fee":344185,"totalOutput":46407822,"tokens":[]},{"hash":"f7d1ddcefed4d54a9fbe1fc6bedb5481317cf0177c8d8dc9f3fdba84e321a75f","blockNo":8111874,"blockHash":"a7033710f3fd1a279b92c6ce1bffa0059910ed155db866d80512428570fb4911","epochNo":380,"epochSlotNo":113930,"slot":78910730,"time":"2022/12/08 05:23:41","addressesInput":["addr1qy0xznhgdhqj9u4g6jjdntf2cxy5lyad8j2p6a6dp8jwwttfq4uncdzu6hqlxn7gva2xsaln40x226fl8fsnqyyvzxtqqm3qw9","addr1qy0xznhgdhqj9u4g6jjdntf2cxy5lyad8j2p6a6dp8jwwttfq4uncdzu6hqlxn7gva2xsaln40x226fl8fsnqyyvzxtqqm3qw9","addr1qy0xznhgdhqj9u4g6jjdntf2cxy5lyad8j2p6a6dp8jwwttfq4uncdzu6hqlxn7gva2xsaln40x226fl8fsnqyyvzxtqqm3qw9","addr1qy0xznhgdhqj9u4g6jjdntf2cxy5lyad8j2p6a6dp8jwwttfq4uncdzu6hqlxn7gva2xsaln40x226fl8fsnqyyvzxtqqm3qw9","addr1qy0xznhgdhqj9u4g6jjdntf2cxy5lyad8j2p6a6dp8jwwttfq4uncdzu6hqlxn7gva2xsaln40x226fl8fsnqyyvzxtqqm3qw9","addr1zxgx3far7qygq0k6epa0zcvcvrevmn0ypsnfsue94nsn3tvpw288a4x0xf8pxgcntelxmyclq83s0ykeehchz2wtspks905plm","addr1qy0xznhgdhqj9u4g6jjdntf2cxy5lyad8j2p6a6dp8jwwttfq4uncdzu6hqlxn7gva2xsaln40x226fl8fsnqyyvzxtqqm3qw9","addr1qy0xznhgdhqj9u4g6jjdntf2cxy5lyad8j2p6a6dp8jwwttfq4uncdzu6hqlxn7gva2xsaln40x226fl8fsnqyyvzxtqqm3qw9"],"addressesOutput":["addr1qxrqlzx4utag3j4h483hndagvcj6gp9yks0ems9qp9yrs8semf0cka44us98eggchy8u3g3n9x307wtcqd55qxu4sx8qa4rust","addr1q9cwvremt6n320s2e3agq0jyq82yhrk3htsu0w426xnz5us70z4w0jgvcdkkynmm8wmds66jd9kusnjfpu6raw5fqp0sr07p5w","addr1q8p6lpxgmf2338735eagzfcc5qcex5um9zxhu2gwvxwhqap3zftqrpxdjz76ptnc7uqcldv7uwv2ym9pt7gn2gq90auskyg32y","addr1qy0xznhgdhqj9u4g6jjdntf2cxy5lyad8j2p6a6dp8jwwttfq4uncdzu6hqlxn7gva2xsaln40x226fl8fsnqyyvzxtqqm3qw9"],"fee":546675,"totalOutput":20675978,"tokens":[]},{"hash":"7513737498f0761706a85ae3fb8b20e71ab33f77fc619f08f67bfdf9d5ea9b65","blockNo":8111683,"blockHash":"249d4c343f18d5bd0a84938e5e8ee4be27ff5bc262a719610fb189259a91516d","epochNo":380,"epochSlotNo":110299,"slot":78907099,"time":"2022/12/08 04:23:10","addressesInput":["addr1qy0xznhgdhqj9u4g6jjdntf2cxy5lyad8j2p6a6dp8jwwttfq4uncdzu6hqlxn7gva2xsaln40x226fl8fsnqyyvzxtqqm3qw9","addr1zxgx3far7qygq0k6epa0zcvcvrevmn0ypsnfsue94nsn3tvpw288a4x0xf8pxgcntelxmyclq83s0ykeehchz2wtspks905plm"],"addressesOutput":["addr1qy0xznhgdhqj9u4g6jjdntf2cxy5lyad8j2p6a6dp8jwwttfq4uncdzu6hqlxn7gva2xsaln40x226fl8fsnqyyvzxtqqm3qw9","addr1qy0xznhgdhqj9u4g6jjdntf2cxy5lyad8j2p6a6dp8jwwttfq4uncdzu6hqlxn7gva2xsaln40x226fl8fsnqyyvzxtqqm3qw9"],"fee":349179,"totalOutput":6877888,"tokens":[]}],"totalItems":11978,"totalPages":599,"currentPage":0}