{"data":[{"blockNo":8398715,"slotNo":84815062,"epochNo":393,"epochSlotNo":402262,"hash":"0d8544296f82f79fb8e2da1236266de175079202c5698fb989904078851b4504","time":"2023/02/14 13:29:13","txCount":18,"totalFees":5412288,"totalOutput":22985482253403,"slotLeader":"7a990e7ee931f9d548a977d5cf2194f26f7e2f1158752e0bb94a073f"},{"blockNo":8398714,"slotNo":84815023,"epochNo":393,"epochSlotNo":402223,"hash":"f025f39e7565024b49cf79189e24b09ca72a7034ecdb6b3a649bd130df7b310e","time":"2023/02/14 13:28:34","txCount":7,"totalFees":3001620,"totalOutput":48450829432,"slotLeader":"ac5ba151fae6889e25021acc723b0e34655828bf3328b6f1180e1d65"},{"blockNo":8398713,"slotNo":84815016,"epochNo":393,"epochSlotNo":402216,"hash":"a4f819c48d39d60ba91c38e065ef024f42483ad03172e5003763e79f94d71b71","time":"2023/02/14 13:28:27","txCount":9,"totalFees":3346515,"totalOutput":4641613453894,"slotLeader":"38927599cc3ff6b081501e0ee1dc4f0cb8ba012b3de8b49a785bb05a"},{"blockNo":8398712,"slotNo":84815000,"epochNo":393,"epochSlotNo":402200,"hash":"3164d92627763c9a26284d3facf69eb7a7499ffbcdf71d752e3f32211b90f34f","time":"2023/02/14 13:28:11","txCount":19,"totalFees":5626527,"totalOutput":182984531860,"slotLeader":"10bc63e4689bd58b8a7d248a99360a45a80d047b0b4752a7b00b754b"},{"blockNo":8398711,"slotNo":84814976,"epochNo":393,"epochSlotNo":402176,"hash":"335b1de09a2f4021afcaae49ecbaab2772f74e64e2cba888cef9eb29eaff9e5a","time":"2023/02/14 13:27:47","txCount":10,"totalFees":2739840,"totalOutput":716838814505,"slotLeader":"4aea697c45e39e37e5d842ec8cf6c01a714e88db33a1ba0565ab59af"},{"blockNo":8398710,"slotNo":84814957,"epochNo":393,"epochSlotNo":402157,"hash":"39425828ef37358c3e0eb59084fcd1caf1eea06a9bc88bb218a74352a624873c","time":"2023/02/14 13:27:28","txCount":14,"totalFees":6739036,"totalOutput":4106310666125,"slotLeader":"dd47ad6a8fe21ca342e28a163cb74e69b13d519538de3d06ac26aad2"},{"blockNo":8398709,"slotNo":84814946,"epochNo":393,"epochSlotNo":402146,"hash":"2753d3d5833a5562f9088ec0dac9c3789c7671c4d72db43f810dc78a8ba18408","time":"2023/02/14 13:27:17","txCount":24,"totalFees":8350205,"totalOutput":847276185206,"slotLeader":"16f6e9a767dbb9400d3dbe9f7374eef7c706bda870592a7dabd47a75"},{"blockNo":8398708,"slotNo":84814915,"epochNo":393,"epochSlotNo":402115,"hash":"cb9087fcf58c32b1550c218046ef03fdc5b26f77f75545711c2bce3351e161f8","time":"2023/02/14 13:26:46","txCount":2,"totalFees":407897,"totalOutput":300616537629,"slotLeader":"e069112add6af5fa1a11a1716357de1848c22229eb2eaa007702d5c9"},{"blockNo":8398707,"slotNo":84814912,"epochNo":393,"epochSlotNo":402112,"hash":"a0b90949c508d5a29ce9c9473806004075140705747c761e8e2e0ea7b7704624","time":"2023/02/14 13:26:43","txCount":10,"totalFees":5384276,"totalOutput":2789178170658,"slotLeader":"1b268f4cba3faa7e36d8a0cc4adca2096fb856119412ee7330f692b5"},{"blockNo":8398706,"slotNo":84814895,"epochNo":393,"epochSlotNo":402095,"hash":"c623cba14697789b1de131b492b1789c28bdffd470f561d8e1501515e111c85e","time":"2023/02/14 13:26:26","txCount":9,"totalFees":2713514,"totalOutput":6115662447,"slotLeader":"945b1e23eb7aadfa971de44a35dc2eee8cb1af795cabe8ee192c2e39"},{"blockNo":8398705,"slotNo":84814881,"epochNo":393,"epochSlotNo":402081,"hash":"89034e9607cf27e8cdde5174ab822e9be72ca4c1d9499500af6b03f68df26390","time":"2023/02/14 13:26:12","txCount":4,"totalFees":1790348,"totalOutput":3372493951456,"slotLeader":"3200ed8ab323773d4d1a64333a0d79b93dc8f3a45c37f88141e34317"},{"blockNo":8398704,"slotNo":84814873,"epochNo":393,"epochSlotNo":402073,"hash":"03ca9c52a29ba44df78afdf510d448cf77298e08758ba17d90e229d5aa7b0215","time":"2023/02/14 13:26:04","txCount":8,"totalFees":3350309,"totalOutput":7091292209,"slotLeader":"86a1ac91997ff78ae5f9d892afe8f3293af1dc616e00f96edbdeccc5"},{"blockNo":8398703,"slotNo":84814854,"epochNo":393,"epochSlotNo":402054,"hash":"2fd424f12ad3aa186c84a480be039c67578a871a47c8a1ce4d5d75bdc86c6a17","time":"2023/02/14 13:25:45","txCount":19,"totalFees":6634130,"totalOutput":135964105117,"slotLeader":"5cfc3c3314ffe6748ff3a4ca34b4b841ed81caacfee24c341c21a905"},{"blockNo":8398702,"slotNo":84814820,"epochNo":393,"epochSlotNo":402020,"hash":"9febd8b2e0bace4bbc8b4c03e62d02d67a7fee33633f5539447e7120900be7d4","time":"2023/02/14 13:25:11","txCount":11,"totalFees":2380458,"totalOutput":25137629820,"slotLeader":"3116c834a09b0060aef7284f63d3275456364e3309b3c19ec328af60"},{"blockNo":8398701,"slotNo":84814814,"epochNo":393,"epochSlotNo":402014,"hash":"8fdf8aa5a8424a6e098e08562774bb6653e19d54b9f8d09f4f1ab19a18ffc45d","time":"2023/02/14 13:25:05","txCount":13,"totalFees":8163739,"totalOutput":24658636055379,"slotLeader":"7a990e7ee931f9d548a977d5cf2194f26f7e2f1158752e0bb94a073f"},{"blockNo":8398700,"slotNo":84814801,"epochNo":393,"epochSlotNo":402001,"hash":"979493b508ebc4aa4aff605eec9a124b3cf6fab08bbee2bd51d9015787c3954a","time":"2023/02/14 13:24:52","txCount":25,"totalFees":9986211,"totalOutput":15379221247311,"slotLeader":"20b95f87c93f3be9e5094c8fbdb924f9ab8b5e1c7bfb542d3a8bc7fc"},{"blockNo":8398699,"slotNo":84814770,"epochNo":393,"epochSlotNo":401970,"hash":"174a9b4c3c758b0637689d4f5ba3f6f6dfc20a55d935d592d6b5e5c42bbce8d7","time":"2023/02/14 13:24:21","txCount":4,"totalFees":1037192,"totalOutput":102464972159,"slotLeader":"c4a4b16b33b63da2117f4a84d3ea686f34fcf9f4603ce016af9e39aa"},{"blockNo":8398698,"slotNo":84814765,"epochNo":393,"epochSlotNo":401965,"hash":"d18c178a0094e90f5d84f72caf14845916bcdc40e380942a0fc0ee375f80baa2","time":"2023/02/14 13:24:16","txCount":11,"totalFees":4412421,"totalOutput":15256706662308,"slotLeader":"0322ccfd1f68a8a288057d64428123bb6efed9d6b5c9fe2864db7507"},{"blockNo":8398697,"slotNo":84814741,"epochNo":393,"epochSlotNo":401941,"hash":"86bd33fdf620144c67c98cedb8f6d8883877278cd94a8826fd774b7f46a87777","time":"2023/02/14 13:23:52","txCount":1,"totalFees":168669,"totalOutput":54831331,"slotLeader":"fd30f95effb4f28920020901e3a4ad04f4d3585bc46953de762e8c0c"},{"blockNo":8398696,"slotNo":84814738,"epochNo":393,"epochSlotNo":401938,"hash":"59a2ba1f5a33f2a4f966a14bde17ec26dba74c2358a80d24e7f756d908d21c1b","time":"2023/02/14 13:23:49","txCount":35,"totalFees":9899233,"totalOutput":6190715195414,"slotLeader":"90ac71b92a4c29f7a9bbde83ba2e6e2c17b69e41db204a55e7a338ae"}],"totalItems":8398891,"totalPages":419945,"currentPage":0}