{"data":[{"txId":62219664,"txHash":"83e9c9f7dcfb575a16ed4d1cf73243dcf87857a6b443538b678a527ceff35d84","txTime":"2023/02/17 18:15:20","block":8411727,"epoch":394,"slotNo":85091429,"epochSlotNo":246629,"stakeKey":"stake1uxy7jmrdnl3hlq9zzwk834luxml4gffgj8n7v4ay5qj94dqhph28h"},{"txId":62219475,"txHash":"34c49a82f7739550da2bdc691bbafb81fe28db5b0d7debd56f700c102fd783ce","txTime":"2023/02/17 18:10:35","block":8411719,"epoch":394,"slotNo":85091144,"epochSlotNo":246344,"stakeKey":"stake1uxmkrqk2q4wesvujh5qdjzrj79qmmv4haxtvqxqra5q3cjgu6zs3s"},{"txId":62219412,"txHash":"7d6fb845cfadd9df9c7e2d66eb86622977430d80c7c93a2050cbdf02008f5d4f","txTime":"2023/02/17 18:09:18","block":8411716,"epoch":394,"slotNo":85091067,"epochSlotNo":246267,"stakeKey":"stake1uxmglep8gjwv2nxa2nlpqcxmz3gqmdendf3klyt8nrycx8gny4e4t"},{"txId":62219391,"txHash":"42bd202cde050871b38d18d9e46d3f26e3d16ea29155f5b21e9b2f44eee3e92e","txTime":"2023/02/17 18:08:24","block":8411714,"epoch":394,"slotNo":85091013,"epochSlotNo":246213,"stakeKey":"stake1uxudmn2ne8s3d92sy2zpwukcy6kehyeqa9y0rv42e2grpwscc5r2l"},{"txId":62219352,"txHash":"ccb1b73685ec9e4258d5dd966f7ffa72cd440a550e37ced33e518f37dbc06d8f","txTime":"2023/02/17 18:07:34","block":8411710,"epoch":394,"slotNo":85090963,"epochSlotNo":246163,"stakeKey":"stake1uxqay4003d67sjsx5ckger5xzgndqc5d0aqd4lzj2u5cerqfn44jg"},{"txId":62219104,"txHash":"fbd00dd19626f54b3fe29dc22a7d5932141756a1520d94274db103b6dc0d1ade","txTime":"2023/02/17 18:01:58","block":8411694,"epoch":394,"slotNo":85090627,"epochSlotNo":245827,"stakeKey":"stake1u9a7dufjqq96knf8w8qder2ngz0u83wvf8sxmpl60eww0ecrlke3d"},{"txId":62218773,"txHash":"01789996386b08089fd7b7fc9d3787a5d5ebbb45ddedd0365e147a5fd85adf2b","txTime":"2023/02/17 17:54:38","block":8411668,"epoch":394,"slotNo":85090187,"epochSlotNo":245387,"stakeKey":"stake1ux6fj9wmdgs5dz5g0ckfc9enng3ph9nlnqgtnkwv4q7v59qw3u8sl"},{"txId":62218695,"txHash":"19a22f2033748382adbf37829092d623696ef3500848ad5615e221eae9a036fe","txTime":"2023/02/17 17:52:32","block":8411664,"epoch":394,"slotNo":85090061,"epochSlotNo":245261,"stakeKey":"stake1u8eedxnwps4fnuyg5lpjqpyk7pdzhxef0v8lzm30yu74aagl0hkj5"},{"txId":62218556,"txHash":"924a61460240c191d4ca773aa950c60d261331ba47aee1f17ebf1d1e169a8589","txTime":"2023/02/17 17:49:24","block":8411654,"epoch":394,"slotNo":85089873,"epochSlotNo":245073,"stakeKey":"stake1u87gkqq9r7veuazu0hlzus857c06nmlr6u0c22tyf2qjs4glzddnw"},{"txId":62218527,"txHash":"882b89d2ecd036d93c41e61cee6a85e5c083d085ba88fa3bad9a82cc508a2adb","txTime":"2023/02/17 17:48:52","block":8411651,"epoch":394,"slotNo":85089841,"epochSlotNo":245041,"stakeKey":"stake1u8jv5ght7lgt06suhgn8hn26xtqv5ew60stpapth65rqx6qw5r3ed"},{"txId":62218487,"txHash":"7be496381cd85f06e1460b25bb1deef719bdc6a48ba01c6d61e04f67c75a6107","txTime":"2023/02/17 17:48:23","block":8411647,"epoch":394,"slotNo":85089812,"epochSlotNo":245012,"stakeKey":"stake1u99ddp50tghzjvwx0q545u8x5fg7d2eskm2mtjhtt2cdumgkk3rl6"},{"txId":62218006,"txHash":"ec5a09488f5a5805d7d15ea58b70dbb4e4da71fc78a707731bf3522e331fce65","txTime":"2023/02/17 17:39:39","block":8411618,"epoch":394,"slotNo":85089288,"epochSlotNo":244488,"stakeKey":"stake1u8pdejxpygv6hzacn0nu332738jqmeesd98pzj02qg0278ctsclpv"},{"txId":62217996,"txHash":"d08cd30a2f0e65adacd28d474d7de6e5e69f3e1a6e6fd7b6841f25d8afaf1a0c","txTime":"2023/02/17 17:39:39","block":8411618,"epoch":394,"slotNo":85089288,"epochSlotNo":244488,"stakeKey":"stake1u8xcz678he2u84k8p4g62kw2r3thz3y4sl3nhn4c9mrn5qq2c86gs"},{"txId":62217985,"txHash":"5b3e84142ff099791f31f0c23134a6adf9b3044ea9b997bae24d8a5593ec77d0","txTime":"2023/02/17 17:39:39","block":8411618,"epoch":394,"slotNo":85089288,"epochSlotNo":244488,"stakeKey":"stake1uyqzww5xmmljffnqamy0zjw0t9uslavtlv3wx65upf909qgylfg67"},{"txId":62217857,"txHash":"ad64a0eb7488c52f48abe92c0bca3cbacdd14cc3f39b65eb1fabb9172591a516","txTime":"2023/02/17 17:38:07","block":8411615,"epoch":394,"slotNo":85089196,"epochSlotNo":244396,"stakeKey":"stake1uxcgmryp6ngqfv4jrjha3xy8665clnkkgtekjlqdthtruyg7axqrq"},{"txId":62217599,"txHash":"f313981485ec3c811f18864ecbcf8acea2ed57f4c1fdb737959d93fddc025087","txTime":"2023/02/17 17:31:01","block":8411597,"epoch":394,"slotNo":85088770,"epochSlotNo":243970,"stakeKey":"stake1uy4mn0qqjzclvl72vdx9u6qa62qwyjndyxzt0apsvtklc9snzn29w"},{"txId":62217571,"txHash":"a17af7df21a926e5fbed92b6180fa2b0a371daec3c47fabf02868d124eede0ee","txTime":"2023/02/17 17:30:36","block":8411596,"epoch":394,"slotNo":85088745,"epochSlotNo":243945,"stakeKey":"stake1ux0kpdw35nqtcqaczngl60acmvua4wna7m8zz00xkqvzhjg4axh7c"},{"txId":62217395,"txHash":"92ec6690585445d6217a879fe35dbe653e9a781a4169ccde2896179530760eaa","txTime":"2023/02/17 17:27:11","block":8411583,"epoch":394,"slotNo":85088540,"epochSlotNo":243740,"stakeKey":"stake1uxg2zra29k20spu5u9ptg3spr5sezgd3gtpuy3z4ktmxjqga4ctu8"},{"txId":62217334,"txHash":"79bf09e3586585f764601b74925680338b1d089e3a4474373d352bf7ed7d99c7","txTime":"2023/02/17 17:26:06","block":8411579,"epoch":394,"slotNo":85088475,"epochSlotNo":243675,"stakeKey":"stake1u9th8lgmd3lxlhx7ppqr268nqyewj8pp4sq678873x2qfjgzm8rcm"},{"txId":62217311,"txHash":"ce3bfd325bc5f83656787ed93140fa2986f1d6b92b2a474bd3b00ec76c94ae7e","txTime":"2023/02/17 17:26:06","block":8411579,"epoch":394,"slotNo":85088475,"epochSlotNo":243675,"stakeKey":"stake1uxkyk9j6rhx3amsr6vsgh89dwk67yv2qv4ptalgqfmy85pgxq6eu6"}],"totalItems":1667150,"totalPages":83358,"currentPage":0}