{"data":[{"blockNo":8237005,"slotNo":81473575,"epochNo":386,"epochSlotNo":84775,"hash":"be0ece78da9eef36850667f902133df76ed710f888446d104449a1997ec982fa","time":"2023/01/06 21:17:46","txCount":5,"totalFees":1342172,"totalOutput":28919156674,"slotLeader":"52e22df52e90370f639c99f5c760f0cd67d7f871cd0d0764fae47cd9"},{"blockNo":8237004,"slotNo":81473572,"epochNo":386,"epochSlotNo":84772,"hash":"d00b04acbc642b43be53054bd05a208f9c08e8062f150708176eba9adca3f414","time":"2023/01/06 21:17:43","txCount":0,"totalFees":0,"totalOutput":0,"slotLeader":"d4a3b639d0f0b050cbfc25dad467af58355f31edbc4959db1cc59051"},{"blockNo":8237003,"slotNo":81473571,"epochNo":386,"epochSlotNo":84771,"hash":"35dc68420b2d90d2ba5431f1e6bcf563d57b4f0b8aad176dbae51d7a79e3fed6","time":"2023/01/06 21:17:42","txCount":29,"totalFees":12928047,"totalOutput":6424435089958,"slotLeader":"fa58244068bef886049b3e8fbba8aa39f227ce78168efdf7629111c5"},{"blockNo":8237002,"slotNo":81473537,"epochNo":386,"epochSlotNo":84737,"hash":"fc31578b78a2d354cb4beb3b70b2fd01e7e2694839d84243878a294e4834ac12","time":"2023/01/06 21:17:08","txCount":12,"totalFees":4077210,"totalOutput":17763806061910,"slotLeader":"d248ded3c18e0e80d07a46f00a2d808075b989ccb1a0e40a76e5cee1"},{"blockNo":8237001,"slotNo":81473535,"epochNo":386,"epochSlotNo":84735,"hash":"fdd0f9ef9317e449bf942feb2862104ab5874cd26c6d350aadffb6af4cead082","time":"2023/01/06 21:17:06","txCount":33,"totalFees":14202332,"totalOutput":2780365518591,"slotLeader":"1c8cd022e993a8366be641c17cb6d9c5d8944e00bfce3189d8b1515a"},{"blockNo":8237000,"slotNo":81473500,"epochNo":386,"epochSlotNo":84700,"hash":"29e879869f350af411cae09a107c532fd3ddcc1c01e0c22df2469f7eb09a71c3","time":"2023/01/06 21:16:31","txCount":18,"totalFees":7050498,"totalOutput":542588305187,"slotLeader":"53215c471b7ac752e3ddf8f2c4c1e6ed111857bfaa675d5e31ce8bce"},{"blockNo":8236999,"slotNo":81473478,"epochNo":386,"epochSlotNo":84678,"hash":"83f41e825248fe2badc4275c83d36c47265ca793bbead25372ebfa747952a0c4","time":"2023/01/06 21:16:09","txCount":0,"totalFees":0,"totalOutput":0,"slotLeader":"72583cf41012446cd1ca839c10049ecd65d31664b11e63d286041d61"},{"blockNo":8236998,"slotNo":81473477,"epochNo":386,"epochSlotNo":84677,"hash":"8caa569719fe811667d15e2f18eb8f7c1932d5b66a1cd9cc30a1442346ad8b3b","time":"2023/01/06 21:16:08","txCount":13,"totalFees":4236952,"totalOutput":59987470137,"slotLeader":"a532904ca60e13e88437b58e7c6ff66b8d5e7ec8d3f4b9e4be7820ec"},{"blockNo":8236997,"slotNo":81473459,"epochNo":386,"epochSlotNo":84659,"hash":"31cefc77309783ced06ef126c2cb25f97049d36a8a139aead2363e1e34a66ca7","time":"2023/01/06 21:15:50","txCount":10,"totalFees":4074309,"totalOutput":860289667407,"slotLeader":"c1011645958df9e805df499bbd30056c83094b99c8effe500350d8da"},{"blockNo":8236996,"slotNo":81473448,"epochNo":386,"epochSlotNo":84648,"hash":"bc29d969f99daeec574dff4ac0bcc25cf139b7d96f3bf91827daeed4162beed4","time":"2023/01/06 21:15:39","txCount":15,"totalFees":6738309,"totalOutput":1957116016751,"slotLeader":"8e0bb9b126acd8e65a023602377d9a7a6f15af394d1f7bdd852182b8"}],"totalItems":4161,"totalPages":417,"currentPage":0}