{"data":[{"blockNo":8425746,"slotNo":85383471,"epochNo":395,"epochSlotNo":106671,"hash":"1587b713c6b51e70e00aea980091d8add4af930f0870e76389722c18621054eb","time":"2023/02/21 03:22:42","txCount":2,"totalFees":1455032,"totalOutput":110018494191,"slotLeader":"000000f66e28b0f18aef20555f4c4954234e3270dfbbdcc13f54e799"},{"blockNo":8425745,"slotNo":85383466,"epochNo":395,"epochSlotNo":106666,"hash":"71ea88c0e7f1620cc570d4bb291a607f998364168e244aae346faac1a3ca211c","time":"2023/02/21 03:22:37","txCount":24,"totalFees":7614391,"totalOutput":25493458342854,"slotLeader":"f76e3a1104a9d816a67d5826a155c9e2979a839d0d944346d47e33ab"},{"blockNo":8425744,"slotNo":85383433,"epochNo":395,"epochSlotNo":106633,"hash":"11a76e111ac009c500e27255ecbc74027947520f7abffdde5d4eb7ca6bcd602c","time":"2023/02/21 03:22:04","txCount":12,"totalFees":3690681,"totalOutput":88880217139,"slotLeader":"eaa778d97077ff7725fe4cbb70b514d840407a45a3c244ac05f6a83d"},{"blockNo":8425743,"slotNo":85383413,"epochNo":395,"epochSlotNo":106613,"hash":"e055b4451b87475a684d540fad8c09012f25ec8c9c9bcb524cc72488c9e92d96","time":"2023/02/21 03:21:44","txCount":3,"totalFees":859647,"totalOutput":10436334828,"slotLeader":"77b0a93c26ac65be36e9a9f220f9a43cbc57d705fc5d8f1de5fdeea1"},{"blockNo":8425742,"slotNo":85383405,"epochNo":395,"epochSlotNo":106605,"hash":"4561467d9608dbb9080e14465e949fbb9334e899aad77ee65bb01bcd48906007","time":"2023/02/21 03:21:36","txCount":11,"totalFees":4430088,"totalOutput":2771961794100,"slotLeader":"b07dde7ad2e458a89177d4e10cd657309d9e36a79ef1edebb60b414f"},{"blockNo":8425741,"slotNo":85383395,"epochNo":395,"epochSlotNo":106595,"hash":"d2cd694655fd08e7f942d688bd3848b9ac202177fce7fd496bf48cb13c4cf9a1","time":"2023/02/21 03:21:26","txCount":2,"totalFees":712154,"totalOutput":2174735603,"slotLeader":"c4039f4fa97ed735b884800d6d605dbc65fbe995c4ba70b532e162a2"},{"blockNo":8425740,"slotNo":85383390,"epochNo":395,"epochSlotNo":106590,"hash":"5008f6f4c281bcce68b30a31d7d1b2fe94f59701586eea2f2381e93f6a5ceb13","time":"2023/02/21 03:21:21","txCount":4,"totalFees":749786,"totalOutput":15905302395,"slotLeader":"90ac71b92a4c29f7a9bbde83ba2e6e2c17b69e41db204a55e7a338ae"},{"blockNo":8425739,"slotNo":85383383,"epochNo":395,"epochSlotNo":106583,"hash":"f4dcd77ae5a94e988d16237478fbf93436dc4e05b7172e9313d887cc40e19d3e","time":"2023/02/21 03:21:14","txCount":18,"totalFees":5493495,"totalOutput":2290298140383,"slotLeader":"a56e07cb5cd11a2d2b6bff3c6ecbc7ddc79205e2831560792f06e795"},{"blockNo":8425738,"slotNo":85383365,"epochNo":395,"epochSlotNo":106565,"hash":"cffb8055a207580ae191b5914985534c8a70bdf89662869af04175ff1c387b9f","time":"2023/02/21 03:20:56","txCount":3,"totalFees":658291,"totalOutput":1654185177,"slotLeader":"b91e740582b7166b2238c19dbb081de4cb86be0b27ead58401510c05"},{"blockNo":8425737,"slotNo":85383361,"epochNo":395,"epochSlotNo":106561,"hash":"7c288ae3eb054977b7d9509d53d1bf4dd486fcb968e429d734d944d23fa3720a","time":"2023/02/21 03:20:52","txCount":5,"totalFees":1666189,"totalOutput":10616716548,"slotLeader":"b6ad3e6e873a7654e68bdfe5922c86d506cd5e9299fbc3aaab3e84bd"}],"totalItems":4986,"totalPages":499,"currentPage":0}