{"data":[{"hash":"52a7bb8635d4ed218094fe0d29d312b41e7266fc1922d9ac9302de349d2836b0","blockNo":6859404,"blockHash":"a78695d81c7db11e743e34c82ca72085a58e41a5f62266b33e255d42d49a93f6","epochNo":319,"epochSlotNo":366025,"slot":52810825,"time":"2022/02/09 03:25:16","addressesInput":["addr1qyhpyjryq9utwmy2nll2n50f9sxwtmkpxvmwwu0zcph0x73uqw70fud9wwqm5mkxclcz724m8fth80zqscfttljsjlks784cpr","addr1qyhpyjryq9utwmy2nll2n50f9sxwtmkpxvmwwu0zcph0x73uqw70fud9wwqm5mkxclcz724m8fth80zqscfttljsjlks784cpr"],"addressesOutput":["addr1wxaptpmxcxawvr3pzlhgnpmzz3ql43n2tc8mn3av5kx0yzs09tqh8","addr1qyhpyjryq9utwmy2nll2n50f9sxwtmkpxvmwwu0zcph0x73uqw70fud9wwqm5mkxclcz724m8fth80zqscfttljsjlks784cpr"],"fee":210505,"totalOutput":3489737699,"tokens":[]},{"hash":"4dd5c90f3979a9ba80d89510ac394db0cdfbe28eb71afe06f50afa4f1f78a380","blockNo":6859404,"blockHash":"a78695d81c7db11e743e34c82ca72085a58e41a5f62266b33e255d42d49a93f6","epochNo":319,"epochSlotNo":366025,"slot":52810825,"time":"2022/02/09 03:25:16","addressesInput":["addr1w999n67e86jn6xal07pzxtrmqynspgx0fwmcmpua4wc6yzsxpljz3","addr1qxmw5lvteu86stg49qzwxf8qsd8fcs0lefaxgm5wga5rhn867n0uxf8vj2d2dthnpayldlkkx49l24lhj296l8jyutcqkh0ygw"],"addressesOutput":["addr1w999n67e86jn6xal07pzxtrmqynspgx0fwmcmpua4wc6yzsxpljz3","addr1qxmw5lvteu86stg49qzwxf8qsd8fcs0lefaxgm5wga5rhn867n0uxf8vj2d2dthnpayldlkkx49l24lhj296l8jyutcqkh0ygw"],"fee":1193751,"totalOutput":3087491,"tokens":[]},{"hash":"0e06a3abfd2e5952d2d0166e70c51db97cbacbe23488fa8439458b98fc97274a","blockNo":6859404,"blockHash":"a78695d81c7db11e743e34c82ca72085a58e41a5f62266b33e255d42d49a93f6","epochNo":319,"epochSlotNo":366025,"slot":52810825,"time":"2022/02/09 03:25:16","addressesInput":["addr1qya572c6ecxue9qycmgeyn3n8jdw0megqvwx64mnp3vtzln858pumqyr0nsm0dwzr7rvevmmkausnqy95w67s583eqesasgxmw","addr1w999n67e86jn6xal07pzxtrmqynspgx0fwmcmpua4wc6yzsxpljz3"],"addressesOutput":["addr1w999n67e86jn6xal07pzxtrmqynspgx0fwmcmpua4wc6yzsxpljz3","addr1qya572c6ecxue9qycmgeyn3n8jdw0megqvwx64mnp3vtzln858pumqyr0nsm0dwzr7rvevmmkausnqy95w67s583eqesasgxmw"],"fee":1214391,"totalOutput":29992356,"tokens":[]},{"hash":"154b3515cbeac72e1aa728615aa4f6037c273434414c85ed7a920f99036349bd","blockNo":6859404,"blockHash":"a78695d81c7db11e743e34c82ca72085a58e41a5f62266b33e255d42d49a93f6","epochNo":319,"epochSlotNo":366025,"slot":52810825,"time":"2022/02/09 03:25:16","addressesInput":["addr1v9q5qypszqhys9h8q0gdae66n0sgh0fc9h8hnucg027j9cqpgskvw","addr1w9qzpelu9hn45pefc0xr4ac4kdxeswq7pndul2vuj59u8tqaxdznu","addr1wxaptpmxcxawvr3pzlhgnpmzz3ql43n2tc8mn3av5kx0yzs09tqh8","addr1wxaptpmxcxawvr3pzlhgnpmzz3ql43n2tc8mn3av5kx0yzs09tqh8"],"addressesOutput":["addr1w9qzpelu9hn45pefc0xr4ac4kdxeswq7pndul2vuj59u8tqaxdznu","addr1w9jx45flh83z6wuqypyash54mszwmdj8r64fydafxtfc6jgrw4rm3","addr1q8kd8wwmza8nf0e6y0w0rmprznpa2d44qw85hxcc3vq0wqknrch3sv83djlqu7j96fpcfmzwmchh7xgdx9lmg583jgesplk4xr","addr1q90qcvh3kk7yd0vfkstj2df2rzk6t9hk6gv9v2gam8vasdurfcud52vg3smys7h4747f88n88va0htwd7edl6g75xwesqhaerd","addr1v9q5qypszqhys9h8q0gdae66n0sgh0fc9h8hnucg027j9cqpgskvw"],"fee":1327210,"totalOutput":74393672483,"tokens":[]},{"hash":"b2fc6fd90e194da292512b117affc6a4a67d94819c0dc9a92835113220f79822","blockNo":6859404,"blockHash":"a78695d81c7db11e743e34c82ca72085a58e41a5f62266b33e255d42d49a93f6","epochNo":319,"epochSlotNo":366025,"slot":52810825,"time":"2022/02/09 03:25:16","addressesInput":["addr1w9qzpelu9hn45pefc0xr4ac4kdxeswq7pndul2vuj59u8tqaxdznu","addr1wxaptpmxcxawvr3pzlhgnpmzz3ql43n2tc8mn3av5kx0yzs09tqh8","addr1v8yxaq66rvyn42qkzr7njd05v0899xffehkcka0hk5wwv3qsrzjk6","addr1wxaptpmxcxawvr3pzlhgnpmzz3ql43n2tc8mn3av5kx0yzs09tqh8","addr1wxaptpmxcxawvr3pzlhgnpmzz3ql43n2tc8mn3av5kx0yzs09tqh8"],"addressesOutput":["addr1w9qzpelu9hn45pefc0xr4ac4kdxeswq7pndul2vuj59u8tqaxdznu","addr1w9jx45flh83z6wuqypyash54mszwmdj8r64fydafxtfc6jgrw4rm3","addr1q8ptgjxre2tr6sdngex2snxw3rzur9szvau2234hzvvaj9lvvtn3hf85k2mvrxmdvhel2a8phf6wth4mxpw63r4h2r7stgdp9y","addr1q99a5uqh7kkds5jw8vya83kfwnl8xqrphcy6r0syu2269g86y5ntfylnr976ghvxqyxhapu9q2uchdz8s8992d44m48qkzuul3","addr1qxkh8wel6gzxcxgcvalfwtnqdvc2vg4r4qvdt0tn9k934suzrw77sde4vtw4rn7y89wjp4swr9e0w3hne7qjnt36atlqxu9nu9","addr1v8yxaq66rvyn42qkzr7njd05v0899xffehkcka0hk5wwv3qsrzjk6"],"fee":1700247,"totalOutput":9215824156682,"tokens":[]},{"hash":"8d9519bf9abceaa1b32fc81b8c4ed80ecd6b183d9d5807230850ddf471ed1e36","blockNo":6859404,"blockHash":"a78695d81c7db11e743e34c82ca72085a58e41a5f62266b33e255d42d49a93f6","epochNo":319,"epochSlotNo":366025,"slot":52810825,"time":"2022/02/09 03:25:16","addressesInput":["addr1wxaptpmxcxawvr3pzlhgnpmzz3ql43n2tc8mn3av5kx0yzs09tqh8"],"addressesOutput":["addr1q8ma7yjge0273yfaptpu4s5kgdgeg764np96c4jde79zehnzmtrlx3pxj5s5j40ape5wsslsn3zp9cln6qlmh7pmg2xsh3q46u"],"fee":345915,"totalOutput":4154085,"tokens":[]},{"hash":"6573dafd56fb26014a675a01a724ad1a4b8f6d9c01b5fd168c1d0375edede074","blockNo":6859404,"blockHash":"a78695d81c7db11e743e34c82ca72085a58e41a5f62266b33e255d42d49a93f6","epochNo":319,"epochSlotNo":366025,"slot":52810825,"time":"2022/02/09 03:25:16","addressesInput":["addr1w999n67e86jn6xal07pzxtrmqynspgx0fwmcmpua4wc6yzsxpljz3","addr1q8xcetyn25qm4tjjnpnwwsktr84v6rfaxakrpl50nqrtj7gdyu02wpn8u7rht20x7lnxjc34t9ljyyk9yj8zd67ktknq8gqcc5"],"addressesOutput":["addr1q9cwvremt6n320s2e3agq0jyq82yhrk3htsu0w426xnz5us70z4w0jgvcdkkynmm8wmds66jd9kusnjfpu6raw5fqp0sr07p5w","addr1q9az5fzssfjdfas6h6pwlpznhd7zvkt7fq48t8rtul60ejff7qmm8rxkte0kvhtx4ksq53prtltapyrcg7pxt6zqrd9ql58fa5","addr1q9ck3a9evdp9ajy39x70d344xq3tzr326mxka83lra7wlmu5wx4jtmcj47gqyzx5vprss2gmtggk2nhhst9ves8fsekqljwuhh","addr1q8xcetyn25qm4tjjnpnwwsktr84v6rfaxakrpl50nqrtj7gdyu02wpn8u7rht20x7lnxjc34t9ljyyk9yj8zd67ktknq8gqcc5","addr1q8xcetyn25qm4tjjnpnwwsktr84v6rfaxakrpl50nqrtj7gdyu02wpn8u7rht20x7lnxjc34t9ljyyk9yj8zd67ktknq8gqcc5"],"fee":1180263,"totalOutput":1218620641,"tokens":[]},{"hash":"a992c2e98e382b82213df22bc4874f4b8b1b767859e899f589f6149e51a63710","blockNo":6859404,"blockHash":"a78695d81c7db11e743e34c82ca72085a58e41a5f62266b33e255d42d49a93f6","epochNo":319,"epochSlotNo":366025,"slot":52810825,"time":"2022/02/09 03:25:16","addressesInput":["addr1qxnk4ggclkmk3fj5v6czvvykjwcpes4qee9taw87pwn75c5agskq2eq58sqg7pcwwxtnu8egm6drd6hqpdyanfp4ytsq443g0x","addr1qxnk4ggclkmk3fj5v6czvvykjwcpes4qee9taw87pwn75c5agskq2eq58sqg7pcwwxtnu8egm6drd6hqpdyanfp4ytsq443g0x","addr1qxnk4ggclkmk3fj5v6czvvykjwcpes4qee9taw87pwn75c5agskq2eq58sqg7pcwwxtnu8egm6drd6hqpdyanfp4ytsq443g0x","addr1qxnk4ggclkmk3fj5v6czvvykjwcpes4qee9taw87pwn75c5agskq2eq58sqg7pcwwxtnu8egm6drd6hqpdyanfp4ytsq443g0x"],"addressesOutput":["addr1w9yr0zr530tp9yzrhly8lw5upddu0eym3yh0mjwa0qlr9pgmkzgv0","addr1qxnk4ggclkmk3fj5v6czvvykjwcpes4qee9taw87pwn75c5agskq2eq58sqg7pcwwxtnu8egm6drd6hqpdyanfp4ytsq443g0x","addr1qxnk4ggclkmk3fj5v6czvvykjwcpes4qee9taw87pwn75c5agskq2eq58sqg7pcwwxtnu8egm6drd6hqpdyanfp4ytsq443g0x"],"fee":333493,"totalOutput":217320571,"tokens":[]},{"hash":"0055fd84b76900e20469a1018c8c384451c977ab14e8d2c9e82a6b9ec99d5cb6","blockNo":6859403,"blockHash":"afa650468b9241acb31728b9defb9c62705b6e6e6d04c5f27b3174aa18138757","epochNo":319,"epochSlotNo":366023,"slot":52810823,"time":"2022/02/09 03:25:14","addressesInput":["addr1qxuzhakngv0vyjyar0703v2zej3esr2f0jltmwuzw3hut8wl4qkfx0g4xjh27ywa2x58362y9sydmxvvkv2qj33dte5swmsft7","addr1w999n67e86jn6xal07pzxtrmqynspgx0fwmcmpua4wc6yzsxpljz3"],"addressesOutput":["addr1w999n67e86jn6xal07pzxtrmqynspgx0fwmcmpua4wc6yzsxpljz3","addr1qxuzhakngv0vyjyar0703v2zej3esr2f0jltmwuzw3hut8wl4qkfx0g4xjh27ywa2x58362y9sydmxvvkv2qj33dte5swmsft7"],"fee":1193607,"totalOutput":352864636,"tokens":[]},{"hash":"7d64627dc2a5bff0e04cb943155ca6f4605b61038341e470661acc631b9f3e44","blockNo":6859403,"blockHash":"afa650468b9241acb31728b9defb9c62705b6e6e6d04c5f27b3174aa18138757","epochNo":319,"epochSlotNo":366023,"slot":52810823,"time":"2022/02/09 03:25:14","addressesInput":["addr1v87dkxu8sjz8k3msuzwj0nwfuahkcwkvyyqnva7tpve9mugruyegf"],"addressesOutput":["addr1v87dkxu8sjz8k3msuzwj0nwfuahkcwkvyyqnva7tpve9mugruyegf","addr1qx80z9e97ld5pugc7f9vxdjuqhhcrsgard80gnshxzya8de569mt5rwa84q0zpd7v30444xs6f9ethlmj05vuu22940s6m88en"],"fee":217509,"totalOutput":7047991865,"tokens":[]},{"hash":"4fec44fae00f2839111887b9b55b145439d768b120310bed64ca07400d297869","blockNo":6859403,"blockHash":"afa650468b9241acb31728b9defb9c62705b6e6e6d04c5f27b3174aa18138757","epochNo":319,"epochSlotNo":366023,"slot":52810823,"time":"2022/02/09 03:25:14","addressesInput":["DdzFFzCqrhsucm5miqgPFPv5cTDExckxemaMT8xwGThjSo456Nu71Sz8nMJ8GdCsD5ftXutGSt56Hdr4naU6Ux4SeqTk75QyQSn9dQhB"],"addressesOutput":["DdzFFzCqrhsnZBf8fiLMZMrvWNup9wgrmu594kC5q521QRScj8qFJvaoNVxip9Maq6xCPXDgq98KScdWb25KHwjByFciWpc45qJntAHH","DdzFFzCqrht1AxD3VCN7LvTodtqbeMRwcTA5MvxCBmZPdn3nEpxerpB9XtohNr5heVNyPhjqGqwpxZG3kxGjW4uYiqVePPJbsU2JVHN9"],"fee":174477,"totalOutput":6747457797,"tokens":[]},{"hash":"4bca1bb70f87f08ad489d36a3b2c345cf4d41bc6cc8aa249902318e0cc156779","blockNo":6859403,"blockHash":"afa650468b9241acb31728b9defb9c62705b6e6e6d04c5f27b3174aa18138757","epochNo":319,"epochSlotNo":366023,"slot":52810823,"time":"2022/02/09 03:25:14","addressesInput":["addr1q8q93at5dqfeqruzr7j3nrmppfj3r3v7uhdan3c3n4407wkqtr6hg6qnjq8cy8a9rx8kzzn9z8zeaewmm8r3r8t2luaq27jycf"],"addressesOutput":["addr1qxxy948hr9rvguuuuaugycy0f3qtaf90z9n2tak8mq6xxmca0q7vf5ln2ych7zecfur6ezsrkn5x88u2k29km83sw9wq59ph3l","addr1q8q93at5dqfeqruzr7j3nrmppfj3r3v7uhdan3c3n4407wkqtr6hg6qnjq8cy8a9rx8kzzn9z8zeaewmm8r3r8t2luaq27jycf"],"fee":216539,"totalOutput":1069071638,"tokens":[]},{"hash":"1bb93cf31185e0d843cb3fb6f34e1a02da283f24d465d141a827b1bbb80b3917","blockNo":6859403,"blockHash":"afa650468b9241acb31728b9defb9c62705b6e6e6d04c5f27b3174aa18138757","epochNo":319,"epochSlotNo":366023,"slot":52810823,"time":"2022/02/09 03:25:14","addressesInput":["addr1qxeftagqmg5uvypl0lcvnv6l080vp2hhhzu2ea56au3ft6ajjh6spk3fccgr7llsexe477w7cz400w9c4nmf4mezjh4st5phja"],"addressesOutput":["addr1qxeftagqmg5uvypl0lcvnv6l080vp2hhhzu2ea56au3ft6ajjh6spk3fccgr7llsexe477w7cz400w9c4nmf4mezjh4st5phja","addr1qxeftagqmg5uvypl0lcvnv6l080vp2hhhzu2ea56au3ft6ajjh6spk3fccgr7llsexe477w7cz400w9c4nmf4mezjh4st5phja"],"fee":230470,"totalOutput":489998354,"tokens":[]},{"hash":"ba862a66f5146ce4d36ee2556f2a2ef289eab0f3930e040b20b3fb8ca16dcab3","blockNo":6859403,"blockHash":"afa650468b9241acb31728b9defb9c62705b6e6e6d04c5f27b3174aa18138757","epochNo":319,"epochSlotNo":366023,"slot":52810823,"time":"2022/02/09 03:25:14","addressesInput":["addr1qyu6rh63z3akmengnfrj0prfvtak2sxr50rctxs60xu5yr6krpuk5k3ggkk2s5m93gd6lu3up9r2af8uwz4sx9gah20qqwah5a"],"addressesOutput":["addr1q8j25tsafzareqe88cj9stca0fwmp7p0v875s4uerxkyd84lrc6gwuefnjmk758rpe9gea0hkwtcmg9wr74hhvu34qkshwgle8","addr1qynfcd2s3qadt4eve9m5ygr48h0perahnk45qa2s9urxvfppz7dzrn0e937qkhgpf6wmtjgvhjtk38hme795anngx8lqydahyc"],"fee":213417,"totalOutput":7617889,"tokens":[]},{"hash":"173330676c3062c945cfbacb41a60f2777ee51d66f221ce35a32809562a42929","blockNo":6859403,"blockHash":"afa650468b9241acb31728b9defb9c62705b6e6e6d04c5f27b3174aa18138757","epochNo":319,"epochSlotNo":366023,"slot":52810823,"time":"2022/02/09 03:25:14","addressesInput":["DdzFFzCqrhse4nqhWqnY4Hyo7CRrAgMcdWubqsJidjRpjrHnhaUDC4mpP6rt1k67S6xER6CFUqYiCg21MNRTr7zAdUJA9T8J8evK6JPa","DdzFFzCqrhsrLdkJKpbCFYFgMLSwQqmrVpr7rqQDndiHUSTju9xL14Dy11HEKZnr8X7NxhF6Jb1WnGZzksTvX3ee3Ti24N9yiKDMU8S2","DdzFFzCqrhsxdX2XzZK3hGuyQ4YK1CkdMP8wEembUEHMVg5rwz4MREqPKY1rv3Tjqtrz3xAzN8D6KREy6hKbBZuwPEKJTwz1rpnt1387"],"addressesOutput":["addr1qxhjd67n94n2zathru674t2pj2zer4952q5n7mqywwxhx8y9g8e2quvl3ag3u8ulhkawa063fefe3w5uc3aldcpfn9ksscj6e4","DdzFFzCqrht4183Dwgmox8hFSjmHpAvgztz4Ru5auXMmSXA4LiTPSDRDU2vAahe4Mn1Aa3tPwyFy1JGZwMYGkuXuE1JpD8PbsUmKVUJC"],"fee":226617,"totalOutput":924372773,"tokens":[]},{"hash":"965e60de0df3c5a87c292d5f083584ebf428c0d743bf59e72a1dba8d31774f64","blockNo":6859403,"blockHash":"afa650468b9241acb31728b9defb9c62705b6e6e6d04c5f27b3174aa18138757","epochNo":319,"epochSlotNo":366023,"slot":52810823,"time":"2022/02/09 03:25:14","addressesInput":["addr1q9gwe5ssw6rsqrsjr98arhfnwhsy34gj346qjcj4x4r78akvv0ef2w6gzcnug9m6m66zw2u86xffm394e46yfjvh57pq5mhf6n","addr1q9gwe5ssw6rsqrsjr98arhfnwhsy34gj346qjcj4x4r78akvv0ef2w6gzcnug9m6m66zw2u86xffm394e46yfjvh57pq5mhf6n","addr1q9gwe5ssw6rsqrsjr98arhfnwhsy34gj346qjcj4x4r78akvv0ef2w6gzcnug9m6m66zw2u86xffm394e46yfjvh57pq5mhf6n","addr1q9gwe5ssw6rsqrsjr98arhfnwhsy34gj346qjcj4x4r78akvv0ef2w6gzcnug9m6m66zw2u86xffm394e46yfjvh57pq5mhf6n"],"addressesOutput":["addr1q82srt32dqvkde2saq4383u0fkzz8ynx3l2kgn0madvg3ut5l83cdvpzm623qarppudh7hnssqg7phzchqq0mqkkrwvsytgqph","addr1q9gwe5ssw6rsqrsjr98arhfnwhsy34gj346qjcj4x4r78akvv0ef2w6gzcnug9m6m66zw2u86xffm394e46yfjvh57pq5mhf6n","addr1q9gwe5ssw6rsqrsjr98arhfnwhsy34gj346qjcj4x4r78akvv0ef2w6gzcnug9m6m66zw2u86xffm394e46yfjvh57pq5mhf6n","addr1q9gwe5ssw6rsqrsjr98arhfnwhsy34gj346qjcj4x4r78akvv0ef2w6gzcnug9m6m66zw2u86xffm394e46yfjvh57pq5mhf6n","addr1q9gwe5ssw6rsqrsjr98arhfnwhsy34gj346qjcj4x4r78akvv0ef2w6gzcnug9m6m66zw2u86xffm394e46yfjvh57pq5mhf6n"],"fee":690553,"totalOutput":3512898595,"tokens":[]},{"hash":"c4f27390145122d5062cddaab92e1f2ed3a6c5340ccc17d930d1384e990a1285","blockNo":6859403,"blockHash":"afa650468b9241acb31728b9defb9c62705b6e6e6d04c5f27b3174aa18138757","epochNo":319,"epochSlotNo":366023,"slot":52810823,"time":"2022/02/09 03:25:14","addressesInput":["addr1qx56uxttj0zd8k989m8cc0nwzpm5ywlvuylvkdkqp8h8kfmswlsl8yadwg3ykugnswtffc5cyfaay4tlg8hh3hthmkfq0m27yf","addr1qxsh6n6wmarqkxj9rey2q0t577czyj8yzcaa9edxlx2qjqtswlsl8yadwg3ykugnswtffc5cyfaay4tlg8hh3hthmkfqsqtw59"],"addressesOutput":["addr1qysk805exmnykj6x0hzww6x79lgh3xzcap866qme5a4wqksk2tpagv4e6qfgaeh6z5tknwap4hc502z2gr2r07l82d6s5xkj4l","addr1q8jhmxzfnkxatnfpj0pvzgcf6fnlgxffs6xlh9n4n7dsgenswlsl8yadwg3ykugnswtffc5cyfaay4tlg8hh3hthmkfqdcjmu6"],"fee":247429,"totalOutput":189996686,"tokens":[]},{"hash":"0dc34ee6d0df31bc69ca8c9656dcdb69bbef7d612a9481c2ee59cee561d18b4d","blockNo":6859403,"blockHash":"afa650468b9241acb31728b9defb9c62705b6e6e6d04c5f27b3174aa18138757","epochNo":319,"epochSlotNo":366023,"slot":52810823,"time":"2022/02/09 03:25:14","addressesInput":["addr1q9s0p6xrx559zk7mnwrlxaglq4gyvefteltkhwkd55qrn6ffesq5dv0dnysy7gkstfc5gptgrjj528hrauk0cfgh9pssyvv87r","addr1q9s0p6xrx559zk7mnwrlxaglq4gyvefteltkhwkd55qrn6ffesq5dv0dnysy7gkstfc5gptgrjj528hrauk0cfgh9pssyvv87r","addr1w999n67e86jn6xal07pzxtrmqynspgx0fwmcmpua4wc6yzsxpljz3"],"addressesOutput":["addr1q9cwvremt6n320s2e3agq0jyq82yhrk3htsu0w426xnz5us70z4w0jgvcdkkynmm8wmds66jd9kusnjfpu6raw5fqp0sr07p5w","addr1q9hdae3x62kg75rq5psdva4ccm20ufawep4c8d5waehqjpcx6jcvw7rnw43g7qlllf09y8tj8cw0kd2q2u06dr8mt9mszzqt6l","addr1qxuuewceefeq88rjzqxjxsx8s9ppjy5ytm7nz859vlcjxzwvvv5zunt52al9ruy8vwv2evlkxsd48zc33xxhyuw2tlzsshdg3x","addr1q9s0p6xrx559zk7mnwrlxaglq4gyvefteltkhwkd55qrn6ffesq5dv0dnysy7gkstfc5gptgrjj528hrauk0cfgh9pssyvv87r","addr1q9s0p6xrx559zk7mnwrlxaglq4gyvefteltkhwkd55qrn6ffesq5dv0dnysy7gkstfc5gptgrjj528hrauk0cfgh9pssyvv87r"],"fee":1219191,"totalOutput":468901667,"tokens":[]},{"hash":"91b5a22bb46b2d0f69d7d72fd3bd864f553c672231b1c63be141e5e11255837f","blockNo":6859403,"blockHash":"afa650468b9241acb31728b9defb9c62705b6e6e6d04c5f27b3174aa18138757","epochNo":319,"epochSlotNo":366023,"slot":52810823,"time":"2022/02/09 03:25:14","addressesInput":["addr1vy6jmquxv3g0mrtvf5pg6wln6jdrr8855lpldjee278n9rc6xw0e7"],"addressesOutput":["addr1vxpzqpz8mzat8qr9ukcvcgtp5x27zk5wgcqf9yh9d3fq25gtsnye2"],"fee":165633,"totalOutput":235347846,"tokens":[]},{"hash":"10bab4f211e9fa6c0f10510d4b01a5539e5aab00d02bc2bec01e3acdd65b06da","blockNo":6859403,"blockHash":"afa650468b9241acb31728b9defb9c62705b6e6e6d04c5f27b3174aa18138757","epochNo":319,"epochSlotNo":366023,"slot":52810823,"time":"2022/02/09 03:25:14","addressesInput":["addr1vyurklarfkyumfmn6qe2q4zw3mmzjm2fnl8tkm3hdtw669gspeuzk"],"addressesOutput":["addr1vxpzqpz8mzat8qr9ukcvcgtp5x27zk5wgcqf9yh9d3fq25gtsnye2"],"fee":165633,"totalOutput":2346082300,"tokens":[]}],"totalItems":30446837,"totalPages":1522342,"currentPage":0}