{"data":[{"txId":62429476,"txHash":"93d0388e1e58fe0a5e74d96e72867d5a73a7200f7673f89d8ad279768faaf82d","txTime":"2023/02/21 03:20:37","block":8425735,"epoch":395,"slotNo":85383346,"epochSlotNo":106546,"stakeKey":"stake1uya66zkwdxea4kgedt2l8s35gncannkurmq27qawr8dl3mqejjf8v"},{"txId":62429414,"txHash":"61be205f4349813d62bf200c18e69f6104ae67ea00afa99c36e4dfc0486cae1f","txTime":"2023/02/21 03:19:05","block":8425731,"epoch":395,"slotNo":85383254,"epochSlotNo":106454,"stakeKey":"stake1uy2tmjsctc7vzhajf75l0flxxvw0aa3kkeeehhnge8plrngglyhzq"},{"txId":62429384,"txHash":"60d765b279605081cb73f0351d9aeec2553669c2adbbf098ccbe87f284ebfcfa","txTime":"2023/02/21 03:18:13","block":8425728,"epoch":395,"slotNo":85383202,"epochSlotNo":106402,"stakeKey":"stake1u83n6yff7gnezcf30qvxc542wmgyfge365f9avz3jws7racr43ul7"},{"txId":62429315,"txHash":"d5a2194652a5f15bd04a9b6790cef9451bca503af81c8c0457f7e0832180f15f","txTime":"2023/02/21 03:16:49","block":8425722,"epoch":395,"slotNo":85383118,"epochSlotNo":106318,"stakeKey":"stake1u92z27a3ndwpyrftp606k3hfmhwdq9s73ya4w6ugccfshxqzun9x8"},{"txId":62429204,"txHash":"6d79af6e0451b86042839f42a27359706df52077b5f1a84cf0e5cd4aaea1f738","txTime":"2023/02/21 03:14:46","block":8425717,"epoch":395,"slotNo":85382995,"epochSlotNo":106195,"stakeKey":"stake1uxg5sct5n0e8e6r4eugpzlexwjttwl7444reeryyq2pt5ngsmg92y"},{"txId":62429203,"txHash":"25add558ff1ebd15e24f3ee8e6402551ba0b2703690d8b6ca5bcb7f3dca4715d","txTime":"2023/02/21 03:14:46","block":8425717,"epoch":395,"slotNo":85382995,"epochSlotNo":106195,"stakeKey":"stake1u8qhrhl2np4ke7mkcpjfjpaf3nc9su7x37kckuj7p2ryc6caec3ry"},{"txId":62429127,"txHash":"bf29bb1e10455f8a97b811c9e521c9a07de4cf95cf7ce2041bd2be95f3b807ae","txTime":"2023/02/21 03:12:25","block":8425712,"epoch":395,"slotNo":85382854,"epochSlotNo":106054,"stakeKey":"stake1u99qnk7wya6m006skxqsu0wy8yf07qprz2jzlt86z8s0d3ga34gt5"},{"txId":62429008,"txHash":"00827ec4d38ac3a84c45a0200f057592aaea1171b529e44dfdf56bd971e1e61d","txTime":"2023/02/21 03:08:57","block":8425700,"epoch":395,"slotNo":85382646,"epochSlotNo":105846,"stakeKey":"stake1uyk04l8r7glsd2ypusnfs5jx939ejdgw5c3z60vnm0w3umgrrljw3"},{"txId":62428954,"txHash":"ca13f0ace8c8a3b70f4966c630f949592b40e21c7c340dde4f8eefafd657364b","txTime":"2023/02/21 03:07:31","block":8425695,"epoch":395,"slotNo":85382560,"epochSlotNo":105760,"stakeKey":"stake1uxvnfkf4acck4c383mkx99ej6esqdez574wpkcjc6et0x2gneym9f"},{"txId":62428780,"txHash":"3f7ff9ec5e6d1b4a135199186fb793f35058d176eaafe14cbdd425f2000ee546","txTime":"2023/02/21 03:03:40","block":8425682,"epoch":395,"slotNo":85382329,"epochSlotNo":105529,"stakeKey":"stake1uytwmx8l0as898l57wfrthd5qevtn6cw99m4fkdh03xucds3ren7w"},{"txId":62428640,"txHash":"9ab1d3e9d0f0d5530f0d9fce663f2a05f2c3b7b3ead3795504385cb1635a5ba4","txTime":"2023/02/21 03:00:22","block":8425673,"epoch":395,"slotNo":85382131,"epochSlotNo":105331,"stakeKey":"stake1u9mptl5p6at0khjrlw0s68qc6kddvp3vvhyrpd6ghqn2hdq4pm9k4"},{"txId":62428485,"txHash":"c48fba0e407cdfd16461568a3418c57ff6639c63254b59ea055019764da3acc9","txTime":"2023/02/21 02:55:56","block":8425660,"epoch":395,"slotNo":85381865,"epochSlotNo":105065,"stakeKey":"stake1uyxjeakns30aggv57anpuufgl76049tk7p54y0h5a0lv0tc26rpv3"},{"txId":62428346,"txHash":"b08e8b7c77464cd27a4776a6a657bbdb8f9c08c5624bbc19eb4a85206701f795","txTime":"2023/02/21 02:52:36","block":8425648,"epoch":395,"slotNo":85381665,"epochSlotNo":104865,"stakeKey":"stake1uxqyxvp9c83qgfm3774kvqyt3ruxyj8uqk2l595rqj9h2jgk6vflk"},{"txId":62428274,"txHash":"640a5b5458b29e167b5f87e0d10d51a6b2eb4ac9725c118acfd4655b3d0661d3","txTime":"2023/02/21 02:50:38","block":8425645,"epoch":395,"slotNo":85381547,"epochSlotNo":104747,"stakeKey":"stake1uxctxwgx377usx3dfvlq7rq4zhhjrugp3fcv6px5qgttkqgvx9v6t"},{"txId":62428077,"txHash":"4b5b1ef4802b2959bd522c952e4d897778314c5d3bbfe17beff3dd0b81236a88","txTime":"2023/02/21 02:44:55","block":8425631,"epoch":395,"slotNo":85381204,"epochSlotNo":104404,"stakeKey":"stake1ux45xfkw36jlettdx76sgzg4kv4drjsmjy00k9fhzgu50kgclj8zq"},{"txId":62428032,"txHash":"e06484650d037629b3a24921397f7beb7ab7ca146c1eb46ccb35903e4cc0c6f4","txTime":"2023/02/21 02:44:29","block":8425629,"epoch":395,"slotNo":85381178,"epochSlotNo":104378,"stakeKey":"stake1u904kq5pams9668jxf5vyvszr6sy27lry5qa4t2quj3cxnsxsmhqz"},{"txId":62427986,"txHash":"0b2fc43ce57604783c01263347a0219f64a8eb0279b82ee39322407a291c4fcd","txTime":"2023/02/21 02:42:55","block":8425622,"epoch":395,"slotNo":85381084,"epochSlotNo":104284,"stakeKey":"stake1uxudtpau6wt545cxst6k6jd79z8tk7px2wvtamzvzlan4jszxnfx3"},{"txId":62427921,"txHash":"47cf6696d4722c58196cbf95f1d0ba9e793c4f9ecf7aabe44cc5a84640d63c96","txTime":"2023/02/21 02:41:09","block":8425617,"epoch":395,"slotNo":85380978,"epochSlotNo":104178,"stakeKey":"stake1u9pd2840pfwu9prf75jl2u2vt94wdanlk3qjqwsa6u7dsec4vlg73"},{"txId":62427906,"txHash":"5ed8dd9da74653138435af7c58e13c35eeb0b86fc68c8dfb715b63803b6ed38a","txTime":"2023/02/21 02:41:03","block":8425616,"epoch":395,"slotNo":85380972,"epochSlotNo":104172,"stakeKey":"stake1uyyg408rtwmjmh739sps4y9qe0euwcrpg2jusm0377lla3qqpkuzm"},{"txId":62427812,"txHash":"321f69790be4f095f98d3b67134d866decbdacdb7814fb17004a2dda510ae5e7","txTime":"2023/02/21 02:39:24","block":8425609,"epoch":395,"slotNo":85380873,"epochSlotNo":104073,"stakeKey":"stake1uxzkuk6a4hr3cx8ckgswn5x823e6c52ys5ntt3a9gg8pjpcpg4elf"}],"totalItems":1669279,"totalPages":83464,"currentPage":0}