{"data":[{"txId":56909373,"txHash":"5a584d31a94830c84d9aae15cae1e0f76cca7f4da8a5f7c4560247d29e67d6d9","txTime":"2022/12/08 16:49:51","block":8113928,"epoch":380,"slotNo":78951900,"epochSlotNo":155100,"stakeKey":"stake1uy0tcqkard7wdawwqysq3cvn9p6e658552266c7axyhdzvgwtaw5h"},{"txId":56908964,"txHash":"883ce659f8f07864565787a8e6c52afe249417389d40f838f074413a3480ebce","txTime":"2022/12/08 16:41:20","block":8113904,"epoch":380,"slotNo":78951389,"epochSlotNo":154589,"stakeKey":"stake1u8d4a9s99jnv83gh46sjn5ld6ulumzx0rwpmdrx5d5wplxgx2vrfr"},{"txId":56908680,"txHash":"7e7592fcf1b3483d77b05142b9d6685c846551484293a59b2b12819289ad1b0d","txTime":"2022/12/08 16:35:56","block":8113892,"epoch":380,"slotNo":78951065,"epochSlotNo":154265,"stakeKey":"stake1ux86kgecvdafdmxa7483vmflmkmfyqf7rtnzuk5ctvl9faslv70zs"},{"txId":56907988,"txHash":"a808ceb1c597e649d8d37834204cbaba80cb2f736c2cae266133fc9564a42040","txTime":"2022/12/08 16:22:23","block":8113853,"epoch":380,"slotNo":78950252,"epochSlotNo":153452,"stakeKey":"stake1u9grpscpnhp7ea77nnnn5zjdtmzxjw90taynuzyedya4uygda7ecs"},{"txId":56907702,"txHash":"c7b31041ebff1a818b266db19e69763f96165c5f5d117816af17aa92d719f661","txTime":"2022/12/08 16:17:17","block":8113834,"epoch":380,"slotNo":78949946,"epochSlotNo":153146,"stakeKey":"stake1uxry9aypds56fp3tt7v9k7d084pxg0racf3rwcwa4p4dk6ctzz3fa"},{"txId":56907644,"txHash":"3a4821a72989cf2da471b91de04f011f5248c4d24b985e625a0a4d1d53b769c5","txTime":"2022/12/08 16:16:19","block":8113833,"epoch":380,"slotNo":78949888,"epochSlotNo":153088,"stakeKey":"stake1ux595swcegz3ecyduhr70jrjd27glp9z7nl5t58djx0kungryjt72"},{"txId":56907619,"txHash":"308160e554fdaef948ae7a3ed869d433ff39b1210aa1f9f76483615638076898","txTime":"2022/12/08 16:15:53","block":8113831,"epoch":380,"slotNo":78949862,"epochSlotNo":153062,"stakeKey":"stake1ux6jps8xh99qxvlf5ss0dy80q9wtech9kyn977t5v37h39c0h2fkj"},{"txId":56907406,"txHash":"f35abbbc4f4015f89b34f428f71b66c442a5ee3b79832405da491acfd7f8c6e8","txTime":"2022/12/08 16:11:05","block":8113819,"epoch":380,"slotNo":78949574,"epochSlotNo":152774,"stakeKey":"stake1uxfgrycxfup2fmy7nyqu8jenyg8472eck5usgax4p4apfmqf4qsxz"},{"txId":56907320,"txHash":"55398a8fa1e19cbb623c75a89703f5ca7e4b941f50e6bee6e5119ac79437fb3d","txTime":"2022/12/08 16:09:37","block":8113813,"epoch":380,"slotNo":78949486,"epochSlotNo":152686,"stakeKey":"stake1u8y9t2wpf8749zz2me6v3tgt5fx6ue8xru5jggmwc5gqmcc3n0sxf"},{"txId":56907234,"txHash":"f026717b6d9062681b1adf309ffb85568e480089d651e5bb06d603a984817b49","txTime":"2022/12/08 16:07:47","block":8113804,"epoch":380,"slotNo":78949376,"epochSlotNo":152576,"stakeKey":"stake1ux7ly4205echw70k0zx3ecsu2c2camtpkmne8dsfz74l59qnamk3h"},{"txId":56907205,"txHash":"81ea5b358c4df59712505f64ec1be005eb1f966b71b327963ea54137492fe235","txTime":"2022/12/08 16:07:36","block":8113803,"epoch":380,"slotNo":78949365,"epochSlotNo":152565,"stakeKey":"stake1uxe2344pd2s0lkwn2my2fr9raxetxd2wdqhtfhtu4v7wp9c8swkpf"},{"txId":56906099,"txHash":"e7a1e85706e50714437cbf341aa9e2ff57c15cf1ee4f14723f72630775f6cbcb","txTime":"2022/12/08 15:46:27","block":8113730,"epoch":380,"slotNo":78948096,"epochSlotNo":151296,"stakeKey":"stake1u80w86hgutplquzyvq7fjq02t78p3wyzjl66z2z9zhlhk3qp35rra"},{"txId":56905933,"txHash":"79df5d9cd19926b17840be5c76dd7ac4fbc5fc360ec34105d3761ca60ce029be","txTime":"2022/12/08 15:43:12","block":8113716,"epoch":380,"slotNo":78947901,"epochSlotNo":151101,"stakeKey":"stake1u9eq9tx2x4csnxwaqxnwmrwhampc2sd2zd7wua50qflc54sp9q7nr"},{"txId":56905832,"txHash":"ea78569660c4f5355eab8995ce17f059050d474634e3831cd4d28147f9287e22","txTime":"2022/12/08 15:41:44","block":8113710,"epoch":380,"slotNo":78947813,"epochSlotNo":151013,"stakeKey":"stake1u960nvlpln6hcchc8njzwjwkealk4600rs0nu32sk6v9f5s4gf5ku"},{"txId":56905655,"txHash":"b8a5a2b505a9335fc946a8c40ac9c78f65b60aad9f72d7675232361f4e8fe700","txTime":"2022/12/08 15:39:07","block":8113703,"epoch":380,"slotNo":78947656,"epochSlotNo":150856,"stakeKey":"stake1u9dhawl3nfelpkq48gneg26m260x5ns96me8kc75q0eqxjcfm7d37"},{"txId":56905333,"txHash":"080c24833c10c1b84088f262cd051f777904aaddc3c09cb2dd48e72163ec4190","txTime":"2022/12/08 15:34:25","block":8113685,"epoch":380,"slotNo":78947374,"epochSlotNo":150574,"stakeKey":"stake1uycxn68lvsylz2l9mkgcc8epc05vtetl399m4afruj0hafglhtshe"},{"txId":56904893,"txHash":"5812c11fa2e3f111eceb1110b55705a489f2e737ad01432d2d389018304fa1bc","txTime":"2022/12/08 15:25:05","block":8113671,"epoch":380,"slotNo":78946814,"epochSlotNo":150014,"stakeKey":"stake1u8snk85mwhzlh0jlhwg47ll0jjkfkya2a0mvragmua52jgqgnhc2x"},{"txId":56904300,"txHash":"f932fb8702bc3248cb0d6c2f7c161013c411e0de87b497a118bd344e972d7675","txTime":"2022/12/08 15:13:09","block":8113634,"epoch":380,"slotNo":78946098,"epochSlotNo":149298,"stakeKey":"stake1u97jaagye0pmc0826m49y6f6xh833sdklnuqtdvmfwmjedc7xk482"},{"txId":56904195,"txHash":"ac0caaa77f22f5a3a3ca4432779023c1dde866306bb40b1de593cda36dbeff20","txTime":"2022/12/08 15:11:46","block":8113626,"epoch":380,"slotNo":78946015,"epochSlotNo":149215,"stakeKey":"stake1u8ld2yxv09e3vy6l88dj40vwq25urtmgzvxgypczyf24kngr7gh24"},{"txId":56904178,"txHash":"49e4bcd4dc700c739fd4e74809f2b11fafc8ef95b5a0b949e59a596f76e07e13","txTime":"2022/12/08 15:11:27","block":8113625,"epoch":380,"slotNo":78945996,"epochSlotNo":149196,"stakeKey":"stake1uyv0tvgy8xvxcfm8ms5yuu6pyvvqptj26ztu046nz9nnv5qermg2e"}],"totalItems":335628,"totalPages":16782,"currentPage":0}