{"data":[{"txId":30586898,"txHash":"3c69f27e8e1286795574b7c923b2d1155f0873d8993d26feaa32924d1df7f453","txTime":"2022/02/09 03:24:44","block":6859402,"epoch":319,"slotNo":52810793,"epochSlotNo":365993,"stakeKey":"stake1uxg8klcqph0ezcc80lru5ggzmgm2yl3rlgk0teyfwsax5wgwg55d4"},{"txId":30586876,"txHash":"9f901563a7995ce0ba1c926e55e8038d095b7b4d0f3a5f736f53bd6c19940467","txTime":"2022/02/09 03:24:21","block":6859401,"epoch":319,"slotNo":52810770,"epochSlotNo":365970,"stakeKey":"stake1uyl7fq827ejlcd8zy2arsxuz9qs552xmxcdusr42zpj6g5qdzdw94"},{"txId":30586855,"txHash":"24ae0976590e1e27a64eaa654a005e54bc9f8206732b0e5febfa9f02584b5c95","txTime":"2022/02/09 03:24:21","block":6859401,"epoch":319,"slotNo":52810770,"epochSlotNo":365970,"stakeKey":"stake1u8yu3rvffsy280jqrvn5rwx4dnga2fg3a7mc942gd56e7cshvpf5v"},{"txId":30586712,"txHash":"1665c428e21f367c5c1f6ff662868b77bab92553a0f3e027588c876feda4b5a5","txTime":"2022/02/09 03:21:19","block":6859396,"epoch":319,"slotNo":52810588,"epochSlotNo":365788,"stakeKey":"stake1u8uj0k3v6zvrelk48rjmvy3d4jweusaypz23ytcem0ax6lq79q5vm"},{"txId":30586709,"txHash":"478a1f544494c42e2c56700fe260221a7e77bf64e5d87828c35d4ed24a3825e1","txTime":"2022/02/09 03:21:19","block":6859396,"epoch":319,"slotNo":52810588,"epochSlotNo":365788,"stakeKey":"stake1uyr79n2l47jmtx3dzvxhaxwn3ue0v8ajjah2rkg9xzazj5clxd0yk"},{"txId":30586665,"txHash":"2c772701d862ef710521282616de7ff827d913875e5151ee27c3241e5d75d719","txTime":"2022/02/09 03:20:50","block":6859395,"epoch":319,"slotNo":52810559,"epochSlotNo":365759,"stakeKey":"stake1u9z5fr7jnxxylpqmyyaahpe09ap47ma7su37jmkjzljpgrc2he2fx"},{"txId":30586606,"txHash":"68539e8aaad874ca06d081fd7845dda44603c5b3534d04b63bd151cc7bd37230","txTime":"2022/02/09 03:20:22","block":6859393,"epoch":319,"slotNo":52810531,"epochSlotNo":365731,"stakeKey":"stake1uymwrh74t2nt8tfdtrjj33m7eyykluw0jwnz86s7d47sfzcas84w3"},{"txId":30586370,"txHash":"a4e6bfc88636cdfc86a85eb2657eb29f919db65000b2faabc3e3a557112a266d","txTime":"2022/02/09 03:16:31","block":6859385,"epoch":319,"slotNo":52810300,"epochSlotNo":365500,"stakeKey":"stake1u8j94twur9ss3ey3sr2rs7ddeaq8hnxv49hck2yp9uey46s6em7dq"},{"txId":30586328,"txHash":"237e321b4c55af4bd2e4be832467eb80a7d6988bd8b471e6863dbfceb433bbab","txTime":"2022/02/09 03:16:31","block":6859385,"epoch":319,"slotNo":52810300,"epochSlotNo":365500,"stakeKey":"stake1uxw40s6dug4lwk0urx3pv390g774jmzt77u4ph82avmvquqvyqpnx"},{"txId":30586318,"txHash":"8637a75f51c2d7dca2c206164601af8816977a096eae59236ceec6d6024476f4","txTime":"2022/02/09 03:16:16","block":6859384,"epoch":319,"slotNo":52810285,"epochSlotNo":365485,"stakeKey":"stake1u9qd4xk5hwgjy7ghq5p9lhfykjz4qmrqdv0n6htvfxgpnmg3jllw2"},{"txId":30586261,"txHash":"b70ccd59da2932db6a7780ab778245e83928f94a40cdc66c90081df0a5b1d37a","txTime":"2022/02/09 03:15:24","block":6859382,"epoch":319,"slotNo":52810233,"epochSlotNo":365433,"stakeKey":"stake1uyq55pmlnnf7d5hvjcqlwanvlxmycrjhs5h8n7v9hq3xzts6zy9ep"},{"txId":30586249,"txHash":"b3e0b472ea67fb8722e56b3f88c54d98d88b1874417345eeafe2bb4b3724df59","txTime":"2022/02/09 03:15:18","block":6859381,"epoch":319,"slotNo":52810227,"epochSlotNo":365427,"stakeKey":"stake1uyaajze7nc8n9mrac9etcx3qd6mk6crup8tdjpz5fr62yxqqn4ukc"},{"txId":30586126,"txHash":"c2075e287ed1d0d8001ba917cc584f99ffe87920177e5d77cf74ec1d00277202","txTime":"2022/02/09 03:13:47","block":6859377,"epoch":319,"slotNo":52810136,"epochSlotNo":365336,"stakeKey":"stake1uyhxwg8vdf3zd9rnwp3mdx20lf6q9t6pg7glmywmaektpdsdvl8mh"},{"txId":30586078,"txHash":"dbffebfa3fe81328e20c3d14fcfa4d586d084fb795ae908cbec160575871820b","txTime":"2022/02/09 03:13:20","block":6859375,"epoch":319,"slotNo":52810109,"epochSlotNo":365309,"stakeKey":"stake1u97m4tu20r0v2vuaczxwduyzd08jkgntwsywuhwk42q25uq9mqkrq"},{"txId":30585910,"txHash":"f8da6f92cd454769c40ac63f70737e0a989a939e6426508c6a52d191155113fc","txTime":"2022/02/09 03:10:23","block":6859369,"epoch":319,"slotNo":52809932,"epochSlotNo":365132,"stakeKey":"stake1uym0vg395lg3uxlvap57xedfyxt66rp5ueggm4ahjp9yveqcq263h"},{"txId":30585814,"txHash":"74d6ccf9095df1a313f8bd507961868ed065f9ca1413417311e123790fe4059b","txTime":"2022/02/09 03:08:47","block":6859363,"epoch":319,"slotNo":52809836,"epochSlotNo":365036,"stakeKey":"stake1uydpemkmn2ck6dx5nyfd2n0knan2dmctcqncg6vywaa8w6c92w8lu"},{"txId":30585593,"txHash":"256d502aef88a638a1f49985f783af6bcd993ec8d470ef49ac9c63d7fa184aff","txTime":"2022/02/09 03:04:58","block":6859353,"epoch":319,"slotNo":52809607,"epochSlotNo":364807,"stakeKey":"stake1u9vqsyuzzxqzftz2228ec02nu65nvg223rhvx6qfncmue8sc6ps7m"},{"txId":30585498,"txHash":"9158150bd45c87506964ab699acf0ca86924b3731103474d2d880d4b70b890a0","txTime":"2022/02/09 03:03:15","block":6859348,"epoch":319,"slotNo":52809504,"epochSlotNo":364704,"stakeKey":"stake1u8pvq0ak3ufjm4ex2v4vwns3cv6d66e2lzykjfa3c3th50g84sqc2"},{"txId":30585414,"txHash":"e35a6b65c1ce1bf98d3fbd7f3be4f801a963ec1e17da4345607029cabccfcf03","txTime":"2022/02/09 03:02:05","block":6859345,"epoch":319,"slotNo":52809434,"epochSlotNo":364634,"stakeKey":"stake1u90yp99fr4zu24ysh203eke3f4mqvhccpa8kcpvekc0226sjg2fy4"},{"txId":30585380,"txHash":"a70101bb3abc83b78f2119d55be31c40350f7246b171ec8688c5360206de7698","txTime":"2022/02/09 03:01:52","block":6859344,"epoch":319,"slotNo":52809421,"epochSlotNo":364621,"stakeKey":"stake1uxxqevtw0t3m09zn7cz3rzar98qy3gwtx5g67vyqdkqdfwghddx6p"}],"totalItems":1402867,"totalPages":70144,"currentPage":0}