{"data":[{"blockNo":8126493,"slotNo":79206638,"epochNo":380,"epochSlotNo":409838,"hash":"d5e575c39af828839f52c31bd70a85b238ccbda0941b50b4a5e07ca5dd29dcb1","time":"2022/12/11 15:35:29","txCount":18,"totalFees":5892092,"totalOutput":31642019711,"slotLeader":"0f581255fdb8e8e88d3676a3cbede33e1f2456171cbe39266b3db679"},{"blockNo":8126492,"slotNo":79206621,"epochNo":380,"epochSlotNo":409821,"hash":"fb1687a93755ae36efdc100f5e90617e59fe89b83a152afd145bbbefc7e3de68","time":"2022/12/11 15:35:12","txCount":1,"totalFees":186181,"totalOutput":286510658,"slotLeader":"365a5a9c59aa3971d96511a5bce24c4598849d0d3c2d61217dc0b488"},{"blockNo":8126491,"slotNo":79206618,"epochNo":380,"epochSlotNo":409818,"hash":"b5ca5477842dfce08652e66305937d6f321fa944f95fdbd62ddb6535310723cf","time":"2022/12/11 15:35:09","txCount":7,"totalFees":1792506,"totalOutput":31751893171,"slotLeader":"661d04fdb7aa2c2476bbc6827d11ec22ec04ecb953495ade0f7b2352"},{"blockNo":8126490,"slotNo":79206616,"epochNo":380,"epochSlotNo":409816,"hash":"85ae894ea51be7a96a0fdef1c37c598a4a9bd1dd3a7c9a217df4afc23bb946fb","time":"2022/12/11 15:35:07","txCount":49,"totalFees":15421210,"totalOutput":1442531244339,"slotLeader":"d68eed68381b65beb04fc7984dfa156c4dbf53c7911e900af6a535ef"},{"blockNo":8126489,"slotNo":79206608,"epochNo":380,"epochSlotNo":409808,"hash":"2f64ead903fae3041535570603b250738b687c82795dbf0744e1fe2f0abb9942","time":"2022/12/11 15:34:59","txCount":45,"totalFees":13559252,"totalOutput":1406191324855,"slotLeader":"6b51a5aae5b4b5f07f38acf12816b4f8a558ee2840d0dba69040aeb2"},{"blockNo":8126488,"slotNo":79206453,"epochNo":380,"epochSlotNo":409653,"hash":"ad9995a3e1d9a2361ad3f14c258c98f476109b4c17010057280b1a6e9be8f44f","time":"2022/12/11 15:32:24","txCount":3,"totalFees":853389,"totalOutput":666883837,"slotLeader":"da482311081902f95d08bb05d878126904a1e133dd06901e05e652ce"},{"blockNo":8126487,"slotNo":79206448,"epochNo":380,"epochSlotNo":409648,"hash":"04fa6577445523dcffa46b359d439ade3670728440cc6ec10dcbb11807604fc7","time":"2022/12/11 15:32:19","txCount":38,"totalFees":10232100,"totalOutput":897092423625,"slotLeader":"3407812f0f5b698329dd4db9b7748e7aa6078b5e5f74c0af318385e4"},{"blockNo":8126486,"slotNo":79206406,"epochNo":380,"epochSlotNo":409606,"hash":"e151fc3e618ca1508b8070f1159ffb1f061b4a614f99e5f6b591c70a116e7ec7","time":"2022/12/11 15:31:37","txCount":18,"totalFees":7288539,"totalOutput":2791996092714,"slotLeader":"8857ee40b59bbc752e8cab4e5808e204cf7c4ce338fd7b86f4db0cc6"},{"blockNo":8126485,"slotNo":79206380,"epochNo":380,"epochSlotNo":409580,"hash":"c6ccac659742e213277fed6837e93f41b5f1e43257426471c133d48e37b4c028","time":"2022/12/11 15:31:11","txCount":23,"totalFees":8096065,"totalOutput":2826266783049,"slotLeader":"04357793d81097a7d2c15ec6cd6067a58cdd2fb21aaf07e56c306ecf"},{"blockNo":8126484,"slotNo":79206361,"epochNo":380,"epochSlotNo":409561,"hash":"ad687fedffbbf53a94711d32c6ed301daca3826db796c68a801bc3eec569a19c","time":"2022/12/11 15:30:52","txCount":7,"totalFees":2581961,"totalOutput":320369535170,"slotLeader":"eb7d911eb4c0ca066badadab42d80d5b59a5ce996389523a26edb64a"},{"blockNo":8126483,"slotNo":79206358,"epochNo":380,"epochSlotNo":409558,"hash":"38287527f679a32be6cd94fb32d63911db6bfcb5f898004cd442e6934ee9396e","time":"2022/12/11 15:30:49","txCount":9,"totalFees":2691630,"totalOutput":15194218199,"slotLeader":"d679d78bbfefe7e03e05e7a42f9088075af0f15f501a631c67e64037"},{"blockNo":8126482,"slotNo":79206352,"epochNo":380,"epochSlotNo":409552,"hash":"79433b9ba9535f9c27319069aaf28973c4214d891bf72a8ef590536645461670","time":"2022/12/11 15:30:43","txCount":3,"totalFees":927910,"totalOutput":54490443556,"slotLeader":"7d89d3f11170f5874c5b781b80864be392edcd9c8715ccce18155a8f"},{"blockNo":8126481,"slotNo":79206349,"epochNo":380,"epochSlotNo":409549,"hash":"5589e38bb83ca592df4428a8e0700dddd066e7b5b45afaf6f910d04db36d8c0d","time":"2022/12/11 15:30:40","txCount":6,"totalFees":1270185,"totalOutput":387412990644,"slotLeader":"2fd4fd5fbfe773a7105bf2e415c51f9943ded365855396e70ae3ca90"},{"blockNo":8126480,"slotNo":79206342,"epochNo":380,"epochSlotNo":409542,"hash":"34dab358067e5e68e465862614691ccc42b9040dfedc2ddd71c548c9710edaff","time":"2022/12/11 15:30:33","txCount":15,"totalFees":6529419,"totalOutput":3966320563279,"slotLeader":"d854986d64cb440f9554576eee79542ddd86afa49008f9223da2549e"},{"blockNo":8126479,"slotNo":79206331,"epochNo":380,"epochSlotNo":409531,"hash":"17604c0c41fcd00b503adc0c3b096e241c1a0e5a4f32a0ce07cdd20e731421c9","time":"2022/12/11 15:30:22","txCount":6,"totalFees":1535519,"totalOutput":28551768055,"slotLeader":"059b4217a24a8c67a363968ff1db13a17ed96e611362450c115b2415"},{"blockNo":8126478,"slotNo":79206318,"epochNo":380,"epochSlotNo":409518,"hash":"bcd278b549e1ff8372cf2b0ada7a940a224a28374f9f00ad37f0378d507c3a4f","time":"2022/12/11 15:30:09","txCount":36,"totalFees":11678596,"totalOutput":1640191680597,"slotLeader":"9f1bd8718fffe41cbd70761991819fbbd9552b4c44c30e1a6fc96766"},{"blockNo":8126477,"slotNo":79206281,"epochNo":380,"epochSlotNo":409481,"hash":"eadfe1900442db731d7eb082fb76159a0075291b277d45452127a322d695e6de","time":"2022/12/11 15:29:32","txCount":14,"totalFees":6185376,"totalOutput":77544947744,"slotLeader":"f0e505f8f0d7beccffe83c287d0d2ff6a46ec5d38345e8bd35359427"},{"blockNo":8126476,"slotNo":79206271,"epochNo":380,"epochSlotNo":409471,"hash":"786d20969bcf649069beacac632e1ee20d2ae51bc8462374c4a19af959d15b92","time":"2022/12/11 15:29:22","txCount":19,"totalFees":6114126,"totalOutput":61409554761,"slotLeader":"3200ed8ab323773d4d1a64333a0d79b93dc8f3a45c37f88141e34317"},{"blockNo":8126475,"slotNo":79206250,"epochNo":380,"epochSlotNo":409450,"hash":"e7df05cba95c4c08f12fa34ff30627c55587767761ee3edd149aa50acd12492c","time":"2022/12/11 15:29:01","txCount":7,"totalFees":3469187,"totalOutput":110031531381,"slotLeader":"83f09b0af923a095a1c17905e802a35d1044f974b25d2a755a2d8266"},{"blockNo":8126474,"slotNo":79206238,"epochNo":380,"epochSlotNo":409438,"hash":"105d371541217fba94df6cf503e3eb67cf3e7e4b249a1578457ebd70a8ad5a94","time":"2022/12/11 15:28:49","txCount":3,"totalFees":533703,"totalOutput":2692060413,"slotLeader":"523484ee98a83c3139c66eeef334d67f96467241d34abb655baeade0"}],"totalItems":8126669,"totalPages":406334,"currentPage":0}