{"data":[{"txId":51241437,"txHash":"393ec4bbcf7d5b35be3c905722cc5074196c515f897813da3e5f826be778d796","txTime":"2022/09/29 17:24:28","block":7820444,"epoch":366,"slotNo":72905977,"epochSlotNo":157177,"stakeKey":"stake1u8dxju4vzfv8sphh8sagddhjtp4gp5hrscddtkhp2864j4geehn7v"},{"txId":51241044,"txHash":"200e93cfc5338ca156e655a8e679095f5c8357de4e9fdd9d1e2f879e071e9142","txTime":"2022/09/29 17:16:17","block":7820422,"epoch":366,"slotNo":72905486,"epochSlotNo":156686,"stakeKey":"stake1uxnycnrlw82avnfg30w6us8h8ap8hn9xnh0vu30tmetf5ws3thke7"},{"txId":51241018,"txHash":"dbe30b9ce8136d7fe0b81dcb438aff898aa5ef81ed2a0ddab2bad90dd966e122","txTime":"2022/09/29 17:15:58","block":7820420,"epoch":366,"slotNo":72905467,"epochSlotNo":156667,"stakeKey":"stake1u8f2n0twpveszlhzg4y3zc9e9lww9tvctc6h52penhfl8aqfx6rxe"},{"txId":51240835,"txHash":"8dc471254522b7d03b0a77c3bf56b4dcd712a579e0a7f738cfe73485f6b78213","txTime":"2022/09/29 17:12:02","block":7820412,"epoch":366,"slotNo":72905231,"epochSlotNo":156431,"stakeKey":"stake1u9p8tq8y4vhd69aza9v7ffr8jaa7g60hnp9uxgxhsqeprwqkjxn75"},{"txId":51240765,"txHash":"56f5516ec31c9015a0d6acf60bd19657b2c52c817c3703e8238e2734bf64bcf4","txTime":"2022/09/29 17:10:57","block":7820409,"epoch":366,"slotNo":72905166,"epochSlotNo":156366,"stakeKey":"stake1u8k0hgzsqrwrkxj63l89zu5czeplyq5d93qrt09q6nh07mc7rkl0x"},{"txId":51240699,"txHash":"c92d6e2203a292f9a6b26b34bcfecf1551de369b520af8801d5ee86a07125e07","txTime":"2022/09/29 17:09:32","block":7820403,"epoch":366,"slotNo":72905081,"epochSlotNo":156281,"stakeKey":"stake1uxdlq0gtdk6u40ar6k2r84tge8ndfxfx8zgwvyt97dv3kasmwpsx9"},{"txId":51240691,"txHash":"ebd504e51aa31a2d2d54602c1eb1004c18446119aaf2b56598af1cc5791b7a1c","txTime":"2022/09/29 17:09:32","block":7820403,"epoch":366,"slotNo":72905081,"epochSlotNo":156281,"stakeKey":"stake1uxxqhljrtp7ef70qs987scv74yzt8rnj4stdauexkdfhmdgzl7gt2"},{"txId":51240643,"txHash":"bad2f68a7c380a7a21ef560610d0b3961105cc87eaff4ee6cb3f275944edb0cd","txTime":"2022/09/29 17:08:32","block":7820401,"epoch":366,"slotNo":72905021,"epochSlotNo":156221,"stakeKey":"stake1u9u2tag7x8fdlr07gnv4f6akg7huqfpmt23pnqsrgr5x20qu5aycp"},{"txId":51240530,"txHash":"8274e27b2f2fd267b51f0ac590c39577bb806824927d4aa427ff0f0765464b27","txTime":"2022/09/29 17:06:26","block":7820393,"epoch":366,"slotNo":72904895,"epochSlotNo":156095,"stakeKey":"stake1u85qa7veljg447vpwewcz4q9gyc4h5p2xdxlz30n9speuqgz5exue"},{"txId":51240529,"txHash":"5d73ebf333562d12868f23c72712f2a3766d0116f429014f96103b1d78ead619","txTime":"2022/09/29 17:06:26","block":7820393,"epoch":366,"slotNo":72904895,"epochSlotNo":156095,"stakeKey":"stake1u9jqsjnnqc6yy98a472hxypfv54kz0v85lq6wy9tgeqk95cdu0n2h"},{"txId":51240484,"txHash":"b57548e3490d96a508cb0e440980ce0420c4b781000c63cc50ec66bc242eb39e","txTime":"2022/09/29 17:05:48","block":7820390,"epoch":366,"slotNo":72904857,"epochSlotNo":156057,"stakeKey":"stake1uygre98f4hhaqp2awha936js956x0n093ykzeut6848uvagv7eury"},{"txId":51240362,"txHash":"d0e8c16162ffb9882d834643096b558ecd35f9edbf2c59950b3ef5cc2aafb9d4","txTime":"2022/09/29 17:02:57","block":7820386,"epoch":366,"slotNo":72904686,"epochSlotNo":155886,"stakeKey":"stake1uyx6apv9v6rq0tl4eq50y8wecy4dfh7xxtn0dr0cdgs33lqaes36x"},{"txId":51240247,"txHash":"3e31f7c6429f6e60026bb008bea924c74dfa04686c468be23771ba0ba001de82","txTime":"2022/09/29 17:00:16","block":7820381,"epoch":366,"slotNo":72904525,"epochSlotNo":155725,"stakeKey":"stake1uxs9xm2fe32um7vna7atpy3n05zwnww0tju294sr70fy35chavxwu"},{"txId":51240230,"txHash":"c5df78ff70f3ce2b3089fa609bffa25804a3ebfae11eb1297134b3286dbebe1f","txTime":"2022/09/29 17:00:16","block":7820381,"epoch":366,"slotNo":72904525,"epochSlotNo":155725,"stakeKey":"stake1uxsvas3he458hugn4ezhmu8vmuv2uz7mutpcsyksca6g8tgu27sct"},{"txId":51239800,"txHash":"a99d26b810cbe73614fbddb3c85d5bf69824d2400470dbec7d523417bb95de51","txTime":"2022/09/29 16:50:21","block":7820350,"epoch":366,"slotNo":72903930,"epochSlotNo":155130,"stakeKey":"stake1u8hfaj405m85gnyyvkp4lum7s3mm9nadzjfwr4jh5y4syds42qadx"},{"txId":51239541,"txHash":"c491bec525251c5cc7f131e6fc06de907c72a60c8c8bce9f6fa82692b9f55cc7","txTime":"2022/09/29 16:45:22","block":7820329,"epoch":366,"slotNo":72903631,"epochSlotNo":154831,"stakeKey":"stake1uxt7v83n0j5vqehgt4vq3ah6n4tmdjj34jtnuemur0q5vcg2g2avr"},{"txId":51239194,"txHash":"0154c20f0e1ad7233890162b3e2d597fef00a759d9cde64623c4f7a32f6d03e8","txTime":"2022/09/29 16:38:34","block":7820310,"epoch":366,"slotNo":72903223,"epochSlotNo":154423,"stakeKey":"stake1u9mz5nz3vjvlgvzj77ch2pdfnxhj2xcrdasa6ssmss9ujjsuz338m"},{"txId":51239105,"txHash":"9d873f02dd86a112530aa6ed3b4f3910c93e462568a7c1287214c74bbf2fe567","txTime":"2022/09/29 16:36:34","block":7820307,"epoch":366,"slotNo":72903103,"epochSlotNo":154303,"stakeKey":"stake1ux8s7a604u9vl6gdc6knfy48xnytu23fvc0zaemszx8hafc8xy36j"},{"txId":51238908,"txHash":"1589c692c1390abeb76ae68a3767453380675111515d42632c09e20ded843fbf","txTime":"2022/09/29 16:33:20","block":7820296,"epoch":366,"slotNo":72902909,"epochSlotNo":154109,"stakeKey":"stake1uy6gy48khf46alrwh8fel8p5fpczay2vnlrnkuu0skgs7mghandvu"},{"txId":51238892,"txHash":"9833db859e02fe04e25022c47ec6ada25786c8d737b419708554964ceea761ae","txTime":"2022/09/29 16:32:41","block":7820294,"epoch":366,"slotNo":72902870,"epochSlotNo":154070,"stakeKey":"stake1u9fvdtj6n9kzpgt98flyt29q2tekqfzt7l4rs76e389qvrcs3ukpt"}],"totalItems":1581261,"totalPages":79064,"currentPage":0}