{"data":[{"txId":30688385,"txHash":"fe0ce738386a1ca05e9429d7d6ea1f1ace9ce760ec9ea6216a402acb70c12e55","txTime":"2022/02/09 15:04:58","block":6861406,"epoch":319,"slotNo":52852807,"epochSlotNo":408007,"stakeKey":"stake1u80q4rmh7gfp6c5wf2ksuhnmkgyvmt8mn85rjpqka5alm5ss4f0lu"},{"txId":30688290,"txHash":"63258bb6eae5956035cbb50bb8e4a09e7b6d4ead18362f6a8ac247526901055b","txTime":"2022/02/09 15:04:32","block":6861404,"epoch":319,"slotNo":52852781,"epochSlotNo":407981,"stakeKey":"stake1u8l53lklsdwksur7npjunlswptyw23puqadj8wzzkduh7kqdkp23e"},{"txId":30687960,"txHash":"745e9b72a8fe76d0876e0d9817814f26733746e81edfad8b9510af35c8f200a9","txTime":"2022/02/09 14:59:45","block":6861391,"epoch":319,"slotNo":52852494,"epochSlotNo":407694,"stakeKey":"stake1u8hdjacysjlrqhslh8m7lcxdz3sm34n4qyz4ayeqkt5ehtqp9hexn"},{"txId":30687408,"txHash":"331e8af5f1799772862425bfd62a516471679ab43cb44bd3f41774f8e35b4ca3","txTime":"2022/02/09 14:51:07","block":6861370,"epoch":319,"slotNo":52851976,"epochSlotNo":407176,"stakeKey":"stake1u9v85mm3xzapcphxrhtfl8ws9st2t0xmhlsurasm92qsd4s0cyvru"},{"txId":30687105,"txHash":"543831955c189958f4b15101ba4963fe86a42297e22bc72426e84d07b89c39e6","txTime":"2022/02/09 14:49:19","block":6861362,"epoch":319,"slotNo":52851868,"epochSlotNo":407068,"stakeKey":"stake1uxk2u447dl88l2v4cy3k89mackjj36gwc3ey7vw57cznrqg3smyyd"},{"txId":30686695,"txHash":"2f4eb1b59a6eb84da3aabfd75291df3430ece4d5bf5c7dd740b9a2a87659233a","txTime":"2022/02/09 14:46:00","block":6861350,"epoch":319,"slotNo":52851669,"epochSlotNo":406869,"stakeKey":"stake1u9c4ev2gxtg8973y6pyuzpukwaqqgksd3fp4zae4vytvqpcjwcn3f"},{"txId":30686627,"txHash":"b5cb1a5ab47ec4b834bbb90c5921736ed30180d827b523a555b3bae189abca8d","txTime":"2022/02/09 14:45:23","block":6861347,"epoch":319,"slotNo":52851632,"epochSlotNo":406832,"stakeKey":"stake1u9pkd6tazy0gqa2n90krsa23ag99zkycd8a8jnykzhea8ysw2r55m"},{"txId":30686623,"txHash":"0334859976025792de041461169c37984a495535a6102f315d447cef9b88e620","txTime":"2022/02/09 14:45:23","block":6861347,"epoch":319,"slotNo":52851632,"epochSlotNo":406832,"stakeKey":"stake1u85qddcjlwrwhhsddh9z7wpu9w2suut6j6c5cl4q20ssyqsl4dnrr"},{"txId":30686621,"txHash":"8e69388c33feb921cc9011d14fb5d087ed4718a7a4618095af1ba599f1aa366e","txTime":"2022/02/09 14:45:23","block":6861347,"epoch":319,"slotNo":52851632,"epochSlotNo":406832,"stakeKey":"stake1u8ec8vrv9hvvgvxprzy0rprtx4nm4s2qssk5p92fu5muk3ql8msua"},{"txId":30686443,"txHash":"36ae0f1fa7e9ff7b0b268f1c32aa4679bd8dddc3ead3a2ecbaef8a26cdc658f1","txTime":"2022/02/09 14:43:40","block":6861339,"epoch":319,"slotNo":52851529,"epochSlotNo":406729,"stakeKey":"stake1ux3mux43hxk3f87vvqz6n5swn9m22jjnwwpf6g354ywr73c3snsmf"},{"txId":30686164,"txHash":"55281daf520092985b88b214edbdc6d1a39aaa07071c7f1fb14900a1604a5a37","txTime":"2022/02/09 14:38:34","block":6861328,"epoch":319,"slotNo":52851223,"epochSlotNo":406423,"stakeKey":"stake1uxgcx6p5ylt6e2rklcfvsx4sukxl4hza4q6cw9yqgw7vjjgnc47ru"},{"txId":30685903,"txHash":"34575d21a9f11a6f3f47654babe6449a8951a1b61b91930ad19eb83760436d1b","txTime":"2022/02/09 14:34:57","block":6861319,"epoch":319,"slotNo":52851006,"epochSlotNo":406206,"stakeKey":"stake1ux9d6qfja5232jefkjp42dme7lsllczvy4kdht9ughnm6ls926g07"},{"txId":30685873,"txHash":"6e40710e797d34f73fcd10724d441333742274a48d951cd8d566d628ba5ed54b","txTime":"2022/02/09 14:34:49","block":6861318,"epoch":319,"slotNo":52850998,"epochSlotNo":406198,"stakeKey":"stake1u8jhu2q5pvqwy5ww4anfwqpakln384qkz6fzcxrsphlpgfsjatdn6"},{"txId":30684506,"txHash":"25afec0ed990bab3626245dad54b94a7eb7d743aa9275edce954acb525b4a6af","txTime":"2022/02/09 14:17:14","block":6861272,"epoch":319,"slotNo":52849943,"epochSlotNo":405143,"stakeKey":"stake1u8eqnxhuj3lvgynfeurr7vk9gk3xa2zxxz67jjcwh2lx5hsq272ar"},{"txId":30683846,"txHash":"fbad4552c39b81cffc2e9919035ce1ac786cb9a84bfb70d6419a439100482195","txTime":"2022/02/09 14:09:31","block":6861247,"epoch":319,"slotNo":52849480,"epochSlotNo":404680,"stakeKey":"stake1u8jngv0936phe4hdyk6mum52d6w02kerz2lrt4ayx0sk3cq3exg4s"},{"txId":30683521,"txHash":"ded5f356563d2bc3ccf5e9dbbfafc30059c05ae66f1bf3500bca1e58195a9b30","txTime":"2022/02/09 14:06:03","block":6861236,"epoch":319,"slotNo":52849272,"epochSlotNo":404472,"stakeKey":"stake1u98q2kjhtdrmhlxcljdffr33zh6yjqp7d2mxgrx6w90ehdc43xl4t"},{"txId":30683406,"txHash":"4e5ae328768a4d40eba82f45b44ce8a4d6273defaccbd22e5021df7006e5c7a7","txTime":"2022/02/09 14:04:19","block":6861230,"epoch":319,"slotNo":52849168,"epochSlotNo":404368,"stakeKey":"stake1uy65dscfvq4yks53g2kgne9qyh6xnvt6vtjgxeyusdr4s7qu03kqz"},{"txId":30683378,"txHash":"03789843a8ebb635ad9f68d8bebfdabd27b24b5fbd3f075d496e1d2f48e8111c","txTime":"2022/02/09 14:04:19","block":6861230,"epoch":319,"slotNo":52849168,"epochSlotNo":404368,"stakeKey":"stake1u8ygfz74md5hras8y0wg556ls7g8ssweaqxr5vlwmhxrhrstcmzxk"},{"txId":30682665,"txHash":"ab71793e3ea2d21258f9801bb7e40de5f31b18e1e2b362b559ad369717c961b6","txTime":"2022/02/09 13:53:53","block":6861203,"epoch":319,"slotNo":52848542,"epochSlotNo":403742,"stakeKey":"stake1uy0sw8zly8npczcfy35wqc5nrp5nwlhkvatytttqqfysrrqtpn3vt"},{"txId":30682228,"txHash":"3418a6adeb2da82a18c253c7077fa393585fb858679e789d8e3e3be9989bc503","txTime":"2022/02/09 13:47:43","block":6861186,"epoch":319,"slotNo":52848172,"epochSlotNo":403372,"stakeKey":"stake1u94n858defy3gck5vs2lcxavfq9xdhpt2alfw0602rsdqvg9kxsff"}],"totalItems":215942,"totalPages":10798,"currentPage":0}