{"data":[{"blockNo":8058353,"slotNo":77809109,"epochNo":377,"epochSlotNo":308309,"hash":"8740734fe0b33d1a1386dc59014f55b6fa5de5ff7d7b45b23d7d23c032ecdf77","time":"2022/11/25 11:23:20","txCount":46,"totalFees":11981047,"totalOutput":1090635300436,"slotLeader":"31af0509d4376a8a55b40e952aea7f009c13cadf0338c57512ff42e9"},{"blockNo":8058352,"slotNo":77809016,"epochNo":377,"epochSlotNo":308216,"hash":"fce9ee92badd25923cb334c73eac02723faa8f7c574c00ba4372ed9d11b5d69e","time":"2022/11/25 11:21:47","txCount":16,"totalFees":4158515,"totalOutput":749905313442,"slotLeader":"e2eed9f58a161573050ab9324252b4fcccbf9fe06e1a034b6f91d748"},{"blockNo":8058351,"slotNo":77808996,"epochNo":377,"epochSlotNo":308196,"hash":"9f24d7885e62821c3e3098b2cbdd60e697af81f196e972fbcaba7af2b2ef1262","time":"2022/11/25 11:21:27","txCount":6,"totalFees":2384538,"totalOutput":1360699737577,"slotLeader":"bdd750e173f3d606c1af13b8661da7c0b5fa43121741c593cceec822"},{"blockNo":8058350,"slotNo":77808988,"epochNo":377,"epochSlotNo":308188,"hash":"bcbdf2d5a4dd72495d4185ea45c8050c59714b36430268d7a43cad3adc86c773","time":"2022/11/25 11:21:19","txCount":10,"totalFees":3037549,"totalOutput":2428951737,"slotLeader":"153806dbcd134ddee69a8c5204e38ac80448f62342f8c23cfe4b7edf"},{"blockNo":8058349,"slotNo":77808970,"epochNo":377,"epochSlotNo":308170,"hash":"d5e74e533826f8d9646cf10538a2efef142b96b4200307d25f57a58e3825f48f","time":"2022/11/25 11:21:01","txCount":27,"totalFees":6540025,"totalOutput":2864026481946,"slotLeader":"04357793d81097a7d2c15ec6cd6067a58cdd2fb21aaf07e56c306ecf"},{"blockNo":8058348,"slotNo":77808916,"epochNo":377,"epochSlotNo":308116,"hash":"85c62bb9d3e620da4390406f7f370fb84a86486245b85729bc8025b4aa7d16f5","time":"2022/11/25 11:20:07","txCount":4,"totalFees":784270,"totalOutput":6831268699,"slotLeader":"fdc55442d4c89bfa42bb62ac640ed710afd6eb79531e6dbb8459eb46"},{"blockNo":8058347,"slotNo":77808913,"epochNo":377,"epochSlotNo":308113,"hash":"877b70dd70f12c89cfa5a161d29b22efd1b9f1a84c9fd8c72420595b7b296985","time":"2022/11/25 11:20:04","txCount":15,"totalFees":4966694,"totalOutput":17724317518351,"slotLeader":"5eb362978a68a4780f4fd701b8f04f5aeb990eb80b1cb025d99e82a1"},{"blockNo":8058346,"slotNo":77808890,"epochNo":377,"epochSlotNo":308090,"hash":"e8697d5839f15e03d0af57d0ad43be948dc113826d0d199076d02ed9d5b2563d","time":"2022/11/25 11:19:41","txCount":5,"totalFees":2785621,"totalOutput":7373135710371,"slotLeader":"b3cc3005f1dccbc88230eb66d6e99c2f1bfa32273044473e17d9e10b"},{"blockNo":8058345,"slotNo":77808883,"epochNo":377,"epochSlotNo":308083,"hash":"1944722875a4baf033002b9f9cf6e5cb6222dffb89ba8dedaa168a2a53836daf","time":"2022/11/25 11:19:34","txCount":19,"totalFees":5784276,"totalOutput":641384570430,"slotLeader":"fe59e220d8036bd7533bf393e26abde56ec7d49fa632e57bf696d134"},{"blockNo":8058344,"slotNo":77808858,"epochNo":377,"epochSlotNo":308058,"hash":"fb042afd0e947495bd113cefbf9500d6180c025e9d35bfc04aebd6d9b873d0c6","time":"2022/11/25 11:19:09","txCount":3,"totalFees":1771582,"totalOutput":39907528465,"slotLeader":"a250eb51869c6b94cbc507d22e76ed0f35d31ccabdb1725cfbcddb75"}],"totalItems":14998,"totalPages":1500,"currentPage":0}