{"data":[{"blockNo":7790425,"slotNo":72290495,"epochNo":364,"epochSlotNo":405695,"hash":"f12b24a755e306b36758ab1005d92b7e9c1511cf4fe740d44364424c54456484","time":"2022/09/22 14:26:26","txCount":5,"totalFees":1344960,"totalOutput":95543670796,"slotLeader":"618ab17ec8ea7239b4ac0c826b667c599489e25524ce74841a29d510"},{"blockNo":7790424,"slotNo":72290491,"epochNo":364,"epochSlotNo":405691,"hash":"bd0aac285f88c9a50a5bfce7c87891b00780d2dc2dc2280331b6af4b2e2049db","time":"2022/09/22 14:26:22","txCount":19,"totalFees":5512077,"totalOutput":3577725314,"slotLeader":"d66b1218d56cb0c9c3937207b3ae61bbff21ae212ae791722062f0e1"},{"blockNo":7790423,"slotNo":72290472,"epochNo":364,"epochSlotNo":405672,"hash":"b92ef6b40997e1e6643a48efcd5cd136c2752a01ec277f6f3c8822ced820b7e8","time":"2022/09/22 14:26:03","txCount":2,"totalFees":428066,"totalOutput":1734440099,"slotLeader":"1b268f4cba3faa7e36d8a0cc4adca2096fb856119412ee7330f692b5"},{"blockNo":7790422,"slotNo":72290469,"epochNo":364,"epochSlotNo":405669,"hash":"12c3470fa8236bcc0ebc72a540e464e08df94a42222eb2ed94f6c834e0b8e9de","time":"2022/09/22 14:26:00","txCount":32,"totalFees":12748544,"totalOutput":2846790689299,"slotLeader":"9ca4378a7ee308d910efd7a611a1df2181314c25723ff4cfa855664c"},{"blockNo":7790421,"slotNo":72290421,"epochNo":364,"epochSlotNo":405621,"hash":"5b53f9a3aa1a8d110f24f44f3345e6405c73d44e310b48e0801e1a19b928d804","time":"2022/09/22 14:25:12","txCount":5,"totalFees":1563377,"totalOutput":521724919,"slotLeader":"c7e431518477a4156c2a8cd6523a6a73514e7fbbbf7eed363b9a22ad"},{"blockNo":7790420,"slotNo":72290415,"epochNo":364,"epochSlotNo":405615,"hash":"7e4cb028f0e2b29281dc6bb51e7127ddb0ceb5991bed8065d831b52680a06e72","time":"2022/09/22 14:25:06","txCount":2,"totalFees":798282,"totalOutput":7226682530,"slotLeader":"0c2cfc283e0bbb85b9ef9d852c99ae7ee13f20f36b70fd648c6c3448"},{"blockNo":7790419,"slotNo":72290411,"epochNo":364,"epochSlotNo":405611,"hash":"59a8305c09cd7be5fa3cf8ef361bfa7b13cb69b55e20c94ae7b75c56d6a5ae55","time":"2022/09/22 14:25:02","txCount":9,"totalFees":5364721,"totalOutput":353454482069,"slotLeader":"76bfa1b2e6593740c3388ed881cbe851dbab8d8741652c9bad16cc94"},{"blockNo":7790418,"slotNo":72290398,"epochNo":364,"epochSlotNo":405598,"hash":"af6827b6b26666fc8c250b2f91f617010d18c086e36933c2a27747799fdcd3e4","time":"2022/09/22 14:24:49","txCount":4,"totalFees":840240,"totalOutput":936833165,"slotLeader":"397f04eb0ae0497d8c4d691844c8c6b026bc942e3f406f26b8e24f48"},{"blockNo":7790417,"slotNo":72290393,"epochNo":364,"epochSlotNo":405593,"hash":"a633de5de5a5b1a68580485d538668a386ed5ac0f48d14c427a643f2879114ba","time":"2022/09/22 14:24:44","txCount":11,"totalFees":4492668,"totalOutput":381514671878,"slotLeader":"a7784228ea544bc94455e76f527aaee53266929f0bb2896893a0444f"},{"blockNo":7790416,"slotNo":72290379,"epochNo":364,"epochSlotNo":405579,"hash":"ec62ae33d4a2331deaf0815a013daae92436ee99bb3315e48b2f6f910b45e1a4","time":"2022/09/22 14:24:30","txCount":23,"totalFees":7165881,"totalOutput":19587781015,"slotLeader":"83f09b0af923a095a1c17905e802a35d1044f974b25d2a755a2d8266"},{"blockNo":7790415,"slotNo":72290369,"epochNo":364,"epochSlotNo":405569,"hash":"ffb74087f8083ff8a9d641ce0d27cff9838e9915390d08dc09885d9103f407d7","time":"2022/09/22 14:24:20","txCount":32,"totalFees":12452574,"totalOutput":46711002402,"slotLeader":"7a990e7ee931f9d548a977d5cf2194f26f7e2f1158752e0bb94a073f"},{"blockNo":7790414,"slotNo":72290336,"epochNo":364,"epochSlotNo":405536,"hash":"d769c77361215a16f1b75c49005a5de04d6c32fb1502c0b8263aeba5cd12bdb1","time":"2022/09/22 14:23:47","txCount":29,"totalFees":12091791,"totalOutput":4364291002069,"slotLeader":"92bda83eb105d569b23cb6fa1d407dd42de0d2d7e6562718b7ac5c02"},{"blockNo":7790413,"slotNo":72290261,"epochNo":364,"epochSlotNo":405461,"hash":"ecfe502002261e789693aff4f5505bb29febec8ee2050fce8f6f9a34f35dc741","time":"2022/09/22 14:22:32","txCount":30,"totalFees":11678570,"totalOutput":5072659207979,"slotLeader":"d679d78bbfefe7e03e05e7a42f9088075af0f15f501a631c67e64037"},{"blockNo":7790412,"slotNo":72290227,"epochNo":364,"epochSlotNo":405427,"hash":"42fb6cd9c4cdbd64f5f37a26db612eebe09fa9aaf66f10b4bd52ccf2231737c2","time":"2022/09/22 14:21:58","txCount":29,"totalFees":12861889,"totalOutput":6113885301669,"slotLeader":"4a2aa209e00f2926bd0d8a286592bbdea4d35a593c05d41efe29e642"},{"blockNo":7790411,"slotNo":72290202,"epochNo":364,"epochSlotNo":405402,"hash":"aae981735268b6ab437fc3c04938531262c842d6e0bc1717acaef6e0ba98671b","time":"2022/09/22 14:21:33","txCount":18,"totalFees":7252088,"totalOutput":22046092903,"slotLeader":"768a4abe40bf4ec986087a6f356984da85ac3b8388dfa6840e3cdcf7"},{"blockNo":7790410,"slotNo":72290185,"epochNo":364,"epochSlotNo":405385,"hash":"ce33430540709d16dd6807c8fdeec69ecc411e468c16eb75d1ac148db5f11708","time":"2022/09/22 14:21:16","txCount":38,"totalFees":11583552,"totalOutput":19051205768712,"slotLeader":"f5f50f91a3d0da560380ec4e1a612530261c2aaed74a51dfffc485f9"},{"blockNo":7790409,"slotNo":72290130,"epochNo":364,"epochSlotNo":405330,"hash":"1ce72101af7dc39237ebf5d203f93f3068dd621a04053f75e3e201a252d174ab","time":"2022/09/22 14:20:21","txCount":17,"totalFees":4602730,"totalOutput":1594143354929,"slotLeader":"ea595c6f726db925b6832af51795fd8a46e700874c735d204f7c5841"},{"blockNo":7790408,"slotNo":72290111,"epochNo":364,"epochSlotNo":405311,"hash":"58be20aa584a09fd0317e1655d2ad14a83cf3fc70e7dd31d59d4ba7cfdc10017","time":"2022/09/22 14:20:02","txCount":27,"totalFees":11886304,"totalOutput":15547865579133,"slotLeader":"6622bb2a073669662fed0eff7b22539af53b7ff9610901659d0a1e07"},{"blockNo":7790407,"slotNo":72290066,"epochNo":364,"epochSlotNo":405266,"hash":"7c0b8490428023e7ac1803a51f1bc2e72b5dbbef892920fb40e8f91fa48b3f72","time":"2022/09/22 14:19:17","txCount":31,"totalFees":9865448,"totalOutput":465432691909,"slotLeader":"079c374160b0ae34a5a20b8e95a5b5c8766239b2984f13d7ab962791"},{"blockNo":7790406,"slotNo":72290023,"epochNo":364,"epochSlotNo":405223,"hash":"c31b6d8e4a97704a338690408a43b3ee6ed247c9cfdff9f90090d4288fb9cbf1","time":"2022/09/22 14:18:34","txCount":14,"totalFees":3171281,"totalOutput":95155634389,"slotLeader":"bd87416177933138a533c62b205a98598c91da3ebfb8d6826c336b8e"}],"totalItems":7790601,"totalPages":389531,"currentPage":0}