{"data":[{"blockNo":8398715,"slotNo":84815062,"epochNo":393,"epochSlotNo":402262,"hash":"0d8544296f82f79fb8e2da1236266de175079202c5698fb989904078851b4504","time":"2023/02/14 13:29:13","txCount":18,"totalFees":5412288,"totalOutput":22985482253403,"slotLeader":"7a990e7ee931f9d548a977d5cf2194f26f7e2f1158752e0bb94a073f"},{"blockNo":8398714,"slotNo":84815023,"epochNo":393,"epochSlotNo":402223,"hash":"f025f39e7565024b49cf79189e24b09ca72a7034ecdb6b3a649bd130df7b310e","time":"2023/02/14 13:28:34","txCount":7,"totalFees":3001620,"totalOutput":48450829432,"slotLeader":"ac5ba151fae6889e25021acc723b0e34655828bf3328b6f1180e1d65"},{"blockNo":8398713,"slotNo":84815016,"epochNo":393,"epochSlotNo":402216,"hash":"a4f819c48d39d60ba91c38e065ef024f42483ad03172e5003763e79f94d71b71","time":"2023/02/14 13:28:27","txCount":9,"totalFees":3346515,"totalOutput":4641613453894,"slotLeader":"38927599cc3ff6b081501e0ee1dc4f0cb8ba012b3de8b49a785bb05a"},{"blockNo":8398712,"slotNo":84815000,"epochNo":393,"epochSlotNo":402200,"hash":"3164d92627763c9a26284d3facf69eb7a7499ffbcdf71d752e3f32211b90f34f","time":"2023/02/14 13:28:11","txCount":19,"totalFees":5626527,"totalOutput":182984531860,"slotLeader":"10bc63e4689bd58b8a7d248a99360a45a80d047b0b4752a7b00b754b"},{"blockNo":8398711,"slotNo":84814976,"epochNo":393,"epochSlotNo":402176,"hash":"335b1de09a2f4021afcaae49ecbaab2772f74e64e2cba888cef9eb29eaff9e5a","time":"2023/02/14 13:27:47","txCount":10,"totalFees":2739840,"totalOutput":716838814505,"slotLeader":"4aea697c45e39e37e5d842ec8cf6c01a714e88db33a1ba0565ab59af"},{"blockNo":8398710,"slotNo":84814957,"epochNo":393,"epochSlotNo":402157,"hash":"39425828ef37358c3e0eb59084fcd1caf1eea06a9bc88bb218a74352a624873c","time":"2023/02/14 13:27:28","txCount":14,"totalFees":6739036,"totalOutput":4106310666125,"slotLeader":"dd47ad6a8fe21ca342e28a163cb74e69b13d519538de3d06ac26aad2"},{"blockNo":8398709,"slotNo":84814946,"epochNo":393,"epochSlotNo":402146,"hash":"2753d3d5833a5562f9088ec0dac9c3789c7671c4d72db43f810dc78a8ba18408","time":"2023/02/14 13:27:17","txCount":24,"totalFees":8350205,"totalOutput":847276185206,"slotLeader":"16f6e9a767dbb9400d3dbe9f7374eef7c706bda870592a7dabd47a75"},{"blockNo":8398708,"slotNo":84814915,"epochNo":393,"epochSlotNo":402115,"hash":"cb9087fcf58c32b1550c218046ef03fdc5b26f77f75545711c2bce3351e161f8","time":"2023/02/14 13:26:46","txCount":2,"totalFees":407897,"totalOutput":300616537629,"slotLeader":"e069112add6af5fa1a11a1716357de1848c22229eb2eaa007702d5c9"},{"blockNo":8398707,"slotNo":84814912,"epochNo":393,"epochSlotNo":402112,"hash":"a0b90949c508d5a29ce9c9473806004075140705747c761e8e2e0ea7b7704624","time":"2023/02/14 13:26:43","txCount":10,"totalFees":5384276,"totalOutput":2789178170658,"slotLeader":"1b268f4cba3faa7e36d8a0cc4adca2096fb856119412ee7330f692b5"},{"blockNo":8398706,"slotNo":84814895,"epochNo":393,"epochSlotNo":402095,"hash":"c623cba14697789b1de131b492b1789c28bdffd470f561d8e1501515e111c85e","time":"2023/02/14 13:26:26","txCount":9,"totalFees":2713514,"totalOutput":6115662447,"slotLeader":"945b1e23eb7aadfa971de44a35dc2eee8cb1af795cabe8ee192c2e39"}],"totalItems":19329,"totalPages":1933,"currentPage":0}