{"data":[{"txId":57374948,"txHash":"517b8e8fca5e5e0a04f9fe32fb48023457095ca90a800309adc5dcb6f0796d82","txTime":"2022/12/14 15:39:15","block":8139124,"epoch":381,"slotNo":79466064,"epochSlotNo":237264,"stakeKey":"stake1u8tczzjqf60fz6puyw3fxqcd8p2gd5v5d5r8l945u40lprgygcc2m"},{"txId":57374854,"txHash":"5c88fa90f5e34ffa78e3f834ae3740d73cd71a63b85a3de3cb0901dc792e8d79","txTime":"2022/12/14 15:37:26","block":8139121,"epoch":381,"slotNo":79465955,"epochSlotNo":237155,"stakeKey":"stake1uxkggt740hqfauwwyp0vmp7fn3x8rm8cz2kkcgs7e9xvktg270vmj"},{"txId":57374799,"txHash":"5df7baa4ffdf441bee2e46b43f6cef6cab5528feb33c574cf67ff56d5d61e409","txTime":"2022/12/14 15:36:31","block":8139119,"epoch":381,"slotNo":79465900,"epochSlotNo":237100,"stakeKey":"stake1u9xznd3dy5cdjsnynm24d0t545utcklaxjcyr2fxkau9wdgsdgnjz"},{"txId":57374772,"txHash":"d52fcb1a44680fadc29a5e7cc547a0e71289525108e4f51ef262798081ad3b49","txTime":"2022/12/14 15:36:31","block":8139119,"epoch":381,"slotNo":79465900,"epochSlotNo":237100,"stakeKey":"stake1uxrhndkcdfewjnt8cksaj8n5q43a6cs06qzj8lhjujt65ss6ucvza"},{"txId":57374728,"txHash":"cc8fc4f16932daa760f7e1b76e5773171a507ac54ce92dea341aaefba5cd3d1e","txTime":"2022/12/14 15:34:43","block":8139115,"epoch":381,"slotNo":79465792,"epochSlotNo":236992,"stakeKey":"stake1uy0alw62tdt7w38vplntz48csm7f92ewterf3xnmq7jkjuql2sdeg"},{"txId":57374698,"txHash":"1ad61bfe5abcbfc6a91418308ccfecef49d373c71a5760e6422b44fbf779d050","txTime":"2022/12/14 15:34:16","block":8139112,"epoch":381,"slotNo":79465765,"epochSlotNo":236965,"stakeKey":"stake1u93zpyw6fpzqgurlfu0xlr7k3lmch2ryynn38pk6s6277rg6jygv6"},{"txId":57374600,"txHash":"dd38e9977b45ecc50da52a5260864bf181c8561c4fb0402b5b204d8f0bc26938","txTime":"2022/12/14 15:32:56","block":8139105,"epoch":381,"slotNo":79465685,"epochSlotNo":236885,"stakeKey":"stake1ux9dsrt9nrzsqq74xa5t5l7neyfyw0ctu90gapyryuwpjlc5nef4h"},{"txId":57374589,"txHash":"4f3814e4e3f8096d0bbaf08b0267a1f120010c5e364158c7fb7b41d9bfb57869","txTime":"2022/12/14 15:32:56","block":8139105,"epoch":381,"slotNo":79465685,"epochSlotNo":236885,"stakeKey":"stake1uy5yr8vrwtscxgvda7w3ajddp47w4dne7zg858vnvw97cgcc6fmzp"},{"txId":57374543,"txHash":"88d677326e0a6ddac1ef75ddb8de8a0fc14ba71143c667df64372e69fb98280a","txTime":"2022/12/14 15:31:30","block":8139103,"epoch":381,"slotNo":79465599,"epochSlotNo":236799,"stakeKey":"stake1uyqz4zvhd8v75khv69cdw67wkxlamhxhhdgnlq3ne8tsuwcjeq3ks"},{"txId":57374517,"txHash":"6a42eeaaa61e62f494c15154b5bfe7ae9b73951db7171e66ef9e74fac8fa6cbd","txTime":"2022/12/14 15:31:09","block":8139099,"epoch":381,"slotNo":79465578,"epochSlotNo":236778,"stakeKey":"stake1u999xq2hfm06flyjmaltvg3dzeyunngrflujncrt4y57mxsk82p37"},{"txId":57374451,"txHash":"6e003c05e0cd1fcd657c367002bff42f677f7cf439eb5ecb5246dc57ae114ad6","txTime":"2022/12/14 15:31:04","block":8139098,"epoch":381,"slotNo":79465573,"epochSlotNo":236773,"stakeKey":"stake1uyf3vmxr938v5nsh5n3m7ngwzu4yc2p3uqmcx9xnvjz63pcynfwxv"},{"txId":57374336,"txHash":"8f941a98decb56d2a54946c436bfaf547f74b9b4bf5623e1f9a5b68420bbc224","txTime":"2022/12/14 15:28:00","block":8139093,"epoch":381,"slotNo":79465389,"epochSlotNo":236589,"stakeKey":"stake1u9f8p2mnmcerwpqxsec54zrumlj2y80qgy5tlpgg2gr6w0suvsqlz"},{"txId":57374189,"txHash":"def5976b8d5ccc0851428be1a7e55e264e270fb4bf48be40cb45ea7558069a97","txTime":"2022/12/14 15:25:21","block":8139084,"epoch":381,"slotNo":79465230,"epochSlotNo":236430,"stakeKey":"stake1u9cd8y32eepg332qrpk0xx9nneqdfe8x66kajfgpkmqtkpqs9c28d"},{"txId":57374148,"txHash":"77ed84bf803cea85bc410a27c1f9d70f57dc12ab54f90921d707cd605639776a","txTime":"2022/12/14 15:24:48","block":8139082,"epoch":381,"slotNo":79465197,"epochSlotNo":236397,"stakeKey":"stake1uynzxtlpxp684mmm9lnf458fhug308uc6435ajvcyk3krhgdq6343"},{"txId":57374119,"txHash":"b6fdc2fcf6c05e659e719baae4a84cd1ec424d5d18e0cf26066f565d75c69f14","txTime":"2022/12/14 15:24:16","block":8139080,"epoch":381,"slotNo":79465165,"epochSlotNo":236365,"stakeKey":"stake1u9gpmgczjlngpv3wuc5yw7f42ywj9evlx6dcxn4pjthg4cculjdq5"},{"txId":57374092,"txHash":"cfe185a48866987679817afb295c6d41bc9c5f46983c71b1256b3ff8515921c4","txTime":"2022/12/14 15:24:10","block":8139079,"epoch":381,"slotNo":79465159,"epochSlotNo":236359,"stakeKey":"stake1u9eelp5htxaulm2c4vcua3w3v9nwh95sunxvvswu9hy9gecuzvjek"},{"txId":57374070,"txHash":"b47df254739b80d77e12ce58e457a7eaefa454e0ffa7462e46fb174380619c5a","txTime":"2022/12/14 15:24:10","block":8139079,"epoch":381,"slotNo":79465159,"epochSlotNo":236359,"stakeKey":"stake1u8sxdvkzxr52q928q990990kdes6cgggm2vefdc7l4qnpuq9uwjy7"},{"txId":57373962,"txHash":"6cd8f1108948a4adff9060a056997211494603a7084d634fbf7846ee19abfdcb","txTime":"2022/12/14 15:21:23","block":8139072,"epoch":381,"slotNo":79464992,"epochSlotNo":236192,"stakeKey":"stake1u82ufh0y3hjpd83gpmclyhz7jw97tmc6068n8pd7y8d32jgtnjc4s"},{"txId":57373886,"txHash":"a49772744fdbb6d65730d1e963bf78779262013f95b21bde44c27aae831407da","txTime":"2022/12/14 15:19:39","block":8139062,"epoch":381,"slotNo":79464888,"epochSlotNo":236088,"stakeKey":"stake1uyn7r9tv0gcfe6u3n68nqjcjfwawj7n9lamy9j7lhsd9k2c36rw8n"},{"txId":57373776,"txHash":"de99381d0aa6a2665d078652fa3be7a278e136ec608920efe0eb40613dd52c37","txTime":"2022/12/14 15:16:56","block":8139055,"epoch":381,"slotNo":79464725,"epochSlotNo":235925,"stakeKey":"stake1uxyxz5xy6h8rr53p9mm5j4elxd95gludm7d3rhztt47pdlsxx2hgy"}],"totalItems":1621641,"totalPages":81083,"currentPage":0}