{"data":[{"blockNo":8363669,"slotNo":84085628,"epochNo":392,"epochSlotNo":104828,"hash":"bb01872875312d7c1c0b66d067e748481d10fd9c449089593b1dff97f5c49768","time":"2023/02/06 02:51:59","txCount":5,"totalFees":2131273,"totalOutput":28787439845,"slotLeader":"cb9a5414581696cf9176787e99472790355a7de61d67a5643da95a86"},{"blockNo":8363668,"slotNo":84085622,"epochNo":392,"epochSlotNo":104822,"hash":"c958439bed806f60318036efde94980d08f9db3393e50c0c39c9897e67f013e4","time":"2023/02/06 02:51:53","txCount":24,"totalFees":7029070,"totalOutput":1515153758269,"slotLeader":"d679d78bbfefe7e03e05e7a42f9088075af0f15f501a631c67e64037"},{"blockNo":8363667,"slotNo":84085590,"epochNo":392,"epochSlotNo":104790,"hash":"44cc590ec8a2d2f687c5dafeb1a18ac46916d41090199260c9c3fefecc0e8aac","time":"2023/02/06 02:51:21","txCount":6,"totalFees":1964650,"totalOutput":1945241337,"slotLeader":"7c5d59f69e113939aa1e19f081cc0884e2b85a55768a4347bf356191"},{"blockNo":8363666,"slotNo":84085584,"epochNo":392,"epochSlotNo":104784,"hash":"32ceafcf4f2378854e20f9ef8f6c41fea7e2129dbb2b8ce77a3c937e73b53e02","time":"2023/02/06 02:51:15","txCount":35,"totalFees":11710800,"totalOutput":25666208967783,"slotLeader":"d2b32bb469f6e8bcd6e1e0ba818716d317e3f26d0a93f317b08fdced"},{"blockNo":8363665,"slotNo":84085531,"epochNo":392,"epochSlotNo":104731,"hash":"a586ff0aff283e52b186bf926c65f14631684b3dc01ffc4f0c499032bb488d47","time":"2023/02/06 02:50:22","txCount":2,"totalFees":990787,"totalOutput":12983075890,"slotLeader":"c80d3b1f64feed0697bb97c97867a63ff1c33cb8b472bc33fdfa457e"},{"blockNo":8363664,"slotNo":84085528,"epochNo":392,"epochSlotNo":104728,"hash":"acfeedd5857581cc3761bc73fde68e0293879ca8055e54b6d20feaa882c907ad","time":"2023/02/06 02:50:19","txCount":9,"totalFees":2954335,"totalOutput":81548447184,"slotLeader":"1c8cd022e993a8366be641c17cb6d9c5d8944e00bfce3189d8b1515a"},{"blockNo":8363663,"slotNo":84085519,"epochNo":392,"epochSlotNo":104719,"hash":"7bfa3226697989ed52177ec9a52327760a8b6a09e30f3663c6f4f9b9daf318b8","time":"2023/02/06 02:50:10","txCount":10,"totalFees":3979440,"totalOutput":25178858620,"slotLeader":"455778840915ea2ec843bfee7269c1e0963b08ce5d1cdf029e39cb59"},{"blockNo":8363662,"slotNo":84085501,"epochNo":392,"epochSlotNo":104701,"hash":"38669485c5b0bd37abaac3da992abfadaec4a95db2e8364ba0067ed9bf518ff5","time":"2023/02/06 02:49:52","txCount":25,"totalFees":7278856,"totalOutput":1719091601788,"slotLeader":"fdb0d8ba88d434c8dd3ab3974a3401efc7b016e54c7387c63398aec4"},{"blockNo":8363661,"slotNo":84085477,"epochNo":392,"epochSlotNo":104677,"hash":"bc8cfafb1285401b777147d9fa00095c4a0942eaabe56303dd2730ae15f39046","time":"2023/02/06 02:49:28","txCount":47,"totalFees":15302878,"totalOutput":1614471281892,"slotLeader":"c7e431518477a4156c2a8cd6523a6a73514e7fbbbf7eed363b9a22ad"},{"blockNo":8363660,"slotNo":84085429,"epochNo":392,"epochSlotNo":104629,"hash":"a072ff640963a0115554d20175a66d7b9ffc331379655ca74f6f4648cc9b47bf","time":"2023/02/06 02:48:40","txCount":18,"totalFees":8572240,"totalOutput":5704379904393,"slotLeader":"93ca5c2f1eb63054f7c768a807408a43e65d7c68fe56e330db20af51"},{"blockNo":8363659,"slotNo":84085390,"epochNo":392,"epochSlotNo":104590,"hash":"e223654b9e3333024716e64b42e93931839ce6c3c27279409ffa5cb61d9ca4c3","time":"2023/02/06 02:48:01","txCount":7,"totalFees":1998269,"totalOutput":3188073014365,"slotLeader":"fcbfb4a3c18f890de7a51f68603b18e654f8b432abdda17c53a0d586"},{"blockNo":8363658,"slotNo":84085379,"epochNo":392,"epochSlotNo":104579,"hash":"808e645bc4a73a96665518537f0636483123d8b3d574633913687564d5aaa6dd","time":"2023/02/06 02:47:50","txCount":1,"totalFees":241797,"totalOutput":152841988,"slotLeader":"2bf5a031b46b34c07937a769ff6f82b6a78a25c71022eaaf1f20eec9"},{"blockNo":8363657,"slotNo":84085373,"epochNo":392,"epochSlotNo":104573,"hash":"27e65d8ea599d764b30dc3eb1315a61bb97e313e11f7ecfab03909588e9f76d9","time":"2023/02/06 02:47:44","txCount":2,"totalFees":699269,"totalOutput":3955202280,"slotLeader":"50a251d84927d932b9393cb462f300d215faedd5e8a5e791e869f32c"},{"blockNo":8363656,"slotNo":84085370,"epochNo":392,"epochSlotNo":104570,"hash":"d45b9f683b7378eb344a161d064dc9d54aad96afb2096d48c64a7f294e7e8128","time":"2023/02/06 02:47:41","txCount":7,"totalFees":1687406,"totalOutput":39019751735,"slotLeader":"5ed675dd3d0640ca94bf8c3d6a5bfaac0f59930c99a94ffe3686cb70"},{"blockNo":8363655,"slotNo":84085364,"epochNo":392,"epochSlotNo":104564,"hash":"3c9b1a31d6146740e6481ba7c017ce06922538a0b830117c4efe026091369a98","time":"2023/02/06 02:47:35","txCount":1,"totalFees":194629,"totalOutput":9641501682,"slotLeader":"365a5a9c59aa3971d96511a5bce24c4598849d0d3c2d61217dc0b488"},{"blockNo":8363654,"slotNo":84085358,"epochNo":392,"epochSlotNo":104558,"hash":"19fa9ebb175d1d9a8a46a94bf7d3f6a6b889c2df869d8051c9330d86c1eac4aa","time":"2023/02/06 02:47:29","txCount":11,"totalFees":4325684,"totalOutput":3020094913937,"slotLeader":"6539a70bb6e61540444133eab3a24288d1cd3ddc3598adde93475513"},{"blockNo":8363653,"slotNo":84085349,"epochNo":392,"epochSlotNo":104549,"hash":"11440d06ad8c57dcdb982509c18ca7965911cc394f85e02a40dbe3dd7f572f66","time":"2023/02/06 02:47:20","txCount":33,"totalFees":11476609,"totalOutput":176641823114,"slotLeader":"266a21992f779be68c1476fab8e9bf1015e7b4c428ee8c3b899f65dd"},{"blockNo":8363652,"slotNo":84085299,"epochNo":392,"epochSlotNo":104499,"hash":"3dfe914d1a4ec764c64289cde71e202b8eef34c7cd0a87e681510cbdb016a582","time":"2023/02/06 02:46:30","txCount":19,"totalFees":7488020,"totalOutput":8355811293251,"slotLeader":"68d8505aea5a000e630f904f8741c1deec9135a729e5df770fe3b659"},{"blockNo":8363651,"slotNo":84085279,"epochNo":392,"epochSlotNo":104479,"hash":"a89734d849838b2e1c4e1b8463335840a0c504d1cc7b6d81a0b72605d393e605","time":"2023/02/06 02:46:10","txCount":9,"totalFees":2165468,"totalOutput":719899138768,"slotLeader":"8dcdf33740ee8e9da6e36337d875fb9222f5c8a1a315fda36886c615"},{"blockNo":8363650,"slotNo":84085259,"epochNo":392,"epochSlotNo":104459,"hash":"3b654e3f29e638ebd13f95e6d2d3a67657ed03669387fbff285909f9d7dcff3e","time":"2023/02/06 02:45:50","txCount":21,"totalFees":6660355,"totalOutput":19871835752485,"slotLeader":"54f5f2618a3da4bb0b384895d8f3922189acbb8e9637201ebb26bc18"}],"totalItems":8363845,"totalPages":418193,"currentPage":0}