{"data":[{"blockNo":8402721,"slotNo":84898504,"epochNo":394,"epochSlotNo":53704,"hash":"225388d0abc5803677e6b9476a23c509a76a99128e3ae5f20bdd3a3580cf49e0","time":"2023/02/15 12:39:55","txCount":9,"totalFees":3355247,"totalOutput":1103871555463,"slotLeader":"d5b90a198d2411b5c82fbdfee5f94b86de49a8589bfa7720b9de358f"},{"blockNo":8402720,"slotNo":84898492,"epochNo":394,"epochSlotNo":53692,"hash":"12561d62f5fc7fc7f9337cc6702629d1390c1482cc0285cad580c08490ae528f","time":"2023/02/15 12:39:43","txCount":21,"totalFees":5669075,"totalOutput":552284989286,"slotLeader":"0c2e0c5a062389a3fd6fafddae26344d490866d7a34cad981b20f96b"},{"blockNo":8402719,"slotNo":84898473,"epochNo":394,"epochSlotNo":53673,"hash":"f267174c75eacba7cb0516f778e1c5a56f3815c5518e6349125e450cc405e245","time":"2023/02/15 12:39:24","txCount":37,"totalFees":10811185,"totalOutput":319099549320,"slotLeader":"54f5f2618a3da4bb0b384895d8f3922189acbb8e9637201ebb26bc18"},{"blockNo":8402718,"slotNo":84898428,"epochNo":394,"epochSlotNo":53628,"hash":"03e204334b0c76a8088ed8fbbf71f7957a4b060bdc1a038f39594b3b7edcac35","time":"2023/02/15 12:38:39","txCount":28,"totalFees":9510590,"totalOutput":6946266356068,"slotLeader":"6658713e2cbfa4e347691a0435953f5acbe9f03d330e94caa3a0cfb4"},{"blockNo":8402717,"slotNo":84898394,"epochNo":394,"epochSlotNo":53594,"hash":"0b0ca2a6756500140ad9b7203dfbb37d279eafe606de29f1018e12f819bcaaf3","time":"2023/02/15 12:38:05","txCount":1,"totalFees":169448,"totalOutput":419666952,"slotLeader":"243499b53228f5953bb906c8af0fb996002dd78712e430aa7d116964"},{"blockNo":8402716,"slotNo":84898393,"epochNo":394,"epochSlotNo":53593,"hash":"7a088874c0768711bf42d14a140f0699e8da9f7f942e868de0285b4ae8f09f7f","time":"2023/02/15 12:38:04","txCount":11,"totalFees":2974836,"totalOutput":92689631375,"slotLeader":"eaa778d97077ff7725fe4cbb70b514d840407a45a3c244ac05f6a83d"},{"blockNo":8402715,"slotNo":84898378,"epochNo":394,"epochSlotNo":53578,"hash":"7fcd463546d49a0e964438757d0610070f1056a2df9fc140031f5dcd0bda1687","time":"2023/02/15 12:37:49","txCount":11,"totalFees":3122457,"totalOutput":65011049864,"slotLeader":"768a4abe40bf4ec986087a6f356984da85ac3b8388dfa6840e3cdcf7"},{"blockNo":8402714,"slotNo":84898362,"epochNo":394,"epochSlotNo":53562,"hash":"ddaf5389754aa26ba6b0f0bbef3d2177f4686ec0991598828673ee55317597b1","time":"2023/02/15 12:37:33","txCount":17,"totalFees":3725823,"totalOutput":27967840634447,"slotLeader":"7a990e7ee931f9d548a977d5cf2194f26f7e2f1158752e0bb94a073f"},{"blockNo":8402713,"slotNo":84898358,"epochNo":394,"epochSlotNo":53558,"hash":"44ec5210733b87766358516ff927aaa3d192e9e76d5af529e461d062f40d95d2","time":"2023/02/15 12:37:29","txCount":41,"totalFees":12818684,"totalOutput":25021976794144,"slotLeader":"6c518b4861bb88b1395ceb116342cecbcfb8736282655f9a61c4c368"},{"blockNo":8402712,"slotNo":84898251,"epochNo":394,"epochSlotNo":53451,"hash":"4329716ce67ab5200f0c716f5153be0d0dae310a7ab31b9b9894dc4c86bef6e5","time":"2023/02/15 12:35:42","txCount":3,"totalFees":1240323,"totalOutput":9099039654,"slotLeader":"a0fc643d831b144e1dd289f5acf4274aedc331b6a0e4257ef5376520"}],"totalItems":2514,"totalPages":252,"currentPage":0}