{"data":[{"address":"addr1z8snz7c4974vzdpxu65ruphl3zjdvtxw8strf2c2tmqnxz2j2c79gy9l76sdg0xwhd7r0c0kna0tycz4y5s6mlenh8pq0xmsha","txCount":529536,"balance":44798767243267},{"address":"addr1z8jd97ct35n4s5ss8lt4sq0zclw0dmf7yak8fj46m0jm3d475v0pzyfnfwd4drdgh0uxkl9tpd679xps84y757htua9s6w8m7p","txCount":9,"balance":20000000000000},{"address":"addr1w9qzpelu9hn45pefc0xr4ac4kdxeswq7pndul2vuj59u8tqaxdznu","txCount":460481,"balance":12423895239502},{"address":"addr1wy0nmrl40z3nx9d0d79pu5u7zett4hl2apfuj9caqgf7jjqcj3r8z","txCount":404,"balance":6681184450754},{"address":"addr1w8pydstdswmdqmg2rdt59dzql3zgfp9pt8sulnjgalycwdsj9js7w","txCount":64739,"balance":6399007037748},{"address":"addr1z8nvjzjeydcn4atcd93aac8allvrpjn7pjr2qsweukpnay2tqrfwamagnyfv43jgm94yvkmsnfvpzlytmkl0cs0uh8zqszu5da","txCount":6767,"balance":2832985697607},{"address":"addr1w93j7t23z99448k7xspzrppjtgun0janh0rcq6k8wt2e8vc2fraw4","txCount":3399,"balance":2674626016963},{"address":"addr1z8nvjzjeydcn4atcd93aac8allvrpjn7pjr2qsweukpnayg3sm3lpp76yuejdf6w3qyry2spy8xjmjrlxy2cstm3fthsjc3xze","txCount":6043,"balance":2628793218829},{"address":"addr1z8nvjzjeydcn4atcd93aac8allvrpjn7pjr2qsweukpnaytvcg6zm2vds6mz9x3h3yalqmnf24w86m09n40q3tgqxjms9yu6v8","txCount":14801,"balance":1690273725409},{"address":"addr1w9j4z3xz6sze3se4d06rawhpqt5sag98l0fykwt5q08nwxgvmk5vf","txCount":3246,"balance":1625744797403},{"address":"addr1z8nvjzjeydcn4atcd93aac8allvrpjn7pjr2qsweukpnay0juqg4tpvktqnle8j0ukcnww78l7ze4lrgunuwqnxtvjps8lclpw","txCount":2566,"balance":1552412274913},{"address":"addr1z8nvjzjeydcn4atcd93aac8allvrpjn7pjr2qsweukpnayg4pn8uxr87tguqw8jkn6p233rk7k683ppl2mspr8appw9q640ms8","txCount":4803,"balance":1334586968823},{"address":"addr1z85t4tvj3rwf40wqnx6x72kqq6c6stra7jvkupnlqrqyarthhd58w0qrqpyv4dc2c2mk98sduawl7l4gjuc9rafyv98sgylfw3","txCount":5219,"balance":1329499693445},{"address":"addr1wyfddcvq3hqpjsyval388g9sguqs8r6249hhx0v0gn9es9ckxzfgr","txCount":218,"balance":1238805906240},{"address":"addr1z9cy2gmar6cpn8yymll93lnd7lw96f27kn2p3eq5d4tjr7rshnr04ple6jjfc0cvcmcpcxmsh576v7j2mjk8tw890vespzvgwd","txCount":8782,"balance":1008197516948},{"address":"addr1zxgx3far7qygq0k6epa0zcvcvrevmn0ypsnfsue94nsn3tvpw288a4x0xf8pxgcntelxmyclq83s0ykeehchz2wtspks905plm","txCount":1332802,"balance":915148089909},{"address":"addr1w9jx45flh83z6wuqypyash54mszwmdj8r64fydafxtfc6jgrw4rm3","txCount":460303,"balance":893681963950},{"address":"addr1z8nvjzjeydcn4atcd93aac8allvrpjn7pjr2qsweukpnaygg8lttvgp8sat8helm9xq0lmme24xc2tecfgwsm6853dhqvjdyu3","txCount":923,"balance":881831154853},{"address":"addr1zyh4ygwdy2mnhxntq4fw8jcwgtrtqeu6fslwy64029wk8wcfzup4e9umthe6xgvhcxu4d5cygcj0h3vdslrt3whadmnsujfr0f","txCount":2,"balance":774876539231},{"address":"addr1zykhtew0z93z6hmgu2ew7kl9puqz0wmafp0f3jypuejkwmrfjcnq9fczt4qkxgec2hz6x7f38vnj8xuxywk4x4qgzh9skq4p22","txCount":1326,"balance":616585629902}],"totalItems":22897,"totalPages":1145,"currentPage":0}