{"data":[{"hash":"2ff3d7037515857f9985ba8bf892b448afc6ac1e039f3f4f3e33cedcca365edc","blockNo":6838247,"blockHash":"b38582790065bdcb42860835d77159824f158a2c12f2799b7253de6d82a06ac1","epochNo":318,"epochSlotNo":351520,"slot":52364320,"time":"2022/02/03 23:23:31","addressesInput":["addr1qxszsqjtp8kf60yvk896cr9td2rkqnsxsgvej2ad8lah8x3hcdj45clk5lfnp6a2m7jdkpwd06t207rf6p2hzx6lv2jsl2szk3","addr1q9pshknvj45w6ztzy4x5r3lpe3hl4vlv2t7rn3e4uzwa87fhcdj45clk5lfnp6a2m7jdkpwd06t207rf6p2hzx6lv2jsgva2w4"],"addressesOutput":["addr1vx0dzqav97hs4p5rxlpcmn8thszv00yt42q8ddp4ttn0hmg7u97mq","addr1qxk8qmkjkmvl35lu7ean4pc68pz9rny7qpvq5v3ckn4z9s3hcdj45clk5lfnp6a2m7jdkpwd06t207rf6p2hzx6lv2jstvjxyd","addr1qxk8qmkjkmvl35lu7ean4pc68pz9rny7qpvq5v3ckn4z9s3hcdj45clk5lfnp6a2m7jdkpwd06t207rf6p2hzx6lv2jstvjxyd"],"fee":254425,"totalOutput":214702172,"tokens":[]},{"hash":"4d2e5d58ea3ba892f168d697db5732b5e6e50eac6a88ef2dac8a34333d0efd0f","blockNo":6838205,"blockHash":"b18a19ad58c73609e4cc50bc39168c54409fcb7dbc593ad93aa74d071815f08c","epochNo":318,"epochSlotNo":350534,"slot":52363334,"time":"2022/02/03 23:07:05","addressesInput":["addr1q8njpfaq2juy8djeqh7xs4k9n0uyz7q00gr4ttn82xdc6xuz2kfgd2rjm46qt0vqvtu6lmrwna0gzmsvv37ngqtmywwq4pn0pl","addr1w999n67e86jn6xal07pzxtrmqynspgx0fwmcmpua4wc6yzsxpljz3"],"addressesOutput":["addr1w999n67e86jn6xal07pzxtrmqynspgx0fwmcmpua4wc6yzsxpljz3","addr1q8njpfaq2juy8djeqh7xs4k9n0uyz7q00gr4ttn82xdc6xuz2kfgd2rjm46qt0vqvtu6lmrwna0gzmsvv37ngqtmywwq4pn0pl"],"fee":1207045,"totalOutput":15134404,"tokens":[]},{"hash":"6ba53cabe06464ced835658a2f85fd31e7617fe95bc64d567d2a4a8c334e5251","blockNo":6838197,"blockHash":"306d860a54ae5f909d04e8b232d4cb9051eb53889484c8920b541ce1c1b63055","epochNo":318,"epochSlotNo":350284,"slot":52363084,"time":"2022/02/03 23:02:55","addressesInput":["addr1qyfqrqhuljs6s05xn9camr3fkfk98d4xyn9vwf75dnnylwzdweftyc5cx76lqf466ugl8wf6wx3tkmfrjyfrp0ewur9s50zf72","addr1qyfqrqhuljs6s05xn9camr3fkfk98d4xyn9vwf75dnnylwzdweftyc5cx76lqf466ugl8wf6wx3tkmfrjyfrp0ewur9s50zf72"],"addressesOutput":["addr1vxf29adhva8rwdwzgee7hhy53dh368qcts3mmq7hk6hwn2cjl7xlv","addr1qyfqrqhuljs6s05xn9camr3fkfk98d4xyn9vwf75dnnylwzdweftyc5cx76lqf466ugl8wf6wx3tkmfrjyfrp0ewur9s50zf72","addr1qyfqrqhuljs6s05xn9camr3fkfk98d4xyn9vwf75dnnylwzdweftyc5cx76lqf466ugl8wf6wx3tkmfrjyfrp0ewur9s50zf72"],"fee":241005,"totalOutput":140130550,"tokens":[]},{"hash":"e370e007d7acef3a28b1bd6cf39f8618e683fe1562c7afde91cbec41047d48e4","blockNo":6838117,"blockHash":"10cfc7a46f16e8ee58487284c9eda8530719bdbb94c55146c1a7bd1cf46883c1","epochNo":318,"epochSlotNo":348730,"slot":52361530,"time":"2022/02/03 22:37:01","addressesInput":["addr1qyfqrqhuljs6s05xn9camr3fkfk98d4xyn9vwf75dnnylwzdweftyc5cx76lqf466ugl8wf6wx3tkmfrjyfrp0ewur9s50zf72","addr1qyfqrqhuljs6s05xn9camr3fkfk98d4xyn9vwf75dnnylwzdweftyc5cx76lqf466ugl8wf6wx3tkmfrjyfrp0ewur9s50zf72","addr1qyfqrqhuljs6s05xn9camr3fkfk98d4xyn9vwf75dnnylwzdweftyc5cx76lqf466ugl8wf6wx3tkmfrjyfrp0ewur9s50zf72","addr1qyfqrqhuljs6s05xn9camr3fkfk98d4xyn9vwf75dnnylwzdweftyc5cx76lqf466ugl8wf6wx3tkmfrjyfrp0ewur9s50zf72"],"addressesOutput":["addr1vx45q2ylpaf2q5tgvy8pxfxfhlfc4f8k8gqdqjekzhvlghcr6v4j2","addr1qyfqrqhuljs6s05xn9camr3fkfk98d4xyn9vwf75dnnylwzdweftyc5cx76lqf466ugl8wf6wx3tkmfrjyfrp0ewur9s50zf72","addr1qyfqrqhuljs6s05xn9camr3fkfk98d4xyn9vwf75dnnylwzdweftyc5cx76lqf466ugl8wf6wx3tkmfrjyfrp0ewur9s50zf72"],"fee":244173,"totalOutput":199372001,"tokens":[]},{"hash":"06bb47363c88b741d6b00e060e15421baceb307954dea0b1afd43e9dbfd98959","blockNo":6838019,"blockHash":"e828d1fc6c4d67dbc4da12b625077a268bb2ec85e2fe9d171db3abcbb25d0b3d","epochNo":318,"epochSlotNo":346702,"slot":52359502,"time":"2022/02/03 22:03:13","addressesInput":["addr1qyfqrqhuljs6s05xn9camr3fkfk98d4xyn9vwf75dnnylwzdweftyc5cx76lqf466ugl8wf6wx3tkmfrjyfrp0ewur9s50zf72","addr1qyfqrqhuljs6s05xn9camr3fkfk98d4xyn9vwf75dnnylwzdweftyc5cx76lqf466ugl8wf6wx3tkmfrjyfrp0ewur9s50zf72","addr1qyfqrqhuljs6s05xn9camr3fkfk98d4xyn9vwf75dnnylwzdweftyc5cx76lqf466ugl8wf6wx3tkmfrjyfrp0ewur9s50zf72"],"addressesOutput":["addr1vxsd2ezqyj9v64ulxuaq0x56889dnvsdl8mrn4dm6720d9gzn926y","addr1qyfqrqhuljs6s05xn9camr3fkfk98d4xyn9vwf75dnnylwzdweftyc5cx76lqf466ugl8wf6wx3tkmfrjyfrp0ewur9s50zf72","addr1qyfqrqhuljs6s05xn9camr3fkfk98d4xyn9vwf75dnnylwzdweftyc5cx76lqf466ugl8wf6wx3tkmfrjyfrp0ewur9s50zf72"],"fee":242105,"totalOutput":431937598,"tokens":[]},{"hash":"fb93620ece0df0ec60c723ff9d92e232fb6aed523707603cd0f34abda0e739a3","blockNo":6837947,"blockHash":"df63c1d60dfd31aecf1a39d6bf41680c9e3e64a2d59a393509fa1d23b529feef","epochNo":318,"epochSlotNo":345061,"slot":52357861,"time":"2022/02/03 21:35:52","addressesInput":["addr1qyfqrqhuljs6s05xn9camr3fkfk98d4xyn9vwf75dnnylwzdweftyc5cx76lqf466ugl8wf6wx3tkmfrjyfrp0ewur9s50zf72","addr1qyfqrqhuljs6s05xn9camr3fkfk98d4xyn9vwf75dnnylwzdweftyc5cx76lqf466ugl8wf6wx3tkmfrjyfrp0ewur9s50zf72","addr1qyfqrqhuljs6s05xn9camr3fkfk98d4xyn9vwf75dnnylwzdweftyc5cx76lqf466ugl8wf6wx3tkmfrjyfrp0ewur9s50zf72","addr1qyfqrqhuljs6s05xn9camr3fkfk98d4xyn9vwf75dnnylwzdweftyc5cx76lqf466ugl8wf6wx3tkmfrjyfrp0ewur9s50zf72"],"addressesOutput":["addr1v9uan934h4d2zr20wjl97flzdwcd5442plkmwystdnd6gtse39keg","addr1qyfqrqhuljs6s05xn9camr3fkfk98d4xyn9vwf75dnnylwzdweftyc5cx76lqf466ugl8wf6wx3tkmfrjyfrp0ewur9s50zf72","addr1qyfqrqhuljs6s05xn9camr3fkfk98d4xyn9vwf75dnnylwzdweftyc5cx76lqf466ugl8wf6wx3tkmfrjyfrp0ewur9s50zf72"],"fee":242985,"totalOutput":154394476,"tokens":[]},{"hash":"b2c2680613a2f4ca181146c4345eaa8a1e764e23dec6804fc69dd71b18f11790","blockNo":6837628,"blockHash":"677c4b63552d4d3b61799ec762a949a8cd68c8e81da9be038a2e521c96629436","epochNo":318,"epochSlotNo":338330,"slot":52351130,"time":"2022/02/03 19:43:41","addressesInput":["addr1q93vyug8m3qrqc5qr9u28hzkvdpzyvmez85f58l8y9t2502xrdyd4ezx43vxjgw0dvz6dzy36jku3ptrr9mcv5dftkhsx6f5gt","addr1q93vyug8m3qrqc5qr9u28hzkvdpzyvmez85f58l8y9t2502xrdyd4ezx43vxjgw0dvz6dzy36jku3ptrr9mcv5dftkhsx6f5gt"],"addressesOutput":["addr1v9x2vp4h9lv352kzdq0436s8k23m88vsflm9n38zcgjvxws9xr4rl","addr1q93vyug8m3qrqc5qr9u28hzkvdpzyvmez85f58l8y9t2502xrdyd4ezx43vxjgw0dvz6dzy36jku3ptrr9mcv5dftkhsx6f5gt","addr1q93vyug8m3qrqc5qr9u28hzkvdpzyvmez85f58l8y9t2502xrdyd4ezx43vxjgw0dvz6dzy36jku3ptrr9mcv5dftkhsx6f5gt"],"fee":194805,"totalOutput":103321584,"tokens":[]},{"hash":"3f9ff37f86f8cbf68b362d9f7022ca4b9a30d7d04767e28744b6aa251725fd00","blockNo":6837557,"blockHash":"24e3ba4fcc2ecde7ee0b4558cc72f981a38030cc31fa56c220e73a45548389db","epochNo":318,"epochSlotNo":336827,"slot":52349627,"time":"2022/02/03 19:18:38","addressesInput":["addr1q9pg8jfa2g3yf0ps8l8t7uyfg6z8fh2ne7jla42q9kjlrqga49c73yv32axatm687gp8req4y0v6thvmec00sz5fdn3s22m5hu","addr1q8vhfyfat7snkplgpeje7vm9r23l2gl62zdxt2z9r2y8dxqa49c73yv32axatm687gp8req4y0v6thvmec00sz5fdn3s2y66mn","addr1q8telspcuk4mwu5qmkrjq6gtc6kwyc58cg84cd4panway5sa49c73yv32axatm687gp8req4y0v6thvmec00sz5fdn3sjl80va"],"addressesOutput":["addr1vxw5zuwhj4ct46ppjfrup3kdsuse345da3z9xys7l7f2c2cjawcfl","addr1qywq4fnm04kxh4t80mxnyxq984rqp6cakf3em93xx4plqzqa49c73yv32axatm687gp8req4y0v6thvmec00sz5fdn3sxjlk67"],"fee":230445,"totalOutput":3504375232,"tokens":[]},{"hash":"8353c72faafab6910c7401074986a4979b32e623d0e9250fb70dd7ff0e2de708","blockNo":6837462,"blockHash":"bebd33dec829ee1f4fb713283e14f0b6224b6eb86de5a808f918696464793c01","epochNo":318,"epochSlotNo":334779,"slot":52347579,"time":"2022/02/03 18:44:30","addressesInput":["addr1qxszsqjtp8kf60yvk896cr9td2rkqnsxsgvej2ad8lah8x3hcdj45clk5lfnp6a2m7jdkpwd06t207rf6p2hzx6lv2jsl2szk3"],"addressesOutput":["addr1w999n67e86jn6xal07pzxtrmqynspgx0fwmcmpua4wc6yzsxpljz3","addr1qxszsqjtp8kf60yvk896cr9td2rkqnsxsgvej2ad8lah8x3hcdj45clk5lfnp6a2m7jdkpwd06t207rf6p2hzx6lv2jsl2szk3"],"fee":291351,"totalOutput":194202040,"tokens":[]},{"hash":"7f7c4fff9dbe942e94c817fb8a787182d1aa25cf67c9e357196ea81796421275","blockNo":6837320,"blockHash":"480938040ba8f95060099fcdfa04fe5bfca6aa2b9a343be8e7d4a6918deaa00c","epochNo":318,"epochSlotNo":332010,"slot":52344810,"time":"2022/02/03 17:58:21","addressesInput":["addr1qxszsqjtp8kf60yvk896cr9td2rkqnsxsgvej2ad8lah8x3hcdj45clk5lfnp6a2m7jdkpwd06t207rf6p2hzx6lv2jsl2szk3","addr1w9yr0zr530tp9yzrhly8lw5upddu0eym3yh0mjwa0qlr9pgmkzgv0","addr1qxszsqjtp8kf60yvk896cr9td2rkqnsxsgvej2ad8lah8x3hcdj45clk5lfnp6a2m7jdkpwd06t207rf6p2hzx6lv2jsl2szk3"],"addressesOutput":["addr1qxszsqjtp8kf60yvk896cr9td2rkqnsxsgvej2ad8lah8x3hcdj45clk5lfnp6a2m7jdkpwd06t207rf6p2hzx6lv2jsl2szk3","addr1qxszsqjtp8kf60yvk896cr9td2rkqnsxsgvej2ad8lah8x3hcdj45clk5lfnp6a2m7jdkpwd06t207rf6p2hzx6lv2jsl2szk3"],"fee":1106285,"totalOutput":195974871,"tokens":[]},{"hash":"33dd576e72d54fb5d63e6eec0692e7e369ed1274dcdd3f2556fede45090639d2","blockNo":6837115,"blockHash":"a238771b8527ffcdaefc97ec3c7dfca039d8b198b3bd00f0e55655743b1b39c7","epochNo":318,"epochSlotNo":327446,"slot":52340246,"time":"2022/02/03 16:42:17","addressesInput":["addr1q9x2jzdeyj7q5u9uvhpzvpuf394f8tekyp26dg4q7kpcyw24mv86l2c6nvmhzu7n4rqjpp84p6ly3gucwtukw0tllf9sjln2tv","addr1q9x2jzdeyj7q5u9uvhpzvpuf394f8tekyp26dg4q7kpcyw24mv86l2c6nvmhzu7n4rqjpp84p6ly3gucwtukw0tllf9sjln2tv"],"addressesOutput":["addr1w999n67e86jn6xal07pzxtrmqynspgx0fwmcmpua4wc6yzsxpljz3","addr1q9x2jzdeyj7q5u9uvhpzvpuf394f8tekyp26dg4q7kpcyw24mv86l2c6nvmhzu7n4rqjpp84p6ly3gucwtukw0tllf9sjln2tv","addr1q9x2jzdeyj7q5u9uvhpzvpuf394f8tekyp26dg4q7kpcyw24mv86l2c6nvmhzu7n4rqjpp84p6ly3gucwtukw0tllf9sjln2tv"],"fee":437223,"totalOutput":136006723,"tokens":[]},{"hash":"dbbe29e80dcb5194b2b9e3767d03057aefa22941b15144692dec121c00f976e9","blockNo":6837091,"blockHash":"a3ce527c0d2d7c74dd438d9f423a5eeff665df3d3b9fe03b92db1feb3c4aa66e","epochNo":318,"epochSlotNo":326853,"slot":52339653,"time":"2022/02/03 16:32:24","addressesInput":["addr1w999n67e86jn6xal07pzxtrmqynspgx0fwmcmpua4wc6yzsxpljz3","addr1qy0xznhgdhqj9u4g6jjdntf2cxy5lyad8j2p6a6dp8jwwttfq4uncdzu6hqlxn7gva2xsaln40x226fl8fsnqyyvzxtqqm3qw9"],"addressesOutput":["addr1w999n67e86jn6xal07pzxtrmqynspgx0fwmcmpua4wc6yzsxpljz3","addr1qy0xznhgdhqj9u4g6jjdntf2cxy5lyad8j2p6a6dp8jwwttfq4uncdzu6hqlxn7gva2xsaln40x226fl8fsnqyyvzxtqqm3qw9"],"fee":1202005,"totalOutput":9835921,"tokens":[]},{"hash":"85e50e5a753dc8777e87f8532d1713fd3611237b96014f2313135f57a4bfdec8","blockNo":6836952,"blockHash":"5386db4bc9192ff0387f2bee2e017097176bc4cc9ee5940140073f7b2ddcdf1d","epochNo":318,"epochSlotNo":324132,"slot":52336932,"time":"2022/02/03 15:47:03","addressesInput":["addr1qy0xznhgdhqj9u4g6jjdntf2cxy5lyad8j2p6a6dp8jwwttfq4uncdzu6hqlxn7gva2xsaln40x226fl8fsnqyyvzxtqqm3qw9","addr1w999n67e86jn6xal07pzxtrmqynspgx0fwmcmpua4wc6yzsxpljz3","addr1qy0xznhgdhqj9u4g6jjdntf2cxy5lyad8j2p6a6dp8jwwttfq4uncdzu6hqlxn7gva2xsaln40x226fl8fsnqyyvzxtqqm3qw9"],"addressesOutput":["addr1q9cwvremt6n320s2e3agq0jyq82yhrk3htsu0w426xnz5us70z4w0jgvcdkkynmm8wmds66jd9kusnjfpu6raw5fqp0sr07p5w","addr1q8arhjahhusugtnpq6jrqqw9q720drln87p4t9zr0gt898a6ttzkanas2dtcq6m8mpm2fg652y7rky89ma4w0rq8g9sst45nh9","addr1q8s2w7etjnq8jmrs6ccggygr7rpgxjq2jnstl0de7wqjxwzkpy0pul4vt0jkn8stl33kzdqkchgqy0hme77ynk0yeugsfad7aw","addr1qy0xznhgdhqj9u4g6jjdntf2cxy5lyad8j2p6a6dp8jwwttfq4uncdzu6hqlxn7gva2xsaln40x226fl8fsnqyyvzxtqqm3qw9","addr1qy0xznhgdhqj9u4g6jjdntf2cxy5lyad8j2p6a6dp8jwwttfq4uncdzu6hqlxn7gva2xsaln40x226fl8fsnqyyvzxtqqm3qw9"],"fee":1189141,"totalOutput":70000889,"tokens":[]},{"hash":"e8e2d718ab2666a248b260efe69132743fcfa65a701b219f64ec7623373dc58d","blockNo":6836866,"blockHash":"51d8458d6193a6d5594c8a0c961df85d414001e7ac9b0f55b691445ad9cf0f80","epochNo":318,"epochSlotNo":322074,"slot":52334874,"time":"2022/02/03 15:12:45","addressesInput":["addr1qxa7hxs2plv3ghfvm2ds0ddlgljjmr870nyj0dcuttr9emmhy29z9apw4amvddq7cz3u2c6jffld2rlzcrmuk57cdvcsnml3cx","addr1qxa7hxs2plv3ghfvm2ds0ddlgljjmr870nyj0dcuttr9emmhy29z9apw4amvddq7cz3u2c6jffld2rlzcrmuk57cdvcsnml3cx"],"addressesOutput":["addr1q99m6qg6wmqjsxswwq9xprtjzlkmg986u7ws0glawgu7lvcdglhcj9y9lqrf8aw00u26dcvrncm5rwdjxsmeedvn975qgf3uue","addr1qxa7hxs2plv3ghfvm2ds0ddlgljjmr870nyj0dcuttr9emmhy29z9apw4amvddq7cz3u2c6jffld2rlzcrmuk57cdvcsnml3cx"],"fee":264413,"totalOutput":13306102,"tokens":[]},{"hash":"b507e4c29c7c6bc4f7cddcdce3158a759ca89cbeb3a234bf2c9032aa5a660df7","blockNo":6836759,"blockHash":"6b92e92001c78342826b99c91a00989e9c9576b75cad32847eaf85ee0f1b3d58","epochNo":318,"epochSlotNo":319765,"slot":52332565,"time":"2022/02/03 14:34:16","addressesInput":["addr1qxszsqjtp8kf60yvk896cr9td2rkqnsxsgvej2ad8lah8x3hcdj45clk5lfnp6a2m7jdkpwd06t207rf6p2hzx6lv2jsl2szk3","addr1w999n67e86jn6xal07pzxtrmqynspgx0fwmcmpua4wc6yzsxpljz3"],"addressesOutput":["addr1qxszsqjtp8kf60yvk896cr9td2rkqnsxsgvej2ad8lah8x3hcdj45clk5lfnp6a2m7jdkpwd06t207rf6p2hzx6lv2jsl2szk3","addr1qxszsqjtp8kf60yvk896cr9td2rkqnsxsgvej2ad8lah8x3hcdj45clk5lfnp6a2m7jdkpwd06t207rf6p2hzx6lv2jsl2szk3"],"fee":1219861,"totalOutput":195229306,"tokens":[]},{"hash":"73f6ed4592d5904d6221abb484ed18c2ffe53ef739acff0e0e22b3adae13816d","blockNo":6836295,"blockHash":"d8c00467bb2b2b3765e52467154099483462a8e73cc50acfa07b27249b28baa8","epochNo":318,"epochSlotNo":309204,"slot":52322004,"time":"2022/02/03 11:38:15","addressesInput":["addr1q8njpfaq2juy8djeqh7xs4k9n0uyz7q00gr4ttn82xdc6xuz2kfgd2rjm46qt0vqvtu6lmrwna0gzmsvv37ngqtmywwq4pn0pl"],"addressesOutput":["addr1w999n67e86jn6xal07pzxtrmqynspgx0fwmcmpua4wc6yzsxpljz3","addr1q8njpfaq2juy8djeqh7xs4k9n0uyz7q00gr4ttn82xdc6xuz2kfgd2rjm46qt0vqvtu6lmrwna0gzmsvv37ngqtmywwq4pn0pl"],"fee":256455,"totalOutput":16341449,"tokens":[]},{"hash":"b692e5209d6529a4d7abde2f771d2dba2c3b7861f87fc8e7b37374b6912b6b37","blockNo":6836282,"blockHash":"092fc33ac2f2462d65d545701c244f5877aa46413876aaff64c2029e185e4a89","epochNo":318,"epochSlotNo":308975,"slot":52321775,"time":"2022/02/03 11:34:26","addressesInput":["addr1qynqgm7ck9lldl40wyrcr8x58up3mgemqjev2re5kqlfl78nhg9pdyuuy63884c8u39f2w7rctqp6vzf7mlzxfzyv30s3lytv3","addr1qygn8u2f9lhf284nxx4wkaeu2gf0dp78u3c2v3de5699ejhnhg9pdyuuy63884c8u39f2w7rctqp6vzf7mlzxfzyv30s4tutam"],"addressesOutput":["addr1q885st3hq2ehskmmkexy9r2z63vfaeka4043wl4p69mctxd2drg62ktgu7mk6uwp6wuuhz304qm3xj9yp8rar2nq8jjspcsdrm","addr1q9w8sh07ssh7n5jq40xphqmdq4xzlxy9uwx7l8ggk38ajmlnhg9pdyuuy63884c8u39f2w7rctqp6vzf7mlzxfzyv30samuhgk"],"fee":187237,"totalOutput":87090357,"tokens":[]},{"hash":"e0bee92bc26f2d72e80fe8bafbb9a73d57a1ccc075b9d5e8f43d3b749cb023b1","blockNo":6836270,"blockHash":"003cde3b272d4725435c75f695f7795079e177dc3cd635ca578afa8ce4f95e2c","epochNo":318,"epochSlotNo":308581,"slot":52321381,"time":"2022/02/03 11:27:52","addressesInput":["addr1qy0xznhgdhqj9u4g6jjdntf2cxy5lyad8j2p6a6dp8jwwttfq4uncdzu6hqlxn7gva2xsaln40x226fl8fsnqyyvzxtqqm3qw9","addr1qy0xznhgdhqj9u4g6jjdntf2cxy5lyad8j2p6a6dp8jwwttfq4uncdzu6hqlxn7gva2xsaln40x226fl8fsnqyyvzxtqqm3qw9","addr1w999n67e86jn6xal07pzxtrmqynspgx0fwmcmpua4wc6yzsxpljz3","addr1qy0xznhgdhqj9u4g6jjdntf2cxy5lyad8j2p6a6dp8jwwttfq4uncdzu6hqlxn7gva2xsaln40x226fl8fsnqyyvzxtqqm3qw9"],"addressesOutput":["addr1q9cwvremt6n320s2e3agq0jyq82yhrk3htsu0w426xnz5us70z4w0jgvcdkkynmm8wmds66jd9kusnjfpu6raw5fqp0sr07p5w","addr1q8arhjahhusugtnpq6jrqqw9q720drln87p4t9zr0gt898a6ttzkanas2dtcq6m8mpm2fg652y7rky89ma4w0rq8g9sst45nh9","addr1qxhsy2qfjpjm0hacwj2agj4przqnuehmtx45uakcr2ndy76a2trxvgzcgqtnq2lp6zgnjwhpug95hlxushl8wgyl6e0snwmc03","addr1qy0xznhgdhqj9u4g6jjdntf2cxy5lyad8j2p6a6dp8jwwttfq4uncdzu6hqlxn7gva2xsaln40x226fl8fsnqyyvzxtqqm3qw9","addr1qy0xznhgdhqj9u4g6jjdntf2cxy5lyad8j2p6a6dp8jwwttfq4uncdzu6hqlxn7gva2xsaln40x226fl8fsnqyyvzxtqqm3qw9"],"fee":1189093,"totalOutput":129375217,"tokens":[]},{"hash":"38b493878e539b01020ef393f072cfae6f14fc95e9b592c082187a7b7f8fb799","blockNo":6836151,"blockHash":"25270e06674cea87d6446147cbceed65d7c5486d46fb85b8e13d50ccdc8302bd","epochNo":318,"epochSlotNo":305665,"slot":52318465,"time":"2022/02/03 10:39:16","addressesInput":["addr1q8njpfaq2juy8djeqh7xs4k9n0uyz7q00gr4ttn82xdc6xuz2kfgd2rjm46qt0vqvtu6lmrwna0gzmsvv37ngqtmywwq4pn0pl"],"addressesOutput":["addr1w999n67e86jn6xal07pzxtrmqynspgx0fwmcmpua4wc6yzsxpljz3","addr1q8njpfaq2juy8djeqh7xs4k9n0uyz7q00gr4ttn82xdc6xuz2kfgd2rjm46qt0vqvtu6lmrwna0gzmsvv37ngqtmywwq4pn0pl"],"fee":256791,"totalOutput":18412717,"tokens":[]},{"hash":"b2a078ceb2d953792503a9a1a4a629c19caa9a82acc37b78826d165de18fac39","blockNo":6836123,"blockHash":"6ff45810281b3685ecf17afa157f9e01b051af5ad7b7f6bef3307145c02010e8","epochNo":318,"epochSlotNo":305053,"slot":52317853,"time":"2022/02/03 10:29:04","addressesInput":["addr1q8njpfaq2juy8djeqh7xs4k9n0uyz7q00gr4ttn82xdc6xuz2kfgd2rjm46qt0vqvtu6lmrwna0gzmsvv37ngqtmywwq4pn0pl"],"addressesOutput":["addr1w999n67e86jn6xal07pzxtrmqynspgx0fwmcmpua4wc6yzsxpljz3","addr1q8njpfaq2juy8djeqh7xs4k9n0uyz7q00gr4ttn82xdc6xuz2kfgd2rjm46qt0vqvtu6lmrwna0gzmsvv37ngqtmywwq4pn0pl"],"fee":257079,"totalOutput":20484321,"tokens":[]}],"totalItems":341,"totalPages":18,"currentPage":0}