{"data":[{"blockNo":8411731,"slotNo":85091517,"epochNo":394,"epochSlotNo":246717,"hash":"09d8cb009fb95fe611149b4d53f920e448ffafd0d37e62d436b23a2ff361c842","time":"2023/02/17 18:16:48","txCount":11,"totalFees":3175841,"totalOutput":17542148175019,"slotLeader":"b59366e330a6db8260ad9aae8446ba8c908931d1b9cb3cca5d1d84aa"},{"blockNo":8411730,"slotNo":85091505,"epochNo":394,"epochSlotNo":246705,"hash":"181db6d4e81a0954a558c542c6010a98e60fa38d533082f8afa6735b314314a4","time":"2023/02/17 18:16:36","txCount":7,"totalFees":2075707,"totalOutput":74421350502,"slotLeader":"351a90a0253fb3595ccc460438b9947cd8a0b9a7f457f3478bbb31d8"},{"blockNo":8411729,"slotNo":85091503,"epochNo":394,"epochSlotNo":246703,"hash":"076b2b8c598f1d8bb6665470c4001ddfc667fb21ca615bd4a9da9bae592dc921","time":"2023/02/17 18:16:34","txCount":32,"totalFees":11227143,"totalOutput":28691832240563,"slotLeader":"36e0db9278d5b481dad2f2f84c42d20c324b046aaff97ff45fa4e134"},{"blockNo":8411728,"slotNo":85091450,"epochNo":394,"epochSlotNo":246650,"hash":"0907327dce3c7ac4d4ca6d0e623616cd192b4e45f54d8f7e4da3dcf2155bb3dd","time":"2023/02/17 18:15:41","txCount":19,"totalFees":4948199,"totalOutput":2538243566162,"slotLeader":"2146dfb28bb438d70cd5f7532357c81b6ab25d55163094c9618ab8fc"},{"blockNo":8411727,"slotNo":85091429,"epochNo":394,"epochSlotNo":246629,"hash":"d3980922e806c90b73c0f4f0473afd5aae2c8f541d8a2b19bac85fae6556b9f9","time":"2023/02/17 18:15:20","txCount":33,"totalFees":9596204,"totalOutput":3623644252816,"slotLeader":"118af2b045067d1eb1816bc9e0030e11d294b27c0e89c02b27b83f58"},{"blockNo":8411726,"slotNo":85091426,"epochNo":394,"epochSlotNo":246626,"hash":"c16c9855fda3d75b52f94f895d912231688edbb5d1e7a2fa8653b38fee7d63a7","time":"2023/02/17 18:15:17","txCount":18,"totalFees":9315624,"totalOutput":26042032456624,"slotLeader":"c8a15d64b34aed5d3bca88915ceb53533a45ee1487c7b2398df24d42"},{"blockNo":8411725,"slotNo":85091364,"epochNo":394,"epochSlotNo":246564,"hash":"821d21a435bea25663390378763d8d5e0406c491d9904494d67a07220df03196","time":"2023/02/17 18:14:15","txCount":49,"totalFees":15147340,"totalOutput":4155788134649,"slotLeader":"eaa28db3bf0b7bb815b552fc9e0cecdda62933ce6c67067183c79acd"},{"blockNo":8411724,"slotNo":85091277,"epochNo":394,"epochSlotNo":246477,"hash":"481d34b6a3834510fd0a4654fc3d5091a68c15c1e8264160908253f82eb04d82","time":"2023/02/17 18:12:48","txCount":31,"totalFees":7978896,"totalOutput":1264630821161,"slotLeader":"660f20fb9d419173ac623786ad3e6dc11a23951981e0e83e98233d29"},{"blockNo":8411723,"slotNo":85091267,"epochNo":394,"epochSlotNo":246467,"hash":"a07a50bd013dde72f138457e298cc7661960617f9dc43325198f0a28fc67d778","time":"2023/02/17 18:12:38","txCount":21,"totalFees":9522770,"totalOutput":47311364433701,"slotLeader":"c2c52eab0d713209b337d8ff8fe28e1ccae2f70eb7ed1ee27e8c866a"},{"blockNo":8411722,"slotNo":85091222,"epochNo":394,"epochSlotNo":246422,"hash":"0af9ae99d473b49a845106808631fc3b716ede900883846169a007019904f0d8","time":"2023/02/17 18:11:53","txCount":11,"totalFees":2677926,"totalOutput":15869807744,"slotLeader":"00000036d515e12e18cd3c88c74f09a67984c2c279a5296aa96efe89"},{"blockNo":8411721,"slotNo":85091181,"epochNo":394,"epochSlotNo":246381,"hash":"365a8ed5c65ffca54a5ffab1c8092db4b22f5cb5dbbc1b511263435599160e9c","time":"2023/02/17 18:11:12","txCount":15,"totalFees":4525723,"totalOutput":2682294629134,"slotLeader":"ea595c6f726db925b6832af51795fd8a46e700874c735d204f7c5841"},{"blockNo":8411720,"slotNo":85091163,"epochNo":394,"epochSlotNo":246363,"hash":"979815648bb395936d197a3c84f116171da03411f28f7a609edf0f91367f1981","time":"2023/02/17 18:10:54","txCount":10,"totalFees":2421213,"totalOutput":139414318388,"slotLeader":"36e0db9278d5b481dad2f2f84c42d20c324b046aaff97ff45fa4e134"},{"blockNo":8411719,"slotNo":85091144,"epochNo":394,"epochSlotNo":246344,"hash":"2ebf5ef4a5b40708ab98ed4ecc341b9f5824f311e85119a6891ec7be3499a32e","time":"2023/02/17 18:10:35","txCount":42,"totalFees":14035470,"totalOutput":26445167984714,"slotLeader":"523484ee98a83c3139c66eeef334d67f96467241d34abb655baeade0"},{"blockNo":8411718,"slotNo":85091078,"epochNo":394,"epochSlotNo":246278,"hash":"059de270ea1b6a02626fec2cfbd4402318f55ebfa85e76dbcbe59fce7972aa85","time":"2023/02/17 18:09:29","txCount":0,"totalFees":0,"totalOutput":0,"slotLeader":"c7a434e33111ad62c0b99882c748e9e748c3442d161565661ad8dda4"},{"blockNo":8411717,"slotNo":85091077,"epochNo":394,"epochSlotNo":246277,"hash":"366e9f46b54d9af7215a086729cf4b10d58175f5a5539cbb058f535f89791dfe","time":"2023/02/17 18:09:28","txCount":11,"totalFees":3569296,"totalOutput":112024358405,"slotLeader":"abcdef77d812a5a397fb324f1d00325e2243c476ea8ecd2030719ae5"},{"blockNo":8411716,"slotNo":85091067,"epochNo":394,"epochSlotNo":246267,"hash":"edf623ca4348da3b6949a117dd5aa8b2eae0349fb1e9218bd35eae539fa0a09c","time":"2023/02/17 18:09:18","txCount":31,"totalFees":11023242,"totalOutput":27639938855518,"slotLeader":"279d3af9d898261a19860ebc05eed79104915f05ad9f6960b530c3a2"},{"blockNo":8411715,"slotNo":85091025,"epochNo":394,"epochSlotNo":246225,"hash":"23b260ee5255c0129242769ce3d6331ed8dda570643954aa962f15ef58bee501","time":"2023/02/17 18:08:36","txCount":5,"totalFees":1110320,"totalOutput":151985631049,"slotLeader":"661d04fdb7aa2c2476bbc6827d11ec22ec04ecb953495ade0f7b2352"},{"blockNo":8411714,"slotNo":85091013,"epochNo":394,"epochSlotNo":246213,"hash":"265c6745f186d8af3237a5fa5a1e67a80889ccef9c412e384cc9ac755bc65784","time":"2023/02/17 18:08:24","txCount":11,"totalFees":3456718,"totalOutput":42175441376,"slotLeader":"8088a5b6523f6bd6475475a20524082c07ffed6f89e39d30a1d6ab34"},{"blockNo":8411713,"slotNo":85090999,"epochNo":394,"epochSlotNo":246199,"hash":"8f1ff7c5e548e8a5d93846ce03c4b13be656f9797bed09b6ab44b8c88f30000b","time":"2023/02/17 18:08:10","txCount":2,"totalFees":653375,"totalOutput":638858470,"slotLeader":"3caaa49b3f45a914736c393c97c4bb8611ab7d5f66ecb4e214e93606"},{"blockNo":8411712,"slotNo":85090996,"epochNo":394,"epochSlotNo":246196,"hash":"a387b16fab467ea8b22b2a19109536254ea940e557119561fcaf42858acbd560","time":"2023/02/17 18:08:07","txCount":18,"totalFees":4850811,"totalOutput":66111657147,"slotLeader":"dddce8834df02109524aeb5afa0fd820fc29920eca91a63551ecc26a"}],"totalItems":8411907,"totalPages":420596,"currentPage":0}