{"data":[{"blockNo":8285573,"slotNo":82469756,"epochNo":388,"epochSlotNo":216956,"hash":"885493e74632cd770d958229bd5f76eff6540ed39aa69958292f069e5dae0b89","time":"2023/01/18 10:00:47","txCount":15,"totalFees":5312907,"totalOutput":208730922260,"slotLeader":"dda4bc64e339336e3f7bc158177df0c71dc760ff11cb8b0651b3ece4"},{"blockNo":8285572,"slotNo":82469731,"epochNo":388,"epochSlotNo":216931,"hash":"e46fcd264a3a8df67f0d557bda4579699dfccaa9fcf5665a80bc322854e9124f","time":"2023/01/18 10:00:22","txCount":1,"totalFees":247825,"totalOutput":436021506,"slotLeader":"35a38b78bf1f4b829a98d1ebf27d883b3f936eefcdfce2bd7a83c4c7"},{"blockNo":8285571,"slotNo":82469730,"epochNo":388,"epochSlotNo":216930,"hash":"0db56e6acab1acd4be81e0d6d955ae91811b22159cfcf0f48ca75f95a9978300","time":"2023/01/18 10:00:21","txCount":20,"totalFees":5547287,"totalOutput":163730043168,"slotLeader":"398964318c3664acd3a17d6d0f29a74b6d9a8200cde2f875629906b9"},{"blockNo":8285570,"slotNo":82469679,"epochNo":388,"epochSlotNo":216879,"hash":"1cc885dd944c37a53811a4b148935e645a80795f954de3c319a17f3771d7a0ba","time":"2023/01/18 09:59:30","txCount":38,"totalFees":15667269,"totalOutput":272208707315,"slotLeader":"68ac3c1be0477698b5c825ce598cca359dbf6132e1761a572403b9fb"},{"blockNo":8285569,"slotNo":82469604,"epochNo":388,"epochSlotNo":216804,"hash":"2db15aea43a99190e044ee55a0fc7323afcc8fb99a74cedb2a6a66e632b068f4","time":"2023/01/18 09:58:15","txCount":8,"totalFees":2098628,"totalOutput":589831406073,"slotLeader":"cb87bf12be816ecd5cd6e167442670e4024d85e0005c8623651b371f"},{"blockNo":8285568,"slotNo":82469597,"epochNo":388,"epochSlotNo":216797,"hash":"1fc48d177d910ef7c4b4e0f8b0ff1cbfa659f9b6a60c14ae3aabaaa06f7f294e","time":"2023/01/18 09:58:08","txCount":22,"totalFees":10206526,"totalOutput":268811398892,"slotLeader":"2c799c3eb2fb59dbf874500fa77df18a2acaa8cfec1793c928294a50"},{"blockNo":8285567,"slotNo":82469550,"epochNo":388,"epochSlotNo":216750,"hash":"80221d352e8413b0b79d630aaa5947f1b9f0d0ca84e321a21ca1dfa280e0f402","time":"2023/01/18 09:57:21","txCount":31,"totalFees":10719195,"totalOutput":708811583940,"slotLeader":"ac5ba151fae6889e25021acc723b0e34655828bf3328b6f1180e1d65"},{"blockNo":8285566,"slotNo":82469490,"epochNo":388,"epochSlotNo":216690,"hash":"9865ccc3cfd2696eb374f56424a985d818f0a9dac4f425f47dcbe2e7d93cab41","time":"2023/01/18 09:56:21","txCount":6,"totalFees":1855634,"totalOutput":398084451995,"slotLeader":"34812765ebf71de725a4431652e68e96382d64da1e0ca0bf5ee80c1d"},{"blockNo":8285565,"slotNo":82469478,"epochNo":388,"epochSlotNo":216678,"hash":"03e1e0d0b03f5881f93de919835707b68dfe67c2f2591894fe92be65878ef7b0","time":"2023/01/18 09:56:09","txCount":3,"totalFees":924623,"totalOutput":76057563870,"slotLeader":"f8328a36320b8719b07da68f3b28f019feb5907ac26a42420d3680b3"},{"blockNo":8285564,"slotNo":82469473,"epochNo":388,"epochSlotNo":216673,"hash":"03457419419db5b57977cee44b273651c6f154221516c9e04e0f5c078eccc716","time":"2023/01/18 09:56:04","txCount":1,"totalFees":213241,"totalOutput":83813320,"slotLeader":"96a46d5a796a30483492c3717f80b7c6ef87e9525af162ffacf74fdb"}],"totalItems":10771,"totalPages":1078,"currentPage":0}