{"data":[{"txId":62082857,"txHash":"5b5871c8b783b3ad86dea687ac2a830a1cd0562f3cf63ae35a1ee68ae1764323","txTime":"2023/02/15 12:39:24","block":8402719,"epoch":394,"slotNo":84898473,"epochSlotNo":53673,"stakeKey":"stake1uxwqwua5anf7x4y8cmv353gtyg6jjrvt2ka49s2dy0vq4dcwgn344"},{"txId":62082831,"txHash":"cb78cd62bd3f8129c0332da50f47f4d134c170db5f1d6027dd9b9f42c67437f6","txTime":"2023/02/15 12:38:39","block":8402718,"epoch":394,"slotNo":84898428,"epochSlotNo":53628,"stakeKey":"stake1uyev32a6e8ks86la4z9pd9233awtalc84p54s2l4knkj42cqvecx5"},{"txId":62082819,"txHash":"a529879739498d57332d281bbb763a795fc2629a74ddcc9695329e6c96ce2cc3","txTime":"2023/02/15 12:38:04","block":8402716,"epoch":394,"slotNo":84898393,"epochSlotNo":53593,"stakeKey":"stake1u8335x8cxy954fdlljwfavx7xkay6kurqxjykex688pn2ssuq9v2j"},{"txId":62082605,"txHash":"66c373fcd60a9bae1a93120181312df653ef3e9fb6a04823856512d71948bbbb","txTime":"2023/02/15 12:33:07","block":8402699,"epoch":394,"slotNo":84898096,"epochSlotNo":53296,"stakeKey":"stake1uxnguu2pqjgfkwjnf8lqkwu44s2zhsuffm9vpu0xjsqffystjfxn6"},{"txId":62082604,"txHash":"99747ddbb1d03e6414f73a4253e0c13132806f14316e5763155771b0fe27e47b","txTime":"2023/02/15 12:33:07","block":8402699,"epoch":394,"slotNo":84898096,"epochSlotNo":53296,"stakeKey":"stake1uycu7e93vs5j6kcuuzh2meyafsfr7cewu3qd24u4tpgjjtq257pdv"},{"txId":62082592,"txHash":"ec6c8ad3f9751dd0b2b71a8b822f400243593898a340fdb5047c15b0b19016e4","txTime":"2023/02/15 12:33:07","block":8402699,"epoch":394,"slotNo":84898096,"epochSlotNo":53296,"stakeKey":"stake1u9wcg9jd584v0d4temjc6awljtzwe5mr0wqeusx5q4pvf4cf0e7mk"},{"txId":62082537,"txHash":"fc9a3b26805f85d0f247a469236f68613504b836afb29ceb99e7f8d30dcf9cdc","txTime":"2023/02/15 12:30:31","block":8402694,"epoch":394,"slotNo":84897940,"epochSlotNo":53140,"stakeKey":"stake1u9w256mynfzh6thm3wgkww32fmy653sz7ax5esw3jf8k40gq3p2m9"},{"txId":62082419,"txHash":"03ff64f7e61629b3ffb0fda5526c7341e4fa6635780bd3c8636045570d1bd092","txTime":"2023/02/15 12:27:51","block":8402686,"epoch":394,"slotNo":84897780,"epochSlotNo":52980,"stakeKey":"stake1uyumf68pes7yeqzxju07ca3ylua8zke7md5n96tawfyknhqnmvqrf"},{"txId":62081872,"txHash":"f8badea593d33794ffea023c785ecf5687f2b9975fbaf3662d07c8331e1143eb","txTime":"2023/02/15 12:15:14","block":8402655,"epoch":394,"slotNo":84897023,"epochSlotNo":52223,"stakeKey":"stake1uy7c488lervw2yjutgcn76yt9sd78lnnvpa8eszczf0rlugr96axm"},{"txId":62081843,"txHash":"3d19960c7fbb574860bd797bb10182190d8769c07f1d3a38e2a4c0712f34f48d","txTime":"2023/02/15 12:14:36","block":8402654,"epoch":394,"slotNo":84896985,"epochSlotNo":52185,"stakeKey":"stake1u94prneud4y7uzehf8s0u87eyhn9th9z62004u2wkhpgymsx5wtys"},{"txId":62081834,"txHash":"1298dd83920415a26f8f17847ea109752185df992776128c47a66a44719ab0a9","txTime":"2023/02/15 12:14:23","block":8402653,"epoch":394,"slotNo":84896972,"epochSlotNo":52172,"stakeKey":"stake1ux9v8pqxlq82aa83cc28ju0ccw3ymqkxf7tajmprkwlfssg4vgqte"},{"txId":62081771,"txHash":"0deb122a2cd8278f9ae08f5006232fe8ab45e4eb003fa11af45ed0ccb103331a","txTime":"2023/02/15 12:12:50","block":8402650,"epoch":394,"slotNo":84896879,"epochSlotNo":52079,"stakeKey":"stake1uxz6pgzkl2yc56jy0sq35hp0hz97udefrtt72gtftyzeywckgm4el"},{"txId":62081742,"txHash":"0cb7fa7eafcb788452c09c11856ca0136ab5fcbf1165b046862c0e0e6a0cbe1d","txTime":"2023/02/15 12:12:50","block":8402650,"epoch":394,"slotNo":84896879,"epochSlotNo":52079,"stakeKey":"stake1u9pz5z20q9k7dke4j4w2zzz4anrcq7kepcpalq8yed33w7ctcuyu2"},{"txId":62081735,"txHash":"72713c44cad2b2fabab1d961712638f82ce539b1d8d18d46b10c256a408df9e0","txTime":"2023/02/15 12:12:50","block":8402650,"epoch":394,"slotNo":84896879,"epochSlotNo":52079,"stakeKey":"stake1u8drdd0dekkz6jpkjej49mxsjlpfm9hay6wa6qqlgttdzdqfjzjd5"},{"txId":62081674,"txHash":"dbcb8687e1498f27d724f06731aab3d2b3f954cef73c374b3f207080bdc1a6dc","txTime":"2023/02/15 12:10:16","block":8402648,"epoch":394,"slotNo":84896725,"epochSlotNo":51925,"stakeKey":"stake1uyugnn6ksumzqp5cevdand9wcjn84xpjh9g5yu895r3qj9snf75de"},{"txId":62081659,"txHash":"7862f224da9962201d7216d239677aafc6d45dca8a5feb819114ecb205b38006","txTime":"2023/02/15 12:09:49","block":8402646,"epoch":394,"slotNo":84896698,"epochSlotNo":51898,"stakeKey":"stake1u9n0v463dv4zemsnknj6n5p5g2a88zvxp4c8dn9jwl8vtdg4wyjwy"},{"txId":62081578,"txHash":"66ecff6d2293097b039a6a322437e71440ac3886a485f7006fbf98341dd24600","txTime":"2023/02/15 12:07:06","block":8402639,"epoch":394,"slotNo":84896535,"epochSlotNo":51735,"stakeKey":"stake1uxhgrk28asus9jlypshwpl7uga0z4zcq2wxf67vuhztjywqyshlzr"},{"txId":62081496,"txHash":"876103ceab57d7ac898993824e96895ef7e0c48373f1e3fabe80d1d2919766f2","txTime":"2023/02/15 12:05:01","block":8402632,"epoch":394,"slotNo":84896410,"epochSlotNo":51610,"stakeKey":"stake1uyrjxlkcr8ss80j5cktkgs9eush5jw3vmtjdawplvg6ky6scpcjsl"},{"txId":62081434,"txHash":"7081f5c40cbc5d05e70ce570026e7ba7d3f8ea6de4be9dd451cfb0baf70bf17c","txTime":"2023/02/15 12:03:20","block":8402623,"epoch":394,"slotNo":84896309,"epochSlotNo":51509,"stakeKey":"stake1ux20mj2wp26zmwwq48utzf4l942gt8ua605hskymeawq3ns8ung0t"},{"txId":62081413,"txHash":"6b0149368e742d8a6efc069a9c597e64e05e34b002e3f396b70e212bc5db6f9a","txTime":"2023/02/15 12:02:54","block":8402621,"epoch":394,"slotNo":84896283,"epochSlotNo":51483,"stakeKey":"stake1uy54qekq45l8cg29qawxgz87kdv7lfcyjqvucwj5ukqrhcs56r93n"}],"totalItems":1665909,"totalPages":83296,"currentPage":0}