{"data":[{"hash":"5d2649f0a3ab652ac8a3f5554aa2066ca6bbe9318ba73ca677232a7b6dc0e2ca","blockNo":8257887,"blockHash":"06d72065af8fce29c5ffb0ed140be61357ded2fa63c14c17dae5d152cfee958b","epochNo":387,"epochSlotNo":85883,"slot":81906683,"time":"2023/01/11 21:36:14","addressesInput":["DdzFFzCqrhsrDrX26Kn9xFWF4Z9ArcLoSkoMrDaJe34GGXnQxWwmy4ESDHWXEq8rwtC5PbCeMtZeE9NKoktdohyTVHuKVeETAmJJyQku","DdzFFzCqrhst6j91pd1A82Lf3FtM4Mte8FqK6ZcRdiH8WCoGkasZtLrgpLUersr5upH54E5Bth2Qwm7BMMZSB6p9dTct9wVMUYTjBLPP","DdzFFzCqrht41rrgg7wUDf6t7Xv7zuJvRxbXHkEPFzEzZ73zD3eoDTeAY8s5ZWR6BS3dSRBrm8vr5MrM6vjF3mu6qKPTCWKq3ajXsuge","DdzFFzCqrht5fpPiHtMNEKfQ43pkRabGpCgi7SKvBrGi6UzcfXwwaDZLPRoDpaK9K2XKXX5cUSiFdCCybP1xMDAt3Myr5LDdTe2sLzpj","DdzFFzCqrht2LzE2x5BFmLJSZSYN5W5SGNMgKngpFQKzcTpukvZD7TxYN1WsETqkTwAjRqueHNUTnnoTXZtRcRXvDDdQ27noAC5i1djk","DdzFFzCqrhtBSB2Urh2DHndcD9fyjRLd7NR8nTRk9aebyZ7BLEz2N474RntSZNRRd81394BNP7duVy5UTAUWXRtbPC4srb3hTuLqvuf2","DdzFFzCqrhstm8p8KnHd8zr4kyKiBhreHbQ23jsAhFx54WATf1WS2jA23WgvotJsRS4qqEAHxuqZe2hiAheW5gnxAryQpxhSbn1eQLL5","DdzFFzCqrhssmpSXUtRy9NFatrFkcNtrjDEBnV3Nh55kRS2KpzoPmBgfSxniLNZioYtWTndCFizntgHNnm422cCuvg5cWuYx2k3o94Kb","DdzFFzCqrht8PsY44x1YqA5h9jm6RzFTyYyfkuDVV6gbfYKKBb5cadmzgAhhjWSg3nqppNgFYq3MddWGvHq7sjwXcCkWrGqecvJfVVrd"],"addressesOutput":["addr1q9atjfpqwdtg7ytz0pz9zcaqvx8zr2uv6ysvc4csqynr683dzefudzxhadht99nh8gv4l3z93d486ygllgxuh2drrrpsdw6fws","DdzFFzCqrhtCNEWcqSLvDfsauVCE9964f2KG8ocuXyDXZxGe2NuSWZ2BKxCVyt5Wa8xZxCrGvyGWZWJpxz4XuSYQ1AWBXxDx2Rq2Z7Sq","DdzFFzCqrht7wV2zW9mnfm8h9QwEzcsUCcwcX2Vi6ERsYn3VxZm87eUEizstNY8f9B7ufkR2yrLyMo9q8dwJrJt5eNUQ3RpQUyrQKLDv","DdzFFzCqrhspAR4N36UYctSPtMoJvQXks2MugF64QfqzokTfzgr5jGz78JusARCweLfurL7Es8Mx58Q8BkY3zXu1SRh9Qu6LmpQ3zRuL","DdzFFzCqrhsgqzEPsP6XQiVjqpSUMJBr13jzh5fKKNodJc4545KDhTp6ZZ3bUQhyvb6kDDRJgwP1ATTtEuykN4S2cX7c8X65WdAdm7UF"],"fee":990237,"totalOutput":58085524272,"tokens":[]},{"hash":"770e5dc84deda707bea5998f824c89210a7cee3c1bc1285e67d227bb8fb49101","blockNo":8257791,"blockHash":"873fc0bba380ec384bbe3b3cc966446789dd87bf291b618c551e33c591db0493","epochNo":387,"epochSlotNo":83799,"slot":81904599,"time":"2023/01/11 21:01:30","addressesInput":["DdzFFzCqrhshSn5LEUUzFJEQ4Qg1JN5nb3CvNDyAGYWwAogYZDuBrwNsEBYvCPyQcoth8DbLEGNzZRqQTRFSuZWrH8Xg7e4mqpf2PXHD","DdzFFzCqrhsuN2cyrcdKV393VeXbWmm8Zx8ACXPwiFfEPEm3zb6gkcR89TcNKVQFC7xZT3RrEjcLXaXayhTAu2wnytkbAiWCmagK1jRg","DdzFFzCqrhsqWEbPceNTQS3ckDH7ryejTLhm4PV3oWWnmyyoN7yu1r8HkZ9SgbzUTdHR4YSEeYnkBLSCfDxvnb5M7U15brAhxETz242j","DdzFFzCqrhsvfJ1Vq1NRE9zsFuYZnkJ9mbAfsfMXzjkpL5hSqMz8LAsQ3c7e5siemhWKPuznEq3amrwP3uP7WythWDp4noLdxZf4T5ES","DdzFFzCqrhtAWkcGQApszU862puYiqHPApo6n2UPbU1oSZZmFy4qn3B1xxptyK6Sm5p94EumiN46WUULM7FXZLnWxNEmYNuVg3G2xEBk","DdzFFzCqrht2UfbayiLLp3kXBvFS2FYztwkrsDKpFH1ti2yS6MLCfer3RtUNSvsWGVomT76SdSUrNH2bG1ZoxSGo656ciGmZ8WzEdh5r","DdzFFzCqrhsyQKWQkyqoRZr4qw95VeThLrr1XzFeydqY2T24rnjiiq6nR8vGpqep8i56s3JAeaYmjF2M1PXPXhWzCVPVFLUYUD4LR9x8","DdzFFzCqrhsg7CKxJZBHByipRGRP2ubuYwBV7gLU2EaByssqn95ufXhqEhfSmAceFyPLTQYmJH1w9JNEqsvFPT2B4XXtPDwAmtpAbXUB","DdzFFzCqrht2UfbayiLLp3kXBvFS2FYztwkrsDKpFH1ti2yS6MLCfer3RtUNSvsWGVomT76SdSUrNH2bG1ZoxSGo656ciGmZ8WzEdh5r","DdzFFzCqrhsqDyJVsZc6cCYeX9juYhbxyjTUaCHA7Jhp7xwdGpKPLuxNi9L6YaNemZhF54bQERu6gxffnaPc1HQarcj8YVnYHtcU7dQw","DdzFFzCqrhsk1E1piewjHkSh69Cn4ocnmHuH27LbXuM48tdYBru3WWBYswP5QUgLFHcSm5wspAmdnADPA86iZhLzawx6zVFs7LjaVbSi","DdzFFzCqrht7uTipJzs1N2DaLGLkuA7CMkfNJ7LLX4bxNtJRd9mPmdwgRpu9bQaaECSb7ASBytxKXvf2x2mvVMiEKrHKpHhRWemhQQ7H","DdzFFzCqrhsdzK42MpiYLrWq4RcVTktQvBLy44xqqfUNDCQmY5mdyZ4Rrk9mb41wQD84G41uUWBfdgN6cEN692v4xFfKn2UNqejQ5Ur1"],"addressesOutput":["addr1q9atjfpqwdtg7ytz0pz9zcaqvx8zr2uv6ysvc4csqynr683dzefudzxhadht99nh8gv4l3z93d486ygllgxuh2drrrpsdw6fws","DdzFFzCqrhssmpSXUtRy9NFatrFkcNtrjDEBnV3Nh55kRS2KpzoPmBgfSxniLNZioYtWTndCFizntgHNnm422cCuvg5cWuYx2k3o94Kb","DdzFFzCqrht5fpPiHtMNEKfQ43pkRabGpCgi7SKvBrGi6UzcfXwwaDZLPRoDpaK9K2XKXX5cUSiFdCCybP1xMDAt3Myr5LDdTe2sLzpj","DdzFFzCqrhsrDrX26Kn9xFWF4Z9ArcLoSkoMrDaJe34GGXnQxWwmy4ESDHWXEq8rwtC5PbCeMtZeE9NKoktdohyTVHuKVeETAmJJyQku","DdzFFzCqrht2LzE2x5BFmLJSZSYN5W5SGNMgKngpFQKzcTpukvZD7TxYN1WsETqkTwAjRqueHNUTnnoTXZtRcRXvDDdQ27noAC5i1djk"],"fee":1028957,"totalOutput":54953394631,"tokens":[]},{"hash":"0ea1f6ca963809478de59925438af2bd04a5e05b973a8570f3a782eb2104f532","blockNo":8257737,"blockHash":"a514f0f27e3cb822dfd6ca8b7fe977987fd399cd7bae083cde57b20aafe89bf3","epochNo":387,"epochSlotNo":82786,"slot":81903586,"time":"2023/01/11 20:44:37","addressesInput":["addr1qxvfczek4uzgsdd4trqg6qu62r8ms2akfcm78km53hku6jycns9ndtcy3q6m2kxq35pe55x0hq4mvn3hu0dhfr0de4yq577lxc","addr1qxvfczek4uzgsdd4trqg6qu62r8ms2akfcm78km53hku6jycns9ndtcy3q6m2kxq35pe55x0hq4mvn3hu0dhfr0de4yq577lxc"],"addressesOutput":["addr1qxvfczek4uzgsdd4trqg6qu62r8ms2akfcm78km53hku6jycns9ndtcy3q6m2kxq35pe55x0hq4mvn3hu0dhfr0de4yq577lxc","addr1qxvfczek4uzgsdd4trqg6qu62r8ms2akfcm78km53hku6jycns9ndtcy3q6m2kxq35pe55x0hq4mvn3hu0dhfr0de4yq577lxc"],"fee":237985,"totalOutput":2171842158958,"tokens":[]},{"hash":"7637a36c0be55677dec0fe936d39fd6061b9c5c6ae7058eb6aaec2ede4e4d005","blockNo":8257629,"blockHash":"a0e616a073601f1919bf8427a3f885fdaed022453e9acfc941026567f133d8f2","epochNo":387,"epochSlotNo":80711,"slot":81901511,"time":"2023/01/11 20:10:02","addressesInput":["DdzFFzCqrhsixczHrcPjd5MbNmcj4yW8oz5cawjQ6CFXVZvucJEnu5h148dmw2ivNytSU5DSvVoA2iCPaj8aNunNwo2vn2X2F2QAszYh","DdzFFzCqrhskQYejtDmW1kY9UDZ3CLw1L1CXSznRrtgfHoXjCtvHTtMBfrBE5tcSCo4euK4vN2KdNR6BRid9jh2ppUi1h34aVQw1BiK3","DdzFFzCqrhtBEExUQmvLMLjv4pnbhPZVT2CACPLG44jfXmcciQRgh9vt93H9WMqXMh9VCnCeMrdGN8ebygEzS2WHYBkvyb2H8nyZz4gg","DdzFFzCqrhsjPM8BKi6i9wG5hZe1MudiC1MKFDjUZnfnHb59gQhbRZ6rWnyMcvyY32XE83RBNdPhWHcNTegRaYEfnFvEsZiJpFC3zTfm","DdzFFzCqrhspV2rFTKfQDHwCH5RMXzNn3FwfY4xx4C1GYHkhMhUpv82LEvENhJigCrZTdFukqPywTtLaAjA1tzEWCwMJKhBwsBSCCnMq","DdzFFzCqrhshgKcNDMXGkjmArEcfevcXwsiTAQ5h7qSHULv74J4dHqxrLTj8P7nrnroFs1x9Hi3iUgtEqG4nM7jjMu5TKi3BoKgEkoay","DdzFFzCqrhtBaB8AXMe5nzxuHUh9qxCVQphcgzrRutT4qRWXM8DwfjJkUZ9Eadz1QaPwPSL2th9ms2xzFS2qxU1dAKEuC7ma91VCy3rQ"],"addressesOutput":["addr1q9atjfpqwdtg7ytz0pz9zcaqvx8zr2uv6ysvc4csqynr683dzefudzxhadht99nh8gv4l3z93d486ygllgxuh2drrrpsdw6fws","DdzFFzCqrhsqDyJVsZc6cCYeX9juYhbxyjTUaCHA7Jhp7xwdGpKPLuxNi9L6YaNemZhF54bQERu6gxffnaPc1HQarcj8YVnYHtcU7dQw","DdzFFzCqrhsvfJ1Vq1NRE9zsFuYZnkJ9mbAfsfMXzjkpL5hSqMz8LAsQ3c7e5siemhWKPuznEq3amrwP3uP7WythWDp4noLdxZf4T5ES","DdzFFzCqrhsuN2cyrcdKV393VeXbWmm8Zx8ACXPwiFfEPEm3zb6gkcR89TcNKVQFC7xZT3RrEjcLXaXayhTAu2wnytkbAiWCmagK1jRg","DdzFFzCqrhsqWEbPceNTQS3ckDH7ryejTLhm4PV3oWWnmyyoN7yu1r8HkZ9SgbzUTdHR4YSEeYnkBLSCfDxvnb5M7U15brAhxETz242j"],"fee":970877,"totalOutput":51303170929,"tokens":[]},{"hash":"4cbf800abf7cde4b3855b274f81609322ad0b9bd09ce8e4b53dc1d2d68ad0d65","blockNo":8257464,"blockHash":"a89963a87183b4f2a69c91cc1dc75edf6f3896da5ce94df53fe76dc06c677101","epochNo":387,"epochSlotNo":76826,"slot":81897626,"time":"2023/01/11 19:05:17","addressesInput":["DdzFFzCqrht6hNHm3TqKc7CoYBcsphSxWDfD5ZYwCdXdCGcAEmJq5gpieDHT82hwCubESQzo1xRzbdNZSZxXa69sXNyvkqLdBGpEZ4ju","DdzFFzCqrhsk1E1piewjHkSh69Cn4ocnmHuH27LbXuM48tdYBru3WWBYswP5QUgLFHcSm5wspAmdnADPA86iZhLzawx6zVFs7LjaVbSi","DdzFFzCqrhsrmUqube9nT9CCEfFcyqmqmAKRA6CLPWrvRFaWwvnTpz3xEmbZCV7WQ43tJotyNno8dSDRv6n9eaKcwBM7BJ7g1fCMQLmu","DdzFFzCqrhsrmUqube9nT9CCEfFcyqmqmAKRA6CLPWrvRFaWwvnTpz3xEmbZCV7WQ43tJotyNno8dSDRv6n9eaKcwBM7BJ7g1fCMQLmu","DdzFFzCqrhsvxa4noszGY1b9bFpi9G8yFtgQKHBExua4ZNSGthdR5ibbcecCcdYdpB8WH9cuGc3XuUHVpX7pJFm4SYnxHxNSTbS1rHwq","DdzFFzCqrhsjPM8BKi6i9wG5hZe1MudiC1MKFDjUZnfnHb59gQhbRZ6rWnyMcvyY32XE83RBNdPhWHcNTegRaYEfnFvEsZiJpFC3zTfm"],"addressesOutput":["addr1q9atjfpqwdtg7ytz0pz9zcaqvx8zr2uv6ysvc4csqynr683dzefudzxhadht99nh8gv4l3z93d486ygllgxuh2drrrpsdw6fws","DdzFFzCqrhskQYejtDmW1kY9UDZ3CLw1L1CXSznRrtgfHoXjCtvHTtMBfrBE5tcSCo4euK4vN2KdNR6BRid9jh2ppUi1h34aVQw1BiK3"],"fee":410801,"totalOutput":290428921,"tokens":[]},{"hash":"2a8868afebd2dec01cfc346835f3c9595fcfa4ab4d41795c919426af8248b5d9","blockNo":8257424,"blockHash":"2e2aeff90e9c85f5c661e0c051c808f23a1e79383d0fad705d97b8f03b36b878","epochNo":387,"epochSlotNo":75973,"slot":81896773,"time":"2023/01/11 18:51:04","addressesInput":["addr1q9vj9w32w77p47ca725hantcf5nrzcex66vqq58kqm4l04y6hn99676mvdj6qvd34vfqh3jx6vy8tyfkuy6u3xcghq8sex2gzq","addr1q9vj9w32w77p47ca725hantcf5nrzcex66vqq58kqm4l04y6hn99676mvdj6qvd34vfqh3jx6vy8tyfkuy6u3xcghq8sex2gzq"],"addressesOutput":["addr1zxgx3far7qygq0k6epa0zcvcvrevmn0ypsnfsue94nsn3tvpw288a4x0xf8pxgcntelxmyclq83s0ykeehchz2wtspks905plm","addr1q9vj9w32w77p47ca725hantcf5nrzcex66vqq58kqm4l04y6hn99676mvdj6qvd34vfqh3jx6vy8tyfkuy6u3xcghq8sex2gzq","addr1q9vj9w32w77p47ca725hantcf5nrzcex66vqq58kqm4l04y6hn99676mvdj6qvd34vfqh3jx6vy8tyfkuy6u3xcghq8sex2gzq","addr1q9vj9w32w77p47ca725hantcf5nrzcex66vqq58kqm4l04y6hn99676mvdj6qvd34vfqh3jx6vy8tyfkuy6u3xcghq8sex2gzq","addr1q9vj9w32w77p47ca725hantcf5nrzcex66vqq58kqm4l04y6hn99676mvdj6qvd34vfqh3jx6vy8tyfkuy6u3xcghq8sex2gzq"],"fee":311273,"totalOutput":170231485,"tokens":[]},{"hash":"8dcfdd0496b4aa8f2a089ba18e2fde38964ff61f0e5ab79fbab2ea5a7241c594","blockNo":8257402,"blockHash":"6091d227cd9c9ca2fe1d8533ba85aa39fdaebccb1c7bf99beffd1fb113d8db9e","epochNo":387,"epochSlotNo":75644,"slot":81896444,"time":"2023/01/11 18:45:35","addressesInput":["addr1q8tr4y9p7n04ufvd85659haq0zan3uxn64zncjgmx8qt8dcwmcnnhwnehu25w9gas9273cg2p4jppvtja838qpmfauvqnu5az7","addr1q8tr4y9p7n04ufvd85659haq0zan3uxn64zncjgmx8qt8dcwmcnnhwnehu25w9gas9273cg2p4jppvtja838qpmfauvqnu5az7","addr1q8tr4y9p7n04ufvd85659haq0zan3uxn64zncjgmx8qt8dcwmcnnhwnehu25w9gas9273cg2p4jppvtja838qpmfauvqnu5az7","addr1q8tr4y9p7n04ufvd85659haq0zan3uxn64zncjgmx8qt8dcwmcnnhwnehu25w9gas9273cg2p4jppvtja838qpmfauvqnu5az7"],"addressesOutput":["addr1q87a53nwllync9g5umqs8wf060jm9mjvjdapynalnchskehuhaqyyurk33f80pqdk7yysx52sf8w7qfxxafx27lqq44sp4q5xh","addr1q8tr4y9p7n04ufvd85659haq0zan3uxn64zncjgmx8qt8dcwmcnnhwnehu25w9gas9273cg2p4jppvtja838qpmfauvqnu5az7"],"fee":352105,"totalOutput":60271379,"tokens":[]},{"hash":"0d90a3c0e2ce047855dcd507060407ad09d03559c80f21f70b217e88612426d1","blockNo":8257356,"blockHash":"35312f64ec388a80d8190a3366fefd6d75e8fa08b34ec0ddd8ff7e9e01e8300b","epochNo":387,"epochSlotNo":74650,"slot":81895450,"time":"2023/01/11 18:29:01","addressesInput":["addr1q8tr4y9p7n04ufvd85659haq0zan3uxn64zncjgmx8qt8dcwmcnnhwnehu25w9gas9273cg2p4jppvtja838qpmfauvqnu5az7","addr1q8tr4y9p7n04ufvd85659haq0zan3uxn64zncjgmx8qt8dcwmcnnhwnehu25w9gas9273cg2p4jppvtja838qpmfauvqnu5az7","addr1q8tr4y9p7n04ufvd85659haq0zan3uxn64zncjgmx8qt8dcwmcnnhwnehu25w9gas9273cg2p4jppvtja838qpmfauvqnu5az7"],"addressesOutput":["addr1vyx5t4h63wvlq8ftqrptfwfeku47872j9g9chx3v4vl35rggnp372","addr1q8tr4y9p7n04ufvd85659haq0zan3uxn64zncjgmx8qt8dcwmcnnhwnehu25w9gas9273cg2p4jppvtja838qpmfauvqnu5az7"],"fee":349289,"totalOutput":72623484,"tokens":[]},{"hash":"1962c3733ea5260429ae20ef807114ef3072dcc05c318d9279074a15d5d27b20","blockNo":8257026,"blockHash":"9ffeed714d5d7604bb62aa1cba873d269a5db0bc1f34a797a33f0c7c7acc97d8","epochNo":387,"epochSlotNo":67651,"slot":81888451,"time":"2023/01/11 16:32:22","addressesInput":["addr1qy0xznhgdhqj9u4g6jjdntf2cxy5lyad8j2p6a6dp8jwwttfq4uncdzu6hqlxn7gva2xsaln40x226fl8fsnqyyvzxtqqm3qw9","addr1zxgx3far7qygq0k6epa0zcvcvrevmn0ypsnfsue94nsn3tvpw288a4x0xf8pxgcntelxmyclq83s0ykeehchz2wtspks905plm","addr1qy0xznhgdhqj9u4g6jjdntf2cxy5lyad8j2p6a6dp8jwwttfq4uncdzu6hqlxn7gva2xsaln40x226fl8fsnqyyvzxtqqm3qw9"],"addressesOutput":["addr1zxgx3far7qygq0k6epa0zcvcvrevmn0ypsnfsue94nsn3tvpw288a4x0xf8pxgcntelxmyclq83s0ykeehchz2wtspks905plm","addr1qy0xznhgdhqj9u4g6jjdntf2cxy5lyad8j2p6a6dp8jwwttfq4uncdzu6hqlxn7gva2xsaln40x226fl8fsnqyyvzxtqqm3qw9","addr1qy0xznhgdhqj9u4g6jjdntf2cxy5lyad8j2p6a6dp8jwwttfq4uncdzu6hqlxn7gva2xsaln40x226fl8fsnqyyvzxtqqm3qw9"],"fee":433232,"totalOutput":9967187,"tokens":[]},{"hash":"e2737a5b1428d58f1284bb91a43874b8c3b49ff2b2d4645f18ba4036ab5216ba","blockNo":8257022,"blockHash":"242f4cd92cb16b00ba0596fba890673deee747299fe4182ce72b382749fe4f0f","epochNo":387,"epochSlotNo":67560,"slot":81888360,"time":"2023/01/11 16:30:51","addressesInput":["addr1qy0xznhgdhqj9u4g6jjdntf2cxy5lyad8j2p6a6dp8jwwttfq4uncdzu6hqlxn7gva2xsaln40x226fl8fsnqyyvzxtqqm3qw9","addr1zxgx3far7qygq0k6epa0zcvcvrevmn0ypsnfsue94nsn3tvpw288a4x0xf8pxgcntelxmyclq83s0ykeehchz2wtspks905plm","addr1qy0xznhgdhqj9u4g6jjdntf2cxy5lyad8j2p6a6dp8jwwttfq4uncdzu6hqlxn7gva2xsaln40x226fl8fsnqyyvzxtqqm3qw9"],"addressesOutput":["addr1zxgx3far7qygq0k6epa0zcvcvrevmn0ypsnfsue94nsn3tvpw288a4x0xf8pxgcntelxmyclq83s0ykeehchz2wtspks905plm","addr1qy0xznhgdhqj9u4g6jjdntf2cxy5lyad8j2p6a6dp8jwwttfq4uncdzu6hqlxn7gva2xsaln40x226fl8fsnqyyvzxtqqm3qw9","addr1qy0xznhgdhqj9u4g6jjdntf2cxy5lyad8j2p6a6dp8jwwttfq4uncdzu6hqlxn7gva2xsaln40x226fl8fsnqyyvzxtqqm3qw9"],"fee":432542,"totalOutput":10716365,"tokens":[]},{"hash":"d983c36d8c3d334240270783c0333873ea809d865e11dae4e4af18e5e127d3ff","blockNo":8257004,"blockHash":"9d9adc326a622a70c2977c8f5d97ae60640164cde22d02ea080fb8bbd5654ea9","epochNo":387,"epochSlotNo":67139,"slot":81887939,"time":"2023/01/11 16:23:50","addressesInput":["addr1qy0xznhgdhqj9u4g6jjdntf2cxy5lyad8j2p6a6dp8jwwttfq4uncdzu6hqlxn7gva2xsaln40x226fl8fsnqyyvzxtqqm3qw9","addr1qy0xznhgdhqj9u4g6jjdntf2cxy5lyad8j2p6a6dp8jwwttfq4uncdzu6hqlxn7gva2xsaln40x226fl8fsnqyyvzxtqqm3qw9","addr1qy0xznhgdhqj9u4g6jjdntf2cxy5lyad8j2p6a6dp8jwwttfq4uncdzu6hqlxn7gva2xsaln40x226fl8fsnqyyvzxtqqm3qw9"],"addressesOutput":["addr1qxh82p5jjfxzzrxdafvwlpd78crvq67lnz8yt5sdwdvsnvmptzp7uemy34mcltku4dl69fqc3edzxyqqwt4469pm9weq50gtvp","addr1qy0xznhgdhqj9u4g6jjdntf2cxy5lyad8j2p6a6dp8jwwttfq4uncdzu6hqlxn7gva2xsaln40x226fl8fsnqyyvzxtqqm3qw9","addr1qy0xznhgdhqj9u4g6jjdntf2cxy5lyad8j2p6a6dp8jwwttfq4uncdzu6hqlxn7gva2xsaln40x226fl8fsnqyyvzxtqqm3qw9"],"fee":222701,"totalOutput":28834357,"tokens":[]},{"hash":"57bf4c4aef8780b4b3a7af75ab7808e8451c58c809bf6bb069dcf941d779f495","blockNo":8256940,"blockHash":"4ce3b30ac5e9c944fbf23181b5b283ddfe95d5219c5d0e4d7321c5f2bd30bb06","epochNo":387,"epochSlotNo":66062,"slot":81886862,"time":"2023/01/11 16:05:53","addressesInput":["addr1q9vj9w32w77p47ca725hantcf5nrzcex66vqq58kqm4l04y6hn99676mvdj6qvd34vfqh3jx6vy8tyfkuy6u3xcghq8sex2gzq","addr1q9vj9w32w77p47ca725hantcf5nrzcex66vqq58kqm4l04y6hn99676mvdj6qvd34vfqh3jx6vy8tyfkuy6u3xcghq8sex2gzq"],"addressesOutput":["addr1zxgx3far7qygq0k6epa0zcvcvrevmn0ypsnfsue94nsn3tvpw288a4x0xf8pxgcntelxmyclq83s0ykeehchz2wtspks905plm","addr1q9vj9w32w77p47ca725hantcf5nrzcex66vqq58kqm4l04y6hn99676mvdj6qvd34vfqh3jx6vy8tyfkuy6u3xcghq8sex2gzq"],"fee":300493,"totalOutput":10334245,"tokens":[]},{"hash":"705130b082e0cfda4618826c4e8ec92e2ca97daf14271aeb6b4d717abce3907e","blockNo":8256927,"blockHash":"bcce7790f741d714e8c03f5614690a2a40174c9a4deffe05f2abf8a8c40a3e8b","epochNo":387,"epochSlotNo":65856,"slot":81886656,"time":"2023/01/11 16:02:27","addressesInput":["addr1q9vj9w32w77p47ca725hantcf5nrzcex66vqq58kqm4l04y6hn99676mvdj6qvd34vfqh3jx6vy8tyfkuy6u3xcghq8sex2gzq","addr1q9vj9w32w77p47ca725hantcf5nrzcex66vqq58kqm4l04y6hn99676mvdj6qvd34vfqh3jx6vy8tyfkuy6u3xcghq8sex2gzq"],"addressesOutput":["addr1zxgx3far7qygq0k6epa0zcvcvrevmn0ypsnfsue94nsn3tvpw288a4x0xf8pxgcntelxmyclq83s0ykeehchz2wtspks905plm","addr1q9vj9w32w77p47ca725hantcf5nrzcex66vqq58kqm4l04y6hn99676mvdj6qvd34vfqh3jx6vy8tyfkuy6u3xcghq8sex2gzq","addr1q9vj9w32w77p47ca725hantcf5nrzcex66vqq58kqm4l04y6hn99676mvdj6qvd34vfqh3jx6vy8tyfkuy6u3xcghq8sex2gzq"],"fee":304013,"totalOutput":11957908,"tokens":[]},{"hash":"b1fb8ed2169d0b4ec90cd079f041f2361653005034cfdd6e27898328631a7981","blockNo":8256922,"blockHash":"c5aa40d8c928107d620a47f7efcedad62238aff4cb87d04c3507268d1d9621fe","epochNo":387,"epochSlotNo":65736,"slot":81886536,"time":"2023/01/11 16:00:27","addressesInput":["addr1q9vj9w32w77p47ca725hantcf5nrzcex66vqq58kqm4l04y6hn99676mvdj6qvd34vfqh3jx6vy8tyfkuy6u3xcghq8sex2gzq","addr1zxgx3far7qygq0k6epa0zcvcvrevmn0ypsnfsue94nsn3tvpw288a4x0xf8pxgcntelxmyclq83s0ykeehchz2wtspks905plm","addr1q9vj9w32w77p47ca725hantcf5nrzcex66vqq58kqm4l04y6hn99676mvdj6qvd34vfqh3jx6vy8tyfkuy6u3xcghq8sex2gzq"],"addressesOutput":["addr1zxgx3far7qygq0k6epa0zcvcvrevmn0ypsnfsue94nsn3tvpw288a4x0xf8pxgcntelxmyclq83s0ykeehchz2wtspks905plm","addr1q9vj9w32w77p47ca725hantcf5nrzcex66vqq58kqm4l04y6hn99676mvdj6qvd34vfqh3jx6vy8tyfkuy6u3xcghq8sex2gzq","addr1q9vj9w32w77p47ca725hantcf5nrzcex66vqq58kqm4l04y6hn99676mvdj6qvd34vfqh3jx6vy8tyfkuy6u3xcghq8sex2gzq"],"fee":497217,"totalOutput":13580781,"tokens":[]},{"hash":"6bbd13ed826a54ce0b6fd269ffd8bef7a944e844be9629300832f2635922b1a5","blockNo":8256920,"blockHash":"b4fc360eceb286d20a0dcd03c7989453de1896af361a2a680834914bb2816bf4","epochNo":387,"epochSlotNo":65685,"slot":81886485,"time":"2023/01/11 15:59:36","addressesInput":["addr1q9vj9w32w77p47ca725hantcf5nrzcex66vqq58kqm4l04y6hn99676mvdj6qvd34vfqh3jx6vy8tyfkuy6u3xcghq8sex2gzq","addr1q9vj9w32w77p47ca725hantcf5nrzcex66vqq58kqm4l04y6hn99676mvdj6qvd34vfqh3jx6vy8tyfkuy6u3xcghq8sex2gzq","addr1q9vj9w32w77p47ca725hantcf5nrzcex66vqq58kqm4l04y6hn99676mvdj6qvd34vfqh3jx6vy8tyfkuy6u3xcghq8sex2gzq"],"addressesOutput":["addr1zxgx3far7qygq0k6epa0zcvcvrevmn0ypsnfsue94nsn3tvpw288a4x0xf8pxgcntelxmyclq83s0ykeehchz2wtspks905plm","addr1q9vj9w32w77p47ca725hantcf5nrzcex66vqq58kqm4l04y6hn99676mvdj6qvd34vfqh3jx6vy8tyfkuy6u3xcghq8sex2gzq","addr1q9vj9w32w77p47ca725hantcf5nrzcex66vqq58kqm4l04y6hn99676mvdj6qvd34vfqh3jx6vy8tyfkuy6u3xcghq8sex2gzq"],"fee":306037,"totalOutput":14060758,"tokens":[]},{"hash":"4e35f1c5a6112e9937bd38b1d1a162af58cf57f973a655b75253fcee25d90ef2","blockNo":8256793,"blockHash":"509bb7e7d7efae3246b8bba536e6853564bd153f2187ec770ab2abffcc58b7f7","epochNo":387,"epochSlotNo":62985,"slot":81883785,"time":"2023/01/11 15:14:36","addressesInput":["addr1q82hk36g35gdamvak08ctn8kdqn4qwvjt2q034tscekwrgprlkahfsmech9j9n9vflajrw0e46rv4lmv3a55e8x4a4ss8c6qe7","addr1q82hk36g35gdamvak08ctn8kdqn4qwvjt2q034tscekwrgprlkahfsmech9j9n9vflajrw0e46rv4lmv3a55e8x4a4ss8c6qe7","addr1q82hk36g35gdamvak08ctn8kdqn4qwvjt2q034tscekwrgprlkahfsmech9j9n9vflajrw0e46rv4lmv3a55e8x4a4ss8c6qe7","addr1q82hk36g35gdamvak08ctn8kdqn4qwvjt2q034tscekwrgprlkahfsmech9j9n9vflajrw0e46rv4lmv3a55e8x4a4ss8c6qe7","addr1q82hk36g35gdamvak08ctn8kdqn4qwvjt2q034tscekwrgprlkahfsmech9j9n9vflajrw0e46rv4lmv3a55e8x4a4ss8c6qe7","addr1q82hk36g35gdamvak08ctn8kdqn4qwvjt2q034tscekwrgprlkahfsmech9j9n9vflajrw0e46rv4lmv3a55e8x4a4ss8c6qe7","addr1q82hk36g35gdamvak08ctn8kdqn4qwvjt2q034tscekwrgprlkahfsmech9j9n9vflajrw0e46rv4lmv3a55e8x4a4ss8c6qe7"],"addressesOutput":["DdzFFzCqrht3UUFGcgnnVg8ph65gA2ZSb7VU4GWfpU9AzFXhTNr4aK8LSYXe8hL8CktvyKsk8p46q3airRobU6LZ1EUPW66U5Z5Xtkxa","addr1q82hk36g35gdamvak08ctn8kdqn4qwvjt2q034tscekwrgprlkahfsmech9j9n9vflajrw0e46rv4lmv3a55e8x4a4ss8c6qe7","addr1q82hk36g35gdamvak08ctn8kdqn4qwvjt2q034tscekwrgprlkahfsmech9j9n9vflajrw0e46rv4lmv3a55e8x4a4ss8c6qe7"],"fee":315893,"totalOutput":402689683,"tokens":[]},{"hash":"05d319529ba4a35ea6251529dc11c6997329fd1ba69b3926fd13d1e0e910a380","blockNo":8256659,"blockHash":"033aa1028f9401cfe7259784c74bd097b7e0b7a8f099511043c1e7c51626da4d","epochNo":387,"epochSlotNo":60089,"slot":81880889,"time":"2023/01/11 14:26:20","addressesInput":["addr1qxys73l3hryn8fc2ph0vpq0d202spw33tadhycczsywtvtv3628la2lcg3lqy85p5je4yrgza2kr0aus4sszeqxaudus7n9958","addr1qxys73l3hryn8fc2ph0vpq0d202spw33tadhycczsywtvtv3628la2lcg3lqy85p5je4yrgza2kr0aus4sszeqxaudus7n9958","addr1qxys73l3hryn8fc2ph0vpq0d202spw33tadhycczsywtvtv3628la2lcg3lqy85p5je4yrgza2kr0aus4sszeqxaudus7n9958","addr1qxys73l3hryn8fc2ph0vpq0d202spw33tadhycczsywtvtv3628la2lcg3lqy85p5je4yrgza2kr0aus4sszeqxaudus7n9958","addr1qxys73l3hryn8fc2ph0vpq0d202spw33tadhycczsywtvtv3628la2lcg3lqy85p5je4yrgza2kr0aus4sszeqxaudus7n9958"],"addressesOutput":["addr1q9ad5mud938r7l24eaac4v57ydlj72hazgprts9f7daaz09mm95jvs5h94099yglxr7v6ug6pp43780huy040lm4utmqx8g5eu","addr1wxn9efv2f6w82hagxqtn62ju4m293tqvw0uhmdl64ch8uwc0h43gt","addr1qxys73l3hryn8fc2ph0vpq0d202spw33tadhycczsywtvtv3628la2lcg3lqy85p5je4yrgza2kr0aus4sszeqxaudus7n9958","addr1qxys73l3hryn8fc2ph0vpq0d202spw33tadhycczsywtvtv3628la2lcg3lqy85p5je4yrgza2kr0aus4sszeqxaudus7n9958"],"fee":506454,"totalOutput":341252932,"tokens":[]},{"hash":"882691b18b1532d77cadcc5cf2526214ad9fccb357913f0261ce8de9c20eb9e4","blockNo":8256642,"blockHash":"e2e827143a67b394b2c1b209e46443807d49967a81dd7a9620925c29f71287b9","epochNo":387,"epochSlotNo":59699,"slot":81880499,"time":"2023/01/11 14:19:50","addressesInput":["DdzFFzCqrhsen4iYwXKS2ZZZHW9U6HPJhGtSC59WqEg6ysnA42YcV6CXDYTQ8htFuAHe5RBEE3pa6YCqA1ntQpeDWhUDqGioc8aavsDK","DdzFFzCqrhtBUEBwMNd4pqpbDh7FhNcTeezxB7MMwFoCdqWfVTyGntEHSpEwrS89uZi9r71qc2r6xPGQvSFfJVbfTEHsLBZEefmMmAjT","DdzFFzCqrhsxQ7WVkBMKW3EeeCxtjQgK9jvaPeRoQapeTbu4ocSgmA8t2qhbmHWdwwrfXTsjTJ3yju3aSySEYVWswZ4u7ZnRD3nXTiYQ","DdzFFzCqrhtBCjPW9wzaAhTHshtmnwYKDynwe97hDYpDMpBHB4uDzQgTgB7AfAzGXGuruxvycQ4daj9mQ4e3d5FvPpLcuReVcNEytGL4","DdzFFzCqrht8kMcAeHUumf8FZgb7xiSaBuCyjKEMCrbkepvUYT2HAjw5dq6BfwiVujAyusRnGcJeo1kGvv1KiFFvmS6MDmahAwTfM9Gz","DdzFFzCqrhsfYAQUEXaRoe4La3RqL4BaVqkCfkS52S7FPvB3P9ccLx58eFTeB8kdRFL2Zcyi41KdeDAjsytPQYir7iQYZ52V4FRvUbh3","DdzFFzCqrhsxz1Db6UVGZ2NiLdFjjvPFFftnZHoYx4mgtb4N2Num2UVSr8igvwZrTTePntde69s77FumjrWnrpnpBLeVLv6QdDkRoPfd","DdzFFzCqrhsuynpidEGzLiwzmjnRrWm9pfDHBKqPHkmArGbQ68pdbErj2eCVr5j1QKpEh26WEFjDo2RbdNqLkrdqQj13uYTgGFAxkEt9","DdzFFzCqrhsdzK42MpiYLrWq4RcVTktQvBLy44xqqfUNDCQmY5mdyZ4Rrk9mb41wQD84G41uUWBfdgN6cEN692v4xFfKn2UNqejQ5Ur1","DdzFFzCqrhsdzK42MpiYLrWq4RcVTktQvBLy44xqqfUNDCQmY5mdyZ4Rrk9mb41wQD84G41uUWBfdgN6cEN692v4xFfKn2UNqejQ5Ur1","DdzFFzCqrhsdzK42MpiYLrWq4RcVTktQvBLy44xqqfUNDCQmY5mdyZ4Rrk9mb41wQD84G41uUWBfdgN6cEN692v4xFfKn2UNqejQ5Ur1","DdzFFzCqrhsiZH3EjJgXUGMkQ9SFQoE6wtNBLfwmE4dahrf5i2pGdXNCjtXoZo3SHJpCmQePS5vBu4RyAoCLgMAaKNnbYqijLFDGT6az","DdzFFzCqrhskoBaGukKGzrp1wcUcnygCQrhmfXNg3HWXxSG1XcmjspqgEimkF4xC9FucxKVzaJ98yPyi5PsJ9x2B4YJcdHQu5bdT88a5","DdzFFzCqrhsdzK42MpiYLrWq4RcVTktQvBLy44xqqfUNDCQmY5mdyZ4Rrk9mb41wQD84G41uUWBfdgN6cEN692v4xFfKn2UNqejQ5Ur1"],"addressesOutput":["addr1q9atjfpqwdtg7ytz0pz9zcaqvx8zr2uv6ysvc4csqynr683dzefudzxhadht99nh8gv4l3z93d486ygllgxuh2drrrpsdw6fws","DdzFFzCqrhsvxa4noszGY1b9bFpi9G8yFtgQKHBExua4ZNSGthdR5ibbcecCcdYdpB8WH9cuGc3XuUHVpX7pJFm4SYnxHxNSTbS1rHwq","DdzFFzCqrhtBEExUQmvLMLjv4pnbhPZVT2CACPLG44jfXmcciQRgh9vt93H9WMqXMh9VCnCeMrdGN8ebygEzS2WHYBkvyb2H8nyZz4gg","DdzFFzCqrhsixczHrcPjd5MbNmcj4yW8oz5cawjQ6CFXVZvucJEnu5h148dmw2ivNytSU5DSvVoA2iCPaj8aNunNwo2vn2X2F2QAszYh","DdzFFzCqrhseB97DXYTExp9DKwzr2pfPj4LN6GQmsggSR5SAkcygGd1AFu6f2gd2yr9aWXaJP7Mx3MMwzBd4NokNPuMpGLipE3XT1f2G"],"fee":1038637,"totalOutput":51141001966,"tokens":[]},{"hash":"31d31b78cf264f46f11cbaf55ec7fff5338d412bacbee59a58b8c7d25e172eff","blockNo":8256631,"blockHash":"67a4bcd0cf259de84b200aca5ac2e8d6f02788d2bdcbcac6cc85cf8d2549b471","epochNo":387,"epochSlotNo":59485,"slot":81880285,"time":"2023/01/11 14:16:16","addressesInput":["addr1qxys73l3hryn8fc2ph0vpq0d202spw33tadhycczsywtvtv3628la2lcg3lqy85p5je4yrgza2kr0aus4sszeqxaudus7n9958","addr1qxys73l3hryn8fc2ph0vpq0d202spw33tadhycczsywtvtv3628la2lcg3lqy85p5je4yrgza2kr0aus4sszeqxaudus7n9958","addr1qxys73l3hryn8fc2ph0vpq0d202spw33tadhycczsywtvtv3628la2lcg3lqy85p5je4yrgza2kr0aus4sszeqxaudus7n9958","addr1qxys73l3hryn8fc2ph0vpq0d202spw33tadhycczsywtvtv3628la2lcg3lqy85p5je4yrgza2kr0aus4sszeqxaudus7n9958","addr1qxys73l3hryn8fc2ph0vpq0d202spw33tadhycczsywtvtv3628la2lcg3lqy85p5je4yrgza2kr0aus4sszeqxaudus7n9958"],"addressesOutput":["addr1wxaptpmxcxawvr3pzlhgnpmzz3ql43n2tc8mn3av5kx0yzs09tqh8","addr1qxys73l3hryn8fc2ph0vpq0d202spw33tadhycczsywtvtv3628la2lcg3lqy85p5je4yrgza2kr0aus4sszeqxaudus7n9958","addr1qxys73l3hryn8fc2ph0vpq0d202spw33tadhycczsywtvtv3628la2lcg3lqy85p5je4yrgza2kr0aus4sszeqxaudus7n9958"],"fee":424438,"totalOutput":476156788,"tokens":[]},{"hash":"f5668f9a26369e066ffce7606300309d1a38a1f8edbcdd09a34df6a331252e25","blockNo":8256623,"blockHash":"7484fea7b06186e08e58ce98da3cebf914a98e9f767b2780b883d768723e040d","epochNo":387,"epochSlotNo":59172,"slot":81879972,"time":"2023/01/11 14:11:03","addressesInput":["addr1qxys73l3hryn8fc2ph0vpq0d202spw33tadhycczsywtvtv3628la2lcg3lqy85p5je4yrgza2kr0aus4sszeqxaudus7n9958","addr1qxys73l3hryn8fc2ph0vpq0d202spw33tadhycczsywtvtv3628la2lcg3lqy85p5je4yrgza2kr0aus4sszeqxaudus7n9958"],"addressesOutput":["addr1q9ad5mud938r7l24eaac4v57ydlj72hazgprts9f7daaz09mm95jvs5h94099yglxr7v6ug6pp43780huy040lm4utmqx8g5eu","addr1wxn9efv2f6w82hagxqtn62ju4m293tqvw0uhmdl64ch8uwc0h43gt","addr1qxys73l3hryn8fc2ph0vpq0d202spw33tadhycczsywtvtv3628la2lcg3lqy85p5je4yrgza2kr0aus4sszeqxaudus7n9958","addr1qxys73l3hryn8fc2ph0vpq0d202spw33tadhycczsywtvtv3628la2lcg3lqy85p5je4yrgza2kr0aus4sszeqxaudus7n9958"],"fee":496994,"totalOutput":70653930,"tokens":[]}],"totalItems":12827,"totalPages":642,"currentPage":0}