{"data":[{"txId":56989020,"txHash":"4e64c4202017c089b3226f9bbcb78397ad2485e7e12c9b0c8f480bcadea3860b","txTime":"2022/12/09 21:03:29","block":8118973,"epoch":380,"slotNo":79053518,"epochSlotNo":256718,"stakeKey":"stake1uyap96n3r23thnmcxqgw48ek7448rp5jtk4ce25fe9cecmgkdkrj3"},{"txId":56988939,"txHash":"ff453a3134cdc7f4a4fcc6384634ac587d52f20ed705b19afccd82e988a0d3c1","txTime":"2022/12/09 21:01:53","block":8118966,"epoch":380,"slotNo":79053422,"epochSlotNo":256622,"stakeKey":"stake1uxvk0ys5alfvuszqympjatc5q8kzpwsat58fjy3747rsqtq422mm0"},{"txId":56988890,"txHash":"d5973913ea6d4d2c89a5f6da5ec168c5f5d52d12589a65cee07b120b2c3b3965","txTime":"2022/12/09 21:00:46","block":8118963,"epoch":380,"slotNo":79053355,"epochSlotNo":256555,"stakeKey":"stake1uyzmds5ahuhyjmyuhgfdq3d0uqqevkz20hh3s5h83qggfpcuc62z9"},{"txId":56988503,"txHash":"6665298f64c2f7c6b3ff8acf48d41a3b088dabb1219e0f7777a075fc439288bc","txTime":"2022/12/09 20:52:51","block":8118944,"epoch":380,"slotNo":79052880,"epochSlotNo":256080,"stakeKey":"stake1uxjr8sgl9umrswy3e7ps20fwavc96cws69yd67apsr60m7qu9w5ac"},{"txId":56988076,"txHash":"3a3499f6271fe01909293b21104f2b2a54fd7ff055b29a7b7a4975d4106e556a","txTime":"2022/12/09 20:43:59","block":8118912,"epoch":380,"slotNo":79052348,"epochSlotNo":255548,"stakeKey":"stake1u8zxhghnr2w7qzljag28x864sfh4munzhv8ff3cwy6up60quffx9z"},{"txId":56987976,"txHash":"c750a0c7b27bd78a2878ade2057e2d686de846699662d2bf9a30964c73aa7a16","txTime":"2022/12/09 20:42:52","block":8118910,"epoch":380,"slotNo":79052281,"epochSlotNo":255481,"stakeKey":"stake1u8vfqvzp36s0fqrlyv8f6av9aer7vzhnzrrqnywhnvq6n9sdem8ev"},{"txId":56987934,"txHash":"a1b2c461cb1d131c1a45616101002fa1fc5287f21dc2a79357da9ac211e4a3df","txTime":"2022/12/09 20:41:05","block":8118907,"epoch":380,"slotNo":79052174,"epochSlotNo":255374,"stakeKey":"stake1u83mqzn28gyhpzcvxv0y4hv0w937ecvp3ppnl5nk5venlmssucgua"},{"txId":56987909,"txHash":"3d6c5632fb1d561c56c1152ea1bd052b991fb08e7fc04f13ab8c62ed8448bf18","txTime":"2022/12/09 20:40:38","block":8118906,"epoch":380,"slotNo":79052147,"epochSlotNo":255347,"stakeKey":"stake1uy9j48qn0k53ghqetercttez7h28e7l60jn9utnwdxmmqmcm085x3"},{"txId":56987790,"txHash":"27b78a7dbb781c3db98b1b6c11a3deaeca9e443e7c91165ee24def49fea9f527","txTime":"2022/12/09 20:38:06","block":8118894,"epoch":380,"slotNo":79051995,"epochSlotNo":255195,"stakeKey":"stake1uyncht4psh0klqw8sw7gpcmsquztddnrmgtvhsngkhru2vq424gvh"},{"txId":56987762,"txHash":"f6a481e36da377a04801cf8c6fea87147bbf797c2cdeb96603ef71e223c96f23","txTime":"2022/12/09 20:37:39","block":8118892,"epoch":380,"slotNo":79051968,"epochSlotNo":255168,"stakeKey":"stake1uxkhxfrur3tehxc0agef2408w4ncsz6ldz9jdxw36kwqv8qsyntgw"},{"txId":56987602,"txHash":"18c0cd8dbc408bb86f490f96dffae44e50309eb5c43eb8ee854b798af618de9f","txTime":"2022/12/09 20:35:22","block":8118884,"epoch":380,"slotNo":79051831,"epochSlotNo":255031,"stakeKey":"stake1u9phjxm8v6gzwzvem6n5tfz52ewzz853mg6sk4hwzwr04wsg2x9rc"},{"txId":56987396,"txHash":"88fdeeaccb69703d9baa84b756b05e947f6fb56718de0e368dc59953e4440fc0","txTime":"2022/12/09 20:30:38","block":8118874,"epoch":380,"slotNo":79051547,"epochSlotNo":254747,"stakeKey":"stake1u97aq4d042ae773ng0hzz3zn07dmd70hfdj0hwsmy6e7d0srtan2c"},{"txId":56987371,"txHash":"9af6132b8224fd823ddb380fbd3657e9fa8fb3a7e606473b2f3a8d32e528df89","txTime":"2022/12/09 20:30:38","block":8118874,"epoch":380,"slotNo":79051547,"epochSlotNo":254747,"stakeKey":"stake1ux9wpn3fqcd4xdjclaehl6jrzky4af80ue9uxpuzw9wjp0s8rg33v"},{"txId":56987240,"txHash":"b1635b61687b9ca198f5dc1752beae447e2cf535a6e3a9dafaceddb8601a0d01","txTime":"2022/12/09 20:28:16","block":8118865,"epoch":380,"slotNo":79051405,"epochSlotNo":254605,"stakeKey":"stake1u87hzmtmtfeszr7eq9q4ga96vvhr9czkv2yu6fu94pr0kpcavhxha"},{"txId":56987212,"txHash":"6948cd69d51e591bd0ffc201aad51cf9a668a3de301425da82858006b795e4c8","txTime":"2022/12/09 20:27:43","block":8118863,"epoch":380,"slotNo":79051372,"epochSlotNo":254572,"stakeKey":"stake1uy6dmtju6wc7cv0xv4u5ewfgxnfr3gdhxck9p8n96he6xrqaldg68"},{"txId":56987029,"txHash":"d55d05afe734c9d1287ad6e700fcdebae1665cdeb37acbf6fb5a47f74fe9c574","txTime":"2022/12/09 20:24:17","block":8118855,"epoch":380,"slotNo":79051166,"epochSlotNo":254366,"stakeKey":"stake1uypylsmu78kgw0tdzyq8daezp59ehrlw8vfgz9yc44gc77gtml79t"},{"txId":56987025,"txHash":"3fde0b756c7ae57664344a97740d517927457faec21c9ee07f119cf8448aeba7","txTime":"2022/12/09 20:24:05","block":8118854,"epoch":380,"slotNo":79051154,"epochSlotNo":254354,"stakeKey":"stake1uysp3qguj0sw2lq03jcdy2ykjreh7rm8q22vn69pqzmtftqhgm9m0"},{"txId":56986892,"txHash":"b9fa1e8d1a718abaa3742a7776bb758b8ea7287f2d4cad63c0a5bad40dfb90eb","txTime":"2022/12/09 20:21:43","block":8118843,"epoch":380,"slotNo":79051012,"epochSlotNo":254212,"stakeKey":"stake1uxx4ug78rnseh2g2nqpektg3qmd337g8ed0h0ffuhwcw9qcrez7ve"},{"txId":56986887,"txHash":"994b5a815de052a719a23f9e3a97b912e0b3dcf29b167ac81b6a43ee9e7c6312","txTime":"2022/12/09 20:21:43","block":8118843,"epoch":380,"slotNo":79051012,"epochSlotNo":254212,"stakeKey":"stake1u9v2xyr5f7f46fay6nnx73ujj3d7pr88cg5sej3cgthmn6snxsr8n"},{"txId":56986865,"txHash":"cc6e4922e56b60574078616572f4c41baf88d55d66f085e7fb10e576445f3a3b","txTime":"2022/12/09 20:20:50","block":8118842,"epoch":380,"slotNo":79050959,"epochSlotNo":254159,"stakeKey":"stake1u8epv9wza77cpy8xep49q2g5m6xyrrv890yseuqw67sjmasxe23y3"}],"totalItems":1618456,"totalPages":80923,"currentPage":0}