{"data":[{"blockNo":6802342,"slotNo":51603109,"epochNo":317,"epochSlotNo":22309,"hash":"1360f8d35c79ca961978769c7abe3e758beb91746c4cf4e21dd6eed86a240c32","time":"2022/01/26 03:56:40","txCount":47,"totalFees":15067773,"totalOutput":527981990055,"slotLeader":"8e6f0aa0582af4b90e830926059027ee1759240bbd2b7e137d8721f9"},{"blockNo":6802341,"slotNo":51603083,"epochNo":317,"epochSlotNo":22283,"hash":"757638e8c71107d6c54340dd4e9ededf628fe7545c90f293c59a1cf31224607c","time":"2022/01/26 03:56:14","txCount":62,"totalFees":15511772,"totalOutput":247603275724,"slotLeader":"3d2294baebe5bbeaa920af59e8461068582bb6c17522bbc7308e8567"},{"blockNo":6802340,"slotNo":51603041,"epochNo":317,"epochSlotNo":22241,"hash":"317199eeb74a6a4f69539cc0fc848efeba8528bcfe07c0741aee2dd9dcafbb25","time":"2022/01/26 03:55:32","txCount":28,"totalFees":10992032,"totalOutput":6920316374093,"slotLeader":"b44181287c72d0c7b1bce6a57173cdf739ac77d030bdfc4606138dd2"},{"blockNo":6802339,"slotNo":51603013,"epochNo":317,"epochSlotNo":22213,"hash":"d95a4f4343c0996750f4ea1aa37c323fe77363ff195089afa2e622511679a018","time":"2022/01/26 03:55:04","txCount":38,"totalFees":14371215,"totalOutput":7407154819714,"slotLeader":"1c8cd022e993a8366be641c17cb6d9c5d8944e00bfce3189d8b1515a"},{"blockNo":6802338,"slotNo":51602970,"epochNo":317,"epochSlotNo":22170,"hash":"85f8b6e6f07df160af6c002f436a237fe75e53257ae841a9baecbbcd265ca06b","time":"2022/01/26 03:54:21","txCount":32,"totalFees":11734458,"totalOutput":263496820121,"slotLeader":"c2e85124c962d9eada3bdf2c0a27a0f5b153bb861c16432daf504dfe"},{"blockNo":6802337,"slotNo":51602969,"epochNo":317,"epochSlotNo":22169,"hash":"b2f56e725fdc7068619095df54bcee36362a74972e900583b337e8e11112a031","time":"2022/01/26 03:54:20","txCount":49,"totalFees":11843333,"totalOutput":269089013157,"slotLeader":"00000aedaa1a5abf500cbc4c5c23761a2dff570bc4a299983c893f8e"},{"blockNo":6802336,"slotNo":51602960,"epochNo":317,"epochSlotNo":22160,"hash":"877ea88dc433d31d61036acb63c8493173bb684dbb26407e6eaa8f4b5ad05b28","time":"2022/01/26 03:54:11","txCount":33,"totalFees":12107588,"totalOutput":239464570592,"slotLeader":"000001b844f4e4c900ae0dfdc84a8845f71090b82fb473e6c70a31ee"},{"blockNo":6802335,"slotNo":51602958,"epochNo":317,"epochSlotNo":22158,"hash":"ea9272182248a3f34597abffb6c45397e19211b3fff41eeaba2708c6f1b4d30f","time":"2022/01/26 03:54:09","txCount":39,"totalFees":10093518,"totalOutput":45489497027,"slotLeader":"9479b6e386c65d8308a776e30350c0720c67b3c28fb4624920ac9199"},{"blockNo":6802334,"slotNo":51602939,"epochNo":317,"epochSlotNo":22139,"hash":"1c188b1ad54b2fa54b3ecae54f9d51e6b484d28dda054ccd0095e5eecef1b336","time":"2022/01/26 03:53:50","txCount":52,"totalFees":14272423,"totalOutput":2567082621858,"slotLeader":"7a4c1ee9d663dd8d3b1bedf13155cc624c5dfa95f432c30d198cd3c6"},{"blockNo":6802333,"slotNo":51602920,"epochNo":317,"epochSlotNo":22120,"hash":"b4c268132e795a4fc1121f2f8144ca636e5654dd809355e4a5d89cbf6a2445c3","time":"2022/01/26 03:53:31","txCount":48,"totalFees":14721779,"totalOutput":283205916536,"slotLeader":"3b3327c0a885ba7c1ebeec8b44158aab79c32148d45b4c701344cd97"},{"blockNo":6802332,"slotNo":51602914,"epochNo":317,"epochSlotNo":22114,"hash":"b4a5f0475d145ddaa9ee489afed9ed35c9a2db728c5b96fa582d636df0d1d5ec","time":"2022/01/26 03:53:25","txCount":58,"totalFees":14799404,"totalOutput":238005010790,"slotLeader":"2ba96bc27be2bdde3ec11b9f696cf21fad39e49097be9b0193e6b572"},{"blockNo":6802331,"slotNo":51602907,"epochNo":317,"epochSlotNo":22107,"hash":"bd34f442d403bf83f74fcdd58fc7921f8f3c6d7ff011331cd7be2ff6cd18461c","time":"2022/01/26 03:53:18","txCount":41,"totalFees":12324088,"totalOutput":53614343869,"slotLeader":"42c3740db23c3fc36cb9f63aa8070ec01417b4d22893463c8c8a21d4"},{"blockNo":6802330,"slotNo":51602841,"epochNo":317,"epochSlotNo":22041,"hash":"9f7eb1e9dd905cbd330cf23ecd55fc37499341ea15ced57f42f305e85beb169d","time":"2022/01/26 03:52:12","txCount":29,"totalFees":11090443,"totalOutput":274408450950,"slotLeader":"f6541f3ca941d96d3c243eae01fea874d6be403b2dd2c6575245de6e"},{"blockNo":6802329,"slotNo":51602830,"epochNo":317,"epochSlotNo":22030,"hash":"565488993ce141281e4ec53903a76db161e7558894f6888c0863d5b98677e092","time":"2022/01/26 03:52:01","txCount":28,"totalFees":9996492,"totalOutput":2727564953791,"slotLeader":"d4a3b639d0f0b050cbfc25dad467af58355f31edbc4959db1cc59051"},{"blockNo":6802328,"slotNo":51602817,"epochNo":317,"epochSlotNo":22017,"hash":"a4c5bddd39a5b76ba07acfdce51d71ddc4723fe1af4afac66f3a6376e11ad1c3","time":"2022/01/26 03:51:48","txCount":39,"totalFees":13438622,"totalOutput":73403358834,"slotLeader":"f018942907ac50ed7f831f14755ad93698188492d09d229655e6ade1"},{"blockNo":6802327,"slotNo":51602789,"epochNo":317,"epochSlotNo":21989,"hash":"d7e3ff8bdbbc2c343a2f4a4fb19a9bdb27677fc97456953515a345ca1086118d","time":"2022/01/26 03:51:20","txCount":40,"totalFees":12855259,"totalOutput":85580369875,"slotLeader":"9a22c008779c455a124d86191047d35690a0ca2c094a34d90cd29542"},{"blockNo":6802326,"slotNo":51602786,"epochNo":317,"epochSlotNo":21986,"hash":"e8824163b4a30e2c84c277747ddcd8c6379caa158aace2db767fb00e2f9de240","time":"2022/01/26 03:51:17","txCount":22,"totalFees":8970459,"totalOutput":39164241009,"slotLeader":"00beef8710427e328a29555283c74b202b40bec9a62630a9f03b1e18"},{"blockNo":6802325,"slotNo":51602768,"epochNo":317,"epochSlotNo":21968,"hash":"57a7583a7033613ef2f28ae9e0d255812a048d2f9963a744586460d0f2de7d9d","time":"2022/01/26 03:50:59","txCount":54,"totalFees":15394501,"totalOutput":62328920535,"slotLeader":"a75f5263ca05569b3baecf0fafbfdaaf07076727c44460e4641b415b"},{"blockNo":6802324,"slotNo":51602766,"epochNo":317,"epochSlotNo":21966,"hash":"32669d3c702e026fbbf336d6a980f3dd60fa0eb2af21002fa16f297cd49c59e9","time":"2022/01/26 03:50:57","txCount":38,"totalFees":11318698,"totalOutput":63871453258,"slotLeader":"dd7330d29709deb4e8dff5b49d50b174c9c884678992cca4a68d96d7"},{"blockNo":6802323,"slotNo":51602731,"epochNo":317,"epochSlotNo":21931,"hash":"af4d04595dfab184325c7506c67a51763fc90bcc52bec7fafa707e5057c01cb9","time":"2022/01/26 03:50:22","txCount":39,"totalFees":12177251,"totalOutput":304338985196,"slotLeader":"83f09b0af923a095a1c17905e802a35d1044f974b25d2a755a2d8266"}],"totalItems":6802518,"totalPages":340126,"currentPage":0}