{"data":[{"txId":61477973,"txHash":"65ccc84ce0074ee511ed17a963a08c90a34306f1cee5b6ebe9783c0bba7e7a4a","txTime":"2023/02/07 02:03:01","block":8367670,"epoch":392,"slotNo":84169090,"epochSlotNo":188290,"stakeKey":"stake1u8pgzvrqpxjwnuh4p6xhln28qdgf7lvkp3s8pjp2ngpyasg09uy0d"},{"txId":61477916,"txHash":"06dc9f707192f31e7b52e1fda74372a5f91a853318193e5c2d460ec026f64a21","txTime":"2023/02/07 02:01:30","block":8367665,"epoch":392,"slotNo":84168999,"epochSlotNo":188199,"stakeKey":"stake1u9dh3a7fcvwq69gz2652cwwc4uenw822h49c3gt5hfngfjqt5e5ex"},{"txId":61477220,"txHash":"60001ccc583e922f6b788129acc597a6285372150b99c969d995b8fe1653c6c2","txTime":"2023/02/07 01:48:29","block":8367630,"epoch":392,"slotNo":84168218,"epochSlotNo":187418,"stakeKey":"stake1u97sy8usydf46d64mz0sykw4lpvdvg5wf5swmrz83gddy6g7wwuc0"},{"txId":61477052,"txHash":"83489579a2fda7460292e39a754f6d14fbbdabda9feb6fcb5c82b7296cb265d8","txTime":"2023/02/07 01:43:55","block":8367618,"epoch":392,"slotNo":84167944,"epochSlotNo":187144,"stakeKey":"stake1u8lrgydvpm49satvamnlg4cv6f49n8ws5khv2fqzz94djycjpj82z"},{"txId":61476891,"txHash":"05069baf7fa5337a9a12e7d0f354474038ddbbb91bb312b7b027924d1c62c1c0","txTime":"2023/02/07 01:41:05","block":8367604,"epoch":392,"slotNo":84167774,"epochSlotNo":186974,"stakeKey":"stake1u9udsg8eug6qvek9t04m80u34mg0wrtnutaphruv2cfwxscxtfk8m"},{"txId":61476785,"txHash":"0958989d44cf118a6adf63079848e9dce5fd2603f97e25583e8f73adea3faac6","txTime":"2023/02/07 01:39:30","block":8367598,"epoch":392,"slotNo":84167679,"epochSlotNo":186879,"stakeKey":"stake1u8t5ez2wy42vh0n0atk60yqwq0s3esuquu92t8dgpejd37g2md4ec"},{"txId":61476444,"txHash":"918602485b7707a7222619842902f19ab4a52ab27bc478a1ecc61945e20ade42","txTime":"2023/02/07 01:32:56","block":8367581,"epoch":392,"slotNo":84167285,"epochSlotNo":186485,"stakeKey":"stake1uxuu6gpjqmhzsrdwkz9ngm0qwseeenhnukekl3k0ddwt5mquvnsm3"},{"txId":61476071,"txHash":"e8fc2db19df9023378974eef372363760c0f24d927bb6940cfc7a48fb8e9c2b0","txTime":"2023/02/07 01:24:54","block":8367554,"epoch":392,"slotNo":84166803,"epochSlotNo":186003,"stakeKey":"stake1u84dw4fy6jv87807enpcfw446hfmq9wn8drku5prxclzxyq4azhyr"},{"txId":61475408,"txHash":"1025e1da1009c52bbcf578de5f5be0cbd3d800a56a23fd703234a56a0431d1d2","txTime":"2023/02/07 01:11:15","block":8367519,"epoch":392,"slotNo":84165984,"epochSlotNo":185184,"stakeKey":"stake1u85694jful5eqn22lld3t6d7s47wqtw5phs9g0jhrga23ns45ag32"},{"txId":61475253,"txHash":"3f1a358761d9480eb79796a3e42eba21e093e7d2dd87128a1706dddbb0a9482d","txTime":"2023/02/07 01:07:49","block":8367510,"epoch":392,"slotNo":84165778,"epochSlotNo":184978,"stakeKey":"stake1u95zs30kthxfup4a7gpx9jglhlnunxq68tmdzja2uyn4c4q6hlzcg"},{"txId":61473904,"txHash":"d010dfc002007c533b68a20c0d808801bb35c8eb01b77642044cf0dcf1a90e08","txTime":"2023/02/07 00:42:41","block":8367428,"epoch":392,"slotNo":84164270,"epochSlotNo":183470,"stakeKey":"stake1u9qcugw4azlgshpj25zcmetuvz2c0z32ay779swejcdqtac6mx0dl"},{"txId":61473389,"txHash":"a8875c151e93487626a3b173db85daf70ad384edda74dbe94114f696ac88ba82","txTime":"2023/02/07 00:33:25","block":8367394,"epoch":392,"slotNo":84163714,"epochSlotNo":182914,"stakeKey":"stake1u8jwp73ye97q4k8830rkawjxccrqjm70evz4z8vhvhdwgzgz2rr60"},{"txId":61473267,"txHash":"87b794e812df67be0858042fbc64f6ba89297687721215c4114b0ac6661b1126","txTime":"2023/02/07 00:30:00","block":8367389,"epoch":392,"slotNo":84163509,"epochSlotNo":182709,"stakeKey":"stake1u96nlz9ecf6hurnswccu6t99dnnkuxwkh2uw7t2zl9d2f8skzucnu"},{"txId":61473169,"txHash":"9fd8cc16301b0746f4eb6faa23a3ee56b76e11d121d31cba2487d3677afa20d9","txTime":"2023/02/07 00:27:23","block":8367381,"epoch":392,"slotNo":84163352,"epochSlotNo":182552,"stakeKey":"stake1u842gxdtfu8960nr42zlk9ek4w8887dfk40w9tqvcm9etggvh498j"},{"txId":61472646,"txHash":"aea11cf3831afbed556a8a8c7ed633f8a2ba8f370b3dbe4b98d9335bee24f20d","txTime":"2023/02/07 00:17:03","block":8367360,"epoch":392,"slotNo":84162732,"epochSlotNo":181932,"stakeKey":"stake1u9gteu2apmgnycgawjlqptn67wl0gm7fcdz8gnentftc7wc5erkdk"},{"txId":61472461,"txHash":"9b8d0e73ce03a98acd02a0e916c54391e7cc68c96e955a3dd87fa9dbc9cdf9be","txTime":"2023/02/07 00:13:45","block":8367349,"epoch":392,"slotNo":84162534,"epochSlotNo":181734,"stakeKey":"stake1u8z6zuc4rwa62kvh7gj8uhkrpynzrh9g3lqn6efh0vs047s99vdu7"},{"txId":61472170,"txHash":"9f081e946c554c3bb27972262667d09615636c9ee83a43075447f228497260ef","txTime":"2023/02/07 00:08:18","block":8367331,"epoch":392,"slotNo":84162207,"epochSlotNo":181407,"stakeKey":"stake1u9zm856j27q2vywgyhazeyatdzymfe3qdh26uucvhvtawwqz9ucch"},{"txId":61472109,"txHash":"24f34d815aa8c72f7f8325caaadf5040211066d0b213bcfda95a1e75a2b1b615","txTime":"2023/02/07 00:06:59","block":8367325,"epoch":392,"slotNo":84162128,"epochSlotNo":181328,"stakeKey":"stake1u8uts6xj6krhj70azn6dn35ns3uz7qx8q02e0xcm7mfp3qg6kn390"},{"txId":61471921,"txHash":"a34195edb48f462b2d1bad3b26ef2dfb3c167f113de91a679f1b473aef5c9bcc","txTime":"2023/02/07 00:03:25","block":8367314,"epoch":392,"slotNo":84161914,"epochSlotNo":181114,"stakeKey":"stake1u9ye8h85jq5pf6nvtudvwwth5vu3mhj27tf596j24u6rzkstw7uxk"},{"txId":61470830,"txHash":"70d5c456c1d4a7f29064cde8f6e835f00706edfa630e51d19f8d7e9c1e250d00","txTime":"2023/02/06 23:42:42","block":8367260,"epoch":392,"slotNo":84160671,"epochSlotNo":179871,"stakeKey":"stake1uxfntvqpx7jr584qfdpmzj6tura2z6uyfhqwm09lcep6eegtfjxne"}],"totalItems":351105,"totalPages":17556,"currentPage":0}