{"data":[{"hash":"8459e296cdea7067920a0e561bf5eda4041027e8e21f6c82d703495d6475c846","blockNo":8425746,"blockHash":"1587b713c6b51e70e00aea980091d8add4af930f0870e76389722c18621054eb","epochNo":395,"epochSlotNo":106671,"slot":85383471,"time":"2023/02/21 03:22:42","addressesInput":["addr1wxaptpmxcxawvr3pzlhgnpmzz3ql43n2tc8mn3av5kx0yzs09tqh8","addr1wxaptpmxcxawvr3pzlhgnpmzz3ql43n2tc8mn3av5kx0yzs09tqh8","addr1v9c04r8gmk5nw24fklwf746k8y883yuhgnre25xv8gnyk7gak56qt","addr1w9qzpelu9hn45pefc0xr4ac4kdxeswq7pndul2vuj59u8tqaxdznu"],"addressesOutput":["addr1w9qzpelu9hn45pefc0xr4ac4kdxeswq7pndul2vuj59u8tqaxdznu","addr1w9jx45flh83z6wuqypyash54mszwmdj8r64fydafxtfc6jgrw4rm3","addr1q836qf2vqzv57uc42rupyw039fsvnlfuaxumry25x9fwcg43hmpsthwgqxya4j9k9rhq4ha72fzu2wuyueuw6lkz846sde0a0x","addr1q9mxmacqslgweh620lmh6w8qz4g5s45tkc0c3sw0ln5nfyuhdjv2kmr8rjfnc0jq62rqcmtluge3hgz0kwp29gezgqlsljxzyt","addr1v9c04r8gmk5nw24fklwf746k8y883yuhgnre25xv8gnyk7gak56qt"],"fee":1269343,"totalOutput":109762999273,"tokens":[]},{"hash":"d8a17a4722cb66a6a78050070885cd56fb998b8526c9d8afc54088e9f2fa1c7a","blockNo":8425746,"blockHash":"1587b713c6b51e70e00aea980091d8add4af930f0870e76389722c18621054eb","epochNo":395,"epochSlotNo":106671,"slot":85383471,"time":"2023/02/21 03:22:42","addressesInput":["addr1vyjdya9lmyfmysdgej3qc6thwat33lwm3umk8uwnvhy9g3gzvd2jp","addr1vyjcjxd32xg3tvy6wkxwssvwqft8a7z6l0h9g936hcdjaysxgfyjn"],"addressesOutput":["addr1q9tzw9wky9z5aj06d7xv04y53s4l7c599zwanrl6xc5udjj2uqry0rfstw3ewl0v98elxgzj0gsfmuy2m0c0f7arqhxqxgmcmn","addr1vyjcjxd32xg3tvy6wkxwssvwqft8a7z6l0h9g936hcdjaysxgfyjn"],"fee":185689,"totalOutput":255494918,"tokens":[]},{"hash":"dc1b0ac9cbe4fc72421d3dc25e0c2f0b86ebbd7b3ebbd52e73eb6a16e7631fdf","blockNo":8425745,"blockHash":"71ea88c0e7f1620cc570d4bb291a607f998364168e244aae346faac1a3ca211c","epochNo":395,"epochSlotNo":106666,"slot":85383466,"time":"2023/02/21 03:22:37","addressesInput":["addr1z8snz7c4974vzdpxu65ruphl3zjdvtxw8strf2c2tmqnxz2j2c79gy9l76sdg0xwhd7r0c0kna0tycz4y5s6mlenh8pq0xmsha","addr1wxn9efv2f6w82hagxqtn62ju4m293tqvw0uhmdl64ch8uwc0h43gt","addr1qyht4ja0zcn45qvyx477qlyp6j5ftu5ng0prt9608dxp6l2j2c79gy9l76sdg0xwhd7r0c0kna0tycz4y5s6mlenh8pq4jxtdy","addr1qyht4ja0zcn45qvyx477qlyp6j5ftu5ng0prt9608dxp6l2j2c79gy9l76sdg0xwhd7r0c0kna0tycz4y5s6mlenh8pq4jxtdy"],"addressesOutput":["addr1qyht4ja0zcn45qvyx477qlyp6j5ftu5ng0prt9608dxp6l2j2c79gy9l76sdg0xwhd7r0c0kna0tycz4y5s6mlenh8pq4jxtdy","addr1qyht4ja0zcn45qvyx477qlyp6j5ftu5ng0prt9608dxp6l2j2c79gy9l76sdg0xwhd7r0c0kna0tycz4y5s6mlenh8pq4jxtdy","addr1qy9yq5m0l0cq8rs9e4qwd2nkv46s7svsf5yc8yunxshztfnnf7wfzxwdwhv209jh5tecggqcgqjfqx47s5tft85qcsdqg852pc","addr1z8snz7c4974vzdpxu65ruphl3zjdvtxw8strf2c2tmqnxz2j2c79gy9l76sdg0xwhd7r0c0kna0tycz4y5s6mlenh8pq0xmsha"],"fee":829166,"totalOutput":728640505636,"tokens":[]},{"hash":"5a28f4136bb20ba0801f51fb8a12f5798d30734d0bb52043616224f478a5f970","blockNo":8425745,"blockHash":"71ea88c0e7f1620cc570d4bb291a607f998364168e244aae346faac1a3ca211c","epochNo":395,"epochSlotNo":106666,"slot":85383466,"time":"2023/02/21 03:22:37","addressesInput":["addr1qyht4ja0zcn45qvyx477qlyp6j5ftu5ng0prt9608dxp6l2j2c79gy9l76sdg0xwhd7r0c0kna0tycz4y5s6mlenh8pq4jxtdy","addr1wxn9efv2f6w82hagxqtn62ju4m293tqvw0uhmdl64ch8uwc0h43gt","addr1qyht4ja0zcn45qvyx477qlyp6j5ftu5ng0prt9608dxp6l2j2c79gy9l76sdg0xwhd7r0c0kna0tycz4y5s6mlenh8pq4jxtdy","addr1z8snz7c4974vzdpxu65ruphl3zjdvtxw8strf2c2tmqnxz2j2c79gy9l76sdg0xwhd7r0c0kna0tycz4y5s6mlenh8pq0xmsha"],"addressesOutput":["addr1qyht4ja0zcn45qvyx477qlyp6j5ftu5ng0prt9608dxp6l2j2c79gy9l76sdg0xwhd7r0c0kna0tycz4y5s6mlenh8pq4jxtdy","addr1qyht4ja0zcn45qvyx477qlyp6j5ftu5ng0prt9608dxp6l2j2c79gy9l76sdg0xwhd7r0c0kna0tycz4y5s6mlenh8pq4jxtdy","addr1q89tp2wtn0sasyu4cepje9teksqsl468ljyzydky5arvrezz7vfg9gjdrqwv590mtmmr7zvpyzdrsz88jd4xxk2jlthsuumhxm","addr1z8snz7c4974vzdpxu65ruphl3zjdvtxw8strf2c2tmqnxz2j2c79gy9l76sdg0xwhd7r0c0kna0tycz4y5s6mlenh8pq0xmsha"],"fee":825531,"totalOutput":23758843854947,"tokens":[]},{"hash":"0ab3cba93b0691a17156633aff64b0bb1f5a5b2bf7e001fae3d8e1ab18d68fc5","blockNo":8425745,"blockHash":"71ea88c0e7f1620cc570d4bb291a607f998364168e244aae346faac1a3ca211c","epochNo":395,"epochSlotNo":106666,"slot":85383466,"time":"2023/02/21 03:22:37","addressesInput":["addr1z8snz7c4974vzdpxu65ruphl3zjdvtxw8strf2c2tmqnxz2j2c79gy9l76sdg0xwhd7r0c0kna0tycz4y5s6mlenh8pq0xmsha","addr1qyht4ja0zcn45qvyx477qlyp6j5ftu5ng0prt9608dxp6l2j2c79gy9l76sdg0xwhd7r0c0kna0tycz4y5s6mlenh8pq4jxtdy","addr1qyht4ja0zcn45qvyx477qlyp6j5ftu5ng0prt9608dxp6l2j2c79gy9l76sdg0xwhd7r0c0kna0tycz4y5s6mlenh8pq4jxtdy","addr1wxn9efv2f6w82hagxqtn62ju4m293tqvw0uhmdl64ch8uwc0h43gt"],"addressesOutput":["addr1qyht4ja0zcn45qvyx477qlyp6j5ftu5ng0prt9608dxp6l2j2c79gy9l76sdg0xwhd7r0c0kna0tycz4y5s6mlenh8pq4jxtdy","addr1qyht4ja0zcn45qvyx477qlyp6j5ftu5ng0prt9608dxp6l2j2c79gy9l76sdg0xwhd7r0c0kna0tycz4y5s6mlenh8pq4jxtdy","addr1q9qmpqjrjh5ctc75kqp6j7x8z6ufn3ma3w5fxl0y3y96rhzlm0y82the8yf09e4atzkhhd7u02lklk3ssdg2cqlyjlvs6zte8v","addr1z8snz7c4974vzdpxu65ruphl3zjdvtxw8strf2c2tmqnxz2j2c79gy9l76sdg0xwhd7r0c0kna0tycz4y5s6mlenh8pq0xmsha"],"fee":833875,"totalOutput":975357527351,"tokens":[]},{"hash":"bd9eaf0d8752ccc80119267659e0cffaccce1099a76ee972539593fcd1ed2e78","blockNo":8425745,"blockHash":"71ea88c0e7f1620cc570d4bb291a607f998364168e244aae346faac1a3ca211c","epochNo":395,"epochSlotNo":106666,"slot":85383466,"time":"2023/02/21 03:22:37","addressesInput":["addr1zxgx3far7qygq0k6epa0zcvcvrevmn0ypsnfsue94nsn3tvpw288a4x0xf8pxgcntelxmyclq83s0ykeehchz2wtspks905plm","addr1qxqwyweuhfx0w65mj0n3l8knn0u37np5tgcl42wzl89u73kf8pcrregr8wyjx5wgtqfshak7d8zpq56sr3puywz4x64qu2cstr"],"addressesOutput":["addr1zxgx3far7qygq0k6epa0zcvcvrevmn0ypsnfsue94nsn3tvpw288a4x0xf8pxgcntelxmyclq83s0ykeehchz2wtspks905plm","addr1qxqwyweuhfx0w65mj0n3l8knn0u37np5tgcl42wzl89u73kf8pcrregr8wyjx5wgtqfshak7d8zpq56sr3puywz4x64qu2cstr"],"fee":307006,"totalOutput":13003234,"tokens":[]},{"hash":"de8e9bf3de376d2b5c3ca34a2773a1c223835464c99d2c3c48368c9217c48507","blockNo":8425745,"blockHash":"71ea88c0e7f1620cc570d4bb291a607f998364168e244aae346faac1a3ca211c","epochNo":395,"epochSlotNo":106666,"slot":85383466,"time":"2023/02/21 03:22:37","addressesInput":["addr1q8x55j0efvcm0hl4nu5lg393du455uvmdhu2j9tczqe9xckdffyljje3kl0lt8ef73ztzmetffcekm0c4y2hsypj2d3qfzeweu","addr1q8x55j0efvcm0hl4nu5lg393du455uvmdhu2j9tczqe9xckdffyljje3kl0lt8ef73ztzmetffcekm0c4y2hsypj2d3qfzeweu"],"addressesOutput":["addr1q8x55j0efvcm0hl4nu5lg393du455uvmdhu2j9tczqe9xckdffyljje3kl0lt8ef73ztzmetffcekm0c4y2hsypj2d3qfzeweu","addr1q8x55j0efvcm0hl4nu5lg393du455uvmdhu2j9tczqe9xckdffyljje3kl0lt8ef73ztzmetffcekm0c4y2hsypj2d3qfzeweu"],"fee":233854,"totalOutput":3213918024,"tokens":[]},{"hash":"4b0c640cbeb1978e1018f4550b8fe22dfaefa49d30d480fca044908e2d4537b1","blockNo":8425745,"blockHash":"71ea88c0e7f1620cc570d4bb291a607f998364168e244aae346faac1a3ca211c","epochNo":395,"epochSlotNo":106666,"slot":85383466,"time":"2023/02/21 03:22:37","addressesInput":["addr1v9u7va2sktlnz8dp3qadpnxxlv4m03672jy6elmntlxxs7q9nnwl9"],"addressesOutput":["addr1q8wudx7rvc65axm4ysge7zxl3ecv4ln349c5l74txjgklw9ysnu0ctg9a6q6yp9ezjynkfvggdp852dwnq7ax7uwjeyqvwg206","addr1vypr00ss7hkqejmvh53xkyf0p9q0a4z2uprxmx6njc463vgst3pe4"],"fee":183600,"totalOutput":286546304,"tokens":[]},{"hash":"eff2f28237da472da0cf406bc3f602b47479af81b9d088346ae3b93610fa695c","blockNo":8425745,"blockHash":"71ea88c0e7f1620cc570d4bb291a607f998364168e244aae346faac1a3ca211c","epochNo":395,"epochSlotNo":106666,"slot":85383466,"time":"2023/02/21 03:22:37","addressesInput":["addr1qxa6jk262m4aetqq0psxldcpv2nmjmxhegsyu68fgey032m4rrnatxj496svd4cgkzh7yk03y4l5c3a323rgzu325amsrsp2kv"],"addressesOutput":["addr1q8r4c3g7yw6hlr6k8z9aykr6xsrksgmmnn3sqgcucd08qqq7dwgwuf3qrxxu3934ts0r38877cqjllqzwxwma8qpz4lquf40zz","addr1qxmk4ae68nlaqhz4fe2yty5zz7jl93l49vys2gpjnksf5ffg79la6tvt3a2e44s73x0rr6hfpw0zp897mv0w32xxclgsr2u9r5","addr1qxa6jk262m4aetqq0psxldcpv2nmjmxhegsyu68fgey032m4rrnatxj496svd4cgkzh7yk03y4l5c3a323rgzu325amsrsp2kv"],"fee":262085,"totalOutput":43596791,"tokens":[]},{"hash":"109d91652894b65e55532db87a2cd4732ff411fc46e34d36de5e80ad2791f42c","blockNo":8425745,"blockHash":"71ea88c0e7f1620cc570d4bb291a607f998364168e244aae346faac1a3ca211c","epochNo":395,"epochSlotNo":106666,"slot":85383466,"time":"2023/02/21 03:22:37","addressesInput":["addr1qynx795x2a53g08pwgduhrms9tjl9dyz3pu5x3g698wk0mnp7dfdwzaj3v72uav74pgdh24wg8tsfp43hnvhrc4sqwvqdy5s2p","addr1qynx795x2a53g08pwgduhrms9tjl9dyz3pu5x3g698wk0mnp7dfdwzaj3v72uav74pgdh24wg8tsfp43hnvhrc4sqwvqdy5s2p"],"addressesOutput":["addr1qyjctapxxeqva8prdxzg5qh2wmqnnvc4wm7tfxj7ngjrt7kt6g2uutf0d2hfnm8unghpnrkgrw0yj0tqkjlnvusapyzsp20c7e","addr1qynx795x2a53g08pwgduhrms9tjl9dyz3pu5x3g698wk0mnp7dfdwzaj3v72uav74pgdh24wg8tsfp43hnvhrc4sqwvqdy5s2p","addr1qynx795x2a53g08pwgduhrms9tjl9dyz3pu5x3g698wk0mnp7dfdwzaj3v72uav74pgdh24wg8tsfp43hnvhrc4sqwvqdy5s2p"],"fee":176809,"totalOutput":17534987,"tokens":[]},{"hash":"b4c3baf03c826a38f7b9e984c40b3a8dbeb026cd2afeb0fc0d74d262a392b2cb","blockNo":8425745,"blockHash":"71ea88c0e7f1620cc570d4bb291a607f998364168e244aae346faac1a3ca211c","epochNo":395,"epochSlotNo":106666,"slot":85383466,"time":"2023/02/21 03:22:37","addressesInput":["addr1vymfvx2v34kjuy50akuzvh2sh4jc35lqul7508pyf92qpyc2ym2d8","addr1vymfvx2v34kjuy50akuzvh2sh4jc35lqul7508pyf92qpyc2ym2d8","addr1wyd8cezjr0gcf8nfxuc9trd4hs7ec520jmkwkqzywx6l5jg0al0ya"],"addressesOutput":["addr1wyd8cezjr0gcf8nfxuc9trd4hs7ec520jmkwkqzywx6l5jg0al0ya","addr1vymfvx2v34kjuy50akuzvh2sh4jc35lqul7508pyf92qpyc2ym2d8","addr1vymfvx2v34kjuy50akuzvh2sh4jc35lqul7508pyf92qpyc2ym2d8"],"fee":210461,"totalOutput":11579078,"tokens":[]},{"hash":"3c888cbe59e125d869950c4655b2a7d334c363c6946b2fbac295c138ca972725","blockNo":8425745,"blockHash":"71ea88c0e7f1620cc570d4bb291a607f998364168e244aae346faac1a3ca211c","epochNo":395,"epochSlotNo":106666,"slot":85383466,"time":"2023/02/21 03:22:37","addressesInput":["addr1q9kjrlm0vnaj0na2c9ztannlqdy4tra9cxtauex6s68mjp4ejv6v6az20k8cnqrva608a3a00kzz4t4jsx2hr2mnwgvq6dzd4r","addr1zxgx3far7qygq0k6epa0zcvcvrevmn0ypsnfsue94nsn3tvpw288a4x0xf8pxgcntelxmyclq83s0ykeehchz2wtspks905plm","addr1q9kjrlm0vnaj0na2c9ztannlqdy4tra9cxtauex6s68mjp4ejv6v6az20k8cnqrva608a3a00kzz4t4jsx2hr2mnwgvq6dzd4r"],"addressesOutput":["addr1q86ylp637q7hv7a9r387nz8d9zdhem2v06pjyg75fvcmen3rg8t4q3f80r56p93xqzhcup0w7e5heq7lnayjzqau3dfs7yrls5","addr1q9cwvremt6n320s2e3agq0jyq82yhrk3htsu0w426xnz5us70z4w0jgvcdkkynmm8wmds66jd9kusnjfpu6raw5fqp0sr07p5w","addr1q9sswmhkkcprm6wjf80npwwlvpckrlsc4vd6r25pud7agnn6ne47dexkah5kvg66jzmzak2ma4nwfc0p7q24zajadnsqapdaa7","addr1q9kjrlm0vnaj0na2c9ztannlqdy4tra9cxtauex6s68mjp4ejv6v6az20k8cnqrva608a3a00kzz4t4jsx2hr2mnwgvq6dzd4r","addr1q9kjrlm0vnaj0na2c9ztannlqdy4tra9cxtauex6s68mjp4ejv6v6az20k8cnqrva608a3a00kzz4t4jsx2hr2mnwgvq6dzd4r"],"fee":404166,"totalOutput":140075721,"tokens":[]},{"hash":"d23dffa45bf39e646ae0e182162fdf6d68a410f0ebee0a1bfb4a159386fa4da0","blockNo":8425745,"blockHash":"71ea88c0e7f1620cc570d4bb291a607f998364168e244aae346faac1a3ca211c","epochNo":395,"epochSlotNo":106666,"slot":85383466,"time":"2023/02/21 03:22:37","addressesInput":["addr1zxgx3far7qygq0k6epa0zcvcvrevmn0ypsnfsue94nsn3tvpw288a4x0xf8pxgcntelxmyclq83s0ykeehchz2wtspks905plm","addr1q8euzlsxzt7gydafe55ev58u37gnynylf9pkhetycwkz3hyyd5t0tvzhyrl82dyl3tfdlrv6gyhkxqq5h7qye4c5edrq4w9l9k"],"addressesOutput":["addr1q8euzlsxzt7gydafe55ev58u37gnynylf9pkhetycwkz3hyyd5t0tvzhyrl82dyl3tfdlrv6gyhkxqq5h7qye4c5edrq4w9l9k","addr1q8euzlsxzt7gydafe55ev58u37gnynylf9pkhetycwkz3hyyd5t0tvzhyrl82dyl3tfdlrv6gyhkxqq5h7qye4c5edrq4w9l9k"],"fee":264291,"totalOutput":124947185,"tokens":[]},{"hash":"a0fefd29d836d7bdebf458f80887411b86ec9caf39c638bf5fbbdbba5f089cf2","blockNo":8425745,"blockHash":"71ea88c0e7f1620cc570d4bb291a607f998364168e244aae346faac1a3ca211c","epochNo":395,"epochSlotNo":106666,"slot":85383466,"time":"2023/02/21 03:22:37","addressesInput":["addr1q87gqg0jhqvf6frd6jysv6dt5q8vrl4lyz092aq20lnxcluy9f62d0tsws3ur02lh5rzjm7gt2gjulyt39srz98f6shq2ttn8n","addr1zxgx3far7qygq0k6epa0zcvcvrevmn0ypsnfsue94nsn3tvpw288a4x0xf8pxgcntelxmyclq83s0ykeehchz2wtspks905plm"],"addressesOutput":["addr1zxgx3far7qygq0k6epa0zcvcvrevmn0ypsnfsue94nsn3tvpw288a4x0xf8pxgcntelxmyclq83s0ykeehchz2wtspks905plm","addr1q87gqg0jhqvf6frd6jysv6dt5q8vrl4lyz092aq20lnxcluy9f62d0tsws3ur02lh5rzjm7gt2gjulyt39srz98f6shq2ttn8n"],"fee":315010,"totalOutput":108376361,"tokens":[]},{"hash":"a308ec31867b1984ff31241e62f1478880e176b444ee2fab4273189f04c2cf2e","blockNo":8425745,"blockHash":"71ea88c0e7f1620cc570d4bb291a607f998364168e244aae346faac1a3ca211c","epochNo":395,"epochSlotNo":106666,"slot":85383466,"time":"2023/02/21 03:22:37","addressesInput":["addr1qx7vtk0g7lsqh30jaq0kja5sdymumf94xzwg8ckcrg8jx5ec3ujnut6f2mqdjumd26qelx5ztvrh7e5tqw7d45nwpvcq26vwy6","addr1qx7vtk0g7lsqh30jaq0kja5sdymumf94xzwg8ckcrg8jx5ec3ujnut6f2mqdjumd26qelx5ztvrh7e5tqw7d45nwpvcq26vwy6"],"addressesOutput":["addr1qxqgc9mj3ezuw9j8xs4zqnmx35efpk8t2zz2338azpxnxaht4vkjxwt558prulff4s2k0fjzufrcldcz0es22nglzfuquv0gxz","addr1qx7vtk0g7lsqh30jaq0kja5sdymumf94xzwg8ckcrg8jx5ec3ujnut6f2mqdjumd26qelx5ztvrh7e5tqw7d45nwpvcq26vwy6"],"fee":169901,"totalOutput":118410136,"tokens":[]},{"hash":"49d5244044786fa911e02df4ca2ed679766f6bc526d8a83a496b525000d76ba7","blockNo":8425745,"blockHash":"71ea88c0e7f1620cc570d4bb291a607f998364168e244aae346faac1a3ca211c","epochNo":395,"epochSlotNo":106666,"slot":85383466,"time":"2023/02/21 03:22:37","addressesInput":["addr1qxahk8x65cypa6rvqpnl6sh7fwtcuxs8xrhp0a24qxmxek0hstlucujr8rhvwnwtd5pq558ehtqlfqyxj68qwvsyhqnq05cn7p","addr1q9uxp0u25ce7lgeq8rj6ffx8dufnd2xy6fa74t287x6wm0lhstlucujr8rhvwnwtd5pq558ehtqlfqyxj68qwvsyhqnqzlkgej","addr1q9nxge64kpwvvmjwh98v64t58rndcj0sjttmfgwqgpynrv8hstlucujr8rhvwnwtd5pq558ehtqlfqyxj68qwvsyhqnq73mmkk"],"addressesOutput":["addr1qyg5yk36ee0rhl5hw5kxcfng5ygrsv55tuchs0nxjmh9uqmpmpaxya7n6kzmyy6f72st0akwx8zg5n6emrxa5mhywg9q3v23dv","addr1q9nxge64kpwvvmjwh98v64t58rndcj0sjttmfgwqgpynrv8hstlucujr8rhvwnwtd5pq558ehtqlfqyxj68qwvsyhqnq73mmkk","addr1q9nxge64kpwvvmjwh98v64t58rndcj0sjttmfgwqgpynrv8hstlucujr8rhvwnwtd5pq558ehtqlfqyxj68qwvsyhqnq73mmkk"],"fee":440765,"totalOutput":2278984173,"tokens":[]},{"hash":"fe6fcacad964ed3bbc6080e6cc38070961cd89e764ec3ca9ffff614cb2c3c9af","blockNo":8425745,"blockHash":"71ea88c0e7f1620cc570d4bb291a607f998364168e244aae346faac1a3ca211c","epochNo":395,"epochSlotNo":106666,"slot":85383466,"time":"2023/02/21 03:22:37","addressesInput":["addr1qyqrxe9w84karz9k72wgxuw5u96vjxu3lfsnl0qw7q2dthprs64q0fnau7vy20ts0n9ae2kvxkqd0zmnl4kchcaprh7ssyyuf2","addr1qyqrxe9w84karz9k72wgxuw5u96vjxu3lfsnl0qw7q2dthprs64q0fnau7vy20ts0n9ae2kvxkqd0zmnl4kchcaprh7ssyyuf2"],"addressesOutput":["addr1wxn9efv2f6w82hagxqtn62ju4m293tqvw0uhmdl64ch8uwc0h43gt","addr1qyqrxe9w84karz9k72wgxuw5u96vjxu3lfsnl0qw7q2dthprs64q0fnau7vy20ts0n9ae2kvxkqd0zmnl4kchcaprh7ssyyuf2"],"fee":212713,"totalOutput":1541176432,"tokens":[]},{"hash":"bc3b6072177e2a23fd4a3498006d91816556707701cb46e88571a3a52b672817","blockNo":8425745,"blockHash":"71ea88c0e7f1620cc570d4bb291a607f998364168e244aae346faac1a3ca211c","epochNo":395,"epochSlotNo":106666,"slot":85383466,"time":"2023/02/21 03:22:37","addressesInput":["addr1qyqrxe9w84karz9k72wgxuw5u96vjxu3lfsnl0qw7q2dthprs64q0fnau7vy20ts0n9ae2kvxkqd0zmnl4kchcaprh7ssyyuf2","addr1qyqrxe9w84karz9k72wgxuw5u96vjxu3lfsnl0qw7q2dthprs64q0fnau7vy20ts0n9ae2kvxkqd0zmnl4kchcaprh7ssyyuf2","addr1qyqrxe9w84karz9k72wgxuw5u96vjxu3lfsnl0qw7q2dthprs64q0fnau7vy20ts0n9ae2kvxkqd0zmnl4kchcaprh7ssyyuf2","addr1qyqrxe9w84karz9k72wgxuw5u96vjxu3lfsnl0qw7q2dthprs64q0fnau7vy20ts0n9ae2kvxkqd0zmnl4kchcaprh7ssyyuf2"],"addressesOutput":["addr1wxn9efv2f6w82hagxqtn62ju4m293tqvw0uhmdl64ch8uwc0h43gt","addr1qyqrxe9w84karz9k72wgxuw5u96vjxu3lfsnl0qw7q2dthprs64q0fnau7vy20ts0n9ae2kvxkqd0zmnl4kchcaprh7ssyyuf2"],"fee":184773,"totalOutput":1088355224,"tokens":[]},{"hash":"9d470ec3cbdd7855c7caecb2efa9ff241f640147cddd971a1895322a2b53707c","blockNo":8425745,"blockHash":"71ea88c0e7f1620cc570d4bb291a607f998364168e244aae346faac1a3ca211c","epochNo":395,"epochSlotNo":106666,"slot":85383466,"time":"2023/02/21 03:22:37","addressesInput":["addr1q9mxmacqslgweh620lmh6w8qz4g5s45tkc0c3sw0ln5nfyuhdjv2kmr8rjfnc0jq62rqcmtluge3hgz0kwp29gezgqlsljxzyt","addr1q9mxmacqslgweh620lmh6w8qz4g5s45tkc0c3sw0ln5nfyuhdjv2kmr8rjfnc0jq62rqcmtluge3hgz0kwp29gezgqlsljxzyt"],"addressesOutput":["addr1wxaptpmxcxawvr3pzlhgnpmzz3ql43n2tc8mn3av5kx0yzs09tqh8","addr1q9mxmacqslgweh620lmh6w8qz4g5s45tkc0c3sw0ln5nfyuhdjv2kmr8rjfnc0jq62rqcmtluge3hgz0kwp29gezgqlsljxzyt"],"fee":180769,"totalOutput":10815722903,"tokens":[]},{"hash":"7f99dd21af4b936d6e04327ef163c60cafe91c087379b9add3353d95b95f21e1","blockNo":8425745,"blockHash":"71ea88c0e7f1620cc570d4bb291a607f998364168e244aae346faac1a3ca211c","epochNo":395,"epochSlotNo":106666,"slot":85383466,"time":"2023/02/21 03:22:37","addressesInput":["addr1qyqrxe9w84karz9k72wgxuw5u96vjxu3lfsnl0qw7q2dthprs64q0fnau7vy20ts0n9ae2kvxkqd0zmnl4kchcaprh7ssyyuf2"],"addressesOutput":["addr1wxaptpmxcxawvr3pzlhgnpmzz3ql43n2tc8mn3av5kx0yzs09tqh8","addr1qyqrxe9w84karz9k72wgxuw5u96vjxu3lfsnl0qw7q2dthprs64q0fnau7vy20ts0n9ae2kvxkqd0zmnl4kchcaprh7ssyyuf2"],"fee":250000,"totalOutput":1426629864,"tokens":[]}],"totalItems":61687115,"totalPages":3084356,"currentPage":0}