{"data":[{"blockNo":7923584,"slotNo":75022468,"epochNo":371,"epochSlotNo":113668,"hash":"56e459e2c2b652b5b0c611e591251c352ba573fb3060ac788781ef10a12937bd","time":"2022/10/24 05:19:19","txCount":34,"totalFees":10949272,"totalOutput":15410926240356,"slotLeader":"012abf0f0a65192fcba3e5e305fe13478f0cd58f271873b0f20ddb10"},{"blockNo":7923583,"slotNo":75022427,"epochNo":371,"epochSlotNo":113627,"hash":"b04eeb7060be957f6a2e63141707e876b708a8135d31971d84fe968a9088a250","time":"2022/10/24 05:18:38","txCount":15,"totalFees":4488519,"totalOutput":2197601792,"slotLeader":"9ad2692a4865c5999f27d65baf170be5ba38b25489c8e21007193edd"},{"blockNo":7923582,"slotNo":75022410,"epochNo":371,"epochSlotNo":113610,"hash":"fee925c5b01019f4387a2dadf9887ff282e1d202ac60d979022595d31860538a","time":"2022/10/24 05:18:21","txCount":5,"totalFees":1928005,"totalOutput":2065700353989,"slotLeader":"7c6b4a731eec6bef00e16ec4c990e7a817f61597dab1033006563ad7"},{"blockNo":7923581,"slotNo":75022403,"epochNo":371,"epochSlotNo":113603,"hash":"94946797f29da8309ed13443ee6a84f55dd7d7c0a8400667befe18218342f7c9","time":"2022/10/24 05:18:14","txCount":8,"totalFees":2358100,"totalOutput":6941086955,"slotLeader":"cdb10209d937fc1559c635e35b9147febde5307b4a7d276f868775cd"},{"blockNo":7923580,"slotNo":75022389,"epochNo":371,"epochSlotNo":113589,"hash":"3589985cde375f86b48e6e4ce8c3a7fa8db2a4b3751cea309ea7237db60d3b29","time":"2022/10/24 05:18:00","txCount":15,"totalFees":4213669,"totalOutput":148414341909,"slotLeader":"455778840915ea2ec843bfee7269c1e0963b08ce5d1cdf029e39cb59"},{"blockNo":7923579,"slotNo":75022372,"epochNo":371,"epochSlotNo":113572,"hash":"110232f9ffbe12311584e3d0491289a90fd673ead05f639d6929d64d3ee92310","time":"2022/10/24 05:17:43","txCount":21,"totalFees":8039120,"totalOutput":3738953602832,"slotLeader":"d7513627b3d50819c1c84687bfd15f02f00cd11c37d7935a67540089"},{"blockNo":7923578,"slotNo":75022333,"epochNo":371,"epochSlotNo":113533,"hash":"8313dd16b250d122bd92479d1d8ed5a20b2e8f7af8f867a4646bbf49c771d6c4","time":"2022/10/24 05:17:04","txCount":15,"totalFees":5676522,"totalOutput":6402639133343,"slotLeader":"3e695a66ff6e2ed3806701bc0f6e8dfc85db114b71864999425147c5"},{"blockNo":7923577,"slotNo":75022314,"epochNo":371,"epochSlotNo":113514,"hash":"d0cc983065aa07c7cc94b984a2a33ab3c8870bfbe4649bf83ed6165db7c75901","time":"2022/10/24 05:16:45","txCount":13,"totalFees":4564377,"totalOutput":1107586899658,"slotLeader":"cb11e3e5013a120ee55e8d99bdb7395366bd3164d3da1737300a2b7e"},{"blockNo":7923576,"slotNo":75022296,"epochNo":371,"epochSlotNo":113496,"hash":"1756cfb0581c000262e3752c2c1b28ee9dbd95551170ba7903f86a7afdb70b04","time":"2022/10/24 05:16:27","txCount":20,"totalFees":6932952,"totalOutput":458678699951,"slotLeader":"95c4956f7a137f7fe9c72f2e831e6038744b6307d00143b2447e6443"},{"blockNo":7923575,"slotNo":75022260,"epochNo":371,"epochSlotNo":113460,"hash":"5ef41c5cc2b2bf73951f781ab5ddb0ad187656c0c34d3f577fb209ab6373fc43","time":"2022/10/24 05:15:51","txCount":7,"totalFees":1556409,"totalOutput":2893030083,"slotLeader":"4b11b32e3a39fb417f5dddd9d058abdb2d1fdcd64360bee8928e05c2"},{"blockNo":7923574,"slotNo":75022247,"epochNo":371,"epochSlotNo":113447,"hash":"791a5f5e25f506320d99a04200a37ef50142be6f6af69aa0e4bcc6d49c10db1c","time":"2022/10/24 05:15:38","txCount":19,"totalFees":6530297,"totalOutput":7211302779646,"slotLeader":"6539a70bb6e61540444133eab3a24288d1cd3ddc3598adde93475513"},{"blockNo":7923573,"slotNo":75022223,"epochNo":371,"epochSlotNo":113423,"hash":"52c13145feb22c0449e05807a9ebe32c45deadaae5cb603df5b9fbf915e7c1b2","time":"2022/10/24 05:15:14","txCount":17,"totalFees":5655784,"totalOutput":16203578756307,"slotLeader":"6658713e2cbfa4e347691a0435953f5acbe9f03d330e94caa3a0cfb4"},{"blockNo":7923572,"slotNo":75022200,"epochNo":371,"epochSlotNo":113400,"hash":"e760a67bc5c34c44ab5f208b337a1b4ae4db095b50c241d53c9c28937aeed9d2","time":"2022/10/24 05:14:51","txCount":7,"totalFees":1533427,"totalOutput":1294199786,"slotLeader":"bdd750e173f3d606c1af13b8661da7c0b5fa43121741c593cceec822"},{"blockNo":7923571,"slotNo":75022193,"epochNo":371,"epochSlotNo":113393,"hash":"5f1ae9287f8ef04792f3d425aac0126ad6e897b09e782a5c10f39a986505d553","time":"2022/10/24 05:14:44","txCount":16,"totalFees":6296090,"totalOutput":3974403160867,"slotLeader":"0322ccfd1f68a8a288057d64428123bb6efed9d6b5c9fe2864db7507"},{"blockNo":7923570,"slotNo":75022173,"epochNo":371,"epochSlotNo":113373,"hash":"7d7289513dd8ddbbb18fccfdf73fa709c8dc07112697d4f906fd39db9658754c","time":"2022/10/24 05:14:24","txCount":12,"totalFees":4268462,"totalOutput":176649237360,"slotLeader":"fdb0d8ba88d434c8dd3ab3974a3401efc7b016e54c7387c63398aec4"},{"blockNo":7923569,"slotNo":75022152,"epochNo":371,"epochSlotNo":113352,"hash":"af27a8691c4b8e712390ee0935762f167ba7e416b365a4aa8007a142c21b756a","time":"2022/10/24 05:14:03","txCount":6,"totalFees":1675720,"totalOutput":5162864785,"slotLeader":"aa65bf8422f6b5af3a1197e9fe6649539025f2e18257cfb2f1e631aa"},{"blockNo":7923568,"slotNo":75022140,"epochNo":371,"epochSlotNo":113340,"hash":"452e1dbf8f99aa35d6166052de2fed5ce5d127b06e4f594234865c28b92839d1","time":"2022/10/24 05:13:51","txCount":1,"totalFees":168053,"totalOutput":161690882,"slotLeader":"fb4b7b76ea6d857f442cb9569d186f328fc846bb83222c3150ec3346"},{"blockNo":7923567,"slotNo":75022131,"epochNo":371,"epochSlotNo":113331,"hash":"c54b7d070ea1bba5a5d550bf2d6f7176bde7e68a974cc018252e609b32ebf372","time":"2022/10/24 05:13:42","txCount":7,"totalFees":1738077,"totalOutput":4348645890445,"slotLeader":"87dc693d71a7a9f33c69728d1179a04ab520fe14d682d711acfd9f24"},{"blockNo":7923566,"slotNo":75022124,"epochNo":371,"epochSlotNo":113324,"hash":"6ea9543775cef80ab5e18a0caf299657ce4da98d64fe73a5bbcc765a196cfa73","time":"2022/10/24 05:13:35","txCount":1,"totalFees":212317,"totalOutput":23363665,"slotLeader":"37303e39c681371e158fdd7268f4546d581114dc3fbcc87cbc6856f0"},{"blockNo":7923565,"slotNo":75022123,"epochNo":371,"epochSlotNo":113323,"hash":"9952bb811cff2fc7a0bae419f0157efa3cd47ad9104262c08d3d6377274e79f2","time":"2022/10/24 05:13:34","txCount":13,"totalFees":4696192,"totalOutput":5976435249765,"slotLeader":"2313599837d144bdbd6897a3cdecc0ad2c995f38275aad6626c29ef5"}],"totalItems":7923760,"totalPages":396188,"currentPage":0}