{"data":[{"blockNo":8295586,"slotNo":82676959,"epochNo":388,"epochSlotNo":424159,"hash":"6168a89f3704a9dbe5a00e4e419f1b681d6d053d461973ced92499eb44263f19","time":"2023/01/20 19:34:10","txCount":28,"totalFees":10643893,"totalOutput":3525554505840,"slotLeader":"d68eed68381b65beb04fc7984dfa156c4dbf53c7911e900af6a535ef"},{"blockNo":8295585,"slotNo":82676922,"epochNo":388,"epochSlotNo":424122,"hash":"ee6349e850f21d7f4b64f816306b9b5eaa04fa9d00450e7d1b3aaeab765c920c","time":"2023/01/20 19:33:33","txCount":16,"totalFees":5164400,"totalOutput":391804589132,"slotLeader":"c7e431518477a4156c2a8cd6523a6a73514e7fbbbf7eed363b9a22ad"},{"blockNo":8295584,"slotNo":82676900,"epochNo":388,"epochSlotNo":424100,"hash":"d2c4e235c11bb3334710198cdeb4559055d9d0861803f261181aca8363379966","time":"2023/01/20 19:33:11","txCount":10,"totalFees":3283836,"totalOutput":6023545767,"slotLeader":"2a748e3885f6f73320ad16a8331247b81fe01b8d39f57eec9caa5091"},{"blockNo":8295583,"slotNo":82676892,"epochNo":388,"epochSlotNo":424092,"hash":"659f9f2c9389d5ffb7ce24954f89af85c1d43ee48da1c538b44462aac09d7c3b","time":"2023/01/20 19:33:03","txCount":14,"totalFees":3336916,"totalOutput":7995571214,"slotLeader":"4ebf3e184e2bf7b6c4a5998126088432369ade380fa5a08690f1b618"},{"blockNo":8295582,"slotNo":82676874,"epochNo":388,"epochSlotNo":424074,"hash":"d4b66a1bf912033c1067eb7f1093a84b9ea5644fad79af82d9d230610398e2e2","time":"2023/01/20 19:32:45","txCount":48,"totalFees":15569907,"totalOutput":3124400613967,"slotLeader":"662796197f741c9b9f0d9830530d01300ee5c63f549784ff2ac81c17"},{"blockNo":8295581,"slotNo":82676801,"epochNo":388,"epochSlotNo":424001,"hash":"2cb0678c85d824a8ac7cee7f5572b98b61cd4d0745f210e0f5a95931c68259e0","time":"2023/01/20 19:31:32","txCount":2,"totalFees":451890,"totalOutput":39983702238,"slotLeader":"b0c53bbb91bd03c5417c87c7488a83de68f5ea27aefb886c9fc4ff27"},{"blockNo":8295580,"slotNo":82676796,"epochNo":388,"epochSlotNo":423996,"hash":"970d31338df3234de27273f2ec4ed4d049b5e92553333c4b01da1dff964df046","time":"2023/01/20 19:31:27","txCount":0,"totalFees":0,"totalOutput":0,"slotLeader":"fd30f95effb4f28920020901e3a4ad04f4d3585bc46953de762e8c0c"},{"blockNo":8295579,"slotNo":82676795,"epochNo":388,"epochSlotNo":423995,"hash":"448e4f370a97555ee40805fe2cf7a57335ec255802c629d5a26fa4f189710bee","time":"2023/01/20 19:31:26","txCount":39,"totalFees":15236815,"totalOutput":3952242933532,"slotLeader":"4690a6bcbfc9eedd4d8595c9d665cd9b8ebe3e6d82ebf0120d7bc7c5"},{"blockNo":8295578,"slotNo":82676777,"epochNo":388,"epochSlotNo":423977,"hash":"bd47d8c60d132562b75c34d4ce24b06306f11a1ad0b7eb94d332bc4cd8336ab8","time":"2023/01/20 19:31:08","txCount":16,"totalFees":7091267,"totalOutput":39935313818,"slotLeader":"a503e42a2c6ef347d834fa404fa4d4bfa6dfb48256ff95b067483980"},{"blockNo":8295577,"slotNo":82676722,"epochNo":388,"epochSlotNo":423922,"hash":"21941ad92f171000b01d68318d9c2c2cdad83dcc627da2c794462b23e8d853ad","time":"2023/01/20 19:30:13","txCount":32,"totalFees":10343718,"totalOutput":6783508492818,"slotLeader":"e66b34646251e760c1701d0348819fa73e08c97bffe55d91ed7cd472"},{"blockNo":8295576,"slotNo":82676691,"epochNo":388,"epochSlotNo":423891,"hash":"77d703695c02f8d39927bfc30da146d8b76c58cd7f180e58a37fb669de2ff356","time":"2023/01/20 19:29:42","txCount":14,"totalFees":4466387,"totalOutput":2573960355309,"slotLeader":"ce19882fd62e79faa113fcaef93950a4f0a5913b20a0689911b6f62d"},{"blockNo":8295575,"slotNo":82676674,"epochNo":388,"epochSlotNo":423874,"hash":"75a4ab6ff1cc6a2c18336cbb646ec05bd31a0bcd49ed1365046c9bdafcf657b6","time":"2023/01/20 19:29:25","txCount":18,"totalFees":6777466,"totalOutput":1843327099711,"slotLeader":"39580d748f45b855d81852e334cad199cfbdaa281ed3d81e8a90f8ed"},{"blockNo":8295574,"slotNo":82676654,"epochNo":388,"epochSlotNo":423854,"hash":"4117f4844bdcb70f4732e4c1ebef29f53acb927619f92498b4c5e7e6c4863d39","time":"2023/01/20 19:29:05","txCount":18,"totalFees":5862299,"totalOutput":47116646465,"slotLeader":"d66b1218d56cb0c9c3937207b3ae61bbff21ae212ae791722062f0e1"},{"blockNo":8295573,"slotNo":82676642,"epochNo":388,"epochSlotNo":423842,"hash":"fcdc2643987c83c07daa6f304ad4617810c8f7f5766e05962a5049b35d3efa69","time":"2023/01/20 19:28:53","txCount":26,"totalFees":8767774,"totalOutput":2608861716320,"slotLeader":"a5b36528fbbb2709e1b29fbdc3816399ef2bd1c916efa416aa325f1a"},{"blockNo":8295572,"slotNo":82676612,"epochNo":388,"epochSlotNo":423812,"hash":"d0a1de3ca2dbf0621748d13d4820b534bc70a6df693f88876402eb5f85c9dcad","time":"2023/01/20 19:28:23","txCount":30,"totalFees":9102731,"totalOutput":311209121970,"slotLeader":"9418abb33c7cf50778598371bc1f09fe5460d1dedf740faea665f4ac"},{"blockNo":8295571,"slotNo":82676584,"epochNo":388,"epochSlotNo":423784,"hash":"36c170ddb4ae72738914be20c0179839091277992d453c923d9e39165819da9f","time":"2023/01/20 19:27:55","txCount":20,"totalFees":4934567,"totalOutput":331103866808,"slotLeader":"c80d3b1f64feed0697bb97c97867a63ff1c33cb8b472bc33fdfa457e"},{"blockNo":8295570,"slotNo":82676559,"epochNo":388,"epochSlotNo":423759,"hash":"82621109635a69ee6a904e8d29339a312a516014f26da343509f8ff3c259d777","time":"2023/01/20 19:27:30","txCount":10,"totalFees":3260252,"totalOutput":91483174252,"slotLeader":"be80794a946cf5e578846fc81e3c62ac13f4ab3335e0f5dc046edad4"},{"blockNo":8295569,"slotNo":82676536,"epochNo":388,"epochSlotNo":423736,"hash":"6b2e2001c30290d6089f2e56a4bc5cc3996384f0f3889465b41dcacd3ecfba1e","time":"2023/01/20 19:27:07","txCount":27,"totalFees":9164221,"totalOutput":3749951917590,"slotLeader":"fc2d8488ef021561a83af7b56f973b94cfcfd8100433ee6fd0b0aa45"},{"blockNo":8295568,"slotNo":82676502,"epochNo":388,"epochSlotNo":423702,"hash":"5d2046598157e9a449c0355ae2a50038b8ce73a76d2b73efb940a81f06578738","time":"2023/01/20 19:26:33","txCount":16,"totalFees":5175142,"totalOutput":1952189982680,"slotLeader":"2382bac66b58a4df1cf1775285529bbbefb9102ecea991e1da0aa064"},{"blockNo":8295567,"slotNo":82676480,"epochNo":388,"epochSlotNo":423680,"hash":"eedcb1c8182b5c4efe9711dd0345427ac9166c2589682340d4941a02079a4786","time":"2023/01/20 19:26:11","txCount":6,"totalFees":1210542,"totalOutput":24300364425,"slotLeader":"153806dbcd134ddee69a8c5204e38ac80448f62342f8c23cfe4b7edf"}],"totalItems":8295762,"totalPages":414789,"currentPage":0}