{"data":[{"blockNo":6852396,"slotNo":52663966,"epochNo":319,"epochSlotNo":219166,"hash":"8c785aba09b28bd8d1f765de4ff73590a99fc46719a633d54ba682bc9c683b9f","time":"2022/02/07 10:37:37","txCount":60,"totalFees":16896596,"totalOutput":818442953854,"slotLeader":"41c8a40ab0b78d727655d165f946722728dfb01df2fcc2e148b3c98d"},{"blockNo":6852395,"slotNo":52663939,"epochNo":319,"epochSlotNo":219139,"hash":"0c5b4e17d7c8e60ecef9e25cc93774159cffb65952b82dee6aa0b2b1eb617cee","time":"2022/02/07 10:37:10","txCount":21,"totalFees":10083742,"totalOutput":12546984181,"slotLeader":"09d372205e474b745eeedd87aa86295cfdef9b85991ad640101756bc"},{"blockNo":6852394,"slotNo":52663929,"epochNo":319,"epochSlotNo":219129,"hash":"ea2e51dec601d1a1725175e0e53ff66d29f86310ad9fe286c7bb5b2a90f4e8c5","time":"2022/02/07 10:37:00","txCount":10,"totalFees":8287008,"totalOutput":13300851225191,"slotLeader":"74b26596160232737854ec18cde45feff530cac762bade758bd27372"},{"blockNo":6852393,"slotNo":52663924,"epochNo":319,"epochSlotNo":219124,"hash":"b9d612375e0414e473da82bc8d90cb6d91728a7f17f688f507d35c28162c2571","time":"2022/02/07 10:36:55","txCount":38,"totalFees":13558918,"totalOutput":4611707918,"slotLeader":"41c8a40ab0b78d727655d165f946722728dfb01df2fcc2e148b3c98d"},{"blockNo":6852392,"slotNo":52663888,"epochNo":319,"epochSlotNo":219088,"hash":"63dd614f72f03dc7439881c54e7c6fccec30d89176edbffe5feba67706570cd5","time":"2022/02/07 10:36:19","txCount":41,"totalFees":14190924,"totalOutput":10052540690005,"slotLeader":"6658713e2cbfa4e347691a0435953f5acbe9f03d330e94caa3a0cfb4"},{"blockNo":6852391,"slotNo":52663872,"epochNo":319,"epochSlotNo":219072,"hash":"b3815f46836082555af32b26f51fe26dbf78e5c46610d89b26e3827205cabd8f","time":"2022/02/07 10:36:03","txCount":24,"totalFees":10084492,"totalOutput":16415828633,"slotLeader":"ffb3fe58689ae0d70d6fb939a842ee78ecfa10eab561274327e78b7b"},{"blockNo":6852390,"slotNo":52663870,"epochNo":319,"epochSlotNo":219070,"hash":"593fa3baea3af9bf90d6c01ee4c50e5026c31096ede5a76966ec2dcfa6b30ba9","time":"2022/02/07 10:36:01","txCount":30,"totalFees":12416932,"totalOutput":1103229921809,"slotLeader":"970e9a7ae4677b152c27a0eba3db996b372de094d24fc2974768f3da"},{"blockNo":6852389,"slotNo":52663847,"epochNo":319,"epochSlotNo":219047,"hash":"2187bdccf9df5840bdf9c171284ad1f2bdda52c165bc268e5a6cea14d1f7c822","time":"2022/02/07 10:35:38","txCount":13,"totalFees":9183026,"totalOutput":5181298144455,"slotLeader":"105a6816701a47f2fd43239a9340606640913012811485543bb05968"},{"blockNo":6852388,"slotNo":52663823,"epochNo":319,"epochSlotNo":219023,"hash":"cf8c11c4f23f4c20b56d54ac044de5509345225d6edc3264e4192bbe3a50bcd8","time":"2022/02/07 10:35:14","txCount":24,"totalFees":10258991,"totalOutput":1916426317499,"slotLeader":"d7513627b3d50819c1c84687bfd15f02f00cd11c37d7935a67540089"},{"blockNo":6852387,"slotNo":52663814,"epochNo":319,"epochSlotNo":219014,"hash":"9ec8bfbfce51109f09dee1bb99908e149770a6727143a5c1425fe1218eb21870","time":"2022/02/07 10:35:05","txCount":15,"totalFees":7657771,"totalOutput":4007033490,"slotLeader":"d679d78bbfefe7e03e05e7a42f9088075af0f15f501a631c67e64037"}],"totalItems":10298,"totalPages":1030,"currentPage":0}