{"data":[{"blockNo":8264035,"slotNo":82032850,"epochNo":387,"epochSlotNo":212050,"hash":"413212f0838e9efe876a2e7657e30de660823e0f502b18d817daa1fc354805e0","time":"2023/01/13 08:39:01","txCount":5,"totalFees":1366463,"totalOutput":251901004302,"slotLeader":"aa8b94010cd3c7199be1d619079c184a59e6f1ad930926bc2bd38579"},{"blockNo":8264034,"slotNo":82032835,"epochNo":387,"epochSlotNo":212035,"hash":"f234e58d806842b7438c53faf52c503b3239f1a3d90cebf8917404279692e2db","time":"2023/01/13 08:38:46","txCount":8,"totalFees":3001129,"totalOutput":14677448728,"slotLeader":"82906c841da0f4010b2fa1a2c3726b5571b02eea6abfb48d7c6a4184"},{"blockNo":8264033,"slotNo":82032818,"epochNo":387,"epochSlotNo":212018,"hash":"2ff0f23cfa785af8130497337fcb4ec004c77d10f05dcc4b1badc43b2e762860","time":"2023/01/13 08:38:29","txCount":12,"totalFees":2692873,"totalOutput":6131560296,"slotLeader":"c80d3b1f64feed0697bb97c97867a63ff1c33cb8b472bc33fdfa457e"},{"blockNo":8264032,"slotNo":82032801,"epochNo":387,"epochSlotNo":212001,"hash":"4cca5e186ceb589ec0f3b3da2f0fb7f5a7f0fb3cfed9e732da5b626bdbc5dd30","time":"2023/01/13 08:38:12","txCount":13,"totalFees":4718760,"totalOutput":2986618425494,"slotLeader":"c4ded02c3f7275e4b6157dd164bf941eea0af4596501c5ed16752ed2"},{"blockNo":8264031,"slotNo":82032788,"epochNo":387,"epochSlotNo":211988,"hash":"a3be8c3e6b11e10ccbc62532de11ed63191d394fd00ef59aaff4c9e990ee6c6f","time":"2023/01/13 08:37:59","txCount":5,"totalFees":1835614,"totalOutput":118306154813,"slotLeader":"e455088c9164ae075f0300bc1a7234c30433556c6b88d4301a06cfe5"},{"blockNo":8264030,"slotNo":82032772,"epochNo":387,"epochSlotNo":211972,"hash":"4d82ff51c1b15f03ad4cc5e219fbf07c969d03c009df11d5c3090e7197ec93cd","time":"2023/01/13 08:37:43","txCount":4,"totalFees":1079064,"totalOutput":2274845768257,"slotLeader":"16d7b39329f79540967e35631dd1f6630a608a5c94e642ee8b2e9e8a"},{"blockNo":8264029,"slotNo":82032765,"epochNo":387,"epochSlotNo":211965,"hash":"345cc7592e8a36c4f4cbeb3c43869012c79c531f25934ed29014dc78175356e9","time":"2023/01/13 08:37:36","txCount":4,"totalFees":1529717,"totalOutput":1547280338,"slotLeader":"b3cc3005f1dccbc88230eb66d6e99c2f1bfa32273044473e17d9e10b"},{"blockNo":8264028,"slotNo":82032753,"epochNo":387,"epochSlotNo":211953,"hash":"083a2d95410799670b1f4e8b293ed61404916db005ffaaa4c66e71d5219d3cee","time":"2023/01/13 08:37:24","txCount":10,"totalFees":3503968,"totalOutput":10078260087,"slotLeader":"92bda83eb105d569b23cb6fa1d407dd42de0d2d7e6562718b7ac5c02"},{"blockNo":8264027,"slotNo":82032739,"epochNo":387,"epochSlotNo":211939,"hash":"98b5c504fb6e8b354ee9e799bff4862de41d57e288cf5f61a8d0ff26df4a3e8a","time":"2023/01/13 08:37:10","txCount":17,"totalFees":5902683,"totalOutput":6551503484577,"slotLeader":"47605a7c1fc5e8195335fb91e3a0df07adb2993c1a5b4a78d55a1d6a"},{"blockNo":8264026,"slotNo":82032722,"epochNo":387,"epochSlotNo":211922,"hash":"8e1bdb48b35034c300dc930b1bf3b40757aebb06bffb60c45bd03f772ef1fc44","time":"2023/01/13 08:36:53","txCount":3,"totalFees":739451,"totalOutput":1472100141,"slotLeader":"40fd2f82c5b6eeee096d761c9d4c8352f3901467bd49a5658f30c6c2"}],"totalItems":10298,"totalPages":1030,"currentPage":0}