{"data":[{"blockNo":8108457,"slotNo":78842111,"epochNo":380,"epochSlotNo":45311,"hash":"1140a3e14d4da57c473b7515b00dd83b4fc5456ce97302b286a61d333a4bf8e7","time":"2022/12/07 10:20:02","txCount":24,"totalFees":7943959,"totalOutput":3180516944764,"slotLeader":"a3d7b1f62e5ee8cbb833f4db6e45b2c39f17eecc1d2a1bf90c407dc4"},{"blockNo":8108456,"slotNo":78842080,"epochNo":380,"epochSlotNo":45280,"hash":"695695c4ef802eb40fa7cc08efc2ca83d0507270c8c6051e1680a81e84f5b56b","time":"2022/12/07 10:19:31","txCount":22,"totalFees":5282798,"totalOutput":321674090672,"slotLeader":"b43a281762c70838ed2363aa76e28eb2212c644bed89bdb3d209bf9f"},{"blockNo":8108455,"slotNo":78842050,"epochNo":380,"epochSlotNo":45250,"hash":"8be2c1f7de04cb620fca934e2aee10d64534ededbcb36ee2efbed43a07fc8ba1","time":"2022/12/07 10:19:01","txCount":12,"totalFees":5288657,"totalOutput":6038691717861,"slotLeader":"e7cc5cce7c9a06bc7310f8c222c702cd12d6fd05d5dee748f10e9218"},{"blockNo":8108454,"slotNo":78842037,"epochNo":380,"epochSlotNo":45237,"hash":"2c826bd182ea4d9b45138bb515ff56e06e287202e7f26da7f9e7df67cf5c62c9","time":"2022/12/07 10:18:48","txCount":2,"totalFees":1772593,"totalOutput":6631867954,"slotLeader":"cf2b0acb72eecb56a05ba6b79922d4b47fedfb93b168a2eb1e5fa260"},{"blockNo":8108453,"slotNo":78842033,"epochNo":380,"epochSlotNo":45233,"hash":"6f05d46ae024d8046a4f640e70980827b240068eab946966c12dbecb23f34bd3","time":"2022/12/07 10:18:44","txCount":11,"totalFees":3444276,"totalOutput":155464885408,"slotLeader":"79c4d4fe108f480fee98f307adac12571df2959651f833b595141cd1"},{"blockNo":8108452,"slotNo":78842019,"epochNo":380,"epochSlotNo":45219,"hash":"7ce018146e60ca7e8bd5d8f59fa055b0d242cebb2ec98319c0ab6f4d9c6b93f3","time":"2022/12/07 10:18:30","txCount":16,"totalFees":5294738,"totalOutput":10514153841,"slotLeader":"9ca4378a7ee308d910efd7a611a1df2181314c25723ff4cfa855664c"},{"blockNo":8108451,"slotNo":78841995,"epochNo":380,"epochSlotNo":45195,"hash":"b621e1838b8261db1bb0392b5091c99b7b9e6668476594ea084d795ba64fb2ea","time":"2022/12/07 10:18:06","txCount":12,"totalFees":4056207,"totalOutput":5812659335299,"slotLeader":"34812765ebf71de725a4431652e68e96382d64da1e0ca0bf5ee80c1d"},{"blockNo":8108450,"slotNo":78841978,"epochNo":380,"epochSlotNo":45178,"hash":"f457643bbfb80117d5a843d392cb782c5c622d67e6b4b496762ccdef57e21160","time":"2022/12/07 10:17:49","txCount":14,"totalFees":4178372,"totalOutput":7726308211,"slotLeader":"d785ff6a030ae9d521770c00f264a2aa423e928c85fc620b13d46eda"},{"blockNo":8108449,"slotNo":78841956,"epochNo":380,"epochSlotNo":45156,"hash":"55ea604df219680d986871d299d5f1e80e5d78f0211228c2a226cb38f44bb8d9","time":"2022/12/07 10:17:27","txCount":28,"totalFees":6237694,"totalOutput":129418811058,"slotLeader":"2a748e3885f6f73320ad16a8331247b81fe01b8d39f57eec9caa5091"},{"blockNo":8108448,"slotNo":78841915,"epochNo":380,"epochSlotNo":45115,"hash":"c71b8b31a386a70a4bf67fa7b75b16bb35e85e0119fa60ca685d77f88d3755e6","time":"2022/12/07 10:16:46","txCount":49,"totalFees":13291710,"totalOutput":28394001573072,"slotLeader":"f76e3a1104a9d816a67d5826a155c9e2979a839d0d944346d47e33ab"}],"totalItems":2134,"totalPages":214,"currentPage":0}