{"data":[{"blockNo":7870530,"slotNo":73936133,"epochNo":368,"epochSlotNo":323333,"hash":"98576b597b36824294640b00cb98b8ce00fd2ee3cd53a9e2d1ce3cfd16b45a5e","time":"2022/10/11 15:33:44","txCount":17,"totalFees":5500245,"totalOutput":745091121009,"slotLeader":"087cb9a9dab66751853893b0de0628aee88c36f82fd0c1ee3b998548"},{"blockNo":7870529,"slotNo":73936116,"epochNo":368,"epochSlotNo":323316,"hash":"4ac4395ef83a13f062f8955b47e4914d7b936b6a96eaabffd590773fcb76b234","time":"2022/10/11 15:33:27","txCount":8,"totalFees":3074258,"totalOutput":1455501331,"slotLeader":"a374a14d2fa809b5e999a474b5d085b10be2fc95e6e82da045d9e8f6"},{"blockNo":7870528,"slotNo":73936104,"epochNo":368,"epochSlotNo":323304,"hash":"55d27c88f8bdb04fb2328bcc8814a1733b7730e00018218c358727d8d2d71d6a","time":"2022/10/11 15:33:15","txCount":21,"totalFees":7805453,"totalOutput":84174986552,"slotLeader":"a3e71398e80739522e907c35b8f652064e5268e62e9b78a9603f6b98"},{"blockNo":7870527,"slotNo":73936080,"epochNo":368,"epochSlotNo":323280,"hash":"528ab1fec0e422cb09b698f76e4ab31c6cedf26b54cdcf25614fcac8e252dc6a","time":"2022/10/11 15:32:51","txCount":49,"totalFees":16117375,"totalOutput":22056467081102,"slotLeader":"83b259c187f8b88eda564b1f56ce2786360a9dc224f737fcdd8703c1"},{"blockNo":7870526,"slotNo":73936030,"epochNo":368,"epochSlotNo":323230,"hash":"beebaf6bca70ddf60f36ccd66afcb2b55b71b10405eeaa8d74bc9f0e0c882375","time":"2022/10/11 15:32:01","txCount":7,"totalFees":2135458,"totalOutput":22706035554,"slotLeader":"30f9a4c529f89d60ad1bd1c33c0e13c20b347fec7cac794c557efcee"},{"blockNo":7870525,"slotNo":73936019,"epochNo":368,"epochSlotNo":323219,"hash":"feb5dec9b502f78306c141c6c4bebe366d65b44b85ddc4120431421e9f0974bb","time":"2022/10/11 15:31:50","txCount":30,"totalFees":10261978,"totalOutput":1257194939332,"slotLeader":"351a90a0253fb3595ccc460438b9947cd8a0b9a7f457f3478bbb31d8"},{"blockNo":7870524,"slotNo":73935979,"epochNo":368,"epochSlotNo":323179,"hash":"6f13bb5831cfbd09765f5a96ca623b17cc9ecf210479490d78c4e39048b1a5a4","time":"2022/10/11 15:31:10","txCount":1,"totalFees":266601,"totalOutput":2282427699,"slotLeader":"43bf2e2c7601bd6dfb38564fc2c48f5b1a773fdb4095dee412f52e50"},{"blockNo":7870523,"slotNo":73935978,"epochNo":368,"epochSlotNo":323178,"hash":"0469b879554279b0bf4d811b538d7772d4c3da996570932c25f45447dfeb7c22","time":"2022/10/11 15:31:09","txCount":2,"totalFees":549674,"totalOutput":1794124765,"slotLeader":"6539a70bb6e61540444133eab3a24288d1cd3ddc3598adde93475513"},{"blockNo":7870522,"slotNo":73935975,"epochNo":368,"epochSlotNo":323175,"hash":"5936ace283150b0d85dafbb397bc2b6f773f2d1b309560de990c17300351be71","time":"2022/10/11 15:31:06","txCount":20,"totalFees":4615782,"totalOutput":240443047689,"slotLeader":"2cdc5cef88f1c15e19c33fd8f47d9bd89c3d7ee4fa09512fbd44a126"},{"blockNo":7870521,"slotNo":73935955,"epochNo":368,"epochSlotNo":323155,"hash":"33ff4da616687dff854445c38557a0f8ebf733b719f03caebb260145b2a6bc8c","time":"2022/10/11 15:30:46","txCount":4,"totalFees":883789,"totalOutput":15439986226,"slotLeader":"7782b3a9574a1d179a767064213e03a061995a006e1aeafdfb8463f8"},{"blockNo":7870520,"slotNo":73935952,"epochNo":368,"epochSlotNo":323152,"hash":"52fbed528fd4df9f1ddf651477afda18cbf79eca00e7de5672309804d1fdd950","time":"2022/10/11 15:30:43","txCount":3,"totalFees":579003,"totalOutput":1497364053,"slotLeader":"000000f66e28b0f18aef20555f4c4954234e3270dfbbdcc13f54e799"},{"blockNo":7870519,"slotNo":73935946,"epochNo":368,"epochSlotNo":323146,"hash":"b47522df17fb8e4ddb15151b7d23875e96198487d748330777700b1afa38fa2e","time":"2022/10/11 15:30:37","txCount":10,"totalFees":3837323,"totalOutput":55407440569,"slotLeader":"7c5d59f69e113939aa1e19f081cc0884e2b85a55768a4347bf356191"},{"blockNo":7870518,"slotNo":73935941,"epochNo":368,"epochSlotNo":323141,"hash":"027239ef8c6434ad4a3828adcacd06a401ae31437e9b1a5d20858477f3e5a67a","time":"2022/10/11 15:30:32","txCount":4,"totalFees":2083308,"totalOutput":374658020,"slotLeader":"2397e90130d990f207f6e576b6b97bafb430f942d26702eef9627dcf"},{"blockNo":7870517,"slotNo":73935933,"epochNo":368,"epochSlotNo":323133,"hash":"6d91f8c931d5d69d98225da2213475215a9312bb98fd06180d76d2482d3e3fdb","time":"2022/10/11 15:30:24","txCount":25,"totalFees":10488393,"totalOutput":6837592783947,"slotLeader":"16f6e9a767dbb9400d3dbe9f7374eef7c706bda870592a7dabd47a75"},{"blockNo":7870516,"slotNo":73935905,"epochNo":368,"epochSlotNo":323105,"hash":"30d2f21ebc155d706feae9f1eec3044e1a8b748a744fc7043eb567989aaab6d0","time":"2022/10/11 15:29:56","txCount":14,"totalFees":5998238,"totalOutput":367957296881,"slotLeader":"cf69a3eca039d537acd46d5864a54dd8953f0c14be957350905834aa"},{"blockNo":7870515,"slotNo":73935890,"epochNo":368,"epochSlotNo":323090,"hash":"6ac41052997d880b1e77a2f5807ce149d2f24c0c4f1aff64cb082583af5f7868","time":"2022/10/11 15:29:41","txCount":22,"totalFees":7288366,"totalOutput":1244233002053,"slotLeader":"e5b20e8f9661506710a159e561d40ceb54449fdea1d1130b3bdb36bb"},{"blockNo":7870514,"slotNo":73935859,"epochNo":368,"epochSlotNo":323059,"hash":"6ff0732d74f033a2f1fba6ab3982313a16fcddc3f0c7507872f8e9577a9dbf99","time":"2022/10/11 15:29:10","txCount":1,"totalFees":167085,"totalOutput":4191566,"slotLeader":"e8fb1e898f1d3d9e219b784a080793d65153abf9dd0ab35a698cdcee"},{"blockNo":7870513,"slotNo":73935858,"epochNo":368,"epochSlotNo":323058,"hash":"8ff5f50cef4d62fbe830cbbdf88b4e36b4b2b55dde35bd7012ddce0ef920d59d","time":"2022/10/11 15:29:09","txCount":10,"totalFees":3530139,"totalOutput":80192655127,"slotLeader":"7e7eb329d995759d2b9fdb85b8d0c9e3fa2e57c460641c8fc875e780"},{"blockNo":7870512,"slotNo":73935841,"epochNo":368,"epochSlotNo":323041,"hash":"4cc13d001d557471d7eb5bc06e5394a468be9009af303c817d8c98fc8fcdf435","time":"2022/10/11 15:28:52","txCount":7,"totalFees":2400725,"totalOutput":4747538660100,"slotLeader":"cf69a3eca039d537acd46d5864a54dd8953f0c14be957350905834aa"},{"blockNo":7870511,"slotNo":73935831,"epochNo":368,"epochSlotNo":323031,"hash":"c6d7b8bfb37874d8888f91d3698ba6dfad3d29a4e63eee2ec29d06fb7656fc16","time":"2022/10/11 15:28:42","txCount":19,"totalFees":6801876,"totalOutput":2614358255968,"slotLeader":"38927599cc3ff6b081501e0ee1dc4f0cb8ba012b3de8b49a785bb05a"}],"totalItems":7870706,"totalPages":393536,"currentPage":0}