{"data":[{"hash":"0e1f937f75dbb4786230ba9b009f29f41e0d8140cd4a93a0bc254015f643ade5","blockNo":7225567,"blockHash":"4ada7c6473aef016c4306c92a5aa640faf26b5ffd80765bc8490c6871b2069f5","epochNo":337,"epochSlotNo":328318,"slot":60549118,"time":"2022/05/09 16:56:49","addressesInput":["addr1qyecjgprat9qjdfkv6ln45eww5a9lwkgqn92x6lspd339ky00hv6dpawknxe42d8dlx42msv2nt8yej77vudk0uruvtsh2aeym","addr1qyecjgprat9qjdfkv6ln45eww5a9lwkgqn92x6lspd339ky00hv6dpawknxe42d8dlx42msv2nt8yej77vudk0uruvtsh2aeym","addr1qyecjgprat9qjdfkv6ln45eww5a9lwkgqn92x6lspd339ky00hv6dpawknxe42d8dlx42msv2nt8yej77vudk0uruvtsh2aeym"],"addressesOutput":["addr1w999n67e86jn6xal07pzxtrmqynspgx0fwmcmpua4wc6yzsxpljz3","addr1qyecjgprat9qjdfkv6ln45eww5a9lwkgqn92x6lspd339ky00hv6dpawknxe42d8dlx42msv2nt8yej77vudk0uruvtsh2aeym","addr1qyecjgprat9qjdfkv6ln45eww5a9lwkgqn92x6lspd339ky00hv6dpawknxe42d8dlx42msv2nt8yej77vudk0uruvtsh2aeym","addr1qyecjgprat9qjdfkv6ln45eww5a9lwkgqn92x6lspd339ky00hv6dpawknxe42d8dlx42msv2nt8yej77vudk0uruvtsh2aeym","addr1qyecjgprat9qjdfkv6ln45eww5a9lwkgqn92x6lspd339ky00hv6dpawknxe42d8dlx42msv2nt8yej77vudk0uruvtsh2aeym","addr1qyecjgprat9qjdfkv6ln45eww5a9lwkgqn92x6lspd339ky00hv6dpawknxe42d8dlx42msv2nt8yej77vudk0uruvtsh2aeym","addr1qyecjgprat9qjdfkv6ln45eww5a9lwkgqn92x6lspd339ky00hv6dpawknxe42d8dlx42msv2nt8yej77vudk0uruvtsh2aeym"],"fee":307176,"totalOutput":84722898,"tokens":[]},{"hash":"bae06da729887a395dca6b7cb64de62df087c08ef3d7ba1a777856b7f1ccbf2d","blockNo":7225562,"blockHash":"18381fdd26e9061749507ebe3adabefeeac18e423d13d9dd9d2ae2dce678099c","epochNo":337,"epochSlotNo":328162,"slot":60548962,"time":"2022/05/09 16:54:13","addressesInput":["addr1qyecjgprat9qjdfkv6ln45eww5a9lwkgqn92x6lspd339ky00hv6dpawknxe42d8dlx42msv2nt8yej77vudk0uruvtsh2aeym"],"addressesOutput":["addr1w999n67e86jn6xal07pzxtrmqynspgx0fwmcmpua4wc6yzsxpljz3","addr1qyecjgprat9qjdfkv6ln45eww5a9lwkgqn92x6lspd339ky00hv6dpawknxe42d8dlx42msv2nt8yej77vudk0uruvtsh2aeym"],"fee":285832,"totalOutput":14814633,"tokens":[]},{"hash":"bc34339660a47e2b8c123c5c302639a1b310c9211cb75bda6324d810bd8c9d41","blockNo":7225414,"blockHash":"32cccc6f7aa730f41d448646f5d95ba62d3bdf222a3cb2068237c8274078cf9d","epochNo":337,"epochSlotNo":324895,"slot":60545695,"time":"2022/05/09 15:59:46","addressesInput":["addr1qy0xznhgdhqj9u4g6jjdntf2cxy5lyad8j2p6a6dp8jwwttfq4uncdzu6hqlxn7gva2xsaln40x226fl8fsnqyyvzxtqqm3qw9","addr1qy0xznhgdhqj9u4g6jjdntf2cxy5lyad8j2p6a6dp8jwwttfq4uncdzu6hqlxn7gva2xsaln40x226fl8fsnqyyvzxtqqm3qw9","addr1qy0xznhgdhqj9u4g6jjdntf2cxy5lyad8j2p6a6dp8jwwttfq4uncdzu6hqlxn7gva2xsaln40x226fl8fsnqyyvzxtqqm3qw9","addr1qy0xznhgdhqj9u4g6jjdntf2cxy5lyad8j2p6a6dp8jwwttfq4uncdzu6hqlxn7gva2xsaln40x226fl8fsnqyyvzxtqqm3qw9","addr1qy0xznhgdhqj9u4g6jjdntf2cxy5lyad8j2p6a6dp8jwwttfq4uncdzu6hqlxn7gva2xsaln40x226fl8fsnqyyvzxtqqm3qw9","addr1qy0xznhgdhqj9u4g6jjdntf2cxy5lyad8j2p6a6dp8jwwttfq4uncdzu6hqlxn7gva2xsaln40x226fl8fsnqyyvzxtqqm3qw9","addr1qy0xznhgdhqj9u4g6jjdntf2cxy5lyad8j2p6a6dp8jwwttfq4uncdzu6hqlxn7gva2xsaln40x226fl8fsnqyyvzxtqqm3qw9","addr1qy0xznhgdhqj9u4g6jjdntf2cxy5lyad8j2p6a6dp8jwwttfq4uncdzu6hqlxn7gva2xsaln40x226fl8fsnqyyvzxtqqm3qw9","addr1qy0xznhgdhqj9u4g6jjdntf2cxy5lyad8j2p6a6dp8jwwttfq4uncdzu6hqlxn7gva2xsaln40x226fl8fsnqyyvzxtqqm3qw9","addr1qy0xznhgdhqj9u4g6jjdntf2cxy5lyad8j2p6a6dp8jwwttfq4uncdzu6hqlxn7gva2xsaln40x226fl8fsnqyyvzxtqqm3qw9","addr1qy0xznhgdhqj9u4g6jjdntf2cxy5lyad8j2p6a6dp8jwwttfq4uncdzu6hqlxn7gva2xsaln40x226fl8fsnqyyvzxtqqm3qw9"],"addressesOutput":["DdzFFzCqrhseJeQPDfKooGrhxENAg1dzbC1FFfziBmX4bW3u4ZgdbUdqe5aQ3XhP8sJf7X1eaj96cz6C8VHs1Y3Gf73vZzwWqZFfEbA9","addr1qy0xznhgdhqj9u4g6jjdntf2cxy5lyad8j2p6a6dp8jwwttfq4uncdzu6hqlxn7gva2xsaln40x226fl8fsnqyyvzxtqqm3qw9","addr1qy0xznhgdhqj9u4g6jjdntf2cxy5lyad8j2p6a6dp8jwwttfq4uncdzu6hqlxn7gva2xsaln40x226fl8fsnqyyvzxtqqm3qw9"],"fee":264985,"totalOutput":500955941,"tokens":[]},{"hash":"9c50c4e7c8b567fc477573fb45d742bc4fc204ee091f9e89f9daf33f388298b8","blockNo":7225353,"blockHash":"6561ace829716c440e18082231793c02c4718e8339902624134d82bcbe71012f","epochNo":337,"epochSlotNo":323500,"slot":60544300,"time":"2022/05/09 15:36:31","addressesInput":["addr1qysdvmvecllayy4rkksgsms5lu4vxhvxwtmx85ks3cctcdl49v0llr6kh86h28lyzeulsjnz9e0rfk2j0t9qend2e6xqvu3nts","addr1qysdvmvecllayy4rkksgsms5lu4vxhvxwtmx85ks3cctcdl49v0llr6kh86h28lyzeulsjnz9e0rfk2j0t9qend2e6xqvu3nts","addr1qysdvmvecllayy4rkksgsms5lu4vxhvxwtmx85ks3cctcdl49v0llr6kh86h28lyzeulsjnz9e0rfk2j0t9qend2e6xqvu3nts"],"addressesOutput":["addr1w999n67e86jn6xal07pzxtrmqynspgx0fwmcmpua4wc6yzsxpljz3","addr1qysdvmvecllayy4rkksgsms5lu4vxhvxwtmx85ks3cctcdl49v0llr6kh86h28lyzeulsjnz9e0rfk2j0t9qend2e6xqvu3nts"],"fee":274838,"totalOutput":17248998,"tokens":[]},{"hash":"aadc90a947dcda10abd7b427564e64d0b8dee312a4dd145fdc39c87d044eb62b","blockNo":7225327,"blockHash":"d5e99c4edf4788fca1841fa59be6c6a40e937f170d10fa02299c1c04460c2b35","epochNo":337,"epochSlotNo":322955,"slot":60543755,"time":"2022/05/09 15:27:26","addressesInput":["addr1q80cpd59fsnf2ryph6ax8kr9sc65v3muu8da303pexggue2m5y5lkv9qvgare3nuclvzr7xnk4uw73u52yx0f40vrdyqml6vvg","addr1q80cpd59fsnf2ryph6ax8kr9sc65v3muu8da303pexggue2m5y5lkv9qvgare3nuclvzr7xnk4uw73u52yx0f40vrdyqml6vvg"],"addressesOutput":["addr1qy64uln2zs570w8q9hq24q7x64yr0ga8ttx3mfds6ndhgsgjrdn45pe642ylmljp8y57v4pk0s54zxyj60gwdg8ce48q6h5wue","addr1q80cpd59fsnf2ryph6ax8kr9sc65v3muu8da303pexggue2m5y5lkv9qvgare3nuclvzr7xnk4uw73u52yx0f40vrdyqml6vvg","addr1q80cpd59fsnf2ryph6ax8kr9sc65v3muu8da303pexggue2m5y5lkv9qvgare3nuclvzr7xnk4uw73u52yx0f40vrdyqml6vvg"],"fee":205101,"totalOutput":9518933,"tokens":[]},{"hash":"f56913da9414f6b98e26f1c9ad3c8ca34270c6d3b0b3f16176f3e4032635cc56","blockNo":7225322,"blockHash":"34e0debc1eb537c8388fd08d9f7d00e4fc6fc9ffefd7d95f332fe156151346d5","epochNo":337,"epochSlotNo":322870,"slot":60543670,"time":"2022/05/09 15:26:01","addressesInput":["addr1q80cpd59fsnf2ryph6ax8kr9sc65v3muu8da303pexggue2m5y5lkv9qvgare3nuclvzr7xnk4uw73u52yx0f40vrdyqml6vvg","addr1q80cpd59fsnf2ryph6ax8kr9sc65v3muu8da303pexggue2m5y5lkv9qvgare3nuclvzr7xnk4uw73u52yx0f40vrdyqml6vvg"],"addressesOutput":["addr1qx47h0jdctkd3peg9hvr7x6dlz028jwhcm9m22wq9qcj2njsckkpac65jk6u4cgveksjzsdwwy98vjt9l5qj9drdl20suuvs6m","addr1q80cpd59fsnf2ryph6ax8kr9sc65v3muu8da303pexggue2m5y5lkv9qvgare3nuclvzr7xnk4uw73u52yx0f40vrdyqml6vvg","addr1q80cpd59fsnf2ryph6ax8kr9sc65v3muu8da303pexggue2m5y5lkv9qvgare3nuclvzr7xnk4uw73u52yx0f40vrdyqml6vvg"],"fee":205761,"totalOutput":104698396,"tokens":[]},{"hash":"98d08a5c1e06c62bd524842cc61d4065367b33cd05c8fe887da9cdadc9a55f77","blockNo":7225227,"blockHash":"23547a8b1c174d892a904eb3b74f4351274d8d16259813bbdae3cb8d72c63267","epochNo":337,"epochSlotNo":321003,"slot":60541803,"time":"2022/05/09 14:54:54","addressesInput":["addr1qysdvmvecllayy4rkksgsms5lu4vxhvxwtmx85ks3cctcdl49v0llr6kh86h28lyzeulsjnz9e0rfk2j0t9qend2e6xqvu3nts","addr1qysdvmvecllayy4rkksgsms5lu4vxhvxwtmx85ks3cctcdl49v0llr6kh86h28lyzeulsjnz9e0rfk2j0t9qend2e6xqvu3nts"],"addressesOutput":["addr1w999n67e86jn6xal07pzxtrmqynspgx0fwmcmpua4wc6yzsxpljz3","addr1qysdvmvecllayy4rkksgsms5lu4vxhvxwtmx85ks3cctcdl49v0llr6kh86h28lyzeulsjnz9e0rfk2j0t9qend2e6xqvu3nts","addr1qysdvmvecllayy4rkksgsms5lu4vxhvxwtmx85ks3cctcdl49v0llr6kh86h28lyzeulsjnz9e0rfk2j0t9qend2e6xqvu3nts","addr1qysdvmvecllayy4rkksgsms5lu4vxhvxwtmx85ks3cctcdl49v0llr6kh86h28lyzeulsjnz9e0rfk2j0t9qend2e6xqvu3nts","addr1qysdvmvecllayy4rkksgsms5lu4vxhvxwtmx85ks3cctcdl49v0llr6kh86h28lyzeulsjnz9e0rfk2j0t9qend2e6xqvu3nts","addr1qysdvmvecllayy4rkksgsms5lu4vxhvxwtmx85ks3cctcdl49v0llr6kh86h28lyzeulsjnz9e0rfk2j0t9qend2e6xqvu3nts","addr1qysdvmvecllayy4rkksgsms5lu4vxhvxwtmx85ks3cctcdl49v0llr6kh86h28lyzeulsjnz9e0rfk2j0t9qend2e6xqvu3nts"],"fee":323460,"totalOutput":90477174,"tokens":[]},{"hash":"304610057318860b302865b43d0a7175925cffd395fa9df5bf08931f2b3a5592","blockNo":7225210,"blockHash":"592acf0dbaaaacdd24b8e99734b94d1cd2d179d4f685643829f888c9aacf08ae","epochNo":337,"epochSlotNo":320672,"slot":60541472,"time":"2022/05/09 14:49:23","addressesInput":["addr1qysdvmvecllayy4rkksgsms5lu4vxhvxwtmx85ks3cctcdl49v0llr6kh86h28lyzeulsjnz9e0rfk2j0t9qend2e6xqvu3nts","addr1qysdvmvecllayy4rkksgsms5lu4vxhvxwtmx85ks3cctcdl49v0llr6kh86h28lyzeulsjnz9e0rfk2j0t9qend2e6xqvu3nts","addr1qysdvmvecllayy4rkksgsms5lu4vxhvxwtmx85ks3cctcdl49v0llr6kh86h28lyzeulsjnz9e0rfk2j0t9qend2e6xqvu3nts"],"addressesOutput":["addr1qykxdxq3zkk60xd8h9x4gjhkjw6rgas5507a2eaqd0cvp7x60jjd3084pl48wklksel3hlpnpeavh8rvyrg8pvgt6jlsdugn8m","addr1qysdvmvecllayy4rkksgsms5lu4vxhvxwtmx85ks3cctcdl49v0llr6kh86h28lyzeulsjnz9e0rfk2j0t9qend2e6xqvu3nts","addr1qysdvmvecllayy4rkksgsms5lu4vxhvxwtmx85ks3cctcdl49v0llr6kh86h28lyzeulsjnz9e0rfk2j0t9qend2e6xqvu3nts"],"fee":291209,"totalOutput":19294567,"tokens":[]},{"hash":"116f1d73f07313d4f152c85b23e22b4f5c3c2968c416addf32f3846e0ed261f3","blockNo":7225189,"blockHash":"42f227e4cc66eebeebbbbae9e600da51e2e434650e7b5119bf15900ede9f3682","epochNo":337,"epochSlotNo":320340,"slot":60541140,"time":"2022/05/09 14:43:51","addressesInput":["addr1qysdvmvecllayy4rkksgsms5lu4vxhvxwtmx85ks3cctcdl49v0llr6kh86h28lyzeulsjnz9e0rfk2j0t9qend2e6xqvu3nts","addr1qysdvmvecllayy4rkksgsms5lu4vxhvxwtmx85ks3cctcdl49v0llr6kh86h28lyzeulsjnz9e0rfk2j0t9qend2e6xqvu3nts","addr1qysdvmvecllayy4rkksgsms5lu4vxhvxwtmx85ks3cctcdl49v0llr6kh86h28lyzeulsjnz9e0rfk2j0t9qend2e6xqvu3nts"],"addressesOutput":["addr1qykxdxq3zkk60xd8h9x4gjhkjw6rgas5507a2eaqd0cvp7x60jjd3084pl48wklksel3hlpnpeavh8rvyrg8pvgt6jlsdugn8m","addr1qysdvmvecllayy4rkksgsms5lu4vxhvxwtmx85ks3cctcdl49v0llr6kh86h28lyzeulsjnz9e0rfk2j0t9qend2e6xqvu3nts","addr1qysdvmvecllayy4rkksgsms5lu4vxhvxwtmx85ks3cctcdl49v0llr6kh86h28lyzeulsjnz9e0rfk2j0t9qend2e6xqvu3nts"],"fee":308457,"totalOutput":23035967,"tokens":[]},{"hash":"e391d869278e82bcf82aa9becb15b727ce3045e4302c6937f552a1e53778412c","blockNo":7225163,"blockHash":"1bd6ca3484c5f5c4fcfe8cc4c06c43f925a04cda3e0fb6e7397e574ae17da8ea","epochNo":337,"epochSlotNo":319690,"slot":60540490,"time":"2022/05/09 14:33:01","addressesInput":["addr1qygu2npfzvxq5ea3ts3a6nk6uhklw0cd79gxhn0pkavampkhttwyktnm6dca79xc2lmr0vzwnleqxa30mhslcggyw7vs5pdd7x","addr1qygu2npfzvxq5ea3ts3a6nk6uhklw0cd79gxhn0pkavampkhttwyktnm6dca79xc2lmr0vzwnleqxa30mhslcggyw7vs5pdd7x","addr1qygu2npfzvxq5ea3ts3a6nk6uhklw0cd79gxhn0pkavampkhttwyktnm6dca79xc2lmr0vzwnleqxa30mhslcggyw7vs5pdd7x","addr1qygu2npfzvxq5ea3ts3a6nk6uhklw0cd79gxhn0pkavampkhttwyktnm6dca79xc2lmr0vzwnleqxa30mhslcggyw7vs5pdd7x","addr1qygu2npfzvxq5ea3ts3a6nk6uhklw0cd79gxhn0pkavampkhttwyktnm6dca79xc2lmr0vzwnleqxa30mhslcggyw7vs5pdd7x","addr1qygu2npfzvxq5ea3ts3a6nk6uhklw0cd79gxhn0pkavampkhttwyktnm6dca79xc2lmr0vzwnleqxa30mhslcggyw7vs5pdd7x"],"addressesOutput":["addr1qygu2npfzvxq5ea3ts3a6nk6uhklw0cd79gxhn0pkavampkhttwyktnm6dca79xc2lmr0vzwnleqxa30mhslcggyw7vs5pdd7x","addr1qygu2npfzvxq5ea3ts3a6nk6uhklw0cd79gxhn0pkavampkhttwyktnm6dca79xc2lmr0vzwnleqxa30mhslcggyw7vs5pdd7x"],"fee":383917,"totalOutput":38117243,"tokens":[]},{"hash":"d43eb489bbd25a19ad98b485bbdcb34eb37e4e970f2b70d7de024386b1ad2f76","blockNo":7225022,"blockHash":"7599dfbb1a58358a5c360c4bb49380eb9f8ab6496b2abec26f4a164266fa7f3d","epochNo":337,"epochSlotNo":316816,"slot":60537616,"time":"2022/05/09 13:45:07","addressesInput":["addr1qyvs0tnys8e9hupqhk6nj806syvvg40jl7d2ut4ugvvxhq0phsdlyazqdeza90cc4yjs3956l0xqthnzad8qpgewz27s4hahqz","addr1qyvs0tnys8e9hupqhk6nj806syvvg40jl7d2ut4ugvvxhq0phsdlyazqdeza90cc4yjs3956l0xqthnzad8qpgewz27s4hahqz","addr1qyvs0tnys8e9hupqhk6nj806syvvg40jl7d2ut4ugvvxhq0phsdlyazqdeza90cc4yjs3956l0xqthnzad8qpgewz27s4hahqz","addr1qyvs0tnys8e9hupqhk6nj806syvvg40jl7d2ut4ugvvxhq0phsdlyazqdeza90cc4yjs3956l0xqthnzad8qpgewz27s4hahqz","addr1qyvs0tnys8e9hupqhk6nj806syvvg40jl7d2ut4ugvvxhq0phsdlyazqdeza90cc4yjs3956l0xqthnzad8qpgewz27s4hahqz","addr1qyvs0tnys8e9hupqhk6nj806syvvg40jl7d2ut4ugvvxhq0phsdlyazqdeza90cc4yjs3956l0xqthnzad8qpgewz27s4hahqz"],"addressesOutput":["addr1wy2mjh76em44qurn5x73nzqrxua7ataasftql0u2h6g88lc3gtgpz","addr1qyvs0tnys8e9hupqhk6nj806syvvg40jl7d2ut4ugvvxhq0phsdlyazqdeza90cc4yjs3956l0xqthnzad8qpgewz27s4hahqz","addr1qyvs0tnys8e9hupqhk6nj806syvvg40jl7d2ut4ugvvxhq0phsdlyazqdeza90cc4yjs3956l0xqthnzad8qpgewz27s4hahqz"],"fee":398042,"totalOutput":142515947,"tokens":[]},{"hash":"9df591974fc4e1645e492445d71069d55222810096d9138342f5e34b4583332a","blockNo":7225011,"blockHash":"179eaaead8033f8ded11d8965d9121ecb2815046ec4ef1b571952034c9de4c1f","epochNo":337,"epochSlotNo":316538,"slot":60537338,"time":"2022/05/09 13:40:29","addressesInput":["addr1qyecjgprat9qjdfkv6ln45eww5a9lwkgqn92x6lspd339ky00hv6dpawknxe42d8dlx42msv2nt8yej77vudk0uruvtsh2aeym"],"addressesOutput":["addr1w999n67e86jn6xal07pzxtrmqynspgx0fwmcmpua4wc6yzsxpljz3","addr1qyecjgprat9qjdfkv6ln45eww5a9lwkgqn92x6lspd339ky00hv6dpawknxe42d8dlx42msv2nt8yej77vudk0uruvtsh2aeym"],"fee":286568,"totalOutput":16824565,"tokens":[]},{"hash":"8a7d408cc151a9893a036097a3016c367f28a032a13df1c5cd66be5c707c6409","blockNo":7224823,"blockHash":"828ce2711524135e140ac02ac8480915ebacbaec297f059ec336545a5235e655","epochNo":337,"epochSlotNo":312639,"slot":60533439,"time":"2022/05/09 12:35:30","addressesInput":["addr1qxwvhay480s3yem404hnddheaddsyqyh82lxxzcaddxhzarqzpxp80dc8348w4fvuegxu79xl8vcre3s0ducxusspktswstaw5","addr1qxwvhay480s3yem404hnddheaddsyqyh82lxxzcaddxhzarqzpxp80dc8348w4fvuegxu79xl8vcre3s0ducxusspktswstaw5"],"addressesOutput":["addr1w999n67e86jn6xal07pzxtrmqynspgx0fwmcmpua4wc6yzsxpljz3","addr1qxwvhay480s3yem404hnddheaddsyqyh82lxxzcaddxhzarqzpxp80dc8348w4fvuegxu79xl8vcre3s0ducxusspktswstaw5","addr1qxwvhay480s3yem404hnddheaddsyqyh82lxxzcaddxhzarqzpxp80dc8348w4fvuegxu79xl8vcre3s0ducxusspktswstaw5","addr1qxwvhay480s3yem404hnddheaddsyqyh82lxxzcaddxhzarqzpxp80dc8348w4fvuegxu79xl8vcre3s0ducxusspktswstaw5","addr1qxwvhay480s3yem404hnddheaddsyqyh82lxxzcaddxhzarqzpxp80dc8348w4fvuegxu79xl8vcre3s0ducxusspktswstaw5"],"fee":256116,"totalOutput":25337388,"tokens":[]},{"hash":"a79bb55b0e52d32401ebe6e36a376fb9dbd5b2d6678ebb7a8524584ca4cbbb76","blockNo":7224819,"blockHash":"503510e5d7420e2fbf113204ffcb5b65b22d8b19634eab0cfa49cb793f164e83","epochNo":337,"epochSlotNo":312576,"slot":60533376,"time":"2022/05/09 12:34:27","addressesInput":["addr1qxwvhay480s3yem404hnddheaddsyqyh82lxxzcaddxhzarqzpxp80dc8348w4fvuegxu79xl8vcre3s0ducxusspktswstaw5","addr1qxwvhay480s3yem404hnddheaddsyqyh82lxxzcaddxhzarqzpxp80dc8348w4fvuegxu79xl8vcre3s0ducxusspktswstaw5","addr1qxwvhay480s3yem404hnddheaddsyqyh82lxxzcaddxhzarqzpxp80dc8348w4fvuegxu79xl8vcre3s0ducxusspktswstaw5"],"addressesOutput":["addr1w999n67e86jn6xal07pzxtrmqynspgx0fwmcmpua4wc6yzsxpljz3","addr1qxwvhay480s3yem404hnddheaddsyqyh82lxxzcaddxhzarqzpxp80dc8348w4fvuegxu79xl8vcre3s0ducxusspktswstaw5"],"fee":249400,"totalOutput":11071199,"tokens":[]},{"hash":"c26b3ad90d75c0cf9f28589ed9f7752c327568fa220c99588394619f005b0195","blockNo":7224742,"blockHash":"b46a8505538b3b173460575df828e826243931c9febd846fd23946cbad185632","epochNo":337,"epochSlotNo":311035,"slot":60531835,"time":"2022/05/09 12:08:46","addressesInput":["addr1w999n67e86jn6xal07pzxtrmqynspgx0fwmcmpua4wc6yzsxpljz3","addr1q9cda6qphlpv7nh4pfzy0jyqwp6unstzdds5vg8wfyqgjyv3xq7qfwp06e0ump652k3jcg92ejn3mqtdf3822a45d7psp8kj5g","addr1q9cda6qphlpv7nh4pfzy0jyqwp6unstzdds5vg8wfyqgjyv3xq7qfwp06e0ump652k3jcg92ejn3mqtdf3822a45d7psp8kj5g"],"addressesOutput":["addr1w999n67e86jn6xal07pzxtrmqynspgx0fwmcmpua4wc6yzsxpljz3","addr1q9cda6qphlpv7nh4pfzy0jyqwp6unstzdds5vg8wfyqgjyv3xq7qfwp06e0ump652k3jcg92ejn3mqtdf3822a45d7psp8kj5g","addr1q9cda6qphlpv7nh4pfzy0jyqwp6unstzdds5vg8wfyqgjyv3xq7qfwp06e0ump652k3jcg92ejn3mqtdf3822a45d7psp8kj5g"],"fee":1515932,"totalOutput":30025030,"tokens":[]},{"hash":"07dc3ca7093ff55c4fbc439246d0d168e65157ef930e74b04726309b56c98c00","blockNo":7224660,"blockHash":"b583ba9269c8ebeafe13b2eae2ccec8dad67f14cd6f1451ca84e792cd67dc7df","epochNo":337,"epochSlotNo":309528,"slot":60530328,"time":"2022/05/09 11:43:39","addressesInput":["addr1qy0xznhgdhqj9u4g6jjdntf2cxy5lyad8j2p6a6dp8jwwttfq4uncdzu6hqlxn7gva2xsaln40x226fl8fsnqyyvzxtqqm3qw9"],"addressesOutput":["addr1w999n67e86jn6xal07pzxtrmqynspgx0fwmcmpua4wc6yzsxpljz3","addr1qy0xznhgdhqj9u4g6jjdntf2cxy5lyad8j2p6a6dp8jwwttfq4uncdzu6hqlxn7gva2xsaln40x226fl8fsnqyyvzxtqqm3qw9"],"fee":264074,"totalOutput":12738414,"tokens":[]},{"hash":"4861e3c837feff751a50a983468bdc3da12b4e3306076435709e57c316918a82","blockNo":7224533,"blockHash":"f02eca22d8f42fbc5aa33defac16f37df34385fef72b292ef27e031ecca76bd3","epochNo":337,"epochSlotNo":306960,"slot":60527760,"time":"2022/05/09 11:00:51","addressesInput":["addr1qy0xznhgdhqj9u4g6jjdntf2cxy5lyad8j2p6a6dp8jwwttfq4uncdzu6hqlxn7gva2xsaln40x226fl8fsnqyyvzxtqqm3qw9","addr1qy0xznhgdhqj9u4g6jjdntf2cxy5lyad8j2p6a6dp8jwwttfq4uncdzu6hqlxn7gva2xsaln40x226fl8fsnqyyvzxtqqm3qw9"],"addressesOutput":["addr1w999n67e86jn6xal07pzxtrmqynspgx0fwmcmpua4wc6yzsxpljz3","addr1qy0xznhgdhqj9u4g6jjdntf2cxy5lyad8j2p6a6dp8jwwttfq4uncdzu6hqlxn7gva2xsaln40x226fl8fsnqyyvzxtqqm3qw9"],"fee":267754,"totalOutput":14726588,"tokens":[]},{"hash":"46e310139a16fa01054c616a2ba67aa70a8561b313efcc99fa9d4f0280a998d5","blockNo":7224530,"blockHash":"726e12485824a682abaf50531fd314f2cb7240422d0d987b31da04a60111158a","epochNo":337,"epochSlotNo":306832,"slot":60527632,"time":"2022/05/09 10:58:43","addressesInput":["addr1qy0xznhgdhqj9u4g6jjdntf2cxy5lyad8j2p6a6dp8jwwttfq4uncdzu6hqlxn7gva2xsaln40x226fl8fsnqyyvzxtqqm3qw9"],"addressesOutput":["addr1qy0xznhgdhqj9u4g6jjdntf2cxy5lyad8j2p6a6dp8jwwttfq4uncdzu6hqlxn7gva2xsaln40x226fl8fsnqyyvzxtqqm3qw9","addr1qy0xznhgdhqj9u4g6jjdntf2cxy5lyad8j2p6a6dp8jwwttfq4uncdzu6hqlxn7gva2xsaln40x226fl8fsnqyyvzxtqqm3qw9","addr1qy0xznhgdhqj9u4g6jjdntf2cxy5lyad8j2p6a6dp8jwwttfq4uncdzu6hqlxn7gva2xsaln40x226fl8fsnqyyvzxtqqm3qw9"],"fee":243469,"totalOutput":19994342,"tokens":[]},{"hash":"2c50c4dae8931a4e3367fe1fc8da3f928e805e21f0128a2f24ff7f233ec824b7","blockNo":7224364,"blockHash":"27c13a1b0c0b51419b8a599580cfdccf6b0c959768106cbedcc873a64310754a","epochNo":337,"epochSlotNo":303799,"slot":60524599,"time":"2022/05/09 10:08:10","addressesInput":["addr1q93vyug8m3qrqc5qr9u28hzkvdpzyvmez85f58l8y9t2502xrdyd4ezx43vxjgw0dvz6dzy36jku3ptrr9mcv5dftkhsx6f5gt","addr1q93vyug8m3qrqc5qr9u28hzkvdpzyvmez85f58l8y9t2502xrdyd4ezx43vxjgw0dvz6dzy36jku3ptrr9mcv5dftkhsx6f5gt"],"addressesOutput":["addr1wxn9efv2f6w82hagxqtn62ju4m293tqvw0uhmdl64ch8uwc0h43gt","addr1q93vyug8m3qrqc5qr9u28hzkvdpzyvmez85f58l8y9t2502xrdyd4ezx43vxjgw0dvz6dzy36jku3ptrr9mcv5dftkhsx6f5gt"],"fee":259881,"totalOutput":162692623,"tokens":[]},{"hash":"45255ec327af3c0e2dbd6a0358645c15bec0101163e17a4eb82df215f98db77e","blockNo":7224321,"blockHash":"bc1b8225bcbe5cad26be447ea9fdeece449d3e19cb820f65ec96eb632d69a04b","epochNo":337,"epochSlotNo":302806,"slot":60523606,"time":"2022/05/09 09:51:37","addressesInput":["addr1q85urna9a9j6fy5trqj60sz6f703zqsymryk9fr93v9qwhq2pyn8fvqgg02pk93uks0kmqda3cu4whj3xpnvnm6wr8tsqz7dp0"],"addressesOutput":["addr1v9lcr49pxglk4yzwktlx0yj3dzjpuyw0uxc53mvg3eygagsm8z4sz","addr1qyahrc52gusngr43xsvf7ff6pfflfcv7v3sn3qj0ksm7umc2pyn8fvqgg02pk93uks0kmqda3cu4whj3xpnvnm6wr8tsz5mzas"],"fee":358661,"totalOutput":24269857,"tokens":[]}],"totalItems":5644,"totalPages":283,"currentPage":0}