{"data":[{"txId":56698689,"txHash":"bb0df5a954c681a9c7be1a14af56444c652bb526db55e27b8597a5a564c149d1","txTime":"2022/12/05 17:36:42","block":8101438,"epoch":379,"slotNo":78695511,"epochSlotNo":330711,"stakeKey":"stake1uy9spfqdkklcx3ucjxmd2e9xt4wkjrhttv0x258neg0tdjcn3qfdr"},{"txId":56698573,"txHash":"4a59cc15a5117fd0a945a148905671040a163408444221f5a1d8a50ea0fe3b2b","txTime":"2022/12/05 17:33:54","block":8101434,"epoch":379,"slotNo":78695343,"epochSlotNo":330543,"stakeKey":"stake1uy9znxlcjvf7lgcz4f33mkp8l590mhpu7ekry9e2nh3sgrqfyu89r"},{"txId":56698534,"txHash":"5f7fd585af0c35d1e217d1a9052830115e5e42425cf853056d886cac5f5055c7","txTime":"2022/12/05 17:33:27","block":8101432,"epoch":379,"slotNo":78695316,"epochSlotNo":330516,"stakeKey":"stake1ux58gdacd4gysavkqsvvwz0vk4ts77q7wlnk3jxj09nvwts65zzzx"},{"txId":56698506,"txHash":"406aac6a7e99a9af8a9aefd8ffa4fc2120b9ae2164928311239a9d6f0df0ab0a","txTime":"2022/12/05 17:32:58","block":8101430,"epoch":379,"slotNo":78695287,"epochSlotNo":330487,"stakeKey":"stake1u8uymljt8tnzddw73tfd5s6u7yhjtsuu3rgunfudlvazskgacs8zg"},{"txId":56698495,"txHash":"905bccda4ca0972112822cfa37e8574a0c79cc8bdc3a5059e242c85c994316c8","txTime":"2022/12/05 17:32:40","block":8101429,"epoch":379,"slotNo":78695269,"epochSlotNo":330469,"stakeKey":"stake1uxh8xcwkk7vrh7dkddeq5ph437fycxf5hs8ele2za32l5uspg86ar"},{"txId":56698483,"txHash":"796ca8133e995e3269c13bedab47ce88885d2ac9dbc4aebdb142837fc6975481","txTime":"2022/12/05 17:32:14","block":8101427,"epoch":379,"slotNo":78695243,"epochSlotNo":330443,"stakeKey":"stake1u8q5m6zej6kw398wz0y5ptsqsxrqet0097pm28x6qx5mj4q4qzxgr"},{"txId":56698273,"txHash":"73bd4f570701df2c803d771732852223d98de8718782ebfb8f0ce5be6c0ac8db","txTime":"2022/12/05 17:28:22","block":8101419,"epoch":379,"slotNo":78695011,"epochSlotNo":330211,"stakeKey":"stake1u8uymljt8tnzddw73tfd5s6u7yhjtsuu3rgunfudlvazskgacs8zg"},{"txId":56698236,"txHash":"2c23da6c4a012a60e83b6b94fb794841ccef41b19c3936a8cd738e9625cb2b4a","txTime":"2022/12/05 17:27:11","block":8101416,"epoch":379,"slotNo":78694940,"epochSlotNo":330140,"stakeKey":"stake1uym5q6xgd30sj5fktctt9lg2g0x5z9ayng9xg27tzuh84ucu83ggf"},{"txId":56698133,"txHash":"50eab119b0eed9d8635aff51992521dc48d9ed7433548ed58296439a5ebb6431","txTime":"2022/12/05 17:25:04","block":8101408,"epoch":379,"slotNo":78694813,"epochSlotNo":330013,"stakeKey":"stake1u90l2zmft0z64sp6ng56m7ulg5tcq3ekwddkyamn494p8usjlqny5"},{"txId":56698111,"txHash":"a4de3346b56782b2e028e5e00c6a80727f8b9e7171f88901800eeb100e984ccd","txTime":"2022/12/05 17:24:59","block":8101407,"epoch":379,"slotNo":78694808,"epochSlotNo":330008,"stakeKey":"stake1uyvjx4c4dhhrawchzu49nkzc2dg44444uxpdlesuqlvul6cpqv7pp"},{"txId":56698046,"txHash":"88da097dc9c436fd27b19f1d368ab6f8a986ea46e855a6ef9e45d2871f303596","txTime":"2022/12/05 17:24:14","block":8101404,"epoch":379,"slotNo":78694763,"epochSlotNo":329963,"stakeKey":"stake1u8uymljt8tnzddw73tfd5s6u7yhjtsuu3rgunfudlvazskgacs8zg"},{"txId":56697797,"txHash":"f14fb3694d344e6c0596f8c6207d2e83a11928b28d8839ea04a286016dc1a557","txTime":"2022/12/05 17:19:32","block":8101387,"epoch":379,"slotNo":78694481,"epochSlotNo":329681,"stakeKey":"stake1u8uymljt8tnzddw73tfd5s6u7yhjtsuu3rgunfudlvazskgacs8zg"},{"txId":56697570,"txHash":"714b0bd898ac5f2e310ed76d4fe97af5b7288bba1c954f4ee51f34b523aa5abc","txTime":"2022/12/05 17:14:35","block":8101372,"epoch":379,"slotNo":78694184,"epochSlotNo":329384,"stakeKey":"stake1u9rr5h0s6am4efr6yzem4hhv904a2w88dprtqmxvjj0cdmgql74mj"},{"txId":56697556,"txHash":"ac22201140f1e6f425b7bddbaee214b7f7f9818bad3859c6a0c67ed110fc049d","txTime":"2022/12/05 17:14:03","block":8101371,"epoch":379,"slotNo":78694152,"epochSlotNo":329352,"stakeKey":"stake1uxwuk62adxlsdeyylmsczs57myrtnt99hsx28yhvj0ew8mcq7wu97"},{"txId":56697464,"txHash":"21a6ec1076ec62a6bb16a8c1587e061d2d6b5c67158addcf1c76301aab611786","txTime":"2022/12/05 17:12:33","block":8101367,"epoch":379,"slotNo":78694062,"epochSlotNo":329262,"stakeKey":"stake1u87kcd30jq46ften5q8egehwfd6zyyjhpdz0q2lz2rpqvqqhjp3wf"},{"txId":56697251,"txHash":"ae4a0e5eeca2a3e8cb5e3f85b68da71ff1b46bd8cccc2a41fa02cfd96f49a7b4","txTime":"2022/12/05 17:07:44","block":8101359,"epoch":379,"slotNo":78693773,"epochSlotNo":328973,"stakeKey":"stake1u8uymljt8tnzddw73tfd5s6u7yhjtsuu3rgunfudlvazskgacs8zg"},{"txId":56697163,"txHash":"1b7066406769479651331ae4c07d34cfe7ee8621f8a0db09ab8f2143ecefce60","txTime":"2022/12/05 17:06:09","block":8101355,"epoch":379,"slotNo":78693678,"epochSlotNo":328878,"stakeKey":"stake1ux7uxdsknw3q96nz2j6vme5w8l05dt082d4uc0vcfek3jsclvkpaf"},{"txId":56697076,"txHash":"60d3fe46f3f65f2390657bca32ae84e253ee2b36eba50afc6444868eee389b04","txTime":"2022/12/05 17:04:23","block":8101351,"epoch":379,"slotNo":78693572,"epochSlotNo":328772,"stakeKey":"stake1uxt9lzsr8ak63yrxvufy6nqxetc9u6dgupcx0a3rvjqcqyggujlgz"},{"txId":56696921,"txHash":"587f577dcaf6dede6fbef8c49ef2400088b4dac54006e2cc7eb71a91d1f1beb8","txTime":"2022/12/05 17:01:19","block":8101343,"epoch":379,"slotNo":78693388,"epochSlotNo":328588,"stakeKey":"stake1u8nt2rx2qdwk3ffkuqmwy3zvws0sjguy7cxdm4g583y2tqsve7g0k"},{"txId":56696776,"txHash":"3b1c0b82a721366b402d2a5f56e1193b515f23a5cf524b6fec52e72156db7ea8","txTime":"2022/12/05 16:59:01","block":8101336,"epoch":379,"slotNo":78693250,"epochSlotNo":328450,"stakeKey":"stake1uyu35vsgfkl0qgrqphvsthhy9tuxgk54xphgfktjpw857rs7se5hj"}],"totalItems":1616387,"totalPages":80820,"currentPage":0}