{"data":[{"no":400,"status":"SYNCING","blkCount":5802,"outSum":41359293052525960,"txCount":106540,"startTime":"2023/03/16 21:48:38","endTime":"2023/03/18 06:51:20","maxSlot":432000},{"no":399,"status":"FINISHED","blkCount":20970,"outSum":145160573958525779,"txCount":306486,"startTime":"2023/03/11 21:48:16","endTime":"2023/03/16 21:44:34","maxSlot":432000},{"no":398,"status":"FINISHED","blkCount":21190,"outSum":127361998599905598,"txCount":277507,"startTime":"2023/03/06 21:46:33","endTime":"2023/03/11 21:44:09","maxSlot":432000},{"no":397,"status":"FINISHED","blkCount":21003,"outSum":117709951461169925,"txCount":287849,"startTime":"2023/03/01 21:45:54","endTime":"2023/03/06 21:44:50","maxSlot":432000},{"no":396,"status":"FINISHED","blkCount":21174,"outSum":100466857069982496,"txCount":308357,"startTime":"2023/02/24 21:47:42","endTime":"2023/03/01 21:44:38","maxSlot":432000},{"no":395,"status":"FINISHED","blkCount":21034,"outSum":109977568455778703,"txCount":289491,"startTime":"2023/02/19 21:44:59","endTime":"2023/02/24 21:44:48","maxSlot":432000},{"no":394,"status":"FINISHED","blkCount":20553,"outSum":120057607323652241,"txCount":300303,"startTime":"2023/02/14 21:46:16","endTime":"2023/02/19 21:44:43","maxSlot":432000},{"no":393,"status":"FINISHED","blkCount":20821,"outSum":95262571199524147,"txCount":342053,"startTime":"2023/02/09 21:46:32","endTime":"2023/02/14 21:44:50","maxSlot":432000},{"no":392,"status":"FINISHED","blkCount":20579,"outSum":107395985749177512,"txCount":403692,"startTime":"2023/02/04 21:48:54","endTime":"2023/02/09 21:44:34","maxSlot":432000},{"no":391,"status":"FINISHED","blkCount":21084,"outSum":92524788844426681,"txCount":441211,"startTime":"2023/01/30 21:46:15","endTime":"2023/02/04 21:44:37","maxSlot":432000}],"totalItems":401,"totalPages":41,"currentPage":0}