{"data":[{"txId":61601510,"txHash":"1619930ca88ac6098b3f9f293a1eb9fb064d0aa8a1da6bc666124a7edd9ac63f","txTime":"2023/02/08 18:58:45","block":8374681,"epoch":392,"slotNo":84316434,"epochSlotNo":335634,"stakeKey":"stake1u9x5gw5mjpurxr5mfv3ly8jchk8rpzlfvedrxh6pqs5wkmglm5uxh"},{"txId":61601493,"txHash":"2bc88814cc45545ace1e5ad64f6429a2df464abcef42a8bd80f8db177781948d","txTime":"2023/02/08 18:58:45","block":8374681,"epoch":392,"slotNo":84316434,"epochSlotNo":335634,"stakeKey":"stake1u8at0tzjzlglqm4mwnmxyaee23j2fm6e85esg87cqmsqe9sck7xjm"},{"txId":61601366,"txHash":"e50d25d768d04230768af463454ea069de4bd6c12b2c6a94eda7d646991f20a6","txTime":"2023/02/08 18:56:15","block":8374672,"epoch":392,"slotNo":84316284,"epochSlotNo":335484,"stakeKey":"stake1uxsj75nzhp95xj0jxk2jfaps5u0k4jdjgaen49h5wg54jcqnuvh28"},{"txId":61601336,"txHash":"7adc1b2aa67fa35c2eaad1c810e817a7e024921fd547610ca49f04f31c5c6346","txTime":"2023/02/08 18:55:38","block":8374671,"epoch":392,"slotNo":84316247,"epochSlotNo":335447,"stakeKey":"stake1u8ul9y8kt05jaq47d7dqyapma5w8q82qp59jnl4pwh3fpvqx7mrqm"},{"txId":61601304,"txHash":"1b623a520053c011b90a0a63181d65e73f90ea07c0772f903149140cb079dc9a","txTime":"2023/02/08 18:55:20","block":8374670,"epoch":392,"slotNo":84316229,"epochSlotNo":335429,"stakeKey":"stake1uy968xjnetpfaewma7u4vpws4pv4t7zlj07aa0l9hhncfxszu0vly"},{"txId":61601231,"txHash":"1ab955d40d97f66400590fa9d1c2313b0b45ed1139b8dd472e9b3ca1b37a79a9","txTime":"2023/02/08 18:54:25","block":8374667,"epoch":392,"slotNo":84316174,"epochSlotNo":335374,"stakeKey":"stake1uxqmp6ew6u2drn206g0ka6cdm7p22gfv53235wlr26rff6szsl9zd"},{"txId":61601206,"txHash":"66d360eb97a03e8cddec86b605b2e413801e16d76f50bc4c2daaa7d89cb771c7","txTime":"2023/02/08 18:53:40","block":8374666,"epoch":392,"slotNo":84316129,"epochSlotNo":335329,"stakeKey":"stake1u9jr7fk7cyx2yagyy0s0vh0dk0zu5je9xu22ppdk24dmc7ckyy8v8"},{"txId":61601172,"txHash":"34e38dd4ea381bbb41b598ed212ece3db4a555fd40d2fd315f4f35a3c7909ae2","txTime":"2023/02/08 18:53:40","block":8374666,"epoch":392,"slotNo":84316129,"epochSlotNo":335329,"stakeKey":"stake1u99tmajd0j5ah8uchunz6uxsh4sj2qak0qm8fvm77g6a2rsrft5vj"},{"txId":61601137,"txHash":"3ed697c92d6c8076c12b078d98aae026224cf5cfe8adb8def379844e621e7126","txTime":"2023/02/08 18:52:26","block":8374663,"epoch":392,"slotNo":84316055,"epochSlotNo":335255,"stakeKey":"stake1u93235dn7v6vm8s7rr5cpmdw9a050sc4kmk3r3eddpmrphchwqr6u"},{"txId":61601025,"txHash":"b0425f6ea24d5648ee42ad2efc1582c8e094432cb6a3b5dc650d63940bb3db4a","txTime":"2023/02/08 18:50:42","block":8374659,"epoch":392,"slotNo":84315951,"epochSlotNo":335151,"stakeKey":"stake1uxet2snf3lmvp6rnhtd30345w44h0ty6srp9ampdvtc7y0g57qqnt"},{"txId":61600989,"txHash":"45bacf95c09a510aec732efe0ae0fc732a04ca1f287f88a3f4aef4f5bf4cc039","txTime":"2023/02/08 18:49:46","block":8374655,"epoch":392,"slotNo":84315895,"epochSlotNo":335095,"stakeKey":"stake1ux2u8mfdkj4qkhrf7tyndu4grmndmf38x4wzasxx3dss0mcv7qjwe"},{"txId":61600961,"txHash":"bac3ee05587edd654c03c0d75febd335e965f0f3981a6c95dcde87185b3982ea","txTime":"2023/02/08 18:49:45","block":8374654,"epoch":392,"slotNo":84315894,"epochSlotNo":335094,"stakeKey":"stake1u9hzp7xlcx6hcjgcp0vnl4wacwwgmkx2yjfxqpxqu2fnj3stus5jp"},{"txId":61600810,"txHash":"26dfbabd59f7973b00a66e41cb5a175935ce4df2b34dafccf42ea95c19a96dc3","txTime":"2023/02/08 18:46:36","block":8374642,"epoch":392,"slotNo":84315705,"epochSlotNo":334905,"stakeKey":"stake1u9x5gw5mjpurxr5mfv3ly8jchk8rpzlfvedrxh6pqs5wkmglm5uxh"},{"txId":61600789,"txHash":"0e481e7b1cded63289a750780b998a7df171d33a6e00fa86e2aca6e2d9f8576e","txTime":"2023/02/08 18:46:36","block":8374642,"epoch":392,"slotNo":84315705,"epochSlotNo":334905,"stakeKey":"stake1u98gsjqq65rzntw2fkk9fxtyr8lqr6vy8zwaf9sfwkcq0uq7xz4mv"},{"txId":61600757,"txHash":"cf5a0b8db5eb6aae8f5b994450422388b31bba9ca1667681c564b2d24a800b82","txTime":"2023/02/08 18:45:32","block":8374640,"epoch":392,"slotNo":84315641,"epochSlotNo":334841,"stakeKey":"stake1uyl3mjuf8d8jkamkx82dr9d4nmxmq2m6vzf4sm4fwlne65gu2d6hp"},{"txId":61600694,"txHash":"394228c3be33cd462ff848ccce43dde6e4dc723522cbc44ba19e5714d1f48be5","txTime":"2023/02/08 18:44:45","block":8374638,"epoch":392,"slotNo":84315594,"epochSlotNo":334794,"stakeKey":"stake1ux2hy2yx7d4uulw6029cux3eyvw0ar6wkzltr7qpp5w2ddgstxv9r"},{"txId":61600490,"txHash":"c7b7eccce71e640f6ea678f0e54084242e7b537e5ce3ec6fd0606f5364c1a0a0","txTime":"2023/02/08 18:41:18","block":8374621,"epoch":392,"slotNo":84315387,"epochSlotNo":334587,"stakeKey":"stake1ux0kc3t4pjv6tt0drffvz85uf0z79elcw0xydwqd06t00vc0alv86"},{"txId":61600297,"txHash":"cef17fb743b8cfd5abc9ba6a35c3f270a3f02c3b4bb23584829582b22d04f9f0","txTime":"2023/02/08 18:38:39","block":8374615,"epoch":392,"slotNo":84315228,"epochSlotNo":334428,"stakeKey":"stake1u9qsg9sknsknku8cldnva0cp4k63p36tqdwv5j0thu23m5gwfvtd6"},{"txId":61600176,"txHash":"b74c38f0d516b1a28e5f0cf8e84efa2cb6812304c9b8cbe6f672b7470057a8aa","txTime":"2023/02/08 18:35:59","block":8374607,"epoch":392,"slotNo":84315068,"epochSlotNo":334268,"stakeKey":"stake1u8s6njqv8hp7k4qf24jesdvfzmv5we28a2afgvmwpqkj9sst2wsy9"},{"txId":61600059,"txHash":"a77697fffa95f6da500159a55a2b76c3d608c5678c25659c01665d314f5bbe0f","txTime":"2023/02/08 18:33:11","block":8374599,"epoch":392,"slotNo":84314900,"epochSlotNo":334100,"stakeKey":"stake1u863kj2zqsmut0g2ks73ue679hf5ws7gaezv4rg0tzhzfrgx5yf87"}],"totalItems":1661635,"totalPages":83082,"currentPage":0}