{"data":[{"hash":"b7ca40cd11df78582ebbd7ef098ff5a4f596d1d213d2c7451485545d419234cc","blockNo":1076039,"blockHash":"d2f8b3fa8c2f7ab6d095fa171d4c5cd8ad383cf9edbb0a6cb7d6e99fb7e6d2cf","epochNo":77,"epochSlotNo":42568,"slot":31664968,"time":"2023/06/21 11:49:28","addressesInput":["addr_test1wqsac5ndrxtathzrgcl73dv34xqr4nalat8eenaamd36uyczc90mj","addr_test1vz98k20n9vtg9vxy7x8cqd486ua0fdnajtxmkzt6dect4age3dwah","addr_test1vz98k20n9vtg9vxy7x8cqd486ua0fdnajtxmkzt6dect4age3dwah"],"addressesOutput":["addr_test1wqsac5ndrxtathzrgcl73dv34xqr4nalat8eenaamd36uyczc90mj","addr_test1vz98k20n9vtg9vxy7x8cqd486ua0fdnajtxmkzt6dect4age3dwah","addr_test1vz98k20n9vtg9vxy7x8cqd486ua0fdnajtxmkzt6dect4age3dwah"],"fee":256669,"totalOutput":10459985,"tokens":[]},{"hash":"112ef51b8e520cf17401aa85d115f3dc40f10f0a93c41424ae32dd1355de133d","blockNo":1076038,"blockHash":"2036a13170fe32ec8cccde518d8fb21acf269949b7e85271b5928a32d965290b","epochNo":77,"epochSlotNo":42513,"slot":31664913,"time":"2023/06/21 11:48:33","addressesInput":["addr_test1qp7fvggldahkg6svskygfp6f6naf53c0hh5jrry6kyrtawrujcs37mm0v34qepvgsjr5n486nfrsl00fyxxf4vgxh6uqyg84x9"],"addressesOutput":["addr_test1qrqpyzuvxqv70pdn77xuxn707kvv0qlcpr5082duywmxr47qzg9ccvqeu7zm8audcd8ulavcc7plsz8g7w5mcgakv8tsh5cuxv","addr_test1qp7fvggldahkg6svskygfp6f6naf53c0hh5jrry6kyrtawrujcs37mm0v34qepvgsjr5n486nfrsl00fyxxf4vgxh6uqyg84x9"],"fee":168229,"totalOutput":355383370,"tokens":[]},{"hash":"e9ab2fe8fae805e0f7d96e4ce503212f5a0a7f7f23c2856bce1db0aa9772fb65","blockNo":1076038,"blockHash":"2036a13170fe32ec8cccde518d8fb21acf269949b7e85271b5928a32d965290b","epochNo":77,"epochSlotNo":42513,"slot":31664913,"time":"2023/06/21 11:48:33","addressesInput":["addr_test1vqe33tv0p36r5e6gx8tfunrpcrvqtmdxjkc0yzj07rk7h3gp7wqvu","addr_test1wzy3mgdf6t7ltzcekf3dde2t27583q9lwjn2smsqh95g6agwgwcnm","addr_test1vqe33tv0p36r5e6gx8tfunrpcrvqtmdxjkc0yzj07rk7h3gp7wqvu"],"addressesOutput":["addr_test1wzy3mgdf6t7ltzcekf3dde2t27583q9lwjn2smsqh95g6agwgwcnm","addr_test1vqe33tv0p36r5e6gx8tfunrpcrvqtmdxjkc0yzj07rk7h3gp7wqvu","addr_test1vqe33tv0p36r5e6gx8tfunrpcrvqtmdxjkc0yzj07rk7h3gp7wqvu"],"fee":255895,"totalOutput":11744105,"tokens":[]},{"hash":"e2cdc6d76eda64af9041b80dc0833f22f86ee0a924222a2c8ba74d39dea79f6c","blockNo":1076038,"blockHash":"2036a13170fe32ec8cccde518d8fb21acf269949b7e85271b5928a32d965290b","epochNo":77,"epochSlotNo":42513,"slot":31664913,"time":"2023/06/21 11:48:33","addressesInput":["addr_test1wpw2m7va38s3472pk6wn0sxruj92k4fk6mte6ahqlyz8x0gwfhqy9","addr_test1qq7rrku33z0d8gcp4xkwa4r0ze2ru2qznhma7twlmv3mj4gdefwpxl0d4a8ld3n56urgxxrc9tqnz6qd52wpdywwnt4qqegjsf"],"addressesOutput":["addr_test1wpw2m7va38s3472pk6wn0sxruj92k4fk6mte6ahqlyz8x0gwfhqy9","addr_test1qq7rrku33z0d8gcp4xkwa4r0ze2ru2qznhma7twlmv3mj4gdefwpxl0d4a8ld3n56urgxxrc9tqnz6qd52wpdywwnt4qqegjsf"],"fee":340632,"totalOutput":4724987119,"tokens":[]},{"hash":"5181a8e016d7d9517ecd36aa0ad42be44a44d48e32989fb7266f9c569fa0da74","blockNo":1076036,"blockHash":"8cee917f19089d75d829114d750c16b379931ba454ab75584644dcab1d642c81","epochNo":77,"epochSlotNo":42464,"slot":31664864,"time":"2023/06/21 11:47:44","addressesInput":["addr_test1qrcfnr2wsngnk99gffkhau6pjh5zmtx4m9mc35w7k8cywedtmsffx9npf420zul7yzvq5s4uc3ayv9n898seg77xd2us28f8pd"],"addressesOutput":["addr_test1qqak220wjx2sluhjqsh8tf3ttznss9zjvfrm5ex3tlyrstw8h3zn6f6zumvfdspt6ya9c7s9jwttmyt6gl3pzndwcvkqya7gru","addr_test1qrcfnr2wsngnk99gffkhau6pjh5zmtx4m9mc35w7k8cywedtmsffx9npf420zul7yzvq5s4uc3ayv9n898seg77xd2us28f8pd"],"fee":240125,"totalOutput":9008330966,"tokens":[]},{"hash":"935eea112fbafc765b51fba7253d4de8e8ac44aeae3c14dd26182e74090b2bb7","blockNo":1076036,"blockHash":"8cee917f19089d75d829114d750c16b379931ba454ab75584644dcab1d642c81","epochNo":77,"epochSlotNo":42464,"slot":31664864,"time":"2023/06/21 11:47:44","addressesInput":["addr_test1vrghqljgzecagulwt2x4vx42cjslf6xfxl8xrew3rlqxz8crj5as6","addr_test1wzy3mgdf6t7ltzcekf3dde2t27583q9lwjn2smsqh95g6agwgwcnm","addr_test1vrghqljgzecagulwt2x4vx42cjslf6xfxl8xrew3rlqxz8crj5as6"],"addressesOutput":["addr_test1wzy3mgdf6t7ltzcekf3dde2t27583q9lwjn2smsqh95g6agwgwcnm","addr_test1vrghqljgzecagulwt2x4vx42cjslf6xfxl8xrew3rlqxz8crj5as6","addr_test1vrghqljgzecagulwt2x4vx42cjslf6xfxl8xrew3rlqxz8crj5as6"],"fee":260798,"totalOutput":246439409,"tokens":[]},{"hash":"225a6bbdf3f58902b5eb1228150668ff52b50a1952ecae07a70c9126834cca9f","blockNo":1076036,"blockHash":"8cee917f19089d75d829114d750c16b379931ba454ab75584644dcab1d642c81","epochNo":77,"epochSlotNo":42464,"slot":31664864,"time":"2023/06/21 11:47:44","addressesInput":["addr_test1vpwzy2m5v2svadxjqkj62z83xatq4hugvv9eklwv2wcc8hg3ecszk","addr_test1wzy3mgdf6t7ltzcekf3dde2t27583q9lwjn2smsqh95g6agwgwcnm","addr_test1vpwzy2m5v2svadxjqkj62z83xatq4hugvv9eklwv2wcc8hg3ecszk"],"addressesOutput":["addr_test1wzy3mgdf6t7ltzcekf3dde2t27583q9lwjn2smsqh95g6agwgwcnm","addr_test1vpwzy2m5v2svadxjqkj62z83xatq4hugvv9eklwv2wcc8hg3ecszk","addr_test1vpwzy2m5v2svadxjqkj62z83xatq4hugvv9eklwv2wcc8hg3ecszk"],"fee":256669,"totalOutput":10482577,"tokens":[]},{"hash":"2e4aac0458c0f290e5708e9d8dae00e03f6a856a53354cd2583e52abbd149a41","blockNo":1076024,"blockHash":"ca87b900da4b1f5a3da1031c2a8b5e18d50ca453950aa252e331ea7cca624707","epochNo":77,"epochSlotNo":42143,"slot":31664543,"time":"2023/06/21 11:42:23","addressesInput":["addr_test1vpaj23sumpjry3q5x0eg3dngysq2dwl04chzapzdhwujpaqlmmjv3"],"addressesOutput":["addr_test1vqnku6rsllyln4fa5s4tlv5ujx0y6kvu4mzzfh5jaht8nfq8584jf"],"fee":179141,"totalOutput":1820859,"tokens":[]},{"hash":"6eeb32a0d97fa9a0ca27b98b5ccab48fb419788d8c25ca2012b9f0851c78fcac","blockNo":1076023,"blockHash":"1ccbfb1dbb8d55967ff3e49d5cc195251f31d8877a3cf14168d19fb76ca926ad","epochNo":77,"epochSlotNo":42125,"slot":31664525,"time":"2023/06/21 11:42:05","addressesInput":["addr_test1vq3ggnaz8k0yfya28xgachazmyc5p08vpnxrwazxca6mv3sp39n3t"],"addressesOutput":["addr_test1vpaj23sumpjry3q5x0eg3dngysq2dwl04chzapzdhwujpaqlmmjv3","addr_test1vq3ggnaz8k0yfya28xgachazmyc5p08vpnxrwazxca6mv3sp39n3t"],"fee":192517,"totalOutput":309736449,"tokens":[]},{"hash":"d1ff20939ce56a7ad13de1ec760e3a082c8f1b99c331cb2d3f15a061d595fc99","blockNo":1076019,"blockHash":"806ae7e682598f901581492ea75197eeb9441a3e5197ba9b42c7efdad2a6068c","epochNo":77,"epochSlotNo":42051,"slot":31664451,"time":"2023/06/21 11:40:51","addressesInput":["addr_test1qzy5vum2lwp7myhaf4vr3zqa2ngsstvqsfeq0q7megs4svdhlajqqtazxga6x8megax3a5f9a337y74dkxux0nzjhr5sewwr8y"],"addressesOutput":["addr_test1qr2pxfgwcfuzw5ydnv24xlrp5xafaf0cmm7jh2y09f0nx2dhlajqqtazxga6x8megax3a5f9a337y74dkxux0nzjhr5sgmmvgm","addr_test1qqm9g6jlqmxhnmylfh2l2u0a6s46uvykjkka8rguz5ft7zahlajqqtazxga6x8megax3a5f9a337y74dkxux0nzjhr5sa73xp2"],"fee":171837,"totalOutput":8039170213,"tokens":[]},{"hash":"6c01fd8e809be2351d8b74440eca4a803af4f3c3d87461e0dff6cf8c2781429f","blockNo":1076017,"blockHash":"20aff53300d03b796bbd57071f3a3b077a2cb508862c9b68bb81ea1d1acc5b03","epochNo":77,"epochSlotNo":42005,"slot":31664405,"time":"2023/06/21 11:40:05","addressesInput":["addr_test1vrpndfxnauuezwmruc0eyqyd2xg42mknc0zuzx6swe9ureqrthyny","addr_test1wzy3mgdf6t7ltzcekf3dde2t27583q9lwjn2smsqh95g6agwgwcnm","addr_test1vrpndfxnauuezwmruc0eyqyd2xg42mknc0zuzx6swe9ureqrthyny"],"addressesOutput":["addr_test1wzy3mgdf6t7ltzcekf3dde2t27583q9lwjn2smsqh95g6agwgwcnm","addr_test1vrpndfxnauuezwmruc0eyqyd2xg42mknc0zuzx6swe9ureqrthyny","addr_test1vrpndfxnauuezwmruc0eyqyd2xg42mknc0zuzx6swe9ureqrthyny"],"fee":256669,"totalOutput":11487436,"tokens":[]},{"hash":"4988156264e02429765f20e2da22ea10b98e5aa20e96df9c77d78f6399a159f7","blockNo":1076017,"blockHash":"20aff53300d03b796bbd57071f3a3b077a2cb508862c9b68bb81ea1d1acc5b03","epochNo":77,"epochSlotNo":42005,"slot":31664405,"time":"2023/06/21 11:40:05","addressesInput":["addr_test1wqsac5ndrxtathzrgcl73dv34xqr4nalat8eenaamd36uyczc90mj","addr_test1wqsac5ndrxtathzrgcl73dv34xqr4nalat8eenaamd36uyczc90mj","addr_test1vz7st3e4f5tqzyldkwdr9gkwvpzlfr6364egl7ha4ck7emctt2gnq","addr_test1wqsac5ndrxtathzrgcl73dv34xqr4nalat8eenaamd36uyczc90mj","addr_test1vz7st3e4f5tqzyldkwdr9gkwvpzlfr6364egl7ha4ck7emctt2gnq"],"addressesOutput":["addr_test1wqsac5ndrxtathzrgcl73dv34xqr4nalat8eenaamd36uyczc90mj","addr_test1wqsac5ndrxtathzrgcl73dv34xqr4nalat8eenaamd36uyczc90mj","addr_test1wqsac5ndrxtathzrgcl73dv34xqr4nalat8eenaamd36uyczc90mj","addr_test1vz7st3e4f5tqzyldkwdr9gkwvpzlfr6364egl7ha4ck7emctt2gnq","addr_test1vz7st3e4f5tqzyldkwdr9gkwvpzlfr6364egl7ha4ck7emctt2gnq"],"fee":1087681,"totalOutput":15615456,"tokens":[]},{"hash":"1fd5c06e845c9dc45ad340cee76a83e2cee9e3425d33c4805872313bb6dc1dc1","blockNo":1076015,"blockHash":"79fba1fa6b0ad2cc6247746c71d0c330e2b63550814377c4c2a736ffe97ff31c","epochNo":77,"epochSlotNo":41995,"slot":31664395,"time":"2023/06/21 11:39:55","addressesInput":["addr_test1wpw2m7va38s3472pk6wn0sxruj92k4fk6mte6ahqlyz8x0gwfhqy9","addr_test1qq7rrku33z0d8gcp4xkwa4r0ze2ru2qznhma7twlmv3mj4gdefwpxl0d4a8ld3n56urgxxrc9tqnz6qd52wpdywwnt4qqegjsf"],"addressesOutput":["addr_test1wpw2m7va38s3472pk6wn0sxruj92k4fk6mte6ahqlyz8x0gwfhqy9","addr_test1qq7rrku33z0d8gcp4xkwa4r0ze2ru2qznhma7twlmv3mj4gdefwpxl0d4a8ld3n56urgxxrc9tqnz6qd52wpdywwnt4qqegjsf"],"fee":340478,"totalOutput":4725327751,"tokens":[]},{"hash":"824e5a2a5ef8d9ce475cdcc5e643376a6b74fd1ee556e5a15cccc26db9d295c2","blockNo":1076013,"blockHash":"266deb960fb7a4c2b42a1844212c12fe80c2175b22da9561127e7115a3a08848","epochNo":77,"epochSlotNo":41966,"slot":31664366,"time":"2023/06/21 11:39:26","addressesInput":["addr_test1qrc8uwxkra4yprn3z975kfyr9j0eyp9auc8xj77l7snzaccxt8e8v7jg6td562al82jjujmv4ak0ess7lnd8hnk97pkqjplvz6"],"addressesOutput":["addr_test1qrc8uwxkra4yprn3z975kfyr9j0eyp9auc8xj77l7snzaccxt8e8v7jg6td562al82jjujmv4ak0ess7lnd8hnk97pkqjplvz6"],"fee":174477,"totalOutput":9997825523,"tokens":[]},{"hash":"b4cb3d8e61a0ef61bc844ce0a4abbf2d9b85fea418c366e82b4ddf394e6ae92d","blockNo":1076013,"blockHash":"266deb960fb7a4c2b42a1844212c12fe80c2175b22da9561127e7115a3a08848","epochNo":77,"epochSlotNo":41966,"slot":31664366,"time":"2023/06/21 11:39:26","addressesInput":["addr_test1qr38cxkshl74fr3hhv57ymeydxjnjptcz537azgrn9g6qfx8qpnlw9sd3yd59m3m58048kyv9d4qt5ftk8arpamcthmsynjrns","addr_test1qr38cxkshl74fr3hhv57ymeydxjnjptcz537azgrn9g6qfx8qpnlw9sd3yd59m3m58048kyv9d4qt5ftk8arpamcthmsynjrns","addr_test1qr38cxkshl74fr3hhv57ymeydxjnjptcz537azgrn9g6qfx8qpnlw9sd3yd59m3m58048kyv9d4qt5ftk8arpamcthmsynjrns"],"addressesOutput":["addr_test1qr38cxkshl74fr3hhv57ymeydxjnjptcz537azgrn9g6qfx8qpnlw9sd3yd59m3m58048kyv9d4qt5ftk8arpamcthmsynjrns","addr_test1qr38cxkshl74fr3hhv57ymeydxjnjptcz537azgrn9g6qfx8qpnlw9sd3yd59m3m58048kyv9d4qt5ftk8arpamcthmsynjrns"],"fee":226705,"totalOutput":6768425,"tokens":[]},{"hash":"afa3234dfaa36d0762da2c404bc284a9ab9f43bbe9c353f70e8cc8d0e0df5032","blockNo":1076012,"blockHash":"da53f3ae8ec78d83b2b10504bedf69846408d90b8d09d2665fb430925ae2b000","epochNo":77,"epochSlotNo":41824,"slot":31664224,"time":"2023/06/21 11:37:04","addressesInput":["addr_test1vrf44qevuuxs3g639p5r77k45k3l73klyg984afry4fluxq0s8f2z","addr_test1qqckxp95e3suyrfahx8q9v3atfl6wgw467s9g9sfkvagtm6tmmhs5qucftz0jfu8glvzdl4k56tepx8663hj5merv8jsws8qhz"],"addressesOutput":["addr_test1vz5p92fpsngayfsagypesf8a6426fvaknkn6a3h43nyhmks6ywn7y","addr_test1vrf44qevuuxs3g639p5r77k45k3l73klyg984afry4fluxq0s8f2z"],"fee":173333,"totalOutput":25731244,"tokens":[]},{"hash":"e825c9d52fc2c40cf2a14c48166307cd3948cbc4cc9ca4652b3e36cd10539f48","blockNo":1076009,"blockHash":"1b32f82d8cb842fd09bc1cc64abe79e1d0b44999589af088e2151f47940e7b43","epochNo":77,"epochSlotNo":41799,"slot":31664199,"time":"2023/06/21 11:36:39","addressesInput":["addr_test1vqd7zlq0ajs890445w269pk2f0exna60x0dcq5ynxllnm0gklgz9m","addr_test1wqsac5ndrxtathzrgcl73dv34xqr4nalat8eenaamd36uyczc90mj","addr_test1vqd7zlq0ajs890445w269pk2f0exna60x0dcq5ynxllnm0gklgz9m"],"addressesOutput":["addr_test1wqsac5ndrxtathzrgcl73dv34xqr4nalat8eenaamd36uyczc90mj","addr_test1vqd7zlq0ajs890445w269pk2f0exna60x0dcq5ynxllnm0gklgz9m","addr_test1vqd7zlq0ajs890445w269pk2f0exna60x0dcq5ynxllnm0gklgz9m"],"fee":255895,"totalOutput":10976420,"tokens":[]},{"hash":"aa6ec0cb39821ede4ad13bf1429d1154b9f855b10ee30480aef22c8dab2c97e5","blockNo":1076009,"blockHash":"1b32f82d8cb842fd09bc1cc64abe79e1d0b44999589af088e2151f47940e7b43","epochNo":77,"epochSlotNo":41799,"slot":31664199,"time":"2023/06/21 11:36:39","addressesInput":["addr_test1vpv3s36futt85l4zegc77j8up0hm8sl66k5g4aexg5c6upc3hygac","addr_test1wqsac5ndrxtathzrgcl73dv34xqr4nalat8eenaamd36uyczc90mj","addr_test1vpv3s36futt85l4zegc77j8up0hm8sl66k5g4aexg5c6upc3hygac"],"addressesOutput":["addr_test1wqsac5ndrxtathzrgcl73dv34xqr4nalat8eenaamd36uyczc90mj","addr_test1vpv3s36futt85l4zegc77j8up0hm8sl66k5g4aexg5c6upc3hygac","addr_test1vpv3s36futt85l4zegc77j8up0hm8sl66k5g4aexg5c6upc3hygac"],"fee":255895,"totalOutput":11744105,"tokens":[]},{"hash":"2464d5bd3277c794b81c6483fe0e84ba51f99627258a4d64a030ee8922f50200","blockNo":1076009,"blockHash":"1b32f82d8cb842fd09bc1cc64abe79e1d0b44999589af088e2151f47940e7b43","epochNo":77,"epochSlotNo":41799,"slot":31664199,"time":"2023/06/21 11:36:39","addressesInput":["addr_test1vptykfqquzgpuvm98zl2966g7zav32nhkrp6jj8s0ng4luq3kcv6w","addr_test1vptykfqquzgpuvm98zl2966g7zav32nhkrp6jj8s0ng4luq3kcv6w","addr_test1wqsac5ndrxtathzrgcl73dv34xqr4nalat8eenaamd36uyczc90mj"],"addressesOutput":["addr_test1wqsac5ndrxtathzrgcl73dv34xqr4nalat8eenaamd36uyczc90mj","addr_test1vptykfqquzgpuvm98zl2966g7zav32nhkrp6jj8s0ng4luq3kcv6w","addr_test1vptykfqquzgpuvm98zl2966g7zav32nhkrp6jj8s0ng4luq3kcv6w"],"fee":256669,"totalOutput":10460760,"tokens":[]},{"hash":"9705b472beddf150d5766d6498923ade40da247ec246a96cff4675094b63b834","blockNo":1076009,"blockHash":"1b32f82d8cb842fd09bc1cc64abe79e1d0b44999589af088e2151f47940e7b43","epochNo":77,"epochSlotNo":41799,"slot":31664199,"time":"2023/06/21 11:36:39","addressesInput":["addr_test1vzdfeqsgnp04cjfylr6aktpp6whwvzlhtwfu3afey6udycgqu74wy"],"addressesOutput":["addr_test1qqckxp95e3suyrfahx8q9v3atfl6wgw467s9g9sfkvagtm6tmmhs5qucftz0jfu8glvzdl4k56tepx8663hj5merv8jsws8qhz","addr_test1vqnku6rsllyln4fa5s4tlv5ujx0y6kvu4mzzfh5jaht8nfq8584jf","addr_test1qra0gr5k0dqzse8j0ywn6mw3vv0fpvccu0gyp4pm6et0sdwkyft0t7q3aqjzk9rdu6yn3hfd2czs5l3cvdejew9qy6ksuajqzd"],"fee":206773,"totalOutput":5793227,"tokens":[]}],"totalItems":959997,"totalPages":48000,"currentPage":0}