{"data":[{"blockNo":8367675,"slotNo":84169187,"epochNo":392,"epochSlotNo":188387,"hash":"b8e3a9ef931a4c31c34f7dd6a00ca6d0debabb8bf4655c68766726b2f092deeb","time":"2023/02/07 02:04:38","txCount":16,"totalFees":5015069,"totalOutput":192031327517,"slotLeader":"7c5d59f69e113939aa1e19f081cc0884e2b85a55768a4347bf356191"},{"blockNo":8367674,"slotNo":84169170,"epochNo":392,"epochSlotNo":188370,"hash":"67267685176c05bfeafe9a2b4803b4ec399e3771143b72dcd56b19da2470dd32","time":"2023/02/07 02:04:21","txCount":27,"totalFees":9657249,"totalOutput":4916710486320,"slotLeader":"a9807616077f17a66dc12c562bfc8dbc1a0b9ad1c96591fd56ffafb5"},{"blockNo":8367673,"slotNo":84169140,"epochNo":392,"epochSlotNo":188340,"hash":"e6ec454a67c11c76bfe98ad38a57f924c3de2943d94a9ab3df296df75477e5e9","time":"2023/02/07 02:03:51","txCount":32,"totalFees":9242846,"totalOutput":2107645379119,"slotLeader":"024dcb42f0aa6d81a7e26ccdd525a2ed3e9665d126b38ba0f8b77b50"},{"blockNo":8367672,"slotNo":84169104,"epochNo":392,"epochSlotNo":188304,"hash":"575868faa21b79256fd707348ebf4c83d7430d429cc433288d1e8115afc6d6ce","time":"2023/02/07 02:03:15","txCount":0,"totalFees":0,"totalOutput":0,"slotLeader":"6b51a5aae5b4b5f07f38acf12816b4f8a558ee2840d0dba69040aeb2"},{"blockNo":8367671,"slotNo":84169102,"epochNo":392,"epochSlotNo":188302,"hash":"4cfe992277094915b8cbb6773d0498d6a1a3366d0f08e7921c502403163491ab","time":"2023/02/07 02:03:13","txCount":9,"totalFees":2221505,"totalOutput":23861353935795,"slotLeader":"707725a41873178814530f39fb14a4b2842d05377e2b62a546fe2014"},{"blockNo":8367670,"slotNo":84169090,"epochNo":392,"epochSlotNo":188290,"hash":"9be04c25d31fbe6379e35da05e4c9179b39e686c7a6c01ecde0649934bc3a94a","time":"2023/02/07 02:03:01","txCount":16,"totalFees":5681316,"totalOutput":1409330878652,"slotLeader":"c83beb18d532234c72a304ab935982be670c22e771b227a3febc3a82"},{"blockNo":8367669,"slotNo":84169059,"epochNo":392,"epochSlotNo":188259,"hash":"d4deb5d7fa6bee1690a5140d36880603078cbc30803d2d2e0eb640772a6a5f13","time":"2023/02/07 02:02:30","txCount":5,"totalFees":2486400,"totalOutput":2224571137,"slotLeader":"237795878bfa5352cca325012e073b344ce337a1dd752cd3d5ea4cdc"},{"blockNo":8367668,"slotNo":84169052,"epochNo":392,"epochSlotNo":188252,"hash":"9a232caa1df2f378fc93fc16efdba64fa1a3e9e5f3c962ef3738cf6ed00c71a6","time":"2023/02/07 02:02:23","txCount":18,"totalFees":5090726,"totalOutput":519591341436,"slotLeader":"9417e18efcc4c258df21c89942009a498a751a0a63f8d72714cf75b2"},{"blockNo":8367667,"slotNo":84169027,"epochNo":392,"epochSlotNo":188227,"hash":"ac83c55ef4ad3adb7cf49242c8efa4902292f0afafba8c2862eb9e06b957a0df","time":"2023/02/07 02:01:58","txCount":9,"totalFees":5022281,"totalOutput":5994626561984,"slotLeader":"5b60373e718a3647ec57f610b9942f91286748ddeaa0ad226acb927b"},{"blockNo":8367666,"slotNo":84169021,"epochNo":392,"epochSlotNo":188221,"hash":"b09e844a55481134f9c474e5dd8cfb190e560a06cb3add2e07fb0d514c9c64c4","time":"2023/02/07 02:01:52","txCount":18,"totalFees":4944001,"totalOutput":39142237614,"slotLeader":"0014cda8c1c48b64d542ae26e8b65d9e1953c0d5562ee620d6900f4c"}],"totalItems":8868,"totalPages":887,"currentPage":0}