{"data":[{"hash":"9adcd61e8aa901c2c4e1872514b1247b9d259e4ccd9147bcd9c38c5f122156f9","blockNo":6847390,"blockHash":"88805f30ea3bb5895ba0f88d3f9c22dc062b644dced3206d8f42df42e75c579e","epochNo":319,"epochSlotNo":113742,"slot":52558542,"time":"2022/02/06 05:20:33","addressesInput":["addr1q9as4k722j8v9dwtn8yrq0xrhhwztnqe886j9qm7069n6lkhjnxuvk76phshxd38rt3sv7ytyv90pljvc5gwxhfdw4sqrqt28l"],"addressesOutput":["addr1qx86s5c37qrveepc0n3s7hcsfrq60vv6vjcsyhdlkf2zpcd342u2rr5g9hg0gtvqzqydftgcfcrjm6j73gqdx6uv0fxqhwmrgm","addr1q876lsgr7kdwx6ayssf4gmfqe7cz9luxk6cznp33j5gl3pkhjnxuvk76phshxd38rt3sv7ytyv90pljvc5gwxhfdw4sqmhvcx4"],"fee":168669,"totalOutput":873992320924,"tokens":[]},{"hash":"995790b5328e9761fa6b6e63df8fbd56881495d47c5fce9a8ce52bcaeb313d19","blockNo":6847390,"blockHash":"88805f30ea3bb5895ba0f88d3f9c22dc062b644dced3206d8f42df42e75c579e","epochNo":319,"epochSlotNo":113742,"slot":52558542,"time":"2022/02/06 05:20:33","addressesInput":["addr1q8e6u5u02mjvnrpt2pmchewa4062xj0xkenqyde9mt5609xswzwamahzwkmqrvgn3j0le0a8d6nmehgj3qdqysndz89swfkxm0","addr1q8e6u5u02mjvnrpt2pmchewa4062xj0xkenqyde9mt5609xswzwamahzwkmqrvgn3j0le0a8d6nmehgj3qdqysndz89swfkxm0","addr1q8e6u5u02mjvnrpt2pmchewa4062xj0xkenqyde9mt5609xswzwamahzwkmqrvgn3j0le0a8d6nmehgj3qdqysndz89swfkxm0","addr1q8e6u5u02mjvnrpt2pmchewa4062xj0xkenqyde9mt5609xswzwamahzwkmqrvgn3j0le0a8d6nmehgj3qdqysndz89swfkxm0"],"addressesOutput":["addr1wy2mjh76em44qurn5x73nzqrxua7ataasftql0u2h6g88lc3gtgpz","addr1qy9yrva9vnxjd09vvnr7v8z7qzr73vyyd40qhnhz98yk9aq3wj76wr3m5njwkezqp2qzed6cgy40q3ax3yxddm29ygcqez2pvl","addr1q8e6u5u02mjvnrpt2pmchewa4062xj0xkenqyde9mt5609xswzwamahzwkmqrvgn3j0le0a8d6nmehgj3qdqysndz89swfkxm0"],"fee":199822,"totalOutput":4680232315,"tokens":[]},{"hash":"13ea16a625d2bf5d12265289e1163bd8a291d3a7aa5abccd6750bac83bfd775e","blockNo":6847390,"blockHash":"88805f30ea3bb5895ba0f88d3f9c22dc062b644dced3206d8f42df42e75c579e","epochNo":319,"epochSlotNo":113742,"slot":52558542,"time":"2022/02/06 05:20:33","addressesInput":["addr1q9478uq8uy8zkmlej847hjeteh7ztha48sgf64swhud4gk7fmmkg85yfq8c7nrysz63g2sq8ttmt8gn7jmgfqy995d4s94phwc"],"addressesOutput":["addr1q8kj2djen6fhh9x3gkl7qxzs7kty7ejmk3aj6s0j5jn6ty9vae45uks9r2hak6e5vyefh200372af5rdfkeg8hzfefrq9d69v3","addr1q9478uq8uy8zkmlej847hjeteh7ztha48sgf64swhud4gk7fmmkg85yfq8c7nrysz63g2sq8ttmt8gn7jmgfqy995d4s94phwc","addr1q9478uq8uy8zkmlej847hjeteh7ztha48sgf64swhud4gk7fmmkg85yfq8c7nrysz63g2sq8ttmt8gn7jmgfqy995d4s94phwc"],"fee":214737,"totalOutput":76769458,"tokens":[]},{"hash":"98de59e50edff8b648b00f825a0c539695c372a3ce752fc75c99007a18230c2c","blockNo":6847390,"blockHash":"88805f30ea3bb5895ba0f88d3f9c22dc062b644dced3206d8f42df42e75c579e","epochNo":319,"epochSlotNo":113742,"slot":52558542,"time":"2022/02/06 05:20:33","addressesInput":["addr1q9c85fghw7hpg37c40wz5cffjr7kx29kacnhgzchaq3yjgjpehhgcl4xgwc3evhstqqy8d9h79gcc6yvzq4k3kccrckqkyaps9","addr1q9c85fghw7hpg37c40wz5cffjr7kx29kacnhgzchaq3yjgjpehhgcl4xgwc3evhstqqy8d9h79gcc6yvzq4k3kccrckqkyaps9","addr1q9c85fghw7hpg37c40wz5cffjr7kx29kacnhgzchaq3yjgjpehhgcl4xgwc3evhstqqy8d9h79gcc6yvzq4k3kccrckqkyaps9","addr1q9c85fghw7hpg37c40wz5cffjr7kx29kacnhgzchaq3yjgjpehhgcl4xgwc3evhstqqy8d9h79gcc6yvzq4k3kccrckqkyaps9"],"addressesOutput":["addr1vym8aqkxz0p7zvu23tu7m9sccfr0gcpgyjpqzx3wj72qa7sauef2a","addr1qxs2efwn6xt4vuw24rkefccu8rzhk9d5fw8jvcqqdpcuyszpehhgcl4xgwc3evhstqqy8d9h79gcc6yvzq4k3kccrckqfeasju"],"fee":194321,"totalOutput":60791994,"tokens":[]},{"hash":"8bc8b9ec9bca6071f78498fb69560ea58a4dac0ad2af954a790a4d85f040b4fc","blockNo":6847390,"blockHash":"88805f30ea3bb5895ba0f88d3f9c22dc062b644dced3206d8f42df42e75c579e","epochNo":319,"epochSlotNo":113742,"slot":52558542,"time":"2022/02/06 05:20:33","addressesInput":["addr1qyh9cdfsatxu52lgte62x88wmklnnfx5jxjgqatcpq0fy05utp2m9w6e3sqn7z2wlwfajxcyy7r5kgagkd4p7luq90js3c83xt"],"addressesOutput":["addr1qxxh2dar8gq8ec7pwqry0337m5kwyq6pr64ms2svknpqtyyutp2m9w6e3sqn7z2wlwfajxcyy7r5kgagkd4p7luq90jsudp05d","addr1qxmslwud3yyhlss8kp0n3lygk0prx69tkndavwc63l63e4uutp2m9w6e3sqn7z2wlwfajxcyy7r5kgagkd4p7luq90js9dytc9","addr1qxmslwud3yyhlss8kp0n3lygk0prx69tkndavwc63l63e4uutp2m9w6e3sqn7z2wlwfajxcyy7r5kgagkd4p7luq90js9dytc9"],"fee":192077,"totalOutput":41604627,"tokens":[]},{"hash":"b8a258f90f4a78f9bdbc448cc8942c0a87cd30741b37af86fe10a0c2982f2e0a","blockNo":6847390,"blockHash":"88805f30ea3bb5895ba0f88d3f9c22dc062b644dced3206d8f42df42e75c579e","epochNo":319,"epochSlotNo":113742,"slot":52558542,"time":"2022/02/06 05:20:33","addressesInput":["addr1q8lsnma39thzln7asam624f9a3h4lk7pyw8l82x6vex9th8eyv3we9exw920macr9lpv7ysvyazns2vds4yqpdwyc77q2dpmdu","addr1q8lsnma39thzln7asam624f9a3h4lk7pyw8l82x6vex9th8eyv3we9exw920macr9lpv7ysvyazns2vds4yqpdwyc77q2dpmdu","addr1q8lsnma39thzln7asam624f9a3h4lk7pyw8l82x6vex9th8eyv3we9exw920macr9lpv7ysvyazns2vds4yqpdwyc77q2dpmdu"],"addressesOutput":["addr1w999n67e86jn6xal07pzxtrmqynspgx0fwmcmpua4wc6yzsxpljz3","addr1q8lsnma39thzln7asam624f9a3h4lk7pyw8l82x6vex9th8eyv3we9exw920macr9lpv7ysvyazns2vds4yqpdwyc77q2dpmdu"],"fee":251271,"totalOutput":26379725,"tokens":[]},{"hash":"1af3b1ecc3ad4b48382524826dc1ef267d994da694331066446f6cb8188c131a","blockNo":6847390,"blockHash":"88805f30ea3bb5895ba0f88d3f9c22dc062b644dced3206d8f42df42e75c579e","epochNo":319,"epochSlotNo":113742,"slot":52558542,"time":"2022/02/06 05:20:33","addressesInput":["addr1w9qzpelu9hn45pefc0xr4ac4kdxeswq7pndul2vuj59u8tqaxdznu","addr1vygde9yp2aawptr69wpght5l9wsk8duuuucxn46l6cymezq6e34h2","addr1wxaptpmxcxawvr3pzlhgnpmzz3ql43n2tc8mn3av5kx0yzs09tqh8","addr1wxaptpmxcxawvr3pzlhgnpmzz3ql43n2tc8mn3av5kx0yzs09tqh8"],"addressesOutput":["addr1w9qzpelu9hn45pefc0xr4ac4kdxeswq7pndul2vuj59u8tqaxdznu","addr1w9jx45flh83z6wuqypyash54mszwmdj8r64fydafxtfc6jgrw4rm3","addr1qx0mgt3em3xe3v5czlr8tgtma5slmwjp8v08d04xcnukmwn7xdunc8ld2tcv4xxr3mx6j69lhxgf3wjw94a770hltzmq94w9ux","addr1q93203fd5x4nu6t5fj3wq3a8srfrt7859gchhs4cx7y9l8cdpetx7gzdnd0kf5ux6afgmqzk8v6wcy8asvpukm6vxfzs00r6zx","addr1vygde9yp2aawptr69wpght5l9wsk8duuuucxn46l6cymezq6e34h2"],"fee":1545530,"totalOutput":15317830493,"tokens":[]},{"hash":"e84d0c6d7049cdf0b44773799760156e4874645f5c1b774704bd4089f7866cf8","blockNo":6847390,"blockHash":"88805f30ea3bb5895ba0f88d3f9c22dc062b644dced3206d8f42df42e75c579e","epochNo":319,"epochSlotNo":113742,"slot":52558542,"time":"2022/02/06 05:20:33","addressesInput":["addr1qy3u5pajywcsn3ahxl76cmgmzpw4egh59qh47wfkkt83e97r0alhchnza3yasnaqc83ypg4ur7tkzy0dh7gg7mtwvgessr23pk","addr1qy3u5pajywcsn3ahxl76cmgmzpw4egh59qh47wfkkt83e97r0alhchnza3yasnaqc83ypg4ur7tkzy0dh7gg7mtwvgessr23pk","addr1qy3u5pajywcsn3ahxl76cmgmzpw4egh59qh47wfkkt83e97r0alhchnza3yasnaqc83ypg4ur7tkzy0dh7gg7mtwvgessr23pk"],"addressesOutput":["addr1vy3ezthmqlwsefqu4v335hpnjx42ulz4jddxfa8x6qr2q0q8g00c7","addr1qy3u5pajywcsn3ahxl76cmgmzpw4egh59qh47wfkkt83e97r0alhchnza3yasnaqc83ypg4ur7tkzy0dh7gg7mtwvgessr23pk","addr1qy3u5pajywcsn3ahxl76cmgmzpw4egh59qh47wfkkt83e97r0alhchnza3yasnaqc83ypg4ur7tkzy0dh7gg7mtwvgessr23pk"],"fee":202461,"totalOutput":403574615,"tokens":[]},{"hash":"29f7195c346107f749ba7cea6435a9d8a9e0cf5a01ab0a945e25dc8d54d1386a","blockNo":6847390,"blockHash":"88805f30ea3bb5895ba0f88d3f9c22dc062b644dced3206d8f42df42e75c579e","epochNo":319,"epochSlotNo":113742,"slot":52558542,"time":"2022/02/06 05:20:33","addressesInput":["addr1q8yamur2nqxsvhvxkqeez6k87w8tay2hm6lgmw2xwgek395w7z2a4sna4s5pxwjnw4x90hggla7xttug4h84rg5p7rqq5n5sjr"],"addressesOutput":["addr1vy3085y4jkqvhwk8am5gfhmf7c0qka55fy2s68a0n54vxscmgfkej","addr1qxh2765rpnptg9z2q6hp0dhm45yfu6t7y0cl59nh88jax8vw7z2a4sna4s5pxwjnw4x90hggla7xttug4h84rg5p7rqq7vzkqx"],"fee":167085,"totalOutput":270083101,"tokens":[]},{"hash":"5e2814304e646fae007a32a257bb5a6cfca085500a9e27f50d95399ca5831a9d","blockNo":6847390,"blockHash":"88805f30ea3bb5895ba0f88d3f9c22dc062b644dced3206d8f42df42e75c579e","epochNo":319,"epochSlotNo":113742,"slot":52558542,"time":"2022/02/06 05:20:33","addressesInput":["addr1v8tyjujx5hkxq8jfqxjn539eahm4ecad2h0cpl7g5j2x94s5ddpu9"],"addressesOutput":["addr1q84w86akkpfgldp332s9s4fwc3j64tuuvlh6k2ftgv8tfr8k7vp66yns9tp3dzp7f84tgjqwcslwpeshgxfk0w6u2dqqxt0zxd","addr1vxrmu3m2cc5k6xltupj86a2uzcuq8r4nhznrhfq0pkwl4hgqj2v8w","addr1q8yjeg89lw25a4ktwfx87r2c6gw7dkteytfegs84l4s45vd3fpwwzwg06zmvc9dv7ktzw8jtvnl7u735gumuzmatw96qnxkymv"],"fee":217377,"totalOutput":47782623,"tokens":[]},{"hash":"f1cb7dfe9b7eb43f720430ddfb78f0dd4dd08fb781cc7fb18d94896f06ac525e","blockNo":6847390,"blockHash":"88805f30ea3bb5895ba0f88d3f9c22dc062b644dced3206d8f42df42e75c579e","epochNo":319,"epochSlotNo":113742,"slot":52558542,"time":"2022/02/06 05:20:33","addressesInput":["addr1qy8q9vlsk4uwmddpdsj8aqwqftnwux8q52grgj2867dtwawlpspgtj4sgfkkr3xe84l9d05l67kcqsf3u8dlc00jn68sf8ew25"],"addressesOutput":["addr1q8mkwy7qsc94zw430p7y5t9r3pz3w8n7eckmd8dvnw5lmru557sddph2nyh7j9xkuvs35p7ug7xetkwjquua50rx32cqse8d28","addr1q82skdy64zpxtdllv0n5f4tczmknqtyzqw74au5lt2jlu87lpspgtj4sgfkkr3xe84l9d05l67kcqsf3u8dlc00jn68sc3m2wd"],"fee":168317,"totalOutput":94046491,"tokens":[]},{"hash":"e966d201cd0318d685b21cf66823b85de72184581208c4f231a9756189e349f0","blockNo":6847390,"blockHash":"88805f30ea3bb5895ba0f88d3f9c22dc062b644dced3206d8f42df42e75c579e","epochNo":319,"epochSlotNo":113742,"slot":52558542,"time":"2022/02/06 05:20:33","addressesInput":["addr1qyrzncq3c9snds2yacezamt3kxm2px75syzm89q9jcrx86svte90wcmc77u454s05y87lv86n2l6ecdjkptw2qaap8asgs63nn","addr1q9ew6eu2pt82kvvesaavltrt648rpklqdjq2938xs6pg4vcvte90wcmc77u454s05y87lv86n2l6ecdjkptw2qaap8asu7r9kg"],"addressesOutput":["addr1v95cqjvh072j68vwexlrtjenyfhhus7gxdpqdg7csqn2cfgnjrwf2","addr1qxau8a90wpq4grw2pnae4zna7eg6g70xtn2zzwdr2gzdqvcvte90wcmc77u454s05y87lv86n2l6ecdjkptw2qaap8asrtwk69"],"fee":173993,"totalOutput":15654548,"tokens":[]},{"hash":"74ae19189c292f8585e3409d9b6c028f5d7b4de6a0394f1b589a20e745277b7e","blockNo":6847390,"blockHash":"88805f30ea3bb5895ba0f88d3f9c22dc062b644dced3206d8f42df42e75c579e","epochNo":319,"epochSlotNo":113742,"slot":52558542,"time":"2022/02/06 05:20:33","addressesInput":["addr1qyvf4fvzr8ckccp2uxq405dcvkpyxx7vhxm298ysappf0af59hpy4acqr2qpwysfc79c9wcmenpsp0ksq0qguc3c4uwsx5pjte"],"addressesOutput":["addr1qx83hd8qxqnr8n6vkefvvycavwkl4afazp6tg39k3c4wmr359hpy4acqr2qpwysfc79c9wcmenpsp0ksq0qguc3c4uwsx9scxg"],"fee":172805,"totalOutput":249487393,"tokens":[]},{"hash":"35e4451fcbe49c386af060c9bdb1d066dd0b076b57e5f89bf701037e4d754a77","blockNo":6847390,"blockHash":"88805f30ea3bb5895ba0f88d3f9c22dc062b644dced3206d8f42df42e75c579e","epochNo":319,"epochSlotNo":113742,"slot":52558542,"time":"2022/02/06 05:20:33","addressesInput":["addr1q8vwa0j83x3reuakzyv6arhfdru3084denxf7t2dtlmqgvkjjhse5fnyvhgk97tf3wqm89xqzv3s4uxjf849e5ax0g3sks37gh","addr1q8vwa0j83x3reuakzyv6arhfdru3084denxf7t2dtlmqgvkjjhse5fnyvhgk97tf3wqm89xqzv3s4uxjf849e5ax0g3sks37gh"],"addressesOutput":["addr1wy2mjh76em44qurn5x73nzqrxua7ataasftql0u2h6g88lc3gtgpz","addr1q8vwa0j83x3reuakzyv6arhfdru3084denxf7t2dtlmqgvkjjhse5fnyvhgk97tf3wqm89xqzv3s4uxjf849e5ax0g3sks37gh"],"fee":188734,"totalOutput":78500878,"tokens":[]},{"hash":"48142e2378a980693b38c1989424cd18e7cd363aa3771064155627dd6f46578c","blockNo":6847390,"blockHash":"88805f30ea3bb5895ba0f88d3f9c22dc062b644dced3206d8f42df42e75c579e","epochNo":319,"epochSlotNo":113742,"slot":52558542,"time":"2022/02/06 05:20:33","addressesInput":["addr1q9mkat7ndldsvrs6lxwnt5ha8fyrhdpf7m4sg9rxxwcljxsuzcmrduqgetrjxyv5tv899kxhh3tyk58eqr7yhs7cafas50rsuj"],"addressesOutput":["addr1q9a4ymzhnwfqarvjaqv6mh63qsw0v7apuy4fylcp5yeg0jmdjsy0uz69l5k9qqmmtanftqkt95qv7ykxusdaak8wqr5sc8p00u","addr1q9mkat7ndldsvrs6lxwnt5ha8fyrhdpf7m4sg9rxxwcljxsuzcmrduqgetrjxyv5tv899kxhh3tyk58eqr7yhs7cafas50rsuj"],"fee":168317,"totalOutput":1792988398,"tokens":[]},{"hash":"fbce3d9b12509494834dfa44c2ed51bdcce38dfd96f0fba01c124304e1787f22","blockNo":6847390,"blockHash":"88805f30ea3bb5895ba0f88d3f9c22dc062b644dced3206d8f42df42e75c579e","epochNo":319,"epochSlotNo":113742,"slot":52558542,"time":"2022/02/06 05:20:33","addressesInput":["addr1qxyhqw5pvpaft3ydfe7re8uzlccfzmwqm43xj0qu6tduuxwxexgqjph5v49sg0wsgs94e6duyh2d3eumu7w2fxxhf8rqq5r0h6"],"addressesOutput":["addr1vxuapuhwmmqujt9unx35fs25dfwlcffp8twmfwykmh3xyksnd6mpy","addr1qypc5qzmvek8z85r5as9ll32f3u08s0jdjx7put34cyplvxxexgqjph5v49sg0wsgs94e6duyh2d3eumu7w2fxxhf8rqc3zykh"],"fee":167085,"totalOutput":11208102,"tokens":[]},{"hash":"908ee6fafc13c3a5a46ce3043680251f11f1ae7f1e85b673e502ce1b3e1b205a","blockNo":6847390,"blockHash":"88805f30ea3bb5895ba0f88d3f9c22dc062b644dced3206d8f42df42e75c579e","epochNo":319,"epochSlotNo":113742,"slot":52558542,"time":"2022/02/06 05:20:33","addressesInput":["addr1q87fx0lu35nq7s9jflfde7p645kyy6syw8nnclwg0avd3tvmmhl3dkje7s63s7wv3euya08w4kxvlhglhfxhkjus4z7s8p8dzn","addr1q87fx0lu35nq7s9jflfde7p645kyy6syw8nnclwg0avd3tvmmhl3dkje7s63s7wv3euya08w4kxvlhglhfxhkjus4z7s8p8dzn","addr1q86rgvs2ucf9mnyp8emgyrdj74x0kn3fxjzfwwk8v756ggymmhl3dkje7s63s7wv3euya08w4kxvlhglhfxhkjus4z7svcmc2p"],"addressesOutput":["addr1wxaptpmxcxawvr3pzlhgnpmzz3ql43n2tc8mn3av5kx0yzs09tqh8","addr1q87fx0lu35nq7s9jflfde7p645kyy6syw8nnclwg0avd3tvmmhl3dkje7s63s7wv3euya08w4kxvlhglhfxhkjus4z7s8p8dzn"],"fee":261897,"totalOutput":108076361,"tokens":[]},{"hash":"c3af5a56268ff01f644fbc654a416b50ad7f2aa61307656b9a591ecaee7f0210","blockNo":6847390,"blockHash":"88805f30ea3bb5895ba0f88d3f9c22dc062b644dced3206d8f42df42e75c579e","epochNo":319,"epochSlotNo":113742,"slot":52558542,"time":"2022/02/06 05:20:33","addressesInput":["addr1q905pzk6xk56ak99p49fkd872ptat98cel7fxjjt25awxw98cszldduzkak2mqmcradvkq7ncfeq5ygtyx46ejpugklqrl9nj4","addr1qyexewp9l26zrkuqntf3f7dd5ax4ldw5yw2cklcqr65uhaa8cszldduzkak2mqmcradvkq7ncfeq5ygtyx46ejpugklqtyvns9"],"addressesOutput":["addr1w999n67e86jn6xal07pzxtrmqynspgx0fwmcmpua4wc6yzsxpljz3","addr1qyexewp9l26zrkuqntf3f7dd5ax4ldw5yw2cklcqr65uhaa8cszldduzkak2mqmcradvkq7ncfeq5ygtyx46ejpugklqtyvns9"],"fee":213255,"totalOutput":210379261,"tokens":[]},{"hash":"1b4bc3cdc456c42b3ffed6a6c4e09afde11fd51dd41aebfd8c373314c4241045","blockNo":6847390,"blockHash":"88805f30ea3bb5895ba0f88d3f9c22dc062b644dced3206d8f42df42e75c579e","epochNo":319,"epochSlotNo":113742,"slot":52558542,"time":"2022/02/06 05:20:33","addressesInput":["addr1qxwdnj8glj8ykgdjfxgwvfmnxqzkw96ppxge0u5ztkwj0v4f44nhn9ag7f3rxd2xje32lwcwmtwtzd7w240rfdva886qrqxmwy","addr1w999n67e86jn6xal07pzxtrmqynspgx0fwmcmpua4wc6yzsxpljz3"],"addressesOutput":["addr1qxwdnj8glj8ykgdjfxgwvfmnxqzkw96ppxge0u5ztkwj0v4f44nhn9ag7f3rxd2xje32lwcwmtwtzd7w240rfdva886qrqxmwy","addr1qxwdnj8glj8ykgdjfxgwvfmnxqzkw96ppxge0u5ztkwj0v4f44nhn9ag7f3rxd2xje32lwcwmtwtzd7w240rfdva886qrqxmwy"],"fee":1137541,"totalOutput":3677272,"tokens":[]},{"hash":"a39ad354934d3690a595c996ca69c81bf48f0d5f65e38aff5f892c7573fe2eb9","blockNo":6847390,"blockHash":"88805f30ea3bb5895ba0f88d3f9c22dc062b644dced3206d8f42df42e75c579e","epochNo":319,"epochSlotNo":113742,"slot":52558542,"time":"2022/02/06 05:20:33","addressesInput":["addr1q8qshe4635gppgw7jhpev0w65fc5zeskryugfyyz63g29rsmegxplng0w2pqz8v2m3qzsnmdkyp7ze9lspg7xpwlcz5sfjv5j3"],"addressesOutput":["addr1wy2mjh76em44qurn5x73nzqrxua7ataasftql0u2h6g88lc3gtgpz","addr1q8qshe4635gppgw7jhpev0w65fc5zeskryugfyyz63g29rsmegxplng0w2pqz8v2m3qzsnmdkyp7ze9lspg7xpwlcz5sfjv5j3"],"fee":186490,"totalOutput":13853789,"tokens":[]}],"totalItems":30071405,"totalPages":1503571,"currentPage":0}