{"data":[{"hash":"0559a15a8e8404164fd5b6bb195c67d3139d0441f1a13a2dc002d76aae13c0a2","blockNo":7962650,"blockHash":"fcc48858b7c93f85dd29fb112ea8cc509c81de43f22c6d37d130f0538099e62a","epochNo":373,"epochSlotNo":54352,"slot":75827152,"time":"2022/11/02 12:50:43","addressesInput":["addr1qy0ldzrketpgse9gu6te9xlhk5t6jwkntk54d722v55jj7sl76y8djkz3pj23e5hj2dl0dgh4yadxhdf2mu55eff99aq2cntd8","addr1qy0ldzrketpgse9gu6te9xlhk5t6jwkntk54d722v55jj7sl76y8djkz3pj23e5hj2dl0dgh4yadxhdf2mu55eff99aq2cntd8"],"addressesOutput":["addr1qy0ldzrketpgse9gu6te9xlhk5t6jwkntk54d722v55jj7sl76y8djkz3pj23e5hj2dl0dgh4yadxhdf2mu55eff99aq2cntd8","addr1qy0ldzrketpgse9gu6te9xlhk5t6jwkntk54d722v55jj7sl76y8djkz3pj23e5hj2dl0dgh4yadxhdf2mu55eff99aq2cntd8"],"fee":233854,"totalOutput":455312045,"tokens":[]},{"hash":"c5824077f3e0875493c5ee528f71f3844326ff6891ac0869ba352e0c8aab4140","blockNo":7962650,"blockHash":"fcc48858b7c93f85dd29fb112ea8cc509c81de43f22c6d37d130f0538099e62a","epochNo":373,"epochSlotNo":54352,"slot":75827152,"time":"2022/11/02 12:50:43","addressesInput":["addr1q8rffx5v58tr2ylc9mn8wt6kvm4zvt8jserffp95m6a7kmuv0d47mjeu0rqkyzau2wjgjw6nt7gzpqjqh6784hlvsfqs0dnhv3","addr1qyfll8djz66qjmyyj4zv5axmpmkqhx4s705kr84xxvg8pluv0d47mjeu0rqkyzau2wjgjw6nt7gzpqjqh6784hlvsfqsv4pf4k"],"addressesOutput":["addr1q9lntpc8dea0cj442c05w07wtysmk7u50pxgxkuxs835crz2ah5cwyeh4v9wu7wxd59tqk7f6lctw92mdzqn89jlf8yqy6ac20","addr1q9h99l5z5m6kta4s7vxgsldjc38xstxfuecw2fr2nh2yvtvv0d47mjeu0rqkyzau2wjgjw6nt7gzpqjqh6784hlvsfqs63ratq"],"fee":195465,"totalOutput":210777867,"tokens":[]},{"hash":"6353e6c4427017fb3e6c01181a29820fd268cb5a5a936d19c4ac4af606db58ed","blockNo":7962650,"blockHash":"fcc48858b7c93f85dd29fb112ea8cc509c81de43f22c6d37d130f0538099e62a","epochNo":373,"epochSlotNo":54352,"slot":75827152,"time":"2022/11/02 12:50:43","addressesInput":["addr1qxxngdvpvhm77kkhsqd3hk0ynxruhsjpf5dh8wpl90jawhsw8meglqj5fqw5q0446fh3rrtm5rqfatek7r735zkxyj5qe6ls2p"],"addressesOutput":["addr1q8ncq6glhfucdcz5hxej6s2kqncpktc264pl8ywcrrfz86l8sp53lwnesms9fwdn94q4vp8srvhs442r7wgasxxjy04saf463a","addr1q8dm268kctmrlhme2gxdpq2rjnr2s6q6pp25eprzsjlzcnsw8meglqj5fqw5q0446fh3rrtm5rqfatek7r735zkxyj5q8zhyh7"],"fee":169197,"totalOutput":54622470003,"tokens":[]},{"hash":"19989ef2a44b9cdfad075f5c75d3663277aa4473823a87431eb1d847ca7d4095","blockNo":7962650,"blockHash":"fcc48858b7c93f85dd29fb112ea8cc509c81de43f22c6d37d130f0538099e62a","epochNo":373,"epochSlotNo":54352,"slot":75827152,"time":"2022/11/02 12:50:43","addressesInput":["addr1qxfry5k336w2glsky336avum6xrqrf5upty4cs0dmkywghp7hvwushkxz9j9wmd6nnddqkycz6lsp0rvpugvzkrdyeds5egyzv"],"addressesOutput":["addr1qxp4g5xjx3wjcqedsss2zytejf756dc22trt4zejj99l38nscrtxv4guu5sdtn42vdr47wjtvd5kjvfhghjd5repwpdsuw4vkl","addr1qy3pstw3saklug6plqdrj6ac3e6cuzq9umqg806jdx8rxv37hvwushkxz9j9wmd6nnddqkycz6lsp0rvpugvzkrdyedsgfeuz8"],"fee":173861,"totalOutput":9826139,"tokens":[]},{"hash":"3bf4679d073a88041410271f444cd0499dee29ca8a2a9e42ed73a9b2d6b30eee","blockNo":7962650,"blockHash":"fcc48858b7c93f85dd29fb112ea8cc509c81de43f22c6d37d130f0538099e62a","epochNo":373,"epochSlotNo":54352,"slot":75827152,"time":"2022/11/02 12:50:43","addressesInput":["addr1v8eq7wyzcewpy9rpf96x2fpnz6k6ltn7gvptqfa2ksnpxyg7e3s5h"],"addressesOutput":["addr1qx3tuqv9x05ty23gt40nrw9q77vvacyfnjsq0qecjuehzzpxrlcx2390jfjsdctd9fj6qnngx5a97n7ytkwhj7jd0tjqvk4sza","addr1v9u7va2sktlnz8dp3qadpnxxlv4m03672jy6elmntlxxs7q9nnwl9"],"fee":171221,"totalOutput":1299828779,"tokens":[]},{"hash":"72ef354eb98d7367cc69d393e5ea9f489db111d135c83ee04fc480b2a4795b5f","blockNo":7962650,"blockHash":"fcc48858b7c93f85dd29fb112ea8cc509c81de43f22c6d37d130f0538099e62a","epochNo":373,"epochSlotNo":54352,"slot":75827152,"time":"2022/11/02 12:50:43","addressesInput":["addr1qxl5p9ja6ydmuh3pr4ycj6u6sgnwpcage73rnmtsz4g55eky25ea8zy85wk08kxlsrp827vkcfmeht9zthvaptfhezpsktlm9y","addr1qxl5p9ja6ydmuh3pr4ycj6u6sgnwpcage73rnmtsz4g55eky25ea8zy85wk08kxlsrp827vkcfmeht9zthvaptfhezpsktlm9y"],"addressesOutput":["addr1zxgx3far7qygq0k6epa0zcvcvrevmn0ypsnfsue94nsn3tvpw288a4x0xf8pxgcntelxmyclq83s0ykeehchz2wtspks905plm","addr1qxl5p9ja6ydmuh3pr4ycj6u6sgnwpcage73rnmtsz4g55eky25ea8zy85wk08kxlsrp827vkcfmeht9zthvaptfhezpsktlm9y","addr1qxl5p9ja6ydmuh3pr4ycj6u6sgnwpcage73rnmtsz4g55eky25ea8zy85wk08kxlsrp827vkcfmeht9zthvaptfhezpsktlm9y"],"fee":225033,"totalOutput":7261837,"tokens":[]},{"hash":"49144fad877b9dee3ebb2d8ea5f4ebf61748dc667ef30c59fd7d753e0e50bc2b","blockNo":7962650,"blockHash":"fcc48858b7c93f85dd29fb112ea8cc509c81de43f22c6d37d130f0538099e62a","epochNo":373,"epochSlotNo":54352,"slot":75827152,"time":"2022/11/02 12:50:43","addressesInput":["addr1qxq3amelfkth8nwvcdwgw3s6lfr286fr456jkce79w9v5jh7gvwnf9r5tcwvypmn54hfeqw2g4f2sgz7l9qmtf7xfhysweu4xz"],"addressesOutput":["addr1qxq3amelfkth8nwvcdwgw3s6lfr286fr456jkce79w9v5jh7gvwnf9r5tcwvypmn54hfeqw2g4f2sgz7l9qmtf7xfhysweu4xz","addr1qxq3amelfkth8nwvcdwgw3s6lfr286fr456jkce79w9v5jh7gvwnf9r5tcwvypmn54hfeqw2g4f2sgz7l9qmtf7xfhysweu4xz"],"fee":168317,"totalOutput":470305762,"tokens":[]},{"hash":"dcbd2cd17ffd5e7ef8da223fbc36d000b46a2f622be9614ef322a83ff885dc82","blockNo":7962650,"blockHash":"fcc48858b7c93f85dd29fb112ea8cc509c81de43f22c6d37d130f0538099e62a","epochNo":373,"epochSlotNo":54352,"slot":75827152,"time":"2022/11/02 12:50:43","addressesInput":["addr1vyjdya9lmyfmysdgej3qc6thwat33lwm3umk8uwnvhy9g3gzvd2jp","addr1vyjcjxd32xg3tvy6wkxwssvwqft8a7z6l0h9g936hcdjaysxgfyjn"],"addressesOutput":["addr1qygzrc7csdja77t859rf2w6xlqxuk4vjx00qlqapje7969zlx2z9ljpguqhnp69q4upaet5gx0stz6ulefmgem82jdlsqaqf6y","addr1vyjcjxd32xg3tvy6wkxwssvwqft8a7z6l0h9g936hcdjaysxgfyjn"],"fee":185513,"totalOutput":150995795,"tokens":[]},{"hash":"2e52728952b97123c13f47a03a7f8f9eed5c5f133a14db879ccffb18813039c8","blockNo":7962650,"blockHash":"fcc48858b7c93f85dd29fb112ea8cc509c81de43f22c6d37d130f0538099e62a","epochNo":373,"epochSlotNo":54352,"slot":75827152,"time":"2022/11/02 12:50:43","addressesInput":["addr1q8a3qrmmy4pzt0qhy072e3p4lfpptdkpyckpylvjdj7s7p2dq5xr9em5xs5q5nhlc6s75xp8dum36q6mffutex2hmhps32l8eh"],"addressesOutput":["addr1vyhwea8k4dc7x04n7dea9669n4sdgjdm7yq2ff6707q7jzc0f4c8e","addr1q8tgsmxzm6u4lme08ml3lu4ydlmvchtv7zrj96q7csfwzajdq5xr9em5xs5q5nhlc6s75xp8dum36q6mffutex2hmhpsentne9"],"fee":167261,"totalOutput":116864802763,"tokens":[]},{"hash":"8a4d3639f3891dd3c72508df9e075f2230187b481917bebf86aedeca4cae958f","blockNo":7962650,"blockHash":"fcc48858b7c93f85dd29fb112ea8cc509c81de43f22c6d37d130f0538099e62a","epochNo":373,"epochSlotNo":54352,"slot":75827152,"time":"2022/11/02 12:50:43","addressesInput":["addr1q9ma5uzqzn22h6ccf65h9dsj8t35d9jl885gfhaxw0580npf5lchwyhe3u9vynffduymp3w4els6mx9khwg5wcqwc47s2nvsny"],"addressesOutput":["DdzFFzCqrhsrezYkgT9kn3tJ47R28pfDcAxxFaQhEJWvAQDP23AA269LA4TdGQ45NQemhkKMUjs3LUYWHue3qBZ9tDhBAmSrHJWSmsTb","addr1q9ma5uzqzn22h6ccf65h9dsj8t35d9jl885gfhaxw0580npf5lchwyhe3u9vynffduymp3w4els6mx9khwg5wcqwc47s2nvsny"],"fee":170165,"totalOutput":34792120575,"tokens":[]},{"hash":"7a612825199f2b6ae76794a1be5b47762e125c9bcc7f79959785241dda8af984","blockNo":7962650,"blockHash":"fcc48858b7c93f85dd29fb112ea8cc509c81de43f22c6d37d130f0538099e62a","epochNo":373,"epochSlotNo":54352,"slot":75827152,"time":"2022/11/02 12:50:43","addressesInput":["addr1qx5t05h5guu5fd77m7ujlv0wsg7zxgl4rr8xvu0yl2gru2rg06k4gadajavwskessmfl3fh8e9mltlqq8zqs3cvu7ccqfs3cfe","addr1qx5t05h5guu5fd77m7ujlv0wsg7zxgl4rr8xvu0yl2gru2rg06k4gadajavwskessmfl3fh8e9mltlqq8zqs3cvu7ccqfs3cfe","addr1qx5t05h5guu5fd77m7ujlv0wsg7zxgl4rr8xvu0yl2gru2rg06k4gadajavwskessmfl3fh8e9mltlqq8zqs3cvu7ccqfs3cfe","addr1qx5t05h5guu5fd77m7ujlv0wsg7zxgl4rr8xvu0yl2gru2rg06k4gadajavwskessmfl3fh8e9mltlqq8zqs3cvu7ccqfs3cfe","addr1qx5t05h5guu5fd77m7ujlv0wsg7zxgl4rr8xvu0yl2gru2rg06k4gadajavwskessmfl3fh8e9mltlqq8zqs3cvu7ccqfs3cfe","addr1qx5t05h5guu5fd77m7ujlv0wsg7zxgl4rr8xvu0yl2gru2rg06k4gadajavwskessmfl3fh8e9mltlqq8zqs3cvu7ccqfs3cfe","addr1qx5t05h5guu5fd77m7ujlv0wsg7zxgl4rr8xvu0yl2gru2rg06k4gadajavwskessmfl3fh8e9mltlqq8zqs3cvu7ccqfs3cfe","addr1qx5t05h5guu5fd77m7ujlv0wsg7zxgl4rr8xvu0yl2gru2rg06k4gadajavwskessmfl3fh8e9mltlqq8zqs3cvu7ccqfs3cfe","addr1qx5t05h5guu5fd77m7ujlv0wsg7zxgl4rr8xvu0yl2gru2rg06k4gadajavwskessmfl3fh8e9mltlqq8zqs3cvu7ccqfs3cfe","addr1qx5t05h5guu5fd77m7ujlv0wsg7zxgl4rr8xvu0yl2gru2rg06k4gadajavwskessmfl3fh8e9mltlqq8zqs3cvu7ccqfs3cfe","addr1qx5t05h5guu5fd77m7ujlv0wsg7zxgl4rr8xvu0yl2gru2rg06k4gadajavwskessmfl3fh8e9mltlqq8zqs3cvu7ccqfs3cfe"],"addressesOutput":["addr1qxzaekswshcal48g7gsxllzfm4rwsn7yrvm37nlvlr3sqx4fkuqnsa22lkuh34jsygmz3xa0vyvv6kxaxgsyymmd4g7qxhgajy","addr1qx5t05h5guu5fd77m7ujlv0wsg7zxgl4rr8xvu0yl2gru2rg06k4gadajavwskessmfl3fh8e9mltlqq8zqs3cvu7ccqfs3cfe","addr1qx5t05h5guu5fd77m7ujlv0wsg7zxgl4rr8xvu0yl2gru2rg06k4gadajavwskessmfl3fh8e9mltlqq8zqs3cvu7ccqfs3cfe"],"fee":191725,"totalOutput":2203452215,"tokens":[]},{"hash":"a8b63a32994ac36e2fad8ee9b0a18a913c1a48358df58246060c47373492d030","blockNo":7962650,"blockHash":"fcc48858b7c93f85dd29fb112ea8cc509c81de43f22c6d37d130f0538099e62a","epochNo":373,"epochSlotNo":54352,"slot":75827152,"time":"2022/11/02 12:50:43","addressesInput":["addr1v8v3auqmw0eszza3ww29ea2pwftuqrqqyu26zvzjq9dt2ncydzvs5"],"addressesOutput":["addr1v8zzngczve2prg5yg6kk3w9yg9zzm3lykm99l4ywns4xacqllh3hx","addr1v8v3auqmw0eszza3ww29ea2pwftuqrqqyu26zvzjq9dt2ncydzvs5"],"fee":171221,"totalOutput":8402400418,"tokens":[]},{"hash":"c352dca513efc4e65486845ae6d9c5938c9bcdf0192d6b6f2389f3b85c532338","blockNo":7962650,"blockHash":"fcc48858b7c93f85dd29fb112ea8cc509c81de43f22c6d37d130f0538099e62a","epochNo":373,"epochSlotNo":54352,"slot":75827152,"time":"2022/11/02 12:50:43","addressesInput":["addr1q99cdraha3dmucp2zthvdmkr0g4avhkelt24hsjt2d9rmp0rd8lpusq94k6jkvpy752j988ak49m628y42yq73075wnqkk6p2w"],"addressesOutput":["addr1q87k9zrel8zsqpqhue55u7356gch8a4wp7xfpg5et2nn3q72h8y4gwedd2z2nx6544nalel0zd0g0kel44c96xy3vxvqwq22c9","addr1q99cdraha3dmucp2zthvdmkr0g4avhkelt24hsjt2d9rmp0rd8lpusq94k6jkvpy752j988ak49m628y42yq73075wnqkk6p2w"],"fee":168317,"totalOutput":107354875,"tokens":[]},{"hash":"525ebc61542002ffce9856e611a9740a67e6788aaced64a0fdf7283f0fe1f802","blockNo":7962650,"blockHash":"fcc48858b7c93f85dd29fb112ea8cc509c81de43f22c6d37d130f0538099e62a","epochNo":373,"epochSlotNo":54352,"slot":75827152,"time":"2022/11/02 12:50:43","addressesInput":["addr1qyph5t4yhd4c6ev5gvustcx280zcrccmed9r0fj4eg595923gmx3ks9504qu9jrh8h6h2zne57clfjhupnhkvahua4hs8s2t2k","addr1qyph5t4yhd4c6ev5gvustcx280zcrccmed9r0fj4eg595923gmx3ks9504qu9jrh8h6h2zne57clfjhupnhkvahua4hs8s2t2k"],"addressesOutput":["addr1zxgx3far7qygq0k6epa0zcvcvrevmn0ypsnfsue94nsn3tvpw288a4x0xf8pxgcntelxmyclq83s0ykeehchz2wtspks905plm","addr1qyph5t4yhd4c6ev5gvustcx280zcrccmed9r0fj4eg595923gmx3ks9504qu9jrh8h6h2zne57clfjhupnhkvahua4hs8s2t2k"],"fee":211965,"totalOutput":187456346,"tokens":[]},{"hash":"f0f04a31f319cd6bb93aa75190ccd2d452ff260032a0deaa0cf50714206a2719","blockNo":7962650,"blockHash":"fcc48858b7c93f85dd29fb112ea8cc509c81de43f22c6d37d130f0538099e62a","epochNo":373,"epochSlotNo":54352,"slot":75827152,"time":"2022/11/02 12:50:43","addressesInput":["addr1qyynau3skle77d9dmj36q9mna6chstaux8ng9p0pkek4kfl3un3j93a6quc6pe550lgwle6ux4qsrxcm5tgf8mu93lmsx8t5h0"],"addressesOutput":["addr1q8ytmvmm4p23hsgg5f8a6l86ywfhgd0jwgyp92d53yahlg58pjkrhfll4fteuwqqh2g8aqgjz5cgxc8gpsrud3a2le2sh9mqht","addr1qxgj5hmg045v92nkv93hnchysjwcsa2grljc5huhvjrwnj03un3j93a6quc6pe550lgwle6ux4qsrxcm5tgf8mu93lmse5kywn"],"fee":278185,"totalOutput":68968404,"tokens":[]},{"hash":"b8f48d06dd3e60f4e396585acfd870a62b20141cb197f137fef859ffaa954ba4","blockNo":7962649,"blockHash":"c38e3a1eeb4e4ea43e8a0325c1cb38e31d7674df47696a4a2068127cd1b7338e","epochNo":373,"epochSlotNo":54340,"slot":75827140,"time":"2022/11/02 12:50:31","addressesInput":["addr1vywytw68367m76s89qj0nejqpepr0wd7qcjwazgzkku69gsu87673"],"addressesOutput":["addr1q8w3c36k5k8szhp4qhyl5qcu2ewac604yzcjsds9zhv79thtzk355ff9zphz5r36wmz0hvqggn6w8vy7qsyewanh5zusm5xggn","addr1vywytw68367m76s89qj0nejqpepr0wd7qcjwazgzkku69gsu87673"],"fee":169312,"totalOutput":16460361410,"tokens":[]},{"hash":"81eee6598651aca795e1f08e47baf641f978a2b7e48a8090f0fafe5eff705153","blockNo":7962649,"blockHash":"c38e3a1eeb4e4ea43e8a0325c1cb38e31d7674df47696a4a2068127cd1b7338e","epochNo":373,"epochSlotNo":54340,"slot":75827140,"time":"2022/11/02 12:50:31","addressesInput":["addr1qyfm4hvvjfddh0hq2ydv3upmmycej0tnz3a25ds7qjdt205eg66masw4zx58cfm05yh7kxu0v8pkn48x09jeqm750ads3rtmdm","addr1qxsjveh8ef89p2vjgxn97ghvm7j0utszq8e2ktw3ernswqyeg66masw4zx58cfm05yh7kxu0v8pkn48x09jeqm750adstdlxks","addr1qyvtp43wr8hkaaea4pamu8fyl9gd8yqe3jdnkcn8qrs4ap5eg66masw4zx58cfm05yh7kxu0v8pkn48x09jeqm750adsumrj6s","addr1q9hs6zwem6lwvamr5tp9s7rnukdcgny07u96nsfumajemx5eg66masw4zx58cfm05yh7kxu0v8pkn48x09jeqm750adsm3m9ja","addr1qyz0wwrzsf9esdwz4aw0cpyv3azhla9kzccvx7l45ktvmqveg66masw4zx58cfm05yh7kxu0v8pkn48x09jeqm750adsjx5c3y","addr1qx5lgv7njfjm7zl3cy8jewcx366rqgntazlqu96r9u7wh3yeg66masw4zx58cfm05yh7kxu0v8pkn48x09jeqm750adsusqrld","addr1qyz0wwrzsf9esdwz4aw0cpyv3azhla9kzccvx7l45ktvmqveg66masw4zx58cfm05yh7kxu0v8pkn48x09jeqm750adsjx5c3y","addr1qyz0wwrzsf9esdwz4aw0cpyv3azhla9kzccvx7l45ktvmqveg66masw4zx58cfm05yh7kxu0v8pkn48x09jeqm750adsjx5c3y","addr1q8rmkydlf7sm9cwchqqtp2ehymuf4qkdn3nye3q0aanm0sveg66masw4zx58cfm05yh7kxu0v8pkn48x09jeqm750ads2vrspd","addr1qyz0wwrzsf9esdwz4aw0cpyv3azhla9kzccvx7l45ktvmqveg66masw4zx58cfm05yh7kxu0v8pkn48x09jeqm750adsjx5c3y","addr1qyz0wwrzsf9esdwz4aw0cpyv3azhla9kzccvx7l45ktvmqveg66masw4zx58cfm05yh7kxu0v8pkn48x09jeqm750adsjx5c3y","addr1q9hs6zwem6lwvamr5tp9s7rnukdcgny07u96nsfumajemx5eg66masw4zx58cfm05yh7kxu0v8pkn48x09jeqm750adsm3m9ja","addr1zxgx3far7qygq0k6epa0zcvcvrevmn0ypsnfsue94nsn3tvpw288a4x0xf8pxgcntelxmyclq83s0ykeehchz2wtspks905plm","addr1qxsjveh8ef89p2vjgxn97ghvm7j0utszq8e2ktw3ernswqyeg66masw4zx58cfm05yh7kxu0v8pkn48x09jeqm750adstdlxks","addr1q978d0ls905redjd35ddyxfevrx6n73pj7wrj6v6e4qnslyeg66masw4zx58cfm05yh7kxu0v8pkn48x09jeqm750adsjanvcv","addr1q9fry6tha2axsutpzzj9kat4pwnf2egvpr24jjx07dff0lueg66masw4zx58cfm05yh7kxu0v8pkn48x09jeqm750adsjdflq6","addr1q965k509c7nuydcmpmcg2c37wrxsm8p5d7yf92msjj3t535eg66masw4zx58cfm05yh7kxu0v8pkn48x09jeqm750adsjnccy5","addr1q9hs6zwem6lwvamr5tp9s7rnukdcgny07u96nsfumajemx5eg66masw4zx58cfm05yh7kxu0v8pkn48x09jeqm750adsm3m9ja","addr1qyz0wwrzsf9esdwz4aw0cpyv3azhla9kzccvx7l45ktvmqveg66masw4zx58cfm05yh7kxu0v8pkn48x09jeqm750adsjx5c3y"],"addressesOutput":["addr1q9cwvremt6n320s2e3agq0jyq82yhrk3htsu0w426xnz5us70z4w0jgvcdkkynmm8wmds66jd9kusnjfpu6raw5fqp0sr07p5w","addr1qxzj8qqv5a05upf4f3rjud2t5ehy8u3hgpprcfddwlp6f6f3k8vakxh4s467srfa3fadagdmdwx7n3lvxxl3nmq292vslregvx","addr1qyz0wwrzsf9esdwz4aw0cpyv3azhla9kzccvx7l45ktvmqveg66masw4zx58cfm05yh7kxu0v8pkn48x09jeqm750adsjx5c3y","addr1qyz0wwrzsf9esdwz4aw0cpyv3azhla9kzccvx7l45ktvmqveg66masw4zx58cfm05yh7kxu0v8pkn48x09jeqm750adsjx5c3y","addr1qyz0wwrzsf9esdwz4aw0cpyv3azhla9kzccvx7l45ktvmqveg66masw4zx58cfm05yh7kxu0v8pkn48x09jeqm750adsjx5c3y"],"fee":525760,"totalOutput":495374713,"tokens":[]},{"hash":"a323572d17b0d36da09376bb14695d95e3e7365a81c24b17faadcfcf481131a8","blockNo":7962649,"blockHash":"c38e3a1eeb4e4ea43e8a0325c1cb38e31d7674df47696a4a2068127cd1b7338e","epochNo":373,"epochSlotNo":54340,"slot":75827140,"time":"2022/11/02 12:50:31","addressesInput":["addr1qye4nw439lwd8kxxxxga9qm7960hfkxwgd3j2ezsr0mefjtjpuh7zktgfce3hdd39v6v9al83ulapqszqavvtm2q0ussmrjx26","addr1qye4nw439lwd8kxxxxga9qm7960hfkxwgd3j2ezsr0mefjtjpuh7zktgfce3hdd39v6v9al83ulapqszqavvtm2q0ussmrjx26"],"addressesOutput":["addr1qyathputa4fanz4s7a4er6g8es5uwcppdfc8nswa2fyx6u4e7mes8hanwrjpckpvwylxkyhhz6ctph7rxq8klhmlfjnqgrxyf3","addr1q8ssmanrltn9rkv76pmx457edp07ng945czeue0st6x45htjpuh7zktgfce3hdd39v6v9al83ulapqszqavvtm2q0usspjf0sm"],"fee":172101,"totalOutput":56484927,"tokens":[]},{"hash":"8c140b155872e9076c58c59688e2bf97fa8b188a451412e926f2881548cef56b","blockNo":7962649,"blockHash":"c38e3a1eeb4e4ea43e8a0325c1cb38e31d7674df47696a4a2068127cd1b7338e","epochNo":373,"epochSlotNo":54340,"slot":75827140,"time":"2022/11/02 12:50:31","addressesInput":["addr1qy9j9gtgwwxn7xvs3ufgdvn9c0kvwrdmakfpykmzfju650dec2mtz95juq8dawr4yuu0khmgnxvw4gl3pcvuur32x3us2lv8ap"],"addressesOutput":["addr1v8dmycc7hjnwv9nnp9f9m0dxqlz0p09fk7wgfjtv6hspf4ghg7m8r","addr1qyykuxfwrzgm0x4aquw47de7237rjcygwqtruwq27xj9979ec2mtz95juq8dawr4yuu0khmgnxvw4gl3pcvuur32x3us2v9ape","addr1qyykuxfwrzgm0x4aquw47de7237rjcygwqtruwq27xj9979ec2mtz95juq8dawr4yuu0khmgnxvw4gl3pcvuur32x3us2v9ape","addr1qyykuxfwrzgm0x4aquw47de7237rjcygwqtruwq27xj9979ec2mtz95juq8dawr4yuu0khmgnxvw4gl3pcvuur32x3us2v9ape","addr1qyykuxfwrzgm0x4aquw47de7237rjcygwqtruwq27xj9979ec2mtz95juq8dawr4yuu0khmgnxvw4gl3pcvuur32x3us2v9ape"],"fee":175665,"totalOutput":1455371179,"tokens":[]},{"hash":"b780d7ff2196335b0ece9136de6cc96ddf6e6de6f94c28a6c399dc0dc177bb5a","blockNo":7962649,"blockHash":"c38e3a1eeb4e4ea43e8a0325c1cb38e31d7674df47696a4a2068127cd1b7338e","epochNo":373,"epochSlotNo":54340,"slot":75827140,"time":"2022/11/02 12:50:31","addressesInput":["addr1qy8q0djnyp0ajmhzctmh5vdj8sdnl7m0k0s96qnlw28qgex2h8y4gwedd2z2nx6544nalel0zd0g0kel44c96xy3vxvqffdrrw","addr1q9lhz3l9pl6suyl20ju2zp6q8vg967x0gldh0km37fqmsy72h8y4gwedd2z2nx6544nalel0zd0g0kel44c96xy3vxvqmmqgha"],"addressesOutput":["addr1q8xtxegfq68w8fe5yw8s4qcjlp6q9p08hetqgu4dkh2j7csemv43n0jdahxmzyr3hr4fz0fvfe6kwgnuy6kc9smvm9ysu4up9g","addr1q8lrpe8r9mjqrs6euunxcg9plt552mvu67dhw7d37dln7yk2h8y4gwedd2z2nx6544nalel0zd0g0kel44c96xy3vxvq48jckc"],"fee":187809,"totalOutput":6505784,"tokens":[]}],"totalItems":53543223,"totalPages":2677162,"currentPage":0}