{"data":[{"hash":"bd448ebc72dbb1b75f543676c770fe444a3a3112674bfe17ff0b23639cce8fd7","blockNo":6856333,"blockHash":"7283982bf184b433b36fc89fef61be113c26ba9eeeeecf9db07ae1959a4df75f","epochNo":319,"epochSlotNo":301729,"slot":52746529,"time":"2022/02/08 09:33:40","addressesInput":["addr1w999n67e86jn6xal07pzxtrmqynspgx0fwmcmpua4wc6yzsxpljz3","addr1qxszsqjtp8kf60yvk896cr9td2rkqnsxsgvej2ad8lah8x3hcdj45clk5lfnp6a2m7jdkpwd06t207rf6p2hzx6lv2jsl2szk3"],"addressesOutput":["addr1qxszsqjtp8kf60yvk896cr9td2rkqnsxsgvej2ad8lah8x3hcdj45clk5lfnp6a2m7jdkpwd06t207rf6p2hzx6lv2jsl2szk3","addr1qxszsqjtp8kf60yvk896cr9td2rkqnsxsgvej2ad8lah8x3hcdj45clk5lfnp6a2m7jdkpwd06t207rf6p2hzx6lv2jsl2szk3"],"fee":1247463,"totalOutput":135851582,"tokens":[]},{"hash":"3787d64059b55f7cebc15f4d84d6ea71e3d345f51db20a119473abd14f4c2464","blockNo":6856297,"blockHash":"84ab825bccb6cec21d140ac30295b48b89a9814e8170cab9f141ae5c00974ce7","epochNo":319,"epochSlotNo":301057,"slot":52745857,"time":"2022/02/08 09:22:28","addressesInput":["addr1q9j9edkjryr9fnz6eyuwjcjutun9kpgtkdlulzquheldfeermhplrjkd38pvcn2r58dnl0v4rxs9lz6rdj5p77j3wvcs7ud37u","addr1q9j9edkjryr9fnz6eyuwjcjutun9kpgtkdlulzquheldfeermhplrjkd38pvcn2r58dnl0v4rxs9lz6rdj5p77j3wvcs7ud37u","addr1q9j9edkjryr9fnz6eyuwjcjutun9kpgtkdlulzquheldfeermhplrjkd38pvcn2r58dnl0v4rxs9lz6rdj5p77j3wvcs7ud37u"],"addressesOutput":["addr1v9p6hh0ap968c45cjkl8cdnqmwyu07vh5m0cxzwy5yp0rrcj2m4mp","addr1q9j9edkjryr9fnz6eyuwjcjutun9kpgtkdlulzquheldfeermhplrjkd38pvcn2r58dnl0v4rxs9lz6rdj5p77j3wvcs7ud37u","addr1q9j9edkjryr9fnz6eyuwjcjutun9kpgtkdlulzquheldfeermhplrjkd38pvcn2r58dnl0v4rxs9lz6rdj5p77j3wvcs7ud37u"],"fee":249189,"totalOutput":33171053,"tokens":[]},{"hash":"e37ec56b47998702a02e82a4bcf1c1782e6901b4fd0679d3069149c8bfc582ff","blockNo":6856214,"blockHash":"c7bfdbfb4b3ba85ace64ece85876840b988b1736b18eaf3ac586dfee9031f7a0","epochNo":319,"epochSlotNo":299604,"slot":52744404,"time":"2022/02/08 08:58:15","addressesInput":["addr1q9j9edkjryr9fnz6eyuwjcjutun9kpgtkdlulzquheldfeermhplrjkd38pvcn2r58dnl0v4rxs9lz6rdj5p77j3wvcs7ud37u","addr1q9j9edkjryr9fnz6eyuwjcjutun9kpgtkdlulzquheldfeermhplrjkd38pvcn2r58dnl0v4rxs9lz6rdj5p77j3wvcs7ud37u","addr1q9j9edkjryr9fnz6eyuwjcjutun9kpgtkdlulzquheldfeermhplrjkd38pvcn2r58dnl0v4rxs9lz6rdj5p77j3wvcs7ud37u"],"addressesOutput":["addr1v9p6hh0ap968c45cjkl8cdnqmwyu07vh5m0cxzwy5yp0rrcj2m4mp","addr1q9j9edkjryr9fnz6eyuwjcjutun9kpgtkdlulzquheldfeermhplrjkd38pvcn2r58dnl0v4rxs9lz6rdj5p77j3wvcs7ud37u","addr1q9j9edkjryr9fnz6eyuwjcjutun9kpgtkdlulzquheldfeermhplrjkd38pvcn2r58dnl0v4rxs9lz6rdj5p77j3wvcs7ud37u"],"fee":249189,"totalOutput":12496161,"tokens":[]},{"hash":"681192c2047653641517c66cc6ce44a33d4930f092eec62bd7b6b8dc1da09b28","blockNo":6855935,"blockHash":"36f03766284b0ee0d8f111af4900aded9c60593c0e9e4ac91ee5bbf00531d91a","epochNo":319,"epochSlotNo":293396,"slot":52738196,"time":"2022/02/08 07:14:47","addressesInput":["addr1qxszsqjtp8kf60yvk896cr9td2rkqnsxsgvej2ad8lah8x3hcdj45clk5lfnp6a2m7jdkpwd06t207rf6p2hzx6lv2jsl2szk3"],"addressesOutput":["addr1w9yr0zr530tp9yzrhly8lw5upddu0eym3yh0mjwa0qlr9pgmkzgv0","addr1qxszsqjtp8kf60yvk896cr9td2rkqnsxsgvej2ad8lah8x3hcdj45clk5lfnp6a2m7jdkpwd06t207rf6p2hzx6lv2jsl2szk3"],"fee":245757,"totalOutput":137136082,"tokens":[]},{"hash":"d7e0f3359cd57814b9f2a2148af5525a827433948c211a186157cc73164ddc23","blockNo":6855897,"blockHash":"79ea07ef4e005d7757abcc795fb68e2cbf5a6c138b92a69a4465be3f16ccf31c","epochNo":319,"epochSlotNo":292621,"slot":52737421,"time":"2022/02/08 07:01:52","addressesInput":["addr1qxszsqjtp8kf60yvk896cr9td2rkqnsxsgvej2ad8lah8x3hcdj45clk5lfnp6a2m7jdkpwd06t207rf6p2hzx6lv2jsl2szk3"],"addressesOutput":["addr1w9yr0zr530tp9yzrhly8lw5upddu0eym3yh0mjwa0qlr9pgmkzgv0","addr1qxszsqjtp8kf60yvk896cr9td2rkqnsxsgvej2ad8lah8x3hcdj45clk5lfnp6a2m7jdkpwd06t207rf6p2hzx6lv2jsl2szk3"],"fee":248177,"totalOutput":139307763,"tokens":[]},{"hash":"31bbfd63507ecb7ae7a6d346353de8d8a6d19d121721a4aadbda66465cc07e45","blockNo":6855816,"blockHash":"acd6165249d5bb306f38249dfca729f9448566735f02d4fde7da0f0167d5b776","epochNo":319,"epochSlotNo":291163,"slot":52735963,"time":"2022/02/08 06:37:34","addressesInput":["addr1qxszsqjtp8kf60yvk896cr9td2rkqnsxsgvej2ad8lah8x3hcdj45clk5lfnp6a2m7jdkpwd06t207rf6p2hzx6lv2jsl2szk3"],"addressesOutput":["addr1w999n67e86jn6xal07pzxtrmqynspgx0fwmcmpua4wc6yzsxpljz3","addr1qxszsqjtp8kf60yvk896cr9td2rkqnsxsgvej2ad8lah8x3hcdj45clk5lfnp6a2m7jdkpwd06t207rf6p2hzx6lv2jsl2szk3"],"fee":286599,"totalOutput":141407790,"tokens":[]},{"hash":"f30742d37b8080e5d6ba7a05dd6b7e79f8ef4b74370b7f6a917ee062b0063b69","blockNo":6855734,"blockHash":"4c718ca9df30dab49cfc6756302f1bae15afb3d6d3abf15e19e577fbe7ddf6bf","epochNo":319,"epochSlotNo":289384,"slot":52734184,"time":"2022/02/08 06:07:55","addressesInput":["addr1qxszsqjtp8kf60yvk896cr9td2rkqnsxsgvej2ad8lah8x3hcdj45clk5lfnp6a2m7jdkpwd06t207rf6p2hzx6lv2jsl2szk3"],"addressesOutput":["addr1w999n67e86jn6xal07pzxtrmqynspgx0fwmcmpua4wc6yzsxpljz3","addr1qxszsqjtp8kf60yvk896cr9td2rkqnsxsgvej2ad8lah8x3hcdj45clk5lfnp6a2m7jdkpwd06t207rf6p2hzx6lv2jsl2szk3"],"fee":288759,"totalOutput":143546239,"tokens":[]},{"hash":"bd202280f375cdc1f2c9c68429ee0f3e9670acaf68b7f8ce79eb741d8abdb303","blockNo":6855684,"blockHash":"622b8ccba82650c668e4fe12b9fef1b820284be4894fd566fe903bab4a8919d7","epochNo":319,"epochSlotNo":288359,"slot":52733159,"time":"2022/02/08 05:50:50","addressesInput":["addr1qxszsqjtp8kf60yvk896cr9td2rkqnsxsgvej2ad8lah8x3hcdj45clk5lfnp6a2m7jdkpwd06t207rf6p2hzx6lv2jsl2szk3"],"addressesOutput":["addr1w999n67e86jn6xal07pzxtrmqynspgx0fwmcmpua4wc6yzsxpljz3","addr1qxszsqjtp8kf60yvk896cr9td2rkqnsxsgvej2ad8lah8x3hcdj45clk5lfnp6a2m7jdkpwd06t207rf6p2hzx6lv2jsl2szk3"],"fee":289431,"totalOutput":145686848,"tokens":[]},{"hash":"13e989348c206ba5b86052b2b972ed57ede47c9d2ce45ae5fed35da901009740","blockNo":6855560,"blockHash":"a468759d3be6a6a04f8ddc1da263d6e9f4db9344436d9ef8f6dd2f929222a568","epochNo":319,"epochSlotNo":285596,"slot":52730396,"time":"2022/02/08 05:04:47","addressesInput":["addr1qxszsqjtp8kf60yvk896cr9td2rkqnsxsgvej2ad8lah8x3hcdj45clk5lfnp6a2m7jdkpwd06t207rf6p2hzx6lv2jsl2szk3"],"addressesOutput":["addr1w999n67e86jn6xal07pzxtrmqynspgx0fwmcmpua4wc6yzsxpljz3","addr1qxszsqjtp8kf60yvk896cr9td2rkqnsxsgvej2ad8lah8x3hcdj45clk5lfnp6a2m7jdkpwd06t207rf6p2hzx6lv2jsl2szk3"],"fee":290199,"totalOutput":147828129,"tokens":[]},{"hash":"e2f6e5101da00e570e08a8f2caa4fd78571f61d34feac6c9ded728841ca8cb7e","blockNo":6855471,"blockHash":"bac1cdc9bc8a9ab1138ce3d4797a5f3b31f269adca4b117409c0be4ec80f1419","epochNo":319,"epochSlotNo":283659,"slot":52728459,"time":"2022/02/08 04:32:30","addressesInput":["addr1q9nyyrxws4rax87g46ezz2fsjm4836nx53e9360e4l2ykephcdj45clk5lfnp6a2m7jdkpwd06t207rf6p2hzx6lv2jsdlhemc","addr1q8a5hgvkpjez6dmqy76fk3xxfr200mcvgc792le4uqq37nehcdj45clk5lfnp6a2m7jdkpwd06t207rf6p2hzx6lv2jssqgwwl"],"addressesOutput":["addr1w999n67e86jn6xal07pzxtrmqynspgx0fwmcmpua4wc6yzsxpljz3","addr1qxszsqjtp8kf60yvk896cr9td2rkqnsxsgvej2ad8lah8x3hcdj45clk5lfnp6a2m7jdkpwd06t207rf6p2hzx6lv2jsl2szk3"],"fee":297351,"totalOutput":149970178,"tokens":[]},{"hash":"bbbf0e580aa7d4baaaff385158bff504ee7bb10306b4dd12ed8cb850a5ac0c6d","blockNo":6855420,"blockHash":"9be1aa982f825f22019554d56536d7bfa5d7f30e4f3b9c0635518bc032b8ff8a","epochNo":319,"epochSlotNo":282454,"slot":52727254,"time":"2022/02/08 04:12:25","addressesInput":["addr1qyfqrqhuljs6s05xn9camr3fkfk98d4xyn9vwf75dnnylwzdweftyc5cx76lqf466ugl8wf6wx3tkmfrjyfrp0ewur9s50zf72","addr1qyfqrqhuljs6s05xn9camr3fkfk98d4xyn9vwf75dnnylwzdweftyc5cx76lqf466ugl8wf6wx3tkmfrjyfrp0ewur9s50zf72","addr1qyfqrqhuljs6s05xn9camr3fkfk98d4xyn9vwf75dnnylwzdweftyc5cx76lqf466ugl8wf6wx3tkmfrjyfrp0ewur9s50zf72","addr1qyfqrqhuljs6s05xn9camr3fkfk98d4xyn9vwf75dnnylwzdweftyc5cx76lqf466ugl8wf6wx3tkmfrjyfrp0ewur9s50zf72"],"addressesOutput":["addr1v8r55r7h0yc98863ysuwvpvk0v5fa453yjersvd40qr0rmce367na","addr1qyfqrqhuljs6s05xn9camr3fkfk98d4xyn9vwf75dnnylwzdweftyc5cx76lqf466ugl8wf6wx3tkmfrjyfrp0ewur9s50zf72","addr1qyfqrqhuljs6s05xn9camr3fkfk98d4xyn9vwf75dnnylwzdweftyc5cx76lqf466ugl8wf6wx3tkmfrjyfrp0ewur9s50zf72"],"fee":248485,"totalOutput":17412165,"tokens":[]},{"hash":"7465b0722bf5a53040320f54f1cd3d771fea59233553784f5a38212a2aa84ed1","blockNo":6855374,"blockHash":"8bc84f204cfcfae04248e2070a054d7ae63def15d230f5ef37c861187302f50e","epochNo":319,"epochSlotNo":281415,"slot":52726215,"time":"2022/02/08 03:55:06","addressesInput":["addr1qyfqrqhuljs6s05xn9camr3fkfk98d4xyn9vwf75dnnylwzdweftyc5cx76lqf466ugl8wf6wx3tkmfrjyfrp0ewur9s50zf72","addr1qyfqrqhuljs6s05xn9camr3fkfk98d4xyn9vwf75dnnylwzdweftyc5cx76lqf466ugl8wf6wx3tkmfrjyfrp0ewur9s50zf72"],"addressesOutput":["addr1v9mgezvmkga9n0js2n4yw7rnt0dtrv8ux8atgtmed3zdceqzu6g93","addr1qyfqrqhuljs6s05xn9camr3fkfk98d4xyn9vwf75dnnylwzdweftyc5cx76lqf466ugl8wf6wx3tkmfrjyfrp0ewur9s50zf72","addr1qyfqrqhuljs6s05xn9camr3fkfk98d4xyn9vwf75dnnylwzdweftyc5cx76lqf466ugl8wf6wx3tkmfrjyfrp0ewur9s50zf72"],"fee":241445,"totalOutput":21786166,"tokens":[]},{"hash":"8b8200ce13c6292dc84998f9f5886e7b8761a89314783368756879fc558fd00f","blockNo":6855081,"blockHash":"7e2a0fba363116e14a43f2ee73362a6ba81df78f14d970793ccb376f99b3badf","epochNo":319,"epochSlotNo":275309,"slot":52720109,"time":"2022/02/08 02:13:20","addressesInput":["addr1qy4ssmmysxr2sxtxxejxgg0w34gy2hhcvzqgl3tzf0cx8333ypp85fwcs8meq97ckf0fuf86vy5955t5357v7yw4w4cqt8qqc0","addr1w999n67e86jn6xal07pzxtrmqynspgx0fwmcmpua4wc6yzsxpljz3","addr1qy4ssmmysxr2sxtxxejxgg0w34gy2hhcvzqgl3tzf0cx8333ypp85fwcs8meq97ckf0fuf86vy5955t5357v7yw4w4cqt8qqc0"],"addressesOutput":["addr1q9cwvremt6n320s2e3agq0jyq82yhrk3htsu0w426xnz5us70z4w0jgvcdkkynmm8wmds66jd9kusnjfpu6raw5fqp0sr07p5w","addr1qxv57sz0rjcd9u3rn0whw5nhhwnxdm3s8s3kezvju2ugc57nmhgthntvtu4ljdww3f6snc2p2ywu7q5xv0yla60wwg6qfr24wv","addr1qxdj632v6n8ra4dk2vncjnma47xgc0vh4zvx7venj9jphu70ejwkmme5vdypmh2xvrcp2dqpntvsp3vjqj9zak3sxaaqy8gwwp","addr1qy4ssmmysxr2sxtxxejxgg0w34gy2hhcvzqgl3tzf0cx8333ypp85fwcs8meq97ckf0fuf86vy5955t5357v7yw4w4cqt8qqc0","addr1qy4ssmmysxr2sxtxxejxgg0w34gy2hhcvzqgl3tzf0cx8333ypp85fwcs8meq97ckf0fuf86vy5955t5357v7yw4w4cqt8qqc0"],"fee":1205751,"totalOutput":178603105,"tokens":[]},{"hash":"2de8c893ec1a45d10ee9cd6137607493cb765ff7ed9dd504e8fa794a45f44c08","blockNo":6854762,"blockHash":"9cf7fbc2b18dc9f99cd17c11d41f69a9a859dd417de0c1dc2f56a63d9d7b8008","epochNo":319,"epochSlotNo":268913,"slot":52713713,"time":"2022/02/08 00:26:44","addressesInput":["addr1q8fjdde87jrua78trg9ylv7gpvd5skzcv5nqp3wl467ykzgsmz083klcvm744y0n7yyg49ykzz0j628xpu4n5u0r0r4qrfqf6q","addr1q8fjdde87jrua78trg9ylv7gpvd5skzcv5nqp3wl467ykzgsmz083klcvm744y0n7yyg49ykzz0j628xpu4n5u0r0r4qrfqf6q","addr1q8fjdde87jrua78trg9ylv7gpvd5skzcv5nqp3wl467ykzgsmz083klcvm744y0n7yyg49ykzz0j628xpu4n5u0r0r4qrfqf6q"],"addressesOutput":["addr1qxwahun4jcf275s5425vrwuzqkd87pvyheszdu40wfkdqlack54r279l8xz8q63ge22txzjrkkr2hg2jku2m2zpxlrmqghmwhs","addr1q8fjdde87jrua78trg9ylv7gpvd5skzcv5nqp3wl467ykzgsmz083klcvm744y0n7yyg49ykzz0j628xpu4n5u0r0r4qrfqf6q","addr1q8fjdde87jrua78trg9ylv7gpvd5skzcv5nqp3wl467ykzgsmz083klcvm744y0n7yyg49ykzz0j628xpu4n5u0r0r4qrfqf6q"],"fee":287733,"totalOutput":17717436,"tokens":[]},{"hash":"3a2c2abf1256eca846c8954af6998b0478ff3b80ce8f3b3c923d15577df6b71e","blockNo":6854668,"blockHash":"0720020feec2357b43f0372d0c73d2f9011948e50483a5bb7deffab69a30ad01","epochNo":319,"epochSlotNo":267136,"slot":52711936,"time":"2022/02/07 23:57:07","addressesInput":["addr1qxszsqjtp8kf60yvk896cr9td2rkqnsxsgvej2ad8lah8x3hcdj45clk5lfnp6a2m7jdkpwd06t207rf6p2hzx6lv2jsl2szk3"],"addressesOutput":["addr1v9uvyywd33wau7vkygjzzjjjg02ncl7mv0w5n7ktpdwh5fcnnl75r","addr1q9nyyrxws4rax87g46ezz2fsjm4836nx53e9360e4l2ykephcdj45clk5lfnp6a2m7jdkpwd06t207rf6p2hzx6lv2jsdlhemc","addr1q9nyyrxws4rax87g46ezz2fsjm4836nx53e9360e4l2ykephcdj45clk5lfnp6a2m7jdkpwd06t207rf6p2hzx6lv2jsdlhemc"],"fee":248397,"totalOutput":399435846,"tokens":[]},{"hash":"6907755e52f890b92032dd015606825cd8a3798e2f815e6a50e3e97c289dc73b","blockNo":6854435,"blockHash":"99c0f390428cd54b9e8d1c2012c3ea4170f9373fb06df7236dc3b98baaa8f98b","epochNo":319,"epochSlotNo":261961,"slot":52706761,"time":"2022/02/07 22:30:52","addressesInput":["addr1q99m6qg6wmqjsxswwq9xprtjzlkmg986u7ws0glawgu7lvcdglhcj9y9lqrf8aw00u26dcvrncm5rwdjxsmeedvn975qgf3uue","addr1q99m6qg6wmqjsxswwq9xprtjzlkmg986u7ws0glawgu7lvcdglhcj9y9lqrf8aw00u26dcvrncm5rwdjxsmeedvn975qgf3uue"],"addressesOutput":["addr1vxhwtq5a94n29fjxu62yr4hllrfta9z9m6yxr56v9ylu5ngtw83dx","addr1q99m6qg6wmqjsxswwq9xprtjzlkmg986u7ws0glawgu7lvcdglhcj9y9lqrf8aw00u26dcvrncm5rwdjxsmeedvn975qgf3uue","addr1q99m6qg6wmqjsxswwq9xprtjzlkmg986u7ws0glawgu7lvcdglhcj9y9lqrf8aw00u26dcvrncm5rwdjxsmeedvn975qgf3uue"],"fee":184685,"totalOutput":12332501,"tokens":[]},{"hash":"694e26f79667f6ba43b12296d484a957bd74d62d68edd56d88750faf08fe5ecc","blockNo":6854108,"blockHash":"e00b67dd772059fbba516fb37cfde6a41b3c3d0f326fe81636390628bb16db7f","epochNo":319,"epochSlotNo":255270,"slot":52700070,"time":"2022/02/07 20:39:21","addressesInput":["addr1qxc5jkyk7lp3pdyvn7uydt444mp00my2lzrqmdpml9u06a2heyqfqqeddffaspdfs9y3vf98lgmwrp750hqvsy66r4vqhmky2t","addr1q9rpxedn2mugqj3g66qe5mgunuzpjqmg27pmzac40k44z76heyqfqqeddffaspdfs9y3vf98lgmwrp750hqvsy66r4vqqy7k92"],"addressesOutput":["addr1v86maas5g8xd0rdtthxzntfkwcj2mcwk44umqtjmndfsmwgaaj5gp","addr1qx7m5uazcx0734jqmzeamsrfwukv3qmp79x2rd5etncpc22heyqfqqeddffaspdfs9y3vf98lgmwrp750hqvsy66r4vqrt9ajv"],"fee":181517,"totalOutput":2806494852,"tokens":[]},{"hash":"88c31dfbaf6d713dacdddf9b153ef6fd6a5321e6c54f403efd10cd5bc55ee63e","blockNo":6854099,"blockHash":"629fe9d98f2b6666279127ca9d087c947d738a1bef44ac1e97f31b664f4c2de2","epochNo":319,"epochSlotNo":255102,"slot":52699902,"time":"2022/02/07 20:36:33","addressesInput":["addr1q9x2jzdeyj7q5u9uvhpzvpuf394f8tekyp26dg4q7kpcyw24mv86l2c6nvmhzu7n4rqjpp84p6ly3gucwtukw0tllf9sjln2tv","addr1q9x2jzdeyj7q5u9uvhpzvpuf394f8tekyp26dg4q7kpcyw24mv86l2c6nvmhzu7n4rqjpp84p6ly3gucwtukw0tllf9sjln2tv"],"addressesOutput":["addr1w9yr0zr530tp9yzrhly8lw5upddu0eym3yh0mjwa0qlr9pgmkzgv0","addr1q9x2jzdeyj7q5u9uvhpzvpuf394f8tekyp26dg4q7kpcyw24mv86l2c6nvmhzu7n4rqjpp84p6ly3gucwtukw0tllf9sjln2tv"],"fee":284301,"totalOutput":85786125,"tokens":[]},{"hash":"3a07ed78aa532b8fbcdbaac0796c3495c4fb7929ce1113c1366c07de0694f634","blockNo":6854093,"blockHash":"9f25d9536970dcb936841a8667db8049c0cc5f7800212627b324ad49ebf31757","epochNo":319,"epochSlotNo":255010,"slot":52699810,"time":"2022/02/07 20:35:01","addressesInput":["addr1qy7n3gckhe8pt779t4p6gl3fpyhx4qhtt73599w2ux7j7jsa49c73yv32axatm687gp8req4y0v6thvmec00sz5fdn3scqwm2l","addr1q9gyq3vjurj3pgw8zej5pud8ephezrluddjq7tjsnchgpnca49c73yv32axatm687gp8req4y0v6thvmec00sz5fdn3s8hdw0x"],"addressesOutput":["addr1qyrt4njvfeyw4pz0xxtlfjl4ctzpw93wuufc5m44nqhjhttjz46tksml0h7q57ax4uhe4et4ufp782dayrxf966sdkwql8ekhc","addr1qxwxleraj2y0xz8yl33csl4c9a9guxkzrfnewk6uzfppc9qa49c73yv32axatm687gp8req4y0v6thvmec00sz5fdn3spgvad9"],"fee":237441,"totalOutput":2894641415,"tokens":[]},{"hash":"ad04bf099c2b5eb2407552030f0eefac57bfef4fda74851906560ee135cf7d5f","blockNo":6854030,"blockHash":"d082a29469214a16c7855ce1dd69f4e9f2418067128331f37e329a744e9f1696","epochNo":319,"epochSlotNo":253523,"slot":52698323,"time":"2022/02/07 20:10:14","addressesInput":["addr1qxehxrsky96celtr2xt9nt2p607eq5dua4t2w4kgk5t36pjheyqfqqeddffaspdfs9y3vf98lgmwrp750hqvsy66r4vqpqt0sl","addr1qxsuhsvdqaxh8zwzlrpkl6dnzh9tzfxmfyavqq7gq6fh3ezheyqfqqeddffaspdfs9y3vf98lgmwrp750hqvsy66r4vqgvlmpx"],"addressesOutput":["addr1v86maas5g8xd0rdtthxzntfkwcj2mcwk44umqtjmndfsmwgaaj5gp","addr1q9rpxedn2mugqj3g66qe5mgunuzpjqmg27pmzac40k44z76heyqfqqeddffaspdfs9y3vf98lgmwrp750hqvsy66r4vqqy7k92"],"fee":179801,"totalOutput":2851676369,"tokens":[]}],"totalItems":487,"totalPages":25,"currentPage":0}