{"data":[{"hash":"94bfd30b51c12236e4946089ba1e8ec38dee606660e41e92934e99c41a93494c","blockNo":8076890,"blockHash":"54843a4b553c5a4e9d3e4c4d7f1437133a1cc04f3b695bb3d582f5d93806b7a1","epochNo":378,"epochSlotNo":260522,"slot":78193322,"time":"2022/11/29 22:06:53","addressesInput":["addr1qxgsgra5rcqeuc7y57s47zdfph5edthpkhf046g87knl8sq0q69yxexnl5sg9xmy3hwpupxt24ddyglhhhfr7jpcm49qh0e4xg","addr1qxgsgra5rcqeuc7y57s47zdfph5edthpkhf046g87knl8sq0q69yxexnl5sg9xmy3hwpupxt24ddyglhhhfr7jpcm49qh0e4xg"],"addressesOutput":["addr1qyg5yk36ee0rhl5hw5kxcfng5ygrsv55tuchs0nxjmh9uqmpmpaxya7n6kzmyy6f72st0akwx8zg5n6emrxa5mhywg9q3v23dv","addr1qxgsgra5rcqeuc7y57s47zdfph5edthpkhf046g87knl8sq0q69yxexnl5sg9xmy3hwpupxt24ddyglhhhfr7jpcm49qh0e4xg","addr1qxgsgra5rcqeuc7y57s47zdfph5edthpkhf046g87knl8sq0q69yxexnl5sg9xmy3hwpupxt24ddyglhhhfr7jpcm49qh0e4xg"],"fee":291209,"totalOutput":1278288962,"tokens":[]},{"hash":"7eed149d6ed2f0495b5599a08fe2c3ae70b8c466b126ea5a2fd06ac7d011b3fb","blockNo":8076890,"blockHash":"54843a4b553c5a4e9d3e4c4d7f1437133a1cc04f3b695bb3d582f5d93806b7a1","epochNo":378,"epochSlotNo":260522,"slot":78193322,"time":"2022/11/29 22:06:53","addressesInput":["addr1q80hx405r9tzeyr0e4suzg2frmaajqu2x80jhafy6nw2sahrzr27g03klu862usxqsru794d03gzkk8n86ta34n85z0s2jgq4u"],"addressesOutput":["addr1q9ppgw8d4gc2tduzs3kpwz75gjfs35s0zkwer2qx7hrr7awd6la2a4xkt8j9vjxxf839fj2wckpgs96l6mw5m4j690fssgpedj","addr1q83jv3zgehm29q25mxw8nwvuccs3km6a257r2r2z225mc8hrzr27g03klu862usxqsru794d03gzkk8n86ta34n85z0sefshfp"],"fee":168273,"totalOutput":1091943930,"tokens":[]},{"hash":"0bd2dec8aa47cb2aead6b1b4551bd6bfbd792f3469c874c93cda640592d57ed2","blockNo":8076890,"blockHash":"54843a4b553c5a4e9d3e4c4d7f1437133a1cc04f3b695bb3d582f5d93806b7a1","epochNo":378,"epochSlotNo":260522,"slot":78193322,"time":"2022/11/29 22:06:53","addressesInput":["addr1qxdj2vz6467f8hner3d5fsdun575v20zz570f43lm8qwsspprkf59ckpzskh22h8ep4vlnr8ytyq4mh79v64vz7dng9qt5r0q2","addr1zxgx3far7qygq0k6epa0zcvcvrevmn0ypsnfsue94nsn3tvpw288a4x0xf8pxgcntelxmyclq83s0ykeehchz2wtspks905plm"],"addressesOutput":["addr1zxgx3far7qygq0k6epa0zcvcvrevmn0ypsnfsue94nsn3tvpw288a4x0xf8pxgcntelxmyclq83s0ykeehchz2wtspks905plm","addr1qxdj2vz6467f8hner3d5fsdun575v20zz570f43lm8qwsspprkf59ckpzskh22h8ep4vlnr8ytyq4mh79v64vz7dng9qt5r0q2"],"fee":297178,"totalOutput":12638856,"tokens":[]},{"hash":"4475cbd0aaf6ce9198597302f624dc67013c1c85692655a706d77bd353c4e583","blockNo":8076890,"blockHash":"54843a4b553c5a4e9d3e4c4d7f1437133a1cc04f3b695bb3d582f5d93806b7a1","epochNo":378,"epochSlotNo":260522,"slot":78193322,"time":"2022/11/29 22:06:53","addressesInput":["addr1q8m5whjc7aeg209r99qzzsxl7qsdmpkcezvs5s408qx9cljck3edxc8lf6eqte9qpztsch5drvghz5clttzp549cjugq9l0q5w"],"addressesOutput":["addr1qyxpajlr2sv85a7qw86dvhfw29t787spcnp5a57gjl9ss8k2h8y4gwedd2z2nx6544nalel0zd0g0kel44c96xy3vxvqkd5h9p","addr1qy3h3at4ycya7mfnqsjxahzann2tth36q4q08fy6hmzzdj6ck3edxc8lf6eqte9qpztsch5drvghz5clttzp549cjugq4evnf4"],"fee":168317,"totalOutput":93363366,"tokens":[]},{"hash":"e3857b7afd7c3e82310a6d56bc51f13631ebc5fc4171e96843cd7ee8e22fe834","blockNo":8076890,"blockHash":"54843a4b553c5a4e9d3e4c4d7f1437133a1cc04f3b695bb3d582f5d93806b7a1","epochNo":378,"epochSlotNo":260522,"slot":78193322,"time":"2022/11/29 22:06:53","addressesInput":["Ae2tdPwUPEYwNguM7TB3dMnZMfZxn1pjGHyGdjaF4mFqZF9L3bj6cdhiH8t"],"addressesOutput":["addr1q8yztjz2ney3tnz4jepzegt07g9egut060ulvl2lpcfx85ml8nr2qpgfe54pkxw6vq7wja3hu6p2ydqva27g3dtt662qgky7ty","Ae2tdPwUPEYwNguM7TB3dMnZMfZxn1pjGHyGdjaF4mFqZF9L3bj6cdhiH8t"],"fee":224481,"totalOutput":90742600084,"tokens":[]},{"hash":"5f18adae8098b448a80fe1c0f9097a9bcf5a4eb315197c62a752ce64cd22cd36","blockNo":8076890,"blockHash":"54843a4b553c5a4e9d3e4c4d7f1437133a1cc04f3b695bb3d582f5d93806b7a1","epochNo":378,"epochSlotNo":260522,"slot":78193322,"time":"2022/11/29 22:06:53","addressesInput":["addr1q9eur2h8yuh5hrzwzqfrfjdp5qdld4jwght3mh0033tw4fja4mk23mjmhcgksazv6ptkpc60qvr7updwqzz0wfqvtxhq52xa3g"],"addressesOutput":["addr1q9eur2h8yuh5hrzwzqfrfjdp5qdld4jwght3mh0033tw4fja4mk23mjmhcgksazv6ptkpc60qvr7updwqzz0wfqvtxhq52xa3g","addr1q9eur2h8yuh5hrzwzqfrfjdp5qdld4jwght3mh0033tw4fja4mk23mjmhcgksazv6ptkpc60qvr7updwqzz0wfqvtxhq52xa3g"],"fee":168317,"totalOutput":666384614,"tokens":[]},{"hash":"9c295ecc6629ce38d1f3b010be18851644046307d6e5b4d6ba875c275f34f3f5","blockNo":8076890,"blockHash":"54843a4b553c5a4e9d3e4c4d7f1437133a1cc04f3b695bb3d582f5d93806b7a1","epochNo":378,"epochSlotNo":260522,"slot":78193322,"time":"2022/11/29 22:06:53","addressesInput":["addr1q8lzpf7regushw2x4fa34flwj4xg7z9xvh76j87x353k06naqdggfnj8459m954xq6aa7sr2cawa2ug7cld06mag9vlqjk4ugz"],"addressesOutput":["addr1qxud90numf5xmxc3jd89wssaw874r3d2flvnjcfmr3r8vktaqdggfnj8459m954xq6aa7sr2cawa2ug7cld06mag9vlqhvh8qc","addr1qxud90numf5xmxc3jd89wssaw874r3d2flvnjcfmr3r8vktaqdggfnj8459m954xq6aa7sr2cawa2ug7cld06mag9vlqhvh8qc","addr1qxud90numf5xmxc3jd89wssaw874r3d2flvnjcfmr3r8vktaqdggfnj8459m954xq6aa7sr2cawa2ug7cld06mag9vlqhvh8qc","addr1qxud90numf5xmxc3jd89wssaw874r3d2flvnjcfmr3r8vktaqdggfnj8459m954xq6aa7sr2cawa2ug7cld06mag9vlqhvh8qc","addr1q8uvvlvjk9z6gjp3wgtavymwvd4rwzm7xwr28y0y9mmcgetaqdggfnj8459m954xq6aa7sr2cawa2ug7cld06mag9vlq2eqlme"],"fee":176897,"totalOutput":168516283,"tokens":[]},{"hash":"26dff0a77e1b4ba8bae5fffe640acffb4620eaafb5ebd34f05a038de31656b3b","blockNo":8076890,"blockHash":"54843a4b553c5a4e9d3e4c4d7f1437133a1cc04f3b695bb3d582f5d93806b7a1","epochNo":378,"epochSlotNo":260522,"slot":78193322,"time":"2022/11/29 22:06:53","addressesInput":["addr1q9xvhsyxplwt78t8pejy0p65zdz0w6qf8jqq8urw43ac8v9md9x28wu9p79k4djvz9rhm9au72ec29gznasf3j5eyq5qtqats6","addr1q9uchym2fwje5f36nu0rcg9rj7u9lph2zussf9f8lqp2sfdmd9x28wu9p79k4djvz9rhm9au72ec29gznasf3j5eyq5qy9q2ma","addr1qx8dq23vn7j4mkz7lwf7kx7jv4t95nm6jhuu003kp6xlmt4md9x28wu9p79k4djvz9rhm9au72ec29gznasf3j5eyq5q9djdll","addr1qxvcyq94sk8v22jegjd7j9fp885yt6t8c2he89dxkhdyrqdmd9x28wu9p79k4djvz9rhm9au72ec29gznasf3j5eyq5qfy7ecf","addr1q9xvhsyxplwt78t8pejy0p65zdz0w6qf8jqq8urw43ac8v9md9x28wu9p79k4djvz9rhm9au72ec29gznasf3j5eyq5qtqats6","addr1q94pte3m0h0puapr8g5rjuj2l8h6qlyp0ne2mesh5y0x594md9x28wu9p79k4djvz9rhm9au72ec29gznasf3j5eyq5qcqhdps","addr1qyc6cw2r3nu92rr7fxjzgkt432nvjaemcnpefmj0ltwlkc4md9x28wu9p79k4djvz9rhm9au72ec29gznasf3j5eyq5qaw32cp","addr1qxzwpgtx5nkr0nad7975enpn4ghgfpcjhccjwvr3z073my4md9x28wu9p79k4djvz9rhm9au72ec29gznasf3j5eyq5qx62s03"],"addressesOutput":["DdzFFzCqrhswS1vFBcKU5nwfC9dkNWpt1P7wHybeLyehtG3xUdBbkmi87E4DefFJxouGxf8YF4D1ipudJKaVVYpHvCERWDobQKTBYsjQ","addr1q8tnvk8g53mm7d4e8hya5zphn4mwtcst9k6jmdshpr7mtm4md9x28wu9p79k4djvz9rhm9au72ec29gznasf3j5eyq5qlyr5fr"],"fee":206905,"totalOutput":332530862,"tokens":[]},{"hash":"3a4cc39a9b5ddc0446c146fa44ba83e6e8b1a318c31b1fcfc04cf91d362eb73e","blockNo":8076890,"blockHash":"54843a4b553c5a4e9d3e4c4d7f1437133a1cc04f3b695bb3d582f5d93806b7a1","epochNo":378,"epochSlotNo":260522,"slot":78193322,"time":"2022/11/29 22:06:53","addressesInput":["addr1vyjdya9lmyfmysdgej3qc6thwat33lwm3umk8uwnvhy9g3gzvd2jp","addr1vyjcjxd32xg3tvy6wkxwssvwqft8a7z6l0h9g936hcdjaysxgfyjn"],"addressesOutput":["addr1qxzaj0gn26pdxv7qukg79mje7g2jfsqmmfqjfezsyprz0gyz58wl2jawl3ph3nz9lt9u6ehmm5naxr6xh9wayyj4a0uqv53k8w","addr1vyjcjxd32xg3tvy6wkxwssvwqft8a7z6l0h9g936hcdjaysxgfyjn"],"fee":185689,"totalOutput":288397618,"tokens":[]},{"hash":"0583fc7863f906beed541fde1fcb9aecd9e74f0eb4584c1373cb72e9a69ae7b4","blockNo":8076890,"blockHash":"54843a4b553c5a4e9d3e4c4d7f1437133a1cc04f3b695bb3d582f5d93806b7a1","epochNo":378,"epochSlotNo":260522,"slot":78193322,"time":"2022/11/29 22:06:53","addressesInput":["addr1wy96wdkpq2t6yf25epwtauad3kj24yrx5rk4vnmnczujknc8tptgn","addr1vy5fnk2ldtegz4nts5kxj3dj6fs4gmz73gqw3zujt3kagug7wc7af","addr1w8ssx8c4jgxvze4p8qqtdvqd7exjl3ths6pxycgjsnw66wqshlgar","addr1w8frpnd6lhleyh9wnh32gkc2z6fmgngedr8zh96xa2fguyqdetk4w","addr1w835n68qeax023uperwgwlruk3d8yjl4k98r433nhw5waqgkx8prf","addr1w9thy3udu58yxqthaqn8vhvh6q9uvmm9y2rrwktnecjrt8gh44tx8","addr1w80k8xe6vckm3qgklhw98tqjekfvw3mgwux3stmtq3jlprga3u33c","addr1w9rerwzk0f5v4den9u2c7anv2d4dl88hq9cq0xgcmernsfsak7w6r","addr1vx7qw6qw9gxks5jecluetdhpxc0t8p8jevmdttc7tcldjac758wsf","addr1w8vh8ssekk52ye3pt7a2j8upv3qphzmar2sj68353xds9lq5urex7","addr1wypwdjfmenh36445uvwctz6ss3nxnqp3ejczyjwpqqptj2c2apyl9","addr1v97xe33p48lgykak5kef6ttx8fwjn2nufs5kj8hvhjcwancm56dhh","addr1wxkajet4zhhuylr6475ykqerll0gl8x8v8kgmnrpxt2vrwq2eh67y","addr1w80sd86zz3r87nyw28et6eep6q7fc6ds0t6ru6sx9pwzckczkyvl4","addr1w9xc5279jqxql020jp295d377nqrms826gnhgqxt5g5m9dqlfqf3f","addr1w8l03g4c5stnkmtqjvpxcsz4jkrujyq63fxlnedxsvdld7gyrtm2r","addr1wxcpjfdxav75dfr2m653l2pf38q5juwz8fst6v5sqdcjsns74jyxe","addr1w828m0rdlumnp30dwmv33l4akzhxcpx7a64tuvjwhjn7pxgngjrpx","addr1wxzha4m0qnaeauzfpw7gwhel9pxtz39fnhh495jscf0nzjq8rkv4f","addr1wxgg25t3tk30jqzl2elqz94lzgmr8a9c9m5z902ds5sjh0g7uaj8z","addr1v8pr9mwnqarw808gtllvmlxvk70hnszrukjeqfstr9t9g5crud8c4","addr1w8n8hyq3zc9eugnav265f8549nagc7ejdg2euhrvyzh5q0szhc5kw","addr1vy3qpx09uscywhppj5vp08hu0ekg9zwmq2ysfq6qyh2mpps865j6t","addr1vy4n8c80ytv8w33nkqtph5fd8rqcp3x98s6f5dl8qc6kkac3565u4","addr1w8dmtwktj7lktd0zv0wpxuny590ndshmj3z8xxmq3tjyvdggs35jy","addr1wx524gq72mduxehj6w2tt56fjq5z97d79m6zevu87s6ujxq7x9y9d","addr1w9v5h80g9nk4qn3vxxxrzpwp2vnr4fv9jgd7jwcnk4eseqc2arf39"],"addressesOutput":["addr1vy3qpx09uscywhppj5vp08hu0ekg9zwmq2ysfq6qyh2mpps865j6t","addr1v8pr9mwnqarw808gtllvmlxvk70hnszrukjeqfstr9t9g5crud8c4","addr1qyjg8n9zhvxf6fv9qlj3lgnmxpxfzgh3gw4vx59as593yhp2734fwqs0tj5tkypely3n708ztar8exdmt6a6w94fhuwqzk9j2e","addr1q9grjzyk9u4gk5htf0j9p0swzd6yqw4l5vmf84yn3yjhsm83uv2gagxcc3tvm2rnw7egnaultyqw7mjy07rh7j343nmsxu4cyn","addr1q9gaz8jywmts4mjyc4z3mad689xlkjjhwl0fmh277g03yqlct3lsj5ppez30u4lf6pppd9u0lcmjm5sxvkgyw0l8e4qs4f9gng","addr1qxxs3hm9hsq72l9wa293v8kuslquppuz594704thlgdhdnujvj9zytkl70t3adxuc939q0270jkvhyrwfmhvpf84ktesa86wj8","addr1w8ssx8c4jgxvze4p8qqtdvqd7exjl3ths6pxycgjsnw66wqshlgar","addr1wx524gq72mduxehj6w2tt56fjq5z97d79m6zevu87s6ujxq7x9y9d","addr1w80k8xe6vckm3qgklhw98tqjekfvw3mgwux3stmtq3jlprga3u33c","addr1w9rerwzk0f5v4den9u2c7anv2d4dl88hq9cq0xgcmernsfsak7w6r","addr1w8n8hyq3zc9eugnav265f8549nagc7ejdg2euhrvyzh5q0szhc5kw","addr1wxzha4m0qnaeauzfpw7gwhel9pxtz39fnhh495jscf0nzjq8rkv4f","addr1w9thy3udu58yxqthaqn8vhvh6q9uvmm9y2rrwktnecjrt8gh44tx8","addr1w8dmtwktj7lktd0zv0wpxuny590ndshmj3z8xxmq3tjyvdggs35jy","addr1wypwdjfmenh36445uvwctz6ss3nxnqp3ejczyjwpqqptj2c2apyl9","addr1w8frpnd6lhleyh9wnh32gkc2z6fmgngedr8zh96xa2fguyqdetk4w","addr1w9xc5279jqxql020jp295d377nqrms826gnhgqxt5g5m9dqlfqf3f","addr1wy96wdkpq2t6yf25epwtauad3kj24yrx5rk4vnmnczujknc8tptgn","addr1wxkajet4zhhuylr6475ykqerll0gl8x8v8kgmnrpxt2vrwq2eh67y","addr1wxcpjfdxav75dfr2m653l2pf38q5juwz8fst6v5sqdcjsns74jyxe","addr1w8vh8ssekk52ye3pt7a2j8upv3qphzmar2sj68353xds9lq5urex7","addr1w835n68qeax023uperwgwlruk3d8yjl4k98r433nhw5waqgkx8prf","addr1w828m0rdlumnp30dwmv33l4akzhxcpx7a64tuvjwhjn7pxgngjrpx","addr1wxgg25t3tk30jqzl2elqz94lzgmr8a9c9m5z902ds5sjh0g7uaj8z","addr1w9v5h80g9nk4qn3vxxxrzpwp2vnr4fv9jgd7jwcnk4eseqc2arf39","addr1w8l03g4c5stnkmtqjvpxcsz4jkrujyq63fxlnedxsvdld7gyrtm2r","addr1w80sd86zz3r87nyw28et6eep6q7fc6ds0t6ru6sx9pwzckczkyvl4"],"fee":609549,"totalOutput":4329116914,"tokens":[]},{"hash":"5bbcf55f115ab3f89d21a26bd1efe14964dac6c8e1a7c124caf46ac7e46a4928","blockNo":8076890,"blockHash":"54843a4b553c5a4e9d3e4c4d7f1437133a1cc04f3b695bb3d582f5d93806b7a1","epochNo":378,"epochSlotNo":260522,"slot":78193322,"time":"2022/11/29 22:06:53","addressesInput":["addr1qxkmr0m22xeqludcg5rjdmecjxasu9fat0680qehtcsnftaadgykewa9ufvegeuca9yyq03d9v7ea2y2zthgu7hfgjtsddp6gr","addr1qxkmr0m22xeqludcg5rjdmecjxasu9fat0680qehtcsnftaadgykewa9ufvegeuca9yyq03d9v7ea2y2zthgu7hfgjtsddp6gr","addr1qxkmr0m22xeqludcg5rjdmecjxasu9fat0680qehtcsnftaadgykewa9ufvegeuca9yyq03d9v7ea2y2zthgu7hfgjtsddp6gr"],"addressesOutput":["addr1qxkmr0m22xeqludcg5rjdmecjxasu9fat0680qehtcsnftaadgykewa9ufvegeuca9yyq03d9v7ea2y2zthgu7hfgjtsddp6gr","addr1qy4h2ztlzd5cs2p5f9cu6l75lrtufn7hwvyyr0s24uyvype5dmxt9n6erjr5kjayl5kn2s8r7y93vw22g46ktl4v4p3qu6av69","addr1qxkmr0m22xeqludcg5rjdmecjxasu9fat0680qehtcsnftaadgykewa9ufvegeuca9yyq03d9v7ea2y2zthgu7hfgjtsddp6gr"],"fee":247077,"totalOutput":33975373,"tokens":[]},{"hash":"1744f66d9bd3c225aae25aae9e7a164ce0c36cb35642ae08d4ee61328cf6b458","blockNo":8076889,"blockHash":"782bd2426c15ca1dc4a2efae0a41c44f308c8f7bba5234383e1c37928fa898fd","epochNo":378,"epochSlotNo":260510,"slot":78193310,"time":"2022/11/29 22:06:41","addressesInput":["addr1v8pzm603usg8ul2ul50ru9nnewec42m6jgc78qw5xkmaxsq9jydv2","addr1vxzav864ej5enl5e3fq4j47pfvq2m2qv4dpv98xu723ssac247q04","addr1vyy2n6m9hdkqmtdxp9v2pzc9s3fs5eu4697a7u7lkv6xqqggvxwr2"],"addressesOutput":["addr1q8pmxllh6hxsjrc99ufaej0qws3vltrmxgj7ydzq2wdsdthzfnws54sj7k67md4eqwzzup7hlysn8da285pdyxm6fj7qg3efe5","addr1vypr00ss7hkqejmvh53xkyf0p9q0a4z2uprxmx6njc463vgst3pe4"],"fee":188821,"totalOutput":544762972,"tokens":[]},{"hash":"a6f93483e29cc4e4f37fa968ce0d8b6d649ea8d9a71e3b09c90d61d909a2979b","blockNo":8076889,"blockHash":"782bd2426c15ca1dc4a2efae0a41c44f308c8f7bba5234383e1c37928fa898fd","epochNo":378,"epochSlotNo":260510,"slot":78193310,"time":"2022/11/29 22:06:41","addressesInput":["addr1qyuetxpntfgpayt5nuyvt299p68mzncjxvthqmqd5f7wf37qvz4cchpqjxg4e39shx27n459nc5m5dh65epa982wzl7qk4xc2f","addr1qyuetxpntfgpayt5nuyvt299p68mzncjxvthqmqd5f7wf37qvz4cchpqjxg4e39shx27n459nc5m5dh65epa982wzl7qk4xc2f"],"addressesOutput":["addr1qyuetxpntfgpayt5nuyvt299p68mzncjxvthqmqd5f7wf37qvz4cchpqjxg4e39shx27n459nc5m5dh65epa982wzl7qk4xc2f","addr1wy30zf2g4xc7v872fdweewrlj3lh2lgttelmydn0cvhyplsg3vnkq"],"fee":182045,"totalOutput":10486956,"tokens":[]},{"hash":"b406753293f8a8fc4b297df6a1e8075f50c85287c11e4bf366b0b0aac62679ec","blockNo":8076888,"blockHash":"3015dfb9b6bf84f3212591b0ebaf4ba9318ed9a03ffc389a6647f80ccac3ec29","epochNo":378,"epochSlotNo":260506,"slot":78193306,"time":"2022/11/29 22:06:37","addressesInput":["addr1q8qudqnd9y3kg5hyh3lqxveyjekdsfkup30ld2s26v6yl3ywkc33r40pm7hk08flxc0ggdwek0qmna4szhyk9mxs77asu5trpj","addr1q8qudqnd9y3kg5hyh3lqxveyjekdsfkup30ld2s26v6yl3ywkc33r40pm7hk08flxc0ggdwek0qmna4szhyk9mxs77asu5trpj"],"addressesOutput":["addr1qyu3x4sjfuy5hgxc657zsj7d6aqdz3q3mtheazyu59sws9nq6crz424a7d9yusy5pcxrfq76s45frt3wqqhzh2us62qqfxdm2f","addr1q8qudqnd9y3kg5hyh3lqxveyjekdsfkup30ld2s26v6yl3ywkc33r40pm7hk08flxc0ggdwek0qmna4szhyk9mxs77asu5trpj"],"fee":169901,"totalOutput":209830099,"tokens":[]},{"hash":"c44b7589fe17d500110e372fd5c5461bb93917b3082f7de818c32c7ee2a9ac9b","blockNo":8076888,"blockHash":"3015dfb9b6bf84f3212591b0ebaf4ba9318ed9a03ffc389a6647f80ccac3ec29","epochNo":378,"epochSlotNo":260506,"slot":78193306,"time":"2022/11/29 22:06:37","addressesInput":["addr1q93w8zv3nxc2uzkfec885504grr3r6tj3lvuh6te9k7a7p3acvl4qsev06qfpcz8ym4xdssym0x4l2lh7dup4xdeyncqzv6qrj","addr1q8usu609ggkkmanhxwpd096q8yl4m73gvgpzgz99pl842eeacvl4qsev06qfpcz8ym4xdssym0x4l2lh7dup4xdeyncqxq9gw4"],"addressesOutput":["addr1wxn9efv2f6w82hagxqtn62ju4m293tqvw0uhmdl64ch8uwc0h43gt","addr1q93w8zv3nxc2uzkfec885504grr3r6tj3lvuh6te9k7a7p3acvl4qsev06qfpcz8ym4xdssym0x4l2lh7dup4xdeyncqzv6qrj","addr1qxzxelx48axn38nu3mv7sndsha4nm63jq02zwnzxu3q2j8facvl4qsev06qfpcz8ym4xdssym0x4l2lh7dup4xdeyncqj5v7hx"],"fee":194057,"totalOutput":134457413,"tokens":[]},{"hash":"9df1a0d442d0b343933085541afa9b1f8e910afbb14fb8792b5ee6fe4ff7c94b","blockNo":8076888,"blockHash":"3015dfb9b6bf84f3212591b0ebaf4ba9318ed9a03ffc389a6647f80ccac3ec29","epochNo":378,"epochSlotNo":260506,"slot":78193306,"time":"2022/11/29 22:06:37","addressesInput":["addr1qxywzlmlvl9jrq5akpdhg9txwwhj57vt5x8a74kaz9008ycaqxs3w5n69f9tjvyf86t8hkefc808vld837pa65h9enusqgdkvj","addr1zxgx3far7qygq0k6epa0zcvcvrevmn0ypsnfsue94nsn3tvpw288a4x0xf8pxgcntelxmyclq83s0ykeehchz2wtspks905plm"],"addressesOutput":["addr1zxgx3far7qygq0k6epa0zcvcvrevmn0ypsnfsue94nsn3tvpw288a4x0xf8pxgcntelxmyclq83s0ykeehchz2wtspks905plm","addr1qxywzlmlvl9jrq5akpdhg9txwwhj57vt5x8a74kaz9008ycaqxs3w5n69f9tjvyf86t8hkefc808vld837pa65h9enusqgdkvj"],"fee":297368,"totalOutput":192272411,"tokens":[]},{"hash":"67d70f39ef0cb53c5907e7d515ee1b0ca9640579ffa9de139315c64f3f2809ed","blockNo":8076888,"blockHash":"3015dfb9b6bf84f3212591b0ebaf4ba9318ed9a03ffc389a6647f80ccac3ec29","epochNo":378,"epochSlotNo":260506,"slot":78193306,"time":"2022/11/29 22:06:37","addressesInput":["addr1q96fwj328fjlndppptzv04rq6yzfw92q2547qvgnjgagtnqpcyzqdhgsug28kjvetgven34fy4tf2n7pngem70dmpvmqurwxnd"],"addressesOutput":["addr1q8elhw933wjsjgy73pltatgwc66gkw2thluk40axd6h6n6r5pjhn6ujknjf5tqnw2udrxms6ng63qy96zkflgzzvqnpqnffsha"],"fee":165457,"totalOutput":4834543,"tokens":[]},{"hash":"864a1be4c865accc0671312f489e19be8a9fb6c79969edd54e3ab35f0082af5f","blockNo":8076888,"blockHash":"3015dfb9b6bf84f3212591b0ebaf4ba9318ed9a03ffc389a6647f80ccac3ec29","epochNo":378,"epochSlotNo":260506,"slot":78193306,"time":"2022/11/29 22:06:37","addressesInput":["addr1v827a9u8yj8q2dn09a2v5l46vc2jdfey88f5ns938ngj3yqsmfuam"],"addressesOutput":["addr1vy4nmtfc4jfftgqg369hs2ku6kvcncgzhkemq6mh0u3zgpslf59wr","addr1vy4nmtfc4jfftgqg369hs2ku6kvcncgzhkemq6mh0u3zgpslf59wr"],"fee":168500,"totalOutput":88346084,"tokens":[]},{"hash":"e4922bb3a3b161b346dc1b7cd899039f825b44285b95c24a2f0e324f43c58a69","blockNo":8076888,"blockHash":"3015dfb9b6bf84f3212591b0ebaf4ba9318ed9a03ffc389a6647f80ccac3ec29","epochNo":378,"epochSlotNo":260506,"slot":78193306,"time":"2022/11/29 22:06:37","addressesInput":["addr1qya5hcvr3jfju4jzjtetg0vl5hgyqw3qq6pyk9nc7hcr4c8hjyqvk8mlqx3tjguean2wm4aculpy4y87yfkf5uftfgxq2rfuqq","addr1zxgx3far7qygq0k6epa0zcvcvrevmn0ypsnfsue94nsn3tvpw288a4x0xf8pxgcntelxmyclq83s0ykeehchz2wtspks905plm"],"addressesOutput":["addr1zxgx3far7qygq0k6epa0zcvcvrevmn0ypsnfsue94nsn3tvpw288a4x0xf8pxgcntelxmyclq83s0ykeehchz2wtspks905plm","addr1qya5hcvr3jfju4jzjtetg0vl5hgyqw3qq6pyk9nc7hcr4c8hjyqvk8mlqx3tjguean2wm4aculpy4y87yfkf5uftfgxq2rfuqq"],"fee":274348,"totalOutput":23161052,"tokens":[]},{"hash":"729f177b7930a5cad0fda165b9020e738bd6f4baa668be6671d94f17295d4718","blockNo":8076888,"blockHash":"3015dfb9b6bf84f3212591b0ebaf4ba9318ed9a03ffc389a6647f80ccac3ec29","epochNo":378,"epochSlotNo":260506,"slot":78193306,"time":"2022/11/29 22:06:37","addressesInput":["addr1vxfkdvqadwhsgqj9acr3yl7g4a8sff6mj8r2jlmfclmyvwsv5u7fe","addr1wxaptpmxcxawvr3pzlhgnpmzz3ql43n2tc8mn3av5kx0yzs09tqh8","addr1w9qzpelu9hn45pefc0xr4ac4kdxeswq7pndul2vuj59u8tqaxdznu","addr1vxfkdvqadwhsgqj9acr3yl7g4a8sff6mj8r2jlmfclmyvwsv5u7fe"],"addressesOutput":["addr1w9qzpelu9hn45pefc0xr4ac4kdxeswq7pndul2vuj59u8tqaxdznu","addr1w9jx45flh83z6wuqypyash54mszwmdj8r64fydafxtfc6jgrw4rm3","addr1q9ws03prkeg69exgeqey83qvhc8ff2etzt48xssyk0z7ury7jwxf9cg7u98e4kp2w8e7mt9czw6s2tmj875vujdurjvs0llgcf","addr1vxfkdvqadwhsgqj9acr3yl7g4a8sff6mj8r2jlmfclmyvwsv5u7fe","addr1vxfkdvqadwhsgqj9acr3yl7g4a8sff6mj8r2jlmfclmyvwsv5u7fe"],"fee":1174952,"totalOutput":939774285,"tokens":[]}],"totalItems":55673336,"totalPages":2783667,"currentPage":0}