{"data":[{"blockNo":8143870,"slotNo":79562830,"epochNo":381,"epochSlotNo":334030,"hash":"f0512a4c1f4ffd69c5876ea3ab40913077220a953c0c0e71d7e3949c32b13a31","time":"2022/12/15 18:32:01","txCount":18,"totalFees":5846907,"totalOutput":140074633366,"slotLeader":"00000aedaa1a5abf500cbc4c5c23761a2dff570bc4a299983c893f8e"},{"blockNo":8143869,"slotNo":79562813,"epochNo":381,"epochSlotNo":334013,"hash":"7d480d94899ece07035ae1f606b25308164694b906c1f9399eef426d8c378769","time":"2022/12/15 18:31:44","txCount":9,"totalFees":3177814,"totalOutput":5350339882,"slotLeader":"28f85efe5e9d3b3d8a0f4950117e47b7415a92f80d69bfb64cfb4d8b"},{"blockNo":8143868,"slotNo":79562806,"epochNo":381,"epochSlotNo":334006,"hash":"d4867e350efe89547172fae6fdb78e30dd0a890bd02abc46dcfe8b0ccc7295f5","time":"2022/12/15 18:31:37","txCount":25,"totalFees":7022424,"totalOutput":254431650850,"slotLeader":"2f606921baedcad68bbc765b9ab82b2b201d42bd35262517ce5d7d96"},{"blockNo":8143867,"slotNo":79562784,"epochNo":381,"epochSlotNo":333984,"hash":"071398e343bd791994b9fb89fb766530d6e194e7b8483f97a94087aafb2e23e7","time":"2022/12/15 18:31:15","txCount":1,"totalFees":167877,"totalOutput":410248888,"slotLeader":"68ac3c1be0477698b5c825ce598cca359dbf6132e1761a572403b9fb"},{"blockNo":8143866,"slotNo":79562783,"epochNo":381,"epochSlotNo":333983,"hash":"c89f2d27b4b9ce5be53f267184bdbe28af5fe72cebd7f032896a772345ffb3c1","time":"2022/12/15 18:31:14","txCount":2,"totalFees":368866,"totalOutput":64651743685,"slotLeader":"b3cc3005f1dccbc88230eb66d6e99c2f1bfa32273044473e17d9e10b"},{"blockNo":8143865,"slotNo":79562780,"epochNo":381,"epochSlotNo":333980,"hash":"acf19a2e514f3a13749bf920455895371290b21f671409f4a8bed4e0f98401bb","time":"2022/12/15 18:31:11","txCount":41,"totalFees":10650847,"totalOutput":11211879635270,"slotLeader":"3b3327c0a885ba7c1ebeec8b44158aab79c32148d45b4c701344cd97"},{"blockNo":8143864,"slotNo":79562747,"epochNo":381,"epochSlotNo":333947,"hash":"0a46ef6ee0f1df89e8f3a5e38621ca12274c649c586eccb86620d7fda9aff1a4","time":"2022/12/15 18:30:38","txCount":5,"totalFees":911668,"totalOutput":474084276668,"slotLeader":"61d2598400211dcda6878511eb6d84719e5c502c7aa63d500f7a57ce"},{"blockNo":8143863,"slotNo":79562745,"epochNo":381,"epochSlotNo":333945,"hash":"43e01ac82265e27efd6ed4ad21eb0e3df0b49cc843f88cac92335f03d043670f","time":"2022/12/15 18:30:36","txCount":6,"totalFees":1962200,"totalOutput":17805718712107,"slotLeader":"0a423fa44f23b13cba59474427d11746136672af66b2d80b4499dd1d"},{"blockNo":8143862,"slotNo":79562739,"epochNo":381,"epochSlotNo":333939,"hash":"d4891f11d798c63f4a0a9a5a8fe226fd5a94788aae1b97bffbe3e42d75f68084","time":"2022/12/15 18:30:30","txCount":3,"totalFees":548423,"totalOutput":3992964384,"slotLeader":"7c6b4a731eec6bef00e16ec4c990e7a817f61597dab1033006563ad7"},{"blockNo":8143861,"slotNo":79562735,"epochNo":381,"epochSlotNo":333935,"hash":"8b2797779f68e70d230352085083105a7de2e28c533f3c663e8a74788c20d30b","time":"2022/12/15 18:30:26","txCount":45,"totalFees":10943820,"totalOutput":150586223639503,"slotLeader":"0c7173112ca61362d2ee05040973f2184968f2d4e769df86671c916b"}],"totalItems":16277,"totalPages":1628,"currentPage":0}