{"data":[{"hash":"f28c22768da51eea008bcc835e69f74889d4bb2e87b474aafe88e47dfe7cd443","blockNo":7127078,"blockHash":"883da0f3a346d9ccf6b8e8c134050afe789079c1ec4188bb92f24831cf8496c9","epochNo":332,"epochSlotNo":404757,"slot":58465557,"time":"2022/04/15 14:10:48","addressesInput":["addr1q8s2pnk84564qnquuz3cysu7m3cktdj3jn2720ls4r5s39fgkxrz2nmnnx5pxy7n8m48qsvfwfvm539m5xlztmpmgr8qfx58va","addr1qy8uq2p48v8tj5mf7exf3vukxeueu6a3e7nfww08jnjca4pgkxrz2nmnnx5pxy7n8m48qsvfwfvm539m5xlztmpmgr8qr78kyg","addr1q8s2pnk84564qnquuz3cysu7m3cktdj3jn2720ls4r5s39fgkxrz2nmnnx5pxy7n8m48qsvfwfvm539m5xlztmpmgr8qfx58va","addr1qyx8jdn07jdutt5naxvc6698g4tdynzydmgzntrhnawe44egkxrz2nmnnx5pxy7n8m48qsvfwfvm539m5xlztmpmgr8qquecqu","addr1q8s2pnk84564qnquuz3cysu7m3cktdj3jn2720ls4r5s39fgkxrz2nmnnx5pxy7n8m48qsvfwfvm539m5xlztmpmgr8qfx58va","addr1q8s2pnk84564qnquuz3cysu7m3cktdj3jn2720ls4r5s39fgkxrz2nmnnx5pxy7n8m48qsvfwfvm539m5xlztmpmgr8qfx58va","addr1q8s2pnk84564qnquuz3cysu7m3cktdj3jn2720ls4r5s39fgkxrz2nmnnx5pxy7n8m48qsvfwfvm539m5xlztmpmgr8qfx58va","addr1q8s2pnk84564qnquuz3cysu7m3cktdj3jn2720ls4r5s39fgkxrz2nmnnx5pxy7n8m48qsvfwfvm539m5xlztmpmgr8qfx58va","addr1qxvzq9jvdpq27xaflw69cs9s4tyv4762qkrsq45km6uxh9pgkxrz2nmnnx5pxy7n8m48qsvfwfvm539m5xlztmpmgr8qu2gpkz","addr1q8s2pnk84564qnquuz3cysu7m3cktdj3jn2720ls4r5s39fgkxrz2nmnnx5pxy7n8m48qsvfwfvm539m5xlztmpmgr8qfx58va","addr1qxeqe54x5wy9j7qlny4fr5s33yd07a278m78q87336hxl3fgkxrz2nmnnx5pxy7n8m48qsvfwfvm539m5xlztmpmgr8qvvz5qq","addr1qxe300q2rdzqaweqltw47wdavzu43xzu85m0yy57mpe5hxegkxrz2nmnnx5pxy7n8m48qsvfwfvm539m5xlztmpmgr8qmecaxs","addr1q8s2pnk84564qnquuz3cysu7m3cktdj3jn2720ls4r5s39fgkxrz2nmnnx5pxy7n8m48qsvfwfvm539m5xlztmpmgr8qfx58va","addr1q8s2pnk84564qnquuz3cysu7m3cktdj3jn2720ls4r5s39fgkxrz2nmnnx5pxy7n8m48qsvfwfvm539m5xlztmpmgr8qfx58va","addr1q8s2pnk84564qnquuz3cysu7m3cktdj3jn2720ls4r5s39fgkxrz2nmnnx5pxy7n8m48qsvfwfvm539m5xlztmpmgr8qfx58va","addr1q8s2pnk84564qnquuz3cysu7m3cktdj3jn2720ls4r5s39fgkxrz2nmnnx5pxy7n8m48qsvfwfvm539m5xlztmpmgr8qfx58va","addr1q94e3xk002lvscx4flt92cpvpxkp8dy4mu23w7g7l3zl7n3gkxrz2nmnnx5pxy7n8m48qsvfwfvm539m5xlztmpmgr8q2qj839","addr1qxmu2s68g8gwnu8w7kkksa6dhvr6z8959n3uklnfhtk0dxpgkxrz2nmnnx5pxy7n8m48qsvfwfvm539m5xlztmpmgr8qmfyn80","addr1q8s2pnk84564qnquuz3cysu7m3cktdj3jn2720ls4r5s39fgkxrz2nmnnx5pxy7n8m48qsvfwfvm539m5xlztmpmgr8qfx58va","addr1q8683083d32j906p3fj47ajx32gyetg97spk3su2f2l8tu3gkxrz2nmnnx5pxy7n8m48qsvfwfvm539m5xlztmpmgr8qnlsekw","addr1q8s2pnk84564qnquuz3cysu7m3cktdj3jn2720ls4r5s39fgkxrz2nmnnx5pxy7n8m48qsvfwfvm539m5xlztmpmgr8qfx58va"],"addressesOutput":["DdzFFzCqrhsrn2kqPz35UVFQcYapuRF8PqTza4VmgjTBztfPPkNWwGjSweMH412rw3YW1AM8QEBuJEmqNGzevRjYgUk15NPmpHECeX5U","addr1q9kn93dheq3q6ywx6ydepyl5yfl3k2ygh6ckjg4hycpp9upgkxrz2nmnnx5pxy7n8m48qsvfwfvm539m5xlztmpmgr8qyfnfpl"],"fee":238145,"totalOutput":1015265311,"tokens":[]},{"hash":"c28afa3d216bab801896ec7f5d90476c4c0980f5e1525b53ad371bdaaeb8eff5","blockNo":7127078,"blockHash":"883da0f3a346d9ccf6b8e8c134050afe789079c1ec4188bb92f24831cf8496c9","epochNo":332,"epochSlotNo":404757,"slot":58465557,"time":"2022/04/15 14:10:48","addressesInput":["addr1q8vtf2dct9em4g4n7vtldzanuuakc0vqjm5cpulvpecg2nktzv7unxh44g9xumweuvutqe45ntqguunwy7fhp9vnh0vqe45d9e","addr1w999n67e86jn6xal07pzxtrmqynspgx0fwmcmpua4wc6yzsxpljz3","addr1q9e72y6688rtmpfsd83lf6cpr83fwr73waq2u6rpvs69ky7tzv7unxh44g9xumweuvutqe45ntqguunwy7fhp9vnh0vq6uds46","addr1q9e72y6688rtmpfsd83lf6cpr83fwr73waq2u6rpvs69ky7tzv7unxh44g9xumweuvutqe45ntqguunwy7fhp9vnh0vq6uds46","addr1q9e72y6688rtmpfsd83lf6cpr83fwr73waq2u6rpvs69ky7tzv7unxh44g9xumweuvutqe45ntqguunwy7fhp9vnh0vq6uds46"],"addressesOutput":["addr1q9cwvremt6n320s2e3agq0jyq82yhrk3htsu0w426xnz5us70z4w0jgvcdkkynmm8wmds66jd9kusnjfpu6raw5fqp0sr07p5w","addr1qxypv985lfp9pqwyw0cck5z5e6fyv46lst7lkerjl5alnzmjy4u0mu5ayyxyk7sh9mzfup54ph56kfkvj488vcxmzjns3yt8x4","addr1q8dmkj65gdhpxgpust5lfls74e7kp8829fumfluazm3l98v6ym4m5ndk96lhp040jlndjpc096zdnv7hh3s7g0dcp2rqql9vnk","addr1q9e72y6688rtmpfsd83lf6cpr83fwr73waq2u6rpvs69ky7tzv7unxh44g9xumweuvutqe45ntqguunwy7fhp9vnh0vq6uds46","addr1q9e72y6688rtmpfsd83lf6cpr83fwr73waq2u6rpvs69ky7tzv7unxh44g9xumweuvutqe45ntqguunwy7fhp9vnh0vq6uds46","addr1q9e72y6688rtmpfsd83lf6cpr83fwr73waq2u6rpvs69ky7tzv7unxh44g9xumweuvutqe45ntqguunwy7fhp9vnh0vq6uds46","addr1q9e72y6688rtmpfsd83lf6cpr83fwr73waq2u6rpvs69ky7tzv7unxh44g9xumweuvutqe45ntqguunwy7fhp9vnh0vq6uds46","addr1q9e72y6688rtmpfsd83lf6cpr83fwr73waq2u6rpvs69ky7tzv7unxh44g9xumweuvutqe45ntqguunwy7fhp9vnh0vq6uds46"],"fee":877326,"totalOutput":736998769,"tokens":[]},{"hash":"e003ffc2cb9b17f777d4bbd717f7cdd9d4d8f86f41347ab9147e2c589fdce0f0","blockNo":7127078,"blockHash":"883da0f3a346d9ccf6b8e8c134050afe789079c1ec4188bb92f24831cf8496c9","epochNo":332,"epochSlotNo":404757,"slot":58465557,"time":"2022/04/15 14:10:48","addressesInput":["addr1qxrlkh6yh0km5m5n7923syel0yqqvc3pjrnqrzrz3gwpxd70prfqwehanuxzkwmv55ff9gr7tjx5vymykd2galr9chaqlwjwm9"],"addressesOutput":["addr1qxrlkh6yh0km5m5n7923syel0yqqvc3pjrnqrzrz3gwpxd70prfqwehanuxzkwmv55ff9gr7tjx5vymykd2galr9chaqlwjwm9"],"fee":175333,"totalOutput":5776787083481,"tokens":[]},{"hash":"17016fd8cfeb8abc1f8ad264ddfc5cc8a0ae2668c4ef12ddba074f236cd7bada","blockNo":7127078,"blockHash":"883da0f3a346d9ccf6b8e8c134050afe789079c1ec4188bb92f24831cf8496c9","epochNo":332,"epochSlotNo":404757,"slot":58465557,"time":"2022/04/15 14:10:48","addressesInput":["addr1qxu23ndkp97akl3jla8x662q9y4cr5eglt7zkgspaz3a38krg73f8mvzmw0c2guwduvd6gaeh3va6meevd5c8m97pcmsed69ru","addr1qxu23ndkp97akl3jla8x662q9y4cr5eglt7zkgspaz3a38krg73f8mvzmw0c2guwduvd6gaeh3va6meevd5c8m97pcmsed69ru","addr1w999n67e86jn6xal07pzxtrmqynspgx0fwmcmpua4wc6yzsxpljz3","addr1qxu23ndkp97akl3jla8x662q9y4cr5eglt7zkgspaz3a38krg73f8mvzmw0c2guwduvd6gaeh3va6meevd5c8m97pcmsed69ru"],"addressesOutput":["addr1q9cwvremt6n320s2e3agq0jyq82yhrk3htsu0w426xnz5us70z4w0jgvcdkkynmm8wmds66jd9kusnjfpu6raw5fqp0sr07p5w","addr1qxvqwagh7emr2aqzql9cxjrgspxuz9ehv0md4mwrxex9azyfwwh9mh2paamgqk4xnj488leegkrc37knmvstyp0w9slqchsu2s","addr1q85gjhdk3nspl0qy3awrxa2qu33xu9gdttc5pw9s584elmvjc07wjfqd8kw7ndcavr6lhp282m7kj4rr74cjagfuaw3sahs8xl","addr1qxu23ndkp97akl3jla8x662q9y4cr5eglt7zkgspaz3a38krg73f8mvzmw0c2guwduvd6gaeh3va6meevd5c8m97pcmsed69ru","addr1qxu23ndkp97akl3jla8x662q9y4cr5eglt7zkgspaz3a38krg73f8mvzmw0c2guwduvd6gaeh3va6meevd5c8m97pcmsed69ru","addr1qxu23ndkp97akl3jla8x662q9y4cr5eglt7zkgspaz3a38krg73f8mvzmw0c2guwduvd6gaeh3va6meevd5c8m97pcmsed69ru"],"fee":784390,"totalOutput":122393803,"tokens":[]},{"hash":"c630b3d5133fc1ecc118a4eed9cdc22577930761a4b61d0e84c00c23b02f68bd","blockNo":7127078,"blockHash":"883da0f3a346d9ccf6b8e8c134050afe789079c1ec4188bb92f24831cf8496c9","epochNo":332,"epochSlotNo":404757,"slot":58465557,"time":"2022/04/15 14:10:48","addressesInput":["addr1w999n67e86jn6xal07pzxtrmqynspgx0fwmcmpua4wc6yzsxpljz3","addr1q999ds5lu5wwmdk4930mzlh75dz3wkdpfd5nrmpp9th2qu950tqt0t0pswly8x86hr8q5gwfgcstrf76y7mpgfw8jmkqp3uwrn"],"addressesOutput":["addr1w999n67e86jn6xal07pzxtrmqynspgx0fwmcmpua4wc6yzsxpljz3","addr1q999ds5lu5wwmdk4930mzlh75dz3wkdpfd5nrmpp9th2qu950tqt0t0pswly8x86hr8q5gwfgcstrf76y7mpgfw8jmkqp3uwrn","addr1q999ds5lu5wwmdk4930mzlh75dz3wkdpfd5nrmpp9th2qu950tqt0t0pswly8x86hr8q5gwfgcstrf76y7mpgfw8jmkqp3uwrn"],"fee":505941,"totalOutput":18790104,"tokens":[]},{"hash":"fc245d5b91eedd60347cc251e3a62e760194f04047ac00916f3aee7a00b604d0","blockNo":7127078,"blockHash":"883da0f3a346d9ccf6b8e8c134050afe789079c1ec4188bb92f24831cf8496c9","epochNo":332,"epochSlotNo":404757,"slot":58465557,"time":"2022/04/15 14:10:48","addressesInput":["addr1qyxeg5a8zh5n5ny9dy9s9xq28ak2w8vvsxr66xjdx2hhf59dx8944astnfgumf6feawf68cas9h3zxf6nuy43rkxfe2q3zyxpr","addr1qyxeg5a8zh5n5ny9dy9s9xq28ak2w8vvsxr66xjdx2hhf59dx8944astnfgumf6feawf68cas9h3zxf6nuy43rkxfe2q3zyxpr"],"addressesOutput":["addr1wy2mjh76em44qurn5x73nzqrxua7ataasftql0u2h6g88lc3gtgpz","addr1qyxeg5a8zh5n5ny9dy9s9xq28ak2w8vvsxr66xjdx2hhf59dx8944astnfgumf6feawf68cas9h3zxf6nuy43rkxfe2q3zyxpr","addr1qyxeg5a8zh5n5ny9dy9s9xq28ak2w8vvsxr66xjdx2hhf59dx8944astnfgumf6feawf68cas9h3zxf6nuy43rkxfe2q3zyxpr"],"fee":298646,"totalOutput":100241814,"tokens":[]},{"hash":"452c7e489d73077a9adfdfa40e082b136b5557d2daa163398e4988c3d84701c9","blockNo":7127078,"blockHash":"883da0f3a346d9ccf6b8e8c134050afe789079c1ec4188bb92f24831cf8496c9","epochNo":332,"epochSlotNo":404757,"slot":58465557,"time":"2022/04/15 14:10:48","addressesInput":["addr1vygde9yp2aawptr69wpght5l9wsk8duuuucxn46l6cymezq6e34h2","addr1wxaptpmxcxawvr3pzlhgnpmzz3ql43n2tc8mn3av5kx0yzs09tqh8","addr1wxaptpmxcxawvr3pzlhgnpmzz3ql43n2tc8mn3av5kx0yzs09tqh8","addr1w9qzpelu9hn45pefc0xr4ac4kdxeswq7pndul2vuj59u8tqaxdznu"],"addressesOutput":["addr1w9qzpelu9hn45pefc0xr4ac4kdxeswq7pndul2vuj59u8tqaxdznu","addr1w9jx45flh83z6wuqypyash54mszwmdj8r64fydafxtfc6jgrw4rm3","addr1qygvgecjrpych8jmehrpv7d7shlvzngzgpeqyjjc3xeuvujjd50hv8vhmhnquhptjju39lj2lkeedcz0zz2054mk9jdqzx9fq3","addr1qxxsfllukkte3jqdm3vla8z7c68at09l9mjldljad2lklsrl7n6ml00ddzzvmnfpna0ux03gxw3mq3ztls4tkhhu8unststu3x","addr1vygde9yp2aawptr69wpght5l9wsk8duuuucxn46l6cymezq6e34h2"],"fee":1528030,"totalOutput":13007644306802,"tokens":[]},{"hash":"4733c8ea5e8eeb1f5926751afca9bed9da72251277f554f541df5c672e14cfda","blockNo":7127078,"blockHash":"883da0f3a346d9ccf6b8e8c134050afe789079c1ec4188bb92f24831cf8496c9","epochNo":332,"epochSlotNo":404757,"slot":58465557,"time":"2022/04/15 14:10:48","addressesInput":["addr1qxd7xrx76v4gwqwgxhduzazj6p6845f3a0fcvwva2cxz43seg9njhfq4pcham8yvde750jr86wd65e3r4h7hd4l80vyqneg6gq","addr1qxd7xrx76v4gwqwgxhduzazj6p6845f3a0fcvwva2cxz43seg9njhfq4pcham8yvde750jr86wd65e3r4h7hd4l80vyqneg6gq","addr1qxd7xrx76v4gwqwgxhduzazj6p6845f3a0fcvwva2cxz43seg9njhfq4pcham8yvde750jr86wd65e3r4h7hd4l80vyqneg6gq"],"addressesOutput":["addr1wxn9efv2f6w82hagxqtn62ju4m293tqvw0uhmdl64ch8uwc0h43gt","addr1qxd7xrx76v4gwqwgxhduzazj6p6845f3a0fcvwva2cxz43seg9njhfq4pcham8yvde750jr86wd65e3r4h7hd4l80vyqneg6gq"],"fee":230489,"totalOutput":12456734,"tokens":[]},{"hash":"cdadf6cfb4e6a0b26700478bc1a8128e3733c73ecc0db55690577e6a13ff0707","blockNo":7127078,"blockHash":"883da0f3a346d9ccf6b8e8c134050afe789079c1ec4188bb92f24831cf8496c9","epochNo":332,"epochSlotNo":404757,"slot":58465557,"time":"2022/04/15 14:10:48","addressesInput":["addr1v8jksyztew9kcnhz4xefuwe449wxsflrwyqcca34my9hdacq6w5ky"],"addressesOutput":["addr1qxkfl5mynd826c4auu3qdd9w0cpavd0tgx20g8c72m6279w424fx5qtlcmjm3tr8wzc45mdmk5flrlk7cp9q4msawheqqql6zl","addr1q9c0c5vqx4q72pm852802vcegrlzrv6u8ra032cefpsj92f7hz4x67p33p2cq4ym7t9hm7ye7xa63yqeeja9nut97cmsz5jaah"],"fee":200789,"totalOutput":32799211,"tokens":[]},{"hash":"50a31000e85699aa67eab4beb398afacee125048ebb204210895642150255420","blockNo":7127078,"blockHash":"883da0f3a346d9ccf6b8e8c134050afe789079c1ec4188bb92f24831cf8496c9","epochNo":332,"epochSlotNo":404757,"slot":58465557,"time":"2022/04/15 14:10:48","addressesInput":["addr1w999n67e86jn6xal07pzxtrmqynspgx0fwmcmpua4wc6yzsxpljz3","addr1qxlxcypv06pdslqxkj4pke340ej25xya3vnrvdu6sn0rthm4cj7udvlezucnzevgeruq97nxa9u9zzws2ttya2xzh8cswc54ke","addr1qxlxcypv06pdslqxkj4pke340ej25xya3vnrvdu6sn0rthm4cj7udvlezucnzevgeruq97nxa9u9zzws2ttya2xzh8cswc54ke"],"addressesOutput":["addr1q9cwvremt6n320s2e3agq0jyq82yhrk3htsu0w426xnz5us70z4w0jgvcdkkynmm8wmds66jd9kusnjfpu6raw5fqp0sr07p5w","addr1qy4rjdeyxv2mresszvezku03lcr9tylhfm8t7lwxn6y40z2zh9c35laca3l9cwcwjl9dfy2aehkcnhpwtel50jzz62lsu67un4","addr1qxlxcypv06pdslqxkj4pke340ej25xya3vnrvdu6sn0rthm4cj7udvlezucnzevgeruq97nxa9u9zzws2ttya2xzh8cswc54ke","addr1qxlxcypv06pdslqxkj4pke340ej25xya3vnrvdu6sn0rthm4cj7udvlezucnzevgeruq97nxa9u9zzws2ttya2xzh8cswc54ke","addr1qxlxcypv06pdslqxkj4pke340ej25xya3vnrvdu6sn0rthm4cj7udvlezucnzevgeruq97nxa9u9zzws2ttya2xzh8cswc54ke"],"fee":705870,"totalOutput":256460210,"tokens":[]},{"hash":"a181ec45702e5a2bfe9ba01139eb6b1cc0406bde8887d4940f933bc843127029","blockNo":7127078,"blockHash":"883da0f3a346d9ccf6b8e8c134050afe789079c1ec4188bb92f24831cf8496c9","epochNo":332,"epochSlotNo":404757,"slot":58465557,"time":"2022/04/15 14:10:48","addressesInput":["addr1qx6u6wnd3s3l43ufdd4ff93cvdkwv0dmn7l2kusf6qpge0ru5tht5hl9m5k7zpn8a7x0svefpvnmkfldgjzkeqcee5jq78jzpy"],"addressesOutput":["addr1qym266v60p8pn5fds5nja09js7c0qz7xtwdsf9vwcgkm0urnwqdlx4jfqjfx5dffv7x6r434dxujd2y0skg5mlyhjnqqwftwf3","addr1qy9xg33ggdty8k0dfwpxp06vaazdjmaq5jtghdg2heqqwhnu5tht5hl9m5k7zpn8a7x0svefpvnmkfldgjzkeqcee5jqegcj5v"],"fee":168317,"totalOutput":300881687,"tokens":[]},{"hash":"75fddd978ff8699c5362202934f8bc7ddcfedcac75fb866c46dca8248cb25f62","blockNo":7127078,"blockHash":"883da0f3a346d9ccf6b8e8c134050afe789079c1ec4188bb92f24831cf8496c9","epochNo":332,"epochSlotNo":404757,"slot":58465557,"time":"2022/04/15 14:10:48","addressesInput":["addr1q8ylxlsp7j3lymfxppzel43uernk7vrsc72h2jy9jac0w7valwgkp0u758dhsr6ajvl07l5nfqean4vmerm6drknmxlsxw0cap","addr1q8ylxlsp7j3lymfxppzel43uernk7vrsc72h2jy9jac0w7valwgkp0u758dhsr6ajvl07l5nfqean4vmerm6drknmxlsxw0cap","addr1q8ylxlsp7j3lymfxppzel43uernk7vrsc72h2jy9jac0w7valwgkp0u758dhsr6ajvl07l5nfqean4vmerm6drknmxlsxw0cap"],"addressesOutput":["addr1w999n67e86jn6xal07pzxtrmqynspgx0fwmcmpua4wc6yzsxpljz3","addr1q8ylxlsp7j3lymfxppzel43uernk7vrsc72h2jy9jac0w7valwgkp0u758dhsr6ajvl07l5nfqean4vmerm6drknmxlsxw0cap","addr1q8ylxlsp7j3lymfxppzel43uernk7vrsc72h2jy9jac0w7valwgkp0u758dhsr6ajvl07l5nfqean4vmerm6drknmxlsxw0cap","addr1q8ylxlsp7j3lymfxppzel43uernk7vrsc72h2jy9jac0w7valwgkp0u758dhsr6ajvl07l5nfqean4vmerm6drknmxlsxw0cap"],"fee":542650,"totalOutput":84349304,"tokens":[]},{"hash":"6530b0cef7cb8db083d0af6976a8ccf0848cb298fc254a2c3b7b4524870fae06","blockNo":7127078,"blockHash":"883da0f3a346d9ccf6b8e8c134050afe789079c1ec4188bb92f24831cf8496c9","epochNo":332,"epochSlotNo":404757,"slot":58465557,"time":"2022/04/15 14:10:48","addressesInput":["addr1qyvk4yk6czpma8wk5kd4lf5skj8nt3f2g7k0js05lma3qc84csqe244t5gncgutwwy9ht8ncfrv5tm9sfeaqs6tk9tmsalmnud","addr1qxm5uvshxlsljj56mfu9y5s4k3ssdcnlt5zv84j5f6n6ppl4csqe244t5gncgutwwy9ht8ncfrv5tm9sfeaqs6tk9tmsupz404","addr1q9l5z0a0negnzndc5arnzxvd6gvfw93p9tasvyeyrvh0prh4csqe244t5gncgutwwy9ht8ncfrv5tm9sfeaqs6tk9tmsj48xdf"],"addressesOutput":["addr1qxle0tvek5nfc90rwf3fp72lplqwerd6mgc3sdmc2jxemgzu4umxu052czq40y67hj6pda6el90pz4rpfrehdah7phqqt8qm8k","addr1qyr9zhf74t68je5c52e3l0nzktyfc0x8jj9pzrzs4rexsv04csqe244t5gncgutwwy9ht8ncfrv5tm9sfeaqs6tk9tmsnj5ynq"],"fee":183981,"totalOutput":10281079,"tokens":[]},{"hash":"c78c3cd9ef8192267394861c6002f938bdf7c7210e3c9676cd6f04106084ec2c","blockNo":7127078,"blockHash":"883da0f3a346d9ccf6b8e8c134050afe789079c1ec4188bb92f24831cf8496c9","epochNo":332,"epochSlotNo":404757,"slot":58465557,"time":"2022/04/15 14:10:48","addressesInput":["addr1qyx73tqvtpvpxm3jrglw6wk3rtnmul7whlkcwwxgde9p7nukt434mhrl2s49qn6c35ls7nx8j340cc2rsr7zqf0l63ts68kxsu","addr1qyx73tqvtpvpxm3jrglw6wk3rtnmul7whlkcwwxgde9p7nukt434mhrl2s49qn6c35ls7nx8j340cc2rsr7zqf0l63ts68kxsu"],"addressesOutput":["addr1wxr2a8htmzuhj39y2gq7ftkpxv98y2g67tg8zezthgq4jkg0a4ul4","addr1qyx73tqvtpvpxm3jrglw6wk3rtnmul7whlkcwwxgde9p7nukt434mhrl2s49qn6c35ls7nx8j340cc2rsr7zqf0l63ts68kxsu"],"fee":183057,"totalOutput":265574979,"tokens":[]},{"hash":"2127768a10c2c45cd7b13291d3b221767ac9cbfa5de6a032d66d6810465d0229","blockNo":7127078,"blockHash":"883da0f3a346d9ccf6b8e8c134050afe789079c1ec4188bb92f24831cf8496c9","epochNo":332,"epochSlotNo":404757,"slot":58465557,"time":"2022/04/15 14:10:48","addressesInput":["addr1q9vpm6gky5j2l8s2xdphywrqsagy6e4cgpd807p455pzal6qsra6ffzcwp30dhrnvnf5zgca9cgc2ls4t7jkv4sa8kesyhk0ya"],"addressesOutput":["addr1qy6hw36jxwdurypj6t0kn96ysf4kjzu7qswnxnv94yrl6nywekvfnfw0gv29xm7n67jzvekzstl8kacmz7mn0d5u7l4s22f4h8"],"fee":170000,"totalOutput":94830000,"tokens":[]},{"hash":"4083e834dafee75272162de6c924cf4478d0bf499f45a51dc0938ea9a5d4cd0d","blockNo":7127078,"blockHash":"883da0f3a346d9ccf6b8e8c134050afe789079c1ec4188bb92f24831cf8496c9","epochNo":332,"epochSlotNo":404757,"slot":58465557,"time":"2022/04/15 14:10:48","addressesInput":["addr1q94dkz9wm96g333p6mlfax9pjap5d79gszt7jp54gq2nfkpnalj8k67kduvn0892wlntak6t2u3ds46cgq7g2dn47cjsfx9j7c"],"addressesOutput":["DdzFFzCqrhskV1sNvSFmQDMeJGraddBQ7MeaavemhedXg8T1EeMpen7MEFZkYGiJAitjmN4qQwSc1ZTqBFMqa24jkA1Rhu6FqxBNyCUZ","addr1q94dkz9wm96g333p6mlfax9pjap5d79gszt7jp54gq2nfkpnalj8k67kduvn0892wlntak6t2u3ds46cgq7g2dn47cjsfx9j7c"],"fee":169989,"totalOutput":6183305848,"tokens":[]},{"hash":"19b5c3e7e50fbbb2fca6c698d1be94a5a88bc989c929206dd6c1bbefb830e23b","blockNo":7127078,"blockHash":"883da0f3a346d9ccf6b8e8c134050afe789079c1ec4188bb92f24831cf8496c9","epochNo":332,"epochSlotNo":404757,"slot":58465557,"time":"2022/04/15 14:10:48","addressesInput":["addr1q8y7utqvl7ydwxt9f5cl3px94dwqq9th28n9lwr53mrfqv0tvurzvvw7c8e4kr55sugyk8fu93t830xnys0066n8fhpsp0khcr"],"addressesOutput":["addr1q8n4c9sqmqr6vdf3u7p2wudra4hv0wfu2qmp7ye2lnfylam68jvwfrph4crujw4he0657la3w88ufdsnt3zs0kfkwc3qdhkzlz","addr1qycya3ltkl8aunr9azk4wpvpt3ngn2m9d45r8gj5xfllgp8tvurzvvw7c8e4kr55sugyk8fu93t830xnys0066n8fhpsdud36p"],"fee":169021,"totalOutput":45154895,"tokens":[]},{"hash":"39dbe309fa669d7c6f0f1d3ba28e7fee706880e1dc84a749c3661fe734124d19","blockNo":7127078,"blockHash":"883da0f3a346d9ccf6b8e8c134050afe789079c1ec4188bb92f24831cf8496c9","epochNo":332,"epochSlotNo":404757,"slot":58465557,"time":"2022/04/15 14:10:48","addressesInput":["addr1v9q445cgnpjcwg2qfz59j0rtj60l6xhr06cy38q9pnkavuck6mtcl"],"addressesOutput":["addr1qye4jnpasv6nmcm5ludf6t8zj6k4f94v6y5u8t3q8fgs5uceqxta4yd5muplfxznlvwlepz5w2w6ne3tlukh2c22677s2vnpvh"],"fee":171397,"totalOutput":89829503,"tokens":[]},{"hash":"7efdf7dc8fec2b27e6a1941118de28f09719e9206cb531f0bc2e2dc8ff077611","blockNo":7127078,"blockHash":"883da0f3a346d9ccf6b8e8c134050afe789079c1ec4188bb92f24831cf8496c9","epochNo":332,"epochSlotNo":404757,"slot":58465557,"time":"2022/04/15 14:10:48","addressesInput":["addr1q8vjszscct90ev8ey0zhjk8pexag2jmx0sflh8ken6q2sxcus9xnhv539x2zaqamllqy0kyczgmel4dap0sm2g32spasn4lwnt","addr1q8vjszscct90ev8ey0zhjk8pexag2jmx0sflh8ken6q2sxcus9xnhv539x2zaqamllqy0kyczgmel4dap0sm2g32spasn4lwnt","addr1q8vjszscct90ev8ey0zhjk8pexag2jmx0sflh8ken6q2sxcus9xnhv539x2zaqamllqy0kyczgmel4dap0sm2g32spasn4lwnt"],"addressesOutput":["addr1wxr2a8htmzuhj39y2gq7ftkpxv98y2g67tg8zezthgq4jkg0a4ul4","addr1q8vjszscct90ev8ey0zhjk8pexag2jmx0sflh8ken6q2sxcus9xnhv539x2zaqamllqy0kyczgmel4dap0sm2g32spasn4lwnt"],"fee":186357,"totalOutput":1098762916,"tokens":[]},{"hash":"8dce92a1ee0156a987ba8e2632a447103663cefeee8523b3f08419e70756a13b","blockNo":7127078,"blockHash":"883da0f3a346d9ccf6b8e8c134050afe789079c1ec4188bb92f24831cf8496c9","epochNo":332,"epochSlotNo":404757,"slot":58465557,"time":"2022/04/15 14:10:48","addressesInput":["addr1qx05e50p3wlxy72puh6twkwtzav3heeaasrh8rcve0ns3ga9aydfdk3talsz2y4z7dpantdr64sw9q3lc8dzz7kaah7q32h3w5"],"addressesOutput":["addr1qxn06anke43lwffark52r74vv7qxamn9rwvsl2rxhxr3jlf2zhhd3nr97ru6j68svw5h8drm3qcqz0gtwe56m9kj040symk5tc","addr1q90ndndc9lr7qzu7jw6sfxy82c0f33hxz74a57ysxmszxm49aydfdk3talsz2y4z7dpantdr64sw9q3lc8dzz7kaah7q2j3la7"],"fee":193573,"totalOutput":1488782510,"tokens":[]}],"totalItems":34,"totalPages":2,"currentPage":0}