{"data":[{"hash":"9862e21ef5564ff33c574945f33f9c2dd6fd0affca47b140b87e2e2a77e16589","blockNo":8531933,"blockHash":"22817b53cbd3adf16752d30059791212232deed7de886721cdef28609815082a","epochNo":400,"epochSlotNo":119189,"slot":87555989,"time":"2023/03/18 06:51:20","addressesInput":["addr1q90n5e7uznlp7gyrfmf2l2lpxn80l63j7drdn4ez5uzvjs63e4fqk6qn07vx5247pgsnff0ap8xlc8ls08fptjp3ghms8ffrpl","addr1q90n5e7uznlp7gyrfmf2l2lpxn80l63j7drdn4ez5uzvjs63e4fqk6qn07vx5247pgsnff0ap8xlc8ls08fptjp3ghms8ffrpl","addr1q90n5e7uznlp7gyrfmf2l2lpxn80l63j7drdn4ez5uzvjs63e4fqk6qn07vx5247pgsnff0ap8xlc8ls08fptjp3ghms8ffrpl"],"addressesOutput":["addr1qxlajzvnsslastgpfam9zzknxslhuxtr8x9w89j3vnaj7hht6fs339gd66p2j75v7a0nljm8gr597e7xsde69qyhmegsvg63xw","addr1qyytfh2kxnrnrhxeyeefvftrefltayse0vzqq46vglg0xt23e4fqk6qn07vx5247pgsnff0ap8xlc8ls08fptjp3ghms2vff8a"],"fee":178613,"totalOutput":16310855,"tokens":[]},{"hash":"4c2364797e0ec7f7b3c63818c4471d3e50b557b1a55dd5f12cc890fffa39e900","blockNo":8531932,"blockHash":"0f358afa63a7c09a66f2fc14cb6dbc59f6e120741b39272d2cb294240acfcdd6","epochNo":400,"epochSlotNo":119188,"slot":87555988,"time":"2023/03/18 06:51:19","addressesInput":["addr1w8dprfgfdxnlwu3948579jrwg0ferf5a63ln8xj0mqcdzegayxmqq","addr1w8dprfgfdxnlwu3948579jrwg0ferf5a63ln8xj0mqcdzegayxmqq","addr1w8dprfgfdxnlwu3948579jrwg0ferf5a63ln8xj0mqcdzegayxmqq","addr1w8dprfgfdxnlwu3948579jrwg0ferf5a63ln8xj0mqcdzegayxmqq","addr1w8dprfgfdxnlwu3948579jrwg0ferf5a63ln8xj0mqcdzegayxmqq","addr1w8dprfgfdxnlwu3948579jrwg0ferf5a63ln8xj0mqcdzegayxmqq","addr1w8dprfgfdxnlwu3948579jrwg0ferf5a63ln8xj0mqcdzegayxmqq","addr1w8dprfgfdxnlwu3948579jrwg0ferf5a63ln8xj0mqcdzegayxmqq","addr1w8dprfgfdxnlwu3948579jrwg0ferf5a63ln8xj0mqcdzegayxmqq","addr1w9wjz8tjt87gldh2usu8t5mfe4nkmlngp30a387h8s94fyg5uup5n","addr1w8dprfgfdxnlwu3948579jrwg0ferf5a63ln8xj0mqcdzegayxmqq","addr1w8dprfgfdxnlwu3948579jrwg0ferf5a63ln8xj0mqcdzegayxmqq","addr1w8dprfgfdxnlwu3948579jrwg0ferf5a63ln8xj0mqcdzegayxmqq","addr1v9jdwms9h2ak0zzmw2gpku0xrx8lp0mdqfsym3yua0yklcsljls4e","addr1w8dprfgfdxnlwu3948579jrwg0ferf5a63ln8xj0mqcdzegayxmqq","addr1w8dprfgfdxnlwu3948579jrwg0ferf5a63ln8xj0mqcdzegayxmqq","addr1w8dprfgfdxnlwu3948579jrwg0ferf5a63ln8xj0mqcdzegayxmqq","addr1w8dprfgfdxnlwu3948579jrwg0ferf5a63ln8xj0mqcdzegayxmqq"],"addressesOutput":["addr1w8f7k5z4casxhcvz3vf5hlnt7fhgt5209t5hm36pdpduv6qdwf8ny","addr1v9jdwms9h2ak0zzmw2gpku0xrx8lp0mdqfsym3yua0yklcsljls4e"],"fee":460281,"totalOutput":819556492,"tokens":[]},{"hash":"954f0538d4d4892cea4cbfe8de6e5576cb57ccf52fbe26d9dd41db706c479482","blockNo":8531932,"blockHash":"0f358afa63a7c09a66f2fc14cb6dbc59f6e120741b39272d2cb294240acfcdd6","epochNo":400,"epochSlotNo":119188,"slot":87555988,"time":"2023/03/18 06:51:19","addressesInput":["addr1qxw6mmajgufzlwpl426xc8jxfhjtgxqt90vlvvszryqagsdnkmqk3wzl8qcfdy5nakstq6zn7wwlau5xygcfcrxdhtzqcw7rja","addr1qxw6mmajgufzlwpl426xc8jxfhjtgxqt90vlvvszryqagsdnkmqk3wzl8qcfdy5nakstq6zn7wwlau5xygcfcrxdhtzqcw7rja"],"addressesOutput":["addr1zyq0kyrml023kwjk8zr86d5gaxrt5w8lxnah8r6m6s4jp4g3r6dxnzml343sx8jweqn4vn3fz2kj8kgu9czghx0jrsyqqktyhv","addr1qxw6mmajgufzlwpl426xc8jxfhjtgxqt90vlvvszryqagsdnkmqk3wzl8qcfdy5nakstq6zn7wwlau5xygcfcrxdhtzqcw7rja"],"fee":240782,"totalOutput":100001636,"tokens":[]},{"hash":"b76f60ba01ff43bfea78b50d8b0bb4a95017516284e249ccb33b52a7a6ea2c9c","blockNo":8531931,"blockHash":"0dc76af36bc9ec94e52cafe76d8367265719cbd768f8b386053944b42c1c2886","epochNo":400,"epochSlotNo":119182,"slot":87555982,"time":"2023/03/18 06:51:13","addressesInput":["addr1z8snz7c4974vzdpxu65ruphl3zjdvtxw8strf2c2tmqnxz2j2c79gy9l76sdg0xwhd7r0c0kna0tycz4y5s6mlenh8pq0xmsha","addr1qx40kyvkgdxtsdladusny09r0vczmlmrsl52sjel528674jj2c79gy9l76sdg0xwhd7r0c0kna0tycz4y5s6mlenh8pqg82qtn"],"addressesOutput":["addr1qx40kyvkgdxtsdladusny09r0vczmlmrsl52sjel528674jj2c79gy9l76sdg0xwhd7r0c0kna0tycz4y5s6mlenh8pqg82qtn","addr1z8snz7c4974vzdpxu65ruphl3zjdvtxw8strf2c2tmqnxz2j2c79gy9l76sdg0xwhd7r0c0kna0tycz4y5s6mlenh8pq0xmsha","addr1qx40kyvkgdxtsdladusny09r0vczmlmrsl52sjel528674jj2c79gy9l76sdg0xwhd7r0c0kna0tycz4y5s6mlenh8pqg82qtn"],"fee":858913,"totalOutput":5852486157051,"tokens":[]},{"hash":"2e14c4b4668683b96bb6af7db9ca062cf8c69152b80a6d2e84396a611262c2ed","blockNo":8531931,"blockHash":"0dc76af36bc9ec94e52cafe76d8367265719cbd768f8b386053944b42c1c2886","epochNo":400,"epochSlotNo":119182,"slot":87555982,"time":"2023/03/18 06:51:13","addressesInput":["addr1v9ywm0h3r8cnxrs04gfy7c3s2j44utjyvn5ldjdca0c2ltccgqdes"],"addressesOutput":["addr1qyp6kj2k7l7auf9yflmvfvlvxytt230jppqex4f05rckzt4xlucpm9qdts2z4snsax0rs8xmyar4csfhde5eepgqjpgqdxpky6","addr1q9e7s6zvfn9zvhq5zqvsvva09m48ltr8lt8lfmrn5x6pmcls42cr05gs584g0ux0ykdlvx0c52gym20pd2n5zw8pyqxqxfgf9e"],"fee":198237,"totalOutput":4801763,"tokens":[]},{"hash":"7e7cf34a9815ba0c361d62f07064ada304e318e0ab6535fd87d9b2c21b38bb4f","blockNo":8531931,"blockHash":"0dc76af36bc9ec94e52cafe76d8367265719cbd768f8b386053944b42c1c2886","epochNo":400,"epochSlotNo":119182,"slot":87555982,"time":"2023/03/18 06:51:13","addressesInput":["addr1qxfwcal9hez3mz0lccfet02gt999pt4z6yuscu2sj6fksluquprpwyr5cfh7w0yvs5dlp9wn4q0qthtjhw6fk3qsq22qlr3h08"],"addressesOutput":["addr1v9nudmgn6lqefaedktxg0rrlqsjdxma2uw9my66vcnp8lngkzrt8k","addr1q92hyl0zevfnr7zpwy7amq42ap6ffg5df0s3nfngshwr8c5quprpwyr5cfh7w0yvs5dlp9wn4q0qthtjhw6fk3qsq22qcx3rvk","addr1q92hyl0zevfnr7zpwy7amq42ap6ffg5df0s3nfngshwr8c5quprpwyr5cfh7w0yvs5dlp9wn4q0qthtjhw6fk3qsq22qcx3rvk"],"fee":348761,"totalOutput":1064406692,"tokens":[]},{"hash":"5b5c7a2c5dc449f538b8d5c9b38d613a9efed2f981522a1076e85b6a7fda5caf","blockNo":8531931,"blockHash":"0dc76af36bc9ec94e52cafe76d8367265719cbd768f8b386053944b42c1c2886","epochNo":400,"epochSlotNo":119182,"slot":87555982,"time":"2023/03/18 06:51:13","addressesInput":["addr1qyvfx5nanxpzcdsx4n3czjnuauuc202l0lrjuemx6zms0s257lvp5w3cupttrlfulyyq8vfs8twagpyfmqrn7gqws32snaxtlj"],"addressesOutput":["addr1vyjdya9lmyfmysdgej3qc6thwat33lwm3umk8uwnvhy9g3gzvd2jp","addr1q80jjpgv85zxe55p6sjld68tpnzu54y6ken80wngdnmqy6z57lvp5w3cupttrlfulyyq8vfs8twagpyfmqrn7gqws32sgnkvxs"],"fee":167085,"totalOutput":33156326,"tokens":[]},{"hash":"f61f573c562a4b3bfd674416ba4770ca2870a41e230eadf40aef4d7d8c3adc6e","blockNo":8531931,"blockHash":"0dc76af36bc9ec94e52cafe76d8367265719cbd768f8b386053944b42c1c2886","epochNo":400,"epochSlotNo":119182,"slot":87555982,"time":"2023/03/18 06:51:13","addressesInput":["Ae2tdPwUPEZFSi1cTyL1ZL6bgixhc2vSy5heg6Zg9uP7PpumkAJ82Qprt8b","Ae2tdPwUPEZFSi1cTyL1ZL6bgixhc2vSy5heg6Zg9uP7PpumkAJ82Qprt8b","Ae2tdPwUPEZFSi1cTyL1ZL6bgixhc2vSy5heg6Zg9uP7PpumkAJ82Qprt8b","Ae2tdPwUPEZFSi1cTyL1ZL6bgixhc2vSy5heg6Zg9uP7PpumkAJ82Qprt8b","Ae2tdPwUPEZFSi1cTyL1ZL6bgixhc2vSy5heg6Zg9uP7PpumkAJ82Qprt8b"],"addressesOutput":["addr1vy8uxkf9wx07e8jnvka6zp9uz70sfemz4ewavk0ems24l3gv79n6y","Ae2tdPwUPEZFSi1cTyL1ZL6bgixhc2vSy5heg6Zg9uP7PpumkAJ82Qprt8b","Ae2tdPwUPEZFSi1cTyL1ZL6bgixhc2vSy5heg6Zg9uP7PpumkAJ82Qprt8b","Ae2tdPwUPEZFSi1cTyL1ZL6bgixhc2vSy5heg6Zg9uP7PpumkAJ82Qprt8b","Ae2tdPwUPEZFSi1cTyL1ZL6bgixhc2vSy5heg6Zg9uP7PpumkAJ82Qprt8b"],"fee":216905,"totalOutput":29859246557364,"tokens":[]},{"hash":"6dce2c710cc2bf9f723315bd22a05bec7fabf4632192fea15876ca110da1f251","blockNo":8531929,"blockHash":"a3f5dbd9b8bef1e8f1b27061a8ad112ea7a512dc508a37a542db38bbf3d2a87b","epochNo":400,"epochSlotNo":119153,"slot":87555953,"time":"2023/03/18 06:50:44","addressesInput":["addr1wyd3phmr5lhv3zssawqjdpnqrm5r5kgppmmf7864p3dvdrqwuutk4","addr1q9wrh0x3tt8q0x9hrh4s9lhjss5mjqgs6sftk0kmj0dww5n048m9u4arz3r2svnn9v3ae02e6g436u0pkcssznc2ktzstqxjlp"],"addressesOutput":["addr1q9wrh0x3tt8q0x9hrh4s9lhjss5mjqgs6sftk0kmj0dww5n048m9u4arz3r2svnn9v3ae02e6g436u0pkcssznc2ktzstqxjlp","addr1q9wrh0x3tt8q0x9hrh4s9lhjss5mjqgs6sftk0kmj0dww5n048m9u4arz3r2svnn9v3ae02e6g436u0pkcssznc2ktzstqxjlp"],"fee":1073633,"totalOutput":123086997,"tokens":[]},{"hash":"168d398ba2fa471b1ceca3fd7859eea4cb6dfd7a73888d45178d254aed5eb728","blockNo":8531929,"blockHash":"a3f5dbd9b8bef1e8f1b27061a8ad112ea7a512dc508a37a542db38bbf3d2a87b","epochNo":400,"epochSlotNo":119153,"slot":87555953,"time":"2023/03/18 06:50:44","addressesInput":["addr1qy6jvlwjama4x6rhgq80x0a5wtahh079lh3pk3wjn8snc98cny99trawn97per2f4gyvrzpznal6c873ej23feu57m6s3lvtm4"],"addressesOutput":["addr1qxw6vgxshkmwqwhyaxm5lq0xs08l4pgwr2l52mqemguu09va5csdp0dkuqawf6dhf7q7dq70l2zsux4lg4kpnk3ec72syjpnl5","addr1q8dnwp39pqek2t3g9lagmgq7rzewr3ut8qmp3v2dk260kt0cny99trawn97per2f4gyvrzpznal6c873ej23feu57m6sst32sn"],"fee":169197,"totalOutput":199330803,"tokens":[]},{"hash":"038b4f9895b0118a05315a4bba6c52be7d2126f8bcad9c3efc4a83c3204c791a","blockNo":8531929,"blockHash":"a3f5dbd9b8bef1e8f1b27061a8ad112ea7a512dc508a37a542db38bbf3d2a87b","epochNo":400,"epochSlotNo":119153,"slot":87555953,"time":"2023/03/18 06:50:44","addressesInput":["addr1qyek443zxp349lnn08nj3mlgnp36rrcndq22vyy5p2gpycu45096236d5g4y0x5xv4c0p0hv8egpkkfe8m6ley6gnlvqf3z5tp"],"addressesOutput":["addr1qy689m69z0dg3kpy5kh9l2p9pe48hw0smf8ul45mfg3597xqujdrytc0068qf6nzqdswzp3prk3jg4h0gkndwzw4fajqkv2quj","addr1qyek443zxp349lnn08nj3mlgnp36rrcndq22vyy5p2gpycu45096236d5g4y0x5xv4c0p0hv8egpkkfe8m6ley6gnlvqf3z5tp","addr1qyek443zxp349lnn08nj3mlgnp36rrcndq22vyy5p2gpycu45096236d5g4y0x5xv4c0p0hv8egpkkfe8m6ley6gnlvqf3z5tp","addr1qyek443zxp349lnn08nj3mlgnp36rrcndq22vyy5p2gpycu45096236d5g4y0x5xv4c0p0hv8egpkkfe8m6ley6gnlvqf3z5tp","addr1qyek443zxp349lnn08nj3mlgnp36rrcndq22vyy5p2gpycu45096236d5g4y0x5xv4c0p0hv8egpkkfe8m6ley6gnlvqf3z5tp"],"fee":176897,"totalOutput":209823103,"tokens":[]},{"hash":"05194ee08e863bb90ed286c5cf75cdf136c592292476762dcffdfaa939ce2e4c","blockNo":8531929,"blockHash":"a3f5dbd9b8bef1e8f1b27061a8ad112ea7a512dc508a37a542db38bbf3d2a87b","epochNo":400,"epochSlotNo":119153,"slot":87555953,"time":"2023/03/18 06:50:44","addressesInput":["addr1qyp6kj2k7l7auf9yflmvfvlvxytt230jppqex4f05rckzt4xlucpm9qdts2z4snsax0rs8xmyar4csfhde5eepgqjpgqdxpky6","addr1qyp6kj2k7l7auf9yflmvfvlvxytt230jppqex4f05rckzt4xlucpm9qdts2z4snsax0rs8xmyar4csfhde5eepgqjpgqdxpky6","addr1qyp6kj2k7l7auf9yflmvfvlvxytt230jppqex4f05rckzt4xlucpm9qdts2z4snsax0rs8xmyar4csfhde5eepgqjpgqdxpky6"],"addressesOutput":["addr1v9ywm0h3r8cnxrs04gfy7c3s2j44utjyvn5ldjdca0c2ltccgqdes","addr1qyp6kj2k7l7auf9yflmvfvlvxytt230jppqex4f05rckzt4xlucpm9qdts2z4snsax0rs8xmyar4csfhde5eepgqjpgqdxpky6"],"fee":262007,"totalOutput":11611513,"tokens":[]},{"hash":"dabc360a43730330e8395e67e0a1ad0d52421d329049cb2d05455a8e7fc782bd","blockNo":8531929,"blockHash":"a3f5dbd9b8bef1e8f1b27061a8ad112ea7a512dc508a37a542db38bbf3d2a87b","epochNo":400,"epochSlotNo":119153,"slot":87555953,"time":"2023/03/18 06:50:44","addressesInput":["addr1q8p5nmy3lvnessj06ty8540j9v0qae78ftjp2vfd2lwzazj57lvp5w3cupttrlfulyyq8vfs8twagpyfmqrn7gqws32sgmajj2"],"addressesOutput":["addr1q9xqt5tgwcszk5cpfycue4jd0ctma6tatxq3grfpwvcn6a982en0wssfx9gtj4vrzmpnatg3ktg7ktycxh7uccsya27q72xzug","addr1qy4w2mdrjfvds20czr0al6pwqgdmc3jhjcnq9pvg80qgrt257lvp5w3cupttrlfulyyq8vfs8twagpyfmqrn7gqws32sj02p3x"],"fee":168317,"totalOutput":33689355,"tokens":[]},{"hash":"2365568947a5b30b3fa8479c086b15d2391ce5218d5ec75a108cb66eaf6c0c40","blockNo":8531929,"blockHash":"a3f5dbd9b8bef1e8f1b27061a8ad112ea7a512dc508a37a542db38bbf3d2a87b","epochNo":400,"epochSlotNo":119153,"slot":87555953,"time":"2023/03/18 06:50:44","addressesInput":["addr1zxn9efv2f6w82hagxqtn62ju4m293tqvw0uhmdl64ch8uw6j2c79gy9l76sdg0xwhd7r0c0kna0tycz4y5s6mlenh8pq6s3z70","addr1qyht4ja0zcn45qvyx477qlyp6j5ftu5ng0prt9608dxp6l2j2c79gy9l76sdg0xwhd7r0c0kna0tycz4y5s6mlenh8pq4jxtdy","addr1z8snz7c4974vzdpxu65ruphl3zjdvtxw8strf2c2tmqnxz2j2c79gy9l76sdg0xwhd7r0c0kna0tycz4y5s6mlenh8pq0xmsha","addr1qyht4ja0zcn45qvyx477qlyp6j5ftu5ng0prt9608dxp6l2j2c79gy9l76sdg0xwhd7r0c0kna0tycz4y5s6mlenh8pq4jxtdy"],"addressesOutput":["addr1qyht4ja0zcn45qvyx477qlyp6j5ftu5ng0prt9608dxp6l2j2c79gy9l76sdg0xwhd7r0c0kna0tycz4y5s6mlenh8pq4jxtdy","addr1qyht4ja0zcn45qvyx477qlyp6j5ftu5ng0prt9608dxp6l2j2c79gy9l76sdg0xwhd7r0c0kna0tycz4y5s6mlenh8pq4jxtdy","addr1q9hdvwfvl90xmq342j8p9jttmgtszcyp54tafkpgpnwtjep68lsn46gw9n6psmxt4nft0kh46zgm8jhck67l7lt3qv0sj3qug0","addr1z8snz7c4974vzdpxu65ruphl3zjdvtxw8strf2c2tmqnxz2j2c79gy9l76sdg0xwhd7r0c0kna0tycz4y5s6mlenh8pq0xmsha"],"fee":970325,"totalOutput":5850713217817,"tokens":[]},{"hash":"c1b1eee9eb1df2d1e6bd544c46980d9e3f37ca5b5393f64fa6d8b013f21fe2c4","blockNo":8531929,"blockHash":"a3f5dbd9b8bef1e8f1b27061a8ad112ea7a512dc508a37a542db38bbf3d2a87b","epochNo":400,"epochSlotNo":119153,"slot":87555953,"time":"2023/03/18 06:50:44","addressesInput":["addr1qyht4ja0zcn45qvyx477qlyp6j5ftu5ng0prt9608dxp6l2j2c79gy9l76sdg0xwhd7r0c0kna0tycz4y5s6mlenh8pq4jxtdy","addr1qyht4ja0zcn45qvyx477qlyp6j5ftu5ng0prt9608dxp6l2j2c79gy9l76sdg0xwhd7r0c0kna0tycz4y5s6mlenh8pq4jxtdy","addr1zxn9efv2f6w82hagxqtn62ju4m293tqvw0uhmdl64ch8uw6j2c79gy9l76sdg0xwhd7r0c0kna0tycz4y5s6mlenh8pq6s3z70","addr1z8snz7c4974vzdpxu65ruphl3zjdvtxw8strf2c2tmqnxz2j2c79gy9l76sdg0xwhd7r0c0kna0tycz4y5s6mlenh8pq0xmsha"],"addressesOutput":["addr1qyht4ja0zcn45qvyx477qlyp6j5ftu5ng0prt9608dxp6l2j2c79gy9l76sdg0xwhd7r0c0kna0tycz4y5s6mlenh8pq4jxtdy","addr1qyht4ja0zcn45qvyx477qlyp6j5ftu5ng0prt9608dxp6l2j2c79gy9l76sdg0xwhd7r0c0kna0tycz4y5s6mlenh8pq4jxtdy","addr1qy4gc0ch9c7y0jmuc3klxsl9al5epl4xf0p99atumv45efgyugejzrnh5890vk4mlk7wqpks9xd2txn8g5y5xfz7eews2nz0r0","addr1z8snz7c4974vzdpxu65ruphl3zjdvtxw8strf2c2tmqnxz2j2c79gy9l76sdg0xwhd7r0c0kna0tycz4y5s6mlenh8pq0xmsha"],"fee":813908,"totalOutput":232315933803,"tokens":[]},{"hash":"300769ecfbae726afff9ec80e420330c25af9f8b701d9b0afad6840045fd1cc9","blockNo":8531929,"blockHash":"a3f5dbd9b8bef1e8f1b27061a8ad112ea7a512dc508a37a542db38bbf3d2a87b","epochNo":400,"epochSlotNo":119153,"slot":87555953,"time":"2023/03/18 06:50:44","addressesInput":["addr1qyt827j39fufws8mv267mj65qggy6rgpz7p6uw5jwn98n46zxveyftq4uecv50yxzj0hxl9v8z2tp54dcq3wacc5usgsh2jv48"],"addressesOutput":["addr1qx3qw4v0xzel7x3d86qkk0h2aplee4efux97valad724aq69ruftagjfjstgclaxx7p49awle9a247sl8afhd5h9evusvz8xtf"],"fee":165457,"totalOutput":317003629,"tokens":[]},{"hash":"747e849603b90f3b15e42b46836e12c58cfc24dffd95f61eb9f73772982a59e3","blockNo":8531929,"blockHash":"a3f5dbd9b8bef1e8f1b27061a8ad112ea7a512dc508a37a542db38bbf3d2a87b","epochNo":400,"epochSlotNo":119153,"slot":87555953,"time":"2023/03/18 06:50:44","addressesInput":["addr1qx4sv3zg08fg5jek99pel3rckuylwyhvum24z2pcuxjkxeatqezys7wj3f9nv22rnlz83dcf7ufweek42y5r3cd9vdnsvjulqu","addr1qx4sv3zg08fg5jek99pel3rckuylwyhvum24z2pcuxjkxeatqezys7wj3f9nv22rnlz83dcf7ufweek42y5r3cd9vdnsvjulqu"],"addressesOutput":["addr1qx4sv3zg08fg5jek99pel3rckuylwyhvum24z2pcuxjkxeatqezys7wj3f9nv22rnlz83dcf7ufweek42y5r3cd9vdnsvjulqu","addr1qx4sv3zg08fg5jek99pel3rckuylwyhvum24z2pcuxjkxeatqezys7wj3f9nv22rnlz83dcf7ufweek42y5r3cd9vdnsvjulqu"],"fee":233854,"totalOutput":895336304,"tokens":[]},{"hash":"b672b1fd6ceabc94bf00939b42a9a79bbbb6fe587cdd2dac30f49dc16aceb777","blockNo":8531929,"blockHash":"a3f5dbd9b8bef1e8f1b27061a8ad112ea7a512dc508a37a542db38bbf3d2a87b","epochNo":400,"epochSlotNo":119153,"slot":87555953,"time":"2023/03/18 06:50:44","addressesInput":["addr1vyanfpf6wz47d0lsq8xvn9ty3q8eavrw60g7ev88ssluwsseyq54m","addr1wy8arwz5w2wju2ffp4rlugtnxxd2u0zv3pdf2hwzq0mjwkg77hygh","addr1w9afj34vc68qdm7heuz7esmr8sj76wpa45t7dh3ag8xpplgml3zuk"],"addressesOutput":["addr1w8q93prq7gd3gax73amzrv7fq4evup0wpr3zkqrtktep7eqy26922","addr1wy8arwz5w2wju2ffp4rlugtnxxd2u0zv3pdf2hwzq0mjwkg77hygh","addr1x97atw4jlfulpp73agh4hav2nfwlcwcfqcgr9mpucde9vmnys5sq3xea3866499dczkshygljanhepcqjfwyhe3fpads9jkkqh","addr1x97atw4jlfulpp73agh4hav2nfwlcwcfqcgr9mpucde9vmjypq27sagqxt4jwt57mdsef3zu65ng4zmzxaa246s97nxsk5pksg","addr1x97atw4jlfulpp73agh4hav2nfwlcwcfqcgr9mpucde9vm3saw6lwmnlk6z0aehzea9nwfvdvang9v42yylt83ym8zqqm5074y","addr1x97atw4jlfulpp73agh4hav2nfwlcwcfqcgr9mpucde9vm3lzwuv27k9keyjpag32pmx9mf63tn77feppvm7d0s5ndnsqdv78z","addr1x97atw4jlfulpp73agh4hav2nfwlcwcfqcgr9mpucde9vmnupshega3f5ym0freunp0p46rchpthvsyty398fh0msywsxgwa75","addr1x97atw4jlfulpp73agh4hav2nfwlcwcfqcgr9mpucde9vmk0l2wkhq0pr72jsdrv2kn8v3pqnrt0qykpq9fwr2wn0czsklm7ad","addr1x97atw4jlfulpp73agh4hav2nfwlcwcfqcgr9mpucde9vmhnschmu7dwefmhkd078735ucq2yh90ylkzxrenz9cy8udsfw6k4m","addr1x97atw4jlfulpp73agh4hav2nfwlcwcfqcgr9mpucde9vmja0x7l0scsd0wvfm3ljugdpsu4kctwfjyud65xfeht5uyqmfjy8x","addr1x97atw4jlfulpp73agh4hav2nfwlcwcfqcgr9mpucde9vmk8jkqyfeeuz5m6sfv27g9vav8w83lsaqewjqxnpnpjd9wsr4swv0","addr1x97atw4jlfulpp73agh4hav2nfwlcwcfqcgr9mpucde9vmhwdw2g8sat0hr2pdt2ct27n33z0w6dzsfy684ut24gjfsq2qynek","addr1x97atw4jlfulpp73agh4hav2nfwlcwcfqcgr9mpucde9vmjs80extwffmz4yagvdxvr6cpd8nm3qne020739j706h3jqgthhnc","addr1x97atw4jlfulpp73agh4hav2nfwlcwcfqcgr9mpucde9vmhccartl0f44hvc4vq8n3042epqvqq8cd4g9znpl5kdeypsx0m4jt","addr1x97atw4jlfulpp73agh4hav2nfwlcwcfqcgr9mpucde9vmsfpkhcpsthxpprf49lvfy2jhga5mygpfcj4qaypfzkmhnskrm6uv","addr1x97atw4jlfulpp73agh4hav2nfwlcwcfqcgr9mpucde9vmh0sfgalgyvgedlnhfl7u2059dkyhp453hm86797rm5qhasum9d4l","addr1x97atw4jlfulpp73agh4hav2nfwlcwcfqcgr9mpucde9vm43q9zvxe5ehfytyye9m3dq3knvuz2fdnax7lhhjm4vvjgq8wmp5z","addr1x97atw4jlfulpp73agh4hav2nfwlcwcfqcgr9mpucde9vmj3z228hznt0rz2enxfzhtk2270gels0ht9uvf9wmyxs99qsgwdnc","addr1vyanfpf6wz47d0lsq8xvn9ty3q8eavrw60g7ev88ssluwsseyq54m"],"fee":516660,"totalOutput":21397251305790,"tokens":[]},{"hash":"79aa6f70c556462df8d8daf74fdda4d0a57dbc84d98d544b9ea1c0cc4c56a353","blockNo":8531929,"blockHash":"a3f5dbd9b8bef1e8f1b27061a8ad112ea7a512dc508a37a542db38bbf3d2a87b","epochNo":400,"epochSlotNo":119153,"slot":87555953,"time":"2023/03/18 06:50:44","addressesInput":["addr1q88xup7cd0n72m5ep94j9u8qn39tm7g39mawdgzfhx05a4xwdcras6l8u4hfjzttytcwp8z2hhu3zth6u6synwvlfm2qc5mah6"],"addressesOutput":["addr1v8gqa555rg08cwz4yyyykk9t2twr4jjnzp5kc96mc2qrlns8uy702","addr1q88xup7cd0n72m5ep94j9u8qn39tm7g39mawdgzfhx05a4xwdcras6l8u4hfjzttytcwp8z2hhu3zth6u6synwvlfm2qc5mah6"],"fee":223219,"totalOutput":2184452043,"tokens":[]},{"hash":"ca3727b63eb369daa8aa3e486c87193187cab5b894ea5bc483d6d4b241cc70c1","blockNo":8531929,"blockHash":"a3f5dbd9b8bef1e8f1b27061a8ad112ea7a512dc508a37a542db38bbf3d2a87b","epochNo":400,"epochSlotNo":119153,"slot":87555953,"time":"2023/03/18 06:50:44","addressesInput":["addr1w8cvzcnclvkua25vx26j72pddatuedsxspm62mr63urs0fctuuzfv","addr1q9wpeufvn4nmsp0a4dvegps8rq2y0yaxurf586pmtha8fpfz27y50v96t2840zdlmh56fuvnvtqw2xnz3hkckuwf2mlqp3469g"],"addressesOutput":["addr1q9wpeufvn4nmsp0a4dvegps8rq2y0yaxurf586pmtha8fpfz27y50v96t2840zdlmh56fuvnvtqw2xnz3hkckuwf2mlqp3469g","addr1w8cvzcnclvkua25vx26j72pddatuedsxspm62mr63urs0fctuuzfv"],"fee":227769,"totalOutput":297581843,"tokens":[]}],"totalItems":63180007,"totalPages":3159001,"currentPage":0}