{"data":[{"address":"addr1w9qzpelu9hn45pefc0xr4ac4kdxeswq7pndul2vuj59u8tqaxdznu","txCount":38953,"balance":29905837047863},{"address":"addr1wxaptpmxcxawvr3pzlhgnpmzz3ql43n2tc8mn3av5kx0yzs09tqh8","txCount":260309,"balance":6895034592848},{"address":"addr1wx6ax0qg77hkmn20x23wccc2j7k0yzgkttrajfyq6d6x79snl09fl","txCount":3,"balance":6876257000000},{"address":"addr1w8xdhraed42a93dnsjz3qjqma6wvn3z0q8keptmhv8u80tqjkyzwj","txCount":3,"balance":2753962000000},{"address":"addr1wyh9nq6fjw72mqud6w7yfe0h4tv04fxdfgcz9akczxgey8c649vxx","txCount":3,"balance":2637603000000},{"address":"addr1wy56uwl9mn4ec5vzg386ka2sq2rmjug2q0fm5ru2rhefzxstkpasl","txCount":3,"balance":2272888495181},{"address":"addr1wyuqjmjxvguhtcrvdjwlvmchs9t2rfxesesap0cyjyfxahqq0p70x","txCount":7,"balance":2201199438147},{"address":"addr1w85ja4qy78usxjgmsnzvkdsh6n0xv7r4498uyr7ktjyppjcc4tyre","txCount":27,"balance":2034000000000},{"address":"addr1w9dsssx4gr8p8xc99s7wjyqv9a8lnpvtr5xyugueqrtddrcu79grx","txCount":41,"balance":1692511843754},{"address":"addr1wyh0ymm7gysnlnkn2tw65zcs8s70n6d6wr4veewexmqwmmq0rndjq","txCount":15,"balance":1680000000000},{"address":"addr1w8x38ff6386urtptgnyaycvgjquxkquvkpc9z4u8efaj7fgul2zra","txCount":138,"balance":1537488704752},{"address":"addr1wylvlfnp894tpqzzmr62c7nzvs0fnfx7pmd75zw9ja2l52gn0z7u0","txCount":43,"balance":1500000000000},{"address":"addr1wym90u4cmq3am5lacmswcneu3akt58ux0dxlnnqg82zq5lq8le03n","txCount":14,"balance":1443628683000},{"address":"addr1wyg9yddmt2lk46jr2m73z6n6qkcrcykwuxcumd4fdhd5ndgcuxsxe","txCount":3,"balance":1290000000000},{"address":"addr1w9lrfu6egwy9rsygmmesr7vv247je2090k0xt2gwv5mfakqa2yzpt","txCount":3,"balance":1155080000000},{"address":"addr1wy2mjh76em44qurn5x73nzqrxua7ataasftql0u2h6g88lc3gtgpz","txCount":499666,"balance":1093198771244},{"address":"addr1w8cz4zggye4y36g2e5ylj7esygz5jp0xys8384sx8ngx7wsae9207","txCount":3,"balance":1000158000000},{"address":"addr1w93j7t23z99448k7xspzrppjtgun0janh0rcq6k8wt2e8vc2fraw4","txCount":886,"balance":962041457627},{"address":"addr1w80ylx5hyr8xl529hxr2c4lgakxswp0pjzp46d40sxuy3pqthntrr","txCount":1,"balance":700000000000},{"address":"addr1wxh9gpsf9gshcw69q55uzrsna8m84h0zc3g39yhphr0yx0c60j2u2","txCount":5,"balance":674416000000}],"totalItems":3567,"totalPages":179,"currentPage":0}