{"data":[{"txId":56909993,"txHash":"fd5da8d59b61b7b5bc1e228e10ab959d549d14970d734e22e57b5c195f0e103b","txTime":"2022/12/08 17:01:03","block":8113964,"epoch":380,"slotNo":78952572,"epochSlotNo":155772,"stakeKey":"stake1u95qsqv5ewhapn3eyxxcsexp77al7l4lemhgyh4jquy5f5q530zy4"},{"txId":56909952,"txHash":"3d024ada21821871a8f83613d51b259e8c459dcbc8e0f068862e363bd334afed","txTime":"2022/12/08 17:00:34","block":8113962,"epoch":380,"slotNo":78952543,"epochSlotNo":155743,"stakeKey":"stake1uydrz43qv6nrgc8zm042ly3r8ys2xpa908q45gva6tl9g4gw4hx98"},{"txId":56909949,"txHash":"292cbccaad1dea5fd68efc37405dd99a1e955b03ac3aaed48beed72e51388744","txTime":"2022/12/08 17:00:34","block":8113962,"epoch":380,"slotNo":78952543,"epochSlotNo":155743,"stakeKey":"stake1u9tz3dmmtckrp0sma7h8qcjcsmfs00803s6etc9xuehkyrcmx3a4c"},{"txId":56909724,"txHash":"f19444355dab137427d2620d0346fa26d58c4f492334aabc2e74c896db889900","txTime":"2022/12/08 16:56:51","block":8113950,"epoch":380,"slotNo":78952320,"epochSlotNo":155520,"stakeKey":"stake1u9upn00g0f9ff6989qm2wj93j4ueswuy8gty43mz4utsj3qmc30qy"},{"txId":56909684,"txHash":"0ded3cd4bcff372d84bee92c01ea2a63d1279f70a6b4faf5b906111d54616369","txTime":"2022/12/08 16:55:13","block":8113948,"epoch":380,"slotNo":78952222,"epochSlotNo":155422,"stakeKey":"stake1uy0nhd0dv6uxzf9tvahrft6n209zz888lggps3260vtcqwsuj6z30"},{"txId":56909620,"txHash":"f3fcb6d94a80130e169daee89ca62c602c53ba98a1a0db555a22906aa7498d46","txTime":"2022/12/08 16:54:05","block":8113943,"epoch":380,"slotNo":78952154,"epochSlotNo":155354,"stakeKey":"stake1u8ze63vjdv6zwf549urygtwf0umrrurvzq97m2hj8rhkpscgndmjg"},{"txId":56909547,"txHash":"cab58231e1033dc3efaafff91272cf3db4f3051914d03497910a0acbb02826aa","txTime":"2022/12/08 16:52:33","block":8113941,"epoch":380,"slotNo":78952062,"epochSlotNo":155262,"stakeKey":"stake1uyjjhag6u9y728wk00fgf2af56ppxk68dz4tfy5epacsgjszsrwfu"},{"txId":56909454,"txHash":"374e777eae07efacf30da82f53d929dea4a0d9562ca033af29e10772c804240a","txTime":"2022/12/08 16:50:57","block":8113932,"epoch":380,"slotNo":78951966,"epochSlotNo":155166,"stakeKey":"stake1uxf695f3cc8w5r2ly32mf9le8pq0dk35wwyt66j66nxx8dgdwk06m"},{"txId":56909119,"txHash":"5940b9de18a4e58bac45c8a709abc6ecdcfac83adc0840ed7631b3092bda9d9a","txTime":"2022/12/08 16:44:44","block":8113912,"epoch":380,"slotNo":78951593,"epochSlotNo":154793,"stakeKey":"stake1u8y9t2wpf8749zz2me6v3tgt5fx6ue8xru5jggmwc5gqmcc3n0sxf"},{"txId":56909067,"txHash":"2e81c8c12156d5463d99f6e4ed4687827745571c5c40b49522cf433651918227","txTime":"2022/12/08 16:43:28","block":8113911,"epoch":380,"slotNo":78951517,"epochSlotNo":154717,"stakeKey":"stake1uxjtj9qff0se32uca0lqetq9xfypqtx50n8auaj2fn5a9usdetsgh"},{"txId":56909045,"txHash":"a5b424a352bc4947ac8cc86679edd529b26531e537e3288e1b6bb4b2c638c2a4","txTime":"2022/12/08 16:42:41","block":8113910,"epoch":380,"slotNo":78951470,"epochSlotNo":154670,"stakeKey":"stake1ux4x4scw9zrza8wykzzt3f3h3z64j94vupfm4hre70q7t8g59zl59"},{"txId":56908829,"txHash":"8652ae751ddf4f3641d3348ae986efd221f0ce728f2bd39856018e1f2329cdc6","txTime":"2022/12/08 16:38:53","block":8113900,"epoch":380,"slotNo":78951242,"epochSlotNo":154442,"stakeKey":"stake1u8c7a3pus6d7cmnfxzda5sxny90vm2znv4jdc62jhlzkwyq72wx7c"},{"txId":56908799,"txHash":"22e25d3da303c1ac30d71c4b10f5fcdc544f9082df821b9f5b7f10003c80203e","txTime":"2022/12/08 16:38:24","block":8113899,"epoch":380,"slotNo":78951213,"epochSlotNo":154413,"stakeKey":"stake1u96t9h4hxcw0nfqe9jglyxwy508z28yepfy8c5yhd0zmmactq47kt"},{"txId":56908622,"txHash":"ee5ac440c669f27de3a9cdf699f96bf6504b8c4213005f67d5e43fc1c71d7946","txTime":"2022/12/08 16:35:53","block":8113891,"epoch":380,"slotNo":78951062,"epochSlotNo":154262,"stakeKey":"stake1uywf0p92sc27ee8nr6stsyc4nn4c5jwkz5x4jnk07sqwxns9mqn7d"},{"txId":56908535,"txHash":"257671cb566fcaebb45a9576997871ab2387a552f6fbf3c02a1426facdb1656c","txTime":"2022/12/08 16:34:02","block":8113885,"epoch":380,"slotNo":78950951,"epochSlotNo":154151,"stakeKey":"stake1uyrctp9fvgx65pphsuy85mzs94hq0293kywc2qk4hrwz9lsledds3"},{"txId":56908342,"txHash":"d8a9a993af9a4f5d93e632178e847375cc99863a785969b70d190e90bfa225e9","txTime":"2022/12/08 16:29:27","block":8113876,"epoch":380,"slotNo":78950676,"epochSlotNo":153876,"stakeKey":"stake1uy765cq3vcz8znjlwrlug9ksfashvklghmj0ccz5eju5r2ga8nq36"},{"txId":56908038,"txHash":"dd16f7f851602fdeb52763aebfa594fa0fddb2549671ecddf205adc0d0eeddbd","txTime":"2022/12/08 16:23:11","block":8113856,"epoch":380,"slotNo":78950300,"epochSlotNo":153500,"stakeKey":"stake1uys887azeuh3n6782dspw0wyze66wn87pkn0rwtuamz7s5gc9u5yl"},{"txId":56907999,"txHash":"835d65109b249a52f6a75329c9ea44214296e081bb5f0b3adbea259242c75b7e","txTime":"2022/12/08 16:22:36","block":8113854,"epoch":380,"slotNo":78950265,"epochSlotNo":153465,"stakeKey":"stake1u8mk85a8prztypezy4mt2trzunxqt8r58knrul5slasn76qf3ytha"},{"txId":56907903,"txHash":"ea97c8a5ea7d13d13897e02dd09045cbe75dfba58cc9b3b62fdd0a00d2d7be4e","txTime":"2022/12/08 16:21:10","block":8113847,"epoch":380,"slotNo":78950179,"epochSlotNo":153379,"stakeKey":"stake1uxd3x3g7u9sr95vvud4wghcv9r42sdg44s69yfacdgygeacj7ysk0"},{"txId":56907840,"txHash":"5f232ebbb5a615a60a6c7107a55dd167de2575b10ee27529b4c3b1cd60fb7903","txTime":"2022/12/08 16:20:20","block":8113843,"epoch":380,"slotNo":78950129,"epochSlotNo":153329,"stakeKey":"stake1ux6re7gkj97x0zm493rqc7u97gmcw5h20dq6ead0g5h0tyg0s9y7w"}],"totalItems":1617895,"totalPages":80895,"currentPage":0}