{"data":[{"blockNo":8124990,"slotNo":79174336,"epochNo":380,"epochSlotNo":377536,"hash":"a12fd124fee4ce67ab71b9a123c8dbf0225fc5fde75763f2a1f23de6b594e9e3","time":"2022/12/11 06:37:07","txCount":4,"totalFees":1258376,"totalOutput":5436305210,"slotLeader":"89eba2781e5cd11ccda6be56503702a39e9941e522f04cd5bba22957"},{"blockNo":8124989,"slotNo":79174316,"epochNo":380,"epochSlotNo":377516,"hash":"25130bb35f7e8f256b9a4ee3c6bf7d11d0a19189f690a1a0a8d2c44303812419","time":"2022/12/11 06:36:47","txCount":16,"totalFees":7040661,"totalOutput":79364374595,"slotLeader":"1d8988c2057d6efd6a094e468840a51942ab03b5b69b07a2bca71b53"},{"blockNo":8124988,"slotNo":79174279,"epochNo":380,"epochSlotNo":377479,"hash":"24a8461c45fb638afc19f89ee087dd61e84aa93f50d2ab9a533444dd5060035d","time":"2022/12/11 06:36:10","txCount":8,"totalFees":5094864,"totalOutput":57718145368,"slotLeader":"d5e0f919debe82e4447cf0f0089188ae212f7efbc065a3d819daa17a"},{"blockNo":8124987,"slotNo":79174270,"epochNo":380,"epochSlotNo":377470,"hash":"16d3dbd638f382dfb3521c4caa1b8e8ccf59cd7c0702db103bd0a7f40f4a2fe9","time":"2022/12/11 06:36:01","txCount":0,"totalFees":0,"totalOutput":0,"slotLeader":"768a4abe40bf4ec986087a6f356984da85ac3b8388dfa6840e3cdcf7"},{"blockNo":8124986,"slotNo":79174268,"epochNo":380,"epochSlotNo":377468,"hash":"93dcf678d5f1384a2485ac7e915c5ec6c526106ebbac2959094bce9d4d298e92","time":"2022/12/11 06:35:59","txCount":2,"totalFees":3095807,"totalOutput":66272888395,"slotLeader":"00000036d515e12e18cd3c88c74f09a67984c2c279a5296aa96efe89"},{"blockNo":8124985,"slotNo":79174262,"epochNo":380,"epochSlotNo":377462,"hash":"1ee2721cacc32080e1391978bbbfae8ae4d8b84acc8eec6db9367e393cbf95c0","time":"2022/12/11 06:35:53","txCount":6,"totalFees":4434718,"totalOutput":23031084474,"slotLeader":"0054fc7a4e34f9a1eef15a05fdfc9d323deeb9b72a4b5ec514247e66"},{"blockNo":8124984,"slotNo":79174251,"epochNo":380,"epochSlotNo":377451,"hash":"06cf45e2615c5d960f9acceb51706e8a0fec8c44b9b4825473da1b43a0911f9f","time":"2022/12/11 06:35:42","txCount":4,"totalFees":3521333,"totalOutput":22268296529,"slotLeader":"41c8a40ab0b78d727655d165f946722728dfb01df2fcc2e148b3c98d"},{"blockNo":8124983,"slotNo":79174239,"epochNo":380,"epochSlotNo":377439,"hash":"db987d731f0ace59bb661df8d32caf28d66b686172fdd0029d07101c482908f0","time":"2022/12/11 06:35:30","txCount":29,"totalFees":11137367,"totalOutput":51947714819,"slotLeader":"660f20fb9d419173ac623786ad3e6dc11a23951981e0e83e98233d29"},{"blockNo":8124982,"slotNo":79174182,"epochNo":380,"epochSlotNo":377382,"hash":"d9b8f4216ae03585ee7e49609d7ae1762ea5427b1b423a1096f222370b4274a5","time":"2022/12/11 06:34:33","txCount":11,"totalFees":3477147,"totalOutput":276715149835,"slotLeader":"4deb0ba979fe7af5a5a4896ef68cdae029ad116542555cb422f46348"},{"blockNo":8124981,"slotNo":79174165,"epochNo":380,"epochSlotNo":377365,"hash":"5579be73fc96d0c413cc0eb11b152b9cfc0f93f4ccc3d90e92892c53a19e84c2","time":"2022/12/11 06:34:16","txCount":20,"totalFees":6178459,"totalOutput":1115502494323,"slotLeader":"f6541f3ca941d96d3c243eae01fea874d6be403b2dd2c6575245de6e"}],"totalItems":18667,"totalPages":1867,"currentPage":0}