{"data":[{"blockNo":8118978,"slotNo":79053666,"epochNo":380,"epochSlotNo":256866,"hash":"0d574546ffb4171fa0b721e05297e93e575b48c91fe4001f13ed2c03c2af3a76","time":"2022/12/09 21:05:57","txCount":0,"totalFees":0,"totalOutput":0,"slotLeader":"afb33d38e92e03f9ce86f0175cc33e487b8def0ee25235f1e40183d1"},{"blockNo":8118977,"slotNo":79053665,"epochNo":380,"epochSlotNo":256865,"hash":"44630f723ed9987cd43438ab5f6ea4de55cab26de1ea0164a0d5e281227c2c9e","time":"2022/12/09 21:05:56","txCount":41,"totalFees":13044842,"totalOutput":2109759107138,"slotLeader":"1634c08e606f0f68bed8d88ba0ab87980994a5872ce68afdd0064e40"},{"blockNo":8118976,"slotNo":79053610,"epochNo":380,"epochSlotNo":256810,"hash":"efc808d5f5fb15f649d26a23b3d1525ad48118e4e9ed037ab7a1f4356eacd704","time":"2022/12/09 21:05:01","txCount":7,"totalFees":2299701,"totalOutput":43013207947,"slotLeader":"a56e07cb5cd11a2d2b6bff3c6ecbc7ddc79205e2831560792f06e795"},{"blockNo":8118975,"slotNo":79053603,"epochNo":380,"epochSlotNo":256803,"hash":"91446080272b78373a3505de16ff5ee3d95406941fe50007b378106763ec98e5","time":"2022/12/09 21:04:54","txCount":36,"totalFees":11566911,"totalOutput":1922843806559,"slotLeader":"660f20fb9d419173ac623786ad3e6dc11a23951981e0e83e98233d29"},{"blockNo":8118974,"slotNo":79053547,"epochNo":380,"epochSlotNo":256747,"hash":"b8e0a56aeaae382492e656c73f3d76d19e7621d326c22c893acd30c7354e4eec","time":"2022/12/09 21:03:58","txCount":13,"totalFees":3706572,"totalOutput":779760605738,"slotLeader":"2fc479904f9482d1b573977a3af26bb5577545014521eee513f54ef1"},{"blockNo":8118973,"slotNo":79053518,"epochNo":380,"epochSlotNo":256718,"hash":"87e4973a2d269a3765a5e867114e67b18eb8abcaa8cd6eeb32956a1e2182c9c7","time":"2022/12/09 21:03:29","txCount":19,"totalFees":5057434,"totalOutput":148174992818,"slotLeader":"bd5f6b254798e3ddde1a9c3609fa9d6e468d638bd9103afb02e29ae5"},{"blockNo":8118972,"slotNo":79053498,"epochNo":380,"epochSlotNo":256698,"hash":"352d1e1485829ced626e8f1e38e03d0c73236936c16118eb955c91b859dddc99","time":"2022/12/09 21:03:09","txCount":1,"totalFees":194453,"totalOutput":3114949927,"slotLeader":"153806dbcd134ddee69a8c5204e38ac80448f62342f8c23cfe4b7edf"},{"blockNo":8118971,"slotNo":79053497,"epochNo":380,"epochSlotNo":256697,"hash":"40ed57343475ed783e35ecd3a98c6f06c9dbdd17a5a1a6cac66d330678d6bf7f","time":"2022/12/09 21:03:08","txCount":21,"totalFees":5693842,"totalOutput":994848049442,"slotLeader":"eaa28db3bf0b7bb815b552fc9e0cecdda62933ce6c67067183c79acd"},{"blockNo":8118970,"slotNo":79053456,"epochNo":380,"epochSlotNo":256656,"hash":"6ef1c9e6de3489462d2cef6614baaed78d82fe27bce37ea83f002d6e053f2e1e","time":"2022/12/09 21:02:27","txCount":13,"totalFees":4421123,"totalOutput":22542574366598,"slotLeader":"00beef0a9be2f6d897ed24a613cf547bb20cd282a04edfc53d477114"},{"blockNo":8118969,"slotNo":79053437,"epochNo":380,"epochSlotNo":256637,"hash":"a7463231a38290fecbf32ddabb0dc322dbd320ca161f44f9aa23959af9b14717","time":"2022/12/09 21:02:08","txCount":5,"totalFees":1068565,"totalOutput":9830340683,"slotLeader":"2352f8c7d0b9f0bf5b342c135d5b25c910491deec1440bd9d27799a6"},{"blockNo":8118968,"slotNo":79053430,"epochNo":380,"epochSlotNo":256630,"hash":"e15fd56586aeb3146dff33dbc24bc4029da5d5b21d06fdc12d36420c4a8f000d","time":"2022/12/09 21:02:01","txCount":3,"totalFees":2562897,"totalOutput":4504901648304,"slotLeader":"b405a62715301a625c2fd5eb3f5b16be9f1f3f0452f5b8b9286997c4"},{"blockNo":8118967,"slotNo":79053426,"epochNo":380,"epochSlotNo":256626,"hash":"b405d47f88625cfc1917a5811477251bb309d2ce678b0f98a535bfbfd5e0a23c","time":"2022/12/09 21:01:57","txCount":5,"totalFees":2978747,"totalOutput":20134944905920,"slotLeader":"86a19d5418cd07294af7d71386cf14a84e0478fbfde5b89fe4d98a58"},{"blockNo":8118966,"slotNo":79053422,"epochNo":380,"epochSlotNo":256622,"hash":"c4a99737ed3446eb0f3d0878a10051155697e36a586135e924f1920b1efab076","time":"2022/12/09 21:01:53","txCount":41,"totalFees":14620091,"totalOutput":107404961718,"slotLeader":"5b60373e718a3647ec57f610b9942f91286748ddeaa0ad226acb927b"},{"blockNo":8118965,"slotNo":79053370,"epochNo":380,"epochSlotNo":256570,"hash":"bf782c5a0c0792b32b3c916481d104203753ca146fdcb5a4a4da78b3ef6012a4","time":"2022/12/09 21:01:01","txCount":11,"totalFees":2712520,"totalOutput":121212680346,"slotLeader":"087cb9a9dab66751853893b0de0628aee88c36f82fd0c1ee3b998548"},{"blockNo":8118964,"slotNo":79053363,"epochNo":380,"epochSlotNo":256563,"hash":"3580313b1e2f74c0adc4c5e675cb55ff6ca98328100e79db43499ba4bb6d9af3","time":"2022/12/09 21:00:54","txCount":6,"totalFees":2405551,"totalOutput":7862110049,"slotLeader":"f5b2ef0d7db63c8d00446cd7d9ce9cdb9e73023ffaa5e806decceb66"},{"blockNo":8118963,"slotNo":79053355,"epochNo":380,"epochSlotNo":256555,"hash":"246659744dd24604313f452918d70ea735aefd7f51088b777f6b6a7cf143e9c5","time":"2022/12/09 21:00:46","txCount":13,"totalFees":4154248,"totalOutput":502004186269,"slotLeader":"57eb48cdf25980039f087207af09fafb4970018e322d37c11c9a2496"},{"blockNo":8118962,"slotNo":79053343,"epochNo":380,"epochSlotNo":256543,"hash":"e2f2e8d4719982470ab94922ee4b62df69aad31bb8415e3cd6179a6d3b151add","time":"2022/12/09 21:00:34","txCount":10,"totalFees":3024615,"totalOutput":147261895140,"slotLeader":"49c24284e61ad58c6e59e865c74e9b0a0a36654eb2091ad846e1c4ec"},{"blockNo":8118961,"slotNo":79053328,"epochNo":380,"epochSlotNo":256528,"hash":"535efff10c55d216a14307e7864696d011e26e620be42cf5c583cf711031b25f","time":"2022/12/09 21:00:19","txCount":0,"totalFees":0,"totalOutput":0,"slotLeader":"cb87bf12be816ecd5cd6e167442670e4024d85e0005c8623651b371f"},{"blockNo":8118960,"slotNo":79053326,"epochNo":380,"epochSlotNo":256526,"hash":"fa82c6846e88a28a25b63d7d34fec4eb0d112e480f2304c680cfbd82a2765a95","time":"2022/12/09 21:00:17","txCount":10,"totalFees":3639321,"totalOutput":94812324597,"slotLeader":"b573268bf369e3f3a4e6dd16fdd78ca01eb164c1daa29d611ef885d2"},{"blockNo":8118959,"slotNo":79053315,"epochNo":380,"epochSlotNo":256515,"hash":"fcef700fd5c23231b661f5026cb41a6476d517b359ef6938a8070e3d326edc35","time":"2022/12/09 21:00:06","txCount":38,"totalFees":12100785,"totalOutput":1888281106199,"slotLeader":"d66b1218d56cb0c9c3937207b3ae61bbff21ae212ae791722062f0e1"}],"totalItems":8119154,"totalPages":405958,"currentPage":0}