{"data":[{"blockNo":8227992,"slotNo":81290491,"epochNo":385,"epochSlotNo":333691,"hash":"c09e8596348c7206b4d838c1ef841dd66bde4519d94f30365b0dbbfeb53a72de","time":"2023/01/04 18:26:22","txCount":13,"totalFees":5624386,"totalOutput":93488377785,"slotLeader":"000000f66e28b0f18aef20555f4c4954234e3270dfbbdcc13f54e799"},{"blockNo":8227991,"slotNo":81290488,"epochNo":385,"epochSlotNo":333688,"hash":"4960e4dceb17738d7f0be9b01e48d71356b1ecf7ed36fa3bf8b895d584e494cc","time":"2023/01/04 18:26:19","txCount":32,"totalFees":11279410,"totalOutput":5721174706070,"slotLeader":"b3cc3005f1dccbc88230eb66d6e99c2f1bfa32273044473e17d9e10b"},{"blockNo":8227990,"slotNo":81290487,"epochNo":385,"epochSlotNo":333687,"hash":"94c1a9713a72d344c87e7adc7ef26a5b434d9a6983e1735de2de42059db53954","time":"2023/01/04 18:26:18","txCount":24,"totalFees":10470340,"totalOutput":8345108867764,"slotLeader":"903c38e5905f1587d5ecf8c875a181725fb4b12b3eb06ce1d20bb1c6"},{"blockNo":8227989,"slotNo":81290479,"epochNo":385,"epochSlotNo":333679,"hash":"3ac13441343fc9fbac4daa6c8d5f22d6547d20292d2fa121ee3f680591410c00","time":"2023/01/04 18:26:10","txCount":47,"totalFees":15488924,"totalOutput":1299586566047,"slotLeader":"6feba2d1c9ff8b6f216259fc8824e8803202f882e33a07b6a235c5ac"},{"blockNo":8227988,"slotNo":81290471,"epochNo":385,"epochSlotNo":333671,"hash":"633bd0a80ba5656cf9fec917c5a7848cedc840d571dcbb50f679940ae95b2e97","time":"2023/01/04 18:26:02","txCount":42,"totalFees":15108800,"totalOutput":1290949186134,"slotLeader":"f619a10b7ccea6167c5f169634e834b57739c2db892185f2efa9f1eb"},{"blockNo":8227987,"slotNo":81290428,"epochNo":385,"epochSlotNo":333628,"hash":"c418039403c89ec17d267b0e21cabaeff277f9791cc70b9aa1530c3780d18b11","time":"2023/01/04 18:25:19","txCount":47,"totalFees":14977940,"totalOutput":1167517918354,"slotLeader":"9ac6f4118dccc20d978e7239d73d47e939cc594c350effa8711f5ac4"},{"blockNo":8227986,"slotNo":81290392,"epochNo":385,"epochSlotNo":333592,"hash":"22bf583a8a561284c43283d0d5fc9c3f8d352419d3a2e8216a28db567e961ef6","time":"2023/01/04 18:24:43","txCount":30,"totalFees":12785039,"totalOutput":1605562652571,"slotLeader":"585a5de1da253667d10c28d09b7f447b20d83810381b936d27641760"},{"blockNo":8227985,"slotNo":81290341,"epochNo":385,"epochSlotNo":333541,"hash":"d3ab7204d30a56dabd94b2db1ea2fb5e46ba91dfa9e4dec2af41139b4948f29e","time":"2023/01/04 18:23:52","txCount":30,"totalFees":11708553,"totalOutput":24489428250384,"slotLeader":"bce696401137ff3d305e6a8dbb6ac0cd9b41570bda42deb4e83d86f2"},{"blockNo":8227984,"slotNo":81290316,"epochNo":385,"epochSlotNo":333516,"hash":"65d4f7e6830b182ac76e10082e9d95ea87663ce3c9ecb2ac5e8f34a290b59c57","time":"2023/01/04 18:23:27","txCount":59,"totalFees":17533615,"totalOutput":341385485779,"slotLeader":"012abf0f0a65192fcba3e5e305fe13478f0cd58f271873b0f20ddb10"},{"blockNo":8227983,"slotNo":81290301,"epochNo":385,"epochSlotNo":333501,"hash":"e1f69e5c1985a5da9f2f7030d00e041d23e028fc6529845f375d089ba2d9441a","time":"2023/01/04 18:23:12","txCount":37,"totalFees":13788265,"totalOutput":7137048238034,"slotLeader":"5b5804135b07be6f3635a655ed1b68ddef1854523b45cd1840a6fc33"}],"totalItems":16322,"totalPages":1633,"currentPage":0}