{"data":[{"txId":30362961,"txHash":"cdce9418d0fbc1dd584b75df81ab9e5a0c97a4914fa8259d4cdc304971c245f5","txTime":"2022/02/07 10:37:37","block":6852396,"epoch":319,"slotNo":52663966,"epochSlotNo":219166,"stakeKey":"stake1u9kun6h5sj572t3zxlryfa36670ruhj6kvulrdyxte3gsjst629t8"},{"txId":30362959,"txHash":"3438abd7d91b66daa95759270522654c8fae97b2ea376b33dec59fd7f7f4f12a","txTime":"2022/02/07 10:37:37","block":6852396,"epoch":319,"slotNo":52663966,"epochSlotNo":219166,"stakeKey":"stake1uy286mcaldptlrfw8pgnju950jwwntnq6gpljxgdkanzy2suffc0q"},{"txId":30362923,"txHash":"686035987035eff47eb25a047ccbba0b6a271a9bce7bc2f6b8b21469e4ca8d17","txTime":"2022/02/07 10:37:10","block":6852395,"epoch":319,"slotNo":52663939,"epochSlotNo":219139,"stakeKey":"stake1uxy9v7um9redrc7d87yanf4gkvc7awl7ypzcthqhy4ml3kc0fh0j2"},{"txId":30362825,"txHash":"39b080c3611937a1146521ce99b25e9b236cbef16d3d68957b46988e6737be59","txTime":"2022/02/07 10:36:03","block":6852391,"epoch":319,"slotNo":52663872,"epochSlotNo":219072,"stakeKey":"stake1uyuarp9gaw5pztlzfzv3f3l9atmq055zkfwf4kq52vg5e0gfmf7q7"},{"txId":30362779,"txHash":"283cf284d9fabddd28b8208d266664fbf7e85c5d660e3ac7ad8a5fe29b7e3973","txTime":"2022/02/07 10:36:01","block":6852390,"epoch":319,"slotNo":52663870,"epochSlotNo":219070,"stakeKey":"stake1u935m4xrlyymu4xnjedynkuhewgw4zs3u9qwcxhl6g74jpcdf4yks"},{"txId":30362715,"txHash":"aec2b120f74c0916babc7166b02774f0edf5b356929b00c6c6dffca1e122da83","txTime":"2022/02/07 10:34:17","block":6852386,"epoch":319,"slotNo":52663766,"epochSlotNo":218966,"stakeKey":"stake1u8q096nu96zza2fljz3h7huk7whgapdznyn477tzcs7cjdg7s6kul"},{"txId":30362690,"txHash":"d8e224fbe9661ac1af8628fa45611707c105da2a5f764c43591bd9c5e1e02cd4","txTime":"2022/02/07 10:33:31","block":6852385,"epoch":319,"slotNo":52663720,"epochSlotNo":218920,"stakeKey":"stake1uxjmz3vh2dcz7r400nzjuh7g8cetz0qw6pkd6zewhs07fkcss6ndx"},{"txId":30362615,"txHash":"bce2a5704dc7ab0d2d14707885f80d6d089d2f36921b7508515fc440317c36f9","txTime":"2022/02/07 10:32:51","block":6852383,"epoch":319,"slotNo":52663680,"epochSlotNo":218880,"stakeKey":"stake1uxfh77tk0uxrjsz7u64956sscg4fykhayqhu6kd5dznr0ucpf49fk"},{"txId":30362442,"txHash":"236e0b41de0639a953c04dc987c6837f4e4e7bdc604fa5d4814259d02736dd6d","txTime":"2022/02/07 10:29:34","block":6852376,"epoch":319,"slotNo":52663483,"epochSlotNo":218683,"stakeKey":"stake1uye8mptwarmd3npr7zp8xsenf892a9ka3h938dfklmv36uc6u6pzp"},{"txId":30362434,"txHash":"24f0484be674b12ae00c6083edf571e9fd816611c66e8701bf45d60d2c11dca2","txTime":"2022/02/07 10:28:30","block":6852375,"epoch":319,"slotNo":52663419,"epochSlotNo":218619,"stakeKey":"stake1u8au3z35a0v0795ufrzcw768lnqsm0zs7u5zpt83lkgz32gw2kcfh"},{"txId":30362407,"txHash":"50735494139a8385948cb8bf299315fe56f1a70844bf2e60cacf8ee0fed390af","txTime":"2022/02/07 10:27:28","block":6852374,"epoch":319,"slotNo":52663357,"epochSlotNo":218557,"stakeKey":"stake1u82zcdexk0k4mdz5rd5jxagzu8gmzmjq2e385y7g5gcgm2ceydtgp"},{"txId":30362378,"txHash":"09b98f189f98eb0f81781bf20b741491d94ce2df538cb0fae8450ec544f73c42","txTime":"2022/02/07 10:27:14","block":6852373,"epoch":319,"slotNo":52663343,"epochSlotNo":218543,"stakeKey":"stake1uxt9e3df6m9hqek84tt4l3ryqgeztc8kkxwttwvmldnlxcqmd30mk"},{"txId":30362375,"txHash":"b5b22c40f71aebfc8cd044bfd0195bbac192bee59ec2e8438feaee0f4bb400ee","txTime":"2022/02/07 10:27:14","block":6852373,"epoch":319,"slotNo":52663343,"epochSlotNo":218543,"stakeKey":"stake1u9gxyr9he8zcjnjfsnlta98xkxwz66z37eqsjtnq6940g9c2c7a9t"},{"txId":30362219,"txHash":"89f01205edc0a234f13d84688de811dd7a266eb85f3e502672d497d66731dd72","txTime":"2022/02/07 10:26:49","block":6852369,"epoch":319,"slotNo":52663318,"epochSlotNo":218518,"stakeKey":"stake1u8t6dkzqnp3pp7ypryrghx86s9gjsl6uvd9h4vu3f3zdafg6u58v9"},{"txId":30362198,"txHash":"9741d6f5b2f69658c6cebb0311333fd29fbc23cbcd0d5dde0bdfd836d58260a2","txTime":"2022/02/07 10:26:33","block":6852368,"epoch":319,"slotNo":52663302,"epochSlotNo":218502,"stakeKey":"stake1u86fjz7mcxhjh2swv5wuhxapc0cxgp4jthnj7fvscvelepqq4gkth"},{"txId":30362144,"txHash":"13da8bfed21acb88fa8fd75d6c4c8867a1c40024f1f2f6c87a530379f338e53a","txTime":"2022/02/07 10:26:25","block":6852367,"epoch":319,"slotNo":52663294,"epochSlotNo":218494,"stakeKey":"stake1uxuwhuycddd79vxg9zszs9he9g9prxjv5afh0zz758mfr2cjyf2j9"},{"txId":30362134,"txHash":"5f94509bbc14211bc93bb0099d73ab688f2b25cbca1af661ac24c5046c7733e8","txTime":"2022/02/07 10:26:25","block":6852367,"epoch":319,"slotNo":52663294,"epochSlotNo":218494,"stakeKey":"stake1uynlcu8jnqwu2w57hdzydv88wc7e4gpdv6qyq3xg7ku2zgqun0wfq"},{"txId":30361933,"txHash":"7463b255a6929249feed930bb59b0f6c3a9371319852743fec70a6bdc45f25c6","txTime":"2022/02/07 10:24:01","block":6852361,"epoch":319,"slotNo":52663150,"epochSlotNo":218350,"stakeKey":"stake1u82kunkt9a0kfedzvl9rdt4cc00ddkh2gy6dldc4spc37rgnuusl9"},{"txId":30361762,"txHash":"b416f11f13746d361bf3bf15a8ab7dff216439cec08249ebce4462c2da1db90a","txTime":"2022/02/07 10:23:07","block":6852356,"epoch":319,"slotNo":52663096,"epochSlotNo":218296,"stakeKey":"stake1u9j9hg0kp8gqusyxasg8aartzcqrw823tau9vmsfmf5kpyc46zf8w"},{"txId":30361677,"txHash":"56c467db8955f447341d4f580c445141340789437564e0a98cc011a1f482e624","txTime":"2022/02/07 10:22:19","block":6852354,"epoch":319,"slotNo":52663048,"epochSlotNo":218248,"stakeKey":"stake1uych2ujah7xxzpsckerkdwqyf53mhxp0ccuhnrm6r7g422s60paum"}],"totalItems":1399934,"totalPages":69997,"currentPage":0}