{"data":[{"blockNo":6857401,"slotNo":52769298,"epochNo":319,"epochSlotNo":324498,"hash":"a5781915e5bdff1aad1667a9707853d2344d365fcf63f066df481e2d8752aaa3","time":"2022/02/08 15:53:09","txCount":16,"totalFees":10277748,"totalOutput":9689678773728,"slotLeader":"47605a7c1fc5e8195335fb91e3a0df07adb2993c1a5b4a78d55a1d6a"},{"blockNo":6857400,"slotNo":52769282,"epochNo":319,"epochSlotNo":324482,"hash":"225e126f21b4ec3e8f18ad0733c9083018e63f015f4fd9d28378304f0caef903","time":"2022/02/08 15:52:53","txCount":13,"totalFees":8620383,"totalOutput":13726785619868,"slotLeader":"ea5f1fb21658736dce6e8c63a516e9e5d645e104b9efbfbb395d7e68"},{"blockNo":6857399,"slotNo":52769275,"epochNo":319,"epochSlotNo":324475,"hash":"898dd7b46c800f03a0d7d4fcc52278a6d5d84084aff4d693c92d9de263872347","time":"2022/02/08 15:52:46","txCount":16,"totalFees":9005421,"totalOutput":36688875887,"slotLeader":"0dbd895b0d875c64aa8d76fefcfc8765e46f383e983b38464eeafb3c"},{"blockNo":6857398,"slotNo":52769245,"epochNo":319,"epochSlotNo":324445,"hash":"ceffcdb54c46b60bffc239015bf7e56d13c54e8696da752f42528faa02b40be9","time":"2022/02/08 15:52:16","txCount":42,"totalFees":16261381,"totalOutput":670573516511,"slotLeader":"e455088c9164ae075f0300bc1a7234c30433556c6b88d4301a06cfe5"},{"blockNo":6857397,"slotNo":52769202,"epochNo":319,"epochSlotNo":324402,"hash":"ba56bca7212752e7cb9527d3cdabfb05a602a05dbdf482980998a1c4f9c090d5","time":"2022/02/08 15:51:33","txCount":14,"totalFees":8660768,"totalOutput":1712423136,"slotLeader":"11c660b87cb43e4720b053895b3137b4c08f367dbd030127c9c6de9e"},{"blockNo":6857396,"slotNo":52769194,"epochNo":319,"epochSlotNo":324394,"hash":"d4622fcebd25b5e9cffdcdeebc17525f71ac0bee6566ff3fc27ecb7b3b67736c","time":"2022/02/08 15:51:25","txCount":21,"totalFees":8907981,"totalOutput":2668069198342,"slotLeader":"788898a81174665316af96880459dcca053f7825abb1b0db9a433630"},{"blockNo":6857395,"slotNo":52769190,"epochNo":319,"epochSlotNo":324390,"hash":"ac776e8837e93ba0a0b7bd27ccb68f26e17fc2d3dfbf4757928f0d666f5f2aa5","time":"2022/02/08 15:51:21","txCount":77,"totalFees":20055205,"totalOutput":1038206036641,"slotLeader":"b3cdd3bbf09af72badca85e515c0206d6d22038e2af843521e10a928"},{"blockNo":6857394,"slotNo":52769182,"epochNo":319,"epochSlotNo":324382,"hash":"147135d23c26399f48ef4100d1b199a89061cd7b312c0f12f08cd0392d2a6781","time":"2022/02/08 15:51:13","txCount":21,"totalFees":9683838,"totalOutput":40530747361,"slotLeader":"5b5804135b07be6f3635a655ed1b68ddef1854523b45cd1840a6fc33"},{"blockNo":6857393,"slotNo":52769178,"epochNo":319,"epochSlotNo":324378,"hash":"09ebcb292decc3a2e2904c00823de99f4be7327d2866d30f8a50acae67d9bc05","time":"2022/02/08 15:51:09","txCount":23,"totalFees":10177373,"totalOutput":6807821469520,"slotLeader":"e40edb5a243c9ef00296860c6b7c8272fd5923ac52b5050d68e80d9b"},{"blockNo":6857392,"slotNo":52769176,"epochNo":319,"epochSlotNo":324376,"hash":"aa0f2b48b5814f0596e45bc3a83c5bafb8072f11f11bc495cf9bc31d2b687888","time":"2022/02/08 15:51:07","txCount":67,"totalFees":18930145,"totalOutput":1327515664480,"slotLeader":"1b2523e031e0efe6e5fe0edf8c82fd51abf33a1a2feedad5456ef4d9"},{"blockNo":6857391,"slotNo":52769158,"epochNo":319,"epochSlotNo":324358,"hash":"14d459f176c77de0660eac9b7182925eff5df060aa70762958d87834534ec60e","time":"2022/02/08 15:50:49","txCount":61,"totalFees":17531267,"totalOutput":523955830991,"slotLeader":"50a251d84927d932b9393cb462f300d215faedd5e8a5e791e869f32c"},{"blockNo":6857390,"slotNo":52769123,"epochNo":319,"epochSlotNo":324323,"hash":"ba568510b701a5381fbd8fd51ea5b63148338ba3312baf3e9b7eb38869f08739","time":"2022/02/08 15:50:14","txCount":13,"totalFees":8254049,"totalOutput":13721971635,"slotLeader":"024dcb42f0aa6d81a7e26ccdd525a2ed3e9665d126b38ba0f8b77b50"},{"blockNo":6857389,"slotNo":52769113,"epochNo":319,"epochSlotNo":324313,"hash":"ec82fa015949c35299fddb2508d50f877a784977a4c053e57cee67948af767bd","time":"2022/02/08 15:50:04","txCount":27,"totalFees":11813409,"totalOutput":28240073619,"slotLeader":"f4762ca1dce3c32c0d7a7e6d9f8a54bf40338e99ae5f3ad0172c9a2f"},{"blockNo":6857388,"slotNo":52769103,"epochNo":319,"epochSlotNo":324303,"hash":"4ef024eb3fe06f0a8d554d28f0e6f1cbf11784d135ee8e8a51859cd36551029e","time":"2022/02/08 15:49:54","txCount":48,"totalFees":15681044,"totalOutput":412626123810,"slotLeader":"0775f0139af22e1ebf2c3278598816946e750029b70eace3c5135c3e"},{"blockNo":6857387,"slotNo":52769092,"epochNo":319,"epochSlotNo":324292,"hash":"b551d1cb03ececaa355b10181d43f4ee6807c3934045506e73b90466a76f6d8a","time":"2022/02/08 15:49:43","txCount":7,"totalFees":6808099,"totalOutput":12583765655473,"slotLeader":"921dc3fc11681ad9ccde08c9bc23041808f4b7e8ba231be557db8ab5"},{"blockNo":6857386,"slotNo":52769036,"epochNo":319,"epochSlotNo":324236,"hash":"4e633934c3f8ebad4523ef566dc4d9b5394bb872296e8ee99d715ea46bc7484c","time":"2022/02/08 15:48:47","txCount":38,"totalFees":13913428,"totalOutput":1950297573160,"slotLeader":"c2c52eab0d713209b337d8ff8fe28e1ccae2f70eb7ed1ee27e8c866a"},{"blockNo":6857385,"slotNo":52769014,"epochNo":319,"epochSlotNo":324214,"hash":"c1126011dfd54238c0f71aaf2e35a64b801aad484948cd395b585c52f29be398","time":"2022/02/08 15:48:25","txCount":60,"totalFees":17014358,"totalOutput":1114199692528,"slotLeader":"57779a2cf76fd64fc5f308a6cbcd51b1a6c5dec7548a1f3475e65d12"},{"blockNo":6857384,"slotNo":52768974,"epochNo":319,"epochSlotNo":324174,"hash":"f87f8407b9a27fcd7dacdfc4d4afd8af1a27d814d60d42ad5eeba356ebe6b0ce","time":"2022/02/08 15:47:45","txCount":55,"totalFees":17240971,"totalOutput":1019365206289,"slotLeader":"5eb362978a68a4780f4fd701b8f04f5aeb990eb80b1cb025d99e82a1"},{"blockNo":6857383,"slotNo":52768924,"epochNo":319,"epochSlotNo":324124,"hash":"7097f14d767833ea7f6194552d07a786a9f2b7a31643aeeeb93946ab08edf36b","time":"2022/02/08 15:46:55","txCount":34,"totalFees":12266931,"totalOutput":2465902893393,"slotLeader":"52e22df52e90370f639c99f5c760f0cd67d7f871cd0d0764fae47cd9"},{"blockNo":6857382,"slotNo":52768916,"epochNo":319,"epochSlotNo":324116,"hash":"c8d44cee7f07d57444019f974eb94c64b182ded072d6a635979303553a0fb860","time":"2022/02/08 15:46:47","txCount":43,"totalFees":14281769,"totalOutput":3538789262717,"slotLeader":"0775f0139af22e1ebf2c3278598816946e750029b70eace3c5135c3e"}],"totalItems":6857577,"totalPages":342879,"currentPage":0}