{"data":[{"txId":55950855,"txHash":"b9c8b024f0a75906b72d82703dde227115747dd87c83d378d33903b72b4ebafa","txTime":"2022/11/25 05:27:32","block":8057323,"epoch":377,"slotNo":77787761,"epochSlotNo":286961,"stakeKey":"stake1u8cg5tctymentcwkc32ew4tay4kx5cf8pt86jw63ca7j6fglmpn6h"},{"txId":55950544,"txHash":"b7e5e9ea76637079c6692dc4e9edebaea3d8a7edcbb44d21b3336cd428a310f7","txTime":"2022/11/25 05:16:36","block":8057287,"epoch":377,"slotNo":77787105,"epochSlotNo":286305,"stakeKey":"stake1uyj2lkjfndfu4u3vweszg04dh57597teasp6n0fly4n3apclcuw5t"},{"txId":55950268,"txHash":"a89014d9a57281542c5159c15bafddab074fec3c02020b56047a3d1aba6ff4e2","txTime":"2022/11/25 05:07:40","block":8057270,"epoch":377,"slotNo":77786569,"epochSlotNo":285769,"stakeKey":"stake1uxhwvcam0qjlk380083cfydlum950cz6dlte7csn9ek64fgathgx6"},{"txId":55950183,"txHash":"2f5f916bfd040d4058b842655409116556bfdfcf15ba5280e20376219cb0bd8d","txTime":"2022/11/25 05:04:47","block":8057263,"epoch":377,"slotNo":77786396,"epochSlotNo":285596,"stakeKey":"stake1uy08vhc6m368txps3dxqe8eysa7apxdrsz84uup0k29astqyap7tc"},{"txId":55950100,"txHash":"0d6a5a80e73b03cbb13ce691910e23f141963f233bacd98ae9f0d71b9578c56a","txTime":"2022/11/25 05:02:42","block":8057256,"epoch":377,"slotNo":77786271,"epochSlotNo":285471,"stakeKey":"stake1u8hcg8m7smg78utfh5cdey43agsl353grfwgy4us5kjzreqvvgguc"},{"txId":55949944,"txHash":"eebbb20bbbb0ea819ae569e16b414c05b32f10381139e3848ea2e807cfea7821","txTime":"2022/11/25 04:57:17","block":8057237,"epoch":377,"slotNo":77785946,"epochSlotNo":285146,"stakeKey":"stake1uy2qat3sgs820hzjdr25way0zp890hmla53s2xdnsety83qds0hj8"},{"txId":55949828,"txHash":"139dffa4069d08461f2a3c83da51c1947ad4130f3a5f814fc856247022872da9","txTime":"2022/11/25 04:54:12","block":8057228,"epoch":377,"slotNo":77785761,"epochSlotNo":284961,"stakeKey":"stake1uxfa74uvvtkzlumfympxqm2f4fqru8l534wrqy225p9my9s27s0fs"},{"txId":55949801,"txHash":"ac8c2313db2946285a2b699b6261009a0735a826168a927bf2eb46443d55b6c2","txTime":"2022/11/25 04:53:36","block":8057225,"epoch":377,"slotNo":77785725,"epochSlotNo":284925,"stakeKey":"stake1uxyzpz2jxgp5ldxxmw7v36svevg5tyqcmhtgnnglks2uw7s4t497d"},{"txId":55949784,"txHash":"b2084e2a1b8d940e624f21833dd4c9a1334b16dfeb9b79dcaefc9c57b0b7a8a5","txTime":"2022/11/25 04:53:00","block":8057224,"epoch":377,"slotNo":77785689,"epochSlotNo":284889,"stakeKey":"stake1u8d6e4cxvh523ljct9sa2z469vlk4vzv54065yl3yvyn2nqk23tmv"},{"txId":55949746,"txHash":"3621969609da3fba34ce2d417bd944777bd5f22526c1b5831d9366ab2941ef86","txTime":"2022/11/25 04:51:53","block":8057220,"epoch":377,"slotNo":77785622,"epochSlotNo":284822,"stakeKey":"stake1u8t4gx3gay2xhwf6dvwuyq07upjmlcsprdvj4k9fnv4q43q9hdwgj"},{"txId":55949637,"txHash":"fcc9d0b9082e9e8446833762e1b92d0789e30a240aa4f69c31bd80f13508ed24","txTime":"2022/11/25 04:48:39","block":8057202,"epoch":377,"slotNo":77785428,"epochSlotNo":284628,"stakeKey":"stake1u8p0m32zsnmsrrnda5v7mcyke9cde02769wrnlm39ltychs8zu2fj"},{"txId":55949598,"txHash":"1b1d2ffdae8ea433639cda14755eb41fc81b5a043165065d1497080def9f9bb0","txTime":"2022/11/25 04:46:55","block":8057197,"epoch":377,"slotNo":77785324,"epochSlotNo":284524,"stakeKey":"stake1u98jtrj0meq64zal9lmwyqezya7qe9m93g2h7fgymjhtues02trc6"},{"txId":55949449,"txHash":"e4ea5bbed214547df7ce425e493f704377a2605f057c2997e1c2c6fcf763a683","txTime":"2022/11/25 04:42:26","block":8057180,"epoch":377,"slotNo":77785055,"epochSlotNo":284255,"stakeKey":"stake1u9vq6zj9q42ny56axv4yjg0jun0se0r5tur7gqqkqn2nfxqqrusgm"},{"txId":55949439,"txHash":"5236f104e342bf7887d7ebf53d417796ece06ae455b1ec69f6755a1ace95cb09","txTime":"2022/11/25 04:42:09","block":8057178,"epoch":377,"slotNo":77785038,"epochSlotNo":284238,"stakeKey":"stake1uyrylpas8lp8r9ftde85ws9h03as0zkdcenu4qkqrwnve7q20aqp4"},{"txId":55949424,"txHash":"4f1d198f197d67cc26c088b5df93ba2a67eed201d6b4fd4c25759a4720f93b90","txTime":"2022/11/25 04:42:09","block":8057178,"epoch":377,"slotNo":77785038,"epochSlotNo":284238,"stakeKey":"stake1u8vj5nmr2kh73pwvzdwy89q83dtwemftu3wtx9xxxp3gr6gtqnyq7"},{"txId":55949325,"txHash":"4ac4c13dc1721acd6e78aee0a9bdf668e7c5aa55891ae1aea13b055db521a042","txTime":"2022/11/25 04:39:11","block":8057170,"epoch":377,"slotNo":77784860,"epochSlotNo":284060,"stakeKey":"stake1u8t4gx3gay2xhwf6dvwuyq07upjmlcsprdvj4k9fnv4q43q9hdwgj"},{"txId":55949309,"txHash":"2f5ab1ed777cb658d23f9373322c53d472dfca42125d86cf1528b8e0dccf7145","txTime":"2022/11/25 04:38:43","block":8057168,"epoch":377,"slotNo":77784832,"epochSlotNo":284032,"stakeKey":"stake1u8zl4xutyatfcejk66kwxrdvhqt8mdtz6q53d6ffemmvmag07ljxy"},{"txId":55949230,"txHash":"f14566e38f73aa729cd3e167e4c8708b165e1861f60c36b12bd8f22a8f235a16","txTime":"2022/11/25 04:36:32","block":8057164,"epoch":377,"slotNo":77784701,"epochSlotNo":283901,"stakeKey":"stake1u8d6usyhsat7az58tr2y57dat3hh34l8gl0vxjy0t7ktcrq22wc8p"},{"txId":55949132,"txHash":"97462cfe9392222dc29c6ec83556523e51dc5c448f6da4c873864ec74689bd25","txTime":"2022/11/25 04:32:24","block":8057153,"epoch":377,"slotNo":77784453,"epochSlotNo":283653,"stakeKey":"stake1u8zqjguuvhy6eh26xn3dt0cuzgxmanpu2rczmnez8pq73sqjlkvx2"},{"txId":55949030,"txHash":"d731fde0806ed68c5283f8c248179f3b2f904a0886927d63b56c33bde52f291f","txTime":"2022/11/25 04:29:13","block":8057143,"epoch":377,"slotNo":77784262,"epochSlotNo":283462,"stakeKey":"stake1u8tsvdhgq87apurt3x4p9ck5ungzj8g2xgcsmqfqy88veyq92gt3h"}],"totalItems":1610363,"totalPages":80519,"currentPage":0}