{"data":[{"blockNo":8276558,"slotNo":82289100,"epochNo":388,"epochSlotNo":36300,"hash":"436e8a236e67860310b6366e00c02d8303054b3dea25efc075ad0d8aac9af56b","time":"2023/01/16 07:49:51","txCount":3,"totalFees":1428954,"totalOutput":30204424466,"slotLeader":"4ed1c8475cc3e497bbf00a5827266faec51ad9c3cce1b02122b33cba"},{"blockNo":8276557,"slotNo":82289095,"epochNo":388,"epochSlotNo":36295,"hash":"1efa0b2baea0b83ab61337234e4e6239257e529799e5ef57080844ef04912e05","time":"2023/01/16 07:49:46","txCount":6,"totalFees":2084734,"totalOutput":4402130968,"slotLeader":"ad1b6687f605b3543f9315a5f966ea70fc5f35e7b2a4c3a943bef78d"},{"blockNo":8276556,"slotNo":82289088,"epochNo":388,"epochSlotNo":36288,"hash":"e82e943992063913b997fd0050aa5c1f921dc13f7df209efb4cda08b7eb50b6a","time":"2023/01/16 07:49:39","txCount":5,"totalFees":1190526,"totalOutput":18274299348,"slotLeader":"57eb48cdf25980039f087207af09fafb4970018e322d37c11c9a2496"},{"blockNo":8276555,"slotNo":82289066,"epochNo":388,"epochSlotNo":36266,"hash":"2e6d92d7501157501ca0f256808a63d76196c99ef8f265a8de3a18ef46b2dafd","time":"2023/01/16 07:49:17","txCount":37,"totalFees":10635044,"totalOutput":3592221232214,"slotLeader":"266a21992f779be68c1476fab8e9bf1015e7b4c428ee8c3b899f65dd"},{"blockNo":8276554,"slotNo":82289016,"epochNo":388,"epochSlotNo":36216,"hash":"fba7e1bbf5560eb9e92cfadbc35894f511bf40f263ed902da65760cc88fe51df","time":"2023/01/16 07:48:27","txCount":10,"totalFees":2578019,"totalOutput":150520588589,"slotLeader":"3116c834a09b0060aef7284f63d3275456364e3309b3c19ec328af60"},{"blockNo":8276553,"slotNo":82289003,"epochNo":388,"epochSlotNo":36203,"hash":"67668503db962ee0251cd75e7ac6332602d8a0752ef7fe8e1810484a828ddc33","time":"2023/01/16 07:48:14","txCount":15,"totalFees":4564856,"totalOutput":2253997545075,"slotLeader":"0054fc7a4e34f9a1eef15a05fdfc9d323deeb9b72a4b5ec514247e66"},{"blockNo":8276552,"slotNo":82288978,"epochNo":388,"epochSlotNo":36178,"hash":"6ae083adb719d7761d3442420c85bac543cc7b342eb339064f63ca9cc6208fbc","time":"2023/01/16 07:47:49","txCount":8,"totalFees":3023838,"totalOutput":1747210684195,"slotLeader":"d854986d64cb440f9554576eee79542ddd86afa49008f9223da2549e"},{"blockNo":8276551,"slotNo":82288968,"epochNo":388,"epochSlotNo":36168,"hash":"768c4e188380fe8cb093c28bc71672227cbc54923cf83c91f46fcb6db2277d3f","time":"2023/01/16 07:47:39","txCount":47,"totalFees":11542793,"totalOutput":1413541945512,"slotLeader":"639288b5e4bf267ece78e9a4941dd794f50ec54785f84c687b4ab086"},{"blockNo":8276550,"slotNo":82288918,"epochNo":388,"epochSlotNo":36118,"hash":"3ad247efc865a4536db1dc76a0e4c5f1fb55e7a305978893acbdb03869cfede8","time":"2023/01/16 07:46:49","txCount":2,"totalFees":1144064,"totalOutput":4152096724,"slotLeader":"fe59e220d8036bd7533bf393e26abde56ec7d49fa632e57bf696d134"},{"blockNo":8276549,"slotNo":82288915,"epochNo":388,"epochSlotNo":36115,"hash":"774785420701e18a449be7bd626d194e53057a80e2b9142d0b851781ac35307a","time":"2023/01/16 07:46:46","txCount":43,"totalFees":13253878,"totalOutput":2321804091625,"slotLeader":"62c337b473a2e2548ed3cb76002a56bc1305bad95c26c6efd89085af"},{"blockNo":8276548,"slotNo":82288850,"epochNo":388,"epochSlotNo":36050,"hash":"8063fabd04971795b49e7b73db3c3c29fa6bdbab6e675948a86325ac89d50104","time":"2023/01/16 07:45:41","txCount":31,"totalFees":7827325,"totalOutput":781233718364,"slotLeader":"9b9890b811d67ba9e69810581e4fc119ca0c2354adb7cd6ff564b0a3"},{"blockNo":8276547,"slotNo":82288813,"epochNo":388,"epochSlotNo":36013,"hash":"e8f75ef451e6d7f534fa08529b7bcf8d8fb9bbb525d2329c14a1d6fe89f02600","time":"2023/01/16 07:45:04","txCount":2,"totalFees":379182,"totalOutput":1257206305,"slotLeader":"ec6cdcad62633e065be5d96eecea28464144a1827adc0cba98d29a23"},{"blockNo":8276546,"slotNo":82288805,"epochNo":388,"epochSlotNo":36005,"hash":"7e3e9abd3b2fd4f942ecc8fb60c708ba4f44a908507fa85e6a084ee463480b07","time":"2023/01/16 07:44:56","txCount":30,"totalFees":8485902,"totalOutput":1314800626061,"slotLeader":"4a5571be1cb000df524350ef170f73cc0c0404155350dd0f71e4d130"},{"blockNo":8276545,"slotNo":82288749,"epochNo":388,"epochSlotNo":35949,"hash":"9373a57226c7e5feb83617cc5822b385dfcfddca68c2d1ace4c173ca447aef1b","time":"2023/01/16 07:44:00","txCount":4,"totalFees":1379979,"totalOutput":734635915601,"slotLeader":"14cb7963696b6f80abb2298dc60bc2abc7d813abb23ac19c6420bca0"},{"blockNo":8276544,"slotNo":82288744,"epochNo":388,"epochSlotNo":35944,"hash":"5c6b735c16c9837e1d6ecc1abfe9c8bb23362419b12869d6e80f7130ebb70198","time":"2023/01/16 07:43:55","txCount":19,"totalFees":5035155,"totalOutput":711304802844,"slotLeader":"04c60c78417132a195cbb74975346462410f72612952a7c4ade7e438"},{"blockNo":8276543,"slotNo":82288716,"epochNo":388,"epochSlotNo":35916,"hash":"bae34a7dd0497bd101b2ca8072336667b3256a84511135004cbfd9b10093823c","time":"2023/01/16 07:43:27","txCount":10,"totalFees":2859527,"totalOutput":491071458484,"slotLeader":"7277d55c0b15a03495c0f768e71f88470d91772bc90ef0e4bd1a153f"},{"blockNo":8276542,"slotNo":82288702,"epochNo":388,"epochSlotNo":35902,"hash":"8a742992a51fdd2f411cb8ae912ba6f5fb991e052fdbfde89a255d460e629f20","time":"2023/01/16 07:43:13","txCount":10,"totalFees":2660193,"totalOutput":3954851717,"slotLeader":"135605c391fc48beac4460c153b6bb0cfff2e29963920d2fa6b6e656"},{"blockNo":8276541,"slotNo":82288685,"epochNo":388,"epochSlotNo":35885,"hash":"8387643da3e3c4281df24efdbcc3334b2889bc14807eb1abbaa9faa008e8f559","time":"2023/01/16 07:42:56","txCount":2,"totalFees":436799,"totalOutput":32192305960,"slotLeader":"cb87bf12be816ecd5cd6e167442670e4024d85e0005c8623651b371f"},{"blockNo":8276540,"slotNo":82288682,"epochNo":388,"epochSlotNo":35882,"hash":"ec6a1f76f8ad967c1701c0f45d1ca829741859c2b04be3375b57547b1b45f086","time":"2023/01/16 07:42:53","txCount":12,"totalFees":3304612,"totalOutput":1153010706107,"slotLeader":"8f67312cb7927075292fcc986927c986ccdd630a3bae1b52dd4671a4"},{"blockNo":8276539,"slotNo":82288657,"epochNo":388,"epochSlotNo":35857,"hash":"02a97dbb6596d9e2d00113696a910752af042a2b9ec642cc4cf62f6e800aa31e","time":"2023/01/16 07:42:28","txCount":8,"totalFees":2860589,"totalOutput":3713205267243,"slotLeader":"00beef8710427e328a29555283c74b202b40bec9a62630a9f03b1e18"}],"totalItems":8276734,"totalPages":413837,"currentPage":0}