{"data":[{"txId":57552273,"txHash":"7f3321195472a25ec29faee8d0b5da0cefa7964464fa156155c1af1e544e52fe","txTime":"2022/12/16 12:10:25","block":8146887,"epoch":381,"slotNo":79626334,"epochSlotNo":397534,"stakeKey":"stake1u8yvv25g56gcs5xgrje99t2nmsrs6n88m8klvgq6mcz6f2c6hlekf"},{"txId":57552152,"txHash":"0d219ecd13f88482f4304b49e19db975c05846b6e24e356ff8d1201002626d1a","txTime":"2022/12/16 12:07:26","block":8146879,"epoch":381,"slotNo":79626155,"epochSlotNo":397355,"stakeKey":"stake1u82th3y4jg0ax0lysp7t455tgm8asw3w057909ce337p52c0l4ezu"},{"txId":57551850,"txHash":"33fe9adb02bd3703340af3275541d77f7e7ae9e9b96bbf185276e1032a3d1be2","txTime":"2022/12/16 12:00:57","block":8146864,"epoch":381,"slotNo":79625766,"epochSlotNo":396966,"stakeKey":"stake1uystmk5f84u3eegsun0sswvkfqpt8whasdatydrx0qh80pqpw0mxs"},{"txId":57551713,"txHash":"3421d89727fcc4fe16a5415c610e768b1f1ce9b81a43fc1c7f897db06f345b95","txTime":"2022/12/16 11:57:50","block":8146860,"epoch":381,"slotNo":79625579,"epochSlotNo":396779,"stakeKey":"stake1u98705e77ssrnhh3yhukuj0twlvc0whuthzk5u278q0vhtgftg6nl"},{"txId":57551206,"txHash":"8f5e7a0714bb609d76850a19684edc32c40da16748778377d788a03799551214","txTime":"2022/12/16 11:46:24","block":8146843,"epoch":381,"slotNo":79624893,"epochSlotNo":396093,"stakeKey":"stake1u9u7jnh8t4khss7vgk0f08zngw8p27vdka04clhu4y7fsyqcchwmy"},{"txId":57551169,"txHash":"8a469f0ed347b63c65d4af0f88624ea541d2c189021145c4041d9cda66960bb3","txTime":"2022/12/16 11:46:24","block":8146843,"epoch":381,"slotNo":79624893,"epochSlotNo":396093,"stakeKey":"stake1u9f2h4xzje30agpxesax24yhd7gpgfrmq0rdc6g7nmrsswsue9xvl"},{"txId":57550667,"txHash":"ff74487fd62bfcab9a6b04d350f09303f8984d4b899ceaf116bf311f8989a5ff","txTime":"2022/12/16 11:33:26","block":8146812,"epoch":381,"slotNo":79624115,"epochSlotNo":395315,"stakeKey":"stake1uxl7yk6v2vs6qde207kq9dg6tclerp9g7qfm2900swd9wegw9ucq6"},{"txId":57550641,"txHash":"81dc4782f80dfdf7713cc9d933bd4f031b8be18d0a73c854b8613dc4c97931a3","txTime":"2022/12/16 11:31:53","block":8146811,"epoch":381,"slotNo":79624022,"epochSlotNo":395222,"stakeKey":"stake1uyydwj9e6vh553y4pgt5uxqkx9juqhtvxr22regtmgluytsz2w559"},{"txId":57550606,"txHash":"2b1a786541cc1b710a7603bc271a60acfb4683694db825dd94099692d27b6791","txTime":"2022/12/16 11:30:34","block":8146804,"epoch":381,"slotNo":79623943,"epochSlotNo":395143,"stakeKey":"stake1ux40jnhvpx52pz0ruyv5kzfnjlcpwc3f5365n6lvclwmf0snswlt6"},{"txId":57550585,"txHash":"12a0762575abf6627a29b48636f187eb26e2af73b36f57515ab54b930475db96","txTime":"2022/12/16 11:30:22","block":8146803,"epoch":381,"slotNo":79623931,"epochSlotNo":395131,"stakeKey":"stake1uxdvuagrmrje3tv0gd5xzxsd67rwuff9dp9k8c6350r5r4spmhpkt"},{"txId":57550535,"txHash":"2fbf4985eb6928017e24a6e9f05bfec8c36a32b730ffdf6a42c8e20e06932514","txTime":"2022/12/16 11:29:21","block":8146801,"epoch":381,"slotNo":79623870,"epochSlotNo":395070,"stakeKey":"stake1uy3v8zx3t3ajg4ayn0zgyldm7jm83wx4tth9ujs6t4cxdzccxzm0d"},{"txId":57550530,"txHash":"04d888cf418e99748257e9d1c016ed1ea8b966b1f078439837df669398467dc1","txTime":"2022/12/16 11:28:17","block":8146800,"epoch":381,"slotNo":79623806,"epochSlotNo":395006,"stakeKey":"stake1uy4m589gev0erwuar4n30lr3zrna7qhdppcy4qyzfme5yvctewhf2"},{"txId":57550406,"txHash":"75f2a7a5dee81f7c59ed3778d4b866d19cedbe2d1a67c1bf5edab2a4bbe76eac","txTime":"2022/12/16 11:25:11","block":8146793,"epoch":381,"slotNo":79623620,"epochSlotNo":394820,"stakeKey":"stake1uy6tvu6dvj67z4pzk973utvqwzm0ns080g4p4s6skezf82glmp9p7"},{"txId":57550405,"txHash":"d912ec73e718cd837ab3cd6b1a612f3e0bc83d481148193e321642b99da24ed4","txTime":"2022/12/16 11:25:11","block":8146793,"epoch":381,"slotNo":79623620,"epochSlotNo":394820,"stakeKey":"stake1uy300hn2xr249ta6tsthgkj83deyru3s5s47xezeqcvw9vq6mwkn0"},{"txId":57550248,"txHash":"2291a08a705b7e03ad4cfa2dd37c56669150ecbf66331012a78a6a33c0901b56","txTime":"2022/12/16 11:21:18","block":8146786,"epoch":381,"slotNo":79623387,"epochSlotNo":394587,"stakeKey":"stake1u8qj3hl78unclxffsnrfyd9nu2gpl97r5vlfxdm3ucqjukcs4jhf4"},{"txId":57550237,"txHash":"600f21cef31b3fdf8f2ec5be71de4aca802a90fadd7da36e6ee21dbdde8cbaa1","txTime":"2022/12/16 11:20:48","block":8146785,"epoch":381,"slotNo":79623357,"epochSlotNo":394557,"stakeKey":"stake1ux4xulxksv6q3kqw6wkuttn040jctgcthvznkaqapxngptspkjdj2"},{"txId":57550101,"txHash":"9c7139576db3718dd287965dffd507d9a83f32d31a5da58524d6a96cd09fddc5","txTime":"2022/12/16 11:16:46","block":8146774,"epoch":381,"slotNo":79623115,"epochSlotNo":394315,"stakeKey":"stake1u9smmjwqf72hmmuphv0cacjhf39a9phhn8au8nqn23zgttqxcrg04"},{"txId":57550061,"txHash":"18856f4bb9406db3babb8ad7460b523a18ebc0a493352c2dbcccda5b6d85a102","txTime":"2022/12/16 11:16:11","block":8146772,"epoch":381,"slotNo":79623080,"epochSlotNo":394280,"stakeKey":"stake1uydmceveummjyj75vjwp32w986x3ugw2uxygvs5qrdlvxzgxdgn6k"},{"txId":57549810,"txHash":"e443091b21b85c450f49b7d02699710b7e9614780b355e96d88a3e78dbbe9773","txTime":"2022/12/16 11:09:51","block":8146753,"epoch":381,"slotNo":79622700,"epochSlotNo":393900,"stakeKey":"stake1u8qa362s976htq9qxh9nuqyh6fvmhvmazx0y5qmqflc69pqswsqx3"},{"txId":57549744,"txHash":"0ae59d69cb7cd540835d7babe79fcf58c805c1defdee5e75683ab8a9c130c22b","txTime":"2022/12/16 11:08:17","block":8146742,"epoch":381,"slotNo":79622606,"epochSlotNo":393806,"stakeKey":"stake1uycw83sv5hwhytalqehe4nzh0qk7tg4ajhcu08vze0anf7glqtvnd"}],"totalItems":1624695,"totalPages":81235,"currentPage":0}