{"data":[{"hash":"136728427ea55d80a50d834de7a2b8978e8559e35aa9e34fcefb6108d92c3ada","blockNo":7962648,"blockHash":"87d5ab4807e43a4c9a85dc2e8fe3a213ec47fc63c1a5a37a5155b0d5613de3d4","epochNo":373,"epochSlotNo":54323,"slot":75827123,"time":"2022/11/02 12:50:14","addressesInput":["addr1q8fcxsafcmk7rdl08ecn6cq0zrla7u82gzma2n4vsvlcjclqut67g5y2vp6eyrfkjdeelure84lnme4zqjgpxde76jyqs9cwp4"],"addressesOutput":["addr1zxgx3far7qygq0k6epa0zcvcvrevmn0ypsnfsue94nsn3tvpw288a4x0xf8pxgcntelxmyclq83s0ykeehchz2wtspks905plm","addr1q9vuzfv9e7c02dwurkvqwaxfh7uz6r9a5xay6keh5fy8qkhqut67g5y2vp6eyrfkjdeelure84lnme4zqjgpxde76jyq03vcdu"],"fee":425541,"totalOutput":38721340,"tokens":[]},{"hash":"db7751bbc7650ea39c60e16c99ab3ced60b0d71eed67bcfcedfc60edc37fe62e","blockNo":7962648,"blockHash":"87d5ab4807e43a4c9a85dc2e8fe3a213ec47fc63c1a5a37a5155b0d5613de3d4","epochNo":373,"epochSlotNo":54323,"slot":75827123,"time":"2022/11/02 12:50:14","addressesInput":["addr1vyht4ja0zcn45qvyx477qlyp6j5ftu5ng0prt9608dxp6lgpnh5ft","addr1wxn9efv2f6w82hagxqtn62ju4m293tqvw0uhmdl64ch8uwc0h43gt","addr1z8snz7c4974vzdpxu65ruphl3zjdvtxw8strf2c2tmqnxz2j2c79gy9l76sdg0xwhd7r0c0kna0tycz4y5s6mlenh8pq0xmsha","addr1vyht4ja0zcn45qvyx477qlyp6j5ftu5ng0prt9608dxp6lgpnh5ft"],"addressesOutput":["addr1vyht4ja0zcn45qvyx477qlyp6j5ftu5ng0prt9608dxp6lgpnh5ft","addr1vyht4ja0zcn45qvyx477qlyp6j5ftu5ng0prt9608dxp6lgpnh5ft","addr1q975s4zn694c0xd3d4kg2sa2uaaf4e764sgfj4a9zqex9avupkz2j66uwdvpadp8vrrdrvwdduu3jnzv8d078ygupvyqr2k8p8","addr1z8snz7c4974vzdpxu65ruphl3zjdvtxw8strf2c2tmqnxz2j2c79gy9l76sdg0xwhd7r0c0kna0tycz4y5s6mlenh8pq0xmsha"],"fee":799390,"totalOutput":411574450662,"tokens":[]},{"hash":"f0c2f504651065148101eac25e3c25e8ac0582225329f908ce7f680910ab79f8","blockNo":7962648,"blockHash":"87d5ab4807e43a4c9a85dc2e8fe3a213ec47fc63c1a5a37a5155b0d5613de3d4","epochNo":373,"epochSlotNo":54323,"slot":75827123,"time":"2022/11/02 12:50:14","addressesInput":["addr1q8yj8aqhyhfzwhqgsx893y90jv6zax7t592un6crjlllhu3n6fx6d62s9errc592h2uwc8uf8u2lk2cxj4sqnkzzxmxs58knsm"],"addressesOutput":["addr1q9wyf093za0erc0rhpwpv2f2d74ptv4nux724gp4l0twac3n6fx6d62s9errc592h2uwc8uf8u2lk2cxj4sqnkzzxmxsp0nqr5","addr1q9wyf093za0erc0rhpwpv2f2d74ptv4nux724gp4l0twac3n6fx6d62s9errc592h2uwc8uf8u2lk2cxj4sqnkzzxmxsp0nqr5","addr1q9wyf093za0erc0rhpwpv2f2d74ptv4nux724gp4l0twac3n6fx6d62s9errc592h2uwc8uf8u2lk2cxj4sqnkzzxmxsp0nqr5","addr1q9wyf093za0erc0rhpwpv2f2d74ptv4nux724gp4l0twac3n6fx6d62s9errc592h2uwc8uf8u2lk2cxj4sqnkzzxmxsp0nqr5","addr1q89z2n3887pmvz9g4j07t7f66kh329w34dzl3vlpa4jv9fen6fx6d62s9errc592h2uwc8uf8u2lk2cxj4sqnkzzxmxs6d5h2j"],"fee":176897,"totalOutput":248056765,"tokens":[]},{"hash":"90c34c72fc1ee441283a489fcedbde1276a5a19b166bfdf15e820f19575778ec","blockNo":7962648,"blockHash":"87d5ab4807e43a4c9a85dc2e8fe3a213ec47fc63c1a5a37a5155b0d5613de3d4","epochNo":373,"epochSlotNo":54323,"slot":75827123,"time":"2022/11/02 12:50:14","addressesInput":["addr1q8zyy0vkyqde2k8x48dweurtxqjr3nv7tjlspemrld3760sugacwzsm7kdsqydeyugcd5avsuuhfsk8xlegx77udrp2q39dlzr","addr1q8zyy0vkyqde2k8x48dweurtxqjr3nv7tjlspemrld3760sugacwzsm7kdsqydeyugcd5avsuuhfsk8xlegx77udrp2q39dlzr"],"addressesOutput":["addr1vygya6lwgg52zuw4u8cqdz7wm3tv9a204fuugdff3msmd3sc4g5fj","addr1q8zyy0vkyqde2k8x48dweurtxqjr3nv7tjlspemrld3760sugacwzsm7kdsqydeyugcd5avsuuhfsk8xlegx77udrp2q39dlzr","addr1q8zyy0vkyqde2k8x48dweurtxqjr3nv7tjlspemrld3760sugacwzsm7kdsqydeyugcd5avsuuhfsk8xlegx77udrp2q39dlzr"],"fee":189129,"totalOutput":16357121,"tokens":[]},{"hash":"30ec2c426350566df0e3451fdcd7e10a6a87a242246d813f4353b5959ab8ee25","blockNo":7962648,"blockHash":"87d5ab4807e43a4c9a85dc2e8fe3a213ec47fc63c1a5a37a5155b0d5613de3d4","epochNo":373,"epochSlotNo":54323,"slot":75827123,"time":"2022/11/02 12:50:14","addressesInput":["addr1qx5r680w6drydvdse6a68a99rqdefu08h9n67v90jmv65dv8hxf8jee4rgzvk7xj486p3f0depy4qyn3004ltcnd7hkq2fkf29","addr1w999n67e86jn6xal07pzxtrmqynspgx0fwmcmpua4wc6yzsxpljz3"],"addressesOutput":["addr1w999n67e86jn6xal07pzxtrmqynspgx0fwmcmpua4wc6yzsxpljz3","addr1qy8esej35f7ku6el5vqwmh2875rj2typx7gf6rm88c3y3758hxf8jee4rgzvk7xj486p3f0depy4qyn3004ltcnd7hkqus4hnr","addr1qy8esej35f7ku6el5vqwmh2875rj2typx7gf6rm88c3y3758hxf8jee4rgzvk7xj486p3f0depy4qyn3004ltcnd7hkqus4hnr"],"fee":501645,"totalOutput":53229942,"tokens":[]},{"hash":"91d07e88d5d1945f1283ce05db513703148b2294b513c7bdb7c8a42bbaabcaf6","blockNo":7962648,"blockHash":"87d5ab4807e43a4c9a85dc2e8fe3a213ec47fc63c1a5a37a5155b0d5613de3d4","epochNo":373,"epochSlotNo":54323,"slot":75827123,"time":"2022/11/02 12:50:14","addressesInput":["addr1qx39cuy9tsm8829qwukh2nsfq2vds00u7t57v3d9lan2mye2sh7qtqy4naj3a8rclf9dtqftrzm22cdkeu493gwr55vsamhfxe"],"addressesOutput":["addr1qytjkukqpq0p9ng7ewfl9ff0sgldalzk7v4f356g0xdmznch9devqzq7ztx3ajun72jjlq37mm79due2nrf5s7vmk98s473c74","addr1qx39cuy9tsm8829qwukh2nsfq2vds00u7t57v3d9lan2mye2sh7qtqy4naj3a8rclf9dtqftrzm22cdkeu493gwr55vsamhfxe"],"fee":168317,"totalOutput":866504114,"tokens":[]},{"hash":"921dd85798ee02a63ac00c924142a4a482d4caf2063d3fe6f5ce0ff462b4f851","blockNo":7962648,"blockHash":"87d5ab4807e43a4c9a85dc2e8fe3a213ec47fc63c1a5a37a5155b0d5613de3d4","epochNo":373,"epochSlotNo":54323,"slot":75827123,"time":"2022/11/02 12:50:14","addressesInput":["addr1qycrhv7pwy4q8muunxjrph766w60u88u5hcd5pftjftt4dwn4d9nv26mgwr3pa85xdxvp8fsuyww9p0kg3a008hk945shwu6w7"],"addressesOutput":["addr1q90t3tk3xfgu9rmcjmrfydwaa5kk7334ywpseh0pguvzx7qrj58dek70f8lx9ergcr9fgwx3xy4z7vjcehj2snhwgf9sy2ycgl","addr1q8r4rdelhwfdduj6n6nklyqse7l7hpev57x9wpx7yzad0rxn4d9nv26mgwr3pa85xdxvp8fsuyww9p0kg3a008hk945s54r5de"],"fee":234361,"totalOutput":455919668,"tokens":[]},{"hash":"ac63a6b9c5c63b694a48f80ee36df09256adc2b10a688058cf52c4a785d19459","blockNo":7962647,"blockHash":"7b5502be2cdcd0befc808df7593f83892ea832b77343b05efc2efc08faffa274","epochNo":373,"epochSlotNo":54319,"slot":75827119,"time":"2022/11/02 12:50:10","addressesInput":["addr1qxl5p9ja6ydmuh3pr4ycj6u6sgnwpcage73rnmtsz4g55eky25ea8zy85wk08kxlsrp827vkcfmeht9zthvaptfhezpsktlm9y","addr1qxl5p9ja6ydmuh3pr4ycj6u6sgnwpcage73rnmtsz4g55eky25ea8zy85wk08kxlsrp827vkcfmeht9zthvaptfhezpsktlm9y","addr1qxl5p9ja6ydmuh3pr4ycj6u6sgnwpcage73rnmtsz4g55eky25ea8zy85wk08kxlsrp827vkcfmeht9zthvaptfhezpsktlm9y"],"addressesOutput":["addr1zxgx3far7qygq0k6epa0zcvcvrevmn0ypsnfsue94nsn3tvpw288a4x0xf8pxgcntelxmyclq83s0ykeehchz2wtspks905plm","addr1qxl5p9ja6ydmuh3pr4ycj6u6sgnwpcage73rnmtsz4g55eky25ea8zy85wk08kxlsrp827vkcfmeht9zthvaptfhezpsktlm9y","addr1qxl5p9ja6ydmuh3pr4ycj6u6sgnwpcage73rnmtsz4g55eky25ea8zy85wk08kxlsrp827vkcfmeht9zthvaptfhezpsktlm9y"],"fee":227277,"totalOutput":7795109,"tokens":[]},{"hash":"cd43ea942cf675c73400bf90499b8643e3d24886703c96b2cdce2ca6917ad6e9","blockNo":7962647,"blockHash":"7b5502be2cdcd0befc808df7593f83892ea832b77343b05efc2efc08faffa274","epochNo":373,"epochSlotNo":54319,"slot":75827119,"time":"2022/11/02 12:50:10","addressesInput":["addr1qydjcq6kvg29t75fpan9ph7dg4jtuts98dzzgc2txxykyxzpc4pj45nd4da6ezkwls9ztfmdghju6ppxmw84xvxr9rqqlsqyes","addr1qydjcq6kvg29t75fpan9ph7dg4jtuts98dzzgc2txxykyxzpc4pj45nd4da6ezkwls9ztfmdghju6ppxmw84xvxr9rqqlsqyes","addr1qydjcq6kvg29t75fpan9ph7dg4jtuts98dzzgc2txxykyxzpc4pj45nd4da6ezkwls9ztfmdghju6ppxmw84xvxr9rqqlsqyes","addr1qydjcq6kvg29t75fpan9ph7dg4jtuts98dzzgc2txxykyxzpc4pj45nd4da6ezkwls9ztfmdghju6ppxmw84xvxr9rqqlsqyes","addr1qydjcq6kvg29t75fpan9ph7dg4jtuts98dzzgc2txxykyxzpc4pj45nd4da6ezkwls9ztfmdghju6ppxmw84xvxr9rqqlsqyes","addr1qydjcq6kvg29t75fpan9ph7dg4jtuts98dzzgc2txxykyxzpc4pj45nd4da6ezkwls9ztfmdghju6ppxmw84xvxr9rqqlsqyes","addr1qydjcq6kvg29t75fpan9ph7dg4jtuts98dzzgc2txxykyxzpc4pj45nd4da6ezkwls9ztfmdghju6ppxmw84xvxr9rqqlsqyes"],"addressesOutput":["addr1zyq0kyrml023kwjk8zr86d5gaxrt5w8lxnah8r6m6s4jp4g3r6dxnzml343sx8jweqn4vn3fz2kj8kgu9czghx0jrsyqqktyhv","addr1q9ad5mud938r7l24eaac4v57ydlj72hazgprts9f7daaz09mm95jvs5h94099yglxr7v6ug6pp43780huy040lm4utmqx8g5eu","addr1qydjcq6kvg29t75fpan9ph7dg4jtuts98dzzgc2txxykyxzpc4pj45nd4da6ezkwls9ztfmdghju6ppxmw84xvxr9rqqlsqyes","addr1qydjcq6kvg29t75fpan9ph7dg4jtuts98dzzgc2txxykyxzpc4pj45nd4da6ezkwls9ztfmdghju6ppxmw84xvxr9rqqlsqyes","addr1qydjcq6kvg29t75fpan9ph7dg4jtuts98dzzgc2txxykyxzpc4pj45nd4da6ezkwls9ztfmdghju6ppxmw84xvxr9rqqlsqyes"],"fee":858458,"totalOutput":90040561,"tokens":[]},{"hash":"a9163f86a1a31ece46715d78742396c8b755740274b704b9b294f9dfa4c1be39","blockNo":7962647,"blockHash":"7b5502be2cdcd0befc808df7593f83892ea832b77343b05efc2efc08faffa274","epochNo":373,"epochSlotNo":54319,"slot":75827119,"time":"2022/11/02 12:50:10","addressesInput":["addr1v9nudmgn6lqefaedktxg0rrlqsjdxma2uw9my66vcnp8lngkzrt8k","addr1v9nudmgn6lqefaedktxg0rrlqsjdxma2uw9my66vcnp8lngkzrt8k","addr1v9nudmgn6lqefaedktxg0rrlqsjdxma2uw9my66vcnp8lngkzrt8k"],"addressesOutput":["addr1q9axxv900emjl29hywqtee7jua7knt445anghaj6yv8u5psyv0690vtwzc23ve2nvkhmvxjee7jufpd2dg0lusdgwpxq4526q8","addr1v9nudmgn6lqefaedktxg0rrlqsjdxma2uw9my66vcnp8lngkzrt8k","addr1v9nudmgn6lqefaedktxg0rrlqsjdxma2uw9my66vcnp8lngkzrt8k"],"fee":175841,"totalOutput":3492553875,"tokens":[]},{"hash":"8b5e40e808277160e099856a409581173da96767ac82a092eac1e7afac3151ce","blockNo":7962647,"blockHash":"7b5502be2cdcd0befc808df7593f83892ea832b77343b05efc2efc08faffa274","epochNo":373,"epochSlotNo":54319,"slot":75827119,"time":"2022/11/02 12:50:10","addressesInput":["addr1q9rfmry9aujs9f7rw5tkkwvat6yjz6v98eta03edntyv3ecr8mz8k8npg4h5v3xavn2mnx26x3e5m20cmcfq5nmvf2gq6lsq4n"],"addressesOutput":["addr1zxgx3far7qygq0k6epa0zcvcvrevmn0ypsnfsue94nsn3tvpw288a4x0xf8pxgcntelxmyclq83s0ykeehchz2wtspks905plm","addr1q9rfmry9aujs9f7rw5tkkwvat6yjz6v98eta03edntyv3ecr8mz8k8npg4h5v3xavn2mnx26x3e5m20cmcfq5nmvf2gq6lsq4n"],"fee":325749,"totalOutput":23462781,"tokens":[]},{"hash":"8c098794966c33d57f1d4ffa662031c8e7e9ce5334af506f017231f2fab39fdd","blockNo":7962647,"blockHash":"7b5502be2cdcd0befc808df7593f83892ea832b77343b05efc2efc08faffa274","epochNo":373,"epochSlotNo":54319,"slot":75827119,"time":"2022/11/02 12:50:10","addressesInput":["addr1qy2hf7lt5p987jf28vx0rgjpcudwmg56t6de57eafwe8rncpkrvk44knv8ghvmjvkf4dya9rx56jdm6cycauwa7h7ans4luvvm"],"addressesOutput":["addr1v9xu0r3a80ce0h6sjqruzk0gh5rdzgq9el3tq8rjg9uf95qzkpvcx","addr1qyy0lwrmyt7zz5ptfm307eng54je4l784ms2alum2pattdgpkrvk44knv8ghvmjvkf4dya9rx56jdm6cycauwa7h7ansj9c45q"],"fee":167965,"totalOutput":137832035,"tokens":[]},{"hash":"69ab68e766e25c6e36914d2ea0033220cad681e8a408941506fa6aa0f3439859","blockNo":7962647,"blockHash":"7b5502be2cdcd0befc808df7593f83892ea832b77343b05efc2efc08faffa274","epochNo":373,"epochSlotNo":54319,"slot":75827119,"time":"2022/11/02 12:50:10","addressesInput":["addr1qys3prj2k5wrgvk8csdednfrz9jucs65klu96dqzdcrtta6czu3g7u28h7u8kr80az6x2qs5kq7cltxs94jsqyneg0ss0uu8nv","addr1qys3prj2k5wrgvk8csdednfrz9jucs65klu96dqzdcrtta6czu3g7u28h7u8kr80az6x2qs5kq7cltxs94jsqyneg0ss0uu8nv"],"addressesOutput":["addr1zxgx3far7qygq0k6epa0zcvcvrevmn0ypsnfsue94nsn3tvpw288a4x0xf8pxgcntelxmyclq83s0ykeehchz2wtspks905plm","addr1qys3prj2k5wrgvk8csdednfrz9jucs65klu96dqzdcrtta6czu3g7u28h7u8kr80az6x2qs5kq7cltxs94jsqyneg0ss0uu8nv"],"fee":1008856,"totalOutput":4439300,"tokens":[]},{"hash":"13ca1ace383ebb0cbdf1118e6cb019ba84736f2b8bd11ecb038f1c289408e634","blockNo":7962647,"blockHash":"7b5502be2cdcd0befc808df7593f83892ea832b77343b05efc2efc08faffa274","epochNo":373,"epochSlotNo":54319,"slot":75827119,"time":"2022/11/02 12:50:10","addressesInput":["addr1q9phfjzqhcndne6chkxvtwt209n4335ghy0389mp5jfh3gyhry659z5gnwn04r2as2hy9m4uuqvlhjm0gm7r9dd7j65s7tsfxa"],"addressesOutput":["addr1qxpsna93xfe0zvqp4pcg0e47xwn9v7zek6qqt397j0anq0pgerhy5r4pfvx77y2vfsag8z8llghgc2w5l0shaxexxqqsuvvj8y","addr1q9phfjzqhcndne6chkxvtwt209n4335ghy0389mp5jfh3gyhry659z5gnwn04r2as2hy9m4uuqvlhjm0gm7r9dd7j65s7tsfxa"],"fee":168317,"totalOutput":419682222,"tokens":[]},{"hash":"7678ce576fd650111ed5a65a8caf2d69bd7dd71a73da2cbc934000f0ef2e28ed","blockNo":7962647,"blockHash":"7b5502be2cdcd0befc808df7593f83892ea832b77343b05efc2efc08faffa274","epochNo":373,"epochSlotNo":54319,"slot":75827119,"time":"2022/11/02 12:50:10","addressesInput":["addr1q9fmhd0nnyu6ajg86vlelyjeylys72wuy0sgv4pp9avz05hjk958aq797vl05phq8vgwajlak64k8x6xc37n0necplqqyd6q0f","addr1q9kxj3sa0dc82upakd9v7fw2c4zpccefn08uyz6rd05t4mljk958aq797vl05phq8vgwajlak64k8x6xc37n0necplqqge7nqa","addr1zxgx3far7qygq0k6epa0zcvcvrevmn0ypsnfsue94nsn3tvpw288a4x0xf8pxgcntelxmyclq83s0ykeehchz2wtspks905plm"],"addressesOutput":["addr1zxgx3far7qygq0k6epa0zcvcvrevmn0ypsnfsue94nsn3tvpw288a4x0xf8pxgcntelxmyclq83s0ykeehchz2wtspks905plm","addr1q9kxj3sa0dc82upakd9v7fw2c4zpccefn08uyz6rd05t4mljk958aq797vl05phq8vgwajlak64k8x6xc37n0necplqqge7nqa"],"fee":978370,"totalOutput":2624790,"tokens":[]},{"hash":"7c3540a0a100f515090c631d1230c29e4489c4ca4ffb6f2635d1a2b7297361e2","blockNo":7962647,"blockHash":"7b5502be2cdcd0befc808df7593f83892ea832b77343b05efc2efc08faffa274","epochNo":373,"epochSlotNo":54319,"slot":75827119,"time":"2022/11/02 12:50:10","addressesInput":["addr1qy3fgss7zx8xrymy5yywu0sgmjy5j6ygez9500rvdvm3ut3n32q9uzq80q8vg2y9k0st7y6hhhgsjddzpu8095qqrjxqyn70uw","addr1qy3fgss7zx8xrymy5yywu0sgmjy5j6ygez9500rvdvm3ut3n32q9uzq80q8vg2y9k0st7y6hhhgsjddzpu8095qqrjxqyn70uw"],"addressesOutput":["addr1zxgx3far7qygq0k6epa0zcvcvrevmn0ypsnfsue94nsn3tvpw288a4x0xf8pxgcntelxmyclq83s0ykeehchz2wtspks905plm","addr1qy3fgss7zx8xrymy5yywu0sgmjy5j6ygez9500rvdvm3ut3n32q9uzq80q8vg2y9k0st7y6hhhgsjddzpu8095qqrjxqyn70uw"],"fee":293409,"totalOutput":11525453,"tokens":[]},{"hash":"4c24495060f2fa9b9ee3a856beb451aa2ce00c3d38dc0b31bd20dcf7b8755f4e","blockNo":7962647,"blockHash":"7b5502be2cdcd0befc808df7593f83892ea832b77343b05efc2efc08faffa274","epochNo":373,"epochSlotNo":54319,"slot":75827119,"time":"2022/11/02 12:50:10","addressesInput":["addr1vyhg8q57f7wqer6awjdelc6dmurjfw2rme2r6cpx0d0unacrze8dp"],"addressesOutput":["addr1qyfsyqml0jtwpa0e0mjlkyqp3mt9s0fvpd8rgmjg858qky8wtxf2xc0ezk3mjl0c9z0e858jn37trgntl68pvmxzg4hq4dj9qt","addr1vxrmu3m2cc5k6xltupj86a2uzcuq8r4nhznrhfq0pkwl4hgqj2v8w","addr1q8y9pw3nxwk0sf5y9ssnat6hyqk5ewkjvw2rpne9appuz860wzxplu42zqhvynk7en7x2ug8nna9e6t6448lw3qea4ms60acl8"],"fee":208709,"totalOutput":24791291,"tokens":[]},{"hash":"cac3d8812f253fbe8f1ee584ec58fa8c7d225df84d1031dc4b7cc7fe31598acd","blockNo":7962647,"blockHash":"7b5502be2cdcd0befc808df7593f83892ea832b77343b05efc2efc08faffa274","epochNo":373,"epochSlotNo":54319,"slot":75827119,"time":"2022/11/02 12:50:10","addressesInput":["addr1q9g8hpckj8pmhn45v30wkrqfnnkfftamja3y9tcyjrg44cl0wk8n4atdnas8krf94kulzdqsltujm5gzas8rgel2uw0sjk4gt8","addr1q9g8hpckj8pmhn45v30wkrqfnnkfftamja3y9tcyjrg44cl0wk8n4atdnas8krf94kulzdqsltujm5gzas8rgel2uw0sjk4gt8","addr1q9g8hpckj8pmhn45v30wkrqfnnkfftamja3y9tcyjrg44cl0wk8n4atdnas8krf94kulzdqsltujm5gzas8rgel2uw0sjk4gt8","addr1q9g8hpckj8pmhn45v30wkrqfnnkfftamja3y9tcyjrg44cl0wk8n4atdnas8krf94kulzdqsltujm5gzas8rgel2uw0sjk4gt8"],"addressesOutput":["addr1zxgx3far7qygq0k6epa0zcvcvrevmn0ypsnfsue94nsn3tvpw288a4x0xf8pxgcntelxmyclq83s0ykeehchz2wtspks905plm","addr1q9g8hpckj8pmhn45v30wkrqfnnkfftamja3y9tcyjrg44cl0wk8n4atdnas8krf94kulzdqsltujm5gzas8rgel2uw0sjk4gt8","addr1q9g8hpckj8pmhn45v30wkrqfnnkfftamja3y9tcyjrg44cl0wk8n4atdnas8krf94kulzdqsltujm5gzas8rgel2uw0sjk4gt8"],"fee":226221,"totalOutput":52515543,"tokens":[]},{"hash":"b573bf169ee93ca57545672aaf9cb9c153894a3c2dc3c178203e10ce6d8fd465","blockNo":7962647,"blockHash":"7b5502be2cdcd0befc808df7593f83892ea832b77343b05efc2efc08faffa274","epochNo":373,"epochSlotNo":54319,"slot":75827119,"time":"2022/11/02 12:50:10","addressesInput":["addr1vy24qsqnex4twu40zpz6p6ypuxfhhn0qk3lx4u3mvs07dtg0gsmex"],"addressesOutput":["addr1qxpues2e2emvpfrwjlcpcz4vx65jqmzltc28fx52m948qlgs98qvcsreqptjwmhd3eeyawqcv7r0tgqwngr4r89tgwrqdwdnp6","addr1v9u7va2sktlnz8dp3qadpnxxlv4m03672jy6elmntlxxs7q9nnwl9"],"fee":171221,"totalOutput":2237828779,"tokens":[]},{"hash":"a2c33d71074cb1723f99b4e6afccddc4fed23150802d3a8dcf192c8b52e0e35a","blockNo":7962647,"blockHash":"7b5502be2cdcd0befc808df7593f83892ea832b77343b05efc2efc08faffa274","epochNo":373,"epochSlotNo":54319,"slot":75827119,"time":"2022/11/02 12:50:10","addressesInput":["addr1wxje849hq4nmnqs8u3s3tdhyjum7sw4y9j29hlmh6x944cg7xdmn6","addr1vx9c5n540jka9c7zyzsz8wmakgthlk8vzjns8ufcf35kfzc4duulv","addr1w9xc5279jqxql020jp295d377nqrms826gnhgqxt5g5m9dqlfqf3f","addr1w9zsdakg8mwjeclyzlycn62t4nuvwx6a5ggytcghdn7cvugz5kz5u","addr1wyez88j3n284puhedanu0kw7dmuxg3yzpw3xhuetlk0ygvs2qvqq3","addr1vy3qpx09uscywhppj5vp08hu0ekg9zwmq2ysfq6qyh2mpps865j6t","addr1wypwdjfmenh36445uvwctz6ss3nxnqp3ejczyjwpqqptj2c2apyl9","addr1w87htgdnp0ne97hf77sts3uznzwxpldpn4khx5qlrnh8vhsa8wz6n","addr1w828m0rdlumnp30dwmv33l4akzhxcpx7a64tuvjwhjn7pxgngjrpx","addr1wxkajet4zhhuylr6475ykqerll0gl8x8v8kgmnrpxt2vrwq2eh67y","addr1wxugd4ufxmtrnh9jz28543daw9plce3x3nmcnamj5appugcpv2jrq","addr1vxdf47ahjag8544dr0stwmswxv07sve6fmq9ex68l3zd3jsdmu747","addr1v8pr9mwnqarw808gtllvmlxvk70hnszrukjeqfstr9t9g5crud8c4","addr1w835n68qeax023uperwgwlruk3d8yjl4k98r433nhw5waqgkx8prf","addr1w80k8xe6vckm3qgklhw98tqjekfvw3mgwux3stmtq3jlprga3u33c","addr1wxcpjfdxav75dfr2m653l2pf38q5juwz8fst6v5sqdcjsns74jyxe","addr1w8vh8ssekk52ye3pt7a2j8upv3qphzmar2sj68353xds9lq5urex7","addr1w8usfr3avzl8qh5wm9wcy8uv7cr800ft5vjz5dw3pxeh8fgdp6e6r","addr1v9ucm276z2lhpn7lx84hexqq6dl79rf35m5675wm0jpauqsppaa6w","addr1wxfy7dlg4u7uzce0930uuqxlkdk0xwm5hxejz896dxjkrcslntswa","addr1w8dmtwktj7lktd0zv0wpxuny590ndshmj3z8xxmq3tjyvdggs35jy","addr1wxgg25t3tk30jqzl2elqz94lzgmr8a9c9m5z902ds5sjh0g7uaj8z","addr1w92fpglpvanf795jm76q0nskx0tu6z5jpqph4n8dzvksyfcrtkfwy","addr1v949kj54fhxct0t7kpm8xvkc9haqg5mh0tqwx5yt7wzfyasdec3h4"],"addressesOutput":["addr1vy3qpx09uscywhppj5vp08hu0ekg9zwmq2ysfq6qyh2mpps865j6t","addr1v8pr9mwnqarw808gtllvmlxvk70hnszrukjeqfstr9t9g5crud8c4","addr1q8hjug2z7cpzgrpqwypka8y0ee9q2rljqae9pk5eq54uynl8h0hrnq7ya5ca5yezqejugwj5gp0egv9pwqz82yt2p7dsq2nrk3","addr1q8q3wppamce9vk7gugd9rv2nkyv2qlpx9hql98z3zf5hc0f87dmac9epukrq5hgx94tmmfunj5xra7kzdk2576fs7x4qwunwaz","addr1q9ew6eu2pt82kvvesaavltrt648rpklqdjq2938xs6pg4vcvte90wcmc77u454s05y87lv86n2l6ecdjkptw2qaap8asu7r9kg","addr1q80jkfg8mnr6pz568xhsp4gq80sxvfcxerewzmqr07yhg24j9482hrr2hwffvguw3ukpy4h30mm4rp4ynlla7q9av4fsa7rk83","addr1w9xc5279jqxql020jp295d377nqrms826gnhgqxt5g5m9dqlfqf3f","addr1wxkajet4zhhuylr6475ykqerll0gl8x8v8kgmnrpxt2vrwq2eh67y","addr1w92fpglpvanf795jm76q0nskx0tu6z5jpqph4n8dzvksyfcrtkfwy","addr1wxcpjfdxav75dfr2m653l2pf38q5juwz8fst6v5sqdcjsns74jyxe","addr1w80k8xe6vckm3qgklhw98tqjekfvw3mgwux3stmtq3jlprga3u33c","addr1w835n68qeax023uperwgwlruk3d8yjl4k98r433nhw5waqgkx8prf","addr1w828m0rdlumnp30dwmv33l4akzhxcpx7a64tuvjwhjn7pxgngjrpx","addr1w9zsdakg8mwjeclyzlycn62t4nuvwx6a5ggytcghdn7cvugz5kz5u","addr1wypwdjfmenh36445uvwctz6ss3nxnqp3ejczyjwpqqptj2c2apyl9","addr1wxje849hq4nmnqs8u3s3tdhyjum7sw4y9j29hlmh6x944cg7xdmn6","addr1w8dmtwktj7lktd0zv0wpxuny590ndshmj3z8xxmq3tjyvdggs35jy","addr1w8vh8ssekk52ye3pt7a2j8upv3qphzmar2sj68353xds9lq5urex7","addr1wyez88j3n284puhedanu0kw7dmuxg3yzpw3xhuetlk0ygvs2qvqq3","addr1wxfy7dlg4u7uzce0930uuqxlkdk0xwm5hxejz896dxjkrcslntswa","addr1wxgg25t3tk30jqzl2elqz94lzgmr8a9c9m5z902ds5sjh0g7uaj8z","addr1wxugd4ufxmtrnh9jz28543daw9plce3x3nmcnamj5appugcpv2jrq","addr1w87htgdnp0ne97hf77sts3uznzwxpldpn4khx5qlrnh8vhsa8wz6n","addr1w8usfr3avzl8qh5wm9wcy8uv7cr800ft5vjz5dw3pxeh8fgdp6e6r"],"fee":589133,"totalOutput":6535333987,"tokens":[]}],"totalItems":53543195,"totalPages":2677160,"currentPage":0}