{"data":[{"blockNo":8259030,"slotNo":81930170,"epochNo":387,"epochSlotNo":109370,"hash":"a4330afa3a9d31cd064fb14fafa57f8081eadbd7d64b8768df883cb3588fe88b","time":"2023/01/12 04:07:41","txCount":14,"totalFees":5092691,"totalOutput":20402763364,"slotLeader":"c8a15d64b34aed5d3bca88915ceb53533a45ee1487c7b2398df24d42"},{"blockNo":8259029,"slotNo":81930153,"epochNo":387,"epochSlotNo":109353,"hash":"a45e1ed313b7ce953b85527d5eb387619b9069b75c87d817fa73312dc05d976f","time":"2023/01/12 04:07:24","txCount":23,"totalFees":5627933,"totalOutput":324958560864,"slotLeader":"5b5804135b07be6f3635a655ed1b68ddef1854523b45cd1840a6fc33"},{"blockNo":8259028,"slotNo":81930126,"epochNo":387,"epochSlotNo":109326,"hash":"bb5f0e82c0c50a271c8d208e20c9aee00705d4f19c12939838e33a90e9a6b0f8","time":"2023/01/12 04:06:57","txCount":0,"totalFees":0,"totalOutput":0,"slotLeader":"ad1b6687f605b3543f9315a5f966ea70fc5f35e7b2a4c3a943bef78d"},{"blockNo":8259027,"slotNo":81930122,"epochNo":387,"epochSlotNo":109322,"hash":"9237af2b2836f5ead1559244117a3afface92317d97d2e20bc0c15d4434c2139","time":"2023/01/12 04:06:53","txCount":22,"totalFees":8657412,"totalOutput":25763488675940,"slotLeader":"69ac9f5a2074c2809809264e42c996f7d991c5363b41ec55a1164442"},{"blockNo":8259026,"slotNo":81930100,"epochNo":387,"epochSlotNo":109300,"hash":"ee56ede1ada5f570fed55a73bf9d68f45c9980f0fddf77b2a071956561ee70bc","time":"2023/01/12 04:06:31","txCount":10,"totalFees":2322712,"totalOutput":10150917836,"slotLeader":"2f606921baedcad68bbc765b9ab82b2b201d42bd35262517ce5d7d96"},{"blockNo":8259025,"slotNo":81930092,"epochNo":387,"epochSlotNo":109292,"hash":"51fac9be13698e7c1940b2301adff1b49f64ed04f30ef4ba689eb84592bb4dbe","time":"2023/01/12 04:06:23","txCount":2,"totalFees":1085574,"totalOutput":794965543,"slotLeader":"2e65f9aa580a28d0df07dd2773c09da9604c40127b158919da9db85d"},{"blockNo":8259024,"slotNo":81930087,"epochNo":387,"epochSlotNo":109287,"hash":"c02806fb8b8898e862a44d6d3c5b7c30d4380c9ab4e0175a121ef76c2796aebc","time":"2023/01/12 04:06:18","txCount":15,"totalFees":4350429,"totalOutput":3123417889314,"slotLeader":"3caaa49b3f45a914736c393c97c4bb8611ab7d5f66ecb4e214e93606"},{"blockNo":8259023,"slotNo":81930073,"epochNo":387,"epochSlotNo":109273,"hash":"827c44d80f88ee05900303ac01bd69686851a63efa8750b50ca1f85bc4265553","time":"2023/01/12 04:06:04","txCount":5,"totalFees":1251999,"totalOutput":6448013442,"slotLeader":"6804118fe78be9bf9213b9e829803952be87814d28b305fa52bf11d9"},{"blockNo":8259022,"slotNo":81930069,"epochNo":387,"epochSlotNo":109269,"hash":"432c1d8f50ab5b2a60db4125e4fe498998a4be0c42122b5fdc533a8eacd898d2","time":"2023/01/12 04:06:00","txCount":36,"totalFees":12287173,"totalOutput":3225256048679,"slotLeader":"ec128b017b97390c7d06f28c11302e8c748b73f8bae0b818bf848bc0"},{"blockNo":8259021,"slotNo":81930022,"epochNo":387,"epochSlotNo":109222,"hash":"df1f5a46fe582c53f25ba705491f4dfff23c1789fdacdb2d8d5fd3d1e25b9a27","time":"2023/01/12 04:05:13","txCount":15,"totalFees":3369930,"totalOutput":1295481509866,"slotLeader":"76e80e1b3f622c7051f222453497b0667e12892f5d94ee565d17dc52"},{"blockNo":8259020,"slotNo":81930007,"epochNo":387,"epochSlotNo":109207,"hash":"212baef754bfccb74f658b5f8b6e427f433041423c5aa48e7dd95a42289ba4a5","time":"2023/01/12 04:04:58","txCount":13,"totalFees":6043246,"totalOutput":1740301264564,"slotLeader":"d7513627b3d50819c1c84687bfd15f02f00cd11c37d7935a67540089"},{"blockNo":8259019,"slotNo":81929986,"epochNo":387,"epochSlotNo":109186,"hash":"0bd46d29c730322fb80f158cacf24d188540406f75e037a2accab4cf1ec15349","time":"2023/01/12 04:04:37","txCount":5,"totalFees":1164897,"totalOutput":15442402982,"slotLeader":"024dcb42f0aa6d81a7e26ccdd525a2ed3e9665d126b38ba0f8b77b50"},{"blockNo":8259018,"slotNo":81929980,"epochNo":387,"epochSlotNo":109180,"hash":"2509014ae3119766be84d3fd84fbf7e19839d203d22b1c3d18ea52ce8baee17c","time":"2023/01/12 04:04:31","txCount":21,"totalFees":6093459,"totalOutput":4448551944875,"slotLeader":"8c289ee3b1b591a95c18ffce66957d1f07115afdf939c2a9b441fc22"},{"blockNo":8259017,"slotNo":81929952,"epochNo":387,"epochSlotNo":109152,"hash":"f253d7cef2d2a4a77df0a4dd0f2067d3e21c752620e2e9e50f7c093c870a77cb","time":"2023/01/12 04:04:03","txCount":16,"totalFees":4557463,"totalOutput":2069084063051,"slotLeader":"e3f78291c937e8a2f5662765c1442804dc89db4ef7f3296e4852b986"},{"blockNo":8259016,"slotNo":81929934,"epochNo":387,"epochSlotNo":109134,"hash":"eb54264c9ba9026b7d52d6a8787d83ae44ab9952c46667a7f872e2a42ff7be98","time":"2023/01/12 04:03:45","txCount":2,"totalFees":518951,"totalOutput":219241542,"slotLeader":"ec128b017b97390c7d06f28c11302e8c748b73f8bae0b818bf848bc0"},{"blockNo":8259015,"slotNo":81929929,"epochNo":387,"epochSlotNo":109129,"hash":"671b60f767b61b7cba435e6c76a7d65c8f72eb2d243a8fb964ed4626026fae78","time":"2023/01/12 04:03:40","txCount":13,"totalFees":6590597,"totalOutput":1284581544788,"slotLeader":"2fc479904f9482d1b573977a3af26bb5577545014521eee513f54ef1"},{"blockNo":8259014,"slotNo":81929912,"epochNo":387,"epochSlotNo":109112,"hash":"f6fce7796cf1058fddbc3737fc5f8c959ef2e0a6ff81a5b656f4168e2db7c968","time":"2023/01/12 04:03:23","txCount":5,"totalFees":1358159,"totalOutput":2046365935,"slotLeader":"ec3308cedfbe904927d51f9a0d9cb93492da29e22e32900f85a15d8c"},{"blockNo":8259013,"slotNo":81929903,"epochNo":387,"epochSlotNo":109103,"hash":"e8c12b37561e20601e62555c79ac490443cf7a7c55916b78c0c60092248fb84a","time":"2023/01/12 04:03:14","txCount":8,"totalFees":2460137,"totalOutput":1158624026,"slotLeader":"03f79dedaead96339d36df69158116e83208b938afb5fcd0a30e5b5c"},{"blockNo":8259012,"slotNo":81929895,"epochNo":387,"epochSlotNo":109095,"hash":"bb7069654275874b806d3b75246940a1e5124a1cae052ceaf0dfa84f220191d8","time":"2023/01/12 04:03:06","txCount":6,"totalFees":1999786,"totalOutput":9453004720,"slotLeader":"09d372205e474b745eeedd87aa86295cfdef9b85991ad640101756bc"},{"blockNo":8259011,"slotNo":81929886,"epochNo":387,"epochSlotNo":109086,"hash":"e1881866f045875f1916ac393de1d5ce1a651e48b9b9064be9f2a1c45f42004b","time":"2023/01/12 04:02:57","txCount":0,"totalFees":0,"totalOutput":0,"slotLeader":"bdadf198bdc79d4f37c5dcd9ed0cdf402bdc2299c3ae4c87d688a6fe"}],"totalItems":8259206,"totalPages":412961,"currentPage":0}