{"data":[{"blockNo":8297589,"slotNo":82718694,"epochNo":389,"epochSlotNo":33894,"hash":"c2b80fe0fb2a6dd24ace4e516a1dc9fecfecf720794a958c3b6207098ff5f9cf","time":"2023/01/21 07:09:45","txCount":19,"totalFees":7467890,"totalOutput":24979518325578,"slotLeader":"c83beb18d532234c72a304ab935982be670c22e771b227a3febc3a82"},{"blockNo":8297588,"slotNo":82718673,"epochNo":389,"epochSlotNo":33873,"hash":"66008599fcbdeea9b74230b5a58e4429c1a1e4a6015f1ab7f6d612314acf93d1","time":"2023/01/21 07:09:24","txCount":1,"totalFees":179317,"totalOutput":1839820683,"slotLeader":"43bf2e2c7601bd6dfb38564fc2c48f5b1a773fdb4095dee412f52e50"},{"blockNo":8297587,"slotNo":82718669,"epochNo":389,"epochSlotNo":33869,"hash":"e5be95b38b1df96c47a782a53e194c58a887f05d83a8c11db68ba41c79be2545","time":"2023/01/21 07:09:20","txCount":5,"totalFees":983837,"totalOutput":78772413762,"slotLeader":"7d45120fc9e82f8b69d886057d80630b721e8f033cb8e3f26621d7bd"},{"blockNo":8297586,"slotNo":82718657,"epochNo":389,"epochSlotNo":33857,"hash":"b038db4e203f41f03ffda8c0e2e4d0d82a438ad6e1915704f5f30bd291c317f7","time":"2023/01/21 07:09:08","txCount":11,"totalFees":2576650,"totalOutput":43474086176,"slotLeader":"7d45120fc9e82f8b69d886057d80630b721e8f033cb8e3f26621d7bd"},{"blockNo":8297585,"slotNo":82718642,"epochNo":389,"epochSlotNo":33842,"hash":"4985ff7896390e6ea94a3baf09106f226eef49f9e353535e87d8e49b5128801c","time":"2023/01/21 07:08:53","txCount":3,"totalFees":788247,"totalOutput":8505150331,"slotLeader":"483b0d11a79c52d088f93e8a0930999c1bb17f2b04b26c7167d9bb0e"},{"blockNo":8297584,"slotNo":82718635,"epochNo":389,"epochSlotNo":33835,"hash":"22d0143011ed2c9f2318b1f71c6c2f31df6bf05a8902069239abd7bc2692e425","time":"2023/01/21 07:08:46","txCount":2,"totalFees":1045286,"totalOutput":2113626728,"slotLeader":"699c814b5a0f3bf2d35b9b0adcfed9fa0fe891881a9ad3c15e2edf73"},{"blockNo":8297583,"slotNo":82718631,"epochNo":389,"epochSlotNo":33831,"hash":"ba07db1cb85616a97993e7edf385043111571ed1086047c44dc18d2d7776a438","time":"2023/01/21 07:08:42","txCount":19,"totalFees":6286531,"totalOutput":3539197234220,"slotLeader":"34ae2462f0fab1866281947a022d85bddf29f45a8b9699baabbbfcb9"},{"blockNo":8297582,"slotNo":82718602,"epochNo":389,"epochSlotNo":33802,"hash":"ea9d5f88cb0188794657fba55f543bafb8ba34b9c57ecf7fbbd285a9ff2cff74","time":"2023/01/21 07:08:13","txCount":8,"totalFees":3375035,"totalOutput":1315557547843,"slotLeader":"397f04eb0ae0497d8c4d691844c8c6b026bc942e3f406f26b8e24f48"},{"blockNo":8297581,"slotNo":82718592,"epochNo":389,"epochSlotNo":33792,"hash":"c6e1804113446dcf19b27204d62d0f4088ad4e31b036944f71377e58b45b9dfc","time":"2023/01/21 07:08:03","txCount":3,"totalFees":1254179,"totalOutput":6842771424,"slotLeader":"7e53c234d29f6037c5e5f82dfdc8a6edf816cc406d0a3a3412cdeab7"},{"blockNo":8297580,"slotNo":82718587,"epochNo":389,"epochSlotNo":33787,"hash":"f72ccfe48333cc6154891c9c8a4641d1e355ccbc8357950852b1a3136eade2eb","time":"2023/01/21 07:07:58","txCount":5,"totalFees":1368460,"totalOutput":31738767700,"slotLeader":"ec3308cedfbe904927d51f9a0d9cb93492da29e22e32900f85a15d8c"},{"blockNo":8297579,"slotNo":82718577,"epochNo":389,"epochSlotNo":33777,"hash":"cd59c0e9e7b1b9c85b5063612f3c6ec5ebed008c6f5d8c74539c995cede35222","time":"2023/01/21 07:07:48","txCount":10,"totalFees":2306072,"totalOutput":89621514905,"slotLeader":"6feba2d1c9ff8b6f216259fc8824e8803202f882e33a07b6a235c5ac"},{"blockNo":8297578,"slotNo":82718562,"epochNo":389,"epochSlotNo":33762,"hash":"4f2642f84cde3bf153a69f29e25c49d0a22ffadd7d48101cbdad694f27b805e6","time":"2023/01/21 07:07:33","txCount":13,"totalFees":4503439,"totalOutput":1306005525949,"slotLeader":"86c8a19e4d6227da12d7c9c63c5fd7a83bf227a92089778f7d9ec0f9"},{"blockNo":8297577,"slotNo":82718543,"epochNo":389,"epochSlotNo":33743,"hash":"28a7263b0d55bd22834522b92ab9e7ed803971589bee749d47a2f53662e6cf23","time":"2023/01/21 07:07:14","txCount":22,"totalFees":5936972,"totalOutput":454474335521,"slotLeader":"96a46d5a796a30483492c3717f80b7c6ef87e9525af162ffacf74fdb"},{"blockNo":8297576,"slotNo":82718520,"epochNo":389,"epochSlotNo":33720,"hash":"5f97122804e3d6fa0b9f4545644e671557092f9edddc92f6fca637181e77f0b5","time":"2023/01/21 07:06:51","txCount":3,"totalFees":1334518,"totalOutput":18214265586854,"slotLeader":"9dfeca095f80562460252072fd8438f08936ef5a2077583a9722bd97"},{"blockNo":8297575,"slotNo":82718518,"epochNo":389,"epochSlotNo":33718,"hash":"66810faf3f98491ec0231b7b4eb42f7be0cca111548c8f515590671200a1d470","time":"2023/01/21 07:06:49","txCount":1,"totalFees":176633,"totalOutput":2721564,"slotLeader":"78380abbe8bb86cddda2c79190294125c594630e9535d32907b99f89"},{"blockNo":8297574,"slotNo":82718517,"epochNo":389,"epochSlotNo":33717,"hash":"31dd56dade9f7824c10835cdc3dacada4cabd858e3259765b5a693d2751b9b87","time":"2023/01/21 07:06:48","txCount":4,"totalFees":1090886,"totalOutput":5031004318,"slotLeader":"a631b46315b1567ef0ce2b2ad4cb63faac09f32ceba6716a7e331e5e"},{"blockNo":8297573,"slotNo":82718504,"epochNo":389,"epochSlotNo":33704,"hash":"aa7739780dfec4286d8c92325869662a8e87e58c881c7d454eaf13a92b09fba3","time":"2023/01/21 07:06:35","txCount":8,"totalFees":2600106,"totalOutput":69803738788,"slotLeader":"de1d84fcbacbbc51ee5511b371c621a5335ce94d5d5d720d4c066107"},{"blockNo":8297572,"slotNo":82718486,"epochNo":389,"epochSlotNo":33686,"hash":"e09a1d6c9c2b3e7e88a4f57b22075801c5fd59f7fa1c889626358ced3ec08cee","time":"2023/01/21 07:06:17","txCount":10,"totalFees":3412019,"totalOutput":4509017214587,"slotLeader":"40d04c1367c25e6da2521f906f71bbb07858dc1d2209025364369173"},{"blockNo":8297571,"slotNo":82718475,"epochNo":389,"epochSlotNo":33675,"hash":"2101fc4541ab92ae8cc48f07ed12104dbc7a50ff57f9c082c55db714d412f449","time":"2023/01/21 07:06:06","txCount":16,"totalFees":5489269,"totalOutput":35164545955168,"slotLeader":"40d04c1367c25e6da2521f906f71bbb07858dc1d2209025364369173"},{"blockNo":8297570,"slotNo":82718433,"epochNo":389,"epochSlotNo":33633,"hash":"141f6aa0d3304d1bcaa81aa866260adaa63f243c04db9dd65bcedb1e4ce06a6d","time":"2023/01/21 07:05:24","txCount":16,"totalFees":4767894,"totalOutput":725695724837,"slotLeader":"0775f0139af22e1ebf2c3278598816946e750029b70eace3c5135c3e"}],"totalItems":8297765,"totalPages":414889,"currentPage":0}