{"data":[{"hash":"610c67ca99eba045eb9115c23fb162908186b75afc94a642b171060b3b4f57cc","blockNo":6846944,"blockHash":"aaae63dada1a05bc7004234b41a68ba6d416383ebf055c7d3c1670668b7d3465","epochNo":319,"epochSlotNo":104331,"slot":52549131,"time":"2022/02/06 02:43:42","addressesInput":["addr1q8fjdde87jrua78trg9ylv7gpvd5skzcv5nqp3wl467ykzgsmz083klcvm744y0n7yyg49ykzz0j628xpu4n5u0r0r4qrfqf6q","addr1q8fjdde87jrua78trg9ylv7gpvd5skzcv5nqp3wl467ykzgsmz083klcvm744y0n7yyg49ykzz0j628xpu4n5u0r0r4qrfqf6q","addr1q8fjdde87jrua78trg9ylv7gpvd5skzcv5nqp3wl467ykzgsmz083klcvm744y0n7yyg49ykzz0j628xpu4n5u0r0r4qrfqf6q"],"addressesOutput":["addr1v8qkfs6rk88un8ltrfp3n0fz4jmgxclq9sa9nzvvww4h9vcegumum","addr1q8fjdde87jrua78trg9ylv7gpvd5skzcv5nqp3wl467ykzgsmz083klcvm744y0n7yyg49ykzz0j628xpu4n5u0r0r4qrfqf6q","addr1q8fjdde87jrua78trg9ylv7gpvd5skzcv5nqp3wl467ykzgsmz083klcvm744y0n7yyg49ykzz0j628xpu4n5u0r0r4qrfqf6q"],"fee":281397,"totalOutput":72154422,"tokens":[]},{"hash":"0a64cda4ebef6871559943b6ba9eea4771c5681b908481fd0047e698e827ff8e","blockNo":6846856,"blockHash":"993751c9c3d7bc2bf7242d16699e94ee3219e03756c31e08b629392fe2b80e99","epochNo":319,"epochSlotNo":102118,"slot":52546918,"time":"2022/02/06 02:06:49","addressesInput":["addr1q8fjdde87jrua78trg9ylv7gpvd5skzcv5nqp3wl467ykzgsmz083klcvm744y0n7yyg49ykzz0j628xpu4n5u0r0r4qrfqf6q","addr1q8fjdde87jrua78trg9ylv7gpvd5skzcv5nqp3wl467ykzgsmz083klcvm744y0n7yyg49ykzz0j628xpu4n5u0r0r4qrfqf6q","addr1q8fjdde87jrua78trg9ylv7gpvd5skzcv5nqp3wl467ykzgsmz083klcvm744y0n7yyg49ykzz0j628xpu4n5u0r0r4qrfqf6q","addr1q8fjdde87jrua78trg9ylv7gpvd5skzcv5nqp3wl467ykzgsmz083klcvm744y0n7yyg49ykzz0j628xpu4n5u0r0r4qrfqf6q"],"addressesOutput":["addr1v8qkfs6rk88un8ltrfp3n0fz4jmgxclq9sa9nzvvww4h9vcegumum","addr1q8fjdde87jrua78trg9ylv7gpvd5skzcv5nqp3wl467ykzgsmz083klcvm744y0n7yyg49ykzz0j628xpu4n5u0r0r4qrfqf6q","addr1q8fjdde87jrua78trg9ylv7gpvd5skzcv5nqp3wl467ykzgsmz083klcvm744y0n7yyg49ykzz0j628xpu4n5u0r0r4qrfqf6q"],"fee":280781,"totalOutput":74135819,"tokens":[]},{"hash":"65306f33e13db71c52fa24700ce50ae2ea9243ec53714ba8dcb0eb2b11692103","blockNo":6846794,"blockHash":"76cd85fb8e82bce5c57246d38bec9b91164df0fe7ee79251b441992581e32855","epochNo":319,"epochSlotNo":100822,"slot":52545622,"time":"2022/02/06 01:45:13","addressesInput":["addr1qyfqrqhuljs6s05xn9camr3fkfk98d4xyn9vwf75dnnylwzdweftyc5cx76lqf466ugl8wf6wx3tkmfrjyfrp0ewur9s50zf72","addr1w999n67e86jn6xal07pzxtrmqynspgx0fwmcmpua4wc6yzsxpljz3"],"addressesOutput":["addr1qyfqrqhuljs6s05xn9camr3fkfk98d4xyn9vwf75dnnylwzdweftyc5cx76lqf466ugl8wf6wx3tkmfrjyfrp0ewur9s50zf72","addr1qyfqrqhuljs6s05xn9camr3fkfk98d4xyn9vwf75dnnylwzdweftyc5cx76lqf466ugl8wf6wx3tkmfrjyfrp0ewur9s50zf72"],"fee":1210549,"totalOutput":23484393,"tokens":[]},{"hash":"71587ded3deb503cc6c1ef973591e55df3f32088f749ab3059c604124cc84e1a","blockNo":6846725,"blockHash":"6dc131793d8cc86e105881bf9f4d3d7109b589ce030de3d44a4ae6d1692f82de","epochNo":319,"epochSlotNo":99385,"slot":52544185,"time":"2022/02/06 01:21:16","addressesInput":["addr1q93vyug8m3qrqc5qr9u28hzkvdpzyvmez85f58l8y9t2502xrdyd4ezx43vxjgw0dvz6dzy36jku3ptrr9mcv5dftkhsx6f5gt","addr1q93vyug8m3qrqc5qr9u28hzkvdpzyvmez85f58l8y9t2502xrdyd4ezx43vxjgw0dvz6dzy36jku3ptrr9mcv5dftkhsx6f5gt","addr1q93vyug8m3qrqc5qr9u28hzkvdpzyvmez85f58l8y9t2502xrdyd4ezx43vxjgw0dvz6dzy36jku3ptrr9mcv5dftkhsx6f5gt"],"addressesOutput":["addr1vyyg6unsy63c96anraupr9h6kzsqx37xcnnsmd8c0zgaphchffdwm","addr1q93vyug8m3qrqc5qr9u28hzkvdpzyvmez85f58l8y9t2502xrdyd4ezx43vxjgw0dvz6dzy36jku3ptrr9mcv5dftkhsx6f5gt","addr1q93vyug8m3qrqc5qr9u28hzkvdpzyvmez85f58l8y9t2502xrdyd4ezx43vxjgw0dvz6dzy36jku3ptrr9mcv5dftkhsx6f5gt"],"fee":202813,"totalOutput":42386900,"tokens":[]},{"hash":"55d8031ed7443ad8d51f4a6777a56f19cf006d46f5fc8b9fbe2285bfdd008e19","blockNo":6846583,"blockHash":"ab93f777ae0a116b5c88c1c9ed10a40367e2cc48f7c4e96ce6db49c49b42a1f0","epochNo":319,"epochSlotNo":96077,"slot":52540877,"time":"2022/02/06 00:26:08","addressesInput":["addr1q8fjdde87jrua78trg9ylv7gpvd5skzcv5nqp3wl467ykzgsmz083klcvm744y0n7yyg49ykzz0j628xpu4n5u0r0r4qrfqf6q","addr1q8fjdde87jrua78trg9ylv7gpvd5skzcv5nqp3wl467ykzgsmz083klcvm744y0n7yyg49ykzz0j628xpu4n5u0r0r4qrfqf6q","addr1q8fjdde87jrua78trg9ylv7gpvd5skzcv5nqp3wl467ykzgsmz083klcvm744y0n7yyg49ykzz0j628xpu4n5u0r0r4qrfqf6q","addr1q8fjdde87jrua78trg9ylv7gpvd5skzcv5nqp3wl467ykzgsmz083klcvm744y0n7yyg49ykzz0j628xpu4n5u0r0r4qrfqf6q"],"addressesOutput":["addr1qyyhymjpwnujamadjnlh8xmgx80wzuhqm368s6ulgl9mawrr99nkrt2meqa2z55hep7jnj8rkmt0e84z440lt0grvysse3fyck","addr1q8fjdde87jrua78trg9ylv7gpvd5skzcv5nqp3wl467ykzgsmz083klcvm744y0n7yyg49ykzz0j628xpu4n5u0r0r4qrfqf6q","addr1q8fjdde87jrua78trg9ylv7gpvd5skzcv5nqp3wl467ykzgsmz083klcvm744y0n7yyg49ykzz0j628xpu4n5u0r0r4qrfqf6q"],"fee":282013,"totalOutput":76884917,"tokens":[]},{"hash":"3437d09c37a4c6befcde78fd90b73c68bfee412e374db5e835b04aedc6f34e9d","blockNo":6846533,"blockHash":"db9f74155eab55f596e7b58d938782359f74725679272e89a2f0b898f44f9b7f","epochNo":319,"epochSlotNo":95027,"slot":52539827,"time":"2022/02/06 00:08:38","addressesInput":["addr1qyfqrqhuljs6s05xn9camr3fkfk98d4xyn9vwf75dnnylwzdweftyc5cx76lqf466ugl8wf6wx3tkmfrjyfrp0ewur9s50zf72","addr1qyfqrqhuljs6s05xn9camr3fkfk98d4xyn9vwf75dnnylwzdweftyc5cx76lqf466ugl8wf6wx3tkmfrjyfrp0ewur9s50zf72","addr1qyfqrqhuljs6s05xn9camr3fkfk98d4xyn9vwf75dnnylwzdweftyc5cx76lqf466ugl8wf6wx3tkmfrjyfrp0ewur9s50zf72","addr1qyfqrqhuljs6s05xn9camr3fkfk98d4xyn9vwf75dnnylwzdweftyc5cx76lqf466ugl8wf6wx3tkmfrjyfrp0ewur9s50zf72"],"addressesOutput":["addr1wxaptpmxcxawvr3pzlhgnpmzz3ql43n2tc8mn3av5kx0yzs09tqh8","addr1qyfqrqhuljs6s05xn9camr3fkfk98d4xyn9vwf75dnnylwzdweftyc5cx76lqf466ugl8wf6wx3tkmfrjyfrp0ewur9s50zf72"],"fee":283017,"totalOutput":77306055,"tokens":[]},{"hash":"51b2bd15d6fdc4039b0fc22cfc40c8255e4a9fbf621d61edbc93c91d73fe8b1f","blockNo":6846425,"blockHash":"a6bcb7f2a60142cf673284975c94992e38114ae08c240f5ab16444de8b48261c","epochNo":319,"epochSlotNo":92575,"slot":52537375,"time":"2022/02/05 23:27:46","addressesInput":["addr1qxysr70aljc5wx4wnp97cdpml05vcc54c44gdlps0ru7h6fnd7qf7dx7krgsputamf5gtmfpah840tz68pnzes0vu6nszu04p5","addr1w9yr0zr530tp9yzrhly8lw5upddu0eym3yh0mjwa0qlr9pgmkzgv0","addr1qxysr70aljc5wx4wnp97cdpml05vcc54c44gdlps0ru7h6fnd7qf7dx7krgsputamf5gtmfpah840tz68pnzes0vu6nszu04p5"],"addressesOutput":["addr1qxysr70aljc5wx4wnp97cdpml05vcc54c44gdlps0ru7h6fnd7qf7dx7krgsputamf5gtmfpah840tz68pnzes0vu6nszu04p5","addr1qxysr70aljc5wx4wnp97cdpml05vcc54c44gdlps0ru7h6fnd7qf7dx7krgsputamf5gtmfpah840tz68pnzes0vu6nszu04p5"],"fee":1045213,"totalOutput":9548757,"tokens":[]},{"hash":"a9ea83738916477d951027583056ff6141b396d36daef0ca7609e7c8dfce650c","blockNo":6846146,"blockHash":"1d709bbbea6bb245e6401201db0a42bc25f8218a3fadea2d2ae84534937480a4","epochNo":319,"epochSlotNo":87045,"slot":52531845,"time":"2022/02/05 21:55:36","addressesInput":["addr1q9nag3qrvff44q6aq958knz3rk5twamfypgtvuay5htc5eezt39kh44af0fs74ulmm753rkf4pz6zk33qgu0ywm34qcq7dtcth","addr1qxwcuhr7urw044hemx39qxz3um7lfu6vgcpe9jklq8tzh5pzt39kh44af0fs74ulmm753rkf4pz6zk33qgu0ywm34qcq4w8y55","addr1q8rc5537f0syxwps6kvva6k9n56tdu7vc9kkl4ey3awwngfzt39kh44af0fs74ulmm753rkf4pz6zk33qgu0ywm34qcq504g4g","addr1qxueq2wch00m7jl2redqutdet9zj3jd2dm7kgsva0k7u8cezt39kh44af0fs74ulmm753rkf4pz6zk33qgu0ywm34qcq4f0zhy","addr1qxwcuhr7urw044hemx39qxz3um7lfu6vgcpe9jklq8tzh5pzt39kh44af0fs74ulmm753rkf4pz6zk33qgu0ywm34qcq4w8y55","addr1qyyunqhahsd05ann97qjzkc63ch7q4huvs7m9wqwu6vmcrfzt39kh44af0fs74ulmm753rkf4pz6zk33qgu0ywm34qcqfr03dd","addr1q89lmzdd595zplcxgahekmr3sfr3ryauts093t75cqk9rxpzt39kh44af0fs74ulmm753rkf4pz6zk33qgu0ywm34qcqvvu202"],"addressesOutput":["addr1v92nrmm8wztyj3ummkzayfnypecckqx49uzkp0cfkzhl6pgu5z63r","addr1q9p7v0jqatndhu57ghlnvdf4q9sahdgngm8y5tt3e2v50xfzt39kh44af0fs74ulmm753rkf4pz6zk33qgu0ywm34qcq4xe7ly","addr1q9f297u7stuqvdjwgmrcndqzfxtmuahec56r4kkzk56kqhpzt39kh44af0fs74ulmm753rkf4pz6zk33qgu0ywm34qcqpkr748","addr1q8ddszf6hmjgezdmsewvsacfmwypqw4s4ujter46tqy0eapzt39kh44af0fs74ulmm753rkf4pz6zk33qgu0ywm34qcqz9py28"],"fee":1242357,"totalOutput":175378126,"tokens":[]},{"hash":"71ad517a761293ec7ddda9c627ec73f85599a504c776ca1a3e61fe8e1460fba9","blockNo":6846128,"blockHash":"2c3cd70d0a6e6c0a43f5869479e91b6ad19523957c28360a8ae2327d261473bb","epochNo":319,"epochSlotNo":86602,"slot":52531402,"time":"2022/02/05 21:48:13","addressesInput":["addr1q8vl5fptr2uqyz5t2d5z6qdcr5zfxkwz29gas8hmufwfztlnhg9pdyuuy63884c8u39f2w7rctqp6vzf7mlzxfzyv30sf03scu","addr1q86er3g4c55y5q2jm6x0uyzjj9z77fh3trxsp28yjjvz4u8nhg9pdyuuy63884c8u39f2w7rctqp6vzf7mlzxfzyv30srrlrta"],"addressesOutput":["addr1q885st3hq2ehskmmkexy9r2z63vfaeka4043wl4p69mctxd2drg62ktgu7mk6uwp6wuuhz304qm3xj9yp8rar2nq8jjspcsdrm","addr1qx26z4j76ahzkvst9edhsf33utr983lx3zpjzwkutvz5z9lnhg9pdyuuy63884c8u39f2w7rctqp6vzf7mlzxfzyv30srt3da0"],"fee":187281,"totalOutput":36368122,"tokens":[]},{"hash":"13251d3f4d0ddce8217af6fb5318c8e862f8fefeddb25ab28155008da02ee5dc","blockNo":6846084,"blockHash":"d2f0c710054e6e99cb68f29366699f18f80d75d64702c75a114573c431a87579","epochNo":319,"epochSlotNo":85743,"slot":52530543,"time":"2022/02/05 21:33:54","addressesInput":["addr1qy0xznhgdhqj9u4g6jjdntf2cxy5lyad8j2p6a6dp8jwwttfq4uncdzu6hqlxn7gva2xsaln40x226fl8fsnqyyvzxtqqm3qw9","addr1qy0xznhgdhqj9u4g6jjdntf2cxy5lyad8j2p6a6dp8jwwttfq4uncdzu6hqlxn7gva2xsaln40x226fl8fsnqyyvzxtqqm3qw9","addr1qy0xznhgdhqj9u4g6jjdntf2cxy5lyad8j2p6a6dp8jwwttfq4uncdzu6hqlxn7gva2xsaln40x226fl8fsnqyyvzxtqqm3qw9"],"addressesOutput":["addr1w999n67e86jn6xal07pzxtrmqynspgx0fwmcmpua4wc6yzsxpljz3","addr1qy0xznhgdhqj9u4g6jjdntf2cxy5lyad8j2p6a6dp8jwwttfq4uncdzu6hqlxn7gva2xsaln40x226fl8fsnqyyvzxtqqm3qw9"],"fee":253575,"totalOutput":13270781,"tokens":[]},{"hash":"bcdf3f890e4944f4e7d97dbcedf0a2aac8774f11a87c7fb5ab821dce1d6ad445","blockNo":6845889,"blockHash":"21d40ad0ca8a5eb0d57fcd7ccf0560556db795c6993054307241446da68c074d","epochNo":319,"epochSlotNo":81626,"slot":52526426,"time":"2022/02/05 20:25:17","addressesInput":["addr1qxysr70aljc5wx4wnp97cdpml05vcc54c44gdlps0ru7h6fnd7qf7dx7krgsputamf5gtmfpah840tz68pnzes0vu6nszu04p5"],"addressesOutput":["addr1w999n67e86jn6xal07pzxtrmqynspgx0fwmcmpua4wc6yzsxpljz3","addr1qxysr70aljc5wx4wnp97cdpml05vcc54c44gdlps0ru7h6fnd7qf7dx7krgsputamf5gtmfpah840tz68pnzes0vu6nszu04p5"],"fee":222807,"totalOutput":5631007,"tokens":[]},{"hash":"c53600509ca2dfd2af25bbd9ba62716c7922b1f9f795f7a3ef084516cd8a12b0","blockNo":6845821,"blockHash":"5099a2983a9247a41dac3b9581e855467aba000db374fd61992209f773a0c76e","epochNo":319,"epochSlotNo":80322,"slot":52525122,"time":"2022/02/05 20:03:33","addressesInput":["addr1q8057vt8rwn7t97dcf5ra5jhwvuvj30mqas95sxf3dyexx206yv56a8q28fq4xu5x9mkvqqawjuekts5aexla0evgv5sj69u4d","addr1qx3uh2jgcz9flnjahs04zseueqt8atwd238jqgawt5glhwj06yv56a8q28fq4xu5x9mkvqqawjuekts5aexla0evgv5skpvm93","addr1q88qcvtuzq6cutgxv4lfz7nx6nmcxqa85p7qrltvwq0xj3j06yv56a8q28fq4xu5x9mkvqqawjuekts5aexla0evgv5sdkgmuh","addr1qyyqgz69dzw6tr93mh72fsrpp35nr2s5cdfessa0vm70wg206yv56a8q28fq4xu5x9mkvqqawjuekts5aexla0evgv5sg7g25t"],"addressesOutput":["addr1v9wj95rdcyvm0ulgcujrfa4ksyy4jd97s6pl2vx09wfnjmqp3ckc9","addr1qyl5082sy73y70uyyfvuh3n2qwld9eckwhqe3z93mglvl6206yv56a8q28fq4xu5x9mkvqqawjuekts5aexla0evgv5srsqq28"],"fee":393245,"totalOutput":53929982,"tokens":[]},{"hash":"0be7aea3c743a9bedb092069bdfe149bc7c1c24f866374ab429b858d77fd7572","blockNo":6845775,"blockHash":"1e05176c2fbcfc95d3119c0fc2b06708e3b416b07d86060a565bd70d3a46bbad","epochNo":319,"epochSlotNo":79460,"slot":52524260,"time":"2022/02/05 19:49:11","addressesInput":["addr1qxa7hxs2plv3ghfvm2ds0ddlgljjmr870nyj0dcuttr9emmhy29z9apw4amvddq7cz3u2c6jffld2rlzcrmuk57cdvcsnml3cx","addr1qxa7hxs2plv3ghfvm2ds0ddlgljjmr870nyj0dcuttr9emmhy29z9apw4amvddq7cz3u2c6jffld2rlzcrmuk57cdvcsnml3cx"],"addressesOutput":["addr1vx2cj2e6s4kc9j9lxwpmdkdm3w4kwkskjh2dd7rg04sd0vgwfaj0n","addr1qxa7hxs2plv3ghfvm2ds0ddlgljjmr870nyj0dcuttr9emmhy29z9apw4amvddq7cz3u2c6jffld2rlzcrmuk57cdvcsnml3cx","addr1qxa7hxs2plv3ghfvm2ds0ddlgljjmr870nyj0dcuttr9emmhy29z9apw4amvddq7cz3u2c6jffld2rlzcrmuk57cdvcsnml3cx"],"fee":263533,"totalOutput":86355186,"tokens":[]},{"hash":"6c49c0c0723eaf9bb292950f000bcf7a2fc13d7e5b96c82e22f6e2b6b154e460","blockNo":6845652,"blockHash":"2c4d1e722513d442c25d57f485e4224e46f3d83abb09cadd1e6029e33799f6f4","epochNo":319,"epochSlotNo":76708,"slot":52521508,"time":"2022/02/05 19:03:19","addressesInput":["addr1qxa7hxs2plv3ghfvm2ds0ddlgljjmr870nyj0dcuttr9emmhy29z9apw4amvddq7cz3u2c6jffld2rlzcrmuk57cdvcsnml3cx","addr1qxa7hxs2plv3ghfvm2ds0ddlgljjmr870nyj0dcuttr9emmhy29z9apw4amvddq7cz3u2c6jffld2rlzcrmuk57cdvcsnml3cx","addr1qxa7hxs2plv3ghfvm2ds0ddlgljjmr870nyj0dcuttr9emmhy29z9apw4amvddq7cz3u2c6jffld2rlzcrmuk57cdvcsnml3cx","addr1qxa7hxs2plv3ghfvm2ds0ddlgljjmr870nyj0dcuttr9emmhy29z9apw4amvddq7cz3u2c6jffld2rlzcrmuk57cdvcsnml3cx"],"addressesOutput":["addr1vx2cj2e6s4kc9j9lxwpmdkdm3w4kwkskjh2dd7rg04sd0vgwfaj0n","addr1qxa7hxs2plv3ghfvm2ds0ddlgljjmr870nyj0dcuttr9emmhy29z9apw4amvddq7cz3u2c6jffld2rlzcrmuk57cdvcsnml3cx","addr1qxa7hxs2plv3ghfvm2ds0ddlgljjmr870nyj0dcuttr9emmhy29z9apw4amvddq7cz3u2c6jffld2rlzcrmuk57cdvcsnml3cx"],"fee":266701,"totalOutput":253439918,"tokens":[]},{"hash":"7487efd4b7b4e614a6244acf92f05da0622ceef9448ea3dfdf217857e0bdafe8","blockNo":6845403,"blockHash":"56733c45d80bca75a2d5ed1fa01b781f1c358dda2573fa91ee6fdff413cec685","epochNo":319,"epochSlotNo":71377,"slot":52516177,"time":"2022/02/05 17:34:28","addressesInput":["addr1qymaumdm272r24d0s46827plplhc6t520lufdr5vdqn0z8hze4zwjlw3vpjum04n0gjymwde8c9p5r67yqupkzy8yz5qwdv2cd","addr1qymaumdm272r24d0s46827plplhc6t520lufdr5vdqn0z8hze4zwjlw3vpjum04n0gjymwde8c9p5r67yqupkzy8yz5qwdv2cd","addr1qymaumdm272r24d0s46827plplhc6t520lufdr5vdqn0z8hze4zwjlw3vpjum04n0gjymwde8c9p5r67yqupkzy8yz5qwdv2cd"],"addressesOutput":["addr1v9zn9rutq9xx4ktg4qfgljepvxtpk2yv05gwattwshjlhkqzqtdj2","addr1qymaumdm272r24d0s46827plplhc6t520lufdr5vdqn0z8hze4zwjlw3vpjum04n0gjymwde8c9p5r67yqupkzy8yz5qwdv2cd","addr1qymaumdm272r24d0s46827plplhc6t520lufdr5vdqn0z8hze4zwjlw3vpjum04n0gjymwde8c9p5r67yqupkzy8yz5qwdv2cd"],"fee":367329,"totalOutput":72196877,"tokens":[]},{"hash":"989084f80929ec8274ac2b70adc2d3d183b74566d472782b4ed985d8390037ff","blockNo":6845054,"blockHash":"cc619726e907531e9a80ff386c4f2ddd13472cc5aaa1107d391e499a9b6244db","epochNo":319,"epochSlotNo":64201,"slot":52509001,"time":"2022/02/05 15:34:52","addressesInput":["addr1w999n67e86jn6xal07pzxtrmqynspgx0fwmcmpua4wc6yzsxpljz3","addr1q8njpfaq2juy8djeqh7xs4k9n0uyz7q00gr4ttn82xdc6xuz2kfgd2rjm46qt0vqvtu6lmrwna0gzmsvv37ngqtmywwq4pn0pl"],"addressesOutput":["addr1w999n67e86jn6xal07pzxtrmqynspgx0fwmcmpua4wc6yzsxpljz3","addr1q8njpfaq2juy8djeqh7xs4k9n0uyz7q00gr4ttn82xdc6xuz2kfgd2rjm46qt0vqvtu6lmrwna0gzmsvv37ngqtmywwq4pn0pl"],"fee":1207477,"totalOutput":103868361,"tokens":[]},{"hash":"68e924dda13fcc0dfdac6a30fb0cab2aeab3c0d7e2c7093ca01a1810016bda12","blockNo":6844772,"blockHash":"2f071edcbebb8fedd18892c657fe44759fe8b23302c9563f747d2e277eb6213f","epochNo":319,"epochSlotNo":57774,"slot":52502574,"time":"2022/02/05 13:47:45","addressesInput":["addr1qyfqrqhuljs6s05xn9camr3fkfk98d4xyn9vwf75dnnylwzdweftyc5cx76lqf466ugl8wf6wx3tkmfrjyfrp0ewur9s50zf72"],"addressesOutput":["addr1w999n67e86jn6xal07pzxtrmqynspgx0fwmcmpua4wc6yzsxpljz3","addr1qyfqrqhuljs6s05xn9camr3fkfk98d4xyn9vwf75dnnylwzdweftyc5cx76lqf466ugl8wf6wx3tkmfrjyfrp0ewur9s50zf72"],"fee":278919,"totalOutput":20876396,"tokens":[]},{"hash":"a65a472d06e73e465e0ee85438acec019dcbb1396699d05111258e76952a3f8d","blockNo":6844503,"blockHash":"b7525b3e72be1203562b1f772dfa2f02666b6a7339a17acb4353dc9afacf3e7a","epochNo":319,"epochSlotNo":51765,"slot":52496565,"time":"2022/02/05 12:07:36","addressesInput":["addr1qxszsqjtp8kf60yvk896cr9td2rkqnsxsgvej2ad8lah8x3hcdj45clk5lfnp6a2m7jdkpwd06t207rf6p2hzx6lv2jsl2szk3"],"addressesOutput":["addr1qxszsqjtp8kf60yvk896cr9td2rkqnsxsgvej2ad8lah8x3hcdj45clk5lfnp6a2m7jdkpwd06t207rf6p2hzx6lv2jsl2szk3","addr1qxszsqjtp8kf60yvk896cr9td2rkqnsxsgvej2ad8lah8x3hcdj45clk5lfnp6a2m7jdkpwd06t207rf6p2hzx6lv2jsl2szk3","addr1qxszsqjtp8kf60yvk896cr9td2rkqnsxsgvej2ad8lah8x3hcdj45clk5lfnp6a2m7jdkpwd06t207rf6p2hzx6lv2jsl2szk3"],"fee":249629,"totalOutput":75061678,"tokens":[]},{"hash":"fae20154cab354aed79899cee1fa3df7a0a7033e40fef32c10d92beb424e256e","blockNo":6844461,"blockHash":"42a3aa15b447617418424204b9b8dedd0621092e5e44b8fd3c43aa78eff3c93a","epochNo":319,"epochSlotNo":50831,"slot":52495631,"time":"2022/02/05 11:52:02","addressesInput":["addr1q9kp8pupr4pkaw4ggf0faf0xqxsfl575vtzggn9es23ygln43jax5n9d52cx64w350s92n69psy6hpnee44dcq0v9g2qs4vll7"],"addressesOutput":["addr1w999n67e86jn6xal07pzxtrmqynspgx0fwmcmpua4wc6yzsxpljz3","addr1q9kp8pupr4pkaw4ggf0faf0xqxsfl575vtzggn9es23ygln43jax5n9d52cx64w350s92n69psy6hpnee44dcq0v9g2qs4vll7"],"fee":275703,"totalOutput":208547119,"tokens":[]},{"hash":"4cb44305c0a71a64c6cd02b4832c63dbf69e3bcf0ce07e1a91f1ac463355a94a","blockNo":6844443,"blockHash":"10bde7283577014f530faa1248cc8a26b5e49654dc32a6f92c700fbc36acc559","epochNo":319,"epochSlotNo":50374,"slot":52495174,"time":"2022/02/05 11:44:25","addressesInput":["addr1q8njpfaq2juy8djeqh7xs4k9n0uyz7q00gr4ttn82xdc6xuz2kfgd2rjm46qt0vqvtu6lmrwna0gzmsvv37ngqtmywwq4pn0pl","addr1w999n67e86jn6xal07pzxtrmqynspgx0fwmcmpua4wc6yzsxpljz3"],"addressesOutput":["addr1w999n67e86jn6xal07pzxtrmqynspgx0fwmcmpua4wc6yzsxpljz3","addr1q8njpfaq2juy8djeqh7xs4k9n0uyz7q00gr4ttn82xdc6xuz2kfgd2rjm46qt0vqvtu6lmrwna0gzmsvv37ngqtmywwq4pn0pl"],"fee":1206709,"totalOutput":105038801,"tokens":[]}],"totalItems":423,"totalPages":22,"currentPage":0}