{"data":[{"txId":53982340,"txHash":"042b67a29718377792f7461591534fe1e1681cd186b8aac67826c54446a347bc","txTime":"2022/11/01 02:16:03","block":7956630,"epoch":372,"slotNo":75702672,"epochSlotNo":361872,"stakeKey":"stake1uyqhp5dx9cjc4sc70vug29nplgvy29k596qng8guz0wafdg5gfu8j"},{"txId":53982185,"txHash":"aba891a5d64d2fed0b969af3e90049a1d97dca2b04953c34d37c5c5ed227dd36","txTime":"2022/11/01 02:13:38","block":7956619,"epoch":372,"slotNo":75702527,"epochSlotNo":361727,"stakeKey":"stake1uylmrfg278m90lgccqjrf0mc0dhh50m6fpc4u78jjgpckkg6fkdpx"},{"txId":53982084,"txHash":"9110de3650e72be548d66bf78cbaef6f99dd4c18a070091a8e60efe76cdf5975","txTime":"2022/11/01 02:12:31","block":7956614,"epoch":372,"slotNo":75702460,"epochSlotNo":361660,"stakeKey":"stake1u947gt67tu7cauwx2zj55n9ya9q9e25ajpey48pv48ay8wg7ra0w0"},{"txId":53981619,"txHash":"92c68622e3a870beee28799ba5501f11ef33ad3bfe02c772b5712e04f606f072","txTime":"2022/11/01 02:04:11","block":7956591,"epoch":372,"slotNo":75701960,"epochSlotNo":361160,"stakeKey":"stake1u8wzszx9yyxn0tvqljk92nt8qqwx7hsjcgxndcyqmlfmjqsfc3acx"},{"txId":53981580,"txHash":"53a4c17a508b5160db39905cf9aa5260fdf474542ee2478ae8c6e6646f70d20b","txTime":"2022/11/01 02:03:07","block":7956590,"epoch":372,"slotNo":75701896,"epochSlotNo":361096,"stakeKey":"stake1uxn4q0jtg7yrx9z6zgfhrcaj34np3xw8z8lsxa6f3q94y7sl5tzz6"},{"txId":53981544,"txHash":"08c9dfda19d0fc1c007973b652ecc89c00553749967aa346ec540548a285c91f","txTime":"2022/11/01 02:02:23","block":7956589,"epoch":372,"slotNo":75701852,"epochSlotNo":361052,"stakeKey":"stake1u9hz47khxufhccrh3m4jvvefdd4dpptx406gx49s42mpyws2kq6c4"},{"txId":53981537,"txHash":"4c776dea67a42ec955115b911fde35d331fc1a74c68810e17dc11302c05c34e5","txTime":"2022/11/01 02:02:23","block":7956589,"epoch":372,"slotNo":75701852,"epochSlotNo":361052,"stakeKey":"stake1uxk4xgh32f0mscc02m20fx8urfkhwrpwydthp7vp6ma4ycc7pe06v"},{"txId":53981365,"txHash":"21d9dca95e35031177d0d3ab55375bd90bf3422cad2a5d005b001f782e0a6e11","txTime":"2022/11/01 02:00:25","block":7956582,"epoch":372,"slotNo":75701734,"epochSlotNo":360934,"stakeKey":"stake1u946qvem7examxm7xx9qnccnys5f4rzjnav0cz7d7dt27rqk8dt72"},{"txId":53981360,"txHash":"ec556aacea03ee6c18670dacc5022708f16b88a88d828c200fb67945b8242f11","txTime":"2022/11/01 01:59:58","block":7956581,"epoch":372,"slotNo":75701707,"epochSlotNo":360907,"stakeKey":"stake1uxkxq7lux07xjfv029em5cvdj472tyd69weqlxhrewfv5pqpf6jyt"},{"txId":53981326,"txHash":"736ef9a4ee7b87a16f5a85afcf72ab3113fd83ad9e756e123b0fe7ed4ec8cb65","txTime":"2022/11/01 01:59:58","block":7956581,"epoch":372,"slotNo":75701707,"epochSlotNo":360907,"stakeKey":"stake1u9q69k0yp3sltlayc7mvh4nkq2zvd7lnq3qfk6yvf8w40xqumndhd"},{"txId":53980897,"txHash":"b8c00b912a87f749c073aaf5c346446c80450bc026e91c69cf4b943d7c893c91","txTime":"2022/11/01 01:50:54","block":7956564,"epoch":372,"slotNo":75701163,"epochSlotNo":360363,"stakeKey":"stake1u83wj9eyfkfmhr6avecprfa3zs95nng9rjl9kxs0xpydnmg49k9qx"},{"txId":53980771,"txHash":"e232f37fc910f3aa8cd7f7b4c5f7bea58d361283f99ffe79f4e0356a613efa9e","txTime":"2022/11/01 01:48:27","block":7956559,"epoch":372,"slotNo":75701016,"epochSlotNo":360216,"stakeKey":"stake1uxe6kyqld83n45e78cfsrpwhkv9hhgk52zqwtqwrfd0funcdhf4z6"},{"txId":53980767,"txHash":"73105b6c34ff61e658cef0436468cbb7484eebce53dc7333b219ab8bb9549475","txTime":"2022/11/01 01:48:27","block":7956559,"epoch":372,"slotNo":75701016,"epochSlotNo":360216,"stakeKey":"stake1u8wkls4s2s60u2v2kvxjfyw34vqqlf8p7s6szx7e884qavcesm4az"},{"txId":53980151,"txHash":"c9695b8030428ab654d32ddf7ae025dd00f16f45455cdae7e01b81f6a8a77ac1","txTime":"2022/11/01 01:35:42","block":7956524,"epoch":372,"slotNo":75700251,"epochSlotNo":359451,"stakeKey":"stake1u9atcpmplv0tfvns7j52yudgttw2mtjm94j68qp74xz24tqtr6pxa"},{"txId":53980125,"txHash":"2d3a2598129ed9224335661ea151587f15a412339c470e1d0bc13655efbdf044","txTime":"2022/11/01 01:35:04","block":7956522,"epoch":372,"slotNo":75700213,"epochSlotNo":359413,"stakeKey":"stake1u9n3v3r47c83544p7af3vdlewvccv9s5c88emrv3n56kayg2f3jus"},{"txId":53980109,"txHash":"6b4af7ce0839fa96e13a98f6b0d6aaf68bbe57898ce0d788d8703afe41c7f81f","txTime":"2022/11/01 01:34:54","block":7956521,"epoch":372,"slotNo":75700203,"epochSlotNo":359403,"stakeKey":"stake1uy3d660w6rtay05m7ugk9z4rfk8mey5jutshk0edxhtw6gqqltfrn"},{"txId":53979911,"txHash":"a37875d11566867b3aca0cbd69357cce6b9ec83f9a7d94b4bd267d80c4cfe99f","txTime":"2022/11/01 01:31:39","block":7956511,"epoch":372,"slotNo":75700008,"epochSlotNo":359208,"stakeKey":"stake1u8qeu73feumvuatsau4wnjhly2u8l0hprvc08c0rkfmh85gnaxhm3"},{"txId":53979836,"txHash":"a1376913d31bfd6b9246d0c0da10c028e69850dc8784a1074777885e76a54a9d","txTime":"2022/11/01 01:29:13","block":7956504,"epoch":372,"slotNo":75699862,"epochSlotNo":359062,"stakeKey":"stake1u93symvh3vuupe9c5caw2978n54gzdd7tve37vqs796yrxqa945lc"},{"txId":53979783,"txHash":"b03e22117186b2244e8a833663b6e22faf06eff497d778c8114ddca14f76e81c","txTime":"2022/11/01 01:28:27","block":7956503,"epoch":372,"slotNo":75699816,"epochSlotNo":359016,"stakeKey":"stake1u9khe5pmv0d2999fzdx73hefzjpf76gtkwf2jrjz9ha3k3cd6pwxm"},{"txId":53979659,"txHash":"73d57585803315f7319138f930fbb74a3fa40988f34f6d7fd0858441ee5102dd","txTime":"2022/11/01 01:26:00","block":7956491,"epoch":372,"slotNo":75699669,"epochSlotNo":358869,"stakeKey":"stake1u8d4fgrg57kc73s5dusp6dxwhqgmjjr44qvveukteya2f5qmrm4nc"}],"totalItems":1593745,"totalPages":79688,"currentPage":0}