{"data":[{"txId":59473430,"txHash":"48a1951de75782b64a1eece6531befff14b1263d5ebdba0409a01ae2a3494093","txTime":"2023/01/11 22:32:45","block":8258025,"epoch":387,"slotNo":81910074,"epochSlotNo":89274,"stakeKey":"stake1u8h2tk83z5e3ashuxpnugycy92st6h06kv25t8pvzrtgkhcagam04"},{"txId":59473346,"txHash":"93be75474db51faa85bb565fbfab78bd71ec45b40204b26ef195a56f94b58f45","txTime":"2023/01/11 22:32:34","block":8258024,"epoch":387,"slotNo":81910063,"epochSlotNo":89263,"stakeKey":"stake1u8vau766lm8fyfttpxzylvayw5qpk07pk88xd9q9qev7f2cu9pp9u"},{"txId":59473172,"txHash":"8286dfa76bf4133280b6897f56e4e970c1291efa664c5621514d85210d905a14","txTime":"2023/01/11 22:27:43","block":8258019,"epoch":387,"slotNo":81909772,"epochSlotNo":88972,"stakeKey":"stake1u8vqx5ga956xkwqyrnsexp5088gwxm8uqz29up8xk92ml4q7j59ac"},{"txId":59473021,"txHash":"cbba6c4a0c34e2fedfca65dc9ccd26ddf72689c5028c89ea7cc0c453b432668a","txTime":"2023/01/11 22:25:51","block":8258013,"epoch":387,"slotNo":81909660,"epochSlotNo":88860,"stakeKey":"stake1u8tqtl5c9rlf573jsrqwrh6nrw8suft4jncwy9ecrx3mljqm4vzzq"},{"txId":59472961,"txHash":"6bf1d7b9e64b9b0bcfea348c292faecfef23ac5c16823c2a0e51d8228a808282","txTime":"2023/01/11 22:25:46","block":8258012,"epoch":387,"slotNo":81909655,"epochSlotNo":88855,"stakeKey":"stake1u9p3z65tg62sy3qzf0ewmnvc8l5msxkaxgy76cy5su7hrvcgndm8v"},{"txId":59472831,"txHash":"fae18750befc8ece8003ee3720eebd7dcbe7133d92c9c8d811471a4833ec9922","txTime":"2023/01/11 22:22:47","block":8258007,"epoch":387,"slotNo":81909476,"epochSlotNo":88676,"stakeKey":"stake1u9euljwevgnh9eq3ulwp0ssgh38xm63khej4rfv8438dk3sjy2fy0"},{"txId":59472700,"txHash":"09d237a336711ace6853241b032ad2422ba36986cf08aee61669934f03202964","txTime":"2023/01/11 22:20:54","block":8258004,"epoch":387,"slotNo":81909363,"epochSlotNo":88563,"stakeKey":"stake1u9utdjmwax9ame3r5nu47fgv96x36huwtdsgmzrduvqflcql9qlz4"},{"txId":59472620,"txHash":"03a1afa81a7097ec921b2a87d9fcb5959a3ba127799c5ba1dc9f2464c88f9327","txTime":"2023/01/11 22:18:55","block":8258001,"epoch":387,"slotNo":81909244,"epochSlotNo":88444,"stakeKey":"stake1u9gcmpe8zx2adjq66pjkglzmawg4v8nufl0l4t982d4eurg47tvcn"},{"txId":59472472,"txHash":"8d002e60eae7f1dc69838e8a2fdb14aad8958156cd4e1458c18e5a7fb2bb5f61","txTime":"2023/01/11 22:16:30","block":8257995,"epoch":387,"slotNo":81909099,"epochSlotNo":88299,"stakeKey":"stake1u8cp50cvcc9eu5n268urz7hu28g5fdxh0wxhvcan64pas3gu6n5pk"},{"txId":59472413,"txHash":"8bbe72707fc55d6ae092bf4bd33c314966a751a7f9d5e895cedb502bc834621f","txTime":"2023/01/11 22:15:42","block":8257993,"epoch":387,"slotNo":81909051,"epochSlotNo":88251,"stakeKey":"stake1u9et70q4vwvnv584u5tnzlng728kk5jnphd6jjvxsxx44cc2lsm9e"},{"txId":59472281,"txHash":"e164d4fbfc2273cb3580d2b0fce654f97066ccda7d4f0cb52d3a0521df03462a","txTime":"2023/01/11 22:13:13","block":8257989,"epoch":387,"slotNo":81908902,"epochSlotNo":88102,"stakeKey":"stake1uysu3t0gfd8ared9xfm5x74j98wxfn99r6uj0stxk83m22srgyn3r"},{"txId":59472208,"txHash":"fabcdc8a65ac4381d583d6794792787e95a65e90c0d9c01a01422b882862c7e9","txTime":"2023/01/11 22:12:15","block":8257987,"epoch":387,"slotNo":81908844,"epochSlotNo":88044,"stakeKey":"stake1u926f55uy6hkd2z4lmrw53prav0074jkrhy3lj3r6aq7mmgf4v5f9"},{"txId":59471985,"txHash":"daec1822daaa0f6b46c035fe166d8002f8c61408120e65eb30554d32be50f494","txTime":"2023/01/11 22:08:35","block":8257975,"epoch":387,"slotNo":81908624,"epochSlotNo":87824,"stakeKey":"stake1u9j8y4v30c2lme3vl9659m2yt9rvkvevlvla5su4nx85avsxh6evh"},{"txId":59471894,"txHash":"11a229964d7005d28fb5d4c82630d332f7353a5da5c129c03e734f4256a140a5","txTime":"2023/01/11 22:07:10","block":8257973,"epoch":387,"slotNo":81908539,"epochSlotNo":87739,"stakeKey":"stake1u80w4ff99843wkt43w4f4s30lttyxlkgme3xqses42h465cep6gq3"},{"txId":59471892,"txHash":"636383bb88beb335fb3a2b760c5d85595ebfcd30a84287f7c02dc8599ac9d86e","txTime":"2023/01/11 22:07:10","block":8257973,"epoch":387,"slotNo":81908539,"epochSlotNo":87739,"stakeKey":"stake1ux7tkte67djyly7vf8ml6epz5dggr3mdwnefpgpmewhc29sgyp36j"},{"txId":59471885,"txHash":"d320b3051fec3f6cfdfc61c9d896bebcd8aab7a8b4db35a7b7c245272832f079","txTime":"2023/01/11 22:07:10","block":8257973,"epoch":387,"slotNo":81908539,"epochSlotNo":87739,"stakeKey":"stake1u9pup4mtsav2fffgfc424mqdkh9eh38dvwtyx884m6m4xqgs2ekry"},{"txId":59471806,"txHash":"1c2eb6fce1c7821cf831f6cfbe80f6429853be7e223ee692be22d2a80c43b1f2","txTime":"2023/01/11 22:04:42","block":8257968,"epoch":387,"slotNo":81908391,"epochSlotNo":87591,"stakeKey":"stake1u80hgvuzj3zl9fmz0hst3huj5zdxnw9ukfur3f0l76ydw0s94adur"},{"txId":59471592,"txHash":"b34b20c40ba89e1e2f3a7f407b763004173dc08d9e12792f98303fed365ad645","txTime":"2023/01/11 21:59:55","block":8257957,"epoch":387,"slotNo":81908104,"epochSlotNo":87304,"stakeKey":"stake1uyprtrjeuwxxlnn33pc8gt2cdtx5tnknwmg67jcwdupsqrsap93yv"},{"txId":59471555,"txHash":"81af92e07eb82162805038d540c68744986b7b16895b53a0444119e96686b6fb","txTime":"2023/01/11 21:59:14","block":8257956,"epoch":387,"slotNo":81908063,"epochSlotNo":87263,"stakeKey":"stake1u9p3y8ercp25u9jhjsrde00q6cl6e57m2qmml68700647xcq5u4jx"},{"txId":59471436,"txHash":"5a3baac3cc90edc0965607c43a8f8868c79c77e37e72edd5ebf19af29c257e19","txTime":"2023/01/11 21:56:51","block":8257946,"epoch":387,"slotNo":81907920,"epochSlotNo":87120,"stakeKey":"stake1u9k6vkjg3cyk0f60em7zw0p5lucc3u4cuxn7ancp575hvlqmsz4ye"}],"totalItems":1643645,"totalPages":82183,"currentPage":0}