{"data":[{"hash":"5981131839469faf24d791306a7c2bd47d2a7a1be49ee1c466cafa3fdfa55712","blockNo":8097819,"blockHash":"f57f00920f50e8940580802b24acbbc6cba40e36266799b4373ac2211f524542","epochNo":379,"epochSlotNo":256369,"slot":78621169,"time":"2022/12/04 20:57:40","addressesInput":["DdzFFzCqrht71TSwHG1ig3eXkSwBPwNAZ9ae5jqhP5aqJCsWt5f1KUhh7tNpAoxACrEsxAQJ1PsPCpz7aUZwrKCMs5WE1UsP75DACrB9","DdzFFzCqrhsjWhaBLYUNcs7MDJynz2KMpJumuSasfy4EtxT4sh9VqjavBWL2aChvAFvsEbA3Rd3YCVu5RYCNwrLXdAtHKzWUEsE84eCV","DdzFFzCqrhsnBskApwYjUgDemKQqj9ZgDwgLHSP2y5GVjPobA83yQuujY6N8fSzJo8kfAXJcbNUA9AvYz2yYvmU6jK5oTnrHDUVcBfS4","DdzFFzCqrhsfHbsREJSCMVhPpKadRe84we4SFk6N2TiAQSeUJxpK9rVSNS8EC1GrWiu5SxEDpkyzKeNf68957g9ygcJybsVRpj3NZzMo","DdzFFzCqrht296K9y6xGnzJEJiZD2Y4qTwEzWzNCMiNE4kya4Kk4wtxwVibD4Lgm2KWqEUPNaaJkucY4FcxMu2Bm4rBQkurSdBCZ4rQh","DdzFFzCqrhsoHor9r6659AtQGbEw2S8r9V6cEAi7bEfJGgfPycSRK6qTMR42MmVWRQz4jz7Eb71YDMRQEUT8DaZx6tLDGYTTYZQR7Eno"],"addressesOutput":["addr1q9atjfpqwdtg7ytz0pz9zcaqvx8zr2uv6ysvc4csqynr683dzefudzxhadht99nh8gv4l3z93d486ygllgxuh2drrrpsdw6fws","DdzFFzCqrhsgEiNFK4bDHQiAs4rTTcjp4gDKQDV8fPv96X7XvYdAVg1KYTr7VbqAYaynBSbyj9k4hETg2htNsH6B2gx2pS9vcikod5ja"],"fee":402925,"totalOutput":1265252732,"tokens":[]},{"hash":"4733bad8efe2e87e19f22ed4cc5d9d0f80e1c18250c1327dd73a6471803195ed","blockNo":8097703,"blockHash":"6c2a7c60cc98e0988a07c7820e6f3c3b15663eed7c8cb0aba2aad4fd7ff6fdf4","epochNo":379,"epochSlotNo":253752,"slot":78618552,"time":"2022/12/04 20:14:03","addressesInput":["DdzFFzCqrhsfHbsREJSCMVhPpKadRe84we4SFk6N2TiAQSeUJxpK9rVSNS8EC1GrWiu5SxEDpkyzKeNf68957g9ygcJybsVRpj3NZzMo","DdzFFzCqrhsoHor9r6659AtQGbEw2S8r9V6cEAi7bEfJGgfPycSRK6qTMR42MmVWRQz4jz7Eb71YDMRQEUT8DaZx6tLDGYTTYZQR7Eno","DdzFFzCqrhsnBskApwYjUgDemKQqj9ZgDwgLHSP2y5GVjPobA83yQuujY6N8fSzJo8kfAXJcbNUA9AvYz2yYvmU6jK5oTnrHDUVcBfS4","DdzFFzCqrhsnBskApwYjUgDemKQqj9ZgDwgLHSP2y5GVjPobA83yQuujY6N8fSzJo8kfAXJcbNUA9AvYz2yYvmU6jK5oTnrHDUVcBfS4","DdzFFzCqrhsfHbsREJSCMVhPpKadRe84we4SFk6N2TiAQSeUJxpK9rVSNS8EC1GrWiu5SxEDpkyzKeNf68957g9ygcJybsVRpj3NZzMo","DdzFFzCqrht7ubwT8kfgbrYnEgb73AS5ToiGeD2b4XjgFmtVAbjkdgktdZBFf6dnK3E9Jse8xE6773oN5zJ8ZoZPh6AGBWYpV73ovGC1","DdzFFzCqrht9hQE9zekQw1Bo382273XW3KiDLouvZtkv9zpe9ut7YoY3QPenHoLW4RV6iUQvX34H5pSN2x3hv8RUiY6vvH7tV3cqzK38"],"addressesOutput":["addr1q9atjfpqwdtg7ytz0pz9zcaqvx8zr2uv6ysvc4csqynr683dzefudzxhadht99nh8gv4l3z93d486ygllgxuh2drrrpsdw6fws","DdzFFzCqrht296K9y6xGnzJEJiZD2Y4qTwEzWzNCMiNE4kya4Kk4wtxwVibD4Lgm2KWqEUPNaaJkucY4FcxMu2Bm4rBQkurSdBCZ4rQh"],"fee":412605,"totalOutput":1260233597,"tokens":[]},{"hash":"575665cde29a10d0ac3a72045ddfa8db0629d11d33c62571232b1b86589e44e8","blockNo":8097092,"blockHash":"dd18ba1e382dd1343c904eb96e2eed1d8dcbffb9f028b1cf8999d9ab1cf16cfa","epochNo":379,"epochSlotNo":240640,"slot":78605440,"time":"2022/12/04 16:35:31","addressesInput":["DdzFFzCqrhsncttxHHPcGLLm4974Qk4GsPZiUFu2LMU7N2U5d5PRYM5BiEbjiZMqCMKfcC8TvYWmN2MPsdSXkvbiCES2WN6v8FXmraAX","DdzFFzCqrhsncttxHHPcGLLm4974Qk4GsPZiUFu2LMU7N2U5d5PRYM5BiEbjiZMqCMKfcC8TvYWmN2MPsdSXkvbiCES2WN6v8FXmraAX","DdzFFzCqrhsoHor9r6659AtQGbEw2S8r9V6cEAi7bEfJGgfPycSRK6qTMR42MmVWRQz4jz7Eb71YDMRQEUT8DaZx6tLDGYTTYZQR7Eno","DdzFFzCqrhsf2Zbh3TCmpoxMUM7ru39USCDMbzXkapBXYo3EDinSn87AJV79G3r1AN8wrcuoNvUgpQJFdLsvrzWu8ZR9TKWxCs9tXjM9"],"addressesOutput":["addr1q9atjfpqwdtg7ytz0pz9zcaqvx8zr2uv6ysvc4csqynr683dzefudzxhadht99nh8gv4l3z93d486ygllgxuh2drrrpsdw6fws","DdzFFzCqrht7ubwT8kfgbrYnEgb73AS5ToiGeD2b4XjgFmtVAbjkdgktdZBFf6dnK3E9Jse8xE6773oN5zJ8ZoZPh6AGBWYpV73ovGC1"],"fee":383565,"totalOutput":1253695172,"tokens":[]},{"hash":"366e765e6880d876ada8d708088c95414185ba8d78759a2da896f5f6694a731b","blockNo":8096746,"blockHash":"ae6fef6b314f99af43de6dae4112b6c8aba7e7b057676b47eba55a2a266b4f45","epochNo":379,"epochSlotNo":233646,"slot":78598446,"time":"2022/12/04 14:38:57","addressesInput":["DdzFFzCqrhsgveEj8mmQSWGbqNunaAXRi9Lt8TMcYTniaoQoLifbt6QGd1yy9ywp1k533h5T1eReP6kg2Ysjdi6HBAHAbgmwuyTiEamH","DdzFFzCqrhspSnu4gtj2bPK3KqJdznNmYvbfREzvdeFVWkPd3kXHJkm7AqPVEPQjYQRQWKxGF8PA4upBRYJ52jwt9Pz1reyFvJyF7JQ3","DdzFFzCqrhsfHbsREJSCMVhPpKadRe84we4SFk6N2TiAQSeUJxpK9rVSNS8EC1GrWiu5SxEDpkyzKeNf68957g9ygcJybsVRpj3NZzMo"],"addressesOutput":["addr1q9atjfpqwdtg7ytz0pz9zcaqvx8zr2uv6ysvc4csqynr683dzefudzxhadht99nh8gv4l3z93d486ygllgxuh2drrrpsdw6fws","DdzFFzCqrhsf2Zbh3TCmpoxMUM7ru39USCDMbzXkapBXYo3EDinSn87AJV79G3r1AN8wrcuoNvUgpQJFdLsvrzWu8ZR9TKWxCs9tXjM9"],"fee":373885,"totalOutput":1251255527,"tokens":[]},{"hash":"6da2184aa195293c4201946d5cfad91a0e1bf251c5d4a91d50b523a6cd7d8870","blockNo":8096335,"blockHash":"c0ba483b2f9b3f23534d6f7f9da15a626f68ed9fe21dd6293ce8d7d96c6598a8","epochNo":379,"epochSlotNo":225337,"slot":78590137,"time":"2022/12/04 12:20:28","addressesInput":["addr1qy0xznhgdhqj9u4g6jjdntf2cxy5lyad8j2p6a6dp8jwwttfq4uncdzu6hqlxn7gva2xsaln40x226fl8fsnqyyvzxtqqm3qw9","addr1qy0xznhgdhqj9u4g6jjdntf2cxy5lyad8j2p6a6dp8jwwttfq4uncdzu6hqlxn7gva2xsaln40x226fl8fsnqyyvzxtqqm3qw9","addr1qy0xznhgdhqj9u4g6jjdntf2cxy5lyad8j2p6a6dp8jwwttfq4uncdzu6hqlxn7gva2xsaln40x226fl8fsnqyyvzxtqqm3qw9","addr1zxgx3far7qygq0k6epa0zcvcvrevmn0ypsnfsue94nsn3tvpw288a4x0xf8pxgcntelxmyclq83s0ykeehchz2wtspks905plm"],"addressesOutput":["addr1qy0xznhgdhqj9u4g6jjdntf2cxy5lyad8j2p6a6dp8jwwttfq4uncdzu6hqlxn7gva2xsaln40x226fl8fsnqyyvzxtqqm3qw9","addr1qy0xznhgdhqj9u4g6jjdntf2cxy5lyad8j2p6a6dp8jwwttfq4uncdzu6hqlxn7gva2xsaln40x226fl8fsnqyyvzxtqqm3qw9"],"fee":364354,"totalOutput":7997046,"tokens":[]},{"hash":"df446809d9163f48b8013237c64f57d9cb5c3a7724b4d4131f1f9d4463d1fb24","blockNo":8095191,"blockHash":"6886b246d554b4bfd73f0d7726b66d2b17ddfb5dd8cbcd6dbd5faa73ed2f330c","epochNo":379,"epochSlotNo":201603,"slot":78566403,"time":"2022/12/04 05:44:54","addressesInput":["DdzFFzCqrhskVa1GVY5wjc2fsA8G8mzetXUNGZuVyft5kSmpq1FTGsyRjt18LxYCmJDZFBCBUSapwpG3wY1qw6FNQoLVxMP4mZ3Ue8yb","DdzFFzCqrhsgdY8DRK2z26xAPzeroAPP8vXYjcGcnT3ooXqhscAkVVeHBXxq69kt69yJmehE1gwaNrhPpGaBuBhs87HCcMNpS8FDcP8c","DdzFFzCqrhsipxqmmttvUtV6b4ptNdA8o7UWCnUSp6dhyEndSqDYrHSoEFcFJPjcsuuv7AAcE6pFvGL44Pj6bLnjDmAkmyZrfDA8CvXe","DdzFFzCqrhsytMdmwsqxNQemRXL16A7A3YeM6as1FTKqtqDyPXmaucSXcaHucFG1pV5UMW9eCmjhgWYYjip8pHe9YtF9eWWXaBNMpdSA","DdzFFzCqrht9PTffxD84iva1C1nZ9Fbr8jynjh3JgRN7WYuD5jPD3QRqwEW8afRNmsVdcF5gK5RYGK3Mbp5VS1bohDcB7oghjPFwdm3g","DdzFFzCqrhsekbVRTkAno9jijJNqaHFJ73mumocjRABEUJqHcPXNHen4iHPnF4dRwPeHQzQfhvVKQDzrmga2SHzmiHpRtgru3cNWdN6B","DdzFFzCqrhsz893d3jKUsAqhvxvnmgkUW8ebJ4JPMvq9hjxK2uqtnQjzzS4UPfDDrP6DUoYbNnsc37GtFZjfi9sc3gbZXpj9W2zGZoNH","DdzFFzCqrhsqtAofYnVnj2p2x7jQopexN8QNohtrDwEoPoKWXGcHe3L1e6Vka23aTNChQkfFcHWt2BrcV2VcFQ3ek4GSJ4bzoEb3pdXu","DdzFFzCqrht6m41j7T2twZZPJEP273zRi6ywWL6oD12L8RjuuA36g853FCwjJ8iCRfwEJR3FpQ8Kr44aXSX2gFd5eZURaoWcK8qur4pi","DdzFFzCqrhspG5bsCnA6h9WAvQLFkUfyPT8ckZjJaCgDcmEWmN8fyeHmoD4mnPKjZiVbAdPEubxz6YRZMhp5Svw3DcQryWDLcm2AeVNa","DdzFFzCqrhshods4F6zCPJ3s4hTwEdGHdyjDrGcLNdkkuPewJn2juaJ8spNvLoZyK5NKnRafQgX4VZFVfeVdEHjcJWUxwJYtUBBFRavT","DdzFFzCqrhsqU1jPoHPMkYeuVcL3ipAuoDuzs1HQfKKWCVwWNczNd35XCSTj45TvYAubzwrccEh1oMuiyUch4o66r7Ybv4dDo5QkswBj","DdzFFzCqrht4n1FE1o7APgVicP7VJpBLENReHwwN6QbW2kEwEEU3mrcQoKgosV8F2dXxtbiiSe3qsozspmJRb8m5LuTJri8heQWsVmBm","DdzFFzCqrhsxBuUVMeGb9sYMVKEY8AEWCwvMYi8nRmrP4LA8XDJeSHzohtnZyXENP7fuXRvz9k2d4bvE6AcXJiiTHYAvZWf5rxgRUwZm","DdzFFzCqrhsk5hpRaDadNREDMArvdAvGodAMhe7DtR1j3o9qCFKc2jA1E3j9HbMAVUhF4UYDVE2JD8wDoK4nMRYGuyqUZnqo4PsfqxMn","DdzFFzCqrhspbjX7JMKwaSnN4aWsndoS3zLpFHjYUvF6kfXfnU2vTwuDf7oMT3k5NLSisQcJFQwHqnVJzsBi58CWiPHNSYRwr6hAX2Xq","DdzFFzCqrht8gdeD41rVQpNQ16At6CYqU6pZ2b9XzPMarBsXYeXAqe4QB8uxeDHqcg7y9wr6Sv89FF9VqYSqG8h9w7aS2CaSTmK9jkkz","DdzFFzCqrht975yNvEppS58mP7X1WxkB6BF1hfhNbC339kUh1HZvq5dn1r7Z4b6vHT8AwxiTxFhHnRU6zVusYbFqLKneC9AZqtuJkvZs","DdzFFzCqrhsvQcuZKzD1duLPXVbj9pgwT4TMy9doRWeHPAxy9iqPgEwCXcQjQUj3THSPsVnUc3Efp2tDLcnVmy6xHsnATdwBuF1kGikG"],"addressesOutput":["addr1q9atjfpqwdtg7ytz0pz9zcaqvx8zr2uv6ysvc4csqynr683dzefudzxhadht99nh8gv4l3z93d486ygllgxuh2drrrpsdw6fws","DdzFFzCqrhspSnu4gtj2bPK3KqJdznNmYvbfREzvdeFVWkPd3kXHJkm7AqPVEPQjYQRQWKxGF8PA4upBRYJ52jwt9Pz1reyFvJyF7JQ3","DdzFFzCqrht1f9nZMjmwJ2NNpRXbYMticpkgGgDPbyPfPRZWJTGic3HgS3M2oAVMqD6zv5UnQ4stDU4C4W1L2Ug2YT8W86gj929J5YFN","DdzFFzCqrht9HmE7QTKkQipYGTBHf18njjgubUmRdzEVGSj7Cz5cfhQ1fFs8wcqSfcKKLa13y3j3awL8gcp72fHsY5y28iVAt6MA61Xf","DdzFFzCqrht6iG2WKiZfZsMTLN3LURjyv55W9R2tNHDQvZ7jSEv9TgA1JbyVVou7xALU1M8ejpkh4LGck2wEs2YNGnFtMwJAr3Wm6ac9"],"fee":1055093,"totalOutput":55001263437,"tokens":[]},{"hash":"9f07cabdc0dd4f85850ee16de6d7e67df9e57c58c9634497442dd37361fc6703","blockNo":8094222,"blockHash":"4e702d2740215d207e2fdaea64acaedd83cff67bc9355d61ee650190f72cae29","epochNo":379,"epochSlotNo":181738,"slot":78546538,"time":"2022/12/04 00:13:49","addressesInput":["DdzFFzCqrhsvHst885JgqYeFVZ3zFi9LibiUjpPY4ExtHZ88BWFCRv5XDaMwPe4dHuC8PhKqKU69HbgP9LJgMH3aSVZGQRjHRhE16Eo3","DdzFFzCqrhseqv1xU64u5szX5BGz6MqeyPczrWifGJyCKfj33FVR5k4LfKegRpPuDbSET9Bdw6XBTAcJx3KaB7f8UuAdUp3NVETD4Sag","DdzFFzCqrht3DsWoKqBWXBdcCpjSx3GMCJVtCxvB91SJL5kPeo5XxxxRm61JPvikZ685kk8Ucsus4nGnEgbqatH1ugDXpfQgNpc4E5HV","DdzFFzCqrht9hQE9zekQw1Bo382273XW3KiDLouvZtkv9zpe9ut7YoY3QPenHoLW4RV6iUQvX34H5pSN2x3hv8RUiY6vvH7tV3cqzK38","DdzFFzCqrhtA5pbMVizcnAFs7XxrvHmptuCotyVKo589RRNSNzhV3kKPduKm3K6jJ59AupZxymbLoseWufBMbrRrWW3oWG5JDAf6mvnP","DdzFFzCqrhshzS82P4ApfTZKPEFSFurruncgV846fXx7gFBJu9quanTCMmZUx2M8Ug3JU8vz6ZxQbpqvJMHzB5GWpiecZ5vfMYjLXMrK","DdzFFzCqrhszGFPK16aVcQJheNi5YLTFy3jFrKU2DDXUZQTyQk15S23WE4VkVXeUrZJUM7ZUMR9CDiCe1eNQbQWPYCbanEf4yHRUm57w","DdzFFzCqrht48ecwp3At4pMsxSsJfYNr2GgC6tVx5T1bZn8Pyh1TPWFZLyrg5dE8aoEjeN9eCQ7Twd7DWY6bvEuUbfoPnEHywAvNSTiz","DdzFFzCqrhsdzK42MpiYLrWq4RcVTktQvBLy44xqqfUNDCQmY5mdyZ4Rrk9mb41wQD84G41uUWBfdgN6cEN692v4xFfKn2UNqejQ5Ur1","DdzFFzCqrhsdnMQU634BxZNpibw7G4PewZ3VL8uS59XcBVp4v4LqGrjaDQbzQy9mcrg3FZjZwfSvhv5QWdK4g6UFCLgWFy5QxB7yRHnN","DdzFFzCqrht4FSsbSvSRzGy9ohbxouGrPP2CeNUWcUgLswcH5jyEQ1ZDAQVZ8EevhhcDDg5NNUdrh1DPcoypnh4WTGSNaiFtesJyrfrc","DdzFFzCqrhszuqrnLDJgjBbd3riXpKFxqmTyVrS2bWBoag5Sr7gtKzpN9wLJdwsqRCozMiXpmseuwsvRvrqxjfvZnWoZ7ErjzmKBpFaC","DdzFFzCqrhsxXerVBKUrVym9ZURmBUJsDU6d3aJ1xxXZNmYh17cPMdVLZKBDYnePipDWHQyb9264KgJzk5xQuwbSXNkbw3sgjxLhnjaw","DdzFFzCqrhtBNDZ7ETky3Cub11tYnZMiqQ4zWq1MmEanVve83Q6MFiPk9EhriCexhjHjzzrF1kzt7MjzmQHVLURi1McvwJYka5FXBrjU","DdzFFzCqrhsdzK42MpiYLrWq4RcVTktQvBLy44xqqfUNDCQmY5mdyZ4Rrk9mb41wQD84G41uUWBfdgN6cEN692v4xFfKn2UNqejQ5Ur1","DdzFFzCqrht8qERVs2LVE1vzLziN5s2zy4MHZnoXvNkPop2pbrp36Dj3M5sKJMgPRMeqvnHQfGVWZRzxMVcJhipYjLu4tnvhTDfVuEwb","DdzFFzCqrht47TSSryQ4sqYtQgax6vxFve58m7LCPZUyWKtmPE22xvx5DqJPRmxMuMZ95XXpHo73hpEMb1MWg5FcxPKLHDpbVvneQZku","DdzFFzCqrht3DsWoKqBWXBdcCpjSx3GMCJVtCxvB91SJL5kPeo5XxxxRm61JPvikZ685kk8Ucsus4nGnEgbqatH1ugDXpfQgNpc4E5HV","DdzFFzCqrht1xv26RC5KCzuPQQHRvEC5JFc94SQ1op3v1ap2nLinTFYASgVmHpXYc5zcr2wdA9wovavTJMD2w6Lk4Mno3fsc68eBcR3N","DdzFFzCqrhsfzcJvaAuX8xLU4k91gzmK3JKSc4USfeNfXGeswr6u6KWyir5TuQsNcxVCkWNQ2oWTMmeEP3otvA4QViWx3uduc9gbz5bx","DdzFFzCqrhsqtAofYnVnj2p2x7jQopexN8QNohtrDwEoPoKWXGcHe3L1e6Vka23aTNChQkfFcHWt2BrcV2VcFQ3ek4GSJ4bzoEb3pdXu","DdzFFzCqrhszGFPK16aVcQJheNi5YLTFy3jFrKU2DDXUZQTyQk15S23WE4VkVXeUrZJUM7ZUMR9CDiCe1eNQbQWPYCbanEf4yHRUm57w","DdzFFzCqrhsg98tQMxBhT1yqq43zmPpFUZLSkiJ8fkhwT49MAiHAhc8Nob3N5fEh5z4MgkshqmGPsKUNUUHvVw9Hq6hAHsXmKVXzB81Y","DdzFFzCqrhsja3DDM5jqLDkuHZiPv3RNG1a1sdYEMc4yXqBwtQVQgUufgR7TjvmGozh2wWGV5rDfs7WxpwbW867tLdFKhYVnCrkJkSpQ","DdzFFzCqrhsgcuccPd8wgk92p9UJtB4oPF3ytzmncjK7pvpbL4tdFKRV2xVzdAUvUjA5D4xhKuFta64qsJSjFvfhyfsNpk44XcVZgEyi","DdzFFzCqrhtChCbonKZk5nBWgGfcFV3wFwSp8D9RTd7wicQNGJHSnBibmfV5qChXMBpHFshmCDpeNgAC9PC1hNFNoe5g48CdK9WLcNiW","DdzFFzCqrht3GXnfndcAmE8cAiU2QKozqsiSTE7vNnt99xCgaJW3kAUtB23bMUJ35D8GqRJnxWrYNozWs7Z2DQaoLCb73Xk6BfA63UqP"],"addressesOutput":["addr1q9atjfpqwdtg7ytz0pz9zcaqvx8zr2uv6ysvc4csqynr683dzefudzxhadht99nh8gv4l3z93d486ygllgxuh2drrrpsdw6fws","DdzFFzCqrhsk5hpRaDadNREDMArvdAvGodAMhe7DtR1j3o9qCFKc2jA1E3j9HbMAVUhF4UYDVE2JD8wDoK4nMRYGuyqUZnqo4PsfqxMn","DdzFFzCqrhsvQcuZKzD1duLPXVbj9pgwT4TMy9doRWeHPAxy9iqPgEwCXcQjQUj3THSPsVnUc3Efp2tDLcnVmy6xHsnATdwBuF1kGikG","DdzFFzCqrhsxBuUVMeGb9sYMVKEY8AEWCwvMYi8nRmrP4LA8XDJeSHzohtnZyXENP7fuXRvz9k2d4bvE6AcXJiiTHYAvZWf5rxgRUwZm","DdzFFzCqrhsgdY8DRK2z26xAPzeroAPP8vXYjcGcnT3ooXqhscAkVVeHBXxq69kt69yJmehE1gwaNrhPpGaBuBhs87HCcMNpS8FDcP8c"],"fee":1132533,"totalOutput":72307609662,"tokens":[]},{"hash":"944cc4a42868457c23700ce65e16fc741314c4001eda597609c712a195439f62","blockNo":8094059,"blockHash":"55b753e16dce8a168b797fbd4af19756f8022a15436c13da3b24d7e1b0306504","epochNo":379,"epochSlotNo":178160,"slot":78542960,"time":"2022/12/03 23:14:11","addressesInput":["DdzFFzCqrhsmJYCmTsgw9cmfZpSxrG5tYpdkTS44QSWWEb96Zy7ANhrozQgF2mM11Lgt9Uxnt9gnyGJnApKmDRu7TYWUPDNivVun3MPg","DdzFFzCqrhsySuQvzLbp7EC7YiG3rCDPbGLowLksSBzRQYTB8TBB9AnfdG8b58BH8B4sTcdJLQRXX8K4KFaHWFSmAhZteQmfLvaDWgqL","DdzFFzCqrhtAu2WH7JtQZuc5X4XTawtV643dCbJJqHNPJhQXcFRvgCCQeAY223Mv6dJLrwCY85YBGgbmWHvnHk6cswP88jjEWP358xjf"],"addressesOutput":["addr1q9atjfpqwdtg7ytz0pz9zcaqvx8zr2uv6ysvc4csqynr683dzefudzxhadht99nh8gv4l3z93d486ygllgxuh2drrrpsdw6fws","DdzFFzCqrhsfzcJvaAuX8xLU4k91gzmK3JKSc4USfeNfXGeswr6u6KWyir5TuQsNcxVCkWNQ2oWTMmeEP3otvA4QViWx3uduc9gbz5bx"],"fee":373885,"totalOutput":2892557533,"tokens":[]},{"hash":"5d251f50c01b595d32e8e7ecdb024e96a15e5d4f94c056429186e0235e73353c","blockNo":8093693,"blockHash":"9dbd4f3d65a4fe2cbee88f98b7c93b264903e91d509d0e18f975cfedbcb6e8a6","epochNo":379,"epochSlotNo":170620,"slot":78535420,"time":"2022/12/03 21:08:31","addressesInput":["DdzFFzCqrht61fyUE8NN94PPxgNEQuRdepN3bMPqUnzpCRpnRaxRvu6DxAofR1r4zeUR19fnb7bKhQCkdhXFdAp1gkrMFnAY76R1rUvA","DdzFFzCqrht3tUBDVLZzKSBhEg4hs7V6k2HkfEbpqBUbdxzkG9JLskVveCksPRRUutv84NsTRNg5xHPWbsmdzkRS5zNcnqp5jS56HKzL","DdzFFzCqrhsvaPhCi2foLhYi8X56X4hhPapKb7vogyCFnMC9QeLi6osFAjWX8PUoTF28xhpgpLm8o3EZSWzgtUZffLPfyafUjAseQpwt","DdzFFzCqrhsyw2yTrfdu9fDgpyAUSk6jKwQp3yHcd3q7QzEcrsvvXUtkCVoAHCcv3CnaULnAbYfeBPxfSUtG9N71ACnWqDPMzhrnJry2","DdzFFzCqrhsra7iBjmm69ntHYATZ4zh8Yvxq11tPJTC5XHfPvMBReSrqunW3uNhKpD89DWXF4iZwPyb5VKKmNFet3R4Gd2D31PqXkk4u"],"addressesOutput":["addr1q9atjfpqwdtg7ytz0pz9zcaqvx8zr2uv6ysvc4csqynr683dzefudzxhadht99nh8gv4l3z93d486ygllgxuh2drrrpsdw6fws","DdzFFzCqrhsmJYCmTsgw9cmfZpSxrG5tYpdkTS44QSWWEb96Zy7ANhrozQgF2mM11Lgt9Uxnt9gnyGJnApKmDRu7TYWUPDNivVun3MPg","DdzFFzCqrhszuqrnLDJgjBbd3riXpKFxqmTyVrS2bWBoag5Sr7gtKzpN9wLJdwsqRCozMiXpmseuwsvRvrqxjfvZnWoZ7ErjzmKBpFaC","DdzFFzCqrhsja3DDM5jqLDkuHZiPv3RNG1a1sdYEMc4yXqBwtQVQgUufgR7TjvmGozh2wWGV5rDfs7WxpwbW867tLdFKhYVnCrkJkSpQ","DdzFFzCqrht1xv26RC5KCzuPQQHRvEC5JFc94SQ1op3v1ap2nLinTFYASgVmHpXYc5zcr2wdA9wovavTJMD2w6Lk4Mno3fsc68eBcR3N"],"fee":919573,"totalOutput":61566164140,"tokens":[]},{"hash":"845e9d32f015699d96ee58a065169537f78b832f0d2ede561a039527357e1037","blockNo":8092793,"blockHash":"f93e144205acbf206e1711e2992d7ad8842ca25f9dcaa2376ed27ae131792fe4","epochNo":379,"epochSlotNo":153401,"slot":78518201,"time":"2022/12/03 16:21:32","addressesInput":["addr1q998pukrcdhp2zrvx87eyjwfzkrcyv4lflaqa2f7w9dsdkz2wrev8smwz5yxcv0ajfyuj9v8sget7nl6p65nuu2mqmvq05pxha","addr1q998pukrcdhp2zrvx87eyjwfzkrcyv4lflaqa2f7w9dsdkz2wrev8smwz5yxcv0ajfyuj9v8sget7nl6p65nuu2mqmvq05pxha"],"addressesOutput":["addr1q998pukrcdhp2zrvx87eyjwfzkrcyv4lflaqa2f7w9dsdkz2wrev8smwz5yxcv0ajfyuj9v8sget7nl6p65nuu2mqmvq05pxha","addr1q998pukrcdhp2zrvx87eyjwfzkrcyv4lflaqa2f7w9dsdkz2wrev8smwz5yxcv0ajfyuj9v8sget7nl6p65nuu2mqmvq05pxha"],"fee":237985,"totalOutput":883374992063,"tokens":[]},{"hash":"8b4c8c544aefd0f50c051989efea580b88bd421699893a741dd72582d0754f7c","blockNo":8092442,"blockHash":"a5e62ac7edddc72305bc909f23db865309a62d104ff02a7920b4b971d6ed0f19","epochNo":379,"epochSlotNo":146719,"slot":78511519,"time":"2022/12/03 14:30:10","addressesInput":["addr1zxj47sy4qxlktqzmkrw8dahe46gtv8seakrshsqz26qnvzypw288a4x0xf8pxgcntelxmyclq83s0ykeehchz2wtspksr3q9nx","addr1qysdvmvecllayy4rkksgsms5lu4vxhvxwtmx85ks3cctcdl49v0llr6kh86h28lyzeulsjnz9e0rfk2j0t9qend2e6xqvu3nts"],"addressesOutput":["addr1qysdvmvecllayy4rkksgsms5lu4vxhvxwtmx85ks3cctcdl49v0llr6kh86h28lyzeulsjnz9e0rfk2j0t9qend2e6xqvu3nts","addr1qysdvmvecllayy4rkksgsms5lu4vxhvxwtmx85ks3cctcdl49v0llr6kh86h28lyzeulsjnz9e0rfk2j0t9qend2e6xqvu3nts"],"fee":982124,"totalOutput":27634642,"tokens":[]},{"hash":"2bf58138bfbf0a2d7f0fd0bdac044ff1bac91bcd10653668d18c39e5ba4f34a6","blockNo":8091991,"blockHash":"e8b74b4b3c50e5f24677a1474bd7b104a37cb5ee2d117dbc55c6ab5793a9eed7","epochNo":379,"epochSlotNo":137288,"slot":78502088,"time":"2022/12/03 11:52:59","addressesInput":["addr1q93vyug8m3qrqc5qr9u28hzkvdpzyvmez85f58l8y9t2502xrdyd4ezx43vxjgw0dvz6dzy36jku3ptrr9mcv5dftkhsx6f5gt","addr1q93vyug8m3qrqc5qr9u28hzkvdpzyvmez85f58l8y9t2502xrdyd4ezx43vxjgw0dvz6dzy36jku3ptrr9mcv5dftkhsx6f5gt"],"addressesOutput":["addr1zxgx3far7qygq0k6epa0zcvcvrevmn0ypsnfsue94nsn3tvpw288a4x0xf8pxgcntelxmyclq83s0ykeehchz2wtspks905plm","addr1q93vyug8m3qrqc5qr9u28hzkvdpzyvmez85f58l8y9t2502xrdyd4ezx43vxjgw0dvz6dzy36jku3ptrr9mcv5dftkhsx6f5gt","addr1q93vyug8m3qrqc5qr9u28hzkvdpzyvmez85f58l8y9t2502xrdyd4ezx43vxjgw0dvz6dzy36jku3ptrr9mcv5dftkhsx6f5gt","addr1q93vyug8m3qrqc5qr9u28hzkvdpzyvmez85f58l8y9t2502xrdyd4ezx43vxjgw0dvz6dzy36jku3ptrr9mcv5dftkhsx6f5gt","addr1q93vyug8m3qrqc5qr9u28hzkvdpzyvmez85f58l8y9t2502xrdyd4ezx43vxjgw0dvz6dzy36jku3ptrr9mcv5dftkhsx6f5gt","addr1q93vyug8m3qrqc5qr9u28hzkvdpzyvmez85f58l8y9t2502xrdyd4ezx43vxjgw0dvz6dzy36jku3ptrr9mcv5dftkhsx6f5gt"],"fee":329225,"totalOutput":47728737,"tokens":[]},{"hash":"ea4a6fbd1543f1d18e3854f15c91eb6f4943e9ca74a5ec188777b8acb02850d9","blockNo":8091751,"blockHash":"819d471467cb879c2e59151a069a05c46a38b5afd5df5bb8491f3b498832e8e1","epochNo":379,"epochSlotNo":132477,"slot":78497277,"time":"2022/12/03 10:32:48","addressesInput":["addr1qx76hnwx8qukkylx5te0em5gf7kgjqadv6x8z406mpyxz6nn3lmaa3wnh8ka8wxllq5f9kpp6spcwum5vvas6xgvuedsh0rgkp","addr1qx76hnwx8qukkylx5te0em5gf7kgjqadv6x8z406mpyxz6nn3lmaa3wnh8ka8wxllq5f9kpp6spcwum5vvas6xgvuedsh0rgkp","addr1qx76hnwx8qukkylx5te0em5gf7kgjqadv6x8z406mpyxz6nn3lmaa3wnh8ka8wxllq5f9kpp6spcwum5vvas6xgvuedsh0rgkp"],"addressesOutput":["addr1zxgx3far7qygq0k6epa0zcvcvrevmn0ypsnfsue94nsn3tvpw288a4x0xf8pxgcntelxmyclq83s0ykeehchz2wtspks905plm","addr1qx76hnwx8qukkylx5te0em5gf7kgjqadv6x8z406mpyxz6nn3lmaa3wnh8ka8wxllq5f9kpp6spcwum5vvas6xgvuedsh0rgkp"],"fee":426597,"totalOutput":27565744,"tokens":[]},{"hash":"b8e19f518d68fb6031e487ffc6baa3111e7cb6c2a0ba352705c7b4de0bec93c6","blockNo":8091728,"blockHash":"6647569a5b075df4e84c0a33fb91ec663b13e7dca8a7bb4e57f5c0671dde2725","epochNo":379,"epochSlotNo":131760,"slot":78496560,"time":"2022/12/03 10:20:51","addressesInput":["DdzFFzCqrhskfDkxosdQ3NNE6w4TP7bqd75QAADSXZSWU2ZTeiT3ti2yTCZkvLfoG8WQgZdaf7Bt8xKuHPvzQLbQdx3UFbW97tVCFB6T","DdzFFzCqrhshwK84ArxQpjYwbRK7vVFC85RoLQwMrf1M4mmXnsKosTpHsxE6F92JRa1yXrvw7VmzXPPrA9bLXhGrpbQyg3VuwHbHCPag","DdzFFzCqrhtBaeADXrBwvpTQLMi8H6rQrVgq8XPh1vdaBfeCJ2vvXFyP7RiN2bhUMEGafj6XMarkFn8ddDaEPvyRsA6b54Xo4ivWgDwn","DdzFFzCqrhsquaZqLm4u4NRmcXDCjA4cGLzVCbCdmm5wHZuokt18JnVkg6pdE7GB1KsCGWUCPE6cFmhw5ac2Fc1SjdK5Jv9k8vXfbXQK","DdzFFzCqrhsyHMpgFrefvBjGGpqU8nsTY4RfwnF4xTrTfcbKvFHBwTooDHixjSzjrD9yy3jRFXuqVhn6WyYNPaNHYCfxwgoStwyK4ii3","DdzFFzCqrhss1W8zTJ9uHa7zymNfGZHgdGRQQkYVhLrmeAA5BaVUrTEPQKLo3mfZzHm6Hj7TyR4ZxofWNvo7KhoEBrnK1MxvLZPKhNaK","DdzFFzCqrhtBaB8AXMe5nzxuHUh9qxCVQphcgzrRutT4qRWXM8DwfjJkUZ9Eadz1QaPwPSL2th9ms2xzFS2qxU1dAKEuC7ma91VCy3rQ","DdzFFzCqrhsegkBUbHaoe56vYWHDJDcXmsB1dhGs1TFUDHqSa1htYgimZJ9BF4hsTsm3eWNYVaGTMBszeUXChCxNKv8iv6gU2tHuAq1f","DdzFFzCqrhtBaB8AXMe5nzxuHUh9qxCVQphcgzrRutT4qRWXM8DwfjJkUZ9Eadz1QaPwPSL2th9ms2xzFS2qxU1dAKEuC7ma91VCy3rQ"],"addressesOutput":["addr1q9atjfpqwdtg7ytz0pz9zcaqvx8zr2uv6ysvc4csqynr683dzefudzxhadht99nh8gv4l3z93d486ygllgxuh2drrrpsdw6fws","DdzFFzCqrht3tUBDVLZzKSBhEg4hs7V6k2HkfEbpqBUbdxzkG9JLskVveCksPRRUutv84NsTRNg5xHPWbsmdzkRS5zNcnqp5jS56HKzL","DdzFFzCqrhsyw2yTrfdu9fDgpyAUSk6jKwQp3yHcd3q7QzEcrsvvXUtkCVoAHCcv3CnaULnAbYfeBPxfSUtG9N71ACnWqDPMzhrnJry2","DdzFFzCqrhsra7iBjmm69ntHYATZ4zh8Yvxq11tPJTC5XHfPvMBReSrqunW3uNhKpD89DWXF4iZwPyb5VKKmNFet3R4Gd2D31PqXkk4u","DdzFFzCqrhtCJ8gZ9gdfDFiZsNe9FjPLmsQBJzuUAxmyQbWbrxoD9tbJu6Z5cKdFdvpWFjuHQnzU2aVbLD9UCGCcT9XKa3Qk5dQofZwi"],"fee":958293,"totalOutput":86230333895,"tokens":[]},{"hash":"a2156657568dfcdb5033592010589e761c518de1fdfd76d477a823be3f494940","blockNo":8091402,"blockHash":"ff17129274185635bc6b4ae759abcb200a0b47106461372f3de6c0a22c24d1cb","epochNo":379,"epochSlotNo":124465,"slot":78489265,"time":"2022/12/03 08:19:16","addressesInput":["DdzFFzCqrhsgveEj8mmQSWGbqNunaAXRi9Lt8TMcYTniaoQoLifbt6QGd1yy9ywp1k533h5T1eReP6kg2Ysjdi6HBAHAbgmwuyTiEamH","DdzFFzCqrhsnnpdC857LkRAKPrkP4h7vRNV44aaG4Z4c3CpbwKpx2fWQL8fgt4MsUVsSDrjmWkQbQW2TJLxiKHGktWQmutvqdNNQsfLA"],"addressesOutput":["addr1q9atjfpqwdtg7ytz0pz9zcaqvx8zr2uv6ysvc4csqynr683dzefudzxhadht99nh8gv4l3z93d486ygllgxuh2drrrpsdw6fws","DdzFFzCqrhsegkBUbHaoe56vYWHDJDcXmsB1dhGs1TFUDHqSa1htYgimZJ9BF4hsTsm3eWNYVaGTMBszeUXChCxNKv8iv6gU2tHuAq1f"],"fee":364205,"totalOutput":94490276,"tokens":[]},{"hash":"47e6ae9994662ceb4d39109274a8691ddd610529a5940ed3398d2215cbbaf39d","blockNo":8090991,"blockHash":"8ae014072a274540a09159ef568efcb95ec514a8cd3594932bef0b4744a22648","epochNo":379,"epochSlotNo":116285,"slot":78481085,"time":"2022/12/03 06:02:56","addressesInput":["DdzFFzCqrhssxLF2rNWjr4khbtssTCMkAPGz1EjyAHWxZiCfxDeqWd3nsgGdTgLtmskmQuLjjfLZPNzpuovT12uAFGQ51xApU89GZksF","DdzFFzCqrhsm1b3LWgtMK7wkQ6WbJpLVn8XfwW6qV6uKK5Bhhe1tH8SR7XQSZ8sRY2KbQpvjpdaHJqDEeTHSwJW3NfcTzMSj44ksmJ9y","DdzFFzCqrht9r5t6Agh2nBxZSYq8wuejdkxTRiyLDpbW5HZYFGeKMqEMPKWNu3xdZV6Cni7CRwa5WSgV84YbtweW2mwEH1SjQ6wMJ1GA","DdzFFzCqrhtCUH1SJMjy9D4NvBsCDAyvwcA7mufPnofonRL5rSYxtJGY7tYwJSRA84ZcXC7wMrC2ihhQGQ4d7VjuJjfChWfZZFxa2xo8","DdzFFzCqrhtBaB8AXMe5nzxuHUh9qxCVQphcgzrRutT4qRWXM8DwfjJkUZ9Eadz1QaPwPSL2th9ms2xzFS2qxU1dAKEuC7ma91VCy3rQ","DdzFFzCqrht7EAyt7QAhYbTrtZgzZQwXQeqhWB9L4qaKoSN7mMrXae7D5K2NFcEWJBXHTkFczt3pyjnAwQ1XCCxWALr76n7EV3Vmdx5p","DdzFFzCqrht9vP7TJonzxGTUmgKBuQnsCHub33Hgp5TQfVcSg3ojGE9Ucn4owe5PYYKAmtPidHGi3xq4LcGCfXypUkXd9tqwjaNcMvWg"],"addressesOutput":["addr1q9atjfpqwdtg7ytz0pz9zcaqvx8zr2uv6ysvc4csqynr683dzefudzxhadht99nh8gv4l3z93d486ygllgxuh2drrrpsdw6fws","DdzFFzCqrhsnnpdC857LkRAKPrkP4h7vRNV44aaG4Z4c3CpbwKpx2fWQL8fgt4MsUVsSDrjmWkQbQW2TJLxiKHGktWQmutvqdNNQsfLA","DdzFFzCqrhss1W8zTJ9uHa7zymNfGZHgdGRQQkYVhLrmeAA5BaVUrTEPQKLo3mfZzHm6Hj7TyR4ZxofWNvo7KhoEBrnK1MxvLZPKhNaK","DdzFFzCqrhtBaeADXrBwvpTQLMi8H6rQrVgq8XPh1vdaBfeCJ2vvXFyP7RiN2bhUMEGafj6XMarkFn8ddDaEPvyRsA6b54Xo4ivWgDwn","DdzFFzCqrhshwK84ArxQpjYwbRK7vVFC85RoLQwMrf1M4mmXnsKosTpHsxE6F92JRa1yXrvw7VmzXPPrA9bLXhGrpbQyg3VuwHbHCPag"],"fee":938933,"totalOutput":50379680832,"tokens":[]},{"hash":"eff24870d339226b7d91d90162323e6160a2f63030930097b66e3ce65b4ca7ae","blockNo":8090271,"blockHash":"890a1225cc76af081b3e2b7bf993d288cf6a86b31fad1d1c30c6cbaa0bc6739d","epochNo":379,"epochSlotNo":101379,"slot":78466179,"time":"2022/12/03 01:54:30","addressesInput":["addr1q8fjdde87jrua78trg9ylv7gpvd5skzcv5nqp3wl467ykzgsmz083klcvm744y0n7yyg49ykzz0j628xpu4n5u0r0r4qrfqf6q","addr1q8fjdde87jrua78trg9ylv7gpvd5skzcv5nqp3wl467ykzgsmz083klcvm744y0n7yyg49ykzz0j628xpu4n5u0r0r4qrfqf6q","addr1q8fjdde87jrua78trg9ylv7gpvd5skzcv5nqp3wl467ykzgsmz083klcvm744y0n7yyg49ykzz0j628xpu4n5u0r0r4qrfqf6q"],"addressesOutput":["addr1qyq9rjj4h33qc2n4483rm47r805u0d57kupjeqeu4q2mpe68lwa0glh7zw3wa7rq2s2jrg3v7usn2mwyc3vzylkm4y2sec2s60","addr1q8fjdde87jrua78trg9ylv7gpvd5skzcv5nqp3wl467ykzgsmz083klcvm744y0n7yyg49ykzz0j628xpu4n5u0r0r4qrfqf6q","addr1q8fjdde87jrua78trg9ylv7gpvd5skzcv5nqp3wl467ykzgsmz083klcvm744y0n7yyg49ykzz0j628xpu4n5u0r0r4qrfqf6q","addr1q8fjdde87jrua78trg9ylv7gpvd5skzcv5nqp3wl467ykzgsmz083klcvm744y0n7yyg49ykzz0j628xpu4n5u0r0r4qrfqf6q"],"fee":597977,"totalOutput":67598108,"tokens":[]},{"hash":"4ed14b7173c5e751f02eed4912087e87a48c5f05600d56819a27171c82074467","blockNo":8089957,"blockHash":"ea01da1340fd221812b08d056a66d0888f4e5ce1af35984581fbaff258f682a0","epochNo":379,"epochSlotNo":95129,"slot":78459929,"time":"2022/12/03 00:10:20","addressesInput":["DdzFFzCqrhtBKiPHitNkL6QtftkDgvsy6L3q5u51SuCKg7cfsbdt4fWYFP6B8b7bGKGTQCgH6R1nSGMprbub1cZKEFk5Kumui1cMQhj3","DdzFFzCqrhtB5FCf3WxJjbz3hhm7AM5BxSwxHx8Ma1aPGt4WEKE9ztJqvDf4wNP3yNzZM6tN7WuU7xsxkumUGUvGqxG7t6sBtqVdqNb2","DdzFFzCqrhsqtAofYnVnj2p2x7jQopexN8QNohtrDwEoPoKWXGcHe3L1e6Vka23aTNChQkfFcHWt2BrcV2VcFQ3ek4GSJ4bzoEb3pdXu","DdzFFzCqrhsk9FGuXPWVPt9zSQcQWbt4mPWwgwkdCXd5p7yT9KE7MPaYmF9THk4DF65amyssqFELACb7SRpocASJtiXZcMT2AxRhq5ZB","DdzFFzCqrhtBf3pPfkDRKJitytAYswfnch1iPbyAXkUbaMw1mbvrPcScvgFfJCaQLdarfPuMcsQscRQirMRCeGB1wPmBHAZSseQQtRa2","DdzFFzCqrht5c5mRq43zcXo5c6mfSvBokzuVsLBjBefHxG6gdvfRy6dVJWZFAzCq4PnYXLh3QSpijjyCLzsd2kbVCruA6xd9umcPTvcE","DdzFFzCqrhszkhjVf6CtHJGndA9qijQNtGc3zYLSuTy3dnJAuDtoVt9sZFkAjLE2gPVLCohLQ4wY23L6osBxdVMncwXm8dzhxsegERK6","DdzFFzCqrhsottRG8TpCyGbQBBgyZf9oNWn2xRqCr85GGwREUuyjcDM55bJ7HMxGk6iZXH6kpZbSimADCHrQAESTCuqq5GYhRaTYrNsE","DdzFFzCqrhswqsuabwyEfpiAhETdUVE248dLsHa81Kw9ppiXJv4Je6Exu3bYFAECtq8ahDLQ1x71ceMBigHyDPHBqoWurx7QHPK4VDDH","DdzFFzCqrhsgveEj8mmQSWGbqNunaAXRi9Lt8TMcYTniaoQoLifbt6QGd1yy9ywp1k533h5T1eReP6kg2Ysjdi6HBAHAbgmwuyTiEamH","DdzFFzCqrhsy7LmipXJryt2TWsMyf1qMkfiAno3JLUT4GSFkbmZnuvDg73R6aRJFKPp6T8ZSxck9gpjwtPE4ZAXN6yumf8RmVmCEaw7X","DdzFFzCqrhseTXDa1c2D1CFqRKZ33i6ZGbWHqJbuPGQqttR2cqdBSqXgnc6xH9w5HAVGPnDZmjkM1wcAe7ujz9QbfcCcgryEJdCrWsgg","DdzFFzCqrhsxFozGpF59kcmeUTVhydYox1LaZqhzBhQktrYpgeEv3NJwYp1AeUgsuDggQv1AzABGXM12GVyzurrwBxZuYmFvutXaDPVm","DdzFFzCqrhsgzdQkQMbjD63G2FfUb5Wby7b4czEGrfwKrDAKygSoMSac2EDpYaa1FESSvLc9wr4wsPnmCW4YsU7gL7JMxBrAY2aEGy6F","DdzFFzCqrhsxFozGpF59kcmeUTVhydYox1LaZqhzBhQktrYpgeEv3NJwYp1AeUgsuDggQv1AzABGXM12GVyzurrwBxZuYmFvutXaDPVm","DdzFFzCqrhsjWekkjSaoVnNA6EoohtaJ3G98Sibx74xy12N1xz961mYkVBgdCHNQWC5DzEKNk8W2VsXXzPAYhMqh9nNFQrMtXPA6CGiW","DdzFFzCqrhskYKDBTyGvHWa1YGsww7DbwNBFxXhNYutHmXb6QoUhZK4swBtrte4EJ2KXMUdNWA2a2nmKKaFweJxXSRwmr29BUgRoqFUi","DdzFFzCqrhso83Vn35EsKGHa82rWZwspfukRCj7Xiy2RxZKkG8bVdnhakpVJjKBwq3nwUZs1JpQ2Z1CUs8MLjxmzNL1jzGG1z688QrSN","DdzFFzCqrhsk9FGuXPWVPt9zSQcQWbt4mPWwgwkdCXd5p7yT9KE7MPaYmF9THk4DF65amyssqFELACb7SRpocASJtiXZcMT2AxRhq5ZB"],"addressesOutput":["addr1q9atjfpqwdtg7ytz0pz9zcaqvx8zr2uv6ysvc4csqynr683dzefudzxhadht99nh8gv4l3z93d486ygllgxuh2drrrpsdw6fws","DdzFFzCqrhsm1b3LWgtMK7wkQ6WbJpLVn8XfwW6qV6uKK5Bhhe1tH8SR7XQSZ8sRY2KbQpvjpdaHJqDEeTHSwJW3NfcTzMSj44ksmJ9y","DdzFFzCqrht9vP7TJonzxGTUmgKBuQnsCHub33Hgp5TQfVcSg3ojGE9Ucn4owe5PYYKAmtPidHGi3xq4LcGCfXypUkXd9tqwjaNcMvWg","DdzFFzCqrhtCUH1SJMjy9D4NvBsCDAyvwcA7mufPnofonRL5rSYxtJGY7tYwJSRA84ZcXC7wMrC2ihhQGQ4d7VjuJjfChWfZZFxa2xo8","DdzFFzCqrht9r5t6Agh2nBxZSYq8wuejdkxTRiyLDpbW5HZYFGeKMqEMPKWNu3xdZV6Cni7CRwa5WSgV84YbtweW2mwEH1SjQ6wMJ1GA"],"fee":1055093,"totalOutput":50302846468,"tokens":[]},{"hash":"f9110a34745d9de65050335e4ca30fdcb8b4371136edae8fc479bc3b19bfb65c","blockNo":8089936,"blockHash":"0c59d7cab0491fc563824880ad498f19706c45d2032f47410df740658af8f370","epochNo":379,"epochSlotNo":94748,"slot":78459548,"time":"2022/12/03 00:03:59","addressesInput":["addr1q8fjdde87jrua78trg9ylv7gpvd5skzcv5nqp3wl467ykzgsmz083klcvm744y0n7yyg49ykzz0j628xpu4n5u0r0r4qrfqf6q","addr1q8fjdde87jrua78trg9ylv7gpvd5skzcv5nqp3wl467ykzgsmz083klcvm744y0n7yyg49ykzz0j628xpu4n5u0r0r4qrfqf6q","addr1q8fjdde87jrua78trg9ylv7gpvd5skzcv5nqp3wl467ykzgsmz083klcvm744y0n7yyg49ykzz0j628xpu4n5u0r0r4qrfqf6q"],"addressesOutput":["addr1zxgx3far7qygq0k6epa0zcvcvrevmn0ypsnfsue94nsn3tvpw288a4x0xf8pxgcntelxmyclq83s0ykeehchz2wtspks905plm","addr1q8fjdde87jrua78trg9ylv7gpvd5skzcv5nqp3wl467ykzgsmz083klcvm744y0n7yyg49ykzz0j628xpu4n5u0r0r4qrfqf6q","addr1q8fjdde87jrua78trg9ylv7gpvd5skzcv5nqp3wl467ykzgsmz083klcvm744y0n7yyg49ykzz0j628xpu4n5u0r0r4qrfqf6q"],"fee":447233,"totalOutput":28639482,"tokens":[]},{"hash":"c6f9fba1f3623e7bf3a527fe5d92240bbfe09758a6df61a74b869eaf0c98a071","blockNo":8089934,"blockHash":"3e41e75ea36ba3c558de6fe46489bf6c80538f63251b90ed1d75619918bc02a1","epochNo":379,"epochSlotNo":94686,"slot":78459486,"time":"2022/12/03 00:02:57","addressesInput":["addr1q8fjdde87jrua78trg9ylv7gpvd5skzcv5nqp3wl467ykzgsmz083klcvm744y0n7yyg49ykzz0j628xpu4n5u0r0r4qrfqf6q","addr1q8fjdde87jrua78trg9ylv7gpvd5skzcv5nqp3wl467ykzgsmz083klcvm744y0n7yyg49ykzz0j628xpu4n5u0r0r4qrfqf6q","addr1q8fjdde87jrua78trg9ylv7gpvd5skzcv5nqp3wl467ykzgsmz083klcvm744y0n7yyg49ykzz0j628xpu4n5u0r0r4qrfqf6q","addr1q8fjdde87jrua78trg9ylv7gpvd5skzcv5nqp3wl467ykzgsmz083klcvm744y0n7yyg49ykzz0j628xpu4n5u0r0r4qrfqf6q"],"addressesOutput":["addr1zxgx3far7qygq0k6epa0zcvcvrevmn0ypsnfsue94nsn3tvpw288a4x0xf8pxgcntelxmyclq83s0ykeehchz2wtspks905plm","addr1q8fjdde87jrua78trg9ylv7gpvd5skzcv5nqp3wl467ykzgsmz083klcvm744y0n7yyg49ykzz0j628xpu4n5u0r0r4qrfqf6q","addr1q8fjdde87jrua78trg9ylv7gpvd5skzcv5nqp3wl467ykzgsmz083klcvm744y0n7yyg49ykzz0j628xpu4n5u0r0r4qrfqf6q"],"fee":436453,"totalOutput":26233887,"tokens":[]}],"totalItems":11901,"totalPages":596,"currentPage":0}