{"data":[{"hash":"5d38b1c504280e486807933ff1374290b58dd7bfb2b29c45dbbbaa27a3bb0a48","blockNo":8143696,"blockHash":"c3c5499a13d4d4892375605c7ac48ccf8cf3ec16af49412a86c61156738d9500","epochNo":381,"epochSlotNo":330644,"slot":79559444,"time":"2022/12/15 17:35:35","addressesInput":["DdzFFzCqrhsoHor9r6659AtQGbEw2S8r9V6cEAi7bEfJGgfPycSRK6qTMR42MmVWRQz4jz7Eb71YDMRQEUT8DaZx6tLDGYTTYZQR7Eno","DdzFFzCqrhsfHbsREJSCMVhPpKadRe84we4SFk6N2TiAQSeUJxpK9rVSNS8EC1GrWiu5SxEDpkyzKeNf68957g9ygcJybsVRpj3NZzMo","DdzFFzCqrhsdzK42MpiYLrWq4RcVTktQvBLy44xqqfUNDCQmY5mdyZ4Rrk9mb41wQD84G41uUWBfdgN6cEN692v4xFfKn2UNqejQ5Ur1","DdzFFzCqrhstn5WUz5JcghsJcXGetEwzmLrQBgmRJfWSegCPwzL35KGjhtF5jVN5aK3PjGgDpVTcXyEL4jkNkBzm8y4gkdqx1YLuboSW","DdzFFzCqrhsyZseyyFXT9Epfde58M7eYWX6Vmd3ASywm2apaww47wnLNDFdmBF6Zd7StDTNpPiZ9Y5Anq8pagidesRKjMkr6PMbjfvuP","DdzFFzCqrhskhhhes5q9Hfii2UpPP4wAqztJEgoonoTPVkR1fMCzJoRC97FxS2a75cgd4wVuLHNvzGR43eiwXt16j7jHGgMzodg8GgEk","DdzFFzCqrhsvpY6WbApCUA8keaYE2WYLbYPJ4jNR2PCev2dLw5MKDvBVoBXbJhTft9NVrWoxnMC6Tdmwyvgd9Mr6S76CbtbWPpt7VcPt","DdzFFzCqrht7dt4hYT3kzZ97eewFAhz4uMXFxQsm97Rn69HSSKSPBSKFHhuzsesWyXzSLgbprpzsKBR3KwhDMBRQEN42FpB9xgt4nHSs","DdzFFzCqrhtAz4ZhgbsfcFRZtyENW2namVWbm1hdZAQvpfqYURwxyobW32iySKEUQEJ7ZnMxxGCefH6o8yZQPZCPYNrV4xB45AfGEiha","DdzFFzCqrhsfHbsREJSCMVhPpKadRe84we4SFk6N2TiAQSeUJxpK9rVSNS8EC1GrWiu5SxEDpkyzKeNf68957g9ygcJybsVRpj3NZzMo","DdzFFzCqrhsp3Jx4JehdvHdsC1U2bqzovSR2bXbmGFjXka68wGNNtmxGQW8kyyvcyiLpWcSNE6oW8UNk59B2mR4nYP2BeMYigBr4Y64b","DdzFFzCqrhsiEY27oNkQ5iWA5VoB1ViuBczzJLHTbg4AfQPWgvhffDhtN2eb5SSK7WARmRCEs5Bj8hVZrieV6Pz2uMtiG1PQMRCcR62z","DdzFFzCqrhsiFzkByqWNofs9u9xLPfUFpVh186BwjNaqSNKY4Jwxe7Q2MR36WTPgdZEDF8wagevDqdjUFRXE9jhjN45zqprNbsaH4PUe"],"addressesOutput":["addr1q9atjfpqwdtg7ytz0pz9zcaqvx8zr2uv6ysvc4csqynr683dzefudzxhadht99nh8gv4l3z93d486ygllgxuh2drrrpsdw6fws","DdzFFzCqrhtA6PUvTtmctMBNmiqrRW7XQmsVB7spG8vsmZR1vTtoyZmceHDatH5NrEzHaFycoWr3b9ZdFKqi9FPkUhwz9KQWnzsFb9ev","DdzFFzCqrht5R1d3iR3MxGCWX3JL9kUaQDgMyZaT6FZkpULLc4Xw98dRJUB3Cp2awdXe7wJA8n4MGeGc8WeDQ3qkqggGvvrraQnkZtwa","DdzFFzCqrhsthj1A14h48UuCcPEsZnAkbY34FeohPqvL2RxzS7LM2Kz7KtYV2K9X1MjJK6kL4soxx7W6Kht9aAPhHxmTNDGjkqd6c9w6","DdzFFzCqrhserpPqsSkDHTFzWHpSjQcHoPA9x7sRGgfh5auay6qxfGWb3dhjEpEDuxeBVggvrmyG2i3daAzeNwsT1cCmVFy6dF1YirXH"],"fee":1011841,"totalOutput":69281405607,"tokens":[]},{"hash":"bcf3eb170cec94fb82ab83ad7a421edb218fb18eda70dd9a9b05d568a103d857","blockNo":8143645,"blockHash":"ec0c5fd6a562603d230447e5354b8ae6bc7af7e4f0bb8c024e2a1eb0b9a89d93","epochNo":381,"epochSlotNo":329688,"slot":79558488,"time":"2022/12/15 17:19:39","addressesInput":["addr1q877y70sy7hlw04rlmf5jkfrd59me0yk5q6skz3jnfz4dhkhy3954pmhklwxjz05vsx0qt4yw4a9275eldyrkp0c0hlq5cf89q","addr1q9wp82yqcj4fsxs0xcsrgh2kdyqzxx20mmzxvap4pvgygcpvqmvrrnylulhd86eukeqplqwvtpezppk66lnzufcy74fsat2rp2","addr1q9wp82yqcj4fsxs0xcsrgh2kdyqzxx20mmzxvap4pvgygcpvqmvrrnylulhd86eukeqplqwvtpezppk66lnzufcy74fsat2rp2"],"addressesOutput":["addr1q837uacfzyz8dut9w88nwp0h2acfpghaz6dd5e3cwnzhc2fvqmvrrnylulhd86eukeqplqwvtpezppk66lnzufcy74fs7eyf3t","addr1q877y70sy7hlw04rlmf5jkfrd59me0yk5q6skz3jnfz4dhkhy3954pmhklwxjz05vsx0qt4yw4a9275eldyrkp0c0hlq5cf89q","addr1q837uacfzyz8dut9w88nwp0h2acfpghaz6dd5e3cwnzhc2fvqmvrrnylulhd86eukeqplqwvtpezppk66lnzufcy74fs7eyf3t"],"fee":340489,"totalOutput":19483865,"tokens":[]},{"hash":"9550ee5a2ccd9907b212dba202eb24aaf3521334fc7bd8fc0798ac7b16459056","blockNo":8143492,"blockHash":"1d2e016885d2a16e3922c5a85f68caf27a4d016cc65ff75ad9b6124a2f73e903","epochNo":381,"epochSlotNo":326119,"slot":79554919,"time":"2022/12/15 16:20:10","addressesInput":["DdzFFzCqrhsjUQREsyaMXvk3fw1Wd8YRJSUyvuqVUzTShrc1iWXhq7cTuGPWSF8qYw6syN2L4JqNUinARWUNWvPw62Fb1SK7Sjgj4ViU","DdzFFzCqrhssdGcjxvj8jQSXQC5rjGuNPq5V4fRpwXnfE6jn9eGzpr2CtmnyHD7Q9ZBbPSWWoXr2fzKMJmXU7XHzHXMURweHAQ1PfYLE","DdzFFzCqrhtAyTfdzVpA367WXBxcjmwBuePKdGPEUY7w8QeJTXsMG5e2p3DQ6ZmTkZ9SjtpJvbSW8VndAmWeRKHfXALAT7tEHjhqphDL","DdzFFzCqrhsyZseyyFXT9Epfde58M7eYWX6Vmd3ASywm2apaww47wnLNDFdmBF6Zd7StDTNpPiZ9Y5Anq8pagidesRKjMkr6PMbjfvuP"],"addressesOutput":["addr1q9atjfpqwdtg7ytz0pz9zcaqvx8zr2uv6ysvc4csqynr683dzefudzxhadht99nh8gv4l3z93d486ygllgxuh2drrrpsdw6fws","DdzFFzCqrhsvpY6WbApCUA8keaYE2WYLbYPJ4jNR2PCev2dLw5MKDvBVoBXbJhTft9NVrWoxnMC6Tdmwyvgd9Mr6S76CbtbWPpt7VcPt","DdzFFzCqrht7dt4hYT3kzZ97eewFAhz4uMXFxQsm97Rn69HSSKSPBSKFHhuzsesWyXzSLgbprpzsKBR3KwhDMBRQEN42FpB9xgt4nHSs","DdzFFzCqrhstn5WUz5JcghsJcXGetEwzmLrQBgmRJfWSegCPwzL35KGjhtF5jVN5aK3PjGgDpVTcXyEL4jkNkBzm8y4gkdqx1YLuboSW","DdzFFzCqrhsp3Jx4JehdvHdsC1U2bqzovSR2bXbmGFjXka68wGNNtmxGQW8kyyvcyiLpWcSNE6oW8UNk59B2mR4nYP2BeMYigBr4Y64b"],"fee":924721,"totalOutput":51118806534,"tokens":[]},{"hash":"94308316aaf63376e1acc8b6ff51fd6f67dd2c669df4779feafd0d8e45a26807","blockNo":8143121,"blockHash":"940c1d99e4c48d0fa483907b0268f1a5ac539a1399b266e27bd1f565381c6432","epochNo":381,"epochSlotNo":318552,"slot":79547352,"time":"2022/12/15 14:14:03","addressesInput":["addr1q9auarxg7pudzdddm63sw8vcr2tlsmtecuy6uh4fsx2ztfewckm6l2w9j3a6jagshjent3tz2dkuz3q99t5dz8zq37rq2cwutd","addr1q87nw7t0q2hq9d92gee5qfpy59t9ez502g3dw26dagw5jgfwckm6l2w9j3a6jagshjent3tz2dkuz3q99t5dz8zq37rqkds28m","addr1q87nw7t0q2hq9d92gee5qfpy59t9ez502g3dw26dagw5jgfwckm6l2w9j3a6jagshjent3tz2dkuz3q99t5dz8zq37rqkds28m","addr1q87nw7t0q2hq9d92gee5qfpy59t9ez502g3dw26dagw5jgfwckm6l2w9j3a6jagshjent3tz2dkuz3q99t5dz8zq37rqkds28m","addr1q87nw7t0q2hq9d92gee5qfpy59t9ez502g3dw26dagw5jgfwckm6l2w9j3a6jagshjent3tz2dkuz3q99t5dz8zq37rqkds28m"],"addressesOutput":["addr1wxr2a8htmzuhj39y2gq7ftkpxv98y2g67tg8zezthgq4jkg0a4ul4","addr1q87nw7t0q2hq9d92gee5qfpy59t9ez502g3dw26dagw5jgfwckm6l2w9j3a6jagshjent3tz2dkuz3q99t5dz8zq37rqkds28m"],"fee":313910,"totalOutput":23149278,"tokens":[]},{"hash":"ca759c54ee2a40d3f51f78b2a17f888d6aeea6f13b4f06f71e5d8f676efdc887","blockNo":8143096,"blockHash":"db5376d31d012fee63decb931f06a2925c421283fdd3d3ef70be3e10f92203e3","epochNo":381,"epochSlotNo":318170,"slot":79546970,"time":"2022/12/15 14:07:41","addressesInput":["addr1q8kccqlzah3hp9rpnhnacdr5ffhhp7990qdqulqgyn7syk708k6krrpuf75x3ydyycmjjfpwm28gstqdzdg934p7avxs538k4a","addr1q8kccqlzah3hp9rpnhnacdr5ffhhp7990qdqulqgyn7syk708k6krrpuf75x3ydyycmjjfpwm28gstqdzdg934p7avxs538k4a","addr1q8kccqlzah3hp9rpnhnacdr5ffhhp7990qdqulqgyn7syk708k6krrpuf75x3ydyycmjjfpwm28gstqdzdg934p7avxs538k4a","addr1q8kccqlzah3hp9rpnhnacdr5ffhhp7990qdqulqgyn7syk708k6krrpuf75x3ydyycmjjfpwm28gstqdzdg934p7avxs538k4a"],"addressesOutput":["addr1qymaumdm272r24d0s46827plplhc6t520lufdr5vdqn0z8hze4zwjlw3vpjum04n0gjymwde8c9p5r67yqupkzy8yz5qwdv2cd","addr1q8kccqlzah3hp9rpnhnacdr5ffhhp7990qdqulqgyn7syk708k6krrpuf75x3ydyycmjjfpwm28gstqdzdg934p7avxs538k4a","addr1q8kccqlzah3hp9rpnhnacdr5ffhhp7990qdqulqgyn7syk708k6krrpuf75x3ydyycmjjfpwm28gstqdzdg934p7avxs538k4a","addr1q8kccqlzah3hp9rpnhnacdr5ffhhp7990qdqulqgyn7syk708k6krrpuf75x3ydyycmjjfpwm28gstqdzdg934p7avxs538k4a"],"fee":451809,"totalOutput":51782651,"tokens":[]},{"hash":"8ceeb21ce50c918fafedee61ff5df1ecb95b8affa251e801ce36a788119b40aa","blockNo":8143042,"blockHash":"c7c8da2bc0427a32e9b2d7e4a746ad5d29c9d657caee47d8e3bb8b94845dcb50","epochNo":381,"epochSlotNo":316989,"slot":79545789,"time":"2022/12/15 13:48:00","addressesInput":["addr1zxgx3far7qygq0k6epa0zcvcvrevmn0ypsnfsue94nsn3tvpw288a4x0xf8pxgcntelxmyclq83s0ykeehchz2wtspks905plm","addr1qysdvmvecllayy4rkksgsms5lu4vxhvxwtmx85ks3cctcdl49v0llr6kh86h28lyzeulsjnz9e0rfk2j0t9qend2e6xqvu3nts"],"addressesOutput":["addr1zxgx3far7qygq0k6epa0zcvcvrevmn0ypsnfsue94nsn3tvpw288a4x0xf8pxgcntelxmyclq83s0ykeehchz2wtspks905plm","addr1qysdvmvecllayy4rkksgsms5lu4vxhvxwtmx85ks3cctcdl49v0llr6kh86h28lyzeulsjnz9e0rfk2j0t9qend2e6xqvu3nts"],"fee":741928,"totalOutput":27039254,"tokens":[]},{"hash":"0b1846a413830a829343eb8c7da6eb908cd35340935c647499f6e2670fec5fe9","blockNo":8142960,"blockHash":"f05eb671d7e2e3a289efe4e0f4df6ea94dae6393fac1f308b870316fdc77af4a","epochNo":381,"epochSlotNo":315014,"slot":79543814,"time":"2022/12/15 13:15:05","addressesInput":["DdzFFzCqrhsoHor9r6659AtQGbEw2S8r9V6cEAi7bEfJGgfPycSRK6qTMR42MmVWRQz4jz7Eb71YDMRQEUT8DaZx6tLDGYTTYZQR7Eno","DdzFFzCqrhspzqTDHcVLE28vWGuY66ZcYge2nZTyYfAGLeENGFNB2Es5wstsA7qt4A5fjnXzfmc4JJiYg287YphEJ719ph9wRcnyvbLM"],"addressesOutput":["addr1q9atjfpqwdtg7ytz0pz9zcaqvx8zr2uv6ysvc4csqynr683dzefudzxhadht99nh8gv4l3z93d486ygllgxuh2drrrpsdw6fws","DdzFFzCqrhtAyTfdzVpA367WXBxcjmwBuePKdGPEUY7w8QeJTXsMG5e2p3DQ6ZmTkZ9SjtpJvbSW8VndAmWeRKHfXALAT7tEHjhqphDL"],"fee":366757,"totalOutput":1558876691,"tokens":[]},{"hash":"042403de47e82acbc11a233b1f6fca51169293c93f6edfcb7237430bcef26116","blockNo":8142734,"blockHash":"fe5aff0af67b28aed995e356b681d5b52fd54c2c04767ca258a7e9c0671ca70b","epochNo":381,"epochSlotNo":310329,"slot":79539129,"time":"2022/12/15 11:57:00","addressesInput":["addr1qyecjgprat9qjdfkv6ln45eww5a9lwkgqn92x6lspd339ky00hv6dpawknxe42d8dlx42msv2nt8yej77vudk0uruvtsh2aeym","addr1qyecjgprat9qjdfkv6ln45eww5a9lwkgqn92x6lspd339ky00hv6dpawknxe42d8dlx42msv2nt8yej77vudk0uruvtsh2aeym","addr1qyecjgprat9qjdfkv6ln45eww5a9lwkgqn92x6lspd339ky00hv6dpawknxe42d8dlx42msv2nt8yej77vudk0uruvtsh2aeym"],"addressesOutput":["addr1zxgx3far7qygq0k6epa0zcvcvrevmn0ypsnfsue94nsn3tvpw288a4x0xf8pxgcntelxmyclq83s0ykeehchz2wtspks905plm","addr1qyecjgprat9qjdfkv6ln45eww5a9lwkgqn92x6lspd339ky00hv6dpawknxe42d8dlx42msv2nt8yej77vudk0uruvtsh2aeym","addr1qyecjgprat9qjdfkv6ln45eww5a9lwkgqn92x6lspd339ky00hv6dpawknxe42d8dlx42msv2nt8yej77vudk0uruvtsh2aeym"],"fee":481025,"totalOutput":43058857,"tokens":[]},{"hash":"e9e4ed60b931f7ff77fc8051fb5d438c819e91061692a5bb4829d5f5cb31a631","blockNo":8142533,"blockHash":"be665004c03199292cb3e812744f42a7e58e5fc0062ec01e9bc09acf5eca8ba8","epochNo":381,"epochSlotNo":306098,"slot":79534898,"time":"2022/12/15 10:46:29","addressesInput":["addr1q93vyug8m3qrqc5qr9u28hzkvdpzyvmez85f58l8y9t2502xrdyd4ezx43vxjgw0dvz6dzy36jku3ptrr9mcv5dftkhsx6f5gt"],"addressesOutput":["addr1q8ce6utu0dkaug6xtnpnrtqd4rjgxyulcqf0nt3k2tze8uyln0kgsea4eey2rftuaewu9jheugrd56rh3mf3z8z50f8s9z9hrn","addr1q93vyug8m3qrqc5qr9u28hzkvdpzyvmez85f58l8y9t2502xrdyd4ezx43vxjgw0dvz6dzy36jku3ptrr9mcv5dftkhsx6f5gt","addr1q93vyug8m3qrqc5qr9u28hzkvdpzyvmez85f58l8y9t2502xrdyd4ezx43vxjgw0dvz6dzy36jku3ptrr9mcv5dftkhsx6f5gt"],"fee":214869,"totalOutput":104106479,"tokens":[]},{"hash":"7d0da3d9d5b4ef1cd1be6ddc46e7f4cf81f99898948716e39ab942602a7a169b","blockNo":8142443,"blockHash":"73650bef8e6b06bf78978af0a0203335c8a61a86f1a45c44eadb5615e1234c96","epochNo":381,"epochSlotNo":304265,"slot":79533065,"time":"2022/12/15 10:15:56","addressesInput":["DdzFFzCqrht9YDVSJyQ2p1YGKiTzMva85cGuVpzq3UKgMv8NBuNTii2LUXiRoXMW1THRdM1A28wvRJw8UfPQXKYpJLqCaBP8VYcpRY3C","DdzFFzCqrhso4X2W3JJCC976cW2SQ3qdGqcmNefKxFkrUsRWvwHMULrRGCJFehjVKjG433KEVCnbdxro5spuujbguhspx3LyEszT37f2","DdzFFzCqrhsoygLxRsFBcYqdr2YABUcJdu4TXhYjRbL97YYK1A7hkXPXHbUjuKutSJ2J9MzEv8Cb8hrDRnt3aHDotxJVqZmQmVLimacd","DdzFFzCqrhspZQciTHZun8wKXBJBPiYbVFMK5Hwknr6KmLaNDSpyQDruxgSJvfFMao4KC1uXDeuzwiahd6cw2zpuUK15w6GL27tebK3X","DdzFFzCqrht28EHnbtmoSxEkGnbuTyiM18iqASV4Jwaxxv3vKgi7FRy6ttX4AmMGB9h9CG38bkoEtaP9okNJVFQou6FeJN5Vgc3GrioX","DdzFFzCqrht9Lrb3c4qhR9aN5a1fJxeQEFZbxQgYCDH44584ZmcWak6SbvuxsqxNLL4m9XfkyEFg5VmX9C9LYuoBRiKqDauRAN7XVKsR","DdzFFzCqrht8Br2HWyxNHjQZpgyyuje9yQojB9WoNwRRDF3sXsmo3iRJVFj9r8cNVER9ftGPVwB9HKcxx71ULM94dm938rp96MB6TB51","DdzFFzCqrhsoFjGMdccU4ndgTY5UAVs7U36bQDURWAnyqkrGPYZkUA5JJo6b7wutjzSxSTtvYh9h6CWG7XYeuShnbiy2EqQMGVqPDtCC"],"addressesOutput":["addr1q9atjfpqwdtg7ytz0pz9zcaqvx8zr2uv6ysvc4csqynr683dzefudzxhadht99nh8gv4l3z93d486ygllgxuh2drrrpsdw6fws","DdzFFzCqrhspzqTDHcVLE28vWGuY66ZcYge2nZTyYfAGLeENGFNB2Es5wstsA7qt4A5fjnXzfmc4JJiYg287YphEJ719ph9wRcnyvbLM","DdzFFzCqrht9B8P6rFgbJ6RjnHQk2CP37URMZTDWnfnqeg2aVeKruFZL4mxvBc3CDLRfi9P9wZd4vA3NncTd42jSt4bhQ8DYFS8JbNTF","DdzFFzCqrhssSKZeWKPtM4p4uxUN8YCfBhvfZkSXWFAuEVJKsAftr8K4bkgAzKjaCRMQtHxVbViugRBqpG2sQyYqJgVuEGNZ2gzZGiRZ","DdzFFzCqrhszfikEQ1LPXrFVyd6q3A9N3NTNfKJXVDAtxxzJqvRJRmwu8HaLaL93tVknkfRWM1DXYkutcyqP6pXUrbMiMRTuTsT8hdWc"],"fee":963441,"totalOutput":56237137251,"tokens":[]},{"hash":"12851e07f6706f23bcffc75bc4f45025214a92a142de4a38549bbd7744d79dd8","blockNo":8142434,"blockHash":"f00c49bd6d2d50d5ca6f7fe1414900c1060b148ff84f370ad9a6ce2509fb7d0f","epochNo":381,"epochSlotNo":304010,"slot":79532810,"time":"2022/12/15 10:11:41","addressesInput":["addr1q9930gwlwm4q2zq4s2fralnue0q750jtcl3fxwasevnnutjxrvs3x7fgkmzwecxgkwhzejm8yfjrvtnmuezzajrqfxmshlkl0e","addr1qyarmxy0j69w2s7vyu552cq5ltgtr7xxup275f9htq79wzjxrvs3x7fgkmzwecxgkwhzejm8yfjrvtnmuezzajrqfxmst978q5"],"addressesOutput":["addr1vxklv20s6d93m4gzj2wwtrgfrtda509qe2606nj4nvuzw8qvzxal5","addr1q8ccv5g32zecfv2ln44pxxnc0scy0urlupnlq2tevrudq62xrvs3x7fgkmzwecxgkwhzejm8yfjrvtnmuezzajrqfxmscz4h0j"],"fee":382201,"totalOutput":127554510,"tokens":[]},{"hash":"3f2fab402865d849bf1c8e4c6108cc15e99bdd77a1f2870146bcea6a99a7c470","blockNo":8142379,"blockHash":"c675a93bdd0cb3ce46118e69db93b5c53a79ba3ef1fbda7609117649e75d27a6","epochNo":381,"epochSlotNo":302822,"slot":79531622,"time":"2022/12/15 09:51:53","addressesInput":["DdzFFzCqrhsgaCj9EigVHn3KjkXsNNSzf4vT3dmnMvYpjERa8nM4dfbntb1BLtqsmXFKSkFUJHT8XTq9ibiVu4Logh9Kz8u9HaZFs1VM","DdzFFzCqrhseACXYRawSzHgQNBPykfX4Lwms5tFdnZw22RbWL17FgPpN4vwqdw7e5amrupQdip9Di7by1DkpCYJc7SR4MsPtgzaAMeaw","DdzFFzCqrht9SPKpNTHQv31kudeWZAcUBoMLa8UtYuMWu3ak4GaeLjWBVxHuHkNVdshdB3Qsu9WG3nDvYtQpGj1GJsWW1rMrLa9mSXq5","DdzFFzCqrhsquaZqLm4u4NRmcXDCjA4cGLzVCbCdmm5wHZuokt18JnVkg6pdE7GB1KsCGWUCPE6cFmhw5ac2Fc1SjdK5Jv9k8vXfbXQK","DdzFFzCqrhsxj2tSkVYthqDN1cdepU5o7FaZ5M5cwNcYZs7YV5FTXrqFw9dT4dUv2uD88qfRFgVGyB8UasNwfdYJCuQbqiKRUpMtRqTq","DdzFFzCqrhtAe2QcrGgzgxgxXYHJnNTupz4TdsXvmdhjvkW2PMX45AUsi3zpzVP7aHFibZSKCyEgFotPTmeHL5txeWLtmQ5NW4ymQM42"],"addressesOutput":["addr1q9atjfpqwdtg7ytz0pz9zcaqvx8zr2uv6ysvc4csqynr683dzefudzxhadht99nh8gv4l3z93d486ygllgxuh2drrrpsdw6fws","DdzFFzCqrht8Br2HWyxNHjQZpgyyuje9yQojB9WoNwRRDF3sXsmo3iRJVFj9r8cNVER9ftGPVwB9HKcxx71ULM94dm938rp96MB6TB51","DdzFFzCqrhso4X2W3JJCC976cW2SQ3qdGqcmNefKxFkrUsRWvwHMULrRGCJFehjVKjG433KEVCnbdxro5spuujbguhspx3LyEszT37f2","DdzFFzCqrht9YDVSJyQ2p1YGKiTzMva85cGuVpzq3UKgMv8NBuNTii2LUXiRoXMW1THRdM1A28wvRJw8UfPQXKYpJLqCaBP8VYcpRY3C","DdzFFzCqrhspZQciTHZun8wKXBJBPiYbVFMK5Hwknr6KmLaNDSpyQDruxgSJvfFMao4KC1uXDeuzwiahd6cw2zpuUK15w6GL27tebK3X"],"fee":944081,"totalOutput":85583446216,"tokens":[]},{"hash":"d37f6a192b44505882c0367562fced7cbfc36c49e02f7efa44e7db6de29dfd54","blockNo":8141968,"blockHash":"4318722a87d344877dcdf7bcc9ee1b62741b6e1201503acdfe5f7d9f16ed1037","epochNo":381,"epochSlotNo":294542,"slot":79523342,"time":"2022/12/15 07:33:53","addressesInput":["addr1qyarmxy0j69w2s7vyu552cq5ltgtr7xxup275f9htq79wzjxrvs3x7fgkmzwecxgkwhzejm8yfjrvtnmuezzajrqfxmst978q5","addr1qyarmxy0j69w2s7vyu552cq5ltgtr7xxup275f9htq79wzjxrvs3x7fgkmzwecxgkwhzejm8yfjrvtnmuezzajrqfxmst978q5","addr1q9lv98k5m2cwnt9t03x8rk79g7fc5th0caejxv4l6hctrqzxrvs3x7fgkmzwecxgkwhzejm8yfjrvtnmuezzajrqfxms2nc70m","addr1qyarmxy0j69w2s7vyu552cq5ltgtr7xxup275f9htq79wzjxrvs3x7fgkmzwecxgkwhzejm8yfjrvtnmuezzajrqfxmst978q5","addr1qyarmxy0j69w2s7vyu552cq5ltgtr7xxup275f9htq79wzjxrvs3x7fgkmzwecxgkwhzejm8yfjrvtnmuezzajrqfxmst978q5","addr1q8svf93g6jpwn5mu6wzau5x3cd0zl5t7nm87wagpmv7cfkzxrvs3x7fgkmzwecxgkwhzejm8yfjrvtnmuezzajrqfxmshq0eh3","addr1q8vxenr457cnanrfztqqmr4v3ne42leh0f2l4cesa7r634zxrvs3x7fgkmzwecxgkwhzejm8yfjrvtnmuezzajrqfxmse4schr","addr1zxj47sy4qxlktqzmkrw8dahe46gtv8seakrshsqz26qnvzypw288a4x0xf8pxgcntelxmyclq83s0ykeehchz2wtspksr3q9nx","addr1qyarmxy0j69w2s7vyu552cq5ltgtr7xxup275f9htq79wzjxrvs3x7fgkmzwecxgkwhzejm8yfjrvtnmuezzajrqfxmst978q5","addr1qxykuv6947p4vpapas8yx8epf3yyd9kze6lduw82xnmqa06xrvs3x7fgkmzwecxgkwhzejm8yfjrvtnmuezzajrqfxmsj72mxt"],"addressesOutput":["addr1qylz5nl0mkh68ppk6nz478zje09prs7z4mcwjnehlad7vgx5hn5mxv95jk3mdeqk785hh7ywg870t5pyf0dyah3uw8ysajd9sy","addr1q9cwvremt6n320s2e3agq0jyq82yhrk3htsu0w426xnz5us70z4w0jgvcdkkynmm8wmds66jd9kusnjfpu6raw5fqp0sr07p5w","addr1qyyunv0kfd20k2ed9mcs0zlwe68tghslg6983jfy620ptzxewkgdemxyhjx7txknxzgndmz7zs5m0ud32ywg97j5xnqsm0m26n","addr1qyarmxy0j69w2s7vyu552cq5ltgtr7xxup275f9htq79wzjxrvs3x7fgkmzwecxgkwhzejm8yfjrvtnmuezzajrqfxmst978q5","addr1qyarmxy0j69w2s7vyu552cq5ltgtr7xxup275f9htq79wzjxrvs3x7fgkmzwecxgkwhzejm8yfjrvtnmuezzajrqfxmst978q5"],"fee":1412153,"totalOutput":155238757,"tokens":[]},{"hash":"ac69c54999ec3d417bb0540d2c76de9f2df3f980d6b8f3fc6c9446b74ccceec3","blockNo":8141081,"blockHash":"4e95ff5f57299033d64529390fd94c94cecf329b8f3a718de89fb05707cbeec4","epochNo":381,"epochSlotNo":276900,"slot":79505700,"time":"2022/12/15 02:39:51","addressesInput":["DdzFFzCqrht3KMq5w1o3Sn9xVc5UQcBDyagxJDtiXT4NsQnhjSWN8AcEtxYVrbB9fmb2bCXiVxkFKLBTwaMx896oicC7Ko9ry2u4uv7X","DdzFFzCqrhsoHor9r6659AtQGbEw2S8r9V6cEAi7bEfJGgfPycSRK6qTMR42MmVWRQz4jz7Eb71YDMRQEUT8DaZx6tLDGYTTYZQR7Eno"],"addressesOutput":["addr1q9atjfpqwdtg7ytz0pz9zcaqvx8zr2uv6ysvc4csqynr683dzefudzxhadht99nh8gv4l3z93d486ygllgxuh2drrrpsdw6fws","DdzFFzCqrhtAe2QcrGgzgxgxXYHJnNTupz4TdsXvmdhjvkW2PMX45AUsi3zpzVP7aHFibZSKCyEgFotPTmeHL5txeWLtmQ5NW4ymQM42"],"fee":366757,"totalOutput":6036678543,"tokens":[]},{"hash":"8f9377ee4150380c345dce00c7e014b17cc91681e20a4d981a706104356b4168","blockNo":8140986,"blockHash":"6b26145521185adc6099094de1f466fe57bbb896d226012d4aec3254c9f99121","epochNo":381,"epochSlotNo":274908,"slot":79503708,"time":"2022/12/15 02:06:39","addressesInput":["DdzFFzCqrhsdoHH4z1vVtB1U85KwVyNmnNYuZUKVeobNX8RQqUdvBdTSeofDR4Cm2yF3CShrMJ7HUhdXyeCE5ZZ2LxaCc1TT8twpREQs","DdzFFzCqrhszPypz9jpSD7huk3qRAkNESYgqcnuqKkN3NiZh2GzvosjhqWdYDcQdtK9QxVQZxB7zMe6rLevwnrXb55hUe9BUp1eXGfyK","DdzFFzCqrhsmGoTDdwQxkSEixx7GykCMKtoDPCD9UX2K7VWPQjQZDaKMcV8BWvhLGGRWS337VqpfTqRE3ZA8zhod8Y2bPxmQNZtK1cne","DdzFFzCqrhtAdhbkiz9rGZ9evz8WzBoxiMsnt7SY9W1qCeoqX5V2TkaBtUa6Z6RiKGK3zjW7BR9YP2f4ZCQk1tvSfRhmVVE73hUpm5oN","DdzFFzCqrht3BKe6BJVYRuug97Jp3PwAEmwY5YKhU8NE9nsdRqtc92GkjNXnMwuwK73iuN7WxJWujdhoFbYZf8qZrndj6SJ6Sfc51tTP","DdzFFzCqrhsvyZUrxz6m57H5AyM2YfjVb4oCEFdr5e2rzN18qV8JB67ry5Dv8CFSSzhWG8JRqnfynCfc9D5bDTuxUvyVXv2FyMfHrADe","DdzFFzCqrhtA5m3p5TUdc4ogqvvKn3AVJFWYGVZAj2gq9yT4jjR2qU5bZbBpsKd4djUCA1P41dJ6hKWp2tR8S4HheTYRj6Fcc4DKRVT5","DdzFFzCqrhsjBvtnp4pc5fbLrhjj7kbUZwryckqXJhazNK43uu7oXbZi9R3ZBurWJNSTiJbtFkxxxBvhG72tVNiWT4Xkk8RToFRY9QAD"],"addressesOutput":["addr1q9atjfpqwdtg7ytz0pz9zcaqvx8zr2uv6ysvc4csqynr683dzefudzxhadht99nh8gv4l3z93d486ygllgxuh2drrrpsdw6fws","DdzFFzCqrht3KMq5w1o3Sn9xVc5UQcBDyagxJDtiXT4NsQnhjSWN8AcEtxYVrbB9fmb2bCXiVxkFKLBTwaMx896oicC7Ko9ry2u4uv7X","DdzFFzCqrhsxj2tSkVYthqDN1cdepU5o7FaZ5M5cwNcYZs7YV5FTXrqFw9dT4dUv2uD88qfRFgVGyB8UasNwfdYJCuQbqiKRUpMtRqTq","DdzFFzCqrht3XBJdTjhgrQ1e3q9UsFMgADQrk6dBaAaGSwFcu88m8puzYEGDSLC7tNertKurSQUQWAX9rjkEPJxFBRMkrYREiwhgithU","DdzFFzCqrhsgaCj9EigVHn3KjkXsNNSzf4vT3dmnMvYpjERa8nM4dfbntb1BLtqsmXFKSkFUJHT8XTq9ibiVu4Logh9Kz8u9HaZFs1VM"],"fee":963441,"totalOutput":74148344659,"tokens":[]},{"hash":"bb5b426715c84869c6638b95d3320de575b0b77a5d7abc0737050080baf22ed0","blockNo":8140861,"blockHash":"61ddbcef795d162df37672e15f0e2a45ed7930d068328bbe1c5611babfa46dc5","epochNo":381,"epochSlotNo":272483,"slot":79501283,"time":"2022/12/15 01:26:14","addressesInput":["DdzFFzCqrhstT1qrpueeq7RLnu6JnyfoYt3AwwbDYDuGbDsoWBHNLnexT1H2JusdyvSUiLJuuw2jXsvZAtopZEVyyMbgYketCASr1Wvh","DdzFFzCqrhsrGejeMds39mepgKctUF2N9De4onB4WG9jTt5P8yme4BEMA8ZEXHvaEgdVhVtmRdKcBQWZv1F4gRJVGs1RkMRVerAVgm7V","DdzFFzCqrhsk4aEcv1J6BHGUScZCDN6ediz2RRYVxpjoWXT3BGRCjXYkdZ2jQhnmriZX6WPdQeYkrBnoM5v13jAkXQDmDXKnt6AKt6CG","DdzFFzCqrhsxDKSqQdMSC3LHVZDuJegKJhXDNaK7KPkPbdrazUwAdKrbMNVnf31FtoBztRZb5tstTBusGU9DgSzi6jKTgNcBSuT9hmY4","DdzFFzCqrhsmwRkjUmKQZ1S9eq6LVkjDWQ2JyMToQonzYYDWg2s8yz3VaG3Ht85jm21LUSvF9G3yCNemRnsM1riDWtsb9bpUyUGgBAZ7"],"addressesOutput":["addr1q9atjfpqwdtg7ytz0pz9zcaqvx8zr2uv6ysvc4csqynr683dzefudzxhadht99nh8gv4l3z93d486ygllgxuh2drrrpsdw6fws","DdzFFzCqrhszPypz9jpSD7huk3qRAkNESYgqcnuqKkN3NiZh2GzvosjhqWdYDcQdtK9QxVQZxB7zMe6rLevwnrXb55hUe9BUp1eXGfyK","DdzFFzCqrhsmGoTDdwQxkSEixx7GykCMKtoDPCD9UX2K7VWPQjQZDaKMcV8BWvhLGGRWS337VqpfTqRE3ZA8zhod8Y2bPxmQNZtK1cne","DdzFFzCqrhsjBvtnp4pc5fbLrhjj7kbUZwryckqXJhazNK43uu7oXbZi9R3ZBurWJNSTiJbtFkxxxBvhG72tVNiWT4Xkk8RToFRY9QAD","DdzFFzCqrht3BKe6BJVYRuug97Jp3PwAEmwY5YKhU8NE9nsdRqtc92GkjNXnMwuwK73iuN7WxJWujdhoFbYZf8qZrndj6SJ6Sfc51tTP"],"fee":934401,"totalOutput":53209248100,"tokens":[]},{"hash":"2bbe3635a03e46e0236b66207f662563aec1f9d357867ac97c8f51aa5eefb899","blockNo":8140839,"blockHash":"ef83d8e1253132c15d935c0303267fdea3a0f2755f6550d0d7d11207c6d42247","epochNo":381,"epochSlotNo":271967,"slot":79500767,"time":"2022/12/15 01:17:38","addressesInput":["DdzFFzCqrhtAzNsUGGAwQTMyhm7tDCGmwudfb3JdoLF2u12LWgMcsrTovcrk53o4PhbxKQqk8pQpqnKGyJsX4EnytLm7oW3gCoWbr2gD","DdzFFzCqrhsqYcYzGkAu1iD2NxWJmBLUzwDW21HN4ja1fNaS2PwvT2WT2Wx3K8kznsKwWVq42gJfVS2YaDFDeaHNLcDUPskqnbpf8aQu","DdzFFzCqrhsiZD9iz4iKA45P1hCb7DNxFtLyn9vpkfXtzJHgj8pdVCbynH6AtmNebrCov9E4yF5sJUTkkMp7xw3L1XGEGLQTX1vMRyJ2","DdzFFzCqrht6QyfH5YhcGGWFzWgWqzuRDRZBRR9eDu9VApW6wZcGKxtMUGyqwzreqtWUbnVghR4XhW9Sa4G1unPrWQu7JiQEa5bei45P","DdzFFzCqrhsmmZT5W9hQktWWBupShu9FXyDTMdqEFQCjAvKS8ippJJSqwgtr5Z81ZMYS5UG33rC9y8KnXAbv2FyPRYFB1W8rfjhJC3Ee","DdzFFzCqrhsokZvAJspYH2GwUK9iC7dMAp7GMbEBkYsSYsByFaZmY3DUxVHgb7YNSriqSzcNTmVpw7Wf8tYwGrvHttyUEaKLYcRDSduK","DdzFFzCqrht5ox6Sg8tJbTo6jvjShL9geVFwzfzN2AimSmk9cVdjr15QPgLX69yHoTQNKtxvTvx3vEceWPJNf6FMdkDQx8ER4L5yMZsP","DdzFFzCqrhsvjZwKAPVEGZeEAtcJYphsiHm61t2ubHVRSXAHx85CmFhQ4oL6Rkvt9KQMsiCwBU9Mf7iAyuEojjUSj8UKyYThe7z9rZTD"],"addressesOutput":["addr1q9atjfpqwdtg7ytz0pz9zcaqvx8zr2uv6ysvc4csqynr683dzefudzxhadht99nh8gv4l3z93d486ygllgxuh2drrrpsdw6fws","DdzFFzCqrhsxDKSqQdMSC3LHVZDuJegKJhXDNaK7KPkPbdrazUwAdKrbMNVnf31FtoBztRZb5tstTBusGU9DgSzi6jKTgNcBSuT9hmY4","DdzFFzCqrhsmwRkjUmKQZ1S9eq6LVkjDWQ2JyMToQonzYYDWg2s8yz3VaG3Ht85jm21LUSvF9G3yCNemRnsM1riDWtsb9bpUyUGgBAZ7","DdzFFzCqrhstT1qrpueeq7RLnu6JnyfoYt3AwwbDYDuGbDsoWBHNLnexT1H2JusdyvSUiLJuuw2jXsvZAtopZEVyyMbgYketCASr1Wvh","DdzFFzCqrhsk4aEcv1J6BHGUScZCDN6ediz2RRYVxpjoWXT3BGRCjXYkdZ2jQhnmriZX6WPdQeYkrBnoM5v13jAkXQDmDXKnt6AKt6CG"],"fee":963441,"totalOutput":101063132413,"tokens":[]},{"hash":"5024559b68b3ee7fe8c552de54c3375d4e6c4bfbabc15b72cdfc1628004fe776","blockNo":8140826,"blockHash":"bde15e6aeaa2496d9ab1518b6d61f357b64b8de36636244e1cce6bcc209f9e28","epochNo":381,"epochSlotNo":271470,"slot":79500270,"time":"2022/12/15 01:09:21","addressesInput":["DdzFFzCqrhsoA4wjLuVwx9Bbsu36FhLXMUtZjeSFbzD8b2gbba1czLNeFJfcYXthVfnpdZGet1WNXkjtHRi4dnMVPEdRez9wPdVejpxa","DdzFFzCqrhtATB7opj9Edku67d62yHTQvZE9DBspFMzF3PR3Wbf825qU7RMXRTb8rSkT4W36xg8B1x93eAGjrUNhZUnh5Kqa73JczvpQ","DdzFFzCqrhsdwsxxZ1D6JdZ1piKSErEpgs44f6Cra7mpBPxtc54sdKnJSvbGyyGUb5gXdQH3x2YYif9NFjUhzTfKStdd3j6KYixHYWZW","DdzFFzCqrhsqu7VPFe7VS4CgWCCosYY6GRygogahock5uzewyaDfad8EotyVJYakExX7rf4PBfyeje6XAe6cBxT7qm6cEjomofvwwZW9","DdzFFzCqrhtB6XeSwh3fFhiCJxVBDwJVt87qixwdLicyy8SZXgMQdNb1GTNYLx4hSB2xVfz9cHbQGGENoMefgrdcNiRi8uB7GGcNxkCS","DdzFFzCqrhsquaZqLm4u4NRmcXDCjA4cGLzVCbCdmm5wHZuokt18JnVkg6pdE7GB1KsCGWUCPE6cFmhw5ac2Fc1SjdK5Jv9k8vXfbXQK","DdzFFzCqrhsuja6m4X489z3ECQnrZqN5kgkK3vpZrLGA3h3MzC7UjTVxs5yERcvZLGs95DcrskERri1AZvMWzGKae7zqkF6TiU8apc1U","DdzFFzCqrht97tXP7hS4YrhSAvV7ESk19HkuRmEmsoQpC7Mhpw2XBxaioWn89vEv5eXcefLxQyQRWcAY2Gnmhhs9xxWMZGLLn6qtJotm","DdzFFzCqrht1gspF7764srzTxmoWux7ZbcsP93vmwKmW3GbivcKUpdT8new5FMY7oBRDm86VdoqbCk7ejSvAy43RYVSRxXJHyRPJHqnQ","DdzFFzCqrht5QtwmKB3bxu9AVxj17vwHDn8RzFmVkmZ2R4q92Fksc5GU5uMsB3dxLW1pE7uTNAH9NUhAqnEcsC8EH9TwuF39pwfZyJVG","DdzFFzCqrhsyu7iBUSraHUWCGHgpszP8VRZSLJA2ppPV3XrDo3pwuq8pmyKDH9TidkmAzQHwzQhK3of4jyjBaRdqRFbGNDbRnMJAPMdB","DdzFFzCqrhtCTRUBm8eYbC97tSSzTjdU7z9EtE5FVKkD6DqzWdXrt2CERtvCDyhKrmua1hHUh8FJZZnbUQugx46WLfPv9FCNHC3QakNW","DdzFFzCqrhseNmfaiZfsagyuoEkQm8miEcyqZH9nQs4PUxQpf5HGEqYdV1hkoPFPXB3V2HWztiaxte3C1fvMmRCdoxfnXxDCGQTYiyXj","DdzFFzCqrhsxbjBckFiW4Q1bD83eYx7NqYURe42sALPogvDLr17dbb7fM6RB4WgMHYhdKobmuf6ENKm2Ezwf42oZE1GNNNGjCctvRVU7","DdzFFzCqrhsei7UMuuLVf7byCnt3zagB5mbyUnVEAJAYgR4CgCdry9c4CWj3qrYVzTCuthFHgbdA3dHix8hfnKTc8a25nPPahXSGdzcs","DdzFFzCqrht5q4aNViVN4JmwwrjHDkL49d7Gg4Ybf3tEFisf8FpQ2N52UW8KTjP8PCvxpAQa5uV8Dmwsoc1f7gbZBdNRCz9CuiAKFXw2","DdzFFzCqrht8W9n98uS5Hn3PVkBYysdizMJoozTnZmSr8uSrD4dYT1sp1F84GugixTDvv6J46bHgmYzNCKzizvNRHJxEEz7i6srFztEj","DdzFFzCqrhszhboVETfUeH9WSNNDFTxUm12Sb3BnmoAuQRp8Rqhmrms8Bo4n3tt1ezDXpffrbvCV7k1ppxYKPrJkSndLu4qE8TXzqkoa","DdzFFzCqrhseAPaJEpbyWjyT3Bg1XthWBxbqWZv5sy4KDpB3xKk2NAvsNLgMrzmKbegQRTF7y8an5nWTrRmFCFLXjyhnWbVACQJLxPC8","DdzFFzCqrhse2ountfZC1nAeW7zaPgpGtxAmXcMqKA6pY312LSAMiZj64mz42zPEz7DCGvG5Wt8BNwNAoVR1uXmFmSnimq2xEDdLh43i","DdzFFzCqrhsvmeKv2Q6d2ePX6rpiS2SedHX6XUxSUwRzENjHmhocJJtgekpBUTRCBgzVxwUGExU7ZLBFKc5crenEP6ymj9oorBw6oC53","DdzFFzCqrht1tU1gLxb8Gff7KSDXsuYDnHcvkmHH38une1RhVG3evYW9VJ7M12GykEGZyE4nAer7JX9GbZ2Q2wjgcKeiRUC7zUB3JgzN","DdzFFzCqrhsrRV1CX11yVhHfSb5jrjhGiMWMXUt32GjUnNTf4oVH6xGzhuHx2s4AT1fA6RBoYNexYueRousGPhsA6KUK6R7sgT88s8oX","DdzFFzCqrht1yXYyxZ74imBAeAB8SQn64gs39yPeEMhU1fJ4oK8cfRjQ2cgmS8ikL8mby4mkoN7LTGWuEHbmsohr9EUzNwFrDV77omDk","DdzFFzCqrhsehWhJXRfCeEnXGMHwFioWaFUByvaXC6EDovsSZFoHnU14w6xcC3AjpycmXZLpBhPuZNSxveTnGNcA4mEYK19YJu9igLR5","DdzFFzCqrht351fzXUhB9cbjDP5pvjsA6G1R6jZmXEqvUQ7V9h2wQyuhtfVBXJS8y8DSS4oQBhEPKoDch79Dgmu2vAqygrbuxq2oTn7E","DdzFFzCqrhshzyoGnhLk9EaqSpcFq7AbjyiWPZv23URQb1PxmaWb8rJ6LXDNs4eCUeD1c9hVqQYLUNVZEfL9mmTEeAzuxFBn45Vhb5MH","DdzFFzCqrhspFMvpx1gw9GVVUonmJ1CYEtYrMGQfxYoGUA434u6Hsi3bWifydBbARxdHW4oVB5AZ1Cy9r4nyUymgaiBjvYG9LdegYdX3","DdzFFzCqrht8vfStx2rUJGVmR5NUUNazU7Yua2ZiuZpG1xFi7RHHnCGCL5cH84MrPSsnX9CaB2Aee1BhBSC6XPM8ukRzVLS8w4XXkPLS","DdzFFzCqrhsvjmncrRAYeKBzZt33zvSVJ2JuFzSXw1hCTqdjP8zwy1eqeFeB6pHYmPJhgoF5bXKqQNcLmbTS5AkGcpis75e74JyMkMnD","DdzFFzCqrhsm1sHJJQe6VNyuxWfebBQvdwjZD7nMLo4arpSA76vbSUFU8RWni8cRyV3wWiTVF5xdQPzCf57UKGGe6cZmGhY3iJbX9KjZ","DdzFFzCqrhsgKQ7NcAiKbtkMTp4o75MWXtFAzjQjRYib1nDPQMAJ7Un9yWDeyH7MwiugBgdy1TzPG9TgoXFnRzVk4AbxNspGYjBvnkiD","DdzFFzCqrhsgtg3LVYbzh2TEtDqKSDii1piY8uXswHjx8tZGw6NuUXskn6YWp6d38rjXda92j3CZ7GyUp4LHznpqzxsKh943Ynv55ZVe","DdzFFzCqrhsdwsxxZ1D6JdZ1piKSErEpgs44f6Cra7mpBPxtc54sdKnJSvbGyyGUb5gXdQH3x2YYif9NFjUhzTfKStdd3j6KYixHYWZW","DdzFFzCqrhtChES7eo2PFryHbFb6bC6xDjdMezH9zB6jHAGNb2A79KvX9xcUqEUg9BNsFRqizDjNqZvCLv6zNojck1egwqPYVcUr9Ug4","DdzFFzCqrhseQkGMq3tmnCydJSTbrvJLN6cLYKFbv4XUHSUJiH1yr2oEA9VDvQB4p2DX8p8LTAr8Vu4Fm7BfPXsoKUvgsUb6tve6tuv5","DdzFFzCqrht7yiGwnLnDxN3P15pzwcKn8A5HL3zdpbuZqhn3uBZU3pADmVGhBywyGjpzt2eXEz7M2VTYUy9WQdtp6Za6WHkBLKNDR8yd","DdzFFzCqrhsrrkbCjpvPnHVkcsmdNizHWFwzCVobkazukTqbgkU2NuwKD5joKhJRKPzcNyzx7DzUTX6y1J6HGWJUGZfVnVdqdCPUw1Jo","DdzFFzCqrhsdzK42MpiYLrWq4RcVTktQvBLy44xqqfUNDCQmY5mdyZ4Rrk9mb41wQD84G41uUWBfdgN6cEN692v4xFfKn2UNqejQ5Ur1","DdzFFzCqrht2q4o5imneq35RVcELM3Nk4nax5mDGbnfpEY6no7RN6gPjVfHbn8ixNivbUWcTf8XXqNTUfYb9CSC1SP2AZMvK2bkbQUNQ","DdzFFzCqrhshr9ANGBEJiBy3mRFid4eNpMwSZYLRA5LvtDHGgu8MtyKWSq4Ji1Yans1ugNbiUfiuFTjd5pSQWRY2Smbjx7VqFo1GPMoZ","DdzFFzCqrhtB4PLMMocpPixpZwPEGADHVkRpUViPhoB2ivQpaQvJXpUFLkyRcjEx7TyUzKTYBEXwop3142crxjyMgPyYKYDPG611r44V","DdzFFzCqrhszKemhH6C1vW3sBjUyuj7Y2YVSVQeXoaP9C2vHjtaYtjuNKwp3JUehhyq3haYCywMW4eWcEQm83HoyM2DDhHrKsUuxNUAu","DdzFFzCqrhso56W4n8pCPLUC6BaJj2BeEMiHpZeW6kpMFW75oZUDCAmttka2Sr5kXrRJtjGHsH7NGWxhJWv1DJDz6uXzqRoz9xmiBSEs","DdzFFzCqrht6Fj4dr5Q4KvNgdp1fUWDjYQQ2o2KE7yW2uoxwBKoa2YJKkBnKCNjg7PA5nf7gh8N2v7eAyEMUwVjSBik6Nv8d75uRC3pE","DdzFFzCqrhtAdhbkiz9rGZ9evz8WzBoxiMsnt7SY9W1qCeoqX5V2TkaBtUa6Z6RiKGK3zjW7BR9YP2f4ZCQk1tvSfRhmVVE73hUpm5oN","DdzFFzCqrht4bDhuggWWVN6GzwMoZoMvf2h1rexvyC5Bpy3cUe5hQBxxSdfaPh1FGAxe1NwZsbsvkG3kmHWiyiuFXTdpLGXpz9G7EMcW","DdzFFzCqrht3MF9x7gL1Wc5Jv2mt9AEVnHdv7NnW8Hbph2g4rHvSsPaSiGxptv5iozdCvx7kafKQd3qDmXnikeGf56e7SjALg2YXDgeh"],"addressesOutput":["addr1q9atjfpqwdtg7ytz0pz9zcaqvx8zr2uv6ysvc4csqynr683dzefudzxhadht99nh8gv4l3z93d486ygllgxuh2drrrpsdw6fws","DdzFFzCqrhsmmZT5W9hQktWWBupShu9FXyDTMdqEFQCjAvKS8ippJJSqwgtr5Z81ZMYS5UG33rC9y8KnXAbv2FyPRYFB1W8rfjhJC3Ee"],"fee":809617,"totalOutput":99824590356,"tokens":[]},{"hash":"db18473a7c6956a4112b5005187b46e3955345df6d88d12035e20121bd04f233","blockNo":8140749,"blockHash":"3cf6d134cc3f6212c2f777afe8d6884bcc18742cce937435067eee8036174abf","epochNo":381,"epochSlotNo":269737,"slot":79498537,"time":"2022/12/15 00:40:28","addressesInput":["addr1q9x2jzdeyj7q5u9uvhpzvpuf394f8tekyp26dg4q7kpcyw24mv86l2c6nvmhzu7n4rqjpp84p6ly3gucwtukw0tllf9sjln2tv"],"addressesOutput":["addr1zxgx3far7qygq0k6epa0zcvcvrevmn0ypsnfsue94nsn3tvpw288a4x0xf8pxgcntelxmyclq83s0ykeehchz2wtspks905plm","addr1q9x2jzdeyj7q5u9uvhpzvpuf394f8tekyp26dg4q7kpcyw24mv86l2c6nvmhzu7n4rqjpp84p6ly3gucwtukw0tllf9sjln2tv"],"fee":423341,"totalOutput":149279950,"tokens":[]},{"hash":"c99dd1d9b77cde30c3f21d0e5ea08766beeb21199afba67facc7be28f2b129f4","blockNo":8140593,"blockHash":"f9d573c0d05116a029e03ac7b571cf3499d9b2ea4887e56b18ddea0fc5c10db3","epochNo":381,"epochSlotNo":266334,"slot":79495134,"time":"2022/12/14 23:43:45","addressesInput":["addr1q93vyug8m3qrqc5qr9u28hzkvdpzyvmez85f58l8y9t2502xrdyd4ezx43vxjgw0dvz6dzy36jku3ptrr9mcv5dftkhsx6f5gt","addr1q93vyug8m3qrqc5qr9u28hzkvdpzyvmez85f58l8y9t2502xrdyd4ezx43vxjgw0dvz6dzy36jku3ptrr9mcv5dftkhsx6f5gt","addr1q93vyug8m3qrqc5qr9u28hzkvdpzyvmez85f58l8y9t2502xrdyd4ezx43vxjgw0dvz6dzy36jku3ptrr9mcv5dftkhsx6f5gt","addr1w999n67e86jn6xal07pzxtrmqynspgx0fwmcmpua4wc6yzsxpljz3"],"addressesOutput":["addr1q9cwvremt6n320s2e3agq0jyq82yhrk3htsu0w426xnz5us70z4w0jgvcdkkynmm8wmds66jd9kusnjfpu6raw5fqp0sr07p5w","addr1q86vamqy020245w02fwgwc8j3qv7gvr2m23tmrqv2htzqkxuy8qgkg4wk4w08dpe24qklsm4v40zmcugs3x8zrqvrnqqp68t4u","addr1qyhmuxdr5tkmpj6mzgysrusf20nw578nx044dcnvpruy2qms5ttnjvk5rrk6ry5cta5u86spnzvz4u0geq6e8l9645lsuuwzmt","addr1q93vyug8m3qrqc5qr9u28hzkvdpzyvmez85f58l8y9t2502xrdyd4ezx43vxjgw0dvz6dzy36jku3ptrr9mcv5dftkhsx6f5gt"],"fee":1317028,"totalOutput":204321348,"tokens":[]}],"totalItems":12127,"totalPages":607,"currentPage":0}