{"data":[{"hash":"74dafdf7f010cf3b361f2a136d0fc04f24a2cf23ffe372d15bfe4711f50fd03f","blockNo":8310900,"blockHash":"fd3b1dca68d709246091fec6a81d6ac7ab3a7adf86b6759dc49bdc00fd356773","epochNo":389,"epochSlotNo":310578,"slot":82995378,"time":"2023/01/24 12:01:09","addressesInput":["addr1qyecjgprat9qjdfkv6ln45eww5a9lwkgqn92x6lspd339ky00hv6dpawknxe42d8dlx42msv2nt8yej77vudk0uruvtsh2aeym","addr1qyecjgprat9qjdfkv6ln45eww5a9lwkgqn92x6lspd339ky00hv6dpawknxe42d8dlx42msv2nt8yej77vudk0uruvtsh2aeym"],"addressesOutput":["addr1q8fkztujpuwq9jkc76v3vwt4tr5err84a3j9x476haykaycj0e4nmve8353cyfh3zfq52w8j74gkuxc86udclrz2npuqdw7x3s","addr1qyecjgprat9qjdfkv6ln45eww5a9lwkgqn92x6lspd339ky00hv6dpawknxe42d8dlx42msv2nt8yej77vudk0uruvtsh2aeym","addr1qyecjgprat9qjdfkv6ln45eww5a9lwkgqn92x6lspd339ky00hv6dpawknxe42d8dlx42msv2nt8yej77vudk0uruvtsh2aeym"],"fee":382773,"totalOutput":136645216,"tokens":[]},{"hash":"747ebe32f17d4607671515647d7cf721a2471f581324747a62cc4583d9cbc990","blockNo":8310835,"blockHash":"dc92d4ab03e638b293cb03bc1aac3e616dbf17981836c6db3d3ba15df792bd23","epochNo":389,"epochSlotNo":309298,"slot":82994098,"time":"2023/01/24 11:39:49","addressesInput":["DdzFFzCqrht64xqzoxMYyXj5P2impKR5pWoTqHwhoLCvxf5zo6mH16KgwzQRoVq9azW7Te1fmkGXUYSy6yQPKGaR66HqBykmGuX2VhpT","DdzFFzCqrhskxYgZ9AivTYvEGzoQWu4UxVsFcHXuWGLREqLTXE8NSfecFyfRBmuvrb8bx5rAnQPnUaLqaUwQcqL5vz8KSFLYsesU5HYf","DdzFFzCqrhsfhPRCGZZB6H84awyxFsZLJRrB738PX94iay1sfCZjxf9eYA1bRe6AGSGQ8CiQ5hKJKNXsh7Dk2ckPStcXLQwe1TrumvMR","DdzFFzCqrht52g4kyyDJzRna6DkfLxi6B94kpngmQFYAqp4SzN9i3hQXFzsvRgBgQ9bzCdSPErCRNHf9cYZ2Cv2A45RofU3UHXQsVUPb","DdzFFzCqrhsmoz7Wz9VyXhPAKitLT2fXPECKURKoSRMDhuDbakdC38ZDb4nthyhmVN1FL5gqUvES7kHTbfFkftQGfWWLmgERM1TaAuen","DdzFFzCqrhsekuEd1xifKbjP6NFE4edbrZwf8uwZZrtGYyFke1iMWfBkJHLeGPELnNJjTUdkQjKZg7pn7UtYLKPrecW6yrGXWAEA9QXn","DdzFFzCqrhtCTL9amQektTLcTX5zkZJLEsPRvcMwXenuJgV78ubsL6qnHgMe1N1VvTrF9BRTtARXxYmXy2UmHm9hG8Qw8sLT9cDnZyhw","DdzFFzCqrhsuU2dp4gDyuE1bw3hs2YWrE5CvRdX7aLo9Siz5Pc1C5RLwVcMCN2L5ZBxVpZ4ibPjbHFCDLb3DsH7iXGa6eZPjJ3YSsxvH","DdzFFzCqrhshzyoGnhLk9EaqSpcFq7AbjyiWPZv23URQb1PxmaWb8rJ6LXDNs4eCUeD1c9hVqQYLUNVZEfL9mmTEeAzuxFBn45Vhb5MH","DdzFFzCqrhsv9u32H6b7ScsgqRdkHU1V3WHv7Q1zkM8MCzastfSdUcJgKCGm4DNbBRvi4yxPAnArnQyFvqSPv3sVxx4FENQAKH4t3QaK","DdzFFzCqrhtA49hX6YFm2qyfR8ycAbSGUWCrtGruVkWJEsrqGTJizABg2PvUNCE5cE7tAhMSGyu1AauBRMKNTdWMUPigTozXqgQP6etT","DdzFFzCqrhtAB8PGbEB1MdSvCEZySHXFychiFC7i59DCuParYhXbhNnERE7jtkUFWim2fm2mMzC4yFVEN4ngxMm1aXrr9ibk57akatgY","DdzFFzCqrhsxAU8JhvEMNZwusHg9ALy8nfKAzr4uYg7Vuw4i5pSMLHhfogyjaYZt1eBDni9qjw1SHnxx5LeitjEBFmSJY36S54K5KrzA","DdzFFzCqrhtAcbiMgzWq7o2egcvGoCEyAyL7R3Sr7oeWiWtP5hnMLqb2hDxBoQZXfLKsuDgg7BgNDYuiKAs4UctAquA91o6osyDL8rXP"],"addressesOutput":["addr1q9atjfpqwdtg7ytz0pz9zcaqvx8zr2uv6ysvc4csqynr683dzefudzxhadht99nh8gv4l3z93d486ygllgxuh2drrrpsdw6fws","DdzFFzCqrhsrw1nFCbLBqZja71pbiqUtb6S2YMYmFGsRV7ie4nD4sa4rybwNpndoLapQ9EhidXSNAuyVedRNm12eEgy5JRcUVkUBUnX1","DdzFFzCqrhsiJe6NnKsXyPKhg5BxHmBjXaXmf8XsS6SpGSHydDZ8hZBqY2ZV7As1D7w1unF2J8UdeveSJ7hJAHF9CY5dedazT3v5hTuy","DdzFFzCqrhtCr7DcwwtkheSasoaHvj6A8RpRJEsRhRX15mdfhbNNU3RQXhbDjfuLxRHoVqZ6CM58iWKN7RTtg7FPRzKYDiAqtuxs4RfJ","DdzFFzCqrht7RBXbkaZZTPXbbXuTK5A9VQeqSZBV43KBXuUSDkthNdfCKc4c1TBgATGqS7BFxK1Ht5Yv8WnJVVLYyp9HQhkDXYMWzkob"],"fee":1040881,"totalOutput":50508544783,"tokens":[]},{"hash":"a29858ae423f26b439db728821d8939db889c00638b95dfd89dc8439240a77c4","blockNo":8310824,"blockHash":"3e47b7a49bb8f0584b7267fa5c406058499701ade67a813f7c20556ec2493342","epochNo":389,"epochSlotNo":309060,"slot":82993860,"time":"2023/01/24 11:35:51","addressesInput":["addr1qyecjgprat9qjdfkv6ln45eww5a9lwkgqn92x6lspd339ky00hv6dpawknxe42d8dlx42msv2nt8yej77vudk0uruvtsh2aeym","addr1qyecjgprat9qjdfkv6ln45eww5a9lwkgqn92x6lspd339ky00hv6dpawknxe42d8dlx42msv2nt8yej77vudk0uruvtsh2aeym"],"addressesOutput":["addr1zxgx3far7qygq0k6epa0zcvcvrevmn0ypsnfsue94nsn3tvpw288a4x0xf8pxgcntelxmyclq83s0ykeehchz2wtspks905plm","addr1qyecjgprat9qjdfkv6ln45eww5a9lwkgqn92x6lspd339ky00hv6dpawknxe42d8dlx42msv2nt8yej77vudk0uruvtsh2aeym","addr1qyecjgprat9qjdfkv6ln45eww5a9lwkgqn92x6lspd339ky00hv6dpawknxe42d8dlx42msv2nt8yej77vudk0uruvtsh2aeym"],"fee":421933,"totalOutput":136345398,"tokens":[]},{"hash":"482c2281a8748bd095e4b9d716804ab7949970fe172af693067aa55f520e6292","blockNo":8310707,"blockHash":"630ef51b47db002d511550a3479ccbef01e24f2dba09581fba61eced7477f16c","epochNo":389,"epochSlotNo":306540,"slot":82991340,"time":"2023/01/24 10:53:51","addressesInput":["DdzFFzCqrhshtH7MasoXQrqrJKXS98QMd9k2BGBeNKBS6CUgvSsuY7uMwk5CvxaeYQXbZjtUM1vex5eqjRLDDGD3aAYHXQHTt3DYPEHo","DdzFFzCqrhshGczffVcqFr1vWWDsZRYH9X4zFujLGyjHQYU4VTsL7jXgrTSxeH3WRhHRvLusAeteRVbHTnVWsdH7wtXhxAmPfwXUmdHv","DdzFFzCqrht7SdFP1WRu96t6WxRpRzypULxjLxJkVBw34qCpXQBqWseUPUC31RvrE2M4GoU3g44nxH8fSxYutF7w46pU2nS4NXxCqVRi","DdzFFzCqrhtCn9AoeoTbYPL74KKyRK8zd7tjSqB99wRLZWTciA5WXJXbfGiTK81NykJHZdWkPVuDiLw2ySrShEHPgDt8JN2uapC5HwEV","DdzFFzCqrhshd8W2nvhoFmTNQLLpmLvEVDvNLUwubJiqNHD6QGWdJcC4pP1FsHKmExp3P8TQRtQCTfAUb8DYqzk3qNZv9i7B8JmuSUwq","DdzFFzCqrhsjtpdJoezMEHmbBTfqAZd1D1kHN78wBL76ACxwe2BS9oUUAix3NrKEN8WDTvqFQTdfJj4sAkdV6pHjxHEm5GATA6YG73r6","DdzFFzCqrhsmaaiQ9ZAgEwDT35bhAV8nXYZJpLJqPJ87BhuP59bGp3bfqSBpKWc6EqYgJsjUz4FXJD1opRVZGaC9KHyhSoXpUnqJEz77","DdzFFzCqrht6WimHvaV2ZyEYin6ioVCXkrY3jwqYBDYCsh9tgNjZgBFbFwrJ81dYvsA2Lm6eMybQjcuXAobNQT8BbWN2kfeRrKSgL96U","DdzFFzCqrhsozRqKAC22PGixVTS4sCYvKWNxWV5RdBqY2eNSNQNBuPinfBesBu8p5hiBJ8ZG7WtUBqrE2tpKywTb58X3o8ztRbEzt5yS","DdzFFzCqrht7yWN6HMSYUZMqESnuhnAUxHLFw5e5eCqqs9muf1onzSmGhciwJU5RSXxj2SiBLtBKTmGEXFVdrhk5u8aVgYjSmPjKApRM","DdzFFzCqrhsjtpdJoezMEHmbBTfqAZd1D1kHN78wBL76ACxwe2BS9oUUAix3NrKEN8WDTvqFQTdfJj4sAkdV6pHjxHEm5GATA6YG73r6","DdzFFzCqrhsjtpdJoezMEHmbBTfqAZd1D1kHN78wBL76ACxwe2BS9oUUAix3NrKEN8WDTvqFQTdfJj4sAkdV6pHjxHEm5GATA6YG73r6","DdzFFzCqrhsoGCZFKQDwfDpxC7craYzAywryyEdfX51NTt2puebqUy7P5BTEXeffFPRwsUTFXL26hDfmaGda5yHx3EPRM6B1tAMuq8Wr","DdzFFzCqrhsjtpdJoezMEHmbBTfqAZd1D1kHN78wBL76ACxwe2BS9oUUAix3NrKEN8WDTvqFQTdfJj4sAkdV6pHjxHEm5GATA6YG73r6","DdzFFzCqrhsuiiDS61SgVVpsCk2vGAhDuWC69EVaSPjnrxAuLtq5Q4vwgZxTAp4dGpULAK2GT43roppAMWUh5BE283gWddj7yQV5BthM","DdzFFzCqrhsjtpdJoezMEHmbBTfqAZd1D1kHN78wBL76ACxwe2BS9oUUAix3NrKEN8WDTvqFQTdfJj4sAkdV6pHjxHEm5GATA6YG73r6","DdzFFzCqrhsozFY5QyzpfQs3QdJfCaw9geBw2sqgk6a47VDpY7R9ntCDmSvWzZHYcBR5B1DqJzsPGE5mdq83CA7r1YbpEr92WP7Jt4Jq","DdzFFzCqrhsjtpdJoezMEHmbBTfqAZd1D1kHN78wBL76ACxwe2BS9oUUAix3NrKEN8WDTvqFQTdfJj4sAkdV6pHjxHEm5GATA6YG73r6","DdzFFzCqrhsdzK42MpiYLrWq4RcVTktQvBLy44xqqfUNDCQmY5mdyZ4Rrk9mb41wQD84G41uUWBfdgN6cEN692v4xFfKn2UNqejQ5Ur1","DdzFFzCqrhsjtpdJoezMEHmbBTfqAZd1D1kHN78wBL76ACxwe2BS9oUUAix3NrKEN8WDTvqFQTdfJj4sAkdV6pHjxHEm5GATA6YG73r6","DdzFFzCqrht1rJyRuM3ojnVyRWqPyjDq3ZPDsLtCTGEB8DmzgPw3NAKzM1nRajpvNrG4zS4vksWh7uTYQQRJTXTsdKFZtsxptctv65mc","DdzFFzCqrhsjtpdJoezMEHmbBTfqAZd1D1kHN78wBL76ACxwe2BS9oUUAix3NrKEN8WDTvqFQTdfJj4sAkdV6pHjxHEm5GATA6YG73r6","DdzFFzCqrhsjtpdJoezMEHmbBTfqAZd1D1kHN78wBL76ACxwe2BS9oUUAix3NrKEN8WDTvqFQTdfJj4sAkdV6pHjxHEm5GATA6YG73r6","DdzFFzCqrhsqwX1bUftodo8yfmEmwCcaz5py18La4sFNfaZjNbK4E7Lc3NpKFgJCMokwVBJPinAzpcH55K2YayLtjVdVYiwpyYmHMxuv","DdzFFzCqrhsuiiDS61SgVVpsCk2vGAhDuWC69EVaSPjnrxAuLtq5Q4vwgZxTAp4dGpULAK2GT43roppAMWUh5BE283gWddj7yQV5BthM","DdzFFzCqrhsrXwvSTf9W9Daz8o6fhzhwCPTqZWfJV4TTGFEEEWApqqW86ESyBGFhMbwzemWb7s88swgT4wz8L6dfRAYNS5AkeCSbFKXn"],"addressesOutput":["addr1q9atjfpqwdtg7ytz0pz9zcaqvx8zr2uv6ysvc4csqynr683dzefudzxhadht99nh8gv4l3z93d486ygllgxuh2drrrpsdw6fws","DdzFFzCqrhsmoz7Wz9VyXhPAKitLT2fXPECKURKoSRMDhuDbakdC38ZDb4nthyhmVN1FL5gqUvES7kHTbfFkftQGfWWLmgERM1TaAuen","DdzFFzCqrhsfhPRCGZZB6H84awyxFsZLJRrB738PX94iay1sfCZjxf9eYA1bRe6AGSGQ8CiQ5hKJKNXsh7Dk2ckPStcXLQwe1TrumvMR","DdzFFzCqrhsuU2dp4gDyuE1bw3hs2YWrE5CvRdX7aLo9Siz5Pc1C5RLwVcMCN2L5ZBxVpZ4ibPjbHFCDLb3DsH7iXGa6eZPjJ3YSsxvH","DdzFFzCqrhtAcbiMgzWq7o2egcvGoCEyAyL7R3Sr7oeWiWtP5hnMLqb2hDxBoQZXfLKsuDgg7BgNDYuiKAs4UctAquA91o6osyDL8rXP"],"fee":1157041,"totalOutput":68185667128,"tokens":[]},{"hash":"1c02f97301f959b438b3b5532bb68a375f8cb5538fa12b9577e2870be63a8c33","blockNo":8310617,"blockHash":"f6067a4cdfd10618db8dec0dd47a960bbdcc6822885f7cee3b0a5c1f5ae78f51","epochNo":389,"epochSlotNo":304750,"slot":82989550,"time":"2023/01/24 10:24:01","addressesInput":["addr1q8hpyvkcwpyeeq5xprj0hhyp49qx7kqprx5xhjs2vd60fx6zmhet75tnxa8l4gj20eljsycfxetsj96s7tuyaqpj7ufqajh2uq","addr1q8hpyvkcwpyeeq5xprj0hhyp49qx7kqprx5xhjs2vd60fx6zmhet75tnxa8l4gj20eljsycfxetsj96s7tuyaqpj7ufqajh2uq","addr1q8hpyvkcwpyeeq5xprj0hhyp49qx7kqprx5xhjs2vd60fx6zmhet75tnxa8l4gj20eljsycfxetsj96s7tuyaqpj7ufqajh2uq","addr1q8hpyvkcwpyeeq5xprj0hhyp49qx7kqprx5xhjs2vd60fx6zmhet75tnxa8l4gj20eljsycfxetsj96s7tuyaqpj7ufqajh2uq","addr1q8hpyvkcwpyeeq5xprj0hhyp49qx7kqprx5xhjs2vd60fx6zmhet75tnxa8l4gj20eljsycfxetsj96s7tuyaqpj7ufqajh2uq","addr1q8hpyvkcwpyeeq5xprj0hhyp49qx7kqprx5xhjs2vd60fx6zmhet75tnxa8l4gj20eljsycfxetsj96s7tuyaqpj7ufqajh2uq","addr1q8hpyvkcwpyeeq5xprj0hhyp49qx7kqprx5xhjs2vd60fx6zmhet75tnxa8l4gj20eljsycfxetsj96s7tuyaqpj7ufqajh2uq","addr1q8hpyvkcwpyeeq5xprj0hhyp49qx7kqprx5xhjs2vd60fx6zmhet75tnxa8l4gj20eljsycfxetsj96s7tuyaqpj7ufqajh2uq"],"addressesOutput":["addr1qy3hqaha5424xlz94wltv5lgswylzdytwanxzl9m80leec22kuj2dts0c0rjuyh4tf570q6z0xwg8tnl479r3ns5drgsxaa5yq","addr1q8hpyvkcwpyeeq5xprj0hhyp49qx7kqprx5xhjs2vd60fx6zmhet75tnxa8l4gj20eljsycfxetsj96s7tuyaqpj7ufqajh2uq","addr1q8hpyvkcwpyeeq5xprj0hhyp49qx7kqprx5xhjs2vd60fx6zmhet75tnxa8l4gj20eljsycfxetsj96s7tuyaqpj7ufqajh2uq"],"fee":206289,"totalOutput":224129233,"tokens":[]},{"hash":"66a6c676a8bb9638e65c0d8344915cf25ba01fb6826cf6158cd0495eb49947ff","blockNo":8310615,"blockHash":"cb63d2935614921dc7b4a74316472893b0dd487b741740a982fc1041aaad1eaf","epochNo":389,"epochSlotNo":304693,"slot":82989493,"time":"2023/01/24 10:23:04","addressesInput":["addr1q8hpyvkcwpyeeq5xprj0hhyp49qx7kqprx5xhjs2vd60fx6zmhet75tnxa8l4gj20eljsycfxetsj96s7tuyaqpj7ufqajh2uq","addr1q8hpyvkcwpyeeq5xprj0hhyp49qx7kqprx5xhjs2vd60fx6zmhet75tnxa8l4gj20eljsycfxetsj96s7tuyaqpj7ufqajh2uq","addr1q8hpyvkcwpyeeq5xprj0hhyp49qx7kqprx5xhjs2vd60fx6zmhet75tnxa8l4gj20eljsycfxetsj96s7tuyaqpj7ufqajh2uq","addr1q8hpyvkcwpyeeq5xprj0hhyp49qx7kqprx5xhjs2vd60fx6zmhet75tnxa8l4gj20eljsycfxetsj96s7tuyaqpj7ufqajh2uq","addr1q8hpyvkcwpyeeq5xprj0hhyp49qx7kqprx5xhjs2vd60fx6zmhet75tnxa8l4gj20eljsycfxetsj96s7tuyaqpj7ufqajh2uq"],"addressesOutput":["addr1qxq55tvj24vhgn5ww9562pqfen5z362rhp6548g4knq4ncpmrprvkqa7pvskc7x4skgxweqvg00vvxqey0k5yunuungq24kwly","addr1q8hpyvkcwpyeeq5xprj0hhyp49qx7kqprx5xhjs2vd60fx6zmhet75tnxa8l4gj20eljsycfxetsj96s7tuyaqpj7ufqajh2uq","addr1q8hpyvkcwpyeeq5xprj0hhyp49qx7kqprx5xhjs2vd60fx6zmhet75tnxa8l4gj20eljsycfxetsj96s7tuyaqpj7ufqajh2uq"],"fee":204133,"totalOutput":17218558,"tokens":[]},{"hash":"f878d1237f3cfb6d8a92ac7efdf3f9146f03c9d5bd0a9d1c5159e1cd9647c1ef","blockNo":8310611,"blockHash":"564ed7519942a27a515ce87320d3252a787de47deda2e6845d7c127e679cceec","epochNo":389,"epochSlotNo":304554,"slot":82989354,"time":"2023/01/24 10:20:45","addressesInput":["addr1q8hpyvkcwpyeeq5xprj0hhyp49qx7kqprx5xhjs2vd60fx6zmhet75tnxa8l4gj20eljsycfxetsj96s7tuyaqpj7ufqajh2uq","addr1q8hpyvkcwpyeeq5xprj0hhyp49qx7kqprx5xhjs2vd60fx6zmhet75tnxa8l4gj20eljsycfxetsj96s7tuyaqpj7ufqajh2uq","addr1q8hpyvkcwpyeeq5xprj0hhyp49qx7kqprx5xhjs2vd60fx6zmhet75tnxa8l4gj20eljsycfxetsj96s7tuyaqpj7ufqajh2uq","addr1q8hpyvkcwpyeeq5xprj0hhyp49qx7kqprx5xhjs2vd60fx6zmhet75tnxa8l4gj20eljsycfxetsj96s7tuyaqpj7ufqajh2uq"],"addressesOutput":["addr1qxq55tvj24vhgn5ww9562pqfen5z362rhp6548g4knq4ncpmrprvkqa7pvskc7x4skgxweqvg00vvxqey0k5yunuungq24kwly","addr1q8hpyvkcwpyeeq5xprj0hhyp49qx7kqprx5xhjs2vd60fx6zmhet75tnxa8l4gj20eljsycfxetsj96s7tuyaqpj7ufqajh2uq","addr1q8hpyvkcwpyeeq5xprj0hhyp49qx7kqprx5xhjs2vd60fx6zmhet75tnxa8l4gj20eljsycfxetsj96s7tuyaqpj7ufqajh2uq"],"fee":204133,"totalOutput":14716011,"tokens":[]},{"hash":"679d272d762418f9498711059b50cada32ef3d069f306c6b45d5918fae1da710","blockNo":8310606,"blockHash":"1b083f3a05a5218b171bf69213b6365ccb8dc09334da5525be62d12e5caa271a","epochNo":389,"epochSlotNo":304391,"slot":82989191,"time":"2023/01/24 10:18:02","addressesInput":["addr1q8hpyvkcwpyeeq5xprj0hhyp49qx7kqprx5xhjs2vd60fx6zmhet75tnxa8l4gj20eljsycfxetsj96s7tuyaqpj7ufqajh2uq","addr1q8hpyvkcwpyeeq5xprj0hhyp49qx7kqprx5xhjs2vd60fx6zmhet75tnxa8l4gj20eljsycfxetsj96s7tuyaqpj7ufqajh2uq","addr1q8hpyvkcwpyeeq5xprj0hhyp49qx7kqprx5xhjs2vd60fx6zmhet75tnxa8l4gj20eljsycfxetsj96s7tuyaqpj7ufqajh2uq"],"addressesOutput":["addr1qy5e8lnvmakgher5g73mxp43w4sr2nyal3fcza8k7kaj9magh22q6gdgngtqj9kacmuxywfcfugyecnkq3py5zthkvnss2h025","addr1q8hpyvkcwpyeeq5xprj0hhyp49qx7kqprx5xhjs2vd60fx6zmhet75tnxa8l4gj20eljsycfxetsj96s7tuyaqpj7ufqajh2uq","addr1q8hpyvkcwpyeeq5xprj0hhyp49qx7kqprx5xhjs2vd60fx6zmhet75tnxa8l4gj20eljsycfxetsj96s7tuyaqpj7ufqajh2uq"],"fee":203121,"totalOutput":26654176,"tokens":[]},{"hash":"e022455369f894744dcf5f05be28f0b1612908697b66742a93d820bf9487c1a8","blockNo":8310604,"blockHash":"46ed127e3a2597f620200ba9d5fc35099dea413737893e0b70f67b61c9d98462","epochNo":389,"epochSlotNo":304315,"slot":82989115,"time":"2023/01/24 10:16:46","addressesInput":["addr1q8hpyvkcwpyeeq5xprj0hhyp49qx7kqprx5xhjs2vd60fx6zmhet75tnxa8l4gj20eljsycfxetsj96s7tuyaqpj7ufqajh2uq","addr1q8hpyvkcwpyeeq5xprj0hhyp49qx7kqprx5xhjs2vd60fx6zmhet75tnxa8l4gj20eljsycfxetsj96s7tuyaqpj7ufqajh2uq","addr1q8hpyvkcwpyeeq5xprj0hhyp49qx7kqprx5xhjs2vd60fx6zmhet75tnxa8l4gj20eljsycfxetsj96s7tuyaqpj7ufqajh2uq"],"addressesOutput":["addr1qxq9k3hku6s9mn74cfn485v5p8sxjuwqxs6mvwear4kerfja204vsnpyn436tj4kg2h3vl8flpaszl4a0lhgrq33533qf8qxc6","addr1q8hpyvkcwpyeeq5xprj0hhyp49qx7kqprx5xhjs2vd60fx6zmhet75tnxa8l4gj20eljsycfxetsj96s7tuyaqpj7ufqajh2uq","addr1q8hpyvkcwpyeeq5xprj0hhyp49qx7kqprx5xhjs2vd60fx6zmhet75tnxa8l4gj20eljsycfxetsj96s7tuyaqpj7ufqajh2uq"],"fee":204969,"totalOutput":13484914,"tokens":[]},{"hash":"5ba1805bb62634a0ec279bb3ba6bf344f6c2a39ff5c60937e2ecdce1f4434711","blockNo":8310601,"blockHash":"caf3d29aee16ac8e6f0fda6b713b9ad62904c0b57b78649a0bd5a16f9be7fadd","epochNo":389,"epochSlotNo":304198,"slot":82988998,"time":"2023/01/24 10:14:49","addressesInput":["addr1q8hpyvkcwpyeeq5xprj0hhyp49qx7kqprx5xhjs2vd60fx6zmhet75tnxa8l4gj20eljsycfxetsj96s7tuyaqpj7ufqajh2uq","addr1q8hpyvkcwpyeeq5xprj0hhyp49qx7kqprx5xhjs2vd60fx6zmhet75tnxa8l4gj20eljsycfxetsj96s7tuyaqpj7ufqajh2uq"],"addressesOutput":["addr1q89s0dyzejgcaw5c4e65em27q8q5gvj90qztsj7pfangqqnz9u5tdracmsyjcjgn5nkjwr9rz8qwetgcl94hagjxuvdqs5dsv5","addr1q8hpyvkcwpyeeq5xprj0hhyp49qx7kqprx5xhjs2vd60fx6zmhet75tnxa8l4gj20eljsycfxetsj96s7tuyaqpj7ufqajh2uq","addr1q8hpyvkcwpyeeq5xprj0hhyp49qx7kqprx5xhjs2vd60fx6zmhet75tnxa8l4gj20eljsycfxetsj96s7tuyaqpj7ufqajh2uq"],"fee":205145,"totalOutput":11657124,"tokens":[]},{"hash":"fb5e938f1b28c9fd1251265b3b5b375d14ba2b283f6005dfc02e606ec22a4270","blockNo":8310583,"blockHash":"14875c3955f47ca441c4c4d567701cb25f0154c809ee0fea88407adb3ea8be1b","epochNo":389,"epochSlotNo":303845,"slot":82988645,"time":"2023/01/24 10:08:56","addressesInput":["addr1zxj47sy4qxlktqzmkrw8dahe46gtv8seakrshsqz26qnvzypw288a4x0xf8pxgcntelxmyclq83s0ykeehchz2wtspksr3q9nx","addr1q8hpyvkcwpyeeq5xprj0hhyp49qx7kqprx5xhjs2vd60fx6zmhet75tnxa8l4gj20eljsycfxetsj96s7tuyaqpj7ufqajh2uq","addr1q8hpyvkcwpyeeq5xprj0hhyp49qx7kqprx5xhjs2vd60fx6zmhet75tnxa8l4gj20eljsycfxetsj96s7tuyaqpj7ufqajh2uq","addr1q8hpyvkcwpyeeq5xprj0hhyp49qx7kqprx5xhjs2vd60fx6zmhet75tnxa8l4gj20eljsycfxetsj96s7tuyaqpj7ufqajh2uq"],"addressesOutput":["addr1q8hpyvkcwpyeeq5xprj0hhyp49qx7kqprx5xhjs2vd60fx6zmhet75tnxa8l4gj20eljsycfxetsj96s7tuyaqpj7ufqajh2uq","addr1q8hpyvkcwpyeeq5xprj0hhyp49qx7kqprx5xhjs2vd60fx6zmhet75tnxa8l4gj20eljsycfxetsj96s7tuyaqpj7ufqajh2uq"],"fee":637391,"totalOutput":8241469,"tokens":[]},{"hash":"02b95128633c5156deb9318f8f2b382f2033645164eb410d0661b19f710b183e","blockNo":8310577,"blockHash":"85749508dcda1b014de96e4feb24821c1c919cc61fe4ce315c6b597d7eb971cd","epochNo":389,"epochSlotNo":303745,"slot":82988545,"time":"2023/01/24 10:07:16","addressesInput":["addr1q8hpyvkcwpyeeq5xprj0hhyp49qx7kqprx5xhjs2vd60fx6zmhet75tnxa8l4gj20eljsycfxetsj96s7tuyaqpj7ufqajh2uq","addr1q8hpyvkcwpyeeq5xprj0hhyp49qx7kqprx5xhjs2vd60fx6zmhet75tnxa8l4gj20eljsycfxetsj96s7tuyaqpj7ufqajh2uq"],"addressesOutput":["addr1qyt964e000vdgm8xnd8vdudajl74rftl2htyx6yp8w44gpvma4386z82hqhwrnte2waukvc84ywv3a37e7uljcyw44fskw2v90","addr1q8hpyvkcwpyeeq5xprj0hhyp49qx7kqprx5xhjs2vd60fx6zmhet75tnxa8l4gj20eljsycfxetsj96s7tuyaqpj7ufqajh2uq","addr1q8hpyvkcwpyeeq5xprj0hhyp49qx7kqprx5xhjs2vd60fx6zmhet75tnxa8l4gj20eljsycfxetsj96s7tuyaqpj7ufqajh2uq"],"fee":212933,"totalOutput":33486072,"tokens":[]},{"hash":"4156f9c6b9a12df80a365656f70ab1c2d97b26de6eb68c66832deb6eec1fafa5","blockNo":8310563,"blockHash":"62c3fc21793ff47e63b7b1bcc962762dac688e3d6a40fd4bc20c8dc51edb4808","epochNo":389,"epochSlotNo":303568,"slot":82988368,"time":"2023/01/24 10:04:19","addressesInput":["addr1q8hpyvkcwpyeeq5xprj0hhyp49qx7kqprx5xhjs2vd60fx6zmhet75tnxa8l4gj20eljsycfxetsj96s7tuyaqpj7ufqajh2uq","addr1q8hpyvkcwpyeeq5xprj0hhyp49qx7kqprx5xhjs2vd60fx6zmhet75tnxa8l4gj20eljsycfxetsj96s7tuyaqpj7ufqajh2uq"],"addressesOutput":["addr1qyt964e000vdgm8xnd8vdudajl74rftl2htyx6yp8w44gpvma4386z82hqhwrnte2waukvc84ywv3a37e7uljcyw44fskw2v90","addr1q8hpyvkcwpyeeq5xprj0hhyp49qx7kqprx5xhjs2vd60fx6zmhet75tnxa8l4gj20eljsycfxetsj96s7tuyaqpj7ufqajh2uq","addr1q8hpyvkcwpyeeq5xprj0hhyp49qx7kqprx5xhjs2vd60fx6zmhet75tnxa8l4gj20eljsycfxetsj96s7tuyaqpj7ufqajh2uq"],"fee":218785,"totalOutput":35250605,"tokens":[]},{"hash":"01caa3b82b9f16f9e1509349fd31828cbef2e90308d1398312e0e64ad940c306","blockNo":8310548,"blockHash":"8834b6547320ffb0cbcba4b51592c3f2d6e45ff23a2fa33268acf00322abf49b","epochNo":389,"epochSlotNo":303276,"slot":82988076,"time":"2023/01/24 09:59:27","addressesInput":["addr1q8hpyvkcwpyeeq5xprj0hhyp49qx7kqprx5xhjs2vd60fx6zmhet75tnxa8l4gj20eljsycfxetsj96s7tuyaqpj7ufqajh2uq","addr1q8hpyvkcwpyeeq5xprj0hhyp49qx7kqprx5xhjs2vd60fx6zmhet75tnxa8l4gj20eljsycfxetsj96s7tuyaqpj7ufqajh2uq","addr1q8hpyvkcwpyeeq5xprj0hhyp49qx7kqprx5xhjs2vd60fx6zmhet75tnxa8l4gj20eljsycfxetsj96s7tuyaqpj7ufqajh2uq","addr1q8hpyvkcwpyeeq5xprj0hhyp49qx7kqprx5xhjs2vd60fx6zmhet75tnxa8l4gj20eljsycfxetsj96s7tuyaqpj7ufqajh2uq"],"addressesOutput":["addr1qyt964e000vdgm8xnd8vdudajl74rftl2htyx6yp8w44gpvma4386z82hqhwrnte2waukvc84ywv3a37e7uljcyw44fskw2v90","addr1q8hpyvkcwpyeeq5xprj0hhyp49qx7kqprx5xhjs2vd60fx6zmhet75tnxa8l4gj20eljsycfxetsj96s7tuyaqpj7ufqajh2uq","addr1q8hpyvkcwpyeeq5xprj0hhyp49qx7kqprx5xhjs2vd60fx6zmhet75tnxa8l4gj20eljsycfxetsj96s7tuyaqpj7ufqajh2uq"],"fee":233041,"totalOutput":194418110,"tokens":[]},{"hash":"76a19ad69e85aba7d6be75c19e12e0c0f37fd73b7c3d4f84cbdb47c8463755cb","blockNo":8310546,"blockHash":"dbb4394e96198de05765250459c5342a0f5983bddebb1b0e94343fe3f1268fdf","epochNo":389,"epochSlotNo":303212,"slot":82988012,"time":"2023/01/24 09:58:23","addressesInput":["addr1qx76hnwx8qukkylx5te0em5gf7kgjqadv6x8z406mpyxz6nn3lmaa3wnh8ka8wxllq5f9kpp6spcwum5vvas6xgvuedsh0rgkp","addr1qx76hnwx8qukkylx5te0em5gf7kgjqadv6x8z406mpyxz6nn3lmaa3wnh8ka8wxllq5f9kpp6spcwum5vvas6xgvuedsh0rgkp"],"addressesOutput":["addr1wxn9efv2f6w82hagxqtn62ju4m293tqvw0uhmdl64ch8uwc0h43gt","addr1qx76hnwx8qukkylx5te0em5gf7kgjqadv6x8z406mpyxz6nn3lmaa3wnh8ka8wxllq5f9kpp6spcwum5vvas6xgvuedsh0rgkp","addr1qx76hnwx8qukkylx5te0em5gf7kgjqadv6x8z406mpyxz6nn3lmaa3wnh8ka8wxllq5f9kpp6spcwum5vvas6xgvuedsh0rgkp"],"fee":220721,"totalOutput":31279515,"tokens":[]},{"hash":"8303c66a0b28d9b9f7a727a99cd4dfce6ad8c4bf8422626a6ca385cf8653ffb4","blockNo":8310539,"blockHash":"61c6cd8bdf9ef98faea7c63588f10fb7cd74e6b4bea8ebe5cebe06d3268caa90","epochNo":389,"epochSlotNo":303115,"slot":82987915,"time":"2023/01/24 09:56:46","addressesInput":["addr1q8hpyvkcwpyeeq5xprj0hhyp49qx7kqprx5xhjs2vd60fx6zmhet75tnxa8l4gj20eljsycfxetsj96s7tuyaqpj7ufqajh2uq","addr1q8hpyvkcwpyeeq5xprj0hhyp49qx7kqprx5xhjs2vd60fx6zmhet75tnxa8l4gj20eljsycfxetsj96s7tuyaqpj7ufqajh2uq"],"addressesOutput":["addr1qyt964e000vdgm8xnd8vdudajl74rftl2htyx6yp8w44gpvma4386z82hqhwrnte2waukvc84ywv3a37e7uljcyw44fskw2v90","addr1q8hpyvkcwpyeeq5xprj0hhyp49qx7kqprx5xhjs2vd60fx6zmhet75tnxa8l4gj20eljsycfxetsj96s7tuyaqpj7ufqajh2uq","addr1q8hpyvkcwpyeeq5xprj0hhyp49qx7kqprx5xhjs2vd60fx6zmhet75tnxa8l4gj20eljsycfxetsj96s7tuyaqpj7ufqajh2uq"],"fee":239245,"totalOutput":193525924,"tokens":[]},{"hash":"ce4d9606cae21958bdf229d891a0ddbe72a065639b4fd5ac2962f0dd2fe373e1","blockNo":8310531,"blockHash":"3dd7f5bffae6ef3118a1df61567834b2664582924c2fcb6577061e25fd484672","epochNo":389,"epochSlotNo":302888,"slot":82987688,"time":"2023/01/24 09:52:59","addressesInput":["addr1q8hpyvkcwpyeeq5xprj0hhyp49qx7kqprx5xhjs2vd60fx6zmhet75tnxa8l4gj20eljsycfxetsj96s7tuyaqpj7ufqajh2uq"],"addressesOutput":["addr1qyt964e000vdgm8xnd8vdudajl74rftl2htyx6yp8w44gpvma4386z82hqhwrnte2waukvc84ywv3a37e7uljcyw44fskw2v90","addr1q8hpyvkcwpyeeq5xprj0hhyp49qx7kqprx5xhjs2vd60fx6zmhet75tnxa8l4gj20eljsycfxetsj96s7tuyaqpj7ufqajh2uq","addr1q8hpyvkcwpyeeq5xprj0hhyp49qx7kqprx5xhjs2vd60fx6zmhet75tnxa8l4gj20eljsycfxetsj96s7tuyaqpj7ufqajh2uq"],"fee":246549,"totalOutput":195614159,"tokens":[]},{"hash":"8e9f285bbc10519542c0491f1dfe8cee2ae6b2674e4e413ae66a6f9a13200bc4","blockNo":8310512,"blockHash":"7e08ee51bbda6f7e67b75d26862a9464225f9291982ebe8f2205be091736cc53","epochNo":389,"epochSlotNo":302403,"slot":82987203,"time":"2023/01/24 09:44:54","addressesInput":["DdzFFzCqrhsrULdffH3xQSavTx9yWPFrUj9zEssFDnL8CnCvNGAFqnUYhcdpguCoQAJciZjndNQncauAbPRokrwytwBmkEad4PaofYyh","DdzFFzCqrhsjtpdJoezMEHmbBTfqAZd1D1kHN78wBL76ACxwe2BS9oUUAix3NrKEN8WDTvqFQTdfJj4sAkdV6pHjxHEm5GATA6YG73r6","DdzFFzCqrhsjtpdJoezMEHmbBTfqAZd1D1kHN78wBL76ACxwe2BS9oUUAix3NrKEN8WDTvqFQTdfJj4sAkdV6pHjxHEm5GATA6YG73r6","DdzFFzCqrht5LQQKQAAbaCaSb22WT334qKWFQ8uZbES848S3RU9uFfNda6s9DqTqHUNk7HMcVDSUznXATtbjiCPh89uer3kKx6tnfTQ3","DdzFFzCqrhsjtpdJoezMEHmbBTfqAZd1D1kHN78wBL76ACxwe2BS9oUUAix3NrKEN8WDTvqFQTdfJj4sAkdV6pHjxHEm5GATA6YG73r6","DdzFFzCqrhsjtpdJoezMEHmbBTfqAZd1D1kHN78wBL76ACxwe2BS9oUUAix3NrKEN8WDTvqFQTdfJj4sAkdV6pHjxHEm5GATA6YG73r6","DdzFFzCqrhsjtpdJoezMEHmbBTfqAZd1D1kHN78wBL76ACxwe2BS9oUUAix3NrKEN8WDTvqFQTdfJj4sAkdV6pHjxHEm5GATA6YG73r6","DdzFFzCqrhsiGtmMbVAK6y6NhT9ZqwP9yFKvTy4Y2io9PSy15wXfCt7StqMR5C3iManAdWVtjLhXqmdEEjza6c2x5EPwH9s9MXoVYeQM","DdzFFzCqrhsjtpdJoezMEHmbBTfqAZd1D1kHN78wBL76ACxwe2BS9oUUAix3NrKEN8WDTvqFQTdfJj4sAkdV6pHjxHEm5GATA6YG73r6","DdzFFzCqrhsxhhgdBp4DdFEuVwBxsF5nrrnk1b6hfwY3q2FfGrSqHMTDYgFUPmFXGJyVPzVGThK4TDs7LRkAQ7gzu9CSw7ozP26TZoZb","DdzFFzCqrhsuoa45AhNi4FEMvodyuvdSZnDc2yC2ceJzExJfRSKSHaYHsMZgFRRea6UgVNQkcVckCNKj1A9xvVAqwL4jMkftKZ9mBXBS","DdzFFzCqrhsjtpdJoezMEHmbBTfqAZd1D1kHN78wBL76ACxwe2BS9oUUAix3NrKEN8WDTvqFQTdfJj4sAkdV6pHjxHEm5GATA6YG73r6","DdzFFzCqrhsxxXXyiFj6zwP7gXCgc61iBQqR6gC7Jt6mYvaXzcxnFXY8gTD1UV3FGTWifJibGALrH3oksy2jegUnsXGXvU2vzWhigVQw","DdzFFzCqrhsjtpdJoezMEHmbBTfqAZd1D1kHN78wBL76ACxwe2BS9oUUAix3NrKEN8WDTvqFQTdfJj4sAkdV6pHjxHEm5GATA6YG73r6"],"addressesOutput":["addr1q9atjfpqwdtg7ytz0pz9zcaqvx8zr2uv6ysvc4csqynr683dzefudzxhadht99nh8gv4l3z93d486ygllgxuh2drrrpsdw6fws","DdzFFzCqrhsoGCZFKQDwfDpxC7craYzAywryyEdfX51NTt2puebqUy7P5BTEXeffFPRwsUTFXL26hDfmaGda5yHx3EPRM6B1tAMuq8Wr","DdzFFzCqrhshGczffVcqFr1vWWDsZRYH9X4zFujLGyjHQYU4VTsL7jXgrTSxeH3WRhHRvLusAeteRVbHTnVWsdH7wtXhxAmPfwXUmdHv","DdzFFzCqrhsmaaiQ9ZAgEwDT35bhAV8nXYZJpLJqPJ87BhuP59bGp3bfqSBpKWc6EqYgJsjUz4FXJD1opRVZGaC9KHyhSoXpUnqJEz77","DdzFFzCqrht6WimHvaV2ZyEYin6ioVCXkrY3jwqYBDYCsh9tgNjZgBFbFwrJ81dYvsA2Lm6eMybQjcuXAobNQT8BbWN2kfeRrKSgL96U"],"fee":1040881,"totalOutput":63391425627,"tokens":[]},{"hash":"791460bacf86ba9de484cb24c103ac6b270879b711bfe0a09bada2da140a4477","blockNo":8310445,"blockHash":"0a6a47e6d6bff655161b9846967c289dc90c164da1f00e2e50aa5f7caba2c945","epochNo":389,"epochSlotNo":300968,"slot":82985768,"time":"2023/01/24 09:20:59","addressesInput":["addr1qxhyvhg273j5g25thphzje0tryknkvgtmghmpy8fjeapyadw7h9fl3reld7vnqwln5dddm2sv4vjln0rqkunmznuvaxsrxm0r8","addr1qxhyvhg273j5g25thphzje0tryknkvgtmghmpy8fjeapyadw7h9fl3reld7vnqwln5dddm2sv4vjln0rqkunmznuvaxsrxm0r8"],"addressesOutput":["addr1zxgx3far7qygq0k6epa0zcvcvrevmn0ypsnfsue94nsn3tvpw288a4x0xf8pxgcntelxmyclq83s0ykeehchz2wtspks905plm","addr1qxhyvhg273j5g25thphzje0tryknkvgtmghmpy8fjeapyadw7h9fl3reld7vnqwln5dddm2sv4vjln0rqkunmznuvaxsrxm0r8","addr1qxhyvhg273j5g25thphzje0tryknkvgtmghmpy8fjeapyadw7h9fl3reld7vnqwln5dddm2sv4vjln0rqkunmznuvaxsrxm0r8","addr1qxhyvhg273j5g25thphzje0tryknkvgtmghmpy8fjeapyadw7h9fl3reld7vnqwln5dddm2sv4vjln0rqkunmznuvaxsrxm0r8"],"fee":263005,"totalOutput":257505801,"tokens":[]},{"hash":"22045fa1a3bb0a981666fab755b706ebb9c1c07ba9d97cd818241066d0453d64","blockNo":8310337,"blockHash":"d3306d90a3f80edcfca21bdcfe440235ea140bf9bddba5dbba5d3379402751b3","epochNo":389,"epochSlotNo":298449,"slot":82983249,"time":"2023/01/24 08:39:00","addressesInput":["addr1qxcqaerp2n98fdk4858sk088u96uje5vnhahgnex2skf6saw7h9fl3reld7vnqwln5dddm2sv4vjln0rqkunmznuvaxs99ptnm"],"addressesOutput":["addr1zxgx3far7qygq0k6epa0zcvcvrevmn0ypsnfsue94nsn3tvpw288a4x0xf8pxgcntelxmyclq83s0ykeehchz2wtspks905plm","addr1qxhyvhg273j5g25thphzje0tryknkvgtmghmpy8fjeapyadw7h9fl3reld7vnqwln5dddm2sv4vjln0rqkunmznuvaxsrxm0r8","addr1qxhyvhg273j5g25thphzje0tryknkvgtmghmpy8fjeapyadw7h9fl3reld7vnqwln5dddm2sv4vjln0rqkunmznuvaxsrxm0r8","addr1qxhyvhg273j5g25thphzje0tryknkvgtmghmpy8fjeapyadw7h9fl3reld7vnqwln5dddm2sv4vjln0rqkunmznuvaxsrxm0r8","addr1qxhyvhg273j5g25thphzje0tryknkvgtmghmpy8fjeapyadw7h9fl3reld7vnqwln5dddm2sv4vjln0rqkunmznuvaxsrxm0r8","addr1qxhyvhg273j5g25thphzje0tryknkvgtmghmpy8fjeapyadw7h9fl3reld7vnqwln5dddm2sv4vjln0rqkunmznuvaxsrxm0r8"],"fee":269341,"totalOutput":1010919383,"tokens":[]}],"totalItems":13249,"totalPages":663,"currentPage":0}