{"data":[{"hash":"e81fcafaf4d2e8a103e40d24dc7f9f31d38abd8da602daad9ec75ad2e8b91427","blockNo":8146905,"blockHash":"97aa027554f43c222c11e15642f2dded56515a9d55b2f60a5ad9070750be7550","epochNo":381,"epochSlotNo":397805,"slot":79626605,"time":"2022/12/16 12:14:56","addressesInput":["addr1qytj4u6sqmz6qcpaeay2h68mlks70wd0ramyc8usvw8lm06ncurs6tusr4wnh3a30frznuj4dp4l5el94w8vmpr2532sa5cvjs","addr1zxgx3far7qygq0k6epa0zcvcvrevmn0ypsnfsue94nsn3tvpw288a4x0xf8pxgcntelxmyclq83s0ykeehchz2wtspks905plm"],"addressesOutput":["addr1zxgx3far7qygq0k6epa0zcvcvrevmn0ypsnfsue94nsn3tvpw288a4x0xf8pxgcntelxmyclq83s0ykeehchz2wtspks905plm","addr1qytj4u6sqmz6qcpaeay2h68mlks70wd0ramyc8usvw8lm06ncurs6tusr4wnh3a30frznuj4dp4l5el94w8vmpr2532sa5cvjs"],"fee":297574,"totalOutput":7673082,"tokens":[]},{"hash":"f58bf9c6c89c36f3409db17ad2489666e6290583c3feb67a33b94b4ca143c20a","blockNo":8146905,"blockHash":"97aa027554f43c222c11e15642f2dded56515a9d55b2f60a5ad9070750be7550","epochNo":381,"epochSlotNo":397805,"slot":79626605,"time":"2022/12/16 12:14:56","addressesInput":["addr1qytglvg7xj2qv2ldvhser27kz7k4refrlhupdl5gzkm24e63n6yvq7fpw43n27eycg5herfuv9uhq94l2pz5fxjtefvqje6wxx"],"addressesOutput":["addr1qytglvg7xj2qv2ldvhser27kz7k4refrlhupdl5gzkm24e63n6yvq7fpw43n27eycg5herfuv9uhq94l2pz5fxjtefvqje6wxx","addr1qytglvg7xj2qv2ldvhser27kz7k4refrlhupdl5gzkm24e63n6yvq7fpw43n27eycg5herfuv9uhq94l2pz5fxjtefvqje6wxx"],"fee":168317,"totalOutput":1134184854,"tokens":[]},{"hash":"635f1b022f6083bfd71c3acf967417e3858766869d89951e22459e69c07f4ff7","blockNo":8146905,"blockHash":"97aa027554f43c222c11e15642f2dded56515a9d55b2f60a5ad9070750be7550","epochNo":381,"epochSlotNo":397805,"slot":79626605,"time":"2022/12/16 12:14:56","addressesInput":["addr1wxdct40gvyv525zlq79wahkuhmgadjs3q5lkrclemxvlu3qyda7l2","addr1qxenepdtgh42x5u7p583p8sua6cfnhd879rcevwzdh0vsfns2ze0c8hhxaej8t06mw6tgtdg2nptqy2je8cdzyt6ugfqglxj5g"],"addressesOutput":["addr1qxkmr0m22xeqludcg5rjdmecjxasu9fat0680qehtcsnftaadgykewa9ufvegeuca9yyq03d9v7ea2y2zthgu7hfgjtsddp6gr","addr1wxdct40gvyv525zlq79wahkuhmgadjs3q5lkrclemxvlu3qyda7l2","addr1qxenepdtgh42x5u7p583p8sua6cfnhd879rcevwzdh0vsfns2ze0c8hhxaej8t06mw6tgtdg2nptqy2je8cdzyt6ugfqglxj5g"],"fee":340192,"totalOutput":10448935,"tokens":[]},{"hash":"2ed16e0b4c8617fab5fc7c3feae0ffc45d8b1d697c4da6c8b4203f1b6e25e502","blockNo":8146905,"blockHash":"97aa027554f43c222c11e15642f2dded56515a9d55b2f60a5ad9070750be7550","epochNo":381,"epochSlotNo":397805,"slot":79626605,"time":"2022/12/16 12:14:56","addressesInput":["addr1qxcf3xlzcphld0wmzkfpyp204dg6myam2vz8psa5kfkrn7nvym4nt7he3mv9gy443cgft47rgsx6r6q630d9zyjn6mase9em7z"],"addressesOutput":["addr1v8spkmdvkzal73hvrg5sv8hxywy4javd7u9t7hmvs94myecjcdepy","addr1qxcf3xlzcphld0wmzkfpyp204dg6myam2vz8psa5kfkrn7nvym4nt7he3mv9gy443cgft47rgsx6r6q630d9zyjn6mase9em7z"],"fee":386900,"totalOutput":320540550,"tokens":[]},{"hash":"75e50a509c9016ff6ff5af752005ed2952b1ab2462e326cfb9b19cb11166bfa2","blockNo":8146905,"blockHash":"97aa027554f43c222c11e15642f2dded56515a9d55b2f60a5ad9070750be7550","epochNo":381,"epochSlotNo":397805,"slot":79626605,"time":"2022/12/16 12:14:56","addressesInput":["addr1q8xrf6cu0wuhdq5u46fqvmnz24txus4cpq9hjrzqvxdau2epd0rca96vh6njqfgsmd9xnpl0xr6wrct3nq5vjwrhvwcspqa53e"],"addressesOutput":["addr1zxgx3far7qygq0k6epa0zcvcvrevmn0ypsnfsue94nsn3tvpw288a4x0xf8pxgcntelxmyclq83s0ykeehchz2wtspks905plm","addr1q8xrf6cu0wuhdq5u46fqvmnz24txus4cpq9hjrzqvxdau2epd0rca96vh6njqfgsmd9xnpl0xr6wrct3nq5vjwrhvwcspqa53e"],"fee":408865,"totalOutput":56022286,"tokens":[]},{"hash":"34b09a69c7855985332161910a864d82cf2f28943cbb096b7340f24d12469b9c","blockNo":8146905,"blockHash":"97aa027554f43c222c11e15642f2dded56515a9d55b2f60a5ad9070750be7550","epochNo":381,"epochSlotNo":397805,"slot":79626605,"time":"2022/12/16 12:14:56","addressesInput":["addr1zxgx3far7qygq0k6epa0zcvcvrevmn0ypsnfsue94nsn3tvpw288a4x0xf8pxgcntelxmyclq83s0ykeehchz2wtspks905plm","addr1qy8zt04n7cjn7nselaxmyt4sxu4wq64lrgalnaqhu5eta6yxv69wx5vu6escm35j5284ajtnflpfj977uvlw08wkxgvsups8k8"],"addressesOutput":["addr1qy8zt04n7cjn7nselaxmyt4sxu4wq64lrgalnaqhu5eta6yxv69wx5vu6escm35j5284ajtnflpfj977uvlw08wkxgvsups8k8","addr1qy8zt04n7cjn7nselaxmyt4sxu4wq64lrgalnaqhu5eta6yxv69wx5vu6escm35j5284ajtnflpfj977uvlw08wkxgvsups8k8"],"fee":258193,"totalOutput":133854304,"tokens":[]},{"hash":"013d6cbb0e03088064dd5001529b040213e5bf3035ddc7c0e1b1323dd54d8cb4","blockNo":8146905,"blockHash":"97aa027554f43c222c11e15642f2dded56515a9d55b2f60a5ad9070750be7550","epochNo":381,"epochSlotNo":397805,"slot":79626605,"time":"2022/12/16 12:14:56","addressesInput":["addr1qxz7exrddw8zen04tu9jpwzd577tqe8n9dk42ll3asfmcfqppl44524xsz6gcetsdldrm6rjdmlu3qmrf7679z34p0kq3k09ra","addr1zxgx3far7qygq0k6epa0zcvcvrevmn0ypsnfsue94nsn3tvpw288a4x0xf8pxgcntelxmyclq83s0ykeehchz2wtspks905plm"],"addressesOutput":["addr1zxgx3far7qygq0k6epa0zcvcvrevmn0ypsnfsue94nsn3tvpw288a4x0xf8pxgcntelxmyclq83s0ykeehchz2wtspks905plm","addr1qxz7exrddw8zen04tu9jpwzd577tqe8n9dk42ll3asfmcfqppl44524xsz6gcetsdldrm6rjdmlu3qmrf7679z34p0kq3k09ra"],"fee":296840,"totalOutput":115176190,"tokens":[]},{"hash":"0e3115cd986fb62bfae835ad268f30cb503b7c81138a9972f4ccbc3120b7bdd6","blockNo":8146905,"blockHash":"97aa027554f43c222c11e15642f2dded56515a9d55b2f60a5ad9070750be7550","epochNo":381,"epochSlotNo":397805,"slot":79626605,"time":"2022/12/16 12:14:56","addressesInput":["addr1wxn9efv2f6w82hagxqtn62ju4m293tqvw0uhmdl64ch8uwc0h43gt","addr1qyht4ja0zcn45qvyx477qlyp6j5ftu5ng0prt9608dxp6l2j2c79gy9l76sdg0xwhd7r0c0kna0tycz4y5s6mlenh8pq4jxtdy","addr1qyht4ja0zcn45qvyx477qlyp6j5ftu5ng0prt9608dxp6l2j2c79gy9l76sdg0xwhd7r0c0kna0tycz4y5s6mlenh8pq4jxtdy","addr1z8snz7c4974vzdpxu65ruphl3zjdvtxw8strf2c2tmqnxz2j2c79gy9l76sdg0xwhd7r0c0kna0tycz4y5s6mlenh8pq0xmsha"],"addressesOutput":["addr1qyht4ja0zcn45qvyx477qlyp6j5ftu5ng0prt9608dxp6l2j2c79gy9l76sdg0xwhd7r0c0kna0tycz4y5s6mlenh8pq4jxtdy","addr1qyht4ja0zcn45qvyx477qlyp6j5ftu5ng0prt9608dxp6l2j2c79gy9l76sdg0xwhd7r0c0kna0tycz4y5s6mlenh8pq4jxtdy","addr1qyen68atemvkdjt7qnccxr72l70nn0c3c7sv3msh2rer63h00uxxguk63442q4yrvkyjs8syceah7ze2xy0uf4um3rmq249clm","addr1z8snz7c4974vzdpxu65ruphl3zjdvtxw8strf2c2tmqnxz2j2c79gy9l76sdg0xwhd7r0c0kna0tycz4y5s6mlenh8pq0xmsha"],"fee":805395,"totalOutput":82167098242,"tokens":[]},{"hash":"04ecadd9624bdc49825dd3367adb99de29c0a22da7fbd90d6f25cb453dcb0ceb","blockNo":8146905,"blockHash":"97aa027554f43c222c11e15642f2dded56515a9d55b2f60a5ad9070750be7550","epochNo":381,"epochSlotNo":397805,"slot":79626605,"time":"2022/12/16 12:14:56","addressesInput":["addr1zxgx3far7qygq0k6epa0zcvcvrevmn0ypsnfsue94nsn3tvpw288a4x0xf8pxgcntelxmyclq83s0ykeehchz2wtspks905plm","addr1qyu6nwcewgp6trxwq7sceflsmjm8h06k7qds4agus46uwv4hjl8ct2ej6863w89fzal7n9rl2qcyjl0jujj9f0j927tqcgcds7"],"addressesOutput":["addr1q8ww8rwtrnd05uyzeceyw7ycdczn096scydvek3cdsvvjpajhfnl8y9pckv0ut0r80e2fggel93f68e95gjdgpe0jhxsetfm8j","addr1q9cwvremt6n320s2e3agq0jyq82yhrk3htsu0w426xnz5us70z4w0jgvcdkkynmm8wmds66jd9kusnjfpu6raw5fqp0sr07p5w","addr1qxng33cmqa0axgq9kzdhy8flk7dyk0pzejqmxvv6pvttgt4f7v4ppce5y9wygrzrl49katzenscn208c7xe4dsl4vk0quczvra","addr1qyu6nwcewgp6trxwq7sceflsmjm8h06k7qds4agus46uwv4hjl8ct2ej6863w89fzal7n9rl2qcyjl0jujj9f0j927tqcgcds7","addr1qyu6nwcewgp6trxwq7sceflsmjm8h06k7qds4agus46uwv4hjl8ct2ej6863w89fzal7n9rl2qcyjl0jujj9f0j927tqcgcds7","addr1qyu6nwcewgp6trxwq7sceflsmjm8h06k7qds4agus46uwv4hjl8ct2ej6863w89fzal7n9rl2qcyjl0jujj9f0j927tqcgcds7","addr1qyu6nwcewgp6trxwq7sceflsmjm8h06k7qds4agus46uwv4hjl8ct2ej6863w89fzal7n9rl2qcyjl0jujj9f0j927tqcgcds7","addr1qyu6nwcewgp6trxwq7sceflsmjm8h06k7qds4agus46uwv4hjl8ct2ej6863w89fzal7n9rl2qcyjl0jujj9f0j927tqcgcds7","addr1qyu6nwcewgp6trxwq7sceflsmjm8h06k7qds4agus46uwv4hjl8ct2ej6863w89fzal7n9rl2qcyjl0jujj9f0j927tqcgcds7"],"fee":451189,"totalOutput":1906090770,"tokens":[]},{"hash":"70fe89cf279cb62e89fdaa2bf07d464217daa02f355113c49347589d4da7fffa","blockNo":8146905,"blockHash":"97aa027554f43c222c11e15642f2dded56515a9d55b2f60a5ad9070750be7550","epochNo":381,"epochSlotNo":397805,"slot":79626605,"time":"2022/12/16 12:14:56","addressesInput":["addr1q9alnxernxryhzdh28ewdh8dfa2yv7q94humca2vxaa0fxzuuycwmttssyymhddve8nfur0y5g4zngs7rqg92w3w26vszr0l6f","addr1zxgx3far7qygq0k6epa0zcvcvrevmn0ypsnfsue94nsn3tvpw288a4x0xf8pxgcntelxmyclq83s0ykeehchz2wtspks905plm"],"addressesOutput":["addr1q9alnxernxryhzdh28ewdh8dfa2yv7q94humca2vxaa0fxzuuycwmttssyymhddve8nfur0y5g4zngs7rqg92w3w26vszr0l6f","addr1q9alnxernxryhzdh28ewdh8dfa2yv7q94humca2vxaa0fxzuuycwmttssyymhddve8nfur0y5g4zngs7rqg92w3w26vszr0l6f"],"fee":266399,"totalOutput":154943685,"tokens":[]},{"hash":"0c22d75710eb64509ae24fb3811005c3e679a4f38bf6a5c4a2241319daf13500","blockNo":8146905,"blockHash":"97aa027554f43c222c11e15642f2dded56515a9d55b2f60a5ad9070750be7550","epochNo":381,"epochSlotNo":397805,"slot":79626605,"time":"2022/12/16 12:14:56","addressesInput":["addr1qy7f2yyp0cas2jc6ku5sv032ekfuudwl3pezhj7chpuxmp0gy67pe94xq7xclrmmheywdymvt6mtk2ldj7s0t68xx7pqcsauur","addr1qy7f2yyp0cas2jc6ku5sv032ekfuudwl3pezhj7chpuxmp0gy67pe94xq7xclrmmheywdymvt6mtk2ldj7s0t68xx7pqcsauur"],"addressesOutput":["addr1qya4jrmzrwrrtzaelneh0rtphwfwzr94f35p3ry3xf2dufwjw95dw9xedk2duv02cwsuxmsyyt99nxpn26kp5z50ql0s4rw77j","addr1qy7f2yyp0cas2jc6ku5sv032ekfuudwl3pezhj7chpuxmp0gy67pe94xq7xclrmmheywdymvt6mtk2ldj7s0t68xx7pqcsauur","addr1qy7f2yyp0cas2jc6ku5sv032ekfuudwl3pezhj7chpuxmp0gy67pe94xq7xclrmmheywdymvt6mtk2ldj7s0t68xx7pqcsauur","addr1qy7f2yyp0cas2jc6ku5sv032ekfuudwl3pezhj7chpuxmp0gy67pe94xq7xclrmmheywdymvt6mtk2ldj7s0t68xx7pqcsauur","addr1qy7f2yyp0cas2jc6ku5sv032ekfuudwl3pezhj7chpuxmp0gy67pe94xq7xclrmmheywdymvt6mtk2ldj7s0t68xx7pqcsauur"],"fee":181033,"totalOutput":252138697,"tokens":[]},{"hash":"3bf08b6d8ed904c38830e986f891bc488a0e48e8b411d34b0051a20a10d642c3","blockNo":8146905,"blockHash":"97aa027554f43c222c11e15642f2dded56515a9d55b2f60a5ad9070750be7550","epochNo":381,"epochSlotNo":397805,"slot":79626605,"time":"2022/12/16 12:14:56","addressesInput":["addr1v84pnwuyp0ppd5r8mueh48yz0altmqjxlf25y8ke3me5rzcflfxgq","addr1v80rrlg7g004kdv5g9jtryykkx3q6x0xpwm4u50e54tgmjsh9e85p","addr1vye3eh372ra3p2vzkrjw7zdq0fp9ksuvygfve6c672u2jnsr0drnx","addr1vyc7ca9flp5gfeapd78uxzzq7l6qnsytj85n62lr5smhgssen2u2s","addr1v9g3yk6800esyg4r246csz6euk79wh4c4xpltfk3v4327sgh5433u"],"addressesOutput":["addr1v9g3yk6800esyg4r246csz6euk79wh4c4xpltfk3v4327sgh5433u","addr1v80rrlg7g004kdv5g9jtryykkx3q6x0xpwm4u50e54tgmjsh9e85p","addr1v84pnwuyp0ppd5r8mueh48yz0altmqjxlf25y8ke3me5rzcflfxgq","addr1vye3eh372ra3p2vzkrjw7zdq0fp9ksuvygfve6c672u2jnsr0drnx","addr1qxkja4ge2stefujtt2u000aa685m74m3zfw64kpegg7cjh59md0se5sck90nvuefm2e6m9s2v5rplw0ny26vq9n5kf8qpfe8wk"],"fee":242325,"totalOutput":9973009,"tokens":[]},{"hash":"a9adf6a5966a4f831479762983163c37dbd8f87385158f5ca83895b8cf289af6","blockNo":8146905,"blockHash":"97aa027554f43c222c11e15642f2dded56515a9d55b2f60a5ad9070750be7550","epochNo":381,"epochSlotNo":397805,"slot":79626605,"time":"2022/12/16 12:14:56","addressesInput":["addr1qx57d7g6zf0j9rf72lfx30w4x48hzp2xpq3u3uyyqs30f45ss29g9rxjadq344pr8hdpsg092dn8p2d3n2chnpmg0yaqd8h2q8","addr1qx57d7g6zf0j9rf72lfx30w4x48hzp2xpq3u3uyyqs30f45ss29g9rxjadq344pr8hdpsg092dn8p2d3n2chnpmg0yaqd8h2q8"],"addressesOutput":["addr1v9p6fuc4fljyupsja0n2w5pfv32pdycavvyz7eeqp8gu6lq5l0xds"],"fee":388300,"totalOutput":9792825,"tokens":[]},{"hash":"13f06448228ffec3980ed81cb0c103155857f2a5b286ef6aedf792cc42ee36f6","blockNo":8146904,"blockHash":"e1f0c934fb9ac63bd832a280489e997429e3cc596d53118e681390f58ac9bf4f","epochNo":381,"epochSlotNo":397787,"slot":79626587,"time":"2022/12/16 12:14:38","addressesInput":["addr1qyhjygc2ret99w2n26g7pyvudgdvd694vtacj2s2srmf2d4x6vg5eg3kghs2zjrpndfvgm77sf56gwfqqxgepark7vdqcxw3ft","addr1qyhjygc2ret99w2n26g7pyvudgdvd694vtacj2s2srmf2d4x6vg5eg3kghs2zjrpndfvgm77sf56gwfqqxgepark7vdqcxw3ft","addr1qyhjygc2ret99w2n26g7pyvudgdvd694vtacj2s2srmf2d4x6vg5eg3kghs2zjrpndfvgm77sf56gwfqqxgepark7vdqcxw3ft","addr1qyhjygc2ret99w2n26g7pyvudgdvd694vtacj2s2srmf2d4x6vg5eg3kghs2zjrpndfvgm77sf56gwfqqxgepark7vdqcxw3ft","addr1qyhjygc2ret99w2n26g7pyvudgdvd694vtacj2s2srmf2d4x6vg5eg3kghs2zjrpndfvgm77sf56gwfqqxgepark7vdqcxw3ft","addr1qyhjygc2ret99w2n26g7pyvudgdvd694vtacj2s2srmf2d4x6vg5eg3kghs2zjrpndfvgm77sf56gwfqqxgepark7vdqcxw3ft","addr1qyhjygc2ret99w2n26g7pyvudgdvd694vtacj2s2srmf2d4x6vg5eg3kghs2zjrpndfvgm77sf56gwfqqxgepark7vdqcxw3ft","addr1qyhjygc2ret99w2n26g7pyvudgdvd694vtacj2s2srmf2d4x6vg5eg3kghs2zjrpndfvgm77sf56gwfqqxgepark7vdqcxw3ft","addr1zxgx3far7qygq0k6epa0zcvcvrevmn0ypsnfsue94nsn3tvpw288a4x0xf8pxgcntelxmyclq83s0ykeehchz2wtspks905plm","addr1qyhjygc2ret99w2n26g7pyvudgdvd694vtacj2s2srmf2d4x6vg5eg3kghs2zjrpndfvgm77sf56gwfqqxgepark7vdqcxw3ft","addr1qyhjygc2ret99w2n26g7pyvudgdvd694vtacj2s2srmf2d4x6vg5eg3kghs2zjrpndfvgm77sf56gwfqqxgepark7vdqcxw3ft","addr1qyhjygc2ret99w2n26g7pyvudgdvd694vtacj2s2srmf2d4x6vg5eg3kghs2zjrpndfvgm77sf56gwfqqxgepark7vdqcxw3ft","addr1qyhjygc2ret99w2n26g7pyvudgdvd694vtacj2s2srmf2d4x6vg5eg3kghs2zjrpndfvgm77sf56gwfqqxgepark7vdqcxw3ft","addr1qyhjygc2ret99w2n26g7pyvudgdvd694vtacj2s2srmf2d4x6vg5eg3kghs2zjrpndfvgm77sf56gwfqqxgepark7vdqcxw3ft","addr1qyhjygc2ret99w2n26g7pyvudgdvd694vtacj2s2srmf2d4x6vg5eg3kghs2zjrpndfvgm77sf56gwfqqxgepark7vdqcxw3ft","addr1qyhjygc2ret99w2n26g7pyvudgdvd694vtacj2s2srmf2d4x6vg5eg3kghs2zjrpndfvgm77sf56gwfqqxgepark7vdqcxw3ft","addr1qyhjygc2ret99w2n26g7pyvudgdvd694vtacj2s2srmf2d4x6vg5eg3kghs2zjrpndfvgm77sf56gwfqqxgepark7vdqcxw3ft","addr1qyhjygc2ret99w2n26g7pyvudgdvd694vtacj2s2srmf2d4x6vg5eg3kghs2zjrpndfvgm77sf56gwfqqxgepark7vdqcxw3ft","addr1qyhjygc2ret99w2n26g7pyvudgdvd694vtacj2s2srmf2d4x6vg5eg3kghs2zjrpndfvgm77sf56gwfqqxgepark7vdqcxw3ft","addr1qyhjygc2ret99w2n26g7pyvudgdvd694vtacj2s2srmf2d4x6vg5eg3kghs2zjrpndfvgm77sf56gwfqqxgepark7vdqcxw3ft","addr1qyhjygc2ret99w2n26g7pyvudgdvd694vtacj2s2srmf2d4x6vg5eg3kghs2zjrpndfvgm77sf56gwfqqxgepark7vdqcxw3ft","addr1qyhjygc2ret99w2n26g7pyvudgdvd694vtacj2s2srmf2d4x6vg5eg3kghs2zjrpndfvgm77sf56gwfqqxgepark7vdqcxw3ft","addr1qyhjygc2ret99w2n26g7pyvudgdvd694vtacj2s2srmf2d4x6vg5eg3kghs2zjrpndfvgm77sf56gwfqqxgepark7vdqcxw3ft","addr1qyhjygc2ret99w2n26g7pyvudgdvd694vtacj2s2srmf2d4x6vg5eg3kghs2zjrpndfvgm77sf56gwfqqxgepark7vdqcxw3ft","addr1qyhjygc2ret99w2n26g7pyvudgdvd694vtacj2s2srmf2d4x6vg5eg3kghs2zjrpndfvgm77sf56gwfqqxgepark7vdqcxw3ft","addr1qyhjygc2ret99w2n26g7pyvudgdvd694vtacj2s2srmf2d4x6vg5eg3kghs2zjrpndfvgm77sf56gwfqqxgepark7vdqcxw3ft","addr1qyhjygc2ret99w2n26g7pyvudgdvd694vtacj2s2srmf2d4x6vg5eg3kghs2zjrpndfvgm77sf56gwfqqxgepark7vdqcxw3ft","addr1qyhjygc2ret99w2n26g7pyvudgdvd694vtacj2s2srmf2d4x6vg5eg3kghs2zjrpndfvgm77sf56gwfqqxgepark7vdqcxw3ft","addr1qyhjygc2ret99w2n26g7pyvudgdvd694vtacj2s2srmf2d4x6vg5eg3kghs2zjrpndfvgm77sf56gwfqqxgepark7vdqcxw3ft","addr1qyhjygc2ret99w2n26g7pyvudgdvd694vtacj2s2srmf2d4x6vg5eg3kghs2zjrpndfvgm77sf56gwfqqxgepark7vdqcxw3ft","addr1qyhjygc2ret99w2n26g7pyvudgdvd694vtacj2s2srmf2d4x6vg5eg3kghs2zjrpndfvgm77sf56gwfqqxgepark7vdqcxw3ft","addr1qyhjygc2ret99w2n26g7pyvudgdvd694vtacj2s2srmf2d4x6vg5eg3kghs2zjrpndfvgm77sf56gwfqqxgepark7vdqcxw3ft","addr1qyhjygc2ret99w2n26g7pyvudgdvd694vtacj2s2srmf2d4x6vg5eg3kghs2zjrpndfvgm77sf56gwfqqxgepark7vdqcxw3ft","addr1qyhjygc2ret99w2n26g7pyvudgdvd694vtacj2s2srmf2d4x6vg5eg3kghs2zjrpndfvgm77sf56gwfqqxgepark7vdqcxw3ft","addr1qyhjygc2ret99w2n26g7pyvudgdvd694vtacj2s2srmf2d4x6vg5eg3kghs2zjrpndfvgm77sf56gwfqqxgepark7vdqcxw3ft","addr1qyhjygc2ret99w2n26g7pyvudgdvd694vtacj2s2srmf2d4x6vg5eg3kghs2zjrpndfvgm77sf56gwfqqxgepark7vdqcxw3ft","addr1qyhjygc2ret99w2n26g7pyvudgdvd694vtacj2s2srmf2d4x6vg5eg3kghs2zjrpndfvgm77sf56gwfqqxgepark7vdqcxw3ft","addr1qyhjygc2ret99w2n26g7pyvudgdvd694vtacj2s2srmf2d4x6vg5eg3kghs2zjrpndfvgm77sf56gwfqqxgepark7vdqcxw3ft","addr1qyhjygc2ret99w2n26g7pyvudgdvd694vtacj2s2srmf2d4x6vg5eg3kghs2zjrpndfvgm77sf56gwfqqxgepark7vdqcxw3ft","addr1qyhjygc2ret99w2n26g7pyvudgdvd694vtacj2s2srmf2d4x6vg5eg3kghs2zjrpndfvgm77sf56gwfqqxgepark7vdqcxw3ft","addr1qyhjygc2ret99w2n26g7pyvudgdvd694vtacj2s2srmf2d4x6vg5eg3kghs2zjrpndfvgm77sf56gwfqqxgepark7vdqcxw3ft","addr1qyhjygc2ret99w2n26g7pyvudgdvd694vtacj2s2srmf2d4x6vg5eg3kghs2zjrpndfvgm77sf56gwfqqxgepark7vdqcxw3ft","addr1qyhjygc2ret99w2n26g7pyvudgdvd694vtacj2s2srmf2d4x6vg5eg3kghs2zjrpndfvgm77sf56gwfqqxgepark7vdqcxw3ft","addr1qyhjygc2ret99w2n26g7pyvudgdvd694vtacj2s2srmf2d4x6vg5eg3kghs2zjrpndfvgm77sf56gwfqqxgepark7vdqcxw3ft","addr1qyhjygc2ret99w2n26g7pyvudgdvd694vtacj2s2srmf2d4x6vg5eg3kghs2zjrpndfvgm77sf56gwfqqxgepark7vdqcxw3ft","addr1qyhjygc2ret99w2n26g7pyvudgdvd694vtacj2s2srmf2d4x6vg5eg3kghs2zjrpndfvgm77sf56gwfqqxgepark7vdqcxw3ft","addr1qyhjygc2ret99w2n26g7pyvudgdvd694vtacj2s2srmf2d4x6vg5eg3kghs2zjrpndfvgm77sf56gwfqqxgepark7vdqcxw3ft"],"addressesOutput":["addr1q8h0zqa8af5f0d4hr2h5pzeqcjzqpmx8n0l3wtmxczlp2zf02v9g08u6fwtqxgfpkvucwn8js8t248yrwpclalsr8n4sycmhes","addr1q9cwvremt6n320s2e3agq0jyq82yhrk3htsu0w426xnz5us70z4w0jgvcdkkynmm8wmds66jd9kusnjfpu6raw5fqp0sr07p5w","addr1qyl9e7nem2xlzvqtfky0aucv4759weam4nj9jyjnnsq9p28hdzdaecav92sst66pa6p4pr39cac43pctrrtng4tempgsqzalvs","addr1qyhjygc2ret99w2n26g7pyvudgdvd694vtacj2s2srmf2d4x6vg5eg3kghs2zjrpndfvgm77sf56gwfqqxgepark7vdqcxw3ft","addr1qyhjygc2ret99w2n26g7pyvudgdvd694vtacj2s2srmf2d4x6vg5eg3kghs2zjrpndfvgm77sf56gwfqqxgepark7vdqcxw3ft","addr1qyhjygc2ret99w2n26g7pyvudgdvd694vtacj2s2srmf2d4x6vg5eg3kghs2zjrpndfvgm77sf56gwfqqxgepark7vdqcxw3ft","addr1qyhjygc2ret99w2n26g7pyvudgdvd694vtacj2s2srmf2d4x6vg5eg3kghs2zjrpndfvgm77sf56gwfqqxgepark7vdqcxw3ft","addr1qyhjygc2ret99w2n26g7pyvudgdvd694vtacj2s2srmf2d4x6vg5eg3kghs2zjrpndfvgm77sf56gwfqqxgepark7vdqcxw3ft"],"fee":972869,"totalOutput":134842715,"tokens":[]},{"hash":"fd206d1322ae7feabef935c710e5a96b0527e3b4e6831383dadf064b5567087c","blockNo":8146904,"blockHash":"e1f0c934fb9ac63bd832a280489e997429e3cc596d53118e681390f58ac9bf4f","epochNo":381,"epochSlotNo":397787,"slot":79626587,"time":"2022/12/16 12:14:38","addressesInput":["addr1q93xl89k32uvenr6ljcmwu5uzplxyqprjjnssejucmhh78em97kdhmhlmskmne28ys5v28y6us49axxzyc99qe5uhtwqqjnqxc","addr1zxgx3far7qygq0k6epa0zcvcvrevmn0ypsnfsue94nsn3tvpw288a4x0xf8pxgcntelxmyclq83s0ykeehchz2wtspks905plm","addr1q93xl89k32uvenr6ljcmwu5uzplxyqprjjnssejucmhh78em97kdhmhlmskmne28ys5v28y6us49axxzyc99qe5uhtwqqjnqxc"],"addressesOutput":["addr1q8ww8rwtrnd05uyzeceyw7ycdczn096scydvek3cdsvvjpajhfnl8y9pckv0ut0r80e2fggel93f68e95gjdgpe0jhxsetfm8j","addr1q9cwvremt6n320s2e3agq0jyq82yhrk3htsu0w426xnz5us70z4w0jgvcdkkynmm8wmds66jd9kusnjfpu6raw5fqp0sr07p5w","addr1q8f8umdc2thz57k0wsr454lsr9wgk8zkwza6m2g7npu79280f4v58fjjy0hcy056l6qacf72lqw80mh6935h6zuqqg3sq4al95","addr1q93xl89k32uvenr6ljcmwu5uzplxyqprjjnssejucmhh78em97kdhmhlmskmne28ys5v28y6us49axxzyc99qe5uhtwqqjnqxc","addr1q93xl89k32uvenr6ljcmwu5uzplxyqprjjnssejucmhh78em97kdhmhlmskmne28ys5v28y6us49axxzyc99qe5uhtwqqjnqxc"],"fee":407385,"totalOutput":255836845,"tokens":[]},{"hash":"cfcd4c8d11ab61811be127918d762ff2cd962bb8060a0a862cb5d4f3a8a03a26","blockNo":8146904,"blockHash":"e1f0c934fb9ac63bd832a280489e997429e3cc596d53118e681390f58ac9bf4f","epochNo":381,"epochSlotNo":397787,"slot":79626587,"time":"2022/12/16 12:14:38","addressesInput":["addr1q9gpu8hczsu0dxwmkp5jzr4tuevqeg48tfjrv7829wp3ah53ew03l89xtvh596mr3jev5r2vvgrcgtvucg986tghwvuqmeqxze","addr1q9gpu8hczsu0dxwmkp5jzr4tuevqeg48tfjrv7829wp3ah53ew03l89xtvh596mr3jev5r2vvgrcgtvucg986tghwvuqmeqxze"],"addressesOutput":["addr1zxgx3far7qygq0k6epa0zcvcvrevmn0ypsnfsue94nsn3tvpw288a4x0xf8pxgcntelxmyclq83s0ykeehchz2wtspks905plm","addr1q8kncpj5ny87ute27wzf3xx47p7mwk0exa0vk7z60mjazwy3ew03l89xtvh596mr3jev5r2vvgrcgtvucg986tghwvuq9cyzf0","addr1q8kncpj5ny87ute27wzf3xx47p7mwk0exa0vk7z60mjazwy3ew03l89xtvh596mr3jev5r2vvgrcgtvucg986tghwvuq9cyzf0","addr1q8kncpj5ny87ute27wzf3xx47p7mwk0exa0vk7z60mjazwy3ew03l89xtvh596mr3jev5r2vvgrcgtvucg986tghwvuq9cyzf0"],"fee":260321,"totalOutput":11053314,"tokens":[]},{"hash":"9ea7fcb3b4198ee72a59ee778e44f4311a52f85f826d4e63af9ba99739f7ac6f","blockNo":8146904,"blockHash":"e1f0c934fb9ac63bd832a280489e997429e3cc596d53118e681390f58ac9bf4f","epochNo":381,"epochSlotNo":397787,"slot":79626587,"time":"2022/12/16 12:14:38","addressesInput":["addr1zxgx3far7qygq0k6epa0zcvcvrevmn0ypsnfsue94nsn3tvpw288a4x0xf8pxgcntelxmyclq83s0ykeehchz2wtspks905plm","addr1q9h4hkfsgdugdjw2sz0y9pn675sh4d66g7a0tdxer7v76akpp2ta9lq68garu7q5nfqznuyphj23g59s06xz7y2kgv0qyv04fk","addr1qy8znm6a0y3wgysf4w5hy6zqa20h63j8ndndkqygpje28uxpp2ta9lq68garu7q5nfqznuyphj23g59s06xz7y2kgv0qzsrzan"],"addressesOutput":["addr1zxgx3far7qygq0k6epa0zcvcvrevmn0ypsnfsue94nsn3tvpw288a4x0xf8pxgcntelxmyclq83s0ykeehchz2wtspks905plm","addr1qy8znm6a0y3wgysf4w5hy6zqa20h63j8ndndkqygpje28uxpp2ta9lq68garu7q5nfqznuyphj23g59s06xz7y2kgv0qzsrzan","addr1qy8znm6a0y3wgysf4w5hy6zqa20h63j8ndndkqygpje28uxpp2ta9lq68garu7q5nfqznuyphj23g59s06xz7y2kgv0qzsrzan"],"fee":299800,"totalOutput":225235944,"tokens":[]},{"hash":"bcccacc095ff13e7cd4480cd0c26c682d6457b2881e59e351609f84a54b5e708","blockNo":8146904,"blockHash":"e1f0c934fb9ac63bd832a280489e997429e3cc596d53118e681390f58ac9bf4f","epochNo":381,"epochSlotNo":397787,"slot":79626587,"time":"2022/12/16 12:14:38","addressesInput":["addr1q8ep33km4kfscgmnvpq0mvvy379wumqlqjcqdca2uyn347z4rpmw8a680erlm39zc54wu3h06u92lu9dqkld4cqctheqe2q2l4","addr1q8ep33km4kfscgmnvpq0mvvy379wumqlqjcqdca2uyn347z4rpmw8a680erlm39zc54wu3h06u92lu9dqkld4cqctheqe2q2l4","addr1q8ep33km4kfscgmnvpq0mvvy379wumqlqjcqdca2uyn347z4rpmw8a680erlm39zc54wu3h06u92lu9dqkld4cqctheqe2q2l4"],"addressesOutput":["addr1zxgx3far7qygq0k6epa0zcvcvrevmn0ypsnfsue94nsn3tvpw288a4x0xf8pxgcntelxmyclq83s0ykeehchz2wtspks905plm","addr1q8ep33km4kfscgmnvpq0mvvy379wumqlqjcqdca2uyn347z4rpmw8a680erlm39zc54wu3h06u92lu9dqkld4cqctheqe2q2l4","addr1q8ep33km4kfscgmnvpq0mvvy379wumqlqjcqdca2uyn347z4rpmw8a680erlm39zc54wu3h06u92lu9dqkld4cqctheqe2q2l4","addr1q8ep33km4kfscgmnvpq0mvvy379wumqlqjcqdca2uyn347z4rpmw8a680erlm39zc54wu3h06u92lu9dqkld4cqctheqe2q2l4"],"fee":246857,"totalOutput":84779236,"tokens":[]},{"hash":"90817fa9f585e096bdb1d09d733b5853c00a59dd0a51e17ac48e26144338759d","blockNo":8146904,"blockHash":"e1f0c934fb9ac63bd832a280489e997429e3cc596d53118e681390f58ac9bf4f","epochNo":381,"epochSlotNo":397787,"slot":79626587,"time":"2022/12/16 12:14:38","addressesInput":["addr1zxgx3far7qygq0k6epa0zcvcvrevmn0ypsnfsue94nsn3tvpw288a4x0xf8pxgcntelxmyclq83s0ykeehchz2wtspks905plm","addr1qxz7exrddw8zen04tu9jpwzd577tqe8n9dk42ll3asfmcfqppl44524xsz6gcetsdldrm6rjdmlu3qmrf7679z34p0kq3k09ra"],"addressesOutput":["addr1zxgx3far7qygq0k6epa0zcvcvrevmn0ypsnfsue94nsn3tvpw288a4x0xf8pxgcntelxmyclq83s0ykeehchz2wtspks905plm","addr1qxz7exrddw8zen04tu9jpwzd577tqe8n9dk42ll3asfmcfqppl44524xsz6gcetsdldrm6rjdmlu3qmrf7679z34p0kq3k09ra"],"fee":296840,"totalOutput":117844952,"tokens":[]},{"hash":"d37847ac9e0d7d500bbb983306728ba0a9cf4892218088fdde843728d3f6618d","blockNo":8146904,"blockHash":"e1f0c934fb9ac63bd832a280489e997429e3cc596d53118e681390f58ac9bf4f","epochNo":381,"epochSlotNo":397787,"slot":79626587,"time":"2022/12/16 12:14:38","addressesInput":["addr1q9alnxernxryhzdh28ewdh8dfa2yv7q94humca2vxaa0fxzuuycwmttssyymhddve8nfur0y5g4zngs7rqg92w3w26vszr0l6f","addr1zxgx3far7qygq0k6epa0zcvcvrevmn0ypsnfsue94nsn3tvpw288a4x0xf8pxgcntelxmyclq83s0ykeehchz2wtspks905plm"],"addressesOutput":["addr1q9alnxernxryhzdh28ewdh8dfa2yv7q94humca2vxaa0fxzuuycwmttssyymhddve8nfur0y5g4zngs7rqg92w3w26vszr0l6f","addr1q9alnxernxryhzdh28ewdh8dfa2yv7q94humca2vxaa0fxzuuycwmttssyymhddve8nfur0y5g4zngs7rqg92w3w26vszr0l6f"],"fee":267089,"totalOutput":154912552,"tokens":[]}],"totalItems":56860192,"totalPages":2843010,"currentPage":0}