{"data":[{"txId":58909637,"txHash":"cb3b5ae2945b1fbd4bafa2a45e25aa6761abb92e638b7310561956d114448355","txTime":"2023/01/05 05:40:01","block":8229981,"epoch":385,"slotNo":81330910,"epochSlotNo":374110,"stakeKey":"stake1u82l5gm8xx4da5c3nhxgywrlxldx2j89msy96qu47tpzhlsr4506u"},{"txId":58909371,"txHash":"54f7120c55730977ba5e424510b6b9f286853c61de64dfeaac380e4f8f05d4f8","txTime":"2023/01/05 05:32:29","block":8229955,"epoch":385,"slotNo":81330458,"epochSlotNo":373658,"stakeKey":"stake1ux4p7d6x6m2awdhxp5y8p2cpkqvnpfs8v3ydgvftyep75jsulck3w"},{"txId":58909225,"txHash":"a7f7a44bfc60d000c7ce1adbc7331f1eed7c4cc976abca88da74bb41e0621872","txTime":"2023/01/05 05:28:38","block":8229941,"epoch":385,"slotNo":81330227,"epochSlotNo":373427,"stakeKey":"stake1uywsfukgy5uwkerqekhtmau8e73xs5rkrgqnyc49m7xkgwcerlptt"},{"txId":58909176,"txHash":"2cb668b520e5d9d09b01cf45d1eb6c76547c3e37a9f8266d1ee64bdca144d67a","txTime":"2023/01/05 05:27:23","block":8229938,"epoch":385,"slotNo":81330152,"epochSlotNo":373352,"stakeKey":"stake1uyjku54qzdx86d7mzdm07ssfaxh5n9lxasg459mp6caxj0qrrttfy"},{"txId":58909170,"txHash":"79b50650878e2de12297799d32a68dd5cd46523909d456caa3c252c60398f858","txTime":"2023/01/05 05:27:23","block":8229938,"epoch":385,"slotNo":81330152,"epochSlotNo":373352,"stakeKey":"stake1uys8fyc7ag6x42al45h939wkpea0dp523j73gdrj9uefscgv0et0s"},{"txId":58909000,"txHash":"a2b4bdf8d2b652b4e057deb297d5f0d2a565e6ec756a62e47a4b5832ed5db387","txTime":"2023/01/05 05:22:13","block":8229914,"epoch":385,"slotNo":81329842,"epochSlotNo":373042,"stakeKey":"stake1uys5e2nyfx5cu6arzmn6v0dycew44znpyf2fcpgc4xcnzrsulucrz"},{"txId":58908961,"txHash":"ebd9c2a3868e99d58cec9789872bb5d42767b75b0316bb49dac8a5868648e14e","txTime":"2023/01/05 05:20:41","block":8229908,"epoch":385,"slotNo":81329750,"epochSlotNo":372950,"stakeKey":"stake1u9vygyqafdn4wrhqnvqut9d3j9zgcyn6f2r63332ajue52gqhysvp"},{"txId":58908956,"txHash":"f08c568d47846210056dd5663b7d09b4e0d9e4aa5f31854bb21f30d3afb000ed","txTime":"2023/01/05 05:20:41","block":8229908,"epoch":385,"slotNo":81329750,"epochSlotNo":372950,"stakeKey":"stake1u8x5rrn3mx3nn30nfartx24agfg6f7en28ulgjpyufnrggcfr5mng"},{"txId":58908939,"txHash":"735b41db85f127f801865b5c0b471687b65cbdf7fde887e660de5eaac2957aaf","txTime":"2023/01/05 05:20:04","block":8229907,"epoch":385,"slotNo":81329713,"epochSlotNo":372913,"stakeKey":"stake1uy6szz23x7yh766jqms0cq2k70rr92h9sxgk042d7rheahq8cq2kc"},{"txId":58908824,"txHash":"aa0f9cc8600b16581d4ca6e57aeeae2bacfd57387ee2441b26d679eb580135b3","txTime":"2023/01/05 05:17:08","block":8229898,"epoch":385,"slotNo":81329537,"epochSlotNo":372737,"stakeKey":"stake1uynmrwhe378vtvhnuqw8n4ql3sgq08tzeyv49pkpazz7vgsyk9hux"},{"txId":58908795,"txHash":"d068c611dded8461e678f95e2e2e62a1d4a4401d3dd82990e714c1ae48946260","txTime":"2023/01/05 05:15:34","block":8229896,"epoch":385,"slotNo":81329443,"epochSlotNo":372643,"stakeKey":"stake1u9vfuwhe64x2lgs2quduvy4x0v56vpzwht68vvx9k6qhdxq92r4s7"},{"txId":58908709,"txHash":"359c6ef56fc2ad4b641b7fbb6fe5e6a6c5fe5f051f908fdc4110720344d42312","txTime":"2023/01/05 05:12:36","block":8229889,"epoch":385,"slotNo":81329265,"epochSlotNo":372465,"stakeKey":"stake1u8jw43l4vy85h07rya6a9ly0vkt0w4ytehepr0403a0tt5g8jyxyk"},{"txId":58908686,"txHash":"7eb1f133ff7312c1e9d2639a55c76add397210223449d82f1999161708730d6a","txTime":"2023/01/05 05:11:33","block":8229886,"epoch":385,"slotNo":81329202,"epochSlotNo":372402,"stakeKey":"stake1u8xhdz93gxjk89mypnu6hrr9z0w4xkvjkgcm9sdtmyg896sa34uxr"},{"txId":58908652,"txHash":"05a38f33052da325ad6a94fda8de027dce37bb64d905f7aefb40c01616d17c53","txTime":"2023/01/05 05:10:36","block":8229884,"epoch":385,"slotNo":81329145,"epochSlotNo":372345,"stakeKey":"stake1u9e5k97zzhf9qw5lrauagr83pd4qdv6svvr3h4q5kxctl9capzjkd"},{"txId":58908454,"txHash":"199d6de3a2567f90ecb472f858c4ca89fdc6c79bfd52877e58135cbfef28d073","txTime":"2023/01/05 05:05:00","block":8229871,"epoch":385,"slotNo":81328809,"epochSlotNo":372009,"stakeKey":"stake1uytvxuhspwjzrufp66fdkacwkks7h46dedtfppxtr7a9j9qfxpdhv"},{"txId":58908321,"txHash":"13ba1478a17d0b100c9273250fd967d03f8dc1d1d76a07bcf75f58468069204a","txTime":"2023/01/05 05:00:59","block":8229856,"epoch":385,"slotNo":81328568,"epochSlotNo":371768,"stakeKey":"stake1uy3d54m488n4fhyl0uvuz06n0wyfvleh79h0l394jrfyj0qrffqlm"},{"txId":58908294,"txHash":"199eb973bbdaa3208ec764dda9c078834c9a25eb4fffbd3bec3c7de5de29edc0","txTime":"2023/01/05 05:00:03","block":8229854,"epoch":385,"slotNo":81328512,"epochSlotNo":371712,"stakeKey":"stake1uxhpn0nz23nd5zc7tp6dj84hex7q8fxsms5a7780enfw7ygggtmdn"},{"txId":58908184,"txHash":"ec10f20cd39e505debc199977dbc951817ddabc24d3745696fa4ba4de7811ee5","txTime":"2023/01/05 04:57:21","block":8229846,"epoch":385,"slotNo":81328350,"epochSlotNo":371550,"stakeKey":"stake1u8rc3hva50nh8xp47qxy093zj46dpf6czwgn37qu5j785mcr78xyz"},{"txId":58908183,"txHash":"db6cfc47c4c0a93adc981e4f4cab188a47ded02a3085513cc50d26c1a9cda0df","txTime":"2023/01/05 04:57:21","block":8229846,"epoch":385,"slotNo":81328350,"epochSlotNo":371550,"stakeKey":"stake1u8rrz6jm5e0udpe97g932fk3rdjlnjr3kesmezqudcum5tgwcvkht"},{"txId":58907997,"txHash":"cfc5535bcae6976d903a827bb91577d7c82627c464c13e914e749ee58560541c","txTime":"2023/01/05 04:52:41","block":8229828,"epoch":385,"slotNo":81328070,"epochSlotNo":371270,"stakeKey":"stake1ux08dfdzuh0390l5yk9mxwd3lv0a496l0szmpra0vws5txs0wht9g"}],"totalItems":1638960,"totalPages":81948,"currentPage":0}