{"data":[{"hash":"f979dec706a6fcc6ca98bd496b66dd12ded0ab40893ea5efc80a1cffcd1f25af","blockNo":8238006,"blockHash":"8e5aa8a2020446f9b370171c730fdd76ea438442809eb691bc7ff3d73bb3d010","epochNo":386,"epochSlotNo":104723,"slot":81493523,"time":"2023/01/07 02:50:14","addressesInput":["addr1z8snz7c4974vzdpxu65ruphl3zjdvtxw8strf2c2tmqnxz2j2c79gy9l76sdg0xwhd7r0c0kna0tycz4y5s6mlenh8pq0xmsha","addr1wxn9efv2f6w82hagxqtn62ju4m293tqvw0uhmdl64ch8uwc0h43gt","addr1qyht4ja0zcn45qvyx477qlyp6j5ftu5ng0prt9608dxp6l2j2c79gy9l76sdg0xwhd7r0c0kna0tycz4y5s6mlenh8pq4jxtdy","addr1qyht4ja0zcn45qvyx477qlyp6j5ftu5ng0prt9608dxp6l2j2c79gy9l76sdg0xwhd7r0c0kna0tycz4y5s6mlenh8pq4jxtdy"],"addressesOutput":["addr1qyht4ja0zcn45qvyx477qlyp6j5ftu5ng0prt9608dxp6l2j2c79gy9l76sdg0xwhd7r0c0kna0tycz4y5s6mlenh8pq4jxtdy","addr1qyht4ja0zcn45qvyx477qlyp6j5ftu5ng0prt9608dxp6l2j2c79gy9l76sdg0xwhd7r0c0kna0tycz4y5s6mlenh8pq4jxtdy","addr1q9vqq5yjnjuvsuxd0tf7enkzdytg22e2vns83ndrunt2qykmvv9vckw4p68dstvm4tpv4dy4u2awzaszxn649z0d383q42s0v5","addr1z8snz7c4974vzdpxu65ruphl3zjdvtxw8strf2c2tmqnxz2j2c79gy9l76sdg0xwhd7r0c0kna0tycz4y5s6mlenh8pq0xmsha"],"fee":825883,"totalOutput":1044676563642,"tokens":[]},{"hash":"a6562cacd9078f5dba68eef38d4413b0545ec85c982f0ee73d90cd91d985f34f","blockNo":8238006,"blockHash":"8e5aa8a2020446f9b370171c730fdd76ea438442809eb691bc7ff3d73bb3d010","epochNo":386,"epochSlotNo":104723,"slot":81493523,"time":"2023/01/07 02:50:14","addressesInput":["addr1q8ujxeunp9ga657jz9q42uqd8mvdfahlv04jhf9nspkkgqx2s4sy77w0s2gfahh4z9j2dxaxmkm26x7nhsw8wfjgc06syvddue","addr1qxjyqqcy93qxxj6zgdgghla2qw8al7hl3h63a50r74rpnek2s4sy77w0s2gfahh4z9j2dxaxmkm26x7nhsw8wfjgc06sde74u4"],"addressesOutput":["addr1wxr2a8htmzuhj39y2gq7ftkpxv98y2g67tg8zezthgq4jkg0a4ul4","addr1qxjyqqcy93qxxj6zgdgghla2qw8al7hl3h63a50r74rpnek2s4sy77w0s2gfahh4z9j2dxaxmkm26x7nhsw8wfjgc06sde74u4","addr1qxjyqqcy93qxxj6zgdgghla2qw8al7hl3h63a50r74rpnek2s4sy77w0s2gfahh4z9j2dxaxmkm26x7nhsw8wfjgc06sde74u4"],"fee":196081,"totalOutput":36346549,"tokens":[]},{"hash":"f14a80e554becc8ece476ba682fd7505c0f725d702706095077d33565115a122","blockNo":8238006,"blockHash":"8e5aa8a2020446f9b370171c730fdd76ea438442809eb691bc7ff3d73bb3d010","epochNo":386,"epochSlotNo":104723,"slot":81493523,"time":"2023/01/07 02:50:14","addressesInput":["addr1v8k0q7s2974atmcxpcdsxvyadv3sawqdrhe0fpxlg8dy59q33te0h"],"addressesOutput":["addr1q9z5a3z0myfs9az7m6tfg2f4n6psvpzmr5svc6rdmx4e6dj9fmzylkgnqt69ah5kjs5nt85rqcz9k8fqe35xmkdtn5mqj34dh4"],"fee":170627,"totalOutput":763129373,"tokens":[]},{"hash":"584364887378ab05c561dc323dda1312aad9d661c5ace32ca46c4ab70276cdb9","blockNo":8238005,"blockHash":"082986aec5a0a4838fd24392e9fe1bdd7d3bcffec5cb0812a7d08c88aceeb074","epochNo":386,"epochSlotNo":104718,"slot":81493518,"time":"2023/01/07 02:50:09","addressesInput":["addr1q89uameqcjn4vdqw0l7r5magpkr0ltng3dxl5t8zdl8800m499pvtflxvg3rxeuylvr9eutnk0uyafgnpgzhllny6uhsv3232l","addr1q89uameqcjn4vdqw0l7r5magpkr0ltng3dxl5t8zdl8800m499pvtflxvg3rxeuylvr9eutnk0uyafgnpgzhllny6uhsv3232l"],"addressesOutput":["addr1qyg5yk36ee0rhl5hw5kxcfng5ygrsv55tuchs0nxjmh9uqmpmpaxya7n6kzmyy6f72st0akwx8zg5n6emrxa5mhywg9q3v23dv","addr1q89uameqcjn4vdqw0l7r5magpkr0ltng3dxl5t8zdl8800m499pvtflxvg3rxeuylvr9eutnk0uyafgnpgzhllny6uhsv3232l","addr1q89uameqcjn4vdqw0l7r5magpkr0ltng3dxl5t8zdl8800m499pvtflxvg3rxeuylvr9eutnk0uyafgnpgzhllny6uhsv3232l"],"fee":245889,"totalOutput":9201855382,"tokens":[]},{"hash":"e5ea9004b52e27910affbb9cd0c49e0c9e7d82960ae7947d4d8cd4185c49b0e4","blockNo":8238005,"blockHash":"082986aec5a0a4838fd24392e9fe1bdd7d3bcffec5cb0812a7d08c88aceeb074","epochNo":386,"epochSlotNo":104718,"slot":81493518,"time":"2023/01/07 02:50:09","addressesInput":["addr1v95sf69jcfhnmknvffwmfvlvnccatqwfjcyh0nlfc6gh5scta2yzg"],"addressesOutput":["addr1q92r4hd3trs50nhvw3qvqwc35f0pckjws5yg3fl07ee4r9658twmzk8pgl8wcazqcqa3rgj7r3dyapgg3zn7lann2xtsm6emr8","addr1v8v3auqmw0eszza3ww29ea2pwftuqrqqyu26zvzjq9dt2ncydzvs5"],"fee":171221,"totalOutput":13810205402,"tokens":[]},{"hash":"6abda0b438a5acdabb492e89c28301e1b3593d5df14b1bc5890d6e9fc03f08e4","blockNo":8238005,"blockHash":"082986aec5a0a4838fd24392e9fe1bdd7d3bcffec5cb0812a7d08c88aceeb074","epochNo":386,"epochSlotNo":104718,"slot":81493518,"time":"2023/01/07 02:50:09","addressesInput":["addr1qx5zqaayuzdf8eaujrxcunl47awguqz0sjz8gt8cusnmvu24hsaastqp0lcdt2ehwja3ecnl53kctgru7l7krj4edkrqty47ej"],"addressesOutput":["addr1qyda35pwu2g2zkgu3ucy5ae8uhhj9g66rtgsdq0pzzgt90847ltfnx9g7jzd5gnqyxuq3y9t0jghq2s820tcv4am6shsyqhve0","addr1q8rpvjf7ec7zh503eg2eg8f07zlpydqxex3lukgdl06a7764hsaastqp0lcdt2ehwja3ecnl53kctgru7l7krj4edkrqczh7p8"],"fee":168317,"totalOutput":35127562,"tokens":[]},{"hash":"026a02963aebe25c8bb33e128e8c87ac7d40463b86b929151d70c677da05a588","blockNo":8238005,"blockHash":"082986aec5a0a4838fd24392e9fe1bdd7d3bcffec5cb0812a7d08c88aceeb074","epochNo":386,"epochSlotNo":104718,"slot":81493518,"time":"2023/01/07 02:50:09","addressesInput":["DdzFFzCqrhtBdzJJbHi9gJQfet8oEcU4y2xugB9T1UZD18BhMKsubDErnBM5rqcEJqxhZ4XBfnKVMs1J8wViM6YyyWWVQsmMuXG5eMrs"],"addressesOutput":["addr1qxvvjztl9e33nall443sj26uzgum4qdl67x9052tz2u07quceyyh7tnrr8mllttrpy44cy3eh2qml4uv2lg5ky4clupsfgjhus","DdzFFzCqrht2ZiRRdLKxeatqSD28HoMVyRszz87UFTjkBoPntPtyDYinB8dzysJuRxfFASw7auSr4J3jF3d31S45Rgy17S7sD25FAxBB"],"fee":173817,"totalOutput":3632364916,"tokens":[]},{"hash":"08287d387a0488d9e80f0713ab58f13b9cab64ee77383172d9cb7a4e4bc81309","blockNo":8238005,"blockHash":"082986aec5a0a4838fd24392e9fe1bdd7d3bcffec5cb0812a7d08c88aceeb074","epochNo":386,"epochSlotNo":104718,"slot":81493518,"time":"2023/01/07 02:50:09","addressesInput":["addr1qy9rurknjuefq4z69apq5c9ruwpxr3t4cavyx90fwwhzmgsy8c94m04c9nvp7n80ehw7n0xnrkw65j768syevwtc9fxsstacz7","addr1zxgx3far7qygq0k6epa0zcvcvrevmn0ypsnfsue94nsn3tvpw288a4x0xf8pxgcntelxmyclq83s0ykeehchz2wtspks905plm"],"addressesOutput":["addr1zxgx3far7qygq0k6epa0zcvcvrevmn0ypsnfsue94nsn3tvpw288a4x0xf8pxgcntelxmyclq83s0ykeehchz2wtspks905plm","addr1qy9rurknjuefq4z69apq5c9ruwpxr3t4cavyx90fwwhzmgsy8c94m04c9nvp7n80ehw7n0xnrkw65j768syevwtc9fxsstacz7"],"fee":320072,"totalOutput":6430018,"tokens":[]},{"hash":"d10fb9ddd952ae1502e263d7f693e43031be4c05d221216aaa633a91eb957ed8","blockNo":8238005,"blockHash":"082986aec5a0a4838fd24392e9fe1bdd7d3bcffec5cb0812a7d08c88aceeb074","epochNo":386,"epochSlotNo":104718,"slot":81493518,"time":"2023/01/07 02:50:09","addressesInput":["DdzFFzCqrhsiSWS9GREAWUovPQvXSR2e1RAvW19XvNAb5Cbj3vt5LA8WTuXuwMmsh95gGb7XLMJNAyrFKeGWEXCz3KwtSzQyTCnrgpFb","DdzFFzCqrhsvuK2BryaT132nWUqNNxhuLdJJVcVYa1mALaMzB5ftgV1ELWaE2SFXu16XX3HDatZD1gKJWVEmrJ6Lbma5fzx3XKvihvdm","DdzFFzCqrhsrtSPEw7QV9ptJmbhaTqpZqV7r8V7H5jCYhXKAJEy99tKPJSmqpNsifLmCnYbG7MMeBnc2nsbtEd6GjqPBSzmHC6ZB5hoY","DdzFFzCqrht7Bkhm75K5Gx1ZYTjsmoB4knGTFYAAaP7dEY6gyYJ8eXN14rBSW3sdPHE9BSQrv2TmZkEnXwqj8VdFYSqvti4oVcoeCMPR"],"addressesOutput":["DdzFFzCqrhsfZ2SyCmQNJwY2gW2KvYYScodaoS93am6xo5JBU9T47Q2o6DCdz5KkKqhv6ZTX7Z9cBArLqnGZLKEQGUUf1fKiX73Q7qFX","DdzFFzCqrht3AFNEVguc97dkkTWzSqWjrjipACAKoy7TTg1PtWrzqxVGh8vFJhd8wr6ZQt79MBJawfDaE77VDmKuWAEtCpF8DmTf3P7X"],"fee":203869,"totalOutput":636855497297,"tokens":[]},{"hash":"9265ad131f94fbe67849fa44bdf6371aa14873736cd964330c9ae605fc93654e","blockNo":8238005,"blockHash":"082986aec5a0a4838fd24392e9fe1bdd7d3bcffec5cb0812a7d08c88aceeb074","epochNo":386,"epochSlotNo":104718,"slot":81493518,"time":"2023/01/07 02:50:09","addressesInput":["addr1zxgx3far7qygq0k6epa0zcvcvrevmn0ypsnfsue94nsn3tvpw288a4x0xf8pxgcntelxmyclq83s0ykeehchz2wtspks905plm","addr1qycjazplahtky23xz58syn2kuw0pqfd60ltscagvqdj5s94ha7aammem39rhmr8welj32h35y7a2werlz0ag7w8xadtsvd80rt"],"addressesOutput":["addr1zxgx3far7qygq0k6epa0zcvcvrevmn0ypsnfsue94nsn3tvpw288a4x0xf8pxgcntelxmyclq83s0ykeehchz2wtspks905plm","addr1qycjazplahtky23xz58syn2kuw0pqfd60ltscagvqdj5s94ha7aammem39rhmr8welj32h35y7a2werlz0ag7w8xadtsvd80rt"],"fee":315770,"totalOutput":135190730,"tokens":[]},{"hash":"c660404caf61b851ef1565e5a55c463ed7f4466e33bedb2e0092f9070953668b","blockNo":8238005,"blockHash":"082986aec5a0a4838fd24392e9fe1bdd7d3bcffec5cb0812a7d08c88aceeb074","epochNo":386,"epochSlotNo":104718,"slot":81493518,"time":"2023/01/07 02:50:09","addressesInput":["addr1qxghrx6t0v4yadc7322ng96k3j4r0qm8r7l02khqqms0ggn6fzj4dvpg9546w02p0dvwkrf3wf4ypyeu2au0zn9lx93qgwlr42","addr1zxgx3far7qygq0k6epa0zcvcvrevmn0ypsnfsue94nsn3tvpw288a4x0xf8pxgcntelxmyclq83s0ykeehchz2wtspks905plm"],"addressesOutput":["addr1zxgx3far7qygq0k6epa0zcvcvrevmn0ypsnfsue94nsn3tvpw288a4x0xf8pxgcntelxmyclq83s0ykeehchz2wtspks905plm","addr1qxghrx6t0v4yadc7322ng96k3j4r0qm8r7l02khqqms0ggn6fzj4dvpg9546w02p0dvwkrf3wf4ypyeu2au0zn9lx93qgwlr42"],"fee":314966,"totalOutput":124605093,"tokens":[]},{"hash":"dd05e59468eac99b9a8211a7d66f64a552dff099bbcaec6555e1684536babb47","blockNo":8238005,"blockHash":"082986aec5a0a4838fd24392e9fe1bdd7d3bcffec5cb0812a7d08c88aceeb074","epochNo":386,"epochSlotNo":104718,"slot":81493518,"time":"2023/01/07 02:50:09","addressesInput":["addr1q8hqq95vcusj3xm3zkg7vjg4sw06c73300k7pfzx0h9qfqry7vsx3tdd4je26pwjeh4d5ndvlk8emn8e9curw3r6ypxq6kyw5w","addr1zxgx3far7qygq0k6epa0zcvcvrevmn0ypsnfsue94nsn3tvpw288a4x0xf8pxgcntelxmyclq83s0ykeehchz2wtspks905plm"],"addressesOutput":["addr1zxgx3far7qygq0k6epa0zcvcvrevmn0ypsnfsue94nsn3tvpw288a4x0xf8pxgcntelxmyclq83s0ykeehchz2wtspks905plm","addr1q8hqq95vcusj3xm3zkg7vjg4sw06c73300k7pfzx0h9qfqry7vsx3tdd4je26pwjeh4d5ndvlk8emn8e9curw3r6ypxq6kyw5w"],"fee":316210,"totalOutput":56471174,"tokens":[]},{"hash":"9864d5fa574d1442f538e5bcdb3bb0ce23703f2a151996b23a256a63fa998fbb","blockNo":8238004,"blockHash":"6e4aa713519f0fdcb8d3b1a593f2a4fda1565fc3c146938a0960c6e23f9a03f0","epochNo":386,"epochSlotNo":104699,"slot":81493499,"time":"2023/01/07 02:49:50","addressesInput":["addr1v8sxmvhj83uar8dz34qawcgpduu35fp3v8235ajgxz4d9hgzytxqs"],"addressesOutput":["addr1q8jm8ulwtmp2pyqr0ydd8qka37h2xmc7sh3p2tqlh2tzafew5slj4tyn9dsx8qj6vdp0hw70jsuvtrtge3uqdp9j923sjt35cq","addr1vxrmu3m2cc5k6xltupj86a2uzcuq8r4nhznrhfq0pkwl4hgqj2v8w","addr1q9nljn7qklehfhnqeegc8xysaclad8j7z58wrv6s6v3z0w5faa8whqjpd89f8cq4z5y5auw82rhrzc2qdmas7yp2k73q7v9h92"],"fee":215441,"totalOutput":59784559,"tokens":[]},{"hash":"7489b2fa88701772dc32c550ec5d861afdcedcc0e62aece9cd5b7c979dae57ee","blockNo":8238004,"blockHash":"6e4aa713519f0fdcb8d3b1a593f2a4fda1565fc3c146938a0960c6e23f9a03f0","epochNo":386,"epochSlotNo":104699,"slot":81493499,"time":"2023/01/07 02:49:50","addressesInput":["addr1zxgx3far7qygq0k6epa0zcvcvrevmn0ypsnfsue94nsn3tvpw288a4x0xf8pxgcntelxmyclq83s0ykeehchz2wtspks905plm","addr1q8e3jgm0zrtxwhlzap4xd6xwqe9xnjtwkajrxkm4yzu0kwnutr6kju96hxes3qgqtqj4l9w75ra7jegs5fqq0hty0a3qxgj5ca"],"addressesOutput":["addr1zxgx3far7qygq0k6epa0zcvcvrevmn0ypsnfsue94nsn3tvpw288a4x0xf8pxgcntelxmyclq83s0ykeehchz2wtspks905plm","addr1q8e3jgm0zrtxwhlzap4xd6xwqe9xnjtwkajrxkm4yzu0kwnutr6kju96hxes3qgqtqj4l9w75ra7jegs5fqq0hty0a3qxgj5ca"],"fee":314966,"totalOutput":18945257,"tokens":[]},{"hash":"9e828635af1fbe3024f558d80234520378bad32736b1a62cd84724af02a468f0","blockNo":8238004,"blockHash":"6e4aa713519f0fdcb8d3b1a593f2a4fda1565fc3c146938a0960c6e23f9a03f0","epochNo":386,"epochSlotNo":104699,"slot":81493499,"time":"2023/01/07 02:49:50","addressesInput":["addr1q8glt4zdh73egvzkyu5hghqtj9v4m23vpp82nnfcka6jxmcffd3df2u90z3gcmgktk7te9aluqweesu26mxdvyxt55psdum0dy","addr1q8glt4zdh73egvzkyu5hghqtj9v4m23vpp82nnfcka6jxmcffd3df2u90z3gcmgktk7te9aluqweesu26mxdvyxt55psdum0dy"],"addressesOutput":["addr1qyg5yk36ee0rhl5hw5kxcfng5ygrsv55tuchs0nxjmh9uqmpmpaxya7n6kzmyy6f72st0akwx8zg5n6emrxa5mhywg9q3v23dv","addr1q8glt4zdh73egvzkyu5hghqtj9v4m23vpp82nnfcka6jxmcffd3df2u90z3gcmgktk7te9aluqweesu26mxdvyxt55psdum0dy","addr1q8glt4zdh73egvzkyu5hghqtj9v4m23vpp82nnfcka6jxmcffd3df2u90z3gcmgktk7te9aluqweesu26mxdvyxt55psdum0dy"],"fee":261333,"totalOutput":363841807,"tokens":[]},{"hash":"c14fa66e50b273db3fd249e0b7290d36aaa978cb59cba0b1673f77ac2a953da5","blockNo":8238004,"blockHash":"6e4aa713519f0fdcb8d3b1a593f2a4fda1565fc3c146938a0960c6e23f9a03f0","epochNo":386,"epochSlotNo":104699,"slot":81493499,"time":"2023/01/07 02:49:50","addressesInput":["addr1q9skpuvft3k5my0ryep69lf0cj0qmrz2v0p0mczhd2q4a5gcjqvhvufnn5um07tqsu3rq5p5pvh5s6g49vqsju9nn0csf2mwqp"],"addressesOutput":["addr1qy78xn4nsj700549v78mhz0dp4zfazqz0wyk676jnpzx5rqcjqvhvufnn5um07tqsu3rq5p5pvh5s6g49vqsju9nn0cs6a595n"],"fee":171573,"totalOutput":1250395455,"tokens":[]},{"hash":"0bc52f5e32075aa8c62e84a569bbeea68cd68f43360a415bc53fe2c68c974cb7","blockNo":8238004,"blockHash":"6e4aa713519f0fdcb8d3b1a593f2a4fda1565fc3c146938a0960c6e23f9a03f0","epochNo":386,"epochSlotNo":104699,"slot":81493499,"time":"2023/01/07 02:49:50","addressesInput":["addr1w9jx45flh83z6wuqypyash54mszwmdj8r64fydafxtfc6jgrw4rm3","addr1w82z6yrftsxz77el0ce2q4vuspcym2x0xgpgneurrwvasfge778fd","addr1w9jx45flh83z6wuqypyash54mszwmdj8r64fydafxtfc6jgrw4rm3","addr1w9jx45flh83z6wuqypyash54mszwmdj8r64fydafxtfc6jgrw4rm3","addr1vynz6z9jmu9t9ftj830kxr43dslacqnktpv3vcdhymzx2zsg4cuk6","addr1w9jx45flh83z6wuqypyash54mszwmdj8r64fydafxtfc6jgrw4rm3","addr1w9jx45flh83z6wuqypyash54mszwmdj8r64fydafxtfc6jgrw4rm3","addr1w9jx45flh83z6wuqypyash54mszwmdj8r64fydafxtfc6jgrw4rm3","addr1w9jx45flh83z6wuqypyash54mszwmdj8r64fydafxtfc6jgrw4rm3"],"addressesOutput":["addr1w82z6yrftsxz77el0ce2q4vuspcym2x0xgpgneurrwvasfge778fd","addr1vynz6z9jmu9t9ftj830kxr43dslacqnktpv3vcdhymzx2zsg4cuk6"],"fee":1973408,"totalOutput":23334885140,"tokens":[]},{"hash":"9adf22839677dd2b72e590bc9c41353dbadcbef34e7c167dd3706ef354a13d9e","blockNo":8238004,"blockHash":"6e4aa713519f0fdcb8d3b1a593f2a4fda1565fc3c146938a0960c6e23f9a03f0","epochNo":386,"epochSlotNo":104699,"slot":81493499,"time":"2023/01/07 02:49:50","addressesInput":["addr1q9jayuhqz3mg64403hq3ydhmlhxnaam4n42hvr7zh5nqau7fdkwvp4d72f64pnkkhp4tkfg8kmnrptl23dy275z6lv7sscglxv","addr1zxgx3far7qygq0k6epa0zcvcvrevmn0ypsnfsue94nsn3tvpw288a4x0xf8pxgcntelxmyclq83s0ykeehchz2wtspks905plm"],"addressesOutput":["addr1zxgx3far7qygq0k6epa0zcvcvrevmn0ypsnfsue94nsn3tvpw288a4x0xf8pxgcntelxmyclq83s0ykeehchz2wtspks905plm","addr1q9jayuhqz3mg64403hq3ydhmlhxnaam4n42hvr7zh5nqau7fdkwvp4d72f64pnkkhp4tkfg8kmnrptl23dy275z6lv7sscglxv"],"fee":314878,"totalOutput":9211656,"tokens":[]},{"hash":"f3870a2bd8bc1f5aebc5e248c5cb8c8655f7f04782aa10a1f1b07b0ba2b304a8","blockNo":8238004,"blockHash":"6e4aa713519f0fdcb8d3b1a593f2a4fda1565fc3c146938a0960c6e23f9a03f0","epochNo":386,"epochSlotNo":104699,"slot":81493499,"time":"2023/01/07 02:49:50","addressesInput":["addr1qyvs3mzuynug6ep9n2cszurf6p0vx26rtkxckrlssss3qhcagk6nk9nl96acu272ye0sa8dlgk0rzmd4ahhrk9aw03as00u46u","addr1qxw652pge9agcllhd3aym7cnsdt489m3450lp4a0nl6gplcagk6nk9nl96acu272ye0sa8dlgk0rzmd4ahhrk9aw03aswc5euh"],"addressesOutput":["addr1qy3aykglv5cl8z4mafyht3az9tunxg8e8drpn3gm0h6awlygul00ey58dsa4cqny235vwlkpke4alsr65vtu9v00gkqsjnvqez","addr1q9459krtqc54829grl8ky9ye9a8smw2r2xx8p2enpmcflygagk6nk9nl96acu272ye0sa8dlgk0rzmd4ahhrk9aw03as44u6fy"],"fee":176853,"totalOutput":14770343527,"tokens":[]},{"hash":"5af52490051870a1d43ac7d6796ff8faa4fc5549072ce5075cda86240b3c7d79","blockNo":8238004,"blockHash":"6e4aa713519f0fdcb8d3b1a593f2a4fda1565fc3c146938a0960c6e23f9a03f0","epochNo":386,"epochSlotNo":104699,"slot":81493499,"time":"2023/01/07 02:49:50","addressesInput":["addr1qxudp6v6pfs0d0dumn6x30y0e8wazen8rjyuya0sz98xhm7j2tlh0cu983ftw7nmrxk83549d74xcevj8wf29j29447say8upn","addr1zxgx3far7qygq0k6epa0zcvcvrevmn0ypsnfsue94nsn3tvpw288a4x0xf8pxgcntelxmyclq83s0ykeehchz2wtspks905plm"],"addressesOutput":["addr1zxgx3far7qygq0k6epa0zcvcvrevmn0ypsnfsue94nsn3tvpw288a4x0xf8pxgcntelxmyclq83s0ykeehchz2wtspks905plm","addr1qxudp6v6pfs0d0dumn6x30y0e8wazen8rjyuya0sz98xhm7j2tlh0cu983ftw7nmrxk83549d74xcevj8wf29j29447say8upn"],"fee":302194,"totalOutput":110121843,"tokens":[]}],"totalItems":58374454,"totalPages":2918723,"currentPage":0}