{"data":[{"hash":"cb25bafe2c530b2c9c58b71ef97555335db69fadcc1a2dcc2d2669b3fda9e6a2","blockNo":8265999,"blockHash":"4bb0c87f9184ae08a7b98fa5d3686aa583dffe93b0b34abaa9d74996a67b111f","epochNo":387,"epochSlotNo":251592,"slot":82072392,"time":"2023/01/13 19:38:03","addressesInput":["addr1qy0xznhgdhqj9u4g6jjdntf2cxy5lyad8j2p6a6dp8jwwttfq4uncdzu6hqlxn7gva2xsaln40x226fl8fsnqyyvzxtqqm3qw9","addr1qy0xznhgdhqj9u4g6jjdntf2cxy5lyad8j2p6a6dp8jwwttfq4uncdzu6hqlxn7gva2xsaln40x226fl8fsnqyyvzxtqqm3qw9","addr1qy0xznhgdhqj9u4g6jjdntf2cxy5lyad8j2p6a6dp8jwwttfq4uncdzu6hqlxn7gva2xsaln40x226fl8fsnqyyvzxtqqm3qw9","addr1qy0xznhgdhqj9u4g6jjdntf2cxy5lyad8j2p6a6dp8jwwttfq4uncdzu6hqlxn7gva2xsaln40x226fl8fsnqyyvzxtqqm3qw9"],"addressesOutput":["addr1zxgx3far7qygq0k6epa0zcvcvrevmn0ypsnfsue94nsn3tvpw288a4x0xf8pxgcntelxmyclq83s0ykeehchz2wtspks905plm","addr1qy0xznhgdhqj9u4g6jjdntf2cxy5lyad8j2p6a6dp8jwwttfq4uncdzu6hqlxn7gva2xsaln40x226fl8fsnqyyvzxtqqm3qw9","addr1qy0xznhgdhqj9u4g6jjdntf2cxy5lyad8j2p6a6dp8jwwttfq4uncdzu6hqlxn7gva2xsaln40x226fl8fsnqyyvzxtqqm3qw9","addr1qy0xznhgdhqj9u4g6jjdntf2cxy5lyad8j2p6a6dp8jwwttfq4uncdzu6hqlxn7gva2xsaln40x226fl8fsnqyyvzxtqqm3qw9"],"fee":293673,"totalOutput":345563943,"tokens":[]},{"hash":"7a87b4bd48dd28257c8527160b5006fc6dad95aa2385c0f3fd47888a58e9ed58","blockNo":8265910,"blockHash":"fa9cf25b57288318dc28dca8dabade9e08d13e45f0ef71d7738a481d4ca2bf60","epochNo":387,"epochSlotNo":249881,"slot":82070681,"time":"2023/01/13 19:09:32","addressesInput":["addr1q9vj9w32w77p47ca725hantcf5nrzcex66vqq58kqm4l04y6hn99676mvdj6qvd34vfqh3jx6vy8tyfkuy6u3xcghq8sex2gzq"],"addressesOutput":["addr1zxgx3far7qygq0k6epa0zcvcvrevmn0ypsnfsue94nsn3tvpw288a4x0xf8pxgcntelxmyclq83s0ykeehchz2wtspks905plm","addr1q9vj9w32w77p47ca725hantcf5nrzcex66vqq58kqm4l04y6hn99676mvdj6qvd34vfqh3jx6vy8tyfkuy6u3xcghq8sex2gzq","addr1q9vj9w32w77p47ca725hantcf5nrzcex66vqq58kqm4l04y6hn99676mvdj6qvd34vfqh3jx6vy8tyfkuy6u3xcghq8sex2gzq"],"fee":301197,"totalOutput":25121681,"tokens":[]},{"hash":"af6a0be428d3c2e56d745f1717334ee521f14ab1f83c06fe9f82d5cc2fad074c","blockNo":8265717,"blockHash":"d0e9937cf90fa12658d49dfbb8cb3435f90e473aabed3efebe26e565d1ccc03a","epochNo":387,"epochSlotNo":245632,"slot":82066432,"time":"2023/01/13 17:58:43","addressesInput":["DdzFFzCqrhsjd1tmTN2z1ouhHWyZY2X7f6SkisYvRhcKxoymarY4TzH3bz48tbre6QGjYPnGZX9aecUiHa71HTeZLaTjfuUGWi4uYPLb","DdzFFzCqrhshj1unDChf6if4EY5FG6od4myo9cp3MXZ5JtA8e9W6kJtcAryuoVbpbd8ee4yUWuHTxDnXzbC9NiwQzzAQXuCz31JQ4wc4","DdzFFzCqrhshvJz6cZoeLBRGciYAHamX7zmDZBWoGUA6wwdKdr7Uom7YGoUEghQKRiLZ2Z7cskE1Wh3ufHjmn8JBDAp9uwTFzqZHoRVF","DdzFFzCqrhsjXpb1GokH8wgWU5gdaTuXeN35cnS48df6rhG8cjLR59HccAkk4WLDDqkYF54DxLxUVwSepWnRpbC46juwgNN61eS3imZc","DdzFFzCqrhseUkBqJXefiwRgwDFS9zcB57KbM6KkFnD6wmKSfYeLFTyQ197dnfwS8gN11NbE1G5Atp686L7BXyFsU57wfEbgntwLgkxc","DdzFFzCqrhsvPBtgziBgvFwLzd6X6jgDdKgbfxtKGESsq8zq3rhLVxpExNLfKM4sMvCaz6i85sTAebsVyQMQ49afq4Mz6PQA83BFTDvy"],"addressesOutput":["addr1q9atjfpqwdtg7ytz0pz9zcaqvx8zr2uv6ysvc4csqynr683dzefudzxhadht99nh8gv4l3z93d486ygllgxuh2drrrpsdw6fws","DdzFFzCqrht6LE83zZAG583hrsxfBrKZ8ojoJeHVr7MnNuoT6WRZVYvvRkRDjwgy2ds5rjQ62qcU3agQhPBoAm6QBh8me6jf85pXGoUp","DdzFFzCqrht77P9KcxMJifzPEKnDkAMDRJmrtyDh9khf3DxTjJdw3LMbtRUFTyr3KGEWCBr9YWN1PefBrUDJaPJeKRbHE5KfvPdbUYim","DdzFFzCqrht7C2DVrq777PVv5VGcHM9bvKdrpxSRbuVwWK9X7S6R2fckRqu7C6V2Y511J8HdrLmcYmPm8JEq85nHg1jkKQiqx4749mVj","DdzFFzCqrhssdqZv1bCXQDJBcMNxbBJMcqxk7nnE2vRHhgoHiD51KjHAc9S9srVvFmviYBupb23tiJVtLzUwyHyVbhw8mBnQ125tsvod"],"fee":963441,"totalOutput":64147847763,"tokens":[]},{"hash":"6d45d5c8d8a07584cc9bf3c7fcaae0f4f7591213e013c8bce54ccd872d7253b9","blockNo":8265596,"blockHash":"891b6cf538a206ed331948d04b3bdf38aa283bdc4e669acab7b963ca664c83e6","epochNo":387,"epochSlotNo":242656,"slot":82063456,"time":"2023/01/13 17:09:07","addressesInput":["addr1q9vj9w32w77p47ca725hantcf5nrzcex66vqq58kqm4l04y6hn99676mvdj6qvd34vfqh3jx6vy8tyfkuy6u3xcghq8sex2gzq","addr1q9vj9w32w77p47ca725hantcf5nrzcex66vqq58kqm4l04y6hn99676mvdj6qvd34vfqh3jx6vy8tyfkuy6u3xcghq8sex2gzq","addr1q9vj9w32w77p47ca725hantcf5nrzcex66vqq58kqm4l04y6hn99676mvdj6qvd34vfqh3jx6vy8tyfkuy6u3xcghq8sex2gzq","addr1w999n67e86jn6xal07pzxtrmqynspgx0fwmcmpua4wc6yzsxpljz3","addr1q9vj9w32w77p47ca725hantcf5nrzcex66vqq58kqm4l04y6hn99676mvdj6qvd34vfqh3jx6vy8tyfkuy6u3xcghq8sex2gzq"],"addressesOutput":["addr1q9cwvremt6n320s2e3agq0jyq82yhrk3htsu0w426xnz5us70z4w0jgvcdkkynmm8wmds66jd9kusnjfpu6raw5fqp0sr07p5w","addr1qyd3u5j87xggfwt5gvnqrlj4lg5h9lrtahkcs7lyz6x5fnm55u7ful4qhw8k2qhruvruazpcq84cj25lrtma357y74kq6etdxe","addr1q9sy9av44y2zu5exzu5p82422wgckvu5zwpq8gaqtm53l3n9yk4fp8fn6wn7j0ktajx684lhn08lykfv754nul0057cq327rr0","addr1q9vj9w32w77p47ca725hantcf5nrzcex66vqq58kqm4l04y6hn99676mvdj6qvd34vfqh3jx6vy8tyfkuy6u3xcghq8sex2gzq"],"fee":1355208,"totalOutput":175422878,"tokens":[]},{"hash":"deec26de47f49c11b0ef521989ddaaaa6f372a32ea5787858923441a1ce0cf44","blockNo":8265269,"blockHash":"c344e6cd4fe173174b7a911f261bce268bb3cd890e47203e0023c50c3cd9a0de","epochNo":387,"epochSlotNo":235443,"slot":82056243,"time":"2023/01/13 15:08:54","addressesInput":["addr1qy0xznhgdhqj9u4g6jjdntf2cxy5lyad8j2p6a6dp8jwwttfq4uncdzu6hqlxn7gva2xsaln40x226fl8fsnqyyvzxtqqm3qw9","addr1qy0xznhgdhqj9u4g6jjdntf2cxy5lyad8j2p6a6dp8jwwttfq4uncdzu6hqlxn7gva2xsaln40x226fl8fsnqyyvzxtqqm3qw9","addr1qy0xznhgdhqj9u4g6jjdntf2cxy5lyad8j2p6a6dp8jwwttfq4uncdzu6hqlxn7gva2xsaln40x226fl8fsnqyyvzxtqqm3qw9","addr1qy0xznhgdhqj9u4g6jjdntf2cxy5lyad8j2p6a6dp8jwwttfq4uncdzu6hqlxn7gva2xsaln40x226fl8fsnqyyvzxtqqm3qw9"],"addressesOutput":["addr1zxgx3far7qygq0k6epa0zcvcvrevmn0ypsnfsue94nsn3tvpw288a4x0xf8pxgcntelxmyclq83s0ykeehchz2wtspks905plm","addr1qy0xznhgdhqj9u4g6jjdntf2cxy5lyad8j2p6a6dp8jwwttfq4uncdzu6hqlxn7gva2xsaln40x226fl8fsnqyyvzxtqqm3qw9","addr1qy0xznhgdhqj9u4g6jjdntf2cxy5lyad8j2p6a6dp8jwwttfq4uncdzu6hqlxn7gva2xsaln40x226fl8fsnqyyvzxtqqm3qw9","addr1qy0xznhgdhqj9u4g6jjdntf2cxy5lyad8j2p6a6dp8jwwttfq4uncdzu6hqlxn7gva2xsaln40x226fl8fsnqyyvzxtqqm3qw9"],"fee":293673,"totalOutput":374415096,"tokens":[]},{"hash":"04c91537ce8f5f1b9e1dd45ee363899734cc603233341e2ae96f8110696f699b","blockNo":8265269,"blockHash":"c344e6cd4fe173174b7a911f261bce268bb3cd890e47203e0023c50c3cd9a0de","epochNo":387,"epochSlotNo":235443,"slot":82056243,"time":"2023/01/13 15:08:54","addressesInput":["addr1qxueg6t9jdfcfzr9jw87kx4dqn9zqxd2e6lr9ndgvehq8zaej35kty6nsjyxtyu0avd26px2yqv64n47xtx6senwqw9sh5xnxm"],"addressesOutput":["addr1q9ed5y5nv0hx57ffxrqmnmnw8vfkhka3dyz0p69c55ut5kgs066ptj2kdnkpvtx5e7ztgeaggwh6srtesqm7kgdw5nssk8swt6","addr1qxueg6t9jdfcfzr9jw87kx4dqn9zqxd2e6lr9ndgvehq8zaej35kty6nsjyxtyu0avd26px2yqv64n47xtx6senwqw9sh5xnxm"],"fee":231481,"totalOutput":20695408427,"tokens":[]},{"hash":"53ce75d869ed3649db082b473029346eddecee1d92c2644900c0fc0fc9c81c4d","blockNo":8265230,"blockHash":"6c2551448a73441497dbde7a0318e3aa5907c2f01518f2669fed82490aca407e","epochNo":387,"epochSlotNo":234527,"slot":82055327,"time":"2023/01/13 14:53:38","addressesInput":["addr1qy0xznhgdhqj9u4g6jjdntf2cxy5lyad8j2p6a6dp8jwwttfq4uncdzu6hqlxn7gva2xsaln40x226fl8fsnqyyvzxtqqm3qw9","addr1qy0xznhgdhqj9u4g6jjdntf2cxy5lyad8j2p6a6dp8jwwttfq4uncdzu6hqlxn7gva2xsaln40x226fl8fsnqyyvzxtqqm3qw9"],"addressesOutput":["addr1zxgx3far7qygq0k6epa0zcvcvrevmn0ypsnfsue94nsn3tvpw288a4x0xf8pxgcntelxmyclq83s0ykeehchz2wtspks905plm","addr1qy0xznhgdhqj9u4g6jjdntf2cxy5lyad8j2p6a6dp8jwwttfq4uncdzu6hqlxn7gva2xsaln40x226fl8fsnqyyvzxtqqm3qw9","addr1qy0xznhgdhqj9u4g6jjdntf2cxy5lyad8j2p6a6dp8jwwttfq4uncdzu6hqlxn7gva2xsaln40x226fl8fsnqyyvzxtqqm3qw9"],"fee":283025,"totalOutput":12760492,"tokens":[]},{"hash":"cfd58333466bad85c921f92a5ffd85fbb118606331b4740a97708de260e479cf","blockNo":8265170,"blockHash":"8cacb6ee432ad29d73a3ee241fcbd35f8e0810f97180d04c02527a5d74776749","epochNo":387,"epochSlotNo":233388,"slot":82054188,"time":"2023/01/13 14:34:39","addressesInput":["DdzFFzCqrhsnmEKaSdC6YQUSNSz6ohjC62QigczYWLbcrcuwKu2EkrnNATVQNA84Qav3qTdsPCxfAjQoCft4fqkQDFyF1G1tAD18oq9S","DdzFFzCqrhtD64dzWGFhdmkJqyvzKxoABowo5jJ3qNCqXFMALEkxoCLx6V4a1Prk5QTbDVFAWW1CdoMNppNahAFJ7cji2wq1EKvzKeY3","DdzFFzCqrhsrDr6FS8EMDYjGYcMm62BWprfqAPpcgwRULQrh2M1FXQMB2pifi8x117sefx7WzikKUgf33AQ5quuogc2nwi1FxjYi54nD","DdzFFzCqrhsp4J9DXk57kQhMxUCHPeYJ2YcHRfDvexeDWUUiQ3BvUn1xzCcCG4vhgC2auGgMb4MoETPHJNdSjd1pxKrYR5gNoRCFf1N9","DdzFFzCqrhsiPiRZAyLCpbXg2Kha4nH2JHAJa4k78YPGSBAjcxDPmB59TedQaMuggyUJSPTtU3rEzsEk8PFdajKG1QtyG6RKHRveNZvS","DdzFFzCqrhseiakNF1wPX64rKcuvcVox8GAsDW7PvujtjZfZNrYpFGjkoxaKkuCLk4GgFZp9uQNYVfhY5Kyd82aXaf1nArjKmi4p6a9i","DdzFFzCqrht975yNvEppS58mP7X1WxkB6BF1hfhNbC339kUh1HZvq5dn1r7Z4b6vHT8AwxiTxFhHnRU6zVusYbFqLKneC9AZqtuJkvZs","DdzFFzCqrhshHM4i8jtEXFoZmuZ5dujBJfBRMypzjyPJQ1LTHqXkWtpX6VuQnEupfWfB8viBz2L6hobHs9MQNqNMT9vG9h1CaHxTqtW8","DdzFFzCqrhsvT4bXrvDm9AE7FQmngtjtRf9uqN2c5pH1v8iTm1XgFDzHvzpcPYyqtDp4AWBuvjMwKg4GPWuaecAykEun3QDsiV8WW6ij","DdzFFzCqrht5mjL15beeCZzNd4QqTvkeTRSshC7vaKQB9bmBJcAnupYJQrgFxJAhNEhqXFy1WrcNFFuDdEzSQ2VKLm4dUJJUFrtk9w5K","DdzFFzCqrht7yJEUHne5HXRdNFkFxykcoPUR83kjYMR57pfDNWpaDwgaqewv67nmMVNsYM92JLn6ntFrV2x5YfMcpbwSAWiqhj86FR1p","DdzFFzCqrhsmCnoxH1Vg2w9TPK9tRD3UF9fEGg7LNSBULQoDatuqdb5kyvsuxxiNByNVdME9JnXYitcAW8Akvboyf2bLSuUpzUukMmTZ","DdzFFzCqrhsjXJr324YQFM2iV32BC5t1VhQtFyuk8Xw23pVPrtwyE1q387EBptTqWEzye67tbpNx4oRwwHWSyFT6gFuViF5JfqvRXxaT","DdzFFzCqrhstWUGKd1ac4ywzHj2Wj7L4qUTZDAMbEkF5HVmUGxTmiKMZxr19DWkWFq9fy11vFtzeksBNEXgcA1UvLZacaMbs1iLP3jAN","DdzFFzCqrht7yJEUHne5HXRdNFkFxykcoPUR83kjYMR57pfDNWpaDwgaqewv67nmMVNsYM92JLn6ntFrV2x5YfMcpbwSAWiqhj86FR1p","DdzFFzCqrhskXYBAqAjhLgCvZaiFTb48HNMhNHA468xDBB1ZMmPtm1nwrd3HhSZphQZdwSXCh231BgrDds8e9yJdVmBV4zUeSTd2DbTQ","DdzFFzCqrht1Lcu4gsM3QmsprKJRbGFkgXBoHc7gdYfwmJ5fEnCaeaWX466GjN3kWgsR8avezoK1BurWot57vFMBuixV5AFHSbSR7huv","DdzFFzCqrhswqumBUd3TYLN3Yyd8J8eSKuaAD2GCnLmKnxf51FXuxNYSFqK9ppMAYEv7AEBir9r3zU5oxDeq8twaVSu7inPqHixShFTw"],"addressesOutput":["addr1q9atjfpqwdtg7ytz0pz9zcaqvx8zr2uv6ysvc4csqynr683dzefudzxhadht99nh8gv4l3z93d486ygllgxuh2drrrpsdw6fws","DdzFFzCqrhsvPBtgziBgvFwLzd6X6jgDdKgbfxtKGESsq8zq3rhLVxpExNLfKM4sMvCaz6i85sTAebsVyQMQ49afq4Mz6PQA83BFTDvy","DdzFFzCqrhshvJz6cZoeLBRGciYAHamX7zmDZBWoGUA6wwdKdr7Uom7YGoUEghQKRiLZ2Z7cskE1Wh3ufHjmn8JBDAp9uwTFzqZHoRVF","DdzFFzCqrhsjd1tmTN2z1ouhHWyZY2X7f6SkisYvRhcKxoymarY4TzH3bz48tbre6QGjYPnGZX9aecUiHa71HTeZLaTjfuUGWi4uYPLb","DdzFFzCqrhshXyc4rffT2LfV3q1VBvvH4GTDaUXCDSH4DSCLNzxt4cNEhrY7EquuAUkN4r5EwG8KF6APNYMXJ1fSQMWpbgccQPhxXZm9"],"fee":1079601,"totalOutput":58006570272,"tokens":[]},{"hash":"718a22a261c3cce91fa03fe0cb265bb0080b059788ba5960cb2dd0c65c255c41","blockNo":8265146,"blockHash":"0db1388b130a56f5e88fc9f773bbf6f57873840d5e7de9f5c9e6c541099f6207","epochNo":387,"epochSlotNo":232864,"slot":82053664,"time":"2023/01/13 14:25:55","addressesInput":["addr1q9vj9w32w77p47ca725hantcf5nrzcex66vqq58kqm4l04y6hn99676mvdj6qvd34vfqh3jx6vy8tyfkuy6u3xcghq8sex2gzq","addr1q9vj9w32w77p47ca725hantcf5nrzcex66vqq58kqm4l04y6hn99676mvdj6qvd34vfqh3jx6vy8tyfkuy6u3xcghq8sex2gzq","addr1q9vj9w32w77p47ca725hantcf5nrzcex66vqq58kqm4l04y6hn99676mvdj6qvd34vfqh3jx6vy8tyfkuy6u3xcghq8sex2gzq"],"addressesOutput":["addr1zxgx3far7qygq0k6epa0zcvcvrevmn0ypsnfsue94nsn3tvpw288a4x0xf8pxgcntelxmyclq83s0ykeehchz2wtspks905plm","addr1q9vj9w32w77p47ca725hantcf5nrzcex66vqq58kqm4l04y6hn99676mvdj6qvd34vfqh3jx6vy8tyfkuy6u3xcghq8sex2gzq","addr1q9vj9w32w77p47ca725hantcf5nrzcex66vqq58kqm4l04y6hn99676mvdj6qvd34vfqh3jx6vy8tyfkuy6u3xcghq8sex2gzq"],"fee":308149,"totalOutput":75820598,"tokens":[]},{"hash":"5c93226683f10191745a47d02cfd76f91270ede284cbc51793c6d39de68539c0","blockNo":8265108,"blockHash":"9bb0308781dc146d270db14699c7961401a603c47487ac45f4af2814d53aa6f8","epochNo":387,"epochSlotNo":232091,"slot":82052891,"time":"2023/01/13 14:13:02","addressesInput":["addr1qy0xznhgdhqj9u4g6jjdntf2cxy5lyad8j2p6a6dp8jwwttfq4uncdzu6hqlxn7gva2xsaln40x226fl8fsnqyyvzxtqqm3qw9","addr1qy0xznhgdhqj9u4g6jjdntf2cxy5lyad8j2p6a6dp8jwwttfq4uncdzu6hqlxn7gva2xsaln40x226fl8fsnqyyvzxtqqm3qw9"],"addressesOutput":["addr1zxgx3far7qygq0k6epa0zcvcvrevmn0ypsnfsue94nsn3tvpw288a4x0xf8pxgcntelxmyclq83s0ykeehchz2wtspks905plm","addr1qy0xznhgdhqj9u4g6jjdntf2cxy5lyad8j2p6a6dp8jwwttfq4uncdzu6hqlxn7gva2xsaln40x226fl8fsnqyyvzxtqqm3qw9","addr1qy0xznhgdhqj9u4g6jjdntf2cxy5lyad8j2p6a6dp8jwwttfq4uncdzu6hqlxn7gva2xsaln40x226fl8fsnqyyvzxtqqm3qw9"],"fee":284961,"totalOutput":14358067,"tokens":[]},{"hash":"b5af954c29205fa70323cb97ddf895e85872fe39c368ba19031a1d158122c12d","blockNo":8265093,"blockHash":"b7dc6f95494b51d3d9261e4c39c38c48917392995dc8e1edd9cdc705bbebd660","epochNo":387,"epochSlotNo":231854,"slot":82052654,"time":"2023/01/13 14:09:05","addressesInput":["addr1zxgx3far7qygq0k6epa0zcvcvrevmn0ypsnfsue94nsn3tvpw288a4x0xf8pxgcntelxmyclq83s0ykeehchz2wtspks905plm","addr1qy0xznhgdhqj9u4g6jjdntf2cxy5lyad8j2p6a6dp8jwwttfq4uncdzu6hqlxn7gva2xsaln40x226fl8fsnqyyvzxtqqm3qw9","addr1qy0xznhgdhqj9u4g6jjdntf2cxy5lyad8j2p6a6dp8jwwttfq4uncdzu6hqlxn7gva2xsaln40x226fl8fsnqyyvzxtqqm3qw9"],"addressesOutput":["addr1qy0xznhgdhqj9u4g6jjdntf2cxy5lyad8j2p6a6dp8jwwttfq4uncdzu6hqlxn7gva2xsaln40x226fl8fsnqyyvzxtqqm3qw9","addr1qy0xznhgdhqj9u4g6jjdntf2cxy5lyad8j2p6a6dp8jwwttfq4uncdzu6hqlxn7gva2xsaln40x226fl8fsnqyyvzxtqqm3qw9","addr1qy0xznhgdhqj9u4g6jjdntf2cxy5lyad8j2p6a6dp8jwwttfq4uncdzu6hqlxn7gva2xsaln40x226fl8fsnqyyvzxtqqm3qw9"],"fee":402310,"totalOutput":294643028,"tokens":[]},{"hash":"c306c33543390b70deef32f00a75d59b6dfe03bebf284712fa13c7f103fc3b53","blockNo":8264695,"blockHash":"caaf258337f8ea2208d00d0883e45c7713b2fbaa292b9911dee7b3efe5f44ea8","epochNo":387,"epochSlotNo":224418,"slot":82045218,"time":"2023/01/13 12:05:09","addressesInput":["addr1qx76hnwx8qukkylx5te0em5gf7kgjqadv6x8z406mpyxz6nn3lmaa3wnh8ka8wxllq5f9kpp6spcwum5vvas6xgvuedsh0rgkp","addr1qx76hnwx8qukkylx5te0em5gf7kgjqadv6x8z406mpyxz6nn3lmaa3wnh8ka8wxllq5f9kpp6spcwum5vvas6xgvuedsh0rgkp","addr1qx76hnwx8qukkylx5te0em5gf7kgjqadv6x8z406mpyxz6nn3lmaa3wnh8ka8wxllq5f9kpp6spcwum5vvas6xgvuedsh0rgkp"],"addressesOutput":["addr1wxn9efv2f6w82hagxqtn62ju4m293tqvw0uhmdl64ch8uwc0h43gt","addr1qx76hnwx8qukkylx5te0em5gf7kgjqadv6x8z406mpyxz6nn3lmaa3wnh8ka8wxllq5f9kpp6spcwum5vvas6xgvuedsh0rgkp","addr1qx76hnwx8qukkylx5te0em5gf7kgjqadv6x8z406mpyxz6nn3lmaa3wnh8ka8wxllq5f9kpp6spcwum5vvas6xgvuedsh0rgkp","addr1qx76hnwx8qukkylx5te0em5gf7kgjqadv6x8z406mpyxz6nn3lmaa3wnh8ka8wxllq5f9kpp6spcwum5vvas6xgvuedsh0rgkp"],"fee":422065,"totalOutput":256802757,"tokens":[]},{"hash":"7ba822bd12f9ed7e83a2effff3069ad119acc0e89afb7882c66d9d7ed4f25a4a","blockNo":8264608,"blockHash":"68b15dc2414e3c8e318cbc7d40f69f436437318d506c3027543924d52b9352db","epochNo":387,"epochSlotNo":222529,"slot":82043329,"time":"2023/01/13 11:33:40","addressesInput":["addr1qxq5y44unts8vr2m8shpnlqf0l3de63qnfq0gq8nwk0v676jtz7y93808mevjgshdsvl9p9q9cpnhapq5c9qpfnx6lsq0mfznw","addr1qxsud697cnzweys49lgj5klwt45p8kyujrcs5q2yxf9khz6jtz7y93808mevjgshdsvl9p9q9cpnhapq5c9qpfnx6lsq7mqgm8"],"addressesOutput":["addr1q9ys3fqzrpnxsflgc7xe3lwke2nqhr8nt9ahnhg2f6fr65knchqur28c7wwu3ca2xpufvtdnu2ys99xhsz8xxyck9m4qhpkpuj","addr1qxnzzzaqtctzya7kd2lr9x520xvukl4fz2mep2f59ftyzezjtz7y93808mevjgshdsvl9p9q9cpnhapq5c9qpfnx6lsqnfw5en","addr1qyj8cpwsry7nxmlkvv4ctvtks4r8pzwv8n04p68cyux0ydzjtz7y93808mevjgshdsvl9p9q9cpnhapq5c9qpfnx6lsq6pc394"],"fee":508701,"totalOutput":40868005,"tokens":[]},{"hash":"ee4a680b945bc701b9242293261473961b4b49fc9a90830b04368222b469e415","blockNo":8264481,"blockHash":"dc0207f03801d310fdfb8f340bfc980a26877bd67e5281b56c431f7dfce69939","epochNo":387,"epochSlotNo":220320,"slot":82041120,"time":"2023/01/13 10:56:51","addressesInput":["DdzFFzCqrhtCNLnK64M8xtm17Tkq9yJPoJUbKvca8qvJ1rYCPEyxhcqEoANQ2eK6xm7MBSXRnWcSuWGAuvAMvLddHwxVxPsvcE9DhP4b","DdzFFzCqrhsyhG3zre7H9kr6LtWywR4RqFYTBsR1xsM547gGgNzCZXkdPGAx3BYgEfBqQGxrvdPZBw2Fnzetvx48qaeVjJJKjtYFvh64","DdzFFzCqrhsybuLbnzD8TiCNvhAHLiRoJBaSpo5Z9vYtc2XGqkbsa2XagecX8YU9YoKnbwe6vXTXGbJWiyjN49GgSrUN5n8Qxo3q6Ycf","DdzFFzCqrhsyR6QvBFQjdvty5deKSa4D2wRDyDMxRJuroDQbEoMdK9VeYsfkN8jUm82R4Ter7U3UoVsbdK2Aa1AkHn5pnx1yonvo4PKU","DdzFFzCqrhsoSvZMHUgxryxquU9QR6qPBp2uQN8UFjTyZF3GaeodgKnV2LULzmPgNR6onVmWRttWWsiizMhP5NXbHD9uHW7Z7A9YZkHr","DdzFFzCqrhsfzVq9cKFQh5RxPtuVbUyVCTad9ruAzVm7YQbamePcXDGnp9ZfWWxkThvy456xaBayTqyACBwx8xZfdwzFYkUrfqbJpJMp","DdzFFzCqrhsizxyd6oN7Ku9f4JY9wnwEr9ifNmcP4SbktcpajYZzWpRxUub61Ewk7skqqAKwEcj51eWc38D3yaP4fVkUZGMkvP8L9TW6","DdzFFzCqrhtCYf2QcQGVPCAaTaCcQjYkzAEsZpohLcuZCEWhTTG1865tpcfJQHME2ya5b12c1MtiXmtKxd5osv3AexeKK1kYg479gNfb","DdzFFzCqrht1s4iAsiVVionxs5XRaoPFyG9EqL8aPRwrK8TrRmr2anhVG2kgYA2DVHZ7MHeUBixkSXccwX4uNqdRFAXCxWR6FTDToBXQ","DdzFFzCqrhsq4uTKYzeCjrTqbNdhoX3L1M9aUHU55tFQW5wU5he4tzkto9AefUmXid49RUstUQnaQ9jgiN3iUom4ap8gaxqwanTkERRg","DdzFFzCqrht7yJEUHne5HXRdNFkFxykcoPUR83kjYMR57pfDNWpaDwgaqewv67nmMVNsYM92JLn6ntFrV2x5YfMcpbwSAWiqhj86FR1p","DdzFFzCqrhsdzK42MpiYLrWq4RcVTktQvBLy44xqqfUNDCQmY5mdyZ4Rrk9mb41wQD84G41uUWBfdgN6cEN692v4xFfKn2UNqejQ5Ur1","DdzFFzCqrht3VAqNXhXnpjRQ3o3isBMEAsgRbHAnpQU3SEFEAFQwVQPdEAuFhAmm7WENcgJmd1iLZv7dkBGw1FQtPxpxp6nsrdw5t3aM","DdzFFzCqrhsoVa8hcxAtA8RrSM3gtoRYQDzRbEEaTygYR3dBCyXjU8WAbrFFnsM4N5KpsThZp7Jd7uiB9o11NyuzyDTd6EdM4VWVe67u","DdzFFzCqrhsdvvP61ZdgkT436UoSKqkPAs3N5kFBna9vWwxoUA6ZvdVWJVTgjkWjVe6yGKeT5CcddzoM2CXJ81RPJ5SX4CJpE2KmvYy8","DdzFFzCqrht7yJEUHne5HXRdNFkFxykcoPUR83kjYMR57pfDNWpaDwgaqewv67nmMVNsYM92JLn6ntFrV2x5YfMcpbwSAWiqhj86FR1p","DdzFFzCqrhsv4xBNAmtkCEajsfAvngoWbQAqbPVLbBjmMwukS2gqUJeFsXuvRtXaUnXTG1wwi7baUt4xgjYSUnfVR24NhemRUNv6sDNd","DdzFFzCqrhshdLZUe71jE4G9dhtzwPu26UDhTgYQAgFG18wwwtXZFLPFSaNCyqgUvu66oYCM9oNU7ZAkG289MZjYSUv7E4iqKMP8iXc4"],"addressesOutput":["addr1q9atjfpqwdtg7ytz0pz9zcaqvx8zr2uv6ysvc4csqynr683dzefudzxhadht99nh8gv4l3z93d486ygllgxuh2drrrpsdw6fws","DdzFFzCqrhsmCnoxH1Vg2w9TPK9tRD3UF9fEGg7LNSBULQoDatuqdb5kyvsuxxiNByNVdME9JnXYitcAW8Akvboyf2bLSuUpzUukMmTZ","DdzFFzCqrhtD64dzWGFhdmkJqyvzKxoABowo5jJ3qNCqXFMALEkxoCLx6V4a1Prk5QTbDVFAWW1CdoMNppNahAFJ7cji2wq1EKvzKeY3","DdzFFzCqrhsp4J9DXk57kQhMxUCHPeYJ2YcHRfDvexeDWUUiQ3BvUn1xzCcCG4vhgC2auGgMb4MoETPHJNdSjd1pxKrYR5gNoRCFf1N9","DdzFFzCqrht1aHcDE2SGf1RWHVm4ECwcv4chcW7paC5ELo71gfocu4pW9cmuc4nvDSzdvgNk4cmQwXHKwUWvSSqby2FY2P518KgwCudx"],"fee":1079601,"totalOutput":50463119890,"tokens":[]},{"hash":"be2b970bb4b4124a930212f611103ade8ef767e475e35a3d9b5ff3c14cf300c9","blockNo":8264265,"blockHash":"3ec4abb26007c781e5c38a20dcba2b16345ae922901f457830ad1f2ef278b9c0","epochNo":387,"epochSlotNo":216585,"slot":82037385,"time":"2023/01/13 09:54:36","addressesInput":["DdzFFzCqrhswGFEfbCv3o7K2FdVimMfhaWxJjniPo99B8RLe4owiew3i7VQ8u3m4xJX4KBhdNvB4xFmFk5RSQKZQosf9f8gL4hE4syiB","DdzFFzCqrht5DgZYvjRqpGQnTEcP1b3YBgRF55z8cLJVB7rBMsuow7K4c7uBb2uZCKPxLryT3WJNj6H67smZ2HH6eT6yTnGzw2ccLnRN"],"addressesOutput":["addr1q9atjfpqwdtg7ytz0pz9zcaqvx8zr2uv6ysvc4csqynr683dzefudzxhadht99nh8gv4l3z93d486ygllgxuh2drrrpsdw6fws","DdzFFzCqrhtCYf2QcQGVPCAaTaCcQjYkzAEsZpohLcuZCEWhTTG1865tpcfJQHME2ya5b12c1MtiXmtKxd5osv3AexeKK1kYg479gNfb"],"fee":372081,"totalOutput":2115708739,"tokens":[]},{"hash":"bad0f8a78beb3520f9ace558c963e8a7d766edfd32c41b8af574db709707fd0e","blockNo":8264233,"blockHash":"ea91ea6fce75bb3f0040edc118deff562d0a50818d204a09054a4c563821e7ac","epochNo":387,"epochSlotNo":215983,"slot":82036783,"time":"2023/01/13 09:44:34","addressesInput":["DdzFFzCqrhskBRcwXUxeoKXzjxHRHF6RKNXvcEh5xxfLhbGFJRHduUBMkZgKeiyKEYBP99eHsQg2u8s1EzFPY4yTrxs5dCoyx6b9tk6s"],"addressesOutput":["addr1q9atjfpqwdtg7ytz0pz9zcaqvx8zr2uv6ysvc4csqynr683dzefudzxhadht99nh8gv4l3z93d486ygllgxuh2drrrpsdw6fws","DdzFFzCqrhswGFEfbCv3o7K2FdVimMfhaWxJjniPo99B8RLe4owiew3i7VQ8u3m4xJX4KBhdNvB4xFmFk5RSQKZQosf9f8gL4hE4syiB"],"fee":362401,"totalOutput":2115951440,"tokens":[]},{"hash":"1659f0cc5eaaf1cb2c0c66be559411237bdfc1645deb758bf83a3ded2956f856","blockNo":8264215,"blockHash":"87b073521c79b449a41cb0873a03fe837f39c730e22269d7daafbe676949e2fc","epochNo":387,"epochSlotNo":215629,"slot":82036429,"time":"2023/01/13 09:38:40","addressesInput":["DdzFFzCqrhsvrthb2hCEafoiEeJHncrdyvHUyViVmutKQg58PQtbVCAUJjHtoUBbiv8oEM2VFpW2wgQDLUVKkByTczCaK8bRsa4iUGvA"],"addressesOutput":["addr1q9atjfpqwdtg7ytz0pz9zcaqvx8zr2uv6ysvc4csqynr683dzefudzxhadht99nh8gv4l3z93d486ygllgxuh2drrrpsdw6fws","DdzFFzCqrhskBRcwXUxeoKXzjxHRHF6RKNXvcEh5xxfLhbGFJRHduUBMkZgKeiyKEYBP99eHsQg2u8s1EzFPY4yTrxs5dCoyx6b9tk6s"],"fee":362401,"totalOutput":2117563741,"tokens":[]},{"hash":"fc2dd1d1992543475e5b2dff6a0c4016f50801e02076e76f246ffaa0e96ab583","blockNo":8264194,"blockHash":"d66eaae2e3661234a05bbcaa7cf47af6979b9d0aca04fa1e736955e91acb57a5","epochNo":387,"epochSlotNo":215146,"slot":82035946,"time":"2023/01/13 09:30:37","addressesInput":["DdzFFzCqrhsgv5RRiRhpREg7du3FycE96k8MAGqY1etreVxNjbPbYUzEJsWQk3RwMstPTnUZH8rnKbF1NU1frt9RVKnvMnLeKHezarwS"],"addressesOutput":["addr1q9atjfpqwdtg7ytz0pz9zcaqvx8zr2uv6ysvc4csqynr683dzefudzxhadht99nh8gv4l3z93d486ygllgxuh2drrrpsdw6fws","DdzFFzCqrhsvrthb2hCEafoiEeJHncrdyvHUyViVmutKQg58PQtbVCAUJjHtoUBbiv8oEM2VFpW2wgQDLUVKkByTczCaK8bRsa4iUGvA"],"fee":362401,"totalOutput":2119176042,"tokens":[]},{"hash":"416477fae3d833479f5141699aed628ab85bd68c940d84574a9c06573618f284","blockNo":8264172,"blockHash":"e0fa388b3b541f97b66313376e12fde8d4eb7e0119b8c99943d02ff5130cdf0e","epochNo":387,"epochSlotNo":214718,"slot":82035518,"time":"2023/01/13 09:23:29","addressesInput":["DdzFFzCqrhtBb9rmp4LerJqXMG4rFnQWXAph7sPa54oubV2Yee5b68PttT4vjAAyQDrzT1jMoGBYjWhmK1hzsNpTyL8eLZvrQxLNiATA"],"addressesOutput":["addr1q9atjfpqwdtg7ytz0pz9zcaqvx8zr2uv6ysvc4csqynr683dzefudzxhadht99nh8gv4l3z93d486ygllgxuh2drrrpsdw6fws","DdzFFzCqrhsgv5RRiRhpREg7du3FycE96k8MAGqY1etreVxNjbPbYUzEJsWQk3RwMstPTnUZH8rnKbF1NU1frt9RVKnvMnLeKHezarwS"],"fee":362401,"totalOutput":2120788343,"tokens":[]},{"hash":"1cf8439296e94844ab5a110f06eeeef6246cfbeeca693eb80bfeb7e81a610262","blockNo":8264151,"blockHash":"cd0acedd4bdb29bfa9fec364ca5a2a4852ebdfc5c0d200b6e170f6b36b5c9476","epochNo":387,"epochSlotNo":214293,"slot":82035093,"time":"2023/01/13 09:16:24","addressesInput":["DdzFFzCqrhsnWdBNrgbjds7jp8kXYpfkaMxpV9bpTbD6NzCM4gC8DEsZgDzFdQCZhUUMWNigoAzijSaPwKZ6BAFmLBuWfCwwcBSawPXx","DdzFFzCqrhsyR6QvBFQjdvty5deKSa4D2wRDyDMxRJuroDQbEoMdK9VeYsfkN8jUm82R4Ter7U3UoVsbdK2Aa1AkHn5pnx1yonvo4PKU","DdzFFzCqrhsrq2YtJDZoooGsA1ys4P2TFKyrY3ncw2Bk9dR4UzMyx4Ni2buikft2iR9z5LJ4gVZe8W5pGJAqWVeS49Qynm7fPPEX7H55","DdzFFzCqrht72GciRmeY8QBGQsR4o6zFdgyHgDKku8ysGLrf9GYUwXQEFuKxPsWNVttGTGHgnZvZ8VFXHNPqiazKCWAZxn5iChC6Pmcy","DdzFFzCqrhsxBhfCnggxH9mGPhFQM8RLbfG2jdhHWMmLjh6BiKL4F1E9jr7VvB1C8DvVzeKQNpmZLFeVb9Qc1obgcq13TQgaeR2Tvhbb","DdzFFzCqrhsyJy46r3HwxeaQSDKTC4jAsyfhT8fnE7ssjUeLhscXg8f2EnpiPs3ErEg7z12WpX5ihNBDEscC5aAmsKUQzX1ZJtjuWXNJ","DdzFFzCqrhstvZ6Vxfm83EzALViggG8ehdVnpng8tV2UKZBDXcLcdji4z7ZdacNdAtvEpegotLE49yUAoNQcTG9kAuPmigV1FhCLcKpF","DdzFFzCqrhtCPgn6Xr4kxPWboeKLKsdb5vbd9hSHS3LHqGPZXWp43uYPFjjQkTuyyxRnR7iQHm2MHkjcCpcUtWB6RP4F78jmeLpTMD1M","DdzFFzCqrhsoDfqZwuqmASPERpMKCtBbJtQUxAJcZKe2o46xxexSYpQ1Uu2ABwB3pyUN9AankzB33AQ2PR5Pcj2FomxzieavXruwu2KC","DdzFFzCqrhsrULdffH3xQSavTx9yWPFrUj9zEssFDnL8CnCvNGAFqnUYhcdpguCoQAJciZjndNQncauAbPRokrwytwBmkEad4PaofYyh","DdzFFzCqrhsdzK42MpiYLrWq4RcVTktQvBLy44xqqfUNDCQmY5mdyZ4Rrk9mb41wQD84G41uUWBfdgN6cEN692v4xFfKn2UNqejQ5Ur1","DdzFFzCqrhsdzK42MpiYLrWq4RcVTktQvBLy44xqqfUNDCQmY5mdyZ4Rrk9mb41wQD84G41uUWBfdgN6cEN692v4xFfKn2UNqejQ5Ur1","DdzFFzCqrhsyR6QvBFQjdvty5deKSa4D2wRDyDMxRJuroDQbEoMdK9VeYsfkN8jUm82R4Ter7U3UoVsbdK2Aa1AkHn5pnx1yonvo4PKU","DdzFFzCqrhtCpQNB9EUPtPcBMR8GJXnL9Vy2KjUdPDJsEVtkXcfDv45uizWRVv77sMXNM7qcLXkv8NSDjGvQxnMXuDoj4iYgtdNNxy8i","DdzFFzCqrhsjvWihjUZ8jAxfoHZkupxv1db6wMzygFxCxWGGpdzaGVFYaLrsmuyKPB9PsqnQcmwoo3fHE4dfTDmg1cd9sEZMfgou9FMf","DdzFFzCqrhsmGYwweqo93e2oN2E2LVJApfvCQidxv8TBwNxpz7V1pAMdrNn6cAj3Xv1aBgpcPEiab4qRcpJpQZBcCd5Gqb4CnraKR3jC","DdzFFzCqrhtAsTDpjZ6dxSP9vAdzQ2zQaA5yWY5nfbX36XejZH3Si3PFYcbiWnqgG59V1ApNhGiNqPFhJWd952Vk6Vm46TudXGq5VfwF","DdzFFzCqrhtAbAKcHzGpyu8hYToLZWZwK9cKoT1RCfZ2BTM3F5U6TGqTtoqd8zJSeLAT4qBqJtmkf9CUPo3rNAkNEufaxTyZy7e7vjuP","DdzFFzCqrhsizFX3rTHBG6Rb3o1qdG9bdx3SQNWPhBcEwv25Xvz3YPg81auV6bGiJkDYrx8pZUCahQzct3x8gvyNhzxDd8b2dhR6yyvb","DdzFFzCqrhtCpJ8tKUYr4A74UNkvb7ELYQuM3ighwb26tjw8Axa4aPsVT3jH8V5rXesQecCqRvZj1qQSvoebDRD8kf18ph5hkwEjt24J"],"addressesOutput":["addr1q9atjfpqwdtg7ytz0pz9zcaqvx8zr2uv6ysvc4csqynr683dzefudzxhadht99nh8gv4l3z93d486ygllgxuh2drrrpsdw6fws","DdzFFzCqrhtBb9rmp4LerJqXMG4rFnQWXAph7sPa54oubV2Yee5b68PttT4vjAAyQDrzT1jMoGBYjWhmK1hzsNpTyL8eLZvrQxLNiATA","DdzFFzCqrhshdLZUe71jE4G9dhtzwPu26UDhTgYQAgFG18wwwtXZFLPFSaNCyqgUvu66oYCM9oNU7ZAkG289MZjYSUv7E4iqKMP8iXc4","DdzFFzCqrhsv4xBNAmtkCEajsfAvngoWbQAqbPVLbBjmMwukS2gqUJeFsXuvRtXaUnXTG1wwi7baUt4xgjYSUnfVR24NhemRUNv6sDNd","DdzFFzCqrhsvYyg1zgzbjmBXa8RupGFbyjfMhPtWabqBxY1tmFQmsDbyLRcw75DTowsfprTu2XAzgSPQntYFtVeTFBb24NMLn6RmeCVH"],"fee":1098961,"totalOutput":58490434403,"tokens":[]}],"totalItems":12892,"totalPages":645,"currentPage":0}