{"data":[{"blockNo":8425746,"slotNo":85383471,"epochNo":395,"epochSlotNo":106671,"hash":"1587b713c6b51e70e00aea980091d8add4af930f0870e76389722c18621054eb","time":"2023/02/21 03:22:42","txCount":2,"totalFees":1455032,"totalOutput":110018494191,"slotLeader":"000000f66e28b0f18aef20555f4c4954234e3270dfbbdcc13f54e799"},{"blockNo":8425745,"slotNo":85383466,"epochNo":395,"epochSlotNo":106666,"hash":"71ea88c0e7f1620cc570d4bb291a607f998364168e244aae346faac1a3ca211c","time":"2023/02/21 03:22:37","txCount":24,"totalFees":7614391,"totalOutput":25493458342854,"slotLeader":"f76e3a1104a9d816a67d5826a155c9e2979a839d0d944346d47e33ab"},{"blockNo":8425744,"slotNo":85383433,"epochNo":395,"epochSlotNo":106633,"hash":"11a76e111ac009c500e27255ecbc74027947520f7abffdde5d4eb7ca6bcd602c","time":"2023/02/21 03:22:04","txCount":12,"totalFees":3690681,"totalOutput":88880217139,"slotLeader":"eaa778d97077ff7725fe4cbb70b514d840407a45a3c244ac05f6a83d"},{"blockNo":8425743,"slotNo":85383413,"epochNo":395,"epochSlotNo":106613,"hash":"e055b4451b87475a684d540fad8c09012f25ec8c9c9bcb524cc72488c9e92d96","time":"2023/02/21 03:21:44","txCount":3,"totalFees":859647,"totalOutput":10436334828,"slotLeader":"77b0a93c26ac65be36e9a9f220f9a43cbc57d705fc5d8f1de5fdeea1"},{"blockNo":8425742,"slotNo":85383405,"epochNo":395,"epochSlotNo":106605,"hash":"4561467d9608dbb9080e14465e949fbb9334e899aad77ee65bb01bcd48906007","time":"2023/02/21 03:21:36","txCount":11,"totalFees":4430088,"totalOutput":2771961794100,"slotLeader":"b07dde7ad2e458a89177d4e10cd657309d9e36a79ef1edebb60b414f"},{"blockNo":8425741,"slotNo":85383395,"epochNo":395,"epochSlotNo":106595,"hash":"d2cd694655fd08e7f942d688bd3848b9ac202177fce7fd496bf48cb13c4cf9a1","time":"2023/02/21 03:21:26","txCount":2,"totalFees":712154,"totalOutput":2174735603,"slotLeader":"c4039f4fa97ed735b884800d6d605dbc65fbe995c4ba70b532e162a2"},{"blockNo":8425740,"slotNo":85383390,"epochNo":395,"epochSlotNo":106590,"hash":"5008f6f4c281bcce68b30a31d7d1b2fe94f59701586eea2f2381e93f6a5ceb13","time":"2023/02/21 03:21:21","txCount":4,"totalFees":749786,"totalOutput":15905302395,"slotLeader":"90ac71b92a4c29f7a9bbde83ba2e6e2c17b69e41db204a55e7a338ae"},{"blockNo":8425739,"slotNo":85383383,"epochNo":395,"epochSlotNo":106583,"hash":"f4dcd77ae5a94e988d16237478fbf93436dc4e05b7172e9313d887cc40e19d3e","time":"2023/02/21 03:21:14","txCount":18,"totalFees":5493495,"totalOutput":2290298140383,"slotLeader":"a56e07cb5cd11a2d2b6bff3c6ecbc7ddc79205e2831560792f06e795"},{"blockNo":8425738,"slotNo":85383365,"epochNo":395,"epochSlotNo":106565,"hash":"cffb8055a207580ae191b5914985534c8a70bdf89662869af04175ff1c387b9f","time":"2023/02/21 03:20:56","txCount":3,"totalFees":658291,"totalOutput":1654185177,"slotLeader":"b91e740582b7166b2238c19dbb081de4cb86be0b27ead58401510c05"},{"blockNo":8425737,"slotNo":85383361,"epochNo":395,"epochSlotNo":106561,"hash":"7c288ae3eb054977b7d9509d53d1bf4dd486fcb968e429d734d944d23fa3720a","time":"2023/02/21 03:20:52","txCount":5,"totalFees":1666189,"totalOutput":10616716548,"slotLeader":"b6ad3e6e873a7654e68bdfe5922c86d506cd5e9299fbc3aaab3e84bd"},{"blockNo":8425736,"slotNo":85383354,"epochNo":395,"epochSlotNo":106554,"hash":"af3ab27d2892b4c4b28fed8ca5035de6f7ed815c141daf92fc11096885a37933","time":"2023/02/21 03:20:45","txCount":5,"totalFees":1254064,"totalOutput":9889342902,"slotLeader":"7c30ca03866f2e3c615a70783bdbd58b668807276e2220dadddbe0c2"},{"blockNo":8425735,"slotNo":85383346,"epochNo":395,"epochSlotNo":106546,"hash":"56970a78962a761bfe67f52bfff5e12897fb7935638b756dc7445e0bc00fd347","time":"2023/02/21 03:20:37","txCount":18,"totalFees":5763516,"totalOutput":27083233497171,"slotLeader":"675304517e38e66880714b3c4816f47866c302edafceb96945fd056f"},{"blockNo":8425734,"slotNo":85383312,"epochNo":395,"epochSlotNo":106512,"hash":"056419024c372ff877e8888fc0b7d263270ea201b7da206c80a7287fd11a947e","time":"2023/02/21 03:20:03","txCount":12,"totalFees":3251754,"totalOutput":98134293287,"slotLeader":"2146dfb28bb438d70cd5f7532357c81b6ab25d55163094c9618ab8fc"},{"blockNo":8425733,"slotNo":85383290,"epochNo":395,"epochSlotNo":106490,"hash":"8491e5fa933f79995dd57e8c2aca34c85349e7187b1ac7efb05130da17525ed0","time":"2023/02/21 03:19:41","txCount":30,"totalFees":11017511,"totalOutput":10113112036065,"slotLeader":"41b8741536cd484687a4c3adcdc07211cfce03ca58727212336acc5e"},{"blockNo":8425732,"slotNo":85383257,"epochNo":395,"epochSlotNo":106457,"hash":"1dc3afb0da17ef85095d2d792b916d18211a6906ff7efb1bcc8be85fc5870dd7","time":"2023/02/21 03:19:08","txCount":2,"totalFees":924061,"totalOutput":99339811,"slotLeader":"c5293f2ba88ac474787358b9c2f4fae7b3c4408f79cdf89a12c9ece4"},{"blockNo":8425731,"slotNo":85383254,"epochNo":395,"epochSlotNo":106454,"hash":"f37f0ad5d4d18c92f7dcdbc9c8ac2e9daa5315cffb39d9a3d44b4bd14a851be2","time":"2023/02/21 03:19:05","txCount":4,"totalFees":1384704,"totalOutput":48177052557,"slotLeader":"e0ac9f1b68d0621a4e6723f369a50e81f27916acb7cd42bc03eaac93"},{"blockNo":8425730,"slotNo":85383242,"epochNo":395,"epochSlotNo":106442,"hash":"8ee7fb253ba64644a293ba26d60784e2f2b7abed6fbd80a592ffd301e65a298d","time":"2023/02/21 03:18:53","txCount":13,"totalFees":3527540,"totalOutput":19049641767953,"slotLeader":"db3ef28510cc87c6a2f2b83c50707c40d8024438c8a61f24ac16a33f"},{"blockNo":8425729,"slotNo":85383225,"epochNo":395,"epochSlotNo":106425,"hash":"a2e8575630fbe89db9c692057fb96e826dc2da52ce75bf64bc52a5128867f31e","time":"2023/02/21 03:18:36","txCount":10,"totalFees":2985415,"totalOutput":18544519697699,"slotLeader":"fdc55442d4c89bfa42bb62ac640ed710afd6eb79531e6dbb8459eb46"},{"blockNo":8425728,"slotNo":85383202,"epochNo":395,"epochSlotNo":106402,"hash":"968db5a99b28ad6f065737684a426d792bf4cda6bf7d6172e83f2b22208e1d7c","time":"2023/02/21 03:18:13","txCount":10,"totalFees":5038391,"totalOutput":4729899240985,"slotLeader":"f17566678e30c1c75dd39e68829723a3c1aeff1d4f8924c6cdd18746"},{"blockNo":8425727,"slotNo":85383190,"epochNo":395,"epochSlotNo":106390,"hash":"100763c1b437ea78285c04caf0d3d2c1e2142f4bbcb1e0563478e3b18462473a","time":"2023/02/21 03:18:01","txCount":13,"totalFees":4139532,"totalOutput":631090140578,"slotLeader":"a37fa22b02a007a80ea13555c28341987bb61193c258a1e03db7f3f6"}],"totalItems":8425922,"totalPages":421297,"currentPage":0}