{"data":[{"blockNo":8314607,"slotNo":83071983,"epochNo":389,"epochSlotNo":387183,"hash":"39b47d78fcd2ec67a033ecfd21fc0a82e0cb787a892f34161644525f10920a23","time":"2023/01/25 09:17:54","txCount":9,"totalFees":4203884,"totalOutput":105906499067,"slotLeader":"b619d366a0acc2e5a8e0f8e373d6eb926a01811f05a381aaa7a8564c"},{"blockNo":8314606,"slotNo":83071968,"epochNo":389,"epochSlotNo":387168,"hash":"f4376cd9df9a0d51570493b39f8bdfa196e356bd7ace4de9b5c7be8dd669b93d","time":"2023/01/25 09:17:39","txCount":12,"totalFees":5851752,"totalOutput":183730578486,"slotLeader":"da482311081902f95d08bb05d878126904a1e133dd06901e05e652ce"},{"blockNo":8314605,"slotNo":83071955,"epochNo":389,"epochSlotNo":387155,"hash":"51698f80338cb59087b4bfe20674d6848a49d84dda3f0787eac205372d79e261","time":"2023/01/25 09:17:26","txCount":3,"totalFees":1300899,"totalOutput":257799824,"slotLeader":"7d45120fc9e82f8b69d886057d80630b721e8f033cb8e3f26621d7bd"},{"blockNo":8314604,"slotNo":83071953,"epochNo":389,"epochSlotNo":387153,"hash":"69f0b6595a8103af6fe7ab3c72b67f982ffd086747ddb8fecd61b1240d5954f7","time":"2023/01/25 09:17:24","txCount":1,"totalFees":298293,"totalOutput":427760478,"slotLeader":"fd30f95effb4f28920020901e3a4ad04f4d3585bc46953de762e8c0c"},{"blockNo":8314603,"slotNo":83071950,"epochNo":389,"epochSlotNo":387150,"hash":"0d0cb986d7f574003b3d50072de364958ed197ad0fd713822393ff1485187c38","time":"2023/01/25 09:17:21","txCount":11,"totalFees":4438500,"totalOutput":51409207318,"slotLeader":"cb87bf12be816ecd5cd6e167442670e4024d85e0005c8623651b371f"},{"blockNo":8314602,"slotNo":83071931,"epochNo":389,"epochSlotNo":387131,"hash":"875e7090e823f424cc79b7c2a331a315ffeb644ab895f663429ab1d66875174d","time":"2023/01/25 09:17:02","txCount":20,"totalFees":6784829,"totalOutput":1721688486886,"slotLeader":"22cfa3b8612c146a0737c974dcfcbb8cddd86f3a511cf531ce8d91a1"},{"blockNo":8314601,"slotNo":83071896,"epochNo":389,"epochSlotNo":387096,"hash":"bdbebd1816dcf2c7dd04130de3b048463d1a0307a587ce2adff0746358a2f627","time":"2023/01/25 09:16:27","txCount":4,"totalFees":878879,"totalOutput":200106356551,"slotLeader":"052100e65f3fa89fe1e2d3ae521446b2013b3c91ef5c7961e1b1a1ac"},{"blockNo":8314600,"slotNo":83071889,"epochNo":389,"epochSlotNo":387089,"hash":"6493abcd5eae3e2ab0feabf8cf208233b673f5a439c2f90eeb35b4704d4a7c3e","time":"2023/01/25 09:16:20","txCount":0,"totalFees":0,"totalOutput":0,"slotLeader":"bce696401137ff3d305e6a8dbb6ac0cd9b41570bda42deb4e83d86f2"},{"blockNo":8314599,"slotNo":83071888,"epochNo":389,"epochSlotNo":387088,"hash":"c6083e337cca4c3c3302b4ef79ace3b5eec2b0d1d6fa7322f6630baffc1a7c52","time":"2023/01/25 09:16:19","txCount":9,"totalFees":3261398,"totalOutput":106224392424,"slotLeader":"3a2c7b31a5024ea2cfed07205500a4d55f9d71f2691227d77bb2dc66"},{"blockNo":8314598,"slotNo":83071882,"epochNo":389,"epochSlotNo":387082,"hash":"a965246c44585c778cfc1f649e070111140ed91d73907b187cc38be3457dca4a","time":"2023/01/25 09:16:13","txCount":16,"totalFees":5281636,"totalOutput":1067883622273,"slotLeader":"024dcb42f0aa6d81a7e26ccdd525a2ed3e9665d126b38ba0f8b77b50"}],"totalItems":18611,"totalPages":1862,"currentPage":0}