{"data":[{"txId":55950910,"txHash":"4e7f8737dac8a8b4c13fc8359ad2d95ee9c38a007f1a916031a0c51949aff992","txTime":"2022/11/25 05:29:21","block":8057329,"epoch":377,"slotNo":77787870,"epochSlotNo":287070,"stakeKey":"stake1u8cg5tctymentcwkc32ew4tay4kx5cf8pt86jw63ca7j6fglmpn6h"},{"txId":55950314,"txHash":"ad5370b0fe65e35be8e08af2528b663cab415d5af55169c8da81d932898adfc1","txTime":"2022/11/25 05:09:05","block":8057271,"epoch":377,"slotNo":77786654,"epochSlotNo":285854,"stakeKey":"stake1uxhu28jhwjs5wwxa2ch6lr3qn2w45vczqdw60p7p2h3e7uqnptvv4"},{"txId":55950090,"txHash":"474644047ff64d803d37133c224183d623553958595bee85d403003bc4045549","txTime":"2022/11/25 05:02:05","block":8057255,"epoch":377,"slotNo":77786234,"epochSlotNo":285434,"stakeKey":"stake1uyuwmhz6h8x0azjcn8dtjgq580pl9vvkfjdelsk9av05lvq2sfey0"},{"txId":55950039,"txHash":"e2e2dd224c6fafc833f762a355573f27f1301c3c3802f60af299101f8810911b","txTime":"2022/11/25 05:00:38","block":8057247,"epoch":377,"slotNo":77786147,"epochSlotNo":285347,"stakeKey":"stake1uyy90h04c5sq04nn4p4sl99h2u3ag3nppc9v3pxf7dghphcfr8tqa"},{"txId":55949751,"txHash":"472941100d9e237b7757c25b8600916b80c698089a9def2519bfcef1c24f9224","txTime":"2022/11/25 04:51:53","block":8057220,"epoch":377,"slotNo":77785622,"epochSlotNo":284822,"stakeKey":"stake1uy3nnd7yvykp6fyw3f6r0njr5yehaee5xzr6fwpqqqdjg0smwww46"},{"txId":55949716,"txHash":"7616b5e7af17dc77cdf7c97c85bf3edd5020f3590563b369f8f9a3aff543ce56","txTime":"2022/11/25 04:50:58","block":8057214,"epoch":377,"slotNo":77785567,"epochSlotNo":284767,"stakeKey":"stake1u8t4gx3gay2xhwf6dvwuyq07upjmlcsprdvj4k9fnv4q43q9hdwgj"},{"txId":55949249,"txHash":"29c30dc29a51e217dc1570f2d45a21d91c87656730a2509f8f9ea6c107772b1b","txTime":"2022/11/25 04:36:32","block":8057164,"epoch":377,"slotNo":77784701,"epochSlotNo":283901,"stakeKey":"stake1uxhf7qdw7yd85hs6sttmm2xfxcsuzkut948hc84rhlnw8dc3wrvwf"},{"txId":55949150,"txHash":"98f16bbab847eb2ab3c1abd94695319a400c3ddcebcb66708e7f1ebf0a6d14f0","txTime":"2022/11/25 04:33:03","block":8057156,"epoch":377,"slotNo":77784492,"epochSlotNo":283692,"stakeKey":"stake1u94jh7yfeyezxfr6vp2tcnefe2w6u57pugy96dx67zzma5gtk5mpl"},{"txId":55949088,"txHash":"132093326cbe8fb071ab0e682aad8cf980cc0d7e43365bf2e29530c697ee753a","txTime":"2022/11/25 04:31:09","block":8057151,"epoch":377,"slotNo":77784378,"epochSlotNo":283578,"stakeKey":"stake1u8ylkhkaphs7ah45sxtq6z8x8czej0zzkedhtwxn235j3vs3563dp"},{"txId":55947473,"txHash":"cac9c06cdf24fc02367216297983940845f0c6344d87586f79532915c1f83fde","txTime":"2022/11/25 03:42:28","block":8057008,"epoch":377,"slotNo":77781457,"epochSlotNo":280657,"stakeKey":"stake1uxqg26u0wnv3q6qahu2dd5h0u20ep3jfc7jvy04v79vyvtsqpt57x"},{"txId":55947413,"txHash":"879262a12ed9498bf64774bb40956e563f6ecd527fb3c8a4af5019301f972898","txTime":"2022/11/25 03:39:26","block":8056998,"epoch":377,"slotNo":77781275,"epochSlotNo":280475,"stakeKey":"stake1u8a0nkfk3cj5z00rqgaqudts0w4eppjqcudw086ctpkrhdswveyd4"},{"txId":55947330,"txHash":"089bb3de31e72de8a784f5a066c8372a2109382a2c3e929ed751d066f57860f9","txTime":"2022/11/25 03:37:19","block":8056991,"epoch":377,"slotNo":77781148,"epochSlotNo":280348,"stakeKey":"stake1uxpqvzfmuamhjrptyexptg7hk8g7cp7x4d77klevvntjfhcw85ydu"},{"txId":55946758,"txHash":"107a4150f49e417d7ecbc7740b11fe29cf5a9087f7a6da6c715672e76a6eb720","txTime":"2022/11/25 03:23:16","block":8056950,"epoch":377,"slotNo":77780305,"epochSlotNo":279505,"stakeKey":"stake1u8yj3m65ae84jhqqlu2twdq9kkcsuac4sck07lzakht7clsn5wy3h"},{"txId":55946641,"txHash":"08c86bd1104bb7075c60ded0a8ea26913cccf86ca0942ab906c656e59fd6a2be","txTime":"2022/11/25 03:19:34","block":8056942,"epoch":377,"slotNo":77780083,"epochSlotNo":279283,"stakeKey":"stake1uxn6aw7jyguql42uyytmc26wysjgcfy5qra6dzl5tp6hjxs73m2hm"},{"txId":55946558,"txHash":"0a25e03fbe224de59447c8372da08afec5e059d9278097649e015da276247fc6","txTime":"2022/11/25 03:16:33","block":8056933,"epoch":377,"slotNo":77779902,"epochSlotNo":279102,"stakeKey":"stake1uxta56rek0pz6gvt9kv7tyxq8qmx7ythcqnqj86xanhlkdsd2dpkw"},{"txId":55946386,"txHash":"199f5e71b2ef440bbfb0ae81f752328bb866ddb120c10ffd8e97a33ef8803593","txTime":"2022/11/25 03:12:00","block":8056917,"epoch":377,"slotNo":77779629,"epochSlotNo":278829,"stakeKey":"stake1u93m4yy8lwpq59gjtsdt6wt0mxl9qavx7mk08ugxk0fnsyce5vmav"},{"txId":55945704,"txHash":"bac1932d513e8a4245beaf32f1fd2612b097230b486decf3c487fee244fde874","txTime":"2022/11/25 02:54:38","block":8056861,"epoch":377,"slotNo":77778587,"epochSlotNo":277787,"stakeKey":"stake1uxg6hvv0pylg0xdqv2mjq3mrf2lusqkqzth2r9dtdh4t68cfe9erw"},{"txId":55945238,"txHash":"230af2b74969e22b7bef913988005f2d6efc535abad923878f5799ed225b1ec2","txTime":"2022/11/25 02:42:36","block":8056818,"epoch":377,"slotNo":77777865,"epochSlotNo":277065,"stakeKey":"stake1uyg3yqhz2qnls3unje7net7rtmhqczr9grcuzg5dgnx6hqcpe68rd"},{"txId":55945073,"txHash":"16e8605769cf6a13e5d3dbf8d3d057dfd0a1476308165fb5f44d9abcce7b387e","txTime":"2022/11/25 02:39:40","block":8056808,"epoch":377,"slotNo":77777689,"epochSlotNo":276889,"stakeKey":"stake1u887pmpseqqe83ahj2y7sx7ra2tn29kzuy69d6rxnr4wkdqmw34rf"},{"txId":55944744,"txHash":"cb058df7d2776ae1d05f5b57653d230af25f7b3926dc80e534a621790f01c2af","txTime":"2022/11/25 02:31:05","block":8056783,"epoch":377,"slotNo":77777174,"epochSlotNo":276374,"stakeKey":"stake1u9fplmhr7s2v804wxxravtsuddxny4zz7q87hyzm95wn4ust84z6e"}],"totalItems":332912,"totalPages":16646,"currentPage":0}