{"data":[{"txId":56967794,"txHash":"3a5f684f27031fbe66dfa5b5d199109c1e7bcbb71a8eeb7e4e49054456d0f4d1","txTime":"2022/12/09 15:20:55","block":8117961,"epoch":380,"slotNo":79032964,"epochSlotNo":236164,"stakeKey":"stake1u8h8yynfanevs466yjtz4e4q85z2vmvsx9t985gkzpcc5kc68sx7a"},{"txId":56967785,"txHash":"8fd4b0157daee078c028a9c003c7e320e6bab6b127c1d816870c73df53488c19","txTime":"2022/12/09 15:20:55","block":8117961,"epoch":380,"slotNo":79032964,"epochSlotNo":236164,"stakeKey":"stake1uxf236hvkvgp0dtug83n6uzx2kmltm9v9532sgst0kjtajc632htt"},{"txId":56967754,"txHash":"d2f07b348428fe91dcb4cc12de77961a06c99a5049bf6e0499738d406443a4a1","txTime":"2022/12/09 15:20:36","block":8117960,"epoch":380,"slotNo":79032945,"epochSlotNo":236145,"stakeKey":"stake1u8ssenfv8l5j7qc5yj7j8v4mkrgkjwqyr3dcrw6s5huprhsw80ux2"},{"txId":56967442,"txHash":"7e889d1dc6ff8082707e804540128d3b6fb8cd75b2c79744b82cf3c9adb94a97","txTime":"2022/12/09 15:14:53","block":8117945,"epoch":380,"slotNo":79032602,"epochSlotNo":235802,"stakeKey":"stake1u9k88u8wfncsls3eupnmx27h99f780mnacpmxz6cta7l95qszrp3c"},{"txId":56967211,"txHash":"973a512b409b3b198885cf2f8c5773d256a77a7f31bde4abdfb1ff720b26dc46","txTime":"2022/12/09 15:10:33","block":8117932,"epoch":380,"slotNo":79032342,"epochSlotNo":235542,"stakeKey":"stake1u8njfh7rceetgzrpwr03xwnvw6geg382rkcuv5palj7uluslp87gm"},{"txId":56967099,"txHash":"e6dee891f2b85b98c942be129664dfc343b96a0c08658b688372469c7de27276","txTime":"2022/12/09 15:09:20","block":8117927,"epoch":380,"slotNo":79032269,"epochSlotNo":235469,"stakeKey":"stake1u9gcd9k7jzns78jvqazzmc2nayczaag5g3fh67vhwmjp0eg52sep8"},{"txId":56966975,"txHash":"187561e284d7b01b46d989a16d00cc87019d02eadd6d8ca9eddf5e436a859160","txTime":"2022/12/09 15:07:32","block":8117917,"epoch":380,"slotNo":79032161,"epochSlotNo":235361,"stakeKey":"stake1u8z0urmkld8sptv3jd7j0sp3a97hue8rzk2rha66vfytaagqrnwly"},{"txId":56966922,"txHash":"dfff47b47385de245988d3e284ba5f088f57d94b2b5f589f32edb68bc9c35ab9","txTime":"2022/12/09 15:06:23","block":8117914,"epoch":380,"slotNo":79032092,"epochSlotNo":235292,"stakeKey":"stake1u9cztlxh54wp8j4azlm32wcp6wzm23zjv5afjfc0lmlk72cdgzpsw"},{"txId":56966747,"txHash":"3d92ee87c656d9d3008b6e7e76f4205a9ec55803baa1a04c75b565e401c0de2f","txTime":"2022/12/09 15:04:31","block":8117908,"epoch":380,"slotNo":79031980,"epochSlotNo":235180,"stakeKey":"stake1uxjgsdz8qqh8lg092yju4uau0a5ljs6drx3emmp2qc58lacfkwf03"},{"txId":56966634,"txHash":"bc9efe8bb0e9bbec646ccfa4b3479c27001fa4fb3a7ed04bff100eea6dbdd9b7","txTime":"2022/12/09 15:02:58","block":8117903,"epoch":380,"slotNo":79031887,"epochSlotNo":235087,"stakeKey":"stake1u9xug9sc5p8es0enf3kx6408t899m2dvmygt9tutdn0d0hqah0c94"},{"txId":56966479,"txHash":"03cf34a515f1f438bc7ea4c49d22808ad9845826d71e47490f1bd7395e866698","txTime":"2022/12/09 15:02:02","block":8117896,"epoch":380,"slotNo":79031831,"epochSlotNo":235031,"stakeKey":"stake1u8jf9fl9vttsdz4gd5c63q77qc5wjnyc4y8zhr3gvtcq54cmsge8m"},{"txId":56966431,"txHash":"9c246ef3492601a637465ceb702c123cb6d2e9a1892ff69332457080e06bbea1","txTime":"2022/12/09 14:59:42","block":8117893,"epoch":380,"slotNo":79031691,"epochSlotNo":234891,"stakeKey":"stake1uy30r0azyasrqt6uk5tmqqltel7zzj2tt5c72gfj9trfvlgh0lazv"},{"txId":56966382,"txHash":"2aa1125ccba76e2bc75a17e6cd583ea78c253fa28b82cae2ff22bae3cb0b04df","txTime":"2022/12/09 14:59:34","block":8117892,"epoch":380,"slotNo":79031683,"epochSlotNo":234883,"stakeKey":"stake1uyck5wz7mghjql3kgzqdds85zeztkd3mnftx38lqkrfkktgmv6ymp"},{"txId":56966313,"txHash":"e3c2689e217c967d0496fccc5ac93f346caee2d515eb23759fec57e8ed9b5ab9","txTime":"2022/12/09 14:57:27","block":8117888,"epoch":380,"slotNo":79031556,"epochSlotNo":234756,"stakeKey":"stake1uxjnv38kj94tjpdnd6fch36jkqjvmnsz9ed2s3mxqvlg66svaxm9j"},{"txId":56966111,"txHash":"f01c5e0d846beb8a1981bc97df15998a69d041e599a1a05895650cc7161edc7d","txTime":"2022/12/09 14:54:03","block":8117881,"epoch":380,"slotNo":79031352,"epochSlotNo":234552,"stakeKey":"stake1uxxgxu3n6tr6qphze3vlgy5l2um5un6mkw3wy483vqxkvps8htyyn"},{"txId":56966053,"txHash":"1a5695a3f0f35631f22e2e4ecff367c8bd6f0f6de9c23936167b284096fe585e","txTime":"2022/12/09 14:52:13","block":8117876,"epoch":380,"slotNo":79031242,"epochSlotNo":234442,"stakeKey":"stake1u8s3g6zfqwxyuqvh3x8xlnla037cc8hap7fqlhpqk2xek3c8avrv8"},{"txId":56965995,"txHash":"67f1c14622d2a2d398c08930238a35e011d6975e744b3b12e4037034091e0672","txTime":"2022/12/09 14:51:17","block":8117871,"epoch":380,"slotNo":79031186,"epochSlotNo":234386,"stakeKey":"stake1uxk9av4s2psuwj29333ajgvntxumcm6qu59l3qtketawxtg4nm2cg"},{"txId":56965908,"txHash":"7ede1ea9b6ef82b20ff57de0f488beca2dfa364e662decb35b2ad7714e41689f","txTime":"2022/12/09 14:49:50","block":8117864,"epoch":380,"slotNo":79031099,"epochSlotNo":234299,"stakeKey":"stake1uyfsme64frw3e7ez2mm6zr5us37quza9fxgaeg956hcnufg52hqcp"},{"txId":56965633,"txHash":"ec1408be6f871025c0cea37d57b3cab1fb014306d8eb593863b61fd9690b4c2c","txTime":"2022/12/09 14:45:16","block":8117845,"epoch":380,"slotNo":79030825,"epochSlotNo":234025,"stakeKey":"stake1ux6vjy9kcs4qf8swadtgzf5f6t8jha4celdnv7fd5h8530sp28af9"},{"txId":56965572,"txHash":"9f99e3283001b406a9067bd8c2730bfd2056ef2f449898f2188741855a207f6b","txTime":"2022/12/09 14:43:58","block":8117839,"epoch":380,"slotNo":79030747,"epochSlotNo":233947,"stakeKey":"stake1ux0uu6tf7kvwvfu3hwk30duwch5afss0luwkfmsvjlm5zvsqgfpn2"}],"totalItems":1618322,"totalPages":80917,"currentPage":0}