{"data":[{"txId":59545671,"txHash":"76ab0e50d2447ae828ea2d45d78c7f917c217e7ea13ccc4875cf9b1da17a0490","txTime":"2023/01/12 20:46:32","block":8262006,"epoch":387,"slotNo":81990101,"epochSlotNo":169301,"stakeKey":"stake1u8mgp6fftm6uyvtpzwv06jggcl3tf6pgraunetzmh2r0xfcdunrvm"},{"txId":59545654,"txHash":"cf5046aa2ee6a391773e8b355fb892dfcb71f6d1a36b400f8c6080cd5be5a955","txTime":"2023/01/12 20:46:32","block":8262006,"epoch":387,"slotNo":81990101,"epochSlotNo":169301,"stakeKey":"stake1uxkhah0jj80h29k6czpplgswwu2jxp0jhd2elg6sq0yjmrspvz9y7"},{"txId":59545547,"txHash":"a0c5422a464a9667d37457ab9bc109847a444edc35ed372e23459e73889703e6","txTime":"2023/01/12 20:44:07","block":8262002,"epoch":387,"slotNo":81989956,"epochSlotNo":169156,"stakeKey":"stake1uy3g20j9acrdp7n9efdreuu6nmu0a40jektduya3lz9hsec96pdqa"},{"txId":59545349,"txHash":"a416ed1d7cc77ef9a9ad7b4883cd05bf15f15ac943567f96b7d90661e1ca7d20","txTime":"2023/01/12 20:41:11","block":8261993,"epoch":387,"slotNo":81989780,"epochSlotNo":168980,"stakeKey":"stake1uyvpr589hl2x43xdyd4sr9r55r2vmd6zd5kpsj895vh27ucw9h2m6"},{"txId":59545264,"txHash":"265a8c22f4cf5a82a99168cf44060a7401e7a02e5bdb93edafc4d788fda3dcd6","txTime":"2023/01/12 20:39:53","block":8261990,"epoch":387,"slotNo":81989702,"epochSlotNo":168902,"stakeKey":"stake1u9dhamslkqj8e3k05uptxflg28hpffxll9xmv2sgz0zar9g7r3hh3"},{"txId":59544960,"txHash":"a8ae1f21a4452480afaa3105f4d4ba5a65f7987ca5e12081e3ae7db68214072c","txTime":"2023/01/12 20:35:18","block":8261971,"epoch":387,"slotNo":81989427,"epochSlotNo":168627,"stakeKey":"stake1u869pv7q54y57xx4esjx5s50g2fghje4hddjx985xrvjznsjf8mcx"},{"txId":59544912,"txHash":"bd8543f62ef0825ead84931bd62882ea24d872e54a486f3a58f8f940c5d7b7ee","txTime":"2023/01/12 20:34:55","block":8261969,"epoch":387,"slotNo":81989404,"epochSlotNo":168604,"stakeKey":"stake1uxy6hhvvcgxx2zhs2kjrpn3j5azu988vzgwqjasauhaxf3qfj36cp"},{"txId":59544832,"txHash":"30b48e4cf3f627ef5a7641e0135b43ed2203e22f73bb09c17b85ef55ba468b98","txTime":"2023/01/12 20:33:39","block":8261966,"epoch":387,"slotNo":81989328,"epochSlotNo":168528,"stakeKey":"stake1u9zhvkfz6ne8v2twyl7u0pvfkd0cd9tpu3vfxer42qncf8qss7e9s"},{"txId":59544292,"txHash":"81c16e720be2bfbfc9f5163fb1eb62424ebb97a11d0290f8576a4bb3799ecc54","txTime":"2023/01/12 20:26:25","block":8261948,"epoch":387,"slotNo":81988894,"epochSlotNo":168094,"stakeKey":"stake1u9eumcw4t9usa7v59hq7ndywakvcd5z3rjfcds2z2zarwfc7w4pgy"},{"txId":59544085,"txHash":"1df1b27e5333894e8cc0b176188f7d8e26ecccda670e797ec9830ecd1569e38a","txTime":"2023/01/12 20:24:22","block":8261942,"epoch":387,"slotNo":81988771,"epochSlotNo":167971,"stakeKey":"stake1uypjzj64zut2vkqjdtv5882zqtyvwgdlwa0c97avmdy3cesujxchx"},{"txId":59543756,"txHash":"d3c7c843a745e7f47f5d9353cbbfc0602804536ee54f1b0f9d550edfe05b81a4","txTime":"2023/01/12 20:18:54","block":8261930,"epoch":387,"slotNo":81988443,"epochSlotNo":167643,"stakeKey":"stake1uyepyugj8dhpj2vrm7vavu4vqs549yhr6hgt0qrvar0a0zcfe7ypw"},{"txId":59543577,"txHash":"342eb86a1078bdcfc966472ba28c2fe087f260082879df88ed1529e149149a8e","txTime":"2023/01/12 20:16:42","block":8261922,"epoch":387,"slotNo":81988311,"epochSlotNo":167511,"stakeKey":"stake1u8pu5q2ng4s2x8s4vx0rt2nrfqvwl7acall832wuapgqcgc9ykmdp"},{"txId":59543501,"txHash":"8cbe18bb774ef804b4c55be7650870548d5b1a8e1207bdcbd67871e77944386f","txTime":"2023/01/12 20:16:05","block":8261920,"epoch":387,"slotNo":81988274,"epochSlotNo":167474,"stakeKey":"stake1uyv5hncqsuhq4mwe57j6x692knd94py8ast438h5ht07cfqlgxvru"},{"txId":59543096,"txHash":"77c5400e84a1eed5d50ad82656549eb71201ef85410e6b3c752a56385a77ffb3","txTime":"2023/01/12 20:09:17","block":8261909,"epoch":387,"slotNo":81987866,"epochSlotNo":167066,"stakeKey":"stake1ux3wvcnf4u03rs7caty4zs5t578cqfm4scmufqx8lu0kasgf6a0dt"},{"txId":59542869,"txHash":"43074fcd6f806a9a2ca2176d1cd44011316668aa252ea1b441fe0ef6572a0b3e","txTime":"2023/01/12 20:05:39","block":8261901,"epoch":387,"slotNo":81987648,"epochSlotNo":166848,"stakeKey":"stake1uyd88xktlmvks5c7dtu0u6qcn4de4yawcd3wz8vq4qsqc2c7kwrtk"},{"txId":59542821,"txHash":"ed9197ec8e974d8a7056204d9bf494b85b8df29d08e888c95f0be5b9eeebbeb2","txTime":"2023/01/12 20:05:34","block":8261900,"epoch":387,"slotNo":81987643,"epochSlotNo":166843,"stakeKey":"stake1u8q33lknxyv7rt9vtjjdme7dkxnwreajjhnxs0z9shvnkugy2wu22"},{"txId":59542781,"txHash":"60c1f09279690c1e0ed61e41400f679f918e9a8d8c8365d573b1da3f67649fa1","txTime":"2023/01/12 20:05:11","block":8261899,"epoch":387,"slotNo":81987620,"epochSlotNo":166820,"stakeKey":"stake1u9je774n024as62er0t6tuydscm332ystrj9hvn3vragmlctqa84k"},{"txId":59542690,"txHash":"7a4f7f5a0de62e90b89681f8deffbd0c6d8702c77994a76b7810600f9f7a74a3","txTime":"2023/01/12 20:03:00","block":8261897,"epoch":387,"slotNo":81987489,"epochSlotNo":166689,"stakeKey":"stake1u8m3m52t276mqpq6psdn29mufjsduy4d7lqfx2a3vphkw9q8lmxhw"},{"txId":59542330,"txHash":"bc3d6b9c091bfe086f8c2841c257e56a5443b0309e408da9e7b29dc1917a310b","txTime":"2023/01/12 19:58:12","block":8261880,"epoch":387,"slotNo":81987201,"epochSlotNo":166401,"stakeKey":"stake1u82aw8pks3ypckqpsmk05h58ens5xzkkhnyng2c3tdxjqhqf8nrwv"},{"txId":59542015,"txHash":"19d5b63f377b9e813e82507cd12d9fbeee17c2f9a3088b8380a3704a67428b55","txTime":"2023/01/12 19:54:20","block":8261866,"epoch":387,"slotNo":81986969,"epochSlotNo":166169,"stakeKey":"stake1u8w4vz7pccawphalgnt5slyt4tp8h45m2kcgufgkqurg6wcxw4xvu"}],"totalItems":344112,"totalPages":17206,"currentPage":0}