{"data":[{"blockNo":7962648,"slotNo":75827123,"epochNo":373,"epochSlotNo":54323,"hash":"87d5ab4807e43a4c9a85dc2e8fe3a213ec47fc63c1a5a37a5155b0d5613de3d4","time":"2022/11/02 12:50:14","txCount":7,"totalFees":2495280,"totalOutput":413253239612,"slotLeader":"99127328c3fed20710b0b807f32b10ccd731125b30de38b9ff973a01"},{"blockNo":7962647,"slotNo":75827119,"epochNo":373,"epochSlotNo":54319,"hash":"7b5502be2cdcd0befc808df7593f83892ea832b77343b05efc2efc08faffa274","time":"2022/11/02 12:50:10","txCount":15,"totalFees":5891832,"totalOutput":13179325965,"slotLeader":"c7e431518477a4156c2a8cd6523a6a73514e7fbbbf7eed363b9a22ad"},{"blockNo":7962646,"slotNo":75827102,"epochNo":373,"epochSlotNo":54302,"hash":"6fc10158fc5e3ded04372b006c9c6c1074e0f65c7851ddd00fc74cd201a42353","time":"2022/11/02 12:49:53","txCount":10,"totalFees":3143790,"totalOutput":139836428367,"slotLeader":"9418abb33c7cf50778598371bc1f09fe5460d1dedf740faea665f4ac"},{"blockNo":7962645,"slotNo":75827087,"epochNo":373,"epochSlotNo":54287,"hash":"c9791a3f0653142f416fe3684dbd665b27fb7ef0faecb96b55dfca35879a4132","time":"2022/11/02 12:49:38","txCount":7,"totalFees":1634223,"totalOutput":31276012076,"slotLeader":"d61ab012cf4b0c24daf2447309638b25573f85b0a7e4ffdb60db9b22"},{"blockNo":7962644,"slotNo":75827079,"epochNo":373,"epochSlotNo":54279,"hash":"29606965feddfb35f9b67c80273801c4be883a9a1458c6559867c07017eece7f","time":"2022/11/02 12:49:30","txCount":28,"totalFees":9962516,"totalOutput":1446134619632,"slotLeader":"bd50ebea27a9e846bcd873c361ecb1a4d9baf738040d232882109fcd"},{"blockNo":7962643,"slotNo":75827055,"epochNo":373,"epochSlotNo":54255,"hash":"f31bfcb8e27fe5dbbb57b5f0ba67caf3cfb5785004073d21c3446faae3c31961","time":"2022/11/02 12:49:06","txCount":13,"totalFees":4856537,"totalOutput":13517570542,"slotLeader":"8e06d57e463f8a73f37652b23d126eeb52e6838168700d0478d32851"},{"blockNo":7962642,"slotNo":75827045,"epochNo":373,"epochSlotNo":54245,"hash":"6aad2314eae91c28a5ce286e4e74900d032c56625ad82d5a4f09e7037cd55de8","time":"2022/11/02 12:48:56","txCount":18,"totalFees":4414227,"totalOutput":18609128452,"slotLeader":"16f6e9a767dbb9400d3dbe9f7374eef7c706bda870592a7dabd47a75"},{"blockNo":7962641,"slotNo":75827031,"epochNo":373,"epochSlotNo":54231,"hash":"5086f80071ab7daf9f552c7af159b1d064d14aa0ced3061b9987c79523c7e430","time":"2022/11/02 12:48:42","txCount":32,"totalFees":9637316,"totalOutput":1664129335366,"slotLeader":"2bfa5943dfb17ecd8e681e7ce568e22ac45340a417bdde358e3f5159"},{"blockNo":7962640,"slotNo":75827002,"epochNo":373,"epochSlotNo":54202,"hash":"db65c86c450df3f46dc63f820cdb3d7ba2eafb58b6831f3becb954e244f7ab7b","time":"2022/11/02 12:48:13","txCount":43,"totalFees":13454962,"totalOutput":17725155517060,"slotLeader":"6539a70bb6e61540444133eab3a24288d1cd3ddc3598adde93475513"},{"blockNo":7962639,"slotNo":75826953,"epochNo":373,"epochSlotNo":54153,"hash":"04b127b6d2f40578def70c08122f6cc50e06ee41fd767187d8d49fe59e154369","time":"2022/11/02 12:47:24","txCount":6,"totalFees":1798283,"totalOutput":826107525869,"slotLeader":"fd832d27b5fbe0489409613f50e2139b54a21e613c8a7609dcff556e"},{"blockNo":7962638,"slotNo":75826943,"epochNo":373,"epochSlotNo":54143,"hash":"d1052ba2202cb64d611309e14a7e51083a35336bcc5b6eaa5aaf02c21fe2c8df","time":"2022/11/02 12:47:14","txCount":38,"totalFees":9969599,"totalOutput":19100554892769,"slotLeader":"83ea16a7f183288173077c54a1e2b3cbcd0f2336e1bc85e2cc6397e0"},{"blockNo":7962637,"slotNo":75826913,"epochNo":373,"epochSlotNo":54113,"hash":"f353393de611e8a4cdc5adcd51a22ed498c24169d8856a7667a9daefdb0f024e","time":"2022/11/02 12:46:44","txCount":5,"totalFees":2427791,"totalOutput":30166541051525,"slotLeader":"a24a0b7f7dec890db8c59c47646290522234a522a98f00cf2d589a80"},{"blockNo":7962636,"slotNo":75826910,"epochNo":373,"epochSlotNo":54110,"hash":"84c0f4fcdaf2149bc0fc73694fd1524d71a47589ee300cd2ea71fcb8b287a6a7","time":"2022/11/02 12:46:41","txCount":8,"totalFees":2737603,"totalOutput":14396364127,"slotLeader":"3d5f6d2a147cf3c97aed0d7ea973e6a95abdf94255025bdf470c9809"},{"blockNo":7962635,"slotNo":75826904,"epochNo":373,"epochSlotNo":54104,"hash":"04c04a01a65cf775e4693a7dc75a0a7bd456f8beac5579fa44c8a14bd6c833a4","time":"2022/11/02 12:46:35","txCount":35,"totalFees":12189701,"totalOutput":3697235969453,"slotLeader":"ce19882fd62e79faa113fcaef93950a4f0a5913b20a0689911b6f62d"},{"blockNo":7962634,"slotNo":75826877,"epochNo":373,"epochSlotNo":54077,"hash":"a426db6881ad36aff720af4e30db755bc2f6b83703d135e9937f56cf2eea6f1d","time":"2022/11/02 12:46:08","txCount":18,"totalFees":3727217,"totalOutput":89674661597,"slotLeader":"b44181287c72d0c7b1bce6a57173cdf739ac77d030bdfc4606138dd2"},{"blockNo":7962633,"slotNo":75826866,"epochNo":373,"epochSlotNo":54066,"hash":"e622999d0990b1d0b5e083ac8681b50ba0b8d18667008bae6089282e58b3a6c8","time":"2022/11/02 12:45:57","txCount":23,"totalFees":7796332,"totalOutput":142196077734,"slotLeader":"842dd6ff41539eb5a47a7915082458d8e7d592ae5e8eca23e26c7346"},{"blockNo":7962632,"slotNo":75826847,"epochNo":373,"epochSlotNo":54047,"hash":"93906a30ea2ad6b36a1a45c1e328addfb621f51cc735dafc0997de42147daa77","time":"2022/11/02 12:45:38","txCount":1,"totalFees":171749,"totalOutput":825544632612,"slotLeader":"585a5de1da253667d10c28d09b7f447b20d83810381b936d27641760"},{"blockNo":7962631,"slotNo":75826846,"epochNo":373,"epochSlotNo":54046,"hash":"ac4be6ea91faf043705fe7f8f0b3d4b62d396be1d00d5a8811f3e2cf8749dcee","time":"2022/11/02 12:45:37","txCount":23,"totalFees":6560315,"totalOutput":1895324595538,"slotLeader":"40183423c226189d508db4b21bf94b790cf4d096134a9afbc2bd5318"},{"blockNo":7962630,"slotNo":75826825,"epochNo":373,"epochSlotNo":54025,"hash":"f997245a581686658078bd8ad911bea8996fa2e7c9082eb9bfef518f3c1a3afa","time":"2022/11/02 12:45:16","txCount":19,"totalFees":6669027,"totalOutput":504720223902,"slotLeader":"662796197f741c9b9f0d9830530d01300ee5c63f549784ff2ac81c17"},{"blockNo":7962629,"slotNo":75826805,"epochNo":373,"epochSlotNo":54005,"hash":"2142af7baee9bfb22dd28bc91ad1dd2310408b21ffa128aae69e3fbb5cd4cae2","time":"2022/11/02 12:44:56","txCount":10,"totalFees":4959715,"totalOutput":513605315951,"slotLeader":"4a2aa209e00f2926bd0d8a286592bbdea4d35a593c05d41efe29e642"}],"totalItems":7962824,"totalPages":398142,"currentPage":0}