{"data":[{"txId":29918661,"txHash":"c7d9e9d01bf44a8dd29bd287bbb1747ee95f7912a3746dbf5062fe81761bfd1d","txTime":"2022/02/04 00:14:51","block":6838379,"epoch":318,"slotNo":52367400,"epochSlotNo":354600,"stakeKey":"stake1u9c8wyu6scw6hyzknctymt0e65lr92g7pvncgy5u69r7yfqzqlhpv"},{"txId":29918510,"txHash":"757fc58742ba061856b7fc845a138e21a74ce5a6bd8ee8aad3f2440a26e02df4","txTime":"2022/02/04 00:12:32","block":6838372,"epoch":318,"slotNo":52367261,"epochSlotNo":354461,"stakeKey":"stake1u9n4d2lp0j39yqj72hsnlknjajhele7mnln08xmzl35wytc08sadv"},{"txId":29918351,"txHash":"48d0302aeedc7a12b5e32ec2f6607b1d3fd47ceae6e70a79876bf3240b4f0bc9","txTime":"2022/02/04 00:10:54","block":6838366,"epoch":318,"slotNo":52367163,"epochSlotNo":354363,"stakeKey":"stake1uysz50t5maytq8kq0qnkk3gpyhqptsj9685c3nyy6rx86mchfzd74"},{"txId":29917645,"txHash":"4cfe54652189b3f4dad4acb306b7b9a2288ba6e595fa036e80129a91ee674473","txTime":"2022/02/04 00:02:05","block":6838340,"epoch":318,"slotNo":52366634,"epochSlotNo":353834,"stakeKey":"stake1uy4mzkpxv50pmnscyg0jywp9hquey7lxpn34rjrd87wg0mctn4lht"},{"txId":29917543,"txHash":"1ffa7ca8b3fb82a94555ae1522021149ece0b68e195aae2d2c0528053866bfec","txTime":"2022/02/04 00:01:49","block":6838337,"epoch":318,"slotNo":52366618,"epochSlotNo":353818,"stakeKey":"stake1u8wtjr0j2dhwvh0zf9vvvtwqea22cuq4zk3334r5syq769qrmvg4p"},{"txId":29917495,"txHash":"fde1f7e694ce29a970b44a8f220a99e84017e111536df660f456081fa2f1a5fd","txTime":"2022/02/04 00:01:39","block":6838336,"epoch":318,"slotNo":52366608,"epochSlotNo":353808,"stakeKey":"stake1u8a0sjn9j2ha4mtw6374s2079j5jnnlrqek4c665hf6ljkclty8sj"},{"txId":29917425,"txHash":"2c80d0d43210b6369368de25911a82c0473e0d45e90b7708f744c4fefe90b967","txTime":"2022/02/04 00:01:26","block":6838333,"epoch":318,"slotNo":52366595,"epochSlotNo":353795,"stakeKey":"stake1uxatafne3wv7mzmlm3j3cju3r7xx3xyy7wydp5vzhpnvvaqc220d4"},{"txId":29917119,"txHash":"5f7aa32779d5b475829f6990ba89eab3a22e9399270b827e320762dc99de590e","txTime":"2022/02/03 23:58:16","block":6838321,"epoch":318,"slotNo":52366405,"epochSlotNo":353605,"stakeKey":"stake1u84cslqp79d3n98y2x8y7wdnu7tllsufj5g7p5krxlaxx3c2uarhf"},{"txId":29916539,"txHash":"830e60de365bc82fd34f24764ad9d6bdf0980792b2084fcfa2cc8c42fc511c13","txTime":"2022/02/03 23:48:32","block":6838301,"epoch":318,"slotNo":52365821,"epochSlotNo":353021,"stakeKey":"stake1u98mp522we4kmyz3ku4p4a7y2v2ua68dgsmtdf6gfvzzmdsm4aqwl"},{"txId":29916315,"txHash":"bd2612120b62290f22b024c8de1ce2f705cd207644fa57ab4d9f46a3a826fa21","txTime":"2022/02/03 23:47:06","block":6838296,"epoch":318,"slotNo":52365735,"epochSlotNo":352935,"stakeKey":"stake1u9jgcur4e0x3mqu285dq6lx3zyg6g56z4vkf4rks6sww8xcpc0u9u"},{"txId":29915686,"txHash":"a8d79d208dc1418d73f0f8ec1cb132a01c35f73293029d5e204e3d6bfce1ffa5","txTime":"2022/02/03 23:38:49","block":6838275,"epoch":318,"slotNo":52365238,"epochSlotNo":352438,"stakeKey":"stake1uytdzqlwmuckzcu2h5n6gfmk505krat3edpm8764cq2hucgf0klh9"},{"txId":29915669,"txHash":"d8b956268d63bb25111b1dac88ff81d78bd0f3d3022c15c47524bb863017ff2b","txTime":"2022/02/03 23:38:49","block":6838275,"epoch":318,"slotNo":52365238,"epochSlotNo":352438,"stakeKey":"stake1u94as3as2q22wvmjp79cr2xqgsts2zykuex7xyemtrtpnyggn9p0p"},{"txId":29915632,"txHash":"789d5fd9d3bf94f7ae79813cfd4e982af96b9ba77545d5103238ba1b68e0d6ab","txTime":"2022/02/03 23:37:39","block":6838273,"epoch":318,"slotNo":52365168,"epochSlotNo":352368,"stakeKey":"stake1uyer720nvptgz34h82duar5892auhy8ff4uppaxr0ay359q8x9t3w"},{"txId":29915447,"txHash":"c7744f87d575c66ab2e01eba021d1df72fd4a8cf042cee71cf01726465770252","txTime":"2022/02/03 23:32:17","block":6838265,"epoch":318,"slotNo":52364846,"epochSlotNo":352046,"stakeKey":"stake1uxv4ye0vu2xatk86v7xmtp7nuzxfwz8hc5w62jkcrkalxeg3nkp9j"},{"txId":29914190,"txHash":"26ecce3528d6454cbb25e333f7da7a75c7e61a26bc18e34a7528aa189c7c6af3","txTime":"2022/02/03 23:14:41","block":6838222,"epoch":318,"slotNo":52363790,"epochSlotNo":350990,"stakeKey":"stake1u9zwxkc3vfsr7q2d8y20ah4n7g0fxvud2zqqu9m6pwv8h6sjvg75s"},{"txId":29913506,"txHash":"6625517cd56c9b454a129122118b24553ef0fe7194495ecd4ae727412c081de1","txTime":"2022/02/03 23:04:38","block":6838199,"epoch":318,"slotNo":52363187,"epochSlotNo":350387,"stakeKey":"stake1u8nkxmm7gpzcw7x0c729f8thdcdt8lx8lkt4qrrc7ad39mc2pejjf"},{"txId":29912925,"txHash":"ed5815989b152b776cd2d5c42f55e2e2ae3346a96ff01efeeade8ca2dbb70e85","txTime":"2022/02/03 22:55:51","block":6838176,"epoch":318,"slotNo":52362660,"epochSlotNo":349860,"stakeKey":"stake1u8zare09ej20838wc8rytsmz8kauc4rfgyx4le3mhajastqusj924"},{"txId":29912542,"txHash":"3abe5aeda49e5fc765371241dbf7cd0dbc5e3a86cf03b87c2b0c42ce17749bad","txTime":"2022/02/03 22:50:52","block":6838165,"epoch":318,"slotNo":52362361,"epochSlotNo":349561,"stakeKey":"stake1uxgcqmwc4glnpa3ct3jecah9kl8zpzl0xjfpjmzth9t728sggvhrk"},{"txId":29912319,"txHash":"76ca07d2b71d88d34a7e3a450e0b2ee64387d8490da18a65eb7c7673b47b9c9a","txTime":"2022/02/03 22:49:01","block":6838156,"epoch":318,"slotNo":52362250,"epochSlotNo":349450,"stakeKey":"stake1uyjg9z3g8pm08r0gwvz0ly4cnh4lsnvku6rw7skvk7st0xcys8svk"},{"txId":29912315,"txHash":"e8bd941be2a6114bec80b567c2be377c75ebaa444ae17893d1870413f397e42d","txTime":"2022/02/03 22:49:01","block":6838156,"epoch":318,"slotNo":52362250,"epochSlotNo":349450,"stakeKey":"stake1uxzddwc3dy7uhdltvtmx9z93uznflh9twfag6cc7e0c49qcas7qkr"}],"totalItems":212515,"totalPages":10626,"currentPage":0}