{"data":[{"txId":30688407,"txHash":"2a8393b8da2232b6b08ab27fd7fe0150f0eb1b041cb5edc3b1f0a19f3ffb6565","txTime":"2022/02/09 15:05:31","block":6861407,"epoch":319,"slotNo":52852840,"epochSlotNo":408040,"stakeKey":"stake1ux7tapyml2n38h80gfajyf5kwa65hun52xsgapjmfnl8edsrr7z90"},{"txId":30688403,"txHash":"5137a5411bdc44361c07257d45b9c7259208a856c0921003e91cc7e34e0db4cb","txTime":"2022/02/09 15:05:31","block":6861407,"epoch":319,"slotNo":52852840,"epochSlotNo":408040,"stakeKey":"stake1ux9ddcfyc2kw556pj0tzm0x0lu6ze38rufv720qnak9cuygmpyk62"},{"txId":30688352,"txHash":"aaf30dd2d638b685c4029af15af34b30299591f27a1ea27bb503572df85f797c","txTime":"2022/02/09 15:04:38","block":6861405,"epoch":319,"slotNo":52852787,"epochSlotNo":407987,"stakeKey":"stake1uyu6ee6eh8yv5yhrvnsgg3e7228k0zu7a4vvfy47fwqqzsg6gxp75"},{"txId":30688349,"txHash":"0e2b2b79caf12700a957ea8dc1ceebb1dbe0e503c2e409267b2554f955992a78","txTime":"2022/02/09 15:04:38","block":6861405,"epoch":319,"slotNo":52852787,"epochSlotNo":407987,"stakeKey":"stake1u9ramyhw5ypmtugghnp5advh8x6m47j077llsn3smqylykcsyhfdq"},{"txId":30688347,"txHash":"1b78961087de0a62e9835e2b59c8ead64fa824ff0c54beaec301186cbada507d","txTime":"2022/02/09 15:04:38","block":6861405,"epoch":319,"slotNo":52852787,"epochSlotNo":407987,"stakeKey":"stake1u8mae5tpuwtsay95lsr423t5r994d72w8ctar47p2feqtxcultf0g"},{"txId":30688345,"txHash":"6ed768adb70fb2d97bec38a028266ffb1e8fd14019a156ddbf9da5ee7e4a6693","txTime":"2022/02/09 15:04:38","block":6861405,"epoch":319,"slotNo":52852787,"epochSlotNo":407987,"stakeKey":"stake1uye4zwvjt95kn26u0qnku34am2wluflhx07glsrqna5e0sglfzzhe"},{"txId":30688337,"txHash":"8a303cef2e97f93aa61073a320e6f9509f4b64ec71533e89dbe9fdaae675b9d6","txTime":"2022/02/09 15:04:38","block":6861405,"epoch":319,"slotNo":52852787,"epochSlotNo":407987,"stakeKey":"stake1uxw7wfeqtq6felfzxv66v3yesl8g3hsuhllhg44kfkdefrcwmfc5n"},{"txId":30688334,"txHash":"d4e77c98e85a58b36f10c8b18c2dbad3eaab32002527c76af52c53202adb7863","txTime":"2022/02/09 15:04:38","block":6861405,"epoch":319,"slotNo":52852787,"epochSlotNo":407987,"stakeKey":"stake1u9fq7skzhqzu6gm8a922fjfq9a0d8dxqe953nhx6j6eyyfqcwmjp3"},{"txId":30688333,"txHash":"d66bba68c2606921165770678da1e430206a7d2872747aafff23ce1a00626c5a","txTime":"2022/02/09 15:04:38","block":6861405,"epoch":319,"slotNo":52852787,"epochSlotNo":407987,"stakeKey":"stake1uxlyvzn43409c9c5smaa0stpe8mwm60ru7pu3vk9hp2urpsqmfwcw"},{"txId":30688332,"txHash":"ae2eb5caf94dc7d8ea0f6ff7d9d9713c9db1d5850b44fa7b14760f825527b103","txTime":"2022/02/09 15:04:38","block":6861405,"epoch":319,"slotNo":52852787,"epochSlotNo":407987,"stakeKey":"stake1uy94gtm68wxp32hs7vkdxzys0pvd3m3z5jp3e9dpxjz4h5cex8gp2"},{"txId":30688316,"txHash":"f2aeb67e0a68c7c23c8909414556c7e147514572a7979b331e9ac9ffaa27fe96","txTime":"2022/02/09 15:04:32","block":6861404,"epoch":319,"slotNo":52852781,"epochSlotNo":407981,"stakeKey":"stake1ux58qgn9976re2u2tkl6jfvud693fcnl433zl2qr7svg62scmg8t2"},{"txId":30688285,"txHash":"6dc1ff248724b048537287f6bcf47396a1b43322e4f8063e0d9a6d7fd5784cc5","txTime":"2022/02/09 15:04:32","block":6861404,"epoch":319,"slotNo":52852781,"epochSlotNo":407981,"stakeKey":"stake1u85hh5037pcuwdkl85qux69hgjua8cge3adyjz7sn96yzccna8sly"},{"txId":30688249,"txHash":"e6fd2ea050f2545dbb4cd64220b54615250e06805ce4f5931a0cfd50aefa0dee","txTime":"2022/02/09 15:04:03","block":6861402,"epoch":319,"slotNo":52852752,"epochSlotNo":407952,"stakeKey":"stake1uycg3pucpchsypg67myjhwu72ueyewgw22xe6wp0put6quscrpk0q"},{"txId":30688222,"txHash":"9133ce334390bad53189d63f6be372309471e46eab77bc91fbd69348ca889ed6","txTime":"2022/02/09 15:04:03","block":6861402,"epoch":319,"slotNo":52852752,"epochSlotNo":407952,"stakeKey":"stake1u9z2vkpaxdpskutx9l5vallm606nwxvx8w6c8mvzppw9v9ges6fjk"},{"txId":30688158,"txHash":"e155d6d83bc938f545e7ae329371eedb0621691d9e61196d2bfe48a4b7ceab98","txTime":"2022/02/09 15:03:04","block":6861399,"epoch":319,"slotNo":52852693,"epochSlotNo":407893,"stakeKey":"stake1uy0qfjj56l0s50ntrgpanmf7cc0vdfemak8gvdy9t9vp73sullfu3"},{"txId":30688089,"txHash":"d22ac9a08c9f9cecad7fc00e41323247bcf66570929e7489c014eebdbc91ecc4","txTime":"2022/02/09 15:01:48","block":6861395,"epoch":319,"slotNo":52852617,"epochSlotNo":407817,"stakeKey":"stake1uxp2cwm5vrk7l39upcrus8hrq2y53f8jc99lk8hah8nsc7gzvnnz6"},{"txId":30688076,"txHash":"48e5cdd0ba1ba10597d4f27f7a2d4e7a42ae08fc9e57973b33c7ed11743be245","txTime":"2022/02/09 15:01:27","block":6861394,"epoch":319,"slotNo":52852596,"epochSlotNo":407796,"stakeKey":"stake1u8xvx3spllq3e2zakpej33q8a7hr0mpc6e2m3t5pxz84vycy34yzq"},{"txId":30687972,"txHash":"832fb791d32e498181470773a954400cc6f314b02f7b6a37e3b794415cd3160f","txTime":"2022/02/09 14:59:45","block":6861391,"epoch":319,"slotNo":52852494,"epochSlotNo":407694,"stakeKey":"stake1u8ajfw6jyczrvl9lk97dp69l68a63wma82hydj9s6hq94uch899vn"},{"txId":30687968,"txHash":"749c3403aa042310fcc6c7010dafd10317adb00b01a4dd6754bc98ab4bcb9b7a","txTime":"2022/02/09 14:59:45","block":6861391,"epoch":319,"slotNo":52852494,"epochSlotNo":407694,"stakeKey":"stake1uyf0ln0z6m670vkffp64ym45gk766fqx4g98atne8tgupwqtjcljy"},{"txId":30687962,"txHash":"a3067f9d075b213045cb6912b6431c1639bcdfb84051a6986cf0bb29cd438e76","txTime":"2022/02/09 14:59:45","block":6861391,"epoch":319,"slotNo":52852494,"epochSlotNo":407694,"stakeKey":"stake1u927shysj9a6khmxpzegycv9y9m5j234uhz338q0s0hnz9slpget4"}],"totalItems":1404063,"totalPages":70204,"currentPage":0}