{"data":[{"blockNo":8282570,"slotNo":82411272,"epochNo":388,"epochSlotNo":158472,"hash":"d0018df5b158eeca234bcc5761d7d0b37b78ccf69de856d475aafabd46782c81","time":"2023/01/17 17:46:03","txCount":0,"totalFees":0,"totalOutput":0,"slotLeader":"bc00a90f9f448be5cfaa4e76dbc13353b83b59cb3f2c5e321555ca28"},{"blockNo":8282569,"slotNo":82411270,"epochNo":388,"epochSlotNo":158470,"hash":"6334929ef885ed805f74ab578f6b6061b0bc4f1c57c9f9b31ac9e6a9659c5eeb","time":"2023/01/17 17:46:01","txCount":11,"totalFees":6396611,"totalOutput":3783352220550,"slotLeader":"ea595c6f726db925b6832af51795fd8a46e700874c735d204f7c5841"},{"blockNo":8282568,"slotNo":82411255,"epochNo":388,"epochSlotNo":158455,"hash":"84adb58933b9ee387d7aadfa7179e4e6a8b7cbcce6531693a3c81d74621d8b8b","time":"2023/01/17 17:45:46","txCount":12,"totalFees":5688299,"totalOutput":123096200029,"slotLeader":"e0ac9f1b68d0621a4e6723f369a50e81f27916acb7cd42bc03eaac93"},{"blockNo":8282567,"slotNo":82411237,"epochNo":388,"epochSlotNo":158437,"hash":"ec750d43a8fd4a83a8590aae7817b2cb4f9eb875a3d022c59e27018df110aceb","time":"2023/01/17 17:45:28","txCount":6,"totalFees":1784973,"totalOutput":386085861005,"slotLeader":"a503e42a2c6ef347d834fa404fa4d4bfa6dfb48256ff95b067483980"},{"blockNo":8282566,"slotNo":82411225,"epochNo":388,"epochSlotNo":158425,"hash":"d4f508e2802e96554cb5d085389cc0696b5a33228c827e1f11101b75735e8e94","time":"2023/01/17 17:45:16","txCount":30,"totalFees":10691216,"totalOutput":1560988534795,"slotLeader":"76bfa1b2e6593740c3388ed881cbe851dbab8d8741652c9bad16cc94"},{"blockNo":8282565,"slotNo":82411189,"epochNo":388,"epochSlotNo":158389,"hash":"1b7f5020d8b7df698bbaf895b0bed58551286d5f76fd36b753128b29ea15043c","time":"2023/01/17 17:44:40","txCount":26,"totalFees":9682740,"totalOutput":4087341424111,"slotLeader":"6b51a5aae5b4b5f07f38acf12816b4f8a558ee2840d0dba69040aeb2"},{"blockNo":8282564,"slotNo":82411167,"epochNo":388,"epochSlotNo":158367,"hash":"419611d152a5d9af882e5294284d9e77d2fa2f7e423da27017d24b0f54da7d7c","time":"2023/01/17 17:44:18","txCount":10,"totalFees":2913731,"totalOutput":7409878449,"slotLeader":"c1d314a78a43f3d5baa9c2e4105015384211416f220af4a24a8ea3ee"},{"blockNo":8282563,"slotNo":82411158,"epochNo":388,"epochSlotNo":158358,"hash":"20df38b3a86dff0c103baae041f6b3b22538995d86b06b005799a4c9cf9ca3dc","time":"2023/01/17 17:44:09","txCount":7,"totalFees":2672646,"totalOutput":3094054921,"slotLeader":"ed40b0a319f639a70b1e2a4de00f112c4f7b7d4849f0abd25c4336a4"},{"blockNo":8282562,"slotNo":82411150,"epochNo":388,"epochSlotNo":158350,"hash":"8ecbfb16e4faea5d196ea91cde948398ad542eae67e2e0f1f9841376867dd028","time":"2023/01/17 17:44:01","txCount":5,"totalFees":2428499,"totalOutput":135479987949,"slotLeader":"7b92c27d47addf920a4b74db73d99c8ebe06057c802b332d945077d1"},{"blockNo":8282561,"slotNo":82411146,"epochNo":388,"epochSlotNo":158346,"hash":"76df1d98265b8c1a167a9159e4dd88586569939ffa02162b91ae6cfbc9474f1e","time":"2023/01/17 17:43:57","txCount":13,"totalFees":7138955,"totalOutput":1911506419235,"slotLeader":"7d50b9c6ec097e2a7f4ecb2f2914f9ad21e1a7bda884cb143937a73f"},{"blockNo":8282560,"slotNo":82411134,"epochNo":388,"epochSlotNo":158334,"hash":"7d37e0ae85088cc335e09f63fffd1c7e4295cf5bd98dcdb8f9eb7bb3459a2309","time":"2023/01/17 17:43:45","txCount":22,"totalFees":9655177,"totalOutput":709498073598,"slotLeader":"89f7ebe5936075aae36b1f7f2e1e9e5d2decd5230cfb962d01e12c84"},{"blockNo":8282559,"slotNo":82411111,"epochNo":388,"epochSlotNo":158311,"hash":"3c169e3e4243347ac05ac14f213e5ce87cf0567b6b7aff5d61c05d66347fd4fb","time":"2023/01/17 17:43:22","txCount":1,"totalFees":397100,"totalOutput":2287978164,"slotLeader":"bbe8aaed7d10e53102f4cd78fd3e504d8ff0c0009243da208893b970"},{"blockNo":8282558,"slotNo":82411110,"epochNo":388,"epochSlotNo":158310,"hash":"ae9299361df4b0ea44735f56a5cb4fa5aecefa7a62c3d63948ff7b34e155a809","time":"2023/01/17 17:43:21","txCount":4,"totalFees":3404789,"totalOutput":299422624195,"slotLeader":"37e0b7c9c58753b14707dd34267ebbd50917e9b80d4f76da07e0e1b8"},{"blockNo":8282557,"slotNo":82411107,"epochNo":388,"epochSlotNo":158307,"hash":"95a93865eac0dc79507506fc00f534131893c7a34bf3e020e9bdd5e1e14029dc","time":"2023/01/17 17:43:18","txCount":1,"totalFees":254029,"totalOutput":3188996374,"slotLeader":"d248ded3c18e0e80d07a46f00a2d808075b989ccb1a0e40a76e5cee1"},{"blockNo":8282556,"slotNo":82411106,"epochNo":388,"epochSlotNo":158306,"hash":"6036116e53940eff6b465556acb1896bec296f0fc84d983dbea18fa789282d5b","time":"2023/01/17 17:43:17","txCount":24,"totalFees":10678599,"totalOutput":20069701509671,"slotLeader":"49c24284e61ad58c6e59e865c74e9b0a0a36654eb2091ad846e1c4ec"},{"blockNo":8282555,"slotNo":82411100,"epochNo":388,"epochSlotNo":158300,"hash":"7b830f347285941bc533422de0b1bd6d1c35e444943b75c1b180dcb3401c71a5","time":"2023/01/17 17:43:11","txCount":32,"totalFees":13538854,"totalOutput":2130955892974,"slotLeader":"60397646d7d1ad6fe2ddccfe7efc9cba61f6d3d94d29e8f41de73240"},{"blockNo":8282554,"slotNo":82411048,"epochNo":388,"epochSlotNo":158248,"hash":"afff9603fa004192b1cf9aecda15578b7e632d910451c71151bd43e782871549","time":"2023/01/17 17:42:19","txCount":0,"totalFees":0,"totalOutput":0,"slotLeader":"8e8053ca6e5bcb107f350dcfa6343c707e8f208c5a9f754c15dead06"},{"blockNo":8282553,"slotNo":82411047,"epochNo":388,"epochSlotNo":158247,"hash":"360e5a4fe4059b343c8a62669966fbbc5b4ca83b1e794ea6c9048f0d2aa03661","time":"2023/01/17 17:42:18","txCount":20,"totalFees":6455243,"totalOutput":149200816343,"slotLeader":"30c6319d1f680470c8d2d48f8d44fd2848fa9b8cd6ac944d4dfc0c54"},{"blockNo":8282552,"slotNo":82411033,"epochNo":388,"epochSlotNo":158233,"hash":"818447decadd27f1ce96d2790117f0910c3902dd8ea24888f575ef613cbdd3c5","time":"2023/01/17 17:42:04","txCount":20,"totalFees":7107613,"totalOutput":20977605300318,"slotLeader":"34ae2462f0fab1866281947a022d85bddf29f45a8b9699baabbbfcb9"},{"blockNo":8282551,"slotNo":82411006,"epochNo":388,"epochSlotNo":158206,"hash":"826e9a1cd94ddae1d93320aa628586732c4c1bc17a6182d1f641cec3a2b9c0bd","time":"2023/01/17 17:41:37","txCount":51,"totalFees":14748213,"totalOutput":255097516572,"slotLeader":"c825168836c5bf850dec38567eb4771c2e03eea28658ff291df768ae"}],"totalItems":8282746,"totalPages":414138,"currentPage":0}