{"data":[{"address":"addr1z8snz7c4974vzdpxu65ruphl3zjdvtxw8strf2c2tmqnxz2j2c79gy9l76sdg0xwhd7r0c0kna0tycz4y5s6mlenh8pq0xmsha","txCount":593606,"balance":42325973482246},{"address":"addr1z8jd97ct35n4s5ss8lt4sq0zclw0dmf7yak8fj46m0jm3d475v0pzyfnfwd4drdgh0uxkl9tpd679xps84y757htua9s6w8m7p","txCount":12,"balance":20000000000000},{"address":"addr1wy0nmrl40z3nx9d0d79pu5u7zett4hl2apfuj9caqgf7jjqcj3r8z","txCount":584,"balance":12584894596877},{"address":"addr1w9qzpelu9hn45pefc0xr4ac4kdxeswq7pndul2vuj59u8tqaxdznu","txCount":476358,"balance":11935059083146},{"address":"addr1w8pydstdswmdqmg2rdt59dzql3zgfp9pt8sulnjgalycwdsj9js7w","txCount":66347,"balance":7183868423056},{"address":"addr1w93j7t23z99448k7xspzrppjtgun0janh0rcq6k8wt2e8vc2fraw4","txCount":3630,"balance":5448955106168},{"address":"addr1z8nvjzjeydcn4atcd93aac8allvrpjn7pjr2qsweukpnaytpq3ryg76qvca5eu9c6py33ncg8zf09nh7gy2cvdps2yeqlvvkfh","txCount":1129,"balance":3844545471718},{"address":"addr1w9j4z3xz6sze3se4d06rawhpqt5sag98l0fykwt5q08nwxgvmk5vf","txCount":3485,"balance":3699700621400},{"address":"addr1z8nvjzjeydcn4atcd93aac8allvrpjn7pjr2qsweukpnay2tqrfwamagnyfv43jgm94yvkmsnfvpzlytmkl0cs0uh8zqszu5da","txCount":7540,"balance":2845030405615},{"address":"addr1z8nvjzjeydcn4atcd93aac8allvrpjn7pjr2qsweukpnaytvcg6zm2vds6mz9x3h3yalqmnf24w86m09n40q3tgqxjms9yu6v8","txCount":16110,"balance":1795388122441},{"address":"addr1z8nvjzjeydcn4atcd93aac8allvrpjn7pjr2qsweukpnay0juqg4tpvktqnle8j0ukcnww78l7ze4lrgunuwqnxtvjps8lclpw","txCount":3050,"balance":1603279920951},{"address":"addr1z9fvxytwm8dv0aht3x8cxetm3tu4f47kaqdgxney8mu6hj8ktmp978vxcf308hnf8v4js57z4az4a0sx592h7t58w7fsqz6x77","txCount":2,"balance":1515821917805},{"address":"addr1z8nvjzjeydcn4atcd93aac8allvrpjn7pjr2qsweukpnayg3sm3lpp76yuejdf6w3qyry2spy8xjmjrlxy2cstm3fthsjc3xze","txCount":6860,"balance":1403117323524},{"address":"addr1zxgx3far7qygq0k6epa0zcvcvrevmn0ypsnfsue94nsn3tvpw288a4x0xf8pxgcntelxmyclq83s0ykeehchz2wtspks905plm","txCount":1872669,"balance":1381144140437},{"address":"addr1z85t4tvj3rwf40wqnx6x72kqq6c6stra7jvkupnlqrqyarthhd58w0qrqpyv4dc2c2mk98sduawl7l4gjuc9rafyv98sgylfw3","txCount":5928,"balance":1330802209152},{"address":"addr1z9cy2gmar6cpn8yymll93lnd7lw96f27kn2p3eq5d4tjr7rshnr04ple6jjfc0cvcmcpcxmsh576v7j2mjk8tw890vespzvgwd","txCount":11997,"balance":1218160432611},{"address":"addr1w8x38ff6386urtptgnyaycvgjquxkquvkpc9z4u8efaj7fgul2zra","txCount":402,"balance":1157779150730},{"address":"addr1z8nvjzjeydcn4atcd93aac8allvrpjn7pjr2qsweukpnayg4pn8uxr87tguqw8jkn6p233rk7k683ppl2mspr8appw9q640ms8","txCount":5010,"balance":1031120295087},{"address":"addr1z9fvxytwm8dv0aht3x8cxetm3tu4f47kaqdgxney8mu6hj9jnkhthhfhduv0p5m4l93pdadpgxsuf3xl89rk2tnknx4qstj3xa","txCount":4,"balance":1019589041083},{"address":"addr1z9fvxytwm8dv0aht3x8cxetm3tu4f47kaqdgxney8mu6hjp5gf28py0gn0atww37h5gyu9a2j7g2yy8a9c4m369n4c3sjzpftt","txCount":2,"balance":1009794520542}],"totalItems":25939,"totalPages":1297,"currentPage":0}