{"data":[{"hash":"62145759fdcc578f130db02a935a3fe93e978c86b20b0f27135be6b58cc7433b","blockNo":7837408,"blockHash":"66386b530902356c3a5457fea8022ac4d892443098178b9336d4466a428f9e00","epochNo":367,"epochSlotNo":74424,"slot":73255224,"time":"2022/10/03 18:25:15","addressesInput":["addr1qyq82kt2a23a6rp9zt5lwvxkp7ae3cggxpvnhzkz4ndds4cqw4vk464rm5xz2yhf7ucdvramnrsssvze8w9v9tx6mpts9fy9ds","addr1qyq82kt2a23a6rp9zt5lwvxkp7ae3cggxpvnhzkz4ndds4cqw4vk464rm5xz2yhf7ucdvramnrsssvze8w9v9tx6mpts9fy9ds"],"addressesOutput":["Ae2tdPwUPEZ7oDnNYf5XSAFRKTYQrxjaKKHSiNWN12soM99DCUpboJvvHjt","addr1qyq82kt2a23a6rp9zt5lwvxkp7ae3cggxpvnhzkz4ndds4cqw4vk464rm5xz2yhf7ucdvramnrsssvze8w9v9tx6mpts9fy9ds"],"fee":235040,"totalOutput":462083619403,"tokens":[]},{"hash":"b8ca2f7095c55f32450691e174bf70c2e972ff0607143e5bf014ce1db1d36481","blockNo":7837400,"blockHash":"a1d25b68fbf7b5aa1bdccbc57f94645c0de49d668bdb9bf34fc3c36a9e8a7164","epochNo":367,"epochSlotNo":74161,"slot":73254961,"time":"2022/10/03 18:20:52","addressesInput":["addr1q8tr4y9p7n04ufvd85659haq0zan3uxn64zncjgmx8qt8dcwmcnnhwnehu25w9gas9273cg2p4jppvtja838qpmfauvqnu5az7","addr1q9thm344yhyfgwqeqyel8fnnmq2p0qclw8vm5md87sf5tyqwmcnnhwnehu25w9gas9273cg2p4jppvtja838qpmfauvqsm0f3q","addr1q8tr4y9p7n04ufvd85659haq0zan3uxn64zncjgmx8qt8dcwmcnnhwnehu25w9gas9273cg2p4jppvtja838qpmfauvqnu5az7"],"addressesOutput":["addr1q8tvegm6xh9kdfpxp88ywulnhlzc7vp06m9zdmvqfd59vg0uhaqyyurk33f80pqdk7yysx52sf8w7qfxxafx27lqq44sy96sh2","addr1q9s4nnwdd9l7npfv50jwre7vw6r926fzrj9n3ep556w7qgqwmcnnhwnehu25w9gas9273cg2p4jppvtja838qpmfauvquxkc09"],"fee":361301,"totalOutput":29244367,"tokens":[]},{"hash":"34340ba8bae1ce95c91403fcb5d71b350a2ca7bb3e76c3e8bb23729008ebf29c","blockNo":7837380,"blockHash":"a8819ad0e909cf5dd0c9d21a7caddbf16e0e9f996cfa0cb81e9de941e7358ebe","epochNo":367,"epochSlotNo":73645,"slot":73254445,"time":"2022/10/03 18:12:16","addressesInput":["addr1qx0kzhxz43th9ed6qtphtfdqyrhnkw5xcxt8chauhlzltut5mnxfh58zh2ygjm077y325dquf9d0y2xja86a6jrdlhwquqydj6"],"addressesOutput":["addr1vxd29ylg9t7n4zxj2c8d0rftcj5scschsvvewz5fxj0s7dsdydmur","addr1q9xlaf0l2xxpyreguel6ulwj6r3hn53flwnfzmah38ms5sn5mnxfh58zh2ygjm077y325dquf9d0y2xja86a6jrdlhwq6ynkh3"],"fee":322097,"totalOutput":57493183,"tokens":[]},{"hash":"cc563dd2599688f44218f16bcde69eae2769a3b43a8189da472800ff9c58f7c2","blockNo":7837361,"blockHash":"19e21f502921192cb8d400285a0aed5b77187b920602dbce1cb366dcfe6c05de","epochNo":367,"epochSlotNo":73328,"slot":73254128,"time":"2022/10/03 18:06:59","addressesInput":["addr1q8fjdde87jrua78trg9ylv7gpvd5skzcv5nqp3wl467ykzgsmz083klcvm744y0n7yyg49ykzz0j628xpu4n5u0r0r4qrfqf6q","addr1q8fjdde87jrua78trg9ylv7gpvd5skzcv5nqp3wl467ykzgsmz083klcvm744y0n7yyg49ykzz0j628xpu4n5u0r0r4qrfqf6q"],"addressesOutput":["addr1q8fjdde87jrua78trg9ylv7gpvd5skzcv5nqp3wl467ykzgsmz083klcvm744y0n7yyg49ykzz0j628xpu4n5u0r0r4qrfqf6q","addr1q8fjdde87jrua78trg9ylv7gpvd5skzcv5nqp3wl467ykzgsmz083klcvm744y0n7yyg49ykzz0j628xpu4n5u0r0r4qrfqf6q"],"fee":575145,"totalOutput":825634413,"tokens":[]},{"hash":"c8958d443b95edec4186646eed29976745b95e54a8f8e7756121a358a87b7286","blockNo":7837345,"blockHash":"e867be7eee051a654459c88b9433537679f9e9d6fcb7108c445880e783941de4","epochNo":367,"epochSlotNo":73151,"slot":73253951,"time":"2022/10/03 18:04:02","addressesInput":["addr1q8fjdde87jrua78trg9ylv7gpvd5skzcv5nqp3wl467ykzgsmz083klcvm744y0n7yyg49ykzz0j628xpu4n5u0r0r4qrfqf6q","addr1q8fjdde87jrua78trg9ylv7gpvd5skzcv5nqp3wl467ykzgsmz083klcvm744y0n7yyg49ykzz0j628xpu4n5u0r0r4qrfqf6q"],"addressesOutput":["addr1q8fjdde87jrua78trg9ylv7gpvd5skzcv5nqp3wl467ykzgsmz083klcvm744y0n7yyg49ykzz0j628xpu4n5u0r0r4qrfqf6q","addr1q8fjdde87jrua78trg9ylv7gpvd5skzcv5nqp3wl467ykzgsmz083klcvm744y0n7yyg49ykzz0j628xpu4n5u0r0r4qrfqf6q"],"fee":575145,"totalOutput":826209558,"tokens":[]},{"hash":"a7e65a382bdb7ef564de4f72ace29bd03ec29339625076e4ff5108533576fa91","blockNo":7837329,"blockHash":"6aac95c596015b2e5076280900b15b8eba33f9d19e5e661c13d5fa4e93427011","epochNo":367,"epochSlotNo":72841,"slot":73253641,"time":"2022/10/03 17:58:52","addressesInput":["addr1q8fjdde87jrua78trg9ylv7gpvd5skzcv5nqp3wl467ykzgsmz083klcvm744y0n7yyg49ykzz0j628xpu4n5u0r0r4qrfqf6q","addr1q8fjdde87jrua78trg9ylv7gpvd5skzcv5nqp3wl467ykzgsmz083klcvm744y0n7yyg49ykzz0j628xpu4n5u0r0r4qrfqf6q"],"addressesOutput":["addr1q8fjdde87jrua78trg9ylv7gpvd5skzcv5nqp3wl467ykzgsmz083klcvm744y0n7yyg49ykzz0j628xpu4n5u0r0r4qrfqf6q","addr1q8fjdde87jrua78trg9ylv7gpvd5skzcv5nqp3wl467ykzgsmz083klcvm744y0n7yyg49ykzz0j628xpu4n5u0r0r4qrfqf6q"],"fee":575145,"totalOutput":826784703,"tokens":[]},{"hash":"9067509904ce201edd88715850bccb99a334b26fc27dca6c0f626e97f17f6540","blockNo":7837315,"blockHash":"8a2f8cb6e85ceb2e3b2c0dc7c38593d92227343adfffb18e90e39d4b00ff0b35","epochNo":367,"epochSlotNo":72596,"slot":73253396,"time":"2022/10/03 17:54:47","addressesInput":["addr1q8fjdde87jrua78trg9ylv7gpvd5skzcv5nqp3wl467ykzgsmz083klcvm744y0n7yyg49ykzz0j628xpu4n5u0r0r4qrfqf6q","addr1q8fjdde87jrua78trg9ylv7gpvd5skzcv5nqp3wl467ykzgsmz083klcvm744y0n7yyg49ykzz0j628xpu4n5u0r0r4qrfqf6q"],"addressesOutput":["addr1q8fjdde87jrua78trg9ylv7gpvd5skzcv5nqp3wl467ykzgsmz083klcvm744y0n7yyg49ykzz0j628xpu4n5u0r0r4qrfqf6q","addr1q8fjdde87jrua78trg9ylv7gpvd5skzcv5nqp3wl467ykzgsmz083klcvm744y0n7yyg49ykzz0j628xpu4n5u0r0r4qrfqf6q"],"fee":575365,"totalOutput":628704568,"tokens":[]},{"hash":"3743d32a7e052558e7e9561b865752316ba11522a2e2ecaec4ebd383744aa051","blockNo":7836994,"blockHash":"902f3a557060d338184cad30124008cb684216bb73c292411f3cf33c67ae213e","epochNo":367,"epochSlotNo":65783,"slot":73246583,"time":"2022/10/03 16:01:14","addressesInput":["addr1qxq5lehud4522rrww6tjjvz94267lv6lgwtm3uafkdem5kgl4a7843764rakvn7dtyrq863whuq9vfxsl6cpg0n5kudq5tnekl","addr1qxq5lehud4522rrww6tjjvz94267lv6lgwtm3uafkdem5kgl4a7843764rakvn7dtyrq863whuq9vfxsl6cpg0n5kudq5tnekl","addr1qxq5lehud4522rrww6tjjvz94267lv6lgwtm3uafkdem5kgl4a7843764rakvn7dtyrq863whuq9vfxsl6cpg0n5kudq5tnekl"],"addressesOutput":["addr1q87k9zrel8zsqpqhue55u7356gch8a4wp7xfpg5et2nn3q72h8y4gwedd2z2nx6544nalel0zd0g0kel44c96xy3vxvqwq22c9","addr1qxq5lehud4522rrww6tjjvz94267lv6lgwtm3uafkdem5kgl4a7843764rakvn7dtyrq863whuq9vfxsl6cpg0n5kudq5tnekl","addr1qxq5lehud4522rrww6tjjvz94267lv6lgwtm3uafkdem5kgl4a7843764rakvn7dtyrq863whuq9vfxsl6cpg0n5kudq5tnekl","addr1qxq5lehud4522rrww6tjjvz94267lv6lgwtm3uafkdem5kgl4a7843764rakvn7dtyrq863whuq9vfxsl6cpg0n5kudq5tnekl"],"fee":403981,"totalOutput":35290648,"tokens":[]},{"hash":"7eb365feef0266fdcd8e8d315b9f84d7168da65eb97ebd1e9c4ab6eb81767936","blockNo":7836752,"blockHash":"3c746e146fad158d226a66d1ee09b642e3643fe52bab332d3fe6f513a6537773","epochNo":367,"epochSlotNo":60208,"slot":73241008,"time":"2022/10/03 14:28:19","addressesInput":["addr1wypr0np3xatwhddulsnj3aaac65qg768zgs2xpd2xuaj0zscmvh0n","addr1qxys73l3hryn8fc2ph0vpq0d202spw33tadhycczsywtvtv3628la2lcg3lqy85p5je4yrgza2kr0aus4sszeqxaudus7n9958","addr1qxys73l3hryn8fc2ph0vpq0d202spw33tadhycczsywtvtv3628la2lcg3lqy85p5je4yrgza2kr0aus4sszeqxaudus7n9958"],"addressesOutput":["addr1wypr0np3xatwhddulsnj3aaac65qg768zgs2xpd2xuaj0zscmvh0n","addr1qxys73l3hryn8fc2ph0vpq0d202spw33tadhycczsywtvtv3628la2lcg3lqy85p5je4yrgza2kr0aus4sszeqxaudus7n9958","addr1qxys73l3hryn8fc2ph0vpq0d202spw33tadhycczsywtvtv3628la2lcg3lqy85p5je4yrgza2kr0aus4sszeqxaudus7n9958","addr1qxys73l3hryn8fc2ph0vpq0d202spw33tadhycczsywtvtv3628la2lcg3lqy85p5je4yrgza2kr0aus4sszeqxaudus7n9958","addr1qxys73l3hryn8fc2ph0vpq0d202spw33tadhycczsywtvtv3628la2lcg3lqy85p5je4yrgza2kr0aus4sszeqxaudus7n9958"],"fee":532121,"totalOutput":48624046,"tokens":[]},{"hash":"da506f9cb1f47bdc571cd65048de60c42be7674bf774494165855a068fc65c47","blockNo":7836743,"blockHash":"1347f155ce557fc6298b887a673f70073e176522b326f3104e344e647d12dcaa","epochNo":367,"epochSlotNo":60029,"slot":73240829,"time":"2022/10/03 14:25:20","addressesInput":["addr1qx336lrr4h2e9xvfq7p7wxzdh2x7empanvj05xcjjr9mf2drr47x8tw4j2vcjpuruuvymw5dankrmxeylgd39yxtkj5sx80399","addr1qx336lrr4h2e9xvfq7p7wxzdh2x7empanvj05xcjjr9mf2drr47x8tw4j2vcjpuruuvymw5dankrmxeylgd39yxtkj5sx80399"],"addressesOutput":["addr1qx336lrr4h2e9xvfq7p7wxzdh2x7empanvj05xcjjr9mf2drr47x8tw4j2vcjpuruuvymw5dankrmxeylgd39yxtkj5sx80399","addr1qx336lrr4h2e9xvfq7p7wxzdh2x7empanvj05xcjjr9mf2drr47x8tw4j2vcjpuruuvymw5dankrmxeylgd39yxtkj5sx80399"],"fee":237985,"totalOutput":540247319870,"tokens":[]},{"hash":"d0ea7ad411f593e23d87326e732711c0ad1ae38d645c8e5709b6c37b86894712","blockNo":7836714,"blockHash":"7f7042c0911837875b7646d00012c00dde8ed036ae19255f26dd30f3aeb81035","epochNo":367,"epochSlotNo":59416,"slot":73240216,"time":"2022/10/03 14:15:07","addressesInput":["DdzFFzCqrht6s4U69tFbCqkqT359DunkMHpW3DbYr8n5zc8s7sZPpXQKTubSC2MeZCsHx2Lxsf3Bqy1QC1ipPdUTeGewExto9mKj771L","DdzFFzCqrhsfPSmdGjLhBDsragySpTAvXtnYTqQBdAfRXmJZ38YPtS8TGsuCGaiSXo3bj7pkWPwyCeK6Amh7zQPaZo8GiCUWBThT2Nyg","DdzFFzCqrhssvnH9a2BEA3gCznQcPD9Ls1Aq4z2x1r9vo9S64Tfhh494Ycj4A6U4xBT9ytg8dWkK7PLxnK5V8t9foffpxG3ntU7A2hr6","DdzFFzCqrhsdxVTUDcBd8cuMzfBJUDZ4gTans5W7NcpqCjnYi5wzHKBoMUAgkmnxpPGpdPj68iZmyGnpixYjr38xFLUM31cea9umB3Y8","DdzFFzCqrhtAnYWDndJBc6EXuaKiqxZX46fCf6fXx8VY6LrTsourHJuNye4oLT45RhTSqQ5vUZXYsbXX3A6jNtE9cjunpiwA1ysk7Hfv","DdzFFzCqrhsfKALD6a836B2XahYRLLQwfzSZVh6uvj7eweJ22gARCTk5N7PKMPCME9qtCL2GhmfW76Mvi3ygJDe5wjGiRfcYxyUZ9xFa","DdzFFzCqrhsj31FjKZXQwR9g5qhP5QHQrZYGuwyBGwmVcdhdEF2mcm4SEDyLKhYLfbrHFZWAkKi4WgFCAsonbAsRAybFxowwMCJCQZMC","DdzFFzCqrhsktLqqGYTVgjcU3Kcn3zC4x5eWiQL5GApKrb6RfCR9MDVmKJyLRbq6MuLXYdCgFaEkiiZMxF5T8EFAUPv4b7xUJ9B6DgUg","DdzFFzCqrhsh5R9ozHi27oCQ6KDgSiAEzxYuT5bzEMovEaEv7ys9zqTgAy4PSRK76cvwqJ4uXsH2uHdUNeBKPfzV5EpW3TQ1Kx5L3XBM","DdzFFzCqrhsir7eWkF6hni6YecNmJgKEiM7ME8eYCLyV8pv9nbuD7xxSaq5dJD66NfcBqfBfzmF6sZxAmr1E4PpbWLRH25VQmCQz4LwB","DdzFFzCqrhseqcZJFvYP78E1tYX2dpFo6mtSvkHb29zsvcw83H3ZNikYPhZWNLVkFHwgoYzEXChw6fgfbprXKxiiefo6GzjPrPnGXA7W","DdzFFzCqrhsfHbsREJSCMVhPpKadRe84we4SFk6N2TiAQSeUJxpK9rVSNS8EC1GrWiu5SxEDpkyzKeNf68957g9ygcJybsVRpj3NZzMo","DdzFFzCqrhsniFpJmQdQTTixCRy6xzRxSX9gi6qL37SoUQoEszXn9H6QbHndP7Mu2f8ejK6wGDAiLrPxSzRw6Q58aRcyquVMiBmXYaxo","DdzFFzCqrhsq5QDmD5pEjBy5mu5q23M9wE51UJ9cVaYcDoAGM2YAzvMV37MfzGH3eP9U8dPmnQhHVawys7JBZgioVmXNiF7NZZzV4Dob","DdzFFzCqrhsdxVTUDcBd8cuMzfBJUDZ4gTans5W7NcpqCjnYi5wzHKBoMUAgkmnxpPGpdPj68iZmyGnpixYjr38xFLUM31cea9umB3Y8","DdzFFzCqrhskoBaGukKGzrp1wcUcnygCQrhmfXNg3HWXxSG1XcmjspqgEimkF4xC9FucxKVzaJ98yPyi5PsJ9x2B4YJcdHQu5bdT88a5","DdzFFzCqrhskr3S5tzP1EM3cMaqEtto6xbW9qxKx3csxDCvAuTdFjuxAeqpt6T7RRYjNeTAnC1DA94rwZznDhfZtsK8YbWWbYWLF5zR7","DdzFFzCqrhsyZCyXWoBNihpnL1e3Wz3krLEUpL7ua61VdusfAwCcHFhR96niSFBXZPFTvw1QpQtbJMHRnR6LAAhXTe8mbBUTn8uqh6hX","DdzFFzCqrhsevd7R3AaNYScg5eH7Xzzaa1Fuh3CvpHDHX82zsvUyTitqCvTEPj1Yo5ExzAcobBYmLghmiHF6YenGPdgvEqbTwtZaVPCR","DdzFFzCqrht1WxGkN6Uki1eje53nvdZDuRRZnXUyUTL6bZs8eJWxYCQsLrNpEXF4dfUM8v5geYUkSidjtkBDSbqt2WJdysbKTXc9V9sd","DdzFFzCqrhtCoXVyDYMHN1h6daDoQ4MqcRFbwaUgJX9FpuRoiaDQmo5CqdR9YUVNXMvG8NTervFEANfwFBoXpRPVNwAyE9QQwZgijmmX","DdzFFzCqrhsvQMucR1vpJcJ3Ucjg5P7HYhfrMsxgmnMpjKyFUD3xFLnCFC5nVzN3duyirKDLqfo94m9HxXfkUwd63c55J5vjw7TL9YSU","DdzFFzCqrhsq88myw63qK8g6mYed2D11YRigP8XyTvxfDAFZ2AmPv3e5UQVquh2w5qkAM4Qv3SvWopBujungz5VpykiuAkJHyya6s5tf","DdzFFzCqrhseXmY4bKrvJKJ4nGXjd8gatYx5jb7uqED3PTpvaSphhKg1sEi4VZ3eHasGcpayxkvVXQodejw3aJVEX641PruiJfK1cnTu","DdzFFzCqrhsiuQafa3XiToNVnbNffpRtu3XX6PYbGxitSky21AGBUE663ENzY3UYpdk4NidxqZmAe42LJZmFBWbgEnn5idU9D3ZCjYYt","DdzFFzCqrhszF4ekW8mFGYjDkAvCEauC9gj2bL2vZUCEpucKPNSrX6M3V1WvgVKgodiBAdxUnmCd2twv717KemBKiBo7ubBxoUyRBozC","DdzFFzCqrht6SsmMiwBSZT2m6zMrx6EPkRnp4TQ9RrHMMGCHA9yzj7v53yxFFm3SsP1d7mWhsg5x1bY6udvwJN2p844A71CatfWnohsA","DdzFFzCqrhsir7eWkF6hni6YecNmJgKEiM7ME8eYCLyV8pv9nbuD7xxSaq5dJD66NfcBqfBfzmF6sZxAmr1E4PpbWLRH25VQmCQz4LwB","DdzFFzCqrhseE1fMWhAJNcwJhAunEg5foAGFQcvcbAQqmTznm4TLffWyCgKax8RQMC6ewX1b8iTUeRpRCZotYkioYJFVmJBuA6Ao69UZ","DdzFFzCqrhsso5vfLF91RjqC43J8Dw2bzwRTwDDWAm4Dp5mhgVE1wXBSgrsjqLUAbWpLwaAPUHz32MWQRWL7c8BaDSCCojBAyHGw7tCs","DdzFFzCqrhsq88myw63qK8g6mYed2D11YRigP8XyTvxfDAFZ2AmPv3e5UQVquh2w5qkAM4Qv3SvWopBujungz5VpykiuAkJHyya6s5tf","DdzFFzCqrhsfPSmdGjLhBDsragySpTAvXtnYTqQBdAfRXmJZ38YPtS8TGsuCGaiSXo3bj7pkWPwyCeK6Amh7zQPaZo8GiCUWBThT2Nyg","DdzFFzCqrhsxWdNv5VW1vbi8K3WcLismwQ28yB7uTGkKa2Q9bEb55urCizNEhprkCt2Pgx9ZLiHuhH22jP1j3anjSVW3Q11hG8MSYr3C","DdzFFzCqrhsqSPJkcdy75i7s4T7uZN1bj8ygHSw2nMWWoV85AsomHav6SWnwqBZPMn4oKmeC8G3BDqiLfzjfLRf5HKzdVaA23WyEkMLX","DdzFFzCqrhsiEY27oNkQ5iWA5VoB1ViuBczzJLHTbg4AfQPWgvhffDhtN2eb5SSK7WARmRCEs5Bj8hVZrieV6Pz2uMtiG1PQMRCcR62z","DdzFFzCqrht27TvkX3FieMWpsiZyf1Mf46K7ATzDbfTHV6vUcaFTpGBuAPSoj8KCZqjGnJqcvDn8hV8cuSLGse8XarHcFY5bEcYAQunp"],"addressesOutput":["addr1q9atjfpqwdtg7ytz0pz9zcaqvx8zr2uv6ysvc4csqynr683dzefudzxhadht99nh8gv4l3z93d486ygllgxuh2drrrpsdw6fws","DdzFFzCqrhtB5qACpP1R34ejeto9AAVvcHgmgS1eLqAfsFRJFozo5aKQSA5LLaW4hFKs82aQUrZxveL3rCSj1KiMSa3oMoDJ7y8pj9h2","DdzFFzCqrht2WRDGXjghgZxRJ8KN6i1kw4upD8KczK5hq1Bs35nRSb3Q9WjN8a9ERvXaZ1yDydQBZcHRpQBz5jx1MfJE2XrVhADqkHpa"],"fee":1078941,"totalOutput":53171281225,"tokens":[]},{"hash":"82cfb49203c607d5260b6a894011509f17cee014a5dbe2062deb4deeadb44fe9","blockNo":7836180,"blockHash":"85b243bd2b7b5a113356ec4164ba774fcac79b273d0eb2e70cdc49d72a3c131e","epochNo":367,"epochSlotNo":48314,"slot":73229114,"time":"2022/10/03 11:10:05","addressesInput":["addr1qyecjgprat9qjdfkv6ln45eww5a9lwkgqn92x6lspd339ky00hv6dpawknxe42d8dlx42msv2nt8yej77vudk0uruvtsh2aeym","addr1qyecjgprat9qjdfkv6ln45eww5a9lwkgqn92x6lspd339ky00hv6dpawknxe42d8dlx42msv2nt8yej77vudk0uruvtsh2aeym","addr1qyecjgprat9qjdfkv6ln45eww5a9lwkgqn92x6lspd339ky00hv6dpawknxe42d8dlx42msv2nt8yej77vudk0uruvtsh2aeym","addr1qyecjgprat9qjdfkv6ln45eww5a9lwkgqn92x6lspd339ky00hv6dpawknxe42d8dlx42msv2nt8yej77vudk0uruvtsh2aeym","addr1qyecjgprat9qjdfkv6ln45eww5a9lwkgqn92x6lspd339ky00hv6dpawknxe42d8dlx42msv2nt8yej77vudk0uruvtsh2aeym","addr1qyecjgprat9qjdfkv6ln45eww5a9lwkgqn92x6lspd339ky00hv6dpawknxe42d8dlx42msv2nt8yej77vudk0uruvtsh2aeym"],"addressesOutput":["addr1vx4dy0jfjj0035wp4wcejp24z2q3wsg7anz7j4qcn5upa3sg590p6","addr1qyecjgprat9qjdfkv6ln45eww5a9lwkgqn92x6lspd339ky00hv6dpawknxe42d8dlx42msv2nt8yej77vudk0uruvtsh2aeym","addr1qyecjgprat9qjdfkv6ln45eww5a9lwkgqn92x6lspd339ky00hv6dpawknxe42d8dlx42msv2nt8yej77vudk0uruvtsh2aeym"],"fee":387173,"totalOutput":88461349,"tokens":[]},{"hash":"3696db7330d1418c6e15165439d164575944550452ac32213f54bda189ce39c1","blockNo":7836064,"blockHash":"6a2b97fe9ed2f1b37227acec22075a3115d2fa4004c702815875fefb08b05b01","epochNo":367,"epochSlotNo":46443,"slot":73227243,"time":"2022/10/03 10:38:54","addressesInput":["DdzFFzCqrhsvsEh4zyNDYTfAT6LukiM4JcU7shEF61AYaBwuoRnWRnoUkNaHMwzLyS48ZBBPmERRjMkXzR99pcZ7c4jxjwk3H5DY6N7V","DdzFFzCqrhsfTAWKVqb7BNJXMdBwrpUVootz2RS4xi2PBJTCKsupJziDi7n1QnmXNz3jJ3B8yv15bvDd7P1xskMgCrf1bbxSuZcGCQ1o","DdzFFzCqrhshJr2GLh99WrkHRv3MvmmdDPzPBkRGxW9BHmGoMZCa3wwYhDhuQPk8sEr1e7TU3QR5jDYAF3EHvyMNLq7kanB7nJZG4rmP","DdzFFzCqrht8eNUz5DFcVy5zSWrDHhTawxjHDGFBikunrdn9PYLLeSbVuPk8sV1pmjbPs5bVJEr1ruqRoLSqt5X8yEA9UWtb3QCPYF5W","DdzFFzCqrht4YFeYViJRUWr6S4y5bPGQEkme1JRHp2PAdU5sG5J44xwduLKCmKDTyHnMiAEZuok6ffzCCGEftiNm2tqGzxCoztm1GctT","DdzFFzCqrhst4bMZQhJNAQNze4AxKXCgoGpSQ9wA2ukypPtVZRau8p2UaxJAG8ssjQi6zvg7y28ukMYPsmaim97BhvPLPtoo73gvF8RD","DdzFFzCqrht1tQC4gcjpeWdWoAg5Sj2a46Kqe69TiNQ6cXMVrz4XQVQaWLRDHciTJseux7neqiDUA46jEpwM2c9pWKDBBda9ruyXxenm","DdzFFzCqrhsvgdt4HV9PGLmcgGsqEq68ayqf34pXyN3TDkRUnqcqKvnwTnvJ9sMbJho8JNYJa1d2xhGfzX94tcLK19xnjnb5d6UevEdz","DdzFFzCqrhsqFEJHx2zJf5xDWZXERQN9EqDoXkQ8SEzwJteZ9TDDhuHLn6vZhv4dGJBh3rdKu1QTv75KFXbAo3S35PEhnxC3AP8d1NkX","DdzFFzCqrhsvYPqeDGEML1oMp8P3H2TCuUohZR5eNAm2ds2Q6mv6Ns4mwjYEnvcNfFhWRnNzSkjqm71VQKD5UJerLbvo8eegHS5Rta6h","DdzFFzCqrhski2Jm513eRt8VxB3BWvohmZBABGTjEuDPM8HycWzVsCzS2jyJPL5DYb4ZP3ihULEqt8h6o2KNKf6AfVdLHQsheeo7vRY3","DdzFFzCqrhsq2cRVUq2waZajyKKcT7AAAa3KdfWgKfvKmnr7fKyVoaTJgwmwBp6BvHRvbw2p34ikktQMwZtukGKE9neT8FAZpxgK8BpS","DdzFFzCqrhsh1r3NgeH2TvokWGVW7stVMwxHYG5jc5xnTxSa55VTvsu2MCUKEJKscEhvxAjW1MZHGTtbP7rEfqhM2RcikKQSC4C5FjFC","DdzFFzCqrhsjcHyYF43WGBkgtQxWgXoz9UL7tBgZjSUeXX1EqDCJaTj23jCwBBJkx1KkJ42ygqDs9vmmksY6dcWrZrpvgjTht233LQDp","DdzFFzCqrht4SVXa5bDqab4c28XyVP6VTuY3ysuwPBS3kN44yo4KW6PTtxhi1rrCz2raYo1uZLePpNNkhi6ymig3nj5QTA149V8Rtb1y","DdzFFzCqrhtCrJpNuZwF8Wh7attK4JSH2XCGmiv2f4NhPSRwejZDjHFr6KuKzdMxbdku9zwdaGNpxL3ZyFFdxtR7YkKdBQ3aq3w5vatx"],"addressesOutput":["addr1q9atjfpqwdtg7ytz0pz9zcaqvx8zr2uv6ysvc4csqynr683dzefudzxhadht99nh8gv4l3z93d486ygllgxuh2drrrpsdw6fws","DdzFFzCqrhsktLqqGYTVgjcU3Kcn3zC4x5eWiQL5GApKrb6RfCR9MDVmKJyLRbq6MuLXYdCgFaEkiiZMxF5T8EFAUPv4b7xUJ9B6DgUg","DdzFFzCqrhsfKALD6a836B2XahYRLLQwfzSZVh6uvj7eweJ22gARCTk5N7PKMPCME9qtCL2GhmfW76Mvi3ygJDe5wjGiRfcYxyUZ9xFa"],"fee":882569,"totalOutput":50340560619,"tokens":[]},{"hash":"3b977feac266370716de95b2ec0fd8cb680710592a50dc784a56435e56b0a2fe","blockNo":7836000,"blockHash":"2b58cb92a2c52be41015fc3c33bc026f5073161e7ce5ad8ce1f400b7f88e6fbe","epochNo":367,"epochSlotNo":45075,"slot":73225875,"time":"2022/10/03 10:16:06","addressesInput":["addr1q8ft3nxk4fnhtsr48czxhxyv49q5aye0ey3zq9dww80shu9rhvdaj7dhhue4aj0ttva5mc24hpgd3k0nzs5cdwft4qfq8ncrt2","addr1q8ft3nxk4fnhtsr48czxhxyv49q5aye0ey3zq9dww80shu9rhvdaj7dhhue4aj0ttva5mc24hpgd3k0nzs5cdwft4qfq8ncrt2","addr1q8ft3nxk4fnhtsr48czxhxyv49q5aye0ey3zq9dww80shu9rhvdaj7dhhue4aj0ttva5mc24hpgd3k0nzs5cdwft4qfq8ncrt2"],"addressesOutput":["addr1wxn9efv2f6w82hagxqtn62ju4m293tqvw0uhmdl64ch8uwc0h43gt","addr1q8ft3nxk4fnhtsr48czxhxyv49q5aye0ey3zq9dww80shu9rhvdaj7dhhue4aj0ttva5mc24hpgd3k0nzs5cdwft4qfq8ncrt2","addr1q8ft3nxk4fnhtsr48czxhxyv49q5aye0ey3zq9dww80shu9rhvdaj7dhhue4aj0ttva5mc24hpgd3k0nzs5cdwft4qfq8ncrt2","addr1q8ft3nxk4fnhtsr48czxhxyv49q5aye0ey3zq9dww80shu9rhvdaj7dhhue4aj0ttva5mc24hpgd3k0nzs5cdwft4qfq8ncrt2"],"fee":414717,"totalOutput":9504739763,"tokens":[]},{"hash":"c9f763445ada2c8992c5c43e0e3c15087bbc7572c92548bdadf9eaafe95d1947","blockNo":7835917,"blockHash":"6bf5469c170e1e559506ec31b803bb5ecb05d6781b1a67007251c9532fe97621","epochNo":367,"epochSlotNo":43404,"slot":73224204,"time":"2022/10/03 09:48:15","addressesInput":["addr1qxn0kuqk8mysdv8rpqhl39vp6njnxd7dw3yvkcvdk9ke4revmezswc6ql6x9kekl6zm3ptc6g9jlwln9lt6sml5mcl0sndmr62"],"addressesOutput":["addr1z8c7eyxnxgy80qs5ehrl4yy93tzkyqjnmx0cfsgrxkfge27q47h8tv3jp07j8yneaxj7qc63zyzqhl933xsglcsgtqcqxzc2je","addr1qxn0kuqk8mysdv8rpqhl39vp6njnxd7dw3yvkcvdk9ke4revmezswc6ql6x9kekl6zm3ptc6g9jlwln9lt6sml5mcl0sndmr62"],"fee":309954,"totalOutput":21883844,"tokens":[]},{"hash":"1e4cc5252790d42caccfcd4e15c4ab4526d0dbcec77763349b0a8c3109240860","blockNo":7835887,"blockHash":"3906ef84e2686cb1de690b6a02b93063a0fe31ae78d89d44cbdfa9ebf0ea00ff","epochNo":367,"epochSlotNo":42712,"slot":73223512,"time":"2022/10/03 09:36:43","addressesInput":["addr1qxn0kuqk8mysdv8rpqhl39vp6njnxd7dw3yvkcvdk9ke4revmezswc6ql6x9kekl6zm3ptc6g9jlwln9lt6sml5mcl0sndmr62"],"addressesOutput":["addr1wxn9efv2f6w82hagxqtn62ju4m293tqvw0uhmdl64ch8uwc0h43gt","addr1qxn0kuqk8mysdv8rpqhl39vp6njnxd7dw3yvkcvdk9ke4revmezswc6ql6x9kekl6zm3ptc6g9jlwln9lt6sml5mcl0sndmr62"],"fee":318442,"totalOutput":29193798,"tokens":[]},{"hash":"3dba1fd74921ede17698c64c4638f1ea34b6d99a4b6a3485ce90a6f62ce2f251","blockNo":7835877,"blockHash":"31624c621d969b9da4c540bac5d7ba32db0ed1b8153e25d1468b76494795c3e7","epochNo":367,"epochSlotNo":42522,"slot":73223322,"time":"2022/10/03 09:33:33","addressesInput":["addr1qxn0kuqk8mysdv8rpqhl39vp6njnxd7dw3yvkcvdk9ke4revmezswc6ql6x9kekl6zm3ptc6g9jlwln9lt6sml5mcl0sndmr62","addr1qxn0kuqk8mysdv8rpqhl39vp6njnxd7dw3yvkcvdk9ke4revmezswc6ql6x9kekl6zm3ptc6g9jlwln9lt6sml5mcl0sndmr62"],"addressesOutput":["addr1z8c7eyxnxgy80qs5ehrl4yy93tzkyqjnmx0cfsgrxkfge27q47h8tv3jp07j8yneaxj7qc63zyzqhl933xsglcsgtqcqxzc2je","addr1qxn0kuqk8mysdv8rpqhl39vp6njnxd7dw3yvkcvdk9ke4revmezswc6ql6x9kekl6zm3ptc6g9jlwln9lt6sml5mcl0sndmr62"],"fee":311978,"totalOutput":33264240,"tokens":[]},{"hash":"38340b79d6edba10af8de1a5d444f7436016f933f77e79770efe1b2a6414db4c","blockNo":7835839,"blockHash":"64438e47f89c8b6b921e0c73e4b74c80d9d2949eee48b998e0c47fbb05b80741","epochNo":367,"epochSlotNo":41855,"slot":73222655,"time":"2022/10/03 09:22:26","addressesInput":["addr1qxn0kuqk8mysdv8rpqhl39vp6njnxd7dw3yvkcvdk9ke4revmezswc6ql6x9kekl6zm3ptc6g9jlwln9lt6sml5mcl0sndmr62"],"addressesOutput":["addr1z8c7eyxnxgy80qs5ehrl4yy93tzkyqjnmx0cfsgrxkfge27q47h8tv3jp07j8yneaxj7qc63zyzqhl933xsglcsgtqcqxzc2je","addr1qxn0kuqk8mysdv8rpqhl39vp6njnxd7dw3yvkcvdk9ke4revmezswc6ql6x9kekl6zm3ptc6g9jlwln9lt6sml5mcl0sndmr62"],"fee":308678,"totalOutput":35628218,"tokens":[]},{"hash":"45ae6f6fbe63fe20687408b6a3d187fe3af065de46070f55bdc813edaf0af88a","blockNo":7835803,"blockHash":"9d84350d2ef0bdb41d16714485d95647c3c8fc5b100317d7e5d2aff99cbbb9c5","epochNo":367,"epochSlotNo":41107,"slot":73221907,"time":"2022/10/03 09:09:58","addressesInput":["addr1qxn0kuqk8mysdv8rpqhl39vp6njnxd7dw3yvkcvdk9ke4revmezswc6ql6x9kekl6zm3ptc6g9jlwln9lt6sml5mcl0sndmr62","addr1qxn0kuqk8mysdv8rpqhl39vp6njnxd7dw3yvkcvdk9ke4revmezswc6ql6x9kekl6zm3ptc6g9jlwln9lt6sml5mcl0sndmr62"],"addressesOutput":["addr1z8c7eyxnxgy80qs5ehrl4yy93tzkyqjnmx0cfsgrxkfge27q47h8tv3jp07j8yneaxj7qc63zyzqhl933xsglcsgtqcqxzc2je","addr1qxn0kuqk8mysdv8rpqhl39vp6njnxd7dw3yvkcvdk9ke4revmezswc6ql6x9kekl6zm3ptc6g9jlwln9lt6sml5mcl0sndmr62"],"fee":309734,"totalOutput":39693896,"tokens":[]},{"hash":"ee42c095ca8c09bb040e15c951207be7376c7e9cc33dec89f8f4a5d4bfe17cae","blockNo":7835590,"blockHash":"41077b5023647b4d069ca93ec0a9dd084afaf7eab02f6bbca9c69fd1d58918f5","epochNo":367,"epochSlotNo":36488,"slot":73217288,"time":"2022/10/03 07:52:59","addressesInput":["DdzFFzCqrhspt17ppwcgy8yxbunjBNHUG3nKA2XoZ11DW5fweJUg5EFmrx5757D17VgyvhFTUjQkr8uahe1VuW8K9BPMmK1mSo4px14U","DdzFFzCqrht6G3T4QhhsAuFhmnZHeMktzNMCRjiJsvz6Wq8ABzxeLbz9uVCk3GRKfy43ys3ntAX9ykDT28GWFoqFFU2VxTZt3aycQac2","DdzFFzCqrhsjYXX8nHY93WwBrpByoGPGGVi6VJ3Nqph8KSMS66CZitpPxXsjktNPqmcuUwZK9zjASBVE2Dh6Nrok9aRqrAUWP3zrxX8D","DdzFFzCqrht1zpsrxkqmekdikwj66ZPu8izgM32ehk7TDCNqk1i35G73Tt8Ryiad2UMsxNCP5dPpXfs4yZmkfJMVKBGAEacznH9CH16Z"],"addressesOutput":["addr1q9atjfpqwdtg7ytz0pz9zcaqvx8zr2uv6ysvc4csqynr683dzefudzxhadht99nh8gv4l3z93d486ygllgxuh2drrrpsdw6fws","DdzFFzCqrht4SVXa5bDqab4c28XyVP6VTuY3ysuwPBS3kN44yo4KW6PTtxhi1rrCz2raYo1uZLePpNNkhi6ymig3nj5QTA149V8Rtb1y","DdzFFzCqrht1tQC4gcjpeWdWoAg5Sj2a46Kqe69TiNQ6cXMVrz4XQVQaWLRDHciTJseux7neqiDUA46jEpwM2c9pWKDBBda9ruyXxenm"],"fee":766409,"totalOutput":60288213314,"tokens":[]}],"totalItems":10269,"totalPages":514,"currentPage":0}