{"data":[{"hash":"85afc87520c8b3ef82ac490b051b31b9209a7191e670f76c26a8f49671dbd9b4","blockNo":6861348,"blockHash":"f343dc8dcaf1ea9433b6158ac3208df88c02bbc7cf0cbb7660c21cbf8407c29b","epochNo":319,"epochSlotNo":406839,"slot":52851639,"time":"2022/02/09 14:45:30","addressesInput":["addr1qysdvmvecllayy4rkksgsms5lu4vxhvxwtmx85ks3cctcdl49v0llr6kh86h28lyzeulsjnz9e0rfk2j0t9qend2e6xqvu3nts","addr1qysdvmvecllayy4rkksgsms5lu4vxhvxwtmx85ks3cctcdl49v0llr6kh86h28lyzeulsjnz9e0rfk2j0t9qend2e6xqvu3nts"],"addressesOutput":["addr1w999n67e86jn6xal07pzxtrmqynspgx0fwmcmpua4wc6yzsxpljz3","addr1qysdvmvecllayy4rkksgsms5lu4vxhvxwtmx85ks3cctcdl49v0llr6kh86h28lyzeulsjnz9e0rfk2j0t9qend2e6xqvu3nts"],"fee":240279,"totalOutput":84634791,"tokens":[]},{"hash":"1668b387871ae558ac0b0ef670226b5bba10d59d8a9b6246805a1b0a19d4d47b","blockNo":6861303,"blockHash":"452dfe3f47035e865050c4f7d97d8febede3415dda9b68e8f15645e65ad6c6d6","epochNo":319,"epochSlotNo":405699,"slot":52850499,"time":"2022/02/09 14:26:30","addressesInput":["addr1qy0xznhgdhqj9u4g6jjdntf2cxy5lyad8j2p6a6dp8jwwttfq4uncdzu6hqlxn7gva2xsaln40x226fl8fsnqyyvzxtqqm3qw9","addr1qy0xznhgdhqj9u4g6jjdntf2cxy5lyad8j2p6a6dp8jwwttfq4uncdzu6hqlxn7gva2xsaln40x226fl8fsnqyyvzxtqqm3qw9"],"addressesOutput":["addr1q8j5j76cmwlp0xhpn7es2h06q8uf0exkqm745vxl8r803paz9rf7gzmpjwz4s8k6zfgsfycp863fktn38nalf07c3y5spsp2gt","addr1qy0xznhgdhqj9u4g6jjdntf2cxy5lyad8j2p6a6dp8jwwttfq4uncdzu6hqlxn7gva2xsaln40x226fl8fsnqyyvzxtqqm3qw9","addr1qy0xznhgdhqj9u4g6jjdntf2cxy5lyad8j2p6a6dp8jwwttfq4uncdzu6hqlxn7gva2xsaln40x226fl8fsnqyyvzxtqqm3qw9"],"fee":204441,"totalOutput":158673742,"tokens":[]},{"hash":"013ed8b090d290f676d7ea878a3bf69bc329423b35e80813e1ebb004d392c183","blockNo":6861114,"blockHash":"a21a3411abe4810cc7c9c2cacea139336c773de9f665f08165fc6218f4671f3b","epochNo":319,"epochSlotNo":401950,"slot":52846750,"time":"2022/02/09 13:24:01","addressesInput":["addr1qysdvmvecllayy4rkksgsms5lu4vxhvxwtmx85ks3cctcdl49v0llr6kh86h28lyzeulsjnz9e0rfk2j0t9qend2e6xqvu3nts","addr1qysdvmvecllayy4rkksgsms5lu4vxhvxwtmx85ks3cctcdl49v0llr6kh86h28lyzeulsjnz9e0rfk2j0t9qend2e6xqvu3nts"],"addressesOutput":["addr1qyqknlaxnc86vc6xg52qwt6c832avemxnl53t3ttjewc8hm3kraznhy4z36flchkxu0pxc0xegfwg003svzjwaqur3zqzk7j3p","addr1qysdvmvecllayy4rkksgsms5lu4vxhvxwtmx85ks3cctcdl49v0llr6kh86h28lyzeulsjnz9e0rfk2j0t9qend2e6xqvu3nts","addr1qysdvmvecllayy4rkksgsms5lu4vxhvxwtmx85ks3cctcdl49v0llr6kh86h28lyzeulsjnz9e0rfk2j0t9qend2e6xqvu3nts"],"fee":205893,"totalOutput":43975422,"tokens":[]},{"hash":"484a10f3bc29dde427a53bcb6600cc9a56a5c5ef95abfc1ed725c76779494c6c","blockNo":6860964,"blockHash":"b80d5d1e16339fb10c4fdaea05e73c50738118a8f077fdc3eccc74851785c836","epochNo":319,"epochSlotNo":398823,"slot":52843623,"time":"2022/02/09 12:31:54","addressesInput":["addr1qyqswl60q09ruc6wejuw7eskqvta8fxa99klazmqw6lrfz8ukg2ttsywfqw64y2d9gndhhaf260nkucnml0dp5vm97ys6ja99s","addr1qyqswl60q09ruc6wejuw7eskqvta8fxa99klazmqw6lrfz8ukg2ttsywfqw64y2d9gndhhaf260nkucnml0dp5vm97ys6ja99s","addr1qyqswl60q09ruc6wejuw7eskqvta8fxa99klazmqw6lrfz8ukg2ttsywfqw64y2d9gndhhaf260nkucnml0dp5vm97ys6ja99s"],"addressesOutput":["addr1w9yr0zr530tp9yzrhly8lw5upddu0eym3yh0mjwa0qlr9pgmkzgv0","addr1qyqswl60q09ruc6wejuw7eskqvta8fxa99klazmqw6lrfz8ukg2ttsywfqw64y2d9gndhhaf260nkucnml0dp5vm97ys6ja99s","addr1qyqswl60q09ruc6wejuw7eskqvta8fxa99klazmqw6lrfz8ukg2ttsywfqw64y2d9gndhhaf260nkucnml0dp5vm97ys6ja99s"],"fee":307885,"totalOutput":27622799,"tokens":[]},{"hash":"95f19107a4ad70253b50a2c24d408f34d61eab63d88010b3177621dbc99670be","blockNo":6860948,"blockHash":"2b241cd108f02de76df03d04935b3e8d69fa7ed85d0b447a7f4b5ab84d200486","epochNo":319,"epochSlotNo":398500,"slot":52843300,"time":"2022/02/09 12:26:31","addressesInput":["addr1qysdvmvecllayy4rkksgsms5lu4vxhvxwtmx85ks3cctcdl49v0llr6kh86h28lyzeulsjnz9e0rfk2j0t9qend2e6xqvu3nts","addr1qysdvmvecllayy4rkksgsms5lu4vxhvxwtmx85ks3cctcdl49v0llr6kh86h28lyzeulsjnz9e0rfk2j0t9qend2e6xqvu3nts"],"addressesOutput":["addr1qysdvmvecllayy4rkksgsms5lu4vxhvxwtmx85ks3cctcdl49v0llr6kh86h28lyzeulsjnz9e0rfk2j0t9qend2e6xqvu3nts","addr1qysdvmvecllayy4rkksgsms5lu4vxhvxwtmx85ks3cctcdl49v0llr6kh86h28lyzeulsjnz9e0rfk2j0t9qend2e6xqvu3nts","addr1qysdvmvecllayy4rkksgsms5lu4vxhvxwtmx85ks3cctcdl49v0llr6kh86h28lyzeulsjnz9e0rfk2j0t9qend2e6xqvu3nts"],"fee":205805,"totalOutput":50373146,"tokens":[]},{"hash":"ca653b391c87bcb2704ecf105710610ab374cafc21e82186da3a9edd36eaf1e3","blockNo":6860819,"blockHash":"cf55bf931e4cf702bd4c0035bf9cd5f7dc0d0dea9b0ab54fcd7c9c4cf2811e7b","epochNo":319,"epochSlotNo":395672,"slot":52840472,"time":"2022/02/09 11:39:23","addressesInput":["addr1qyc7mx4zsjl73n5zw2jr523yznh2qw7472v5ht3mwsyut8g2pyn8fvqgg02pk93uks0kmqda3cu4whj3xpnvnm6wr8tsq0q8tj","addr1q8rucdw2knuxt9f7c47fclwv7pk4nkqq6f68jvmrrlez28g2pyn8fvqgg02pk93uks0kmqda3cu4whj3xpnvnm6wr8tsmj4h24","addr1q8hm5s0g0qxasm0tadhfzemtxlumn0pc6st050z5k3wlc7q2pyn8fvqgg02pk93uks0kmqda3cu4whj3xpnvnm6wr8ts974k5t"],"addressesOutput":["addr1qxqwzgwhnxfg46xcy5m9vc6jvurvha8vrejrr08gspga975w3mm6plsuk9e4d6f3zf5vtkzr4nkez9djvvpg453knwmsa3jau5","addr1q8j282te2dzqre67eda2ljz36rm66mjl32yg7yay6rhqu7s2pyn8fvqgg02pk93uks0kmqda3cu4whj3xpnvnm6wr8tsrkp6r4"],"fee":260761,"totalOutput":17596217,"tokens":[]},{"hash":"700e7a7ff9ec281801d5f89da373baf266cef7fba90017c666b8f505174521f7","blockNo":6860813,"blockHash":"cc829fd55e9d642a0f7840ba03556f363c15c39265b09a5cd506fd17bd5133b5","epochNo":319,"epochSlotNo":395567,"slot":52840367,"time":"2022/02/09 11:37:38","addressesInput":["addr1qxszsqjtp8kf60yvk896cr9td2rkqnsxsgvej2ad8lah8x3hcdj45clk5lfnp6a2m7jdkpwd06t207rf6p2hzx6lv2jsl2szk3","addr1qxszsqjtp8kf60yvk896cr9td2rkqnsxsgvej2ad8lah8x3hcdj45clk5lfnp6a2m7jdkpwd06t207rf6p2hzx6lv2jsl2szk3"],"addressesOutput":["addr1w999n67e86jn6xal07pzxtrmqynspgx0fwmcmpua4wc6yzsxpljz3","addr1qxszsqjtp8kf60yvk896cr9td2rkqnsxsgvej2ad8lah8x3hcdj45clk5lfnp6a2m7jdkpwd06t207rf6p2hzx6lv2jsl2szk3"],"fee":285543,"totalOutput":136550346,"tokens":[]},{"hash":"ce513afd4e652f87176e297967030390f2021ad3d7c306f057dacd3b4a181195","blockNo":6860809,"blockHash":"b4c191137ed07dcee6c048ecc99582fcb1b29e43cd5984fbc38dc420b20d6b37","epochNo":319,"epochSlotNo":395487,"slot":52840287,"time":"2022/02/09 11:36:18","addressesInput":["addr1q8njpfaq2juy8djeqh7xs4k9n0uyz7q00gr4ttn82xdc6xuz2kfgd2rjm46qt0vqvtu6lmrwna0gzmsvv37ngqtmywwq4pn0pl","addr1q8njpfaq2juy8djeqh7xs4k9n0uyz7q00gr4ttn82xdc6xuz2kfgd2rjm46qt0vqvtu6lmrwna0gzmsvv37ngqtmywwq4pn0pl","addr1q8njpfaq2juy8djeqh7xs4k9n0uyz7q00gr4ttn82xdc6xuz2kfgd2rjm46qt0vqvtu6lmrwna0gzmsvv37ngqtmywwq4pn0pl","addr1q8njpfaq2juy8djeqh7xs4k9n0uyz7q00gr4ttn82xdc6xuz2kfgd2rjm46qt0vqvtu6lmrwna0gzmsvv37ngqtmywwq4pn0pl","addr1q8njpfaq2juy8djeqh7xs4k9n0uyz7q00gr4ttn82xdc6xuz2kfgd2rjm46qt0vqvtu6lmrwna0gzmsvv37ngqtmywwq4pn0pl","addr1q8njpfaq2juy8djeqh7xs4k9n0uyz7q00gr4ttn82xdc6xuz2kfgd2rjm46qt0vqvtu6lmrwna0gzmsvv37ngqtmywwq4pn0pl","addr1q8njpfaq2juy8djeqh7xs4k9n0uyz7q00gr4ttn82xdc6xuz2kfgd2rjm46qt0vqvtu6lmrwna0gzmsvv37ngqtmywwq4pn0pl","addr1q8njpfaq2juy8djeqh7xs4k9n0uyz7q00gr4ttn82xdc6xuz2kfgd2rjm46qt0vqvtu6lmrwna0gzmsvv37ngqtmywwq4pn0pl","addr1q8njpfaq2juy8djeqh7xs4k9n0uyz7q00gr4ttn82xdc6xuz2kfgd2rjm46qt0vqvtu6lmrwna0gzmsvv37ngqtmywwq4pn0pl","addr1q8njpfaq2juy8djeqh7xs4k9n0uyz7q00gr4ttn82xdc6xuz2kfgd2rjm46qt0vqvtu6lmrwna0gzmsvv37ngqtmywwq4pn0pl","addr1q8njpfaq2juy8djeqh7xs4k9n0uyz7q00gr4ttn82xdc6xuz2kfgd2rjm46qt0vqvtu6lmrwna0gzmsvv37ngqtmywwq4pn0pl"],"addressesOutput":["addr1qyrlmhf3npg5rjh3468fj5q6ra3q8xgy0jsfrycmg3h9x7sklprhhtlqs35lpdnzajrfpcpx7hlup4q8s3rs53lm3rxse420vy","addr1q8njpfaq2juy8djeqh7xs4k9n0uyz7q00gr4ttn82xdc6xuz2kfgd2rjm46qt0vqvtu6lmrwna0gzmsvv37ngqtmywwq4pn0pl","addr1q8njpfaq2juy8djeqh7xs4k9n0uyz7q00gr4ttn82xdc6xuz2kfgd2rjm46qt0vqvtu6lmrwna0gzmsvv37ngqtmywwq4pn0pl"],"fee":245009,"totalOutput":140658765,"tokens":[]},{"hash":"65b9a1494ec1d6596ef1b13892a1bb36612bc0ac375a42cbeea2ccf0dc6e9f17","blockNo":6860699,"blockHash":"6f7c4b44bcd65c4c3f6cb508309ae7ae7d208d7184a7b254a2762e540ca1038f","epochNo":319,"epochSlotNo":392926,"slot":52837726,"time":"2022/02/09 10:53:37","addressesInput":["addr1qyqswl60q09ruc6wejuw7eskqvta8fxa99klazmqw6lrfz8ukg2ttsywfqw64y2d9gndhhaf260nkucnml0dp5vm97ys6ja99s","addr1qyqswl60q09ruc6wejuw7eskqvta8fxa99klazmqw6lrfz8ukg2ttsywfqw64y2d9gndhhaf260nkucnml0dp5vm97ys6ja99s","addr1qyqswl60q09ruc6wejuw7eskqvta8fxa99klazmqw6lrfz8ukg2ttsywfqw64y2d9gndhhaf260nkucnml0dp5vm97ys6ja99s","addr1qyqswl60q09ruc6wejuw7eskqvta8fxa99klazmqw6lrfz8ukg2ttsywfqw64y2d9gndhhaf260nkucnml0dp5vm97ys6ja99s"],"addressesOutput":["addr1q8xgcxn4qx7xxdpptaru772pxhjar5lf2vhc3spszgf7s9qvjcd6qhkwzd4qj4mv4gdksyc2yftqgcgcczvhwn40xj3s2uyhj9","addr1qyqswl60q09ruc6wejuw7eskqvta8fxa99klazmqw6lrfz8ukg2ttsywfqw64y2d9gndhhaf260nkucnml0dp5vm97ys6ja99s","addr1qyqswl60q09ruc6wejuw7eskqvta8fxa99klazmqw6lrfz8ukg2ttsywfqw64y2d9gndhhaf260nkucnml0dp5vm97ys6ja99s"],"fee":301505,"totalOutput":46745141,"tokens":[]},{"hash":"e390a163d7fd5f5a7282829c6309350c832c066496abcd4bf06efed738909ecf","blockNo":6860558,"blockHash":"c237cdf832f09ef8378859ba48bc47f428f2fe4d7825bd4ddf8c4a3c203dbb82","epochNo":319,"epochSlotNo":389665,"slot":52834465,"time":"2022/02/09 09:59:16","addressesInput":["addr1qx66ld8lmhkzrcyux8pa9pcqnl557u7fn4yx9saf408sugwyfc4zp869tej7hupgauntukhtq2q7zgm2c6y9gjntttxs0jwtxz","addr1qx66ld8lmhkzrcyux8pa9pcqnl557u7fn4yx9saf408sugwyfc4zp869tej7hupgauntukhtq2q7zgm2c6y9gjntttxs0jwtxz"],"addressesOutput":["addr1qx66ld8lmhkzrcyux8pa9pcqnl557u7fn4yx9saf408sugwyfc4zp869tej7hupgauntukhtq2q7zgm2c6y9gjntttxs0jwtxz","addr1qx66ld8lmhkzrcyux8pa9pcqnl557u7fn4yx9saf408sugwyfc4zp869tej7hupgauntukhtq2q7zgm2c6y9gjntttxs0jwtxz"],"fee":180813,"totalOutput":40619792,"tokens":[]},{"hash":"64436d96d742fdc60b95511995d5e60ed9802ca4b13bf0a05638ead2858537ab","blockNo":6860556,"blockHash":"f078625594015a9a626dbb6bc518db7a9017e4722edb7e0acb0e1de90bb5ca47","epochNo":319,"epochSlotNo":389622,"slot":52834422,"time":"2022/02/09 09:58:33","addressesInput":["addr1qysdvmvecllayy4rkksgsms5lu4vxhvxwtmx85ks3cctcdl49v0llr6kh86h28lyzeulsjnz9e0rfk2j0t9qend2e6xqvu3nts","addr1qysdvmvecllayy4rkksgsms5lu4vxhvxwtmx85ks3cctcdl49v0llr6kh86h28lyzeulsjnz9e0rfk2j0t9qend2e6xqvu3nts"],"addressesOutput":["addr1w999n67e86jn6xal07pzxtrmqynspgx0fwmcmpua4wc6yzsxpljz3","addr1qysdvmvecllayy4rkksgsms5lu4vxhvxwtmx85ks3cctcdl49v0llr6kh86h28lyzeulsjnz9e0rfk2j0t9qend2e6xqvu3nts"],"fee":243831,"totalOutput":51123040,"tokens":[]},{"hash":"11cb7156bcda6b9533f86652419a0a2df3c41b08d4f141bc6f266a365989c8c3","blockNo":6860281,"blockHash":"ab2b5a482192d6efbad2fa39fbfe2bd8daf4e7fbaa69500f19c4e5d6a9b70ffd","epochNo":319,"epochSlotNo":383884,"slot":52828684,"time":"2022/02/09 08:22:55","addressesInput":["addr1qyrjd2mt7jlnd8al9mr5qywm9vsvhtpym6p90f89rv4jkwg2pyn8fvqgg02pk93uks0kmqda3cu4whj3xpnvnm6wr8tsmp7xrx","addr1q8hm5s0g0qxasm0tadhfzemtxlumn0pc6st050z5k3wlc7q2pyn8fvqgg02pk93uks0kmqda3cu4whj3xpnvnm6wr8ts974k5t","addr1q94523hsme5e6y78y4fjh649g7jmg2krjanf4xzuac3pw3q2pyn8fvqgg02pk93uks0kmqda3cu4whj3xpnvnm6wr8ts3rd92m"],"addressesOutput":["addr1qynzx4y9dnmkd96celuuls74zr8smchlj74dvq27hj7wv3nsq7w35xfes57sktgqgl7lnv96haunhysly60s3553vntq2fe4xh","addr1q8rucdw2knuxt9f7c47fclwv7pk4nkqq6f68jvmrrlez28g2pyn8fvqgg02pk93uks0kmqda3cu4whj3xpnvnm6wr8tsmj4h24","addr1q8rucdw2knuxt9f7c47fclwv7pk4nkqq6f68jvmrrlez28g2pyn8fvqgg02pk93uks0kmqda3cu4whj3xpnvnm6wr8tsmj4h24"],"fee":265293,"totalOutput":15536349,"tokens":[]},{"hash":"55ad857ade84f583bfbe82ea653412c0ab8f110a7efbf8b00e0f2d85b04f56d6","blockNo":6860272,"blockHash":"141e1e9826bc21d8712ff7bc2d23c687bae81364e3f580588c4336caa5cef307","epochNo":319,"epochSlotNo":383740,"slot":52828540,"time":"2022/02/09 08:20:31","addressesInput":["addr1qy0xznhgdhqj9u4g6jjdntf2cxy5lyad8j2p6a6dp8jwwttfq4uncdzu6hqlxn7gva2xsaln40x226fl8fsnqyyvzxtqqm3qw9"],"addressesOutput":["addr1w999n67e86jn6xal07pzxtrmqynspgx0fwmcmpua4wc6yzsxpljz3","addr1qy0xznhgdhqj9u4g6jjdntf2cxy5lyad8j2p6a6dp8jwwttfq4uncdzu6hqlxn7gva2xsaln40x226fl8fsnqyyvzxtqqm3qw9"],"fee":240183,"totalOutput":9703183,"tokens":[]},{"hash":"70800abaaf1d21d78f6c10f0a1628b89180ebdea536fb1ae503f518830a19098","blockNo":6860016,"blockHash":"9e7e6713a883340067efa2494d0b91e27dfe2781d0a03897a5d0d69a2b81007a","epochNo":319,"epochSlotNo":378579,"slot":52823379,"time":"2022/02/09 06:54:30","addressesInput":["addr1qy83mzpxy40gw8pqrjgagrv75ssrd8lkrvz82qzuc2kc5r7vt2m6ue6hqwf8vx7rtsjm5eyxkxy0624fjl9qlvakz74q8fha2t","addr1qy83mzpxy40gw8pqrjgagrv75ssrd8lkrvz82qzuc2kc5r7vt2m6ue6hqwf8vx7rtsjm5eyxkxy0624fjl9qlvakz74q8fha2t","addr1qy83mzpxy40gw8pqrjgagrv75ssrd8lkrvz82qzuc2kc5r7vt2m6ue6hqwf8vx7rtsjm5eyxkxy0624fjl9qlvakz74q8fha2t"],"addressesOutput":["addr1wy2mjh76em44qurn5x73nzqrxua7ataasftql0u2h6g88lc3gtgpz","addr1qy83mzpxy40gw8pqrjgagrv75ssrd8lkrvz82qzuc2kc5r7vt2m6ue6hqwf8vx7rtsjm5eyxkxy0624fjl9qlvakz74q8fha2t"],"fee":192738,"totalOutput":4667262,"tokens":[]},{"hash":"22ef21b02d03a2a8ceeaf10c1336fce13792ba049f196c8b19d0509cc1048e27","blockNo":6859701,"blockHash":"2c2f42e6d26a3c37bd77cb26539eb1159ea1a0f63c66bf1e1c38f7316eb79a37","epochNo":319,"epochSlotNo":372489,"slot":52817289,"time":"2022/02/09 05:13:00","addressesInput":["addr1q9u8ec3x4nry49afkvrmu26kx7u67g49dx4zxpnwker8zlevarngxaqdlyqw85tju7l6hyffclquxm98dzkraad6md9qc9quux","addr1w9yr0zr530tp9yzrhly8lw5upddu0eym3yh0mjwa0qlr9pgmkzgv0"],"addressesOutput":["addr1q80whnaz6rgtx67vmaaa4mwzxcjnph72ss0lxel03c2lcpgrcmw88vp400h85nxgyw5rgfdfqape5lk3y9pfcyh08ass6a5vtd","addr1qxq47au29wss4g8acjk0zsmwwq0h34hhzump6stye9wuldm7nm0t6ad3jz9hy5v3smye0nvcumtzu43k7r36ag0w29qqdafvvk","addr1qyh70cf9v4898vm5dewap2klx4h0etzhcfkgv3c2235vjqck25arrwtyqtg4068zv6f9k42f25tzmcw3usx8z96a8mhshyqxvh","addr1q9u8ec3x4nry49afkvrmu26kx7u67g49dx4zxpnwker8zlevarngxaqdlyqw85tju7l6hyffclquxm98dzkraad6md9qc9quux","addr1q9u8ec3x4nry49afkvrmu26kx7u67g49dx4zxpnwker8zlevarngxaqdlyqw85tju7l6hyffclquxm98dzkraad6md9qc9quux"],"fee":1079357,"totalOutput":195197576,"tokens":[]},{"hash":"d17784ecf8f4d805aeda9561a9cbfbdd9ff9c280b7da6a745123cc8127049edc","blockNo":6859685,"blockHash":"e4a663f756d8bcee9adc9c3f26263ebcda061748b6863d13a2ee5b0ff0537438","epochNo":319,"epochSlotNo":372177,"slot":52816977,"time":"2022/02/09 05:07:48","addressesInput":["addr1q8fjdde87jrua78trg9ylv7gpvd5skzcv5nqp3wl467ykzgsmz083klcvm744y0n7yyg49ykzz0j628xpu4n5u0r0r4qrfqf6q","addr1q8fjdde87jrua78trg9ylv7gpvd5skzcv5nqp3wl467ykzgsmz083klcvm744y0n7yyg49ykzz0j628xpu4n5u0r0r4qrfqf6q"],"addressesOutput":["addr1qyyhymjpwnujamadjnlh8xmgx80wzuhqm368s6ulgl9mawrr99nkrt2meqa2z55hep7jnj8rkmt0e84z440lt0grvysse3fyck","addr1q8fjdde87jrua78trg9ylv7gpvd5skzcv5nqp3wl467ykzgsmz083klcvm744y0n7yyg49ykzz0j628xpu4n5u0r0r4qrfqf6q","addr1q8fjdde87jrua78trg9ylv7gpvd5skzcv5nqp3wl467ykzgsmz083klcvm744y0n7yyg49ykzz0j628xpu4n5u0r0r4qrfqf6q"],"fee":284345,"totalOutput":55043311,"tokens":[]},{"hash":"6077a9ba72dd8b99318193e7561828383f3f087fa2862d913961e53c1089b6f1","blockNo":6859643,"blockHash":"79134641ebbea58d1c16ddd685303c7f89ec1b17edef04e7c296106beef9fc6b","epochNo":319,"epochSlotNo":371174,"slot":52815974,"time":"2022/02/09 04:51:05","addressesInput":["addr1qymuk7lm4np4dyadtyv7rsvr6ztn52mr0j5zcl0ylufky3ev7xyue5vv22v423x2smvuumdvh404f8vv75m3qfcfadyqa3q0s4","addr1q8dg6cl027fqsx7vycsw7mk9lcl0s8xny43d0nvxa53frcev7xyue5vv22v423x2smvuumdvh404f8vv75m3qfcfadyqr8wnaw"],"addressesOutput":["addr1qy7f68x7yxvtzc7muuzzxdde4a4wnnjju0tewfwrc0pcuj069ud75z3pwkagrp8rlhtumfupxmqyr7urs7gjylhuymaq3rnq6l","addr1q949jdxpcmck74cr6hjk67s2nzl88l2nyxfjkzxhyvwye0fv7xyue5vv22v423x2smvuumdvh404f8vv75m3qfcfadyqqk9sgf"],"fee":179361,"totalOutput":6453645,"tokens":[]},{"hash":"c1bad820c53fd259a18fbd8d4167219593ed58efbfacbec0ce212a0d8e5db4c1","blockNo":6859630,"blockHash":"434200ecae99a498f8b056186f9aed0b30cb95b02ff3e50cce42b216df4db9ca","epochNo":319,"epochSlotNo":370873,"slot":52815673,"time":"2022/02/09 04:46:04","addressesInput":["addr1q8fjdde87jrua78trg9ylv7gpvd5skzcv5nqp3wl467ykzgsmz083klcvm744y0n7yyg49ykzz0j628xpu4n5u0r0r4qrfqf6q","addr1q8fjdde87jrua78trg9ylv7gpvd5skzcv5nqp3wl467ykzgsmz083klcvm744y0n7yyg49ykzz0j628xpu4n5u0r0r4qrfqf6q","addr1q8fjdde87jrua78trg9ylv7gpvd5skzcv5nqp3wl467ykzgsmz083klcvm744y0n7yyg49ykzz0j628xpu4n5u0r0r4qrfqf6q"],"addressesOutput":["addr1q9k9cxnfldflfmy6psv450a89wtptayymt7p9hdfhlk2afetgmcv80svr23qlqpl3gsf0r474rsythgarf44qdddyvpq9r50vs","addr1q8fjdde87jrua78trg9ylv7gpvd5skzcv5nqp3wl467ykzgsmz083klcvm744y0n7yyg49ykzz0j628xpu4n5u0r0r4qrfqf6q","addr1q8fjdde87jrua78trg9ylv7gpvd5skzcv5nqp3wl467ykzgsmz083klcvm744y0n7yyg49ykzz0j628xpu4n5u0r0r4qrfqf6q"],"fee":285929,"totalOutput":57327656,"tokens":[]},{"hash":"3cd5c678390069194df13c98c20591aa6fbf8567208cd8e591bf0277774aa621","blockNo":6859536,"blockHash":"e06399cba7631ac0b16068e4697d2ac2a1f9df7cf75ef5e462aa18619d1842bd","epochNo":319,"epochSlotNo":368770,"slot":52813570,"time":"2022/02/09 04:11:01","addressesInput":["addr1qysdvmvecllayy4rkksgsms5lu4vxhvxwtmx85ks3cctcdl49v0llr6kh86h28lyzeulsjnz9e0rfk2j0t9qend2e6xqvu3nts","addr1qysdvmvecllayy4rkksgsms5lu4vxhvxwtmx85ks3cctcdl49v0llr6kh86h28lyzeulsjnz9e0rfk2j0t9qend2e6xqvu3nts","addr1qysdvmvecllayy4rkksgsms5lu4vxhvxwtmx85ks3cctcdl49v0llr6kh86h28lyzeulsjnz9e0rfk2j0t9qend2e6xqvu3nts","addr1qysdvmvecllayy4rkksgsms5lu4vxhvxwtmx85ks3cctcdl49v0llr6kh86h28lyzeulsjnz9e0rfk2j0t9qend2e6xqvu3nts"],"addressesOutput":["addr1v85s50tsaeh7mcn7mfv66644gkg4exlex5agr0vcmpew5zcat2fxr","addr1qysdvmvecllayy4rkksgsms5lu4vxhvxwtmx85ks3cctcdl49v0llr6kh86h28lyzeulsjnz9e0rfk2j0t9qend2e6xqvu3nts"],"fee":207081,"totalOutput":25429119,"tokens":[]},{"hash":"56618a1ebc1585b92a8f1b8ce4f214f3752cfa5cfd16ca90f70c9d6b89e29b4f","blockNo":6859530,"blockHash":"8b8df78d246c588a58d409710d43199420967f454495a80c75dc7a1b08a7359c","epochNo":319,"epochSlotNo":368702,"slot":52813502,"time":"2022/02/09 04:09:53","addressesInput":["addr1qxfcth69yw2h49ptmaakllln8fu5904aqqk596fhe0vj2epv7xyue5vv22v423x2smvuumdvh404f8vv75m3qfcfadyq3g6j3w"],"addressesOutput":["addr1qys3ugt5hae4af3n55j5nsmkl87ms354hahsa6gcpzt6ful69ud75z3pwkagrp8rlhtumfupxmqyr7urs7gjylhuymaqcm0vn4","addr1q8dg6cl027fqsx7vycsw7mk9lcl0s8xny43d0nvxa53frcev7xyue5vv22v423x2smvuumdvh404f8vv75m3qfcfadyqr8wnaw"],"fee":175225,"totalOutput":2977804,"tokens":[]}],"totalItems":574,"totalPages":29,"currentPage":0}