{"data":[{"blockNo":8106954,"slotNo":78809818,"epochNo":380,"epochSlotNo":13018,"hash":"c5e704dcd0909c6db9a00999e66950c3374ac20de758b72d23f5a976c35392e6","time":"2022/12/07 01:21:49","txCount":20,"totalFees":6215136,"totalOutput":17827265935559,"slotLeader":"07cc67445f419f643158cfdf3d0a3dd12507b8e81b961a19d3e9d3b5"},{"blockNo":8106953,"slotNo":78809801,"epochNo":380,"epochSlotNo":13001,"hash":"7cfa5d8812dac754ba8b724f5daef1272e3d2aef7f60a0cd2b9bb0b878dbba6c","time":"2022/12/07 01:21:32","txCount":3,"totalFees":592599,"totalOutput":2002388855362,"slotLeader":"58494275c20e5786646ccc1f7d19a4c190382f374b0762208d596580"},{"blockNo":8106952,"slotNo":78809796,"epochNo":380,"epochSlotNo":12996,"hash":"7e227fc67280ff732ebe69d01ba87a2aa49317cce6f67e2b8336fc16c2797b7d","time":"2022/12/07 01:21:27","txCount":30,"totalFees":8860434,"totalOutput":17429553708536,"slotLeader":"a7784228ea544bc94455e76f527aaee53266929f0bb2896893a0444f"},{"blockNo":8106951,"slotNo":78809772,"epochNo":380,"epochSlotNo":12972,"hash":"633da2e6cc906fdf7fa06120d91306353af11c816f0ae266a1141c4aa754ea8a","time":"2022/12/07 01:21:03","txCount":13,"totalFees":5432973,"totalOutput":416280870520,"slotLeader":"9ca4378a7ee308d910efd7a611a1df2181314c25723ff4cfa855664c"},{"blockNo":8106950,"slotNo":78809761,"epochNo":380,"epochSlotNo":12961,"hash":"7123282c6e58d60e7a5baf22652adae09bf37e61c9f8da4b239e0ffe81f479b9","time":"2022/12/07 01:20:52","txCount":16,"totalFees":6161334,"totalOutput":3215379473405,"slotLeader":"e118432cb62a1f13de9af18f7eff32a98fe97b751d444117f7655b86"},{"blockNo":8106949,"slotNo":78809745,"epochNo":380,"epochSlotNo":12945,"hash":"eefcd8017c8869e84b333bd01f6cac67134a73cce92b7e8fd3afd5fa27fb26e5","time":"2022/12/07 01:20:36","txCount":3,"totalFees":1792138,"totalOutput":13775585841,"slotLeader":"89eba2781e5cd11ccda6be56503702a39e9941e522f04cd5bba22957"},{"blockNo":8106948,"slotNo":78809744,"epochNo":380,"epochSlotNo":12944,"hash":"dc9f45bf6d5098bb306541d282fe0e99876311d991b40ce0fcf99e8a00c8f821","time":"2022/12/07 01:20:35","txCount":0,"totalFees":0,"totalOutput":0,"slotLeader":"45822f964089d86a48f9630e0187f26b4dbba9013ac7b1e04c443c82"},{"blockNo":8106947,"slotNo":78809743,"epochNo":380,"epochSlotNo":12943,"hash":"6eecc8f79e1c7e001ae155be2d7691c78696f91fdd18f092245b3e7ea81b0003","time":"2022/12/07 01:20:34","txCount":2,"totalFees":763390,"totalOutput":7776178842,"slotLeader":"988b7a8fa476f5be2987ffaebe740cdcdfafc7790f3a624c22fbbf28"},{"blockNo":8106946,"slotNo":78809740,"epochNo":380,"epochSlotNo":12940,"hash":"3b593089ae5ccbb8f9ab329d4dfeeaf23dfcf347ff2ad0bfe2c3a0bb223f37ac","time":"2022/12/07 01:20:31","txCount":28,"totalFees":8188286,"totalOutput":199967368276,"slotLeader":"ad1b6687f605b3543f9315a5f966ea70fc5f35e7b2a4c3a943bef78d"},{"blockNo":8106945,"slotNo":78809714,"epochNo":380,"epochSlotNo":12914,"hash":"542d052c291040150a2222c0e2a9fb8231664e883f7d2e05598bf494bd6ca65e","time":"2022/12/07 01:20:05","txCount":30,"totalFees":8562556,"totalOutput":17857490627493,"slotLeader":"fc88e862f18afc8ea5eaee720b003cb71f3405df2a76faafdca43f43"}],"totalItems":631,"totalPages":64,"currentPage":0}