{"data":[{"hash":"5715abab9b481a8a956a38b699d92eb2a0d824ed03b198138a281f5a9272cbdf","blockNo":8109459,"blockHash":"8978b7fd5dbdae290aed70bacc0d6af439ed24b38367f24112c8948250930602","epochNo":380,"epochSlotNo":64353,"slot":78861153,"time":"2022/12/07 15:37:24","addressesInput":["addr1vx2s2w08zurn9suuk4u6jggws6trulajs6ua0ak3nyhqawq3djer6"],"addressesOutput":["addr1qynw9tlhc2xv6dzwm99ddq4l8jlmm58qqdc5cdkj0jxffvesmp6wyemdlav7wwv2wgvnesfhqv0q4s9chn57zwc80vsqj20pg2","addr1vxrmu3m2cc5k6xltupj86a2uzcuq8r4nhznrhfq0pkwl4hgqj2v8w","addr1q9ptpqj540dlxt96rlgvq2a4vsyggztfaw6u9ngnx4x75t8x5pfg7le4m0ze02z30yvr7glvpy0l3jpaqf5evzvl0lrqn2senf"],"fee":521197,"totalOutput":10352333,"tokens":[]},{"hash":"e36e73a82053b4fd31164693ba3d135befe392c2dac33fc5873b047236f29111","blockNo":8109459,"blockHash":"8978b7fd5dbdae290aed70bacc0d6af439ed24b38367f24112c8948250930602","epochNo":380,"epochSlotNo":64353,"slot":78861153,"time":"2022/12/07 15:37:24","addressesInput":["addr1q96nhmwzqtuhyuuexngwuktpd77mm3pjq02kx8nt3vpps0s7nl25yzuyvq2822vp6csqlcn8427e2zjm43mjhzyumfvspna5nw"],"addressesOutput":["addr1vxrmu3m2cc5k6xltupj86a2uzcuq8r4nhznrhfq0pkwl4hgqj2v8w","addr1q9ptpqj540dlxt96rlgvq2a4vsyggztfaw6u9ngnx4x75t8x5pfg7le4m0ze02z30yvr7glvpy0l3jpaqf5evzvl0lrqn2senf","addr1q96nhmwzqtuhyuuexngwuktpd77mm3pjq02kx8nt3vpps0s7nl25yzuyvq2822vp6csqlcn8427e2zjm43mjhzyumfvspna5nw"],"fee":528985,"totalOutput":27192774,"tokens":[]},{"hash":"0020731b1ffb1257dd010302720593da86d61bcfec958f9f6c36950880a62c5a","blockNo":8109459,"blockHash":"8978b7fd5dbdae290aed70bacc0d6af439ed24b38367f24112c8948250930602","epochNo":380,"epochSlotNo":64353,"slot":78861153,"time":"2022/12/07 15:37:24","addressesInput":["addr1v9844zpz5hdtet4aq4jmw9737662gemp3jwjekclfll076c5egjry"],"addressesOutput":["addr1qx8wryanzplgcrwpxfc72xg23204d7qfyxyhxw2xd9adlff58qefcmdxw7mx5p7c803p6xkxjy7xwj4k7crq8wkxdv6qf9wrx5","addr1vxrmu3m2cc5k6xltupj86a2uzcuq8r4nhznrhfq0pkwl4hgqj2v8w","addr1q9ptpqj540dlxt96rlgvq2a4vsyggztfaw6u9ngnx4x75t8x5pfg7le4m0ze02z30yvr7glvpy0l3jpaqf5evzvl0lrqn2senf"],"fee":501749,"totalOutput":10371781,"tokens":[]},{"hash":"bde42d8dca86d1508211fe795cb8395f970a599c6bf25e314cf41051c9675656","blockNo":8109459,"blockHash":"8978b7fd5dbdae290aed70bacc0d6af439ed24b38367f24112c8948250930602","epochNo":380,"epochSlotNo":64353,"slot":78861153,"time":"2022/12/07 15:37:24","addressesInput":["addr1q9t02xep7qc4hnrrv992ct3ayd7ygs5sa0yg9mupyv0ajlyxxu5t2fyyxssej3emq2lsrgdd4k88l9xpc7p7jqa0zy0s5dx523","addr1zxgx3far7qygq0k6epa0zcvcvrevmn0ypsnfsue94nsn3tvpw288a4x0xf8pxgcntelxmyclq83s0ykeehchz2wtspks905plm"],"addressesOutput":["addr1zxgx3far7qygq0k6epa0zcvcvrevmn0ypsnfsue94nsn3tvpw288a4x0xf8pxgcntelxmyclq83s0ykeehchz2wtspks905plm","addr1q9t02xep7qc4hnrrv992ct3ayd7ygs5sa0yg9mupyv0ajlyxxu5t2fyyxssej3emq2lsrgdd4k88l9xpc7p7jqa0zy0s5dx523"],"fee":297178,"totalOutput":192229773,"tokens":[]},{"hash":"5c157bf74d3717b01dd42be8f8e4503640d312f364c44c83eaac30b3868363f7","blockNo":8109459,"blockHash":"8978b7fd5dbdae290aed70bacc0d6af439ed24b38367f24112c8948250930602","epochNo":380,"epochSlotNo":64353,"slot":78861153,"time":"2022/12/07 15:37:24","addressesInput":["addr1qygx7jeplptpqdktfcqj8e0y0v9hhty20exldxc82hhcgnzkvdreew2jgjvvxxtxh69e8876aukk4qz8dujn4mfxl5jsj6u5qm"],"addressesOutput":["addr1q9lmf5rxegfn0uvas69n6clwcvh3027m3q3elcdgd6dxyyjkvdreew2jgjvvxxtxh69e8876aukk4qz8dujn4mfxl5js3tpyql"],"fee":173465,"totalOutput":2993116,"tokens":[]},{"hash":"a5606261e9c623c4402390ca51b612cb1fe1cf450b3fead874d6b3ca2f3b4e29","blockNo":8109459,"blockHash":"8978b7fd5dbdae290aed70bacc0d6af439ed24b38367f24112c8948250930602","epochNo":380,"epochSlotNo":64353,"slot":78861153,"time":"2022/12/07 15:37:24","addressesInput":["addr1q9xtntre0uv3pd6jr5ut2m67h9ud8ys62xh6rpwg2p407h6tl8zgm2s5zyprku3ssggvvm0uvnda8zzv56g3pffxnj9szlacfz","addr1q9xtntre0uv3pd6jr5ut2m67h9ud8ys62xh6rpwg2p407h6tl8zgm2s5zyprku3ssggvvm0uvnda8zzv56g3pffxnj9szlacfz","addr1q9xtntre0uv3pd6jr5ut2m67h9ud8ys62xh6rpwg2p407h6tl8zgm2s5zyprku3ssggvvm0uvnda8zzv56g3pffxnj9szlacfz"],"addressesOutput":["addr1qx57m3fjs5mndnt9hc5uwtaqj040hfj4ttw0uvyfpd00y05z5tmtzr2z570usj8zme0tyhnxtdzy522krxeu6g7sllus6ulfmu","addr1q9xtntre0uv3pd6jr5ut2m67h9ud8ys62xh6rpwg2p407h6tl8zgm2s5zyprku3ssggvvm0uvnda8zzv56g3pffxnj9szlacfz"],"fee":193133,"totalOutput":56735380,"tokens":[]},{"hash":"600ef436133cd25a7921171828eb75c5728a9b840ece76863f5db29be0334e70","blockNo":8109459,"blockHash":"8978b7fd5dbdae290aed70bacc0d6af439ed24b38367f24112c8948250930602","epochNo":380,"epochSlotNo":64353,"slot":78861153,"time":"2022/12/07 15:37:24","addressesInput":["addr1zxgx3far7qygq0k6epa0zcvcvrevmn0ypsnfsue94nsn3tvpw288a4x0xf8pxgcntelxmyclq83s0ykeehchz2wtspks905plm","addr1qyvh7vnzjrd8y72af0lfcdlz8d329z40wvv7n5fs3nxfhkcmu57pntpk7arqgxutdgrkc4fkuq7mdv5wnc8flr532dussdcm0d"],"addressesOutput":["addr1zxgx3far7qygq0k6epa0zcvcvrevmn0ypsnfsue94nsn3tvpw288a4x0xf8pxgcntelxmyclq83s0ykeehchz2wtspks905plm","addr1qyvh7vnzjrd8y72af0lfcdlz8d329z40wvv7n5fs3nxfhkcmu57pntpk7arqgxutdgrkc4fkuq7mdv5wnc8flr532dussdcm0d"],"fee":312098,"totalOutput":105292558,"tokens":[]},{"hash":"5044441e8825e4b2aee9e9837963d2c2f9eb2ed153c9569c09ad984356fdbab5","blockNo":8109459,"blockHash":"8978b7fd5dbdae290aed70bacc0d6af439ed24b38367f24112c8948250930602","epochNo":380,"epochSlotNo":64353,"slot":78861153,"time":"2022/12/07 15:37:24","addressesInput":["addr1v9u7va2sktlnz8dp3qadpnxxlv4m03672jy6elmntlxxs7q9nnwl9"],"addressesOutput":["addr1qyn57yewp6rpzd0pfa52pape4szkhr5utpsru3dmta6pv47y4axtxty4x9mhy0xrssj59dx3fzl8cjjk4mjxalecwq4swg8zhr","addr1v8v3auqmw0eszza3ww29ea2pwftuqrqqyu26zvzjq9dt2ncydzvs5"],"fee":171221,"totalOutput":15620480,"tokens":[]},{"hash":"7e543cfe8cce4d5b1af8e830046748c86b48d782ec8dc9ff1742851c6d4d1efa","blockNo":8109458,"blockHash":"fd0f24483c001f628a06a13052ac3f5e19944a1fb1c38187b339c6747263fbae","epochNo":380,"epochSlotNo":64346,"slot":78861146,"time":"2022/12/07 15:37:17","addressesInput":["addr1vx0hsph6r96euezy39yc7r5hceykh76wke5gzsed87pdx8smgc6d9","addr1vy4k5fq5gl6dpq59xxk2hn77glue385p6650unx2dz6au2grjv7uq","addr1vyc7ca9flp5gfeapd78uxzzq7l6qnsytj85n62lr5smhgssen2u2s","addr1vxllqy9ngsrf5tuclw69l27sm9hlplx7eyt9gqtc86qujtgrpnjxy","addr1vye3eh372ra3p2vzkrjw7zdq0fp9ksuvygfve6c672u2jnsr0drnx","addr1vyyg936cxwxy0l3ghcfp0fr3hdrwhc9jdae9rum02pz8j4ckxr4hm","addr1v84pnwuyp0ppd5r8mueh48yz0altmqjxlf25y8ke3me5rzcflfxgq","addr1v8699gcjyd98hxz0kfqq0rwqs3dsjd2g5snw9mqyfmguvlquepc8e","addr1vyl74m32zc0h44x6mllugudhwaxqqzf60n26hxcvk2z9q6ghlndg8","addr1v80rrlg7g004kdv5g9jtryykkx3q6x0xpwm4u50e54tgmjsh9e85p","addr1v9uwcjyl9j6xf9k7707ey8qzd3ye60cpgd8ruzjf3g73plcxk0t7u"],"addressesOutput":["addr1v9uwcjyl9j6xf9k7707ey8qzd3ye60cpgd8ruzjf3g73plcxk0t7u","addr1vyl74m32zc0h44x6mllugudhwaxqqzf60n26hxcvk2z9q6ghlndg8","addr1vy4k5fq5gl6dpq59xxk2hn77glue385p6650unx2dz6au2grjv7uq","addr1v80rrlg7g004kdv5g9jtryykkx3q6x0xpwm4u50e54tgmjsh9e85p","addr1vx0hsph6r96euezy39yc7r5hceykh76wke5gzsed87pdx8smgc6d9","addr1v84pnwuyp0ppd5r8mueh48yz0altmqjxlf25y8ke3me5rzcflfxgq","addr1vxllqy9ngsrf5tuclw69l27sm9hlplx7eyt9gqtc86qujtgrpnjxy","addr1vyyg936cxwxy0l3ghcfp0fr3hdrwhc9jdae9rum02pz8j4ckxr4hm","addr1v8699gcjyd98hxz0kfqq0rwqs3dsjd2g5snw9mqyfmguvlquepc8e","addr1vye3eh372ra3p2vzkrjw7zdq0fp9ksuvygfve6c672u2jnsr0drnx","addr1qxtlf847mr5u8x0lqkk4zghvrz8wgjpldttt8kzrnz5sl49rm04l0s20usg525upxyqllj3re8s8sxggy3hmn7vqvanqe6v5a2"],"fee":349509,"totalOutput":17619793,"tokens":[]},{"hash":"9271965205f7096db9aa0641851344cd0ffa8d4f2ba80f6c2811b2d2e5ef84fe","blockNo":8109458,"blockHash":"fd0f24483c001f628a06a13052ac3f5e19944a1fb1c38187b339c6747263fbae","epochNo":380,"epochSlotNo":64346,"slot":78861146,"time":"2022/12/07 15:37:17","addressesInput":["addr1v8yuwa4fz2yad6979877nuzps8ge2cqnrhnjdclpvp03hxc64nh8g"],"addressesOutput":["addr1qxe2yu86qxkwzsm8rpqesem7fu0lp5xx2ypd5kx505snt5q8y9s0rgfpp5e30pk0h8sx3lur5q0hl0czfraemsvqyxjqs7q0vr","addr1vxrmu3m2cc5k6xltupj86a2uzcuq8r4nhznrhfq0pkwl4hgqj2v8w","addr1q9ptpqj540dlxt96rlgvq2a4vsyggztfaw6u9ngnx4x75t8x5pfg7le4m0ze02z30yvr7glvpy0l3jpaqf5evzvl0lrqn2senf"],"fee":521065,"totalOutput":10352465,"tokens":[]},{"hash":"1582cb58e6ef271c859ca0040318009b42cd51982fef8d59bd62deda8044c7ac","blockNo":8109458,"blockHash":"fd0f24483c001f628a06a13052ac3f5e19944a1fb1c38187b339c6747263fbae","epochNo":380,"epochSlotNo":64346,"slot":78861146,"time":"2022/12/07 15:37:17","addressesInput":["addr1v9pcdckplh5w7gv98slf393fa8ue8t3dne5zv2s37sc7j0qd2vsmv","addr1v9pcdckplh5w7gv98slf393fa8ue8t3dne5zv2s37sc7j0qd2vsmv","addr1vxau0z7uyksg0s083gf2t0sv0a382yz4d9tx709eqrh535suwr4ma","addr1v9pcdckplh5w7gv98slf393fa8ue8t3dne5zv2s37sc7j0qd2vsmv","addr1v893kav4j3c04wes5t5glzmvjagxal6hx6s9qvv8e4vkpnq2hwpp7"],"addressesOutput":["addr1qykhk7wa9nl09g4jhs66kwp7pejnclgjv8z2a8nxeqjxj5a30patm5lck5zuf2s7apmuy7aslcr2vxnejtvn3svu0ytq4zgegf","addr1qxvcupng3lxs0zel04y74h6ht6uekjnppmvs2k6arytre4jh2h7rtzhms2zvev32zc0cp0r20sxgzl3eu3jwwwv8c6tqag6vlk","addr1q9tfvsrkc905a78l7lgwm0f5vla54a67z6gecyqsv6tph23r4efe7y63emu6vvlgkaeaewcczf2y8mnwxfhdw0gladlqgyf8yj","addr1vxau0z7uyksg0s083gf2t0sv0a382yz4d9tx709eqrh535suwr4ma","addr1v893kav4j3c04wes5t5glzmvjagxal6hx6s9qvv8e4vkpnq2hwpp7"],"fee":197709,"totalOutput":660665609,"tokens":[]},{"hash":"70961093dfa3900765188a4f859081aa0d894a7582af4bec4be945a056739864","blockNo":8109458,"blockHash":"fd0f24483c001f628a06a13052ac3f5e19944a1fb1c38187b339c6747263fbae","epochNo":380,"epochSlotNo":64346,"slot":78861146,"time":"2022/12/07 15:37:17","addressesInput":["addr1qxgfpjgfh3k5fcgx4v6euk62px3ztgnw2pr3gkm32g3m05l7tr4a9n4y4qkrnqvrsalhws7f6wsqnr6tq236nvkqjg0sf0dzas"],"addressesOutput":["addr1v9pcdckplh5w7gv98slf393fa8ue8t3dne5zv2s37sc7j0qd2vsmv","addr1q8s0rsrl2cqejqsj4t3my4qvfkkkw0d5yq72vt09hkpxlm07tr4a9n4y4qkrnqvrsalhws7f6wsqnr6tq236nvkqjg0smkh46x"],"fee":167085,"totalOutput":43597513,"tokens":[]},{"hash":"9d23cfef84e223bcb4c88b7355ef9f66a77550b1fbf8277c5209bcd4aaa377d8","blockNo":8109458,"blockHash":"fd0f24483c001f628a06a13052ac3f5e19944a1fb1c38187b339c6747263fbae","epochNo":380,"epochSlotNo":64346,"slot":78861146,"time":"2022/12/07 15:37:17","addressesInput":["addr1zxgx3far7qygq0k6epa0zcvcvrevmn0ypsnfsue94nsn3tvpw288a4x0xf8pxgcntelxmyclq83s0ykeehchz2wtspks905plm","addr1q9xufzawlgfvun0s3npeswz96un300d3vhhr7qen9ldgl3lzquvf6qw9ycdkx9pyszwfapgflewd6303ftmfk82h8qpslg9hwe"],"addressesOutput":["addr1zxgx3far7qygq0k6epa0zcvcvrevmn0ypsnfsue94nsn3tvpw288a4x0xf8pxgcntelxmyclq83s0ykeehchz2wtspks905plm","addr1q9xufzawlgfvun0s3npeswz96un300d3vhhr7qen9ldgl3lzquvf6qw9ycdkx9pyszwfapgflewd6303ftmfk82h8qpslg9hwe"],"fee":301798,"totalOutput":119739674,"tokens":[]},{"hash":"0896aebe6ad0aaed420f2d4168bf65276297a1a09ff905da616baf77cbbaa9fc","blockNo":8109458,"blockHash":"fd0f24483c001f628a06a13052ac3f5e19944a1fb1c38187b339c6747263fbae","epochNo":380,"epochSlotNo":64346,"slot":78861146,"time":"2022/12/07 15:37:17","addressesInput":["addr1qxhpdc5ak7k9le8dfvhvet06yltnathz0kav2dcchv6jq2w2h8y4gwedd2z2nx6544nalel0zd0g0kel44c96xy3vxvqmh3afa","addr1q87cmwj54sgscqlmrz8y06h5k2hprjxzr4nexh6qdf3vrhw2h8y4gwedd2z2nx6544nalel0zd0g0kel44c96xy3vxvqmqkkwf","addr1q8hpfckw65m9ul3xc4me3wy2a3c86jfn7dwwdwmwa4nv6872h8y4gwedd2z2nx6544nalel0zd0g0kel44c96xy3vxvqrnslkp"],"addressesOutput":["addr1qyu0zzmrvave0qut5gumrzhgx02z3al6euad2mrdq7uquxsd8qgexgu07zhztt2ls35p4mjynztzm9w4jvwfrmrsf5qshzawt9","addr1qyl66rlgwdpawhxlm7twscrxgx8tplv2rta5khdglltcr572h8y4gwedd2z2nx6544nalel0zd0g0kel44c96xy3vxvqrv4r30"],"fee":478385,"totalOutput":25073283,"tokens":[]},{"hash":"04823115253ab17b85de5741a17ce698cfc47824cf8f53b0a91c276c52e9337f","blockNo":8109458,"blockHash":"fd0f24483c001f628a06a13052ac3f5e19944a1fb1c38187b339c6747263fbae","epochNo":380,"epochSlotNo":64346,"slot":78861146,"time":"2022/12/07 15:37:17","addressesInput":["addr1q8l5sedqxut05vhm7nxdl02p5xjce7m6uchcjc6xdtjlrapssu7av27hq5rjnqfvaq9nl9gnksce30h67me22la6yexs6507je"],"addressesOutput":["addr1v9pcdckplh5w7gv98slf393fa8ue8t3dne5zv2s37sc7j0qd2vsmv","addr1q8l5sedqxut05vhm7nxdl02p5xjce7m6uchcjc6xdtjlrapssu7av27hq5rjnqfvaq9nl9gnksce30h67me22la6yexs6507je"],"fee":167085,"totalOutput":9832915,"tokens":[]},{"hash":"0141f169c7c21667188c519248dbc5c0646ef71ab9d4ab1c9944142a71d3e186","blockNo":8109458,"blockHash":"fd0f24483c001f628a06a13052ac3f5e19944a1fb1c38187b339c6747263fbae","epochNo":380,"epochSlotNo":64346,"slot":78861146,"time":"2022/12/07 15:37:17","addressesInput":["addr1qxwu6xc4wx9z7sqf5qhdsshgfrxtf2tywut0rcrxz5txwl6z0wsrjvcvk5qk0yjlhcj0enjc0lx904ehj605jqjt9zys3rl0y6"],"addressesOutput":["addr1vxrmu3m2cc5k6xltupj86a2uzcuq8r4nhznrhfq0pkwl4hgqj2v8w","addr1q9ptpqj540dlxt96rlgvq2a4vsyggztfaw6u9ngnx4x75t8x5pfg7le4m0ze02z30yvr7glvpy0l3jpaqf5evzvl0lrqn2senf","addr1qxwu6xc4wx9z7sqf5qhdsshgfrxtf2tywut0rcrxz5txwl6z0wsrjvcvk5qk0yjlhcj0enjc0lx904ehj605jqjt9zys3rl0y6"],"fee":514685,"totalOutput":139465186,"tokens":[]},{"hash":"1587f14bad654238323064b28e5f9874664df14b2cd008aa3b81d6b4e32877a7","blockNo":8109458,"blockHash":"fd0f24483c001f628a06a13052ac3f5e19944a1fb1c38187b339c6747263fbae","epochNo":380,"epochSlotNo":64346,"slot":78861146,"time":"2022/12/07 15:37:17","addressesInput":["addr1qyefwfskld82x7wkl529e4893dczm50vmcx4gw8mj23rrrk47vwtqxw6x7xf48am4dz4ljvsulqa49jnahgdlmf42sfqwtu2pe"],"addressesOutput":["addr1qyycs806qqn9l9g8lkupna7gkcn9wrmlz393xzzh8m0s60w47vwtqxw6x7xf48am4dz4ljvsulqa49jnahgdlmf42sfqrtmv6h","addr1qyycs806qqn9l9g8lkupna7gkcn9wrmlz393xzzh8m0s60w47vwtqxw6x7xf48am4dz4ljvsulqa49jnahgdlmf42sfqrtmv6h"],"fee":168317,"totalOutput":36831683,"tokens":[]},{"hash":"69d20d5ad03c0cece7e96e064dbc0a3a27fbd9937211f950a3656b2c8d17ab03","blockNo":8109458,"blockHash":"fd0f24483c001f628a06a13052ac3f5e19944a1fb1c38187b339c6747263fbae","epochNo":380,"epochSlotNo":64346,"slot":78861146,"time":"2022/12/07 15:37:17","addressesInput":["addr1qxkmr0m22xeqludcg5rjdmecjxasu9fat0680qehtcsnftaadgykewa9ufvegeuca9yyq03d9v7ea2y2zthgu7hfgjtsddp6gr","addr1qxkmr0m22xeqludcg5rjdmecjxasu9fat0680qehtcsnftaadgykewa9ufvegeuca9yyq03d9v7ea2y2zthgu7hfgjtsddp6gr","addr1qxkmr0m22xeqludcg5rjdmecjxasu9fat0680qehtcsnftaadgykewa9ufvegeuca9yyq03d9v7ea2y2zthgu7hfgjtsddp6gr"],"addressesOutput":["addr1qxkmr0m22xeqludcg5rjdmecjxasu9fat0680qehtcsnftaadgykewa9ufvegeuca9yyq03d9v7ea2y2zthgu7hfgjtsddp6gr","addr1q823jcc8pa3v9vr28ntj8tk2kcca70swr2r74vuuyhnm0zjczcmn4dhew77lmga3fcra5dx8a2m80rjp0zksxy5zsv8qa96cy3","addr1qxkmr0m22xeqludcg5rjdmecjxasu9fat0680qehtcsnftaadgykewa9ufvegeuca9yyq03d9v7ea2y2zthgu7hfgjtsddp6gr"],"fee":247165,"totalOutput":64360577174,"tokens":[]},{"hash":"f448c62dafa2115fa586427bd099cc766dad88eb66620e7064c77491d56fcc8c","blockNo":8109458,"blockHash":"fd0f24483c001f628a06a13052ac3f5e19944a1fb1c38187b339c6747263fbae","epochNo":380,"epochSlotNo":64346,"slot":78861146,"time":"2022/12/07 15:37:17","addressesInput":["addr1q8zu69370955cm06f4uqyxmj75m03jnzws4e9evvux4zt5zvnjgfwj3ps7r5zxvdrrrpvpnvk3dcdwk9snewzezhk35s5ywtnc","addr1qyu6aggu62rw80fk0tmga22q7ul7p2ddrtfu3r65tuy7wn6vnjgfwj3ps7r5zxvdrrrpvpnvk3dcdwk9snewzezhk35sd6s45n"],"addressesOutput":["addr1zxgx3far7qygq0k6epa0zcvcvrevmn0ypsnfsue94nsn3tvpw288a4x0xf8pxgcntelxmyclq83s0ykeehchz2wtspks905plm","addr1q8zu69370955cm06f4uqyxmj75m03jnzws4e9evvux4zt5zvnjgfwj3ps7r5zxvdrrrpvpnvk3dcdwk9snewzezhk35s5ywtnc"],"fee":330061,"totalOutput":17812970,"tokens":[]},{"hash":"e42eb1c2b32c0921f8e206e5adb6bab81578f740588602c035b6f8801986b9c2","blockNo":8109458,"blockHash":"fd0f24483c001f628a06a13052ac3f5e19944a1fb1c38187b339c6747263fbae","epochNo":380,"epochSlotNo":64346,"slot":78861146,"time":"2022/12/07 15:37:17","addressesInput":["addr1v8gemsvhn22azaux9fse9q8xvmkgqljzjjtkxulxu4ahuwq2nzs5c"],"addressesOutput":["addr1v8px4syex8e07e6c2ucfheh27t2tcxxjm5el22g0cw32m5g77jc7x"],"fee":400000,"totalOutput":9800000,"tokens":[]}],"totalItems":56199083,"totalPages":2809955,"currentPage":0}