{"data":[{"txId":56179264,"txHash":"25c0ab1758cb8be3b949ae4999fc8ac04d36b288fbe583c9a422262e69323a47","txTime":"2022/11/27 23:42:00","block":8068831,"epoch":378,"slotNo":78026229,"epochSlotNo":93429,"stakeKey":"stake1u94am093k7tf0rjegxl3twkrupvc83g5q43tflzhg6q4gts8gmdzt"},{"txId":56178805,"txHash":"4ddd12b0154ba4ee6a7e87e9edf2faef095254d4f5c7e6d514cb3eb4abd1a31b","txTime":"2022/11/27 23:32:00","block":8068805,"epoch":378,"slotNo":78025629,"epochSlotNo":92829,"stakeKey":"stake1uxcwd8r8gtv83rcmlcwuh8elvmwg385269ca2jjxj5cz7zcra2szm"},{"txId":56178710,"txHash":"5c33c617cb9e53c35f9c3f2320665598bf3e4609e6945ded34aaf5e988cd2e62","txTime":"2022/11/27 23:30:13","block":8068800,"epoch":378,"slotNo":78025522,"epochSlotNo":92722,"stakeKey":"stake1u8gyf7gle45t9p0qjvz0r93g2u8z2jx3zvwcmjhndzfp4fsxhvg03"},{"txId":56178665,"txHash":"1c503fa3b1b649b0a4bbaa708c74226e2d0170e8a81130ae455274bb3023f1f6","txTime":"2022/11/27 23:29:01","block":8068797,"epoch":378,"slotNo":78025450,"epochSlotNo":92650,"stakeKey":"stake1uxxd2gnkw8qxw72lauzsyp2dfdfxvgl8udevkgvpy2659wclgssga"},{"txId":56178036,"txHash":"6a3d5a2778aab20a2a29cb1e51632be62c9210c4fea9e4bfd7aaff447fb292db","txTime":"2022/11/27 23:15:10","block":8068751,"epoch":378,"slotNo":78024619,"epochSlotNo":91819,"stakeKey":"stake1uxah0t6279e5pkq7v0t3fucza5wpg7hme5xprg0efa9u9gce0d7wr"},{"txId":56177067,"txHash":"d9135145718b63aa48e6422f9cc21da87598e8a68f2f86403be9909eaf84a593","txTime":"2022/11/27 22:55:00","block":8068703,"epoch":378,"slotNo":78023409,"epochSlotNo":90609,"stakeKey":"stake1u9namw88reknhhxcyvl3zdgfs3djjy6kvaxsd2yr84zy3vcs7n6ua"},{"txId":56176839,"txHash":"06afbca5c9f79e77e7c0ba7c41f28c9fdb3687e5d7e3a2fb42da0544d11133e0","txTime":"2022/11/27 22:50:17","block":8068690,"epoch":378,"slotNo":78023126,"epochSlotNo":90326,"stakeKey":"stake1uyry6w790dcw28zykcud8v93xl4p8gpdg3jvu88gyk7mwhct4ysx3"},{"txId":56176519,"txHash":"a7a7553fe1f26e6f97dc75f43b68cda3035ebae4b385c1de5c87013b4b4da43a","txTime":"2022/11/27 22:44:24","block":8068669,"epoch":378,"slotNo":78022773,"epochSlotNo":89973,"stakeKey":"stake1u9m3t53s6ras882l327927qs7anzyvh9sg2c5w85zpnrc0slka3u7"},{"txId":56176162,"txHash":"7d5a2bc368baeffa2913614aab75c8e69278ee328aea42f7cb912d1047c12788","txTime":"2022/11/27 22:37:12","block":8068643,"epoch":378,"slotNo":78022341,"epochSlotNo":89541,"stakeKey":"stake1uyyapgcuwr72ksr7k0hazuyln65r8k6dcej982hm5pdlews5zg9s5"},{"txId":56175746,"txHash":"9d33b3dd0c991fcc84bb75d4f8b49a786e53432b5ccd6db4e4275c9ac6afccd9","txTime":"2022/11/27 22:27:54","block":8068621,"epoch":378,"slotNo":78021783,"epochSlotNo":88983,"stakeKey":"stake1u9kj0qhxpmkdtqxg82qta97f4wl88njmjuyjgsfrzqtkn2g57hg0z"},{"txId":56175716,"txHash":"2babed408cff8def2bda0c60fd0651cb21a4d82129e1feecbb4ee2c83cedb346","txTime":"2022/11/27 22:27:35","block":8068619,"epoch":378,"slotNo":78021764,"epochSlotNo":88964,"stakeKey":"stake1uxgg2fsfppljy47vn4dvcqfm2uqfc95e7fggkgcssuqwg8gcfaf3l"},{"txId":56175389,"txHash":"28fd65972242439e8199c3137f9f10a6a2b1f50155259cfc083db928250f453d","txTime":"2022/11/27 22:20:50","block":8068603,"epoch":378,"slotNo":78021359,"epochSlotNo":88559,"stakeKey":"stake1u8msqc36a9mj2y4mt2yyrllmkpnkzj0lqhchvyk7wjq8rgg4lfvgd"},{"txId":56175163,"txHash":"d6968ddd39a999e9e7c88541418a596227a8cf0134bc9693b253261e08af6262","txTime":"2022/11/27 22:16:42","block":8068590,"epoch":378,"slotNo":78021111,"epochSlotNo":88311,"stakeKey":"stake1uxtq39dhnpctngk2p0ahl5e5vnsjy8edjyecuczh5ssw5hqwq0e3y"},{"txId":56174847,"txHash":"d8da603987bb729ff203c89a6f25db1cd633f2e0b38a65454f09b7d6afb9afe0","txTime":"2022/11/27 22:09:58","block":8068567,"epoch":378,"slotNo":78020707,"epochSlotNo":87907,"stakeKey":"stake1u9w8htfm50nal5wxqehdzsy96zjw39p97gguxegjp36du8s2u9mdz"},{"txId":56174304,"txHash":"73cb4038970bd3078035ed24cb8e3938b58190b37e8a0cfce4a39b0d1df533bc","txTime":"2022/11/27 22:00:31","block":8068538,"epoch":378,"slotNo":78020140,"epochSlotNo":87340,"stakeKey":"stake1u8hzwtg3w5rgls6v24yak79deac4z4zzta4ds69qlzj06zqpvurwn"},{"txId":56173773,"txHash":"1be883d52ab7493b8ff07c1760cd9aac45460108f8bac3819935c9f59edd1338","txTime":"2022/11/27 21:51:51","block":8068517,"epoch":378,"slotNo":78019620,"epochSlotNo":86820,"stakeKey":"stake1u8nvq8m8lsfy04zerkyluucxrk9dj9vvcqnaqaw54uqvyrgpkn8wg"},{"txId":56173308,"txHash":"0f420b9b9e7552923a4df261cc24cf4fdd71db3c58ef4152bcf8f3e7cee8b32d","txTime":"2022/11/27 21:43:56","block":8068492,"epoch":378,"slotNo":78019145,"epochSlotNo":86345,"stakeKey":"stake1u8sr5mhk2hwc0uczw920xyv07tx2r6lahwsymgflea5kaug9w6w57"},{"txId":56172630,"txHash":"ac8ab3dc44b5de09afce0f13adf1f48da59abc07bf9f503e7a4192be59eb4ca8","txTime":"2022/11/27 21:32:37","block":8068462,"epoch":378,"slotNo":78018466,"epochSlotNo":85666,"stakeKey":"stake1uy3g2emjmvsjt5akw3tejfmcedl57un03hf4t38rcfzzn3gw8s5pl"},{"txId":56172463,"txHash":"1acb2d4429c12d5c8af1f3b3f37ad14392565071083f4df36fca2b8f6c15a7c3","txTime":"2022/11/27 21:30:13","block":8068457,"epoch":378,"slotNo":78018322,"epochSlotNo":85522,"stakeKey":"stake1u9fn09sctdxpyyqvtkn460g0ce4n2jpw9w0m2c99z87hr9qngmq5z"},{"txId":56171678,"txHash":"bc269ef749a3e446b2eaf0ef0987ca097465cfba9e93438c61d600d0bad28a1d","txTime":"2022/11/27 21:18:00","block":8068421,"epoch":378,"slotNo":78017589,"epochSlotNo":84789,"stakeKey":"stake1uxza78q3g2sxruxfmxr375yj8yt0cg0dlk83pyfkzcm2mcgnkmqrd"}],"totalItems":333531,"totalPages":16677,"currentPage":0}