{"data":[{"txId":55878894,"txHash":"88b8ba4320dc50faba5e6c5eea6f0219df2e55d2dd46a2107ed8930ad3d68438","txTime":"2022/11/24 06:20:56","block":8053323,"epoch":377,"slotNo":77704565,"epochSlotNo":203765,"stakeKey":"stake1u8nea9rdcpss53da8usch4vgpcknkm44yhc3dpaekvrunzgwd3dkp"},{"txId":55878078,"txHash":"518db96990c647a042878af5ad4ea0bdcc3836721ae38a2c4faeea8e1c973617","txTime":"2022/11/24 06:04:02","block":8053267,"epoch":377,"slotNo":77703551,"epochSlotNo":202751,"stakeKey":"stake1u88aws3thqzz2njymmyjr5t0hg447vcaevfnys2rg0jz0fqxlzqk3"},{"txId":55877158,"txHash":"ac4c2e810f35dfcac09ce51afcfe3770b31457a14dc5a6eafdbb7a814c51d84d","txTime":"2022/11/24 05:43:41","block":8053205,"epoch":377,"slotNo":77702330,"epochSlotNo":201530,"stakeKey":"stake1uxl2797epf73uzl4tp052yy72vz823g2vh3yc0d20jehknqrp408g"},{"txId":55875645,"txHash":"2b236f8af075afcba8aa596ea8b77b2e2bbb36b3d26d1c685cad0c44e5e3c454","txTime":"2022/11/24 05:13:30","block":8053124,"epoch":377,"slotNo":77700519,"epochSlotNo":199719,"stakeKey":"stake1uxu6qs9el87w7narp6l2pvjfxm3gvpz50y9ewxn0tldcltgwwskv3"},{"txId":55875299,"txHash":"305abef8f1a740bd5a2d0a76e9e8c9a4002397539b386575ddb0467a242cb1ed","txTime":"2022/11/24 05:06:56","block":8053108,"epoch":377,"slotNo":77700125,"epochSlotNo":199325,"stakeKey":"stake1u94m3kq4au04mfwrxxnvkkchhxa5xywugemg5wehcklea9gzm7a9a"},{"txId":55875268,"txHash":"c94d1e49ba8c6b6e8f0d1f43e17af08a64dba7605096904f8c330466a847b4e5","txTime":"2022/11/24 05:06:27","block":8053106,"epoch":377,"slotNo":77700096,"epochSlotNo":199296,"stakeKey":"stake1u8ner9d2wek6cufs0lw5v8dkg9l0f2wunfm48h2eyye8uggyjx848"},{"txId":55874290,"txHash":"c4f922f668994975895072788d8da4a6b436d0984fdda6d6cfee35b74e8f20db","txTime":"2022/11/24 04:47:00","block":8053051,"epoch":377,"slotNo":77698929,"epochSlotNo":198129,"stakeKey":"stake1u9nync8ekueerg68nmh9gd3umll4l034znvkeuvv4a2w78qhjdvjn"},{"txId":55873760,"txHash":"5abbe20688c9c432d25aa425379ca8223849782168a87a650fd32570d201d967","txTime":"2022/11/24 04:38:07","block":8053024,"epoch":377,"slotNo":77698396,"epochSlotNo":197596,"stakeKey":"stake1u8j89xeqcpfyw6wrzqah5z3dcc8ehjtzh3g5xzxw7qkqwdg9vzwdu"},{"txId":55873497,"txHash":"224374ef94955a89e2c0525c7d57706e41969894badcfaba9a3b53ea5912bc4b","txTime":"2022/11/24 04:32:57","block":8053013,"epoch":377,"slotNo":77698086,"epochSlotNo":197286,"stakeKey":"stake1uy6gddgj8957ks8n33eq0e407mqpdnynnvutwezpyy3txas6se4ez"},{"txId":55872036,"txHash":"ca44d45f705df55b1c340c03946dbd5745729beec468a287874e15f581f64a9d","txTime":"2022/11/24 04:07:20","block":8052938,"epoch":377,"slotNo":77696549,"epochSlotNo":195749,"stakeKey":"stake1ux6x03thgvr485yzdppnf74yq6e0yw4vhdevna8dz39rz4qz5evur"},{"txId":55871830,"txHash":"8fbf7c094c6cd48f68aa1a3516980719bd5d136ff8714e9b83613848f5a808a7","txTime":"2022/11/24 04:03:34","block":8052929,"epoch":377,"slotNo":77696323,"epochSlotNo":195523,"stakeKey":"stake1u8und3jqtunahvhd86d8xm25auk8atq9cd27sprfu67dtuqlq372p"},{"txId":55871352,"txHash":"041e17af1fd325b0e8a62188eda153393325805b37dda47d00e2441d866bf2cc","txTime":"2022/11/24 03:54:46","block":8052904,"epoch":377,"slotNo":77695795,"epochSlotNo":194995,"stakeKey":"stake1uyd852jrpyvfcwezr9mvm5sg0t6tuc37hrkk06jgx9pyencg4hsww"},{"txId":55871309,"txHash":"b119d46e43378c405435e4283d90259ba5c8d91744e48a7d35df9e9ec9257670","txTime":"2022/11/24 03:53:11","block":8052900,"epoch":377,"slotNo":77695700,"epochSlotNo":194900,"stakeKey":"stake1uykhkuku6zpc2ef7k8sx2f95zp5sgkkw880ggpqxe6xxfpc5klsls"},{"txId":55871105,"txHash":"4be806146ca854d228d985ecb1154f47d2844715db0f8bb18510e1c109647d6a","txTime":"2022/11/24 03:49:31","block":8052891,"epoch":377,"slotNo":77695480,"epochSlotNo":194680,"stakeKey":"stake1u8qteemmlnf98kdfa4qq6utwudpwtzujtm550md77ltenxqmek3zy"},{"txId":55870619,"txHash":"24ec6fa9858f42b73b6e7afe002525d962e94e7966155f8f46185d480dd89bbd","txTime":"2022/11/24 03:42:05","block":8052870,"epoch":377,"slotNo":77695034,"epochSlotNo":194234,"stakeKey":"stake1u9e3ruz887npasvpg8rc53rjhc4fspneu59u2s4mm6cszfcj545ft"},{"txId":55870479,"txHash":"53ec082ebd8b1b1da68ea19bb93fbdac876e5807eec17a5c955e810fea020ba8","txTime":"2022/11/24 03:39:16","block":8052865,"epoch":377,"slotNo":77694865,"epochSlotNo":194065,"stakeKey":"stake1u9fp7xy4pxkxfyvlagtm30kcx52hned0yk44330dw2khupsfyxxwy"},{"txId":55870331,"txHash":"a5185ae9cc7cb06eca14bcc811b87ac59bf218cab16f2020a7294f9d192e82e9","txTime":"2022/11/24 03:37:46","block":8052858,"epoch":377,"slotNo":77694775,"epochSlotNo":193975,"stakeKey":"stake1u9jl2q23q7udzly67umlcu4860n70py8f56l0xkka2zm7wqyuj4sh"},{"txId":55870044,"txHash":"abf72a0f27f950ce441df29c6db739b1b2d37242bb6b85745d7d4cd19d9cf5f0","txTime":"2022/11/24 03:32:08","block":8052843,"epoch":377,"slotNo":77694437,"epochSlotNo":193637,"stakeKey":"stake1u86gkvpuym50n3y7706lgqtg4a64nmud5vhydv57tcpnmzs50telu"},{"txId":55869874,"txHash":"92fe120102397dcf23ee30e5985e16f4e7db6ab44991534cfbcf38faa0fa941b","txTime":"2022/11/24 03:29:51","block":8052833,"epoch":377,"slotNo":77694300,"epochSlotNo":193500,"stakeKey":"stake1u96yzh64fwts628k23etcmnp2ztdrg9v23t3akxcnpmt63qjpx7yu"},{"txId":55869806,"txHash":"38c1502edaa4ff65a065f97221cf620bf9807d1f26e8c132ebd16ab155da2c04","txTime":"2022/11/24 03:28:54","block":8052832,"epoch":377,"slotNo":77694243,"epochSlotNo":193443,"stakeKey":"stake1u9mctwuzllkqcghgkgzwm3awyyfrht7vuxdeuywqdw8uf6qrgq63h"}],"totalItems":332456,"totalPages":16623,"currentPage":0}