{"data":[{"txId":61654275,"txHash":"9657cab05fa1552408c1673125a42255468915509b026fa251a7adf97196001c","txTime":"2023/02/09 12:03:13","block":8377676,"epoch":392,"slotNo":84377902,"epochSlotNo":397102,"stakeKey":"stake1uxzhtta4qcgnaneamuc3cegtjlznkn8a022t6t849cqxcmq5rwezp"},{"txId":61653966,"txHash":"ff1aca7509de310634e5d55df8dcaa1ec1a8219d9a9f16dccce323bac1cd1d3a","txTime":"2023/02/09 12:00:26","block":8377668,"epoch":392,"slotNo":84377735,"epochSlotNo":396935,"stakeKey":"stake1uxm67897gx45fztjxqfvd64cu2s7hkzkvkqgx50zmveq3mcxrz5mn"},{"txId":61653493,"txHash":"c9247ae4cc42c9c49bb37e2ca9930384d705c977a9ab88f7d648f7ad2b7dd474","txTime":"2023/02/09 11:56:34","block":8377653,"epoch":392,"slotNo":84377503,"epochSlotNo":396703,"stakeKey":"stake1ux88uqxlm5k70vqenucptm78ad7z6h8ayy4zjr89xzlsxmq3dc4sy"},{"txId":61653142,"txHash":"e85ac817aba2ee8fd51276ea544fc88c91547c5505beb759d640e63cb419c1de","txTime":"2023/02/09 11:51:41","block":8377642,"epoch":392,"slotNo":84377210,"epochSlotNo":396410,"stakeKey":"stake1u857vyy08llu2xg0ap88j4ztuwtl6cd5gfvnr7z4vmzmqkq29j4f7"},{"txId":61653081,"txHash":"82844584d4caf7ec39e95203f24686479e70617af6d363ed4938471af663dbd0","txTime":"2023/02/09 11:51:41","block":8377642,"epoch":392,"slotNo":84377210,"epochSlotNo":396410,"stakeKey":"stake1uyu7pta9u8wk8pgnx3vr9uplef6xgn56p4jpqc38qlyt29q0j94t8"},{"txId":61652764,"txHash":"8c1e60ea4a481b0711ca0bd5882c807a0c408439433b70f20924e6b7245659fe","txTime":"2023/02/09 11:48:57","block":8377633,"epoch":392,"slotNo":84377046,"epochSlotNo":396246,"stakeKey":"stake1u94mvz0tk8xxj8uwh3747lemqh0q73mceul0fxcrd82qv3gfsnyh8"},{"txId":61652582,"txHash":"a4a4e9ebce5a5eadd2ef6097b5b396f8193fe282f15e17155966b4cf7d64254f","txTime":"2023/02/09 11:47:28","block":8377630,"epoch":392,"slotNo":84376957,"epochSlotNo":396157,"stakeKey":"stake1u8emwdxxxr3q9g6qyy9w8mpdc8p5dnxvcae5uqv0nq4gteqfzrzln"},{"txId":61652468,"txHash":"721cba77080f3c683e6239f3c8d225d3d9897889a8f04ca58977c5b39dc777b6","txTime":"2023/02/09 11:45:42","block":8377625,"epoch":392,"slotNo":84376851,"epochSlotNo":396051,"stakeKey":"stake1u8e7raql6zq5dm6gerfyt4x7s5jd62jpdh93dqyjexasz2cnhvcvy"},{"txId":61652273,"txHash":"2feac5472847c31475cdccd4f0b1b9484b03bf098dc40299934b94209344bbd4","txTime":"2023/02/09 11:44:08","block":8377618,"epoch":392,"slotNo":84376757,"epochSlotNo":395957,"stakeKey":"stake1uxjuqhtq082gtpl2hxg0gzcywhaskctqzhjs2efnwwqejeg9acqpt"},{"txId":61652114,"txHash":"2663459d334e3a8a6cfed6b21e69f8bd622c62de82f044aa50134af1b5c2d000","txTime":"2023/02/09 11:42:22","block":8377614,"epoch":392,"slotNo":84376651,"epochSlotNo":395851,"stakeKey":"stake1uy9mk8x5z5jwjk5yhmg2f5d3gwcem63yhjr03u9sy8n73ag4lnt6m"},{"txId":61651837,"txHash":"154c780fcc7537b638927c93218e94bfb623aa60b2d5ce0879d85326f855d202","txTime":"2023/02/09 11:40:28","block":8377608,"epoch":392,"slotNo":84376537,"epochSlotNo":395737,"stakeKey":"stake1u9trv44srpy84q9lp9c5n3jgg0k3e2nfwy4gzck979h6rxsqaxcxq"},{"txId":61651624,"txHash":"e463cef71d8bb5cb6585bbb77eb4475b87df8fbdb360077b9a703776426edf7a","txTime":"2023/02/09 11:38:55","block":8377604,"epoch":392,"slotNo":84376444,"epochSlotNo":395644,"stakeKey":"stake1uxpc7268v4zz0tkhyhmgjayn6duqgam5xuzgtam9ht5qk4qqfu5d8"},{"txId":61651344,"txHash":"417cde506e3e06b108dfaccb76214dcc6a49e2230fd108c361ce8890ff638308","txTime":"2023/02/09 11:35:29","block":8377598,"epoch":392,"slotNo":84376238,"epochSlotNo":395438,"stakeKey":"stake1u8vlspyje2mt0d9q7yuaxt5uzx8lumcpcnaa5rhg5wl2dcsdf8j9k"},{"txId":61650985,"txHash":"9bc08f3f77690eaf0ea44ab884f34bfa6fb734b944b587fc9cb95da8a5f9ff0c","txTime":"2023/02/09 11:33:11","block":8377589,"epoch":392,"slotNo":84376100,"epochSlotNo":395300,"stakeKey":"stake1u9r380d70xp6zt9944v0h5nlnzgwfas9lkcjr2w06qurufskzcukl"},{"txId":61650921,"txHash":"ea693f9061a953808bf260e23ee089568642a74ca5ae297ba66731ab27c99959","txTime":"2023/02/09 11:31:45","block":8377587,"epoch":392,"slotNo":84376014,"epochSlotNo":395214,"stakeKey":"stake1u9keds59qas86z5j445zwyvfpvqh2vxjlee8sllvday8fls9atpuh"},{"txId":61650515,"txHash":"3d5f0996e15341e436776c624f02c6539b1e542448e7d7191363d6ab71b2f698","txTime":"2023/02/09 11:29:04","block":8377578,"epoch":392,"slotNo":84375853,"epochSlotNo":395053,"stakeKey":"stake1uxs2vz4dyc23ske6nfqwafda2vx9gz75dcp5lp8cq680ksgwl6nme"},{"txId":61650455,"txHash":"462c919ad8bc6a3a9fc60ce80f9708dd21b71be338555793f4ce87804557966c","txTime":"2023/02/09 11:26:59","block":8377575,"epoch":392,"slotNo":84375728,"epochSlotNo":394928,"stakeKey":"stake1u8h0p50yhmhasu5s0y47wa6ljqqgn394tm5jamw7y90jplshm96m3"},{"txId":61650399,"txHash":"75ecb5f9f862e7191a52e9638a3a0c7f8e014252d52e474eaebc3736c368981a","txTime":"2023/02/09 11:26:37","block":8377574,"epoch":392,"slotNo":84375706,"epochSlotNo":394906,"stakeKey":"stake1uyjw2ryxtenkt822v5lcj8lcv55wj8uesursuvug935ju0chr88j6"},{"txId":61650355,"txHash":"b3b0aa70342790e01cf69c0b44074f7fde091f0ab7892a0555139ff46200f0af","txTime":"2023/02/09 11:26:37","block":8377574,"epoch":392,"slotNo":84375706,"epochSlotNo":394906,"stakeKey":"stake1uyjrg47uxh7wep4d3frd2r0xt70ghpcc8adkj0jsa6y3ajc7l62dh"},{"txId":61649343,"txHash":"167f19064c1ac04fc4f2edf60d57aa9b4e89849aea35ca01cd20bbb6d19efc68","txTime":"2023/02/09 11:18:31","block":8377553,"epoch":392,"slotNo":84375220,"epochSlotNo":394420,"stakeKey":"stake1uxylpnwjvwdkz3ge2e2633ty97yeaskhquv5ldm2624kjcqnwq2sa"}],"totalItems":1662044,"totalPages":83103,"currentPage":0}