{"data":[{"blockNo":8110461,"slotNo":78882228,"epochNo":380,"epochSlotNo":85428,"hash":"d606672529ab23506e908f0f43f24b2ce186472ce580cf8afa4e3ccf647eebea","time":"2022/12/07 21:28:39","txCount":1,"totalFees":195641,"totalOutput":11283919,"slotLeader":"cb9a5414581696cf9176787e99472790355a7de61d67a5643da95a86"},{"blockNo":8110460,"slotNo":78882227,"epochNo":380,"epochSlotNo":85427,"hash":"ec0648cdf8abf2e9faff091e8c4cd04e0d4d2c59040fe2694821ee6fbfac3124","time":"2022/12/07 21:28:38","txCount":18,"totalFees":4978506,"totalOutput":617154759620,"slotLeader":"4ea4b108b5a3cedd1abec6175e6f97a61520f64d234e555d231a440e"},{"blockNo":8110459,"slotNo":78882210,"epochNo":380,"epochSlotNo":85410,"hash":"443c8cb30b94cb7d1e91a4b75bc432d04273b6592d0651416c306ac496d725c9","time":"2022/12/07 21:28:21","txCount":11,"totalFees":6084241,"totalOutput":800678050688,"slotLeader":"27ca1ffda65d1ef326c9e6a717210c98b10a0e17910c0ab6d9eeb6fb"},{"blockNo":8110458,"slotNo":78882204,"epochNo":380,"epochSlotNo":85404,"hash":"7cc15f10abe515d749f84f5c7410eb8174908abd08251fd18b60c514cb4cb86a","time":"2022/12/07 21:28:15","txCount":9,"totalFees":3564707,"totalOutput":8446130323,"slotLeader":"72de14d78a359617a7dd0b33c5554ed4edbafd768ece87c4bf672ee0"},{"blockNo":8110457,"slotNo":78882198,"epochNo":380,"epochSlotNo":85398,"hash":"2d8262e48576cac0dda05c6a42cc3c8eecf5f1ba5c246f825a1405a3724c5738","time":"2022/12/07 21:28:09","txCount":12,"totalFees":3063663,"totalOutput":99470553581,"slotLeader":"850ea4e988183b844b646a38e60b3cf13befb0385c1aa9a402dae5b9"},{"blockNo":8110456,"slotNo":78882177,"epochNo":380,"epochSlotNo":85377,"hash":"1a68c944ed05c7e9d787801b6ffd0e8130910da0fe5588fa1aef2854c23e2b37","time":"2022/12/07 21:27:48","txCount":23,"totalFees":9301406,"totalOutput":10106949910902,"slotLeader":"c1d314a78a43f3d5baa9c2e4105015384211416f220af4a24a8ea3ee"},{"blockNo":8110455,"slotNo":78882154,"epochNo":380,"epochSlotNo":85354,"hash":"5dcb37eb6b1beef836c9bb0201b80ad7d7c2443f6426ab2305fb767056cb7e7c","time":"2022/12/07 21:27:25","txCount":13,"totalFees":4479421,"totalOutput":770206480075,"slotLeader":"970e9a7ae4677b152c27a0eba3db996b372de094d24fc2974768f3da"},{"blockNo":8110454,"slotNo":78882141,"epochNo":380,"epochSlotNo":85341,"hash":"83f10affa0d40872ea814b24d17adb5eb9ceda1e5654698304217489962e9036","time":"2022/12/07 21:27:12","txCount":38,"totalFees":11917249,"totalOutput":997346130913,"slotLeader":"40fd2f82c5b6eeee096d761c9d4c8352f3901467bd49a5658f30c6c2"},{"blockNo":8110453,"slotNo":78882131,"epochNo":380,"epochSlotNo":85331,"hash":"165bcd8cee88703522a88a9c35f82d6aa627afa36079edada61230b4536ffa47","time":"2022/12/07 21:27:02","txCount":22,"totalFees":9806733,"totalOutput":1567331656837,"slotLeader":"fa67f324c67325d6e60616eb8f20688473f979ec4b66193a5b43f898"},{"blockNo":8110452,"slotNo":78882078,"epochNo":380,"epochSlotNo":85278,"hash":"bd74f11653754887457fbb39079428109ec2fcdddd4722076dc2007b3efff6e1","time":"2022/12/07 21:26:09","txCount":19,"totalFees":8278103,"totalOutput":1764324318911,"slotLeader":"660f20fb9d419173ac623786ad3e6dc11a23951981e0e83e98233d29"},{"blockNo":8110451,"slotNo":78882061,"epochNo":380,"epochSlotNo":85261,"hash":"d335fc70c947b9fd51b30b6de9ef3539d7088011f8284577cc2b14f0e90b2715","time":"2022/12/07 21:25:52","txCount":9,"totalFees":1917750,"totalOutput":72940714561,"slotLeader":"fd832d27b5fbe0489409613f50e2139b54a21e613c8a7609dcff556e"},{"blockNo":8110450,"slotNo":78882052,"epochNo":380,"epochSlotNo":85252,"hash":"e90286319d61608e64ff50fc05a284b8b760607f4ccb1e60e8aa994c6afc0e84","time":"2022/12/07 21:25:43","txCount":16,"totalFees":5567692,"totalOutput":704942291964,"slotLeader":"266a21992f779be68c1476fab8e9bf1015e7b4c428ee8c3b899f65dd"},{"blockNo":8110449,"slotNo":78882037,"epochNo":380,"epochSlotNo":85237,"hash":"53fc84f3a2078509f6adc40c0eb4c273d44c15539f5d180f56389de7535e299f","time":"2022/12/07 21:25:28","txCount":3,"totalFees":1027143,"totalOutput":6855300023,"slotLeader":"c5293f2ba88ac474787358b9c2f4fae7b3c4408f79cdf89a12c9ece4"},{"blockNo":8110448,"slotNo":78882034,"epochNo":380,"epochSlotNo":85234,"hash":"501aef34ceea7432e6d242ca4a21886793660fcd7f76c1f53b5367f6bd6d10d6","time":"2022/12/07 21:25:25","txCount":34,"totalFees":12246327,"totalOutput":7978739848086,"slotLeader":"b405a62715301a625c2fd5eb3f5b16be9f1f3f0452f5b8b9286997c4"},{"blockNo":8110447,"slotNo":78882002,"epochNo":380,"epochSlotNo":85202,"hash":"48fc12083232632f921f015c5099fa20c53b585789d898dd782489b8697a3efc","time":"2022/12/07 21:24:53","txCount":32,"totalFees":11448710,"totalOutput":2976020602097,"slotLeader":"95c4956f7a137f7fe9c72f2e831e6038744b6307d00143b2447e6443"},{"blockNo":8110446,"slotNo":78881964,"epochNo":380,"epochSlotNo":85164,"hash":"5eb6deec75975f2e8a9a9279eeb5b2fd1846708ce3e89afa646b22c2d7ac1c5e","time":"2022/12/07 21:24:15","txCount":3,"totalFees":1135998,"totalOutput":313417237,"slotLeader":"d6b4480e5dc5dbedfa703d188646c8c7c0191f7eae756911ceba20e2"},{"blockNo":8110445,"slotNo":78881962,"epochNo":380,"epochSlotNo":85162,"hash":"53119956d8baa560d18dadfaf0612eaf4214fed2de4a1098af0a1bf5635db523","time":"2022/12/07 21:24:13","txCount":26,"totalFees":8383045,"totalOutput":67453742400,"slotLeader":"b3f9883d3de29971c43e05fdb985281ffee737be0e5669094810ba6b"},{"blockNo":8110444,"slotNo":78881952,"epochNo":380,"epochSlotNo":85152,"hash":"673d595f40b8e132f446e9e90df418765032de88c30a9a2ecea4135edf95784a","time":"2022/12/07 21:24:03","txCount":45,"totalFees":15178931,"totalOutput":169448209180,"slotLeader":"970e9a7ae4677b152c27a0eba3db996b372de094d24fc2974768f3da"},{"blockNo":8110443,"slotNo":78881878,"epochNo":380,"epochSlotNo":85078,"hash":"4f6fbbc3a91a1d525ba5c30519b2260e7c55f9926c9d218d1aed0fe10965d612","time":"2022/12/07 21:22:49","txCount":21,"totalFees":5365052,"totalOutput":300404911678,"slotLeader":"a9807616077f17a66dc12c562bfc8dbc1a0b9ad1c96591fd56ffafb5"},{"blockNo":8110442,"slotNo":78881871,"epochNo":380,"epochSlotNo":85071,"hash":"053512c37270b323a30f7a0380f5c1952f7e2adc7e675e09427ddfb5a0e92d00","time":"2022/12/07 21:22:42","txCount":28,"totalFees":11361987,"totalOutput":5095718364170,"slotLeader":"a3d7b1f62e5ee8cbb833f4db6e45b2c39f17eecc1d2a1bf90c407dc4"}],"totalItems":8110637,"totalPages":405532,"currentPage":0}