{"data":[{"hash":"b5a48b62d5cf0a48e34252ddb6c340940679bfdf64c9f556dd69c36a51029840","blockNo":7924584,"blockHash":"91c2a0a80784ccd7fa5294541d18d73841679b3707d50f26e13f2ffed4db4419","epochNo":371,"epochSlotNo":134965,"slot":75043765,"time":"2022/10/24 11:14:16","addressesInput":["addr1qxe26fy35t3mk6z4df3g37ek8a7kg2pd34yganmklsmapczr8nc9ldflyspp6hhd3r4rv3z03s5fw7smgykualr6rwqqwz50xc","addr1qxjrft0pkf7j2sk4guf5jefwcu3u6ha9shw94l3fe8jl8mzr8nc9ldflyspp6hhd3r4rv3z03s5fw7smgykualr6rwqq979qyz"],"addressesOutput":["addr1vyjdya9lmyfmysdgej3qc6thwat33lwm3umk8uwnvhy9g3gzvd2jp","addr1q90z7dh2n2v4jp5cu6q0yujspjuxlkupj0ljkplzdmv0872r8nc9ldflyspp6hhd3r4rv3z03s5fw7smgykualr6rwqqhgcw2k"],"fee":279153,"totalOutput":61533198,"tokens":[]},{"hash":"3d2011708a95a95aaab0a176a5c82fa9c2db5b47805059974d54fb31291448fe","blockNo":7924584,"blockHash":"91c2a0a80784ccd7fa5294541d18d73841679b3707d50f26e13f2ffed4db4419","epochNo":371,"epochSlotNo":134965,"slot":75043765,"time":"2022/10/24 11:14:16","addressesInput":["addr1qx3t9v069agknxz6yp2vgcsvzq7dnjnul5n9syv7fxaufn5fdcnc4wqw3mygxu5lq8suksyfepewqrdnmmhcawuhlnsq80wnrz"],"addressesOutput":["addr1wxn9efv2f6w82hagxqtn62ju4m293tqvw0uhmdl64ch8uwc0h43gt","addr1q8dkgqv56jplmmfn6uchqf6s3vqwyhd7ccatm5g3gc7mppvfdcnc4wqw3mygxu5lq8suksyfepewqrdnmmhcawuhlnsqwnau33","addr1q9yqatjrtwj637lt89z79fm30u8n5a9zdq4tw5tz0c070k5fdcnc4wqw3mygxu5lq8suksyfepewqrdnmmhcawuhlnsql6djv3"],"fee":186181,"totalOutput":237928257,"tokens":[]},{"hash":"24a6ed0c74f08711c4f84d201b98ae711bf57c64d0adbdcfacdb7183cc29e7a1","blockNo":7924584,"blockHash":"91c2a0a80784ccd7fa5294541d18d73841679b3707d50f26e13f2ffed4db4419","epochNo":371,"epochSlotNo":134965,"slot":75043765,"time":"2022/10/24 11:14:16","addressesInput":["addr1qxn2egj9zy08ugqt4p6mw947qzcuyjqzs64a6u24dde4lrtfxxcfhzwmer55v6jnaht37q2664myx2rxe9q4wmu65puspahyge","addr1q8hwmkxyavm9gdklpe82ucrxvkp9xg9jkr6zmgd5z4e39ptfxxcfhzwmer55v6jnaht37q2664myx2rxe9q4wmu65puslzhjuj","addr1qxn2egj9zy08ugqt4p6mw947qzcuyjqzs64a6u24dde4lrtfxxcfhzwmer55v6jnaht37q2664myx2rxe9q4wmu65puspahyge"],"addressesOutput":["addr1qxwffz4jwp3gagexx44gp7l35hy3vdnt3fsdd9jf4d2ya9wz84x55fclg8j6p4ct6qdw6zc5t3nj6ud2t407mn9ewetsm7sd42","addr1qx7dqcudqgydqdm2tfefwvnyasj7jp5pm97fvemtxhw5d3rfxxcfhzwmer55v6jnaht37q2664myx2rxe9q4wmu65pusgh4k3m"],"fee":213241,"totalOutput":9528548,"tokens":[]},{"hash":"618088ea8afad72ade4eaba0c20caaddd5c4053f84d3e4ad8b04920e347d0247","blockNo":7924584,"blockHash":"91c2a0a80784ccd7fa5294541d18d73841679b3707d50f26e13f2ffed4db4419","epochNo":371,"epochSlotNo":134965,"slot":75043765,"time":"2022/10/24 11:14:16","addressesInput":["addr1q9l3fcat2wa244fddn4vwyuzufmexfhpzj7f64kq2sx68st8k7a22kpas53g23lzkqc3zy2fs2309uaafrhaegktegvsvay5ns","addr1q9f5c32q6r2k5gnaqclfwyyduqd7ye2s6yc088yxkkmg60m8k7a22kpas53g23lzkqc3zy2fs2309uaafrhaegktegvssw4lcv"],"addressesOutput":["addr1q9ervmxzt4zn0jv8v8f4wzvzt7rnpann3t5dd3a23daenzcnah4ajwkvnrzuzh2v9lr260t6qj3hx6hw4mk59v98ke3qyyn7hc","addr1qxm0e9d0p7gsgedczk0d60gm666jq9uktcskh3fs82rx0zn8k7a22kpas53g23lzkqc3zy2fs2309uaafrhaegktegvseqe4xr"],"fee":176545,"totalOutput":19100120,"tokens":[]},{"hash":"0725287a66b7a8b7bffdecd1aa9f7f99d0ee99846e48fbdb34e4d96e7b3123f9","blockNo":7924584,"blockHash":"91c2a0a80784ccd7fa5294541d18d73841679b3707d50f26e13f2ffed4db4419","epochNo":371,"epochSlotNo":134965,"slot":75043765,"time":"2022/10/24 11:14:16","addressesInput":["addr1qxtpppftd2jlv6ejksvl4w79knpu0p58xts04an95n0q6uuny63740d42l777xu6jcpzafhkr2zhv0tmf9nl7gva6caq6772z7","addr1qxtpppftd2jlv6ejksvl4w79knpu0p58xts04an95n0q6uuny63740d42l777xu6jcpzafhkr2zhv0tmf9nl7gva6caq6772z7","addr1qxtpppftd2jlv6ejksvl4w79knpu0p58xts04an95n0q6uuny63740d42l777xu6jcpzafhkr2zhv0tmf9nl7gva6caq6772z7"],"addressesOutput":["DdzFFzCqrht5R2NodJBaWeAxwBQeUfw572zr3sUyVqmvkK9Lam2cpXgx14aEerpcQUBMP5JfB8LC8AhjAiSzU2b2cF3JFUzvs9zr8ngc","addr1qxtpppftd2jlv6ejksvl4w79knpu0p58xts04an95n0q6uuny63740d42l777xu6jcpzafhkr2zhv0tmf9nl7gva6caq6772z7","addr1qxtpppftd2jlv6ejksvl4w79knpu0p58xts04an95n0q6uuny63740d42l777xu6jcpzafhkr2zhv0tmf9nl7gva6caq6772z7"],"fee":179053,"totalOutput":69033158,"tokens":[]},{"hash":"8e1851a17b85147bec0177d7071c9e6d98323ce4d3e6bb35e32c0def5f38c829","blockNo":7924584,"blockHash":"91c2a0a80784ccd7fa5294541d18d73841679b3707d50f26e13f2ffed4db4419","epochNo":371,"epochSlotNo":134965,"slot":75043765,"time":"2022/10/24 11:14:16","addressesInput":["addr1qxl5dennqkhq8kfxq6gxhavuvndjx6znqng37apq9tje70lu47672pee95slwv65fc9a9jejgkarwtlajzxh36wvhtxqqra4ra","addr1zxj47sy4qxlktqzmkrw8dahe46gtv8seakrshsqz26qnvzypw288a4x0xf8pxgcntelxmyclq83s0ykeehchz2wtspksr3q9nx","addr1qxl5dennqkhq8kfxq6gxhavuvndjx6znqng37apq9tje70lu47672pee95slwv65fc9a9jejgkarwtlajzxh36wvhtxqqra4ra"],"addressesOutput":["addr1zxj47sy4qxlktqzmkrw8dahe46gtv8seakrshsqz26qnvzypw288a4x0xf8pxgcntelxmyclq83s0ykeehchz2wtspksr3q9nx","addr1qxl5dennqkhq8kfxq6gxhavuvndjx6znqng37apq9tje70lu47672pee95slwv65fc9a9jejgkarwtlajzxh36wvhtxqqra4ra"],"fee":534576,"totalOutput":2792744,"tokens":[]},{"hash":"7d774d56d009c9a498a6d6d98d6cd8d340c5923c5c57a542359dc1d3e11fa484","blockNo":7924583,"blockHash":"1ee4b18af06c60976dca6e3c39063ca0b6f6d364781fb5dcf7a4ffd8dc97fe79","epochNo":371,"epochSlotNo":134960,"slot":75043760,"time":"2022/10/24 11:14:11","addressesInput":["addr1q8tze0ux7wmgeuz62n5mhzp3kqk08lrafa9x9p2dtje6p5qg936q2g7q553tglcdx33qrkgkvxhje6a40jysues9c5eq3hglhy"],"addressesOutput":["addr1qyqt9rldchztq04u586rvgly0efdcsla0pf2cjshnqxu9hf669t0542yxam68zn4jf9ygedw45yesvmz0dnk0rwy8jkq4weyrr","addr1q8tze0ux7wmgeuz62n5mhzp3kqk08lrafa9x9p2dtje6p5qg936q2g7q553tglcdx33qrkgkvxhje6a40jysues9c5eq3hglhy","addr1q8tze0ux7wmgeuz62n5mhzp3kqk08lrafa9x9p2dtje6p5qg936q2g7q553tglcdx33qrkgkvxhje6a40jysues9c5eq3hglhy"],"fee":216937,"totalOutput":269085953,"tokens":[]},{"hash":"51ad15ca54434ebdf838b98747f5a295f3869f20cd43d43df6eab67e6da9d112","blockNo":7924583,"blockHash":"1ee4b18af06c60976dca6e3c39063ca0b6f6d364781fb5dcf7a4ffd8dc97fe79","epochNo":371,"epochSlotNo":134960,"slot":75043760,"time":"2022/10/24 11:14:11","addressesInput":["addr1wxn9efv2f6w82hagxqtn62ju4m293tqvw0uhmdl64ch8uwc0h43gt","addr1vyht4ja0zcn45qvyx477qlyp6j5ftu5ng0prt9608dxp6lgpnh5ft","addr1z8snz7c4974vzdpxu65ruphl3zjdvtxw8strf2c2tmqnxz2j2c79gy9l76sdg0xwhd7r0c0kna0tycz4y5s6mlenh8pq0xmsha","addr1vyht4ja0zcn45qvyx477qlyp6j5ftu5ng0prt9608dxp6lgpnh5ft"],"addressesOutput":["addr1vyht4ja0zcn45qvyx477qlyp6j5ftu5ng0prt9608dxp6lgpnh5ft","addr1vyht4ja0zcn45qvyx477qlyp6j5ftu5ng0prt9608dxp6lgpnh5ft","addr1qy3qet5z8zljncf24y36xewuwgfn0028vxaqln6nl53m5uw4y8cy06hlsjhrzqc8t8scgddh7s7lphawd560es3xqnqschrpss","addr1z8snz7c4974vzdpxu65ruphl3zjdvtxw8strf2c2tmqnxz2j2c79gy9l76sdg0xwhd7r0c0kna0tycz4y5s6mlenh8pq0xmsha"],"fee":799570,"totalOutput":40972280391,"tokens":[]},{"hash":"c26ce634b0d4682ebc563c79b6e1d23170ce7e6dfa95ebbab5857c91256aba11","blockNo":7924583,"blockHash":"1ee4b18af06c60976dca6e3c39063ca0b6f6d364781fb5dcf7a4ffd8dc97fe79","epochNo":371,"epochSlotNo":134960,"slot":75043760,"time":"2022/10/24 11:14:11","addressesInput":["addr1q9j4cctaax049z2y0eyftz8myj03l0zun0wtpdaqjr7s4n3ht0dd9wt5wvlt2r5tlegfd8r9frp5lhs7kpmdhmylnu6qsng5tz"],"addressesOutput":["addr1q9j4cctaax049z2y0eyftz8myj03l0zun0wtpdaqjr7s4n3ht0dd9wt5wvlt2r5tlegfd8r9frp5lhs7kpmdhmylnu6qsng5tz","addr1q9ek8twap45n738eensw6l039y5fga88asmk7jczx2xnujz2euat7gefkymjzsdt2g06kfhdzu859fq39s5xnuuetp9sdlsx3c"],"fee":406179,"totalOutput":49975450,"tokens":[]},{"hash":"541c923c241c458203ba82f6b7f589c54ecc1864592209c69ea98bb0290442b8","blockNo":7924583,"blockHash":"1ee4b18af06c60976dca6e3c39063ca0b6f6d364781fb5dcf7a4ffd8dc97fe79","epochNo":371,"epochSlotNo":134960,"slot":75043760,"time":"2022/10/24 11:14:11","addressesInput":["addr1q8lycef9kfvw7u78gt7qqmlgh9hdjnqr7zd48s4sa9gu42yvdqdlktk8vgx95a7l2s805u6k7kaydpusltus3l0kkjhq3xjp22","addr1q8lycef9kfvw7u78gt7qqmlgh9hdjnqr7zd48s4sa9gu42yvdqdlktk8vgx95a7l2s805u6k7kaydpusltus3l0kkjhq3xjp22","addr1q8lycef9kfvw7u78gt7qqmlgh9hdjnqr7zd48s4sa9gu42yvdqdlktk8vgx95a7l2s805u6k7kaydpusltus3l0kkjhq3xjp22"],"addressesOutput":["addr1zxgx3far7qygq0k6epa0zcvcvrevmn0ypsnfsue94nsn3tvpw288a4x0xf8pxgcntelxmyclq83s0ykeehchz2wtspks905plm","addr1q8lycef9kfvw7u78gt7qqmlgh9hdjnqr7zd48s4sa9gu42yvdqdlktk8vgx95a7l2s805u6k7kaydpusltus3l0kkjhq3xjp22","addr1q8lycef9kfvw7u78gt7qqmlgh9hdjnqr7zd48s4sa9gu42yvdqdlktk8vgx95a7l2s805u6k7kaydpusltus3l0kkjhq3xjp22","addr1q8lycef9kfvw7u78gt7qqmlgh9hdjnqr7zd48s4sa9gu42yvdqdlktk8vgx95a7l2s805u6k7kaydpusltus3l0kkjhq3xjp22","addr1q8lycef9kfvw7u78gt7qqmlgh9hdjnqr7zd48s4sa9gu42yvdqdlktk8vgx95a7l2s805u6k7kaydpusltus3l0kkjhq3xjp22","addr1q8lycef9kfvw7u78gt7qqmlgh9hdjnqr7zd48s4sa9gu42yvdqdlktk8vgx95a7l2s805u6k7kaydpusltus3l0kkjhq3xjp22","addr1q8lycef9kfvw7u78gt7qqmlgh9hdjnqr7zd48s4sa9gu42yvdqdlktk8vgx95a7l2s805u6k7kaydpusltus3l0kkjhq3xjp22"],"fee":295389,"totalOutput":502877007,"tokens":[]},{"hash":"a8668688018f4a357d49e170d0ebb5a6a428268ea601f216802bac07e9483fd0","blockNo":7924583,"blockHash":"1ee4b18af06c60976dca6e3c39063ca0b6f6d364781fb5dcf7a4ffd8dc97fe79","epochNo":371,"epochSlotNo":134960,"slot":75043760,"time":"2022/10/24 11:14:11","addressesInput":["addr1q9gfuxhz88vj4pwmwg2k972c3x95q70u2635vwkudeep0pp9xaysm84zzaz666drzdc5q5aqgfl2pkqrytgny6dlz4as0njxjd","addr1q9gfuxhz88vj4pwmwg2k972c3x95q70u2635vwkudeep0pp9xaysm84zzaz666drzdc5q5aqgfl2pkqrytgny6dlz4as0njxjd","addr1q9gfuxhz88vj4pwmwg2k972c3x95q70u2635vwkudeep0pp9xaysm84zzaz666drzdc5q5aqgfl2pkqrytgny6dlz4as0njxjd"],"addressesOutput":["addr1v9nudmgn6lqefaedktxg0rrlqsjdxma2uw9my66vcnp8lngkzrt8k","addr1q9gfuxhz88vj4pwmwg2k972c3x95q70u2635vwkudeep0pp9xaysm84zzaz666drzdc5q5aqgfl2pkqrytgny6dlz4as0njxjd","addr1q9gfuxhz88vj4pwmwg2k972c3x95q70u2635vwkudeep0pp9xaysm84zzaz666drzdc5q5aqgfl2pkqrytgny6dlz4as0njxjd"],"fee":208709,"totalOutput":9975174,"tokens":[]},{"hash":"cea0a7fe424d7b2de66f08ba7f3f751478eef79b9e10205bf12c5be707a94d6d","blockNo":7924583,"blockHash":"1ee4b18af06c60976dca6e3c39063ca0b6f6d364781fb5dcf7a4ffd8dc97fe79","epochNo":371,"epochSlotNo":134960,"slot":75043760,"time":"2022/10/24 11:14:11","addressesInput":["addr1vxhhdaa7x9mxmwwy0h9gmn38kzvjf7m77lqf0n3k52ehcccg23r2e"],"addressesOutput":["addr1vxhhdaa7x9mxmwwy0h9gmn38kzvjf7m77lqf0n3k52ehcccg23r2e","addr1qyathputa4fanz4s7a4er6g8es5uwcppdfc8nswa2fyx6u4e7mes8hanwrjpckpvwylxkyhhz6ctph7rxq8klhmlfjnqgrxyf3","addr1vxrmu3m2cc5k6xltupj86a2uzcuq8r4nhznrhfq0pkwl4hgqj2v8w"],"fee":205365,"totalOutput":743783992,"tokens":[]},{"hash":"38807b5ba8159868ba4645253cd3dbcec3873781a9a41a0f4ea21094b675c056","blockNo":7924583,"blockHash":"1ee4b18af06c60976dca6e3c39063ca0b6f6d364781fb5dcf7a4ffd8dc97fe79","epochNo":371,"epochSlotNo":134960,"slot":75043760,"time":"2022/10/24 11:14:11","addressesInput":["addr1qx7pw5yy3vja0tkjeth04cnd9pcv33070ufzaavzdgs68puxj6csr8qv2vh9v5g7d68647tekctp66xjuyatmw90sgxs95ytgt"],"addressesOutput":["addr1q87tdu5k0njwp9nmal67mctlm4g7udzy2vdpctf8etrgg3yxj6csr8qv2vh9v5g7d68647tekctp66xjuyatmw90sgxsdjrawr"],"fee":213153,"totalOutput":31943533,"tokens":[]},{"hash":"f689460fcbe1c122bab2ff00480de4a7e1ab24434b7b2c2a31bdee0cd988381e","blockNo":7924583,"blockHash":"1ee4b18af06c60976dca6e3c39063ca0b6f6d364781fb5dcf7a4ffd8dc97fe79","epochNo":371,"epochSlotNo":134960,"slot":75043760,"time":"2022/10/24 11:14:11","addressesInput":["addr1qxa4ftm6nwzxdtfe0v94zkryesltwg8freesh8mhxqj0yvdvytkryc6g49e2mg6n30zkyqpjv6lv6aa2fesvaee9d8ysy5rl4y"],"addressesOutput":["addr1zxgx3far7qygq0k6epa0zcvcvrevmn0ypsnfsue94nsn3tvpw288a4x0xf8pxgcntelxmyclq83s0ykeehchz2wtspks905plm","addr1qxa4ftm6nwzxdtfe0v94zkryesltwg8freesh8mhxqj0yvdvytkryc6g49e2mg6n30zkyqpjv6lv6aa2fesvaee9d8ysy5rl4y"],"fee":355581,"totalOutput":52322818,"tokens":[]},{"hash":"d9caa861e29a563812c21761f436ec22f6e91d1a939d062381cac291088072c1","blockNo":7924583,"blockHash":"1ee4b18af06c60976dca6e3c39063ca0b6f6d364781fb5dcf7a4ffd8dc97fe79","epochNo":371,"epochSlotNo":134960,"slot":75043760,"time":"2022/10/24 11:14:11","addressesInput":["addr1qx8jmzxtm2dpurg586h3zy4adcd3lmqsmlc2x6c3q28sdpsae5y8dh7ntdqz5tfrydh4g2qu858j7untq3cxn49lcffsulgx7d","addr1qx8jmzxtm2dpurg586h3zy4adcd3lmqsmlc2x6c3q28sdpsae5y8dh7ntdqz5tfrydh4g2qu858j7untq3cxn49lcffsulgx7d"],"addressesOutput":["addr1q95ak64qt48favduver4fx5cxnwtjz4v6x5yys4s28xelhtdk9vszu3ecpx28ql0vksfr2mex8ehctxtjakwku643dgq74t03q","addr1qx8jmzxtm2dpurg586h3zy4adcd3lmqsmlc2x6c3q28sdpsae5y8dh7ntdqz5tfrydh4g2qu858j7untq3cxn49lcffsulgx7d","addr1qx8jmzxtm2dpurg586h3zy4adcd3lmqsmlc2x6c3q28sdpsae5y8dh7ntdqz5tfrydh4g2qu858j7untq3cxn49lcffsulgx7d","addr1qx8jmzxtm2dpurg586h3zy4adcd3lmqsmlc2x6c3q28sdpsae5y8dh7ntdqz5tfrydh4g2qu858j7untq3cxn49lcffsulgx7d","addr1qx8jmzxtm2dpurg586h3zy4adcd3lmqsmlc2x6c3q28sdpsae5y8dh7ntdqz5tfrydh4g2qu858j7untq3cxn49lcffsulgx7d"],"fee":178481,"totalOutput":2147128546,"tokens":[]},{"hash":"f87a58cf0bb84d0a10482188274eded4696c83b7c059849513e3b97bddaaf5f0","blockNo":7924583,"blockHash":"1ee4b18af06c60976dca6e3c39063ca0b6f6d364781fb5dcf7a4ffd8dc97fe79","epochNo":371,"epochSlotNo":134960,"slot":75043760,"time":"2022/10/24 11:14:11","addressesInput":["addr1qyenla3u72ps2hgvztp5f4qyf8vn5upxywwevzkleqd5ysez88xmvaxh7jszvw2sh5r2h0nvtwngf6x2c3y9g475th8qnfvssn","addr1qyenla3u72ps2hgvztp5f4qyf8vn5upxywwevzkleqd5ysez88xmvaxh7jszvw2sh5r2h0nvtwngf6x2c3y9g475th8qnfvssn"],"addressesOutput":["addr1wxdct40gvyv525zlq79wahkuhmgadjs3q5lkrclemxvlu3qyda7l2","addr1qyenla3u72ps2hgvztp5f4qyf8vn5upxywwevzkleqd5ysez88xmvaxh7jszvw2sh5r2h0nvtwngf6x2c3y9g475th8qnfvssn"],"fee":235329,"totalOutput":372172175,"tokens":[]},{"hash":"1d1477358d797b96ece41741dce576628a02cfbd67c6ca83a6d172cdd6e8217a","blockNo":7924583,"blockHash":"1ee4b18af06c60976dca6e3c39063ca0b6f6d364781fb5dcf7a4ffd8dc97fe79","epochNo":371,"epochSlotNo":134960,"slot":75043760,"time":"2022/10/24 11:14:11","addressesInput":["addr1qxl5apqdfn9dh3n8qnjqm7jz3qs0xhvvr389r2cyy3s4xxlwn3v4lu86g8jmkq9fvpyy3pfkl82hgxkeg4xwvmpknxgscus7dj","addr1qxl5apqdfn9dh3n8qnjqm7jz3qs0xhvvr389r2cyy3s4xxlwn3v4lu86g8jmkq9fvpyy3pfkl82hgxkeg4xwvmpknxgscus7dj","addr1zxgx3far7qygq0k6epa0zcvcvrevmn0ypsnfsue94nsn3tvpw288a4x0xf8pxgcntelxmyclq83s0ykeehchz2wtspks905plm","addr1qxl5apqdfn9dh3n8qnjqm7jz3qs0xhvvr389r2cyy3s4xxlwn3v4lu86g8jmkq9fvpyy3pfkl82hgxkeg4xwvmpknxgscus7dj","addr1qxl5apqdfn9dh3n8qnjqm7jz3qs0xhvvr389r2cyy3s4xxlwn3v4lu86g8jmkq9fvpyy3pfkl82hgxkeg4xwvmpknxgscus7dj","addr1qxl5apqdfn9dh3n8qnjqm7jz3qs0xhvvr389r2cyy3s4xxlwn3v4lu86g8jmkq9fvpyy3pfkl82hgxkeg4xwvmpknxgscus7dj"],"addressesOutput":["addr1q9cwvremt6n320s2e3agq0jyq82yhrk3htsu0w426xnz5us70z4w0jgvcdkkynmm8wmds66jd9kusnjfpu6raw5fqp0sr07p5w","addr1qxwhpgtunc8srmjhy93u2ukagkcwt88t3hhzlrejza6h5durekxu53wa9m50d56yptz4386qdtntxwzwvfyn5n8ped7shmukh0","addr1qxl5apqdfn9dh3n8qnjqm7jz3qs0xhvvr389r2cyy3s4xxlwn3v4lu86g8jmkq9fvpyy3pfkl82hgxkeg4xwvmpknxgscus7dj","addr1qxl5apqdfn9dh3n8qnjqm7jz3qs0xhvvr389r2cyy3s4xxlwn3v4lu86g8jmkq9fvpyy3pfkl82hgxkeg4xwvmpknxgscus7dj"],"fee":357257,"totalOutput":193091747,"tokens":[]},{"hash":"069163c42275b64cd602bd582d59114a2266bc0781935dab65574d68299f59dc","blockNo":7924583,"blockHash":"1ee4b18af06c60976dca6e3c39063ca0b6f6d364781fb5dcf7a4ffd8dc97fe79","epochNo":371,"epochSlotNo":134960,"slot":75043760,"time":"2022/10/24 11:14:11","addressesInput":["addr1q82zwk45f9maa6hc40ly6xwzhwyym75t5ykdznkahe5e75r9q6zja80g4gdetv0s8xtzscej2ukn8ashv9g2veg06fvsnqf5hv"],"addressesOutput":["addr1vyjdya9lmyfmysdgej3qc6thwat33lwm3umk8uwnvhy9g3gzvd2jp","addr1q809w7fhazm7wqvuxunqqagx9pked20425c4ffas0dt98et9q6zja80g4gdetv0s8xtzscej2ukn8ashv9g2veg06fvsla9a84"],"fee":354437,"totalOutput":28906751,"tokens":[]},{"hash":"6fd410ae8afb25fa8b113fbdee596b017984fc34feca138f6affb4f304c24bf3","blockNo":7924583,"blockHash":"1ee4b18af06c60976dca6e3c39063ca0b6f6d364781fb5dcf7a4ffd8dc97fe79","epochNo":371,"epochSlotNo":134960,"slot":75043760,"time":"2022/10/24 11:14:11","addressesInput":["addr1vyytk8t7245kjq4f90msj6swsq5zrmg2ljn52p6ue7mtryg53nsz4","addr1vyytk8t7245kjq4f90msj6swsq5zrmg2ljn52p6ue7mtryg53nsz4"],"addressesOutput":["addr1qypy63p7j8pqlpwwe06mht39nhv0lfep446v8txtjgn6u35avepduelstdaku2699hrfzjgfjz4f42rray0xyr502wsqz32l7r","addr1vyytk8t7245kjq4f90msj6swsq5zrmg2ljn52p6ue7mtryg53nsz4"],"fee":172365,"totalOutput":7557828,"tokens":[]},{"hash":"f6580328c3ec319ffdc27e3928f3184d3881b46c5c0854e2a4e39936f2b7edca","blockNo":7924583,"blockHash":"1ee4b18af06c60976dca6e3c39063ca0b6f6d364781fb5dcf7a4ffd8dc97fe79","epochNo":371,"epochSlotNo":134960,"slot":75043760,"time":"2022/10/24 11:14:11","addressesInput":["addr1w9xc5279jqxql020jp295d377nqrms826gnhgqxt5g5m9dqlfqf3f","addr1vy3qpx09uscywhppj5vp08hu0ekg9zwmq2ysfq6qyh2mpps865j6t","addr1w8frpnd6lhleyh9wnh32gkc2z6fmgngedr8zh96xa2fguyqdetk4w","addr1w835n68qeax023uperwgwlruk3d8yjl4k98r433nhw5waqgkx8prf","addr1wyk4u2dymyn37qy4ck2t9gmvrez9axw8kjf4hn7d3lvd5ysfpau7r","addr1w8dmtwktj7lktd0zv0wpxuny590ndshmj3z8xxmq3tjyvdggs35jy","addr1w80k8xe6vckm3qgklhw98tqjekfvw3mgwux3stmtq3jlprga3u33c","addr1wxe6d3q6q006x99skwc334ukdkty3yeq58acxxeaueygylc8maqzt","addr1v9pgp75auv26ena330xkflh2xz0luk33m7slp5sc6rftxpc7fntj5","addr1w96wv2m3qqlal6wafyst3xazkg8k3t33c30kddfedu7seps55n6z0","addr1wxfy7dlg4u7uzce0930uuqxlkdk0xwm5hxejz896dxjkrcslntswa","addr1wypk6usz8zq25md9hh69792snssf8cr54uryu5cvmy9a74cf43wj6","addr1wxcpjfdxav75dfr2m653l2pf38q5juwz8fst6v5sqdcjsns74jyxe","addr1v8pr9mwnqarw808gtllvmlxvk70hnszrukjeqfstr9t9g5crud8c4","addr1w94663jy94a8stgk5lnuwya7f6l3qkaclv68ydjagmtjsksltfvhj","addr1wxgg25t3tk30jqzl2elqz94lzgmr8a9c9m5z902ds5sjh0g7uaj8z","addr1w8usfr3avzl8qh5wm9wcy8uv7cr800ft5vjz5dw3pxeh8fgdp6e6r","addr1wxv4vucdvkxrppx0nf26tej0f3dv75gkys884scgyc434zs67wma9"],"addressesOutput":["addr1vy3qpx09uscywhppj5vp08hu0ekg9zwmq2ysfq6qyh2mpps865j6t","addr1v8pr9mwnqarw808gtllvmlxvk70hnszrukjeqfstr9t9g5crud8c4","addr1q8rgec58mwep70s8kfxn6splkksa3jp9l3vk3tustcyxgczt7uq4ad5kvl5pd5687u4t8en8fqgce520p827ufazqxeqzl43ca","addr1q9xxk3z4tl4wpq9tyvwa9yucmh6quqqrxhfelygl3wpuxpjw27kgju37ndyq7dqc878tgdjvnkxmhgl73yn83fmup4es7k4q6g","addr1qx4h233qrjquphxr6jeew4mu932xhnllw294wvrkqtz50gkmgg30dukv47dce3gpjqf9m8gc8lpu8fm5nsk8kw4alumqt0ukak","addr1q9y7sjsr0qntl7ux8f7cnlrepag2r456ar2678vf2mk6alapm08p7t4yku88ymhnc8wlmfsvgclwc5277c9pqx0wuynsgljqwq","addr1w9xc5279jqxql020jp295d377nqrms826gnhgqxt5g5m9dqlfqf3f","addr1wxcpjfdxav75dfr2m653l2pf38q5juwz8fst6v5sqdcjsns74jyxe","addr1w80k8xe6vckm3qgklhw98tqjekfvw3mgwux3stmtq3jlprga3u33c","addr1wxgg25t3tk30jqzl2elqz94lzgmr8a9c9m5z902ds5sjh0g7uaj8z","addr1w835n68qeax023uperwgwlruk3d8yjl4k98r433nhw5waqgkx8prf","addr1wxfy7dlg4u7uzce0930uuqxlkdk0xwm5hxejz896dxjkrcslntswa","addr1w8dmtwktj7lktd0zv0wpxuny590ndshmj3z8xxmq3tjyvdggs35jy","addr1w8frpnd6lhleyh9wnh32gkc2z6fmgngedr8zh96xa2fguyqdetk4w","addr1w8usfr3avzl8qh5wm9wcy8uv7cr800ft5vjz5dw3pxeh8fgdp6e6r","addr1wypk6usz8zq25md9hh69792snssf8cr54uryu5cvmy9a74cf43wj6","addr1wyk4u2dymyn37qy4ck2t9gmvrez9axw8kjf4hn7d3lvd5ysfpau7r","addr1wxe6d3q6q006x99skwc334ukdkty3yeq58acxxeaueygylc8maqzt","addr1w94663jy94a8stgk5lnuwya7f6l3qkaclv68ydjagmtjsksltfvhj","addr1w96wv2m3qqlal6wafyst3xazkg8k3t33c30kddfedu7seps55n6z0","addr1wxv4vucdvkxrppx0nf26tej0f3dv75gkys884scgyc434zs67wma9"],"fee":535585,"totalOutput":5605750066,"tokens":[]}],"totalItems":52719438,"totalPages":2635972,"currentPage":0}