{"data":[{"hash":"49f29c9c529c4a5bb20f736431ba5316f3a4c1b126d1a667c25dd8adeed9b4d9","blockNo":8117976,"blockHash":"71019a9d81cffcdae570d1ae9df1218c476ca0d8dae6d4e4d8ea288e52eb1912","epochNo":380,"epochSlotNo":236478,"slot":79033278,"time":"2022/12/09 15:26:09","addressesInput":["addr1q836qf2vqzv57uc42rupyw039fsvnlfuaxumry25x9fwcg43hmpsthwgqxya4j9k9rhq4ha72fzu2wuyueuw6lkz846sde0a0x","addr1q836qf2vqzv57uc42rupyw039fsvnlfuaxumry25x9fwcg43hmpsthwgqxya4j9k9rhq4ha72fzu2wuyueuw6lkz846sde0a0x"],"addressesOutput":["DdzFFzCqrhsjiUgJqXgiQ64kQ1MSJCWq1embg75AMot1rJSeA2RQgvAnWgt6n7CA9twm1r8sNwNYje3pizFcqg12U7dnzCo8F62dmdHi","addr1q836qf2vqzv57uc42rupyw039fsvnlfuaxumry25x9fwcg43hmpsthwgqxya4j9k9rhq4ha72fzu2wuyueuw6lkz846sde0a0x"],"fee":172805,"totalOutput":1473731889,"tokens":[]},{"hash":"81317c0a8aa6b5c940db97bd851b28fe649ecad6d3c06dd486b23410841e90ab","blockNo":8117976,"blockHash":"71019a9d81cffcdae570d1ae9df1218c476ca0d8dae6d4e4d8ea288e52eb1912","epochNo":380,"epochSlotNo":236478,"slot":79033278,"time":"2022/12/09 15:26:09","addressesInput":["addr1q8spjy8lphzuntd3lwp20rxffqqutxm8t520rzhsxl9me9szvvp89vhlad3gq7p742swq7lwtcrlzrlmfy835erh8vtqhmfeqv"],"addressesOutput":["addr1q8mzh0sj3r54cneh4fdtk53tjuzugqhac27pek9ttl9qvpa3rw9xdeyjth3rh7u07sdspdkhd03lt3plmue4zktr2y7sutgums","addr1qxh64gaxpnamn4a3dtzeln3d3pa3hrcds0ssehdcwflactgzvvp89vhlad3gq7p742swq7lwtcrlzrlmfy835erh8vtqk3sqvk","addr1qxh64gaxpnamn4a3dtzeln3d3pa3hrcds0ssehdcwflactgzvvp89vhlad3gq7p742swq7lwtcrlzrlmfy835erh8vtqk3sqvk","addr1qxh64gaxpnamn4a3dtzeln3d3pa3hrcds0ssehdcwflactgzvvp89vhlad3gq7p742swq7lwtcrlzrlmfy835erh8vtqk3sqvk","addr1qxh64gaxpnamn4a3dtzeln3d3pa3hrcds0ssehdcwflactgzvvp89vhlad3gq7p742swq7lwtcrlzrlmfy835erh8vtqk3sqvk"],"fee":176897,"totalOutput":166318428,"tokens":[]},{"hash":"4413b89b20d2f5a7dc7e05c72285c7aa28ca4d1b62d4d52c8652713aef7046eb","blockNo":8117976,"blockHash":"71019a9d81cffcdae570d1ae9df1218c476ca0d8dae6d4e4d8ea288e52eb1912","epochNo":380,"epochSlotNo":236478,"slot":79033278,"time":"2022/12/09 15:26:09","addressesInput":["addr1qxdqtmjvkmgpk84f9rm4pgrmm63nj6f3r7zj0phptzkl6qhzquvf6qw9ycdkx9pyszwfapgflewd6303ftmfk82h8qpskf243d","addr1q9xufzawlgfvun0s3npeswz96un300d3vhhr7qen9ldgl3lzquvf6qw9ycdkx9pyszwfapgflewd6303ftmfk82h8qpslg9hwe"],"addressesOutput":["addr1zxgx3far7qygq0k6epa0zcvcvrevmn0ypsnfsue94nsn3tvpw288a4x0xf8pxgcntelxmyclq83s0ykeehchz2wtspks905plm","addr1q9xufzawlgfvun0s3npeswz96un300d3vhhr7qen9ldgl3lzquvf6qw9ycdkx9pyszwfapgflewd6303ftmfk82h8qpslg9hwe","addr1q9xufzawlgfvun0s3npeswz96un300d3vhhr7qen9ldgl3lzquvf6qw9ycdkx9pyszwfapgflewd6303ftmfk82h8qpslg9hwe"],"fee":217157,"totalOutput":16090183,"tokens":[]},{"hash":"05942fb57e427e0c6d286fb0e32ced4df6c7e8e040c15c07a0bd9c6a63b63d74","blockNo":8117976,"blockHash":"71019a9d81cffcdae570d1ae9df1218c476ca0d8dae6d4e4d8ea288e52eb1912","epochNo":380,"epochSlotNo":236478,"slot":79033278,"time":"2022/12/09 15:26:09","addressesInput":["addr1qynxplaun8n77tw3f88hqlm9yfjydnwmuaqefkdpfqxrwcdnssjjjjvna4awn4t9v6re9ach7tr04f84eadzygl9hd7q0yn4l3","addr1qynxplaun8n77tw3f88hqlm9yfjydnwmuaqefkdpfqxrwcdnssjjjjvna4awn4t9v6re9ach7tr04f84eadzygl9hd7q0yn4l3"],"addressesOutput":["addr1zxgx3far7qygq0k6epa0zcvcvrevmn0ypsnfsue94nsn3tvpw288a4x0xf8pxgcntelxmyclq83s0ykeehchz2wtspks905plm","addr1qynxplaun8n77tw3f88hqlm9yfjydnwmuaqefkdpfqxrwcdnssjjjjvna4awn4t9v6re9ach7tr04f84eadzygl9hd7q0yn4l3","addr1qynxplaun8n77tw3f88hqlm9yfjydnwmuaqefkdpfqxrwcdnssjjjjvna4awn4t9v6re9ach7tr04f84eadzygl9hd7q0yn4l3"],"fee":218477,"totalOutput":47992109,"tokens":[]},{"hash":"f9ab5729caf7daf5b9b5cc413b08dea13b3d90000167432b4484302732885b29","blockNo":8117976,"blockHash":"71019a9d81cffcdae570d1ae9df1218c476ca0d8dae6d4e4d8ea288e52eb1912","epochNo":380,"epochSlotNo":236478,"slot":79033278,"time":"2022/12/09 15:26:09","addressesInput":["addr1zxgx3far7qygq0k6epa0zcvcvrevmn0ypsnfsue94nsn3tvpw288a4x0xf8pxgcntelxmyclq83s0ykeehchz2wtspks905plm","addr1zxgx3far7qygq0k6epa0zcvcvrevmn0ypsnfsue94nsn3tvpw288a4x0xf8pxgcntelxmyclq83s0ykeehchz2wtspks905plm"],"addressesOutput":["addr1q8z8686d893sq9y5wmgl26xk82vw85qqkvkkc5s53yhz907jfz2h0edvsef7a52ykallhjpeytnmr5w6ks7ftjmy9lyq2v84hm","addr1qx4h0f5vt4astmjan2kvrjc7knypuvqlut4vg9u8fjx8dxm83vtv6dexr5z5ejhln6mxy9yv0wy69yuwskwvt4pjnxdsl8wss5","addr1q9cwvremt6n320s2e3agq0jyq82yhrk3htsu0w426xnz5us70z4w0jgvcdkkynmm8wmds66jd9kusnjfpu6raw5fqp0sr07p5w","addr1q9sxv0zlpczy6fs7dlkhll5kry0gxetpz3e53f60l6gcz7dqltmx0cc7gwgjreegxtvjve5musdsmj5khgnrfs9ka5gs9avphg","addr1q8z8686d893sq9y5wmgl26xk82vw85qqkvkkc5s53yhz907jfz2h0edvsef7a52ykallhjpeytnmr5w6ks7ftjmy9lyq2v84hm"],"fee":504640,"totalOutput":1600848700,"tokens":[]},{"hash":"ae0c36647ae59cd59bd6459450b042b2bf3f19348bd54c6e74eb01bf50eaafde","blockNo":8117976,"blockHash":"71019a9d81cffcdae570d1ae9df1218c476ca0d8dae6d4e4d8ea288e52eb1912","epochNo":380,"epochSlotNo":236478,"slot":79033278,"time":"2022/12/09 15:26:09","addressesInput":["addr1q9fq4rzcf3dpgxjdt68dr78mc2nl3am0t3690kgcymg06w76e47l6r4xdfhxe4y27769vj2mtlaef7nwc02f7lmcx0ysx02mlx"],"addressesOutput":["addr1qxny3krdw09ftnlpm2kp740avvgm9wm0z6m4ehts58s6prk6e47l6r4xdfhxe4y27769vj2mtlaef7nwc02f7lmcx0ys8dlxxc"],"fee":173157,"totalOutput":46095981,"tokens":[]},{"hash":"b92d653e5b6b852f7b86f4884a144fec04856000704568e07d1d69cefa83d71a","blockNo":8117976,"blockHash":"71019a9d81cffcdae570d1ae9df1218c476ca0d8dae6d4e4d8ea288e52eb1912","epochNo":380,"epochSlotNo":236478,"slot":79033278,"time":"2022/12/09 15:26:09","addressesInput":["addr1qxeynxrlgu072hsaqdh59n6d97s6w407fmj3wm0sf2l9yw0g9wlzyfdt5ahn7zwj8vzmjufzwqt40nrzpt44gknsrcmqvkdc7y","addr1qxeynxrlgu072hsaqdh59n6d97s6w407fmj3wm0sf2l9yw0g9wlzyfdt5ahn7zwj8vzmjufzwqt40nrzpt44gknsrcmqvkdc7y"],"addressesOutput":["addr1zxgx3far7qygq0k6epa0zcvcvrevmn0ypsnfsue94nsn3tvpw288a4x0xf8pxgcntelxmyclq83s0ykeehchz2wtspks905plm","addr1qxeynxrlgu072hsaqdh59n6d97s6w407fmj3wm0sf2l9yw0g9wlzyfdt5ahn7zwj8vzmjufzwqt40nrzpt44gknsrcmqvkdc7y"],"fee":961290,"totalOutput":2495490,"tokens":[]},{"hash":"3a6e1dbd822bb153c343b0084f45b36a1476e0e46000532db19f4b4f30bf3691","blockNo":8117976,"blockHash":"71019a9d81cffcdae570d1ae9df1218c476ca0d8dae6d4e4d8ea288e52eb1912","epochNo":380,"epochSlotNo":236478,"slot":79033278,"time":"2022/12/09 15:26:09","addressesInput":["addr1qyqweerk67hjczx3zd9gcrvfsetdt44ag0kjdwmm0zmm7gh8ddud6f4kxm20sumxvvlyhmhd6w2xpl9tj2jrca4z3k6sdq8cpk","addr1zxgx3far7qygq0k6epa0zcvcvrevmn0ypsnfsue94nsn3tvpw288a4x0xf8pxgcntelxmyclq83s0ykeehchz2wtspks905plm"],"addressesOutput":["addr1q9ptpqj540dlxt96rlgvq2a4vsyggztfaw6u9ngnx4x75t8x5pfg7le4m0ze02z30yvr7glvpy0l3jpaqf5evzvl0lrqn2senf","addr1q9cwvremt6n320s2e3agq0jyq82yhrk3htsu0w426xnz5us70z4w0jgvcdkkynmm8wmds66jd9kusnjfpu6raw5fqp0sr07p5w","addr1q9a2pqfsay20vwc9m0fzgeme23vwp0v3ggrfm2ax4jy4rzpkvsj0kdcgxp0n6t23myy78xj9f846wvycqlsw5ffc369sf088d9","addr1qyqweerk67hjczx3zd9gcrvfsetdt44ag0kjdwmm0zmm7gh8ddud6f4kxm20sumxvvlyhmhd6w2xpl9tj2jrca4z3k6sdq8cpk","addr1qyqweerk67hjczx3zd9gcrvfsetdt44ag0kjdwmm0zmm7gh8ddud6f4kxm20sumxvvlyhmhd6w2xpl9tj2jrca4z3k6sdq8cpk"],"fee":395031,"totalOutput":73850962,"tokens":[]},{"hash":"0d0e0e9a515b8d0fc3fc3480ff71f950167e7418b74919bc47fdf7a2150a7a83","blockNo":8117976,"blockHash":"71019a9d81cffcdae570d1ae9df1218c476ca0d8dae6d4e4d8ea288e52eb1912","epochNo":380,"epochSlotNo":236478,"slot":79033278,"time":"2022/12/09 15:26:09","addressesInput":["addr1qyrmlw3n7l4njrf7dqyndzkqkep9xc6s4qw6g6nsuthnm55l27jsz7xw4vhrurqctzjyzy00xyclk4e603t6sn64eyxqdnelaa","addr1qyrmlw3n7l4njrf7dqyndzkqkep9xc6s4qw6g6nsuthnm55l27jsz7xw4vhrurqctzjyzy00xyclk4e603t6sn64eyxqdnelaa","addr1qyrmlw3n7l4njrf7dqyndzkqkep9xc6s4qw6g6nsuthnm55l27jsz7xw4vhrurqctzjyzy00xyclk4e603t6sn64eyxqdnelaa"],"addressesOutput":["addr1zxgx3far7qygq0k6epa0zcvcvrevmn0ypsnfsue94nsn3tvpw288a4x0xf8pxgcntelxmyclq83s0ykeehchz2wtspks905plm","addr1qyrmlw3n7l4njrf7dqyndzkqkep9xc6s4qw6g6nsuthnm55l27jsz7xw4vhrurqctzjyzy00xyclk4e603t6sn64eyxqdnelaa"],"fee":252181,"totalOutput":7117919,"tokens":[]},{"hash":"362af1075781defa89f302f45f431b492363c7a533db70c9a816437f479cf0a9","blockNo":8117976,"blockHash":"71019a9d81cffcdae570d1ae9df1218c476ca0d8dae6d4e4d8ea288e52eb1912","epochNo":380,"epochSlotNo":236478,"slot":79033278,"time":"2022/12/09 15:26:09","addressesInput":["addr1q8yehruzplhuz3ct688jrfefggk0f2qc88r4hzj3dgdxqtx2h8y4gwedd2z2nx6544nalel0zd0g0kel44c96xy3vxvqaqdm3z","addr1q9zs45w9h265eadxeyyn3xln9ytkhrhadr5hgpmcmmxrv5k2h8y4gwedd2z2nx6544nalel0zd0g0kel44c96xy3vxvqn39l8y","addr1q87k9zrel8zsqpqhue55u7356gch8a4wp7xfpg5et2nn3q72h8y4gwedd2z2nx6544nalel0zd0g0kel44c96xy3vxvqwq22c9","addr1q8v35k59dzc4hje6eqgtg3ynaudu06va4c79zntaawz0wqk2h8y4gwedd2z2nx6544nalel0zd0g0kel44c96xy3vxvq8h2s5p","addr1qxf7lew45mxkl2035utnwxth76hugmfjxy5v0u73t4fy9hx2h8y4gwedd2z2nx6544nalel0zd0g0kel44c96xy3vxvqhfpdm0"],"addressesOutput":["addr1q9p3jmcg75utu0rjsrk6a5dn72kq8df8wl5dyjkgnhjtf6a3jxkuxm74cxleuyvuecth0djdpzaxdczguccjshyzs2rspnkxdv","addr1qxrcm646vpdhw7w8pasjqzacymdqvfys47l79n2g25d83gx2h8y4gwedd2z2nx6544nalel0zd0g0kel44c96xy3vxvqh6dc4l","addr1q8jmhu78qvu4w0z5a7ht666nu6tldzlhh3l3hxlweqwfzsk2h8y4gwedd2z2nx6544nalel0zd0g0kel44c96xy3vxvqyjxjpz"],"fee":559917,"totalOutput":34241321,"tokens":[]},{"hash":"6a9c67292db78ff3d1e703977bb2ad3dad581d532bbb08f241d079c22766d849","blockNo":8117976,"blockHash":"71019a9d81cffcdae570d1ae9df1218c476ca0d8dae6d4e4d8ea288e52eb1912","epochNo":380,"epochSlotNo":236478,"slot":79033278,"time":"2022/12/09 15:26:09","addressesInput":["addr1zxgx3far7qygq0k6epa0zcvcvrevmn0ypsnfsue94nsn3tvpw288a4x0xf8pxgcntelxmyclq83s0ykeehchz2wtspks905plm","addr1qxjcaacsynv9ajm8u0qzl2l4awr8lhhqqprsv43advksyh35k0axhpqsa3rmln0uj6np2vkxx9n96xfcqayyhrlepy9s35pa8m"],"addressesOutput":["addr1zxgx3far7qygq0k6epa0zcvcvrevmn0ypsnfsue94nsn3tvpw288a4x0xf8pxgcntelxmyclq83s0ykeehchz2wtspks905plm","addr1qxjcaacsynv9ajm8u0qzl2l4awr8lhhqqprsv43advksyh35k0axhpqsa3rmln0uj6np2vkxx9n96xfcqayyhrlepy9s35pa8m","addr1qxjcaacsynv9ajm8u0qzl2l4awr8lhhqqprsv43advksyh35k0axhpqsa3rmln0uj6np2vkxx9n96xfcqayyhrlepy9s35pa8m"],"fee":281314,"totalOutput":235694905,"tokens":[]},{"hash":"751eb6e6a037bcb1c1749f1b94ebe92db538d84a3966c1a6e9ab15bdb1a73099","blockNo":8117976,"blockHash":"71019a9d81cffcdae570d1ae9df1218c476ca0d8dae6d4e4d8ea288e52eb1912","epochNo":380,"epochSlotNo":236478,"slot":79033278,"time":"2022/12/09 15:26:09","addressesInput":["addr1qxmkez5f4dy0uw9pf82037jy0drnvr8gnnksu7rcu0j8ap5rl9v7lhsr25q5aa3jhpn063jaw6tlmy248l6qhzcf2y5swwtk4m","addr1qxmkez5f4dy0uw9pf82037jy0drnvr8gnnksu7rcu0j8ap5rl9v7lhsr25q5aa3jhpn063jaw6tlmy248l6qhzcf2y5swwtk4m","addr1zxgx3far7qygq0k6epa0zcvcvrevmn0ypsnfsue94nsn3tvpw288a4x0xf8pxgcntelxmyclq83s0ykeehchz2wtspks905plm"],"addressesOutput":["addr1q9ptpqj540dlxt96rlgvq2a4vsyggztfaw6u9ngnx4x75t8x5pfg7le4m0ze02z30yvr7glvpy0l3jpaqf5evzvl0lrqn2senf","addr1q9cwvremt6n320s2e3agq0jyq82yhrk3htsu0w426xnz5us70z4w0jgvcdkkynmm8wmds66jd9kusnjfpu6raw5fqp0sr07p5w","addr1qys3prj2k5wrgvk8csdednfrz9jucs65klu96dqzdcrtta6czu3g7u28h7u8kr80az6x2qs5kq7cltxs94jsqyneg0ss0uu8nv","addr1q975gv79rd3az5kl7vntx3a9kzkzcqw2qsurzj5dw8r0dgurl9v7lhsr25q5aa3jhpn063jaw6tlmy248l6qhzcf2y5stngagl","addr1q975gv79rd3az5kl7vntx3a9kzkzcqw2qsurzj5dw8r0dgurl9v7lhsr25q5aa3jhpn063jaw6tlmy248l6qhzcf2y5stngagl"],"fee":407429,"totalOutput":75224967,"tokens":[]},{"hash":"13f21c21363b4a338915bff2824e1189c59061b7043b8a461a62724f0596cb0d","blockNo":8117976,"blockHash":"71019a9d81cffcdae570d1ae9df1218c476ca0d8dae6d4e4d8ea288e52eb1912","epochNo":380,"epochSlotNo":236478,"slot":79033278,"time":"2022/12/09 15:26:09","addressesInput":["addr1zxgx3far7qygq0k6epa0zcvcvrevmn0ypsnfsue94nsn3tvpw288a4x0xf8pxgcntelxmyclq83s0ykeehchz2wtspks905plm","addr1qycvs43n2q7rawz086uv7qezrj5zqqr4k5rwnd4tzfdgj5h0gyy49243d4qhx04x2pr33ntg2tunuw9jnawezhyvvjasrh74ef"],"addressesOutput":["addr1qycvs43n2q7rawz086uv7qezrj5zqqr4k5rwnd4tzfdgj5h0gyy49243d4qhx04x2pr33ntg2tunuw9jnawezhyvvjasrh74ef","addr1qycvs43n2q7rawz086uv7qezrj5zqqr4k5rwnd4tzfdgj5h0gyy49243d4qhx04x2pr33ntg2tunuw9jnawezhyvvjasrh74ef"],"fee":262986,"totalOutput":186828625,"tokens":[]},{"hash":"94c7d160afa618a5b4de10ae585006c64c26d9ab0c312482b2b0e312c1794be4","blockNo":8117976,"blockHash":"71019a9d81cffcdae570d1ae9df1218c476ca0d8dae6d4e4d8ea288e52eb1912","epochNo":380,"epochSlotNo":236478,"slot":79033278,"time":"2022/12/09 15:26:09","addressesInput":["addr1wxn9efv2f6w82hagxqtn62ju4m293tqvw0uhmdl64ch8uwc0h43gt","addr1qyht4ja0zcn45qvyx477qlyp6j5ftu5ng0prt9608dxp6l2j2c79gy9l76sdg0xwhd7r0c0kna0tycz4y5s6mlenh8pq4jxtdy","addr1qyht4ja0zcn45qvyx477qlyp6j5ftu5ng0prt9608dxp6l2j2c79gy9l76sdg0xwhd7r0c0kna0tycz4y5s6mlenh8pq4jxtdy","addr1z8snz7c4974vzdpxu65ruphl3zjdvtxw8strf2c2tmqnxz2j2c79gy9l76sdg0xwhd7r0c0kna0tycz4y5s6mlenh8pq0xmsha"],"addressesOutput":["addr1qyht4ja0zcn45qvyx477qlyp6j5ftu5ng0prt9608dxp6l2j2c79gy9l76sdg0xwhd7r0c0kna0tycz4y5s6mlenh8pq4jxtdy","addr1qyht4ja0zcn45qvyx477qlyp6j5ftu5ng0prt9608dxp6l2j2c79gy9l76sdg0xwhd7r0c0kna0tycz4y5s6mlenh8pq4jxtdy","addr1q96u8q5pekvl9f3z6jqttpl503ughqygtq24q953ey45klg05wk3t3whx0vpm29xh2as6fdttl57ltgp069s9yd82rhs923xe0","addr1z8snz7c4974vzdpxu65ruphl3zjdvtxw8strf2c2tmqnxz2j2c79gy9l76sdg0xwhd7r0c0kna0tycz4y5s6mlenh8pq0xmsha"],"fee":810183,"totalOutput":41378356377,"tokens":[]},{"hash":"8e51b99b9818bb1b9426263204bebc45f95bbc0483f240079b036fc7134dafd0","blockNo":8117976,"blockHash":"71019a9d81cffcdae570d1ae9df1218c476ca0d8dae6d4e4d8ea288e52eb1912","epochNo":380,"epochSlotNo":236478,"slot":79033278,"time":"2022/12/09 15:26:09","addressesInput":["addr1q9p9gvkt6c29ucl4034665wgfgsmdagzlr6v06yxjnzqdjhdwk2nj3sm36yu907awny5dycw40k47wwgacm0l39ggrmsaxnpkv","addr1zxgx3far7qygq0k6epa0zcvcvrevmn0ypsnfsue94nsn3tvpw288a4x0xf8pxgcntelxmyclq83s0ykeehchz2wtspks905plm","addr1q9p9gvkt6c29ucl4034665wgfgsmdagzlr6v06yxjnzqdjhdwk2nj3sm36yu907awny5dycw40k47wwgacm0l39ggrmsaxnpkv"],"addressesOutput":["addr1q9cwvremt6n320s2e3agq0jyq82yhrk3htsu0w426xnz5us70z4w0jgvcdkkynmm8wmds66jd9kusnjfpu6raw5fqp0sr07p5w","addr1q868rj6xfneyhrurep2ufxjcucd4r0q00pl0kehatqnkadya68dd2jymaeskvztctjxxzzcp6r9gq3s26gflp9xq8g2scj2c2e","addr1q9p9gvkt6c29ucl4034665wgfgsmdagzlr6v06yxjnzqdjhdwk2nj3sm36yu907awny5dycw40k47wwgacm0l39ggrmsaxnpkv","addr1q9p9gvkt6c29ucl4034665wgfgsmdagzlr6v06yxjnzqdjhdwk2nj3sm36yu907awny5dycw40k47wwgacm0l39ggrmsaxnpkv"],"fee":335082,"totalOutput":365379429,"tokens":[]},{"hash":"2707aabebe5dba6566d90fe4072cfe2f01200e1213052d3cb8e33aeff37826ec","blockNo":8117976,"blockHash":"71019a9d81cffcdae570d1ae9df1218c476ca0d8dae6d4e4d8ea288e52eb1912","epochNo":380,"epochSlotNo":236478,"slot":79033278,"time":"2022/12/09 15:26:09","addressesInput":["addr1q9qyac8y0j8rsfmprpn2r5du36yyh4622kdyygsd3qpwytr7lx225hhmtwne07pe2d0wztsh6t9z2kwq3ess53wze0zstrux9t","addr1q9qyac8y0j8rsfmprpn2r5du36yyh4622kdyygsd3qpwytr7lx225hhmtwne07pe2d0wztsh6t9z2kwq3ess53wze0zstrux9t"],"addressesOutput":["addr1qxzfuezrt5mkfrnpffttk7s8l7fespzvqq8hhsta34zk8crz2tsj0fjvkp38kpaftx6p4vv529c5k5wny32lg4jta9lsf6ggn6","addr1q9qyac8y0j8rsfmprpn2r5du36yyh4622kdyygsd3qpwytr7lx225hhmtwne07pe2d0wztsh6t9z2kwq3ess53wze0zstrux9t"],"fee":203957,"totalOutput":73230953,"tokens":[]},{"hash":"866e89f11394f9df868a213d02b048c4fcf11dd3a4801c9c949199f5353968ac","blockNo":8117976,"blockHash":"71019a9d81cffcdae570d1ae9df1218c476ca0d8dae6d4e4d8ea288e52eb1912","epochNo":380,"epochSlotNo":236478,"slot":79033278,"time":"2022/12/09 15:26:09","addressesInput":["addr1q86yds6za07xj3ar7488l3jcmtj5l7gsvajz6wffv9akvgjyflreh4tah09t5hvd5vzvm8j0cdnmccmu7v66tuh7n9esl99mvf"],"addressesOutput":["addr1wxn9efv2f6w82hagxqtn62ju4m293tqvw0uhmdl64ch8uwc0h43gt","addr1q86yds6za07xj3ar7488l3jcmtj5l7gsvajz6wffv9akvgjyflreh4tah09t5hvd5vzvm8j0cdnmccmu7v66tuh7n9esl99mvf","addr1q86yds6za07xj3ar7488l3jcmtj5l7gsvajz6wffv9akvgjyflreh4tah09t5hvd5vzvm8j0cdnmccmu7v66tuh7n9esl99mvf"],"fee":213681,"totalOutput":159160896,"tokens":[]},{"hash":"b94e797684009d584ad9255e9a5588bda624c1fd1f648e1af1b2176ba300ee50","blockNo":8117976,"blockHash":"71019a9d81cffcdae570d1ae9df1218c476ca0d8dae6d4e4d8ea288e52eb1912","epochNo":380,"epochSlotNo":236478,"slot":79033278,"time":"2022/12/09 15:26:09","addressesInput":["addr1qykjwg5xunrlu8p2aflfr32nyrxkpxfrm82ml9lp2v7ezt5m4a3kklgy4m40fychgk249w02emr5p0usvy0kyqqxdfxscqynca","addr1qykjwg5xunrlu8p2aflfr32nyrxkpxfrm82ml9lp2v7ezt5m4a3kklgy4m40fychgk249w02emr5p0usvy0kyqqxdfxscqynca","addr1qykjwg5xunrlu8p2aflfr32nyrxkpxfrm82ml9lp2v7ezt5m4a3kklgy4m40fychgk249w02emr5p0usvy0kyqqxdfxscqynca","addr1qykjwg5xunrlu8p2aflfr32nyrxkpxfrm82ml9lp2v7ezt5m4a3kklgy4m40fychgk249w02emr5p0usvy0kyqqxdfxscqynca"],"addressesOutput":["addr1qyeazccn9wgeav4633f09n933v0wnum34a2pyqa0er4s6sj83k3xcksg08nz3k5x9aufyupgfsss29s4tqmu9h63eshql6vkvv","addr1qykjwg5xunrlu8p2aflfr32nyrxkpxfrm82ml9lp2v7ezt5m4a3kklgy4m40fychgk249w02emr5p0usvy0kyqqxdfxscqynca","addr1qykjwg5xunrlu8p2aflfr32nyrxkpxfrm82ml9lp2v7ezt5m4a3kklgy4m40fychgk249w02emr5p0usvy0kyqqxdfxscqynca"],"fee":180901,"totalOutput":102941455,"tokens":[]},{"hash":"3a30889bc6c7a9da0a301d9a8950e09c3a5dcc23d1535798a1ecd82c5bbe9a20","blockNo":8117976,"blockHash":"71019a9d81cffcdae570d1ae9df1218c476ca0d8dae6d4e4d8ea288e52eb1912","epochNo":380,"epochSlotNo":236478,"slot":79033278,"time":"2022/12/09 15:26:09","addressesInput":["addr1qyfpf7xtytesn63t0hrf5008njfzlvt8umt476cx0qgxfsg7xqa6nkrnshplyj2z6jn935m8z86gxj8q7mlkmlsur7dqmqj8p9","addr1qyfpf7xtytesn63t0hrf5008njfzlvt8umt476cx0qgxfsg7xqa6nkrnshplyj2z6jn935m8z86gxj8q7mlkmlsur7dqmqj8p9","addr1qyfpf7xtytesn63t0hrf5008njfzlvt8umt476cx0qgxfsg7xqa6nkrnshplyj2z6jn935m8z86gxj8q7mlkmlsur7dqmqj8p9","addr1qyfpf7xtytesn63t0hrf5008njfzlvt8umt476cx0qgxfsg7xqa6nkrnshplyj2z6jn935m8z86gxj8q7mlkmlsur7dqmqj8p9","addr1qyfpf7xtytesn63t0hrf5008njfzlvt8umt476cx0qgxfsg7xqa6nkrnshplyj2z6jn935m8z86gxj8q7mlkmlsur7dqmqj8p9","addr1qyfpf7xtytesn63t0hrf5008njfzlvt8umt476cx0qgxfsg7xqa6nkrnshplyj2z6jn935m8z86gxj8q7mlkmlsur7dqmqj8p9","addr1qyfpf7xtytesn63t0hrf5008njfzlvt8umt476cx0qgxfsg7xqa6nkrnshplyj2z6jn935m8z86gxj8q7mlkmlsur7dqmqj8p9"],"addressesOutput":["addr1zxgx3far7qygq0k6epa0zcvcvrevmn0ypsnfsue94nsn3tvpw288a4x0xf8pxgcntelxmyclq83s0ykeehchz2wtspks905plm","addr1qyfpf7xtytesn63t0hrf5008njfzlvt8umt476cx0qgxfsg7xqa6nkrnshplyj2z6jn935m8z86gxj8q7mlkmlsur7dqmqj8p9","addr1qyfpf7xtytesn63t0hrf5008njfzlvt8umt476cx0qgxfsg7xqa6nkrnshplyj2z6jn935m8z86gxj8q7mlkmlsur7dqmqj8p9"],"fee":225077,"totalOutput":446545240,"tokens":[]},{"hash":"0d4f4ea40511ac61ec90eea2dc2077e53138ffd5cfed681b56eb32721de02b0d","blockNo":8117976,"blockHash":"71019a9d81cffcdae570d1ae9df1218c476ca0d8dae6d4e4d8ea288e52eb1912","epochNo":380,"epochSlotNo":236478,"slot":79033278,"time":"2022/12/09 15:26:09","addressesInput":["addr1qxn945mdeupknn8s09g97wh9avu4ptqcsk37wqlkmv8e7kfg00u2hjt6wjp39lq3xt2shwz4ca42t99hj55sqjzjlu9sgkcsnf"],"addressesOutput":["addr1q8k4wx8qa4qhc9ehmgzhcwmlkpw6z5ga649sc0rs8v3xxs6pjzm6vgtff0kqrd4042q3940eq7r9en3wlp2386qyv60sj5vjvs","addr1q9te2ywhkhxntdvvfrk65zawgqw027z0urmwm9vcsvzpayfg00u2hjt6wjp39lq3xt2shwz4ca42t99hj55sqjzjlu9su8cj0d"],"fee":169197,"totalOutput":3076956211,"tokens":[]}],"totalItems":56327032,"totalPages":2816352,"currentPage":0}