{"data":[{"txId":59066278,"txHash":"eff06bd2e94e3dc4addfbca875ec660e989a526d1e28e558959b256d13038863","txTime":"2023/01/07 02:40:32","block":8237977,"epoch":386,"slotNo":81492941,"epochSlotNo":104141,"stakeKey":"stake1u9uxmnqspcaak09hrvm2a6m4xwhz5rs4kg2k6q584qxgt7qeyckv5"},{"txId":59066115,"txHash":"004dd7f6b372d6e941e7e569b02e7738528cae97da3eb0d8997162924224e75c","txTime":"2023/01/07 02:37:08","block":8237966,"epoch":386,"slotNo":81492737,"epochSlotNo":103937,"stakeKey":"stake1u8hkdd84s6dxhltp8pklyufgdlu4y7lageznc3f0c00ym8cthnvx4"},{"txId":59065940,"txHash":"8cc129feff507d930c992773e695a37bf963f1baeca0dfe16043632c13d4669d","txTime":"2023/01/07 02:33:52","block":8237957,"epoch":386,"slotNo":81492541,"epochSlotNo":103741,"stakeKey":"stake1uy7r4dw2arapyxh4lr2n2gxp2qpcd9l4pqys39j6c9v30vqe2laev"},{"txId":59065411,"txHash":"13193badc3c932d2112c61ccfddd908c0a97c32487db459fc183ce748543a45b","txTime":"2023/01/07 02:23:39","block":8237925,"epoch":386,"slotNo":81491928,"epochSlotNo":103128,"stakeKey":"stake1u9nm7r7gjdfzhvpcfnnxajcqd6nxvqtulmekc2vv7ntzawsmy3z07"},{"txId":59064534,"txHash":"72dc305916a679e14e1b9edf4d96ab5f025fac0eaf4eb8783a4b8296244cec98","txTime":"2023/01/07 02:06:25","block":8237878,"epoch":386,"slotNo":81490894,"epochSlotNo":102094,"stakeKey":"stake1uyzkg7c3w6pa6jfq8e0y0gcvrhyykpc2qhkcvgpwmp79hwskwd4ul"},{"txId":59064489,"txHash":"266cded4a15dca56ac6d21b66be7d5d2eee6cef35381c1a07214d7aac64a0109","txTime":"2023/01/07 02:06:09","block":8237877,"epoch":386,"slotNo":81490878,"epochSlotNo":102078,"stakeKey":"stake1u9qrqvvryk0mwffek8jy5ak09n2nj0s55nudxlhwlcnwgngs7sdam"},{"txId":59064262,"txHash":"473d452d19246202c6745eb1c0dd2ae7d8c165e8eab750f0a65c20051f72483d","txTime":"2023/01/07 02:01:10","block":8237862,"epoch":386,"slotNo":81490579,"epochSlotNo":101779,"stakeKey":"stake1u8jssd42ysyzcepzcsa2szc9kehzu77nu2yljjkj7c8y4dqu8825h"},{"txId":59063699,"txHash":"590cdc7054d70cf993cacda7cee8c2bec4eaeb3319cd5c78d7d08cc1b66c08bc","txTime":"2023/01/07 01:50:55","block":8237832,"epoch":386,"slotNo":81489964,"epochSlotNo":101164,"stakeKey":"stake1uyf7f5uj2nfn3xcrsnlk5w6uuxcccc8e5d36hfwv5vvte4s0cj3x6"},{"txId":59063621,"txHash":"d5182ee64eafa5027e74ce859361e8c5e966c7a63c8a29bd938f091a0a514700","txTime":"2023/01/07 01:48:59","block":8237825,"epoch":386,"slotNo":81489848,"epochSlotNo":101048,"stakeKey":"stake1u8pwxqhxhlm6zhqwm22dpt5d86fkh8cps4samtnjke3fjxgptvwul"},{"txId":59062609,"txHash":"2d6234f29e88bf6bb14daa87b06f04df260f23ef75189c3c20e0c53156697e84","txTime":"2023/01/07 01:29:43","block":8237756,"epoch":386,"slotNo":81488692,"epochSlotNo":99892,"stakeKey":"stake1uyjmll4argxk99whrpj2k0l4aunpk2ta007fmhjylr909hggv5rrp"},{"txId":59062297,"txHash":"e1f38864fa7fe9d948bdf39441dc601b520a31227e02132ae36b7ec7f7d0d76e","txTime":"2023/01/07 01:23:25","block":8237738,"epoch":386,"slotNo":81488314,"epochSlotNo":99514,"stakeKey":"stake1uxxh4rnwgr0ygxqpm8xcgdkp5tw6ljd5er36ua3p8m93phc9qypay"},{"txId":59062246,"txHash":"357166f72d5d9bf22f9e275f1948751f2d43aefd853739a5d482fd2f7748ed11","txTime":"2023/01/07 01:22:26","block":8237736,"epoch":386,"slotNo":81488255,"epochSlotNo":99455,"stakeKey":"stake1u8ajst3kug59e70lfnhf2j4ka6gy3w4m8md4mqy6x5kvzxckm8c8z"},{"txId":59062184,"txHash":"79644bfd90eb676b71bec144f32b05a990a41d1bb9067589739108b4217de391","txTime":"2023/01/07 01:21:16","block":8237731,"epoch":386,"slotNo":81488185,"epochSlotNo":99385,"stakeKey":"stake1u9tgl6vcecjmxezrlzu6r5wj5sgj82endyzl5z3pr6npcjggns5ap"},{"txId":59062154,"txHash":"b339648235d04db9f6ff10bc5508df84ee6f57d8a4d87f65992aec1067d927dd","txTime":"2023/01/07 01:20:50","block":8237729,"epoch":386,"slotNo":81488159,"epochSlotNo":99359,"stakeKey":"stake1u8qpfa4xl522nuvvsy9dgqwcwmdjkcvuuuuh4xsx6780rdgyefepp"},{"txId":59061906,"txHash":"e4f58d9f6a140323e414885406d7cc8cceff45a694399522b9aa79d05afb7016","txTime":"2023/01/07 01:16:19","block":8237715,"epoch":386,"slotNo":81487888,"epochSlotNo":99088,"stakeKey":"stake1u8rynx7ex5es7ra35tnpccukzz0sl5xxtzq360eeevltqsg3xnjvp"},{"txId":59061900,"txHash":"750c82328872e9ef7277a35d866401de624b1cb69e6fc32b7ea7cea757772c1d","txTime":"2023/01/07 01:16:19","block":8237715,"epoch":386,"slotNo":81487888,"epochSlotNo":99088,"stakeKey":"stake1u8dkl3qywdz9c388rf5hkxrxt8mh2363ta860scztvt85ag9avjwz"},{"txId":59061804,"txHash":"bc124ec2060620d80352c50fe83926eded6a94f2469310d6a06a5739b847dd1a","txTime":"2023/01/07 01:14:01","block":8237707,"epoch":386,"slotNo":81487750,"epochSlotNo":98950,"stakeKey":"stake1u80azm7qn848a9suc76xfdlqqqkg3hu908gxhq3vgynsqag99y3c7"},{"txId":59061756,"txHash":"8af25e426e56693335a8c7a7e7495dfc6b6b1a4fd9e678443eab30ac66af11a9","txTime":"2023/01/07 01:13:47","block":8237706,"epoch":386,"slotNo":81487736,"epochSlotNo":98936,"stakeKey":"stake1u8hgu22l744468zr0h0k5fww5slxt26m640nfqqgehy5c7gd2g6yu"},{"txId":59061120,"txHash":"b297b4ef141ecf31d5c608df06e87139a578dc37506e9d7143c2531e40766c61","txTime":"2023/01/07 01:02:20","block":8237674,"epoch":386,"slotNo":81487049,"epochSlotNo":98249,"stakeKey":"stake1u8h5v48f99r38qfd9z9rstkml4crysvulmcxgss9rn6g2pcw3qcfd"},{"txId":59061019,"txHash":"d06d619b6705a56ff95947cb13d49e082c47a72667fb0beb081d161de0839013","txTime":"2023/01/07 01:00:19","block":8237670,"epoch":386,"slotNo":81486928,"epochSlotNo":98128,"stakeKey":"stake1u99afr73dwhj4es0fntn94w6fdw9gt5tdjcyhsan0nykncssf95fj"}],"totalItems":342488,"totalPages":17125,"currentPage":0}