{"data":[{"hash":"d82cac8c57019de6023a0d0abcfd709883b321a542449e56fa5a928113cb1751","blockNo":8126064,"blockHash":"2081ce9bcc21b1eb41c4c648acad1f2672d592bc6b9706aded8c9bedacd47eb1","epochNo":380,"epochSlotNo":399865,"slot":79196665,"time":"2022/12/11 12:49:16","addressesInput":["DdzFFzCqrhsyinRmEnNezUhq453nV6hHmYNiBRu9m6Rcx59xaXk1Rkw6CbgHzm1ykwamgTbvz7dwVW4SB3uxszJEmR4hY4tEVEmRn54M","DdzFFzCqrhsdzK42MpiYLrWq4RcVTktQvBLy44xqqfUNDCQmY5mdyZ4Rrk9mb41wQD84G41uUWBfdgN6cEN692v4xFfKn2UNqejQ5Ur1","DdzFFzCqrht4g2fzuv1165diAG6gJR3fAZyepMMPZ1ybb6ZdKvsQu6rTeGts5eRSypevL6nFwbTFxoSh7549jQXLgCw7guZ2Aqn64qiX","DdzFFzCqrhsnePMRVXABxqCUdnevQEVj2So6fmNmzY8FQkke5tdrbgDzh237hssAfYkBJhpWfS2SVnr8NyWn1Za2wiB3JNEvDvX1sAkY","DdzFFzCqrhsm9L8jfpe3ySkNEqShrep68uotjJc7GZiGn7fjnEvivXLeEvtqsNHqTNcBhkKwNXnZcLNTJyvArwTbmi8C6cv4wmdw1cgg","DdzFFzCqrhspYJ45ndGx7s7X32eyTATbdLnzmWyEjWQYHg7WbJP87UdAqrJFz5ko9Pd35iFvkqEdei8869KuoDtkUtt6btkZ8ysi12Jr","DdzFFzCqrht5XLd1AEN7bJwSETXEjrpzbutCLebymJxMaWKqQ3f1bYzkBUxcqnAzjsCi1VDeZtbnfMcqQ9jmQ6S8SPH7hGFYEY8bwfK1","DdzFFzCqrhsiHDpLeQGgtmFYGTeaJB4c6RUpqpbdsrN34vovfY1mS2ZWahaiGR8XkiynbrQ39cF6oLi2Y22Bp8C98o32ENgFMVVcjgtA","DdzFFzCqrhsgQsk9wuefnUQyJ6RUXdnBXV1F7kGQMVATcqtVtzxHMriTJuGyZp2Hb28RSb1GRavv9Pi8XH36Aj8EXHRZ1ExzAgnBpXfH","DdzFFzCqrht3QXmBgJ1rmpMDXCiqvnBCahoxjdRzorik4tWeEGBhRSGFBKfcRXCvVp1gr7fZAjcwD6nff5gY6ADLA2A7m2xKtYKLcahk","DdzFFzCqrht8iQfsuVRC7ybcBpYRvPTJtWcAX4WEYgLe9TjZKXQbDniaDurUNihD2HrVrFsmTBzE9vHpvyNFk91PpSFH4zn1HLNdg7Ka","DdzFFzCqrhsqmHkLJkXBxWgiVRGfkYLyLHSqCk4cJxGK3szkGZygZafmJhoUmPPqTWDvahbdZN6qir8zubahjyVtsJ214UYRL5NiXfnq","DdzFFzCqrhsrfK1PZT2KGUtQwQNFEeh1RVbPf7PuCSkMLceNq3vs69WXE86bgr7vPEY3VpeWWbbXvqXihDYg1beP6dwe6GE1sYA3bSTP","DdzFFzCqrhsxur7k5CpRUMwasQjqZcWXXhAFpEjKdS372PjGCDsv77CTpfu6KAFxErMTZSyVsE84RJjCSaMHin4UXE3mPTKG82X8qqUz","DdzFFzCqrht1mVV9D6em17W43BYArkV7qcuu842imrv6vs6qeNg5vz4RsgfjeczH1Q1LeQa4C1hVAfp2aazunzEsvjkbhvEg9sU6iseH","DdzFFzCqrhsweNVnoghYox2Mxy5RM34J9NRm1yL99en1creK1M8AsP1kZ9qmKztLaAiivVvSqZdWoCeBXcxThT4Q1AkJN9EnPRM7FWyF","DdzFFzCqrhsdzK42MpiYLrWq4RcVTktQvBLy44xqqfUNDCQmY5mdyZ4Rrk9mb41wQD84G41uUWBfdgN6cEN692v4xFfKn2UNqejQ5Ur1","DdzFFzCqrht5ct94zhguUXUzYZ796TJW5SPQgujakUsY5iLJd7k2Yz8Ysox782aStuakgekaB39T4krBNgkQfTdsMW71HnviqBoZ1mzf","DdzFFzCqrht3D1RPJEZmsJuR3ENLpU7ABonVXfPa9PiRQhuy5CdLWjepxiGW1C6HY4M5dyLFL1CV8jRYmGDLgCVsr2YyY7LmH9Eo7v6A","DdzFFzCqrhstrJ8ysh81aV5FY3dx7CdhSFowr5RXTLXgmknk1aAqzhkt8DanAPtM7v5xBgt5Cv4eV4pk12LxbyCTuM3nMQPRHC65zW2c","DdzFFzCqrht6k6yyLoDYRzzTxA7224SjQiBgEp91Nf9cwdCpbDoiEoExpq6DMBZMSvFcsv9S56rUFhew4sxnzTNmhaMv7JPEsBBKjYr9","DdzFFzCqrhsmrZ5QS9Cekp6swVXcFWKJaB8thgTDztRoUK9M8yj6kHcLwo9KXNvFzUvkFs3QGmWsWMREUtE1RH8wNtxnv6LXMwYB8eAv","DdzFFzCqrht4Fj4ACnfY5zT295CEuAxwyfE6pKqnByHDuiWP5JJKpfzuqiRQanRVAkQFpnWwsfvFQ4NKoRYhD9hfjTvVbEpFWKF17P26"],"addressesOutput":["addr1q9atjfpqwdtg7ytz0pz9zcaqvx8zr2uv6ysvc4csqynr683dzefudzxhadht99nh8gv4l3z93d486ygllgxuh2drrrpsdw6fws","DdzFFzCqrhsytnexTcveouXFwAgTxCgBKC9s8j1B6G7GqSKcFZp6AC9st6jyj2F3k4xwDoaZMo8zQh6HigcnpGhiBhmhEiqD18t8Q7Mz","DdzFFzCqrhtAETb1acZPksmCutWu9DUpT6WgKZpVb4p4ocJvNrSp6zMxg9jbNEagpLjHMexVt4Gg4y6a4bQKAjkysBihZSNVRVFHYNLm","DdzFFzCqrhsmSkiwW74iAEdxapN9HygwgWWrUabnZRQtpXVUcQScmmL14yVnjD4dJ6mBFqitS4pAohwePdgLkcwWhxMPFgbhfkDt54Wm","DdzFFzCqrhtBY8e5xyYfXcThP2Q8CNrjsg8hEyJzZuQZDgoeQy2PXTFbegSQcGqkLaQ4kT8xh4VtTGviFo8kaTQraeEZ4su3sbq8dTzT"],"fee":1108641,"totalOutput":66956561262,"tokens":[]},{"hash":"71684f5581815d0bb35d36e39a399bc090d64f9e684131170574082685cb5da0","blockNo":8125956,"blockHash":"ce1e5d9607ecc5e9f4fc824f50c6de326663aa3d7c7ebbe74067b2db5cbdcd84","epochNo":380,"epochSlotNo":397485,"slot":79194285,"time":"2022/12/11 12:09:36","addressesInput":["addr1qy0xznhgdhqj9u4g6jjdntf2cxy5lyad8j2p6a6dp8jwwttfq4uncdzu6hqlxn7gva2xsaln40x226fl8fsnqyyvzxtqqm3qw9"],"addressesOutput":["addr1zxgx3far7qygq0k6epa0zcvcvrevmn0ypsnfsue94nsn3tvpw288a4x0xf8pxgcntelxmyclq83s0ykeehchz2wtspks905plm","addr1qy0xznhgdhqj9u4g6jjdntf2cxy5lyad8j2p6a6dp8jwwttfq4uncdzu6hqlxn7gva2xsaln40x226fl8fsnqyyvzxtqqm3qw9"],"fee":257813,"totalOutput":8947415,"tokens":[]},{"hash":"1dd7addf841b4720b60102a67503b74f8a73cd32f1affc62904685d177b64df5","blockNo":8125952,"blockHash":"c4cded54a5a9655b792bc739c97a3dc93f78723415320931f4811e8bc110ceac","epochNo":380,"epochSlotNo":397401,"slot":79194201,"time":"2022/12/11 12:08:12","addressesInput":["addr1qy0xznhgdhqj9u4g6jjdntf2cxy5lyad8j2p6a6dp8jwwttfq4uncdzu6hqlxn7gva2xsaln40x226fl8fsnqyyvzxtqqm3qw9"],"addressesOutput":["addr1zxgx3far7qygq0k6epa0zcvcvrevmn0ypsnfsue94nsn3tvpw288a4x0xf8pxgcntelxmyclq83s0ykeehchz2wtspks905plm","addr1qy0xznhgdhqj9u4g6jjdntf2cxy5lyad8j2p6a6dp8jwwttfq4uncdzu6hqlxn7gva2xsaln40x226fl8fsnqyyvzxtqqm3qw9"],"fee":259617,"totalOutput":10506848,"tokens":[]},{"hash":"9435951ed4faf8ca928a29b0b469976702655fec59d517941e654a1eda700308","blockNo":8125945,"blockHash":"0da4aed8aed1b741030a0cdf086f48efd9103c0b511debe294fccbbba3f1bd2a","epochNo":380,"epochSlotNo":397308,"slot":79194108,"time":"2022/12/11 12:06:39","addressesInput":["addr1qy0xznhgdhqj9u4g6jjdntf2cxy5lyad8j2p6a6dp8jwwttfq4uncdzu6hqlxn7gva2xsaln40x226fl8fsnqyyvzxtqqm3qw9","addr1qy0xznhgdhqj9u4g6jjdntf2cxy5lyad8j2p6a6dp8jwwttfq4uncdzu6hqlxn7gva2xsaln40x226fl8fsnqyyvzxtqqm3qw9","addr1qy0xznhgdhqj9u4g6jjdntf2cxy5lyad8j2p6a6dp8jwwttfq4uncdzu6hqlxn7gva2xsaln40x226fl8fsnqyyvzxtqqm3qw9"],"addressesOutput":["addr1zxgx3far7qygq0k6epa0zcvcvrevmn0ypsnfsue94nsn3tvpw288a4x0xf8pxgcntelxmyclq83s0ykeehchz2wtspks905plm","addr1qy0xznhgdhqj9u4g6jjdntf2cxy5lyad8j2p6a6dp8jwwttfq4uncdzu6hqlxn7gva2xsaln40x226fl8fsnqyyvzxtqqm3qw9"],"fee":263225,"totalOutput":12068085,"tokens":[]},{"hash":"ab4708ce21662aee9d1f46502ab6d5c2eecf2fbb41a27837daa721ba6e276cd9","blockNo":8125943,"blockHash":"41457dd74528b4c6c91761afba52e5fa89f7742df0861d70b69f014d916684b0","epochNo":380,"epochSlotNo":397247,"slot":79194047,"time":"2022/12/11 12:05:38","addressesInput":["addr1qy0xznhgdhqj9u4g6jjdntf2cxy5lyad8j2p6a6dp8jwwttfq4uncdzu6hqlxn7gva2xsaln40x226fl8fsnqyyvzxtqqm3qw9","addr1qy0xznhgdhqj9u4g6jjdntf2cxy5lyad8j2p6a6dp8jwwttfq4uncdzu6hqlxn7gva2xsaln40x226fl8fsnqyyvzxtqqm3qw9"],"addressesOutput":["addr1zxgx3far7qygq0k6epa0zcvcvrevmn0ypsnfsue94nsn3tvpw288a4x0xf8pxgcntelxmyclq83s0ykeehchz2wtspks905plm","addr1qy0xznhgdhqj9u4g6jjdntf2cxy5lyad8j2p6a6dp8jwwttfq4uncdzu6hqlxn7gva2xsaln40x226fl8fsnqyyvzxtqqm3qw9","addr1qy0xznhgdhqj9u4g6jjdntf2cxy5lyad8j2p6a6dp8jwwttfq4uncdzu6hqlxn7gva2xsaln40x226fl8fsnqyyvzxtqqm3qw9","addr1qy0xznhgdhqj9u4g6jjdntf2cxy5lyad8j2p6a6dp8jwwttfq4uncdzu6hqlxn7gva2xsaln40x226fl8fsnqyyvzxtqqm3qw9"],"fee":267889,"totalOutput":24196288,"tokens":[]},{"hash":"347251ad16fc3014d076f73ed5c128560270b4c6c85e0dfc5a9507c40e54d5b6","blockNo":8125939,"blockHash":"1928a07eef19294056087948ee79e280c9a096b4b8ab5fcf5f16b79665b897b0","epochNo":380,"epochSlotNo":397161,"slot":79193961,"time":"2022/12/11 12:04:12","addressesInput":["addr1qy0xznhgdhqj9u4g6jjdntf2cxy5lyad8j2p6a6dp8jwwttfq4uncdzu6hqlxn7gva2xsaln40x226fl8fsnqyyvzxtqqm3qw9","addr1qy0xznhgdhqj9u4g6jjdntf2cxy5lyad8j2p6a6dp8jwwttfq4uncdzu6hqlxn7gva2xsaln40x226fl8fsnqyyvzxtqqm3qw9"],"addressesOutput":["addr1qy0xznhgdhqj9u4g6jjdntf2cxy5lyad8j2p6a6dp8jwwttfq4uncdzu6hqlxn7gva2xsaln40x226fl8fsnqyyvzxtqqm3qw9","addr1qy0xznhgdhqj9u4g6jjdntf2cxy5lyad8j2p6a6dp8jwwttfq4uncdzu6hqlxn7gva2xsaln40x226fl8fsnqyyvzxtqqm3qw9","addr1qy0xznhgdhqj9u4g6jjdntf2cxy5lyad8j2p6a6dp8jwwttfq4uncdzu6hqlxn7gva2xsaln40x226fl8fsnqyyvzxtqqm3qw9"],"fee":228157,"totalOutput":29464177,"tokens":[]},{"hash":"60a1318f993cd2f824c44cf9f5b5d58cbfca75d739687e9e7f16a3a8d3f88eca","blockNo":8125925,"blockHash":"71c093121b375c70396931f52e36d2f5910c51b5e80ec74f85a34c7621d5ecdb","epochNo":380,"epochSlotNo":396833,"slot":79193633,"time":"2022/12/11 11:58:44","addressesInput":["DdzFFzCqrhtCSo9eZvQUktpm9deF1E22RcCUpgDZ758NrUPVnydmkwjvqhjiLZJuSZJJMA7U61vVaVabMd1ChvzsSMTs7YZKAToMKRXp","DdzFFzCqrhsoHor9r6659AtQGbEw2S8r9V6cEAi7bEfJGgfPycSRK6qTMR42MmVWRQz4jz7Eb71YDMRQEUT8DaZx6tLDGYTTYZQR7Eno"],"addressesOutput":["addr1q9atjfpqwdtg7ytz0pz9zcaqvx8zr2uv6ysvc4csqynr683dzefudzxhadht99nh8gv4l3z93d486ygllgxuh2drrrpsdw6fws","DdzFFzCqrht5XLd1AEN7bJwSETXEjrpzbutCLebymJxMaWKqQ3f1bYzkBUxcqnAzjsCi1VDeZtbnfMcqQ9jmQ6S8SPH7hGFYEY8bwfK1"],"fee":366757,"totalOutput":1548566627,"tokens":[]},{"hash":"050d969d21c84c102d8bbeb23feb89a7e310c0352d1177bfcac62a69ca9e9957","blockNo":8125585,"blockHash":"eb2aa866761b5f299ec6db3673e9b0f7c28bb93a2625ab7229f29a89e2b7d108","epochNo":380,"epochSlotNo":389432,"slot":79186232,"time":"2022/12/11 09:55:23","addressesInput":["DdzFFzCqrhsyuzFFG1SBeGVHuJEXyHsN8b8VurcJYfrrwzoFyGZPwheRAxznHbKqZPvgXiccsCAnmzvUcZuToLmEHH6jweEFQxzSDvwK","DdzFFzCqrhtBaB8AXMe5nzxuHUh9qxCVQphcgzrRutT4qRWXM8DwfjJkUZ9Eadz1QaPwPSL2th9ms2xzFS2qxU1dAKEuC7ma91VCy3rQ","DdzFFzCqrhsinoLWzrUizcfZD3ddjQeovrcehf8BKi8RvCrmNwvByY4byEwoj6B9gcejcFpoZbSmvHeg7qUdQX5zjVLqhwMoNXsKuXeG","DdzFFzCqrhsuVPnbTnv6g6Cha4vXAxvUWmhzgGmnWmRAx6xKLtyEvVGutPneELAuPRJ82M5Ymj2DnsjBn1HPgVE3KGfZNebgWRxjwsxH","DdzFFzCqrht3X5FbYsvCcyG1nZXztAfieBVPn3zWuS9jsdQAx8du1vwC3TdoesDkUmtgjAKZZf5X5niHVwR5YfvdRGkkTRFSu2Pc5WDi","DdzFFzCqrht2LuFBzon7MR4DRf9o9tR9MtKgvkK3fKPvigdxnznGWSngdCFFekfQLNv8aUPp7sysfxjqeU3gxwa3HZRSTHV6tP849BHs","DdzFFzCqrht2YNLdTbYNyLi1FMmnqLvKSXJpj5Xww9xcYptqLmA4iRbD7GY8bkEhwiK5PsWF4gLxKwJV6LrYGW4zy4oCPtFb9z8VuewV","DdzFFzCqrhsquaZqLm4u4NRmcXDCjA4cGLzVCbCdmm5wHZuokt18JnVkg6pdE7GB1KsCGWUCPE6cFmhw5ac2Fc1SjdK5Jv9k8vXfbXQK","DdzFFzCqrhsxZ8azz3UwZcfu3WvunR1dib8VkePc5HXiR7VtN1rJEUseKsdi4hanWVU4sBmemSYHFuPj1YxBkixr8iiJrcheV9EnyrSq","DdzFFzCqrht5YDH291CTF4VpU3AoE3ikmaK7gtYcW8XqyM6gj9qxfUjjHnar3qZyg27EXzj11ybGQbK6YjpUJB8oTFEbxbaXFgLPw2LS","DdzFFzCqrhsgesLxPtPX6CnzhcY7uNNHBDLqmZyrBnj7bxgcTtagdw1dT3aC4Jh5SxMfkK7Cm6X3pfWt1vasvGzLd6xPGkUfdmRe2imL","DdzFFzCqrhsuQXwSbh2Rjg5ssyi28vCZfduo32qkB375fBYW6VzzpL1LQPPX8bs26j9ZLd9Lwkb1f6YrCGvzLvAW1uLii8X4kpjsoqGB","DdzFFzCqrhsw6sCCzhNBrYP8KdhrETZGMBmhbF9CQgyD5Zg4VCtPtJjcMVJNQ9xUYRezpmuJQZAgkn3GWWVku27qyYapeAM82zGCvQMc","DdzFFzCqrhtD3GChrfLYMjU8KJwdg2dJjprWjxWeEWJrXEjBqtD6WJVjGxsyvNuCiLoX2wqGrjgNz1MyuUDc2JE5xD8dPMB1kaQck76W","DdzFFzCqrhsea3KbvhktB26HmAdu15VjbKWLREaYrPwE9kD1HevsNSH1jLaAwLfB8aEHPE8CcBgGT8gTGtD1kVup7tmQvjJ92eAoK5iu","DdzFFzCqrhsqE77y7nxQzNpxMEVX5gT23CtE7fVyd3ffET1etw4884QEM1y9BS7f47AcfLZUh7EWYdh3MMa9mkjHa2BZEWmj9FWwKSFX","DdzFFzCqrhsmWB2fs4GcKN3i4kGzMo9vLwCVCsAAQqqNHZZTwhLt4tR5YQXtpQVt7kme3vG27frgiAXVcpyn4zQ8GXa1Dm3cnuh4YW5y","DdzFFzCqrhtBQDyM56XMRMSXHcM4L9YYR5W9gh1n4Zn4HBm3mu6Q4Lcwnn9Ld69AqvvXMV9Uh8DUanUywRfr8Vm33fmd1ZHZsq8LXxny","DdzFFzCqrhsofi7eaYPxkwJ95BBxb3NLaj1DLkhf11aYXwLTHsuAvLvWrnC7VwBTkYhQVauyLVsnPauNtcg2qQRm7Y9SdwqqUefvBKMU","DdzFFzCqrhsxPqmRdrbNcdn2UgebXRWKqVJ8CGzYr1idA29kZvNUxq7iu34VixNws4XC7evU9C7GsGGtRU7s4jneYkYiLvDcedkrecAE","DdzFFzCqrht4t3sCFG6yPSP1CvXtVz4BojgmfRfuMVECGLJbubrtygNZphsTiR6uJJUhkD4pJAEPe3N29fhC7pPKWMPKspUJYKe24ywo","DdzFFzCqrht4SRbdqgNsEJ9ZaJiZyaQ6zJpQGG7zemhqDMpiZb2nLV6PoGqAPiVGukVz2NYxrKtyhHcbGhxk4Je4SkMij8sbNaHLuzAt"],"addressesOutput":["addr1q9atjfpqwdtg7ytz0pz9zcaqvx8zr2uv6ysvc4csqynr683dzefudzxhadht99nh8gv4l3z93d486ygllgxuh2drrrpsdw6fws","DdzFFzCqrhtCSo9eZvQUktpm9deF1E22RcCUpgDZ758NrUPVnydmkwjvqhjiLZJuSZJJMA7U61vVaVabMd1ChvzsSMTs7YZKAToMKRXp","DdzFFzCqrhsmrZ5QS9Cekp6swVXcFWKJaB8thgTDztRoUK9M8yj6kHcLwo9KXNvFzUvkFs3QGmWsWMREUtE1RH8wNtxnv6LXMwYB8eAv","DdzFFzCqrhsxur7k5CpRUMwasQjqZcWXXhAFpEjKdS372PjGCDsv77CTpfu6KAFxErMTZSyVsE84RJjCSaMHin4UXE3mPTKG82X8qqUz","DdzFFzCqrht4g2fzuv1165diAG6gJR3fAZyepMMPZ1ybb6ZdKvsQu6rTeGts5eRSypevL6nFwbTFxoSh7549jQXLgCw7guZ2Aqn64qiX"],"fee":1098961,"totalOutput":56195896993,"tokens":[]},{"hash":"0ff06b33b5846033214e255acdc1cf2f645f85f243b3814eda97e064e23f0cba","blockNo":8125570,"blockHash":"e00bc0abe482056000a922c45a17694f2def0780ce2df2de0b2dc012fc50a5f5","epochNo":380,"epochSlotNo":389176,"slot":79185976,"time":"2022/12/11 09:51:07","addressesInput":["addr1q83avhvsxscwyzux5ga9r7t9px9qsph5xxdektnsrwssvr3gapuw6td0x8h5qsmqqmnmrmvwdmwj66cj349ay6ddjzzqthwy9t"],"addressesOutput":["addr1qxdr6evd9cedysepu062e5009l7rzuw6y4c84csyxs4s2e3pjfdn95f0gjj72vem3qsd7n39kcmavkk3dwkl7dn3z2gqegapvd","addr1qxmx28n8w7w8k9pjgqam6xqmv2nd8e2gs9akhxz2cu47pc3gapuw6td0x8h5qsmqqmnmrmvwdmwj66cj349ay6ddjzzq9wvepd"],"fee":246725,"totalOutput":115408103,"tokens":[]},{"hash":"0c70c44acd35f1aa6ad293193fdb16975fc6056a8030dd37ee1fcde934667c69","blockNo":8125550,"blockHash":"6173271d0b306bfe2ab07a63374276bcd0b8f7fe24c8b1b265568ac026f22888","epochNo":380,"epochSlotNo":388592,"slot":79185392,"time":"2022/12/11 09:41:23","addressesInput":["addr1qx76hnwx8qukkylx5te0em5gf7kgjqadv6x8z406mpyxz6nn3lmaa3wnh8ka8wxllq5f9kpp6spcwum5vvas6xgvuedsh0rgkp","addr1qx76hnwx8qukkylx5te0em5gf7kgjqadv6x8z406mpyxz6nn3lmaa3wnh8ka8wxllq5f9kpp6spcwum5vvas6xgvuedsh0rgkp"],"addressesOutput":["addr1wxn9efv2f6w82hagxqtn62ju4m293tqvw0uhmdl64ch8uwc0h43gt","addr1qx76hnwx8qukkylx5te0em5gf7kgjqadv6x8z406mpyxz6nn3lmaa3wnh8ka8wxllq5f9kpp6spcwum5vvas6xgvuedsh0rgkp","addr1qx76hnwx8qukkylx5te0em5gf7kgjqadv6x8z406mpyxz6nn3lmaa3wnh8ka8wxllq5f9kpp6spcwum5vvas6xgvuedsh0rgkp"],"fee":408073,"totalOutput":73005470,"tokens":[]},{"hash":"1ba64c4015c47bbd52b263123ad6185f96d35f885463b4137c8e9689c9c3f8f8","blockNo":8125464,"blockHash":"56aa0671be64a5bb2082bb6c8b3355a49eb7e08c12ff48b5dbfee9386536f1ab","epochNo":380,"epochSlotNo":387027,"slot":79183827,"time":"2022/12/11 09:15:18","addressesInput":["addr1qx76hnwx8qukkylx5te0em5gf7kgjqadv6x8z406mpyxz6nn3lmaa3wnh8ka8wxllq5f9kpp6spcwum5vvas6xgvuedsh0rgkp","addr1qx76hnwx8qukkylx5te0em5gf7kgjqadv6x8z406mpyxz6nn3lmaa3wnh8ka8wxllq5f9kpp6spcwum5vvas6xgvuedsh0rgkp"],"addressesOutput":["addr1zxgx3far7qygq0k6epa0zcvcvrevmn0ypsnfsue94nsn3tvpw288a4x0xf8pxgcntelxmyclq83s0ykeehchz2wtspks905plm","addr1qx76hnwx8qukkylx5te0em5gf7kgjqadv6x8z406mpyxz6nn3lmaa3wnh8ka8wxllq5f9kpp6spcwum5vvas6xgvuedsh0rgkp","addr1qx76hnwx8qukkylx5te0em5gf7kgjqadv6x8z406mpyxz6nn3lmaa3wnh8ka8wxllq5f9kpp6spcwum5vvas6xgvuedsh0rgkp"],"fee":445605,"totalOutput":29244969,"tokens":[]},{"hash":"022a1ec0045c755d0574a9264f479d0673194a4d3086da8360340f131ed5211c","blockNo":8124969,"blockHash":"f0781c3ad85070e67523065ecd301dcc4afdbd8348776bb11dc50a459bf6f07c","epochNo":380,"epochSlotNo":377097,"slot":79173897,"time":"2022/12/11 06:29:48","addressesInput":["addr1q9vj9w32w77p47ca725hantcf5nrzcex66vqq58kqm4l04y6hn99676mvdj6qvd34vfqh3jx6vy8tyfkuy6u3xcghq8sex2gzq","addr1q9vj9w32w77p47ca725hantcf5nrzcex66vqq58kqm4l04y6hn99676mvdj6qvd34vfqh3jx6vy8tyfkuy6u3xcghq8sex2gzq"],"addressesOutput":["addr1zxgx3far7qygq0k6epa0zcvcvrevmn0ypsnfsue94nsn3tvpw288a4x0xf8pxgcntelxmyclq83s0ykeehchz2wtspks905plm","addr1q9vj9w32w77p47ca725hantcf5nrzcex66vqq58kqm4l04y6hn99676mvdj6qvd34vfqh3jx6vy8tyfkuy6u3xcghq8sex2gzq","addr1q9vj9w32w77p47ca725hantcf5nrzcex66vqq58kqm4l04y6hn99676mvdj6qvd34vfqh3jx6vy8tyfkuy6u3xcghq8sex2gzq"],"fee":243953,"totalOutput":109511924,"tokens":[]},{"hash":"db8c9f43c1e289289f79eca91207c186bcc78ab6b9cf94c6d45cee7853df7034","blockNo":8124959,"blockHash":"88898907bab27d60e14931574af72780dfa9b8c0c59a5e9f91ae512ce0205428","epochNo":380,"epochSlotNo":376887,"slot":79173687,"time":"2022/12/11 06:26:18","addressesInput":["addr1q9vj9w32w77p47ca725hantcf5nrzcex66vqq58kqm4l04y6hn99676mvdj6qvd34vfqh3jx6vy8tyfkuy6u3xcghq8sex2gzq","addr1q9vj9w32w77p47ca725hantcf5nrzcex66vqq58kqm4l04y6hn99676mvdj6qvd34vfqh3jx6vy8tyfkuy6u3xcghq8sex2gzq"],"addressesOutput":["addr1zxgx3far7qygq0k6epa0zcvcvrevmn0ypsnfsue94nsn3tvpw288a4x0xf8pxgcntelxmyclq83s0ykeehchz2wtspks905plm","addr1q9vj9w32w77p47ca725hantcf5nrzcex66vqq58kqm4l04y6hn99676mvdj6qvd34vfqh3jx6vy8tyfkuy6u3xcghq8sex2gzq","addr1q9vj9w32w77p47ca725hantcf5nrzcex66vqq58kqm4l04y6hn99676mvdj6qvd34vfqh3jx6vy8tyfkuy6u3xcghq8sex2gzq"],"fee":246241,"totalOutput":111104907,"tokens":[]},{"hash":"a29eec1f00560577bb89e0163c12963d12fe4f79c4968ebdd7a6d39b66c4945d","blockNo":8124925,"blockHash":"ec63e59e938e37345ed073cb04d9ac4cbe2b434a0f58032e3212f6e2eac484c4","epochNo":380,"epochSlotNo":376154,"slot":79172954,"time":"2022/12/11 06:14:05","addressesInput":["DdzFFzCqrhszqWDo5xXKsibqUMzJ9SzNLqZjpjnfKneBiZ9ugR5Rg1P9KKrA2YuwgYvfVgtJhJz57LG7uMTRmcyVp1Tr57YLPQTh7kpn","DdzFFzCqrhsx4Map5ySq8Vwr3Fw4p9syU9gK5ton11nhEeF9hsF8jXbdMD2WYhgKwaeCz6TSaNfmdoQdXNADKAnE182yFtZzRpCWojYr","DdzFFzCqrhsn5jhL5fGPqT1viE9uwJnhjnRVwGUJUnetU46FPSfdXT8PjJSYDf3zYAEsoVM2vxobEevhKZSDVqo1owys5tBebbxYh4kg","DdzFFzCqrhsyUJESUS43EhSm36z2hb6zXeDS14iku7zrebZjsMPzKHPMpnHdQm6VRNev2q692rfV7d8HkDCDgTptHvDHf8i6GbfkEuwZ"],"addressesOutput":["addr1q9atjfpqwdtg7ytz0pz9zcaqvx8zr2uv6ysvc4csqynr683dzefudzxhadht99nh8gv4l3z93d486ygllgxuh2drrrpsdw6fws","DdzFFzCqrht2LuFBzon7MR4DRf9o9tR9MtKgvkK3fKPvigdxnznGWSngdCFFekfQLNv8aUPp7sysfxjqeU3gxwa3HZRSTHV6tP849BHs","DdzFFzCqrhsinoLWzrUizcfZD3ddjQeovrcehf8BKi8RvCrmNwvByY4byEwoj6B9gcejcFpoZbSmvHeg7qUdQX5zjVLqhwMoNXsKuXeG","DdzFFzCqrht5YDH291CTF4VpU3AoE3ikmaK7gtYcW8XqyM6gj9qxfUjjHnar3qZyg27EXzj11ybGQbK6YjpUJB8oTFEbxbaXFgLPw2LS","DdzFFzCqrhsz4yt3y2wuixANJ3TJqVXdrpB3itPH7TnK9ktztzqtmtRyijBFam5VTtCJD5SWY3h7BB2R7GMH5Z361wVQjqZSHEkkFbgv"],"fee":924721,"totalOutput":72051834660,"tokens":[]},{"hash":"879f80d3912dd27706c02e8a3edc0d59a0a4c410697ab397909cfcb71f16a891","blockNo":8124911,"blockHash":"9eb74cad547091a5ba3f326a631ea99d9745e4132b2dcc3f60e209e0376f41f2","epochNo":380,"epochSlotNo":375858,"slot":79172658,"time":"2022/12/11 06:09:09","addressesInput":["DdzFFzCqrhsg6BgeA2UZUogy75nVrgGesUKmKgv8kMitjQBv6QG3mZ41nTEZd69WvMqW4iSTJCr6u7r8z6EjnprvuiKRsr2uW68Prxa9","DdzFFzCqrhsdzK42MpiYLrWq4RcVTktQvBLy44xqqfUNDCQmY5mdyZ4Rrk9mb41wQD84G41uUWBfdgN6cEN692v4xFfKn2UNqejQ5Ur1","DdzFFzCqrhsxPqmRdrbNcdn2UgebXRWKqVJ8CGzYr1idA29kZvNUxq7iu34VixNws4XC7evU9C7GsGGtRU7s4jneYkYiLvDcedkrecAE","DdzFFzCqrht9m8vFQSTtXfbpfLyx7GUWV2L76yw28dF7gb3aFwdu6xHLq9MYgMnkDtEwd12wqpGUczDKcrJxpnvWPYhPCTUzdnNbprWJ","DdzFFzCqrhss1VDkDM5aazh3uFPAPos1YHmFd79fuJ2K1gYGpr8h6NTMoqG2CaaPUxUduQ2n6TJuVP6koW7yFjMPJHRh3qLpVyWapgK8","DdzFFzCqrht5p1Stf5NxSbBF1hFXNJwoe29nWx2Etg5t69xqjDuVXwUuCE6A4Hda6D2U2BWdLbxSzQtquhuzU6b7WSggcBpbLVVWBtXp","DdzFFzCqrhsdzK42MpiYLrWq4RcVTktQvBLy44xqqfUNDCQmY5mdyZ4Rrk9mb41wQD84G41uUWBfdgN6cEN692v4xFfKn2UNqejQ5Ur1","DdzFFzCqrhsrhhSGVMBGKj5ikzxCc7mxU6jxGmgEuv5zdGjNwo6Ktb9ABN4sBgnpkfDKuCh3tAiaMqqrKNPwZX4vxPYEC3HKKWa9QBEP","DdzFFzCqrhsvgenf72Epj2vcyhqZ5wTDwQgMC7CPe7thmKDrQph2iKyZbeCJg8AypaQzS9X9WFDXHbY9T94hoHFfXVHWWR2Aemq3ZGYH","DdzFFzCqrhsdzK42MpiYLrWq4RcVTktQvBLy44xqqfUNDCQmY5mdyZ4Rrk9mb41wQD84G41uUWBfdgN6cEN692v4xFfKn2UNqejQ5Ur1","DdzFFzCqrhsekbVRTkAno9jijJNqaHFJ73mumocjRABEUJqHcPXNHen4iHPnF4dRwPeHQzQfhvVKQDzrmga2SHzmiHpRtgru3cNWdN6B","DdzFFzCqrhsdzK42MpiYLrWq4RcVTktQvBLy44xqqfUNDCQmY5mdyZ4Rrk9mb41wQD84G41uUWBfdgN6cEN692v4xFfKn2UNqejQ5Ur1","DdzFFzCqrhsrhhSGVMBGKj5ikzxCc7mxU6jxGmgEuv5zdGjNwo6Ktb9ABN4sBgnpkfDKuCh3tAiaMqqrKNPwZX4vxPYEC3HKKWa9QBEP","DdzFFzCqrhsgRy2a6hWPUxi98s8mrYj8HTtEEUvA5hZJLCtofMKgqbWVTJRZ54cpP5GBC83UJREMTA54b6ZS9wwVtA1v5ZH4CYii3ptG","DdzFFzCqrht4j2Tenq9rNeGEkDhyzhxHtXi86Edkr8EQwxWzq9XMYkZXnU6wbtiqbwtS1A8mTY3QyAnH1C4p1LcVTPLLrGLATzk2hKEv","DdzFFzCqrhtBK1Xwj1eVTXFonrHYjmoLn1iVZ1mJ6BNdT6Cyo83k1Vsn8tmXdRDNp2PZ96Q4ef421ehmKwCkbwKAkydyq5A8JC7Dmhmo","DdzFFzCqrhsdzK42MpiYLrWq4RcVTktQvBLy44xqqfUNDCQmY5mdyZ4Rrk9mb41wQD84G41uUWBfdgN6cEN692v4xFfKn2UNqejQ5Ur1","DdzFFzCqrhszhNBavaZMqWBku1HZoYaobv7xnhaocd1aiG1g1vhaJwwjAQ416Y2Yrc5ghnQrHmfsiZTeN7WB4f4uBTh2LbpXjpimvk3o","DdzFFzCqrht4KQoC6NUgwquSWZfVM7WcjpEQAZMz6MFwpLmWCeyE4vdqzFaKbUhz7twayXLkjKYLCP9DoBSHwXquMx2Kroqd2xMypXJ2","DdzFFzCqrhsoygLxRsFBcYqdr2YABUcJdu4TXhYjRbL97YYK1A7hkXPXHbUjuKutSJ2J9MzEv8Cb8hrDRnt3aHDotxJVqZmQmVLimacd","DdzFFzCqrhsrhhSGVMBGKj5ikzxCc7mxU6jxGmgEuv5zdGjNwo6Ktb9ABN4sBgnpkfDKuCh3tAiaMqqrKNPwZX4vxPYEC3HKKWa9QBEP","DdzFFzCqrhsx1C3fChYia7pjGSrk2rfQW2Vw5pHxRkUo7rW98iwP2ncMyNo2r8eM5aP6sMcpvgtBd1YjPpcYSjVe5CCv8xYmxKZMjar9","DdzFFzCqrhsrRV1CX11yVhHfSb5jrjhGiMWMXUt32GjUnNTf4oVH6xGzhuHx2s4AT1fA6RBoYNexYueRousGPhsA6KUK6R7sgT88s8oX","DdzFFzCqrht6Ubmz3mxqAgyFTCh3rDXwts7aeYvigXMQjXcSwU8t1Kayth3fDbhTLfmRsAYTpKCf6G2ZS7NBpYZ5zjES3ESD5LKfnX15","DdzFFzCqrhsteDudzk64UbYck8EcBpwotkedCyvd7He7NRYkYo2LGQnYErYAuUwMcBiYTpa9YhkbxQLekxa9mmCMy7VocBciuHggZdPL","DdzFFzCqrhskHtaYT2qzzm4amGj2aesenUyzJ7CKP83nXayhhy8QNyYhs5n2p95fZsFAygp3tejehmLivyJm1zL53ug7kF8VSA7nVH27","DdzFFzCqrhsiq91GRPYX674nQA96S9PfgqzJWnDHxF3W21hHrbxob5mg2pwyGvv3JZLsQY3Zr3ioSuvYFDkGAwWPUyc3Kvc64fY1q3Ks","DdzFFzCqrhsw3tGTUwTCYFexjDWzBjMdNBV2xut6KytbMJhgn1xSgaBvjSr3onJiEJfH4VzF4xXx8Soe6oZFTdHGEZqJS6mSKSp9goT7","DdzFFzCqrhsf7xWVU9cZxCiZjtngRYvCWxVRhc7SXNEZUJG4TfBQ2dVMRhKC66CC2q6C9VJouWMSUhVpvPj7UiCtsCdQyJ7yhx2CP2kS","DdzFFzCqrhsnbgGQktt3Ec9YALYTiiRj3XJjoUj6wXUtgJMHuu5xa6f3pYbY7eAjeFAUHEjaaqVPMf7Ua6UuQUvbSytu5Lp2bMZ5Hf6C","DdzFFzCqrhsgF7TJxe3k6aFQYqBh1zD23Dn9qF8tCLvSD7Kd89qfzSEzMM3wwYGfzkMiPwSinhxKGzAYoR2QdtcvFR2s6n9Ckc8Xm25u","DdzFFzCqrhsuiPZH9kTqxPBQGVPmmewvEtkBtCZBpWCytHBWCuLXBTA26kdTEqQNduTmi99Ct6GXQ8pyH8dUJyUxrsedu7uQJcYYm7vH","DdzFFzCqrht85j4y6NcYCJw559CJoR1cpmHywECrYs2PTgQdqP1T57jDLLQHHCYxC78b2E9JnZDgLNrGHyj4qRGAQhyX1yFhLSmcgNZA","DdzFFzCqrht1ZGkuwTagDwKftpxANvMQ1wvKSA2PJ5SnrKyDFu4o78zNVH1ncpH8gbnAQDvssX7waaLs6NfUDd7CbjmF9ZGxTDMjRhBD","DdzFFzCqrhstn7tC2YMh3HtpVh3Um3pT56HgZWeFgCrvdGPEq2H5ThM4niJJut3izUMgU1JAFvobTxYN3V4dZdj8oysLuPy5SxfzTtH3","DdzFFzCqrhspRB8G3t8M3VKtomKwMTY9JPwi2y5fDQYeHctCWxrSeAvxa8x2eK3XL1NtPScjTKVYnGmb5KYWUqFKfjx63VkvdFia3zk3","DdzFFzCqrhsf7xWVU9cZxCiZjtngRYvCWxVRhc7SXNEZUJG4TfBQ2dVMRhKC66CC2q6C9VJouWMSUhVpvPj7UiCtsCdQyJ7yhx2CP2kS","DdzFFzCqrhsv7ZBeUAZQhsb5Pk8sMQrr9LUainzSppP7yAgu8x33q8SwVQ9utHgf454uHyudeyC7QdxG9JVrBvKn3psNMPFULWkEDUuV","DdzFFzCqrhtChHw2haHgjYEh54s7bMLHM58CCUgLnEPg2nhD7ciszwzNEtndrDhNQVAt2hM1qEPRd7s3Jj9iTfqn4MgHASfab1gAH6vE","DdzFFzCqrhsqoCtRjSNHn4Ex7f4h1zg7p8mP2MG7YTx8Cw2kPbUDJ8n8HegikdNzrrP4KZN59HshLyT4ej9iHyDqaqZAS6JJz9GYXGeV","DdzFFzCqrht4chEG9LroeuK5oEqX8HrezSHu3bYnWFy2KesM8ZASsXs8e3GAz7oe8zAC5LMj4RN952PZUN8Kovzw5MnieKzcx59UcYQc","DdzFFzCqrhsfn7mpMqg55G1t86hHpo56GPqRQJYCnw5yU4z1FqLXbKPUPsEEug4FnBLaJoJBnqh1wtnYvG6X9J2adFjWQ5Kj2EJXam41","DdzFFzCqrhtAdhbkiz9rGZ9evz8WzBoxiMsnt7SY9W1qCeoqX5V2TkaBtUa6Z6RiKGK3zjW7BR9YP2f4ZCQk1tvSfRhmVVE73hUpm5oN","DdzFFzCqrhtBLhYdVwQa7r9cm1Bjq6RDrZH3jLhbLimPtoLtS4q3vQnDrY6Y14acFt4peboV8Cah5SjKS8KPAbv9k2z1AVBBovsvCZAU","DdzFFzCqrhtD73qgNwsZHNopJtSV1rRm2ATZ8ARCBy8TtR7C4KrP7fLj2nmmnPPKL1sTzM7AJQbAyxCWHVsWNSBLSgNpjm1YVZiuCdtn","DdzFFzCqrhsomCn39owc1iopgJC9dS5sEnS2qApQube4YyTioSywH8YiY63m4NGkm4ajuaZgewmw7qDCLnK3mf36SWcQ87ZGdAPv1Nee","DdzFFzCqrhtAnYWDndJBc6EXuaKiqxZX46fCf6fXx8VY6LrTsourHJuNye4oLT45RhTSqQ5vUZXYsbXX3A6jNtE9cjunpiwA1ysk7Hfv","DdzFFzCqrhsxNY355tMsrMTm2X8T2Q4wurkTozKTAtzvm4zbQwUJeQk62YJsGjUGk672o1HUohCzvVWe3tq96vBZe7zphN7GgLcD6jHS","DdzFFzCqrhsdzK42MpiYLrWq4RcVTktQvBLy44xqqfUNDCQmY5mdyZ4Rrk9mb41wQD84G41uUWBfdgN6cEN692v4xFfKn2UNqejQ5Ur1","DdzFFzCqrhsko5WpZKs4jPVQTyH15LH5ULTtgB9rrhu5CdCMcQMneddnZmEYFdQWHsrc3wKV2LPsqLhwVCVs2KiFJgfU6v99pnfmC4hq","DdzFFzCqrhsdzK42MpiYLrWq4RcVTktQvBLy44xqqfUNDCQmY5mdyZ4Rrk9mb41wQD84G41uUWBfdgN6cEN692v4xFfKn2UNqejQ5Ur1","DdzFFzCqrht8oy5fSVmXzaL2oawZskDYjbMzx7bjPzVrQSju9yKom4jwXXwGd3M5woseNRUiKDUpG1AQzFefU3aUMhdDmad6RpmML4s8","DdzFFzCqrhsjioJy4EqBd9kemdA7DB2Hn4iEr6sJvy4sNiP6rVP4bHVHqz8KJoAbWfopnKhBdauFfBpFBsFDP58Z1jA7SrSWZspRgFRv","DdzFFzCqrht1v5tmgNKEnZMDNQDegZgW7JpWnM8QzE1iG8Ds2fv4CT2GUFzobMZAy2m2E4DHAuCsqs2RcQ8JX2yjKhCExXGP3eh3rxgZ","DdzFFzCqrhsiA51GZoRnyeQBadHwDVMNWHrUpAJKPqwvGh5ZMvcreW7XkTSiYHixqg7EqYJKafcrHCPoAqf5fLfP4bqeVJNtXF9xtAqz","DdzFFzCqrhsxNY355tMsrMTm2X8T2Q4wurkTozKTAtzvm4zbQwUJeQk62YJsGjUGk672o1HUohCzvVWe3tq96vBZe7zphN7GgLcD6jHS","DdzFFzCqrhtBX3rmJhtkwg6bkru9ADtYW7mNSW41SDKy1yB9KZe5nzpSF2AswauTRoYT1ZR1Napy64sv3H82vryHYwW4iWF3Lx8VM1md","DdzFFzCqrht62e1V9FQNHPV64SFipsBqY8cLurpnfDVRfDCepoTzq45LnXtM7488FVkZ3ZDc4kB7GvZmmd7a2RNA5eHwmctZ2ctW4xcx","DdzFFzCqrhsptQUN1kTaJfsTRC7Qg6q1fmu7XtjqjxeS4DtfrgPjF58tK3EKpLdyJtKUhtVR7BzKdu9LyiF17ByiQDbVuB81v1NooZj2","DdzFFzCqrhseBPbRHe2sPu7YDshyACtGBQdm8tfaWAbMPv715gHc3sWXZF3b25nC1nDExrsc4mmbVpyabrTSTBFHc7DGaxbSdrGtj5Kk","DdzFFzCqrhsv856H4SMRT2ugMtnFZQN2WsmJ4Qvu7zcyJ1EXhvF24j5ihye4rgBP37Yi2sWdyVuPQCMoHffrW4Hfuzbzfq1rC4KUa53Y","DdzFFzCqrhssDv4Q4qu886rc7sxrZfcWzQqUGhJ3Xd9dHLsT9PQi6mh5yo97TdmjunWMBkUH5vrvf1NzTkFadS61nfYxTAxjvZLZX2ic","DdzFFzCqrhsv7ZBeUAZQhsb5Pk8sMQrr9LUainzSppP7yAgu8x33q8SwVQ9utHgf454uHyudeyC7QdxG9JVrBvKn3psNMPFULWkEDUuV","DdzFFzCqrht5dQ3zbNvftoXzVi3gSeAuSz5WkNTDLM9vnQpWbYKYWBTesMb2y5jq2E4i5Kh3mGa7U6zffiSMQ5rfHX18ryLDyN5nZsCj","DdzFFzCqrhsnVwGWTabf8Z6p3oW8d87z6K8j43cBAAkby5d4fcddZkxLZxMi9jNz34DEv7myxEEQU6Jk3q2UbXpPuDsQmXgB18gwodhS","DdzFFzCqrhsvtaa5aw67pJLH5vDSinqHvNB9NAVGQJh7DnGfaSUohGGccKhNrkqbxkQarwJsPQth46km2c5ruT15ufArbScdNL61tnrP","DdzFFzCqrht1SqdDqVGFf11BhAFfDaqt8PjAT34DZSCzBDfppD85iQppwTaGD5GTyYt9gKhrctXb7mh4N6Zj6VpswhK4ixSxaSvYdGEA","DdzFFzCqrhsgtFEDpfXbPqz19DbR1haerHEoC7eJRGHMzsPqpYrWL1SvgPjFn9h1wUAe1V16aiZ4s8JAQjDwQgjUdGBKYiFgit6CDS2s","DdzFFzCqrht9fcczCQXnTzqR42LxgpwTsjB9wda3nPG7EaehQjNQ2Zr7jW8JN7CqbGP23kJDSnmm7dyFshAC5cA6X3GRpqTMvD61cyWK","DdzFFzCqrhsvVi3YphrjrC4Wdg2fjNjqdkvyFMV1eLuNAF73xsPm9wXEwQZy31pSt1ggB38QJQGrmYq4pRL3pj7qMA2Ka59J5QAmJd2F","DdzFFzCqrhszZ48P6ksq28x42LbaG6zryeLFqYt93g6H5iXxrK1G1E4TcUfE3V97KcjtZ2n4rfF9gapucP3GDmNVtsGCH1aXPZVLSkNi"],"addressesOutput":["addr1q9atjfpqwdtg7ytz0pz9zcaqvx8zr2uv6ysvc4csqynr683dzefudzxhadht99nh8gv4l3z93d486ygllgxuh2drrrpsdw6fws","DdzFFzCqrhsx4Map5ySq8Vwr3Fw4p9syU9gK5ton11nhEeF9hsF8jXbdMD2WYhgKwaeCz6TSaNfmdoQdXNADKAnE182yFtZzRpCWojYr"],"fee":1032257,"totalOutput":96239075641,"tokens":[]},{"hash":"bce0d8e5467986da0484cb43aee999d9c14e7a2fa1d353e19041cf8183045ccf","blockNo":8123960,"blockHash":"99f25fb76fefb43cc35e5adf0b8524ef838bbf1c9d6e6c02f2111f8f1f491860","epochNo":380,"epochSlotNo":357241,"slot":79154041,"time":"2022/12/11 00:58:52","addressesInput":["addr1q9vj9w32w77p47ca725hantcf5nrzcex66vqq58kqm4l04y6hn99676mvdj6qvd34vfqh3jx6vy8tyfkuy6u3xcghq8sex2gzq","addr1q9vj9w32w77p47ca725hantcf5nrzcex66vqq58kqm4l04y6hn99676mvdj6qvd34vfqh3jx6vy8tyfkuy6u3xcghq8sex2gzq","addr1q9vj9w32w77p47ca725hantcf5nrzcex66vqq58kqm4l04y6hn99676mvdj6qvd34vfqh3jx6vy8tyfkuy6u3xcghq8sex2gzq"],"addressesOutput":["addr1zxgx3far7qygq0k6epa0zcvcvrevmn0ypsnfsue94nsn3tvpw288a4x0xf8pxgcntelxmyclq83s0ykeehchz2wtspks905plm","addr1q9vj9w32w77p47ca725hantcf5nrzcex66vqq58kqm4l04y6hn99676mvdj6qvd34vfqh3jx6vy8tyfkuy6u3xcghq8sex2gzq","addr1q9vj9w32w77p47ca725hantcf5nrzcex66vqq58kqm4l04y6hn99676mvdj6qvd34vfqh3jx6vy8tyfkuy6u3xcghq8sex2gzq"],"fee":249849,"totalOutput":20144315,"tokens":[]},{"hash":"d07b8b4543ba49efac5e89f1d04bde1f1b80d1de62d7cb0be81a13d4eeb67b42","blockNo":8123498,"blockHash":"a716a9963a0a52ee2dc4ff4af87ba9344ef2d28643b07772a33b52e259355aef","epochNo":380,"epochSlotNo":348418,"slot":79145218,"time":"2022/12/10 22:31:49","addressesInput":["addr1q9vj9w32w77p47ca725hantcf5nrzcex66vqq58kqm4l04y6hn99676mvdj6qvd34vfqh3jx6vy8tyfkuy6u3xcghq8sex2gzq","addr1q9vj9w32w77p47ca725hantcf5nrzcex66vqq58kqm4l04y6hn99676mvdj6qvd34vfqh3jx6vy8tyfkuy6u3xcghq8sex2gzq"],"addressesOutput":["addr1zxgx3far7qygq0k6epa0zcvcvrevmn0ypsnfsue94nsn3tvpw288a4x0xf8pxgcntelxmyclq83s0ykeehchz2wtspks905plm","addr1q9vj9w32w77p47ca725hantcf5nrzcex66vqq58kqm4l04y6hn99676mvdj6qvd34vfqh3jx6vy8tyfkuy6u3xcghq8sex2gzq","addr1q9vj9w32w77p47ca725hantcf5nrzcex66vqq58kqm4l04y6hn99676mvdj6qvd34vfqh3jx6vy8tyfkuy6u3xcghq8sex2gzq"],"fee":246593,"totalOutput":11270416,"tokens":[]},{"hash":"180508693c7e8aa871734ef7d163f4cd876505c220b99ec3f82052d0fd55a25a","blockNo":8123491,"blockHash":"aa3ab602fde3682a9b2c62e7e3af56594985ce98685bef1c85363c703531b4e0","epochNo":380,"epochSlotNo":348323,"slot":79145123,"time":"2022/12/10 22:30:14","addressesInput":["addr1q9vj9w32w77p47ca725hantcf5nrzcex66vqq58kqm4l04y6hn99676mvdj6qvd34vfqh3jx6vy8tyfkuy6u3xcghq8sex2gzq","addr1q9vj9w32w77p47ca725hantcf5nrzcex66vqq58kqm4l04y6hn99676mvdj6qvd34vfqh3jx6vy8tyfkuy6u3xcghq8sex2gzq","addr1q9vj9w32w77p47ca725hantcf5nrzcex66vqq58kqm4l04y6hn99676mvdj6qvd34vfqh3jx6vy8tyfkuy6u3xcghq8sex2gzq"],"addressesOutput":["addr1zxgx3far7qygq0k6epa0zcvcvrevmn0ypsnfsue94nsn3tvpw288a4x0xf8pxgcntelxmyclq83s0ykeehchz2wtspks905plm","addr1q9vj9w32w77p47ca725hantcf5nrzcex66vqq58kqm4l04y6hn99676mvdj6qvd34vfqh3jx6vy8tyfkuy6u3xcghq8sex2gzq","addr1q9vj9w32w77p47ca725hantcf5nrzcex66vqq58kqm4l04y6hn99676mvdj6qvd34vfqh3jx6vy8tyfkuy6u3xcghq8sex2gzq"],"fee":250465,"totalOutput":12866039,"tokens":[]},{"hash":"5fed2d4268529f1e242bf781572b4924fa50d1bc291aa7617c22e36bcf39c60c","blockNo":8123469,"blockHash":"3f359c7b8eed23afb60180c5331d7f20626051506299fdd7a07fc7a5f668b99e","epochNo":380,"epochSlotNo":347956,"slot":79144756,"time":"2022/12/10 22:24:07","addressesInput":["addr1q9vj9w32w77p47ca725hantcf5nrzcex66vqq58kqm4l04y6hn99676mvdj6qvd34vfqh3jx6vy8tyfkuy6u3xcghq8sex2gzq","addr1q9vj9w32w77p47ca725hantcf5nrzcex66vqq58kqm4l04y6hn99676mvdj6qvd34vfqh3jx6vy8tyfkuy6u3xcghq8sex2gzq"],"addressesOutput":["addr1zxgx3far7qygq0k6epa0zcvcvrevmn0ypsnfsue94nsn3tvpw288a4x0xf8pxgcntelxmyclq83s0ykeehchz2wtspks905plm","addr1q9vj9w32w77p47ca725hantcf5nrzcex66vqq58kqm4l04y6hn99676mvdj6qvd34vfqh3jx6vy8tyfkuy6u3xcghq8sex2gzq","addr1q9vj9w32w77p47ca725hantcf5nrzcex66vqq58kqm4l04y6hn99676mvdj6qvd34vfqh3jx6vy8tyfkuy6u3xcghq8sex2gzq","addr1q9vj9w32w77p47ca725hantcf5nrzcex66vqq58kqm4l04y6hn99676mvdj6qvd34vfqh3jx6vy8tyfkuy6u3xcghq8sex2gzq"],"fee":253853,"totalOutput":15331618,"tokens":[]},{"hash":"03607742d586ced71e7843d96f5b7f9540bce4097275a6262ef35c8f13105e92","blockNo":8123232,"blockHash":"1e5dec93231bf3fa4e6a2fe984fbcc5f1e08ce4b0161b37c6151811e946e23af","epochNo":380,"epochSlotNo":343232,"slot":79140032,"time":"2022/12/10 21:05:23","addressesInput":["addr1q8fjdde87jrua78trg9ylv7gpvd5skzcv5nqp3wl467ykzgsmz083klcvm744y0n7yyg49ykzz0j628xpu4n5u0r0r4qrfqf6q","addr1q8fjdde87jrua78trg9ylv7gpvd5skzcv5nqp3wl467ykzgsmz083klcvm744y0n7yyg49ykzz0j628xpu4n5u0r0r4qrfqf6q","addr1q8fjdde87jrua78trg9ylv7gpvd5skzcv5nqp3wl467ykzgsmz083klcvm744y0n7yyg49ykzz0j628xpu4n5u0r0r4qrfqf6q"],"addressesOutput":["addr1zxgx3far7qygq0k6epa0zcvcvrevmn0ypsnfsue94nsn3tvpw288a4x0xf8pxgcntelxmyclq83s0ykeehchz2wtspks905plm","addr1q8fjdde87jrua78trg9ylv7gpvd5skzcv5nqp3wl467ykzgsmz083klcvm744y0n7yyg49ykzz0j628xpu4n5u0r0r4qrfqf6q","addr1q8fjdde87jrua78trg9ylv7gpvd5skzcv5nqp3wl467ykzgsmz083klcvm744y0n7yyg49ykzz0j628xpu4n5u0r0r4qrfqf6q"],"fee":637753,"totalOutput":46930368,"tokens":[]}],"totalItems":12021,"totalPages":602,"currentPage":0}