{"data":[{"txId":57485344,"txHash":"28bdda4885978c636fe0accd43dc09f24b5fee6658859e35c81934b763a7ffa1","txTime":"2022/12/15 18:31:11","block":8143865,"epoch":381,"slotNo":79562780,"epochSlotNo":333980,"stakeKey":"stake1u8gajpp920wzqyhfpxnpz7fms8vcdmkpdjprzx3vhey8a5g5hgwy3"},{"txId":57484680,"txHash":"7f993fdd7a36d4021b706ce59c4090e59f41e007226dc579375d75ee6d472ff6","txTime":"2022/12/15 18:21:37","block":8143840,"epoch":381,"slotNo":79562206,"epochSlotNo":333406,"stakeKey":"stake1ux4qgt3khgjrqwja7aqksjggmygsphnv0sqh0s0v0cwf8rc9vzmuc"},{"txId":57484522,"txHash":"a81462c133d570b6dcf2cd998f9244303c5f21f331445f4778b8f48357371d93","txTime":"2022/12/15 18:19:54","block":8143835,"epoch":381,"slotNo":79562103,"epochSlotNo":333303,"stakeKey":"stake1uykpqr54zmkq88jpmyuy2vql54nwychpmlrc0q8yzxd6vjq06kzxl"},{"txId":57483610,"txHash":"aadbc05468e541d8ad6979bc8fa4d9d982c0d69a5ce8ed88912ca9dde57d46c2","txTime":"2022/12/15 18:06:32","block":8143782,"epoch":381,"slotNo":79561301,"epochSlotNo":332501,"stakeKey":"stake1u9dqyyfretwmtsp9qdgjyezv8v4ags9ln0dvps7pymac6qcfmc6da"},{"txId":57483189,"txHash":"721b5013026dcb38e9ee7af00f404c8c75129f66ee944437f80aa1afc34c08bf","txTime":"2022/12/15 18:00:49","block":8143762,"epoch":381,"slotNo":79560958,"epochSlotNo":332158,"stakeKey":"stake1u8640xavuxre7qz7dyfr9r04msasfaksu9znhdn9xtdgyjgncufe6"},{"txId":57483003,"txHash":"6bd471ea06621bec7a0e46e664f743f767a66c190606328819fd84138999f768","txTime":"2022/12/15 17:57:52","block":8143757,"epoch":381,"slotNo":79560781,"epochSlotNo":331981,"stakeKey":"stake1uxhu6yha6zj4850u3zcpcw7z3qvfc3pfxsptpx04e7pk5cgqrrtjf"},{"txId":57482997,"txHash":"9bf87e41a65f970c8f4aec663b6663984eafc8256d753348a441f05075918a20","txTime":"2022/12/15 17:57:52","block":8143757,"epoch":381,"slotNo":79560781,"epochSlotNo":331981,"stakeKey":"stake1uxsl5n9mnyj86m5m0gehaujw4ee2vt52n04qkcs2d6x7vlcqgm9qc"},{"txId":57482970,"txHash":"63176afb5a74b6cda358b04d147755664b2f09b7156fd92551c0603b86631f60","txTime":"2022/12/15 17:57:52","block":8143757,"epoch":381,"slotNo":79560781,"epochSlotNo":331981,"stakeKey":"stake1u9z07jaudqanj4l36409n35du0mrukfzsk0aj9pw3z0wvec9xugh2"},{"txId":57482846,"txHash":"c745908ffe98494790dfdcef8d92c9543af71e900143db9eb69b4b4a9244a7f0","txTime":"2022/12/15 17:55:22","block":8143751,"epoch":381,"slotNo":79560631,"epochSlotNo":331831,"stakeKey":"stake1uywwwad4ex289rdzpcs663808xprftjlua8nmdg6grcuq2gwx3k6u"},{"txId":57482833,"txHash":"5909687085730248ff650b47459c6f933dc32b1804e90413e840547998a587b6","txTime":"2022/12/15 17:55:22","block":8143751,"epoch":381,"slotNo":79560631,"epochSlotNo":331831,"stakeKey":"stake1u9z07jaudqanj4l36409n35du0mrukfzsk0aj9pw3z0wvec9xugh2"},{"txId":57482608,"txHash":"c228c9f89d578787f435db53da3056b96d44ed8d6d4e3b935c8e45d063a50de1","txTime":"2022/12/15 17:51:52","block":8143744,"epoch":381,"slotNo":79560421,"epochSlotNo":331621,"stakeKey":"stake1uykpqr54zmkq88jpmyuy2vql54nwychpmlrc0q8yzxd6vjq06kzxl"},{"txId":57482400,"txHash":"175950f927d4c319655159e310edab5a902b4befef16f9ecb234fe4e027cf991","txTime":"2022/12/15 17:48:42","block":8143736,"epoch":381,"slotNo":79560231,"epochSlotNo":331431,"stakeKey":"stake1u80vx86yy67pfp4lt092gfjjfkppwe0p7a2555jd62drfgc7vayaz"},{"txId":57482389,"txHash":"1af69a00d389be3d03928cd4d91953e0f24f7f1e99f5764eda664b70a66507c3","txTime":"2022/12/15 17:48:42","block":8143736,"epoch":381,"slotNo":79560231,"epochSlotNo":331431,"stakeKey":"stake1uxr23ngeyxwtp0j7za96022q9xlmpsacu3mu9r43m2xypjgvj74v7"},{"txId":57482336,"txHash":"51c28ac172bdbc9def95226f7812a056b2c90f86fe87a7f10a34044b12d9cbd0","txTime":"2022/12/15 17:48:30","block":8143735,"epoch":381,"slotNo":79560219,"epochSlotNo":331419,"stakeKey":"stake1u9tdepjkvlut2a9ztkg7yw8hcwr4zc4yyqtkwuuek5aamlgx35wc2"},{"txId":57482218,"txHash":"8aee45e095a411610e1c2ec22bb139a2caa36ea848a2bd69115357ec0fbb584d","txTime":"2022/12/15 17:46:22","block":8143728,"epoch":381,"slotNo":79560091,"epochSlotNo":331291,"stakeKey":"stake1uxddswt93lwfvfr539hjyqcgusq088vq23x0hrrf77fzh6scl806f"},{"txId":57481697,"txHash":"c8b2224670c7ccc0e24beb5d41e3fb02bdc4003bc9399946f41914a72798c03a","txTime":"2022/12/15 17:39:18","block":8143708,"epoch":381,"slotNo":79559667,"epochSlotNo":330867,"stakeKey":"stake1u97qzmj6v2ea3z5a0zyuzvzh7fj56k34at5tx2m42n9hjjc7mz5l5"},{"txId":57481678,"txHash":"e2f4434cc85ded8be1a027c6253eb58cafee3f4073b3691bca4836b349457d08","txTime":"2022/12/15 17:39:18","block":8143708,"epoch":381,"slotNo":79559667,"epochSlotNo":330867,"stakeKey":"stake1uys5c9t4pe6j3nwfhdxyhsvr4urq9vlxv6cjc8e0nkq73hc29l5xc"},{"txId":57481252,"txHash":"7fd755e420ef067fd896f399572d389fa1927d563117e39a99d28d059b7b82cc","txTime":"2022/12/15 17:32:33","block":8143690,"epoch":381,"slotNo":79559262,"epochSlotNo":330462,"stakeKey":"stake1uxfxdeu7mm4mntl8rsknumfe870p3q9skczksrlx3auruzgkv4z8z"},{"txId":57480267,"txHash":"4e03b465d5fd6fe8fef0a3502865dc14568768adf9c59b2b0289370f318de427","txTime":"2022/12/15 17:18:23","block":8143642,"epoch":381,"slotNo":79558412,"epochSlotNo":329612,"stakeKey":"stake1uy8yzhve2c7jy72aq8reh5fhr7fn7c5ml2xlsuvnk0l8z5ce0cqml"},{"txId":57480036,"txHash":"acbb51dd1bfa85492903e712fd4867984aea8c550836680fe7057ee72792e0b7","txTime":"2022/12/15 17:15:34","block":8143628,"epoch":381,"slotNo":79558243,"epochSlotNo":329443,"stakeKey":"stake1uy5760h77tuwj9h2madjj30ksg7u98xjlx072xfcmfsvcpsk4uhfv"}],"totalItems":337152,"totalPages":16858,"currentPage":0}