{"data":[{"hash":"34520ebaa82f240f5e535b0218c8a9f0eb514597a0399256117a13b8c9d0c8e5","blockNo":6833350,"blockHash":"a320e8c508a8711787797b160233e0c4477c32545ec54517e7dab1d5ee1d3fed","epochNo":318,"epochSlotNo":246746,"slot":52259546,"time":"2022/02/02 18:17:17","addressesInput":["addr1qyxdhrqstaschwazulm9m7xf9da404rjdxlmsg7qzgdlj9ca49c73yv32axatm687gp8req4y0v6thvmec00sz5fdn3sachtr4","addr1q947h3rm3s5w0w9aarcjuy4nr0v86gzcwneyhyp0c58979sa49c73yv32axatm687gp8req4y0v6thvmec00sz5fdn3saaap2r"],"addressesOutput":["addr1vymu0qzhdzlcccgeuyjrcqpuu4xkv5ytw55r5jj3qkklzhgy0m5f8","addr1qyykw22z93u7rfl570ww7au5yzfdce6usedpte7hr0sv36ga49c73yv32axatm687gp8req4y0v6thvmec00sz5fdn3s00shdp"],"fee":214869,"totalOutput":3719311297,"tokens":[]},{"hash":"34cf4807c54897157f3c8260cef09779aa19e3b4aab46ab6b018238c09e0e87a","blockNo":6833285,"blockHash":"ecb666eef972bbe66efdc496619faba31877c60b9ac9c998cf8e862244426174","epochNo":318,"epochSlotNo":245073,"slot":52257873,"time":"2022/02/02 17:49:24","addressesInput":["addr1qymaumdm272r24d0s46827plplhc6t520lufdr5vdqn0z8hze4zwjlw3vpjum04n0gjymwde8c9p5r67yqupkzy8yz5qwdv2cd","addr1qymaumdm272r24d0s46827plplhc6t520lufdr5vdqn0z8hze4zwjlw3vpjum04n0gjymwde8c9p5r67yqupkzy8yz5qwdv2cd","addr1qymaumdm272r24d0s46827plplhc6t520lufdr5vdqn0z8hze4zwjlw3vpjum04n0gjymwde8c9p5r67yqupkzy8yz5qwdv2cd","addr1qymaumdm272r24d0s46827plplhc6t520lufdr5vdqn0z8hze4zwjlw3vpjum04n0gjymwde8c9p5r67yqupkzy8yz5qwdv2cd"],"addressesOutput":["addr1vymu0qzhdzlcccgeuyjrcqpuu4xkv5ytw55r5jj3qkklzhgy0m5f8","addr1qymaumdm272r24d0s46827plplhc6t520lufdr5vdqn0z8hze4zwjlw3vpjum04n0gjymwde8c9p5r67yqupkzy8yz5qwdv2cd","addr1qymaumdm272r24d0s46827plplhc6t520lufdr5vdqn0z8hze4zwjlw3vpjum04n0gjymwde8c9p5r67yqupkzy8yz5qwdv2cd"],"fee":367329,"totalOutput":232443561,"tokens":[]},{"hash":"4d2eb9fc248eab501dfb175e189f69e6dba220da275212bb2caecfb327fc8065","blockNo":6833146,"blockHash":"dde62291c8a3693fa09c3d6bedae72d5aafa9f2fe1bb037dcaec905f6afae1c2","epochNo":318,"epochSlotNo":242656,"slot":52255456,"time":"2022/02/02 17:09:07","addressesInput":["addr1qyseyktgutum9ftyxyhvl9g27peu2aex3sfcyrwlr25n2wqa49c73yv32axatm687gp8req4y0v6thvmec00sz5fdn3sg4kh3l","addr1q83jjmdw6pvf9hsdc5z5uj7yz3n6lu0smzscdlwy5hdkeuca49c73yv32axatm687gp8req4y0v6thvmec00sz5fdn3senqxxe"],"addressesOutput":["addr1vymu0qzhdzlcccgeuyjrcqpuu4xkv5ytw55r5jj3qkklzhgy0m5f8","addr1q947h3rm3s5w0w9aarcjuy4nr0v86gzcwneyhyp0c58979sa49c73yv32axatm687gp8req4y0v6thvmec00sz5fdn3saaap2r"],"fee":214165,"totalOutput":3868043719,"tokens":[]},{"hash":"c95c5380dd26c3522f560b26c126dce1999934192d8f0a2429653c191ee314ac","blockNo":6833053,"blockHash":"5d10779e3360b88e98707e997c1820096d1988c2e071983fa2a43831b143c69c","epochNo":318,"epochSlotNo":240695,"slot":52253495,"time":"2022/02/02 16:36:26","addressesInput":["addr1qxszsqjtp8kf60yvk896cr9td2rkqnsxsgvej2ad8lah8x3hcdj45clk5lfnp6a2m7jdkpwd06t207rf6p2hzx6lv2jsl2szk3"],"addressesOutput":["addr1w999n67e86jn6xal07pzxtrmqynspgx0fwmcmpua4wc6yzsxpljz3","addr1qxszsqjtp8kf60yvk896cr9td2rkqnsxsgvej2ad8lah8x3hcdj45clk5lfnp6a2m7jdkpwd06t207rf6p2hzx6lv2jsl2szk3"],"fee":288135,"totalOutput":198806622,"tokens":[]},{"hash":"34676c32caa85c4fa754dced4c627153621306eda9b0404b1a74994b415183fc","blockNo":6833003,"blockHash":"845e64e1b1b7dabd86590561340b3baf3416da2cfec8c775a0f788d58cba0715","epochNo":318,"epochSlotNo":239427,"slot":52252227,"time":"2022/02/02 16:15:18","addressesInput":["addr1qyya3tqthg9ajrfh2ux0chm6dse50r74cqrppwfqd5naxrav002vf6te3g057nrg4ry2fxlas0cdyt5y8x0e7z6mmmpspdvr6h","addr1qyya3tqthg9ajrfh2ux0chm6dse50r74cqrppwfqd5naxrav002vf6te3g057nrg4ry2fxlas0cdyt5y8x0e7z6mmmpspdvr6h"],"addressesOutput":["addr1qyzcg38552lml456yzr89fut9hswkn5v6t0p9legscqgp9nwhssr8g50t7v65s04kct3hjdt6ym05uewh4nq4pk603vqq5jyyr","addr1qyya3tqthg9ajrfh2ux0chm6dse50r74cqrppwfqd5naxrav002vf6te3g057nrg4ry2fxlas0cdyt5y8x0e7z6mmmpspdvr6h","addr1qyya3tqthg9ajrfh2ux0chm6dse50r74cqrppwfqd5naxrav002vf6te3g057nrg4ry2fxlas0cdyt5y8x0e7z6mmmpspdvr6h"],"fee":176897,"totalOutput":29961729,"tokens":[]},{"hash":"8d8e048d7bc456e28a7d8198b1aefbd4a7565cd28567edf97a545c2917443c11","blockNo":6832863,"blockHash":"8101d6e8519ba5be0556039478966a51fb18187d9f705bf3820b28ab82d6a133","epochNo":318,"epochSlotNo":236139,"slot":52248939,"time":"2022/02/02 15:20:30","addressesInput":["addr1qymaumdm272r24d0s46827plplhc6t520lufdr5vdqn0z8hze4zwjlw3vpjum04n0gjymwde8c9p5r67yqupkzy8yz5qwdv2cd","addr1qymaumdm272r24d0s46827plplhc6t520lufdr5vdqn0z8hze4zwjlw3vpjum04n0gjymwde8c9p5r67yqupkzy8yz5qwdv2cd","addr1qymaumdm272r24d0s46827plplhc6t520lufdr5vdqn0z8hze4zwjlw3vpjum04n0gjymwde8c9p5r67yqupkzy8yz5qwdv2cd"],"addressesOutput":["addr1v9ukwgwl27wnn0huy4czx85t2ugkek0lsqt9s2sucs6mgrq7rzc8n","addr1qymaumdm272r24d0s46827plplhc6t520lufdr5vdqn0z8hze4zwjlw3vpjum04n0gjymwde8c9p5r67yqupkzy8yz5qwdv2cd","addr1qymaumdm272r24d0s46827plplhc6t520lufdr5vdqn0z8hze4zwjlw3vpjum04n0gjymwde8c9p5r67yqupkzy8yz5qwdv2cd"],"fee":326673,"totalOutput":164457831,"tokens":[]},{"hash":"0b5667ab0b41b1980f61fb71805a06dbe4e3ba6ae3657a27b948d55377e66ae6","blockNo":6832783,"blockHash":"36d484cf0d0119282e5752ba96263843b70608082a6a31942169e5ef27265d75","epochNo":318,"epochSlotNo":233895,"slot":52246695,"time":"2022/02/02 14:43:06","addressesInput":["addr1qymaumdm272r24d0s46827plplhc6t520lufdr5vdqn0z8hze4zwjlw3vpjum04n0gjymwde8c9p5r67yqupkzy8yz5qwdv2cd","addr1qymaumdm272r24d0s46827plplhc6t520lufdr5vdqn0z8hze4zwjlw3vpjum04n0gjymwde8c9p5r67yqupkzy8yz5qwdv2cd","addr1qymaumdm272r24d0s46827plplhc6t520lufdr5vdqn0z8hze4zwjlw3vpjum04n0gjymwde8c9p5r67yqupkzy8yz5qwdv2cd"],"addressesOutput":["addr1vy86uf6zhlz94gyp26k0jagxar9exyrzkcz9n0lj69sp2dqs5dnrt","addr1qymaumdm272r24d0s46827plplhc6t520lufdr5vdqn0z8hze4zwjlw3vpjum04n0gjymwde8c9p5r67yqupkzy8yz5qwdv2cd","addr1qymaumdm272r24d0s46827plplhc6t520lufdr5vdqn0z8hze4zwjlw3vpjum04n0gjymwde8c9p5r67yqupkzy8yz5qwdv2cd"],"fee":323197,"totalOutput":239784504,"tokens":[]},{"hash":"326e782b05ee3a4c1380f723b4e5196c8a29fef11b5a3d2ee05a1ce36c6c9ebe","blockNo":6832726,"blockHash":"fe7a136f03cb959129df5aba48a845eb8efe98768914937adefe46f151f5af37","epochNo":318,"epochSlotNo":232731,"slot":52245531,"time":"2022/02/02 14:23:42","addressesInput":["addr1q8njpfaq2juy8djeqh7xs4k9n0uyz7q00gr4ttn82xdc6xuz2kfgd2rjm46qt0vqvtu6lmrwna0gzmsvv37ngqtmywwq4pn0pl"],"addressesOutput":["addr1w999n67e86jn6xal07pzxtrmqynspgx0fwmcmpua4wc6yzsxpljz3","addr1q8njpfaq2juy8djeqh7xs4k9n0uyz7q00gr4ttn82xdc6xuz2kfgd2rjm46qt0vqvtu6lmrwna0gzmsvv37ngqtmywwq4pn0pl"],"fee":257079,"totalOutput":25982460,"tokens":[]},{"hash":"6cc4bec016e26833a1d6cad8b154a8edad9178d643a9b5387a8eacd75cfd1bf1","blockNo":6832710,"blockHash":"7508f682269c0c4a3d9e0ae76c3abca231904507ac1c2bf4b31caa3b8d171053","epochNo":318,"epochSlotNo":232378,"slot":52245178,"time":"2022/02/02 14:17:49","addressesInput":["addr1qymaumdm272r24d0s46827plplhc6t520lufdr5vdqn0z8hze4zwjlw3vpjum04n0gjymwde8c9p5r67yqupkzy8yz5qwdv2cd","addr1qymaumdm272r24d0s46827plplhc6t520lufdr5vdqn0z8hze4zwjlw3vpjum04n0gjymwde8c9p5r67yqupkzy8yz5qwdv2cd","addr1qymaumdm272r24d0s46827plplhc6t520lufdr5vdqn0z8hze4zwjlw3vpjum04n0gjymwde8c9p5r67yqupkzy8yz5qwdv2cd","addr1qymaumdm272r24d0s46827plplhc6t520lufdr5vdqn0z8hze4zwjlw3vpjum04n0gjymwde8c9p5r67yqupkzy8yz5qwdv2cd","addr1qymaumdm272r24d0s46827plplhc6t520lufdr5vdqn0z8hze4zwjlw3vpjum04n0gjymwde8c9p5r67yqupkzy8yz5qwdv2cd","addr1qymaumdm272r24d0s46827plplhc6t520lufdr5vdqn0z8hze4zwjlw3vpjum04n0gjymwde8c9p5r67yqupkzy8yz5qwdv2cd"],"addressesOutput":["addr1vy86uf6zhlz94gyp26k0jagxar9exyrzkcz9n0lj69sp2dqs5dnrt","addr1qymaumdm272r24d0s46827plplhc6t520lufdr5vdqn0z8hze4zwjlw3vpjum04n0gjymwde8c9p5r67yqupkzy8yz5qwdv2cd","addr1qymaumdm272r24d0s46827plplhc6t520lufdr5vdqn0z8hze4zwjlw3vpjum04n0gjymwde8c9p5r67yqupkzy8yz5qwdv2cd"],"fee":327949,"totalOutput":241693387,"tokens":[]},{"hash":"f129f31311416e14727ffa168c21caebf49a554917e266438710bc5d03e14f26","blockNo":6832703,"blockHash":"31f758e96eaafc07db144f2d7b542ec58fc6d58e5ba6dff9fb78df396beaf9ff","epochNo":318,"epochSlotNo":232272,"slot":52245072,"time":"2022/02/02 14:16:03","addressesInput":["addr1qyecjgprat9qjdfkv6ln45eww5a9lwkgqn92x6lspd339ky00hv6dpawknxe42d8dlx42msv2nt8yej77vudk0uruvtsh2aeym"],"addressesOutput":["addr1vyxk5c94sk0m7r56krxtqyh0d2lx5dxkfrv73w7lgw3ew8q9chruk","addr1qyecjgprat9qjdfkv6ln45eww5a9lwkgqn92x6lspd339ky00hv6dpawknxe42d8dlx42msv2nt8yej77vudk0uruvtsh2aeym","addr1qyecjgprat9qjdfkv6ln45eww5a9lwkgqn92x6lspd339ky00hv6dpawknxe42d8dlx42msv2nt8yej77vudk0uruvtsh2aeym"],"fee":191021,"totalOutput":119737120,"tokens":[]},{"hash":"e02e0c115922a5e759059a4ac324c484a08729c43b18c78d582665842120e727","blockNo":6832678,"blockHash":"31f667c6a9a983320bbf3db7980d51c8dbb33945abac4e51a8c5311be1becc21","epochNo":318,"epochSlotNo":231741,"slot":52244541,"time":"2022/02/02 14:07:12","addressesInput":["addr1qxszsqjtp8kf60yvk896cr9td2rkqnsxsgvej2ad8lah8x3hcdj45clk5lfnp6a2m7jdkpwd06t207rf6p2hzx6lv2jsl2szk3"],"addressesOutput":["addr1w9yr0zr530tp9yzrhly8lw5upddu0eym3yh0mjwa0qlr9pgmkzgv0","addr1qxszsqjtp8kf60yvk896cr9td2rkqnsxsgvej2ad8lah8x3hcdj45clk5lfnp6a2m7jdkpwd06t207rf6p2hzx6lv2jsl2szk3"],"fee":250861,"totalOutput":200946607,"tokens":[]},{"hash":"5862d435336d04b9b02502ca5c2fac101968252e29798fdff6a38ac7ca6bd453","blockNo":6832623,"blockHash":"586816615ebbf51d880eff1c48bc27db3f6e48f894ea9aca7f7f5f6f4b872de6","epochNo":318,"epochSlotNo":230779,"slot":52243579,"time":"2022/02/02 13:51:10","addressesInput":["addr1q93vyug8m3qrqc5qr9u28hzkvdpzyvmez85f58l8y9t2502xrdyd4ezx43vxjgw0dvz6dzy36jku3ptrr9mcv5dftkhsx6f5gt","addr1w999n67e86jn6xal07pzxtrmqynspgx0fwmcmpua4wc6yzsxpljz3"],"addressesOutput":["addr1w999n67e86jn6xal07pzxtrmqynspgx0fwmcmpua4wc6yzsxpljz3","addr1q93vyug8m3qrqc5qr9u28hzkvdpzyvmez85f58l8y9t2502xrdyd4ezx43vxjgw0dvz6dzy36jku3ptrr9mcv5dftkhsx6f5gt"],"fee":1182565,"totalOutput":24770447,"tokens":[]},{"hash":"41344c16ffd585c5605bbc8b05858841f0140a6a2d02a04551da7eca53de6940","blockNo":6832602,"blockHash":"3ce180cde68f88af8ff0923359c474273830bfa2edd7cfcf70d9044059692805","epochNo":318,"epochSlotNo":230356,"slot":52243156,"time":"2022/02/02 13:44:07","addressesInput":["addr1qxszsqjtp8kf60yvk896cr9td2rkqnsxsgvej2ad8lah8x3hcdj45clk5lfnp6a2m7jdkpwd06t207rf6p2hzx6lv2jsl2szk3"],"addressesOutput":["addr1w9yr0zr530tp9yzrhly8lw5upddu0eym3yh0mjwa0qlr9pgmkzgv0","addr1qxszsqjtp8kf60yvk896cr9td2rkqnsxsgvej2ad8lah8x3hcdj45clk5lfnp6a2m7jdkpwd06t207rf6p2hzx6lv2jsl2szk3"],"fee":251521,"totalOutput":203049318,"tokens":[]},{"hash":"4dced438b3980db0578355ca388e45c43dc10b5671ac93691a7c2905b4cc4c80","blockNo":6832550,"blockHash":"8f25ad161fe2122cd61971bf8b7b5fb4d3e5005e5287e6d709f01f00dda4a0ea","epochNo":318,"epochSlotNo":229260,"slot":52242060,"time":"2022/02/02 13:25:51","addressesInput":["addr1qxszsqjtp8kf60yvk896cr9td2rkqnsxsgvej2ad8lah8x3hcdj45clk5lfnp6a2m7jdkpwd06t207rf6p2hzx6lv2jsl2szk3","addr1qxszsqjtp8kf60yvk896cr9td2rkqnsxsgvej2ad8lah8x3hcdj45clk5lfnp6a2m7jdkpwd06t207rf6p2hzx6lv2jsl2szk3"],"addressesOutput":["addr1w9yr0zr530tp9yzrhly8lw5upddu0eym3yh0mjwa0qlr9pgmkzgv0","addr1qxszsqjtp8kf60yvk896cr9td2rkqnsxsgvej2ad8lah8x3hcdj45clk5lfnp6a2m7jdkpwd06t207rf6p2hzx6lv2jsl2szk3"],"fee":253765,"totalOutput":205152689,"tokens":[]},{"hash":"329511fbb65dfd5c999e99680df3c9a30506f8acf8a7c8bb6a49d3381c5f6045","blockNo":6832369,"blockHash":"dfeaa56813d8e3d4503246103f1c92e94a14720ca5b582bd5021b17222abc640","epochNo":318,"epochSlotNo":225521,"slot":52238321,"time":"2022/02/02 12:23:32","addressesInput":["addr1qymaumdm272r24d0s46827plplhc6t520lufdr5vdqn0z8hze4zwjlw3vpjum04n0gjymwde8c9p5r67yqupkzy8yz5qwdv2cd","addr1qymaumdm272r24d0s46827plplhc6t520lufdr5vdqn0z8hze4zwjlw3vpjum04n0gjymwde8c9p5r67yqupkzy8yz5qwdv2cd","addr1qymaumdm272r24d0s46827plplhc6t520lufdr5vdqn0z8hze4zwjlw3vpjum04n0gjymwde8c9p5r67yqupkzy8yz5qwdv2cd"],"addressesOutput":["addr1qxzyzq8fxmrs5w8lw6xlunkrh8az8rajcpmsnxq6u7pz8nvepn2rqy5a777dfkppwln5xrwwhclumlzwdaps2f9zwh4q0fnypp","addr1qymaumdm272r24d0s46827plplhc6t520lufdr5vdqn0z8hze4zwjlw3vpjum04n0gjymwde8c9p5r67yqupkzy8yz5qwdv2cd","addr1qymaumdm272r24d0s46827plplhc6t520lufdr5vdqn0z8hze4zwjlw3vpjum04n0gjymwde8c9p5r67yqupkzy8yz5qwdv2cd"],"fee":313165,"totalOutput":432481246,"tokens":[]},{"hash":"635be3491599b9cc52f929cf0dcfe7ed83d23dae782e0f8f2af40f818e848ee3","blockNo":6832346,"blockHash":"914a9b45caeb9c062061a7cc5cc29d9ac230661523e2c1d61662444599c23109","epochNo":318,"epochSlotNo":224915,"slot":52237715,"time":"2022/02/02 12:13:26","addressesInput":["addr1q8a8vhsq3kak5qwqml4qwytatwapdkl9fhmdwa9yvqwyqu9meskkswkg7qdwvyueyg780kkz3s9ut25xj0p57utgv9esk3hxy8","addr1q8a8vhsq3kak5qwqml4qwytatwapdkl9fhmdwa9yvqwyqu9meskkswkg7qdwvyueyg780kkz3s9ut25xj0p57utgv9esk3hxy8"],"addressesOutput":["addr1q8a8vhsq3kak5qwqml4qwytatwapdkl9fhmdwa9yvqwyqu9meskkswkg7qdwvyueyg780kkz3s9ut25xj0p57utgv9esk3hxy8","addr1q8a8vhsq3kak5qwqml4qwytatwapdkl9fhmdwa9yvqwyqu9meskkswkg7qdwvyueyg780kkz3s9ut25xj0p57utgv9esk3hxy8","addr1q8a8vhsq3kak5qwqml4qwytatwapdkl9fhmdwa9yvqwyqu9meskkswkg7qdwvyueyg780kkz3s9ut25xj0p57utgv9esk3hxy8"],"fee":192253,"totalOutput":32078553,"tokens":[]},{"hash":"9bca4ffa25480d8857503aff98a2d361046f991e4481b98c597abaa96d2b41ac","blockNo":6832339,"blockHash":"2cc6904f9fcfa981e96ce62dfc8bfe2da56e4726a200e86eea7dd4c6a7d6129f","epochNo":318,"epochSlotNo":224759,"slot":52237559,"time":"2022/02/02 12:10:50","addressesInput":["addr1q9x2jzdeyj7q5u9uvhpzvpuf394f8tekyp26dg4q7kpcyw24mv86l2c6nvmhzu7n4rqjpp84p6ly3gucwtukw0tllf9sjln2tv","addr1q9x2jzdeyj7q5u9uvhpzvpuf394f8tekyp26dg4q7kpcyw24mv86l2c6nvmhzu7n4rqjpp84p6ly3gucwtukw0tllf9sjln2tv"],"addressesOutput":["addr1wy2mjh76em44qurn5x73nzqrxua7ataasftql0u2h6g88lc3gtgpz","addr1qy9yrva9vnxjd09vvnr7v8z7qzr73vyyd40qhnhz98yk9aq3wj76wr3m5njwkezqp2qzed6cgy40q3ax3yxddm29ygcqez2pvl","addr1q9x2jzdeyj7q5u9uvhpzvpuf394f8tekyp26dg4q7kpcyw24mv86l2c6nvmhzu7n4rqjpp84p6ly3gucwtukw0tllf9sjln2tv"],"fee":290814,"totalOutput":74165385,"tokens":[]},{"hash":"7bd187426af5990e7417e8f7cb73ee450b6217f2b641a998028df0bac482dded","blockNo":6832084,"blockHash":"4bb7f960d19e0c3866e21c9f7c212553ae98881ff622dc6e73024b0ce53f5dcd","epochNo":318,"epochSlotNo":218567,"slot":52231367,"time":"2022/02/02 10:27:38","addressesInput":["addr1q93vyug8m3qrqc5qr9u28hzkvdpzyvmez85f58l8y9t2502xrdyd4ezx43vxjgw0dvz6dzy36jku3ptrr9mcv5dftkhsx6f5gt","addr1q93vyug8m3qrqc5qr9u28hzkvdpzyvmez85f58l8y9t2502xrdyd4ezx43vxjgw0dvz6dzy36jku3ptrr9mcv5dftkhsx6f5gt","addr1q93vyug8m3qrqc5qr9u28hzkvdpzyvmez85f58l8y9t2502xrdyd4ezx43vxjgw0dvz6dzy36jku3ptrr9mcv5dftkhsx6f5gt"],"addressesOutput":["addr1w999n67e86jn6xal07pzxtrmqynspgx0fwmcmpua4wc6yzsxpljz3","addr1q93vyug8m3qrqc5qr9u28hzkvdpzyvmez85f58l8y9t2502xrdyd4ezx43vxjgw0dvz6dzy36jku3ptrr9mcv5dftkhsx6f5gt"],"fee":234999,"totalOutput":25990049,"tokens":[]},{"hash":"cb5ae7d3753a1afd3ea9b4d72e1e24e10d722106b2b4e8d28c77107129ff9692","blockNo":6831744,"blockHash":"8c428ba858c4e7e9cbbda1d6c8cf68913b004f740352f5fb07234fa74c39c094","epochNo":318,"epochSlotNo":210479,"slot":52223279,"time":"2022/02/02 08:12:50","addressesInput":["addr1q9kp8pupr4pkaw4ggf0faf0xqxsfl575vtzggn9es23ygln43jax5n9d52cx64w350s92n69psy6hpnee44dcq0v9g2qs4vll7","addr1q9kp8pupr4pkaw4ggf0faf0xqxsfl575vtzggn9es23ygln43jax5n9d52cx64w350s92n69psy6hpnee44dcq0v9g2qs4vll7"],"addressesOutput":["addr1w999n67e86jn6xal07pzxtrmqynspgx0fwmcmpua4wc6yzsxpljz3","addr1q9kp8pupr4pkaw4ggf0faf0xqxsfl575vtzggn9es23ygln43jax5n9d52cx64w350s92n69psy6hpnee44dcq0v9g2qs4vll7"],"fee":284679,"totalOutput":15012396,"tokens":[]},{"hash":"d3f33c452beb052295f0c4f938ecdf52235e0ebededfafe203c18881ddeae2f9","blockNo":6831725,"blockHash":"bd2d9ab61898f37313afc68a8fe61c24e0e2b5cedc4f495ee75335d26a091bd4","epochNo":318,"epochSlotNo":210108,"slot":52222908,"time":"2022/02/02 08:06:39","addressesInput":["addr1wy2mjh76em44qurn5x73nzqrxua7ataasftql0u2h6g88lc3gtgpz","addr1q8v745k0uv9fk0w9mp9e24f2fl9q3he4w5q2k226qnfg423zdy6lzeq2aht34ehmc2jjx40xnz0zy9kfyxwzrmcffmeql7gpcs"],"addressesOutput":["addr1q8v745k0uv9fk0w9mp9e24f2fl9q3he4w5q2k226qnfg423zdy6lzeq2aht34ehmc2jjx40xnz0zy9kfyxwzrmcffmeql7gpcs"],"fee":473092,"totalOutput":3126908,"tokens":[]}],"totalItems":289,"totalPages":15,"currentPage":0}