{"data":[{"txId":59862468,"txHash":"aeabe84d56ddd8cb534c42c4d1a94227b5a228b272435bf56ab8e4bf08b6ddcb","txTime":"2023/01/16 18:58:15","block":8278559,"epoch":388,"slotNo":82329204,"epochSlotNo":76404,"stakeKey":"stake1uxms8tgr6q6vvaufp7xtpk3su6l8cxfqfm0jpsz4mujgn9qaw9kt9"},{"txId":59862400,"txHash":"dbbba4101278ac146750ccddb9902835ad25799908d42265bd421f86c724fc35","txTime":"2023/01/16 18:58:00","block":8278557,"epoch":388,"slotNo":82329189,"epochSlotNo":76389,"stakeKey":"stake1uyl8gz02rvgh90f87h90xjukl0trgkqhxynznf0z40guwds03t8t3"},{"txId":59862357,"txHash":"19a624b77d6d0c49f851bdd8fd02684680c6ca0f4056f1020f1aecde5f875dd2","txTime":"2023/01/16 18:56:55","block":8278555,"epoch":388,"slotNo":82329124,"epochSlotNo":76324,"stakeKey":"stake1u9srfut8nsclramqskl5zjzm20t97v7jagc8nxlrq8jdteggrqurm"},{"txId":59862187,"txHash":"e956e80d0652a939ce63209d2342a6bc57f471a6c9294653f2c9db108474f1a2","txTime":"2023/01/16 18:54:14","block":8278547,"epoch":388,"slotNo":82328963,"epochSlotNo":76163,"stakeKey":"stake1u84xzfesgqn6m66a5cpgr55tm87s2e9w96nc39g9ll67v4slfwe2m"},{"txId":59862058,"txHash":"19433600e1d7551e1e49cfdefb2294b7a32f4fd6cb04b6fa503935ac0b4509e5","txTime":"2023/01/16 18:51:59","block":8278540,"epoch":388,"slotNo":82328828,"epochSlotNo":76028,"stakeKey":"stake1u99r6ldtsdpjwrpsev7cg499s6ah8ax9lzq0astzg658gyssn2w58"},{"txId":59861833,"txHash":"7581483e41fc58a805cf565a5e6ec09a8e0f52daf0150b60bcfc82fd22819e7b","txTime":"2023/01/16 18:49:00","block":8278531,"epoch":388,"slotNo":82328649,"epochSlotNo":75849,"stakeKey":"stake1uyaa74qnlhf9g3s72kndys554rundrmd49rkcugqmd5fzhgq8unkg"},{"txId":59861582,"txHash":"264655b82adfb8f75364d6e1fac7722f32a12f19857cd34d8dc79ec611d917ec","txTime":"2023/01/16 18:45:07","block":8278521,"epoch":388,"slotNo":82328416,"epochSlotNo":75616,"stakeKey":"stake1u8hp2cq4xs4dl56gd0vcej9je3uz2fxpc5cl3xr0msw4xpqrg3le0"},{"txId":59861542,"txHash":"97cd8d2f99985709339240851493998e43844ee384328aac25d7941b87d96fde","txTime":"2023/01/16 18:44:48","block":8278520,"epoch":388,"slotNo":82328397,"epochSlotNo":75597,"stakeKey":"stake1u8ypl5e92dlxwszqvneqn59wsm4c3nueugs2fnw29d6avqqaccucz"},{"txId":59860902,"txHash":"a2889ef13d7f4faa7299f2d8fc84498ab72b9b2265cea7551438252c481d0c36","txTime":"2023/01/16 18:33:04","block":8278485,"epoch":388,"slotNo":82327693,"epochSlotNo":74893,"stakeKey":"stake1uy4dgluxx9tm9qlj4aj724ctl74gjpkfz3zzyupyyjl27msurjye4"},{"txId":59860889,"txHash":"876a49efc8ad371932e9c46a2eb01269ea2795cfe8838dc7a3eff2da101302f6","txTime":"2023/01/16 18:33:04","block":8278485,"epoch":388,"slotNo":82327693,"epochSlotNo":74893,"stakeKey":"stake1uy6aw8mwp8caqa770w5et7rm4gwewqc7ugksfg3ng9snltg4t2xtw"},{"txId":59860630,"txHash":"fe4c1ccd0191f6d98a344c0a3ebc309f671be7c8ca27bd98f4acb8325d757fd0","txTime":"2023/01/16 18:29:00","block":8278474,"epoch":388,"slotNo":82327449,"epochSlotNo":74649,"stakeKey":"stake1u92mxkx5gqt9lm600s2rpqhulvymfazza79x5rkj2a5jpjc6z3atf"},{"txId":59860619,"txHash":"08061773a2ccef2d713397a9666ed99aa224f64e97ea44a8906a17d55fae888d","txTime":"2023/01/16 18:29:00","block":8278474,"epoch":388,"slotNo":82327449,"epochSlotNo":74649,"stakeKey":"stake1ux2y882c4ajs0g2qdvq0pcw27wynzcfer7l3pydt3z9jwpcwwrqvl"},{"txId":59860379,"txHash":"2d46fb5ca818638a80ccc417c72eb9cb48416749cbd71a610bd3715c541524a4","txTime":"2023/01/16 18:25:24","block":8278464,"epoch":388,"slotNo":82327233,"epochSlotNo":74433,"stakeKey":"stake1u94jvvkwlsw525repzqnwpn5548kezmcu2e7pfnk5g85gxg9p64qh"},{"txId":59860088,"txHash":"b57fd000dd44530701986d1bebecd878f3c6ce410f65efd785631fa3a62978c8","txTime":"2023/01/16 18:21:28","block":8278449,"epoch":388,"slotNo":82326997,"epochSlotNo":74197,"stakeKey":"stake1u9fz6dj6e3kq29l0qe3zwerh66jv4mqxd9drujaccaxrcyq3qf2fs"},{"txId":59860046,"txHash":"e59c76424100ca7594d9d024d43703d4d9ab7ebc1d7afaa51556012a702965f9","txTime":"2023/01/16 18:21:13","block":8278448,"epoch":388,"slotNo":82326982,"epochSlotNo":74182,"stakeKey":"stake1uxclj4awzquj5npm7hm8y52tmfvte77unw4q0679032jw9qzevcha"},{"txId":59859984,"txHash":"b8b2bb1a93b96e0de8a070d07e38ad469229ec55f50064cd8aa4178ec1adbde8","txTime":"2023/01/16 18:19:49","block":8278446,"epoch":388,"slotNo":82326898,"epochSlotNo":74098,"stakeKey":"stake1u8vnk8e6e7havjnf69q2pqh2y6497a6293zdhhfsqyawduchlnhnz"},{"txId":59859888,"txHash":"2801844fc58847833f337725fd3c6099d212775a4a51e27aa8146c5ed547f77b","txTime":"2023/01/16 18:18:43","block":8278442,"epoch":388,"slotNo":82326832,"epochSlotNo":74032,"stakeKey":"stake1uyy425aqvwlqff67g7k8jp0w5fjzex3mcmr9nad6eecua3cdpylfg"},{"txId":59859755,"txHash":"d6e703e4da83b3a4583765adeb2e3e657b8eafa58d17b48ba42ac1c23a951f7d","txTime":"2023/01/16 18:17:58","block":8278439,"epoch":388,"slotNo":82326787,"epochSlotNo":73987,"stakeKey":"stake1uyf6qps8q4qmnex2am8j3wk0dzh9hc0qpeejd2pucka2tusg03wvu"},{"txId":59859473,"txHash":"f46b44589779db0d80961acd81fcc0adda22713ac30304d04f6d94d14fc5c0c8","txTime":"2023/01/16 18:12:08","block":8278428,"epoch":388,"slotNo":82326437,"epochSlotNo":73637,"stakeKey":"stake1uy6mqg4284kwpxc47rfpq5yxtegpe8an7zel4qdeve36rss77j74a"},{"txId":59859344,"txHash":"b6224915e0b24a6de3d7997e0af1080acde1e3243622d409e0197d58ca4aa0f0","txTime":"2023/01/16 18:10:09","block":8278421,"epoch":388,"slotNo":82326318,"epochSlotNo":73518,"stakeKey":"stake1uyrfdn8tyf024hwdtwc97yvfd6z2s8hda3snvy0kt09a26cpxsqf9"}],"totalItems":1647166,"totalPages":82359,"currentPage":0}