{"data":[{"no":381,"status":"SYNCING","blkCount":19312,"outSum":46340346670165051,"txCount":388430,"startTime":"2022/12/11 21:51:19","endTime":"2022/12/16 12:14:56","maxSlot":432000},{"no":380,"status":"FINISHED","blkCount":21270,"outSum":48309292267597435,"txCount":331323,"startTime":"2022/12/06 21:45:07","endTime":"2022/12/11 21:44:45","maxSlot":432000},{"no":379,"status":"FINISHED","blkCount":20948,"outSum":64897975428998694,"txCount":338491,"startTime":"2022/12/01 21:45:29","endTime":"2022/12/06 21:43:55","maxSlot":432000},{"no":378,"status":"FINISHED","blkCount":21006,"outSum":58501201469563183,"txCount":341268,"startTime":"2022/11/26 21:45:36","endTime":"2022/12/01 21:43:59","maxSlot":432000},{"no":377,"status":"FINISHED","blkCount":21014,"outSum":91517863973336268,"txCount":427507,"startTime":"2022/11/21 21:50:06","endTime":"2022/11/26 21:44:28","maxSlot":432000},{"no":376,"status":"FINISHED","blkCount":20525,"outSum":66095389145226043,"txCount":394766,"startTime":"2022/11/16 21:46:42","endTime":"2022/11/21 21:44:19","maxSlot":432000},{"no":375,"status":"FINISHED","blkCount":20731,"outSum":88897116679395604,"txCount":367258,"startTime":"2022/11/11 21:48:29","endTime":"2022/11/16 21:44:38","maxSlot":432000},{"no":374,"status":"FINISHED","blkCount":20881,"outSum":75810590162751187,"txCount":363881,"startTime":"2022/11/06 21:44:51","endTime":"2022/11/11 21:44:47","maxSlot":432000},{"no":373,"status":"FINISHED","blkCount":21095,"outSum":49607685362391189,"txCount":417406,"startTime":"2022/11/01 21:44:51","endTime":"2022/11/06 21:44:46","maxSlot":432000},{"no":372,"status":"FINISHED","blkCount":21095,"outSum":51207060825725877,"txCount":428636,"startTime":"2022/10/27 21:44:55","endTime":"2022/11/01 21:44:35","maxSlot":432000}],"totalItems":382,"totalPages":39,"currentPage":0}