{"data":[{"hash":"4d37285cd151ba17d1197fc3cd5249d14e1017bd65e761684e61b26c9c347454","blockNo":8068874,"blockHash":"3ad371829256187fd98862d23d7938bed841347dbdfe16175fc99d9041db7443","epochNo":378,"epochSlotNo":94301,"slot":78027101,"time":"2022/11/27 23:56:32","addressesInput":["addr1vyhkz86qas60xzjfay248gqqjj7u85c3lawqslwh2k5qjhq2px8dq","addr1vyhkz86qas60xzjfay248gqqjj7u85c3lawqslwh2k5qjhq2px8dq"],"addressesOutput":["addr1qx798fy0yhu89padys3x3q2rkvtv8u5reteml2jt3x3ufawzv4ccg2njc53682xcnkfhst9n406929nn06p7w98sde6q6ct3vt","addr1qy6d2nxm8m4qrfmh0vzagwnshqw3c0wfa9d24t3jvfvelyds76cdxgweh46echgm7ta0aejmq2gdgqmy6yrygxu0h66qfn94kj","addr1vyhkz86qas60xzjfay248gqqjj7u85c3lawqslwh2k5qjhq2px8dq"],"fee":212581,"totalOutput":5938189,"tokens":[]},{"hash":"fbf77568b6031ece5aefdc3a23f62010fbade26a5bb149143bedb2e3b212afad","blockNo":8068874,"blockHash":"3ad371829256187fd98862d23d7938bed841347dbdfe16175fc99d9041db7443","epochNo":378,"epochSlotNo":94301,"slot":78027101,"time":"2022/11/27 23:56:32","addressesInput":["addr1zyq0kyrml023kwjk8zr86d5gaxrt5w8lxnah8r6m6s4jp4g3r6dxnzml343sx8jweqn4vn3fz2kj8kgu9czghx0jrsyqqktyhv","addr1zyq0kyrml023kwjk8zr86d5gaxrt5w8lxnah8r6m6s4jp4g3r6dxnzml343sx8jweqn4vn3fz2kj8kgu9czghx0jrsyqqktyhv","addr1qxx303w2qjnsj780l5f0cz4ez25z4qhaanhhhj3zldar8w4cvtjm8enawhyjjkcf6eves2cwz4c8y9tvhjuzpvmu4rwsdz70kz","addr1qxx303w2qjnsj780l5f0cz4ez25z4qhaanhhhj3zldar8w4cvtjm8enawhyjjkcf6eves2cwz4c8y9tvhjuzpvmu4rwsdz70kz"],"addressesOutput":["addr1qxx303w2qjnsj780l5f0cz4ez25z4qhaanhhhj3zldar8w4cvtjm8enawhyjjkcf6eves2cwz4c8y9tvhjuzpvmu4rwsdz70kz","addr1qxx303w2qjnsj780l5f0cz4ez25z4qhaanhhhj3zldar8w4cvtjm8enawhyjjkcf6eves2cwz4c8y9tvhjuzpvmu4rwsdz70kz","addr1zyq0kyrml023kwjk8zr86d5gaxrt5w8lxnah8r6m6s4jp4g3r6dxnzml343sx8jweqn4vn3fz2kj8kgu9czghx0jrsyqqktyhv","addr1q9y8r6tk39mqqqj2ew5s2w95tyuyc6hpw6cdsp7vmlusnrcahfg5jyfpuj660u2w658mhglrxg83k58chgvmcx2ch3vqx7vyw2"],"fee":704299,"totalOutput":732963663,"tokens":[]},{"hash":"f5ca44d0e4138e8e2a5076d36702dd2309d4c0bf3c98103d4c5072c1021de8aa","blockNo":8068874,"blockHash":"3ad371829256187fd98862d23d7938bed841347dbdfe16175fc99d9041db7443","epochNo":378,"epochSlotNo":94301,"slot":78027101,"time":"2022/11/27 23:56:32","addressesInput":["addr1vyze4nnzuwsxj99h79a5ds6jpmgw30yxhqnmc8zl5cjwsag8nk99g"],"addressesOutput":["addr1q924pmx85yq8hkkmdrtduajukzkh47yegue8egus9g2uul28vlj6mprc209amzs3sh7zxgrhc9p2cvdk8ep6f9gpazxq7haakf","addr1vxrmu3m2cc5k6xltupj86a2uzcuq8r4nhznrhfq0pkwl4hgqj2v8w","addr1qx80kwgljhvj2j9ycxp8unt8dudgd65gjk9054pvfvgs6re37y64hguxfqj55ruvfy3a5kdqawhjaq8mjqlgyqrcyqmsalwzpc"],"fee":209149,"totalOutput":49790851,"tokens":[]},{"hash":"f02868d83eb48191880962d5f341cccc8055d72f60bce5e11566635a2f5da617","blockNo":8068874,"blockHash":"3ad371829256187fd98862d23d7938bed841347dbdfe16175fc99d9041db7443","epochNo":378,"epochSlotNo":94301,"slot":78027101,"time":"2022/11/27 23:56:32","addressesInput":["addr1wy30zf2g4xc7v872fdweewrlj3lh2lgttelmydn0cvhyplsg3vnkq","addr1q9ygztsgm32z3z8fhcvthdhn5auge4ec8kt5w7znv9t297ywgvm62x2cadwrfvu5w06njk2qqzxg8aykvk24ppxy3e8qkf6rma"],"addressesOutput":["addr1q9ygztsgm32z3z8fhcvthdhn5auge4ec8kt5w7znv9t297ywgvm62x2cadwrfvu5w06njk2qqzxg8aykvk24ppxy3e8qkf6rma","addr1wy30zf2g4xc7v872fdweewrlj3lh2lgttelmydn0cvhyplsg3vnkq"],"fee":837149,"totalOutput":17254665,"tokens":[]},{"hash":"2608315ebec12ba0be3a4dcbd2a3bc14ec93f863c24e78ccc6fc074591e0ae80","blockNo":8068874,"blockHash":"3ad371829256187fd98862d23d7938bed841347dbdfe16175fc99d9041db7443","epochNo":378,"epochSlotNo":94301,"slot":78027101,"time":"2022/11/27 23:56:32","addressesInput":["addr1qy2ykg43ymez84py7ar2e7f3s3e6dadzldn6wv9ncxw3440w9rsvzy7yhnu7xqz6vz4lq967rj6q45h48ruv6aeak09smjcxm7","addr1qy2ykg43ymez84py7ar2e7f3s3e6dadzldn6wv9ncxw3440w9rsvzy7yhnu7xqz6vz4lq967rj6q45h48ruv6aeak09smjcxm7","addr1qy2ykg43ymez84py7ar2e7f3s3e6dadzldn6wv9ncxw3440w9rsvzy7yhnu7xqz6vz4lq967rj6q45h48ruv6aeak09smjcxm7","addr1qy2ykg43ymez84py7ar2e7f3s3e6dadzldn6wv9ncxw3440w9rsvzy7yhnu7xqz6vz4lq967rj6q45h48ruv6aeak09smjcxm7","addr1qy2ykg43ymez84py7ar2e7f3s3e6dadzldn6wv9ncxw3440w9rsvzy7yhnu7xqz6vz4lq967rj6q45h48ruv6aeak09smjcxm7","addr1qy2ykg43ymez84py7ar2e7f3s3e6dadzldn6wv9ncxw3440w9rsvzy7yhnu7xqz6vz4lq967rj6q45h48ruv6aeak09smjcxm7","addr1qy2ykg43ymez84py7ar2e7f3s3e6dadzldn6wv9ncxw3440w9rsvzy7yhnu7xqz6vz4lq967rj6q45h48ruv6aeak09smjcxm7","addr1qy2ykg43ymez84py7ar2e7f3s3e6dadzldn6wv9ncxw3440w9rsvzy7yhnu7xqz6vz4lq967rj6q45h48ruv6aeak09smjcxm7","addr1qy2ykg43ymez84py7ar2e7f3s3e6dadzldn6wv9ncxw3440w9rsvzy7yhnu7xqz6vz4lq967rj6q45h48ruv6aeak09smjcxm7","addr1qy2ykg43ymez84py7ar2e7f3s3e6dadzldn6wv9ncxw3440w9rsvzy7yhnu7xqz6vz4lq967rj6q45h48ruv6aeak09smjcxm7","addr1qy2ykg43ymez84py7ar2e7f3s3e6dadzldn6wv9ncxw3440w9rsvzy7yhnu7xqz6vz4lq967rj6q45h48ruv6aeak09smjcxm7","addr1qy2ykg43ymez84py7ar2e7f3s3e6dadzldn6wv9ncxw3440w9rsvzy7yhnu7xqz6vz4lq967rj6q45h48ruv6aeak09smjcxm7"],"addressesOutput":["addr1zxgx3far7qygq0k6epa0zcvcvrevmn0ypsnfsue94nsn3tvpw288a4x0xf8pxgcntelxmyclq83s0ykeehchz2wtspks905plm","addr1qy2ykg43ymez84py7ar2e7f3s3e6dadzldn6wv9ncxw3440w9rsvzy7yhnu7xqz6vz4lq967rj6q45h48ruv6aeak09smjcxm7"],"fee":319765,"totalOutput":191208662,"tokens":[]},{"hash":"8641152a5d31c89d0f3c6f628d6aaf307982986be86890663bf95daf85ede6a2","blockNo":8068874,"blockHash":"3ad371829256187fd98862d23d7938bed841347dbdfe16175fc99d9041db7443","epochNo":378,"epochSlotNo":94301,"slot":78027101,"time":"2022/11/27 23:56:32","addressesInput":["addr1qxeugc32x6gxqfm6xe0p3q4vzn5p3hdykeychhxmh2043fqaz2s0jvfkvtnl6uauda23mjuxdjvr0rxtstvn62v5sw0qjt0rkz","addr1z8nvjzjeydcn4atcd93aac8allvrpjn7pjr2qsweukpnaytpq3ryg76qvca5eu9c6py33ncg8zf09nh7gy2cvdps2yeqlvvkfh","addr1wxr2a8htmzuhj39y2gq7ftkpxv98y2g67tg8zezthgq4jkg0a4ul4"],"addressesOutput":["addr1z8nvjzjeydcn4atcd93aac8allvrpjn7pjr2qsweukpnaytpq3ryg76qvca5eu9c6py33ncg8zf09nh7gy2cvdps2yeqlvvkfh","addr1qx2zwkzqy6xkk8h4meurt9k4qxp6aj55yau5gggdu03wuvxjdw0xgl6wdcv2gzpdwe6k5elvtpgn2rhayulmnvaymfnq8w52e7","addr1qxeugc32x6gxqfm6xe0p3q4vzn5p3hdykeychhxmh2043fqaz2s0jvfkvtnl6uauda23mjuxdjvr0rxtstvn62v5sw0qjt0rkz"],"fee":806190,"totalOutput":42202837590,"tokens":[]},{"hash":"9102c4334efb2e856edc74b008ac611023c993cf08406172b7f532e10d5d2373","blockNo":8068874,"blockHash":"3ad371829256187fd98862d23d7938bed841347dbdfe16175fc99d9041db7443","epochNo":378,"epochSlotNo":94301,"slot":78027101,"time":"2022/11/27 23:56:32","addressesInput":["addr1vyze4nnzuwsxj99h79a5ds6jpmgw30yxhqnmc8zl5cjwsag8nk99g"],"addressesOutput":["addr1qy5qpvglj7xcf8rd5cvjawz0r6v8ps7j4ytpn4s4rd2gvf5ta00670gl7yegcdcxpqfqsxm3vu38dcwcq45vwkvewk2q283fmc","addr1vxrmu3m2cc5k6xltupj86a2uzcuq8r4nhznrhfq0pkwl4hgqj2v8w","addr1qx80kwgljhvj2j9ycxp8unt8dudgd65gjk9054pvfvgs6re37y64hguxfqj55ruvfy3a5kdqawhjaq8mjqlgyqrcyqmsalwzpc"],"fee":283905,"totalOutput":249716095,"tokens":[]},{"hash":"5bbca48b0c67b0f9c99625a2db8495338591ed1975099557c3e7bc372939e457","blockNo":8068874,"blockHash":"3ad371829256187fd98862d23d7938bed841347dbdfe16175fc99d9041db7443","epochNo":378,"epochSlotNo":94301,"slot":78027101,"time":"2022/11/27 23:56:32","addressesInput":["addr1qy0z4lef8r9hhus2x2qxq0q8eu6qd7shu69z6v2ejq6edqeepdn8hqzatmw3xl0e5kf8r32stds00g0nly58g0mcs8hs5h7r0a"],"addressesOutput":["addr1qycjcs6dt6gnvdysnh974q9d3hwjs9t28jm9w5ef987yqm2zs83xt8srywz4ccz79jswa9tvjqgv22equ64huq928hrqxgm6d3","addr1qy0z4lef8r9hhus2x2qxq0q8eu6qd7shu69z6v2ejq6edqeepdn8hqzatmw3xl0e5kf8r32stds00g0nly58g0mcs8hs5h7r0a"],"fee":179493,"totalOutput":3172135,"tokens":[]},{"hash":"cda65e0106832417a00fa624277e6a164aa721d93322b9e46068c0f2bdd84f63","blockNo":8068874,"blockHash":"3ad371829256187fd98862d23d7938bed841347dbdfe16175fc99d9041db7443","epochNo":378,"epochSlotNo":94301,"slot":78027101,"time":"2022/11/27 23:56:32","addressesInput":["addr1vxg4dazeyyzc40g26ty22uyz5nrnax4gmyfj8m87xl44wvsw3pyfp","addr1vxg4dazeyyzc40g26ty22uyz5nrnax4gmyfj8m87xl44wvsw3pyfp"],"addressesOutput":["addr1qxvtn7afvtrrysd4ypvvk0r8r4tstw833zryxxdx2456mvvuhf7rfqk6qzgtgjp4a79dhr6yzqhst0xw3sd009jn3d2sv6ylnr","addr1vxg4dazeyyzc40g26ty22uyz5nrnax4gmyfj8m87xl44wvsw3pyfp"],"fee":202593,"totalOutput":21279236,"tokens":[]},{"hash":"b655d576281d4f2348eab3f4f4a32c994d07d55cd6d5242e0217f830ebf8d43b","blockNo":8068874,"blockHash":"3ad371829256187fd98862d23d7938bed841347dbdfe16175fc99d9041db7443","epochNo":378,"epochSlotNo":94301,"slot":78027101,"time":"2022/11/27 23:56:32","addressesInput":["addr1vx7v54cpsnz4nkjna9thxpl8wxsspds9mah8g24z2lm42vcfrza7u"],"addressesOutput":["addr1qx5vhk9qnkf6d76m8hgffxyhgz0j339l5n2qju6vmu2c70jwq3edawek77k4xvss77kvva68el83sf93hq58q6dh5vascqn26g"],"fee":213373,"totalOutput":1786627,"tokens":[]},{"hash":"7d46ea7f01ef686abc4eaa476a1d55b9ad61adea37831c807b13a8df9685457d","blockNo":8068874,"blockHash":"3ad371829256187fd98862d23d7938bed841347dbdfe16175fc99d9041db7443","epochNo":378,"epochSlotNo":94301,"slot":78027101,"time":"2022/11/27 23:56:32","addressesInput":["addr1q9vx26nurshuqexgzqmppz6y0fhqs05uh6qsw5psujqkazlyemg3y5ypv2emr53vuvl6vs7ujwfu3g0mlcar06qqhpmsywlcxs","addr1q9vx26nurshuqexgzqmppz6y0fhqs05uh6qsw5psujqkazlyemg3y5ypv2emr53vuvl6vs7ujwfu3g0mlcar06qqhpmsywlcxs","addr1zxgx3far7qygq0k6epa0zcvcvrevmn0ypsnfsue94nsn3tvpw288a4x0xf8pxgcntelxmyclq83s0ykeehchz2wtspks905plm"],"addressesOutput":["addr1qxduwnrdygh5lty38mhgfyzlkye226ufandj3xdzp60ay6mr8m295kxv2qcqwqfmrnhwxg7l6nw5lgeu93d20zd5cl9qykc9sq","addr1q9cwvremt6n320s2e3agq0jyq82yhrk3htsu0w426xnz5us70z4w0jgvcdkkynmm8wmds66jd9kusnjfpu6raw5fqp0sr07p5w","addr1qyeaw5rujldtet7a78e7wvlla00xggjegkfugsykaf42ekct5z68wthmgd8rpajqx4qe24xrhjjjkq24upadvue6kkcswhylfq","addr1q9vx26nurshuqexgzqmppz6y0fhqs05uh6qsw5psujqkazlyemg3y5ypv2emr53vuvl6vs7ujwfu3g0mlcar06qqhpmsywlcxs","addr1q9vx26nurshuqexgzqmppz6y0fhqs05uh6qsw5psujqkazlyemg3y5ypv2emr53vuvl6vs7ujwfu3g0mlcar06qqhpmsywlcxs"],"fee":404585,"totalOutput":277709586,"tokens":[]},{"hash":"8bc145ab049b999ac47ff768c72305afbe0b75fce404c29210ea3c0809f09683","blockNo":8068874,"blockHash":"3ad371829256187fd98862d23d7938bed841347dbdfe16175fc99d9041db7443","epochNo":378,"epochSlotNo":94301,"slot":78027101,"time":"2022/11/27 23:56:32","addressesInput":["addr1qyht4ja0zcn45qvyx477qlyp6j5ftu5ng0prt9608dxp6l2j2c79gy9l76sdg0xwhd7r0c0kna0tycz4y5s6mlenh8pq4jxtdy","addr1wxn9efv2f6w82hagxqtn62ju4m293tqvw0uhmdl64ch8uwc0h43gt","addr1qyht4ja0zcn45qvyx477qlyp6j5ftu5ng0prt9608dxp6l2j2c79gy9l76sdg0xwhd7r0c0kna0tycz4y5s6mlenh8pq4jxtdy","addr1z8snz7c4974vzdpxu65ruphl3zjdvtxw8strf2c2tmqnxz2j2c79gy9l76sdg0xwhd7r0c0kna0tycz4y5s6mlenh8pq0xmsha"],"addressesOutput":["addr1qyht4ja0zcn45qvyx477qlyp6j5ftu5ng0prt9608dxp6l2j2c79gy9l76sdg0xwhd7r0c0kna0tycz4y5s6mlenh8pq4jxtdy","addr1qyht4ja0zcn45qvyx477qlyp6j5ftu5ng0prt9608dxp6l2j2c79gy9l76sdg0xwhd7r0c0kna0tycz4y5s6mlenh8pq4jxtdy","addr1qxuxmayt3k3kge6vet72na64nsufrjeyklk7a2fsccjz7ytatu399y3syvp3d7lt42ja6y6cytcpk36u93en4xjtevwsewwk6u","addr1z8snz7c4974vzdpxu65ruphl3zjdvtxw8strf2c2tmqnxz2j2c79gy9l76sdg0xwhd7r0c0kna0tycz4y5s6mlenh8pq0xmsha"],"fee":810354,"totalOutput":20466541708,"tokens":[]},{"hash":"fae82e8c29cc2495d6d97a62f99968c180600a9f55a3eac5b4de0acbe60d5e57","blockNo":8068873,"blockHash":"d9a5deb9a6ac54ff0cd8323b9f5ecea6667124712f7edcd57d652602a8953f46","epochNo":378,"epochSlotNo":94285,"slot":78027085,"time":"2022/11/27 23:56:16","addressesInput":["addr1qxpyvjn0l0ywre868xd8ypsc780z7j2muttfk2eqkpc7pcu9p9z7n45dnr4wkufde0zxws24vhuvle4al5979lfwsn7q474gt4","addr1qxpyvjn0l0ywre868xd8ypsc780z7j2muttfk2eqkpc7pcu9p9z7n45dnr4wkufde0zxws24vhuvle4al5979lfwsn7q474gt4","addr1qxpyvjn0l0ywre868xd8ypsc780z7j2muttfk2eqkpc7pcu9p9z7n45dnr4wkufde0zxws24vhuvle4al5979lfwsn7q474gt4"],"addressesOutput":["addr1v9ywm0h3r8cnxrs04gfy7c3s2j44utjyvn5ldjdca0c2ltccgqdes","addr1qxpyvjn0l0ywre868xd8ypsc780z7j2muttfk2eqkpc7pcu9p9z7n45dnr4wkufde0zxws24vhuvle4al5979lfwsn7q474gt4"],"fee":344765,"totalOutput":356099945,"tokens":[]},{"hash":"ffdb5dc3d43eac445c5c5544f107b67e15c4a7a189669e7010e6d6f6e3f50434","blockNo":8068873,"blockHash":"d9a5deb9a6ac54ff0cd8323b9f5ecea6667124712f7edcd57d652602a8953f46","epochNo":378,"epochSlotNo":94285,"slot":78027085,"time":"2022/11/27 23:56:16","addressesInput":["addr1v8fkdc0lpf4r84qla6dq3kefm325yy5csst90j3pkfzmdhshzvwr3","addr1wxgg25t3tk30jqzl2elqz94lzgmr8a9c9m5z902ds5sjh0g7uaj8z","addr1v8pr9mwnqarw808gtllvmlxvk70hnszrukjeqfstr9t9g5crud8c4","addr1w9xc5279jqxql020jp295d377nqrms826gnhgqxt5g5m9dqlfqf3f","addr1w9thy3udu58yxqthaqn8vhvh6q9uvmm9y2rrwktnecjrt8gh44tx8","addr1w94tcvd04rvkpa7c6057fq6sfxqcpu7q539gdskvx8jz0zgld4mju","addr1wxcpjfdxav75dfr2m653l2pf38q5juwz8fst6v5sqdcjsns74jyxe","addr1w8d53566qrlwdgnv2x9rjn98rmlwz7ff58rrrwglwau27dssx37uq","addr1w80k8xe6vckm3qgklhw98tqjekfvw3mgwux3stmtq3jlprga3u33c","addr1wxau62drpn3e832yqhhjqjvw3qxuztuns2f93qvzq5w78qsavxpmv","addr1vx4jk8lm4g4v599naghweh387xtn5npshcl8w2drq306k2q6wpuv6","addr1vywcsrsp8nhtrgxmtk9hrfhaa5kvrufzk020r8k4q6n8afqv972z4","addr1w93qsc75lzf3zsdrsmux7u5w727flt5qvxgk45u0lwa93rcdjsyjq","addr1wyunayz9dmalcsh2f2ey3hmtszgt278yhrhfwszkw20ph2cqetfsl","addr1w835n68qeax023uperwgwlruk3d8yjl4k98r433nhw5waqgkx8prf","addr1vy3qpx09uscywhppj5vp08hu0ekg9zwmq2ysfq6qyh2mpps865j6t","addr1w8n8hyq3zc9eugnav265f8549nagc7ejdg2euhrvyzh5q0szhc5kw","addr1w8tqqyccvj7402zns2tea78d42etw520fzvf22zmyasjdtsv3e5rz","addr1w8usfr3avzl8qh5wm9wcy8uv7cr800ft5vjz5dw3pxeh8fgdp6e6r","addr1w92fpglpvanf795jm76q0nskx0tu6z5jpqph4n8dzvksyfcrtkfwy","addr1w84y5t5l32s9raedcegt64qfa2kseexgjqlqs3qg2akclqsatc9jv","addr1wxje849hq4nmnqs8u3s3tdhyjum7sw4y9j29hlmh6x944cg7xdmn6","addr1w9xnt8ucaje6tevrafvtcc0yzs8d9m3ck67uvmperh29v0ckjalnj","addr1wy96wdkpq2t6yf25epwtauad3kj24yrx5rk4vnmnczujknc8tptgn","addr1wxkajet4zhhuylr6475ykqerll0gl8x8v8kgmnrpxt2vrwq2eh67y","addr1w8vh8ssekk52ye3pt7a2j8upv3qphzmar2sj68353xds9lq5urex7","addr1v97eejjl3a6ypd0cmhnhmnsduqaaegsx35m7j9n48lan02cuc53ah","addr1w8dmtwktj7lktd0zv0wpxuny590ndshmj3z8xxmq3tjyvdggs35jy"],"addressesOutput":["addr1vy3qpx09uscywhppj5vp08hu0ekg9zwmq2ysfq6qyh2mpps865j6t","addr1v8pr9mwnqarw808gtllvmlxvk70hnszrukjeqfstr9t9g5crud8c4","addr1q9pzspns896ygmjcxtsncvx4djhj2qlwz9hlctg2uklyjj70r4k5z0yf9uacdmt42j6elufkp95flw4898j58s7ph7qs3vag04","addr1q90z88w0ze3l9pwj7d3m2suhrsrxru58xtjkwsannq64j38gy2qj6jljcnftvxf854ezsw0xwv8s43wnrm8j2jzrmxsqcx967u","addr1qxsmx974uqfsppacrnrycw5rzqdcjgt5u08sjlresxk0rgvy0rcqr0hvynplf5y0gcv7q5v59dyjzk02nlwyvgrvzyaqs6qyyd","addr1q9kg8x9hlg7g2l9nj6cxuffm6ajunsu2dhffexda5vyfnsg4atcxw3c7rfsw89h3c0df3npsrt4y7lw8q8cfx05vevssan7mp0","addr1w92fpglpvanf795jm76q0nskx0tu6z5jpqph4n8dzvksyfcrtkfwy","addr1w8usfr3avzl8qh5wm9wcy8uv7cr800ft5vjz5dw3pxeh8fgdp6e6r","addr1wxcpjfdxav75dfr2m653l2pf38q5juwz8fst6v5sqdcjsns74jyxe","addr1w80k8xe6vckm3qgklhw98tqjekfvw3mgwux3stmtq3jlprga3u33c","addr1w93qsc75lzf3zsdrsmux7u5w727flt5qvxgk45u0lwa93rcdjsyjq","addr1wyunayz9dmalcsh2f2ey3hmtszgt278yhrhfwszkw20ph2cqetfsl","addr1wy96wdkpq2t6yf25epwtauad3kj24yrx5rk4vnmnczujknc8tptgn","addr1w8d53566qrlwdgnv2x9rjn98rmlwz7ff58rrrwglwau27dssx37uq","addr1w9thy3udu58yxqthaqn8vhvh6q9uvmm9y2rrwktnecjrt8gh44tx8","addr1w8tqqyccvj7402zns2tea78d42etw520fzvf22zmyasjdtsv3e5rz","addr1w9xc5279jqxql020jp295d377nqrms826gnhgqxt5g5m9dqlfqf3f","addr1wxkajet4zhhuylr6475ykqerll0gl8x8v8kgmnrpxt2vrwq2eh67y","addr1w8n8hyq3zc9eugnav265f8549nagc7ejdg2euhrvyzh5q0szhc5kw","addr1w9xnt8ucaje6tevrafvtcc0yzs8d9m3ck67uvmperh29v0ckjalnj","addr1w835n68qeax023uperwgwlruk3d8yjl4k98r433nhw5waqgkx8prf","addr1w8dmtwktj7lktd0zv0wpxuny590ndshmj3z8xxmq3tjyvdggs35jy","addr1w94tcvd04rvkpa7c6057fq6sfxqcpu7q539gdskvx8jz0zgld4mju","addr1w84y5t5l32s9raedcegt64qfa2kseexgjqlqs3qg2akclqsatc9jv","addr1wxgg25t3tk30jqzl2elqz94lzgmr8a9c9m5z902ds5sjh0g7uaj8z","addr1wxje849hq4nmnqs8u3s3tdhyjum7sw4y9j29hlmh6x944cg7xdmn6","addr1w8vh8ssekk52ye3pt7a2j8upv3qphzmar2sj68353xds9lq5urex7","addr1wxau62drpn3e832yqhhjqjvw3qxuztuns2f93qvzq5w78qsavxpmv"],"fee":596789,"totalOutput":4405222065,"tokens":[]},{"hash":"b0269fd0c888ca19c875aa738a90b971934f8623c5f14549d0cf8a38dbe9d798","blockNo":8068872,"blockHash":"276b442569aed706acf564167b7beaff065e6ebf46b6b147d70969d48f931d64","epochNo":378,"epochSlotNo":94283,"slot":78027083,"time":"2022/11/27 23:56:14","addressesInput":["addr1q9s6acp7hcxz5jmdcpak06k5nvdl3txjw5fhe6aye063tmhwccz8z6krvwvnvlmpewgz9skhcvl4230hl7g26njqa57sydppm5","addr1q9s6acp7hcxz5jmdcpak06k5nvdl3txjw5fhe6aye063tmhwccz8z6krvwvnvlmpewgz9skhcvl4230hl7g26njqa57sydppm5"],"addressesOutput":["addr1wxn9efv2f6w82hagxqtn62ju4m293tqvw0uhmdl64ch8uwc0h43gt","addr1q9s6acp7hcxz5jmdcpak06k5nvdl3txjw5fhe6aye063tmhwccz8z6krvwvnvlmpewgz9skhcvl4230hl7g26njqa57sydppm5","addr1q9s6acp7hcxz5jmdcpak06k5nvdl3txjw5fhe6aye063tmhwccz8z6krvwvnvlmpewgz9skhcvl4230hl7g26njqa57sydppm5"],"fee":189965,"totalOutput":299170138,"tokens":[]},{"hash":"09644ae4976d807d33995c46aae0a4ccf256209f178449152629b2b12252fd7c","blockNo":8068872,"blockHash":"276b442569aed706acf564167b7beaff065e6ebf46b6b147d70969d48f931d64","epochNo":378,"epochSlotNo":94283,"slot":78027083,"time":"2022/11/27 23:56:14","addressesInput":["addr1qxuy470y5a8l7z25zwlp0yrlcv4w2u7xpt8yswaymfu6szd4zhhackktsgq8sgm4tcg6wppj69vxny5lhuzmw23v4vhs7llant","addr1q9a92869pg3cv7zhsk22ujzcfft0rqglck5485jvkq6xht44zhhackktsgq8sgm4tcg6wppj69vxny5lhuzmw23v4vhsr48wd7"],"addressesOutput":["addr1zxgx3far7qygq0k6epa0zcvcvrevmn0ypsnfsue94nsn3tvpw288a4x0xf8pxgcntelxmyclq83s0ykeehchz2wtspks905plm","addr1qxuy470y5a8l7z25zwlp0yrlcv4w2u7xpt8yswaymfu6szd4zhhackktsgq8sgm4tcg6wppj69vxny5lhuzmw23v4vhs7llant"],"fee":211657,"totalOutput":41633938,"tokens":[]},{"hash":"373516d546ace252d08c62f35f2684f4fa8e743ddb387944b0578758311d5ac7","blockNo":8068872,"blockHash":"276b442569aed706acf564167b7beaff065e6ebf46b6b147d70969d48f931d64","epochNo":378,"epochSlotNo":94283,"slot":78027083,"time":"2022/11/27 23:56:14","addressesInput":["addr1v8v3auqmw0eszza3ww29ea2pwftuqrqqyu26zvzjq9dt2ncydzvs5"],"addressesOutput":["addr1q9uyxdesja5l372704hmyp2e2rwc3vucuq2gwq5urgt2zkyc8f90fz8j90qc644jc3xc859mg9srt39csrv6ulfza30sdng4w5","addr1v8v3auqmw0eszza3ww29ea2pwftuqrqqyu26zvzjq9dt2ncydzvs5"],"fee":171221,"totalOutput":11267473726,"tokens":[]},{"hash":"a7d13cd5c6760d3d55231c8471483c590d0d4a2c5cedc31c04af86eca8706f5f","blockNo":8068871,"blockHash":"83cdedd0c0c155006e8fbbf2b677b0b274b7008f527a304aa36f59163ecab7ac","epochNo":378,"epochSlotNo":94280,"slot":78027080,"time":"2022/11/27 23:56:11","addressesInput":["addr1q8mwvh0c4esusk3xu9m3fjnrqcemxd63azgsmlsupwevqacg24kwdd7zncegypna0mnchzg8jrpk4tadavj9wapgmscq8uapmr"],"addressesOutput":["addr1qylrv5dtqzk3k7zuzl2yw448jm3hztvs04wxjcalyrj754vm35nlydhlkkuzd0lfhg8zp82wzttusnd2atx9tqyg9kfszr40f6","addr1q8hyq5g56qzvv3xk2dnzchagtg2c6ukvhgze5j6vhkwyhfqg24kwdd7zncegypna0mnchzg8jrpk4tadavj9wapgmscqlxgrgu"],"fee":168317,"totalOutput":81856908,"tokens":[]},{"hash":"0398a6cfa3ae5a3d2f11b1410afe9077a513e680a43cd6dfc456e56b51ebf3c5","blockNo":8068871,"blockHash":"83cdedd0c0c155006e8fbbf2b677b0b274b7008f527a304aa36f59163ecab7ac","epochNo":378,"epochSlotNo":94280,"slot":78027080,"time":"2022/11/27 23:56:11","addressesInput":["addr1qxx2yt5g9vffc9q5dmsy5w2z7jty49yd5ey57l4m0pa33qrhj5u3687puld2aekaqc8uzegawrjnmq737tmf20y5740sr5nwll","addr1q98npf036xnv8km4d0sl3z6vtkzsxwpd7xw4hg9ws6rcruthj5u3687puld2aekaqc8uzegawrjnmq737tmf20y5740skwxlj0","addr1qxx2yt5g9vffc9q5dmsy5w2z7jty49yd5ey57l4m0pa33qrhj5u3687puld2aekaqc8uzegawrjnmq737tmf20y5740sr5nwll"],"addressesOutput":["addr1wxn9efv2f6w82hagxqtn62ju4m293tqvw0uhmdl64ch8uwc0h43gt","addr1qxx2yt5g9vffc9q5dmsy5w2z7jty49yd5ey57l4m0pa33qrhj5u3687puld2aekaqc8uzegawrjnmq737tmf20y5740sr5nwll","addr1q9kr3yaxsf7eqwaldrvdlp3hfr2dy0579p8zrwsjjyhk78nhj5u3687puld2aekaqc8uzegawrjnmq737tmf20y5740sfvghyg"],"fee":218785,"totalOutput":27443115,"tokens":[]},{"hash":"a227106672e3654e1f1a0e9058e2951843656f77cc28a00e1561e03be2e1d421","blockNo":8068871,"blockHash":"83cdedd0c0c155006e8fbbf2b677b0b274b7008f527a304aa36f59163ecab7ac","epochNo":378,"epochSlotNo":94280,"slot":78027080,"time":"2022/11/27 23:56:11","addressesInput":["addr1zxgx3far7qygq0k6epa0zcvcvrevmn0ypsnfsue94nsn3tvpw288a4x0xf8pxgcntelxmyclq83s0ykeehchz2wtspks905plm","addr1q99j0k4ej7ta3njl8486wyntychgudqcdvatjykxwvujccfxc5mdgasaldtrp8x3ndy37f3axelppdc8ztpa2k586kkqhxvy8q","addr1q99j0k4ej7ta3njl8486wyntychgudqcdvatjykxwvujccfxc5mdgasaldtrp8x3ndy37f3axelppdc8ztpa2k586kkqhxvy8q"],"addressesOutput":["addr1q99j0k4ej7ta3njl8486wyntychgudqcdvatjykxwvujccfxc5mdgasaldtrp8x3ndy37f3axelppdc8ztpa2k586kkqhxvy8q","addr1q99j0k4ej7ta3njl8486wyntychgudqcdvatjykxwvujccfxc5mdgasaldtrp8x3ndy37f3axelppdc8ztpa2k586kkqhxvy8q","addr1q99j0k4ej7ta3njl8486wyntychgudqcdvatjykxwvujccfxc5mdgasaldtrp8x3ndy37f3axelppdc8ztpa2k586kkqhxvy8q"],"fee":276777,"totalOutput":524024208,"tokens":[]}],"totalItems":55546748,"totalPages":2777338,"currentPage":0}