{"data":[{"blockNo":6806346,"slotNo":51687211,"epochNo":317,"epochSlotNo":106411,"hash":"5fe931ab432b3584c5fa23777a149d9526ee38eca520108ddafbd6d67f81a8a0","time":"2022/01/27 03:18:22","txCount":37,"totalFees":13569639,"totalOutput":355995185500,"slotLeader":"33c1bf1a04ba85d8fd6119a08ee7f4ad659add075e2208b28862a2a1"},{"blockNo":6806345,"slotNo":51687192,"epochNo":317,"epochSlotNo":106392,"hash":"37796e1391eb572f5e6df1f4ce10f9a051d54196d669277b539fa37545c11a40","time":"2022/01/27 03:18:03","txCount":40,"totalFees":15113562,"totalOutput":18409387573,"slotLeader":"e645c034522f32522bf1c64a7f46128c562880abc26abe5f65f25a84"},{"blockNo":6806344,"slotNo":51687190,"epochNo":317,"epochSlotNo":106390,"hash":"f0dbc5fe682a770a9a5ab3afde1501588bb04e593a87fe15c1ba818884e34213","time":"2022/01/27 03:18:01","txCount":53,"totalFees":14066199,"totalOutput":341638891681,"slotLeader":"7113de447fb62c38e3e3aeec434cac6fc76e05e997b84227e9c637b8"},{"blockNo":6806343,"slotNo":51687131,"epochNo":317,"epochSlotNo":106331,"hash":"bddb122140a468c0a312705459374303e1263b2da26d3d65910152de94084b60","time":"2022/01/27 03:17:02","txCount":37,"totalFees":13358190,"totalOutput":95991055038,"slotLeader":"7d7ac07a2f2a25b7a4db868a40720621c4939cf6aefbb9a11464f1a6"},{"blockNo":6806342,"slotNo":51687125,"epochNo":317,"epochSlotNo":106325,"hash":"a5f9ba2fe96ade382ed590766b96ac50b151a3fdd1d3b94f77c875cb16535f05","time":"2022/01/27 03:16:56","txCount":55,"totalFees":14928261,"totalOutput":2141088229455,"slotLeader":"50e113d1ada46a83a16d5ee6cfdc1a8baed6634c9f046ed30131eb11"},{"blockNo":6806341,"slotNo":51687082,"epochNo":317,"epochSlotNo":106282,"hash":"6b668467448181fbbb8de4237817dfae1f4250aed6ad192ae140391d672fd3e9","time":"2022/01/27 03:16:13","txCount":61,"totalFees":16951778,"totalOutput":2328219018514,"slotLeader":"a532904ca60e13e88437b58e7c6ff66b8d5e7ec8d3f4b9e4be7820ec"},{"blockNo":6806340,"slotNo":51687068,"epochNo":317,"epochSlotNo":106268,"hash":"12c46c062ac1bec99c64e3972a22bdfe1e884850f9e299c6e351d1a586d07edf","time":"2022/01/27 03:15:59","txCount":47,"totalFees":15555352,"totalOutput":576071847389,"slotLeader":"903c38e5905f1587d5ecf8c875a181725fb4b12b3eb06ce1d20bb1c6"},{"blockNo":6806339,"slotNo":51687062,"epochNo":317,"epochSlotNo":106262,"hash":"a4991e41cd87dacfee6f52c35f0d629f3ca637a95149afca8b0f8b94cdca582f","time":"2022/01/27 03:15:53","txCount":26,"totalFees":13673958,"totalOutput":125811173080,"slotLeader":"0c2cfc283e0bbb85b9ef9d852c99ae7ee13f20f36b70fd648c6c3448"},{"blockNo":6806338,"slotNo":51687051,"epochNo":317,"epochSlotNo":106251,"hash":"a98222cbec19a82533fb1cd90fd43ccc7705957a9bfe8948343c50e866c8b2ba","time":"2022/01/27 03:15:42","txCount":51,"totalFees":13081690,"totalOutput":100880176533,"slotLeader":"4a2aa209e00f2926bd0d8a286592bbdea4d35a593c05d41efe29e642"},{"blockNo":6806337,"slotNo":51687021,"epochNo":317,"epochSlotNo":106221,"hash":"f1e7609c8e855ba2b8b701da4386764645c1f195bdb48ad6334753cbe02492c4","time":"2022/01/27 03:15:12","txCount":14,"totalFees":8276848,"totalOutput":6919705911117,"slotLeader":"b6a310df0c12af2bcab4cb1ceef2aea7b52080f1ee114b9eae5465de"}],"totalItems":5010,"totalPages":501,"currentPage":0}