{"data":[{"blockNo":6838380,"slotNo":52367432,"epochNo":318,"epochSlotNo":354632,"hash":"9de0e07bdf8325b6fca59543f5a66f9aeb9ad89e7797e99bbc6995ef68637858","time":"2022/02/04 00:15:23","txCount":18,"totalFees":11249476,"totalOutput":1259093628973,"slotLeader":"2fd4fd5fbfe773a7105bf2e415c51f9943ded365855396e70ae3ca90"},{"blockNo":6838379,"slotNo":52367400,"epochNo":318,"epochSlotNo":354600,"hash":"5b1a833765e3982eb8856e1abba901d200c3c07c27d73ce8958fef25101db47a","time":"2022/02/04 00:14:51","txCount":27,"totalFees":9344466,"totalOutput":1168568618259,"slotLeader":"53215c471b7ac752e3ddf8f2c4c1e6ed111857bfaa675d5e31ce8bce"},{"blockNo":6838378,"slotNo":52367387,"epochNo":318,"epochSlotNo":354587,"hash":"73ac7cc544ddd6f4b6373f672680f3c8580c4177aded0b8efa5543c939f477a9","time":"2022/02/04 00:14:38","txCount":47,"totalFees":13836771,"totalOutput":16400043462,"slotLeader":"d4970177385f7c3c90f51af3dbc4a865221778b48f23e4dc60dd4a67"},{"blockNo":6838377,"slotNo":52367373,"epochNo":318,"epochSlotNo":354573,"hash":"e0278e3b48c851a24c5eceebc94c4eeb16dc08af276729bf311da4e6f7831639","time":"2022/02/04 00:14:24","txCount":34,"totalFees":12760894,"totalOutput":14391737132,"slotLeader":"40ff71258d2c73da9e2a5ee3abb9be256e745e7f74c31eb8d4be5299"},{"blockNo":6838376,"slotNo":52367341,"epochNo":318,"epochSlotNo":354541,"hash":"dd460cdf8498da02aaf795fd9042a75fdfa15042a22a92b06d9dfdf3b30700da","time":"2022/02/04 00:13:52","txCount":22,"totalFees":10875342,"totalOutput":82486431058,"slotLeader":"04c60c78417132a195cbb74975346462410f72612952a7c4ade7e438"},{"blockNo":6838375,"slotNo":52367333,"epochNo":318,"epochSlotNo":354533,"hash":"790ae6a4fd7e6485eab534096510aec36f4fb70c46e8c544b77bbfd0273341cb","time":"2022/02/04 00:13:44","txCount":11,"totalFees":8166831,"totalOutput":391844853388,"slotLeader":"6184f6e7229530a2d1f9f746112406100e2696dd7439ff8c52750700"},{"blockNo":6838374,"slotNo":52367331,"epochNo":318,"epochSlotNo":354531,"hash":"486e0b7e637ffcd9120aa46787b984a129e9ae7c1bbf3ef2edea8c82f93e470b","time":"2022/02/04 00:13:42","txCount":11,"totalFees":6660273,"totalOutput":857965554636,"slotLeader":"41b8741536cd484687a4c3adcdc07211cfce03ca58727212336acc5e"},{"blockNo":6838373,"slotNo":52367316,"epochNo":318,"epochSlotNo":354516,"hash":"e5fc37ad1c32eeb642ce40311be0878e123c4f3f9301ded49860570ab9d91413","time":"2022/02/04 00:13:27","txCount":17,"totalFees":7611731,"totalOutput":1207811709499,"slotLeader":"bdadf198bdc79d4f37c5dcd9ed0cdf402bdc2299c3ae4c87d688a6fe"},{"blockNo":6838372,"slotNo":52367261,"epochNo":318,"epochSlotNo":354461,"hash":"98ddf87cc9174b828575d0e5c37a6071f2837def202063792d1c142a67534293","time":"2022/02/04 00:12:32","txCount":20,"totalFees":9184137,"totalOutput":5159161810,"slotLeader":"0b38a13726b9dc3aa11be08af93003e775d9d62091765e0e1e3d027b"},{"blockNo":6838371,"slotNo":52367256,"epochNo":318,"epochSlotNo":354456,"hash":"16cb6c92fdb6c1ad5c10631f7797ec1088cdb1bfb54c1d47e5ebaa1abd1da8fd","time":"2022/02/04 00:12:27","txCount":28,"totalFees":11820496,"totalOutput":2284448044195,"slotLeader":"72583cf41012446cd1ca839c10049ecd65d31664b11e63d286041d61"}],"totalItems":16566,"totalPages":1657,"currentPage":0}