{"data":[{"blockNo":8237005,"slotNo":81473575,"epochNo":386,"epochSlotNo":84775,"hash":"be0ece78da9eef36850667f902133df76ed710f888446d104449a1997ec982fa","time":"2023/01/06 21:17:46","txCount":5,"totalFees":1342172,"totalOutput":28919156674,"slotLeader":"52e22df52e90370f639c99f5c760f0cd67d7f871cd0d0764fae47cd9"},{"blockNo":8237004,"slotNo":81473572,"epochNo":386,"epochSlotNo":84772,"hash":"d00b04acbc642b43be53054bd05a208f9c08e8062f150708176eba9adca3f414","time":"2023/01/06 21:17:43","txCount":0,"totalFees":0,"totalOutput":0,"slotLeader":"d4a3b639d0f0b050cbfc25dad467af58355f31edbc4959db1cc59051"},{"blockNo":8237003,"slotNo":81473571,"epochNo":386,"epochSlotNo":84771,"hash":"35dc68420b2d90d2ba5431f1e6bcf563d57b4f0b8aad176dbae51d7a79e3fed6","time":"2023/01/06 21:17:42","txCount":29,"totalFees":12928047,"totalOutput":6424435089958,"slotLeader":"fa58244068bef886049b3e8fbba8aa39f227ce78168efdf7629111c5"},{"blockNo":8237002,"slotNo":81473537,"epochNo":386,"epochSlotNo":84737,"hash":"fc31578b78a2d354cb4beb3b70b2fd01e7e2694839d84243878a294e4834ac12","time":"2023/01/06 21:17:08","txCount":12,"totalFees":4077210,"totalOutput":17763806061910,"slotLeader":"d248ded3c18e0e80d07a46f00a2d808075b989ccb1a0e40a76e5cee1"},{"blockNo":8237001,"slotNo":81473535,"epochNo":386,"epochSlotNo":84735,"hash":"fdd0f9ef9317e449bf942feb2862104ab5874cd26c6d350aadffb6af4cead082","time":"2023/01/06 21:17:06","txCount":33,"totalFees":14202332,"totalOutput":2780365518591,"slotLeader":"1c8cd022e993a8366be641c17cb6d9c5d8944e00bfce3189d8b1515a"},{"blockNo":8237000,"slotNo":81473500,"epochNo":386,"epochSlotNo":84700,"hash":"29e879869f350af411cae09a107c532fd3ddcc1c01e0c22df2469f7eb09a71c3","time":"2023/01/06 21:16:31","txCount":18,"totalFees":7050498,"totalOutput":542588305187,"slotLeader":"53215c471b7ac752e3ddf8f2c4c1e6ed111857bfaa675d5e31ce8bce"},{"blockNo":8236999,"slotNo":81473478,"epochNo":386,"epochSlotNo":84678,"hash":"83f41e825248fe2badc4275c83d36c47265ca793bbead25372ebfa747952a0c4","time":"2023/01/06 21:16:09","txCount":0,"totalFees":0,"totalOutput":0,"slotLeader":"72583cf41012446cd1ca839c10049ecd65d31664b11e63d286041d61"},{"blockNo":8236998,"slotNo":81473477,"epochNo":386,"epochSlotNo":84677,"hash":"8caa569719fe811667d15e2f18eb8f7c1932d5b66a1cd9cc30a1442346ad8b3b","time":"2023/01/06 21:16:08","txCount":13,"totalFees":4236952,"totalOutput":59987470137,"slotLeader":"a532904ca60e13e88437b58e7c6ff66b8d5e7ec8d3f4b9e4be7820ec"},{"blockNo":8236997,"slotNo":81473459,"epochNo":386,"epochSlotNo":84659,"hash":"31cefc77309783ced06ef126c2cb25f97049d36a8a139aead2363e1e34a66ca7","time":"2023/01/06 21:15:50","txCount":10,"totalFees":4074309,"totalOutput":860289667407,"slotLeader":"c1011645958df9e805df499bbd30056c83094b99c8effe500350d8da"},{"blockNo":8236996,"slotNo":81473448,"epochNo":386,"epochSlotNo":84648,"hash":"bc29d969f99daeec574dff4ac0bcc25cf139b7d96f3bf91827daeed4162beed4","time":"2023/01/06 21:15:39","txCount":15,"totalFees":6738309,"totalOutput":1957116016751,"slotLeader":"8e0bb9b126acd8e65a023602377d9a7a6f15af394d1f7bdd852182b8"},{"blockNo":8236995,"slotNo":81473429,"epochNo":386,"epochSlotNo":84629,"hash":"9e9611bdbfe7561841431072c9a1d71ad324afbb698c59265eb2f915e3fd272f","time":"2023/01/06 21:15:20","txCount":5,"totalFees":1076834,"totalOutput":9849278717,"slotLeader":"20df8645abddf09403ba2656cda7da2cd163973a5e439c6e43dcbea9"},{"blockNo":8236994,"slotNo":81473426,"epochNo":386,"epochSlotNo":84626,"hash":"ce77aaa4e25d682fb145aa1f5c3c5cac182b27583ac41c05805f6c0dad4f03f5","time":"2023/01/06 21:15:17","txCount":4,"totalFees":2583848,"totalOutput":34598281543,"slotLeader":"625ae8c8aaaead6ceebf262f380245cb61b4a3e96199b27eb9b01ad9"},{"blockNo":8236993,"slotNo":81473423,"epochNo":386,"epochSlotNo":84623,"hash":"22ec8066a5f21996484036e7e1ea4fdeb8de95dcab8e5b73dc7a0a4875d1450f","time":"2023/01/06 21:15:14","txCount":0,"totalFees":0,"totalOutput":0,"slotLeader":"486d217a5ef6e9cb5e46a19900a56b1c1f4f1ec4374b744df5a1ef6a"},{"blockNo":8236992,"slotNo":81473422,"epochNo":386,"epochSlotNo":84622,"hash":"e097455a0411bd25c792f192fd20817e2c6722af73c5ee07647f6be8a8e8e7ae","time":"2023/01/06 21:15:13","txCount":6,"totalFees":2334140,"totalOutput":18113387447232,"slotLeader":"ad1b6687f605b3543f9315a5f966ea70fc5f35e7b2a4c3a943bef78d"},{"blockNo":8236991,"slotNo":81473419,"epochNo":386,"epochSlotNo":84619,"hash":"40a5095176d9090dd615819addec643191b2a4268a1062f98f877c7c4cbed118","time":"2023/01/06 21:15:10","txCount":44,"totalFees":15206446,"totalOutput":271833675044,"slotLeader":"93ca5c2f1eb63054f7c768a807408a43e65d7c68fe56e330db20af51"},{"blockNo":8236990,"slotNo":81473369,"epochNo":386,"epochSlotNo":84569,"hash":"a807847ff39850c1cc39e4e2239e403e2f0aded46cec7fb2a975bfb2b8b67036","time":"2023/01/06 21:14:20","txCount":48,"totalFees":14761231,"totalOutput":307112664463,"slotLeader":"b3f9883d3de29971c43e05fdb985281ffee737be0e5669094810ba6b"},{"blockNo":8236989,"slotNo":81473340,"epochNo":386,"epochSlotNo":84540,"hash":"733baed45d9595186c260daf0a99859cf2670919298b5c81af0c52e734fc7ee4","time":"2023/01/06 21:13:51","txCount":34,"totalFees":11088106,"totalOutput":468979927452,"slotLeader":"1c8cd022e993a8366be641c17cb6d9c5d8944e00bfce3189d8b1515a"},{"blockNo":8236988,"slotNo":81473310,"epochNo":386,"epochSlotNo":84510,"hash":"50f3ebf5440645c16988fc86ce73bef3297f71a80df33fb27aefd6f859d64a9a","time":"2023/01/06 21:13:21","txCount":33,"totalFees":12069985,"totalOutput":504847911467,"slotLeader":"b43a281762c70838ed2363aa76e28eb2212c644bed89bdb3d209bf9f"},{"blockNo":8236987,"slotNo":81473267,"epochNo":386,"epochSlotNo":84467,"hash":"ccc4af87a13cf76f48678f545c27720b661b020b3803f4a941d3b8a123391db6","time":"2023/01/06 21:12:38","txCount":3,"totalFees":1085432,"totalOutput":1426471461,"slotLeader":"3e695a66ff6e2ed3806701bc0f6e8dfc85db114b71864999425147c5"},{"blockNo":8236986,"slotNo":81473263,"epochNo":386,"epochSlotNo":84463,"hash":"d6dd9a1938c81a355697a9a5e231478d145467492c489a8214a3a5489929553c","time":"2023/01/06 21:12:34","txCount":39,"totalFees":11435609,"totalOutput":225818724678,"slotLeader":"a631b46315b1567ef0ce2b2ad4cb63faac09f32ceba6716a7e331e5e"}],"totalItems":8237181,"totalPages":411860,"currentPage":0}