{"data":[{"hash":"29e08d54e32ce05d7c05d089de55d5b233b2f689142b49c13e2a0b62126dcea9","blockNo":8096431,"blockHash":"5da881cdfe1cabb01fe1f4ab7b315ef0e146455cfce746b9071d11aa13779c77","epochNo":379,"epochSlotNo":227371,"slot":78592171,"time":"2022/12/04 12:54:22","addressesInput":["addr1q9xxqzd6stsjqr7ngx97m6fz5mg0e5yzrang7fkqgwep9stgyx3y78qu754psq0a3gvvffka734y7lsw7g006mpx9gcs27rc2y","addr1q9xxqzd6stsjqr7ngx97m6fz5mg0e5yzrang7fkqgwep9stgyx3y78qu754psq0a3gvvffka734y7lsw7g006mpx9gcs27rc2y"],"addressesOutput":["addr1zxgx3far7qygq0k6epa0zcvcvrevmn0ypsnfsue94nsn3tvpw288a4x0xf8pxgcntelxmyclq83s0ykeehchz2wtspks905plm","addr1q9xxqzd6stsjqr7ngx97m6fz5mg0e5yzrang7fkqgwep9stgyx3y78qu754psq0a3gvvffka734y7lsw7g006mpx9gcs27rc2y","addr1q9xxqzd6stsjqr7ngx97m6fz5mg0e5yzrang7fkqgwep9stgyx3y78qu754psq0a3gvvffka734y7lsw7g006mpx9gcs27rc2y"],"fee":220545,"totalOutput":6453146,"tokens":[]},{"hash":"75a3a69d0e00f388c00422cf9586fd7e67028ab8a382ec763953eac308739d4e","blockNo":8096431,"blockHash":"5da881cdfe1cabb01fe1f4ab7b315ef0e146455cfce746b9071d11aa13779c77","epochNo":379,"epochSlotNo":227371,"slot":78592171,"time":"2022/12/04 12:54:22","addressesInput":["addr1qxa34s4vzq4975et9vxph0h8jdn97294fvwqnn3y3x9gah8w5wvwef5y20qxzkax9gdc7zvvqzjz4t3e6c9dr82aa9eqj0ehyx","addr1qxa34s4vzq4975et9vxph0h8jdn97294fvwqnn3y3x9gah8w5wvwef5y20qxzkax9gdc7zvvqzjz4t3e6c9dr82aa9eqj0ehyx"],"addressesOutput":["addr1v962purnna8yk476kpsmczrl2avsvtkarptp8hnyr74p2tgt578vq","addr1qxa34s4vzq4975et9vxph0h8jdn97294fvwqnn3y3x9gah8w5wvwef5y20qxzkax9gdc7zvvqzjz4t3e6c9dr82aa9eqj0ehyx","addr1qxa34s4vzq4975et9vxph0h8jdn97294fvwqnn3y3x9gah8w5wvwef5y20qxzkax9gdc7zvvqzjz4t3e6c9dr82aa9eqj0ehyx"],"fee":183189,"totalOutput":235842975,"tokens":[]},{"hash":"766221db5986cb35ad7cb658aff2eed5c41a56bd7f5847a86cf05e7b728d3843","blockNo":8096431,"blockHash":"5da881cdfe1cabb01fe1f4ab7b315ef0e146455cfce746b9071d11aa13779c77","epochNo":379,"epochSlotNo":227371,"slot":78592171,"time":"2022/12/04 12:54:22","addressesInput":["addr1qyun4362ksldanum6zechupjjtwyyqqz2ngmhg4qr2qdmyq0z8fqhv0tyaxk9m7srw2pmaa4ttw9u2ncdk3tpz3cv5tqy5w56f","addr1zxgx3far7qygq0k6epa0zcvcvrevmn0ypsnfsue94nsn3tvpw288a4x0xf8pxgcntelxmyclq83s0ykeehchz2wtspks905plm","addr1q83kqh59nsjy9q3l5jqayj99cp4r9u58regpevrcqvx6ykq0z8fqhv0tyaxk9m7srw2pmaa4ttw9u2ncdk3tpz3cv5tqkesyxp"],"addressesOutput":["addr1zxgx3far7qygq0k6epa0zcvcvrevmn0ypsnfsue94nsn3tvpw288a4x0xf8pxgcntelxmyclq83s0ykeehchz2wtspks905plm","addr1qyun4362ksldanum6zechupjjtwyyqqz2ngmhg4qr2qdmyq0z8fqhv0tyaxk9m7srw2pmaa4ttw9u2ncdk3tpz3cv5tqy5w56f"],"fee":313551,"totalOutput":4924197,"tokens":[]},{"hash":"1baef3a5e04232e1272413cafce8ef80fe7f30ddf87e5fb52f280988a67b123b","blockNo":8096431,"blockHash":"5da881cdfe1cabb01fe1f4ab7b315ef0e146455cfce746b9071d11aa13779c77","epochNo":379,"epochSlotNo":227371,"slot":78592171,"time":"2022/12/04 12:54:22","addressesInput":["addr1qy6yqvqjyhzc959956s2t0hvsn5438t8pmt59vw0jntjqrz5ep6prr9nez7u79zq5zx2c4wj2vmt2udf4jhc0qd8wk3q9eykuj","addr1qy6yqvqjyhzc959956s2t0hvsn5438t8pmt59vw0jntjqrz5ep6prr9nez7u79zq5zx2c4wj2vmt2udf4jhc0qd8wk3q9eykuj"],"addressesOutput":["addr1wxdct40gvyv525zlq79wahkuhmgadjs3q5lkrclemxvlu3qyda7l2","addr1qy6yqvqjyhzc959956s2t0hvsn5438t8pmt59vw0jntjqrz5ep6prr9nez7u79zq5zx2c4wj2vmt2udf4jhc0qd8wk3q9eykuj"],"fee":193265,"totalOutput":373872625,"tokens":[]},{"hash":"e84c7438e3624cd1d0e32071e4e9268cd6360534e1b2a562c1849630fd86b061","blockNo":8096430,"blockHash":"8b3d7e2be3a7ae289141b9d7ace68805d864cc52acd5fd15b15e97c153a91247","epochNo":379,"epochSlotNo":227360,"slot":78592160,"time":"2022/12/04 12:54:11","addressesInput":["addr1q8t0asyd9pm2vgxruvv84225ytn4cyca825zyf72da0s7eywysh72j4dsjgrq7c9ztxqdrm97r5qj4ymeha2xmtx82qquna27h","addr1q8t0asyd9pm2vgxruvv84225ytn4cyca825zyf72da0s7eywysh72j4dsjgrq7c9ztxqdrm97r5qj4ymeha2xmtx82qquna27h"],"addressesOutput":["addr1qy3ya84tq559h6nuhye6fu286kp45z9l6x4c305zz8ssmvjgd23as3ttezauulznjzmcqv8z7eyd7r9k7c64zrm7w0rs80taav","addr1q8rygev258luxnxscpjmwv5tlfptnkmvjevl5ssegw4mxxywysh72j4dsjgrq7c9ztxqdrm97r5qj4ymeha2xmtx82qqw0sq2y"],"fee":252401,"totalOutput":22014316,"tokens":[]},{"hash":"89137d7f74d168b29d1df98b615ceffc91654150416f0680e60a7fc80998fada","blockNo":8096430,"blockHash":"8b3d7e2be3a7ae289141b9d7ace68805d864cc52acd5fd15b15e97c153a91247","epochNo":379,"epochSlotNo":227360,"slot":78592160,"time":"2022/12/04 12:54:11","addressesInput":["addr1q9y4fsenmhg0ll6d5ncxp76wcvhxdlnxzsqqxp9mdeg3c64fsare778tzlhkycm7hdqm54r4rncjqs5t2h78mklqv0jslj3pmk","addr1q98hv6knkyma3h0c7cjsmy9xu5mays2pvnl43uushr4f60afsare778tzlhkycm7hdqm54r4rncjqs5t2h78mklqv0jsjwj5w6"],"addressesOutput":["addr1zxgx3far7qygq0k6epa0zcvcvrevmn0ypsnfsue94nsn3tvpw288a4x0xf8pxgcntelxmyclq83s0ykeehchz2wtspks905plm","addr1qyegmz9fs9z6rqypt03xj7pycje6c7cetw5d90ld2yn9qldfsare778tzlhkycm7hdqm54r4rncjqs5t2h78mklqv0jsjl859t","addr1qyegmz9fs9z6rqypt03xj7pycje6c7cetw5d90ld2yn9qldfsare778tzlhkycm7hdqm54r4rncjqs5t2h78mklqv0jsjl859t"],"fee":229301,"totalOutput":4916999,"tokens":[]},{"hash":"33340f58aef2163f9761a2aa942f2c853bcc441262b4a52e612b48fc9bde0c45","blockNo":8096430,"blockHash":"8b3d7e2be3a7ae289141b9d7ace68805d864cc52acd5fd15b15e97c153a91247","epochNo":379,"epochSlotNo":227360,"slot":78592160,"time":"2022/12/04 12:54:11","addressesInput":["addr1q8defgps829utg6900wj7kmyauy69ua00xt0zqljxp5e7xl8uwuut8rr6s9f385z5d8htzlp8xzp9dmrl4ud437gu8wqkdnens","addr1q8defgps829utg6900wj7kmyauy69ua00xt0zqljxp5e7xl8uwuut8rr6s9f385z5d8htzlp8xzp9dmrl4ud437gu8wqkdnens","addr1q8defgps829utg6900wj7kmyauy69ua00xt0zqljxp5e7xl8uwuut8rr6s9f385z5d8htzlp8xzp9dmrl4ud437gu8wqkdnens"],"addressesOutput":["addr1q8defgps829utg6900wj7kmyauy69ua00xt0zqljxp5e7xl8uwuut8rr6s9f385z5d8htzlp8xzp9dmrl4ud437gu8wqkdnens","addr1q9cwvremt6n320s2e3agq0jyq82yhrk3htsu0w426xnz5us70z4w0jgvcdkkynmm8wmds66jd9kusnjfpu6raw5fqp0sr07p5w","addr1q8defgps829utg6900wj7kmyauy69ua00xt0zqljxp5e7xl8uwuut8rr6s9f385z5d8htzlp8xzp9dmrl4ud437gu8wqkdnens"],"fee":204265,"totalOutput":5110306,"tokens":[]},{"hash":"aaa6dd18c14fa58276b3551b885769946284a5c5be13fd298a33f8accb2ef534","blockNo":8096430,"blockHash":"8b3d7e2be3a7ae289141b9d7ace68805d864cc52acd5fd15b15e97c153a91247","epochNo":379,"epochSlotNo":227360,"slot":78592160,"time":"2022/12/04 12:54:11","addressesInput":["addr1qxtu8z5lczut5fhh4pk7838sj6ee2rzjjsjpsvpt8n5wl8xhu6pkp5mhgyg3wdsd7qqs58xtje50a7ngyteklfde953q00k5d9","addr1zxgx3far7qygq0k6epa0zcvcvrevmn0ypsnfsue94nsn3tvpw288a4x0xf8pxgcntelxmyclq83s0ykeehchz2wtspks905plm"],"addressesOutput":["addr1q80k2va3cfpt4v4a7dk92xkqcqc7d422urszazkuegal4zhl265qtm6n7dl6cyevftkud68dcr40mzvv3nsvt48jymus50r8qv","addr1q9cwvremt6n320s2e3agq0jyq82yhrk3htsu0w426xnz5us70z4w0jgvcdkkynmm8wmds66jd9kusnjfpu6raw5fqp0sr07p5w","addr1q9tza7r2e3kggd3dg4dd360lyutluaypleat6sa39ccahjmdym79rng00pksl5smhefallfcmr5g972lke3ctlx2gyqqqh4amu","addr1qxtu8z5lczut5fhh4pk7838sj6ee2rzjjsjpsvpt8n5wl8xhu6pkp5mhgyg3wdsd7qqs58xtje50a7ngyteklfde953q00k5d9","addr1qxtu8z5lczut5fhh4pk7838sj6ee2rzjjsjpsvpt8n5wl8xhu6pkp5mhgyg3wdsd7qqs58xtje50a7ngyteklfde953q00k5d9","addr1qxtu8z5lczut5fhh4pk7838sj6ee2rzjjsjpsvpt8n5wl8xhu6pkp5mhgyg3wdsd7qqs58xtje50a7ngyteklfde953q00k5d9","addr1qxtu8z5lczut5fhh4pk7838sj6ee2rzjjsjpsvpt8n5wl8xhu6pkp5mhgyg3wdsd7qqs58xtje50a7ngyteklfde953q00k5d9"],"fee":424570,"totalOutput":534341383,"tokens":[]},{"hash":"fb71ed58056f896158f1a36515b0f38dbcf8a8b1cd5a604e137ffce94b08c365","blockNo":8096430,"blockHash":"8b3d7e2be3a7ae289141b9d7ace68805d864cc52acd5fd15b15e97c153a91247","epochNo":379,"epochSlotNo":227360,"slot":78592160,"time":"2022/12/04 12:54:11","addressesInput":["addr1q8vxxp63w0kgp6sezqer58n3z5p88nn343wjjlk7x9mkmrsf4s2ustqm666qpwal3ejnagmgcpxgla7jk7dclxfvlx4qw4gjq8","addr1q8vxxp63w0kgp6sezqer58n3z5p88nn343wjjlk7x9mkmrsf4s2ustqm666qpwal3ejnagmgcpxgla7jk7dclxfvlx4qw4gjq8"],"addressesOutput":["addr1q9ad5mud938r7l24eaac4v57ydlj72hazgprts9f7daaz09mm95jvs5h94099yglxr7v6ug6pp43780huy040lm4utmqx8g5eu","addr1wxn9efv2f6w82hagxqtn62ju4m293tqvw0uhmdl64ch8uwc0h43gt","addr1q8vxxp63w0kgp6sezqer58n3z5p88nn343wjjlk7x9mkmrsf4s2ustqm666qpwal3ejnagmgcpxgla7jk7dclxfvlx4qw4gjq8"],"fee":201402,"totalOutput":1170096058,"tokens":[]},{"hash":"ed7eb5917f3b0295f19b9380c85c32748ed1fa860ec04d72e3d58e6f22d026f9","blockNo":8096430,"blockHash":"8b3d7e2be3a7ae289141b9d7ace68805d864cc52acd5fd15b15e97c153a91247","epochNo":379,"epochSlotNo":227360,"slot":78592160,"time":"2022/12/04 12:54:11","addressesInput":["addr1qy32uvd9h56y3vt58ah09up7r3xx7nwqqgyg0ud6qvxl2rpeyx5hzp0j3a7p3whmfavzwrlplss007auw5v2xem4vjtq0q5rp8","addr1qy32uvd9h56y3vt58ah09up7r3xx7nwqqgyg0ud6qvxl2rpeyx5hzp0j3a7p3whmfavzwrlplss007auw5v2xem4vjtq0q5rp8","addr1qy32uvd9h56y3vt58ah09up7r3xx7nwqqgyg0ud6qvxl2rpeyx5hzp0j3a7p3whmfavzwrlplss007auw5v2xem4vjtq0q5rp8","addr1qy32uvd9h56y3vt58ah09up7r3xx7nwqqgyg0ud6qvxl2rpeyx5hzp0j3a7p3whmfavzwrlplss007auw5v2xem4vjtq0q5rp8","addr1qy32uvd9h56y3vt58ah09up7r3xx7nwqqgyg0ud6qvxl2rpeyx5hzp0j3a7p3whmfavzwrlplss007auw5v2xem4vjtq0q5rp8","addr1qy32uvd9h56y3vt58ah09up7r3xx7nwqqgyg0ud6qvxl2rpeyx5hzp0j3a7p3whmfavzwrlplss007auw5v2xem4vjtq0q5rp8","addr1qy32uvd9h56y3vt58ah09up7r3xx7nwqqgyg0ud6qvxl2rpeyx5hzp0j3a7p3whmfavzwrlplss007auw5v2xem4vjtq0q5rp8"],"addressesOutput":["addr1qyeds6wjepxvphhymdqh77wxts0sfcxmd64l0n052kjxa5xnh5mu3d5p43j33u33r30rhzkjxtj02t6uyu6lz6yferwsguntyg","addr1qy32uvd9h56y3vt58ah09up7r3xx7nwqqgyg0ud6qvxl2rpeyx5hzp0j3a7p3whmfavzwrlplss007auw5v2xem4vjtq0q5rp8"],"fee":241401,"totalOutput":31691633,"tokens":[]},{"hash":"0a70de9cb91ffdea51218c04d6a0204eedc5a4d45ed1a3fa752a4348df9ee785","blockNo":8096430,"blockHash":"8b3d7e2be3a7ae289141b9d7ace68805d864cc52acd5fd15b15e97c153a91247","epochNo":379,"epochSlotNo":227360,"slot":78592160,"time":"2022/12/04 12:54:11","addressesInput":["addr1qxhf4av9a24t800aenaeya8w64c34xlem07tgyv2ccfqpynzmxxrwetrmr4xzhsr3xgmqqp6u4nw96ujpnd43u0m7j0sxvltyg","addr1qxhf4av9a24t800aenaeya8w64c34xlem07tgyv2ccfqpynzmxxrwetrmr4xzhsr3xgmqqp6u4nw96ujpnd43u0m7j0sxvltyg","addr1qxhf4av9a24t800aenaeya8w64c34xlem07tgyv2ccfqpynzmxxrwetrmr4xzhsr3xgmqqp6u4nw96ujpnd43u0m7j0sxvltyg","addr1qxhf4av9a24t800aenaeya8w64c34xlem07tgyv2ccfqpynzmxxrwetrmr4xzhsr3xgmqqp6u4nw96ujpnd43u0m7j0sxvltyg","addr1qxhf4av9a24t800aenaeya8w64c34xlem07tgyv2ccfqpynzmxxrwetrmr4xzhsr3xgmqqp6u4nw96ujpnd43u0m7j0sxvltyg","addr1qxhf4av9a24t800aenaeya8w64c34xlem07tgyv2ccfqpynzmxxrwetrmr4xzhsr3xgmqqp6u4nw96ujpnd43u0m7j0sxvltyg","addr1qxhf4av9a24t800aenaeya8w64c34xlem07tgyv2ccfqpynzmxxrwetrmr4xzhsr3xgmqqp6u4nw96ujpnd43u0m7j0sxvltyg","addr1qxhf4av9a24t800aenaeya8w64c34xlem07tgyv2ccfqpynzmxxrwetrmr4xzhsr3xgmqqp6u4nw96ujpnd43u0m7j0sxvltyg","addr1qxhf4av9a24t800aenaeya8w64c34xlem07tgyv2ccfqpynzmxxrwetrmr4xzhsr3xgmqqp6u4nw96ujpnd43u0m7j0sxvltyg","addr1qxhf4av9a24t800aenaeya8w64c34xlem07tgyv2ccfqpynzmxxrwetrmr4xzhsr3xgmqqp6u4nw96ujpnd43u0m7j0sxvltyg","addr1qxhf4av9a24t800aenaeya8w64c34xlem07tgyv2ccfqpynzmxxrwetrmr4xzhsr3xgmqqp6u4nw96ujpnd43u0m7j0sxvltyg","addr1qxhf4av9a24t800aenaeya8w64c34xlem07tgyv2ccfqpynzmxxrwetrmr4xzhsr3xgmqqp6u4nw96ujpnd43u0m7j0sxvltyg","addr1qxhf4av9a24t800aenaeya8w64c34xlem07tgyv2ccfqpynzmxxrwetrmr4xzhsr3xgmqqp6u4nw96ujpnd43u0m7j0sxvltyg","addr1qxhf4av9a24t800aenaeya8w64c34xlem07tgyv2ccfqpynzmxxrwetrmr4xzhsr3xgmqqp6u4nw96ujpnd43u0m7j0sxvltyg","addr1qxhf4av9a24t800aenaeya8w64c34xlem07tgyv2ccfqpynzmxxrwetrmr4xzhsr3xgmqqp6u4nw96ujpnd43u0m7j0sxvltyg","addr1qxhf4av9a24t800aenaeya8w64c34xlem07tgyv2ccfqpynzmxxrwetrmr4xzhsr3xgmqqp6u4nw96ujpnd43u0m7j0sxvltyg","addr1qxhf4av9a24t800aenaeya8w64c34xlem07tgyv2ccfqpynzmxxrwetrmr4xzhsr3xgmqqp6u4nw96ujpnd43u0m7j0sxvltyg","addr1qxhf4av9a24t800aenaeya8w64c34xlem07tgyv2ccfqpynzmxxrwetrmr4xzhsr3xgmqqp6u4nw96ujpnd43u0m7j0sxvltyg","addr1qxhf4av9a24t800aenaeya8w64c34xlem07tgyv2ccfqpynzmxxrwetrmr4xzhsr3xgmqqp6u4nw96ujpnd43u0m7j0sxvltyg","addr1qxhf4av9a24t800aenaeya8w64c34xlem07tgyv2ccfqpynzmxxrwetrmr4xzhsr3xgmqqp6u4nw96ujpnd43u0m7j0sxvltyg","addr1qxhf4av9a24t800aenaeya8w64c34xlem07tgyv2ccfqpynzmxxrwetrmr4xzhsr3xgmqqp6u4nw96ujpnd43u0m7j0sxvltyg"],"addressesOutput":["addr1qyz3kgr89x34caa84r655prd7zyxshax9cgzx8athfed6wju228emjl3f6nw6rfn833g22d7vl7ltqm5wct4948q0vyq70yx4j","addr1qxhf4av9a24t800aenaeya8w64c34xlem07tgyv2ccfqpynzmxxrwetrmr4xzhsr3xgmqqp6u4nw96ujpnd43u0m7j0sxvltyg","addr1qxhf4av9a24t800aenaeya8w64c34xlem07tgyv2ccfqpynzmxxrwetrmr4xzhsr3xgmqqp6u4nw96ujpnd43u0m7j0sxvltyg","addr1qxhf4av9a24t800aenaeya8w64c34xlem07tgyv2ccfqpynzmxxrwetrmr4xzhsr3xgmqqp6u4nw96ujpnd43u0m7j0sxvltyg","addr1qxhf4av9a24t800aenaeya8w64c34xlem07tgyv2ccfqpynzmxxrwetrmr4xzhsr3xgmqqp6u4nw96ujpnd43u0m7j0sxvltyg","addr1qxhf4av9a24t800aenaeya8w64c34xlem07tgyv2ccfqpynzmxxrwetrmr4xzhsr3xgmqqp6u4nw96ujpnd43u0m7j0sxvltyg","addr1qxhf4av9a24t800aenaeya8w64c34xlem07tgyv2ccfqpynzmxxrwetrmr4xzhsr3xgmqqp6u4nw96ujpnd43u0m7j0sxvltyg","addr1qxhf4av9a24t800aenaeya8w64c34xlem07tgyv2ccfqpynzmxxrwetrmr4xzhsr3xgmqqp6u4nw96ujpnd43u0m7j0sxvltyg","addr1qxhf4av9a24t800aenaeya8w64c34xlem07tgyv2ccfqpynzmxxrwetrmr4xzhsr3xgmqqp6u4nw96ujpnd43u0m7j0sxvltyg","addr1qxhf4av9a24t800aenaeya8w64c34xlem07tgyv2ccfqpynzmxxrwetrmr4xzhsr3xgmqqp6u4nw96ujpnd43u0m7j0sxvltyg","addr1qxhf4av9a24t800aenaeya8w64c34xlem07tgyv2ccfqpynzmxxrwetrmr4xzhsr3xgmqqp6u4nw96ujpnd43u0m7j0sxvltyg","addr1qxhf4av9a24t800aenaeya8w64c34xlem07tgyv2ccfqpynzmxxrwetrmr4xzhsr3xgmqqp6u4nw96ujpnd43u0m7j0sxvltyg","addr1qxhf4av9a24t800aenaeya8w64c34xlem07tgyv2ccfqpynzmxxrwetrmr4xzhsr3xgmqqp6u4nw96ujpnd43u0m7j0sxvltyg","addr1qxhf4av9a24t800aenaeya8w64c34xlem07tgyv2ccfqpynzmxxrwetrmr4xzhsr3xgmqqp6u4nw96ujpnd43u0m7j0sxvltyg","addr1qxhf4av9a24t800aenaeya8w64c34xlem07tgyv2ccfqpynzmxxrwetrmr4xzhsr3xgmqqp6u4nw96ujpnd43u0m7j0sxvltyg","addr1qxhf4av9a24t800aenaeya8w64c34xlem07tgyv2ccfqpynzmxxrwetrmr4xzhsr3xgmqqp6u4nw96ujpnd43u0m7j0sxvltyg","addr1qxhf4av9a24t800aenaeya8w64c34xlem07tgyv2ccfqpynzmxxrwetrmr4xzhsr3xgmqqp6u4nw96ujpnd43u0m7j0sxvltyg","addr1qxhf4av9a24t800aenaeya8w64c34xlem07tgyv2ccfqpynzmxxrwetrmr4xzhsr3xgmqqp6u4nw96ujpnd43u0m7j0sxvltyg","addr1qxhf4av9a24t800aenaeya8w64c34xlem07tgyv2ccfqpynzmxxrwetrmr4xzhsr3xgmqqp6u4nw96ujpnd43u0m7j0sxvltyg","addr1qxhf4av9a24t800aenaeya8w64c34xlem07tgyv2ccfqpynzmxxrwetrmr4xzhsr3xgmqqp6u4nw96ujpnd43u0m7j0sxvltyg","addr1qxhf4av9a24t800aenaeya8w64c34xlem07tgyv2ccfqpynzmxxrwetrmr4xzhsr3xgmqqp6u4nw96ujpnd43u0m7j0sxvltyg"],"fee":626665,"totalOutput":110628399,"tokens":[]},{"hash":"0a990997157476e3bd59c7f78dad7347866f069c23f9fa13e3515c9d353b5b42","blockNo":8096430,"blockHash":"8b3d7e2be3a7ae289141b9d7ace68805d864cc52acd5fd15b15e97c153a91247","epochNo":379,"epochSlotNo":227360,"slot":78592160,"time":"2022/12/04 12:54:11","addressesInput":["addr1qym2tqjv9e5jhxadkgvdq4vv4kpuyqjujl9hhn2svue2k3ek5kpyctnf9wd6mvsc6p2cetvrcgp9e97t00x4qeej4drseajdvv","addr1qym2tqjv9e5jhxadkgvdq4vv4kpuyqjujl9hhn2svue2k3ek5kpyctnf9wd6mvsc6p2cetvrcgp9e97t00x4qeej4drseajdvv"],"addressesOutput":["addr1qym2tqjv9e5jhxadkgvdq4vv4kpuyqjujl9hhn2svue2k3ek5kpyctnf9wd6mvsc6p2cetvrcgp9e97t00x4qeej4drseajdvv","addr1qym2tqjv9e5jhxadkgvdq4vv4kpuyqjujl9hhn2svue2k3ek5kpyctnf9wd6mvsc6p2cetvrcgp9e97t00x4qeej4drseajdvv"],"fee":233854,"totalOutput":7371703084,"tokens":[]},{"hash":"4d629f5ee499d7d64444297ff94dded3e91b665064d2997748120acb9a9b5ac1","blockNo":8096430,"blockHash":"8b3d7e2be3a7ae289141b9d7ace68805d864cc52acd5fd15b15e97c153a91247","epochNo":379,"epochSlotNo":227360,"slot":78592160,"time":"2022/12/04 12:54:11","addressesInput":["addr1qy2jhvmw2dqjg8avlhcr2lap3y6qws7g2ky7u2f60h3rcgu2yqxnk9qnkw94xegmkl39vcrzksyy0dcfg6f79r75pzuqc3cskc"],"addressesOutput":["addr1qx3ht97a7dy08za03pcrg3ju4vrlm8h8e3ffh83kvj4e7lv2yqxnk9qnkw94xegmkl39vcrzksyy0dcfg6f79r75pzuqcfjsrj"],"fee":171573,"totalOutput":263316784,"tokens":[]},{"hash":"a0b7e959a59ba5dca869aeca604e0e76860863753b4b7f3b14cd4d96048b39a3","blockNo":8096430,"blockHash":"8b3d7e2be3a7ae289141b9d7ace68805d864cc52acd5fd15b15e97c153a91247","epochNo":379,"epochSlotNo":227360,"slot":78592160,"time":"2022/12/04 12:54:11","addressesInput":["addr1v8v3auqmw0eszza3ww29ea2pwftuqrqqyu26zvzjq9dt2ncydzvs5"],"addressesOutput":["addr1q9sy8n5cwma4axn4dz50udgu022t7yt97m67lwcs7szqpckwp3we9j3m69jhvv6fnvpmy4eqhysdzhswkg3ffnle9kns2tr097","addr1v8v3auqmw0eszza3ww29ea2pwftuqrqqyu26zvzjq9dt2ncydzvs5"],"fee":171221,"totalOutput":845744466,"tokens":[]},{"hash":"20555b4f1b4df859caf70eb403dab16a764d42434da6fc6049aabbb039ce2fe1","blockNo":8096430,"blockHash":"8b3d7e2be3a7ae289141b9d7ace68805d864cc52acd5fd15b15e97c153a91247","epochNo":379,"epochSlotNo":227360,"slot":78592160,"time":"2022/12/04 12:54:11","addressesInput":["addr1q8ww79v2crq0kfve6ksqe7darae79y52uf8fk0pd708enpv4npdqlnxy6awglp7rtaqgnzl4uz60avhtnqadtgthu5wq55ygd9"],"addressesOutput":["DdzFFzCqrhsiM6VFvcSfLjbVitd4Cqn7AuEABTdZJ3ChiWBQdPSikwEM7VSCpiNHoRK4UweVAr4mtXaC5vfk9sGjR12YTP6bUxjZAVSC","addr1q8ww79v2crq0kfve6ksqe7darae79y52uf8fk0pd708enpv4npdqlnxy6awglp7rtaqgnzl4uz60avhtnqadtgthu5wq55ygd9"],"fee":169989,"totalOutput":201196501075,"tokens":[]},{"hash":"ffc718ba463355a3aa63106a97fdade9dc0744e75e555c907fe84be2fc66fb58","blockNo":8096430,"blockHash":"8b3d7e2be3a7ae289141b9d7ace68805d864cc52acd5fd15b15e97c153a91247","epochNo":379,"epochSlotNo":227360,"slot":78592160,"time":"2022/12/04 12:54:11","addressesInput":["addr1q82zmvh9wqvftl5tjl44g7uqycp2gp0323h5upn6dfvzhqarvaq3d0sc5zum5h40za3cm9sagwjx955gxyyxg7v3capspj9u2l","addr1qxf59fwquak6avyl4986d7cv36khrnszs7d6s073sa2ltx4rvaq3d0sc5zum5h40za3cm9sagwjx955gxyyxg7v3capsx9wcd0"],"addressesOutput":["addr1v8m2uq4enrl8ur04mmpffdslwcg7t9e6kkykc7mqp8kpw0s93ud2l","addr1qxld49aku99eg49k8dqlgj2f077txn36j77z2phjjal3lzdrvaq3d0sc5zum5h40za3cm9sagwjx955gxyyxg7v3capsankhev","addr1qxld49aku99eg49k8dqlgj2f077txn36j77z2phjjal3lzdrvaq3d0sc5zum5h40za3cm9sagwjx955gxyyxg7v3capsankhev"],"fee":175973,"totalOutput":47940297,"tokens":[]},{"hash":"893d4ba03646f2c7af722301221802e7ec4b909531a84e9bbd29512fa23cddec","blockNo":8096430,"blockHash":"8b3d7e2be3a7ae289141b9d7ace68805d864cc52acd5fd15b15e97c153a91247","epochNo":379,"epochSlotNo":227360,"slot":78592160,"time":"2022/12/04 12:54:11","addressesInput":["DdzFFzCqrhsy78Bjqb1bo2Hak6kQSZQSk7foFuJdcQq1s2sPjSrrXPfz6spYEyBQcSRvTC9XVe7sw9wPMNjZRSppoXi9GGUJhWr8bYK1"],"addressesOutput":["addr1qxzkutp4gn6pt3gj86xtxdu0e79j6g40qmccajcj2kvtfhu9dckr2385zhz3y05vkvmclnut95327ph33m93y4vckn0sguzj5f","addr1qxj5ww2y5nfgn6gawjq84ru8h28rwz5zvnewj2rmupqqz949guu5ffxj38536ayq028c0w5wxu9gye8jay58hczqqytqvl42an","DdzFFzCqrht7NEQaDX3fZ6ZVEcmS3GLLcGkSzADA4P7YVF1H7EK6C1ANVZWDMyqmvvawEhQkWHKqmdqk3fh7Jyr2DhuBdAHL8NKvoXec","DdzFFzCqrhtBHk6ZMonErbZ6f1EUjDk1nYMpkHRQadL4xzqzATfWs2D1YVyaBqEGoMuXiaC4b6ydpNtJs6oj4sfQ9JL4fcfWZVKML1Fe"],"fee":181297,"totalOutput":192092764337,"tokens":[]},{"hash":"30818522d78a40c90d10941d6bbc8233cf70349d660f6ad2bd55d85580a13215","blockNo":8096430,"blockHash":"8b3d7e2be3a7ae289141b9d7ace68805d864cc52acd5fd15b15e97c153a91247","epochNo":379,"epochSlotNo":227360,"slot":78592160,"time":"2022/12/04 12:54:11","addressesInput":["addr1qyq8ad9shlt7h2jlw3rvl6w3canlha45m098w46wwewujmsq066tp07haw497azxel5ar3m8l0mtfk72wat5uajae9hqehdccy","addr1qyq8ad9shlt7h2jlw3rvl6w3canlha45m098w46wwewujmsq066tp07haw497azxel5ar3m8l0mtfk72wat5uajae9hqehdccy"],"addressesOutput":["addr1qyq8ad9shlt7h2jlw3rvl6w3canlha45m098w46wwewujmsq066tp07haw497azxel5ar3m8l0mtfk72wat5uajae9hqehdccy","addr1qyq8ad9shlt7h2jlw3rvl6w3canlha45m098w46wwewujmsq066tp07haw497azxel5ar3m8l0mtfk72wat5uajae9hqehdccy"],"fee":249631,"totalOutput":2024050369,"tokens":[]},{"hash":"0df886212783c1f17eabe39262df5c3c6b2202b6e1814c70c0f8503d8cd25724","blockNo":8096430,"blockHash":"8b3d7e2be3a7ae289141b9d7ace68805d864cc52acd5fd15b15e97c153a91247","epochNo":379,"epochSlotNo":227360,"slot":78592160,"time":"2022/12/04 12:54:11","addressesInput":["addr1q9jtzge7whc0z5lx3rnj65j0rv7p80s8s3autvvef6n3c8gqnrz3h4d6eun3ljn82jatng6wvsmzn98ctcj7qencgvnqw7czva","addr1zxgx3far7qygq0k6epa0zcvcvrevmn0ypsnfsue94nsn3tvpw288a4x0xf8pxgcntelxmyclq83s0ykeehchz2wtspks905plm"],"addressesOutput":["addr1q9jtzge7whc0z5lx3rnj65j0rv7p80s8s3autvvef6n3c8gqnrz3h4d6eun3ljn82jatng6wvsmzn98ctcj7qencgvnqw7czva","addr1q9jtzge7whc0z5lx3rnj65j0rv7p80s8s3autvvef6n3c8gqnrz3h4d6eun3ljn82jatng6wvsmzn98ctcj7qencgvnqw7czva","addr1q9jtzge7whc0z5lx3rnj65j0rv7p80s8s3autvvef6n3c8gqnrz3h4d6eun3ljn82jatng6wvsmzn98ctcj7qencgvnqw7czva"],"fee":271156,"totalOutput":203273085,"tokens":[]},{"hash":"e3990567c4182255e788c3f4cb28bb2c6251bbeb947f75c1ae1aa2454965e417","blockNo":8096430,"blockHash":"8b3d7e2be3a7ae289141b9d7ace68805d864cc52acd5fd15b15e97c153a91247","epochNo":379,"epochSlotNo":227360,"slot":78592160,"time":"2022/12/04 12:54:11","addressesInput":["addr1q8dr2lze8r57j9pvf90nys9awact9drdpelnxkjndjuxlctln8kwdhx0dkq0rhnqrdrymjh2sgelsnac5tsddj47ytmq7m3w99","addr1zxgx3far7qygq0k6epa0zcvcvrevmn0ypsnfsue94nsn3tvpw288a4x0xf8pxgcntelxmyclq83s0ykeehchz2wtspks905plm","addr1q8dr2lze8r57j9pvf90nys9awact9drdpelnxkjndjuxlctln8kwdhx0dkq0rhnqrdrymjh2sgelsnac5tsddj47ytmq7m3w99"],"addressesOutput":["addr1q9cwvremt6n320s2e3agq0jyq82yhrk3htsu0w426xnz5us70z4w0jgvcdkkynmm8wmds66jd9kusnjfpu6raw5fqp0sr07p5w","addr1q89lshguwljj7juzffennh0x9000rmlfx2wmzm4ycvdu65yykdt44qt5w47j5hv4lv5jwz0vzrfjkud0v7rzpqugza5sn8xyyy","addr1q8dr2lze8r57j9pvf90nys9awact9drdpelnxkjndjuxlctln8kwdhx0dkq0rhnqrdrymjh2sgelsnac5tsddj47ytmq7m3w99","addr1q8dr2lze8r57j9pvf90nys9awact9drdpelnxkjndjuxlctln8kwdhx0dkq0rhnqrdrymjh2sgelsnac5tsddj47ytmq7m3w99"],"fee":333688,"totalOutput":238981129,"tokens":[]}],"totalItems":55981934,"totalPages":2799097,"currentPage":0}