{"data":[{"hash":"242f3b4745cd84d4d4f953d585b76ad4677fe4790dd4e10f3372e56bf074ba72","blockNo":8118977,"blockHash":"44630f723ed9987cd43438ab5f6ea4de55cab26de1ea0164a0d5e281227c2c9e","epochNo":380,"epochSlotNo":256865,"slot":79053665,"time":"2022/12/09 21:05:56","addressesInput":["addr1q968aesujj0m6qmdmectdynw6yr9v8j4p9wap29hgvna6x9hr4eqs7m8c7d7kw32mhpqup2m96f8s3k3gwk48ta8grts8xrp4u"],"addressesOutput":["addr1vxrnydzztl8g9q78ej58d9uhnd7e24pjqnq497se97nny3sklat2v","addr1q9e8z0adxdhudz4vzfjm2rpprhsaweu90kpjskkrgwkvqtahr4eqs7m8c7d7kw32mhpqup2m96f8s3k3gwk48ta8grtsg6haex"],"fee":167085,"totalOutput":199832915,"tokens":[]},{"hash":"543436b5ff1f5cd1107c89bdd3e0e1b0bb93e67524009fe5a4cc571e27f67ae8","blockNo":8118977,"blockHash":"44630f723ed9987cd43438ab5f6ea4de55cab26de1ea0164a0d5e281227c2c9e","epochNo":380,"epochSlotNo":256865,"slot":79053665,"time":"2022/12/09 21:05:56","addressesInput":["addr1q86pmzaj2felm38x0xcvge8jq2d95hjdn6d4jaxca6slqlmt8egfmnlte08s6ezgake7zf746mcv3ze9azyquuklwhcqm7sv7u","addr1qx9lkh7nzyfvzf7xm3kmunuhng8ljnsmnn2ck2cgauanqjtt8egfmnlte08s6ezgake7zf746mcv3ze9azyquuklwhcqkms8pp"],"addressesOutput":["addr1q8wcptseelv593uvr3wnm2h0xfspkere64d4w9txy5sjjl6026p6dymrudm99xjncg8xh7jazdnc5p8c9paskme7m2lsnyzhvq","addr1q972dfkev7pjcvtq7st089ksmy8pagm62rs7jnd84a6c8grt8egfmnlte08s6ezgake7zf746mcv3ze9azyquuklwhcq2pr9jz"],"fee":174345,"totalOutput":173389283,"tokens":[]},{"hash":"ca78b03c4178c6a6166d6dd46c5589c9c58621edd22d59d4033ee5c34bd9390e","blockNo":8118977,"blockHash":"44630f723ed9987cd43438ab5f6ea4de55cab26de1ea0164a0d5e281227c2c9e","epochNo":380,"epochSlotNo":256865,"slot":79053665,"time":"2022/12/09 21:05:56","addressesInput":["addr1qyht4ja0zcn45qvyx477qlyp6j5ftu5ng0prt9608dxp6l2j2c79gy9l76sdg0xwhd7r0c0kna0tycz4y5s6mlenh8pq4jxtdy","addr1qyht4ja0zcn45qvyx477qlyp6j5ftu5ng0prt9608dxp6l2j2c79gy9l76sdg0xwhd7r0c0kna0tycz4y5s6mlenh8pq4jxtdy","addr1z8snz7c4974vzdpxu65ruphl3zjdvtxw8strf2c2tmqnxz2j2c79gy9l76sdg0xwhd7r0c0kna0tycz4y5s6mlenh8pq0xmsha","addr1wxn9efv2f6w82hagxqtn62ju4m293tqvw0uhmdl64ch8uwc0h43gt"],"addressesOutput":["addr1qyht4ja0zcn45qvyx477qlyp6j5ftu5ng0prt9608dxp6l2j2c79gy9l76sdg0xwhd7r0c0kna0tycz4y5s6mlenh8pq4jxtdy","addr1qyht4ja0zcn45qvyx477qlyp6j5ftu5ng0prt9608dxp6l2j2c79gy9l76sdg0xwhd7r0c0kna0tycz4y5s6mlenh8pq4jxtdy","addr1qx9hszr8myh9xlssh48vjn0pmrh4h7a9a53rd57q9dxfk4acdcg8hyc76m2l45qjyg33zz989knq7dq36wqutn504uasvu2vun","addr1z8snz7c4974vzdpxu65ruphl3zjdvtxw8strf2c2tmqnxz2j2c79gy9l76sdg0xwhd7r0c0kna0tycz4y5s6mlenh8pq0xmsha"],"fee":807436,"totalOutput":38783485351,"tokens":[]},{"hash":"09a74a5ac671d6a1dc8038a42d2996d1b7f45347676201377947ea2bead89170","blockNo":8118977,"blockHash":"44630f723ed9987cd43438ab5f6ea4de55cab26de1ea0164a0d5e281227c2c9e","epochNo":380,"epochSlotNo":256865,"slot":79053665,"time":"2022/12/09 21:05:56","addressesInput":["addr1qyht4ja0zcn45qvyx477qlyp6j5ftu5ng0prt9608dxp6l2j2c79gy9l76sdg0xwhd7r0c0kna0tycz4y5s6mlenh8pq4jxtdy","addr1qyht4ja0zcn45qvyx477qlyp6j5ftu5ng0prt9608dxp6l2j2c79gy9l76sdg0xwhd7r0c0kna0tycz4y5s6mlenh8pq4jxtdy","addr1z8snz7c4974vzdpxu65ruphl3zjdvtxw8strf2c2tmqnxz2j2c79gy9l76sdg0xwhd7r0c0kna0tycz4y5s6mlenh8pq0xmsha","addr1wxn9efv2f6w82hagxqtn62ju4m293tqvw0uhmdl64ch8uwc0h43gt"],"addressesOutput":["addr1qyht4ja0zcn45qvyx477qlyp6j5ftu5ng0prt9608dxp6l2j2c79gy9l76sdg0xwhd7r0c0kna0tycz4y5s6mlenh8pq4jxtdy","addr1qyht4ja0zcn45qvyx477qlyp6j5ftu5ng0prt9608dxp6l2j2c79gy9l76sdg0xwhd7r0c0kna0tycz4y5s6mlenh8pq4jxtdy","addr1q9u8uc0fpwdxr8w26rgxpq5j2lr53uxgwgqgp3wgcpvl2yle738d76sguu577edc2ty6rjahus32zhx8qk0qhrmalxys0m6nz4","addr1z8snz7c4974vzdpxu65ruphl3zjdvtxw8strf2c2tmqnxz2j2c79gy9l76sdg0xwhd7r0c0kna0tycz4y5s6mlenh8pq0xmsha"],"fee":805307,"totalOutput":39230530692,"tokens":[]},{"hash":"81c167c159050ae0d7871c06eeb7c85c78118eb2fa51e16102470919a3eb2612","blockNo":8118977,"blockHash":"44630f723ed9987cd43438ab5f6ea4de55cab26de1ea0164a0d5e281227c2c9e","epochNo":380,"epochSlotNo":256865,"slot":79053665,"time":"2022/12/09 21:05:56","addressesInput":["addr1qyul32xwff0hzx0k9jhft6hhykaaly092v2gaxx0uw2h435srum52lwqpdkw68jjdl5jeq2tw9h7rvq742mgk7l5v6ts6kfwr2","addr1zxgx3far7qygq0k6epa0zcvcvrevmn0ypsnfsue94nsn3tvpw288a4x0xf8pxgcntelxmyclq83s0ykeehchz2wtspks905plm"],"addressesOutput":["addr1zxgx3far7qygq0k6epa0zcvcvrevmn0ypsnfsue94nsn3tvpw288a4x0xf8pxgcntelxmyclq83s0ykeehchz2wtspks905plm","addr1qyul32xwff0hzx0k9jhft6hhykaaly092v2gaxx0uw2h435srum52lwqpdkw68jjdl5jeq2tw9h7rvq742mgk7l5v6ts6kfwr2"],"fee":296796,"totalOutput":59160810,"tokens":[]},{"hash":"4f59aa19de9e59e9527af6dad5b20038cf0b749d84b991d0b73ba987bc8ad462","blockNo":8118977,"blockHash":"44630f723ed9987cd43438ab5f6ea4de55cab26de1ea0164a0d5e281227c2c9e","epochNo":380,"epochSlotNo":256865,"slot":79053665,"time":"2022/12/09 21:05:56","addressesInput":["addr1q8ww79v2crq0kfve6ksqe7darae79y52uf8fk0pd708enpv4npdqlnxy6awglp7rtaqgnzl4uz60avhtnqadtgthu5wq55ygd9"],"addressesOutput":["addr1q9ay6clwszspfrs6czha6zrrtmuln5nf75l2gh9slvl7yczgj07urhg36s5tx2f3vukc0p7yv2pu4rhqtf4hfwdrqn7sx7upd8","addr1q8ww79v2crq0kfve6ksqe7darae79y52uf8fk0pd708enpv4npdqlnxy6awglp7rtaqgnzl4uz60avhtnqadtgthu5wq55ygd9"],"fee":169153,"totalOutput":1021284497587,"tokens":[]},{"hash":"7205543525d6a1a3d1f2bdd9f992bd43aef374b51af6e4c64b81f1fb07cd8cd5","blockNo":8118977,"blockHash":"44630f723ed9987cd43438ab5f6ea4de55cab26de1ea0164a0d5e281227c2c9e","epochNo":380,"epochSlotNo":256865,"slot":79053665,"time":"2022/12/09 21:05:56","addressesInput":["addr1qyxzqxgt7yqcngzl8lpv9xugnytu8pt6e9e9dxqhyfn6scvtc7tfg0saw68ae9truxzaxf2xs4sx7gvsj76mfx4hv6rs6h6ea4"],"addressesOutput":["addr1q87k9zrel8zsqpqhue55u7356gch8a4wp7xfpg5et2nn3q72h8y4gwedd2z2nx6544nalel0zd0g0kel44c96xy3vxvqwq22c9","addr1qxct68tqprtn7elad7djjv0ljgygsg35r8wey7zm0zudgu5tc7tfg0saw68ae9truxzaxf2xs4sx7gvsj76mfx4hv6rshe5av4","addr1qxct68tqprtn7elad7djjv0ljgygsg35r8wey7zm0zudgu5tc7tfg0saw68ae9truxzaxf2xs4sx7gvsj76mfx4hv6rshe5av4","addr1qxct68tqprtn7elad7djjv0ljgygsg35r8wey7zm0zudgu5tc7tfg0saw68ae9truxzaxf2xs4sx7gvsj76mfx4hv6rshe5av4","addr1qxct68tqprtn7elad7djjv0ljgygsg35r8wey7zm0zudgu5tc7tfg0saw68ae9truxzaxf2xs4sx7gvsj76mfx4hv6rshe5av4"],"fee":176897,"totalOutput":146502383,"tokens":[]},{"hash":"5ed3b5c4d81ee423f1849ef053263a8a15e888301eb69016188a71edd8d7aa91","blockNo":8118977,"blockHash":"44630f723ed9987cd43438ab5f6ea4de55cab26de1ea0164a0d5e281227c2c9e","epochNo":380,"epochSlotNo":256865,"slot":79053665,"time":"2022/12/09 21:05:56","addressesInput":["addr1v8cp0wr7klma42s3uck0h5rnufgu4ked2px0rydsrg7jm3gxn76wf"],"addressesOutput":["addr1q8729qzxwfhxucj04l4stld57ua524yzl95tj4yahgu0kyxtupzfqhqpvhul8qf402cakkrgeheetnag6t6u6hslvnjs68qwf9","addr1v9wa6entm75duchtu50mu6u6hkagdgqzaevt0cwryaw3pnca870vt"],"fee":168493,"totalOutput":195661507,"tokens":[]},{"hash":"3f8e61478acd9823f8528aa3033c78c74081768e39197952847da60c598cc3e4","blockNo":8118977,"blockHash":"44630f723ed9987cd43438ab5f6ea4de55cab26de1ea0164a0d5e281227c2c9e","epochNo":380,"epochSlotNo":256865,"slot":79053665,"time":"2022/12/09 21:05:56","addressesInput":["addr1zxgx3far7qygq0k6epa0zcvcvrevmn0ypsnfsue94nsn3tvpw288a4x0xf8pxgcntelxmyclq83s0ykeehchz2wtspks905plm","addr1zxgx3far7qygq0k6epa0zcvcvrevmn0ypsnfsue94nsn3tvpw288a4x0xf8pxgcntelxmyclq83s0ykeehchz2wtspks905plm"],"addressesOutput":["addr1q97p97h6nnx0m98kvv4ukvrlrpatke3qr5rwj4ehvuqdprdvdkdhzuzwczfck2v4rv6spq3e9n34mn4025kfy82mlf0qfnd8ea","addr1q9xc6cmqv2krmx49yu85y2q7atdwf892rnafsgqpqc34289g29yap35aursldt2ptn8u5q7epxpdekkxa6ugn7vgtzgskce8jc","addr1q9cwvremt6n320s2e3agq0jyq82yhrk3htsu0w426xnz5us70z4w0jgvcdkkynmm8wmds66jd9kusnjfpu6raw5fqp0sr07p5w","addr1q9xt45u4hurtjvmglmlh92rerw4uwp5mt00h5f89sz8t3jpm74t5qlrkt387re5dnnsjd9cfaa6gzt0p6snapztcmw4sp5hwp7","addr1q97p97h6nnx0m98kvv4ukvrlrpatke3qr5rwj4ehvuqdprdvdkdhzuzwczfck2v4rv6spq3e9n34mn4025kfy82mlf0qfnd8ea"],"fee":509260,"totalOutput":50852700,"tokens":[]},{"hash":"123c75d9c204392803137940293788fd01243d1dc541ae3c19fddceeea2fdd1a","blockNo":8118977,"blockHash":"44630f723ed9987cd43438ab5f6ea4de55cab26de1ea0164a0d5e281227c2c9e","epochNo":380,"epochSlotNo":256865,"slot":79053665,"time":"2022/12/09 21:05:56","addressesInput":["addr1qyel6hrp2djj33f84x8afmckymqzzvlynluqr7fp0x20z55zwu92avt7ejsehvfutmkheu78zk027awh74xaygk7ugtskmf0tt","addr1qyel6hrp2djj33f84x8afmckymqzzvlynluqr7fp0x20z55zwu92avt7ejsehvfutmkheu78zk027awh74xaygk7ugtskmf0tt"],"addressesOutput":["addr1zxgx3far7qygq0k6epa0zcvcvrevmn0ypsnfsue94nsn3tvpw288a4x0xf8pxgcntelxmyclq83s0ykeehchz2wtspks905plm","addr1qyel6hrp2djj33f84x8afmckymqzzvlynluqr7fp0x20z55zwu92avt7ejsehvfutmkheu78zk027awh74xaygk7ugtskmf0tt","addr1qyel6hrp2djj33f84x8afmckymqzzvlynluqr7fp0x20z55zwu92avt7ejsehvfutmkheu78zk027awh74xaygk7ugtskmf0tt"],"fee":219005,"totalOutput":48410582,"tokens":[]},{"hash":"872bc62b708f00d3c8e70fb9244d1197e524ec9d832ba71fccbe0ac5c13e83e4","blockNo":8118977,"blockHash":"44630f723ed9987cd43438ab5f6ea4de55cab26de1ea0164a0d5e281227c2c9e","epochNo":380,"epochSlotNo":256865,"slot":79053665,"time":"2022/12/09 21:05:56","addressesInput":["addr1v8v3auqmw0eszza3ww29ea2pwftuqrqqyu26zvzjq9dt2ncydzvs5","addr1v8t667vex3pe8g3wjtuzcq4fx3637geftpmysudnh7jwt7g8q6dzh","addr1vypr00ss7hkqejmvh53xkyf0p9q0a4z2uprxmx6njc463vgst3pe4"],"addressesOutput":["addr1q8j92dx3n7wss2760rfc8npvxgqpy6x6vkqdw35me4tqgzvulmwv7hsme58f0sq4hv5jffndc4s7cmt56j7t2xf025ksxewhcy","addr1vypr00ss7hkqejmvh53xkyf0p9q0a4z2uprxmx6njc463vgst3pe4"],"fee":188821,"totalOutput":9541544778,"tokens":[]},{"hash":"44b4833312f48a82dde4b83cce462e5e3c306f5362c82d4ea8e5d9cdbd74f3ac","blockNo":8118977,"blockHash":"44630f723ed9987cd43438ab5f6ea4de55cab26de1ea0164a0d5e281227c2c9e","epochNo":380,"epochSlotNo":256865,"slot":79053665,"time":"2022/12/09 21:05:56","addressesInput":["addr1z8snz7c4974vzdpxu65ruphl3zjdvtxw8strf2c2tmqnxz2j2c79gy9l76sdg0xwhd7r0c0kna0tycz4y5s6mlenh8pq0xmsha","addr1qyht4ja0zcn45qvyx477qlyp6j5ftu5ng0prt9608dxp6l2j2c79gy9l76sdg0xwhd7r0c0kna0tycz4y5s6mlenh8pq4jxtdy","addr1wxn9efv2f6w82hagxqtn62ju4m293tqvw0uhmdl64ch8uwc0h43gt","addr1qyht4ja0zcn45qvyx477qlyp6j5ftu5ng0prt9608dxp6l2j2c79gy9l76sdg0xwhd7r0c0kna0tycz4y5s6mlenh8pq4jxtdy"],"addressesOutput":["addr1qyht4ja0zcn45qvyx477qlyp6j5ftu5ng0prt9608dxp6l2j2c79gy9l76sdg0xwhd7r0c0kna0tycz4y5s6mlenh8pq4jxtdy","addr1qyht4ja0zcn45qvyx477qlyp6j5ftu5ng0prt9608dxp6l2j2c79gy9l76sdg0xwhd7r0c0kna0tycz4y5s6mlenh8pq4jxtdy","addr1qxn3znsh2hhkyp3lckpf6a0rh0r7uvq5gpctsjphdrsrul4nqcy8p0cuj6xy7wqqxu8dnpx54z3n5m28gpnd0859twtsennymd","addr1z8snz7c4974vzdpxu65ruphl3zjdvtxw8strf2c2tmqnxz2j2c79gy9l76sdg0xwhd7r0c0kna0tycz4y5s6mlenh8pq0xmsha"],"fee":811776,"totalOutput":960083181182,"tokens":[]},{"hash":"797eea1ca10e1ad2deff13e4cb08d520fd072f809373ef8213dfb64c29b00c6f","blockNo":8118977,"blockHash":"44630f723ed9987cd43438ab5f6ea4de55cab26de1ea0164a0d5e281227c2c9e","epochNo":380,"epochSlotNo":256865,"slot":79053665,"time":"2022/12/09 21:05:56","addressesInput":["addr1vyp6tekjxfw8z9w4dtnw6ma4n9nhwlr5wm9rmam54clyvxcney4s2"],"addressesOutput":["addr1w8p6z9s2flf0f94edr2amqj0ea8eqp7krrtrlt9l3z0kqlgx296gc","addr1vyp6tekjxfw8z9w4dtnw6ma4n9nhwlr5wm9rmam54clyvxcney4s2"],"fee":168933,"totalOutput":6331067,"tokens":[]},{"hash":"ab69f736697e281c43c86199710e6aecae8490cd12fdd13024931ad3ba0df20b","blockNo":8118977,"blockHash":"44630f723ed9987cd43438ab5f6ea4de55cab26de1ea0164a0d5e281227c2c9e","epochNo":380,"epochSlotNo":256865,"slot":79053665,"time":"2022/12/09 21:05:56","addressesInput":["addr1qx055m3z66pr3efhutar3em7evjvam0pdygszk9p3vjstnff6t2mfyclhj3haqhwc9x86urrpau9aaaddcxf87h7003qp8c3gt","addr1qx055m3z66pr3efhutar3em7evjvam0pdygszk9p3vjstnff6t2mfyclhj3haqhwc9x86urrpau9aaaddcxf87h7003qp8c3gt","addr1qx055m3z66pr3efhutar3em7evjvam0pdygszk9p3vjstnff6t2mfyclhj3haqhwc9x86urrpau9aaaddcxf87h7003qp8c3gt","addr1qx055m3z66pr3efhutar3em7evjvam0pdygszk9p3vjstnff6t2mfyclhj3haqhwc9x86urrpau9aaaddcxf87h7003qp8c3gt"],"addressesOutput":["addr1qx055m3z66pr3efhutar3em7evjvam0pdygszk9p3vjstnff6t2mfyclhj3haqhwc9x86urrpau9aaaddcxf87h7003qp8c3gt","addr1w9k9jjqmy0hmm3ytt6k57v094x78xcymyg8j2xgkxju5y3qxz4y0w","addr1qxsgae4x0z3q0hjjqcwya7vzp9f9ex52lrly0wadmfgvhpfyzttqmp0evfcrwxkda77m5lg8c9ta2aafdf83jxyvhw3sgp9v30"],"fee":249717,"totalOutput":25054582,"tokens":[]},{"hash":"2f8af3ae136e8baab94dcff8ed525dd8a747c0b08e0a51c195abcce063826f3a","blockNo":8118977,"blockHash":"44630f723ed9987cd43438ab5f6ea4de55cab26de1ea0164a0d5e281227c2c9e","epochNo":380,"epochSlotNo":256865,"slot":79053665,"time":"2022/12/09 21:05:56","addressesInput":["addr1zxgx3far7qygq0k6epa0zcvcvrevmn0ypsnfsue94nsn3tvpw288a4x0xf8pxgcntelxmyclq83s0ykeehchz2wtspks905plm","addr1q83ledqv6luf60mqnykflcpjfyuwsh0va8h5qzp4cc56e8nt9qmepy5qvu888vuhuxf89r3pr4vkjrzxg78ww3z92jnqh5alcz","addr1q83ledqv6luf60mqnykflcpjfyuwsh0va8h5qzp4cc56e8nt9qmepy5qvu888vuhuxf89r3pr4vkjrzxg78ww3z92jnqh5alcz"],"addressesOutput":["addr1qxrqlzx4utag3j4h483hndagvcj6gp9yks0ems9qp9yrs8semf0cka44us98eggchy8u3g3n9x307wtcqd55qxu4sx8qa4rust","addr1q9cwvremt6n320s2e3agq0jyq82yhrk3htsu0w426xnz5us70z4w0jgvcdkkynmm8wmds66jd9kusnjfpu6raw5fqp0sr07p5w","addr1q9rs5rq8pp7xk7lr8ch8mhesaygm4cpa3gygsmzu56s032qlpdu5n5s7ysvgm90xl5yuf0rxgw5j0ceu0g4thtmcga2q78ce2u","addr1q83ledqv6luf60mqnykflcpjfyuwsh0va8h5qzp4cc56e8nt9qmepy5qvu888vuhuxf89r3pr4vkjrzxg78ww3z92jnqh5alcz","addr1q83ledqv6luf60mqnykflcpjfyuwsh0va8h5qzp4cc56e8nt9qmepy5qvu888vuhuxf89r3pr4vkjrzxg78ww3z92jnqh5alcz"],"fee":423009,"totalOutput":70759775,"tokens":[]},{"hash":"a54ea064c8668fd250084347cc7406717d46fe44b25868bbc7bbc3e89b843eca","blockNo":8118977,"blockHash":"44630f723ed9987cd43438ab5f6ea4de55cab26de1ea0164a0d5e281227c2c9e","epochNo":380,"epochSlotNo":256865,"slot":79053665,"time":"2022/12/09 21:05:56","addressesInput":["addr1qyv8qgr3yr6mta6vx2xmmreuvn3g0c3stdctksldtt4dw75gfkvlply2gdl3gztmtzxn6w26yfnq42k0et9exaj4px3q4smsd2"],"addressesOutput":["addr1qxfwl0sl5f4rrqlxxgklnx4gqgktccep26qmpuuvl62ec5vgfkvlply2gdl3gztmtzxn6w26yfnq42k0et9exaj4px3qgd9hwr","addr1qxfwl0sl5f4rrqlxxgklnx4gqgktccep26qmpuuvl62ec5vgfkvlply2gdl3gztmtzxn6w26yfnq42k0et9exaj4px3qgd9hwr"],"fee":168317,"totalOutput":57487806,"tokens":[]},{"hash":"5406f068ad89136350c974d668711fa1fe60444860fa62e7205e276635bf2de3","blockNo":8118977,"blockHash":"44630f723ed9987cd43438ab5f6ea4de55cab26de1ea0164a0d5e281227c2c9e","epochNo":380,"epochSlotNo":256865,"slot":79053665,"time":"2022/12/09 21:05:56","addressesInput":["addr1qxe5wf5nh83v6v4qsttdvyzfsttcjkdzyr5y3kvm67rs0eytfp2lhyqdep7g5wcngvujen5tvf0sh8uu36l7h9l0wjcqx4sqe2","addr1qxe5wf5nh83v6v4qsttdvyzfsttcjkdzyr5y3kvm67rs0eytfp2lhyqdep7g5wcngvujen5tvf0sh8uu36l7h9l0wjcqx4sqe2"],"addressesOutput":["addr1qypfvr2cxu429jv4cwjy8qyzktapxpyx3td2f9hcvcnt7usrl4x92madkv7cjdfc2zndq3zjjl8a5t2szj6lycrh2skswxas34","addr1qxe5wf5nh83v6v4qsttdvyzfsttcjkdzyr5y3kvm67rs0eytfp2lhyqdep7g5wcngvujen5tvf0sh8uu36l7h9l0wjcqx4sqe2","addr1qxe5wf5nh83v6v4qsttdvyzfsttcjkdzyr5y3kvm67rs0eytfp2lhyqdep7g5wcngvujen5tvf0sh8uu36l7h9l0wjcqx4sqe2"],"fee":273785,"totalOutput":21284377,"tokens":[]},{"hash":"ccb1d69147e496e1cc753ac1678849f8568f9a9c9beb0d5fdbebcf5e51f87f68","blockNo":8118977,"blockHash":"44630f723ed9987cd43438ab5f6ea4de55cab26de1ea0164a0d5e281227c2c9e","epochNo":380,"epochSlotNo":256865,"slot":79053665,"time":"2022/12/09 21:05:56","addressesInput":["addr1qyz94xdf2nqz47tzat85q2cyg0hx4yrfzxzxgfs3e3xz7t3rxpx2sxg3mt4n3wpjw6jmgqhgl6gw9snnxwacdjx29pgqls732g","addr1qyz94xdf2nqz47tzat85q2cyg0hx4yrfzxzxgfs3e3xz7t3rxpx2sxg3mt4n3wpjw6jmgqhgl6gw9snnxwacdjx29pgqls732g","addr1zxgx3far7qygq0k6epa0zcvcvrevmn0ypsnfsue94nsn3tvpw288a4x0xf8pxgcntelxmyclq83s0ykeehchz2wtspks905plm"],"addressesOutput":["addr1zxgx3far7qygq0k6epa0zcvcvrevmn0ypsnfsue94nsn3tvpw288a4x0xf8pxgcntelxmyclq83s0ykeehchz2wtspks905plm","addr1qyz94xdf2nqz47tzat85q2cyg0hx4yrfzxzxgfs3e3xz7t3rxpx2sxg3mt4n3wpjw6jmgqhgl6gw9snnxwacdjx29pgqls732g"],"fee":286834,"totalOutput":2980146,"tokens":[]},{"hash":"3315988d8be233208ec5d9b093de7035fe4c172707c4e30144ff43ab85e6dfaf","blockNo":8118977,"blockHash":"44630f723ed9987cd43438ab5f6ea4de55cab26de1ea0164a0d5e281227c2c9e","epochNo":380,"epochSlotNo":256865,"slot":79053665,"time":"2022/12/09 21:05:56","addressesInput":["addr1q88fret7pgfe392ae675cj5h3adzgyhe4t2w5dq285fhypw63yqm83kpyjf6a6p5a9wupr6dtpmv36rntaltegu4vt3q697qkm","addr1q88fret7pgfe392ae675cj5h3adzgyhe4t2w5dq285fhypw63yqm83kpyjf6a6p5a9wupr6dtpmv36rntaltegu4vt3q697qkm","addr1q88fret7pgfe392ae675cj5h3adzgyhe4t2w5dq285fhypw63yqm83kpyjf6a6p5a9wupr6dtpmv36rntaltegu4vt3q697qkm"],"addressesOutput":["addr1q89ekxcsjdrrgfq3zmpzt5jgcnzjzvd3e80pqfknxc3taw4j5dlnvr57gqk7242vg72rfy6rht2rq20l04f94xclhhcs9nph28","addr1q88fret7pgfe392ae675cj5h3adzgyhe4t2w5dq285fhypw63yqm83kpyjf6a6p5a9wupr6dtpmv36rntaltegu4vt3q697qkm","addr1q88fret7pgfe392ae675cj5h3adzgyhe4t2w5dq285fhypw63yqm83kpyjf6a6p5a9wupr6dtpmv36rntaltegu4vt3q697qkm"],"fee":176413,"totalOutput":4367363,"tokens":[]},{"hash":"b091cd4daaf983afab6f1812ab2fc8e0c6f25ca1e5778db7f8c78ea887c6df51","blockNo":8118977,"blockHash":"44630f723ed9987cd43438ab5f6ea4de55cab26de1ea0164a0d5e281227c2c9e","epochNo":380,"epochSlotNo":256865,"slot":79053665,"time":"2022/12/09 21:05:56","addressesInput":["addr1qxs07vm9a7wdqqkgfdksqvgz5tqsqj3uce6ms8tjuxhml8fxy8qkhj0azacc9zrj8r37d5azwymq3fm9aljffxjfmuhsltr0n3"],"addressesOutput":["addr1qxs07vm9a7wdqqkgfdksqvgz5tqsqj3uce6ms8tjuxhml8fxy8qkhj0azacc9zrj8r37d5azwymq3fm9aljffxjfmuhsltr0n3","addr1qxs07vm9a7wdqqkgfdksqvgz5tqsqj3uce6ms8tjuxhml8fxy8qkhj0azacc9zrj8r37d5azwymq3fm9aljffxjfmuhsltr0n3","addr1qxs07vm9a7wdqqkgfdksqvgz5tqsqj3uce6ms8tjuxhml8fxy8qkhj0azacc9zrj8r37d5azwymq3fm9aljffxjfmuhsltr0n3","addr1qxs07vm9a7wdqqkgfdksqvgz5tqsqj3uce6ms8tjuxhml8fxy8qkhj0azacc9zrj8r37d5azwymq3fm9aljffxjfmuhsltr0n3","addr1qxs07vm9a7wdqqkgfdksqvgz5tqsqj3uce6ms8tjuxhml8fxy8qkhj0azacc9zrj8r37d5azwymq3fm9aljffxjfmuhsltr0n3"],"fee":177425,"totalOutput":29831123838,"tokens":[]}],"totalItems":56348036,"totalPages":2817402,"currentPage":0}