{"data":[{"txId":59047512,"txHash":"28d4222b9f921c920b4b1bebaf7f51f795025331d69b2af5b7ba0e4f4aa4b6b0","txTime":"2023/01/06 21:17:06","block":8237001,"epoch":386,"slotNo":81473535,"epochSlotNo":84735,"stakeKey":"stake1uxcaudvuk84s9xffzlnjav55x0t37pgkangz98jqv5mmu3spkqgl6"},{"txId":59047339,"txHash":"d3a5fbdf25b6830419fcda2be950cf645cac1509b53180883576d0194750bbb4","txTime":"2023/01/06 21:14:20","block":8236990,"epoch":386,"slotNo":81473369,"epochSlotNo":84569,"stakeKey":"stake1u9sx8p3q5fqy0up69ums46qtz9ls0srcdfns74fcu22qsls98jny9"},{"txId":59047258,"txHash":"ff9a8ec7855b99cde0de9dafe59c85e1b67f612da88e1af473025264d59b55e3","txTime":"2023/01/06 21:13:21","block":8236988,"epoch":386,"slotNo":81473310,"epochSlotNo":84510,"stakeKey":"stake1uxaetderfdvw0s2hxes4car5phvtrw8tpafwctxpd4m63tctjst4n"},{"txId":59047239,"txHash":"856084c73c79e54f2a49535f86fa8988d1dd0cd54e859d072df539629384965d","txTime":"2023/01/06 21:12:34","block":8236986,"epoch":386,"slotNo":81473263,"epochSlotNo":84463,"stakeKey":"stake1uy3mlqxfv67yrnjuwf66v0ny6cgn3f7x3ywsu4hmzej3wqsx0ynuu"},{"txId":59047217,"txHash":"a54632dc48aba13005a7ccd9126c1da13774f305814ebacebc644db99088a5ed","txTime":"2023/01/06 21:12:34","block":8236986,"epoch":386,"slotNo":81473263,"epochSlotNo":84463,"stakeKey":"stake1u9p7hjz8cte3m3y28lp4euuzmv5q5h93wq20emzhdqtvyksewxn4k"},{"txId":59047197,"txHash":"afb93ee747272538eb09e6fbf502da1ca97199986410626ead64bfb8e194219a","txTime":"2023/01/06 21:12:27","block":8236985,"epoch":386,"slotNo":81473256,"epochSlotNo":84456,"stakeKey":"stake1u92ncgc7khrrrfj7uazu35pfhlzunzd5djk533esfwz5w7q3z663t"},{"txId":59047185,"txHash":"e3be717e5907d4df822d6ceda1a9379c8c1ee9d33b68a66024e39e5b87525c63","txTime":"2023/01/06 21:12:27","block":8236985,"epoch":386,"slotNo":81473256,"epochSlotNo":84456,"stakeKey":"stake1u86ey4fgqay5ndu7k8aj0jwgzmva85thesj6z54r7rxcljckvjrad"},{"txId":59047158,"txHash":"af24c765ecbb099f624f7de4211f29c9a295bffc82ad9fe9bfbefe849a6d23af","txTime":"2023/01/06 21:11:43","block":8236984,"epoch":386,"slotNo":81473212,"epochSlotNo":84412,"stakeKey":"stake1u9rptdusea8gtwyxw6f7x6f54m8g2qx0qqmfzatk09jz0hccvys6x"},{"txId":59046889,"txHash":"f9aa7b2a0d0bdd84c610b824e4bcc52bbfd40cf89bc562995feea84aa67d99a2","txTime":"2023/01/06 21:06:52","block":8236971,"epoch":386,"slotNo":81472921,"epochSlotNo":84121,"stakeKey":"stake1uxpws6u3xnzdzcp96lzp47nwkfuswqmrjvvvdmmnp74h03s8a77va"},{"txId":59046541,"txHash":"2e04fb1ab0320e54ffa4ba561c70248614f3a39897da5f9380406b51a6855530","txTime":"2023/01/06 21:01:12","block":8236957,"epoch":386,"slotNo":81472581,"epochSlotNo":83781,"stakeKey":"stake1uxrsxrffsa7fnrl0txwc0tsg2ktc4eakqhfdyrxuy56x53sd3d9pn"},{"txId":59046465,"txHash":"b29632df155c93bcb539d8bdeba1a3b1fdd00dd8d5b9fef24f1c78b63224edee","txTime":"2023/01/06 20:59:57","block":8236952,"epoch":386,"slotNo":81472506,"epochSlotNo":83706,"stakeKey":"stake1uyk8wgx6grdkeeftyr7qvy8w9507k7g64dnmyk94zusakesrmj539"},{"txId":59046421,"txHash":"5078f69fd5b243d5960cab1d22dbb445073264fc1e948162b38ac95555e31a6b","txTime":"2023/01/06 20:59:49","block":8236951,"epoch":386,"slotNo":81472498,"epochSlotNo":83698,"stakeKey":"stake1u8xkj8rx64w0k2s2ed9ym83lezngavc2xkwedw6pgy5gujqenjdx7"},{"txId":59046414,"txHash":"22085fad7ee5950a568be0bbcd25c14fb202e7586eddcb3d38b0238254d798ac","txTime":"2023/01/06 20:59:44","block":8236950,"epoch":386,"slotNo":81472493,"epochSlotNo":83693,"stakeKey":"stake1u92puhv4uplnd4hnw2x5r7tngdsuz02she89lmy27r0959q74c7x8"},{"txId":59046254,"txHash":"68ee3c8a875fedc3be343b071e36976a4f527acbc1155c36558081798a3374a9","txTime":"2023/01/06 20:57:30","block":8236940,"epoch":386,"slotNo":81472359,"epochSlotNo":83559,"stakeKey":"stake1u9vfct4n0u0n0mtd9d5etws4t87wreet7yuq4dx8dkgmpds9ctgdd"},{"txId":59046061,"txHash":"919fe383ed85313da97dac8f59c11afc8c58beef6dd334d781110af140208821","txTime":"2023/01/06 20:55:10","block":8236930,"epoch":386,"slotNo":81472219,"epochSlotNo":83419,"stakeKey":"stake1uyaglztxwdxz69jh462ts6phl7kkhwtc6ksqv5lr3jffggcc6a8ys"},{"txId":59046053,"txHash":"a1f842f7e84157681f7293059c2618c3be27f09b53bdb54a514388df6c7fdd3b","txTime":"2023/01/06 20:55:10","block":8236930,"epoch":386,"slotNo":81472219,"epochSlotNo":83419,"stakeKey":"stake1u9hguh5m6ndukec5fy7wgu8xwskwjad2fnsgjcapft3ujpqvm9f9r"},{"txId":59046041,"txHash":"35dc9fbdc74361867a933dd0fb87ec6e0d21468084516720b6441b7b8534fe8f","txTime":"2023/01/06 20:54:49","block":8236929,"epoch":386,"slotNo":81472198,"epochSlotNo":83398,"stakeKey":"stake1uyjd3f2q25nfvxjn74duqek8j0cze5rgp48dcvc2pkq5gvcd6clw4"},{"txId":59045961,"txHash":"39b8792f528b8a41a49602210ce10dd9839c98f7690530d8fc9287d9afb1a2f6","txTime":"2023/01/06 20:54:15","block":8236927,"epoch":386,"slotNo":81472164,"epochSlotNo":83364,"stakeKey":"stake1uxd9gj5f7mvz7ehfdp9jq3qkrl90dz5cq99aya3t2awxafgdjvf94"},{"txId":59045785,"txHash":"11a8e127a085ce8992831c4f4cef4b9bf6aabee2f91297c141d0922f74d440e0","txTime":"2023/01/06 20:50:59","block":8236918,"epoch":386,"slotNo":81471968,"epochSlotNo":83168,"stakeKey":"stake1uxfhlguz73dmlp55dzf3nwqrskhvhgf0m6lr9ux3kw2qahq07u25e"},{"txId":59045776,"txHash":"462b3e5e7cdb1281236e1f76d38e8a446260efd6e3adb5392b1ff840c8870a9d","txTime":"2023/01/06 20:50:59","block":8236918,"epoch":386,"slotNo":81471968,"epochSlotNo":83168,"stakeKey":"stake1uy4aahmxh69prw0nxh0fevx9w3ne299dgne3c6er80p47hgtpxrqr"}],"totalItems":1640125,"totalPages":82007,"currentPage":0}