{"data":[{"blockNo":8311603,"slotNo":83010342,"epochNo":389,"epochSlotNo":325542,"hash":"51db84614bee724a5dc7829915b61f84b4a84f34c4d3290bd8a98e5b79529758","time":"2023/01/24 16:10:33","txCount":4,"totalFees":1324414,"totalOutput":5658424682,"slotLeader":"76e80e1b3f622c7051f222453497b0667e12892f5d94ee565d17dc52"},{"blockNo":8311602,"slotNo":83010339,"epochNo":389,"epochSlotNo":325539,"hash":"2f3fde0cb96e644df1f19215b1bca57fa013f35e81cafe1894c5bacc5dec64b2","time":"2023/01/24 16:10:30","txCount":4,"totalFees":1693933,"totalOutput":785941713,"slotLeader":"2c88e3a7f6279bda114f92dbbcd78b734f0ebff40ff2bdce647e9c53"},{"blockNo":8311601,"slotNo":83010332,"epochNo":389,"epochSlotNo":325532,"hash":"9f66ff277f8bb30c2e964c33ce93895280681badfcca0c48299533227b74f190","time":"2023/01/24 16:10:23","txCount":34,"totalFees":12910684,"totalOutput":1395860583534,"slotLeader":"486d217a5ef6e9cb5e46a19900a56b1c1f4f1ec4374b744df5a1ef6a"},{"blockNo":8311600,"slotNo":83010294,"epochNo":389,"epochSlotNo":325494,"hash":"210d8c3d0b0a9edf4a097aa793871fb5b798da76d6c8f5150541d24d1f276566","time":"2023/01/24 16:09:45","txCount":24,"totalFees":7847153,"totalOutput":1949477972310,"slotLeader":"c83beb18d532234c72a304ab935982be670c22e771b227a3febc3a82"},{"blockNo":8311599,"slotNo":83010259,"epochNo":389,"epochSlotNo":325459,"hash":"caf400ea23139dfc121bada64dc979e6f7f77f47b46cdade80804797cc545d88","time":"2023/01/24 16:09:10","txCount":0,"totalFees":0,"totalOutput":0,"slotLeader":"d765dee553a7e041d525b1782a10eb0a5e52e96ed55ed173d8bb82a7"},{"blockNo":8311598,"slotNo":83010258,"epochNo":389,"epochSlotNo":325458,"hash":"ff831b6054f06e7dc900df57646c8ec7abba5090532b7552bc9ac845e6259263","time":"2023/01/24 16:09:09","txCount":4,"totalFees":1762070,"totalOutput":2459936580,"slotLeader":"27ca1ffda65d1ef326c9e6a717210c98b10a0e17910c0ab6d9eeb6fb"},{"blockNo":8311597,"slotNo":83010251,"epochNo":389,"epochSlotNo":325451,"hash":"38c1a178ede93b4f4cae4c72d76eca4076f981e29197b64e6b75dfcc26588e54","time":"2023/01/24 16:09:02","txCount":20,"totalFees":7763701,"totalOutput":3190588053537,"slotLeader":"00004614332ac81201d8302d4cb8262502af229256e143dc2156156e"},{"blockNo":8311596,"slotNo":83010221,"epochNo":389,"epochSlotNo":325421,"hash":"5d6911fdf6f01be7a57dd5e7544fcf5495714e8ccc963ed37035fb2260982287","time":"2023/01/24 16:08:32","txCount":11,"totalFees":5175942,"totalOutput":37176411306,"slotLeader":"7f6c103302f96390d478a170fe80938b76fccd8a23490e3b6ddebcf7"},{"blockNo":8311595,"slotNo":83010211,"epochNo":389,"epochSlotNo":325411,"hash":"d76bf2ce55d5c3014299b08c60d5559943cb00e2fa4c259616661cd08f6ab784","time":"2023/01/24 16:08:22","txCount":2,"totalFees":430442,"totalOutput":28176861,"slotLeader":"92bda83eb105d569b23cb6fa1d407dd42de0d2d7e6562718b7ac5c02"},{"blockNo":8311594,"slotNo":83010210,"epochNo":389,"epochSlotNo":325410,"hash":"f301dd6a819ca730abb631909ad18804c6506627a5918045f04a65e33f58cddc","time":"2023/01/24 16:08:21","txCount":4,"totalFees":958032,"totalOutput":739669347,"slotLeader":"2f09336a66c36d0df40dc42f2454fe4f4311c23d312e3683be434081"},{"blockNo":8311593,"slotNo":83010205,"epochNo":389,"epochSlotNo":325405,"hash":"646f058e5dce1d496ce7865ec40e8e10046e57fdb93e15d513e5842f262eb270","time":"2023/01/24 16:08:16","txCount":19,"totalFees":6026033,"totalOutput":23127848983,"slotLeader":"4fd4f6b6c164e0bf9b514f7facc6dcae87ed4eca857605da92990d35"},{"blockNo":8311592,"slotNo":83010181,"epochNo":389,"epochSlotNo":325381,"hash":"e004cae47aa2384a3505b01b6ef80cfbb6de4572582ab52ec6283abe0289c469","time":"2023/01/24 16:07:52","txCount":16,"totalFees":6035419,"totalOutput":1621369563087,"slotLeader":"bdadf198bdc79d4f37c5dcd9ed0cdf402bdc2299c3ae4c87d688a6fe"},{"blockNo":8311591,"slotNo":83010158,"epochNo":389,"epochSlotNo":325358,"hash":"f11ee1140d4804f6aa38a45dd1dd7f339a455eb9c00823cdb51baaa71351769e","time":"2023/01/24 16:07:29","txCount":4,"totalFees":706928,"totalOutput":379112879,"slotLeader":"660f20fb9d419173ac623786ad3e6dc11a23951981e0e83e98233d29"},{"blockNo":8311590,"slotNo":83010147,"epochNo":389,"epochSlotNo":325347,"hash":"c737ca6a6ebdf4a799bfaeb0f9be5d6121cdb1b815027a0341db782c0af547fe","time":"2023/01/24 16:07:18","txCount":42,"totalFees":14754167,"totalOutput":53435727621158,"slotLeader":"660f20fb9d419173ac623786ad3e6dc11a23951981e0e83e98233d29"},{"blockNo":8311589,"slotNo":83010101,"epochNo":389,"epochSlotNo":325301,"hash":"68c6389c1cddbb66fe89225b7d1046da1e634ee42807da4e325d9d42784ea35b","time":"2023/01/24 16:06:32","txCount":11,"totalFees":2467164,"totalOutput":79978329567,"slotLeader":"48794370608c8d41cf4ad665833da210ad4fed6c6fd40b48bfad9ca8"},{"blockNo":8311588,"slotNo":83010088,"epochNo":389,"epochSlotNo":325288,"hash":"8142363312ba5198d133e6ccaf42441f2814c78b2c0266fd48c30bbbeb4b1be1","time":"2023/01/24 16:06:19","txCount":11,"totalFees":3122411,"totalOutput":2558686420219,"slotLeader":"8a8e0fa9953e6a02c73bf9c7471c08c20e4067cccb4afff6201cb6ef"},{"blockNo":8311587,"slotNo":83010074,"epochNo":389,"epochSlotNo":325274,"hash":"fdd51af561c7af68d9a13bdf8890abccd9bc0755c5597375de209b950ee0fec6","time":"2023/01/24 16:06:05","txCount":4,"totalFees":1772836,"totalOutput":10714257283,"slotLeader":"0b38a13726b9dc3aa11be08af93003e775d9d62091765e0e1e3d027b"},{"blockNo":8311586,"slotNo":83010069,"epochNo":389,"epochSlotNo":325269,"hash":"b066d5e46cf43c800018b7601fdd350994505b5b22b1c50505f38b36f31f4539","time":"2023/01/24 16:06:00","txCount":9,"totalFees":3892863,"totalOutput":612655126564,"slotLeader":"d2b32bb469f6e8bcd6e1e0ba818716d317e3f26d0a93f317b08fdced"},{"blockNo":8311585,"slotNo":83010055,"epochNo":389,"epochSlotNo":325255,"hash":"0522d3469579b57e82a583d481e913fceaba4fb9673d0cd1bedce453efacb5a6","time":"2023/01/24 16:05:46","txCount":7,"totalFees":2323753,"totalOutput":7895774049,"slotLeader":"cb40e0cff388865448b04c364ff941ccf576bb2c7f8c804bdc153769"},{"blockNo":8311584,"slotNo":83010044,"epochNo":389,"epochSlotNo":325244,"hash":"95a9ac14e646797d7ee81634addba293b4e7b69d001a7a0fcdb6f9ca6ad3a03d","time":"2023/01/24 16:05:35","txCount":29,"totalFees":7688424,"totalOutput":869365012380,"slotLeader":"28f85efe5e9d3b3d8a0f4950117e47b7415a92f80d69bfb64cfb4d8b"}],"totalItems":8311779,"totalPages":415589,"currentPage":0}