{"data":[{"txId":56798365,"txHash":"d11c2bb08a6a06ddaf7ea5d30d97a3839e7e7bb474a9f6feebdbd4eb85e7f4a4","txTime":"2022/12/07 01:15:41","block":8106930,"epoch":380,"slotNo":78809450,"epochSlotNo":12650,"stakeKey":"stake1u87q0a3mg3f7nvcp4r4nnaptmhlpgd2jx6utxez40gxmjhs7rj6mn"},{"txId":56798363,"txHash":"ab90906b5543a73fa8f7090c28f2fb74988037f7f76586833b251719a3caffa4","txTime":"2022/12/07 01:15:41","block":8106930,"epoch":380,"slotNo":78809450,"epochSlotNo":12650,"stakeKey":"stake1u9g9pzmwjd45y7htgcn9j65u77m6zxkgank6g5s6exlykpghv398v"},{"txId":56798325,"txHash":"50b6fd494679d753c167d967af236e7320a3b6b31ce88df67336cd94401b31c2","txTime":"2022/12/07 01:15:25","block":8106929,"epoch":380,"slotNo":78809434,"epochSlotNo":12634,"stakeKey":"stake1u884jrkn9gmxag27qvn74g6zwsz68twazr52900a6gg5pdgu2deeq"},{"txId":56797811,"txHash":"a02b5e064987dc1aee0d08a2dd3766a45e0766c155e4c8e8d8136b3f6d3b4b28","txTime":"2022/12/07 01:07:33","block":8106907,"epoch":380,"slotNo":78808962,"epochSlotNo":12162,"stakeKey":"stake1u8wpjepn022qsw8xmtvyav9fg0lpcfzc268l7cdnycmlmmcgzm8ra"},{"txId":56797608,"txHash":"7651f4073489865968ff86d71994c40cb195f0eb2ffe672625da62115d06d669","txTime":"2022/12/07 01:03:41","block":8106900,"epoch":380,"slotNo":78808730,"epochSlotNo":11930,"stakeKey":"stake1u9vg0jr64mh23twmf39sd2n44r4q2vp9fk7wtyj658chreqtuwyl3"},{"txId":56797305,"txHash":"61100525f5a5389daabdd1c763f12e81931c50fa88e8c9ddb4b8b80b6a308a05","txTime":"2022/12/07 00:58:23","block":8106884,"epoch":380,"slotNo":78808412,"epochSlotNo":11612,"stakeKey":"stake1u955hqd3sqlx8jlutxxkwmqueqrctkgywhdqlls30j5k6gcn0zgr7"},{"txId":56797231,"txHash":"3581a1ed0a11256560894c552c235e8db17754c1c6ae5b6cbd6cc8df853ceb71","txTime":"2022/12/07 00:57:14","block":8106880,"epoch":380,"slotNo":78808343,"epochSlotNo":11543,"stakeKey":"stake1uy0u9df0rpq7sfuydlpkvjpeh8rnrzjkyk2hh9pg2u30yjgqw98cd"},{"txId":56796926,"txHash":"a360830271dcabf09065b97aa5cab434439a9e8b93a15def9a53f91cdcd940ad","txTime":"2022/12/07 00:52:09","block":8106866,"epoch":380,"slotNo":78808038,"epochSlotNo":11238,"stakeKey":"stake1uxs2qvtjxp32n0yeja3np47a9a5c4hs2gdpy64909y0fk9g75krd2"},{"txId":56796639,"txHash":"6a7d3c0972490a4bbfbf19078b8dd96dcc965a3455b2b04306fd61b88c4e5aed","txTime":"2022/12/07 00:47:39","block":8106852,"epoch":380,"slotNo":78807768,"epochSlotNo":10968,"stakeKey":"stake1u950dhllq4hwv7dca9j5t3c9nj362v3p5pjlgphwcqqywts682zjr"},{"txId":56796298,"txHash":"a55e8676c3797048fa8fcbc99876568a745b4105b00e15e0ef7b7b07b0b28e9e","txTime":"2022/12/07 00:42:48","block":8106829,"epoch":380,"slotNo":78807477,"epochSlotNo":10677,"stakeKey":"stake1u8e97k8crpucvz85h4ff48gl8drqzpvrltmc0ptwjkmvr4smwx5z3"},{"txId":56796101,"txHash":"68436d75574d137642999faf57b80b1573bcc1517b5047b0596e4c9f68a0ade4","txTime":"2022/12/07 00:40:59","block":8106819,"epoch":380,"slotNo":78807368,"epochSlotNo":10568,"stakeKey":"stake1u89wsqw4h3st8xeeautkwukh40xkd52zgpp27gyytzp5grq9px0a2"},{"txId":56795740,"txHash":"5ed8fdff62f209080ec14400c08c77ef1fdc45e4e8c0f07ee231d0b80e857910","txTime":"2022/12/07 00:35:25","block":8106799,"epoch":380,"slotNo":78807034,"epochSlotNo":10234,"stakeKey":"stake1uy4c4a9r0fvthh3eeuc6e09egqd770r725fe074sj5rw0mssvk33d"},{"txId":56795367,"txHash":"27e8e66815cac85ce71bdeeb3c579d2199870d3a57e89929b1d3a105d0eabe34","txTime":"2022/12/07 00:30:12","block":8106785,"epoch":380,"slotNo":78806721,"epochSlotNo":9921,"stakeKey":"stake1uycygw2lh337t7gamn99tvw6ch2hwf24qmg0337hcs8c23qpz2hlm"},{"txId":56795061,"txHash":"4bc21ed7860e47f3384ef81523d70bbd6ac52999f5618d79537f504140fe32a6","txTime":"2022/12/07 00:25:44","block":8106771,"epoch":380,"slotNo":78806453,"epochSlotNo":9653,"stakeKey":"stake1u8mcsh96gy4a2pp3wmddvkpqfm6646r4ppxrpqgk98ak0vcqkghav"},{"txId":56794588,"txHash":"897c878dac8042f625605b931c9b3ff53734ccb9615a597a0e274515e773057f","txTime":"2022/12/07 00:19:43","block":8106749,"epoch":380,"slotNo":78806092,"epochSlotNo":9292,"stakeKey":"stake1u8a66y45tfpck0aj2sgpem3euk49avr8aw2qp30mldqqjhs9349w0"},{"txId":56794461,"txHash":"996ea9dc41986090f5b7126253554e30a78c66ae55645c16a7bec897ef90dbfa","txTime":"2022/12/07 00:18:50","block":8106746,"epoch":380,"slotNo":78806039,"epochSlotNo":9239,"stakeKey":"stake1u86hvwqrx3dy6su0f7fgztyys8gd2jxevs3tdwxrvszvezqxermef"},{"txId":56794407,"txHash":"97c1b286f9063129afc24af6b90d9ae8a5b7bc6bbc62b9a63575fda9b1fc97ed","txTime":"2022/12/07 00:18:22","block":8106745,"epoch":380,"slotNo":78806011,"epochSlotNo":9211,"stakeKey":"stake1uysk3z9vcqjku4gwk88548stxjd9mxr573ajv5u66fg7vpsdcdf3j"},{"txId":56794113,"txHash":"1639508db13c4751277c2be15ab70a7efce4c79ddf97291f61c82b2e3bb799cd","txTime":"2022/12/07 00:13:41","block":8106734,"epoch":380,"slotNo":78805730,"epochSlotNo":8930,"stakeKey":"stake1uxds3py9e6s699eq99ry8myxg83szddhznxmt0mq0c96xeq5y5nsm"},{"txId":56793493,"txHash":"bc80644ce1fc09598fdf9b2f5a3e4a2cfe2a8096ae34b3dd3f98123941063c23","txTime":"2022/12/07 00:05:55","block":8106716,"epoch":380,"slotNo":78805264,"epochSlotNo":8464,"stakeKey":"stake1u9kxhppdkapa6a2wu8uc2y4s75up0crs77zvxartcjghyagwm4wjl"},{"txId":56793474,"txHash":"da54f578bc1ac57a8f731af3c61414ca7db920fcfc9be82086537d69375d24c1","txTime":"2022/12/07 00:05:09","block":8106715,"epoch":380,"slotNo":78805218,"epochSlotNo":8418,"stakeKey":"stake1uxj02lphpxlanu7lgapjt6fmyfprtgsyfu2erpr25mdqrdgc5qw38"}],"totalItems":1617137,"totalPages":80857,"currentPage":0}