{"data":[{"hash":"9adbf5fc24429294f21f9929d36ff57d6f4bf5f16a42c923dd9774cc2618c9d2","blockNo":7922583,"blockHash":"f15663dbff2f484e1beaa87f50ae9474b79342548565508eede21bbc4f6f1611","epochNo":371,"epochSlotNo":93348,"slot":75002148,"time":"2022/10/23 23:40:39","addressesInput":["addr1qxx6delnaczsxmwaelvntngqwp0tmpt7y33pkczjtqlcfd5d5mnl8ms9qdkamn7exhxsquz7hkzhufrzrds9ykplsjmqpemuvz","addr1qxx6delnaczsxmwaelvntngqwp0tmpt7y33pkczjtqlcfd5d5mnl8ms9qdkamn7exhxsquz7hkzhufrzrds9ykplsjmqpemuvz"],"addressesOutput":["addr1qxx6delnaczsxmwaelvntngqwp0tmpt7y33pkczjtqlcfd5d5mnl8ms9qdkamn7exhxsquz7hkzhufrzrds9ykplsjmqpemuvz","addr1qxx6delnaczsxmwaelvntngqwp0tmpt7y33pkczjtqlcfd5d5mnl8ms9qdkamn7exhxsquz7hkzhufrzrds9ykplsjmqpemuvz"],"fee":233854,"totalOutput":2539004920,"tokens":[]},{"hash":"d9cae5919641f98ff53f9ea6f3d2b9a8892d9f87659dc6e1d8a2657ad2114372","blockNo":7922583,"blockHash":"f15663dbff2f484e1beaa87f50ae9474b79342548565508eede21bbc4f6f1611","epochNo":371,"epochSlotNo":93348,"slot":75002148,"time":"2022/10/23 23:40:39","addressesInput":["addr1v80rrlg7g004kdv5g9jtryykkx3q6x0xpwm4u50e54tgmjsh9e85p","addr1v8699gcjyd98hxz0kfqq0rwqs3dsjd2g5snw9mqyfmguvlquepc8e","addr1v9g3yk6800esyg4r246csz6euk79wh4c4xpltfk3v4327sgh5433u","addr1vx33akl7f7me62870v7t6vq9fdwt52np2rrvf7yrgrxkf0q6qhzwe","addr1v9t3lkgdf5jf97vkt83ung3x0lvzcs6mn33hfzsn2xk8wrg4md28l","addr1vygtks07zms5gd8zdlspq87ad2l98wu4y5ya27ulcgldchck79cv3","addr1v9derlkwqz9gq8zs08mqcl48lmuh7xvjncef7cgfdxhwscg66txdr","addr1vyyg936cxwxy0l3ghcfp0fr3hdrwhc9jdae9rum02pz8j4ckxr4hm","addr1vyc7ca9flp5gfeapd78uxzzq7l6qnsytj85n62lr5smhgssen2u2s","addr1vynhj44dcz24g52fadv2x2fjmur5wz0rzhm6pqeuffh6zgq697d03"],"addressesOutput":["addr1vygtks07zms5gd8zdlspq87ad2l98wu4y5ya27ulcgldchck79cv3","addr1v9g3yk6800esyg4r246csz6euk79wh4c4xpltfk3v4327sgh5433u","addr1v80rrlg7g004kdv5g9jtryykkx3q6x0xpwm4u50e54tgmjsh9e85p","addr1v9derlkwqz9gq8zs08mqcl48lmuh7xvjncef7cgfdxhwscg66txdr","addr1vx33akl7f7me62870v7t6vq9fdwt52np2rrvf7yrgrxkf0q6qhzwe","addr1vyyg936cxwxy0l3ghcfp0fr3hdrwhc9jdae9rum02pz8j4ckxr4hm","addr1v9t3lkgdf5jf97vkt83ung3x0lvzcs6mn33hfzsn2xk8wrg4md28l","addr1v8699gcjyd98hxz0kfqq0rwqs3dsjd2g5snw9mqyfmguvlquepc8e","addr1vynhj44dcz24g52fadv2x2fjmur5wz0rzhm6pqeuffh6zgq697d03","addr1qyf0tra3mvgzwp6nxaa9a8vmrjx578h6p3u58tj5xppj067xh3lxgef847xa8ptscfk6f98e0jp7k8sstyxy5qf2yctq7nc89h"],"fee":331425,"totalOutput":16577693,"tokens":[]},{"hash":"4b378c197aad25df13da9f629a8df6232f4bd6725ee529cd135d60b28c16f47a","blockNo":7922583,"blockHash":"f15663dbff2f484e1beaa87f50ae9474b79342548565508eede21bbc4f6f1611","epochNo":371,"epochSlotNo":93348,"slot":75002148,"time":"2022/10/23 23:40:39","addressesInput":["addr1qyck0f5vkg0a24rl5454z2v5jmegstrh39wx8us0k2dy2x33v7ngevsl6428lftf2y5ef9hj3qk80z2uv0eqlv56g5dq80ax3j","addr1qyck0f5vkg0a24rl5454z2v5jmegstrh39wx8us0k2dy2x33v7ngevsl6428lftf2y5ef9hj3qk80z2uv0eqlv56g5dq80ax3j"],"addressesOutput":["addr1qyck0f5vkg0a24rl5454z2v5jmegstrh39wx8us0k2dy2x33v7ngevsl6428lftf2y5ef9hj3qk80z2uv0eqlv56g5dq80ax3j","addr1qyck0f5vkg0a24rl5454z2v5jmegstrh39wx8us0k2dy2x33v7ngevsl6428lftf2y5ef9hj3qk80z2uv0eqlv56g5dq80ax3j"],"fee":249631,"totalOutput":470610871,"tokens":[]},{"hash":"75c2c16e2190a8ffe937cb0fe55d9b97bdd87bd8a9421b94a003bbb6279cc405","blockNo":7922583,"blockHash":"f15663dbff2f484e1beaa87f50ae9474b79342548565508eede21bbc4f6f1611","epochNo":371,"epochSlotNo":93348,"slot":75002148,"time":"2022/10/23 23:40:39","addressesInput":["addr1w9qzpelu9hn45pefc0xr4ac4kdxeswq7pndul2vuj59u8tqaxdznu","addr1vxfkdvqadwhsgqj9acr3yl7g4a8sff6mj8r2jlmfclmyvwsv5u7fe","addr1vxfkdvqadwhsgqj9acr3yl7g4a8sff6mj8r2jlmfclmyvwsv5u7fe","addr1wxaptpmxcxawvr3pzlhgnpmzz3ql43n2tc8mn3av5kx0yzs09tqh8"],"addressesOutput":["addr1w9qzpelu9hn45pefc0xr4ac4kdxeswq7pndul2vuj59u8tqaxdznu","addr1w9jx45flh83z6wuqypyash54mszwmdj8r64fydafxtfc6jgrw4rm3","addr1qxq6uslytlp4ydmy9czw9t6mjr8jkffk4q5lga8f7r76hn594pgjhjszmtuzyd7ga9jzcy67rwcf7wwhg3nlvzyuzwpqnqes35","addr1vxfkdvqadwhsgqj9acr3yl7g4a8sff6mj8r2jlmfclmyvwsv5u7fe","addr1vxfkdvqadwhsgqj9acr3yl7g4a8sff6mj8r2jlmfclmyvwsv5u7fe"],"fee":1169246,"totalOutput":128563568356,"tokens":[]},{"hash":"3a5f9da38b2f269231beabe4f77d52dc1e7a1b5537f9cdcf14dcfc504586dd50","blockNo":7922583,"blockHash":"f15663dbff2f484e1beaa87f50ae9474b79342548565508eede21bbc4f6f1611","epochNo":371,"epochSlotNo":93348,"slot":75002148,"time":"2022/10/23 23:40:39","addressesInput":["addr1q9ll7gmw64k9vp7y0zgyzy392w7jhwwaagztythyc75dkx4tett05kqnkernqnwavryrx993c6nlfvgfglq0jl8qkevq8uqcx4","addr1q9ll7gmw64k9vp7y0zgyzy392w7jhwwaagztythyc75dkx4tett05kqnkernqnwavryrx993c6nlfvgfglq0jl8qkevq8uqcx4"],"addressesOutput":["addr1zxgx3far7qygq0k6epa0zcvcvrevmn0ypsnfsue94nsn3tvpw288a4x0xf8pxgcntelxmyclq83s0ykeehchz2wtspks905plm","addr1q9ll7gmw64k9vp7y0zgyzy392w7jhwwaagztythyc75dkx4tett05kqnkernqnwavryrx993c6nlfvgfglq0jl8qkevq8uqcx4","addr1q9ll7gmw64k9vp7y0zgyzy392w7jhwwaagztythyc75dkx4tett05kqnkernqnwavryrx993c6nlfvgfglq0jl8qkevq8uqcx4"],"fee":225077,"totalOutput":6484777,"tokens":[]},{"hash":"e1b07feca00b4b9a27322b8df228e072d4c67510f442a6ad8b6bc51d76146350","blockNo":7922583,"blockHash":"f15663dbff2f484e1beaa87f50ae9474b79342548565508eede21bbc4f6f1611","epochNo":371,"epochSlotNo":93348,"slot":75002148,"time":"2022/10/23 23:40:39","addressesInput":["addr1q8qmujmyh92af7rkrpfeu95cevskzq3l6ha9gjt6m7lskdty2whghesc7tde2jmtfcvumrdnqnf4ealgqqm80r9xn49s6wxcnx"],"addressesOutput":["addr1qyxpajlr2sv85a7qw86dvhfw29t787spcnp5a57gjl9ss8k2h8y4gwedd2z2nx6544nalel0zd0g0kel44c96xy3vxvqkd5h9p","addr1qx5wnkz0ukc7ad29k9pne7mc9gtltvtvlu8909l6kd2djpny2whghesc7tde2jmtfcvumrdnqnf4ealgqqm80r9xn49s30lp3g","addr1qx5wnkz0ukc7ad29k9pne7mc9gtltvtvlu8909l6kd2djpny2whghesc7tde2jmtfcvumrdnqnf4ealgqqm80r9xn49s30lp3g","addr1qx5wnkz0ukc7ad29k9pne7mc9gtltvtvlu8909l6kd2djpny2whghesc7tde2jmtfcvumrdnqnf4ealgqqm80r9xn49s30lp3g","addr1qx5wnkz0ukc7ad29k9pne7mc9gtltvtvlu8909l6kd2djpny2whghesc7tde2jmtfcvumrdnqnf4ealgqqm80r9xn49s30lp3g"],"fee":176897,"totalOutput":8544360646,"tokens":[]},{"hash":"2b25506e8255b650d0e38cf6cabf7ad25f4e42c0a51d6d6d9b3ab12a3809b963","blockNo":7922583,"blockHash":"f15663dbff2f484e1beaa87f50ae9474b79342548565508eede21bbc4f6f1611","epochNo":371,"epochSlotNo":93348,"slot":75002148,"time":"2022/10/23 23:40:39","addressesInput":["addr1q8enh8c2a24tc78csmzjmz0t772gtxk2na4yx5zny5795w6v4rfupx8jetf6raw2w2ehq2lxcnyhm6all42phtg05lds28zj6v","addr1q8enh8c2a24tc78csmzjmz0t772gtxk2na4yx5zny5795w6v4rfupx8jetf6raw2w2ehq2lxcnyhm6all42phtg05lds28zj6v","addr1q8enh8c2a24tc78csmzjmz0t772gtxk2na4yx5zny5795w6v4rfupx8jetf6raw2w2ehq2lxcnyhm6all42phtg05lds28zj6v"],"addressesOutput":["addr1zxgx3far7qygq0k6epa0zcvcvrevmn0ypsnfsue94nsn3tvpw288a4x0xf8pxgcntelxmyclq83s0ykeehchz2wtspks905plm","addr1q8enh8c2a24tc78csmzjmz0t772gtxk2na4yx5zny5795w6v4rfupx8jetf6raw2w2ehq2lxcnyhm6all42phtg05lds28zj6v"],"fee":254689,"totalOutput":9298123,"tokens":[]},{"hash":"893a1b75015277f1452310caa8dcd9722aace90a4dfb6cffa0364e038f34f846","blockNo":7922583,"blockHash":"f15663dbff2f484e1beaa87f50ae9474b79342548565508eede21bbc4f6f1611","epochNo":371,"epochSlotNo":93348,"slot":75002148,"time":"2022/10/23 23:40:39","addressesInput":["addr1q99se7swct7qsghpu7tfe02vt7gle089xct8y25yjjnryuk5pckwdhpqgv20fnvy30u9mylpq7knjdunxuz2jen56jpsc6gywg","addr1q99se7swct7qsghpu7tfe02vt7gle089xct8y25yjjnryuk5pckwdhpqgv20fnvy30u9mylpq7knjdunxuz2jen56jpsc6gywg"],"addressesOutput":["addr1zxgx3far7qygq0k6epa0zcvcvrevmn0ypsnfsue94nsn3tvpw288a4x0xf8pxgcntelxmyclq83s0ykeehchz2wtspks905plm","addr1q99se7swct7qsghpu7tfe02vt7gle089xct8y25yjjnryuk5pckwdhpqgv20fnvy30u9mylpq7knjdunxuz2jen56jpsc6gywg","addr1q99se7swct7qsghpu7tfe02vt7gle089xct8y25yjjnryuk5pckwdhpqgv20fnvy30u9mylpq7knjdunxuz2jen56jpsc6gywg"],"fee":235637,"totalOutput":7856251,"tokens":[]},{"hash":"f08d9d0ee9784b7db1d8b55a64dc175cb6114648b337042b930a99d7db18f7c1","blockNo":7922583,"blockHash":"f15663dbff2f484e1beaa87f50ae9474b79342548565508eede21bbc4f6f1611","epochNo":371,"epochSlotNo":93348,"slot":75002148,"time":"2022/10/23 23:40:39","addressesInput":["addr1qx0ztyr0c72y3sw25gspaa5t88nja47w3eenuyps9qajvzhwla7x5nnhfgwcw8uere5u4waquuawvchtdpfjqjc57gps5dw88q","addr1qxpsv3tg92j09l8zp6wn8eetau54s989smajvdre3dxshqc996s7kht35gw9xru7l92nk73ltquwevmn9l8etw8twsks0kljny","addr1qxtkgn6dll2dsdv3h2w43w3zjp3k4yqrpj3wfv93568authwa3rrl8a92vwyw9ltdelzv3n3ctnunyljd0xm7r9qpcqs38jrdl","addr1q8gkljdsd02k8xldspm7lme74l0r2rvduqa4zvw5gq8lv6etrzlm0v7fynwxkcjhh8nyrlyred6gk9qelm0uj395d2lsfz390l","addr1q8vlurm0q75urejkwkksqg8ax8dzwd2zc0f2dgq5guwazmuxqgcfl39s62dj0dqun3trqrkx9mw8sca97yf7pa27ya9sfdrtgg","addr1qxfh5c9w40h2pfshcuk57uc9davvf542suf3qmmfrd5d7h2qd3dn8fvmgm7xdss2j8j4jeyjyhaudsts4j6ex39zrlas8e5pec","addr1qxaz9xva3au6gx69dt6v780t2wn3v3af9ynsmwnef4a8kqy79gldstgy8qfnzx9zt5k9ksue2c7xknvngyud938tvvkqasujcl","addr1q9q2yp6mlnmd882cn2m8hxvd2pqdgz3la5n4wea4d4cdludd8dxqcg6ldhvxl2emqp05tdn8kmlyrwwcu6xec9q862esxe270q","addr1q96jwyuep3yz52a79kxqver5zsg3gqr6a4gay0q472l908m3rmg0xczhp3vc3tzt6ejtacusgsjumwp7v7j4jzhzhx2syg8852","addr1qyw0rkvqlzq7767nnr64j0hyung64r8fz6xs8cs8wwssa7vpxwkxdtp027p94mykstlt9arhfeugsr4mllttkc4khrzqx3ngg0","addr1q9t0arc6fy0r88lkvdhnn5qyewar4h3lpsz52w0k9atquptc7k8vfpajs5v5s8jjyqymn860cqcwxzpjjraagls06htquthhz5","addr1qx6xksw3z3xpfpvnqd66evldq4tsm23yjrswyl58sqp04t20tuk4ddg993xu8vpmegcrtaq4lc9vhszmd6xsn2dfrg8qvnkqmy","addr1q9t0arc6fy0r88lkvdhnn5qyewar4h3lpsz52w0k9atquptc7k8vfpajs5v5s8jjyqymn860cqcwxzpjjraagls06htquthhz5","addr1qxqy0t0dc253fyrswcgxwyd4r288ucyuseyjj4urkxhdgc6m6fteaevku4r3l4xpme5wdm467j3gzszn6uppc407qussc0pgwg","addr1qxtkgn6dll2dsdv3h2w43w3zjp3k4yqrpj3wfv93568authwa3rrl8a92vwyw9ltdelzv3n3ctnunyljd0xm7r9qpcqs38jrdl","addr1qymxrpag4eylc9h9c8ckg7g968qj2jhnvferdz3mz35x724sp4a6au53zjd2s5hem5cpw9m5p785twhge8956qagnjfquhc4t6","addr1qx0ztyr0c72y3sw25gspaa5t88nja47w3eenuyps9qajvzhwla7x5nnhfgwcw8uere5u4waquuawvchtdpfjqjc57gps5dw88q","addr1qy7p2s58qd2ud706y6zaytjwds62cwspx2gwg7sgs2pq9ph6xj9j8reex57p0qr0g6s3azj0wrs05zj3m3s2c5mv3twqq9dk5v","addr1qyt8nqrngva4wzlacdhsu5kgzpv3kfhwfj45srt2xdefw3mnl693l42z76pxgqxhnfunn7rndj56wquv7gs0ycums6rs4gk75w","addr1qxs7mg43w5uyfarpc34wyun4x3fp5nga9rwfqekenq5aqe38s5jf3yks9af09l9wx2xlhavf8pnhu2tggzqahflw8h6qu356h6"],"addressesOutput":["DdzFFzCqrhtBatWqyFge4w6M6VLgNUwRHiXTAg3xfQCUdTcjJxSrPHVZJBsQprUEc5pRhgMWQaGciTssoZVwrSKmG1fneZ1AeCtLgs5Y"],"fee":361481,"totalOutput":147717391875,"tokens":[]},{"hash":"0c4692d5b2f5149c0f522d68b4ca764728750bcb3d17e606eee06963acb5a58c","blockNo":7922583,"blockHash":"f15663dbff2f484e1beaa87f50ae9474b79342548565508eede21bbc4f6f1611","epochNo":371,"epochSlotNo":93348,"slot":75002148,"time":"2022/10/23 23:40:39","addressesInput":["addr1qyq0yjp5ppgclrmhzpa509vh3g3a0c6pj7p6rtw3wxnsuq2qf6mqwg9qkc9fe4aj93qkzx6u53879e0advk20desl0usfzvy63","addr1zxgx3far7qygq0k6epa0zcvcvrevmn0ypsnfsue94nsn3tvpw288a4x0xf8pxgcntelxmyclq83s0ykeehchz2wtspks905plm"],"addressesOutput":["addr1qyq0yjp5ppgclrmhzpa509vh3g3a0c6pj7p6rtw3wxnsuq2qf6mqwg9qkc9fe4aj93qkzx6u53879e0advk20desl0usfzvy63","addr1qyq0yjp5ppgclrmhzpa509vh3g3a0c6pj7p6rtw3wxnsuq2qf6mqwg9qkc9fe4aj93qkzx6u53879e0advk20desl0usfzvy63","addr1qyq0yjp5ppgclrmhzpa509vh3g3a0c6pj7p6rtw3wxnsuq2qf6mqwg9qkc9fe4aj93qkzx6u53879e0advk20desl0usfzvy63"],"fee":271464,"totalOutput":302965521,"tokens":[]},{"hash":"63c2cacb7405fa71da4909e75de5bcd8784349833fde0d559a821eead51027ba","blockNo":7922583,"blockHash":"f15663dbff2f484e1beaa87f50ae9474b79342548565508eede21bbc4f6f1611","epochNo":371,"epochSlotNo":93348,"slot":75002148,"time":"2022/10/23 23:40:39","addressesInput":["addr1qy4wr9tp72xumw4uanm3lxsak3vxegz4390pcc7t663fkjyrq8rndtc77hyn43765axv84vz89r9ej4j8uy4dtk6rdzshu66wh","addr1qy4wr9tp72xumw4uanm3lxsak3vxegz4390pcc7t663fkjyrq8rndtc77hyn43765axv84vz89r9ej4j8uy4dtk6rdzshu66wh","addr1qy4wr9tp72xumw4uanm3lxsak3vxegz4390pcc7t663fkjyrq8rndtc77hyn43765axv84vz89r9ej4j8uy4dtk6rdzshu66wh"],"addressesOutput":["addr1zxgx3far7qygq0k6epa0zcvcvrevmn0ypsnfsue94nsn3tvpw288a4x0xf8pxgcntelxmyclq83s0ykeehchz2wtspks905plm","addr1qy4wr9tp72xumw4uanm3lxsak3vxegz4390pcc7t663fkjyrq8rndtc77hyn43765axv84vz89r9ej4j8uy4dtk6rdzshu66wh","addr1qy4wr9tp72xumw4uanm3lxsak3vxegz4390pcc7t663fkjyrq8rndtc77hyn43765axv84vz89r9ej4j8uy4dtk6rdzshu66wh"],"fee":221821,"totalOutput":7610707,"tokens":[]},{"hash":"d648be38b17009b07d62501d959a025454ace4bc17d33b6f59b9bbd49a273618","blockNo":7922583,"blockHash":"f15663dbff2f484e1beaa87f50ae9474b79342548565508eede21bbc4f6f1611","epochNo":371,"epochSlotNo":93348,"slot":75002148,"time":"2022/10/23 23:40:39","addressesInput":["addr1qxfv9swnefhfqwpfh7ssefr3v5fqnkwm8na7tdceuk2vvvngcjawppvmexgfcg3prcq4m3rghw9pvk8gt2gjz0e2slqqq386tt","addr1q9jr3a7su2j934yytgghdn2cyz22238pjh45e00xvan80mngcjawppvmexgfcg3prcq4m3rghw9pvk8gt2gjz0e2slqqjektek"],"addressesOutput":["addr1q96a92xaz84xeudse2ddvryhjae4zne3svmqh0pth0e48806cp8aepep4dts022vxuxunw3g9rmzt9mpqap6e8g0zmrq849z05","addr1q9yc8vc6xff8xqhnu57h5fvnuvu9ljnlf0nzff8vvpcks5ngcjawppvmexgfcg3prcq4m3rghw9pvk8gt2gjz0e2slqqjay7ew"],"fee":176369,"totalOutput":2858727,"tokens":[]},{"hash":"440b1315d9dabf53c0f825e7b5cee01dcf3c74d24b048660367c8e627ef024d1","blockNo":7922583,"blockHash":"f15663dbff2f484e1beaa87f50ae9474b79342548565508eede21bbc4f6f1611","epochNo":371,"epochSlotNo":93348,"slot":75002148,"time":"2022/10/23 23:40:39","addressesInput":["addr1vyht4ja0zcn45qvyx477qlyp6j5ftu5ng0prt9608dxp6lgpnh5ft","addr1z8snz7c4974vzdpxu65ruphl3zjdvtxw8strf2c2tmqnxz2j2c79gy9l76sdg0xwhd7r0c0kna0tycz4y5s6mlenh8pq0xmsha","addr1wxn9efv2f6w82hagxqtn62ju4m293tqvw0uhmdl64ch8uwc0h43gt","addr1vyht4ja0zcn45qvyx477qlyp6j5ftu5ng0prt9608dxp6lgpnh5ft"],"addressesOutput":["addr1vyht4ja0zcn45qvyx477qlyp6j5ftu5ng0prt9608dxp6lgpnh5ft","addr1vyht4ja0zcn45qvyx477qlyp6j5ftu5ng0prt9608dxp6lgpnh5ft","addr1q8y2w4meyl8sqxlaewmazt3whz2dlt07x9srl5nzuc7688e8r38ayd00w384p5jkfgh2f787c8zgw6l5g26y9fmsadssaemm39","addr1z8snz7c4974vzdpxu65ruphl3zjdvtxw8strf2c2tmqnxz2j2c79gy9l76sdg0xwhd7r0c0kna0tycz4y5s6mlenh8pq0xmsha"],"fee":800274,"totalOutput":314786951077,"tokens":[]},{"hash":"682d7503e99f7f78c7343d1d0981c90388098e95f5347febf0e77285481f87ef","blockNo":7922582,"blockHash":"69a6844f367566d3d3c1ca7fdf17db474b9668a9b0623fd535b65e2dbdd0ec2d","epochNo":371,"epochSlotNo":93343,"slot":75002143,"time":"2022/10/23 23:40:34","addressesInput":["addr1vyht4ja0zcn45qvyx477qlyp6j5ftu5ng0prt9608dxp6lgpnh5ft","addr1wxn9efv2f6w82hagxqtn62ju4m293tqvw0uhmdl64ch8uwc0h43gt","addr1z8snz7c4974vzdpxu65ruphl3zjdvtxw8strf2c2tmqnxz2j2c79gy9l76sdg0xwhd7r0c0kna0tycz4y5s6mlenh8pq0xmsha","addr1vyht4ja0zcn45qvyx477qlyp6j5ftu5ng0prt9608dxp6lgpnh5ft"],"addressesOutput":["addr1vyht4ja0zcn45qvyx477qlyp6j5ftu5ng0prt9608dxp6lgpnh5ft","addr1vyht4ja0zcn45qvyx477qlyp6j5ftu5ng0prt9608dxp6lgpnh5ft","addr1q8fjdde87jrua78trg9ylv7gpvd5skzcv5nqp3wl467ykzgsmz083klcvm744y0n7yyg49ykzz0j628xpu4n5u0r0r4qrfqf6q","addr1z8snz7c4974vzdpxu65ruphl3zjdvtxw8strf2c2tmqnxz2j2c79gy9l76sdg0xwhd7r0c0kna0tycz4y5s6mlenh8pq0xmsha"],"fee":800811,"totalOutput":2833335624,"tokens":[]},{"hash":"f8c1d341abe7426d69d2710424b1f2a9b0b0f1b827326219713f11230569b6ec","blockNo":7922582,"blockHash":"69a6844f367566d3d3c1ca7fdf17db474b9668a9b0623fd535b65e2dbdd0ec2d","epochNo":371,"epochSlotNo":93343,"slot":75002143,"time":"2022/10/23 23:40:34","addressesInput":["addr1z8snz7c4974vzdpxu65ruphl3zjdvtxw8strf2c2tmqnxz2j2c79gy9l76sdg0xwhd7r0c0kna0tycz4y5s6mlenh8pq0xmsha","addr1vyht4ja0zcn45qvyx477qlyp6j5ftu5ng0prt9608dxp6lgpnh5ft","addr1vyht4ja0zcn45qvyx477qlyp6j5ftu5ng0prt9608dxp6lgpnh5ft","addr1wxn9efv2f6w82hagxqtn62ju4m293tqvw0uhmdl64ch8uwc0h43gt"],"addressesOutput":["addr1vyht4ja0zcn45qvyx477qlyp6j5ftu5ng0prt9608dxp6lgpnh5ft","addr1vyht4ja0zcn45qvyx477qlyp6j5ftu5ng0prt9608dxp6lgpnh5ft","addr1qxjyp5kkfy7uuk5wkz5k7hczwthel4t4lkf4jfyem339xcshdx5ac80j9qrcrt3pdquvpmsd49slaaud437x3hsxduyqgu2qvj","addr1z8snz7c4974vzdpxu65ruphl3zjdvtxw8strf2c2tmqnxz2j2c79gy9l76sdg0xwhd7r0c0kna0tycz4y5s6mlenh8pq0xmsha"],"fee":799566,"totalOutput":89631190194,"tokens":[]},{"hash":"fe39a71052ea2783a64aac792925f934674f93c5430c9b9b12a6eed78eee567a","blockNo":7922582,"blockHash":"69a6844f367566d3d3c1ca7fdf17db474b9668a9b0623fd535b65e2dbdd0ec2d","epochNo":371,"epochSlotNo":93343,"slot":75002143,"time":"2022/10/23 23:40:34","addressesInput":["addr1qys8yuyq3avqhs757ljjxylf2fheep6aved2jcgf3pulaufawy7mgle56lrj4q5rw5udy6mfcrcjm7n3qm6ul3app6squ0gzp5","addr1w9645geguy679dvy73mgt6rvc4xyhjpxj4s0wxjtd6swvdc5dxgc3"],"addressesOutput":["addr1w9645geguy679dvy73mgt6rvc4xyhjpxj4s0wxjtd6swvdc5dxgc3","addr1q97c7f3nlz09u0q4lvnss9lvmdts996qeq2m530svqhh43pawy7mgle56lrj4q5rw5udy6mfcrcjm7n3qm6ul3app6sqz7ym32"],"fee":462571,"totalOutput":23602422,"tokens":[]},{"hash":"ebf4a647216ee1479cbe4f11ac603375a3d79dabd7c9993ee497b1e22891f898","blockNo":7922582,"blockHash":"69a6844f367566d3d3c1ca7fdf17db474b9668a9b0623fd535b65e2dbdd0ec2d","epochNo":371,"epochSlotNo":93343,"slot":75002143,"time":"2022/10/23 23:40:34","addressesInput":["addr1qxgj5qk46tckls9cnlvvdpnd2r9wpvvf3cp03gvk5wr52qs4wk9xhhpc09nd8ch4n9jycjmz4jz6e3ffh3tc4khvz5aq6jn8qh","addr1qxgj5qk46tckls9cnlvvdpnd2r9wpvvf3cp03gvk5wr52qs4wk9xhhpc09nd8ch4n9jycjmz4jz6e3ffh3tc4khvz5aq6jn8qh"],"addressesOutput":["addr1zxgx3far7qygq0k6epa0zcvcvrevmn0ypsnfsue94nsn3tvpw288a4x0xf8pxgcntelxmyclq83s0ykeehchz2wtspks905plm","addr1qxgj5qk46tckls9cnlvvdpnd2r9wpvvf3cp03gvk5wr52qs4wk9xhhpc09nd8ch4n9jycjmz4jz6e3ffh3tc4khvz5aq6jn8qh","addr1qxgj5qk46tckls9cnlvvdpnd2r9wpvvf3cp03gvk5wr52qs4wk9xhhpc09nd8ch4n9jycjmz4jz6e3ffh3tc4khvz5aq6jn8qh"],"fee":224461,"totalOutput":60389332,"tokens":[]},{"hash":"d2371ba6660edff3fc3f555b1b6c8e24c5958d268b01cabe679fbfee35f53bbe","blockNo":7922582,"blockHash":"69a6844f367566d3d3c1ca7fdf17db474b9668a9b0623fd535b65e2dbdd0ec2d","epochNo":371,"epochSlotNo":93343,"slot":75002143,"time":"2022/10/23 23:40:34","addressesInput":["addr1qy907f08wzjspdv244yt804v5wpjxc7e8wtwrl90g2vhmz43wtlqm566xl2jkadk37l4r5ryahjf36ddxfcl485437wqsz3fu5","addr1qy907f08wzjspdv244yt804v5wpjxc7e8wtwrl90g2vhmz43wtlqm566xl2jkadk37l4r5ryahjf36ddxfcl485437wqsz3fu5","addr1qy907f08wzjspdv244yt804v5wpjxc7e8wtwrl90g2vhmz43wtlqm566xl2jkadk37l4r5ryahjf36ddxfcl485437wqsz3fu5"],"addressesOutput":["addr1zxgx3far7qygq0k6epa0zcvcvrevmn0ypsnfsue94nsn3tvpw288a4x0xf8pxgcntelxmyclq83s0ykeehchz2wtspks905plm","addr1qy907f08wzjspdv244yt804v5wpjxc7e8wtwrl90g2vhmz43wtlqm566xl2jkadk37l4r5ryahjf36ddxfcl485437wqsz3fu5"],"fee":212977,"totalOutput":176879331,"tokens":[]},{"hash":"a8941df32b6bd596aa5a0ebf11b71706f5fa7f8581eb0f67c675865d78c7ebbd","blockNo":7922582,"blockHash":"69a6844f367566d3d3c1ca7fdf17db474b9668a9b0623fd535b65e2dbdd0ec2d","epochNo":371,"epochSlotNo":93343,"slot":75002143,"time":"2022/10/23 23:40:34","addressesInput":["addr1qxq6uslytlp4ydmy9czw9t6mjr8jkffk4q5lga8f7r76hn594pgjhjszmtuzyd7ga9jzcy67rwcf7wwhg3nlvzyuzwpqnqes35","addr1qxq6uslytlp4ydmy9czw9t6mjr8jkffk4q5lga8f7r76hn594pgjhjszmtuzyd7ga9jzcy67rwcf7wwhg3nlvzyuzwpqnqes35"],"addressesOutput":["addr1wxaptpmxcxawvr3pzlhgnpmzz3ql43n2tc8mn3av5kx0yzs09tqh8","addr1qxq6uslytlp4ydmy9czw9t6mjr8jkffk4q5lga8f7r76hn594pgjhjszmtuzyd7ga9jzcy67rwcf7wwhg3nlvzyuzwpqnqes35","addr1qxq6uslytlp4ydmy9czw9t6mjr8jkffk4q5lga8f7r76hn594pgjhjszmtuzyd7ga9jzcy67rwcf7wwhg3nlvzyuzwpqnqes35"],"fee":187413,"totalOutput":497727812,"tokens":[]},{"hash":"6c0f19afdb0128f7011d300220a3386ab183d45f31758a49deb2fd9ba29d66de","blockNo":7922582,"blockHash":"69a6844f367566d3d3c1ca7fdf17db474b9668a9b0623fd535b65e2dbdd0ec2d","epochNo":371,"epochSlotNo":93343,"slot":75002143,"time":"2022/10/23 23:40:34","addressesInput":["addr1qxkmr0m22xeqludcg5rjdmecjxasu9fat0680qehtcsnftaadgykewa9ufvegeuca9yyq03d9v7ea2y2zthgu7hfgjtsddp6gr","addr1qxkmr0m22xeqludcg5rjdmecjxasu9fat0680qehtcsnftaadgykewa9ufvegeuca9yyq03d9v7ea2y2zthgu7hfgjtsddp6gr","addr1qxkmr0m22xeqludcg5rjdmecjxasu9fat0680qehtcsnftaadgykewa9ufvegeuca9yyq03d9v7ea2y2zthgu7hfgjtsddp6gr"],"addressesOutput":["addr1qxkmr0m22xeqludcg5rjdmecjxasu9fat0680qehtcsnftaadgykewa9ufvegeuca9yyq03d9v7ea2y2zthgu7hfgjtsddp6gr","addr1qytefpfwrmvh6kwrtaqxwkm8pgy27kgu9ddehu3h6n8cfhzx9unafmunpdqfrexmw0p33szklfpyn3v5dyjftx3tmumsvzjqcq","addr1qxkmr0m22xeqludcg5rjdmecjxasu9fat0680qehtcsnftaadgykewa9ufvegeuca9yyq03d9v7ea2y2zthgu7hfgjtsddp6gr"],"fee":243909,"totalOutput":128381838692,"tokens":[]}],"totalItems":52684100,"totalPages":2634205,"currentPage":0}