{"data":[{"hash":"f9a75fbcfef8c9ee8c25d415a9799b530787d99473ee38ffe53558b326f72f73","blockNo":8229996,"blockHash":"a48a7a6245e481a30602c7adb801385d6c80fa77b3d3c961f79df35029483ad5","epochNo":385,"epochSlotNo":374324,"slot":81331124,"time":"2023/01/05 05:43:35","addressesInput":["addr1wy30zf2g4xc7v872fdweewrlj3lh2lgttelmydn0cvhyplsg3vnkq","addr1qxeugckjf508wucs208hpgg53r0y52cxdynd92myytnvnuwjhkdkrhmkh5vzq2nt5gfnuh0h6yrc86mxrvp8d83cxkjsgacz9y"],"addressesOutput":["addr1qxeugckjf508wucs208hpgg53r0y52cxdynd92myytnvnuwjhkdkrhmkh5vzq2nt5gfnuh0h6yrc86mxrvp8d83cxkjsgacz9y","addr1wy30zf2g4xc7v872fdweewrlj3lh2lgttelmydn0cvhyplsg3vnkq"],"fee":817877,"totalOutput":1516016834,"tokens":[]},{"hash":"21353fb473973f1df69651e609cf2466c060b74271064fd6c0397f42c652978e","blockNo":8229995,"blockHash":"fa49537634078a65e4c48a2af4f115da0b379ec3e9a0d7ed63329d102b2093dc","epochNo":385,"epochSlotNo":374323,"slot":81331123,"time":"2023/01/05 05:43:34","addressesInput":["addr1qyk65cg93jdhx9dlsx5dtxqsjx7ult9wnef0w59apygl86arx3qemrcngw58g8k8mq2e8x2gkc4ckzkr0j4qjn4vhf7sdz3u79"],"addressesOutput":["addr1qyzl6dta25dqaqwlgu43za6k7725t9z5up65jp7fnvf98r2vzp4avlpmscpv4nt54dc3kza63ngj7k0awfwt2p5gxudqlfah7e","addr1qyk65cg93jdhx9dlsx5dtxqsjx7ult9wnef0w59apygl86arx3qemrcngw58g8k8mq2e8x2gkc4ckzkr0j4qjn4vhf7sdz3u79","addr1qyk65cg93jdhx9dlsx5dtxqsjx7ult9wnef0w59apygl86arx3qemrcngw58g8k8mq2e8x2gkc4ckzkr0j4qjn4vhf7sdz3u79","addr1qyk65cg93jdhx9dlsx5dtxqsjx7ult9wnef0w59apygl86arx3qemrcngw58g8k8mq2e8x2gkc4ckzkr0j4qjn4vhf7sdz3u79","addr1qyk65cg93jdhx9dlsx5dtxqsjx7ult9wnef0w59apygl86arx3qemrcngw58g8k8mq2e8x2gkc4ckzkr0j4qjn4vhf7sdz3u79"],"fee":179273,"totalOutput":399820727,"tokens":[]},{"hash":"3bc8263aa68a194dfe9b25dd919c477ca109b3ec866ea3ca145c51285755ca65","blockNo":8229995,"blockHash":"fa49537634078a65e4c48a2af4f115da0b379ec3e9a0d7ed63329d102b2093dc","epochNo":385,"epochSlotNo":374323,"slot":81331123,"time":"2023/01/05 05:43:34","addressesInput":["Ae2tdPwUPEYwNguM7TB3dMnZMfZxn1pjGHyGdjaF4mFqZF9L3bj6cdhiH8t"],"addressesOutput":["DdzFFzCqrht5MmBeQN37sscqBAn4LvNsV2RKCTV8BiFw1mHiPgbQzXVQJsjgGddMCTbCeR4CXo4Y8z2T8J59swRvwTeGthugSCw5bT6z","Ae2tdPwUPEYwNguM7TB3dMnZMfZxn1pjGHyGdjaF4mFqZF9L3bj6cdhiH8t"],"fee":227331,"totalOutput":91833748999,"tokens":[]},{"hash":"c14cc11342f99cc610d6f838d2ed586345f762477dc043a5b99b4bb213eba3b8","blockNo":8229995,"blockHash":"fa49537634078a65e4c48a2af4f115da0b379ec3e9a0d7ed63329d102b2093dc","epochNo":385,"epochSlotNo":374323,"slot":81331123,"time":"2023/01/05 05:43:34","addressesInput":["addr1q9lfdwd9rneanp47s0xf6tmrxz96ygd9sup6cwwve3fz2k8pwcklfvsdpupxvk5mhycspuru0fwd8nae7jgqlqtrwdkqfy9fge","addr1q9lfdwd9rneanp47s0xf6tmrxz96ygd9sup6cwwve3fz2k8pwcklfvsdpupxvk5mhycspuru0fwd8nae7jgqlqtrwdkqfy9fge"],"addressesOutput":["addr1zxgx3far7qygq0k6epa0zcvcvrevmn0ypsnfsue94nsn3tvpw288a4x0xf8pxgcntelxmyclq83s0ykeehchz2wtspks905plm","addr1q9lfdwd9rneanp47s0xf6tmrxz96ygd9sup6cwwve3fz2k8pwcklfvsdpupxvk5mhycspuru0fwd8nae7jgqlqtrwdkqfy9fge","addr1q9lfdwd9rneanp47s0xf6tmrxz96ygd9sup6cwwve3fz2k8pwcklfvsdpupxvk5mhycspuru0fwd8nae7jgqlqtrwdkqfy9fge","addr1q9lfdwd9rneanp47s0xf6tmrxz96ygd9sup6cwwve3fz2k8pwcklfvsdpupxvk5mhycspuru0fwd8nae7jgqlqtrwdkqfy9fge"],"fee":233393,"totalOutput":703538396,"tokens":[]},{"hash":"fd3c9d258f69e9d25960cae0e654a261a62148423b1b1d54df519edb60d7f879","blockNo":8229995,"blockHash":"fa49537634078a65e4c48a2af4f115da0b379ec3e9a0d7ed63329d102b2093dc","epochNo":385,"epochSlotNo":374323,"slot":81331123,"time":"2023/01/05 05:43:34","addressesInput":["addr1vy4nmtfc4jfftgqg369hs2ku6kvcncgzhkemq6mh0u3zgpslf59wr","addr1vy4nmtfc4jfftgqg369hs2ku6kvcncgzhkemq6mh0u3zgpslf59wr","addr1vy4nmtfc4jfftgqg369hs2ku6kvcncgzhkemq6mh0u3zgpslf59wr"],"addressesOutput":["addr1qxdnzsv25sxlkhgvp90a7y2n793pxdkefps5u23e449nfm8jt2j47qt48ytv45pvns8phtrg3f66hcjm8lwveqdxxx0qq7gkjr","addr1q9qpl7crgadh05xvez7tgqke8w4m5v0nh5p03u2gycdxmsxdk5d05eku3lzcuclyj86yf7vu69k7j3dhjhlyhngpw45q2yyegt","addr1qxskz92528779pnz5ee98edv9t0a0dw96m0armdpt9ryfw7f4g3nr2f2f008fr2hdt8adxn0sa9ymf69c83rvmgka7uqguxqwf","addr1qxgmuv9w4xzsmex4xtsll2gfrpp6unacxz48cq3ee3gmkeul46zecwcgvxn5eu4rqqeeyy7dtma22ec77sxlj87ftqhsyfkf9p","Ae2tdPwUPEZCcYuTjpsN3iB1RAQDTuBmtnMUpGUNPEMJFYs6vUGbQuAsrJJ","addr1vy4nmtfc4jfftgqg369hs2ku6kvcncgzhkemq6mh0u3zgpslf59wr"],"fee":190000,"totalOutput":341018055015,"tokens":[]},{"hash":"ba3ca5e61e46788a514d398364c9a43db9360b1611c5b7f9dcbb5af3d3b4aeb7","blockNo":8229995,"blockHash":"fa49537634078a65e4c48a2af4f115da0b379ec3e9a0d7ed63329d102b2093dc","epochNo":385,"epochSlotNo":374323,"slot":81331123,"time":"2023/01/05 05:43:34","addressesInput":["addr1zxgx3far7qygq0k6epa0zcvcvrevmn0ypsnfsue94nsn3tvpw288a4x0xf8pxgcntelxmyclq83s0ykeehchz2wtspks905plm","addr1q9pq6ntjpkm3ax3hh5488j8xp7dh4ysaepglfs07xahgas9m30dwxf9wp4mnqjyw5qd8kmwnks6nnxjjazaasm8w9dqqjqm6ur"],"addressesOutput":["addr1q9pq6ntjpkm3ax3hh5488j8xp7dh4ysaepglfs07xahgas9m30dwxf9wp4mnqjyw5qd8kmwnks6nnxjjazaasm8w9dqqjqm6ur","addr1q9pq6ntjpkm3ax3hh5488j8xp7dh4ysaepglfs07xahgas9m30dwxf9wp4mnqjyw5qd8kmwnks6nnxjjazaasm8w9dqqjqm6ur","addr1q9pq6ntjpkm3ax3hh5488j8xp7dh4ysaepglfs07xahgas9m30dwxf9wp4mnqjyw5qd8kmwnks6nnxjjazaasm8w9dqqjqm6ur"],"fee":270949,"totalOutput":2540028779,"tokens":[]},{"hash":"5c00d757e6c257e86b91faf06195430f95b46b404e619ba88d636acf9c8156fd","blockNo":8229994,"blockHash":"121d862813818c701da26959a3fcb560b0eb99657c473516f67a08866c4d5859","epochNo":385,"epochSlotNo":374305,"slot":81331105,"time":"2023/01/05 05:43:16","addressesInput":["addr1qxq4kdxa6ge3hx65zpkjv5z7a5zewg9qe5hc49nary08fqq6p64vr0z6h33m9lu9cyd94zsn29y5kv0gy0m0f3zueh7s2q2a5k","addr1qxq4kdxa6ge3hx65zpkjv5z7a5zewg9qe5hc49nary08fqq6p64vr0z6h33m9lu9cyd94zsn29y5kv0gy0m0f3zueh7s2q2a5k"],"addressesOutput":["addr1zxgx3far7qygq0k6epa0zcvcvrevmn0ypsnfsue94nsn3tvpw288a4x0xf8pxgcntelxmyclq83s0ykeehchz2wtspks905plm","addr1qxq4kdxa6ge3hx65zpkjv5z7a5zewg9qe5hc49nary08fqq6p64vr0z6h33m9lu9cyd94zsn29y5kv0gy0m0f3zueh7s2q2a5k","addr1qxq4kdxa6ge3hx65zpkjv5z7a5zewg9qe5hc49nary08fqq6p64vr0z6h33m9lu9cyd94zsn29y5kv0gy0m0f3zueh7s2q2a5k"],"fee":251081,"totalOutput":39021791,"tokens":[]},{"hash":"68555b822621ad03d4a0df385aeb55bd403f2b9f543e84f539786b05d2fbbeff","blockNo":8229994,"blockHash":"121d862813818c701da26959a3fcb560b0eb99657c473516f67a08866c4d5859","epochNo":385,"epochSlotNo":374305,"slot":81331105,"time":"2023/01/05 05:43:16","addressesInput":["addr1q9rng5kkg7z4n0e3luj3k3f6wd7utf9mn3hq8mxwfzuu5dsg4hpc4xeuvl4nh322eyaxxqjlxgtqt4rlsae8s7ppewmsapwwfr","addr1q9rng5kkg7z4n0e3luj3k3f6wd7utf9mn3hq8mxwfzuu5dsg4hpc4xeuvl4nh322eyaxxqjlxgtqt4rlsae8s7ppewmsapwwfr","addr1q9aeg3v66qg4g9l37a3u0kxwdxxsmjqxwymm6zdxgnjlemsg4hpc4xeuvl4nh322eyaxxqjlxgtqt4rlsae8s7ppewmsatfdcl","addr1q9rng5kkg7z4n0e3luj3k3f6wd7utf9mn3hq8mxwfzuu5dsg4hpc4xeuvl4nh322eyaxxqjlxgtqt4rlsae8s7ppewmsapwwfr"],"addressesOutput":["addr1v86g4red2hhfje20zdzwelwtt3575qruhlseppw4fljdwwqkwr8mw","addr1q9n0cudcf5ruvs74qhaxcyszqh3m8zhcz9qutn6fe59jfcgg4hpc4xeuvl4nh322eyaxxqjlxgtqt4rlsae8s7ppewms2hzl2z"],"fee":176281,"totalOutput":31279266,"tokens":[]},{"hash":"40250d5eb862733d7b688bfaace3bee4720ee8bb0a4f21e95da6f9a800ebcdf4","blockNo":8229994,"blockHash":"121d862813818c701da26959a3fcb560b0eb99657c473516f67a08866c4d5859","epochNo":385,"epochSlotNo":374305,"slot":81331105,"time":"2023/01/05 05:43:16","addressesInput":["addr1v9ywm0h3r8cnxrs04gfy7c3s2j44utjyvn5ldjdca0c2ltccgqdes"],"addressesOutput":["addr1q9zzlakd6f5pvlxf9j6s2w3r8kfd3232jgqdr2mvr446qkd7t2uc0knww6c6c6mzyglsqk4fpdum5xz88p03dlka4yvq9gda7z"],"fee":203429,"totalOutput":4796571,"tokens":[]},{"hash":"02189856c627464b1edef4a25f7629a78d8a82edba98c43e246948a49545f1c9","blockNo":8229994,"blockHash":"121d862813818c701da26959a3fcb560b0eb99657c473516f67a08866c4d5859","epochNo":385,"epochSlotNo":374305,"slot":81331105,"time":"2023/01/05 05:43:16","addressesInput":["addr1qykh7ne3xun85kwpt7yywp2w7w4ykpn2cvm40v80nen0wjmwgevlz6xpu6lggv7h8h3s2jd0sqhatsmaw5y2rrnvzgmqe9p4zn"],"addressesOutput":["addr1q8dklwhdckeatnwnn4xazna94fzq479l0xmlpjnsdwkks0grl34j8tlnrs662re8vuwguluqd0qvetqthrptu3g3554qgpt6rh","addr1qykh7ne3xun85kwpt7yywp2w7w4ykpn2cvm40v80nen0wjmwgevlz6xpu6lggv7h8h3s2jd0sqhatsmaw5y2rrnvzgmqe9p4zn"],"fee":168611,"totalOutput":2412864060,"tokens":[]},{"hash":"c7cd8c04dfe27c668c7dab01e4e3f92b94fe1b59bb06d303d1368cc9f7d85f75","blockNo":8229994,"blockHash":"121d862813818c701da26959a3fcb560b0eb99657c473516f67a08866c4d5859","epochNo":385,"epochSlotNo":374305,"slot":81331105,"time":"2023/01/05 05:43:16","addressesInput":["addr1z8snz7c4974vzdpxu65ruphl3zjdvtxw8strf2c2tmqnxz2j2c79gy9l76sdg0xwhd7r0c0kna0tycz4y5s6mlenh8pq0xmsha","addr1qyht4ja0zcn45qvyx477qlyp6j5ftu5ng0prt9608dxp6l2j2c79gy9l76sdg0xwhd7r0c0kna0tycz4y5s6mlenh8pq4jxtdy","addr1wxn9efv2f6w82hagxqtn62ju4m293tqvw0uhmdl64ch8uwc0h43gt","addr1qyht4ja0zcn45qvyx477qlyp6j5ftu5ng0prt9608dxp6l2j2c79gy9l76sdg0xwhd7r0c0kna0tycz4y5s6mlenh8pq4jxtdy"],"addressesOutput":["addr1qyht4ja0zcn45qvyx477qlyp6j5ftu5ng0prt9608dxp6l2j2c79gy9l76sdg0xwhd7r0c0kna0tycz4y5s6mlenh8pq4jxtdy","addr1qyht4ja0zcn45qvyx477qlyp6j5ftu5ng0prt9608dxp6l2j2c79gy9l76sdg0xwhd7r0c0kna0tycz4y5s6mlenh8pq4jxtdy","addr1q85k2eq506nex9vaulc0rfum402w6s60zk2n0usxlvl9qzfxhamvnst9y2tweryjdhsay7dt4sm4ngwuswjyehxddwfqar0tnq","addr1z8snz7c4974vzdpxu65ruphl3zjdvtxw8strf2c2tmqnxz2j2c79gy9l76sdg0xwhd7r0c0kna0tycz4y5s6mlenh8pq0xmsha"],"fee":816514,"totalOutput":36757477285,"tokens":[]},{"hash":"cd17462f18d758e08a49b83defd81ec19ae4f8b22e7d806a22d60c4c35dc1880","blockNo":8229994,"blockHash":"121d862813818c701da26959a3fcb560b0eb99657c473516f67a08866c4d5859","epochNo":385,"epochSlotNo":374305,"slot":81331105,"time":"2023/01/05 05:43:16","addressesInput":["addr1q984plu5suwhxss2zwlsenqcpsadxxjtcghekvqzwcuw3elsrzxesex9hfae7m6lzp5fa67vnfpp9clwsacdcfmlgtns670ejf","addr1zxgx3far7qygq0k6epa0zcvcvrevmn0ypsnfsue94nsn3tvpw288a4x0xf8pxgcntelxmyclq83s0ykeehchz2wtspks905plm"],"addressesOutput":["addr1zxgx3far7qygq0k6epa0zcvcvrevmn0ypsnfsue94nsn3tvpw288a4x0xf8pxgcntelxmyclq83s0ykeehchz2wtspks905plm","addr1q984plu5suwhxss2zwlsenqcpsadxxjtcghekvqzwcuw3elsrzxesex9hfae7m6lzp5fa67vnfpp9clwsacdcfmlgtns670ejf"],"fee":314922,"totalOutput":80390350,"tokens":[]},{"hash":"bd7bdbb63b03afdbbf33edb74418f3b39c6224a6050b12940115a3ca81a70c99","blockNo":8229994,"blockHash":"121d862813818c701da26959a3fcb560b0eb99657c473516f67a08866c4d5859","epochNo":385,"epochSlotNo":374305,"slot":81331105,"time":"2023/01/05 05:43:16","addressesInput":["addr1v87j68n3mazk4g4mz3jy4grh9tpy4gq5e6u6f0xeq2uaplgmw9g75"],"addressesOutput":["addr1q8xtlx6jfx0alvdq6n9pq9ls4n57gsds6xs9cpxfh9eytys4w0ltt9q34v5ks5hh6qlf8kkc8d4wshl8nd4se4rs587swldutp"],"fee":184685,"totalOutput":1659836,"tokens":[]},{"hash":"884e6872402d38429f246bcd059dbd3a53fce1d718174304c9d5f76c395f907a","blockNo":8229994,"blockHash":"121d862813818c701da26959a3fcb560b0eb99657c473516f67a08866c4d5859","epochNo":385,"epochSlotNo":374305,"slot":81331105,"time":"2023/01/05 05:43:16","addressesInput":["addr1zxgx3far7qygq0k6epa0zcvcvrevmn0ypsnfsue94nsn3tvpw288a4x0xf8pxgcntelxmyclq83s0ykeehchz2wtspks905plm","addr1qx47h0jdctkd3peg9hvr7x6dlz028jwhcm9m22wq9qcj2njsckkpac65jk6u4cgveksjzsdwwy98vjt9l5qj9drdl20suuvs6m","addr1zxgx3far7qygq0k6epa0zcvcvrevmn0ypsnfsue94nsn3tvpw288a4x0xf8pxgcntelxmyclq83s0ykeehchz2wtspks905plm"],"addressesOutput":["addr1qy5lwa5yk09srsmt4d4rm3lz6f6j06njtzq7w8lpfu0ueye8c5yn9hpk4cfs47ky58sa64sz2mfr8dfwv77nyysmjqtq2y3ycm","addr1q9cwvremt6n320s2e3agq0jyq82yhrk3htsu0w426xnz5us70z4w0jgvcdkkynmm8wmds66jd9kusnjfpu6raw5fqp0sr07p5w","addr1q86hxfqny42wre2v3l33hwp4myz24zn4ckzdzhujc5h2cjj7ysd8u2axzw0jrhz6y9c9nhe886ealq6e32dzlxqplzaq28nzq0","addr1qx47h0jdctkd3peg9hvr7x6dlz028jwhcm9m22wq9qcj2njsckkpac65jk6u4cgveksjzsdwwy98vjt9l5qj9drdl20suuvs6m","addr1qx47h0jdctkd3peg9hvr7x6dlz028jwhcm9m22wq9qcj2njsckkpac65jk6u4cgveksjzsdwwy98vjt9l5qj9drdl20suuvs6m"],"fee":522985,"totalOutput":208676136,"tokens":[]},{"hash":"fc1fee22d4d46509fb8029ddf2f6c0c1b3b5e0d55ae7b73467d018b394779814","blockNo":8229994,"blockHash":"121d862813818c701da26959a3fcb560b0eb99657c473516f67a08866c4d5859","epochNo":385,"epochSlotNo":374305,"slot":81331105,"time":"2023/01/05 05:43:16","addressesInput":["addr1v8r44r3hdfxlu5rznct3f0f5pjaw2cldyjgh64whvxplyacuxmhqv"],"addressesOutput":["addr1qx5p3vs9cshnxnkelrk5thus3pnp2uqx0r7ult63n74edzjc3j58p6xfna9n9m3ufaxqgdujm2wt80ng8995vvttnmqs4ljmnr","addr1v8r44r3hdfxlu5rznct3f0f5pjaw2cldyjgh64whvxplyacuxmhqv"],"fee":186533,"totalOutput":63762905,"tokens":[]},{"hash":"be59ddc9f0264c8652f044ebaf31eaf773a1d88942689deebafde0313ec567de","blockNo":8229994,"blockHash":"121d862813818c701da26959a3fcb560b0eb99657c473516f67a08866c4d5859","epochNo":385,"epochSlotNo":374305,"slot":81331105,"time":"2023/01/05 05:43:16","addressesInput":["addr1q8eq3tw4qaef6knkpwpqspy3azlrdhzhv7exqyuqnl74dknnhdw38g4gy4hr4enduw035tmm2aqdnlgftuvfaa3sl2nqxl37jw"],"addressesOutput":["DdzFFzCqrhswpFWLeQ9iPjDs6f2fdLwQUsBDGwcUQxdCJPjgEkMhQtSK8YgvKvgUwpo3jqayU1RANg1RzRtzAqagbN2HK9aay8TqtfHM","addr1qyjycwywk4k9sqlwsqp2vv3vuvs0ec8cndnujfndd5sm6qmnhdw38g4gy4hr4enduw035tmm2aqdnlgftuvfaa3sl2nqgemldn"],"fee":168977,"totalOutput":4831023,"tokens":[]},{"hash":"78dd864110c4117c4325f6050f23887e1462ac352a5b52d3e7cb45aba43a81cf","blockNo":8229994,"blockHash":"121d862813818c701da26959a3fcb560b0eb99657c473516f67a08866c4d5859","epochNo":385,"epochSlotNo":374305,"slot":81331105,"time":"2023/01/05 05:43:16","addressesInput":["addr1vyd09gc0djup3hnyymw5end0w7yvmtnedzyflskxd49pp4s386ac8","addr1v9u7va2sktlnz8dp3qadpnxxlv4m03672jy6elmntlxxs7q9nnwl9","addr1v8v3auqmw0eszza3ww29ea2pwftuqrqqyu26zvzjq9dt2ncydzvs5"],"addressesOutput":["addr1qxf4ym2x07de5v2dcg3jqc69n2chwa7pm7x40a7l7lvkr40mmn8j4vc4p9ahyp6t4hllecqjr0vely8jpqt3ffgg8z6s2cx0m9","addr1v8v3auqmw0eszza3ww29ea2pwftuqrqqyu26zvzjq9dt2ncydzvs5"],"fee":188821,"totalOutput":22041326103,"tokens":[]},{"hash":"e043dd5b0a792abdb01870b42e9422eb305ca7767cefae2bcaecfae0f85a5cf5","blockNo":8229994,"blockHash":"121d862813818c701da26959a3fcb560b0eb99657c473516f67a08866c4d5859","epochNo":385,"epochSlotNo":374305,"slot":81331105,"time":"2023/01/05 05:43:16","addressesInput":["addr1qy8kg48zz4u558q8pwznvzsgt39q34ry6srr7mqprz3jzjl24gexku753g5upesecmc63xrk56a00nuhqj8k9ntdl7xqknun5z","addr1qy8kg48zz4u558q8pwznvzsgt39q34ry6srr7mqprz3jzjl24gexku753g5upesecmc63xrk56a00nuhqj8k9ntdl7xqknun5z"],"addressesOutput":["addr1zxgx3far7qygq0k6epa0zcvcvrevmn0ypsnfsue94nsn3tvpw288a4x0xf8pxgcntelxmyclq83s0ykeehchz2wtspks905plm","addr1qy8kg48zz4u558q8pwznvzsgt39q34ry6srr7mqprz3jzjl24gexku753g5upesecmc63xrk56a00nuhqj8k9ntdl7xqknun5z","addr1qy8kg48zz4u558q8pwznvzsgt39q34ry6srr7mqprz3jzjl24gexku753g5upesecmc63xrk56a00nuhqj8k9ntdl7xqknun5z"],"fee":247869,"totalOutput":150253079,"tokens":[]},{"hash":"48edc9f7b06d1f3921063fc5172e2b16012b3e309d9c408318c78cb8aaac0ad1","blockNo":8229994,"blockHash":"121d862813818c701da26959a3fcb560b0eb99657c473516f67a08866c4d5859","epochNo":385,"epochSlotNo":374305,"slot":81331105,"time":"2023/01/05 05:43:16","addressesInput":["addr1q80n6vyknpq5rhyfxvc7tkhm085lsmynua5mxwecwmtl9lfaq92dpj0tt8fhvv4sptnzj290vv874adhlm75tqefrm4sqs3jlx"],"addressesOutput":["addr1qxxcz3nqvf2el28gt3rxkzxk8mth27u09x0ye48rtdn7jhfmj7va8u6j9xr4pfrlrf5z64u26xlxclnx73nmuczjrfnsmmudtl","addr1q80n6vyknpq5rhyfxvc7tkhm085lsmynua5mxwecwmtl9lfaq92dpj0tt8fhvv4sptnzj290vv874adhlm75tqefrm4sqs3jlx"],"fee":168053,"totalOutput":102433134,"tokens":[]},{"hash":"d20458beb47242e1fb380959209dda926ff5275bfa90193ef14f52a9afc84170","blockNo":8229994,"blockHash":"121d862813818c701da26959a3fcb560b0eb99657c473516f67a08866c4d5859","epochNo":385,"epochSlotNo":374305,"slot":81331105,"time":"2023/01/05 05:43:16","addressesInput":["addr1q8zfxyutp323r89ug0j3aj53v6vdn8lyf0hzvgk0t0scxgc84306zskerndqnjvcwtxrqr9ech2ald2c27s22wrj726sv7alzq","addr1q8zfxyutp323r89ug0j3aj53v6vdn8lyf0hzvgk0t0scxgc84306zskerndqnjvcwtxrqr9ech2ald2c27s22wrj726sv7alzq"],"addressesOutput":["addr1wxn9efv2f6w82hagxqtn62ju4m293tqvw0uhmdl64ch8uwc0h43gt","addr1q8zfxyutp323r89ug0j3aj53v6vdn8lyf0hzvgk0t0scxgc84306zskerndqnjvcwtxrqr9ech2ald2c27s22wrj726sv7alzq","addr1q8zfxyutp323r89ug0j3aj53v6vdn8lyf0hzvgk0t0scxgc84306zskerndqnjvcwtxrqr9ech2ald2c27s22wrj726sv7alzq"],"fee":252753,"totalOutput":111659566,"tokens":[]}],"totalItems":58217503,"totalPages":2910876,"currentPage":0}