{"data":[{"txId":70684698,"txHash":"a9de6ec86f86356ea21d34c9d5e95a0037ff59d14ffabe6f7c9b750e10c6aaf7","txTime":"2023/07/05 06:41:35","block":8989465,"epoch":422,"slotNo":96973004,"epochSlotNo":32204,"stakeKey":"stake1uylkr4a2pp4xnvtfyxcw22tnmglc6uh9luazxujafkhsk8gt3hjld"},{"txId":70684116,"txHash":"39ed37d2640463f4f7031cea1165c463491c252147c34308e9050eb8555f1863","txTime":"2023/07/05 06:31:00","block":8989439,"epoch":422,"slotNo":96972369,"epochSlotNo":31569,"stakeKey":"stake1u8we76vnlv6gxpsr4r8e4ldj85faw2jm4arm07a6l266ceq8flurp"},{"txId":70683343,"txHash":"6ab7abc1043bf9c146c75bc91c98eee13519af227503f74204abf890d00ca63c","txTime":"2023/07/05 06:17:41","block":8989395,"epoch":422,"slotNo":96971570,"epochSlotNo":30770,"stakeKey":"stake1u85k3htaes7rrrtdqnyp6kkd6ht203ept08duy4fe65d3ucdva62v"},{"txId":70683060,"txHash":"10132859d22acffeeea745384015a6f7d1ceda56a973e180f5a32d0c8a7a3aa7","txTime":"2023/07/05 06:13:50","block":8989384,"epoch":422,"slotNo":96971339,"epochSlotNo":30539,"stakeKey":"stake1u88nvh6xdydghmw7rpx2vnwun0eky28phplcnxguqwpc0us932kus"},{"txId":70682864,"txHash":"736d4894ed506dd352bc48d045a05bc1a0fbe696ff79c36a553f7362829a810f","txTime":"2023/07/05 06:09:37","block":8989378,"epoch":422,"slotNo":96971086,"epochSlotNo":30286,"stakeKey":"stake1uyz7mtz0wlppxqn3wgk7h73yep8uug7mn5ah9vk645dg9kgqkceyg"},{"txId":70682772,"txHash":"5d8ef94eefe4664060d89b43dc265c3adddeb7fa6fa6ab76da55c8ec93d1d665","txTime":"2023/07/05 06:07:20","block":8989374,"epoch":422,"slotNo":96970949,"epochSlotNo":30149,"stakeKey":"stake1uyg0cgyg95dl0djccp4qy8zpzhqgmsjds5t87kq6yncmh0cy77qu7"},{"txId":70681192,"txHash":"124a609f3cacf296378df6c2009493e8780ddbfc709eec48e242728cd0aa5121","txTime":"2023/07/05 05:38:06","block":8989286,"epoch":422,"slotNo":96969195,"epochSlotNo":28395,"stakeKey":"stake1u95z5ws52wngvsv6erct8dz3tk9teu2wdj2dmspa8k3xn9skp33p9"},{"txId":70680668,"txHash":"c3d87fa9f09ea4b96f55c2b765d101cdbb46cb2b45b82d9c7c14eec73ba73214","txTime":"2023/07/05 05:27:44","block":8989247,"epoch":422,"slotNo":96968573,"epochSlotNo":27773,"stakeKey":"stake1uy3hlqsyc56wqdwhlzd7mlj6x45rl0jzmryzc3kpyfsp5fgw2jek7"},{"txId":70680171,"txHash":"81101f5286a0e6d6c5f44654b462bc780ede5be5943b4683feca70fd5dc6393b","txTime":"2023/07/05 05:20:18","block":8989224,"epoch":422,"slotNo":96968127,"epochSlotNo":27327,"stakeKey":"stake1uxsvt5g8728aqee8hjcw2pq8njhehqq6tn92nccepq8exngam33wl"},{"txId":70679962,"txHash":"016b0b9a63da3f9e9a2ae02d44a1bb8127590e433b579a72cdc1c75c02bdb9d0","txTime":"2023/07/05 05:17:12","block":8989217,"epoch":422,"slotNo":96967941,"epochSlotNo":27141,"stakeKey":"stake1u85gj73nxe802lc8hkn7kvwj3ua7erav4h28sp6c9h3eekq742tvs"},{"txId":70678126,"txHash":"449b2bfa2e87c3add5ead08499f2e18cc7f266254d6fcdca7a8a3e0a4343c117","txTime":"2023/07/05 04:36:43","block":8989117,"epoch":422,"slotNo":96965512,"epochSlotNo":24712,"stakeKey":"stake1u86dhu6397duft4kmws8g25p2asgnhzup39e6ax6y079zqcgm5l84"},{"txId":70677912,"txHash":"f0c99531f9d6d2300dbacb8f264b8e4f26407be9eb3ef752e0c958a19bbaa72e","txTime":"2023/07/05 04:32:39","block":8989099,"epoch":422,"slotNo":96965268,"epochSlotNo":24468,"stakeKey":"stake1uy2ga0mvrrnjeqerm52jt0yx7wjx88zh756eszfl9fu6gcqsau4sl"},{"txId":70677757,"txHash":"c74c2590aaf8dc3bea489c8622aa841645a25569819f3e1475b77f571563de91","txTime":"2023/07/05 04:30:06","block":8989089,"epoch":422,"slotNo":96965115,"epochSlotNo":24315,"stakeKey":"stake1u8dn0vutz3hpud3nnhvnuytg0pv074zqwxyl8l89jyt4z5splucx2"},{"txId":70677632,"txHash":"39effc86106b86989f07712284b259fb575a4adb815f0169766bbb92d9393196","txTime":"2023/07/05 04:27:17","block":8989082,"epoch":422,"slotNo":96964946,"epochSlotNo":24146,"stakeKey":"stake1u8snrcemwdw8hlwrtns58p67yvv4s56tngeymkwjtck3g2qvll2lc"},{"txId":70677523,"txHash":"bbd81e7685c04690eb2eca9f59bd6c228c75fb4c6df40c7b4a50494ed128953a","txTime":"2023/07/05 04:24:33","block":8989075,"epoch":422,"slotNo":96964782,"epochSlotNo":23982,"stakeKey":"stake1u806482z8knl95rjynglgdlvsw6mhvhp6c63fdlae03amcqjjtef3"},{"txId":70677414,"txHash":"aa346476779280576b195dfb69247e4f7991f1bd32f1d3c8027e2f3eddda3b15","txTime":"2023/07/05 04:22:43","block":8989069,"epoch":422,"slotNo":96964672,"epochSlotNo":23872,"stakeKey":"stake1u8dn0vutz3hpud3nnhvnuytg0pv074zqwxyl8l89jyt4z5splucx2"},{"txId":70677348,"txHash":"6a0f873a6a370ce74bd0c1808aa51189008886ea677c69e68463c13a80e18457","txTime":"2023/07/05 04:21:15","block":8989063,"epoch":422,"slotNo":96964584,"epochSlotNo":23784,"stakeKey":"stake1u8cauu0qnrgdat49ecvjlluxlw6s36em2grdnmerr2umcvgtktphy"},{"txId":70676898,"txHash":"a412dd8ea97d63bba78d77ba0f2635304e66b3ff2285a0853530ebc09078ae72","txTime":"2023/07/05 04:12:57","block":8989034,"epoch":422,"slotNo":96964086,"epochSlotNo":23286,"stakeKey":"stake1u9ln2npj3rqscln40q6rrmvqys3hq3f3vxy0sp0uzk00f0s9wyzw3"},{"txId":70675986,"txHash":"c4b1c9d42560cab2a851442041746be6ceb027b06cb75f464643285a158d6157","txTime":"2023/07/05 03:54:33","block":8988984,"epoch":422,"slotNo":96962982,"epochSlotNo":22182,"stakeKey":"stake1uxvj750z2k096ea520sckwtzv6m2k8ch3vvg38g4r7hen4gpnjdsw"},{"txId":70675913,"txHash":"05b2af838738aa48016de058072c9e22e70a20b4ccb4c4cc50cf0342b6df9329","txTime":"2023/07/05 03:53:39","block":8988981,"epoch":422,"slotNo":96962928,"epochSlotNo":22128,"stakeKey":"stake1uyd59gcrz8qsrz08thnyhzgjvqa66ylqqna6gy9rxc894dqaqeduw"}],"totalItems":388567,"totalPages":19429,"currentPage":0}