{"data":[{"blockNo":7225813,"slotNo":60554244,"epochNo":337,"epochSlotNo":333444,"hash":"4941376ff9ebc3878b79fdb0e3c389e2d6d5dde6059b6dc107f673cc250bacb4","time":"2022/05/09 18:22:15","txCount":3,"totalFees":1499331,"totalOutput":3339392647835,"slotLeader":"34ae2462f0fab1866281947a022d85bddf29f45a8b9699baabbbfcb9"},{"blockNo":7225812,"slotNo":60554239,"epochNo":337,"epochSlotNo":333439,"hash":"258a32ab1c3c9d8cbc34d20d0e709be9262a0ab1663dc62f3dc535494c5f441e","time":"2022/05/09 18:22:10","txCount":18,"totalFees":4610424,"totalOutput":212377971238,"slotLeader":"f8328a36320b8719b07da68f3b28f019feb5907ac26a42420d3680b3"},{"blockNo":7225811,"slotNo":60554225,"epochNo":337,"epochSlotNo":333425,"hash":"8f5d560f8c110c7403bc37b0f97fe0d9d3e20a3db563d00999d57215c325d123","time":"2022/05/09 18:21:56","txCount":12,"totalFees":6270988,"totalOutput":2082690874017,"slotLeader":"093281f3d46eaa6422b2b9e257d67059d303805adb166073ab656a3b"},{"blockNo":7225810,"slotNo":60554217,"epochNo":337,"epochSlotNo":333417,"hash":"2ff5455920069facb8e3cde445aad0dfcbec7cfc7ea26c12edb9ccaf10b0814c","time":"2022/05/09 18:21:48","txCount":36,"totalFees":14119932,"totalOutput":5287075449718,"slotLeader":"c83beb18d532234c72a304ab935982be670c22e771b227a3febc3a82"},{"blockNo":7225809,"slotNo":60554188,"epochNo":337,"epochSlotNo":333388,"hash":"158c7f39f427e6171630accd9c7e836f6f60b4cdd0424051ecb1798a516ca12f","time":"2022/05/09 18:21:19","txCount":30,"totalFees":9832627,"totalOutput":1496733195420,"slotLeader":"d765dee553a7e041d525b1782a10eb0a5e52e96ed55ed173d8bb82a7"},{"blockNo":7225808,"slotNo":60554186,"epochNo":337,"epochSlotNo":333386,"hash":"f8327e0be37d9750881c505650ddfcf4f8d48f94aad6e86ca1e48abb38d8bf1f","time":"2022/05/09 18:21:17","txCount":25,"totalFees":9928900,"totalOutput":1098269395330,"slotLeader":"aa8ce95c3862c3e5f6e1dccebfcf36f4379484ae9eb42d7a476483b9"},{"blockNo":7225807,"slotNo":60554144,"epochNo":337,"epochSlotNo":333344,"hash":"f81e77ae20b8fe3e36b09681aa17e7abdb0f696f1fdac5377f707d90091ef7e3","time":"2022/05/09 18:20:35","txCount":40,"totalFees":12084102,"totalOutput":40592965455797,"slotLeader":"486d217a5ef6e9cb5e46a19900a56b1c1f4f1ec4374b744df5a1ef6a"},{"blockNo":7225806,"slotNo":60554142,"epochNo":337,"epochSlotNo":333342,"hash":"2504b5b6e03d93ecc4c8345843adba9501603243a963e4e200e48a14aecfee69","time":"2022/05/09 18:20:33","txCount":39,"totalFees":12350102,"totalOutput":5127210131676,"slotLeader":"40ff71258d2c73da9e2a5ee3abb9be256e745e7f74c31eb8d4be5299"},{"blockNo":7225805,"slotNo":60554117,"epochNo":337,"epochSlotNo":333317,"hash":"a075e2622f13a040ebdc974acc7e44c40e9f3c7c566dbe27dcd7a408fededc15","time":"2022/05/09 18:20:08","txCount":34,"totalFees":12865325,"totalOutput":11489420806157,"slotLeader":"cb3e1428aa4d240ca528edfd992d6509b47335849a91f0d70e5b0ffd"},{"blockNo":7225804,"slotNo":60554080,"epochNo":337,"epochSlotNo":333280,"hash":"5b41e516df78798f2b9ef08e9cec1c62f1bc6e0bb501a4963fc638ffc6d80ce9","time":"2022/05/09 18:19:31","txCount":38,"totalFees":13505219,"totalOutput":28202216537532,"slotLeader":"f51e13866bf3427d1a1e97ec3c6e22e662d3a030ac26812e111c94cf"}],"totalItems":15974,"totalPages":1598,"currentPage":0}