{"data":[{"hash":"9c5f9d7f90d3b635dcb514b39ff097a9501d235319023032425bc1530405bf9f","blockNo":8139023,"blockHash":"0e8f1213136580fbfdfd1889fb509aa5f20c81d185ecd646b187ef5247125091","epochNo":381,"epochSlotNo":235259,"slot":79464059,"time":"2022/12/14 15:05:50","addressesInput":["addr1qypfzzhchg4s2p0lh8xl6e69a560damrjfmfwc0xv5dhrllvm7eapv9q24rj4pmqp247t7kzcdrq83ks7pydg3j4zqqsj5dayj","addr1qypfzzhchg4s2p0lh8xl6e69a560damrjfmfwc0xv5dhrllvm7eapv9q24rj4pmqp247t7kzcdrq83ks7pydg3j4zqqsj5dayj","addr1zxgx3far7qygq0k6epa0zcvcvrevmn0ypsnfsue94nsn3tvpw288a4x0xf8pxgcntelxmyclq83s0ykeehchz2wtspks905plm","addr1qypfzzhchg4s2p0lh8xl6e69a560damrjfmfwc0xv5dhrllvm7eapv9q24rj4pmqp247t7kzcdrq83ks7pydg3j4zqqsj5dayj"],"addressesOutput":["addr1qypfzzhchg4s2p0lh8xl6e69a560damrjfmfwc0xv5dhrllvm7eapv9q24rj4pmqp247t7kzcdrq83ks7pydg3j4zqqsj5dayj","addr1qypfzzhchg4s2p0lh8xl6e69a560damrjfmfwc0xv5dhrllvm7eapv9q24rj4pmqp247t7kzcdrq83ks7pydg3j4zqqsj5dayj","addr1qypfzzhchg4s2p0lh8xl6e69a560damrjfmfwc0xv5dhrllvm7eapv9q24rj4pmqp247t7kzcdrq83ks7pydg3j4zqqsj5dayj"],"fee":331132,"totalOutput":6409903,"tokens":[]},{"hash":"2f9a6d6d15b091fdecd814de1277c62376b83705897fd90066e07ee23c3d973b","blockNo":8139023,"blockHash":"0e8f1213136580fbfdfd1889fb509aa5f20c81d185ecd646b187ef5247125091","epochNo":381,"epochSlotNo":235259,"slot":79464059,"time":"2022/12/14 15:05:50","addressesInput":["addr1qyt624tty68dlpjfc3x4n43ap6mnz9sph3mf5mrx4td5ng5dyx84xtnqggc6d0em36u9ag84ycydw07pg6xdu893xqaq26dw4n","addr1qyt624tty68dlpjfc3x4n43ap6mnz9sph3mf5mrx4td5ng5dyx84xtnqggc6d0em36u9ag84ycydw07pg6xdu893xqaq26dw4n","addr1qyt624tty68dlpjfc3x4n43ap6mnz9sph3mf5mrx4td5ng5dyx84xtnqggc6d0em36u9ag84ycydw07pg6xdu893xqaq26dw4n"],"addressesOutput":["addr1zxgx3far7qygq0k6epa0zcvcvrevmn0ypsnfsue94nsn3tvpw288a4x0xf8pxgcntelxmyclq83s0ykeehchz2wtspks905plm","addr1qyt624tty68dlpjfc3x4n43ap6mnz9sph3mf5mrx4td5ng5dyx84xtnqggc6d0em36u9ag84ycydw07pg6xdu893xqaq26dw4n","addr1qyt624tty68dlpjfc3x4n43ap6mnz9sph3mf5mrx4td5ng5dyx84xtnqggc6d0em36u9ag84ycydw07pg6xdu893xqaq26dw4n","addr1qyt624tty68dlpjfc3x4n43ap6mnz9sph3mf5mrx4td5ng5dyx84xtnqggc6d0em36u9ag84ycydw07pg6xdu893xqaq26dw4n","addr1qyt624tty68dlpjfc3x4n43ap6mnz9sph3mf5mrx4td5ng5dyx84xtnqggc6d0em36u9ag84ycydw07pg6xdu893xqaq26dw4n","addr1qyt624tty68dlpjfc3x4n43ap6mnz9sph3mf5mrx4td5ng5dyx84xtnqggc6d0em36u9ag84ycydw07pg6xdu893xqaq26dw4n"],"fee":240169,"totalOutput":3204211424,"tokens":[]},{"hash":"995cbfa914df8982be6bea852bcb7b61b2af5b5ee9eaca2bf870aba9e09acf2f","blockNo":8139023,"blockHash":"0e8f1213136580fbfdfd1889fb509aa5f20c81d185ecd646b187ef5247125091","epochNo":381,"epochSlotNo":235259,"slot":79464059,"time":"2022/12/14 15:05:50","addressesInput":["addr1q9fpq00vh5g7c8f89x0ya8094p5pw7v0n0nueejnldt5hgl3uwndg48qpy2ryafa3mvj4ypgmzqfhjhhhqk7qrn9487szjcalj","addr1q9fpq00vh5g7c8f89x0ya8094p5pw7v0n0nueejnldt5hgl3uwndg48qpy2ryafa3mvj4ypgmzqfhjhhhqk7qrn9487szjcalj"],"addressesOutput":["addr1qyxpdnzzxtg9s9t9tp0s3rrn9dmsn3fwsgaln76s6m8hl799fdjerlc8g9hr9erqe7aqzy3p93p02nah7gdt4nhrey4q9hq7wf","addr1q9fpq00vh5g7c8f89x0ya8094p5pw7v0n0nueejnldt5hgl3uwndg48qpy2ryafa3mvj4ypgmzqfhjhhhqk7qrn9487szjcalj"],"fee":172013,"totalOutput":126228471,"tokens":[]},{"hash":"67a7b7ae01ffbe5ca5fc8f669a4a8472a76a72ffee2c60ba1e647cac7d3b4951","blockNo":8139023,"blockHash":"0e8f1213136580fbfdfd1889fb509aa5f20c81d185ecd646b187ef5247125091","epochNo":381,"epochSlotNo":235259,"slot":79464059,"time":"2022/12/14 15:05:50","addressesInput":["addr1q8tp6nnmmd0tx776eh5cjzesvs6k4aur76p4r0m55gyffn2hg973tk6swr2xww2qat6j8s75vuds8tmaj3ctkwpnxmqqtwqsx3","addr1q8tp6nnmmd0tx776eh5cjzesvs6k4aur76p4r0m55gyffn2hg973tk6swr2xww2qat6j8s75vuds8tmaj3ctkwpnxmqqtwqsx3","addr1q8mxxt6tjppx3dfnn6n6mfmhy6pk6keu2hlavnypfqvqpujhg973tk6swr2xww2qat6j8s75vuds8tmaj3ctkwpnxmqq7e3e87","addr1q84q7a842pwflktf39rsyarkn993ak3we7s4glvdh6tsdg2hg973tk6swr2xww2qat6j8s75vuds8tmaj3ctkwpnxmqq6wdya9","addr1q84q7a842pwflktf39rsyarkn993ak3we7s4glvdh6tsdg2hg973tk6swr2xww2qat6j8s75vuds8tmaj3ctkwpnxmqq6wdya9","addr1q8tp6nnmmd0tx776eh5cjzesvs6k4aur76p4r0m55gyffn2hg973tk6swr2xww2qat6j8s75vuds8tmaj3ctkwpnxmqqtwqsx3","addr1q8tp6nnmmd0tx776eh5cjzesvs6k4aur76p4r0m55gyffn2hg973tk6swr2xww2qat6j8s75vuds8tmaj3ctkwpnxmqqtwqsx3"],"addressesOutput":["addr1q9r8zdp0hxm2j975vmyy0j9q9hhchxtfwnpuves5ngr6n9zhg973tk6swr2xww2qat6j8s75vuds8tmaj3ctkwpnxmqqrldup0","addr1qyf09qg5lenmdhqdmcglee996hh3uzqs9hlu6wa3mluq0zzhg973tk6swr2xww2qat6j8s75vuds8tmaj3ctkwpnxmqqepnhua","addr1qyf09qg5lenmdhqdmcglee996hh3uzqs9hlu6wa3mluq0zzhg973tk6swr2xww2qat6j8s75vuds8tmaj3ctkwpnxmqqepnhua","addr1qyf09qg5lenmdhqdmcglee996hh3uzqs9hlu6wa3mluq0zzhg973tk6swr2xww2qat6j8s75vuds8tmaj3ctkwpnxmqqepnhua","addr1qyf09qg5lenmdhqdmcglee996hh3uzqs9hlu6wa3mluq0zzhg973tk6swr2xww2qat6j8s75vuds8tmaj3ctkwpnxmqqepnhua"],"fee":309425,"totalOutput":35792761,"tokens":[]},{"hash":"65cb82a219a4fe5af4559a55177dffa275442c8d5c1414dbd6ae95f9369a781b","blockNo":8139023,"blockHash":"0e8f1213136580fbfdfd1889fb509aa5f20c81d185ecd646b187ef5247125091","epochNo":381,"epochSlotNo":235259,"slot":79464059,"time":"2022/12/14 15:05:50","addressesInput":["addr1qxpmclvgg2wlerlu42tr4nwcfps6e5h54d7jzhgcfr0s8sef6pkhm874mk6zmyajcpcre4hlnam73p6rc45z77ecljeqx04ezd","addr1qxpmclvgg2wlerlu42tr4nwcfps6e5h54d7jzhgcfr0s8sef6pkhm874mk6zmyajcpcre4hlnam73p6rc45z77ecljeqx04ezd","addr1qxpmclvgg2wlerlu42tr4nwcfps6e5h54d7jzhgcfr0s8sef6pkhm874mk6zmyajcpcre4hlnam73p6rc45z77ecljeqx04ezd"],"addressesOutput":["addr1zxgx3far7qygq0k6epa0zcvcvrevmn0ypsnfsue94nsn3tvpw288a4x0xf8pxgcntelxmyclq83s0ykeehchz2wtspks905plm","addr1qxpmclvgg2wlerlu42tr4nwcfps6e5h54d7jzhgcfr0s8sef6pkhm874mk6zmyajcpcre4hlnam73p6rc45z77ecljeqx04ezd","addr1qxpmclvgg2wlerlu42tr4nwcfps6e5h54d7jzhgcfr0s8sef6pkhm874mk6zmyajcpcre4hlnam73p6rc45z77ecljeqx04ezd"],"fee":231149,"totalOutput":263763043,"tokens":[]},{"hash":"b28fdae39bcab9ed88b9e5c22cd5866e4db3eda0ddf50d5fc27d86fcfbdcedec","blockNo":8139023,"blockHash":"0e8f1213136580fbfdfd1889fb509aa5f20c81d185ecd646b187ef5247125091","epochNo":381,"epochSlotNo":235259,"slot":79464059,"time":"2022/12/14 15:05:50","addressesInput":["addr1vxqlzc5rs6l3udxzwv53xpqedwkf8ft64q728hd00eh8j5q8z3jam"],"addressesOutput":["addr1qy9gj7l4mntvr9df6ht0n3tyrerpqq9hpeaff2djxqptslpgalfps7mt5amadsgudyr439psuec9ngu2e66rfa8m0fxs5awr5a","addr1qytcgpelg4m8n0hrgkx8nhr6servtt4qhmntxufdga32lzhuynvp2sdsx64g8dy3fd4pd7hs9lyn0j5vhwuzthz8xkessrfdse","addr1q8vlwynu60ndpu5psfwqz7ahkvj0v2axqnrskq5twu7apd3l9a8az7p23rcj2s0uxf9csuf5xkvqal6nwxgu3qgwxsjsa5qx4d"],"fee":255525,"totalOutput":101744475,"tokens":[]},{"hash":"42455729e7b6eefc02dc74654baf92974a97d1d4fbb5d23da9374c8e53305574","blockNo":8139023,"blockHash":"0e8f1213136580fbfdfd1889fb509aa5f20c81d185ecd646b187ef5247125091","epochNo":381,"epochSlotNo":235259,"slot":79464059,"time":"2022/12/14 15:05:50","addressesInput":["addr1qxg59sj4a8eu5vvclrd7wgu4zd2yd4hg3rks5fftsh00cv7wuxfmxtjsjj4kdkjf7kda88yuwe66j6qgn7nwfx8krjlsfdhtfs"],"addressesOutput":["addr1q8rtdczdspygz4ndmda98car8pwes6cakwgff4nuzury8dwwuxfmxtjsjj4kdkjf7kda88yuwe66j6qgn7nwfx8krjlskyr0qd"],"fee":171573,"totalOutput":867091120,"tokens":[]},{"hash":"ee2f8a75cb79c5c621b01aa3a4226e8bb01b4042496037bfd3ee89d4b4cd98ab","blockNo":8139022,"blockHash":"fd9d000abaddefc1ee7c769e2f56a6c1b83236d66c5143be4727dbb3ae7a0361","epochNo":381,"epochSlotNo":235254,"slot":79464054,"time":"2022/12/14 15:05:45","addressesInput":["addr1zxgx3far7qygq0k6epa0zcvcvrevmn0ypsnfsue94nsn3tvpw288a4x0xf8pxgcntelxmyclq83s0ykeehchz2wtspks905plm","addr1q90h4g5cy47087nakzdws6fjc7tlc4gepfaj9plaex07mrk5qkh9rhzszfz5u90gldtkammllkt6lswrexmttzd6wmlsqe72tp"],"addressesOutput":["addr1zxgx3far7qygq0k6epa0zcvcvrevmn0ypsnfsue94nsn3tvpw288a4x0xf8pxgcntelxmyclq83s0ykeehchz2wtspks905plm","addr1q90h4g5cy47087nakzdws6fjc7tlc4gepfaj9plaex07mrk5qkh9rhzszfz5u90gldtkammllkt6lswrexmttzd6wmlsqe72tp"],"fee":289135,"totalOutput":16948647,"tokens":[]},{"hash":"d43501ebf162a22267665890a1fe7243a904b4fe9b715a18b7b35c2c79816725","blockNo":8139022,"blockHash":"fd9d000abaddefc1ee7c769e2f56a6c1b83236d66c5143be4727dbb3ae7a0361","epochNo":381,"epochSlotNo":235254,"slot":79464054,"time":"2022/12/14 15:05:45","addressesInput":["addr1zxgx3far7qygq0k6epa0zcvcvrevmn0ypsnfsue94nsn3tvpw288a4x0xf8pxgcntelxmyclq83s0ykeehchz2wtspks905plm","addr1q8h3znzjpxvc07m8zuh5m557aqvc3epgdu2x4ynpp6764pxma9m6ghm3p0m97gnnvz2wq6v3w8qfumlcwll7p9rkwxjs6exkmc"],"addressesOutput":["addr1zxgx3far7qygq0k6epa0zcvcvrevmn0ypsnfsue94nsn3tvpw288a4x0xf8pxgcntelxmyclq83s0ykeehchz2wtspks905plm","addr1q8h3znzjpxvc07m8zuh5m557aqvc3epgdu2x4ynpp6764pxma9m6ghm3p0m97gnnvz2wq6v3w8qfumlcwll7p9rkwxjs6exkmc"],"fee":296840,"totalOutput":155746114,"tokens":[]},{"hash":"dc7a5180c6ab3d87d3aeaa06111074fb7be5f08f26c8322ae2fb3ed27e1c5d42","blockNo":8139022,"blockHash":"fd9d000abaddefc1ee7c769e2f56a6c1b83236d66c5143be4727dbb3ae7a0361","epochNo":381,"epochSlotNo":235254,"slot":79464054,"time":"2022/12/14 15:05:45","addressesInput":["addr1q9u85f8pzptzqmecypfz7qjx48clkcl4w30yacc6snxkdkfksaytz5ave5qnxrt43hu5k5llyuv4eyps55u5rjdzkggs5u34v3"],"addressesOutput":["addr1vy7zkfn3qy53x5p7g3tne4j74q35j6v6tzjpfrt7nqj67ccmgn29d","addr1qxt6k04wdw79c3unp4fwrw30z03pay5n7fpfrjp9lfnmcufksaytz5ave5qnxrt43hu5k5llyuv4eyps55u5rjdzkggsggfc3m","addr1qxt6k04wdw79c3unp4fwrw30z03pay5n7fpfrjp9lfnmcufksaytz5ave5qnxrt43hu5k5llyuv4eyps55u5rjdzkggsggfc3m","addr1qxt6k04wdw79c3unp4fwrw30z03pay5n7fpfrjp9lfnmcufksaytz5ave5qnxrt43hu5k5llyuv4eyps55u5rjdzkggsggfc3m","addr1qxt6k04wdw79c3unp4fwrw30z03pay5n7fpfrjp9lfnmcufksaytz5ave5qnxrt43hu5k5llyuv4eyps55u5rjdzkggsggfc3m"],"fee":175665,"totalOutput":1873197933,"tokens":[]},{"hash":"520c8b3c5be613fe0a920a90e5d3bec18b8e6806b5ad6cd65f8218fde6b72c5d","blockNo":8139021,"blockHash":"e674bd77467f8714e52745ed790848063dc9bf4541128e1f6d0f853af1558f81","epochNo":381,"epochSlotNo":235250,"slot":79464050,"time":"2022/12/14 15:05:41","addressesInput":["addr1qy7p7njnv37ds4gptg0823xdxaq74cpz763fgr9qyx83nr0hkttk3utdtjtpxyq9wwcxyj700a7vx50ndwqhaczu8hmszxy825"],"addressesOutput":["addr1vxrd7rgldydkafutr34fhapmk7st2qfmzenrgnd200fcnxckg6d5u","addr1qxkf20slpe78uda0ty36y0ralrsca4y0a23gtycf2mvjvr8hkttk3utdtjtpxyq9wwcxyj700a7vx50ndwqhaczu8hmsec9x8l"],"fee":167085,"totalOutput":105200608,"tokens":[]},{"hash":"7df2bfc228b1098ba8558e036846f6758d2efd74a15ec4ce6cffeee3ef3c7e6a","blockNo":8139021,"blockHash":"e674bd77467f8714e52745ed790848063dc9bf4541128e1f6d0f853af1558f81","epochNo":381,"epochSlotNo":235250,"slot":79464050,"time":"2022/12/14 15:05:41","addressesInput":["addr1qylktpnr0eehddtx7xspa8qxztpvg7tutjn0ze0z2gv4zstqrg557stwp8hwd5eclku7t6wq46gc72na8fwgj22c8e5qummxr0"],"addressesOutput":["addr1qyhferr9c3a7p5eqccfkar9g7l9zfr0xnnhzcwpmces46am9ntze9mha4v8ggne97z2ymuvl8f9a60wzy5neukuad9wsx32xxj","addr1qy9m2dhx4j454tza7899upcdpzla82qx3krfpyv5wx2hl8nqrg557stwp8hwd5eclku7t6wq46gc72na8fwgj22c8e5qt3n6cy"],"fee":168317,"totalOutput":6186456,"tokens":[]},{"hash":"93850fca68112b637f0b84412d3dc43e635dd6dc11afcf9d9a358fa90956ffe1","blockNo":8139021,"blockHash":"e674bd77467f8714e52745ed790848063dc9bf4541128e1f6d0f853af1558f81","epochNo":381,"epochSlotNo":235250,"slot":79464050,"time":"2022/12/14 15:05:41","addressesInput":["addr1vy3qpx09uscywhppj5vp08hu0ekg9zwmq2ysfq6qyh2mpps865j6t","addr1vx3s9dhwmm7f5t3dkxuyzsv8qqq5s80n3gy78wmnarlxmecc25ucy"],"addressesOutput":["addr1vy3qpx09uscywhppj5vp08hu0ekg9zwmq2ysfq6qyh2mpps865j6t","addr1qyjqf29anmsjmw4d7v5ktps4cfqgnsrj0pvgvm0kqxmvyvxvg95kl0j8zgycsqh9t39jpxhvkf2haf2qx9nvxglu3cjqaqj6d3"],"fee":200569,"totalOutput":3147407553,"tokens":[]},{"hash":"99cd9dd0aa864fb280bdd4d9b3827b2c342ba0b258e4630aef993a990bb086c4","blockNo":8139021,"blockHash":"e674bd77467f8714e52745ed790848063dc9bf4541128e1f6d0f853af1558f81","epochNo":381,"epochSlotNo":235250,"slot":79464050,"time":"2022/12/14 15:05:41","addressesInput":["addr1qyrj6fvavfq383f6xvpcg65q8p5tlh5pmphu0q9ztt7jlz5ph6g5l680gzf5sup9gqwvewzehy69yp08uqqywxsunqcsvwdan6","addr1qyrj6fvavfq383f6xvpcg65q8p5tlh5pmphu0q9ztt7jlz5ph6g5l680gzf5sup9gqwvewzehy69yp08uqqywxsunqcsvwdan6"],"addressesOutput":["addr1zxgx3far7qygq0k6epa0zcvcvrevmn0ypsnfsue94nsn3tvpw288a4x0xf8pxgcntelxmyclq83s0ykeehchz2wtspks905plm","addr1qyrj6fvavfq383f6xvpcg65q8p5tlh5pmphu0q9ztt7jlz5ph6g5l680gzf5sup9gqwvewzehy69yp08uqqywxsunqcsvwdan6","addr1qyrj6fvavfq383f6xvpcg65q8p5tlh5pmphu0q9ztt7jlz5ph6g5l680gzf5sup9gqwvewzehy69yp08uqqywxsunqcsvwdan6"],"fee":232601,"totalOutput":101738847,"tokens":[]},{"hash":"b7417bbf020603dbf26222fc0fa0500cab30e3ae71300a9441b80dd9730133a9","blockNo":8139021,"blockHash":"e674bd77467f8714e52745ed790848063dc9bf4541128e1f6d0f853af1558f81","epochNo":381,"epochSlotNo":235250,"slot":79464050,"time":"2022/12/14 15:05:41","addressesInput":["addr1qypfzzhchg4s2p0lh8xl6e69a560damrjfmfwc0xv5dhrllvm7eapv9q24rj4pmqp247t7kzcdrq83ks7pydg3j4zqqsj5dayj","addr1zxgx3far7qygq0k6epa0zcvcvrevmn0ypsnfsue94nsn3tvpw288a4x0xf8pxgcntelxmyclq83s0ykeehchz2wtspks905plm","addr1qypfzzhchg4s2p0lh8xl6e69a560damrjfmfwc0xv5dhrllvm7eapv9q24rj4pmqp247t7kzcdrq83ks7pydg3j4zqqsj5dayj"],"addressesOutput":["addr1qypfzzhchg4s2p0lh8xl6e69a560damrjfmfwc0xv5dhrllvm7eapv9q24rj4pmqp247t7kzcdrq83ks7pydg3j4zqqsj5dayj","addr1qypfzzhchg4s2p0lh8xl6e69a560damrjfmfwc0xv5dhrllvm7eapv9q24rj4pmqp247t7kzcdrq83ks7pydg3j4zqqsj5dayj"],"fee":347462,"totalOutput":6220978,"tokens":[]},{"hash":"984c10ce914d819259f1760e76961dbf032183fec1fc14abe110ee5b254ba43c","blockNo":8139020,"blockHash":"d3e001385cc9e243415a316df8658af844819dfbe3b4bbed3c44ac4f13d0a9e2","epochNo":381,"epochSlotNo":235244,"slot":79464044,"time":"2022/12/14 15:05:35","addressesInput":["addr1v85tfur280j5dwf6ft42gtskl0jyyt2mn62qqrqvshlt7dscjra3m"],"addressesOutput":["addr1qx97pckat33rv4kwt33r7hdpnwe9qaygygwcdvknunr67x6drjgmw062l43crk0ur7gjpdurgu0gcvzm7ad9upf2qwjsr4pqav","addr1v90mvgr52l2j3ajajmazjudqer9dxf4u6k665uesecvyrqsj3u7qa","addr1q8p8vavjueuh6ny3vl3f7c8sv4uzmk2ujd59lj9dht0xen40ykjqjfg6m5vucn06w9e89w35w6dzsq26tmcypqdxx9dqs8ptm6"],"fee":319589,"totalOutput":199680411,"tokens":[]},{"hash":"29c78384d92988066f17b53d3a90997417d4254315c5a3c918f893fdaa781620","blockNo":8139020,"blockHash":"d3e001385cc9e243415a316df8658af844819dfbe3b4bbed3c44ac4f13d0a9e2","epochNo":381,"epochSlotNo":235244,"slot":79464044,"time":"2022/12/14 15:05:35","addressesInput":["addr1zxgx3far7qygq0k6epa0zcvcvrevmn0ypsnfsue94nsn3tvpw288a4x0xf8pxgcntelxmyclq83s0ykeehchz2wtspks905plm","addr1q98enss6exlksgmzufcrf8ukvafav22c6ewtlz50r0w0vcjhqstntdsj09yfjymaztjpgeqtancmnnmrz3pvzedwk2dqadz9gv","addr1q98enss6exlksgmzufcrf8ukvafav22c6ewtlz50r0w0vcjhqstntdsj09yfjymaztjpgeqtancmnnmrz3pvzedwk2dqadz9gv"],"addressesOutput":["addr1zxgx3far7qygq0k6epa0zcvcvrevmn0ypsnfsue94nsn3tvpw288a4x0xf8pxgcntelxmyclq83s0ykeehchz2wtspks905plm","addr1q98enss6exlksgmzufcrf8ukvafav22c6ewtlz50r0w0vcjhqstntdsj09yfjymaztjpgeqtancmnnmrz3pvzedwk2dqadz9gv"],"fee":305867,"totalOutput":2935253,"tokens":[]},{"hash":"d92bd31e4c720754a1899440731f62b88ee9712787159f7293043a858dfa7c49","blockNo":8139020,"blockHash":"d3e001385cc9e243415a316df8658af844819dfbe3b4bbed3c44ac4f13d0a9e2","epochNo":381,"epochSlotNo":235244,"slot":79464044,"time":"2022/12/14 15:05:35","addressesInput":["addr1wxn9efv2f6w82hagxqtn62ju4m293tqvw0uhmdl64ch8uwc0h43gt","addr1qyht4ja0zcn45qvyx477qlyp6j5ftu5ng0prt9608dxp6l2j2c79gy9l76sdg0xwhd7r0c0kna0tycz4y5s6mlenh8pq4jxtdy","addr1qyht4ja0zcn45qvyx477qlyp6j5ftu5ng0prt9608dxp6l2j2c79gy9l76sdg0xwhd7r0c0kna0tycz4y5s6mlenh8pq4jxtdy","addr1z8snz7c4974vzdpxu65ruphl3zjdvtxw8strf2c2tmqnxz2j2c79gy9l76sdg0xwhd7r0c0kna0tycz4y5s6mlenh8pq0xmsha"],"addressesOutput":["addr1qyht4ja0zcn45qvyx477qlyp6j5ftu5ng0prt9608dxp6l2j2c79gy9l76sdg0xwhd7r0c0kna0tycz4y5s6mlenh8pq4jxtdy","addr1qyht4ja0zcn45qvyx477qlyp6j5ftu5ng0prt9608dxp6l2j2c79gy9l76sdg0xwhd7r0c0kna0tycz4y5s6mlenh8pq4jxtdy","addr1q9fknnlplxf6yndm8qj8gkftnj7carrqusm9yagqywar78zrzkycwrx4yr20zvrz0rfqkxgws0wlhfrdufpzls4lr6yswg3ph8","addr1z8snz7c4974vzdpxu65ruphl3zjdvtxw8strf2c2tmqnxz2j2c79gy9l76sdg0xwhd7r0c0kna0tycz4y5s6mlenh8pq0xmsha"],"fee":811561,"totalOutput":798739197742,"tokens":[]},{"hash":"06e2613a3e225b513f78de1a09b3d3c15301a5bff0aa9cc182ddec21c1a531e3","blockNo":8139020,"blockHash":"d3e001385cc9e243415a316df8658af844819dfbe3b4bbed3c44ac4f13d0a9e2","epochNo":381,"epochSlotNo":235244,"slot":79464044,"time":"2022/12/14 15:05:35","addressesInput":["addr1q90h4g5cy47087nakzdws6fjc7tlc4gepfaj9plaex07mrk5qkh9rhzszfz5u90gldtkammllkt6lswrexmttzd6wmlsqe72tp","addr1zxgx3far7qygq0k6epa0zcvcvrevmn0ypsnfsue94nsn3tvpw288a4x0xf8pxgcntelxmyclq83s0ykeehchz2wtspks905plm"],"addressesOutput":["addr1zxgx3far7qygq0k6epa0zcvcvrevmn0ypsnfsue94nsn3tvpw288a4x0xf8pxgcntelxmyclq83s0ykeehchz2wtspks905plm","addr1q90h4g5cy47087nakzdws6fjc7tlc4gepfaj9plaex07mrk5qkh9rhzszfz5u90gldtkammllkt6lswrexmttzd6wmlsqe72tp"],"fee":273437,"totalOutput":59823873,"tokens":[]},{"hash":"9228a47377d14ce81d6a07d7367d42c92e626a402930f3f698515903fd70a62d","blockNo":8139020,"blockHash":"d3e001385cc9e243415a316df8658af844819dfbe3b4bbed3c44ac4f13d0a9e2","epochNo":381,"epochSlotNo":235244,"slot":79464044,"time":"2022/12/14 15:05:35","addressesInput":["addr1q8877n6phszaaspq76p6zxhkrnappkuy0n2448wzrxw4mxredds9fyysyjd7hwfvuytvjzkxgtuk4hf5gpuk8t2g9ujqxqxtpn","addr1q8877n6phszaaspq76p6zxhkrnappkuy0n2448wzrxw4mxredds9fyysyjd7hwfvuytvjzkxgtuk4hf5gpuk8t2g9ujqxqxtpn","addr1q8877n6phszaaspq76p6zxhkrnappkuy0n2448wzrxw4mxredds9fyysyjd7hwfvuytvjzkxgtuk4hf5gpuk8t2g9ujqxqxtpn","addr1q8877n6phszaaspq76p6zxhkrnappkuy0n2448wzrxw4mxredds9fyysyjd7hwfvuytvjzkxgtuk4hf5gpuk8t2g9ujqxqxtpn"],"addressesOutput":["addr1q8np43jk6s7wc4m46n0007aunzmjdpkne4khu44nv6qttkacnsnknfk88d85es2mp8u9dzmh47ezadhcwtgzvl7nawwqdsfll0","addr1q8877n6phszaaspq76p6zxhkrnappkuy0n2448wzrxw4mxredds9fyysyjd7hwfvuytvjzkxgtuk4hf5gpuk8t2g9ujqxqxtpn","addr1q8877n6phszaaspq76p6zxhkrnappkuy0n2448wzrxw4mxredds9fyysyjd7hwfvuytvjzkxgtuk4hf5gpuk8t2g9ujqxqxtpn"],"fee":311185,"totalOutput":1307397062,"tokens":[]}],"totalItems":56700771,"totalPages":2835039,"currentPage":0}