{"data":[{"txId":56615046,"txHash":"30818522d78a40c90d10941d6bbc8233cf70349d660f6ad2bd55d85580a13215","txTime":"2022/12/04 12:54:11","block":8096430,"epoch":379,"slotNo":78592160,"epochSlotNo":227360,"stakeKey":"stake1uyq8ad9shlt7h2jlw3rvl6w3canlha45m098w46wwewujmsg235uj"},{"txId":56615031,"txHash":"97eb2667ad58ecbd2542dabf7c09842f415c64a1bcce4b260b7a7f9bb9097d5d","txTime":"2022/12/04 12:53:30","block":8096429,"epoch":379,"slotNo":78592119,"epochSlotNo":227319,"stakeKey":"stake1uxm97c09e3f3eph5u8ak42jfxlzqaucpzxng5gsujwmmf4gn3mjh9"},{"txId":56614987,"txHash":"1805e7190e2bcc25d327c0ff3570d14fdc5e6794f28f2c69cf4a546d29d37050","txTime":"2022/12/04 12:52:41","block":8096428,"epoch":379,"slotNo":78592070,"epochSlotNo":227270,"stakeKey":"stake1u8l328032qk2qyyrx0nwpu23j7zsgdcycqnf3tpu2zlfx9s8jjdw2"},{"txId":56614957,"txHash":"c354ce82a3c7a5bc9b6260b5963f1dd7eb82eb4dee4139d1d3bc0cc75db3188e","txTime":"2022/12/04 12:51:14","block":8096424,"epoch":379,"slotNo":78591983,"epochSlotNo":227183,"stakeKey":"stake1uyker8dectja22ms4upjfp94xu7d7uwes64htwxh2at0ftq8r3rsy"},{"txId":56614950,"txHash":"3724659cd72ffc86384d42955c401cc478350b7d80ca8e2858ae024f9cde0169","txTime":"2022/12/04 12:51:03","block":8096422,"epoch":379,"slotNo":78591972,"epochSlotNo":227172,"stakeKey":"stake1uxhma2ucyp4vve7zpezmrjsnmmly9y5dknvvzf5qh5wtqxsy3a9hn"},{"txId":56614881,"txHash":"0352b77acd584472c080cd412cdb47cc3c08f14cfb063dbdce3345a4e3d9d4a7","txTime":"2022/12/04 12:49:11","block":8096419,"epoch":379,"slotNo":78591860,"epochSlotNo":227060,"stakeKey":"stake1u8hk5jm93alr7ys6nuh6evq0n7en8hdnpdxn2xcsjjdy89qfmu9n6"},{"txId":56614877,"txHash":"9d5714b705d5b539a9a89cc28847883efd8ee30e825ef0f7b5c3080712527b6b","txTime":"2022/12/04 12:49:11","block":8096419,"epoch":379,"slotNo":78591860,"epochSlotNo":227060,"stakeKey":"stake1u977pcffaf7gf4rq9434099l905fsrtg8kw2sw4aassn32chjjarx"},{"txId":56614848,"txHash":"11b54a3bb6cd9ad4427445e9b94030fbce2d3b56f96a119a30f6a12c694bc1d8","txTime":"2022/12/04 12:48:20","block":8096417,"epoch":379,"slotNo":78591809,"epochSlotNo":227009,"stakeKey":"stake1ux23fhedddxw4w6a97ncu92z8stnzq7qeqxgjuukrud0aeqa7p6um"},{"txId":56614749,"txHash":"27bd58307eada7d35bd18cb180bf2087afb17e869195c831db5816d99962d796","txTime":"2022/12/04 12:45:49","block":8096413,"epoch":379,"slotNo":78591658,"epochSlotNo":226858,"stakeKey":"stake1u8pxvm89e9ew0clwjeet6geak9g20d878khe3u3phcwrp4sy96zlp"},{"txId":56614707,"txHash":"1b7030b67404daa72f6d99d8b8da54ff28cce71cd86a78944716f2a93286f33a","txTime":"2022/12/04 12:44:52","block":8096410,"epoch":379,"slotNo":78591601,"epochSlotNo":226801,"stakeKey":"stake1uxnvwwdahqdmxpeluhr8uhl5wgltaz35tyahdl99g9y22vcp6zzaj"},{"txId":56614644,"txHash":"fbc5e85ca435bdf9d2aea75e91e6e03feebdb473c3a0ee6f8703581fdc3e939b","txTime":"2022/12/04 12:43:23","block":8096401,"epoch":379,"slotNo":78591512,"epochSlotNo":226712,"stakeKey":"stake1uyywdcp3rxnpqrxwyjl57t3vnj5p6wulfct7dy8c5t6nrvqtremvz"},{"txId":56614338,"txHash":"c24efa8369de3a4a5408bca98b564c35bffce365e27dbcc40708fcc3436293fb","txTime":"2022/12/04 12:35:09","block":8096373,"epoch":379,"slotNo":78591018,"epochSlotNo":226218,"stakeKey":"stake1u9j6dp5qq89hjxzssp60uqj638kgm5cllz38xplqvaq4hcgthtvw3"},{"txId":56614287,"txHash":"df15f97809d101dd8a4c7d2a82b00a8553967896206f61130fa335c641e7dfb9","txTime":"2022/12/04 12:34:21","block":8096369,"epoch":379,"slotNo":78590970,"epochSlotNo":226170,"stakeKey":"stake1uxxz5xau06dfgre8rz62rtudp0flt6p8mn6qd00rcd3860q9vcf3g"},{"txId":56614085,"txHash":"448d31be142ae7c05079b94eb64be64fee6973456ad894ce04ffb6dc69045852","txTime":"2022/12/04 12:29:05","block":8096352,"epoch":379,"slotNo":78590654,"epochSlotNo":225854,"stakeKey":"stake1uxp9fy932n7mfwh5eegafumwj7sj8y7pujnyepmmhnsmvngaayvhw"},{"txId":56614078,"txHash":"c3f923daee7eb0d298201eed5692d9e8cc4f22bfcbb2172654dfc57cd1307923","txTime":"2022/12/04 12:26:38","block":8096351,"epoch":379,"slotNo":78590507,"epochSlotNo":225707,"stakeKey":"stake1u8vxjyd93lks7g6av4lt7qyl0s300ysxuuedk0h0en9ha8qdnry2f"},{"txId":56614076,"txHash":"2d6f2c2188695881db2953630e1c6b29eed969a28a598c498606bda0e1c33907","txTime":"2022/12/04 12:26:29","block":8096350,"epoch":379,"slotNo":78590498,"epochSlotNo":225698,"stakeKey":"stake1uxys57x42j69ehslk0qjuzcn6e9eqtndtmu04tucpmun06ccjk9wl"},{"txId":56614008,"txHash":"653c7b49271ad8306499b689b7b3fa4822099d632825d5b76b74c175e02502c4","txTime":"2022/12/04 12:24:56","block":8096346,"epoch":379,"slotNo":78590405,"epochSlotNo":225605,"stakeKey":"stake1u85gzufgcml82ult5luvpv4a5lae8vvwvrfyqlqg6wwyhagrmw0sw"},{"txId":56613828,"txHash":"a29bc4d033839ea0d19facce902738859dd2a6062fbb28bf93c553cc95ea8970","txTime":"2022/12/04 12:19:13","block":8096332,"epoch":379,"slotNo":78590062,"epochSlotNo":225262,"stakeKey":"stake1uyz8ulcp2s0tw4tmkerrnz2s8jyf4z3lmapddpyn8wkpsrqtd2km6"},{"txId":56613278,"txHash":"a3298a3071599485cb7a6a654d580cea2960575470c10ef6706511ac52f45d32","txTime":"2022/12/04 12:05:20","block":8096287,"epoch":379,"slotNo":78589229,"epochSlotNo":224429,"stakeKey":"stake1ux480rk9j2rqa3sv7h5qg6peq9z2v6fuv7zunzzycfndftct27gvc"},{"txId":56612903,"txHash":"133a322692bce1f6da273764df7fb0724cf53794a43975652e61daacc73b3aec","txTime":"2022/12/04 11:57:18","block":8096257,"epoch":379,"slotNo":78588747,"epochSlotNo":223947,"stakeKey":"stake1u9a9tr6jzpylrqdkn9exkl6vh3j3jg6t58wjgtdg002gfascy339a"}],"totalItems":1615730,"totalPages":80787,"currentPage":0}