{"data":[{"hash":"53629b4dd41421eea67a27c7d2d9d80339cb176e72e107101d4e51408423019b","blockNo":6809349,"blockHash":"dc15d103b296b75d2a588cc4e40fb3c4ff91e9c386f2b8b340410f110491906c","epochNo":317,"epochSlotNo":169524,"slot":51750324,"time":"2022/01/27 20:50:15","addressesInput":["addr1q9ja3zxxyte0uvm9x78c293ggqhjwfp8eqwvczs3l86e5749rdqw93d6rytpy6m8urjk7thcm2x9cldxzne39w8nphnq2ag70c","addr1qyuv4uq6w584ts68y5a7lm638ea7h4a09fvjc7mn5gcjrm99rdqw93d6rytpy6m8urjk7thcm2x9cldxzne39w8nphnqt4ecfp","addr1w9yr0zr530tp9yzrhly8lw5upddu0eym3yh0mjwa0qlr9pgmkzgv0","addr1qy3an0qvkcz89tzcwwjeus5nj3xvzsv3xdky0nzslkpxff49rdqw93d6rytpy6m8urjk7thcm2x9cldxzne39w8nphnqrmxsxm","addr1q9ja3zxxyte0uvm9x78c293ggqhjwfp8eqwvczs3l86e5749rdqw93d6rytpy6m8urjk7thcm2x9cldxzne39w8nphnq2ag70c","addr1q9ja3zxxyte0uvm9x78c293ggqhjwfp8eqwvczs3l86e5749rdqw93d6rytpy6m8urjk7thcm2x9cldxzne39w8nphnq2ag70c","addr1q9ja3zxxyte0uvm9x78c293ggqhjwfp8eqwvczs3l86e5749rdqw93d6rytpy6m8urjk7thcm2x9cldxzne39w8nphnq2ag70c","addr1q9kusfl0ygs2esnnfslj2xyz0ff5ys4vatevm0mlzzw92xa9rdqw93d6rytpy6m8urjk7thcm2x9cldxzne39w8nphnq3utg73"],"addressesOutput":["addr1qykvdvkvnlf6tlh7zxuvu3aca2a0wnj2dra39yzg7e67yenvmcl64ktsy0lk760ed205tuzndfytex47tdsuv788wr2q8msj27","addr1qxq47au29wss4g8acjk0zsmwwq0h34hhzump6stye9wuldm7nm0t6ad3jz9hy5v3smye0nvcumtzu43k7r36ag0w29qqdafvvk","addr1q9ja3zxxyte0uvm9x78c293ggqhjwfp8eqwvczs3l86e5749rdqw93d6rytpy6m8urjk7thcm2x9cldxzne39w8nphnq2ag70c","addr1q9ja3zxxyte0uvm9x78c293ggqhjwfp8eqwvczs3l86e5749rdqw93d6rytpy6m8urjk7thcm2x9cldxzne39w8nphnq2ag70c"],"fee":1071349,"totalOutput":245762655,"tokens":[]},{"hash":"bf8ee944ba3bb0920a0cc6fe5677e77668f88ac3cb243cdc4aa351daa5ebea1c","blockNo":6809349,"blockHash":"dc15d103b296b75d2a588cc4e40fb3c4ff91e9c386f2b8b340410f110491906c","epochNo":317,"epochSlotNo":169524,"slot":51750324,"time":"2022/01/27 20:50:15","addressesInput":["addr1q83d4cu49thtz0esvpj8xe740e5jqpzd5d7j0sscmyhs2zvgwruvxlnfsldlvn2kz0h5yd6pjr3wadef6n94z00yfujqlnh7hf"],"addressesOutput":["addr1w999n67e86jn6xal07pzxtrmqynspgx0fwmcmpua4wc6yzsxpljz3","addr1q83d4cu49thtz0esvpj8xe740e5jqpzd5d7j0sscmyhs2zvgwruvxlnfsldlvn2kz0h5yd6pjr3wadef6n94z00yfujqlnh7hf"],"fee":255063,"totalOutput":64210396,"tokens":[]},{"hash":"504839ec8b57a4787734fd8fdb26c19e20718c09a04d6a90b500a288d98d728b","blockNo":6809349,"blockHash":"dc15d103b296b75d2a588cc4e40fb3c4ff91e9c386f2b8b340410f110491906c","epochNo":317,"epochSlotNo":169524,"slot":51750324,"time":"2022/01/27 20:50:15","addressesInput":["addr1qy6fgxkv9l352jy54rm8ktgwe0ffzpxk25se532rc0zumjk7xeg4p983vwd08hfw6m0kqsk2s9djflllwtfgetfuccsssk5fle"],"addressesOutput":["addr1w999n67e86jn6xal07pzxtrmqynspgx0fwmcmpua4wc6yzsxpljz3","addr1qy6fgxkv9l352jy54rm8ktgwe0ffzpxk25se532rc0zumjk7xeg4p983vwd08hfw6m0kqsk2s9djflllwtfgetfuccsssk5fle"],"fee":217719,"totalOutput":211898777,"tokens":[]},{"hash":"07670d13d4c254eec25e913dae3fe50c203b4052fe68a43605da89b84d91aa92","blockNo":6809349,"blockHash":"dc15d103b296b75d2a588cc4e40fb3c4ff91e9c386f2b8b340410f110491906c","epochNo":317,"epochSlotNo":169524,"slot":51750324,"time":"2022/01/27 20:50:15","addressesInput":["addr1q87y4sw9k7f4xhkvp27txq4u8dmvwtvhaw55rkzy76dgzczt5feahqx7snc8u7cuk5hf39rnyezu08yvy3zm2nl405uqmzpzh4","addr1q87y4sw9k7f4xhkvp27txq4u8dmvwtvhaw55rkzy76dgzczt5feahqx7snc8u7cuk5hf39rnyezu08yvy3zm2nl405uqmzpzh4"],"addressesOutput":["addr1vxgh87393a63zh8gwsvy9jucxqpp7x5n5ymsy2gxyp5yzdqjyd2u2","addr1q87y4sw9k7f4xhkvp27txq4u8dmvwtvhaw55rkzy76dgzczt5feahqx7snc8u7cuk5hf39rnyezu08yvy3zm2nl405uqmzpzh4"],"fee":168669,"totalOutput":41524771,"tokens":[]},{"hash":"2a553b2935a398e745f35d7ccba11832c7fc1dd331cedca745b851b1252df690","blockNo":6809349,"blockHash":"dc15d103b296b75d2a588cc4e40fb3c4ff91e9c386f2b8b340410f110491906c","epochNo":317,"epochSlotNo":169524,"slot":51750324,"time":"2022/01/27 20:50:15","addressesInput":["addr1qyzmnqwdey28jp5800p0euwykmwgrvpgwyx7ge6adghje5vp9wqnyrjg3tp2wc62qumj4dc093x74c67aa9nrtfrxjgqqh2yx7","addr1qyzmnqwdey28jp5800p0euwykmwgrvpgwyx7ge6adghje5vp9wqnyrjg3tp2wc62qumj4dc093x74c67aa9nrtfrxjgqqh2yx7"],"addressesOutput":["addr1wyzynye0nksztrfzpsulsq7whr3vgh7uvp0gm4p0x42ckkqqq6kxq","addr1qyzmnqwdey28jp5800p0euwykmwgrvpgwyx7ge6adghje5vp9wqnyrjg3tp2wc62qumj4dc093x74c67aa9nrtfrxjgqqh2yx7","addr1qyzmnqwdey28jp5800p0euwykmwgrvpgwyx7ge6adghje5vp9wqnyrjg3tp2wc62qumj4dc093x74c67aa9nrtfrxjgqqh2yx7"],"fee":316641,"totalOutput":31544991,"tokens":[]},{"hash":"72df76e923af68f7bc7c2f189c263d0295c6bfe11b6132b9e747f8088b90fbab","blockNo":6809349,"blockHash":"dc15d103b296b75d2a588cc4e40fb3c4ff91e9c386f2b8b340410f110491906c","epochNo":317,"epochSlotNo":169524,"slot":51750324,"time":"2022/01/27 20:50:15","addressesInput":["addr1qyg75vu5sk6qp7m7gyf4m7m89fsqswszwv2e2sxlhvtn59wpl7qshudjk9fhvqektv8ypzucz6d0qtf7k9epvuwqvhjs04z3lq"],"addressesOutput":["addr1w999n67e86jn6xal07pzxtrmqynspgx0fwmcmpua4wc6yzsxpljz3","addr1qyg75vu5sk6qp7m7gyf4m7m89fsqswszwv2e2sxlhvtn59wpl7qshudjk9fhvqektv8ypzucz6d0qtf7k9epvuwqvhjs04z3lq"],"fee":208551,"totalOutput":27577908,"tokens":[]},{"hash":"2ec2f5034af6e0f5be685067f582adad5b7903113fb96e7541591abf21bb9782","blockNo":6809349,"blockHash":"dc15d103b296b75d2a588cc4e40fb3c4ff91e9c386f2b8b340410f110491906c","epochNo":317,"epochSlotNo":169524,"slot":51750324,"time":"2022/01/27 20:50:15","addressesInput":["addr1wxaptpmxcxawvr3pzlhgnpmzz3ql43n2tc8mn3av5kx0yzs09tqh8"],"addressesOutput":["addr1qxdw4nfq9h96sm3k2rjaa3fnnp6858vcsduazwxds7z05xyvlrld6uz0kl9khzpxqmfk5cxnvtknzgrpxefp06spmegs2a57sq"],"fee":337650,"totalOutput":604162350,"tokens":[]},{"hash":"edcadd439fa2f6ac7ca0ee28ba64f5c8f76b557f1f3c04c4d0ebce2939bca76f","blockNo":6809349,"blockHash":"dc15d103b296b75d2a588cc4e40fb3c4ff91e9c386f2b8b340410f110491906c","epochNo":317,"epochSlotNo":169524,"slot":51750324,"time":"2022/01/27 20:50:15","addressesInput":["addr1q9yla8mfx5gm2953wps0z8gtfrfkj8rwznkr4hrhfvwlzgxu0krsh3v74d4dr7tle8skks94flfdmamc4exwtc9jduwqptyn83","addr1q9yla8mfx5gm2953wps0z8gtfrfkj8rwznkr4hrhfvwlzgxu0krsh3v74d4dr7tle8skks94flfdmamc4exwtc9jduwqptyn83"],"addressesOutput":["addr1w999n67e86jn6xal07pzxtrmqynspgx0fwmcmpua4wc6yzsxpljz3","addr1q9yla8mfx5gm2953wps0z8gtfrfkj8rwznkr4hrhfvwlzgxu0krsh3v74d4dr7tle8skks94flfdmamc4exwtc9jduwqptyn83","addr1q9yla8mfx5gm2953wps0z8gtfrfkj8rwznkr4hrhfvwlzgxu0krsh3v74d4dr7tle8skks94flfdmamc4exwtc9jduwqptyn83"],"fee":330615,"totalOutput":127945599,"tokens":[]},{"hash":"d0768cb63cd0f11672fef3aca8d701913e98954e217bba0da69d8201b7dd3bec","blockNo":6809349,"blockHash":"dc15d103b296b75d2a588cc4e40fb3c4ff91e9c386f2b8b340410f110491906c","epochNo":317,"epochSlotNo":169524,"slot":51750324,"time":"2022/01/27 20:50:15","addressesInput":["addr1q9sgy72lnn756tz8dnc2ae65x5vy7qf4jsemqvrh27rkzgrgkh0smavqdt6qhs93txce2k2c9e2yj0y2rvmkgk9dj4psj5tsm3","addr1q9sgy72lnn756tz8dnc2ae65x5vy7qf4jsemqvrh27rkzgrgkh0smavqdt6qhs93txce2k2c9e2yj0y2rvmkgk9dj4psj5tsm3"],"addressesOutput":["addr1qx6jlxc63w5mwga0llxwmc4n2mjypkmes0pl46320mf6n860epvwqppndy98z30lc895t9mzweddada696zagxhd76rs94q9q5","addr1q9sgy72lnn756tz8dnc2ae65x5vy7qf4jsemqvrh27rkzgrgkh0smavqdt6qhs93txce2k2c9e2yj0y2rvmkgk9dj4psj5tsm3","addr1q9sgy72lnn756tz8dnc2ae65x5vy7qf4jsemqvrh27rkzgrgkh0smavqdt6qhs93txce2k2c9e2yj0y2rvmkgk9dj4psj5tsm3"],"fee":221953,"totalOutput":33735857,"tokens":[]},{"hash":"043e4771df67bc5641e6cd2fd176accf02f632498a956a95d9f2d57f90503252","blockNo":6809349,"blockHash":"dc15d103b296b75d2a588cc4e40fb3c4ff91e9c386f2b8b340410f110491906c","epochNo":317,"epochSlotNo":169524,"slot":51750324,"time":"2022/01/27 20:50:15","addressesInput":["addr1q9z3wyhrwmg8n4kzdhj6k0c73q779xskz0yuc5n4y9a73fdtly6ug6gmct0mfqcf9zk4tpfknnyaljtqncr4ymhpcgmqnca5yw","addr1q9z3wyhrwmg8n4kzdhj6k0c73q779xskz0yuc5n4y9a73fdtly6ug6gmct0mfqcf9zk4tpfknnyaljtqncr4ymhpcgmqnca5yw"],"addressesOutput":["addr1vxgh87393a63zh8gwsvy9jucxqpp7x5n5ymsy2gxyp5yzdqjyd2u2","addr1q9z3wyhrwmg8n4kzdhj6k0c73q779xskz0yuc5n4y9a73fdtly6ug6gmct0mfqcf9zk4tpfknnyaljtqncr4ymhpcgmqnca5yw"],"fee":168669,"totalOutput":10771789,"tokens":[]},{"hash":"1532bcaeb93d3faa56d2a86444072422f2cb3e8b6e73a8cad22a6fdf61bf4a4f","blockNo":6809349,"blockHash":"dc15d103b296b75d2a588cc4e40fb3c4ff91e9c386f2b8b340410f110491906c","epochNo":317,"epochSlotNo":169524,"slot":51750324,"time":"2022/01/27 20:50:15","addressesInput":["addr1qxwp5md7u0lrex2utazd409elnmv4xfgkp33u9ksxz9vewwpndyhu2mxlgpl9c5ur235ypyl698y8yg4js8mlct9f4jssqyu9a"],"addressesOutput":["addr1v9k29fstl653zrfg8r4gksysz4mp249vwwwna5z9hr3j0rcedzpez","addr1q9h56xy6mhxe4h7c9lalzvvhdj9z3r955a848sk82hw283kpndyhu2mxlgpl9c5ur235ypyl698y8yg4js8mlct9f4jsveye32"],"fee":175137,"totalOutput":998824863,"tokens":[]},{"hash":"c164cceaa8349dc3d0e611c538e4e35bf2bcfafc64c95081f1379ee89a59f3ce","blockNo":6809349,"blockHash":"dc15d103b296b75d2a588cc4e40fb3c4ff91e9c386f2b8b340410f110491906c","epochNo":317,"epochSlotNo":169524,"slot":51750324,"time":"2022/01/27 20:50:15","addressesInput":["addr1w999n67e86jn6xal07pzxtrmqynspgx0fwmcmpua4wc6yzsxpljz3","addr1q8wtec88jglkg9sdr69lfpt28s8y7yl39sk4qrq2q4m66nx2ge7emdwlh7t49leljewfd5f35d95tvr99enn3l4dw3gqsd8a77"],"addressesOutput":["addr1w999n67e86jn6xal07pzxtrmqynspgx0fwmcmpua4wc6yzsxpljz3","addr1q8wtec88jglkg9sdr69lfpt28s8y7yl39sk4qrq2q4m66nx2ge7emdwlh7t49leljewfd5f35d95tvr99enn3l4dw3gqsd8a77"],"fee":1096063,"totalOutput":10272359,"tokens":[]},{"hash":"ef5c7975a932e2de79257435715c4ecd5d46dd8834d2802ce5470c033a91ef5d","blockNo":6809349,"blockHash":"dc15d103b296b75d2a588cc4e40fb3c4ff91e9c386f2b8b340410f110491906c","epochNo":317,"epochSlotNo":169524,"slot":51750324,"time":"2022/01/27 20:50:15","addressesInput":["addr1qyvwgns58ua6suseuekc6dd8gg3pjryx6n7qgamqgv0p2err76rrd799ayvp2ek4sr723vhtw7wek73363zzcq6kt7ks64jgxh"],"addressesOutput":["addr1wxaptpmxcxawvr3pzlhgnpmzz3ql43n2tc8mn3av5kx0yzs09tqh8","addr1qyvwgns58ua6suseuekc6dd8gg3pjryx6n7qgamqgv0p2err76rrd799ayvp2ek4sr723vhtw7wek73363zzcq6kt7ks64jgxh"],"fee":208921,"totalOutput":2079360789,"tokens":[]},{"hash":"db46b94b077480827fde052640fc41407c713aaf9f6b54e4cb815dc42ce33014","blockNo":6809349,"blockHash":"dc15d103b296b75d2a588cc4e40fb3c4ff91e9c386f2b8b340410f110491906c","epochNo":317,"epochSlotNo":169524,"slot":51750324,"time":"2022/01/27 20:50:15","addressesInput":["addr1qygtyl057kmcmc37m0rf073nqhxnld3c8h68ny627w6sl8usn2m82lg3u0wfzs052r42vcm93alskp8yz5fyahu6pv8savt9m4","addr1qygtyl057kmcmc37m0rf073nqhxnld3c8h68ny627w6sl8usn2m82lg3u0wfzs052r42vcm93alskp8yz5fyahu6pv8savt9m4","addr1qygtyl057kmcmc37m0rf073nqhxnld3c8h68ny627w6sl8usn2m82lg3u0wfzs052r42vcm93alskp8yz5fyahu6pv8savt9m4"],"addressesOutput":["addr1q8n5p8ath4u56gqnue424j9tucvzduatqj4fh63rr0veg234wrmar8p5jch5qvtdxzmn7qptr7afv2wn40ar0nyulpusym5amu","addr1qygtyl057kmcmc37m0rf073nqhxnld3c8h68ny627w6sl8usn2m82lg3u0wfzs052r42vcm93alskp8yz5fyahu6pv8savt9m4"],"fee":175181,"totalOutput":27463907,"tokens":[]},{"hash":"a1904665cc7aebc82f82976eaf75895ba7372e97e0ada8e5cc6d5857a0fcb38c","blockNo":6809349,"blockHash":"dc15d103b296b75d2a588cc4e40fb3c4ff91e9c386f2b8b340410f110491906c","epochNo":317,"epochSlotNo":169524,"slot":51750324,"time":"2022/01/27 20:50:15","addressesInput":["addr1q9jwl05w4vfk4qy4dxzq8vmykp0qqapp4lyth8yup3t0qyddvchnqagpj8acyx4rs07y8xnn0q5atwtec4d9f80um45slu3pe2","addr1q9jwl05w4vfk4qy4dxzq8vmykp0qqapp4lyth8yup3t0qyddvchnqagpj8acyx4rs07y8xnn0q5atwtec4d9f80um45slu3pe2","addr1q9jwl05w4vfk4qy4dxzq8vmykp0qqapp4lyth8yup3t0qyddvchnqagpj8acyx4rs07y8xnn0q5atwtec4d9f80um45slu3pe2"],"addressesOutput":["addr1wy2mjh76em44qurn5x73nzqrxua7ataasftql0u2h6g88lc3gtgpz","addr1q9jwl05w4vfk4qy4dxzq8vmykp0qqapp4lyth8yup3t0qyddvchnqagpj8acyx4rs07y8xnn0q5atwtec4d9f80um45slu3pe2","addr1q9jwl05w4vfk4qy4dxzq8vmykp0qqapp4lyth8yup3t0qyddvchnqagpj8acyx4rs07y8xnn0q5atwtec4d9f80um45slu3pe2"],"fee":402002,"totalOutput":38557974,"tokens":[]},{"hash":"2aea0a3c8372f9a48ab834943b6a2600c7f982bc320f07637cd13a346153e5c6","blockNo":6809349,"blockHash":"dc15d103b296b75d2a588cc4e40fb3c4ff91e9c386f2b8b340410f110491906c","epochNo":317,"epochSlotNo":169524,"slot":51750324,"time":"2022/01/27 20:50:15","addressesInput":["addr1q8al7qwx7p5ndhptfgqah748kr94x0avmlgx5kqjs4r5umvv07wvjdxagjryew777kd2dv6agnkmav8eeh8dk3dh007q2kvyv5","addr1q8al7qwx7p5ndhptfgqah748kr94x0avmlgx5kqjs4r5umvv07wvjdxagjryew777kd2dv6agnkmav8eeh8dk3dh007q2kvyv5"],"addressesOutput":["addr1q8t5gt0hsxlv9vqfh45sxsnlk2gv9hgregkzycy7vece9vfh3yw3l905vcr6yurcnjuhvtje2l588qvlpd7f7yfxqr2svtl7wx","addr1q8al7qwx7p5ndhptfgqah748kr94x0avmlgx5kqjs4r5umvv07wvjdxagjryew777kd2dv6agnkmav8eeh8dk3dh007q2kvyv5"],"fee":171793,"totalOutput":6449176,"tokens":[]},{"hash":"51eaf78ec35b456f97b0d36f4ea220c923f04ddca34e522f5e3e7cdb3c49db86","blockNo":6809349,"blockHash":"dc15d103b296b75d2a588cc4e40fb3c4ff91e9c386f2b8b340410f110491906c","epochNo":317,"epochSlotNo":169524,"slot":51750324,"time":"2022/01/27 20:50:15","addressesInput":["addr1q9r7se40ewdhg8xdkmmfqnpy55uulwfgunvlc4zh6edcla68jry7je8kk8aah8q2j8ejedhtuzwkg0dpwdqx9g22hy4saf3dcx","addr1w999n67e86jn6xal07pzxtrmqynspgx0fwmcmpua4wc6yzsxpljz3"],"addressesOutput":["addr1q9r7se40ewdhg8xdkmmfqnpy55uulwfgunvlc4zh6edcla68jry7je8kk8aah8q2j8ejedhtuzwkg0dpwdqx9g22hy4saf3dcx","addr1q9r7se40ewdhg8xdkmmfqnpy55uulwfgunvlc4zh6edcla68jry7je8kk8aah8q2j8ejedhtuzwkg0dpwdqx9g22hy4saf3dcx"],"fee":1049407,"totalOutput":5802443,"tokens":[]},{"hash":"7765b5e074b0462953d9ab75bb26d32fbb0d8860d3539c750b22102ead250df1","blockNo":6809349,"blockHash":"dc15d103b296b75d2a588cc4e40fb3c4ff91e9c386f2b8b340410f110491906c","epochNo":317,"epochSlotNo":169524,"slot":51750324,"time":"2022/01/27 20:50:15","addressesInput":["addr1q93tdf6nvvy85cfyy9j95hsntq7afz4wyntx0wk8nslp6ngde5rzpehct05lf0qssqjv8ke6nt3mt8zt0ujpf4wpn6aqg8yfee"],"addressesOutput":["addr1wxaptpmxcxawvr3pzlhgnpmzz3ql43n2tc8mn3av5kx0yzs09tqh8","addr1q93tdf6nvvy85cfyy9j95hsntq7afz4wyntx0wk8nslp6ngde5rzpehct05lf0qssqjv8ke6nt3mt8zt0ujpf4wpn6aqg8yfee"],"fee":208921,"totalOutput":29791079,"tokens":[]},{"hash":"02db24125b41ad70a69e0d419865e3261f6302328579cc56a0554ab0deaa227a","blockNo":6809349,"blockHash":"dc15d103b296b75d2a588cc4e40fb3c4ff91e9c386f2b8b340410f110491906c","epochNo":317,"epochSlotNo":169524,"slot":51750324,"time":"2022/01/27 20:50:15","addressesInput":["addr1q8q24nne95xt4u2d49t98puxdezwwsv8ydkk0lju2tdsfqvp4vzzpk8f6wf3vcnyyd2qegc2x6fpv6n0kaznxwzdxqyq57uy0a","addr1q8q24nne95xt4u2d49t98puxdezwwsv8ydkk0lju2tdsfqvp4vzzpk8f6wf3vcnyyd2qegc2x6fpv6n0kaznxwzdxqyq57uy0a","addr1q8q24nne95xt4u2d49t98puxdezwwsv8ydkk0lju2tdsfqvp4vzzpk8f6wf3vcnyyd2qegc2x6fpv6n0kaznxwzdxqyq57uy0a"],"addressesOutput":["DdzFFzCqrht82JdkRuC7aswfxdtAvd9qnBscmDregkURWSJvUtorwauK7MxakYF4Ep5P8tuJ77h583URW19zcKTnAj7PH8DnBGJ8pdnq","addr1q8q24nne95xt4u2d49t98puxdezwwsv8ydkk0lju2tdsfqvp4vzzpk8f6wf3vcnyyd2qegc2x6fpv6n0kaznxwzdxqyq57uy0a","addr1q8q24nne95xt4u2d49t98puxdezwwsv8ydkk0lju2tdsfqvp4vzzpk8f6wf3vcnyyd2qegc2x6fpv6n0kaznxwzdxqyq57uy0a"],"fee":177205,"totalOutput":1035022314,"tokens":[]},{"hash":"08649e20d6f562b91f902b55364178504b636767d2f947a83e365e507840c07d","blockNo":6809349,"blockHash":"dc15d103b296b75d2a588cc4e40fb3c4ff91e9c386f2b8b340410f110491906c","epochNo":317,"epochSlotNo":169524,"slot":51750324,"time":"2022/01/27 20:50:15","addressesInput":["addr1wxaptpmxcxawvr3pzlhgnpmzz3ql43n2tc8mn3av5kx0yzs09tqh8"],"addressesOutput":["addr1qxgq9g3cuml4t76hkg7ym9qt7z6arx09kqvrnvqej3padusap36e5vtnwfjuvr3v5fqm8puq8l0vnzr2fk3z75r6ru7qhzcy9s"],"fee":337650,"totalOutput":204162350,"tokens":[]}],"totalItems":28794308,"totalPages":1439716,"currentPage":0}