{"data":[{"txId":50795874,"txHash":"3e3b197702382a5a0a6c28d498c205b32624c3e79e6a1a533c4c16dfd9d5200f","txTime":"2022/09/22 14:17:56","block":7790404,"epoch":364,"slotNo":72289985,"epochSlotNo":405185,"stakeKey":"stake1u9znr3d94ynu2ezp5j493p0zn6rqd870swmfcauzqsafzvgyx0hfh"},{"txId":50795680,"txHash":"0cb1a246dfcb97e1f1b829d4bea99d4fec32eec436885f938cae4c68aff16921","txTime":"2022/09/22 14:13:36","block":7790393,"epoch":364,"slotNo":72289725,"epochSlotNo":404925,"stakeKey":"stake1uxcwm4j92h4kyq6vyxgcj9urx7uxsyls5qq2896tfrempvcazh03k"},{"txId":50795653,"txHash":"fcf02efe322143ec2fb27c5d13fe66f5796d89408ee8a5644a435bf7efb40240","txTime":"2022/09/22 14:13:11","block":7790392,"epoch":364,"slotNo":72289700,"epochSlotNo":404900,"stakeKey":"stake1uykecs9jjj4ayv055ms0hmvpk858aenxw9faz3hm5xa6u3g2dz3k9"},{"txId":50795626,"txHash":"bf8158f221d8acc4d6139e5df64f89215a3e3c5b092558843d3774fa9e0478cc","txTime":"2022/09/22 14:12:18","block":7790391,"epoch":364,"slotNo":72289647,"epochSlotNo":404847,"stakeKey":"stake1ux4q85fyy4a877n0udw9tnvph7xpwe9na7gpr2r35wcm3ys2vx9qn"},{"txId":50795579,"txHash":"3bfac754b8e6a07420342ca27c80b3020b28520a8e3e93c0d21009cfacec0bcc","txTime":"2022/09/22 14:11:27","block":7790389,"epoch":364,"slotNo":72289596,"epochSlotNo":404796,"stakeKey":"stake1u95tncftmfdps04ujc5qr43uw0qd665avj6jjnndp64eqncc83rxw"},{"txId":50795358,"txHash":"aa004382ab5524d4e96a42fed6701b37eef7d0936261095461b8b21a4b93f393","txTime":"2022/09/22 14:05:36","block":7790370,"epoch":364,"slotNo":72289245,"epochSlotNo":404445,"stakeKey":"stake1ux8gpc8n42m75nhm5gyhasrkcjt46dqppqw7af7z6nyk7rcjgst76"},{"txId":50795258,"txHash":"46c5392d89467197ce7d563748ec0ca6cd5010c38a513c83252964199af001a8","txTime":"2022/09/22 14:03:43","block":7790365,"epoch":364,"slotNo":72289132,"epochSlotNo":404332,"stakeKey":"stake1u9k74kv6gu6uwkqv8u5fuexy2ayyt5uaewfxr2xsyu0kcggw53qa0"},{"txId":50795257,"txHash":"70464787877276a6c747329bb1cb8ee3e4b32207962b91a7f4437b0103bb0849","txTime":"2022/09/22 14:03:43","block":7790365,"epoch":364,"slotNo":72289132,"epochSlotNo":404332,"stakeKey":"stake1u8m9d7pjey8zxfwftv9whcywu255t3gtfujfsn2k7teq9ugrzg8l5"},{"txId":50794964,"txHash":"dd642ad093202f385d21a0b5fe8a161a5c955c2faa07f44a51aa8c2ea5e0ec6b","txTime":"2022/09/22 13:57:47","block":7790345,"epoch":364,"slotNo":72288776,"epochSlotNo":403976,"stakeKey":"stake1uyldhmcgtcycdjmpzvam4ly38lhhlnrc9crw5795xk6sntqvrfar4"},{"txId":50794888,"txHash":"7ed5b6e229f7c1914f7e45050cf778b05b73e81c29d59529a1614cf0e40c61f0","txTime":"2022/09/22 13:54:11","block":7790337,"epoch":364,"slotNo":72288560,"epochSlotNo":403760,"stakeKey":"stake1u8pz2n59gmq4apv44z3gqtvtlr77zzhgyz80e2y7fmvkukqju59ev"},{"txId":50794855,"txHash":"33d95d478a8eb706360c177b76fc389c7d550c1a10febccf45945f32d9f9e864","txTime":"2022/09/22 13:53:29","block":7790335,"epoch":364,"slotNo":72288518,"epochSlotNo":403718,"stakeKey":"stake1uys90jmscpy8ag7rm3ryxsvf9v4e22k2008kv4r6kzq0lrqa5vkw8"},{"txId":50794706,"txHash":"0ecb94c6fa7125d962e00c53601a3130a667bcdcb97f908f315aa4fec404283f","txTime":"2022/09/22 13:50:47","block":7790325,"epoch":364,"slotNo":72288356,"epochSlotNo":403556,"stakeKey":"stake1u96k38f945vzhlv0a46hwru7jc2p02p598rj6ts6nwlpm2cqn9q3g"},{"txId":50794603,"txHash":"bab4a25135b87712ba3356f3612ab841155b3120f2afc3c87cf3f5702465fc62","txTime":"2022/09/22 13:49:16","block":7790320,"epoch":364,"slotNo":72288265,"epochSlotNo":403465,"stakeKey":"stake1uy07dytagmsxm4hfapne6wpdq0nrqscdy70qrcu45dnkrrccq5sec"},{"txId":50794526,"txHash":"bd37f60e971c11b3ea06fec1292b3caf86600d0436994851fd9bdf7e31809726","txTime":"2022/09/22 13:46:58","block":7790314,"epoch":364,"slotNo":72288127,"epochSlotNo":403327,"stakeKey":"stake1uxfdv9k289umfacv7n2d5h5geajdp6w4uecq637w7qqgw0g47h9sy"},{"txId":50794487,"txHash":"94c51de35b9296514e1537b0cdc73bbc57fc1edd05c7cb1ff602f90016dddd28","txTime":"2022/09/22 13:46:05","block":7790311,"epoch":364,"slotNo":72288074,"epochSlotNo":403274,"stakeKey":"stake1u9z6vm6qtv32xdz5w2whuysgs68uvq4qyusz42829p9d3qcyyh8ey"},{"txId":50794201,"txHash":"82fda62cb8e8ff40227e76d1cef0b034eeb2f2174f18bfe71f6e1ffc285a0ae1","txTime":"2022/09/22 13:39:16","block":7790289,"epoch":364,"slotNo":72287665,"epochSlotNo":402865,"stakeKey":"stake1u9d2yyx2fjf7qw4wwsfgz7uvjwedrf5yrh8vf52fp99yhjqrsmdd7"},{"txId":50794046,"txHash":"3237c4c90d23613c033ae3e9ad1f9c0e533b8ebf7db6af8705f8054428a726a8","txTime":"2022/09/22 13:34:51","block":7790277,"epoch":364,"slotNo":72287400,"epochSlotNo":402600,"stakeKey":"stake1u95xs20j2umdpefu6gctq2nzznneynsaq65j3ss5yvd0tnsmsccq8"},{"txId":50793921,"txHash":"6f1c27e968387f341232d2ef5a9ff51e133338b84483e8ce45d744990fe0e34a","txTime":"2022/09/22 13:32:19","block":7790269,"epoch":364,"slotNo":72287248,"epochSlotNo":402448,"stakeKey":"stake1u8qujlw4uyn57aqhlxg4sv7xv952su6f7967va7g6jzqdggq4xw9f"},{"txId":50793912,"txHash":"fa79da5ee58287964ec7b475db272e0f56bf0aff1f8c4583e803d9c26070ee94","txTime":"2022/09/22 13:31:37","block":7790266,"epoch":364,"slotNo":72287206,"epochSlotNo":402406,"stakeKey":"stake1u8q5wgg8nzq79kz7pzh3699cq9z69t77nweum6myavdn85qd58f5z"},{"txId":50793709,"txHash":"201e753911d2f0ae3923be0dccdd864d406d42ae9e161875562c9d0badbbcbf5","txTime":"2022/09/22 13:26:58","block":7790252,"epoch":364,"slotNo":72286927,"epochSlotNo":402127,"stakeKey":"stake1uxlyk07mz8h4gw2kzdpz8zj26wavk32j50f4ja60yak7mjg397jmr"}],"totalItems":1578388,"totalPages":78920,"currentPage":0}