{"data":[{"hash":"cda4e30caac123ada0dd7c6bab4a1dff80e15b0b703fa5b6f6a3c70d7291d33d","blockNo":8403722,"blockHash":"2c70874ca90089a5a9809c417bf9b0d3be5a47329d66e380e87476a7c1d2be5a","epochNo":394,"epochSlotNo":76316,"slot":84921116,"time":"2023/02/15 18:56:47","addressesInput":["addr1qxd4pw2m4ffe3hhfml835uueh373ylzrepg7g5ulhttczwlvjlxw97ed2qffdtvlvecxgyz49jj46zqtccvd63grfuqsg0rur6","addr1qx9pg7eneasaax3fut0cj3vcwlhl3lpf68fnzwh0fpk6xdlvjlxw97ed2qffdtvlvecxgyz49jj46zqtccvd63grfuqschyglx","addr1qxd4pw2m4ffe3hhfml835uueh373ylzrepg7g5ulhttczwlvjlxw97ed2qffdtvlvecxgyz49jj46zqtccvd63grfuqsg0rur6","addr1q9nx22xdc5zeqxe52zmwezhxgps4sje6xq7rw54x35f6n9lvjlxw97ed2qffdtvlvecxgyz49jj46zqtccvd63grfuqsdv4gx4","addr1qx9pg7eneasaax3fut0cj3vcwlhl3lpf68fnzwh0fpk6xdlvjlxw97ed2qffdtvlvecxgyz49jj46zqtccvd63grfuqschyglx","addr1q9nx22xdc5zeqxe52zmwezhxgps4sje6xq7rw54x35f6n9lvjlxw97ed2qffdtvlvecxgyz49jj46zqtccvd63grfuqsdv4gx4","addr1q92gd44u3r3ymywxxvxkwg682ddws9rz5n5pnp0plz5vpkhvjlxw97ed2qffdtvlvecxgyz49jj46zqtccvd63grfuqsrq0d66","addr1q9nx22xdc5zeqxe52zmwezhxgps4sje6xq7rw54x35f6n9lvjlxw97ed2qffdtvlvecxgyz49jj46zqtccvd63grfuqsdv4gx4","addr1q92gd44u3r3ymywxxvxkwg682ddws9rz5n5pnp0plz5vpkhvjlxw97ed2qffdtvlvecxgyz49jj46zqtccvd63grfuqsrq0d66","addr1qx9pg7eneasaax3fut0cj3vcwlhl3lpf68fnzwh0fpk6xdlvjlxw97ed2qffdtvlvecxgyz49jj46zqtccvd63grfuqschyglx","addr1qx9pg7eneasaax3fut0cj3vcwlhl3lpf68fnzwh0fpk6xdlvjlxw97ed2qffdtvlvecxgyz49jj46zqtccvd63grfuqschyglx","addr1q9nx22xdc5zeqxe52zmwezhxgps4sje6xq7rw54x35f6n9lvjlxw97ed2qffdtvlvecxgyz49jj46zqtccvd63grfuqsdv4gx4","addr1qxd4pw2m4ffe3hhfml835uueh373ylzrepg7g5ulhttczwlvjlxw97ed2qffdtvlvecxgyz49jj46zqtccvd63grfuqsg0rur6","addr1qxd4pw2m4ffe3hhfml835uueh373ylzrepg7g5ulhttczwlvjlxw97ed2qffdtvlvecxgyz49jj46zqtccvd63grfuqsg0rur6"],"addressesOutput":["addr1zyq0kyrml023kwjk8zr86d5gaxrt5w8lxnah8r6m6s4jp4g3r6dxnzml343sx8jweqn4vn3fz2kj8kgu9czghx0jrsyqqktyhv","addr1qys6p3j97mfxe72rxkh5d9lp3cdjqp37dd8t5yjq5vl9m93h0dy20dzu4wpwtfre93yd2ph2e57ppft6kyc0dg28yp7shh7t9v","addr1qx9pg7eneasaax3fut0cj3vcwlhl3lpf68fnzwh0fpk6xdlvjlxw97ed2qffdtvlvecxgyz49jj46zqtccvd63grfuqschyglx","addr1qx9pg7eneasaax3fut0cj3vcwlhl3lpf68fnzwh0fpk6xdlvjlxw97ed2qffdtvlvecxgyz49jj46zqtccvd63grfuqschyglx"],"fee":478954,"totalOutput":862286860,"tokens":[]},{"hash":"a2f16e27fad5ce2756137caf719d5e51e971dbec2ffc01ae531b6c3323ba88ff","blockNo":8403722,"blockHash":"2c70874ca90089a5a9809c417bf9b0d3be5a47329d66e380e87476a7c1d2be5a","epochNo":394,"epochSlotNo":76316,"slot":84921116,"time":"2023/02/15 18:56:47","addressesInput":["addr1w9qzpelu9hn45pefc0xr4ac4kdxeswq7pndul2vuj59u8tqaxdznu","addr1v94q2nrfagvrqzc0evesupagk4spt524yle35dsmrvffrhskezvv2","addr1v94q2nrfagvrqzc0evesupagk4spt524yle35dsmrvffrhskezvv2","addr1wxaptpmxcxawvr3pzlhgnpmzz3ql43n2tc8mn3av5kx0yzs09tqh8"],"addressesOutput":["addr1w9qzpelu9hn45pefc0xr4ac4kdxeswq7pndul2vuj59u8tqaxdznu","addr1w9jx45flh83z6wuqypyash54mszwmdj8r64fydafxtfc6jgrw4rm3","addr1qyjf4vcp977z7t3jyd07xp26m60hnmr386dwyrsz44gs2yvhdjv2kmr8rjfnc0jq62rqcmtluge3hgz0kwp29gezgqlsmpsvdu","addr1v94q2nrfagvrqzc0evesupagk4spt524yle35dsmrvffrhskezvv2","addr1v94q2nrfagvrqzc0evesupagk4spt524yle35dsmrvffrhskezvv2"],"fee":1171135,"totalOutput":10435387057,"tokens":[]},{"hash":"e2549f01a8efe283c0711f8522bc21fec09e0fde08c2c390eaf34ac4dd673f8b","blockNo":8403722,"blockHash":"2c70874ca90089a5a9809c417bf9b0d3be5a47329d66e380e87476a7c1d2be5a","epochNo":394,"epochSlotNo":76316,"slot":84921116,"time":"2023/02/15 18:56:47","addressesInput":["addr1v94q2nrfagvrqzc0evesupagk4spt524yle35dsmrvffrhskezvv2","addr1wxaptpmxcxawvr3pzlhgnpmzz3ql43n2tc8mn3av5kx0yzs09tqh8","addr1w9qzpelu9hn45pefc0xr4ac4kdxeswq7pndul2vuj59u8tqaxdznu","addr1v94q2nrfagvrqzc0evesupagk4spt524yle35dsmrvffrhskezvv2"],"addressesOutput":["addr1w9qzpelu9hn45pefc0xr4ac4kdxeswq7pndul2vuj59u8tqaxdznu","addr1w9jx45flh83z6wuqypyash54mszwmdj8r64fydafxtfc6jgrw4rm3","addr1q8xsvljdsfx3yufc6zhcns3a8hqahmpgeq5tlw67f6w3rtex6jatwx5hxcy0g99lyyvsqvmshedz63fj7xrs26qrncwsjqu3hg","addr1v94q2nrfagvrqzc0evesupagk4spt524yle35dsmrvffrhskezvv2","addr1v94q2nrfagvrqzc0evesupagk4spt524yle35dsmrvffrhskezvv2"],"fee":1169601,"totalOutput":18137234953,"tokens":[]},{"hash":"a8008469e0b6922c76fb7bb57567457f1b28cc4076701f33eb30ff17e7556f36","blockNo":8403722,"blockHash":"2c70874ca90089a5a9809c417bf9b0d3be5a47329d66e380e87476a7c1d2be5a","epochNo":394,"epochSlotNo":76316,"slot":84921116,"time":"2023/02/15 18:56:47","addressesInput":["addr1qy37c5a3tm8lqw6kktslqyl4rrvp73h4gy09xn8kx43qfakfqj779mjekfctul2rjyzya6ha7ufl3jfuw56dgh7jqygqw7c7yt","addr1zxgx3far7qygq0k6epa0zcvcvrevmn0ypsnfsue94nsn3tvpw288a4x0xf8pxgcntelxmyclq83s0ykeehchz2wtspks905plm"],"addressesOutput":["addr1q90hzqdfw8fhgdc6jvd7kdr23ngacexm64w693xm4vthflvn4kpg49asu8hvcyft302kl76txun9d7amgz7hhw8mvtusqy8pu3","addr1q9cwvremt6n320s2e3agq0jyq82yhrk3htsu0w426xnz5us70z4w0jgvcdkkynmm8wmds66jd9kusnjfpu6raw5fqp0sr07p5w","addr1q90hzqdfw8fhgdc6jvd7kdr23ngacexm64w693xm4vthflvn4kpg49asu8hvcyft302kl76txun9d7amgz7hhw8mvtusqy8pu3","addr1qy37c5a3tm8lqw6kktslqyl4rrvp73h4gy09xn8kx43qfakfqj779mjekfctul2rjyzya6ha7ufl3jfuw56dgh7jqygqw7c7yt","addr1qy37c5a3tm8lqw6kktslqyl4rrvp73h4gy09xn8kx43qfakfqj779mjekfctul2rjyzya6ha7ufl3jfuw56dgh7jqygqw7c7yt"],"fee":390936,"totalOutput":103835139,"tokens":[]},{"hash":"6f4edbf8fa55b5e83ddc8df23097bac9055aff3007ef3f1ecf6bb7068dba3e4d","blockNo":8403722,"blockHash":"2c70874ca90089a5a9809c417bf9b0d3be5a47329d66e380e87476a7c1d2be5a","epochNo":394,"epochSlotNo":76316,"slot":84921116,"time":"2023/02/15 18:56:47","addressesInput":["addr1qxh8rxkys4mrksljt90v0fp0l492gtqjpth8rkcgeupltmseltg44r6jd2ud78tdyerps8xgtpwnfu7e3hspyts2ellsfdpzch","addr1qxh8rxkys4mrksljt90v0fp0l492gtqjpth8rkcgeupltmseltg44r6jd2ud78tdyerps8xgtpwnfu7e3hspyts2ellsfdpzch","addr1qxh8rxkys4mrksljt90v0fp0l492gtqjpth8rkcgeupltmseltg44r6jd2ud78tdyerps8xgtpwnfu7e3hspyts2ellsfdpzch","addr1z8jd97ct35n4s5ss8lt4sq0zclw0dmf7yak8fj46m0jm3dseltg44r6jd2ud78tdyerps8xgtpwnfu7e3hspyts2ellsxnmy7r","addr1qxh8rxkys4mrksljt90v0fp0l492gtqjpth8rkcgeupltmseltg44r6jd2ud78tdyerps8xgtpwnfu7e3hspyts2ellsfdpzch"],"addressesOutput":["addr1z8jd97ct35n4s5ss8lt4sq0zclw0dmf7yak8fj46m0jm3dseltg44r6jd2ud78tdyerps8xgtpwnfu7e3hspyts2ellsxnmy7r","addr1qx0th2cxlawn56sgwqmdwujgzk9yx7n2z46jeqjwwc3grcceltg44r6jd2ud78tdyerps8xgtpwnfu7e3hspyts2ellsjnpzml"],"fee":458640,"totalOutput":1375162960,"tokens":[]},{"hash":"83f920a06cef48e165d2239295cb5e6770f84688904f37bd3f07c0090d05527c","blockNo":8403721,"blockHash":"bc06e2f0af6e8498cc0f4825c90960ec0dc4d50fd5efe6cd42bb1d1f65dffff9","epochNo":394,"epochSlotNo":76311,"slot":84921111,"time":"2023/02/15 18:56:42","addressesInput":["addr1q9mptke4nchjnkrcrqluyuvex3vda30w9hl8c4vmj38wfsrkzhdnt83098v8sxplcfcejdzcmmz7ut07032eh9zwunqq647ftn","addr1q9mptke4nchjnkrcrqluyuvex3vda30w9hl8c4vmj38wfsrkzhdnt83098v8sxplcfcejdzcmmz7ut07032eh9zwunqq647ftn"],"addressesOutput":["addr1q9mptke4nchjnkrcrqluyuvex3vda30w9hl8c4vmj38wfsrkzhdnt83098v8sxplcfcejdzcmmz7ut07032eh9zwunqq647ftn","addr1q9mptke4nchjnkrcrqluyuvex3vda30w9hl8c4vmj38wfsrkzhdnt83098v8sxplcfcejdzcmmz7ut07032eh9zwunqq647ftn"],"fee":240270,"totalOutput":6619788792,"tokens":[]},{"hash":"d45f2312b576c8e020d16c2ff855edffd70d10b39a684a614433544df980d99a","blockNo":8403721,"blockHash":"bc06e2f0af6e8498cc0f4825c90960ec0dc4d50fd5efe6cd42bb1d1f65dffff9","epochNo":394,"epochSlotNo":76311,"slot":84921111,"time":"2023/02/15 18:56:42","addressesInput":["addr1q9yrhxezs9jpv9huxd6sk27pecrak8863gqfkan7m24678dcvtjm8enawhyjjkcf6eves2cwz4c8y9tvhjuzpvmu4rwssukzmr","addr1q9yrhxezs9jpv9huxd6sk27pecrak8863gqfkan7m24678dcvtjm8enawhyjjkcf6eves2cwz4c8y9tvhjuzpvmu4rwssukzmr","addr1zyq0kyrml023kwjk8zr86d5gaxrt5w8lxnah8r6m6s4jp4g3r6dxnzml343sx8jweqn4vn3fz2kj8kgu9czghx0jrsyqqktyhv","addr1q9yrhxezs9jpv9huxd6sk27pecrak8863gqfkan7m24678dcvtjm8enawhyjjkcf6eves2cwz4c8y9tvhjuzpvmu4rwssukzmr","addr1zyq0kyrml023kwjk8zr86d5gaxrt5w8lxnah8r6m6s4jp4g3r6dxnzml343sx8jweqn4vn3fz2kj8kgu9czghx0jrsyqqktyhv"],"addressesOutput":["addr1q9yrhxezs9jpv9huxd6sk27pecrak8863gqfkan7m24678dcvtjm8enawhyjjkcf6eves2cwz4c8y9tvhjuzpvmu4rwssukzmr","addr1q9yrhxezs9jpv9huxd6sk27pecrak8863gqfkan7m24678dcvtjm8enawhyjjkcf6eves2cwz4c8y9tvhjuzpvmu4rwssukzmr","addr1qy67qr2fr6uzvc2qvmzke8v776etagfaj3j2yujllw4ry64muv42np7p62fmrytp4myqsn5tpc9vhzjkuaztzmepe38qrpvkvv","addr1q8ggzh20nes5lr3a04e3qwjv8g48sgv8gq36mu7jyer23jys4k3h40jpavycrv3d0fcn663zkeu8gn5l3rkv7mgavu0q0wey7u","addr1q9yrhxezs9jpv9huxd6sk27pecrak8863gqfkan7m24678dcvtjm8enawhyjjkcf6eves2cwz4c8y9tvhjuzpvmu4rwssukzmr"],"fee":700337,"totalOutput":94540291,"tokens":[]},{"hash":"f099c006be109a2ee2735d2fe57381861a0b281c1b4f6307a3c3c6ab8747d848","blockNo":8403721,"blockHash":"bc06e2f0af6e8498cc0f4825c90960ec0dc4d50fd5efe6cd42bb1d1f65dffff9","epochNo":394,"epochSlotNo":76311,"slot":84921111,"time":"2023/02/15 18:56:42","addressesInput":["addr1q8xsvljdsfx3yufc6zhcns3a8hqahmpgeq5tlw67f6w3rtex6jatwx5hxcy0g99lyyvsqvmshedz63fj7xrs26qrncwsjqu3hg","addr1q8xsvljdsfx3yufc6zhcns3a8hqahmpgeq5tlw67f6w3rtex6jatwx5hxcy0g99lyyvsqvmshedz63fj7xrs26qrncwsjqu3hg","addr1q8xsvljdsfx3yufc6zhcns3a8hqahmpgeq5tlw67f6w3rtex6jatwx5hxcy0g99lyyvsqvmshedz63fj7xrs26qrncwsjqu3hg","addr1q8xsvljdsfx3yufc6zhcns3a8hqahmpgeq5tlw67f6w3rtex6jatwx5hxcy0g99lyyvsqvmshedz63fj7xrs26qrncwsjqu3hg","addr1q8xsvljdsfx3yufc6zhcns3a8hqahmpgeq5tlw67f6w3rtex6jatwx5hxcy0g99lyyvsqvmshedz63fj7xrs26qrncwsjqu3hg"],"addressesOutput":["addr1wxaptpmxcxawvr3pzlhgnpmzz3ql43n2tc8mn3av5kx0yzs09tqh8","addr1q8xsvljdsfx3yufc6zhcns3a8hqahmpgeq5tlw67f6w3rtex6jatwx5hxcy0g99lyyvsqvmshedz63fj7xrs26qrncwsjqu3hg"],"fee":231193,"totalOutput":71716208,"tokens":[]},{"hash":"8ab6660cee692fc2ee0b7df7a1b9082e93a326cb50187e851735d439b6afb120","blockNo":8403721,"blockHash":"bc06e2f0af6e8498cc0f4825c90960ec0dc4d50fd5efe6cd42bb1d1f65dffff9","epochNo":394,"epochSlotNo":76311,"slot":84921111,"time":"2023/02/15 18:56:42","addressesInput":["addr1qxkmr0m22xeqludcg5rjdmecjxasu9fat0680qehtcsnftaadgykewa9ufvegeuca9yyq03d9v7ea2y2zthgu7hfgjtsddp6gr","addr1qxkmr0m22xeqludcg5rjdmecjxasu9fat0680qehtcsnftaadgykewa9ufvegeuca9yyq03d9v7ea2y2zthgu7hfgjtsddp6gr","addr1qxkmr0m22xeqludcg5rjdmecjxasu9fat0680qehtcsnftaadgykewa9ufvegeuca9yyq03d9v7ea2y2zthgu7hfgjtsddp6gr","addr1qxkmr0m22xeqludcg5rjdmecjxasu9fat0680qehtcsnftaadgykewa9ufvegeuca9yyq03d9v7ea2y2zthgu7hfgjtsddp6gr"],"addressesOutput":["addr1qxkmr0m22xeqludcg5rjdmecjxasu9fat0680qehtcsnftaadgykewa9ufvegeuca9yyq03d9v7ea2y2zthgu7hfgjtsddp6gr","addr1q95zhf28xgd7x324e0rr0yd9va9knwrq08a5utaaf03vfy9xtqtg239ghehr6t44yh7rylm5ws63y6xy9w28u7hfx43szd38ma","addr1qxhdv4snkm42swav6gkqpu97w583ad4nmk572cu5xjuwh73v945rvhmtn05xnxa7w7zhw2k6yg72cusyy6lc5e2fxrtqtgjzj6","addr1qxkmr0m22xeqludcg5rjdmecjxasu9fat0680qehtcsnftaadgykewa9ufvegeuca9yyq03d9v7ea2y2zthgu7hfgjtsddp6gr"],"fee":254117,"totalOutput":24327436962,"tokens":[]},{"hash":"788fa56aee41f0f58fc6952d420370e6f28ec223b7d97b26a1f326f60bd3c445","blockNo":8403721,"blockHash":"bc06e2f0af6e8498cc0f4825c90960ec0dc4d50fd5efe6cd42bb1d1f65dffff9","epochNo":394,"epochSlotNo":76311,"slot":84921111,"time":"2023/02/15 18:56:42","addressesInput":["addr1qx2wxz05lq79r4uezsdwl2re294s7r5e3ng6zhlkdps56z5mu0vt2p0r09nnaea07uac5qnasqye3py3vrvkz7t22gsqdsa8fs","addr1qx2wxz05lq79r4uezsdwl2re294s7r5e3ng6zhlkdps56z5mu0vt2p0r09nnaea07uac5qnasqye3py3vrvkz7t22gsqdsa8fs","addr1qx2wxz05lq79r4uezsdwl2re294s7r5e3ng6zhlkdps56z5mu0vt2p0r09nnaea07uac5qnasqye3py3vrvkz7t22gsqdsa8fs"],"addressesOutput":["addr1zxgx3far7qygq0k6epa0zcvcvrevmn0ypsnfsue94nsn3tvpw288a4x0xf8pxgcntelxmyclq83s0ykeehchz2wtspks905plm","addr1qx2wxz05lq79r4uezsdwl2re294s7r5e3ng6zhlkdps56z5mu0vt2p0r09nnaea07uac5qnasqye3py3vrvkz7t22gsqdsa8fs","addr1qx2wxz05lq79r4uezsdwl2re294s7r5e3ng6zhlkdps56z5mu0vt2p0r09nnaea07uac5qnasqye3py3vrvkz7t22gsqdsa8fs"],"fee":238321,"totalOutput":27836697,"tokens":[]},{"hash":"4a9530aaacf18521b1b197a2a9481fc793655052d510f76fa2a99f710ef1cf05","blockNo":8403721,"blockHash":"bc06e2f0af6e8498cc0f4825c90960ec0dc4d50fd5efe6cd42bb1d1f65dffff9","epochNo":394,"epochSlotNo":76311,"slot":84921111,"time":"2023/02/15 18:56:42","addressesInput":["addr1w92w34pys9h4h02zxdfsp8lhcvdd5t9aaln9z96szsgh73scty4aj","addr1q9fnxyyr7axx4wlrcaey9pvx5n4utr6gl9t9ctdjlz0tc5alsp0lf57d0flk0t0kv0tvwfxh5fe0vqndctuk6u8ghq2sgwkhg0","addr1w92w34pys9h4h02zxdfsp8lhcvdd5t9aaln9z96szsgh73scty4aj"],"addressesOutput":["addr1w92w34pys9h4h02zxdfsp8lhcvdd5t9aaln9z96szsgh73scty4aj","addr1w92w34pys9h4h02zxdfsp8lhcvdd5t9aaln9z96szsgh73scty4aj","addr1q9fnxyyr7axx4wlrcaey9pvx5n4utr6gl9t9ctdjlz0tc5alsp0lf57d0flk0t0kv0tvwfxh5fe0vqndctuk6u8ghq2sgwkhg0"],"fee":628175,"totalOutput":226645745850,"tokens":[]},{"hash":"a0a45e1923820c8cc798fbf31240b00d4d5cfa5d04a0fced0af978b66c5d1ff7","blockNo":8403721,"blockHash":"bc06e2f0af6e8498cc0f4825c90960ec0dc4d50fd5efe6cd42bb1d1f65dffff9","epochNo":394,"epochSlotNo":76311,"slot":84921111,"time":"2023/02/15 18:56:42","addressesInput":["addr1zxgx3far7qygq0k6epa0zcvcvrevmn0ypsnfsue94nsn3tvpw288a4x0xf8pxgcntelxmyclq83s0ykeehchz2wtspks905plm","addr1q979zl4078eph76d2e0qeg73hec0gyspgt8lgqkjtc9jx9myapquwx7yvqw8czs359m8kug7r7adz8j2dr9mg2n8njqquq90ev"],"addressesOutput":["addr1q979zl4078eph76d2e0qeg73hec0gyspgt8lgqkjtc9jx9myapquwx7yvqw8czs359m8kug7r7adz8j2dr9mg2n8njqquq90ev","addr1q979zl4078eph76d2e0qeg73hec0gyspgt8lgqkjtc9jx9myapquwx7yvqw8czs359m8kug7r7adz8j2dr9mg2n8njqquq90ev"],"fee":266184,"totalOutput":118709890,"tokens":[]},{"hash":"95fa2241c98209319e8fe2c11d59794586d9aac352d277729bd653f4ef376d31","blockNo":8403721,"blockHash":"bc06e2f0af6e8498cc0f4825c90960ec0dc4d50fd5efe6cd42bb1d1f65dffff9","epochNo":394,"epochSlotNo":76311,"slot":84921111,"time":"2023/02/15 18:56:42","addressesInput":["addr1qyahv4lgftj3n97j90jjqsax6spwygs7ycw9vqzw8zue27040mstnalxvv9avzq5tnl6y39gskj27lx865kxckdjn04s08645p","addr1q82h7jvhlpq20mpss2j96v6vv05qv5tptkr355dc99jdt2840mstnalxvv9avzq5tnl6y39gskj27lx865kxckdjn04stmfymy"],"addressesOutput":["addr1q9wlmwawl50mwra35sr2ckhlrpvt65e82emz44gx757ycql40mstnalxvv9avzq5tnl6y39gskj27lx865kxckdjn04smtr2kz","addr1q9wlmwawl50mwra35sr2ckhlrpvt65e82emz44gx757ycql40mstnalxvv9avzq5tnl6y39gskj27lx865kxckdjn04smtr2kz","addr1wxwrp3hhg8xdddx7ecg6el2s2dj6h2c5g582yg2yxhupyns8feg4m"],"fee":207653,"totalOutput":121590098,"tokens":[]},{"hash":"8d95d3f896f4df374c51a9d22e4a898c76cfa3a213f71c7801b85ac9bb1a886b","blockNo":8403721,"blockHash":"bc06e2f0af6e8498cc0f4825c90960ec0dc4d50fd5efe6cd42bb1d1f65dffff9","epochNo":394,"epochSlotNo":76311,"slot":84921111,"time":"2023/02/15 18:56:42","addressesInput":["addr1qxrsp3vnmzngh70um6t3947c2ahenpe62e4wzyc2v6cgnsh3dxdvpxrp9mzswgfstettxfljwgjudutlk34035krw7nq0335pz","addr1qxrsp3vnmzngh70um6t3947c2ahenpe62e4wzyc2v6cgnsh3dxdvpxrp9mzswgfstettxfljwgjudutlk34035krw7nq0335pz"],"addressesOutput":["addr1zxgx3far7qygq0k6epa0zcvcvrevmn0ypsnfsue94nsn3tvpw288a4x0xf8pxgcntelxmyclq83s0ykeehchz2wtspks905plm","addr1qxrsp3vnmzngh70um6t3947c2ahenpe62e4wzyc2v6cgnsh3dxdvpxrp9mzswgfstettxfljwgjudutlk34035krw7nq0335pz","addr1qxrsp3vnmzngh70um6t3947c2ahenpe62e4wzyc2v6cgnsh3dxdvpxrp9mzswgfstettxfljwgjudutlk34035krw7nq0335pz","addr1qxrsp3vnmzngh70um6t3947c2ahenpe62e4wzyc2v6cgnsh3dxdvpxrp9mzswgfstettxfljwgjudutlk34035krw7nq0335pz","addr1qxrsp3vnmzngh70um6t3947c2ahenpe62e4wzyc2v6cgnsh3dxdvpxrp9mzswgfstettxfljwgjudutlk34035krw7nq0335pz"],"fee":243689,"totalOutput":586914720,"tokens":[]},{"hash":"bb61e8f65cd252145e85e6ac92fbd43bf08d46c66d88855a8aa85cb9fdf464a1","blockNo":8403721,"blockHash":"bc06e2f0af6e8498cc0f4825c90960ec0dc4d50fd5efe6cd42bb1d1f65dffff9","epochNo":394,"epochSlotNo":76311,"slot":84921111,"time":"2023/02/15 18:56:42","addressesInput":["addr1qy37c5a3tm8lqw6kktslqyl4rrvp73h4gy09xn8kx43qfakfqj779mjekfctul2rjyzya6ha7ufl3jfuw56dgh7jqygqw7c7yt","addr1zxgx3far7qygq0k6epa0zcvcvrevmn0ypsnfsue94nsn3tvpw288a4x0xf8pxgcntelxmyclq83s0ykeehchz2wtspks905plm"],"addressesOutput":["addr1q90hzqdfw8fhgdc6jvd7kdr23ngacexm64w693xm4vthflvn4kpg49asu8hvcyft302kl76txun9d7amgz7hhw8mvtusqy8pu3","addr1q9cwvremt6n320s2e3agq0jyq82yhrk3htsu0w426xnz5us70z4w0jgvcdkkynmm8wmds66jd9kusnjfpu6raw5fqp0sr07p5w","addr1q90hzqdfw8fhgdc6jvd7kdr23ngacexm64w693xm4vthflvn4kpg49asu8hvcyft302kl76txun9d7amgz7hhw8mvtusqy8pu3","addr1qy37c5a3tm8lqw6kktslqyl4rrvp73h4gy09xn8kx43qfakfqj779mjekfctul2rjyzya6ha7ufl3jfuw56dgh7jqygqw7c7yt","addr1qy37c5a3tm8lqw6kktslqyl4rrvp73h4gy09xn8kx43qfakfqj779mjekfctul2rjyzya6ha7ufl3jfuw56dgh7jqygqw7c7yt"],"fee":390936,"totalOutput":78354950,"tokens":[]},{"hash":"d2ed8a47f34d766e04151dfe5864b206720b843f32f68b08f78a844c8e57931e","blockNo":8403721,"blockHash":"bc06e2f0af6e8498cc0f4825c90960ec0dc4d50fd5efe6cd42bb1d1f65dffff9","epochNo":394,"epochSlotNo":76311,"slot":84921111,"time":"2023/02/15 18:56:42","addressesInput":["addr1qyl3axpz5jlqfl7g5gj7ys89wlrt5qt206ec7mnuyf7mmqa2qshrdw3yxqa9ma6pdpys3kg3qr0xclqpwlq7clsujw8s4ddlv7","addr1qyl3axpz5jlqfl7g5gj7ys89wlrt5qt206ec7mnuyf7mmqa2qshrdw3yxqa9ma6pdpys3kg3qr0xclqpwlq7clsujw8s4ddlv7"],"addressesOutput":["addr1zxgx3far7qygq0k6epa0zcvcvrevmn0ypsnfsue94nsn3tvpw288a4x0xf8pxgcntelxmyclq83s0ykeehchz2wtspks905plm","addr1qyl3axpz5jlqfl7g5gj7ys89wlrt5qt206ec7mnuyf7mmqa2qshrdw3yxqa9ma6pdpys3kg3qr0xclqpwlq7clsujw8s4ddlv7"],"fee":222701,"totalOutput":123001296,"tokens":[]},{"hash":"76663b8543fdc7eef7ae79e1d30e2a556f8ddd27c74ddf5cb9eefefd37588525","blockNo":8403721,"blockHash":"bc06e2f0af6e8498cc0f4825c90960ec0dc4d50fd5efe6cd42bb1d1f65dffff9","epochNo":394,"epochSlotNo":76311,"slot":84921111,"time":"2023/02/15 18:56:42","addressesInput":["addr1v9avvk80k595a2e5h397k7rcpvemczuwcyddhrf6nmw8vsc4des0j","addr1vxhmnlnnq9s2k33s5qg0nlzk0nxllyvrj243mzy60pxk9rss99aj9"],"addressesOutput":["addr1q8xt2pf5q2kl9vdzzumt3vhc8l50n2y2manum9t5qvn5mf08j9s4hl7478m3we6fsp0yphp8me4etk087fw355ltcyssmtztfj","addr1vxhmnlnnq9s2k33s5qg0nlzk0nxllyvrj243mzy60pxk9rss99aj9"],"fee":189349,"totalOutput":4153671,"tokens":[]},{"hash":"3d26f232ae356be9f0b4f443d2773caf4ab17afd8f93157f56b2ccc8014a55de","blockNo":8403721,"blockHash":"bc06e2f0af6e8498cc0f4825c90960ec0dc4d50fd5efe6cd42bb1d1f65dffff9","epochNo":394,"epochSlotNo":76311,"slot":84921111,"time":"2023/02/15 18:56:42","addressesInput":["addr1qy0n85dd5wy3y085rmdr05ynpvz8ugxj22v6j3zkrtg90wvzkgknkq78fwyw8mgh2kj90xzu2v6xyqg8zl35gp587j9s4aze3x","addr1qy0n85dd5wy3y085rmdr05ynpvz8ugxj22v6j3zkrtg90wvzkgknkq78fwyw8mgh2kj90xzu2v6xyqg8zl35gp587j9s4aze3x","addr1qy0n85dd5wy3y085rmdr05ynpvz8ugxj22v6j3zkrtg90wvzkgknkq78fwyw8mgh2kj90xzu2v6xyqg8zl35gp587j9s4aze3x"],"addressesOutput":["addr1q8g82tvfugm82958ql9ksneh8n83atpv5wr457az2ktsmq4wf5kwvuetjwp64unqftv0xprl935dpykq5wseeguz6f3sgkvr94","addr1qy0n85dd5wy3y085rmdr05ynpvz8ugxj22v6j3zkrtg90wvzkgknkq78fwyw8mgh2kj90xzu2v6xyqg8zl35gp587j9s4aze3x","addr1qy0n85dd5wy3y085rmdr05ynpvz8ugxj22v6j3zkrtg90wvzkgknkq78fwyw8mgh2kj90xzu2v6xyqg8zl35gp587j9s4aze3x"],"fee":266657,"totalOutput":76046637,"tokens":[]},{"hash":"3c1720fe9cd5c34c4f5880d6ea2185ed7144d027b81779a56c539a7900555e6b","blockNo":8403721,"blockHash":"bc06e2f0af6e8498cc0f4825c90960ec0dc4d50fd5efe6cd42bb1d1f65dffff9","epochNo":394,"epochSlotNo":76311,"slot":84921111,"time":"2023/02/15 18:56:42","addressesInput":["addr1vypr00ss7hkqejmvh53xkyf0p9q0a4z2uprxmx6njc463vgst3pe4"],"addressesOutput":["addr1q8wlcgqyhqyr4nmzu9n87tvkpcxlx6sez4n96e49kvnhmz4tx43n7v7qp84d3j8jgap40efgls3yxwrlzez3ed9kyu2s9tc0je","addr1v9u7va2sktlnz8dp3qadpnxxlv4m03672jy6elmntlxxs7q9nnwl9"],"fee":183600,"totalOutput":5151526,"tokens":[]},{"hash":"fe1c9a736618851f2a68860cddf6a5ef76786443be20b9f01d8323a36b135522","blockNo":8403721,"blockHash":"bc06e2f0af6e8498cc0f4825c90960ec0dc4d50fd5efe6cd42bb1d1f65dffff9","epochNo":394,"epochSlotNo":76311,"slot":84921111,"time":"2023/02/15 18:56:42","addressesInput":["addr1q8rdn770er5uupzlftjmt7mknehr9ldfs559adtrfd6skj8wyljewldud24gqc85vflhe3re6zms44s3z675d7fr8e0qu7ygwa","addr1q8rdn770er5uupzlftjmt7mknehr9ldfs559adtrfd6skj8wyljewldud24gqc85vflhe3re6zms44s3z675d7fr8e0qu7ygwa","addr1q8rdn770er5uupzlftjmt7mknehr9ldfs559adtrfd6skj8wyljewldud24gqc85vflhe3re6zms44s3z675d7fr8e0qu7ygwa"],"addressesOutput":["addr1vy6cg6m985z7w30e7hmen6l0782uznlpmwmc40kmuuh4lqq83m8zm","addr1q8rdn770er5uupzlftjmt7mknehr9ldfs559adtrfd6skj8wyljewldud24gqc85vflhe3re6zms44s3z675d7fr8e0qu7ygwa","addr1q8rdn770er5uupzlftjmt7mknehr9ldfs559adtrfd6skj8wyljewldud24gqc85vflhe3re6zms44s3z675d7fr8e0qu7ygwa"],"fee":174741,"totalOutput":131433698,"tokens":[]}],"totalItems":61358478,"totalPages":3067924,"currentPage":0}