{"data":[{"txId":60201895,"txHash":"2c15cbff9eb5e1b6040e5ba9566ecd90ef688280bf04c3844e9c8b2766669ed2","txTime":"2023/01/21 07:08:13","block":8297582,"epoch":389,"slotNo":82718602,"epochSlotNo":33802,"stakeKey":"stake1uxnl4qcwnkd2pfmxdr7mcz05dvyzgtstks37qw8ymsuswqq25mu6s"},{"txId":60201814,"txHash":"b92242a4b1e6acf7ce10d6e894247a2985a660ad89cc21429df829602c2a7ae5","txTime":"2023/01/21 07:06:06","block":8297571,"epoch":389,"slotNo":82718475,"epochSlotNo":33675,"stakeKey":"stake1u95mwhmmch90pmk49tk94hy6tmdanaepznzsfm4y7g7d8aqeren2w"},{"txId":60201752,"txHash":"56c2cace05e82ef2952130a780feb6a95ef0c1520e7fafbc7d25283a8e677995","txTime":"2023/01/21 07:04:31","block":8297566,"epoch":389,"slotNo":82718380,"epochSlotNo":33580,"stakeKey":"stake1u8t33lkrl7zjx2flp7eaaysna4deqsm659tjeq7mc80er7czh28d0"},{"txId":60201486,"txHash":"a329e3b60d380649a79661ec3c3d7b996ab6efe3469fe54ab2de23cde29ff51a","txTime":"2023/01/21 06:57:53","block":8297551,"epoch":389,"slotNo":82717982,"epochSlotNo":33182,"stakeKey":"stake1u95vk23amtjzdvyrchcgvlkcmkjenagn25ut0aakf9m36asvfpywx"},{"txId":60201423,"txHash":"3bc4e953831ebe402b2fdc53891d3713875a31e6cf40359c081a02727c331e6c","txTime":"2023/01/21 06:56:15","block":8297543,"epoch":389,"slotNo":82717884,"epochSlotNo":33084,"stakeKey":"stake1u9kn9s08vzcwq2eeany087z6l4m6tttra0xqsp209w63tjcc7ex9k"},{"txId":60201392,"txHash":"697f14d7e57e462f055bfc37efd1ef60c9c80b07a793559184628fb660b7bebb","txTime":"2023/01/21 06:55:39","block":8297542,"epoch":389,"slotNo":82717848,"epochSlotNo":33048,"stakeKey":"stake1u9j4jk644e72uyf4qq9ncwdl8vwa4svhwcjy6e8ym7qy3wgh5nu3s"},{"txId":60201158,"txHash":"40376f7203e8cb770de28b125fb9cc070d248227a708ad22612ac71c4e941633","txTime":"2023/01/21 06:49:30","block":8297523,"epoch":389,"slotNo":82717479,"epochSlotNo":32679,"stakeKey":"stake1u8gefwnnd0hmvg0k377r9zqcgxy6q3yz794jnfsvhhf7nrgf394mm"},{"txId":60201055,"txHash":"1bb4f9a0c58c8827b228672d854552c6b63a3f67d13d0c2bd4fa2c6e98ab66fb","txTime":"2023/01/21 06:46:41","block":8297514,"epoch":389,"slotNo":82717310,"epochSlotNo":32510,"stakeKey":"stake1uyhnfynvn86a8tavw294f4q3lqmhqnusyge22mvmj7u4cvcmgqsez"},{"txId":60201016,"txHash":"c41575be1e868181ccdf331283b451034b8c032ce3114a2b0969b86aa5c21e0b","txTime":"2023/01/21 06:45:39","block":8297513,"epoch":389,"slotNo":82717248,"epochSlotNo":32448,"stakeKey":"stake1uxv38rgms22apseczl43raxjfn9lgnf5yszj4cy94a6tnucezj4a4"},{"txId":60200920,"txHash":"4f1c612b84c1ddcbf1e32807cf6ca2efe6b6354c25caab253a54d263d7f9e3f0","txTime":"2023/01/21 06:42:56","block":8297507,"epoch":389,"slotNo":82717085,"epochSlotNo":32285,"stakeKey":"stake1u9qymc2367x3rzk28k8q7l0xwqpza4fpxyfrsjh9uqx8mqq2jdrtl"},{"txId":60200911,"txHash":"39516f71e3ad4526ab19c70afaf85340b4365d0f5bfa33e0432576cad52c6ec3","txTime":"2023/01/21 06:42:56","block":8297507,"epoch":389,"slotNo":82717085,"epochSlotNo":32285,"stakeKey":"stake1uy698x3glgzwu6vu5sj82zt0y20qk7qghxljpj4vkp85yccapkd82"},{"txId":60200826,"txHash":"da779f4d230c93109f71dfc8c4eca80e466071f051c90f383591f28210ea00fb","txTime":"2023/01/21 06:40:25","block":8297502,"epoch":389,"slotNo":82716934,"epochSlotNo":32134,"stakeKey":"stake1u95psf2m7z0m259fawvgfqnk40k83l50h9kgn5cq40srv7s8qas7f"},{"txId":60200635,"txHash":"b2f74e0b3205a6e72fe003f5ad6265def93539c46565154d3e29ffb7fc6a6759","txTime":"2023/01/21 06:35:16","block":8297485,"epoch":389,"slotNo":82716625,"epochSlotNo":31825,"stakeKey":"stake1uyplwpcr5dv0k98r6vme4r5v8s4wl2uenmw3tqfww4mu85qy6qrqg"},{"txId":60200624,"txHash":"102d4051beb72eb039131de06ceec59bc3089f3d05de9f1ee632b40639fead78","txTime":"2023/01/21 06:35:08","block":8297484,"epoch":389,"slotNo":82716617,"epochSlotNo":31817,"stakeKey":"stake1uxa0ymv7qr3f6grw4ahdc4fs63d76z5hpsy6303k3ttxyqg99m2m0"},{"txId":60200534,"txHash":"91af267ac8fcd680de52dc380988923dcb8a1501a28a8b4b00ab2a0dfcbd6610","txTime":"2023/01/21 06:33:01","block":8297478,"epoch":389,"slotNo":82716490,"epochSlotNo":31690,"stakeKey":"stake1uxsnz2ghw78xn6trz5l2v8f5azg4tfyvjk7ywnzpzftj9zqwsm7ux"},{"txId":60200529,"txHash":"d23bfe883ed00fb6b6aa4c3f772e7a39f34fec1869c12b9ceb935d615d23e931","txTime":"2023/01/21 06:33:01","block":8297478,"epoch":389,"slotNo":82716490,"epochSlotNo":31690,"stakeKey":"stake1u90y67590kgtj8es6yghypze498mwpu8v5mfakk4h9lucagacd7c7"},{"txId":60200490,"txHash":"1d0ff02a0c79d1baad19b5324f49e02cc5ec5374a5bec735f7770167911f8202","txTime":"2023/01/21 06:31:49","block":8297475,"epoch":389,"slotNo":82716418,"epochSlotNo":31618,"stakeKey":"stake1ux43mu2wfdkfayqphn9wgrhzhkhqjxh2pvr3m6exzkmzxtg377j75"},{"txId":60200489,"txHash":"07302a6fdd02b8d88e7c5fdf7c1df38f33995559e3bcd051f80ec3e3a37ba04a","txTime":"2023/01/21 06:31:49","block":8297475,"epoch":389,"slotNo":82716418,"epochSlotNo":31618,"stakeKey":"stake1uys8te3qetv5sqty6ctc8qyh09umkv5j72h9ralfzn97wjgde7kc3"},{"txId":60200213,"txHash":"a65345faa9588b013bc059602345fc1d1c3e1a370352faa8be97e684a5fae5f9","txTime":"2023/01/21 06:26:03","block":8297455,"epoch":389,"slotNo":82716072,"epochSlotNo":31272,"stakeKey":"stake1u9t69hk6xs9pj2wjfppsxumjj8ntsht8a2zz2qlxux7h0nqs9c7f8"},{"txId":60200197,"txHash":"e807dfe1ebce331a92b76f8f0706e6532210c1ab11f6d69c86b09d7d46fa1c39","txTime":"2023/01/21 06:25:17","block":8297453,"epoch":389,"slotNo":82716026,"epochSlotNo":31226,"stakeKey":"stake1ux7464x2nueal54ws6500t5lgp8dn8uahwzlvd6hkwlkrrsghkl05"}],"totalItems":1649613,"totalPages":82481,"currentPage":0}