{"data":[{"hash":"98d70ef870ed94df1e6779a24e177f2b76f79234b5d42a7bc7469ea590e6b1c5","blockNo":6857383,"blockHash":"7097f14d767833ea7f6194552d07a786a9f2b7a31643aeeeb93946ab08edf36b","epochNo":319,"epochSlotNo":324124,"slot":52768924,"time":"2022/02/08 15:46:55","addressesInput":["addr1qxw7uhe7ltg2ssdtv4gsql080v770leljzfxyz8kpvpmpq6dchdvs88j2pjgf66er3mwxakvhysq4wvc6ed5vk2spftq3t8xyc","addr1qx8a6ywtf33v9uwfd9897qmd40je40e3a0xt29lkuyzfq32dchdvs88j2pjgf66er3mwxakvhysq4wvc6ed5vk2spftqvaknaq","addr1q887lhs0wqs4y4wpd74atqqck0272fu0a936z8pq32a85f2dchdvs88j2pjgf66er3mwxakvhysq4wvc6ed5vk2spftques8lt","addr1q887lhs0wqs4y4wpd74atqqck0272fu0a936z8pq32a85f2dchdvs88j2pjgf66er3mwxakvhysq4wvc6ed5vk2spftques8lt"],"addressesOutput":["addr1v9l6s423alap4vr3e7jtuvcya6vk9f0qa8yrvgawauwghdcqcnyse","addr1q907ez27vv4m99sp28za8e4s6wwgaz2szq0qaujt4h857r6dchdvs88j2pjgf66er3mwxakvhysq4wvc6ed5vk2spftqx2za5s"],"fee":192033,"totalOutput":207623273,"tokens":[]},{"hash":"253fd9808124ae4e7345969f9ea802a1d45d6b538dd73458fde3b33b1e8a1daa","blockNo":6857376,"blockHash":"c68ddef8d31fb2858ac07af3a0de752d7298b0e0abf94d5961e42c057600c94b","epochNo":319,"epochSlotNo":323972,"slot":52768772,"time":"2022/02/08 15:44:23","addressesInput":["addr1vx0l928zuszdgn2qs062tyze320v0vmg3hdszkw3fykwdece25sw8","addr1vx0l928zuszdgn2qs062tyze320v0vmg3hdszkw3fykwdece25sw8"],"addressesOutput":["addr1v864dv80sv5vjfpvu7pd4zlm9ue8z683lkfh2qrpdmfnhfqausx3p","addr1qxmllm7g0ktaftjgs2nsaq5s62t8g5yajxzdjxmaz8qm43m7j4dk4pjzlm2ya039s36wzzvj45753x87nldqegc3xfrqnl5vee","addr1vx0l928zuszdgn2qs062tyze320v0vmg3hdszkw3fykwdece25sw8"],"fee":178745,"totalOutput":16321255,"tokens":[]},{"hash":"1a8fc6c7618fb2898caa6952279dc7f4151b3759d0a6d94c84ad76806a5dec0b","blockNo":6857376,"blockHash":"c68ddef8d31fb2858ac07af3a0de752d7298b0e0abf94d5961e42c057600c94b","epochNo":319,"epochSlotNo":323972,"slot":52768772,"time":"2022/02/08 15:44:23","addressesInput":["addr1vx0l928zuszdgn2qs062tyze320v0vmg3hdszkw3fykwdece25sw8","addr1vx0l928zuszdgn2qs062tyze320v0vmg3hdszkw3fykwdece25sw8"],"addressesOutput":["addr1v864dv80sv5vjfpvu7pd4zlm9ue8z683lkfh2qrpdmfnhfqausx3p","addr1q82jphtpl42c3tc00kayyk5gm5zvxuslqsjnpl9eq3tskyh4ru6qdw7playahat9cfp0vyg4gctm4eh9y79m676kayks4a3lg3","addr1vx0l928zuszdgn2qs062tyze320v0vmg3hdszkw3fykwdece25sw8"],"fee":178745,"totalOutput":13321255,"tokens":[]},{"hash":"d97c6404af32b58793fe56d0f45aea3742169f1b9ce760432b0c31de59bb07d9","blockNo":6857371,"blockHash":"40438b6b40908a4fea7082634fd4c7602d228a0b976e458a8c8c0b9087ce61c6","epochNo":319,"epochSlotNo":323907,"slot":52768707,"time":"2022/02/08 15:43:18","addressesInput":["addr1vx0l928zuszdgn2qs062tyze320v0vmg3hdszkw3fykwdece25sw8","addr1vx0l928zuszdgn2qs062tyze320v0vmg3hdszkw3fykwdece25sw8"],"addressesOutput":["addr1v864dv80sv5vjfpvu7pd4zlm9ue8z683lkfh2qrpdmfnhfqausx3p","addr1q865j2h6587ckusdmhx93ad9wy8gmavkzfk60chz6hf387smvraqm8sw4z2f86vcx4pts99qmmx6zgyxq8j22esfqdjq02g7cc","addr1vx0l928zuszdgn2qs062tyze320v0vmg3hdszkw3fykwdece25sw8"],"fee":178745,"totalOutput":10321255,"tokens":[]},{"hash":"dc7cb6ee893f7165ab250cd773fcec5f56c64ea120984156cbe6f69fb912e569","blockNo":6857363,"blockHash":"1068628565a6f2f6a144f22f05110cdb9ae3062ecd7ec9ef721a7acd07f47331","epochNo":319,"epochSlotNo":323758,"slot":52768558,"time":"2022/02/08 15:40:49","addressesInput":["addr1vx0l928zuszdgn2qs062tyze320v0vmg3hdszkw3fykwdece25sw8","addr1vx0l928zuszdgn2qs062tyze320v0vmg3hdszkw3fykwdece25sw8"],"addressesOutput":["addr1v864dv80sv5vjfpvu7pd4zlm9ue8z683lkfh2qrpdmfnhfqausx3p","addr1qy0k5artt0a99e4t9xsjt77pwduuu2h5q6zayryfkfqktaunnl6pfv9tv8h3l6dk4dah5zxx40g5rx883498sguu3enqnct8r9","addr1vx0l928zuszdgn2qs062tyze320v0vmg3hdszkw3fykwdece25sw8"],"fee":178745,"totalOutput":7321255,"tokens":[]},{"hash":"8ff4bb05051fac1e178f22a9866071a27f190ff996dbc937e5ce1b3882aeed1b","blockNo":6857343,"blockHash":"f8d83fabd16a62322eee8fa83cc3414f6f0e0309c06cc4b080152c9d81c7262f","epochNo":319,"epochSlotNo":323128,"slot":52767928,"time":"2022/02/08 15:30:19","addressesInput":["addr1vx0l928zuszdgn2qs062tyze320v0vmg3hdszkw3fykwdece25sw8","addr1vx0l928zuszdgn2qs062tyze320v0vmg3hdszkw3fykwdece25sw8"],"addressesOutput":["addr1v864dv80sv5vjfpvu7pd4zlm9ue8z683lkfh2qrpdmfnhfqausx3p","addr1qysdvmvecllayy4rkksgsms5lu4vxhvxwtmx85ks3cctcdl49v0llr6kh86h28lyzeulsjnz9e0rfk2j0t9qend2e6xqvu3nts","addr1vx0l928zuszdgn2qs062tyze320v0vmg3hdszkw3fykwdece25sw8"],"fee":178745,"totalOutput":13321255,"tokens":[]},{"hash":"e415061ae6432a240a5cbb13ff6f50bfc66aa3e32cf946320490b309b714517f","blockNo":6857343,"blockHash":"f8d83fabd16a62322eee8fa83cc3414f6f0e0309c06cc4b080152c9d81c7262f","epochNo":319,"epochSlotNo":323128,"slot":52767928,"time":"2022/02/08 15:30:19","addressesInput":["addr1vx0l928zuszdgn2qs062tyze320v0vmg3hdszkw3fykwdece25sw8","addr1vx0l928zuszdgn2qs062tyze320v0vmg3hdszkw3fykwdece25sw8"],"addressesOutput":["addr1v864dv80sv5vjfpvu7pd4zlm9ue8z683lkfh2qrpdmfnhfqausx3p","addr1qxafqm9mv78dsqxtavmcywdvcjy43yruv7y3gtkgydzsf6a56l2drskt4rwueem0jrxt6wd4a364cqklajj0ctu3sp4qmuqwsu","addr1vx0l928zuszdgn2qs062tyze320v0vmg3hdszkw3fykwdece25sw8"],"fee":178745,"totalOutput":7321255,"tokens":[]},{"hash":"537cef5c773d9c468f345913f5fc4963fcd03c68cb9377d87b8dae0d43e0776f","blockNo":6857298,"blockHash":"cbc9d454297bf0bacca28418da659d3d0e4dc5c9ace9ee305354698206efa209","epochNo":319,"epochSlotNo":322154,"slot":52766954,"time":"2022/02/08 15:14:05","addressesInput":["addr1qxmllm7g0ktaftjgs2nsaq5s62t8g5yajxzdjxmaz8qm43m7j4dk4pjzlm2ya039s36wzzvj45753x87nldqegc3xfrqnl5vee","addr1qxmllm7g0ktaftjgs2nsaq5s62t8g5yajxzdjxmaz8qm43m7j4dk4pjzlm2ya039s36wzzvj45753x87nldqegc3xfrqnl5vee","addr1qxmllm7g0ktaftjgs2nsaq5s62t8g5yajxzdjxmaz8qm43m7j4dk4pjzlm2ya039s36wzzvj45753x87nldqegc3xfrqnl5vee","addr1qxmllm7g0ktaftjgs2nsaq5s62t8g5yajxzdjxmaz8qm43m7j4dk4pjzlm2ya039s36wzzvj45753x87nldqegc3xfrqnl5vee"],"addressesOutput":["addr1vx0l928zuszdgn2qs062tyze320v0vmg3hdszkw3fykwdece25sw8","addr1qxmllm7g0ktaftjgs2nsaq5s62t8g5yajxzdjxmaz8qm43m7j4dk4pjzlm2ya039s36wzzvj45753x87nldqegc3xfrqnl5vee","addr1qxmllm7g0ktaftjgs2nsaq5s62t8g5yajxzdjxmaz8qm43m7j4dk4pjzlm2ya039s36wzzvj45753x87nldqegc3xfrqnl5vee"],"fee":183937,"totalOutput":27846693,"tokens":[]},{"hash":"f56cb9a18992857298b3394003bbee3eac03bd0fd916c0b202fb668b76dc6e79","blockNo":6857226,"blockHash":"87be84204f5bbab17e9aa2fc1f9699a19b21491d619700e2aead15c85dc94bf2","epochNo":319,"epochSlotNo":320779,"slot":52765579,"time":"2022/02/08 14:51:10","addressesInput":["addr1qxszsqjtp8kf60yvk896cr9td2rkqnsxsgvej2ad8lah8x3hcdj45clk5lfnp6a2m7jdkpwd06t207rf6p2hzx6lv2jsl2szk3","addr1qxszsqjtp8kf60yvk896cr9td2rkqnsxsgvej2ad8lah8x3hcdj45clk5lfnp6a2m7jdkpwd06t207rf6p2hzx6lv2jsl2szk3"],"addressesOutput":["addr1w999n67e86jn6xal07pzxtrmqynspgx0fwmcmpua4wc6yzsxpljz3","addr1qxszsqjtp8kf60yvk896cr9td2rkqnsxsgvej2ad8lah8x3hcdj45clk5lfnp6a2m7jdkpwd06t207rf6p2hzx6lv2jsl2szk3"],"fee":284583,"totalOutput":136687739,"tokens":[]},{"hash":"00e5903cae1b4599de3a7bb56c564bc13913242d7650fe37609a3d7c63d3aa3d","blockNo":6857056,"blockHash":"acf50a81511f18a73b127312c7a4271162f1d7970d56795c85f9d27b3532a132","epochNo":319,"epochSlotNo":316972,"slot":52761772,"time":"2022/02/08 13:47:43","addressesInput":["addr1q93knh6hzn5vwf08ynwlvdnk7sm3dw2dv3rqtcs4hptrrnpv7xyue5vv22v423x2smvuumdvh404f8vv75m3qfcfadyq6zpccs","addr1qyj02dkezzvzkyr9xvz7luteeaatzkg5m3w6szgzhn2lgwfv7xyue5vv22v423x2smvuumdvh404f8vv75m3qfcfadyqtawntq","addr1q83u83veny6gzyjpfsc8szvxhzfdx22f566ttpwum6n5f7pv7xyue5vv22v423x2smvuumdvh404f8vv75m3qfcfadyq8p8svg"],"addressesOutput":["addr1q87wan4yg53glgnltl9u5yhl36mwnafq22tg423jz8cc2darn8045hl46ntu9243quqqkm585jtackzpsxny5sjzuhrq74l6fc","addr1qxfcth69yw2h49ptmaakllln8fu5904aqqk596fhe0vj2epv7xyue5vv22v423x2smvuumdvh404f8vv75m3qfcfadyq3g6j3w"],"fee":191769,"totalOutput":4635755,"tokens":[]},{"hash":"1fd4f7bb86461869b58653b3a31356cf3f0e3526733d5c81017f9d64872f94b0","blockNo":6856970,"blockHash":"3872821a021debea02c2eb05ceb675d2d990bf28e185bf0da508aec7b537466f","epochNo":319,"epochSlotNo":315390,"slot":52760190,"time":"2022/02/08 13:21:21","addressesInput":["addr1q99m6qg6wmqjsxswwq9xprtjzlkmg986u7ws0glawgu7lvcdglhcj9y9lqrf8aw00u26dcvrncm5rwdjxsmeedvn975qgf3uue","addr1q99m6qg6wmqjsxswwq9xprtjzlkmg986u7ws0glawgu7lvcdglhcj9y9lqrf8aw00u26dcvrncm5rwdjxsmeedvn975qgf3uue","addr1w999n67e86jn6xal07pzxtrmqynspgx0fwmcmpua4wc6yzsxpljz3"],"addressesOutput":["addr1q99m6qg6wmqjsxswwq9xprtjzlkmg986u7ws0glawgu7lvcdglhcj9y9lqrf8aw00u26dcvrncm5rwdjxsmeedvn975qgf3uue","addr1q99m6qg6wmqjsxswwq9xprtjzlkmg986u7ws0glawgu7lvcdglhcj9y9lqrf8aw00u26dcvrncm5rwdjxsmeedvn975qgf3uue"],"fee":1188903,"totalOutput":5083170,"tokens":[]},{"hash":"dd4be80d6d79023b83bf59047e7d9383c6f3e347aa4eea44b8a090eb26a84388","blockNo":6856965,"blockHash":"bbf4407641d9264ecf1a332f252472960b5c4fd40fe617b1cee9df50f283d63b","epochNo":319,"epochSlotNo":315294,"slot":52760094,"time":"2022/02/08 13:19:45","addressesInput":["addr1qxmllm7g0ktaftjgs2nsaq5s62t8g5yajxzdjxmaz8qm43m7j4dk4pjzlm2ya039s36wzzvj45753x87nldqegc3xfrqnl5vee"],"addressesOutput":["addr1v9k4xhnyy3q4hrn9vhqjxce0nlw004zq6g8cry48z0km58cg8y2rq","addr1qxmllm7g0ktaftjgs2nsaq5s62t8g5yajxzdjxmaz8qm43m7j4dk4pjzlm2ya039s36wzzvj45753x87nldqegc3xfrqnl5vee","addr1qxmllm7g0ktaftjgs2nsaq5s62t8g5yajxzdjxmaz8qm43m7j4dk4pjzlm2ya039s36wzzvj45753x87nldqegc3xfrqnl5vee"],"fee":177117,"totalOutput":12146290,"tokens":[]},{"hash":"673c1472a5800a28c3b37e352bd91e1a64b3a15422893269452f0bda3a38baa9","blockNo":6856892,"blockHash":"c8ce10760cad3f0390308072129d339799b0ff6ded00656e2075f101931a9dac","epochNo":319,"epochSlotNo":313815,"slot":52758615,"time":"2022/02/08 12:55:06","addressesInput":["addr1qxdmuzzv906nx6rnc88qvjjq9pgxdqdzav9dzrx9apjqt3qlhgv9657cqkf2g3ejt4t7cw7fxt5uxcdcrq0qvmtvfktqlenx2a","addr1q8jf9347wtdz97w8zchcqrwycpfw79ck0mzmq3ctff7npqclhgv9657cqkf2g3ejt4t7cw7fxt5uxcdcrq0qvmtvfktqafxknp"],"addressesOutput":["addr1qyn940dcfkgfnd32dyqu0sfzz2k94dkye90a0f9806vdyqpjagf666xsud2pshy7yegwtuq6rhfxel2y37cgztth935sy7qsf2","addr1q8z2newhfqhl0s4eac989qneuq07vmrxszlszthgumnqdxslhgv9657cqkf2g3ejt4t7cw7fxt5uxcdcrq0qvmtvfktqg9xhjx"],"fee":195289,"totalOutput":20280352,"tokens":[]},{"hash":"b5bfe3e2df0d68a4ebbcb5f4916f14aa575aa8a085b22fc5b1ccfa6fb2cfba88","blockNo":6856707,"blockHash":"b6ae673a750fee4836f8d266570f7b1d046a21ff2ed5e8d2e52cb6bc8f41c953","epochNo":319,"epochSlotNo":309792,"slot":52754592,"time":"2022/02/08 11:48:03","addressesInput":["addr1q93vyug8m3qrqc5qr9u28hzkvdpzyvmez85f58l8y9t2502xrdyd4ezx43vxjgw0dvz6dzy36jku3ptrr9mcv5dftkhsx6f5gt","addr1q93vyug8m3qrqc5qr9u28hzkvdpzyvmez85f58l8y9t2502xrdyd4ezx43vxjgw0dvz6dzy36jku3ptrr9mcv5dftkhsx6f5gt"],"addressesOutput":["addr1w999n67e86jn6xal07pzxtrmqynspgx0fwmcmpua4wc6yzsxpljz3","addr1q93vyug8m3qrqc5qr9u28hzkvdpzyvmez85f58l8y9t2502xrdyd4ezx43vxjgw0dvz6dzy36jku3ptrr9mcv5dftkhsx6f5gt"],"fee":241527,"totalOutput":37273900,"tokens":[]},{"hash":"87bdf0864d4da8794024a83159b119cec0ba59d384848d4ad1b465f8c09ad599","blockNo":6856525,"blockHash":"54948c06a95ef876b5597947576e51e60e6e69a715b69e8b34117b517b8f6ed7","epochNo":319,"epochSlotNo":305768,"slot":52750568,"time":"2022/02/08 10:40:59","addressesInput":["addr1qymaumdm272r24d0s46827plplhc6t520lufdr5vdqn0z8hze4zwjlw3vpjum04n0gjymwde8c9p5r67yqupkzy8yz5qwdv2cd","addr1qymaumdm272r24d0s46827plplhc6t520lufdr5vdqn0z8hze4zwjlw3vpjum04n0gjymwde8c9p5r67yqupkzy8yz5qwdv2cd","addr1qymaumdm272r24d0s46827plplhc6t520lufdr5vdqn0z8hze4zwjlw3vpjum04n0gjymwde8c9p5r67yqupkzy8yz5qwdv2cd"],"addressesOutput":["addr1q8kccqlzah3hp9rpnhnacdr5ffhhp7990qdqulqgyn7syk708k6krrpuf75x3ydyycmjjfpwm28gstqdzdg934p7avxs538k4a","addr1qymaumdm272r24d0s46827plplhc6t520lufdr5vdqn0z8hze4zwjlw3vpjum04n0gjymwde8c9p5r67yqupkzy8yz5qwdv2cd","addr1qymaumdm272r24d0s46827plplhc6t520lufdr5vdqn0z8hze4zwjlw3vpjum04n0gjymwde8c9p5r67yqupkzy8yz5qwdv2cd"],"fee":368209,"totalOutput":71871712,"tokens":[]},{"hash":"b031112d15ea3cca83e8bd2e07e883eabab80b22fd133a1e46c19f7c14ab4274","blockNo":6856417,"blockHash":"d7081391feecb1d2cb0f289ec15087b9fd68839735151661f605bd0765cb89a4","epochNo":319,"epochSlotNo":303618,"slot":52748418,"time":"2022/02/08 10:05:09","addressesInput":["addr1qxszsqjtp8kf60yvk896cr9td2rkqnsxsgvej2ad8lah8x3hcdj45clk5lfnp6a2m7jdkpwd06t207rf6p2hzx6lv2jsl2szk3","addr1qxszsqjtp8kf60yvk896cr9td2rkqnsxsgvej2ad8lah8x3hcdj45clk5lfnp6a2m7jdkpwd06t207rf6p2hzx6lv2jsl2szk3","addr1qxszsqjtp8kf60yvk896cr9td2rkqnsxsgvej2ad8lah8x3hcdj45clk5lfnp6a2m7jdkpwd06t207rf6p2hzx6lv2jsl2szk3"],"addressesOutput":["addr1w9yr0zr530tp9yzrhly8lw5upddu0eym3yh0mjwa0qlr9pgmkzgv0","addr1qxszsqjtp8kf60yvk896cr9td2rkqnsxsgvej2ad8lah8x3hcdj45clk5lfnp6a2m7jdkpwd06t207rf6p2hzx6lv2jsl2szk3"],"fee":249629,"totalOutput":137157507,"tokens":[]},{"hash":"bd448ebc72dbb1b75f543676c770fe444a3a3112674bfe17ff0b23639cce8fd7","blockNo":6856333,"blockHash":"7283982bf184b433b36fc89fef61be113c26ba9eeeeecf9db07ae1959a4df75f","epochNo":319,"epochSlotNo":301729,"slot":52746529,"time":"2022/02/08 09:33:40","addressesInput":["addr1w999n67e86jn6xal07pzxtrmqynspgx0fwmcmpua4wc6yzsxpljz3","addr1qxszsqjtp8kf60yvk896cr9td2rkqnsxsgvej2ad8lah8x3hcdj45clk5lfnp6a2m7jdkpwd06t207rf6p2hzx6lv2jsl2szk3"],"addressesOutput":["addr1qxszsqjtp8kf60yvk896cr9td2rkqnsxsgvej2ad8lah8x3hcdj45clk5lfnp6a2m7jdkpwd06t207rf6p2hzx6lv2jsl2szk3","addr1qxszsqjtp8kf60yvk896cr9td2rkqnsxsgvej2ad8lah8x3hcdj45clk5lfnp6a2m7jdkpwd06t207rf6p2hzx6lv2jsl2szk3"],"fee":1247463,"totalOutput":135851582,"tokens":[]},{"hash":"3787d64059b55f7cebc15f4d84d6ea71e3d345f51db20a119473abd14f4c2464","blockNo":6856297,"blockHash":"84ab825bccb6cec21d140ac30295b48b89a9814e8170cab9f141ae5c00974ce7","epochNo":319,"epochSlotNo":301057,"slot":52745857,"time":"2022/02/08 09:22:28","addressesInput":["addr1q9j9edkjryr9fnz6eyuwjcjutun9kpgtkdlulzquheldfeermhplrjkd38pvcn2r58dnl0v4rxs9lz6rdj5p77j3wvcs7ud37u","addr1q9j9edkjryr9fnz6eyuwjcjutun9kpgtkdlulzquheldfeermhplrjkd38pvcn2r58dnl0v4rxs9lz6rdj5p77j3wvcs7ud37u","addr1q9j9edkjryr9fnz6eyuwjcjutun9kpgtkdlulzquheldfeermhplrjkd38pvcn2r58dnl0v4rxs9lz6rdj5p77j3wvcs7ud37u"],"addressesOutput":["addr1v9p6hh0ap968c45cjkl8cdnqmwyu07vh5m0cxzwy5yp0rrcj2m4mp","addr1q9j9edkjryr9fnz6eyuwjcjutun9kpgtkdlulzquheldfeermhplrjkd38pvcn2r58dnl0v4rxs9lz6rdj5p77j3wvcs7ud37u","addr1q9j9edkjryr9fnz6eyuwjcjutun9kpgtkdlulzquheldfeermhplrjkd38pvcn2r58dnl0v4rxs9lz6rdj5p77j3wvcs7ud37u"],"fee":249189,"totalOutput":33171053,"tokens":[]},{"hash":"e37ec56b47998702a02e82a4bcf1c1782e6901b4fd0679d3069149c8bfc582ff","blockNo":6856214,"blockHash":"c7bfdbfb4b3ba85ace64ece85876840b988b1736b18eaf3ac586dfee9031f7a0","epochNo":319,"epochSlotNo":299604,"slot":52744404,"time":"2022/02/08 08:58:15","addressesInput":["addr1q9j9edkjryr9fnz6eyuwjcjutun9kpgtkdlulzquheldfeermhplrjkd38pvcn2r58dnl0v4rxs9lz6rdj5p77j3wvcs7ud37u","addr1q9j9edkjryr9fnz6eyuwjcjutun9kpgtkdlulzquheldfeermhplrjkd38pvcn2r58dnl0v4rxs9lz6rdj5p77j3wvcs7ud37u","addr1q9j9edkjryr9fnz6eyuwjcjutun9kpgtkdlulzquheldfeermhplrjkd38pvcn2r58dnl0v4rxs9lz6rdj5p77j3wvcs7ud37u"],"addressesOutput":["addr1v9p6hh0ap968c45cjkl8cdnqmwyu07vh5m0cxzwy5yp0rrcj2m4mp","addr1q9j9edkjryr9fnz6eyuwjcjutun9kpgtkdlulzquheldfeermhplrjkd38pvcn2r58dnl0v4rxs9lz6rdj5p77j3wvcs7ud37u","addr1q9j9edkjryr9fnz6eyuwjcjutun9kpgtkdlulzquheldfeermhplrjkd38pvcn2r58dnl0v4rxs9lz6rdj5p77j3wvcs7ud37u"],"fee":249189,"totalOutput":12496161,"tokens":[]},{"hash":"681192c2047653641517c66cc6ce44a33d4930f092eec62bd7b6b8dc1da09b28","blockNo":6855935,"blockHash":"36f03766284b0ee0d8f111af4900aded9c60593c0e9e4ac91ee5bbf00531d91a","epochNo":319,"epochSlotNo":293396,"slot":52738196,"time":"2022/02/08 07:14:47","addressesInput":["addr1qxszsqjtp8kf60yvk896cr9td2rkqnsxsgvej2ad8lah8x3hcdj45clk5lfnp6a2m7jdkpwd06t207rf6p2hzx6lv2jsl2szk3"],"addressesOutput":["addr1w9yr0zr530tp9yzrhly8lw5upddu0eym3yh0mjwa0qlr9pgmkzgv0","addr1qxszsqjtp8kf60yvk896cr9td2rkqnsxsgvej2ad8lah8x3hcdj45clk5lfnp6a2m7jdkpwd06t207rf6p2hzx6lv2jsl2szk3"],"fee":245757,"totalOutput":137136082,"tokens":[]}],"totalItems":503,"totalPages":26,"currentPage":0}