{"data":[{"address":"addr1z8snz7c4974vzdpxu65ruphl3zjdvtxw8strf2c2tmqnxz2j2c79gy9l76sdg0xwhd7r0c0kna0tycz4y5s6mlenh8pq0xmsha","txCount":348997,"balance":46090268980646},{"address":"addr1w9qzpelu9hn45pefc0xr4ac4kdxeswq7pndul2vuj59u8tqaxdznu","txCount":409745,"balance":17011928790762},{"address":"addr1w8pydstdswmdqmg2rdt59dzql3zgfp9pt8sulnjgalycwdsj9js7w","txCount":58817,"balance":7474088300680},{"address":"addr1z8nvjzjeydcn4atcd93aac8allvrpjn7pjr2qsweukpnayvwn8ns9d9rn074cn39gdlnzq8gneqxtektt3etelutfgysw42u27","txCount":5718,"balance":4095782686186},{"address":"addr1zy5qnd3uxaunza6r8n3gch26hmzm392nywhw2jgcwf8nvrqfzup4e9umthe6xgvhcxu4d5cygcj0h3vdslrt3whadmnsgw0pxk","txCount":3,"balance":2874629000000},{"address":"addr1w93j7t23z99448k7xspzrppjtgun0janh0rcq6k8wt2e8vc2fraw4","txCount":2817,"balance":2829285931403},{"address":"addr1z8nvjzjeydcn4atcd93aac8allvrpjn7pjr2qsweukpnaytvcg6zm2vds6mz9x3h3yalqmnf24w86m09n40q3tgqxjms9yu6v8","txCount":9857,"balance":2530805481354},{"address":"addr1z8nvjzjeydcn4atcd93aac8allvrpjn7pjr2qsweukpnayg3sm3lpp76yuejdf6w3qyry2spy8xjmjrlxy2cstm3fthsjc3xze","txCount":4594,"balance":2504021635614},{"address":"addr1z8nvjzjeydcn4atcd93aac8allvrpjn7pjr2qsweukpnay2tqrfwamagnyfv43jgm94yvkmsnfvpzlytmkl0cs0uh8zqszu5da","txCount":5062,"balance":2435555441324},{"address":"addr1z8nvjzjeydcn4atcd93aac8allvrpjn7pjr2qsweukpnayg4pn8uxr87tguqw8jkn6p233rk7k683ppl2mspr8appw9q640ms8","txCount":3894,"balance":2095590032146},{"address":"addr1zxj47sy4qxlktqzmkrw8dahe46gtv8seakrshsqz26qnvzypw288a4x0xf8pxgcntelxmyclq83s0ykeehchz2wtspksr3q9nx","txCount":1836422,"balance":1032250946043},{"address":"addr1w9jx45flh83z6wuqypyash54mszwmdj8r64fydafxtfc6jgrw4rm3","txCount":408835,"balance":843204868687},{"address":"addr1w9j4z3xz6sze3se4d06rawhpqt5sag98l0fykwt5q08nwxgvmk5vf","txCount":2672,"balance":842721014095},{"address":"addr1zyh4ygwdy2mnhxntq4fw8jcwgtrtqeu6fslwy64029wk8wcfzup4e9umthe6xgvhcxu4d5cygcj0h3vdslrt3whadmnsujfr0f","txCount":1,"balance":762600000000},{"address":"addr1z8nvjzjeydcn4atcd93aac8allvrpjn7pjr2qsweukpnaygp7t3p24e7uuvc90g5xhnkuwlpft7u5g2rg7kwgrzauzuqs23760","txCount":1163,"balance":734560079601},{"address":"addr1zykhtew0z93z6hmgu2ew7kl9puqz0wmafp0f3jypuejkwmrfjcnq9fczt4qkxgec2hz6x7f38vnj8xuxywk4x4qgzh9skq4p22","txCount":588,"balance":707866974014},{"address":"addr1z8nvjzjeydcn4atcd93aac8allvrpjn7pjr2qsweukpnayw8509kp8r0ackk0d45d3gmh5yg9pty67r9zmfs3gcyv08qxshhsw","txCount":2094,"balance":688233394173},{"address":"addr1z8nvjzjeydcn4atcd93aac8allvrpjn7pjr2qsweukpnaydxtjwu2v3p33c9uflnj0gsqf36v4ls709umx8qqgj9d34s5wshwx","txCount":29,"balance":671562653804},{"address":"addr1z8nvjzjeydcn4atcd93aac8allvrpjn7pjr2qsweukpnay0sxtrcu2m27nn97yxpq50xc2xyrzggr409le9cytyvqgrsg55se7","txCount":1562,"balance":569304706545},{"address":"addr1wylehyn03xr0x0jchmlfc70ef875rpx4wlyy5umc7qcgdksnxgzdy","txCount":11974,"balance":547073334919}],"totalItems":12198,"totalPages":610,"currentPage":0}