{"data":[{"txId":29918681,"txHash":"80250c0eacd1a078dcf99c1d19f6733b658d39bf0a581aa0dbe7184e55906fde","txTime":"2022/02/04 00:14:51","block":6838379,"epoch":318,"slotNo":52367400,"epochSlotNo":354600,"stakeKey":"stake1u87a9a5qkhyhzuej3u3jkkmcxml5r967pxj880advdjrsrgdsfngq"},{"txId":29918666,"txHash":"8503fd74d28b924db992cd48e85f4d8e4ca8ed337588b89ae0aa4e14b84129a7","txTime":"2022/02/04 00:14:51","block":6838379,"epoch":318,"slotNo":52367400,"epochSlotNo":354600,"stakeKey":"stake1u85n8wh8pzx7a4gl96v0wdvc6uee38tw2nyp97w3jw2ap4q9dflez"},{"txId":29918640,"txHash":"27285db1f1b2c054a72488449a0226ad965f93dca43a188d92c91488ebfb5fa5","txTime":"2022/02/04 00:14:38","block":6838378,"epoch":318,"slotNo":52367387,"epochSlotNo":354587,"stakeKey":"stake1u90ce8mj3c3e2p7d7cq6d0m3qqhla5e0klghlcsjkueh03s06r5pz"},{"txId":29918609,"txHash":"41b904abe77e0adffeb476a3fc5d9aef085cb6eba8bece7b73f89896e1f113be","txTime":"2022/02/04 00:14:24","block":6838377,"epoch":318,"slotNo":52367373,"epochSlotNo":354573,"stakeKey":"stake1u8vjrd0pga6gmyy54u26q0e3ny33t6remcl8sju9htek5xg3kye3k"},{"txId":29918578,"txHash":"50a31e9bdcda57ce1b1ee69468e7e12574647ce45b6681d3e8af52e31aff7586","txTime":"2022/02/04 00:14:24","block":6838377,"epoch":318,"slotNo":52367373,"epochSlotNo":354573,"stakeKey":"stake1u96t9c5kkxvjd6umqg3gempzzyprxhvs45e8krp89c9n06g7cpze2"},{"txId":29918577,"txHash":"4a1ec2000a457484abe4251ed6ee4e64bf484b972dafedda2ace464adcb821e7","txTime":"2022/02/04 00:14:24","block":6838377,"epoch":318,"slotNo":52367373,"epochSlotNo":354573,"stakeKey":"stake1u9ax0kgkw3gj30x2rgywludc2jtnm2m3th40umfuxlfsn9g4j64va"},{"txId":29918568,"txHash":"52d7f262cb8bd3c93abacf5c157498c2380a04a39741999008aca24077d1d86d","txTime":"2022/02/04 00:13:52","block":6838376,"epoch":318,"slotNo":52367341,"epochSlotNo":354541,"stakeKey":"stake1uyfz33s5378vj0krqsffl9k9dgtuf5j3khlmgncr906zqys4gu4dr"},{"txId":29918452,"txHash":"a6ce5739b9fa2a5bf952820e6325d306947d829d453fa0ef6539100f2f8d68e5","txTime":"2022/02/04 00:11:45","block":6838370,"epoch":318,"slotNo":52367214,"epochSlotNo":354414,"stakeKey":"stake1ux6lxmgnglu6mhru4rmpqnfnzft726pzpmc5wnkh20pv68q5tcehd"},{"txId":29918347,"txHash":"82a5dafc6f106f9ca95c72f079227607a71a15c798a9d1b12a98d306ca68ef00","txTime":"2022/02/04 00:10:54","block":6838366,"epoch":318,"slotNo":52367163,"epochSlotNo":354363,"stakeKey":"stake1uxl9djknqcyp0p4qllxw6r3tr2rkmq3q4x3pq6llt5jp5uqn6raj0"},{"txId":29918179,"txHash":"80e421e97570113691818f7c01c940f36f51ba58a61be72d11fd6a418f7f3185","txTime":"2022/02/04 00:08:29","block":6838359,"epoch":318,"slotNo":52367018,"epochSlotNo":354218,"stakeKey":"stake1uywk6t6ahf3f9t0w0kkaad480x8v3m7c4vy9knzefsyr6xcdh8mmm"},{"txId":29918163,"txHash":"14103e007b15d2d33c16cdb3aa16bb3cfa874fb2503b5769b2051c1006522dca","txTime":"2022/02/04 00:08:14","block":6838358,"epoch":318,"slotNo":52367003,"epochSlotNo":354203,"stakeKey":"stake1u9k4d59nnc6heg7m8h9wk3lkq4fp8wfkuaphzn89le4fsfqpcw24y"},{"txId":29918146,"txHash":"d08bb2771213d9ca58b62abc47e3268f42e5d5791be2832b1147f5d2644b5a35","txTime":"2022/02/04 00:08:14","block":6838358,"epoch":318,"slotNo":52367003,"epochSlotNo":354203,"stakeKey":"stake1u8qffktwgfnh0xe5hsldyk6wzw8vsgnzna9g9v0nuduv6wcq0acck"},{"txId":29918141,"txHash":"3ee6625304014b697b04f33f3e856439e1e332c7c2bdab3077f49a7abc9e193b","txTime":"2022/02/04 00:08:10","block":6838357,"epoch":318,"slotNo":52366999,"epochSlotNo":354199,"stakeKey":"stake1u8dcl7sjgmgu07dzd8cfvtvhxyu55aqkuxyalh5sd636eyc2t0ced"},{"txId":29918066,"txHash":"1fb359e638f9d4d0d9927f764906321dd6d4280d92d1f454f3e98d7ffb57c9af","txTime":"2022/02/04 00:07:02","block":6838355,"epoch":318,"slotNo":52366931,"epochSlotNo":354131,"stakeKey":"stake1uxspefyr2x0447ud8ujak6e8xap8x823ref85m6jx79f4dcch7tp0"},{"txId":29917911,"txHash":"91cbddfdeb994ec1817bdfeebdc32035df2e0202b1c084465b8ab65870764230","txTime":"2022/02/04 00:04:36","block":6838349,"epoch":318,"slotNo":52366785,"epochSlotNo":353985,"stakeKey":"stake1u8f9clk6r3w6953ry850jrn6qfqrwrt7lm8vj6vdwcpk7zs63glsk"},{"txId":29917844,"txHash":"cde3510aae1d3515946c4d7aace7c9bceb4e11922916ac8d450d995a7c13567a","txTime":"2022/02/04 00:03:10","block":6838345,"epoch":318,"slotNo":52366699,"epochSlotNo":353899,"stakeKey":"stake1u92g7qx0y9dzcgvgk57ufp7px8kd8s2fkfhjj25s6uyy8dszwp8kf"},{"txId":29917834,"txHash":"7214733bc715af2d2dd2ead59f37af6a3fa93d789f8f9e480bbcc50a5052605f","txTime":"2022/02/04 00:03:10","block":6838345,"epoch":318,"slotNo":52366699,"epochSlotNo":353899,"stakeKey":"stake1u8c68akptq2lpw9fa0u0y22m9e4xpxnhqf739dhae2fdfcggffkf9"},{"txId":29917794,"txHash":"3452558689e1ede46ecf74d7c286f8a1401f1687e7067798c20d071f37254876","txTime":"2022/02/04 00:03:04","block":6838344,"epoch":318,"slotNo":52366693,"epochSlotNo":353893,"stakeKey":"stake1uxvf0r7wsnchfrxnxcz3fa0nfrm52ugvd5m36qzn5se7txqnajt37"},{"txId":29917707,"txHash":"0d749c047130c0d1773284b461d5f7f172d45224c4be2ab9908faa05152e3698","txTime":"2022/02/04 00:02:12","block":6838341,"epoch":318,"slotNo":52366641,"epochSlotNo":353841,"stakeKey":"stake1uyvsgps4r0a9rrv79pkrx23wwm5kxdyqhpnk4u689g8wmagem68xy"},{"txId":29917625,"txHash":"eed2f575d0381da18d0c99dbb169b52a8cfa2d1f2ff355c6712f9066a708f828","txTime":"2022/02/04 00:02:02","block":6838339,"epoch":318,"slotNo":52366631,"epochSlotNo":353831,"stakeKey":"stake1u8dq8554pcy5cdt0a2vvjl24zqtrhtn9u2q7aydsdnlgwpqgg5rqp"}],"totalItems":1392756,"totalPages":69638,"currentPage":0}