{"data":[{"address":"addr1z8snz7c4974vzdpxu65ruphl3zjdvtxw8strf2c2tmqnxz2j2c79gy9l76sdg0xwhd7r0c0kna0tycz4y5s6mlenh8pq0xmsha","txCount":724991,"balance":47269228514582},{"address":"addr1z8297ay4dlcdngmat86080adn8f8jlvveammehrunpx60aqm5kjdmrpmng059yellupyvwgay2v0lz6663swmds7hp0qnm8ly0","txCount":518,"balance":30908203108812},{"address":"addr1z8jd97ct35n4s5ss8lt4sq0zclw0dmf7yak8fj46m0jm3dswtf6nj8t35qph4n6m04gawl49yvsxytfjpjpcfhehpcvqwwrrlu","txCount":11,"balance":24000000000000},{"address":"addr1wy0nmrl40z3nx9d0d79pu5u7zett4hl2apfuj9caqgf7jjqcj3r8z","txCount":870,"balance":14809799443433},{"address":"addr1w9qzpelu9hn45pefc0xr4ac4kdxeswq7pndul2vuj59u8tqaxdznu","txCount":502623,"balance":10882623092987},{"address":"addr1w8pydstdswmdqmg2rdt59dzql3zgfp9pt8sulnjgalycwdsj9js7w","txCount":69007,"balance":4848043732820},{"address":"addr1wykycygqz383nymn2060mhlnyqcvf9zkwhw6veu0kv06euckqc0ze","txCount":3,"balance":4000000000000},{"address":"addr1z8nvjzjeydcn4atcd93aac8allvrpjn7pjr2qsweukpnaytpq3ryg76qvca5eu9c6py33ncg8zf09nh7gy2cvdps2yeqlvvkfh","txCount":3547,"balance":3373553749094},{"address":"addr1z8nvjzjeydcn4atcd93aac8allvrpjn7pjr2qsweukpnayd8awyllkdhpwm7r3tnvvm0mzx592fzgazhuevl679cf7lq35qw53","txCount":2084,"balance":2546523815364},{"address":"addr1z8nvjzjeydcn4atcd93aac8allvrpjn7pjr2qsweukpnayvrzwt47mccrc8akjdnwat82r82man0g3s2m9czqdja6mfsqmv4gp","txCount":1649,"balance":2422699505251},{"address":"addr1z8nvjzjeydcn4atcd93aac8allvrpjn7pjr2qsweukpnaytvcg6zm2vds6mz9x3h3yalqmnf24w86m09n40q3tgqxjms9yu6v8","txCount":19256,"balance":2203385771496},{"address":"addr1z8jd97ct35n4s5ss8lt4sq0zclw0dmf7yak8fj46m0jm3dkumyryd7wxymucr47uyf9zekr5wn43f0ysvzvsgc5x80zqlvjd9t","txCount":24,"balance":1912362572820},{"address":"addr1z8nvjzjeydcn4atcd93aac8allvrpjn7pjr2qsweukpnay2tqrfwamagnyfv43jgm94yvkmsnfvpzlytmkl0cs0uh8zqszu5da","txCount":9334,"balance":1825528447606},{"address":"addr1z9fvxytwm8dv0aht3x8cxetm3tu4f47kaqdgxney8mu6hj8ktmp978vxcf308hnf8v4js57z4az4a0sx592h7t58w7fsqz6x77","txCount":5,"balance":1525993150679},{"address":"addr1w93j7t23z99448k7xspzrppjtgun0janh0rcq6k8wt2e8vc2fraw4","txCount":3964,"balance":1476690225711},{"address":"addr1z8nvjzjeydcn4atcd93aac8allvrpjn7pjr2qsweukpnay0juqg4tpvktqnle8j0ukcnww78l7ze4lrgunuwqnxtvjps8lclpw","txCount":3693,"balance":1231989823381},{"address":"addr1z8nvjzjeydcn4atcd93aac8allvrpjn7pjr2qsweukpnayg3sm3lpp76yuejdf6w3qyry2spy8xjmjrlxy2cstm3fthsjc3xze","txCount":8185,"balance":1211906755737},{"address":"addr1z85t4tvj3rwf40wqnx6x72kqq6c6stra7jvkupnlqrqyarthhd58w0qrqpyv4dc2c2mk98sduawl7l4gjuc9rafyv98sgylfw3","txCount":7423,"balance":1172931427403},{"address":"addr1zxgx3far7qygq0k6epa0zcvcvrevmn0ypsnfsue94nsn3tvpw288a4x0xf8pxgcntelxmyclq83s0ykeehchz2wtspks905plm","txCount":2690317,"balance":1080417072224},{"address":"addr1x97atw4jlfulpp73agh4hav2nfwlcwcfqcgr9mpucde9vmj3z228hznt0rz2enxfzhtk2270gels0ht9uvf9wmyxs99qsgwdnc","txCount":1130,"balance":1036344393870}],"totalItems":31383,"totalPages":1570,"currentPage":0}