{"data":[{"txId":59580992,"txHash":"294bfbd20530a115a806a593a24c0764fd484d5870b490433ac906257122400d","txTime":"2023/01/13 08:39:01","block":8264035,"epoch":387,"slotNo":82032850,"epochSlotNo":212050,"stakeKey":"stake1uyx65uxrc0pt7d48h2l8wlkvjxd3c3kesu0xrdy9ajd6p7sa5cqvq"},{"txId":59580970,"txHash":"a791a3b584bb477f636ac84ed9a175638ce207b45eb4a03efdebd868f5eb59f0","txTime":"2023/01/13 08:38:29","block":8264033,"epoch":387,"slotNo":82032818,"epochSlotNo":212018,"stakeKey":"stake1uxrr6l2wuzyxtmtftmlm2uklldh3mcf0gfm02063r2jsesqyzvsr9"},{"txId":59580936,"txHash":"62f77217678252de650ec90659bd3a6777597d5cbdf1d9f77ef9d58b43dade68","txTime":"2023/01/13 08:37:24","block":8264028,"epoch":387,"slotNo":82032753,"epochSlotNo":211953,"stakeKey":"stake1u9qj4x66fuhguxanf7wpws3ckhgl29nafm77g4damt6s45q380w8a"},{"txId":59580787,"txHash":"aa5f4fc31b965a8af600a861363884fe53cab00e2375cb5ecb37abdf4f270520","txTime":"2023/01/13 08:33:47","block":8264014,"epoch":387,"slotNo":82032536,"epochSlotNo":211736,"stakeKey":"stake1u96wums9m09mywfy7v6anfh5xz3u6w3uvkxyphga7mknysg6jgxsn"},{"txId":59580687,"txHash":"9bf783ca77f3d26496a10099efa8b902ecc23b99e9097a32bc56b3b064d0229b","txTime":"2023/01/13 08:30:37","block":8264006,"epoch":387,"slotNo":82032346,"epochSlotNo":211546,"stakeKey":"stake1u9gf0x3t5pps9eehwal3aymfnmqk5qqz2lv6myhm3mwcdysn237gz"},{"txId":59580381,"txHash":"60a23165505b3af30f0c57632ade9742124830ac2c15d8f8d9ee5ff7c3fcca58","txTime":"2023/01/13 08:21:53","block":8263975,"epoch":387,"slotNo":82031822,"epochSlotNo":211022,"stakeKey":"stake1u9ftfx4ya3eekj5u4s8kgr8sle6ay46ms8ky6v3u3t7n8hc44plhk"},{"txId":59580245,"txHash":"78c5159d25a43237cb322fae801500c8d3006e2fd28fd5e86a2acbfec0a9a613","txTime":"2023/01/13 08:18:59","block":8263967,"epoch":387,"slotNo":82031648,"epochSlotNo":210848,"stakeKey":"stake1uym9mmknuc3ftdwf5xnfmt09amnpmw43cv2wq6g0wwx5kag0mjf4m"},{"txId":59580148,"txHash":"c4d66f90a9d1990d23d9cc5de893041307ec496785d5bc047da6b2c7f246050d","txTime":"2023/01/13 08:16:24","block":8263961,"epoch":387,"slotNo":82031493,"epochSlotNo":210693,"stakeKey":"stake1u9rj8970wjm632j8438uchlecdchhqxppjk3wlm8sfumzwqgljn7p"},{"txId":59580144,"txHash":"06b40cb494713dba892e43edb4b047f43fb7778ea156831e7a1c004cb699a35f","txTime":"2023/01/13 08:15:45","block":8263960,"epoch":387,"slotNo":82031454,"epochSlotNo":210654,"stakeKey":"stake1u87xyjnrvnc82ewe39cz97fz994ckm8ndqy6zkfzmwcgr3g4r2jte"},{"txId":59579969,"txHash":"58a9021bc263d9f5d5594f16aa6ea6eb6324cfedbb78180e201847b546705407","txTime":"2023/01/13 08:10:59","block":8263943,"epoch":387,"slotNo":82031168,"epochSlotNo":210368,"stakeKey":"stake1u8kgs342jfrsf6wt7kl6xn5cmghek7kptkfm9wmpz6hyytq9jy8d6"},{"txId":59579819,"txHash":"fabfccf14e4ee6efdf23e3c1422e0ab98d40cbd7f9992accf55434563a0fa904","txTime":"2023/01/13 08:06:38","block":8263935,"epoch":387,"slotNo":82030907,"epochSlotNo":210107,"stakeKey":"stake1u8rxssact44hpqxck48cp0n80x53kudsnwk28w8xe8uugcghncrmy"},{"txId":59579755,"txHash":"b15057ba9d004d23626a09b2de1257cb73c9b2418e794eedce6dcdae9569bafd","txTime":"2023/01/13 08:04:32","block":8263932,"epoch":387,"slotNo":82030781,"epochSlotNo":209981,"stakeKey":"stake1u9nnfydv82wg6hp9qactuxsau8ae62rmvr4s76gwvjrwxtq2edyv2"},{"txId":59579733,"txHash":"7814ab366cf400100755956dd63f7402fd13e3c9d0a421d9086f271d383925d3","txTime":"2023/01/13 08:03:17","block":8263931,"epoch":387,"slotNo":82030706,"epochSlotNo":209906,"stakeKey":"stake1u94h3ewnv2jg0pff5pxyfaxedks080zgkjyjsh7vhwcdlpsdh8rs3"},{"txId":59579669,"txHash":"25449024aa27f23c4eaf16321ba2e4a553d0320cf426f006ce0a18728deb782c","txTime":"2023/01/13 08:01:15","block":8263922,"epoch":387,"slotNo":82030584,"epochSlotNo":209784,"stakeKey":"stake1uywvdm8gxrfmdy4ukgtg594tanwqtv0vcg7e09rr65fn32qk9x6t0"},{"txId":59579530,"txHash":"7fc3450ccb3ebcab9eee6780d35ffa319dc626c1c48c1d5cb692c36a458789a9","txTime":"2023/01/13 07:58:04","block":8263913,"epoch":387,"slotNo":82030393,"epochSlotNo":209593,"stakeKey":"stake1uyax90h6r32ct7ym6hrhfyk7u8ljy2m0u5fepsurv9khuls7rjrxr"},{"txId":59579518,"txHash":"494542e32285ef3065875459996ed9dff00a6fd106906674b2a511df84613fe1","txTime":"2023/01/13 07:58:04","block":8263913,"epoch":387,"slotNo":82030393,"epochSlotNo":209593,"stakeKey":"stake1u9txfxld5ku05h7ecu80078ctv5dmqjq9cquj8u8uytt05c8gplrm"},{"txId":59579497,"txHash":"123f683b227eff667a36843fe122e526fe74844e2830fcd9a5d51090749c3698","txTime":"2023/01/13 07:58:04","block":8263913,"epoch":387,"slotNo":82030393,"epochSlotNo":209593,"stakeKey":"stake1uyt9fmaxn9x9skfwceaqjen9sv73zhgfvqpsx6k9xz06zdqz3txpm"},{"txId":59579450,"txHash":"60ac1551ce75158ee4d08d3979f5ee68f71a3ef698d82cebbbe050b958efd643","txTime":"2023/01/13 07:56:13","block":8263906,"epoch":387,"slotNo":82030282,"epochSlotNo":209482,"stakeKey":"stake1u9ky703llchtpvm6jqn5ykwugxnjh5fry030xlf5gy8xlgcjtvyys"},{"txId":59579436,"txHash":"bf889adadc554ca78aa77a4e57d43fc37d91bca08b4beb34f30c54bed1b600df","txTime":"2023/01/13 07:55:45","block":8263903,"epoch":387,"slotNo":82030254,"epochSlotNo":209454,"stakeKey":"stake1uxgx2dr8pr6sl9eew3zg88ytr8xe0rmnkertlg7787vvn3s77mlg3"},{"txId":59579433,"txHash":"b2383978f69a8a8ce97b7b8b9c7e08407001a6bab354865da876e95059c9a094","txTime":"2023/01/13 07:55:45","block":8263903,"epoch":387,"slotNo":82030254,"epochSlotNo":209454,"stakeKey":"stake1uxgdkv9qlncaevypftankkcff5xvrkgq6t8z63e8d6as4zcaaxl3s"}],"totalItems":1644589,"totalPages":82230,"currentPage":0}