{"data":[{"blockNo":8314607,"slotNo":83071983,"epochNo":389,"epochSlotNo":387183,"hash":"39b47d78fcd2ec67a033ecfd21fc0a82e0cb787a892f34161644525f10920a23","time":"2023/01/25 09:17:54","txCount":9,"totalFees":4203884,"totalOutput":105906499067,"slotLeader":"b619d366a0acc2e5a8e0f8e373d6eb926a01811f05a381aaa7a8564c"},{"blockNo":8314606,"slotNo":83071968,"epochNo":389,"epochSlotNo":387168,"hash":"f4376cd9df9a0d51570493b39f8bdfa196e356bd7ace4de9b5c7be8dd669b93d","time":"2023/01/25 09:17:39","txCount":12,"totalFees":5851752,"totalOutput":183730578486,"slotLeader":"da482311081902f95d08bb05d878126904a1e133dd06901e05e652ce"},{"blockNo":8314605,"slotNo":83071955,"epochNo":389,"epochSlotNo":387155,"hash":"51698f80338cb59087b4bfe20674d6848a49d84dda3f0787eac205372d79e261","time":"2023/01/25 09:17:26","txCount":3,"totalFees":1300899,"totalOutput":257799824,"slotLeader":"7d45120fc9e82f8b69d886057d80630b721e8f033cb8e3f26621d7bd"},{"blockNo":8314604,"slotNo":83071953,"epochNo":389,"epochSlotNo":387153,"hash":"69f0b6595a8103af6fe7ab3c72b67f982ffd086747ddb8fecd61b1240d5954f7","time":"2023/01/25 09:17:24","txCount":1,"totalFees":298293,"totalOutput":427760478,"slotLeader":"fd30f95effb4f28920020901e3a4ad04f4d3585bc46953de762e8c0c"},{"blockNo":8314603,"slotNo":83071950,"epochNo":389,"epochSlotNo":387150,"hash":"0d0cb986d7f574003b3d50072de364958ed197ad0fd713822393ff1485187c38","time":"2023/01/25 09:17:21","txCount":11,"totalFees":4438500,"totalOutput":51409207318,"slotLeader":"cb87bf12be816ecd5cd6e167442670e4024d85e0005c8623651b371f"},{"blockNo":8314602,"slotNo":83071931,"epochNo":389,"epochSlotNo":387131,"hash":"875e7090e823f424cc79b7c2a331a315ffeb644ab895f663429ab1d66875174d","time":"2023/01/25 09:17:02","txCount":20,"totalFees":6784829,"totalOutput":1721688486886,"slotLeader":"22cfa3b8612c146a0737c974dcfcbb8cddd86f3a511cf531ce8d91a1"},{"blockNo":8314601,"slotNo":83071896,"epochNo":389,"epochSlotNo":387096,"hash":"bdbebd1816dcf2c7dd04130de3b048463d1a0307a587ce2adff0746358a2f627","time":"2023/01/25 09:16:27","txCount":4,"totalFees":878879,"totalOutput":200106356551,"slotLeader":"052100e65f3fa89fe1e2d3ae521446b2013b3c91ef5c7961e1b1a1ac"},{"blockNo":8314600,"slotNo":83071889,"epochNo":389,"epochSlotNo":387089,"hash":"6493abcd5eae3e2ab0feabf8cf208233b673f5a439c2f90eeb35b4704d4a7c3e","time":"2023/01/25 09:16:20","txCount":0,"totalFees":0,"totalOutput":0,"slotLeader":"bce696401137ff3d305e6a8dbb6ac0cd9b41570bda42deb4e83d86f2"},{"blockNo":8314599,"slotNo":83071888,"epochNo":389,"epochSlotNo":387088,"hash":"c6083e337cca4c3c3302b4ef79ace3b5eec2b0d1d6fa7322f6630baffc1a7c52","time":"2023/01/25 09:16:19","txCount":9,"totalFees":3261398,"totalOutput":106224392424,"slotLeader":"3a2c7b31a5024ea2cfed07205500a4d55f9d71f2691227d77bb2dc66"},{"blockNo":8314598,"slotNo":83071882,"epochNo":389,"epochSlotNo":387082,"hash":"a965246c44585c778cfc1f649e070111140ed91d73907b187cc38be3457dca4a","time":"2023/01/25 09:16:13","txCount":16,"totalFees":5281636,"totalOutput":1067883622273,"slotLeader":"024dcb42f0aa6d81a7e26ccdd525a2ed3e9665d126b38ba0f8b77b50"},{"blockNo":8314597,"slotNo":83071863,"epochNo":389,"epochSlotNo":387063,"hash":"46f5a2dfa4552fdaa86bb6437e4a019233171f7cc6c323af543b7bae3a2644c1","time":"2023/01/25 09:15:54","txCount":6,"totalFees":3479917,"totalOutput":53184316679,"slotLeader":"e594951faeec31cb8efc70c3e36887f18f8bc62c718f25ec64807dfa"},{"blockNo":8314596,"slotNo":83071854,"epochNo":389,"epochSlotNo":387054,"hash":"d428169e266e2c92649d007fa97f491c014f1f530b34c794875c2320394d6edd","time":"2023/01/25 09:15:45","txCount":4,"totalFees":1537268,"totalOutput":5096145967,"slotLeader":"54f5f2618a3da4bb0b384895d8f3922189acbb8e9637201ebb26bc18"},{"blockNo":8314595,"slotNo":83071844,"epochNo":389,"epochSlotNo":387044,"hash":"fe8df25bc4a40f051f979a04996bf28fe45b94744c05f1373384bebf2e6b811b","time":"2023/01/25 09:15:35","txCount":9,"totalFees":2812475,"totalOutput":3530929153,"slotLeader":"76bfa1b2e6593740c3388ed881cbe851dbab8d8741652c9bad16cc94"},{"blockNo":8314594,"slotNo":83071824,"epochNo":389,"epochSlotNo":387024,"hash":"9c6360786a30713f1950a7fd445cda04c284f88704e52dcfe6efe3d3b8aab2e1","time":"2023/01/25 09:15:15","txCount":3,"totalFees":1220071,"totalOutput":275603093,"slotLeader":"17a6a1f2fb36d9ef275805db17409af7ab753b9d27bdd41b89510bb9"},{"blockNo":8314593,"slotNo":83071820,"epochNo":389,"epochSlotNo":387020,"hash":"c430dfb648a0dbffd5950dd2bc221ee5d3aa7bfc023cb94e20d70c52ca944911","time":"2023/01/25 09:15:11","txCount":25,"totalFees":6482869,"totalOutput":1944486221994,"slotLeader":"4b5e02dce5f549a0c332d8b02f91c43a506311fe1cd4498ddcf46bd0"},{"blockNo":8314592,"slotNo":83071799,"epochNo":389,"epochSlotNo":386999,"hash":"295e2b307f27287b844cef070c0872329fbdadf78a8ec6b75725285e754f104f","time":"2023/01/25 09:14:50","txCount":27,"totalFees":7469876,"totalOutput":7336805871682,"slotLeader":"4a5571be1cb000df524350ef170f73cc0c0404155350dd0f71e4d130"},{"blockNo":8314591,"slotNo":83071781,"epochNo":389,"epochSlotNo":386981,"hash":"b242b5a543f8c04e33b8c3b04490a1bce2e961ef188396c3e674577a44dbe2c4","time":"2023/01/25 09:14:32","txCount":21,"totalFees":6264911,"totalOutput":509558500609,"slotLeader":"fc2d8488ef021561a83af7b56f973b94cfcfd8100433ee6fd0b0aa45"},{"blockNo":8314590,"slotNo":83071756,"epochNo":389,"epochSlotNo":386956,"hash":"f15013c11f4d14eb787b4d6c75f4d0369b81f0a8d006c273bf88aeb02fef4bce","time":"2023/01/25 09:14:07","txCount":1,"totalFees":197533,"totalOutput":6726685,"slotLeader":"d4a3b639d0f0b050cbfc25dad467af58355f31edbc4959db1cc59051"},{"blockNo":8314589,"slotNo":83071754,"epochNo":389,"epochSlotNo":386954,"hash":"579db5b236188c6e4f43ad8f526ecfcfc39084f956edd64d835c05305443c76b","time":"2023/01/25 09:14:05","txCount":3,"totalFees":697983,"totalOutput":534253962,"slotLeader":"bcd7cf751b59f949170a7e6599f9ac03e49b32c19f3f1d8dad3ac210"},{"blockNo":8314588,"slotNo":83071747,"epochNo":389,"epochSlotNo":386947,"hash":"a6e86ed788d31bb4e1e998ebe53e5d128fad18e95c08a144f18e0e51915a019f","time":"2023/01/25 09:13:58","txCount":8,"totalFees":3778765,"totalOutput":1007617711822,"slotLeader":"68ac3c1be0477698b5c825ce598cca359dbf6132e1761a572403b9fb"}],"totalItems":8314783,"totalPages":415740,"currentPage":0}