{"data":[{"txId":960034,"txHash":"824e5a2a5ef8d9ce475cdcc5e643376a6b74fd1ee556e5a15cccc26db9d295c2","txTime":"2023/06/21 11:39:26","block":1076013,"epoch":77,"slotNo":31664366,"epochSlotNo":41966,"stakeKey":"stake_test1uqr9nunk0fyd9k6d9wln4ffwfdk27m8ucg00eknmemzlqmqra55wk"},{"txId":960015,"txHash":"9b7d6da8663796c8f1a436ed5cd004742dba00c6c1401766e60415eeaa6f33c4","txTime":"2023/06/21 11:30:18","block":1075987,"epoch":77,"slotNo":31663818,"epochSlotNo":41418,"stakeKey":"stake_test1upcz8mpe2muy82mtth6gvlc6hkeczaq69z2ffzt440xydns4g9le8"},{"txId":959974,"txHash":"ab53a6eb1324003fd19db8638d5eb352e46e6fc207b5dd4ca291d2d53b308db9","txTime":"2023/06/21 11:16:24","block":1075947,"epoch":77,"slotNo":31662984,"epochSlotNo":40584,"stakeKey":"stake_test1urqv6eurjpphldv6mefqmpqun646c3dcywfw4rh4y2ge3jggj6yr7"},{"txId":959921,"txHash":"82793b94b7f7e19168f36680aab5fb6af56b7df7190d9c9669abbc3566c91b50","txTime":"2023/06/21 11:02:39","block":1075920,"epoch":77,"slotNo":31662159,"epochSlotNo":39759,"stakeKey":"stake_test1uzpk5wqsl3k5w9d7dhg0qj24tsevhzds37xascwm0cp7r5gxcfn0a"},{"txId":959894,"txHash":"1dc5724ced96b02e98e06f0d9a7c497bb03f2c4c45292184c7a9eeb3975d60b5","txTime":"2023/06/21 10:54:01","block":1075895,"epoch":77,"slotNo":31661641,"epochSlotNo":39241,"stakeKey":"stake_test1uql5444f8gjwq8ndkla350dqq7tnzsrefutguyvqvwma9tc02ulyd"},{"txId":959893,"txHash":"9e08fa119bd2d820bcab0d54321590ad7f93afd08a430e92aba3759d76fb666f","txTime":"2023/06/21 10:54:01","block":1075895,"epoch":77,"slotNo":31661641,"epochSlotNo":39241,"stakeKey":"stake_test1uztcx3af25tdkzzd3693lqtt8cw9ss9p4zvy7muv5tgcc6swhs8ps"},{"txId":959845,"txHash":"b79c5fbc779509c1919899a2fd86e5ec1d5c0847cbb8be05307b1e6cc0101129","txTime":"2023/06/21 10:41:45","block":1075865,"epoch":77,"slotNo":31660905,"epochSlotNo":38505,"stakeKey":"stake_test1uzy0k7se8xqxresg9tuz48hyfhncmuxtyfqjg6wm39a6mpcfxsdgx"},{"txId":959771,"txHash":"a87496c2b35b22d09aa11d7b570c309b2f3d2c7375726342c838c5c1554ef75a","txTime":"2023/06/21 10:26:57","block":1075842,"epoch":77,"slotNo":31660017,"epochSlotNo":37617,"stakeKey":"stake_test1uqqsp86urm6vn5wkk9ruc4d0ngtr97d6n7hxfvdcpcta8eq6t3hp6"},{"txId":959759,"txHash":"97795cc0ce9c7d7c3912b16e4d4b56a43c22d07aebab5f9170fc1ff11e724895","txTime":"2023/06/21 10:24:10","block":1075837,"epoch":77,"slotNo":31659850,"epochSlotNo":37450,"stakeKey":"stake_test1upl2sfh7qcc8nc4uy0jw8wml8tssrdm7eq2me4nt4zkn9mgek9a8q"},{"txId":958573,"txHash":"6abe7bccedb85a7c83d73d6fcc9548540372497860ffd6aff3e8e83613aba54b","txTime":"2023/06/21 09:10:49","block":1075661,"epoch":77,"slotNo":31655449,"epochSlotNo":33049,"stakeKey":"stake_test1uz37n6pyeg0cqjpfruxawp87nh38djw3r5qawv6jwfthtrgfl5jma"},{"txId":958388,"txHash":"51173b89557d8688723bf50191ff402771d74468c32bde444d6ab80fd2386e82","txTime":"2023/06/21 08:55:53","block":1075620,"epoch":77,"slotNo":31654553,"epochSlotNo":32153,"stakeKey":"stake_test1uznnrwpq7kmhkyjxd290mj2tk36vn5sx938slhtcu33yp3cx67us3"},{"txId":958300,"txHash":"5b5a715e7dbb1b236698d2cd8dbc0c85c728ad9ae1fdb6e6f15743e4c04bcbe5","txTime":"2023/06/21 08:16:11","block":1075517,"epoch":77,"slotNo":31652171,"epochSlotNo":29771,"stakeKey":"stake_test1upj04vnkp7j56y82tzmgtq7kc9gsa85rfp0q8q3vfa4wc8c4x0826"},{"txId":958293,"txHash":"f4538e205536fe5fdb1aa04cb9e3973adfcb47b35289fa83d4701891b9fe85be","txTime":"2023/06/21 08:13:59","block":1075513,"epoch":77,"slotNo":31652039,"epochSlotNo":29639,"stakeKey":"stake_test1uzzuzu2hhhj0gq9945hsyx6arrppful8v0zw68rs7er6m8qelu8ex"},{"txId":958290,"txHash":"ef2f4fb846186ae1c487a41cd610077368d7037b0f33e4fd96bbf02105b4fb32","txTime":"2023/06/21 08:13:59","block":1075513,"epoch":77,"slotNo":31652039,"epochSlotNo":29639,"stakeKey":"stake_test1uzpt3g7ewfukng9pz2a9ura32hj56skmq3m6z7wux6la2wq6xxh0y"},{"txId":958285,"txHash":"8643c898274681603af5e43bc119939e5c87e671279cf26597956fbcb0f1d17d","txTime":"2023/06/21 08:11:56","block":1075511,"epoch":77,"slotNo":31651916,"epochSlotNo":29516,"stakeKey":"stake_test1urnguztc9e6qqcxyx6dlpe2m06k55vj93q662ychefk7ezgstwqw6"},{"txId":958254,"txHash":"1a0b20f36492836fbaa16cb4c631a7d65a2ca145e54d973b6b005eb01025179f","txTime":"2023/06/21 08:01:36","block":1075483,"epoch":77,"slotNo":31651296,"epochSlotNo":28896,"stakeKey":"stake_test1uzpn4deqtdrkkmfxc6z6j22euf40ungekjhkjpwdtkw6f8c7kk0sw"},{"txId":958251,"txHash":"eb3abba93a686662c4ed693e913dbb23489ff8bc6915da1e71e9ddf361cd0d67","txTime":"2023/06/21 08:01:03","block":1075481,"epoch":77,"slotNo":31651263,"epochSlotNo":28863,"stakeKey":"stake_test1uzj3fg9sgffuldhl9zsxzvjxm9k8gwx42t0vv4p086nz3ystk5ad2"},{"txId":958249,"txHash":"045ea072d3fdb44fd5be62b5a4813bfe040efda8d83e48894b4168de2cf4efde","txTime":"2023/06/21 08:01:03","block":1075481,"epoch":77,"slotNo":31651263,"epochSlotNo":28863,"stakeKey":"stake_test1uqaqn8vxky9zl5ygnhfqj5zu98cywuzkuutcnrmdp759f2ccc9q6u"},{"txId":958217,"txHash":"69f931d74a5ab42a10740dbe72261ef91d4957d1b8546f25c263d7634e8f783f","txTime":"2023/06/21 07:50:24","block":1075448,"epoch":77,"slotNo":31650624,"epochSlotNo":28224,"stakeKey":"stake_test1urfdqd503fh5zaqj640utflurx95763txvp9vlw4q6jgcuc7qnygv"},{"txId":958125,"txHash":"d0d0e74c57985497fd2c33140457e96f4a1482b38fe19b73a486df9d429957e4","txTime":"2023/06/21 07:00:16","block":1075310,"epoch":77,"slotNo":31647616,"epochSlotNo":25216,"stakeKey":"stake_test1up59gzkp9ehgk9lqvh54wxt6x2rud8n6kzgkem0c2jdklrskkhmu0"}],"totalItems":8815,"totalPages":441,"currentPage":0}