{"data":[{"blockNo":8234000,"slotNo":81413060,"epochNo":386,"epochSlotNo":24260,"hash":"a1ad4be2effa121bcd8a9a65932a5d9bca5ebb477ebc82bfdfab2eefaec9b5a0","time":"2023/01/06 04:29:11","txCount":31,"totalFees":10011268,"totalOutput":87291649075,"slotLeader":"a24a0b7f7dec890db8c59c47646290522234a522a98f00cf2d589a80"},{"blockNo":8233999,"slotNo":81413023,"epochNo":386,"epochSlotNo":24223,"hash":"30f310178f666419f6d63e77562e2a39f1a95701ff4ece58e976bd462a6f4077","time":"2023/01/06 04:28:34","txCount":5,"totalFees":2348143,"totalOutput":1510641030,"slotLeader":"1bdb8db050fb6cfd13a8e34ddec812e0aec77c589f71fc396cd9d950"},{"blockNo":8233998,"slotNo":81413017,"epochNo":386,"epochSlotNo":24217,"hash":"62fd365e191b8cffd2287deb704492302530ac52bb08ee6881272e8763e83ac1","time":"2023/01/06 04:28:28","txCount":15,"totalFees":6754940,"totalOutput":1321167398642,"slotLeader":"153806dbcd134ddee69a8c5204e38ac80448f62342f8c23cfe4b7edf"},{"blockNo":8233997,"slotNo":81413015,"epochNo":386,"epochSlotNo":24215,"hash":"ee8b53f99bf6c54cd13432cebf2949cb636c179cd00bce0fa70e66e3d6e92122","time":"2023/01/06 04:28:26","txCount":30,"totalFees":12237130,"totalOutput":201036007330,"slotLeader":"fa58244068bef886049b3e8fbba8aa39f227ce78168efdf7629111c5"},{"blockNo":8233996,"slotNo":81412953,"epochNo":386,"epochSlotNo":24153,"hash":"781b4eff1e1f410b5517cc889597a780c251c6e7b05bf94dd2df4e7e2e32dd34","time":"2023/01/06 04:27:24","txCount":17,"totalFees":6221421,"totalOutput":11094792573950,"slotLeader":"b0c53bbb91bd03c5417c87c7488a83de68f5ea27aefb886c9fc4ff27"},{"blockNo":8233995,"slotNo":81412938,"epochNo":386,"epochSlotNo":24138,"hash":"183fd2c48629ca7a1e3f3608cdc881f5f6aaa40929405c88941590d2ae4dd4ba","time":"2023/01/06 04:27:09","txCount":4,"totalFees":1831025,"totalOutput":138475662437,"slotLeader":"000000f66e28b0f18aef20555f4c4954234e3270dfbbdcc13f54e799"},{"blockNo":8233994,"slotNo":81412932,"epochNo":386,"epochSlotNo":24132,"hash":"556fa445d76200e56bfdcdb5a262747ca19489dd405f15e25fd7f7f8e9c2bd00","time":"2023/01/06 04:27:03","txCount":30,"totalFees":10655566,"totalOutput":1390679342134,"slotLeader":"50a251d84927d932b9393cb462f300d215faedd5e8a5e791e869f32c"},{"blockNo":8233993,"slotNo":81412885,"epochNo":386,"epochSlotNo":24085,"hash":"c9034c3b064d76a2e850843493448cc845436cd5d2f2449623523f9b8abf1a88","time":"2023/01/06 04:26:16","txCount":8,"totalFees":2500271,"totalOutput":319484367339,"slotLeader":"fa58244068bef886049b3e8fbba8aa39f227ce78168efdf7629111c5"},{"blockNo":8233992,"slotNo":81412883,"epochNo":386,"epochSlotNo":24083,"hash":"08da48210bb0970d538df67a58b26b7f5b9a80f2f6168e617cb14636bc52348e","time":"2023/01/06 04:26:14","txCount":34,"totalFees":12009419,"totalOutput":101635752550,"slotLeader":"37303e39c681371e158fdd7268f4546d581114dc3fbcc87cbc6856f0"},{"blockNo":8233991,"slotNo":81412834,"epochNo":386,"epochSlotNo":24034,"hash":"b474f5ade446e8af95622f0ff8703bc5e6b7568ae317560760770fd7a1731a3a","time":"2023/01/06 04:25:25","txCount":0,"totalFees":0,"totalOutput":0,"slotLeader":"3e695a66ff6e2ed3806701bc0f6e8dfc85db114b71864999425147c5"},{"blockNo":8233990,"slotNo":81412832,"epochNo":386,"epochSlotNo":24032,"hash":"3ca26dc2476d516d63d9cbb17d83468c5de9f31890d0c306b5a1cb765ace7475","time":"2023/01/06 04:25:23","txCount":11,"totalFees":3114267,"totalOutput":491831953637,"slotLeader":"cdb10209d937fc1559c635e35b9147febde5307b4a7d276f868775cd"},{"blockNo":8233989,"slotNo":81412821,"epochNo":386,"epochSlotNo":24021,"hash":"c76e9772e36e63f0eb3101d15af5e12b3a92344d6d6a45ae3001ec24e27dabcd","time":"2023/01/06 04:25:12","txCount":12,"totalFees":2830112,"totalOutput":76946519608,"slotLeader":"07cc67445f419f643158cfdf3d0a3dd12507b8e81b961a19d3e9d3b5"},{"blockNo":8233988,"slotNo":81412805,"epochNo":386,"epochSlotNo":24005,"hash":"15a72e4ab2a3c99edf5b83651a03413d1747d31b871fa4ff0bbce49a54400330","time":"2023/01/06 04:24:56","txCount":5,"totalFees":959187,"totalOutput":26020293267,"slotLeader":"96aa57f4af0652c800cde0d25288bf6d1e35aefd11770d60e6bf8f0a"},{"blockNo":8233987,"slotNo":81412798,"epochNo":386,"epochSlotNo":23998,"hash":"2fe3b8bab8b167a9db0baa590360c88b33ceb4114a5144a97cecc2fc72f72fe7","time":"2023/01/06 04:24:49","txCount":18,"totalFees":7670594,"totalOutput":23049395015,"slotLeader":"a7784228ea544bc94455e76f527aaee53266929f0bb2896893a0444f"},{"blockNo":8233986,"slotNo":81412780,"epochNo":386,"epochSlotNo":23980,"hash":"b283339dc2161f916ae7f5f15052c4ea61b2a13edbe85e81c91ce1a786be1bdf","time":"2023/01/06 04:24:31","txCount":15,"totalFees":6281348,"totalOutput":18594788744100,"slotLeader":"33502e7de0cc0331534210f16726b7c0c8407ca40e2ab2754dff0bd5"},{"blockNo":8233985,"slotNo":81412763,"epochNo":386,"epochSlotNo":23963,"hash":"c55f13665c6fd1375544becb0e079e551455bf66bbd0add0581bb0c7af733b3e","time":"2023/01/06 04:24:14","txCount":4,"totalFees":827121,"totalOutput":83505378211,"slotLeader":"d765dee553a7e041d525b1782a10eb0a5e52e96ed55ed173d8bb82a7"},{"blockNo":8233984,"slotNo":81412759,"epochNo":386,"epochSlotNo":23959,"hash":"9d2057783f59d47eb1def59bac6a06edbf6182487df364aa29fa690dedd49ff1","time":"2023/01/06 04:24:10","txCount":10,"totalFees":4863098,"totalOutput":3136812601078,"slotLeader":"19521342b6c4cefb13f091a075a221a3e765435a0646902dd5379f3a"},{"blockNo":8233983,"slotNo":81412749,"epochNo":386,"epochSlotNo":23949,"hash":"fe98ea536b2cd4ab7559b90ecd0b3869a3af578fbe91f4b89cc5c2c000e2b260","time":"2023/01/06 04:24:00","txCount":32,"totalFees":12490344,"totalOutput":3457539098699,"slotLeader":"259d8027c33ee454ec2319531269495c07fefcdb52a513c5090f59ed"},{"blockNo":8233982,"slotNo":81412725,"epochNo":386,"epochSlotNo":23925,"hash":"9f7fb7c17ba18e1d186de661cb485903bc61426d05dda6f0f044666afb517d42","time":"2023/01/06 04:23:36","txCount":33,"totalFees":11962456,"totalOutput":1179820734027,"slotLeader":"6658713e2cbfa4e347691a0435953f5acbe9f03d330e94caa3a0cfb4"},{"blockNo":8233981,"slotNo":81412668,"epochNo":386,"epochSlotNo":23868,"hash":"2b12f7f7cb8ce9a2b9748ddafe7dba9e0c342268060699d88369bc1b9505d9cf","time":"2023/01/06 04:22:39","txCount":18,"totalFees":8139629,"totalOutput":2028086432909,"slotLeader":"93ca5c2f1eb63054f7c768a807408a43e65d7c68fe56e330db20af51"}],"totalItems":8234176,"totalPages":411709,"currentPage":0}