{"data":[{"blockNo":7870530,"slotNo":73936133,"epochNo":368,"epochSlotNo":323333,"hash":"98576b597b36824294640b00cb98b8ce00fd2ee3cd53a9e2d1ce3cfd16b45a5e","time":"2022/10/11 15:33:44","txCount":17,"totalFees":5500245,"totalOutput":745091121009,"slotLeader":"087cb9a9dab66751853893b0de0628aee88c36f82fd0c1ee3b998548"},{"blockNo":7870529,"slotNo":73936116,"epochNo":368,"epochSlotNo":323316,"hash":"4ac4395ef83a13f062f8955b47e4914d7b936b6a96eaabffd590773fcb76b234","time":"2022/10/11 15:33:27","txCount":8,"totalFees":3074258,"totalOutput":1455501331,"slotLeader":"a374a14d2fa809b5e999a474b5d085b10be2fc95e6e82da045d9e8f6"},{"blockNo":7870528,"slotNo":73936104,"epochNo":368,"epochSlotNo":323304,"hash":"55d27c88f8bdb04fb2328bcc8814a1733b7730e00018218c358727d8d2d71d6a","time":"2022/10/11 15:33:15","txCount":21,"totalFees":7805453,"totalOutput":84174986552,"slotLeader":"a3e71398e80739522e907c35b8f652064e5268e62e9b78a9603f6b98"},{"blockNo":7870527,"slotNo":73936080,"epochNo":368,"epochSlotNo":323280,"hash":"528ab1fec0e422cb09b698f76e4ab31c6cedf26b54cdcf25614fcac8e252dc6a","time":"2022/10/11 15:32:51","txCount":49,"totalFees":16117375,"totalOutput":22056467081102,"slotLeader":"83b259c187f8b88eda564b1f56ce2786360a9dc224f737fcdd8703c1"},{"blockNo":7870526,"slotNo":73936030,"epochNo":368,"epochSlotNo":323230,"hash":"beebaf6bca70ddf60f36ccd66afcb2b55b71b10405eeaa8d74bc9f0e0c882375","time":"2022/10/11 15:32:01","txCount":7,"totalFees":2135458,"totalOutput":22706035554,"slotLeader":"30f9a4c529f89d60ad1bd1c33c0e13c20b347fec7cac794c557efcee"},{"blockNo":7870525,"slotNo":73936019,"epochNo":368,"epochSlotNo":323219,"hash":"feb5dec9b502f78306c141c6c4bebe366d65b44b85ddc4120431421e9f0974bb","time":"2022/10/11 15:31:50","txCount":30,"totalFees":10261978,"totalOutput":1257194939332,"slotLeader":"351a90a0253fb3595ccc460438b9947cd8a0b9a7f457f3478bbb31d8"},{"blockNo":7870524,"slotNo":73935979,"epochNo":368,"epochSlotNo":323179,"hash":"6f13bb5831cfbd09765f5a96ca623b17cc9ecf210479490d78c4e39048b1a5a4","time":"2022/10/11 15:31:10","txCount":1,"totalFees":266601,"totalOutput":2282427699,"slotLeader":"43bf2e2c7601bd6dfb38564fc2c48f5b1a773fdb4095dee412f52e50"},{"blockNo":7870523,"slotNo":73935978,"epochNo":368,"epochSlotNo":323178,"hash":"0469b879554279b0bf4d811b538d7772d4c3da996570932c25f45447dfeb7c22","time":"2022/10/11 15:31:09","txCount":2,"totalFees":549674,"totalOutput":1794124765,"slotLeader":"6539a70bb6e61540444133eab3a24288d1cd3ddc3598adde93475513"},{"blockNo":7870522,"slotNo":73935975,"epochNo":368,"epochSlotNo":323175,"hash":"5936ace283150b0d85dafbb397bc2b6f773f2d1b309560de990c17300351be71","time":"2022/10/11 15:31:06","txCount":20,"totalFees":4615782,"totalOutput":240443047689,"slotLeader":"2cdc5cef88f1c15e19c33fd8f47d9bd89c3d7ee4fa09512fbd44a126"},{"blockNo":7870521,"slotNo":73935955,"epochNo":368,"epochSlotNo":323155,"hash":"33ff4da616687dff854445c38557a0f8ebf733b719f03caebb260145b2a6bc8c","time":"2022/10/11 15:30:46","txCount":4,"totalFees":883789,"totalOutput":15439986226,"slotLeader":"7782b3a9574a1d179a767064213e03a061995a006e1aeafdfb8463f8"}],"totalItems":15805,"totalPages":1581,"currentPage":0}