{"data":[{"blockNo":6802342,"slotNo":51603109,"epochNo":317,"epochSlotNo":22309,"hash":"1360f8d35c79ca961978769c7abe3e758beb91746c4cf4e21dd6eed86a240c32","time":"2022/01/26 03:56:40","txCount":47,"totalFees":15067773,"totalOutput":527981990055,"slotLeader":"8e6f0aa0582af4b90e830926059027ee1759240bbd2b7e137d8721f9"},{"blockNo":6802341,"slotNo":51603083,"epochNo":317,"epochSlotNo":22283,"hash":"757638e8c71107d6c54340dd4e9ededf628fe7545c90f293c59a1cf31224607c","time":"2022/01/26 03:56:14","txCount":62,"totalFees":15511772,"totalOutput":247603275724,"slotLeader":"3d2294baebe5bbeaa920af59e8461068582bb6c17522bbc7308e8567"},{"blockNo":6802340,"slotNo":51603041,"epochNo":317,"epochSlotNo":22241,"hash":"317199eeb74a6a4f69539cc0fc848efeba8528bcfe07c0741aee2dd9dcafbb25","time":"2022/01/26 03:55:32","txCount":28,"totalFees":10992032,"totalOutput":6920316374093,"slotLeader":"b44181287c72d0c7b1bce6a57173cdf739ac77d030bdfc4606138dd2"},{"blockNo":6802339,"slotNo":51603013,"epochNo":317,"epochSlotNo":22213,"hash":"d95a4f4343c0996750f4ea1aa37c323fe77363ff195089afa2e622511679a018","time":"2022/01/26 03:55:04","txCount":38,"totalFees":14371215,"totalOutput":7407154819714,"slotLeader":"1c8cd022e993a8366be641c17cb6d9c5d8944e00bfce3189d8b1515a"},{"blockNo":6802338,"slotNo":51602970,"epochNo":317,"epochSlotNo":22170,"hash":"85f8b6e6f07df160af6c002f436a237fe75e53257ae841a9baecbbcd265ca06b","time":"2022/01/26 03:54:21","txCount":32,"totalFees":11734458,"totalOutput":263496820121,"slotLeader":"c2e85124c962d9eada3bdf2c0a27a0f5b153bb861c16432daf504dfe"},{"blockNo":6802337,"slotNo":51602969,"epochNo":317,"epochSlotNo":22169,"hash":"b2f56e725fdc7068619095df54bcee36362a74972e900583b337e8e11112a031","time":"2022/01/26 03:54:20","txCount":49,"totalFees":11843333,"totalOutput":269089013157,"slotLeader":"00000aedaa1a5abf500cbc4c5c23761a2dff570bc4a299983c893f8e"},{"blockNo":6802336,"slotNo":51602960,"epochNo":317,"epochSlotNo":22160,"hash":"877ea88dc433d31d61036acb63c8493173bb684dbb26407e6eaa8f4b5ad05b28","time":"2022/01/26 03:54:11","txCount":33,"totalFees":12107588,"totalOutput":239464570592,"slotLeader":"000001b844f4e4c900ae0dfdc84a8845f71090b82fb473e6c70a31ee"},{"blockNo":6802335,"slotNo":51602958,"epochNo":317,"epochSlotNo":22158,"hash":"ea9272182248a3f34597abffb6c45397e19211b3fff41eeaba2708c6f1b4d30f","time":"2022/01/26 03:54:09","txCount":39,"totalFees":10093518,"totalOutput":45489497027,"slotLeader":"9479b6e386c65d8308a776e30350c0720c67b3c28fb4624920ac9199"},{"blockNo":6802334,"slotNo":51602939,"epochNo":317,"epochSlotNo":22139,"hash":"1c188b1ad54b2fa54b3ecae54f9d51e6b484d28dda054ccd0095e5eecef1b336","time":"2022/01/26 03:53:50","txCount":52,"totalFees":14272423,"totalOutput":2567082621858,"slotLeader":"7a4c1ee9d663dd8d3b1bedf13155cc624c5dfa95f432c30d198cd3c6"},{"blockNo":6802333,"slotNo":51602920,"epochNo":317,"epochSlotNo":22120,"hash":"b4c268132e795a4fc1121f2f8144ca636e5654dd809355e4a5d89cbf6a2445c3","time":"2022/01/26 03:53:31","txCount":48,"totalFees":14721779,"totalOutput":283205916536,"slotLeader":"3b3327c0a885ba7c1ebeec8b44158aab79c32148d45b4c701344cd97"}],"totalItems":1006,"totalPages":101,"currentPage":0}