{"data":[{"txId":56960099,"txHash":"8379b09c2dcacc6514463ceb38af5ca11a4100a8c6223370b1477f9d3f765220","txTime":"2022/12/09 12:35:25","block":8117467,"epoch":380,"slotNo":79023034,"epochSlotNo":226234,"stakeKey":"stake1ux7cqagyu5tvw97nr62pq9a7z9yxjwq7rhm03y7j6hjzh7qu75eth"},{"txId":56960055,"txHash":"15d7e024ce1910b9ee20183bb152e179fd1b0d291cb8aaebd1c437a4086328ed","txTime":"2022/12/09 12:34:53","block":8117465,"epoch":380,"slotNo":79023002,"epochSlotNo":226202,"stakeKey":"stake1u9uwrldhlunva9gtfamauu5m09g3tex845fszca7ssl79xqn52q9l"},{"txId":56960053,"txHash":"6f8e06a28e325d5e66aab2018208e8da5d0d236cad1220d1ac50c7d0b46f86d0","txTime":"2022/12/09 12:34:53","block":8117465,"epoch":380,"slotNo":79023002,"epochSlotNo":226202,"stakeKey":"stake1u9atpc6g8h57ee59u5z3n44dlqd5sx8cejw9dr5k05v4grqus0ype"},{"txId":56960012,"txHash":"9aecb902388c282facc4397dbe8420d0f8e851f10693bffe627d2f17e2e9607b","txTime":"2022/12/09 12:33:23","block":8117462,"epoch":380,"slotNo":79022912,"epochSlotNo":226112,"stakeKey":"stake1u9c27jl2znahrjxnxeyymqyamdc7r9cy6pxsc5qxzhrgf6ctk283p"},{"txId":56959884,"txHash":"4933bcd6121911ff5e296d75c000ec5dc7669a6daa7ab9b5a790a369c1206da5","txTime":"2022/12/09 12:29:45","block":8117450,"epoch":380,"slotNo":79022694,"epochSlotNo":225894,"stakeKey":"stake1uxqze720e9mrnegw98dvedspcq5qkcn2kz7u2htd50v4mhc8pqwv8"},{"txId":56959712,"txHash":"cbf3729fcdf2c4137d7a6a8f307e05c6f4dec3793c744060199fa5484a46a4a9","txTime":"2022/12/09 12:25:53","block":8117441,"epoch":380,"slotNo":79022462,"epochSlotNo":225662,"stakeKey":"stake1uyyejd5j2s93n6a6k4kdpdzpmrmaxwc3jcmy2lhef6lz3fs6fgq47"},{"txId":56959711,"txHash":"3b10e5ac04606e0b85ac1b6e6b9f95747cb0e344471bfd10624fdc574b78f6fa","txTime":"2022/12/09 12:25:53","block":8117441,"epoch":380,"slotNo":79022462,"epochSlotNo":225662,"stakeKey":"stake1u9wq5cd0kzx4r5tq6y9d8e4qc0r5s9glh4h6gf62w4rufwsayduys"},{"txId":56959587,"txHash":"1be7f17dcdc7476c6e9f791463c749019c49f4b4b76e67aaf45d7868076bbd6e","txTime":"2022/12/09 12:22:16","block":8117431,"epoch":380,"slotNo":79022245,"epochSlotNo":225445,"stakeKey":"stake1uyxrwuurdw8tswuadk02jqnen4jfy9m08s0lnfesnlxhpeqy0eryw"},{"txId":56959499,"txHash":"f412956387b10618206573991b1ff1572cae4a9cbd1a5e5a0d1ac91a217c7dc4","txTime":"2022/12/09 12:19:37","block":8117422,"epoch":380,"slotNo":79022086,"epochSlotNo":225286,"stakeKey":"stake1uy050h9l4f8cv24pm6u90tguwqlj32r2hacansztcldzw3sf2324k"},{"txId":56959234,"txHash":"49a1d061163cc25fb2d14fabc56dec8e9389ed41a8a800a71e09b4cb9444e97c","txTime":"2022/12/09 12:13:02","block":8117388,"epoch":380,"slotNo":79021691,"epochSlotNo":224891,"stakeKey":"stake1u9alcj2nwkk38rnp2cu3fn0ljjws6thzvrt7jfey0zac0msev4cv8"},{"txId":56959158,"txHash":"5a9efe96f67d20051ef5a2481ad4de550e436854ee5c220407ba4c95c89fb01f","txTime":"2022/12/09 12:11:16","block":8117374,"epoch":380,"slotNo":79021585,"epochSlotNo":224785,"stakeKey":"stake1uymfx8petgps76sav045xxuye4qf7se6eld07qc84hm0lrgyalc0e"},{"txId":56958855,"txHash":"56fe2435474f4a049d645dc8f20a1b8e0ff24308155fd550895d35d48daf278f","txTime":"2022/12/09 12:08:07","block":8117370,"epoch":380,"slotNo":79021396,"epochSlotNo":224596,"stakeKey":"stake1u9c4tut5dplsgrgdamg4jkfehk8jy0d0sd46fqrs79ge0acn3xmvd"},{"txId":56958657,"txHash":"57269d21ad327161c0de9bf4f327e4a31b645dd35eae468985507c7c7f6e9858","txTime":"2022/12/09 12:01:38","block":8117352,"epoch":380,"slotNo":79021007,"epochSlotNo":224207,"stakeKey":"stake1ux24rvepd9n56vyv3ue4y996sr7h5s2nq3q5qycp4wrwdmqqj9p38"},{"txId":56958613,"txHash":"66cff8310eef9ba8212447807bb3ea57048cdc2b9a4067face755d147d2168dd","txTime":"2022/12/09 12:00:00","block":8117346,"epoch":380,"slotNo":79020909,"epochSlotNo":224109,"stakeKey":"stake1u8q7ew8hmr8yjukxk7fp5utsgvf0j653uavm94eywdxe2rgc8qvgc"},{"txId":56958227,"txHash":"853384a85453cc90e0ddff0db978f19e71dfe5a7d6f7957842efe9fc2fd1dd01","txTime":"2022/12/09 11:50:06","block":8117320,"epoch":380,"slotNo":79020315,"epochSlotNo":223515,"stakeKey":"stake1u9mf98mh3yzn2tctumnak8hh5majjzt67rqmf75pd2f4n9qnwz37x"},{"txId":56958046,"txHash":"fa67a38d78281c13d2f433f25a5b5a8bca067b948a309f485fbe60acc1fed9e8","txTime":"2022/12/09 11:45:35","block":8117307,"epoch":380,"slotNo":79020044,"epochSlotNo":223244,"stakeKey":"stake1uxmd0f6wlldpyt4jtkhaxv3knctgxeqfxy49ahaj466n37gavrfpr"},{"txId":56958016,"txHash":"ff11ed1f67ae9ddc80de17770d5b98468167826ae66cf461f6835bb20233f92d","txTime":"2022/12/09 11:44:37","block":8117304,"epoch":380,"slotNo":79019986,"epochSlotNo":223186,"stakeKey":"stake1uyzd0jp8eakjdzaczk8kxfcvay646ntd6algtej7yfy42fg4aj90p"},{"txId":56957884,"txHash":"7a2bb576481da91c412c1041042425a78ed38ada03b83735956ae94d171281a7","txTime":"2022/12/09 11:41:10","block":8117291,"epoch":380,"slotNo":79019779,"epochSlotNo":222979,"stakeKey":"stake1u9sxedneks6nh2v8xswt4h8t8tvmvtuk9akg98767wrlncs0mds8s"},{"txId":56957497,"txHash":"23700b747fc71787d74be4d13dbf732fa814b93d0a9f3eb159d42c213cbd6507","txTime":"2022/12/09 11:29:24","block":8117266,"epoch":380,"slotNo":79019073,"epochSlotNo":222273,"stakeKey":"stake1u8tps9hee0g5s0zeqp5ylds43zhdvjv6tkpraj3hkadghlgnw7tm5"},{"txId":56957472,"txHash":"a986a3bd6828957ee9f69556b5803d2908a4446505a934df3f399b3c09a62a40","txTime":"2022/12/09 11:28:45","block":8117265,"epoch":380,"slotNo":79019034,"epochSlotNo":222234,"stakeKey":"stake1uy3jpjcg6hkcxpcusuw8l8ql3eqh2hksyev70ksp4xansrsgzkfqj"}],"totalItems":1618254,"totalPages":80913,"currentPage":0}