{"data":[{"txId":60201815,"txHash":"81c33165584e65e164fbf3e1d27bafdefaf23d0617caf5564adbe1883f0abb79","txTime":"2023/01/21 07:06:06","block":8297571,"epoch":389,"slotNo":82718475,"epochSlotNo":33675,"stakeKey":"stake1uyda9923km5crkzfwa2vvljefghq6greu86z8fjffgzksvq33c5m3"},{"txId":60201617,"txHash":"d6c3c5368bb8d16e54781447870adad25cac7cc8cc479e5c414faecf3a31a184","txTime":"2023/01/21 07:01:43","block":8297561,"epoch":389,"slotNo":82718212,"epochSlotNo":33412,"stakeKey":"stake1u95mwhmmch90pmk49tk94hy6tmdanaepznzsfm4y7g7d8aqeren2w"},{"txId":60201225,"txHash":"eb0de42989e7b981b051db9233f8b219930d8d2ab097b5a5daa80b345c77ddca","txTime":"2023/01/21 06:51:07","block":8297529,"epoch":389,"slotNo":82717576,"epochSlotNo":32776,"stakeKey":"stake1u8k709kvsj4nnflwg34zddue3mvp5cr95gwwuduy3gc9uvcdmcex7"},{"txId":60200854,"txHash":"f579fe58722b2a65910339da803cb3b419eb2078e5e6555c796f871a5f7f3c30","txTime":"2023/01/21 06:41:08","block":8297503,"epoch":389,"slotNo":82716977,"epochSlotNo":32177,"stakeKey":"stake1u9j4jk644e72uyf4qq9ncwdl8vwa4svhwcjy6e8ym7qy3wgh5nu3s"},{"txId":60200766,"txHash":"0b289e82e3351429176c711caec791da09f56616ebcebfa6a89a5d10546c61d4","txTime":"2023/01/21 06:39:15","block":8297496,"epoch":389,"slotNo":82716864,"epochSlotNo":32064,"stakeKey":"stake1u8xz9wsynmcprmfv9j3uvaf4nwp8p7l8e9slvte8gerplqcha49ft"},{"txId":60200337,"txHash":"d90df3a9dbc8d2f78d8f4ff115b0110aefeaa0dfda73d2bd98aa3c163f111196","txTime":"2023/01/21 06:28:27","block":8297465,"epoch":389,"slotNo":82716216,"epochSlotNo":31416,"stakeKey":"stake1u92ukccg6j4p59xfnky2un25s2vqhngwl2f8k3qcwhgr44sqmfpgg"},{"txId":60200312,"txHash":"9b0b0f1dbe81de28bf96da1bfc901bfe4ff42071a677f668e6af4bc6783a1edd","txTime":"2023/01/21 06:28:12","block":8297463,"epoch":389,"slotNo":82716201,"epochSlotNo":31401,"stakeKey":"stake1u9cusz3yvmtpyxgn6nngg2z26239vvx0w97v5efmk5s0vdq3lunwk"},{"txId":60198948,"txHash":"83ac18fae155d432b73ec2fcce8b1318b5152c462256f4953255b206c6b69d3f","txTime":"2023/01/21 05:59:31","block":8297367,"epoch":389,"slotNo":82714480,"epochSlotNo":29680,"stakeKey":"stake1uy9na9rkdpzswsl3cekt85d5yvv27vja47lw8e04qgja2kcdyef6u"},{"txId":60198484,"txHash":"8e0ba171b3f52fb36c8f6ba473397da6b68b6eb0abccfcfa7271b2a3fdd76f58","txTime":"2023/01/21 05:48:53","block":8297336,"epoch":389,"slotNo":82713842,"epochSlotNo":29042,"stakeKey":"stake1uxpj79t5j4glu3mmtv06s8ah756vz8nu7jeqsz8zd8z9jxsnlx7nq"},{"txId":60198095,"txHash":"146d9d033c13c5ce32587e164e7d413417fc0ba883d1a1cf24623b496e8d6cdd","txTime":"2023/01/21 05:38:57","block":8297312,"epoch":389,"slotNo":82713246,"epochSlotNo":28446,"stakeKey":"stake1uxxrhhqf6wxzehn6c6qrxu7lnhrrla520as9njn6mh2qphq834mx3"},{"txId":60198047,"txHash":"c91a34cc58c8b5d245c341fb3a1efb9f9e642cf3d33186d873df1126d7b3e534","txTime":"2023/01/21 05:38:09","block":8297308,"epoch":389,"slotNo":82713198,"epochSlotNo":28398,"stakeKey":"stake1u9nlf955g0trln4m0u43lcwc86krjheut35d3dfz2sd2xlcz7l3ke"},{"txId":60197872,"txHash":"cc99b8c52a37d7c6f5a31ad3155fd71291ea8ddd2008693b69e683135a8769e0","txTime":"2023/01/21 05:33:27","block":8297295,"epoch":389,"slotNo":82712916,"epochSlotNo":28116,"stakeKey":"stake1ux25fxx6smv0jegusrmx6uy77nmn4hm2rjke2jjsxt39pccaw7xky"},{"txId":60196873,"txHash":"eb289132d832aea2b27a4321e4c0133d5b4f40f1f271acea9954aa26c9f24d9d","txTime":"2023/01/21 05:10:33","block":8297235,"epoch":389,"slotNo":82711542,"epochSlotNo":26742,"stakeKey":"stake1u94y6sym3wxfvzpmtnc6zf538anqexmg84d66z5dc3al5hg4g472v"},{"txId":60196458,"txHash":"cefc17434f7cfe1dbc0f934cfce723eda331403b4727ce5b5a9fe03626a1ad3d","txTime":"2023/01/21 05:01:25","block":8297209,"epoch":389,"slotNo":82710994,"epochSlotNo":26194,"stakeKey":"stake1u9uud0rz2fhwjhch9mfmyjtjsdr93jrgl8tl67xf8mhvpcq5tawfw"},{"txId":60196093,"txHash":"461153bd00da0bd9b16147599af036b56607309b33ab31fd16cf926d1a295268","txTime":"2023/01/21 04:52:47","block":8297179,"epoch":389,"slotNo":82710476,"epochSlotNo":25676,"stakeKey":"stake1uysz64pntcvwq3mj7vjtgv7k9jx6elues089xh2sjgjqyegah90xd"},{"txId":60196029,"txHash":"bdc2921b2fcbb4d1d8f072d5b8a26235c702234f3edf79bd619c5a1a80e3be8c","txTime":"2023/01/21 04:51:28","block":8297174,"epoch":389,"slotNo":82710397,"epochSlotNo":25597,"stakeKey":"stake1u90qsq050gr6z4ta8xy8j3207xs0v6lxfpuh3nq0kvvdjjsaunrgt"},{"txId":60195786,"txHash":"f8a82d923bb0114df80595b7c9cf048e78031d10aa03908087fb023476f4d0a7","txTime":"2023/01/21 04:46:06","block":8297160,"epoch":389,"slotNo":82710075,"epochSlotNo":25275,"stakeKey":"stake1uyhy8tnr70e4gfyd80pzq5r6kqrxjquelefasmt5mehnepcq9x4qy"},{"txId":60195783,"txHash":"ee78dbeafe9525269df1f9a1caee26b4843843db1a19c0ad94c2befdcbb7afcc","txTime":"2023/01/21 04:45:57","block":8297159,"epoch":389,"slotNo":82710066,"epochSlotNo":25266,"stakeKey":"stake1uyj7z07rnv0uvhyp49qxlajcsg70402hre95pls3snxaq7gzthhpq"},{"txId":60195260,"txHash":"7dc3ace5601bec3c474c952176e4cf3298a1c3e72a38b25aed1f542d09c9a3de","txTime":"2023/01/21 04:35:08","block":8297124,"epoch":389,"slotNo":82709417,"epochSlotNo":24617,"stakeKey":"stake1u8lxp8z4mp64lwl4h3m5cy6p38hj2glzsef3amv8qvpl58gqqd6jr"},{"txId":60194673,"txHash":"a974282569497e670cda94238a0680afb7b9c96f810488707417de5e8a675c53","txTime":"2023/01/21 04:22:30","block":8297088,"epoch":389,"slotNo":82708659,"epochSlotNo":23859,"stakeKey":"stake1u86d4uycw7vqrsdzv6xwv8jys8vl3kq0aeg96c9pnkwtllc0fqv36"}],"totalItems":346402,"totalPages":17321,"currentPage":0}