{"data":[{"txId":58870692,"txHash":"3e535eb24b21e952ddad444b902aa3c052f83c830d6416527dcaefdfdd66649a","txTime":"2023/01/04 18:23:52","block":8227985,"epoch":385,"slotNo":81290341,"epochSlotNo":333541,"stakeKey":"stake1u8yw6utzfu4tgqyp7tjs3v0as0kx8hj0gyg0s8q3s8rltuqw05wmv"},{"txId":58870369,"txHash":"e43edde6512b69da86bb12a716f43d342666770697a4170f90d57b74d56495b9","txTime":"2023/01/04 18:19:04","block":8227976,"epoch":385,"slotNo":81290053,"epochSlotNo":333253,"stakeKey":"stake1uxysna3fqnpfpjfh63x868tm55aqh7gznqhvd632w4qvahqp07y0x"},{"txId":58870104,"txHash":"4c9c449c7f13a1f927db2c6694eeb744885b497a70d184409f850333f4d9d953","txTime":"2023/01/04 18:16:42","block":8227964,"epoch":385,"slotNo":81289911,"epochSlotNo":333111,"stakeKey":"stake1u9uvxcqjwer5q2ljh8gu9apedz80ylwvtjdt8vk3atapkwqe6mr44"},{"txId":58869995,"txHash":"2122e678076d83f8e657b2d7c5744a7caf1c57058e4b4b4a314cc0797c7fa2f2","txTime":"2023/01/04 18:16:02","block":8227961,"epoch":385,"slotNo":81289871,"epochSlotNo":333071,"stakeKey":"stake1uxv5y9pwdducspejrlvdh24awu0a02xx8nq05dsa7ya22wq3sq8hk"},{"txId":58869560,"txHash":"8b61817def5c98529796bf6a077ab4fc7f7e15b8e06db22632abf55adb8f2d71","txTime":"2023/01/04 18:11:38","block":8227948,"epoch":385,"slotNo":81289607,"epochSlotNo":332807,"stakeKey":"stake1u92se5r6vazw0ds44fqexdmz24phdscxmy8dfwan0d5a8jq5s7q4u"},{"txId":58869458,"txHash":"5619ab2220e4452251bf2e6852cd6c36248d979473c119ef041e1a08f7d7d48d","txTime":"2023/01/04 18:10:52","block":8227945,"epoch":385,"slotNo":81289561,"epochSlotNo":332761,"stakeKey":"stake1u9yxmfhczs9w43jlwls9t05vynwzvq05mux0982s8kahq5c5p238j"},{"txId":58869416,"txHash":"d3c938199bfc3796762d35d534d4977ecc4d9afa34bfbbfd1f2cdff232ca9d68","txTime":"2023/01/04 18:10:08","block":8227944,"epoch":385,"slotNo":81289517,"epochSlotNo":332717,"stakeKey":"stake1uxq8zvkzwhks2ytkxu0s93wkjk8cts76gspwt4f4l3zgfcg5cr47r"},{"txId":58867966,"txHash":"cd4561e8fb06dd2694b30fd9ed7729f288316cbe464107939914bae3d82a137b","txTime":"2023/01/04 17:55:34","block":8227895,"epoch":385,"slotNo":81288643,"epochSlotNo":331843,"stakeKey":"stake1u9ss7v38djnhnr0zg68gt20k8kqa0k5st4279sultprg0vcr6ak69"},{"txId":58867895,"txHash":"39675a08605fac6b5cb8007cccef70e9d21a1c65ded0a90a7ae3f60546c5a37c","txTime":"2023/01/04 17:55:02","block":8227893,"epoch":385,"slotNo":81288611,"epochSlotNo":331811,"stakeKey":"stake1u9t8q8z6ndlvqzzuucg344pyvhkut60ue8harmx96qa8txcpcnle5"},{"txId":58867317,"txHash":"9f9d6e04657de48f874b7773b0492cb17c745d4ce28934381dc286d76bb6e39c","txTime":"2023/01/04 17:47:35","block":8227880,"epoch":385,"slotNo":81288164,"epochSlotNo":331364,"stakeKey":"stake1uyxdje92khq6tsg6xwzkjrx8tmqe5qknnuqgqud5r9kc8kc645ver"},{"txId":58865829,"txHash":"5bf3a26942d3933040084c7d518deaa9c15021462be11b69c292db5de6ba523c","txTime":"2023/01/04 17:30:06","block":8227826,"epoch":385,"slotNo":81287115,"epochSlotNo":330315,"stakeKey":"stake1uyqqz7dcg98uvk6gnl6g3mceseju60ss5gjnagu39xp2fqqqyrra9"},{"txId":58865798,"txHash":"2de3e2d440351f1bd6062fcb08b0902710d22cd13962054d999dac5b85ccd7b2","txTime":"2023/01/04 17:29:12","block":8227825,"epoch":385,"slotNo":81287061,"epochSlotNo":330261,"stakeKey":"stake1uyg6w4cd66mxvpsa7ksk45dc2p45e36rf58r536arwzmdxcdxyvh5"},{"txId":58865587,"txHash":"e283fac45e98f988d34faf9cfce21d36dd71d684b0e0d97308d442e072cfa617","txTime":"2023/01/04 17:26:58","block":8227817,"epoch":385,"slotNo":81286927,"epochSlotNo":330127,"stakeKey":"stake1u9nrpeu2m3w62yuzek86u3xwhd5rfklyjfdml2fc7armkfgjyn04t"},{"txId":58864010,"txHash":"d9b84c48197e0149f96d99ee874a5ffb382e6f7a7b939a03bb3912bf0807fb1e","txTime":"2023/01/04 17:06:18","block":8227758,"epoch":385,"slotNo":81285687,"epochSlotNo":328887,"stakeKey":"stake1uyzhryw2xa9y9r8hc8xchn20fw2j4jdgfm6cnh0ty9c7mkq7jdz2x"},{"txId":58863579,"txHash":"d78db164dd7184f13df1abc0eb1c414b3cae5e34993c64f8fbea22374c83387f","txTime":"2023/01/04 17:01:55","block":8227736,"epoch":385,"slotNo":81285424,"epochSlotNo":328624,"stakeKey":"stake1u9q46z3xaaprv2d8l0mpldllfv6kg7z7ms0v6ygxn7v872gnsgk3r"},{"txId":58863532,"txHash":"7533848ec617b67ad3fe2b87ac17a529cb836d14802e6431bb4b27cc5f2d8f11","txTime":"2023/01/04 17:01:24","block":8227735,"epoch":385,"slotNo":81285393,"epochSlotNo":328593,"stakeKey":"stake1uyuuhnvdgc8x7crlwlx5dqgedsp5yt4hj29ervljmer404q6qqqt5"},{"txId":58863472,"txHash":"3bb321fcea6017496a9225e3877e20f9b40095f201111b200749e91133f07f6e","txTime":"2023/01/04 17:00:49","block":8227732,"epoch":385,"slotNo":81285358,"epochSlotNo":328558,"stakeKey":"stake1uyy9lyjyqfw997m74t7z9asm5wxp4pa3ddpjxnucfgq5ewqf8e95j"},{"txId":58863373,"txHash":"47adebe7848cbb20592ae29232b86659f92f64e98d8db85778ce14dbc74ec11e","txTime":"2023/01/04 16:58:57","block":8227728,"epoch":385,"slotNo":81285246,"epochSlotNo":328446,"stakeKey":"stake1uygzva6ujxncgkrfxrvu3zu6t7k3pwlyu7a6pks5ey040rs0wfqr2"},{"txId":58863327,"txHash":"a5ae8921e216e0dbbe9825e6205bf3519721383082df77f4afb6ef978a5e2fad","txTime":"2023/01/04 16:58:04","block":8227724,"epoch":385,"slotNo":81285193,"epochSlotNo":328393,"stakeKey":"stake1uxh4g74ze5pm3e9cflz9juamskdjd3dt5ya68wsqesw5s2sdx89we"},{"txId":58863120,"txHash":"a93fcdba95bc82fbe81ef21758e865a5fc7b0d43f8f134397a05eca8d05081ec","txTime":"2023/01/04 16:54:45","block":8227714,"epoch":385,"slotNo":81284994,"epochSlotNo":328194,"stakeKey":"stake1uyhackc3nfhj7m6y37zxtkas3f8576072u34dyh78q25r7s4scmun"}],"totalItems":341825,"totalPages":17092,"currentPage":0}