{"data":[{"hash":"b993b42af503ee3af2e405350528761e9bee7f47391d04a8accea7ade0e68613","blockNo":371829,"blockHash":"1fb8c306e75ebb4f3b53496a1f03bb7a80e3a6b152a25787e276f8bb51be68ab","epochNo":37,"epochSlotNo":401950,"slot":14744350,"time":"2022/12/07 15:39:10","addressesInput":["addr_test1vpvz8req5wn4serhfsg9ha9wg7rf7jsr5hels2llkacq5gcq4utja"],"addressesOutput":["addr_test1vpvz8req5wn4serhfsg9ha9wg7rf7jsr5hels2llkacq5gcq4utja","addr_test1vpvz8req5wn4serhfsg9ha9wg7rf7jsr5hels2llkacq5gcq4utja"],"fee":300000,"totalOutput":2500000,"tokens":[]},{"hash":"5f57813a37ba1816e9e47017397cd76322868819f8adf7dac6800704f2bf589f","blockNo":371829,"blockHash":"1fb8c306e75ebb4f3b53496a1f03bb7a80e3a6b152a25787e276f8bb51be68ab","epochNo":37,"epochSlotNo":401950,"slot":14744350,"time":"2022/12/07 15:39:10","addressesInput":["addr_test1vpvz8req5wn4serhfsg9ha9wg7rf7jsr5hels2llkacq5gcq4utja"],"addressesOutput":["addr_test1vpvz8req5wn4serhfsg9ha9wg7rf7jsr5hels2llkacq5gcq4utja","addr_test1vpvz8req5wn4serhfsg9ha9wg7rf7jsr5hels2llkacq5gcq4utja"],"fee":300000,"totalOutput":4300000,"tokens":[]},{"hash":"2b947240eb7d9c80b0eb8d7c6ca59e33bd7e6fc26295544ee6626e22305abcad","blockNo":371829,"blockHash":"1fb8c306e75ebb4f3b53496a1f03bb7a80e3a6b152a25787e276f8bb51be68ab","epochNo":37,"epochSlotNo":401950,"slot":14744350,"time":"2022/12/07 15:39:10","addressesInput":["addr_test1vpvz8req5wn4serhfsg9ha9wg7rf7jsr5hels2llkacq5gcq4utja"],"addressesOutput":["addr_test1vpvz8req5wn4serhfsg9ha9wg7rf7jsr5hels2llkacq5gcq4utja","addr_test1vpvz8req5wn4serhfsg9ha9wg7rf7jsr5hels2llkacq5gcq4utja"],"fee":300000,"totalOutput":6100000,"tokens":[]},{"hash":"ae69fcbc4cde46828896c80bb8a0061ca29c002b49688c04af59930356c62d67","blockNo":371829,"blockHash":"1fb8c306e75ebb4f3b53496a1f03bb7a80e3a6b152a25787e276f8bb51be68ab","epochNo":37,"epochSlotNo":401950,"slot":14744350,"time":"2022/12/07 15:39:10","addressesInput":["addr_test1vpvz8req5wn4serhfsg9ha9wg7rf7jsr5hels2llkacq5gcq4utja"],"addressesOutput":["addr_test1vpvz8req5wn4serhfsg9ha9wg7rf7jsr5hels2llkacq5gcq4utja","addr_test1vpvz8req5wn4serhfsg9ha9wg7rf7jsr5hels2llkacq5gcq4utja"],"fee":300000,"totalOutput":7900000,"tokens":[]},{"hash":"8748c13ba85a4e9776e3b9b7770b94f8ee25d275af180feaa9d567ec7aa0b249","blockNo":371829,"blockHash":"1fb8c306e75ebb4f3b53496a1f03bb7a80e3a6b152a25787e276f8bb51be68ab","epochNo":37,"epochSlotNo":401950,"slot":14744350,"time":"2022/12/07 15:39:10","addressesInput":["addr_test1vpvz8req5wn4serhfsg9ha9wg7rf7jsr5hels2llkacq5gcq4utja"],"addressesOutput":["addr_test1vpvz8req5wn4serhfsg9ha9wg7rf7jsr5hels2llkacq5gcq4utja","addr_test1vpvz8req5wn4serhfsg9ha9wg7rf7jsr5hels2llkacq5gcq4utja"],"fee":300000,"totalOutput":9700000,"tokens":[]},{"hash":"bba4418903ce0aceba370ecc961308f3be148cd4d7ec10bf679ea99609203878","blockNo":371829,"blockHash":"1fb8c306e75ebb4f3b53496a1f03bb7a80e3a6b152a25787e276f8bb51be68ab","epochNo":37,"epochSlotNo":401950,"slot":14744350,"time":"2022/12/07 15:39:10","addressesInput":["addr_test1vpvz8req5wn4serhfsg9ha9wg7rf7jsr5hels2llkacq5gcq4utja"],"addressesOutput":["addr_test1vpvz8req5wn4serhfsg9ha9wg7rf7jsr5hels2llkacq5gcq4utja","addr_test1vpvz8req5wn4serhfsg9ha9wg7rf7jsr5hels2llkacq5gcq4utja"],"fee":300000,"totalOutput":11500000,"tokens":[]},{"hash":"2859d7a4471d4ff169d31c5cd9902b72f8f9b761eada62eae82a9be295f4cde0","blockNo":371829,"blockHash":"1fb8c306e75ebb4f3b53496a1f03bb7a80e3a6b152a25787e276f8bb51be68ab","epochNo":37,"epochSlotNo":401950,"slot":14744350,"time":"2022/12/07 15:39:10","addressesInput":["addr_test1vpvz8req5wn4serhfsg9ha9wg7rf7jsr5hels2llkacq5gcq4utja"],"addressesOutput":["addr_test1vpvz8req5wn4serhfsg9ha9wg7rf7jsr5hels2llkacq5gcq4utja","addr_test1vpvz8req5wn4serhfsg9ha9wg7rf7jsr5hels2llkacq5gcq4utja"],"fee":300000,"totalOutput":13300000,"tokens":[]},{"hash":"1f6ae66412b0e99ceb4b1c9ca91be5e64f39f8abf4f5e2ad43aa3947cc4ca3df","blockNo":371829,"blockHash":"1fb8c306e75ebb4f3b53496a1f03bb7a80e3a6b152a25787e276f8bb51be68ab","epochNo":37,"epochSlotNo":401950,"slot":14744350,"time":"2022/12/07 15:39:10","addressesInput":["addr_test1vpvz8req5wn4serhfsg9ha9wg7rf7jsr5hels2llkacq5gcq4utja"],"addressesOutput":["addr_test1vpvz8req5wn4serhfsg9ha9wg7rf7jsr5hels2llkacq5gcq4utja","addr_test1vpvz8req5wn4serhfsg9ha9wg7rf7jsr5hels2llkacq5gcq4utja"],"fee":300000,"totalOutput":15100000,"tokens":[]},{"hash":"6def8a7267299e6f711e714cada147621202f6cb0672eb19b42a8518ce6d884f","blockNo":371829,"blockHash":"1fb8c306e75ebb4f3b53496a1f03bb7a80e3a6b152a25787e276f8bb51be68ab","epochNo":37,"epochSlotNo":401950,"slot":14744350,"time":"2022/12/07 15:39:10","addressesInput":["addr_test1vpvz8req5wn4serhfsg9ha9wg7rf7jsr5hels2llkacq5gcq4utja"],"addressesOutput":["addr_test1vpvz8req5wn4serhfsg9ha9wg7rf7jsr5hels2llkacq5gcq4utja","addr_test1vpvz8req5wn4serhfsg9ha9wg7rf7jsr5hels2llkacq5gcq4utja"],"fee":300000,"totalOutput":16900000,"tokens":[]},{"hash":"e91947b8a3a5f172eaa5204128510911461460b6b2f990f3633a2b3a8baf9b2f","blockNo":371829,"blockHash":"1fb8c306e75ebb4f3b53496a1f03bb7a80e3a6b152a25787e276f8bb51be68ab","epochNo":37,"epochSlotNo":401950,"slot":14744350,"time":"2022/12/07 15:39:10","addressesInput":["addr_test1vpvz8req5wn4serhfsg9ha9wg7rf7jsr5hels2llkacq5gcq4utja"],"addressesOutput":["addr_test1vpvz8req5wn4serhfsg9ha9wg7rf7jsr5hels2llkacq5gcq4utja","addr_test1vpvz8req5wn4serhfsg9ha9wg7rf7jsr5hels2llkacq5gcq4utja"],"fee":300000,"totalOutput":18700000,"tokens":[]},{"hash":"8dc9e54faf1fc10056238c547784b2e66784500a0432547f33a4d65966f84f53","blockNo":371829,"blockHash":"1fb8c306e75ebb4f3b53496a1f03bb7a80e3a6b152a25787e276f8bb51be68ab","epochNo":37,"epochSlotNo":401950,"slot":14744350,"time":"2022/12/07 15:39:10","addressesInput":["addr_test1vpvz8req5wn4serhfsg9ha9wg7rf7jsr5hels2llkacq5gcq4utja"],"addressesOutput":["addr_test1vpvz8req5wn4serhfsg9ha9wg7rf7jsr5hels2llkacq5gcq4utja","addr_test1vpvz8req5wn4serhfsg9ha9wg7rf7jsr5hels2llkacq5gcq4utja"],"fee":300000,"totalOutput":20500000,"tokens":[]},{"hash":"c5484c6f7956c893de6dae77f78a9670086d006f5e27cb172311383559da2fdd","blockNo":371829,"blockHash":"1fb8c306e75ebb4f3b53496a1f03bb7a80e3a6b152a25787e276f8bb51be68ab","epochNo":37,"epochSlotNo":401950,"slot":14744350,"time":"2022/12/07 15:39:10","addressesInput":["addr_test1vpvz8req5wn4serhfsg9ha9wg7rf7jsr5hels2llkacq5gcq4utja"],"addressesOutput":["addr_test1vpvz8req5wn4serhfsg9ha9wg7rf7jsr5hels2llkacq5gcq4utja","addr_test1vpvz8req5wn4serhfsg9ha9wg7rf7jsr5hels2llkacq5gcq4utja"],"fee":300000,"totalOutput":22300000,"tokens":[]},{"hash":"93e12a9a86d91c91352484bf5a64db55b9ef70613461f87178da935930528e5a","blockNo":371829,"blockHash":"1fb8c306e75ebb4f3b53496a1f03bb7a80e3a6b152a25787e276f8bb51be68ab","epochNo":37,"epochSlotNo":401950,"slot":14744350,"time":"2022/12/07 15:39:10","addressesInput":["addr_test1vpvz8req5wn4serhfsg9ha9wg7rf7jsr5hels2llkacq5gcq4utja"],"addressesOutput":["addr_test1vpvz8req5wn4serhfsg9ha9wg7rf7jsr5hels2llkacq5gcq4utja","addr_test1vpvz8req5wn4serhfsg9ha9wg7rf7jsr5hels2llkacq5gcq4utja"],"fee":300000,"totalOutput":24100000,"tokens":[]},{"hash":"25f065cbc263cef129c4af354a6fe41bc22f272f316bd244767c4ea20bca51ae","blockNo":371829,"blockHash":"1fb8c306e75ebb4f3b53496a1f03bb7a80e3a6b152a25787e276f8bb51be68ab","epochNo":37,"epochSlotNo":401950,"slot":14744350,"time":"2022/12/07 15:39:10","addressesInput":["addr_test1vpvz8req5wn4serhfsg9ha9wg7rf7jsr5hels2llkacq5gcq4utja"],"addressesOutput":["addr_test1vpvz8req5wn4serhfsg9ha9wg7rf7jsr5hels2llkacq5gcq4utja","addr_test1vpvz8req5wn4serhfsg9ha9wg7rf7jsr5hels2llkacq5gcq4utja"],"fee":300000,"totalOutput":25900000,"tokens":[]},{"hash":"bf7e75bc565ef6f5e00e6de0376387d9e468978ba293bbcf12ce9536b22b87d7","blockNo":371829,"blockHash":"1fb8c306e75ebb4f3b53496a1f03bb7a80e3a6b152a25787e276f8bb51be68ab","epochNo":37,"epochSlotNo":401950,"slot":14744350,"time":"2022/12/07 15:39:10","addressesInput":["addr_test1vpvz8req5wn4serhfsg9ha9wg7rf7jsr5hels2llkacq5gcq4utja"],"addressesOutput":["addr_test1vpvz8req5wn4serhfsg9ha9wg7rf7jsr5hels2llkacq5gcq4utja","addr_test1vpvz8req5wn4serhfsg9ha9wg7rf7jsr5hels2llkacq5gcq4utja"],"fee":300000,"totalOutput":27700000,"tokens":[]},{"hash":"3c8afa97d21ff02da2a51754ff6b7182f1bb9257690d10f52d93369d0baddbe7","blockNo":371829,"blockHash":"1fb8c306e75ebb4f3b53496a1f03bb7a80e3a6b152a25787e276f8bb51be68ab","epochNo":37,"epochSlotNo":401950,"slot":14744350,"time":"2022/12/07 15:39:10","addressesInput":["addr_test1vpvz8req5wn4serhfsg9ha9wg7rf7jsr5hels2llkacq5gcq4utja"],"addressesOutput":["addr_test1vpvz8req5wn4serhfsg9ha9wg7rf7jsr5hels2llkacq5gcq4utja","addr_test1vpvz8req5wn4serhfsg9ha9wg7rf7jsr5hels2llkacq5gcq4utja"],"fee":300000,"totalOutput":29500000,"tokens":[]},{"hash":"13fc49255025c552e7afef4e41a0dea2aef70d6eee919654b740d1d02a88c932","blockNo":371829,"blockHash":"1fb8c306e75ebb4f3b53496a1f03bb7a80e3a6b152a25787e276f8bb51be68ab","epochNo":37,"epochSlotNo":401950,"slot":14744350,"time":"2022/12/07 15:39:10","addressesInput":["addr_test1vpvz8req5wn4serhfsg9ha9wg7rf7jsr5hels2llkacq5gcq4utja"],"addressesOutput":["addr_test1vpvz8req5wn4serhfsg9ha9wg7rf7jsr5hels2llkacq5gcq4utja","addr_test1vpvz8req5wn4serhfsg9ha9wg7rf7jsr5hels2llkacq5gcq4utja"],"fee":300000,"totalOutput":31300000,"tokens":[]},{"hash":"41a2eaf2b1172104d484fdf164aa569b3a33b3346828256fd80d4c1c23a5731b","blockNo":371829,"blockHash":"1fb8c306e75ebb4f3b53496a1f03bb7a80e3a6b152a25787e276f8bb51be68ab","epochNo":37,"epochSlotNo":401950,"slot":14744350,"time":"2022/12/07 15:39:10","addressesInput":["addr_test1vpvz8req5wn4serhfsg9ha9wg7rf7jsr5hels2llkacq5gcq4utja"],"addressesOutput":["addr_test1vpvz8req5wn4serhfsg9ha9wg7rf7jsr5hels2llkacq5gcq4utja","addr_test1vpvz8req5wn4serhfsg9ha9wg7rf7jsr5hels2llkacq5gcq4utja"],"fee":300000,"totalOutput":33100000,"tokens":[]},{"hash":"89028f80908daf710bb444260e37fa49dac2e2ac8a6d8412e13e2f36190c7b10","blockNo":371829,"blockHash":"1fb8c306e75ebb4f3b53496a1f03bb7a80e3a6b152a25787e276f8bb51be68ab","epochNo":37,"epochSlotNo":401950,"slot":14744350,"time":"2022/12/07 15:39:10","addressesInput":["addr_test1vpvz8req5wn4serhfsg9ha9wg7rf7jsr5hels2llkacq5gcq4utja"],"addressesOutput":["addr_test1vpvz8req5wn4serhfsg9ha9wg7rf7jsr5hels2llkacq5gcq4utja","addr_test1vpvz8req5wn4serhfsg9ha9wg7rf7jsr5hels2llkacq5gcq4utja"],"fee":300000,"totalOutput":34900000,"tokens":[]},{"hash":"333fab8e9bee64691daa9a1a63bedb198d7df2501529697664f06c1317bb9c9c","blockNo":371829,"blockHash":"1fb8c306e75ebb4f3b53496a1f03bb7a80e3a6b152a25787e276f8bb51be68ab","epochNo":37,"epochSlotNo":401950,"slot":14744350,"time":"2022/12/07 15:39:10","addressesInput":["addr_test1vpvz8req5wn4serhfsg9ha9wg7rf7jsr5hels2llkacq5gcq4utja"],"addressesOutput":["addr_test1vpvz8req5wn4serhfsg9ha9wg7rf7jsr5hels2llkacq5gcq4utja","addr_test1vpvz8req5wn4serhfsg9ha9wg7rf7jsr5hels2llkacq5gcq4utja"],"fee":300000,"totalOutput":36700000,"tokens":[]}],"totalItems":11081,"totalPages":555,"currentPage":0}