{"data":[{"address":"addr1z8snz7c4974vzdpxu65ruphl3zjdvtxw8strf2c2tmqnxz2j2c79gy9l76sdg0xwhd7r0c0kna0tycz4y5s6mlenh8pq0xmsha","txCount":35021,"balance":66938668783920},{"address":"addr1w9qzpelu9hn45pefc0xr4ac4kdxeswq7pndul2vuj59u8tqaxdznu","txCount":228288,"balance":35763772499585},{"address":"addr1w8pydstdswmdqmg2rdt59dzql3zgfp9pt8sulnjgalycwdsj9js7w","txCount":25831,"balance":35475987872800},{"address":"addr1wx6ax0qg77hkmn20x23wccc2j7k0yzgkttrajfyq6d6x79snl09fl","txCount":3,"balance":6876257000000},{"address":"addr1w8xdhraed42a93dnsjz3qjqma6wvn3z0q8keptmhv8u80tqjkyzwj","txCount":3,"balance":2753962000000},{"address":"addr1wyh9nq6fjw72mqud6w7yfe0h4tv04fxdfgcz9akczxgey8c649vxx","txCount":3,"balance":2637603000000},{"address":"addr1wy56uwl9mn4ec5vzg386ka2sq2rmjug2q0fm5ru2rhefzxstkpasl","txCount":3,"balance":2272888495181},{"address":"addr1wyuqjmjxvguhtcrvdjwlvmchs9t2rfxesesap0cyjyfxahqq0p70x","txCount":7,"balance":2201199438147},{"address":"addr1w85ja4qy78usxjgmsnzvkdsh6n0xv7r4498uyr7ktjyppjcc4tyre","txCount":33,"balance":2034000000000},{"address":"addr1wx60hn6dy2mu3jms3pqy7f3hz0zasfkegq2rgxyek7xdceg0de86e","txCount":21,"balance":2000000000000},{"address":"addr1wxpd4fuztlj737fwft099dgyfkhmwgfc8dtzlvnw7f8g7hgn6vchg","txCount":23,"balance":1999990000000},{"address":"addr1w9dsssx4gr8p8xc99s7wjyqv9a8lnpvtr5xyugueqrtddrcu79grx","txCount":50,"balance":1688479532328},{"address":"addr1w9k7eezd58tzeegnjdk87t5r33pjm6efey4wgygpv9r0h7sw7ka40","txCount":4,"balance":1500000000000},{"address":"addr1wy27zaduhx9l5h3glr0026aw08xxv7m9d6jt5cguwhs6l8qcr7cwm","txCount":4,"balance":1300000000000},{"address":"addr1wyg9yddmt2lk46jr2m73z6n6qkcrcykwuxcumd4fdhd5ndgcuxsxe","txCount":3,"balance":1290000000000},{"address":"addr1wxhg53qhqpd9xyucw0m2e3acvuhdh4qqwd38fmxnhsn2ggqucac6r","txCount":7,"balance":1250000000000},{"address":"addr1w85y2jdkn68rkdj56u74tdy84helf57fs5vgxau42n8cdeqk3tnd5","txCount":41,"balance":1200000000000},{"address":"addr1w9lrfu6egwy9rsygmmesr7vv247je2090k0xt2gwv5mfakqa2yzpt","txCount":3,"balance":1155080000000},{"address":"addr1w8cz4zggye4y36g2e5ylj7esygz5jp0xys8384sx8ngx7wsae9207","txCount":3,"balance":1000158000000},{"address":"addr1w9vgwaev8upuh9us2vw240zkmx57f2tumuc7ka4yr0k7ngqywfxyp","txCount":1,"balance":1000000000000}],"totalItems":4855,"totalPages":243,"currentPage":0}