{"data":[{"hash":"99e688d81c4fc33f8a0bcedd668127551905b0e134421c11e06f605f2955f290","blockNo":8068548,"blockHash":"70b80e22e63e5ffa89c54c8ffbe826f328d181e21bcc8749a3f3134224f65bf1","epochNo":378,"epochSlotNo":87515,"slot":78020315,"time":"2022/11/27 22:03:26","addressesInput":["addr1qxvfczek4uzgsdd4trqg6qu62r8ms2akfcm78km53hku6jycns9ndtcy3q6m2kxq35pe55x0hq4mvn3hu0dhfr0de4yq577lxc","addr1qxvfczek4uzgsdd4trqg6qu62r8ms2akfcm78km53hku6jycns9ndtcy3q6m2kxq35pe55x0hq4mvn3hu0dhfr0de4yq577lxc"],"addressesOutput":["addr1qxvfczek4uzgsdd4trqg6qu62r8ms2akfcm78km53hku6jycns9ndtcy3q6m2kxq35pe55x0hq4mvn3hu0dhfr0de4yq577lxc","addr1qxvfczek4uzgsdd4trqg6qu62r8ms2akfcm78km53hku6jycns9ndtcy3q6m2kxq35pe55x0hq4mvn3hu0dhfr0de4yq577lxc"],"fee":237985,"totalOutput":2162486005526,"tokens":[]},{"hash":"fd460ff1b1b296d3b7c53d7285da890db465e1a3eb554066a472a933f002f90d","blockNo":8068171,"blockHash":"3b9977c368741129dfffba8ed8266e5be1c54896a0ea4daeee7c6057967c82f3","epochNo":378,"epochSlotNo":79745,"slot":78012545,"time":"2022/11/27 19:53:56","addressesInput":["addr1q93vyug8m3qrqc5qr9u28hzkvdpzyvmez85f58l8y9t2502xrdyd4ezx43vxjgw0dvz6dzy36jku3ptrr9mcv5dftkhsx6f5gt"],"addressesOutput":["addr1v9ywm0h3r8cnxrs04gfy7c3s2j44utjyvn5ldjdca0c2ltccgqdes","addr1q93vyug8m3qrqc5qr9u28hzkvdpzyvmez85f58l8y9t2502xrdyd4ezx43vxjgw0dvz6dzy36jku3ptrr9mcv5dftkhsx6f5gt"],"fee":370895,"totalOutput":37803695,"tokens":[]},{"hash":"9de7f6bcc70db161b2534e0ef3b260d2fdffef3bb590c0e0f39a864469d51a9a","blockNo":8068097,"blockHash":"d665aa4863d45785b16778c7cc7e07d40a563b36c05b6166eac0c52b23584339","epochNo":378,"epochSlotNo":78138,"slot":78010938,"time":"2022/11/27 19:27:09","addressesInput":["addr1q93vyug8m3qrqc5qr9u28hzkvdpzyvmez85f58l8y9t2502xrdyd4ezx43vxjgw0dvz6dzy36jku3ptrr9mcv5dftkhsx6f5gt","addr1q93vyug8m3qrqc5qr9u28hzkvdpzyvmez85f58l8y9t2502xrdyd4ezx43vxjgw0dvz6dzy36jku3ptrr9mcv5dftkhsx6f5gt"],"addressesOutput":["addr1q93vyug8m3qrqc5qr9u28hzkvdpzyvmez85f58l8y9t2502xrdyd4ezx43vxjgw0dvz6dzy36jku3ptrr9mcv5dftkhsx6f5gt","addr1w9k9jjqmy0hmm3ytt6k57v094x78xcymyg8j2xgkxju5y3qxz4y0w","addr1qxsgae4x0z3q0hjjqcwya7vzp9f9ex52lrly0wadmfgvhpfyzttqmp0evfcrwxkda77m5lg8c9ta2aafdf83jxyvhw3sgp9v30"],"fee":404069,"totalOutput":41596970,"tokens":[]},{"hash":"ad9693c920af5afb2b03d3d00c5a4d3b30572291ba698bac1689e5aada1c7e05","blockNo":8068040,"blockHash":"613eb448053330d625c6ec565bac1b2a60dee9f72b0adcdd0f2152c8f1b15596","epochNo":378,"epochSlotNo":76812,"slot":78009612,"time":"2022/11/27 19:05:03","addressesInput":["DdzFFzCqrhsrmUqube9nT9CCEfFcyqmqmAKRA6CLPWrvRFaWwvnTpz3xEmbZCV7WQ43tJotyNno8dSDRv6n9eaKcwBM7BJ7g1fCMQLmu","DdzFFzCqrhsos3qLYCYLSb8KwyrBk2pLXYTBqx7k5F8dnYsZk7HXoCfsUeV3RqeC2gg1ZejoF6r1snJpjfVEoQaqbZ3fv7sFbtzZYRxu"],"addressesOutput":["addr1q9atjfpqwdtg7ytz0pz9zcaqvx8zr2uv6ysvc4csqynr683dzefudzxhadht99nh8gv4l3z93d486ygllgxuh2drrrpsdw6fws","DdzFFzCqrhsnrLvHnH9FTDG2VyD3nkEtRffoUhFddkurrNHp2wrBBfwrcJbozMiKzuaKWxJo9rzcXhdx7Dhk2fzG1pB9nsjkJfbqFuCP"],"fee":364205,"totalOutput":2762086049,"tokens":[]},{"hash":"e9e6a8e6767d07caa96644476119733db5228c9bf6371d95d0a37aa0d454d41f","blockNo":8067971,"blockHash":"42eeb0e22c44b1e4044cbdd5025b609e2fcd8f3162e852337ade88de0189d3e7","epochNo":378,"epochSlotNo":75849,"slot":78008649,"time":"2022/11/27 18:49:00","addressesInput":["DdzFFzCqrht5p1zxugvY4sQrErmnSinzKT1dcvjr3jKmK5cLiLbJcebRknkw81mFj3uP3dUsbcxQtSmiheTPk4ZjtT2nT9HTf36TE1yf","DdzFFzCqrhspFKopCboYWfjc1pu9EqzXebism1aXCVE1ThoR2wKbPojJrWoGrH5dhPWKhPEUyCADS9DDfBGU266p8pxcswMDHWVZ2tVY","DdzFFzCqrhtCEYQfDum5AtWrHMULo3PH2AmPMjrsGNg12ErCcr5qqytpPUkAbtAygesUi6KVatURq1thw7PXPLBd2RLGjkS3XUhSsgQm","DdzFFzCqrhspFKopCboYWfjc1pu9EqzXebism1aXCVE1ThoR2wKbPojJrWoGrH5dhPWKhPEUyCADS9DDfBGU266p8pxcswMDHWVZ2tVY","DdzFFzCqrhswURxuxgnGKZTR5UxoPWkybQADVigMq1sYaUJzxazGzEQwTDQfs8bFDDwEjyJbXnR2TwQunPSGfZs8mFhgHCXzXQDomiwj","DdzFFzCqrht5p1zxugvY4sQrErmnSinzKT1dcvjr3jKmK5cLiLbJcebRknkw81mFj3uP3dUsbcxQtSmiheTPk4ZjtT2nT9HTf36TE1yf","DdzFFzCqrht47TSSryQ4sqYtQgax6vxFve58m7LCPZUyWKtmPE22xvx5DqJPRmxMuMZ95XXpHo73hpEMb1MWg5FcxPKLHDpbVvneQZku","DdzFFzCqrhsn33oPi3t8DfmAFon18uaNdFCXgrxxBeLr3pa9AXAg55RMhUxAYSRvWZUqAzedyU97vNvS947YDuFHQGGzMc6WjF6BHh3M","DdzFFzCqrhsnuDBkLBaivumfQMp6SjwPXwjg3GxFGegN8SgpncZzRocUyDzraJoMSxNoPXQB7SgW7AisWAK7mn41uazK7ZZ8efG7KZsF","DdzFFzCqrht31yuYfvVQ53vvwhRGk78qJWJMNT6sppUL3qyXQyA75XrXRK485PsbqAcfSb6JPod6ZphWGfPx6svp3ERVtVQ1oTvQLeoQ","DdzFFzCqrhssmeBjJCvwAe3EqkeuWrwXnDqpCrHSapELGe9hici1Dffqww7K8tbrUdLv9jKzd1qLTgXix8fTprfRVuuksJfnBdnVtEyh"],"addressesOutput":["addr1q9atjfpqwdtg7ytz0pz9zcaqvx8zr2uv6ysvc4csqynr683dzefudzxhadht99nh8gv4l3z93d486ygllgxuh2drrrpsdw6fws","DdzFFzCqrhsos3qLYCYLSb8KwyrBk2pLXYTBqx7k5F8dnYsZk7HXoCfsUeV3RqeC2gg1ZejoF6r1snJpjfVEoQaqbZ3fv7sFbtzZYRxu","DdzFFzCqrhsicgPg6iJ4XzRRu6fmuD3KdmjpYaURUBsYebxsEwLeRdvuPZnd2Y46KsekPUqJAbprBCDFiBs7yvp7GsEQMpwBaCbjbxRd","DdzFFzCqrhsrj5iS9vVzsT4LRwLkB2CRGsJGX6wqg14Yk8GffC851FN2JkdG2zka75B27BfbF772AEBC6wAh87dZcUB9hXex4JEcBZzi","DdzFFzCqrhsroWS6R4KHEP3vtGUq4XR9vvhvx68CTHKmycPc99ob1S5MtbUpHwM1RwosvtwCMD1rKrqMct6gEapTQsfApam2t4xesuRh"],"fee":975101,"totalOutput":61049632605,"tokens":[]},{"hash":"e43857122c4e743aef64f6645d44ec98a6630fd1a11904f54b5c34462ce4f8c5","blockNo":8067870,"blockHash":"3daaf7c3a665aad603bf473d8a20f106c2342531c3619d694ae6591f7ec232e5","epochNo":378,"epochSlotNo":73854,"slot":78006654,"time":"2022/11/27 18:15:45","addressesInput":["DdzFFzCqrhsdzK42MpiYLrWq4RcVTktQvBLy44xqqfUNDCQmY5mdyZ4Rrk9mb41wQD84G41uUWBfdgN6cEN692v4xFfKn2UNqejQ5Ur1","DdzFFzCqrhsgesLxPtPX6CnzhcY7uNNHBDLqmZyrBnj7bxgcTtagdw1dT3aC4Jh5SxMfkK7Cm6X3pfWt1vasvGzLd6xPGkUfdmRe2imL","DdzFFzCqrhsgaebowxmVRQgzYDiUdg1r3TPAduFXw9McbkU1z3jUTsrdWH7mifxvAjqXHEN17Q67EiUMw9PxoHNAhWEB8gmfm3qWFsBd","DdzFFzCqrhsnf1h5itcDZ6QmMbUVXic24tBEJPgBNBZ6KEwcGe5FK5nUDDAgBWPGkyAzn7cTGcU8cgfcNickNPUSSyDaCybjcuzzkRER","DdzFFzCqrhsjyTH9QVufdu5kyF2Ku74t796rF7ibjRjgVu3dgYandcb653TwmzbT8QZ2Xeyzg3Roo5L6jpuAaBqPwZ7tGPtATN9HcuMd","DdzFFzCqrhse29EDUrD83aPNmGaCGdWQk8y1oNW3UB3uL4aXakYduAA2WMvj5G9QWo6Ki1ZvRhvVjgFCzB3ShTTQaZb6jQFHSvJ2FmkD","DdzFFzCqrhtABCB7mGKEQ2mrnLRAyWmtu9QifQ4efGLGgbGeBX4UDrva1Nz5Tm54CsP7uXDJahgt5hvb5EEM5DT6TpubZzL9cM9NV49H","DdzFFzCqrhshNmG5nBLt95asMgpen5BF5zWcXpdzGp1hdjkWVhSPzpToiohfeVr4h56e9yV2XReWaMZS4XrvmmscG1rSatLG88Lvf9A1","DdzFFzCqrhsrW5GDZP3d9eWqyrGLeS9cvcNJ4CtXDF7MwqJLyWe8jiL9tYAE1uEGiAFVpegssLnc8MR6yBtZ92RtzqPg2qmdG11JM3iS","DdzFFzCqrhtBmqEaRnMRjUvYj4bbiU4Rb1SvjXhLX1jZFYg5paFb7ZdgqbDWQDMpbjDWVtn4bV6TWqR29DdgvCYbuf4GQPuaqVG9icQJ","DdzFFzCqrht5X1fgUV5rBih5wiBogkbWqdShF6VCuV2FoA648rdWFLNaXg74G1vSHSqVSW9Vwo65xDrvynTzQXadcPjTmnGbSrs8KEqD","DdzFFzCqrhsvbVRNA5fEAG1krG8iw4iZuUW51xNoSh72reDSUHdhHAhDLzxyYaAWbPQ61YqFCWcpN84DeHzbJufEpV15Hc4vyXoQmVUv","DdzFFzCqrhtCBXKVJpy94yDzA1anw8JNU659TKmDxFjLvTenZ63TVH4rX6bPLwLs2GKqLas1Q8p8B2w91XXjF6AnuPGvs3SjMAB7BcKo"],"addressesOutput":["addr1q9atjfpqwdtg7ytz0pz9zcaqvx8zr2uv6ysvc4csqynr683dzefudzxhadht99nh8gv4l3z93d486ygllgxuh2drrrpsdw6fws","DdzFFzCqrhssmeBjJCvwAe3EqkeuWrwXnDqpCrHSapELGe9hici1Dffqww7K8tbrUdLv9jKzd1qLTgXix8fTprfRVuuksJfnBdnVtEyh","DdzFFzCqrhsnuDBkLBaivumfQMp6SjwPXwjg3GxFGegN8SgpncZzRocUyDzraJoMSxNoPXQB7SgW7AisWAK7mn41uazK7ZZ8efG7KZsF","DdzFFzCqrhswURxuxgnGKZTR5UxoPWkybQADVigMq1sYaUJzxazGzEQwTDQfs8bFDDwEjyJbXnR2TwQunPSGfZs8mFhgHCXzXQDomiwj","DdzFFzCqrhtCEYQfDum5AtWrHMULo3PH2AmPMjrsGNg12ErCcr5qqytpPUkAbtAygesUi6KVatURq1thw7PXPLBd2RLGjkS3XUhSsgQm"],"fee":994461,"totalOutput":82962939926,"tokens":[]},{"hash":"2ee67e806f7ef2b805bb39ee0edeaf84e7ec8955de53070129b969218e47faec","blockNo":8067775,"blockHash":"303fbb7bc59d62101c26f8c69ffad350c5b544fba5a1fcc525a46a5080856bae","epochNo":378,"epochSlotNo":72091,"slot":78004891,"time":"2022/11/27 17:46:22","addressesInput":["addr1q998pukrcdhp2zrvx87eyjwfzkrcyv4lflaqa2f7w9dsdkz2wrev8smwz5yxcv0ajfyuj9v8sget7nl6p65nuu2mqmvq05pxha","addr1q998pukrcdhp2zrvx87eyjwfzkrcyv4lflaqa2f7w9dsdkz2wrev8smwz5yxcv0ajfyuj9v8sget7nl6p65nuu2mqmvq05pxha"],"addressesOutput":["addr1q998pukrcdhp2zrvx87eyjwfzkrcyv4lflaqa2f7w9dsdkz2wrev8smwz5yxcv0ajfyuj9v8sget7nl6p65nuu2mqmvq05pxha","addr1q998pukrcdhp2zrvx87eyjwfzkrcyv4lflaqa2f7w9dsdkz2wrev8smwz5yxcv0ajfyuj9v8sget7nl6p65nuu2mqmvq05pxha"],"fee":237985,"totalOutput":883069306441,"tokens":[]},{"hash":"0a6306425f3941c3717a13a105572499b5f701bf6d19c3bcf63914c878b3af02","blockNo":8067762,"blockHash":"c8f47ddabf4e8dd9709183d857c4a3c03d7818f0bc30e3c3e260e16493ae0866","epochNo":378,"epochSlotNo":71756,"slot":78004556,"time":"2022/11/27 17:40:47","addressesInput":["DdzFFzCqrhtDFUUP1ukGs9dFtcawrxL7VDBD9bXiLjLiKB7wPFLSrsFxGxmsgHZKm7tLzMEaRow99TwfLP7sp4mV9E28eRC3L8zZhNrJ","DdzFFzCqrhsrmUqube9nT9CCEfFcyqmqmAKRA6CLPWrvRFaWwvnTpz3xEmbZCV7WQ43tJotyNno8dSDRv6n9eaKcwBM7BJ7g1fCMQLmu"],"addressesOutput":["addr1q9atjfpqwdtg7ytz0pz9zcaqvx8zr2uv6ysvc4csqynr683dzefudzxhadht99nh8gv4l3z93d486ygllgxuh2drrrpsdw6fws","DdzFFzCqrhsnf1h5itcDZ6QmMbUVXic24tBEJPgBNBZ6KEwcGe5FK5nUDDAgBWPGkyAzn7cTGcU8cgfcNickNPUSSyDaCybjcuzzkRER"],"fee":364205,"totalOutput":210060135,"tokens":[]},{"hash":"c90e5e830fb2b6c572beaef6c9d0028253d1c1baaae7f7c6309c0d501203689a","blockNo":8067592,"blockHash":"ecc58ad5a587692e6018cee1a6b4a009682de557bcd8ff403c9c8c7fe00d59cd","epochNo":378,"epochSlotNo":68354,"slot":78001154,"time":"2022/11/27 16:44:05","addressesInput":["DdzFFzCqrht4yRrwbnzLXtuTgRau2WXA5UZYoqm8x4g6zL2zv22HrEGqKwsEvvMmihBudQEi3tXp9DXCg8Rq6Nn4SXcHnK7qe2dYVmNX","DdzFFzCqrhsoyG8HXjQHANEPJuGb72ReardKBa3DkYYEZZKgFZC5qwYR8YbaHZckJNbaqSrWAwm9RX7hvJhMWJw69zLSXgG7zkfveirK","DdzFFzCqrht3H7Qaqf1yB94tXKcrHpsNmit1hQpAfgphYp7cywSjaELgUC2gSkPiPmnWbT2o2Q7f9DQa7EAy2VH686o9pFwNJNf4hvG3","DdzFFzCqrhskoBaGukKGzrp1wcUcnygCQrhmfXNg3HWXxSG1XcmjspqgEimkF4xC9FucxKVzaJ98yPyi5PsJ9x2B4YJcdHQu5bdT88a5","DdzFFzCqrhsdzK42MpiYLrWq4RcVTktQvBLy44xqqfUNDCQmY5mdyZ4Rrk9mb41wQD84G41uUWBfdgN6cEN692v4xFfKn2UNqejQ5Ur1","DdzFFzCqrhsdzK42MpiYLrWq4RcVTktQvBLy44xqqfUNDCQmY5mdyZ4Rrk9mb41wQD84G41uUWBfdgN6cEN692v4xFfKn2UNqejQ5Ur1","DdzFFzCqrhsdzK42MpiYLrWq4RcVTktQvBLy44xqqfUNDCQmY5mdyZ4Rrk9mb41wQD84G41uUWBfdgN6cEN692v4xFfKn2UNqejQ5Ur1","DdzFFzCqrht3mV1tN4MBF6JJuxntiuGiq3gnitHgbBTpQchMRapB7pXzo2TpsQjUsaNrbKkjP5nyLr65deCgdnuj82RGFhKYP3e18dZJ","DdzFFzCqrhskyUQSq7g9jMrBont38K4MmpjGzwEXQhqt9YJAVXNu4F8uaA9AHQvBozGtMp2zDKQQLS728MfFR2emQnm56AurbuC6fPDG","DdzFFzCqrhsvPgQZdHqkKBP9CbDhcrnTZp2vkBYpbSgriFgCJvsSWNJe7naGp8hthwLRUc9S1SXDgpSa7nezSmBHhxFFKYtu4WUhWkMx","DdzFFzCqrht3DkiVKwYKCB4kk69S1A1a6bCYWs7xeN6YWHRtHiNAj1V9Q6yUNK9AR9Z3pQ1q5VnwCb4vGB45jyC2RMa3BtXMHgG9ib5Y","DdzFFzCqrhsqPcjnPzNusD9pQYLLSZpipXtH266pvA7DZr8NHxaSKLQKXsr9us79oPm7xia3LcpZgTeSkmm4sccgp1tRCB4ABEqarJDS","DdzFFzCqrhsiyxxJnc9kCPJrHgu81JpZEj1dVn1M59Tysoz2CFbrGGoMMNCpkBhZXpm7pSsigpXp528ZVA57vUyyfpdKoNxo9vx4ukY2","DdzFFzCqrhsdzK42MpiYLrWq4RcVTktQvBLy44xqqfUNDCQmY5mdyZ4Rrk9mb41wQD84G41uUWBfdgN6cEN692v4xFfKn2UNqejQ5Ur1","DdzFFzCqrhshUvFukkFN2NA9Ta1Fao2ZBsTCPSiyDxwaHUMYgJdUUin8BPmCyEskLk5pRW7Vqr7rYTDqw9hzmGijjGwm3vXna64aRmaC","DdzFFzCqrht3mV1tN4MBF6JJuxntiuGiq3gnitHgbBTpQchMRapB7pXzo2TpsQjUsaNrbKkjP5nyLr65deCgdnuj82RGFhKYP3e18dZJ","DdzFFzCqrhspMpp9WKAQXDCgsSnQ6yvGoo5Q5y4GTwGQ3hDgJ7JmQjv6pCWGLvggrj9dCFRfBmTtLQY6S4ofKZhTqftW7gx8EB9V1Ja6","DdzFFzCqrhszCgpEEtgWNX4UySPMTfL9JNDVTcYbKvhPFSS6w6p87gE4VnzLCQF5YMBt3rG5whUdoUcggdBQfr7i2YpcQpgCpB2hnnMR","DdzFFzCqrhsu22Dc5dxRoTsJ6GFsVWfNwAaxSMdqdgPJg8GYxEVaUn5gnuLehdcQNyBEQpSirNbe54DxariW42skXqDzYU3ukCr1ecCg","DdzFFzCqrhsqZwkxPQEph76kpGxwjo8exAhZJ8pNfm8QDWFzwQ9wfCgH2c6DvNS8jjPXEjrkVwznW26CQugnPtZiVyZDiFHLiaxoMzdb","DdzFFzCqrhsp4ethVtdiQ28bXh8Ae9o8FJNBgBxMG25nqe97nN6Sfy8B47nef3NtLAuA9MXzfiUEgDYmZQ4LPZDzZUaVJJm9NPAKbDTX","DdzFFzCqrhsjkVbaZXtUemsevGLzKJn6Z48JnK3Ce7jPEtqZ2QJgqA7bbQxbcUhkLqpz6JjV5JeiR6XYae2cPqNcRuaTg9f9TAyeMF2N","DdzFFzCqrhsqAhorfXcEnLxhETDR813itHmMR6DYY3EUXAttjT7z7oUcb8utbaRdBqgZuqg7Sc8fvQei94zJZefM3SFBiUDiggfLWtnN","DdzFFzCqrhtA7BFxa2kPDewoxVmSADENY8jv5wPcB9WYeGAK2p8TNZkEqe5Xzutc8gtY8sUF8Ezh1ReUp5ft7Sx2HyRM3U9n1wondWcw","DdzFFzCqrht8impds1eV1ywhFuyUrse7Gng1ExBB3wHpsfkzv3ijxNho9sWd4yY8HLxZA3he7zQo6ncwbEaasnYx3gVRqmBCTvFcDkE1"],"addressesOutput":["addr1q9atjfpqwdtg7ytz0pz9zcaqvx8zr2uv6ysvc4csqynr683dzefudzxhadht99nh8gv4l3z93d486ygllgxuh2drrrpsdw6fws","DdzFFzCqrhtDFUUP1ukGs9dFtcawrxL7VDBD9bXiLjLiKB7wPFLSrsFxGxmsgHZKm7tLzMEaRow99TwfLP7sp4mV9E28eRC3L8zZhNrJ","DdzFFzCqrht5X1fgUV5rBih5wiBogkbWqdShF6VCuV2FoA648rdWFLNaXg74G1vSHSqVSW9Vwo65xDrvynTzQXadcPjTmnGbSrs8KEqD","DdzFFzCqrhtABCB7mGKEQ2mrnLRAyWmtu9QifQ4efGLGgbGeBX4UDrva1Nz5Tm54CsP7uXDJahgt5hvb5EEM5DT6TpubZzL9cM9NV49H","DdzFFzCqrhsgaebowxmVRQgzYDiUdg1r3TPAduFXw9McbkU1z3jUTsrdWH7mifxvAjqXHEN17Q67EiUMw9PxoHNAhWEB8gmfm3qWFsBd"],"fee":1110621,"totalOutput":50841528947,"tokens":[]},{"hash":"8cb75d0ecf4330c4e87c0e73d2ab2519c3a00088c8f630ddba624d2548a8cd52","blockNo":8067308,"blockHash":"a64cdd0a28125e67ef3335d7929463acd6b97fabac9b9e9b275195bb249238a7","epochNo":378,"epochSlotNo":62601,"slot":77995401,"time":"2022/11/27 15:08:12","addressesInput":["addr1q82hk36g35gdamvak08ctn8kdqn4qwvjt2q034tscekwrgprlkahfsmech9j9n9vflajrw0e46rv4lmv3a55e8x4a4ss8c6qe7"],"addressesOutput":["addr1wxaptpmxcxawvr3pzlhgnpmzz3ql43n2tc8mn3av5kx0yzs09tqh8","addr1q82hk36g35gdamvak08ctn8kdqn4qwvjt2q034tscekwrgprlkahfsmech9j9n9vflajrw0e46rv4lmv3a55e8x4a4ss8c6qe7","addr1q82hk36g35gdamvak08ctn8kdqn4qwvjt2q034tscekwrgprlkahfsmech9j9n9vflajrw0e46rv4lmv3a55e8x4a4ss8c6qe7"],"fee":308853,"totalOutput":4103350981,"tokens":[]},{"hash":"0ce118f05dbbeb552ebe6cd34cd8e26e2e2d37c17c384376d386c0cbeb335423","blockNo":8067214,"blockHash":"7e09012ce8e4fb70fdb492bb27ac2f744c0884e4024f66830b7b26419c165a9a","epochNo":378,"epochSlotNo":60819,"slot":77993619,"time":"2022/11/27 14:38:30","addressesInput":["addr1qxn0kuqk8mysdv8rpqhl39vp6njnxd7dw3yvkcvdk9ke4revmezswc6ql6x9kekl6zm3ptc6g9jlwln9lt6sml5mcl0sndmr62","addr1qxn0kuqk8mysdv8rpqhl39vp6njnxd7dw3yvkcvdk9ke4revmezswc6ql6x9kekl6zm3ptc6g9jlwln9lt6sml5mcl0sndmr62"],"addressesOutput":["addr1zyq0kyrml023kwjk8zr86d5gaxrt5w8lxnah8r6m6s4jp4g3r6dxnzml343sx8jweqn4vn3fz2kj8kgu9czghx0jrsyqqktyhv","addr1qxn0kuqk8mysdv8rpqhl39vp6njnxd7dw3yvkcvdk9ke4revmezswc6ql6x9kekl6zm3ptc6g9jlwln9lt6sml5mcl0sndmr62"],"fee":366622,"totalOutput":119727235,"tokens":[]},{"hash":"beb18a39663e7c22ecf92d6863e4c6078d8abaf94e90c9f680e0bbd7bc978713","blockNo":8067183,"blockHash":"b52b5a27b84830260b17031fb2dbc9a7ed0589e0206b89640ae8e3d901dda892","epochNo":378,"epochSlotNo":59968,"slot":77992768,"time":"2022/11/27 14:24:19","addressesInput":["addr1qxn0kuqk8mysdv8rpqhl39vp6njnxd7dw3yvkcvdk9ke4revmezswc6ql6x9kekl6zm3ptc6g9jlwln9lt6sml5mcl0sndmr62"],"addressesOutput":["addr1wxn9efv2f6w82hagxqtn62ju4m293tqvw0uhmdl64ch8uwc0h43gt","addr1qxn0kuqk8mysdv8rpqhl39vp6njnxd7dw3yvkcvdk9ke4revmezswc6ql6x9kekl6zm3ptc6g9jlwln9lt6sml5mcl0sndmr62","addr1qxn0kuqk8mysdv8rpqhl39vp6njnxd7dw3yvkcvdk9ke4revmezswc6ql6x9kekl6zm3ptc6g9jlwln9lt6sml5mcl0sndmr62"],"fee":349993,"totalOutput":118156018,"tokens":[]},{"hash":"7c90075f87bcb2eadc240cafa1e98b666a7e7467ee2ac340fc8a80818030fbcc","blockNo":8067072,"blockHash":"b47a6cfb5c28247f2a2e0747d6fdc69d730b99d12663e0dcd0550bfe677e92e7","epochNo":378,"epochSlotNo":57473,"slot":77990273,"time":"2022/11/27 13:42:44","addressesInput":["addr1q93vyug8m3qrqc5qr9u28hzkvdpzyvmez85f58l8y9t2502xrdyd4ezx43vxjgw0dvz6dzy36jku3ptrr9mcv5dftkhsx6f5gt","addr1q93vyug8m3qrqc5qr9u28hzkvdpzyvmez85f58l8y9t2502xrdyd4ezx43vxjgw0dvz6dzy36jku3ptrr9mcv5dftkhsx6f5gt"],"addressesOutput":["addr1q93vyug8m3qrqc5qr9u28hzkvdpzyvmez85f58l8y9t2502xrdyd4ezx43vxjgw0dvz6dzy36jku3ptrr9mcv5dftkhsx6f5gt","addr1w9k9jjqmy0hmm3ytt6k57v094x78xcymyg8j2xgkxju5y3qxz4y0w","addr1qxsgae4x0z3q0hjjqcwya7vzp9f9ex52lrly0wadmfgvhpfyzttqmp0evfcrwxkda77m5lg8c9ta2aafdf83jxyvhw3sgp9v30"],"fee":405301,"totalOutput":44354545,"tokens":[]},{"hash":"3d8282d7eccd9a959c905fc38fed5d03dc2517f1c24c564e68b11dcf8e132065","blockNo":8066757,"blockHash":"20a0b37cca4f6165f50acb8fccccaba44f2d5b3470bed8565d3eeb0fed5695ff","epochNo":378,"epochSlotNo":50860,"slot":77983660,"time":"2022/11/27 11:52:31","addressesInput":["addr1q82hk36g35gdamvak08ctn8kdqn4qwvjt2q034tscekwrgprlkahfsmech9j9n9vflajrw0e46rv4lmv3a55e8x4a4ss8c6qe7","addr1q82hk36g35gdamvak08ctn8kdqn4qwvjt2q034tscekwrgprlkahfsmech9j9n9vflajrw0e46rv4lmv3a55e8x4a4ss8c6qe7"],"addressesOutput":["addr1wxn9efv2f6w82hagxqtn62ju4m293tqvw0uhmdl64ch8uwc0h43gt","addr1q82hk36g35gdamvak08ctn8kdqn4qwvjt2q034tscekwrgprlkahfsmech9j9n9vflajrw0e46rv4lmv3a55e8x4a4ss8c6qe7","addr1q82hk36g35gdamvak08ctn8kdqn4qwvjt2q034tscekwrgprlkahfsmech9j9n9vflajrw0e46rv4lmv3a55e8x4a4ss8c6qe7"],"fee":315585,"totalOutput":4258800651,"tokens":[]},{"hash":"e7501a7c85d9c4cb535687bd0bf20c61ab9ee8cfaddcd8922cf6982006752676","blockNo":8066747,"blockHash":"6d7ce9bdbc8fd6888034b9fac42bc6d1b55b25ecb46269b1a2e4ccb9a7e4762a","epochNo":378,"epochSlotNo":50610,"slot":77983410,"time":"2022/11/27 11:48:21","addressesInput":["addr1q82hk36g35gdamvak08ctn8kdqn4qwvjt2q034tscekwrgprlkahfsmech9j9n9vflajrw0e46rv4lmv3a55e8x4a4ss8c6qe7","addr1q82hk36g35gdamvak08ctn8kdqn4qwvjt2q034tscekwrgprlkahfsmech9j9n9vflajrw0e46rv4lmv3a55e8x4a4ss8c6qe7"],"addressesOutput":["addr1wxn9efv2f6w82hagxqtn62ju4m293tqvw0uhmdl64ch8uwc0h43gt","addr1q82hk36g35gdamvak08ctn8kdqn4qwvjt2q034tscekwrgprlkahfsmech9j9n9vflajrw0e46rv4lmv3a55e8x4a4ss8c6qe7","addr1q82hk36g35gdamvak08ctn8kdqn4qwvjt2q034tscekwrgprlkahfsmech9j9n9vflajrw0e46rv4lmv3a55e8x4a4ss8c6qe7"],"fee":315057,"totalOutput":4313106283,"tokens":[]},{"hash":"0ca731ca7c26f6a67a64c3f4a0b43487bf832035539b5c886713e916fc453ccf","blockNo":8066022,"blockHash":"c580370b624c66b1a4a53eebee712e83ee6492dd11b1b2bf0477392a2c764c36","epochNo":378,"epochSlotNo":35307,"slot":77968107,"time":"2022/11/27 07:33:18","addressesInput":["addr1qygu2npfzvxq5ea3ts3a6nk6uhklw0cd79gxhn0pkavampkhttwyktnm6dca79xc2lmr0vzwnleqxa30mhslcggyw7vs5pdd7x","addr1qygu2npfzvxq5ea3ts3a6nk6uhklw0cd79gxhn0pkavampkhttwyktnm6dca79xc2lmr0vzwnleqxa30mhslcggyw7vs5pdd7x"],"addressesOutput":["addr1vys80l2qmuc7077nf3nq4kafgt23w79lkffsfp627nwhjcs23rsv5","addr1qygu2npfzvxq5ea3ts3a6nk6uhklw0cd79gxhn0pkavampkhttwyktnm6dca79xc2lmr0vzwnleqxa30mhslcggyw7vs5pdd7x"],"fee":369661,"totalOutput":27028401,"tokens":[]},{"hash":"fe708e21c6a3ad5fc68454b8e7631630f7876fbc7126e32fcafa1025d7eef7fa","blockNo":8065744,"blockHash":"2052a39820bce32901e92ee74efcf896383e089aae2dbca60f42a1c5b477117a","epochNo":378,"epochSlotNo":29121,"slot":77961921,"time":"2022/11/27 05:50:12","addressesInput":["addr1qyecjgprat9qjdfkv6ln45eww5a9lwkgqn92x6lspd339ky00hv6dpawknxe42d8dlx42msv2nt8yej77vudk0uruvtsh2aeym","addr1qyecjgprat9qjdfkv6ln45eww5a9lwkgqn92x6lspd339ky00hv6dpawknxe42d8dlx42msv2nt8yej77vudk0uruvtsh2aeym","addr1qyecjgprat9qjdfkv6ln45eww5a9lwkgqn92x6lspd339ky00hv6dpawknxe42d8dlx42msv2nt8yej77vudk0uruvtsh2aeym","addr1qyecjgprat9qjdfkv6ln45eww5a9lwkgqn92x6lspd339ky00hv6dpawknxe42d8dlx42msv2nt8yej77vudk0uruvtsh2aeym","addr1qyecjgprat9qjdfkv6ln45eww5a9lwkgqn92x6lspd339ky00hv6dpawknxe42d8dlx42msv2nt8yej77vudk0uruvtsh2aeym"],"addressesOutput":["addr1vy4h00nsg3tdrdw3f27kg5yw7laldyvyrlmply7vspas7xcxxaze8","addr1qyecjgprat9qjdfkv6ln45eww5a9lwkgqn92x6lspd339ky00hv6dpawknxe42d8dlx42msv2nt8yej77vudk0uruvtsh2aeym","addr1qyecjgprat9qjdfkv6ln45eww5a9lwkgqn92x6lspd339ky00hv6dpawknxe42d8dlx42msv2nt8yej77vudk0uruvtsh2aeym","addr1qyecjgprat9qjdfkv6ln45eww5a9lwkgqn92x6lspd339ky00hv6dpawknxe42d8dlx42msv2nt8yej77vudk0uruvtsh2aeym"],"fee":438213,"totalOutput":38559514,"tokens":[]},{"hash":"8b2383bf891db74acc616aa899b7e3d6241767c731aad70365c614e58a2406ae","blockNo":8064899,"blockHash":"8d1f9b49e7df28ae8ef41ca1c06170a23cf3ff69f3f1eadf9e3c0801c791e7a8","epochNo":378,"epochSlotNo":10949,"slot":77943749,"time":"2022/11/27 00:47:20","addressesInput":["addr1q98cyl47rttrc4jt6825s5krz33y69wzgnjt9t72s3alh9gzyzmy72rwpqsdk5rhrx47drzfetukm5fvvvahmn3snq5qxq8ld6"],"addressesOutput":["addr1qycnntjy329dlqrlhgtyagcy6vqhuacuy06sy9s3ytpzln4yzr0jlwm9g6qdq28plalf3qrx8709pee3vqx0e76krr7qnenr5p","addr1qyxdpmd5njlx5mp3q6zshf4cynp4yz2ek2cjjp3uj6j6uaqzyzmy72rwpqsdk5rhrx47drzfetukm5fvvvahmn3snq5qcwngd7"],"fee":344053,"totalOutput":19831217,"tokens":[]},{"hash":"bc22774a3543bfda3e1125db5bf1a30a42065e806a8a29bbd30f88f16e947168","blockNo":8064612,"blockHash":"d3e52f92463a439c77dae41648024b80bd937e9408102d448d3dbd69eb82f079","epochNo":378,"epochSlotNo":5030,"slot":77937830,"time":"2022/11/26 23:08:41","addressesInput":["addr1q80ht2he70nat6jr8efrrh7gxl9udkltj7rc4ysvx7vvs0xlwk40nul86h4yx0jjx80usd7tcmd7h9u832fqcduceq7qdz0xej","addr1q80ht2he70nat6jr8efrrh7gxl9udkltj7rc4ysvx7vvs0xlwk40nul86h4yx0jjx80usd7tcmd7h9u832fqcduceq7qdz0xej"],"addressesOutput":["addr1q80ht2he70nat6jr8efrrh7gxl9udkltj7rc4ysvx7vvs0xlwk40nul86h4yx0jjx80usd7tcmd7h9u832fqcduceq7qdz0xej","addr1q80ht2he70nat6jr8efrrh7gxl9udkltj7rc4ysvx7vvs0xlwk40nul86h4yx0jjx80usd7tcmd7h9u832fqcduceq7qdz0xej"],"fee":238161,"totalOutput":3136243160821,"tokens":[]},{"hash":"e3d454f990801de04b905b9b8f317bd7bed003ea707cab8940f8b6edba131a24","blockNo":8064588,"blockHash":"53d337523711a31b57b0a905b0bc5cf29ba4a40a2bbb755e8df1b606d977973e","epochNo":378,"epochSlotNo":4511,"slot":77937311,"time":"2022/11/26 23:00:02","addressesInput":["DdzFFzCqrhsifhK36WJiTixe1Y8hmbsxiNLnZMM86Ko8koQ4GYmF5ef8nVEiQG2hNBRby1NCEXNBf2KXzJGcapE9qZFGSEY9i39PcRnX","DdzFFzCqrhsqUEKzwC4zpd8yd94U2NDNm2cFynHYWGyoig44ZheFZYWcHCz9TALJwszZd9kUMz7oNLdbzL9RD77LMhP9on36Ep1sn6kY","DdzFFzCqrht9hQE9zekQw1Bo382273XW3KiDLouvZtkv9zpe9ut7YoY3QPenHoLW4RV6iUQvX34H5pSN2x3hv8RUiY6vvH7tV3cqzK38","DdzFFzCqrhseybvVzKbSPxMUCjtmVDaFdLFjhCjrfw9MPcVo9SFosDRx1CPmTZoTEiTuwDU5PgQY1ZmphsS17Ehjt57caLG29K4KVyAT","DdzFFzCqrhsv9Zv3NWwH2jYhbuxuSeKmNv8oZqDpBPmSvDLRgdNw5b2KChWQwP7WtyFx5Pk59k3NhF9HefHg5gFMBuerwS6kLHziTS8m","DdzFFzCqrhtC4knCAnQiXNFC1QjcrzaNQMUcbjFbz6Mfgn5QBmpSFkyHWurgC2nvhUdiz4H6x8SgFt4du8uEvD6M1jTr2rsJm3GAjuKv","DdzFFzCqrht6VGEvayMzSapqFd52agmNPyfaK9qi1CtEMjWD5EzyY71FD2FTRLWce5Uk4LcdcJXY4mnqnbQXrypkjZTowzVGSt2GexY5","DdzFFzCqrhsudJxP7gFDi7tpfoPKwuU8hr9fvDDvXFKoBeaAhSQVBN1kgVqBuk9zDwBqzWUkKKJeJb93KvTEu3BnZUDkBFXYi3TapHoT","DdzFFzCqrhtBKEJSTmnJTQhJSN55UGgtEtGNpJx3jwnYWifGGKnHFZQ43NsQrZFBHpCGwZRcQxvcm9dNGQyr9e4D95ahZVHg2TADNWiE"],"addressesOutput":["addr1q9atjfpqwdtg7ytz0pz9zcaqvx8zr2uv6ysvc4csqynr683dzefudzxhadht99nh8gv4l3z93d486ygllgxuh2drrrpsdw6fws","DdzFFzCqrhsjkVbaZXtUemsevGLzKJn6Z48JnK3Ce7jPEtqZ2QJgqA7bbQxbcUhkLqpz6JjV5JeiR6XYae2cPqNcRuaTg9f9TAyeMF2N","DdzFFzCqrhsqAhorfXcEnLxhETDR813itHmMR6DYY3EUXAttjT7z7oUcb8utbaRdBqgZuqg7Sc8fvQei94zJZefM3SFBiUDiggfLWtnN","DdzFFzCqrhsp4ethVtdiQ28bXh8Ae9o8FJNBgBxMG25nqe97nN6Sfy8B47nef3NtLAuA9MXzfiUEgDYmZQ4LPZDzZUaVJJm9NPAKbDTX","DdzFFzCqrhsqZwkxPQEph76kpGxwjo8exAhZJ8pNfm8QDWFzwQ9wfCgH2c6DvNS8jjPXEjrkVwznW26CQugnPtZiVyZDiFHLiaxoMzdb"],"fee":955741,"totalOutput":55738604085,"tokens":[]}],"totalItems":11772,"totalPages":589,"currentPage":0}