{"data":[{"blockNo":8266038,"slotNo":82073079,"epochNo":387,"epochSlotNo":252279,"hash":"ea5bba46b542716a31f0c7422933293d8e300c57095589360efe1285ecb23626","time":"2023/01/13 19:49:30","txCount":48,"totalFees":14817114,"totalOutput":2302071656216,"slotLeader":"d34d33e345f006058bf136745a2c6b6e557621cf02dbaa29e71f3a0f"},{"blockNo":8266037,"slotNo":82073054,"epochNo":387,"epochSlotNo":252254,"hash":"ad71a99063ab1d0a80c871893810500f075e5109026a675dd614cce89ba3b179","time":"2023/01/13 19:49:05","txCount":33,"totalFees":10846382,"totalOutput":2036622876169,"slotLeader":"639288b5e4bf267ece78e9a4941dd794f50ec54785f84c687b4ab086"},{"blockNo":8266036,"slotNo":82072994,"epochNo":387,"epochSlotNo":252194,"hash":"f36c5faf0195e67ecc81ca26b2c8d504d97a375e5742cd4eb4022bbf4b67561c","time":"2023/01/13 19:48:05","txCount":15,"totalFees":4350842,"totalOutput":25272332850,"slotLeader":"be6d07b366b26dd577682e0e499c0d81988d8b3f49b52b853691eeba"},{"blockNo":8266035,"slotNo":82072981,"epochNo":387,"epochSlotNo":252181,"hash":"685fe38a188e9700f3747471b818f8e56db914343392fd922fa2d1aecb961350","time":"2023/01/13 19:47:52","txCount":5,"totalFees":2945221,"totalOutput":3864670147943,"slotLeader":"42c3740db23c3fc36cb9f63aa8070ec01417b4d22893463c8c8a21d4"},{"blockNo":8266034,"slotNo":82072975,"epochNo":387,"epochSlotNo":252175,"hash":"4c665decc6d7a0a094d3676f7aabb667c9a26515a11b845246c6fbad9e1d2ad5","time":"2023/01/13 19:47:46","txCount":31,"totalFees":9355749,"totalOutput":2700796420337,"slotLeader":"a374a14d2fa809b5e999a474b5d085b10be2fc95e6e82da045d9e8f6"},{"blockNo":8266033,"slotNo":82072942,"epochNo":387,"epochSlotNo":252142,"hash":"461dc190a8f26ca11c6bcd54e84f4ab70bb0a96f99fb7256b3c120f3db6bc51a","time":"2023/01/13 19:47:13","txCount":37,"totalFees":11117131,"totalOutput":5058678300356,"slotLeader":"30f9a4c529f89d60ad1bd1c33c0e13c20b347fec7cac794c557efcee"},{"blockNo":8266032,"slotNo":82072904,"epochNo":387,"epochSlotNo":252104,"hash":"b32cf561a10f597012aefe770c2fb2509eb921befffef1258f9e1677da7c22e4","time":"2023/01/13 19:46:35","txCount":2,"totalFees":564774,"totalOutput":59493994,"slotLeader":"8e0bb9b126acd8e65a023602377d9a7a6f15af394d1f7bdd852182b8"},{"blockNo":8266031,"slotNo":82072901,"epochNo":387,"epochSlotNo":252101,"hash":"243a25daf6d109901a35f09f478ac723e406b75a9a157b9cb5ea204d20804fcd","time":"2023/01/13 19:46:32","txCount":20,"totalFees":7021194,"totalOutput":22499179294369,"slotLeader":"90a9f94272aa45bb1eb27bb0e2fda43eb4d9bfd31010ab2c9c249896"},{"blockNo":8266030,"slotNo":82072882,"epochNo":387,"epochSlotNo":252082,"hash":"db205826713c68a6c2875aa23255dbce4358c1bce76e8d05bf3e4da4738e5581","time":"2023/01/13 19:46:13","txCount":3,"totalFees":801731,"totalOutput":69136030310,"slotLeader":"ea595c6f726db925b6832af51795fd8a46e700874c735d204f7c5841"},{"blockNo":8266029,"slotNo":82072878,"epochNo":387,"epochSlotNo":252078,"hash":"f88fb46cddaf9c84c1bb7fe0f75bdf051139793373855ea1b65d3dc03389c915","time":"2023/01/13 19:46:09","txCount":34,"totalFees":10245871,"totalOutput":1892691263354,"slotLeader":"a6fc7ec669c64333e6c411b50e9c99323d8043391aacbe2b49f7cb29"},{"blockNo":8266028,"slotNo":82072840,"epochNo":387,"epochSlotNo":252040,"hash":"3ac80cce4c2417f0cec9116394f58845df1550d5aae0e38c747e4b2d5bc84928","time":"2023/01/13 19:45:31","txCount":9,"totalFees":3870786,"totalOutput":4809399389928,"slotLeader":"f5b2ef0d7db63c8d00446cd7d9ce9cdb9e73023ffaa5e806decceb66"},{"blockNo":8266027,"slotNo":82072837,"epochNo":387,"epochSlotNo":252037,"hash":"c96c583cb1fd17b06e366cc3d8a9f896ea8c5c6964ce72c6ef88d73c3d7307b1","time":"2023/01/13 19:45:28","txCount":29,"totalFees":9934742,"totalOutput":1896726024942,"slotLeader":"bd50ebea27a9e846bcd873c361ecb1a4d9baf738040d232882109fcd"},{"blockNo":8266026,"slotNo":82072805,"epochNo":387,"epochSlotNo":252005,"hash":"04bc9e278eb6e15aa466996d4cfbdf7c251b64dcc8e843155a28d33b2ef1ce1d","time":"2023/01/13 19:44:56","txCount":2,"totalFees":402039,"totalOutput":1144626541188,"slotLeader":"b573268bf369e3f3a4e6dd16fdd78ca01eb164c1daa29d611ef885d2"},{"blockNo":8266025,"slotNo":82072801,"epochNo":387,"epochSlotNo":252001,"hash":"8fbc5e5900c79de87641c01550075a607066db7ab86459e9308e5a4db7103a75","time":"2023/01/13 19:44:52","txCount":4,"totalFees":1968812,"totalOutput":369943581569,"slotLeader":"74a10b8241fc67a17e189a58421506b7edd629ac490234933afbed97"},{"blockNo":8266024,"slotNo":82072797,"epochNo":387,"epochSlotNo":251997,"hash":"eff7096121209c2df5753695773e65426df6047bd4aa30aeafc38c64898ecb5a","time":"2023/01/13 19:44:48","txCount":6,"totalFees":1550275,"totalOutput":886263069,"slotLeader":"cf635c0a032bc98d453b65512aaf2b0f9b0f62b2b865a6011523aaf7"},{"blockNo":8266023,"slotNo":82072788,"epochNo":387,"epochSlotNo":251988,"hash":"e15a61ded358be46460e5ff1a915917c32e19780a8eec4f52a28d20449688fc7","time":"2023/01/13 19:44:39","txCount":19,"totalFees":7222751,"totalOutput":5628773716329,"slotLeader":"c7e431518477a4156c2a8cd6523a6a73514e7fbbbf7eed363b9a22ad"},{"blockNo":8266022,"slotNo":82072773,"epochNo":387,"epochSlotNo":251973,"hash":"8dd85b630879152996ef57bc9cd2290d107f81e299b7d386ccec59f046c3de5d","time":"2023/01/13 19:44:24","txCount":13,"totalFees":4555228,"totalOutput":385636714344,"slotLeader":"0e7a4cec5fb6f0e9eab8ad29b31e066f44b03cdc616ed37c2fb62061"},{"blockNo":8266021,"slotNo":82072751,"epochNo":387,"epochSlotNo":251951,"hash":"cfd13cef78da7dd6826159c321b6ecd140acb1a7567ea2755013a0e24c8f8b69","time":"2023/01/13 19:44:02","txCount":17,"totalFees":4674894,"totalOutput":100306104124,"slotLeader":"000000f66e28b0f18aef20555f4c4954234e3270dfbbdcc13f54e799"},{"blockNo":8266020,"slotNo":82072750,"epochNo":387,"epochSlotNo":251950,"hash":"62f322c61ed7e2e035421c66dbcf6bbd0acee4313ef8ea1ba8a9229d40d3135f","time":"2023/01/13 19:44:01","txCount":32,"totalFees":13824272,"totalOutput":2064235350991,"slotLeader":"ee89064ccaa9a12ba93acdd1b3789c282b44b7df858e762a0e35b36f"},{"blockNo":8266019,"slotNo":82072704,"epochNo":387,"epochSlotNo":251904,"hash":"ec048033523f88931386ee4903adaecb0b73bdfcf1d5ddf3c5a174372e52d3a5","time":"2023/01/13 19:43:15","txCount":39,"totalFees":14454849,"totalOutput":7062124519358,"slotLeader":"82906c841da0f4010b2fa1a2c3726b5571b02eea6abfb48d7c6a4184"}],"totalItems":8266214,"totalPages":413311,"currentPage":0}