{"data":[{"blockNo":6861407,"slotNo":52852840,"epochNo":319,"epochSlotNo":408040,"hash":"bed794d9e3140101ada64cae2039be62990224b461f5289ff88a516a34f873b1","time":"2022/02/09 15:05:31","txCount":23,"totalFees":10664333,"totalOutput":28834674238,"slotLeader":"b6e038fb50202dfe5ccc61ecae9b8803bdc9cb7fb3ae9348cb97b0ef"},{"blockNo":6861406,"slotNo":52852807,"epochNo":319,"epochSlotNo":408007,"hash":"d1169e28a5200ae8873e467d5a486f1aefc595391234ea242cb4a70cc2195f04","time":"2022/02/09 15:04:58","txCount":27,"totalFees":11555023,"totalOutput":81774173320,"slotLeader":"83ea16a7f183288173077c54a1e2b3cbcd0f2336e1bc85e2cc6397e0"},{"blockNo":6861405,"slotNo":52852787,"epochNo":319,"epochSlotNo":407987,"hash":"ec95e822647a882947dddc75d3f539734e61dd7da01d337e23519d2a549d2c1c","time":"2022/02/09 15:04:38","txCount":31,"totalFees":12344952,"totalOutput":460043878946,"slotLeader":"0d25da9f80c78329f00c773d846e01618b1380334d440dbccab3e68b"},{"blockNo":6861404,"slotNo":52852781,"epochNo":319,"epochSlotNo":407981,"hash":"c8b468f4fc717c288eae4a344d5a58644d065d4164da12b1f214baad8f37dcd5","time":"2022/02/09 15:04:32","txCount":61,"totalFees":18012766,"totalOutput":564314115715,"slotLeader":"39580d748f45b855d81852e334cad199cfbdaa281ed3d81e8a90f8ed"},{"blockNo":6861403,"slotNo":52852777,"epochNo":319,"epochSlotNo":407977,"hash":"a22924bda5dc993e3f85e592687f8bef1093ce75160dde632d10f0b404b888f9","time":"2022/02/09 15:04:28","txCount":14,"totalFees":8003385,"totalOutput":9901224917,"slotLeader":"09612bc8cf646ded39886839e962d050fb53b81fbe3487eed973554b"},{"blockNo":6861402,"slotNo":52852752,"epochNo":319,"epochSlotNo":407952,"hash":"849d9b603a95ed394fb7946bdddc6cfb2f6506c3bb1aba0e9d2e32c220810149","time":"2022/02/09 15:04:03","txCount":39,"totalFees":13807287,"totalOutput":75037346227,"slotLeader":"e5c947f0a4f6a6dd0946d8971dafaf263c88a1b086527fdf24223c21"},{"blockNo":6861401,"slotNo":52852749,"epochNo":319,"epochSlotNo":407949,"hash":"e0001a7645ec86cfd437708f56399b0ecd4535e59c20a72830f5d07fa5f8c618","time":"2022/02/09 15:04:00","txCount":25,"totalFees":10640127,"totalOutput":10023291972,"slotLeader":"2313599837d144bdbd6897a3cdecc0ad2c995f38275aad6626c29ef5"},{"blockNo":6861400,"slotNo":52852740,"epochNo":319,"epochSlotNo":407940,"hash":"709b0520b93be4809f11e5ca502f90476e75cd41b352f040e006c73bb9246ccd","time":"2022/02/09 15:03:51","txCount":25,"totalFees":10461675,"totalOutput":749226152824,"slotLeader":"40e81ed617140994bab5a00619d0269f0dd3af9963e40e09f5ee1a6d"},{"blockNo":6861399,"slotNo":52852693,"epochNo":319,"epochSlotNo":407893,"hash":"fd20c51afbb628f8be405811a5d131d80894ba19f8a89efed710c0b6be12a798","time":"2022/02/09 15:03:04","txCount":16,"totalFees":9484430,"totalOutput":13788259816,"slotLeader":"3c68076a8b81226f6d7da352dda415db00299701624b6cf71d7cc086"},{"blockNo":6861398,"slotNo":52852688,"epochNo":319,"epochSlotNo":407888,"hash":"746e0210b75fb9c922ad895057060d63a0b5e4a7580c1bbe2473f66ccbaea6f3","time":"2022/02/09 15:02:59","txCount":16,"totalFees":8517224,"totalOutput":4741444423,"slotLeader":"639288b5e4bf267ece78e9a4941dd794f50ec54785f84c687b4ab086"},{"blockNo":6861397,"slotNo":52852684,"epochNo":319,"epochSlotNo":407884,"hash":"ee829d25562fc737e59ba2a64c05924698fa533b424218f8ccb12764b00cb86a","time":"2022/02/09 15:02:55","txCount":22,"totalFees":10545243,"totalOutput":13598052211,"slotLeader":"11c660b87cb43e4720b053895b3137b4c08f367dbd030127c9c6de9e"},{"blockNo":6861396,"slotNo":52852636,"epochNo":319,"epochSlotNo":407836,"hash":"5f36c236886b0d9844d398b653f899c80f775865cb44f4203e52adaa0ddc6459","time":"2022/02/09 15:02:07","txCount":11,"totalFees":7677881,"totalOutput":17874894674,"slotLeader":"b62772f5982c919ff658977c4d3a0c937bcfd8127aba2c405266e217"},{"blockNo":6861395,"slotNo":52852617,"epochNo":319,"epochSlotNo":407817,"hash":"f2079309185be8f1047403457825981997bacf1f536437589893590c624a6956","time":"2022/02/09 15:01:48","txCount":12,"totalFees":8853607,"totalOutput":1019396721363,"slotLeader":"95954fa839905a201d8d97cc31be8bbd4ac2ad0df1d201accce3a23e"},{"blockNo":6861394,"slotNo":52852596,"epochNo":319,"epochSlotNo":407796,"hash":"b364cf2c8f59e1b7dfbbe28366da578d2f0d7c7a1a00087df9fd9f966d304b1e","time":"2022/02/09 15:01:27","txCount":22,"totalFees":10782999,"totalOutput":28351978703160,"slotLeader":"0001a003afb844ce6d9409fc49e049db654a78dc77f1151cb6cd548f"},{"blockNo":6861393,"slotNo":52852522,"epochNo":319,"epochSlotNo":407722,"hash":"c49b1b5c01864a4d6f6ac294fab9329cea09b009633e4799533d3bb2c12a4555","time":"2022/02/09 15:00:13","txCount":27,"totalFees":11447904,"totalOutput":271788939722,"slotLeader":"5accb407fb2299e59614d237131af021b3a3d8267b391e2d707c42ab"},{"blockNo":6861392,"slotNo":52852511,"epochNo":319,"epochSlotNo":407711,"hash":"15424228cb2dc2c2c88ddc74a79775cfb67e3c604a7e276a58f3a78278901f30","time":"2022/02/09 15:00:02","txCount":49,"totalFees":15040692,"totalOutput":65631135578,"slotLeader":"11c660b87cb43e4720b053895b3137b4c08f367dbd030127c9c6de9e"},{"blockNo":6861391,"slotNo":52852494,"epochNo":319,"epochSlotNo":407694,"hash":"df822d3eb73da7521b3fcf167feecc7a48ac2f5292a124abd274fe3a352964ab","time":"2022/02/09 14:59:45","txCount":45,"totalFees":14930622,"totalOutput":64427096447,"slotLeader":"768a4abe40bf4ec986087a6f356984da85ac3b8388dfa6840e3cdcf7"},{"blockNo":6861390,"slotNo":52852458,"epochNo":319,"epochSlotNo":407658,"hash":"c56a723134ef80469ce1088d469c59b5d894a1d93e8c2a09852408d9d838b739","time":"2022/02/09 14:59:09","txCount":24,"totalFees":10704258,"totalOutput":12642541704,"slotLeader":"000001b844f4e4c900ae0dfdc84a8845f71090b82fb473e6c70a31ee"},{"blockNo":6861389,"slotNo":52852456,"epochNo":319,"epochSlotNo":407656,"hash":"203e032f7d37616746e26630fb2943f580602a3d685d3a3356e1cd3427edbdfd","time":"2022/02/09 14:59:07","txCount":50,"totalFees":15711575,"totalOutput":2922583292216,"slotLeader":"dcf43cff10f366a4804905092fb8dda95a57bc348342ed2a5f356965"},{"blockNo":6861388,"slotNo":52852447,"epochNo":319,"epochSlotNo":407647,"hash":"161db31a61ccbb8d205d9a26abc7da0cf9bd6a6aba24db58d17623b54fd00d78","time":"2022/02/09 14:58:58","txCount":17,"totalFees":8901903,"totalOutput":1289341889194,"slotLeader":"ff46164e9121389ea4e9b9cb318c281f01801f6830d6d306843fb008"}],"totalItems":6861583,"totalPages":343080,"currentPage":0}