{"data":[{"hash":"1b5ba18b7022524aed8b7de78ff0dc3309a3aa88ff88453b70cb09de49050c17","blockNo":6701596,"blockHash":"e6e5e46927015f7e9731caa49388dd2e536d0da3208f9bbd476ab79dfdc0f3f7","epochNo":312,"epochSlotNo":40561,"slot":49461361,"time":"2022/01/01 09:00:52","addressesInput":["DdzFFzCqrhsg4NhDRNytJznvFZPDWs4FMA4PVBLWw9Dca15E8Uo6WnJdGCUfvfUav643x9aA8qpnPJbceu4KoUUsqZeL2SnZ6ErdXp4q"],"addressesOutput":["Ae2tdPwUPEZ5faoeL9oL2wHadcQo3mJLi68M4eep8wo45BFnk46sMkvCmM9","DdzFFzCqrhsshieUDsaKZ9atLD5VApW9qKc1oFTHGXsdwwkhw3BBDaExqzL7MULHaMuJAHYxviFxhRmR1V2iLUKh3o2nsD7dK5SMjJGt"],"fee":173025,"totalOutput":1344534739,"balance":10000000,"tokens":[]},{"hash":"a502a07e7e3e9614b2fd6963b58b2870ea00cb3a7c5ca35119591a5e7648368b","blockNo":6670250,"blockHash":"ca35498a108d7c8118b9b1667ad13c8dfd65a8f31fd458c1793e2c554377625c","epochNo":310,"epochSlotNo":265993,"slot":48822793,"time":"2021/12/24 23:38:04","addressesInput":["addr1q8h9cjpkmlyanm7n2680x5up68mvlnw8ycpkhl9y7j6es08wt3yrdh7fm8hax45w7dfcr50kelxuwfsrd072fa94nq7qgfykd0"],"addressesOutput":["Ae2tdPwUPEZ5faoeL9oL2wHadcQo3mJLi68M4eep8wo45BFnk46sMkvCmM9","addr1q8h9cjpkmlyanm7n2680x5up68mvlnw8ycpkhl9y7j6es08wt3yrdh7fm8hax45w7dfcr50kelxuwfsrd072fa94nq7qgfykd0"],"fee":216539,"totalOutput":129827946,"balance":1101000,"tokens":[]},{"hash":"a1d462dee8474e5fd7a24a0c0b57f2192c6deac7d090f6511dfa25800b0aac0a","blockNo":6670162,"blockHash":"893e6fb24e139b0adff0800ebca84bd4494c9bb95e5b42e5f90887acbc38784b","epochNo":310,"epochSlotNo":264070,"slot":48820870,"time":"2021/12/24 23:06:01","addressesInput":["addr1q8h9cjpkmlyanm7n2680x5up68mvlnw8ycpkhl9y7j6es08wt3yrdh7fm8hax45w7dfcr50kelxuwfsrd072fa94nq7qgfykd0"],"addressesOutput":["Ae2tdPwUPEZ5faoeL9oL2wHadcQo3mJLi68M4eep8wo45BFnk46sMkvCmM9","addr1q8h9cjpkmlyanm7n2680x5up68mvlnw8ycpkhl9y7j6es08wt3yrdh7fm8hax45w7dfcr50kelxuwfsrd072fa94nq7qgfykd0"],"fee":216539,"totalOutput":131054585,"balance":1010100,"tokens":[]},{"hash":"2da8420bf37477a8cadcf5935635bcdc4c46711b8111d7899a6450d7b1ab4c13","blockNo":6670112,"blockHash":"48978f7941552e4d188c02c5d557053e4723977d1cd4209e1e01e61c0f8ed5fa","epochNo":310,"epochSlotNo":263126,"slot":48819926,"time":"2021/12/24 22:50:17","addressesInput":["addr1q8h9cjpkmlyanm7n2680x5up68mvlnw8ycpkhl9y7j6es08wt3yrdh7fm8hax45w7dfcr50kelxuwfsrd072fa94nq7qgfykd0"],"addressesOutput":["Ae2tdPwUPEZ5faoeL9oL2wHadcQo3mJLi68M4eep8wo45BFnk46sMkvCmM9","addr1q8h9cjpkmlyanm7n2680x5up68mvlnw8ycpkhl9y7j6es08wt3yrdh7fm8hax45w7dfcr50kelxuwfsrd072fa94nq7qgfykd0"],"fee":216539,"totalOutput":132281124,"balance":1010000,"tokens":[]},{"hash":"789d4d7479b02d126c73ad92faa3b0380de1c444ae9a1b3ea87d6431272ede6c","blockNo":6670015,"blockHash":"0f17a372b628cf820ae46562b9323eed88735c542c6e7a99e2cacc291bbdbe52","epochNo":310,"epochSlotNo":261281,"slot":48818081,"time":"2021/12/24 22:19:32","addressesInput":["addr1q8h9cjpkmlyanm7n2680x5up68mvlnw8ycpkhl9y7j6es08wt3yrdh7fm8hax45w7dfcr50kelxuwfsrd072fa94nq7qgfykd0"],"addressesOutput":["Ae2tdPwUPEZ5faoeL9oL2wHadcQo3mJLi68M4eep8wo45BFnk46sMkvCmM9","addr1q8h9cjpkmlyanm7n2680x5up68mvlnw8ycpkhl9y7j6es08wt3yrdh7fm8hax45w7dfcr50kelxuwfsrd072fa94nq7qgfykd0"],"fee":216539,"totalOutput":133507763,"balance":1010100,"tokens":[]},{"hash":"8e196b81515048524cba5d71238149e61f13f2a888dc2662f4458eeb41d4e83f","blockNo":6669947,"blockHash":"ea40cf620c9995a92b4670c854b4d44ac1e0bdedc09e272e01e09fd4f7a75824","epochNo":310,"epochSlotNo":259892,"slot":48816692,"time":"2021/12/24 21:56:23","addressesInput":["addr1q8h9cjpkmlyanm7n2680x5up68mvlnw8ycpkhl9y7j6es08wt3yrdh7fm8hax45w7dfcr50kelxuwfsrd072fa94nq7qgfykd0"],"addressesOutput":["Ae2tdPwUPEZ5faoeL9oL2wHadcQo3mJLi68M4eep8wo45BFnk46sMkvCmM9","addr1q8h9cjpkmlyanm7n2680x5up68mvlnw8ycpkhl9y7j6es08wt3yrdh7fm8hax45w7dfcr50kelxuwfsrd072fa94nq7qgfykd0"],"fee":216539,"totalOutput":134724402,"balance":1000100,"tokens":[]},{"hash":"45049533d766da9573a2e1f5893ba75bc4b92b93dcee8b4a9323b388d5846f92","blockNo":6669882,"blockHash":"6071012265d520e6d88ec4b1126a7263ba04e8b69266ec4ca9c6bef8a3c4bb6b","epochNo":310,"epochSlotNo":258681,"slot":48815481,"time":"2021/12/24 21:36:12","addressesInput":["addr1q8h9cjpkmlyanm7n2680x5up68mvlnw8ycpkhl9y7j6es08wt3yrdh7fm8hax45w7dfcr50kelxuwfsrd072fa94nq7qgfykd0"],"addressesOutput":["Ae2tdPwUPEZ5faoeL9oL2wHadcQo3mJLi68M4eep8wo45BFnk46sMkvCmM9","addr1q8h9cjpkmlyanm7n2680x5up68mvlnw8ycpkhl9y7j6es08wt3yrdh7fm8hax45w7dfcr50kelxuwfsrd072fa94nq7qgfykd0"],"fee":216539,"totalOutput":135950941,"balance":1010000,"tokens":[]},{"hash":"5288e0c76e120d696089e70ee23dcda1abd056dd8e6afec0143bcfd8bec13bb9","blockNo":6669726,"blockHash":"89600fc88e7ee414f0f6dae8c23722a4f2728ff11d84de99d078d22984838438","epochNo":310,"epochSlotNo":255268,"slot":48812068,"time":"2021/12/24 20:39:19","addressesInput":["addr1q8h9cjpkmlyanm7n2680x5up68mvlnw8ycpkhl9y7j6es08wt3yrdh7fm8hax45w7dfcr50kelxuwfsrd072fa94nq7qgfykd0"],"addressesOutput":["Ae2tdPwUPEZ5faoeL9oL2wHadcQo3mJLi68M4eep8wo45BFnk46sMkvCmM9","addr1q8h9cjpkmlyanm7n2680x5up68mvlnw8ycpkhl9y7j6es08wt3yrdh7fm8hax45w7dfcr50kelxuwfsrd072fa94nq7qgfykd0"],"fee":216539,"totalOutput":137168580,"balance":1001100,"tokens":[]},{"hash":"f28f96eba4bbcf132d217971dc11a601bae42f293ff0a5f6d946e8a9d19c281a","blockNo":6669567,"blockHash":"7af19089e74222cea6f50a3caea1da762012e0366a7f2cf437190e72ffca6072","epochNo":310,"epochSlotNo":252061,"slot":48808861,"time":"2021/12/24 19:45:52","addressesInput":["addr1q8h9cjpkmlyanm7n2680x5up68mvlnw8ycpkhl9y7j6es08wt3yrdh7fm8hax45w7dfcr50kelxuwfsrd072fa94nq7qgfykd0"],"addressesOutput":["Ae2tdPwUPEZ5faoeL9oL2wHadcQo3mJLi68M4eep8wo45BFnk46sMkvCmM9","addr1q8h9cjpkmlyanm7n2680x5up68mvlnw8ycpkhl9y7j6es08wt3yrdh7fm8hax45w7dfcr50kelxuwfsrd072fa94nq7qgfykd0"],"fee":216539,"totalOutput":138395119,"balance":1010000,"tokens":[]},{"hash":"1065eed7d1c15b3e2d8aba78ac24dfcea5e7ab4b533079cc85b27e9094b006cb","blockNo":6596093,"blockHash":"13248167fe121b3cee2fefe3a0c595122960ed939014f568eac79e8c539f3479","epochNo":307,"epochSlotNo":29655,"slot":47290455,"time":"2021/12/07 05:59:06","addressesInput":["addr1q9ukkxqf7cwdfgzshltrrmqj0skmv0s8f7s22cvysucug8jgfzwl8zg88xl6z4e6q0sdgeqrhgqq8aa3zj2nuqqvntcs6utve7","addr1q9ukkxqf7cwdfgzshltrrmqj0skmv0s8f7s22cvysucug8jgfzwl8zg88xl6z4e6q0sdgeqrhgqq8aa3zj2nuqqvntcs6utve7","addr1q9ukkxqf7cwdfgzshltrrmqj0skmv0s8f7s22cvysucug8jgfzwl8zg88xl6z4e6q0sdgeqrhgqq8aa3zj2nuqqvntcs6utve7","Ae2tdPwUPEZ5faoeL9oL2wHadcQo3mJLi68M4eep8wo45BFnk46sMkvCmM9"],"addressesOutput":["Ae2tdPwUPEZ5faoeL9oL2wHadcQo3mJLi68M4eep8wo45BFnk46sMkvCmM9","addr1q9ukkxqf7cwdfgzshltrrmqj0skmv0s8f7s22cvysucug8jgfzwl8zg88xl6z4e6q0sdgeqrhgqq8aa3zj2nuqqvntcs6utve7","addr1q9ukkxqf7cwdfgzshltrrmqj0skmv0s8f7s22cvysucug8jgfzwl8zg88xl6z4e6q0sdgeqrhgqq8aa3zj2nuqqvntcs6utve7"],"fee":198053,"totalOutput":633271845223710,"balance":633271838555596,"tokens":[{"addressId":2696546,"address":"Ae2tdPwUPEZ5faoeL9oL2wHadcQo3mJLi68M4eep8wo45BFnk46sMkvCmM9","policy":"05ded3e66d6413f90908e65d14ca3cc1456a5f650e79a8ad93414cb2","name":"52554747","displayName":"RUGG","fingerprint":"asset1edhutprum7p6d0sed38hscfllt4sg7h95k3jz2","quantity":-20000000000}]},{"hash":"f8756e8377e83a987fddee7423c2cbbdda2386444251c7504ccc9c57006a57a4","blockNo":6596075,"blockHash":"e039dded9a20c87648735a22944ed4a830329d0179d402355c716dbeddf40a41","epochNo":307,"epochSlotNo":29285,"slot":47290085,"time":"2021/12/07 05:52:56","addressesInput":["Ae2tdPwUPEZ5faoeL9oL2wHadcQo3mJLi68M4eep8wo45BFnk46sMkvCmM9"],"addressesOutput":["DdzFFzCqrhsugcALXcH5KTVMWy3586WRXDdFBbRUzR6froGVK4PG1xJe7op1UZgT3385PjnfBPKSdti13hkzvSjrmJBmw9HCdidUZdeP","addr1q9ukkxqf7cwdfgzshltrrmqj0skmv0s8f7s22cvysucug8jgfzwl8zg88xl6z4e6q0sdgeqrhgqq8aa3zj2nuqqvntcs6utve7"],"fee":171334,"totalOutput":643271840828666,"balance":-643271841000000,"tokens":[]},{"hash":"f3cc01c88d696c2870a1b63e71ed36b006eca625b4f4dfee6f37c35b964fa45e","blockNo":6584671,"blockHash":"c3a57393ec04966feebc3bc7771cccbc8b7d1c7ea24a3412c67ed4c22f135e2c","epochNo":306,"epochSlotNo":232013,"slot":47060813,"time":"2021/12/04 14:11:44","addressesInput":["addr1qym33zcfuaju2zsfnfl022tg2enk3d2s8vs62wxn53wdyp3zsfkk5u6g6z4xchrrh58excl0v38ecf0zezl35un3s37sgfdhv3"],"addressesOutput":["Ae2tdPwUPEZ5faoeL9oL2wHadcQo3mJLi68M4eep8wo45BFnk46sMkvCmM9","addr1qxec5cwjjkc4m7awv3pztqkc2g4z4ceat9jal2mwyzn5fy3zsfkk5u6g6z4xchrrh58excl0v38ecf0zezl35un3s37sjnstkk"],"fee":174917,"totalOutput":3269487,"balance":1444404,"tokens":[{"addressId":2696546,"address":"Ae2tdPwUPEZ5faoeL9oL2wHadcQo3mJLi68M4eep8wo45BFnk46sMkvCmM9","policy":"05ded3e66d6413f90908e65d14ca3cc1456a5f650e79a8ad93414cb2","name":"52554747","displayName":"RUGG","fingerprint":"asset1edhutprum7p6d0sed38hscfllt4sg7h95k3jz2","quantity":20000000000}]},{"hash":"490051dbf24d2a2d5f35f50bf70a3703d269c56bcc1060688b4f5cae530d6933","blockNo":6579192,"blockHash":"7225438e972132070b3a8619d6a39d2016cefb269dc5d1a4083be1582eda9284","epochNo":306,"epochSlotNo":115606,"slot":46944406,"time":"2021/12/03 05:51:37","addressesInput":["Ae2tdPwUPEZ5faoeL9oL2wHadcQo3mJLi68M4eep8wo45BFnk46sMkvCmM9","addr1q9ukkxqf7cwdfgzshltrrmqj0skmv0s8f7s22cvysucug8jgfzwl8zg88xl6z4e6q0sdgeqrhgqq8aa3zj2nuqqvntcs6utve7","Ae2tdPwUPEZ5faoeL9oL2wHadcQo3mJLi68M4eep8wo45BFnk46sMkvCmM9","Ae2tdPwUPEZ5faoeL9oL2wHadcQo3mJLi68M4eep8wo45BFnk46sMkvCmM9","Ae2tdPwUPEZ5faoeL9oL2wHadcQo3mJLi68M4eep8wo45BFnk46sMkvCmM9","Ae2tdPwUPEZ5faoeL9oL2wHadcQo3mJLi68M4eep8wo45BFnk46sMkvCmM9","Ae2tdPwUPEZ5faoeL9oL2wHadcQo3mJLi68M4eep8wo45BFnk46sMkvCmM9"],"addressesOutput":["Ae2tdPwUPEZ5faoeL9oL2wHadcQo3mJLi68M4eep8wo45BFnk46sMkvCmM9","addr1q9ukkxqf7cwdfgzshltrrmqj0skmv0s8f7s22cvysucug8jgfzwl8zg88xl6z4e6q0sdgeqrhgqq8aa3zj2nuqqvntcs6utve7","addr1q9ukkxqf7cwdfgzshltrrmqj0skmv0s8f7s22cvysucug8jgfzwl8zg88xl6z4e6q0sdgeqrhgqq8aa3zj2nuqqvntcs6utve7"],"fee":221169,"totalOutput":643271843940826,"balance":18999996666671,"tokens":[{"addressId":2696546,"address":"Ae2tdPwUPEZ5faoeL9oL2wHadcQo3mJLi68M4eep8wo45BFnk46sMkvCmM9","policy":"cc23ae82bd518021787ab4929062718fdce75726c9e78b360a953925","name":"444f47474f","displayName":"DOGGO","fingerprint":"asset1ma38m7ek00asavr24vjxlnpvpjy3g5uexlany2","quantity":-20001000000000}]},{"hash":"4a9e2850b8f8493c6b63880f48673f13365c18028b5f987396ee7f030050e3ba","blockNo":6579177,"blockHash":"9e9e66ac97243744169ae19a562cc79ec600a9ce2ad89b5a35ed6d2b15eab8bd","epochNo":306,"epochSlotNo":115210,"slot":46944010,"time":"2021/12/03 05:45:01","addressesInput":["Ae2tdPwUPEZ5faoeL9oL2wHadcQo3mJLi68M4eep8wo45BFnk46sMkvCmM9"],"addressesOutput":["DdzFFzCqrhsugcALXcH5KTVMWy3586WRXDdFBbRUzR6froGVK4PG1xJe7op1UZgT3385PjnfBPKSdti13hkzvSjrmJBmw9HCdidUZdeP","addr1q9ukkxqf7cwdfgzshltrrmqj0skmv0s8f7s22cvysucug8jgfzwl8zg88xl6z4e6q0sdgeqrhgqq8aa3zj2nuqqvntcs6utve7"],"fee":171334,"totalOutput":28999999828666,"balance":-29000000000000,"tokens":[]},{"hash":"f9a5a5ef9a5f1fd95e3f1ca5201f612c8ca6303acd63e32b5c7485fd12a22e1a","blockNo":6578054,"blockHash":"4d9eba68935d0a9109482efe0b4b2f9da916fe814c000ea75ee59f15c49e957b","epochNo":306,"epochSlotNo":92613,"slot":46921413,"time":"2021/12/02 23:28:24","addressesInput":["addr1qxrcuwd67ukjykgpakgvy7s0ygaf8ezpckuc7l6pxhehc3zugntj9v3fv8yvda5m0ffca90z6wv0dnptzky8j6w358ds2h8m96"],"addressesOutput":["Ae2tdPwUPEZ5faoeL9oL2wHadcQo3mJLi68M4eep8wo45BFnk46sMkvCmM9","addr1qym2ztnn8k0edas645qhduqc4c0t56kyqxq75s3gwdp4kpzugntj9v3fv8yvda5m0ffca90z6wv0dnptzky8j6w358dsmxqzk4"],"fee":171881,"totalOutput":22807570,"balance":1444443,"tokens":[{"addressId":2696546,"address":"Ae2tdPwUPEZ5faoeL9oL2wHadcQo3mJLi68M4eep8wo45BFnk46sMkvCmM9","policy":"cc23ae82bd518021787ab4929062718fdce75726c9e78b360a953925","name":"444f47474f","displayName":"DOGGO","fingerprint":"asset1ma38m7ek00asavr24vjxlnpvpjy3g5uexlany2","quantity":11000000000000}]},{"hash":"f6e33b7d172a25e9f9a87097fea4775ddfb99eb02857b6f854199a9406608937","blockNo":6572530,"blockHash":"9d1451d2089bfe6502e415c44dd1c763ceff98f640a4d8c1a8d6c4e37b7bbc3a","epochNo":305,"epochSlotNo":412559,"slot":46809359,"time":"2021/12/01 16:20:50","addressesInput":["addr1q995ullml8cswq7sj4mv9ad4d7287w8esz4mj9hwtf48rfzugntj9v3fv8yvda5m0ffca90z6wv0dnptzky8j6w358dsw662xh"],"addressesOutput":["Ae2tdPwUPEZ5faoeL9oL2wHadcQo3mJLi68M4eep8wo45BFnk46sMkvCmM9","addr1q9v4gmw9mzpyrfhhzdk52kw8z6w9uj5hyxm075va6x8akd6ugntj9v3fv8yvda5m0ffca90z6wv0dnptzky8j6w358ds6kt7m6"],"fee":171881,"totalOutput":5814114,"balance":1444443,"tokens":[{"addressId":2696546,"address":"Ae2tdPwUPEZ5faoeL9oL2wHadcQo3mJLi68M4eep8wo45BFnk46sMkvCmM9","policy":"cc23ae82bd518021787ab4929062718fdce75726c9e78b360a953925","name":"444f47474f","displayName":"DOGGO","fingerprint":"asset1ma38m7ek00asavr24vjxlnpvpjy3g5uexlany2","quantity":9000000000000}]},{"hash":"d85a9173d9c3ecb6fe38502f609f7e8dfc4e01f7133d4ea2778095024463e747","blockNo":6572486,"blockHash":"0046d7e9c4d02707c84333100325be9c12620d746c3c3d4e982359b21f34e65d","epochNo":305,"epochSlotNo":411694,"slot":46808494,"time":"2021/12/01 16:06:25","addressesInput":["addr1qyg6h5nh060a66608ay8mjczf9uep3g08qfttmfzulmk5tzugntj9v3fv8yvda5m0ffca90z6wv0dnptzky8j6w358ds8y2hvp"],"addressesOutput":["Ae2tdPwUPEZ5faoeL9oL2wHadcQo3mJLi68M4eep8wo45BFnk46sMkvCmM9","addr1qykhz9pe6gek684285qayucet0069ynfdpj9usgfetmvnp2ugntj9v3fv8yvda5m0ffca90z6wv0dnptzky8j6w358dsre0vrd"],"fee":171705,"totalOutput":3764638,"balance":1444443,"tokens":[{"addressId":2696546,"address":"Ae2tdPwUPEZ5faoeL9oL2wHadcQo3mJLi68M4eep8wo45BFnk46sMkvCmM9","policy":"cc23ae82bd518021787ab4929062718fdce75726c9e78b360a953925","name":"444f47474f","displayName":"DOGGO","fingerprint":"asset1ma38m7ek00asavr24vjxlnpvpjy3g5uexlany2","quantity":1000000000}]},{"hash":"63e613bcc95c4367f8bc4e4fd8b507277e20e99228229b2113d55989456fcf03","blockNo":6546725,"blockHash":"363775dfed600e1f5bc730ecabda1a02a6af863e8a38eb012e8a039e3e79bb02","epochNo":304,"epochSlotNo":315215,"slot":46280015,"time":"2021/11/25 13:18:26","addressesInput":["DdzFFzCqrhszs6212qqHSgnFj5rHBfDBMndN3qsYyh38jwsVw3njChgDC3R3ed2TKitidshmaSz9BefSUdGbon1vn2X1w72W1rVqbg3S","DdzFFzCqrhsviVYtzGW8xbVE5Kt3v9J9ebn13N2xmU8eckVTjbypVHtrk2juKhJ3ojgyiMr3nTavkFkjyFVCPc6nEAbBnSA5ZESF1sbP","DdzFFzCqrhseQfqJR3PSKZXdDKyAgTuURKZYnCpTmmjYRQS6qqbxSNFfd7KcKXjN3dkKjcCXQ6VYSk6HEUis9kcSEJHXBvZjerCD8CCS","DdzFFzCqrhtA53dzLwnt28317Eqgev4LGyxC4ENKqMj6RkqyicBWKR2JzX81CHfCPpnd89nVVHHPtHQeYj6qod7ku3P2biAZy5b2aS4a","DdzFFzCqrhtA53dzLwnt28317Eqgev4LGyxC4ENKqMj6RkqyicBWKR2JzX81CHfCPpnd89nVVHHPtHQeYj6qod7ku3P2biAZy5b2aS4a","DdzFFzCqrhsswnbhc75oZzKVD3APbNVVMLrzX8wMLWzi5rwKwBKjRJjA7hU7bHxfqDZaXcxz5J6k1eSyPC3nXgqJSdZr8tEfG2zMgrpw","DdzFFzCqrhtA53dzLwnt28317Eqgev4LGyxC4ENKqMj6RkqyicBWKR2JzX81CHfCPpnd89nVVHHPtHQeYj6qod7ku3P2biAZy5b2aS4a","DdzFFzCqrht9xoHCLQR1XcNNJY8LKB8Uk3X68WC3ctg7wzxmbxB8dUVgDL71tKkVdMcfNLhiyNz5y47MtMwebpF3r81p2pSHEUFJp1De","DdzFFzCqrhsnCyuccuPvJ3gJiPxcDZZfnPy7gs3xejuYqFQeG3bkpWigxfNu2AER5tsAGAgQzzow1tHSE1fmMMtRUTxgvJfQ3V2nswYH","DdzFFzCqrhsxHfmFzwKdSFkjFGZKZfi9nUFw9zhLwRpJvzEAxtBAxAApZYPGwjxuuBBv35d4SoKqN39BNcsR219XSvY5FmDuzoG4BTeo","DdzFFzCqrhstktWhTk59TQbcDK2hJSsw5QhVCKBPLfYdWUo3djPQuEoaBUnou6yvN8cZt93q9n2dKy5zvDnHpHsAZfFZetVrNH9qqzm2","DdzFFzCqrhseMYtu8HqJL9xXBAP1zpeQCp9Nbaczbbq1YgUGpdutxYyAmzYW6NXfwDMQ6VkZH8PtBaZRyFZXt5GfhngWHgDzD2dgQsUa","DdzFFzCqrhtA53dzLwnt28317Eqgev4LGyxC4ENKqMj6RkqyicBWKR2JzX81CHfCPpnd89nVVHHPtHQeYj6qod7ku3P2biAZy5b2aS4a","DdzFFzCqrhtA53dzLwnt28317Eqgev4LGyxC4ENKqMj6RkqyicBWKR2JzX81CHfCPpnd89nVVHHPtHQeYj6qod7ku3P2biAZy5b2aS4a","DdzFFzCqrhtA53dzLwnt28317Eqgev4LGyxC4ENKqMj6RkqyicBWKR2JzX81CHfCPpnd89nVVHHPtHQeYj6qod7ku3P2biAZy5b2aS4a","DdzFFzCqrhtA53dzLwnt28317Eqgev4LGyxC4ENKqMj6RkqyicBWKR2JzX81CHfCPpnd89nVVHHPtHQeYj6qod7ku3P2biAZy5b2aS4a","DdzFFzCqrhtA53dzLwnt28317Eqgev4LGyxC4ENKqMj6RkqyicBWKR2JzX81CHfCPpnd89nVVHHPtHQeYj6qod7ku3P2biAZy5b2aS4a","DdzFFzCqrht5cHsBtJpeQ2YNzvFTRMHQahenstE71oA6UBj3Wvg6WFjrMov71Gm3RfeY9sZqoo9Zv5E6uDmhjEhW247hyQQqBssZbdPY","DdzFFzCqrhtBAk9ugSiepxkEpT35ADKATwRmSc5RhYue8LiQ3p77tkHbRAZjxLq1Zzmi5xYHff3wSGaeFzorSpiY2oU93RAmURjt7QYm","DdzFFzCqrhspKLqHkwP6aRW6zzM2Q4za5SsLhVusHRnAGQW52Rjvshx4JtoQf3mUTWCzP3DBDPqZi3pAoQYjTdyT8d3ewRHD7wLb4mcR","DdzFFzCqrhtA53dzLwnt28317Eqgev4LGyxC4ENKqMj6RkqyicBWKR2JzX81CHfCPpnd89nVVHHPtHQeYj6qod7ku3P2biAZy5b2aS4a","DdzFFzCqrhtA53dzLwnt28317Eqgev4LGyxC4ENKqMj6RkqyicBWKR2JzX81CHfCPpnd89nVVHHPtHQeYj6qod7ku3P2biAZy5b2aS4a","DdzFFzCqrhskR1tmf5ckhim7pxRvkvCFtiXNEFnhhVaLCmQoCCZrrDwK1VdN4cYWd3x3iSveQ331pmUY15y2v6MFwj6an4KnnBncMyKb","DdzFFzCqrhsiRadUkkybcHjBG7mpezWTZrkxpH9CPyJ5MCWhwXdYkokQTwAt87CWshbP4xH5vEUGWN2vxwD741ccWtCRrX6RgjDqcDPE","DdzFFzCqrhtA53dzLwnt28317Eqgev4LGyxC4ENKqMj6RkqyicBWKR2JzX81CHfCPpnd89nVVHHPtHQeYj6qod7ku3P2biAZy5b2aS4a","DdzFFzCqrhsyHXfFkDobFAhh3ZkvWyTeAEdDdetXnyvitM5d9MZGcbN9fVK7aYuRSp4JFveFzSMQhqtXq4bC3XZC415sHc4VHc57EN2N","DdzFFzCqrhsuUkX9BYXHoEFEq6FEuxFsWSQnN1Yufzb2wqahHo2ZCzx5ZCVLWJRjKtknXpxW9J9GrDP2y7u35yHCmiQG7uVyeyvXUhhd","DdzFFzCqrhtA53dzLwnt28317Eqgev4LGyxC4ENKqMj6RkqyicBWKR2JzX81CHfCPpnd89nVVHHPtHQeYj6qod7ku3P2biAZy5b2aS4a","DdzFFzCqrhtA53dzLwnt28317Eqgev4LGyxC4ENKqMj6RkqyicBWKR2JzX81CHfCPpnd89nVVHHPtHQeYj6qod7ku3P2biAZy5b2aS4a","DdzFFzCqrhtA53dzLwnt28317Eqgev4LGyxC4ENKqMj6RkqyicBWKR2JzX81CHfCPpnd89nVVHHPtHQeYj6qod7ku3P2biAZy5b2aS4a","DdzFFzCqrhsyTY66TDiWm3Fueyn7XTujyqSEiwjL3smYNXNfSarfr1kfPJcfTxybjtCwVi1FpDvmDM7irUfdeGKkkkPBfPoop2vS2CiZ","DdzFFzCqrhsvYz5YYpmPCYdFyoR8ZVxe1zh39qhpKYtVFxLq5HRwoWbZCxLWBbRnQs7HVd4pNNABdUWGjFdoBKdjHGywi9vkuXgZm68X","DdzFFzCqrhsfAKVY7V6yxCJTtYJrBtie9MJ235VABraw5SVogbYDgbwsS8m9LBbn2kuNVfN1HEC1SZvuD4GgnEHPXDPTtmni2bG9iDtZ","DdzFFzCqrht95yLrrGuE5M7wwwVhuBP6w38RPMEGSfCfQA16nm9koY6rv2LmSgXttqXQ15RwyzZVFScrLuvu3KfDgJBGzwxSU3d9aQb3","DdzFFzCqrht1p6oUoAHF1UJJXNg85mGATjoagxF8ZdmArqLFHYyupUWaRsEhvd3apu2hVxBe3og25YCeHggDxdTo96JQ14d91Mo1BPzG","DdzFFzCqrht3GcJkjTXdbzFZHbmVkBXYFqBEYkoaxYBrduMGLTUicL6eefeevbDyXuxwzMyhuCoKHZ7cCmHjieqYAJcit5PQhvQ9JKjT","DdzFFzCqrhtAJXUu7TepSx73GHW6Udzm8KX3xjjotRqcAEoMdHYN9H1FPLZrQDfEBupUn2cqWcYTjwMmmr7ds3qCM2qcyRmbHZiAwjpw","DdzFFzCqrhtA53dzLwnt28317Eqgev4LGyxC4ENKqMj6RkqyicBWKR2JzX81CHfCPpnd89nVVHHPtHQeYj6qod7ku3P2biAZy5b2aS4a","DdzFFzCqrhtA53dzLwnt28317Eqgev4LGyxC4ENKqMj6RkqyicBWKR2JzX81CHfCPpnd89nVVHHPtHQeYj6qod7ku3P2biAZy5b2aS4a","DdzFFzCqrhsiEGNYTQ5oPQwPaex61eggVmxKPiaXWYQ8MNCjoTA9PEG38sp5mG6rqXUTfwGQ5LDiX4qN4ifcx7fDPnVtJeQMiKj388o9","DdzFFzCqrhspzXPxugUByz1KNvMMmWrTY1LUCA4QLBERKDBYDoZJu5XaVygQP6EfBeSrZ82bUiMcmiYzRvZ6ybknrY4RjivDE8cSkwJz","DdzFFzCqrhsrigPbp7VpuLSgw2GEw47gBfoPLZADreAm7QjxYfyuhViYHpRQctcDPkbD3gVNbCVKQF4VX6AoS5PTnSoePwmTxTD2mB33","DdzFFzCqrhtA53dzLwnt28317Eqgev4LGyxC4ENKqMj6RkqyicBWKR2JzX81CHfCPpnd89nVVHHPtHQeYj6qod7ku3P2biAZy5b2aS4a","DdzFFzCqrhszAoCWLD9BTwwxfu4qkMtmLfhuX6vY5nSsGaCt6GvhTqcZKEvw6UMkQxJSMkNnFDR9rLqg9Vn5K6s57TQrziXQyCJFQzDS","DdzFFzCqrhtA53dzLwnt28317Eqgev4LGyxC4ENKqMj6RkqyicBWKR2JzX81CHfCPpnd89nVVHHPtHQeYj6qod7ku3P2biAZy5b2aS4a","DdzFFzCqrhsn7Jpe4sWfqvxLPHDdARxKur1nBurPvEJq7aEp1jbJ9vxBuXYAVXEn1CNK3ZGZ7u8891TXAh5dW57EdUGxyRdt8AdtANfG","DdzFFzCqrhtA53dzLwnt28317Eqgev4LGyxC4ENKqMj6RkqyicBWKR2JzX81CHfCPpnd89nVVHHPtHQeYj6qod7ku3P2biAZy5b2aS4a","DdzFFzCqrhsuF7mrGvUvX98KVDV6jofBXwbz4Nm24nnc2MBXo9TePyU2hzZ5aR3RPpLWs8rZHDEfjCDWW1suT2w7uYgRewYrkK6afBbD","DdzFFzCqrhspSpXnWx8WzHTkevwqU4V4pmK7cCreS4SQY3mQPQxbEeWeUG2etuAHq8H3CATTHbUqigutFXcgQcQtvWMydEwtfzagQX4e","DdzFFzCqrhsqYfkB2nT7tKEidL5akjUmfJD8UiMzNoacMyg9oE2wh27X3JcgbhUfxSJosuCqntv64TfDLHK6xDxu7NiKSykK5s2vo4Cz","DdzFFzCqrht7Yx7rEzPn5ww9ohSb2Xgf3Z8mDUvsrMj2UszWKst6HVvFcPgS7NyWd2wC1bE3E2YyXi2KNnuKeYTsHXqLGeny1ybWcx52","DdzFFzCqrhsruVP3TRMs97xHUPmpZCEUWEBRjR4zJfyHkMmfXqCgj4YEH8dr1gGU6eh4QDQYJUT72Vck45bX3Lf1tBEQ3PSWGPf9fKCE","DdzFFzCqrhtA53dzLwnt28317Eqgev4LGyxC4ENKqMj6RkqyicBWKR2JzX81CHfCPpnd89nVVHHPtHQeYj6qod7ku3P2biAZy5b2aS4a","DdzFFzCqrhsnS2RDByNhBsK1AkXVhbDs2a1yHs61qft7NJj9kLWCwbkHeKxuuDujrmdDn7T5z1dJTrDFT42VFr6VkYu7H1m4zEAdWqnw","DdzFFzCqrhtA53dzLwnt28317Eqgev4LGyxC4ENKqMj6RkqyicBWKR2JzX81CHfCPpnd89nVVHHPtHQeYj6qod7ku3P2biAZy5b2aS4a","DdzFFzCqrht3zqWr4Ysg1eC83N6wTLEYMvGTB9MdkuTAj52ffSuqtR8Q8FfsRrnBNTWmd5WZaTV355DFNwQ32unLb3UnvkesY6JdKrHV"],"addressesOutput":["Ae2tdPwUPEZ5faoeL9oL2wHadcQo3mJLi68M4eep8wo45BFnk46sMkvCmM9","DdzFFzCqrhsknYYmXacuNwiZmcTfvdZRpubwQfSHmmH1QJeG62isus6Zh72o7GEVki28amD4KstYm9Qss5R8muTkBoihJyMHPHY2xtjq"],"fee":707713,"totalOutput":29812002340095,"balance":29000000000000,"tokens":[]},{"hash":"a534de34574484372321850dcae261629268f06b3cc1b5d9b33609dbf43570e3","blockNo":6537404,"blockHash":"3c69be4b6d3b365ddf783712642774f28dfbd86da974d2115631633de264f287","epochNo":304,"epochSlotNo":121593,"slot":46086393,"time":"2021/11/23 07:31:24","addressesInput":["DdzFFzCqrhsx3McXZPurMEp43zW2LGtHnyLb67fU6RP5pELtng3RiXTZEqtcqeCv5nnHEefuzRHg9SquPZbD55KSjZzwCRK5MmwWSV2e","DdzFFzCqrht9G4Ve2WsY52T3y1soU87CQqg9q782fskwJf72TyzT2gCwicoysAEd3jDJHZZeFZZH3DkvH7UvemF4JEudDUP4NduwArtz","DdzFFzCqrhswYpV2az5DcpjBwMf6Bp3QhCnDTFfTMFf3BBX3AjGw422RjS2HNstw2tU8RqCpchHYZWTiGKaLGtJX4KhKtDS8F4LDk8fR","DdzFFzCqrhsthXutuZi6GAPKaVfhDFTsxKkiWS4yi8eFv7JNrEPx7SxnJe1hyezGTLmG5YA7WD1D8i6mEV6he6kqm1MVySQ7rJ4sYBhi","DdzFFzCqrhtA53dzLwnt28317Eqgev4LGyxC4ENKqMj6RkqyicBWKR2JzX81CHfCPpnd89nVVHHPtHQeYj6qod7ku3P2biAZy5b2aS4a","DdzFFzCqrhtA53dzLwnt28317Eqgev4LGyxC4ENKqMj6RkqyicBWKR2JzX81CHfCPpnd89nVVHHPtHQeYj6qod7ku3P2biAZy5b2aS4a","DdzFFzCqrhtA53dzLwnt28317Eqgev4LGyxC4ENKqMj6RkqyicBWKR2JzX81CHfCPpnd89nVVHHPtHQeYj6qod7ku3P2biAZy5b2aS4a","DdzFFzCqrhsjDoPh3m8oTqcRLfkamT17bvE2HgFtNRHE54HMi4EqWFLVgFKJ581ysEb52MRWsQAqjMmERH6ZAmvrPsfi35e5TA3Zn4uk","DdzFFzCqrhsm8MVpVcz9o49UrUc4JWcgiNj8jospwHqBWTNofwkVMmkjR4AuvJB7r7Uz1Ttp9UtiBE5DYkqvFh9h85sNVergL5WUQid5","DdzFFzCqrhspiZ4htELbAL1e2Newgj1Furq35j5hazWu2K4qMev7UK7yLKivufco69N9QPfwVZGUx1prRnXqqWHrTdDHP6snsovB8cqM","DdzFFzCqrhtA53dzLwnt28317Eqgev4LGyxC4ENKqMj6RkqyicBWKR2JzX81CHfCPpnd89nVVHHPtHQeYj6qod7ku3P2biAZy5b2aS4a","DdzFFzCqrht981gfTZD7SMUqg13KBQyH2okWGDTTPgDq8C75nD8TSKa5gUAaZ4hPutfGaa78y98VVrhtmyCT8x9BzBgudVZZwxLJqEX6","DdzFFzCqrhszmoYqTUt5cyiuBTM6BF6sKoMfGZLFz479kzhtxhJRH2Ubo2XPpQCSr9KBAWaNK3EgZ3BTTAhfsxeW4z4D2vMWuD4PSu2q","DdzFFzCqrhsyefJzTQcKqBh9WkPtxvvKRjLnwFuLJrhkaBR5vkhs1oDUjJAXHWx2NpCNwYPD7m2hT7G2CsgZJzNLABkaLVeNwfsKwFv8","DdzFFzCqrht8Tdkt8vjHgo2XgJncq12fLs4TUmtreogKbrTNqcX3KEboM3XEWMmpuPb5NxknzGNYV7ETu4m49QmEeqUEjZ5rHHVVoWwZ","DdzFFzCqrht95rX8144agt3QjQLrKe5Q62iqYsSF8nL5kNzJ3nVoqKuFPKko91CTzRCdiGRtKqXVPrMEoNw2W3MpoK9swFSziJYafSbV","DdzFFzCqrhtB4TxomfqzXTFTjZeidQoEEF6QDyPoEuFRQ7R6ahaHyFGzXprVpscY81g1teXLawqd1P8YxXL9vvhghD7tMkrRhi4AHTML","DdzFFzCqrhsz8Wcb1UxAWsP3ZAzRBD9ZH4k6hmQmyTKsJqhgYS2wu7zi7GWiQrP5gUANVaXrQfyWL3VoB84GE5AXWoWbmB9RmoCDJHsg","DdzFFzCqrhsxa2THfyaDa2BMPG3CTJgAfuymxEzDbQitkTFQSDPea77BjhCi3jf6DXudH9JRuS2YiYrDaYRBh5Uo4C499Y89Kis1Dvmt","DdzFFzCqrhsebbDpW9Hn8kQmnXpcBcyUMuT4GyuTt5gj5Yugz2K8UtME3EVZ69YHf4Ahum3e9JvRPJrUsQHym2mgRoQ4XoHavzwzA11T","DdzFFzCqrhtA53dzLwnt28317Eqgev4LGyxC4ENKqMj6RkqyicBWKR2JzX81CHfCPpnd89nVVHHPtHQeYj6qod7ku3P2biAZy5b2aS4a","DdzFFzCqrhtA53dzLwnt28317Eqgev4LGyxC4ENKqMj6RkqyicBWKR2JzX81CHfCPpnd89nVVHHPtHQeYj6qod7ku3P2biAZy5b2aS4a","DdzFFzCqrht5isKVSb8LqDADHKotGC54DbB7qx2AXA8g8yJRzJX4XeM1HwsBSKSEe3QKzkyYnoWJCFAjiVo3NiC7m9JLWpd35iJUtc4q","DdzFFzCqrhsxq7bsgNJyQqib12EN4HVKQY8NsJFKHpcPdEjA3XBwk7jJLjtMHbvangXrqcgSuqryYsXLSiSLb4WLE1aZAsiHLRkFgDqc","DdzFFzCqrhtA53dzLwnt28317Eqgev4LGyxC4ENKqMj6RkqyicBWKR2JzX81CHfCPpnd89nVVHHPtHQeYj6qod7ku3P2biAZy5b2aS4a","DdzFFzCqrhswVyYbBF1gpa6VhWdW4aABgMrkfKnXPPMVykQxgZBXBAzBZ91aRJUpmDumBAEMmnzyPDcSUED9Fn3XFZdsdcdJd411gDT3","DdzFFzCqrhsqT954sCWFAQTwrwiSgoLi52fNrC8A6Q6s59xHkFzfQCrCcHJrnkSYNMcd9jwGvYGAjbyf8CkMdL3TyAAEdSXr81w9NX1D","DdzFFzCqrhsrN7TGyUuNSpFvNkmhQ7L3Dx97H5rbemXLU5N9fc7AH5fW1Xfg55kkN13jHRQ1VwdZnmf6TmtBYeKMgb8QCXUQteC65op1","DdzFFzCqrhsvxMpXWZaFbqEUuuYQNLsgdXhHB934LWQYzGstdUZ2EhBJ5thFzFMssK56xDBvQMGa18gx346e1QoHZmiQV9WoqHCUcBW5","DdzFFzCqrht7ZiQ3f1zXJS1Y9r4qRp7xxZwBcKwRPFx3zWzQ7KynCZWTN49pgEU4Rbm9yGyNEzcojej8RttrnfeXPCYwqj23jEAsF1ez","DdzFFzCqrhtBhAVSJsr5Kd4prXwb3DHynWuvV88mq4tWsccizKWME8wJfjHFd7WqjcL9j1mt957KTMf4g3zR5UAMm5mkC3yPWrZ2h2WR","DdzFFzCqrhsr6L28iA1ep2hb7A663TkVQMB6a8Mp8fsDyTe5xoyqmELuiNiv89oxddkEJbicgGzgwpyboTek3fNi6q6EvVnsJ7mRs9js","DdzFFzCqrhtA53dzLwnt28317Eqgev4LGyxC4ENKqMj6RkqyicBWKR2JzX81CHfCPpnd89nVVHHPtHQeYj6qod7ku3P2biAZy5b2aS4a","DdzFFzCqrhsvajEvEubzz2AfoVZLB4de8T1SFsKpSheqAhL9jHTp8h7TvAXz2s6uQTgj2SbUXtZZbAvAswVwsm7yhKenQYiUyx114YWp","DdzFFzCqrhsusxkdktmgHJiucVFtMMBLgbk9L9MuHxRrypfggpzfmgrmXy55dNoTuNFJD2GEPj1xpirN5v3XubbpWBx1B1KLbzYhhV7v","DdzFFzCqrhsqMPk1mZ5qquDxNPSAb4W4Gm8q6ABRfmooWUAS8Dz5xcxtHkefNHHCgUoDmPcF7M5KDDoJMGFdDQe4bzW25wXaKVwSaALo","DdzFFzCqrhseamCAJZB5SgEJP3xt8hocxYZNibWexQ3VjjUUiupxkGakuvcQhJqr7e4UhHgpDWJx55ev5j7f87qbXYErpREjKdWYvizY","DdzFFzCqrhswdG4aszDzWbLpZ77CSbRUTHV5rRp1dECaaVfYkcWdqXyGQSAtNic6TGx3p8PbLTZK5iYhQ7V27xHE4VXsHXx4fBUqEnBC","DdzFFzCqrhssF5Vk6jrThqfkPhL8X9A61XEacFrGs6u5Mc9Y8T4uoYPxgvNkSXJXEVhfD9dYgJffMkrXCMwbTFhCmMNQqvx2i6ymSPdt","DdzFFzCqrht3jG2wSLpTXi14UJgibAWMCPZFxP4yppMECBV3Lkx2WHPbxFzCrVk4n6sZ3hAs7yRHNA58BsqJqYEgmuLmBEad2Fb9TdTW","DdzFFzCqrhswqJg6T3g1GwWwNXdvHf3yAX5WLYM8fSdjPKVNUggaGr1qwD1EjFW9w4zejF7XtenZ7NVuVKuGrTTKves6RQqGx21j1iXn","DdzFFzCqrhtA53dzLwnt28317Eqgev4LGyxC4ENKqMj6RkqyicBWKR2JzX81CHfCPpnd89nVVHHPtHQeYj6qod7ku3P2biAZy5b2aS4a","DdzFFzCqrht133iKk61N7s6ESr9qXxToN49RLuZHvt1eJjtmrpV33tRyoz2vYEBLKp43Hke1Mr23WXuFfbo56kaX2vjqijLTeiiVwn71","DdzFFzCqrhsppWstZBTA7o6VjxFBi6axHgZxHC52bnmpHbDXVzqhoeGoCXQSySAzA6bfiZrtXW7peLEQfxNLzUNyvfpLNXx5DEv2wr2C","DdzFFzCqrhtA53dzLwnt28317Eqgev4LGyxC4ENKqMj6RkqyicBWKR2JzX81CHfCPpnd89nVVHHPtHQeYj6qod7ku3P2biAZy5b2aS4a","DdzFFzCqrhshf7erHTbKr6Lg4aA9WQ5EYYDxWqufaFy1pbGpwiqPPmBVNGPvVNZq5CPhvxgrGieq7aa2B1AuxsY3nCoLkVriRaWpu3X3","DdzFFzCqrhsw7sdUjMAP2xta7JMRZF8xpMSqD1ZTqQCyKAm9Dhb2he52YY2sYJdWU4w1MmD8PQMhkmoKKzykQJJ9bLwPnWCixF956ama","DdzFFzCqrhspggiq8ze65FUTYoS8v75zAJ9wxpsj48h3szzSWBM7d3U6ZpuyiFzZFwUQyPNAtf3HCRKQMVHH7vXv1QnpaTP1qrUcy6A3","DdzFFzCqrht2gtUyHTqPsgqL9A9A5Uhc6cnVwn26R8fAWmb6HtTeCrDt428yG4thryPajQgDrEmat9tooLM8xZ8kgW2uDjfDgPD91Stq","DdzFFzCqrhtA53dzLwnt28317Eqgev4LGyxC4ENKqMj6RkqyicBWKR2JzX81CHfCPpnd89nVVHHPtHQeYj6qod7ku3P2biAZy5b2aS4a","DdzFFzCqrhsraWv3uM7H4Leiv622VggAW9zCqoB39qWNNxJfG5mCCveBSRqk1R7urZVxrsvdB2A3rznaGyYE5BAaRe1GsaNGG4pHG87n","DdzFFzCqrhss3P2PgCLm9Mza8MoAgQUr8555dkDiqQ3q5KtiJZMMoYHrT1Z22dGkesno4drfzUpUScDSBegjHqmbfe9MfaBwPeKvegAg"],"addressesOutput":["Ae2tdPwUPEZ5faoeL9oL2wHadcQo3mJLi68M4eep8wo45BFnk46sMkvCmM9","DdzFFzCqrhse8FwfQuujRisaJMVZCXz7DFAvDhziKAoJH8VLNWwUHNdP6DL4crpYRyCY1ZXBasJY9XkULKPVN3zGxGpzzTeDwo9rP78e"],"fee":668993,"totalOutput":13337689253878,"balance":10000000000000,"tokens":[]},{"hash":"75176497c51eea7756de83f0f86188459e6c088a6891a64188c296002e04227f","blockNo":6508127,"blockHash":"086c87a6f81ab3b2d1ce021de151d5309ff664f05958fed4405f238a2c966b9f","epochNo":302,"epochSlotNo":385413,"slot":45486213,"time":"2021/11/16 08:48:24","addressesInput":["DdzFFzCqrht2s6pzFyMmeW7qfjyq5cT5YLaHWLZQuU4kccoY7gL41gTPxFdkTJx2UjGaT9EPPvAwmAjWpqf6naQ8edaniXj85LBeT5FH","DdzFFzCqrhsod5hWQ6Qme4P4FNq5ez58aCZFCsDjDhLnKywGvudnA665EPHh1cn19LC22Nxeh4p3oRxx6WyZbf82DPPwjFBdM2ygMVyW","DdzFFzCqrhsod5hWQ6Qme4P4FNq5ez58aCZFCsDjDhLnKywGvudnA665EPHh1cn19LC22Nxeh4p3oRxx6WyZbf82DPPwjFBdM2ygMVyW","DdzFFzCqrhsf9QXvzNmD1ePSaSpELThi3oi9u3Ey7535BEwcvqgwZN8HHQAbnYuVMXQhGmpTrj6YqNsRhhhEsCwRTYCrEhM9ZoNEGKWD","DdzFFzCqrhtActGHqDyqpdBaPm6AHcedtcW4DoAwTFgQ9Up3asmPF3HUGzbmteHXyW39tH74Ysx7hTPeY47bgodjSe4SANxDixJMdXfD","DdzFFzCqrht7ZDoXZzrPCgNVCEPjAGW2XVhHb7zxfntpJGptixrVZoQNoFiUyaG7avnhBsswUPeMgsSah5d6joMjAXBEucAcGaWRPS8J","DdzFFzCqrht4bbXPf9PvX41Wszp8aKMA4fjsBrEJPcJmcvDLrMwVvEjfBwsFP6wBFKy67sk4V9QMYMU76LWdwgm1Bovut5d7aKHz7kCj","DdzFFzCqrhsod5hWQ6Qme4P4FNq5ez58aCZFCsDjDhLnKywGvudnA665EPHh1cn19LC22Nxeh4p3oRxx6WyZbf82DPPwjFBdM2ygMVyW","DdzFFzCqrhsuhq1QmSSj1FiSppEHsaWqHpD8iR2kgVsXnWbtckhWwjPqB8Ey3p9NvCL5QioXJVgmXHKhbyrzSmn2BFXYddK94LrFY8Hp","DdzFFzCqrht5QT6FqKHMhZuAqNDNNvUkiXPhN1Tz51DhLUEyLmA32W2Hy1ExJ5EUX43Y7tt1VMTQK79QjvZ8jbui2UWBro38yBoiTWzy","DdzFFzCqrhsod5hWQ6Qme4P4FNq5ez58aCZFCsDjDhLnKywGvudnA665EPHh1cn19LC22Nxeh4p3oRxx6WyZbf82DPPwjFBdM2ygMVyW","DdzFFzCqrhsod5hWQ6Qme4P4FNq5ez58aCZFCsDjDhLnKywGvudnA665EPHh1cn19LC22Nxeh4p3oRxx6WyZbf82DPPwjFBdM2ygMVyW","DdzFFzCqrhtD2niVgp6gUrXrPTMCakuUrVKij1qo6hoKxoYmMDZVsAFZVEDvV4ETD2ts6vQCmLwHQ6VGfB9hTni7zNaTaphGfkgbeV7g","DdzFFzCqrht2ASMFqtWHxjBmKLH7yaAPuto74KLRe4og35VHJpZHAJ6659FoBz26TbQfAQ5jdXDNXNaX2yLerPU9vpCXWuRm76tB4uek","DdzFFzCqrhsefiz5RAySY11RMQDizHtYuwwykYwgKwWqQQgHWYJrNaVCrmZfgG2h4sexY5x5G3WXbz1sudbGBTngaSpK411ER5ZnNwF6","DdzFFzCqrhsod5hWQ6Qme4P4FNq5ez58aCZFCsDjDhLnKywGvudnA665EPHh1cn19LC22Nxeh4p3oRxx6WyZbf82DPPwjFBdM2ygMVyW","DdzFFzCqrhsjSJuT7A7sWQme3fd91JYBAU8tKV39vMmxzayN153LD9JZoe39LUsi1n9X8mEhLAn6RLiqzJjohyCKfRgDRa671sNq7VH2","DdzFFzCqrht6qKC6ikg3Ydwtht1MdjX5Wojz8Mpk8QqAj9PtsEy8ERpQjfPTphWM2q5Byerv1rvQYA2XBF5DCtwNzYL99ys2Ro9Pf88K","DdzFFzCqrhsod5hWQ6Qme4P4FNq5ez58aCZFCsDjDhLnKywGvudnA665EPHh1cn19LC22Nxeh4p3oRxx6WyZbf82DPPwjFBdM2ygMVyW","DdzFFzCqrhsod5hWQ6Qme4P4FNq5ez58aCZFCsDjDhLnKywGvudnA665EPHh1cn19LC22Nxeh4p3oRxx6WyZbf82DPPwjFBdM2ygMVyW","DdzFFzCqrhseuvJByWT3GMuLciDhaJFNq9VVA1Cu8noAomhfEr2ZA96QuzWp4Wi9aqnx9EcLtZfhUGT7Yrfi65wUy1eaax9ESkn651NH","DdzFFzCqrht2pVXCYMmn6CULd3XFYWe54yTVrSAgi528HmZUbNs2ABuNNecEUccmyHCLpKFpwb6FGrperkY1n8Lywjb9cEtmgjyNvLPf","DdzFFzCqrht1mHHxUrp8QFXSJ86aKy7QiFybJBmVDkKPsSErqa7KyZ1vFDqFFzPSZ3QvnYGM68Zz1ZJBCjDX7QWSYBMvfk5wDD4PzPTj","DdzFFzCqrhsod5hWQ6Qme4P4FNq5ez58aCZFCsDjDhLnKywGvudnA665EPHh1cn19LC22Nxeh4p3oRxx6WyZbf82DPPwjFBdM2ygMVyW"],"addressesOutput":["Ae2tdPwUPEZ5faoeL9oL2wHadcQo3mJLi68M4eep8wo45BFnk46sMkvCmM9","DdzFFzCqrht394k5hq26ivypycje34YNLha5gpPNMeaUoZJgChyPty4Tve2qtqRE6qk11brRgMeQm6YpXViF5WANb8dyiquJarWyvq8x"],"fee":402705,"totalOutput":10345336871056,"balance":10000000000000,"tokens":[]}],"totalItems":2435,"totalPages":122,"currentPage":0}