{"data":[{"blockNo":7963656,"slotNo":75848341,"epochNo":373,"epochSlotNo":75541,"hash":"011fafc8c319a28907c96bd0ed828b90bc40cccca0b9d55d8b969fe13eb1811c","time":"2022/11/02 18:43:52","txCount":16,"totalFees":5347242,"totalOutput":3423543430,"slotLeader":"34eb602eb435e3c6a4feb6d766a44735ca09e963f82098973c85951e"},{"blockNo":7963655,"slotNo":75848328,"epochNo":373,"epochSlotNo":75528,"hash":"37f69670ebbc3c005e1094a819f1578e5922d71bebc96dbe5b54c1df968ba141","time":"2022/11/02 18:43:39","txCount":48,"totalFees":13146916,"totalOutput":7653104968967,"slotLeader":"79c4d4fe108f480fee98f307adac12571df2959651f833b595141cd1"},{"blockNo":7963654,"slotNo":75848323,"epochNo":373,"epochSlotNo":75523,"hash":"169b2d5ad0076c4a910a83d30ab2253ed834388651b96f9af1d75f833a7dd995","time":"2022/11/02 18:43:34","txCount":40,"totalFees":13894690,"totalOutput":1005614603209,"slotLeader":"c01546efeba17d531d60447356fc4c19b29c632aeac3377d21f75b4e"},{"blockNo":7963653,"slotNo":75848278,"epochNo":373,"epochSlotNo":75478,"hash":"20ac949952672108fc9345d3b25d49dacb4740d3cdd9a3aa068d2f506cbcc4ae","time":"2022/11/02 18:42:49","txCount":52,"totalFees":15290836,"totalOutput":12439346481769,"slotLeader":"c1cadab46b74defa9f79b59b617fe2a50bdbce6b367e472b6109a7bc"},{"blockNo":7963652,"slotNo":75848241,"epochNo":373,"epochSlotNo":75441,"hash":"141c2220c5b3c2c901d792d8ea0b91e7a7ec36e5843bf927bab52e8a2ec1a550","time":"2022/11/02 18:42:12","txCount":52,"totalFees":15169015,"totalOutput":5927566535329,"slotLeader":"3407812f0f5b698329dd4db9b7748e7aa6078b5e5f74c0af318385e4"},{"blockNo":7963651,"slotNo":75848240,"epochNo":373,"epochSlotNo":75440,"hash":"55d35a542a57d93fd70d7fd0580d03df5b364e6dce30d635e20d467653422f97","time":"2022/11/02 18:42:11","txCount":43,"totalFees":13403492,"totalOutput":426418339870,"slotLeader":"bd50ebea27a9e846bcd873c361ecb1a4d9baf738040d232882109fcd"},{"blockNo":7963650,"slotNo":75848219,"epochNo":373,"epochSlotNo":75419,"hash":"9ab6c4f43b2a9dd3fbc04c3cdfdb8bb5d56b01d8bdef0e8ec7ff122989e76e9b","time":"2022/11/02 18:41:50","txCount":45,"totalFees":15428865,"totalOutput":1139379740792,"slotLeader":"7184e00be7c503b803408fba57a51b0bbc2f28b7e27646a2311604fb"},{"blockNo":7963649,"slotNo":75848152,"epochNo":373,"epochSlotNo":75352,"hash":"2fdbc85c0a4d5f31e91cf05bc398e619b7243b7a13c26a35286752e9e3676acd","time":"2022/11/02 18:40:43","txCount":50,"totalFees":13886945,"totalOutput":630585124986,"slotLeader":"168b1fb18159fc3b126f9690924742fcfae2ecad94e13d76a8244ea5"},{"blockNo":7963648,"slotNo":75848150,"epochNo":373,"epochSlotNo":75350,"hash":"1022a2b04fc19d24949e6235a2d2943efe5cf06cce8c0c6a036d2417e236973b","time":"2022/11/02 18:40:41","txCount":40,"totalFees":13945001,"totalOutput":6856355263328,"slotLeader":"d31f204c4a1701068d3a116b9c50662b60f365178336d6f7825ea547"},{"blockNo":7963647,"slotNo":75848111,"epochNo":373,"epochSlotNo":75311,"hash":"914643eae5896d93a039d582d01a7a0c1709715a26ce373b4e316b0cb8230be4","time":"2022/11/02 18:40:02","txCount":26,"totalFees":10785026,"totalOutput":575159258622,"slotLeader":"f8328a36320b8719b07da68f3b28f019feb5907ac26a42420d3680b3"}],"totalItems":3533,"totalPages":354,"currentPage":0}