{"data":[{"hash":"1497d61545c5a2324aba5b8001401ecb64899f72b469865166f933cd6452d637","blockNo":8531157,"blockHash":"821aaadf8103828bc97964bc83847b790e90527bf37f970781056844397b0538","epochNo":400,"epochSlotNo":102896,"slot":87539696,"time":"2023/03/18 02:19:47","addressesInput":["addr1q9vj9w32w77p47ca725hantcf5nrzcex66vqq58kqm4l04y6hn99676mvdj6qvd34vfqh3jx6vy8tyfkuy6u3xcghq8sex2gzq","addr1q9vj9w32w77p47ca725hantcf5nrzcex66vqq58kqm4l04y6hn99676mvdj6qvd34vfqh3jx6vy8tyfkuy6u3xcghq8sex2gzq","addr1zxgx3far7qygq0k6epa0zcvcvrevmn0ypsnfsue94nsn3tvpw288a4x0xf8pxgcntelxmyclq83s0ykeehchz2wtspks905plm"],"addressesOutput":["addr1q9vj9w32w77p47ca725hantcf5nrzcex66vqq58kqm4l04y6hn99676mvdj6qvd34vfqh3jx6vy8tyfkuy6u3xcghq8sex2gzq","addr1q9vj9w32w77p47ca725hantcf5nrzcex66vqq58kqm4l04y6hn99676mvdj6qvd34vfqh3jx6vy8tyfkuy6u3xcghq8sex2gzq","addr1q9vj9w32w77p47ca725hantcf5nrzcex66vqq58kqm4l04y6hn99676mvdj6qvd34vfqh3jx6vy8tyfkuy6u3xcghq8sex2gzq"],"fee":322450,"totalOutput":21097101,"tokens":[]},{"hash":"3a32dd4433e71ae26ce3aca73caf37daf2268995aa2952966a0743b3afa16f90","blockNo":8531028,"blockHash":"c0cf89e2c3faee5a7f7083c48aaa207a7aed7332b0c10e9abd98b04fa4249f36","epochNo":400,"epochSlotNo":100394,"slot":87537194,"time":"2023/03/18 01:38:05","addressesInput":["addr1zxgx3far7qygq0k6epa0zcvcvrevmn0ypsnfsue94nsn3tvpw288a4x0xf8pxgcntelxmyclq83s0ykeehchz2wtspks905plm","addr1q9vj9w32w77p47ca725hantcf5nrzcex66vqq58kqm4l04y6hn99676mvdj6qvd34vfqh3jx6vy8tyfkuy6u3xcghq8sex2gzq","addr1q9vj9w32w77p47ca725hantcf5nrzcex66vqq58kqm4l04y6hn99676mvdj6qvd34vfqh3jx6vy8tyfkuy6u3xcghq8sex2gzq"],"addressesOutput":["addr1zxgx3far7qygq0k6epa0zcvcvrevmn0ypsnfsue94nsn3tvpw288a4x0xf8pxgcntelxmyclq83s0ykeehchz2wtspks905plm","addr1q9vj9w32w77p47ca725hantcf5nrzcex66vqq58kqm4l04y6hn99676mvdj6qvd34vfqh3jx6vy8tyfkuy6u3xcghq8sex2gzq","addr1q9vj9w32w77p47ca725hantcf5nrzcex66vqq58kqm4l04y6hn99676mvdj6qvd34vfqh3jx6vy8tyfkuy6u3xcghq8sex2gzq"],"fee":370527,"totalOutput":21393691,"tokens":[]},{"hash":"007507c0dd9256fd795ee570a10f7c67b1884d54fda0947ab766b12ee6967b1c","blockNo":8531009,"blockHash":"4fb8372b0dcdcde6ac40a9c7b745b94f8b63ab4090df220f6f78d304efb36715","epochNo":400,"epochSlotNo":100182,"slot":87536982,"time":"2023/03/18 01:34:33","addressesInput":["addr1qxzavjgcrqlse89u6p87cqahsepmhyp5sfgvx7tpqcf8n5l6wmvzcun764vwdlan6ctg303ktw5h2ejwv2epgzk6u00qjkxtr5","addr1qxu7er4q64dkg9n2e474z72zjdg7zprutxlm4vusthgwey86wmvzcun764vwdlan6ctg303ktw5h2ejwv2epgzk6u00qskq35w","addr1qxzavjgcrqlse89u6p87cqahsepmhyp5sfgvx7tpqcf8n5l6wmvzcun764vwdlan6ctg303ktw5h2ejwv2epgzk6u00qjkxtr5","addr1qxzavjgcrqlse89u6p87cqahsepmhyp5sfgvx7tpqcf8n5l6wmvzcun764vwdlan6ctg303ktw5h2ejwv2epgzk6u00qjkxtr5","addr1q9a3sc32vdz2067es2gm2k22q406hresqcezh5m4k6vxh286wmvzcun764vwdlan6ctg303ktw5h2ejwv2epgzk6u00q62c38v","addr1q9qz7r6gm7a6c564q5lsepfwwqc7uuemg4mrzcshmcanq406wmvzcun764vwdlan6ctg303ktw5h2ejwv2epgzk6u00qrvt7es","addr1qxzavjgcrqlse89u6p87cqahsepmhyp5sfgvx7tpqcf8n5l6wmvzcun764vwdlan6ctg303ktw5h2ejwv2epgzk6u00qjkxtr5","addr1q9vn9qy7urk90rjtmvemwa2ehe4qrf2panrcyuf5m6wvkul6wmvzcun764vwdlan6ctg303ktw5h2ejwv2epgzk6u00qru6ald","addr1qxzavjgcrqlse89u6p87cqahsepmhyp5sfgvx7tpqcf8n5l6wmvzcun764vwdlan6ctg303ktw5h2ejwv2epgzk6u00qjkxtr5","addr1qxzavjgcrqlse89u6p87cqahsepmhyp5sfgvx7tpqcf8n5l6wmvzcun764vwdlan6ctg303ktw5h2ejwv2epgzk6u00qjkxtr5","addr1qxzavjgcrqlse89u6p87cqahsepmhyp5sfgvx7tpqcf8n5l6wmvzcun764vwdlan6ctg303ktw5h2ejwv2epgzk6u00qjkxtr5","addr1qxzavjgcrqlse89u6p87cqahsepmhyp5sfgvx7tpqcf8n5l6wmvzcun764vwdlan6ctg303ktw5h2ejwv2epgzk6u00qjkxtr5"],"addressesOutput":["addr1qys6p3j97mfxe72rxkh5d9lp3cdjqp37dd8t5yjq5vl9m93h0dy20dzu4wpwtfre93yd2ph2e57ppft6kyc0dg28yp7shh7t9v","addr1wxaptpmxcxawvr3pzlhgnpmzz3ql43n2tc8mn3av5kx0yzs09tqh8","addr1qxzavjgcrqlse89u6p87cqahsepmhyp5sfgvx7tpqcf8n5l6wmvzcun764vwdlan6ctg303ktw5h2ejwv2epgzk6u00qjkxtr5","addr1qxzavjgcrqlse89u6p87cqahsepmhyp5sfgvx7tpqcf8n5l6wmvzcun764vwdlan6ctg303ktw5h2ejwv2epgzk6u00qjkxtr5"],"fee":585874,"totalOutput":239163696,"tokens":[]},{"hash":"42f93fbdeda0946ae6bd2f0fb228fbe214c8b56b008698ad7a3b33460e1e495a","blockNo":8530337,"blockHash":"d28f4bfd1f57f3c32dbc6a3386180572b3d7ff42dcac0aafaa412b7e9eeb2645","epochNo":400,"epochSlotNo":85971,"slot":87522771,"time":"2023/03/17 21:37:42","addressesInput":["addr1q9fct5n3m93ne7lcc7093fzcyxgxjj2uj90cey46jye2zh4nzfzekz7vqkwd9ljq7mpmzzmvxwwnqrulntc0gw6wzkpqlha6js","addr1q95w78w6mdkvrfl4whkl9d6ajcmzfztj4d4g5hx84f3ukqdnzfzekz7vqkwd9ljq7mpmzzmvxwwnqrulntc0gw6wzkpqf439vd","addr1qy04g3wnkkgrh4pyy3yrm4l2tzc4vxn3npk9hp9v5wluqmanzfzekz7vqkwd9ljq7mpmzzmvxwwnqrulntc0gw6wzkpq42e4hd","addr1qy04g3wnkkgrh4pyy3yrm4l2tzc4vxn3npk9hp9v5wluqmanzfzekz7vqkwd9ljq7mpmzzmvxwwnqrulntc0gw6wzkpq42e4hd"],"addressesOutput":["addr1q8539hqhwvv5hccndxcnxxkucev3qerzqmjq40jart0vxrmkjyd6gen5qdlkzmgn27vuepltesmk2r8fz4ulz0kymjls8jw360","addr1qxe664r5s7a685lkdda02p6j8zjmq2d4h804nca7lz5v4aanzfzekz7vqkwd9ljq7mpmzzmvxwwnqrulntc0gw6wzkpqt8pyxx","addr1qxe664r5s7a685lkdda02p6j8zjmq2d4h804nca7lz5v4aanzfzekz7vqkwd9ljq7mpmzzmvxwwnqrulntc0gw6wzkpqt8pyxx"],"fee":342117,"totalOutput":20645273,"tokens":[]},{"hash":"954d6e4ed869f4e9442c6d9a012cfcabca52d1da472f14e6633a33d88d83f83c","blockNo":8530261,"blockHash":"21c9e85c1153cb53567b27d709073dab5e090751eb21dceedf25dbc736715269","epochNo":400,"epochSlotNo":84155,"slot":87520955,"time":"2023/03/17 21:07:26","addressesInput":["addr1q9rvurkhlewky8rymr9jsp95pq7wfd4l9lnf28cgugsvjg4nzfzekz7vqkwd9ljq7mpmzzmvxwwnqrulntc0gw6wzkpq8kwrhy","addr1q9rvurkhlewky8rymr9jsp95pq7wfd4l9lnf28cgugsvjg4nzfzekz7vqkwd9ljq7mpmzzmvxwwnqrulntc0gw6wzkpq8kwrhy","addr1q9rvurkhlewky8rymr9jsp95pq7wfd4l9lnf28cgugsvjg4nzfzekz7vqkwd9ljq7mpmzzmvxwwnqrulntc0gw6wzkpq8kwrhy"],"addressesOutput":["addr1qytjyf90qj2a5lfja7t6v9hzpmnfuklnyum45xyzsqxcqem36fujmd290f4epfd6mx7l6jtrwtj2lyqrvgavhmp2pwaqvy7yw3","addr1q9fct5n3m93ne7lcc7093fzcyxgxjj2uj90cey46jye2zh4nzfzekz7vqkwd9ljq7mpmzzmvxwwnqrulntc0gw6wzkpqlha6js","addr1q9fct5n3m93ne7lcc7093fzcyxgxjj2uj90cey46jye2zh4nzfzekz7vqkwd9ljq7mpmzzmvxwwnqrulntc0gw6wzkpqlha6js","addr1q9fct5n3m93ne7lcc7093fzcyxgxjj2uj90cey46jye2zh4nzfzekz7vqkwd9ljq7mpmzzmvxwwnqrulntc0gw6wzkpqlha6js"],"fee":334461,"totalOutput":21114103,"tokens":[]},{"hash":"152994d77a76b5e06fb4425f5e61d558c6172e0f9429dadeed411edae991c220","blockNo":8530229,"blockHash":"f8fbd4e1b7fd475c4436ac692edae7836f66238093033032c7a4768724da2a99","epochNo":400,"epochSlotNo":83547,"slot":87520347,"time":"2023/03/17 20:57:18","addressesInput":["addr1qx7y5cc46emczkwhcj7sjzjhfpmvu4v3hzspnmr3n5vmh4uthzs8jqct6qyn99t9umpgtc0e470qvpk4en4en63qgtksq0yp2r","addr1qyu67f28a68mae3sk8427atyeyzv6yjtgw5nkprmc5mchjuthzs8jqct6qyn99t9umpgtc0e470qvpk4en4en63qgtks70y0pu","addr1qyu67f28a68mae3sk8427atyeyzv6yjtgw5nkprmc5mchjuthzs8jqct6qyn99t9umpgtc0e470qvpk4en4en63qgtks70y0pu"],"addressesOutput":["addr1qy0adqj8ckxswjuawk392rqhsqak3rclukhs66de3s5llvythzs8jqct6qyn99t9umpgtc0e470qvpk4en4en63qgtksmwm4rz","addr1qy0adqj8ckxswjuawk392rqhsqak3rclukhs66de3s5llvythzs8jqct6qyn99t9umpgtc0e470qvpk4en4en63qgtksmwm4rz","addr1qy0adqj8ckxswjuawk392rqhsqak3rclukhs66de3s5llvythzs8jqct6qyn99t9umpgtc0e470qvpk4en4en63qgtksmwm4rz"],"fee":569685,"totalOutput":70739723,"tokens":[]},{"hash":"970468e2ee903ebc76b73dd4097c4e0b31a524c678a5a205c3f50444b1468bfd","blockNo":8530139,"blockHash":"ac00d8bdddc819b965229d2bdae6d48e4336e94e46ac5c8d8758394c6f4152c6","epochNo":400,"epochSlotNo":81827,"slot":87518627,"time":"2023/03/17 20:28:38","addressesInput":["addr1qy04g3wnkkgrh4pyy3yrm4l2tzc4vxn3npk9hp9v5wluqmanzfzekz7vqkwd9ljq7mpmzzmvxwwnqrulntc0gw6wzkpq42e4hd","addr1q93aqwapu8cdcd90nscstapeegw3sy58q7pt4k77d504zk9nzfzekz7vqkwd9ljq7mpmzzmvxwwnqrulntc0gw6wzkpqaw6drh"],"addressesOutput":["addr1qx0ul6yt0zv6dunk8x7ujq4kmle7e4aze0jzz4ww6q3xtgmkjyd6gen5qdlkzmgn27vuepltesmk2r8fz4ulz0kymjlstgrwmq","addr1q9rvurkhlewky8rymr9jsp95pq7wfd4l9lnf28cgugsvjg4nzfzekz7vqkwd9ljq7mpmzzmvxwwnqrulntc0gw6wzkpq8kwrhy","addr1q9rvurkhlewky8rymr9jsp95pq7wfd4l9lnf28cgugsvjg4nzfzekz7vqkwd9ljq7mpmzzmvxwwnqrulntc0gw6wzkpq8kwrhy","addr1q9rvurkhlewky8rymr9jsp95pq7wfd4l9lnf28cgugsvjg4nzfzekz7vqkwd9ljq7mpmzzmvxwwnqrulntc0gw6wzkpq8kwrhy"],"fee":339125,"totalOutput":22603644,"tokens":[]},{"hash":"6a8bf91f7b066a91e2d252beae625c671fe55111418bc30208cd2c97b2816727","blockNo":8530100,"blockHash":"330210e2cc88293be16a8c5264c45f30e58101aa5d554eeceb6aee1b1f2e9070","epochNo":400,"epochSlotNo":81057,"slot":87517857,"time":"2023/03/17 20:15:48","addressesInput":["addr1q9603rvwffalygqtwtnpy805u4hr3265mhc06unjre3hvjdnzfzekz7vqkwd9ljq7mpmzzmvxwwnqrulntc0gw6wzkpq5c5j8u","addr1q9mpcner9gy8lrzp2zk7ruq4dklsfr0es8342rtzpsf8umanzfzekz7vqkwd9ljq7mpmzzmvxwwnqrulntc0gw6wzkpq0e2w6m","addr1qxrvke55helag5amf260pum3gn8p9wzfw7l3z2q85deswtdnzfzekz7vqkwd9ljq7mpmzzmvxwwnqrulntc0gw6wzkpqn4m8vs"],"addressesOutput":["addr1q8cze7vgcvrawds3k3xatkqkn7uxlnuxxdadg3kyafj7kjnkjyd6gen5qdlkzmgn27vuepltesmk2r8fz4ulz0kymjls2xyxtn","addr1qy04g3wnkkgrh4pyy3yrm4l2tzc4vxn3npk9hp9v5wluqmanzfzekz7vqkwd9ljq7mpmzzmvxwwnqrulntc0gw6wzkpq42e4hd","addr1qy04g3wnkkgrh4pyy3yrm4l2tzc4vxn3npk9hp9v5wluqmanzfzekz7vqkwd9ljq7mpmzzmvxwwnqrulntc0gw6wzkpq42e4hd","addr1qy04g3wnkkgrh4pyy3yrm4l2tzc4vxn3npk9hp9v5wluqmanzfzekz7vqkwd9ljq7mpmzzmvxwwnqrulntc0gw6wzkpq42e4hd"],"fee":345153,"totalOutput":21044282,"tokens":[]},{"hash":"b733c819cb8048e79d076ce846f3c1f1a8ae0cf8961e6c62c3c43ab5b539f8d4","blockNo":8530016,"blockHash":"cc74be0c277a9cf073a2359e2db6867e578f555a6772ef3eac494c4041f5e25a","epochNo":400,"epochSlotNo":79454,"slot":87516254,"time":"2023/03/17 19:49:05","addressesInput":["addr1q95w78w6mdkvrfl4whkl9d6ajcmzfztj4d4g5hx84f3ukqdnzfzekz7vqkwd9ljq7mpmzzmvxwwnqrulntc0gw6wzkpqf439vd","addr1q8ytaq0ulwkdzl2xzw7q370xcvy2pzmsmt283c3anl6n964nzfzekz7vqkwd9ljq7mpmzzmvxwwnqrulntc0gw6wzkpquuthzl"],"addressesOutput":["addr1qxqag08aupkj2ttwh7k2td7adf4fhqmj5mf9am68m2gspumkjyd6gen5qdlkzmgn27vuepltesmk2r8fz4ulz0kymjlsrwfplm","addr1qxrvke55helag5amf260pum3gn8p9wzfw7l3z2q85deswtdnzfzekz7vqkwd9ljq7mpmzzmvxwwnqrulntc0gw6wzkpqn4m8vs","addr1qxrvke55helag5amf260pum3gn8p9wzfw7l3z2q85deswtdnzfzekz7vqkwd9ljq7mpmzzmvxwwnqrulntc0gw6wzkpqn4m8vs","addr1qxrvke55helag5amf260pum3gn8p9wzfw7l3z2q85deswtdnzfzekz7vqkwd9ljq7mpmzzmvxwwnqrulntc0gw6wzkpqn4m8vs"],"fee":339125,"totalOutput":29908327,"tokens":[]},{"hash":"b81a4e70c2c9b2f4ce8dbbab23c4139360476c5c96f795e9104672eceedc6cf2","blockNo":8529985,"blockHash":"f23da36c2d069d547fec3a81a639f6fe7861b6eb4516226bf1b37fcb45a9c3bb","epochNo":400,"epochSlotNo":78777,"slot":87515577,"time":"2023/03/17 19:37:48","addressesInput":["addr1qygss7450e3av2wgdmzuxclvvepznc07z5hke8y823mrkfdnzfzekz7vqkwd9ljq7mpmzzmvxwwnqrulntc0gw6wzkpqn63yxp","addr1qygss7450e3av2wgdmzuxclvvepznc07z5hke8y823mrkfdnzfzekz7vqkwd9ljq7mpmzzmvxwwnqrulntc0gw6wzkpqn63yxp"],"addressesOutput":["addr1qxqag08aupkj2ttwh7k2td7adf4fhqmj5mf9am68m2gspumkjyd6gen5qdlkzmgn27vuepltesmk2r8fz4ulz0kymjlsrwfplm","addr1q95w78w6mdkvrfl4whkl9d6ajcmzfztj4d4g5hx84f3ukqdnzfzekz7vqkwd9ljq7mpmzzmvxwwnqrulntc0gw6wzkpqf439vd","addr1q95w78w6mdkvrfl4whkl9d6ajcmzfztj4d4g5hx84f3ukqdnzfzekz7vqkwd9ljq7mpmzzmvxwwnqrulntc0gw6wzkpqf439vd","addr1q95w78w6mdkvrfl4whkl9d6ajcmzfztj4d4g5hx84f3ukqdnzfzekz7vqkwd9ljq7mpmzzmvxwwnqrulntc0gw6wzkpqf439vd"],"fee":334681,"totalOutput":22684812,"tokens":[]},{"hash":"e606c67a6ea01cd087f771be80623eef8c7685877b8d263878586521b06b0e15","blockNo":8529968,"blockHash":"b36cf7afd937c94897317d3af341f1668ee3123ec7d47798e2b529a4e6321ba4","epochNo":400,"epochSlotNo":78452,"slot":87515252,"time":"2023/03/17 19:32:23","addressesInput":["addr1qyxfzf3y3uxppe0tk38swmz46g0yptssudckq20japs53r4nzfzekz7vqkwd9ljq7mpmzzmvxwwnqrulntc0gw6wzkpq8zcpz0","addr1qyxfzf3y3uxppe0tk38swmz46g0yptssudckq20japs53r4nzfzekz7vqkwd9ljq7mpmzzmvxwwnqrulntc0gw6wzkpq8zcpz0","addr1qy72s5yl65nwqz0e30jvrlcueuwz2wusrx0fdma0dxwy72anzfzekz7vqkwd9ljq7mpmzzmvxwwnqrulntc0gw6wzkpqqg0k8x","addr1qyxfzf3y3uxppe0tk38swmz46g0yptssudckq20japs53r4nzfzekz7vqkwd9ljq7mpmzzmvxwwnqrulntc0gw6wzkpq8zcpz0"],"addressesOutput":["addr1qxqag08aupkj2ttwh7k2td7adf4fhqmj5mf9am68m2gspumkjyd6gen5qdlkzmgn27vuepltesmk2r8fz4ulz0kymjlsrwfplm","addr1qygss7450e3av2wgdmzuxclvvepznc07z5hke8y823mrkfdnzfzekz7vqkwd9ljq7mpmzzmvxwwnqrulntc0gw6wzkpqn63yxp","addr1qygss7450e3av2wgdmzuxclvvepznc07z5hke8y823mrkfdnzfzekz7vqkwd9ljq7mpmzzmvxwwnqrulntc0gw6wzkpqn63yxp","addr1qygss7450e3av2wgdmzuxclvvepznc07z5hke8y823mrkfdnzfzekz7vqkwd9ljq7mpmzzmvxwwnqrulntc0gw6wzkpqn63yxp"],"fee":342293,"totalOutput":25445161,"tokens":[]},{"hash":"5e89fbe0731f9d47994258f8732725157c91f1ceab03daa08ed4551eb7668732","blockNo":8529934,"blockHash":"8be0c3c1cab447cf494f88862e987485ff5797b9ff20675001f28bedf02078a3","epochNo":400,"epochSlotNo":77474,"slot":87514274,"time":"2023/03/17 19:16:05","addressesInput":["addr1qx7dd9vr30004d2kyvnsjmtzhzps9qymzvn3fgwx60fuhd4nzfzekz7vqkwd9ljq7mpmzzmvxwwnqrulntc0gw6wzkpqurq4cy","addr1q9mpcner9gy8lrzp2zk7ruq4dklsfr0es8342rtzpsf8umanzfzekz7vqkwd9ljq7mpmzzmvxwwnqrulntc0gw6wzkpq0e2w6m","addr1q9mpcner9gy8lrzp2zk7ruq4dklsfr0es8342rtzpsf8umanzfzekz7vqkwd9ljq7mpmzzmvxwwnqrulntc0gw6wzkpq0e2w6m","addr1q9603rvwffalygqtwtnpy805u4hr3265mhc06unjre3hvjdnzfzekz7vqkwd9ljq7mpmzzmvxwwnqrulntc0gw6wzkpq5c5j8u"],"addressesOutput":["addr1qxqag08aupkj2ttwh7k2td7adf4fhqmj5mf9am68m2gspumkjyd6gen5qdlkzmgn27vuepltesmk2r8fz4ulz0kymjlsrwfplm","addr1qyxfzf3y3uxppe0tk38swmz46g0yptssudckq20japs53r4nzfzekz7vqkwd9ljq7mpmzzmvxwwnqrulntc0gw6wzkpq8zcpz0","addr1qyxfzf3y3uxppe0tk38swmz46g0yptssudckq20japs53r4nzfzekz7vqkwd9ljq7mpmzzmvxwwnqrulntc0gw6wzkpq8zcpz0","addr1qyxfzf3y3uxppe0tk38swmz46g0yptssudckq20japs53r4nzfzekz7vqkwd9ljq7mpmzzmvxwwnqrulntc0gw6wzkpq8zcpz0"],"fee":346737,"totalOutput":24009911,"tokens":[]},{"hash":"bf3a0263b156081a5ea2d4fcb2fb018f75f8cb70913ba34651220948129683d5","blockNo":8529878,"blockHash":"6a490738f6f3feccfebe16b706b6565a79f857543275387596d1391b31551378","epochNo":400,"epochSlotNo":76392,"slot":87513192,"time":"2023/03/17 18:58:03","addressesInput":["addr1q9vj9w32w77p47ca725hantcf5nrzcex66vqq58kqm4l04y6hn99676mvdj6qvd34vfqh3jx6vy8tyfkuy6u3xcghq8sex2gzq","addr1q9vj9w32w77p47ca725hantcf5nrzcex66vqq58kqm4l04y6hn99676mvdj6qvd34vfqh3jx6vy8tyfkuy6u3xcghq8sex2gzq","addr1q9vj9w32w77p47ca725hantcf5nrzcex66vqq58kqm4l04y6hn99676mvdj6qvd34vfqh3jx6vy8tyfkuy6u3xcghq8sex2gzq"],"addressesOutput":["addr1qy8srm5qmtnxd7ydwctaf5ypmxcm2gp3zn6gsf4572dxvyg9xx73jpv9mg7huhwd3jk45ngq8tx0vvdqdp3wdlmtusxqzy0qza","addr1q9vj9w32w77p47ca725hantcf5nrzcex66vqq58kqm4l04y6hn99676mvdj6qvd34vfqh3jx6vy8tyfkuy6u3xcghq8sex2gzq","addr1q9vj9w32w77p47ca725hantcf5nrzcex66vqq58kqm4l04y6hn99676mvdj6qvd34vfqh3jx6vy8tyfkuy6u3xcghq8sex2gzq"],"fee":193221,"totalOutput":26867639,"tokens":[]},{"hash":"d343b5ee862aaf46a13ebb41382696fa4719ab8bd110e2f52593460989113e3f","blockNo":8529266,"blockHash":"a039d3bdd7154abe1687e8d1427c30efea252b1871d7ce72a3641974212b0c67","epochNo":400,"epochSlotNo":63402,"slot":87500202,"time":"2023/03/17 15:21:33","addressesInput":["addr1qx76hnwx8qukkylx5te0em5gf7kgjqadv6x8z406mpyxz6nn3lmaa3wnh8ka8wxllq5f9kpp6spcwum5vvas6xgvuedsh0rgkp","addr1qx76hnwx8qukkylx5te0em5gf7kgjqadv6x8z406mpyxz6nn3lmaa3wnh8ka8wxllq5f9kpp6spcwum5vvas6xgvuedsh0rgkp","addr1qx76hnwx8qukkylx5te0em5gf7kgjqadv6x8z406mpyxz6nn3lmaa3wnh8ka8wxllq5f9kpp6spcwum5vvas6xgvuedsh0rgkp"],"addressesOutput":["addr1zxn9efv2f6w82hagxqtn62ju4m293tqvw0uhmdl64ch8uw6j2c79gy9l76sdg0xwhd7r0c0kna0tycz4y5s6mlenh8pq6s3z70","addr1qx76hnwx8qukkylx5te0em5gf7kgjqadv6x8z406mpyxz6nn3lmaa3wnh8ka8wxllq5f9kpp6spcwum5vvas6xgvuedsh0rgkp","addr1qx76hnwx8qukkylx5te0em5gf7kgjqadv6x8z406mpyxz6nn3lmaa3wnh8ka8wxllq5f9kpp6spcwum5vvas6xgvuedsh0rgkp","addr1qx76hnwx8qukkylx5te0em5gf7kgjqadv6x8z406mpyxz6nn3lmaa3wnh8ka8wxllq5f9kpp6spcwum5vvas6xgvuedsh0rgkp"],"fee":501969,"totalOutput":59011981,"tokens":[]},{"hash":"699a210848ded9e148dc1a688f65f3bdbecb0166b8f9ae9c6f2ecfe936c5eef6","blockNo":8529177,"blockHash":"9d5edf0a1eb0ebbbf58d7bc92e24b7d76dd7fc8d214bb9a6425f3ad56884a293","epochNo":400,"epochSlotNo":61428,"slot":87498228,"time":"2023/03/17 14:48:39","addressesInput":["addr1q9j9edkjryr9fnz6eyuwjcjutun9kpgtkdlulzquheldfeermhplrjkd38pvcn2r58dnl0v4rxs9lz6rdj5p77j3wvcs7ud37u","addr1q9j9edkjryr9fnz6eyuwjcjutun9kpgtkdlulzquheldfeermhplrjkd38pvcn2r58dnl0v4rxs9lz6rdj5p77j3wvcs7ud37u","addr1q9j9edkjryr9fnz6eyuwjcjutun9kpgtkdlulzquheldfeermhplrjkd38pvcn2r58dnl0v4rxs9lz6rdj5p77j3wvcs7ud37u"],"addressesOutput":["addr1zxn9efv2f6w82hagxqtn62ju4m293tqvw0uhmdl64ch8uw6j2c79gy9l76sdg0xwhd7r0c0kna0tycz4y5s6mlenh8pq6s3z70","addr1q9j9edkjryr9fnz6eyuwjcjutun9kpgtkdlulzquheldfeermhplrjkd38pvcn2r58dnl0v4rxs9lz6rdj5p77j3wvcs7ud37u","addr1q9j9edkjryr9fnz6eyuwjcjutun9kpgtkdlulzquheldfeermhplrjkd38pvcn2r58dnl0v4rxs9lz6rdj5p77j3wvcs7ud37u","addr1q9j9edkjryr9fnz6eyuwjcjutun9kpgtkdlulzquheldfeermhplrjkd38pvcn2r58dnl0v4rxs9lz6rdj5p77j3wvcs7ud37u"],"fee":416741,"totalOutput":124867117,"tokens":[]},{"hash":"951353c1ce50e2062e96399bc3495794c56ac8aed6e12f3bb035d8e6f6ab4353","blockNo":8529116,"blockHash":"9ff78352d46bffc3628f036f008663cc4d3cdaccbfabd50061e520122c30c119","epochNo":400,"epochSlotNo":60183,"slot":87496983,"time":"2023/03/17 14:27:54","addressesInput":["addr1qy0xznhgdhqj9u4g6jjdntf2cxy5lyad8j2p6a6dp8jwwttfq4uncdzu6hqlxn7gva2xsaln40x226fl8fsnqyyvzxtqqm3qw9","addr1qy0xznhgdhqj9u4g6jjdntf2cxy5lyad8j2p6a6dp8jwwttfq4uncdzu6hqlxn7gva2xsaln40x226fl8fsnqyyvzxtqqm3qw9","addr1qy0xznhgdhqj9u4g6jjdntf2cxy5lyad8j2p6a6dp8jwwttfq4uncdzu6hqlxn7gva2xsaln40x226fl8fsnqyyvzxtqqm3qw9","addr1qy0xznhgdhqj9u4g6jjdntf2cxy5lyad8j2p6a6dp8jwwttfq4uncdzu6hqlxn7gva2xsaln40x226fl8fsnqyyvzxtqqm3qw9","addr1qy0xznhgdhqj9u4g6jjdntf2cxy5lyad8j2p6a6dp8jwwttfq4uncdzu6hqlxn7gva2xsaln40x226fl8fsnqyyvzxtqqm3qw9"],"addressesOutput":["addr1qxh82p5jjfxzzrxdafvwlpd78crvq67lnz8yt5sdwdvsnvmptzp7uemy34mcltku4dl69fqc3edzxyqqwt4469pm9weq50gtvp","addr1qy0xznhgdhqj9u4g6jjdntf2cxy5lyad8j2p6a6dp8jwwttfq4uncdzu6hqlxn7gva2xsaln40x226fl8fsnqyyvzxtqqm3qw9","addr1qy0xznhgdhqj9u4g6jjdntf2cxy5lyad8j2p6a6dp8jwwttfq4uncdzu6hqlxn7gva2xsaln40x226fl8fsnqyyvzxtqqm3qw9"],"fee":237265,"totalOutput":360802247,"tokens":[]},{"hash":"35f59894bc613dfbbf0b8dd5710d628cc182cfc1adad741403fad89580dd64d4","blockNo":8528718,"blockHash":"695ff26c329cb1cf1fc10f14aed34a1fc1db23f0b744309b2cefca8fd0185e82","epochNo":400,"epochSlotNo":51826,"slot":87488626,"time":"2023/03/17 12:08:37","addressesInput":["addr1q9j9edkjryr9fnz6eyuwjcjutun9kpgtkdlulzquheldfeermhplrjkd38pvcn2r58dnl0v4rxs9lz6rdj5p77j3wvcs7ud37u","addr1q9j9edkjryr9fnz6eyuwjcjutun9kpgtkdlulzquheldfeermhplrjkd38pvcn2r58dnl0v4rxs9lz6rdj5p77j3wvcs7ud37u","addr1q9j9edkjryr9fnz6eyuwjcjutun9kpgtkdlulzquheldfeermhplrjkd38pvcn2r58dnl0v4rxs9lz6rdj5p77j3wvcs7ud37u","addr1q9j9edkjryr9fnz6eyuwjcjutun9kpgtkdlulzquheldfeermhplrjkd38pvcn2r58dnl0v4rxs9lz6rdj5p77j3wvcs7ud37u"],"addressesOutput":["addr1x9725s5t8jxvghmh82x68vw7d3dlaw6xyq6w2fg9qaynlfe5mrm5fenxvqthcunwkvefed0963k4tmuk9y584p2m0nuq3gfevs","addr1q9j9edkjryr9fnz6eyuwjcjutun9kpgtkdlulzquheldfeermhplrjkd38pvcn2r58dnl0v4rxs9lz6rdj5p77j3wvcs7ud37u","addr1q9j9edkjryr9fnz6eyuwjcjutun9kpgtkdlulzquheldfeermhplrjkd38pvcn2r58dnl0v4rxs9lz6rdj5p77j3wvcs7ud37u","addr1q9j9edkjryr9fnz6eyuwjcjutun9kpgtkdlulzquheldfeermhplrjkd38pvcn2r58dnl0v4rxs9lz6rdj5p77j3wvcs7ud37u","addr1q9j9edkjryr9fnz6eyuwjcjutun9kpgtkdlulzquheldfeermhplrjkd38pvcn2r58dnl0v4rxs9lz6rdj5p77j3wvcs7ud37u"],"fee":838437,"totalOutput":164821516,"tokens":[]},{"hash":"506316dafb4c51e8c21d509bc984947dd212c060d01e9af7d4a1b711d6ea8894","blockNo":8528703,"blockHash":"983e857a11d7f8238327310db6a8d5f889d25cb10c35a4a30e3e001f233200b3","epochNo":400,"epochSlotNo":51485,"slot":87488285,"time":"2023/03/17 12:02:56","addressesInput":["addr1q9j9edkjryr9fnz6eyuwjcjutun9kpgtkdlulzquheldfeermhplrjkd38pvcn2r58dnl0v4rxs9lz6rdj5p77j3wvcs7ud37u","addr1q9j9edkjryr9fnz6eyuwjcjutun9kpgtkdlulzquheldfeermhplrjkd38pvcn2r58dnl0v4rxs9lz6rdj5p77j3wvcs7ud37u","addr1q9j9edkjryr9fnz6eyuwjcjutun9kpgtkdlulzquheldfeermhplrjkd38pvcn2r58dnl0v4rxs9lz6rdj5p77j3wvcs7ud37u","addr1q9j9edkjryr9fnz6eyuwjcjutun9kpgtkdlulzquheldfeermhplrjkd38pvcn2r58dnl0v4rxs9lz6rdj5p77j3wvcs7ud37u"],"addressesOutput":["addr1x9725s5t8jxvghmh82x68vw7d3dlaw6xyq6w2fg9qaynlfe5mrm5fenxvqthcunwkvefed0963k4tmuk9y584p2m0nuq3gfevs","addr1q9j9edkjryr9fnz6eyuwjcjutun9kpgtkdlulzquheldfeermhplrjkd38pvcn2r58dnl0v4rxs9lz6rdj5p77j3wvcs7ud37u","addr1q9j9edkjryr9fnz6eyuwjcjutun9kpgtkdlulzquheldfeermhplrjkd38pvcn2r58dnl0v4rxs9lz6rdj5p77j3wvcs7ud37u","addr1q9j9edkjryr9fnz6eyuwjcjutun9kpgtkdlulzquheldfeermhplrjkd38pvcn2r58dnl0v4rxs9lz6rdj5p77j3wvcs7ud37u","addr1q9j9edkjryr9fnz6eyuwjcjutun9kpgtkdlulzquheldfeermhplrjkd38pvcn2r58dnl0v4rxs9lz6rdj5p77j3wvcs7ud37u"],"fee":838481,"totalOutput":168021833,"tokens":[]},{"hash":"4a4c756b5ea758495a2b7e6bd677d9b438b26fc7bdeab49e4e60e4ccb6c32cae","blockNo":8528680,"blockHash":"24e936453d6d68b9a25d9454f39c1472c7f91d1100b06a17217430437890dde0","epochNo":400,"epochSlotNo":51165,"slot":87487965,"time":"2023/03/17 11:57:36","addressesInput":["addr1q9j9edkjryr9fnz6eyuwjcjutun9kpgtkdlulzquheldfeermhplrjkd38pvcn2r58dnl0v4rxs9lz6rdj5p77j3wvcs7ud37u","addr1q9j9edkjryr9fnz6eyuwjcjutun9kpgtkdlulzquheldfeermhplrjkd38pvcn2r58dnl0v4rxs9lz6rdj5p77j3wvcs7ud37u","addr1q9j9edkjryr9fnz6eyuwjcjutun9kpgtkdlulzquheldfeermhplrjkd38pvcn2r58dnl0v4rxs9lz6rdj5p77j3wvcs7ud37u","addr1q9j9edkjryr9fnz6eyuwjcjutun9kpgtkdlulzquheldfeermhplrjkd38pvcn2r58dnl0v4rxs9lz6rdj5p77j3wvcs7ud37u","addr1q9j9edkjryr9fnz6eyuwjcjutun9kpgtkdlulzquheldfeermhplrjkd38pvcn2r58dnl0v4rxs9lz6rdj5p77j3wvcs7ud37u","addr1q9j9edkjryr9fnz6eyuwjcjutun9kpgtkdlulzquheldfeermhplrjkd38pvcn2r58dnl0v4rxs9lz6rdj5p77j3wvcs7ud37u","addr1q9j9edkjryr9fnz6eyuwjcjutun9kpgtkdlulzquheldfeermhplrjkd38pvcn2r58dnl0v4rxs9lz6rdj5p77j3wvcs7ud37u","addr1q9j9edkjryr9fnz6eyuwjcjutun9kpgtkdlulzquheldfeermhplrjkd38pvcn2r58dnl0v4rxs9lz6rdj5p77j3wvcs7ud37u","addr1q9j9edkjryr9fnz6eyuwjcjutun9kpgtkdlulzquheldfeermhplrjkd38pvcn2r58dnl0v4rxs9lz6rdj5p77j3wvcs7ud37u","addr1q9j9edkjryr9fnz6eyuwjcjutun9kpgtkdlulzquheldfeermhplrjkd38pvcn2r58dnl0v4rxs9lz6rdj5p77j3wvcs7ud37u"],"addressesOutput":["addr1x9725s5t8jxvghmh82x68vw7d3dlaw6xyq6w2fg9qaynlfe5mrm5fenxvqthcunwkvefed0963k4tmuk9y584p2m0nuq3gfevs","addr1q9j9edkjryr9fnz6eyuwjcjutun9kpgtkdlulzquheldfeermhplrjkd38pvcn2r58dnl0v4rxs9lz6rdj5p77j3wvcs7ud37u","addr1q9j9edkjryr9fnz6eyuwjcjutun9kpgtkdlulzquheldfeermhplrjkd38pvcn2r58dnl0v4rxs9lz6rdj5p77j3wvcs7ud37u","addr1q9j9edkjryr9fnz6eyuwjcjutun9kpgtkdlulzquheldfeermhplrjkd38pvcn2r58dnl0v4rxs9lz6rdj5p77j3wvcs7ud37u","addr1q9j9edkjryr9fnz6eyuwjcjutun9kpgtkdlulzquheldfeermhplrjkd38pvcn2r58dnl0v4rxs9lz6rdj5p77j3wvcs7ud37u"],"fee":844905,"totalOutput":171166164,"tokens":[]},{"hash":"7a293ac301c09ac55fcfac61fec532ecf5b368828acaa11cc14034f41461efd2","blockNo":8528663,"blockHash":"1e0b3df892ff9fde88231733bd50d56fdd902287fccf950be739be9ba75b0701","epochNo":400,"epochSlotNo":50858,"slot":87487658,"time":"2023/03/17 11:52:29","addressesInput":["addr1q9j9edkjryr9fnz6eyuwjcjutun9kpgtkdlulzquheldfeermhplrjkd38pvcn2r58dnl0v4rxs9lz6rdj5p77j3wvcs7ud37u"],"addressesOutput":["addr1zxn9efv2f6w82hagxqtn62ju4m293tqvw0uhmdl64ch8uw6j2c79gy9l76sdg0xwhd7r0c0kna0tycz4y5s6mlenh8pq6s3z70","addr1q9j9edkjryr9fnz6eyuwjcjutun9kpgtkdlulzquheldfeermhplrjkd38pvcn2r58dnl0v4rxs9lz6rdj5p77j3wvcs7ud37u","addr1q9j9edkjryr9fnz6eyuwjcjutun9kpgtkdlulzquheldfeermhplrjkd38pvcn2r58dnl0v4rxs9lz6rdj5p77j3wvcs7ud37u"],"fee":406313,"totalOutput":100777961,"tokens":[]}],"totalItems":14506,"totalPages":726,"currentPage":0}