{"data":[{"txId":51241524,"txHash":"aa721d097f0544defc83fad040462031f16d7ed0d5f602e148bd8cfbdad50837","txTime":"2022/09/29 17:26:23","block":7820453,"epoch":366,"slotNo":72906092,"epochSlotNo":157292,"stakeKey":"stake1u9p7hjz8cte3m3y28lp4euuzmv5q5h93wq20emzhdqtvyksewxn4k"},{"txId":51241480,"txHash":"41a01c5303b0a9fd3ab3d4e68f6365750373f0651e39904d293982df47bb1e9b","txTime":"2022/09/29 17:25:37","block":7820449,"epoch":366,"slotNo":72906046,"epochSlotNo":157246,"stakeKey":"stake1uyeef2ms2agrvarc6dakf3k0tv69ne49exlxv8lh06le32s8f7ytk"},{"txId":51241443,"txHash":"8e215b56019f3aadc2a750c9acc6852c1174390dd02cdc1262e93f7307e0b660","txTime":"2022/09/29 17:24:28","block":7820444,"epoch":366,"slotNo":72905977,"epochSlotNo":157177,"stakeKey":"stake1uye96hee72598xznwpfh77qtgwxtjmhupr9neuk6xpk45jc0qkueg"},{"txId":51241174,"txHash":"ac46a2cdba60d3b941afdd7561e5e22bcc406ff751450bdb15dbc778377f3664","txTime":"2022/09/29 17:18:57","block":7820427,"epoch":366,"slotNo":72905646,"epochSlotNo":156846,"stakeKey":"stake1u9p8tq8y4vhd69aza9v7ffr8jaa7g60hnp9uxgxhsqeprwqkjxn75"},{"txId":51240711,"txHash":"efe9dd64f0c0039157f617073738c41a35fac51c96ac7ab147f4941e9781e46d","txTime":"2022/09/29 17:09:51","block":7820404,"epoch":366,"slotNo":72905100,"epochSlotNo":156300,"stakeKey":"stake1uxk5lfzqnqyfeud7g4axkzqru9es9t9xgs2f2x7p04y78pqrrj466"},{"txId":51240353,"txHash":"38a163d69e4e8bf7417f5f929b1659f554468e8781767b2edfbf9617905a38e0","txTime":"2022/09/29 17:02:57","block":7820386,"epoch":366,"slotNo":72904686,"epochSlotNo":155886,"stakeKey":"stake1uyzx0xp9fg58narv2jg7h94eh8hlhnlrqh9s2w0z7xezqfcpxexak"},{"txId":51240343,"txHash":"94ff62a1fe20c45bbee43a363a8d40a2727b02d4e4847b782f4a289bc0266a85","txTime":"2022/09/29 17:02:57","block":7820386,"epoch":366,"slotNo":72904686,"epochSlotNo":155886,"stakeKey":"stake1u92s4h775gdmp6v9u5xft23l6dn34a3pt49gl0dsqq03txsncghfy"},{"txId":51240327,"txHash":"f1dcc13e03a981798e1fbfd2ace53646941758b8833a514b5a26b103c2d62544","txTime":"2022/09/29 17:01:49","block":7820385,"epoch":366,"slotNo":72904618,"epochSlotNo":155818,"stakeKey":"stake1uxfmur5n23he7adegmf05s6t8zmsqjsuj0697d8c8g62vwcqafype"},{"txId":51240309,"txHash":"cc94a1338378eaef122dbe9916fc09010ea60b70c3545f9e80feb73f3e6f32b8","txTime":"2022/09/29 17:01:49","block":7820385,"epoch":366,"slotNo":72904618,"epochSlotNo":155818,"stakeKey":"stake1uygre98f4hhaqp2awha936js956x0n093ykzeut6848uvagv7eury"},{"txId":51240199,"txHash":"c87495867fbfe7a519808b773f40266723625578c398b5804a1881de353a5460","txTime":"2022/09/29 16:59:31","block":7820380,"epoch":366,"slotNo":72904480,"epochSlotNo":155680,"stakeKey":"stake1u8rv5flegysn7wfe4ulkjalejcqmqq92c24jhxr65fksarq36qk2j"},{"txId":51239958,"txHash":"8512bc0fef4ab93884ac260fb63988023da4868f2dd08415fa485eb27066bf69","txTime":"2022/09/29 16:53:58","block":7820364,"epoch":366,"slotNo":72904147,"epochSlotNo":155347,"stakeKey":"stake1u9kjgkxkyljqqqaddpue7w2u4mfe5faqq3cw2qh7yrfmwyqnvjwgz"},{"txId":51239933,"txHash":"44abd5b1921af244995758acc434b1e5bec54003d4b0d45bd644b8b052929950","txTime":"2022/09/29 16:53:52","block":7820363,"epoch":366,"slotNo":72904141,"epochSlotNo":155341,"stakeKey":"stake1u9zz89dau06hwyl7uknkzfwk7tsnzv3fzce3g9npl9d64nsx9wzak"},{"txId":51239415,"txHash":"8cf0f9114225955a95f465b0095136c36a379a22d00ff6843f85f64d1dc09df8","txTime":"2022/09/29 16:43:18","block":7820324,"epoch":366,"slotNo":72903507,"epochSlotNo":154707,"stakeKey":"stake1uxjtu54eqjtv3hlrjc82ef3aye0zv9gjz9vp4w7jtjz337syxtny8"},{"txId":51239120,"txHash":"0f4618278b067268b943c18e37e53d9f99b85454a0258fb2687e73f09fad6d8b","txTime":"2022/09/29 16:37:34","block":7820308,"epoch":366,"slotNo":72903163,"epochSlotNo":154363,"stakeKey":"stake1uxl49vm9zzdy770hfev2e0hwz6exrhtdefyl3xll3smyffcgyhllf"},{"txId":51238620,"txHash":"5c4d4a56a15515f152602b637ba49308c6d53d6c5606437269c3b7c89b2f464c","txTime":"2022/09/29 16:26:56","block":7820279,"epoch":366,"slotNo":72902525,"epochSlotNo":153725,"stakeKey":"stake1u8advt2zdzalqv0ajuwraljsyaz0gyk0vk3ql9rpwmytdlgac0kev"},{"txId":51237830,"txHash":"670d975adbc77c03b50131e58bde7a11c05a5d71ac473b2f7169f3f7caffee5f","txTime":"2022/09/29 16:11:35","block":7820239,"epoch":366,"slotNo":72901604,"epochSlotNo":152804,"stakeKey":"stake1uxpm7ukd6jk2900gfh5q6mywdz8aswac3w0x73edm7hdt4clsmfvk"},{"txId":51237412,"txHash":"9730bb9b031b8597c15206426b6aa724d3a1683724510fb622f4a159ee985303","txTime":"2022/09/29 16:03:42","block":7820220,"epoch":366,"slotNo":72901131,"epochSlotNo":152331,"stakeKey":"stake1u8hcdd5kezj7l24r0a55a70s29esmgmt9mmsdqjfz49k22qs4eqyu"},{"txId":51236247,"txHash":"49e08f1fe7795c832723cd2d54a6f2c5604542ea142342d653c7cc1f7f5debf0","txTime":"2022/09/29 15:40:49","block":7820143,"epoch":366,"slotNo":72899758,"epochSlotNo":150958,"stakeKey":"stake1uxsems7xeuf27yuf9fvd6nj325570jgp9zp55fqgrvp670syjasrs"},{"txId":51236049,"txHash":"80cff7199093a644b14402ef8cb96181d71d6732ab8e181b0683d0cdf2f6b9b1","txTime":"2022/09/29 15:36:57","block":7820131,"epoch":366,"slotNo":72899526,"epochSlotNo":150726,"stakeKey":"stake1ux2jvk3kdeurx25erua2t9augfsmmjkd9lyxn9jldhm76hqf8csw9"},{"txId":51235659,"txHash":"dbeb2ee1ce4eac2d820d8549d9eba0985acb97482d698409ab96872b639bfda4","txTime":"2022/09/29 15:30:00","block":7820106,"epoch":366,"slotNo":72899109,"epochSlotNo":150309,"stakeKey":"stake1uyh38a9n9g6fap80h0kecze33fyt0ns6a8tqxkv8uu458gqykyvds"}],"totalItems":317541,"totalPages":15878,"currentPage":0}