{"data":[{"blockNo":8098435,"slotNo":78633993,"epochNo":379,"epochSlotNo":269193,"hash":"70c751fc48713359b4bf91bed82a95b140c3395ee193fb8c070bab3b60b372dc","time":"2022/12/05 00:31:24","txCount":33,"totalFees":11201412,"totalOutput":762984385874,"slotLeader":"483b0d11a79c52d088f93e8a0930999c1bb17f2b04b26c7167d9bb0e"},{"blockNo":8098434,"slotNo":78633945,"epochNo":379,"epochSlotNo":269145,"hash":"b623ed455fe1e993479f58292ca5175737a961b33c8da4a53ab4ac28d5aa204d","time":"2022/12/05 00:30:36","txCount":11,"totalFees":3018999,"totalOutput":25198803045,"slotLeader":"27ca1ffda65d1ef326c9e6a717210c98b10a0e17910c0ab6d9eeb6fb"},{"blockNo":8098433,"slotNo":78633933,"epochNo":379,"epochSlotNo":269133,"hash":"6d0865468c16b8c1e358eeb0ca5245317da1824f1b7c382ed03e68b729397559","time":"2022/12/05 00:30:24","txCount":14,"totalFees":4631164,"totalOutput":313758192774,"slotLeader":"34eb602eb435e3c6a4feb6d766a44735ca09e963f82098973c85951e"},{"blockNo":8098432,"slotNo":78633916,"epochNo":379,"epochSlotNo":269116,"hash":"aaba1fe8fd30d26e53019d50946246c55a526b674c007a355bb37d4b1f4d918e","time":"2022/12/05 00:30:07","txCount":23,"totalFees":7218322,"totalOutput":187156417721,"slotLeader":"061f4c7b5de2c1554690029e2e559272ff4dbcd3aecc02d91aceb5c7"},{"blockNo":8098431,"slotNo":78633885,"epochNo":379,"epochSlotNo":269085,"hash":"4510afbc8a6c1f996ba9ad0316f6c660ea51842d6e6c3296b202f79b4baa59c4","time":"2022/12/05 00:29:36","txCount":3,"totalFees":782283,"totalOutput":191009712,"slotLeader":"f76e3a1104a9d816a67d5826a155c9e2979a839d0d944346d47e33ab"},{"blockNo":8098430,"slotNo":78633878,"epochNo":379,"epochSlotNo":269078,"hash":"21d8345e061438b7578ac556da4967a318963276b64f9de58769be05fb9c98a5","time":"2022/12/05 00:29:29","txCount":5,"totalFees":2109647,"totalOutput":61273812568,"slotLeader":"96a46d5a796a30483492c3717f80b7c6ef87e9525af162ffacf74fdb"},{"blockNo":8098429,"slotNo":78633872,"epochNo":379,"epochSlotNo":269072,"hash":"d928d84aec65166105767288b3f1c90893b0a0dabb0b8db7a45aed7378c7995c","time":"2022/12/05 00:29:23","txCount":26,"totalFees":8208718,"totalOutput":102528471906,"slotLeader":"14cb7963696b6f80abb2298dc60bc2abc7d813abb23ac19c6420bca0"},{"blockNo":8098428,"slotNo":78633833,"epochNo":379,"epochSlotNo":269033,"hash":"468c6d7f6ac767bd08944f9ba92365e7936249750990aecf2e9952a30d98f088","time":"2022/12/05 00:28:44","txCount":21,"totalFees":6656169,"totalOutput":616744334332,"slotLeader":"7e00129d906afbba06a6b279fcf6e4295986a1104b7f5c4046c653bc"},{"blockNo":8098427,"slotNo":78633798,"epochNo":379,"epochSlotNo":268998,"hash":"aff54ee9e0b78fe44d9aca0e3e0de02aeb9eccb22b011e6f76fbe4ceb1f65fed","time":"2022/12/05 00:28:09","txCount":0,"totalFees":0,"totalOutput":0,"slotLeader":"a790a551d217bafb8548f2e92f20b56b63980d5a320af1cc65402328"},{"blockNo":8098426,"slotNo":78633797,"epochNo":379,"epochSlotNo":268997,"hash":"fef8d80edcf7dc71b00696c2d83c3a80d22a5902e6538dd8e7130fa0c6e5385f","time":"2022/12/05 00:28:08","txCount":23,"totalFees":8089781,"totalOutput":14008184029,"slotLeader":"c83beb18d532234c72a304ab935982be670c22e771b227a3febc3a82"},{"blockNo":8098425,"slotNo":78633768,"epochNo":379,"epochSlotNo":268968,"hash":"e8ef01662078362cbe241f50bfe2f4c05e8e990a94c99cd2887b37c0918a0483","time":"2022/12/05 00:27:39","txCount":4,"totalFees":1968258,"totalOutput":344824650,"slotLeader":"79c4d4fe108f480fee98f307adac12571df2959651f833b595141cd1"},{"blockNo":8098424,"slotNo":78633761,"epochNo":379,"epochSlotNo":268961,"hash":"a2d77693803d88b8fc0a3c4f6e04d0fa9d9f35cce4a33cd93f3c1299773fd09e","time":"2022/12/05 00:27:32","txCount":2,"totalFees":633064,"totalOutput":264710276,"slotLeader":"523484ee98a83c3139c66eeef334d67f96467241d34abb655baeade0"},{"blockNo":8098423,"slotNo":78633759,"epochNo":379,"epochSlotNo":268959,"hash":"dc7a91388435fdbcac7fdf57ef561d1329c968bff123bbb4a8669b6548478740","time":"2022/12/05 00:27:30","txCount":8,"totalFees":3621767,"totalOutput":5060511651,"slotLeader":"83ea16a7f183288173077c54a1e2b3cbcd0f2336e1bc85e2cc6397e0"},{"blockNo":8098422,"slotNo":78633747,"epochNo":379,"epochSlotNo":268947,"hash":"341ee309a9b1a7a0e250abdaff1c383643d92377fe701b982781a30e9decc112","time":"2022/12/05 00:27:18","txCount":9,"totalFees":4693713,"totalOutput":83342635079,"slotLeader":"6539a70bb6e61540444133eab3a24288d1cd3ddc3598adde93475513"},{"blockNo":8098421,"slotNo":78633744,"epochNo":379,"epochSlotNo":268944,"hash":"0de46636c873f4c5d2eccd3e648729b9bbc1796785f92c1544ec848b2dcec08c","time":"2022/12/05 00:27:15","txCount":19,"totalFees":8184831,"totalOutput":75147985303,"slotLeader":"cb9a5414581696cf9176787e99472790355a7de61d67a5643da95a86"},{"blockNo":8098420,"slotNo":78633712,"epochNo":379,"epochSlotNo":268912,"hash":"697e9f530f89afd22b922278b504e5c0c17056d86d9ca7a473b85161cf5250d7","time":"2022/12/05 00:26:43","txCount":24,"totalFees":8529415,"totalOutput":91342518150,"slotLeader":"1c8cd022e993a8366be641c17cb6d9c5d8944e00bfce3189d8b1515a"},{"blockNo":8098419,"slotNo":78633700,"epochNo":379,"epochSlotNo":268900,"hash":"ebee74513cf51aa4f86ee5b20bbc38732ea5cee3aba0f3c43874aa56c91b5f6e","time":"2022/12/05 00:26:31","txCount":22,"totalFees":7774500,"totalOutput":186064490188,"slotLeader":"08453273401b3ee2f380ec570f8c926d5f3bd3522337d03b566a6b61"},{"blockNo":8098418,"slotNo":78633679,"epochNo":379,"epochSlotNo":268879,"hash":"9622a01c3dd5cc832c7eba35a547808fbe289ba662b6336ffd89f7fb565ef6db","time":"2022/12/05 00:26:10","txCount":32,"totalFees":11696664,"totalOutput":33789319298,"slotLeader":"f6541f3ca941d96d3c243eae01fea874d6be403b2dd2c6575245de6e"},{"blockNo":8098417,"slotNo":78633661,"epochNo":379,"epochSlotNo":268861,"hash":"c986fda005cf3e2e9878dfc28d95ce798f01bdb7e37ea39c29ddbb40a038c766","time":"2022/12/05 00:25:52","txCount":29,"totalFees":9265879,"totalOutput":443910749920,"slotLeader":"fe59e220d8036bd7533bf393e26abde56ec7d49fa632e57bf696d134"},{"blockNo":8098416,"slotNo":78633644,"epochNo":379,"epochSlotNo":268844,"hash":"6d0b8615767002ff46e2bfaa46973e81810884516363a2e8f3c1d95669ac5549","time":"2022/12/05 00:25:35","txCount":25,"totalFees":8636360,"totalOutput":141417551628849,"slotLeader":"660f20fb9d419173ac623786ad3e6dc11a23951981e0e83e98233d29"}],"totalItems":8098611,"totalPages":404931,"currentPage":0}