{"data":[{"txId":62246503,"txHash":"31e65b6d76a779a8e7617696c00958b024e9b42965b9df4a049191233339f40c","txTime":"2023/02/18 05:33:24","block":8413731,"epoch":394,"slotNo":85132113,"epochSlotNo":287313,"stakeKey":"stake1u9serfvfy8dlux5lrz2ugky3yjk8kuhflaffa7sdzeay2qsvzv2en"},{"txId":62246459,"txHash":"bbff8799632b49ebe1837c102aa5bb0a8f4f9ccdfb7d8f82401f95e7d0743705","txTime":"2023/02/18 05:31:48","block":8413727,"epoch":394,"slotNo":85132017,"epochSlotNo":287217,"stakeKey":"stake1u8ask0385hs7gjgzchqzxqz76x3vnf65grck5rfq0c0vf3gkhn20f"},{"txId":62246327,"txHash":"f2a9b355f21a70899d221d72424176eaa0234689fd0490e43453b981d30a0d50","txTime":"2023/02/18 05:27:26","block":8413713,"epoch":394,"slotNo":85131755,"epochSlotNo":286955,"stakeKey":"stake1u86uk3jdpmh7xs8km6hws566qy80edqsqalpnddumzwgpjsyasya5"},{"txId":62246299,"txHash":"2fe431125e3e8750b2509817fe95c49c46bd908d24d3c8181f9327b852c3728a","txTime":"2023/02/18 05:26:11","block":8413708,"epoch":394,"slotNo":85131680,"epochSlotNo":286880,"stakeKey":"stake1ux7t0xsxen2zzcz6lknppe7cey4sq265razapz0xg6hpljs5t8jef"},{"txId":62245945,"txHash":"cadaa5f8bb016d577f45fde7946163349bbaf6aabb813f68c768c46e6c3962c2","txTime":"2023/02/18 05:14:41","block":8413676,"epoch":394,"slotNo":85130990,"epochSlotNo":286190,"stakeKey":"stake1uxpvy5e32cj8dye2qglr8jw0m0xs09a2555eg3r9l632xqqarz5cv"},{"txId":62245508,"txHash":"3f94d6b10eda4e33dc80590fd83a97652bbe678380b6ce8efd33749e32366477","txTime":"2023/02/18 04:59:33","block":8413640,"epoch":394,"slotNo":85130082,"epochSlotNo":285282,"stakeKey":"stake1uy098aymhltsk2w5ykkx50050a94e7v95tvqa7y0js36e7gkn3atw"},{"txId":62245432,"txHash":"acdbbdba1517853e3823e940d161d2135d335307af86c807e2a4a4e5d9bd092c","txTime":"2023/02/18 04:56:55","block":8413631,"epoch":394,"slotNo":85129924,"epochSlotNo":285124,"stakeKey":"stake1uystf8r27ltlfhtwx7tsxacrtnsk2fd2c6vrzxmendgcl2shx25p4"},{"txId":62245340,"txHash":"4fc3df37138e7ee90c2d4d8eecf0a17260d5302570cab3f53324e6a8923d9fd3","txTime":"2023/02/18 04:53:37","block":8413620,"epoch":394,"slotNo":85129726,"epochSlotNo":284926,"stakeKey":"stake1u8r82hqw270x8zlks0pprpeha3y5aw5msw9y5mscd0e8rpq6sshme"},{"txId":62245196,"txHash":"5bef74ecb2916ca57c25cb595c5e10d9727bfc308b6fc781681f5289e73a97f6","txTime":"2023/02/18 04:49:10","block":8413607,"epoch":394,"slotNo":85129459,"epochSlotNo":284659,"stakeKey":"stake1uyvg5sm4jjl0vqe9eew570yecl63rwzn8rdp736yp9chyzqgh0zw2"},{"txId":62244966,"txHash":"1b2d9bd8fdb05552c78b5376a4765630184b17c25565aed92e70e7fceba009c1","txTime":"2023/02/18 04:41:50","block":8413586,"epoch":394,"slotNo":85129019,"epochSlotNo":284219,"stakeKey":"stake1uyv0akg8fklrg97mw6607tjydd25cgppd7ap4lvgdgv4t3sf2uxe7"},{"txId":62244727,"txHash":"775b48175abe5d2fbb41c8105e45cba7a60d5950d38506155a91233ac4b59b79","txTime":"2023/02/18 04:34:30","block":8413569,"epoch":394,"slotNo":85128579,"epochSlotNo":283779,"stakeKey":"stake1u90cd0s6ft06h0qeafvgjdjp6swkpyttr2wspgkrvpn9ezg2fda27"},{"txId":62244585,"txHash":"68dacfe26ac0c7108d7bb46cffefabe5a38f05907db63831f6281c349ae2ac2e","txTime":"2023/02/18 04:29:10","block":8413557,"epoch":394,"slotNo":85128259,"epochSlotNo":283459,"stakeKey":"stake1u880gmlxspz8vrfzl9n6969k3dp0fradlj9nd6pfv8wy34g2l9239"},{"txId":62243964,"txHash":"fc46e5b64e363f15139cd14a4de9971bbc75ea70f4831b7b4d503c87355f2a22","txTime":"2023/02/18 04:07:01","block":8413488,"epoch":394,"slotNo":85126930,"epochSlotNo":282130,"stakeKey":"stake1u9vh8m8ma5m754pzalv8tkwfdusta2hy2le3k8hfhqd5c4csymmyy"},{"txId":62243950,"txHash":"6d0e9b75fa1ce7125b4eb36262dc3a4994e7813fa649a62f9481147ede746f87","txTime":"2023/02/18 04:07:01","block":8413488,"epoch":394,"slotNo":85126930,"epochSlotNo":282130,"stakeKey":"stake1u9y22wx5xysh9yrz5ga2nmv25n84legxaddznxr963ufszqqx8a8x"},{"txId":62243833,"txHash":"f3920dabff71455f231d90eba2e0d02a0081b14af9f02e9ef2bc72acfc6ac0ba","txTime":"2023/02/18 04:04:21","block":8413481,"epoch":394,"slotNo":85126770,"epochSlotNo":281970,"stakeKey":"stake1u8qm6kfgmjdmgxqehv64k5zuky6yd4cfqa76vvtk7fu9jjqxhggyv"},{"txId":62243397,"txHash":"57934c6ff160e8c9a33f383dd6e892a6aa54c582b22f1f494853f16cccdad313","txTime":"2023/02/18 03:49:22","block":8413441,"epoch":394,"slotNo":85125871,"epochSlotNo":281071,"stakeKey":"stake1u8pxyy0glltezmv4xnelfp5jsml9m3qmjv6zkyv8hcgs03g6z0hh0"},{"txId":62242581,"txHash":"56a1a6d8d259ff5a3aff63df2be717bfde3ec9386221bfcd9669ee0ce8d22eca","txTime":"2023/02/18 03:23:31","block":8413368,"epoch":394,"slotNo":85124320,"epochSlotNo":279520,"stakeKey":"stake1ux6jgz0vvtdpwpmkcuvzcdfdn3z8ntdqxln0smn8szyux0s4yyaln"},{"txId":62242321,"txHash":"9314ad8fef0655afae071a6a810bd2af928d0144f6a9da4e53bd4c73199b8cdd","txTime":"2023/02/18 03:14:16","block":8413324,"epoch":394,"slotNo":85123765,"epochSlotNo":278965,"stakeKey":"stake1u9ycml2m2c3rm08h9qpgkc83jcp0zqra5kkvspfmf4wwaesz8cj5m"},{"txId":62242050,"txHash":"95b14d1848e35a0927a4c36bcc3e1c4e6b0286bf188115694451c742c2ad48be","txTime":"2023/02/18 03:05:51","block":8413306,"epoch":394,"slotNo":85123260,"epochSlotNo":278460,"stakeKey":"stake1ux375z40gdnn6te5ghcdpuwsflxjxn5vjqrw4j05jhlefxql7qvkj"},{"txId":62241363,"txHash":"6548a8885c88d4d4e3a0db8358461c58728f42e5a461aaaf025abfa815853d49","txTime":"2023/02/18 02:42:46","block":8413236,"epoch":394,"slotNo":85121875,"epochSlotNo":277075,"stakeKey":"stake1uyyktq222qxgmj8xu3llatdlfrz9040mmn6jfvhga460yuqer8t0f"}],"totalItems":354481,"totalPages":17725,"currentPage":0}