{"data":[{"txId":57035109,"txHash":"28723a602834f594b18c162887ec2b16951b3c7365d334731b05b1fb616d1379","txTime":"2022/12/10 16:51:12","block":8122478,"epoch":380,"slotNo":79124781,"epochSlotNo":327981,"stakeKey":"stake1u8ntwz5t9lf8te5apn5u7vl0un4mfusfgu9ss58jtlkzl7czs02m2"},{"txId":57034772,"txHash":"af208c950ba47a53ea8bb1a5ba762fc89ae92a1bec8117cf5718636aa7367b79","txTime":"2022/12/10 16:42:42","block":8122458,"epoch":380,"slotNo":79124271,"epochSlotNo":327471,"stakeKey":"stake1ux89xa4y7aa2zsgy0fqkkhu2wjdejjusd030jawxz8dfd6sw6kfvt"},{"txId":57034661,"txHash":"cc4085af0008a5f8ae317f2002e441496202087d343396ccdb36d8c13418cb2a","txTime":"2022/12/10 16:40:54","block":8122451,"epoch":380,"slotNo":79124163,"epochSlotNo":327363,"stakeKey":"stake1u94yg7ddvwujrrfrsu806urv9dpkp7zmsrh7r2yypjtazqsq3dht5"},{"txId":57033699,"txHash":"d85e761e3012464f1f112946fefcab1973c2eb640d53841435c99ea5362cb38b","txTime":"2022/12/10 16:24:14","block":8122396,"epoch":380,"slotNo":79123163,"epochSlotNo":326363,"stakeKey":"stake1uxv89ufud2lzaqftsv24cpu6gx6y0uxk5echq4295wtc4uqufkp4f"},{"txId":57032294,"txHash":"30f634f47fae482328da8aa14d108dc32d768cf74a0b06e279e0ed8505aa4eb4","txTime":"2022/12/10 15:56:37","block":8122303,"epoch":380,"slotNo":79121506,"epochSlotNo":324706,"stakeKey":"stake1u9h08hcwl6avasdwwcqzn350ss5zj4fj407vu342gd5um0cjzdf67"},{"txId":57032290,"txHash":"3b8c5928e87f411f6828772c8b3111b7c5eb9a532af00e819a173ba8e8d10743","txTime":"2022/12/10 15:56:37","block":8122303,"epoch":380,"slotNo":79121506,"epochSlotNo":324706,"stakeKey":"stake1uyfn7kq50y5ax4rdc3nnwzk3l0kaj5sr4p3s0exv5v2763c9ssp9n"},{"txId":57031980,"txHash":"5698d81693225c76af99ab41aa80393a963fe8b2e8d3fd824c56f8ab7d243021","txTime":"2022/12/10 15:49:19","block":8122282,"epoch":380,"slotNo":79121068,"epochSlotNo":324268,"stakeKey":"stake1u9l9amqe0uzwaa0l0j2l3qcslgaucd93cndj7956j86pepgvn5sa3"},{"txId":57031844,"txHash":"954025041e0e17fb400ad22bfec46725938839292c3dd3385ca4dd2b87943d09","txTime":"2022/12/10 15:45:25","block":8122268,"epoch":380,"slotNo":79120834,"epochSlotNo":324034,"stakeKey":"stake1u8hxd4ej3xkqz04mrau64wtf5uj8s40tf0w3c2h6nuq6c6chv8hsv"},{"txId":57030408,"txHash":"0da327aca115e195290cecf83eab09b8215e0f9970234267319c141d9d20bcc7","txTime":"2022/12/10 15:14:41","block":8122183,"epoch":380,"slotNo":79118990,"epochSlotNo":322190,"stakeKey":"stake1u88z9w8sv4re9hgrnqn8x3h6eqmn2x9344d5s33v2nthe6cavsxfa"},{"txId":57030201,"txHash":"f4ae9052747aff4e45330b403e1d5af031d761f944841817f599d5ef6e2c3128","txTime":"2022/12/10 15:10:38","block":8122175,"epoch":380,"slotNo":79118747,"epochSlotNo":321947,"stakeKey":"stake1ux7ws373wcj2qtze2u5e2gcp5905gpz8echuhc55naz9a2s6xxzr0"},{"txId":57030155,"txHash":"ff00b08afc1b4aa1a55bf86e27b108bf60cc90ee15ab7683d5c6c7416e4dbebd","txTime":"2022/12/10 15:09:42","block":8122172,"epoch":380,"slotNo":79118691,"epochSlotNo":321891,"stakeKey":"stake1u99dryrdqdddckzyg8d88xyg8r667w3w5eds4tyu6umugkqz5ye9g"},{"txId":57029893,"txHash":"f7629a5734a62f2295111f38265ad9f6ce534a75d02f87a874729ac7a906de35","txTime":"2022/12/10 15:03:30","block":8122154,"epoch":380,"slotNo":79118319,"epochSlotNo":321519,"stakeKey":"stake1uxexn3hlu3ftmnm6hqkxyd6wqda2p6tx6e9h7npyge2nfsc0qt330"},{"txId":57029843,"txHash":"389e013aa53fe693936c8f1acf47e139d13effa89ec780a2e1ec9b2770858130","txTime":"2022/12/10 15:02:19","block":8122152,"epoch":380,"slotNo":79118248,"epochSlotNo":321448,"stakeKey":"stake1uys6w6fqlpf28e0mstzes2whqde8kv3mrqj9vszjgrg8u7sfxydl6"},{"txId":57029581,"txHash":"252b0af2e1900e7215ce295aa011c97792f903ab818864c5ae13f806a898e98b","txTime":"2022/12/10 14:56:36","block":8122136,"epoch":380,"slotNo":79117905,"epochSlotNo":321105,"stakeKey":"stake1u8n2vpcnd6fj03uxymjd78xxfkhvzz75w7mp32nckmexptsn6j65m"},{"txId":57029380,"txHash":"758ebe4089a4c7e829e08a1285236d3d8ab38c08aa4dee2d170c23336bdf02ea","txTime":"2022/12/10 14:52:44","block":8122126,"epoch":380,"slotNo":79117673,"epochSlotNo":320873,"stakeKey":"stake1u8vcgnv00run63wgm2mnfg58fatsx00fay6897uahmeez2g9wr3tp"},{"txId":57029228,"txHash":"323e9e777984c0fc017a947066de49d659d2112cfd9db5d743a116e132693781","txTime":"2022/12/10 14:49:11","block":8122104,"epoch":380,"slotNo":79117460,"epochSlotNo":320660,"stakeKey":"stake1uyt3ck5f0v66uateamarh03sxhp8khpfh8ppah9f5zssykgcy5hxq"},{"txId":57029181,"txHash":"28e6e6543f24582b5e8a15437ff098387993c879cebd174a5c0bcc2d0f587f5d","txTime":"2022/12/10 14:48:18","block":8122100,"epoch":380,"slotNo":79117407,"epochSlotNo":320607,"stakeKey":"stake1u9kvy76wmu7lpsz0hfxxpl6zg08ll2ksh7h3tqcd0reyasc4kgtjk"},{"txId":57029006,"txHash":"188ac5c3e6d1079a48079eaa38d5d8b3a3671297bfd3efa999f25d75eabd40f0","txTime":"2022/12/10 14:44:37","block":8122090,"epoch":380,"slotNo":79117186,"epochSlotNo":320386,"stakeKey":"stake1ux4h2tdl43hl6z398u5u9fvwy2uwlksgjnmhtw8k6tc4wfctyw9vd"},{"txId":57028943,"txHash":"89b526eb5f850c2a8d622ba9e147dd0092621cbad2265d4cb1ec37eabf2c28b6","txTime":"2022/12/10 14:44:02","block":8122087,"epoch":380,"slotNo":79117151,"epochSlotNo":320351,"stakeKey":"stake1uxvg2fgltmg8aqyy3veemfdgke3dde5q4q6ep6gdcf05f6c5pst8x"},{"txId":57028577,"txHash":"e65a5dd8a8446570d6f171db28bd920795f9400c4fed95656ef9ef433b10dbf6","txTime":"2022/12/10 14:34:38","block":8122060,"epoch":380,"slotNo":79116587,"epochSlotNo":319787,"stakeKey":"stake1uxkl6zc752uclwwg9whha27hpmsdflz82t832jg2pyfn3tcvgrmw2"}],"totalItems":335979,"totalPages":16799,"currentPage":0}