{"data":[{"blockNo":8113968,"slotNo":78952633,"epochNo":380,"epochSlotNo":155833,"hash":"3760ab71c729c40d1b85b12d25d78b2d05e445c542be9a8a4394655a5814b0a4","time":"2022/12/08 17:02:04","txCount":8,"totalFees":1676903,"totalOutput":1846339070,"slotLeader":"8c289ee3b1b591a95c18ffce66957d1f07115afdf939c2a9b441fc22"},{"blockNo":8113967,"slotNo":78952625,"epochNo":380,"epochSlotNo":155825,"hash":"1813aecebf25591c4a7e412ce0d8eb0921df69c5d5ea311a5d89137cf6949580","time":"2022/12/08 17:01:56","txCount":24,"totalFees":6865072,"totalOutput":25280707121824,"slotLeader":"fdc55442d4c89bfa42bb62ac640ed710afd6eb79531e6dbb8459eb46"},{"blockNo":8113966,"slotNo":78952604,"epochNo":380,"epochSlotNo":155804,"hash":"17a352d8f6518740a13ed6795e9c5b92de21545c4c8ca50d3bb79efe14dc4315","time":"2022/12/08 17:01:35","txCount":34,"totalFees":10090898,"totalOutput":7525886316371,"slotLeader":"788898a81174665316af96880459dcca053f7825abb1b0db9a433630"},{"blockNo":8113965,"slotNo":78952575,"epochNo":380,"epochSlotNo":155775,"hash":"0a7014e40179468c7634039cfd9985b1278abf810b60776d55518b7f58dca892","time":"2022/12/08 17:01:06","txCount":3,"totalFees":984274,"totalOutput":156728556,"slotLeader":"d9812f8d30b5db4b03e5b76cfd242db9cd2763da4671ed062be808a0"},{"blockNo":8113964,"slotNo":78952572,"epochNo":380,"epochSlotNo":155772,"hash":"d05e8e47abdb1b120f62cc019911a0def1d25c13d74368027e4984aefe379adb","time":"2022/12/08 17:01:03","txCount":31,"totalFees":9302074,"totalOutput":77925974613,"slotLeader":"80cb48c2953a78d25f69dbcea305fbcce0c520c25d401cd75a259cf1"},{"blockNo":8113963,"slotNo":78952549,"epochNo":380,"epochSlotNo":155749,"hash":"413c931387a1995ad70010feac9bbe600884bf60efb1a6ee1c80ca0f484d7e1a","time":"2022/12/08 17:00:40","txCount":13,"totalFees":3741320,"totalOutput":14482361742,"slotLeader":"7f6c103302f96390d478a170fe80938b76fccd8a23490e3b6ddebcf7"},{"blockNo":8113962,"slotNo":78952543,"epochNo":380,"epochSlotNo":155743,"hash":"9231e8c2e68688576eea6be11569f32bf88e9893a9dca003f9b1c4c9a75618c1","time":"2022/12/08 17:00:34","txCount":5,"totalFees":1590165,"totalOutput":1726873582,"slotLeader":"6c518b4861bb88b1395ceb116342cecbcfb8736282655f9a61c4c368"},{"blockNo":8113961,"slotNo":78952538,"epochNo":380,"epochSlotNo":155738,"hash":"95799790087f4fd60f3df8d4ca09581b7339848d644b94f04827d81716b63374","time":"2022/12/08 17:00:29","txCount":18,"totalFees":5561631,"totalOutput":1813135710561,"slotLeader":"0c2e0c5a062389a3fd6fafddae26344d490866d7a34cad981b20f96b"},{"blockNo":8113960,"slotNo":78952520,"epochNo":380,"epochSlotNo":155720,"hash":"0e2c9286c5eedc6e064d07a40140cba481cd98de64f05611874ad4462740828c","time":"2022/12/08 17:00:11","txCount":12,"totalFees":2684425,"totalOutput":9398412821,"slotLeader":"0c2e0c5a062389a3fd6fafddae26344d490866d7a34cad981b20f96b"},{"blockNo":8113959,"slotNo":78952511,"epochNo":380,"epochSlotNo":155711,"hash":"1d73a3ab538ffdaaae3a0a862751faa2f96a7d7bc47e4941dc34278f86946b81","time":"2022/12/08 17:00:02","txCount":3,"totalFees":740835,"totalOutput":55740047713,"slotLeader":"c1011645958df9e805df499bbd30056c83094b99c8effe500350d8da"},{"blockNo":8113958,"slotNo":78952504,"epochNo":380,"epochSlotNo":155704,"hash":"108a4cc278e9debd397f90ad8e06fd09c64c027a517565df022e7a562d9dcef5","time":"2022/12/08 16:59:55","txCount":22,"totalFees":5972225,"totalOutput":54247940200,"slotLeader":"523484ee98a83c3139c66eeef334d67f96467241d34abb655baeade0"},{"blockNo":8113957,"slotNo":78952473,"epochNo":380,"epochSlotNo":155673,"hash":"6304fcb6e289d2110354394bbc6b772c1d12d437b4f0c138976bf6f2430f457f","time":"2022/12/08 16:59:24","txCount":21,"totalFees":6699378,"totalOutput":3105088067593,"slotLeader":"3d82913d4c8da690aab6af622651f7a659da40af87dcb4b3b98ce830"},{"blockNo":8113956,"slotNo":78952448,"epochNo":380,"epochSlotNo":155648,"hash":"e3d8a35ae5627e29f820f612a07882b670ed0cf8c36c70f523a105b3486ca914","time":"2022/12/08 16:58:59","txCount":15,"totalFees":7499682,"totalOutput":885385155305,"slotLeader":"1b2523e031e0efe6e5fe0edf8c82fd51abf33a1a2feedad5456ef4d9"},{"blockNo":8113955,"slotNo":78952433,"epochNo":380,"epochSlotNo":155633,"hash":"432411e8e0e8acb0044bbbc3bf3fa78547b93426d9f9f6fc0ddbe3f13a1bf216","time":"2022/12/08 16:58:44","txCount":22,"totalFees":7702919,"totalOutput":7212459062114,"slotLeader":"c4ded02c3f7275e4b6157dd164bf941eea0af4596501c5ed16752ed2"},{"blockNo":8113954,"slotNo":78952403,"epochNo":380,"epochSlotNo":155603,"hash":"9771b017e6a25c79dec5b6d509fda1ef775ba4c51a5cb7eba725948f5eae89dc","time":"2022/12/08 16:58:14","txCount":25,"totalFees":6792928,"totalOutput":5332994980614,"slotLeader":"8871f659c6ce6a29afc0c52963cc872898db31235bead5b4a514b746"},{"blockNo":8113953,"slotNo":78952376,"epochNo":380,"epochSlotNo":155576,"hash":"9180f1cca1df1bcc66eede63e13bff418b0df40792562f64856256e53eacf774","time":"2022/12/08 16:57:47","txCount":3,"totalFees":717984,"totalOutput":277571614,"slotLeader":"00beef373356ff27a77bd510f4cd35d309715afb6f52f49d9186a16e"},{"blockNo":8113952,"slotNo":78952374,"epochNo":380,"epochSlotNo":155574,"hash":"38896bfd88026dbd0d10ecb8668763e2a024099dbd7abf7ccb7f4643b612819a","time":"2022/12/08 16:57:45","txCount":15,"totalFees":5222098,"totalOutput":17825865816383,"slotLeader":"37c37fde7262737abd98024a96e5c25c25ab10c0d69f5b77180b1efe"},{"blockNo":8113951,"slotNo":78952357,"epochNo":380,"epochSlotNo":155557,"hash":"e07381c6786bf3b11138186c215be694236bb03023d06582ea35d8aa2c15d8e4","time":"2022/12/08 16:57:28","txCount":34,"totalFees":9199092,"totalOutput":39981310069,"slotLeader":"a5b36528fbbb2709e1b29fbdc3816399ef2bd1c916efa416aa325f1a"},{"blockNo":8113950,"slotNo":78952320,"epochNo":380,"epochSlotNo":155520,"hash":"7f92307446110f25fd9170694a5a6f66a5466c9718f044a79f7d707614894565","time":"2022/12/08 16:56:51","txCount":38,"totalFees":12191353,"totalOutput":1273019210343,"slotLeader":"b619d366a0acc2e5a8e0f8e373d6eb926a01811f05a381aaa7a8564c"},{"blockNo":8113949,"slotNo":78952302,"epochNo":380,"epochSlotNo":155502,"hash":"bf5b894188d04a97241ec9426cee378982c659e2356ab59c8ff689af8430ec73","time":"2022/12/08 16:56:33","txCount":34,"totalFees":13924608,"totalOutput":22244423751627,"slotLeader":"2885a48f88db36756708fd2f7a30117962dad843add43a313b5ebfdf"}],"totalItems":8114144,"totalPages":405708,"currentPage":0}