{"data":[{"hash":"ac5b51d49df1610061927ac678e67101ba954f43a81dc7eab41b684a91f2f208","blockNo":6808970,"blockHash":"a791d5241e5f6a3fd9745f8f6f7f5e4e0ed12b845c7defa816be0b6e59ce65a9","epochNo":317,"epochSlotNo":161175,"slot":51741975,"time":"2022/01/27 18:31:06","addressesInput":["addr1qymaumdm272r24d0s46827plplhc6t520lufdr5vdqn0z8hze4zwjlw3vpjum04n0gjymwde8c9p5r67yqupkzy8yz5qwdv2cd","addr1qymaumdm272r24d0s46827plplhc6t520lufdr5vdqn0z8hze4zwjlw3vpjum04n0gjymwde8c9p5r67yqupkzy8yz5qwdv2cd"],"addressesOutput":["addr1w9yr0zr530tp9yzrhly8lw5upddu0eym3yh0mjwa0qlr9pgmkzgv0","addr1qymaumdm272r24d0s46827plplhc6t520lufdr5vdqn0z8hze4zwjlw3vpjum04n0gjymwde8c9p5r67yqupkzy8yz5qwdv2cd"],"fee":285357,"totalOutput":148426553,"tokens":[]},{"hash":"5e24d1f3ac4ee54c3f2fad60629bb89b4b3d15cda93f566a80b3edf856504ce1","blockNo":6808930,"blockHash":"3a0a00ab82e037b9af385cf92d7b9422765473a3350fd3f1d1af277add96e152","epochNo":317,"epochSlotNo":160335,"slot":51741135,"time":"2022/01/27 18:17:06","addressesInput":["addr1qyecjgprat9qjdfkv6ln45eww5a9lwkgqn92x6lspd339ky00hv6dpawknxe42d8dlx42msv2nt8yej77vudk0uruvtsh2aeym","addr1qyecjgprat9qjdfkv6ln45eww5a9lwkgqn92x6lspd339ky00hv6dpawknxe42d8dlx42msv2nt8yej77vudk0uruvtsh2aeym"],"addressesOutput":["addr1w999n67e86jn6xal07pzxtrmqynspgx0fwmcmpua4wc6yzsxpljz3","addr1qyecjgprat9qjdfkv6ln45eww5a9lwkgqn92x6lspd339ky00hv6dpawknxe42d8dlx42msv2nt8yej77vudk0uruvtsh2aeym"],"fee":224487,"totalOutput":14959022,"tokens":[]},{"hash":"1473b89fff8e56b35dbbcfc9e76b78ab4f77433f34df2e379d0253b5c4e723ff","blockNo":6808893,"blockHash":"68482a325d614818f8931b84eba0f4f53bd283ca425528979952ef1fdffa7172","epochNo":317,"epochSlotNo":159703,"slot":51740503,"time":"2022/01/27 18:06:34","addressesInput":["addr1qymaumdm272r24d0s46827plplhc6t520lufdr5vdqn0z8hze4zwjlw3vpjum04n0gjymwde8c9p5r67yqupkzy8yz5qwdv2cd","addr1qymaumdm272r24d0s46827plplhc6t520lufdr5vdqn0z8hze4zwjlw3vpjum04n0gjymwde8c9p5r67yqupkzy8yz5qwdv2cd"],"addressesOutput":["addr1w9yr0zr530tp9yzrhly8lw5upddu0eym3yh0mjwa0qlr9pgmkzgv0","addr1qymaumdm272r24d0s46827plplhc6t520lufdr5vdqn0z8hze4zwjlw3vpjum04n0gjymwde8c9p5r67yqupkzy8yz5qwdv2cd","addr1qymaumdm272r24d0s46827plplhc6t520lufdr5vdqn0z8hze4zwjlw3vpjum04n0gjymwde8c9p5r67yqupkzy8yz5qwdv2cd"],"fee":292001,"totalOutput":19120576,"tokens":[]},{"hash":"f632a570bbaee4b0286900b16d4d65e5c01f8f96185c5dc12acb29113d7d7328","blockNo":6808650,"blockHash":"5e95b8e871196c8e618f3e6e278932d7a093d4d48189c7970c772adb036cae1c","epochNo":317,"epochSlotNo":154789,"slot":51735589,"time":"2022/01/27 16:44:40","addressesInput":["addr1qymaumdm272r24d0s46827plplhc6t520lufdr5vdqn0z8hze4zwjlw3vpjum04n0gjymwde8c9p5r67yqupkzy8yz5qwdv2cd","addr1qymaumdm272r24d0s46827plplhc6t520lufdr5vdqn0z8hze4zwjlw3vpjum04n0gjymwde8c9p5r67yqupkzy8yz5qwdv2cd","addr1qymaumdm272r24d0s46827plplhc6t520lufdr5vdqn0z8hze4zwjlw3vpjum04n0gjymwde8c9p5r67yqupkzy8yz5qwdv2cd"],"addressesOutput":["addr1w9yr0zr530tp9yzrhly8lw5upddu0eym3yh0mjwa0qlr9pgmkzgv0","addr1qymaumdm272r24d0s46827plplhc6t520lufdr5vdqn0z8hze4zwjlw3vpjum04n0gjymwde8c9p5r67yqupkzy8yz5qwdv2cd","addr1qymaumdm272r24d0s46827plplhc6t520lufdr5vdqn0z8hze4zwjlw3vpjum04n0gjymwde8c9p5r67yqupkzy8yz5qwdv2cd"],"fee":295653,"totalOutput":19955858,"tokens":[]},{"hash":"2b9a7f11e601b1b9c42a186f533a702bcd278a256a0eae5b72dc12c221d1af17","blockNo":6808588,"blockHash":"81cd447d433374b1ac94b43e95ac5bc6d4c060d63438f1484717835b36fd5d29","epochNo":317,"epochSlotNo":153454,"slot":51734254,"time":"2022/01/27 16:22:25","addressesInput":["addr1qxa7hxs2plv3ghfvm2ds0ddlgljjmr870nyj0dcuttr9emmhy29z9apw4amvddq7cz3u2c6jffld2rlzcrmuk57cdvcsnml3cx","addr1w999n67e86jn6xal07pzxtrmqynspgx0fwmcmpua4wc6yzsxpljz3","addr1qxa7hxs2plv3ghfvm2ds0ddlgljjmr870nyj0dcuttr9emmhy29z9apw4amvddq7cz3u2c6jffld2rlzcrmuk57cdvcsnml3cx"],"addressesOutput":["addr1qxa7hxs2plv3ghfvm2ds0ddlgljjmr870nyj0dcuttr9emmhy29z9apw4amvddq7cz3u2c6jffld2rlzcrmuk57cdvcsnml3cx","addr1qxa7hxs2plv3ghfvm2ds0ddlgljjmr870nyj0dcuttr9emmhy29z9apw4amvddq7cz3u2c6jffld2rlzcrmuk57cdvcsnml3cx"],"fee":1119919,"totalOutput":17863591,"tokens":[]},{"hash":"7ca786d5edad399d6a78d26db75d74193a59436ff7c0fe06868b05f1815b7d61","blockNo":6808342,"blockHash":"c41fa3fe87ed9622d2c365557b5db6b72756d6575d5f30467d4df3cd6fae9dd6","epochNo":317,"epochSlotNo":148107,"slot":51728907,"time":"2022/01/27 14:53:18","addressesInput":["addr1q9j9edkjryr9fnz6eyuwjcjutun9kpgtkdlulzquheldfeermhplrjkd38pvcn2r58dnl0v4rxs9lz6rdj5p77j3wvcs7ud37u","addr1q9j9edkjryr9fnz6eyuwjcjutun9kpgtkdlulzquheldfeermhplrjkd38pvcn2r58dnl0v4rxs9lz6rdj5p77j3wvcs7ud37u"],"addressesOutput":["addr1q9p3jmcg75utu0rjsrk6a5dn72kq8df8wl5dyjkgnhjtf6a3jxkuxm74cxleuyvuecth0djdpzaxdczguccjshyzs2rspnkxdv","addr1q9j9edkjryr9fnz6eyuwjcjutun9kpgtkdlulzquheldfeermhplrjkd38pvcn2r58dnl0v4rxs9lz6rdj5p77j3wvcs7ud37u","addr1q9j9edkjryr9fnz6eyuwjcjutun9kpgtkdlulzquheldfeermhplrjkd38pvcn2r58dnl0v4rxs9lz6rdj5p77j3wvcs7ud37u"],"fee":242413,"totalOutput":40761592,"tokens":[]},{"hash":"ebe7b5ed73e0a88fc68f13d4d774631d601ecb76fd948e179fdd835a0d0b09cb","blockNo":6808004,"blockHash":"3e078f9fe9a4900a30b4051529f7a1faf5b3a58cd5d58237b8e9b6702385c5a5","epochNo":317,"epochSlotNo":141171,"slot":51721971,"time":"2022/01/27 12:57:42","addressesInput":["addr1w999n67e86jn6xal07pzxtrmqynspgx0fwmcmpua4wc6yzsxpljz3","addr1qyecjgprat9qjdfkv6ln45eww5a9lwkgqn92x6lspd339ky00hv6dpawknxe42d8dlx42msv2nt8yej77vudk0uruvtsh2aeym"],"addressesOutput":["addr1w999n67e86jn6xal07pzxtrmqynspgx0fwmcmpua4wc6yzsxpljz3","addr1qyecjgprat9qjdfkv6ln45eww5a9lwkgqn92x6lspd339ky00hv6dpawknxe42d8dlx42msv2nt8yej77vudk0uruvtsh2aeym"],"fee":1088191,"totalOutput":15693116,"tokens":[]},{"hash":"8ffcbe366cce6b57073bb04400ca74da5962ad2cfa629fab6d8609c9db4df77f","blockNo":6807824,"blockHash":"4b875117af2e3b68043ecc487bda114c321d00f254e5e5d4d41140ec024e6f3f","epochNo":317,"epochSlotNo":137654,"slot":51718454,"time":"2022/01/27 11:59:05","addressesInput":["addr1qyecjgprat9qjdfkv6ln45eww5a9lwkgqn92x6lspd339ky00hv6dpawknxe42d8dlx42msv2nt8yej77vudk0uruvtsh2aeym","addr1w999n67e86jn6xal07pzxtrmqynspgx0fwmcmpua4wc6yzsxpljz3"],"addressesOutput":["addr1w999n67e86jn6xal07pzxtrmqynspgx0fwmcmpua4wc6yzsxpljz3","addr1qyecjgprat9qjdfkv6ln45eww5a9lwkgqn92x6lspd339ky00hv6dpawknxe42d8dlx42msv2nt8yej77vudk0uruvtsh2aeym"],"fee":1088191,"totalOutput":16781307,"tokens":[]},{"hash":"3dd586b00284546845d7e53edf464cb5d9c005093d2c13e4c34ed6e129d82117","blockNo":6807821,"blockHash":"01f5660e5e74a5abbe5b387b0281c99b1bda57233130137b1c130f877a5f5e87","epochNo":317,"epochSlotNo":137599,"slot":51718399,"time":"2022/01/27 11:58:10","addressesInput":["addr1qy0xznhgdhqj9u4g6jjdntf2cxy5lyad8j2p6a6dp8jwwttfq4uncdzu6hqlxn7gva2xsaln40x226fl8fsnqyyvzxtqqm3qw9","addr1qy0xznhgdhqj9u4g6jjdntf2cxy5lyad8j2p6a6dp8jwwttfq4uncdzu6hqlxn7gva2xsaln40x226fl8fsnqyyvzxtqqm3qw9"],"addressesOutput":["addr1qxh82p5jjfxzzrxdafvwlpd78crvq67lnz8yt5sdwdvsnvmptzp7uemy34mcltku4dl69fqc3edzxyqqwt4469pm9weq50gtvp","addr1qy0xznhgdhqj9u4g6jjdntf2cxy5lyad8j2p6a6dp8jwwttfq4uncdzu6hqlxn7gva2xsaln40x226fl8fsnqyyvzxtqqm3qw9","addr1qy0xznhgdhqj9u4g6jjdntf2cxy5lyad8j2p6a6dp8jwwttfq4uncdzu6hqlxn7gva2xsaln40x226fl8fsnqyyvzxtqqm3qw9"],"fee":211613,"totalOutput":66402542,"tokens":[]},{"hash":"b75d78f677d17b9d0ca5bdf03611edc679ad90d031a28f0694f418f434ce6879","blockNo":6807769,"blockHash":"d1dda9532cad25645a11a051a16960fe395fe8df7cc7a4fdcfab887cb95b43e7","epochNo":317,"epochSlotNo":136470,"slot":51717270,"time":"2022/01/27 11:39:21","addressesInput":["addr1qxysr70aljc5wx4wnp97cdpml05vcc54c44gdlps0ru7h6fnd7qf7dx7krgsputamf5gtmfpah840tz68pnzes0vu6nszu04p5","addr1qxysr70aljc5wx4wnp97cdpml05vcc54c44gdlps0ru7h6fnd7qf7dx7krgsputamf5gtmfpah840tz68pnzes0vu6nszu04p5"],"addressesOutput":["addr1w9yr0zr530tp9yzrhly8lw5upddu0eym3yh0mjwa0qlr9pgmkzgv0","addr1qxysr70aljc5wx4wnp97cdpml05vcc54c44gdlps0ru7h6fnd7qf7dx7krgsputamf5gtmfpah840tz68pnzes0vu6nszu04p5"],"fee":180901,"totalOutput":49138009,"tokens":[]},{"hash":"ca8250b130b96fc8ec496f30e5e91328769ebf3b8149b299e567bb4275ea569f","blockNo":6807768,"blockHash":"0f0b74189cb9cb1735f9c0805936bfe083e54f175cffdefb39d7e6d6c8e56984","epochNo":317,"epochSlotNo":136461,"slot":51717261,"time":"2022/01/27 11:39:12","addressesInput":["addr1qy0xznhgdhqj9u4g6jjdntf2cxy5lyad8j2p6a6dp8jwwttfq4uncdzu6hqlxn7gva2xsaln40x226fl8fsnqyyvzxtqqm3qw9","addr1qy0xznhgdhqj9u4g6jjdntf2cxy5lyad8j2p6a6dp8jwwttfq4uncdzu6hqlxn7gva2xsaln40x226fl8fsnqyyvzxtqqm3qw9"],"addressesOutput":["addr1qxh82p5jjfxzzrxdafvwlpd78crvq67lnz8yt5sdwdvsnvmptzp7uemy34mcltku4dl69fqc3edzxyqqwt4469pm9weq50gtvp","addr1qy0xznhgdhqj9u4g6jjdntf2cxy5lyad8j2p6a6dp8jwwttfq4uncdzu6hqlxn7gva2xsaln40x226fl8fsnqyyvzxtqqm3qw9"],"fee":216585,"totalOutput":8752039,"tokens":[]},{"hash":"fa763fa0756d883e97c684e81be8669d3854da25b3d4bdaa80a4545d09233197","blockNo":6807755,"blockHash":"3ab9e31b8580ebf32d4f9c419db6a12e7bd34f433184ea5864097153dd2c4230","epochNo":317,"epochSlotNo":136196,"slot":51716996,"time":"2022/01/27 11:34:47","addressesInput":["addr1qxysr70aljc5wx4wnp97cdpml05vcc54c44gdlps0ru7h6fnd7qf7dx7krgsputamf5gtmfpah840tz68pnzes0vu6nszu04p5"],"addressesOutput":["addr1w9yr0zr530tp9yzrhly8lw5upddu0eym3yh0mjwa0qlr9pgmkzgv0","addr1qxysr70aljc5wx4wnp97cdpml05vcc54c44gdlps0ru7h6fnd7qf7dx7krgsputamf5gtmfpah840tz68pnzes0vu6nszu04p5"],"fee":179361,"totalOutput":49689280,"tokens":[]},{"hash":"38f9968ba011ad41a666b9ad8fd75180acf779833908a79c5b8857e4efb404ca","blockNo":6807710,"blockHash":"7fee19d4fc7a8f8db2bf21f65d319d6a569d258fe22aa64ce3949232610fae2e","epochNo":317,"epochSlotNo":135219,"slot":51716019,"time":"2022/01/27 11:18:30","addressesInput":["addr1qymaumdm272r24d0s46827plplhc6t520lufdr5vdqn0z8hze4zwjlw3vpjum04n0gjymwde8c9p5r67yqupkzy8yz5qwdv2cd","addr1qymaumdm272r24d0s46827plplhc6t520lufdr5vdqn0z8hze4zwjlw3vpjum04n0gjymwde8c9p5r67yqupkzy8yz5qwdv2cd","addr1qymaumdm272r24d0s46827plplhc6t520lufdr5vdqn0z8hze4zwjlw3vpjum04n0gjymwde8c9p5r67yqupkzy8yz5qwdv2cd"],"addressesOutput":["addr1w9yr0zr530tp9yzrhly8lw5upddu0eym3yh0mjwa0qlr9pgmkzgv0","addr1qymaumdm272r24d0s46827plplhc6t520lufdr5vdqn0z8hze4zwjlw3vpjum04n0gjymwde8c9p5r67yqupkzy8yz5qwdv2cd","addr1qymaumdm272r24d0s46827plplhc6t520lufdr5vdqn0z8hze4zwjlw3vpjum04n0gjymwde8c9p5r67yqupkzy8yz5qwdv2cd"],"fee":325177,"totalOutput":23812223,"tokens":[]},{"hash":"29a32d01c9eb3deef53f606abcd1af00196c19ceecc2373d6e19ada4bdecdded","blockNo":6807709,"blockHash":"85f954b31a9c381bcf0c2caa05ecf4c1e0739250bc0112b22ae8853881a16f0b","epochNo":317,"epochSlotNo":135209,"slot":51716009,"time":"2022/01/27 11:18:20","addressesInput":["addr1qxysr70aljc5wx4wnp97cdpml05vcc54c44gdlps0ru7h6fnd7qf7dx7krgsputamf5gtmfpah840tz68pnzes0vu6nszu04p5","addr1qxysr70aljc5wx4wnp97cdpml05vcc54c44gdlps0ru7h6fnd7qf7dx7krgsputamf5gtmfpah840tz68pnzes0vu6nszu04p5","addr1qxysr70aljc5wx4wnp97cdpml05vcc54c44gdlps0ru7h6fnd7qf7dx7krgsputamf5gtmfpah840tz68pnzes0vu6nszu04p5"],"addressesOutput":["addr1w9yr0zr530tp9yzrhly8lw5upddu0eym3yh0mjwa0qlr9pgmkzgv0","addr1qxysr70aljc5wx4wnp97cdpml05vcc54c44gdlps0ru7h6fnd7qf7dx7krgsputamf5gtmfpah840tz68pnzes0vu6nszu04p5"],"fee":185213,"totalOutput":51794565,"tokens":[]},{"hash":"137ab043e8f95de6a3b1044aa9d4838cde3a4f4bd83c705ca655042ab3dbe2d1","blockNo":6807678,"blockHash":"c8a3f348ae7c798d28bd656d2999f9291d00c593aba0d95c1b8c3b11f2fae1d9","epochNo":317,"epochSlotNo":134574,"slot":51715374,"time":"2022/01/27 11:07:45","addressesInput":["addr1w9yr0zr530tp9yzrhly8lw5upddu0eym3yh0mjwa0qlr9pgmkzgv0","addr1qxysr70aljc5wx4wnp97cdpml05vcc54c44gdlps0ru7h6fnd7qf7dx7krgsputamf5gtmfpah840tz68pnzes0vu6nszu04p5"],"addressesOutput":["addr1qxysr70aljc5wx4wnp97cdpml05vcc54c44gdlps0ru7h6fnd7qf7dx7krgsputamf5gtmfpah840tz68pnzes0vu6nszu04p5","addr1qxysr70aljc5wx4wnp97cdpml05vcc54c44gdlps0ru7h6fnd7qf7dx7krgsputamf5gtmfpah840tz68pnzes0vu6nszu04p5"],"fee":1030253,"totalOutput":50424224,"tokens":[]},{"hash":"7683468c718f6cd295b5ba4a03692c39cf303bc325e76eb61f746a3d7ea9781c","blockNo":6807651,"blockHash":"19788941b92cf7ae567647c35d83938c1d350489ba269d17a873c48a888ac881","epochNo":317,"epochSlotNo":133850,"slot":51714650,"time":"2022/01/27 10:55:41","addressesInput":["addr1qxa7hxs2plv3ghfvm2ds0ddlgljjmr870nyj0dcuttr9emmhy29z9apw4amvddq7cz3u2c6jffld2rlzcrmuk57cdvcsnml3cx","addr1qxa7hxs2plv3ghfvm2ds0ddlgljjmr870nyj0dcuttr9emmhy29z9apw4amvddq7cz3u2c6jffld2rlzcrmuk57cdvcsnml3cx","addr1qxa7hxs2plv3ghfvm2ds0ddlgljjmr870nyj0dcuttr9emmhy29z9apw4amvddq7cz3u2c6jffld2rlzcrmuk57cdvcsnml3cx"],"addressesOutput":["addr1qy39zw67wxyswndduy6q5atukct9skpemt3kal57zkw3jxxfga842ny2tyf3hcyf436q7wm8r9xza6s5zjptkej2mumsvgnlct","addr1qxa7hxs2plv3ghfvm2ds0ddlgljjmr870nyj0dcuttr9emmhy29z9apw4amvddq7cz3u2c6jffld2rlzcrmuk57cdvcsnml3cx","addr1qxa7hxs2plv3ghfvm2ds0ddlgljjmr870nyj0dcuttr9emmhy29z9apw4amvddq7cz3u2c6jffld2rlzcrmuk57cdvcsnml3cx"],"fee":238585,"totalOutput":81131660,"tokens":[]},{"hash":"2953ac7f7206a8c7063764d6b5474820c44036f189c8e563dd581a191c53696b","blockNo":6807502,"blockHash":"324459f4577f5641ab5a5b8ae0a3dcd1aad3d8162a6a2956abbcab299ebe4580","epochNo":317,"epochSlotNo":130381,"slot":51711181,"time":"2022/01/27 09:57:52","addressesInput":["addr1qymaumdm272r24d0s46827plplhc6t520lufdr5vdqn0z8hze4zwjlw3vpjum04n0gjymwde8c9p5r67yqupkzy8yz5qwdv2cd","addr1qymaumdm272r24d0s46827plplhc6t520lufdr5vdqn0z8hze4zwjlw3vpjum04n0gjymwde8c9p5r67yqupkzy8yz5qwdv2cd","addr1qymaumdm272r24d0s46827plplhc6t520lufdr5vdqn0z8hze4zwjlw3vpjum04n0gjymwde8c9p5r67yqupkzy8yz5qwdv2cd","addr1qymaumdm272r24d0s46827plplhc6t520lufdr5vdqn0z8hze4zwjlw3vpjum04n0gjymwde8c9p5r67yqupkzy8yz5qwdv2cd","addr1qymaumdm272r24d0s46827plplhc6t520lufdr5vdqn0z8hze4zwjlw3vpjum04n0gjymwde8c9p5r67yqupkzy8yz5qwdv2cd"],"addressesOutput":["addr1q8nkg39fgeaafc02rl76pxyvmln8lnkkey23g3dgqhnqttlzmsdweqzzksx5tpxqy09y4kch5melas3juls9puleuuasuw4pqw","addr1qymaumdm272r24d0s46827plplhc6t520lufdr5vdqn0z8hze4zwjlw3vpjum04n0gjymwde8c9p5r67yqupkzy8yz5qwdv2cd","addr1qymaumdm272r24d0s46827plplhc6t520lufdr5vdqn0z8hze4zwjlw3vpjum04n0gjymwde8c9p5r67yqupkzy8yz5qwdv2cd"],"fee":318533,"totalOutput":252049653,"tokens":[]},{"hash":"54591db5670328fd3bb3a2ce6d569548e310d5c83061dfa873c720a68672edc9","blockNo":6807424,"blockHash":"87196d5f14d84667f962aa5ad521586008216f838a1d505b7f024031d917ad26","epochNo":317,"epochSlotNo":128769,"slot":51709569,"time":"2022/01/27 09:31:00","addressesInput":["addr1qxysr70aljc5wx4wnp97cdpml05vcc54c44gdlps0ru7h6fnd7qf7dx7krgsputamf5gtmfpah840tz68pnzes0vu6nszu04p5","addr1qxysr70aljc5wx4wnp97cdpml05vcc54c44gdlps0ru7h6fnd7qf7dx7krgsputamf5gtmfpah840tz68pnzes0vu6nszu04p5"],"addressesOutput":["addr1w9yr0zr530tp9yzrhly8lw5upddu0eym3yh0mjwa0qlr9pgmkzgv0","addr1qxysr70aljc5wx4wnp97cdpml05vcc54c44gdlps0ru7h6fnd7qf7dx7krgsputamf5gtmfpah840tz68pnzes0vu6nszu04p5"],"fee":180857,"totalOutput":51454477,"tokens":[]},{"hash":"0a314c45fe90b4072bbd768f68c0425c7ab76186e82720db77b5c8afeee7c83e","blockNo":6807382,"blockHash":"39ea2b43eb4c37c27878050fd3e315133c3a01b68c0a7ec85ae922b935f970a0","epochNo":317,"epochSlotNo":127855,"slot":51708655,"time":"2022/01/27 09:15:46","addressesInput":["addr1qy0xznhgdhqj9u4g6jjdntf2cxy5lyad8j2p6a6dp8jwwttfq4uncdzu6hqlxn7gva2xsaln40x226fl8fsnqyyvzxtqqm3qw9","addr1qy0xznhgdhqj9u4g6jjdntf2cxy5lyad8j2p6a6dp8jwwttfq4uncdzu6hqlxn7gva2xsaln40x226fl8fsnqyyvzxtqqm3qw9"],"addressesOutput":["addr1w9yr0zr530tp9yzrhly8lw5upddu0eym3yh0mjwa0qlr9pgmkzgv0","addr1qy0xznhgdhqj9u4g6jjdntf2cxy5lyad8j2p6a6dp8jwwttfq4uncdzu6hqlxn7gva2xsaln40x226fl8fsnqyyvzxtqqm3qw9"],"fee":178525,"totalOutput":4372340,"tokens":[]},{"hash":"e49ae5d3202798f55eb0b8c93e26929faa8e434f3fce839375654c94139784b5","blockNo":6807349,"blockHash":"829dfd85d7a742638b0ea4b4ddece92d50befb134397d91eb37d9b35af19571b","epochNo":317,"epochSlotNo":127236,"slot":51708036,"time":"2022/01/27 09:05:27","addressesInput":["addr1w999n67e86jn6xal07pzxtrmqynspgx0fwmcmpua4wc6yzsxpljz3","addr1qy0xznhgdhqj9u4g6jjdntf2cxy5lyad8j2p6a6dp8jwwttfq4uncdzu6hqlxn7gva2xsaln40x226fl8fsnqyyvzxtqqm3qw9","addr1qy0xznhgdhqj9u4g6jjdntf2cxy5lyad8j2p6a6dp8jwwttfq4uncdzu6hqlxn7gva2xsaln40x226fl8fsnqyyvzxtqqm3qw9"],"addressesOutput":["addr1qy0xznhgdhqj9u4g6jjdntf2cxy5lyad8j2p6a6dp8jwwttfq4uncdzu6hqlxn7gva2xsaln40x226fl8fsnqyyvzxtqqm3qw9","addr1qy0xznhgdhqj9u4g6jjdntf2cxy5lyad8j2p6a6dp8jwwttfq4uncdzu6hqlxn7gva2xsaln40x226fl8fsnqyyvzxtqqm3qw9"],"fee":1052095,"totalOutput":4550865,"tokens":[]}],"totalItems":120,"totalPages":6,"currentPage":0}