{"data":[{"txId":51530206,"txHash":"04e3b3d806ee2dcd4129bc06b797725c76475f86361ca0ae61643b070b9106ea","txTime":"2022/10/03 18:42:37","block":7837472,"epoch":367,"slotNo":73256266,"epochSlotNo":75466,"stakeKey":"stake1u80xc70ttc4nxy2wtahp560zvqmn4d7j5m4mkfnqdl0366smqq7gf"},{"txId":51530165,"txHash":"b234afbca9316951e6c07ee7261086eb104df3843407a21998d83c69319fd5be","txTime":"2022/10/03 18:41:47","block":7837469,"epoch":367,"slotNo":73256216,"epochSlotNo":75416,"stakeKey":"stake1u8r0jr84j8ue7x8t8llad2nq9q3l9740gypfa3r3hss3wyc9cfhk9"},{"txId":51529707,"txHash":"a4e44fe49f8e73d448dd9b7cf40ddc3944b46f04a0cea203c9a0c628ef346616","txTime":"2022/10/03 18:33:17","block":7837438,"epoch":367,"slotNo":73255706,"epochSlotNo":74906,"stakeKey":"stake1u80xc70ttc4nxy2wtahp560zvqmn4d7j5m4mkfnqdl0366smqq7gf"},{"txId":51529531,"txHash":"fd9c8de43c3e6fd71c21d5a45dda223947be1cd240aeca502025689cfb5c722e","txTime":"2022/10/03 18:29:49","block":7837421,"epoch":367,"slotNo":73255498,"epochSlotNo":74698,"stakeKey":"stake1u8tk4t9mugp0hykmdp4q9g26uq6axzp2xjgepv3vs8wyv3s5kuppv"},{"txId":51529345,"txHash":"1930f162837c6fea748ed2588d6ae78dea6c7ca26ae62d0e2e63551a9470d2c7","txTime":"2022/10/03 18:26:43","block":7837413,"epoch":367,"slotNo":73255312,"epochSlotNo":74512,"stakeKey":"stake1u85r943wkttg7kdcm43t4q6xex2qc5rn2n8wpwv9evdy3eq9l8ruk"},{"txId":51529340,"txHash":"41d3d23f1f5513daec23d8e850982a2dda9261d7688db8d30c3f4668d525657b","txTime":"2022/10/03 18:26:43","block":7837413,"epoch":367,"slotNo":73255312,"epochSlotNo":74512,"stakeKey":"stake1u9rtzw76fhgy3j4z9gxvamtemha8p43dj82dk308qa0zj7s7eue4l"},{"txId":51528795,"txHash":"940e42536271415a47aa96e9fe81cb4bfccac012ab04fa0df8e9eb1f53b79b3e","txTime":"2022/10/03 18:20:21","block":7837398,"epoch":367,"slotNo":73254930,"epochSlotNo":74130,"stakeKey":"stake1uxp9ut04456mp8jtwk6kxtcvvuwurqa9szkwenkcr29m57szx4xhm"},{"txId":51528553,"txHash":"e419646825c4a99e92f8c17b945a46fbd95be7d3280ee20ef5776ec74ab7c31e","txTime":"2022/10/03 18:15:25","block":7837389,"epoch":367,"slotNo":73254634,"epochSlotNo":73834,"stakeKey":"stake1u845w2jdfgxv9y2wfcgwjp2zzpcc8jz3nay8ke99hkghw6c63rht7"},{"txId":51528455,"txHash":"f945b0b7063d16909fa3db32afb515494c28ff77a3cd2c6f3e1fa4ee3f65cb75","txTime":"2022/10/03 18:13:08","block":7837385,"epoch":367,"slotNo":73254497,"epochSlotNo":73697,"stakeKey":"stake1u94ycr4gehmzta5glxrafkzg7x8cya9wt3nqjlaqfaggdzq2gdgr6"},{"txId":51526814,"txHash":"9ae545aa54e19d8bd7c8c73171b25642a22d8a6b2a82b03934267a606184dfa4","txTime":"2022/10/03 17:45:22","block":7837292,"epoch":367,"slotNo":73252831,"epochSlotNo":72031,"stakeKey":"stake1u89z3ah699teuu64sr5znnjcuqan7347s426m8c5r50yjqskja86d"},{"txId":51526433,"txHash":"e07645063dec054f9d9115ef01dfdb311c1b8bf0b9d239749504685a10e81459","txTime":"2022/10/03 17:38:59","block":7837267,"epoch":367,"slotNo":73252448,"epochSlotNo":71648,"stakeKey":"stake1u98jn9qt5esne0rltjyue8whjfakzfyncfyx0zz2s27tzasc6sf24"},{"txId":51526144,"txHash":"fa78a42692b70ba264177b2f2d3822ceabf1530cee893c0d0a5c8f584228d579","txTime":"2022/10/03 17:33:25","block":7837256,"epoch":367,"slotNo":73252114,"epochSlotNo":71314,"stakeKey":"stake1u9apcuy9hfsh0aumf0h8a6n44kusmuwxtsvr63l77fn0ffcedcfzm"},{"txId":51524780,"txHash":"7ba7e87f629e6fcc2e4d4ac2cbb7dae91d28d6dc860fc0a7f57ec43ed0a260c7","txTime":"2022/10/03 17:15:58","block":7837197,"epoch":367,"slotNo":73251067,"epochSlotNo":70267,"stakeKey":"stake1u8s7s8hmsmpd2wp57aszvhatmykrch44g7j6ptkmwqzq0rgg3ym98"},{"txId":51524675,"txHash":"ec2feabd44ff5d08cbe57c0d6b4d14e6263103fc40b6eb7ec947dada4807643b","txTime":"2022/10/03 17:12:39","block":7837193,"epoch":367,"slotNo":73250868,"epochSlotNo":70068,"stakeKey":"stake1uyllcnhkhze5n7g53j8n0n06ueku7pcucxvfnvhzvxecusszw8tht"},{"txId":51524627,"txHash":"96044e89dff2701c4a7eede5338faae635affab7c89569a25ecd0346f33a6f9a","txTime":"2022/10/03 17:12:36","block":7837192,"epoch":367,"slotNo":73250865,"epochSlotNo":70065,"stakeKey":"stake1ux8hkejavc4wm2szwn52jca37jcyu68mswy6jmhjeanjdcg3exlqa"},{"txId":51524522,"txHash":"cc13607f8b60da770f7a26508e6001066ffc04acf4dde0c7060ff1f4a148d9d2","txTime":"2022/10/03 17:10:45","block":7837188,"epoch":367,"slotNo":73250754,"epochSlotNo":69954,"stakeKey":"stake1u8s7s8hmsmpd2wp57aszvhatmykrch44g7j6ptkmwqzq0rgg3ym98"},{"txId":51523963,"txHash":"6ff16cb5bb4a50bdcc39eab59d72dccf487671a27ff8de9a5ee5d4ea616e0ac5","txTime":"2022/10/03 17:05:43","block":7837168,"epoch":367,"slotNo":73250452,"epochSlotNo":69652,"stakeKey":"stake1uydsfyxm96ww996agsz3rmge959l3r5fy2n9hd8a2n0pyzgywz344"},{"txId":51523897,"txHash":"a3726c86646abdacdf9ed611e99e53e66d53c44b48847d952f1b8dd3042932c7","txTime":"2022/10/03 17:04:57","block":7837167,"epoch":367,"slotNo":73250406,"epochSlotNo":69606,"stakeKey":"stake1u8gysp33x7jy2ely7u74jq45nja9tlkz50fp28fsemst6xq4hhg2j"},{"txId":51523176,"txHash":"e194334c54414e214802c0a1a08c840a089c0211910f93d430a4e69d5cb341a1","txTime":"2022/10/03 16:54:50","block":7837139,"epoch":367,"slotNo":73249799,"epochSlotNo":68999,"stakeKey":"stake1uyzqrq0w49r9yymzcgsc94x4s53zsv697c3en5xs0wtw9ucfq4tuq"},{"txId":51522574,"txHash":"b06669286385264694bc8b43c87be8d50862672029a7013d399437ce471382a0","txTime":"2022/10/03 16:47:03","block":7837114,"epoch":367,"slotNo":73249332,"epochSlotNo":68532,"stakeKey":"stake1uyfaypvu006h3jtsr3cunn9x7k635c2x7anuk0cydsenu4sjwpwmv"}],"totalItems":318291,"totalPages":15915,"currentPage":0}