{"data":[{"blockNo":7837472,"slotNo":73256266,"epochNo":367,"epochSlotNo":75466,"hash":"eb1c78aad7f2fb8fb7fad3d4186749917143c33652e74c9a409e8c30036626ac","time":"2022/10/03 18:42:37","txCount":13,"totalFees":4129621,"totalOutput":210610268726,"slotLeader":"10bc63e4689bd58b8a7d248a99360a45a80d047b0b4752a7b00b754b"},{"blockNo":7837471,"slotNo":73256248,"epochNo":367,"epochSlotNo":75448,"hash":"528ab0a5e5ca604101199ef68abfc0d6e8aabd788938c81039e88fe8cbd5e00c","time":"2022/10/03 18:42:19","txCount":24,"totalFees":7561263,"totalOutput":20850770440,"slotLeader":"6c518b4861bb88b1395ceb116342cecbcfb8736282655f9a61c4c368"},{"blockNo":7837470,"slotNo":73256218,"epochNo":367,"epochSlotNo":75418,"hash":"2ea57aa9881218641bb9d4e5c8fc193ac62d2f3534367fc1c203187e0693d922","time":"2022/10/03 18:41:49","txCount":3,"totalFees":1152967,"totalOutput":9561930096,"slotLeader":"b40683f4baad755ff60f26dc73c3e371ac4c5e422feef2fc1f5f29bf"},{"blockNo":7837469,"slotNo":73256216,"epochNo":367,"epochSlotNo":75416,"hash":"5432e0ecbaf25657158699413b230261a697b63a6dd2edee14afb9d3dc4cdf6a","time":"2022/10/03 18:41:47","txCount":33,"totalFees":13056662,"totalOutput":2373231555579,"slotLeader":"243499b53228f5953bb906c8af0fb996002dd78712e430aa7d116964"},{"blockNo":7837468,"slotNo":73256213,"epochNo":367,"epochSlotNo":75413,"hash":"dbc1628bb4b73472ed361ace05583d0164acdc4390e01523871c11983e516068","time":"2022/10/03 18:41:44","txCount":33,"totalFees":11847041,"totalOutput":38168165521605,"slotLeader":"0019cb5ac91c786a809f4d87622a29d2c7f57f4697f8c8e8457f4de4"},{"blockNo":7837467,"slotNo":73256141,"epochNo":367,"epochSlotNo":75341,"hash":"94f46a7cada7aaac9cb86665381b311270429bf4051ae10165d879c228679f6f","time":"2022/10/03 18:40:32","txCount":14,"totalFees":5037348,"totalOutput":32099995624,"slotLeader":"40960205ad46c9883d32eaf4ab512ab2ea2962d5fd52a4a470df5125"},{"blockNo":7837466,"slotNo":73256121,"epochNo":367,"epochSlotNo":75321,"hash":"e537c515c8890481e9ac3c963b94ed7a64bf0f9dbaa188f47ea57956a8c745ce","time":"2022/10/03 18:40:12","txCount":33,"totalFees":10874987,"totalOutput":1903872608108,"slotLeader":"7a990e7ee931f9d548a977d5cf2194f26f7e2f1158752e0bb94a073f"},{"blockNo":7837465,"slotNo":73256093,"epochNo":367,"epochSlotNo":75293,"hash":"27b9bef8673b0e4504198eabaa16f387d5cc63ce561a67c8f2b6ffe7539d2942","time":"2022/10/03 18:39:44","txCount":15,"totalFees":4766743,"totalOutput":646068035619,"slotLeader":"a532904ca60e13e88437b58e7c6ff66b8d5e7ec8d3f4b9e4be7820ec"},{"blockNo":7837464,"slotNo":73256076,"epochNo":367,"epochSlotNo":75276,"hash":"37dfdd837767e067e7371eaf84c8c8a0978ac8f0dc800035499ac23b37c1ab4d","time":"2022/10/03 18:39:27","txCount":21,"totalFees":8227992,"totalOutput":1541597521132,"slotLeader":"7f6c103302f96390d478a170fe80938b76fccd8a23490e3b6ddebcf7"},{"blockNo":7837463,"slotNo":73256055,"epochNo":367,"epochSlotNo":75255,"hash":"5bc70d992449ac3d1ba7708b4bafccd1c24078e9dfe1814d272db0c5f05bff98","time":"2022/10/03 18:39:06","txCount":31,"totalFees":12155261,"totalOutput":19056310631575,"slotLeader":"49c24284e61ad58c6e59e865c74e9b0a0a36654eb2091ad846e1c4ec"},{"blockNo":7837462,"slotNo":73256017,"epochNo":367,"epochSlotNo":75217,"hash":"faa0f066ea43009af525ffe27e67212d1a1a6a4bdb545fe3473a07078f33c29c","time":"2022/10/03 18:38:28","txCount":2,"totalFees":554522,"totalOutput":29394661,"slotLeader":"494b1adec5eb9aaa6f66fbdad55fa0637a59fc1c74ef40b355bc2aa1"},{"blockNo":7837461,"slotNo":73256013,"epochNo":367,"epochSlotNo":75213,"hash":"6539ce54f009c0b9dc0c6af9423a347100c8577eb75e63e9fbcbd34546955340","time":"2022/10/03 18:38:24","txCount":8,"totalFees":2237061,"totalOutput":18294462318,"slotLeader":"a1a13e86037a489911c0983887b675b859e7f499b88e91d8a01a05d8"},{"blockNo":7837460,"slotNo":73256004,"epochNo":367,"epochSlotNo":75204,"hash":"e764b850cec1f95940b77bc459b8cf52e77b46f7c16bf397ea1293fffc46579d","time":"2022/10/03 18:38:15","txCount":5,"totalFees":2281062,"totalOutput":372224123959,"slotLeader":"af22f95915a19cd57adb14c558dcc4a175f60c6193dc23b8bd2d8beb"},{"blockNo":7837459,"slotNo":73255996,"epochNo":367,"epochSlotNo":75196,"hash":"b6de8a5c72bc8331e3b26073cf1bb580ec619162ef3bc984617b3b1e37337698","time":"2022/10/03 18:38:07","txCount":6,"totalFees":1728148,"totalOutput":128251313512,"slotLeader":"4aea697c45e39e37e5d842ec8cf6c01a714e88db33a1ba0565ab59af"},{"blockNo":7837458,"slotNo":73255988,"epochNo":367,"epochSlotNo":75188,"hash":"3c9e0cf8982a88cac2e96a65c2f50ded71675041d26ad8786a511c848fb22833","time":"2022/10/03 18:37:59","txCount":0,"totalFees":0,"totalOutput":0,"slotLeader":"db3ef28510cc87c6a2f2b83c50707c40d8024438c8a61f24ac16a33f"},{"blockNo":7837457,"slotNo":73255985,"epochNo":367,"epochSlotNo":75185,"hash":"cb222fab173ee650eba8e86bd44dfed4610d84b68a49df1e74e798592dda6e37","time":"2022/10/03 18:37:56","txCount":14,"totalFees":3479261,"totalOutput":1883020507627,"slotLeader":"27814ffdea37e4b3ac8e412b8b2dfaba1f7105beaf2cb892b4ac6c14"},{"blockNo":7837456,"slotNo":73255967,"epochNo":367,"epochSlotNo":75167,"hash":"a7801b8bc8d1ce080a5a3802b71bbee03277e727e7fd7e737bdf2282a1bba683","time":"2022/10/03 18:37:38","txCount":8,"totalFees":2464344,"totalOutput":49064536405,"slotLeader":"3d5f6d2a147cf3c97aed0d7ea973e6a95abdf94255025bdf470c9809"},{"blockNo":7837455,"slotNo":73255959,"epochNo":367,"epochSlotNo":75159,"hash":"10dcba433084034de40b9ad95f27dbf51f90bf9a253b20f7860ec7162357acc1","time":"2022/10/03 18:37:30","txCount":6,"totalFees":3222121,"totalOutput":12890741089,"slotLeader":"fcc675f8266022c4a0f8a7f1e24b00896fd742b35f147304c2354442"},{"blockNo":7837454,"slotNo":73255951,"epochNo":367,"epochSlotNo":75151,"hash":"951a4fabb2ebfc9d2486e4ac2f35f244128e41b554805c82c5d029874c91c07c","time":"2022/10/03 18:37:22","txCount":1,"totalFees":326893,"totalOutput":34471131,"slotLeader":"dd7330d29709deb4e8dff5b49d50b174c9c884678992cca4a68d96d7"},{"blockNo":7837453,"slotNo":73255948,"epochNo":367,"epochSlotNo":75148,"hash":"c89b88456700415cc2405e1a9cc6aa0f7ca0ff6c07058479cad8d12aae016035","time":"2022/10/03 18:37:19","txCount":13,"totalFees":3374593,"totalOutput":68378756164,"slotLeader":"4fd4f6b6c164e0bf9b514f7facc6dcae87ed4eca857605da92990d35"}],"totalItems":7837648,"totalPages":391883,"currentPage":0}