{"data":[{"hash":"b4c70c255d46e3234f77b416e92d7bc9428fdf06a25468cbc4cae9ce7727a7c2","blockNo":7953609,"blockHash":"8b425eed653e5f903619cf8fb3e3bbae04d0c5a05cc900410a535ceff028d4dd","epochNo":372,"epochSlotNo":300316,"slot":75641116,"time":"2022/10/31 09:10:07","addressesInput":["addr1qxn0kuqk8mysdv8rpqhl39vp6njnxd7dw3yvkcvdk9ke4revmezswc6ql6x9kekl6zm3ptc6g9jlwln9lt6sml5mcl0sndmr62"],"addressesOutput":["addr1zyq0kyrml023kwjk8zr86d5gaxrt5w8lxnah8r6m6s4jp4g3r6dxnzml343sx8jweqn4vn3fz2kj8kgu9czghx0jrsyqqktyhv","addr1q9ad5mud938r7l24eaac4v57ydlj72hazgprts9f7daaz09mm95jvs5h94099yglxr7v6ug6pp43780huy040lm4utmqx8g5eu","addr1qxn0kuqk8mysdv8rpqhl39vp6njnxd7dw3yvkcvdk9ke4revmezswc6ql6x9kekl6zm3ptc6g9jlwln9lt6sml5mcl0sndmr62"],"fee":332834,"totalOutput":452839740,"tokens":[]},{"hash":"30652028c3056734dab226b37570886caa77b9cf460955767808548fca70fdee","blockNo":7953607,"blockHash":"95077164736e3ff2c770adcb8adce5f0743315108c9af440bc99088bf829d4c8","epochNo":372,"epochSlotNo":300268,"slot":75641068,"time":"2022/10/31 09:09:19","addressesInput":["DdzFFzCqrht9GSAUs3rv2rgKa5h8rBgJGxedAdkF6u8MKXFKY3aZ8Y2ZM2QrcFdhiMydTy9WMZ8qNsGieBBU5eBSCJ6Usp195knQdqgz","DdzFFzCqrht5Fe6gwaxVe8DaBFZgvxbJrLkGrRzHd3KmLWvPcyAsPhEJNAu5s5J1vSDNYNiDAtRoPrMw5wGR6bSGd5HMAhqugSCjmA2h","DdzFFzCqrhsyXdkB7mK845Vtiq2ceV5n5MVpsK1gW61RywK8seRUKXFn78pC3E87fU1rNivBJW1dx6o5GLNgcVPqJXb3JmBvAkGm47nA","DdzFFzCqrhsksZ3ZHagUzV6wt9FMRKZLRUVvHGX8sF18TyC1iSppZWtNSVmHRh1j6mCfodGAKQY6LLgaqisBYRqmwNDdsE3VZnfiB1Gw","DdzFFzCqrhsyH7TG7CS2rDCGLbG1sy2KH3b5E8rSsiuRnLKsDvXG9CLGU8ZbADTiRECfLWUawQCuWyqp8wGQMxiofvD81RozNRns9afQ","DdzFFzCqrhsybvfKkEzDrJMz8bGwYNvKNjJWSKruYpphm22SBe5t2RV6Khik9MhDEsBnv2qYZ3NJEcYMwY9mFUFKP3Qb43rtfHS3AqFh","DdzFFzCqrhsopAMDhL8TXZkcyeFviJsNMyxkvA4s3QSQmzg6Uq6diSugob7DFZQ8o6T16RW7CPszMwvCMdP4NoLgTA9FxzekJLEuaUqJ","DdzFFzCqrhszfxx2h2RP4LAZr8Uj8SiHWhRDWA6NjjxdMehQAaZ17cw6UQkESj6gR2967WZwjCGaEgTYuVeW4YuzYUA1n9aVxUAzdg42","DdzFFzCqrht4GV6onaupHrMVwX8jQ9mZYG9gjQBmqMR3zq3TaLWyk9wo4maZQTzxckVaEA9dhozmxw872qazTUfPhkPFRp6Mf1jMhZNq","DdzFFzCqrhsfHbsREJSCMVhPpKadRe84we4SFk6N2TiAQSeUJxpK9rVSNS8EC1GrWiu5SxEDpkyzKeNf68957g9ygcJybsVRpj3NZzMo","DdzFFzCqrht2sDimzDdhEf2DQjhMNtTSDHZSfz6bCYcvv1W5wBKxXMEeTGeV2uRDZuVqQaK4A1vnoCtzGPKMLu9XsU1tD4U1DePGNfj1","DdzFFzCqrhsjiUgJqXgiQ64kQ1MSJCWq1embg75AMot1rJSeA2RQgvAnWgt6n7CA9twm1r8sNwNYje3pizFcqg12U7dnzCo8F62dmdHi","DdzFFzCqrht8rV2VQVNTodoQbuxVsCA6cgpWccM5ae5cF9dmNbfoKW8v2mNp88UFkvQ2zf8tQDyky515ooEPYJrwutrdHg3s1b5MvQt6","DdzFFzCqrhsujJA3JAqwJNiua7umZWCUWnKafjSYYa7fjbf2PCbtbL7RVi89SoePiCPhvyAUCP7efmMhNqNMdm8fWj9g2WJQuGoJAPU7","DdzFFzCqrht9hQE9zekQw1Bo382273XW3KiDLouvZtkv9zpe9ut7YoY3QPenHoLW4RV6iUQvX34H5pSN2x3hv8RUiY6vvH7tV3cqzK38","DdzFFzCqrht5Fe6gwaxVe8DaBFZgvxbJrLkGrRzHd3KmLWvPcyAsPhEJNAu5s5J1vSDNYNiDAtRoPrMw5wGR6bSGd5HMAhqugSCjmA2h","DdzFFzCqrhskphPisexd5yAaY713oaLkdefYp8KbJK1fJndm1ZejMmqq1TBqdT8jR7BPNdtvwSQGCzT1ez4nFv2GvpQened1aMNSnLDy","DdzFFzCqrhsvvpE5GdFioPUsFHDKX6GXm6rdi9yLxSDfcZZ6QcDe9ReFN71XjU8FKzfksXpUtmghdxq5jn933nVuMAaERhTWQiJeXwuc","DdzFFzCqrhsvvpE5GdFioPUsFHDKX6GXm6rdi9yLxSDfcZZ6QcDe9ReFN71XjU8FKzfksXpUtmghdxq5jn933nVuMAaERhTWQiJeXwuc","DdzFFzCqrhtAoxXVm9SHhMnxZq9giZqc5e7EWKN59WBGin7S3BjE2TP4UPUJWEo9c4ijVeQKgP72pSjkSW6oFhqS9LjAkZ3ouyxssKpu","DdzFFzCqrhsuV5FthBF1SkyjzNpJS8syc1BabP8LWRWBFjxhgUVzyf1iZdbFvCNeZE1H1x6UDR1DgGgMS9dgU1LZo2NX8mLZSzuAdXAg","DdzFFzCqrht7u8DMgXHnFD71WyVf3vxkEhs9ojZ5hpqpCNiHP5fZ7L76yZ9zdz1aom6oFG5anT9FpCPJgBt8gE6YpSsf4m3Y2hCR3Lxc","DdzFFzCqrht5Fe6gwaxVe8DaBFZgvxbJrLkGrRzHd3KmLWvPcyAsPhEJNAu5s5J1vSDNYNiDAtRoPrMw5wGR6bSGd5HMAhqugSCjmA2h","DdzFFzCqrhsfxYud2QoLyzyyh5SiDKT9vuGGJtfRGPp3vz5PyGMYzWoeEeyHUNr9BtExBFLvemLGmqNmq5t8x54scAaRRdYCvtzDdTwV"],"addressesOutput":["addr1q9atjfpqwdtg7ytz0pz9zcaqvx8zr2uv6ysvc4csqynr683dzefudzxhadht99nh8gv4l3z93d486ygllgxuh2drrrpsdw6fws","DdzFFzCqrhsjDvUMwt8shFUdV3BgaqwyWBXYZtp1LheV7YGmmVLGsgW7LqCU2tRrXHBV1Sj9F79T18rV5MTzD2yWPFWHT1AutS3MRfK5","DdzFFzCqrhtDE5gVM8dKaZAhArsCcM6S9qvMUpwXSAMv8oghs46fFdEhTfqU56KxLCo3FsvxLRuASoxn6bpGfdea7eSaxtLnmaLQ26B7","DdzFFzCqrhsny3cLrikwQCgFNcrR19n4R5aCHgWAkkaBfLsYuhY9AgQxxtfBNKb32F41eJFQZ1dgQyEqcjFQgTMtuAsiz9mgE2fHrW2j"],"fee":1078985,"totalOutput":52001479232,"tokens":[]},{"hash":"cdf8f1c8d4985fd6526f58b1ccc78c21737f22d5df4db8923b567e0316edbdea","blockNo":7953602,"blockHash":"d8dec3fdba7b5b2b50c4a9c9a423656ad02398a1428e56b53a1beb0a862f1ced","epochNo":372,"epochSlotNo":300156,"slot":75640956,"time":"2022/10/31 09:07:27","addressesInput":["addr1qxn0kuqk8mysdv8rpqhl39vp6njnxd7dw3yvkcvdk9ke4revmezswc6ql6x9kekl6zm3ptc6g9jlwln9lt6sml5mcl0sndmr62","addr1qxn0kuqk8mysdv8rpqhl39vp6njnxd7dw3yvkcvdk9ke4revmezswc6ql6x9kekl6zm3ptc6g9jlwln9lt6sml5mcl0sndmr62","addr1qxn0kuqk8mysdv8rpqhl39vp6njnxd7dw3yvkcvdk9ke4revmezswc6ql6x9kekl6zm3ptc6g9jlwln9lt6sml5mcl0sndmr62"],"addressesOutput":["addr1zyq0kyrml023kwjk8zr86d5gaxrt5w8lxnah8r6m6s4jp4g3r6dxnzml343sx8jweqn4vn3fz2kj8kgu9czghx0jrsyqqktyhv","addr1q9ad5mud938r7l24eaac4v57ydlj72hazgprts9f7daaz09mm95jvs5h94099yglxr7v6ug6pp43780huy040lm4utmqx8g5eu","addr1qxn0kuqk8mysdv8rpqhl39vp6njnxd7dw3yvkcvdk9ke4revmezswc6ql6x9kekl6zm3ptc6g9jlwln9lt6sml5mcl0sndmr62"],"fee":336134,"totalOutput":457047574,"tokens":[]},{"hash":"4606b8be2dc75fe00da93a1df16a15d1706731c5cffc7271d093bcf0fba9e82b","blockNo":7953595,"blockHash":"e51b43980ab7a77cb8eaf846a62833e91daa97ebc7095b6c3e2fab299db33f18","epochNo":372,"epochSlotNo":299996,"slot":75640796,"time":"2022/10/31 09:04:47","addressesInput":["addr1qxn0kuqk8mysdv8rpqhl39vp6njnxd7dw3yvkcvdk9ke4revmezswc6ql6x9kekl6zm3ptc6g9jlwln9lt6sml5mcl0sndmr62"],"addressesOutput":["addr1wxn9efv2f6w82hagxqtn62ju4m293tqvw0uhmdl64ch8uwc0h43gt","addr1qxn0kuqk8mysdv8rpqhl39vp6njnxd7dw3yvkcvdk9ke4revmezswc6ql6x9kekl6zm3ptc6g9jlwln9lt6sml5mcl0sndmr62","addr1qxn0kuqk8mysdv8rpqhl39vp6njnxd7dw3yvkcvdk9ke4revmezswc6ql6x9kekl6zm3ptc6g9jlwln9lt6sml5mcl0sndmr62"],"fee":326893,"totalOutput":463383628,"tokens":[]},{"hash":"84ef872219212fac1b19178dd07fc40d97e828cb87aad209c2161a6ed0e7689a","blockNo":7953568,"blockHash":"6e8de08ae451a1ebbd6a297ee9ef3ddc8fba8644cdbd77266923c93af418dd3b","epochNo":372,"epochSlotNo":299441,"slot":75640241,"time":"2022/10/31 08:55:32","addressesInput":["addr1qxn0kuqk8mysdv8rpqhl39vp6njnxd7dw3yvkcvdk9ke4revmezswc6ql6x9kekl6zm3ptc6g9jlwln9lt6sml5mcl0sndmr62"],"addressesOutput":["addr1wxaptpmxcxawvr3pzlhgnpmzz3ql43n2tc8mn3av5kx0yzs09tqh8","addr1qxn0kuqk8mysdv8rpqhl39vp6njnxd7dw3yvkcvdk9ke4revmezswc6ql6x9kekl6zm3ptc6g9jlwln9lt6sml5mcl0sndmr62"],"fee":333358,"totalOutput":469210521,"tokens":[]},{"hash":"fe7b3f93948ac3fb08f402d3720ccbcea2b5b8bf3a3b3531250cf27d05388b01","blockNo":7953555,"blockHash":"a0012be5d6bac27a47abde699cd2aef31eb780d6730cb4eaa0043456bdaa5a1e","epochNo":372,"epochSlotNo":299196,"slot":75639996,"time":"2022/10/31 08:51:27","addressesInput":["addr1qxn0kuqk8mysdv8rpqhl39vp6njnxd7dw3yvkcvdk9ke4revmezswc6ql6x9kekl6zm3ptc6g9jlwln9lt6sml5mcl0sndmr62"],"addressesOutput":["addr1zyq0kyrml023kwjk8zr86d5gaxrt5w8lxnah8r6m6s4jp4g3r6dxnzml343sx8jweqn4vn3fz2kj8kgu9czghx0jrsyqqktyhv","addr1qxn0kuqk8mysdv8rpqhl39vp6njnxd7dw3yvkcvdk9ke4revmezswc6ql6x9kekl6zm3ptc6g9jlwln9lt6sml5mcl0sndmr62"],"fee":325002,"totalOutput":474193879,"tokens":[]},{"hash":"d066a6e12820cf6ee349b94fdd7aca889899cc2ac16091a7e9f222fabe71248e","blockNo":7953544,"blockHash":"0e09a723e9c98c88bb71ab50c555ddbed3c9119acb4d3caa6e8fa013dd34b58f","epochNo":372,"epochSlotNo":298981,"slot":75639781,"time":"2022/10/31 08:47:52","addressesInput":["addr1qxn0kuqk8mysdv8rpqhl39vp6njnxd7dw3yvkcvdk9ke4revmezswc6ql6x9kekl6zm3ptc6g9jlwln9lt6sml5mcl0sndmr62"],"addressesOutput":["addr1wxn9efv2f6w82hagxqtn62ju4m293tqvw0uhmdl64ch8uwc0h43gt","addr1qxn0kuqk8mysdv8rpqhl39vp6njnxd7dw3yvkcvdk9ke4revmezswc6ql6x9kekl6zm3ptc6g9jlwln9lt6sml5mcl0sndmr62"],"fee":333534,"totalOutput":483518881,"tokens":[]},{"hash":"7db96c0c35b0b2ae09c3d413adce5eda1254144061ca50f32e3f56b61262e21a","blockNo":7953253,"blockHash":"cbf1e9ba9379fa2187872f121ba3a6e3b077a3983b4b50a8b244146f8e03b3e2","epochNo":372,"epochSlotNo":292820,"slot":75633620,"time":"2022/10/31 07:05:11","addressesInput":["DdzFFzCqrhsvKa4MX3TziCUjLAa3BtYEL54aV3gTYFMasBbW18jzXSMC2xvugsc8iRYB5XGLZ9p7Y8G4ZzELdpeeUsZCn8NgknFdRsEr","DdzFFzCqrhszRWouTpvxWUfw5MUzmteyn6sd515jo8S8nPW72fihJ4GPUAUb4HtZLaukt6hm2xs5e99AkngjYo1Zg7Ro6dSaAraZtriG","DdzFFzCqrht6QyfH5YhcGGWFzWgWqzuRDRZBRR9eDu9VApW6wZcGKxtMUGyqwzreqtWUbnVghR4XhW9Sa4G1unPrWQu7JiQEa5bei45P","DdzFFzCqrhsxT8oFuvNb6rFn74byRBH5eTWmPsfuGsudfDK5ckpWnDpbFBKdqhsivzEBfNcRNU4oLmG88hJLQrGpfR6aZyurji4kQpJM","DdzFFzCqrhspcQgMH1vr3RMXCCQukvCRTgXVrfsZj18yN1L1rX8hofmcgjyzYroCWombmAZNsXxeys7meK2DTmN6kw1G7R3wALPjMdY2","DdzFFzCqrhtAB5UPMaNGiTM1d7zsxhLQMh2Exbm6tLe6eFX7sFHJAXwBjVousdJPgKjtUKrbVK5FZwQcZUg12NHJaSGrrYZAk6sLjnhE","DdzFFzCqrhsyDKnas9izQSzekWFuZcfhHhiqxVCvGFh6crqQdTDDvme58439Umggo3uLdiE6d7YELKuirUJZ5pigDfvGpxmNCPvy3k42","DdzFFzCqrhspcSQ7hBMJd1r5ygo8TvjRGEoGVv91h6EBqCETqnFqtwuDh1rVfP9CYR9U8NAvoxr6bnDJfLYpXEbRX82A52F19hmyowwn","DdzFFzCqrhswNKuwVDe82Mt2mq78By28X8qDHuHuVUNJxKxJzaFmQJWVdpvVQunYKoq4HnMaFc1VJMyGAXYWTHowUFv1T9WacGwHBs5A","DdzFFzCqrht88iH9Lxw7xbkmUbx4QcseEGSmECN7ExZ78tTTeMdbQpPakaJLr1UNWdqPzC7sCyGERSefkg4kjZ6DRbyTcjixTGsLkzsX"],"addressesOutput":["addr1q9atjfpqwdtg7ytz0pz9zcaqvx8zr2uv6ysvc4csqynr683dzefudzxhadht99nh8gv4l3z93d486ygllgxuh2drrrpsdw6fws","DdzFFzCqrhszfxx2h2RP4LAZr8Uj8SiHWhRDWA6NjjxdMehQAaZ17cw6UQkESj6gR2967WZwjCGaEgTYuVeW4YuzYUA1n9aVxUAzdg42","DdzFFzCqrhsybvfKkEzDrJMz8bGwYNvKNjJWSKruYpphm22SBe5t2RV6Khik9MhDEsBnv2qYZ3NJEcYMwY9mFUFKP3Qb43rtfHS3AqFh","DdzFFzCqrht9GSAUs3rv2rgKa5h8rBgJGxedAdkF6u8MKXFKY3aZ8Y2ZM2QrcFdhiMydTy9WMZ8qNsGieBBU5eBSCJ6Usp195knQdqgz"],"fee":926349,"totalOutput":52028046863,"tokens":[]},{"hash":"e1335ea0f020ed33153ce722a4296c1d2cd71e46a95363b551a42eb2b379d644","blockNo":7953024,"blockHash":"2c05a118b5951adaec1b6af9b08c78d1ffeaa29e63514dc6a0b2cfea5f3987de","epochNo":372,"epochSlotNo":288633,"slot":75629433,"time":"2022/10/31 05:55:24","addressesInput":["DdzFFzCqrht5A3xBPyCXmqE4bZVLF3cKsFP6W3zs4mi6nkS32WsPuNUmSTfqTiH6AxPvwXNZN2s5kdmLR5uEiuqAqd188BVqNE6wwJZx","DdzFFzCqrht5A3xBPyCXmqE4bZVLF3cKsFP6W3zs4mi6nkS32WsPuNUmSTfqTiH6AxPvwXNZN2s5kdmLR5uEiuqAqd188BVqNE6wwJZx","DdzFFzCqrhsu7JuPUzR8cLBF4rgtnhVNQaPUiG1wbqnTJZVdpoKcFiPHr6T8X54gGUxHia1kRsxNPbjCo8NsBHR2PgqmAaom1GkjTmws","DdzFFzCqrhssTHB8WpcwuPevg9AS46M2mBKuKTbpNXYFUaTJ8xEBuZ14K591GjckmGLsryoWz3oMg3Pxs7CrvnUWECq5xMqz1qf2Cbzy","DdzFFzCqrhstBCLo6ZmCt7Af9ycjw5CnDgtzx9WiqYZjM7AAPic8CCFcV1uqaMM6p2wbNRK2k6cVp6MTgPYQ88HWkwRLGYn13f4ahEwj","DdzFFzCqrhsmew4hkmeTbhry5irZ2mT2NLjewsKuaCxees8fn5QkBwYWV9EjHXYMAtLy1cYGFc3abWGPU2WXWJgo65w8EZXdtA7taa66","DdzFFzCqrhsrhhSGVMBGKj5ikzxCc7mxU6jxGmgEuv5zdGjNwo6Ktb9ABN4sBgnpkfDKuCh3tAiaMqqrKNPwZX4vxPYEC3HKKWa9QBEP","DdzFFzCqrhtAoxXVm9SHhMnxZq9giZqc5e7EWKN59WBGin7S3BjE2TP4UPUJWEo9c4ijVeQKgP72pSjkSW6oFhqS9LjAkZ3ouyxssKpu","DdzFFzCqrhssCjH4bnnKfCk6NVywTMLgh52bx3gih9UMNRDcUi2sS1XLF4VKUo9B2Ykgr3RBkSNAeTRF1FpyXz2yFdkozV9YyLpfnmwt","DdzFFzCqrhsekbVRTkAno9jijJNqaHFJ73mumocjRABEUJqHcPXNHen4iHPnF4dRwPeHQzQfhvVKQDzrmga2SHzmiHpRtgru3cNWdN6B","DdzFFzCqrhsrTbydTTwb4rRqJDfBEV3u8t5DHU5iJ7bUJj78iQDn9YmC22cWQ7t4QcHWJXi9m1TeiYFfoMyV8sFhALUXq3o24kRQ9cbR","DdzFFzCqrhsqqunsYj2nCJtCBshccozc4z2Ug8XtcTuLAUoDU6ZWuj14FH7Bj4vdNJm1RSsqWcpbdkx7k5LPgNTSZfi1PdcZzHLqZFau","DdzFFzCqrhswbQWCf3Nt4UEX87kRmMMoopuTZNqrChukHyZzv7gEDXQves6XWtz7LSteHxqkkXwhWVREBFu4DuYBRoD9JdjpWrjD8VWe","DdzFFzCqrhsf1jNGx2um241NKhNeM3t2SZqBYS25cgDsVcrSntQTPT4g3Sgc9TRAWNRGucNNV6g4tSAS4chLGsLKAAJLN4W3t2LaX92y","DdzFFzCqrhtBeL8mxBj6uaYSZhzNB4QugGngmTx9kPpt23cxRonXap8ijzBzib97CEuZ927dU3HhTz9hjqQrW9qRhhBSP59fwCr8pVY8","DdzFFzCqrht3B54TxLubktine1cAoVDNPoZ53i5xynTeWMukQDwc3GdH7L5ZDJSMBSpCX25oxAwzFiRn1tPkv7DijWgy7C5vUf9LoLua","DdzFFzCqrhskGmDeWBw7FqBJQNQMdXzZMpe36EZjwGwh1LBqGxsCUD33p16XwmFrDCTzG5ozi4EYTmZaysvZHHEc1UPGqSB3k7zUZvHQ","DdzFFzCqrhsxDDYMXMMLjJQLDUsYXEz3Fvi3ZEaxvFAiUiYjGFSf7ZRKvJVQx12vBmCVUjrX7NFQLuPHjrRuT2GhbW19nQiRkZa9JwEa","DdzFFzCqrhsgnehZxw1X5imyvYkvhnesMg29eFNqcfr5tnoM6XDcrvA8SY83pbCsH79uu3wiMRjRzhCQARRMnCMUP6yJ8AKBe81HkAWT","DdzFFzCqrht3dWexT9wdpN1K6wrFHiNex12EbS8dPTbCU87XVgqRSDoYuaXDnU1FHUfMMS2yqzyL9URrj3DbJif6XVHTLkFZDcQvvbyY","DdzFFzCqrhsrQYKVL4uFu3P8ewjSWNcUjSUKCTWDbPSgiJpw49awLDczsVuRwRVn3kRHma9MQeGrWsjd5ggbDtjd3ca3Cqc6BnTygQEp"],"addressesOutput":["addr1q9atjfpqwdtg7ytz0pz9zcaqvx8zr2uv6ysvc4csqynr683dzefudzxhadht99nh8gv4l3z93d486ygllgxuh2drrrpsdw6fws","DdzFFzCqrhspcSQ7hBMJd1r5ygo8TvjRGEoGVv91h6EBqCETqnFqtwuDh1rVfP9CYR9U8NAvoxr6bnDJfLYpXEbRX82A52F19hmyowwn","DdzFFzCqrhsxT8oFuvNb6rFn74byRBH5eTWmPsfuGsudfDK5ckpWnDpbFBKdqhsivzEBfNcRNU4oLmG88hJLQrGpfR6aZyurji4kQpJM","DdzFFzCqrht88iH9Lxw7xbkmUbx4QcseEGSmECN7ExZ78tTTeMdbQpPakaJLr1UNWdqPzC7sCyGERSefkg4kjZ6DRbyTcjixTGsLkzsX"],"fee":1032829,"totalOutput":73654771307,"tokens":[]},{"hash":"28edec9a66bf3051975059fa45c2956b15d5c873d75cf2510d7f0f5bbaf230e9","blockNo":7952328,"blockHash":"5f0824da3b64064beddc12c1e4d7dd2494d50106d55b46b110110a1d8fc51156","epochNo":372,"epochSlotNo":274858,"slot":75615658,"time":"2022/10/31 02:05:49","addressesInput":["DdzFFzCqrhst5yAy6KVG6XnZPUHRHRe4E4SX6s54UrwjTcSfNJ8MmE6HPHQHPDUCrQVPQmCHCb5ozXB2cuaURkKYFd2pQLbH6fKpLbvo","DdzFFzCqrht1gXXo87vAcnSDEYL8k4Ngo6mwywqqPY4fH82FNnNEBXPLj7ttr4L5WTd5TgiUQ21DXPV2burG3hK61vMmb88PkpBrB3EM","DdzFFzCqrht5oJCGN5UbGqNS8HmGJBeWYz2nRMk4eQFhjngbFFm1uDR3ykxSQcHiG2YfCgExFGcxfMht6z3iH57atFcXsUgkkgKka3du","DdzFFzCqrhswgKUpBV2gvPrNK3PZFBVuqwN4rcwKCLpX7efw1eGyJwunGh8j3t8aGuQYyUCdWhNTxWb1oByX7ghHqtGGTw9UZa87Dwh9"],"addressesOutput":["addr1q9atjfpqwdtg7ytz0pz9zcaqvx8zr2uv6ysvc4csqynr683dzefudzxhadht99nh8gv4l3z93d486ygllgxuh2drrrpsdw6fws","DdzFFzCqrhtBeL8mxBj6uaYSZhzNB4QugGngmTx9kPpt23cxRonXap8ijzBzib97CEuZ927dU3HhTz9hjqQrW9qRhhBSP59fwCr8pVY8","DdzFFzCqrhsqqunsYj2nCJtCBshccozc4z2Ug8XtcTuLAUoDU6ZWuj14FH7Bj4vdNJm1RSsqWcpbdkx7k5LPgNTSZfi1PdcZzHLqZFau","DdzFFzCqrhsgnehZxw1X5imyvYkvhnesMg29eFNqcfr5tnoM6XDcrvA8SY83pbCsH79uu3wiMRjRzhCQARRMnCMUP6yJ8AKBe81HkAWT"],"fee":868269,"totalOutput":63268426155,"tokens":[]},{"hash":"2d0493cac9857766fca4543b9648e86f3828a21f1d0b85350612eee26f6d4cb3","blockNo":7952307,"blockHash":"423dcfa1b79f1283a38475d5aa004de95993bd47a3b664c7be329595b135f2c3","epochNo":372,"epochSlotNo":274446,"slot":75615246,"time":"2022/10/31 01:58:57","addressesInput":["DdzFFzCqrht7Ywi6X1VaFgUmXRAkVJ5cBRU256daDSGDMR1twVkXnxeMGZDxxmYrub6uH9ejvpPNBf2jzrZsLwF224VMWYncQaC16Wjf","DdzFFzCqrhsgv7TWztqFDrDiLqSQbRpoyrRn41fHviCz6abhdek5mLKdzYhEVtovPST8QajZLSMzj6NndQJeYK7ED2WB5rA4mUmEQFKb","DdzFFzCqrhspCZJTi9k7zud1iaY5zsyzbpYtjvdoUjnriy2kw3GzUQf4e3fvHaxVanXuVrwJk8rMraARxt3ZfKK1YMwBKMABLndc9mua"],"addressesOutput":["addr1q9atjfpqwdtg7ytz0pz9zcaqvx8zr2uv6ysvc4csqynr683dzefudzxhadht99nh8gv4l3z93d486ygllgxuh2drrrpsdw6fws","DdzFFzCqrht5oJCGN5UbGqNS8HmGJBeWYz2nRMk4eQFhjngbFFm1uDR3ykxSQcHiG2YfCgExFGcxfMht6z3iH57atFcXsUgkkgKka3du"],"fee":524673,"totalOutput":102285726860,"tokens":[]},{"hash":"8dfdb2e1d8983bdf57b1bdc973e07a2d6e6892fb9d5f67395c853f79d22c3216","blockNo":7952255,"blockHash":"3f948526d19cbb29648064f7080854745c8ac9e16356bb3439fc756360521223","epochNo":372,"epochSlotNo":273436,"slot":75614236,"time":"2022/10/31 01:42:07","addressesInput":["addr1q93vyug8m3qrqc5qr9u28hzkvdpzyvmez85f58l8y9t2502xrdyd4ezx43vxjgw0dvz6dzy36jku3ptrr9mcv5dftkhsx6f5gt","addr1q93vyug8m3qrqc5qr9u28hzkvdpzyvmez85f58l8y9t2502xrdyd4ezx43vxjgw0dvz6dzy36jku3ptrr9mcv5dftkhsx6f5gt","addr1q93vyug8m3qrqc5qr9u28hzkvdpzyvmez85f58l8y9t2502xrdyd4ezx43vxjgw0dvz6dzy36jku3ptrr9mcv5dftkhsx6f5gt","addr1q93vyug8m3qrqc5qr9u28hzkvdpzyvmez85f58l8y9t2502xrdyd4ezx43vxjgw0dvz6dzy36jku3ptrr9mcv5dftkhsx6f5gt","addr1q93vyug8m3qrqc5qr9u28hzkvdpzyvmez85f58l8y9t2502xrdyd4ezx43vxjgw0dvz6dzy36jku3ptrr9mcv5dftkhsx6f5gt"],"addressesOutput":["addr1wxn9efv2f6w82hagxqtn62ju4m293tqvw0uhmdl64ch8uwc0h43gt","addr1q93vyug8m3qrqc5qr9u28hzkvdpzyvmez85f58l8y9t2502xrdyd4ezx43vxjgw0dvz6dzy36jku3ptrr9mcv5dftkhsx6f5gt","addr1q93vyug8m3qrqc5qr9u28hzkvdpzyvmez85f58l8y9t2502xrdyd4ezx43vxjgw0dvz6dzy36jku3ptrr9mcv5dftkhsx6f5gt"],"fee":302693,"totalOutput":216868347,"tokens":[]},{"hash":"84074c701f6be6a83ad43e82d5997850ca83719e021758079bc35d608b3fa772","blockNo":7952227,"blockHash":"fc0956e8d770cb32cf876b58799e2e0951361395dd91692cb3d1524f97902c1a","epochNo":372,"epochSlotNo":272934,"slot":75613734,"time":"2022/10/31 01:33:45","addressesInput":["addr1q8xd5ldatm858ffg70fynjsya6ajje2uzx0d040vrjv9u2q7kcq2792cxs93hsh573vsdutkl5tn8afmnhjtwchqykasrdxsvn","addr1q8xd5ldatm858ffg70fynjsya6ajje2uzx0d040vrjv9u2q7kcq2792cxs93hsh573vsdutkl5tn8afmnhjtwchqykasrdxsvn","addr1q8xd5ldatm858ffg70fynjsya6ajje2uzx0d040vrjv9u2q7kcq2792cxs93hsh573vsdutkl5tn8afmnhjtwchqykasrdxsvn","addr1q8xd5ldatm858ffg70fynjsya6ajje2uzx0d040vrjv9u2q7kcq2792cxs93hsh573vsdutkl5tn8afmnhjtwchqykasrdxsvn","addr1q8xd5ldatm858ffg70fynjsya6ajje2uzx0d040vrjv9u2q7kcq2792cxs93hsh573vsdutkl5tn8afmnhjtwchqykasrdxsvn","addr1q8xd5ldatm858ffg70fynjsya6ajje2uzx0d040vrjv9u2q7kcq2792cxs93hsh573vsdutkl5tn8afmnhjtwchqykasrdxsvn","addr1q8xd5ldatm858ffg70fynjsya6ajje2uzx0d040vrjv9u2q7kcq2792cxs93hsh573vsdutkl5tn8afmnhjtwchqykasrdxsvn","addr1q8xd5ldatm858ffg70fynjsya6ajje2uzx0d040vrjv9u2q7kcq2792cxs93hsh573vsdutkl5tn8afmnhjtwchqykasrdxsvn","addr1q8xd5ldatm858ffg70fynjsya6ajje2uzx0d040vrjv9u2q7kcq2792cxs93hsh573vsdutkl5tn8afmnhjtwchqykasrdxsvn","addr1q8xd5ldatm858ffg70fynjsya6ajje2uzx0d040vrjv9u2q7kcq2792cxs93hsh573vsdutkl5tn8afmnhjtwchqykasrdxsvn"],"addressesOutput":["addr1zxgx3far7qygq0k6epa0zcvcvrevmn0ypsnfsue94nsn3tvpw288a4x0xf8pxgcntelxmyclq83s0ykeehchz2wtspks905plm","addr1q8xd5ldatm858ffg70fynjsya6ajje2uzx0d040vrjv9u2q7kcq2792cxs93hsh573vsdutkl5tn8afmnhjtwchqykasrdxsvn","addr1q8xd5ldatm858ffg70fynjsya6ajje2uzx0d040vrjv9u2q7kcq2792cxs93hsh573vsdutkl5tn8afmnhjtwchqykasrdxsvn"],"fee":502277,"totalOutput":173079418,"tokens":[]},{"hash":"0e3a128fa9a42cdc3097e0b424332589ce73a0bfb3a4b2ea391386d65235f243","blockNo":7951862,"blockHash":"e69b237b8f90e31b61c62b407a4fd9445d82972f67c2f034f49c5659221bfe57","epochNo":372,"epochSlotNo":265567,"slot":75606367,"time":"2022/10/30 23:30:58","addressesInput":["addr1zxgx3far7qygq0k6epa0zcvcvrevmn0ypsnfsue94nsn3tvpw288a4x0xf8pxgcntelxmyclq83s0ykeehchz2wtspks905plm","addr1q8xd5ldatm858ffg70fynjsya6ajje2uzx0d040vrjv9u2q7kcq2792cxs93hsh573vsdutkl5tn8afmnhjtwchqykasrdxsvn"],"addressesOutput":["addr1q8xd5ldatm858ffg70fynjsya6ajje2uzx0d040vrjv9u2q7kcq2792cxs93hsh573vsdutkl5tn8afmnhjtwchqykasrdxsvn","addr1q8xd5ldatm858ffg70fynjsya6ajje2uzx0d040vrjv9u2q7kcq2792cxs93hsh573vsdutkl5tn8afmnhjtwchqykasrdxsvn"],"fee":730270,"totalOutput":210935212,"tokens":[]},{"hash":"40210d4dfc50d6fa8479a423c2ea1d3806990b3fba4eb5b5d28e7a5e5e3f93a4","blockNo":7951781,"blockHash":"6af82c27e6c59617e71d69344610f14d2617f4abd39cab5a563fa33535862c78","epochNo":372,"epochSlotNo":264164,"slot":75604964,"time":"2022/10/30 23:07:35","addressesInput":["addr1zxgx3far7qygq0k6epa0zcvcvrevmn0ypsnfsue94nsn3tvpw288a4x0xf8pxgcntelxmyclq83s0ykeehchz2wtspks905plm","addr1qy40g24xtw7yuqtt6mkz0gnc6l8mzg7ta6vhmtau3asu22fhcdj45clk5lfnp6a2m7jdkpwd06t207rf6p2hzx6lv2jsyj7khf","addr1qy40g24xtw7yuqtt6mkz0gnc6l8mzg7ta6vhmtau3asu22fhcdj45clk5lfnp6a2m7jdkpwd06t207rf6p2hzx6lv2jsyj7khf"],"addressesOutput":["addr1q8z8sekavprm8mfxk4um5kp2n4vuxz9w88lq44nvg2llxm8s6exsjstryzavtd3dx063tc2vn5f944zhy6rwts448y4s98lsfc","addr1q9cwvremt6n320s2e3agq0jyq82yhrk3htsu0w426xnz5us70z4w0jgvcdkkynmm8wmds66jd9kusnjfpu6raw5fqp0sr07p5w","addr1q9kqq4656r8kjqdh8g58rwe20ywaskfumytcjg3xchsq3ytgjtc0re0vdw2ghv66z9hec8w5zjc0658408jeqf3rvafswtjskd","addr1qxszsqjtp8kf60yvk896cr9td2rkqnsxsgvej2ad8lah8x3hcdj45clk5lfnp6a2m7jdkpwd06t207rf6p2hzx6lv2jsl2szk3","addr1qxszsqjtp8kf60yvk896cr9td2rkqnsxsgvej2ad8lah8x3hcdj45clk5lfnp6a2m7jdkpwd06t207rf6p2hzx6lv2jsl2szk3","addr1qxszsqjtp8kf60yvk896cr9td2rkqnsxsgvej2ad8lah8x3hcdj45clk5lfnp6a2m7jdkpwd06t207rf6p2hzx6lv2jsl2szk3","addr1qxszsqjtp8kf60yvk896cr9td2rkqnsxsgvej2ad8lah8x3hcdj45clk5lfnp6a2m7jdkpwd06t207rf6p2hzx6lv2jsl2szk3","addr1qxszsqjtp8kf60yvk896cr9td2rkqnsxsgvej2ad8lah8x3hcdj45clk5lfnp6a2m7jdkpwd06t207rf6p2hzx6lv2jsl2szk3","addr1qxszsqjtp8kf60yvk896cr9td2rkqnsxsgvej2ad8lah8x3hcdj45clk5lfnp6a2m7jdkpwd06t207rf6p2hzx6lv2jsl2szk3","addr1qxszsqjtp8kf60yvk896cr9td2rkqnsxsgvej2ad8lah8x3hcdj45clk5lfnp6a2m7jdkpwd06t207rf6p2hzx6lv2jsl2szk3","addr1qxszsqjtp8kf60yvk896cr9td2rkqnsxsgvej2ad8lah8x3hcdj45clk5lfnp6a2m7jdkpwd06t207rf6p2hzx6lv2jsl2szk3","addr1qxszsqjtp8kf60yvk896cr9td2rkqnsxsgvej2ad8lah8x3hcdj45clk5lfnp6a2m7jdkpwd06t207rf6p2hzx6lv2jsl2szk3"],"fee":874434,"totalOutput":784682507,"tokens":[]},{"hash":"896697fef51874295cd18a804730e525c424dedc6ec0ea979ff03fcbfd322675","blockNo":7951598,"blockHash":"27d13043ec1fd9ccb853753b885b80949f3b3f873c2826fbd0d599c1cc472ca7","epochNo":372,"epochSlotNo":260383,"slot":75601183,"time":"2022/10/30 22:04:34","addressesInput":["addr1q9a0r6c66pt4sutenfsvhvp2eruq3u3v3tm7q7ads3mxeyg7kcq2792cxs93hsh573vsdutkl5tn8afmnhjtwchqykas8zs4l9"],"addressesOutput":["addr1zxgx3far7qygq0k6epa0zcvcvrevmn0ypsnfsue94nsn3tvpw288a4x0xf8pxgcntelxmyclq83s0ykeehchz2wtspks905plm","addr1q8xd5ldatm858ffg70fynjsya6ajje2uzx0d040vrjv9u2q7kcq2792cxs93hsh573vsdutkl5tn8afmnhjtwchqykasrdxsvn"],"fee":425277,"totalOutput":157066232,"tokens":[]},{"hash":"1bd9ba91fd26d86b0062efdcaab5d4e2870fba78e7b1c91c72ad5019fe7923b2","blockNo":7951118,"blockHash":"151bf44cb5942508f91cb9730654853fddff5865c2d3f122636c3b262c11df22","epochNo":372,"epochSlotNo":251036,"slot":75591836,"time":"2022/10/30 19:28:47","addressesInput":["addr1q8fjdde87jrua78trg9ylv7gpvd5skzcv5nqp3wl467ykzgsmz083klcvm744y0n7yyg49ykzz0j628xpu4n5u0r0r4qrfqf6q","addr1q8fjdde87jrua78trg9ylv7gpvd5skzcv5nqp3wl467ykzgsmz083klcvm744y0n7yyg49ykzz0j628xpu4n5u0r0r4qrfqf6q","addr1q8fjdde87jrua78trg9ylv7gpvd5skzcv5nqp3wl467ykzgsmz083klcvm744y0n7yyg49ykzz0j628xpu4n5u0r0r4qrfqf6q","addr1q8fjdde87jrua78trg9ylv7gpvd5skzcv5nqp3wl467ykzgsmz083klcvm744y0n7yyg49ykzz0j628xpu4n5u0r0r4qrfqf6q"],"addressesOutput":["addr1zxgx3far7qygq0k6epa0zcvcvrevmn0ypsnfsue94nsn3tvpw288a4x0xf8pxgcntelxmyclq83s0ykeehchz2wtspks905plm","addr1q8fjdde87jrua78trg9ylv7gpvd5skzcv5nqp3wl467ykzgsmz083klcvm744y0n7yyg49ykzz0j628xpu4n5u0r0r4qrfqf6q","addr1q8fjdde87jrua78trg9ylv7gpvd5skzcv5nqp3wl467ykzgsmz083klcvm744y0n7yyg49ykzz0j628xpu4n5u0r0r4qrfqf6q"],"fee":437377,"totalOutput":27155563,"tokens":[]},{"hash":"5acd97f35af16fb319bbff471a1b67aea2ae68cc4102517643a6ecfb78c364d1","blockNo":7951115,"blockHash":"958eafe650b273725e664e5e37e0381236929634991451ebc41662a931817530","epochNo":372,"epochSlotNo":250965,"slot":75591765,"time":"2022/10/30 19:27:36","addressesInput":["addr1q8fjdde87jrua78trg9ylv7gpvd5skzcv5nqp3wl467ykzgsmz083klcvm744y0n7yyg49ykzz0j628xpu4n5u0r0r4qrfqf6q","addr1q8fjdde87jrua78trg9ylv7gpvd5skzcv5nqp3wl467ykzgsmz083klcvm744y0n7yyg49ykzz0j628xpu4n5u0r0r4qrfqf6q","addr1q8fjdde87jrua78trg9ylv7gpvd5skzcv5nqp3wl467ykzgsmz083klcvm744y0n7yyg49ykzz0j628xpu4n5u0r0r4qrfqf6q","addr1q8fjdde87jrua78trg9ylv7gpvd5skzcv5nqp3wl467ykzgsmz083klcvm744y0n7yyg49ykzz0j628xpu4n5u0r0r4qrfqf6q"],"addressesOutput":["addr1zxgx3far7qygq0k6epa0zcvcvrevmn0ypsnfsue94nsn3tvpw288a4x0xf8pxgcntelxmyclq83s0ykeehchz2wtspks905plm","addr1q8fjdde87jrua78trg9ylv7gpvd5skzcv5nqp3wl467ykzgsmz083klcvm744y0n7yyg49ykzz0j628xpu4n5u0r0r4qrfqf6q","addr1q8fjdde87jrua78trg9ylv7gpvd5skzcv5nqp3wl467ykzgsmz083klcvm744y0n7yyg49ykzz0j628xpu4n5u0r0r4qrfqf6q"],"fee":453481,"totalOutput":28048709,"tokens":[]},{"hash":"9568b5be39be7b25913ec0d801b19650b02ee967b59bc6fad9a395b468f931f0","blockNo":7951106,"blockHash":"fbe4d4f70ee5203eccbfb1353123aa72c25a76797998e8a9700b00ff30afba5c","epochNo":372,"epochSlotNo":250760,"slot":75591560,"time":"2022/10/30 19:24:11","addressesInput":["DdzFFzCqrht6R8SJxWXuJWPJjECuwvRcUrDwrQGQjAKFFgJNjCmVnRbQz8q93HvstnSXSxQLo6gTUqb2vC5chG7iU11Zh8q6n6c2gMgN","DdzFFzCqrhtCYrsPqNKpMNQ8XnmyNgYN3fNQu4F5WWHN84WyTcKSswGMCBAEsSi1yXsjJymk39BqwnFxvhxRF8NmcdX7D2XLeqtmtD1f","DdzFFzCqrhsw3tGTUwTCYFexjDWzBjMdNBV2xut6KytbMJhgn1xSgaBvjSr3onJiEJfH4VzF4xXx8Soe6oZFTdHGEZqJS6mSKSp9goT7","DdzFFzCqrhsn4cG8dqEkxmYGidbzd7FRaQxnHjR5BMKzi3GbVvBn9ju9oURb59WjkSMrLvYfx7NZnEeYZHnNN5aFFukvuCExWh7tz8p1","DdzFFzCqrhsptN6C5n1Y1LrkLL1ueoQzqVwCWvHxAETrRHuLqx8zqrsYtxjBVeBGb57AM5WoAemfJfrXyGbVEoPAtWxpbjqgmKw9sQWt","DdzFFzCqrhsnzmo5mzxfrbgYeWEJMXGG7omvZFW9oQvv17gYdijHhZpKis85H36QfGGxzgVHQ9hN8EpQaQiVskkSuCWmKBAYEbwyicrL","DdzFFzCqrhtD8Y7YjvZq6mUqQzjuAbNjDwxLcztbzrvQ7yfX8L3QH8jWs3Cz9YmQxnkfUiBiBU5w8AdkiQcDreYNFxCejPbbPpFqfJkx","DdzFFzCqrhsxJYvR9BSf3sVTjsxX3AwMpiePPGo6sEomg2Aa57tG3oQswdRDZ6BChvWK6XefX9EgRjwgTXxtaX1Js5d2dLeYYGfeY2PT","DdzFFzCqrhsyEcqNhsD17tNZr13rRmwTEWLszVH7AwHRCw2fFQE2s22LGYLBaTs1wgQ5Kk4MSB1YiYBqnNGHXR1zcdB4ZpRxa3cGeit4"],"addressesOutput":["addr1q9atjfpqwdtg7ytz0pz9zcaqvx8zr2uv6ysvc4csqynr683dzefudzxhadht99nh8gv4l3z93d486ygllgxuh2drrrpsdw6fws","DdzFFzCqrhspCZJTi9k7zud1iaY5zsyzbpYtjvdoUjnriy2kw3GzUQf4e3fvHaxVanXuVrwJk8rMraARxt3ZfKK1YMwBKMABLndc9mua","DdzFFzCqrhst5yAy6KVG6XnZPUHRHRe4E4SX6s54UrwjTcSfNJ8MmE6HPHQHPDUCrQVPQmCHCb5ozXB2cuaURkKYFd2pQLbH6fKpLbvo","DdzFFzCqrhse6WcMpkgwSGL9JWP1hKNa3hzg5w8jeUjRBXtwk7WFi4dK9pjQLWnhqb7KZFpPq3CU1nNv9TWnRExFnKGoL5wtoUAbyca2"],"fee":916669,"totalOutput":70257795509,"tokens":[]},{"hash":"f798a53727b8a969c97a093749f9601f50dbcafc26d71f298942665c89a7257b","blockNo":7950538,"blockHash":"d37cb1008191bf85ce7dd5ab78033544c35c14d14338fcf684196ebafc01f635","epochNo":372,"epochSlotNo":238871,"slot":75579671,"time":"2022/10/30 16:06:02","addressesInput":["addr1qy2gcfc4ygmtukrfdpk5sjrc7jjvz46mxucpa5zq2yund2uvvt8vr5rf0yrj47j7zzg2c3ss0vj8932839u05gzlr05scm3p5m","addr1qy2gcfc4ygmtukrfdpk5sjrc7jjvz46mxucpa5zq2yund2uvvt8vr5rf0yrj47j7zzg2c3ss0vj8932839u05gzlr05scm3p5m","addr1qy2gcfc4ygmtukrfdpk5sjrc7jjvz46mxucpa5zq2yund2uvvt8vr5rf0yrj47j7zzg2c3ss0vj8932839u05gzlr05scm3p5m"],"addressesOutput":["addr1zxgx3far7qygq0k6epa0zcvcvrevmn0ypsnfsue94nsn3tvpw288a4x0xf8pxgcntelxmyclq83s0ykeehchz2wtspks905plm","addr1qy2gcfc4ygmtukrfdpk5sjrc7jjvz46mxucpa5zq2yund2uvvt8vr5rf0yrj47j7zzg2c3ss0vj8932839u05gzlr05scm3p5m","addr1qy2gcfc4ygmtukrfdpk5sjrc7jjvz46mxucpa5zq2yund2uvvt8vr5rf0yrj47j7zzg2c3ss0vj8932839u05gzlr05scm3p5m"],"fee":246329,"totalOutput":20957299,"tokens":[]}],"totalItems":11051,"totalPages":553,"currentPage":0}