{"data":[{"hash":"d5e7bf173492063bca4c421d175e60f336ac25e426029ee872fac4904a21d99e","blockNo":6725195,"blockHash":"4fab37b50ec236698f2bbcadd225e623b3ded74f4fb34a521d225d60abe381f1","epochNo":313,"epochSlotNo":104586,"slot":49957386,"time":"2022/01/07 02:47:57","addressesInput":["addr1qxys5t4zfz9fetvjn6swsv9hef4veafxpn9gk4w3urxfrer9mlkj5mlqr2am0n3gmaqvc65scg6f59xfudkglcd0ysaqyclf0t","addr1qxys5t4zfz9fetvjn6swsv9hef4veafxpn9gk4w3urxfrer9mlkj5mlqr2am0n3gmaqvc65scg6f59xfudkglcd0ysaqyclf0t"],"addressesOutput":["addr1wy2mjh76em44qurn5x73nzqrxua7ataasftql0u2h6g88lc3gtgpz","addr1qxys5t4zfz9fetvjn6swsv9hef4veafxpn9gk4w3urxfrer9mlkj5mlqr2am0n3gmaqvc65scg6f59xfudkglcd0ysaqyclf0t","addr1qxys5t4zfz9fetvjn6swsv9hef4veafxpn9gk4w3urxfrer9mlkj5mlqr2am0n3gmaqvc65scg6f59xfudkglcd0ysaqyclf0t"],"fee":294773,"totalOutput":723927434,"tokens":[]},{"hash":"768c5a41441a2a0170c92ba6c13cd78745fa2d6527715d10f4635382cd78452d","blockNo":6725189,"blockHash":"68ea08181ff2c6a33405d028cb3635aec723566401d2429bba04ad3e64f8b132","epochNo":313,"epochSlotNo":104524,"slot":49957324,"time":"2022/01/07 02:46:55","addressesInput":["addr1qxys5t4zfz9fetvjn6swsv9hef4veafxpn9gk4w3urxfrer9mlkj5mlqr2am0n3gmaqvc65scg6f59xfudkglcd0ysaqyclf0t","addr1qxys5t4zfz9fetvjn6swsv9hef4veafxpn9gk4w3urxfrer9mlkj5mlqr2am0n3gmaqvc65scg6f59xfudkglcd0ysaqyclf0t"],"addressesOutput":["addr1wy2mjh76em44qurn5x73nzqrxua7ataasftql0u2h6g88lc3gtgpz","addr1qxys5t4zfz9fetvjn6swsv9hef4veafxpn9gk4w3urxfrer9mlkj5mlqr2am0n3gmaqvc65scg6f59xfudkglcd0ysaqyclf0t","addr1qxys5t4zfz9fetvjn6swsv9hef4veafxpn9gk4w3urxfrer9mlkj5mlqr2am0n3gmaqvc65scg6f59xfudkglcd0ysaqyclf0t"],"fee":319501,"totalOutput":585907993,"tokens":[]},{"hash":"ed4a44a64221d7da22e57b3af795215ccdc1236fcba78420e3534dc4581c903a","blockNo":6725186,"blockHash":"89cefdb83e2bc53001dad3f70d401cd697f773551207b6a1967e4dd0d95d7772","epochNo":313,"epochSlotNo":104451,"slot":49957251,"time":"2022/01/07 02:45:42","addressesInput":["addr1q8vq0h4y6q92v976f6fgq9yct0nulj4k0ndh6wg9lklgg0a9cm8zre0k0sacp2jat93u8yea038epa6hh9g79yj42zsscjfz2r","addr1q8vq0h4y6q92v976f6fgq9yct0nulj4k0ndh6wg9lklgg0a9cm8zre0k0sacp2jat93u8yea038epa6hh9g79yj42zsscjfz2r","addr1q8vq0h4y6q92v976f6fgq9yct0nulj4k0ndh6wg9lklgg0a9cm8zre0k0sacp2jat93u8yea038epa6hh9g79yj42zsscjfz2r"],"addressesOutput":["addr1w999n67e86jn6xal07pzxtrmqynspgx0fwmcmpua4wc6yzsxpljz3","addr1q8vq0h4y6q92v976f6fgq9yct0nulj4k0ndh6wg9lklgg0a9cm8zre0k0sacp2jat93u8yea038epa6hh9g79yj42zsscjfz2r","addr1q8vq0h4y6q92v976f6fgq9yct0nulj4k0ndh6wg9lklgg0a9cm8zre0k0sacp2jat93u8yea038epa6hh9g79yj42zsscjfz2r"],"fee":320953,"totalOutput":52024992,"tokens":[]},{"hash":"1a40645b9cd93a957441357115e6e24fcbbf70ef8da49899bad03edafb3ceb51","blockNo":6725185,"blockHash":"d49e29ad3b4b2bda173a44094384102c41b962df5e41dacfe9fd732d20cacbf8","epochNo":313,"epochSlotNo":104448,"slot":49957248,"time":"2022/01/07 02:45:39","addressesInput":["addr1qxys5t4zfz9fetvjn6swsv9hef4veafxpn9gk4w3urxfrer9mlkj5mlqr2am0n3gmaqvc65scg6f59xfudkglcd0ysaqyclf0t","addr1qxys5t4zfz9fetvjn6swsv9hef4veafxpn9gk4w3urxfrer9mlkj5mlqr2am0n3gmaqvc65scg6f59xfudkglcd0ysaqyclf0t"],"addressesOutput":["addr1wy2mjh76em44qurn5x73nzqrxua7ataasftql0u2h6g88lc3gtgpz","addr1qxys5t4zfz9fetvjn6swsv9hef4veafxpn9gk4w3urxfrer9mlkj5mlqr2am0n3gmaqvc65scg6f59xfudkglcd0ysaqyclf0t","addr1qxys5t4zfz9fetvjn6swsv9hef4veafxpn9gk4w3urxfrer9mlkj5mlqr2am0n3gmaqvc65scg6f59xfudkglcd0ysaqyclf0t"],"fee":319501,"totalOutput":588327494,"tokens":[]},{"hash":"fdbf3640c7b0d224df0779dce9822ed3490f4ea1bc5b5edd38ddacb5fac42df2","blockNo":6725181,"blockHash":"e10d075603bce145c6a82d7fbc5935415f15c23f6112f8a94412b789eb93603f","epochNo":313,"epochSlotNo":104331,"slot":49957131,"time":"2022/01/07 02:43:42","addressesInput":["addr1qxys5t4zfz9fetvjn6swsv9hef4veafxpn9gk4w3urxfrer9mlkj5mlqr2am0n3gmaqvc65scg6f59xfudkglcd0ysaqyclf0t","addr1qxys5t4zfz9fetvjn6swsv9hef4veafxpn9gk4w3urxfrer9mlkj5mlqr2am0n3gmaqvc65scg6f59xfudkglcd0ysaqyclf0t"],"addressesOutput":["addr1wy2mjh76em44qurn5x73nzqrxua7ataasftql0u2h6g88lc3gtgpz","addr1qxys5t4zfz9fetvjn6swsv9hef4veafxpn9gk4w3urxfrer9mlkj5mlqr2am0n3gmaqvc65scg6f59xfudkglcd0ysaqyclf0t","addr1qxys5t4zfz9fetvjn6swsv9hef4veafxpn9gk4w3urxfrer9mlkj5mlqr2am0n3gmaqvc65scg6f59xfudkglcd0ysaqyclf0t"],"fee":294773,"totalOutput":19927434,"tokens":[]},{"hash":"7df0b75f0a6c4cb7b5f8c18a5291426b20614b1b892b27116ae2b9e52653c960","blockNo":6725005,"blockHash":"66f4ac2e27d570dd35cb8dfbfdfe7e088915cb92cce9e15d49edc969e92c8e39","epochNo":313,"epochSlotNo":100711,"slot":49953511,"time":"2022/01/07 01:43:22","addressesInput":["addr1qxu8wk9cpcapkdnx9hcph4mdk7el609kkffmuzycqfxklm29mya66n26jer5jfuz7vnepp6hucalhsjcq06ghj42tfjqwvnpq6","addr1q8hy955h0kvnamyuql8daysdvv4kut04aazl09205sy6rc69mya66n26jer5jfuz7vnepp6hucalhsjcq06ghj42tfjq65g0x6","addr1q9fcws6ufnavfyrhnl8vzrjkuq2cq6nntnvacdeqxrqqgn69mya66n26jer5jfuz7vnepp6hucalhsjcq06ghj42tfjq9j2hzf","addr1qx7m70zevrh3ulxe2uy4jpsf0e0hx2h24ytpz3m8ljwjuw29mya66n26jer5jfuz7vnepp6hucalhsjcq06ghj42tfjqm4f7l6","addr1q8dcgasv5mnp6dmd55l2dacngdg9hvmg28jkr74r9kacer29mya66n26jer5jfuz7vnepp6hucalhsjcq06ghj42tfjqgqyzh7"],"addressesOutput":["addr1qxnzaq84jcumg0h5l5yatduena0ekc22heg7sf4khqe2g3u2j59fwmge646j54r844k04jaz94z6t7x060cvn6g9mqksxmyl5u","addr1qx0txh59ea8ws8wyg423zhazah0wzkfv55730c8mnzrhh6j9mya66n26jer5jfuz7vnepp6hucalhsjcq06ghj42tfjqldnv3z","addr1q9cgs8ug30mffazlnxqg84tkqwmuhhspnkxwfev9l3gyw3z9mya66n26jer5jfuz7vnepp6hucalhsjcq06ghj42tfjqnzv4ul","addr1qy672eylul95awv0278ma9wjkjph0e03vcsjthygxy5x0r29mya66n26jer5jfuz7vnepp6hucalhsjcq06ghj42tfjqw3gcsk","addr1q9t5qgfuuv8svr0lt5v3cn7m7puv7y0qdy4we0vvnk4zak29mya66n26jer5jfuz7vnepp6hucalhsjcq06ghj42tfjqrew6u2"],"fee":1086553,"totalOutput":82134736,"tokens":[]},{"hash":"43a536d7cb77958a4fe6dbdf7daeea137f6bbcce751b4a70b443b740e945f62a","blockNo":6724817,"blockHash":"e257b32bf203a9a50cc05d78802c1ff55f958b8267902b4bacdbc2072b8a3b04","epochNo":313,"epochSlotNo":96981,"slot":49949781,"time":"2022/01/07 00:41:12","addressesInput":["addr1qyret5k82hsjrmltsg77fdgwyrxn5sz73x4ue0zg5hla26ryremssg6lgu7d6jlcqun92sefh7yzgp2umnnfyyv2gsps8jj6j2","addr1qyret5k82hsjrmltsg77fdgwyrxn5sz73x4ue0zg5hla26ryremssg6lgu7d6jlcqun92sefh7yzgp2umnnfyyv2gsps8jj6j2"],"addressesOutput":["addr1qxszz5w9zz28djal0v04e62lp2gfurhwayw04jry8ahxdrz6sd2ummj6h8ze3ay4zyzsj0jdxg43wyhgzmnyljlpmlyssqzqvu","addr1qyret5k82hsjrmltsg77fdgwyrxn5sz73x4ue0zg5hla26ryremssg6lgu7d6jlcqun92sefh7yzgp2umnnfyyv2gsps8jj6j2","addr1qyret5k82hsjrmltsg77fdgwyrxn5sz73x4ue0zg5hla26ryremssg6lgu7d6jlcqun92sefh7yzgp2umnnfyyv2gsps8jj6j2"],"fee":283729,"totalOutput":895373480,"tokens":[]},{"hash":"5a005aece781ea1f08ea2e3bfcacea6ca629e8adcc8f8dad9b18891de7c7d5ac","blockNo":6724294,"blockHash":"9c21b8447a17e24e51134e186b5a1b13883bd24f1ca8a00432566b0852685c94","epochNo":313,"epochSlotNo":85518,"slot":49938318,"time":"2022/01/06 21:30:09","addressesInput":["addr1qychxal0ys2tqa87h799zh0cqjljs0ajpgcx3trxaljxvu6dt76m58wdrdl67c0s8qlxmudajagv2kwu22s0xmm5fpvqmnp2fv"],"addressesOutput":["addr1q8xzv3v422yl83dqey7cpjwzj2e84mr3wlcnwanazjm7aj7jptvl739u4pdp7xpyu4fcvvmdgwguhdupkhghkpxx83zqh56sny","addr1q9550czcqsxla22ffuft2fdhueamfg6lun7un3ed6j8vldjdt76m58wdrdl67c0s8qlxmudajagv2kwu22s0xmm5fpvqfl3jh2"],"fee":318489,"totalOutput":74529332,"tokens":[]},{"hash":"2d53b3a64ba8fff2ec02826aafca607742a3174b014a1a3777308041e795e906","blockNo":6724254,"blockHash":"888753f2c303f441482eb8acf9254d613faaa3b7028564763df2a3d2204f4a1b","epochNo":313,"epochSlotNo":84736,"slot":49937536,"time":"2022/01/06 21:17:07","addressesInput":["addr1qx5fn7x65rnrhrx8jmxwl3j4fz6vgvaze5pva6cvdmtgwk6dt76m58wdrdl67c0s8qlxmudajagv2kwu22s0xmm5fpvqsph7a5"],"addressesOutput":["addr1q8xzv3v422yl83dqey7cpjwzj2e84mr3wlcnwanazjm7aj7jptvl739u4pdp7xpyu4fcvvmdgwguhdupkhghkpxx83zqh56sny","addr1qychxal0ys2tqa87h799zh0cqjljs0ajpgcx3trxaljxvu6dt76m58wdrdl67c0s8qlxmudajagv2kwu22s0xmm5fpvqmnp2fv"],"fee":320557,"totalOutput":76329301,"tokens":[]},{"hash":"a087da27ac8d813f4a4ad7d4b9574403245b991ef7316fd6ce0172a1d74bb77e","blockNo":6724242,"blockHash":"3c6eb7d2e028eb31765e124b6c6130951714330398ca47b5978e93a35b6a4ed3","epochNo":313,"epochSlotNo":84472,"slot":49937272,"time":"2022/01/06 21:12:43","addressesInput":["addr1q8c3sleew66sl2k72tdrf5nl52ar7fkg6cq58vzeeshu0l6dt76m58wdrdl67c0s8qlxmudajagv2kwu22s0xmm5fpvqzk8mhq"],"addressesOutput":["addr1q8xzv3v422yl83dqey7cpjwzj2e84mr3wlcnwanazjm7aj7jptvl739u4pdp7xpyu4fcvvmdgwguhdupkhghkpxx83zqh56sny","addr1qx5fn7x65rnrhrx8jmxwl3j4fz6vgvaze5pva6cvdmtgwk6dt76m58wdrdl67c0s8qlxmudajagv2kwu22s0xmm5fpvqsph7a5"],"fee":321261,"totalOutput":78131338,"tokens":[]},{"hash":"6de8923b126136c97a7662e1d946d288f2cd82312fc837cc36457fe1228afd6c","blockNo":6724227,"blockHash":"678b2f54e2004d38d8d3156e97c4e0b83cbe8cedb0f5a6e442d1538f8acb5612","epochNo":313,"epochSlotNo":84050,"slot":49936850,"time":"2022/01/06 21:05:41","addressesInput":["addr1q95klcuh3fl245f2ka3lwv34pdq5xwgsq2z242k563zyaq6dt76m58wdrdl67c0s8qlxmudajagv2kwu22s0xmm5fpvqyfcz2n"],"addressesOutput":["addr1q8xzv3v422yl83dqey7cpjwzj2e84mr3wlcnwanazjm7aj7jptvl739u4pdp7xpyu4fcvvmdgwguhdupkhghkpxx83zqh56sny","addr1q8c3sleew66sl2k72tdrf5nl52ar7fkg6cq58vzeeshu0l6dt76m58wdrdl67c0s8qlxmudajagv2kwu22s0xmm5fpvqzk8mhq"],"fee":321965,"totalOutput":79934079,"tokens":[]},{"hash":"42ee23d6538e1d058f0654f5913b35a1ad43af0d20869d984b103713357a7912","blockNo":6724209,"blockHash":"6159a149a48cf27a7cf22fd2201e82f00f5f4b6db6b2205a81b0e32f17c8795c","epochNo":313,"epochSlotNo":83676,"slot":49936476,"time":"2022/01/06 20:59:27","addressesInput":["addr1q8jlkjaeypufx7kd247usz5spah0rr2lmg9xc5v0mrtawgzdt76m58wdrdl67c0s8qlxmudajagv2kwu22s0xmm5fpvqfjqr55"],"addressesOutput":["addr1q8xzv3v422yl83dqey7cpjwzj2e84mr3wlcnwanazjm7aj7jptvl739u4pdp7xpyu4fcvvmdgwguhdupkhghkpxx83zqh56sny","addr1q95klcuh3fl245f2ka3lwv34pdq5xwgsq2z242k563zyaq6dt76m58wdrdl67c0s8qlxmudajagv2kwu22s0xmm5fpvqyfcz2n"],"fee":322537,"totalOutput":81737524,"tokens":[]},{"hash":"6da82ca4696b5f91e44ecb8f0b7b3b05f81540bbf3d744d4e31235abff1dbe7e","blockNo":6724205,"blockHash":"05fed933de6798a408025d55c63aa7c68e78c4cbef9bceb2b80aa8682b183523","epochNo":313,"epochSlotNo":83471,"slot":49936271,"time":"2022/01/06 20:56:02","addressesInput":["addr1qxv29rsr4d4pl2tm7zn8efma9jntvmptss66xr7vxh2x6k6dt76m58wdrdl67c0s8qlxmudajagv2kwu22s0xmm5fpvqhdg632"],"addressesOutput":["addr1q8xzv3v422yl83dqey7cpjwzj2e84mr3wlcnwanazjm7aj7jptvl739u4pdp7xpyu4fcvvmdgwguhdupkhghkpxx83zqh56sny","addr1q8jlkjaeypufx7kd247usz5spah0rr2lmg9xc5v0mrtawgzdt76m58wdrdl67c0s8qlxmudajagv2kwu22s0xmm5fpvqfjqr55"],"fee":324473,"totalOutput":83541541,"tokens":[]},{"hash":"462ea7e023491af0b3e3549f358699dfc6d5314d6bbd2f827af97d7131a5955e","blockNo":6724106,"blockHash":"cdd5a57a19de67238de2333ab4dd1af62824360816773525d616eeef83edb1b9","epochNo":313,"epochSlotNo":81207,"slot":49934007,"time":"2022/01/06 20:18:18","addressesInput":["addr1q8fwjtsrwcx7v4sddj5c7r5ttnerhh9wrmmfu03y4nkvee6dt76m58wdrdl67c0s8qlxmudajagv2kwu22s0xmm5fpvq33hn66"],"addressesOutput":["addr1q8xzv3v422yl83dqey7cpjwzj2e84mr3wlcnwanazjm7aj7jptvl739u4pdp7xpyu4fcvvmdgwguhdupkhghkpxx83zqh56sny","addr1qxv29rsr4d4pl2tm7zn8efma9jntvmptss66xr7vxh2x6k6dt76m58wdrdl67c0s8qlxmudajagv2kwu22s0xmm5fpvqhdg632"],"fee":325045,"totalOutput":85347494,"tokens":[]},{"hash":"057da98a2108bace1bd5bab889964c5e690461bb32af4eee742e9140a24bcd3f","blockNo":6724090,"blockHash":"caa8746a2a042e61b31b6ad33a2c07056b92c153f0ef5d5c8e91ce6b4dc916c4","epochNo":313,"epochSlotNo":80979,"slot":49933779,"time":"2022/01/06 20:14:30","addressesInput":["addr1q93l4tws9hhqe5ta6l9lncse9wff2zsgc7c73rpc8s5jyp2dt76m58wdrdl67c0s8qlxmudajagv2kwu22s0xmm5fpvqfk745j"],"addressesOutput":["addr1q8xzv3v422yl83dqey7cpjwzj2e84mr3wlcnwanazjm7aj7jptvl739u4pdp7xpyu4fcvvmdgwguhdupkhghkpxx83zqh56sny","addr1q8fwjtsrwcx7v4sddj5c7r5ttnerhh9wrmmfu03y4nkvee6dt76m58wdrdl67c0s8qlxmudajagv2kwu22s0xmm5fpvq33hn66"],"fee":325617,"totalOutput":87154019,"tokens":[]},{"hash":"5e6a024c86df3054776b6bbae4eb27a5a6c09e428a11d7d771861dffae44d865","blockNo":6724085,"blockHash":"0a3e616eecd033069fc77a7c64be6c91d44163f45c16845e290fde40e5d8e503","epochNo":313,"epochSlotNo":80840,"slot":49933640,"time":"2022/01/06 20:12:11","addressesInput":["addr1qxp39zwrmyz2wgprcct90cwqvlp9vk3sgr2v5m6ej3hsfzntntl4dt2ec43kmd3hwdpqwqfshe2kuukh3vfq5a5eeuysrzdjcp"],"addressesOutput":["addr1q92s3nj5vufq59affn0vnyn8xv9dg930zjmlyaygt6rd0rquu48yhca6l8wv6wyluc6e8ed2vv05gwqlhjmtr4rup3js36n43n","addr1qy7ax9ujwg49l09dattcnfcjyhksa62r7tzsx4gek7cwvrrtntl4dt2ec43kmd3hwdpqwqfshe2kuukh3vfq5a5eeuyshlf6jh"],"fee":286853,"totalOutput":18971923,"tokens":[]},{"hash":"f4d329234bdbcf954caef038b240ddc46958fd3db61b2b4666e91a9813dd09e1","blockNo":6724063,"blockHash":"2d7f69a7b68ac60b0c11e504970f27198d08222876dd631b567c311ff8320039","epochNo":313,"epochSlotNo":80432,"slot":49933232,"time":"2022/01/06 20:05:23","addressesInput":["addr1qxfh735wvh8wnrd6kxd665qfkdak0vk3t9s4upfqrw8n4k9y480nlnjpzpwkkgfa9cxlpq8ucxt8ns6s3r7zgm06hnns9zd8qf"],"addressesOutput":["addr1q9dy6wh242dlv7ejy9k2y2melfdd6aslm8drt207sx0rqa3thmxw639d43u3lprun4kdrqj0m9h482495jpf7slwnm5q8zzgef","addr1qxypz3musrms7ljdjjxguwrlhm6hg4plfak2myfl6h4w2f4y480nlnjpzpwkkgfa9cxlpq8ucxt8ns6s3r7zgm06hnnskkddgh"],"fee":478473,"totalOutput":368893963,"tokens":[]},{"hash":"f7a2d019c9328fa4bc3183c15fb031b19ef7835660891b1c6bd16448c276b810","blockNo":6723958,"blockHash":"9b4aaed4d0ac28c7daa6d2f415a2f605d5771a2c2b846e7e55f2661ea6af8886","epochNo":313,"epochSlotNo":77992,"slot":49930792,"time":"2022/01/06 19:24:43","addressesInput":["addr1q8mpgx6468l3h5nvguln3t46v6hl6av7dzfe62ckctmkksrtntl4dt2ec43kmd3hwdpqwqfshe2kuukh3vfq5a5eeuysv0fe2l","addr1qx39a43su0qwgz6gcrhp7qck2h4lgvqrl4tu2crhpmzc7hntntl4dt2ec43kmd3hwdpqwqfshe2kuukh3vfq5a5eeuys3lqj0l"],"addressesOutput":["addr1qxk4086y867y7gwz65eh8snpw5nakuycd8vjgnjymyhr7mpj3d7l3tvyy4yk8spjel8tpanqhy5u8cl2rww2435fjc3se3fr79","addr1qxp39zwrmyz2wgprcct90cwqvlp9vk3sgr2v5m6ej3hsfzntntl4dt2ec43kmd3hwdpqwqfshe2kuukh3vfq5a5eeuysrzdjcp","addr1qxp39zwrmyz2wgprcct90cwqvlp9vk3sgr2v5m6ej3hsfzntntl4dt2ec43kmd3hwdpqwqfshe2kuukh3vfq5a5eeuysrzdjcp"],"fee":296225,"totalOutput":95566513,"tokens":[]},{"hash":"e9f6a769bfa0393540e41f936ef204ce03fec200f06b6a9bbcf026b7f56e311a","blockNo":6723870,"blockHash":"c16d31b52a8b1545b1cf987ade0ca0d478ab33400e4330827a868e9431b1e5e7","epochNo":313,"epochSlotNo":76376,"slot":49929176,"time":"2022/01/06 18:57:47","addressesInput":["addr1qxuwca7njswr28jsd9am4ay0j869l0gjsalrdeppp4hem2rtntl4dt2ec43kmd3hwdpqwqfshe2kuukh3vfq5a5eeuysh5wl55","addr1qx39a43su0qwgz6gcrhp7qck2h4lgvqrl4tu2crhpmzc7hntntl4dt2ec43kmd3hwdpqwqfshe2kuukh3vfq5a5eeuys3lqj0l"],"addressesOutput":["addr1q88yxxucf2c9hg6rg0u8rdj4xluax5m5c4z4syar5xntpqll244la0qea8jweav7ntf8fhqpr70mty3snnxykkc874ps485kqs","addr1q8mpgx6468l3h5nvguln3t46v6hl6av7dzfe62ckctmkksrtntl4dt2ec43kmd3hwdpqwqfshe2kuukh3vfq5a5eeuysv0fe2l"],"fee":293849,"totalOutput":18944218,"tokens":[]},{"hash":"62a1c8aefbe70847806e7143ff04d0f0629337afef255abc2770a2bfe0e97e4a","blockNo":6723865,"blockHash":"a00e2e968dc8618cf835d5e8c74ddf431cb7fa4fa7a871f1ec9909cf40eba654","epochNo":313,"epochSlotNo":76278,"slot":49929078,"time":"2022/01/06 18:56:09","addressesInput":["addr1q906gawuqddurxv5tdkhxcrryqaypt462vlqp4qnuxndp9ttntl4dt2ec43kmd3hwdpqwqfshe2kuukh3vfq5a5eeuys98zhca","addr1q9j30ujy7pesdnd68m7uhqu6wp5dzfugjsqdfjj833d8kfrtntl4dt2ec43kmd3hwdpqwqfshe2kuukh3vfq5a5eeuyskufvht"],"addressesOutput":["addr1qxmsn7ewzq6t60x8q76lf4xvtuaxrrzpa6h20apz9fua32td58wxn0uv80xjp5eu6fjvtx27lsl9wd069rf9zmkv7gvsvvqezz","addr1qx39a43su0qwgz6gcrhp7qck2h4lgvqrl4tu2crhpmzc7hntntl4dt2ec43kmd3hwdpqwqfshe2kuukh3vfq5a5eeuys3lqj0l"],"fee":291913,"totalOutput":19200990,"tokens":[]}],"totalItems":9523,"totalPages":477,"currentPage":0}