{"data":[{"txId":57091767,"txHash":"e17b745f19800af260c725c4c11c3f8d60d16868ac6ec9411150f9f1f6611192","txTime":"2022/12/11 15:32:19","block":8126487,"epoch":380,"slotNo":79206448,"epochSlotNo":409648,"stakeKey":"stake1uydxmzaqesw8mr9rf36u95zj4wtj38c5dmg6zhdxgyz597g0ywmtn"},{"txId":57091694,"txHash":"2c21a4e17935c728772d5d8f2a0f67256ff203165da9329e92dff92cc861a858","txTime":"2022/12/11 15:30:43","block":8126482,"epoch":380,"slotNo":79206352,"epochSlotNo":409552,"stakeKey":"stake1u9kgfwearzt4sn2jn0x5s33yp2hjhryhpcr6rpzt2rp95rg59d704"},{"txId":57091640,"txHash":"1f3707221d4c5a27bc5213ed69b52d2fd133b565ab5d579c93557ad56e61455f","txTime":"2022/12/11 15:30:09","block":8126478,"epoch":380,"slotNo":79206318,"epochSlotNo":409518,"stakeKey":"stake1u973j0stztnphf58dx60cxhaye92m37wpgse0sx99ajc7fcpl579w"},{"txId":57091528,"txHash":"4257f433daf24d53fa74cf45e2e174474f0e3789a984a9d577e29583022d3052","txTime":"2022/12/11 15:28:26","block":8126471,"epoch":380,"slotNo":79206215,"epochSlotNo":409415,"stakeKey":"stake1uxc7tdqslhukk5v4a7ha4hyqyh8m52y6ymmpz7gddfyvp6sa3j0gl"},{"txId":57091330,"txHash":"e0c24049663c70c44c0d1af7fd7a836e73c9b4eb9b0bcd13e9437f8661c03175","txTime":"2022/12/11 15:23:25","block":8126462,"epoch":380,"slotNo":79205914,"epochSlotNo":409114,"stakeKey":"stake1uypewhkp99ea2sjmg9znyfaqqcvcx9e43zf564uh7vadzzgfhj629"},{"txId":57091313,"txHash":"f6fb34cec251da314584f1ec0b36f71466e3b863d89ca57d328c4021614782c2","txTime":"2022/12/11 15:22:51","block":8126460,"epoch":380,"slotNo":79205880,"epochSlotNo":409080,"stakeKey":"stake1uyvgju0djrl03jy5f2k7n77w5jmevf5tapcp5fl9f2ju5kc3t3v09"},{"txId":57091265,"txHash":"f4ccc67b459e89a4e39c29db3e18abb1b7724a3ff30c18491603e8ff6dcf86b3","txTime":"2022/12/11 15:22:17","block":8126459,"epoch":380,"slotNo":79205846,"epochSlotNo":409046,"stakeKey":"stake1uyrkvnre0xjw84xhwhtljz0gc0xqgfat7hvaet58gllh3qgup8w2r"},{"txId":57091151,"txHash":"e68bea26bac7d909fef2c9918ecfccb36abc58dc22454aec8cc3d216a6b033a2","txTime":"2022/12/11 15:19:56","block":8126454,"epoch":380,"slotNo":79205705,"epochSlotNo":408905,"stakeKey":"stake1ux858rfyv9mcm76349l2memyr4urg3w8x0w3kngpr03xlgcqvlp5y"},{"txId":57090972,"txHash":"83cdad889e49cc7f2354a1c49fbce6ea069ebc4a459b67581ed1f39c5853e67d","txTime":"2022/12/11 15:17:08","block":8126447,"epoch":380,"slotNo":79205537,"epochSlotNo":408737,"stakeKey":"stake1u96dkemu87v7tdfqx0tnph2cqq6q4yzvqdn80vp7jgul32swe9zge"},{"txId":57090785,"txHash":"10982d5e52647cbd6c7ab429ab16d953651836bf13ccbd1eedecf4cb9b04ed2a","txTime":"2022/12/11 15:12:15","block":8126436,"epoch":380,"slotNo":79205244,"epochSlotNo":408444,"stakeKey":"stake1u8wkg0mfsqw9f85qwpf0l5dm79hqasjhgu9pncqpf34py6g4cmf5u"},{"txId":57090768,"txHash":"673a8727c9f523ab427138a69b3e2f1a3a3422a74f55c060a59df92399fcb4be","txTime":"2022/12/11 15:12:15","block":8126436,"epoch":380,"slotNo":79205244,"epochSlotNo":408444,"stakeKey":"stake1u888x7pva9uhjdqu9dy27wyjxxzzpev8ewr5l3htahuunqqnn7hxg"},{"txId":57090602,"txHash":"8acbbe3742e4989a03c19ffb1d532c2bcf5f2fc1406583dbf9448883e5059a68","txTime":"2022/12/11 15:09:05","block":8126429,"epoch":380,"slotNo":79205054,"epochSlotNo":408254,"stakeKey":"stake1u8ga8a557tfdgs0kjczuupkcm5j9f4z4pzp9xvme4ntdkfqmuncz8"},{"txId":57090570,"txHash":"9c9afa935a4c122ee8a5a138aebab29f7e1f5a652b924be522935550d828633f","txTime":"2022/12/11 15:08:12","block":8126426,"epoch":380,"slotNo":79205001,"epochSlotNo":408201,"stakeKey":"stake1u8rjhynavcfvw9ee5yermkx7392px03fe88ufng8ppts0jctma5un"},{"txId":57090494,"txHash":"e7f5f7b7ea838c6002f2addb383fa06fddda515ce4ef4b8d4d361f12255172b5","txTime":"2022/12/11 15:06:41","block":8126423,"epoch":380,"slotNo":79204910,"epochSlotNo":408110,"stakeKey":"stake1uxessjlrjeus4hquu0pfqfjlr9a4pyd8yxhclqv5nsg4lagp9d4yn"},{"txId":57090216,"txHash":"bc2f424a034067de442f0b116c890b7c4d981734d2438102a158dd022657ba64","txTime":"2022/12/11 15:00:51","block":8126408,"epoch":380,"slotNo":79204560,"epochSlotNo":407760,"stakeKey":"stake1u9uppznzvus9rf4k3nea34lakzz5efw3jz48kpw92najrnc6ucn46"},{"txId":57090144,"txHash":"44a9cb92af2e6f6e2b8bb3d745a012c55288289fa038f651539ea04b9b2bd376","txTime":"2022/12/11 14:58:55","block":8126404,"epoch":380,"slotNo":79204444,"epochSlotNo":407644,"stakeKey":"stake1uyrg68j6t36k7e30pyfmm5z2n00vh3e48g3ecpnnwcfvtqgu05n3h"},{"txId":57089982,"txHash":"e79ea20e423e5375eccb1c16f24efc218c8a83c9e7fa716bfec751f261c2f332","txTime":"2022/12/11 14:55:43","block":8126398,"epoch":380,"slotNo":79204252,"epochSlotNo":407452,"stakeKey":"stake1u9g3ud0d3zthw6q8gwqkwzqhwzq7enjgwvua73quzmqa9ngdfr06w"},{"txId":57089960,"txHash":"2efab29a5a89d0a4367ed16806ec4a080a7b3ee8f1158a87445abd7b57a12954","txTime":"2022/12/11 14:55:43","block":8126398,"epoch":380,"slotNo":79204252,"epochSlotNo":407452,"stakeKey":"stake1u90ncwp5zagxa56muhu5kw5a6z7zfhkvsunkfdygcx6yfgqjj73ru"},{"txId":57089711,"txHash":"4052fe40365cb0f6e7353a4f93de06592620a8c76d679b4f5b5c8d6a80b86a6d","txTime":"2022/12/11 14:50:12","block":8126383,"epoch":380,"slotNo":79203921,"epochSlotNo":407121,"stakeKey":"stake1u8atpjg88apcjtvtelxm6g497zcsmpy0kdh80xf9ry3f6sseax53g"},{"txId":57089581,"txHash":"36a4f7391b49e807edea01f9ec29e0fcd5f8ca11c92813321370d4018c1b6f1c","txTime":"2022/12/11 14:46:59","block":8126378,"epoch":380,"slotNo":79203728,"epochSlotNo":406928,"stakeKey":"stake1u83j2jc9cnepm538dyyahc30tr72xlsm8efn74p2gndh8nqu0m8tv"}],"totalItems":1619194,"totalPages":80960,"currentPage":0}