{"data":[{"txId":63922430,"txHash":"7b17cfbb8ea0b999fa0a5febe546d4736215716e94530ba04e13efd04d3a0496","txTime":"2023/03/18 06:50:24","block":8531928,"epoch":400,"slotNo":87555933,"epochSlotNo":119133,"stakeKey":"stake1ux4fq77xln9xx254gqdymh5tyxsjzs4p5ae8cm55a5y3wvc7wkk20"},{"txId":63922325,"txHash":"03409cd0a8a31cb95d90dd4c448442c889d0b794950171504a14b7c643515572","txTime":"2023/03/18 06:46:44","block":8531916,"epoch":400,"slotNo":87555713,"epochSlotNo":118913,"stakeKey":"stake1uxqnjcc2wsd70cgsshavu5lt3paw49ne357uy7h4wpu3qzg8g9n8q"},{"txId":63922239,"txHash":"16f7beb1e09565b4fe6385b811e7ad2895e7be572719ab57afc9db8c1aa32503","txTime":"2023/03/18 06:42:46","block":8531910,"epoch":400,"slotNo":87555475,"epochSlotNo":118675,"stakeKey":"stake1uxge7ypk62tmsm92py496kyagnynme3geplqmy2y0vtupuqxkfp8d"},{"txId":63922189,"txHash":"f38caf17abcb0e3efa94e3a758765ae665d4fac3784d169d7c67d35785d66fd5","txTime":"2023/03/18 06:41:07","block":8531905,"epoch":400,"slotNo":87555376,"epochSlotNo":118576,"stakeKey":"stake1u9jlvvpwpxmqw33qa4pt7t2c6kw0fa56q29gfzhage32euqdm4mru"},{"txId":63922103,"txHash":"393ad69e29e7f215c62d3728ee3680b312179735eb622b4c7252f3f6bb199ba7","txTime":"2023/03/18 06:37:46","block":8531894,"epoch":400,"slotNo":87555175,"epochSlotNo":118375,"stakeKey":"stake1uy9zsxgq72ucvysqpmm3jur0wnvfa8ejrlrkj9y43uxjf3cx240xm"},{"txId":63921886,"txHash":"7fa63ab9364219caa11e9ed2cc67bea93f96c4d48daa85f9a324dbeff986ef0e","txTime":"2023/03/18 06:30:19","block":8531869,"epoch":400,"slotNo":87554728,"epochSlotNo":117928,"stakeKey":"stake1uxwml05ujv5xc6pj6ldkfnynwzeuesrs8p6jpjuwd6wwn8gjj3uzf"},{"txId":63921808,"txHash":"68ca60215f84a06161f6b8fba2de374dab7d381f02729e963beb3be1f268ed09","txTime":"2023/03/18 06:27:57","block":8531863,"epoch":400,"slotNo":87554586,"epochSlotNo":117786,"stakeKey":"stake1u8s7urua7j8qjpsmwqt24ytaun7z0grar46gwrz2u3jwvdcxpngvg"},{"txId":63921695,"txHash":"e56743739c2b42cec3a2e71da07e8bc73f0fc4ce6da8c5788277d5483b48c935","txTime":"2023/03/18 06:24:39","block":8531849,"epoch":400,"slotNo":87554388,"epochSlotNo":117588,"stakeKey":"stake1uxrkjwcnkh8kneru6dlm4zuz8udqnc62m4fzqt4hav290rq9um6e9"},{"txId":63921688,"txHash":"1b0f618a211650550599972171b44c4979dec642467cf189158b895778e25a85","txTime":"2023/03/18 06:24:39","block":8531849,"epoch":400,"slotNo":87554388,"epochSlotNo":117588,"stakeKey":"stake1uyx3h0m4c639qy9qg7ay0lllhfkq3etves253gcs855vhwqkrejar"},{"txId":63921682,"txHash":"d1679293de0b0d3dd2b659cec5a5a038e71579ad55e552cf17a6ebe71889ac05","txTime":"2023/03/18 06:24:26","block":8531848,"epoch":400,"slotNo":87554375,"epochSlotNo":117575,"stakeKey":"stake1u845a7n6nkpypvean38rj66rtj3j50q9lz2ujcn8875lxgqzs6q4f"},{"txId":63921680,"txHash":"efd50459bd5c85aa81714568b45a789c0419cb2c82138d2c4271c4fa7f62f318","txTime":"2023/03/18 06:24:26","block":8531848,"epoch":400,"slotNo":87554375,"epochSlotNo":117575,"stakeKey":"stake1uy23z4zkxukw0qwd9jfdx9lun9l44uxphljr0v3xzh37cvggn9wqr"},{"txId":63921679,"txHash":"92634196701e993f26f422481b8efb35002792316a4f17b178a9b256941514f8","txTime":"2023/03/18 06:24:26","block":8531848,"epoch":400,"slotNo":87554375,"epochSlotNo":117575,"stakeKey":"stake1ux7wvpxarp0gc9ycj238wvf0jpt0avyrmxjhtqxguug0slgaujvhp"},{"txId":63921675,"txHash":"9f8821f33927b98c9b0f3c4e67658e4b2e78eb9f65b8780fa6792dca61d4665e","txTime":"2023/03/18 06:24:26","block":8531848,"epoch":400,"slotNo":87554375,"epochSlotNo":117575,"stakeKey":"stake1u8a0gqfapzjuexazhjgv6xy5m4y8d2smdee2x56q782cresqnt04g"},{"txId":63921672,"txHash":"9072c9359aa851f9c0f2f5e25d4ad88dd1d054e4616a4deaf72ab8d5e668deb5","txTime":"2023/03/18 06:24:26","block":8531848,"epoch":400,"slotNo":87554375,"epochSlotNo":117575,"stakeKey":"stake1uxxjuunq6kv8mw2s9y9w5f84d8csvyu9wd3069neqhd4c4sj6zn2e"},{"txId":63921669,"txHash":"39b853f4735934f98c998ba8c2bc05f8d181684a1e2e8fa133048379ab3d790d","txTime":"2023/03/18 06:24:26","block":8531848,"epoch":400,"slotNo":87554375,"epochSlotNo":117575,"stakeKey":"stake1u8hsmtvt0qzpurdpeafrmpxjk5tzmu700x6uclfq53fhyjquwhc6x"},{"txId":63921658,"txHash":"9a3c02610fa4032ae360e1cd26af2657a37aaae753e5fdf7c0d3c25009ca86f4","txTime":"2023/03/18 06:24:26","block":8531848,"epoch":400,"slotNo":87554375,"epochSlotNo":117575,"stakeKey":"stake1u9xudasrkjcr4qlt90yjfjcmrt3t7vrtgv2tmn6xm3ms6vs9g3lj8"},{"txId":63921656,"txHash":"a80db800748e2d42e1d1f8f03589ea0044884be4c57ae1a079806008f045aee2","txTime":"2023/03/18 06:24:26","block":8531848,"epoch":400,"slotNo":87554375,"epochSlotNo":117575,"stakeKey":"stake1u8xhd0yxkklj36xphm4w74s8tx426hde5lxuqz0tgc39akgqk3q69"},{"txId":63921444,"txHash":"c5497c1e3907de92f66d30dbeb2c936d218eb2de8ebeb01f6ceb90313956b73f","txTime":"2023/03/18 06:16:38","block":8531828,"epoch":400,"slotNo":87553907,"epochSlotNo":117107,"stakeKey":"stake1u8a46l5ptjndra33chpfwpg7kpacqgme2jdduqppj7vl7aqswwume"},{"txId":63921348,"txHash":"b93ace966ca494c2e46e21c130046d3d1b97506124cb5fc70c5d7a92ed2a6a53","txTime":"2023/03/18 06:13:46","block":8531819,"epoch":400,"slotNo":87553735,"epochSlotNo":116935,"stakeKey":"stake1u8yu48txfyxg9xy5kf47twt5mu63ulzyerl460zq6desxxqa0u54s"},{"txId":63921227,"txHash":"6072272333b4a5526a8ffffa8dc08051ef4e028bb9c38aa63fddb66112caf124","txTime":"2023/03/18 06:09:44","block":8531804,"epoch":400,"slotNo":87553493,"epochSlotNo":116693,"stakeKey":"stake1uyut266qyre5cg9qv2l23f48htvp96jan0cdrsuad3fgnhqpdvxqs"}],"totalItems":1681661,"totalPages":84084,"currentPage":0}