{"data":[{"blockNo":6861407,"slotNo":52852840,"epochNo":319,"epochSlotNo":408040,"hash":"bed794d9e3140101ada64cae2039be62990224b461f5289ff88a516a34f873b1","time":"2022/02/09 15:05:31","txCount":23,"totalFees":10664333,"totalOutput":28834674238,"slotLeader":"b6e038fb50202dfe5ccc61ecae9b8803bdc9cb7fb3ae9348cb97b0ef"},{"blockNo":6861406,"slotNo":52852807,"epochNo":319,"epochSlotNo":408007,"hash":"d1169e28a5200ae8873e467d5a486f1aefc595391234ea242cb4a70cc2195f04","time":"2022/02/09 15:04:58","txCount":27,"totalFees":11555023,"totalOutput":81774173320,"slotLeader":"83ea16a7f183288173077c54a1e2b3cbcd0f2336e1bc85e2cc6397e0"},{"blockNo":6861405,"slotNo":52852787,"epochNo":319,"epochSlotNo":407987,"hash":"ec95e822647a882947dddc75d3f539734e61dd7da01d337e23519d2a549d2c1c","time":"2022/02/09 15:04:38","txCount":31,"totalFees":12344952,"totalOutput":460043878946,"slotLeader":"0d25da9f80c78329f00c773d846e01618b1380334d440dbccab3e68b"},{"blockNo":6861404,"slotNo":52852781,"epochNo":319,"epochSlotNo":407981,"hash":"c8b468f4fc717c288eae4a344d5a58644d065d4164da12b1f214baad8f37dcd5","time":"2022/02/09 15:04:32","txCount":61,"totalFees":18012766,"totalOutput":564314115715,"slotLeader":"39580d748f45b855d81852e334cad199cfbdaa281ed3d81e8a90f8ed"},{"blockNo":6861403,"slotNo":52852777,"epochNo":319,"epochSlotNo":407977,"hash":"a22924bda5dc993e3f85e592687f8bef1093ce75160dde632d10f0b404b888f9","time":"2022/02/09 15:04:28","txCount":14,"totalFees":8003385,"totalOutput":9901224917,"slotLeader":"09612bc8cf646ded39886839e962d050fb53b81fbe3487eed973554b"},{"blockNo":6861402,"slotNo":52852752,"epochNo":319,"epochSlotNo":407952,"hash":"849d9b603a95ed394fb7946bdddc6cfb2f6506c3bb1aba0e9d2e32c220810149","time":"2022/02/09 15:04:03","txCount":39,"totalFees":13807287,"totalOutput":75037346227,"slotLeader":"e5c947f0a4f6a6dd0946d8971dafaf263c88a1b086527fdf24223c21"},{"blockNo":6861401,"slotNo":52852749,"epochNo":319,"epochSlotNo":407949,"hash":"e0001a7645ec86cfd437708f56399b0ecd4535e59c20a72830f5d07fa5f8c618","time":"2022/02/09 15:04:00","txCount":25,"totalFees":10640127,"totalOutput":10023291972,"slotLeader":"2313599837d144bdbd6897a3cdecc0ad2c995f38275aad6626c29ef5"},{"blockNo":6861400,"slotNo":52852740,"epochNo":319,"epochSlotNo":407940,"hash":"709b0520b93be4809f11e5ca502f90476e75cd41b352f040e006c73bb9246ccd","time":"2022/02/09 15:03:51","txCount":25,"totalFees":10461675,"totalOutput":749226152824,"slotLeader":"40e81ed617140994bab5a00619d0269f0dd3af9963e40e09f5ee1a6d"},{"blockNo":6861399,"slotNo":52852693,"epochNo":319,"epochSlotNo":407893,"hash":"fd20c51afbb628f8be405811a5d131d80894ba19f8a89efed710c0b6be12a798","time":"2022/02/09 15:03:04","txCount":16,"totalFees":9484430,"totalOutput":13788259816,"slotLeader":"3c68076a8b81226f6d7da352dda415db00299701624b6cf71d7cc086"},{"blockNo":6861398,"slotNo":52852688,"epochNo":319,"epochSlotNo":407888,"hash":"746e0210b75fb9c922ad895057060d63a0b5e4a7580c1bbe2473f66ccbaea6f3","time":"2022/02/09 15:02:59","txCount":16,"totalFees":8517224,"totalOutput":4741444423,"slotLeader":"639288b5e4bf267ece78e9a4941dd794f50ec54785f84c687b4ab086"}],"totalItems":19309,"totalPages":1931,"currentPage":0}