{"data":[{"txId":53202908,"txHash":"25a33e7fe1f02fc8be1b64662456f412303cebc79225452d6b1ee6a0a46ac5ed","txTime":"2022/10/24 11:14:11","block":7924583,"epoch":371,"slotNo":75043760,"epochSlotNo":134960,"stakeKey":"stake1u939xswfvrm255l2f2qa2fss77cvupa38dzzy5zqq6ng7ts67d3an"},{"txId":53202795,"txHash":"172988040fefe84d86bce62a347b0d95138adaec5bc1c2972d027302b58fc89d","txTime":"2022/10/24 11:11:33","block":7924576,"epoch":371,"slotNo":75043602,"epochSlotNo":134802,"stakeKey":"stake1uxwkvsk7vlc9k7mw9dzjm353fyyep2564p37j8nzp6848gq8u7qcm"},{"txId":53202491,"txHash":"dce3d9d93bf506f3dbef8443773fd8cd89084e090eb3e48b550cf34320232284","txTime":"2022/10/24 11:06:44","block":7924555,"epoch":371,"slotNo":75043313,"epochSlotNo":134513,"stakeKey":"stake1ux5uchhceu0uq5d4a8fwegqkuz9kctmlxepmjqfczuhuzqgfueajr"},{"txId":53202038,"txHash":"66598859a0c95211b2a365582e73b8ae85e0dfdf2ed3dfa8e1fba3722b7d34e2","txTime":"2022/10/24 10:57:51","block":7924524,"epoch":371,"slotNo":75042780,"epochSlotNo":133980,"stakeKey":"stake1uxl2ssxnfgrtry2ujm86a0j7nncyuctcd33natmyulhv8rg9lflp3"},{"txId":53201789,"txHash":"6d1896042a0dba99c29dac2788d475ef3e2cff98f64ef5a741962c15358fa76a","txTime":"2022/10/24 10:52:36","block":7924509,"epoch":371,"slotNo":75042465,"epochSlotNo":133665,"stakeKey":"stake1uxkstukfdpg64x48q0mqnqpyfdddfx8cptzq5j7ax69uysc6jz8pn"},{"txId":53201657,"txHash":"5a2df219cd461d63c7672cefc1ed37814ed2d0ed4a5ab133982ba63cd30c4cbf","txTime":"2022/10/24 10:50:15","block":7924503,"epoch":371,"slotNo":75042324,"epochSlotNo":133524,"stakeKey":"stake1u9606mgj8vj9ee8zqgvqvegvdr845aeupkrj92cs5dh5v9qd0l3eq"},{"txId":53201198,"txHash":"f5a55592c128174b10c5c1687de564aaa37d21a3804944a82a0acff500ed0a85","txTime":"2022/10/24 10:42:19","block":7924481,"epoch":371,"slotNo":75041848,"epochSlotNo":133048,"stakeKey":"stake1u93mam8r7n9s0yvz4sa9u0t2z99jc7xm20djfeprwyy7jyq8h6muj"},{"txId":53201063,"txHash":"9269b51c470b5ea3ef0682b0798a2c89813f8bc84fd9d5ba56916af8e99190bd","txTime":"2022/10/24 10:39:31","block":7924477,"epoch":371,"slotNo":75041680,"epochSlotNo":132880,"stakeKey":"stake1u9nrdgnqukanhl4t64kszrwsqasn02jq86ad7qj6p66f48glrse5n"},{"txId":53200918,"txHash":"774b3e2281c22bba49087274b3231f4cfe138093c7be694ef02f03b1cc877d63","txTime":"2022/10/24 10:36:49","block":7924474,"epoch":371,"slotNo":75041518,"epochSlotNo":132718,"stakeKey":"stake1u8s804duwu902cexwgsjum430k9lcwfgecj7h676z68ga3q8va26x"},{"txId":53200546,"txHash":"ee91f97c14372c555ab376ca8412da635ea532b6ba0cfb310b5d51c66ed9e87f","txTime":"2022/10/24 10:27:57","block":7924458,"epoch":371,"slotNo":75040986,"epochSlotNo":132186,"stakeKey":"stake1uxgqvg0dgy0kkjegyad55jldwtyk295en3fg0dzhlv7hthcazxvse"},{"txId":53200507,"txHash":"c4d50c96d8becc7550d1b0fd2f72081a8c75a318c370d412f4fd6ee8df2d2ebc","txTime":"2022/10/24 10:26:59","block":7924455,"epoch":371,"slotNo":75040928,"epochSlotNo":132128,"stakeKey":"stake1u8903h5dfdpzkre429nuk437a6dy6w5kpt0n07wqpqzwjgcd9uhx6"},{"txId":53200022,"txHash":"fdfb43a69ea2422061f6255ae25e39b6e3290ac356e25599f3d7748efe995fd2","txTime":"2022/10/24 10:17:15","block":7924425,"epoch":371,"slotNo":75040344,"epochSlotNo":131544,"stakeKey":"stake1ux97ta50u3p0muzn82uw3lx4wtgyphszysn6ev92axagwrcmflh2t"},{"txId":53199623,"txHash":"2106dc5e556ca696f6c9dc442dfface248400184376d5ed20b3da6eca648813d","txTime":"2022/10/24 10:09:02","block":7924404,"epoch":371,"slotNo":75039851,"epochSlotNo":131051,"stakeKey":"stake1u83v39jevc5nw6cycyx67tvu4prfkwk70axgm674pn03n2g4nduym"},{"txId":53199423,"txHash":"8d2d45b94e506bccd1ec7e1e651c0ec200322fea44d97117cb449d8893936752","txTime":"2022/10/24 10:05:08","block":7924392,"epoch":371,"slotNo":75039617,"epochSlotNo":130817,"stakeKey":"stake1ux85k04tkwzechjs08jqcry8lg0fzqnls500pyvjf9x66hga023jh"},{"txId":53199323,"txHash":"237e0796a363459b475b9632079ed49a0b7642a161cba15449908ee1150e1d5f","txTime":"2022/10/24 10:02:59","block":7924383,"epoch":371,"slotNo":75039488,"epochSlotNo":130688,"stakeKey":"stake1ux0e69uej4x5pk4k53qythfemtj7v5dc8q0s94pzzv5vmmcwctaaw"},{"txId":53199271,"txHash":"b849f8d679a5abaf7095bcc66b0f8c9e91753145218341acc61d765189e28c98","txTime":"2022/10/24 10:02:14","block":7924382,"epoch":371,"slotNo":75039443,"epochSlotNo":130643,"stakeKey":"stake1u8wym9wt3n704tklpj8qpcfwl74glw2mx2lfqjqa0j79w0cfv4v55"},{"txId":53199122,"txHash":"165c23967ede49824a544171f568fad910286842cfe1997097e9082955b7ddd8","txTime":"2022/10/24 09:58:47","block":7924369,"epoch":371,"slotNo":75039236,"epochSlotNo":130436,"stakeKey":"stake1u8tcasmqnlfn3dg7j7anxwx2wa0rftgehzwphr0e6x8q39cpfsagr"},{"txId":53198730,"txHash":"fde1fd328ba342cfd90c9d28ab06dcd9e51553d77068b60962ed84333e516005","txTime":"2022/10/24 09:51:32","block":7924339,"epoch":371,"slotNo":75038801,"epochSlotNo":130001,"stakeKey":"stake1uxhh4dx0xe7hc64h0wxfvekzkvqkzgjr7h9afc9fqq7ckks57mw2v"},{"txId":53198586,"txHash":"dcab1b369322cae18b8cadab294e1675d86ae9395f01c27e780257b3583fe814","txTime":"2022/10/24 09:48:55","block":7924329,"epoch":371,"slotNo":75038644,"epochSlotNo":129844,"stakeKey":"stake1uyr57jc5m5hdkdfvtz3jaj2wp40fhkrnm8nagvkwl63qtsqrfqcen"},{"txId":53198560,"txHash":"511842296ff2a7834d9c6edbc51aacfbb28ff83f3927c8f9398f95f847ea2d54","txTime":"2022/10/24 09:48:28","block":7924327,"epoch":371,"slotNo":75038617,"epochSlotNo":129817,"stakeKey":"stake1ux30r9endkm2egllpvzwwjdq3shwtcvghalvqj39ccs33fcupx2yf"}],"totalItems":1590456,"totalPages":79523,"currentPage":0}