{"data":[{"blockNo":8117475,"slotNo":79023155,"epochNo":380,"epochSlotNo":226355,"hash":"8fdb7d7aae0ac2635da4a73c222906bbbee21885c13dfefc5b1ce249deeacba5","time":"2022/12/09 12:37:26","txCount":1,"totalFees":171221,"totalOutput":9556997534,"slotLeader":"2382bac66b58a4df1cf1775285529bbbefb9102ecea991e1da0aa064"},{"blockNo":8117474,"slotNo":79023152,"epochNo":380,"epochSlotNo":226352,"hash":"163b09a7377fd2a0c2e646e46de3423a51b0cc985afe6901ecce240c57af534a","time":"2022/12/09 12:37:23","txCount":10,"totalFees":3078247,"totalOutput":8394519581,"slotLeader":"849cdde779a0a0faaa4276dac342f762bd6c84d6cbf637a92a20bb88"},{"blockNo":8117473,"slotNo":79023135,"epochNo":380,"epochSlotNo":226335,"hash":"e131b76eb7752cac10114580badc01fdbb6cb60a7ad5f2ed9396bb7fd92a671d","time":"2022/12/09 12:37:06","txCount":14,"totalFees":4721989,"totalOutput":1162718533920,"slotLeader":"c01546efeba17d531d60447356fc4c19b29c632aeac3377d21f75b4e"},{"blockNo":8117472,"slotNo":79023113,"epochNo":380,"epochSlotNo":226313,"hash":"80d171d8f63daef4f8d5e3dc5f804393568f53a3edd32045a5bf01ff052f1583","time":"2022/12/09 12:36:44","txCount":6,"totalFees":2250667,"totalOutput":33628731760719,"slotLeader":"e0bfd78fd14b0336186ff6ca79a45f3619102b5bb484f7e0124dfdc0"},{"blockNo":8117471,"slotNo":79023099,"epochNo":380,"epochSlotNo":226299,"hash":"9950a4f06b293a86d513d9f1ae43696e4d7bf15b5f84fdcb45f1abfbe4744a4d","time":"2022/12/09 12:36:30","txCount":9,"totalFees":2828873,"totalOutput":37350841356,"slotLeader":"936316c217c6f217640ed8d132cb0ff8133eef73e74e4c28002b9eb3"},{"blockNo":8117470,"slotNo":79023081,"epochNo":380,"epochSlotNo":226281,"hash":"f116bf04d3b2245b2514bb05c74f84bac9940231284d1800bcdcca4c75743acf","time":"2022/12/09 12:36:12","txCount":13,"totalFees":4877439,"totalOutput":17898704756419,"slotLeader":"093281f3d46eaa6422b2b9e257d67059d303805adb166073ab656a3b"},{"blockNo":8117469,"slotNo":79023065,"epochNo":380,"epochSlotNo":226265,"hash":"59bcc0b3e2139e0dceda6be3c3958af4f2f73c7c5df52b8a885011427bb3c913","time":"2022/12/09 12:35:56","txCount":0,"totalFees":0,"totalOutput":0,"slotLeader":"237795878bfa5352cca325012e073b344ce337a1dd752cd3d5ea4cdc"},{"blockNo":8117468,"slotNo":79023064,"epochNo":380,"epochSlotNo":226264,"hash":"2430d1767d31ea928876e878cae4d7ecc798fcd070c043f0e45b76a8319732c7","time":"2022/12/09 12:35:55","txCount":13,"totalFees":3410278,"totalOutput":261736409074,"slotLeader":"96cd4a3a846cad3a99b43a3632990ba2eba9a2153f736f78ab2ab3e1"},{"blockNo":8117467,"slotNo":79023034,"epochNo":380,"epochSlotNo":226234,"hash":"874e11ba1d03ca78f821827ad0f6680a8664fde48569b7e1374fc60075b678b9","time":"2022/12/09 12:35:25","txCount":7,"totalFees":3299294,"totalOutput":2273872126,"slotLeader":"fa67f324c67325d6e60616eb8f20688473f979ec4b66193a5b43f898"},{"blockNo":8117466,"slotNo":79023018,"epochNo":380,"epochSlotNo":226218,"hash":"0c46d90761de28892ca8857c7d3a16a7512f33fc03e44292b04896e7d5ae7b93","time":"2022/12/09 12:35:09","txCount":13,"totalFees":3569643,"totalOutput":17564246165,"slotLeader":"a2d42d873250321acca2d7cc7a5465f9060892bdbb645b4dedb28125"}],"totalItems":11152,"totalPages":1116,"currentPage":0}