{"data":[{"blockNo":8146905,"slotNo":79626605,"epochNo":381,"epochSlotNo":397805,"hash":"97aa027554f43c222c11e15642f2dded56515a9d55b2f60a5ad9070750be7550","time":"2022/12/16 12:14:56","txCount":13,"totalFees":4491522,"totalOutput":86277937429,"slotLeader":"3116c834a09b0060aef7284f63d3275456364e3309b3c19ec328af60"},{"blockNo":8146904,"slotNo":79626587,"epochNo":381,"epochSlotNo":397787,"hash":"e1f0c934fb9ac63bd832a280489e997429e3cc596d53118e681390f58ac9bf4f","time":"2022/12/16 12:14:38","txCount":7,"totalFees":2751161,"totalOutput":984505558,"slotLeader":"2dc733ef313c5c5ead9b93b96918106b067e343b21bbc2d3576e2913"},{"blockNo":8146903,"slotNo":79626575,"epochNo":381,"epochSlotNo":397775,"hash":"1373a982a1a1ebd20d23aaddc9315e5aded14e912b6efb0e9f728cb2cbb61e9b","time":"2022/12/16 12:14:26","txCount":23,"totalFees":6043735,"totalOutput":8178276613633,"slotLeader":"41c8a40ab0b78d727655d165f946722728dfb01df2fcc2e148b3c98d"},{"blockNo":8146902,"slotNo":79626532,"epochNo":381,"epochSlotNo":397732,"hash":"94917728677e1949f8128daacc026ed0aa235c970a42acf24b8f3538e655f38f","time":"2022/12/16 12:13:43","txCount":8,"totalFees":2373518,"totalOutput":35226018110,"slotLeader":"163cc36624d9332f6ae7770e8df8b8bad7e71711eb6c2ed7971c99d4"},{"blockNo":8146901,"slotNo":79626521,"epochNo":381,"epochSlotNo":397721,"hash":"9a028ea5b7670a1115cecd991c54006a5bc4362e0473f92bcdbaa66fdb86d641","time":"2022/12/16 12:13:32","txCount":1,"totalFees":263558,"totalOutput":10390988,"slotLeader":"0840d05089b5bff1e24fe57c1ed905cd6fda68e1147a5b5863d39562"},{"blockNo":8146900,"slotNo":79626519,"epochNo":381,"epochSlotNo":397719,"hash":"5f52941cbc54b7f58cb53c6681af3ea8716fa67b0bc7bee0f7e4a3441f1e3032","time":"2022/12/16 12:13:30","txCount":4,"totalFees":1374934,"totalOutput":9668849440,"slotLeader":"4a78ca15af1b42f94106e94d419c2cdf72667389cf2b1b04df8f140e"},{"blockNo":8146899,"slotNo":79626511,"epochNo":381,"epochSlotNo":397711,"hash":"fce56a60d5f6ae455db31884ffcf1028e9f5a0c42c70d2a2a357dea37fac7fbe","time":"2022/12/16 12:13:22","txCount":10,"totalFees":4705054,"totalOutput":3153661812556,"slotLeader":"8c289ee3b1b591a95c18ffce66957d1f07115afdf939c2a9b441fc22"},{"blockNo":8146898,"slotNo":79626494,"epochNo":381,"epochSlotNo":397694,"hash":"704d519d16a7295500944b3e5175d1fe402b1829a8aa992353aebf3e3d019b2b","time":"2022/12/16 12:13:05","txCount":12,"totalFees":3377644,"totalOutput":109206743409,"slotLeader":"dd47ad6a8fe21ca342e28a163cb74e69b13d519538de3d06ac26aad2"},{"blockNo":8146897,"slotNo":79626471,"epochNo":381,"epochSlotNo":397671,"hash":"be03437e7f038b6b44cde4908aad36bcc5947f8121c264067766c59542387468","time":"2022/12/16 12:12:42","txCount":26,"totalFees":8470513,"totalOutput":18382611373824,"slotLeader":"46ebbc0d27d9169cae12d12dcf8f6cacbcf27937c67ae4350abbcaba"},{"blockNo":8146896,"slotNo":79626443,"epochNo":381,"epochSlotNo":397643,"hash":"6393f46ae5725d77d0cb467e5f1ea6d81a243c5c70af24be136e1a06b85557f1","time":"2022/12/16 12:12:14","txCount":2,"totalFees":411550,"totalOutput":2376856685,"slotLeader":"50a251d84927d932b9393cb462f300d215faedd5e8a5e791e869f32c"},{"blockNo":8146895,"slotNo":79626438,"epochNo":381,"epochSlotNo":397638,"hash":"f91f8045bf184f32c3b2b85a20d1ef4c43cab7650dd999ed2ae6df1030b287bd","time":"2022/12/16 12:12:09","txCount":1,"totalFees":662657,"totalOutput":59496375,"slotLeader":"b405a62715301a625c2fd5eb3f5b16be9f1f3f0452f5b8b9286997c4"},{"blockNo":8146894,"slotNo":79626435,"epochNo":381,"epochSlotNo":397635,"hash":"f85cd34bbe54256d639bd4cf7a7d4c9a452d7f5866eda28b7f8950a9f63a2427","time":"2022/12/16 12:12:06","txCount":32,"totalFees":9423565,"totalOutput":110302524176,"slotLeader":"89eba2781e5cd11ccda6be56503702a39e9941e522f04cd5bba22957"},{"blockNo":8146893,"slotNo":79626388,"epochNo":381,"epochSlotNo":397588,"hash":"75972110342fcd1b2d56e2783de64a7524f11cf4aff8aba0809e07b4a75e1a8d","time":"2022/12/16 12:11:19","txCount":3,"totalFees":1147121,"totalOutput":6002754825,"slotLeader":"8a8e0fa9953e6a02c73bf9c7471c08c20e4067cccb4afff6201cb6ef"},{"blockNo":8146892,"slotNo":79626385,"epochNo":381,"epochSlotNo":397585,"hash":"f2810751e4a0127aa4f5f55dd3df91041dced7594e1555157348bae587eb56ee","time":"2022/12/16 12:11:16","txCount":7,"totalFees":1458719,"totalOutput":243784420375,"slotLeader":"7277d55c0b15a03495c0f768e71f88470d91772bc90ef0e4bd1a153f"},{"blockNo":8146891,"slotNo":79626372,"epochNo":381,"epochSlotNo":397572,"hash":"499388c072810b3d918afa040d17b5f6c2cec4e339a2ba1d947463f8b2fb3db3","time":"2022/12/16 12:11:03","txCount":2,"totalFees":400170,"totalOutput":10487461063,"slotLeader":"cdae4a1a08974113e77ea332cb1da97d9e3fca5cf797f9394739214b"},{"blockNo":8146890,"slotNo":79626370,"epochNo":381,"epochSlotNo":397570,"hash":"54b285d0cdb8d5e5340140259b8b425260d1afd51057707bf52463a39d0d9c95","time":"2022/12/16 12:11:01","txCount":10,"totalFees":2934050,"totalOutput":15350941954,"slotLeader":"1cb5d0e006c33ace982a527d4140bc086f99f7d35c27c5ab29600a74"},{"blockNo":8146889,"slotNo":79626364,"epochNo":381,"epochSlotNo":397564,"hash":"24183f4abaf30da57a924470dbdbfe4f0f8c10dd152138885b2b0a698145c46c","time":"2022/12/16 12:10:55","txCount":1,"totalFees":1153750,"totalOutput":21735022746,"slotLeader":"a0fc643d831b144e1dd289f5acf4274aedc331b6a0e4257ef5376520"},{"blockNo":8146888,"slotNo":79626362,"epochNo":381,"epochSlotNo":397562,"hash":"7e6dc5ff1a0750fa187d454ca33689cf5494e952bbf2b6a3b2a6e237291afd01","time":"2022/12/16 12:10:53","txCount":14,"totalFees":4159474,"totalOutput":4080470851,"slotLeader":"caf8502f66536e95138fbf23c14abde1d13090d4aef52b9287f682e8"},{"blockNo":8146887,"slotNo":79626334,"epochNo":381,"epochSlotNo":397534,"hash":"d329eadd7e3fdc6470a11236b27b65411f64e585c5c9fca059da6d83857547f7","time":"2022/12/16 12:10:25","txCount":3,"totalFees":588507,"totalOutput":366866885,"slotLeader":"a5b36528fbbb2709e1b29fbdc3816399ef2bd1c916efa416aa325f1a"},{"blockNo":8146886,"slotNo":79626331,"epochNo":381,"epochSlotNo":397531,"hash":"a9fa02ff4e2e114902dc54a301bb756ae47d5b85757dc5c1b2bb3573bb5d400f","time":"2022/12/16 12:10:22","txCount":18,"totalFees":6409781,"totalOutput":136271483367,"slotLeader":"118af2b045067d1eb1816bc9e0030e11d294b27c0e89c02b27b83f58"}],"totalItems":8147081,"totalPages":407355,"currentPage":0}