{"data":[{"txId":52128095,"txHash":"6a6bc7219a25dcad35745f34166f2a94b11418405d0581c2b393c6ecff0e35e5","txTime":"2022/10/11 15:30:24","block":7870517,"epoch":368,"slotNo":73935933,"epochSlotNo":323133,"stakeKey":"stake1u9ke434hwezgjttzaj5h3ype3rgjy3r4svkrtj38g6znh7c0ljedu"},{"txId":52127927,"txHash":"b9478825c7f529cd56c5e4fa8125d2a461acce4aeb4936457b34b433c29ec44a","txTime":"2022/10/11 15:27:31","block":7870507,"epoch":368,"slotNo":73935760,"epochSlotNo":322960,"stakeKey":"stake1uyv2amn42vr6wdad3vp484r6qnfr2l7p3wd0myrcmvp7wuc9fezlk"},{"txId":52127917,"txHash":"da9462829e672592fdb3cf0f788ff02b4155d5193d6d2330d2e9f8aeb4a64bc6","txTime":"2022/10/11 15:27:31","block":7870507,"epoch":368,"slotNo":73935760,"epochSlotNo":322960,"stakeKey":"stake1uy2rqxvv7ed5ky4dak0geduhzaj8jqsz2nrp29f4gy94q4gkrg3n8"},{"txId":52127483,"txHash":"b579244399b20990a432fece0d08d6d1785b2148fac255fb54d7a3c1e99179ed","txTime":"2022/10/11 15:17:35","block":7870483,"epoch":368,"slotNo":73935164,"epochSlotNo":322364,"stakeKey":"stake1uy4tmuvrvxdjq6ep3r485k9vx3lpx2tn4zhj5hxu5l6emqgfu9slw"},{"txId":52126930,"txHash":"2ae60cc26334ab0215dcc3f797835c94e4823c621af8e730895b011d2a34d7b1","txTime":"2022/10/11 15:07:12","block":7870455,"epoch":368,"slotNo":73934541,"epochSlotNo":321741,"stakeKey":"stake1u885vn47838qvjg4vcwt34jr63kgjry7ap3j6f9zq2xd6fsd2yvtg"},{"txId":52126908,"txHash":"cc7bc9a74a31df5290ff790fcba57440dcd5b747ce990c0ecb512f0d17efc734","txTime":"2022/10/11 15:06:27","block":7870453,"epoch":368,"slotNo":73934496,"epochSlotNo":321696,"stakeKey":"stake1u9y6t3u7xk83a2q3wq5j9hufhhc2w6sf6v949lsrm8mdycsch2w8m"},{"txId":52126762,"txHash":"7505b038fe2ee09bee7d38e45a2e8a353fd45500e7291d9ceb49407013387093","txTime":"2022/10/11 15:04:08","block":7870447,"epoch":368,"slotNo":73934357,"epochSlotNo":321557,"stakeKey":"stake1uxwnu8d3r0tuh296q2ccflk75xrk2qjgastuhn0sxyv40pc4385zc"},{"txId":52126731,"txHash":"753aa2dd14a3437df8002f0c8e893431cb141be1206862c28fda6cf62e12077c","txTime":"2022/10/11 15:03:01","block":7870444,"epoch":368,"slotNo":73934290,"epochSlotNo":321490,"stakeKey":"stake1u92x94rhh2et0wst3ryn0l4ayvjufc22atrjnvc96m667fs23wn0h"},{"txId":52126707,"txHash":"a3cb02c42a0a28e3adbfa1b281f5cedfd190b75e5f94317214f545383cc9babd","txTime":"2022/10/11 15:02:59","block":7870443,"epoch":368,"slotNo":73934288,"epochSlotNo":321488,"stakeKey":"stake1u9qs978dnq3mduxp2xg8pxhhqvr4zjlzm82ytjsl5nrjpdstlqyr3"},{"txId":52126683,"txHash":"ed099134933ea8bafe6604fd6e98fed5045b12be11f036aa1ca2d1d126a62a19","txTime":"2022/10/11 15:02:14","block":7870442,"epoch":368,"slotNo":73934243,"epochSlotNo":321443,"stakeKey":"stake1uxzy7g0tr8qrd3sjgrc9qxqj6455dec0469n2vfg9t49ndgnd404h"},{"txId":52126663,"txHash":"cbd8f20878cb3309fe176a891d9c03275d1211325e5999c702b356f0e6fb8575","txTime":"2022/10/11 15:02:14","block":7870442,"epoch":368,"slotNo":73934243,"epochSlotNo":321443,"stakeKey":"stake1u84nv7sr8azg57l50cgh5j9vqujcrltd7e9srq3dghe6y4sekqhwh"},{"txId":52126406,"txHash":"0c54d4e836ce29019603e1f159fca9bb687e55d49b4494fa8fae9156fd51eee7","txTime":"2022/10/11 14:57:38","block":7870428,"epoch":368,"slotNo":73933967,"epochSlotNo":321167,"stakeKey":"stake1ux85zstn22ww2nvsa259qrpkvm0c7elnqa7302363qq8qpgg75kff"},{"txId":52126351,"txHash":"3cc45dc173b1ad122cc248d2657dcb53e7f73ea7cfeedd0f230dd4f75d6c2ed0","txTime":"2022/10/11 14:55:35","block":7870423,"epoch":368,"slotNo":73933844,"epochSlotNo":321044,"stakeKey":"stake1u8mlm03xv2vxkuurjxaquspc9279hm39xq4ndq2xdncyakc7mf2qg"},{"txId":52126207,"txHash":"d204ddcf45908d22315a297296989e7245f05cf56adad63e7830289be07053b7","txTime":"2022/10/11 14:52:57","block":7870412,"epoch":368,"slotNo":73933686,"epochSlotNo":320886,"stakeKey":"stake1u8cleqcn77wrw92xer67uhc7wrxhqpktkzct0v636cp8nfqrjydy3"},{"txId":52126181,"txHash":"eb00fded032ac1f4b1f304b2dc662ae0da156f89821f15bdd7ec350048fcfc3e","txTime":"2022/10/11 14:52:53","block":7870411,"epoch":368,"slotNo":73933682,"epochSlotNo":320882,"stakeKey":"stake1uywyljwj55vv7segjq2j0u24fed4jpazmkglz3emj7rjrjqzusk5j"},{"txId":52125757,"txHash":"82250959209af19bdcbd027b83d1705a0793770e06a8e6f00f92cd9863925c99","txTime":"2022/10/11 14:43:22","block":7870389,"epoch":368,"slotNo":73933111,"epochSlotNo":320311,"stakeKey":"stake1u8j3d90ut04eulz4c4mwjp6yuzz4quu95azzm5jm69lt94guvkjnf"},{"txId":52124172,"txHash":"e72707b39cf07da57f14035866fa48b35ec6d3dfc5600703a7e968b212e30616","txTime":"2022/10/11 14:10:33","block":7870291,"epoch":368,"slotNo":73931142,"epochSlotNo":318342,"stakeKey":"stake1u9ukvfx9dewtwwdleufx6027vgsk29uwug38dnvpsc2mj2srqsugk"},{"txId":52122730,"txHash":"094577daa55ebe7d325d0bf78cf79fa54261723f9909f6b17306d50499d663bf","txTime":"2022/10/11 13:38:08","block":7870198,"epoch":368,"slotNo":73929197,"epochSlotNo":316397,"stakeKey":"stake1u9hdpne4ch7k89xuxpcs3whcw0ez4e94hz77h080agzngnc7walz7"},{"txId":52122049,"txHash":"d9dc24bd509ddb26c3834725af0deed5b0b9d87b0b9e897c803acffad16359df","txTime":"2022/10/11 13:22:39","block":7870144,"epoch":368,"slotNo":73928268,"epochSlotNo":315468,"stakeKey":"stake1uyft263jt269g2xqyv0ausv4k6y8fqhjek0wshw0htvnjysgxn92v"},{"txId":52121952,"txHash":"a597f5b39dce80af4767815e2a94927dc2d4d19c779514a76bfce5b59a185889","txTime":"2022/10/11 13:20:39","block":7870136,"epoch":368,"slotNo":73928148,"epochSlotNo":315348,"stakeKey":"stake1u893pjw7l3zvnghu3k4t9599k7ks74l0gkh80z0qkccp4aqtn5cey"}],"totalItems":319980,"totalPages":15999,"currentPage":0}