{"data":[{"blockNo":8117976,"slotNo":79033278,"epochNo":380,"epochSlotNo":236478,"hash":"71019a9d81cffcdae570d1ae9df1218c476ca0d8dae6d4e4d8ea288e52eb1912","time":"2022/12/09 15:26:09","txCount":27,"totalFees":9986993,"totalOutput":4080645508353,"slotLeader":"6539a70bb6e61540444133eab3a24288d1cd3ddc3598adde93475513"},{"blockNo":8117975,"slotNo":79033256,"epochNo":380,"epochSlotNo":236456,"hash":"850f68bc7ab78bdcb01947470c5c71988a6f9d87f6d0a4f1de29301190725be7","time":"2022/12/09 15:25:47","txCount":45,"totalFees":12488845,"totalOutput":1834634493788,"slotLeader":"3a203ec1a8bae5098be953c3759e9fae42eea3d5714293500c6b3013"},{"blockNo":8117974,"slotNo":79033239,"epochNo":380,"epochSlotNo":236439,"hash":"fc24f0b04bcd971d6443dec259a4a17d25b647a952581f16b375de3432f998b8","time":"2022/12/09 15:25:30","txCount":38,"totalFees":12211140,"totalOutput":26253457594803,"slotLeader":"737929797be1a93e3a61cda089e33368e3b91f3884b0d684462a32ec"},{"blockNo":8117973,"slotNo":79033208,"epochNo":380,"epochSlotNo":236408,"hash":"72b32d00936033a77dd16b86322add03c49d67ecd342cb911da1706bca49a85a","time":"2022/12/09 15:24:59","txCount":36,"totalFees":12226797,"totalOutput":5111367654790,"slotLeader":"c5293f2ba88ac474787358b9c2f4fae7b3c4408f79cdf89a12c9ece4"},{"blockNo":8117972,"slotNo":79033124,"epochNo":380,"epochSlotNo":236324,"hash":"f3a2e12ba57124d5a0b12dbd2f08f34dfd144317825db1d32d4f427f3513f078","time":"2022/12/09 15:23:35","txCount":16,"totalFees":4195044,"totalOutput":825195329619,"slotLeader":"446109cdad3e7dfc6e0bb4be5ecf25df02fcc2ec8f6df46a3ca2c537"},{"blockNo":8117971,"slotNo":79033111,"epochNo":380,"epochSlotNo":236311,"hash":"d82f78dc09a0362480f526693870bc3a3f6b79b74d698b944bb0020ad0565aa0","time":"2022/12/09 15:23:22","txCount":13,"totalFees":5313106,"totalOutput":2412759316459,"slotLeader":"768a4abe40bf4ec986087a6f356984da85ac3b8388dfa6840e3cdcf7"},{"blockNo":8117970,"slotNo":79033105,"epochNo":380,"epochSlotNo":236305,"hash":"13243b1abc23ec4e80c9b07429a74c7b8e1fc944e8d4857c9702e1d7fb33d2e9","time":"2022/12/09 15:23:16","txCount":1,"totalFees":351577,"totalOutput":18199815,"slotLeader":"a631b46315b1567ef0ce2b2ad4cb63faac09f32ceba6716a7e331e5e"},{"blockNo":8117969,"slotNo":79033100,"epochNo":380,"epochSlotNo":236300,"hash":"a12f22781c9b8dbce04ad30b96d9511d96a1aecb5192b06bfae0f7b4ec001b48","time":"2022/12/09 15:23:11","txCount":8,"totalFees":2895948,"totalOutput":47792002290,"slotLeader":"55962d29056c55303f0db16442011ab0392f7e7b37bdaeae97a14f0e"},{"blockNo":8117968,"slotNo":79033088,"epochNo":380,"epochSlotNo":236288,"hash":"66ff5d86100b1b63d6d751d252379366865e53955bbe956282cf705a76fc252c","time":"2022/12/09 15:22:59","txCount":7,"totalFees":3188502,"totalOutput":780281510703,"slotLeader":"2313599837d144bdbd6897a3cdecc0ad2c995f38275aad6626c29ef5"},{"blockNo":8117967,"slotNo":79033082,"epochNo":380,"epochSlotNo":236282,"hash":"7c878fcf06b4fcd78bcfb8ddb9eb31f413a43747eeebb1827f77e3fe75708f9c","time":"2022/12/09 15:22:53","txCount":18,"totalFees":5341111,"totalOutput":525665678418,"slotLeader":"6539a70bb6e61540444133eab3a24288d1cd3ddc3598adde93475513"},{"blockNo":8117966,"slotNo":79033070,"epochNo":380,"epochSlotNo":236270,"hash":"2b0ed003e15ef050f5dc464628afc3a0af66628c2db653bd5cb9044fe182e529","time":"2022/12/09 15:22:41","txCount":6,"totalFees":2443531,"totalOutput":39407109733,"slotLeader":"c48ed34a5f24ca6dcbac194e45ed9f0b6ac720018eac038ffa9488bd"},{"blockNo":8117965,"slotNo":79033066,"epochNo":380,"epochSlotNo":236266,"hash":"04df8e9af7bf7cc02b899218a7a886cd447589fe2be50aea6e8db5c94984d4ca","time":"2022/12/09 15:22:37","txCount":42,"totalFees":12534797,"totalOutput":6751377699800,"slotLeader":"e2c17915148f698723cb234f3cd89e9325f40b89af9fd6e1f9d1701a"},{"blockNo":8117964,"slotNo":79033054,"epochNo":380,"epochSlotNo":236254,"hash":"6c390e6e1ca604626a2cf4a9a53fb6d8a10e74ad923bdb139d632c3ea910175e","time":"2022/12/09 15:22:25","txCount":27,"totalFees":10370930,"totalOutput":1795527165366,"slotLeader":"cf69a3eca039d537acd46d5864a54dd8953f0c14be957350905834aa"},{"blockNo":8117963,"slotNo":79033000,"epochNo":380,"epochSlotNo":236200,"hash":"fe99a1edafda650037d5de695f85ac3cd0897bc2924cfdc35f1baf72adf70a1e","time":"2022/12/09 15:21:31","txCount":5,"totalFees":2851159,"totalOutput":848403493401,"slotLeader":"da482311081902f95d08bb05d878126904a1e133dd06901e05e652ce"},{"blockNo":8117962,"slotNo":79032995,"epochNo":380,"epochSlotNo":236195,"hash":"b809a0fa69727975fee782f8f9ab316260524ed123e863cc6972953fc36997cb","time":"2022/12/09 15:21:26","txCount":31,"totalFees":10485563,"totalOutput":6428728317609,"slotLeader":"30f9a4c529f89d60ad1bd1c33c0e13c20b347fec7cac794c557efcee"},{"blockNo":8117961,"slotNo":79032964,"epochNo":380,"epochSlotNo":236164,"hash":"f371a076bb58001c41fb472a35a23c14b55f9502dfd7192fc73652ce570630a3","time":"2022/12/09 15:20:55","txCount":24,"totalFees":8006071,"totalOutput":6476833521581,"slotLeader":"2cf87fadec7130c7e41910492073ae4dbe65ca462c1fdc3d2a56d015"},{"blockNo":8117960,"slotNo":79032945,"epochNo":380,"epochSlotNo":236145,"hash":"1946f517ad78edd5c66dfb681e786476fec64e867092994be326f6a88cb37f7f","time":"2022/12/09 15:20:36","txCount":29,"totalFees":8568351,"totalOutput":2399178748577,"slotLeader":"fd30f95effb4f28920020901e3a4ad04f4d3585bc46953de762e8c0c"},{"blockNo":8117959,"slotNo":79032918,"epochNo":380,"epochSlotNo":236118,"hash":"209c0ba9570cebba3748ea299755fb41718657239f057017ed9afe8366a94c9b","time":"2022/12/09 15:20:09","txCount":17,"totalFees":5920561,"totalOutput":83872039724,"slotLeader":"eb7d911eb4c0ca066badadab42d80d5b59a5ce996389523a26edb64a"},{"blockNo":8117958,"slotNo":79032914,"epochNo":380,"epochSlotNo":236114,"hash":"6a1bc550004f5b8b792a6a50e191b882c38450975786c8f8b0488ce1692ae0c4","time":"2022/12/09 15:20:05","txCount":30,"totalFees":10598251,"totalOutput":2533755622730,"slotLeader":"e2c17915148f698723cb234f3cd89e9325f40b89af9fd6e1f9d1701a"},{"blockNo":8117957,"slotNo":79032876,"epochNo":380,"epochSlotNo":236076,"hash":"2f68748c732c1eec2d2cc45a4434cad96e95917b91788c3f6b50b158d9db4b79","time":"2022/12/09 15:19:27","txCount":15,"totalFees":4986558,"totalOutput":913192531138,"slotLeader":"485903de80a59c1156ca235ec715ed434ddc0e394d1e75885976df62"}],"totalItems":8118152,"totalPages":405908,"currentPage":0}