{"data":[{"blockNo":7962648,"slotNo":75827123,"epochNo":373,"epochSlotNo":54323,"hash":"87d5ab4807e43a4c9a85dc2e8fe3a213ec47fc63c1a5a37a5155b0d5613de3d4","time":"2022/11/02 12:50:14","txCount":7,"totalFees":2495280,"totalOutput":413253239612,"slotLeader":"99127328c3fed20710b0b807f32b10ccd731125b30de38b9ff973a01"},{"blockNo":7962647,"slotNo":75827119,"epochNo":373,"epochSlotNo":54319,"hash":"7b5502be2cdcd0befc808df7593f83892ea832b77343b05efc2efc08faffa274","time":"2022/11/02 12:50:10","txCount":15,"totalFees":5891832,"totalOutput":13179325965,"slotLeader":"c7e431518477a4156c2a8cd6523a6a73514e7fbbbf7eed363b9a22ad"},{"blockNo":7962646,"slotNo":75827102,"epochNo":373,"epochSlotNo":54302,"hash":"6fc10158fc5e3ded04372b006c9c6c1074e0f65c7851ddd00fc74cd201a42353","time":"2022/11/02 12:49:53","txCount":10,"totalFees":3143790,"totalOutput":139836428367,"slotLeader":"9418abb33c7cf50778598371bc1f09fe5460d1dedf740faea665f4ac"},{"blockNo":7962645,"slotNo":75827087,"epochNo":373,"epochSlotNo":54287,"hash":"c9791a3f0653142f416fe3684dbd665b27fb7ef0faecb96b55dfca35879a4132","time":"2022/11/02 12:49:38","txCount":7,"totalFees":1634223,"totalOutput":31276012076,"slotLeader":"d61ab012cf4b0c24daf2447309638b25573f85b0a7e4ffdb60db9b22"},{"blockNo":7962644,"slotNo":75827079,"epochNo":373,"epochSlotNo":54279,"hash":"29606965feddfb35f9b67c80273801c4be883a9a1458c6559867c07017eece7f","time":"2022/11/02 12:49:30","txCount":28,"totalFees":9962516,"totalOutput":1446134619632,"slotLeader":"bd50ebea27a9e846bcd873c361ecb1a4d9baf738040d232882109fcd"},{"blockNo":7962643,"slotNo":75827055,"epochNo":373,"epochSlotNo":54255,"hash":"f31bfcb8e27fe5dbbb57b5f0ba67caf3cfb5785004073d21c3446faae3c31961","time":"2022/11/02 12:49:06","txCount":13,"totalFees":4856537,"totalOutput":13517570542,"slotLeader":"8e06d57e463f8a73f37652b23d126eeb52e6838168700d0478d32851"},{"blockNo":7962642,"slotNo":75827045,"epochNo":373,"epochSlotNo":54245,"hash":"6aad2314eae91c28a5ce286e4e74900d032c56625ad82d5a4f09e7037cd55de8","time":"2022/11/02 12:48:56","txCount":18,"totalFees":4414227,"totalOutput":18609128452,"slotLeader":"16f6e9a767dbb9400d3dbe9f7374eef7c706bda870592a7dabd47a75"},{"blockNo":7962641,"slotNo":75827031,"epochNo":373,"epochSlotNo":54231,"hash":"5086f80071ab7daf9f552c7af159b1d064d14aa0ced3061b9987c79523c7e430","time":"2022/11/02 12:48:42","txCount":32,"totalFees":9637316,"totalOutput":1664129335366,"slotLeader":"2bfa5943dfb17ecd8e681e7ce568e22ac45340a417bdde358e3f5159"},{"blockNo":7962640,"slotNo":75827002,"epochNo":373,"epochSlotNo":54202,"hash":"db65c86c450df3f46dc63f820cdb3d7ba2eafb58b6831f3becb954e244f7ab7b","time":"2022/11/02 12:48:13","txCount":43,"totalFees":13454962,"totalOutput":17725155517060,"slotLeader":"6539a70bb6e61540444133eab3a24288d1cd3ddc3598adde93475513"},{"blockNo":7962639,"slotNo":75826953,"epochNo":373,"epochSlotNo":54153,"hash":"04b127b6d2f40578def70c08122f6cc50e06ee41fd767187d8d49fe59e154369","time":"2022/11/02 12:47:24","txCount":6,"totalFees":1798283,"totalOutput":826107525869,"slotLeader":"fd832d27b5fbe0489409613f50e2139b54a21e613c8a7609dcff556e"}],"totalItems":2525,"totalPages":253,"currentPage":0}