{"data":[{"txId":53167481,"txHash":"d4e3738f9a17b2ccee1f4eadace16c51ab4ac1d53c991f08dfa707a84d6962c5","txTime":"2022/10/23 23:39:07","block":7922580,"epoch":371,"slotNo":75002056,"epochSlotNo":93256,"stakeKey":"stake1uyck0f5vkg0a24rl5454z2v5jmegstrh39wx8us0k2dy2xsk2uqh8"},{"txId":53166771,"txHash":"406a4d059db2bf20b443a6d28ac638a301fd333fa4c4a8894510fcead176b01a","txTime":"2022/10/23 23:26:51","block":7922548,"epoch":371,"slotNo":75001320,"epochSlotNo":92520,"stakeKey":"stake1uyck0f5vkg0a24rl5454z2v5jmegstrh39wx8us0k2dy2xsk2uqh8"},{"txId":53166351,"txHash":"801ae00eec98dd49ef83278ce9ffa667447fe5240e480813eda8512a04634660","txTime":"2022/10/23 23:20:40","block":7922533,"epoch":371,"slotNo":75000949,"epochSlotNo":92149,"stakeKey":"stake1uxedw8r7x08l2r3nxl4m8l8dq3rl650a7m92a3yz3wzwvqg96f602"},{"txId":53166172,"txHash":"8899f9bb6de74643d4b81ba94eea8a668f94ce33d640db1020265baec1b0fa9b","txTime":"2022/10/23 23:17:01","block":7922524,"epoch":371,"slotNo":75000730,"epochSlotNo":91930,"stakeKey":"stake1u8uer8rkh6l2nur8z2j5utmpww2h35ny48fvr786ng6u72cqklsgz"},{"txId":53165937,"txHash":"0627e3a3ec14b0f2b35481a4824a6a2ada7048d33b164a6f70dd35143f5be487","txTime":"2022/10/23 23:15:11","block":7922516,"epoch":371,"slotNo":75000620,"epochSlotNo":91820,"stakeKey":"stake1ux74nxv695t2rq9n9qrquxd6y5slhwf2n98vw9499e42wfs6hu9et"},{"txId":53165750,"txHash":"e47a1e25bfd7457ce635d92c64f283624610ea380f3d08516db63cafe45f5b39","txTime":"2022/10/23 23:10:08","block":7922507,"epoch":371,"slotNo":75000317,"epochSlotNo":91517,"stakeKey":"stake1u908sxej93kfnj8uqhue9vmgm0xqhmt35e4m2nfxkcyz4ag4gn23y"},{"txId":53164375,"txHash":"909fe383bea4c39f195a1f82322c1696270363ccb983fc6ebc6e2245be03b7a9","txTime":"2022/10/23 22:50:33","block":7922449,"epoch":371,"slotNo":74999142,"epochSlotNo":90342,"stakeKey":"stake1uxfh8yryfsve5fscymd6m248z5q3rujfw93k8jz0tkdejkc33xl9a"},{"txId":53163743,"txHash":"0831f0ffc8b40f2378013d0f686d5cbc926a266f5147286e674c8bcf012d0d54","txTime":"2022/10/23 22:38:32","block":7922421,"epoch":371,"slotNo":74998421,"epochSlotNo":89621,"stakeKey":"stake1uxwpzpsdahs265anac3z70zmxe4dvxxzfyh5zqrypvv0dcs476vah"},{"txId":53163221,"txHash":"5792647f1926081251d6f9fe963f85be9e4057ca1ec7a43c7a5bfae2bcbc0ad2","txTime":"2022/10/23 22:30:26","block":7922391,"epoch":371,"slotNo":74997935,"epochSlotNo":89135,"stakeKey":"stake1u9lpy4qx2frx87h0twc2925yudcgwrkf3wf4myflmxjrs6skr09c0"},{"txId":53162115,"txHash":"94ca76c1d31193a1d9d37b9339cd77f61fbf1771a79a11732375438088ac9a4d","txTime":"2022/10/23 22:14:08","block":7922350,"epoch":371,"slotNo":74996957,"epochSlotNo":88157,"stakeKey":"stake1uy0ew33mxg9qfet2ksnhduww2qmvrldasq6e5xtf6x3mamgfq4a3v"},{"txId":53162050,"txHash":"31066422b9c7aba467ef996fc061d31a7ff80b729bfeab33736ecd6f8e449f5f","txTime":"2022/10/23 22:13:52","block":7922349,"epoch":371,"slotNo":74996941,"epochSlotNo":88141,"stakeKey":"stake1uy99tpyyx2k5uqvntw8s6ten8g9kxy7n2zpjd9zg7htv3gc26kh0d"},{"txId":53161924,"txHash":"f1a249d688ac9e26b92429b16e68c05871b973f04fe2e2e629efda083ec492c6","txTime":"2022/10/23 22:11:09","block":7922346,"epoch":371,"slotNo":74996778,"epochSlotNo":87978,"stakeKey":"stake1uxnqf0ghv9ugjffkrcrzyxjvzsssuv0m58lrtz5jdl0fpssh64wwe"},{"txId":53161829,"txHash":"e5dbb2fa0efc2de1732397a120f20dc5ae02a95eb5eb5d26bb2e6b74cb1e009e","txTime":"2022/10/23 22:09:17","block":7922339,"epoch":371,"slotNo":74996666,"epochSlotNo":87866,"stakeKey":"stake1ux8gpc8n42m75nhm5gyhasrkcjt46dqppqw7af7z6nyk7rcjgst76"},{"txId":53161263,"txHash":"c043b8dcad3731e4112bacaede11b059118e7264a94a829df925269193605346","txTime":"2022/10/23 22:00:47","block":7922313,"epoch":371,"slotNo":74996156,"epochSlotNo":87356,"stakeKey":"stake1uy3vrmmjkuhmx0srvyekqer9c2zc08e22dc8qmcczeg5jjc2javld"},{"txId":53160999,"txHash":"90b12a35eab2e106a504117b51ac1ff9ea06d711621280f185293705ef070c1c","txTime":"2022/10/23 21:56:50","block":7922301,"epoch":371,"slotNo":74995919,"epochSlotNo":87119,"stakeKey":"stake1u8z8n9csajam7mqf4lhk0pdxcw7m7zr84rzkk0py0hyfejgxapqt9"},{"txId":53160024,"txHash":"f84f968116d502eb4f691107d7ba97b5d24fbe4dfa1f64843107cbeef84a3a81","txTime":"2022/10/23 21:39:22","block":7922246,"epoch":371,"slotNo":74994871,"epochSlotNo":86071,"stakeKey":"stake1u9zxeq4uhzh39da2exq8rt30mv6tyt8r48gk299578wg3gg45qqs7"},{"txId":53157057,"txHash":"351b584175e8d33f36593af386fafea06da5071a11966278a324b2ee06b60eca","txTime":"2022/10/23 20:57:02","block":7922120,"epoch":371,"slotNo":74992331,"epochSlotNo":83531,"stakeKey":"stake1uyf2qxk9khchjdcr8769h0scyxmk65pg54vqeg93xg5ewxshd2ylu"},{"txId":53156420,"txHash":"eee4ed515a3b0070f25b24a1a457898fb400e24fae61f491dacd4056ad24a3ff","txTime":"2022/10/23 20:47:15","block":7922087,"epoch":371,"slotNo":74991744,"epochSlotNo":82944,"stakeKey":"stake1u9nach5f65dyqeqs6977each3fp9zeck5m0r5f5ktr37xrgsyn8cx"},{"txId":53156367,"txHash":"6f64a9f6c1828160a04f4251cf26a7f62a84026e96691f8c8eb54af221c7671b","txTime":"2022/10/23 20:46:50","block":7922086,"epoch":371,"slotNo":74991719,"epochSlotNo":82919,"stakeKey":"stake1uypk6um4f2fnd3w2xdparkep9pv0r2wk35xve2kzswqpapc3hcx6f"},{"txId":53155355,"txHash":"e75f54b5f1857b07cafeb243c80f8a96ea430422cb92ee53c214890a1626bdf3","txTime":"2022/10/23 20:31:25","block":7922031,"epoch":371,"slotNo":74990794,"epochSlotNo":81994,"stakeKey":"stake1uxmfkjeztam9zp5vkxs9ekhwp6kw0em50lsaq28a3w2u33qq6u7s5"}],"totalItems":322855,"totalPages":16143,"currentPage":0}