{"data":[{"txId":28666770,"txHash":"501493a68f6db562454b83e08569f75ebd84d4924b157a72a32645deb1794a7f","txTime":"2022/01/26 03:54:20","block":6802337,"epoch":317,"slotNo":51602969,"epochSlotNo":22169,"stakeKey":"stake1u9r3d8m2mrs40k8ng2s5ugml5glgntztvzz5gasxqgx9q3clmyauy"},{"txId":28666730,"txHash":"2ef6117005eeaf92a3b4fac0cacdbfe1140974190fa3a794783199e6ddf633ca","txTime":"2022/01/26 03:54:11","block":6802336,"epoch":317,"slotNo":51602960,"epochSlotNo":22160,"stakeKey":"stake1uyyzywqk3qfpnvrzckjv6ct85hgxs5qg8hjyjstw36u9e7cz69knt"},{"txId":28666246,"txHash":"9e7a6ed28c791514589269e06d3af2f727d339e17f1594c2217d7bce495623ff","txTime":"2022/01/26 03:50:57","block":6802324,"epoch":317,"slotNo":51602766,"epochSlotNo":21966,"stakeKey":"stake1uykakyt8cgt5cp7nfpmwqxfd2s4fsas8zep8jre02x72sgc0ux609"},{"txId":28665968,"txHash":"6f768c8ea95eecd6c873df4a6789be91aecd0d07bc1534f2c6a73bebe21e0a3c","txTime":"2022/01/26 03:47:56","block":6802316,"epoch":317,"slotNo":51602585,"epochSlotNo":21785,"stakeKey":"stake1uy3789qtclxk0djy5r00udstazm8cusgt9n3g4uzh9rfy5sfmm9qp"},{"txId":28665906,"txHash":"dd164cb369df715c513817cf115e1747c736d3eabd65bc4aec3f5f6f75554ab8","txTime":"2022/01/26 03:47:51","block":6802315,"epoch":317,"slotNo":51602580,"epochSlotNo":21780,"stakeKey":"stake1u9terz3dluhemzs4q0s7hkzt4rfdnwz2xv2pdeevqrkwjsgppd47d"},{"txId":28665903,"txHash":"01a7b1e9bdee7c1a93afa95843be7038a897f9f91e5737ffa707df18523cac0b","txTime":"2022/01/26 03:47:51","block":6802315,"epoch":317,"slotNo":51602580,"epochSlotNo":21780,"stakeKey":"stake1u8340czc6h7jddlxr3rdu8eqz6hjh9qke98z7eawqa4k0sqczcy59"},{"txId":28665602,"txHash":"b32debaf0971870cf9bbd444aa7b6120a9922d34bb67045425c0194f1f4e54e4","txTime":"2022/01/26 03:44:10","block":6802305,"epoch":317,"slotNo":51602359,"epochSlotNo":21559,"stakeKey":"stake1uxpmxls9rc9k06chxj8535lxum5tqzwcafyg2ntjzjyxvlg4k8f37"},{"txId":28665467,"txHash":"b1ad07c2f9ce9cca3bd30947a780e76cbea6bcf60483b2834a35cb9e454b9263","txTime":"2022/01/26 03:43:10","block":6802302,"epoch":317,"slotNo":51602299,"epochSlotNo":21499,"stakeKey":"stake1uy2ykkhn2p4lnjvvxktnxdd8u04myss8sj2ztktd2tpul4sa8gfye"},{"txId":28665401,"txHash":"60a411c6a6363c20a5740e29f948bc697f6bb4cc358addc461283d51275795b8","txTime":"2022/01/26 03:43:05","block":6802301,"epoch":317,"slotNo":51602294,"epochSlotNo":21494,"stakeKey":"stake1uxzd5tl259tkjgjt90ncwsv8u3gyqm0yfjf3dufh3rlsq4c93p4qp"},{"txId":28665272,"txHash":"f151bd1992f9cc98dcf04a16624fa436213b0b502872c1b5843feab6f6058041","txTime":"2022/01/26 03:41:50","block":6802297,"epoch":317,"slotNo":51602219,"epochSlotNo":21419,"stakeKey":"stake1uydgdhhqflnkmsxxfxyp7rmvjwwxlehlpn0u5u4vqn38cfg5s8mmt"},{"txId":28665112,"txHash":"2c11865b98987b0a5fd029f1c6f31e2ae9813038ad2eac0809af21e9ed489b79","txTime":"2022/01/26 03:41:22","block":6802294,"epoch":317,"slotNo":51602191,"epochSlotNo":21391,"stakeKey":"stake1uxkgepxl5ue9gnfzl57952e5l43sy89x740nvvkgq9sundspemn7y"},{"txId":28664693,"txHash":"134fc69b5fd69bd549dd4f594e9a7da6acaecf61f60c08b8c9353e74166d265f","txTime":"2022/01/26 03:38:42","block":6802283,"epoch":317,"slotNo":51602031,"epochSlotNo":21231,"stakeKey":"stake1uydfejl2p634c26l9fhuhvklyfk5mpgndqpa8kvpawrck9gmkrt60"},{"txId":28664525,"txHash":"05b79cb67f9e55f1ca33fa08c097e33bbd1c25b96e5d8e76373bd5cd8036a924","txTime":"2022/01/26 03:36:43","block":6802279,"epoch":317,"slotNo":51601912,"epochSlotNo":21112,"stakeKey":"stake1uxtxnk70q3up7z6d5hd43xqr5rs6cp9f7t7yx99r77a9zqcph2xvy"},{"txId":28663279,"txHash":"d7a330ccbda35927d5e975755a058ccc2c837271d52e404bff8e1b735c187ed1","txTime":"2022/01/26 03:23:28","block":6802245,"epoch":317,"slotNo":51601117,"epochSlotNo":20317,"stakeKey":"stake1u87a7lcms8gf6d3mm92f742p658586ev8echrx79yghtnnswswp0q"},{"txId":28663185,"txHash":"fd1b552520e97692bec0aa7351b74ef240f65bf82d2b8fe167f9f1aaeb2e48b7","txTime":"2022/01/26 03:22:26","block":6802243,"epoch":317,"slotNo":51601055,"epochSlotNo":20255,"stakeKey":"stake1u9t9cu66xjyt2pv0fr5z90lnrtagtgcty9epmpe4fg890qs0pgnpa"},{"txId":28662763,"txHash":"c7c986aef43bc5799af5ea228a20aa23ac691eb5f9c4c120eabff226b7f4efdf","txTime":"2022/01/26 03:19:19","block":6802232,"epoch":317,"slotNo":51600868,"epochSlotNo":20068,"stakeKey":"stake1uyag8wt9ns4zmmzeckkpa5t54mjwfy5jgvx8xwx0ecncpdsf63pqh"},{"txId":28662746,"txHash":"484c09c89d04ca964661609cb98d59c7952ae32089c24421bf84df4dafd1f51f","txTime":"2022/01/26 03:19:19","block":6802232,"epoch":317,"slotNo":51600868,"epochSlotNo":20068,"stakeKey":"stake1uxfr3h0hmdztglewjr7ypgznaqerhgy0024vdetuwvder3g24x3vf"},{"txId":28662372,"txHash":"7655f8546f44814dddd32897425cb7903cda620a4f0e3ca0d9a978f0d5246795","txTime":"2022/01/26 03:16:36","block":6802224,"epoch":317,"slotNo":51600705,"epochSlotNo":19905,"stakeKey":"stake1u9f0yrlszqpf7vn3uh0yqvuchwz4sx56rnet4rfplh39cfqk22qmz"},{"txId":28661721,"txHash":"95a9d1d97140ab73ab8673651b47f14c6d60cc335b74f8b9f7269e08eeb86d76","txTime":"2022/01/26 03:11:04","block":6802210,"epoch":317,"slotNo":51600373,"epochSlotNo":19573,"stakeKey":"stake1uyp5jt9h0al4wmfvpgm9fq0nypcwlj5znwunndu7l5pjd9c8apsl5"},{"txId":28661142,"txHash":"6f023485df22c386c45593ac1c8c9fb7551377f447a46536f60d636ddd4b5dad","txTime":"2022/01/26 03:03:10","block":6802195,"epoch":317,"slotNo":51599899,"epochSlotNo":19099,"stakeKey":"stake1u8h3h4j227l8hkap7c3zh034g2lxyhk9qf980t37pcr8p7s6rhl2t"}],"totalItems":207668,"totalPages":10384,"currentPage":0}