{"data":[{"txId":59838856,"txHash":"6233c3531b8493c895588649b02a9757088f5c17823b6d50d671c7aa9039f6ed","txTime":"2023/01/16 13:05:40","block":8277558,"epoch":388,"slotNo":82308049,"epochSlotNo":55249,"stakeKey":"stake1uy30xh8k49ewy986g68xa0rp8hwkzn23f5u3x6x00f8utrsja8676"},{"txId":59838821,"txHash":"105c38b7703e5b0532f693a559263b88ea39a245b324cc78c6fce8b5ae219978","txTime":"2023/01/16 13:05:20","block":8277556,"epoch":388,"slotNo":82308029,"epochSlotNo":55229,"stakeKey":"stake1u8hjf89efalk3lu0vu6y9q49xuewn7t4pvj0alq4fpydhxqdh92x2"},{"txId":59838742,"txHash":"89397fbfeacce355643a74bf96012290b39fe7928263482c723a895037ef6b2d","txTime":"2023/01/16 13:03:27","block":8277548,"epoch":388,"slotNo":82307916,"epochSlotNo":55116,"stakeKey":"stake1uxes8f4r65edlftthe3hnkdnfxeluhmvlj8vgrjvv90jgpgsghm9k"},{"txId":59838702,"txHash":"c66baf887d81dfc45593891b89ffd93941e7ce52e06008d4875108821ec12a7a","txTime":"2023/01/16 13:02:33","block":8277542,"epoch":388,"slotNo":82307862,"epochSlotNo":55062,"stakeKey":"stake1uy47y9qtvj07x9he5nw6zrwdn7kfdz7t8hfujs0xgncuzzsdg0pu2"},{"txId":59838649,"txHash":"08dfa8fd8e62e74bc3ce502fd9bdc21ace913af9ed392c1b50de583168f3662b","txTime":"2023/01/16 13:01:40","block":8277539,"epoch":388,"slotNo":82307809,"epochSlotNo":55009,"stakeKey":"stake1u9t54ezr2s44rwvxl7du6v7uk64l2506yy4jdxkpx0r7qjczdaqng"},{"txId":59838519,"txHash":"c6cf7cae4708a547f837cef472a05bd09d7295d3402a73fb07aa2b21d9355a74","txTime":"2023/01/16 12:59:12","block":8277534,"epoch":388,"slotNo":82307661,"epochSlotNo":54861,"stakeKey":"stake1uxh9g8rzva6qgqwfax5vpgmg7a8w5pqpfpq7la90sn3e6ecr2s742"},{"txId":59838444,"txHash":"50ca630d9c13e22906af12884712a5a1848adf868a121997cc620d38ef0197b4","txTime":"2023/01/16 12:57:40","block":8277529,"epoch":388,"slotNo":82307569,"epochSlotNo":54769,"stakeKey":"stake1u8qn9r0vv50t5e4ut5g0fzeg64a9j85trhnhfxdjsjax7fgy326m7"},{"txId":59838434,"txHash":"645848935adf3e5b231d7ea66528d00fae909bee657327c75dd8915067ff2d5e","txTime":"2023/01/16 12:57:28","block":8277526,"epoch":388,"slotNo":82307557,"epochSlotNo":54757,"stakeKey":"stake1u8xxhfpddynlr8hnj76fk9kkuk5m27mqj639cp538gqz47s7wrkrs"},{"txId":59838362,"txHash":"21235458b219320e897df1f55620ad4a172d8c4f90d253e01038a10794a0a4a8","txTime":"2023/01/16 12:56:33","block":8277524,"epoch":388,"slotNo":82307502,"epochSlotNo":54702,"stakeKey":"stake1u9wn9esyeg0m27ck779mxfnrlymzmz6u8xkkagtvyk5myxq4ecjcw"},{"txId":59838332,"txHash":"7f74f70aadc2c3076ab7e9d20d7aea17a641275df2d6253cd99d97af2da8a1ed","txTime":"2023/01/16 12:55:56","block":8277522,"epoch":388,"slotNo":82307465,"epochSlotNo":54665,"stakeKey":"stake1uxzne3nf6krzh5r8x4f3pcdfua7sferhcuepqen0jv7jj4smptt2c"},{"txId":59838286,"txHash":"1a5ab2cb8e2ae0d4349d4809ac85b353a22e2471199463f4e076ea38a9077cf8","txTime":"2023/01/16 12:55:22","block":8277519,"epoch":388,"slotNo":82307431,"epochSlotNo":54631,"stakeKey":"stake1u94xq5w0ghjtywf6neynf3cc55x8xsg75l3cam2r4xpjencv2wzpq"},{"txId":59838215,"txHash":"e45895d52d825327a5e4726abbc1d8b8d28484b24aa0f5e2776c328a302770fa","txTime":"2023/01/16 12:55:08","block":8277518,"epoch":388,"slotNo":82307417,"epochSlotNo":54617,"stakeKey":"stake1uyxm2cnp9yp9y029un0s5npuz60kfej42rngwffl3jxmcggs94t46"},{"txId":59838191,"txHash":"1ac61e79e477a2bd7059d580c08b90a423a78f7ee8de8de82786c13a0f0f33ac","txTime":"2023/01/16 12:53:05","block":8277515,"epoch":388,"slotNo":82307294,"epochSlotNo":54494,"stakeKey":"stake1uy006c0c8t68g67xt59rkasn86yhl96tl70td9887u87sdqj3aqj4"},{"txId":59838142,"txHash":"e6c858eb2222e8dbbec716b23c29d7a123b451048dec18212ba0439f498a42a2","txTime":"2023/01/16 12:52:17","block":8277511,"epoch":388,"slotNo":82307246,"epochSlotNo":54446,"stakeKey":"stake1uyyc9jdu979alnwvetww8faext9fqkaapwx6gn8ezpln0wgjfzwjk"},{"txId":59838137,"txHash":"6cf2a164aa044c3522bdc6d53b2a0cbbddc5953c78c127866525dc2e6373d516","txTime":"2023/01/16 12:52:17","block":8277511,"epoch":388,"slotNo":82307246,"epochSlotNo":54446,"stakeKey":"stake1u8w94u4yupwrs57pswv7ua6dv97ex258zhmzttxza98grsgrhsqu0"},{"txId":59837932,"txHash":"f9f4aea8c69ca9ae3958bc190f4615bb41bb573887a28a5ea9300252f7934d84","txTime":"2023/01/16 12:47:24","block":8277495,"epoch":388,"slotNo":82306953,"epochSlotNo":54153,"stakeKey":"stake1uxt9qypczddyye8x8h8uudwysvn6qr503rzfvg8nxnneypqe75kqa"},{"txId":59837857,"txHash":"3b0d0bf7bae0764669806e698851d73334e83139522116c48f0a5a9ec177629e","txTime":"2023/01/16 12:45:52","block":8277488,"epoch":388,"slotNo":82306861,"epochSlotNo":54061,"stakeKey":"stake1uyzauz8ftsagg98m9l5sysw87uhflkgt7mz4gz62mq36f9sxr5zx4"},{"txId":59837534,"txHash":"e87e4cbbff5c5b8b1b7293aadca708689da78aea9feaeb3b547a13c0c3ace5f6","txTime":"2023/01/16 12:39:52","block":8277459,"epoch":388,"slotNo":82306501,"epochSlotNo":53701,"stakeKey":"stake1ux088zr457xwvf57s8v424c96ctn85nw42gyvxh5thef2wqfp3c69"},{"txId":59837526,"txHash":"7af4d6f2737e8df98226c2bb99acd815d9234c60ab67c7b3ce741ee9ca126892","txTime":"2023/01/16 12:39:52","block":8277459,"epoch":388,"slotNo":82306501,"epochSlotNo":53701,"stakeKey":"stake1uyfxnv385czgkc5ttg6rz94qgnu75m56ehu00u09pp69wtqtf3eda"},{"txId":59837514,"txHash":"f065b6d8d12bd246613412b402bf314c4c97e1b6af092c281789d2d44db8e963","txTime":"2023/01/16 12:39:52","block":8277459,"epoch":388,"slotNo":82306501,"epochSlotNo":53701,"stakeKey":"stake1uxwfj8qmk9pwgf8wxv4kzfekcc5pk2c0cd24wrvhnglt86s8xvhcd"}],"totalItems":1646988,"totalPages":82350,"currentPage":0}