{"data":[{"hash":"763ac27af8452ede9321de8831b466b514be72790cbfc25104e632f2097829cb","blockNo":6805220,"blockHash":"ecf47b4cb013f5c35ac3f1686fc30c733ca49d9469bb06d9580cf700f75e26d5","epochNo":317,"epochSlotNo":82009,"slot":51662809,"time":"2022/01/26 20:31:40","addressesInput":["addr1qxa7hxs2plv3ghfvm2ds0ddlgljjmr870nyj0dcuttr9emmhy29z9apw4amvddq7cz3u2c6jffld2rlzcrmuk57cdvcsnml3cx","addr1qxa7hxs2plv3ghfvm2ds0ddlgljjmr870nyj0dcuttr9emmhy29z9apw4amvddq7cz3u2c6jffld2rlzcrmuk57cdvcsnml3cx","addr1qxa7hxs2plv3ghfvm2ds0ddlgljjmr870nyj0dcuttr9emmhy29z9apw4amvddq7cz3u2c6jffld2rlzcrmuk57cdvcsnml3cx"],"addressesOutput":["addr1qy39zw67wxyswndduy6q5atukct9skpemt3kal57zkw3jxxfga842ny2tyf3hcyf436q7wm8r9xza6s5zjptkej2mumsvgnlct","addr1qxa7hxs2plv3ghfvm2ds0ddlgljjmr870nyj0dcuttr9emmhy29z9apw4amvddq7cz3u2c6jffld2rlzcrmuk57cdvcsnml3cx","addr1qxa7hxs2plv3ghfvm2ds0ddlgljjmr870nyj0dcuttr9emmhy29z9apw4amvddq7cz3u2c6jffld2rlzcrmuk57cdvcsnml3cx"],"fee":238585,"totalOutput":161370245,"tokens":[]},{"hash":"0bcc3822706be13d0f2c5b0aeb4ea8988b4bc0058590b2bb3392df523d265fd5","blockNo":6804997,"blockHash":"c23bb899a58af59e80054f15a89fc27248cbc47532c0fb9d97857669e6b2f4e1","epochNo":317,"epochSlotNo":77211,"slot":51658011,"time":"2022/01/26 19:11:42","addressesInput":["addr1w9yr0zr530tp9yzrhly8lw5upddu0eym3yh0mjwa0qlr9pgmkzgv0","addr1qyecjgprat9qjdfkv6ln45eww5a9lwkgqn92x6lspd339ky00hv6dpawknxe42d8dlx42msv2nt8yej77vudk0uruvtsh2aeym"],"addressesOutput":["addr1qyecjgprat9qjdfkv6ln45eww5a9lwkgqn92x6lspd339ky00hv6dpawknxe42d8dlx42msv2nt8yej77vudk0uruvtsh2aeym","addr1qyecjgprat9qjdfkv6ln45eww5a9lwkgqn92x6lspd339ky00hv6dpawknxe42d8dlx42msv2nt8yej77vudk0uruvtsh2aeym"],"fee":1043849,"totalOutput":12153383,"tokens":[]},{"hash":"75524f854de9cacd034af04d59666e0f73586c64fef7993e9bedde731b3b50a2","blockNo":6804952,"blockHash":"f466bebebf699266aa2f4dfe5b9c1bbde41bd508ea392e7b44e59dffcd2ceded","epochNo":317,"epochSlotNo":76289,"slot":51657089,"time":"2022/01/26 18:56:20","addressesInput":["addr1qxa7hxs2plv3ghfvm2ds0ddlgljjmr870nyj0dcuttr9emmhy29z9apw4amvddq7cz3u2c6jffld2rlzcrmuk57cdvcsnml3cx","addr1qxa7hxs2plv3ghfvm2ds0ddlgljjmr870nyj0dcuttr9emmhy29z9apw4amvddq7cz3u2c6jffld2rlzcrmuk57cdvcsnml3cx"],"addressesOutput":["addr1vy2x68k379swmcfdkmfqayc6hmzgpsfy7tlmf3xnfu0ajvcpad40t","addr1qxa7hxs2plv3ghfvm2ds0ddlgljjmr870nyj0dcuttr9emmhy29z9apw4amvddq7cz3u2c6jffld2rlzcrmuk57cdvcsnml3cx","addr1qxa7hxs2plv3ghfvm2ds0ddlgljjmr870nyj0dcuttr9emmhy29z9apw4amvddq7cz3u2c6jffld2rlzcrmuk57cdvcsnml3cx"],"fee":233085,"totalOutput":219988176,"tokens":[]},{"hash":"4cd448a3dd1091d6c69b935c3a366784e0e06809967b794ddb8b991483c4f8e9","blockNo":6804763,"blockHash":"3f90fe2833bf828a21f74c8694f32f0bf00debe63ec6ab668a2b4b0f51fd860b","epochNo":317,"epochSlotNo":72438,"slot":51653238,"time":"2022/01/26 17:52:09","addressesInput":["addr1qxwr8e0ef28fjdd254nexlfmyfsrzng90ygjn8khfxrf7t0nhg9pdyuuy63884c8u39f2w7rctqp6vzf7mlzxfzyv30spuxxk7","addr1q8ggxdgv5ety0r9jrd6lgaks723w30sn6aadkckxrp9nwnlnhg9pdyuuy63884c8u39f2w7rctqp6vzf7mlzxfzyv30swnyhyr"],"addressesOutput":["addr1vy2x68k379swmcfdkmfqayc6hmzgpsfy7tlmf3xnfu0ajvcpad40t","addr1qyh74rg4chrskk4w49hzcu42y9m8p0ul8aqwdpde860uy50nhg9pdyuuy63884c8u39f2w7rctqp6vzf7mlzxfzyv30s3cwn84"],"fee":185301,"totalOutput":62972608,"tokens":[]},{"hash":"8da12c31f01bbabe2bf0c8d91e6f38a79382faea4ef678434db63ebcc47c1e9a","blockNo":6804635,"blockHash":"b3777ee6e38eef79dff1517395233f17b9a4a50761c32a98a7bc75e9a8653d40","epochNo":317,"epochSlotNo":69884,"slot":51650684,"time":"2022/01/26 17:09:35","addressesInput":["addr1qymaumdm272r24d0s46827plplhc6t520lufdr5vdqn0z8hze4zwjlw3vpjum04n0gjymwde8c9p5r67yqupkzy8yz5qwdv2cd","addr1qymaumdm272r24d0s46827plplhc6t520lufdr5vdqn0z8hze4zwjlw3vpjum04n0gjymwde8c9p5r67yqupkzy8yz5qwdv2cd","addr1qymaumdm272r24d0s46827plplhc6t520lufdr5vdqn0z8hze4zwjlw3vpjum04n0gjymwde8c9p5r67yqupkzy8yz5qwdv2cd","addr1qymaumdm272r24d0s46827plplhc6t520lufdr5vdqn0z8hze4zwjlw3vpjum04n0gjymwde8c9p5r67yqupkzy8yz5qwdv2cd","addr1qymaumdm272r24d0s46827plplhc6t520lufdr5vdqn0z8hze4zwjlw3vpjum04n0gjymwde8c9p5r67yqupkzy8yz5qwdv2cd"],"addressesOutput":["addr1q8nkg39fgeaafc02rl76pxyvmln8lnkkey23g3dgqhnqttlzmsdweqzzksx5tpxqy09y4kch5melas3juls9puleuuasuw4pqw","addr1qymaumdm272r24d0s46827plplhc6t520lufdr5vdqn0z8hze4zwjlw3vpjum04n0gjymwde8c9p5r67yqupkzy8yz5qwdv2cd","addr1qymaumdm272r24d0s46827plplhc6t520lufdr5vdqn0z8hze4zwjlw3vpjum04n0gjymwde8c9p5r67yqupkzy8yz5qwdv2cd"],"fee":315893,"totalOutput":61785041,"tokens":[]},{"hash":"d14f876519742a7915df503de4467a589e9c9166e6b2b75bc2f9cba0c272f57f","blockNo":6804567,"blockHash":"71f486795baf6e397051f6c36491301b0a4708bd3424ef09761ba94b6fc57045","epochNo":317,"epochSlotNo":68320,"slot":51649120,"time":"2022/01/26 16:43:31","addressesInput":["addr1q83fuawzq95z6p58p7e4rygtylp7efel256y98lq8s74chmspp3yjgkrxjyd2qdmfgyu0m7kcy6hr6v6r9crzzg0pejqghepph","addr1q83fuawzq95z6p58p7e4rygtylp7efel256y98lq8s74chmspp3yjgkrxjyd2qdmfgyu0m7kcy6hr6v6r9crzzg0pejqghepph","addr1q83fuawzq95z6p58p7e4rygtylp7efel256y98lq8s74chmspp3yjgkrxjyd2qdmfgyu0m7kcy6hr6v6r9crzzg0pejqghepph","addr1q83fuawzq95z6p58p7e4rygtylp7efel256y98lq8s74chmspp3yjgkrxjyd2qdmfgyu0m7kcy6hr6v6r9crzzg0pejqghepph","addr1q83fuawzq95z6p58p7e4rygtylp7efel256y98lq8s74chmspp3yjgkrxjyd2qdmfgyu0m7kcy6hr6v6r9crzzg0pejqghepph"],"addressesOutput":["addr1q9zt3mqyna27uqysjmm2laxvlemrlem3m7nszr9aw4htndxcvhxs8g2ru0ga2jnmr9jrrkwmndnnr55f3r2gjvv6qryqz49td4","addr1q83fuawzq95z6p58p7e4rygtylp7efel256y98lq8s74chmspp3yjgkrxjyd2qdmfgyu0m7kcy6hr6v6r9crzzg0pejqghepph","addr1q83fuawzq95z6p58p7e4rygtylp7efel256y98lq8s74chmspp3yjgkrxjyd2qdmfgyu0m7kcy6hr6v6r9crzzg0pejqghepph"],"fee":210293,"totalOutput":67961399,"tokens":[]},{"hash":"f1c120c4822e10503024151e65176c0df4b5abdef2072aebb152f0c6535116ee","blockNo":6804413,"blockHash":"dcb8b666a508e7c76a51d90cb9f3ed3593f340504ccaa67d4013d8ba001cf049","epochNo":317,"epochSlotNo":64861,"slot":51645661,"time":"2022/01/26 15:45:52","addressesInput":["addr1q9j9edkjryr9fnz6eyuwjcjutun9kpgtkdlulzquheldfeermhplrjkd38pvcn2r58dnl0v4rxs9lz6rdj5p77j3wvcs7ud37u","addr1q9j9edkjryr9fnz6eyuwjcjutun9kpgtkdlulzquheldfeermhplrjkd38pvcn2r58dnl0v4rxs9lz6rdj5p77j3wvcs7ud37u"],"addressesOutput":["addr1v9qgzhk5urgmh7npu4svr0jm96m8cllme6zvg0jgs5euy8scf3ly5","addr1q9j9edkjryr9fnz6eyuwjcjutun9kpgtkdlulzquheldfeermhplrjkd38pvcn2r58dnl0v4rxs9lz6rdj5p77j3wvcs7ud37u","addr1q9j9edkjryr9fnz6eyuwjcjutun9kpgtkdlulzquheldfeermhplrjkd38pvcn2r58dnl0v4rxs9lz6rdj5p77j3wvcs7ud37u"],"fee":241181,"totalOutput":44004005,"tokens":[]},{"hash":"fdb7b7299b8e5ede9d0cad22f37379e684fa6e4e2f88c24ec37263a99391d038","blockNo":6804413,"blockHash":"dcb8b666a508e7c76a51d90cb9f3ed3593f340504ccaa67d4013d8ba001cf049","epochNo":317,"epochSlotNo":64861,"slot":51645661,"time":"2022/01/26 15:45:52","addressesInput":["addr1qyecjgprat9qjdfkv6ln45eww5a9lwkgqn92x6lspd339ky00hv6dpawknxe42d8dlx42msv2nt8yej77vudk0uruvtsh2aeym"],"addressesOutput":["addr1w999n67e86jn6xal07pzxtrmqynspgx0fwmcmpua4wc6yzsxpljz3","addr1qyecjgprat9qjdfkv6ln45eww5a9lwkgqn92x6lspd339ky00hv6dpawknxe42d8dlx42msv2nt8yej77vudk0uruvtsh2aeym"],"fee":225735,"totalOutput":13234269,"tokens":[]},{"hash":"f8886327d49d207cf122fb4b9bd3f64614c89efe021cdd52487528a04cfb4aed","blockNo":6804236,"blockHash":"589b57de7fbf61dd71942a9e8c3d97332aac138e85425dbae11ba34d95fb918a","epochNo":317,"epochSlotNo":61094,"slot":51641894,"time":"2022/01/26 14:43:05","addressesInput":["addr1qyecjgprat9qjdfkv6ln45eww5a9lwkgqn92x6lspd339ky00hv6dpawknxe42d8dlx42msv2nt8yej77vudk0uruvtsh2aeym","addr1qyecjgprat9qjdfkv6ln45eww5a9lwkgqn92x6lspd339ky00hv6dpawknxe42d8dlx42msv2nt8yej77vudk0uruvtsh2aeym"],"addressesOutput":["addr1w999n67e86jn6xal07pzxtrmqynspgx0fwmcmpua4wc6yzsxpljz3","addr1qyecjgprat9qjdfkv6ln45eww5a9lwkgqn92x6lspd339ky00hv6dpawknxe42d8dlx42msv2nt8yej77vudk0uruvtsh2aeym"],"fee":230343,"totalOutput":15385928,"tokens":[]},{"hash":"eed875ec1f396b2624c10ac82e060e6c81a0ad497c8df1300b77e10cf839b23f","blockNo":6804170,"blockHash":"e721af24c87a49e6986c807d1d4589b03076a18acceceb82f914595125e38c84","epochNo":317,"epochSlotNo":59844,"slot":51640644,"time":"2022/01/26 14:22:15","addressesInput":["addr1qyecjgprat9qjdfkv6ln45eww5a9lwkgqn92x6lspd339ky00hv6dpawknxe42d8dlx42msv2nt8yej77vudk0uruvtsh2aeym"],"addressesOutput":["addr1w9yr0zr530tp9yzrhly8lw5upddu0eym3yh0mjwa0qlr9pgmkzgv0","addr1qyecjgprat9qjdfkv6ln45eww5a9lwkgqn92x6lspd339ky00hv6dpawknxe42d8dlx42msv2nt8yej77vudk0uruvtsh2aeym"],"fee":195509,"totalOutput":15949604,"tokens":[]},{"hash":"14905ce631f6567a749e5a03151c8936f2150608489e23e96788377b1bd4177d","blockNo":6804058,"blockHash":"5278a7c927abde71bf2da75399c4d48d0d99039aa2ffed5909b0d2972481d098","epochNo":317,"epochSlotNo":57533,"slot":51638333,"time":"2022/01/26 13:43:44","addressesInput":["addr1qxysr70aljc5wx4wnp97cdpml05vcc54c44gdlps0ru7h6fnd7qf7dx7krgsputamf5gtmfpah840tz68pnzes0vu6nszu04p5","addr1qxysr70aljc5wx4wnp97cdpml05vcc54c44gdlps0ru7h6fnd7qf7dx7krgsputamf5gtmfpah840tz68pnzes0vu6nszu04p5","addr1qxysr70aljc5wx4wnp97cdpml05vcc54c44gdlps0ru7h6fnd7qf7dx7krgsputamf5gtmfpah840tz68pnzes0vu6nszu04p5"],"addressesOutput":["addr1w9yr0zr530tp9yzrhly8lw5upddu0eym3yh0mjwa0qlr9pgmkzgv0","addr1qxysr70aljc5wx4wnp97cdpml05vcc54c44gdlps0ru7h6fnd7qf7dx7krgsputamf5gtmfpah840tz68pnzes0vu6nszu04p5"],"fee":182441,"totalOutput":51881645,"tokens":[]},{"hash":"d175733f8ac6c97b4aeaf3e7c53b3f407514e528012605060dd1662d1ed21ab2","blockNo":6803889,"blockHash":"bde01369920c79699a3a7607928950daa66c20143170c21c6ab8cdd8fcc23c9b","epochNo":317,"epochSlotNo":54131,"slot":51634931,"time":"2022/01/26 12:47:02","addressesInput":["addr1qymaumdm272r24d0s46827plplhc6t520lufdr5vdqn0z8hze4zwjlw3vpjum04n0gjymwde8c9p5r67yqupkzy8yz5qwdv2cd","addr1qymaumdm272r24d0s46827plplhc6t520lufdr5vdqn0z8hze4zwjlw3vpjum04n0gjymwde8c9p5r67yqupkzy8yz5qwdv2cd","addr1qymaumdm272r24d0s46827plplhc6t520lufdr5vdqn0z8hze4zwjlw3vpjum04n0gjymwde8c9p5r67yqupkzy8yz5qwdv2cd","addr1qymaumdm272r24d0s46827plplhc6t520lufdr5vdqn0z8hze4zwjlw3vpjum04n0gjymwde8c9p5r67yqupkzy8yz5qwdv2cd"],"addressesOutput":["addr1q8nkg39fgeaafc02rl76pxyvmln8lnkkey23g3dgqhnqttlzmsdweqzzksx5tpxqy09y4kch5melas3juls9puleuuasuw4pqw","addr1qymaumdm272r24d0s46827plplhc6t520lufdr5vdqn0z8hze4zwjlw3vpjum04n0gjymwde8c9p5r67yqupkzy8yz5qwdv2cd","addr1qymaumdm272r24d0s46827plplhc6t520lufdr5vdqn0z8hze4zwjlw3vpjum04n0gjymwde8c9p5r67yqupkzy8yz5qwdv2cd"],"fee":290417,"totalOutput":101786338,"tokens":[]},{"hash":"98172601b7443e763a6938523fcf0296299b37b0bbaeeb50aa45f919e9db6776","blockNo":6803765,"blockHash":"a116dd5824e085a513357b32fec288b8d60daad5b9c13592601de029633a906c","epochNo":317,"epochSlotNo":51830,"slot":51632630,"time":"2022/01/26 12:08:41","addressesInput":["addr1qxysr70aljc5wx4wnp97cdpml05vcc54c44gdlps0ru7h6fnd7qf7dx7krgsputamf5gtmfpah840tz68pnzes0vu6nszu04p5","addr1qxysr70aljc5wx4wnp97cdpml05vcc54c44gdlps0ru7h6fnd7qf7dx7krgsputamf5gtmfpah840tz68pnzes0vu6nszu04p5"],"addressesOutput":["addr1w9yr0zr530tp9yzrhly8lw5upddu0eym3yh0mjwa0qlr9pgmkzgv0","addr1qxysr70aljc5wx4wnp97cdpml05vcc54c44gdlps0ru7h6fnd7qf7dx7krgsputamf5gtmfpah840tz68pnzes0vu6nszu04p5"],"fee":180285,"totalOutput":4285702,"tokens":[]},{"hash":"47b3b77783c58dfe8f73a76e4fa862b941cd6ea652aa95a7e244cb5eb6e29f87","blockNo":6803760,"blockHash":"1dcc34ef3590ba494929916473779c6803190cef194ff925f90c1903605da3d5","epochNo":317,"epochSlotNo":51758,"slot":51632558,"time":"2022/01/26 12:07:29","addressesInput":["addr1qxa7hxs2plv3ghfvm2ds0ddlgljjmr870nyj0dcuttr9emmhy29z9apw4amvddq7cz3u2c6jffld2rlzcrmuk57cdvcsnml3cx","addr1qxa7hxs2plv3ghfvm2ds0ddlgljjmr870nyj0dcuttr9emmhy29z9apw4amvddq7cz3u2c6jffld2rlzcrmuk57cdvcsnml3cx","addr1qxa7hxs2plv3ghfvm2ds0ddlgljjmr870nyj0dcuttr9emmhy29z9apw4amvddq7cz3u2c6jffld2rlzcrmuk57cdvcsnml3cx","addr1qxa7hxs2plv3ghfvm2ds0ddlgljjmr870nyj0dcuttr9emmhy29z9apw4amvddq7cz3u2c6jffld2rlzcrmuk57cdvcsnml3cx","addr1qxa7hxs2plv3ghfvm2ds0ddlgljjmr870nyj0dcuttr9emmhy29z9apw4amvddq7cz3u2c6jffld2rlzcrmuk57cdvcsnml3cx","addr1qxa7hxs2plv3ghfvm2ds0ddlgljjmr870nyj0dcuttr9emmhy29z9apw4amvddq7cz3u2c6jffld2rlzcrmuk57cdvcsnml3cx","addr1qxa7hxs2plv3ghfvm2ds0ddlgljjmr870nyj0dcuttr9emmhy29z9apw4amvddq7cz3u2c6jffld2rlzcrmuk57cdvcsnml3cx","addr1qxa7hxs2plv3ghfvm2ds0ddlgljjmr870nyj0dcuttr9emmhy29z9apw4amvddq7cz3u2c6jffld2rlzcrmuk57cdvcsnml3cx","addr1qxa7hxs2plv3ghfvm2ds0ddlgljjmr870nyj0dcuttr9emmhy29z9apw4amvddq7cz3u2c6jffld2rlzcrmuk57cdvcsnml3cx"],"addressesOutput":["addr1qypfxtkmcgsk2h2uf7qjhfykfnvuf39s7dd382z5dz4djs664cwepfzne52q76u7ra3urf0eqr9aaj07v0g874yxuz5sd8m5xm","addr1qxa7hxs2plv3ghfvm2ds0ddlgljjmr870nyj0dcuttr9emmhy29z9apw4amvddq7cz3u2c6jffld2rlzcrmuk57cdvcsnml3cx","addr1qxa7hxs2plv3ghfvm2ds0ddlgljjmr870nyj0dcuttr9emmhy29z9apw4amvddq7cz3u2c6jffld2rlzcrmuk57cdvcsnml3cx"],"fee":245405,"totalOutput":498017448,"tokens":[]},{"hash":"f68539ca741df04a38132732db404f18e1fcae123483aa712a4ea4106df06e0d","blockNo":6803741,"blockHash":"2b5c93653bb3449773a934af27a7b8d2dbd397793f99ebd2d77920441effaf07","epochNo":317,"epochSlotNo":51443,"slot":51632243,"time":"2022/01/26 12:02:14","addressesInput":["addr1qyecjgprat9qjdfkv6ln45eww5a9lwkgqn92x6lspd339ky00hv6dpawknxe42d8dlx42msv2nt8yej77vudk0uruvtsh2aeym"],"addressesOutput":["addr1w9yr0zr530tp9yzrhly8lw5upddu0eym3yh0mjwa0qlr9pgmkzgv0","addr1qyecjgprat9qjdfkv6ln45eww5a9lwkgqn92x6lspd339ky00hv6dpawknxe42d8dlx42msv2nt8yej77vudk0uruvtsh2aeym"],"fee":198149,"totalOutput":18071037,"tokens":[]},{"hash":"e118929c597828b9c0a46600afed394f97d576a9ce0b9b48a7ac6e714400e3a7","blockNo":6803727,"blockHash":"a8ab7e8a859145b1501212e576f20060450708e043c8c535a70a9fed820d529f","epochNo":317,"epochSlotNo":51112,"slot":51631912,"time":"2022/01/26 11:56:43","addressesInput":["addr1qxysr70aljc5wx4wnp97cdpml05vcc54c44gdlps0ru7h6fnd7qf7dx7krgsputamf5gtmfpah840tz68pnzes0vu6nszu04p5","addr1w9yr0zr530tp9yzrhly8lw5upddu0eym3yh0mjwa0qlr9pgmkzgv0"],"addressesOutput":["addr1qxysr70aljc5wx4wnp97cdpml05vcc54c44gdlps0ru7h6fnd7qf7dx7krgsputamf5gtmfpah840tz68pnzes0vu6nszu04p5","addr1qxysr70aljc5wx4wnp97cdpml05vcc54c44gdlps0ru7h6fnd7qf7dx7krgsputamf5gtmfpah840tz68pnzes0vu6nszu04p5"],"fee":1029637,"totalOutput":4465987,"tokens":[]},{"hash":"1bdeac3aff2b3f1464ff44725c6023f54591054664821c54d05634537e4d9694","blockNo":6803660,"blockHash":"21303b3a432a60e018e204db8e3752baffbd6749d9f56cbf6eec8e732d7da59b","epochNo":317,"epochSlotNo":49728,"slot":51630528,"time":"2022/01/26 11:33:39","addressesInput":["addr1qyecjgprat9qjdfkv6ln45eww5a9lwkgqn92x6lspd339ky00hv6dpawknxe42d8dlx42msv2nt8yej77vudk0uruvtsh2aeym","addr1qyecjgprat9qjdfkv6ln45eww5a9lwkgqn92x6lspd339ky00hv6dpawknxe42d8dlx42msv2nt8yej77vudk0uruvtsh2aeym","addr1w999n67e86jn6xal07pzxtrmqynspgx0fwmcmpua4wc6yzsxpljz3"],"addressesOutput":["addr1w999n67e86jn6xal07pzxtrmqynspgx0fwmcmpua4wc6yzsxpljz3","addr1qyecjgprat9qjdfkv6ln45eww5a9lwkgqn92x6lspd339ky00hv6dpawknxe42d8dlx42msv2nt8yej77vudk0uruvtsh2aeym"],"fee":1098895,"totalOutput":20121036,"tokens":[]},{"hash":"95b887c2e0559a78daf5f1971bc3a418aead1518cf7b412494d32a6ac5e14319","blockNo":6803585,"blockHash":"745ab44a5d549d353f847bcc2c3812536a1591d254032b28431e08cfbb6206cb","epochNo":317,"epochSlotNo":48094,"slot":51628894,"time":"2022/01/26 11:06:25","addressesInput":["addr1qyecjgprat9qjdfkv6ln45eww5a9lwkgqn92x6lspd339ky00hv6dpawknxe42d8dlx42msv2nt8yej77vudk0uruvtsh2aeym","addr1qyecjgprat9qjdfkv6ln45eww5a9lwkgqn92x6lspd339ky00hv6dpawknxe42d8dlx42msv2nt8yej77vudk0uruvtsh2aeym","addr1qyecjgprat9qjdfkv6ln45eww5a9lwkgqn92x6lspd339ky00hv6dpawknxe42d8dlx42msv2nt8yej77vudk0uruvtsh2aeym"],"addressesOutput":["addr1qyecjgprat9qjdfkv6ln45eww5a9lwkgqn92x6lspd339ky00hv6dpawknxe42d8dlx42msv2nt8yej77vudk0uruvtsh2aeym","addr1qyecjgprat9qjdfkv6ln45eww5a9lwkgqn92x6lspd339ky00hv6dpawknxe42d8dlx42msv2nt8yej77vudk0uruvtsh2aeym"],"fee":195465,"totalOutput":9368081,"tokens":[]},{"hash":"cf9a99ba8945b8e21851ff1962d8db0e02d4cb6567b1a4d39858f124ea94d5d7","blockNo":6803548,"blockHash":"b4058837d505771ec3c097a1430d297c893906974823d0775329e5c2f391a56b","epochNo":317,"epochSlotNo":47442,"slot":51628242,"time":"2022/01/26 10:55:33","addressesInput":["addr1qxysr70aljc5wx4wnp97cdpml05vcc54c44gdlps0ru7h6fnd7qf7dx7krgsputamf5gtmfpah840tz68pnzes0vu6nszu04p5","addr1qxysr70aljc5wx4wnp97cdpml05vcc54c44gdlps0ru7h6fnd7qf7dx7krgsputamf5gtmfpah840tz68pnzes0vu6nszu04p5","addr1qy9ut5acpalpxewerpw8tkctru3yvzgnu6hke9wtrhyfgdend7qf7dx7krgsputamf5gtmfpah840tz68pnzes0vu6ns4muchx"],"addressesOutput":["addr1w9yr0zr530tp9yzrhly8lw5upddu0eym3yh0mjwa0qlr9pgmkzgv0","addr1qxysr70aljc5wx4wnp97cdpml05vcc54c44gdlps0ru7h6fnd7qf7dx7krgsputamf5gtmfpah840tz68pnzes0vu6nszu04p5"],"fee":186885,"totalOutput":5569698,"tokens":[]},{"hash":"bc09a3f6b832f8ec18c44dff93d2438c51400b40198f8495f330b59f38762f7e","blockNo":6803521,"blockHash":"0bf5c5664668b2818dce16505fa45f1dd7ac93d8d04d2976990dbc77cad5cec4","epochNo":317,"epochSlotNo":46758,"slot":51627558,"time":"2022/01/26 10:44:09","addressesInput":["addr1qymaumdm272r24d0s46827plplhc6t520lufdr5vdqn0z8hze4zwjlw3vpjum04n0gjymwde8c9p5r67yqupkzy8yz5qwdv2cd","addr1qymaumdm272r24d0s46827plplhc6t520lufdr5vdqn0z8hze4zwjlw3vpjum04n0gjymwde8c9p5r67yqupkzy8yz5qwdv2cd"],"addressesOutput":["addr1qxysr70aljc5wx4wnp97cdpml05vcc54c44gdlps0ru7h6fnd7qf7dx7krgsputamf5gtmfpah840tz68pnzes0vu6nszu04p5","addr1qymaumdm272r24d0s46827plplhc6t520lufdr5vdqn0z8hze4zwjlw3vpjum04n0gjymwde8c9p5r67yqupkzy8yz5qwdv2cd","addr1qymaumdm272r24d0s46827plplhc6t520lufdr5vdqn0z8hze4zwjlw3vpjum04n0gjymwde8c9p5r67yqupkzy8yz5qwdv2cd"],"fee":289053,"totalOutput":60710617,"tokens":[]}],"totalItems":87,"totalPages":5,"currentPage":0}