{"data":[{"txId":59883477,"txHash":"78c46b46aa6594caf6ab6334dde6a25fab076102bbf501a280700c8beecc39c3","txTime":"2023/01/17 00:49:12","block":8279558,"epoch":388,"slotNo":82350261,"epochSlotNo":97461,"stakeKey":"stake1uycyhnz4hxd8maytf9ndmg9c9ghjatnhgxsguum609e45zgew9udz"},{"txId":59883472,"txHash":"1a5900feab5af0f4b5ce7c1bb2b02d34fb1eb8239bbb53487645ace138b2b6f5","txTime":"2023/01/17 00:49:01","block":8279557,"epoch":388,"slotNo":82350250,"epochSlotNo":97450,"stakeKey":"stake1uxaw6p4k6sdglv3kqj5gzg9xjufv8kc7mcml27qsmuh8gcs845326"},{"txId":59882587,"txHash":"b2d4a82a640e3a849668db1100c30ca7ac0c6d83121d08eaeecd1398bf6e362c","txTime":"2023/01/17 00:31:16","block":8279510,"epoch":388,"slotNo":82349185,"epochSlotNo":96385,"stakeKey":"stake1uyatmy66gvvsqxul57j32rpdnj64zra6jz6pcd0lgx5afusqfjgdd"},{"txId":59882504,"txHash":"42e743bc474f8edb83f6b936a14a557396987412c8aacf56137809b3d904fce8","txTime":"2023/01/17 00:29:35","block":8279504,"epoch":388,"slotNo":82349084,"epochSlotNo":96284,"stakeKey":"stake1ux2mzyy83dvvpz9pk89qmnxfd7jjcrke05hajkgtnr6d36szagsry"},{"txId":59882348,"txHash":"190c2a8a5ec55527122c6f42d3f993f7cb854faab280b0e611b4cb724299f4a7","txTime":"2023/01/17 00:26:30","block":8279496,"epoch":388,"slotNo":82348899,"epochSlotNo":96099,"stakeKey":"stake1uytlkgad5ek6cp4vv3zmshxxyr4qxxwhxyd2vkeyegys3hsz7hj95"},{"txId":59882335,"txHash":"f1fa38ff83645c9199ecbca9fb87c182d0b5d388ce8ad71e9583bf37b1059295","txTime":"2023/01/17 00:25:11","block":8279495,"epoch":388,"slotNo":82348820,"epochSlotNo":96020,"stakeKey":"stake1ux6aver0caryv94lft7ksh52kkm7lfg65ruam7g09kgzzxqrdwmfu"},{"txId":59881830,"txHash":"e478de71d4f1e9c6d64ebcd34b849c1239e39c13c9e7f9bb03fc4198c39c3b8c","txTime":"2023/01/17 00:16:02","block":8279471,"epoch":388,"slotNo":82348271,"epochSlotNo":95471,"stakeKey":"stake1u948gaqzt2fppawdm46c2q7064d5rfsj0l2mpnmrwk0p68cjpk0cu"},{"txId":59881756,"txHash":"f8f94675fc2e12386f615793eb09c8735937e8287aa17bb673b1c383ac2a6e73","txTime":"2023/01/17 00:13:41","block":8279465,"epoch":388,"slotNo":82348130,"epochSlotNo":95330,"stakeKey":"stake1uym6ecqjlp09r23rzs3g5hvy6gm0kqq0fjsurqqmaqzls8ge0nnpq"},{"txId":59881503,"txHash":"32efe4a4eaa1f817688b6a012afc1e5ebbf26989a0d4a2dbc136f53e41f96eb6","txTime":"2023/01/17 00:09:12","block":8279455,"epoch":388,"slotNo":82347861,"epochSlotNo":95061,"stakeKey":"stake1u9j2d8553kegmztq3cl84yeqyxdasuggnrkdry78smekqvgll0jdh"},{"txId":59880683,"txHash":"e0983b3859bd2bf45f96f8f2f61af5861e6acf7cc918049cac87623f4da255c9","txTime":"2023/01/16 23:53:45","block":8279400,"epoch":388,"slotNo":82346934,"epochSlotNo":94134,"stakeKey":"stake1u9up7ym33l0kq6zuvvy534t2g8mlnv66tprpktulwtne4uck23rhq"},{"txId":59880484,"txHash":"8b23d4938f03d0334f8fb13573986965a889be93e61681a831bad5b8b7f1bdc8","txTime":"2023/01/16 23:49:27","block":8279391,"epoch":388,"slotNo":82346676,"epochSlotNo":93876,"stakeKey":"stake1u82tglkqdn2n8nykqq8fggswc2fweslecar9jjkjvkpqcystw9pnk"},{"txId":59880424,"txHash":"03dc33198b3c1eda68ccdeb4bf54186f50920ff5fee0030132fe4bf0fc6d1c9e","txTime":"2023/01/16 23:48:41","block":8279387,"epoch":388,"slotNo":82346630,"epochSlotNo":93830,"stakeKey":"stake1u8wzxch5fx7qw0pa4g8kp7xwve5g8jg7e08nvm0xy9penqg5xvt80"},{"txId":59880351,"txHash":"67a79199e621b1645fd8d0f11579e6676d6021e560cc7ae253e7e91446f473b2","txTime":"2023/01/16 23:47:42","block":8279384,"epoch":388,"slotNo":82346571,"epochSlotNo":93771,"stakeKey":"stake1uxnxgma5q8gplsj8g5y90f6gwtu5up9fcm7f2funqwmsjuqzzlmja"},{"txId":59880326,"txHash":"f1a3c6a6bb03dfc5e0cce19b21faabf4af55e9dbe0e190e7af22373666a4e22f","txTime":"2023/01/16 23:46:45","block":8279382,"epoch":388,"slotNo":82346514,"epochSlotNo":93714,"stakeKey":"stake1u97p9ts544at6z785eqq3e070n0wuttqtfdyxgeejdfde6gmafss6"},{"txId":59880010,"txHash":"796aa23d31d706722e01399cfb25952ca5f6a992875f74a3cad1d7d45fcb3163","txTime":"2023/01/16 23:41:32","block":8279364,"epoch":388,"slotNo":82346201,"epochSlotNo":93401,"stakeKey":"stake1uxvclyjarugg4c8rtjpztz8z35pwqnxsw5r5xvzdf9hut4spf4cfl"},{"txId":59879838,"txHash":"3ec982940bfd9ffebb7ce0cc34978e8ea7459efe308d395b3c47f700c86934c7","txTime":"2023/01/16 23:37:35","block":8279356,"epoch":388,"slotNo":82345964,"epochSlotNo":93164,"stakeKey":"stake1uxn8mgdqvs8c6y4unqaux3n4zqt05rkgufk0nvj9t2cyrfc5prdkp"},{"txId":59879576,"txHash":"abaf9846309379a7199130326ff3a2f687f837543ddbaeca771323fcba9f4e11","txTime":"2023/01/16 23:32:39","block":8279344,"epoch":388,"slotNo":82345668,"epochSlotNo":92868,"stakeKey":"stake1u82m98lvg2mq4mmenjfk2mmekhael4nqp0nr28v0xthnytswh2aul"},{"txId":59878437,"txHash":"855c86ff64d3d09470e1eda1f914e48373ff93a5753871a097f77f2020579c4f","txTime":"2023/01/16 23:08:48","block":8279275,"epoch":388,"slotNo":82344237,"epochSlotNo":91437,"stakeKey":"stake1uy4n302suu8ur43kdlsjh3qzr6kf8qcdzhq3phe6ytzpqagk4spnc"},{"txId":59878083,"txHash":"7fd094dae9d8d9f4bb24ccc09bdfb6101dba0bd641651bc57f0898bbc87b93d2","txTime":"2023/01/16 23:01:38","block":8279254,"epoch":388,"slotNo":82343807,"epochSlotNo":91007,"stakeKey":"stake1u8vr6ek09n0n0cc7ds68r2wxrte7vq926h2v543896u4hqqk2zpk2"},{"txId":59877742,"txHash":"b8f11dcb6cfa58f2f50a59ddca2524f11f0981b87d246c222c30071d06a74940","txTime":"2023/01/16 22:54:47","block":8279239,"epoch":388,"slotNo":82343396,"epochSlotNo":90596,"stakeKey":"stake1uxr2j0x5fxn5xvj2c3fqfjxh5sha3kmedtxc8rktvlnccaswm3lrf"}],"totalItems":345453,"totalPages":17273,"currentPage":0}