{"data":[{"txId":28830648,"txHash":"2f2ec4d263155f8af1c7f905090e4f93c0f6852cbf07d607b415cedab7e633f4","txTime":"2022/01/27 03:14:06","block":6806332,"epoch":317,"slotNo":51686955,"epochSlotNo":106155,"stakeKey":"stake1ux3xxupp86w2u5zamt0pltj25gdu87j26vtv7l5waqnr9rqv070wx"},{"txId":28830137,"txHash":"db149a2abfc800a2c70be9dd337680c88e48ba19e62e61b760093e86e37b77bd","txTime":"2022/01/27 03:10:14","block":6806319,"epoch":317,"slotNo":51686723,"epochSlotNo":105923,"stakeKey":"stake1uxr5m82dgjwjsgy4m89akfqvdv03j5369rvqvf24hg8jxfspa36gf"},{"txId":28829917,"txHash":"33cffd4ba4efddf39b8fd23f9d160ad3c2b25f05d7a84236ceb652467f06da00","txTime":"2022/01/27 03:07:18","block":6806313,"epoch":317,"slotNo":51686547,"epochSlotNo":105747,"stakeKey":"stake1ux7824stw28vd7ehmqf3negt2lzxa8c8a80cwlc06mxyc6gjsflhm"},{"txId":28829697,"txHash":"76d620f9eaa3fc3b98dd4ee82bc355f0d1ee832bad26493c3e78cf44830186c6","txTime":"2022/01/27 03:03:54","block":6806308,"epoch":317,"slotNo":51686343,"epochSlotNo":105543,"stakeKey":"stake1uxw342s6zhfxj63qhxa34w35zpmcsew704zjfkv5tr6yuqsv68dd5"},{"txId":28829550,"txHash":"a2703b3f4b221ee598ce8eaef19d2d1eea0984ecdd2eb70a8ed315e3eaabcb92","txTime":"2022/01/27 03:03:39","block":6806305,"epoch":317,"slotNo":51686328,"epochSlotNo":105528,"stakeKey":"stake1u8gm0h3fhgl4k367lks7zry35k6e5qejf4a2ehyuxzmm58cx8efvh"},{"txId":28829202,"txHash":"f5d432024937950b2ebe715e1972e841a021bec73b99159849e517ffb19db2ed","txTime":"2022/01/27 03:01:21","block":6806296,"epoch":317,"slotNo":51686190,"epochSlotNo":105390,"stakeKey":"stake1uyvf23pvrv2xyhwdau5rznk7jpnvedjzj8hupydzqg4c2yqmm8s5n"},{"txId":28829138,"txHash":"635920b686f1976a2a143d974533284acaf068272ab4a1ed8e43d0ba75079ff8","txTime":"2022/01/27 03:00:05","block":6806294,"epoch":317,"slotNo":51686114,"epochSlotNo":105314,"stakeKey":"stake1ux5npk9vud2z5r5n70jku5y8n9jz8qyf4kefwn78fsc7tvg9v56qg"},{"txId":28829070,"txHash":"14a99ae31112ed0ea24166c426a8f06c217e3282e58e5cad89881b673b7470df","txTime":"2022/01/27 02:59:43","block":6806292,"epoch":317,"slotNo":51686092,"epochSlotNo":105292,"stakeKey":"stake1uyyzqf2pz0y7wzlhlfhehlqgpj52jwzyszne5tnrykpy0gqe77rdk"},{"txId":28828737,"txHash":"09aba29ebfb299ea8b8d0dcb50b702e1d19f1814fdb6fa44e570382e845ef93f","txTime":"2022/01/27 02:56:57","block":6806284,"epoch":317,"slotNo":51685926,"epochSlotNo":105126,"stakeKey":"stake1u86thj4zfakcg0nvwacud477hmkh2whuur05lpkwf8eyjks6kc86p"},{"txId":28828155,"txHash":"f5a7194d99bdc9ab438b196ab6d65b3434e4490919abde03861101ba6f0b7193","txTime":"2022/01/27 02:50:57","block":6806270,"epoch":317,"slotNo":51685566,"epochSlotNo":104766,"stakeKey":"stake1u8ljl2le786yxa9epa3x4ffgtsafnlu6877qjj3agfura9c4cmwgp"},{"txId":28828151,"txHash":"54b5bf4141b68e22bbec64ec9927b03aef43f8bf3e32aeb8cf29ec971c0514d5","txTime":"2022/01/27 02:50:57","block":6806270,"epoch":317,"slotNo":51685566,"epochSlotNo":104766,"stakeKey":"stake1uxug9wn3gtzl0jcswe4yx5m8ju9klcr6clm2xe3mt76ah7q2833k9"},{"txId":28827362,"txHash":"967d97ee1851cbed3567a6608aa04209759c8aa32ab66850c7ce199d6637f867","txTime":"2022/01/27 02:44:50","block":6806248,"epoch":317,"slotNo":51685199,"epochSlotNo":104399,"stakeKey":"stake1uxvdgzjg59trxwualvhmcjxmhv3599uwdpstlrp5jzk0yussmg2um"},{"txId":28827195,"txHash":"3250c20523fdb8a9bbd317cabc0e5c500897bca285b4270fd639496c7188a832","txTime":"2022/01/27 02:43:10","block":6806244,"epoch":317,"slotNo":51685099,"epochSlotNo":104299,"stakeKey":"stake1u9pwg4w9gwc9wgjjkda6gzj0d5qc7vlkp47zlynk9yszuyg4lqgxx"},{"txId":28826453,"txHash":"c3f005ef18f5ff0a3d389845e8a4e3e18f39483fc456c89ac57b070856d9aba7","txTime":"2022/01/27 02:36:20","block":6806225,"epoch":317,"slotNo":51684689,"epochSlotNo":103889,"stakeKey":"stake1uy0fz0ckyleuuh3wy2v042npke98rl70z9k4w6k9064f4kcx640ln"},{"txId":28826018,"txHash":"32bccb192ae85eb8d9c723082fca1b4d34cd8ea8172da900e5ed3d206dbbe094","txTime":"2022/01/27 02:28:17","block":6806213,"epoch":317,"slotNo":51684206,"epochSlotNo":103406,"stakeKey":"stake1ux7d4xmyq0xc403gfs9n2ksqs83y3g2pquk8fch0l0chr9q9z5fvz"},{"txId":28826007,"txHash":"71be8e414cc92e1176ca015f5fb8867e128fbf712c7200ee7ba79d416304ca08","txTime":"2022/01/27 02:28:17","block":6806213,"epoch":317,"slotNo":51684206,"epochSlotNo":103406,"stakeKey":"stake1uy7juk6m0taenry4t0tv2pwtyqe7dwvk2aua3chhxrh633c7r57na"},{"txId":28825504,"txHash":"640047b4e60df97636b20b79ec71e895c58c58883bc13fd7db2266874a3d3ba3","txTime":"2022/01/27 02:22:45","block":6806201,"epoch":317,"slotNo":51683874,"epochSlotNo":103074,"stakeKey":"stake1u9dm0v3sdhsqzrk2txeg5sxu7l90plnua42l7xq5aqpes8g2u0qvx"},{"txId":28824150,"txHash":"c5cb2b93658a646609a16188469dc980411ac3a506a937162220de5888360bc2","txTime":"2022/01/27 02:11:51","block":6806168,"epoch":317,"slotNo":51683220,"epochSlotNo":102420,"stakeKey":"stake1uxzqvptrna2mp36aze8m05kpwhu8ysg036klam8n37qpecql9w4wm"},{"txId":28823647,"txHash":"9a3f32f8ff037e11b22e85774770c27a12936d89d74c4b1625d24f768414ef99","txTime":"2022/01/27 02:06:18","block":6806156,"epoch":317,"slotNo":51682887,"epochSlotNo":102087,"stakeKey":"stake1u9xt2kfesy8pgsxks43q390u66ch8za0unvttfe0cwxe83s8479at"},{"txId":28822931,"txHash":"d7fa85b7d82a4f8a50eb55a4b70ee442193112651dbb234db9ddc1861cf48413","txTime":"2022/01/27 02:00:37","block":6806136,"epoch":317,"slotNo":51682546,"epochSlotNo":101746,"stakeKey":"stake1ux0y63n3n6vpacj6ume2uz0y9pxmha06c87mhsx89rnlhns9xmm06"}],"totalItems":208271,"totalPages":10414,"currentPage":0}