{"data":[{"txId":59490157,"txHash":"43c4fa8e939180ec861821c71dab349160fecceb74a84d6e7c0b772678d0877e","txTime":"2023/01/12 04:07:24","block":8259029,"epoch":387,"slotNo":81930153,"epochSlotNo":109353,"stakeKey":"stake1u83saupj5t386xxltntjwp47qjekkw606608wgsz7jgh3jgt9qrvr"},{"txId":59490148,"txHash":"2394e8ea836952663311d98bc5ecc271b268e38fed65bf28ac48fa4eb78139c6","txTime":"2023/01/12 04:07:24","block":8259029,"epoch":387,"slotNo":81930153,"epochSlotNo":109353,"stakeKey":"stake1u8kmnrk66fgz3tgv0dem557lrx04ult2shvvxm2xvsjwkssvglp7u"},{"txId":59489960,"txHash":"ec4ba06af89419b5abadf2415f850274323e59a8f0201d7f2c08367f49811b96","txTime":"2023/01/12 04:03:14","block":8259013,"epoch":387,"slotNo":81929903,"epochSlotNo":109103,"stakeKey":"stake1uy6t9hk9wkprvzkhe8m96fxpum07dpjahfs38y6pm7d248c4sy57p"},{"txId":59489883,"txHash":"b6241d107565130edffa6f1c6afc2701532f27ae12cf1f3259ba6f4926bf5cef","txTime":"2023/01/12 04:01:29","block":8259003,"epoch":387,"slotNo":81929798,"epochSlotNo":108998,"stakeKey":"stake1uxfxtuf8ltagvkfeu36r957f5uf374j5lk3q7zvz58th4tqlrzfxa"},{"txId":59489724,"txHash":"1d962117387207e68d9e3ab2a8b8c2cca2db2174f440bc8ab14cc37fe5dbf9c3","txTime":"2023/01/12 03:57:29","block":8258996,"epoch":387,"slotNo":81929558,"epochSlotNo":108758,"stakeKey":"stake1u9s7lge0z080347eehuecf20qq54zhyyuwu6w3lxs5rt7ecv6ha0d"},{"txId":59489586,"txHash":"3bc649c1b682e1ec309f8aeda4bcea3abd2282d3faf803e7b413c034b29cdf5e","txTime":"2023/01/12 03:54:07","block":8258983,"epoch":387,"slotNo":81929356,"epochSlotNo":108556,"stakeKey":"stake1uxrkx52kyun4t58lmwaqgqzq0ah3ewz9qfvu3mgusrfn64cee44rw"},{"txId":59489519,"txHash":"a8e58682790ba1e64580e8f7ac35bc68155a397c8127b5cdf1bfd53e489e460b","txTime":"2023/01/12 03:52:41","block":8258976,"epoch":387,"slotNo":81929270,"epochSlotNo":108470,"stakeKey":"stake1uxd7u22uxclag94fhykq4w2acxk2s5q3mz2s4m3czunrcucyqjqds"},{"txId":59489439,"txHash":"fbaffca45b619364af1bb12b173a91dfa56d7706621adf692085243d07656260","txTime":"2023/01/12 03:51:00","block":8258969,"epoch":387,"slotNo":81929169,"epochSlotNo":108369,"stakeKey":"stake1u8sn42kymjwpwav683546dtdycqamphfr6cyskegmxzr2wcjf7fqm"},{"txId":59489234,"txHash":"866093c4806c9c4849b75908e071df5195dcf2c097cc4df22e4ebe5f01e6f0eb","txTime":"2023/01/12 03:46:30","block":8258955,"epoch":387,"slotNo":81928899,"epochSlotNo":108099,"stakeKey":"stake1uxhddqfdkmnp9erjyul8pgcysyfxr2qc54rjjuk7357e0uc03ztg2"},{"txId":59489198,"txHash":"ecaa3fc4db530198e8068c405cc25d8e0009ba4bed25f3db47a97dd2bf1a06ef","txTime":"2023/01/12 03:46:30","block":8258955,"epoch":387,"slotNo":81928899,"epochSlotNo":108099,"stakeKey":"stake1uykkfjlven3a6xna7n35a0v6hfg8csgn67ry2w3pue503rss8pklg"},{"txId":59489113,"txHash":"5ea20c91bcc5d8b37e3669f22581fa3e4d917cd3c13267408ef76cad5f4fb2a2","txTime":"2023/01/12 03:44:11","block":8258950,"epoch":387,"slotNo":81928760,"epochSlotNo":107960,"stakeKey":"stake1u8wtfy4ck6h0rz2aekys378v6r4kq6h9nud66x0c5s2yc6qwaws6f"},{"txId":59489107,"txHash":"ffc120a8704c3a3e9c1f1760d50663b9dec8dec96dbbfe3367bb2f131865153c","txTime":"2023/01/12 03:44:11","block":8258950,"epoch":387,"slotNo":81928760,"epochSlotNo":107960,"stakeKey":"stake1u8m9l6xax3e98duverlezujerzanyjlgmgtlf5as5vkmhsgnj00ee"},{"txId":59488905,"txHash":"26fcb4071ea1ef2240d24718211ab0fe9e72b059613a7af3a1e0e4709d7e23ce","txTime":"2023/01/12 03:38:27","block":8258939,"epoch":387,"slotNo":81928416,"epochSlotNo":107616,"stakeKey":"stake1u958uvdj3jn6d7nc9aflyj2hpe4uz422490cfkuaufehzzsc76wn8"},{"txId":59488832,"txHash":"06eea934e12dab46252147d8eb5d186d5bc6dec0e16985ead288e6aebaa0e242","txTime":"2023/01/12 03:36:59","block":8258933,"epoch":387,"slotNo":81928328,"epochSlotNo":107528,"stakeKey":"stake1uyw88vkgh59sp8tnu3z7renv8xa5pt9yuvpxh9nqgufqvyqrmq7zp"},{"txId":59488814,"txHash":"b6fa428975a31311d1d795903bcc991d0903ef71103f0d6ae23cb1c33da11973","txTime":"2023/01/12 03:36:50","block":8258931,"epoch":387,"slotNo":81928319,"epochSlotNo":107519,"stakeKey":"stake1uy7y8rr3mgzvp9gmpcc475nfr8x5w7zdz5x0kv8qvl39fcgexyeee"},{"txId":59488780,"txHash":"5c80ee7aeac8862b76c09185d2c1eb4efa6b53903ab91848b9e6717bbb3bbd68","txTime":"2023/01/12 03:36:16","block":8258930,"epoch":387,"slotNo":81928285,"epochSlotNo":107485,"stakeKey":"stake1uycf96zfczkahcrhfx8ne9quzjs7xyz4mgsqe7hvrekxsjsjsevm5"},{"txId":59488760,"txHash":"24863976ec9e662a8efd63379927c22ee75701d6fae9badcc393e2ef4a0bf2da","txTime":"2023/01/12 03:35:44","block":8258929,"epoch":387,"slotNo":81928253,"epochSlotNo":107453,"stakeKey":"stake1u8mjjuwkd64ktctmmddn48v9tu7mxa0g9np9za3c0nlf76q5a7evk"},{"txId":59488408,"txHash":"5011e67edb2456378ac6df4ba69d3da0dc89a7eb0ddb6bcb080275df1face705","txTime":"2023/01/12 03:26:50","block":8258904,"epoch":387,"slotNo":81927719,"epochSlotNo":106919,"stakeKey":"stake1u93893ff2lmgh7kgej0u8u90n64vwpw3tcpcnc46nw5znrsu69jv9"},{"txId":59488390,"txHash":"ab5fbad4e12561570b47df6832bfc46bf410a524eef741e6f1a6591b037d7c59","txTime":"2023/01/12 03:26:50","block":8258904,"epoch":387,"slotNo":81927719,"epochSlotNo":106919,"stakeKey":"stake1uy2rrdfyw7eutkc8tt5px5p75hg3eqvdscc40p8et93nqncw3p5dw"},{"txId":59488378,"txHash":"83db39ac9e4d415500639e21fd064f465aa6f26b9cda729334c76e74b4594afa","txTime":"2023/01/12 03:26:00","block":8258903,"epoch":387,"slotNo":81927669,"epochSlotNo":106869,"stakeKey":"stake1uyezacy37quezhftgqezlqmrttnpad7h0rzlkcf46edmevscg3lk0"}],"totalItems":1643800,"totalPages":82190,"currentPage":0}