{"data":[{"hash":"72ec3c2f5d7ab05b7525a7e781e2eaf01d0ec41cb650bf068adc169285e4d17e","blockNo":7870530,"blockHash":"98576b597b36824294640b00cb98b8ce00fd2ee3cd53a9e2d1ce3cfd16b45a5e","epochNo":368,"epochSlotNo":323333,"slot":73936133,"time":"2022/10/11 15:33:44","addressesInput":["addr1qytm0lx4pz9alcqmacx73285sky7a3vdye73nr6juxztmn3pfffsvtslykcd6m89fcty2mk7m2we9w8yhf2394k9u8esf9j2cs","addr1zxgx3far7qygq0k6epa0zcvcvrevmn0ypsnfsue94nsn3tvpw288a4x0xf8pxgcntelxmyclq83s0ykeehchz2wtspks905plm"],"addressesOutput":["addr1qxt5wn67hukr6wfxgmcmzdptamvgfhx3r59jm9ajdq5g4xmp4g7lpky4lh0kumy8gwqfk6kt60w7aqwlk90tf6cl5kxqpsaz26","addr1q9cwvremt6n320s2e3agq0jyq82yhrk3htsu0w426xnz5us70z4w0jgvcdkkynmm8wmds66jd9kusnjfpu6raw5fqp0sr07p5w","addr1q99ah3k9vndpyzkhkdmaempssft3sjhun2uaschlwjy8xf425p0l67z2d5swcty6rjc47g7jjtuvlp9tn3fc70hl8j9qgt786e","addr1qytm0lx4pz9alcqmacx73285sky7a3vdye73nr6juxztmn3pfffsvtslykcd6m89fcty2mk7m2we9w8yhf2394k9u8esf9j2cs","addr1qytm0lx4pz9alcqmacx73285sky7a3vdye73nr6juxztmn3pfffsvtslykcd6m89fcty2mk7m2we9w8yhf2394k9u8esf9j2cs","addr1qytm0lx4pz9alcqmacx73285sky7a3vdye73nr6juxztmn3pfffsvtslykcd6m89fcty2mk7m2we9w8yhf2394k9u8esf9j2cs"],"fee":409301,"totalOutput":297488699,"tokens":[]},{"hash":"8652f0c39145c79448c15ecfee7d436784036b10dc31cc1ac530b794a4e625d7","blockNo":7870530,"blockHash":"98576b597b36824294640b00cb98b8ce00fd2ee3cd53a9e2d1ce3cfd16b45a5e","epochNo":368,"epochSlotNo":323333,"slot":73936133,"time":"2022/10/11 15:33:44","addressesInput":["addr1qyryk4af3slcltrzzxsxquaq72snf46cnahymt5nrfca9uzv8ws9tj4prkge7gtk7ymzfgwcvuq3sc6kacdnv5payswqdnu8ju"],"addressesOutput":["DdzFFzCqrhsqPiRD4rD67omY8mfG8dqzibV5KfhPGB2SBQNZh3gyVXCoh62YV34p4M2LxyNha5vexoSnWEiKqxjAsndC214U6uiXb4WG"],"fee":166585,"totalOutput":11062807,"tokens":[]},{"hash":"f365a633d563dfa79775ff64fee4359a8e111af286a458b0fad871d355e310a3","blockNo":7870530,"blockHash":"98576b597b36824294640b00cb98b8ce00fd2ee3cd53a9e2d1ce3cfd16b45a5e","epochNo":368,"epochSlotNo":323333,"slot":73936133,"time":"2022/10/11 15:33:44","addressesInput":["addr1qxh6p66m2n3x878x5qjxx625j6ghxgj6833jmjp403e3ds09p7wt94vpr3mkphrw0nayn6u90kx78wc3e9xeyjqxlq0qh22n44","addr1qxh6p66m2n3x878x5qjxx625j6ghxgj6833jmjp403e3ds09p7wt94vpr3mkphrw0nayn6u90kx78wc3e9xeyjqxlq0qh22n44","addr1qxh6p66m2n3x878x5qjxx625j6ghxgj6833jmjp403e3ds09p7wt94vpr3mkphrw0nayn6u90kx78wc3e9xeyjqxlq0qh22n44"],"addressesOutput":["addr1q9xr5x62pan7sw5y2kepdhjjud9x9at3twuquetzvxd0nm0mcq0yyfp5vukd5lfejrckmnatwtpwuzvx95aq7camn39sd974jv","addr1qxh6p66m2n3x878x5qjxx625j6ghxgj6833jmjp403e3ds09p7wt94vpr3mkphrw0nayn6u90kx78wc3e9xeyjqxlq0qh22n44","addr1qxh6p66m2n3x878x5qjxx625j6ghxgj6833jmjp403e3ds09p7wt94vpr3mkphrw0nayn6u90kx78wc3e9xeyjqxlq0qh22n44"],"fee":180989,"totalOutput":37207895,"tokens":[]},{"hash":"84a97ec92fd93d22e31d97ccc4a23dfb1686122915e0482486390da493d4360c","blockNo":7870530,"blockHash":"98576b597b36824294640b00cb98b8ce00fd2ee3cd53a9e2d1ce3cfd16b45a5e","epochNo":368,"epochSlotNo":323333,"slot":73936133,"time":"2022/10/11 15:33:44","addressesInput":["addr1q8n46upfjylgrjcvkn5wpq94mqef7t2s9526nysfgsq8ectqalwsyuju44t3v90f95n6w6qmln92hqarqmugnpsqh83qrunwc3","addr1zxgx3far7qygq0k6epa0zcvcvrevmn0ypsnfsue94nsn3tvpw288a4x0xf8pxgcntelxmyclq83s0ykeehchz2wtspks905plm"],"addressesOutput":["addr1q8n46upfjylgrjcvkn5wpq94mqef7t2s9526nysfgsq8ectqalwsyuju44t3v90f95n6w6qmln92hqarqmugnpsqh83qrunwc3","addr1q8n46upfjylgrjcvkn5wpq94mqef7t2s9526nysfgsq8ectqalwsyuju44t3v90f95n6w6qmln92hqarqmugnpsqh83qrunwc3"],"fee":263984,"totalOutput":136662243,"tokens":[]},{"hash":"02a5d41ed1ff5b30443a616106d1326435faa361e17011a03cb65b4a6995158e","blockNo":7870530,"blockHash":"98576b597b36824294640b00cb98b8ce00fd2ee3cd53a9e2d1ce3cfd16b45a5e","epochNo":368,"epochSlotNo":323333,"slot":73936133,"time":"2022/10/11 15:33:44","addressesInput":["addr1q8730t898affvvnsflgcamzk923su5hsz9xn2eqzn7h0g70az7kw206jjce8qn733mk9v24rpef0qy2dx4jq98aw73usntqtye","addr1q8730t898affvvnsflgcamzk923su5hsz9xn2eqzn7h0g70az7kw206jjce8qn733mk9v24rpef0qy2dx4jq98aw73usntqtye"],"addressesOutput":["addr1q8730t898affvvnsflgcamzk923su5hsz9xn2eqzn7h0g70az7kw206jjce8qn733mk9v24rpef0qy2dx4jq98aw73usntqtye","addr1q8730t898affvvnsflgcamzk923su5hsz9xn2eqzn7h0g70az7kw206jjce8qn733mk9v24rpef0qy2dx4jq98aw73usntqtye"],"fee":233854,"totalOutput":204069851,"tokens":[]},{"hash":"516f3253886d9b22db0f30a4feceb31df6d6b946020f8980c4c3778aec468757","blockNo":7870530,"blockHash":"98576b597b36824294640b00cb98b8ce00fd2ee3cd53a9e2d1ce3cfd16b45a5e","epochNo":368,"epochSlotNo":323333,"slot":73936133,"time":"2022/10/11 15:33:44","addressesInput":["addr1qxrygckry8mafam4lhfzyaatdp4gu8pt68tfu3kuntc76uehtgun0d06qagf2shluk25e3r9znsyg6khhnlv3nn9003s2lz9r5"],"addressesOutput":["addr1qxv847eqtxytmaccqj0pzjuue7gghue4lt8gd2l3gnjj74q2lm4rmt6lpld590628lhy5te4q08qz5z3sfzg0e2j3u6sx7swlx","addr1qxrygckry8mafam4lhfzyaatdp4gu8pt68tfu3kuntc76uehtgun0d06qagf2shluk25e3r9znsyg6khhnlv3nn9003s2lz9r5"],"fee":184069,"totalOutput":80171596,"tokens":[]},{"hash":"05b9ae109e736b9e8a6bc4da62770c7c3027729f3149286f14a585f527fa3080","blockNo":7870530,"blockHash":"98576b597b36824294640b00cb98b8ce00fd2ee3cd53a9e2d1ce3cfd16b45a5e","epochNo":368,"epochSlotNo":323333,"slot":73936133,"time":"2022/10/11 15:33:44","addressesInput":["addr1qy6p3cq4z3fex7y5aq0lj0ha5gc564sqlwgx2r7hlzt4v76geru2czpumxykmeqpxm9tuxnydygt4qk2yxz9fv2umulsvwlm8n"],"addressesOutput":["addr1q8x2rdtccuhlkzc9pq8rn22zf0z24k0t33wfzsl0xl46ea5vm989lk3m4h56qjqn3tkgy3cqc2rdlzk2fpuf26m7c3hsrne89t"],"fee":263578,"totalOutput":7000000,"tokens":[]},{"hash":"74674239829de6844857cf20b65c2c71224b73afe5f74baed48ac65f830dbd43","blockNo":7870530,"blockHash":"98576b597b36824294640b00cb98b8ce00fd2ee3cd53a9e2d1ce3cfd16b45a5e","epochNo":368,"epochSlotNo":323333,"slot":73936133,"time":"2022/10/11 15:33:44","addressesInput":["addr1v8adw2u5gm6klh7jr2eye3wq6plnkeuhnj2zqrrmyfv4mqs0yst0c"],"addressesOutput":["addr1q8vppx25chmesqcjvlwfd8ldhpuspegajj0kehy3za6cpudj7nkpgdq2px35u5sa4qghxfdlz6zpn0dp4k44urz4vkpq0uple9","addr1v8adw2u5gm6klh7jr2eye3wq6plnkeuhnj2zqrrmyfv4mqs0yst0c"],"fee":174100,"totalOutput":742739144146,"tokens":[]},{"hash":"a43fc65e643d5dbae0b91afa3cddcfacfe88c75051d4c00292dbd7ad0733feaa","blockNo":7870530,"blockHash":"98576b597b36824294640b00cb98b8ce00fd2ee3cd53a9e2d1ce3cfd16b45a5e","epochNo":368,"epochSlotNo":323333,"slot":73936133,"time":"2022/10/11 15:33:44","addressesInput":["addr1q9yt8yts65v2e0sceyd0x7wdqpzq4ujhsqwmaw7375q2l6xk8ge4phhlycwkg394tshfz85zkzjv3a8570x7g055hrcsp6hd7h"],"addressesOutput":["addr1zxgx3far7qygq0k6epa0zcvcvrevmn0ypsnfsue94nsn3tvpw288a4x0xf8pxgcntelxmyclq83s0ykeehchz2wtspks905plm","addr1q9yt8yts65v2e0sceyd0x7wdqpzq4ujhsqwmaw7375q2l6xk8ge4phhlycwkg394tshfz85zkzjv3a8570x7g055hrcsp6hd7h"],"fee":418237,"totalOutput":46697833,"tokens":[]},{"hash":"647c1ccb9e6844fef4cc5f11d134c5170b65b25934bf84b5ba304741e1da8268","blockNo":7870530,"blockHash":"98576b597b36824294640b00cb98b8ce00fd2ee3cd53a9e2d1ce3cfd16b45a5e","epochNo":368,"epochSlotNo":323333,"slot":73936133,"time":"2022/10/11 15:33:44","addressesInput":["addr1q9rn0hnzt2gxl69gd8duvfwlcarsh9e34ahar7j7gy3fzfty5chkh2p5mr2qhr29ssfhfzesfr6pax2sq6c7a0q6ng7s0hvvf7","addr1w999n67e86jn6xal07pzxtrmqynspgx0fwmcmpua4wc6yzsxpljz3"],"addressesOutput":["addr1q9cwvremt6n320s2e3agq0jyq82yhrk3htsu0w426xnz5us70z4w0jgvcdkkynmm8wmds66jd9kusnjfpu6raw5fqp0sr07p5w","addr1q9esm5sasjd04g0xqp8fkjkvacpnkfequsw9pv7uqzk98n30yq3fy3942j5jy3vv3u3ta7t3xx00aspcahyc45al69ms94v2qx","addr1qycl5vqksvph4rrae98xmpeqqkpfex0c0gx8ptfg6cg82mey8gqdzrwel2a5ukrtc5pesqdkuc4rwudfdcptccppsqxq9eveev","addr1q9rn0hnzt2gxl69gd8duvfwlcarsh9e34ahar7j7gy3fzfty5chkh2p5mr2qhr29ssfhfzesfr6pax2sq6c7a0q6ng7s0hvvf7","addr1q9rn0hnzt2gxl69gd8duvfwlcarsh9e34ahar7j7gy3fzfty5chkh2p5mr2qhr29ssfhfzesfr6pax2sq6c7a0q6ng7s0hvvf7","addr1q9rn0hnzt2gxl69gd8duvfwlcarsh9e34ahar7j7gy3fzfty5chkh2p5mr2qhr29ssfhfzesfr6pax2sq6c7a0q6ng7s0hvvf7","addr1q9rn0hnzt2gxl69gd8duvfwlcarsh9e34ahar7j7gy3fzfty5chkh2p5mr2qhr29ssfhfzesfr6pax2sq6c7a0q6ng7s0hvvf7","addr1q9rn0hnzt2gxl69gd8duvfwlcarsh9e34ahar7j7gy3fzfty5chkh2p5mr2qhr29ssfhfzesfr6pax2sq6c7a0q6ng7s0hvvf7"],"fee":796777,"totalOutput":500927223,"tokens":[]},{"hash":"500437395659c074fcb4638ae94ef29fd66fa46b83e96634150447a11d1a727b","blockNo":7870530,"blockHash":"98576b597b36824294640b00cb98b8ce00fd2ee3cd53a9e2d1ce3cfd16b45a5e","epochNo":368,"epochSlotNo":323333,"slot":73936133,"time":"2022/10/11 15:33:44","addressesInput":["addr1qxedcz2zpq5a85d6g3zxavhuvu3fkqhpe3qaqy6jwrhg48qxl64ghnyg9gavnhlfhk72m90usjhqysceydehc6s4cc2smusqya","addr1qxedcz2zpq5a85d6g3zxavhuvu3fkqhpe3qaqy6jwrhg48qxl64ghnyg9gavnhlfhk72m90usjhqysceydehc6s4cc2smusqya"],"addressesOutput":["addr1qytuhuxczwk8z6slfsx53pcc5q0tcyd3u4ths6hz66gfxxev6zna3ejah98m243qu8xkuvre6yms3uhtdxr9t9grqnqqwm5jrg","addr1qxedcz2zpq5a85d6g3zxavhuvu3fkqhpe3qaqy6jwrhg48qxl64ghnyg9gavnhlfhk72m90usjhqysceydehc6s4cc2smusqya"],"fee":171837,"totalOutput":48115483,"tokens":[]},{"hash":"380a35d45a46460a7ca699e4ad1138cdcce4054dd45b1737ba9809410de36b51","blockNo":7870530,"blockHash":"98576b597b36824294640b00cb98b8ce00fd2ee3cd53a9e2d1ce3cfd16b45a5e","epochNo":368,"epochSlotNo":323333,"slot":73936133,"time":"2022/10/11 15:33:44","addressesInput":["addr1qys8nhj3m8pw8js4gtmmlyrh37f266alks2jmj46vu0l3arqwpn3f82a9yengwlha233atdn2jkysr3fahvpkmsf6xlq39gkjs","addr1wy30zf2g4xc7v872fdweewrlj3lh2lgttelmydn0cvhyplsg3vnkq"],"addressesOutput":["addr1qys8nhj3m8pw8js4gtmmlyrh37f266alks2jmj46vu0l3arqwpn3f82a9yengwlha233atdn2jkysr3fahvpkmsf6xlq39gkjs","addr1wy30zf2g4xc7v872fdweewrlj3lh2lgttelmydn0cvhyplsg3vnkq"],"fee":827293,"totalOutput":9033954,"tokens":[]},{"hash":"35f437cbde7e75a269e27e31e102095e724e77aac37ec0dd2ecd07f6d73cd431","blockNo":7870530,"blockHash":"98576b597b36824294640b00cb98b8ce00fd2ee3cd53a9e2d1ce3cfd16b45a5e","epochNo":368,"epochSlotNo":323333,"slot":73936133,"time":"2022/10/11 15:33:44","addressesInput":["DdzFFzCqrhsq7X5q2KVQgnLdxhm5gYQ8pNLHF4mAE6vdLBzeAvEoJogesu5nbmaEf1gHjtMzjS9YFQ41c49Bv97UVsMizwjvYqDQGMDi"],"addressesOutput":["addr1vxuq8qack0ctdpx43frad4yt8zqel04mj98wavt9akvrwgqnjk3v0","DdzFFzCqrhtD5eGAKWL97U8oJ688rZPMUPVDKXXst919pV7ub23yo7Tan4WF4ipTAQvhyFcFEnMoj53JjSbqM32pftv9gr5hWrjP8kso"],"fee":172585,"totalOutput":541271763,"tokens":[]},{"hash":"da84ad85b3c0fb39ffc849d10d0d45d5917291179b10a4a2197a8525a9b98854","blockNo":7870530,"blockHash":"98576b597b36824294640b00cb98b8ce00fd2ee3cd53a9e2d1ce3cfd16b45a5e","epochNo":368,"epochSlotNo":323333,"slot":73936133,"time":"2022/10/11 15:33:44","addressesInput":["addr1q9xdwemmw7yhlj8g373cklyuk8v5v7mt8cwp9haxcgqjvhjjspjknuazxtpwvpxmqkq2vv8dfrlr92km3lv4x2uxsp7sp850k9","addr1q9xdwemmw7yhlj8g373cklyuk8v5v7mt8cwp9haxcgqjvhjjspjknuazxtpwvpxmqkq2vv8dfrlr92km3lv4x2uxsp7sp850k9","addr1q9xdwemmw7yhlj8g373cklyuk8v5v7mt8cwp9haxcgqjvhjjspjknuazxtpwvpxmqkq2vv8dfrlr92km3lv4x2uxsp7sp850k9"],"addressesOutput":["addr1zxgx3far7qygq0k6epa0zcvcvrevmn0ypsnfsue94nsn3tvpw288a4x0xf8pxgcntelxmyclq83s0ykeehchz2wtspks905plm","addr1q9xdwemmw7yhlj8g373cklyuk8v5v7mt8cwp9haxcgqjvhjjspjknuazxtpwvpxmqkq2vv8dfrlr92km3lv4x2uxsp7sp850k9","addr1q9xdwemmw7yhlj8g373cklyuk8v5v7mt8cwp9haxcgqjvhjjspjknuazxtpwvpxmqkq2vv8dfrlr92km3lv4x2uxsp7sp850k9"],"fee":245097,"totalOutput":7329769,"tokens":[]},{"hash":"55db20d3319dba0484792d26d95dbdf4fc4dcd591744f35ed9fdbc41cc626577","blockNo":7870530,"blockHash":"98576b597b36824294640b00cb98b8ce00fd2ee3cd53a9e2d1ce3cfd16b45a5e","epochNo":368,"epochSlotNo":323333,"slot":73936133,"time":"2022/10/11 15:33:44","addressesInput":["addr1qxsgae4x0z3q0hjjqcwya7vzp9f9ex52lrly0wadmfgvhpfyzttqmp0evfcrwxkda77m5lg8c9ta2aafdf83jxyvhw3sgp9v30","addr1qxsgae4x0z3q0hjjqcwya7vzp9f9ex52lrly0wadmfgvhpfyzttqmp0evfcrwxkda77m5lg8c9ta2aafdf83jxyvhw3sgp9v30","addr1qxsgae4x0z3q0hjjqcwya7vzp9f9ex52lrly0wadmfgvhpfyzttqmp0evfcrwxkda77m5lg8c9ta2aafdf83jxyvhw3sgp9v30","addr1qxsgae4x0z3q0hjjqcwya7vzp9f9ex52lrly0wadmfgvhpfyzttqmp0evfcrwxkda77m5lg8c9ta2aafdf83jxyvhw3sgp9v30","addr1qxsgae4x0z3q0hjjqcwya7vzp9f9ex52lrly0wadmfgvhpfyzttqmp0evfcrwxkda77m5lg8c9ta2aafdf83jxyvhw3sgp9v30","addr1qxsgae4x0z3q0hjjqcwya7vzp9f9ex52lrly0wadmfgvhpfyzttqmp0evfcrwxkda77m5lg8c9ta2aafdf83jxyvhw3sgp9v30","addr1qxsgae4x0z3q0hjjqcwya7vzp9f9ex52lrly0wadmfgvhpfyzttqmp0evfcrwxkda77m5lg8c9ta2aafdf83jxyvhw3sgp9v30","addr1qxsgae4x0z3q0hjjqcwya7vzp9f9ex52lrly0wadmfgvhpfyzttqmp0evfcrwxkda77m5lg8c9ta2aafdf83jxyvhw3sgp9v30","addr1qxsgae4x0z3q0hjjqcwya7vzp9f9ex52lrly0wadmfgvhpfyzttqmp0evfcrwxkda77m5lg8c9ta2aafdf83jxyvhw3sgp9v30","addr1qxsgae4x0z3q0hjjqcwya7vzp9f9ex52lrly0wadmfgvhpfyzttqmp0evfcrwxkda77m5lg8c9ta2aafdf83jxyvhw3sgp9v30","addr1qxsgae4x0z3q0hjjqcwya7vzp9f9ex52lrly0wadmfgvhpfyzttqmp0evfcrwxkda77m5lg8c9ta2aafdf83jxyvhw3sgp9v30","addr1qxsgae4x0z3q0hjjqcwya7vzp9f9ex52lrly0wadmfgvhpfyzttqmp0evfcrwxkda77m5lg8c9ta2aafdf83jxyvhw3sgp9v30"],"addressesOutput":["addr1qyzpd6se9dm3apepx6x9atg7fsrtgdch47wvmy5tucvjq6pmrgatdma7fms0jmx08mn37ykzuqrlgryqw43z59j5qk5qv03lp4","addr1q95sgxkwl3ywgkr7797fw6n7e9ng4gc58anhxhk7a72ra33yzttqmp0evfcrwxkda77m5lg8c9ta2aafdf83jxyvhw3sdal04q"],"fee":189481,"totalOutput":23810519,"tokens":[]},{"hash":"138dbd94611de7e730e7ece37a2d6e62ec70fb00130fdd5c22ec2cd498d4ad77","blockNo":7870530,"blockHash":"98576b597b36824294640b00cb98b8ce00fd2ee3cd53a9e2d1ce3cfd16b45a5e","epochNo":368,"epochSlotNo":323333,"slot":73936133,"time":"2022/10/11 15:33:44","addressesInput":["addr1wxdct40gvyv525zlq79wahkuhmgadjs3q5lkrclemxvlu3qyda7l2","addr1qxvpm5gz78txjhwmr4jnm8s4t2zed9hzez90f08zkhczm7vdrunjkxx2h4qhd8jp45asxaqcfd9g5f565ne0098j83qs7pqf3m","addr1qxvpm5gz78txjhwmr4jnm8s4t2zed9hzez90f08zkhczm7vdrunjkxx2h4qhd8jp45asxaqcfd9g5f565ne0098j83qs7pqf3m"],"addressesOutput":["addr1qxkmr0m22xeqludcg5rjdmecjxasu9fat0680qehtcsnftaadgykewa9ufvegeuca9yyq03d9v7ea2y2zthgu7hfgjtsddp6gr","addr1wxdct40gvyv525zlq79wahkuhmgadjs3q5lkrclemxvlu3qyda7l2","addr1qxvpm5gz78txjhwmr4jnm8s4t2zed9hzez90f08zkhczm7vdrunjkxx2h4qhd8jp45asxaqcfd9g5f565ne0098j83qs7pqf3m"],"fee":602085,"totalOutput":397327621,"tokens":[]},{"hash":"a7903219a9dd090da5621b9a5b57e39e6ce2514d2dea49e2777f8dbdce17aa27","blockNo":7870530,"blockHash":"98576b597b36824294640b00cb98b8ce00fd2ee3cd53a9e2d1ce3cfd16b45a5e","epochNo":368,"epochSlotNo":323333,"slot":73936133,"time":"2022/10/11 15:33:44","addressesInput":["addr1vy4ulpy4s5yp5f82n824llmnlv8rsz3k9rd2l0vkkenl4es42vy34"],"addressesOutput":["addr1vyzdl9d6njtjddx28ed35kwnkpxx7hltjzzq2u7crjy5jfqgqljxc","addr1q8h3kcyx7xulcz6hmql2g8nc7vrdf6pfw4vsm3w432mtkdwa4t0ehva2c8lcw5zjkqeytft8c2kah8us29ad0y0jxyrsye0w9x"],"fee":200393,"totalOutput":3799607,"tokens":[]},{"hash":"c5cb74d1ed798990b4b07f994b7b77ce51108d50c24c0292ec1ecc8e429e0a65","blockNo":7870529,"blockHash":"4ac4395ef83a13f062f8955b47e4914d7b936b6a96eaabffd590773fcb76b234","epochNo":368,"epochSlotNo":323316,"slot":73936116,"time":"2022/10/11 15:33:27","addressesInput":["addr1qyzlfzct4ack4kn6jmtrpe0cay30zfuv7vrnjy8veywkfvd5epeulnymd89y9k4zuk9l3sny6rxxm2322mwzvxjphmlsn850p5"],"addressesOutput":["addr1qy8q0djnyp0ajmhzctmh5vdj8sdnl7m0k0s96qnlw28qgex2h8y4gwedd2z2nx6544nalel0zd0g0kel44c96xy3vxvqffdrrw","addr1qxasqv7epzf2sp5a94n5cq7tfgtgpuyaw6mu05mm2jamj6d5epeulnymd89y9k4zuk9l3sny6rxxm2322mwzvxjphmlsaqt4p2"],"fee":168317,"totalOutput":70711758,"tokens":[]},{"hash":"537b9f79b435fd874dfa25451a43e0ebed00e3ba9c212db5473066c924b6b4c1","blockNo":7870529,"blockHash":"4ac4395ef83a13f062f8955b47e4914d7b936b6a96eaabffd590773fcb76b234","epochNo":368,"epochSlotNo":323316,"slot":73936116,"time":"2022/10/11 15:33:27","addressesInput":["addr1zxgx3far7qygq0k6epa0zcvcvrevmn0ypsnfsue94nsn3tvpw288a4x0xf8pxgcntelxmyclq83s0ykeehchz2wtspks905plm","addr1qy93cuzqk0kjnfwc9xu0qvfuq7z7f0d62cftfu9edp4vt723kqm8rcc88hcw2htkwd297kepxrnrh0nxmf2erelcem8qgajhzu"],"addressesOutput":["addr1q8x62ky859wlxtm0364q9tasgvsphvaj9qr7quvgj9dwd66979etxfvj2fpwphf52fzurtjdh74wgmqmsdq787wsm5mqau9g9w","addr1q9cwvremt6n320s2e3agq0jyq82yhrk3htsu0w426xnz5us70z4w0jgvcdkkynmm8wmds66jd9kusnjfpu6raw5fqp0sr07p5w","addr1qys7yejzk6qjwn24l853ngzlgphtjklaxs7khz42r4pt9m4npdx6stcn8rjfkg8egndp382qym968dgl4r2pmhd8yfws9qexf3","addr1qy93cuzqk0kjnfwc9xu0qvfuq7z7f0d62cftfu9edp4vt723kqm8rcc88hcw2htkwd297kepxrnrh0nxmf2erelcem8qgajhzu","addr1qy93cuzqk0kjnfwc9xu0qvfuq7z7f0d62cftfu9edp4vt723kqm8rcc88hcw2htkwd297kepxrnrh0nxmf2erelcem8qgajhzu"],"fee":395809,"totalOutput":60799291,"tokens":[]},{"hash":"4d319bddd7da09feae0edc739a900af21dcb2958ed8c4196f931cef3104352ed","blockNo":7870529,"blockHash":"4ac4395ef83a13f062f8955b47e4914d7b936b6a96eaabffd590773fcb76b234","epochNo":368,"epochSlotNo":323316,"slot":73936116,"time":"2022/10/11 15:33:27","addressesInput":["addr1q9d5wwfa6y4250mn08xzf6uqtsh9zx8q93453slteg4qq5k439hlz8xpnfv8fmap9x38nzclkree73jwlvpltzfgfxpq89049m","addr1w999n67e86jn6xal07pzxtrmqynspgx0fwmcmpua4wc6yzsxpljz3","addr1q9d5wwfa6y4250mn08xzf6uqtsh9zx8q93453slteg4qq5k439hlz8xpnfv8fmap9x38nzclkree73jwlvpltzfgfxpq89049m","addr1q9d5wwfa6y4250mn08xzf6uqtsh9zx8q93453slteg4qq5k439hlz8xpnfv8fmap9x38nzclkree73jwlvpltzfgfxpq89049m","addr1q9d5wwfa6y4250mn08xzf6uqtsh9zx8q93453slteg4qq5k439hlz8xpnfv8fmap9x38nzclkree73jwlvpltzfgfxpq89049m","addr1q9d5wwfa6y4250mn08xzf6uqtsh9zx8q93453slteg4qq5k439hlz8xpnfv8fmap9x38nzclkree73jwlvpltzfgfxpq89049m","addr1q9d5wwfa6y4250mn08xzf6uqtsh9zx8q93453slteg4qq5k439hlz8xpnfv8fmap9x38nzclkree73jwlvpltzfgfxpq89049m"],"addressesOutput":["addr1q9cwvremt6n320s2e3agq0jyq82yhrk3htsu0w426xnz5us70z4w0jgvcdkkynmm8wmds66jd9kusnjfpu6raw5fqp0sr07p5w","addr1q9gqmqpz03qmat6xz52quydfvk3fjzfxprm72d6qh2x5plylv37kp0ut3awpnnhm9cq47399kmut8ycl3tkayzugsx5qzrxgcz","addr1q9dy7s5kgklfzqe4r6ctwnnel7rewkrs6pcr0zh0dhmt2fywtp39y4hrt4d9d05jk2utu9djl42rjvkhcq6mptjh0z0s0mm62p","addr1q9d5wwfa6y4250mn08xzf6uqtsh9zx8q93453slteg4qq5k439hlz8xpnfv8fmap9x38nzclkree73jwlvpltzfgfxpq89049m"],"fee":1290210,"totalOutput":246886022,"tokens":[]}],"totalItems":51644798,"totalPages":2582240,"currentPage":0}