{"data":[{"hash":"139f95db224b0f37d3cc1869a32704b0575c19443890ac6be9028c3144613991","blockNo":7924580,"blockHash":"eeea017ad978ff3557b46e60fabbff67dc6490a0c10460e06fc9c66c4866dc01","epochNo":371,"epochSlotNo":134921,"slot":75043721,"time":"2022/10/24 11:13:32","addressesInput":["addr1qy0xznhgdhqj9u4g6jjdntf2cxy5lyad8j2p6a6dp8jwwttfq4uncdzu6hqlxn7gva2xsaln40x226fl8fsnqyyvzxtqqm3qw9","addr1qy0xznhgdhqj9u4g6jjdntf2cxy5lyad8j2p6a6dp8jwwttfq4uncdzu6hqlxn7gva2xsaln40x226fl8fsnqyyvzxtqqm3qw9"],"addressesOutput":["addr1qxh82p5jjfxzzrxdafvwlpd78crvq67lnz8yt5sdwdvsnvmptzp7uemy34mcltku4dl69fqc3edzxyqqwt4469pm9weq50gtvp","addr1qy0xznhgdhqj9u4g6jjdntf2cxy5lyad8j2p6a6dp8jwwttfq4uncdzu6hqlxn7gva2xsaln40x226fl8fsnqyyvzxtqqm3qw9","addr1qy0xznhgdhqj9u4g6jjdntf2cxy5lyad8j2p6a6dp8jwwttfq4uncdzu6hqlxn7gva2xsaln40x226fl8fsnqyyvzxtqqm3qw9"],"fee":194189,"totalOutput":38348972,"tokens":[]},{"hash":"d18d7579926b8f6d2d018b254388cf324a4f0c176f7b0ccc86b09f4f7a7621e1","blockNo":7924481,"blockHash":"523a4a6e7e0752c52219ec6cda5f9d3f2f07154b091725ba54ae1976f9c0607e","epochNo":371,"epochSlotNo":133048,"slot":75041848,"time":"2022/10/24 10:42:19","addressesInput":["addr1qxn0kuqk8mysdv8rpqhl39vp6njnxd7dw3yvkcvdk9ke4revmezswc6ql6x9kekl6zm3ptc6g9jlwln9lt6sml5mcl0sndmr62"],"addressesOutput":["addr1zyq0kyrml023kwjk8zr86d5gaxrt5w8lxnah8r6m6s4jp4g3r6dxnzml343sx8jweqn4vn3fz2kj8kgu9czghx0jrsyqqktyhv","addr1qxn0kuqk8mysdv8rpqhl39vp6njnxd7dw3yvkcvdk9ke4revmezswc6ql6x9kekl6zm3ptc6g9jlwln9lt6sml5mcl0sndmr62"],"fee":321658,"totalOutput":534801763,"tokens":[]},{"hash":"98788799c1da5b545f16223e6bd8c143c48f4baaac25cf8d75af208963bd8d4f","blockNo":7924474,"blockHash":"cb6f14523d5f2332fffc46de52cf4e0786ca6ba4ea5d23e717268d4458a5c5a1","epochNo":371,"epochSlotNo":132718,"slot":75041518,"time":"2022/10/24 10:36:49","addressesInput":["addr1qy2gcfc4ygmtukrfdpk5sjrc7jjvz46mxucpa5zq2yund2uvvt8vr5rf0yrj47j7zzg2c3ss0vj8932839u05gzlr05scm3p5m","addr1qy2gcfc4ygmtukrfdpk5sjrc7jjvz46mxucpa5zq2yund2uvvt8vr5rf0yrj47j7zzg2c3ss0vj8932839u05gzlr05scm3p5m","addr1qy2gcfc4ygmtukrfdpk5sjrc7jjvz46mxucpa5zq2yund2uvvt8vr5rf0yrj47j7zzg2c3ss0vj8932839u05gzlr05scm3p5m","addr1qy2gcfc4ygmtukrfdpk5sjrc7jjvz46mxucpa5zq2yund2uvvt8vr5rf0yrj47j7zzg2c3ss0vj8932839u05gzlr05scm3p5m","addr1qy2gcfc4ygmtukrfdpk5sjrc7jjvz46mxucpa5zq2yund2uvvt8vr5rf0yrj47j7zzg2c3ss0vj8932839u05gzlr05scm3p5m","addr1qy2gcfc4ygmtukrfdpk5sjrc7jjvz46mxucpa5zq2yund2uvvt8vr5rf0yrj47j7zzg2c3ss0vj8932839u05gzlr05scm3p5m","addr1qy2gcfc4ygmtukrfdpk5sjrc7jjvz46mxucpa5zq2yund2uvvt8vr5rf0yrj47j7zzg2c3ss0vj8932839u05gzlr05scm3p5m","addr1zxgx3far7qygq0k6epa0zcvcvrevmn0ypsnfsue94nsn3tvpw288a4x0xf8pxgcntelxmyclq83s0ykeehchz2wtspks905plm"],"addressesOutput":["addr1qy2gcfc4ygmtukrfdpk5sjrc7jjvz46mxucpa5zq2yund2uvvt8vr5rf0yrj47j7zzg2c3ss0vj8932839u05gzlr05scm3p5m","addr1qy2gcfc4ygmtukrfdpk5sjrc7jjvz46mxucpa5zq2yund2uvvt8vr5rf0yrj47j7zzg2c3ss0vj8932839u05gzlr05scm3p5m","addr1qy2gcfc4ygmtukrfdpk5sjrc7jjvz46mxucpa5zq2yund2uvvt8vr5rf0yrj47j7zzg2c3ss0vj8932839u05gzlr05scm3p5m"],"fee":389264,"totalOutput":52529627,"tokens":[]},{"hash":"815f66bc44c94d0e9fa09580565f6dd9e079ad0d85605ce77dae4f70448258a9","blockNo":7924463,"blockHash":"3c4250893d29db9ce3b3e5ad18953e06d162eaebc146f10b66fde6b4debddd2b","epochNo":371,"epochSlotNo":132466,"slot":75041266,"time":"2022/10/24 10:32:37","addressesInput":["addr1qxn0kuqk8mysdv8rpqhl39vp6njnxd7dw3yvkcvdk9ke4revmezswc6ql6x9kekl6zm3ptc6g9jlwln9lt6sml5mcl0sndmr62"],"addressesOutput":["addr1zyq0kyrml023kwjk8zr86d5gaxrt5w8lxnah8r6m6s4jp4g3r6dxnzml343sx8jweqn4vn3fz2kj8kgu9czghx0jrsyqqktyhv","addr1qxn0kuqk8mysdv8rpqhl39vp6njnxd7dw3yvkcvdk9ke4revmezswc6ql6x9kekl6zm3ptc6g9jlwln9lt6sml5mcl0sndmr62"],"fee":321350,"totalOutput":538773421,"tokens":[]},{"hash":"b3595022bd376bfbd989cca81472c2c7a80f6ba3dc24a4b0924e5d07abdb30c8","blockNo":7924450,"blockHash":"4d29ccc568268bd100637f30aefd81d53fe8059e50008b661d6487d8c7587d98","epochNo":371,"epochSlotNo":132066,"slot":75040866,"time":"2022/10/24 10:25:57","addressesInput":["addr1qxn0kuqk8mysdv8rpqhl39vp6njnxd7dw3yvkcvdk9ke4revmezswc6ql6x9kekl6zm3ptc6g9jlwln9lt6sml5mcl0sndmr62"],"addressesOutput":["addr1zyq0kyrml023kwjk8zr86d5gaxrt5w8lxnah8r6m6s4jp4g3r6dxnzml343sx8jweqn4vn3fz2kj8kgu9czghx0jrsyqqktyhv","addr1qxn0kuqk8mysdv8rpqhl39vp6njnxd7dw3yvkcvdk9ke4revmezswc6ql6x9kekl6zm3ptc6g9jlwln9lt6sml5mcl0sndmr62"],"fee":321218,"totalOutput":543744771,"tokens":[]},{"hash":"6433988ee73e3ea765616b0a311ed2026d4acb8d82ad9a62c02122c76548f3c4","blockNo":7924392,"blockHash":"992e55309e5f4ab64b7809d7e1c68758e5388975ae7b13feb225a7a925c2e136","epochNo":371,"epochSlotNo":130817,"slot":75039617,"time":"2022/10/24 10:05:08","addressesInput":["addr1qxn0kuqk8mysdv8rpqhl39vp6njnxd7dw3yvkcvdk9ke4revmezswc6ql6x9kekl6zm3ptc6g9jlwln9lt6sml5mcl0sndmr62"],"addressesOutput":["addr1zyq0kyrml023kwjk8zr86d5gaxrt5w8lxnah8r6m6s4jp4g3r6dxnzml343sx8jweqn4vn3fz2kj8kgu9czghx0jrsyqqktyhv","addr1qxn0kuqk8mysdv8rpqhl39vp6njnxd7dw3yvkcvdk9ke4revmezswc6ql6x9kekl6zm3ptc6g9jlwln9lt6sml5mcl0sndmr62"],"fee":321438,"totalOutput":547715989,"tokens":[]},{"hash":"e15be241a1c9499b3265fb99232cbc12557381d435a1fd7bf2d16c866b64a07f","blockNo":7924358,"blockHash":"a93a05871886620a9a8d86c8152b6fc249344e3bad7ec34e9e3628a0f043944b","epochNo":371,"epochSlotNo":130310,"slot":75039110,"time":"2022/10/24 09:56:41","addressesInput":["addr1qxn0kuqk8mysdv8rpqhl39vp6njnxd7dw3yvkcvdk9ke4revmezswc6ql6x9kekl6zm3ptc6g9jlwln9lt6sml5mcl0sndmr62"],"addressesOutput":["addr1zyq0kyrml023kwjk8zr86d5gaxrt5w8lxnah8r6m6s4jp4g3r6dxnzml343sx8jweqn4vn3fz2kj8kgu9czghx0jrsyqqktyhv","addr1qxn0kuqk8mysdv8rpqhl39vp6njnxd7dw3yvkcvdk9ke4revmezswc6ql6x9kekl6zm3ptc6g9jlwln9lt6sml5mcl0sndmr62"],"fee":321174,"totalOutput":551687427,"tokens":[]},{"hash":"ec439e50ac0403efdd869cae3343a98e8f4c16c90e9e2eb1e1ad828e97894706","blockNo":7924355,"blockHash":"70454f2460ea71610492814b1681469c6be854098651cf5c4bf5085b2f927e29","epochNo":371,"epochSlotNo":130266,"slot":75039066,"time":"2022/10/24 09:55:57","addressesInput":["addr1qxn0kuqk8mysdv8rpqhl39vp6njnxd7dw3yvkcvdk9ke4revmezswc6ql6x9kekl6zm3ptc6g9jlwln9lt6sml5mcl0sndmr62"],"addressesOutput":["addr1zyq0kyrml023kwjk8zr86d5gaxrt5w8lxnah8r6m6s4jp4g3r6dxnzml343sx8jweqn4vn3fz2kj8kgu9czghx0jrsyqqktyhv","addr1qxn0kuqk8mysdv8rpqhl39vp6njnxd7dw3yvkcvdk9ke4revmezswc6ql6x9kekl6zm3ptc6g9jlwln9lt6sml5mcl0sndmr62"],"fee":321350,"totalOutput":555658601,"tokens":[]},{"hash":"347e4215a11c192a5a030c2f1df321448c7819c7b4e5e201f032d037b5b26252","blockNo":7924335,"blockHash":"58b5bfbc3a3f498b4cc5c1bc2f7bb547851b67aa53d2fdfe8cc2d04fb60c4e3f","epochNo":371,"epochSlotNo":129940,"slot":75038740,"time":"2022/10/24 09:50:31","addressesInput":["addr1qxn0kuqk8mysdv8rpqhl39vp6njnxd7dw3yvkcvdk9ke4revmezswc6ql6x9kekl6zm3ptc6g9jlwln9lt6sml5mcl0sndmr62"],"addressesOutput":["addr1zyq0kyrml023kwjk8zr86d5gaxrt5w8lxnah8r6m6s4jp4g3r6dxnzml343sx8jweqn4vn3fz2kj8kgu9czghx0jrsyqqktyhv","addr1qxn0kuqk8mysdv8rpqhl39vp6njnxd7dw3yvkcvdk9ke4revmezswc6ql6x9kekl6zm3ptc6g9jlwln9lt6sml5mcl0sndmr62"],"fee":321614,"totalOutput":559629951,"tokens":[]},{"hash":"f4661e3e00082bc0bc17a9eae4f011a3082eb913e9e53578b1db5b8b8b3a95cd","blockNo":7924327,"blockHash":"67b5e19428c56ab27218450c5787129d928e8087dce4e25972a2a4c37ae36799","epochNo":371,"epochSlotNo":129817,"slot":75038617,"time":"2022/10/24 09:48:28","addressesInput":["addr1qxn0kuqk8mysdv8rpqhl39vp6njnxd7dw3yvkcvdk9ke4revmezswc6ql6x9kekl6zm3ptc6g9jlwln9lt6sml5mcl0sndmr62"],"addressesOutput":["addr1zyq0kyrml023kwjk8zr86d5gaxrt5w8lxnah8r6m6s4jp4g3r6dxnzml343sx8jweqn4vn3fz2kj8kgu9czghx0jrsyqqktyhv","addr1qxn0kuqk8mysdv8rpqhl39vp6njnxd7dw3yvkcvdk9ke4revmezswc6ql6x9kekl6zm3ptc6g9jlwln9lt6sml5mcl0sndmr62"],"fee":321174,"totalOutput":563601565,"tokens":[]},{"hash":"211565c017edc6703edf50c679d5d89896413bc1006468a1c0163724fe785811","blockNo":7924319,"blockHash":"4aa2e39b0f8e39e04e38f146e8ec650c09d48bc5f226b2749c8f1d3bb69fb522","epochNo":371,"epochSlotNo":129670,"slot":75038470,"time":"2022/10/24 09:46:01","addressesInput":["addr1qxn0kuqk8mysdv8rpqhl39vp6njnxd7dw3yvkcvdk9ke4revmezswc6ql6x9kekl6zm3ptc6g9jlwln9lt6sml5mcl0sndmr62","addr1qxn0kuqk8mysdv8rpqhl39vp6njnxd7dw3yvkcvdk9ke4revmezswc6ql6x9kekl6zm3ptc6g9jlwln9lt6sml5mcl0sndmr62"],"addressesOutput":["addr1zyq0kyrml023kwjk8zr86d5gaxrt5w8lxnah8r6m6s4jp4g3r6dxnzml343sx8jweqn4vn3fz2kj8kgu9czghx0jrsyqqktyhv","addr1qxn0kuqk8mysdv8rpqhl39vp6njnxd7dw3yvkcvdk9ke4revmezswc6ql6x9kekl6zm3ptc6g9jlwln9lt6sml5mcl0sndmr62"],"fee":322978,"totalOutput":568572739,"tokens":[]},{"hash":"87670063e749cb90f4179d716b4132fd704e289c7a23ec0aee61221254a8966e","blockNo":7924316,"blockHash":"3fde7fdd6f82d64edfb51dfed0ca69bb879586305e17095f615a513e4465766d","epochNo":371,"epochSlotNo":129537,"slot":75038337,"time":"2022/10/24 09:43:48","addressesInput":["addr1qxn0kuqk8mysdv8rpqhl39vp6njnxd7dw3yvkcvdk9ke4revmezswc6ql6x9kekl6zm3ptc6g9jlwln9lt6sml5mcl0sndmr62"],"addressesOutput":["addr1zyq0kyrml023kwjk8zr86d5gaxrt5w8lxnah8r6m6s4jp4g3r6dxnzml343sx8jweqn4vn3fz2kj8kgu9czghx0jrsyqqktyhv","addr1qxn0kuqk8mysdv8rpqhl39vp6njnxd7dw3yvkcvdk9ke4revmezswc6ql6x9kekl6zm3ptc6g9jlwln9lt6sml5mcl0sndmr62"],"fee":321614,"totalOutput":21569915,"tokens":[]},{"hash":"4d39c276adec60def9373a2961bfbd488af54675639f7910924a695cba242dae","blockNo":7924297,"blockHash":"c3be5c4085a87b0a7bdbc274990cea78025d00bb963b1d384a2531abaef8147e","epochNo":371,"epochSlotNo":129024,"slot":75037824,"time":"2022/10/24 09:35:15","addressesInput":["addr1qxn0kuqk8mysdv8rpqhl39vp6njnxd7dw3yvkcvdk9ke4revmezswc6ql6x9kekl6zm3ptc6g9jlwln9lt6sml5mcl0sndmr62","addr1qxn0kuqk8mysdv8rpqhl39vp6njnxd7dw3yvkcvdk9ke4revmezswc6ql6x9kekl6zm3ptc6g9jlwln9lt6sml5mcl0sndmr62"],"addressesOutput":["addr1zyq0kyrml023kwjk8zr86d5gaxrt5w8lxnah8r6m6s4jp4g3r6dxnzml343sx8jweqn4vn3fz2kj8kgu9czghx0jrsyqqktyhv","addr1qxn0kuqk8mysdv8rpqhl39vp6njnxd7dw3yvkcvdk9ke4revmezswc6ql6x9kekl6zm3ptc6g9jlwln9lt6sml5mcl0sndmr62"],"fee":323242,"totalOutput":26541529,"tokens":[]},{"hash":"9e303919c5d7c81f51b5aec1d9e57186dc78a4fbc8a9cbf8942b16bc276a43a0","blockNo":7924279,"blockHash":"019157557838a07cd1d095f1ab0279e5b59db4396048e5c89e68e93fa41eb021","epochNo":371,"epochSlotNo":128667,"slot":75037467,"time":"2022/10/24 09:29:18","addressesInput":["addr1qxn0kuqk8mysdv8rpqhl39vp6njnxd7dw3yvkcvdk9ke4revmezswc6ql6x9kekl6zm3ptc6g9jlwln9lt6sml5mcl0sndmr62"],"addressesOutput":["addr1zyq0kyrml023kwjk8zr86d5gaxrt5w8lxnah8r6m6s4jp4g3r6dxnzml343sx8jweqn4vn3fz2kj8kgu9czghx0jrsyqqktyhv","addr1qxn0kuqk8mysdv8rpqhl39vp6njnxd7dw3yvkcvdk9ke4revmezswc6ql6x9kekl6zm3ptc6g9jlwln9lt6sml5mcl0sndmr62"],"fee":321790,"totalOutput":25514771,"tokens":[]},{"hash":"06470d107714898bd88a24f7b76687593c01c2ccc6e3b4a4f6bcf905af203a48","blockNo":7924211,"blockHash":"b4a5871e3b0dbe484f22a160fe3e013757f77f98c8bc12dbae0155239bfcd31e","epochNo":371,"epochSlotNo":127317,"slot":75036117,"time":"2022/10/24 09:06:48","addressesInput":["addr1qxn0kuqk8mysdv8rpqhl39vp6njnxd7dw3yvkcvdk9ke4revmezswc6ql6x9kekl6zm3ptc6g9jlwln9lt6sml5mcl0sndmr62"],"addressesOutput":["addr1zyq0kyrml023kwjk8zr86d5gaxrt5w8lxnah8r6m6s4jp4g3r6dxnzml343sx8jweqn4vn3fz2kj8kgu9czghx0jrsyqqktyhv","addr1qxn0kuqk8mysdv8rpqhl39vp6njnxd7dw3yvkcvdk9ke4revmezswc6ql6x9kekl6zm3ptc6g9jlwln9lt6sml5mcl0sndmr62"],"fee":321614,"totalOutput":29486561,"tokens":[]},{"hash":"44422305d1bf2018fe19270056dae6063ccda0280868e3f4d9cce364bff24810","blockNo":7924195,"blockHash":"1bf2c3448370946cc12794a7a27a9ffbb5ae38d699f6547dd8da35c0a2e5dc5d","epochNo":371,"epochSlotNo":127034,"slot":75035834,"time":"2022/10/24 09:02:05","addressesInput":["addr1qxn0kuqk8mysdv8rpqhl39vp6njnxd7dw3yvkcvdk9ke4revmezswc6ql6x9kekl6zm3ptc6g9jlwln9lt6sml5mcl0sndmr62"],"addressesOutput":["addr1zyq0kyrml023kwjk8zr86d5gaxrt5w8lxnah8r6m6s4jp4g3r6dxnzml343sx8jweqn4vn3fz2kj8kgu9czghx0jrsyqqktyhv","addr1qxn0kuqk8mysdv8rpqhl39vp6njnxd7dw3yvkcvdk9ke4revmezswc6ql6x9kekl6zm3ptc6g9jlwln9lt6sml5mcl0sndmr62"],"fee":321218,"totalOutput":34458175,"tokens":[]},{"hash":"79a280e30a6ac4170846d89685dbc02c623e39b6ccd7909ba9ff6798c46f198b","blockNo":7924082,"blockHash":"52b0606a2378624c466a7be1d866c228c1c2b830bc00f49528631202258ca0fa","epochNo":371,"epochSlotNo":124588,"slot":75033388,"time":"2022/10/24 08:21:19","addressesInput":["addr1qxn0kuqk8mysdv8rpqhl39vp6njnxd7dw3yvkcvdk9ke4revmezswc6ql6x9kekl6zm3ptc6g9jlwln9lt6sml5mcl0sndmr62"],"addressesOutput":["addr1zyq0kyrml023kwjk8zr86d5gaxrt5w8lxnah8r6m6s4jp4g3r6dxnzml343sx8jweqn4vn3fz2kj8kgu9czghx0jrsyqqktyhv","addr1qxn0kuqk8mysdv8rpqhl39vp6njnxd7dw3yvkcvdk9ke4revmezswc6ql6x9kekl6zm3ptc6g9jlwln9lt6sml5mcl0sndmr62"],"fee":322142,"totalOutput":38429393,"tokens":[]},{"hash":"1236ba6aace0a3d795aaf25b241310538df1a8b2e32cc84761a0649e373b3e91","blockNo":7924030,"blockHash":"3ef37dd21e50bfe9a3fff9b3817ec11d3ce837129e0b36599dc9d1dc9b4c6217","epochNo":371,"epochSlotNo":123252,"slot":75032052,"time":"2022/10/24 07:59:03","addressesInput":["addr1qxn0kuqk8mysdv8rpqhl39vp6njnxd7dw3yvkcvdk9ke4revmezswc6ql6x9kekl6zm3ptc6g9jlwln9lt6sml5mcl0sndmr62"],"addressesOutput":["addr1zyq0kyrml023kwjk8zr86d5gaxrt5w8lxnah8r6m6s4jp4g3r6dxnzml343sx8jweqn4vn3fz2kj8kgu9czghx0jrsyqqktyhv","addr1qxn0kuqk8mysdv8rpqhl39vp6njnxd7dw3yvkcvdk9ke4revmezswc6ql6x9kekl6zm3ptc6g9jlwln9lt6sml5mcl0sndmr62"],"fee":321350,"totalOutput":42401535,"tokens":[]},{"hash":"fac17b0608e57dd623d353e045de4766138690f08d71a419ee4c20670396f06a","blockNo":7924027,"blockHash":"0286954e08199de50599c2e4bf0dc78b00d71beccac6782fb27eeb28abd09e77","epochNo":371,"epochSlotNo":123187,"slot":75031987,"time":"2022/10/24 07:57:58","addressesInput":["addr1qxn0kuqk8mysdv8rpqhl39vp6njnxd7dw3yvkcvdk9ke4revmezswc6ql6x9kekl6zm3ptc6g9jlwln9lt6sml5mcl0sndmr62"],"addressesOutput":["addr1zyq0kyrml023kwjk8zr86d5gaxrt5w8lxnah8r6m6s4jp4g3r6dxnzml343sx8jweqn4vn3fz2kj8kgu9czghx0jrsyqqktyhv","addr1qxn0kuqk8mysdv8rpqhl39vp6njnxd7dw3yvkcvdk9ke4revmezswc6ql6x9kekl6zm3ptc6g9jlwln9lt6sml5mcl0sndmr62"],"fee":321790,"totalOutput":46372885,"tokens":[]},{"hash":"aaf63036c4e49905265503cb9171430b522c8f2882bcb1bac5eb0e34517e9a87","blockNo":7924018,"blockHash":"da703f71c890910c2bd6265788f5512e22dfebfe730edd02ab70d4fd45438940","epochNo":371,"epochSlotNo":123031,"slot":75031831,"time":"2022/10/24 07:55:22","addressesInput":["addr1qxn0kuqk8mysdv8rpqhl39vp6njnxd7dw3yvkcvdk9ke4revmezswc6ql6x9kekl6zm3ptc6g9jlwln9lt6sml5mcl0sndmr62","addr1qxn0kuqk8mysdv8rpqhl39vp6njnxd7dw3yvkcvdk9ke4revmezswc6ql6x9kekl6zm3ptc6g9jlwln9lt6sml5mcl0sndmr62"],"addressesOutput":["addr1zyq0kyrml023kwjk8zr86d5gaxrt5w8lxnah8r6m6s4jp4g3r6dxnzml343sx8jweqn4vn3fz2kj8kgu9czghx0jrsyqqktyhv","addr1qxn0kuqk8mysdv8rpqhl39vp6njnxd7dw3yvkcvdk9ke4revmezswc6ql6x9kekl6zm3ptc6g9jlwln9lt6sml5mcl0sndmr62"],"fee":322934,"totalOutput":50344675,"tokens":[]}],"totalItems":10831,"totalPages":542,"currentPage":0}