{"data":[{"txId":57035064,"txHash":"ad6e7bae49016d9ca3b862c853940488ddd877cc8e73fb56ad82e394084ef7e0","txTime":"2022/12/10 16:49:18","block":8122473,"epoch":380,"slotNo":79124667,"epochSlotNo":327867,"stakeKey":"stake1uyw44ruxc0lm8ga3jjhcukr9xem458dglex5dzmm0atxu3sayctlv"},{"txId":57034914,"txHash":"83fcfcc5d46359476b1d9515032c265d21e4e32abf11d1ad63be75068e4673ce","txTime":"2022/12/10 16:46:55","block":8122468,"epoch":380,"slotNo":79124524,"epochSlotNo":327724,"stakeKey":"stake1u9ztcph3g3cevyys96ylhvh98pjuedmxa3g067zcwseefts707rwv"},{"txId":57034793,"txHash":"6af0b71b70e2c89a0d1709c3a11fa067f21335fbbc1f9fed31196a2c9422d7fa","txTime":"2022/12/10 16:43:09","block":8122461,"epoch":380,"slotNo":79124298,"epochSlotNo":327498,"stakeKey":"stake1uyj8cqkmq5x6675sjv8z5dqdjsqgam505gksk8lkghlsy4qhkyr9j"},{"txId":57034792,"txHash":"2ec1808cce69db423374879affc62b23cc49a69736ead9de56e79f88ef336581","txTime":"2022/12/10 16:43:09","block":8122461,"epoch":380,"slotNo":79124298,"epochSlotNo":327498,"stakeKey":"stake1u94yg7ddvwujrrfrsu806urv9dpkp7zmsrh7r2yypjtazqsq3dht5"},{"txId":57034181,"txHash":"4f21c8759b21cc7bd5774328fb51d796386b2dcdeb616251644d427d0095d25f","txTime":"2022/12/10 16:32:46","block":8122420,"epoch":380,"slotNo":79123675,"epochSlotNo":326875,"stakeKey":"stake1uxzwvvm84659aqcxjjkqxrghvj8hawwhx232tz4ggr53q4c4zw9g2"},{"txId":57033654,"txHash":"1cc371c539ddd286659a13a5541709db4458fee57e75dacc8d9d44c8898b10d9","txTime":"2022/12/10 16:22:41","block":8122393,"epoch":380,"slotNo":79123070,"epochSlotNo":326270,"stakeKey":"stake1uxv89ufud2lzaqftsv24cpu6gx6y0uxk5echq4295wtc4uqufkp4f"},{"txId":57033646,"txHash":"feb520c4208f9875b7918c61ae723a5a520a2c05256ee1736763854dae7adcbc","txTime":"2022/12/10 16:22:35","block":8122392,"epoch":380,"slotNo":79123064,"epochSlotNo":326264,"stakeKey":"stake1u8vs2lxar7anarnnxr66nvq0fxq28x0tvqywvufeza5s42qmufvqh"},{"txId":57033634,"txHash":"0c67058632f13b498d384b8d8dae9cd55b0f6a3c3080e2ce2d62d009c5c1146d","txTime":"2022/12/10 16:22:17","block":8122390,"epoch":380,"slotNo":79123046,"epochSlotNo":326246,"stakeKey":"stake1uxe87u7ry7fvup73ml5m3xzlftvycedv8za908agjvteelgka7n6h"},{"txId":57033147,"txHash":"d4f5c03e9d5e11103dbab04af2f42c57f08d83fb4b4ef2630fa113489df33617","txTime":"2022/12/10 16:14:22","block":8122358,"epoch":380,"slotNo":79122571,"epochSlotNo":325771,"stakeKey":"stake1uyyds8p20zyyagsvtrgcy9hq6h9aspa8lnucw8ta3p999dczwu67z"},{"txId":57033054,"txHash":"7006009f7787b8d5d181838c297f2aa3330bc565a102b69c7f144c6d61a06112","txTime":"2022/12/10 16:12:05","block":8122351,"epoch":380,"slotNo":79122434,"epochSlotNo":325634,"stakeKey":"stake1uxxqmdscltptqqdem24ma50d4j2tc2eh7ps02kh4gmum40qs64ypy"},{"txId":57033047,"txHash":"993e18d7c6ff4227437a05ba0f7c4ed0cf98edc0ea074051115cc77200270e18","txTime":"2022/12/10 16:12:05","block":8122351,"epoch":380,"slotNo":79122434,"epochSlotNo":325634,"stakeKey":"stake1u9nhmfw22qeketunf7tvagcaj9qdnul4gl8t6nrgc99wsyq0mjhtt"},{"txId":57032729,"txHash":"44ab09088e94933ae47fddd9188b8869a67f47a4aa86c4d966315c596f2b7dcc","txTime":"2022/12/10 16:05:08","block":8122330,"epoch":380,"slotNo":79122017,"epochSlotNo":325217,"stakeKey":"stake1u86c8s6e77sc4trav9eu8xanc89s8z3hxfrcs0507aunreslvfqvr"},{"txId":57032612,"txHash":"18a0005e793ba96a861c5c6757b6d89fc9290469f5b79bd2e92ac1ff2319fe8f","txTime":"2022/12/10 16:02:25","block":8122323,"epoch":380,"slotNo":79121854,"epochSlotNo":325054,"stakeKey":"stake1u9yzznwmq5axhvlkfyd9axkejxgmpnp0s8pxg2h489hh6dstrr9ym"},{"txId":57032519,"txHash":"648e33ff4c09943e6921c9e1a250f82b4f3cacb3e9c75488946585dd96df9445","txTime":"2022/12/10 16:00:44","block":8122319,"epoch":380,"slotNo":79121753,"epochSlotNo":324953,"stakeKey":"stake1uyl0pmhxkrlkj2le02tumhlnq4v6p3awrwze69x538jhhzs7rnvqu"},{"txId":57032342,"txHash":"7311bafb800acf05d2b50fc5cbab16c8776b7a14fb7d3de317677f2766bbd284","txTime":"2022/12/10 15:57:59","block":8122307,"epoch":380,"slotNo":79121588,"epochSlotNo":324788,"stakeKey":"stake1u8pq60a95qvfjdcc78sn2jusvpu3hvtnspl4g49qzh9rzpqwsq6wz"},{"txId":57032313,"txHash":"da5914c6b6199e7ce6758d9d8f09163ff420a24f6aaec47bdeb5e438f93543de","txTime":"2022/12/10 15:57:15","block":8122305,"epoch":380,"slotNo":79121544,"epochSlotNo":324744,"stakeKey":"stake1uyxnn3zu57kg07mlkq4w6rcjk5g9fcqmlsgqfpht5rpnthsy538mn"},{"txId":57032256,"txHash":"c387eaa75377df1f02d7c07a77b6d8c71537ff7a045c0ade158a2afacb4768ee","txTime":"2022/12/10 15:55:57","block":8122302,"epoch":380,"slotNo":79121466,"epochSlotNo":324666,"stakeKey":"stake1ux5de8garj73kymc8ajt48e74l9gux9qetn53ceg6799nhclpvtz2"},{"txId":57032207,"txHash":"545e4e6b04e2be42ead5e667834bb9840f952dde693708cf57b07ca0ba1dfbc1","txTime":"2022/12/10 15:54:51","block":8122300,"epoch":380,"slotNo":79121400,"epochSlotNo":324600,"stakeKey":"stake1u8hhcleq88f636q3jcjwzmrux8jvucc8ul3f5c7dtj39wysv6l98n"},{"txId":57032147,"txHash":"2217b6f27ab31cfd79bff11887722a80174f4cc80562227196c3a248f15d803e","txTime":"2022/12/10 15:53:07","block":8122293,"epoch":380,"slotNo":79121296,"epochSlotNo":324496,"stakeKey":"stake1u9ww3uf2m68u997dmyy09h25dws3g8ydsznwssels9aydzsd7sara"},{"txId":57032145,"txHash":"9c16f22d839114071c93f5a9cfac783b32e71ae2370d31d2adb986357cd5829f","txTime":"2022/12/10 15:53:07","block":8122293,"epoch":380,"slotNo":79121296,"epochSlotNo":324496,"stakeKey":"stake1uytayl26x6unk6k387cmrn4xzp3detqsyz5x24gjvzvn4psp4a9s9"}],"totalItems":1618748,"totalPages":80938,"currentPage":0}