{"data":[{"hash":"0ad21fd525ab200bdacbfc5fb6300bbe3c4524f264bc0e277c6957df4b756c29","blockNo":6802289,"blockHash":"80c69e5957b2eb01439dd8ee346cd44765e908a04a7355960ed2a2985d06a56f","epochNo":317,"epochSlotNo":21314,"slot":51602114,"time":"2022/01/26 03:40:05","addressesInput":["addr1q8fjdde87jrua78trg9ylv7gpvd5skzcv5nqp3wl467ykzgsmz083klcvm744y0n7yyg49ykzz0j628xpu4n5u0r0r4qrfqf6q"],"addressesOutput":["addr1wxaptpmxcxawvr3pzlhgnpmzz3ql43n2tc8mn3av5kx0yzs09tqh8","addr1q8fjdde87jrua78trg9ylv7gpvd5skzcv5nqp3wl467ykzgsmz083klcvm744y0n7yyg49ykzz0j628xpu4n5u0r0r4qrfqf6q"],"fee":290585,"totalOutput":167852534,"tokens":[]},{"hash":"ee1a0d246c114351c9d38f8a03ba49540434de9d4f5a0179c3f30834f75e9c0a","blockNo":6802255,"blockHash":"7161a9ecf30ae496bde95eaefadf37f48c3defef9c9eefab978489f7463cef03","epochNo":317,"epochSlotNo":20468,"slot":51601268,"time":"2022/01/26 03:25:59","addressesInput":["addr1qx2yalmksmq4zq8dmjxetpt8hhucrsd9u2axeawhya9ehmfhcdj45clk5lfnp6a2m7jdkpwd06t207rf6p2hzx6lv2jswpalyy","addr1qxszsqjtp8kf60yvk896cr9td2rkqnsxsgvej2ad8lah8x3hcdj45clk5lfnp6a2m7jdkpwd06t207rf6p2hzx6lv2jsl2szk3","addr1qxszsqjtp8kf60yvk896cr9td2rkqnsxsgvej2ad8lah8x3hcdj45clk5lfnp6a2m7jdkpwd06t207rf6p2hzx6lv2jsl2szk3","addr1qx7zt0gkjmx3hgyutfdluem7yd4yscp3lt85ea9kmzhm90ehcdj45clk5lfnp6a2m7jdkpwd06t207rf6p2hzx6lv2jsfa5g9y"],"addressesOutput":["addr1v9zvcuvewe8dweswcw72gtxf5k4vk3te0zfqhk3mh2r6whsazwq9u","addr1qxqltk0rc6ql9a3p5nygk68vrxu9qvz0anl2mu8ntnrqkvphcdj45clk5lfnp6a2m7jdkpwd06t207rf6p2hzx6lv2jsl7295c"],"fee":231105,"totalOutput":442369428,"tokens":[]},{"hash":"e88144b2d018e62e478e3916fc7ae9670b53c51c06c83514861ce3ff6062f2b6","blockNo":6802213,"blockHash":"c5bf70ac29f0aa6969d6336ce4c46646cd15dd493bd10a14497c0e93256baee4","epochNo":317,"epochSlotNo":19591,"slot":51600391,"time":"2022/01/26 03:11:22","addressesInput":["addr1q8fjdde87jrua78trg9ylv7gpvd5skzcv5nqp3wl467ykzgsmz083klcvm744y0n7yyg49ykzz0j628xpu4n5u0r0r4qrfqf6q","addr1q8fjdde87jrua78trg9ylv7gpvd5skzcv5nqp3wl467ykzgsmz083klcvm744y0n7yyg49ykzz0j628xpu4n5u0r0r4qrfqf6q"],"addressesOutput":["addr1wxaptpmxcxawvr3pzlhgnpmzz3ql43n2tc8mn3av5kx0yzs09tqh8","addr1q8fjdde87jrua78trg9ylv7gpvd5skzcv5nqp3wl467ykzgsmz083klcvm744y0n7yyg49ykzz0j628xpu4n5u0r0r4qrfqf6q"],"fee":292169,"totalOutput":179244564,"tokens":[]},{"hash":"13497bef04f2a8ba21e9825ae6e5f0fdf0bbc68eebea9e65f79aca9f0254bad3","blockNo":6802024,"blockHash":"72cd8f05307890fb9e001dc571e9bfa5722e087fa364afe755e0ab9d6e571dd7","epochNo":317,"epochSlotNo":15589,"slot":51596389,"time":"2022/01/26 02:04:40","addressesInput":["addr1qyykj4p30q8mfhru89e0kcj9k59kt5ax7ukuqasychl8qw3hcdj45clk5lfnp6a2m7jdkpwd06t207rf6p2hzx6lv2jswxmkgu","addr1qxszsqjtp8kf60yvk896cr9td2rkqnsxsgvej2ad8lah8x3hcdj45clk5lfnp6a2m7jdkpwd06t207rf6p2hzx6lv2jsl2szk3","addr1qxszsqjtp8kf60yvk896cr9td2rkqnsxsgvej2ad8lah8x3hcdj45clk5lfnp6a2m7jdkpwd06t207rf6p2hzx6lv2jsl2szk3","addr1qxszsqjtp8kf60yvk896cr9td2rkqnsxsgvej2ad8lah8x3hcdj45clk5lfnp6a2m7jdkpwd06t207rf6p2hzx6lv2jsl2szk3","addr1qxszsqjtp8kf60yvk896cr9td2rkqnsxsgvej2ad8lah8x3hcdj45clk5lfnp6a2m7jdkpwd06t207rf6p2hzx6lv2jsl2szk3","addr1qyv64jq90v44anwrzz82mpzmh7jgmj8hfuax5xcwpmrg02ehcdj45clk5lfnp6a2m7jdkpwd06t207rf6p2hzx6lv2jsdy39f2","addr1qxszsqjtp8kf60yvk896cr9td2rkqnsxsgvej2ad8lah8x3hcdj45clk5lfnp6a2m7jdkpwd06t207rf6p2hzx6lv2jsl2szk3"],"addressesOutput":["addr1v8um2w4lfhy7s6xnqhlc5fcan5zudrj8z6ugnh8dsjd4w9q5vfhrw","addr1qx2yalmksmq4zq8dmjxetpt8hhucrsd9u2axeawhya9ehmfhcdj45clk5lfnp6a2m7jdkpwd06t207rf6p2hzx6lv2jswpalyy"],"fee":227145,"totalOutput":593920080,"tokens":[]},{"hash":"30f81750d255fbac580fb5feba6f2f860001b9f97df08ecb54e8d72f4dcd08b6","blockNo":6801917,"blockHash":"798050d85c9f902f935120ba635eebdb155aab0be471f621279adf7afba7c1e0","epochNo":317,"epochSlotNo":13521,"slot":51594321,"time":"2022/01/26 01:30:12","addressesInput":["addr1q8fjdde87jrua78trg9ylv7gpvd5skzcv5nqp3wl467ykzgsmz083klcvm744y0n7yyg49ykzz0j628xpu4n5u0r0r4qrfqf6q","addr1q8fjdde87jrua78trg9ylv7gpvd5skzcv5nqp3wl467ykzgsmz083klcvm744y0n7yyg49ykzz0j628xpu4n5u0r0r4qrfqf6q","addr1q8fjdde87jrua78trg9ylv7gpvd5skzcv5nqp3wl467ykzgsmz083klcvm744y0n7yyg49ykzz0j628xpu4n5u0r0r4qrfqf6q"],"addressesOutput":["addr1vy5ae6kfyv7wtkscshsv7d0dnvzfy38xrkvraczjmqaqnyc3kpr7q","addr1q8fjdde87jrua78trg9ylv7gpvd5skzcv5nqp3wl467ykzgsmz083klcvm744y0n7yyg49ykzz0j628xpu4n5u0r0r4qrfqf6q","addr1q8fjdde87jrua78trg9ylv7gpvd5skzcv5nqp3wl467ykzgsmz083klcvm744y0n7yyg49ykzz0j628xpu4n5u0r0r4qrfqf6q"],"fee":252357,"totalOutput":181536733,"tokens":[]},{"hash":"c71a4be80bb0cf3f7f1e0b64504d958d3305a0d8930b07a2f8d41253b537bf53","blockNo":6801797,"blockHash":"ba9f2a3dca506ed4ef62d7978aa2c7ef54a3b4264d628c935b2c23bc438a5d37","epochNo":317,"epochSlotNo":10862,"slot":51591662,"time":"2022/01/26 00:45:53","addressesInput":["addr1w999n67e86jn6xal07pzxtrmqynspgx0fwmcmpua4wc6yzsxpljz3","addr1qxszsqjtp8kf60yvk896cr9td2rkqnsxsgvej2ad8lah8x3hcdj45clk5lfnp6a2m7jdkpwd06t207rf6p2hzx6lv2jsl2szk3"],"addressesOutput":["addr1qxszsqjtp8kf60yvk896cr9td2rkqnsxsgvej2ad8lah8x3hcdj45clk5lfnp6a2m7jdkpwd06t207rf6p2hzx6lv2jsl2szk3","addr1qxszsqjtp8kf60yvk896cr9td2rkqnsxsgvej2ad8lah8x3hcdj45clk5lfnp6a2m7jdkpwd06t207rf6p2hzx6lv2jsl2szk3"],"fee":1050367,"totalOutput":3301483,"tokens":[]},{"hash":"4a39488245831e77b2bb895d146413a2f1ff6fe80a4df7cecfab018387c20503","blockNo":6801751,"blockHash":"6aa4b951f7067f5a4f6619597fff3648af54247b3e4d4ae4836d80b2fdee3a7d","epochNo":317,"epochSlotNo":9861,"slot":51590661,"time":"2022/01/26 00:29:12","addressesInput":["addr1w999n67e86jn6xal07pzxtrmqynspgx0fwmcmpua4wc6yzsxpljz3","addr1qxa7hxs2plv3ghfvm2ds0ddlgljjmr870nyj0dcuttr9emmhy29z9apw4amvddq7cz3u2c6jffld2rlzcrmuk57cdvcsnml3cx","addr1qxa7hxs2plv3ghfvm2ds0ddlgljjmr870nyj0dcuttr9emmhy29z9apw4amvddq7cz3u2c6jffld2rlzcrmuk57cdvcsnml3cx","addr1qxa7hxs2plv3ghfvm2ds0ddlgljjmr870nyj0dcuttr9emmhy29z9apw4amvddq7cz3u2c6jffld2rlzcrmuk57cdvcsnml3cx","addr1qxa7hxs2plv3ghfvm2ds0ddlgljjmr870nyj0dcuttr9emmhy29z9apw4amvddq7cz3u2c6jffld2rlzcrmuk57cdvcsnml3cx","addr1qxa7hxs2plv3ghfvm2ds0ddlgljjmr870nyj0dcuttr9emmhy29z9apw4amvddq7cz3u2c6jffld2rlzcrmuk57cdvcsnml3cx"],"addressesOutput":["addr1q9cwvremt6n320s2e3agq0jyq82yhrk3htsu0w426xnz5us70z4w0jgvcdkkynmm8wmds66jd9kusnjfpu6raw5fqp0sr07p5w","addr1qyv08qcff03djq0x6v5z2dl4xfr7pzhhyh8xrkxtzcnwhsgycgae3w3ywg5p98xs0natggxjf90yf3ta502cv09lllwq03zmsf","addr1q9qs762pf0wcuvzd653ykhh8j6zxtyuyv90vsngq4h3wderrgl3mk7j9v0ttuytsghmadknncjn2akqgdssykl22tnxq842jkv","addr1qxa7hxs2plv3ghfvm2ds0ddlgljjmr870nyj0dcuttr9emmhy29z9apw4amvddq7cz3u2c6jffld2rlzcrmuk57cdvcsnml3cx","addr1qxa7hxs2plv3ghfvm2ds0ddlgljjmr870nyj0dcuttr9emmhy29z9apw4amvddq7cz3u2c6jffld2rlzcrmuk57cdvcsnml3cx"],"fee":1069087,"totalOutput":524292704,"tokens":[]},{"hash":"13b59b8c4dc7afd8b6722c22a34895053a3e6b2c7a1c1ce7d46ce2815cdf3119","blockNo":6800860,"blockHash":"7e2eef8192ca4f21b704948024ef9ed5f846f2d9ea2e9faae34c4bfd101f7880","epochNo":316,"epochSlotNo":421842,"slot":51570642,"time":"2022/01/25 18:55:33","addressesInput":["addr1vx0l928zuszdgn2qs062tyze320v0vmg3hdszkw3fykwdece25sw8","addr1vx0l928zuszdgn2qs062tyze320v0vmg3hdszkw3fykwdece25sw8"],"addressesOutput":["addr1v864dv80sv5vjfpvu7pd4zlm9ue8z683lkfh2qrpdmfnhfqausx3p","addr1q8fjdde87jrua78trg9ylv7gpvd5skzcv5nqp3wl467ykzgsmz083klcvm744y0n7yyg49ykzz0j628xpu4n5u0r0r4qrfqf6q","addr1vx0l928zuszdgn2qs062tyze320v0vmg3hdszkw3fykwdece25sw8"],"fee":178745,"totalOutput":7321255,"tokens":[]},{"hash":"93856107345dd68e30f87a43d987bbf521c79cd8cc6d341dca23dff372e3be07","blockNo":6800855,"blockHash":"b5bb06a17da8520bd7c8a67c2d59e2d33e5f8917e674880619d0321f2c19187c","epochNo":316,"epochSlotNo":421769,"slot":51570569,"time":"2022/01/25 18:54:20","addressesInput":["addr1vx0l928zuszdgn2qs062tyze320v0vmg3hdszkw3fykwdece25sw8","addr1vx0l928zuszdgn2qs062tyze320v0vmg3hdszkw3fykwdece25sw8"],"addressesOutput":["addr1v864dv80sv5vjfpvu7pd4zlm9ue8z683lkfh2qrpdmfnhfqausx3p","addr1qxa7hxs2plv3ghfvm2ds0ddlgljjmr870nyj0dcuttr9emmhy29z9apw4amvddq7cz3u2c6jffld2rlzcrmuk57cdvcsnml3cx","addr1vx0l928zuszdgn2qs062tyze320v0vmg3hdszkw3fykwdece25sw8"],"fee":178745,"totalOutput":13321255,"tokens":[]},{"hash":"88afc560ede087dedef932415d1c3fcd1b3e2bdfadb5b6dd54ed5ef9e659f61b","blockNo":6800758,"blockHash":"d9835698a3828087e321dd111b3259f056bec9f8580d10c6fa45d0ebb59f685b","epochNo":316,"epochSlotNo":419044,"slot":51567844,"time":"2022/01/25 18:08:55","addressesInput":["addr1q8fjdde87jrua78trg9ylv7gpvd5skzcv5nqp3wl467ykzgsmz083klcvm744y0n7yyg49ykzz0j628xpu4n5u0r0r4qrfqf6q","addr1q8fjdde87jrua78trg9ylv7gpvd5skzcv5nqp3wl467ykzgsmz083klcvm744y0n7yyg49ykzz0j628xpu4n5u0r0r4qrfqf6q"],"addressesOutput":["addr1vx0l928zuszdgn2qs062tyze320v0vmg3hdszkw3fykwdece25sw8","addr1q8fjdde87jrua78trg9ylv7gpvd5skzcv5nqp3wl467ykzgsmz083klcvm744y0n7yyg49ykzz0j628xpu4n5u0r0r4qrfqf6q","addr1q8fjdde87jrua78trg9ylv7gpvd5skzcv5nqp3wl467ykzgsmz083klcvm744y0n7yyg49ykzz0j628xpu4n5u0r0r4qrfqf6q"],"fee":250773,"totalOutput":186289090,"tokens":[]},{"hash":"79ed521b96af80eb783507400ec417b8d6f0a0f06b4dc97be52bac7ca6669703","blockNo":6800724,"blockHash":"d9e1877bccf8c7602df0ecaa77f5cb520f5a0b784dc49c9e890b961be21b659c","epochNo":316,"epochSlotNo":418519,"slot":51567319,"time":"2022/01/25 18:00:10","addressesInput":["addr1vx0l928zuszdgn2qs062tyze320v0vmg3hdszkw3fykwdece25sw8","addr1vx0l928zuszdgn2qs062tyze320v0vmg3hdszkw3fykwdece25sw8"],"addressesOutput":["addr1v864dv80sv5vjfpvu7pd4zlm9ue8z683lkfh2qrpdmfnhfqausx3p","addr1q83fuawzq95z6p58p7e4rygtylp7efel256y98lq8s74chmspp3yjgkrxjyd2qdmfgyu0m7kcy6hr6v6r9crzzg0pejqghepph","addr1vx0l928zuszdgn2qs062tyze320v0vmg3hdszkw3fykwdece25sw8"],"fee":178745,"totalOutput":10321255,"tokens":[]},{"hash":"eb5b24db73ac9b2cbf26e55f0cb7400afd16e25bb0865663e71623be44259d2e","blockNo":6800704,"blockHash":"c81ecea906bec581c18ec1f5f6d85da7890a199c8e8be6875d4e81053d31a9c0","epochNo":316,"epochSlotNo":418148,"slot":51566948,"time":"2022/01/25 17:53:59","addressesInput":["addr1vx0l928zuszdgn2qs062tyze320v0vmg3hdszkw3fykwdece25sw8","addr1vx0l928zuszdgn2qs062tyze320v0vmg3hdszkw3fykwdece25sw8"],"addressesOutput":["addr1v864dv80sv5vjfpvu7pd4zlm9ue8z683lkfh2qrpdmfnhfqausx3p","addr1q9jwmtls89en4mj9tyqdyemqgdrxcxqawwrfj32mwptd5grar6yl38wymv693k5axgj087nucvqrz80h3gec30etm6es0zysrq","addr1vx0l928zuszdgn2qs062tyze320v0vmg3hdszkw3fykwdece25sw8"],"fee":178745,"totalOutput":7321255,"tokens":[]},{"hash":"ff0a4ecfdde2b0e73f0b0b173148853d97a2e736fe74bbbbe6e858a8dfb463af","blockNo":6800674,"blockHash":"6638fdf4c7b252b9c5c427a65f41de1bbeac110ec463a5622e5e2f867720b1fd","epochNo":316,"epochSlotNo":417624,"slot":51566424,"time":"2022/01/25 17:45:15","addressesInput":["addr1qymaumdm272r24d0s46827plplhc6t520lufdr5vdqn0z8hze4zwjlw3vpjum04n0gjymwde8c9p5r67yqupkzy8yz5qwdv2cd","addr1qymaumdm272r24d0s46827plplhc6t520lufdr5vdqn0z8hze4zwjlw3vpjum04n0gjymwde8c9p5r67yqupkzy8yz5qwdv2cd","addr1qymaumdm272r24d0s46827plplhc6t520lufdr5vdqn0z8hze4zwjlw3vpjum04n0gjymwde8c9p5r67yqupkzy8yz5qwdv2cd","addr1qymaumdm272r24d0s46827plplhc6t520lufdr5vdqn0z8hze4zwjlw3vpjum04n0gjymwde8c9p5r67yqupkzy8yz5qwdv2cd"],"addressesOutput":["addr1qxzyzq8fxmrs5w8lw6xlunkrh8az8rajcpmsnxq6u7pz8nvepn2rqy5a777dfkppwln5xrwwhclumlzwdaps2f9zwh4q0fnypp","addr1qymaumdm272r24d0s46827plplhc6t520lufdr5vdqn0z8hze4zwjlw3vpjum04n0gjymwde8c9p5r67yqupkzy8yz5qwdv2cd","addr1qymaumdm272r24d0s46827plplhc6t520lufdr5vdqn0z8hze4zwjlw3vpjum04n0gjymwde8c9p5r67yqupkzy8yz5qwdv2cd"],"fee":290769,"totalOutput":206035483,"tokens":[]},{"hash":"5e79f2f91e9787fe98145fa0d5760f0c06e07be2ca75c770af1e86e5b97a2fe0","blockNo":6800670,"blockHash":"e696179c32b01c0d689c0fa063ba19f98655d63cfba62d72fc287c9ce789166f","epochNo":316,"epochSlotNo":417594,"slot":51566394,"time":"2022/01/25 17:44:45","addressesInput":["addr1q8fjdde87jrua78trg9ylv7gpvd5skzcv5nqp3wl467ykzgsmz083klcvm744y0n7yyg49ykzz0j628xpu4n5u0r0r4qrfqf6q","addr1q8fjdde87jrua78trg9ylv7gpvd5skzcv5nqp3wl467ykzgsmz083klcvm744y0n7yyg49ykzz0j628xpu4n5u0r0r4qrfqf6q","addr1q8fjdde87jrua78trg9ylv7gpvd5skzcv5nqp3wl467ykzgsmz083klcvm744y0n7yyg49ykzz0j628xpu4n5u0r0r4qrfqf6q"],"addressesOutput":["addr1qygv9gpdqc4jcj6ed9r77f28h0lcum4lm4c8z2ddj5yl09nar6yl38wymv693k5axgj087nucvqrz80h3gec30etm6esseh52y","addr1q8fjdde87jrua78trg9ylv7gpvd5skzcv5nqp3wl467ykzgsmz083klcvm744y0n7yyg49ykzz0j628xpu4n5u0r0r4qrfqf6q","addr1q8fjdde87jrua78trg9ylv7gpvd5skzcv5nqp3wl467ykzgsmz083klcvm744y0n7yyg49ykzz0j628xpu4n5u0r0r4qrfqf6q"],"fee":253589,"totalOutput":192539863,"tokens":[]},{"hash":"60c1b0c01d04806bf0c716f107acd10007fd8f736b9d991ffe8c252d434e22fb","blockNo":6800649,"blockHash":"1ef83a5a5a22da6edfc218273bad4187924e48133d5aaa26f2a11faa94253ed9","epochNo":316,"epochSlotNo":417090,"slot":51565890,"time":"2022/01/25 17:36:21","addressesInput":["addr1vx0l928zuszdgn2qs062tyze320v0vmg3hdszkw3fykwdece25sw8","addr1vx0l928zuszdgn2qs062tyze320v0vmg3hdszkw3fykwdece25sw8"],"addressesOutput":["addr1v864dv80sv5vjfpvu7pd4zlm9ue8z683lkfh2qrpdmfnhfqausx3p","addr1q88e2y70qlylh0eqq49ecf69am2sj734maqy7nazrxf2a9erjgqg04als35jjt85n7l75q4hryrd7wm5ka2xea35050qtw492x","addr1vx0l928zuszdgn2qs062tyze320v0vmg3hdszkw3fykwdece25sw8"],"fee":178745,"totalOutput":7321255,"tokens":[]},{"hash":"28c9711846dae3b63c8d53e83a857fa9b3c76d82aac8861f856606b370498c7a","blockNo":6800630,"blockHash":"51ba936bc05ed2d997fb59650c30c8274a982e6889af7883a3d76c77bfd5d90e","epochNo":316,"epochSlotNo":416662,"slot":51565462,"time":"2022/01/25 17:29:13","addressesInput":["addr1vx0l928zuszdgn2qs062tyze320v0vmg3hdszkw3fykwdece25sw8","addr1vx0l928zuszdgn2qs062tyze320v0vmg3hdszkw3fykwdece25sw8"],"addressesOutput":["addr1v864dv80sv5vjfpvu7pd4zlm9ue8z683lkfh2qrpdmfnhfqausx3p","addr1qy0pzna9t6grc47a4nxqe79ym095j885vd57cscnk0tep4mar6yl38wymv693k5axgj087nucvqrz80h3gec30etm6esktpknf","addr1vx0l928zuszdgn2qs062tyze320v0vmg3hdszkw3fykwdece25sw8"],"fee":178745,"totalOutput":7321255,"tokens":[]},{"hash":"43479cfc7ddc70486943e7ba808b719642535b6666bd170695fbd35f3caae2b1","blockNo":6800606,"blockHash":"39c818ea0362629908b4c01e83ed56decb8a8fc89e5cfe6fc9b75892b1fda9b5","epochNo":316,"epochSlotNo":415951,"slot":51564751,"time":"2022/01/25 17:17:22","addressesInput":["addr1vx0l928zuszdgn2qs062tyze320v0vmg3hdszkw3fykwdece25sw8","addr1vx0l928zuszdgn2qs062tyze320v0vmg3hdszkw3fykwdece25sw8"],"addressesOutput":["addr1v864dv80sv5vjfpvu7pd4zlm9ue8z683lkfh2qrpdmfnhfqausx3p","addr1q8fjdde87jrua78trg9ylv7gpvd5skzcv5nqp3wl467ykzgsmz083klcvm744y0n7yyg49ykzz0j628xpu4n5u0r0r4qrfqf6q","addr1vx0l928zuszdgn2qs062tyze320v0vmg3hdszkw3fykwdece25sw8"],"fee":178745,"totalOutput":7321255,"tokens":[]},{"hash":"b2e52595de996c2682fbb74925f74170dbb2c82933bea468fd2be8e38b8ce363","blockNo":6800587,"blockHash":"c91b243b60f79214db05d20b308d054127cf470ba097ec72bec1ca8f3da44b59","epochNo":316,"epochSlotNo":415554,"slot":51564354,"time":"2022/01/25 17:10:45","addressesInput":["addr1vx0l928zuszdgn2qs062tyze320v0vmg3hdszkw3fykwdece25sw8","addr1vx0l928zuszdgn2qs062tyze320v0vmg3hdszkw3fykwdece25sw8"],"addressesOutput":["addr1v864dv80sv5vjfpvu7pd4zlm9ue8z683lkfh2qrpdmfnhfqausx3p","addr1qx55mapywh6knqs3wzwpj7ruu0dd6q2tjn2vk0lcuuxa4vqjrf42gwq47sdwwz48haj2skdypq9eyq8a5n0nym55lskqh0q3ym","addr1vx0l928zuszdgn2qs062tyze320v0vmg3hdszkw3fykwdece25sw8"],"fee":178745,"totalOutput":10321255,"tokens":[]},{"hash":"3f0975688e29fe29801a44fef60d291af953f2350b21cb9a984a4bb1542c0dac","blockNo":6800587,"blockHash":"c91b243b60f79214db05d20b308d054127cf470ba097ec72bec1ca8f3da44b59","epochNo":316,"epochSlotNo":415554,"slot":51564354,"time":"2022/01/25 17:10:45","addressesInput":["addr1vx0l928zuszdgn2qs062tyze320v0vmg3hdszkw3fykwdece25sw8","addr1vx0l928zuszdgn2qs062tyze320v0vmg3hdszkw3fykwdece25sw8"],"addressesOutput":["addr1v864dv80sv5vjfpvu7pd4zlm9ue8z683lkfh2qrpdmfnhfqausx3p","addr1qxszsqjtp8kf60yvk896cr9td2rkqnsxsgvej2ad8lah8x3hcdj45clk5lfnp6a2m7jdkpwd06t207rf6p2hzx6lv2jsl2szk3","addr1vx0l928zuszdgn2qs062tyze320v0vmg3hdszkw3fykwdece25sw8"],"fee":178745,"totalOutput":14321255,"tokens":[]},{"hash":"6b944b90595611a48e5234b9e2256d6950f2a072682a66ebe2938380bc82f693","blockNo":6800578,"blockHash":"fc269c5cd711f756ab4e83d8bf2451b90bbb3c3aad4979a27e945ed221be50d9","epochNo":316,"epochSlotNo":415248,"slot":51564048,"time":"2022/01/25 17:05:39","addressesInput":["addr1vx0l928zuszdgn2qs062tyze320v0vmg3hdszkw3fykwdece25sw8","addr1vx0l928zuszdgn2qs062tyze320v0vmg3hdszkw3fykwdece25sw8"],"addressesOutput":["addr1v864dv80sv5vjfpvu7pd4zlm9ue8z683lkfh2qrpdmfnhfqausx3p","addr1qyy3nhy7dd0fcdancupwhdxezlfwneqedrkq99upznw93htar6yl38wymv693k5axgj087nucvqrz80h3gec30etm6esghywpg","addr1vx0l928zuszdgn2qs062tyze320v0vmg3hdszkw3fykwdece25sw8"],"fee":178745,"totalOutput":7321255,"tokens":[]}],"totalItems":53,"totalPages":3,"currentPage":0}