{"data":[{"no":367,"status":"SYNCING","blkCount":3649,"outSum":9162859455054469,"txCount":68618,"startTime":"2022/10/02 21:45:57","endTime":"2022/10/03 18:42:37","maxSlot":432000},{"no":366,"status":"FINISHED","blkCount":21098,"outSum":46387092663277022,"txCount":348994,"startTime":"2022/09/27 21:45:11","endTime":"2022/10/02 21:44:26","maxSlot":432000},{"no":365,"status":"FINISHED","blkCount":21027,"outSum":44651234350469328,"txCount":295792,"startTime":"2022/09/22 21:46:27","endTime":"2022/09/27 21:44:36","maxSlot":432000},{"no":364,"status":"FINISHED","blkCount":20964,"outSum":48650561375237884,"txCount":310613,"startTime":"2022/09/17 21:45:01","endTime":"2022/09/22 21:44:47","maxSlot":432000},{"no":363,"status":"FINISHED","blkCount":21361,"outSum":52367504905067104,"txCount":271609,"startTime":"2022/09/12 21:53:14","endTime":"2022/09/17 21:44:21","maxSlot":432000},{"no":362,"status":"FINISHED","blkCount":21266,"outSum":50709125607148052,"txCount":297134,"startTime":"2022/09/07 21:56:05","endTime":"2022/09/12 21:44:47","maxSlot":432000},{"no":361,"status":"FINISHED","blkCount":21242,"outSum":62121616150743418,"txCount":326137,"startTime":"2022/09/02 21:49:50","endTime":"2022/09/07 21:44:46","maxSlot":432000},{"no":360,"status":"FINISHED","blkCount":21226,"outSum":66982837685525805,"txCount":319465,"startTime":"2022/08/28 21:45:32","endTime":"2022/09/02 21:44:28","maxSlot":432000},{"no":359,"status":"FINISHED","blkCount":21023,"outSum":52059343025583155,"txCount":320500,"startTime":"2022/08/23 21:45:52","endTime":"2022/08/28 21:42:39","maxSlot":432000},{"no":358,"status":"FINISHED","blkCount":21169,"outSum":53530066867752145,"txCount":341618,"startTime":"2022/08/18 21:44:58","endTime":"2022/08/23 21:44:46","maxSlot":432000}],"totalItems":368,"totalPages":37,"currentPage":0}