{"data":[{"address":"addr1vx0l928zuszdgn2qs062tyze320v0vmg3hdszkw3fykwdece25sw8","quantity":618571209537822860576},{"address":"addr1qyya3tqthg9ajrfh2ux0chm6dse50r74cqrppwfqd5naxrav002vf6te3g057nrg4ry2fxlas0cdyt5y8x0e7z6mmmpspdvr6h","quantity":62682267270707527680},{"address":"addr1q9j9edkjryr9fnz6eyuwjcjutun9kpgtkdlulzquheldfeermhplrjkd38pvcn2r58dnl0v4rxs9lz6rdj5p77j3wvcs7ud37u","quantity":9580740629078541586},{"address":"addr1v9cpwr32frf6w5x4c3y6ujj72sv0e4zthwm6wtksfh9z43g7wyyqk","quantity":6660143244752176364},{"address":"addr1qyfzxjn7vkuh9zgpwk2s3uuhykr60gqfwyvyrfzcrwpcuc9v002vf6te3g057nrg4ry2fxlas0cdyt5y8x0e7z6mmmps269nkc","quantity":6240088127070752768},{"address":"addr1q97cxtdc00tugzl5elaq0kn8jmuhc3emcmarq0lyrcl9a89v002vf6te3g057nrg4ry2fxlas0cdyt5y8x0e7z6mmmps236cdk","quantity":6235488127070752768},{"address":"addr1q83p6qqdzp5pfk07emjpj63vffkpnz6wa7gvd3p464jxzp4v002vf6te3g057nrg4ry2fxlas0cdyt5y8x0e7z6mmmpse4ws8t","quantity":6230888127070752768},{"address":"addr1q8q43r9j4z0xp5mkp742uw8fg5g7fwfmc8ue0uddct6t37av002vf6te3g057nrg4ry2fxlas0cdyt5y8x0e7z6mmmpsfcyfz4","quantity":6226288127070752768},{"address":"addr1q8ry7duh8crf2s34yxcpqp3fsgghcl3grqkydm0cks6pp69v002vf6te3g057nrg4ry2fxlas0cdyt5y8x0e7z6mmmpstkftz3","quantity":6196990127070752768},{"address":"addr1q9ha835r52znrc54j7lhspurvz7ltqy6a4gjpy2jtwpryh4v002vf6te3g057nrg4ry2fxlas0cdyt5y8x0e7z6mmmpsxe82c9","quantity":6010701576978042564},{"address":"addr1q9jpc2uv379f7hd8zqj8wlk2mm8pc2fsm6zwu8hmxzzvf39v002vf6te3g057nrg4ry2fxlas0cdyt5y8x0e7z6mmmpshcdyrf","quantity":6010696582978042564},{"address":"addr1q8spjcz0fg44rtpcd38ukx9ssy2u6gu9pynhsgjdvgqv5e4v002vf6te3g057nrg4ry2fxlas0cdyt5y8x0e7z6mmmpsduxanm","quantity":6010691570978042564},{"address":"addr1qykv42havej734mj4v9acxfydk03wdspcl8fkccysvtddr4v002vf6te3g057nrg4ry2fxlas0cdyt5y8x0e7z6mmmpsn2zwc0","quantity":6010684576978042564},{"address":"addr1qykwtucxelyxr9c8c0afkyu2smy0ry3t2t7q907dzgqjjy9v002vf6te3g057nrg4ry2fxlas0cdyt5y8x0e7z6mmmps307f6t","quantity":6010678576978042564},{"address":"addr1q902wxkl4tythql7rc6qekjn4s9mknt53czh62vhp0sd7wdv002vf6te3g057nrg4ry2fxlas0cdyt5y8x0e7z6mmmpszhgr6r","quantity":6010671570978042564},{"address":"addr1q98y8ql0urs726gks89mseyya8q0xf82sfdpyvhvcp9cv94v002vf6te3g057nrg4ry2fxlas0cdyt5y8x0e7z6mmmps3rdgnu","quantity":6009958576978042564},{"address":"addr1q865j2h6587ckusdmhx93ad9wy8gmavkzfk60chz6hf387smvraqm8sw4z2f86vcx4pts99qmmx6zgyxq8j22esfqdjq02g7cc","quantity":5345666000000000000},{"address":"addr1q9msmas0czu9t70265ecn9qr7lm0q4g5xzywyrglmcgwun9v002vf6te3g057nrg4ry2fxlas0cdyt5y8x0e7z6mmmpsxxgvwz","quantity":5334068137819071332},{"address":"addr1q96lg2r6ffj858538x4fzwhpsj4x88ml57zxyssghgcy52dv002vf6te3g057nrg4ry2fxlas0cdyt5y8x0e7z6mmmpsncsc59","quantity":5334068137819071332},{"address":"addr1q8t5sgvl720ydgejrne7tswmlaps2djd6pzyxxeh6lrxvr9v002vf6te3g057nrg4ry2fxlas0cdyt5y8x0e7z6mmmpsje5xzr","quantity":5321549131345903436}],"totalItems":387,"totalPages":20,"currentPage":0}