{"data":[{"blockNo":6831372,"slotNo":52215467,"epochNo":318,"epochSlotNo":202667,"hash":"06088c943b4e26a1fa3a0b8947f46603a1c313aa898f019cf5a4e1be163b0f0b","time":"2022/02/02 06:02:38","txCount":17,"totalFees":9011284,"totalOutput":1035229858679,"slotLeader":"a95b4f891edea1c877954d48968968b2c91a80786858d89110caf7f9"},{"blockNo":6831371,"slotNo":52215458,"epochNo":318,"epochSlotNo":202658,"hash":"110c11b4ff1303b307565e92988de9d1428b75048c9b4d4279566cb9f3eee713","time":"2022/02/02 06:02:29","txCount":44,"totalFees":13702519,"totalOutput":3211359866774,"slotLeader":"c63dab6d780a74cbae2a27696c9723f55b3092b2bd001256df03827f"},{"blockNo":6831370,"slotNo":52215411,"epochNo":318,"epochSlotNo":202611,"hash":"62e230c4537e4e33d52fd6cb3299824fa4011c8d4042925def543ac4351bf0d6","time":"2022/02/02 06:01:42","txCount":12,"totalFees":8099965,"totalOutput":2939793533,"slotLeader":"48794370608c8d41cf4ad665833da210ad4fed6c6fd40b48bfad9ca8"},{"blockNo":6831369,"slotNo":52215375,"epochNo":318,"epochSlotNo":202575,"hash":"4a94a74ae53ea481f0748b5d910aecc16cb55c4adef9df899b49987dd2257aa8","time":"2022/02/02 06:01:06","txCount":19,"totalFees":7597321,"totalOutput":46527987958,"slotLeader":"52e22df52e90370f639c99f5c760f0cd67d7f871cd0d0764fae47cd9"},{"blockNo":6831368,"slotNo":52215358,"epochNo":318,"epochSlotNo":202558,"hash":"59ff3e24126c9208a82ca3a4cdcf7725e89cad614426cd9e3efd08875adf3851","time":"2022/02/02 06:00:49","txCount":20,"totalFees":9182107,"totalOutput":7647674331,"slotLeader":"96a46d5a796a30483492c3717f80b7c6ef87e9525af162ffacf74fdb"},{"blockNo":6831367,"slotNo":52215302,"epochNo":318,"epochSlotNo":202502,"hash":"c0729d5c415a8cb37aa623081b9d0d514436dd9ffaece0ef2739730d74fc22a9","time":"2022/02/02 05:59:53","txCount":15,"totalFees":8321054,"totalOutput":5335773030,"slotLeader":"20b95f87c93f3be9e5094c8fbdb924f9ab8b5e1c7bfb542d3a8bc7fc"},{"blockNo":6831366,"slotNo":52215290,"epochNo":318,"epochSlotNo":202490,"hash":"f6a644e7e91750d22b25cb01b979eeead83ab104275aac7c32d11e8b22e4d348","time":"2022/02/02 05:59:41","txCount":48,"totalFees":12632332,"totalOutput":66811977789,"slotLeader":"463e481957f266d93e4decbfb73003380ab17223e0e569f71c7a525a"},{"blockNo":6831365,"slotNo":52215278,"epochNo":318,"epochSlotNo":202478,"hash":"b3f99644c7107f3463a0fbcdb3020eb52f0d053b6ad84720a897384e016784ae","time":"2022/02/02 05:59:29","txCount":8,"totalFees":7403947,"totalOutput":6413487664552,"slotLeader":"000001b844f4e4c900ae0dfdc84a8845f71090b82fb473e6c70a31ee"},{"blockNo":6831364,"slotNo":52215266,"epochNo":318,"epochSlotNo":202466,"hash":"6ea88ed08145686c4b84ef7290347419f0dcbf7209c9f54bdc582f3d3162a62e","time":"2022/02/02 05:59:17","txCount":7,"totalFees":8017651,"totalOutput":15216340965732,"slotLeader":"00beef68425d90f50c8e2102476a0f42ec850836e9affd601ecf7804"},{"blockNo":6831363,"slotNo":52215219,"epochNo":318,"epochSlotNo":202419,"hash":"dd3dc2e000b438c6b154a83b0e59ef8786fcd82b4639d220336ad66218d7bfe5","time":"2022/02/02 05:58:30","txCount":54,"totalFees":16384974,"totalOutput":1841880546929,"slotLeader":"fb21d3e5ed7684742936778239a7bed2bcee1292964ddeb716d3a903"},{"blockNo":6831362,"slotNo":52215211,"epochNo":318,"epochSlotNo":202411,"hash":"efa826086101e9742e6ae042f6a785497bee97d464ab2bbee4e37dcd08050f92","time":"2022/02/02 05:58:22","txCount":29,"totalFees":11117188,"totalOutput":75888753097,"slotLeader":"1cb5d0e006c33ace982a527d4140bc086f99f7d35c27c5ab29600a74"},{"blockNo":6831361,"slotNo":52215208,"epochNo":318,"epochSlotNo":202408,"hash":"4f5a4060ad19f18bb0eab8b342d79c28c0e562f36203f4c613ddd71a277e1b11","time":"2022/02/02 05:58:19","txCount":19,"totalFees":10800022,"totalOutput":128050376563,"slotLeader":"ddeb342bed35ab00242117343ada661db593fb25c55c818f2d3d784f"},{"blockNo":6831360,"slotNo":52215170,"epochNo":318,"epochSlotNo":202370,"hash":"ef2d71feaa3c154595f09710dafcaf36876fa694dbfe98e55f8711e6d8c360f4","time":"2022/02/02 05:57:41","txCount":36,"totalFees":12426658,"totalOutput":47646716867,"slotLeader":"a631b46315b1567ef0ce2b2ad4cb63faac09f32ceba6716a7e331e5e"},{"blockNo":6831359,"slotNo":52215167,"epochNo":318,"epochSlotNo":202367,"hash":"a0593e64374b6985be4e5fd42a7e503f9fa35878acd28ce2d8aa122d1dd28edd","time":"2022/02/02 05:57:38","txCount":26,"totalFees":10741777,"totalOutput":125363361426,"slotLeader":"a7784228ea544bc94455e76f527aaee53266929f0bb2896893a0444f"},{"blockNo":6831358,"slotNo":52215155,"epochNo":318,"epochSlotNo":202355,"hash":"05f9fc123e5d505ab28cef5d0192e933737c453771d5bc93b57e19f8b5c58904","time":"2022/02/02 05:57:26","txCount":18,"totalFees":8557532,"totalOutput":10032446342,"slotLeader":"248a66f38e131b6c3b6ade0a639622068f537824edeb2e9c5b107e86"},{"blockNo":6831357,"slotNo":52215145,"epochNo":318,"epochSlotNo":202345,"hash":"6a24c1ab0eaf9f19cae5891c95cb40d43f6f925592ead728b50b70c9c339a4dc","time":"2022/02/02 05:57:16","txCount":49,"totalFees":16187330,"totalOutput":49765937632,"slotLeader":"d93d0cb0cbc55a964b4ad01fc9001cb4d69ea98fe708d069cd398f76"},{"blockNo":6831356,"slotNo":52215133,"epochNo":318,"epochSlotNo":202333,"hash":"a3769e38839eeb195a00700ffe0683c0a534810bb718e260816f7683ea2f1038","time":"2022/02/02 05:57:04","txCount":29,"totalFees":12307863,"totalOutput":57624888250,"slotLeader":"9418abb33c7cf50778598371bc1f09fe5460d1dedf740faea665f4ac"},{"blockNo":6831355,"slotNo":52215125,"epochNo":318,"epochSlotNo":202325,"hash":"70b24d45d62f6bf6100d46cfe37298569b9324beb3be25d87cb48192d06fb88d","time":"2022/02/02 05:56:56","txCount":35,"totalFees":11525586,"totalOutput":1883535766043,"slotLeader":"f37a8ad3edc8598b01a6630217349571c181404feb97c580925045d8"},{"blockNo":6831354,"slotNo":52215123,"epochNo":318,"epochSlotNo":202323,"hash":"790d277444744967d12d65eff484221aff3ad0ac2d670a5be25992cd93a29785","time":"2022/02/02 05:56:54","txCount":14,"totalFees":8263110,"totalOutput":291252108560,"slotLeader":"00beef373356ff27a77bd510f4cd35d309715afb6f52f49d9186a16e"},{"blockNo":6831353,"slotNo":52215099,"epochNo":318,"epochSlotNo":202299,"hash":"303d360cf924b4ccfb5beb4f2b4a020430a1da95a1baba16d6704aff3a5748c3","time":"2022/02/02 05:56:30","txCount":55,"totalFees":15752747,"totalOutput":1379207169058,"slotLeader":"fb4b7b76ea6d857f442cb9569d186f328fc846bb83222c3150ec3346"}],"totalItems":6831548,"totalPages":341578,"currentPage":0}