{"data":[{"txId":958952,"txHash":"a61693c99e42ddebf7b142d025dc3136a65b2c5cf482ef2e4bfbb7385047739f","txTime":"2023/06/21 09:24:10","block":1075688,"epoch":77,"slotNo":31656250,"epochSlotNo":33850,"stakeKey":"stake_test1urfdqd503fh5zaqj640utflurx95763txvp9vlw4q6jgcuc7qnygv"},{"txId":958573,"txHash":"6abe7bccedb85a7c83d73d6fcc9548540372497860ffd6aff3e8e83613aba54b","txTime":"2023/06/21 09:10:49","block":1075661,"epoch":77,"slotNo":31655449,"epochSlotNo":33049,"stakeKey":"stake_test1uz37n6pyeg0cqjpfruxawp87nh38djw3r5qawv6jwfthtrgfl5jma"},{"txId":957591,"txHash":"a5e4d3513d47059573266b3e806161cc376e6ed54580c6615d2b71f946c7f474","txTime":"2023/06/21 02:25:24","block":1074631,"epoch":77,"slotNo":31631124,"epochSlotNo":8724,"stakeKey":"stake_test1urdqs2ya2gkypfaesnpgm4v4vj45gusnfjxufly9jmvw25qjduldl"},{"txId":957437,"txHash":"51718dbd4a3599c4a2a8ad188babc6ecab1654d3c74307038370ed2730e9d5fc","txTime":"2023/06/21 01:23:51","block":1074460,"epoch":77,"slotNo":31627431,"epochSlotNo":5031,"stakeKey":"stake_test1urvp7670m5ec50fz5dekdu5e8pycx62ys2fkuu80m5v823q59qmel"},{"txId":957383,"txHash":"5df172f7a62487876a985f9cf1fbad1c14930bfd43a04daa76e7b2a7f0d6b822","txTime":"2023/06/21 01:10:56","block":1074427,"epoch":77,"slotNo":31626656,"epochSlotNo":4256,"stakeKey":"stake_test1urvp7670m5ec50fz5dekdu5e8pycx62ys2fkuu80m5v823q59qmel"},{"txId":957316,"txHash":"35ac29533a9efcbd1080a8f803dbf9d37fea4d91141de00a1ee00f41d6717af6","txTime":"2023/06/21 00:46:10","block":1074368,"epoch":77,"slotNo":31625170,"epochSlotNo":2770,"stakeKey":"stake_test17q8snfkq7uhtcaksmwd6mpn85f84su623aagk2peaswvs3shre8vr"},{"txId":956965,"txHash":"576f84902dbdf3ff25bc0d614fc2d4c42ff2f97cabd810a08664b2ea5a4527f5","txTime":"2023/06/20 21:22:59","block":1073840,"epoch":76,"slotNo":31612979,"epochSlotNo":422579,"stakeKey":"stake_test1ur7kvvy4ukkuyexuy7pdyhk48lyr2tufk3a6xdcyrdwd5kqmwc45y"},{"txId":956902,"txHash":"766c0201a672a0e5493b745635e9f9373ec1934bae29ad9fcef51a0ed5563639","txTime":"2023/06/20 21:01:49","block":1073791,"epoch":76,"slotNo":31611709,"epochSlotNo":421309,"stakeKey":"stake_test1ur7kvvy4ukkuyexuy7pdyhk48lyr2tufk3a6xdcyrdwd5kqmwc45y"},{"txId":956884,"txHash":"1c1aff85cbb6df4a55ffaaab945719105431c03e4b4f95ec412795a6e1145d64","txTime":"2023/06/20 20:55:45","block":1073779,"epoch":76,"slotNo":31611345,"epochSlotNo":420945,"stakeKey":"stake_test1ur8u69tv9k3fnc7q8a3xqw6ugs5t4nq4dmjy02zw3w0zjgg7tewuu"},{"txId":956838,"txHash":"1eb03aa2c354da8a2e99b1c93af52f6a840e07bbf97642d5016f6010e3154927","txTime":"2023/06/20 20:47:34","block":1073764,"epoch":76,"slotNo":31610854,"epochSlotNo":420454,"stakeKey":"stake_test1urvp7670m5ec50fz5dekdu5e8pycx62ys2fkuu80m5v823q59qmel"},{"txId":956772,"txHash":"2158b60c10a9df98d8d14afb133a6b48e0598120e7f3af17f65fdf1559bfa5cd","txTime":"2023/06/20 20:34:49","block":1073727,"epoch":76,"slotNo":31610089,"epochSlotNo":419689,"stakeKey":"stake_test17qedgvzpjdv6shzz974fuaedrsa7rdenwzcce4k9wyetfqsqfm4kt"},{"txId":956752,"txHash":"cf775f933ba7d789bba80e934d0788931b1ff2d7d971db4970c0ef39b9f8df8d","txTime":"2023/06/20 20:30:29","block":1073722,"epoch":76,"slotNo":31609829,"epochSlotNo":419429,"stakeKey":"stake_test1urvp7670m5ec50fz5dekdu5e8pycx62ys2fkuu80m5v823q59qmel"},{"txId":956742,"txHash":"dcca53df000fa16f1b45f71f3196cb02ed69ff7e744d4e52b754b8c80b834cf7","txTime":"2023/06/20 20:28:20","block":1073716,"epoch":76,"slotNo":31609700,"epochSlotNo":419300,"stakeKey":"stake_test1ur8u69tv9k3fnc7q8a3xqw6ugs5t4nq4dmjy02zw3w0zjgg7tewuu"},{"txId":956671,"txHash":"8659a42d39fa4a06f8f78a987154e649c3bc8ccae1b043b5ccd5dd7b4f0adfa7","txTime":"2023/06/20 20:14:01","block":1073683,"epoch":76,"slotNo":31608841,"epochSlotNo":418441,"stakeKey":"stake_test17q8snfkq7uhtcaksmwd6mpn85f84su623aagk2peaswvs3shre8vr"},{"txId":956657,"txHash":"58e5adc253b8d777cc46aae599cd00a0bc4fdf95640d740f9876bc08351ec0a7","txTime":"2023/06/20 20:11:08","block":1073675,"epoch":76,"slotNo":31608668,"epochSlotNo":418268,"stakeKey":"stake_test17rs4wd04fx4ls9rpdelrp9qwnh3w6cexlmgj42h5t0tvv8gjrqqjc"},{"txId":955463,"txHash":"7692b9d1a920fba1c862e56f0e1c67db095eecebf095dfbc8bab8252112b4410","txTime":"2023/06/20 14:21:03","block":1072810,"epoch":76,"slotNo":31587663,"epochSlotNo":397263,"stakeKey":"stake_test17rgr608tyvgawu5ja328xy523rrj75xx5x492gltauc649czsnx8t"},{"txId":955463,"txHash":"7692b9d1a920fba1c862e56f0e1c67db095eecebf095dfbc8bab8252112b4410","txTime":"2023/06/20 14:21:03","block":1072810,"epoch":76,"slotNo":31587663,"epochSlotNo":397263,"stakeKey":"stake_test17p6ffq4jle9vw9daatwx0kclgfsqfqltkxgnl2q2yeq35cc9du8ml"},{"txId":955460,"txHash":"8b9c7e98cfe5448cc458d8e7be85dafa36041c8e7f7c2412500fa9f642921173","txTime":"2023/06/20 14:20:14","block":1072807,"epoch":76,"slotNo":31587614,"epochSlotNo":397214,"stakeKey":"stake_test17rgr608tyvgawu5ja328xy523rrj75xx5x492gltauc649czsnx8t"},{"txId":955460,"txHash":"8b9c7e98cfe5448cc458d8e7be85dafa36041c8e7f7c2412500fa9f642921173","txTime":"2023/06/20 14:20:14","block":1072807,"epoch":76,"slotNo":31587614,"epochSlotNo":397214,"stakeKey":"stake_test17p6ffq4jle9vw9daatwx0kclgfsqfqltkxgnl2q2yeq35cc9du8ml"},{"txId":955446,"txHash":"c3dfa3ae4c22d32926717d42913f2f04df2be8c33abd7075562d4ce60ad92cbb","txTime":"2023/06/20 14:18:08","block":1072801,"epoch":76,"slotNo":31587488,"epochSlotNo":397088,"stakeKey":"stake_test17rgr608tyvgawu5ja328xy523rrj75xx5x492gltauc649czsnx8t"}],"totalItems":2566,"totalPages":129,"currentPage":0}