{"data":[{"blockNo":6847390,"slotNo":52558542,"epochNo":319,"epochSlotNo":113742,"hash":"88805f30ea3bb5895ba0f88d3f9c22dc062b644dced3206d8f42df42e75c579e","time":"2022/02/06 05:20:33","txCount":47,"totalFees":14291610,"totalOutput":1023206541971,"slotLeader":"e13efa0c5fa2ac9a8c8603a6f7497f7b44929770aa9737c061981bef"},{"blockNo":6847389,"slotNo":52558508,"epochNo":319,"epochSlotNo":113708,"hash":"e4541c046eff31d94ec71575ea56d2b8297881587b0532b9463b21543ae9250a","time":"2022/02/06 05:19:59","txCount":18,"totalFees":9806197,"totalOutput":1498485622301,"slotLeader":"4f04025065314e75684cd38357ac6af703fcef705d9b4f638e3caf46"},{"blockNo":6847388,"slotNo":52558506,"epochNo":319,"epochSlotNo":113706,"hash":"8b7c630523c6bbe874ffdd2665dbba695a5eaff534bd784819faa001d5fb540a","time":"2022/02/06 05:19:57","txCount":61,"totalFees":17480868,"totalOutput":223601157037,"slotLeader":"768a4abe40bf4ec986087a6f356984da85ac3b8388dfa6840e3cdcf7"},{"blockNo":6847387,"slotNo":52558462,"epochNo":319,"epochSlotNo":113662,"hash":"1f9c5cdc10cc2aa8229fb6f9154e96b2d1489e0d3348b59078e9171d1ad2c466","time":"2022/02/06 05:19:13","txCount":18,"totalFees":9739082,"totalOutput":121431957346,"slotLeader":"57eb48cdf25980039f087207af09fafb4970018e322d37c11c9a2496"},{"blockNo":6847386,"slotNo":52558405,"epochNo":319,"epochSlotNo":113605,"hash":"e3082e8bb24a25b3c0f205f89b8c1de035b9cfdcd7d17f00a5f12a13dd607b35","time":"2022/02/06 05:18:16","txCount":28,"totalFees":12197463,"totalOutput":37229239651,"slotLeader":"c779f67a0f3a1f2985626e345013015f71cf245dbcc8ac8457f42e56"},{"blockNo":6847385,"slotNo":52558383,"epochNo":319,"epochSlotNo":113583,"hash":"73a7aa1aa6d5e199f604440864876523d4628cf204f4fe2858bdef86c8fbd33a","time":"2022/02/06 05:17:54","txCount":17,"totalFees":9197933,"totalOutput":621777052111,"slotLeader":"bc00a90f9f448be5cfaa4e76dbc13353b83b59cb3f2c5e321555ca28"},{"blockNo":6847384,"slotNo":52558379,"epochNo":319,"epochSlotNo":113579,"hash":"a6423368c760121d2d6e4ca4d7a5a9994f31cc8f4331e1bf1bd7afec332f7942","time":"2022/02/06 05:17:50","txCount":19,"totalFees":9256106,"totalOutput":33722104258,"slotLeader":"88ad8407d0ca94fae8254604b29fbc2c5ae3d00a47b7117664ad849d"},{"blockNo":6847383,"slotNo":52558333,"epochNo":319,"epochSlotNo":113533,"hash":"e148f1c517bf147b062be2ef1007ca8b973d1d8e94311d4fa1ffc72ec1b6c546","time":"2022/02/06 05:17:04","txCount":26,"totalFees":10773876,"totalOutput":1726003785,"slotLeader":"76bfa1b2e6593740c3388ed881cbe851dbab8d8741652c9bad16cc94"},{"blockNo":6847382,"slotNo":52558327,"epochNo":319,"epochSlotNo":113527,"hash":"731e99a786befd22d6392cbeed4856c7feb026a939a31277c9e8a4739d3138d9","time":"2022/02/06 05:16:58","txCount":39,"totalFees":15337306,"totalOutput":141859115242,"slotLeader":"fb4b7b76ea6d857f442cb9569d186f328fc846bb83222c3150ec3346"},{"blockNo":6847381,"slotNo":52558324,"epochNo":319,"epochSlotNo":113524,"hash":"b28903ea1412cf0bf112da1a4f7202b199e2c2762e7eaff6b88143265e8354ed","time":"2022/02/06 05:16:55","txCount":36,"totalFees":12509691,"totalOutput":1007966348898,"slotLeader":"4511bcca3896bcb6d43b66fb89fe079f00f44bed505c9ca232704dc9"},{"blockNo":6847380,"slotNo":52558275,"epochNo":319,"epochSlotNo":113475,"hash":"5592b2ad97c49114d2cc29d7fbebcbad25be4496023ffe779253cb1050975366","time":"2022/02/06 05:16:06","txCount":20,"totalFees":9742124,"totalOutput":1965361154236,"slotLeader":"1b2523e031e0efe6e5fe0edf8c82fd51abf33a1a2feedad5456ef4d9"},{"blockNo":6847379,"slotNo":52558270,"epochNo":319,"epochSlotNo":113470,"hash":"8df6359e5f9371f19b10078763dc1a0bbb3d84cf939de511c252f72f90e57687","time":"2022/02/06 05:16:01","txCount":22,"totalFees":10948960,"totalOutput":17266428033193,"slotLeader":"e40edb5a243c9ef00296860c6b7c8272fd5923ac52b5050d68e80d9b"},{"blockNo":6847378,"slotNo":52558254,"epochNo":319,"epochSlotNo":113454,"hash":"3a3dceb7b8282005098f293dcab24af81c97da8e482e2f5a7f4cf1323ad5c020","time":"2022/02/06 05:15:45","txCount":23,"totalFees":10642321,"totalOutput":15673986943,"slotLeader":"8e06d57e463f8a73f37652b23d126eeb52e6838168700d0478d32851"},{"blockNo":6847377,"slotNo":52558240,"epochNo":319,"epochSlotNo":113440,"hash":"118cc59827e570044ebed2495f10b82cabaaacfe3e67009536fa52e5a198c0dc","time":"2022/02/06 05:15:31","txCount":34,"totalFees":11865434,"totalOutput":39076760020,"slotLeader":"40ff71258d2c73da9e2a5ee3abb9be256e745e7f74c31eb8d4be5299"},{"blockNo":6847376,"slotNo":52558217,"epochNo":319,"epochSlotNo":113417,"hash":"05940217704dbf03d53061abc60afa5a038c423705ce9fa195d68ce719ffc15e","time":"2022/02/06 05:15:08","txCount":46,"totalFees":15339753,"totalOutput":255714924286,"slotLeader":"f51e13866bf3427d1a1e97ec3c6e22e662d3a030ac26812e111c94cf"},{"blockNo":6847375,"slotNo":52558190,"epochNo":319,"epochSlotNo":113390,"hash":"5b873d8bdae43c1a2f7803fed0d4a2a9bc7694282099f7e208f81d4c8763fbbd","time":"2022/02/06 05:14:41","txCount":44,"totalFees":14508171,"totalOutput":965337586489,"slotLeader":"e98e298624ce6efe34635318bdd5d634bed732bb238989d3d1b6fc9e"},{"blockNo":6847374,"slotNo":52558153,"epochNo":319,"epochSlotNo":113353,"hash":"0aada786465ce509eeaa8cd929f14bcabec98f2140c921c0d22f4d9660794f2b","time":"2022/02/06 05:14:04","txCount":17,"totalFees":9604655,"totalOutput":618851026154,"slotLeader":"c83beb18d532234c72a304ab935982be670c22e771b227a3febc3a82"},{"blockNo":6847373,"slotNo":52558148,"epochNo":319,"epochSlotNo":113348,"hash":"e96e8ae35532e56ad4b09926b81311dbc7e31d5a10c76f94c168637eb24c2706","time":"2022/02/06 05:13:59","txCount":48,"totalFees":15172553,"totalOutput":438008254371,"slotLeader":"6539a70bb6e61540444133eab3a24288d1cd3ddc3598adde93475513"},{"blockNo":6847372,"slotNo":52558104,"epochNo":319,"epochSlotNo":113304,"hash":"0741bc8eed0e2c7a0779da8d6679e9edf30584701c9750ce007131847e677e0b","time":"2022/02/06 05:13:15","txCount":22,"totalFees":10474991,"totalOutput":630415612420,"slotLeader":"c485ab20bd3f105e59f3c50a0d3fbaf615a51f70a1c6d29d00a1fd27"},{"blockNo":6847371,"slotNo":52558086,"epochNo":319,"epochSlotNo":113286,"hash":"9a61efc37d911c9e046ce31a306f19006354d8143bcfe56fe3494d4017e32f84","time":"2022/02/06 05:12:57","txCount":36,"totalFees":11989400,"totalOutput":51969650005,"slotLeader":"3b3327c0a885ba7c1ebeec8b44158aab79c32148d45b4c701344cd97"}],"totalItems":6847566,"totalPages":342379,"currentPage":0}