{"data":[{"txId":62219679,"txHash":"111e94d24a988e4efabce1eacc25a15681f32f941500ef32757942480e93ac5b","txTime":"2023/02/17 18:15:41","block":8411728,"epoch":394,"slotNo":85091450,"epochSlotNo":246650,"stakeKey":"stake1ux6xvnpf9hhylc8fcx0pq8v2v9qevmajwltkatx0lxar49glsau94"},{"txId":62219583,"txHash":"b6791661e92151766db081822272fa7b72afe0b7e36f74bafa55e2a2db9515e2","txTime":"2023/02/17 18:14:15","block":8411725,"epoch":394,"slotNo":85091364,"epochSlotNo":246564,"stakeKey":"stake1u9uwvfqwvegxvggjp0gywu4f4mhq6y3mywx6y6zz5rluemqyeag6g"},{"txId":62219582,"txHash":"4db3667a7e2dd04b2dd98f5f1e597c40918e0ea6546c03614902505d5b7d4dc3","txTime":"2023/02/17 18:14:15","block":8411725,"epoch":394,"slotNo":85091364,"epochSlotNo":246564,"stakeKey":"stake1u8h4mggp8f00dl66escdn9vtrl4nafvz8r3nd8xe48eh8sqplj6rp"},{"txId":62219454,"txHash":"347cc38b0337831a779fcadaeacf78fe83c4542b8243c2ab97ad0b2cf4d0e7c4","txTime":"2023/02/17 18:10:35","block":8411719,"epoch":394,"slotNo":85091144,"epochSlotNo":246344,"stakeKey":"stake1uyw0cetvp9jx4k2fy72guyxeqr22afcxleru98th04mzjds9xvw88"},{"txId":62219309,"txHash":"ec6ec8935608fd4497e2fe51769f3363e995b6f69a349488283cbadf249dd73a","txTime":"2023/02/17 18:07:04","block":8411709,"epoch":394,"slotNo":85090933,"epochSlotNo":246133,"stakeKey":"stake1uxadr6kzcz7lax7cz38hr72vm4mvltl8nt7c55cxcsnfpzgv8tyqm"},{"txId":62219022,"txHash":"b5b0ecbe3d5b53fdb1fb290636238e1a8e1d22e9e825fb1e2c21aa3e146cc155","txTime":"2023/02/17 18:00:18","block":8411690,"epoch":394,"slotNo":85090527,"epochSlotNo":245727,"stakeKey":"stake1uxa0xmatqtg2ma9u3e49439cnqyg8rcth84l3scs6tmtc0qv8yhnr"},{"txId":62218679,"txHash":"3faaf4fae088072f0007612933c22b7bfbc1dc596923602eb5e872247434324c","txTime":"2023/02/17 17:52:32","block":8411664,"epoch":394,"slotNo":85090061,"epochSlotNo":245261,"stakeKey":"stake1ux6fj9wmdgs5dz5g0ckfc9enng3ph9nlnqgtnkwv4q7v59qw3u8sl"},{"txId":62218272,"txHash":"3c7fb928548b061458374b330b2c32122b0776eb240201dbfdbd2be78bb7f89c","txTime":"2023/02/17 17:44:26","block":8411632,"epoch":394,"slotNo":85089575,"epochSlotNo":244775,"stakeKey":"stake1u8c423jmtzppl5vzf39d76y93n5tc3tff35f5xlpwjaut7qzxfatq"},{"txId":62217917,"txHash":"0ae61fdb27598065dab9c03c77d223dd6789dd71bfbeb3dacda192fa542089bb","txTime":"2023/02/17 17:39:04","block":8411616,"epoch":394,"slotNo":85089253,"epochSlotNo":244453,"stakeKey":"stake1uyy5aex3stkfvk3yy6um82f9ce7xngg67c203xz6jgnu9ugpjklwz"},{"txId":62217548,"txHash":"273b08d822b1b276da3382742f09d49cc56457db0af00b3d33583bc13277e550","txTime":"2023/02/17 17:30:02","block":8411595,"epoch":394,"slotNo":85088711,"epochSlotNo":243911,"stakeKey":"stake1u9gnwehzytvm6m6z37m9cnae362a7z2gdvnz8q3v5dr9deg79efkr"},{"txId":62215802,"txHash":"0656c70784416951c5b83293c8cf61b700dd5e3def27edd4463a2b2e5e453ac0","txTime":"2023/02/17 17:01:37","block":8411500,"epoch":394,"slotNo":85087006,"epochSlotNo":242206,"stakeKey":"stake1u8l2pultlehk0a3mgm7qdxgu5peanxnnkahprex757mg9act669ee"},{"txId":62215753,"txHash":"b265205aa275f608b6394efef76a10f0f3da4cde18f4a04001ed0256a9c7d5e8","txTime":"2023/02/17 17:01:14","block":8411497,"epoch":394,"slotNo":85086983,"epochSlotNo":242183,"stakeKey":"stake1uxtaxrn2crug4uul8l0sjana6wys6jep5cufanywrlhtxdgxlwucx"},{"txId":62215445,"txHash":"aebcdff2438205c7bd27a926a0f5d7612c653f85921441793c0e88bfa028f227","txTime":"2023/02/17 16:54:42","block":8411481,"epoch":394,"slotNo":85086591,"epochSlotNo":241791,"stakeKey":"stake1u8lg0fe9kmd87e0e3rpmf0wqalgcwxxn028msgcjnpgpz2sz54gru"},{"txId":62215207,"txHash":"064212a535833921e06d873cade76a92000a64950ae911de988b359955e01345","txTime":"2023/02/17 16:48:52","block":8411468,"epoch":394,"slotNo":85086241,"epochSlotNo":241441,"stakeKey":"stake1uxsgrx9skss6c0ve6m2lrvlrqeyadxww5wj0yh3wv6z03zs72gg0r"},{"txId":62215023,"txHash":"41aa24c3ac76edfa836feb77bc580e1f0d3e2e34a1f9079eb344e4aa810f3595","txTime":"2023/02/17 16:44:32","block":8411454,"epoch":394,"slotNo":85085981,"epochSlotNo":241181,"stakeKey":"stake1uy6aw8mwp8caqa770w5et7rm4gwewqc7ugksfg3ng9snltg4t2xtw"},{"txId":62214882,"txHash":"41ae2b5389dda6b86f7bd1eacaf6199927c9c2a1561069c0ca96548249330fbd","txTime":"2023/02/17 16:42:26","block":8411451,"epoch":394,"slotNo":85085855,"epochSlotNo":241055,"stakeKey":"stake1u9zhvkfz6ne8v2twyl7u0pvfkd0cd9tpu3vfxer42qncf8qss7e9s"},{"txId":62214212,"txHash":"88cf5c5763b80730d3186d51fd3982e43d8a88ef79e5f4d06509a3351fe8f35a","txTime":"2023/02/17 16:29:17","block":8411411,"epoch":394,"slotNo":85085066,"epochSlotNo":240266,"stakeKey":"stake1uy9rtxhdyl29d2p7yn3daf9lqe53d2w04tsf2wqtsa470tqmsdtvd"},{"txId":62213651,"txHash":"a5c7f3e123a7a50e5a6a6d64d2d13cd9bfb70eb63ebb3b45e64d9cc9cf843269","txTime":"2023/02/17 16:18:01","block":8411383,"epoch":394,"slotNo":85084390,"epochSlotNo":239590,"stakeKey":"stake1u8v6l744vnrm3tak76cduatvfh2xvkykyxpujr296eauh4s83f9fk"},{"txId":62213164,"txHash":"01e8cba980c8db4d4b9a43d82a3317e7fde154a86495f6282a62e32c2de54781","txTime":"2023/02/17 16:08:00","block":8411357,"epoch":394,"slotNo":85083789,"epochSlotNo":238989,"stakeKey":"stake1uyzdwfqpz2yw9kfrvmnulfyjdqcngd8gl8e7z7jeqj5uplsjhlctq"},{"txId":62213033,"txHash":"f8dbe7f4106cf4347ce17ab338a79e3665a1799db816d18d8638785a8c50c728","txTime":"2023/02/17 16:04:14","block":8411347,"epoch":394,"slotNo":85083563,"epochSlotNo":238763,"stakeKey":"stake1u9ax5tjazccgg66ehwc2t2sd7l6x3cwge5e7v4n2hhdlg5c3nf94g"}],"totalItems":354346,"totalPages":17718,"currentPage":0}