{"data":[{"blockNo":8127495,"slotNo":79226418,"epochNo":380,"epochSlotNo":429618,"hash":"e0f7037952733d56130704eead457d31b26dea2e76f38f34191ee275326762ca","time":"2022/12/11 21:05:09","txCount":37,"totalFees":13103497,"totalOutput":4312403662248,"slotLeader":"4987d8a81c1e79f600771b4331fe84ce2f700f2855ae345d915dbf51"},{"blockNo":8127494,"slotNo":79226359,"epochNo":380,"epochSlotNo":429559,"hash":"260cd91faec5b79645b375a270e5cf41e737048dd53f5df93fd96ea15370a946","time":"2022/12/11 21:04:10","txCount":1,"totalFees":175665,"totalOutput":113428582,"slotLeader":"e76cf5ef93b5c650db92026b1c5fd802e4b4913a66efb96d410a92ae"},{"blockNo":8127493,"slotNo":79226358,"epochNo":380,"epochSlotNo":429558,"hash":"2b2e04c2a2dc3ae2a103af6e52eb8c8b7cb0c27dad86e3c1f7a1fff3e5fe4a19","time":"2022/12/11 21:04:09","txCount":57,"totalFees":16537458,"totalOutput":4510299140820,"slotLeader":"a087620de93bee6faeb0c33ca5e647f9c4e1e037d8f28e95dc583179"},{"blockNo":8127492,"slotNo":79226308,"epochNo":380,"epochSlotNo":429508,"hash":"404217441f19a1fa5ee7f569f44a30a67ed30d70266eb8f8967147251aa235d0","time":"2022/12/11 21:03:19","txCount":1,"totalFees":170253,"totalOutput":2328711084,"slotLeader":"0319357f4578b716282f4c58dd6be4d613053a40346a208306a05d03"},{"blockNo":8127491,"slotNo":79226307,"epochNo":380,"epochSlotNo":429507,"hash":"3a2b71c1ab068b0ee1c1f7bf1a6bcb8ea461ce68ec747b6d93b35364040e0331","time":"2022/12/11 21:03:18","txCount":4,"totalFees":1953880,"totalOutput":5710018417,"slotLeader":"00000036d515e12e18cd3c88c74f09a67984c2c279a5296aa96efe89"},{"blockNo":8127490,"slotNo":79226300,"epochNo":380,"epochSlotNo":429500,"hash":"eb68d53a17beb84d862a782b6db407a0ef0f9f9d538f5aa430c6cf771b58cccc","time":"2022/12/11 21:03:11","txCount":6,"totalFees":1465576,"totalOutput":2233202344,"slotLeader":"c6074d596a4d1629304bfd92715ec1677aeb378e4932723616d575f1"},{"blockNo":8127489,"slotNo":79226297,"epochNo":380,"epochSlotNo":429497,"hash":"586232750c83def1c727a4e616a93b3d9aa533015e3a5cdd9ea284299e5adfb9","time":"2022/12/11 21:03:08","txCount":8,"totalFees":2624161,"totalOutput":928805385,"slotLeader":"c7a434e33111ad62c0b99882c748e9e748c3442d161565661ad8dda4"},{"blockNo":8127488,"slotNo":79226286,"epochNo":380,"epochSlotNo":429486,"hash":"b146562612fc003f730afec66c5b2ba88f871671d8b33f4e73b48bfa7acccfb4","time":"2022/12/11 21:02:57","txCount":21,"totalFees":9353547,"totalOutput":1110438219736,"slotLeader":"c1cadab46b74defa9f79b59b617fe2a50bdbce6b367e472b6109a7bc"},{"blockNo":8127487,"slotNo":79226255,"epochNo":380,"epochSlotNo":429455,"hash":"241f3b83fbbc4adaba5159191981400e5b38734497d805d0fd1af2d77e57dfad","time":"2022/12/11 21:02:26","txCount":18,"totalFees":4359494,"totalOutput":294755329768,"slotLeader":"bf7908ea0ef61c441e4dca0e756f335c33459bb8f2779cb8f6caf8eb"},{"blockNo":8127486,"slotNo":79226235,"epochNo":380,"epochSlotNo":429435,"hash":"fab8beaa1bd2d1d536f15f18a27bcbdf526809b53bef02fa37c5b37f660bc2f5","time":"2022/12/11 21:02:06","txCount":6,"totalFees":2314332,"totalOutput":9670931075048,"slotLeader":"49f23c86547526bbd0c9320d3704542c84472f426b923a3e429392eb"},{"blockNo":8127485,"slotNo":79226225,"epochNo":380,"epochSlotNo":429425,"hash":"9c9f0e79737c7e024e7e48d8a6986607bc8048271c959b8afeef87267c62f5b4","time":"2022/12/11 21:01:56","txCount":6,"totalFees":1168965,"totalOutput":5309005861,"slotLeader":"df1750df9b2df285fcfb50f4740657a18ee3af42727d410c37b86207"},{"blockNo":8127484,"slotNo":79226216,"epochNo":380,"epochSlotNo":429416,"hash":"ffd078c7d2e3e258886f2283810151f592481de2cfc605cf3df64635698c70d8","time":"2022/12/11 21:01:47","txCount":31,"totalFees":8826378,"totalOutput":209703174616,"slotLeader":"490353aa6b85efb28922acd9e0ee1dcf6d0c269b9f0583718b0274ba"},{"blockNo":8127483,"slotNo":79226183,"epochNo":380,"epochSlotNo":429383,"hash":"b4a094f757add5009fc569c6b122a38b73784314fc82704146fc05e473e4e140","time":"2022/12/11 21:01:14","txCount":8,"totalFees":1798776,"totalOutput":64779656905,"slotLeader":"b3f9883d3de29971c43e05fdb985281ffee737be0e5669094810ba6b"},{"blockNo":8127482,"slotNo":79226173,"epochNo":380,"epochSlotNo":429373,"hash":"31809b930682a8ab956f38b8aadb306e1f2eb125bdacd7763983e7c35b55e4ab","time":"2022/12/11 21:01:04","txCount":5,"totalFees":2341934,"totalOutput":993746702,"slotLeader":"f0e505f8f0d7beccffe83c287d0d2ff6a46ec5d38345e8bd35359427"},{"blockNo":8127481,"slotNo":79226167,"epochNo":380,"epochSlotNo":429367,"hash":"28c6519a804d1fd5f460db9f48f44cd5997a8638e70f97b64664250061831271","time":"2022/12/11 21:00:58","txCount":35,"totalFees":12515390,"totalOutput":6035048317484,"slotLeader":"8e06d57e463f8a73f37652b23d126eeb52e6838168700d0478d32851"},{"blockNo":8127480,"slotNo":79226152,"epochNo":380,"epochSlotNo":429352,"hash":"464625abc77dba145482166866ca736c657f807992dd5ad3d911e39154193bde","time":"2022/12/11 21:00:43","txCount":39,"totalFees":13298108,"totalOutput":9687530123673,"slotLeader":"3116c834a09b0060aef7284f63d3275456364e3309b3c19ec328af60"},{"blockNo":8127479,"slotNo":79226089,"epochNo":380,"epochSlotNo":429289,"hash":"21f04815f6ba20f9301c44b8037113ab916239b6a6239a72096c3ca9edda0c2b","time":"2022/12/11 20:59:40","txCount":8,"totalFees":2614922,"totalOutput":51634967549,"slotLeader":"dda4bc64e339336e3f7bc158177df0c71dc760ff11cb8b0651b3ece4"},{"blockNo":8127478,"slotNo":79226079,"epochNo":380,"epochSlotNo":429279,"hash":"4bd39a2d266f81e37bab0fce5fd5b9d3b1d2ede8ee9408dd0cd84424bf6046f9","time":"2022/12/11 20:59:30","txCount":44,"totalFees":12909307,"totalOutput":5823056087049,"slotLeader":"639288b5e4bf267ece78e9a4941dd794f50ec54785f84c687b4ab086"},{"blockNo":8127477,"slotNo":79226045,"epochNo":380,"epochSlotNo":429245,"hash":"78d961a3855e082f48b90d86daaf18df1f016f9e15585fab8da7abdd71674935","time":"2022/12/11 20:58:56","txCount":14,"totalFees":4696537,"totalOutput":1981067844650,"slotLeader":"00beef8710427e328a29555283c74b202b40bec9a62630a9f03b1e18"},{"blockNo":8127476,"slotNo":79226034,"epochNo":380,"epochSlotNo":429234,"hash":"1017081fd818a90a0d3f5534f004a5f1f02ebca462140875ba9f1ffa9ab9dd08","time":"2022/12/11 20:58:45","txCount":10,"totalFees":2184418,"totalOutput":40588602507,"slotLeader":"4a5571be1cb000df524350ef170f73cc0c0404155350dd0f71e4d130"}],"totalItems":8127671,"totalPages":406384,"currentPage":0}