{"data":[{"txId":69434677,"txHash":"3a47360a628b9e50eaa9f84e3081066c32ce92d0ba90efde69111f15842f32d1","txTime":"2023/06/19 12:22:09","block":8923986,"epoch":418,"slotNo":95611038,"epochSlotNo":398238,"stakeKey":"stake1uxwrf8mr4e66ax9aqk85lv069s5svrv8mcdcfqkywatmnxqzf2n0x"},{"txId":69434248,"txHash":"22fc879110e325f5ba214c0996bfa1ffedeb7c9baa06cb8ddcf471b94c52806f","txTime":"2023/06/19 12:13:03","block":8923962,"epoch":418,"slotNo":95610492,"epochSlotNo":397692,"stakeKey":"stake1u9a4j2yg9e4zz587vqyl4xjjfnv0jfq0tc47xe49l68m2xgrpa68v"},{"txId":69434223,"txHash":"1097e4a410dbf85e320c13ba21cde81d65495b0dbc20ec4fbd9013f19ceecf63","txTime":"2023/06/19 12:12:34","block":8923961,"epoch":418,"slotNo":95610463,"epochSlotNo":397663,"stakeKey":"stake1uxwrf8mr4e66ax9aqk85lv069s5svrv8mcdcfqkywatmnxqzf2n0x"},{"txId":69433989,"txHash":"dd7e19c4e62ad299c6a836df4fbc0eb8ba656555f9db6fed2cca4ced83db69d0","txTime":"2023/06/19 12:06:26","block":8923947,"epoch":418,"slotNo":95610095,"epochSlotNo":397295,"stakeKey":"stake1uxc9y28xgexfzh4lutjkhm0m5c5d6pnsdm7tuufm4s6ucnquu5za0"},{"txId":69433932,"txHash":"a853c9f8b2375c5ca98073078be2ef6a6c7ab71702d5a38ee7a67442315a8adb","txTime":"2023/06/19 12:05:32","block":8923945,"epoch":418,"slotNo":95610041,"epochSlotNo":397241,"stakeKey":"stake1u88l3v0fezutfq9ww2rne483zkwet0d2l5ex0pz3susq00cwjpuwr"},{"txId":69433690,"txHash":"dcaefe7ea2978393f1392b8fb87f907a74717a8c74b36267b0a0cd362476b48b","txTime":"2023/06/19 12:00:50","block":8923936,"epoch":418,"slotNo":95609759,"epochSlotNo":396959,"stakeKey":"stake1uxkrzj5q8katx89urzukm2vhjzc3kgvwcwm0uanh8ezxqxq8t87m9"},{"txId":69433587,"txHash":"644035e93c7aaaabf51a7d1ba890b54f4ca88b74412a4db53fa76df0536f3ad1","txTime":"2023/06/19 11:57:16","block":8923922,"epoch":418,"slotNo":95609545,"epochSlotNo":396745,"stakeKey":"stake1u9j5h8ph6ys7lhhqr3t9t2fezy2ve8yflj66ldycjtvgsksnl6sdt"},{"txId":69433517,"txHash":"e3c94064586ef63ead3fb936bc3cfee73d3ec39894fc5fa3f98976e966648374","txTime":"2023/06/19 11:56:21","block":8923918,"epoch":418,"slotNo":95609490,"epochSlotNo":396690,"stakeKey":"stake1uxd68uy3pp0tnmh7k6nzfj50rtgaz5fckug67kk7y6sujlqspg5dj"},{"txId":69433400,"txHash":"5819bb8aa531d8072d4a0253521fc5da05e583fb7abaaac27f2adea3a15028af","txTime":"2023/06/19 11:52:39","block":8923908,"epoch":418,"slotNo":95609268,"epochSlotNo":396468,"stakeKey":"stake1uxd68uy3pp0tnmh7k6nzfj50rtgaz5fckug67kk7y6sujlqspg5dj"},{"txId":69433359,"txHash":"7a52f0b216930597ff124934731aa550fc2591e783767ff797950487c3636cbc","txTime":"2023/06/19 11:51:30","block":8923906,"epoch":418,"slotNo":95609199,"epochSlotNo":396399,"stakeKey":"stake1uyzva9j96ahjhgcgg6v8fkxjqq309chu56nmerzfafse4ksehacl6"},{"txId":69433281,"txHash":"d8237e53666307a87a4119af92546e8466875b60ccfac79fee8a7b94d3866004","txTime":"2023/06/19 11:49:23","block":8923899,"epoch":418,"slotNo":95609072,"epochSlotNo":396272,"stakeKey":"stake1u9s05v0amkw8sspcmkxwgmukzhnsu7pwp25ydv647mcq8dqg9ngn5"},{"txId":69433069,"txHash":"34dddcc3d36a125edace3340e066bde37219f23a5745d5e64944674a0c2a9584","txTime":"2023/06/19 11:45:21","block":8923889,"epoch":418,"slotNo":95608830,"epochSlotNo":396030,"stakeKey":"stake1u8ydarrymsuh60hzm2ddszfqr2cagmay4jj6ez6g2kry9ggw5qexq"},{"txId":69432929,"txHash":"ac3527dd79d536c7d1b49d4dcb42185325835c3c9b2de64c5e6c39845ebaba28","txTime":"2023/06/19 11:42:23","block":8923879,"epoch":418,"slotNo":95608652,"epochSlotNo":395852,"stakeKey":"stake1u9wyjt753nfm4569e6fps3v0c27cugl02fe8jtfxze97hegjldcu7"},{"txId":69432758,"txHash":"7a972a76a1c5c4b01cbb81a72248104d062585016bcbb60cd9fde57678ebfc83","txTime":"2023/06/19 11:37:35","block":8923866,"epoch":418,"slotNo":95608364,"epochSlotNo":395564,"stakeKey":"stake1uyczxcasrgkthxl3ujtrtgf4787wtjq93wzpquz6zl8hrds2a77vj"},{"txId":69432627,"txHash":"6089a521e46a911a54c97c644ab8d1309a5bd2f8bf3c3e807df83719a19b8dc6","txTime":"2023/06/19 11:33:26","block":8923858,"epoch":418,"slotNo":95608115,"epochSlotNo":395315,"stakeKey":"stake1u9lrwxzp8ek8przdwe8egyzj6n80jv58y25gqfnx3pcrgcccn36th"},{"txId":69431275,"txHash":"f79b2df03d50f3b929629da7f1d84163e3ba21fb2fb0610dc986449615b7fa29","txTime":"2023/06/19 10:56:25","block":8923742,"epoch":418,"slotNo":95605894,"epochSlotNo":393094,"stakeKey":"stake1uxs3gadgf8p5ukhx4ecq5uf987dyr5m394y5qd9ut9a2usgcawnlz"},{"txId":69430915,"txHash":"e4e3c5b1dbafc62e21959969c2a04e357b2bec4cb586091d2663ff656b1a7358","txTime":"2023/06/19 10:46:51","block":8923722,"epoch":418,"slotNo":95605320,"epochSlotNo":392520,"stakeKey":"stake1ux0475wq7trfge6pxcruff759lxa8zl56tlrjraqzx0fztqhmygjy"},{"txId":69430783,"txHash":"405671fa9aa9e46c48eee4dabb9ce85bcd84cca40f5e888e4b48b317e70bff54","txTime":"2023/06/19 10:43:32","block":8923709,"epoch":418,"slotNo":95605121,"epochSlotNo":392321,"stakeKey":"stake1u8prelj5falxd2zj0n8w8effur3epp2uets0vt8m5wdvhsq3cmm62"},{"txId":69430303,"txHash":"7de02b4eb560c2aadbda844bd3bcda1f7ec6fedeaf70697e4c43fae2e0783e3f","txTime":"2023/06/19 10:32:55","block":8923671,"epoch":418,"slotNo":95604484,"epochSlotNo":391684,"stakeKey":"stake1uy2eaxejat6sgp64dwelg2vuq8wsassp2wyj38kamqdujqqvkzz8e"},{"txId":69429452,"txHash":"0da85a40a19c37bd5732d0056349485515434faf425e6d350060a38df1d41f25","txTime":"2023/06/19 10:12:10","block":8923609,"epoch":418,"slotNo":95603239,"epochSlotNo":390439,"stakeKey":"stake1u9nfywvqgtapv50ckywjdx8qu5hrh0sy0gy7wmhcz44c3ws2q0kr3"}],"totalItems":385201,"totalPages":19261,"currentPage":0}