{"data":[{"blockNo":8119479,"slotNo":79063993,"epochNo":380,"epochSlotNo":267193,"hash":"d1877ff8852953e9094854c70261cd87abdcd6c6798fa3f5a5a53e1a93c3f7cb","time":"2022/12/09 23:58:04","txCount":8,"totalFees":1691563,"totalOutput":952686805,"slotLeader":"bc00a90f9f448be5cfaa4e76dbc13353b83b59cb3f2c5e321555ca28"},{"blockNo":8119478,"slotNo":79063976,"epochNo":380,"epochSlotNo":267176,"hash":"7fa782f6d3d44909d2ff3340a58b37f1787c3b694450508ea12a05087d5c0375","time":"2022/12/09 23:57:47","txCount":24,"totalFees":7680183,"totalOutput":504530277164,"slotLeader":"788898a81174665316af96880459dcca053f7825abb1b0db9a433630"},{"blockNo":8119477,"slotNo":79063948,"epochNo":380,"epochSlotNo":267148,"hash":"743c8e7dd33787409ac1a0798e205e9f6dd8418acd22df7518bb241b72b1329f","time":"2022/12/09 23:57:19","txCount":4,"totalFees":1125927,"totalOutput":1264475855,"slotLeader":"cf635c0a032bc98d453b65512aaf2b0f9b0f62b2b865a6011523aaf7"},{"blockNo":8119476,"slotNo":79063938,"epochNo":380,"epochSlotNo":267138,"hash":"e6f76da64631e13f6fd0fec0eaa602a44f7de4c4fdf2313064698639c5d8a80e","time":"2022/12/09 23:57:09","txCount":26,"totalFees":6222807,"totalOutput":122506510716,"slotLeader":"7f6c103302f96390d478a170fe80938b76fccd8a23490e3b6ddebcf7"},{"blockNo":8119475,"slotNo":79063901,"epochNo":380,"epochSlotNo":267101,"hash":"fc4d2b0feea49476d85ecf8712da4eb2042cf1f5b9d30784671740c8926470ab","time":"2022/12/09 23:56:32","txCount":14,"totalFees":4371426,"totalOutput":253247110235,"slotLeader":"a10865dae2d543ee9f13e98bff70ea81565bb6e4343b15b765f78174"},{"blockNo":8119474,"slotNo":79063887,"epochNo":380,"epochSlotNo":267087,"hash":"5bfd56fae13b36fc0c0c8d0653bf5adc42dbd75cb687bfb5708c5d88d0331b9d","time":"2022/12/09 23:56:18","txCount":25,"totalFees":6964595,"totalOutput":75250338342,"slotLeader":"cb3e1428aa4d240ca528edfd992d6509b47335849a91f0d70e5b0ffd"},{"blockNo":8119473,"slotNo":79063853,"epochNo":380,"epochSlotNo":267053,"hash":"1e253f2d95b60dd0cd7f19c89d41a9b17baafeb185e2711ecd872e2f0c5c01d8","time":"2022/12/09 23:55:44","txCount":1,"totalFees":202857,"totalOutput":932392841,"slotLeader":"662796197f741c9b9f0d9830530d01300ee5c63f549784ff2ac81c17"},{"blockNo":8119472,"slotNo":79063849,"epochNo":380,"epochSlotNo":267049,"hash":"edfb2a56af419989d3dc389940a6864b8e94e8bac83f4cf8492e0e9c6b3a23bc","time":"2022/12/09 23:55:40","txCount":11,"totalFees":4098661,"totalOutput":37129728996,"slotLeader":"b44181287c72d0c7b1bce6a57173cdf739ac77d030bdfc4606138dd2"},{"blockNo":8119471,"slotNo":79063840,"epochNo":380,"epochSlotNo":267040,"hash":"93697859acc2d759db3afd1145a2dc8d00830c110b5661bec3a7af3b4e67eb57","time":"2022/12/09 23:55:31","txCount":2,"totalFees":1063732,"totalOutput":141788609023,"slotLeader":"a4dcead63ac83d18e481683cc9fff0980837256eac6a6b303b56f0ab"},{"blockNo":8119470,"slotNo":79063838,"epochNo":380,"epochSlotNo":267038,"hash":"b1be4cfba2bef307c412832514579791dffd6c7fc477368b0ecd7db030acf68b","time":"2022/12/09 23:55:29","txCount":11,"totalFees":2745146,"totalOutput":661229197237,"slotLeader":"e7b605b72af41d6e8e6894274dedd18114f1759fea500b6d07031535"}],"totalItems":13156,"totalPages":1316,"currentPage":0}