{"data":[{"txId":59883382,"txHash":"53c562a3bf6351149eb8570e3404a417d11f8444b3789747cb01cab5390b4be1","txTime":"2023/01/17 00:47:22","block":8279553,"epoch":388,"slotNo":82350151,"epochSlotNo":97351,"stakeKey":"stake1u9p8n3w8xe0dayaancrw3053xu3jcm774r8rx3u7ugszl9q9tpq25"},{"txId":59883198,"txHash":"b6f9798b7e8f665e8e4356d438993b4f6ebb727700fe8039eda6857c9893677b","txTime":"2023/01/17 00:44:12","block":8279542,"epoch":388,"slotNo":82349961,"epochSlotNo":97161,"stakeKey":"stake1uy5c2td7flls5quwy37gv3dm88r64y05l48hnws2ykmmc6s9f45em"},{"txId":59883086,"txHash":"894e0e2b297b116007a6145f422d06b6738dc95e7abf4739692319acdb2e86c3","txTime":"2023/01/17 00:41:57","block":8279536,"epoch":388,"slotNo":82349826,"epochSlotNo":97026,"stakeKey":"stake1u8lp4u0s6ffjcaqarwdt6jurx0hj9xsu28q9prle06uefvsrfwn7p"},{"txId":59882996,"txHash":"34abe86d71616037cef0621b3dff0ef4ae3cd634b49a186a10dcf324a9835f19","txTime":"2023/01/17 00:40:46","block":8279534,"epoch":388,"slotNo":82349755,"epochSlotNo":96955,"stakeKey":"stake1u8y04rvxvlkrsysdl7fjgdh9tdvte3qerfp0ffkhq8hn0qsawfaqv"},{"txId":59882982,"txHash":"c0cbe77fb764984406ee051f4b9d9ba83931f1b5ad711a28fc08cdd1e8d59390","txTime":"2023/01/17 00:39:45","block":8279533,"epoch":388,"slotNo":82349694,"epochSlotNo":96894,"stakeKey":"stake1u9ez70472u74z79mzzt4tsttrtn3v3spy6j6d2d5sn44rrg0j2jv5"},{"txId":59882956,"txHash":"121c4e09fd2c5c1ebcd9de0a1c97b683d74299a0ec8e0454104a4ae6f29f03ce","txTime":"2023/01/17 00:39:45","block":8279533,"epoch":388,"slotNo":82349694,"epochSlotNo":96894,"stakeKey":"stake1uxnzq52l89sdq5qt2c77qks5wgxy5p9xhgdamkhlsdjkp3g2yfxcm"},{"txId":59882889,"txHash":"7580b7d3548db1ee9995fbeb34f1970dd2392171ab0a9c90a6ddd022f8b7116e","txTime":"2023/01/17 00:37:39","block":8279529,"epoch":388,"slotNo":82349568,"epochSlotNo":96768,"stakeKey":"stake1uxwuglk8s4vmazvkdddr59xvy4k885jscfmgdm7chve39aquxqsrq"},{"txId":59882568,"txHash":"6803b5e3f06fbc09ab4334918273174dd978c657957651f28be044aa5e1fd644","txTime":"2023/01/17 00:30:48","block":8279509,"epoch":388,"slotNo":82349157,"epochSlotNo":96357,"stakeKey":"stake1ux2mzyy83dvvpz9pk89qmnxfd7jjcrke05hajkgtnr6d36szagsry"},{"txId":59882404,"txHash":"10171cd8476c914da41e861721b24c46cd57ca326323bfd9ed57a22326a0efdd","txTime":"2023/01/17 00:26:33","block":8279497,"epoch":388,"slotNo":82348902,"epochSlotNo":96102,"stakeKey":"stake1u8547lhncf5lefdcmmcs4zsgzwmh28sx24z5da0kg20t26q8xmcml"},{"txId":59882375,"txHash":"e9c1e429b69eb1d962c9bbaec907ee5b468e7e9e305efca389ff9f59f6565cf5","txTime":"2023/01/17 00:26:33","block":8279497,"epoch":388,"slotNo":82348902,"epochSlotNo":96102,"stakeKey":"stake1u87v6avhj4vj4tx6p03jyn0du9yvc53jymkmmazehn5yfvcc35a03"},{"txId":59882357,"txHash":"0f84105ee3b59489d42057acc9acef406c39964b0bf00b14a590525f572c45c5","txTime":"2023/01/17 00:26:30","block":8279496,"epoch":388,"slotNo":82348899,"epochSlotNo":96099,"stakeKey":"stake1uxn8mgdqvs8c6y4unqaux3n4zqt05rkgufk0nvj9t2cyrfc5prdkp"},{"txId":59882189,"txHash":"67757cb7a44f870c596a06e336c3b16c8f840872879172648a476c1fb2e23f2b","txTime":"2023/01/17 00:22:19","block":8279489,"epoch":388,"slotNo":82348648,"epochSlotNo":95848,"stakeKey":"stake1u9q2ekghm3c803qjxk9v3gthzdlcphd4x7m9y0ujg9yurtgwy2nuh"},{"txId":59882072,"txHash":"005b60472bcfeddbb8bcf71a885e6578ebf33f515635aa7c7f991281360d4ce2","txTime":"2023/01/17 00:20:23","block":8279485,"epoch":388,"slotNo":82348532,"epochSlotNo":95732,"stakeKey":"stake1u8wcamq7xy3pfueykupv7w0g9d9s3rhz9k8ncfz7fky90gchv5dzr"},{"txId":59881914,"txHash":"64ba15599d84def574910eaa49da7ce03217fce75899239f16b041b0af397238","txTime":"2023/01/17 00:16:39","block":8279473,"epoch":388,"slotNo":82348308,"epochSlotNo":95508,"stakeKey":"stake1u9z4k985pektv0askzhayd2psl525txkf5r0ulrpuxwg95qml4j4e"},{"txId":59881535,"txHash":"22c2d7725649479345d94de5fb863e37a9ae439825a83bb67cba8e85be4bb16c","txTime":"2023/01/17 00:10:04","block":8279456,"epoch":388,"slotNo":82347913,"epochSlotNo":95113,"stakeKey":"stake1uy43lzrchyzgdnsfxgjme9ext37cx4f68afzn7vmup6232ghrq5ve"},{"txId":59881525,"txHash":"2675ee74b7260dbd933f35f88272ba0ffa1af9c3699006ac2f8c2e69c394a188","txTime":"2023/01/17 00:10:04","block":8279456,"epoch":388,"slotNo":82347913,"epochSlotNo":95113,"stakeKey":"stake1u9y73hwjtxvf6wtt47lpenvw6rmnrmvzwdxvmz9nmszpm4csq903s"},{"txId":59881219,"txHash":"dfa395b6cf5104a362401594df2c1a9a08598aeecbce2e2fe4e0786fbeb8f466","txTime":"2023/01/17 00:03:00","block":8279436,"epoch":388,"slotNo":82347489,"epochSlotNo":94689,"stakeKey":"stake1ux5qq67y6mfrf0a73r0rj7g64zcw0vp6gceusndd2kt9n2sx3296m"},{"txId":59880413,"txHash":"e53322c0578b82d88e2642d4577f99df6c90d74d052a6efd05b845b11016eb50","txTime":"2023/01/16 23:48:09","block":8279385,"epoch":388,"slotNo":82346598,"epochSlotNo":93798,"stakeKey":"stake1uxvclyjarugg4c8rtjpztz8z35pwqnxsw5r5xvzdf9hut4spf4cfl"},{"txId":59880287,"txHash":"dbeea2e2c2f885fcb4ba134511bdae18ff375b19ea8cfb3d6cb253e527c2c1b0","txTime":"2023/01/16 23:46:07","block":8279376,"epoch":388,"slotNo":82346476,"epochSlotNo":93676,"stakeKey":"stake1uxmwpa8wv8mpvj2qe7lpclc2vpxldz2we09ry7kfne5zdxcmh8p2g"},{"txId":59880257,"txHash":"7cb68b40eaf59129f152d2a76ff308b6aab08fb00bb054abe192c3d43c3d270c","txTime":"2023/01/16 23:45:38","block":8279375,"epoch":388,"slotNo":82346447,"epochSlotNo":93647,"stakeKey":"stake1u8wq67a4yfkny0wvune8glaylywp6atwq93fmk6ppxmm45sjrr9xk"}],"totalItems":1647331,"totalPages":82367,"currentPage":0}