{"data":[{"blockNo":6860405,"slotNo":52831234,"epochNo":319,"epochSlotNo":386434,"hash":"d5141d76c2171a552585df13efbd45f0f917f84aeb25658d4bfcd652451798f6","time":"2022/02/09 09:05:25","txCount":39,"totalFees":14267882,"totalOutput":165418013699,"slotLeader":"b59366e330a6db8260ad9aae8446ba8c908931d1b9cb3cca5d1d84aa"},{"blockNo":6860404,"slotNo":52831229,"epochNo":319,"epochSlotNo":386429,"hash":"6e454e3c30bd1cfaa67afe3103667750e59bd25dcc399f93dd83614b3fa6d6be","time":"2022/02/09 09:05:20","txCount":19,"totalFees":9892310,"totalOutput":20863145244,"slotLeader":"2352f8c7d0b9f0bf5b342c135d5b25c910491deec1440bd9d27799a6"},{"blockNo":6860403,"slotNo":52831209,"epochNo":319,"epochSlotNo":386409,"hash":"9d0bc01e3f13374ea4d327ff714811af08685003c2a0dc6349259e56aeaa30e6","time":"2022/02/09 09:05:00","txCount":36,"totalFees":14009172,"totalOutput":147725655040,"slotLeader":"47bddc51beca48b96143c4707fcddf2c27bf84e1f1e87485fa5e40cd"},{"blockNo":6860402,"slotNo":52831195,"epochNo":319,"epochSlotNo":386395,"hash":"347e14f61bbb9753d9d7e38e95a6cf60ef460e2ba7576904cc0cd25b6d43a120","time":"2022/02/09 09:04:46","txCount":29,"totalFees":10696101,"totalOutput":87689745707,"slotLeader":"a532904ca60e13e88437b58e7c6ff66b8d5e7ec8d3f4b9e4be7820ec"},{"blockNo":6860401,"slotNo":52831167,"epochNo":319,"epochSlotNo":386367,"hash":"0d2f5c6993adeb0966688cf5cfb3e3f670e5f86bd4be164bd95ffde468790667","time":"2022/02/09 09:04:18","txCount":18,"totalFees":8680711,"totalOutput":29054395120,"slotLeader":"fcc675f8266022c4a0f8a7f1e24b00896fd742b35f147304c2354442"},{"blockNo":6860400,"slotNo":52831152,"epochNo":319,"epochSlotNo":386352,"hash":"4f061c1744134c5fc7d361b61bf533553f3242448334b47cdbaa1a8d1aa9b412","time":"2022/02/09 09:04:03","txCount":24,"totalFees":10699145,"totalOutput":76622500320,"slotLeader":"5a7d13018a8d4995606de677208f3ce57291b53b0cfb1f95ae0115c2"},{"blockNo":6860399,"slotNo":52831121,"epochNo":319,"epochSlotNo":386321,"hash":"aa5659ca0eaa757c7d359c80e2b64e40daa6a37bb9ad2c9712c79a4bc2b78ff3","time":"2022/02/09 09:03:32","txCount":12,"totalFees":8903508,"totalOutput":1897704484654,"slotLeader":"e14a650c7a58d229bbb663cb42fffb36d68c2a6cecf0fd7b9c47e399"},{"blockNo":6860398,"slotNo":52831111,"epochNo":319,"epochSlotNo":386311,"hash":"295ea03c0974a43666f235e2aa8bc1d8a7d1edd366feba3d8d2465104324170c","time":"2022/02/09 09:03:22","txCount":19,"totalFees":9668521,"totalOutput":8653157176,"slotLeader":"ddeb342bed35ab00242117343ada661db593fb25c55c818f2d3d784f"},{"blockNo":6860397,"slotNo":52831096,"epochNo":319,"epochSlotNo":386296,"hash":"566e6ac6e2272d64496b5311b690263ed78d11e7d8aacb12a8e021838a8b196e","time":"2022/02/09 09:03:07","txCount":12,"totalFees":8395809,"totalOutput":29584662097,"slotLeader":"78380abbe8bb86cddda2c79190294125c594630e9535d32907b99f89"},{"blockNo":6860396,"slotNo":52831091,"epochNo":319,"epochSlotNo":386291,"hash":"cd478d08f42e73be4213d53f33550087995aab4d6ed7ec0c0bcb762bc5c97d05","time":"2022/02/09 09:03:02","txCount":46,"totalFees":14829758,"totalOutput":96923346499,"slotLeader":"50a251d84927d932b9393cb462f300d215faedd5e8a5e791e869f32c"}],"totalItems":18307,"totalPages":1831,"currentPage":0}