{"data":[{"hash":"5a8986c5c79ec0d51e622c6562b7b6ad3b411476dd7240a9ef4951c3690034e3","blockNo":8119479,"blockHash":"d1877ff8852953e9094854c70261cd87abdcd6c6798fa3f5a5a53e1a93c3f7cb","epochNo":380,"epochSlotNo":267193,"slot":79063993,"time":"2022/12/09 23:58:04","addressesInput":["addr1q823mkmnpvvhca6ytw8ukhvz4ra55zh5yz0kjkvhuwrsq2wm842rjeh5kj98mhqc5l5jnykzs58q08s9r0ekvfhyc9asc5cj3q","addr1q823mkmnpvvhca6ytw8ukhvz4ra55zh5yz0kjkvhuwrsq2wm842rjeh5kj98mhqc5l5jnykzs58q08s9r0ekvfhyc9asc5cj3q"],"addressesOutput":["addr1wxn9efv2f6w82hagxqtn62ju4m293tqvw0uhmdl64ch8uwc0h43gt","addr1q823mkmnpvvhca6ytw8ukhvz4ra55zh5yz0kjkvhuwrsq2wm842rjeh5kj98mhqc5l5jnykzs58q08s9r0ekvfhyc9asc5cj3q","addr1q823mkmnpvvhca6ytw8ukhvz4ra55zh5yz0kjkvhuwrsq2wm842rjeh5kj98mhqc5l5jnykzs58q08s9r0ekvfhyc9asc5cj3q"],"fee":189437,"totalOutput":200942480,"tokens":[]},{"hash":"8adbce4d3c5cfd487e4975a5258a9378255546d59fadd26d01d7d93c9a9cf5eb","blockNo":8119479,"blockHash":"d1877ff8852953e9094854c70261cd87abdcd6c6798fa3f5a5a53e1a93c3f7cb","epochNo":380,"epochSlotNo":267193,"slot":79063993,"time":"2022/12/09 23:58:04","addressesInput":["addr1q8fckvd88cknq7r64kdkqyve4lt8335k678duljv8wl0rcpqesgxe66nldjrsrymyttwxnxtq4jy7vcsmw8hyfywmzkqqaxu8f","addr1q8fckvd88cknq7r64kdkqyve4lt8335k678duljv8wl0rcpqesgxe66nldjrsrymyttwxnxtq4jy7vcsmw8hyfywmzkqqaxu8f","addr1q8fckvd88cknq7r64kdkqyve4lt8335k678duljv8wl0rcpqesgxe66nldjrsrymyttwxnxtq4jy7vcsmw8hyfywmzkqqaxu8f"],"addressesOutput":["addr1q98dz049p8edyzwg9esm66txg8wjt7r45wzuph9vanhp6e0mwpnmkk08shmlauw2ahpfhxsfnkhtew0kqw6jk5uzcg6stksg5h","addr1q8fckvd88cknq7r64kdkqyve4lt8335k678duljv8wl0rcpqesgxe66nldjrsrymyttwxnxtq4jy7vcsmw8hyfywmzkqqaxu8f","addr1q8fckvd88cknq7r64kdkqyve4lt8335k678duljv8wl0rcpqesgxe66nldjrsrymyttwxnxtq4jy7vcsmw8hyfywmzkqqaxu8f"],"fee":177689,"totalOutput":161383494,"tokens":[]},{"hash":"c66f9a7df3bfc2773b1595b1a9f173441532144b978159800b08498e92797d40","blockNo":8119479,"blockHash":"d1877ff8852953e9094854c70261cd87abdcd6c6798fa3f5a5a53e1a93c3f7cb","epochNo":380,"epochSlotNo":267193,"slot":79063993,"time":"2022/12/09 23:58:04","addressesInput":["addr1vxjlqmk9ehfueqcdzly8z738qgvun4y893fgj7huslejgesx8jmel"],"addressesOutput":["addr1v8px4syex8e07e6c2ucfheh27t2tcxxjm5el22g0cw32m5g77jc7x"],"fee":400000,"totalOutput":112122813,"tokens":[]},{"hash":"9eb4cd9d2cc4bfcf7835f2932f5c2c11a09f23e2c991358a0dddb0628112bf27","blockNo":8119479,"blockHash":"d1877ff8852953e9094854c70261cd87abdcd6c6798fa3f5a5a53e1a93c3f7cb","epochNo":380,"epochSlotNo":267193,"slot":79063993,"time":"2022/12/09 23:58:04","addressesInput":["addr1qyuhyx8rpzwdahj2najhlq0v6drqdmazcjxyssk3mm3xynuy7hlpmapdvvcqhnrvlq95nstqn4vxdwvkgluz6trhkacq78qyf5","addr1qyuhyx8rpzwdahj2najhlq0v6drqdmazcjxyssk3mm3xynuy7hlpmapdvvcqhnrvlq95nstqn4vxdwvkgluz6trhkacq78qyf5"],"addressesOutput":["addr1qyhz8r53dyjxet0zwvz0hs7sl9m25lypty9rt3y5unwkz0nldwscxy5ntwt52yhrqvxxz5asacv22jjlc5mg4mtj3m3sek2p0w","addr1qyuhyx8rpzwdahj2najhlq0v6drqdmazcjxyssk3mm3xynuy7hlpmapdvvcqhnrvlq95nstqn4vxdwvkgluz6trhkacq78qyf5"],"fee":171793,"totalOutput":165907541,"tokens":[]},{"hash":"5c8ef35538abb14b85bc5c0b7f2409d88e0b4635c5701534b2acc0e07eca294a","blockNo":8119479,"blockHash":"d1877ff8852953e9094854c70261cd87abdcd6c6798fa3f5a5a53e1a93c3f7cb","epochNo":380,"epochSlotNo":267193,"slot":79063993,"time":"2022/12/09 23:58:04","addressesInput":["addr1q8npnrmppa4jsj5p9z5cnyny8hfm4xm6p3rc5gmqulhphy24fwxl66sa4t4xqgdgk2leqjw3j8r3wgjkrtj4mu3wyhmsdrn9c4","addr1q8npnrmppa4jsj5p9z5cnyny8hfm4xm6p3rc5gmqulhphy24fwxl66sa4t4xqgdgk2leqjw3j8r3wgjkrtj4mu3wyhmsdrn9c4"],"addressesOutput":["addr1q9653v4xlny4lc2xsxq86zxdkvz5h30ydxdtlv8265h8z0z4fwxl66sa4t4xqgdgk2leqjw3j8r3wgjkrtj4mu3wyhms3wvquy"],"fee":175885,"totalOutput":2584565,"tokens":[]},{"hash":"48b006a4ce785eede115af681887e0121be3f83734ee8b65074efe3331d47a0c","blockNo":8119479,"blockHash":"d1877ff8852953e9094854c70261cd87abdcd6c6798fa3f5a5a53e1a93c3f7cb","epochNo":380,"epochSlotNo":267193,"slot":79063993,"time":"2022/12/09 23:58:04","addressesInput":["addr1qxlhudnlke5259ekzpnuhzjc0dct82gl668hs5l3yf79yrwxqr5926rvj9cttnepdass2wwy37ruk88yt3dfhx20e45qs2vwct","addr1qxlhudnlke5259ekzpnuhzjc0dct82gl668hs5l3yf79yrwxqr5926rvj9cttnepdass2wwy37ruk88yt3dfhx20e45qs2vwct","addr1qxlhudnlke5259ekzpnuhzjc0dct82gl668hs5l3yf79yrwxqr5926rvj9cttnepdass2wwy37ruk88yt3dfhx20e45qs2vwct","addr1qxlhudnlke5259ekzpnuhzjc0dct82gl668hs5l3yf79yrwxqr5926rvj9cttnepdass2wwy37ruk88yt3dfhx20e45qs2vwct"],"addressesOutput":["addr1vyze4nnzuwsxj99h79a5ds6jpmgw30yxhqnmc8zl5cjwsag8nk99g","addr1qxlhudnlke5259ekzpnuhzjc0dct82gl668hs5l3yf79yrwxqr5926rvj9cttnepdass2wwy37ruk88yt3dfhx20e45qs2vwct","addr1qxlhudnlke5259ekzpnuhzjc0dct82gl668hs5l3yf79yrwxqr5926rvj9cttnepdass2wwy37ruk88yt3dfhx20e45qs2vwct"],"fee":180901,"totalOutput":204653556,"tokens":[]},{"hash":"b60140ba84138e1e4b28fc2ffdf8a810c04de8613dd16c161c3716c260c9706b","blockNo":8119479,"blockHash":"d1877ff8852953e9094854c70261cd87abdcd6c6798fa3f5a5a53e1a93c3f7cb","epochNo":380,"epochSlotNo":267193,"slot":79063993,"time":"2022/12/09 23:58:04","addressesInput":["addr1qxngmqfj0xmxu5jerkhnudntr50uh0nq5vymu73mh75sk3qrctcc4h9fwmm8vpl9axxw3k7dpetcf0hseavhstgk72tsxmkmvs","addr1qxngmqfj0xmxu5jerkhnudntr50uh0nq5vymu73mh75sk3qrctcc4h9fwmm8vpl9axxw3k7dpetcf0hseavhstgk72tsxmkmvs"],"addressesOutput":["addr1zxgx3far7qygq0k6epa0zcvcvrevmn0ypsnfsue94nsn3tvpw288a4x0xf8pxgcntelxmyclq83s0ykeehchz2wtspks905plm","addr1qxngmqfj0xmxu5jerkhnudntr50uh0nq5vymu73mh75sk3qrctcc4h9fwmm8vpl9axxw3k7dpetcf0hseavhstgk72tsxmkmvs","addr1qxngmqfj0xmxu5jerkhnudntr50uh0nq5vymu73mh75sk3qrctcc4h9fwmm8vpl9axxw3k7dpetcf0hseavhstgk72tsxmkmvs"],"fee":224637,"totalOutput":47427990,"tokens":[]},{"hash":"a23179693220b919bb4d726b19b066ced801dd36b2c6207bab81663e4d838c0d","blockNo":8119479,"blockHash":"d1877ff8852953e9094854c70261cd87abdcd6c6798fa3f5a5a53e1a93c3f7cb","epochNo":380,"epochSlotNo":267193,"slot":79063993,"time":"2022/12/09 23:58:04","addressesInput":["addr1v8v3auqmw0eszza3ww29ea2pwftuqrqqyu26zvzjq9dt2ncydzvs5"],"addressesOutput":["addr1q8ner4xavrw7n89xr8sjypyjxacvn0s9xvs3pcjy445wge9xrph2s6qfsv3ez0mjskg3ngdntk3mag3yjw2cwc4jh5jsxehmch","addr1vypr00ss7hkqejmvh53xkyf0p9q0a4z2uprxmx6njc463vgst3pe4"],"fee":171221,"totalOutput":57664366,"tokens":[]},{"hash":"96ce6910f2cba1caf866b242fe25cb635d2a5e22cb2b0fd7c0f1dadbd71f20b9","blockNo":8119478,"blockHash":"7fa782f6d3d44909d2ff3340a58b37f1787c3b694450508ea12a05087d5c0375","epochNo":380,"epochSlotNo":267176,"slot":79063976,"time":"2022/12/09 23:57:47","addressesInput":["addr1q9ct74jhgnpqpvaxsvdefuwlfu8fn0huqnwvz32ptar3ply7cppjufdfcpdnkze03qp6zmtv3v79nx27qgdljczqvv6sk6fh40","addr1q9ct74jhgnpqpvaxsvdefuwlfu8fn0huqnwvz32ptar3ply7cppjufdfcpdnkze03qp6zmtv3v79nx27qgdljczqvv6sk6fh40"],"addressesOutput":["addr1zxgx3far7qygq0k6epa0zcvcvrevmn0ypsnfsue94nsn3tvpw288a4x0xf8pxgcntelxmyclq83s0ykeehchz2wtspks905plm","addr1q9ct74jhgnpqpvaxsvdefuwlfu8fn0huqnwvz32ptar3ply7cppjufdfcpdnkze03qp6zmtv3v79nx27qgdljczqvv6sk6fh40","addr1q9ct74jhgnpqpvaxsvdefuwlfu8fn0huqnwvz32ptar3ply7cppjufdfcpdnkze03qp6zmtv3v79nx27qgdljczqvv6sk6fh40"],"fee":454493,"totalOutput":27723426,"tokens":[]},{"hash":"1d7a72ae7689ff9cb1d76e7c67917402daab60e8251ad24099212e9c8efc41c9","blockNo":8119478,"blockHash":"7fa782f6d3d44909d2ff3340a58b37f1787c3b694450508ea12a05087d5c0375","epochNo":380,"epochSlotNo":267176,"slot":79063976,"time":"2022/12/09 23:57:47","addressesInput":["addr1qy7f44u5yjl4fzewkp062hrsucnpf3ukk897e9xfm2ykch6kfzfynnh0a4jmrfua3s26uuguwpv9ydnepw53m66hw9ps2xs0pl","addr1qy7f44u5yjl4fzewkp062hrsucnpf3ukk897e9xfm2ykch6kfzfynnh0a4jmrfua3s26uuguwpv9ydnepw53m66hw9ps2xs0pl"],"addressesOutput":["addr1zxgx3far7qygq0k6epa0zcvcvrevmn0ypsnfsue94nsn3tvpw288a4x0xf8pxgcntelxmyclq83s0ykeehchz2wtspks905plm","addr1qy7f44u5yjl4fzewkp062hrsucnpf3ukk897e9xfm2ykch6kfzfynnh0a4jmrfua3s26uuguwpv9ydnepw53m66hw9ps2xs0pl"],"fee":211745,"totalOutput":129020116,"tokens":[]},{"hash":"8d692b4dbb4f100d6c761796b14a65cccb699ba737e7092fa2d88da96817a17f","blockNo":8119478,"blockHash":"7fa782f6d3d44909d2ff3340a58b37f1787c3b694450508ea12a05087d5c0375","epochNo":380,"epochSlotNo":267176,"slot":79063976,"time":"2022/12/09 23:57:47","addressesInput":["addr1q9mhty52awz94gtwlfgtgum7kxpee7m04yejz55qsr5c0cgkq3mvztjsxye90730ltu9qknlffvhcgpuy5r654nyw3vq7rs93f","addr1q9mhty52awz94gtwlfgtgum7kxpee7m04yejz55qsr5c0cgkq3mvztjsxye90730ltu9qknlffvhcgpuy5r654nyw3vq7rs93f"],"addressesOutput":["addr1zxgx3far7qygq0k6epa0zcvcvrevmn0ypsnfsue94nsn3tvpw288a4x0xf8pxgcntelxmyclq83s0ykeehchz2wtspks905plm","addr1q9mhty52awz94gtwlfgtgum7kxpee7m04yejz55qsr5c0cgkq3mvztjsxye90730ltu9qknlffvhcgpuy5r654nyw3vq7rs93f","addr1q9mhty52awz94gtwlfgtgum7kxpee7m04yejz55qsr5c0cgkq3mvztjsxye90730ltu9qknlffvhcgpuy5r654nyw3vq7rs93f"],"fee":232997,"totalOutput":38279593,"tokens":[]},{"hash":"dc8f7c5e3eb5ec305cfc401085f0b6eacc480fbbd3b3f2b201546b8bbe9fbb4d","blockNo":8119478,"blockHash":"7fa782f6d3d44909d2ff3340a58b37f1787c3b694450508ea12a05087d5c0375","epochNo":380,"epochSlotNo":267176,"slot":79063976,"time":"2022/12/09 23:57:47","addressesInput":["addr1wyzynye0nksztrfzpsulsq7whr3vgh7uvp0gm4p0x42ckkqqq6kxq","addr1q9vcj3xeykd7h2exum24637h0a2dsgq865m7636wrnzxu4rwd2pfwgu4027ljqw2wq3km3qhfhtyz4autr50423cqwmsw9chac"],"addressesOutput":["addr1q9vcj3xeykd7h2exum24637h0a2dsgq865m7636wrnzxu4rwd2pfwgu4027ljqw2wq3km3qhfhtyz4autr50423cqwmsw9chac","addr1q9vcj3xeykd7h2exum24637h0a2dsgq865m7636wrnzxu4rwd2pfwgu4027ljqw2wq3km3qhfhtyz4autr50423cqwmsw9chac"],"fee":531512,"totalOutput":516816668,"tokens":[]},{"hash":"e48f8f7771a137f5b3876ef899f7d3418ffb8bd9ea87212f430baee9f49e5b3a","blockNo":8119478,"blockHash":"7fa782f6d3d44909d2ff3340a58b37f1787c3b694450508ea12a05087d5c0375","epochNo":380,"epochSlotNo":267176,"slot":79063976,"time":"2022/12/09 23:57:47","addressesInput":["addr1v9v7ma973ttcaesxv5c8qs279aw7sjz8wngem9tt5h2f78qlguks0"],"addressesOutput":["addr1qxl6a54u7lsds535frg8pwn0l7uq5dvnuux2zl7rap9th0dsfuchmsfpp3kk739rsaxcz7xevy87fnvvvrawc2e2znys7yy8fv"],"fee":175181,"totalOutput":349824819,"tokens":[]},{"hash":"f2f3b89ae40f3dad844e2a94786084c1f3fbbb3db1f3750ca977010eda9c4cc4","blockNo":8119478,"blockHash":"7fa782f6d3d44909d2ff3340a58b37f1787c3b694450508ea12a05087d5c0375","epochNo":380,"epochSlotNo":267176,"slot":79063976,"time":"2022/12/09 23:57:47","addressesInput":["Ae2tdPwUPEYwNguM7TB3dMnZMfZxn1pjGHyGdjaF4mFqZF9L3bj6cdhiH8t"],"addressesOutput":["addr1qy4j0axhy5gwawfqsz04qvt5gnetcrdwpntckc7uuyju68sqy8g6em7u8j0vlqq6n0mwxx53u52pgk3hz8uag9sjqmsszcqxph","addr1q8uefurxrynnepe38l5wh49svgnjuryuf7mwdyx28m4ykrl0tma2tm33ax8dpmv4hnchuhahllc7dra9vsdftxzt3lns94xm0v","addr1q8snrr36ylwdkhwc7dhv2km9wzefth7umgquuscl8s3msfqf0sawl632y7ht5vtug7r28p2h2qg4w7fj8eq82l6wdpyssngzqq","addr1v9yu2zrg5njwh6al0cy2n5zp7gghnkrc0u0z8dve9ccs47g0amvaf","addr1qx40hz4r8uqnq9tvf2fjyhqdyrj5gy4lhgc6y6ke4qr7e3y57tgjxfxuq60jrwjalw5ygtzm4wmp7ygzvmkwch8n20vs09v7ux","Ae2tdPwUPEYwNguM7TB3dMnZMfZxn1pjGHyGdjaF4mFqZF9L3bj6cdhiH8t"],"fee":259281,"totalOutput":5101116387,"tokens":[]},{"hash":"39f8eb19001fbe814b09cdfcd09d85c33b80db9ebbfe234882b806f37979a85b","blockNo":8119478,"blockHash":"7fa782f6d3d44909d2ff3340a58b37f1787c3b694450508ea12a05087d5c0375","epochNo":380,"epochSlotNo":267176,"slot":79063976,"time":"2022/12/09 23:57:47","addressesInput":["addr1v8vpw8aj7laa0a2duxxsnkm3ksj8gynt5j3f5ah9y5de5vs4p2r50"],"addressesOutput":["addr1q8gajmnewt3l0zr2sqjt3fdrtk7sfrgd7rafj432tmzxv0pj392345ejy6q0qwzgfgv9pmkylyhvmkgfl9jlm86wwmmscyyply"],"fee":175181,"totalOutput":1824819,"tokens":[]},{"hash":"8f4006975fa4cb16b0e0fdfabd2f74449dcf87cc01d426b22b59c5b1e659701b","blockNo":8119478,"blockHash":"7fa782f6d3d44909d2ff3340a58b37f1787c3b694450508ea12a05087d5c0375","epochNo":380,"epochSlotNo":267176,"slot":79063976,"time":"2022/12/09 23:57:47","addressesInput":["addr1qxu23ndkp97akl3jla8x662q9y4cr5eglt7zkgspaz3a38krg73f8mvzmw0c2guwduvd6gaeh3va6meevd5c8m97pcmsed69ru","addr1qxu23ndkp97akl3jla8x662q9y4cr5eglt7zkgspaz3a38krg73f8mvzmw0c2guwduvd6gaeh3va6meevd5c8m97pcmsed69ru","addr1zxgx3far7qygq0k6epa0zcvcvrevmn0ypsnfsue94nsn3tvpw288a4x0xf8pxgcntelxmyclq83s0ykeehchz2wtspks905plm","addr1qxu23ndkp97akl3jla8x662q9y4cr5eglt7zkgspaz3a38krg73f8mvzmw0c2guwduvd6gaeh3va6meevd5c8m97pcmsed69ru","addr1qxu23ndkp97akl3jla8x662q9y4cr5eglt7zkgspaz3a38krg73f8mvzmw0c2guwduvd6gaeh3va6meevd5c8m97pcmsed69ru","addr1qxu23ndkp97akl3jla8x662q9y4cr5eglt7zkgspaz3a38krg73f8mvzmw0c2guwduvd6gaeh3va6meevd5c8m97pcmsed69ru"],"addressesOutput":["addr1q8v3zgv0jlqagh62svmsjzlytnd5nlc59wr6axkzj298x0tgg294qkssuzeyu08garzkr8jxxxl37jes97cnc3tryazs0m9tzk","addr1q9cwvremt6n320s2e3agq0jyq82yhrk3htsu0w426xnz5us70z4w0jgvcdkkynmm8wmds66jd9kusnjfpu6raw5fqp0sr07p5w","addr1q94uz88sc77s8vasaqp85zkjy2eckj38jgs9e9a0z5cs9x9k80zhpsgv5sptjlr5p4hshxxneavfaajzk3t77x62s0dsdnm5k9","addr1qxu23ndkp97akl3jla8x662q9y4cr5eglt7zkgspaz3a38krg73f8mvzmw0c2guwduvd6gaeh3va6meevd5c8m97pcmsed69ru","addr1qxu23ndkp97akl3jla8x662q9y4cr5eglt7zkgspaz3a38krg73f8mvzmw0c2guwduvd6gaeh3va6meevd5c8m97pcmsed69ru"],"fee":427288,"totalOutput":316779229,"tokens":[]},{"hash":"c4a1e7b5833571c582ac27d35c6e170e119b5d706ee0a38e365f88f3650a872d","blockNo":8119478,"blockHash":"7fa782f6d3d44909d2ff3340a58b37f1787c3b694450508ea12a05087d5c0375","epochNo":380,"epochSlotNo":267176,"slot":79063976,"time":"2022/12/09 23:57:47","addressesInput":["addr1qy9tzhndsz4alp3us9eyxtesp6yjxvaklg9cj058wh8r5vx2h8y4gwedd2z2nx6544nalel0zd0g0kel44c96xy3vxvq4twpz8","addr1qyxpajlr2sv85a7qw86dvhfw29t787spcnp5a57gjl9ss8k2h8y4gwedd2z2nx6544nalel0zd0g0kel44c96xy3vxvqkd5h9p"],"addressesOutput":["addr1qyncers4cjxj9kqusmhj056zz2mw8wxv4265zn2wud3nklltmv0lvw575ujezgpagcecyv77l2ceqstsfavnndvetsgskf4t8y","addr1q8g39txrztdzruznyy0w88j0zr2uzvezlg37efs08l9sp272h8y4gwedd2z2nx6544nalel0zd0g0kel44c96xy3vxvqpugaat"],"fee":179537,"totalOutput":3665542,"tokens":[]},{"hash":"273b25caed28dfd4785f06e82fa9b37c65968b86ce56c183d2331acb06a70ec9","blockNo":8119478,"blockHash":"7fa782f6d3d44909d2ff3340a58b37f1787c3b694450508ea12a05087d5c0375","epochNo":380,"epochSlotNo":267176,"slot":79063976,"time":"2022/12/09 23:57:47","addressesInput":["addr1v8adw2u5gm6klh7jr2eye3wq6plnkeuhnj2zqrrmyfv4mqs0yst0c"],"addressesOutput":["addr1q99k9yqdqgsapy3ek20pj2yev3742j2gu0v3jwue3gh04k0m0lhms7hltd5n3kwypazzrvgktsstjf5zgwzq7jud0grse9m7t5","addr1qxvyp475efgrdn8v73xpaqy0f4ey8ddr2zzvsx6rvx4llk9wapc9m5c00jhcz5cjycdwjjazkz3hhrmv0adyeq5g4s9semrxmm","addr1v8adw2u5gm6klh7jr2eye3wq6plnkeuhnj2zqrrmyfv4mqs0yst0c"],"fee":177550,"totalOutput":448424369702,"tokens":[]},{"hash":"85766df960bf0929d2b5c4a530350d397bdb04a21b621dd27b6025bf4d399e8d","blockNo":8119478,"blockHash":"7fa782f6d3d44909d2ff3340a58b37f1787c3b694450508ea12a05087d5c0375","epochNo":380,"epochSlotNo":267176,"slot":79063976,"time":"2022/12/09 23:57:47","addressesInput":["addr1q9uuk562asr6gult4rzyy0q82xpe3k7n04hh3cz7ku6v0u7ynptqpz798smc2s8m5xeygyy3zfzafmhzyvc66u5am65szyde0z","addr1q9uuk562asr6gult4rzyy0q82xpe3k7n04hh3cz7ku6v0u7ynptqpz798smc2s8m5xeygyy3zfzafmhzyvc66u5am65szyde0z","addr1wxdct40gvyv525zlq79wahkuhmgadjs3q5lkrclemxvlu3qyda7l2"],"addressesOutput":["addr1qxkmr0m22xeqludcg5rjdmecjxasu9fat0680qehtcsnftaadgykewa9ufvegeuca9yyq03d9v7ea2y2zthgu7hfgjtsddp6gr","addr1wxdct40gvyv525zlq79wahkuhmgadjs3q5lkrclemxvlu3qyda7l2","addr1q9uuk562asr6gult4rzyy0q82xpe3k7n04hh3cz7ku6v0u7ynptqpz798smc2s8m5xeygyy3zfzafmhzyvc66u5am65szyde0z"],"fee":403899,"totalOutput":11303498,"tokens":[]},{"hash":"6d136d4ffebd88a2638c61fa28fe25a47c171a8169fe4f71de86a211c742a0eb","blockNo":8119478,"blockHash":"7fa782f6d3d44909d2ff3340a58b37f1787c3b694450508ea12a05087d5c0375","epochNo":380,"epochSlotNo":267176,"slot":79063976,"time":"2022/12/09 23:57:47","addressesInput":["addr1qy7ha39fp9pgdxnnzhf0dtcmdzcq6rqr44776h5zj3alhgvwsrs0824haf80hgsf0mq8d3yht56qzzqaa6nu94xfdu8sjwxv8m","addr1qy7ha39fp9pgdxnnzhf0dtcmdzcq6rqr44776h5zj3alhgvwsrs0824haf80hgsf0mq8d3yht56qzzqaa6nu94xfdu8sjwxv8m","addr1zxgx3far7qygq0k6epa0zcvcvrevmn0ypsnfsue94nsn3tvpw288a4x0xf8pxgcntelxmyclq83s0ykeehchz2wtspks905plm","addr1qy7ha39fp9pgdxnnzhf0dtcmdzcq6rqr44776h5zj3alhgvwsrs0824haf80hgsf0mq8d3yht56qzzqaa6nu94xfdu8sjwxv8m"],"addressesOutput":["addr1qy7ha39fp9pgdxnnzhf0dtcmdzcq6rqr44776h5zj3alhgvwsrs0824haf80hgsf0mq8d3yht56qzzqaa6nu94xfdu8sjwxv8m","addr1qy7ha39fp9pgdxnnzhf0dtcmdzcq6rqr44776h5zj3alhgvwsrs0824haf80hgsf0mq8d3yht56qzzqaa6nu94xfdu8sjwxv8m"],"fee":520156,"totalOutput":41588385,"tokens":[]}],"totalItems":56356376,"totalPages":2817819,"currentPage":0}