{"data":[{"address":"addr1z8snz7c4974vzdpxu65ruphl3zjdvtxw8strf2c2tmqnxz2j2c79gy9l76sdg0xwhd7r0c0kna0tycz4y5s6mlenh8pq0xmsha","txCount":1472995,"balance":62089889584458},{"address":"addr1z8jd97ct35n4s5ss8lt4sq0zclw0dmf7yak8fj46m0jm3dswtf6nj8t35qph4n6m04gawl49yvsxytfjpjpcfhehpcvqwwrrlu","txCount":30,"balance":44000000000000},{"address":"addr1z9s3v9vyyctzr4xagvrayw87yvzre6qcq7qw2uvqfznf92qm5kjdmrpmng059yellupyvwgay2v0lz6663swmds7hp0q2jjlf4","txCount":981,"balance":39343557763854},{"address":"addr1wy0nmrl40z3nx9d0d79pu5u7zett4hl2apfuj9caqgf7jjqcj3r8z","txCount":2091,"balance":25939631828823},{"address":"addr1w9qzpelu9hn45pefc0xr4ac4kdxeswq7pndul2vuj59u8tqaxdznu","txCount":606712,"balance":10871995127450},{"address":"addr1z8jd97ct35n4s5ss8lt4sq0zclw0dmf7yak8fj46m0jm3djv95lqhj0agy8awy9g82v0r6qatxdz9kza4m94sqyunvssgdq8ua","txCount":10,"balance":7501516000000},{"address":"addr1w93j7t23z99448k7xspzrppjtgun0janh0rcq6k8wt2e8vc2fraw4","txCount":4758,"balance":6303049703713},{"address":"addr1z8snz7c4974vzdpxu65ruphl3zjdvtxw8strf2c2tmqnxzfgf0jgfz5xdvg2pges20usxhw8zwnkggheqrxwmxd6huuqss46eh","txCount":7964,"balance":5637283167814},{"address":"addr1z8snz7c4974vzdpxu65ruphl3zjdvtxw8strf2c2tmqnxz02znpd777wgl9wwpk0dvdzuxn93mqh82q7vv6s9jn25rws52z94g","txCount":6877,"balance":5442531638511},{"address":"addr1z8snz7c4974vzdpxu65ruphl3zjdvtxw8strf2c2tmqnxztnqm37tpj0q63s0qns5wfe4flqzqqg55760472n7yt4v8skpaj3k","txCount":32596,"balance":5371902672358},{"address":"addr1z9es6px68rlmwatqwg6qxwqf3szyz0n4lm0m2e5j38nu0062a6yhtrq8a4cxg2trrtzddev7v974nafzmx4xaegv2ngqky7khv","txCount":9697,"balance":5249958939294},{"address":"addr1z8snz7c4974vzdpxu65ruphl3zjdvtxw8strf2c2tmqnxzwccf8ywaly0m99ngq68lus48lmafut7ku9geawu8u6k49suv42qq","txCount":8390,"balance":5013244690852},{"address":"addr1z8jd97ct35n4s5ss8lt4sq0zclw0dmf7yak8fj46m0jm3dsudw9plrefe6k7ef3rtn4nxme63aa3uvfq727h3qtq32pshzx29z","txCount":15,"balance":5000000000000},{"address":"addr1w8pydstdswmdqmg2rdt59dzql3zgfp9pt8sulnjgalycwdsj9js7w","txCount":77200,"balance":4304773392701},{"address":"addr1z8snz7c4974vzdpxu65ruphl3zjdvtxw8strf2c2tmqnxz2jyskd3y6etkv8ye450545xu6q4jfq5hv4e0uxwkpf8lsq048y90","txCount":9890,"balance":4266664102938},{"address":"addr1z8jd97ct35n4s5ss8lt4sq0zclw0dmf7yak8fj46m0jm3djzg23w4qkupxtef5su2lxdg6rru3mu2s67dn38mys5cepqjulzku","txCount":63,"balance":3194357598554},{"address":"addr1zxn9efv2f6w82hagxqtn62ju4m293tqvw0uhmdl64ch8uw6j2c79gy9l76sdg0xwhd7r0c0kna0tycz4y5s6mlenh8pq6s3z70","txCount":1781882,"balance":2622665289503},{"address":"addr1z85t4tvj3rwf40wqnx6x72kqq6c6stra7jvkupnlqrqyarthhd58w0qrqpyv4dc2c2mk98sduawl7l4gjuc9rafyv98sgylfw3","txCount":18176,"balance":2556753592776},{"address":"addr1xxqqegnx4ref4q6derz2n0zs0jeanaxdq7ynfhwv3luhsgcfpkhcpsthxpprf49lvfy2jhga5mygpfcj4qaypfzkmhnsw9rpx7","txCount":14923,"balance":2326030587206},{"address":"addr1xxqqegnx4ref4q6derz2n0zs0jeanaxdq7ynfhwv3luhsgmupshega3f5ym0freunp0p46rchpthvsyty398fh0msyws7wkxyx","txCount":14895,"balance":2326030587206}],"totalItems":47323,"totalPages":2367,"currentPage":0}