{"data":[{"blockNo":8118978,"slotNo":79053666,"epochNo":380,"epochSlotNo":256866,"hash":"0d574546ffb4171fa0b721e05297e93e575b48c91fe4001f13ed2c03c2af3a76","time":"2022/12/09 21:05:57","txCount":0,"totalFees":0,"totalOutput":0,"slotLeader":"afb33d38e92e03f9ce86f0175cc33e487b8def0ee25235f1e40183d1"},{"blockNo":8118977,"slotNo":79053665,"epochNo":380,"epochSlotNo":256865,"hash":"44630f723ed9987cd43438ab5f6ea4de55cab26de1ea0164a0d5e281227c2c9e","time":"2022/12/09 21:05:56","txCount":41,"totalFees":13044842,"totalOutput":2109759107138,"slotLeader":"1634c08e606f0f68bed8d88ba0ab87980994a5872ce68afdd0064e40"},{"blockNo":8118976,"slotNo":79053610,"epochNo":380,"epochSlotNo":256810,"hash":"efc808d5f5fb15f649d26a23b3d1525ad48118e4e9ed037ab7a1f4356eacd704","time":"2022/12/09 21:05:01","txCount":7,"totalFees":2299701,"totalOutput":43013207947,"slotLeader":"a56e07cb5cd11a2d2b6bff3c6ecbc7ddc79205e2831560792f06e795"},{"blockNo":8118975,"slotNo":79053603,"epochNo":380,"epochSlotNo":256803,"hash":"91446080272b78373a3505de16ff5ee3d95406941fe50007b378106763ec98e5","time":"2022/12/09 21:04:54","txCount":36,"totalFees":11566911,"totalOutput":1922843806559,"slotLeader":"660f20fb9d419173ac623786ad3e6dc11a23951981e0e83e98233d29"},{"blockNo":8118974,"slotNo":79053547,"epochNo":380,"epochSlotNo":256747,"hash":"b8e0a56aeaae382492e656c73f3d76d19e7621d326c22c893acd30c7354e4eec","time":"2022/12/09 21:03:58","txCount":13,"totalFees":3706572,"totalOutput":779760605738,"slotLeader":"2fc479904f9482d1b573977a3af26bb5577545014521eee513f54ef1"},{"blockNo":8118973,"slotNo":79053518,"epochNo":380,"epochSlotNo":256718,"hash":"87e4973a2d269a3765a5e867114e67b18eb8abcaa8cd6eeb32956a1e2182c9c7","time":"2022/12/09 21:03:29","txCount":19,"totalFees":5057434,"totalOutput":148174992818,"slotLeader":"bd5f6b254798e3ddde1a9c3609fa9d6e468d638bd9103afb02e29ae5"},{"blockNo":8118972,"slotNo":79053498,"epochNo":380,"epochSlotNo":256698,"hash":"352d1e1485829ced626e8f1e38e03d0c73236936c16118eb955c91b859dddc99","time":"2022/12/09 21:03:09","txCount":1,"totalFees":194453,"totalOutput":3114949927,"slotLeader":"153806dbcd134ddee69a8c5204e38ac80448f62342f8c23cfe4b7edf"},{"blockNo":8118971,"slotNo":79053497,"epochNo":380,"epochSlotNo":256697,"hash":"40ed57343475ed783e35ecd3a98c6f06c9dbdd17a5a1a6cac66d330678d6bf7f","time":"2022/12/09 21:03:08","txCount":21,"totalFees":5693842,"totalOutput":994848049442,"slotLeader":"eaa28db3bf0b7bb815b552fc9e0cecdda62933ce6c67067183c79acd"},{"blockNo":8118970,"slotNo":79053456,"epochNo":380,"epochSlotNo":256656,"hash":"6ef1c9e6de3489462d2cef6614baaed78d82fe27bce37ea83f002d6e053f2e1e","time":"2022/12/09 21:02:27","txCount":13,"totalFees":4421123,"totalOutput":22542574366598,"slotLeader":"00beef0a9be2f6d897ed24a613cf547bb20cd282a04edfc53d477114"},{"blockNo":8118969,"slotNo":79053437,"epochNo":380,"epochSlotNo":256637,"hash":"a7463231a38290fecbf32ddabb0dc322dbd320ca161f44f9aa23959af9b14717","time":"2022/12/09 21:02:08","txCount":5,"totalFees":1068565,"totalOutput":9830340683,"slotLeader":"2352f8c7d0b9f0bf5b342c135d5b25c910491deec1440bd9d27799a6"}],"totalItems":12655,"totalPages":1266,"currentPage":0}