{"data":[{"no":393,"status":"SYNCING","blkCount":19329,"outSum":86022896342980575,"txCount":313421,"startTime":"2023/02/09 21:46:32","endTime":"2023/02/14 13:29:13","maxSlot":432000},{"no":392,"status":"FINISHED","blkCount":20579,"outSum":107395985749177512,"txCount":403692,"startTime":"2023/02/04 21:48:54","endTime":"2023/02/09 21:44:34","maxSlot":432000},{"no":391,"status":"FINISHED","blkCount":21084,"outSum":92524788844426681,"txCount":441211,"startTime":"2023/01/30 21:46:15","endTime":"2023/02/04 21:44:37","maxSlot":432000},{"no":390,"status":"FINISHED","blkCount":20916,"outSum":70899247389824611,"txCount":351917,"startTime":"2023/01/25 21:46:08","endTime":"2023/01/30 21:44:37","maxSlot":432000},{"no":389,"status":"FINISHED","blkCount":20811,"outSum":60501983019472623,"txCount":338858,"startTime":"2023/01/20 21:48:38","endTime":"2023/01/25 21:44:33","maxSlot":432000},{"no":388,"status":"FINISHED","blkCount":21194,"outSum":60398689652000727,"txCount":346785,"startTime":"2023/01/15 21:48:10","endTime":"2023/01/20 21:44:39","maxSlot":432000},{"no":387,"status":"FINISHED","blkCount":21065,"outSum":60411874080335007,"txCount":389223,"startTime":"2023/01/10 21:46:08","endTime":"2023/01/15 21:44:49","maxSlot":432000},{"no":386,"status":"FINISHED","blkCount":20893,"outSum":53435171650788176,"txCount":428509,"startTime":"2023/01/05 21:44:51","endTime":"2023/01/10 21:44:22","maxSlot":432000},{"no":385,"status":"FINISHED","blkCount":21174,"outSum":46236384154634244,"txCount":360365,"startTime":"2022/12/31 21:44:55","endTime":"2023/01/05 21:44:42","maxSlot":432000},{"no":384,"status":"FINISHED","blkCount":20998,"outSum":43353179952722832,"txCount":330287,"startTime":"2022/12/26 21:45:28","endTime":"2022/12/31 21:43:57","maxSlot":432000}],"totalItems":394,"totalPages":40,"currentPage":0}