{"data":[{"txId":63922259,"txHash":"6ca4c52bc725968602732c7d56e6fa67fe217840461de4cbed5751f63cca7ae5","txTime":"2023/03/18 06:43:32","block":8531912,"epoch":400,"slotNo":87555521,"epochSlotNo":118721,"stakeKey":"stake1u8v45uvdjvl9egkqxrxscuecfpntwy0ws80y20dxlrhyg7g2h0sx3"},{"txId":63921861,"txHash":"12ac4593cf9d0ade4dcbcec068cd86aa966949678246b0de8a09d06018fa4548","txTime":"2023/03/18 06:29:20","block":8531867,"epoch":400,"slotNo":87554669,"epochSlotNo":117869,"stakeKey":"stake1ux392d2rhg6ewvpans0mg49v7kjvgmaq8fqpwf05l9vsq0g8fn920"},{"txId":63921517,"txHash":"dbf7bcb2216f604e92922e7f1c31b842c1d00052c25a784b5c0774c8a224006e","txTime":"2023/03/18 06:18:53","block":8531833,"epoch":400,"slotNo":87554042,"epochSlotNo":117242,"stakeKey":"stake1u8xhd0yxkklj36xphm4w74s8tx426hde5lxuqz0tgc39akgqk3q69"},{"txId":63921499,"txHash":"da3df6ecaff434b2f2088d2a5095296bf07567c727b7b452fe7084ab94a230c6","txTime":"2023/03/18 06:18:26","block":8531832,"epoch":400,"slotNo":87554015,"epochSlotNo":117215,"stakeKey":"stake1u8k7arjhj0q6v8lyrg5x08jhgmhclr3m5mvfnsc7x0ujrdgdmlmq4"},{"txId":63921492,"txHash":"52f5fb543331d87f9047f945efdf0c1cbcc5de7ee44fb6516afc57a46906d08f","txTime":"2023/03/18 06:18:26","block":8531832,"epoch":400,"slotNo":87554015,"epochSlotNo":117215,"stakeKey":"stake1uxlz6549tjmle455252s8p0asrqquzf9cudkdpnx7c09r6gkyc57m"},{"txId":63921292,"txHash":"f8bf7d11ed263a0d37957241b4a2709b8daf5720666fae4d68476031db470149","txTime":"2023/03/18 06:12:25","block":8531811,"epoch":400,"slotNo":87553654,"epochSlotNo":116854,"stakeKey":"stake1u8yu48txfyxg9xy5kf47twt5mu63ulzyerl460zq6desxxqa0u54s"},{"txId":63921135,"txHash":"7ca578f5dae7b3fac02409154d9d5bce588b5acdaaf62782c8bc688c612e2387","txTime":"2023/03/18 06:06:32","block":8531793,"epoch":400,"slotNo":87553301,"epochSlotNo":116501,"stakeKey":"stake1u8xmdhc6024t7nryq99ktvypsq4ewvfqcymvhsvkmvytxdq5xq7vd"},{"txId":63920891,"txHash":"f3cf5aeedcde5599c96ee6770ddf68795b1b550c31aaa91ed3c1f82814d1723f","txTime":"2023/03/18 05:58:34","block":8531779,"epoch":400,"slotNo":87552823,"epochSlotNo":116023,"stakeKey":"stake1uyuzvck62jma4f95l7nwm6n2cp0m5sqa9lz4vjkd8lwhnrglyr69w"},{"txId":63920837,"txHash":"8702c657acaf9c6b93fceefb75d788ed33fcae3f176abed93d11a488b1074089","txTime":"2023/03/18 05:57:16","block":8531773,"epoch":400,"slotNo":87552745,"epochSlotNo":115945,"stakeKey":"stake1u859ysmvkym9s9lc42urw7gk6quhgughk0uftysdf4n5quq7y0ens"},{"txId":63920805,"txHash":"51e03cea22fb12f43d8cd5edf5bc8956ec68ea100020a86f9159479d74fe0d3f","txTime":"2023/03/18 05:56:07","block":8531771,"epoch":400,"slotNo":87552676,"epochSlotNo":115876,"stakeKey":"stake1uy2ep29ax3um6apqce347sjjq6266v478xwt3u8cqp7p53sz8f4zn"},{"txId":63920803,"txHash":"1835517463b62d500920516e624b95afeee0829a2972776da2a1d395a7cf46ea","txTime":"2023/03/18 05:56:07","block":8531771,"epoch":400,"slotNo":87552676,"epochSlotNo":115876,"stakeKey":"stake1uxa5eanydtatrsdrcjkz3ecfslvjx0f2qh4fhe6zhywk2hcfrd0u2"},{"txId":63920629,"txHash":"2d66287c42bbd87fcc79ca0c6351ab44ab45bdbf26f4ec1d5cf34725541fcbee","txTime":"2023/03/18 05:50:57","block":8531758,"epoch":400,"slotNo":87552366,"epochSlotNo":115566,"stakeKey":"stake1ux3zytzsmfccx3hyr0xmsrxw5xkakk8gflpcwf2ga6pqvwqutxkpk"},{"txId":63920394,"txHash":"f9e1f8c236f1d4686b22462ccbbd351a7424ede88d152a9a8577b6f703a54104","txTime":"2023/03/18 05:40:42","block":8531726,"epoch":400,"slotNo":87551751,"epochSlotNo":114951,"stakeKey":"stake1uxwea3zcr0ca4ntzh9qfzx78kud92yez9anxz9zrrvvuksgk0y8qf"},{"txId":63920293,"txHash":"7157d30a99f57332ef2129d8abcfff766d824a23429b462d69490794d7b0a59e","txTime":"2023/03/18 05:36:54","block":8531717,"epoch":400,"slotNo":87551523,"epochSlotNo":114723,"stakeKey":"stake1uy0pwudphz6fvrlkq663kfmw3dztfhxc0r7jmdu5nrx005cw5yef2"},{"txId":63919909,"txHash":"b1270cafe470ef7acf1ec5a78c38d8f9d754c9a99636cf44c49ac9957e432c73","txTime":"2023/03/18 05:23:31","block":8531681,"epoch":400,"slotNo":87550720,"epochSlotNo":113920,"stakeKey":"stake1u8n5sfyq3sq40u77uhn5qan4wrpa8apxy37z0t878gjjtssgpu7kh"},{"txId":63919867,"txHash":"15e256ded11aee07855962a30a6e54fb83ee80d88c9a995a92b9340431b826fe","txTime":"2023/03/18 05:22:28","block":8531678,"epoch":400,"slotNo":87550657,"epochSlotNo":113857,"stakeKey":"stake1u8cnlqqxnndwk58v6ywnhsnlw27cv6yctfatxlygtepkzugd7u36f"},{"txId":63919852,"txHash":"30edfed25db72583654c079a39eba0ea477f0ab5006ca248976d43cba90ab696","txTime":"2023/03/18 05:22:03","block":8531677,"epoch":400,"slotNo":87550632,"epochSlotNo":113832,"stakeKey":"stake1uyarhlypsryengp24psmm8gjf92r8dce6ppd4qzrxtkzp5cv8d3m6"},{"txId":63919694,"txHash":"e3d36c59a21e1d6a74b61257ab8526d361f2464b7545e13b7470b08074c7715e","txTime":"2023/03/18 05:16:56","block":8531661,"epoch":400,"slotNo":87550325,"epochSlotNo":113525,"stakeKey":"stake1u9vpj7tf4txv3m59gslpyg367ky83wj8wsz4w5dv4dshd2qh0t3f0"},{"txId":63919670,"txHash":"90abbcb2d1b7d0472eb6bdebb59cf4e3de052f4865f781e31099c611414a6d24","txTime":"2023/03/18 05:16:15","block":8531656,"epoch":400,"slotNo":87550284,"epochSlotNo":113484,"stakeKey":"stake1u8cvy3r54wh88duw54w5zyxu9w6huzcryma9enc6889wp8skyj2z3"},{"txId":63919669,"txHash":"08bb29cb3459a69e0dc41bc254bbc1b2cc78171d24b2b887fee4f466055513eb","txTime":"2023/03/18 05:16:15","block":8531656,"epoch":400,"slotNo":87550284,"epochSlotNo":113484,"stakeKey":"stake1uy86w8q3zupmujrsy4twgjyywhn2ujvv9nnfk4nh6403c9gujkvau"}],"totalItems":361286,"totalPages":18065,"currentPage":0}