{"data":[{"hash":"d02b7550e939ed66ccb94ba40f77ec03b4a4d02fa4b069cc32adae72ee68019e","blockNo":8374684,"blockHash":"89e36e9e4078812443e93686cc60e501cc9db69e9d0eebcda485c42bb109cf59","epochNo":392,"epochSlotNo":335699,"slot":84316499,"time":"2023/02/08 18:59:50","addressesInput":["addr1qx8mxyyswt8986pfs9q58uml842lrccqlmu8xhpzqanjzrg63x0r22lsf890m20vze44zxk869g6xfvrhh82ay98pawscm0dma"],"addressesOutput":["DdzFFzCqrht2LaQqBUXxTi9nk94P8tWpYqYhrrSkypeJ2ExZgtc1V9pTWz2nTWrGJZi1xgWwU5p6MXi3GoRUrv3KwAPw1yrPgXWVPqrB","addr1qx8mxyyswt8986pfs9q58uml842lrccqlmu8xhpzqanjzrg63x0r22lsf890m20vze44zxk869g6xfvrhh82ay98pawscm0dma"],"fee":169153,"totalOutput":113016541,"tokens":[]},{"hash":"1d2dec194e326f4bfef2e9a63d0a445b9466a1111987ce3d9e4bd3f3b511aad1","blockNo":8374684,"blockHash":"89e36e9e4078812443e93686cc60e501cc9db69e9d0eebcda485c42bb109cf59","epochNo":392,"epochSlotNo":335699,"slot":84316499,"time":"2023/02/08 18:59:50","addressesInput":["addr1v8y8jywadxecddg29vhk3knfy2sg8cf48q3wdjctv69azzqe7jcex","addr1vxtj4f6c0je2xdz5c2m07zcw2xuj2cqy2f0zs4fcxhxmd4sggqxpg"],"addressesOutput":["addr1qyq5h2ajpsjtw09dswtv6xlx05tntmjwn4jka0gmt8e7df32xpqgmmk2uasfap59kmw24csl2nycpdrq57qujhd2dq8sm9hszc","addr1v9u7va2sktlnz8dp3qadpnxxlv4m03672jy6elmntlxxs7q9nnwl9"],"fee":190231,"totalOutput":2069459230,"tokens":[]},{"hash":"760e5882f25897ed4cbb6821a27cb9af9cdc44d02d2dda5c374b601e77fb0b68","blockNo":8374684,"blockHash":"89e36e9e4078812443e93686cc60e501cc9db69e9d0eebcda485c42bb109cf59","epochNo":392,"epochSlotNo":335699,"slot":84316499,"time":"2023/02/08 18:59:50","addressesInput":["addr1zxgx3far7qygq0k6epa0zcvcvrevmn0ypsnfsue94nsn3tvpw288a4x0xf8pxgcntelxmyclq83s0ykeehchz2wtspks905plm","addr1q824gz8j9e67w2fc2pkxgh2cyxp3hafvgl3gh3pesqrd77yg4x2us6f9ad7kpn3te2kdvqzzr5flqvh7nl6azsx95lrsf9g4cl"],"addressesOutput":["addr1zxgx3far7qygq0k6epa0zcvcvrevmn0ypsnfsue94nsn3tvpw288a4x0xf8pxgcntelxmyclq83s0ykeehchz2wtspks905plm","addr1q824gz8j9e67w2fc2pkxgh2cyxp3hafvgl3gh3pesqrd77yg4x2us6f9ad7kpn3te2kdvqzzr5flqvh7nl6azsx95lrsf9g4cl"],"fee":319822,"totalOutput":93293158,"tokens":[]},{"hash":"906ca92e2b800dd8f8d20ce02ab82329d7adab35ee87b1768b4589e0ef8c1e48","blockNo":8374684,"blockHash":"89e36e9e4078812443e93686cc60e501cc9db69e9d0eebcda485c42bb109cf59","epochNo":392,"epochSlotNo":335699,"slot":84316499,"time":"2023/02/08 18:59:50","addressesInput":["addr1zxgx3far7qygq0k6epa0zcvcvrevmn0ypsnfsue94nsn3tvpw288a4x0xf8pxgcntelxmyclq83s0ykeehchz2wtspks905plm","addr1qxej50st0nq9ecw0av5evvaneamlf2atqluxfwevmpel2cc3aeg334777n6n4lzq7gmtttxjj8myt2u23c4tu85gpqwszw4vh6","addr1qxej50st0nq9ecw0av5evvaneamlf2atqluxfwevmpel2cc3aeg334777n6n4lzq7gmtttxjj8myt2u23c4tu85gpqwszw4vh6"],"addressesOutput":["addr1zxgx3far7qygq0k6epa0zcvcvrevmn0ypsnfsue94nsn3tvpw288a4x0xf8pxgcntelxmyclq83s0ykeehchz2wtspks905plm","addr1qxej50st0nq9ecw0av5evvaneamlf2atqluxfwevmpel2cc3aeg334777n6n4lzq7gmtttxjj8myt2u23c4tu85gpqwszw4vh6","addr1qxej50st0nq9ecw0av5evvaneamlf2atqluxfwevmpel2cc3aeg334777n6n4lzq7gmtttxjj8myt2u23c4tu85gpqwszw4vh6"],"fee":365358,"totalOutput":183448992,"tokens":[]},{"hash":"c762228e8a4f7f02bcc0f5d8fd0ae97be675baa2434c703e3f32766becac8987","blockNo":8374684,"blockHash":"89e36e9e4078812443e93686cc60e501cc9db69e9d0eebcda485c42bb109cf59","epochNo":392,"epochSlotNo":335699,"slot":84316499,"time":"2023/02/08 18:59:50","addressesInput":["addr1q9gnf2fx4wg5l8p2c0tdkqcn5dd7hmtn4mj5jte2s9xeueu06q2azdg6euygdj6tewg9tv22ats3c7pecj4l0ck0ykvsulajxl"],"addressesOutput":["addr1q9nksmsjylj5na276y74tdyyd09dac4qdnr2492d6ylu05m5v78kwdsy5xtx0clcpn6arcanqa0mu5gd496zcgu8akzqc8h6qt","addr1q9gnf2fx4wg5l8p2c0tdkqcn5dd7hmtn4mj5jte2s9xeueu06q2azdg6euygdj6tewg9tv22ats3c7pecj4l0ck0ykvsulajxl"],"fee":168317,"totalOutput":193931828,"tokens":[]},{"hash":"350b9ab7db729b94857ef2bfc433a0294f19d232a1308f817333b85a97b1f047","blockNo":8374684,"blockHash":"89e36e9e4078812443e93686cc60e501cc9db69e9d0eebcda485c42bb109cf59","epochNo":392,"epochSlotNo":335699,"slot":84316499,"time":"2023/02/08 18:59:50","addressesInput":["addr1w8dmtwktj7lktd0zv0wpxuny590ndshmj3z8xxmq3tjyvdggs35jy","addr1vy3qpx09uscywhppj5vp08hu0ekg9zwmq2ysfq6qyh2mpps865j6t","addr1w9xc5279jqxql020jp295d377nqrms826gnhgqxt5g5m9dqlfqf3f","addr1w8ssx8c4jgxvze4p8qqtdvqd7exjl3ths6pxycgjsnw66wqshlgar","addr1v8pr9mwnqarw808gtllvmlxvk70hnszrukjeqfstr9t9g5crud8c4","addr1v98cqka0n2e866tmxujep7cc74mrd6rdmu0ffzpe74k4dtcfkl30z","addr1w8vh8ssekk52ye3pt7a2j8upv3qphzmar2sj68353xds9lq5urex7","addr1wxugd4ufxmtrnh9jz28543daw9plce3x3nmcnamj5appugcpv2jrq","addr1wyzmvpfl7jt8q6gkm9r49x8nqwszc7pujlqxpqvld068nrggzz87c","addr1wxht790fjv0snwa9qzd5cvlxn238ahpa88vvtm7ht67mtxgrxgpe0","addr1w835n68qeax023uperwgwlruk3d8yjl4k98r433nhw5waqgkx8prf"],"addressesOutput":["addr1vy3qpx09uscywhppj5vp08hu0ekg9zwmq2ysfq6qyh2mpps865j6t","addr1v8pr9mwnqarw808gtllvmlxvk70hnszrukjeqfstr9t9g5crud8c4","addr1qytrehpghnd8rwn2evjhxyh2y7l3f4259x4zmt4kfldm8kv64r9mdrw62jvegtlmlf7ayux7f6m7lpsrgjm8mk2e8j0qcvhdmm","addr1w9xc5279jqxql020jp295d377nqrms826gnhgqxt5g5m9dqlfqf3f","addr1wyzmvpfl7jt8q6gkm9r49x8nqwszc7pujlqxpqvld068nrggzz87c","addr1w8ssx8c4jgxvze4p8qqtdvqd7exjl3ths6pxycgjsnw66wqshlgar","addr1w8vh8ssekk52ye3pt7a2j8upv3qphzmar2sj68353xds9lq5urex7","addr1wxugd4ufxmtrnh9jz28543daw9plce3x3nmcnamj5appugcpv2jrq","addr1w835n68qeax023uperwgwlruk3d8yjl4k98r433nhw5waqgkx8prf","addr1w8dmtwktj7lktd0zv0wpxuny590ndshmj3z8xxmq3tjyvdggs35jy","addr1wxht790fjv0snwa9qzd5cvlxn238ahpa88vvtm7ht67mtxgrxgpe0"],"fee":354349,"totalOutput":1565253717,"tokens":[]},{"hash":"5e5a9c5365de3bf566498759a83f7ac1c37bc4eb440f893ca993219a2cd36753","blockNo":8374683,"blockHash":"f66dc7e7ef923204dfe94a24806997a98cb8549f237fc361dc66281721b82edf","epochNo":392,"epochSlotNo":335689,"slot":84316489,"time":"2023/02/08 18:59:40","addressesInput":["addr1q84qv0kc2cfuqhmhqxat2tsyz4au73wdegkt606fvx9j04c9jvtypx5f6pdvvl8mhj2k7u4yygs36evd6ytzapnk7swsaun37f"],"addressesOutput":["addr1wypr0np3xatwhddulsnj3aaac65qg768zgs2xpd2xuaj0zscmvh0n","addr1q84qv0kc2cfuqhmhqxat2tsyz4au73wdegkt606fvx9j04c9jvtypx5f6pdvvl8mhj2k7u4yygs36evd6ytzapnk7swsaun37f"],"fee":182925,"totalOutput":9817075,"tokens":[]},{"hash":"3049087e88116be19ca994096205c029f25a0844f333aea0cfb8f31bfc0ec37e","blockNo":8374683,"blockHash":"f66dc7e7ef923204dfe94a24806997a98cb8549f237fc361dc66281721b82edf","epochNo":392,"epochSlotNo":335689,"slot":84316489,"time":"2023/02/08 18:59:40","addressesInput":["addr1w8cvzcnclvkua25vx26j72pddatuedsxspm62mr63urs0fctuuzfv","addr1qyj5x0jk50hk32haghextu8fjyz3husa7yu7u0gve6hyummz9xtd493fd8qz3mjv2ycdamnm6fhwdqcg47a7k3t55ctqnxvs0d"],"addressesOutput":["addr1qyj5x0jk50hk32haghextu8fjyz3husa7yu7u0gve6hyummz9xtd493fd8qz3mjv2ycdamnm6fhwdqcg47a7k3t55ctqnxvs0d","addr1w8cvzcnclvkua25vx26j72pddatuedsxspm62mr63urs0fctuuzfv"],"fee":216977,"totalOutput":1284748805,"tokens":[]},{"hash":"50e08f902fbe9c68bd715841ae81a9da67f5b5189a6303dfbb0de65272ac7366","blockNo":8374683,"blockHash":"f66dc7e7ef923204dfe94a24806997a98cb8549f237fc361dc66281721b82edf","epochNo":392,"epochSlotNo":335689,"slot":84316489,"time":"2023/02/08 18:59:40","addressesInput":["addr1qypd3y9d2aeu43k433ax0j6gcqcg7dtguk0f8n0luldzkwc6utu9kdc2qumju3vr7xwyd3q7r6e7kgun3z5cqfsk6qlq4d0mnt"],"addressesOutput":["addr1qxtukv54h0zp4j943sdphlk5ef2wcuflqscr2tefx0wfhsg6utu9kdc2qumju3vr7xwyd3q7r6e7kgun3z5cqfsk6qlq5yg8qq","addr1qxsgae4x0z3q0hjjqcwya7vzp9f9ex52lrly0wadmfgvhpfyzttqmp0evfcrwxkda77m5lg8c9ta2aafdf83jxyvhw3sgp9v30"],"fee":174125,"totalOutput":2320911654,"tokens":[]},{"hash":"24f824e5cd3db4bcf63fade26260e4ebe7edab7d5a6ea0b589615ccfc8499aa3","blockNo":8374683,"blockHash":"f66dc7e7ef923204dfe94a24806997a98cb8549f237fc361dc66281721b82edf","epochNo":392,"epochSlotNo":335689,"slot":84316489,"time":"2023/02/08 18:59:40","addressesInput":["addr1q8r5zsz65zgygy6wjp43xyxhk8cvvlew807vae4jh00ev29lwgpt4xfhrd5mk204qe650rsx7ktjs75lyp8mx67r6mss2485n3","addr1zxgx3far7qygq0k6epa0zcvcvrevmn0ypsnfsue94nsn3tvpw288a4x0xf8pxgcntelxmyclq83s0ykeehchz2wtspks905plm"],"addressesOutput":["addr1q8r5zsz65zgygy6wjp43xyxhk8cvvlew807vae4jh00ev29lwgpt4xfhrd5mk204qe650rsx7ktjs75lyp8mx67r6mss2485n3","addr1q8r5zsz65zgygy6wjp43xyxhk8cvvlew807vae4jh00ev29lwgpt4xfhrd5mk204qe650rsx7ktjs75lyp8mx67r6mss2485n3"],"fee":263381,"totalOutput":189447034,"tokens":[]},{"hash":"5e07ee7928d06263f9d0b486ff40f31e2405351e91d688dc28c6ed298ef4c6ac","blockNo":8374683,"blockHash":"f66dc7e7ef923204dfe94a24806997a98cb8549f237fc361dc66281721b82edf","epochNo":392,"epochSlotNo":335689,"slot":84316489,"time":"2023/02/08 18:59:40","addressesInput":["addr1qxsrmn2sxu6cna867kxaqn53npaur74zd8cpmudfajqvnw0rznqzp0acfdx86ra8tltu8lznza290mxjmxqr5sh0ngyqgz6zh2"],"addressesOutput":["addr1vy4vf3zzzgn5nxanhexzxya0zh7u3p0ur6904exaf4zyjxs3w8exz"],"fee":384700,"totalOutput":37086790,"tokens":[]},{"hash":"122901b68e9b3c8206f5b6aa975336993638457c99ecf1b3ebe529f745e21f9f","blockNo":8374683,"blockHash":"f66dc7e7ef923204dfe94a24806997a98cb8549f237fc361dc66281721b82edf","epochNo":392,"epochSlotNo":335689,"slot":84316489,"time":"2023/02/08 18:59:40","addressesInput":["addr1q9rvyjfxla3u87jykqgggh6q52akyc9t7ayu3kk5mlf45vw4fve6lf0lfjqxe8jqqcauh727pm9q075gs8llcwsd7c0qg450y4","addr1q9rvyjfxla3u87jykqgggh6q52akyc9t7ayu3kk5mlf45vw4fve6lf0lfjqxe8jqqcauh727pm9q075gs8llcwsd7c0qg450y4","addr1q9rvyjfxla3u87jykqgggh6q52akyc9t7ayu3kk5mlf45vw4fve6lf0lfjqxe8jqqcauh727pm9q075gs8llcwsd7c0qg450y4"],"addressesOutput":["DdzFFzCqrhsxPGyufSpcJyGbxmqTx5dfkiZgMaFzw4txDgP18raXG5z2hLBdzYEFyPwy8XGbbu6L9T15TJ7sddjn2AVje7m6tcqAYY8v","addr1q9rvyjfxla3u87jykqgggh6q52akyc9t7ayu3kk5mlf45vw4fve6lf0lfjqxe8jqqcauh727pm9q075gs8llcwsd7c0qg450y4"],"fee":180241,"totalOutput":10063221,"tokens":[]},{"hash":"211abda2992c3407421d11d970a5b4d1302921f59e19ff858cd241c3c8ca9c66","blockNo":8374683,"blockHash":"f66dc7e7ef923204dfe94a24806997a98cb8549f237fc361dc66281721b82edf","epochNo":392,"epochSlotNo":335689,"slot":84316489,"time":"2023/02/08 18:59:40","addressesInput":["addr1qxr3uzw0eeawv0jgek99v2cj8hmhw6yvta5zzu7nvt379sq549tl39uknmkcpncxxzjtapv8tfytdxfz5u75js6dv4ks900pc0","addr1w8cvzcnclvkua25vx26j72pddatuedsxspm62mr63urs0fctuuzfv","addr1q9sf58k0qc54pln5fl8ckz0yjp5vqcxzhs70ak8ns4wch8s549tl39uknmkcpncxxzjtapv8tfytdxfz5u75js6dv4ksmg3g6z"],"addressesOutput":["addr1q9sf58k0qc54pln5fl8ckz0yjp5vqcxzhs70ak8ns4wch8s549tl39uknmkcpncxxzjtapv8tfytdxfz5u75js6dv4ksmg3g6z","addr1w8cvzcnclvkua25vx26j72pddatuedsxspm62mr63urs0fctuuzfv"],"fee":220497,"totalOutput":144394385,"tokens":[]},{"hash":"be263415b247c94046ef7c274faddb73c04fe8d61ab03330a41a4ec8a1b2c078","blockNo":8374683,"blockHash":"f66dc7e7ef923204dfe94a24806997a98cb8549f237fc361dc66281721b82edf","epochNo":392,"epochSlotNo":335689,"slot":84316489,"time":"2023/02/08 18:59:40","addressesInput":["addr1q9rqy4r8v57qd42xe6sx7zpatdxm7xw0w93xtyz2maw9pcrjygrlgkeqlgnzz6gt3jt434scu0su7yrs9scgluldyvlqxdc4cv","addr1q9rqy4r8v57qd42xe6sx7zpatdxm7xw0w93xtyz2maw9pcrjygrlgkeqlgnzz6gt3jt434scu0su7yrs9scgluldyvlqxdc4cv"],"addressesOutput":["addr1qyj6w963zd4dzm6lge2lp9mjp2wzmpzrnfm2lknumdq38urjygrlgkeqlgnzz6gt3jt434scu0su7yrs9scgluldyvlqkl3adf","addr1qyj6w963zd4dzm6lge2lp9mjp2wzmpzrnfm2lknumdq38urjygrlgkeqlgnzz6gt3jt434scu0su7yrs9scgluldyvlqkl3adf","addr1wxwrp3hhg8xdddx7ecg6el2s2dj6h2c5g582yg2yxhupyns8feg4m"],"fee":208533,"totalOutput":12300869224,"tokens":[]},{"hash":"958eb2f42163d4b9afc074f3697a65f17df13fa7d0af3ff3f6ad6094b84ac3be","blockNo":8374683,"blockHash":"f66dc7e7ef923204dfe94a24806997a98cb8549f237fc361dc66281721b82edf","epochNo":392,"epochSlotNo":335689,"slot":84316489,"time":"2023/02/08 18:59:40","addressesInput":["addr1qyt24h6755adqew87ppl6tf5j75n07zaf06axtezlemu375kf3jm9nku4edqg6gh0pzpd83hhzzamv6zd4mcnv66qfeqcw3d8d","addr1qyt24h6755adqew87ppl6tf5j75n07zaf06axtezlemu375kf3jm9nku4edqg6gh0pzpd83hhzzamv6zd4mcnv66qfeqcw3d8d","addr1qyt24h6755adqew87ppl6tf5j75n07zaf06axtezlemu375kf3jm9nku4edqg6gh0pzpd83hhzzamv6zd4mcnv66qfeqcw3d8d"],"addressesOutput":["addr1qyt24h6755adqew87ppl6tf5j75n07zaf06axtezlemu375kf3jm9nku4edqg6gh0pzpd83hhzzamv6zd4mcnv66qfeqcw3d8d","addr1qyt24h6755adqew87ppl6tf5j75n07zaf06axtezlemu375kf3jm9nku4edqg6gh0pzpd83hhzzamv6zd4mcnv66qfeqcw3d8d","addr1qyt24h6755adqew87ppl6tf5j75n07zaf06axtezlemu375kf3jm9nku4edqg6gh0pzpd83hhzzamv6zd4mcnv66qfeqcw3d8d"],"fee":178525,"totalOutput":5713192,"tokens":[]},{"hash":"1825634c96a356bb3aab6a130c9990ae3d7bc6adfafa798f45fdaa13b66005c2","blockNo":8374683,"blockHash":"f66dc7e7ef923204dfe94a24806997a98cb8549f237fc361dc66281721b82edf","epochNo":392,"epochSlotNo":335689,"slot":84316489,"time":"2023/02/08 18:59:40","addressesInput":["addr1qy4yxxfvr04hq9mc3nct20437qmknqutqlf0cce0pjkj5r7fgs8k4j4ssp7y4tu3hyel3lk6px6efpzguec5qdynd4qshunmpp","addr1zxgx3far7qygq0k6epa0zcvcvrevmn0ypsnfsue94nsn3tvpw288a4x0xf8pxgcntelxmyclq83s0ykeehchz2wtspks905plm","addr1qy4yxxfvr04hq9mc3nct20437qmknqutqlf0cce0pjkj5r7fgs8k4j4ssp7y4tu3hyel3lk6px6efpzguec5qdynd4qshunmpp"],"addressesOutput":["addr1zxgx3far7qygq0k6epa0zcvcvrevmn0ypsnfsue94nsn3tvpw288a4x0xf8pxgcntelxmyclq83s0ykeehchz2wtspks905plm","addr1qy4yxxfvr04hq9mc3nct20437qmknqutqlf0cce0pjkj5r7fgs8k4j4ssp7y4tu3hyel3lk6px6efpzguec5qdynd4qshunmpp","addr1qy4yxxfvr04hq9mc3nct20437qmknqutqlf0cce0pjkj5r7fgs8k4j4ssp7y4tu3hyel3lk6px6efpzguec5qdynd4qshunmpp"],"fee":332114,"totalOutput":313499516,"tokens":[]},{"hash":"49954bf396ee84ea1831fa1c34df2012e198a300b4ead9b4bae00452aac1e6fb","blockNo":8374683,"blockHash":"f66dc7e7ef923204dfe94a24806997a98cb8549f237fc361dc66281721b82edf","epochNo":392,"epochSlotNo":335689,"slot":84316489,"time":"2023/02/08 18:59:40","addressesInput":["addr1w8cvzcnclvkua25vx26j72pddatuedsxspm62mr63urs0fctuuzfv","addr1qxz3zrldxkkwlawrdx2w8ycsnz578r5nrrj96d7e2na9n32cd7gh928plcchqknd3duaxpl5zu86g5gqkd3npv58vvgs8tgtk0"],"addressesOutput":["addr1qxz3zrldxkkwlawrdx2w8ycsnz578r5nrrj96d7e2na9n32cd7gh928plcchqknd3duaxpl5zu86g5gqkd3npv58vvgs8tgtk0","addr1w8cvzcnclvkua25vx26j72pddatuedsxspm62mr63urs0fctuuzfv"],"fee":217153,"totalOutput":411546947,"tokens":[]},{"hash":"1bc650a7de8c6888fa11278e72e47e24b441dbec5c9015ba8f9dd12a9b436bbf","blockNo":8374683,"blockHash":"f66dc7e7ef923204dfe94a24806997a98cb8549f237fc361dc66281721b82edf","epochNo":392,"epochSlotNo":335689,"slot":84316489,"time":"2023/02/08 18:59:40","addressesInput":["addr1qytgwld5lqppmcgaucgesxtlefe4l97tn3afxga507sznhlga3ggngwg2mwzg6kh5remka8pr32nsxvrwv05cjlfuksqhj7x4a","addr1qytgwld5lqppmcgaucgesxtlefe4l97tn3afxga507sznhlga3ggngwg2mwzg6kh5remka8pr32nsxvrwv05cjlfuksqhj7x4a","addr1zxgx3far7qygq0k6epa0zcvcvrevmn0ypsnfsue94nsn3tvpw288a4x0xf8pxgcntelxmyclq83s0ykeehchz2wtspks905plm"],"addressesOutput":["addr1qytgwld5lqppmcgaucgesxtlefe4l97tn3afxga507sznhlga3ggngwg2mwzg6kh5remka8pr32nsxvrwv05cjlfuksqhj7x4a","addr1qytgwld5lqppmcgaucgesxtlefe4l97tn3afxga507sznhlga3ggngwg2mwzg6kh5remka8pr32nsxvrwv05cjlfuksqhj7x4a"],"fee":274285,"totalOutput":159343699,"tokens":[]},{"hash":"d217d3efae73e9fec27eaba130e6e87b120eaa7af6d52d3f83b3de43a447813b","blockNo":8374683,"blockHash":"f66dc7e7ef923204dfe94a24806997a98cb8549f237fc361dc66281721b82edf","epochNo":392,"epochSlotNo":335689,"slot":84316489,"time":"2023/02/08 18:59:40","addressesInput":["addr1z8snz7c4974vzdpxu65ruphl3zjdvtxw8strf2c2tmqnxz2j2c79gy9l76sdg0xwhd7r0c0kna0tycz4y5s6mlenh8pq0xmsha","addr1qyht4ja0zcn45qvyx477qlyp6j5ftu5ng0prt9608dxp6l2j2c79gy9l76sdg0xwhd7r0c0kna0tycz4y5s6mlenh8pq4jxtdy","addr1qyht4ja0zcn45qvyx477qlyp6j5ftu5ng0prt9608dxp6l2j2c79gy9l76sdg0xwhd7r0c0kna0tycz4y5s6mlenh8pq4jxtdy","addr1wxn9efv2f6w82hagxqtn62ju4m293tqvw0uhmdl64ch8uwc0h43gt"],"addressesOutput":["addr1qyht4ja0zcn45qvyx477qlyp6j5ftu5ng0prt9608dxp6l2j2c79gy9l76sdg0xwhd7r0c0kna0tycz4y5s6mlenh8pq4jxtdy","addr1qyht4ja0zcn45qvyx477qlyp6j5ftu5ng0prt9608dxp6l2j2c79gy9l76sdg0xwhd7r0c0kna0tycz4y5s6mlenh8pq4jxtdy","addr1q9zgg4eyw79u8ru9vqnfwdl52ghy6wrr6px9vlv57t99auxg3rn7xug5huwpsy5rus5k96937jaypylk5sdw87e02clszgyhdt","addr1z8snz7c4974vzdpxu65ruphl3zjdvtxw8strf2c2tmqnxz2j2c79gy9l76sdg0xwhd7r0c0kna0tycz4y5s6mlenh8pq0xmsha"],"fee":825087,"totalOutput":1102671067060,"tokens":[]},{"hash":"4792e8c0bd6e3fe3972b5702b926f25f3d39ff3cf4f274de295686e80170c388","blockNo":8374683,"blockHash":"f66dc7e7ef923204dfe94a24806997a98cb8549f237fc361dc66281721b82edf","epochNo":392,"epochSlotNo":335689,"slot":84316489,"time":"2023/02/08 18:59:40","addressesInput":["addr1q9xtznlkclnjvaeal7e3vz7zhahxyr6w8ag979dh3tjhudqqtv53t25aa3u9v3ycrhwrnwx8qfqyv2kqh6arp8pjmdqs9qh7kz"],"addressesOutput":["addr1w89s3lfv7gkugker5llecq6x3k2vjvfnvp4692laeqe6w6s93vj3j","addr1q9xtznlkclnjvaeal7e3vz7zhahxyr6w8ag979dh3tjhudqqtv53t25aa3u9v3ycrhwrnwx8qfqyv2kqh6arp8pjmdqs9qh7kz"],"fee":192341,"totalOutput":9520951,"tokens":[]}],"totalItems":60859107,"totalPages":3042956,"currentPage":0}