{"data":[{"txId":56823804,"txHash":"deec4f783c7217217d24aeb014b656896e51a92e1e303c9ce1b18a65739446a3","txTime":"2022/12/07 10:18:06","block":8108451,"epoch":380,"slotNo":78841995,"epochSlotNo":45195,"stakeKey":"stake1u9s3hc694gskx352nz23wdg63v5lnj057zy3kdjwsfl2vxcarjnuh"},{"txId":56823519,"txHash":"b6477146149d8996391a1ae632f350adb9c0e9c188455982b1a30f50179a1eac","txTime":"2022/12/07 10:11:54","block":8108428,"epoch":380,"slotNo":78841623,"epochSlotNo":44823,"stakeKey":"stake1u8jxfdazdj0dcdm5kx6hpkx60rtvvr58n2ejugp2yl3zvsghtvq4c"},{"txId":56823381,"txHash":"a3f44daf0e89491b8370d4e552f44384ddfd7404c28e65e0085c392b367e468a","txTime":"2022/12/07 10:08:26","block":8108421,"epoch":380,"slotNo":78841415,"epochSlotNo":44615,"stakeKey":"stake1u92we0cgkr5pxehykdwlsr2ykrztyplk82awzuggx8awuvgdh62m2"},{"txId":56823183,"txHash":"48dde812730a0b3fc30d45bd08c4770724fe1513ae07fa0ed4b178b1162abb94","txTime":"2022/12/07 10:03:46","block":8108406,"epoch":380,"slotNo":78841135,"epochSlotNo":44335,"stakeKey":"stake1uxglsacwgvmdtf3vrhn83v5q3epzdxyxlr07tm249uen5mst2dgq3"},{"txId":56823145,"txHash":"16f0ac18848fe3b10f14f43603ab26fe11cd6279c4e8e628f73abc82192aec31","txTime":"2022/12/07 10:03:09","block":8108405,"epoch":380,"slotNo":78841098,"epochSlotNo":44298,"stakeKey":"stake1u8ze5qcq9vlgwczd7adjzznhfz0ggel30sfps72cr4sw2lsfae0l5"},{"txId":56823033,"txHash":"b1f0372570e0b3d10a1e18ccbeec78e8acea422514fdfc3278e711cfc94abfbc","txTime":"2022/12/07 10:01:01","block":8108399,"epoch":380,"slotNo":78840970,"epochSlotNo":44170,"stakeKey":"stake1uy8pjgvf2kz4jfl7m3adjunkzd8dckevdyw0lgedvxznfyc7d3pht"},{"txId":56822983,"txHash":"cc647265f3ca401bf3f5a8952c8a7ccf534bcf77390e9fa2bf84a042b02ba558","txTime":"2022/12/07 09:59:54","block":8108396,"epoch":380,"slotNo":78840903,"epochSlotNo":44103,"stakeKey":"stake1u8ugt3hfgamsu787sdn2yc4ks96ndfgnx3m3et0x93lw3qs5u9p4r"},{"txId":56822800,"txHash":"ffd22b442a4a3719310cbb82dc281a7a65e9c3f346b347d3a14dbbab1d967f4e","txTime":"2022/12/07 09:55:19","block":8108381,"epoch":380,"slotNo":78840628,"epochSlotNo":43828,"stakeKey":"stake1u82t70gclfume66cuydsa8ytruyl02f56eexf2k6xr3fgeqvcgcaj"},{"txId":56822751,"txHash":"0c3b104f0ad4aff48b3c253c72f60b6565c333a8da2b3301c2eb1a375e1192ec","txTime":"2022/12/07 09:54:59","block":8108380,"epoch":380,"slotNo":78840608,"epochSlotNo":43808,"stakeKey":"stake1u9eg69msuzrsjwev6x685g6n90w8z0y89v9dxysepwltpug0sw32k"},{"txId":56822653,"txHash":"295f53497461abb6b8c1016edb93a7736908bc3b3b2dfd2fc57479b3444e5dff","txTime":"2022/12/07 09:53:07","block":8108377,"epoch":380,"slotNo":78840496,"epochSlotNo":43696,"stakeKey":"stake1u994jwzhpz26vcgv2ldwyamcekr4mjlvhnk0u6t0hnze89cka9any"},{"txId":56822636,"txHash":"6db18641c25dedd0ccf5ef08534272940f67c0cb287bca79327b07fc6a988fa7","txTime":"2022/12/07 09:52:07","block":8108376,"epoch":380,"slotNo":78840436,"epochSlotNo":43636,"stakeKey":"stake1u8y9caukjgkfzf25s7ffc0l2hf3uwtfl3avhurh4s2kzxjc96vyzw"},{"txId":56822619,"txHash":"6dee556f4f16643e4d07efce862930bf01b582ebd13a290b67267947b940ac4f","txTime":"2022/12/07 09:51:36","block":8108374,"epoch":380,"slotNo":78840405,"epochSlotNo":43605,"stakeKey":"stake1u8eant3c4z4fygpv599j3spewsz9m93t327k8jmrrzh0n8qrn25z0"},{"txId":56822581,"txHash":"5a97044e8dfb6b9b98b5240997b81ca43afb5f1c3599bbcf6810ad14dff2b206","txTime":"2022/12/07 09:50:35","block":8108371,"epoch":380,"slotNo":78840344,"epochSlotNo":43544,"stakeKey":"stake1u8r0nlzv8caf45d9wurn3sz49326780ql933r8tujj22eaq4pnmkz"},{"txId":56822351,"txHash":"f9fa70b4f3da09db5951a557a4c3a8bea9c372ad8523c1497a008a20ad8724ee","txTime":"2022/12/07 09:45:27","block":8108362,"epoch":380,"slotNo":78840036,"epochSlotNo":43236,"stakeKey":"stake1uxrvfhc8cxfc2ahc0yak7n7xvjc0yys45kk35lranp8xn5c4sussr"},{"txId":56822090,"txHash":"f282c2a73608aa6b58405b5cf685fc46df3e9924f5c011398c7e9b523c7dd380","txTime":"2022/12/07 09:39:04","block":8108345,"epoch":380,"slotNo":78839653,"epochSlotNo":42853,"stakeKey":"stake1uxu73juk7z6xmysvfdfk2fehzcuxgkm07huceu6mfcyvptg5fjnv5"},{"txId":56821987,"txHash":"6d418f6dba32b68e6b77e8ce516766faf1c0a1d4636180228a492f72e4ffa965","txTime":"2022/12/07 09:35:56","block":8108335,"epoch":380,"slotNo":78839465,"epochSlotNo":42665,"stakeKey":"stake1u8shw7qpqnfphs5wwudatx3c2cz0nm4n32vpjxtcdsse9esf5gyms"},{"txId":56821912,"txHash":"dff98f00bb442ae4bc8a98e69e1c863fec86aec6fec9aeb18c480586e4f7691e","txTime":"2022/12/07 09:34:44","block":8108331,"epoch":380,"slotNo":78839393,"epochSlotNo":42593,"stakeKey":"stake1u8d60eqm0telprvy8tvk37vu9ae9kx4933r8hg9qv8r9q2c64s2kr"},{"txId":56821876,"txHash":"f52aef7be7f9e1bda090d16470732171ebfe1b93eca2efdec19996f9dabd829c","txTime":"2022/12/07 09:33:13","block":8108324,"epoch":380,"slotNo":78839302,"epochSlotNo":42502,"stakeKey":"stake1u8sgxsdc0snuu60gzghqt7snu3nn7l5g6tu536k8e3y4a9qlyv7y0"},{"txId":56821530,"txHash":"8e62e3553c347bb067c704d1bca1e844ef012d4766ce9534004f18902dcff8af","txTime":"2022/12/07 09:25:24","block":8108306,"epoch":380,"slotNo":78838833,"epochSlotNo":42033,"stakeKey":"stake1uxkaz4h4qg6r0cw9x3kqpw8n324p2qk5yx2llnq7jthacyc8gslxk"},{"txId":56821370,"txHash":"1c62304655f2b9c6127f3e7ee786c072eb5551a22f2de619ec9bbcc2c597ffbd","txTime":"2022/12/07 09:20:49","block":8108297,"epoch":380,"slotNo":78838558,"epochSlotNo":41758,"stakeKey":"stake1uycjfh6c85pzqgjxxfkg3y4e4n2kgn5xe0s3zec0ncuqs7q9ku9rv"}],"totalItems":1617283,"totalPages":80865,"currentPage":0}