{"data":[{"no":424,"status":"IN_PROGRESS","blkCount":7353,"outSum":49895848815377061,"txCount":121967,"startTime":"2023/07/14 21:44:58","endTime":"2023/07/19 21:44:58","maxSlot":432000},{"no":423,"status":"REWARDING","blkCount":20898,"outSum":194244728235272375,"txCount":440283,"startTime":"2023/07/09 21:44:51","endTime":"2023/07/14 21:44:36","maxSlot":432000},{"no":422,"status":"REWARDING","blkCount":21026,"outSum":196015338300341599,"txCount":393560,"startTime":"2023/07/04 21:45:05","endTime":"2023/07/09 21:44:48","maxSlot":432000},{"no":421,"status":"FINISHED","blkCount":20907,"outSum":193876500831666334,"txCount":369999,"startTime":"2023/06/29 21:46:01","endTime":"2023/07/04 21:44:43","maxSlot":432000},{"no":420,"status":"FINISHED","blkCount":20649,"outSum":209606012392762274,"txCount":381428,"startTime":"2023/06/24 21:45:05","endTime":"2023/06/29 21:44:38","maxSlot":432000},{"no":419,"status":"FINISHED","blkCount":20685,"outSum":213187909625868447,"txCount":358311,"startTime":"2023/06/19 21:45:21","endTime":"2023/06/24 21:44:39","maxSlot":432000},{"no":418,"status":"FINISHED","blkCount":21066,"outSum":211945372457195257,"txCount":328689,"startTime":"2023/06/14 21:44:54","endTime":"2023/06/19 21:44:13","maxSlot":432000},{"no":417,"status":"FINISHED","blkCount":20947,"outSum":229341415829835756,"txCount":375738,"startTime":"2023/06/09 21:47:26","endTime":"2023/06/14 21:44:28","maxSlot":432000},{"no":416,"status":"FINISHED","blkCount":21143,"outSum":271718768316501847,"txCount":459276,"startTime":"2023/06/04 21:46:57","endTime":"2023/06/09 21:44:47","maxSlot":432000},{"no":415,"status":"FINISHED","blkCount":20820,"outSum":340656360587128774,"txCount":490273,"startTime":"2023/05/30 21:45:29","endTime":"2023/06/04 21:44:50","maxSlot":432000}],"totalItems":425,"totalPages":43,"currentPage":0}