{"data":[{"txId":40023813,"txHash":"3fa4ad9fa9492f165b328df11e30a4b4687cc8168ebf3a884582b7ce0a22442a","txTime":"2022/05/02 16:59:12","block":7196784,"epoch":336,"slotNo":59944461,"epochSlotNo":155661,"stakeKey":"stake1u95jd66uh5axlsyjacpvysma9wphwe0zpktzq8aqs6yeg2qcgzf5y"},{"txId":40023689,"txHash":"9a46664930819a9897ef1c38fc130caac1e7723c0821e45b71418b150e64a666","txTime":"2022/05/02 16:57:46","block":7196781,"epoch":336,"slotNo":59944375,"epochSlotNo":155575,"stakeKey":"stake1uxn4j3pefq8z673lc77fmq4y7a0p48e5kahgs5gyvmla7gcvad5gk"},{"txId":40023195,"txHash":"86010d29208a531b01c7e97324bde469689951f52f63b73f7aaac4e3a7812398","txTime":"2022/05/02 16:52:05","block":7196757,"epoch":336,"slotNo":59944034,"epochSlotNo":155234,"stakeKey":"stake1u89lywrlp9zt6e9g9tjvuwrugjkqejefy8aq683euj30qcqxgns04"},{"txId":40023149,"txHash":"31cd3f1e2f81b56da0faa8c94e3b1449a0a69ea039090405f5dd62fdb45901dc","txTime":"2022/05/02 16:52:02","block":7196756,"epoch":336,"slotNo":59944031,"epochSlotNo":155231,"stakeKey":"stake1u9lnxpnw4e0kxhld4aja3kmw0ysetzsmx7kk5vm7d6rp0fgza8963"},{"txId":40023034,"txHash":"c66011d72cb18903c844ed462795fe42452f0335ed3c7fbf9402c89096ab0061","txTime":"2022/05/02 16:50:27","block":7196753,"epoch":336,"slotNo":59943936,"epochSlotNo":155136,"stakeKey":"stake1u97tms6gztz73rfluryd6zrh20u4gsxhm6rnzakcn4dmv9gctqxys"},{"txId":40022930,"txHash":"4f505d62a667cac9b02a3184cf6f72d47bcf7bdb215dbdbec02f349bfe9016c4","txTime":"2022/05/02 16:49:21","block":7196749,"epoch":336,"slotNo":59943870,"epochSlotNo":155070,"stakeKey":"stake1uyld0a95mvg4adj2qmtvnmfzwzwrt02w9g6zqaqtfpg9gys5saqp7"},{"txId":40022922,"txHash":"97f5a191c3f19afdd1122e107cb74a42a8c82c0ab2dc2c1d17e76683b8e60f64","txTime":"2022/05/02 16:49:21","block":7196749,"epoch":336,"slotNo":59943870,"epochSlotNo":155070,"stakeKey":"stake1u896wa8ppeqtwqadze4flgv07q443gkplvd5gprmp8hh2uqtgrv2e"},{"txId":40022861,"txHash":"fa4367d4605a935294fdcb7d1cb4d62905b523dda159c896e4428c850b095afe","txTime":"2022/05/02 16:48:31","block":7196747,"epoch":336,"slotNo":59943820,"epochSlotNo":155020,"stakeKey":"stake1uyp7ehc8xz0ccrrps40jc938n652zaltmkk55rzcejhtatspdpnk2"},{"txId":40022857,"txHash":"431792c2c30d5134ea19d8d87ba790211e63c4c66544b9bb05724d0537f8b191","txTime":"2022/05/02 16:48:14","block":7196746,"epoch":336,"slotNo":59943803,"epochSlotNo":155003,"stakeKey":"stake1uyyf7dtu5fuda0asf2mnc3etdx0zuek2f2kf7l3m3g9phpq0d04xv"},{"txId":40022780,"txHash":"7f5e88c4a2fcd5bd6fbe69a46dd3a2cde9f8e77d080212b753e9e71b59e952c2","txTime":"2022/05/02 16:47:13","block":7196744,"epoch":336,"slotNo":59943742,"epochSlotNo":154942,"stakeKey":"stake1u8cz2lm0s0u33k8fys7ejczvsq0c600l7hcfnvtd8wcpgyqnufgar"},{"txId":40022364,"txHash":"e54ab57082b75d30aaa38b3c9e584852e40f86b349bc570d6e9a862436b60f1d","txTime":"2022/05/02 16:41:55","block":7196725,"epoch":336,"slotNo":59943424,"epochSlotNo":154624,"stakeKey":"stake1u9r5tgcykhufflrapaamkaq0uhrawr35ul9a8gsny4g56wqjta3sl"},{"txId":40022212,"txHash":"f52624c33b9b84511ce9acee5693f485dd7c6884cb2035a4f39c78850e707655","txTime":"2022/05/02 16:40:13","block":7196721,"epoch":336,"slotNo":59943322,"epochSlotNo":154522,"stakeKey":"stake1u9lsvaw2vp440qr9a0g3sxhcmz59grkht3evztyhelgsheqm88qx7"},{"txId":40022162,"txHash":"467bcbf5476b992001585616a6783210be8e593bbc908ebd731c4fbd34615172","txTime":"2022/05/02 16:39:50","block":7196718,"epoch":336,"slotNo":59943299,"epochSlotNo":154499,"stakeKey":"stake1ux4elyfye04vajf9rhxh5ye5pegrvmlt7vl0d2n5w3ktleg49r37z"},{"txId":40022017,"txHash":"d8f94911e73a692bc11706c6317902835ba9a7b7ff94adf1a0398fe3d929fc69","txTime":"2022/05/02 16:39:31","block":7196715,"epoch":336,"slotNo":59943280,"epochSlotNo":154480,"stakeKey":"stake1uyvc6gwk586ddhy4f9prcnm0xcq9a6ygh98w032pwxcvq3ce7czl6"},{"txId":40021527,"txHash":"ca55436dc475f206de695c403d59dcdeeb9e85b4fffc35c332fa6ece70183076","txTime":"2022/05/02 16:31:40","block":7196696,"epoch":336,"slotNo":59942809,"epochSlotNo":154009,"stakeKey":"stake1u97hyeqksc6uyu28kwlr9f7vtnwyuwqpkkx76q4ngp50n6qzxygjw"},{"txId":40021481,"txHash":"e53cab5d6e44d103626435caf6d09971ed4f587e69677e4a3edc508b6a46d38c","txTime":"2022/05/02 16:31:17","block":7196694,"epoch":336,"slotNo":59942786,"epochSlotNo":153986,"stakeKey":"stake1uytdjw5acrr95w2sdztg5qtv9t0up4y9k2kgqv49jwtzhksesls5t"},{"txId":40021473,"txHash":"f1b9aa38b3f137901056bced1ffb930da9bc224aafaab23d385513e088a8a4bd","txTime":"2022/05/02 16:31:17","block":7196694,"epoch":336,"slotNo":59942786,"epochSlotNo":153986,"stakeKey":"stake1u82y42rlv36rxn4w6am8pjy6fy60hnys2xyj4echxtmv5pq7hhvtp"},{"txId":40020998,"txHash":"8b2c21678dffa2b61ccf07e31c499f95a024912b20f91c942a1242d2c23bbcc6","txTime":"2022/05/02 16:27:06","block":7196679,"epoch":336,"slotNo":59942535,"epochSlotNo":153735,"stakeKey":"stake1u9qkkalp76kyka5ls8snmmns4u855drphy0c7yqwf7s7t2s7mcs6c"},{"txId":40020772,"txHash":"31cbfd01bdf0472dd7fb6dfe77c48800c8f51f3c7e9aae9143a477081a9bd514","txTime":"2022/05/02 16:22:44","block":7196668,"epoch":336,"slotNo":59942273,"epochSlotNo":153473,"stakeKey":"stake1u9vs4m47h5x8s2s8c7auk2jfv009ge9zd2jaqkkkmk6w0ugl9hmqc"},{"txId":40020740,"txHash":"7c985bfbc3bd2be95edc7d3eaee8534859978591ee10c1c04d640098990415ad","txTime":"2022/05/02 16:22:35","block":7196667,"epoch":336,"slotNo":59942264,"epochSlotNo":153464,"stakeKey":"stake1u85fza25x9x7uu5f4ggzgexnnrrck62cue75l60jn5hugcq3g7rez"}],"totalItems":1498132,"totalPages":74907,"currentPage":0}