{"data":[{"hash":"b4cf1954fdbb3118e5f19fff9393e646efebfa592499faacdc1c943229d6763c","blockNo":8398715,"blockHash":"0d8544296f82f79fb8e2da1236266de175079202c5698fb989904078851b4504","epochNo":393,"epochSlotNo":402262,"slot":84815062,"time":"2023/02/14 13:29:13","addressesInput":["addr1z8snz7c4974vzdpxu65ruphl3zjdvtxw8strf2c2tmqnxz2j2c79gy9l76sdg0xwhd7r0c0kna0tycz4y5s6mlenh8pq0xmsha","addr1qyht4ja0zcn45qvyx477qlyp6j5ftu5ng0prt9608dxp6l2j2c79gy9l76sdg0xwhd7r0c0kna0tycz4y5s6mlenh8pq4jxtdy","addr1wxn9efv2f6w82hagxqtn62ju4m293tqvw0uhmdl64ch8uwc0h43gt","addr1qyht4ja0zcn45qvyx477qlyp6j5ftu5ng0prt9608dxp6l2j2c79gy9l76sdg0xwhd7r0c0kna0tycz4y5s6mlenh8pq4jxtdy"],"addressesOutput":["addr1qyht4ja0zcn45qvyx477qlyp6j5ftu5ng0prt9608dxp6l2j2c79gy9l76sdg0xwhd7r0c0kna0tycz4y5s6mlenh8pq4jxtdy","addr1qyht4ja0zcn45qvyx477qlyp6j5ftu5ng0prt9608dxp6l2j2c79gy9l76sdg0xwhd7r0c0kna0tycz4y5s6mlenh8pq4jxtdy","addr1qyjw9g3q757v6m49jzxtgsfyfudu9qs6yszyutxqm7u2ysdqknttt907gnwht5kvy6fa5x5njsxyks47vpw0hm7sp4eqj7np2s","addr1z8snz7c4974vzdpxu65ruphl3zjdvtxw8strf2c2tmqnxz2j2c79gy9l76sdg0xwhd7r0c0kna0tycz4y5s6mlenh8pq0xmsha"],"fee":828810,"totalOutput":20111937274698,"tokens":[]},{"hash":"8bb945f1ce33b0b865630829260b3e6f8e40f3de8f3884dbc8f59472fde41841","blockNo":8398715,"blockHash":"0d8544296f82f79fb8e2da1236266de175079202c5698fb989904078851b4504","epochNo":393,"epochSlotNo":402262,"slot":84815062,"time":"2023/02/14 13:29:13","addressesInput":["addr1q85qx64696gaej6pd0xuuv5ncz5t0sxcuj8yrhmlpt9hf53qfamczc25cvmj9ngt6jxhltltrcp7jfpaz5n9x35fh28segdkf7","addr1q9hr0p9f78m4jx7t0mgjeg5q7g0p098jxsnzr2lk5g0alpfqfamczc25cvmj9ngt6jxhltltrcp7jfpaz5n9x35fh28s38vs3e","addr1qy57z6he3ljffjflfawwsn7m8v8az8j42r67htcwvvmm2m3qfamczc25cvmj9ngt6jxhltltrcp7jfpaz5n9x35fh28s89czyn","addr1qyhrunw8l60cjly39cmsfkw6hm6rfw4t0jvh4wafdt04793qfamczc25cvmj9ngt6jxhltltrcp7jfpaz5n9x35fh28slcgmf8"],"addressesOutput":["addr1wxr2a8htmzuhj39y2gq7ftkpxv98y2g67tg8zezthgq4jkg0a4ul4","addr1q8cn3e5vg3wz5pfzt4kzmxj27daj5jkx9cvfwhj7n0xrx33qfamczc25cvmj9ngt6jxhltltrcp7jfpaz5n9x35fh28smdcm2e","addr1qy8tqvd33lfttn6l4xgg6qmvqy7c80hxtw6my8njaya6clfqfamczc25cvmj9ngt6jxhltltrcp7jfpaz5n9x35fh28snz9tql"],"fee":205849,"totalOutput":11885027161,"tokens":[]},{"hash":"58e00657bf6d34d11c921bf4fd7bd16768150e26fbd3430ce55e17516a8386fe","blockNo":8398715,"blockHash":"0d8544296f82f79fb8e2da1236266de175079202c5698fb989904078851b4504","epochNo":393,"epochSlotNo":402262,"slot":84815062,"time":"2023/02/14 13:29:13","addressesInput":["addr1qy4fddkfcaaay09ktyhhe6jwzpch0pxt84awzwnhpxgtgkhmg3hzp4zc467pkpcv45w8vd3s0zwqzwe9dfl8s5xwymwsqwl9h3"],"addressesOutput":["addr1q9gu5az26zsdy5nyvhe8cyjetw2v3nw387wjj7gkdw4x3mqp23zcpj6204l640uga6ecra5dyxlvznjazlc22pca5a2qxa3jct"],"fee":1100000,"totalOutput":1900000,"tokens":[]},{"hash":"7b53dd66b9896060ff69ad5e01fc824c841338d2cbf98017a19a899d53ee2386","blockNo":8398715,"blockHash":"0d8544296f82f79fb8e2da1236266de175079202c5698fb989904078851b4504","epochNo":393,"epochSlotNo":402262,"slot":84815062,"time":"2023/02/14 13:29:13","addressesInput":["addr1q8lu22dt9mgexj3d2jgep994ysvu4hznnkuzpzqt92frg40lfxyp99lylegf03z3cy2ntmwjelg4f6283fzrhum26nqs43u0y9","addr1q8lu22dt9mgexj3d2jgep994ysvu4hznnkuzpzqt92frg40lfxyp99lylegf03z3cy2ntmwjelg4f6283fzrhum26nqs43u0y9"],"addressesOutput":["addr1wxn9efv2f6w82hagxqtn62ju4m293tqvw0uhmdl64ch8uwc0h43gt","addr1q8lu22dt9mgexj3d2jgep994ysvu4hznnkuzpzqt92frg40lfxyp99lylegf03z3cy2ntmwjelg4f6283fzrhum26nqs43u0y9"],"fee":193441,"totalOutput":89166351,"tokens":[]},{"hash":"0043f89c4f06c6cbcdccdb26c414de6cc2f8f819503737ea9fad60886588e49d","blockNo":8398715,"blockHash":"0d8544296f82f79fb8e2da1236266de175079202c5698fb989904078851b4504","epochNo":393,"epochSlotNo":402262,"slot":84815062,"time":"2023/02/14 13:29:13","addressesInput":["addr1q9xy55tdywakpwxpy88eulcy05sdpw3aqfh2e2yc9vf7eyz5ffwtvqm70yv53q3zmqxwykj8s8juavzycdp9vxw62eqqj3m093","addr1q9xy55tdywakpwxpy88eulcy05sdpw3aqfh2e2yc9vf7eyz5ffwtvqm70yv53q3zmqxwykj8s8juavzycdp9vxw62eqqj3m093"],"addressesOutput":["addr1zxgx3far7qygq0k6epa0zcvcvrevmn0ypsnfsue94nsn3tvpw288a4x0xf8pxgcntelxmyclq83s0ykeehchz2wtspks905plm","addr1q9xy55tdywakpwxpy88eulcy05sdpw3aqfh2e2yc9vf7eyz5ffwtvqm70yv53q3zmqxwykj8s8juavzycdp9vxw62eqqj3m093","addr1q9xy55tdywakpwxpy88eulcy05sdpw3aqfh2e2yc9vf7eyz5ffwtvqm70yv53q3zmqxwykj8s8juavzycdp9vxw62eqqj3m093"],"fee":255173,"totalOutput":52254297,"tokens":[]},{"hash":"30a06e2f5b9070d2987bc05467eca59a62b4076091da39c64197d81117bbac5c","blockNo":8398715,"blockHash":"0d8544296f82f79fb8e2da1236266de175079202c5698fb989904078851b4504","epochNo":393,"epochSlotNo":402262,"slot":84815062,"time":"2023/02/14 13:29:13","addressesInput":["addr1qxfw320g2w92ffe05mfrd26s63pjsukv7nt0hmg3yqcxpf5k0tkve4rhs9npakc70jzkclpwq7qm280ydznedqyly2csdjpal5","addr1qxfw320g2w92ffe05mfrd26s63pjsukv7nt0hmg3yqcxpf5k0tkve4rhs9npakc70jzkclpwq7qm280ydznedqyly2csdjpal5"],"addressesOutput":["addr1zxgx3far7qygq0k6epa0zcvcvrevmn0ypsnfsue94nsn3tvpw288a4x0xf8pxgcntelxmyclq83s0ykeehchz2wtspks905plm","addr1qxfw320g2w92ffe05mfrd26s63pjsukv7nt0hmg3yqcxpf5k0tkve4rhs9npakc70jzkclpwq7qm280ydznedqyly2csdjpal5","addr1qxfw320g2w92ffe05mfrd26s63pjsukv7nt0hmg3yqcxpf5k0tkve4rhs9npakc70jzkclpwq7qm280ydznedqyly2csdjpal5"],"fee":229565,"totalOutput":30099905,"tokens":[]},{"hash":"eb490fc75e6f0d13e277cebb7cb164a11411c561638b1b968a6f92838ddbe5d5","blockNo":8398715,"blockHash":"0d8544296f82f79fb8e2da1236266de175079202c5698fb989904078851b4504","epochNo":393,"epochSlotNo":402262,"slot":84815062,"time":"2023/02/14 13:29:13","addressesInput":["addr1qx5hcv2dyxpyc4nyj6kvm23v0p840se3xxzmx6trsqcfnuluklnv9nym7xnduk5jymew8k20ne5wwq628vxhqwxhkr8s0tqmad"],"addressesOutput":["addr1qy332m0qcey7g3c2k07e2zd4rrtq4ynsfxhncwm3hfw9u6cvf7s60vjjeg2zzn3shuyq0s0f44cjhdg7889lyr59nqksk22leh","addr1q86564a0zmms4zt3au955jklykq8l2tg4cctshu877mx64huklnv9nym7xnduk5jymew8k20ne5wwq628vxhqwxhkr8sc04whv","addr1q86564a0zmms4zt3au955jklykq8l2tg4cctshu877mx64huklnv9nym7xnduk5jymew8k20ne5wwq628vxhqwxhkr8sc04whv","addr1q86564a0zmms4zt3au955jklykq8l2tg4cctshu877mx64huklnv9nym7xnduk5jymew8k20ne5wwq628vxhqwxhkr8sc04whv","addr1q86564a0zmms4zt3au955jklykq8l2tg4cctshu877mx64huklnv9nym7xnduk5jymew8k20ne5wwq628vxhqwxhkr8sc04whv"],"fee":176897,"totalOutput":1511605045,"tokens":[]},{"hash":"4e80149c4eb8df8d17b30e0bd7836c7139aa7cf2b1dd6493c3df10d344bada84","blockNo":8398715,"blockHash":"0d8544296f82f79fb8e2da1236266de175079202c5698fb989904078851b4504","epochNo":393,"epochSlotNo":402262,"slot":84815062,"time":"2023/02/14 13:29:13","addressesInput":["addr1q9u4dy0scdfuzdeumgjjnj4y54melfrjnhep6ufnnxuvy2ne26glps6ncymnek399892ffthn7j8980jr4cn8xdccg4q7mj0cn"],"addressesOutput":["addr1qylm8x45r7377v7dcykxs8rz72u5ylzjhxtn2ppu55pgnrplkwdtg8araueumsfvdqwx9u4egf799wvhx5zrefgz3xxqnakzgn","addr1q9u4dy0scdfuzdeumgjjnj4y54melfrjnhep6ufnnxuvy2ne26glps6ncymnek399892ffthn7j8980jr4cn8xdccg4q7mj0cn"],"fee":215071,"totalOutput":2799999784929,"tokens":[]},{"hash":"9649b414305ed2cda58d4df44f0af42aa3de4ffe8ac69615a6b6d1dd14e75ccf","blockNo":8398715,"blockHash":"0d8544296f82f79fb8e2da1236266de175079202c5698fb989904078851b4504","epochNo":393,"epochSlotNo":402262,"slot":84815062,"time":"2023/02/14 13:29:13","addressesInput":["addr1q99jt2s4jkp485q0wq9zpk6hrx48xj5p5npx567x6hzd09ue5x2q9yhuv3ge3qnnxdpq0k8j9kajemhhwzc600d84fzsw3u498"],"addressesOutput":["addr1qyyfdhnpfmdy0ctfhqt57t6f7ccp7hxhg9xh4quutlwrfhgp23zcpj6204l640uga6ecra5dyxlvznjazlc22pca5a2qfaqsvw","addr1qyce9rle2fj2wnzswma8ntdhek6sz60pcr0hpvcg7yey0vve5x2q9yhuv3ge3qnnxdpq0k8j9kajemhhwzc600d84fzsg5agq3"],"fee":168317,"totalOutput":29831683,"tokens":[]},{"hash":"12c581dcc30c51f6095ff33940b0b2b4c5ea61b3a00cce3b3ae37f5f13685b76","blockNo":8398715,"blockHash":"0d8544296f82f79fb8e2da1236266de175079202c5698fb989904078851b4504","epochNo":393,"epochSlotNo":402262,"slot":84815062,"time":"2023/02/14 13:29:13","addressesInput":["addr1q80ddqmlf6qj4eqjguusyth3xuv4nyn9maqwzaeahec0wpa862hz0ld2l3hpyhwv32shznxn8pfdyx33wc56uc0lvz8q0c0grs"],"addressesOutput":["addr1q80ddqmlf6qj4eqjguusyth3xuv4nyn9maqwzaeahec0wpa862hz0ld2l3hpyhwv32shznxn8pfdyx33wc56uc0lvz8q0c0grs","addr1q8v4zal3vycr7ct3ds3zz9k4kzmpmvrjaa5z7tp4jh75sgcnl0mmgg464qf6h283vg92av2lv3qzjtpfwpv8jc4fgxms30wkle"],"fee":406047,"totalOutput":73707557,"tokens":[]},{"hash":"b113e7df30d185bb5bd8497b870424f1c488dafc56500e152638acdf8514334a","blockNo":8398715,"blockHash":"0d8544296f82f79fb8e2da1236266de175079202c5698fb989904078851b4504","epochNo":393,"epochSlotNo":402262,"slot":84815062,"time":"2023/02/14 13:29:13","addressesInput":["addr1qxx8sla0ltm6j29tlgawf79g45ycz7tz4hmg2u7ed5wdhhxnxtt4vuatavjcns4uq9walqdw7wznzr853wjhzqtyj8eq43vrzs"],"addressesOutput":["DdzFFzCqrhsk8DoDZpb6n7USjJi78fcRmUJXz9ybSNRRQDtfkEDZkdKkgf3d9m6odUryTETtendkQZRLGNVMJgajmgLx69U96G1gaUkv","addr1qxx8sla0ltm6j29tlgawf79g45ycz7tz4hmg2u7ed5wdhhxnxtt4vuatavjcns4uq9walqdw7wznzr853wjhzqtyj8eq43vrzs"],"fee":170253,"totalOutput":731200023,"tokens":[]},{"hash":"247851da05520303eae84536fd5c0dbb3e1e7f0991c587e12c0c9f87aaedb55f","blockNo":8398715,"blockHash":"0d8544296f82f79fb8e2da1236266de175079202c5698fb989904078851b4504","epochNo":393,"epochSlotNo":402262,"slot":84815062,"time":"2023/02/14 13:29:13","addressesInput":["addr1w9tl479qmqnz0gl0heu6gh74wc80ee090v05arp6vhzkdjsaz2xd9","addr1qxv8yccdvcyrvj4kwz7g6vetvrgn5hrz2r6dxjyse8lcqfrgvhdg233kp7dms5a7x6qu7ftxa3qck2y2a4trmyykh6yq0qgl57"],"addressesOutput":["addr1qxhym3fmlg8522n6wjthmnnzu00azjkx69uqhp5s8kvvaptgvhdg233kp7dms5a7x6qu7ftxa3qck2y2a4trmyykh6yqmrz9sr","addr1qxv8yccdvcyrvj4kwz7g6vetvrgn5hrz2r6dxjyse8lcqfrgvhdg233kp7dms5a7x6qu7ftxa3qck2y2a4trmyykh6yq0qgl57"],"fee":241869,"totalOutput":10215692,"tokens":[]},{"hash":"d53325ae568155d1d9ae772c7667db1622fedbc4045bf52f7c63f433d2acad9c","blockNo":8398715,"blockHash":"0d8544296f82f79fb8e2da1236266de175079202c5698fb989904078851b4504","epochNo":393,"epochSlotNo":402262,"slot":84815062,"time":"2023/02/14 13:29:13","addressesInput":["addr1qxeax8yp5m32dpnshh9vm0gl3ztgkjlfrdrkq4xuqngyu607ahf72namxnwft2g0g9mkr2wyspmkfarwkh7ua9n0tqpsz3pmjr","addr1qxeax8yp5m32dpnshh9vm0gl3ztgkjlfrdrkq4xuqngyu607ahf72namxnwft2g0g9mkr2wyspmkfarwkh7ua9n0tqpsz3pmjr","addr1qxeax8yp5m32dpnshh9vm0gl3ztgkjlfrdrkq4xuqngyu607ahf72namxnwft2g0g9mkr2wyspmkfarwkh7ua9n0tqpsz3pmjr","addr1qxeax8yp5m32dpnshh9vm0gl3ztgkjlfrdrkq4xuqngyu607ahf72namxnwft2g0g9mkr2wyspmkfarwkh7ua9n0tqpsz3pmjr","addr1qxeax8yp5m32dpnshh9vm0gl3ztgkjlfrdrkq4xuqngyu607ahf72namxnwft2g0g9mkr2wyspmkfarwkh7ua9n0tqpsz3pmjr"],"addressesOutput":["addr1v82tkerzzfn57sckd00sxjt027ww5cmreqm99u82ycjrzcgcm55rs","addr1qxeax8yp5m32dpnshh9vm0gl3ztgkjlfrdrkq4xuqngyu607ahf72namxnwft2g0g9mkr2wyspmkfarwkh7ua9n0tqpsz3pmjr","addr1qxeax8yp5m32dpnshh9vm0gl3ztgkjlfrdrkq4xuqngyu607ahf72namxnwft2g0g9mkr2wyspmkfarwkh7ua9n0tqpsz3pmjr"],"fee":195993,"totalOutput":3249766190,"tokens":[]},{"hash":"b7c723432b183cb8d6b5584cc267079a1312df940e69b5dcb1e0234bf87fd0ef","blockNo":8398715,"blockHash":"0d8544296f82f79fb8e2da1236266de175079202c5698fb989904078851b4504","epochNo":393,"epochSlotNo":402262,"slot":84815062,"time":"2023/02/14 13:29:13","addressesInput":["addr1q89fj6mst3r4yc200qnuenx6gjgvltcuhp6v7n2plwc5q5erwcwmhgh0spsl6670muskdc3hvga3rf5auxejp0d7jeascrltlc"],"addressesOutput":["addr1zxgx3far7qygq0k6epa0zcvcvrevmn0ypsnfsue94nsn3tvpw288a4x0xf8pxgcntelxmyclq83s0ykeehchz2wtspks905plm","addr1q89fj6mst3r4yc200qnuenx6gjgvltcuhp6v7n2plwc5q5erwcwmhgh0spsl6670muskdc3hvga3rf5auxejp0d7jeascrltlc","addr1q89fj6mst3r4yc200qnuenx6gjgvltcuhp6v7n2plwc5q5erwcwmhgh0spsl6670muskdc3hvga3rf5auxejp0d7jeascrltlc","addr1q89fj6mst3r4yc200qnuenx6gjgvltcuhp6v7n2plwc5q5erwcwmhgh0spsl6670muskdc3hvga3rf5auxejp0d7jeascrltlc"],"fee":253545,"totalOutput":20130497,"tokens":[]},{"hash":"d979a2271ac12ad267dfe2a64959cc224a30d4f4d8e20f6b7124210a647bb6fb","blockNo":8398715,"blockHash":"0d8544296f82f79fb8e2da1236266de175079202c5698fb989904078851b4504","epochNo":393,"epochSlotNo":402262,"slot":84815062,"time":"2023/02/14 13:29:13","addressesInput":["addr1qyhf3whnhu0nt9pn3wfxzsxs3afr0sf0vpgq2rlr3a05807svr23hx55egqh4w338r2j5lvk5lmzmymx3gsx3yc0le0sk4sa9g"],"addressesOutput":["addr1vy28gfne3xd480qsk45vvtl7pdvrk7ax38dh2l8dkq7uneqzrtqnd","addr1qyhf3whnhu0nt9pn3wfxzsxs3afr0sf0vpgq2rlr3a05807svr23hx55egqh4w338r2j5lvk5lmzmymx3gsx3yc0le0sk4sa9g"],"fee":167085,"totalOutput":80187574,"tokens":[]},{"hash":"18fa11e3f7d8dd849d738e5e3181f1202f5a85a78286c06548862a96a71a7a25","blockNo":8398715,"blockHash":"0d8544296f82f79fb8e2da1236266de175079202c5698fb989904078851b4504","epochNo":393,"epochSlotNo":402262,"slot":84815062,"time":"2023/02/14 13:29:13","addressesInput":["addr1q9n58w9vall6gejquzzj6z9f85n6d8kmlygg3k9udv9qzhlgglgk5njma97aap6wvxs7rzx38rgg8rwclhjgtuktv5jq32k7dm","addr1qyugx952y8cwzxxtrhg8yru7qku3zfkmhx23d83d7qg8cuhgglgk5njma97aap6wvxs7rzx38rgg8rwclhjgtuktv5jqqv9pwx","addr1qx8kz554xdj8gqzkgcktvs76q58ak4kn9x2cd24fv5dc6ghgglgk5njma97aap6wvxs7rzx38rgg8rwclhjgtuktv5jqrktm56"],"addressesOutput":["addr1wxn9efv2f6w82hagxqtn62ju4m293tqvw0uhmdl64ch8uwc0h43gt","addr1q9fxgg08k6pwqxrlhaj78pa3lfztkxsuedt93l8qnw2d4qlgglgk5njma97aap6wvxs7rzx38rgg8rwclhjgtuktv5jqhn8ms5"],"fee":199645,"totalOutput":6372555,"tokens":[]},{"hash":"c4958bddadb439b1916b136ed81ca3d43ef01046d6623290e2bb638aabe64755","blockNo":8398715,"blockHash":"0d8544296f82f79fb8e2da1236266de175079202c5698fb989904078851b4504","epochNo":393,"epochSlotNo":402262,"slot":84815062,"time":"2023/02/14 13:29:13","addressesInput":["addr1q87gq27qftpyldwfuunsmcv4sewkajuf8vh58mrmskz7jt8usq4uqjkzf76unee8phsetpjadm9cjwe0g0k8hpv9aykqsqannx","addr1q87gq27qftpyldwfuunsmcv4sewkajuf8vh58mrmskz7jt8usq4uqjkzf76unee8phsetpjadm9cjwe0g0k8hpv9aykqsqannx"],"addressesOutput":["addr1qylm8x45r7377v7dcykxs8rz72u5ylzjhxtn2ppu55pgnrplkwdtg8araueumsfvdqwx9u4egf799wvhx5zrefgz3xxqnakzgn"],"fee":217491,"totalOutput":54982672143,"tokens":[]},{"hash":"95b628eff02e86c37db3231736341e1c54596b15c9c31922673050de359ffb4f","blockNo":8398715,"blockHash":"0d8544296f82f79fb8e2da1236266de175079202c5698fb989904078851b4504","epochNo":393,"epochSlotNo":402262,"slot":84815062,"time":"2023/02/14 13:29:13","addressesInput":["addr1qyudtmq9zxnx7mczk2yeungsrcumlfsvyh7gdxssan8a2wpqfamczc25cvmj9ngt6jxhltltrcp7jfpaz5n9x35fh28stx2aak"],"addressesOutput":["addr1wxn9efv2f6w82hagxqtn62ju4m293tqvw0uhmdl64ch8uwc0h43gt","addr1q8cn3e5vg3wz5pfzt4kzmxj27daj5jkx9cvfwhj7n0xrx33qfamczc25cvmj9ngt6jxhltltrcp7jfpaz5n9x35fh28smdcm2e","addr1q9mgrst78am7wl05atqlff8585jh6qqtugk8hh8686zrsz3qfamczc25cvmj9ngt6jxhltltrcp7jfpaz5n9x35fh28sj8d7lf"],"fee":187237,"totalOutput":791057103,"tokens":[]},{"hash":"9d72dd19cdc53eb2d709f160cc2774dd4fe218f1ba179befed7dee90089a43b5","blockNo":8398714,"blockHash":"f025f39e7565024b49cf79189e24b09ca72a7034ecdb6b3a649bd130df7b310e","epochNo":393,"epochSlotNo":402223,"slot":84815023,"time":"2023/02/14 13:28:34","addressesInput":["addr1qyur87uxrf7z86twkhy89dwtkmk0pg6x263nuu3vtr0xpsevfp54n6g855wwsavggkvyuk7d50ff0r94tfzz29pgjvfq0qkh6m"],"addressesOutput":["addr1qx8w2f0kv4uuanhnagx82cj3hz5xkge7lsjddj4dyqgv3up5r2y03c9f9zsug5h72drn92ee7k3q0pjlhsy3c6r5dm0sxzvart","addr1qyur87uxrf7z86twkhy89dwtkmk0pg6x263nuu3vtr0xpsevfp54n6g855wwsavggkvyuk7d50ff0r94tfzz29pgjvfq0qkh6m"],"fee":169417,"totalOutput":594251846,"tokens":[]},{"hash":"899e1457c826e3fffcbd58eadf82fb23fd5f1403cf7074a5eafa7cf1b5720b3e","blockNo":8398714,"blockHash":"f025f39e7565024b49cf79189e24b09ca72a7034ecdb6b3a649bd130df7b310e","epochNo":393,"epochSlotNo":402223,"slot":84815023,"time":"2023/02/14 13:28:34","addressesInput":["addr1wy30zf2g4xc7v872fdweewrlj3lh2lgttelmydn0cvhyplsg3vnkq","addr1qyz5pns778qcl7sdjfnrnslzexgjlrq7j8h4w3atqfea88hvevr5dh5fymsx4hndg0dz9yv2ek46ea2ua5tdrsxcpers3wtzps"],"addressesOutput":["addr1qyz5pns778qcl7sdjfnrnslzexgjlrq7j8h4w3atqfea88hvevr5dh5fymsx4hndg0dz9yv2ek46ea2ua5tdrsxcpers3wtzps","addr1wy30zf2g4xc7v872fdweewrlj3lh2lgttelmydn0cvhyplsg3vnkq"],"fee":820869,"totalOutput":215679131,"tokens":[]}],"totalItems":61274842,"totalPages":3063743,"currentPage":0}