{"data":[{"txId":58894774,"txHash":"496dc62986550b62325a56b3f35e3d6bf510e5d5c8b9465b17dc4c46102ecdb2","txTime":"2023/01/04 23:59:19","block":8228984,"epoch":385,"slotNo":81310468,"epochSlotNo":353668,"stakeKey":"stake1uyj52v8q86el97309swt3kv5tygunpmmqu75jydw7947xwcjn0ktf"},{"txId":58894770,"txHash":"d9d97761f6a2340f5c97ace6a534f34554d8f1a1aee9bb6026908ec75f534e94","txTime":"2023/01/04 23:59:19","block":8228984,"epoch":385,"slotNo":81310468,"epochSlotNo":353668,"stakeKey":"stake1u9269vl3wyms2g6zpc5j7672f8v3n8cplpjpdjrezpvd8hsx3ctq2"},{"txId":58894688,"txHash":"68842ac3f80ce2ba1299ecb5436247bb66e61e76a53580b6364877bdfff10041","txTime":"2023/01/04 23:59:18","block":8228983,"epoch":385,"slotNo":81310467,"epochSlotNo":353667,"stakeKey":"stake1uxfgn4pypjr9cylpd50wa6da7ec5mzhutay0pjh79epjh0s8lx7d6"},{"txId":58894612,"txHash":"574f71a459766a0adeed135c2b3d920e2a73b873d3bc64af444bfe45986701ce","txTime":"2023/01/04 23:56:29","block":8228978,"epoch":385,"slotNo":81310298,"epochSlotNo":353498,"stakeKey":"stake1uyuhfslpepnq2p383s7zhx6njtt6l36w4d6w7k76sscgwcsmttglj"},{"txId":58894559,"txHash":"46a0544a0bc1d0ae25a0f410d4a092d686de16ac2956346f73cfe51cf7ae8c7f","txTime":"2023/01/04 23:55:55","block":8228975,"epoch":385,"slotNo":81310264,"epochSlotNo":353464,"stakeKey":"stake1u9vaft73k0huqmnt6fmymkn8y362zgw8z3pud69ye5l759sqrfzlz"},{"txId":58894346,"txHash":"1bb83ef5b6e23878ae8df506309f99467ed2d5ba1b2243a163adf435c60a11ad","txTime":"2023/01/04 23:52:50","block":8228967,"epoch":385,"slotNo":81310079,"epochSlotNo":353279,"stakeKey":"stake1uyftfgn7a2c3hlfaje554ef72z8f0daht33e2qkkmdvx63ssadpxg"},{"txId":58893951,"txHash":"89947d31076d0074b62437a6aab9a3fd60edafd098678172df70ce57af20e949","txTime":"2023/01/04 23:45:49","block":8228940,"epoch":385,"slotNo":81309658,"epochSlotNo":352858,"stakeKey":"stake1u82l4hqvyj4yr0vrr5n0m7xyz03vrswffaedrk9zkcfas4sw0jvfa"},{"txId":58893799,"txHash":"5536e5f989854d959db98def01188a8e66e30a00d75568c6e03b04db8b655dde","txTime":"2023/01/04 23:43:21","block":8228930,"epoch":385,"slotNo":81309510,"epochSlotNo":352710,"stakeKey":"stake1u967304pvw8pjc65xgkep6ymtraawxrr6edz9edvd4uqt5s94q5t0"},{"txId":58893767,"txHash":"fb05682b4651695de3d26d0b6964e6ca4d7bb5bf8ab99ff331af695b467cf4d0","txTime":"2023/01/04 23:42:26","block":8228926,"epoch":385,"slotNo":81309455,"epochSlotNo":352655,"stakeKey":"stake1u9yk8kqt4ga3ykxxp4hd4cmzxxhvveugsk8t757340pf2dswyqjm9"},{"txId":58893714,"txHash":"a5d92fe012724549754225d4ebe08389eabf307180c9363f64aaab082913b39a","txTime":"2023/01/04 23:41:44","block":8228923,"epoch":385,"slotNo":81309413,"epochSlotNo":352613,"stakeKey":"stake1u99zg65uyjdvvykz23mqmawwfr44njma9jyrqdnpqmewg6qgyt9ze"},{"txId":58893713,"txHash":"3e2b40da520682b465465038046a0c267758a9c7e1dd56313796ac4c497f88e5","txTime":"2023/01/04 23:41:44","block":8228923,"epoch":385,"slotNo":81309413,"epochSlotNo":352613,"stakeKey":"stake1u9dwcml6u8w699zptpdfmnj4kjxcpqh4pyqt9cz0y6y4f5qqdfde7"},{"txId":58893693,"txHash":"95c767960ac58db65c2b4ff7961ca3bb5e30434a99d1c4ae03bf45ca8b9293a7","txTime":"2023/01/04 23:41:44","block":8228923,"epoch":385,"slotNo":81309413,"epochSlotNo":352613,"stakeKey":"stake1uyxw4ktxk0dcwvyrprjflpcxvpvk0r2m5zy24vvsyvkw4qstrdh8k"},{"txId":58893413,"txHash":"8d3c1725f5f8cdde197fc58a4e961dbca758f18a35202aa60521402041697ee8","txTime":"2023/01/04 23:36:35","block":8228908,"epoch":385,"slotNo":81309104,"epochSlotNo":352304,"stakeKey":"stake1uxchkgdtffxncaku46v0pf93w5xghnr846vlrvpwvq7p86skgtwed"},{"txId":58893311,"txHash":"a8dbe77e33bd806d83744231034862c9b8bffefff8d290482f948b424d26be88","txTime":"2023/01/04 23:34:14","block":8228902,"epoch":385,"slotNo":81308963,"epochSlotNo":352163,"stakeKey":"stake1u9juhj28h5uycxqqz6h0rj8wz8m75eyyvn0krkylas3vd3sjtemau"},{"txId":58893304,"txHash":"c3dcd82b281ff2fe2f623a363aa9e724db52f6611ad7988ffc7ec9af2aff58a7","txTime":"2023/01/04 23:34:11","block":8228901,"epoch":385,"slotNo":81308960,"epochSlotNo":352160,"stakeKey":"stake1uxaehgxd58nyr02celvfhcqat2j88ejufc3t9je7pj2edlc54djuz"},{"txId":58893205,"txHash":"b75265afbfe8ae2d253bf98d1269b9598d742bff7d6b9060f992e402b9794d5f","txTime":"2023/01/04 23:32:25","block":8228897,"epoch":385,"slotNo":81308854,"epochSlotNo":352054,"stakeKey":"stake1u89eght7um75g629jy9gskpcwjfpq08dssxvtj8fs4zk2ks2d8af4"},{"txId":58893190,"txHash":"69c0204037a114b29fecdd9d0bc13cf080a8473496bb829468d7ec8752889470","txTime":"2023/01/04 23:32:01","block":8228895,"epoch":385,"slotNo":81308830,"epochSlotNo":352030,"stakeKey":"stake1u8ukh5lu7v8tn3e25rea2lhdhxt5wy7v7u6n60fhzfp32acq2djhu"},{"txId":58893151,"txHash":"9edef1f4ef977ce413de4617f902ffb4f4baee00249e54915693458e29fd5d34","txTime":"2023/01/04 23:31:32","block":8228893,"epoch":385,"slotNo":81308801,"epochSlotNo":352001,"stakeKey":"stake1u8lun9qt0v9u0csn85j8p426d50xnmd0s6s942v9rdd0j2su99fvr"},{"txId":58893073,"txHash":"a5c3eb7cab611b49ecefcc39301fb1105571129996e3ca8d88983e01133a85d5","txTime":"2023/01/04 23:30:20","block":8228888,"epoch":385,"slotNo":81308729,"epochSlotNo":351929,"stakeKey":"stake1u9wv5xugdclknh77kw2jtdq5v9an7c2spar90ug9254ru0gpyveph"},{"txId":58893051,"txHash":"ba7bb9546a5cb603e089814f7dfbd4d4da5a196d8075c5484d932882c35b6203","txTime":"2023/01/04 23:30:20","block":8228888,"epoch":385,"slotNo":81308729,"epochSlotNo":351929,"stakeKey":"stake1uxgzafs7ck2cnr6x8w87qp3t73dcrs8e087m8np38xpxfpgrc5v9k"}],"totalItems":1638851,"totalPages":81943,"currentPage":0}