{"data":[{"blockNo":8126493,"slotNo":79206638,"epochNo":380,"epochSlotNo":409838,"hash":"d5e575c39af828839f52c31bd70a85b238ccbda0941b50b4a5e07ca5dd29dcb1","time":"2022/12/11 15:35:29","txCount":18,"totalFees":5892092,"totalOutput":31642019711,"slotLeader":"0f581255fdb8e8e88d3676a3cbede33e1f2456171cbe39266b3db679"},{"blockNo":8126492,"slotNo":79206621,"epochNo":380,"epochSlotNo":409821,"hash":"fb1687a93755ae36efdc100f5e90617e59fe89b83a152afd145bbbefc7e3de68","time":"2022/12/11 15:35:12","txCount":1,"totalFees":186181,"totalOutput":286510658,"slotLeader":"365a5a9c59aa3971d96511a5bce24c4598849d0d3c2d61217dc0b488"},{"blockNo":8126491,"slotNo":79206618,"epochNo":380,"epochSlotNo":409818,"hash":"b5ca5477842dfce08652e66305937d6f321fa944f95fdbd62ddb6535310723cf","time":"2022/12/11 15:35:09","txCount":7,"totalFees":1792506,"totalOutput":31751893171,"slotLeader":"661d04fdb7aa2c2476bbc6827d11ec22ec04ecb953495ade0f7b2352"},{"blockNo":8126490,"slotNo":79206616,"epochNo":380,"epochSlotNo":409816,"hash":"85ae894ea51be7a96a0fdef1c37c598a4a9bd1dd3a7c9a217df4afc23bb946fb","time":"2022/12/11 15:35:07","txCount":49,"totalFees":15421210,"totalOutput":1442531244339,"slotLeader":"d68eed68381b65beb04fc7984dfa156c4dbf53c7911e900af6a535ef"},{"blockNo":8126489,"slotNo":79206608,"epochNo":380,"epochSlotNo":409808,"hash":"2f64ead903fae3041535570603b250738b687c82795dbf0744e1fe2f0abb9942","time":"2022/12/11 15:34:59","txCount":45,"totalFees":13559252,"totalOutput":1406191324855,"slotLeader":"6b51a5aae5b4b5f07f38acf12816b4f8a558ee2840d0dba69040aeb2"},{"blockNo":8126488,"slotNo":79206453,"epochNo":380,"epochSlotNo":409653,"hash":"ad9995a3e1d9a2361ad3f14c258c98f476109b4c17010057280b1a6e9be8f44f","time":"2022/12/11 15:32:24","txCount":3,"totalFees":853389,"totalOutput":666883837,"slotLeader":"da482311081902f95d08bb05d878126904a1e133dd06901e05e652ce"},{"blockNo":8126487,"slotNo":79206448,"epochNo":380,"epochSlotNo":409648,"hash":"04fa6577445523dcffa46b359d439ade3670728440cc6ec10dcbb11807604fc7","time":"2022/12/11 15:32:19","txCount":38,"totalFees":10232100,"totalOutput":897092423625,"slotLeader":"3407812f0f5b698329dd4db9b7748e7aa6078b5e5f74c0af318385e4"},{"blockNo":8126486,"slotNo":79206406,"epochNo":380,"epochSlotNo":409606,"hash":"e151fc3e618ca1508b8070f1159ffb1f061b4a614f99e5f6b591c70a116e7ec7","time":"2022/12/11 15:31:37","txCount":18,"totalFees":7288539,"totalOutput":2791996092714,"slotLeader":"8857ee40b59bbc752e8cab4e5808e204cf7c4ce338fd7b86f4db0cc6"},{"blockNo":8126485,"slotNo":79206380,"epochNo":380,"epochSlotNo":409580,"hash":"c6ccac659742e213277fed6837e93f41b5f1e43257426471c133d48e37b4c028","time":"2022/12/11 15:31:11","txCount":23,"totalFees":8096065,"totalOutput":2826266783049,"slotLeader":"04357793d81097a7d2c15ec6cd6067a58cdd2fb21aaf07e56c306ecf"},{"blockNo":8126484,"slotNo":79206361,"epochNo":380,"epochSlotNo":409561,"hash":"ad687fedffbbf53a94711d32c6ed301daca3826db796c68a801bc3eec569a19c","time":"2022/12/11 15:30:52","txCount":7,"totalFees":2581961,"totalOutput":320369535170,"slotLeader":"eb7d911eb4c0ca066badadab42d80d5b59a5ce996389523a26edb64a"}],"totalItems":20170,"totalPages":2017,"currentPage":0}