{"data":[{"blockNo":7979693,"slotNo":76172792,"epochNo":373,"epochSlotNo":399992,"hash":"1c947dd2ee2eb48b1b41a38272fc0d2e46cd9264cec9df7f86728c838918e6e6","time":"2022/11/06 12:51:23","txCount":21,"totalFees":6881042,"totalOutput":203202393100,"slotLeader":"2ba96bc27be2bdde3ec11b9f696cf21fad39e49097be9b0193e6b572"},{"blockNo":7979692,"slotNo":76172765,"epochNo":373,"epochSlotNo":399965,"hash":"260e566d1a363eddd893de30c1fa2d23ce36bfb0caefb184b62f8ec35edeee53","time":"2022/11/06 12:50:56","txCount":6,"totalFees":1492526,"totalOutput":43932853138,"slotLeader":"9e734b6c2263c0917bfc550e9c949f41afa3fe000377243bd29df399"},{"blockNo":7979691,"slotNo":76172759,"epochNo":373,"epochSlotNo":399959,"hash":"0dae9aaf34f263d3db5402b80b90b547877c7a24b645095d26d41ca0eaebd1d7","time":"2022/11/06 12:50:50","txCount":13,"totalFees":3758771,"totalOutput":8036780447,"slotLeader":"550f5dc96814537404c7544175d348262699e448d74005dfa26540d3"},{"blockNo":7979690,"slotNo":76172745,"epochNo":373,"epochSlotNo":399945,"hash":"9dfcbc52932c793f241e0ca34862dec2aded330d0ed144b7302d323c27d852af","time":"2022/11/06 12:50:36","txCount":7,"totalFees":2487419,"totalOutput":1056077432,"slotLeader":"d2f12c2f3094ed0784f048fe93a62d8b061525b356e043be084470d9"},{"blockNo":7979689,"slotNo":76172729,"epochNo":373,"epochSlotNo":399929,"hash":"9f6be358be44a29334d26a5add5e7b46b3d5aa8e290e1b5b1fb8043b4e923cc7","time":"2022/11/06 12:50:20","txCount":17,"totalFees":5824284,"totalOutput":6055370561672,"slotLeader":"3e695a66ff6e2ed3806701bc0f6e8dfc85db114b71864999425147c5"},{"blockNo":7979688,"slotNo":76172712,"epochNo":373,"epochSlotNo":399912,"hash":"0bf51d8cd61d7d32deda3d32bdec852b982d005933409fbd4e84493a8552b5b8","time":"2022/11/06 12:50:03","txCount":24,"totalFees":7990861,"totalOutput":2806685089890,"slotLeader":"032cd96779710e1bdc766de1896277896be4d3b9aa86d4caccd22c8b"},{"blockNo":7979687,"slotNo":76172691,"epochNo":373,"epochSlotNo":399891,"hash":"651a210eaba69bccadbf9635e14d0d6d29d7cfc52ead9bbf45866e1a86d21833","time":"2022/11/06 12:49:42","txCount":15,"totalFees":5474593,"totalOutput":15458783415310,"slotLeader":"4045672633587d62688c258870681cab49c0d09a6542614e9a271678"},{"blockNo":7979686,"slotNo":76172675,"epochNo":373,"epochSlotNo":399875,"hash":"7e24a00400a6ff932edf7d1f2544dbf9631a0615980247e7a5eba8296be32286","time":"2022/11/06 12:49:26","txCount":12,"totalFees":3483398,"totalOutput":442795584250,"slotLeader":"d31f204c4a1701068d3a116b9c50662b60f365178336d6f7825ea547"},{"blockNo":7979685,"slotNo":76172661,"epochNo":373,"epochSlotNo":399861,"hash":"5e2314838837d04a982e872d7dfa6c6b5fdfe1b293d6d3cc792f652ff7db2061","time":"2022/11/06 12:49:12","txCount":6,"totalFees":1382126,"totalOutput":198860172,"slotLeader":"f6541f3ca941d96d3c243eae01fea874d6be403b2dd2c6575245de6e"},{"blockNo":7979684,"slotNo":76172649,"epochNo":373,"epochSlotNo":399849,"hash":"72b459f3e4bf05d76e04cc3c5f8497702af3f660497959247a41cf2e7c6cd61e","time":"2022/11/06 12:49:00","txCount":1,"totalFees":167467,"totalOutput":373288704,"slotLeader":"cfff13497008842ab170eae18ecf43be7eb4fa51bdd503821ddaaf19"},{"blockNo":7979683,"slotNo":76172648,"epochNo":373,"epochSlotNo":399848,"hash":"bbb04a8b1d18bbe3a2d00fdb637fa1821500010a06b6f366f4889d22634995ac","time":"2022/11/06 12:48:59","txCount":1,"totalFees":220431,"totalOutput":59885086366,"slotLeader":"c4a4b16b33b63da2117f4a84d3ea686f34fcf9f4603ce016af9e39aa"},{"blockNo":7979682,"slotNo":76172645,"epochNo":373,"epochSlotNo":399845,"hash":"42b5013b0b0901f1e1c48f4b12eb643bd0a05349670200d5e8e280f33d9c8e94","time":"2022/11/06 12:48:56","txCount":34,"totalFees":10794396,"totalOutput":2489920268077,"slotLeader":"0c7173112ca61362d2ee05040973f2184968f2d4e769df86671c916b"},{"blockNo":7979681,"slotNo":76172612,"epochNo":373,"epochSlotNo":399812,"hash":"6b906db5bf36abb3db771ced67619c7ec75b51ed4d37cc3991d0959d699b646b","time":"2022/11/06 12:48:23","txCount":13,"totalFees":3020732,"totalOutput":23883979807049,"slotLeader":"96aa57f4af0652c800cde0d25288bf6d1e35aefd11770d60e6bf8f0a"},{"blockNo":7979680,"slotNo":76172599,"epochNo":373,"epochSlotNo":399799,"hash":"99fc3dfd4ae75e6760382facca44dd8d4b43693f9fbda78670bde1fa5006d040","time":"2022/11/06 12:48:10","txCount":2,"totalFees":489885,"totalOutput":13838602476,"slotLeader":"397f04eb0ae0497d8c4d691844c8c6b026bc942e3f406f26b8e24f48"},{"blockNo":7979679,"slotNo":76172597,"epochNo":373,"epochSlotNo":399797,"hash":"65a1a98269dff9a342599f21a620d28c2d14387b2c7d4978dc1933ef33921682","time":"2022/11/06 12:48:08","txCount":31,"totalFees":8874891,"totalOutput":1422562727698,"slotLeader":"e3f78291c937e8a2f5662765c1442804dc89db4ef7f3296e4852b986"},{"blockNo":7979678,"slotNo":76172549,"epochNo":373,"epochSlotNo":399749,"hash":"3d0a4e67bd7764f8c9b099ea917d2a647d7825055f2a86b4eec9f86daa94ccbf","time":"2022/11/06 12:47:20","txCount":24,"totalFees":6441177,"totalOutput":1134971184990,"slotLeader":"72583cf41012446cd1ca839c10049ecd65d31664b11e63d286041d61"},{"blockNo":7979677,"slotNo":76172513,"epochNo":373,"epochSlotNo":399713,"hash":"649ca3334ee22f8bad39e8aee630dcedf22ce392c5b84b14c7afe277bd0efdfb","time":"2022/11/06 12:46:44","txCount":5,"totalFees":1126925,"totalOutput":4940694449,"slotLeader":"a50d1fd3cda9b9452cb149474a601d24332a870a6fe32b60add3a98b"},{"blockNo":7979676,"slotNo":76172509,"epochNo":373,"epochSlotNo":399709,"hash":"a974cc5252fb02a61d870980b167a847afdb74cbaa0e1e9a964a2c506308066d","time":"2022/11/06 12:46:40","txCount":15,"totalFees":4967210,"totalOutput":494546094409,"slotLeader":"3199811db9dd4dc48a7eab144f261e7976974561017515dc48a66749"},{"blockNo":7979675,"slotNo":76172493,"epochNo":373,"epochSlotNo":399693,"hash":"1b273c99cfc45272663748ecbef1650f2c8578827ba299ac421018073cff43f7","time":"2022/11/06 12:46:24","txCount":33,"totalFees":8799327,"totalOutput":523446836030,"slotLeader":"00000aedaa1a5abf500cbc4c5c23761a2dff570bc4a299983c893f8e"},{"blockNo":7979674,"slotNo":76172459,"epochNo":373,"epochSlotNo":399659,"hash":"dea953bea539a2fc0c5d5eb9f008080777095d13100e8e323b6bb5cf06045d32","time":"2022/11/06 12:45:50","txCount":13,"totalFees":4028526,"totalOutput":8404307086,"slotLeader":"d765dee553a7e041d525b1782a10eb0a5e52e96ed55ed173d8bb82a7"}],"totalItems":7979869,"totalPages":398994,"currentPage":0}