{"data":[{"txId":28934089,"txHash":"4eccdbc58bca6836f5bf5667e08fa686f23ec71eac5288e318eb138c7d0e8f6d","txTime":"2022/01/27 20:46:31","block":6809339,"epoch":317,"slotNo":51750100,"epochSlotNo":169300,"stakeKey":"stake1uytyxzecfxslsz0pvtqsgs4suu6sln64mv6ugfr4fjet8tq9r7rz2"},{"txId":28933530,"txHash":"5f1aeef86c37c09c2b2700c1e876f8850da8e050bb655a1cbf7e22c1aaee366e","txTime":"2022/01/27 20:39:50","block":6809322,"epoch":317,"slotNo":51749699,"epochSlotNo":168899,"stakeKey":"stake1uygewf3twzggauphvzcaqh8k2374crpf8ml6gh62n8xhk5qret8w0"},{"txId":28933229,"txHash":"ee235f00416db62ab35709625f1f868109fe794760ae3e1eb634adb3d8eb6de9","txTime":"2022/01/27 20:38:07","block":6809315,"epoch":317,"slotNo":51749596,"epochSlotNo":168796,"stakeKey":"stake1u92uq34uw2067eelnltuwk9am7pzxn6z5hl3ws6r949unzq6at8fw"},{"txId":28933227,"txHash":"0497f2227e377faf05f6438429f31adcebfeeec4895e1fcdd545389405dddf83","txTime":"2022/01/27 20:38:07","block":6809315,"epoch":317,"slotNo":51749596,"epochSlotNo":168796,"stakeKey":"stake1uxkd3pvk8tx6wd3fl3x84cugre0xp3ajswrtnwy79hfgadcn6rrvj"},{"txId":28932540,"txHash":"8992c4743413d3175706d711ca019c6638e8463fe7baae23a7412961672b2463","txTime":"2022/01/27 20:33:53","block":6809297,"epoch":317,"slotNo":51749342,"epochSlotNo":168542,"stakeKey":"stake1u9hwnsq80n7vy90w06sjm8ntrl5xus5ucjje263z88479wsjv9xuy"},{"txId":28930968,"txHash":"09dd260b801a97ffd017171240508d6732353a962dd1f5831a8b951d996c3a1d","txTime":"2022/01/27 20:17:38","block":6809256,"epoch":317,"slotNo":51748367,"epochSlotNo":167567,"stakeKey":"stake1u93gzqzmpaz6e2hsys2uymuac73aqq4d8zsfz7jhtld57uszcxt5z"},{"txId":28930481,"txHash":"eb543c75f12f03e94c5ec917e56b749cd7444cbef1d6d238e0eb7b4b126617e4","txTime":"2022/01/27 20:13:33","block":6809244,"epoch":317,"slotNo":51748122,"epochSlotNo":167322,"stakeKey":"stake1uxurc6urpq48jcskhh8jaza444askpd4nwa785c62nauvkc387s4c"},{"txId":28930013,"txHash":"2f4d8bf5690fd33a428da831d442b0dc7650d6c88d4998e59935ca7adce49aae","txTime":"2022/01/27 20:08:00","block":6809233,"epoch":317,"slotNo":51747789,"epochSlotNo":166989,"stakeKey":"stake1u9qx5m56p5r94rc842702p0xf743ka5l6k47lrucnygjl5gsl72ch"},{"txId":28929934,"txHash":"a60c9608d702746d1af60580b887a2ef1cc683678119eafa42dda4e8202a1e63","txTime":"2022/01/27 20:07:23","block":6809230,"epoch":317,"slotNo":51747752,"epochSlotNo":166952,"stakeKey":"stake1u8yytrwsxga72w5wfdmlsw245p398d4vk0r07lepw3a768qae9u7d"},{"txId":28929924,"txHash":"2e098c2431d39e8da02a0d192f6e93591a18af5381af23a1aa01d0ca2d9bc6a5","txTime":"2022/01/27 20:07:23","block":6809230,"epoch":317,"slotNo":51747752,"epochSlotNo":166952,"stakeKey":"stake1uyhf6a2cty3v2glrffww9ljvvn0z3ysnxx9c7pfegql0n0gfncdrs"},{"txId":28929743,"txHash":"bd1b35015ce155eaa56e3f37c76866448389f58382f6ad86eaebb05737299e7a","txTime":"2022/01/27 20:04:40","block":6809224,"epoch":317,"slotNo":51747589,"epochSlotNo":166789,"stakeKey":"stake1u9xd7gw9a29vrc0wcj8tmmpczfsgdaaw8nnm8papxt83mxg6e497w"},{"txId":28929714,"txHash":"aa70c328f17b67ea3d6f3b1482c613a812272653246c3145dfd3992f196b305a","txTime":"2022/01/27 20:04:15","block":6809223,"epoch":317,"slotNo":51747564,"epochSlotNo":166764,"stakeKey":"stake1ux4p3z2fn3490ytglfdc44f3cyttmyy5rnkvael54zn7lugquv0gw"},{"txId":28929671,"txHash":"66ae9033d37c8602d691f33272018f717c696bb7bae5b0ff41846431bc7d76d4","txTime":"2022/01/27 20:03:30","block":6809222,"epoch":317,"slotNo":51747519,"epochSlotNo":166719,"stakeKey":"stake1u9n2wn7mt02jurzwc7aue9vz9cesl87ctk8gh6tk6xldmug2thgmr"},{"txId":28928771,"txHash":"67b7679d3dbfe0afaa0e8d1b3a1312b18bd0fda329ab277ba8899f8c1d79e144","txTime":"2022/01/27 19:53:04","block":6809198,"epoch":317,"slotNo":51746893,"epochSlotNo":166093,"stakeKey":"stake1uxegenvwwtx3lzdre6qsu47an3mh385pn3tye55rkxxa5cqtt3ngn"},{"txId":28928749,"txHash":"fce9f5a7137cb232c6eeba085f6ab0a5cc68925317ba8248722e86a0e1cb78cf","txTime":"2022/01/27 19:52:59","block":6809197,"epoch":317,"slotNo":51746888,"epochSlotNo":166088,"stakeKey":"stake1u9p7zqz9zhyyqyt4u74yzlpvy66jjgs0d3nucwtmq3p0khqx08jee"},{"txId":28928455,"txHash":"59f8115c9ad4381191e3f2e6c2cf22b7032795ed274d4414ac42b98e0461f859","txTime":"2022/01/27 19:49:26","block":6809188,"epoch":317,"slotNo":51746675,"epochSlotNo":165875,"stakeKey":"stake1uxpnzu8h4z5yw2emyu0c8dgf7mzfgwqsfg7xghpxykvlyqqfcs2ml"},{"txId":28928362,"txHash":"3e1eaa524933e3302ab5431884fd0628a9355ea0997f47db8333c5a4778f0548","txTime":"2022/01/27 19:49:04","block":6809186,"epoch":317,"slotNo":51746653,"epochSlotNo":165853,"stakeKey":"stake1uyyzeycpx0sr44ah96spn04a2f00qpw46vqk2famz0uq04gz8f8gr"},{"txId":28928247,"txHash":"6a3080363cb42ef2751b242292f08a09cd8767974fa5ff6d87746a35e2897732","txTime":"2022/01/27 19:48:43","block":6809182,"epoch":317,"slotNo":51746632,"epochSlotNo":165832,"stakeKey":"stake1uye567hvq97y98gst27qczc55rvnkn2htvqwuqrjwkujsagvvc948"},{"txId":28928189,"txHash":"c38ff4c13956affa1bbf1e29435f213c2f79c7cab1d9f55177ed1169c508fae8","txTime":"2022/01/27 19:48:18","block":6809181,"epoch":317,"slotNo":51746607,"epochSlotNo":165807,"stakeKey":"stake1u93d3z8tscnlgnvqd4z5dvx0vr4072wrwsngh6dm9l954mshrmsln"},{"txId":28928186,"txHash":"20580a43ed083a3376bcf6e89d4bec5ddfc323a0699cce1e54c5581b4685d948","txTime":"2022/01/27 19:48:18","block":6809181,"epoch":317,"slotNo":51746607,"epochSlotNo":165807,"stakeKey":"stake1u9ygpfpk42s5mm55x6us5m080xrjujf4x0y8pplwfptrgxqqp5eq5"}],"totalItems":208621,"totalPages":10432,"currentPage":0}