{"data":[{"hash":"d967091ac9b854a83d9939eb04f4095e993675d76b4f04a9cc3254cf475d7692","blockNo":7196784,"blockHash":"f82279c008ff718f00367aa2a9c66a0e399a6420aa5b3ef198cc108315c2992f","epochNo":336,"epochSlotNo":155661,"slot":59944461,"time":"2022/05/02 16:59:12","addressesInput":["addr1q9fq6nsevamy3x434flwldl3dxw7jtrueph450dgvfukrq5k93502ww9dnrxkdqgghzhph8ggqrjastx0zztpyf2lxcsnkjt63"],"addressesOutput":["addr1v9ymuthtkvjek667dv3u4l2fnrephq5tpgt5gwpltdfeh3g0n554w","addr1q9sy05qlxgh36nu2ekyxfnvdrjxkf3zplsys8x255x4xcjuk93502ww9dnrxkdqgghzhph8ggqrjastx0zztpyf2lxcsq3qa6l"],"fee":167085,"totalOutput":400498745,"tokens":[]},{"hash":"a68c2d2b0658156609cec4b28e592a549e838927670c0d8039ee587272d3d04e","blockNo":7196784,"blockHash":"f82279c008ff718f00367aa2a9c66a0e399a6420aa5b3ef198cc108315c2992f","epochNo":336,"epochSlotNo":155661,"slot":59944461,"time":"2022/05/02 16:59:12","addressesInput":["addr1qxguv9jy65z8xyepnffv67967ys3xvdqdzkqnq9s47rn837fxdm96s5xzcvqsh8khwgjyf0d0uwh0kx4j5jyfnqh3zwqaakx3j","addr1qxguv9jy65z8xyepnffv67967ys3xvdqdzkqnq9s47rn837fxdm96s5xzcvqsh8khwgjyf0d0uwh0kx4j5jyfnqh3zwqaakx3j"],"addressesOutput":["addr1w999n67e86jn6xal07pzxtrmqynspgx0fwmcmpua4wc6yzsxpljz3","addr1qxguv9jy65z8xyepnffv67967ys3xvdqdzkqnq9s47rn837fxdm96s5xzcvqsh8khwgjyf0d0uwh0kx4j5jyfnqh3zwqaakx3j","addr1qxguv9jy65z8xyepnffv67967ys3xvdqdzkqnq9s47rn837fxdm96s5xzcvqsh8khwgjyf0d0uwh0kx4j5jyfnqh3zwqaakx3j"],"fee":196178,"totalOutput":137346509,"tokens":[]},{"hash":"7a73edf26cea3a77593c31aded91f826045cbdd21b47ac28e8f55932ead60824","blockNo":7196784,"blockHash":"f82279c008ff718f00367aa2a9c66a0e399a6420aa5b3ef198cc108315c2992f","epochNo":336,"epochSlotNo":155661,"slot":59944461,"time":"2022/05/02 16:59:12","addressesInput":["addr1q8aunrfp2cz8ck3a86q0wuacqhry2d053frd00vcnsyasksvet6v4wmf3upj9y0cuydg50qhafjzz3u8s2c8va8mxclqjtatfy","addr1q8aunrfp2cz8ck3a86q0wuacqhry2d053frd00vcnsyasksvet6v4wmf3upj9y0cuydg50qhafjzz3u8s2c8va8mxclqjtatfy"],"addressesOutput":["addr1w999n67e86jn6xal07pzxtrmqynspgx0fwmcmpua4wc6yzsxpljz3","addr1q8aunrfp2cz8ck3a86q0wuacqhry2d053frd00vcnsyasksvet6v4wmf3upj9y0cuydg50qhafjzz3u8s2c8va8mxclqjtatfy"],"fee":192958,"totalOutput":5691958,"tokens":[]},{"hash":"92682ae8f8fa23785bf8b2d40117720f1d48ec3f2f664b6b4773a1572b6d5a87","blockNo":7196784,"blockHash":"f82279c008ff718f00367aa2a9c66a0e399a6420aa5b3ef198cc108315c2992f","epochNo":336,"epochSlotNo":155661,"slot":59944461,"time":"2022/05/02 16:59:12","addressesInput":["addr1qx3c4hkx8lj5346szhh5n3w20svqgy7ajle4e9v8z5xt4js76nnw8vh2uddk6hns9vy64797uk2jgnyvpy6jetzp43lql943jg","addr1q9357dy5jylau2ngs2wz9ulu0pgfw8c28mz05dq0meh6l9q76nnw8vh2uddk6hns9vy64797uk2jgnyvpy6jetzp43lqw3drsh"],"addressesOutput":["addr1vxl4jdwzeh3dgzmjj9xmfm6sx5tnrt24zzlqgwgtsp9v2vs3tspqk","addr1qxu8r3v8hwx27409qlwz2tufkwc2a39tehewe5h2zxcp7ks76nnw8vh2uddk6hns9vy64797uk2jgnyvpy6jetzp43lqt5hark","addr1qxu8r3v8hwx27409qlwz2tufkwc2a39tehewe5h2zxcp7ks76nnw8vh2uddk6hns9vy64797uk2jgnyvpy6jetzp43lqt5hark"],"fee":176149,"totalOutput":34957931749,"tokens":[]},{"hash":"988e6c5e5ecd8604c73c6cc61afc091d45fa1ec1d593d700e57d295a7cb80e3c","blockNo":7196784,"blockHash":"f82279c008ff718f00367aa2a9c66a0e399a6420aa5b3ef198cc108315c2992f","epochNo":336,"epochSlotNo":155661,"slot":59944461,"time":"2022/05/02 16:59:12","addressesInput":["addr1w999n67e86jn6xal07pzxtrmqynspgx0fwmcmpua4wc6yzsxpljz3","addr1q9uyn0kkm9rhgdm39p6d8wvf7ghu5f9k2k0xxynrej6s2gevyyxr6ng85k44zm4czjys7cl9v7xhfjkjfcyn6u5hs6rqpt2ns3"],"addressesOutput":["addr1w999n67e86jn6xal07pzxtrmqynspgx0fwmcmpua4wc6yzsxpljz3","addr1q9uyn0kkm9rhgdm39p6d8wvf7ghu5f9k2k0xxynrej6s2gevyyxr6ng85k44zm4czjys7cl9v7xhfjkjfcyn6u5hs6rqpt2ns3"],"fee":1282804,"totalOutput":272952184,"tokens":[]},{"hash":"47ebb764c16310e974d36fedc35b84cc5113f01b684c2590c3fadbb5941797db","blockNo":7196784,"blockHash":"f82279c008ff718f00367aa2a9c66a0e399a6420aa5b3ef198cc108315c2992f","epochNo":336,"epochSlotNo":155661,"slot":59944461,"time":"2022/05/02 16:59:12","addressesInput":["addr1q9kgqdzpdx3hzrghenm9tj96drejc943kvkwcunysk5acm8xpt829wlfmwzh03gplq5zae0euj236mt8q5uhe9g70wgskrkgaw"],"addressesOutput":["addr1vynnjjdxrjpppc74ypzmhujp04jre35ahupecf2vwcjrjds6xc28h","addr1qxzrwls9c00x8g4qd0vumq8dw0kqgkp04pz2nrgk6aztlrlxpt829wlfmwzh03gplq5zae0euj236mt8q5uhe9g70wgsuej9n5"],"fee":167789,"totalOutput":1547718386,"tokens":[]},{"hash":"85f05a71adb8f711fd459f5a04f848f7a9f108d4d96b843ea5866b283590eb90","blockNo":7196784,"blockHash":"f82279c008ff718f00367aa2a9c66a0e399a6420aa5b3ef198cc108315c2992f","epochNo":336,"epochSlotNo":155661,"slot":59944461,"time":"2022/05/02 16:59:12","addressesInput":["addr1q8tqndf6lvpf0t6dtelr7cwal4s7d63jkd33lxs7kdadke9kktlgs697au0rf92a0q4zfuxs8h7flpjd0jdlxfqrxj8qlfe3e9","addr1q8tqndf6lvpf0t6dtelr7cwal4s7d63jkd33lxs7kdadke9kktlgs697au0rf92a0q4zfuxs8h7flpjd0jdlxfqrxj8qlfe3e9"],"addressesOutput":["addr1wxn9efv2f6w82hagxqtn62ju4m293tqvw0uhmdl64ch8uwc0h43gt","addr1q8tqndf6lvpf0t6dtelr7cwal4s7d63jkd33lxs7kdadke9kktlgs697au0rf92a0q4zfuxs8h7flpjd0jdlxfqrxj8qlfe3e9"],"fee":221997,"totalOutput":3731470832,"tokens":[]},{"hash":"5b4930426b7b09317f4b7bad4ea016c122e8dae194b2d8924ff64842f0109684","blockNo":7196784,"blockHash":"f82279c008ff718f00367aa2a9c66a0e399a6420aa5b3ef198cc108315c2992f","epochNo":336,"epochSlotNo":155661,"slot":59944461,"time":"2022/05/02 16:59:12","addressesInput":["addr1q98nufhejae874znz4fqcl475w04gkq222r4fynh0q65mm4mst8vn2xvejwh604537z5ya4jhtkryyl6m7upnzslpgzqxmdghv","addr1q98nufhejae874znz4fqcl475w04gkq222r4fynh0q65mm4mst8vn2xvejwh604537z5ya4jhtkryyl6m7upnzslpgzqxmdghv","addr1q98nufhejae874znz4fqcl475w04gkq222r4fynh0q65mm4mst8vn2xvejwh604537z5ya4jhtkryyl6m7upnzslpgzqxmdghv","addr1q98nufhejae874znz4fqcl475w04gkq222r4fynh0q65mm4mst8vn2xvejwh604537z5ya4jhtkryyl6m7upnzslpgzqxmdghv"],"addressesOutput":["addr1wxn9efv2f6w82hagxqtn62ju4m293tqvw0uhmdl64ch8uwc0h43gt","addr1q8k5fmhhwypnlyk4kkjnu5a8ukk3vx6yz5zdsx0kvjftcu9mst8vn2xvejwh604537z5ya4jhtkryyl6m7upnzslpgzq67m097"],"fee":187985,"totalOutput":4725079489,"tokens":[]},{"hash":"3fa4ad9fa9492f165b328df11e30a4b4687cc8168ebf3a884582b7ce0a22442a","blockNo":7196784,"blockHash":"f82279c008ff718f00367aa2a9c66a0e399a6420aa5b3ef198cc108315c2992f","epochNo":336,"epochSlotNo":155661,"slot":59944461,"time":"2022/05/02 16:59:12","addressesInput":["addr1qxqsmjy80decmhsrlnny9cf44u5vj7a6k2sn05xl75m5scrfym44e0f6dlqf9mszcfph62urwaj7yrvkyq06pp5fjs5qevd9jl"],"addressesOutput":["addr1qxqsmjy80decmhsrlnny9cf44u5vj7a6k2sn05xl75m5scrfym44e0f6dlqf9mszcfph62urwaj7yrvkyq06pp5fjs5qevd9jl"],"fee":174301,"totalOutput":105825699,"tokens":[]},{"hash":"284c5970565697808472d97dcd6b306484fd029a6bc57a9f8e21442271f1811c","blockNo":7196784,"blockHash":"f82279c008ff718f00367aa2a9c66a0e399a6420aa5b3ef198cc108315c2992f","epochNo":336,"epochSlotNo":155661,"slot":59944461,"time":"2022/05/02 16:59:12","addressesInput":["addr1qxnalncdq8ffdc64lfunq35zmu6gkvw7y5h6d5gs97633sav2q6e9vutklxd0sq7vvf0uh2g3vhd7px0x6fnzz5kvh5scw4atx"],"addressesOutput":["addr1v9dqx880l76fe2zzagc4ctssf7ehjv8lypzypensx8ud4vq8z3d5h","addr1q8ckr9xza4lmmaknh7pjka8gjh870duvy9mfsyxc3cq4edav2q6e9vutklxd0sq7vvf0uh2g3vhd7px0x6fnzz5kvh5sy27pss"],"fee":167789,"totalOutput":88465776,"tokens":[]},{"hash":"3c1618d63afeae0b726c0cd24517ad10f02a903b7f153555599d824ef27f7fa3","blockNo":7196784,"blockHash":"f82279c008ff718f00367aa2a9c66a0e399a6420aa5b3ef198cc108315c2992f","epochNo":336,"epochSlotNo":155661,"slot":59944461,"time":"2022/05/02 16:59:12","addressesInput":["addr1q8zqsgfm9y0ufzajghkrh2gfljenxajkwnjs76w5jfwlhe7fgld5wue7y084ncmf87kduyk0dnpzxuhqha8atyzpc4dq69nsy7"],"addressesOutput":["addr1q8gtc23stgkf99z3smekjylyew2czxzk0z89x2aawt2x68mnz42jc4nt3wjfqhr75m9t7wksm9u027x9naksqlwaqjnq3526m5","addr1qxhdedt5hm8tl9aal4j46sqa4js25zr4883v6ya879e75e7fgld5wue7y084ncmf87kduyk0dnpzxuhqha8atyzpc4dq9e5mfe"],"fee":168317,"totalOutput":85160879,"tokens":[]},{"hash":"9d72e0dd0b7d5d45154b6eb906254ea1a7fc6aa6984259c330abdc5122acf9cd","blockNo":7196784,"blockHash":"f82279c008ff718f00367aa2a9c66a0e399a6420aa5b3ef198cc108315c2992f","epochNo":336,"epochSlotNo":155661,"slot":59944461,"time":"2022/05/02 16:59:12","addressesInput":["addr1v8v3auqmw0eszza3ww29ea2pwftuqrqqyu26zvzjq9dt2ncydzvs5"],"addressesOutput":["addr1q90xt0laxek07hrlrvgl7nkc99mzqf4nxuch62uyd6cu3lj7vkll6dnvlaw87xc3la8ds2tkyqntxde3054cgm43erlqhj3yfz","addr1v8v3auqmw0eszza3ww29ea2pwftuqrqqyu26zvzjq9dt2ncydzvs5"],"fee":171221,"totalOutput":1599338008,"tokens":[]},{"hash":"395eab0af4fca576ddb20ee6d6f7db09f1a8f4b993539ab42b8a0e41ea949fc9","blockNo":7196784,"blockHash":"f82279c008ff718f00367aa2a9c66a0e399a6420aa5b3ef198cc108315c2992f","epochNo":336,"epochSlotNo":155661,"slot":59944461,"time":"2022/05/02 16:59:12","addressesInput":["addr1q92suuvcx2he6ux0armf59kz8yr7frau62en0hfr2yllh3yphshn2recxw9c7c2d6ny3h22k5r7e9j56jdjy9y8ntnyqw54mzz"],"addressesOutput":["addr1q925c6xmfdafnlch0vqa8e6kjnsqjs5jm3ug2myu93azls3zdjjm6nhlx7f7lvj5mtzje5pqvqx9aqfz9fc7m5mn4j0qpj9yhk","addr1q92suuvcx2he6ux0armf59kz8yr7frau62en0hfr2yllh3yphshn2recxw9c7c2d6ny3h22k5r7e9j56jdjy9y8ntnyqw54mzz"],"fee":248177,"totalOutput":39977544,"tokens":[]},{"hash":"ec23f833c8e0b4fd8160187f7b6808cd5032ed3c66ddc03f3d0a178255d1f276","blockNo":7196784,"blockHash":"f82279c008ff718f00367aa2a9c66a0e399a6420aa5b3ef198cc108315c2992f","epochNo":336,"epochSlotNo":155661,"slot":59944461,"time":"2022/05/02 16:59:12","addressesInput":["addr1qyrz9kcg93xftg4shtljk9jmxsprzds8exfec8gkqvdg39zcckfkf7xt2pk22fqdpxlwfu0q97elezvz5rqq634x0ysqywh0hk","addr1qyrz9kcg93xftg4shtljk9jmxsprzds8exfec8gkqvdg39zcckfkf7xt2pk22fqdpxlwfu0q97elezvz5rqq634x0ysqywh0hk"],"addressesOutput":["addr1w999n67e86jn6xal07pzxtrmqynspgx0fwmcmpua4wc6yzsxpljz3","addr1qyrz9kcg93xftg4shtljk9jmxsprzds8exfec8gkqvdg39zcckfkf7xt2pk22fqdpxlwfu0q97elezvz5rqq634x0ysqywh0hk","addr1qyrz9kcg93xftg4shtljk9jmxsprzds8exfec8gkqvdg39zcckfkf7xt2pk22fqdpxlwfu0q97elezvz5rqq634x0ysqywh0hk"],"fee":208230,"totalOutput":6267315,"tokens":[]},{"hash":"6c56c48c66e0f26c9a70a5e1669b27ba666dbc2a99ba081e44e6ba1f18c92d6c","blockNo":7196784,"blockHash":"f82279c008ff718f00367aa2a9c66a0e399a6420aa5b3ef198cc108315c2992f","epochNo":336,"epochSlotNo":155661,"slot":59944461,"time":"2022/05/02 16:59:12","addressesInput":["addr1w999n67e86jn6xal07pzxtrmqynspgx0fwmcmpua4wc6yzsxpljz3","addr1q9300ssqxsv2n6tmvjd2tnaahjr3n2p36mvz69qgvkmusrplptghpv7w38lqng98tn7wmyxw03qne7r00hm2ha08r6aqlzvpr6"],"addressesOutput":["addr1w999n67e86jn6xal07pzxtrmqynspgx0fwmcmpua4wc6yzsxpljz3","addr1q9300ssqxsv2n6tmvjd2tnaahjr3n2p36mvz69qgvkmusrplptghpv7w38lqng98tn7wmyxw03qne7r00hm2ha08r6aqlzvpr6","addr1q9300ssqxsv2n6tmvjd2tnaahjr3n2p36mvz69qgvkmusrplptghpv7w38lqng98tn7wmyxw03qne7r00hm2ha08r6aqlzvpr6"],"fee":506263,"totalOutput":37750046,"tokens":[]},{"hash":"8a828431f298b70627c747e8c07dc0a8500eb9772e1b6c74b6c260480cb88627","blockNo":7196784,"blockHash":"f82279c008ff718f00367aa2a9c66a0e399a6420aa5b3ef198cc108315c2992f","epochNo":336,"epochSlotNo":155661,"slot":59944461,"time":"2022/05/02 16:59:12","addressesInput":["addr1q98as4tgrxv0ckd56vs56e3sa97ufu6rla7s7cgpw0tz786rw8fkskau2dree2k5vyfwsuhcgx0fpztk4f5rqeetduwq7cl5k5","addr1q8mlcxp3ych0dqnrg44l7jhxh6e52hl6yv8ruwh3qp977t2rw8fkskau2dree2k5vyfwsuhcgx0fpztk4f5rqeetduwq3dmgpc"],"addressesOutput":["addr1qykfuz4jkzp3pfunlp4vtsz8xvkg65vfvg4hpcd7e2u0mr6rw8fkskau2dree2k5vyfwsuhcgx0fpztk4f5rqeetduwqc6p8y3","addr1q8qpfu7d28rtl3r3arfmmummjzfm89d4puvt2ulm73w2zt2rw8fkskau2dree2k5vyfwsuhcgx0fpztk4f5rqeetduwq8vwmch"],"fee":176501,"totalOutput":3858789,"tokens":[]},{"hash":"3cc0d02cf7124504eeac3898135ba025a6452bbad8d2474db1dc8f3fd708e068","blockNo":7196784,"blockHash":"f82279c008ff718f00367aa2a9c66a0e399a6420aa5b3ef198cc108315c2992f","epochNo":336,"epochSlotNo":155661,"slot":59944461,"time":"2022/05/02 16:59:12","addressesInput":["addr1qx8k7rvapa9mjaq5nhg44haswqrvksdwxx8394xpylt08x602jwtt7aqkg5vrceld8n2nzn342lqm5qudsr9zevej25qz8e5x3","addr1q952uxyemg4tg6nlnajwuk577pc49j8ka2wcqjmx2fmvy6602jwtt7aqkg5vrceld8n2nzn342lqm5qudsr9zevej25qmgywyn","addr1q8as6fkht4cdn3fm7fnzkv4luqrag2rsd9rfwy47c0azmsj02jwtt7aqkg5vrceld8n2nzn342lqm5qudsr9zevej25q8dpmr9"],"addressesOutput":["addr1q84v5zuxru36dgctmghyqkd5xmv4pj9y9qmwpgph47km8daepx9xw5nsnv6qtmp945y0xlgcyrv897nc44mh5v8jlwfqqg47ll","addr1qxdqn4649d6gce9pa46unmhlhjhpxzjdsmm0jahlkcp0vd602jwtt7aqkg5vrceld8n2nzn342lqm5qudsr9zevej25qwvm75x","addr1qxdqn4649d6gce9pa46unmhlhjhpxzjdsmm0jahlkcp0vd602jwtt7aqkg5vrceld8n2nzn342lqm5qudsr9zevej25qwvm75x","addr1qxdqn4649d6gce9pa46unmhlhjhpxzjdsmm0jahlkcp0vd602jwtt7aqkg5vrceld8n2nzn342lqm5qudsr9zevej25qwvm75x","addr1qxdqn4649d6gce9pa46unmhlhjhpxzjdsmm0jahlkcp0vd602jwtt7aqkg5vrceld8n2nzn342lqm5qudsr9zevej25qwvm75x","addr1qxdqn4649d6gce9pa46unmhlhjhpxzjdsmm0jahlkcp0vd602jwtt7aqkg5vrceld8n2nzn342lqm5qudsr9zevej25qwvm75x","addr1qxdqn4649d6gce9pa46unmhlhjhpxzjdsmm0jahlkcp0vd602jwtt7aqkg5vrceld8n2nzn342lqm5qudsr9zevej25qwvm75x","addr1qxdqn4649d6gce9pa46unmhlhjhpxzjdsmm0jahlkcp0vd602jwtt7aqkg5vrceld8n2nzn342lqm5qudsr9zevej25qwvm75x","addr1qxdqn4649d6gce9pa46unmhlhjhpxzjdsmm0jahlkcp0vd602jwtt7aqkg5vrceld8n2nzn342lqm5qudsr9zevej25qwvm75x"],"fee":224065,"totalOutput":8920241035,"tokens":[]},{"hash":"260e85214f42d48e75e9720ce5ed3f236299dc59426915f22dfd7bae3983b5f3","blockNo":7196784,"blockHash":"f82279c008ff718f00367aa2a9c66a0e399a6420aa5b3ef198cc108315c2992f","epochNo":336,"epochSlotNo":155661,"slot":59944461,"time":"2022/05/02 16:59:12","addressesInput":["addr1qxy73lcthc7362kf3nzcsjdh7kk4hd4lagcx8esdaewt8q670mn86y3rm6vfqxqnmqq66qae3zufwyflywnh0ern8ausf040pj","addr1qxy73lcthc7362kf3nzcsjdh7kk4hd4lagcx8esdaewt8q670mn86y3rm6vfqxqnmqq66qae3zufwyflywnh0ern8ausf040pj"],"addressesOutput":["addr1qypynqyxy0x6dxxvae0dy5rrvns9hyhdr7y4t2653ahdrghqxx88r2g2dnsay0chfcsqhn29000gl0veg9fq8w59m4xsk86nyr","addr1qxy73lcthc7362kf3nzcsjdh7kk4hd4lagcx8esdaewt8q670mn86y3rm6vfqxqnmqq66qae3zufwyflywnh0ern8ausf040pj"],"fee":200481,"totalOutput":7040739,"tokens":[]},{"hash":"307cff0c56511ef8b4e59f3bb344bde72a577f03d61f106aefb0bef4a76c48b9","blockNo":7196784,"blockHash":"f82279c008ff718f00367aa2a9c66a0e399a6420aa5b3ef198cc108315c2992f","epochNo":336,"epochSlotNo":155661,"slot":59944461,"time":"2022/05/02 16:59:12","addressesInput":["addr1q8q2hs0zgy2v7799dr64rpgpyaq8hkzdwzmsvcdf639vzdmakrdnh3edyfja7323pnpae5t8e5fq84qkef4h2ryjrwyqu4mptt","addr1w999n67e86jn6xal07pzxtrmqynspgx0fwmcmpua4wc6yzsxpljz3"],"addressesOutput":["addr1w999n67e86jn6xal07pzxtrmqynspgx0fwmcmpua4wc6yzsxpljz3","addr1q8q2hs0zgy2v7799dr64rpgpyaq8hkzdwzmsvcdf639vzdmakrdnh3edyfja7323pnpae5t8e5fq84qkef4h2ryjrwyqu4mptt"],"fee":1282390,"totalOutput":3379041,"tokens":[]},{"hash":"73a82c78897a227c91959a106e605eccb30558638569a022b680aaf5c6494f67","blockNo":7196784,"blockHash":"f82279c008ff718f00367aa2a9c66a0e399a6420aa5b3ef198cc108315c2992f","epochNo":336,"epochSlotNo":155661,"slot":59944461,"time":"2022/05/02 16:59:12","addressesInput":["addr1vyvagq87sxrdpapap7e7dwh6978tf6yayv5frt3k7q3vahs5nr4tv","addr1vyvagq87sxrdpapap7e7dwh6978tf6yayv5frt3k7q3vahs5nr4tv"],"addressesOutput":["addr1vyvagq87sxrdpapap7e7dwh6978tf6yayv5frt3k7q3vahs5nr4tv","addr1q9sg6yl4stur9yzhq07yz3nzr3yf3qamp2sxzw287u0je5nhu7ftvzrcyrjnqzt52enzy96363848zxlgxn0yzzfesuqkflcyr"],"fee":178833,"totalOutput":6073522,"tokens":[]}],"totalItems":39657344,"totalPages":1982868,"currentPage":0}