{"data":[{"blockNo":8265036,"slotNo":82051445,"epochNo":387,"epochSlotNo":230645,"hash":"0aba83982f35d88419d9f1b62326772eeeb26c00f0c02ead87229700b65a5735","time":"2023/01/13 13:48:56","txCount":14,"totalFees":4018175,"totalOutput":35153990207,"slotLeader":"f1b265f1e545da9c6e003c5d703fb5a23283c646cd40b2d619671e7f"},{"blockNo":8265035,"slotNo":82051431,"epochNo":387,"epochSlotNo":230631,"hash":"a53b61091140b83449707a1f3967c7174ce634f54347234d9aad837fd76999a6","time":"2023/01/13 13:48:42","txCount":14,"totalFees":3573077,"totalOutput":1802812263376,"slotLeader":"bd5f6b254798e3ddde1a9c3609fa9d6e468d638bd9103afb02e29ae5"},{"blockNo":8265034,"slotNo":82051412,"epochNo":387,"epochSlotNo":230612,"hash":"86dda8a35c52e3bd335e3b83469108fb93a58b666b8420f135f74a8362e9a5e2","time":"2023/01/13 13:48:23","txCount":9,"totalFees":3550160,"totalOutput":1592574611268,"slotLeader":"000001b844f4e4c900ae0dfdc84a8845f71090b82fb473e6c70a31ee"},{"blockNo":8265033,"slotNo":82051400,"epochNo":387,"epochSlotNo":230600,"hash":"95f622644a30c90a01818e31b22fea204fa0c2573806210d7d8eb04fc34019e9","time":"2023/01/13 13:48:11","txCount":13,"totalFees":2640388,"totalOutput":44291236509,"slotLeader":"837a3cf8c96e97bed8e8be6deb390144b46171e3c843b75575d0f788"},{"blockNo":8265032,"slotNo":82051382,"epochNo":387,"epochSlotNo":230582,"hash":"5020cb2634007de84bf1bb437c3bfcea7b917e62afa174b4c70c7a104d8f8bd1","time":"2023/01/13 13:47:53","txCount":5,"totalFees":2672010,"totalOutput":52723657959,"slotLeader":"beb5390bc047831874ad69f615a6f023ea121865c75ec389d6c0a392"},{"blockNo":8265031,"slotNo":82051375,"epochNo":387,"epochSlotNo":230575,"hash":"80b88cb8796698c98e1f058cb0038218b326e4e31df1759dda3ea1b6f24b7907","time":"2023/01/13 13:47:46","txCount":8,"totalFees":2007243,"totalOutput":7293198421,"slotLeader":"6c518b4861bb88b1395ceb116342cecbcfb8736282655f9a61c4c368"},{"blockNo":8265030,"slotNo":82051366,"epochNo":387,"epochSlotNo":230566,"hash":"abeeb5a91fec577090cf73148997f3653e81b5cd1ad473ea3a81b4eddb4e122b","time":"2023/01/13 13:47:37","txCount":33,"totalFees":14701560,"totalOutput":5418315306363,"slotLeader":"000006d97fd0415d2dafdbb8b782717a3d3ff32f865792b8df7ddd00"},{"blockNo":8265029,"slotNo":82051335,"epochNo":387,"epochSlotNo":230535,"hash":"092c517c5a37381d04385fb0dbf3f378238a855c5ce38e0e49f8e3edb783cd78","time":"2023/01/13 13:47:06","txCount":17,"totalFees":5344696,"totalOutput":1218357093055,"slotLeader":"c01546efeba17d531d60447356fc4c19b29c632aeac3377d21f75b4e"},{"blockNo":8265028,"slotNo":82051313,"epochNo":387,"epochSlotNo":230513,"hash":"98c60b5e29a3f35a0e5d12aee0f0ee947c3f990e824989578dc8282908c813cc","time":"2023/01/13 13:46:44","txCount":20,"totalFees":8868603,"totalOutput":19902378478305,"slotLeader":"56b76df4f3653a6faf62f6f6838045cf9f3dde69a1eee353de526ee4"},{"blockNo":8265027,"slotNo":82051308,"epochNo":387,"epochSlotNo":230508,"hash":"3284fabc1f82a43ca3b9dd2dec706358da6a1fad7d3df915c9a92c78374a449e","time":"2023/01/13 13:46:39","txCount":49,"totalFees":15527782,"totalOutput":364208290845,"slotLeader":"3d82913d4c8da690aab6af622651f7a659da40af87dcb4b3b98ce830"}],"totalItems":11299,"totalPages":1130,"currentPage":0}