{"data":[{"txId":54116244,"txHash":"f0a19d6db34a0b3ea51804190e070143cf50a5065eb66dffd52585d109308717","txTime":"2022/11/02 12:47:14","block":7962638,"epoch":373,"slotNo":75826943,"epochSlotNo":54143,"stakeKey":"stake1u9msfjce9gphzplw5vglnerl2ryep54lrwxxs6venqpuzncnnuyux"},{"txId":54116229,"txHash":"140b6199220b31fca45f3d831e09a9d93863cc8313b4028a7da675a4d200c5c6","txTime":"2022/11/02 12:46:41","block":7962636,"epoch":373,"slotNo":75826910,"epochSlotNo":54110,"stakeKey":"stake1u9rsymurjqvmx2wuf03t0904pw77vu6n3tcnc25wdl94decm5glxz"},{"txId":54116099,"txHash":"79dd06659764f7b065a6d6c9f2a89ea5c91a790e598e2aa102af99428ccf542c","txTime":"2022/11/02 12:44:56","block":7962629,"epoch":373,"slotNo":75826805,"epochSlotNo":54005,"stakeKey":"stake1u9py9hg8l09hlq0yvky8hr9j9yf2dysqtss9snah48yjmuqfp6umg"},{"txId":54115812,"txHash":"2825578e117b6d2a28e63e286423d3615a61630b3c80c83a6c03aa240ea5acc9","txTime":"2022/11/02 12:40:24","block":7962615,"epoch":373,"slotNo":75826533,"epochSlotNo":53733,"stakeKey":"stake1uyvckd4rg7dyke7u4sgyx94mqwy7vequjrl5gexrd8wu8lq6la5uh"},{"txId":54115320,"txHash":"af50b2a0c3217f836726508f800f6564f6639c8d545bd0376543618b5aba2db6","txTime":"2022/11/02 12:33:48","block":7962595,"epoch":373,"slotNo":75826137,"epochSlotNo":53337,"stakeKey":"stake1uyn3z3lq0kpfk05ke00xlt0hh5ysfc58na77qp6mv79pqcshdrtua"},{"txId":54113738,"txHash":"4c5a5faa84166e3b3cca11638bae2c96214cff63c3e42c05a4ad7e247704e654","txTime":"2022/11/02 12:03:44","block":7962517,"epoch":373,"slotNo":75824333,"epochSlotNo":51533,"stakeKey":"stake1uyymejwre39nz67z3jzr92q6yulxf80dt44jfswn6dh3kjsczrumh"},{"txId":54113533,"txHash":"90505e751e75df33dab2f4d91e2da62bb4bbba327e016ca5eb38ae67463badc3","txTime":"2022/11/02 11:59:24","block":7962501,"epoch":373,"slotNo":75824073,"epochSlotNo":51273,"stakeKey":"stake1u9wsgjuu9xsh8k26g0de6v9yfksh28ttwutx0rwl9g6zlxcjz9frw"},{"txId":54113290,"txHash":"ff8c6cbe77b9c160beb2414c5aaa1e44e4b55f1cd0404a32af0704bbd9680ba8","txTime":"2022/11/02 11:55:03","block":7962487,"epoch":373,"slotNo":75823812,"epochSlotNo":51012,"stakeKey":"stake1uy3smyjk4p07maqxxqxw3q0m3u4e8kv3s8xgag9ln8uaxjs3ke2mk"},{"txId":54113142,"txHash":"58fd2b059d7694a42800bb3db6cde14464b0c772197ae2c38f4c32781f936155","txTime":"2022/11/02 11:51:41","block":7962476,"epoch":373,"slotNo":75823610,"epochSlotNo":50810,"stakeKey":"stake1u843evnwcwl9xf2nw60rpv2sre3la4vtg3gssuvll7f8kngr44hcz"},{"txId":54112044,"txHash":"448ca4d5881c01de3ff8e89292c10e20882f5c5b891f5301e3e0d047ffd09d22","txTime":"2022/11/02 11:30:04","block":7962410,"epoch":373,"slotNo":75822313,"epochSlotNo":49513,"stakeKey":"stake1uy296ntn8ap0unh077nxd0k0xengd5f2uu5qgfzdfx5jmfqqkettx"},{"txId":54112037,"txHash":"34620fdfd725f942b2f1571ea415d9b6af307e33801722f74354d1c8ee17d843","txTime":"2022/11/02 11:29:50","block":7962409,"epoch":373,"slotNo":75822299,"epochSlotNo":49499,"stakeKey":"stake1u8ch3lnk6lzr98vuzx6ka82x537vmrylex7rcke0t38dfpcsw0fc3"},{"txId":54111605,"txHash":"ac0009a165c5b5a9165fb0506258a970b293d3e636ce13410c0d557c218ef514","txTime":"2022/11/02 11:21:10","block":7962383,"epoch":373,"slotNo":75821779,"epochSlotNo":48979,"stakeKey":"stake1u9a2p2lhjvmzctq038g9xz6p6683sk3puxkrre7smpd69ssd2l5yc"},{"txId":54111035,"txHash":"d7b4307f25800a9deaa059001bc75dbde592bdb8924930d4fae414630dc38634","txTime":"2022/11/02 11:08:55","block":7962350,"epoch":373,"slotNo":75821044,"epochSlotNo":48244,"stakeKey":"stake1u9lmy5gteerepqpaq56ygczs4wer3ejhy2xs80qj3xlcn0gkvc0wl"},{"txId":54110378,"txHash":"108c6c5bcc894388091b9624890f8ca9ed54c6fb9fce122f3f1e7f46fbdae3ec","txTime":"2022/11/02 10:55:00","block":7962311,"epoch":373,"slotNo":75820209,"epochSlotNo":47409,"stakeKey":"stake1ux9gs2ph6eh8jxjdfdymlpg008pj2smk5mh9m05xckrysuqncymw9"},{"txId":54110177,"txHash":"8a3bc6ce360e841efaac3a9fccab37e7fa18a3c6d02d9d3696897c67a39ad964","txTime":"2022/11/02 10:50:15","block":7962301,"epoch":373,"slotNo":75819924,"epochSlotNo":47124,"stakeKey":"stake1uyyapgcuwr72ksr7k0hazuyln65r8k6dcej982hm5pdlews5zg9s5"},{"txId":54110056,"txHash":"311be9a711a55d429d6729dc97bc8f53754d3364966f6cfd06e3525c92bed170","txTime":"2022/11/02 10:47:27","block":7962291,"epoch":373,"slotNo":75819756,"epochSlotNo":46956,"stakeKey":"stake1uy7sqywzvf7as87frdym2vt4nsd56yl9p87wlf7g8k02lnqcrc4lt"},{"txId":54110054,"txHash":"7b5bcc1bf047953187c8e487d3ef474fea5f450ef8fbbcad8510bd6d5da90bae","txTime":"2022/11/02 10:47:27","block":7962291,"epoch":373,"slotNo":75819756,"epochSlotNo":46956,"stakeKey":"stake1u8xj2jgxe36h6kv3p04y24xzlwsd75lv6mtv58jza3k9jpgy3tk8a"},{"txId":54109913,"txHash":"30d4fc41f80efd9ee0f97091107cfab5aaf7200c034d52f886830dc719b3798b","txTime":"2022/11/02 10:43:56","block":7962282,"epoch":373,"slotNo":75819545,"epochSlotNo":46745,"stakeKey":"stake1uxvv5uhsehmmlgek5n9fs5jvhn2qzrw7gfwzcm790s03lss9qmke7"},{"txId":54109819,"txHash":"cc4a344d911dece935cc4c19f576c98181aba719c271219e1d10bb1bf01b825e","txTime":"2022/11/02 10:42:38","block":7962276,"epoch":373,"slotNo":75819467,"epochSlotNo":46667,"stakeKey":"stake1uyuj0mq0s4lh5zz3wqqkt3clyhctfs6rh96vjy2ktftvlvq42d8rm"},{"txId":54109767,"txHash":"31e92ab6fa77bee3cc1155fd9cf253e16d158a25728e4123bf0c44e7f5281ad3","txTime":"2022/11/02 10:40:49","block":7962272,"epoch":373,"slotNo":75819358,"epochSlotNo":46558,"stakeKey":"stake1uy9chn5em4xcws9nnptffujkzvq20gfsh832rw2ag5g4sqq49u7hj"}],"totalItems":325327,"totalPages":16267,"currentPage":0}