{"data":[{"hash":"bf9994baef2bc808e04f8b99120e44812b4be3acf58bdaeca95899c91533a47d","blockNo":8318604,"blockHash":"098d6cf1da8f6ee3274411683b9ddc5d39b02627e3fcc3b4ca3ab99e92b60e0a","epochNo":390,"epochSlotNo":38121,"slot":83154921,"time":"2023/01/26 08:20:12","addressesInput":["addr1wxc45xspppp73takl93mq029905ptdfnmtgv6g7cr8pdyqgvks3s8","addr1qx76hnwx8qukkylx5te0em5gf7kgjqadv6x8z406mpyxz6nn3lmaa3wnh8ka8wxllq5f9kpp6spcwum5vvas6xgvuedsh0rgkp"],"addressesOutput":["addr1qxkmr0m22xeqludcg5rjdmecjxasu9fat0680qehtcsnftaadgykewa9ufvegeuca9yyq03d9v7ea2y2zthgu7hfgjtsddp6gr","addr1qx76hnwx8qukkylx5te0em5gf7kgjqadv6x8z406mpyxz6nn3lmaa3wnh8ka8wxllq5f9kpp6spcwum5vvas6xgvuedsh0rgkp","addr1qx76hnwx8qukkylx5te0em5gf7kgjqadv6x8z406mpyxz6nn3lmaa3wnh8ka8wxllq5f9kpp6spcwum5vvas6xgvuedsh0rgkp"],"fee":475195,"totalOutput":300878080,"tokens":[]},{"hash":"de1809851754698168b5f962f702c230ddc0aef3d198b9314499ed5ee20faec2","blockNo":8318579,"blockHash":"361e03d99247146d4bade35f7956c931b5e2ec0ff579f3a32e2b760dafef992c","epochNo":390,"epochSlotNo":37777,"slot":83154577,"time":"2023/01/26 08:14:28","addressesInput":["addr1q9j9edkjryr9fnz6eyuwjcjutun9kpgtkdlulzquheldfeermhplrjkd38pvcn2r58dnl0v4rxs9lz6rdj5p77j3wvcs7ud37u","addr1q9j9edkjryr9fnz6eyuwjcjutun9kpgtkdlulzquheldfeermhplrjkd38pvcn2r58dnl0v4rxs9lz6rdj5p77j3wvcs7ud37u","addr1q9j9edkjryr9fnz6eyuwjcjutun9kpgtkdlulzquheldfeermhplrjkd38pvcn2r58dnl0v4rxs9lz6rdj5p77j3wvcs7ud37u","addr1q9j9edkjryr9fnz6eyuwjcjutun9kpgtkdlulzquheldfeermhplrjkd38pvcn2r58dnl0v4rxs9lz6rdj5p77j3wvcs7ud37u"],"addressesOutput":["addr1zxgx3far7qygq0k6epa0zcvcvrevmn0ypsnfsue94nsn3tvpw288a4x0xf8pxgcntelxmyclq83s0ykeehchz2wtspks905plm","addr1q9j9edkjryr9fnz6eyuwjcjutun9kpgtkdlulzquheldfeermhplrjkd38pvcn2r58dnl0v4rxs9lz6rdj5p77j3wvcs7ud37u","addr1q9j9edkjryr9fnz6eyuwjcjutun9kpgtkdlulzquheldfeermhplrjkd38pvcn2r58dnl0v4rxs9lz6rdj5p77j3wvcs7ud37u","addr1q9j9edkjryr9fnz6eyuwjcjutun9kpgtkdlulzquheldfeermhplrjkd38pvcn2r58dnl0v4rxs9lz6rdj5p77j3wvcs7ud37u","addr1q9j9edkjryr9fnz6eyuwjcjutun9kpgtkdlulzquheldfeermhplrjkd38pvcn2r58dnl0v4rxs9lz6rdj5p77j3wvcs7ud37u"],"fee":697417,"totalOutput":51574905,"tokens":[]},{"hash":"de7483fca0bcc6d18d9b15bf24a6cb34fc4eb29b51bedd66bad1fe3da1d76203","blockNo":8318530,"blockHash":"0bee990cb11eea33b51b739b5b5011d1f6030c229c0965ed6928ac225caeb4db","epochNo":390,"epochSlotNo":36938,"slot":83153738,"time":"2023/01/26 08:00:29","addressesInput":["addr1qx76hnwx8qukkylx5te0em5gf7kgjqadv6x8z406mpyxz6nn3lmaa3wnh8ka8wxllq5f9kpp6spcwum5vvas6xgvuedsh0rgkp"],"addressesOutput":["addr1vy46ljsh826kq8wkgnwq5ranlmkpx2xdusrrspzxh5lptcswt2x7h","addr1qx76hnwx8qukkylx5te0em5gf7kgjqadv6x8z406mpyxz6nn3lmaa3wnh8ka8wxllq5f9kpp6spcwum5vvas6xgvuedsh0rgkp"],"fee":383873,"totalOutput":304280165,"tokens":[]},{"hash":"f497032f919db0f0f48dcbdcd39fcabe66c4ede0714dc103ab8ce3fe86e71b3d","blockNo":8318516,"blockHash":"f89a16247b0a295fd1b834f5d43deb34eac84254493270c2d5639547b3114440","epochNo":390,"epochSlotNo":36495,"slot":83153295,"time":"2023/01/26 07:53:06","addressesInput":["addr1qx76hnwx8qukkylx5te0em5gf7kgjqadv6x8z406mpyxz6nn3lmaa3wnh8ka8wxllq5f9kpp6spcwum5vvas6xgvuedsh0rgkp"],"addressesOutput":["addr1v89e4nhsq8f3nsrxqzkms5xkqj0348d2ummuc2dludnq8nszx6h5m","addr1qx76hnwx8qukkylx5te0em5gf7kgjqadv6x8z406mpyxz6nn3lmaa3wnh8ka8wxllq5f9kpp6spcwum5vvas6xgvuedsh0rgkp"],"fee":383873,"totalOutput":309664038,"tokens":[]},{"hash":"2c184b16e188846e3c54f514e1d30a4294082124e23d841ff44c3b0d297ec8ae","blockNo":8318502,"blockHash":"c511bd546ff991127c62c5b92ea8c258d019565ffe81fd904fe4f5f779ced71c","epochNo":390,"epochSlotNo":36173,"slot":83152973,"time":"2023/01/26 07:47:44","addressesInput":["addr1q9j9edkjryr9fnz6eyuwjcjutun9kpgtkdlulzquheldfeermhplrjkd38pvcn2r58dnl0v4rxs9lz6rdj5p77j3wvcs7ud37u","addr1q9j9edkjryr9fnz6eyuwjcjutun9kpgtkdlulzquheldfeermhplrjkd38pvcn2r58dnl0v4rxs9lz6rdj5p77j3wvcs7ud37u","addr1q9j9edkjryr9fnz6eyuwjcjutun9kpgtkdlulzquheldfeermhplrjkd38pvcn2r58dnl0v4rxs9lz6rdj5p77j3wvcs7ud37u","addr1q9j9edkjryr9fnz6eyuwjcjutun9kpgtkdlulzquheldfeermhplrjkd38pvcn2r58dnl0v4rxs9lz6rdj5p77j3wvcs7ud37u"],"addressesOutput":["addr1vyets805yr6d0qr8zsmm044tgh3anakmkf5gge38euzucssq0hs0s","addr1q9j9edkjryr9fnz6eyuwjcjutun9kpgtkdlulzquheldfeermhplrjkd38pvcn2r58dnl0v4rxs9lz6rdj5p77j3wvcs7ud37u","addr1q9j9edkjryr9fnz6eyuwjcjutun9kpgtkdlulzquheldfeermhplrjkd38pvcn2r58dnl0v4rxs9lz6rdj5p77j3wvcs7ud37u","addr1q9j9edkjryr9fnz6eyuwjcjutun9kpgtkdlulzquheldfeermhplrjkd38pvcn2r58dnl0v4rxs9lz6rdj5p77j3wvcs7ud37u"],"fee":640921,"totalOutput":54134642,"tokens":[]},{"hash":"055f5d14a4978882d05d55d9aef79843ed2e42cea161d4e0fdc21525fc595688","blockNo":8318116,"blockHash":"b15e24c3cc798a49be763117208dcaa5a88ce3a783b11a0a4b149afd4fe9168b","epochNo":390,"epochSlotNo":28130,"slot":83144930,"time":"2023/01/26 05:33:41","addressesInput":["addr1q8hpyvkcwpyeeq5xprj0hhyp49qx7kqprx5xhjs2vd60fx6zmhet75tnxa8l4gj20eljsycfxetsj96s7tuyaqpj7ufqajh2uq","addr1q8hpyvkcwpyeeq5xprj0hhyp49qx7kqprx5xhjs2vd60fx6zmhet75tnxa8l4gj20eljsycfxetsj96s7tuyaqpj7ufqajh2uq","addr1q8hpyvkcwpyeeq5xprj0hhyp49qx7kqprx5xhjs2vd60fx6zmhet75tnxa8l4gj20eljsycfxetsj96s7tuyaqpj7ufqajh2uq","addr1q8hpyvkcwpyeeq5xprj0hhyp49qx7kqprx5xhjs2vd60fx6zmhet75tnxa8l4gj20eljsycfxetsj96s7tuyaqpj7ufqajh2uq","addr1q8hpyvkcwpyeeq5xprj0hhyp49qx7kqprx5xhjs2vd60fx6zmhet75tnxa8l4gj20eljsycfxetsj96s7tuyaqpj7ufqajh2uq"],"addressesOutput":["addr1qy3hqaha5424xlz94wltv5lgswylzdytwanxzl9m80leec22kuj2dts0c0rjuyh4tf570q6z0xwg8tnl479r3ns5drgsxaa5yq","addr1q8hpyvkcwpyeeq5xprj0hhyp49qx7kqprx5xhjs2vd60fx6zmhet75tnxa8l4gj20eljsycfxetsj96s7tuyaqpj7ufqajh2uq","addr1q8hpyvkcwpyeeq5xprj0hhyp49qx7kqprx5xhjs2vd60fx6zmhet75tnxa8l4gj20eljsycfxetsj96s7tuyaqpj7ufqajh2uq"],"fee":207037,"totalOutput":196029706,"tokens":[]},{"hash":"9401ce6ea83ab890eafce36c0408d365fec473bf6f85fd415bb02cba38fbe0f2","blockNo":8317670,"blockHash":"409fa32afc54a26c3134afdd7b398e5606bd763b913603836240ebc9c86fac29","epochNo":390,"epochSlotNo":18830,"slot":83135630,"time":"2023/01/26 02:58:41","addressesInput":["DdzFFzCqrhtC7Pkb7ocMinRXrJbbJ4R41AZ4A9jrLChiMuru2LCoCUKXaAHFySckdAVDDkRoMHWFiGibaNAZWYmfCTcbwCUfgc6nvJtt","DdzFFzCqrht6N6KWP3DEwHjPq5FRZdGiitg639rDLj78Jcy8fGjnkVbagTfykN4atq129svERAgVJZNLDMoM6GUmvoA3DTQPqCzQUyN4","DdzFFzCqrhseF14JiCBEToV65ZL6SfAYxSa1hBJQ6aqAfGFgSyEPbzNpFgWuPoA64AS2Gsi5kUgfKjWYjxyJwWqb7XgmviwrEC9jYViD","DdzFFzCqrht4kkTVJ3QzMmUVQ2WsjL9mgHRcS6yQNsawi2C3zJmF6SHVMDPXAjoKVBV8MzEo8eohikBvrmkFwLScERyj7ro7LbYdG8ot","DdzFFzCqrht2p5jeGcPD1KFsiuDxfk7Am57de2PNwpzwpzfCxDwZeGnqAYEZHs4jfE3mgcxhzYq2Nxeg2kMYj6kPH2Ya6SVMJMbc7HDL","DdzFFzCqrhshahDo8eXoMqP1xXYQ8QLqPXzay2zLJMgijCzX9rBya9S9UiCR9Y1tbhLLyQuYtVCFr35G4kT9TPNYV8y9L1RmhzNxn19H","DdzFFzCqrhtBaqUuANfo7emXw6SmG2XGw9LVzN7wzU21Ed7wUREULeRCV6RmHTmcgpeas8R8jfoPMdxZP8yqLSuZuRZp1xAucYgrWCHE","DdzFFzCqrht8SttV9ph7TYyZN8DNCNVdNiN6iXrN94oEudgyeVyFAYXWjhBm2hRqp1dSJ63cpGksxtMcuGrQKo7qnWtGkDe44YimKH67","DdzFFzCqrhsmZ2uop44iGqgg7pniwz32Pg95N8hioU9LyM4E96nd1r7erUBb9p55KJzNKd5mGXfJezmFZYsFiyfKE78zFppvoazDznZB","DdzFFzCqrhsnpYzXgqnUe9W1tDyH9RsAGQJJK8f1aZUaA1jGYWm6PoBZ47AJBQHhZ4RGVrHjVH3nHnPmYDQsQoThN4ABkeSrQCQcmxPh","DdzFFzCqrhskoBaGukKGzrp1wcUcnygCQrhmfXNg3HWXxSG1XcmjspqgEimkF4xC9FucxKVzaJ98yPyi5PsJ9x2B4YJcdHQu5bdT88a5","DdzFFzCqrhtAtjTGtWFo18VPymspavqfENaRwXasxxk5TcHsTKRNRfaZdGA4cbEguUCM5ovG38SxEvNpVdXKEoQZdfL86Bb34yes2kNv","DdzFFzCqrht7CNhJRAtqdp3J4wczHKUKKTDLTQPdheybTDjoLxsgQMRxGsb1G9V1spnrMm1Un4wKHr2CqgEbE3atham76Tf7GucYouiX","DdzFFzCqrhstXi3ghTpybm8pAiJ3DPd262jQDMDdRrMCqdVroqz77ENADRSG6WTRbXTsJWPp9RTEAtg84vz6DZETErNcnXmp9dPutZog","DdzFFzCqrhsrx53Y81stGaTGoGBb98KU2RoUEsYH7D8hyDMBovpkT8jw5m7nA9AabSdyRTYxbceaFMW1VmZVZWA6E7baiNsaYQPEDZV6","DdzFFzCqrhsqiyEg9BiN9hNLswHKG4RbEe6Nvi9MSd9LzLsoRV5crK5M3nhqNLGP88diZ4h3ZjUrqvGDwdvobozqLTTkLS4Uca8QaN6Z","DdzFFzCqrhsoNqp4L8mYuukJqBUWgAnbgCvLgydAFkHSSbMC44sk7u5mbeyHWTV8dT5CGvY2UkUsdmnZkPudENy8qYAHKFheGeAtU3Mo","DdzFFzCqrhssSC43UwiU6M5q6Zvvij7GasDgqbfSmHgaUUEK1u2fUDPpmpmVzPndha5prEm6mXdHqZgaU9EHqHk9wueHh3M6H2r57kjG","DdzFFzCqrhsk9T9wvL9TZ6H46m2Uea1vHTQ2ubvBDQQWVDhtL2dDGWrigNnV8nQfPp68xszFhdocnA7jXss6BkCMCfpUHNEnBDfKBWJu"],"addressesOutput":["addr1q9atjfpqwdtg7ytz0pz9zcaqvx8zr2uv6ysvc4csqynr683dzefudzxhadht99nh8gv4l3z93d486ygllgxuh2drrrpsdw6fws","DdzFFzCqrhsmEsz6s5UjfheYXwJo3yvrAWfq3JLYUAviEpoq5i75vMQQntEnes2YxTJewCdNEUKLx1DqgEfMrA1NNfKjMLizAuAgSH1W","DdzFFzCqrhsgXEwFLk628jYBTPfXD8ikkppPHmZWz3nVuP8jp5rZBLKPGTyryWa7phwsUWMbbBCFrfxPwg163btSXVUR6TScKvHKgSsP","DdzFFzCqrht4Q7UQAZiBgTbL1Jz2sKxPSP5uQZ5ngqgCsMMDCRMehPKXWjgj5GDSY3Roz1g85RcqmfHAZjqnLq28yDHmB3J9a52w8rLx","DdzFFzCqrhsfFGaiRVrtom8EgJ32h74Jqz1Y8Lu83CvLP6aBvikKFkdy9Qr1RZqqBtyWPBdcnS3NnSqUiHZVfXysE2cFPUmvJskMC9wE"],"fee":1089281,"totalOutput":59728614618,"tokens":[]},{"hash":"b71b945b0b3f352124f6e254ba84fe6aa9a6384890c51b36305b7033b28f603b","blockNo":8317436,"blockHash":"826f29d9ff8aba51628d2c891a2ed704b3286eee77c839eb7a4049e5e4838c82","epochNo":390,"epochSlotNo":13271,"slot":83130071,"time":"2023/01/26 01:26:02","addressesInput":["DdzFFzCqrhsjDCJmezny7zU1ooizwCzwQ6DDkAh1FwtnXwTkDNDmmPcg3BpqF5UY7zDjq1RK2sV6kCo1hTZpC6iagmEh5nwDmpuqeAkW","DdzFFzCqrhtAYsAwKLoanGuDjjNqrVZrQtMEJMM4nik83EhWQFCp9ygnyQPCz7WbGXkUgeFKmJ3yTQFAoN8yQ77UuZvG3sDuymuxTe8e","DdzFFzCqrhtAfbeq5shXNgg7bRVHHkSoHPc7gEcck4btKqamU3oFygEo2zAGDSKZ4HKrGoWFtG8Rj4ULg6jDzwYUSoPtWrhJSdAf8ffb","DdzFFzCqrhssrPCEg9gPbxEfportsDeGsZ9ZWGoxEiEm2vt4GLFVi611JZT2pJK5vgjyLv9sE4f5Cg2gnGDcNRtTMAdy2mMGvvLv7ZKw","DdzFFzCqrht87kghS9LHMjE79nqUA6GXi43QmkstNNRNmZzeQy3kivcXS3zMgQ2AkybLTaksV5fkZUdH8kkKsZ1jK6LbggpUhyzcwP6y","DdzFFzCqrhsjC6b7vZbmwt8MLv6CsafoBvVr9TvTKVEhtRY8JZFC6VxF5YpYSWKT3pwUzzBb1BAd8FpHWJ4JqBL4FwNstsk7JESm7QLh","DdzFFzCqrhsiSymvnLeeVJoNtnXHBCHbGgbo1wevYPXWGun3jt89pQYAzaLYxeyGowg4XS22Dc9JuXFSfwHTcbcGH1vZa1oYwtQPrTYQ","DdzFFzCqrhszxJSkBhth7TbeY6jGmngwMfj9L2WLrah6fmd16JtQSg9PJjTmVMcPaG1FApUA8NhsovC6rj9pAmHVqxswtPTAuLF4GVzp","DdzFFzCqrhsvVEHcpUQQaBoBJiT3stnrU9HgbSte8HrwWN3jcmW6hQZVBMkCFbvusNjNvjHqU22nuMtvffNhA5hL6op47GDP1aogCeiY"],"addressesOutput":["addr1q9atjfpqwdtg7ytz0pz9zcaqvx8zr2uv6ysvc4csqynr683dzefudzxhadht99nh8gv4l3z93d486ygllgxuh2drrrpsdw6fws","DdzFFzCqrhshahDo8eXoMqP1xXYQ8QLqPXzay2zLJMgijCzX9rBya9S9UiCR9Y1tbhLLyQuYtVCFr35G4kT9TPNYV8y9L1RmhzNxn19H","DdzFFzCqrht8SttV9ph7TYyZN8DNCNVdNiN6iXrN94oEudgyeVyFAYXWjhBm2hRqp1dSJ63cpGksxtMcuGrQKo7qnWtGkDe44YimKH67","DdzFFzCqrhsoNqp4L8mYuukJqBUWgAnbgCvLgydAFkHSSbMC44sk7u5mbeyHWTV8dT5CGvY2UkUsdmnZkPudENy8qYAHKFheGeAtU3Mo","DdzFFzCqrhsk9T9wvL9TZ6H46m2Uea1vHTQ2ubvBDQQWVDhtL2dDGWrigNnV8nQfPp68xszFhdocnA7jXss6BkCMCfpUHNEnBDfKBWJu"],"fee":992481,"totalOutput":77555384085,"tokens":[]},{"hash":"12076f4f4cf6496637d2bd158dc9f70433d8a815439efb14599a1084ca9a268e","blockNo":8317294,"blockHash":"de5b2b934b45dff1d49fb6c9d35bb60a81d6a03c9c8c4e9465cd13377c484b8d","epochNo":390,"epochSlotNo":10532,"slot":83127332,"time":"2023/01/26 00:40:23","addressesInput":["addr1q8jwrytmel8tywt3gklndtp0g3dysezsftw3jgvktkx5gnzhl7knf3ck7750m459y4p0z7eu96czxarp88380m8hrwfsg7704z","addr1q9n8c65a26y7g9rys6mxj0d54a4slslumzc5mdc6pusjvmjhl7knf3ck7750m459y4p0z7eu96czxarp88380m8hrwfs7fqgfv","addr1q8jwrytmel8tywt3gklndtp0g3dysezsftw3jgvktkx5gnzhl7knf3ck7750m459y4p0z7eu96czxarp88380m8hrwfsg7704z","addr1q8jwrytmel8tywt3gklndtp0g3dysezsftw3jgvktkx5gnzhl7knf3ck7750m459y4p0z7eu96czxarp88380m8hrwfsg7704z","addr1q8jwrytmel8tywt3gklndtp0g3dysezsftw3jgvktkx5gnzhl7knf3ck7750m459y4p0z7eu96czxarp88380m8hrwfsg7704z","addr1q8jwrytmel8tywt3gklndtp0g3dysezsftw3jgvktkx5gnzhl7knf3ck7750m459y4p0z7eu96czxarp88380m8hrwfsg7704z"],"addressesOutput":["addr1q9ad5mud938r7l24eaac4v57ydlj72hazgprts9f7daaz09mm95jvs5h94099yglxr7v6ug6pp43780huy040lm4utmqx8g5eu","addr1wxaptpmxcxawvr3pzlhgnpmzz3ql43n2tc8mn3av5kx0yzs09tqh8","addr1qxs76zpnfyq5w0xrpjwrkkghch0ew024j83hx0dg00f9xjrx828mrjy00s2sd8awhvummze55m8hq4fqghdzqlcaqwlshwkm0m","addr1q8jwrytmel8tywt3gklndtp0g3dysezsftw3jgvktkx5gnzhl7knf3ck7750m459y4p0z7eu96czxarp88380m8hrwfsg7704z"],"fee":414714,"totalOutput":34012612,"tokens":[]},{"hash":"1a0c0300152f87e6d69a5f6af13f3d377ee7bdd10ac6da317e07f2da67793c59","blockNo":8317280,"blockHash":"792ba35d0db53146823cd3d40037a22528ecd4c95a7853c35b0285c1541b2ec4","epochNo":390,"epochSlotNo":10228,"slot":83127028,"time":"2023/01/26 00:35:19","addressesInput":["addr1q998pukrcdhp2zrvx87eyjwfzkrcyv4lflaqa2f7w9dsdkz2wrev8smwz5yxcv0ajfyuj9v8sget7nl6p65nuu2mqmvq05pxha","addr1q998pukrcdhp2zrvx87eyjwfzkrcyv4lflaqa2f7w9dsdkz2wrev8smwz5yxcv0ajfyuj9v8sget7nl6p65nuu2mqmvq05pxha"],"addressesOutput":["addr1q998pukrcdhp2zrvx87eyjwfzkrcyv4lflaqa2f7w9dsdkz2wrev8smwz5yxcv0ajfyuj9v8sget7nl6p65nuu2mqmvq05pxha","addr1q998pukrcdhp2zrvx87eyjwfzkrcyv4lflaqa2f7w9dsdkz2wrev8smwz5yxcv0ajfyuj9v8sget7nl6p65nuu2mqmvq05pxha"],"fee":237985,"totalOutput":887758392053,"tokens":[]},{"hash":"e3be1d9a20069bcc0d830100ad766d68f96fa2676a2fa6aed2d60c577cb4e972","blockNo":8317109,"blockHash":"dfd3d5676c2ece1d5e81186a8d84f1eb8018c40555f2a59227265b4a52cdf265","epochNo":390,"epochSlotNo":6927,"slot":83123727,"time":"2023/01/25 23:40:18","addressesInput":["DdzFFzCqrhszVXJKLQ8R99FU1V4yJ5V6r1zhwsPfiB3xEoHCLqd1jjy6KQSihyoKM9Jb4HMFJVCaQPno6qUBArirPZyYodXeFQhrwWRz","DdzFFzCqrhsiVJmWkFFLUfAFmCqnMeV5BpcVHqqshsDB4FPSUuhqzzAZK43PEoUfSzVSXr6fAicfSjxRZ9655JMC1SU3X67z5VAgZMJJ","DdzFFzCqrhsevzcUp4qdAUANB6xS54cd2wFEWB9JFAzfcgtpfNHxMvSJN7Kfb23BU4K7r5QeBoWyq3NfzWJcH5PokRyJEgEqKwgpKcrF","DdzFFzCqrht7ZmrwAssyMT8Q4HL3YnVdh4re15SnAaDPwxuPiG1pK1LH7KBtVgSAroeNFcoCeKrdg7ubAWm3sC1DSyrL3DLd8u4gTok3","DdzFFzCqrhsf7nHdacpAH93q9fNboaVti2HJqkwUPVr5yZLQ9LYuqkcQKLANvBBpJyR58KcRByCy5HyhUzL4eGjFJCZm7TvnjdMzVeRf","DdzFFzCqrht2YWhHZAFQhp8UXExvt3aBXuADHbVWDRmtSYUfWDcEgwxuu1fEMqsbdGCr3nDDaEy72yFXYStCztwt1N9b44wwtNnGQ88m","DdzFFzCqrhsf73imC3fiRMsWHH276Y61gcxGKArKGXm6VZ76E8oMDdsiXbiZbuUhAY4wi4BfMGFbmZiyyTMhSG1Din8RiQTzMCUHpcWm","DdzFFzCqrhtBesQqZCTqPRahiWZLaGGc5EQtjwvmg1eJuToZx6Y4o8FfqsjjCiWahZutYUtKsTaWw9mQKkmNWS2xbWT2wqq8dc9xYbNt","DdzFFzCqrhsjj2cxRX1R3DPgp4iukgmp7syXamefGXDcu17tF5hxm9iXYbRg7eidaLTiq2wJKVBBSjnr73NFU1JhYo9qUwpY131iuF8h"],"addressesOutput":["addr1q9atjfpqwdtg7ytz0pz9zcaqvx8zr2uv6ysvc4csqynr683dzefudzxhadht99nh8gv4l3z93d486ygllgxuh2drrrpsdw6fws","DdzFFzCqrhssrPCEg9gPbxEfportsDeGsZ9ZWGoxEiEm2vt4GLFVi611JZT2pJK5vgjyLv9sE4f5Cg2gnGDcNRtTMAdy2mMGvvLv7ZKw","DdzFFzCqrhsjC6b7vZbmwt8MLv6CsafoBvVr9TvTKVEhtRY8JZFC6VxF5YpYSWKT3pwUzzBb1BAd8FpHWJ4JqBL4FwNstsk7JESm7QLh","DdzFFzCqrhtAfbeq5shXNgg7bRVHHkSoHPc7gEcck4btKqamU3oFygEo2zAGDSKZ4HKrGoWFtG8Rj4ULg6jDzwYUSoPtWrhJSdAf8ffb","DdzFFzCqrhszxJSkBhth7TbeY6jGmngwMfj9L2WLrah6fmd16JtQSg9PJjTmVMcPaG1FApUA8NhsovC6rj9pAmHVqxswtPTAuLF4GVzp"],"fee":992481,"totalOutput":52902542607,"tokens":[]},{"hash":"8dd6390def4d639c504917ab1786bea214ed85359b4a60512384dafed3f79d7d","blockNo":8317024,"blockHash":"b7ea1b9e339718c2c165d8b8e01e20b8ab4a97d0c933b82c863f2c4d76a19da4","epochNo":390,"epochSlotNo":4991,"slot":83121791,"time":"2023/01/25 23:08:02","addressesInput":["addr1q80ht2he70nat6jr8efrrh7gxl9udkltj7rc4ysvx7vvs0xlwk40nul86h4yx0jjx80usd7tcmd7h9u832fqcduceq7qdz0xej","addr1q80ht2he70nat6jr8efrrh7gxl9udkltj7rc4ysvx7vvs0xlwk40nul86h4yx0jjx80usd7tcmd7h9u832fqcduceq7qdz0xej"],"addressesOutput":["addr1q80ht2he70nat6jr8efrrh7gxl9udkltj7rc4ysvx7vvs0xlwk40nul86h4yx0jjx80usd7tcmd7h9u832fqcduceq7qdz0xej","addr1q80ht2he70nat6jr8efrrh7gxl9udkltj7rc4ysvx7vvs0xlwk40nul86h4yx0jjx80usd7tcmd7h9u832fqcduceq7qdz0xej"],"fee":238161,"totalOutput":3155013458339,"tokens":[]},{"hash":"0d7fec473c8c5205ff18602c978801ae754d7bf718a04452c070853396a2eb7a","blockNo":8317015,"blockHash":"789b672eee1393114ba8a1c64ead2487115e25be145a1caa9d00599652b6eec0","epochNo":390,"epochSlotNo":4815,"slot":83121615,"time":"2023/01/25 23:05:06","addressesInput":["DdzFFzCqrht3RpbGQAZnkvzRCyXHuMLJDGyjqoQE8nEAYLLjSt9f7AAaifWzA1Xw6bRmYWVRS2TD8d3nXvLa2QgKrBsA6R6XWtiDxrns","DdzFFzCqrhsrzakiwaRxaPfqe3CbSJHjx4tarbY6rSkJYZ4ZffK3KrJmi2qcdJy5465bX5iVgsTkZU1gbHM2bDaPUMyGP42CAPwj49Uj","DdzFFzCqrht1SiWdKxZqWU3Ru1k4svw8f8n6FCAPvDSedAQXFa2gmPWGNXeVNL5WsKDBRxSvDEH5UUDpTUQdJTRx7rhUyPUEPgkDwdTv"],"addressesOutput":["addr1q9atjfpqwdtg7ytz0pz9zcaqvx8zr2uv6ysvc4csqynr683dzefudzxhadht99nh8gv4l3z93d486ygllgxuh2drrrpsdw6fws","DdzFFzCqrhszVXJKLQ8R99FU1V4yJ5V6r1zhwsPfiB3xEoHCLqd1jjy6KQSihyoKM9Jb4HMFJVCaQPno6qUBArirPZyYodXeFQhrwWRz","DdzFFzCqrht7ZmrwAssyMT8Q4HL3YnVdh4re15SnAaDPwxuPiG1pK1LH7KBtVgSAroeNFcoCeKrdg7ubAWm3sC1DSyrL3DLd8u4gTok3","DdzFFzCqrhtBesQqZCTqPRahiWZLaGGc5EQtjwvmg1eJuToZx6Y4o8FfqsjjCiWahZutYUtKsTaWw9mQKkmNWS2xbWT2wqq8dc9xYbNt","DdzFFzCqrhsf73imC3fiRMsWHH276Y61gcxGKArKGXm6VZ76E8oMDdsiXbiZbuUhAY4wi4BfMGFbmZiyyTMhSG1Din8RiQTzMCUHpcWm"],"fee":934401,"totalOutput":59596310497,"tokens":[]},{"hash":"ae99ef03f85cab2778433a6e811eae52d00ef79524b43adffe59957ea0963cb9","blockNo":8316992,"blockHash":"7a042030d93fc087cd56e5363aa17befbd16ecddde3fd741d7ab40f5bebfb8b4","epochNo":390,"epochSlotNo":4258,"slot":83121058,"time":"2023/01/25 22:55:49","addressesInput":["DdzFFzCqrhtCyyPSdL5zy4XBGCVDAYzaHKL9YBB9vYnFXtuQiJh9C3p9mRnmupdZsvBmnbsAPKoPUfNaEuvTUrD2GsYqi36DPsnDUMiH","DdzFFzCqrhse4hdrYNtvnGdG1hMSXdEB7NEid7eKdu6LWYNK5sqKsoMegVcaBnFM4wCNqQLBs498cSnfHdpTWXUjQxxzfGAi9dBWChxh","DdzFFzCqrhssE4rdRdeczNhSNcsy8Y5V74QpqgoKU9dwTpwH1S48yA534YdKNWMQYwZA1pTeTFJXjymMkNsfLK222jS3aZ2SgFR11eAn","DdzFFzCqrhspFtpjxQS4QXSBY9SPLkVNr2Fme7XGySnPkJkvARFZJEBLDXi7PbDVUKjqoyFyGqsAmdZYGu3JABUfizDVsMYSqRUCM2Cc","DdzFFzCqrhsdzK42MpiYLrWq4RcVTktQvBLy44xqqfUNDCQmY5mdyZ4Rrk9mb41wQD84G41uUWBfdgN6cEN692v4xFfKn2UNqejQ5Ur1","DdzFFzCqrht7tNFBT6wQoqAneYyAoRzJnytE48zid6L2z9DwxB2yViF3AYekusFNDzey79F16q5Awv1d5fLWL3xBmAoyqXpwdxPK6mcj","DdzFFzCqrhsty33zjPvP8BvpoZKLEh3iBvHG3RacvMGWs5tWnKPoqEgyqkmgsP9vG68FKHyTFvrqeNzhmwt4ZMAgx5GSdLYn7fbJXSps","DdzFFzCqrht9cC27ShUWAv7co33N3mu6JAHBL7hxrFTX2VM3z2H1MjMkRg1PTaakDpQgmFP1LY9m7V2RzCA7U4RyD3R9Tn6S6qNcFaj6","DdzFFzCqrhsdzK42MpiYLrWq4RcVTktQvBLy44xqqfUNDCQmY5mdyZ4Rrk9mb41wQD84G41uUWBfdgN6cEN692v4xFfKn2UNqejQ5Ur1","DdzFFzCqrhsv9juGxb2quyfZMpGGP96Kj7nTyiz4kPXsTqi9LYkA8tzyJGmDHYW9HKi5xpXj1bEr9Kj48iPWsgmguW1rYq2WxsJWWuSb","DdzFFzCqrhsdzK42MpiYLrWq4RcVTktQvBLy44xqqfUNDCQmY5mdyZ4Rrk9mb41wQD84G41uUWBfdgN6cEN692v4xFfKn2UNqejQ5Ur1","DdzFFzCqrhtC7Bncu2achKwPDoBrbY766ve34tmfLyDoTCRo2EPHfWx4tqNePQ3HjsReKsCdMhYZF9JVeZGSvU3i3Mu3WYMWjmQB4t6t","DdzFFzCqrhsjiUgJqXgiQ64kQ1MSJCWq1embg75AMot1rJSeA2RQgvAnWgt6n7CA9twm1r8sNwNYje3pizFcqg12U7dnzCo8F62dmdHi","DdzFFzCqrhsvJ4NEgCc67tVSdNwLVyNf9YwfRa3qo54RnAbUame4d17iK4rdHPka6BfrWq1FLHxwKUKsQpeHYKRK1FqznRhqShGbMNcf","DdzFFzCqrht35uop1sroxgCHAtb1WKFvsxDWaxuUNoTWoDaBeyKtpeGQhMcbxWJt1f9TtiKjUGhBeZvwi5NkvshH9i6VxzwXhXdZMM2Q","DdzFFzCqrht5wZ9kD3kfi1fQ9eqBrDLaMe3pJPYz3i4KkVB25YVMxnnQsdZQYqknrsfxNQwNdzkm7w7E3Wf7enZtH4zvZiqPRSEdZPFK","DdzFFzCqrht3Jqt7D5XYWixSCQrB1cLH47kaoK9EE6vAoJacwYRA5H2yN5SqexFGZsv5XA6KoeM1ggZDbHnyeSENCpck7AdycycbSLPP","DdzFFzCqrhsfHbsREJSCMVhPpKadRe84we4SFk6N2TiAQSeUJxpK9rVSNS8EC1GrWiu5SxEDpkyzKeNf68957g9ygcJybsVRpj3NZzMo","DdzFFzCqrhswDMqPjzGjUbq36yGkS4DMTmDha9Lh6nktHjPCQPassy2g8nN1nbkhPE3Efb2PxDDczdhh2N7Eh2eJV5Wa1jn1z5CAp43i","DdzFFzCqrhsnrefsApikpet4UVm8Z2czQ25fMkgo6dV38yju2x2nYXtgFAwfX6QUUsLNr7abWxa4b8rWzrhVuP9haNH6qJD6Q1Rbo5K3","DdzFFzCqrhsjakPZVV4mEMZnAnE2bPGJoka7CHjk1GiPCQryzMMcLMR2FCUYM4mbbB7QYbSvZDYqTAKj3ALMh8pJPSzkvsTneggcuzNz","DdzFFzCqrhse4hdrYNtvnGdG1hMSXdEB7NEid7eKdu6LWYNK5sqKsoMegVcaBnFM4wCNqQLBs498cSnfHdpTWXUjQxxzfGAi9dBWChxh","DdzFFzCqrhsmkYBdGffMd3WG4LAMeiPkzGCWwM1LHFFAEm6rpL3wuNyADbXZGhrW1RbA5uB3eKxQgzxAUb6JPEgEgpWBdcdSMuB2KCEH","DdzFFzCqrhsjakPZVV4mEMZnAnE2bPGJoka7CHjk1GiPCQryzMMcLMR2FCUYM4mbbB7QYbSvZDYqTAKj3ALMh8pJPSzkvsTneggcuzNz","DdzFFzCqrhsjiUgJqXgiQ64kQ1MSJCWq1embg75AMot1rJSeA2RQgvAnWgt6n7CA9twm1r8sNwNYje3pizFcqg12U7dnzCo8F62dmdHi","DdzFFzCqrhsqJVbQUQ3r94N5q8GGq9c4JAwrrn5A7uxi1hhgbxVEQEzrVXFHSzxu3W5vkLHTTUPWdkebiLk7V5VFgwyKmRkyuDadJ3Zu","DdzFFzCqrhsfHbsREJSCMVhPpKadRe84we4SFk6N2TiAQSeUJxpK9rVSNS8EC1GrWiu5SxEDpkyzKeNf68957g9ygcJybsVRpj3NZzMo","DdzFFzCqrhsjvAkhRAK1zSgFKGfv6Ty4AH3J7iK5uW5ao3mQakY29Wtc2DRxh39bsReoXVJWzC9tjZveZGNXDU8Cvzstc9Dz9aZG9Dhm","DdzFFzCqrht47eCz3HpC47NZPa22rJR2GuQc9SNEg7dGHcueATm6ApJjPYg4xMhaVNAq49Bf4iLaR28BCm5s1j6eoQvd6pn6FhjuKiWC","DdzFFzCqrhsdzK42MpiYLrWq4RcVTktQvBLy44xqqfUNDCQmY5mdyZ4Rrk9mb41wQD84G41uUWBfdgN6cEN692v4xFfKn2UNqejQ5Ur1","DdzFFzCqrht9d7LuT3cUmQuMWA9N6Q1hsQbgaHMdhK9ckaNNt1WLTuFZQxUrmRRftYwz9gHX2MntZCYm97RhP75EqUkqp2SaUmzzhVJJ","DdzFFzCqrhsdsL3QLz1RMniWVeMZk78ThP58Y4xMxLf2g3R3sC25tbKE2AimaEfWHmzj8AZaRkGW3eiktmCn9qf1RcZx1EJ6L6iLAK2T","DdzFFzCqrhso5G5WpUFDaEcS2kboRXQg7L2N5J64c94VenB7MvRqwfV9otRA5RWgMLCaa4LMTHSHVqMaJ2HztB7rGTvQatA8BnGFUmYZ","DdzFFzCqrht3sBKYfsb9c4qxcM4CZJEAqGvmnYxEa6zoUhimVojUJhp7uL26MKg5v3G7q5s6LzwJuqDLcDatB1ETqps5o62SnYxuBXyr","DdzFFzCqrhsvVXYMWbZwLtTtj9DKErLpWaACB9TWk4wf9ATcBjxzCh6XomdC4S1oFR3YJ3KDjeahYx2kMBa6NTQ6so8m7uAHduy5apyP","DdzFFzCqrhsjHauSRBAri1g7u9EHzQt8QGw3LodFX3zPmSBbkKskevVdeVLqsxyG7VwWGEwXw2w6VvQDGMAN9EUUpFCv3R5AJu5qd7gE","DdzFFzCqrhsfuujjL4uYSQogg2EnG75egrU1xNugVtYr1FMq4YfKSyuvLfrTkNizU15s5hfrAVwJQ4BY78G86eYenJZcKyvWcnd2vQnB","DdzFFzCqrht1mayoEW591oaW9t1EiAezheayFkPVgz2jHLSz5PKoQao5ww8uwvAF3Z6LGdzH5CF2wF4uUHQLGLn5f5qYRBP4BmBB91ZK","DdzFFzCqrht4euAqWBwNyHzro6XdzrAndSzkcuEYmguqBE7twCZto4dkJx4u87HkGkuCyxGo2GZk8XT6wuSxQCs2aoo6Vo25AW2WW8CE","DdzFFzCqrhsizq4VAwFPbuQGhtAPjX9na4mDXEQrSR2oijQboS5NmeRVobDZt5bp4Pkded6qrw4YFxFNJbxCeb9b8D4SXQ7yL3iroK6R"],"addressesOutput":["addr1q9atjfpqwdtg7ytz0pz9zcaqvx8zr2uv6ysvc4csqynr683dzefudzxhadht99nh8gv4l3z93d486ygllgxuh2drrrpsdw6fws","DdzFFzCqrht1SiWdKxZqWU3Ru1k4svw8f8n6FCAPvDSedAQXFa2gmPWGNXeVNL5WsKDBRxSvDEH5UUDpTUQdJTRx7rhUyPUEPgkDwdTv","DdzFFzCqrhsrzakiwaRxaPfqe3CbSJHjx4tarbY6rSkJYZ4ZffK3KrJmi2qcdJy5465bX5iVgsTkZU1gbHM2bDaPUMyGP42CAPwj49Uj"],"fee":1105121,"totalOutput":101579507363,"tokens":[]},{"hash":"1358b5348bd87208b77918625d56a0beb53ce23e75e3d98c7750b7dc306b68ec","blockNo":8316752,"blockHash":"994431f2c214a1cfeb80b70a883fa44fd38ec5de098f1ed821c4a496d70834c5","epochNo":389,"epochSlotNo":430894,"slot":83115694,"time":"2023/01/25 21:26:25","addressesInput":["addr1qxszsqjtp8kf60yvk896cr9td2rkqnsxsgvej2ad8lah8x3hcdj45clk5lfnp6a2m7jdkpwd06t207rf6p2hzx6lv2jsl2szk3","addr1qxszsqjtp8kf60yvk896cr9td2rkqnsxsgvej2ad8lah8x3hcdj45clk5lfnp6a2m7jdkpwd06t207rf6p2hzx6lv2jsl2szk3","addr1qyrmt3md54gdy86d39zelnlg2ueyft387l25e072razj2lfhcdj45clk5lfnp6a2m7jdkpwd06t207rf6p2hzx6lv2jsp4gc05","addr1qydjqty5gje3d5hfs7549avdr3l4vgxu5pl7petlfkr3p7phcdj45clk5lfnp6a2m7jdkpwd06t207rf6p2hzx6lv2js8j5agj","addr1qydjqty5gje3d5hfs7549avdr3l4vgxu5pl7petlfkr3p7phcdj45clk5lfnp6a2m7jdkpwd06t207rf6p2hzx6lv2js8j5agj","addr1qxszsqjtp8kf60yvk896cr9td2rkqnsxsgvej2ad8lah8x3hcdj45clk5lfnp6a2m7jdkpwd06t207rf6p2hzx6lv2jsl2szk3","addr1qydjqty5gje3d5hfs7549avdr3l4vgxu5pl7petlfkr3p7phcdj45clk5lfnp6a2m7jdkpwd06t207rf6p2hzx6lv2js8j5agj","addr1qxszsqjtp8kf60yvk896cr9td2rkqnsxsgvej2ad8lah8x3hcdj45clk5lfnp6a2m7jdkpwd06t207rf6p2hzx6lv2jsl2szk3","addr1qxszsqjtp8kf60yvk896cr9td2rkqnsxsgvej2ad8lah8x3hcdj45clk5lfnp6a2m7jdkpwd06t207rf6p2hzx6lv2jsl2szk3","addr1qxszsqjtp8kf60yvk896cr9td2rkqnsxsgvej2ad8lah8x3hcdj45clk5lfnp6a2m7jdkpwd06t207rf6p2hzx6lv2jsl2szk3","addr1qxszsqjtp8kf60yvk896cr9td2rkqnsxsgvej2ad8lah8x3hcdj45clk5lfnp6a2m7jdkpwd06t207rf6p2hzx6lv2jsl2szk3","addr1qxszsqjtp8kf60yvk896cr9td2rkqnsxsgvej2ad8lah8x3hcdj45clk5lfnp6a2m7jdkpwd06t207rf6p2hzx6lv2jsl2szk3","addr1qxszsqjtp8kf60yvk896cr9td2rkqnsxsgvej2ad8lah8x3hcdj45clk5lfnp6a2m7jdkpwd06t207rf6p2hzx6lv2jsl2szk3","addr1qxszsqjtp8kf60yvk896cr9td2rkqnsxsgvej2ad8lah8x3hcdj45clk5lfnp6a2m7jdkpwd06t207rf6p2hzx6lv2jsl2szk3","addr1qxszsqjtp8kf60yvk896cr9td2rkqnsxsgvej2ad8lah8x3hcdj45clk5lfnp6a2m7jdkpwd06t207rf6p2hzx6lv2jsl2szk3","addr1qxszsqjtp8kf60yvk896cr9td2rkqnsxsgvej2ad8lah8x3hcdj45clk5lfnp6a2m7jdkpwd06t207rf6p2hzx6lv2jsl2szk3","addr1qy25vxk4qqvhf5aqudxv9pcr30u4rq8vf2wf7ws5nd00z03hcdj45clk5lfnp6a2m7jdkpwd06t207rf6p2hzx6lv2js897lq0","addr1q82qm55eu0jc506f4p3qgklw6dx7lm2smav94ammxace7e3hcdj45clk5lfnp6a2m7jdkpwd06t207rf6p2hzx6lv2jsmct6f3","addr1qxszsqjtp8kf60yvk896cr9td2rkqnsxsgvej2ad8lah8x3hcdj45clk5lfnp6a2m7jdkpwd06t207rf6p2hzx6lv2jsl2szk3","addr1qxszsqjtp8kf60yvk896cr9td2rkqnsxsgvej2ad8lah8x3hcdj45clk5lfnp6a2m7jdkpwd06t207rf6p2hzx6lv2jsl2szk3","addr1qxszsqjtp8kf60yvk896cr9td2rkqnsxsgvej2ad8lah8x3hcdj45clk5lfnp6a2m7jdkpwd06t207rf6p2hzx6lv2jsl2szk3","addr1qyrmt3md54gdy86d39zelnlg2ueyft387l25e072razj2lfhcdj45clk5lfnp6a2m7jdkpwd06t207rf6p2hzx6lv2jsp4gc05"],"addressesOutput":["DdzFFzCqrht1gRjZv3K6azwL5nnz1ERTeZko3sq7HE14H1wsfZypKzYC9aNHY8MJWfBi956FDjrHeEUjYFsS57BktmqLCzrKk5jraKPo","addr1qykz2d23mxuwjtl0g9jvpeuvfd285s6kyjr6qxlnd2a0fafhcdj45clk5lfnp6a2m7jdkpwd06t207rf6p2hzx6lv2jsvwhp8c"],"fee":403805,"totalOutput":346080637,"tokens":[]},{"hash":"b3a2286d244eb1cc85997fbe423eea622019049cae60e50d006a389d8d0de905","blockNo":8316560,"blockHash":"697eb523d2b07ce92ba3caddabc044fe9fd5e0dc2f787a2f01b7dcb389409a66","epochNo":389,"epochSlotNo":426874,"slot":83111674,"time":"2023/01/25 20:19:25","addressesInput":["addr1qxn0kuqk8mysdv8rpqhl39vp6njnxd7dw3yvkcvdk9ke4revmezswc6ql6x9kekl6zm3ptc6g9jlwln9lt6sml5mcl0sndmr62","addr1qxn0kuqk8mysdv8rpqhl39vp6njnxd7dw3yvkcvdk9ke4revmezswc6ql6x9kekl6zm3ptc6g9jlwln9lt6sml5mcl0sndmr62"],"addressesOutput":["addr1zyq0kyrml023kwjk8zr86d5gaxrt5w8lxnah8r6m6s4jp4g3r6dxnzml343sx8jweqn4vn3fz2kj8kgu9czghx0jrsyqqktyhv","addr1qxn0kuqk8mysdv8rpqhl39vp6njnxd7dw3yvkcvdk9ke4revmezswc6ql6x9kekl6zm3ptc6g9jlwln9lt6sml5mcl0sndmr62"],"fee":419554,"totalOutput":63297349,"tokens":[]},{"hash":"3d74c63f10f8ed264e70d9e40f876b875b60311291e4eb014f57a9aa1a97a121","blockNo":8316425,"blockHash":"31c23a25246ef3da0183bb4a6f8795bb32d6c015c21b208de08a6ec632519652","epochNo":389,"epochSlotNo":424274,"slot":83109074,"time":"2023/01/25 19:36:05","addressesInput":["addr1qy0xznhgdhqj9u4g6jjdntf2cxy5lyad8j2p6a6dp8jwwttfq4uncdzu6hqlxn7gva2xsaln40x226fl8fsnqyyvzxtqqm3qw9","addr1qy0xznhgdhqj9u4g6jjdntf2cxy5lyad8j2p6a6dp8jwwttfq4uncdzu6hqlxn7gva2xsaln40x226fl8fsnqyyvzxtqqm3qw9","addr1qy0xznhgdhqj9u4g6jjdntf2cxy5lyad8j2p6a6dp8jwwttfq4uncdzu6hqlxn7gva2xsaln40x226fl8fsnqyyvzxtqqm3qw9"],"addressesOutput":["addr1zxgx3far7qygq0k6epa0zcvcvrevmn0ypsnfsue94nsn3tvpw288a4x0xf8pxgcntelxmyclq83s0ykeehchz2wtspks905plm","addr1qy0xznhgdhqj9u4g6jjdntf2cxy5lyad8j2p6a6dp8jwwttfq4uncdzu6hqlxn7gva2xsaln40x226fl8fsnqyyvzxtqqm3qw9","addr1qy0xznhgdhqj9u4g6jjdntf2cxy5lyad8j2p6a6dp8jwwttfq4uncdzu6hqlxn7gva2xsaln40x226fl8fsnqyyvzxtqqm3qw9"],"fee":252665,"totalOutput":171823458,"tokens":[]},{"hash":"f4c41be077a3e92b78bb3867adeed86c76efbb5b29e0508dfdbc4b0c6bcdc6ee","blockNo":8316340,"blockHash":"5bb924f5fa6db67b8ef23db5e3d8d32b343d85c4a795d0446427479680b1a372","epochNo":389,"epochSlotNo":422402,"slot":83107202,"time":"2023/01/25 19:04:53","addressesInput":["DdzFFzCqrhse4UNKrnKcYAnZJJDW3JJ7nXTr8JGUhLYoZMKgUATvhZyX1KV8F3Y92QiUNJNbapaTDtWg1FPwD3bafFdreSwuzrx7ooJo","DdzFFzCqrht91vLbzQDNxxa4UiKpetD8MF2mJ7xyzvpDy5DoYTqe45CZ9PUNVWw2DsnvkyLa9o9b9Vhwgh1dmX3ALHQ2yjbdXh9s39y2"],"addressesOutput":["addr1q9atjfpqwdtg7ytz0pz9zcaqvx8zr2uv6ysvc4csqynr683dzefudzxhadht99nh8gv4l3z93d486ygllgxuh2drrrpsdw6fws","DdzFFzCqrhsizq4VAwFPbuQGhtAPjX9na4mDXEQrSR2oijQboS5NmeRVobDZt5bp4Pkded6qrw4YFxFNJbxCeb9b8D4SXQ7yL3iroK6R"],"fee":372081,"totalOutput":8016697485,"tokens":[]},{"hash":"4fa10891267342b6a3fcdfa5b7a2880151c5f5b98a5e41aaab2db822962aad14","blockNo":8315807,"blockHash":"4799227c6ea034d934d692abacf09f2b0b1755e915f89816c7f11e1ea1283ff0","epochNo":389,"epochSlotNo":411730,"slot":83096530,"time":"2023/01/25 16:07:01","addressesInput":["addr1q8gqarkxy3k5xu4k8ywlur5z6pp0f9eev4ps08wz3zdjkwm6jsglxzcktpmlgc9lhgh48fcge3wwkthk98whdx2a9mss54dtup","addr1qx76hnwx8qukkylx5te0em5gf7kgjqadv6x8z406mpyxz6nn3lmaa3wnh8ka8wxllq5f9kpp6spcwum5vvas6xgvuedsh0rgkp"],"addressesOutput":["addr1qx76hnwx8qukkylx5te0em5gf7kgjqadv6x8z406mpyxz6nn3lmaa3wnh8ka8wxllq5f9kpp6spcwum5vvas6xgvuedsh0rgkp","addr1qx76hnwx8qukkylx5te0em5gf7kgjqadv6x8z406mpyxz6nn3lmaa3wnh8ka8wxllq5f9kpp6spcwum5vvas6xgvuedsh0rgkp","addr1q8gqarkxy3k5xu4k8ywlur5z6pp0f9eev4ps08wz3zdjkwm6jsglxzcktpmlgc9lhgh48fcge3wwkthk98whdx2a9mss54dtup","addr1qxsgae4x0z3q0hjjqcwya7vzp9f9ex52lrly0wadmfgvhpfyzttqmp0evfcrwxkda77m5lg8c9ta2aafdf83jxyvhw3sgp9v30"],"fee":627677,"totalOutput":314737507,"tokens":[]},{"hash":"7fb55b3b7549d0835ec0ac3de17fd1158032d2dc37894f0890e51a014e6ea2ba","blockNo":8315765,"blockHash":"d12260d5f2b384d5d907a04821a0dcb6e0ea29c17def6e7acaca2f60ea132efb","epochNo":389,"epochSlotNo":410777,"slot":83095577,"time":"2023/01/25 15:51:08","addressesInput":["DdzFFzCqrhsss3vQ7Utqdt5FpXWYtdjR9956N5LBZ6YSskLVpoKKCNvzGb3J64igMdWogM1TxXLHceWwUbBcukNTi1wV4QMyoqaFe5nc","DdzFFzCqrhspnjPLJHwPU1QL4PNuKN5anHSm3JurgTY7Bh7dKQQLNexCbXn19jc2rjaDDwivzkpteznBSXehQy9ku8u7N5wc6ZKngAsc","DdzFFzCqrhsz7zo2K4dgmyvmo6SFzttxiUYhkCkUZPJHFzgfn6jVu8Yh1iXsajLAvdtDmDFvuGTJeYG5whjATUFDQBmRtzsJrcnK3XdA","DdzFFzCqrhsy8btudButfbYaRJN3jRZ6n8NzJwTgtWUTE2VKTD9B69hkwN5jC1cJoQR99cfRVZtDCSEVDXe6EndcWrM5LmxPBbXoGBQE","DdzFFzCqrhsyPbWwDLyQbjXcLuYuuQUB2f4u5zqpYzNiNWeraheNTeGfdBcr1wyxyFEC13oVD81MQaq57wo2g2SjAM5HLqfuxxvArXjE"],"addressesOutput":["addr1q9atjfpqwdtg7ytz0pz9zcaqvx8zr2uv6ysvc4csqynr683dzefudzxhadht99nh8gv4l3z93d486ygllgxuh2drrrpsdw6fws","DdzFFzCqrht91vLbzQDNxxa4UiKpetD8MF2mJ7xyzvpDy5DoYTqe45CZ9PUNVWw2DsnvkyLa9o9b9Vhwgh1dmX3ALHQ2yjbdXh9s39y2","DdzFFzCqrht3RpbGQAZnkvzRCyXHuMLJDGyjqoQE8nEAYLLjSt9f7AAaifWzA1Xw6bRmYWVRS2TD8d3nXvLa2QgKrBsA6R6XWtiDxrns","DdzFFzCqrhsv9juGxb2quyfZMpGGP96Kj7nTyiz4kPXsTqi9LYkA8tzyJGmDHYW9HKi5xpXj1bEr9Kj48iPWsgmguW1rYq2WxsJWWuSb","DdzFFzCqrht5wZ9kD3kfi1fQ9eqBrDLaMe3pJPYz3i4KkVB25YVMxnnQsdZQYqknrsfxNQwNdzkm7w7E3Wf7enZtH4zvZiqPRSEdZPFK"],"fee":953761,"totalOutput":82068592571,"tokens":[]}],"totalItems":13299,"totalPages":665,"currentPage":0}