{"data":[{"hash":"dc4f940a11a9cf2e1db05f2c033700d6f127ee2a92fd150c2eac1409c9a6769d","blockNo":8295164,"blockHash":"6f408120a76c2e3ca8c71fca412eab0d4424ea770f121586389b9cb7adb4ee09","epochNo":388,"epochSlotNo":414959,"slot":82667759,"time":"2023/01/20 17:00:50","addressesInput":["DdzFFzCqrht49MbyV5TzibEgJ9PwtHXNqivPJcLofqifLDB2uZUAxMfYqRQXwyePnmrhscMLbWkzNzvpFAYGwxLrxeuWT2w5RGXqEaE5","DdzFFzCqrhsttiNC2Dypi59pq1cRAWXxxcDVJRKXeNBNqhL1b33Fa5YPXhBvnEnbqUDyU9NQME8RR5T2EAdhUpApr1tYBs555WPmfhmk","DdzFFzCqrht3APWoENRNXtKXJT1dm9C6kcfyYPBjPh8LSPfgPncKeZbkYN7MGwQjD5EF9ax8NJEVYGWb3EFvmM7Dvoe66UQHjaxPicqG","DdzFFzCqrhsjv1Rck3MuoeZ1VVsGSBgWNTGWECHprbyfqGaemALKZfZUr6fZmE5eDhCYq6eFPWzqjWhFrFr4NtY69C2poYXda7kCm9vC","DdzFFzCqrhsjsRNjvmM82f4uhEhTXqVJvyMbBLXG5RiaW9YdBu46jqhZnYL2kHi9pdMaWbCkKGuvi9hLuWt7UygTc7NafonMmg7mDcUK","DdzFFzCqrhszXfBov2gyzAh9cmuotEktdG5gex3mrmMSnSWznZahhgm7ufQXFxACdnAWFBjE5y6GHvfbd6KJwUnp54roDheMELAi4Pek"],"addressesOutput":["addr1q9atjfpqwdtg7ytz0pz9zcaqvx8zr2uv6ysvc4csqynr683dzefudzxhadht99nh8gv4l3z93d486ygllgxuh2drrrpsdw6fws","DdzFFzCqrht8rWXuh4LmoVZZUB12NT6o25XZBZywzJPWespcFx899s64qDuoP1mKCM5oZKURTRTX9TMem4j3Nyu9jGCFyaC1zRqvEUpZ","DdzFFzCqrht1Hc2Rtb5upFAN9Fn23WA4RGXyyBETSyGWzHdVTqS14NaULV1JTudWPWgbDDDCMHXsyAUTUun1Vcn8jYruQy3Ygh2bPASp","DdzFFzCqrhstyb7uYwsaqV9UXubFypu2gkcbk5ZaaTTq1TDednYPfoQMr6sTKvXoCYsNtSmzXNivMLwfy8ppLVtqAS9ogsdmwkMoZ9xw","DdzFFzCqrhsxE8csMK7cDKDWEJk1NRHZ1nWcMxoWWSQxzXKyJ6dDm5yHFtPa1wVDjZZkVaL2FHAVCEH6bYY7gbVhX6coFHUUpd7aoxwe"],"fee":963441,"totalOutput":72546770129,"tokens":[]},{"hash":"3ce01d799997cd62bd3843b9227b607294b72ada9953ff3ffa95281fa628590c","blockNo":8295101,"blockHash":"9e93067107c45013b91c107e54d460b3d2761ab0b8bb7d5c9acecf5b8b8b711c","epochNo":388,"epochSlotNo":413558,"slot":82666358,"time":"2023/01/20 16:37:29","addressesInput":["addr1q9vj9w32w77p47ca725hantcf5nrzcex66vqq58kqm4l04y6hn99676mvdj6qvd34vfqh3jx6vy8tyfkuy6u3xcghq8sex2gzq","addr1q9vj9w32w77p47ca725hantcf5nrzcex66vqq58kqm4l04y6hn99676mvdj6qvd34vfqh3jx6vy8tyfkuy6u3xcghq8sex2gzq"],"addressesOutput":["addr1zxgx3far7qygq0k6epa0zcvcvrevmn0ypsnfsue94nsn3tvpw288a4x0xf8pxgcntelxmyclq83s0ykeehchz2wtspks905plm","addr1q9vj9w32w77p47ca725hantcf5nrzcex66vqq58kqm4l04y6hn99676mvdj6qvd34vfqh3jx6vy8tyfkuy6u3xcghq8sex2gzq","addr1q9vj9w32w77p47ca725hantcf5nrzcex66vqq58kqm4l04y6hn99676mvdj6qvd34vfqh3jx6vy8tyfkuy6u3xcghq8sex2gzq"],"fee":232029,"totalOutput":16603951,"tokens":[]},{"hash":"5a0bd045d39ff12cb9aaa264774e7d62e1a6c0963822f621ebe612cbbdb6b530","blockNo":8295095,"blockHash":"509a4008e731ed3164781666bb16ba6168c06c7a9f128fd40f3ea0c119b7de6b","epochNo":388,"epochSlotNo":413488,"slot":82666288,"time":"2023/01/20 16:36:19","addressesInput":["addr1q9vj9w32w77p47ca725hantcf5nrzcex66vqq58kqm4l04y6hn99676mvdj6qvd34vfqh3jx6vy8tyfkuy6u3xcghq8sex2gzq","addr1q9vj9w32w77p47ca725hantcf5nrzcex66vqq58kqm4l04y6hn99676mvdj6qvd34vfqh3jx6vy8tyfkuy6u3xcghq8sex2gzq"],"addressesOutput":["addr1zxgx3far7qygq0k6epa0zcvcvrevmn0ypsnfsue94nsn3tvpw288a4x0xf8pxgcntelxmyclq83s0ykeehchz2wtspks905plm","addr1q9vj9w32w77p47ca725hantcf5nrzcex66vqq58kqm4l04y6hn99676mvdj6qvd34vfqh3jx6vy8tyfkuy6u3xcghq8sex2gzq","addr1q9vj9w32w77p47ca725hantcf5nrzcex66vqq58kqm4l04y6hn99676mvdj6qvd34vfqh3jx6vy8tyfkuy6u3xcghq8sex2gzq"],"fee":231941,"totalOutput":18111740,"tokens":[]},{"hash":"b50e2ae48c1ce486bad2b7131815b7db62ca003d21a0eaee56b0cc63bb3c36f3","blockNo":8294991,"blockHash":"bc006761c495cad6e8ccd0d240bb9267d6c4e6299550dd203260dc0d4cbde5fe","epochNo":388,"epochSlotNo":411111,"slot":82663911,"time":"2023/01/20 15:56:42","addressesInput":["addr1qydqwxat0x38qlcx5jly4ysm9z8h3x304qypytwss4ncs0wvs6xa7v38v6mx3jnmsa948aufl5pty77gyh726h89903qcelysh","addr1qyau90sx7tcv8mgh5vq746gq9muulj7vg2undntv5hc7scwvs6xa7v38v6mx3jnmsa948aufl5pty77gyh726h89903q6peye5"],"addressesOutput":["addr1v966ecvj47s8clsrvydkvuh0d5gttjmgl26s4p923egptlqjew972","addr1qxsv87lrjd2m3rzj5nszl63t3j6k2fmegdpns0fggnv37w7vs6xa7v38v6mx3jnmsa948aufl5pty77gyh726h89903qv32ctk"],"fee":385853,"totalOutput":27541090,"tokens":[]},{"hash":"598b449372e5db9c60bd1030a4e2db7536d8781ced7ff7a80b4b34a69e0b6f41","blockNo":8294961,"blockHash":"1f0ea52a51ebb83732f2ba7cb20a27c166efc8d88eb1a025fa1fc7d12b242c2f","epochNo":388,"epochSlotNo":410538,"slot":82663338,"time":"2023/01/20 15:47:09","addressesInput":["addr1q9q7ssqkeqe47rgcmmmzmpxecfxzvr2nuk735829h2wv02xvs6xa7v38v6mx3jnmsa948aufl5pty77gyh726h89903qvq7uuk","addr1q8rlcfcnvpfw3u6ksv78wpdwymcrt2c5cy84hfmpw6e0vaxvs6xa7v38v6mx3jnmsa948aufl5pty77gyh726h89903q0xhw8d"],"addressesOutput":["addr1v9a3pajxgpw647p4tp7mt4qwqn3kvyav5e2zlcdjfx4n2mgcnwdsz","addr1qydqwxat0x38qlcx5jly4ysm9z8h3x304qypytwss4ncs0wvs6xa7v38v6mx3jnmsa948aufl5pty77gyh726h89903qcelysh"],"fee":385853,"totalOutput":29789263,"tokens":[]},{"hash":"3c9aa8cf25c6d7414c96881d8e5af4d334b29ccb6d47b345f49fec937649933e","blockNo":8294784,"blockHash":"b8e5083549515c39abeba51ecc8dcb88c20508db523f40c8af76c3c2fad59511","epochNo":388,"epochSlotNo":406810,"slot":82659610,"time":"2023/01/20 14:45:01","addressesInput":["DdzFFzCqrhskyTw5X1Ack41H7SaBzrBwiTFnfSsEU8zi4CufuUppcLh1ims7vwkgMNNfWXLcEzPtnnocNmBh3rArJHAwcTworowsuKbw","DdzFFzCqrht5s39tCsFVn45H1oMmYMVVSfLztvq88pgeCmPznxbPGLEBfLSqLmwRcQv1giX3a12CXtB9Ngfk7prpzDjmevJpJRspP7Dg","DdzFFzCqrhsuQMxJaaxrEc5DpdW5qJoRQnL2bWm3U5VEtDSrA6t1j3gyR8PQB41ViNDpNkEN8dmpUYvKqx7dB6op56BxuQucFMHwjHc8","DdzFFzCqrhsyNwBFNm3V2cwAYjhU8sNhhbFyKjYHS37XgkWMaNVAkmD9GdAhs79aQBTWTmS5H1eUf2u3suFvLCyUCZ1tmB3eTnVjRuHY","DdzFFzCqrhsvchsLuVubehXANmVgLCczQxUNXTofZgzXThHFgcwdXP17aRuFJb2iFFLUqQmPuj6CEhcKu5vbUMQh98ifYfsiKCXN8Q8R","DdzFFzCqrhtBJPS8NfTWVGS7uNvxP4PJvvZdZeoFnWiBK7Xf3oMGC9j8R4YG47LvqNYBZjYg8ZtihpEH8YpyHTXEi8avCNKNqhMJ1UuQ","DdzFFzCqrht33WKhzeYjxhGG1ZRrCZ2kk1PdDkczSD64ywseCa3YvDENCT77mbes2fqxjuUJT2fdmjcWFsGrP17JUaM8RYWpfNBKhXih","DdzFFzCqrhsyinRmEnNezUhq453nV6hHmYNiBRu9m6Rcx59xaXk1Rkw6CbgHzm1ykwamgTbvz7dwVW4SB3uxszJEmR4hY4tEVEmRn54M","DdzFFzCqrhtC2My1VmgajGZ1MnwLnX1FGrpVKD87PWj3DRoxTo5ud1sUXrnwrVbZdceytSiNjGfjNZmvQrq4QSM97tpm1yotuiFp9wv9","DdzFFzCqrhsupdY9JD6AANXrCrQaw9mfzPmHmBDPjSp2TRidRkU3Rq4hZCeYPeLZYWStTqVjPbNRVM8hf4HoFow8aPyFuTa7iMwqNmQZ","DdzFFzCqrht2ZSG1FQ94ViDdguibqkbDWeoZzewcV2YbyiFVExtwDeQKnBooh5bTxgyWTmrDQdw66dn9WvCDurPtL67R9FuH2SVfC3jW","DdzFFzCqrhtAB8PGbEB1MdSvCEZySHXFychiFC7i59DCuParYhXbhNnERE7jtkUFWim2fm2mMzC4yFVEN4ngxMm1aXrr9ibk57akatgY","DdzFFzCqrhsvqv8fEvDD7qYs4ijt6vvoZajqd2yqhqtSAAEbAC7ZZnf7TtcVSS3sCt6QMi39LV5aq99nz53GMXKTnyEZFVc9jcZMw8nD"],"addressesOutput":["addr1q9atjfpqwdtg7ytz0pz9zcaqvx8zr2uv6ysvc4csqynr683dzefudzxhadht99nh8gv4l3z93d486ygllgxuh2drrrpsdw6fws","DdzFFzCqrhsttiNC2Dypi59pq1cRAWXxxcDVJRKXeNBNqhL1b33Fa5YPXhBvnEnbqUDyU9NQME8RR5T2EAdhUpApr1tYBs555WPmfhmk","DdzFFzCqrht49MbyV5TzibEgJ9PwtHXNqivPJcLofqifLDB2uZUAxMfYqRQXwyePnmrhscMLbWkzNzvpFAYGwxLrxeuWT2w5RGXqEaE5","DdzFFzCqrhsjsRNjvmM82f4uhEhTXqVJvyMbBLXG5RiaW9YdBu46jqhZnYL2kHi9pdMaWbCkKGuvi9hLuWt7UygTc7NafonMmg7mDcUK","DdzFFzCqrht3APWoENRNXtKXJT1dm9C6kcfyYPBjPh8LSPfgPncKeZbkYN7MGwQjD5EF9ax8NJEVYGWb3EFvmM7Dvoe66UQHjaxPicqG"],"fee":1031201,"totalOutput":63701423078,"tokens":[]},{"hash":"73d5acb9a17e36451052ec6a6bf8785404beb039429cecbd0a8633cac207b2a7","blockNo":8294663,"blockHash":"e57cf6b1e63751603301d0c98fab4d15482476d824278b858161d504e0a88cb7","epochNo":388,"epochSlotNo":404427,"slot":82657227,"time":"2023/01/20 14:05:18","addressesInput":["addr1qytcehgjfjramhcskcr8053yl69p5stczcmhqwsw4cg0utwvs6xa7v38v6mx3jnmsa948aufl5pty77gyh726h89903qx9mmud","addr1qyau90sx7tcv8mgh5vq746gq9muulj7vg2undntv5hc7scwvs6xa7v38v6mx3jnmsa948aufl5pty77gyh726h89903q6peye5"],"addressesOutput":["addr1wxaptpmxcxawvr3pzlhgnpmzz3ql43n2tc8mn3av5kx0yzs09tqh8","addr1q9q7ssqkeqe47rgcmmmzmpxecfxzvr2nuk735829h2wv02xvs6xa7v38v6mx3jnmsa948aufl5pty77gyh726h89903qvq7uuk"],"fee":400505,"totalOutput":33059679,"tokens":[]},{"hash":"f8920096f609c09c9094b07f147d455b544586f21e3512214049f75aabb7bac5","blockNo":8294638,"blockHash":"e9d20694e560e2c33abc3d66d0c16bdf9561b8cf4735794d283ebf75e0c44ce9","epochNo":388,"epochSlotNo":403715,"slot":82656515,"time":"2023/01/20 13:53:26","addressesInput":["addr1qx3dgkfdsey4smxze00m7gq96fuy8k33xdd3lqmktnc8zx7vs6xa7v38v6mx3jnmsa948aufl5pty77gyh726h89903q33tp0x","addr1qyau90sx7tcv8mgh5vq746gq9muulj7vg2undntv5hc7scwvs6xa7v38v6mx3jnmsa948aufl5pty77gyh726h89903q6peye5"],"addressesOutput":["addr1wxn9efv2f6w82hagxqtn62ju4m293tqvw0uhmdl64ch8uwc0h43gt","addr1qytcehgjfjramhcskcr8053yl69p5stczcmhqwsw4cg0utwvs6xa7v38v6mx3jnmsa948aufl5pty77gyh726h89903qx9mmud"],"fee":402661,"totalOutput":26880767,"tokens":[]},{"hash":"0764c2bc45c51c3ec48cd0231804b2d4568f1be5c05410927b3651f24ae22b6d","blockNo":8294545,"blockHash":"16fec9d10b6b08b4d32d4b7aa5d4a55eb67812f920bdb64cbca2f5bb57aba7c5","epochNo":388,"epochSlotNo":401442,"slot":82654242,"time":"2023/01/20 13:15:33","addressesInput":["DdzFFzCqrhsphC5xDBbyWCCHzpNHxrkotkYz9Z7FkcbyzKAgmbBduCyokesbZVY2ZemymAwaQt9VmK6SkToVnSeY6vSDHQKEqyxnWKcL","DdzFFzCqrhsh7sFgH47SBNj7e7SFZ8M7VBP1wUDJ9JkMvthztBakNwkpjb7EmVZBuM3kgkREaCoNMaBp3VLxDAbuBvUWqyjZxJgUXhTe","DdzFFzCqrhswYu4pveS17oou51zeqiz4sm66nUZ7tRx1oCLbD4VqTriCE8pQYGaakZmhkaRVFXKXCyzByg5w966QwM3bt4SJN3EqrHxC","DdzFFzCqrhsscs37FYeCzpx8yMDrAnw55WUkSVZXvtDYtmsXirtimEPtWs9QkizHucDRfhbPEkiDZLW74eM5jSRRBJa2UPtHzVyKYsJU","DdzFFzCqrhsnnTiHDp3hRYQqPY2y6rx8H5ftT8UeTjfbSH2gTvf5yb4Y9pGbhpbbCSVQLmySny19tfL9dWaNWoZA28VFURHdHcLgXfgg","DdzFFzCqrhsuiPZH9kTqxPBQGVPmmewvEtkBtCZBpWCytHBWCuLXBTA26kdTEqQNduTmi99Ct6GXQ8pyH8dUJyUxrsedu7uQJcYYm7vH","DdzFFzCqrhse5AWkU2VUdshLGh1F8vGp5vdCyLSys4v73djkksSybYdh9k6RAW726fR91YZQPd8ML8R51FQV66SLHhYegmT5c1Dyq8XJ","DdzFFzCqrhsoQJr8iaNcyNH7sW3kUqxcsztUDXCZmJDQXiAZnXpGnk8kpbJWVarH98E1k6ZcGXzqTLkEMFd6SgDrsctnXLScQNunJcp6","DdzFFzCqrht8N2zBihR1SCqRZvAcpS7T8Mn2qwaoznWPVTYBRvi88HCaJmHv3z8ZRYnpefVPMhsEcvayk3Gi2PeaC5YoSegUWuoEY2q7","DdzFFzCqrht3WdUPExgiEBBCvj2Bfmtk5acRbPf5UvzR56Vj916t3FdQJw5SaB2YvjPW5KwXQzvFt7fNbWZMFTizGr4fmi4rgpVgQsro","DdzFFzCqrhtA4PBSa4WA2e9yHh7YgRmBsy38JcH9Nz1AEdcTNFA6F36MipxnAhZFFqZy8uki5gUDvBshcXwex763jxsCfs4sMHSGrJCH","DdzFFzCqrhsir27dUCAXwted8ywZMyM5s2czeuk79h6JgMerXR7mR1igJfd1oDPnbbEKJPXVsEJA4mtyUTwNJye5nBCUMjTJbeN4GcRH","DdzFFzCqrhtA4PBSa4WA2e9yHh7YgRmBsy38JcH9Nz1AEdcTNFA6F36MipxnAhZFFqZy8uki5gUDvBshcXwex763jxsCfs4sMHSGrJCH","DdzFFzCqrhsgNWXypqbhs2mt5wmrHSH1Pjxq4RqXWrtUfXju7M8QB147YKMCFbGwyGEcJBG3zPCF9MTghCWjNNAcBG4AaEF3RsP4Rfp5","DdzFFzCqrhsyL1qoGSxVxDZLirHu733kLoxNZBWuk7GJiXNGbvDM9UKcEjskdVRAaSZRjpAxf8KGrJb6jDAmNv9kCw4Pswgqc6mAgVQV","DdzFFzCqrhseQq1wTEHQ7y31kZXpewjZ956cQ1LUUsqrCAy2CKBEGU9r5ytRWWPkRUtNNmG4NqpCRuzPFicTBndmb6Makmube9cZyLTm","DdzFFzCqrhsiYhNb6b35LLvbUgCPPVnxjetZTGiv9GubKJ4dY4gbwqQYs6haMs8gKR2fch2ZUmaWfH9dxav9FPxScDayKMeWs7NuTTa1","DdzFFzCqrhsgW95eh5tKqdWALGgZW4z2U9Tr4QnjoAyA9sMgo8T9n1xWxqrCwdwuV3hkG7BgyudREEy2XemWJ4ZS1TRXF3VkgRwLrn8z","DdzFFzCqrhsgzXc49URMJMTptDpHzjKsacEx3RqgKh3VYCFpgGkt78rgtDXd3z8wMjW9u5xaz8WrNcht2oBiw4mUKHCnAPUe1D2x6j46","DdzFFzCqrhsj4CcUer4nmz2oZgGu5dxWLBZ8D57zJ4vYJvwzDBLH12ykcP5jeCjEqq8zKTGm7DcEwq9M4GHDGz161A9V2PmMnMqSXVrZ","DdzFFzCqrhsy6SSUYNTLHTPPxxfvFdSzbjx3hScprPb3JgW37K6aw1cF8HC5w5rR2hMj1v6AC8pK1BnUhtAbUFXAzpboFtRXpewc5o72"],"addressesOutput":["addr1q9atjfpqwdtg7ytz0pz9zcaqvx8zr2uv6ysvc4csqynr683dzefudzxhadht99nh8gv4l3z93d486ygllgxuh2drrrpsdw6fws","DdzFFzCqrhtBJPS8NfTWVGS7uNvxP4PJvvZdZeoFnWiBK7Xf3oMGC9j8R4YG47LvqNYBZjYg8ZtihpEH8YpyHTXEi8avCNKNqhMJ1UuQ","DdzFFzCqrhsupdY9JD6AANXrCrQaw9mfzPmHmBDPjSp2TRidRkU3Rq4hZCeYPeLZYWStTqVjPbNRVM8hf4HoFow8aPyFuTa7iMwqNmQZ","DdzFFzCqrht5s39tCsFVn45H1oMmYMVVSfLztvq88pgeCmPznxbPGLEBfLSqLmwRcQv1giX3a12CXtB9Ngfk7prpzDjmevJpJRspP7Dg","DdzFFzCqrhsyNwBFNm3V2cwAYjhU8sNhhbFyKjYHS37XgkWMaNVAkmD9GdAhs79aQBTWTmS5H1eUf2u3suFvLCyUCZ1tmB3eTnVjRuHY"],"fee":1108641,"totalOutput":64411587492,"tokens":[]},{"hash":"34a6a9dea783f767c8c5ff845419644fb878131720c7a91db77b66c6f97e7947","blockNo":8294291,"blockHash":"25ddae3de3b2a8ddf40280dd5fb9f9b41463b21baa26dbdbdb3f21663d97f889","epochNo":388,"epochSlotNo":396494,"slot":82649294,"time":"2023/01/20 11:53:05","addressesInput":["DdzFFzCqrhsoHor9r6659AtQGbEw2S8r9V6cEAi7bEfJGgfPycSRK6qTMR42MmVWRQz4jz7Eb71YDMRQEUT8DaZx6tLDGYTTYZQR7Eno","DdzFFzCqrhsnRhQY3cnWi7AfauqMCV3vyhWV8ab8Wv7UJRvL5Fqwy59FaqQ1EuoYJuoBMHsxh88rYXBuzkBNp9Qse5yZ3FQ8h7i2etJX"],"addressesOutput":["addr1q9atjfpqwdtg7ytz0pz9zcaqvx8zr2uv6ysvc4csqynr683dzefudzxhadht99nh8gv4l3z93d486ygllgxuh2drrrpsdw6fws","DdzFFzCqrht8N2zBihR1SCqRZvAcpS7T8Mn2qwaoznWPVTYBRvi88HCaJmHv3z8ZRYnpefVPMhsEcvayk3Gi2PeaC5YoSegUWuoEY2q7"],"fee":372081,"totalOutput":7860757459,"tokens":[]},{"hash":"684069eb0d1b87beba596cbfaf8f159643bf4a3da14d0ff2238e495d6d632a25","blockNo":8294240,"blockHash":"06201feb8ef4cb936e43b4987a4f88b29c47a02c3f68ec23a40f532f50fe2b0f","epochNo":388,"epochSlotNo":395071,"slot":82647871,"time":"2023/01/20 11:29:22","addressesInput":["DdzFFzCqrhsyAeQ7Cm7TpcgTbCCAxEdfHLp7E66Vys34AnLT4Pomk1zCYRVfjNQMSVN4B9dSub8LSxTq2MSitGQbRZBh6URSGGdAtKB4","DdzFFzCqrht8bBLaFX7Pj29yi1zHmnAdSsrpuFtDYusSnBZZoNo2chSNDkCtgLR4p6encAmaMqRGCqMLkbkaCadLaiZT7Y5Y79F4HmCX","DdzFFzCqrhsyAeQ7Cm7TpcgTbCCAxEdfHLp7E66Vys34AnLT4Pomk1zCYRVfjNQMSVN4B9dSub8LSxTq2MSitGQbRZBh6URSGGdAtKB4","DdzFFzCqrht4m2r2phZW9LBZZ6Y9X4dGhpZLjRgNT6ostEiJdQF3AtTVDR1Axc2snseRi4E7d39UFwmVz2N3AuNrktiQPaNijvuA4CNn","DdzFFzCqrhsg4Lco2WbrquBofeh9MxJNGjJ9i6f7So7KMpBiPUU8evZPtwv2FSzyCCaPU7rGTie7miNeg3isT2pCPWw7i9wMbgkss4A3","DdzFFzCqrht4QcknsNSpyzSwmmSy9n3YZjevQNqAtKvMSZsRxxzic4TdmR6aP3x1JUdiR1ygB2GRrkxZSnXz2GP62RfXDfXGSxerr2pi","DdzFFzCqrhsnSBVRPuxouJZh8g8TvmWSgLpkT1hWihANrXESiTqUVC59aBqFaxJXZRvpNSbJkrcRRvzYUGmpd29ds7F8eNvUMJZ8HRyr","DdzFFzCqrhszYnAFnh14Gc7YwkbGwJSXV5HHArRvqPWQaaYbKumjwsiKnYiajpJNuc4mFkgzmgH5fJJT1MuJg7BhKiJByScVerxgpiDE","DdzFFzCqrhtAaqzBtBnQDYKBmcNqPsNravnfGXHttpTS9mTJnSxP92NWckXg2NKCAW6g35vbWqv1HKL2j7N4LMUN5dswukCKbeis3bNV","DdzFFzCqrhsoc7D2tHThpu2fLP2Muu9DmgvW3MULnNVFVTWAH2oeXwWNpJbJVn4MzFBkT1RVfZCZN9nFAbPQxFDcAVRF8H5yexNHmrBw","DdzFFzCqrht3M8sGDfxWaEfYSYAzGKkGmBzYuxcc2NW9qnT4y7tUXMsV4r9uBx4HqzhhRQLZhJSaZw8ARBzynnjRuaSGfztZ3UVyreaY","DdzFFzCqrhtCgNHDQ5Z4DV3n4GuTV6ofSTcUsdkRGzfhnBnVtU8437nn8R5FN8BoWjdf3KsgL3cyDmPs9C2n8XFVffapJ58iusguQUN8","DdzFFzCqrht3euLZ3UsLXShfZjKa75vVc2g7mXZvtTkRm16QGDMnz12hykuvzrU4vvHm75PccQYbGcaVtXMFwG7HUtcRUTHw9zAxvyzu","DdzFFzCqrhssXwbCSsqfx9yEcsYtrjfPW1oMRM2bPjLgFpH8uFkeDzbsE1BfctUg63fNb6J352jqFY7X5b1EZrkTf3BPKkY4rwDVKYHG","DdzFFzCqrht5ybquskeA4T9eKmhATjcV4P2cyGF9L7BgZxrpbQqDzCbF4ukuUZpVFQwJ1wK1vijjarJJrcbs13R7XySNrqRdyeHgdPTX","DdzFFzCqrhtCwRr7m1cuefbKB5p8uMN9DVrAdRKi6ceEkKCNBvVGLyKzmGHurqGgSCiQcdf8kRwAL5bNzf6sWZa7nJutRsGSKzLDoZh9","DdzFFzCqrhsfafaCrPkRNeetWuqN1c4QFyQejZUegSF8HL8VXgNs7qhp1FEHSPK6ftLZNKUncPkSErc2RhvtWkpbSg7XufPHr8JqEM2T","DdzFFzCqrht49mjMf7kv9ykC1jggMRhv77M5VFmPsgghXxnjY1SKRSzkAskCAjLJa18GmX4Ww14GTcqMpFppc6s2AW6g4bdH5AHREwhs","DdzFFzCqrhsha1DRfPZD1V1CyTLRcx7YQxCt4yY6NAS1HtdnHZNUreeKLvSYgCpA9AmyxUvzYNPpTGGBcwL9MsX7nmnQRS6NdwuwXGuE","DdzFFzCqrht2HXrZv4GDanwEnec1ivPsPRmEfa6dkasaeh428GaFN8ZciAJ3iY4dXqWRjvbc4TxACfybzKLj3EERegAKkuFRSkmgWU5t","DdzFFzCqrhsyz8aqeM9yuKNxnxemGapaFbdSjqKf6VCjG1Wv4n8sTfMK4Z29AZNCSCpUfXTWhYoUu4uQnMj1LB5ac6sgndJUSUCo6qcM","DdzFFzCqrhsrXGYxKRVwUVHKcWYDnEeE7UddevQch1XibaQGg25Cp6N8BxsDh2zsaYt81WxS97gEUy2gVRmLgyYDKEZ6rsH7ZUZ3D9JV"],"addressesOutput":["addr1q9atjfpqwdtg7ytz0pz9zcaqvx8zr2uv6ysvc4csqynr683dzefudzxhadht99nh8gv4l3z93d486ygllgxuh2drrrpsdw6fws","DdzFFzCqrhsnRhQY3cnWi7AfauqMCV3vyhWV8ab8Wv7UJRvL5Fqwy59FaqQ1EuoYJuoBMHsxh88rYXBuzkBNp9Qse5yZ3FQ8h7i2etJX","DdzFFzCqrhseQq1wTEHQ7y31kZXpewjZ956cQ1LUUsqrCAy2CKBEGU9r5ytRWWPkRUtNNmG4NqpCRuzPFicTBndmb6Makmube9cZyLTm","DdzFFzCqrhsiYhNb6b35LLvbUgCPPVnxjetZTGiv9GubKJ4dY4gbwqQYs6haMs8gKR2fch2ZUmaWfH9dxav9FPxScDayKMeWs7NuTTa1","DdzFFzCqrht3WdUPExgiEBBCvj2Bfmtk5acRbPf5UvzR56Vj916t3FdQJw5SaB2YvjPW5KwXQzvFt7fNbWZMFTizGr4fmi4rgpVgQsro"],"fee":1118321,"totalOutput":81444832469,"tokens":[]},{"hash":"83d8bba4130d6b0850761732f3663b08d9f0867abad633cd4f2acfbfc846dc07","blockNo":8294214,"blockHash":"4319b7fe411501864a07a98b9ef1b54dcd33e441b97fbdf5050d593a20bb697c","epochNo":388,"epochSlotNo":394522,"slot":82647322,"time":"2023/01/20 11:20:13","addressesInput":["addr1q9cgypkxmuw65pme5en3gnfv0puy07rcpe8zycyf8ynkg2kvs6xa7v38v6mx3jnmsa948aufl5pty77gyh726h89903qt4aa2u"],"addressesOutput":["addr1wxn9efv2f6w82hagxqtn62ju4m293tqvw0uhmdl64ch8uwc0h43gt","addr1qx3dgkfdsey4smxze00m7gq96fuy8k33xdd3lqmktnc8zx7vs6xa7v38v6mx3jnmsa948aufl5pty77gyh726h89903q33tp0x"],"fee":398789,"totalOutput":27949467,"tokens":[]},{"hash":"2753c94d502d3210cb823c9b9623530bf1b654e4276f36c70432e6f2e1b1cb0b","blockNo":8294200,"blockHash":"9ab78f09531abf8143905819418f8a5b5ddc65b9d3e87e5530c8cfbb4f5aa2b7","epochNo":388,"epochSlotNo":394190,"slot":82646990,"time":"2023/01/20 11:14:41","addressesInput":["addr1q9hdq9nqxx4rf6rcqq0uv835jyflunc8lhnurxww25ercrxvs6xa7v38v6mx3jnmsa948aufl5pty77gyh726h89903qdwe0ed","addr1q9wpxn7lrce3najg7fzylcwkzzh3tlz48q99wdk8sc23nv7vs6xa7v38v6mx3jnmsa948aufl5pty77gyh726h89903qzqww7l"],"addressesOutput":["addr1wxn9efv2f6w82hagxqtn62ju4m293tqvw0uhmdl64ch8uwc0h43gt","addr1q9cgypkxmuw65pme5en3gnfv0puy07rcpe8zycyf8ynkg2kvs6xa7v38v6mx3jnmsa948aufl5pty77gyh726h89903qt4aa2u"],"fee":406753,"totalOutput":32348256,"tokens":[]},{"hash":"9ea642def8f2cbfe863b9b222a0b5f8904ed0fa31b3b1d1baed937541c508cd1","blockNo":8294136,"blockHash":"862d6d45e17b247c89bbdb305104f6d8a945de4094b79bfec3262b594d880f51","epochNo":388,"epochSlotNo":393011,"slot":82645811,"time":"2023/01/20 10:55:02","addressesInput":["addr1q82hk36g35gdamvak08ctn8kdqn4qwvjt2q034tscekwrgprlkahfsmech9j9n9vflajrw0e46rv4lmv3a55e8x4a4ss8c6qe7","addr1q82hk36g35gdamvak08ctn8kdqn4qwvjt2q034tscekwrgprlkahfsmech9j9n9vflajrw0e46rv4lmv3a55e8x4a4ss8c6qe7"],"addressesOutput":["DdzFFzCqrht4RrwpLpiYPyPw8Gekp3Qxce5rw9x2kBWZGn8fSuw2tUnrsn2c6QjnV6iBoXPKNGreieAvnPsUPCZ5mUMDvir6BfqbdUnq","addr1q82hk36g35gdamvak08ctn8kdqn4qwvjt2q034tscekwrgprlkahfsmech9j9n9vflajrw0e46rv4lmv3a55e8x4a4ss8c6qe7","addr1q82hk36g35gdamvak08ctn8kdqn4qwvjt2q034tscekwrgprlkahfsmech9j9n9vflajrw0e46rv4lmv3a55e8x4a4ss8c6qe7"],"fee":307973,"totalOutput":129381710,"tokens":[]},{"hash":"7be7638100c9e16b904ce43b279adb24a2d5e024c6bb0b4c7df9a371f0bad00a","blockNo":8294023,"blockHash":"556d305cfb101ea99a6e8dd073d1e4f76b87ba1e6905a355096359d095e9e56f","epochNo":388,"epochSlotNo":390668,"slot":82643468,"time":"2023/01/20 10:15:59","addressesInput":["addr1wy30zf2g4xc7v872fdweewrlj3lh2lgttelmydn0cvhyplsg3vnkq","addr1qx76hnwx8qukkylx5te0em5gf7kgjqadv6x8z406mpyxz6nn3lmaa3wnh8ka8wxllq5f9kpp6spcwum5vvas6xgvuedsh0rgkp"],"addressesOutput":["addr1qx76hnwx8qukkylx5te0em5gf7kgjqadv6x8z406mpyxz6nn3lmaa3wnh8ka8wxllq5f9kpp6spcwum5vvas6xgvuedsh0rgkp","addr1wy30zf2g4xc7v872fdweewrlj3lh2lgttelmydn0cvhyplsg3vnkq"],"fee":887221,"totalOutput":33237215,"tokens":[]},{"hash":"bf8f3e76dfb786323e28a1e0e11a116f8517feabbb6acf7f8bfb97ef864d2da7","blockNo":8294017,"blockHash":"41df87bfb025028f177b68624f1fc2e7bb1368576335e4aaa043fe18692480e3","epochNo":388,"epochSlotNo":390493,"slot":82643293,"time":"2023/01/20 10:13:04","addressesInput":["addr1qx76hnwx8qukkylx5te0em5gf7kgjqadv6x8z406mpyxz6nn3lmaa3wnh8ka8wxllq5f9kpp6spcwum5vvas6xgvuedsh0rgkp","addr1wy30zf2g4xc7v872fdweewrlj3lh2lgttelmydn0cvhyplsg3vnkq"],"addressesOutput":["addr1qx76hnwx8qukkylx5te0em5gf7kgjqadv6x8z406mpyxz6nn3lmaa3wnh8ka8wxllq5f9kpp6spcwum5vvas6xgvuedsh0rgkp","addr1wy30zf2g4xc7v872fdweewrlj3lh2lgttelmydn0cvhyplsg3vnkq"],"fee":887397,"totalOutput":34124436,"tokens":[]},{"hash":"b892d994d0f87ac89fc5fae22b855cffb878bb9d823eba105af70e9d532c2241","blockNo":8293416,"blockHash":"f8fd66dccaaa775f830317ab8c3b34e385cc16fa8cbcb28bbc3510196c004db9","epochNo":388,"epochSlotNo":377968,"slot":82630768,"time":"2023/01/20 06:44:19","addressesInput":["DdzFFzCqrhspG5bsCnA6h9WAvQLFkUfyPT8ckZjJaCgDcmEWmN8fyeHmoD4mnPKjZiVbAdPEubxz6YRZMhp5Svw3DcQryWDLcm2AeVNa","DdzFFzCqrht1vn5PYzg7tyMu9z9y6HR9gzAyTqbg9qw3etbrmwvEHYCJrfp7nHSfCsWnxp5Z7DZC8HmwgfHBjVs8Tr6e9jgY3Qt7rXGb","DdzFFzCqrht5KgpYv16DjbRjkg7nsJuBw94Z8U9hXEh4YDit812PyyFxrhucxbtrKde8bpQgiAUsm44Hmo8SrhwGxYqyNRKqbn5kQ6Gi","DdzFFzCqrhsjvsAXjFGJ3rRYFiPureAqc8Fh595KaxKku1yQRMzHoT5HtCEdphg5iPJkXEL5KRX4qsCvkVBJ37jDCwFkzHWBQJZQnw2g","DdzFFzCqrht4MaazNK3xJj2mbkQsrjreku5N9JCvSm5PXAhKEBKKibqgYTDSUW3Futf9SVeARD1R9QDwETzbx1eMRfbeHtv9kQ2ocrLy"],"addressesOutput":["addr1q9atjfpqwdtg7ytz0pz9zcaqvx8zr2uv6ysvc4csqynr683dzefudzxhadht99nh8gv4l3z93d486ygllgxuh2drrrpsdw6fws","DdzFFzCqrhsnSBVRPuxouJZh8g8TvmWSgLpkT1hWihANrXESiTqUVC59aBqFaxJXZRvpNSbJkrcRRvzYUGmpd29ds7F8eNvUMJZ8HRyr","DdzFFzCqrhszYnAFnh14Gc7YwkbGwJSXV5HHArRvqPWQaaYbKumjwsiKnYiajpJNuc4mFkgzmgH5fJJT1MuJg7BhKiJByScVerxgpiDE","DdzFFzCqrhsgfPZcyjaSZXbJFxuriAdstiSzWeddDpdaTVAFQQF43CNLX8gNLXDt76ja6pdZi3kh4qKBpDmRjYKBAAepFcPRt4iD7PXJ","DdzFFzCqrht2HXrZv4GDanwEnec1ivPsPRmEfa6dkasaeh428GaFN8ZciAJ3iY4dXqWRjvbc4TxACfybzKLj3EERegAKkuFRSkmgWU5t"],"fee":953761,"totalOutput":56132905846,"tokens":[]},{"hash":"02c6b59e4461f6ce253cdbf080fce702fd6086d0eca3055f08b40cfd37ee297a","blockNo":8292959,"blockHash":"21fba04c9d748229d27efcb74dbc764351ab991f74fdbf17d3293f2a659095d2","epochNo":388,"epochSlotNo":368267,"slot":82621067,"time":"2023/01/20 04:02:38","addressesInput":["addr1q8hpyvkcwpyeeq5xprj0hhyp49qx7kqprx5xhjs2vd60fx6zmhet75tnxa8l4gj20eljsycfxetsj96s7tuyaqpj7ufqajh2uq","addr1q8hpyvkcwpyeeq5xprj0hhyp49qx7kqprx5xhjs2vd60fx6zmhet75tnxa8l4gj20eljsycfxetsj96s7tuyaqpj7ufqajh2uq","addr1q8hpyvkcwpyeeq5xprj0hhyp49qx7kqprx5xhjs2vd60fx6zmhet75tnxa8l4gj20eljsycfxetsj96s7tuyaqpj7ufqajh2uq","addr1q8hpyvkcwpyeeq5xprj0hhyp49qx7kqprx5xhjs2vd60fx6zmhet75tnxa8l4gj20eljsycfxetsj96s7tuyaqpj7ufqajh2uq","addr1q8hpyvkcwpyeeq5xprj0hhyp49qx7kqprx5xhjs2vd60fx6zmhet75tnxa8l4gj20eljsycfxetsj96s7tuyaqpj7ufqajh2uq","addr1q8hpyvkcwpyeeq5xprj0hhyp49qx7kqprx5xhjs2vd60fx6zmhet75tnxa8l4gj20eljsycfxetsj96s7tuyaqpj7ufqajh2uq"],"addressesOutput":["addr1qy3hqaha5424xlz94wltv5lgswylzdytwanxzl9m80leec22kuj2dts0c0rjuyh4tf570q6z0xwg8tnl479r3ns5drgsxaa5yq","addr1q8hpyvkcwpyeeq5xprj0hhyp49qx7kqprx5xhjs2vd60fx6zmhet75tnxa8l4gj20eljsycfxetsj96s7tuyaqpj7ufqajh2uq","addr1q8hpyvkcwpyeeq5xprj0hhyp49qx7kqprx5xhjs2vd60fx6zmhet75tnxa8l4gj20eljsycfxetsj96s7tuyaqpj7ufqajh2uq"],"fee":252533,"totalOutput":229194167,"tokens":[]},{"hash":"aa1c2d56ae75144328334aec4df42ed43c967487476ad64fc00c60efc2cf6c40","blockNo":8292386,"blockHash":"310d7b96685fb14411b9832ab9f6d76e08b08847f5062093501a3c673a59fe2e","epochNo":388,"epochSlotNo":356771,"slot":82609571,"time":"2023/01/20 00:51:02","addressesInput":["addr1q9vj9w32w77p47ca725hantcf5nrzcex66vqq58kqm4l04y6hn99676mvdj6qvd34vfqh3jx6vy8tyfkuy6u3xcghq8sex2gzq","addr1q9vj9w32w77p47ca725hantcf5nrzcex66vqq58kqm4l04y6hn99676mvdj6qvd34vfqh3jx6vy8tyfkuy6u3xcghq8sex2gzq","addr1q9vj9w32w77p47ca725hantcf5nrzcex66vqq58kqm4l04y6hn99676mvdj6qvd34vfqh3jx6vy8tyfkuy6u3xcghq8sex2gzq","addr1q9vj9w32w77p47ca725hantcf5nrzcex66vqq58kqm4l04y6hn99676mvdj6qvd34vfqh3jx6vy8tyfkuy6u3xcghq8sex2gzq"],"addressesOutput":["addr1q8pmkcrttfhmx69wew50n7mu47j0t3n2tce7qwcrpqq7pe273es7ll4phmnhhjd0l04zv0ykce2dh7duv3lcnmnksqnsj4a25u","addr1q9vj9w32w77p47ca725hantcf5nrzcex66vqq58kqm4l04y6hn99676mvdj6qvd34vfqh3jx6vy8tyfkuy6u3xcghq8sex2gzq","addr1q9vj9w32w77p47ca725hantcf5nrzcex66vqq58kqm4l04y6hn99676mvdj6qvd34vfqh3jx6vy8tyfkuy6u3xcghq8sex2gzq"],"fee":206509,"totalOutput":38343681,"tokens":[]},{"hash":"393266fc9125871aa7911d654f3112b46d4571a11ef3a45cb2777e49bd3b9012","blockNo":8292378,"blockHash":"606659da95c3fb4442518879b23a61cfd875483d371b45f217186cc54a062976","epochNo":388,"epochSlotNo":356545,"slot":82609345,"time":"2023/01/20 00:47:16","addressesInput":["addr1qyau90sx7tcv8mgh5vq746gq9muulj7vg2undntv5hc7scwvs6xa7v38v6mx3jnmsa948aufl5pty77gyh726h89903q6peye5","addr1qyau90sx7tcv8mgh5vq746gq9muulj7vg2undntv5hc7scwvs6xa7v38v6mx3jnmsa948aufl5pty77gyh726h89903q6peye5","addr1qxw0t3cph0y9uw4njf8r3md7hpz2mq7msq7x8qcde6lztc7vs6xa7v38v6mx3jnmsa948aufl5pty77gyh726h89903q927vct","addr1qyeuutg78qw9vuh8qh46kyc4eu603mnl53d2dhw3k95as07vs6xa7v38v6mx3jnmsa948aufl5pty77gyh726h89903qpjx0ml"],"addressesOutput":["addr1q8e8r50hrf4u8sv8xhtmp9qreshd2uezrm5w2xv38zylerjus8d9ul485lrrtv20phw6fwwl30zlplf4ph59lwd6at5s3luczv","addr1q9hdq9nqxx4rf6rcqq0uv835jyflunc8lhnurxww25ercrxvs6xa7v38v6mx3jnmsa948aufl5pty77gyh726h89903qdwe0ed"],"fee":401033,"totalOutput":35150957,"tokens":[]}],"totalItems":13144,"totalPages":658,"currentPage":0}