{"data":[{"txId":62016833,"txHash":"6b44c011dee2c72be88122f40fdd83b7052a1852d3ca99611e195c3488715895","txTime":"2023/02/14 13:15:33","block":8398676,"epoch":393,"slotNo":84814242,"epochSlotNo":401442,"stakeKey":"stake1u9k0c3ny4ktwcll0y3wxyy2phlcpednpuur06p8uf3kvh8cwzxe0z"},{"txId":62016782,"txHash":"831bcfa4886c75171c890c93d78bfa9e95fb7b58688320311820fbb0a93153c1","txTime":"2023/02/14 13:14:34","block":8398674,"epoch":393,"slotNo":84814183,"epochSlotNo":401383,"stakeKey":"stake1u9fp398ghmpex3je66zjx9we7pzt7fq0s6rg8ppewnh7hdgxrf7ly"},{"txId":62016584,"txHash":"808cbe9d86f61e8dfd88e88a1bcc99fcbdb8a03bd1d0f60ed8aec7a56797a18d","txTime":"2023/02/14 13:08:46","block":8398659,"epoch":393,"slotNo":84813835,"epochSlotNo":401035,"stakeKey":"stake1u9368gl6yf0ede8nttg99q7f2ept08frjstcj0qkxrrqgrcf0qqqc"},{"txId":62016089,"txHash":"5e20e2d834d2d618d8a5e613a6a7f358d75e9ef55d67765e373536825d405da8","txTime":"2023/02/14 12:52:46","block":8398617,"epoch":393,"slotNo":84812875,"epochSlotNo":400075,"stakeKey":"stake1u9ya68yg4ea04uhn65axkssxf8u33chwsk7wa5680m5pavq9fykp2"},{"txId":62015531,"txHash":"09abb14dfbc1079e2428c1f3b9e01ab5058423edb83834addbffdaa6591f58df","txTime":"2023/02/14 12:35:39","block":8398568,"epoch":393,"slotNo":84811848,"epochSlotNo":399048,"stakeKey":"stake1u9dup8n78sdwnexcm9fgtmrxrw32tyeaup40pp5xchjcc6qdwj2en"},{"txId":62015439,"txHash":"288adcde091e5185718637d3acacc4bfcd3fa5ee9167cf2ae4291b11b5a3b3c6","txTime":"2023/02/14 12:32:30","block":8398561,"epoch":393,"slotNo":84811659,"epochSlotNo":398859,"stakeKey":"stake1u8g5lhtk4qrj3zmg794mk96h27kerzr2wpv4enfwrfqsu7q4vap7k"},{"txId":62015238,"txHash":"935daae00ea683da7fa14b21bc2a0d0a27410e13bdf5bc39ef3ecdc6d3e77239","txTime":"2023/02/14 12:27:12","block":8398544,"epoch":393,"slotNo":84811341,"epochSlotNo":398541,"stakeKey":"stake1u8z7qzwctfa559e3yc4923zkv3u4gax2jhcfjl8r0jw095q8yj6sf"},{"txId":62015119,"txHash":"9b292beeb135acb3a025be1f7a5a5b4bfab691d994a25f90e71ab617df0f36a5","txTime":"2023/02/14 12:23:58","block":8398532,"epoch":393,"slotNo":84811147,"epochSlotNo":398347,"stakeKey":"stake1uyne4g28z7y2dsm7cl4rga6dn9unrc5u8mf4q0nmqs5jkfcdl8e8p"},{"txId":62014849,"txHash":"57ca1a95b424676f18e66d3d1aaf895fe93f882eca1a8832092d10ac7ee61be3","txTime":"2023/02/14 12:16:46","block":8398509,"epoch":393,"slotNo":84810715,"epochSlotNo":397915,"stakeKey":"stake1u970mhk289cjcph4swh3meqqryet7mdf5jflmx8k5v8267c5zupek"},{"txId":62014736,"txHash":"ab32b0c32ca1d252f700ab3cb9a81c3c3f7661011353e881e42f4d1c1ebd4ae8","txTime":"2023/02/14 12:13:59","block":8398501,"epoch":393,"slotNo":84810548,"epochSlotNo":397748,"stakeKey":"stake1u8685j46nqx33c4g6nx784qquufsxytn74c32cp8yr0lelqe7tqk6"},{"txId":62014459,"txHash":"5cbb8ac5e2230724e56430c69f7192b94b4ac8766331e1e5bb65914ce6b14c3a","txTime":"2023/02/14 12:07:18","block":8398482,"epoch":393,"slotNo":84810147,"epochSlotNo":397347,"stakeKey":"stake1u9vu558aq4tk6e6haw9ta6ulgltnv0c0ypmdpkvtj3cax8cqd6kfa"},{"txId":62014207,"txHash":"5ee25e87eede9c0e684a85bf2bdae9373245155a05ca82b7f8aa1c4cf80432bd","txTime":"2023/02/14 12:02:18","block":8398464,"epoch":393,"slotNo":84809847,"epochSlotNo":397047,"stakeKey":"stake1uywg32dprdqdkgyp53wfmup4fcvuyzndr65l2wp3knu85jc6w4k7y"},{"txId":62013915,"txHash":"90a9904b2722ab5bbc2f9bdad83f7b224538b78ec32bbda1f3e0200d2094421a","txTime":"2023/02/14 11:56:24","block":8398446,"epoch":393,"slotNo":84809493,"epochSlotNo":396693,"stakeKey":"stake1u8hxh8jjd4zk0r0h6p28ktn5ehw2mfejg4vc59dppc8gvcg9jaf8w"},{"txId":62013680,"txHash":"71bb0f0394ae4e5fb589eda0dc48b76d8eec9d23b3032df098a463fb9f2ce4ac","txTime":"2023/02/14 11:50:35","block":8398426,"epoch":393,"slotNo":84809144,"epochSlotNo":396344,"stakeKey":"stake1u9shvvr285lzg7ucl5tedghy4gakqvqng8wa9h4rmup2y5qzle09d"},{"txId":62013589,"txHash":"6532733473824bd3946cc342c080a6fd0d1360d58522c86cb7f2625f07adff82","txTime":"2023/02/14 11:47:38","block":8398418,"epoch":393,"slotNo":84808967,"epochSlotNo":396167,"stakeKey":"stake1uxhapxx8fgz33gr7lf6csap7jl8n4c42gjdxtjcunjd0wtqdwu9qn"},{"txId":62013391,"txHash":"a132fb3d30fd27b36c8662aa30c1a42b1287d14b4a6b93c15e418fbbeff43fa2","txTime":"2023/02/14 11:42:07","block":8398398,"epoch":393,"slotNo":84808636,"epochSlotNo":395836,"stakeKey":"stake1ux3v3fx7h5h6y56564vwefqrr5fg65m53s97d7x3x2qrtacxj2kt9"},{"txId":62013353,"txHash":"dff5ea977ee8746c1577b99404ea1517ef971527e5aad2381feaaf92aab51307","txTime":"2023/02/14 11:40:59","block":8398396,"epoch":393,"slotNo":84808568,"epochSlotNo":395768,"stakeKey":"stake1u8qjjtsn7m2s67a8r29l22za9dr8wnhx39n3grn75vgznxc7w4dj6"},{"txId":62013329,"txHash":"578aa924965aea363448a1408898d39d5b865e521567e68f4abd904f5e8e18ee","txTime":"2023/02/14 11:40:41","block":8398395,"epoch":393,"slotNo":84808550,"epochSlotNo":395750,"stakeKey":"stake1u8lr4d6llwtz4fknu2z9cdr292zecmplasnknxa50cc62zgt9wqzn"},{"txId":62013119,"txHash":"623ca752dff96f50120ec600f33642fcd60dbfa6519a8adf737d79e256d7db5a","txTime":"2023/02/14 11:34:12","block":8398370,"epoch":393,"slotNo":84808161,"epochSlotNo":395361,"stakeKey":"stake1uy84pgtvwtlgrlvae8fgx6npj8jvk8y885n7m4f3mqdmrlgpp4z8d"},{"txId":62013037,"txHash":"fc4a16933d09915581ffec41511fa1293549fd6023471e36a112d7b869874cab","txTime":"2023/02/14 11:31:36","block":8398361,"epoch":393,"slotNo":84808005,"epochSlotNo":395205,"stakeKey":"stake1uyn25excj53x6ne8fqm5fc4vrz3zta487s3ydq3wr2pzr9gk75tl6"}],"totalItems":353312,"totalPages":17666,"currentPage":0}