{"data":[{"txId":60422801,"txHash":"08e89aecc8a8ca68776d0386eff7a8e80637142ed3681e2e4249ada108b03ccf","txTime":"2023/01/24 16:03:50","block":8311581,"epoch":389,"slotNo":83009939,"epochSlotNo":325139,"stakeKey":"stake1u9atnpgc32f7ut34pnwlg9n97cwz5yte2vptjp5v5r98qcq2zgkrp"},{"txId":60422790,"txHash":"3490533c5ba7fbcaba2f0c8ae37a7c9d47f06220a3f9c736ed9588163f53830b","txTime":"2023/01/24 16:03:05","block":8311578,"epoch":389,"slotNo":83009894,"epochSlotNo":325094,"stakeKey":"stake1u9rfpev48phj2am645yft5hs0qg676szdn0c3ecsds470wsr03j37"},{"txId":60422774,"txHash":"336fb80a5b48960d29814b515485bd4403c0d30dc9c283f5dc9fef3ffdc266cf","txTime":"2023/01/24 16:02:39","block":8311576,"epoch":389,"slotNo":83009868,"epochSlotNo":325068,"stakeKey":"stake1u96c6fmm9szchufv3trr8pn5ksw4xlw6x5q5d4wr8tp5gsgxph0yp"},{"txId":60422744,"txHash":"fb05069b337e3e1c4a1cb8f73416497ae6c3710c44b3a3c712e99512dbfc87c5","txTime":"2023/01/24 16:02:39","block":8311576,"epoch":389,"slotNo":83009868,"epochSlotNo":325068,"stakeKey":"stake1u96qz89y3xgwgfwfk3lnyp0y2tgzm2mfvvs7qzpmj2zw6dgz0uslm"},{"txId":60422672,"txHash":"19ac6ef4c872a065f60ef2e21a5ff89529cdb33e36b5e95710cf5924197052e6","txTime":"2023/01/24 16:00:56","block":8311573,"epoch":389,"slotNo":83009765,"epochSlotNo":324965,"stakeKey":"stake1u8jza68ap4uurrdxtu50lje6989hjk4fj4fvsm90ecy0xtqxwvnfm"},{"txId":60422594,"txHash":"1e67adcd581dd5e027dcbea6957bd5aef6d207984a59391d172e8a98243d0bfc","txTime":"2023/01/24 15:58:18","block":8311570,"epoch":389,"slotNo":83009607,"epochSlotNo":324807,"stakeKey":"stake1u9ceytlkkvt9w092zpzudx0dnh0k5f6nse87h858dc2ay8sw4kup7"},{"txId":60422555,"txHash":"7142488f5f13c1a071109dfcab0e1f80baca96e10eba306887f80c20733e74ca","txTime":"2023/01/24 15:57:05","block":8311565,"epoch":389,"slotNo":83009534,"epochSlotNo":324734,"stakeKey":"stake1u9nue90nsfctpgart4ap94hxdfxt0zrz966ev6n92y0xmes5hzy3x"},{"txId":60422480,"txHash":"87b9e110831c4ae46cdf26893770be8f0d3dfbc3c72eb6a12956749f14a82e94","txTime":"2023/01/24 15:55:29","block":8311556,"epoch":389,"slotNo":83009438,"epochSlotNo":324638,"stakeKey":"stake1uxkt62vax8j9xxz3lvaa8aacm76dhupaetxhft8fzp3mg0sd3ac2g"},{"txId":60422177,"txHash":"3c07de69f87b33d2e9a2be2a158976de3fe1886db89f1225b438f486c3777ef1","txTime":"2023/01/24 15:49:16","block":8311541,"epoch":389,"slotNo":83009065,"epochSlotNo":324265,"stakeKey":"stake1uxgt7plk6p9ek0e98hax4gdafx79x9tp5ns665v668gw4ngs7te32"},{"txId":60421929,"txHash":"68a440afa259164af835de41f02df9aecee5394446811ed39fb475c0932749fe","txTime":"2023/01/24 15:43:17","block":8311524,"epoch":389,"slotNo":83008706,"epochSlotNo":323906,"stakeKey":"stake1uxnaeppqjrjxc6ht6ymz68vpxlk0kxcwnygc0kdl5h3l43qasdluh"},{"txId":60421879,"txHash":"f1c8a16f3a5f9e3fe26c35f509a88c44aa3ed938117eb364820880e11e1f8c19","txTime":"2023/01/24 15:43:11","block":8311523,"epoch":389,"slotNo":83008700,"epochSlotNo":323900,"stakeKey":"stake1uy4sglgupmzuuynzg8pcmhldjk36e2fw5d5adpqc6pd203cpjwl9k"},{"txId":60421813,"txHash":"fe7eb3bdccd177f2c070fc3119de0944a0cfdd7cd1c12764d2ca77e337e77e42","txTime":"2023/01/24 15:40:48","block":8311521,"epoch":389,"slotNo":83008557,"epochSlotNo":323757,"stakeKey":"stake1u89yzz9hclu3g9z8nztdn0tu52r60az8dq88twrxxd4nlzss955s0"},{"txId":60421757,"txHash":"fa5027fab23d10ce73627833bbcec474c65084fe0f3b953d0a24df555454a3ba","txTime":"2023/01/24 15:39:59","block":8311518,"epoch":389,"slotNo":83008508,"epochSlotNo":323708,"stakeKey":"stake1u9ghxya7227v0q82hx9wrwckcglzch0p5ldcu4zk33yzgfqh258w9"},{"txId":60421268,"txHash":"dd255bf090cd7747b584b84cf6dff3dfc3b696029fd2413872280f3ae356ea1f","txTime":"2023/01/24 15:29:04","block":8311488,"epoch":389,"slotNo":83007853,"epochSlotNo":323053,"stakeKey":"stake1uxwxu5hn6swe05wjyr2pn9xy575umvv7rnxtknc442a3vwqu6phmc"},{"txId":60421170,"txHash":"a52f508cd5c0cd5e211eef10a06134d6d1eeeafed83331782ee0fa4b96a6716f","txTime":"2023/01/24 15:26:17","block":8311483,"epoch":389,"slotNo":83007686,"epochSlotNo":322886,"stakeKey":"stake1uxj38z8c3mm3dglw42vk78e7q264ewehfqtlj6smpt4dj6gd8lxtc"},{"txId":60420891,"txHash":"6272b89ab53a2ef7fcbe95546b382a59a1af5d76ef7cd477b454febb2a8132b9","txTime":"2023/01/24 15:19:40","block":8311468,"epoch":389,"slotNo":83007289,"epochSlotNo":322489,"stakeKey":"stake1uyek7qpz2gatmnktwpgamtspyett63aza5nas9cchfjqulqejwzvh"},{"txId":60420785,"txHash":"bd25b27304c54c9e8c20ef00050eaf68980aac1daf6bcada11980b88b501a120","txTime":"2023/01/24 15:18:25","block":8311462,"epoch":389,"slotNo":83007214,"epochSlotNo":322414,"stakeKey":"stake1uyfhuutlg5h3t3nxv7suxc0xee9cnwsf8qpcjsam0fd6y8sv20t03"},{"txId":60420726,"txHash":"5c60caa6ebc36eef8e07295db6249e7232ab9a875d7951c35325cc77ce74e3b7","txTime":"2023/01/24 15:17:15","block":8311460,"epoch":389,"slotNo":83007144,"epochSlotNo":322344,"stakeKey":"stake1u8lrfcmeqjfrg4jvdh6ngr5h3en8gpljt59kf4ymw2dm89gax0575"},{"txId":60420674,"txHash":"81e64ecd77debff06835db4f69a78699eea3a0c7ad7246d455bea18b8fba2eff","txTime":"2023/01/24 15:15:40","block":8311455,"epoch":389,"slotNo":83007049,"epochSlotNo":322249,"stakeKey":"stake1uxwmxz550fu7pnl35j8a8txnfky3mfkqegda3qyewytm29gcga97v"},{"txId":60420622,"txHash":"30b65e85012222111f58c0a0e44fa67612e2d8b28d5ccb06469f02c74f3bda16","txTime":"2023/01/24 15:14:18","block":8311453,"epoch":389,"slotNo":83006967,"epochSlotNo":322167,"stakeKey":"stake1u9cav67kcgjwq3080tpg03vtjm6hwa6lmxantut6zve99ggjydf8t"}],"totalItems":1651703,"totalPages":82586,"currentPage":0}