{"data":[{"hash":"c13dfbe6d9ca88312094c7e2fe2b00f62d74b19b060c90f72067a60be46f2e21","blockNo":8296587,"blockHash":"adf00693c165218af27707105be8505389d9afb31385e8a0db0153cd57ef49eb","epochNo":389,"epochSlotNo":13020,"slot":82697820,"time":"2023/01/21 01:21:51","addressesInput":["addr1q9j9edkjryr9fnz6eyuwjcjutun9kpgtkdlulzquheldfeermhplrjkd38pvcn2r58dnl0v4rxs9lz6rdj5p77j3wvcs7ud37u","addr1q9j9edkjryr9fnz6eyuwjcjutun9kpgtkdlulzquheldfeermhplrjkd38pvcn2r58dnl0v4rxs9lz6rdj5p77j3wvcs7ud37u","addr1q9j9edkjryr9fnz6eyuwjcjutun9kpgtkdlulzquheldfeermhplrjkd38pvcn2r58dnl0v4rxs9lz6rdj5p77j3wvcs7ud37u","addr1q9j9edkjryr9fnz6eyuwjcjutun9kpgtkdlulzquheldfeermhplrjkd38pvcn2r58dnl0v4rxs9lz6rdj5p77j3wvcs7ud37u","addr1q9j9edkjryr9fnz6eyuwjcjutun9kpgtkdlulzquheldfeermhplrjkd38pvcn2r58dnl0v4rxs9lz6rdj5p77j3wvcs7ud37u","addr1q9j9edkjryr9fnz6eyuwjcjutun9kpgtkdlulzquheldfeermhplrjkd38pvcn2r58dnl0v4rxs9lz6rdj5p77j3wvcs7ud37u"],"addressesOutput":["addr1vx4z63eel5kym0m20km4lfwm5jzrutv3kr9hgqp7gvrxr8qfle9zc","addr1q9j9edkjryr9fnz6eyuwjcjutun9kpgtkdlulzquheldfeermhplrjkd38pvcn2r58dnl0v4rxs9lz6rdj5p77j3wvcs7ud37u","addr1q9j9edkjryr9fnz6eyuwjcjutun9kpgtkdlulzquheldfeermhplrjkd38pvcn2r58dnl0v4rxs9lz6rdj5p77j3wvcs7ud37u","addr1q9j9edkjryr9fnz6eyuwjcjutun9kpgtkdlulzquheldfeermhplrjkd38pvcn2r58dnl0v4rxs9lz6rdj5p77j3wvcs7ud37u","addr1q9j9edkjryr9fnz6eyuwjcjutun9kpgtkdlulzquheldfeermhplrjkd38pvcn2r58dnl0v4rxs9lz6rdj5p77j3wvcs7ud37u"],"fee":639381,"totalOutput":54677605,"tokens":[]},{"hash":"d46dd2497120391b7cadb5a175428cdfe80008269b697a329a7c29c1005ec46f","blockNo":8296551,"blockHash":"ca780afc3ac6603202bea7406dc5eff4a1f5f61e63f1ec7146a9648689936335","epochNo":389,"epochSlotNo":12331,"slot":82697131,"time":"2023/01/21 01:10:22","addressesInput":["DdzFFzCqrhseF14JiCBEToV65ZL6SfAYxSa1hBJQ6aqAfGFgSyEPbzNpFgWuPoA64AS2Gsi5kUgfKjWYjxyJwWqb7XgmviwrEC9jYViD","DdzFFzCqrhshd8W2nvhoFmTNQLLpmLvEVDvNLUwubJiqNHD6QGWdJcC4pP1FsHKmExp3P8TQRtQCTfAUb8DYqzk3qNZv9i7B8JmuSUwq","DdzFFzCqrhspnYQ3BrwTbdUCVMNMH88qnkqiHupoDbdeZqsaYc2wuKtjnw7QBFu2dqxMsUyWbZDTXn9SyJDQWe5agA1HRhvhNWkZZsvV","DdzFFzCqrhsxHhPpXn5zZvsXUrZsjrHXvaUQbcFfSzxjFr4rGNdNysQQaqnn5cUt8thnLVb2fCCGnKWBi4DpCkz2f3BH7B29n2FJiAmW","DdzFFzCqrht6r4nADVVm179bMo9g9ZjZw1pHXf5Gr4px7r7Q5X1g5PiXs16nBuUMRahoym3jxFzRdMwTP8egMzYgo8zi2VbCXZKxdyYJ","DdzFFzCqrht7rJbsWwWkhF1P6Bihx2NanYSPokoyupG1ubdCBMx1SjRCLHGeSjTWy8pxDMYChgjE8QXNj15CP3gYvDsJRX34uhsS9mgm","DdzFFzCqrht1Zmu4PrGSHYhoWk3DKhzNWpUnepNj7zMStsc9scMQupeCxSB4HwCg6WQP9VXK7LYAw37T2FH33Eedr28NMERPZFs3jRwC","DdzFFzCqrht5f1wvAiRrDr65V8xVyNeeJFphS6EQnmTMRSBf5myTfKwtBupxTBQnxLpBHdoHWNLgbzXrfRgTiDLRZytU97SYn4ZfXQMc","DdzFFzCqrhswUdDTGqxh4gXZjc37Q3hUEnWrPwRVUUjoptttWYTtrDU6Pa4sgMJjx2sdWen4HqGnoJskeg9qCiRhPbi1g9xTMEogNMR4","DdzFFzCqrhsme5WpmYqKLzAdKV1xkpxRMEYsRC1em14vdzszhyyN5gY8tnZ7P1oGGpK2vBbWZzRsH53UZokoRRjoexaA9VYaCcnddcxb","DdzFFzCqrhsuWcVe4tsYGQ7BGHrxmeZM8MuL2MTb8YUGt3N8ELiSFbcyFrSXvCRS3N3rwcpN8mmTiKKibn9bion7N9TgUJRDSPJCSzfB","DdzFFzCqrhsgXkb7Kcu1Q8Wg9HrVzbnZvpKBKCNcdF4wgwt2x34PNUMhH8MtApeTv2BAD6xYQiD2TRRPvhpyyDwg5CKnFpTjnSbG9ssQ","DdzFFzCqrht8RZt1GK1tyyjkxqWEjMWMfCeqFZrvmhcmRs5w1EHHhDzkMeTvKfrj8jF7NMxfQZEjfEpveukfffmhbeUUqvik7RVRG9ST","DdzFFzCqrhsrhXX9HxPiZQQaJ3s7FW48Hqwj4qDJeXbFgPK7H3SQY7DksjbB69rH3LAs1kJXyrrQkSKt7gCru1hjvQdGHJkMif66tngW"],"addressesOutput":["addr1q9atjfpqwdtg7ytz0pz9zcaqvx8zr2uv6ysvc4csqynr683dzefudzxhadht99nh8gv4l3z93d486ygllgxuh2drrrpsdw6fws","DdzFFzCqrhtAtYFPZkgx9ZzjEZgJaoatXt3Rnp2tq1SLj1iHtHxYGgEHwx9Kg4vBvDXSmtM7GZs673jPyqx3YNKfg81sQYsc3EhFZoGD","DdzFFzCqrhsgD88xB3Cs4DLudWNnVW7NdimbzZ8jsdnkVZFaAj2tzszybyr6zb4NEB76pyRUZi3XgME7L83MhZw7cJdsjHrjxVLcuWZh","DdzFFzCqrhsfNtjE9y1R9fcLJ5DELuxZZFxiaSj9HA9f81JPUnApL4vUBYPoJ518juFryGFjmAVZXwfrdB8cTonDd7TtQUPpckf4niT5","DdzFFzCqrhsdrfXzXx5iahcaWs1BBiiuB8jBFTjG4vxX5WhkSMMANzDf5HXxPiVRpTLxvMjNcGqUhkepbdG77dAimxVjHUMyuqbgh6Ff"],"fee":1040881,"totalOutput":57389320237,"tokens":[]},{"hash":"ff39c2a10e4bcfd10330a38bdd79e83039d763a527f06a34f928470fe5fd9866","blockNo":8296448,"blockHash":"bd97b0d3af5bca024f107751d4754daba9098373c305e28d42f675fb61fbf3a2","epochNo":389,"epochSlotNo":9865,"slot":82694665,"time":"2023/01/21 00:29:16","addressesInput":["DdzFFzCqrht8nxgKCyWeYxNHpdBN5qzVix2vKZHpUhAGReagFGyh3KA1iULyqVP9Rj6EqdaKotfcBEWywvxovKY6qoPuvACJPKYZNVup","DdzFFzCqrhsxepcu39p1v9jW2Gg1HbJz8KYMAqYJux14n8iRPJYrBZ4d2gcHRVJ6E9hX9YrLitutrMbJv1CuJMd8FuZGiUsVpTGmEqhS","DdzFFzCqrhsiaHfyF1oje1c8XX6d5iK1kjqCxgoNWAT4oWUFok73DHqtLh6bnw2WYCHiYBfRYCK2WHjA55cheHqQFreQEHNEt39ufX6Y","DdzFFzCqrhskoBaGukKGzrp1wcUcnygCQrhmfXNg3HWXxSG1XcmjspqgEimkF4xC9FucxKVzaJ98yPyi5PsJ9x2B4YJcdHQu5bdT88a5","DdzFFzCqrht4Cyqjr263rQyF2zDXCucFX2vqkSBNwSfbGqsGJf4sxBEb1TCQyE1vsYdqcncLUjUkAMVkvKM9QGbcVJUCxLZEkvGaDAV7"],"addressesOutput":["addr1q9atjfpqwdtg7ytz0pz9zcaqvx8zr2uv6ysvc4csqynr683dzefudzxhadht99nh8gv4l3z93d486ygllgxuh2drrrpsdw6fws","DdzFFzCqrht7rJbsWwWkhF1P6Bihx2NanYSPokoyupG1ubdCBMx1SjRCLHGeSjTWy8pxDMYChgjE8QXNj15CP3gYvDsJRX34uhsS9mgm","DdzFFzCqrhsxHhPpXn5zZvsXUrZsjrHXvaUQbcFfSzxjFr4rGNdNysQQaqnn5cUt8thnLVb2fCCGnKWBi4DpCkz2f3BH7B29n2FJiAmW","DdzFFzCqrhsuWcVe4tsYGQ7BGHrxmeZM8MuL2MTb8YUGt3N8ELiSFbcyFrSXvCRS3N3rwcpN8mmTiKKibn9bion7N9TgUJRDSPJCSzfB","DdzFFzCqrht8RZt1GK1tyyjkxqWEjMWMfCeqFZrvmhcmRs5w1EHHhDzkMeTvKfrj8jF7NMxfQZEjfEpveukfffmhbeUUqvik7RVRG9ST"],"fee":953761,"totalOutput":68043168477,"tokens":[]},{"hash":"e32d959abffa0299fde6a705673685fca8f839faee3f5fd5ec5b23e625a8accc","blockNo":8296239,"blockHash":"ebbdeb36d5ee898a0871fb6b1f87472e818dc3082ac749422d2d54634ca33ae2","epochNo":389,"epochSlotNo":5674,"slot":82690474,"time":"2023/01/20 23:19:25","addressesInput":["addr1q8acjqzfnl07exskgfqkepklag3g0pjalwfyxtu87ushtf86wmvzcun764vwdlan6ctg303ktw5h2ejwv2epgzk6u00qqtshdj"],"addressesOutput":["addr1vyjdya9lmyfmysdgej3qc6thwat33lwm3umk8uwnvhy9g3gzvd2jp","addr1qxg8aqs67e88r2vvpga6uh450tt3xvdzy8kr9s9aheln67l6wmvzcun764vwdlan6ctg303ktw5h2ejwv2epgzk6u00qxm95cd"],"fee":352105,"totalOutput":42295721,"tokens":[]},{"hash":"dfa9ca52241dd4f36c14e9a06c82bbcedaceab86b4ba49d0a1043f0fca1baf4b","blockNo":8296218,"blockHash":"20732f1f9f977e478bec03a8d1b7ba7d156cb62ae07a91234e12015e506590aa","epochNo":389,"epochSlotNo":5295,"slot":82690095,"time":"2023/01/20 23:13:06","addressesInput":["addr1q80ht2he70nat6jr8efrrh7gxl9udkltj7rc4ysvx7vvs0xlwk40nul86h4yx0jjx80usd7tcmd7h9u832fqcduceq7qdz0xej","addr1q80ht2he70nat6jr8efrrh7gxl9udkltj7rc4ysvx7vvs0xlwk40nul86h4yx0jjx80usd7tcmd7h9u832fqcduceq7qdz0xej"],"addressesOutput":["addr1q80ht2he70nat6jr8efrrh7gxl9udkltj7rc4ysvx7vvs0xlwk40nul86h4yx0jjx80usd7tcmd7h9u832fqcduceq7qdz0xej","addr1q80ht2he70nat6jr8efrrh7gxl9udkltj7rc4ysvx7vvs0xlwk40nul86h4yx0jjx80usd7tcmd7h9u832fqcduceq7qdz0xej"],"fee":238161,"totalOutput":3153327473935,"tokens":[]},{"hash":"47c9e6369186da9d155d43428690c7aba47235383e5261633eaed862d69655d8","blockNo":8296139,"blockHash":"885e95bb6f32e17fa53b80ef72fa8d8fd612bf8a3562e45b78b19b23553d8ffd","epochNo":389,"epochSlotNo":3663,"slot":82688463,"time":"2023/01/20 22:45:54","addressesInput":["DdzFFzCqrhsnUA9ptwuJcvZQykPsmTuuaa35LAvTvu1sCkU1VvhCq4yJ6wSyRhiF2FiAwzPYYpexddhXWHqk61kH6ZqEdy8MhWsrBS56","DdzFFzCqrht81zha4zoaWUucQAnV7QMWFKmuNRUMZoVpmXGbTbSZ5jcMWvynM1PNjELEUzmjCHDxmqvHtAGXMFaFcjh8vkhuNXrLhbZR","DdzFFzCqrhsq9ZXi72uXbzHc225rLrt4tcYkFpeeTmmaJLnn1DHEoJXaG8QyMpkNUATT6s3GJRWxezsVRcMch2SptJkrBb2bnqgL4mUa","DdzFFzCqrhsvmQwunuxToaicyKs89DqnasvSG76bf43K7oGHo2AkBifdy8mhJUvubfLkpjZaZi2p5ciskY42oMpiuh2Nf5BoGF47829G","DdzFFzCqrhsqZupmkErMTovqdCJaqNxrKDwLfB6T6Fb3fyWYpraFVsvJp8XUMV7GZoen1BtgTEKXENRjz8CXrV1bouRTcks8XhHZnU5x","DdzFFzCqrht2sm1WY3zbr3g8bNJ5WxCydvG4dSVCqcHSEtbJ1tsoJMsWiusHdS1af3r3osGWaXkXbeDorAbYr7JeEwCp8oDoWL6kpCjx","DdzFFzCqrhsgSqVRWnmqnjAbFam2NixJjgngYWAfmk4VwsgrputdacypRYA5yxHuBsUGLcnEXZeai9WXtL6SJdn7ueH2PtongvCViBR1","DdzFFzCqrhsfxmAnRFC923CX4t5prFRap17J4oHqVbUCd6jduUsFiPQnhKrcmZzJd84RKEFcrJHBZwx4XBpS7rbfVff2MWBC9KQzac4P","DdzFFzCqrht7TZpjMvMtpPcm7mWSsE2ZMYkdLG23Nd9QiZaDims1rGj7aaMSfAA4xxuU1ZmgPYSofGVDmuraoJJNkXfsok9N2RanD5u8","DdzFFzCqrhsk9mZMarMZda2jSawN1zxRSojrve9x7nUG6TnvX5zUGcycHKhnMVvg96oTq65G8YQ3TBLAKwiEKXKMUth8udjRNE4eBqRf","DdzFFzCqrhsf6YqYXEBkamNskiHstMWdzEkQpYJmbftunh7irV95gXPykMxTktRhfk491qiQS4v9C8WSvSeF7zQ2NxhngQhXabHVE2MT","DdzFFzCqrhsiCb4pSS9iZZwQvkAKZducqcwetF8jMxRfcH3exim6cr2sPMAtcbDam8g2noA6fedoFEfCiTLfstEG4Rafb5FxasgD7MLm","DdzFFzCqrhsmpvSHyEay7NSBhy1Um2nVVpKkUipQo2B2RjbZ1pWWe1tacboBVZjEkCZxzC2SnRPUzCUcsJ1vqkpbsTJbTa4gj7j15U9v","DdzFFzCqrht6pqruFX4VRg5qeTK133HSFNaqEsWHgJ16hfEDowZRbY41Y3eVGkLCKg9TNzRrugPRuGnUHn9E2bmd5uGvDggAXxjwYXXG","DdzFFzCqrhtBVUGmJNPCXBHBmYnBP25gvhFVabBhiFN9BKhhBi3XgK6UJmFwbNsWqGAdmuzT5nFGycq5YgM82cKCPcUTdF3MsksNrNuo","DdzFFzCqrht5ytoiA9k4d7DA4u4EPfPmwZDVp16nhcoXaaJwZneMpWH8fUFucbqknjbqBKnHK6qvReWXt35QA5Mom9bXhPWTvtiCFzVm","DdzFFzCqrhsgiswohN213z2kuNyEs5nLss1UvVBbfsj1NjhK3F1eMMsXFJECW8YSGX1ZcNVj5sdKXvEoJpuGjMg9wLnMSPaeXfAGJzgg","DdzFFzCqrhsysHdzyMDNGhvhbHA6zmengNHMPeKvbdRRtwYDRButAf5YqzuevP7hgNgkifVZZSw49U1TpLWZVMPwRPk2HYEWCZePxjrn","DdzFFzCqrhskRw75W7xg8afzaXZnGupJCY1obzgc1XUDUF1P9x2B8nwfh9eBoJV3eS8BYvGfkTdaZDKyWNqLNAMQZzrHEdWqd2NugVTJ","DdzFFzCqrhsfFRuaro9GA3oN3w9BBiBRaNtH1SECessgyX3FSkxCshEPj3TZer9jHpWNd98r5WnhSgwDRgeoV2qbhzjUde2JuTFSaTsZ","DdzFFzCqrhsv9SUxjoAv6Yxyp4SWooVcdxpcJhUiarX9vvnPy8j7hsrwrwnt6tXuCDtEiyc8hN3ogByacwui85vS5zb9nmbRBdBnVeoX","DdzFFzCqrhsx7Ybc6Te4Lr5aEVFee1i9nLZDJXYaDj1qia9nQYqp6jTzTfAjj8i4JfzU5LiSJe7u1Tn5jeb9ts3PfuSqKMsBTVA8MikK"],"addressesOutput":["addr1q9atjfpqwdtg7ytz0pz9zcaqvx8zr2uv6ysvc4csqynr683dzefudzxhadht99nh8gv4l3z93d486ygllgxuh2drrrpsdw6fws","DdzFFzCqrhsxepcu39p1v9jW2Gg1HbJz8KYMAqYJux14n8iRPJYrBZ4d2gcHRVJ6E9hX9YrLitutrMbJv1CuJMd8FuZGiUsVpTGmEqhS","DdzFFzCqrht89LKgmrJXXCV8CivTc9wvgsucDrXfCazMEUKpvd7BBC4ARt2JCbg64ZhVxvhoMYFvNHs5CuhL5uEdKwUeBA1q3k8JRBkN","DdzFFzCqrhsn7Hb7zQii8VbkANYdLebWTwmNhkCdr853MLwRZwJ5nTmdaiuYciaxubwVsadrhvwtfrh4B1kGMZPJSntpUxtDuTcCFqB1","DdzFFzCqrht8nxgKCyWeYxNHpdBN5qzVix2vKZHpUhAGReagFGyh3KA1iULyqVP9Rj6EqdaKotfcBEWywvxovKY6qoPuvACJPKYZNVup"],"fee":1118321,"totalOutput":73004359570,"tokens":[]},{"hash":"6555b022749d38b248bdf1e110edfe817e54ca7f9e301d6125dd3349084f689c","blockNo":8296037,"blockHash":"af9c6ca80159a6ece69ef3f4ee3460b927b0b948f26d731c060c39ef207062a7","epochNo":389,"epochSlotNo":1090,"slot":82685890,"time":"2023/01/20 22:03:01","addressesInput":["DdzFFzCqrht7R5qJYN53fKv91Mvm4oUq5AT681Q3P7jFYuu6afugXCaUnm8pRAEusK9stnFTwwrGz6rThQNwgqwbU7iiXqsRWxRELhR5","DdzFFzCqrhsvoStD8wazRdXSDmyLSSdWP5vVUnrB3YHhP61Q2N1b5CcfL1txTttdNXHbuyHXYMYCJdAbRgc2kyYBqxMmAR6sHUEvxt7b","DdzFFzCqrhshDpsmxSHyWg8b5GaVYTSFCnyAWjdcwJNgFtQJuZvzxv6X24VF5L8mvYm6HKKderqTUUXJs1R8RWV9aBg7JzGQXxQtq6KT","DdzFFzCqrhspSRSHXsj5T7mNzi7jJKTmgdKjKbSQoKxfiofGbLnnR19j77tjTp5ZaMPureKonHEAP7qnqRG1yAxAR4WjDKSFBYYQCNAr","DdzFFzCqrht1Hc2Rtb5upFAN9Fn23WA4RGXyyBETSyGWzHdVTqS14NaULV1JTudWPWgbDDDCMHXsyAUTUun1Vcn8jYruQy3Ygh2bPASp"],"addressesOutput":["addr1q9atjfpqwdtg7ytz0pz9zcaqvx8zr2uv6ysvc4csqynr683dzefudzxhadht99nh8gv4l3z93d486ygllgxuh2drrrpsdw6fws","DdzFFzCqrht6pqruFX4VRg5qeTK133HSFNaqEsWHgJ16hfEDowZRbY41Y3eVGkLCKg9TNzRrugPRuGnUHn9E2bmd5uGvDggAXxjwYXXG","DdzFFzCqrhsgiswohN213z2kuNyEs5nLss1UvVBbfsj1NjhK3F1eMMsXFJECW8YSGX1ZcNVj5sdKXvEoJpuGjMg9wLnMSPaeXfAGJzgg","DdzFFzCqrhsgSqVRWnmqnjAbFam2NixJjgngYWAfmk4VwsgrputdacypRYA5yxHuBsUGLcnEXZeai9WXtL6SJdn7ueH2PtongvCViBR1","DdzFFzCqrhsf6YqYXEBkamNskiHstMWdzEkQpYJmbftunh7irV95gXPykMxTktRhfk491qiQS4v9C8WSvSeF7zQ2NxhngQhXabHVE2MT"],"fee":953761,"totalOutput":54003881496,"tokens":[]},{"hash":"89437c148cab838f258fbb50d8bc921d3f1f22b07e539d8f38ec543c83de0103","blockNo":8296007,"blockHash":"2e00e7612e87585d69e67b13ae2c9204bbd78ec1d5699266942826680b149abd","epochNo":389,"epochSlotNo":536,"slot":82685336,"time":"2023/01/20 21:53:47","addressesInput":["DdzFFzCqrht8K8EF7bLBzTvQ9xh9cApUB1SJBuzXBuWhH6wH5BWJvH5DoGN4iHwTwT1vVxQSeZE9PgbNwS6eowRRMq6DfiMv5MPNWN63","DdzFFzCqrhseDWt6fHVxRvdHS6Zv7tAJcvG8Mf8PMzjCJMfUQSqQ1ykLsgHkapHCnzN3DmMiipBFJ3mg7pwNjCDGAbb5R3DkLuVMaCDa","DdzFFzCqrhsea3FtK3wkv3iYHdHiW96thW25gRFVWayp75QMnPQAXWbJNavh1NDTdGRuDanaoZrKnkgZpSLwHQVZNg2D6EoWEF25dGgN","DdzFFzCqrhsq7JpFYbBM6F2YVjUQbMUsVYN1tKTnwZYqdCtbNnWWyjPevEM9F4NhfNC8nHx5jQh8oR22TJN2w5e8rnpYMLngtSpBAtLi","DdzFFzCqrht1zdYjyXs6TEiennQuu1XcCMxy5K97SmMdmxo3FgcG2LKPYwu6vujD9nCaA4NNJURo6RLg8TjvxwgssrzH1dAvJQf51deu","DdzFFzCqrhsk9mZMarMZda2jSawN1zxRSojrve9x7nUG6TnvX5zUGcycHKhnMVvg96oTq65G8YQ3TBLAKwiEKXKMUth8udjRNE4eBqRf","DdzFFzCqrhsea3KbvhktB26HmAdu15VjbKWLREaYrPwE9kD1HevsNSH1jLaAwLfB8aEHPE8CcBgGT8gTGtD1kVup7tmQvjJ92eAoK5iu","DdzFFzCqrhtBWWCdiJsyAKrFGbxQT1LPZEjiU6AavxTWTvMkP7yymicahj2uDzwdw1G2qM5tLwfGQnUhwRpwFc17VUMrLCcSRACyLTWh","DdzFFzCqrhsfHbsREJSCMVhPpKadRe84we4SFk6N2TiAQSeUJxpK9rVSNS8EC1GrWiu5SxEDpkyzKeNf68957g9ygcJybsVRpj3NZzMo","DdzFFzCqrht7niMqvTE6ZzivJ56ymiPcvsnR4t9xChB3ksc9ce9c9iwVMkW7FEwZq4CRor2JnadF7KXYJWYKmciPzee5a1XsAiqs1vL2","DdzFFzCqrhsuzSYCz9gudPMeszxj5YuBhQbhncKwv727yUHTv38BoyV4xM7C8qbc25MPnFCsxSC2R37izTAA5ngFNC9w2p78Wm3Bm3HD","DdzFFzCqrhsoPeczhM2S2v5Ty8fyhNtN7DqDGDKp6oqrPYGnb283fTvoYoPnTJ59YypHf5MoPpj5277M1KWc6kvpRmFidyCv7bmvjsEb","DdzFFzCqrhsu9A8dBfhC9k2aN4EvxNSfQy2ds79o4ZzEefqfNtD9AfYH4jv5wZ6kfGJwRWESs7USwzQBiG68ABXiuXBfy7wiuuYacBzR","DdzFFzCqrhst3m1DSCQLFdqGE4GvAa33j6UNY2E7WpG5hnR1s6dHNai7i1hFVuFMzZADQJBqDaFk2x3rQ6cAFVcSp11hZSi8VY6JcgXU","DdzFFzCqrht4N4uY14Kxn8ionuymAx3rztZ3JTyaNqL9jRMDbKQu5xNSY8kNBsS87p4Eug9mPkwnq89mbQLgk8NJ8Q24R2VfSJDZnKYL","DdzFFzCqrht8rWXuh4LmoVZZUB12NT6o25XZBZywzJPWespcFx899s64qDuoP1mKCM5oZKURTRTX9TMem4j3Nyu9jGCFyaC1zRqvEUpZ","DdzFFzCqrhsu9A8dBfhC9k2aN4EvxNSfQy2ds79o4ZzEefqfNtD9AfYH4jv5wZ6kfGJwRWESs7USwzQBiG68ABXiuXBfy7wiuuYacBzR","DdzFFzCqrhshzg4dk8VSMZuSjbbX6BJNys3SBsdzdQbZHshh3hFpDZ6FviaYYkDqMAN3M49CWWzYGCFv1RoVV2mJh6yKx7EVPyUFEMKv","DdzFFzCqrhtAUmQ95QzTcoQR3TKXaBAFEe1oq99eJHM6B8w3zjKCDmF71HyPdEej5ZYN3jRUomXgU9P8D6tgmy3dCBius6YwsDbRYinL","DdzFFzCqrhseAqpDfnbQqt7xqcFNvPwpkCgyKPjBU4yU3LJ3HaQMKday8T8r1zhWpM8R2wrYMUTUxdJp1Mo3EwVeHVgWNY7PyuDgJFCF","DdzFFzCqrht8PCwQMtKF6XQbX7dXmDaS5oFSVJbDue4KkiGhGaxWZxRYKCBqqMARZoG5VexyFsEj5GGvHQCL7TR6wsKoWvvRDTacRnFj","DdzFFzCqrhstyb7uYwsaqV9UXubFypu2gkcbk5ZaaTTq1TDednYPfoQMr6sTKvXoCYsNtSmzXNivMLwfy8ppLVtqAS9ogsdmwkMoZ9xw","DdzFFzCqrhsfWmHeUSVUotCNLogBeXz5edA5X5PWSzPDbCdQVYK79EAs3N17wu1fPC1TFHEWF3THHRshkzijGPQVtHoM5ozcw4dV2rdc","DdzFFzCqrht1hyBdaoJbYEWKHjjVQFfouCr9aAFmcNhGrwCryuSPcJKXgnpvJSEKzDjXqC3L55YjoQyV857ZMRZ9vss4ZKPHHpfhwkCK","DdzFFzCqrht5D8V4fNS5o6p5A8FVDYtNebsG6qHUTzAjtqaAfg8FvUR8fAoy5ncBFoRJ1xYmGagCmyPAv2m5jtsUPKqTDZRMutjLpQip","DdzFFzCqrhszwvUoWsTfyyiCN1GV33HoVcsn3YnE94BpFNeyexKq2qXzQrb3GbaM1dbTY7BaR4XjCJoTwof2rEynEL6sSxbRzaj5zTy1","DdzFFzCqrht6tPefbbqRMpdUMF39CizUXHFHPU7mfzNZN7SmBjiN8q8bngHTq6y7D1FLzYwnmKUzhytwzAjFQsnFFKWgaeEjpnHrY85e","DdzFFzCqrhsrNW7L35iXwHdvQcYnomGD4GnHQ99hi8rzQ1rGprTor6FadzFY1LtcU9S58FHcUESBobWdnMQFemvq1ErPJMgnd9qQvWh2","DdzFFzCqrhspw4sdLUipyfHmRsdTp8UTJHEppEKoHwtDJViwq6d9scsEsi3kCgLmbVcTBHqsZZ3AFeusz8G1L7NB7RbGcwEF4Z1BfcC1","DdzFFzCqrhsuzSYCz9gudPMeszxj5YuBhQbhncKwv727yUHTv38BoyV4xM7C8qbc25MPnFCsxSC2R37izTAA5ngFNC9w2p78Wm3Bm3HD"],"addressesOutput":["addr1q9atjfpqwdtg7ytz0pz9zcaqvx8zr2uv6ysvc4csqynr683dzefudzxhadht99nh8gv4l3z93d486ygllgxuh2drrrpsdw6fws","DdzFFzCqrhshDpsmxSHyWg8b5GaVYTSFCnyAWjdcwJNgFtQJuZvzxv6X24VF5L8mvYm6HKKderqTUUXJs1R8RWV9aBg7JzGQXxQtq6KT","DdzFFzCqrhsvoStD8wazRdXSDmyLSSdWP5vVUnrB3YHhP61Q2N1b5CcfL1txTttdNXHbuyHXYMYCJdAbRgc2kyYBqxMmAR6sHUEvxt7b"],"fee":1008321,"totalOutput":98099614940,"tokens":[]},{"hash":"a4c54331b5bde3192a6177ff2c50fd194dad19002575e53e7f5bee604f79c33f","blockNo":8295845,"blockHash":"bad8a6e569f5683e96fd22e742d9a8eacd57190dddd4c3c55bc41dac6d4d984d","epochNo":388,"epochSlotNo":429321,"slot":82682121,"time":"2023/01/20 21:00:12","addressesInput":["addr1q9vj9w32w77p47ca725hantcf5nrzcex66vqq58kqm4l04y6hn99676mvdj6qvd34vfqh3jx6vy8tyfkuy6u3xcghq8sex2gzq","addr1q9vj9w32w77p47ca725hantcf5nrzcex66vqq58kqm4l04y6hn99676mvdj6qvd34vfqh3jx6vy8tyfkuy6u3xcghq8sex2gzq"],"addressesOutput":["addr1q8pmkcrttfhmx69wew50n7mu47j0t3n2tce7qwcrpqq7pe273es7ll4phmnhhjd0l04zv0ykce2dh7duv3lcnmnksqnsj4a25u","addr1q9vj9w32w77p47ca725hantcf5nrzcex66vqq58kqm4l04y6hn99676mvdj6qvd34vfqh3jx6vy8tyfkuy6u3xcghq8sex2gzq","addr1q9vj9w32w77p47ca725hantcf5nrzcex66vqq58kqm4l04y6hn99676mvdj6qvd34vfqh3jx6vy8tyfkuy6u3xcghq8sex2gzq"],"fee":197181,"totalOutput":19978398,"tokens":[]},{"hash":"7899ab6d6ae3b7d5f2103e02e975b544b9e3d6cf0b34f7bb61725a29c2345ecf","blockNo":8295838,"blockHash":"7eb6e68f36f32bff3069cb563e40d6d8c7dd07bf36c2f45f2ff774c2b14b2aaf","epochNo":388,"epochSlotNo":429148,"slot":82681948,"time":"2023/01/20 20:57:19","addressesInput":["addr1q9vj9w32w77p47ca725hantcf5nrzcex66vqq58kqm4l04y6hn99676mvdj6qvd34vfqh3jx6vy8tyfkuy6u3xcghq8sex2gzq","addr1q9vj9w32w77p47ca725hantcf5nrzcex66vqq58kqm4l04y6hn99676mvdj6qvd34vfqh3jx6vy8tyfkuy6u3xcghq8sex2gzq","addr1q9vj9w32w77p47ca725hantcf5nrzcex66vqq58kqm4l04y6hn99676mvdj6qvd34vfqh3jx6vy8tyfkuy6u3xcghq8sex2gzq","addr1zxgx3far7qygq0k6epa0zcvcvrevmn0ypsnfsue94nsn3tvpw288a4x0xf8pxgcntelxmyclq83s0ykeehchz2wtspks905plm","addr1q9vj9w32w77p47ca725hantcf5nrzcex66vqq58kqm4l04y6hn99676mvdj6qvd34vfqh3jx6vy8tyfkuy6u3xcghq8sex2gzq","addr1q9vj9w32w77p47ca725hantcf5nrzcex66vqq58kqm4l04y6hn99676mvdj6qvd34vfqh3jx6vy8tyfkuy6u3xcghq8sex2gzq"],"addressesOutput":["addr1q9az5fzssfjdfas6h6pwlpznhd7zvkt7fq48t8rtul60ejff7qmm8rxkte0kvhtx4ksq53prtltapyrcg7pxt6zqrd9ql58fa5","addr1q9cwvremt6n320s2e3agq0jyq82yhrk3htsu0w426xnz5us70z4w0jgvcdkkynmm8wmds66jd9kusnjfpu6raw5fqp0sr07p5w","addr1qxf66h0ygya0g69g4lymefflm44sv4vfhsz26ss34u8rmk7jr4pxcpcqjq8cht6zkgux7gzwvqutgft2p3wqutvhdnrqnmjszv","addr1q9vj9w32w77p47ca725hantcf5nrzcex66vqq58kqm4l04y6hn99676mvdj6qvd34vfqh3jx6vy8tyfkuy6u3xcghq8sex2gzq","addr1q9vj9w32w77p47ca725hantcf5nrzcex66vqq58kqm4l04y6hn99676mvdj6qvd34vfqh3jx6vy8tyfkuy6u3xcghq8sex2gzq"],"fee":476225,"totalOutput":670175579,"tokens":[]},{"hash":"e14d769b38ceaa2e2c47a832bc2ff35b088e202d4e853fdc6dffccfcc74a1fb3","blockNo":8295772,"blockHash":"7c5df8f6f9c6bffbcea841d1b148626ebbe7c3d30b3ecd61b9e47de1df5727f0","epochNo":388,"epochSlotNo":427953,"slot":82680753,"time":"2023/01/20 20:37:24","addressesInput":["addr1zxgx3far7qygq0k6epa0zcvcvrevmn0ypsnfsue94nsn3tvpw288a4x0xf8pxgcntelxmyclq83s0ykeehchz2wtspks905plm","addr1q9vj9w32w77p47ca725hantcf5nrzcex66vqq58kqm4l04y6hn99676mvdj6qvd34vfqh3jx6vy8tyfkuy6u3xcghq8sex2gzq"],"addressesOutput":["addr1q9vj9w32w77p47ca725hantcf5nrzcex66vqq58kqm4l04y6hn99676mvdj6qvd34vfqh3jx6vy8tyfkuy6u3xcghq8sex2gzq","addr1q9vj9w32w77p47ca725hantcf5nrzcex66vqq58kqm4l04y6hn99676mvdj6qvd34vfqh3jx6vy8tyfkuy6u3xcghq8sex2gzq"],"fee":252242,"totalOutput":13195344,"tokens":[]},{"hash":"216cbd76abb90b0eb35b6d59e27a83cdbd03b2607391be002fa6f4d6aa3c2f1c","blockNo":8295763,"blockHash":"c508c8ee38a23ed640dff05b0892309bb89ad440aab16cecf7fc735d8fead028","epochNo":388,"epochSlotNo":427830,"slot":82680630,"time":"2023/01/20 20:35:21","addressesInput":["addr1q9vj9w32w77p47ca725hantcf5nrzcex66vqq58kqm4l04y6hn99676mvdj6qvd34vfqh3jx6vy8tyfkuy6u3xcghq8sex2gzq","addr1zxgx3far7qygq0k6epa0zcvcvrevmn0ypsnfsue94nsn3tvpw288a4x0xf8pxgcntelxmyclq83s0ykeehchz2wtspks905plm","addr1q9vj9w32w77p47ca725hantcf5nrzcex66vqq58kqm4l04y6hn99676mvdj6qvd34vfqh3jx6vy8tyfkuy6u3xcghq8sex2gzq"],"addressesOutput":["addr1q9vj9w32w77p47ca725hantcf5nrzcex66vqq58kqm4l04y6hn99676mvdj6qvd34vfqh3jx6vy8tyfkuy6u3xcghq8sex2gzq","addr1q9vj9w32w77p47ca725hantcf5nrzcex66vqq58kqm4l04y6hn99676mvdj6qvd34vfqh3jx6vy8tyfkuy6u3xcghq8sex2gzq","addr1q9vj9w32w77p47ca725hantcf5nrzcex66vqq58kqm4l04y6hn99676mvdj6qvd34vfqh3jx6vy8tyfkuy6u3xcghq8sex2gzq"],"fee":311765,"totalOutput":16283566,"tokens":[]},{"hash":"dc4f940a11a9cf2e1db05f2c033700d6f127ee2a92fd150c2eac1409c9a6769d","blockNo":8295164,"blockHash":"6f408120a76c2e3ca8c71fca412eab0d4424ea770f121586389b9cb7adb4ee09","epochNo":388,"epochSlotNo":414959,"slot":82667759,"time":"2023/01/20 17:00:50","addressesInput":["DdzFFzCqrht49MbyV5TzibEgJ9PwtHXNqivPJcLofqifLDB2uZUAxMfYqRQXwyePnmrhscMLbWkzNzvpFAYGwxLrxeuWT2w5RGXqEaE5","DdzFFzCqrhsttiNC2Dypi59pq1cRAWXxxcDVJRKXeNBNqhL1b33Fa5YPXhBvnEnbqUDyU9NQME8RR5T2EAdhUpApr1tYBs555WPmfhmk","DdzFFzCqrht3APWoENRNXtKXJT1dm9C6kcfyYPBjPh8LSPfgPncKeZbkYN7MGwQjD5EF9ax8NJEVYGWb3EFvmM7Dvoe66UQHjaxPicqG","DdzFFzCqrhsjv1Rck3MuoeZ1VVsGSBgWNTGWECHprbyfqGaemALKZfZUr6fZmE5eDhCYq6eFPWzqjWhFrFr4NtY69C2poYXda7kCm9vC","DdzFFzCqrhsjsRNjvmM82f4uhEhTXqVJvyMbBLXG5RiaW9YdBu46jqhZnYL2kHi9pdMaWbCkKGuvi9hLuWt7UygTc7NafonMmg7mDcUK","DdzFFzCqrhszXfBov2gyzAh9cmuotEktdG5gex3mrmMSnSWznZahhgm7ufQXFxACdnAWFBjE5y6GHvfbd6KJwUnp54roDheMELAi4Pek"],"addressesOutput":["addr1q9atjfpqwdtg7ytz0pz9zcaqvx8zr2uv6ysvc4csqynr683dzefudzxhadht99nh8gv4l3z93d486ygllgxuh2drrrpsdw6fws","DdzFFzCqrht8rWXuh4LmoVZZUB12NT6o25XZBZywzJPWespcFx899s64qDuoP1mKCM5oZKURTRTX9TMem4j3Nyu9jGCFyaC1zRqvEUpZ","DdzFFzCqrht1Hc2Rtb5upFAN9Fn23WA4RGXyyBETSyGWzHdVTqS14NaULV1JTudWPWgbDDDCMHXsyAUTUun1Vcn8jYruQy3Ygh2bPASp","DdzFFzCqrhstyb7uYwsaqV9UXubFypu2gkcbk5ZaaTTq1TDednYPfoQMr6sTKvXoCYsNtSmzXNivMLwfy8ppLVtqAS9ogsdmwkMoZ9xw","DdzFFzCqrhsxE8csMK7cDKDWEJk1NRHZ1nWcMxoWWSQxzXKyJ6dDm5yHFtPa1wVDjZZkVaL2FHAVCEH6bYY7gbVhX6coFHUUpd7aoxwe"],"fee":963441,"totalOutput":72546770129,"tokens":[]},{"hash":"3ce01d799997cd62bd3843b9227b607294b72ada9953ff3ffa95281fa628590c","blockNo":8295101,"blockHash":"9e93067107c45013b91c107e54d460b3d2761ab0b8bb7d5c9acecf5b8b8b711c","epochNo":388,"epochSlotNo":413558,"slot":82666358,"time":"2023/01/20 16:37:29","addressesInput":["addr1q9vj9w32w77p47ca725hantcf5nrzcex66vqq58kqm4l04y6hn99676mvdj6qvd34vfqh3jx6vy8tyfkuy6u3xcghq8sex2gzq","addr1q9vj9w32w77p47ca725hantcf5nrzcex66vqq58kqm4l04y6hn99676mvdj6qvd34vfqh3jx6vy8tyfkuy6u3xcghq8sex2gzq"],"addressesOutput":["addr1zxgx3far7qygq0k6epa0zcvcvrevmn0ypsnfsue94nsn3tvpw288a4x0xf8pxgcntelxmyclq83s0ykeehchz2wtspks905plm","addr1q9vj9w32w77p47ca725hantcf5nrzcex66vqq58kqm4l04y6hn99676mvdj6qvd34vfqh3jx6vy8tyfkuy6u3xcghq8sex2gzq","addr1q9vj9w32w77p47ca725hantcf5nrzcex66vqq58kqm4l04y6hn99676mvdj6qvd34vfqh3jx6vy8tyfkuy6u3xcghq8sex2gzq"],"fee":232029,"totalOutput":16603951,"tokens":[]},{"hash":"5a0bd045d39ff12cb9aaa264774e7d62e1a6c0963822f621ebe612cbbdb6b530","blockNo":8295095,"blockHash":"509a4008e731ed3164781666bb16ba6168c06c7a9f128fd40f3ea0c119b7de6b","epochNo":388,"epochSlotNo":413488,"slot":82666288,"time":"2023/01/20 16:36:19","addressesInput":["addr1q9vj9w32w77p47ca725hantcf5nrzcex66vqq58kqm4l04y6hn99676mvdj6qvd34vfqh3jx6vy8tyfkuy6u3xcghq8sex2gzq","addr1q9vj9w32w77p47ca725hantcf5nrzcex66vqq58kqm4l04y6hn99676mvdj6qvd34vfqh3jx6vy8tyfkuy6u3xcghq8sex2gzq"],"addressesOutput":["addr1zxgx3far7qygq0k6epa0zcvcvrevmn0ypsnfsue94nsn3tvpw288a4x0xf8pxgcntelxmyclq83s0ykeehchz2wtspks905plm","addr1q9vj9w32w77p47ca725hantcf5nrzcex66vqq58kqm4l04y6hn99676mvdj6qvd34vfqh3jx6vy8tyfkuy6u3xcghq8sex2gzq","addr1q9vj9w32w77p47ca725hantcf5nrzcex66vqq58kqm4l04y6hn99676mvdj6qvd34vfqh3jx6vy8tyfkuy6u3xcghq8sex2gzq"],"fee":231941,"totalOutput":18111740,"tokens":[]},{"hash":"b50e2ae48c1ce486bad2b7131815b7db62ca003d21a0eaee56b0cc63bb3c36f3","blockNo":8294991,"blockHash":"bc006761c495cad6e8ccd0d240bb9267d6c4e6299550dd203260dc0d4cbde5fe","epochNo":388,"epochSlotNo":411111,"slot":82663911,"time":"2023/01/20 15:56:42","addressesInput":["addr1qydqwxat0x38qlcx5jly4ysm9z8h3x304qypytwss4ncs0wvs6xa7v38v6mx3jnmsa948aufl5pty77gyh726h89903qcelysh","addr1qyau90sx7tcv8mgh5vq746gq9muulj7vg2undntv5hc7scwvs6xa7v38v6mx3jnmsa948aufl5pty77gyh726h89903q6peye5"],"addressesOutput":["addr1v966ecvj47s8clsrvydkvuh0d5gttjmgl26s4p923egptlqjew972","addr1qxsv87lrjd2m3rzj5nszl63t3j6k2fmegdpns0fggnv37w7vs6xa7v38v6mx3jnmsa948aufl5pty77gyh726h89903qv32ctk"],"fee":385853,"totalOutput":27541090,"tokens":[]},{"hash":"598b449372e5db9c60bd1030a4e2db7536d8781ced7ff7a80b4b34a69e0b6f41","blockNo":8294961,"blockHash":"1f0ea52a51ebb83732f2ba7cb20a27c166efc8d88eb1a025fa1fc7d12b242c2f","epochNo":388,"epochSlotNo":410538,"slot":82663338,"time":"2023/01/20 15:47:09","addressesInput":["addr1q9q7ssqkeqe47rgcmmmzmpxecfxzvr2nuk735829h2wv02xvs6xa7v38v6mx3jnmsa948aufl5pty77gyh726h89903qvq7uuk","addr1q8rlcfcnvpfw3u6ksv78wpdwymcrt2c5cy84hfmpw6e0vaxvs6xa7v38v6mx3jnmsa948aufl5pty77gyh726h89903q0xhw8d"],"addressesOutput":["addr1v9a3pajxgpw647p4tp7mt4qwqn3kvyav5e2zlcdjfx4n2mgcnwdsz","addr1qydqwxat0x38qlcx5jly4ysm9z8h3x304qypytwss4ncs0wvs6xa7v38v6mx3jnmsa948aufl5pty77gyh726h89903qcelysh"],"fee":385853,"totalOutput":29789263,"tokens":[]},{"hash":"3c9aa8cf25c6d7414c96881d8e5af4d334b29ccb6d47b345f49fec937649933e","blockNo":8294784,"blockHash":"b8e5083549515c39abeba51ecc8dcb88c20508db523f40c8af76c3c2fad59511","epochNo":388,"epochSlotNo":406810,"slot":82659610,"time":"2023/01/20 14:45:01","addressesInput":["DdzFFzCqrhskyTw5X1Ack41H7SaBzrBwiTFnfSsEU8zi4CufuUppcLh1ims7vwkgMNNfWXLcEzPtnnocNmBh3rArJHAwcTworowsuKbw","DdzFFzCqrht5s39tCsFVn45H1oMmYMVVSfLztvq88pgeCmPznxbPGLEBfLSqLmwRcQv1giX3a12CXtB9Ngfk7prpzDjmevJpJRspP7Dg","DdzFFzCqrhsuQMxJaaxrEc5DpdW5qJoRQnL2bWm3U5VEtDSrA6t1j3gyR8PQB41ViNDpNkEN8dmpUYvKqx7dB6op56BxuQucFMHwjHc8","DdzFFzCqrhsyNwBFNm3V2cwAYjhU8sNhhbFyKjYHS37XgkWMaNVAkmD9GdAhs79aQBTWTmS5H1eUf2u3suFvLCyUCZ1tmB3eTnVjRuHY","DdzFFzCqrhsvchsLuVubehXANmVgLCczQxUNXTofZgzXThHFgcwdXP17aRuFJb2iFFLUqQmPuj6CEhcKu5vbUMQh98ifYfsiKCXN8Q8R","DdzFFzCqrhtBJPS8NfTWVGS7uNvxP4PJvvZdZeoFnWiBK7Xf3oMGC9j8R4YG47LvqNYBZjYg8ZtihpEH8YpyHTXEi8avCNKNqhMJ1UuQ","DdzFFzCqrht33WKhzeYjxhGG1ZRrCZ2kk1PdDkczSD64ywseCa3YvDENCT77mbes2fqxjuUJT2fdmjcWFsGrP17JUaM8RYWpfNBKhXih","DdzFFzCqrhsyinRmEnNezUhq453nV6hHmYNiBRu9m6Rcx59xaXk1Rkw6CbgHzm1ykwamgTbvz7dwVW4SB3uxszJEmR4hY4tEVEmRn54M","DdzFFzCqrhtC2My1VmgajGZ1MnwLnX1FGrpVKD87PWj3DRoxTo5ud1sUXrnwrVbZdceytSiNjGfjNZmvQrq4QSM97tpm1yotuiFp9wv9","DdzFFzCqrhsupdY9JD6AANXrCrQaw9mfzPmHmBDPjSp2TRidRkU3Rq4hZCeYPeLZYWStTqVjPbNRVM8hf4HoFow8aPyFuTa7iMwqNmQZ","DdzFFzCqrht2ZSG1FQ94ViDdguibqkbDWeoZzewcV2YbyiFVExtwDeQKnBooh5bTxgyWTmrDQdw66dn9WvCDurPtL67R9FuH2SVfC3jW","DdzFFzCqrhtAB8PGbEB1MdSvCEZySHXFychiFC7i59DCuParYhXbhNnERE7jtkUFWim2fm2mMzC4yFVEN4ngxMm1aXrr9ibk57akatgY","DdzFFzCqrhsvqv8fEvDD7qYs4ijt6vvoZajqd2yqhqtSAAEbAC7ZZnf7TtcVSS3sCt6QMi39LV5aq99nz53GMXKTnyEZFVc9jcZMw8nD"],"addressesOutput":["addr1q9atjfpqwdtg7ytz0pz9zcaqvx8zr2uv6ysvc4csqynr683dzefudzxhadht99nh8gv4l3z93d486ygllgxuh2drrrpsdw6fws","DdzFFzCqrhsttiNC2Dypi59pq1cRAWXxxcDVJRKXeNBNqhL1b33Fa5YPXhBvnEnbqUDyU9NQME8RR5T2EAdhUpApr1tYBs555WPmfhmk","DdzFFzCqrht49MbyV5TzibEgJ9PwtHXNqivPJcLofqifLDB2uZUAxMfYqRQXwyePnmrhscMLbWkzNzvpFAYGwxLrxeuWT2w5RGXqEaE5","DdzFFzCqrhsjsRNjvmM82f4uhEhTXqVJvyMbBLXG5RiaW9YdBu46jqhZnYL2kHi9pdMaWbCkKGuvi9hLuWt7UygTc7NafonMmg7mDcUK","DdzFFzCqrht3APWoENRNXtKXJT1dm9C6kcfyYPBjPh8LSPfgPncKeZbkYN7MGwQjD5EF9ax8NJEVYGWb3EFvmM7Dvoe66UQHjaxPicqG"],"fee":1031201,"totalOutput":63701423078,"tokens":[]},{"hash":"73d5acb9a17e36451052ec6a6bf8785404beb039429cecbd0a8633cac207b2a7","blockNo":8294663,"blockHash":"e57cf6b1e63751603301d0c98fab4d15482476d824278b858161d504e0a88cb7","epochNo":388,"epochSlotNo":404427,"slot":82657227,"time":"2023/01/20 14:05:18","addressesInput":["addr1qytcehgjfjramhcskcr8053yl69p5stczcmhqwsw4cg0utwvs6xa7v38v6mx3jnmsa948aufl5pty77gyh726h89903qx9mmud","addr1qyau90sx7tcv8mgh5vq746gq9muulj7vg2undntv5hc7scwvs6xa7v38v6mx3jnmsa948aufl5pty77gyh726h89903q6peye5"],"addressesOutput":["addr1wxaptpmxcxawvr3pzlhgnpmzz3ql43n2tc8mn3av5kx0yzs09tqh8","addr1q9q7ssqkeqe47rgcmmmzmpxecfxzvr2nuk735829h2wv02xvs6xa7v38v6mx3jnmsa948aufl5pty77gyh726h89903qvq7uuk"],"fee":400505,"totalOutput":33059679,"tokens":[]},{"hash":"f8920096f609c09c9094b07f147d455b544586f21e3512214049f75aabb7bac5","blockNo":8294638,"blockHash":"e9d20694e560e2c33abc3d66d0c16bdf9561b8cf4735794d283ebf75e0c44ce9","epochNo":388,"epochSlotNo":403715,"slot":82656515,"time":"2023/01/20 13:53:26","addressesInput":["addr1qx3dgkfdsey4smxze00m7gq96fuy8k33xdd3lqmktnc8zx7vs6xa7v38v6mx3jnmsa948aufl5pty77gyh726h89903q33tp0x","addr1qyau90sx7tcv8mgh5vq746gq9muulj7vg2undntv5hc7scwvs6xa7v38v6mx3jnmsa948aufl5pty77gyh726h89903q6peye5"],"addressesOutput":["addr1wxn9efv2f6w82hagxqtn62ju4m293tqvw0uhmdl64ch8uwc0h43gt","addr1qytcehgjfjramhcskcr8053yl69p5stczcmhqwsw4cg0utwvs6xa7v38v6mx3jnmsa948aufl5pty77gyh726h89903qx9mmud"],"fee":402661,"totalOutput":26880767,"tokens":[]}],"totalItems":13156,"totalPages":658,"currentPage":0}