{"data":[{"blockNo":8057351,"slotNo":77788306,"epochNo":377,"epochSlotNo":287506,"hash":"643214e4b070c85ee90e3a0c4db1366092b9696248da9153c88eb61970e76da9","time":"2022/11/25 05:36:37","txCount":12,"totalFees":5054708,"totalOutput":4381240292614,"slotLeader":"cdb10209d937fc1559c635e35b9147febde5307b4a7d276f868775cd"},{"blockNo":8057350,"slotNo":77788274,"epochNo":377,"epochSlotNo":287474,"hash":"b86a61b0fca5a5a0c28559b9e07bff2d4fefbc69cfceb788cccdb40c7c1847a3","time":"2022/11/25 05:36:05","txCount":9,"totalFees":3017060,"totalOutput":2569127457430,"slotLeader":"2f606921baedcad68bbc765b9ab82b2b201d42bd35262517ce5d7d96"},{"blockNo":8057349,"slotNo":77788256,"epochNo":377,"epochSlotNo":287456,"hash":"6abbbcd51cf97bcf240fab7e9d3be661bd5c1ec30a95b12bb91633fa41cc980a","time":"2022/11/25 05:35:47","txCount":13,"totalFees":2819224,"totalOutput":131080939687,"slotLeader":"707725a41873178814530f39fb14a4b2842d05377e2b62a546fe2014"},{"blockNo":8057348,"slotNo":77788236,"epochNo":377,"epochSlotNo":287436,"hash":"40d20645e9be2b2613222c4a41dcaadce317a8c7c73304d77ecd667a347591b8","time":"2022/11/25 05:35:27","txCount":9,"totalFees":3755354,"totalOutput":1402151596732,"slotLeader":"4594f67c08f0007d1fac243169624b710375cb834bbe81f6b4d79f32"},{"blockNo":8057347,"slotNo":77788216,"epochNo":377,"epochSlotNo":287416,"hash":"bea5220b63b5bde26636557cf0e412e5a2efe094a7455cfa46e38aa430831bac","time":"2022/11/25 05:35:07","txCount":21,"totalFees":8949625,"totalOutput":1596575758404,"slotLeader":"b62772f5982c919ff658977c4d3a0c937bcfd8127aba2c405266e217"},{"blockNo":8057346,"slotNo":77788191,"epochNo":377,"epochSlotNo":287391,"hash":"810cfd38950b211b4a164c2d85b9da01f19ba0d02bc0b32543f9584b39629bf8","time":"2022/11/25 05:34:42","txCount":17,"totalFees":5660374,"totalOutput":18042158895917,"slotLeader":"77b0a93c26ac65be36e9a9f220f9a43cbc57d705fc5d8f1de5fdeea1"},{"blockNo":8057345,"slotNo":77788158,"epochNo":377,"epochSlotNo":287358,"hash":"02f0f5737061f0cb03705a8724e8811316c0b3b10354dfcbb63670470d3e8065","time":"2022/11/25 05:34:09","txCount":2,"totalFees":358502,"totalOutput":9461334275,"slotLeader":"a3a542bf3a44361dad63349afcef16797afb957d1354e77bc0d37846"},{"blockNo":8057344,"slotNo":77788153,"epochNo":377,"epochSlotNo":287353,"hash":"56ce535c462c68e1079f02d13047a11f2ec75f5ab23ef4efcfd2f24193ef88fe","time":"2022/11/25 05:34:04","txCount":3,"totalFees":1552795,"totalOutput":334326128942,"slotLeader":"a503e42a2c6ef347d834fa404fa4d4bfa6dfb48256ff95b067483980"},{"blockNo":8057343,"slotNo":77788149,"epochNo":377,"epochSlotNo":287349,"hash":"602507c72841d7830f69a6f6c2d825ecaff8736c80c4a7c48bad38d40537f7e8","time":"2022/11/25 05:34:00","txCount":38,"totalFees":12497918,"totalOutput":307017275036,"slotLeader":"de950fe87de4b25c5a63b5ddf89578adf92e36cdf2035f1da11797d4"},{"blockNo":8057342,"slotNo":77788072,"epochNo":377,"epochSlotNo":287272,"hash":"af2d7d80d185b352dbee07bbd9fed949044a03c411ee61abd6445bc50cd17717","time":"2022/11/25 05:32:43","txCount":20,"totalFees":8407834,"totalOutput":1360404475488,"slotLeader":"7277d55c0b15a03495c0f768e71f88470d91772bc90ef0e4bd1a153f"},{"blockNo":8057341,"slotNo":77788040,"epochNo":377,"epochSlotNo":287240,"hash":"2381aa2df02873ff9d01afa7bd87ac6cc7d6811cc950f89bdf568d6c9d549095","time":"2022/11/25 05:32:11","txCount":7,"totalFees":1752581,"totalOutput":51729752466,"slotLeader":"a2d42d873250321acca2d7cc7a5465f9060892bdbb645b4dedb28125"},{"blockNo":8057340,"slotNo":77788038,"epochNo":377,"epochSlotNo":287238,"hash":"ecb1b810c663767370e2634a8b81c3109fd210271f58d91b1d2c9023375d73e4","time":"2022/11/25 05:32:09","txCount":6,"totalFees":2222949,"totalOutput":197852349575,"slotLeader":"50e113d1ada46a83a16d5ee6cfdc1a8baed6634c9f046ed30131eb11"},{"blockNo":8057339,"slotNo":77788025,"epochNo":377,"epochSlotNo":287225,"hash":"38a6ee6d24ea8a961d3f6c1a4b4b3ed8356826c8b8a743401abebe64ecd36578","time":"2022/11/25 05:31:56","txCount":5,"totalFees":2560196,"totalOutput":1384867601325,"slotLeader":"f059ed9ef469a045d29c0f48799fb6cab08c0abbc0fd1f736a5fced5"},{"blockNo":8057338,"slotNo":77788016,"epochNo":377,"epochSlotNo":287216,"hash":"56227327675728af43f8ac0d5222f0f3fac93a42ffdf0c5e5c17901925f6d570","time":"2022/11/25 05:31:47","txCount":2,"totalFees":500534,"totalOutput":5160654602,"slotLeader":"075578defd7ee97cbeaa2937e5819099cb3835ac9f9c8b1a2c3a3578"},{"blockNo":8057337,"slotNo":77788008,"epochNo":377,"epochSlotNo":287208,"hash":"7b46a3c25fe37b59cde331ecb57c310a15a57276c559267813007266b2a5b0df","time":"2022/11/25 05:31:39","txCount":5,"totalFees":1896449,"totalOutput":19208149076,"slotLeader":"e069112add6af5fa1a11a1716357de1848c22229eb2eaa007702d5c9"},{"blockNo":8057336,"slotNo":77788003,"epochNo":377,"epochSlotNo":287203,"hash":"fbd4b56cb79d2e7ef94e6b048fe66dc44f46a9ac1244303f4e1f1ac627aa57c7","time":"2022/11/25 05:31:34","txCount":11,"totalFees":5024005,"totalOutput":206905375877,"slotLeader":"c46c687b40950ea3d52554706f65a763954cce334a2e4e0d8f1176a4"},{"blockNo":8057335,"slotNo":77787993,"epochNo":377,"epochSlotNo":287193,"hash":"c29a59037aeb408bb91d9446f3fa0fa16616fb99f650c2a38585987489ae7a61","time":"2022/11/25 05:31:24","txCount":12,"totalFees":7185446,"totalOutput":190365768571,"slotLeader":"2c88e3a7f6279bda114f92dbbcd78b734f0ebff40ff2bdce647e9c53"},{"blockNo":8057334,"slotNo":77787982,"epochNo":377,"epochSlotNo":287182,"hash":"2a7a49abecc691fe6955cd617b7827643dc50c78799c99a3b526e13fc3919f69","time":"2022/11/25 05:31:13","txCount":12,"totalFees":5536367,"totalOutput":1690142541181,"slotLeader":"4013a7d086bec89ec1b2ba4e43633012d02e66c54278c229b324a982"},{"blockNo":8057333,"slotNo":77787964,"epochNo":377,"epochSlotNo":287164,"hash":"267423ca31840dac4eebc052912301a9eed2a59d77aaad81920c703c55060aaa","time":"2022/11/25 05:30:55","txCount":10,"totalFees":3279576,"totalOutput":1389984673391,"slotLeader":"cdb10209d937fc1559c635e35b9147febde5307b4a7d276f868775cd"},{"blockNo":8057332,"slotNo":77787929,"epochNo":377,"epochSlotNo":287129,"hash":"52c153888aa97debd8535ea058ec89967928abcbfb9f8cf74cb9dd958c83390b","time":"2022/11/25 05:30:20","txCount":9,"totalFees":3723507,"totalOutput":3136817795218,"slotLeader":"41b8741536cd484687a4c3adcdc07211cfce03ca58727212336acc5e"}],"totalItems":8057527,"totalPages":402877,"currentPage":0}