{"data":[{"blockNo":9037237,"slotNo":97957629,"epochNo":424,"epochSlotNo":152829,"hash":"b791046497ac33d874459ab196cb788262817c0961d51f56bcc0a1f0ae52ecfe","time":"2023/07/16 16:12:00","txCount":14,"totalFees":7981809,"totalOutput":38562992961530,"slotLeader":"727ceb44ef548cbb6f36d7023dfbd8400d48aea0c84b675beff1dd12"},{"blockNo":9037236,"slotNo":97957612,"epochNo":424,"epochSlotNo":152812,"hash":"462aae678161b8ace0901626ce863a7f70db10fc452386bbe3f02557dd82ba1f","time":"2023/07/16 16:11:43","txCount":10,"totalFees":2781811,"totalOutput":92310380156,"slotLeader":"463e481957f266d93e4decbfb73003380ab17223e0e569f71c7a525a"},{"blockNo":9037235,"slotNo":97957605,"epochNo":424,"epochSlotNo":152805,"hash":"bda1468e5f02ec63c391a8c086b1f4d01f0dda2d415467aff110b78c5a25c4ff","time":"2023/07/16 16:11:36","txCount":43,"totalFees":13785355,"totalOutput":1288897106034,"slotLeader":"c6fbd4e484a28211695206e1b53f1409e7cef8c62d3f6b24bab2f600"},{"blockNo":9037234,"slotNo":97957562,"epochNo":424,"epochSlotNo":152762,"hash":"0dc6b46e0f70a3f8cad4c7bcfc20a9f65614a21636479ddf7b5137c048714724","time":"2023/07/16 16:10:53","txCount":6,"totalFees":3744747,"totalOutput":562192989765,"slotLeader":"d765dee553a7e041d525b1782a10eb0a5e52e96ed55ed173d8bb82a7"},{"blockNo":9037233,"slotNo":97957559,"epochNo":424,"epochSlotNo":152759,"hash":"119886366f1920da836805212260401dc72d09951779dd85d51d27e9f89302d4","time":"2023/07/16 16:10:50","txCount":5,"totalFees":2810115,"totalOutput":45531623250870,"slotLeader":"00beef0a9be2f6d897ed24a613cf547bb20cd282a04edfc53d477114"},{"blockNo":9037232,"slotNo":97957553,"epochNo":424,"epochSlotNo":152753,"hash":"49d7dfe96305b526da968ee4c97938917f0906b5a11bd4ece8b57756d8d26906","time":"2023/07/16 16:10:44","txCount":15,"totalFees":6252322,"totalOutput":2649563104032,"slotLeader":"c83beb18d532234c72a304ab935982be670c22e771b227a3febc3a82"},{"blockNo":9037231,"slotNo":97957535,"epochNo":424,"epochSlotNo":152735,"hash":"b7e0e12dbf02bf56dfdc76b3630afb2b62a88d08344c473b6ae566641ba135df","time":"2023/07/16 16:10:26","txCount":20,"totalFees":9031981,"totalOutput":31968484408666,"slotLeader":"54f5f2618a3da4bb0b384895d8f3922189acbb8e9637201ebb26bc18"},{"blockNo":9037230,"slotNo":97957519,"epochNo":424,"epochSlotNo":152719,"hash":"d9533c7ac43b0354d0535fd9f0ede75136a047772133e623156d7aee140edcfc","time":"2023/07/16 16:10:10","txCount":23,"totalFees":6134051,"totalOutput":943435462622,"slotLeader":"f4762ca1dce3c32c0d7a7e6d9f8a54bf40338e99ae5f3ad0172c9a2f"},{"blockNo":9037229,"slotNo":97957513,"epochNo":424,"epochSlotNo":152713,"hash":"b543318f48120f3a378f29cb1d16b249367c4ef41d26150da8bcb4b156017503","time":"2023/07/16 16:10:04","txCount":28,"totalFees":10881669,"totalOutput":5510034157312,"slotLeader":"c94e6fe1123bf111b77b57994bcd836af8ba2b3aa72cfcefbec2d3d4"},{"blockNo":9037228,"slotNo":97957473,"epochNo":424,"epochSlotNo":152673,"hash":"f6483f05f31a0ac6d1f1035b12832348a5c99f3c4a3f5c6745d1f2b3d5def869","time":"2023/07/16 16:09:24","txCount":29,"totalFees":8636155,"totalOutput":3272074733701,"slotLeader":"fa610fe0a56f4f2bca9d08b0b84d3bf6ad2c6a6d263579927d462473"}],"totalItems":7353,"totalPages":736,"currentPage":0}