{"data":[{"txId":54503537,"txHash":"44108f1a40ca2497850e8c88ac3bd9532e2d6a48bf0dd735967c38aa0bde4623","txTime":"2022/11/06 12:47:20","block":7979678,"epoch":373,"slotNo":76172549,"epochSlotNo":399749,"stakeKey":"stake1u9vxqlq3t9xkempn7ctf7gfeutr8pxzd8g7e3kc7j8z436cs0amge"},{"txId":54503089,"txHash":"4195f006daae92a3a218a4bfa8e11a346659fdc37d72da61c25c4a05d33db84b","txTime":"2022/11/06 12:37:12","block":7979646,"epoch":373,"slotNo":76171941,"epochSlotNo":399141,"stakeKey":"stake1uy8jpspj3j9wuv7z0s092hrrrvauuf9ayckgxeqttz9wvgcgvtwxm"},{"txId":54502735,"txHash":"d8dc88f2d57f277cdf2d2e86195e3f958e87c0210459e07efff7f0fa1023b3de","txTime":"2022/11/06 12:29:28","block":7979613,"epoch":373,"slotNo":76171477,"epochSlotNo":398677,"stakeKey":"stake1uxu3cnfjv09vsxsu9t5693lneyyzwtjkz0rt6f9yr6huj4sw8gyjy"},{"txId":54502382,"txHash":"175495c04e2a44cdf48c57ef35a44ef08dd28420d8d9508eac7d6d87dc44660f","txTime":"2022/11/06 12:22:23","block":7979593,"epoch":373,"slotNo":76171052,"epochSlotNo":398252,"stakeKey":"stake1uxrwrt6ttck974w5au67kh6m7yuz02n95j8j656r292r7lsdsag3s"},{"txId":54502313,"txHash":"d94c3e347f1ad8000a45db8c5626988743474cbda898a616b6e81e083b7a9c7a","txTime":"2022/11/06 12:21:10","block":7979590,"epoch":373,"slotNo":76170979,"epochSlotNo":398179,"stakeKey":"stake1uxafrq9w6ldqpnxe043v47l5kag6ghglgkk7sgtvky2g7cg8skjkn"},{"txId":54502225,"txHash":"1d12fde2ecd75802b7607f5fefc5379a383be042d7c955a60acb7225725ddd8f","txTime":"2022/11/06 12:19:34","block":7979583,"epoch":373,"slotNo":76170883,"epochSlotNo":398083,"stakeKey":"stake1uxs8gh4k6nemlyh5h9k6rm5kaaxmzjs658zacweaejdstfs0j44lm"},{"txId":54501477,"txHash":"652ec4c5858e5b7713d22159ff31ac1249b311f7d978c0c5d6c489b5d790e067","txTime":"2022/11/06 12:06:21","block":7979541,"epoch":373,"slotNo":76170090,"epochSlotNo":397290,"stakeKey":"stake1uyrp7elsvxnedgzrz7y0rvny6m9tuphtzazw0h62ud6rrfqd7jn9j"},{"txId":54501219,"txHash":"a40dcc9eb79b224d8fd10f47b7ea46447aceae24240b5fe75bc7ffc6185c31ee","txTime":"2022/11/06 12:00:48","block":7979522,"epoch":373,"slotNo":76169757,"epochSlotNo":396957,"stakeKey":"stake1uxxkywf9j7wq450llxcy0pdx8undnt98v6wazvpd358c93s38l4jc"},{"txId":54500925,"txHash":"8c313aef64cd623cbdab66f480c3ec0ac324fe83dbd54a713c9f0d869e6e0e08","txTime":"2022/11/06 11:55:46","block":7979507,"epoch":373,"slotNo":76169455,"epochSlotNo":396655,"stakeKey":"stake1uyykqgwkkmfut7f5y4g87fd6l7y7fj4wcjalylt42q4f64qy78ph0"},{"txId":54500723,"txHash":"07ff26c21c031172379ccb0dc51c802fe9f49bcae2ef9ea3e18d3a63cd15d507","txTime":"2022/11/06 11:50:59","block":7979490,"epoch":373,"slotNo":76169168,"epochSlotNo":396368,"stakeKey":"stake1u9xdwz2klkawx2aryam4rdl3v8x5sq98fazfk4mca8glvhq75wxu3"},{"txId":54500143,"txHash":"d5e81cfe60aa9243aabff5a65dd936b373794d18fb7d2167f221eb0f9379b676","txTime":"2022/11/06 11:38:12","block":7979454,"epoch":373,"slotNo":76168401,"epochSlotNo":395601,"stakeKey":"stake1uxymuud3gk0yq8y5wpkxp7630hneyxa4sn8trqmm8eeh9zq3h439u"},{"txId":54499815,"txHash":"73fc0fb300e6b1c215f2e9bc2799731dc287c696abb9c15bc171a8e2c9c35304","txTime":"2022/11/06 11:29:35","block":7979429,"epoch":373,"slotNo":76167884,"epochSlotNo":395084,"stakeKey":"stake1uyvhhelp724p06exu9ez6fk9jfka55aqphnf3d27zamyvvqmhce6q"},{"txId":54499656,"txHash":"1bee66c0eb41dab3d34dc6bdc2f21844c34aeee268e4c4977d922c7250a470fe","txTime":"2022/11/06 11:26:34","block":7979418,"epoch":373,"slotNo":76167703,"epochSlotNo":394903,"stakeKey":"stake1u8r9uwc69cl46yusknw7ujrwc7a89el0wtv5l0sadtcte4q4h7qh2"},{"txId":54499492,"txHash":"bc51da9a7ceafdd645a09cc0bc876dbd8877928004c62fdcce24cbf4ef3724f3","txTime":"2022/11/06 11:22:45","block":7979409,"epoch":373,"slotNo":76167474,"epochSlotNo":394674,"stakeKey":"stake1u8zmrjtgcx4r3fjc8jrvj8e8mtukq204w57hedv8vzj5rrge83c9c"},{"txId":54498809,"txHash":"564b6fd572e27c862efcb819f117a58c008aad1c935d96d828a3d6dfa2690c7c","txTime":"2022/11/06 11:07:03","block":7979358,"epoch":373,"slotNo":76166532,"epochSlotNo":393732,"stakeKey":"stake1u9gvsvnwl6zeu2n5784af3gtzxprtvwxe6f77g3l6pq0fac35tv8v"},{"txId":54498804,"txHash":"3bbe4c2a2daf5e2bc0531aa1a457f8b01f6f85c3d64a00a6b264610eae5c32b7","txTime":"2022/11/06 11:07:03","block":7979358,"epoch":373,"slotNo":76166532,"epochSlotNo":393732,"stakeKey":"stake1ux6nqj88zhuawnxltae6h8k62ldh0ppnt8rv2v0m0gey3usxnaelv"},{"txId":54498802,"txHash":"b6d18b573d5d823f3803b0ac8f7efab5b0f35acf1bbdfc8a99145cdbda8c6129","txTime":"2022/11/06 11:07:03","block":7979358,"epoch":373,"slotNo":76166532,"epochSlotNo":393732,"stakeKey":"stake1u97q6cesa9fnewtmaxxwr2je8p5sgtat7a9qfwlkrqglahsqywwft"},{"txId":54498569,"txHash":"da3a81603cf362d73c2972bf89b0a1346145aa3202bc90658c61a8d24f5cd793","txTime":"2022/11/06 11:00:40","block":7979351,"epoch":373,"slotNo":76166149,"epochSlotNo":393349,"stakeKey":"stake1uxn997fqq6cvys6ln2kgqf0aljv0vmtu548sy9gqe0t3dgcna887y"},{"txId":54498296,"txHash":"bba752dbb372a659c221ae42035832e3dfef2640e66d5cde17b7228291e75e93","txTime":"2022/11/06 10:52:58","block":7979333,"epoch":373,"slotNo":76165687,"epochSlotNo":392887,"stakeKey":"stake1uy5eyv0eqqug3l65x4wk9wx7undqv5hc26xsd0p3742ulxgcxvx2q"},{"txId":54498013,"txHash":"c7cf2e77db7ece69887a791f65e061ccc81ecd2b210c00c82c09870ed03ce863","txTime":"2022/11/06 10:46:56","block":7979322,"epoch":373,"slotNo":76165325,"epochSlotNo":392525,"stakeKey":"stake1uxfv4wmm94khspgppspf7fgjpj6kde87tfmk3n2rlpuc4hcukeg5v"}],"totalItems":326257,"totalPages":16313,"currentPage":0}