{"data":[{"blockNo":8318612,"slotNo":83155060,"epochNo":390,"epochSlotNo":38260,"hash":"aed76ce4672ad49b11d05953a56ddb1e940648ac7aa85a7c12a95f37bb3df73f","time":"2023/01/26 08:22:31","txCount":36,"totalFees":11629884,"totalOutput":239439782478,"slotLeader":"1b268f4cba3faa7e36d8a0cc4adca2096fb856119412ee7330f692b5"},{"blockNo":8318611,"slotNo":83155047,"epochNo":390,"epochSlotNo":38247,"hash":"e3b11e146ec51c152c2fc8f49810f7883a1c7e884ae3979ef559e0a2446d4dc9","time":"2023/01/26 08:22:18","txCount":37,"totalFees":12515584,"totalOutput":1767686499288,"slotLeader":"d918835729aaab9d4dca82c60079a6c643d65141f909730ecfeb3aef"},{"blockNo":8318610,"slotNo":83154978,"epochNo":390,"epochSlotNo":38178,"hash":"6df0c9567afb487048cdc9c6da0389d9c0083326d986883e24ed26a19c2d9c9f","time":"2023/01/26 08:21:09","txCount":8,"totalFees":1906430,"totalOutput":168058034637,"slotLeader":"c83beb18d532234c72a304ab935982be670c22e771b227a3febc3a82"},{"blockNo":8318609,"slotNo":83154972,"epochNo":390,"epochSlotNo":38172,"hash":"0875d178007b37c317c0e5f58d655e10174b4f8e19f0a0bc4d659caa26862642","time":"2023/01/26 08:21:03","txCount":31,"totalFees":10935197,"totalOutput":91593653996,"slotLeader":"351a90a0253fb3595ccc460438b9947cd8a0b9a7f457f3478bbb31d8"},{"blockNo":8318608,"slotNo":83154939,"epochNo":390,"epochSlotNo":38139,"hash":"a8c6e5d9e5211cf4bbd54af2437f6bdf895af430666070203b35fb0890940d58","time":"2023/01/26 08:20:30","txCount":3,"totalFees":521143,"totalOutput":131628513649,"slotLeader":"d5b90a198d2411b5c82fbdfee5f94b86de49a8589bfa7720b9de358f"},{"blockNo":8318607,"slotNo":83154935,"epochNo":390,"epochSlotNo":38135,"hash":"fb60087aa4c3e8f206e75504a39b5c38e776082fdff3f9054d4a4deb3e3ebeae","time":"2023/01/26 08:20:26","txCount":8,"totalFees":4250361,"totalOutput":8034610953636,"slotLeader":"e645c034522f32522bf1c64a7f46128c562880abc26abe5f65f25a84"},{"blockNo":8318606,"slotNo":83154930,"epochNo":390,"epochSlotNo":38130,"hash":"cf2db659a4c4ec1aab503f925bcb0d76bae06d264f9ea1177d41bf6ecb4a5d20","time":"2023/01/26 08:20:21","txCount":5,"totalFees":1610215,"totalOutput":1143106004,"slotLeader":"0019cb5ac91c786a809f4d87622a29d2c7f57f4697f8c8e8457f4de4"},{"blockNo":8318605,"slotNo":83154925,"epochNo":390,"epochSlotNo":38125,"hash":"33460fd62434f07c75a294add8c9e2ac011118c8834d8f036794abaa0f3896b9","time":"2023/01/26 08:20:16","txCount":2,"totalFees":560899,"totalOutput":338386860,"slotLeader":"a532904ca60e13e88437b58e7c6ff66b8d5e7ec8d3f4b9e4be7820ec"},{"blockNo":8318604,"slotNo":83154921,"epochNo":390,"epochSlotNo":38121,"hash":"098d6cf1da8f6ee3274411683b9ddc5d39b02627e3fcc3b4ca3ab99e92b60e0a","time":"2023/01/26 08:20:12","txCount":13,"totalFees":5271319,"totalOutput":28471251402,"slotLeader":"1cb5d0e006c33ace982a527d4140bc086f99f7d35c27c5ab29600a74"},{"blockNo":8318603,"slotNo":83154913,"epochNo":390,"epochSlotNo":38113,"hash":"4b2b8482c5182deed276a9a0c4289cc563f90671a6f5a03016cd72ac67fe310e","time":"2023/01/26 08:20:04","txCount":4,"totalFees":808592,"totalOutput":3518038479,"slotLeader":"f747208eb5e3b703b271ff373b4dc4ca643c026071e480689be320d9"}],"totalItems":1805,"totalPages":181,"currentPage":0}