{"data":[{"blockNo":6831372,"slotNo":52215467,"epochNo":318,"epochSlotNo":202667,"hash":"06088c943b4e26a1fa3a0b8947f46603a1c313aa898f019cf5a4e1be163b0f0b","time":"2022/02/02 06:02:38","txCount":17,"totalFees":9011284,"totalOutput":1035229858679,"slotLeader":"a95b4f891edea1c877954d48968968b2c91a80786858d89110caf7f9"},{"blockNo":6831371,"slotNo":52215458,"epochNo":318,"epochSlotNo":202658,"hash":"110c11b4ff1303b307565e92988de9d1428b75048c9b4d4279566cb9f3eee713","time":"2022/02/02 06:02:29","txCount":44,"totalFees":13702519,"totalOutput":3211359866774,"slotLeader":"c63dab6d780a74cbae2a27696c9723f55b3092b2bd001256df03827f"},{"blockNo":6831370,"slotNo":52215411,"epochNo":318,"epochSlotNo":202611,"hash":"62e230c4537e4e33d52fd6cb3299824fa4011c8d4042925def543ac4351bf0d6","time":"2022/02/02 06:01:42","txCount":12,"totalFees":8099965,"totalOutput":2939793533,"slotLeader":"48794370608c8d41cf4ad665833da210ad4fed6c6fd40b48bfad9ca8"},{"blockNo":6831369,"slotNo":52215375,"epochNo":318,"epochSlotNo":202575,"hash":"4a94a74ae53ea481f0748b5d910aecc16cb55c4adef9df899b49987dd2257aa8","time":"2022/02/02 06:01:06","txCount":19,"totalFees":7597321,"totalOutput":46527987958,"slotLeader":"52e22df52e90370f639c99f5c760f0cd67d7f871cd0d0764fae47cd9"},{"blockNo":6831368,"slotNo":52215358,"epochNo":318,"epochSlotNo":202558,"hash":"59ff3e24126c9208a82ca3a4cdcf7725e89cad614426cd9e3efd08875adf3851","time":"2022/02/02 06:00:49","txCount":20,"totalFees":9182107,"totalOutput":7647674331,"slotLeader":"96a46d5a796a30483492c3717f80b7c6ef87e9525af162ffacf74fdb"},{"blockNo":6831367,"slotNo":52215302,"epochNo":318,"epochSlotNo":202502,"hash":"c0729d5c415a8cb37aa623081b9d0d514436dd9ffaece0ef2739730d74fc22a9","time":"2022/02/02 05:59:53","txCount":15,"totalFees":8321054,"totalOutput":5335773030,"slotLeader":"20b95f87c93f3be9e5094c8fbdb924f9ab8b5e1c7bfb542d3a8bc7fc"},{"blockNo":6831366,"slotNo":52215290,"epochNo":318,"epochSlotNo":202490,"hash":"f6a644e7e91750d22b25cb01b979eeead83ab104275aac7c32d11e8b22e4d348","time":"2022/02/02 05:59:41","txCount":48,"totalFees":12632332,"totalOutput":66811977789,"slotLeader":"463e481957f266d93e4decbfb73003380ab17223e0e569f71c7a525a"},{"blockNo":6831365,"slotNo":52215278,"epochNo":318,"epochSlotNo":202478,"hash":"b3f99644c7107f3463a0fbcdb3020eb52f0d053b6ad84720a897384e016784ae","time":"2022/02/02 05:59:29","txCount":8,"totalFees":7403947,"totalOutput":6413487664552,"slotLeader":"000001b844f4e4c900ae0dfdc84a8845f71090b82fb473e6c70a31ee"},{"blockNo":6831364,"slotNo":52215266,"epochNo":318,"epochSlotNo":202466,"hash":"6ea88ed08145686c4b84ef7290347419f0dcbf7209c9f54bdc582f3d3162a62e","time":"2022/02/02 05:59:17","txCount":7,"totalFees":8017651,"totalOutput":15216340965732,"slotLeader":"00beef68425d90f50c8e2102476a0f42ec850836e9affd601ecf7804"},{"blockNo":6831363,"slotNo":52215219,"epochNo":318,"epochSlotNo":202419,"hash":"dd3dc2e000b438c6b154a83b0e59ef8786fcd82b4639d220336ad66218d7bfe5","time":"2022/02/02 05:58:30","txCount":54,"totalFees":16384974,"totalOutput":1841880546929,"slotLeader":"fb21d3e5ed7684742936778239a7bed2bcee1292964ddeb716d3a903"}],"totalItems":9558,"totalPages":956,"currentPage":0}