{"data":[{"txId":56953966,"txHash":"543cf85398bbf4fd4af8d59e68bd57dd06dfde948cdd0f1706a535bcc9af40d5","txTime":"2022/12/09 09:45:34","block":8116971,"epoch":380,"slotNo":79012843,"epochSlotNo":216043,"stakeKey":"stake1uxsz4ml5s8d0dt0vkmf93qdd68euyjh5a528zd9rw5ay87g7pdvl9"},{"txId":56953684,"txHash":"9c2d69446725cb54e557f9a38206f5457b6a75299f13ab2a476a0260bf890155","txTime":"2022/12/09 09:37:14","block":8116943,"epoch":380,"slotNo":79012343,"epochSlotNo":215543,"stakeKey":"stake1ux7yst6upg9arunvshfeswck3g06ckdtgu4rkkfvy7dcdzgmxjk80"},{"txId":56953667,"txHash":"9cbedd0ee41dff3001fe84fa3f2a80b69892fea8e33931172a093a89bc709482","txTime":"2022/12/09 09:36:53","block":8116942,"epoch":380,"slotNo":79012322,"epochSlotNo":215522,"stakeKey":"stake1uyvujyyq7tz6nge3v8uq0k2u39rzmmqzks43thd5578vdkqkmqlt6"},{"txId":56952851,"txHash":"dfcbeb952b59dba50fb7bbbbf89e3c0e16d009bdbc00f09a72c8d6d046e72bbb","txTime":"2022/12/09 09:12:41","block":8116869,"epoch":380,"slotNo":79010870,"epochSlotNo":214070,"stakeKey":"stake1uy6se0v5ck8q26sfv9tytvk3hf09ra6e9dcyrmcgflluzrsneeqle"},{"txId":56952239,"txHash":"00a91167702d290dd4a2270c5e78dfb000ffe5bce9c4a8584e31001ed916fe19","txTime":"2022/12/09 08:56:29","block":8116823,"epoch":380,"slotNo":79009898,"epochSlotNo":213098,"stakeKey":"stake1u9vz2mqqt55wytlc93xp6ws2sh958m4jnge8w47tur8l62sm8w3dn"},{"txId":56951295,"txHash":"8a161fbf5d5fbf628ed5bba42274c4b262dec6dd3899766b44a4f43a7c35e6ff","txTime":"2022/12/09 08:28:52","block":8116738,"epoch":380,"slotNo":79008241,"epochSlotNo":211441,"stakeKey":"stake1u9rrvl6xn203aggndz3mmd38xe4z72scsfdcskesxuu5xgcru4fsa"},{"txId":56951286,"txHash":"d9efdf13115424b7d44a4221bc2accc776ddd74b91159cd7387321a979ed5f7e","txTime":"2022/12/09 08:28:49","block":8116737,"epoch":380,"slotNo":79008238,"epochSlotNo":211438,"stakeKey":"stake1u9dhn63a2kp92nhqz0p65rlh0pw3wvd4r8rr6sqe79wxpkq2uw9es"},{"txId":56951274,"txHash":"b602554d90173e7725b4df4450349f73cd7a5e9a06beef34a36e92608405a8cb","txTime":"2022/12/09 08:28:49","block":8116737,"epoch":380,"slotNo":79008238,"epochSlotNo":211438,"stakeKey":"stake1uxkz4hfel647rde78qqpv3w76y0jlyl7ce2kxjfvmtld9ksy2lf7q"},{"txId":56951265,"txHash":"3472526b62357df1181956b3f8bf8a884a94a394c6a80ca2b6ffbe5b48567f28","txTime":"2022/12/09 08:28:07","block":8116736,"epoch":380,"slotNo":79008196,"epochSlotNo":211396,"stakeKey":"stake1u8hdrusgdep62kd772kpl0rl2l0cvuu8t6p8gkagxn3g0sced9rt4"},{"txId":56951252,"txHash":"eb17a261b4b5c15e4335d6e373a0cccd020a827fc03e82ac3aa123a35c0ced38","txTime":"2022/12/09 08:27:57","block":8116735,"epoch":380,"slotNo":79008186,"epochSlotNo":211386,"stakeKey":"stake1u995v4lse4nlegf45la5uxsglphkp977dpr4kz6cgwlqq6g6tvy3w"},{"txId":56951244,"txHash":"3c6cdd692e9f86a9e908d2f0e447d68b947aa70fa12d0c280471697a333798d9","txTime":"2022/12/09 08:27:57","block":8116735,"epoch":380,"slotNo":79008186,"epochSlotNo":211386,"stakeKey":"stake1u8474tqvwaczxxkkymh65k5s3rpj87ezddwx9qmuftpahaq4cvawq"},{"txId":56951242,"txHash":"f31a519e3b959fa9575693c2621002478aaface48f0aa81829e8493a5fd5af48","txTime":"2022/12/09 08:27:43","block":8116734,"epoch":380,"slotNo":79008172,"epochSlotNo":211372,"stakeKey":"stake1u8ftr4knvamn7lujwwrvq4zl8dvnrtjhag48qhjhzrw9x0sfzpq32"},{"txId":56951234,"txHash":"6b0724d1c1c54d6262a827a2e316aa5738c0cf3e353575e343688f1f0ef5a9da","txTime":"2022/12/09 08:27:33","block":8116732,"epoch":380,"slotNo":79008162,"epochSlotNo":211362,"stakeKey":"stake1uxl0jv3rr48jfsfmcadflelxwn5l5h62pjgdxn805m94htgxd6vaf"},{"txId":56951220,"txHash":"61b735ce0f2e9ae6fcc27d3bbd469785d02cadae3f0f85404eb5aeddcbc3a595","txTime":"2022/12/09 08:27:33","block":8116732,"epoch":380,"slotNo":79008162,"epochSlotNo":211362,"stakeKey":"stake1ux76jf5gu89t37t3gvez6wxdn0lxeg303y3eeu4s95eqgrs22v54q"},{"txId":56951208,"txHash":"4aa5a8f781a8614b0de6e72582789360655289595d71a08cd038025665970d08","txTime":"2022/12/09 08:27:13","block":8116731,"epoch":380,"slotNo":79008142,"epochSlotNo":211342,"stakeKey":"stake1u86ez5gve4zvryj22wy0vcq7hsgrqpecrslv4ad5k3qr3hs6mn06e"},{"txId":56950910,"txHash":"f152a96b510409bee684a5d0f16216e51b51fe68194e201681a20769a679e29e","txTime":"2022/12/09 08:18:13","block":8116704,"epoch":380,"slotNo":79007602,"epochSlotNo":210802,"stakeKey":"stake1u9amx4kjyarf8rc3audtp23455wjd8ndpvlq8200nwr9zagvq8hsl"},{"txId":56950781,"txHash":"58280f7665f025dfe35eacbdee939e27f0016d5b8bc44cd0c08826175b7a6b99","txTime":"2022/12/09 08:14:03","block":8116693,"epoch":380,"slotNo":79007352,"epochSlotNo":210552,"stakeKey":"stake1u856g9pu0qrvtyr75ekv5n3g90el9z34wckrtj5few3vmsq5jszkx"},{"txId":56950535,"txHash":"1155c210c94e3f639d6f3e2dde929c9e0e432ef4bafc496ba59c6921b39ba766","txTime":"2022/12/09 08:06:59","block":8116668,"epoch":380,"slotNo":79006928,"epochSlotNo":210128,"stakeKey":"stake1u9y779y0hkylqnxegacqrva00qd0d570wlzc4unkaka4tjgtp2q8p"},{"txId":56950419,"txHash":"430c073f112524194bbdd88ec0df59d3af1ce9b3f93948ed18d88d01bf12a5ee","txTime":"2022/12/09 08:04:00","block":8116658,"epoch":380,"slotNo":79006749,"epochSlotNo":209949,"stakeKey":"stake1u82a2pwnfwr2fwd4aem88zh4lzg3hmhkjkskryx9lhns0hcpnpfl9"},{"txId":56950050,"txHash":"9a5baa5936036739596afb9227f5fadfd9423a8b784ff16cf1abdecc232bff4e","txTime":"2022/12/09 07:51:56","block":8116620,"epoch":380,"slotNo":79006025,"epochSlotNo":209225,"stakeKey":"stake1u9vy6ctuj88nmyryes0zrsqs5lsdynyu0mh8hlq8g3w2znqhp30pf"}],"totalItems":335753,"totalPages":16788,"currentPage":0}