{"data":[{"blockNo":6809349,"slotNo":51750324,"epochNo":317,"epochSlotNo":169524,"hash":"dc15d103b296b75d2a588cc4e40fb3c4ff91e9c386f2b8b340410f110491906c","time":"2022/01/27 20:50:15","txCount":28,"totalFees":11559158,"totalOutput":11422226344,"slotLeader":"ae66e56ab11ccb39e882669f220a37956c683e4ce84fefd910012d7a"},{"blockNo":6809348,"slotNo":51750315,"epochNo":317,"epochSlotNo":169515,"hash":"3aae74e756ccd2ec091f8953b62e510ab2e66fb8fff4d53d3bb4948cd51b535a","time":"2022/01/27 20:50:06","txCount":31,"totalFees":11238433,"totalOutput":28895045396,"slotLeader":"9b9890b811d67ba9e69810581e4fc119ca0c2354adb7cd6ff564b0a3"},{"blockNo":6809347,"slotNo":51750283,"epochNo":317,"epochSlotNo":169483,"hash":"6194fd73ca89ab868ef8ca69f309093b11d1791ab22e20d43947bb1d1a8b9ee8","time":"2022/01/27 20:49:34","txCount":29,"totalFees":10603325,"totalOutput":11584080948491,"slotLeader":"48794370608c8d41cf4ad665833da210ad4fed6c6fd40b48bfad9ca8"},{"blockNo":6809346,"slotNo":51750279,"epochNo":317,"epochSlotNo":169479,"hash":"c4e9728b94c2ee857b1d8b552074f09eb1b1bdcf37679f5a7d260070ca955f79","time":"2022/01/27 20:49:30","txCount":42,"totalFees":15582556,"totalOutput":18116518874,"slotLeader":"92229dcf782ce8a82050fdeecb9334cc4d906c6eb66cdbdcea86fb5f"},{"blockNo":6809345,"slotNo":51750224,"epochNo":317,"epochSlotNo":169424,"hash":"2e87b0f3d4af104658f7fe13ed3b0d7aa532b6904b184675f7965c4086d5a314","time":"2022/01/27 20:48:35","txCount":24,"totalFees":11289168,"totalOutput":9711846485,"slotLeader":"ae66e56ab11ccb39e882669f220a37956c683e4ce84fefd910012d7a"},{"blockNo":6809344,"slotNo":51750207,"epochNo":317,"epochSlotNo":169407,"hash":"abb6edca9403f6c62d31f77394e806da7da50b132dc61a2180448495e3104912","time":"2022/01/27 20:48:18","txCount":25,"totalFees":10867624,"totalOutput":8223044846031,"slotLeader":"0001a003afb844ce6d9409fc49e049db654a78dc77f1151cb6cd548f"},{"blockNo":6809343,"slotNo":51750161,"epochNo":317,"epochSlotNo":169361,"hash":"1c0e7d9beb7aa0c5da64188b73a3d6e8d2b38f43c85bb7274242913c5b0efcb1","time":"2022/01/27 20:47:32","txCount":17,"totalFees":9382611,"totalOutput":256883123726,"slotLeader":"f839821b8c95969d853e4b547952b84a3bb20cd96c6b564ddfd95c0b"},{"blockNo":6809342,"slotNo":51750115,"epochNo":317,"epochSlotNo":169315,"hash":"ecf4af5444a59988507025e7d76cb6bedba4700e6257ec10e5c347e3e617b2c6","time":"2022/01/27 20:46:46","txCount":36,"totalFees":11194527,"totalOutput":41247756324,"slotLeader":"8264de3cdb1798dd8758e24cda5101184b44543e7c4421c7815f9ed8"},{"blockNo":6809341,"slotNo":51750110,"epochNo":317,"epochSlotNo":169310,"hash":"d5a0d3f54b1ac8ab1d923325dd0f2eaa7fda334dee067f400aedf7a729e655f0","time":"2022/01/27 20:46:41","txCount":20,"totalFees":9437257,"totalOutput":258459933286,"slotLeader":"f76e3a1104a9d816a67d5826a155c9e2979a839d0d944346d47e33ab"},{"blockNo":6809340,"slotNo":51750105,"epochNo":317,"epochSlotNo":169305,"hash":"10ab82d8fd768d94a3b523835ffedcd8ab4b8c55cf59fb8d7a755eeccfa0dc0b","time":"2022/01/27 20:46:36","txCount":60,"totalFees":15390560,"totalOutput":6833332804410,"slotLeader":"000000f66e28b0f18aef20555f4c4954234e3270dfbbdcc13f54e799"},{"blockNo":6809339,"slotNo":51750100,"epochNo":317,"epochSlotNo":169300,"hash":"5507074b9e4f96c1d483c22d388f297108cbe4d8b9e5271bdd202c7df335c13e","time":"2022/01/27 20:46:31","txCount":43,"totalFees":11696048,"totalOutput":1052778751383,"slotLeader":"bdd750e173f3d606c1af13b8661da7c0b5fa43121741c593cceec822"},{"blockNo":6809338,"slotNo":51750084,"epochNo":317,"epochSlotNo":169284,"hash":"00e862fffea08338f3d0eb5d86590cb8817ba5927de431e67a30c852598a8c17","time":"2022/01/27 20:46:15","txCount":31,"totalFees":11331967,"totalOutput":195106956110,"slotLeader":"d2b32bb469f6e8bcd6e1e0ba818716d317e3f26d0a93f317b08fdced"},{"blockNo":6809337,"slotNo":51750081,"epochNo":317,"epochSlotNo":169281,"hash":"ac6cb10296c3ff5b08b5c1773cd54234a2a458214cd3cb3e1f3c4b1638895375","time":"2022/01/27 20:46:12","txCount":27,"totalFees":12395188,"totalOutput":27799260207,"slotLeader":"caf8502f66536e95138fbf23c14abde1d13090d4aef52b9287f682e8"},{"blockNo":6809336,"slotNo":51750074,"epochNo":317,"epochSlotNo":169274,"hash":"e9f471d3d201d664e01a273368aab4596d143acad21227142a3d9935f12e56e8","time":"2022/01/27 20:46:05","txCount":36,"totalFees":12193629,"totalOutput":220595856123,"slotLeader":"7113de447fb62c38e3e3aeec434cac6fc76e05e997b84227e9c637b8"},{"blockNo":6809335,"slotNo":51750067,"epochNo":317,"epochSlotNo":169267,"hash":"286b4e8c8c47e4edc209290132a32c68fe6abfc2790d1c711d447542777b393d","time":"2022/01/27 20:45:58","txCount":31,"totalFees":12280919,"totalOutput":29542834199,"slotLeader":"0f581255fdb8e8e88d3676a3cbede33e1f2456171cbe39266b3db679"},{"blockNo":6809334,"slotNo":51750023,"epochNo":317,"epochSlotNo":169223,"hash":"322f0cc7ffc80eb76114b269c3f660475ca7fd277d55cd8f3e99e1980e0c5d97","time":"2022/01/27 20:45:14","txCount":43,"totalFees":12809817,"totalOutput":2377304917500,"slotLeader":"618ab17ec8ea7239b4ac0c826b667c599489e25524ce74841a29d510"},{"blockNo":6809333,"slotNo":51749991,"epochNo":317,"epochSlotNo":169191,"hash":"8dca76120df33446d6622fef0241c5593569aa13f2049e5a9ba524a26e7abb5c","time":"2022/01/27 20:44:42","txCount":20,"totalFees":7679883,"totalOutput":101536132740,"slotLeader":"4ef0c287cc67a951bb0f0eb8d56d1bf69939bd007a2681dbc3055ef6"},{"blockNo":6809332,"slotNo":51749964,"epochNo":317,"epochSlotNo":169164,"hash":"aa0ffb2617224b2fa709c0a0a95aa376daf942cb958ce98dbe6c06aa19b3572b","time":"2022/01/27 20:44:15","txCount":21,"totalFees":9259220,"totalOutput":5333272153943,"slotLeader":"397f04eb0ae0497d8c4d691844c8c6b026bc942e3f406f26b8e24f48"},{"blockNo":6809331,"slotNo":51749957,"epochNo":317,"epochSlotNo":169157,"hash":"86da68167642cc51628c63e55e14ecf170d38f5c64c0751f08dc7e5fb213933b","time":"2022/01/27 20:44:08","txCount":20,"totalFees":10167786,"totalOutput":6411743091,"slotLeader":"266a21992f779be68c1476fab8e9bf1015e7b4c428ee8c3b899f65dd"},{"blockNo":6809330,"slotNo":51749932,"epochNo":317,"epochSlotNo":169132,"hash":"c8f6af4e53651527dc6a2bf1d072b1ca7f98871ee422afba6a10b2ab64311222","time":"2022/01/27 20:43:43","txCount":38,"totalFees":13326124,"totalOutput":11720208648071,"slotLeader":"ee98a72dfb3ba43e9de2e39ef825a69d5d45627d2e918ea3e260f2dd"}],"totalItems":6809525,"totalPages":340477,"currentPage":0}