{"data":[{"txId":59489763,"txHash":"3e0d1b7123b0f4477ec07e8d23df0289f6dcf6c92602eeacd0e36fded2278c10","txTime":"2023/01/12 03:59:16","block":8258998,"epoch":387,"slotNo":81929665,"epochSlotNo":108865,"stakeKey":"stake1u9pew7ckx7vjmfzkey4kvw6lduffavzf47du0r7zexawvuck8r028"},{"txId":59489539,"txHash":"2f75b271cbc458fdf08a3906c0a6cfe07bc1303116a1f070956f2e0cab8e6541","txTime":"2023/01/12 03:52:43","block":8258977,"epoch":387,"slotNo":81929272,"epochSlotNo":108472,"stakeKey":"stake1uxrkx52kyun4t58lmwaqgqzq0ah3ewz9qfvu3mgusrfn64cee44rw"},{"txId":59489402,"txHash":"2b14fe52b0bc71e7944a03af0028c3fa818c184daacac18f4f87726b029275ce","txTime":"2023/01/12 03:50:14","block":8258966,"epoch":387,"slotNo":81929123,"epochSlotNo":108323,"stakeKey":"stake1uxldsyrgquradfxkrfsgvwx25y66unl3qxahmq8tzs263eqy2uh39"},{"txId":59488986,"txHash":"b5100808222ad3371f5f186d98b465fb67e34b2de535bd05511b7b281127f606","txTime":"2023/01/12 03:40:15","block":8258946,"epoch":387,"slotNo":81928524,"epochSlotNo":107724,"stakeKey":"stake1uykkfjlven3a6xna7n35a0v6hfg8csgn67ry2w3pue503rss8pklg"},{"txId":59488359,"txHash":"fec7528bb49dbd8b897c901cb28c9ac91bd8c4c4375cff668daba55c2c030434","txTime":"2023/01/12 03:25:46","block":8258901,"epoch":387,"slotNo":81927655,"epochSlotNo":106855,"stakeKey":"stake1u8fc8je72tr0f9uywa39gczwm8qfqk6nulrur984nn67w2gycqpxm"},{"txId":59488199,"txHash":"5c22ccaeb5b46ec81204d41586eb0eebe85f062e06d00f5d8ebf6667bb17a40c","txTime":"2023/01/12 03:22:39","block":8258889,"epoch":387,"slotNo":81927468,"epochSlotNo":106668,"stakeKey":"stake1u8vuj8y6pjsv0vy85kgydg6ht2euq9xlnd7nz98x9r4pxlcfq72m0"},{"txId":59487839,"txHash":"15e8f5b9835fb799ebf2ae601c0ea0fb87cbbb22e4cfb6f87f21d78743b3586a","txTime":"2023/01/12 03:15:23","block":8258866,"epoch":387,"slotNo":81927032,"epochSlotNo":106232,"stakeKey":"stake1ux8yyqe9unm2fkapphq0wwycgaz7n8axxxy3q5r5qpdy07cjd3je9"},{"txId":59487659,"txHash":"af1be046eccc8b6f9e3f234306d27ff09e00c1f1b5ad1edb7060e513402159b9","txTime":"2023/01/12 03:12:12","block":8258856,"epoch":387,"slotNo":81926841,"epochSlotNo":106041,"stakeKey":"stake1uydlmcjsmhvvfj6m83nl6eagll7xtdse493r86x2cnssvgcf3dtgt"},{"txId":59487442,"txHash":"30742468761c237b23f675c3438350dc077137f74d6eaf653f944d3d9a23f007","txTime":"2023/01/12 03:07:25","block":8258837,"epoch":387,"slotNo":81926554,"epochSlotNo":105754,"stakeKey":"stake1uyhd0mjy69dukpcglemuck83fwh2vavn9e9h7p3u8uxj8fs0us2p6"},{"txId":59487298,"txHash":"58d9e8abd5ff5f49710493c5f460cdd0d95b86695aeb6f9f4ae337d944e012d4","txTime":"2023/01/12 03:04:34","block":8258829,"epoch":387,"slotNo":81926383,"epochSlotNo":105583,"stakeKey":"stake1u8l8vuqz7nhvnd80vrx5ywm20t5k6eq7vm9g4fqa42hp3sqgycu66"},{"txId":59486538,"txHash":"0c7579bfabfff7138ceffced5bb0698e1862640a61310acf0db0b25a807464ff","txTime":"2023/01/12 02:49:11","block":8258777,"epoch":387,"slotNo":81925460,"epochSlotNo":104660,"stakeKey":"stake1uxl38gvd9x4qygv47aa8qgt4rrtpd0uvfdpgzs4rz756haguygznc"},{"txId":59486132,"txHash":"6e19eacbf9b89022a91b0446be5b457d68c07a21ddc1d245fe96bea74072bc8c","txTime":"2023/01/12 02:39:43","block":8258758,"epoch":387,"slotNo":81924892,"epochSlotNo":104092,"stakeKey":"stake1u8w68a956kx05mm2yjukwylnf5l94gga4lju5uagrjfe60sj0qzcz"},{"txId":59486117,"txHash":"4f49f47a08274388b0db1bd7add0b0932444161a261143700ed47bf59f826c2a","txTime":"2023/01/12 02:39:28","block":8258756,"epoch":387,"slotNo":81924877,"epochSlotNo":104077,"stakeKey":"stake1uyl5lr9yf6pctqwdryzckyhzd3s4t4w5rkj4x22xz3txxlcvl7m0a"},{"txId":59486112,"txHash":"0b250e6f72901ffb831fab9f18e399b2c87e795d3dc1948446811290a30d0137","txTime":"2023/01/12 02:39:23","block":8258755,"epoch":387,"slotNo":81924872,"epochSlotNo":104072,"stakeKey":"stake1u8acwherwm259d9gd8xl9mj0u478vfsd20fe924j9pplh0sq0fnjl"},{"txId":59485978,"txHash":"9544df4ab46718a3d3e905c379144d1d99aa9d2c19874d3713c7b8d2dfcf6a01","txTime":"2023/01/12 02:36:57","block":8258746,"epoch":387,"slotNo":81924726,"epochSlotNo":103926,"stakeKey":"stake1u807uujf7ttscqxjpv9eez88jfaqryf678e4urgchwamzygflmwlm"},{"txId":59485839,"txHash":"98c7e2df7ac4d858147c46df1ce6975fd45daeed87a140e8a948ab9a62eac4ae","txTime":"2023/01/12 02:34:05","block":8258737,"epoch":387,"slotNo":81924554,"epochSlotNo":103754,"stakeKey":"stake1u9zplsh9k4hrc30nds7j3purdspv6enc0n0xtne9l67hthcs3v9aj"},{"txId":59485415,"txHash":"65378d6660f86457ad1a079027f15c46941c1df8ba438bf45dad0124fcb8305e","txTime":"2023/01/12 02:24:40","block":8258702,"epoch":387,"slotNo":81923989,"epochSlotNo":103189,"stakeKey":"stake1u8ugchs6slcffu4dapacplh8np3e3jhpg7jknsvgs4k9yqghf8gs6"},{"txId":59485158,"txHash":"cfda9d202841d6fd01708bf981439f03b29227617156378799e52a295e45cb08","txTime":"2023/01/12 02:18:29","block":8258679,"epoch":387,"slotNo":81923618,"epochSlotNo":102818,"stakeKey":"stake1uxkh6fq8x9eq4s3dpy6zufnwkhllyl0m2lev0g2e35t4d3qauf9c6"},{"txId":59485095,"txHash":"3ee37d00cc0ae31b73495bc56a8ffbf92b6f265080037f5ca7d0afd32b0a4564","txTime":"2023/01/12 02:17:18","block":8258677,"epoch":387,"slotNo":81923547,"epochSlotNo":102747,"stakeKey":"stake1u9d7r2ptkklrrxztcnwf609kxyr67e4ajsle8wanpn8y3aqk7u9u7"},{"txId":59484823,"txHash":"6a610999e7120236e8314c148a898b51724be92ab24315cb8b2bce67cea51012","txTime":"2023/01/12 02:11:26","block":8258654,"epoch":387,"slotNo":81923195,"epochSlotNo":102395,"stakeKey":"stake1u9d7r2ptkklrrxztcnwf609kxyr67e4ajsle8wanpn8y3aqk7u9u7"}],"totalItems":343856,"totalPages":17193,"currentPage":0}