{"data":[{"txId":62497254,"txHash":"926a60ec8c9afd604973d69665df1e532cceb56ab518dcf826623cacdcf15b76","txTime":"2023/02/22 08:09:33","block":8430723,"epoch":395,"slotNo":85487082,"epochSlotNo":210282,"stakeKey":"stake1uxfsgmwlxkgyrehf0k56dya54083nas7h9xy6dfaxvnqq7qfkamh3"},{"txId":62497019,"txHash":"decc16d3595a7a299927e0b419b0e0b446295dcd6326fad66f4320831d1a4f29","txTime":"2023/02/22 08:00:03","block":8430699,"epoch":395,"slotNo":85486512,"epochSlotNo":209712,"stakeKey":"stake1uylr880wzp77xur0w9pu7lgpplkycklk4nq5ke0lf768ngq4urget"},{"txId":62496458,"txHash":"ee1f0e70b4808be794814e75c82c6dca83ea1421e68b5b8eb026337f061aea7f","txTime":"2023/02/22 07:37:50","block":8430629,"epoch":395,"slotNo":85485179,"epochSlotNo":208379,"stakeKey":"stake1u8tr45n7plap02445345qrls9f0max0vjth2vusfcyts34svserl7"},{"txId":62496442,"txHash":"98b848f4366a0892ece9625430a40a2b4b93c9fa6f7a85ec7092ccdb2a408856","txTime":"2023/02/22 07:36:45","block":8430626,"epoch":395,"slotNo":85485114,"epochSlotNo":208314,"stakeKey":"stake1ux48hh2fjaqv7dxz9cawpytz2kfdvf6mjmwjp4mccu9melgk2yg6t"},{"txId":62496383,"txHash":"01d5f32f7ff17a0eaac8dd30f65a579da3e74b6554290c4fd8a519234a5c5274","txTime":"2023/02/22 07:35:48","block":8430624,"epoch":395,"slotNo":85485057,"epochSlotNo":208257,"stakeKey":"stake1uxtej8wz67cufdz5wsq8ls0aed57ae07m9nx725e4uy6hvcs4dldh"},{"txId":62495893,"txHash":"86968bf8f13667c33ed67d9b82115b17f111759f62bff19666a3481257b56a4f","txTime":"2023/02/22 07:18:12","block":8430575,"epoch":395,"slotNo":85484001,"epochSlotNo":207201,"stakeKey":"stake1ux2789e7rflcvtam4emd3l6gz6uvqlmsqmk9ttmhgwvqdncx8phjs"},{"txId":62495852,"txHash":"39360379402f4e0c2324cde96d2526e34710e11929d2805e1ea1167b1cae3fd7","txTime":"2023/02/22 07:16:41","block":8430571,"epoch":395,"slotNo":85483910,"epochSlotNo":207110,"stakeKey":"stake1uxzmv50uzsqtd963xtkq52c6xf9ssdqaj0hdddtxyuqy80gm9fn3x"},{"txId":62495289,"txHash":"4cbb917f029237b47c0e29636e2122ac5ad11d0dc984e5e931569863563b09e7","txTime":"2023/02/22 06:50:38","block":8430499,"epoch":395,"slotNo":85482347,"epochSlotNo":205547,"stakeKey":"stake1ux2ew3p8kqzuajhnjsx2gt95q5cc6tj0lqr6rjracuf2z0gevaphc"},{"txId":62494771,"txHash":"bba9d464bd768b4c07477a86af8b3dd81136679ea5a17f685dee8c4e4e84114d","txTime":"2023/02/22 06:29:39","block":8430428,"epoch":395,"slotNo":85481088,"epochSlotNo":204288,"stakeKey":"stake1u8tn96c9u0dghkqgp0789chu3awzgznuzllqqnw9xqaj9hctlzftk"},{"txId":62494639,"txHash":"c0a38cc48bc34b485597a9ea9839b52c51da58824b1de0d33112936ecf356c7c","txTime":"2023/02/22 06:24:31","block":8430412,"epoch":395,"slotNo":85480780,"epochSlotNo":203980,"stakeKey":"stake1uxupnt25jsxrxlpx768c6jwqwgu96vrfxxppmgz9dgfh9xsz3twx2"},{"txId":62494613,"txHash":"c5ed515175b3d6c66e04acd514846460eef24f691302ec70c9066fd91084f274","txTime":"2023/02/22 06:22:54","block":8430405,"epoch":395,"slotNo":85480683,"epochSlotNo":203883,"stakeKey":"stake1u9zjyql6884u0pq9ca2lzffmlcwh2ex4hlldjvyexw6z4js8gn2yj"},{"txId":62494168,"txHash":"afb1cf1df891085309904c859e5abdf540025f37fe60c24ba99ca51ed9c4da18","txTime":"2023/02/22 06:05:13","block":8430358,"epoch":395,"slotNo":85479622,"epochSlotNo":202822,"stakeKey":"stake1ux8sd863ghr8w033m9eqfttkd5q99njgjhq4h9khqhgvflgy9luxg"},{"txId":62494124,"txHash":"041e0d2215d43fa137e709f01ac7079b5e243ce98d77bd53ce469f59cd746310","txTime":"2023/02/22 06:03:17","block":8430355,"epoch":395,"slotNo":85479506,"epochSlotNo":202706,"stakeKey":"stake1u85xc6v3v6kfjqtv63pz43l67nt72jq7ulzyfxh0jyf2ntq42pc0k"},{"txId":62494093,"txHash":"d73d0a0f124c5e21582e13f626b65eaea2a841053b0436e0aa7c06e6617a3457","txTime":"2023/02/22 06:02:32","block":8430349,"epoch":395,"slotNo":85479461,"epochSlotNo":202661,"stakeKey":"stake1u8ntqmg6xt9kkaqjjpdqm33ze7zqyr3ft0umqp8alejmctcy2y50j"},{"txId":62493896,"txHash":"13653a4b137f0567276cbc8c2205a85886725f297caf7648c9d734b61cdf51a6","txTime":"2023/02/22 05:54:51","block":8430320,"epoch":395,"slotNo":85479000,"epochSlotNo":202200,"stakeKey":"stake1u8h402gd9xjxqc88gf7scyx9v068t7lgeyn0dn2mhjww7ec3jh2sh"},{"txId":62493675,"txHash":"21fbe4c499709efddf6201f80a030a1de2fd7b817dde7d3525f6f45a6c4c237a","txTime":"2023/02/22 05:46:26","block":8430294,"epoch":395,"slotNo":85478495,"epochSlotNo":201695,"stakeKey":"stake1u8j97qr660t9nkkv4z8h386uldxzakhc69ayu9wsln74wls4zszh5"},{"txId":62493660,"txHash":"1480a2300f3a2f571fee92be203182a56013d03ad0c4850b4983e58b7ea238f5","txTime":"2023/02/22 05:45:14","block":8430293,"epoch":395,"slotNo":85478423,"epochSlotNo":201623,"stakeKey":"stake1uyanu42ejcgyh6ma6357gwej2j502lrahh9wd2lncz02qxgjhduqw"},{"txId":62493538,"txHash":"911232ce21d86fc352b4ffc4c327dc740c7c8437cb86fb69f9620124b535140c","txTime":"2023/02/22 05:41:23","block":8430284,"epoch":395,"slotNo":85478192,"epochSlotNo":201392,"stakeKey":"stake1u8xy67pgp5q5thcg04j7hflcuddu0p5gfglxl200gj9xvwcugnhrp"},{"txId":62493410,"txHash":"60a07cb2ea3b6237f65385ee0daf329721551648c9ef07980b37a49377c8df87","txTime":"2023/02/22 05:35:32","block":8430273,"epoch":395,"slotNo":85477841,"epochSlotNo":201041,"stakeKey":"stake1u8a6zv9smw3le2vwph76jqk36vh4phzh6dtguwzefqd94rqygjdms"},{"txId":62492765,"txHash":"4f94e84ebb0e599282c274ff7d0bed66ac7a68e3789b9b194a1095712b281441","txTime":"2023/02/22 05:09:05","block":8430205,"epoch":395,"slotNo":85476254,"epochSlotNo":199454,"stakeKey":"stake1uykhj973m09gkcsn7z9m07xwu82523420dtsuj9erkt8ahq8lqp4z"}],"totalItems":355749,"totalPages":17788,"currentPage":0}