{"data":[{"txId":57110376,"txHash":"ab80f6a29f2e985e18236bcb8b493320dd5f40f8f7fb54f8ab7597313ea51b6b","txTime":"2022/12/11 21:00:43","block":8127480,"epoch":380,"slotNo":79226152,"epochSlotNo":429352,"stakeKey":"stake1u8g07ynlldkgxggstgpsg290mxsdqnkq3rv82tdrmpy9cvqg6qatu"},{"txId":57110262,"txHash":"6882cb583e69399b9d4e978c609151ee8b50e8c36bf4656c37d5d5b0c3d3d20e","txTime":"2022/12/11 20:58:23","block":8127473,"epoch":380,"slotNo":79226012,"epochSlotNo":429212,"stakeKey":"stake1u8klutqa50njdjfpuczqcqns9cw7aef49n7xk8wj7c73das2278sg"},{"txId":57109524,"txHash":"fea7ad290d9091eb0b4db79d5bd8b37f18b9c3b318565c686f863a2dbbbe6d23","txTime":"2022/12/11 20:45:51","block":8127436,"epoch":380,"slotNo":79225260,"epochSlotNo":428460,"stakeKey":"stake1uy66zkrp3a32xnz74z6u8rw2zf7j530vqpxh3sd2tj9dzcc7d09vs"},{"txId":57109332,"txHash":"d37685388b1a35b9174f496796df89b5b411325840b6f862d9fff570955a2b9f","txTime":"2022/12/11 20:42:19","block":8127426,"epoch":380,"slotNo":79225048,"epochSlotNo":428248,"stakeKey":"stake1ux7uarz03sf844asm9rrg8wrewdtd4q4wrsl0m8lu6nv5hq957fm4"},{"txId":57109264,"txHash":"6526717fccd813c3b168ddf139f3c0d0a1c739c7685217a434a2fe9ec509d440","txTime":"2022/12/11 20:41:13","block":8127424,"epoch":380,"slotNo":79224982,"epochSlotNo":428182,"stakeKey":"stake1u9d0j9357pmyhfqk55cd3wvpsgtfvg8a83mk6qeaxtqvyfgj0pjde"},{"txId":57109241,"txHash":"65d21d571f0d16d30b4ff5610f63a3cd8034f3a6a00a1fdfe7b3b5359659530c","txTime":"2022/12/11 20:41:01","block":8127423,"epoch":380,"slotNo":79224970,"epochSlotNo":428170,"stakeKey":"stake1u94aax4espv7hkjx6ustdvhej3gqff7nrlfs089xwau4f9q6a5530"},{"txId":57108284,"txHash":"a1bd0820a7d6fddebf5fdb1e296b723bc3e85dcc5044b2b36fc4ed035ddc1cba","txTime":"2022/12/11 20:25:24","block":8127358,"epoch":380,"slotNo":79224033,"epochSlotNo":427233,"stakeKey":"stake1u802xjzxxr22zyu73pegs4gstk7dr7juxg5dkdmalumw3lgq6q5sa"},{"txId":57108187,"txHash":"267607668926cc50768e91754d9f8ea64a112248ba1f95e719f55da467a93485","txTime":"2022/12/11 20:24:07","block":8127352,"epoch":380,"slotNo":79223956,"epochSlotNo":427156,"stakeKey":"stake1u88rgyzyrth3vsr88gq4du2ehv3dd4f7rqapzg3t92l9uvs5yhz8w"},{"txId":57107950,"txHash":"5b12b2ae9348c4c291fda43adebc095cb3b8fa84e3bd2053c64051113b3766c0","txTime":"2022/12/11 20:20:03","block":8127342,"epoch":380,"slotNo":79223712,"epochSlotNo":426912,"stakeKey":"stake1ux4x9grgh6xl24waqu6f3jgmxrmmr5y5nmdysexy6h2r2dqltwl57"},{"txId":57107605,"txHash":"002bf53087a54b0f1c1da4cdc38d7d3190eb2bdd17435cfa5eedd7192339b89b","txTime":"2022/12/11 20:14:16","block":8127324,"epoch":380,"slotNo":79223365,"epochSlotNo":426565,"stakeKey":"stake1ux32kvyhwr6y2h0s400x9x4ay05tru09ssgadymwxa8fp6sgz6smm"},{"txId":57106199,"txHash":"428562ede33a891dd0d63c022abbd0e14a306e47106ecda139ce1ddd5ca81dbb","txTime":"2022/12/11 19:51:54","block":8127255,"epoch":380,"slotNo":79222023,"epochSlotNo":425223,"stakeKey":"stake1u954hy3uqaq8rm80dqg8vvsm2pwn27wp9g0dcr5d27t22ycvsaxl2"},{"txId":57105901,"txHash":"e4f177638340604565e5f79c3b3b1211db73a782d058586720c5e283a6572d91","txTime":"2022/12/11 19:46:18","block":8127236,"epoch":380,"slotNo":79221687,"epochSlotNo":424887,"stakeKey":"stake1u8avyaqj2sgscs4s2qzf847alncf2rptkfkkrjnrpsl592ct90em5"},{"txId":57105886,"txHash":"8b343c718adf002405ec2fc600c0c99279dcde101f3bc884ab820fa45ca04d70","txTime":"2022/12/11 19:46:18","block":8127236,"epoch":380,"slotNo":79221687,"epochSlotNo":424887,"stakeKey":"stake1uy46fjacprw56c624mvjn9gapef3zrsc8l83q30nanh2egcgpur0e"},{"txId":57105476,"txHash":"3f32fb52a82075304f7466f716461bbf91cd4c4b9999720ecf0a5cac6d08f277","txTime":"2022/12/11 19:39:10","block":8127219,"epoch":380,"slotNo":79221259,"epochSlotNo":424459,"stakeKey":"stake1uxmzt59xk6ut8edj352eam78t253hp59a7uwfedsd8v343sx8vzp2"},{"txId":57105300,"txHash":"0dca009060486ea00975e071ddb7663e956ee61c709a5ce7e797e63d36ac0779","txTime":"2022/12/11 19:37:28","block":8127214,"epoch":380,"slotNo":79221157,"epochSlotNo":424357,"stakeKey":"stake1u8g6aszfet6qj7h4evy6qqvl5l500uxnzrlkttjpuleevuq6dfjlf"},{"txId":57105236,"txHash":"aa2fd9df885d45194a5db0e95b3450ceb1d27876ae1557a27837d813ca45b19f","txTime":"2022/12/11 19:35:09","block":8127210,"epoch":380,"slotNo":79221018,"epochSlotNo":424218,"stakeKey":"stake1u9298kvudevhefvlgznw4z04ya288e0e3hg9nv0s59l0e2gafa0d9"},{"txId":57105059,"txHash":"d071b2652367ee42e3d12c6211a869213d2295cf53d02107cb62fb840084b886","txTime":"2022/12/11 19:32:06","block":8127201,"epoch":380,"slotNo":79220835,"epochSlotNo":424035,"stakeKey":"stake1uxl553x9jc3h88xpwyae6sz6ag0uttaemx5wn5n52x3kpaqczmvvw"},{"txId":57102865,"txHash":"7093dc4b2c644eec4d728e2cffa5ea90321c89e17cbb085ed65a756ac95fbe0e","txTime":"2022/12/11 18:56:19","block":8127103,"epoch":380,"slotNo":79218688,"epochSlotNo":421888,"stakeKey":"stake1uxfq3mltrdpke56z9glhu7kdl6nv5k4n8f5jxjqx0tf55hsum9lgc"},{"txId":57102803,"txHash":"423fbd88505c147697490f9617f2551e709fd7dbbfcbdcca0e60e80040e02819","txTime":"2022/12/11 18:55:10","block":8127100,"epoch":380,"slotNo":79218619,"epochSlotNo":421819,"stakeKey":"stake1u8uuhwx322egk4u55e6sd229tmzv6estfe7gtf5vcpndvjqez0qem"},{"txId":57102340,"txHash":"c51253e965f3bc1862f0e98a399fbf70362b939920485378192e15f8364a059d","txTime":"2022/12/11 18:46:59","block":8127071,"epoch":380,"slotNo":79218128,"epochSlotNo":421328,"stakeKey":"stake1u8hnam0af2hd8h9tendu6gmry6wsjfjs3mtrahduqcn55es4ga6r7"}],"totalItems":336193,"totalPages":16810,"currentPage":0}