{"data":[{"hash":"156acdf09cd8c6ad661af51e43b07b0fd4f02921ecd806d8c8883131f7c1d46e","blockNo":7251848,"blockHash":"c2a4781be65f0195fcce6828de29aad7e3e4f4c2f56a154e3ecd1158da781504","epochNo":339,"epochSlotNo":13594,"slot":61098394,"time":"2022/05/16 01:31:25","addressesInput":["addr1w999n67e86jn6xal07pzxtrmqynspgx0fwmcmpua4wc6yzsxpljz3","addr1qyspfj53xnkhgerygl2whv02mfl6kfqzteem5cjp78afh739hcckz0q4e5093ravu93rwzxnj3f5u7ynt4ced6pvj9squ4tccf"],"addressesOutput":["addr1w999n67e86jn6xal07pzxtrmqynspgx0fwmcmpua4wc6yzsxpljz3","addr1qyspfj53xnkhgerygl2whv02mfl6kfqzteem5cjp78afh739hcckz0q4e5093ravu93rwzxnj3f5u7ynt4ced6pvj9squ4tccf","addr1qyspfj53xnkhgerygl2whv02mfl6kfqzteem5cjp78afh739hcckz0q4e5093ravu93rwzxnj3f5u7ynt4ced6pvj9squ4tccf"],"fee":505113,"totalOutput":122346211,"tokens":[]},{"hash":"a28d7350e660c9ff5c7734cd54669b9c6f8bcc5477d0a437daf0d26c17a6847e","blockNo":7251848,"blockHash":"c2a4781be65f0195fcce6828de29aad7e3e4f4c2f56a154e3ecd1158da781504","epochNo":339,"epochSlotNo":13594,"slot":61098394,"time":"2022/05/16 01:31:25","addressesInput":["addr1w828m0rdlumnp30dwmv33l4akzhxcpx7a64tuvjwhjn7pxgngjrpx","addr1v8pr9mwnqarw808gtllvmlxvk70hnszrukjeqfstr9t9g5crud8c4","addr1vxwquhg0ydst6sxukfawrylfyh2emywe64605c7w5y2wh0gmer6wh","addr1wyez88j3n284puhedanu0kw7dmuxg3yzpw3xhuetlk0ygvs2qvqq3","addr1wypwdjfmenh36445uvwctz6ss3nxnqp3ejczyjwpqqptj2c2apyl9","addr1wx524gq72mduxehj6w2tt56fjq5z97d79m6zevu87s6ujxq7x9y9d","addr1v9jhftte2hyx26n7cgww6r5yaapfsle9hhq9san8jkczuaqs59qzc","addr1w8vh8ssekk52ye3pt7a2j8upv3qphzmar2sj68353xds9lq5urex7","addr1w93qsc75lzf3zsdrsmux7u5w727flt5qvxgk45u0lwa93rcdjsyjq","addr1w9xc5279jqxql020jp295d377nqrms826gnhgqxt5g5m9dqlfqf3f","addr1w8usfr3avzl8qh5wm9wcy8uv7cr800ft5vjz5dw3pxeh8fgdp6e6r","addr1wx6hd6gradhx8m7l2sn5w8pp2vuh22glwq65w07wjfqlf7qlh3dvr","addr1w9wztdk33tqyu0zg2qp5tfxkqxfky8ktawjra0asty0ljxcjtufks","addr1wxc40w4gk5lh6d6fqvmhx7zrahes7rcgdav0mejwggce26sknjav5","addr1wxgg25t3tk30jqzl2elqz94lzgmr8a9c9m5z902ds5sjh0g7uaj8z","addr1w8kuaz20p68fafuxjycdjk9r2520ljckm9mtsl78nu4v8pqdwxvpj","addr1wy96wdkpq2t6yf25epwtauad3kj24yrx5rk4vnmnczujknc8tptgn","addr1wysvn9wkuay63m4hn8r5ert7vq47a0exfap7juvugdxm30gddwmuq","addr1wxcpjfdxav75dfr2m653l2pf38q5juwz8fst6v5sqdcjsns74jyxe","addr1vy3qpx09uscywhppj5vp08hu0ekg9zwmq2ysfq6qyh2mpps865j6t","addr1w835n68qeax023uperwgwlruk3d8yjl4k98r433nhw5waqgkx8prf","addr1wyk4u2dymyn37qy4ck2t9gmvrez9axw8kjf4hn7d3lvd5ysfpau7r","addr1w8esm6uymesknvjsdz8kpte2ztn4muve27zhxs8vx9rxnaqg92jnj","addr1w9xnt8ucaje6tevrafvtcc0yzs8d9m3ck67uvmperh29v0ckjalnj","addr1vyzcdv9zlna920v7hzgzkm3u3rh4ks4w7hxcll7d7mrcstc95nlh6","addr1w80k8xe6vckm3qgklhw98tqjekfvw3mgwux3stmtq3jlprga3u33c","addr1w8vg4e5xdpad2jt0z775rt0alwmku3my2dmw8ezd884zvtssrq6fg","addr1w80sd86zz3r87nyw28et6eep6q7fc6ds0t6ru6sx9pwzckczkyvl4","addr1w9vgcswrfxcujpqxt39wefrnd75ww35u3k3gauq4pf60mdc2rlkz7","addr1vy4wzuhh9px6jlut3xaza4ujzl35d7tlx6z9hyw8gxt99dsh3wren","addr1wxau62drpn3e832yqhhjqjvw3qxuztuns2f93qvzq5w78qsavxpmv"],"addressesOutput":["addr1vy3qpx09uscywhppj5vp08hu0ekg9zwmq2ysfq6qyh2mpps865j6t","addr1v8pr9mwnqarw808gtllvmlxvk70hnszrukjeqfstr9t9g5crud8c4","addr1qyxqlw3a2zv4wsgzkfgvkh3a3ejqflvtnvcvxyqqrvplak822yxew7su4nsef8zeddrdjguj0humgphc0zvap74p2uss8nwryh","addr1qy935m7u3ac72khnrxmasrdnwzdryn39ax4fvf944zv8es8wk0gjanhmmyksdrqu7jyfq59qwlewuskf5lcnzpjqxgmqnt9h9h","addr1qxxj58m934vc2hmggqr6j4pyet4jjn22ann7dk0umu6qtu4d0pw7c5a7v35j30ruzm7pjg295ek750cc9y7ec8y9ntlqenymjc","addr1q97pkq4h4p2wrjn8zhxgpqhvz9xn35ys6lq25dtyua3v7swk0zef4y6l6mcrp86jx6hskw3lkau9z7naygjjek5t5u7qt7lvl9","addr1w9xc5279jqxql020jp295d377nqrms826gnhgqxt5g5m9dqlfqf3f","addr1w8vh8ssekk52ye3pt7a2j8upv3qphzmar2sj68353xds9lq5urex7","addr1w8kuaz20p68fafuxjycdjk9r2520ljckm9mtsl78nu4v8pqdwxvpj","addr1w93qsc75lzf3zsdrsmux7u5w727flt5qvxgk45u0lwa93rcdjsyjq","addr1wxgg25t3tk30jqzl2elqz94lzgmr8a9c9m5z902ds5sjh0g7uaj8z","addr1wyk4u2dymyn37qy4ck2t9gmvrez9axw8kjf4hn7d3lvd5ysfpau7r","addr1w9xnt8ucaje6tevrafvtcc0yzs8d9m3ck67uvmperh29v0ckjalnj","addr1wy96wdkpq2t6yf25epwtauad3kj24yrx5rk4vnmnczujknc8tptgn","addr1wxc40w4gk5lh6d6fqvmhx7zrahes7rcgdav0mejwggce26sknjav5","addr1w828m0rdlumnp30dwmv33l4akzhxcpx7a64tuvjwhjn7pxgngjrpx","addr1wx524gq72mduxehj6w2tt56fjq5z97d79m6zevu87s6ujxq7x9y9d","addr1wxcpjfdxav75dfr2m653l2pf38q5juwz8fst6v5sqdcjsns74jyxe","addr1w80sd86zz3r87nyw28et6eep6q7fc6ds0t6ru6sx9pwzckczkyvl4","addr1wx6hd6gradhx8m7l2sn5w8pp2vuh22glwq65w07wjfqlf7qlh3dvr","addr1wyez88j3n284puhedanu0kw7dmuxg3yzpw3xhuetlk0ygvs2qvqq3","addr1w835n68qeax023uperwgwlruk3d8yjl4k98r433nhw5waqgkx8prf","addr1w8esm6uymesknvjsdz8kpte2ztn4muve27zhxs8vx9rxnaqg92jnj","addr1wypwdjfmenh36445uvwctz6ss3nxnqp3ejczyjwpqqptj2c2apyl9","addr1w8usfr3avzl8qh5wm9wcy8uv7cr800ft5vjz5dw3pxeh8fgdp6e6r","addr1w8vg4e5xdpad2jt0z775rt0alwmku3my2dmw8ezd884zvtssrq6fg","addr1w9wztdk33tqyu0zg2qp5tfxkqxfky8ktawjra0asty0ljxcjtufks","addr1wysvn9wkuay63m4hn8r5ert7vq47a0exfap7juvugdxm30gddwmuq","addr1w9vgcswrfxcujpqxt39wefrnd75ww35u3k3gauq4pf60mdc2rlkz7","addr1w80k8xe6vckm3qgklhw98tqjekfvw3mgwux3stmtq3jlprga3u33c","addr1wxau62drpn3e832yqhhjqjvw3qxuztuns2f93qvzq5w78qsavxpmv"],"fee":644705,"totalOutput":2202234968,"tokens":[]},{"hash":"850d4b30610a54ac0cc64839436f0d530b727a6ed300f24f57cb979c7affd1ad","blockNo":7251848,"blockHash":"c2a4781be65f0195fcce6828de29aad7e3e4f4c2f56a154e3ecd1158da781504","epochNo":339,"epochSlotNo":13594,"slot":61098394,"time":"2022/05/16 01:31:25","addressesInput":["addr1qy39d3qzjd6c887vc0aalulxhrra54tvas6l0y2ug2nr9xvtx9uudwscdf9rlmjez60hlkw5e9wykyz93f8y4a59zchq6zuk7h"],"addressesOutput":["addr1wxn9efv2f6w82hagxqtn62ju4m293tqvw0uhmdl64ch8uwc0h43gt","addr1qy39d3qzjd6c887vc0aalulxhrra54tvas6l0y2ug2nr9xvtx9uudwscdf9rlmjez60hlkw5e9wykyz93f8y4a59zchq6zuk7h"],"fee":183805,"totalOutput":283345880,"tokens":[]},{"hash":"b23b1770cd1a8ec3806be40797be68aea3b51c65e502ae1ce1e2b8ed4b218e87","blockNo":7251848,"blockHash":"c2a4781be65f0195fcce6828de29aad7e3e4f4c2f56a154e3ecd1158da781504","epochNo":339,"epochSlotNo":13594,"slot":61098394,"time":"2022/05/16 01:31:25","addressesInput":["addr1q8hfmft957ang2uky6r45vmgwf3u4xu5y8538p9j8wed6e7wwz68cgjpzrquxcjt7df52z29sw72dww7l9d4yrz5m90s22cvkq"],"addressesOutput":["addr1wxn9efv2f6w82hagxqtn62ju4m293tqvw0uhmdl64ch8uwc0h43gt","addr1q8hfmft957ang2uky6r45vmgwf3u4xu5y8538p9j8wed6e7wwz68cgjpzrquxcjt7df52z29sw72dww7l9d4yrz5m90s22cvkq"],"fee":185873,"totalOutput":7916618698,"tokens":[]},{"hash":"a996c94fb638abb175175687a26d8004800f4f23f4c17e6c0cd5e85f1ffb174b","blockNo":7251848,"blockHash":"c2a4781be65f0195fcce6828de29aad7e3e4f4c2f56a154e3ecd1158da781504","epochNo":339,"epochSlotNo":13594,"slot":61098394,"time":"2022/05/16 01:31:25","addressesInput":["addr1qxfrasj9egxcygex75fjcs72pz2zdpe5s2gxqclsmf74vyvdnczdyunazj7ktlxuyh3z32l203xay3zd6dzs2a5unawsa8sdrv","addr1qxfrasj9egxcygex75fjcs72pz2zdpe5s2gxqclsmf74vyvdnczdyunazj7ktlxuyh3z32l203xay3zd6dzs2a5unawsa8sdrv","addr1qxfrasj9egxcygex75fjcs72pz2zdpe5s2gxqclsmf74vyvdnczdyunazj7ktlxuyh3z32l203xay3zd6dzs2a5unawsa8sdrv"],"addressesOutput":["addr1w999n67e86jn6xal07pzxtrmqynspgx0fwmcmpua4wc6yzsxpljz3","addr1qxfrasj9egxcygex75fjcs72pz2zdpe5s2gxqclsmf74vyvdnczdyunazj7ktlxuyh3z32l203xay3zd6dzs2a5unawsa8sdrv"],"fee":244524,"totalOutput":11966010,"tokens":[]},{"hash":"f5bb95fc437a7004d94eeb2e43594ade0453a84275ba76ac9c0c25ac76277bb0","blockNo":7251848,"blockHash":"c2a4781be65f0195fcce6828de29aad7e3e4f4c2f56a154e3ecd1158da781504","epochNo":339,"epochSlotNo":13594,"slot":61098394,"time":"2022/05/16 01:31:25","addressesInput":["addr1wxaptpmxcxawvr3pzlhgnpmzz3ql43n2tc8mn3av5kx0yzs09tqh8","addr1w9qzpelu9hn45pefc0xr4ac4kdxeswq7pndul2vuj59u8tqaxdznu","addr1v9tse43fgkrkghfxc6g2wt2qlm0pu73gev7ac78lwej4sgqtejacf","addr1v9tse43fgkrkghfxc6g2wt2qlm0pu73gev7ac78lwej4sgqtejacf"],"addressesOutput":["addr1w9qzpelu9hn45pefc0xr4ac4kdxeswq7pndul2vuj59u8tqaxdznu","addr1w9jx45flh83z6wuqypyash54mszwmdj8r64fydafxtfc6jgrw4rm3","addr1qysurtkpmrhuz6ahnvszzj59jjfx6p62qgln40dsfhyt7w0tculgwp782xvznt8d49sfjnzzz4pgjt9apzp9u8jzp42q20fn84","addr1v9tse43fgkrkghfxc6g2wt2qlm0pu73gev7ac78lwej4sgqtejacf","addr1v9tse43fgkrkghfxc6g2wt2qlm0pu73gev7ac78lwej4sgqtejacf"],"fee":1216722,"totalOutput":10644128535873,"tokens":[]},{"hash":"1d99e60540c9ea6d2c4deaa8cb13298f8e0a460f280344fc3d141304f9d38fa7","blockNo":7251848,"blockHash":"c2a4781be65f0195fcce6828de29aad7e3e4f4c2f56a154e3ecd1158da781504","epochNo":339,"epochSlotNo":13594,"slot":61098394,"time":"2022/05/16 01:31:25","addressesInput":["addr1qx5mptadcljwdueqzsf77xf6xzudfkrlcyevascfn3a98lfmn4qnm3vvrv2e6wyk7s5vqlda0aqtddete3vjdlz73dfqmzergd","addr1qx5mptadcljwdueqzsf77xf6xzudfkrlcyevascfn3a98lfmn4qnm3vvrv2e6wyk7s5vqlda0aqtddete3vjdlz73dfqmzergd"],"addressesOutput":["addr1wydpsqf5zz9ddy76d3f3jrrf6jkpyjr48nx5a706w9y68ucy4wu6s","addr1qx5mptadcljwdueqzsf77xf6xzudfkrlcyevascfn3a98lfmn4qnm3vvrv2e6wyk7s5vqlda0aqtddete3vjdlz73dfqmzergd"],"fee":214033,"totalOutput":21475585,"tokens":[]},{"hash":"d5c5161dda1a621d9ac171d8942ed49ed25dbe900c6cee98f2b47eb09df7dde9","blockNo":7251848,"blockHash":"c2a4781be65f0195fcce6828de29aad7e3e4f4c2f56a154e3ecd1158da781504","epochNo":339,"epochSlotNo":13594,"slot":61098394,"time":"2022/05/16 01:31:25","addressesInput":["addr1qy8w5z6fxfu9mf9ufsmpg2at2f9swmaxn5tg0dfddyqz8j2yepvz4srflschc4sjswffjjyr688j5x9z0ft26azwukcs6wg8sd","addr1w999n67e86jn6xal07pzxtrmqynspgx0fwmcmpua4wc6yzsxpljz3"],"addressesOutput":["addr1q9cwvremt6n320s2e3agq0jyq82yhrk3htsu0w426xnz5us70z4w0jgvcdkkynmm8wmds66jd9kusnjfpu6raw5fqp0sr07p5w","addr1q8s3yxku62ykah6jgx5gr47nc0hrn8pw59xjtmruk0cuse2mejj3zjehp36akrhum8ca8fhft6j3sxl3yv87mnxe6l0qdw8xd0","addr1qxkhamy3x7mdwrwmxym37dxmrx95rhwy066te37qzph3z9qyqamatgd60w8lgm5wlv6xyuvu3ct0xvd5xctvtk7lum2q247asz","addr1qy8w5z6fxfu9mf9ufsmpg2at2f9swmaxn5tg0dfddyqz8j2yepvz4srflschc4sjswffjjyr688j5x9z0ft26azwukcs6wg8sd","addr1qy8w5z6fxfu9mf9ufsmpg2at2f9swmaxn5tg0dfddyqz8j2yepvz4srflschc4sjswffjjyr688j5x9z0ft26azwukcs6wg8sd","addr1qy8w5z6fxfu9mf9ufsmpg2at2f9swmaxn5tg0dfddyqz8j2yepvz4srflschc4sjswffjjyr688j5x9z0ft26azwukcs6wg8sd","addr1qy8w5z6fxfu9mf9ufsmpg2at2f9swmaxn5tg0dfddyqz8j2yepvz4srflschc4sjswffjjyr688j5x9z0ft26azwukcs6wg8sd","addr1qy8w5z6fxfu9mf9ufsmpg2at2f9swmaxn5tg0dfddyqz8j2yepvz4srflschc4sjswffjjyr688j5x9z0ft26azwukcs6wg8sd","addr1qy8w5z6fxfu9mf9ufsmpg2at2f9swmaxn5tg0dfddyqz8j2yepvz4srflschc4sjswffjjyr688j5x9z0ft26azwukcs6wg8sd","addr1qy8w5z6fxfu9mf9ufsmpg2at2f9swmaxn5tg0dfddyqz8j2yepvz4srflschc4sjswffjjyr688j5x9z0ft26azwukcs6wg8sd"],"fee":890545,"totalOutput":2342674302,"tokens":[]},{"hash":"83461e034fca2a4b48e2169475310c2cea122c99d9b03b079fd9f8b24327d4c0","blockNo":7251848,"blockHash":"c2a4781be65f0195fcce6828de29aad7e3e4f4c2f56a154e3ecd1158da781504","epochNo":339,"epochSlotNo":13594,"slot":61098394,"time":"2022/05/16 01:31:25","addressesInput":["addr1q8fd6a0zf6ae2sjqwzqg7afv7h66eexvu3yhy85fynj0cc4yyqggh4095ssvpdkrydu34dujq4hpuvjp2a9wjg7xe00s52tjhv","addr1q8fd6a0zf6ae2sjqwzqg7afv7h66eexvu3yhy85fynj0cc4yyqggh4095ssvpdkrydu34dujq4hpuvjp2a9wjg7xe00s52tjhv","addr1w999n67e86jn6xal07pzxtrmqynspgx0fwmcmpua4wc6yzsxpljz3","addr1q8fd6a0zf6ae2sjqwzqg7afv7h66eexvu3yhy85fynj0cc4yyqggh4095ssvpdkrydu34dujq4hpuvjp2a9wjg7xe00s52tjhv","addr1q8fd6a0zf6ae2sjqwzqg7afv7h66eexvu3yhy85fynj0cc4yyqggh4095ssvpdkrydu34dujq4hpuvjp2a9wjg7xe00s52tjhv"],"addressesOutput":["addr1q9cwvremt6n320s2e3agq0jyq82yhrk3htsu0w426xnz5us70z4w0jgvcdkkynmm8wmds66jd9kusnjfpu6raw5fqp0sr07p5w","addr1q8s3yxku62ykah6jgx5gr47nc0hrn8pw59xjtmruk0cuse2mejj3zjehp36akrhum8ca8fhft6j3sxl3yv87mnxe6l0qdw8xd0","addr1qxelxp66xmr340xuwqp2el7t7ejup5wmn7wa9a53x8v2g3m9t523n7w2acvu8m2huhql8zazr675vfe7whqv0gydd7nqysgl6y","addr1q8fd6a0zf6ae2sjqwzqg7afv7h66eexvu3yhy85fynj0cc4yyqggh4095ssvpdkrydu34dujq4hpuvjp2a9wjg7xe00s52tjhv","addr1q8fd6a0zf6ae2sjqwzqg7afv7h66eexvu3yhy85fynj0cc4yyqggh4095ssvpdkrydu34dujq4hpuvjp2a9wjg7xe00s52tjhv","addr1q8fd6a0zf6ae2sjqwzqg7afv7h66eexvu3yhy85fynj0cc4yyqggh4095ssvpdkrydu34dujq4hpuvjp2a9wjg7xe00s52tjhv"],"fee":1024394,"totalOutput":158795408,"tokens":[]},{"hash":"03a070df10c054ca8244b8e24f2ce64c8d17b17d8094145d9a4e973797784761","blockNo":7251848,"blockHash":"c2a4781be65f0195fcce6828de29aad7e3e4f4c2f56a154e3ecd1158da781504","epochNo":339,"epochSlotNo":13594,"slot":61098394,"time":"2022/05/16 01:31:25","addressesInput":["addr1qyw32xssclrc6hl6jcg9qspz8tkljfq2l2rmteyrkwhkpz3eux8uvfvt5dq7j0fw6q737x5rpvuqfsr0rqztqg6cn25q47nctf","addr1qyw32xssclrc6hl6jcg9qspz8tkljfq2l2rmteyrkwhkpz3eux8uvfvt5dq7j0fw6q737x5rpvuqfsr0rqztqg6cn25q47nctf"],"addressesOutput":["addr1vxex93qc99ag4hmxr8tas9lgxp55kar7arxrejl0r22f0fqunx3u7","addr1qyw32xssclrc6hl6jcg9qspz8tkljfq2l2rmteyrkwhkpz3eux8uvfvt5dq7j0fw6q737x5rpvuqfsr0rqztqg6cn25q47nctf","addr1qyw32xssclrc6hl6jcg9qspz8tkljfq2l2rmteyrkwhkpz3eux8uvfvt5dq7j0fw6q737x5rpvuqfsr0rqztqg6cn25q47nctf"],"fee":247605,"totalOutput":17912279,"tokens":[]},{"hash":"374241d5aeab7ae4478495bada5930ec8f178e4659bd69c16bca3319baab1152","blockNo":7251848,"blockHash":"c2a4781be65f0195fcce6828de29aad7e3e4f4c2f56a154e3ecd1158da781504","epochNo":339,"epochSlotNo":13594,"slot":61098394,"time":"2022/05/16 01:31:25","addressesInput":["addr1qxf90ard99jpc47fuxlqg7p6cgu70d9f5dzc8cqp8f99tlz3k2qjx0uxnd8hqs8hy822f05c0yywau4nuhwx5caull7seq8fau"],"addressesOutput":["addr1q93p2td5mzu7xt938gxk034mz2w0mdefnayz5nqfvrfu4awkupzrcszpzq7m9eflw6wzky89j7ra0hthh3ndms4z4ycs0xrw3s","addr1qxf90ard99jpc47fuxlqg7p6cgu70d9f5dzc8cqp8f99tlz3k2qjx0uxnd8hqs8hy822f05c0yywau4nuhwx5caull7seq8fau"],"fee":169329,"totalOutput":57214414382,"tokens":[]},{"hash":"9f96285d58ec5e7f106dbfd2bfa5624fcccf72e37baa21b024fe70d1f889aa81","blockNo":7251848,"blockHash":"c2a4781be65f0195fcce6828de29aad7e3e4f4c2f56a154e3ecd1158da781504","epochNo":339,"epochSlotNo":13594,"slot":61098394,"time":"2022/05/16 01:31:25","addressesInput":["addr1w8tqqyccvj7402zns2tea78d42etw520fzvf22zmyasjdtsv3e5rz","addr1w8vg4e5xdpad2jt0z775rt0alwmku3my2dmw8ezd884zvtssrq6fg","addr1v9d5mlh2mkk4x9pcfratrnxftdj78ughx7xwq2a6l6v9cpsmwxw00","addr1wypwdjfmenh36445uvwctz6ss3nxnqp3ejczyjwpqqptj2c2apyl9","addr1v9vevvnw6dvlvr7y44fj6u3sfx796m3dalsd6yuwzd0knsc7lee4e","addr1wx6hd6gradhx8m7l2sn5w8pp2vuh22glwq65w07wjfqlf7qlh3dvr","addr1w8usfr3avzl8qh5wm9wcy8uv7cr800ft5vjz5dw3pxeh8fgdp6e6r","addr1vxkgmn8m096ygchx2sk47avhrz5sf3k7cv5dyr3mzpkrr5qfzdyhf","addr1wxtm4swek98d4lp3c8a7pdzphzh9gt68s2jl6csps3j5w5c67cs2k","addr1w835n68qeax023uperwgwlruk3d8yjl4k98r433nhw5waqgkx8prf","addr1v8pr9mwnqarw808gtllvmlxvk70hnszrukjeqfstr9t9g5crud8c4","addr1wxau62drpn3e832yqhhjqjvw3qxuztuns2f93qvzq5w78qsavxpmv","addr1w9xc5279jqxql020jp295d377nqrms826gnhgqxt5g5m9dqlfqf3f","addr1wxht790fjv0snwa9qzd5cvlxn238ahpa88vvtm7ht67mtxgrxgpe0","addr1wyk4u2dymyn37qy4ck2t9gmvrez9axw8kjf4hn7d3lvd5ysfpau7r","addr1vy3qpx09uscywhppj5vp08hu0ekg9zwmq2ysfq6qyh2mpps865j6t","addr1vyylwqclm6d04yg9fy0h0d3l90qstzch07ay7rxxrk6xc8qdht2nv"],"addressesOutput":["addr1vy3qpx09uscywhppj5vp08hu0ekg9zwmq2ysfq6qyh2mpps865j6t","addr1v8pr9mwnqarw808gtllvmlxvk70hnszrukjeqfstr9t9g5crud8c4","addr1qyhgcwtp07gzzv7r5sa9mkwelkq9vmmvyklqkcrtamc4g09rrawdp8n0qyrscfand4ll88vc5xcmxm0nzt0qymdd668ssptkfp","addr1qy7dc92qy4nlgd8pfwsyhshm9frymx602q3822g86mjqld4lslm386qtd3f02xpv995crr0jyxz8ytsxprv5tqzcqgxswk7lvg","addr1q973yxanfgwke73wtwmk6d2hq88c70m6qrlyutvemmxwrxld0tn6fjpm04k7nkjyuvcjhu0vkkzxv7a0udy0f7uga4ksa09a2q","addr1q8j0nrcqw9z5ujpw5l6lp4g2k39muva6n322hxn2l7fvd9sd93yur2xv8pdhu6czh55vvvvr5a9k85dcuy79jw8qukxsgvcdle","addr1wxht790fjv0snwa9qzd5cvlxn238ahpa88vvtm7ht67mtxgrxgpe0","addr1w9xc5279jqxql020jp295d377nqrms826gnhgqxt5g5m9dqlfqf3f","addr1w8usfr3avzl8qh5wm9wcy8uv7cr800ft5vjz5dw3pxeh8fgdp6e6r","addr1wxau62drpn3e832yqhhjqjvw3qxuztuns2f93qvzq5w78qsavxpmv","addr1wyk4u2dymyn37qy4ck2t9gmvrez9axw8kjf4hn7d3lvd5ysfpau7r","addr1wx6hd6gradhx8m7l2sn5w8pp2vuh22glwq65w07wjfqlf7qlh3dvr","addr1w835n68qeax023uperwgwlruk3d8yjl4k98r433nhw5waqgkx8prf","addr1w8vg4e5xdpad2jt0z775rt0alwmku3my2dmw8ezd884zvtssrq6fg","addr1w8tqqyccvj7402zns2tea78d42etw520fzvf22zmyasjdtsv3e5rz","addr1wypwdjfmenh36445uvwctz6ss3nxnqp3ejczyjwpqqptj2c2apyl9","addr1wxtm4swek98d4lp3c8a7pdzphzh9gt68s2jl6csps3j5w5c67cs2k"],"fee":385017,"totalOutput":2172052347,"tokens":[]},{"hash":"415b210aabf3ac5f09a10326c11c00193f31b17a01415c34a6f819a8f3d678d7","blockNo":7251848,"blockHash":"c2a4781be65f0195fcce6828de29aad7e3e4f4c2f56a154e3ecd1158da781504","epochNo":339,"epochSlotNo":13594,"slot":61098394,"time":"2022/05/16 01:31:25","addressesInput":["addr1w92fpglpvanf795jm76q0nskx0tu6z5jpqph4n8dzvksyfcrtkfwy","addr1vxwraexqytdlzdcxwsx4ugmvhtxax8s96t95td67ffc20msg2ayzm","addr1w8tqqyccvj7402zns2tea78d42etw520fzvf22zmyasjdtsv3e5rz","addr1w835n68qeax023uperwgwlruk3d8yjl4k98r433nhw5waqgkx8prf","addr1wyunayz9dmalcsh2f2ey3hmtszgt278yhrhfwszkw20ph2cqetfsl","addr1v944ephrhy8j4rrypr9e536zlu8rpsu5nscsqd0akur5c4gvw8xu3","addr1wy96wdkpq2t6yf25epwtauad3kj24yrx5rk4vnmnczujknc8tptgn","addr1v83ntp8jxwqc7t305fe3ve67y3ccp5wrjcf4vasc65lgnzqzqq3hw","addr1wxmmuv2aufg48cqx37qmmvfysr4rm43rr4ajac333z7m37guzfn54","addr1wyk4u2dymyn37qy4ck2t9gmvrez9axw8kjf4hn7d3lvd5ysfpau7r","addr1w9xc5279jqxql020jp295d377nqrms826gnhgqxt5g5m9dqlfqf3f","addr1w8kuaz20p68fafuxjycdjk9r2520ljckm9mtsl78nu4v8pqdwxvpj","addr1w8usfr3avzl8qh5wm9wcy8uv7cr800ft5vjz5dw3pxeh8fgdp6e6r","addr1vy3qpx09uscywhppj5vp08hu0ekg9zwmq2ysfq6qyh2mpps865j6t","addr1wypwdjfmenh36445uvwctz6ss3nxnqp3ejczyjwpqqptj2c2apyl9","addr1wxgg25t3tk30jqzl2elqz94lzgmr8a9c9m5z902ds5sjh0g7uaj8z","addr1w9xnt8ucaje6tevrafvtcc0yzs8d9m3ck67uvmperh29v0ckjalnj","addr1wx6hd6gradhx8m7l2sn5w8pp2vuh22glwq65w07wjfqlf7qlh3dvr","addr1wxau62drpn3e832yqhhjqjvw3qxuztuns2f93qvzq5w78qsavxpmv","addr1w8aqhs9aaw25jzc95chkqwje7c3ky4r7j60r3fde9zynumg7qn7kc","addr1wxcpjfdxav75dfr2m653l2pf38q5juwz8fst6v5sqdcjsns74jyxe","addr1w80k8xe6vckm3qgklhw98tqjekfvw3mgwux3stmtq3jlprga3u33c","addr1w8vh8ssekk52ye3pt7a2j8upv3qphzmar2sj68353xds9lq5urex7","addr1v8pr9mwnqarw808gtllvmlxvk70hnszrukjeqfstr9t9g5crud8c4","addr1w828m0rdlumnp30dwmv33l4akzhxcpx7a64tuvjwhjn7pxgngjrpx","addr1w8vg4e5xdpad2jt0z775rt0alwmku3my2dmw8ezd884zvtssrq6fg","addr1w9rerwzk0f5v4den9u2c7anv2d4dl88hq9cq0xgcmernsfsak7w6r","addr1v9czkecxajgkup6xt9zcgmxszwqm3su9dwwsrx72cm9mn3gu6mddr","addr1wxht790fjv0snwa9qzd5cvlxn238ahpa88vvtm7ht67mtxgrxgpe0"],"addressesOutput":["addr1vy3qpx09uscywhppj5vp08hu0ekg9zwmq2ysfq6qyh2mpps865j6t","addr1v8pr9mwnqarw808gtllvmlxvk70hnszrukjeqfstr9t9g5crud8c4","addr1qx0f8etlvvzqexpxhp0jkg6cjf00mzcxyak0gl88xcma3rrm2z2kglyhult7fwzmpqguhpzvcjc2273qlgdrz3rqyxwqhzt39j","addr1qyewtg8s3a0ptw8mczcqx8jj740nf9t6de4aa8qlycll50rgvhnzq0cnl8ntcqfy8vwf04l8zpnckq26wkxazmvxy7csmq2p9k","addr1q9ncwefyavph88qp2x6tq0ahe28kxjkhd6ndadcxdj84n07rh2vzqqm3u4pqcx35qjg4qd3cy43vueugr2unttchzxvq9rpxnh","addr1qy39urgq2nv7764qja7yd2v806ztdvculsarcawuzw42lj22s7tueve74zc3lz563v9nvr0vw4l9u3znrt52grkgsumqh5u4j0","addr1wxht790fjv0snwa9qzd5cvlxn238ahpa88vvtm7ht67mtxgrxgpe0","addr1w9xc5279jqxql020jp295d377nqrms826gnhgqxt5g5m9dqlfqf3f","addr1w8usfr3avzl8qh5wm9wcy8uv7cr800ft5vjz5dw3pxeh8fgdp6e6r","addr1wxcpjfdxav75dfr2m653l2pf38q5juwz8fst6v5sqdcjsns74jyxe","addr1w80k8xe6vckm3qgklhw98tqjekfvw3mgwux3stmtq3jlprga3u33c","addr1wxau62drpn3e832yqhhjqjvw3qxuztuns2f93qvzq5w78qsavxpmv","addr1wyunayz9dmalcsh2f2ey3hmtszgt278yhrhfwszkw20ph2cqetfsl","addr1w835n68qeax023uperwgwlruk3d8yjl4k98r433nhw5waqgkx8prf","addr1w828m0rdlumnp30dwmv33l4akzhxcpx7a64tuvjwhjn7pxgngjrpx","addr1w8aqhs9aaw25jzc95chkqwje7c3ky4r7j60r3fde9zynumg7qn7kc","addr1wxmmuv2aufg48cqx37qmmvfysr4rm43rr4ajac333z7m37guzfn54","addr1w8kuaz20p68fafuxjycdjk9r2520ljckm9mtsl78nu4v8pqdwxvpj","addr1wxgg25t3tk30jqzl2elqz94lzgmr8a9c9m5z902ds5sjh0g7uaj8z","addr1wyk4u2dymyn37qy4ck2t9gmvrez9axw8kjf4hn7d3lvd5ysfpau7r","addr1w9xnt8ucaje6tevrafvtcc0yzs8d9m3ck67uvmperh29v0ckjalnj","addr1wy96wdkpq2t6yf25epwtauad3kj24yrx5rk4vnmnczujknc8tptgn","addr1wx6hd6gradhx8m7l2sn5w8pp2vuh22glwq65w07wjfqlf7qlh3dvr","addr1w8vg4e5xdpad2jt0z775rt0alwmku3my2dmw8ezd884zvtssrq6fg","addr1w92fpglpvanf795jm76q0nskx0tu6z5jpqph4n8dzvksyfcrtkfwy","addr1w8vh8ssekk52ye3pt7a2j8upv3qphzmar2sj68353xds9lq5urex7","addr1w9rerwzk0f5v4den9u2c7anv2d4dl88hq9cq0xgcmernsfsak7w6r","addr1w8tqqyccvj7402zns2tea78d42etw520fzvf22zmyasjdtsv3e5rz","addr1wypwdjfmenh36445uvwctz6ss3nxnqp3ejczyjwpqqptj2c2apyl9"],"fee":595249,"totalOutput":2185264360,"tokens":[]},{"hash":"90e4d396ed5c46ae8484bd9441aa6155bf1147f4d415bbe6217c908eb540f76e","blockNo":7251848,"blockHash":"c2a4781be65f0195fcce6828de29aad7e3e4f4c2f56a154e3ecd1158da781504","epochNo":339,"epochSlotNo":13594,"slot":61098394,"time":"2022/05/16 01:31:25","addressesInput":["addr1qypw4e9vdnunf65kwd0uq7epqxacqngv7aatrrhgn9kef6r5p2lv6tlem7up6t62jkhrxsttxpup30zaq0vwhqnmf38shq3z6j"],"addressesOutput":["addr1qykedd6cncrde3pyeyvc6z6500h4kvjjuhveelpymevlcpfvyv0wuf453tgmul4kld986cmu29rdpsq0v3xd6uw5x9zsfhfere"],"fee":166117,"totalOutput":39833883,"tokens":[]},{"hash":"7d0d37d0d78ea838e01f28d51ea4700b28addd5ea28f3a4eeae7e4dda2f605cb","blockNo":7251848,"blockHash":"c2a4781be65f0195fcce6828de29aad7e3e4f4c2f56a154e3ecd1158da781504","epochNo":339,"epochSlotNo":13594,"slot":61098394,"time":"2022/05/16 01:31:25","addressesInput":["addr1qyxhetn3mn5njnc5dpv0ddmxphycm2xy058l8kc40de8hzlzaaydkyats7vqv7427t0dtnxh2vfdy4jacs8sxfw3dz5s0vqrue","addr1qyxhetn3mn5njnc5dpv0ddmxphycm2xy058l8kc40de8hzlzaaydkyats7vqv7427t0dtnxh2vfdy4jacs8sxfw3dz5s0vqrue"],"addressesOutput":["addr1qyee309yspcxahdvznt9esqw9hndp3gskj5pckvvqd4nnh0rgs2qepjuar26wt9rfdcgcd8k0f9nvf8qkxehly4h5uyqj348ll","addr1qyxhetn3mn5njnc5dpv0ddmxphycm2xy058l8kc40de8hzlzaaydkyats7vqv7427t0dtnxh2vfdy4jacs8sxfw3dz5s0vqrue"],"fee":169901,"totalOutput":19671888,"tokens":[]},{"hash":"489fa17c4b6bad9941422605e8a21d4b12b04ab3602f59d932ba155d423c4abc","blockNo":7251848,"blockHash":"c2a4781be65f0195fcce6828de29aad7e3e4f4c2f56a154e3ecd1158da781504","epochNo":339,"epochSlotNo":13594,"slot":61098394,"time":"2022/05/16 01:31:25","addressesInput":["addr1qygs0rlpl4cylz405nlqp99rgnk4zxdg7hvq6g8tj5upaq6al45zx72sucphwyfw9wwnft7rgdg5w5d0l704jl3u5scqaaxrrc","addr1qygs0rlpl4cylz405nlqp99rgnk4zxdg7hvq6g8tj5upaq6al45zx72sucphwyfw9wwnft7rgdg5w5d0l704jl3u5scqaaxrrc","addr1qygs0rlpl4cylz405nlqp99rgnk4zxdg7hvq6g8tj5upaq6al45zx72sucphwyfw9wwnft7rgdg5w5d0l704jl3u5scqaaxrrc","addr1qygs0rlpl4cylz405nlqp99rgnk4zxdg7hvq6g8tj5upaq6al45zx72sucphwyfw9wwnft7rgdg5w5d0l704jl3u5scqaaxrrc","addr1w999n67e86jn6xal07pzxtrmqynspgx0fwmcmpua4wc6yzsxpljz3","addr1qygs0rlpl4cylz405nlqp99rgnk4zxdg7hvq6g8tj5upaq6al45zx72sucphwyfw9wwnft7rgdg5w5d0l704jl3u5scqaaxrrc","addr1qygs0rlpl4cylz405nlqp99rgnk4zxdg7hvq6g8tj5upaq6al45zx72sucphwyfw9wwnft7rgdg5w5d0l704jl3u5scqaaxrrc","addr1qygs0rlpl4cylz405nlqp99rgnk4zxdg7hvq6g8tj5upaq6al45zx72sucphwyfw9wwnft7rgdg5w5d0l704jl3u5scqaaxrrc","addr1qygs0rlpl4cylz405nlqp99rgnk4zxdg7hvq6g8tj5upaq6al45zx72sucphwyfw9wwnft7rgdg5w5d0l704jl3u5scqaaxrrc","addr1qygs0rlpl4cylz405nlqp99rgnk4zxdg7hvq6g8tj5upaq6al45zx72sucphwyfw9wwnft7rgdg5w5d0l704jl3u5scqaaxrrc","addr1qygs0rlpl4cylz405nlqp99rgnk4zxdg7hvq6g8tj5upaq6al45zx72sucphwyfw9wwnft7rgdg5w5d0l704jl3u5scqaaxrrc"],"addressesOutput":["addr1q9cwvremt6n320s2e3agq0jyq82yhrk3htsu0w426xnz5us70z4w0jgvcdkkynmm8wmds66jd9kusnjfpu6raw5fqp0sr07p5w","addr1q80x49rg2xqfy2pgq22lawl54j8yp8a6gtxsvwxa5av862w294wxp7u7jhgt2hy34hhdvju82ye9sv82drldfr2t8ryswfrqwh","addr1q8cmervf3ggcm9tvxasvkejhcrssu2hlgcngcre5qm3y22xuupemtgtxvupckzxac8am3kvcv4tq8cg7d24p9fauznts9mp4td","addr1qygs0rlpl4cylz405nlqp99rgnk4zxdg7hvq6g8tj5upaq6al45zx72sucphwyfw9wwnft7rgdg5w5d0l704jl3u5scqaaxrrc","addr1qygs0rlpl4cylz405nlqp99rgnk4zxdg7hvq6g8tj5upaq6al45zx72sucphwyfw9wwnft7rgdg5w5d0l704jl3u5scqaaxrrc","addr1qygs0rlpl4cylz405nlqp99rgnk4zxdg7hvq6g8tj5upaq6al45zx72sucphwyfw9wwnft7rgdg5w5d0l704jl3u5scqaaxrrc","addr1qygs0rlpl4cylz405nlqp99rgnk4zxdg7hvq6g8tj5upaq6al45zx72sucphwyfw9wwnft7rgdg5w5d0l704jl3u5scqaaxrrc"],"fee":911237,"totalOutput":605763404,"tokens":[]},{"hash":"dd739f3f19af87cd967f74a81fda991e48f11a819b3bbee725686d40d46e467f","blockNo":7251848,"blockHash":"c2a4781be65f0195fcce6828de29aad7e3e4f4c2f56a154e3ecd1158da781504","epochNo":339,"epochSlotNo":13594,"slot":61098394,"time":"2022/05/16 01:31:25","addressesInput":["addr1v8ywp9kuf4mjlfk2dr6e7ukv4f006k3max72au9x8c4tmaqudjapu","addr1vx5up3e7x3d7h7n6cn8a75jj2mvns45hug8uxh2pn6m7n2gk6vm6m","addr1v86kupvfxyge95pzn09ym2sptet57984cysrdc4dweylhvss9xryw"],"addressesOutput":["addr1qxntuu30u0g9ny76tyvw84xnqfeyqc36khdh7frh3hav6ctjyfe93dx8gmfnlwwpnxha9a5mzl64ykn8xn9mdap6p3qqgp2d73","addr1q9ypunx8uasfv726t895s80h4zawt3a35ewjqykvlxp94dugsn6tv622zauadya74s8hc6x8kpp62stfv56qf6tudvhqnq388y","addr1v86kupvfxyge95pzn09ym2sptet57984cysrdc4dweylhvss9xryw"],"fee":275061,"totalOutput":29280913,"tokens":[]},{"hash":"9022bfd4730abc03d58a2e7e64df742d3e3fe112abc97228afedc017fc9f4131","blockNo":7251848,"blockHash":"c2a4781be65f0195fcce6828de29aad7e3e4f4c2f56a154e3ecd1158da781504","epochNo":339,"epochSlotNo":13594,"slot":61098394,"time":"2022/05/16 01:31:25","addressesInput":["addr1qyvwtksjqe405kmv5k79z8d8l2aq43h023rwnepxx9sf032fkvvsaej8s3v0qkz2ry8w47dz4lv6fzqrzjen4rgcjsxs23qfvx"],"addressesOutput":["addr1vxsuf0eahu4nyt5ncjj6nsqwv3nr2zrl22x78yzx2g7v5eg8z3nhx","addr1q8k36pfpad9s3eeuxxeuaug6uyyuaca97dmjx6kqknlhzl2fkvvsaej8s3v0qkz2ry8w47dz4lv6fzqrzjen4rgcjsxspwuwtl"],"fee":174037,"totalOutput":732277466,"tokens":[]},{"hash":"f4d5752c6d91bab07e3ee851f476c73449c873e435f6ce5b9cde6f9842efe950","blockNo":7251848,"blockHash":"c2a4781be65f0195fcce6828de29aad7e3e4f4c2f56a154e3ecd1158da781504","epochNo":339,"epochSlotNo":13594,"slot":61098394,"time":"2022/05/16 01:31:25","addressesInput":["addr1qya572c6ecxue9qycmgeyn3n8jdw0megqvwx64mnp3vtzln858pumqyr0nsm0dwzr7rvevmmkausnqy95w67s583eqesasgxmw","addr1qya572c6ecxue9qycmgeyn3n8jdw0megqvwx64mnp3vtzln858pumqyr0nsm0dwzr7rvevmmkausnqy95w67s583eqesasgxmw"],"addressesOutput":["addr1w999n67e86jn6xal07pzxtrmqynspgx0fwmcmpua4wc6yzsxpljz3","addr1qya572c6ecxue9qycmgeyn3n8jdw0megqvwx64mnp3vtzln858pumqyr0nsm0dwzr7rvevmmkausnqy95w67s583eqesasgxmw","addr1qya572c6ecxue9qycmgeyn3n8jdw0megqvwx64mnp3vtzln858pumqyr0nsm0dwzr7rvevmmkausnqy95w67s583eqesasgxmw"],"fee":224100,"totalOutput":9593035,"tokens":[]},{"hash":"78a83dd59eca370f1977c1ab691ead65111f19268a301cd1ed3ba0fcd17a8bfe","blockNo":7251848,"blockHash":"c2a4781be65f0195fcce6828de29aad7e3e4f4c2f56a154e3ecd1158da781504","epochNo":339,"epochSlotNo":13594,"slot":61098394,"time":"2022/05/16 01:31:25","addressesInput":["addr1w999n67e86jn6xal07pzxtrmqynspgx0fwmcmpua4wc6yzsxpljz3","addr1qye0l0mr8el5nm4p48p6mz80cl5mvj8wuyhzuhqrxxrjt454v87huvf20wcuuhglv9ffx039hl0l597umtcg97wd5yqswgerat"],"addressesOutput":["addr1q9cwvremt6n320s2e3agq0jyq82yhrk3htsu0w426xnz5us70z4w0jgvcdkkynmm8wmds66jd9kusnjfpu6raw5fqp0sr07p5w","addr1q8s3yxku62ykah6jgx5gr47nc0hrn8pw59xjtmruk0cuse2mejj3zjehp36akrhum8ca8fhft6j3sxl3yv87mnxe6l0qdw8xd0","addr1qxht3qrk33l0cpw3eejhsgx39ctr2p065hu6rugnyqcr5yx7x2mvc2nn8hsj2yme3lwrfjspgwunjswp2kpy4l6wkhds7tg6an","addr1qye0l0mr8el5nm4p48p6mz80cl5mvj8wuyhzuhqrxxrjt454v87huvf20wcuuhglv9ffx039hl0l597umtcg97wd5yqswgerat","addr1qye0l0mr8el5nm4p48p6mz80cl5mvj8wuyhzuhqrxxrjt454v87huvf20wcuuhglv9ffx039hl0l597umtcg97wd5yqswgerat","addr1qye0l0mr8el5nm4p48p6mz80cl5mvj8wuyhzuhqrxxrjt454v87huvf20wcuuhglv9ffx039hl0l597umtcg97wd5yqswgerat"],"fee":754576,"totalOutput":244439045,"tokens":[]}],"totalItems":41036593,"totalPages":2051830,"currentPage":0}