{"data":[{"hash":"d732f4e10f7217d65b4b048a01da83e6846adeda6f2188435dccb70c190734dd","blockNo":7979616,"blockHash":"624a09d774edef62d6062c69134d8c41c020ccc2a1630eed6c20d165f21145d7","epochNo":373,"epochSlotNo":398716,"slot":76171516,"time":"2022/11/06 12:30:07","addressesInput":["DdzFFzCqrhsrSTVS5ddv5mXd5sKywNcpB6eCYRXQFFDzXv9ddLVMqX15vHWxa36zfoyhPyEp1ZKU8kKfk7H9jMkuxW5JY6VCSxcgGKbd","DdzFFzCqrhskoBaGukKGzrp1wcUcnygCQrhmfXNg3HWXxSG1XcmjspqgEimkF4xC9FucxKVzaJ98yPyi5PsJ9x2B4YJcdHQu5bdT88a5","DdzFFzCqrhswgvczdJPSduFs8672hf68ZYWntiwQGxJsnPHhyodKcbcT76TEnEPsBbVaaHghjLLyNEz4HeFsgWN2wziWc2PMruy9EjqT","DdzFFzCqrht9gxo4oHFNpAN28PecHnPWRat5ZezR31bphQYwhB3Vkzm5yuX3hR66qCjs5PgSYMB8XTMabjCedAat1TtbDfjHZDfypmi6","DdzFFzCqrhsnxLwbqJPgkNjKonEerpw3WBHW9kH1V16b5efqdzBQPXSBdoNN3fwhQmEbDrCpycTFdxhpajtAfnLcGegygYqsoW1D1hfK","DdzFFzCqrhsoCjLbgJoNepzw5Wr91QsnwyYw2MG9M8Zu3f1yvA7Y93rd9KaELGxW331ibMpj64LhJabWAR4EVZDVrTYB9LB9AJAbwyHr","DdzFFzCqrht8ec3d8xJ54geJ6eMDjeJTbPY2p6G7RoS5jV6tsAvikYxzFX2Lh2QaaF11mXKt6FsgVY1Pe5d63ZTQsiNaq7bfBUNSSEVQ","DdzFFzCqrht9L36Whf98uBLJwmhibxRhFVLeTZwSarYfh5spbU141sdTFLCDcKmmPKJqwLWQ72cr7RYdKp57fXPJvW11ASZ5qaw2JyaE","DdzFFzCqrhtCVduuKXG2GACWmWP4gah8bkmALsd9oCjAFSnUCYpLNoWTqzrx6DD8rgRod3e738ofB7YeFkQeJjAf4eKAR9Z5qLgownQA","DdzFFzCqrhsxQDtVDJK4MNFULeRNcWdGp7v3fEp4CwtYv3GqME2yAJ55PCY3bVjvWNv2pQLu7EKhADajWHYtBHE8XVgrmgvmzam29p6Q","DdzFFzCqrhsmPZsjY3Kntfa1Tn7fU1VBLpXT8LZ4MGfrWkksZ4z4nyoYy3Y2jSywE29nyTKjrMjaemT4KAPTWQWbYGLUWLJj75NEG4Y2","DdzFFzCqrhtCb1YBEjzti1GbrY76tuhfSFkzTatv4KFbMnfy1XtbkC3oK3sbXC2TzdKMpfMqBCscDfnRNNAc75Rr4LphjZBPdyPi2f9T","DdzFFzCqrhsvXPzYG4QZFSQNjhftsiNPWshipUDVjQ7LjaCNtGZTFqh7zvDrRcXbD8AKMkpG1vjMQ2Phvrnfw1481ztxjg7nSh3Kxp36","DdzFFzCqrhsr96tKc5MmoR2iF315vdzScbv1R7br3ka2dKbSvdagvonuCAUWBQVwy2ocZLx6TzDoKP8x31m1iykw35WaR5wquEAdJiTY"],"addressesOutput":["addr1q9atjfpqwdtg7ytz0pz9zcaqvx8zr2uv6ysvc4csqynr683dzefudzxhadht99nh8gv4l3z93d486ygllgxuh2drrrpsdw6fws","DdzFFzCqrhstkucoHdvrF4Kv8446F7M2xPrqzkcCEgyVDVqAoFRJNN2tvx9n2UwCPe7B9BtD1p39wxSzxMXik6Vjw3t62vd8hFrimT91","DdzFFzCqrhspVBPHWbGcqBwNAcumuNG31iztrz6SoRp9fyWbXs1khES8MHDKfzVxNw7bNVXWZjFDtinD7rKXwSSYZFPLhtgDcL8WFKHZ","DdzFFzCqrhsfzZwqojRKWY4mWLGTmVhG5ejoW2V7LktaVThMmeeLmPPqBSQ9ZfMYFsWS5MLW39iNRejhZhyJWvk446DoC8kg8ZF7vxtM"],"fee":982185,"totalOutput":69409442667,"tokens":[]},{"hash":"c9f7b2d93e7a3d4e50342b31fbd8abd01e91612707eee895bd2d213242afd382","blockNo":7979364,"blockHash":"58d1f1abb1c8d94825262d4299694f616886802f5ac5c7da71c16a52745994ef","epochNo":373,"epochSlotNo":393832,"slot":76166632,"time":"2022/11/06 11:08:43","addressesInput":["addr1qx76hnwx8qukkylx5te0em5gf7kgjqadv6x8z406mpyxz6nn3lmaa3wnh8ka8wxllq5f9kpp6spcwum5vvas6xgvuedsh0rgkp","addr1qx76hnwx8qukkylx5te0em5gf7kgjqadv6x8z406mpyxz6nn3lmaa3wnh8ka8wxllq5f9kpp6spcwum5vvas6xgvuedsh0rgkp"],"addressesOutput":["addr1zxgx3far7qygq0k6epa0zcvcvrevmn0ypsnfsue94nsn3tvpw288a4x0xf8pxgcntelxmyclq83s0ykeehchz2wtspks905plm","addr1qx76hnwx8qukkylx5te0em5gf7kgjqadv6x8z406mpyxz6nn3lmaa3wnh8ka8wxllq5f9kpp6spcwum5vvas6xgvuedsh0rgkp","addr1qx76hnwx8qukkylx5te0em5gf7kgjqadv6x8z406mpyxz6nn3lmaa3wnh8ka8wxllq5f9kpp6spcwum5vvas6xgvuedsh0rgkp"],"fee":431217,"totalOutput":122049337,"tokens":[]},{"hash":"eeabf91faf1b7d844921866eb05e1c0d2d297acaca0bc53e51e5b4fcb375a06f","blockNo":7979173,"blockHash":"12e78e6efd33f2768b9ba7f78301b6e398904aa23764e02692dac4df335370fa","epochNo":373,"epochSlotNo":389680,"slot":76162480,"time":"2022/11/06 09:59:31","addressesInput":["addr1qx76hnwx8qukkylx5te0em5gf7kgjqadv6x8z406mpyxz6nn3lmaa3wnh8ka8wxllq5f9kpp6spcwum5vvas6xgvuedsh0rgkp","addr1qx76hnwx8qukkylx5te0em5gf7kgjqadv6x8z406mpyxz6nn3lmaa3wnh8ka8wxllq5f9kpp6spcwum5vvas6xgvuedsh0rgkp"],"addressesOutput":["addr1zxgx3far7qygq0k6epa0zcvcvrevmn0ypsnfsue94nsn3tvpw288a4x0xf8pxgcntelxmyclq83s0ykeehchz2wtspks905plm","addr1qx76hnwx8qukkylx5te0em5gf7kgjqadv6x8z406mpyxz6nn3lmaa3wnh8ka8wxllq5f9kpp6spcwum5vvas6xgvuedsh0rgkp","addr1qx76hnwx8qukkylx5te0em5gf7kgjqadv6x8z406mpyxz6nn3lmaa3wnh8ka8wxllq5f9kpp6spcwum5vvas6xgvuedsh0rgkp"],"fee":487493,"totalOutput":84097213,"tokens":[]},{"hash":"cac2227460e5b9ea70ea0cfde56ea6a66563338e29f38491bbe1ef9acb8e73b3","blockNo":7979125,"blockHash":"06ffce731d47f2ad00c82c6c12cd9e231373cdae2a9c0c86c5716abb054b6518","epochNo":373,"epochSlotNo":388705,"slot":76161505,"time":"2022/11/06 09:43:16","addressesInput":["addr1qyx7ekua7u84m9qcylsqavflstawjdj3400wcmz9asd843fzuq20wwz394xr5htm9c32fc98tl6u8qcrnryrg4g9hars0p79re","addr1qyx7ekua7u84m9qcylsqavflstawjdj3400wcmz9asd843fzuq20wwz394xr5htm9c32fc98tl6u8qcrnryrg4g9hars0p79re","addr1q8t9apw8agakgtl4jwpp3c073vq5zs8x4hc6kssl0z8h8k3zuq20wwz394xr5htm9c32fc98tl6u8qcrnryrg4g9harsdfares","addr1qyx7ekua7u84m9qcylsqavflstawjdj3400wcmz9asd843fzuq20wwz394xr5htm9c32fc98tl6u8qcrnryrg4g9hars0p79re","addr1qyx7ekua7u84m9qcylsqavflstawjdj3400wcmz9asd843fzuq20wwz394xr5htm9c32fc98tl6u8qcrnryrg4g9hars0p79re","addr1qyx7ekua7u84m9qcylsqavflstawjdj3400wcmz9asd843fzuq20wwz394xr5htm9c32fc98tl6u8qcrnryrg4g9hars0p79re","addr1qyx7ekua7u84m9qcylsqavflstawjdj3400wcmz9asd843fzuq20wwz394xr5htm9c32fc98tl6u8qcrnryrg4g9hars0p79re","addr1qyx7ekua7u84m9qcylsqavflstawjdj3400wcmz9asd843fzuq20wwz394xr5htm9c32fc98tl6u8qcrnryrg4g9hars0p79re","addr1qyx7ekua7u84m9qcylsqavflstawjdj3400wcmz9asd843fzuq20wwz394xr5htm9c32fc98tl6u8qcrnryrg4g9hars0p79re","addr1qyx7ekua7u84m9qcylsqavflstawjdj3400wcmz9asd843fzuq20wwz394xr5htm9c32fc98tl6u8qcrnryrg4g9hars0p79re","addr1qyx7ekua7u84m9qcylsqavflstawjdj3400wcmz9asd843fzuq20wwz394xr5htm9c32fc98tl6u8qcrnryrg4g9hars0p79re","addr1qyx7ekua7u84m9qcylsqavflstawjdj3400wcmz9asd843fzuq20wwz394xr5htm9c32fc98tl6u8qcrnryrg4g9hars0p79re","addr1qyx7ekua7u84m9qcylsqavflstawjdj3400wcmz9asd843fzuq20wwz394xr5htm9c32fc98tl6u8qcrnryrg4g9hars0p79re"],"addressesOutput":["addr1zxgx3far7qygq0k6epa0zcvcvrevmn0ypsnfsue94nsn3tvpw288a4x0xf8pxgcntelxmyclq83s0ykeehchz2wtspks905plm","addr1qyx7ekua7u84m9qcylsqavflstawjdj3400wcmz9asd843fzuq20wwz394xr5htm9c32fc98tl6u8qcrnryrg4g9hars0p79re","addr1qyx7ekua7u84m9qcylsqavflstawjdj3400wcmz9asd843fzuq20wwz394xr5htm9c32fc98tl6u8qcrnryrg4g9hars0p79re","addr1qyx7ekua7u84m9qcylsqavflstawjdj3400wcmz9asd843fzuq20wwz394xr5htm9c32fc98tl6u8qcrnryrg4g9hars0p79re","addr1qyx7ekua7u84m9qcylsqavflstawjdj3400wcmz9asd843fzuq20wwz394xr5htm9c32fc98tl6u8qcrnryrg4g9hars0p79re"],"fee":331337,"totalOutput":64394503,"tokens":[]},{"hash":"785f031a259c5753bd85a14c59b5c45e8799cc1c7acd0a5d33e5afaa953c5140","blockNo":7978752,"blockHash":"7ed981aa6fd27668fafcd117ed3710cfe0d8b5aa17d384f2d66c6f7a6d09bc2a","epochNo":373,"epochSlotNo":381554,"slot":76154354,"time":"2022/11/06 07:44:05","addressesInput":["DdzFFzCqrhsfftv3UDuHfxh6SsXXthf8ZhHjfkhdxTLw7RNVC66PGse8HiAimJmo6XuQyPAq5vE6Zg2qpPQuEDfgzmhqpFZv1yoabDyj","DdzFFzCqrht6AGxKLasvpyzLoGddYMDqzNoaJBzWLzwUwCuzG43PPWyph9gr8wXamTNiiAaf5G4Hbin5qn8cEqcT2Ke9rGjLsx3gE247","DdzFFzCqrhtBVUGmJNPCXBHBmYnBP25gvhFVabBhiFN9BKhhBi3XgK6UJmFwbNsWqGAdmuzT5nFGycq5YgM82cKCPcUTdF3MsksNrNuo","DdzFFzCqrht83Tu7V2LK3Qxx838SocC7QgfSg3z3j89U74g9J11aZTBwQ1n6bhx6dAijPXT1HgLTpZwAnqKhfTAScRsc1ox9nNTGA2rn","DdzFFzCqrhsfxd79e2SuaFb9Padwk3tPe94rUCceeBRSSxueud8uLbxC2yT2mpe9rWU3jAZB7uaekcQQkN5eGvojXNPCZm8sUWGVVckY","DdzFFzCqrht9nvNVAQniuTotcJEsKWiVtUSU5dxCxR1breAMVZaUBi5xfKGQdvutgNBe1ELY3QGG9kjv3EPorssK8UvCBctaDiz5JXYy","DdzFFzCqrhsi7GXk514jRfgeKwFn35LA4RntU6Kb6FrvUQboZjc1YtPTkKrn1fRnTP5BXoC5MJGt4BxjekEFqsWHMB7qkqGMFFrGBkLn"],"addressesOutput":["addr1q9atjfpqwdtg7ytz0pz9zcaqvx8zr2uv6ysvc4csqynr683dzefudzxhadht99nh8gv4l3z93d486ygllgxuh2drrrpsdw6fws","DdzFFzCqrhsoCjLbgJoNepzw5Wr91QsnwyYw2MG9M8Zu3f1yvA7Y93rd9KaELGxW331ibMpj64LhJabWAR4EVZDVrTYB9LB9AJAbwyHr","DdzFFzCqrht8ec3d8xJ54geJ6eMDjeJTbPY2p6G7RoS5jV6tsAvikYxzFX2Lh2QaaF11mXKt6FsgVY1Pe5d63ZTQsiNaq7bfBUNSSEVQ","DdzFFzCqrhshF2xds9F1LfZGu8o2jaNLEraLkXvXxL6ZLw5PhqW9JzCBKxy6J9F1LYtDs8u7pcnw5jjRuycgKrpmv2Q1pvQyPwsj2RMH"],"fee":914425,"totalOutput":55173696946,"tokens":[]},{"hash":"c773bb91a86ae6bee4d5f647efbd2b098731dac43194406ccdf70bfa9026c996","blockNo":7978642,"blockHash":"3b4648032717a0e8c6502a4ee38824a1de37bfb46793b39f1d043f418a260c1a","epochNo":373,"epochSlotNo":379204,"slot":76152004,"time":"2022/11/06 07:04:55","addressesInput":["DdzFFzCqrhsr2PHdXgsj4CkQS89t1M81tGCX9h1rxUDhN4FxeVvfaHw2hcMCzf7zdPZuKJeE272APskrNonksRJDyBhUUBxDMfJMbug6","DdzFFzCqrhtASjV9DN1fEHsT5GL7pwn2BZB2JaivSHbRc5M5KFu735pMgFhnm3gLZcGnkEpC8bVkq3mkTEy46xg62d7Z1U3FfLjDjMDv","DdzFFzCqrht8xWw4JXKib5kcMJYsYxowSaLSnbHJtHAiCeVWdnRNymidZUvKp9k2HFyKLFGqk5vsuqeof4vSxpyVaYVBm1pBhSt61SZd","DdzFFzCqrhsh8VYBGp31z5xYD1upqiT8XKbaAzrScKj7qpC88W9XHXBiCLsJ9zMjoH2MiYx3JeM56vzdBatcUaqPseLhiHQ8j5isYauk"],"addressesOutput":["addr1q9atjfpqwdtg7ytz0pz9zcaqvx8zr2uv6ysvc4csqynr683dzefudzxhadht99nh8gv4l3z93d486ygllgxuh2drrrpsdw6fws","DdzFFzCqrht9nvNVAQniuTotcJEsKWiVtUSU5dxCxR1breAMVZaUBi5xfKGQdvutgNBe1ELY3QGG9kjv3EPorssK8UvCBctaDiz5JXYy","DdzFFzCqrht6AGxKLasvpyzLoGddYMDqzNoaJBzWLzwUwCuzG43PPWyph9gr8wXamTNiiAaf5G4Hbin5qn8cEqcT2Ke9rGjLsx3gE247","DdzFFzCqrhsfxd79e2SuaFb9Padwk3tPe94rUCceeBRSSxueud8uLbxC2yT2mpe9rWU3jAZB7uaekcQQkN5eGvojXNPCZm8sUWGVVckY"],"fee":885385,"totalOutput":52084444270,"tokens":[]},{"hash":"9d05b5dfe7225d725795e0d97cb2b1d8ec5130e1003e8814503b8830a4c0229f","blockNo":7978628,"blockHash":"1e5861c293a7da17b3df224998e6ec698bff2d61afc9af3cbf94cd380243f1bc","epochNo":373,"epochSlotNo":378841,"slot":76151641,"time":"2022/11/06 06:58:52","addressesInput":["DdzFFzCqrht7JA4tsyZDM5fBPPQ5VcZsT59cZskG2rb7QMEhExesSFtKtsSvmABcgebyy5iUXFGhvbPhHb82krc85atMi6VzXeRcwGQi","DdzFFzCqrhseF14JiCBEToV65ZL6SfAYxSa1hBJQ6aqAfGFgSyEPbzNpFgWuPoA64AS2Gsi5kUgfKjWYjxyJwWqb7XgmviwrEC9jYViD","DdzFFzCqrhshcadCXJXQSXsRbLqdQFoHbXcocDziRejT5U2v46MG5EvP9A5NxrwYTUmAWJwvpP8V6WAkqo4jEFm1AdZQvRQdhgi7qGm2","DdzFFzCqrht8ePXW9Yvc7FgeU1nPuVEkVvkBhxQm2dwELGEKtoWgEEP85oouvAsnk4s62m9W7FP2HUkxGJxeCmDn6pxivnEY41NmPGLP","DdzFFzCqrhtCvxfLahruRpGfovYryypBYw5X5nJoDi1R3tZSebrHiXdVrDmUvJJbzNeAtqCSUiiv3L7fuJ4nbbL17QQ2iiGSz3z4QkCT","DdzFFzCqrhswiFiMNdVQdqkp13cMW4yJ9xCNPknDqYP19Ub6zop2fSKaAyQ2tuBBWwoszLGL9xfdr9fykg5un8GGdZkgYRQHaenxUUoL","DdzFFzCqrht6WTSLvnQvJMEzwyUzVYZheDxHTzJy8BvMAhapnAkkwCdw9LuDshrKei4jHydggit7PZWWvaT3VJ7TUpNXKSJkgsbrzRNv","DdzFFzCqrht5TpquE47Yiv6uaEqSRUPSi8fEvFp41PYNV4er7mJPbBTUxYyqhfkWAqkac2pLAbfVpZxUDDQNCwzsY15b5P4A2Z58ZCtH","DdzFFzCqrhtCq1FJU2j8JfwXHY8pBFFxJUweLQvExtbNcrUZzaArJKYHcfVZ8kfnGpNLpi7u2CzWMsFvnYGQ8xrrUurZCcWDBw1rueji","DdzFFzCqrhsgveEj8mmQSWGbqNunaAXRi9Lt8TMcYTniaoQoLifbt6QGd1yy9ywp1k533h5T1eReP6kg2Ysjdi6HBAHAbgmwuyTiEamH","DdzFFzCqrhsfHbsREJSCMVhPpKadRe84we4SFk6N2TiAQSeUJxpK9rVSNS8EC1GrWiu5SxEDpkyzKeNf68957g9ygcJybsVRpj3NZzMo","DdzFFzCqrhspG5bsCnA6h9WAvQLFkUfyPT8ckZjJaCgDcmEWmN8fyeHmoD4mnPKjZiVbAdPEubxz6YRZMhp5Svw3DcQryWDLcm2AeVNa","DdzFFzCqrhssoMoVJNsejHcXMrmQn7iUnAWedEbDYGzSXmeRVT13mNUvvLUCa2FvpnBWpXiRTfQaS4StsdrpQVsjiYcRip9HbeUhVbai","DdzFFzCqrhsx4F1dfbCxYockZ4abbB62pQFZm3Ro13DcbJv8qwgauXLbwBg1GAEoWb5mWKXrJosgWvbdgznhm7RFdyQva7i4NQHFCUvb","DdzFFzCqrhsgha8pjZF1aDqsYmvk9zk6RPi5S9udNBVaYnqFFFp9QRs3NQwiudKjUg1C57bGjj4eQkF8BRnycEznciHkAs8DPK36kmLw"],"addressesOutput":["addr1q9atjfpqwdtg7ytz0pz9zcaqvx8zr2uv6ysvc4csqynr683dzefudzxhadht99nh8gv4l3z93d486ygllgxuh2drrrpsdw6fws","DdzFFzCqrhsr2PHdXgsj4CkQS89t1M81tGCX9h1rxUDhN4FxeVvfaHw2hcMCzf7zdPZuKJeE272APskrNonksRJDyBhUUBxDMfJMbug6","DdzFFzCqrhtASjV9DN1fEHsT5GL7pwn2BZB2JaivSHbRc5M5KFu735pMgFhnm3gLZcGnkEpC8bVkq3mkTEy46xg62d7Z1U3FfLjDjMDv","DdzFFzCqrhsh8VYBGp31z5xYD1upqiT8XKbaAzrScKj7qpC88W9XHXBiCLsJ9zMjoH2MiYx3JeM56vzdBatcUaqPseLhiHQ8j5isYauk"],"fee":991865,"totalOutput":79773548230,"tokens":[]},{"hash":"fced5d0ea6f97164cf5d21667a9f20ea5bae4b161244c5cdd4a42225ba6d3151","blockNo":7978455,"blockHash":"87edf7f637963b57cc55f752c4a23e329e69e34feb425f664fd67954973a643e","epochNo":373,"epochSlotNo":375571,"slot":76148371,"time":"2022/11/06 06:04:22","addressesInput":["addr1q9q0hhzne6n0yagtyeg8nl3nr36mngkjqc7fyqsvycssgw3hcdj45clk5lfnp6a2m7jdkpwd06t207rf6p2hzx6lv2jsu22cm4","addr1qxyksvh7gtzpxxhvw79srczytjmavhy9cnwr2w8wfv42zuphcdj45clk5lfnp6a2m7jdkpwd06t207rf6p2hzx6lv2jsc4k43n"],"addressesOutput":["addr1qydvenp7hgxzl5l4l3shmm8jnn6553866s4f90q5smuelpx0wftxlqh7pd4jannv922c7rl2rz9n0avts73kvvl5hq3qu4434d","addr1qx4cjaysuzxzu3r6q0hvvgad97e8p2gudvuze08t0dthsfphcdj45clk5lfnp6a2m7jdkpwd06t207rf6p2hzx6lv2jsatp9hq"],"fee":285401,"totalOutput":60053937,"tokens":[]},{"hash":"56e88e7046847e2306efe588130812e28119939d83e7c01819f86f370d7f8579","blockNo":7977673,"blockHash":"2846d0f7adaedd9896d5bccb4e20f1d6aad2fee3d26157ca200cf9b0ac0b10d4","epochNo":373,"epochSlotNo":360023,"slot":76132823,"time":"2022/11/06 01:45:14","addressesInput":["DdzFFzCqrhsmAR8M7VugfmiEvxTuGRCXKZncCBKakcXRfZj2FmT1PiKth33yS5u2qfAcBeDdvbNFduYbXyXJ7agvSyu38EqXpWxtBQZK","DdzFFzCqrhsgp9oFr62vpgyUq3vTarcVZF6K42yjrexeRKGpzHaKA9tnxW8zLDBLkgGwmjecb325Kr6E7SUw7VBQwFis1k36Pk9EFt2t","DdzFFzCqrht8xE3W8mgU6aXzupgTR7FxrAsZ6rnHwrRX9tR1EtFj9wNjgvuo9vPScwqQmRzzj75bnJrWX8QSt1GSJD3aoz1H2eEnPuPh","DdzFFzCqrhsuy2gMdwzUqS7enXtX2JiMUCYoasNAvYP9YWNVwDGJa8mykii7xtxrT3GbqGiB93BJMznTB42X41Ai76V1fhUwH69nuZBd","DdzFFzCqrhss5kPfra9WoE99ymVww6a8nY4YRDeCetAhoQnqbvF2Ype4qnVQRmmZ3Dw7KN4YCUCa6TxokjT9Bv3Xp3t5hizYGVL1cv7P","DdzFFzCqrhsh5FVJMxGNFafVpuCfYztAsTp86UZz2c4JkzvAaCKj1bncAu6M5r4HHAGuvQx6GePU8udwbLVJuha7oXpcR2f57EjNnERs","DdzFFzCqrht9dmDe7VcznVtAYD4yqV1vkDrxr6oeKJX8LrPzZV1uvPWx4eMxoR5GuNN5bkvu2nnrZXw6LWb92dxFQEzyu3aYJ7TpGatQ","DdzFFzCqrhshDNPCNpV9SyGF19YtrkR9Kec3Z2vrxpzvyzRRgWLmFumMyAV5qD6HXrDHJ26eQCyNm9FyawbxRyQoWt3XzddWmuHPHtNA","DdzFFzCqrht6G94rfnd99WLske8iFNfuAPL1BHj4E721cdSjo6GPZppXV646dx6f6DVe3wSLwH7jb4Qvkhmobt4622yeRniaTQhT1tKd","DdzFFzCqrhstVELAz14vVv3Mdo6sTiGwbZYtqRD8gvd98FvwVEaWSwSXsHzU7rTeGmT4gEeakTSMf2djTApRkpRT1kxqRDqiQH8sTtjN"],"addressesOutput":["addr1q9atjfpqwdtg7ytz0pz9zcaqvx8zr2uv6ysvc4csqynr683dzefudzxhadht99nh8gv4l3z93d486ygllgxuh2drrrpsdw6fws","DdzFFzCqrht7JA4tsyZDM5fBPPQ5VcZsT59cZskG2rb7QMEhExesSFtKtsSvmABcgebyy5iUXFGhvbPhHb82krc85atMi6VzXeRcwGQi","DdzFFzCqrht5TpquE47Yiv6uaEqSRUPSi8fEvFp41PYNV4er7mJPbBTUxYyqhfkWAqkac2pLAbfVpZxUDDQNCwzsY15b5P4A2Z58ZCtH","DdzFFzCqrhtCq1FJU2j8JfwXHY8pBFFxJUweLQvExtbNcrUZzaArJKYHcfVZ8kfnGpNLpi7u2CzWMsFvnYGQ8xrrUurZCcWDBw1rueji"],"fee":943465,"totalOutput":50142021798,"tokens":[]},{"hash":"9368597b3159d36c5dcb83b55a05032ab6de9934f5a8c6e32322b54086fa0f84","blockNo":7977601,"blockHash":"b6eb656ba7f6c019fd69b95ef25ffaced4e4047c923969d334ec3db3e900c618","epochNo":373,"epochSlotNo":358619,"slot":76131419,"time":"2022/11/06 01:21:50","addressesInput":["addr1q9q0hhzne6n0yagtyeg8nl3nr36mngkjqc7fyqsvycssgw3hcdj45clk5lfnp6a2m7jdkpwd06t207rf6p2hzx6lv2jsu22cm4"],"addressesOutput":["addr1qyzstl3hnwvz4m583nupx5ljx3p5p5l0pc906yd8ej2rhxh8w3dz5hlm5knxrwvjhdh39chgyhttqfmfy60sakwudduqz7sfsp","addr1q9q0hhzne6n0yagtyeg8nl3nr36mngkjqc7fyqsvycssgw3hcdj45clk5lfnp6a2m7jdkpwd06t207rf6p2hzx6lv2jsu22cm4"],"fee":251257,"totalOutput":53904705,"tokens":[]},{"hash":"db25832fa174c6336ea67e99ee3c7e4df38fdf7008ccabb73ea478dc1afc331d","blockNo":7977420,"blockHash":"ab9a387139d8c544c3929732a56dabddb4f6efed67a4957a50a26df45ec073c5","epochNo":373,"epochSlotNo":354677,"slot":76127477,"time":"2022/11/06 00:16:08","addressesInput":["addr1q8fjdde87jrua78trg9ylv7gpvd5skzcv5nqp3wl467ykzgsmz083klcvm744y0n7yyg49ykzz0j628xpu4n5u0r0r4qrfqf6q","addr1q8fjdde87jrua78trg9ylv7gpvd5skzcv5nqp3wl467ykzgsmz083klcvm744y0n7yyg49ykzz0j628xpu4n5u0r0r4qrfqf6q","addr1q8fjdde87jrua78trg9ylv7gpvd5skzcv5nqp3wl467ykzgsmz083klcvm744y0n7yyg49ykzz0j628xpu4n5u0r0r4qrfqf6q"],"addressesOutput":["addr1wxn9efv2f6w82hagxqtn62ju4m293tqvw0uhmdl64ch8uwc0h43gt","addr1q8fjdde87jrua78trg9ylv7gpvd5skzcv5nqp3wl467ykzgsmz083klcvm744y0n7yyg49ykzz0j628xpu4n5u0r0r4qrfqf6q","addr1q8fjdde87jrua78trg9ylv7gpvd5skzcv5nqp3wl467ykzgsmz083klcvm744y0n7yyg49ykzz0j628xpu4n5u0r0r4qrfqf6q","addr1q8fjdde87jrua78trg9ylv7gpvd5skzcv5nqp3wl467ykzgsmz083klcvm744y0n7yyg49ykzz0j628xpu4n5u0r0r4qrfqf6q"],"fee":630977,"totalOutput":54644773,"tokens":[]},{"hash":"d36123276bf21b29e4987f4dd2126fc0d64d7afa29f127619cc29fd20834561f","blockNo":7977367,"blockHash":"0db86296600c6548b69e5ad86f8cee8b10e2a16d648f33e3d50864d01ca7df55","epochNo":373,"epochSlotNo":353704,"slot":76126504,"time":"2022/11/05 23:59:55","addressesInput":["DdzFFzCqrhsnNgGhiVdr3mMuETZiiRCWaokxr4DTphYCEKhvenNsAn8614c372WEXhgCQfdf4jorE1ETDiz9urR3kdxmKEogfQ5Eti9F","DdzFFzCqrhsow7dbR7LBfmrBoXeir6kmvEKich6pdVo7qsfTZewtbacB2msFrSXuWKMEGQBzHHYDkfDAgyqt5eUP4aHuPmZdjqEeKUJt","DdzFFzCqrhsdzK42MpiYLrWq4RcVTktQvBLy44xqqfUNDCQmY5mdyZ4Rrk9mb41wQD84G41uUWBfdgN6cEN692v4xFfKn2UNqejQ5Ur1","DdzFFzCqrhstQoctnxDe4A5Poabrm7TiM3w8AFugaQjEg1vB2tivVXwMnNuWHuJcX4RL58JqLeXzJ5hNyAu7zSYZ4Nn3TopkQHBXdAkz","DdzFFzCqrht3BGjR5EAqp24yojDynu1pEaB4wWb2areGFxRhYF5zBFXcxQ3ynYkjRzWgGtmQnS8pK4JuL4rAvYcxUePuYaayA4FwSGC4","DdzFFzCqrhsv8XzSj6iE5os778Y8vyhnNuHDC8vPNAcS1eMjwLpEu2GYpAa9jQtuBtGzpgH1sWPuDHH5NMvj3HuastvFndHerf8XWxEz","DdzFFzCqrht1HBzxGQcCCYi1NabuyKmwzV725yXGbspe6vXH54SnNozreQfEtza3mNyc2eXc1f1E6tTgaJPeHAi2rvyTsombGD5hd379","DdzFFzCqrht9SBKqxTz7Srm15cdazBAqhbwTszDFVeugiZgxpsZq6SoCB3cTGiG6PXsAE2XW4W6hfu1K3NoJNaBccAk1DYkoZ4o9vbRe","DdzFFzCqrhsnaV4DTb2oQJ5CnDD1XG4YZiZbGNDMx2fpDB1hrjkJsDEZp2Pb2yM5ZLYsZxoCQaQZFLEfMAH9m6gzfXgM9h6hicbAXfCY","DdzFFzCqrht9pNYV4WVSV4WGZscKtRcAqNEnCTCLaJpsJJig8iME8SPUapwDveiTuCdoJ1mSoDG3a1VLuP3NEzqEnouqkAvbvburC9f8"],"addressesOutput":["addr1q9atjfpqwdtg7ytz0pz9zcaqvx8zr2uv6ysvc4csqynr683dzefudzxhadht99nh8gv4l3z93d486ygllgxuh2drrrpsdw6fws","DdzFFzCqrht6G94rfnd99WLske8iFNfuAPL1BHj4E721cdSjo6GPZppXV646dx6f6DVe3wSLwH7jb4Qvkhmobt4622yeRniaTQhT1tKd","DdzFFzCqrht8xE3W8mgU6aXzupgTR7FxrAsZ6rnHwrRX9tR1EtFj9wNjgvuo9vPScwqQmRzzj75bnJrWX8QSt1GSJD3aoz1H2eEnPuPh","DdzFFzCqrhsh5FVJMxGNFafVpuCfYztAsTp86UZz2c4JkzvAaCKj1bncAu6M5r4HHAGuvQx6GePU8udwbLVJuha7oXpcR2f57EjNnERs"],"fee":943465,"totalOutput":50557676441,"tokens":[]},{"hash":"79972f0a0ebdb54a7e4b53992832a6229c827d96f7010c20134a7bd3f429fc7f","blockNo":7977287,"blockHash":"25a2097bc24fa4a6ebed3788a15dfe9875170037fda4cfe66e609009030248b7","epochNo":373,"epochSlotNo":351794,"slot":76124594,"time":"2022/11/05 23:28:05","addressesInput":["DdzFFzCqrhsjyjvDs8XuwTDDN1gJpwidFWKsvpRkHskKih3ZARtg3Dwa3dBp8L6KGVcMCtbtjKuQvnaw9nrgaGkViytM5DYEZ7btghf6","DdzFFzCqrhsyza7wSeQK64816P8wgNcS2fsCgb4ppyLQBTcn9fFXQhiK7c1ijHzZqKG8Ey9wCWTByqbVfrAyakfKDepfMRBM9b5dnFJK","DdzFFzCqrhsztB7v7Gzc4dLRZ7G5pjVaJxhRrBFG7QDxNWLdXJ5N7keZmPbEuW8FjjM1uEkCMAvRX5JDVMznuVz7MN9VUnThNQXuaNmy","DdzFFzCqrhtA2B6jUVSkHoQ9Td8UCm3t2kCXevxQ46gyaGpguEJUwvCYiwyvuXwaMKbEK5WY7mnRNPBYR1W5rqAxDtzqo6RCbvzqp4WJ","DdzFFzCqrhsfprnJxDyTCd6iGkxQhLzm3XBwj3UxjHaXJ6DRzHpqhaGgVfyLvQcER8iMRWetjFdRFXMrnNZBcZ6GdHikdjeoy5xujhVg","DdzFFzCqrhsxhY6emayWejtLPAiNN5pHDMtMQ1q5Q2GZyT4v6c4SSGdT3r9KJuPMznThde49VykghQ1MHKkJfeyJUriCbQ8KxT4rMH2o","DdzFFzCqrhtBVUGmJNPCXBHBmYnBP25gvhFVabBhiFN9BKhhBi3XgK6UJmFwbNsWqGAdmuzT5nFGycq5YgM82cKCPcUTdF3MsksNrNuo","DdzFFzCqrhsx57Lpy5ntYHcc3zYBTdKn31tSb2PeXeVXvv5gtTZz32pCPCEmrcFrk85cKeDU6UMTQof2pNUpq3Qfiz4AZkPYGYPvrRAe","DdzFFzCqrht5ptaKsP5pvmdJdN12NVTnnj12VXpJEoHgga8epDiwfqGKziz7qP8RQvStbPiZoMHNd3ukPt4nvRzzb6PxV3hBQ7kH2pap"],"addressesOutput":["addr1q9atjfpqwdtg7ytz0pz9zcaqvx8zr2uv6ysvc4csqynr683dzefudzxhadht99nh8gv4l3z93d486ygllgxuh2drrrpsdw6fws","DdzFFzCqrht9SBKqxTz7Srm15cdazBAqhbwTszDFVeugiZgxpsZq6SoCB3cTGiG6PXsAE2XW4W6hfu1K3NoJNaBccAk1DYkoZ4o9vbRe","DdzFFzCqrhsnNgGhiVdr3mMuETZiiRCWaokxr4DTphYCEKhvenNsAn8614c372WEXhgCQfdf4jorE1ETDiz9urR3kdxmKEogfQ5Eti9F","DdzFFzCqrhsv8XzSj6iE5os778Y8vyhnNuHDC8vPNAcS1eMjwLpEu2GYpAa9jQtuBtGzpgH1sWPuDHH5NMvj3HuastvFndHerf8XWxEz"],"fee":933785,"totalOutput":94202973887,"tokens":[]},{"hash":"3aea94d52ffc88cd98f80702e8e24d9ed747bd761753fcb2873ad5304610ce65","blockNo":7976224,"blockHash":"3a9aaad53b799a9cfc698ea531d0d27ddb1e092b05265f023457284646766008","epochNo":373,"epochSlotNo":331176,"slot":76103976,"time":"2022/11/05 17:44:27","addressesInput":["DdzFFzCqrhstnzfE8n61NtTeDnwxDUYFgGXf3X9Mc8yAz2TTbCgRjztKVRX1kSH54oGXnJek3qJQcnoxDAqx4o2EnCffkwhi3r2dB41D","DdzFFzCqrht8HNryi9Frkj7SWFtNobXFxp45yDpC5aeFLibTVUYdQnWdDDc7SXECrQgBFLyeMsQ2ccxh3rp73gdeHtLUMaD9xQrMVfbw","DdzFFzCqrhskLGjn4aSxpG7R4d2nMErtwAXmBLcDsgrizYdunvUWoxvzRVfdqKgt147pxKyr7SZpR7FnbAw5XusmBLLdPynUTQwEvNc1","DdzFFzCqrhsnn4yDRbVxhSmo9scG8fbeScKAoxCSTTeeLP1XBkPEvmXX4LaJ7uwmUK6882szT8VxJcLE5MsC1DE7pkaeDQVPSpLpsTdL","DdzFFzCqrhshwJokYDRGXRSoEs7qPnGBQS1ruGna7CwaAtGzoM1vbWVCgr2EJJfZn9APGroQupktCtLwFdHYFFcoEM2PqDD1jmuiQoHa","DdzFFzCqrht4Nvia2mHxRmHoKsR4GhtwHDABNMdMxnxz1AVQ737KY221xHSPiB8uFevYatoBKNxUuBFCHk5qvq2s4SDfiDiTNYnG5T6P","DdzFFzCqrhtAakAVZKFzuoRxuh1F6cMAdtWzEHXCKVkp2k78hh23LK2QAxB5ZxRaUq1UtVzozRcXVksKPkcC4923zo5jW4cxhCA2qEXn","DdzFFzCqrht1CojViVUgQY12M7sxhLfh9Ns4yCR8AeDcssKhTR6B2EbXpNryNy5T8YCzEUpB5p4tX8VE4wXhuUyB4yU7ktdkwFMYeici"],"addressesOutput":["addr1q9atjfpqwdtg7ytz0pz9zcaqvx8zr2uv6ysvc4csqynr683dzefudzxhadht99nh8gv4l3z93d486ygllgxuh2drrrpsdw6fws","DdzFFzCqrhtA2B6jUVSkHoQ9Td8UCm3t2kCXevxQ46gyaGpguEJUwvCYiwyvuXwaMKbEK5WY7mnRNPBYR1W5rqAxDtzqo6RCbvzqp4WJ","DdzFFzCqrhsr16EW1wkuXai7fHX2zLZRvDukQshJL8KZ5tsd867yAGjsqhJyPRrrnYKt5uqBwgWwoJVbhoFBtV3vKpTyBFwfcDDrHmzV","DdzFFzCqrhsx57Lpy5ntYHcc3zYBTdKn31tSb2PeXeVXvv5gtTZz32pCPCEmrcFrk85cKeDU6UMTQof2pNUpq3Qfiz4AZkPYGYPvrRAe"],"fee":924105,"totalOutput":50260324683,"tokens":[]},{"hash":"4e4a62d2ff27a5595e8e3f7677388fc7f85270134d61cda8469921b8234f1b82","blockNo":7976214,"blockHash":"939ccd78e3af56fa89465bf86185bbe357528bd73267d9a787831ef72cbc2a39","epochNo":373,"epochSlotNo":330958,"slot":76103758,"time":"2022/11/05 17:40:49","addressesInput":["addr1qxn0kuqk8mysdv8rpqhl39vp6njnxd7dw3yvkcvdk9ke4revmezswc6ql6x9kekl6zm3ptc6g9jlwln9lt6sml5mcl0sndmr62"],"addressesOutput":["addr1zyq0kyrml023kwjk8zr86d5gaxrt5w8lxnah8r6m6s4jp4g3r6dxnzml343sx8jweqn4vn3fz2kj8kgu9czghx0jrsyqqktyhv","addr1qxn0kuqk8mysdv8rpqhl39vp6njnxd7dw3yvkcvdk9ke4revmezswc6ql6x9kekl6zm3ptc6g9jlwln9lt6sml5mcl0sndmr62"],"fee":340270,"totalOutput":251865812,"tokens":[]},{"hash":"18d10817d0b11087824386d0a723d6e73c3496a8ac8e16c6a01e28a316fae0c7","blockNo":7976204,"blockHash":"fca997231f9fa26d6ded8fee2fc5caf22c39e9d98ebf18dd794342b6568adb73","epochNo":373,"epochSlotNo":330660,"slot":76103460,"time":"2022/11/05 17:35:51","addressesInput":["addr1qxn0kuqk8mysdv8rpqhl39vp6njnxd7dw3yvkcvdk9ke4revmezswc6ql6x9kekl6zm3ptc6g9jlwln9lt6sml5mcl0sndmr62"],"addressesOutput":["addr1zyq0kyrml023kwjk8zr86d5gaxrt5w8lxnah8r6m6s4jp4g3r6dxnzml343sx8jweqn4vn3fz2kj8kgu9czghx0jrsyqqktyhv","addr1qxn0kuqk8mysdv8rpqhl39vp6njnxd7dw3yvkcvdk9ke4revmezswc6ql6x9kekl6zm3ptc6g9jlwln9lt6sml5mcl0sndmr62"],"fee":340270,"totalOutput":255856082,"tokens":[]},{"hash":"30fa9db7a19238cf186290acd3321ce2c37dc3a7b14ecbe37727dbd1c87cb9dc","blockNo":7976189,"blockHash":"a420739ffe8a0de543a69f98c55c6bae48ea2bbfbbca4e7f9f5d08203ac5ed91","epochNo":373,"epochSlotNo":330313,"slot":76103113,"time":"2022/11/05 17:30:04","addressesInput":["addr1qxn0kuqk8mysdv8rpqhl39vp6njnxd7dw3yvkcvdk9ke4revmezswc6ql6x9kekl6zm3ptc6g9jlwln9lt6sml5mcl0sndmr62"],"addressesOutput":["addr1zyq0kyrml023kwjk8zr86d5gaxrt5w8lxnah8r6m6s4jp4g3r6dxnzml343sx8jweqn4vn3fz2kj8kgu9czghx0jrsyqqktyhv","addr1qxn0kuqk8mysdv8rpqhl39vp6njnxd7dw3yvkcvdk9ke4revmezswc6ql6x9kekl6zm3ptc6g9jlwln9lt6sml5mcl0sndmr62"],"fee":339962,"totalOutput":259846352,"tokens":[]},{"hash":"3584b2ef5150bdafcf3f2b6615bd0a68c728c9f297c05a88bb19162fddc96d80","blockNo":7976188,"blockHash":"e2e16a0c64fe929e0a4972104f9c4418bc716cc196479e73ae61bfac1e259153","epochNo":373,"epochSlotNo":330284,"slot":76103084,"time":"2022/11/05 17:29:35","addressesInput":["DdzFFzCqrht8KrsS3pwcJqVTBwkvWsmEToT3VDqHu3ZXu3iFMPGmcScPXtqnbaV8yH8uy2NVsyMpvyJ7cHuwUi2PDb5rHa5fhQVdCD2W","DdzFFzCqrhtBBDsNfL9BNkNfs2EUbfkUJadLzypKaL2G7Pa1rMD7MHGe6w9gkkZWfcB66ENyDaFSbWJmXM93bDRxBtVntRGH31BSMww1","DdzFFzCqrhtBK2U5PZUBENaADrAGJ5PdxRH7GSKfVv6rLkLr5J8YLPhqUn59CQCgVcuc2Uz468H1jXimUYsa9cNzwsA1SSStJ9MQSvYZ","DdzFFzCqrhsnBskApwYjUgDemKQqj9ZgDwgLHSP2y5GVjPobA83yQuujY6N8fSzJo8kfAXJcbNUA9AvYz2yYvmU6jK5oTnrHDUVcBfS4","DdzFFzCqrht7935Q6a1UxWvPGYyzr4yjocDXyKuqqfmugMCQ68zf6T6rLdoWUtH54YEwyovJWXrNAJKteJoC4i5H9bRz3GoZzr4KuaHC","DdzFFzCqrhszbEQUjUTj9w4RzzMYq9TqRtX3pbvsXLR7D4UDrTb83Q2XHbzFwuQp1bZxYwPHDykEedvuSRzo64JGmQTqDDQ5mpaa7Vtv","DdzFFzCqrhsnBskApwYjUgDemKQqj9ZgDwgLHSP2y5GVjPobA83yQuujY6N8fSzJo8kfAXJcbNUA9AvYz2yYvmU6jK5oTnrHDUVcBfS4","DdzFFzCqrht4HmqMebHnykTVsbPC4etXguurXNcHT3WL56eePRFVtSs3HV4chKwhYjcKLadETSbm68eFk4Wd8gb39BSd8bc9zvkUjfhv","DdzFFzCqrhsnztWsP2mPvZ7SuUB72D9w4fM6vhEobKgk2q54Wk1jQcwPPxJqN5dTM82Pr52YDLwcGqNSPp3WwzGXKNWqew2nVWqAzabn","DdzFFzCqrhspG5bsCnA6h9WAvQLFkUfyPT8ckZjJaCgDcmEWmN8fyeHmoD4mnPKjZiVbAdPEubxz6YRZMhp5Svw3DcQryWDLcm2AeVNa","DdzFFzCqrht1HaS3aF1aEg345FzxRD384cDDoHMFH1uoBUXSR3fkmUJndRfmCkQ7G3Q62yii4wJ8w78Ep7pyXhZ2fRNE9DdWVkQMR7GF","DdzFFzCqrhsuPeCvfHdZLbQXepQTa43R48rWfBY8xrGjJSVz2d8TvPMjxHXoj89RDxoZ9fBtVCUZTUBUAeZwPSYmCvQjVAwNDjDrZAZ1","DdzFFzCqrht3NfFWcATKFUmqDkYDNLvjunCGdeJgr9ofQ7tw7AznxNKvUr5q3xx9pi4CRNCP8LwF1aPcN2K5MhzYuV7tqrCLuFHp6nm6","DdzFFzCqrht7Xr32xqXDfqh3tvEFK7Wcgb7fWhqdo5LjBevfPoqcWdM4oCBfsExa3GUeLoHCZLZzoUfYjbnz2fii4AUx55rP8TKbZ1Tk","DdzFFzCqrht52szu7M32R9UBPe3w4SUbnLxGpjCmPmAoRheBDrieHRCWidpUMmK5StBV24MVNzdFh4gZLo3E1rg7o24nsE77xDs3H24N","DdzFFzCqrht8TzKoSt49hyaQSCmtC1qX7awiMCm9YbPzAwg5utq6cuq7Bwn1nsMuEiUwZhMMoFjeiQHbdBbxjcSmgBbZ2uVixKraWZZ3","DdzFFzCqrhsgF4hXwFncPd43mLEQipoVRmRuCbfG1h4UTkRsZhU9TJVXccVpPYYUtnzNfrQt2y1CLynv1auFvZQMxax1ruZWGMKqnJH9","DdzFFzCqrhsijPKRFyyqzAbMtKRQG8x3Cr5AUfm6CqgHB7WZLy6KtgroXA6AZ6wCr8kLMhd6cemcTG5Zq2SRNgqFM5P4o5DWKpChPmFb","DdzFFzCqrht1uaf4W5ibDvgeBzvGtmaWLe4B9S6prB1E7eK2gXZreHG8UzfDafjmLrKBBEu1vbNXP4WuXnyifp9hPDtsQLjvDPZSyhe6","DdzFFzCqrhsifQTcMJ3w9ReXHfUCcymJEqzWRP2ySfBkTURvaDVEs5YwKGACge2LzzMoYLT1KAmpre3TvBqZRnqNGpFAZtjQmpXwUnVp","DdzFFzCqrht7hw5gcD5JJuoLMrC6ZPSxKEuCoFyPDsdTzhxtpQw4K9ophL7zzN6XZMcN5qXJpkgojV3nML54aAEpR6yy4wpRMQmSR3zE","DdzFFzCqrht1uaf4W5ibDvgeBzvGtmaWLe4B9S6prB1E7eK2gXZreHG8UzfDafjmLrKBBEu1vbNXP4WuXnyifp9hPDtsQLjvDPZSyhe6","DdzFFzCqrhsvq3druWhhiajPNktTjLs36EYrZubBcbft6PnX1EzMBLWZHkQQpa3ebgsXZ7ud6QitRDfefAwP4SPh6wvudbTWLeG2HNdS","DdzFFzCqrhsrUG2HBsLF4maf4cequahHUR1M4AehWkBaeMncRAwjRVouNqqJSviFXawzSVk8BivD1yH1XmrYSsUBSniE6PytghwGLXDH","DdzFFzCqrhsnBskApwYjUgDemKQqj9ZgDwgLHSP2y5GVjPobA83yQuujY6N8fSzJo8kfAXJcbNUA9AvYz2yYvmU6jK5oTnrHDUVcBfS4","DdzFFzCqrht6CW8sFKSvpA44heDRDfepT4CAtquMbKbutcBuZkMoUkDFjb7m4P5d5r57U4iKd7Q7UnKehzd6iX55wMD6vAzdyrtD7kk1","DdzFFzCqrhsfVEeXW2RozeL6XvFP2ohwEbCBuBjdJzCpbXcsch6f325WzJHiWNQM3U5Rha6uiod393EvC7GV3XigbsChJWMnzDprs8UQ","DdzFFzCqrht4VL6SA3muStURha6pCspKwieuSCsZrHGT6sNgY1Nex6R8XvhU5hA3wr6BgfKy1ma3SUJMoSxHQmraeEmE6CYRb9AHhaHY","DdzFFzCqrhtBWQHEU6vvUyZqyHP6e9QjxP7qsYZ2vZnZpcnN92yrVWDx7FzpxnHa1VQYyPXBPJTbmyEP4ntrUqsNxWyTtDVmw4zrQi9G"],"addressesOutput":["addr1q9atjfpqwdtg7ytz0pz9zcaqvx8zr2uv6ysvc4csqynr683dzefudzxhadht99nh8gv4l3z93d486ygllgxuh2drrrpsdw6fws","DdzFFzCqrht4Nvia2mHxRmHoKsR4GhtwHDABNMdMxnxz1AVQ737KY221xHSPiB8uFevYatoBKNxUuBFCHk5qvq2s4SDfiDiTNYnG5T6P","DdzFFzCqrhskLGjn4aSxpG7R4d2nMErtwAXmBLcDsgrizYdunvUWoxvzRVfdqKgt147pxKyr7SZpR7FnbAw5XusmBLLdPynUTQwEvNc1","DdzFFzCqrht1CojViVUgQY12M7sxhLfh9Ns4yCR8AeDcssKhTR6B2EbXpNryNy5T8YCzEUpB5p4tX8VE4wXhuUyB4yU7ktdkwFMYeici"],"fee":1127385,"totalOutput":95691603256,"tokens":[]},{"hash":"7ab5560a91b6031ebf4a397c0a4943e46b68043c3670ffcc045e4e75699629a3","blockNo":7976177,"blockHash":"2f5de58a6d426ce1363c164b79836c0d118251da4ea18b542ff34689a9d6fabd","epochNo":373,"epochSlotNo":330110,"slot":76102910,"time":"2022/11/05 17:26:41","addressesInput":["addr1qxn0kuqk8mysdv8rpqhl39vp6njnxd7dw3yvkcvdk9ke4revmezswc6ql6x9kekl6zm3ptc6g9jlwln9lt6sml5mcl0sndmr62"],"addressesOutput":["addr1zyq0kyrml023kwjk8zr86d5gaxrt5w8lxnah8r6m6s4jp4g3r6dxnzml343sx8jweqn4vn3fz2kj8kgu9czghx0jrsyqqktyhv","addr1qxn0kuqk8mysdv8rpqhl39vp6njnxd7dw3yvkcvdk9ke4revmezswc6ql6x9kekl6zm3ptc6g9jlwln9lt6sml5mcl0sndmr62"],"fee":340182,"totalOutput":263836314,"tokens":[]},{"hash":"9ff44d04160246157b925b3f99ba1bf6e311fc23b532d2e86390bc8272a85c41","blockNo":7976158,"blockHash":"fd6d0963c151358d04be800da19b2bf32519d737535539e15a43248789bda035","epochNo":373,"epochSlotNo":329650,"slot":76102450,"time":"2022/11/05 17:19:01","addressesInput":["addr1qxn0kuqk8mysdv8rpqhl39vp6njnxd7dw3yvkcvdk9ke4revmezswc6ql6x9kekl6zm3ptc6g9jlwln9lt6sml5mcl0sndmr62"],"addressesOutput":["addr1zyq0kyrml023kwjk8zr86d5gaxrt5w8lxnah8r6m6s4jp4g3r6dxnzml343sx8jweqn4vn3fz2kj8kgu9czghx0jrsyqqktyhv","addr1qxn0kuqk8mysdv8rpqhl39vp6njnxd7dw3yvkcvdk9ke4revmezswc6ql6x9kekl6zm3ptc6g9jlwln9lt6sml5mcl0sndmr62"],"fee":340798,"totalOutput":267826496,"tokens":[]}],"totalItems":11242,"totalPages":563,"currentPage":0}