{"data":[{"txId":56614544,"txHash":"4b95cef5638392dd1a36e886b93b5f0ec5b57458b56e4178a2bc5517bc6e3d45","txTime":"2022/12/04 12:40:51","block":8096391,"epoch":379,"slotNo":78591360,"epochSlotNo":226560,"stakeKey":"stake1ux23fhedddxw4w6a97ncu92z8stnzq7qeqxgjuukrud0aeqa7p6um"},{"txId":56614095,"txHash":"5974c4c929907f73254d45724377ba995b89db1802a4cae2ee6e5a06fa1df3dc","txTime":"2022/12/04 12:29:05","block":8096352,"epoch":379,"slotNo":78590654,"epochSlotNo":225854,"stakeKey":"stake1u9nqljnwl90vgh36qlwkw29a960c0s90qrnzrd7ws2p4r4ga2z6g6"},{"txId":56613707,"txHash":"cf9865ba3c006104b08e1f791cdee2fcf98a8733bab3108b0d7371f88eb55a7f","txTime":"2022/12/04 12:16:10","block":8096323,"epoch":379,"slotNo":78589879,"epochSlotNo":225079,"stakeKey":"stake1ux4dra7qf28fw4sjhzapk6cku7sypdfqjtmwmsysugzp6acgtwy7p"},{"txId":56613662,"txHash":"f6779bb2e8493f424105066445fa79dfb4380ef903e3e31d7a8ebbe12ed8ec0f","txTime":"2022/12/04 12:14:53","block":8096322,"epoch":379,"slotNo":78589802,"epochSlotNo":225002,"stakeKey":"stake1u9lgwfa8gmp7er0jfpfce6ue7ev0ux3ukc8q0s7n97aplzgrw9ysl"},{"txId":56612615,"txHash":"ae351acdd6fb1b255be6157f216301671b1a7e3c6afd22bdef6cdb64a596b641","txTime":"2022/12/04 11:50:15","block":8096241,"epoch":379,"slotNo":78588324,"epochSlotNo":223524,"stakeKey":"stake1u9yzkuzr5nrgrqgc0wa34qnskv76flanukqjc3d4ztkev5q07u6u3"},{"txId":56612360,"txHash":"24abb51a1700bf04ccf8420a562103e3dbfe6b2f3dbbf656b68c0bf90d2da850","txTime":"2022/12/04 11:42:31","block":8096227,"epoch":379,"slotNo":78587860,"epochSlotNo":223060,"stakeKey":"stake1u82mtzuaya63hxaj40f67luw0tvthw9uqaksvn2wr5ncmygtqvpmu"},{"txId":56612321,"txHash":"b75d0865e6f39283c8fbf6848673e4ab694dfb7ae5657643992eaaf0431af103","txTime":"2022/12/04 11:41:55","block":8096221,"epoch":379,"slotNo":78587824,"epochSlotNo":223024,"stakeKey":"stake1uyxh0lhafhrxzm788ajgaeewldylyuzlztwev4mxqxtmfeqxey2st"},{"txId":56612204,"txHash":"2779ab4de202b30ec676451cf96e577f9256cbcea8e89566ecf1fee5ac53e438","txTime":"2022/12/04 11:38:40","block":8096213,"epoch":379,"slotNo":78587629,"epochSlotNo":222829,"stakeKey":"stake1uypwsx9tjvk0excgvkv8v8ka2djlrylccg4nadh7f402wxqdeyhh7"},{"txId":56612122,"txHash":"484af671e4a86c26d0e196ca4503efe6b3dc5846a222ad965207caea561488c9","txTime":"2022/12/04 11:35:47","block":8096207,"epoch":379,"slotNo":78587456,"epochSlotNo":222656,"stakeKey":"stake1u8tynn55mwenl64ynz2hl9dfna6458pv5erru8l0n2jkh8gzj05af"},{"txId":56612003,"txHash":"da0a20ce2c041256f21a5579d30c34e911c1ce3365b3832a47c58163aa055778","txTime":"2022/12/04 11:33:28","block":8096198,"epoch":379,"slotNo":78587317,"epochSlotNo":222517,"stakeKey":"stake1u9wap6kvs6gw2eumeqa9a4gd8ke3f5je49hjczda4usjzmq04v6gs"},{"txId":56611967,"txHash":"30dedba72757e9d39f15459ccfd247907f323c6cf4b082bea23710e0e5c1a229","txTime":"2022/12/04 11:32:25","block":8096197,"epoch":379,"slotNo":78587254,"epochSlotNo":222454,"stakeKey":"stake1uydjvjrpu4q9thmr6eg7dc5svv8gqhys0y9c3u92rccmqsgyusetw"},{"txId":56611945,"txHash":"66f533bc86c04954293f44f6b8be2ddeb615869fdc46d9b53b21b09eab4d4f8b","txTime":"2022/12/04 11:30:55","block":8096193,"epoch":379,"slotNo":78587164,"epochSlotNo":222364,"stakeKey":"stake1u8rcjghg2czvjl5jk88xa5puljl332a0hmm58uynnh53ejq9l7zsq"},{"txId":56611623,"txHash":"74935e367ad033125255547a24af8420666a9f2d8d4d8aa2d3b275476d9424b3","txTime":"2022/12/04 11:23:04","block":8096167,"epoch":379,"slotNo":78586693,"epochSlotNo":221893,"stakeKey":"stake1u8cz2twupp8s65he90swkw9v8728mtl7jpzzvpy93fxe5fskptur0"},{"txId":56611458,"txHash":"303b75976044f14fefdb570b8865d6c7e5c63b773cb0af28962e4777e04d6283","txTime":"2022/12/04 11:18:22","block":8096156,"epoch":379,"slotNo":78586411,"epochSlotNo":221611,"stakeKey":"stake1uyrcp3kgs22hn8k2tzyarks6494rwkssgdxxxm6gms2k36qhgjl6f"},{"txId":56610769,"txHash":"4ae685002c4cd00eb95a2a82e2f7bd4bbb2abd0233bdee37c80c258eebfa3879","txTime":"2022/12/04 10:58:24","block":8096104,"epoch":379,"slotNo":78585213,"epochSlotNo":220413,"stakeKey":"stake1uysk6dkz0ahhwrkdrsgztk5y8lezyfagkr60uk9v082g87qa74emz"},{"txId":56610497,"txHash":"62704204c9214a448640217c2f05a849833608ecc0eba5a6abbcdbcb87d4d8fb","txTime":"2022/12/04 10:52:17","block":8096081,"epoch":379,"slotNo":78584846,"epochSlotNo":220046,"stakeKey":"stake1uyvumpjrvmnhqj2eytzzwazvgjulznvf4azhjtkj838qyws6k7t80"},{"txId":56610131,"txHash":"9d23cdb34d3a8e2d7aafeadd6ab96370e54aa277803776b0b864232b6277b15b","txTime":"2022/12/04 10:40:05","block":8096042,"epoch":379,"slotNo":78584114,"epochSlotNo":219314,"stakeKey":"stake1uxfkmrsulnwgac96x0u7nq7aq06k8mya9wmuakq4nh8teccs8xnn2"},{"txId":56610015,"txHash":"51a3b0e368cfa184ef06afd5da066a9a64ddc814e9d602e03b4e930c67941313","txTime":"2022/12/04 10:37:21","block":8096032,"epoch":379,"slotNo":78583950,"epochSlotNo":219150,"stakeKey":"stake1uyxx5jnhy2q8qwsyz6yv4jhqdyeuweu4eghaw93yxcgu0yg3s2ju7"},{"txId":56609686,"txHash":"414588a7d10d69b2f07b60357996b49a73970fd15c189a7c55a0474ae7b08725","txTime":"2022/12/04 10:27:31","block":8096007,"epoch":379,"slotNo":78583360,"epochSlotNo":218560,"stakeKey":"stake1u8k4aecv2nz4tq8xk2zs2kx408dmrgrsl7jhmyf5au3nxgqq74hln"},{"txId":56609137,"txHash":"f62920d78967cbf45edc4c4a0097e0c0758b4ebad6e905de9eb1eb04ef64af21","txTime":"2022/12/04 10:11:09","block":8095945,"epoch":379,"slotNo":78582378,"epochSlotNo":217578,"stakeKey":"stake1u8adsde57w0cmswlayx6g5xun3a3u2rfe8alqaaxtal5j8sf9wt4j"}],"totalItems":334774,"totalPages":16739,"currentPage":0}