{"data":[{"blockNo":8430753,"slotNo":85487529,"epochNo":395,"epochSlotNo":210729,"hash":"4a4ac41a2ca6944de271c5369cc928021ef6847dc9e695f05c618dfef70bd2db","time":"2023/02/22 08:17:00","txCount":0,"totalFees":0,"totalOutput":0,"slotLeader":"9138b6f09e8e69c29fdee4e11b147b7ad351aab23fc73a9976907f10"},{"blockNo":8430752,"slotNo":85487528,"epochNo":395,"epochSlotNo":210728,"hash":"e4002876fa9060a37403147ac16ef3fc32bb34377454a2eb35eb2bfe95c88264","time":"2023/02/22 08:16:59","txCount":1,"totalFees":338245,"totalOutput":116597174,"slotLeader":"7d45120fc9e82f8b69d886057d80630b721e8f033cb8e3f26621d7bd"},{"blockNo":8430751,"slotNo":85487520,"epochNo":395,"epochSlotNo":210720,"hash":"9e1306480c898c0f2165d1d10ab1f4f64aa6da7293815d0e4aff7169248a7dcf","time":"2023/02/22 08:16:51","txCount":5,"totalFees":3353597,"totalOutput":48263756429743,"slotLeader":"254b9f3ded998ff0b053d92081394f8ee40d7fdcd9e96ed490d19e2c"},{"blockNo":8430750,"slotNo":85487512,"epochNo":395,"epochSlotNo":210712,"hash":"76526636062105e0c748a592d38c72162bae0660e2c03a69907a537bef652ca5","time":"2023/02/22 08:16:43","txCount":4,"totalFees":1053616,"totalOutput":3260439769,"slotLeader":"9ca4378a7ee308d910efd7a611a1df2181314c25723ff4cfa855664c"},{"blockNo":8430749,"slotNo":85487497,"epochNo":395,"epochSlotNo":210697,"hash":"6ee2d9a5a8f28f7736a006697d5b15bfa673ae7151977021147ce1b1d0eb6f19","time":"2023/02/22 08:16:28","txCount":2,"totalFees":747589,"totalOutput":451814543,"slotLeader":"61d2598400211dcda6878511eb6d84719e5c502c7aa63d500f7a57ce"},{"blockNo":8430748,"slotNo":85487490,"epochNo":395,"epochSlotNo":210690,"hash":"f9d15b3f9daf5d4adf53aa3130a35b8e3dd6a658809662955585d0bf5b443f29","time":"2023/02/22 08:16:21","txCount":0,"totalFees":0,"totalOutput":0,"slotLeader":"3d82913d4c8da690aab6af622651f7a659da40af87dcb4b3b98ce830"},{"blockNo":8430747,"slotNo":85487487,"epochNo":395,"epochSlotNo":210687,"hash":"4628cf60a34744212fb3d13e70accaf4c70e422544cdcc2ba23ae8409f668398","time":"2023/02/22 08:16:18","txCount":0,"totalFees":0,"totalOutput":0,"slotLeader":"4a2aa209e00f2926bd0d8a286592bbdea4d35a593c05d41efe29e642"},{"blockNo":8430746,"slotNo":85487485,"epochNo":395,"epochSlotNo":210685,"hash":"3f17279a7fdc67545d0ca25388fbb61a3b951cbba06dc8359f292ff50f75ecd9","time":"2023/02/22 08:16:16","txCount":1,"totalFees":251345,"totalOutput":150426505,"slotLeader":"ffb3fe58689ae0d70d6fb939a842ee78ecfa10eab561274327e78b7b"},{"blockNo":8430745,"slotNo":85487477,"epochNo":395,"epochSlotNo":210677,"hash":"6447cfe9a1576568e3bc94af8bc5e084db629ecafd86b1efe8cffc8e78b6e712","time":"2023/02/22 08:16:08","txCount":3,"totalFees":1884697,"totalOutput":4001894033952,"slotLeader":"50a251d84927d932b9393cb462f300d215faedd5e8a5e791e869f32c"},{"blockNo":8430744,"slotNo":85487466,"epochNo":395,"epochSlotNo":210666,"hash":"7c6341fab87182b791c45ad7b9e8440d8d5894fda37d3e1ecb2de5d17167e59f","time":"2023/02/22 08:15:57","txCount":6,"totalFees":1879633,"totalOutput":28884434866501,"slotLeader":"65f3f975b5d6e8fabff2789e9d48bad257e3affedc2a396aa458c7eb"},{"blockNo":8430743,"slotNo":85487456,"epochNo":395,"epochSlotNo":210656,"hash":"bacad435396ede390d6b94906fe5f08a2bbed4225c58b0540dc4518b472e53f9","time":"2023/02/22 08:15:47","txCount":16,"totalFees":4208338,"totalOutput":180236422639,"slotLeader":"5eb362978a68a4780f4fd701b8f04f5aeb990eb80b1cb025d99e82a1"},{"blockNo":8430742,"slotNo":85487420,"epochNo":395,"epochSlotNo":210620,"hash":"c8c187035e99e14910b45435ae816dda44b9d244ca5465bdfb0fc12027cdb231","time":"2023/02/22 08:15:11","txCount":4,"totalFees":828234,"totalOutput":632686549199,"slotLeader":"538299a358e79a289c8de779f8cd09dd6a6bb286de717d1f744bb357"},{"blockNo":8430741,"slotNo":85487409,"epochNo":395,"epochSlotNo":210609,"hash":"940e757ea9a4692d4da2559e25d06e659680d30bdafd8ce85b4e8986a0e5006e","time":"2023/02/22 08:15:00","txCount":19,"totalFees":6544301,"totalOutput":23152435120059,"slotLeader":"7e00129d906afbba06a6b279fcf6e4295986a1104b7f5c4046c653bc"},{"blockNo":8430740,"slotNo":85487361,"epochNo":395,"epochSlotNo":210561,"hash":"20b9222e46ae18ab11a1ab3f9927727dc280341e7e6c92ef0ea17f96274a5c57","time":"2023/02/22 08:14:12","txCount":10,"totalFees":3047337,"totalOutput":1166777468020,"slotLeader":"59d12b7a426724961607014aacea1e584f3ebc1196948f42a10893bc"},{"blockNo":8430739,"slotNo":85487340,"epochNo":395,"epochSlotNo":210540,"hash":"74d7f550dfd2196610328fe0b6311862bb02488e63cf84bd8143ff54fe5cd7ba","time":"2023/02/22 08:13:51","txCount":7,"totalFees":1556620,"totalOutput":27328679593,"slotLeader":"970e9a7ae4677b152c27a0eba3db996b372de094d24fc2974768f3da"},{"blockNo":8430738,"slotNo":85487327,"epochNo":395,"epochSlotNo":210527,"hash":"8c9c64b8e4e9d3c224f2d64a32dcaec4fd4b7d322f2b0b9a730c47157d493b2c","time":"2023/02/22 08:13:38","txCount":7,"totalFees":2669076,"totalOutput":2465208247827,"slotLeader":"921dc3fc11681ad9ccde08c9bc23041808f4b7e8ba231be557db8ab5"},{"blockNo":8430737,"slotNo":85487311,"epochNo":395,"epochSlotNo":210511,"hash":"baec4d950b09eb74f782742e6c0282bb6eecb6f572dadce4f22f0e018e814d82","time":"2023/02/22 08:13:22","txCount":5,"totalFees":1095208,"totalOutput":741006726,"slotLeader":"fc2d8488ef021561a83af7b56f973b94cfcfd8100433ee6fd0b0aa45"},{"blockNo":8430736,"slotNo":85487298,"epochNo":395,"epochSlotNo":210498,"hash":"e057ed9a36406f9ecb32808c7b88a41e33808fca501dc10551561f638eac1d1e","time":"2023/02/22 08:13:09","txCount":5,"totalFees":1234149,"totalOutput":5526142605,"slotLeader":"571b0be3f126255004d9828f37f11026551b9ca391c4aed3b05d6a75"},{"blockNo":8430735,"slotNo":85487285,"epochNo":395,"epochSlotNo":210485,"hash":"695737cf821511dbfa94de692ecfdfd769d3d7e3cf988cf3a22e578dd30becf2","time":"2023/02/22 08:12:56","txCount":1,"totalFees":233854,"totalOutput":472065454,"slotLeader":"beb5390bc047831874ad69f615a6f023ea121865c75ec389d6c0a392"},{"blockNo":8430734,"slotNo":85487278,"epochNo":395,"epochSlotNo":210478,"hash":"6240a9fd15f1c5afc405d57e967544755c81850ba3ff0cc2b1375a133facf93c","time":"2023/02/22 08:12:49","txCount":18,"totalFees":6712598,"totalOutput":370931500810,"slotLeader":"f0e505f8f0d7beccffe83c287d0d2ff6a46ec5d38345e8bd35359427"}],"totalItems":8430929,"totalPages":421547,"currentPage":0}