{"data":[{"address":"addr1z8snz7c4974vzdpxu65ruphl3zjdvtxw8strf2c2tmqnxz2j2c79gy9l76sdg0xwhd7r0c0kna0tycz4y5s6mlenh8pq0xmsha","txCount":498972,"balance":44747054742259},{"address":"addr1z8jd97ct35n4s5ss8lt4sq0zclw0dmf7yak8fj46m0jm3d475v0pzyfnfwd4drdgh0uxkl9tpd679xps84y757htua9s6w8m7p","txCount":2,"balance":20000000000000},{"address":"addr1w9qzpelu9hn45pefc0xr4ac4kdxeswq7pndul2vuj59u8tqaxdznu","txCount":452731,"balance":12466832446718},{"address":"addr1w8pydstdswmdqmg2rdt59dzql3zgfp9pt8sulnjgalycwdsj9js7w","txCount":63378,"balance":6306276414818},{"address":"addr1wy0nmrl40z3nx9d0d79pu5u7zett4hl2apfuj9caqgf7jjqcj3r8z","txCount":316,"balance":5448329591509},{"address":"addr1w93j7t23z99448k7xspzrppjtgun0janh0rcq6k8wt2e8vc2fraw4","txCount":3321,"balance":4381967590984},{"address":"addr1z8nvjzjeydcn4atcd93aac8allvrpjn7pjr2qsweukpnay2tqrfwamagnyfv43jgm94yvkmsnfvpzlytmkl0cs0uh8zqszu5da","txCount":6447,"balance":2665799070323},{"address":"addr1z8nvjzjeydcn4atcd93aac8allvrpjn7pjr2qsweukpnayg3sm3lpp76yuejdf6w3qyry2spy8xjmjrlxy2cstm3fthsjc3xze","txCount":5727,"balance":2369686827548},{"address":"addr1z8nvjzjeydcn4atcd93aac8allvrpjn7pjr2qsweukpnay0juqg4tpvktqnle8j0ukcnww78l7ze4lrgunuwqnxtvjps8lclpw","txCount":2256,"balance":1837460067324},{"address":"addr1z8nvjzjeydcn4atcd93aac8allvrpjn7pjr2qsweukpnaytvcg6zm2vds6mz9x3h3yalqmnf24w86m09n40q3tgqxjms9yu6v8","txCount":14059,"balance":1740214454830},{"address":"addr1z85t4tvj3rwf40wqnx6x72kqq6c6stra7jvkupnlqrqyarthhd58w0qrqpyv4dc2c2mk98sduawl7l4gjuc9rafyv98sgylfw3","txCount":4736,"balance":1422735106090},{"address":"addr1wyvaauzxnwq4k0dc00z4m22c9ugk0wefcavjfsqp4u0gnzsq6ddru","txCount":5,"balance":1367211827299},{"address":"addr1z8nvjzjeydcn4atcd93aac8allvrpjn7pjr2qsweukpnayg4pn8uxr87tguqw8jkn6p233rk7k683ppl2mspr8appw9q640ms8","txCount":4553,"balance":1366320606816},{"address":"addr1z9cy2gmar6cpn8yymll93lnd7lw96f27kn2p3eq5d4tjr7rshnr04ple6jjfc0cvcmcpcxmsh576v7j2mjk8tw890vespzvgwd","txCount":6996,"balance":1273500982635},{"address":"addr1zxgx3far7qygq0k6epa0zcvcvrevmn0ypsnfsue94nsn3tvpw288a4x0xf8pxgcntelxmyclq83s0ykeehchz2wtspks905plm","txCount":1102164,"balance":1074018008129},{"address":"addr1w9jx45flh83z6wuqypyash54mszwmdj8r64fydafxtfc6jgrw4rm3","txCount":452575,"balance":883207161391},{"address":"addr1zykhtew0z93z6hmgu2ew7kl9puqz0wmafp0f3jypuejkwmrfjcnq9fczt4qkxgec2hz6x7f38vnj8xuxywk4x4qgzh9skq4p22","txCount":1271,"balance":819849321922},{"address":"addr1w8x38ff6386urtptgnyaycvgjquxkquvkpc9z4u8efaj7fgul2zra","txCount":346,"balance":782554706286},{"address":"addr1zyh4ygwdy2mnhxntq4fw8jcwgtrtqeu6fslwy64029wk8wcfzup4e9umthe6xgvhcxu4d5cygcj0h3vdslrt3whadmnsujfr0f","txCount":1,"balance":762600000000},{"address":"addr1z8nvjzjeydcn4atcd93aac8allvrpjn7pjr2qsweukpnayw8509kp8r0ackk0d45d3gmh5yg9pty67r9zmfs3gcyv08qxshhsw","txCount":2543,"balance":533116973678}],"totalItems":21176,"totalPages":1059,"currentPage":0}