{"data":[{"blockNo":8139124,"slotNo":79466064,"epochNo":381,"epochSlotNo":237264,"hash":"adab30eb8222967f852f4a707a4bd73820ea4e6f347f3f0587c159001f8c0f82","time":"2022/12/14 15:39:15","txCount":9,"totalFees":3005239,"totalOutput":125332283084,"slotLeader":"42c3740db23c3fc36cb9f63aa8070ec01417b4d22893463c8c8a21d4"},{"blockNo":8139123,"slotNo":79466055,"epochNo":381,"epochSlotNo":237255,"hash":"de5fea38a20499477d61fbdd75da80c0e0354d0b4d4f4b1481d81a551f6dfbf1","time":"2022/12/14 15:39:06","txCount":27,"totalFees":8777111,"totalOutput":5075748140515,"slotLeader":"3116c834a09b0060aef7284f63d3275456364e3309b3c19ec328af60"},{"blockNo":8139122,"slotNo":79466027,"epochNo":381,"epochSlotNo":237227,"hash":"8ef0e6b2d71a84cd6f16e74dc3423072a4ff75a62eb852db8c9c00a1c4ace0d0","time":"2022/12/14 15:38:38","txCount":52,"totalFees":14118456,"totalOutput":1465256232286,"slotLeader":"56f78c5478524496790461eefd4d9380f71dfb231358736902648dfe"},{"blockNo":8139121,"slotNo":79465955,"epochNo":381,"epochSlotNo":237155,"hash":"2cfe3aa1c4cb3d87e8b6ae883f8c63e1f393033f89d6b29e8df458484a667705","time":"2022/12/14 15:37:26","txCount":31,"totalFees":7336687,"totalOutput":164607646032,"slotLeader":"6d54378bf38d98cc52aea96b4f468898f7a8d3b03de47112275c8237"},{"blockNo":8139120,"slotNo":79465919,"epochNo":381,"epochSlotNo":237119,"hash":"11bbee64ebfd4e0a922e246091ef7a5c9a8cb1ee9786567f829b06114477c3ab","time":"2022/12/14 15:36:50","txCount":20,"totalFees":5494151,"totalOutput":585945089790,"slotLeader":"738585e4df0f9fb93dec66a9bfddd770f309d0f029bd2fd570732c8f"},{"blockNo":8139119,"slotNo":79465900,"epochNo":381,"epochSlotNo":237100,"hash":"5e3fc449e3d2c050f894f703c4cc4561f51e0d4b93642a3ca9bd7b58df04578f","time":"2022/12/14 15:36:31","txCount":57,"totalFees":15361759,"totalOutput":266144308532,"slotLeader":"1bdb8db050fb6cfd13a8e34ddec812e0aec77c589f71fc396cd9d950"},{"blockNo":8139118,"slotNo":79465831,"epochNo":381,"epochSlotNo":237031,"hash":"7230578e23836f9953c568ef94fd55933c387df3f2d2b47535e694f32fb7f113","time":"2022/12/14 15:35:22","txCount":6,"totalFees":2084561,"totalOutput":127949725322,"slotLeader":"675304517e38e66880714b3c4816f47866c302edafceb96945fd056f"},{"blockNo":8139117,"slotNo":79465822,"epochNo":381,"epochSlotNo":237022,"hash":"7e9513aed57a2b265625cf3bdd9179fd9a18945b778bf7a69e56309c647d2554","time":"2022/12/14 15:35:13","txCount":15,"totalFees":5670005,"totalOutput":15266863853,"slotLeader":"10bc63e4689bd58b8a7d248a99360a45a80d047b0b4752a7b00b754b"},{"blockNo":8139116,"slotNo":79465799,"epochNo":381,"epochSlotNo":236999,"hash":"9dea9bab09417872ea76345135bed96e0092861813859e06f7d44ad3800b8f07","time":"2022/12/14 15:34:50","txCount":7,"totalFees":3013350,"totalOutput":3627903982933,"slotLeader":"b07dde7ad2e458a89177d4e10cd657309d9e36a79ef1edebb60b414f"},{"blockNo":8139115,"slotNo":79465792,"epochNo":381,"epochSlotNo":236992,"hash":"2ae7063b47da70160514a7dbdc1612e2ba7e0a6a680393d15c172e34980b1712","time":"2022/12/14 15:34:43","txCount":10,"totalFees":2782248,"totalOutput":64224126736,"slotLeader":"f747208eb5e3b703b271ff373b4dc4ca643c026071e480689be320d9"},{"blockNo":8139114,"slotNo":79465785,"epochNo":381,"epochSlotNo":236985,"hash":"f54ff70b194982a231c0d8cf95c3b1b8b5413d7c80f755f148e956d49bf71f20","time":"2022/12/14 15:34:36","txCount":1,"totalFees":688468,"totalOutput":94000000,"slotLeader":"e0d0ce6856aa952a99cb376b4f882dd376aa6e095dc36c886faaa19c"},{"blockNo":8139113,"slotNo":79465782,"epochNo":381,"epochSlotNo":236982,"hash":"883ba2e117c4b19b9e0dbb1356430f42077101fc532940bd62aec6f710fde287","time":"2022/12/14 15:34:33","txCount":17,"totalFees":5675327,"totalOutput":207749343256,"slotLeader":"beb5390bc047831874ad69f615a6f023ea121865c75ec389d6c0a392"},{"blockNo":8139112,"slotNo":79465765,"epochNo":381,"epochSlotNo":236965,"hash":"1945b80322ea13f6804a7fce2c56250a0e294c84999b6cf81015a36a0b90b726","time":"2022/12/14 15:34:16","txCount":4,"totalFees":3083137,"totalOutput":4965860828615,"slotLeader":"c27db049e669c55902e3f4d34d5366e3321b1f3c6517acdf7c766a5b"},{"blockNo":8139111,"slotNo":79465757,"epochNo":381,"epochSlotNo":236957,"hash":"878c2904801d17c1db48d3cb632e342b54d9a113465f1259a3a126502648bf89","time":"2022/12/14 15:34:08","txCount":18,"totalFees":8262790,"totalOutput":77080659376,"slotLeader":"34eb602eb435e3c6a4feb6d766a44735ca09e963f82098973c85951e"},{"blockNo":8139110,"slotNo":79465735,"epochNo":381,"epochSlotNo":236935,"hash":"5aad9f9519bb1cda5547a74a39d3ee32733ed9b22bdc29fcf691f662f3cea5ae","time":"2022/12/14 15:33:46","txCount":15,"totalFees":3791321,"totalOutput":534945900754,"slotLeader":"689a60c22ae02ece9405e0cd5fefdb7ceffc0a52c61c42d9955a9b1b"},{"blockNo":8139109,"slotNo":79465720,"epochNo":381,"epochSlotNo":236920,"hash":"8fb2e362dd03c6537521438e851a4a8ee22c1a9bd5b7b3100251929ddf876dbf","time":"2022/12/14 15:33:31","txCount":12,"totalFees":3147878,"totalOutput":7791206149,"slotLeader":"e0ac9f1b68d0621a4e6723f369a50e81f27916acb7cd42bc03eaac93"},{"blockNo":8139108,"slotNo":79465707,"epochNo":381,"epochSlotNo":236907,"hash":"ed01cf89d707e1ddbcca34a6a1f510e7d68aceed1b2d94f5af966da38e2aa023","time":"2022/12/14 15:33:18","txCount":9,"totalFees":3301784,"totalOutput":862878671456,"slotLeader":"d058aaaeea58887b79ecb57708d1694bd323276a6b54185bd86415e7"},{"blockNo":8139107,"slotNo":79465703,"epochNo":381,"epochSlotNo":236903,"hash":"9c0176ad6373430cf927cb9106a87220622445f6bc4b486db5460ecc5e599d77","time":"2022/12/14 15:33:14","txCount":15,"totalFees":3351645,"totalOutput":536916488659,"slotLeader":"bd8286b7f327621459728c0cd1f7a731eaf7b2fd0df1c6b09b2932a5"},{"blockNo":8139106,"slotNo":79465691,"epochNo":381,"epochSlotNo":236891,"hash":"cae2f6c727fbb5bb91f52c0b460a2d92bc283ac08250787c77673cce8a02345b","time":"2022/12/14 15:33:02","txCount":6,"totalFees":1581374,"totalOutput":1739733493,"slotLeader":"153806dbcd134ddee69a8c5204e38ac80448f62342f8c23cfe4b7edf"},{"blockNo":8139105,"slotNo":79465685,"epochNo":381,"epochSlotNo":236885,"hash":"e089410ae814e9c03fe34db897ce9b2764dcceda235f7c030a6ac3b990f17787","time":"2022/12/14 15:32:56","txCount":54,"totalFees":16268150,"totalOutput":2145870140875,"slotLeader":"a087620de93bee6faeb0c33ca5e647f9c4e1e037d8f28e95dc583179"}],"totalItems":8139300,"totalPages":406965,"currentPage":0}