{"data":[{"hash":"d094b84021db3386c9c789c98017b44da538dc9e0800a90ab5d3f30c06655cf8","blockNo":6838380,"blockHash":"9de0e07bdf8325b6fca59543f5a66f9aeb9ad89e7797e99bbc6995ef68637858","epochNo":318,"epochSlotNo":354632,"slot":52367432,"time":"2022/02/04 00:15:23","addressesInput":["addr1wxaptpmxcxawvr3pzlhgnpmzz3ql43n2tc8mn3av5kx0yzs09tqh8","addr1w9qzpelu9hn45pefc0xr4ac4kdxeswq7pndul2vuj59u8tqaxdznu","addr1v8yxaq66rvyn42qkzr7njd05v0899xffehkcka0hk5wwv3qsrzjk6","addr1v8yxaq66rvyn42qkzr7njd05v0899xffehkcka0hk5wwv3qsrzjk6"],"addressesOutput":["addr1w9qzpelu9hn45pefc0xr4ac4kdxeswq7pndul2vuj59u8tqaxdznu","addr1w9jx45flh83z6wuqypyash54mszwmdj8r64fydafxtfc6jgrw4rm3","addr1qxgvtf49d4tla4e4laujd2fn6k9e7993see7qksxkt3fn63qhswth0p9sahttv2zltvqfwfepctvw2wu8y9fyszadm9q8qwyj0","addr1v8yxaq66rvyn42qkzr7njd05v0899xffehkcka0hk5wwv3qsrzjk6","addr1v8yxaq66rvyn42qkzr7njd05v0899xffehkcka0hk5wwv3qsrzjk6"],"fee":1212407,"totalOutput":167100479649,"tokens":[]},{"hash":"a4bef11ce0bebfd36f6cae46619029ceee1a37d20827369b08519a1aa5056e18","blockNo":6838380,"blockHash":"9de0e07bdf8325b6fca59543f5a66f9aeb9ad89e7797e99bbc6995ef68637858","epochNo":318,"epochSlotNo":354632,"slot":52367432,"time":"2022/02/04 00:15:23","addressesInput":["addr1q9kxux7hlc8dxa9dzxaulltv7ejnp0tzznyuf7sse3053pzum239kntv7rddw93lv23e7vyxp5pdlmhmadrmhdduwssq9csv84","addr1q9kxux7hlc8dxa9dzxaulltv7ejnp0tzznyuf7sse3053pzum239kntv7rddw93lv23e7vyxp5pdlmhmadrmhdduwssq9csv84"],"addressesOutput":["addr1qx838fk53ez25ygmjk85uurf7jfwdq6rwplz7g5y7ug4p2ynr07kmj26h4dp0te0cvtqt9ztqrsaeefwkzw0yj7d9paspn9v7x"],"fee":1104755,"totalOutput":1413762,"tokens":[]},{"hash":"954682ef81397cf7993553f9f80efbcc379eccce80495e130766f38dec8cee2c","blockNo":6838380,"blockHash":"9de0e07bdf8325b6fca59543f5a66f9aeb9ad89e7797e99bbc6995ef68637858","epochNo":318,"epochSlotNo":354632,"slot":52367432,"time":"2022/02/04 00:15:23","addressesInput":["addr1qylyu5uy5kduw6agelelh0438ykze2as3qu48t934qhas26wc57yk4xzhxhfk8gc6jfqkjsxgmycu8atmgl60w3eayaqh2v47r"],"addressesOutput":["addr1qxtkhkm7awuhkfe40y0kzfk3szutls4wyvcfp927wd6433a4huu290x0lx77mafwspfp3w6sdzxdpdyz97xq7zhspgaq7k9apa","addr1q842t2mu4g6xprh0vfuwljattn67js3atycrmwra0qp4dk2wc57yk4xzhxhfk8gc6jfqkjsxgmycu8atmgl60w3eayaqze2pl4"],"fee":169021,"totalOutput":476770078,"tokens":[]},{"hash":"45b0b32cc4c931ead641d15f9d70dceca9e69f9ddf7b36f8e9e4075ceb9fe21a","blockNo":6838380,"blockHash":"9de0e07bdf8325b6fca59543f5a66f9aeb9ad89e7797e99bbc6995ef68637858","epochNo":318,"epochSlotNo":354632,"slot":52367432,"time":"2022/02/04 00:15:23","addressesInput":["addr1qxaaw74mpxm08qd3402pjhfvkf7lsur4an3shqzf839fhkx3vxvs8kge5jq4z3vlsh84hkz8t9jhqphe502au4qxqyescnz235"],"addressesOutput":["addr1wy2mjh76em44qurn5x73nzqrxua7ataasftql0u2h6g88lc3gtgpz","addr1qxaaw74mpxm08qd3402pjhfvkf7lsur4an3shqzf839fhkx3vxvs8kge5jq4z3vlsh84hkz8t9jhqphe502au4qxqyescnz235"],"fee":185918,"totalOutput":1543640383,"tokens":[]},{"hash":"7602719d941d1311ac910d542f4c262a28018346c1383117bf75de06161a9a0c","blockNo":6838380,"blockHash":"9de0e07bdf8325b6fca59543f5a66f9aeb9ad89e7797e99bbc6995ef68637858","epochNo":318,"epochSlotNo":354632,"slot":52367432,"time":"2022/02/04 00:15:23","addressesInput":["addr1q8nc6mj3nncmsrl5lcwv3hqjm259eprzv284dckgs6k4me9hrparq4vdzzmd6hx4d3dhawadtjt3eftcqdgwactyg4aqjdpcp4"],"addressesOutput":["addr1v9acaww0m03n88hhwxsh7u222e5puvmrfx4aky2xgup87yq5ecl70","addr1qxkfh0dua3cuyg2f8nxh20z822yqjsydrajcys32exhfw6dhrparq4vdzzmd6hx4d3dhawadtjt3eftcqdgwactyg4aq5mdlvd"],"fee":167789,"totalOutput":4632211,"tokens":[]},{"hash":"0452ac7d8c23965944a996763efb95738b64d971cab514dc292b0db2046c0a97","blockNo":6838380,"blockHash":"9de0e07bdf8325b6fca59543f5a66f9aeb9ad89e7797e99bbc6995ef68637858","epochNo":318,"epochSlotNo":354632,"slot":52367432,"time":"2022/02/04 00:15:23","addressesInput":["addr1qygyla8mj8j9d8rvtfaj03ueh5m80tq0tvq9dtmssrn3j3t4ad7gxdyy2sxlt6zpuv2ypkmux53jrfa5k6uqrj0h9dhsgdu5uh","addr1qygyla8mj8j9d8rvtfaj03ueh5m80tq0tvq9dtmssrn3j3t4ad7gxdyy2sxlt6zpuv2ypkmux53jrfa5k6uqrj0h9dhsgdu5uh"],"addressesOutput":["addr1qygyla8mj8j9d8rvtfaj03ueh5m80tq0tvq9dtmssrn3j3t4ad7gxdyy2sxlt6zpuv2ypkmux53jrfa5k6uqrj0h9dhsgdu5uh","addr1qygyla8mj8j9d8rvtfaj03ueh5m80tq0tvq9dtmssrn3j3t4ad7gxdyy2sxlt6zpuv2ypkmux53jrfa5k6uqrj0h9dhsgdu5uh","addr1qygyla8mj8j9d8rvtfaj03ueh5m80tq0tvq9dtmssrn3j3t4ad7gxdyy2sxlt6zpuv2ypkmux53jrfa5k6uqrj0h9dhsgdu5uh"],"fee":174829,"totalOutput":948495614,"tokens":[]},{"hash":"b6b073e55d14be57233b5d6d8bc48cb0f5363bbde04ed32c9e16bc0516598580","blockNo":6838380,"blockHash":"9de0e07bdf8325b6fca59543f5a66f9aeb9ad89e7797e99bbc6995ef68637858","epochNo":318,"epochSlotNo":354632,"slot":52367432,"time":"2022/02/04 00:15:23","addressesInput":["addr1q8maguhnkzthjm78pjwcnr229m38vell6jq78al4xwx54uytmw7q2jpqg2mhatx69970hztvjmt4k0tyee75u3a6h07q7j5ujw","addr1q8maguhnkzthjm78pjwcnr229m38vell6jq78al4xwx54uytmw7q2jpqg2mhatx69970hztvjmt4k0tyee75u3a6h07q7j5ujw","addr1q8maguhnkzthjm78pjwcnr229m38vell6jq78al4xwx54uytmw7q2jpqg2mhatx69970hztvjmt4k0tyee75u3a6h07q7j5ujw","addr1q8maguhnkzthjm78pjwcnr229m38vell6jq78al4xwx54uytmw7q2jpqg2mhatx69970hztvjmt4k0tyee75u3a6h07q7j5ujw"],"addressesOutput":["addr1w999n67e86jn6xal07pzxtrmqynspgx0fwmcmpua4wc6yzsxpljz3","addr1q8maguhnkzthjm78pjwcnr229m38vell6jq78al4xwx54uytmw7q2jpqg2mhatx69970hztvjmt4k0tyee75u3a6h07q7j5ujw"],"fee":219543,"totalOutput":93178390,"tokens":[]},{"hash":"9c256efa611b00e767ad746800776b36224d535ffc286898ef9e5f0c647a9de5","blockNo":6838380,"blockHash":"9de0e07bdf8325b6fca59543f5a66f9aeb9ad89e7797e99bbc6995ef68637858","epochNo":318,"epochSlotNo":354632,"slot":52367432,"time":"2022/02/04 00:15:23","addressesInput":["addr1w999n67e86jn6xal07pzxtrmqynspgx0fwmcmpua4wc6yzsxpljz3","addr1qyt8qtajtcdu2avd0pret5epjl9mkkg734huyt8f7ljx3kt4np50mf70kc6x2e0tn9sfvaaeeafxvn70x39v966mzrdsfzhseu"],"addressesOutput":["addr1q9cwvremt6n320s2e3agq0jyq82yhrk3htsu0w426xnz5us70z4w0jgvcdkkynmm8wmds66jd9kusnjfpu6raw5fqp0sr07p5w","addr1qy4sd22pa5zwfqh88apjs3uqlnslhceksz6tc97ll36nymk5x0d526cvqwn40uwdm69schhkp7rcvm8hnz2rzadxwsnqen2jah","addr1qyqw6m4v73flta7pdcw67f8038awkg2220u60395sn2shc3weyj6utk4ekxuvakek7pg8v9e2jquzwe8jr4ysvt69zsqj4l9f2","addr1qyt8qtajtcdu2avd0pret5epjl9mkkg734huyt8f7ljx3kt4np50mf70kc6x2e0tn9sfvaaeeafxvn70x39v966mzrdsfzhseu","addr1qyt8qtajtcdu2avd0pret5epjl9mkkg734huyt8f7ljx3kt4np50mf70kc6x2e0tn9sfvaaeeafxvn70x39v966mzrdsfzhseu"],"fee":1144021,"totalOutput":725326095,"tokens":[]},{"hash":"c5cc0276e1419677d5edc7e36d924ceb823deb2e349bef2cfc20819d07359154","blockNo":6838380,"blockHash":"9de0e07bdf8325b6fca59543f5a66f9aeb9ad89e7797e99bbc6995ef68637858","epochNo":318,"epochSlotNo":354632,"slot":52367432,"time":"2022/02/04 00:15:23","addressesInput":["addr1q963kk26fjsfufqqg8v60rwrzaxhp395vyqvqlv2x69r5djv2ax73qzevttdrr5vcs9w42hnvu3t8x3qyudf7fl53m0qum3xf2","addr1w999n67e86jn6xal07pzxtrmqynspgx0fwmcmpua4wc6yzsxpljz3"],"addressesOutput":["addr1w999n67e86jn6xal07pzxtrmqynspgx0fwmcmpua4wc6yzsxpljz3","addr1q963kk26fjsfufqqg8v60rwrzaxhp395vyqvqlv2x69r5djv2ax73qzevttdrr5vcs9w42hnvu3t8x3qyudf7fl53m0qum3xf2"],"fee":1159381,"totalOutput":133766543,"tokens":[]},{"hash":"e9599c1941461da3cbd7c3ab64d39c522b76135a76513928d151f02ee7a5aa50","blockNo":6838380,"blockHash":"9de0e07bdf8325b6fca59543f5a66f9aeb9ad89e7797e99bbc6995ef68637858","epochNo":318,"epochSlotNo":354632,"slot":52367432,"time":"2022/02/04 00:15:23","addressesInput":["addr1qyhns920ktvkvck2hvsw2dlsxnkhq6erqmsglcxpw9jz2zv9pr3jgf96ewml8s3ph59mzh3qkgy9kh4zkzhfwrdyl8eqsfp37z","addr1w9yr0zr530tp9yzrhly8lw5upddu0eym3yh0mjwa0qlr9pgmkzgv0"],"addressesOutput":["addr1qyhns920ktvkvck2hvsw2dlsxnkhq6erqmsglcxpw9jz2zv9pr3jgf96ewml8s3ph59mzh3qkgy9kh4zkzhfwrdyl8eqsfp37z","addr1qyhns920ktvkvck2hvsw2dlsxnkhq6erqmsglcxpw9jz2zv9pr3jgf96ewml8s3ph59mzh3qkgy9kh4zkzhfwrdyl8eqsfp37z"],"fee":1025985,"totalOutput":23374440,"tokens":[]},{"hash":"d6e9e99c9eeb9dbff6fa041ad2a1e61583ea4c76cef2be685819d3fa2880b13e","blockNo":6838380,"blockHash":"9de0e07bdf8325b6fca59543f5a66f9aeb9ad89e7797e99bbc6995ef68637858","epochNo":318,"epochSlotNo":354632,"slot":52367432,"time":"2022/02/04 00:15:23","addressesInput":["addr1v92azywnxj56n8k2kk2yhdk9quum39x2g2n2h5slffvjltq09xnd6"],"addressesOutput":["addr1vxrmu3m2cc5k6xltupj86a2uzcuq8r4nhznrhfq0pkwl4hgqj2v8w"],"fee":188953,"totalOutput":2662819,"tokens":[]},{"hash":"b6f9cda190e63ad48bb00ae7261deb0a8a5730db651462757f3f23fb67f513fd","blockNo":6838380,"blockHash":"9de0e07bdf8325b6fca59543f5a66f9aeb9ad89e7797e99bbc6995ef68637858","epochNo":318,"epochSlotNo":354632,"slot":52367432,"time":"2022/02/04 00:15:23","addressesInput":["addr1q859l8ms972fql77nlcvldn8nvtt8gg039t09h2v759zdyx9dzz0va6cfmue9em88eum2vevf50dwfyyrm4t4qkly66sxfetyl"],"addressesOutput":["addr1vxras9ekez23fpgmhe5ru6l67jq3flya8hlnce9c8u836jgq3cjev","addr1qyxynrtwmnflutczd3vsv7yrmjv8w3l6s3azes4m06tygn79dzz0va6cfmue9em88eum2vevf50dwfyyrm4t4qkly66sn2h58u"],"fee":167789,"totalOutput":100832211,"tokens":[]},{"hash":"f9204ea1e9bf849cbaeadd6d294b223e893b81f47d458290a080f4b0cdd27e8e","blockNo":6838380,"blockHash":"9de0e07bdf8325b6fca59543f5a66f9aeb9ad89e7797e99bbc6995ef68637858","epochNo":318,"epochSlotNo":354632,"slot":52367432,"time":"2022/02/04 00:15:23","addressesInput":["addr1v9emhnqmh0t80m2wta3puh52p5rccyjhdqqdee26m2s3q8c5d9x7y"],"addressesOutput":["addr1q80np27p3yxp5p7qzz55ptj6kv9qngjcc85gyjw3gysypg778alte3qnr0h5a9z0yhy5p5f57kract4tl6s7t4v9f4yqqdulhy","addr1vxrmu3m2cc5k6xltupj86a2uzcuq8r4nhznrhfq0pkwl4hgqj2v8w","addr1vxgpkxtwqd25ua72umh0p2h8s2r5vq26ywyslqrynsesmpc3wseja"],"fee":209281,"totalOutput":44790719,"tokens":[]},{"hash":"642cf8aeb0b778e2409b7216d03736cb23c464ce84913009e7997ee31d00b6d3","blockNo":6838380,"blockHash":"9de0e07bdf8325b6fca59543f5a66f9aeb9ad89e7797e99bbc6995ef68637858","epochNo":318,"epochSlotNo":354632,"slot":52367432,"time":"2022/02/04 00:15:23","addressesInput":["addr1w9qzpelu9hn45pefc0xr4ac4kdxeswq7pndul2vuj59u8tqaxdznu","addr1wxaptpmxcxawvr3pzlhgnpmzz3ql43n2tc8mn3av5kx0yzs09tqh8","addr1wxaptpmxcxawvr3pzlhgnpmzz3ql43n2tc8mn3av5kx0yzs09tqh8","addr1v8yxaq66rvyn42qkzr7njd05v0899xffehkcka0hk5wwv3qsrzjk6"],"addressesOutput":["addr1w9qzpelu9hn45pefc0xr4ac4kdxeswq7pndul2vuj59u8tqaxdznu","addr1w9jx45flh83z6wuqypyash54mszwmdj8r64fydafxtfc6jgrw4rm3","addr1q98ct6wl9mak339gc2s9d0akke45radynggezucnjg3pwnqhkp9nhpw3wd6dgagzu0nszrqx8r7yv8aq6ykjpnyemcdsv2n6wa","addr1qye6zad5eqemz9c982nugfwvws3sec4tm32ntxcwvhqjvexwy8xd9qgy94qfr07kpknhqhvwhag4kngn6m7gyehg72ysaaqr38","addr1v8yxaq66rvyn42qkzr7njd05v0899xffehkcka0hk5wwv3qsrzjk6"],"fee":1328565,"totalOutput":991719588229,"tokens":[]},{"hash":"1330f5652ec4d8268a7afb06f9968d49eafdf0f67a47ef2661912c21cf5f863b","blockNo":6838380,"blockHash":"9de0e07bdf8325b6fca59543f5a66f9aeb9ad89e7797e99bbc6995ef68637858","epochNo":318,"epochSlotNo":354632,"slot":52367432,"time":"2022/02/04 00:15:23","addressesInput":["addr1v9q5qypszqhys9h8q0gdae66n0sgh0fc9h8hnucg027j9cqpgskvw","addr1w9qzpelu9hn45pefc0xr4ac4kdxeswq7pndul2vuj59u8tqaxdznu","addr1v9q5qypszqhys9h8q0gdae66n0sgh0fc9h8hnucg027j9cqpgskvw","addr1wxaptpmxcxawvr3pzlhgnpmzz3ql43n2tc8mn3av5kx0yzs09tqh8"],"addressesOutput":["addr1w9qzpelu9hn45pefc0xr4ac4kdxeswq7pndul2vuj59u8tqaxdznu","addr1w9jx45flh83z6wuqypyash54mszwmdj8r64fydafxtfc6jgrw4rm3","addr1q9aej0nj98ljlt3xc6xjxthptz6e9w72ujk86ymgxermhm72d969jkxjzdzlkx0wfecwstrzs47hep97v0g656dlj8nqvzyhjc","addr1v9q5qypszqhys9h8q0gdae66n0sgh0fc9h8hnucg027j9cqpgskvw","addr1v9q5qypszqhys9h8q0gdae66n0sgh0fc9h8hnucg027j9cqpgskvw"],"fee":1218995,"totalOutput":95160322439,"tokens":[]},{"hash":"25ef00c8e119de42ea8d74215af024646d41cb0105d41baf4f3ef05234cac0a8","blockNo":6838380,"blockHash":"9de0e07bdf8325b6fca59543f5a66f9aeb9ad89e7797e99bbc6995ef68637858","epochNo":318,"epochSlotNo":354632,"slot":52367432,"time":"2022/02/04 00:15:23","addressesInput":["addr1qxzsq467ustcj7pljn7xaly9ctn30c5q40ddlh7ykpw826y834nuckc99uukwp9y993qxlrwhn8da3yddgvaakk5arwsntguqm","addr1qxzsq467ustcj7pljn7xaly9ctn30c5q40ddlh7ykpw826y834nuckc99uukwp9y993qxlrwhn8da3yddgvaakk5arwsntguqm","addr1qxzsq467ustcj7pljn7xaly9ctn30c5q40ddlh7ykpw826y834nuckc99uukwp9y993qxlrwhn8da3yddgvaakk5arwsntguqm"],"addressesOutput":["addr1wy2mjh76em44qurn5x73nzqrxua7ataasftql0u2h6g88lc3gtgpz","addr1qy9yrva9vnxjd09vvnr7v8z7qzr73vyyd40qhnhz98yk9aq3wj76wr3m5njwkezqp2qzed6cgy40q3ax3yxddm29ygcqez2pvl","addr1qxzsq467ustcj7pljn7xaly9ctn30c5q40ddlh7ykpw826y834nuckc99uukwp9y993qxlrwhn8da3yddgvaakk5arwsntguqm"],"fee":242722,"totalOutput":614434763,"tokens":[]},{"hash":"b06a07ca2569724b7a886dc64a33df218f2be70dcfd3b15f905f9ae27e6fa7c7","blockNo":6838380,"blockHash":"9de0e07bdf8325b6fca59543f5a66f9aeb9ad89e7797e99bbc6995ef68637858","epochNo":318,"epochSlotNo":354632,"slot":52367432,"time":"2022/02/04 00:15:23","addressesInput":["addr1qy05j6x8w5rt98z6hwvqxfww8hs5qr86x0jzvvy82g8svcjyrrzef0us65mlw6usazf6p9vemu4kweykf2q9mrj7vdwsegmtu6","addr1qy05j6x8w5rt98z6hwvqxfww8hs5qr86x0jzvvy82g8svcjyrrzef0us65mlw6usazf6p9vemu4kweykf2q9mrj7vdwsegmtu6"],"addressesOutput":["addr1vx36enqte7599yyvv8kgwtnzshtmtr8m32c876kynlfatdsmpl0fl","addr1qy05j6x8w5rt98z6hwvqxfww8hs5qr86x0jzvvy82g8svcjyrrzef0us65mlw6usazf6p9vemu4kweykf2q9mrj7vdwsegmtu6"],"fee":170957,"totalOutput":140060565,"tokens":[]},{"hash":"98dd79f820f3900ed4dc39d2781c65fcfd28a17a4583974717d92ade45539424","blockNo":6838380,"blockHash":"9de0e07bdf8325b6fca59543f5a66f9aeb9ad89e7797e99bbc6995ef68637858","epochNo":318,"epochSlotNo":354632,"slot":52367432,"time":"2022/02/04 00:15:23","addressesInput":["addr1qx29nmvqldrgfvunge5hj2zrx5m7n923h09vd2fq5t95pwedhcfxge69wqg456xcqsl0w5shnvjslsqddsd837ret7wq04nu56","addr1qx29nmvqldrgfvunge5hj2zrx5m7n923h09vd2fq5t95pwedhcfxge69wqg456xcqsl0w5shnvjslsqddsd837ret7wq04nu56","addr1qx29nmvqldrgfvunge5hj2zrx5m7n923h09vd2fq5t95pwedhcfxge69wqg456xcqsl0w5shnvjslsqddsd837ret7wq04nu56","addr1qx29nmvqldrgfvunge5hj2zrx5m7n923h09vd2fq5t95pwedhcfxge69wqg456xcqsl0w5shnvjslsqddsd837ret7wq04nu56","addr1w999n67e86jn6xal07pzxtrmqynspgx0fwmcmpua4wc6yzsxpljz3","addr1qx29nmvqldrgfvunge5hj2zrx5m7n923h09vd2fq5t95pwedhcfxge69wqg456xcqsl0w5shnvjslsqddsd837ret7wq04nu56"],"addressesOutput":["addr1q9cwvremt6n320s2e3agq0jyq82yhrk3htsu0w426xnz5us70z4w0jgvcdkkynmm8wmds66jd9kusnjfpu6raw5fqp0sr07p5w","addr1qypz3g7pddfsxkf8sq477x03f82eeq0l8x62gc3cfg3z2cg9tr7n9ksm9vhuzkm0lc5cfexf0xml9ga8jmcra8kzpses92l306","addr1qyz5lwan0pl6ym86qfmpnjutw0ugnwzy839d37mlq0naap76f8j0nujj3sg69kfekgxp3p8vvyk87j6pa4qcj0gw02ls6ccy3t","addr1qx29nmvqldrgfvunge5hj2zrx5m7n923h09vd2fq5t95pwedhcfxge69wqg456xcqsl0w5shnvjslsqddsd837ret7wq04nu56","addr1qx29nmvqldrgfvunge5hj2zrx5m7n923h09vd2fq5t95pwedhcfxge69wqg456xcqsl0w5shnvjslsqddsd837ret7wq04nu56"],"fee":1158565,"totalOutput":259860063,"tokens":[]},{"hash":"ae146b9020ee92946a3e6417ad306aafbb86467f278067eec60a3891bac00c42","blockNo":6838379,"blockHash":"5b1a833765e3982eb8856e1abba901d200c3c07c27d73ce8958fef25101db47a","epochNo":318,"epochSlotNo":354600,"slot":52367400,"time":"2022/02/04 00:14:51","addressesInput":["addr1q94x09dqt5y5trwpzyjqyf8xqf3z3tqjnf4gxcuztmzegdr2v726qhgfgkxuzyfyqgjwvqnz9zkp9xn2sd3cyhk9js6qxmy9jt","addr1q94x09dqt5y5trwpzyjqyf8xqf3z3tqjnf4gxcuztmzegdr2v726qhgfgkxuzyfyqgjwvqnz9zkp9xn2sd3cyhk9js6qxmy9jt"],"addressesOutput":["addr1q94x09dqt5y5trwpzyjqyf8xqf3z3tqjnf4gxcuztmzegdr2v726qhgfgkxuzyfyqgjwvqnz9zkp9xn2sd3cyhk9js6qxmy9jt","addr1q94x09dqt5y5trwpzyjqyf8xqf3z3tqjnf4gxcuztmzegdr2v726qhgfgkxuzyfyqgjwvqnz9zkp9xn2sd3cyhk9js6qxmy9jt"],"fee":238161,"totalOutput":5741746119,"tokens":[]},{"hash":"1a8abe7cd55825af56b4f3994bd2e47035f6a07e933b02f813c9c4731630c838","blockNo":6838379,"blockHash":"5b1a833765e3982eb8856e1abba901d200c3c07c27d73ce8958fef25101db47a","epochNo":318,"epochSlotNo":354600,"slot":52367400,"time":"2022/02/04 00:14:51","addressesInput":["addr1qy508dnv6s83q0tea7wd7fn3lpxpnr84lhjafg4959j48nfg7wmxe4q0zq7hnmuumun8r7zvrxx0tl096j32tgt920xs2k52eq","addr1qy508dnv6s83q0tea7wd7fn3lpxpnr84lhjafg4959j48nfg7wmxe4q0zq7hnmuumun8r7zvrxx0tl096j32tgt920xs2k52eq"],"addressesOutput":["addr1qy508dnv6s83q0tea7wd7fn3lpxpnr84lhjafg4959j48nfg7wmxe4q0zq7hnmuumun8r7zvrxx0tl096j32tgt920xs2k52eq","addr1qy508dnv6s83q0tea7wd7fn3lpxpnr84lhjafg4959j48nfg7wmxe4q0zq7hnmuumun8r7zvrxx0tl096j32tgt920xs2k52eq"],"fee":238161,"totalOutput":87446542623,"tokens":[]}],"totalItems":29778592,"totalPages":1488930,"currentPage":0}