{"data":[{"blockNo":8122485,"slotNo":79124903,"epochNo":380,"epochSlotNo":328103,"hash":"525ac0aced24d62fbb2bd86d6557916a0c4de8c387e19336e2f188c5b4767738","time":"2022/12/10 16:53:14","txCount":17,"totalFees":5696461,"totalOutput":59088101525,"slotLeader":"0775f0139af22e1ebf2c3278598816946e750029b70eace3c5135c3e"},{"blockNo":8122484,"slotNo":79124877,"epochNo":380,"epochSlotNo":328077,"hash":"0391f0869cbbe809d1821de32c9bf5655948176a1f6d44a7197e9721f78753c4","time":"2022/12/10 16:52:48","txCount":21,"totalFees":8218784,"totalOutput":1749482889660,"slotLeader":"643472a2db02c7f92f787355a2be6206d44201517594211a887b1e88"},{"blockNo":8122483,"slotNo":79124850,"epochNo":380,"epochSlotNo":328050,"hash":"ced41e5633fac380f36b74d27b0a68872a39bbd3d3f385c1e077ae8e5d874c44","time":"2022/12/10 16:52:21","txCount":2,"totalFees":811127,"totalOutput":2558327585,"slotLeader":"0001a003afb844ce6d9409fc49e049db654a78dc77f1151cb6cd548f"},{"blockNo":8122482,"slotNo":79124847,"epochNo":380,"epochSlotNo":328047,"hash":"a1512f9c0a7c9729a57a0d0927d7f5629877d784e1e03605cf93a8df6b295f55","time":"2022/12/10 16:52:18","txCount":14,"totalFees":4201363,"totalOutput":13191438799,"slotLeader":"17a6a1f2fb36d9ef275805db17409af7ab753b9d27bdd41b89510bb9"},{"blockNo":8122481,"slotNo":79124824,"epochNo":380,"epochSlotNo":328024,"hash":"4fc5b8596051cdb4be7b275f2256659613948088ecedf5bfbcd76c5318588a28","time":"2022/12/10 16:51:55","txCount":30,"totalFees":8741901,"totalOutput":631847009200,"slotLeader":"9a22c008779c455a124d86191047d35690a0ca2c094a34d90cd29542"},{"blockNo":8122480,"slotNo":79124786,"epochNo":380,"epochSlotNo":327986,"hash":"2ecdd6f2585d198293e2b6ba4b6b5d03d9eeadf89ffb25bc2de984a4c01950ba","time":"2022/12/10 16:51:17","txCount":3,"totalFees":1616173,"totalOutput":888238985,"slotLeader":"fddc2812f7f376e2bb82f00d3dfd42a65348be3f0fa464420a04fab5"},{"blockNo":8122479,"slotNo":79124784,"epochNo":380,"epochSlotNo":327984,"hash":"e5be88cf2177f450710ba83236c934faae69ea4a0476c11a7cf7d39c254840ee","time":"2022/12/10 16:51:15","txCount":19,"totalFees":5911574,"totalOutput":34501149593,"slotLeader":"b405a62715301a625c2fd5eb3f5b16be9f1f3f0452f5b8b9286997c4"},{"blockNo":8122478,"slotNo":79124781,"epochNo":380,"epochSlotNo":327981,"hash":"8bf84b9062ce3e83bc876536541509ea0a28ec0db5494dea0337ab07a1dfac08","time":"2022/12/10 16:51:12","txCount":28,"totalFees":11976914,"totalOutput":1539763553348,"slotLeader":"ed40b0a319f639a70b1e2a4de00f112c4f7b7d4849f0abd25c4336a4"},{"blockNo":8122477,"slotNo":79124723,"epochNo":380,"epochSlotNo":327923,"hash":"17b6c84934f67231c5a5efa83438b590a8d38179182c4ca7dcf4c949d5a11c18","time":"2022/12/10 16:50:14","txCount":14,"totalFees":4015203,"totalOutput":3980196977875,"slotLeader":"72583cf41012446cd1ca839c10049ecd65d31664b11e63d286041d61"},{"blockNo":8122476,"slotNo":79124702,"epochNo":380,"epochSlotNo":327902,"hash":"31824b4964beeb71c2693ecf69fcf6d465415e3b869fbb90554130ae657584ad","time":"2022/12/10 16:49:53","txCount":19,"totalFees":7045717,"totalOutput":17739951572907,"slotLeader":"571b0be3f126255004d9828f37f11026551b9ca391c4aed3b05d6a75"}],"totalItems":16162,"totalPages":1617,"currentPage":0}