{"data":[{"blockNo":8277561,"slotNo":82308151,"epochNo":388,"epochSlotNo":55351,"hash":"0521010d464baf6619fb86fce889c34621fe4cc37219a5ed7d208abc41e1339b","time":"2023/01/16 13:07:22","txCount":29,"totalFees":9005800,"totalOutput":1149146006776,"slotLeader":"b900dfcf894c473620bf379f8c63aa300d8c8842a94a758758bdcd33"},{"blockNo":8277560,"slotNo":82308111,"epochNo":388,"epochSlotNo":55311,"hash":"8c55b9600a2b394100bf0dd802c771d19020b6cd086153c0bef3f82d5b602eae","time":"2023/01/16 13:06:42","txCount":35,"totalFees":10301075,"totalOutput":3572501243603,"slotLeader":"4fd4f6b6c164e0bf9b514f7facc6dcae87ed4eca857605da92990d35"},{"blockNo":8277559,"slotNo":82308074,"epochNo":388,"epochSlotNo":55274,"hash":"272380b458937eb9880af77ea531ace1e5b6efae85d9d448eab3647ea94e9bd0","time":"2023/01/16 13:06:05","txCount":20,"totalFees":6192234,"totalOutput":134399544730,"slotLeader":"36e0db9278d5b481dad2f2f84c42d20c324b046aaff97ff45fa4e134"},{"blockNo":8277558,"slotNo":82308049,"epochNo":388,"epochSlotNo":55249,"hash":"c66afaec50faa8fa47121e59e884e8cd564766f82a59d0cb8e634eb3fc9881cf","time":"2023/01/16 13:05:40","txCount":5,"totalFees":1002429,"totalOutput":4113432923,"slotLeader":"afb33d38e92e03f9ce86f0175cc33e487b8def0ee25235f1e40183d1"},{"blockNo":8277557,"slotNo":82308043,"epochNo":388,"epochSlotNo":55243,"hash":"c84591697ebb6b834604c4de30322d8436b2342b96cb675e464edcaed05217bd","time":"2023/01/16 13:05:34","txCount":7,"totalFees":2079168,"totalOutput":608552091461,"slotLeader":"72de14d78a359617a7dd0b33c5554ed4edbafd768ece87c4bf672ee0"},{"blockNo":8277556,"slotNo":82308029,"epochNo":388,"epochSlotNo":55229,"hash":"55f00e2e61bd87a94b9ed1bd2ec1ab530e7f611e1c991a441d90ac3f9a80bd6d","time":"2023/01/16 13:05:20","txCount":37,"totalFees":11085380,"totalOutput":726922050808,"slotLeader":"a10865dae2d543ee9f13e98bff70ea81565bb6e4343b15b765f78174"},{"blockNo":8277555,"slotNo":82307988,"epochNo":388,"epochSlotNo":55188,"hash":"bb04408d49131186501e87cec1df59f3c082d43a21203dafaf5abe1f8bb8f44a","time":"2023/01/16 13:04:39","txCount":20,"totalFees":9965940,"totalOutput":4448388120183,"slotLeader":"90ac71b92a4c29f7a9bbde83ba2e6e2c17b69e41db204a55e7a338ae"},{"blockNo":8277554,"slotNo":82307965,"epochNo":388,"epochSlotNo":55165,"hash":"b0a47fc16db4923dbea8b05af4ee3c2fa98d5184c56106de247ce81e2cd67846","time":"2023/01/16 13:04:16","txCount":6,"totalFees":1398677,"totalOutput":552432997547,"slotLeader":"96840eba5a4d0ff0d42f7ad5ac83343a0c6a87b1c71bf106cc544855"},{"blockNo":8277553,"slotNo":82307955,"epochNo":388,"epochSlotNo":55155,"hash":"202c7ec8b24699ab0dbd6d0ca37aaf960c0c61f1dbe303acfb64585582a6054c","time":"2023/01/16 13:04:06","txCount":0,"totalFees":0,"totalOutput":0,"slotLeader":"661d04fdb7aa2c2476bbc6827d11ec22ec04ecb953495ade0f7b2352"},{"blockNo":8277552,"slotNo":82307954,"epochNo":388,"epochSlotNo":55154,"hash":"2598ac5b04816ebe70e1a71169a5a7902ee170b27cf6c28154b31ed0c383920e","time":"2023/01/16 13:04:05","txCount":8,"totalFees":2226508,"totalOutput":3230520294666,"slotLeader":"e6ac159ee8063742eadcb48be45f29d9a67b4158439070032f42d10c"},{"blockNo":8277551,"slotNo":82307942,"epochNo":388,"epochSlotNo":55142,"hash":"afc628a2a09a85e76ead65c59dd6435ce35ddf1b645b6324196326552078f15f","time":"2023/01/16 13:03:53","txCount":7,"totalFees":1667109,"totalOutput":7548936909,"slotLeader":"14cb7963696b6f80abb2298dc60bc2abc7d813abb23ac19c6420bca0"},{"blockNo":8277550,"slotNo":82307932,"epochNo":388,"epochSlotNo":55132,"hash":"a71f489e52ec72c3f806f2ed1cbd631619b1eef72259d11dbe1f5ccae31328d3","time":"2023/01/16 13:03:43","txCount":8,"totalFees":3421941,"totalOutput":13512143941,"slotLeader":"6ec2284f8e312b5b122d85b97db828ff364d49e3c51c449bfc8889bf"},{"blockNo":8277549,"slotNo":82307924,"epochNo":388,"epochSlotNo":55124,"hash":"61b3721c8ff17c32fc8bb54dea06155bbd00ae945e64ea4bf6ec5715d1dac461","time":"2023/01/16 13:03:35","txCount":8,"totalFees":1801700,"totalOutput":7809213383,"slotLeader":"d765dee553a7e041d525b1782a10eb0a5e52e96ed55ed173d8bb82a7"},{"blockNo":8277548,"slotNo":82307916,"epochNo":388,"epochSlotNo":55116,"hash":"932a3b3781c4e9452880c46c7755367b74fe361f25bb2323cb95374016d2800d","time":"2023/01/16 13:03:27","txCount":18,"totalFees":6987116,"totalOutput":104556193960,"slotLeader":"727ceb44ef548cbb6f36d7023dfbd8400d48aea0c84b675beff1dd12"},{"blockNo":8277547,"slotNo":82307900,"epochNo":388,"epochSlotNo":55100,"hash":"26d3e816e0f668675dfebcef73314d510d590e16666dc9321e56bcec2cd25c38","time":"2023/01/16 13:03:11","txCount":2,"totalFees":986282,"totalOutput":271356370,"slotLeader":"0322ccfd1f68a8a288057d64428123bb6efed9d6b5c9fe2864db7507"},{"blockNo":8277546,"slotNo":82307896,"epochNo":388,"epochSlotNo":55096,"hash":"421ba6b1e1bef69288264d142e396fd1f1a5eae3e5d7bd727cdb12b729c8ef78","time":"2023/01/16 13:03:07","txCount":10,"totalFees":3407297,"totalOutput":38580446429,"slotLeader":"7a990e7ee931f9d548a977d5cf2194f26f7e2f1158752e0bb94a073f"},{"blockNo":8277545,"slotNo":82307883,"epochNo":388,"epochSlotNo":55083,"hash":"898fb70840f175f2d01c81d3427eb7836bee34e1a14bf82df242d497b0ada749","time":"2023/01/16 13:02:54","txCount":9,"totalFees":4407484,"totalOutput":3291533579493,"slotLeader":"486d217a5ef6e9cb5e46a19900a56b1c1f4f1ec4374b744df5a1ef6a"},{"blockNo":8277544,"slotNo":82307870,"epochNo":388,"epochSlotNo":55070,"hash":"155e14aefe7de1aabeb5219ad8aa6e2a7b4827dabd91b0580fe34ebe839dac86","time":"2023/01/16 13:02:41","txCount":1,"totalFees":168977,"totalOutput":538437650,"slotLeader":"837a3cf8c96e97bed8e8be6deb390144b46171e3c843b75575d0f788"},{"blockNo":8277543,"slotNo":82307868,"epochNo":388,"epochSlotNo":55068,"hash":"725ac9350e007a6572072778506aefe1dbcb3eb43a3852e76db1fa8b2e584a90","time":"2023/01/16 13:02:39","txCount":4,"totalFees":1720377,"totalOutput":5081366969,"slotLeader":"30432a0b85b6f80b3e9cd356d8b76b9793f5530c91050c1688da4922"},{"blockNo":8277542,"slotNo":82307862,"epochNo":388,"epochSlotNo":55062,"hash":"5b8f990e484f9b4885f3111bf2f970293de81a54b58bc942af795379fdeed395","time":"2023/01/16 13:02:33","txCount":39,"totalFees":14072618,"totalOutput":1205424400835,"slotLeader":"7d89d3f11170f5874c5b781b80864be392edcd9c8715ccce18155a8f"}],"totalItems":8277737,"totalPages":413887,"currentPage":0}