{"data":[{"blockNo":8266038,"slotNo":82073079,"epochNo":387,"epochSlotNo":252279,"hash":"ea5bba46b542716a31f0c7422933293d8e300c57095589360efe1285ecb23626","time":"2023/01/13 19:49:30","txCount":48,"totalFees":14817114,"totalOutput":2302071656216,"slotLeader":"d34d33e345f006058bf136745a2c6b6e557621cf02dbaa29e71f3a0f"},{"blockNo":8266037,"slotNo":82073054,"epochNo":387,"epochSlotNo":252254,"hash":"ad71a99063ab1d0a80c871893810500f075e5109026a675dd614cce89ba3b179","time":"2023/01/13 19:49:05","txCount":33,"totalFees":10846382,"totalOutput":2036622876169,"slotLeader":"639288b5e4bf267ece78e9a4941dd794f50ec54785f84c687b4ab086"},{"blockNo":8266036,"slotNo":82072994,"epochNo":387,"epochSlotNo":252194,"hash":"f36c5faf0195e67ecc81ca26b2c8d504d97a375e5742cd4eb4022bbf4b67561c","time":"2023/01/13 19:48:05","txCount":15,"totalFees":4350842,"totalOutput":25272332850,"slotLeader":"be6d07b366b26dd577682e0e499c0d81988d8b3f49b52b853691eeba"},{"blockNo":8266035,"slotNo":82072981,"epochNo":387,"epochSlotNo":252181,"hash":"685fe38a188e9700f3747471b818f8e56db914343392fd922fa2d1aecb961350","time":"2023/01/13 19:47:52","txCount":5,"totalFees":2945221,"totalOutput":3864670147943,"slotLeader":"42c3740db23c3fc36cb9f63aa8070ec01417b4d22893463c8c8a21d4"},{"blockNo":8266034,"slotNo":82072975,"epochNo":387,"epochSlotNo":252175,"hash":"4c665decc6d7a0a094d3676f7aabb667c9a26515a11b845246c6fbad9e1d2ad5","time":"2023/01/13 19:47:46","txCount":31,"totalFees":9355749,"totalOutput":2700796420337,"slotLeader":"a374a14d2fa809b5e999a474b5d085b10be2fc95e6e82da045d9e8f6"},{"blockNo":8266033,"slotNo":82072942,"epochNo":387,"epochSlotNo":252142,"hash":"461dc190a8f26ca11c6bcd54e84f4ab70bb0a96f99fb7256b3c120f3db6bc51a","time":"2023/01/13 19:47:13","txCount":37,"totalFees":11117131,"totalOutput":5058678300356,"slotLeader":"30f9a4c529f89d60ad1bd1c33c0e13c20b347fec7cac794c557efcee"},{"blockNo":8266032,"slotNo":82072904,"epochNo":387,"epochSlotNo":252104,"hash":"b32cf561a10f597012aefe770c2fb2509eb921befffef1258f9e1677da7c22e4","time":"2023/01/13 19:46:35","txCount":2,"totalFees":564774,"totalOutput":59493994,"slotLeader":"8e0bb9b126acd8e65a023602377d9a7a6f15af394d1f7bdd852182b8"},{"blockNo":8266031,"slotNo":82072901,"epochNo":387,"epochSlotNo":252101,"hash":"243a25daf6d109901a35f09f478ac723e406b75a9a157b9cb5ea204d20804fcd","time":"2023/01/13 19:46:32","txCount":20,"totalFees":7021194,"totalOutput":22499179294369,"slotLeader":"90a9f94272aa45bb1eb27bb0e2fda43eb4d9bfd31010ab2c9c249896"},{"blockNo":8266030,"slotNo":82072882,"epochNo":387,"epochSlotNo":252082,"hash":"db205826713c68a6c2875aa23255dbce4358c1bce76e8d05bf3e4da4738e5581","time":"2023/01/13 19:46:13","txCount":3,"totalFees":801731,"totalOutput":69136030310,"slotLeader":"ea595c6f726db925b6832af51795fd8a46e700874c735d204f7c5841"},{"blockNo":8266029,"slotNo":82072878,"epochNo":387,"epochSlotNo":252078,"hash":"f88fb46cddaf9c84c1bb7fe0f75bdf051139793373855ea1b65d3dc03389c915","time":"2023/01/13 19:46:09","txCount":34,"totalFees":10245871,"totalOutput":1892691263354,"slotLeader":"a6fc7ec669c64333e6c411b50e9c99323d8043391aacbe2b49f7cb29"}],"totalItems":12301,"totalPages":1231,"currentPage":0}