{"data":[{"txId":55963288,"txHash":"9029667548acd2105b1996178be897e4c994edbd1a348bc6c7dafa66e8339a4a","txTime":"2022/11/25 11:21:47","block":8058352,"epoch":377,"slotNo":77809016,"epochSlotNo":308216,"stakeKey":"stake1u9qc94v058l7ulksrd2fkrdl4r8kelfdfej63jc4s7c6r2qkqrx4m"},{"txId":55963127,"txHash":"f6cf4229801a60ba780129cb0fe73253fae9f460de8628a44abb2ae0b1441989","txTime":"2022/11/25 11:17:39","block":8058340,"epoch":377,"slotNo":77808768,"epochSlotNo":307968,"stakeKey":"stake1uyunl0fm02g9wwxjsmlvzu6fm2ejl9fnv936kzpkf03ey5qv0u22e"},{"txId":55962695,"txHash":"6ac08d83c3e7cc9443b8804e0d43a4fae61ce4503931d9d36569ea6117006981","txTime":"2022/11/25 11:04:39","block":8058306,"epoch":377,"slotNo":77807988,"epochSlotNo":307188,"stakeKey":"stake1u9a3fwjmltk78utx0gu37re8kjg88wcp74nqlqfuxkt2tygq3pjse"},{"txId":55962554,"txHash":"76f18388edf6a02d5839f9eef07cf88ac5249a76871eea2b6ed000330e7a619a","txTime":"2022/11/25 11:00:02","block":8058296,"epoch":377,"slotNo":77807711,"epochSlotNo":306911,"stakeKey":"stake1uxe2c9fezugt62xk9g3mvyafjvk5r3vvlm8vuwjquem8t6c6eytv6"},{"txId":55962368,"txHash":"95c04fbd767536d1d931d5eef16dee93f4b0ae355279c010f34cf9b56005dbfe","txTime":"2022/11/25 10:54:21","block":8058283,"epoch":377,"slotNo":77807370,"epochSlotNo":306570,"stakeKey":"stake1u803zsmacy3v4t5zf8vlr2sad7vhctsrm8cw7sh5a3e3mmq5r7gpk"},{"txId":55962335,"txHash":"7b171fc60ffa3f8c090c3003b00a920ab74a3e92b14dbfcd605a5d9e41931ac8","txTime":"2022/11/25 10:53:43","block":8058280,"epoch":377,"slotNo":77807332,"epochSlotNo":306532,"stakeKey":"stake1uxy52zkx8d0zagexc8ld77puec08mzv28ygj0y0vg4ya3ksrg2sxc"},{"txId":55962302,"txHash":"9042e1a15edee1d9c292255022c8a6a3c6f3eb0579575404a5aaa3a6b2353e0a","txTime":"2022/11/25 10:53:10","block":8058278,"epoch":377,"slotNo":77807299,"epochSlotNo":306499,"stakeKey":"stake1ux0fxc8s4rf4rgr45uhcs09vszl6zmym25vrhfy8ysrkpgs3f78l5"},{"txId":55962112,"txHash":"c9fa545b044d64f95bbc4aff1a3657896edb01a6a6776addf0a9ec9fe5fa575f","txTime":"2022/11/25 10:47:36","block":8058266,"epoch":377,"slotNo":77806965,"epochSlotNo":306165,"stakeKey":"stake1u9wzvmph265edd5pvrndq7jrf8r4rucjxh5xk0twqx07plqxkmrqr"},{"txId":55962058,"txHash":"9ee6cb3158842f819ecf49da4d5af08f990b89fd94c1811e25deee01be6a7999","txTime":"2022/11/25 10:45:43","block":8058260,"epoch":377,"slotNo":77806852,"epochSlotNo":306052,"stakeKey":"stake1u968dea4t3z6w4p95xw0q9fm9qrnnrlyq2853hy7aaurewgrm7vkl"},{"txId":55961976,"txHash":"86dc8f2eca6a53342267610ece1fbce6c81ab6f9aa97779f670caea3d81a2aa6","txTime":"2022/11/25 10:44:07","block":8058254,"epoch":377,"slotNo":77806756,"epochSlotNo":305956,"stakeKey":"stake1uxl97pmg72py6y54l2uh0lpacc60pvn6axghl3k6w4n930srwvk28"},{"txId":55961785,"txHash":"f4d7bbe59ca6057b6a58b5a89a09489f5daa65f10b013948553fc06fd9e63686","txTime":"2022/11/25 10:37:44","block":8058231,"epoch":377,"slotNo":77806373,"epochSlotNo":305573,"stakeKey":"stake1uy2ay3utrnffaveck76ukcw4hjsyugetmuj9nrlx9mru4dqsvcg7r"},{"txId":55961723,"txHash":"195e0a6b6c72741a3a1ecd5690eb9df8243126c2a06be22b8499ca674f3ff56e","txTime":"2022/11/25 10:35:43","block":8058226,"epoch":377,"slotNo":77806252,"epochSlotNo":305452,"stakeKey":"stake1u84xqmfgdu4ln029gq3cujjmsd0lq5tdwkgajsc5g2adtxcsgxqnn"},{"txId":55961722,"txHash":"825c13e6b125461d2a69fbce9be041a6e2d12daf047d7d37334d12d99180c6e1","txTime":"2022/11/25 10:35:43","block":8058226,"epoch":377,"slotNo":77806252,"epochSlotNo":305452,"stakeKey":"stake1u94trev6v30vctex57fmjyq5zn8x9lyvtwpux6wkhuvwx9qd8kxww"},{"txId":55961687,"txHash":"b204fce1115a799b8336b2ce9fbb49f9985fbfd04e10a24cbb3f68865ce05c50","txTime":"2022/11/25 10:35:27","block":8058224,"epoch":377,"slotNo":77806236,"epochSlotNo":305436,"stakeKey":"stake1u9qhnyzgwes9a4zv2l93ujdyd6uvty7p56mkaxhcaguhyzck9pnk0"},{"txId":55961596,"txHash":"1ef6f388dc2bbed9065882d307fce75ff04d5c21c67ef645fa5e84102fad3384","txTime":"2022/11/25 10:32:11","block":8058218,"epoch":377,"slotNo":77806040,"epochSlotNo":305240,"stakeKey":"stake1uy27u5mgp9a9jc4qg8w4hernz4wpjzg8l5lzvd6qfsnzx5sdmpu2m"},{"txId":55961441,"txHash":"94c4047705a49f054553285f8d71d6697f71459571534823e4ff37a4871fe802","txTime":"2022/11/25 10:28:15","block":8058203,"epoch":377,"slotNo":77805804,"epochSlotNo":305004,"stakeKey":"stake1uyw0wtu6wawnuwxwg2xtnkx7yfuu3exn68k8sdcpuzvuy3q22044m"},{"txId":55961373,"txHash":"fc302a59d8a461e1f4e4f8726111431deef303a8abe60e730d05471591878b74","txTime":"2022/11/25 10:25:59","block":8058196,"epoch":377,"slotNo":77805668,"epochSlotNo":304868,"stakeKey":"stake1u9nxv3m2t0u8sdz5kp5j04muarj83ex7jrjte0y2mywl8wg473s2a"},{"txId":55961371,"txHash":"a883681acf1567dabd9cb6a521c95bb6c2141a4899f5e94d7be8fa625d433b77","txTime":"2022/11/25 10:25:59","block":8058196,"epoch":377,"slotNo":77805668,"epochSlotNo":304868,"stakeKey":"stake1u8jm3vxkvl8qv9fgg6kc5jkxxea03g488kjnklft8qyqszq2w29ne"},{"txId":55961326,"txHash":"0b9c2d30c52ceaaa81565e5781a77edf2c6875b70e93a95c0cd2e1ba032319e6","txTime":"2022/11/25 10:25:59","block":8058196,"epoch":377,"slotNo":77805668,"epochSlotNo":304868,"stakeKey":"stake1ux5wgefa0p3er05wng84wmh455qsrucmj4h5ww5lqe80escaxvruu"},{"txId":55961277,"txHash":"dc3654f2685c62ee6429567cd820d81239116bbfbe2e5cdf3288d072d3522533","txTime":"2022/11/25 10:21:54","block":8058190,"epoch":377,"slotNo":77805423,"epochSlotNo":304623,"stakeKey":"stake1uxrngtva68epecucgftykttr9c5vr0eaew29qkvfmkvl9lgu4mqdx"}],"totalItems":1610485,"totalPages":80525,"currentPage":0}