{"data":[{"txId":59990692,"txHash":"32d5bd7ad19a6614312e50ad0d1a53212cd465f1d1b64a81a3051e0291e4d2f7","txTime":"2023/01/18 09:55:58","block":8285563,"epoch":388,"slotNo":82469467,"epochSlotNo":216667,"stakeKey":"stake1uxpmafckpfyn4vzq8tvcw9m2k35trmrsr6d0n029tm9s0ng3dgp5z"},{"txId":59990690,"txHash":"b0f93a3cb8e32bf34a2de0d5f08b1c123a8336a666a675306e6cef70bbdf5d7d","txTime":"2023/01/18 09:55:42","block":8285562,"epoch":388,"slotNo":82469451,"epochSlotNo":216651,"stakeKey":"stake1uyhed4cp3fe9p27wsz66k8j3ejl2j8x7qcglwat498awaesdlexwz"},{"txId":59990605,"txHash":"a95660040490967a4fc1c53dfad5b75a3abc807ff1e0c73a6038109ebf9e5eee","txTime":"2023/01/18 09:53:20","block":8285556,"epoch":388,"slotNo":82469309,"epochSlotNo":216509,"stakeKey":"stake1u9g6cnznjlhfn7nedu08d0rzewzqate7v20h3p7ad34humczqy036"},{"txId":59990279,"txHash":"0a3c022f4922d070f757da6708bd83506bd1c09e0ac47aaa96233e55309dcd3f","txTime":"2023/01/18 09:42:39","block":8285520,"epoch":388,"slotNo":82468668,"epochSlotNo":215868,"stakeKey":"stake1uxc2ct47k8t35anx2hvtaftsc5gzzd0fklymh4tyfu5kvys0zkyn6"},{"txId":59990257,"txHash":"b67be48887be87fdbfb05cef74563224cb486179a5e36bfbe43ecabfcce15440","txTime":"2023/01/18 09:42:10","block":8285517,"epoch":388,"slotNo":82468639,"epochSlotNo":215839,"stakeKey":"stake1u9y0m4f00v4n62cx5ygx34756h9wvyn4jpa3q77j03h7c7syjtp7n"},{"txId":59990216,"txHash":"8a46146546a55c306d0adeddb64a66bed6fce128539375a44706cfb4ef950ed6","txTime":"2023/01/18 09:41:29","block":8285514,"epoch":388,"slotNo":82468598,"epochSlotNo":215798,"stakeKey":"stake1u8xx6z6srz6ezpgd53nnx9ypqezqlf4a0qrevkccsu54nqcm2ch27"},{"txId":59990087,"txHash":"46bf3f1f3b1f0fb43522c5b17f80b04b1110ac4c2067d6ed85a5da9f46d03571","txTime":"2023/01/18 09:37:35","block":8285499,"epoch":388,"slotNo":82468364,"epochSlotNo":215564,"stakeKey":"stake1uy300fs2dpkdfvq6sf58y7z0ssjs533me657l0eengprktcrmqlgk"},{"txId":59990051,"txHash":"b810c2472ff0ef7e6451c9579defddd3b25a4df676beb8542607e9ceaf36f4f4","txTime":"2023/01/18 09:36:46","block":8285493,"epoch":388,"slotNo":82468315,"epochSlotNo":215515,"stakeKey":"stake1u9pah9ghw5vmn6zrsyfp5rxl8mrc26e98wvng4zht2rqyssvw63pp"},{"txId":59990012,"txHash":"ce19cb3e5fef9652e05536d226cdc28bb456df4235533886109ea7d64dee59ce","txTime":"2023/01/18 09:35:38","block":8285489,"epoch":388,"slotNo":82468247,"epochSlotNo":215447,"stakeKey":"stake1u9pah9ghw5vmn6zrsyfp5rxl8mrc26e98wvng4zht2rqyssvw63pp"},{"txId":59990011,"txHash":"a14080c3f05ada28a6141650e657a4cba33224a574726ec1dd68c28bae780125","txTime":"2023/01/18 09:35:38","block":8285489,"epoch":388,"slotNo":82468247,"epochSlotNo":215447,"stakeKey":"stake1uy92sdvfvqhpf9a0jqhevpa7h62jzcujc97tdfjngmkul0q0fkxk9"},{"txId":59989958,"txHash":"90724a3004fb7bf24a6b010638233344477f0c2fb141eed5fff04b86d370e336","txTime":"2023/01/18 09:34:35","block":8285486,"epoch":388,"slotNo":82468184,"epochSlotNo":215384,"stakeKey":"stake1uxcq4kusj90nm5q5tdjjxf86r0vkghepjs7pyf6nphe05pslurlss"},{"txId":59989516,"txHash":"a83a7aab3cd6ca420ba0bff9d40074fdc691468ecc39b02b5a0e377b0e6f95bd","txTime":"2023/01/18 09:21:57","block":8285449,"epoch":388,"slotNo":82467426,"epochSlotNo":214626,"stakeKey":"stake1u9qr6gnd8x4kw66qygcuf8rk0fgdyngqkev7uax4j5kqk3q2jp7m2"},{"txId":59989270,"txHash":"119f7570dc5c5dbb5db52d0b6de1c314d5e656400d5689fa9494cb4726c36360","txTime":"2023/01/18 09:14:07","block":8285428,"epoch":388,"slotNo":82466956,"epochSlotNo":214156,"stakeKey":"stake1u9fdzx8npxccxxect9gtkx7h93an76uk6wwp7mqx2stpyfqmxghk4"},{"txId":59989252,"txHash":"4fb5f0c75d25641dedee9730670bc7434ec1e489bfcecd54dbe480bdb0544420","txTime":"2023/01/18 09:13:54","block":8285427,"epoch":388,"slotNo":82466943,"epochSlotNo":214143,"stakeKey":"stake1uxjs5m0makzec7fpyyjfm8gsv3qd5rlxgkzm56c6cr5gg3qpkg9h0"},{"txId":59989021,"txHash":"c0e594ca21a326179bf1285fa3cc9fac68cf018aba70b99dc7a8d122e5d4a1b0","txTime":"2023/01/18 09:05:09","block":8285403,"epoch":388,"slotNo":82466418,"epochSlotNo":213618,"stakeKey":"stake1uxxsu52e6yzag6py2fns6m4twwtjz8rzjexqmh6h3q3s4gqhl4x2q"},{"txId":59988936,"txHash":"3bdff5866b33c0f430434f30184354f9b91a54a1153dddc8bf9c7e8f71b58b76","txTime":"2023/01/18 09:02:57","block":8285393,"epoch":388,"slotNo":82466286,"epochSlotNo":213486,"stakeKey":"stake1uxx8ra83j4705ue054xjc3zfpt2asg94s8ch68jwmgflpec4ma4gp"},{"txId":59988797,"txHash":"47aad09bc32dce3ac2110d6a2c2628141b518f832382916b43d7b493f0bc9f4f","txTime":"2023/01/18 08:58:09","block":8285381,"epoch":388,"slotNo":82465998,"epochSlotNo":213198,"stakeKey":"stake1u88mjfyq0lc9nza0x8kkkh8hvgzkvw7vp9rwmfzcwt2yxhq0qyh66"},{"txId":59988542,"txHash":"0d748beeae456ba9d4b564689babd9d720c54b37a03c5c691a989a3c3b57e704","txTime":"2023/01/18 08:48:58","block":8285358,"epoch":388,"slotNo":82465447,"epochSlotNo":212647,"stakeKey":"stake1u98qd80mvw4207wzee9fe2rlu4txy7z8u7mfsqxxv0gykzgrphhrj"},{"txId":59988170,"txHash":"799d4a42dfcfa9f44387963e7df7fe8b19a3d3ba9d2cfab78fe0af04af935623","txTime":"2023/01/18 08:38:12","block":8285316,"epoch":388,"slotNo":82464801,"epochSlotNo":212001,"stakeKey":"stake1uyxtr5ul5sln88fpe4xtw5trmamkkrhu7smt5cvqf0wqfmc44p9wc"},{"txId":59988038,"txHash":"b4071aab5b3f329e4197075a508d5c0ee7b552db1ff78082d448f107da697785","txTime":"2023/01/18 08:34:53","block":8285309,"epoch":388,"slotNo":82464602,"epochSlotNo":211802,"stakeKey":"stake1u8s299ny5pplwdw6qq6aasea5ll59ryc4e6efgpad8faursfcyemn"}],"totalItems":1648014,"totalPages":82401,"currentPage":0}