{"data":[{"txId":53886105,"txHash":"5e0ab3512fa18c9bf6efcacb4acca0e8c32b1710ceb888aecc0cbd6b71ca3951","txTime":"2022/10/31 09:05:56","block":7953598,"epoch":372,"slotNo":75640865,"epochSlotNo":300065,"stakeKey":"stake1uyxx3800me58wkzpu0h5kemzwwa48fpe3ydexp0uqrygnncznrkgv"},{"txId":53885936,"txHash":"79701a17dbcf70de294feda8bb15e10745ad83cb1f3b855e42fb275e3a7a8c3b","txTime":"2022/10/31 09:01:36","block":7953583,"epoch":372,"slotNo":75640605,"epochSlotNo":299805,"stakeKey":"stake1uxyk9m7p3cc7laqfdg2jawtkqkaqgx9f4jr0e0ayyjszjvcprg3c0"},{"txId":53885541,"txHash":"8827ea569911d2ab9dc20a4b5b59a498778f8d9531c4cf47e20e2610b86cc293","txTime":"2022/10/31 08:49:32","block":7953547,"epoch":372,"slotNo":75639881,"epochSlotNo":299081,"stakeKey":"stake1uxqc8vclhha3wxk3az6m9x4a4vjk8qc4dtnjges6ptkl2rg7t3hwn"},{"txId":53885330,"txHash":"a39de50c20f2a34004295a3657286acb502bd509582c65aa4d379f43f00f742a","txTime":"2022/10/31 08:45:32","block":7953537,"epoch":372,"slotNo":75639641,"epochSlotNo":298841,"stakeKey":"stake1ux038thaatmn30u96pzh2zjv25c4vx9apvw0p2htff3nwsc0uqps2"},{"txId":53885104,"txHash":"711f3b5f1d1b1e4e0b6125b9d1ac17818ae937f7b8dda912de21143d5f27c822","txTime":"2022/10/31 08:39:00","block":7953515,"epoch":372,"slotNo":75639249,"epochSlotNo":298449,"stakeKey":"stake1u8p6e37atuvuqn50lfnvcuffz5cvdl5k4888jgz7usymq9gxzwdlm"},{"txId":53884621,"txHash":"f7761192f401439aa8f87e03e27ee3ac9a22f39ba28536e9cabe3941c223aa0a","txTime":"2022/10/31 08:25:14","block":7953460,"epoch":372,"slotNo":75638423,"epochSlotNo":297623,"stakeKey":"stake1uypng6qeywztry2nlysjgfapeqm7de9pult5s4f6zk52nmg83xwtm"},{"txId":53883806,"txHash":"9a86ecfae7c6cb89c1c380a9ca202a647c3ca87f5a067f363e0f603c8b8167b0","txTime":"2022/10/31 08:03:18","block":7953395,"epoch":372,"slotNo":75637107,"epochSlotNo":296307,"stakeKey":"stake1u8gwu9tyevxz5cmt80vz0kqg5rcueggely34yd8fvjyxtjqsag7wv"},{"txId":53883341,"txHash":"015fea7dedbbb697649fa0de73fe34981ee01d59b3fd637844bd32c6c5e6b3ce","txTime":"2022/10/31 07:48:26","block":7953351,"epoch":372,"slotNo":75636215,"epochSlotNo":295415,"stakeKey":"stake1u9t4pp73lj6duyrp349nah63n4nf7tusg0ywmqz04cy7lqq5npj33"},{"txId":53883335,"txHash":"78c174e4741875f3fbff4a57313c1125ff6b49953a9cac4a4f7345b3e473a53e","txTime":"2022/10/31 07:47:56","block":7953350,"epoch":372,"slotNo":75636185,"epochSlotNo":295385,"stakeKey":"stake1uxn5w94qjfw0ntpsazadkfedl5vjuz54tkqnjpzw0cga4zqp04v7a"},{"txId":53883329,"txHash":"f4982f8f8ad4ffd54018d45d0611a1b48296533dd000a2d6c4d44be2f9f971af","txTime":"2022/10/31 07:47:46","block":7953348,"epoch":372,"slotNo":75636175,"epochSlotNo":295375,"stakeKey":"stake1uydm0yaexxn0c7gpmeucxwxazqndcstm7c3rdwtlcsmnujsqprxku"},{"txId":53883327,"txHash":"5e32987a318285ed71d4ec576894d0d50ce072e0bdcad617c3f69dff42a81654","txTime":"2022/10/31 07:47:46","block":7953348,"epoch":372,"slotNo":75636175,"epochSlotNo":295375,"stakeKey":"stake1uxdsr8hkmuh4kn5z653p0yp9me3yclp3jdnwxf24yesjnnqkdx77f"},{"txId":53883317,"txHash":"ec8eafc3b7370491acb823674ec2d3d1cbb9df8a7c638e8ed17f2f5b9a58066e","txTime":"2022/10/31 07:47:46","block":7953348,"epoch":372,"slotNo":75636175,"epochSlotNo":295375,"stakeKey":"stake1uxecz2pe66r6wmux8wtnxw029dz3lpvm5cw5qrn4wquvvkq0fljl7"},{"txId":53883310,"txHash":"213f13fba7ad5a37a1a42d84620a6754cae30c59c1f9e0afc851be678881c239","txTime":"2022/10/31 07:47:46","block":7953348,"epoch":372,"slotNo":75636175,"epochSlotNo":295375,"stakeKey":"stake1uxf4l6ej75yywevsrguzjwttcyh7uwzh4jgs9a85k942k2se6hd9h"},{"txId":53883306,"txHash":"c9e6fd024650ea6a5aed83b328deffcc74f71bf5adad1ead3c1f885b65ae801e","txTime":"2022/10/31 07:47:46","block":7953348,"epoch":372,"slotNo":75636175,"epochSlotNo":295375,"stakeKey":"stake1u9tlzl2qkeplym4433qgk9pup4l5ga8ym4heqnvu9p80w2s9xg9eq"},{"txId":53883300,"txHash":"f64369fcd23d3bb20335061a8e70d5cea0d7d30a276c3aabd78c91941c57a2e9","txTime":"2022/10/31 07:47:09","block":7953347,"epoch":372,"slotNo":75636138,"epochSlotNo":295338,"stakeKey":"stake1uyjuk3wvfn4gu7353esx34mhqq5fp86pav48wnwl2yvntvqvfz5j7"},{"txId":53883297,"txHash":"1b6d90802497a8cb94522387e01832dbb86bb8f4d75170617a5a5d299a27bfba","txTime":"2022/10/31 07:47:09","block":7953347,"epoch":372,"slotNo":75636138,"epochSlotNo":295338,"stakeKey":"stake1u96g8afdcrd2379jzfyhdgfpctlgl3eamxc9kf74vxq0yuchmhthe"},{"txId":53883293,"txHash":"d64e6fb27d908c889189d9e232bc41c2b02f077f61830f6b04c40f397f5d51c5","txTime":"2022/10/31 07:47:09","block":7953347,"epoch":372,"slotNo":75636138,"epochSlotNo":295338,"stakeKey":"stake1u96g2sflykh2d0ruvag9aer4rangx86z7q9mj7fp0wlux5c093qvf"},{"txId":53883291,"txHash":"d8343b3fd289c6c0e142d05cc1887e3a184ac68b9d30e1739fea6994dbbc9bc7","txTime":"2022/10/31 07:47:09","block":7953347,"epoch":372,"slotNo":75636138,"epochSlotNo":295338,"stakeKey":"stake1uy3x04vwjgwjcfukn04v5nlrx5mhhkfdpeks26luj56fwaqq2lx9v"},{"txId":53883289,"txHash":"287874a59a90a157cf20608da1111645378655846ac68d158de72b0174dccaab","txTime":"2022/10/31 07:47:09","block":7953347,"epoch":372,"slotNo":75636138,"epochSlotNo":295338,"stakeKey":"stake1uxnawlxdyh3ux0xxpw9dcgaxnd8lvznzwlfsxjxcae99qncylgdkt"},{"txId":53883283,"txHash":"19706ef84f5098c1b33f036e5fddbef1d1ef994d305f433014b4e3e1a5e00a39","txTime":"2022/10/31 07:47:09","block":7953347,"epoch":372,"slotNo":75636138,"epochSlotNo":295338,"stakeKey":"stake1uyy48gfskxtf9y8z7rgryzypwtmqtu04et0mqxsh2h5s6mgfqk0gp"}],"totalItems":324773,"totalPages":16239,"currentPage":0}