{"data":[{"blockNo":7251848,"slotNo":61098394,"epochNo":339,"epochSlotNo":13594,"hash":"c2a4781be65f0195fcce6828de29aad7e3e4f4c2f56a154e3ecd1158da781504","time":"2022/05/16 01:31:25","txCount":20,"totalFees":9181943,"totalOutput":10720458495937,"slotLeader":"bbe8aaed7d10e53102f4cd78fd3e504d8ff0c0009243da208893b970"},{"blockNo":7251847,"slotNo":61098360,"epochNo":339,"epochSlotNo":13560,"hash":"c4ade084252a0d53eb4b6263db144b9193842e02c3e352b2b53c3440f9d4ae55","time":"2022/05/16 01:30:51","txCount":42,"totalFees":14078894,"totalOutput":35002369036334,"slotLeader":"607a7ae66035ef4bcc840e40985e0805e724888d6a01e15569df597d"},{"blockNo":7251846,"slotNo":61098348,"epochNo":339,"epochSlotNo":13548,"hash":"7ffa8529ba67e44eb0a8fadeddf10109a370a956bbdfc6bb0d360e66bde3ee7f","time":"2022/05/16 01:30:39","txCount":79,"totalFees":19472586,"totalOutput":1405541073922,"slotLeader":"351a90a0253fb3595ccc460438b9947cd8a0b9a7f457f3478bbb31d8"},{"blockNo":7251845,"slotNo":61098331,"epochNo":339,"epochSlotNo":13531,"hash":"091b624f9348f83d33d5bb06aaedbae6c0d252ed71c41bfa78757c43cb664441","time":"2022/05/16 01:30:22","txCount":62,"totalFees":17053545,"totalOutput":6021548344311,"slotLeader":"29db67496a0725cd1b3714e755c17b1f8c156d9be3d51237c0b2253f"},{"blockNo":7251844,"slotNo":61098322,"epochNo":339,"epochSlotNo":13522,"hash":"c07b4909f480016a09204c84b2280e8447701681fb8842a0a34f692e1294c4eb","time":"2022/05/16 01:30:13","txCount":29,"totalFees":10332571,"totalOutput":19918032640,"slotLeader":"1b94521f14db543dd493b0c170ecb0ef56d7f5e611098d1b8dcfd167"},{"blockNo":7251843,"slotNo":61098292,"epochNo":339,"epochSlotNo":13492,"hash":"bccfc10e1641b6fb802282cd566341c2233336320ef20fa99f57f5d0c8f6e891","time":"2022/05/16 01:29:43","txCount":47,"totalFees":16254836,"totalOutput":46521674241313,"slotLeader":"00beef8710427e328a29555283c74b202b40bec9a62630a9f03b1e18"},{"blockNo":7251842,"slotNo":61098266,"epochNo":339,"epochSlotNo":13466,"hash":"423de8af3d979133a17e0342679405914d7f2b4402ad3bef2510ca28f4b72370","time":"2022/05/16 01:29:17","txCount":25,"totalFees":9783932,"totalOutput":2362513183444,"slotLeader":"80cb48c2953a78d25f69dbcea305fbcce0c520c25d401cd75a259cf1"},{"blockNo":7251841,"slotNo":61098246,"epochNo":339,"epochSlotNo":13446,"hash":"d45c36a607feaaa6183cfbff22ffb6471c3b4f1584d6c6b70c2109b02d6972e7","time":"2022/05/16 01:28:57","txCount":28,"totalFees":12494205,"totalOutput":19879533457,"slotLeader":"1634c08e606f0f68bed8d88ba0ab87980994a5872ce68afdd0064e40"},{"blockNo":7251840,"slotNo":61098164,"epochNo":339,"epochSlotNo":13364,"hash":"57d4a3ae3ab59f9cc740c86765890f105e423f9cd0cc1bd1aaa091d8efc49858","time":"2022/05/16 01:27:35","txCount":50,"totalFees":14252090,"totalOutput":13381906602,"slotLeader":"0000fc522cea692e3e714b392d90cec75e4b87542c5f9638bf9a363a"},{"blockNo":7251839,"slotNo":61098154,"epochNo":339,"epochSlotNo":13354,"hash":"87f8840b79793475e1136506d20db945021f35502a4982e335532c7479cf0d6d","time":"2022/05/16 01:27:25","txCount":43,"totalFees":14129741,"totalOutput":2381554408067,"slotLeader":"9418abb33c7cf50778598371bc1f09fe5460d1dedf740faea665f4ac"},{"blockNo":7251838,"slotNo":61098149,"epochNo":339,"epochSlotNo":13349,"hash":"15f46ae02b7aa5540223575b23b70725fb733bb93db093dde02e4021569b398c","time":"2022/05/16 01:27:20","txCount":41,"totalFees":13576090,"totalOutput":6033396862475,"slotLeader":"9418abb33c7cf50778598371bc1f09fe5460d1dedf740faea665f4ac"},{"blockNo":7251837,"slotNo":61098101,"epochNo":339,"epochSlotNo":13301,"hash":"a3ee3302af2024e51322ecc32a46c625da995ce36a1e902d752f1ede73cd73e0","time":"2022/05/16 01:26:32","txCount":46,"totalFees":13514243,"totalOutput":400354499863,"slotLeader":"3d82913d4c8da690aab6af622651f7a659da40af87dcb4b3b98ce830"},{"blockNo":7251836,"slotNo":61098051,"epochNo":339,"epochSlotNo":13251,"hash":"02fb3b1a5230df52ba6c88a652d894dbe955264c02fa81546fb7bb8593a1b60a","time":"2022/05/16 01:25:42","txCount":61,"totalFees":15172082,"totalOutput":43569138919679,"slotLeader":"92bda83eb105d569b23cb6fa1d407dd42de0d2d7e6562718b7ac5c02"},{"blockNo":7251835,"slotNo":61098035,"epochNo":339,"epochSlotNo":13235,"hash":"3d82468b401a7412528c87cf762e3323fad966e70a05f979b929cef03a39c43f","time":"2022/05/16 01:25:26","txCount":43,"totalFees":12988486,"totalOutput":954046959640,"slotLeader":"2a748e3885f6f73320ad16a8331247b81fe01b8d39f57eec9caa5091"},{"blockNo":7251834,"slotNo":61098017,"epochNo":339,"epochSlotNo":13217,"hash":"ca133e0d4ca2e7d51c46191f8b03e8fc67f2b67997f678884ebb3444623c330e","time":"2022/05/16 01:25:08","txCount":43,"totalFees":12498186,"totalOutput":703839726732,"slotLeader":"30432a0b85b6f80b3e9cd356d8b76b9793f5530c91050c1688da4922"},{"blockNo":7251833,"slotNo":61098011,"epochNo":339,"epochSlotNo":13211,"hash":"31f3eb10d8b6f200e6210c603b00cea237dfcb9a478d943abc9fe33d0d5065df","time":"2022/05/16 01:25:02","txCount":51,"totalFees":14789353,"totalOutput":14293221314644,"slotLeader":"d6323bbbf63cc1e1879918ea879d614641eeba7741856277f83cce69"},{"blockNo":7251832,"slotNo":61097889,"epochNo":339,"epochSlotNo":13089,"hash":"a4c70a7668b0faac904d2639c9a3bd038859065bcdd1e1e6cfb1d0110c6c9047","time":"2022/05/16 01:23:00","txCount":40,"totalFees":11352587,"totalOutput":983833027153,"slotLeader":"4ee9e4c2ec6fc68850330dbc75ccd7ebf7951f20e1085d324f36cf44"},{"blockNo":7251831,"slotNo":61097847,"epochNo":339,"epochSlotNo":13047,"hash":"6736c750019fad58e6a88c7163d83f4b0a88d03ba2f96134d351d5493cf9b2bd","time":"2022/05/16 01:22:18","txCount":44,"totalFees":13228129,"totalOutput":4166029593633,"slotLeader":"7ca6f74bf72922e511003d78affd9f999228ff1543e1007f610c5d12"},{"blockNo":7251830,"slotNo":61097803,"epochNo":339,"epochSlotNo":13003,"hash":"01e9c27e42f37e5b9fb9a5f904aec164e9eb7de7771ba8afec9f47ea5aab5be9","time":"2022/05/16 01:21:34","txCount":39,"totalFees":11710498,"totalOutput":24861623637,"slotLeader":"639288b5e4bf267ece78e9a4941dd794f50ec54785f84c687b4ab086"},{"blockNo":7251829,"slotNo":61097768,"epochNo":339,"epochSlotNo":12968,"hash":"cb31a9e9e7ddc13fd0da5f776d93b0060ba18b52b5946d9348604b0628819ebc","time":"2022/05/16 01:20:59","txCount":65,"totalFees":19097912,"totalOutput":1156648687460,"slotLeader":"37303e39c681371e158fdd7268f4546d581114dc3fbcc87cbc6856f0"}],"totalItems":7252024,"totalPages":362602,"currentPage":0}