{"data":[{"address":"addr1qyegmz9fs9z6rqypt03xj7pycje6c7cetw5d90ld2yn9qldfsare778tzlhkycm7hdqm54r4rncjqs5t2h78mklqv0jsjl859t","name":"4154484f4d","displayName":"ATHOM","fingerprint":"asset1cw6a0zyc97cy94qgt0u4t2hz54c6rdtcrzc2ta","quantity":634995513306725297857},{"address":"addr1qy4pucvjvpeczccyj9m4uqclr2pr8vknh39rlf8ec2hnaze74gxu3rm5rxx2nlmwj0dw7z28lrn0s8wgawxjcruw2xsq6cx0v8","name":"4154484f4d","displayName":"ATHOM","fingerprint":"asset1cw6a0zyc97cy94qgt0u4t2hz54c6rdtcrzc2ta","quantity":136016685632975739593},{"address":"addr1z8snz7c4974vzdpxu65ruphl3zjdvtxw8strf2c2tmqnxz2j2c79gy9l76sdg0xwhd7r0c0kna0tycz4y5s6mlenh8pq0xmsha","name":"4154484f4d","displayName":"ATHOM","fingerprint":"asset1cw6a0zyc97cy94qgt0u4t2hz54c6rdtcrzc2ta","quantity":28180332057075038796},{"address":"addr1q9c9hh2f07wm8ent9nh39khlmhyv8ppfsmtxs3xnrncje2qau0vj5p52dpg4n74jmp4g2xc2ctpm9j7r9qwhpu8jvhuqe3ju0h","name":"4154484f4d","displayName":"ATHOM","fingerprint":"asset1cw6a0zyc97cy94qgt0u4t2hz54c6rdtcrzc2ta","quantity":24908375505321675359},{"address":"addr1qye8nh09n8zftagc6pxfmh0d6rvhp6s72rssnkzstnhc499mw46qmm7yh77x7drszn8hvpe75smdawsz2xpeuksm2q6s9zwcsc","name":"4154484f4d","displayName":"ATHOM","fingerprint":"asset1cw6a0zyc97cy94qgt0u4t2hz54c6rdtcrzc2ta","quantity":9223372036854775807},{"address":"addr1q9qvtc54rs7r23pknsclu28g37pn5gaaeavrr0f6d5wf2y4mw46qmm7yh77x7drszn8hvpe75smdawsz2xpeuksm2q6sufwkv7","name":"4154484f4d","displayName":"ATHOM","fingerprint":"asset1cw6a0zyc97cy94qgt0u4t2hz54c6rdtcrzc2ta","quantity":9199999999999999997},{"address":"addr1qy9f2ej35gcww8w3hqeavhqhhqaqvjgxwa0swav5rglzch4mw46qmm7yh77x7drszn8hvpe75smdawsz2xpeuksm2q6s9u76re","name":"4154484f4d","displayName":"ATHOM","fingerprint":"asset1cw6a0zyc97cy94qgt0u4t2hz54c6rdtcrzc2ta","quantity":9190000000000000001},{"address":"addr1qy2jejk6d2yp8z29spxqyszpta35vd74pceklrl5l0y35w9mw46qmm7yh77x7drszn8hvpe75smdawsz2xpeuksm2q6sg2d43e","name":"4154484f4d","displayName":"ATHOM","fingerprint":"asset1cw6a0zyc97cy94qgt0u4t2hz54c6rdtcrzc2ta","quantity":9180000000000000001},{"address":"addr1qy02grarzysfg8w262jenjpn8mj7vjy6e0uftdhevsw4n49mw46qmm7yh77x7drszn8hvpe75smdawsz2xpeuksm2q6spgm99l","name":"4154484f4d","displayName":"ATHOM","fingerprint":"asset1cw6a0zyc97cy94qgt0u4t2hz54c6rdtcrzc2ta","quantity":9160000000000000001},{"address":"addr1qxl5sl9el8jz0htk9dudxy4vjulr7hswlawt9wv7d96vjf9mw46qmm7yh77x7drszn8hvpe75smdawsz2xpeuksm2q6serk5yj","name":"4154484f4d","displayName":"ATHOM","fingerprint":"asset1cw6a0zyc97cy94qgt0u4t2hz54c6rdtcrzc2ta","quantity":9150000000000000001},{"address":"addr1q8kygyx83e4vvdtmwla4m0z9q6dlywcktt7lhv6xhn48wnamw46qmm7yh77x7drszn8hvpe75smdawsz2xpeuksm2q6svkw87e","name":"4154484f4d","displayName":"ATHOM","fingerprint":"asset1cw6a0zyc97cy94qgt0u4t2hz54c6rdtcrzc2ta","quantity":9140000000000000001},{"address":"addr1q8dgnd9qz7sd04mvudt79g03qkr88w96ssezy9g48tenyrdmw46qmm7yh77x7drszn8hvpe75smdawsz2xpeuksm2q6satyxk2","name":"4154484f4d","displayName":"ATHOM","fingerprint":"asset1cw6a0zyc97cy94qgt0u4t2hz54c6rdtcrzc2ta","quantity":9139000000000000001},{"address":"addr1qygzs903legxwndxuqeqn85q0h6zpnat0t3f77pzmzddyuamw46qmm7yh77x7drszn8hvpe75smdawsz2xpeuksm2q6s5df48z","name":"4154484f4d","displayName":"ATHOM","fingerprint":"asset1cw6a0zyc97cy94qgt0u4t2hz54c6rdtcrzc2ta","quantity":9138000000000000001},{"address":"addr1qxtva6lfpal5sg8hehwe7u88rlg588ha2tmcu86sk7up7samw46qmm7yh77x7drszn8hvpe75smdawsz2xpeuksm2q6su3ewfp","name":"4154484f4d","displayName":"ATHOM","fingerprint":"asset1cw6a0zyc97cy94qgt0u4t2hz54c6rdtcrzc2ta","quantity":9113000000000000001},{"address":"addr1q9mes2fu4anx6qldczvman5l64p7nwt6kptju73ah46xtc9mw46qmm7yh77x7drszn8hvpe75smdawsz2xpeuksm2q6sc3d54z","name":"4154484f4d","displayName":"ATHOM","fingerprint":"asset1cw6a0zyc97cy94qgt0u4t2hz54c6rdtcrzc2ta","quantity":9111000000000000001},{"address":"addr1q8f93zearf9jlkwcmvqhhgl7am9qhnepy7amd7xauj6dl39mw46qmm7yh77x7drszn8hvpe75smdawsz2xpeuksm2q6salq5sk","name":"4154484f4d","displayName":"ATHOM","fingerprint":"asset1cw6a0zyc97cy94qgt0u4t2hz54c6rdtcrzc2ta","quantity":9111000000000000001},{"address":"addr1qx3xt5vv704qxn8grmgsycsqvpcf3gtdhzs60ks7a2s28yamw46qmm7yh77x7drszn8hvpe75smdawsz2xpeuksm2q6sfxknjy","name":"4154484f4d","displayName":"ATHOM","fingerprint":"asset1cw6a0zyc97cy94qgt0u4t2hz54c6rdtcrzc2ta","quantity":9108999999999999981},{"address":"addr1qxcwxknxgrt5nev34t82nh7fe8tf9n0deycfg7vtdnuj9w9mw46qmm7yh77x7drszn8hvpe75smdawsz2xpeuksm2q6s3rqsk8","name":"4154484f4d","displayName":"ATHOM","fingerprint":"asset1cw6a0zyc97cy94qgt0u4t2hz54c6rdtcrzc2ta","quantity":9106999999999999981},{"address":"addr1q9nptcyc7jtjemaktlkgffjcmf700dcz5f2eg8n6vqm7qldmw46qmm7yh77x7drszn8hvpe75smdawsz2xpeuksm2q6satc7tt","name":"4154484f4d","displayName":"ATHOM","fingerprint":"asset1cw6a0zyc97cy94qgt0u4t2hz54c6rdtcrzc2ta","quantity":9105999999999999981},{"address":"addr1q8272d47f0re6tan3eupzs4hmp0sq05eyk6fe7ukhv55a34mw46qmm7yh77x7drszn8hvpe75smdawsz2xpeuksm2q6s569an3","name":"4154484f4d","displayName":"ATHOM","fingerprint":"asset1cw6a0zyc97cy94qgt0u4t2hz54c6rdtcrzc2ta","quantity":9103999999999999981}],"totalItems":5106,"totalPages":256,"currentPage":0}