{"data":[{"txId":53981921,"txHash":"a1c2d26541c78bdd857be2ceb27d5c8420f1c3ad3764696c6d4fbadd73250575","txTime":"2022/11/01 02:09:30","block":7956607,"epoch":372,"slotNo":75702279,"epochSlotNo":361479,"stakeKey":"stake1uyumkduk43fcge7yge8mkw96gn2y3ftpgjpj6a83mh05pxg0f2mam"},{"txId":53981327,"txHash":"b2bb7de7f64310a49a74e6e2268ac034a8cde46ba0c235bb74a6726a56406309","txTime":"2022/11/01 01:59:58","block":7956581,"epoch":372,"slotNo":75701707,"epochSlotNo":360907,"stakeKey":"stake1u8wzszx9yyxn0tvqljk92nt8qqwx7hsjcgxndcyqmlfmjqsfc3acx"},{"txId":53981017,"txHash":"c40899f693adc10162f962fc7bc135116b1d280a5fd955cc68d571cc3f20e4a6","txTime":"2022/11/01 01:53:46","block":7956567,"epoch":372,"slotNo":75701335,"epochSlotNo":360535,"stakeKey":"stake1uxk4xgh32f0mscc02m20fx8urfkhwrpwydthp7vp6ma4ycc7pe06v"},{"txId":53980554,"txHash":"6bed36d801c8f9c90dbf7315d9da9f9517d1bad38e994f4b12c6ecd4100c6bb4","txTime":"2022/11/01 01:43:59","block":7956550,"epoch":372,"slotNo":75700748,"epochSlotNo":359948,"stakeKey":"stake1u8fxw2nffvxs2x9p44uzqe2aelye5fawaflw5tdmtqsxfnqhkr320"},{"txId":53980470,"txHash":"92d03270ba72e8e46f56c778ef2178f1f888fd7c3bf89d4157c61c756f865ce7","txTime":"2022/11/01 01:41:51","block":7956546,"epoch":372,"slotNo":75700620,"epochSlotNo":359820,"stakeKey":"stake1uxc23ydjk6wrweumlj4tjqt2cv5qrw88p6kl7d6t9mmng0c235zvh"},{"txId":53980379,"txHash":"cbecf4a30164b619683e4006a27287c3281967575761b0ff970bbd0273589b1d","txTime":"2022/11/01 01:40:31","block":7956542,"epoch":372,"slotNo":75700540,"epochSlotNo":359740,"stakeKey":"stake1ux43fvsp0uay6hnp45kfmd9h3qrz9sygngn268pwwwwfpgqfy5tnx"},{"txId":53980049,"txHash":"e459b143a24936ee2c8dc8f0db3e3133fee11076c6d98baa47b15f376af179ef","txTime":"2022/11/01 01:33:57","block":7956516,"epoch":372,"slotNo":75700146,"epochSlotNo":359346,"stakeKey":"stake1u9n3v3r47c83544p7af3vdlewvccv9s5c88emrv3n56kayg2f3jus"},{"txId":53979980,"txHash":"7f96481643acc92cd720aecccbab460300fb1b04f9b99d5b12d441642c770883","txTime":"2022/11/01 01:32:49","block":7956514,"epoch":372,"slotNo":75700078,"epochSlotNo":359278,"stakeKey":"stake1ux4q4wwpyrxvw8ddvzya5xr0c853u2ydtwjtvnrfyy5e3ws28sewh"},{"txId":53979541,"txHash":"645effbd02808ecdf173d9c6fe29314c480240e11bd673a75e11f9af74eb9b38","txTime":"2022/11/01 01:23:49","block":7956484,"epoch":372,"slotNo":75699538,"epochSlotNo":358738,"stakeKey":"stake1uy39l2jlhh3tr3aux32e0ej2ar29g5eev6lktdzkpdkf3pgdj882d"},{"txId":53979518,"txHash":"cf2c856e74421d4ebf43aa261ce968eaf24d6d6b303235206800424ff084bdad","txTime":"2022/11/01 01:23:47","block":7956483,"epoch":372,"slotNo":75699536,"epochSlotNo":358736,"stakeKey":"stake1u9khe5pmv0d2999fzdx73hefzjpf76gtkwf2jrjz9ha3k3cd6pwxm"},{"txId":53979120,"txHash":"c24ca7f2eaa9891e3e94d6e64e855a2da7319c1149a8df3b81566a78c9918193","txTime":"2022/11/01 01:15:09","block":7956462,"epoch":372,"slotNo":75699018,"epochSlotNo":358218,"stakeKey":"stake1u95vvx8nn6sau55zjdk7pcd8hghw5e0u33aqt0vat2n3cnc96kzha"},{"txId":53978493,"txHash":"4b925352d479b80373ccd72fa9288b7604135eaed8b984ffd19e6b7ee5866690","txTime":"2022/11/01 01:00:06","block":7956412,"epoch":372,"slotNo":75698115,"epochSlotNo":357315,"stakeKey":"stake1u8cscmh8agxrln2a4xq82v337g3uufqqg6wm5fc04p3a8hgh79py7"},{"txId":53976911,"txHash":"894dcc3171aff4ff557b48303c008b354c327646b2c5ed0bc4aae5bfc8519f2c","txTime":"2022/11/01 00:31:13","block":7956326,"epoch":372,"slotNo":75696382,"epochSlotNo":355582,"stakeKey":"stake1u8djgnrzfjh9n2tw55dkxneyxxemcpp7u4my0t93tqdmnyqa6rfa9"},{"txId":53975285,"txHash":"b98ad9144dba7eaf112849dc4579555c0d049581b242df01f7996012a839ed7c","txTime":"2022/11/01 00:02:30","block":7956237,"epoch":372,"slotNo":75694659,"epochSlotNo":353859,"stakeKey":"stake1u8a7nc8t7zwap7p2g8l6vl549r6ar6kkv3hcwdycwcqc6sguwntx8"},{"txId":53975084,"txHash":"8d4ccdbd5ab33def2f566776b77872d77d37ec8b62a621c5649e2a1aef13ffa7","txTime":"2022/11/01 00:01:22","block":7956235,"epoch":372,"slotNo":75694591,"epochSlotNo":353791,"stakeKey":"stake1u8rsds8qp9m87s7hp5r5sf7nzavy28z439xjxmy5vtkjxwske70rl"},{"txId":53974850,"txHash":"16a70096f19baf370e28e5784ef0fd6627c5f51f5d8f98fedc4aa438d51db802","txTime":"2022/10/31 23:56:45","block":7956221,"epoch":372,"slotNo":75694314,"epochSlotNo":353514,"stakeKey":"stake1uxf3r663lxfqcgnrrzealjqpca455ndv492ldva3y8dxgfcmtd2sd"},{"txId":53974426,"txHash":"7b7989dba70bd6e93806c527716948fb2591a4beabf66752bbd860b4e13d65ac","txTime":"2022/10/31 23:49:47","block":7956202,"epoch":372,"slotNo":75693896,"epochSlotNo":353096,"stakeKey":"stake1u89rq6mwlpmj2jjwzmmdpzfvtjsglkajgf6g9e0r2sq3xsglnfnk4"},{"txId":53973814,"txHash":"9f5bde301983c37af1bfa9c52e962e45e246b9f82f8ec63ad7d0f666661f6d25","txTime":"2022/10/31 23:39:28","block":7956175,"epoch":372,"slotNo":75693277,"epochSlotNo":352477,"stakeKey":"stake1u898p4q25tsvc87lyv9al04y0kv6hqxffzg0wk3sjhchxnqzwn3w0"},{"txId":53973291,"txHash":"fd308eb9d9f4e4e7566db8d87d4612ae043e656f77ec1abe5fc27ecef0d9e24e","txTime":"2022/10/31 23:30:46","block":7956153,"epoch":372,"slotNo":75692755,"epochSlotNo":351955,"stakeKey":"stake1u92pq67vfgaufmjk7p0gu2a0jawm6mc034tfg7ujy3a7e4ssaehkk"},{"txId":53973255,"txHash":"4dd7de9b75e6b7fe9d25ba55f4b9b88f12fbf4b5a45eb650dd5ab9bc4bbc9bf8","txTime":"2022/10/31 23:30:44","block":7956152,"epoch":372,"slotNo":75692753,"epochSlotNo":351953,"stakeKey":"stake1u9xajw9tecqxt9zd89prmqgj8zf5a069jnsea0ulcgwkvmg20wgw8"}],"totalItems":324924,"totalPages":16247,"currentPage":0}