{"data":[{"no":330,"status":"SYNCING","blkCount":16057,"outSum":170623061773958048,"txCount":394581,"startTime":"2022/03/31 21:46:34","endTime":"2022/04/04 18:26:33","maxSlot":432000},{"no":329,"status":"FINISHED","blkCount":20353,"outSum":305422090960286271,"txCount":546489,"startTime":"2022/03/26 21:44:51","endTime":"2022/03/31 21:44:35","maxSlot":432000},{"no":328,"status":"FINISHED","blkCount":20579,"outSum":227059210495141108,"txCount":550807,"startTime":"2022/03/21 21:45:16","endTime":"2022/03/26 21:43:35","maxSlot":432000},{"no":327,"status":"FINISHED","blkCount":20346,"outSum":282038373010023801,"txCount":568933,"startTime":"2022/03/16 21:45:06","endTime":"2022/03/21 21:44:10","maxSlot":432000},{"no":326,"status":"FINISHED","blkCount":20534,"outSum":197989314692764231,"txCount":592413,"startTime":"2022/03/11 21:48:10","endTime":"2022/03/16 21:44:08","maxSlot":432000},{"no":325,"status":"FINISHED","blkCount":20541,"outSum":215789830534006737,"txCount":460050,"startTime":"2022/03/06 21:45:28","endTime":"2022/03/11 21:44:47","maxSlot":432000},{"no":324,"status":"FINISHED","blkCount":20380,"outSum":164146022297820275,"txCount":557373,"startTime":"2022/03/01 21:45:52","endTime":"2022/03/06 21:44:45","maxSlot":432000},{"no":323,"status":"FINISHED","blkCount":20573,"outSum":110428025685077382,"txCount":559393,"startTime":"2022/02/24 21:48:43","endTime":"2022/03/01 21:44:42","maxSlot":432000},{"no":322,"status":"FINISHED","blkCount":20393,"outSum":94279133813778891,"txCount":627687,"startTime":"2022/02/19 21:45:01","endTime":"2022/02/24 21:44:29","maxSlot":432000},{"no":321,"status":"FINISHED","blkCount":20096,"outSum":100258938410619468,"txCount":643509,"startTime":"2022/02/14 21:45:00","endTime":"2022/02/19 21:44:23","maxSlot":432000}],"totalItems":331,"totalPages":34,"currentPage":0}