{"data":[{"txId":56823776,"txHash":"5ff3b05142cdfc04476986554079b7cb60e9c487621cb81a6783884d19cd9a63","txTime":"2022/12/07 10:17:27","block":8108449,"epoch":380,"slotNo":78841956,"epochSlotNo":45156,"stakeKey":"stake1u9v4d2rcpqxwznr6dtytt7age4gv8x2nr45jeyeanu7c0aqwuwcfl"},{"txId":56823739,"txHash":"90059f4cc6c06a2e14bee58ec6aa26a4f3c6a3d589a41fc9dc1c1aac3b20b380","txTime":"2022/12/07 10:16:46","block":8108448,"epoch":380,"slotNo":78841915,"epochSlotNo":45115,"stakeKey":"stake1u88en0jvng3jr7wy6wxr0qffsg3psymuw3x55kz5md3pr2qgen3xc"},{"txId":56823606,"txHash":"7d3cc0dfc3d5b9437bcf52b2cdd2505fca065abc02fb17a1f485074de3704be6","txTime":"2022/12/07 10:13:14","block":8108433,"epoch":380,"slotNo":78841703,"epochSlotNo":44903,"stakeKey":"stake1u9s3hc694gskx352nz23wdg63v5lnj057zy3kdjwsfl2vxcarjnuh"},{"txId":56823559,"txHash":"5337ff66c569c7741f2f8c0b7ac544f8c542db3ddc6d15e8a203aa8c44299484","txTime":"2022/12/07 10:12:18","block":8108430,"epoch":380,"slotNo":78841647,"epochSlotNo":44847,"stakeKey":"stake1u8hzfx9g79p7z5vjr0zd4srxac3yplfnlfkhn70pz6xec3q8y7ypg"},{"txId":56823468,"txHash":"c0f3f741e93d2e32cc4f0fa724da6349b667872431b5a0b3f18e96ee51f8412d","txTime":"2022/12/07 10:10:30","block":8108425,"epoch":380,"slotNo":78841539,"epochSlotNo":44739,"stakeKey":"stake1uyjfzq0f2phv3mmrawmgmh0jmdwrkyfjxamgk88twm8efvcq9xlas"},{"txId":56823020,"txHash":"b25a8c2bdb4a471a69e859cc9643f31e41e49cf9ded73b5749b8c42374c2dc41","txTime":"2022/12/07 10:01:01","block":8108399,"epoch":380,"slotNo":78840970,"epochSlotNo":44170,"stakeKey":"stake1uxsa56gw39ve3we097rwaepn96q8wfurzgn5c6trvm6jwfs3x86ux"},{"txId":56823010,"txHash":"4ed2ea56ef6cc0f8d4516931d1e05cb8c9dbdd4c4951fcc60f55483439752265","txTime":"2022/12/07 10:00:13","block":8108397,"epoch":380,"slotNo":78840922,"epochSlotNo":44122,"stakeKey":"stake1uy8pjgvf2kz4jfl7m3adjunkzd8dckevdyw0lgedvxznfyc7d3pht"},{"txId":56822735,"txHash":"acce0194879dc5cc2685af75f1b06d086ec2043d632e4a5ca1338405c76a23cf","txTime":"2022/12/07 09:54:35","block":8108379,"epoch":380,"slotNo":78840584,"epochSlotNo":43784,"stakeKey":"stake1u9hkljca6pxzpn4hnpu5rtkp4s6s3805hjguf2w8mt3sw9ct2r7py"},{"txId":56822635,"txHash":"bb0c3cec0dc1e8047547cc1d453e5c5275701ee3619495f25ca91450f7d4214c","txTime":"2022/12/07 09:52:07","block":8108376,"epoch":380,"slotNo":78840436,"epochSlotNo":43636,"stakeKey":"stake1u9u8d8gcve3ctf0cmm993tn72t3l3fxt9zt4875srd7s9jqlzeu0r"},{"txId":56821956,"txHash":"4cb872e1f72d39571a5f12cdf5d00d09640840c390ec875f22fc3831fa14c4ed","txTime":"2022/12/07 09:35:28","block":8108333,"epoch":380,"slotNo":78839437,"epochSlotNo":42637,"stakeKey":"stake1u8shw7qpqnfphs5wwudatx3c2cz0nm4n32vpjxtcdsse9esf5gyms"},{"txId":56821101,"txHash":"d2932b7d52dcc1a40402ea111f71f604f9602959d0aefbca5bacd221f4fd3b8d","txTime":"2022/12/07 09:14:52","block":8108281,"epoch":380,"slotNo":78838201,"epochSlotNo":41401,"stakeKey":"stake1u8lugt5lwam7ftu8d82fmx7z24vumsx8fvmgll0cp4r3z6qaz30as"},{"txId":56821061,"txHash":"062c6609749d903299106d7344486000b29264f05ab9fd90bf02cf2d4bad028a","txTime":"2022/12/07 09:14:22","block":8108280,"epoch":380,"slotNo":78838171,"epochSlotNo":41371,"stakeKey":"stake1uyd0wrywfqq238w4at7mc9fqyh7vjq0wxmdpxcps94r895g94rwdq"},{"txId":56821050,"txHash":"76658d8c22d0ba0f41e038a3b4a16abd3c76dca8bf7b1b3708498ebd92884d8b","txTime":"2022/12/07 09:13:42","block":8108278,"epoch":380,"slotNo":78838131,"epochSlotNo":41331,"stakeKey":"stake1u936sazvkesslgcamgqfn6p0twumzwnd26xpmm87tz6u66ghrlnxq"},{"txId":56821035,"txHash":"4dcf71578a2a3b5bd7b9c6c6a4fed0d86bea17eda7dfe72f7f985bca492d7a5a","txTime":"2022/12/07 09:13:21","block":8108276,"epoch":380,"slotNo":78838110,"epochSlotNo":41310,"stakeKey":"stake1u9qdysf9h4pvchfqcaceakgfzwyr062gj62uvpd8py2my9cu26rgr"},{"txId":56820987,"txHash":"4157485b4ba5a559aafc6fcc885ab5783c24f4a963371e9b720dc99cf5052d7d","txTime":"2022/12/07 09:12:16","block":8108274,"epoch":380,"slotNo":78838045,"epochSlotNo":41245,"stakeKey":"stake1u8hzfx9g79p7z5vjr0zd4srxac3yplfnlfkhn70pz6xec3q8y7ypg"},{"txId":56820561,"txHash":"38fd1fe14c1ba31c03919394bb0f628c10f1f91f54272ed7f3029a0beb607189","txTime":"2022/12/07 09:00:31","block":8108239,"epoch":380,"slotNo":78837340,"epochSlotNo":40540,"stakeKey":"stake1u9g7edjedt6tuhjcdfpc97mpjcpfchd50dr5mv5jujtwr4gwh4avt"},{"txId":56820378,"txHash":"7343be90f9865427113f373c70d37501eb0ca7fa8d56878136cb4c5d548243ed","txTime":"2022/12/07 08:55:59","block":8108222,"epoch":380,"slotNo":78837068,"epochSlotNo":40268,"stakeKey":"stake1u9qndnlshektcps04669wxa5ey6gy3wv0r28g6e3wecdcdq3y44xu"},{"txId":56820301,"txHash":"a3faafaaed8411ae73efa99b50f751ee82bb2d9e00d007e3f8979b4ba6bbce3a","txTime":"2022/12/07 08:54:06","block":8108220,"epoch":380,"slotNo":78836955,"epochSlotNo":40155,"stakeKey":"stake1uyqz2yp56z2y7enfz7ag5n0j0d7xraqrtwar8k5ddz8ckrcxdwq5h"},{"txId":56820134,"txHash":"13b04e68dcb8162ef178f7456ebbe439f4137d854e2eefad15bafe37bf60c513","txTime":"2022/12/07 08:49:54","block":8108209,"epoch":380,"slotNo":78836703,"epochSlotNo":39903,"stakeKey":"stake1uxfquhwzkyt7atfzkh663mrr5nyr00dapejclxlhz7st88g6tf6qa"},{"txId":56819046,"txHash":"00854927b2859b4a690694d613ce3a489824dd0b662c5a7b216e78e5f69ad3a5","txTime":"2022/12/07 08:22:20","block":8108133,"epoch":380,"slotNo":78835049,"epochSlotNo":38249,"stakeKey":"stake1uyy8alq4tmd3taqq4kf0cvw7eesg6cdew043ut9g56n00kqt48s9s"}],"totalItems":335348,"totalPages":16768,"currentPage":0}