{"data":[{"hash":"9f123bcf277b9cb67380089830589490b19b205ab236b791d82801293401bffb","blockNo":8259030,"blockHash":"a4330afa3a9d31cd064fb14fafa57f8081eadbd7d64b8768df883cb3588fe88b","epochNo":387,"epochSlotNo":109370,"slot":81930170,"time":"2023/01/12 04:07:41","addressesInput":["addr1q9qv7k74xt56txnddrzvqwkpurvstcmyvzrzwfat9ppa95ggkdzlx5aadtcnzjsgy9efpppz6s704y3ykxddcqkfm20qrer7a2"],"addressesOutput":["addr1q9qv7k74xt56txnddrzvqwkpurvstcmyvzrzwfat9ppa95ggkdzlx5aadtcnzjsgy9efpppz6s704y3ykxddcqkfm20qrer7a2","addr1w9k9jjqmy0hmm3ytt6k57v094x78xcymyg8j2xgkxju5y3qxz4y0w","addr1qxsgae4x0z3q0hjjqcwya7vzp9f9ex52lrly0wadmfgvhpfyzttqmp0evfcrwxkda77m5lg8c9ta2aafdf83jxyvhw3sgp9v30"],"fee":321613,"totalOutput":17265143,"tokens":[]},{"hash":"c63ff2c368b9892fe32fb0717b2850a1cdb8071b03b411be2958f210c4811ffc","blockNo":8259030,"blockHash":"a4330afa3a9d31cd064fb14fafa57f8081eadbd7d64b8768df883cb3588fe88b","epochNo":387,"epochSlotNo":109370,"slot":81930170,"time":"2023/01/12 04:07:41","addressesInput":["addr1qyzlazpage4shn25l4rgqd2hz7pr9966jvx34qhlt7upuf7feqzunfuzdvas294dmd6d265aep7u87eg8ypwx4flq84q7y2j5x"],"addressesOutput":["addr1q9fcd8fwj3l5af4pg4unyvff7whprhvkdzkygu7efz88g82ns6wja9rlf6n2z3texgcjnuawz8wev69vg3eajjywwsws3acs0g","addr1qyzlazpage4shn25l4rgqd2hz7pr9966jvx34qhlt7upuf7feqzunfuzdvas294dmd6d265aep7u87eg8ypwx4flq84q7y2j5x"],"fee":169417,"totalOutput":4379472149,"tokens":[]},{"hash":"d88fdc038de1d6837572e19170dce96a23530b337476249e13ba4e5324910a5e","blockNo":8259030,"blockHash":"a4330afa3a9d31cd064fb14fafa57f8081eadbd7d64b8768df883cb3588fe88b","epochNo":387,"epochSlotNo":109370,"slot":81930170,"time":"2023/01/12 04:07:41","addressesInput":["addr1qyusasp6q87249lz67hv6mtjlc0w5slmefut62dw3z5gql86x4463yqfgw5luvxc5yyep2qjau28x3xe46vzxsnpuuaq88aln3","addr1q8j5zes3yp63xg3r8mgql59zz3tx0gegl995kvzc3q5wes06x4463yqfgw5luvxc5yyep2qjau28x3xe46vzxsnpuuaqwdlr4d"],"addressesOutput":["addr1zxgx3far7qygq0k6epa0zcvcvrevmn0ypsnfsue94nsn3tvpw288a4x0xf8pxgcntelxmyclq83s0ykeehchz2wtspks905plm","addr1q8j5zes3yp63xg3r8mgql59zz3tx0gegl995kvzc3q5wes06x4463yqfgw5luvxc5yyep2qjau28x3xe46vzxsnpuuaqwdlr4d","addr1q8j5zes3yp63xg3r8mgql59zz3tx0gegl995kvzc3q5wes06x4463yqfgw5luvxc5yyep2qjau28x3xe46vzxsnpuuaqwdlr4d","addr1q8j5zes3yp63xg3r8mgql59zz3tx0gegl995kvzc3q5wes06x4463yqfgw5luvxc5yyep2qjau28x3xe46vzxsnpuuaqwdlr4d","addr1q8j5zes3yp63xg3r8mgql59zz3tx0gegl995kvzc3q5wes06x4463yqfgw5luvxc5yyep2qjau28x3xe46vzxsnpuuaqwdlr4d","addr1q8j5zes3yp63xg3r8mgql59zz3tx0gegl995kvzc3q5wes06x4463yqfgw5luvxc5yyep2qjau28x3xe46vzxsnpuuaqwdlr4d"],"fee":253545,"totalOutput":1163564506,"tokens":[]},{"hash":"57d85b5a75a2e093f1082f137435b65b4098a580a7524f6f290f346385ae45c7","blockNo":8259030,"blockHash":"a4330afa3a9d31cd064fb14fafa57f8081eadbd7d64b8768df883cb3588fe88b","epochNo":387,"epochSlotNo":109370,"slot":81930170,"time":"2023/01/12 04:07:41","addressesInput":["addr1q926fh6suthl5m3yetuawq078z3yepsp7zlxrevlstqtpwda8u9936qrg4cqq3pq7e525h0pryynhssv7wu45j4zgplqnlz09j","addr1q926fh6suthl5m3yetuawq078z3yepsp7zlxrevlstqtpwda8u9936qrg4cqq3pq7e525h0pryynhssv7wu45j4zgplqnlz09j"],"addressesOutput":["addr1wxaptpmxcxawvr3pzlhgnpmzz3ql43n2tc8mn3av5kx0yzs09tqh8","addr1q926fh6suthl5m3yetuawq078z3yepsp7zlxrevlstqtpwda8u9936qrg4cqq3pq7e525h0pryynhssv7wu45j4zgplqnlz09j","addr1q926fh6suthl5m3yetuawq078z3yepsp7zlxrevlstqtpwda8u9936qrg4cqq3pq7e525h0pryynhssv7wu45j4zgplqnlz09j"],"fee":189613,"totalOutput":262516323,"tokens":[]},{"hash":"f734b727c1af587bb0410d5e752e540da09952763290b7f1364a7f425605ef98","blockNo":8259030,"blockHash":"a4330afa3a9d31cd064fb14fafa57f8081eadbd7d64b8768df883cb3588fe88b","epochNo":387,"epochSlotNo":109370,"slot":81930170,"time":"2023/01/12 04:07:41","addressesInput":["addr1w9jx45flh83z6wuqypyash54mszwmdj8r64fydafxtfc6jgrw4rm3","addr1w9jx45flh83z6wuqypyash54mszwmdj8r64fydafxtfc6jgrw4rm3","addr1w9jx45flh83z6wuqypyash54mszwmdj8r64fydafxtfc6jgrw4rm3","addr1w9jx45flh83z6wuqypyash54mszwmdj8r64fydafxtfc6jgrw4rm3","addr1vynz6z9jmu9t9ftj830kxr43dslacqnktpv3vcdhymzx2zsg4cuk6","addr1w9jx45flh83z6wuqypyash54mszwmdj8r64fydafxtfc6jgrw4rm3","addr1w9jx45flh83z6wuqypyash54mszwmdj8r64fydafxtfc6jgrw4rm3","addr1w82z6yrftsxz77el0ce2q4vuspcym2x0xgpgneurrwvasfge778fd","addr1w9jx45flh83z6wuqypyash54mszwmdj8r64fydafxtfc6jgrw4rm3"],"addressesOutput":["addr1w82z6yrftsxz77el0ce2q4vuspcym2x0xgpgneurrwvasfge778fd","addr1vynz6z9jmu9t9ftj830kxr43dslacqnktpv3vcdhymzx2zsg4cuk6"],"fee":1975993,"totalOutput":4111061049,"tokens":[]},{"hash":"e32a2ffccd599e1824221c8bee21737bf6488291b5122d656e0fc8188fa306d8","blockNo":8259030,"blockHash":"a4330afa3a9d31cd064fb14fafa57f8081eadbd7d64b8768df883cb3588fe88b","epochNo":387,"epochSlotNo":109370,"slot":81930170,"time":"2023/01/12 04:07:41","addressesInput":["addr1q844g98mhm7us6dtk4y6ry8xl38rfgpydl7f0f8xgpuwxzdmgk4ef9tzsclrnqu0pu45c0elt358zs7muvtasx4pnn6sz6p6me","addr1q844g98mhm7us6dtk4y6ry8xl38rfgpydl7f0f8xgpuwxzdmgk4ef9tzsclrnqu0pu45c0elt358zs7muvtasx4pnn6sz6p6me","addr1q844g98mhm7us6dtk4y6ry8xl38rfgpydl7f0f8xgpuwxzdmgk4ef9tzsclrnqu0pu45c0elt358zs7muvtasx4pnn6sz6p6me","addr1q844g98mhm7us6dtk4y6ry8xl38rfgpydl7f0f8xgpuwxzdmgk4ef9tzsclrnqu0pu45c0elt358zs7muvtasx4pnn6sz6p6me","addr1q9xxyz2mw7sltgs0m5z5anmqs740x7t90mhfwxkfvhgkscamgk4ef9tzsclrnqu0pu45c0elt358zs7muvtasx4pnn6s2e0n4h","addr1q9xxyz2mw7sltgs0m5z5anmqs740x7t90mhfwxkfvhgkscamgk4ef9tzsclrnqu0pu45c0elt358zs7muvtasx4pnn6s2e0n4h","addr1q844g98mhm7us6dtk4y6ry8xl38rfgpydl7f0f8xgpuwxzdmgk4ef9tzsclrnqu0pu45c0elt358zs7muvtasx4pnn6sz6p6me"],"addressesOutput":["addr1qyq6ahnwkuvqjxz45ws0t97s3xm42k675mpd8dd49n4nputy70r0jp9tkem4f6nhaxn7wtgrflw2jf0e8lxnnvgyal7q5vlp4u","addr1q8rp4umak2m3aglw92vhf95rtl6ha8dshvwmghefpadnuvamgk4ef9tzsclrnqu0pu45c0elt358zs7muvtasx4pnn6svkk268"],"fee":192517,"totalOutput":273296015,"tokens":[]},{"hash":"f071fe0605d05b0a91f38045c2016d9c7cafb0b2fd7526b459bf8357a65d6cb7","blockNo":8259030,"blockHash":"a4330afa3a9d31cd064fb14fafa57f8081eadbd7d64b8768df883cb3588fe88b","epochNo":387,"epochSlotNo":109370,"slot":81930170,"time":"2023/01/12 04:07:41","addressesInput":["addr1vyjcjxd32xg3tvy6wkxwssvwqft8a7z6l0h9g936hcdjaysxgfyjn","addr1vyjdya9lmyfmysdgej3qc6thwat33lwm3umk8uwnvhy9g3gzvd2jp","addr1vyjdya9lmyfmysdgej3qc6thwat33lwm3umk8uwnvhy9g3gzvd2jp"],"addressesOutput":["addr1q99f6lchqqtrve436ruwvnmqvv773u7lut3t5a45edff9r7cvjsas05vlxzq0hcsfk4zjx3chvesgaff28p5wevz388sha0z22","addr1qxk789up3s960s40sjc7cmgt24lkdf5chqcyju7nuzjmrvg5spgppqys6enafudmel90fzvff0tgj557adasm0phkhvqh2t5dn","addr1vyjcjxd32xg3tvy6wkxwssvwqft8a7z6l0h9g936hcdjaysxgfyjn"],"fee":198537,"totalOutput":266002598,"tokens":[]},{"hash":"8b19d0eecb661b3f3ffbeda7af78f859b3f0e928b39860573f6e9f425522ccab","blockNo":8259030,"blockHash":"a4330afa3a9d31cd064fb14fafa57f8081eadbd7d64b8768df883cb3588fe88b","epochNo":387,"epochSlotNo":109370,"slot":81930170,"time":"2023/01/12 04:07:41","addressesInput":["addr1qyvvkt4dlycpytcvfs5ykr0v80c095mjvjmykekgd63c622z5lv8jq5e8m73qydcq9er9tfhrk29m38zqjudws0kpv0qh00qnz"],"addressesOutput":["addr1q88u74lun8f3hgxaycf403u22r9mz7m9jkswdq402jdr6k2z5lv8jq5e8m73qydcq9er9tfhrk29m38zqjudws0kpv0qcamejd"],"fee":171749,"totalOutput":5087367829,"tokens":[]},{"hash":"09f882dd48f6199903c548adbaf2295b4b6c063501b3cf5f241d2111d1af5b38","blockNo":8259030,"blockHash":"a4330afa3a9d31cd064fb14fafa57f8081eadbd7d64b8768df883cb3588fe88b","epochNo":387,"epochSlotNo":109370,"slot":81930170,"time":"2023/01/12 04:07:41","addressesInput":["addr1vykhj0et562lk094flx8ppdrjq7dmqffkxv99l3wyjm5c3gf2hlpm","addr1wygyy4mdrh5kxsmm6ja4phxez3vh2mngz2muqmw4gw3n9jqdu67a0"],"addressesOutput":["addr1wygyy4mdrh5kxsmm6ja4phxez3vh2mngz2muqmw4gw3n9jqdu67a0","addr1vykhj0et562lk094flx8ppdrjq7dmqffkxv99l3wyjm5c3gf2hlpm"],"fee":445796,"totalOutput":912185659,"tokens":[]},{"hash":"18b56aa86df6b2fb6c12a3f54723a2c230c9077e4a95fa04f4f59683485a14f9","blockNo":8259030,"blockHash":"a4330afa3a9d31cd064fb14fafa57f8081eadbd7d64b8768df883cb3588fe88b","epochNo":387,"epochSlotNo":109370,"slot":81930170,"time":"2023/01/12 04:07:41","addressesInput":["addr1qyym07mzksy6vu4pmmqjgfthhgt4ufq7yeh50p0n409duqsfklak9dqf5ee2rhkpysjh0wshtcjpufn0g7zl8272mcpq0yxhap","addr1qyym07mzksy6vu4pmmqjgfthhgt4ufq7yeh50p0n409duqsfklak9dqf5ee2rhkpysjh0wshtcjpufn0g7zl8272mcpq0yxhap","addr1qyym07mzksy6vu4pmmqjgfthhgt4ufq7yeh50p0n409duqsfklak9dqf5ee2rhkpysjh0wshtcjpufn0g7zl8272mcpq0yxhap"],"addressesOutput":["addr1qyym07mzksy6vu4pmmqjgfthhgt4ufq7yeh50p0n409duqsfklak9dqf5ee2rhkpysjh0wshtcjpufn0g7zl8272mcpq0yxhap","addr1qyym07mzksy6vu4pmmqjgfthhgt4ufq7yeh50p0n409duqsfklak9dqf5ee2rhkpysjh0wshtcjpufn0g7zl8272mcpq0yxhap"],"fee":241544,"totalOutput":2328685885,"tokens":[]},{"hash":"c1c413415786defdc8c14e725db12a0919aff091dc4ef7871775f0c0ce0b46a8","blockNo":8259030,"blockHash":"a4330afa3a9d31cd064fb14fafa57f8081eadbd7d64b8768df883cb3588fe88b","epochNo":387,"epochSlotNo":109370,"slot":81930170,"time":"2023/01/12 04:07:41","addressesInput":["addr1q85luyn6tnguk79u8ah56jg6p5gwdkh5tru7d24ttg3plreueplc9yu2zhg9pxvflmaueqey22p5n2e6jycj0a0f5e0qhfm3mw"],"addressesOutput":["addr1q85luyn6tnguk79u8ah56jg6p5gwdkh5tru7d24ttg3plreueplc9yu2zhg9pxvflmaueqey22p5n2e6jycj0a0f5e0qhfm3mw"],"fee":397100,"totalOutput":139153137,"tokens":[]},{"hash":"0c7c97bdea552dd483b7d23fc167c79539cb973d87a83401d7de2101393b7f39","blockNo":8259030,"blockHash":"a4330afa3a9d31cd064fb14fafa57f8081eadbd7d64b8768df883cb3588fe88b","epochNo":387,"epochSlotNo":109370,"slot":81930170,"time":"2023/01/12 04:07:41","addressesInput":["addr1q8usq0gpxc9qaslsen0jlewfhvelatn9whx5rmfunhm2c27gdr5up3u9grd5fh60yp4ejvdwz6dljtekg7vdrfzfm8qq4hly78"],"addressesOutput":["addr1vyc7ca9flp5gfeapd78uxzzq7l6qnsytj85n62lr5smhgssen2u2s","addr1q8usq0gpxc9qaslsen0jlewfhvelatn9whx5rmfunhm2c27gdr5up3u9grd5fh60yp4ejvdwz6dljtekg7vdrfzfm8qq4hly78"],"fee":166821,"totalOutput":50503401,"tokens":[]},{"hash":"65f13ea133dba3c860b9f7d3a3560ced792c168c9b140a64cef16320ad58eed6","blockNo":8259030,"blockHash":"a4330afa3a9d31cd064fb14fafa57f8081eadbd7d64b8768df883cb3588fe88b","epochNo":387,"epochSlotNo":109370,"slot":81930170,"time":"2023/01/12 04:07:41","addressesInput":["addr1q8mtufyuq2qe8yw4r432wtm9kryup8fvdz4sec2nrlvug2dwcgapv2d370jgdr80xxugz0vj54y2zqesc3xrgpgaxmxswuhu57"],"addressesOutput":["addr1vyc7ca9flp5gfeapd78uxzzq7l6qnsytj85n62lr5smhgssen2u2s","addr1q8mtufyuq2qe8yw4r432wtm9kryup8fvdz4sec2nrlvug2dwcgapv2d370jgdr80xxugz0vj54y2zqesc3xrgpgaxmxswuhu57"],"fee":167085,"totalOutput":90081393,"tokens":[]},{"hash":"4888bf08e47d1b6afb6c93fddef20a62e53f1bc8d85aa0b388c64e5431714466","blockNo":8259030,"blockHash":"a4330afa3a9d31cd064fb14fafa57f8081eadbd7d64b8768df883cb3588fe88b","epochNo":387,"epochSlotNo":109370,"slot":81930170,"time":"2023/01/12 04:07:41","addressesInput":["addr1q9rj8nfglkwfhharwste0e4ep89quycnzda7a2acnwj5zvy2qw575hzvdyhtxtfdxrv9vydzsp8yada3xslgk5czl2ls82pelg"],"addressesOutput":["addr1qxk98e8tkwfe9nkaqk0q3jjrllq22dej8h0qj0hc8jytl4l5zky858gzea6fqznmsu2qvpxc5l9l5mdscu64wsfc46xqt69wga","addr1q9pwla37tcepvy3pyu87pngkjtw7vexclm7jggwnz0wll9v2qw575hzvdyhtxtfdxrv9vydzsp8yada3xslgk5czl2lsv82rcl"],"fee":201361,"totalOutput":1321608277,"tokens":[]},{"hash":"2bdde5044f2f7b128fd8bd6a60f2ee936dec91d8a88ecd4a510803e6a9aa0ea3","blockNo":8259029,"blockHash":"a45e1ed313b7ce953b85527d5eb387619b9069b75c87d817fa73312dc05d976f","epochNo":387,"epochSlotNo":109353,"slot":81930153,"time":"2023/01/12 04:07:24","addressesInput":["addr1q8h4kmagppcq6uqz4ku242fgh9tevyfuqzansj4vqampjn80tdh6szrsp4cq9tdc425j3w2hjcgncq9m8p92cpmkr9xqllz3d7","addr1q8h4kmagppcq6uqz4ku242fgh9tevyfuqzansj4vqampjn80tdh6szrsp4cq9tdc425j3w2hjcgncq9m8p92cpmkr9xqllz3d7"],"addressesOutput":["addr1q8h4kmagppcq6uqz4ku242fgh9tevyfuqzansj4vqampjn80tdh6szrsp4cq9tdc425j3w2hjcgncq9m8p92cpmkr9xqllz3d7","addr1q8h4kmagppcq6uqz4ku242fgh9tevyfuqzansj4vqampjn80tdh6szrsp4cq9tdc425j3w2hjcgncq9m8p92cpmkr9xqllz3d7"],"fee":233854,"totalOutput":66988732009,"tokens":[]},{"hash":"91f3a593bd7e50941b61cffd4d973459730987184341b199adbb355e9c6c863d","blockNo":8259029,"blockHash":"a45e1ed313b7ce953b85527d5eb387619b9069b75c87d817fa73312dc05d976f","epochNo":387,"epochSlotNo":109353,"slot":81930153,"time":"2023/01/12 04:07:24","addressesInput":["addr1v95sf69jcfhnmknvffwmfvlvnccatqwfjcyh0nlfc6gh5scta2yzg"],"addressesOutput":["addr1qx9d6kulznlp2wntjms2r7m5r9dmf6mtr9w464jew3yh98quwps8t8hun26zkr8fv7ej5v3skdlpfmlrlsfqggdm8gwsflunfe","addr1v95sf69jcfhnmknvffwmfvlvnccatqwfjcyh0nlfc6gh5scta2yzg"],"fee":171221,"totalOutput":252227552,"tokens":[]},{"hash":"7dee8ef83107be35bc998cc54c400b2d26534d01260becc80596f6ec5caf18f8","blockNo":8259029,"blockHash":"a45e1ed313b7ce953b85527d5eb387619b9069b75c87d817fa73312dc05d976f","epochNo":387,"epochSlotNo":109353,"slot":81930153,"time":"2023/01/12 04:07:24","addressesInput":["addr1v95sf69jcfhnmknvffwmfvlvnccatqwfjcyh0nlfc6gh5scta2yzg"],"addressesOutput":["addr1qy8jspf72p9fp3m2vndwau2vgu7enxuudqmulffqut5xgkhzvgwgyqdsz65thsx72ff94kh53mlm0tyqgrsempyamc7s0d8l6n","addr1v95sf69jcfhnmknvffwmfvlvnccatqwfjcyh0nlfc6gh5scta2yzg"],"fee":171221,"totalOutput":132616962,"tokens":[]},{"hash":"6a6426f9dc3365ac8dd33d5c5d8521377f93ac019de110e3d0c391927f1ee6a7","blockNo":8259029,"blockHash":"a45e1ed313b7ce953b85527d5eb387619b9069b75c87d817fa73312dc05d976f","epochNo":387,"epochSlotNo":109353,"slot":81930153,"time":"2023/01/12 04:07:24","addressesInput":["addr1q94036n4jykd2deegfw5z2ppc8dxzzdy2cmgrj0fpcpz80a9j7qfjrwm0mhcp229rmwr85uwhhvf47jjce972lntw0wsltdx4u","addr1zxgx3far7qygq0k6epa0zcvcvrevmn0ypsnfsue94nsn3tvpw288a4x0xf8pxgcntelxmyclq83s0ykeehchz2wtspks905plm"],"addressesOutput":["addr1q94036n4jykd2deegfw5z2ppc8dxzzdy2cmgrj0fpcpz80a9j7qfjrwm0mhcp229rmwr85uwhhvf47jjce972lntw0wsltdx4u","addr1q94036n4jykd2deegfw5z2ppc8dxzzdy2cmgrj0fpcpz80a9j7qfjrwm0mhcp229rmwr85uwhhvf47jjce972lntw0wsltdx4u"],"fee":263249,"totalOutput":122003891,"tokens":[]},{"hash":"a5d62510ec3f84869807ace1882a770e844be2ae9304fd60b17afb6b3011687e","blockNo":8259029,"blockHash":"a45e1ed313b7ce953b85527d5eb387619b9069b75c87d817fa73312dc05d976f","epochNo":387,"epochSlotNo":109353,"slot":81930153,"time":"2023/01/12 04:07:24","addressesInput":["addr1v95sf69jcfhnmknvffwmfvlvnccatqwfjcyh0nlfc6gh5scta2yzg"],"addressesOutput":["addr1qxk74k6ry6skx50pmmwhq3vm8y0p4rk7d4exxu4yr99vqrr0ncmjtk5y8cpw6j2nu52u99ewxnph7yqlk9pg3ftgmzjqu8g53s","addr1v95sf69jcfhnmknvffwmfvlvnccatqwfjcyh0nlfc6gh5scta2yzg"],"fee":171221,"totalOutput":1340058916,"tokens":[]},{"hash":"23cd123802e0f7fd87e6c3cb931c654698eacc61346b7051b5eb7c14cb475fda","blockNo":8259029,"blockHash":"a45e1ed313b7ce953b85527d5eb387619b9069b75c87d817fa73312dc05d976f","epochNo":387,"epochSlotNo":109353,"slot":81930153,"time":"2023/01/12 04:07:24","addressesInput":["addr1qxy9tglqgg9jagr8acytvlys3z0r52zqejmqn5uxpym4m5s6mxpf3cyt6gu9wn4jeca47wylk4tc6rn7wja3d20mtvyqnylh2n","addr1qyuwua5h3gew6hxctf9ell4kgfjzasvfk546qg0cy7hcrps6mxpf3cyt6gu9wn4jeca47wylk4tc6rn7wja3d20mtvyqzcqjcg"],"addressesOutput":["addr1zxgx3far7qygq0k6epa0zcvcvrevmn0ypsnfsue94nsn3tvpw288a4x0xf8pxgcntelxmyclq83s0ykeehchz2wtspks905plm","addr1qxy9tglqgg9jagr8acytvlys3z0r52zqejmqn5uxpym4m5s6mxpf3cyt6gu9wn4jeca47wylk4tc6rn7wja3d20mtvyqnylh2n"],"fee":227629,"totalOutput":126990290,"tokens":[]}],"totalItems":58797919,"totalPages":2939896,"currentPage":0}