{"data":[{"txId":59593526,"txHash":"4fd5abf227f48847556a75ee4021eff463edcdd08077950094ef5f3af992c829","txTime":"2023/01/13 13:44:33","block":8265020,"epoch":387,"slotNo":82051182,"epochSlotNo":230382,"stakeKey":"stake1u8akhm0us3gzf87h7glsyrcekrrr9fg92gaex6sssjwz0rcsfm42s"},{"txId":59593457,"txHash":"d05a8a1c650c4364ae8503f559d09edb5c0dfd7d334f5bc667d84efa4100f398","txTime":"2023/01/13 13:43:17","block":8265017,"epoch":387,"slotNo":82051106,"epochSlotNo":230306,"stakeKey":"stake1uyrswfh48gzd0rjyywh50k2lhtawguyaklucwpc8nsaxluqs726zq"},{"txId":59593273,"txHash":"79ad65d4b52ed9b9a863c42476bb5cf663a60be8d47eb887177407ddf0262a04","txTime":"2023/01/13 13:39:28","block":8265000,"epoch":387,"slotNo":82050877,"epochSlotNo":230077,"stakeKey":"stake1ux7896gu2hqha55qks5j7faeku9kwfl225l0xp3aqtx9tasjkgyre"},{"txId":59593030,"txHash":"cd6d7d5f0b53750a481648d552a9953e9535576b9fed39eed7d9dd2ef5955823","txTime":"2023/01/13 13:35:30","block":8264992,"epoch":387,"slotNo":82050639,"epochSlotNo":229839,"stakeKey":"stake1u8mr3j6eeykeddz937rhve9922k0nvfrzkfgd36v3sq8k4s7llsq5"},{"txId":59592883,"txHash":"f90fdef209ba74ced3cbc8e59f6b465380480738747d215f3b8c7c8d0c91bc00","txTime":"2023/01/13 13:33:15","block":8264984,"epoch":387,"slotNo":82050504,"epochSlotNo":229704,"stakeKey":"stake1ux75ul93gvlmhdwx7d64s2zkr2gmjsyhe6wn54f4nfvvhrsjjwpt7"},{"txId":59592690,"txHash":"ddef7dfca38dc0515f322dfda6690d2bc23d1bd28355d6821f737a4150495d29","txTime":"2023/01/13 13:28:50","block":8264975,"epoch":387,"slotNo":82050239,"epochSlotNo":229439,"stakeKey":"stake1uy2n52vsepy7dmfd8zw0g5kqt4x8480fymsurfdx3hwtylss4wlmg"},{"txId":59592562,"txHash":"35f2caa3737710ede909bb015e3281935baf6bee14164b79e41bed79cd15776e","txTime":"2023/01/13 13:26:29","block":8264965,"epoch":387,"slotNo":82050098,"epochSlotNo":229298,"stakeKey":"stake1uxrtzgrncfdjs00djnrrnurq4268e37dsmqwhaymksauegg6hqu68"},{"txId":59592484,"txHash":"ae83d2ebc8e6ce0fd19041e7020c676b7192473352925aaeef1fc9a0141a697d","txTime":"2023/01/13 13:24:03","block":8264960,"epoch":387,"slotNo":82049952,"epochSlotNo":229152,"stakeKey":"stake1u9h4327szxfaa3v79aj4esqjnkdwj74aul87tmjsf52e6cgxkvvwm"},{"txId":59592273,"txHash":"066c940c546ebae1517ad9708b69cc435e61b0562f91ef9058c9de34fa79377c","txTime":"2023/01/13 13:19:34","block":8264948,"epoch":387,"slotNo":82049683,"epochSlotNo":228883,"stakeKey":"stake1uylwlx88lpv4rfh572krd42qd8g0e9nhpqg7enpxc4chnxg4xjakk"},{"txId":59592267,"txHash":"27f876366fb4ce7b98c838f7c09cc06d66f0730b0fd76e083dc25d4c2fd05bf7","txTime":"2023/01/13 13:19:34","block":8264948,"epoch":387,"slotNo":82049683,"epochSlotNo":228883,"stakeKey":"stake1uxzqcknscmmypmep8vj7a3vj57y62792h760evl4dqenv6qm9al0a"},{"txId":59592238,"txHash":"de15d2cb3ae1cf63825679092db975a7b10e5cc08a625eac5c129af2731622cc","txTime":"2023/01/13 13:19:03","block":8264946,"epoch":387,"slotNo":82049652,"epochSlotNo":228852,"stakeKey":"stake1u9a4jtx4cmys23s4dtlzdwjee6pnegckzkuf52phfuzjdtcdjt2md"},{"txId":59592191,"txHash":"0086ce6117e5543c90b74ab999cf2d8024ebda99376f51e1e4db7c7ff2350581","txTime":"2023/01/13 13:18:17","block":8264945,"epoch":387,"slotNo":82049606,"epochSlotNo":228806,"stakeKey":"stake1u8myqm757vhjthdj8pcwfjc3q5ukgy8fem87yqvh45k0hdq6k63tf"},{"txId":59592146,"txHash":"e95f5d9ac0c35f1494ca60edfc632fc02395077ac869387fe6ded34abf6b9657","txTime":"2023/01/13 13:17:00","block":8264940,"epoch":387,"slotNo":82049529,"epochSlotNo":228729,"stakeKey":"stake1u8cwejyct68q6mw73mjq9ghx39tdmk7dnamust2qhshfxzs4224pl"},{"txId":59592000,"txHash":"5ee6d366d0b23e13da6861171a223741dc04236e900cd004841546dd4ab6ce26","txTime":"2023/01/13 13:13:47","block":8264920,"epoch":387,"slotNo":82049336,"epochSlotNo":228536,"stakeKey":"stake1u8nz0myfah99tx25ezs6jl02dc24sa2pr6vvgzzgx4ajc3qeuw3gq"},{"txId":59591980,"txHash":"909b9ac0ea80a27f831c7d531c68e5bced6df05b24b3391323dd6e8bf53e9bcb","txTime":"2023/01/13 13:13:16","block":8264918,"epoch":387,"slotNo":82049305,"epochSlotNo":228505,"stakeKey":"stake1uy30mdvwyej73wsgn3v0a3nut3tz3jqsg82e0ynzmm4tmhgzfs4m0"},{"txId":59591946,"txHash":"f684b73cca628ddc72062cec0de62aafa5f404046d0b227eb3adaff739247126","txTime":"2023/01/13 13:12:37","block":8264916,"epoch":387,"slotNo":82049266,"epochSlotNo":228466,"stakeKey":"stake1uy7zxu47vm62g2h6shl3j60uwsqevzyz8m76saedq252seccq67le"},{"txId":59591856,"txHash":"4db0a7195b64bd62d436d3f4e09c2f1d51428005ff46d074c950c33e2bc1d707","txTime":"2023/01/13 13:10:53","block":8264908,"epoch":387,"slotNo":82049162,"epochSlotNo":228362,"stakeKey":"stake1u8wfsyprxasnadln8cmkdxtrmsewr40qp9dq50w680grgqsk3knhe"},{"txId":59591638,"txHash":"eaa525b753719b0806d591176915f0e261d4dbd5538ba66f11e6b42ec8ecd46c","txTime":"2023/01/13 13:05:56","block":8264891,"epoch":387,"slotNo":82048865,"epochSlotNo":228065,"stakeKey":"stake1ux7uwshrs7f6zytpsf303z52ev09f8muyczqpj2d2l02ksqllstkv"},{"txId":59591356,"txHash":"fba69199044501d20c75c793656603a4bfad8bd328db88dd4cefbf84a13e7ee6","txTime":"2023/01/13 12:59:47","block":8264869,"epoch":387,"slotNo":82048496,"epochSlotNo":227696,"stakeKey":"stake1u9d4qr8fgxxyhzpz37r7wv8ne2rgy3gcah9rghurapmtpucz9yl8e"},{"txId":59591212,"txHash":"970803dd2e6e776d580441d9a276a0230a8c63ec84b017df1d6bf57a68c6962b","txTime":"2023/01/13 12:56:14","block":8264859,"epoch":387,"slotNo":82048283,"epochSlotNo":227483,"stakeKey":"stake1uye02j9xr6efquns0aevx6juet5teasap38wykmgghfnwlc4sn45v"}],"totalItems":1644706,"totalPages":82236,"currentPage":0}