{"data":[{"txId":30635048,"txHash":"2eadee395be9beefa5fb53621f822d5ff5ee4c934b96592208daaa322ad1a35f","txTime":"2022/02/09 09:02:43","block":6860395,"epoch":319,"slotNo":52831072,"epochSlotNo":386272,"stakeKey":"stake1u87kvdsrwv48g48cxwpmarxmax4z09nqrxefmvppu8h62ngda5yqv"},{"txId":30634871,"txHash":"f6e10bc1de2b4688733e0fe5ed7404148a04119abf27755865da59e1d9e8cade","txTime":"2022/02/09 08:59:33","block":6860387,"epoch":319,"slotNo":52830882,"epochSlotNo":386082,"stakeKey":"stake1uxc59s879s8jt7juzcdwxr9vje092vyuzuwv68vxxxsmjrqte3xl5"},{"txId":30634426,"txHash":"048b0bee96b077df65981b8114f7b2e86d3fd791b254633a5863c69e05dcfb26","txTime":"2022/02/09 08:55:12","block":6860368,"epoch":319,"slotNo":52830621,"epochSlotNo":385821,"stakeKey":"stake1u92g5ltlvf6fsf6laewmlusvqcpwd84ywklg8n3peuwnw0srzswqm"},{"txId":30634323,"txHash":"cba72a771e8e91e8ad6a98f37259a7e6fe43ed6fb3d8beb95c872c921288ddb5","txTime":"2022/02/09 08:52:13","block":6860363,"epoch":319,"slotNo":52830442,"epochSlotNo":385642,"stakeKey":"stake1u8tmvmvvrm5z9dqf99sq80a5zzzkl46t3mps57se8jlmctgr39fzf"},{"txId":30633301,"txHash":"ebbd40887d52ca2c0989e6d29eafce2986cd294908050503f223e9dcb1dc0547","txTime":"2022/02/09 08:37:12","block":6860324,"epoch":319,"slotNo":52829541,"epochSlotNo":384741,"stakeKey":"stake1ux88wkmmzrluwns33vy0m3m9jyk4r97axhgyuedvx98djhqaaszv5"},{"txId":30632893,"txHash":"fa0fab74bf9cae22a7ec6dd9002b8c9e20d174719ef9b411281b4c2cb8e68e7b","txTime":"2022/02/09 08:32:01","block":6860305,"epoch":319,"slotNo":52829230,"epochSlotNo":384430,"stakeKey":"stake1uy7h7ejqezy5g79s569krfvkgyljdr09p2kjvhzrqqtrpksenfn5g"},{"txId":30632886,"txHash":"b188d1c26a87a643679ab28c8834d4d9702c50e785b61f942f66b287c84f53b5","txTime":"2022/02/09 08:32:01","block":6860305,"epoch":319,"slotNo":52829230,"epochSlotNo":384430,"stakeKey":"stake1u96jadtlfn028qr8pwll9xdj0ead0tukqlgk5q340pxcjjq6yk2aa"},{"txId":30632877,"txHash":"1b596e9e52e7fae506effeb71171ecb237bbbb5f5122c55ccf29bae6264554e6","txTime":"2022/02/09 08:30:22","block":6860304,"epoch":319,"slotNo":52829131,"epochSlotNo":384331,"stakeKey":"stake1uyx00dq6nsvsqezvl3p8z4mj73gjv58m5j2zfc8ffs2z9tgza2sfz"},{"txId":30632874,"txHash":"8e99f819537ccda8e32538f522b3b0b1c91c16bdb9616f5157d0c34337c9871d","txTime":"2022/02/09 08:30:22","block":6860304,"epoch":319,"slotNo":52829131,"epochSlotNo":384331,"stakeKey":"stake1u8kqf8y55dxw6pfprf7wcnkwgxny5udxf25wa4z5g57e6jca55lwq"},{"txId":30632613,"txHash":"e1e2fc25808fe6d53f525a7a883cc0f933c3dacebf110ff387974a60389b72fd","txTime":"2022/02/09 08:27:02","block":6860293,"epoch":319,"slotNo":52828931,"epochSlotNo":384131,"stakeKey":"stake1u9h7pnnmvs42ltkcnsa82cjffvvvz4eeearslh0y3j6dxvqqw85u9"},{"txId":30632161,"txHash":"a276876951bf706b065ba7938e9cec925fe0a765727f8fd75d53973aadf1fcdf","txTime":"2022/02/09 08:20:31","block":6860272,"epoch":319,"slotNo":52828540,"epochSlotNo":383740,"stakeKey":"stake1u9uvkelzs0kqr0a0u6a88c3fxpqct7wv75vpddr873zr3xq4j6jxe"},{"txId":30631246,"txHash":"e23549857262785aa23bb257e3fb735092131793e1c239e367b0ca8735fc340e","txTime":"2022/02/09 08:08:15","block":6860234,"epoch":319,"slotNo":52827804,"epochSlotNo":383004,"stakeKey":"stake1uxgk6wfsry8ts0ye7kxtyzc2r8xfvkexuukgphl8f7gwhqswj6k8g"},{"txId":30631050,"txHash":"f1b194783d7ee3118d0d913017421ee0b5114895d4bc939eb42e49017c7387d4","txTime":"2022/02/09 08:05:16","block":6860222,"epoch":319,"slotNo":52827625,"epochSlotNo":382825,"stakeKey":"stake1uxret4lvq8ydcwhg8z4qslq3jgnr086zkzrc0pqwn9y8pkclt5yjs"},{"txId":30630951,"txHash":"2e48385aa437b056d6fbde5ebeeb5f1fa8dcefbfb2e65a20da36224be54f7b5f","txTime":"2022/02/09 08:02:54","block":6860218,"epoch":319,"slotNo":52827483,"epochSlotNo":382683,"stakeKey":"stake1uy45w9ezk3za4zn7pd623hdtd5z2htquua2pkatnm5m22hqfkvyjr"},{"txId":30630802,"txHash":"af8c0f5b9e7c00fed0e13e388fe73c68bd53f53a91df1f20bc8b64b84f23fce1","txTime":"2022/02/09 08:01:33","block":6860212,"epoch":319,"slotNo":52827402,"epochSlotNo":382602,"stakeKey":"stake1u8jz8anx8ej3tsqq8c8nc5e459xwx446cyed4hsrchppw0g6rjccf"},{"txId":30630787,"txHash":"b9ec95c9ecd4735026912deb06ade2062606932a45ae7bbbfea98099652ad368","txTime":"2022/02/09 08:00:40","block":6860211,"epoch":319,"slotNo":52827349,"epochSlotNo":382549,"stakeKey":"stake1uxswzeedx69eau9gddk24ars05jmjwfcsp45rm4vxupwdpqjur0yc"},{"txId":30630776,"txHash":"67f5301d3f1a0ccc150228f5e1f99fa2ae242f74420a594ae27fd7c9198ba3d8","txTime":"2022/02/09 08:00:40","block":6860211,"epoch":319,"slotNo":52827349,"epochSlotNo":382549,"stakeKey":"stake1uyrxend6fq5en4yr6je9z037lz9r2nxfszdk8n628qsffrqkhr2e9"},{"txId":30630499,"txHash":"d5581356bca2ed07cb097e990d6fc763d67142733d3a6b01e693395360676893","txTime":"2022/02/09 07:56:21","block":6860199,"epoch":319,"slotNo":52827090,"epochSlotNo":382290,"stakeKey":"stake1uxvv5au47t8gmw2gtfqw60vavzpmgjfaqge5mqzm0gy7m2s3wunal"},{"txId":30630426,"txHash":"184adf26856a0a59383cc1730dae2ea1d694ede683724cae8f56a1b403b934b1","txTime":"2022/02/09 07:56:00","block":6860196,"epoch":319,"slotNo":52827069,"epochSlotNo":382269,"stakeKey":"stake1u9zmenjplhxvzalh899cfq7q4f40xrqcz0zcvaeufxun3zqgz3erv"},{"txId":30630168,"txHash":"28d8a844aa298678443e6eac34a0b870d88bf9dd6dd7783d81a9aa34953f48de","txTime":"2022/02/09 07:51:08","block":6860184,"epoch":319,"slotNo":52826777,"epochSlotNo":381977,"stakeKey":"stake1uye2wmftj3yh7pz5j9clggvuc7k2ux5zpuscz7s66sxfrfqy0lpty"}],"totalItems":215831,"totalPages":10792,"currentPage":0}