{"data":[{"hash":"e9fc82f5ffd438a98b46085945f90606e08c85b6ddbe854de57f6c95e608c5ea","blockNo":8058353,"blockHash":"8740734fe0b33d1a1386dc59014f55b6fa5de5ff7d7b45b23d7d23c032ecdf77","epochNo":377,"epochSlotNo":308309,"slot":77809109,"time":"2022/11/25 11:23:20","addressesInput":["addr1qy9s85u3536x4nc5098ya2jnrdnuyhtf40kc2yksane42d9urulkk9cnhvgtzdpeeru5xz8hgj330pps3j7uwsewfn2qsppvrm"],"addressesOutput":["addr1zxgx3far7qygq0k6epa0zcvcvrevmn0ypsnfsue94nsn3tvpw288a4x0xf8pxgcntelxmyclq83s0ykeehchz2wtspks905plm","addr1qy9s85u3536x4nc5098ya2jnrdnuyhtf40kc2yksane42d9urulkk9cnhvgtzdpeeru5xz8hgj330pps3j7uwsewfn2qsppvrm"],"fee":212185,"totalOutput":183397329,"tokens":[]},{"hash":"0e80018831621de3ce8d316239d433e7eee350ee7d3e1b8314cc0bf68cb53e1b","blockNo":8058353,"blockHash":"8740734fe0b33d1a1386dc59014f55b6fa5de5ff7d7b45b23d7d23c032ecdf77","epochNo":377,"epochSlotNo":308309,"slot":77809109,"time":"2022/11/25 11:23:20","addressesInput":["addr1qypfyegzdsm6mq0ws0wmkjy2pwq0pa4kupfrz8w3q7rxwkwmdp67t6hns5ehd23cyl3374agmhrzwvvvzs5w0a2ujg9sxfhps6"],"addressesOutput":["addr1qxjsshty05ha4kuw9xl58gfm7n8f4zzda2j7yf350ekyz0wxzxvje3wk4pqdysjysh3w4axh68fmep25szqjqm9lt24s20nvc2","addr1qydvyz29y7sk4jagx6zugef0ty9tejdrfkqh6g9p3x50x0kmdp67t6hns5ehd23cyl3374agmhrzwvvvzs5w0a2ujg9s578th6"],"fee":171001,"totalOutput":14828999,"tokens":[]},{"hash":"eb0af52cdfbce88db46648aab09cabd2466289fa21a4bcc920c938d3c0e1cb89","blockNo":8058353,"blockHash":"8740734fe0b33d1a1386dc59014f55b6fa5de5ff7d7b45b23d7d23c032ecdf77","epochNo":377,"epochSlotNo":308309,"slot":77809109,"time":"2022/11/25 11:23:20","addressesInput":["addr1qxphv9jvs7qgrvg7dm4hktjnkw9sm4muveyzuga47u2na6pphfnq55nzf5vgcz7uwy6wrdck0rd7cuv8ajfh8kzp7j4smdxfl2","addr1qxphv9jvs7qgrvg7dm4hktjnkw9sm4muveyzuga47u2na6pphfnq55nzf5vgcz7uwy6wrdck0rd7cuv8ajfh8kzp7j4smdxfl2","addr1qxphv9jvs7qgrvg7dm4hktjnkw9sm4muveyzuga47u2na6pphfnq55nzf5vgcz7uwy6wrdck0rd7cuv8ajfh8kzp7j4smdxfl2","addr1qxphv9jvs7qgrvg7dm4hktjnkw9sm4muveyzuga47u2na6pphfnq55nzf5vgcz7uwy6wrdck0rd7cuv8ajfh8kzp7j4smdxfl2","addr1qxphv9jvs7qgrvg7dm4hktjnkw9sm4muveyzuga47u2na6pphfnq55nzf5vgcz7uwy6wrdck0rd7cuv8ajfh8kzp7j4smdxfl2"],"addressesOutput":["addr1q8kuxspxhwzm7ltk6m9ncmczasq6f2td9j9q42xfwvfg7ugp3mtle7vz39s9yapugchufnsmkg3djzupz8w39qu3dm8s0gx5yk","addr1qxphv9jvs7qgrvg7dm4hktjnkw9sm4muveyzuga47u2na6pphfnq55nzf5vgcz7uwy6wrdck0rd7cuv8ajfh8kzp7j4smdxfl2","addr1qxphv9jvs7qgrvg7dm4hktjnkw9sm4muveyzuga47u2na6pphfnq55nzf5vgcz7uwy6wrdck0rd7cuv8ajfh8kzp7j4smdxfl2"],"fee":181385,"totalOutput":54721726,"tokens":[]},{"hash":"66e6f74b50cc2fdf749d1322c3a45eb5cf5f4fdcacebfc80ea311c2aa4cf1f43","blockNo":8058353,"blockHash":"8740734fe0b33d1a1386dc59014f55b6fa5de5ff7d7b45b23d7d23c032ecdf77","epochNo":377,"epochSlotNo":308309,"slot":77809109,"time":"2022/11/25 11:23:20","addressesInput":["addr1q9xqzpvjsg84fzqdhvyuw77kgdqftqjfqn7z3d8l63jppl6vqyze9qs02jyqmwcfcaaavs6qjkpyjp8u9z60l4ryzrlsemc3he","addr1q9xqzpvjsg84fzqdhvyuw77kgdqftqjfqn7z3d8l63jppl6vqyze9qs02jyqmwcfcaaavs6qjkpyjp8u9z60l4ryzrlsemc3he"],"addressesOutput":["addr1q9xqzpvjsg84fzqdhvyuw77kgdqftqjfqn7z3d8l63jppl6vqyze9qs02jyqmwcfcaaavs6qjkpyjp8u9z60l4ryzrlsemc3he","addr1q9xqzpvjsg84fzqdhvyuw77kgdqftqjfqn7z3d8l63jppl6vqyze9qs02jyqmwcfcaaavs6qjkpyjp8u9z60l4ryzrlsemc3he"],"fee":233854,"totalOutput":145454263,"tokens":[]},{"hash":"13a69d8577d5ce8395110a8c948546d0cbde1b577c42d85927f560435612eea4","blockNo":8058353,"blockHash":"8740734fe0b33d1a1386dc59014f55b6fa5de5ff7d7b45b23d7d23c032ecdf77","epochNo":377,"epochSlotNo":308309,"slot":77809109,"time":"2022/11/25 11:23:20","addressesInput":["addr1q9hrkg9c2fndfmd84w4urzx2whl22cjhmu6ahxve759wujmjme762nepga8k7jtq7f4573vzyj9cg9hmlan24xcpk9vqs4eph5","addr1q9hrkg9c2fndfmd84w4urzx2whl22cjhmu6ahxve759wujmjme762nepga8k7jtq7f4573vzyj9cg9hmlan24xcpk9vqs4eph5"],"addressesOutput":["addr1wxn9efv2f6w82hagxqtn62ju4m293tqvw0uhmdl64ch8uwc0h43gt","addr1q9hrkg9c2fndfmd84w4urzx2whl22cjhmu6ahxve759wujmjme762nepga8k7jtq7f4573vzyj9cg9hmlan24xcpk9vqs4eph5","addr1q9hrkg9c2fndfmd84w4urzx2whl22cjhmu6ahxve759wujmjme762nepga8k7jtq7f4573vzyj9cg9hmlan24xcpk9vqs4eph5"],"fee":188293,"totalOutput":305879832,"tokens":[]},{"hash":"d20b674c55401a411b875f7bbf5333a342b38a2042c5771aaa307596ff7ad140","blockNo":8058353,"blockHash":"8740734fe0b33d1a1386dc59014f55b6fa5de5ff7d7b45b23d7d23c032ecdf77","epochNo":377,"epochSlotNo":308309,"slot":77809109,"time":"2022/11/25 11:23:20","addressesInput":["addr1qynkhwy5t5szwzg4p4ml9e7yesz6z3u84p3hpryqwnnqlfmnk3y8k82sznfzqle70la40yn3yknn20y8cur6rkgzuucqv53efx","addr1qynkhwy5t5szwzg4p4ml9e7yesz6z3u84p3hpryqwnnqlfmnk3y8k82sznfzqle70la40yn3yknn20y8cur6rkgzuucqv53efx","addr1qynkhwy5t5szwzg4p4ml9e7yesz6z3u84p3hpryqwnnqlfmnk3y8k82sznfzqle70la40yn3yknn20y8cur6rkgzuucqv53efx"],"addressesOutput":["addr1wxn9efv2f6w82hagxqtn62ju4m293tqvw0uhmdl64ch8uwc0h43gt","addr1qynkhwy5t5szwzg4p4ml9e7yesz6z3u84p3hpryqwnnqlfmnk3y8k82sznfzqle70la40yn3yknn20y8cur6rkgzuucqv53efx","addr1qynkhwy5t5szwzg4p4ml9e7yesz6z3u84p3hpryqwnnqlfmnk3y8k82sznfzqle70la40yn3yknn20y8cur6rkgzuucqv53efx"],"fee":204793,"totalOutput":75928632,"tokens":[]},{"hash":"1cdb662457a836c475d22816ebaf7b8d861617ea5ff934b5974366eb352a88ca","blockNo":8058353,"blockHash":"8740734fe0b33d1a1386dc59014f55b6fa5de5ff7d7b45b23d7d23c032ecdf77","epochNo":377,"epochSlotNo":308309,"slot":77809109,"time":"2022/11/25 11:23:20","addressesInput":["addr1zxgx3far7qygq0k6epa0zcvcvrevmn0ypsnfsue94nsn3tvpw288a4x0xf8pxgcntelxmyclq83s0ykeehchz2wtspks905plm","addr1zxgx3far7qygq0k6epa0zcvcvrevmn0ypsnfsue94nsn3tvpw288a4x0xf8pxgcntelxmyclq83s0ykeehchz2wtspks905plm"],"addressesOutput":["addr1q9j66fc9y63dwsyt0cs4uf6ce7p0y8sqhs96ghw7px9y7ck9r05j43l0v4zk3yycjv5vqy8z2k2y6ndswu5uvneuafcsnwqfsc","addr1q9cwvremt6n320s2e3agq0jyq82yhrk3htsu0w426xnz5us70z4w0jgvcdkkynmm8wmds66jd9kusnjfpu6raw5fqp0sr07p5w","addr1q90efl6rvt8mr68awmxk68rd9p4equhulwutvd4unlk9sg8m98p2fm29zq8jul62ee27xwykhqsqarf4cxjx0q74t0mshyct30","addr1q9j66fc9y63dwsyt0cs4uf6ce7p0y8sqhs96ghw7px9y7ck9r05j43l0v4zk3yycjv5vqy8z2k2y6ndswu5uvneuafcsnwqfsc"],"fee":419830,"totalOutput":120899030,"tokens":[]},{"hash":"669d0eb67aa78030edcf4fe69e62c7d1e983441f5c423e851df4f2145e5fbb56","blockNo":8058353,"blockHash":"8740734fe0b33d1a1386dc59014f55b6fa5de5ff7d7b45b23d7d23c032ecdf77","epochNo":377,"epochSlotNo":308309,"slot":77809109,"time":"2022/11/25 11:23:20","addressesInput":["addr1zxgx3far7qygq0k6epa0zcvcvrevmn0ypsnfsue94nsn3tvpw288a4x0xf8pxgcntelxmyclq83s0ykeehchz2wtspks905plm","addr1qx76hnwx8qukkylx5te0em5gf7kgjqadv6x8z406mpyxz6nn3lmaa3wnh8ka8wxllq5f9kpp6spcwum5vvas6xgvuedsh0rgkp"],"addressesOutput":["addr1qx76hnwx8qukkylx5te0em5gf7kgjqadv6x8z406mpyxz6nn3lmaa3wnh8ka8wxllq5f9kpp6spcwum5vvas6xgvuedsh0rgkp","addr1qx76hnwx8qukkylx5te0em5gf7kgjqadv6x8z406mpyxz6nn3lmaa3wnh8ka8wxllq5f9kpp6spcwum5vvas6xgvuedsh0rgkp"],"fee":263896,"totalOutput":53978114,"tokens":[]},{"hash":"59c22055860d1359d6fcd70776ca8fa1e92ad2681a06c45f0828553d63c0b257","blockNo":8058353,"blockHash":"8740734fe0b33d1a1386dc59014f55b6fa5de5ff7d7b45b23d7d23c032ecdf77","epochNo":377,"epochSlotNo":308309,"slot":77809109,"time":"2022/11/25 11:23:20","addressesInput":["addr1qy7y8ykezcdgyccvjn0ffjr0whxcue7pl55phz3pntrfx59avdtlge6mzwcxgkc8ymyw7vlljphxedv3pxw4y85l758s7hzqm7"],"addressesOutput":["addr1v9nudmgn6lqefaedktxg0rrlqsjdxma2uw9my66vcnp8lngkzrt8k","addr1q8xkjtqvfdp5tn4q2vakjwz8a3qm8krdr9mla4ghnss5vl4avdtlge6mzwcxgkc8ymyw7vlljphxedv3pxw4y85l758sgfvt8t"],"fee":166821,"totalOutput":462661133,"tokens":[]},{"hash":"300ca5490183f34cb1a7b1ffc46d8c473da830fecd55617760e9a8f2ca91a4a4","blockNo":8058353,"blockHash":"8740734fe0b33d1a1386dc59014f55b6fa5de5ff7d7b45b23d7d23c032ecdf77","epochNo":377,"epochSlotNo":308309,"slot":77809109,"time":"2022/11/25 11:23:20","addressesInput":["DdzFFzCqrhszkMma1YBJv5zWRMd1MFGPQES6sBWHJpgbh65bVQDkxBfvR7zs2uEtX6AnB5Bi1HRmwKewsZ1qZS6YaSGJq1cTgWqzTzE5","DdzFFzCqrhtBqxd4e7seoLZR74qE44oj7rEbPTPRqgdcrR58UBAMeyjfo5JAh4Cgoat6dVC8a6NZ5B3cuFvYFLYtTxNT5VCXv5aJuwUm","DdzFFzCqrhsgSKppx2ZzddDhLbQ5ywtT2xofa6mSxvdKcMxjL3FMTb4sjiWxGkx9Cz62CMVa8eqy42jMi1gx4TU8EdSW7HYRjCLp6Jf7"],"addressesOutput":["DdzFFzCqrhsnSQWGEkeso3Akrzj1iJxMb21hZBXmSkuDe7PLc6QYSH5g7NuSL23ePu3T8yHdwBqw92B9zcziBRp6PdFwjwnXuj78C32P","DdzFFzCqrht59xnoimdecjZVdd7vBFA1sttzsjfmvxYjZENxERdFVQxVJ7JycUjBbo9uq3UFicZMfLGiabvgz3nQjXgdo8k6yD3jzMqf"],"fee":391265,"totalOutput":8105130048,"tokens":[]},{"hash":"90d58557e3df9822c54e9aef43b9c0186f66d81df6a9ba232ebd869067a10df6","blockNo":8058353,"blockHash":"8740734fe0b33d1a1386dc59014f55b6fa5de5ff7d7b45b23d7d23c032ecdf77","epochNo":377,"epochSlotNo":308309,"slot":77809109,"time":"2022/11/25 11:23:20","addressesInput":["addr1qy9s85u3536x4nc5098ya2jnrdnuyhtf40kc2yksane42d9urulkk9cnhvgtzdpeeru5xz8hgj330pps3j7uwsewfn2qsppvrm"],"addressesOutput":["addr1zxgx3far7qygq0k6epa0zcvcvrevmn0ypsnfsue94nsn3tvpw288a4x0xf8pxgcntelxmyclq83s0ykeehchz2wtspks905plm","addr1qy9s85u3536x4nc5098ya2jnrdnuyhtf40kc2yksane42d9urulkk9cnhvgtzdpeeru5xz8hgj330pps3j7uwsewfn2qsppvrm"],"fee":212185,"totalOutput":182982524,"tokens":[]},{"hash":"be4d222281100840015caabe258e0358591852849875c8cdc8b51e254fe55f3f","blockNo":8058353,"blockHash":"8740734fe0b33d1a1386dc59014f55b6fa5de5ff7d7b45b23d7d23c032ecdf77","epochNo":377,"epochSlotNo":308309,"slot":77809109,"time":"2022/11/25 11:23:20","addressesInput":["addr1qynhfdf8e3nprrhtwuk224fs38wzl8g2vaw46jasv9d054kl9gg2vm7hpz9mx7y962h00jdhnk4emh77ld6ckdk46f4qvl55jl","addr1qynhfdf8e3nprrhtwuk224fs38wzl8g2vaw46jasv9d054kl9gg2vm7hpz9mx7y962h00jdhnk4emh77ld6ckdk46f4qvl55jl"],"addressesOutput":["addr1wxn9efv2f6w82hagxqtn62ju4m293tqvw0uhmdl64ch8uwc0h43gt","addr1qynhfdf8e3nprrhtwuk224fs38wzl8g2vaw46jasv9d054kl9gg2vm7hpz9mx7y962h00jdhnk4emh77ld6ckdk46f4qvl55jl","addr1qynhfdf8e3nprrhtwuk224fs38wzl8g2vaw46jasv9d054kl9gg2vm7hpz9mx7y962h00jdhnk4emh77ld6ckdk46f4qvl55jl"],"fee":219841,"totalOutput":195211332,"tokens":[]},{"hash":"81a1bc459cde11d6e6f1413856e3f8ba5bd44cdd03e00210e29d8f4ec980275b","blockNo":8058353,"blockHash":"8740734fe0b33d1a1386dc59014f55b6fa5de5ff7d7b45b23d7d23c032ecdf77","epochNo":377,"epochSlotNo":308309,"slot":77809109,"time":"2022/11/25 11:23:20","addressesInput":["addr1q9r5yglfccxqks3paqnkc0wdnfa2qn7vcwvacp7vumg02hy64k9qgf44mcujrxs3d833lvg6y98vgasnqrumuv53vf7q97s7ek"],"addressesOutput":["addr1zxgx3far7qygq0k6epa0zcvcvrevmn0ypsnfsue94nsn3tvpw288a4x0xf8pxgcntelxmyclq83s0ykeehchz2wtspks905plm","addr1q9r5yglfccxqks3paqnkc0wdnfa2qn7vcwvacp7vumg02hy64k9qgf44mcujrxs3d833lvg6y98vgasnqrumuv53vf7q97s7ek"],"fee":319061,"totalOutput":13581292,"tokens":[]},{"hash":"689b3688d5e79fb6bc5ece7ec1e738905c3c81a6a59eb6f2a45c555443414890","blockNo":8058353,"blockHash":"8740734fe0b33d1a1386dc59014f55b6fa5de5ff7d7b45b23d7d23c032ecdf77","epochNo":377,"epochSlotNo":308309,"slot":77809109,"time":"2022/11/25 11:23:20","addressesInput":["addr1qyht4ja0zcn45qvyx477qlyp6j5ftu5ng0prt9608dxp6l2j2c79gy9l76sdg0xwhd7r0c0kna0tycz4y5s6mlenh8pq4jxtdy","addr1z8snz7c4974vzdpxu65ruphl3zjdvtxw8strf2c2tmqnxz2j2c79gy9l76sdg0xwhd7r0c0kna0tycz4y5s6mlenh8pq0xmsha","addr1wxn9efv2f6w82hagxqtn62ju4m293tqvw0uhmdl64ch8uwc0h43gt","addr1qyht4ja0zcn45qvyx477qlyp6j5ftu5ng0prt9608dxp6l2j2c79gy9l76sdg0xwhd7r0c0kna0tycz4y5s6mlenh8pq4jxtdy"],"addressesOutput":["addr1qyht4ja0zcn45qvyx477qlyp6j5ftu5ng0prt9608dxp6l2j2c79gy9l76sdg0xwhd7r0c0kna0tycz4y5s6mlenh8pq4jxtdy","addr1qyht4ja0zcn45qvyx477qlyp6j5ftu5ng0prt9608dxp6l2j2c79gy9l76sdg0xwhd7r0c0kna0tycz4y5s6mlenh8pq4jxtdy","addr1qye3vdjjuar62jckdqphrdaksykn2ksa6yy8ywdl4ata9uc7uxvt5v436747w4xv8qr4guwh5v3tw2mzfe372cgfl68qnv6wal","addr1z8snz7c4974vzdpxu65ruphl3zjdvtxw8strf2c2tmqnxz2j2c79gy9l76sdg0xwhd7r0c0kna0tycz4y5s6mlenh8pq0xmsha"],"fee":883165,"totalOutput":31165936488,"tokens":[]},{"hash":"3c390dc956edd9a09b0e383dd6bd639b0de0e176f3d4c1fbe8053e76c0bca47a","blockNo":8058353,"blockHash":"8740734fe0b33d1a1386dc59014f55b6fa5de5ff7d7b45b23d7d23c032ecdf77","epochNo":377,"epochSlotNo":308309,"slot":77809109,"time":"2022/11/25 11:23:20","addressesInput":["addr1qyht4ja0zcn45qvyx477qlyp6j5ftu5ng0prt9608dxp6l2j2c79gy9l76sdg0xwhd7r0c0kna0tycz4y5s6mlenh8pq4jxtdy","addr1qyht4ja0zcn45qvyx477qlyp6j5ftu5ng0prt9608dxp6l2j2c79gy9l76sdg0xwhd7r0c0kna0tycz4y5s6mlenh8pq4jxtdy","addr1wxn9efv2f6w82hagxqtn62ju4m293tqvw0uhmdl64ch8uwc0h43gt","addr1z8snz7c4974vzdpxu65ruphl3zjdvtxw8strf2c2tmqnxz2j2c79gy9l76sdg0xwhd7r0c0kna0tycz4y5s6mlenh8pq0xmsha"],"addressesOutput":["addr1qyht4ja0zcn45qvyx477qlyp6j5ftu5ng0prt9608dxp6l2j2c79gy9l76sdg0xwhd7r0c0kna0tycz4y5s6mlenh8pq4jxtdy","addr1qyht4ja0zcn45qvyx477qlyp6j5ftu5ng0prt9608dxp6l2j2c79gy9l76sdg0xwhd7r0c0kna0tycz4y5s6mlenh8pq4jxtdy","addr1q89xy57kprtf7z2chchyr2q4w96v5f8s2trpttae48tccjne0xn2njs4y37n8ta08nutazplwyygpzyn6am3m966s20qke64wd","addr1z8snz7c4974vzdpxu65ruphl3zjdvtxw8strf2c2tmqnxz2j2c79gy9l76sdg0xwhd7r0c0kna0tycz4y5s6mlenh8pq0xmsha"],"fee":810891,"totalOutput":756784865949,"tokens":[]},{"hash":"6f9dce5159d1dcb6bae49642215885f0ba8572fbf177690cacd5652faa39d711","blockNo":8058353,"blockHash":"8740734fe0b33d1a1386dc59014f55b6fa5de5ff7d7b45b23d7d23c032ecdf77","epochNo":377,"epochSlotNo":308309,"slot":77809109,"time":"2022/11/25 11:23:20","addressesInput":["addr1qyfsrklfmuns50use4sru9n7j7rru4pq2vuqzgw9nz2njn53ka9kndg5hfrx47l5fkxd0rfv0c3rzw0gnaw9pxpywnfqaxkfpl"],"addressesOutput":["addr1qyhxutjyqx5za0d48nnjz0kyjxs2n24q3a66hj30ah63kg9y9g9xhlf52vus4xcdmfgv0heffwhxardadttc7wq2xdfsrdznjs","addr1q90z4j34te9rkjgvctsqn7qvk4hf6cnyfey5qsqjtwhu09y3ka9kndg5hfrx47l5fkxd0rfv0c3rzw0gnaw9pxpywnfqr65xre"],"fee":168317,"totalOutput":331214514,"tokens":[]},{"hash":"66d2a5ccf817654a7d0d93434b36f2072c46cc66fd125fa560240487b1a40a6c","blockNo":8058353,"blockHash":"8740734fe0b33d1a1386dc59014f55b6fa5de5ff7d7b45b23d7d23c032ecdf77","epochNo":377,"epochSlotNo":308309,"slot":77809109,"time":"2022/11/25 11:23:20","addressesInput":["addr1zyq0kyrml023kwjk8zr86d5gaxrt5w8lxnah8r6m6s4jp4g3r6dxnzml343sx8jweqn4vn3fz2kj8kgu9czghx0jrsyqqktyhv"],"addressesOutput":["addr1q8wptstsprk8hgulf3jsfrknfh0zepaag73w7jd2v9trwclr27t4sy2lcajjvsjdc88wy9vz8dnc4g5l8ytrx8h7kddscafy7c"],"fee":525011,"totalOutput":1267756990,"tokens":[]},{"hash":"da711813c06a0489d2fa66f73f4590cbdf910e88dff1640b5b4c35731a917792","blockNo":8058353,"blockHash":"8740734fe0b33d1a1386dc59014f55b6fa5de5ff7d7b45b23d7d23c032ecdf77","epochNo":377,"epochSlotNo":308309,"slot":77809109,"time":"2022/11/25 11:23:20","addressesInput":["addr1v9u7va2sktlnz8dp3qadpnxxlv4m03672jy6elmntlxxs7q9nnwl9"],"addressesOutput":["addr1qxmxnjrauqakqqumdxntxu5n0g3956prveej4jum4eqrhn56zlvqg3snht9nalc4lanxqv7demm3nx5v8vva64vtnd5ql2f6a8","addr1v95sf69jcfhnmknvffwmfvlvnccatqwfjcyh0nlfc6gh5scta2yzg"],"fee":171221,"totalOutput":23186940,"tokens":[]},{"hash":"7ee6bfa2ef7d7681c1bec9321a6f20640a5a60030e1c303a1472208409df32cf","blockNo":8058353,"blockHash":"8740734fe0b33d1a1386dc59014f55b6fa5de5ff7d7b45b23d7d23c032ecdf77","epochNo":377,"epochSlotNo":308309,"slot":77809109,"time":"2022/11/25 11:23:20","addressesInput":["addr1q99tdejlsuzhyyw8gj7q5ttx0ws8r60p8j9prvp4qernj9lzxvnkt93lkez0p8l03h0dp72kk5y9h68eavcx9y0fa4as4j594f","addr1q99tdejlsuzhyyw8gj7q5ttx0ws8r60p8j9prvp4qernj9lzxvnkt93lkez0p8l03h0dp72kk5y9h68eavcx9y0fa4as4j594f"],"addressesOutput":["addr1wxaptpmxcxawvr3pzlhgnpmzz3ql43n2tc8mn3av5kx0yzs09tqh8","addr1q99tdejlsuzhyyw8gj7q5ttx0ws8r60p8j9prvp4qernj9lzxvnkt93lkez0p8l03h0dp72kk5y9h68eavcx9y0fa4as4j594f","addr1q99tdejlsuzhyyw8gj7q5ttx0ws8r60p8j9prvp4qernj9lzxvnkt93lkez0p8l03h0dp72kk5y9h68eavcx9y0fa4as4j594f"],"fee":189525,"totalOutput":430165432,"tokens":[]},{"hash":"6d227c07400e6561deb2c12ff3a99d96d981199afe13aa9d339e8b582b742018","blockNo":8058353,"blockHash":"8740734fe0b33d1a1386dc59014f55b6fa5de5ff7d7b45b23d7d23c032ecdf77","epochNo":377,"epochSlotNo":308309,"slot":77809109,"time":"2022/11/25 11:23:20","addressesInput":["addr1qywl0m78gyp8d2dtmqwavmsk3apz4dlpmz6tj4ccgp7lym7qj4rcx9ty5g5jgrqdcvegfk9tg25l7ruu8ewt3ydpnt6q3eq2d4"],"addressesOutput":["addr1qx6hnj9ge5q9d2er86ve99kymk3v22kajpg090f9dv6mqhugy3dl3qwm4ez3ahg0ruj7hrd5ws55m2yd77pn2amgj8msjzdvmw","addr1qxf2ntamphz8tf8c04tuxapagkyqrx9a2w9pnlwyj2yfam7qj4rcx9ty5g5jgrqdcvegfk9tg25l7ruu8ewt3ydpnt6qm73797","addr1qxf2ntamphz8tf8c04tuxapagkyqrx9a2w9pnlwyj2yfam7qj4rcx9ty5g5jgrqdcvegfk9tg25l7ruu8ewt3ydpnt6qm73797","addr1qxf2ntamphz8tf8c04tuxapagkyqrx9a2w9pnlwyj2yfam7qj4rcx9ty5g5jgrqdcvegfk9tg25l7ruu8ewt3ydpnt6qm73797","addr1qxf2ntamphz8tf8c04tuxapagkyqrx9a2w9pnlwyj2yfam7qj4rcx9ty5g5jgrqdcvegfk9tg25l7ruu8ewt3ydpnt6qm73797","addr1qxf2ntamphz8tf8c04tuxapagkyqrx9a2w9pnlwyj2yfam7qj4rcx9ty5g5jgrqdcvegfk9tg25l7ruu8ewt3ydpnt6qm73797","addr1qxf2ntamphz8tf8c04tuxapagkyqrx9a2w9pnlwyj2yfam7qj4rcx9ty5g5jgrqdcvegfk9tg25l7ruu8ewt3ydpnt6qm73797","addr1qxf2ntamphz8tf8c04tuxapagkyqrx9a2w9pnlwyj2yfam7qj4rcx9ty5g5jgrqdcvegfk9tg25l7ruu8ewt3ydpnt6qm73797"],"fee":185477,"totalOutput":2499014523,"tokens":[]}],"totalItems":55330205,"totalPages":2766511,"currentPage":0}