{"data":[{"txId":56798406,"txHash":"0cc3a2e8fbc57a2be0680a4622c3a889d3f7b238cff1cccb01e3b2e61c4d28a9","txTime":"2022/12/07 01:16:30","block":8106932,"epoch":380,"slotNo":78809499,"epochSlotNo":12699,"stakeKey":"stake1uyj6wlerd09fz8y0paurwuwaq6rsrl0wurpky97zm42m62sjwe6jv"},{"txId":56798113,"txHash":"e1222880f4d0a588156ee19ef320601b3b1487b9373aa3a47a34042258c2e485","txTime":"2022/12/07 01:12:13","block":8106920,"epoch":380,"slotNo":78809242,"epochSlotNo":12442,"stakeKey":"stake1u94jjeaq5vqm34rsaesh7zj8j2sw5m8lyfylkztewnj3ergg9nzza"},{"txId":56797998,"txHash":"e00ea625fd47a34c1bf97be1f987ab1ab401c0c71770f85e27b3489288087027","txTime":"2022/12/07 01:10:54","block":8106915,"epoch":380,"slotNo":78809163,"epochSlotNo":12363,"stakeKey":"stake1u87q0a3mg3f7nvcp4r4nnaptmhlpgd2jx6utxez40gxmjhs7rj6mn"},{"txId":56797081,"txHash":"717f866830453c0ab1410bd76660f1b85957a73e89c50a87670a0713d7bba904","txTime":"2022/12/07 00:54:24","block":8106874,"epoch":380,"slotNo":78808173,"epochSlotNo":11373,"stakeKey":"stake1u955hqd3sqlx8jlutxxkwmqueqrctkgywhdqlls30j5k6gcn0zgr7"},{"txId":56797004,"txHash":"b81c758c5112a4e3ab567947cc28aa88db35b1f4dd7752609ae9ad9d2530f2f3","txTime":"2022/12/07 00:53:37","block":8106872,"epoch":380,"slotNo":78808126,"epochSlotNo":11326,"stakeKey":"stake1u8vkxf8uyqfqxlu9xrunhk4hhpy9q9d4xers27th8zccftshjxh36"},{"txId":56796979,"txHash":"31c46a6ac540afd16efb58cfa73c7f6862cb089e55d6599da0e0ab60c2f7c1d9","txTime":"2022/12/07 00:52:56","block":8106869,"epoch":380,"slotNo":78808085,"epochSlotNo":11285,"stakeKey":"stake1u8xmxlffr5cr0znhr9tdgwxrh626f4ymsxp3y5ursr3v02s0mfcgu"},{"txId":56796773,"txHash":"90037210551ec8239c6f3dfb3dcc8611a87855aa79a878565a8ed47c2f96a6b1","txTime":"2022/12/07 00:49:43","block":8106859,"epoch":380,"slotNo":78807892,"epochSlotNo":11092,"stakeKey":"stake1u8e97k8crpucvz85h4ff48gl8drqzpvrltmc0ptwjkmvr4smwx5z3"},{"txId":56796477,"txHash":"5a6297dc79ccf0d8949016670f7468b0bf500ad3a09fcd77d94ce71413554b6d","txTime":"2022/12/07 00:45:27","block":8106842,"epoch":380,"slotNo":78807636,"epochSlotNo":10836,"stakeKey":"stake1u950dhllq4hwv7dca9j5t3c9nj362v3p5pjlgphwcqqywts682zjr"},{"txId":56795234,"txHash":"23918425884edc23d496edfae45dc1ecb466f98c2e72479236e8129c78b6a43e","txTime":"2022/12/07 00:28:14","block":8106780,"epoch":380,"slotNo":78806603,"epochSlotNo":9803,"stakeKey":"stake1uxs2qvtjxp32n0yeja3np47a9a5c4hs2gdpy64909y0fk9g75krd2"},{"txId":56794779,"txHash":"f00b5cc2b5930db571da76bafe235520fe539d4a3af5a167ca146bef357666b2","txTime":"2022/12/07 00:21:47","block":8106756,"epoch":380,"slotNo":78806216,"epochSlotNo":9416,"stakeKey":"stake1u9dmschpyaeq3r56hszvjf364kvfsyzd7axqge2fnmzum8ck5wv3g"},{"txId":56794298,"txHash":"a8a1c80eac80b676963c0895e66ba6796f593833b3b91fd594ada9d75ce92277","txTime":"2022/12/07 00:16:46","block":8106741,"epoch":380,"slotNo":78805915,"epochSlotNo":9115,"stakeKey":"stake1u9mghx89geqa4r7xcwp388z9ft6jvap054xzekpzfp6040c44v0tu"},{"txId":56793858,"txHash":"646f34ae466b468c4adb5256a443a11bb026a58d846eca47ff40ba8003c65dc0","txTime":"2022/12/07 00:11:21","block":8106726,"epoch":380,"slotNo":78805590,"epochSlotNo":8790,"stakeKey":"stake1uyw3dcav06sypekpt6zxmzd7xz9phv8ajy8uwc8k2dm2z2scawnaz"},{"txId":56792063,"txHash":"a53f0275392ae0687d9d20d29d09382bf6cd323774f7f51f68c325174c89b41d","txTime":"2022/12/06 23:49:35","block":8106661,"epoch":380,"slotNo":78804284,"epochSlotNo":7484,"stakeKey":"stake1u95t5q3qpylcdkg3qejur7ddve9wk947yxfam5uvtj4mvssfwlfq5"},{"txId":56791195,"txHash":"74c65cedff7923925ed85d8b4e0644f2642950ed80188cfc26362dba3a30d312","txTime":"2022/12/06 23:37:51","block":8106628,"epoch":380,"slotNo":78803580,"epochSlotNo":6780,"stakeKey":"stake1uy0c75xuxm23q75k3c982hp0vzr4a02g0eqzfut02uc49vg7vgjxs"},{"txId":56791062,"txHash":"8aa3485b393869ba845c5f8591f27a6401ae8eaa740ed98ad35519ea4644f754","txTime":"2022/12/06 23:36:38","block":8106624,"epoch":380,"slotNo":78803507,"epochSlotNo":6707,"stakeKey":"stake1ux7jg0l2xdxzgjmpgj4eadv6hytkve2pwtmw8q2y8tgh84s3mczws"},{"txId":56790949,"txHash":"ff9b91107ac02b68ee8a694bbb45bfd03c45eb4fe8effa3d2c665b93a6ee99b9","txTime":"2022/12/06 23:34:35","block":8106618,"epoch":380,"slotNo":78803384,"epochSlotNo":6584,"stakeKey":"stake1uxk5cavymswavtkrem80s99f098yhypppckg6tq8ephunnqsq5c00"},{"txId":56790777,"txHash":"f340a06c0aeb875231f585e71697706725d1a5ef00a6b50711fc47a4ec52ec28","txTime":"2022/12/06 23:32:14","block":8106613,"epoch":380,"slotNo":78803243,"epochSlotNo":6443,"stakeKey":"stake1u82jr6t42ctj0mx6muu787rnzudt363c4mj7cpzkcr3tm2qjhn78c"},{"txId":56790010,"txHash":"db58f137253f5f3d756dfeb78cb0f7e391cea2eb0cd966c7c5ad21b397a189a4","txTime":"2022/12/06 23:23:33","block":8106590,"epoch":380,"slotNo":78802722,"epochSlotNo":5922,"stakeKey":"stake1uxj3hvm0x5297d9jz57v9tycjj9n2nl0allxwv2pqd57rcsnym8qc"},{"txId":56789580,"txHash":"1bc5c7a584457a1ed6b0012006b62ba2831e0715d8cf4169a61e97a4c995dd82","txTime":"2022/12/06 23:17:08","block":8106577,"epoch":380,"slotNo":78802337,"epochSlotNo":5537,"stakeKey":"stake1u8e97k8crpucvz85h4ff48gl8drqzpvrltmc0ptwjkmvr4smwx5z3"},{"txId":56789064,"txHash":"2ee04cfe7cf7857cfaed6515112e4f7f42b902a5a0543aff801c03a550274498","txTime":"2022/12/06 23:09:59","block":8106562,"epoch":380,"slotNo":78801908,"epochSlotNo":5108,"stakeKey":"stake1uywzdvzc8kp9p7ryzap22fde3t6cf6zlx3n3jcgu7uzu3ts6lgu33"}],"totalItems":335287,"totalPages":16765,"currentPage":0}