{"data":[{"hash":"e2a61fceb500891e53c22ba9205f99f0d7c3578270eea35d73c31bf1ffdf39c7","blockNo":8113004,"blockHash":"e1a282db48a6f2a16149da129cf0908d7bfa1c40fb344006bec4ed91978aacd9","epochNo":380,"epochSlotNo":136530,"slot":78933330,"time":"2022/12/08 11:40:21","addressesInput":["DdzFFzCqrhsjxAqPXHeziUTyokYNA7WbAYuE2sRdsk7UcKqaN5Sr3ZpLKsiXJkPcd8XGdfi96Y17cP9GmTnFJcqMX6mACtghd8ZDRNrd","DdzFFzCqrhstgbX5LwtHvJi3WhCK1uWgAikVSCsBGUaQuMYQACjxx5dQJWPXYaUWCb6biaAbwrAziiqBnuod9i4g6jxogNt7cTJrbVKK","DdzFFzCqrht8TVLnMPnSPv9vEiMjP1XXR7QJMjaef2vsn3ygESVuRsHyu41giBZqegqMMvYWVJuXiP5nNSEeHAL7k117zeJjr5QxM15F","DdzFFzCqrht5bV1GCjV74JfuUfSGVDdcFtvLxpkB4Hd1kBcoyNUkeMasnP4su2f4hz4UMrzy4p4KqSZRbZP14UHBWKrmobyuyFUmzUmZ","DdzFFzCqrhtC4Na7pRtDkGNT5xzPwCaWUiBYSLTU6aWpnAitDg1ZfTRsSnqHf5tja32WVoVj16okPHA1ECD12CT356G5by449aL32Rft","DdzFFzCqrhtBaB8AXMe5nzxuHUh9qxCVQphcgzrRutT4qRWXM8DwfjJkUZ9Eadz1QaPwPSL2th9ms2xzFS2qxU1dAKEuC7ma91VCy3rQ","DdzFFzCqrht7Ma8rftaQvTFLDrn15QKRzwMo7jiXtXdpBZqVkPvyroQTPGJTJHhy4YbdGVY2ihqcEbXHXFZm5XRLMXotTtknJ5sVnWpK","DdzFFzCqrhszQ4Smuxixu2HQu6M5BKg23UsGLXPpFyQxorZKXgideVon71DxAP7dg2qkv3RCT3stT7cvpgfQoojKfdxc92r9HpptjGik","DdzFFzCqrhseac1uNA2bbYeg3ZnRZyWDC5NAVQZ4L9nJVMH8CkBdh77uPq81ksekCsEyTpYeMQhWJkRZZyEQQWLeANVT3rh19k9MSsTb","DdzFFzCqrhsuvKPM3jnehgg1hLM2gkghr8TBLgHjFuz3zYKQEGAppy71Cow9eUsSnw2UGyHAhc4WhGYoJtJhGkKgpqvmhs3SNmEZ4BCH","DdzFFzCqrhsvQCeB9RDunGTQpFWwt1C4Nss9giPbRzckpUYM5WouUixUBWjYAwjwvCt943ripiKKaBcdaQAwRkJsoLMoLQdn94GGdxiv","DdzFFzCqrhsrkkB9UYDVUmn6bSNz2jvE4zkagpWHVqwArgGgX26jEN1sYq9zfNJU2rxR3TS35X8fXTcixSzAdTN7qnzic8hXxyoyznyN","DdzFFzCqrht3kJvdp4CzRpBULV41W96QewmvbKo8jLEEKoTjAxAuRUqx2FKNTosGEfuF11doyyfkeprQHK31ZPE1KkmmgdB5MSxNT9hd","DdzFFzCqrhsdzK42MpiYLrWq4RcVTktQvBLy44xqqfUNDCQmY5mdyZ4Rrk9mb41wQD84G41uUWBfdgN6cEN692v4xFfKn2UNqejQ5Ur1"],"addressesOutput":["addr1q9atjfpqwdtg7ytz0pz9zcaqvx8zr2uv6ysvc4csqynr683dzefudzxhadht99nh8gv4l3z93d486ygllgxuh2drrrpsdw6fws","DdzFFzCqrht3fHeXx3og7ADwEpDEK4FFKYpfz9E4Y6NBhLavZTSAqh4WpbzRz8YFy5fNfWhhCPraVtov6MFiqFiSjRJkkaDJcirDBoAj","DdzFFzCqrhspCqJXYvbRgxrGuDNhUMkojRoLdzLpzTZH9ycPU7rmKqC7DZPM1oyZWW116h2vQZAnBKLnJT6axLZVVhfMBrE6Y8vesgqq","DdzFFzCqrhsiTZGqC9bEiEeHYnc7BrpTWA8YyzP42kTScBujno2GyTaXvY6BrD7rayADm3U2nZqVxVtHjLLDmttz5uhfH1jgoHwBQAtw","DdzFFzCqrhsprH4JWexySFp6jF4FZNswEynuTbKjPeEi51wQDVcNJfkDSmR7WNMXE2WG1vFEsYv84QRq3qoq1FFS1DdDwNgVwkcCA6VT"],"fee":1019189,"totalOutput":50145776062,"tokens":[]},{"hash":"9723063aeb09368c27f9afe027ab4e55bdc3e2de396d0f82af7cfc24be332bda","blockNo":8112354,"blockHash":"79cbfd4318c5ac426ecf77a0458a02d9b1e2881bd918214ee5368fb0a22b8eee","epochNo":380,"epochSlotNo":123397,"slot":78920197,"time":"2022/12/08 08:01:28","addressesInput":["addr1qywsmahvhe2re6z8nk5a4wv9dv2f729w73ks2zj2xq86a0nue6wlm2p5rlec9hnhdk8jtlsegvgx03dhhtnmn8rl477s8q36le"],"addressesOutput":["addr1qyxpajlr2sv85a7qw86dvhfw29t787spcnp5a57gjl9ss8k2h8y4gwedd2z2nx6544nalel0zd0g0kel44c96xy3vxvqkd5h9p","addr1q9ssxkcn4e4266k7j0dx9chpk0rkx3cmdtk86hhvxndam3mue6wlm2p5rlec9hnhdk8jtlsegvgx03dhhtnmn8rl477smy0mdq"],"fee":345417,"totalOutput":32972803,"tokens":[]},{"hash":"2acd364ac4e0e545f72976d8b41ba4111602be0fe900e2c3742d698bd64369a2","blockNo":8112353,"blockHash":"8768388b03601ac90070e7ba915e46f9e1092f05060a7a27310e959e5c639c8f","epochNo":380,"epochSlotNo":123337,"slot":78920137,"time":"2022/12/08 08:00:28","addressesInput":["addr1q8cmyxzj5s97k62ktruhlz5kquj6lpxl3py2rhsnylaq87tue6wlm2p5rlec9hnhdk8jtlsegvgx03dhhtnmn8rl477sygm3gr"],"addressesOutput":["addr1q87k9zrel8zsqpqhue55u7356gch8a4wp7xfpg5et2nn3q72h8y4gwedd2z2nx6544nalel0zd0g0kel44c96xy3vxvqwq22c9","addr1qywsmahvhe2re6z8nk5a4wv9dv2f729w73ks2zj2xq86a0nue6wlm2p5rlec9hnhdk8jtlsegvgx03dhhtnmn8rl477s8q36le"],"fee":345417,"totalOutput":35718220,"tokens":[]},{"hash":"fad63f2efeb46b72c8fc32e74c68cfd6655768232489624cd61003171792f120","blockNo":8112231,"blockHash":"6d04202d940ddf003da7bef8c278904b69c91be3ba97bdadc0eb0be1734f4701","epochNo":380,"epochSlotNo":120708,"slot":78917508,"time":"2022/12/08 07:16:39","addressesInput":["addr1qyn5umy3umakp2m3qlvndcz7qchwyvmjpjl0mkwxe77kfhnue6wlm2p5rlec9hnhdk8jtlsegvgx03dhhtnmn8rl477svy77lq"],"addressesOutput":["addr1v8d42pvp6jq700wh8xnx7qgd6ckvnt34pz7qn82furp9l9qwxyj6n","addr1q8cmyxzj5s97k62ktruhlz5kquj6lpxl3py2rhsnylaq87tue6wlm2p5rlec9hnhdk8jtlsegvgx03dhhtnmn8rl477sygm3gr"],"fee":344185,"totalOutput":41063637,"tokens":[]},{"hash":"9ad8cbc2ec89cbbf7923fde1bdfe8815a46796e20401e438f5b1a28755608d7c","blockNo":8112176,"blockHash":"18b07f08d7dcd0fd04672058615287f65a8f19c90e80947a5f2b356f2e5912be","epochNo":380,"epochSlotNo":119845,"slot":78916645,"time":"2022/12/08 07:02:16","addressesInput":["addr1qxggv0y8znq0g5jk25sc7jmheh4k3jvn3rcncm5kty6d5qtue6wlm2p5rlec9hnhdk8jtlsegvgx03dhhtnmn8rl477svvm9lh"],"addressesOutput":["addr1vyc7ca9flp5gfeapd78uxzzq7l6qnsytj85n62lr5smhgssen2u2s","addr1qyn5umy3umakp2m3qlvndcz7qchwyvmjpjl0mkwxe77kfhnue6wlm2p5rlec9hnhdk8jtlsegvgx03dhhtnmn8rl477svy77lq"],"fee":344185,"totalOutput":46407822,"tokens":[]},{"hash":"f7d1ddcefed4d54a9fbe1fc6bedb5481317cf0177c8d8dc9f3fdba84e321a75f","blockNo":8111874,"blockHash":"a7033710f3fd1a279b92c6ce1bffa0059910ed155db866d80512428570fb4911","epochNo":380,"epochSlotNo":113930,"slot":78910730,"time":"2022/12/08 05:23:41","addressesInput":["addr1qy0xznhgdhqj9u4g6jjdntf2cxy5lyad8j2p6a6dp8jwwttfq4uncdzu6hqlxn7gva2xsaln40x226fl8fsnqyyvzxtqqm3qw9","addr1qy0xznhgdhqj9u4g6jjdntf2cxy5lyad8j2p6a6dp8jwwttfq4uncdzu6hqlxn7gva2xsaln40x226fl8fsnqyyvzxtqqm3qw9","addr1qy0xznhgdhqj9u4g6jjdntf2cxy5lyad8j2p6a6dp8jwwttfq4uncdzu6hqlxn7gva2xsaln40x226fl8fsnqyyvzxtqqm3qw9","addr1qy0xznhgdhqj9u4g6jjdntf2cxy5lyad8j2p6a6dp8jwwttfq4uncdzu6hqlxn7gva2xsaln40x226fl8fsnqyyvzxtqqm3qw9","addr1qy0xznhgdhqj9u4g6jjdntf2cxy5lyad8j2p6a6dp8jwwttfq4uncdzu6hqlxn7gva2xsaln40x226fl8fsnqyyvzxtqqm3qw9","addr1zxgx3far7qygq0k6epa0zcvcvrevmn0ypsnfsue94nsn3tvpw288a4x0xf8pxgcntelxmyclq83s0ykeehchz2wtspks905plm","addr1qy0xznhgdhqj9u4g6jjdntf2cxy5lyad8j2p6a6dp8jwwttfq4uncdzu6hqlxn7gva2xsaln40x226fl8fsnqyyvzxtqqm3qw9","addr1qy0xznhgdhqj9u4g6jjdntf2cxy5lyad8j2p6a6dp8jwwttfq4uncdzu6hqlxn7gva2xsaln40x226fl8fsnqyyvzxtqqm3qw9"],"addressesOutput":["addr1qxrqlzx4utag3j4h483hndagvcj6gp9yks0ems9qp9yrs8semf0cka44us98eggchy8u3g3n9x307wtcqd55qxu4sx8qa4rust","addr1q9cwvremt6n320s2e3agq0jyq82yhrk3htsu0w426xnz5us70z4w0jgvcdkkynmm8wmds66jd9kusnjfpu6raw5fqp0sr07p5w","addr1q8p6lpxgmf2338735eagzfcc5qcex5um9zxhu2gwvxwhqap3zftqrpxdjz76ptnc7uqcldv7uwv2ym9pt7gn2gq90auskyg32y","addr1qy0xznhgdhqj9u4g6jjdntf2cxy5lyad8j2p6a6dp8jwwttfq4uncdzu6hqlxn7gva2xsaln40x226fl8fsnqyyvzxtqqm3qw9"],"fee":546675,"totalOutput":20675978,"tokens":[]},{"hash":"7513737498f0761706a85ae3fb8b20e71ab33f77fc619f08f67bfdf9d5ea9b65","blockNo":8111683,"blockHash":"249d4c343f18d5bd0a84938e5e8ee4be27ff5bc262a719610fb189259a91516d","epochNo":380,"epochSlotNo":110299,"slot":78907099,"time":"2022/12/08 04:23:10","addressesInput":["addr1qy0xznhgdhqj9u4g6jjdntf2cxy5lyad8j2p6a6dp8jwwttfq4uncdzu6hqlxn7gva2xsaln40x226fl8fsnqyyvzxtqqm3qw9","addr1zxgx3far7qygq0k6epa0zcvcvrevmn0ypsnfsue94nsn3tvpw288a4x0xf8pxgcntelxmyclq83s0ykeehchz2wtspks905plm"],"addressesOutput":["addr1qy0xznhgdhqj9u4g6jjdntf2cxy5lyad8j2p6a6dp8jwwttfq4uncdzu6hqlxn7gva2xsaln40x226fl8fsnqyyvzxtqqm3qw9","addr1qy0xznhgdhqj9u4g6jjdntf2cxy5lyad8j2p6a6dp8jwwttfq4uncdzu6hqlxn7gva2xsaln40x226fl8fsnqyyvzxtqqm3qw9"],"fee":349179,"totalOutput":6877888,"tokens":[]},{"hash":"ad870a31bfcbd2bd4051dcb657c2263fa4fb55ed3007b946f74b8771f7292ae3","blockNo":8111682,"blockHash":"ef44ab6cc62409081881c9909521f8de5a978fe82c65112152b7f8f51f094024","epochNo":380,"epochSlotNo":110240,"slot":78907040,"time":"2022/12/08 04:22:11","addressesInput":["addr1qy0xznhgdhqj9u4g6jjdntf2cxy5lyad8j2p6a6dp8jwwttfq4uncdzu6hqlxn7gva2xsaln40x226fl8fsnqyyvzxtqqm3qw9","addr1qy0xznhgdhqj9u4g6jjdntf2cxy5lyad8j2p6a6dp8jwwttfq4uncdzu6hqlxn7gva2xsaln40x226fl8fsnqyyvzxtqqm3qw9","addr1zxgx3far7qygq0k6epa0zcvcvrevmn0ypsnfsue94nsn3tvpw288a4x0xf8pxgcntelxmyclq83s0ykeehchz2wtspks905plm"],"addressesOutput":["addr1qy0xznhgdhqj9u4g6jjdntf2cxy5lyad8j2p6a6dp8jwwttfq4uncdzu6hqlxn7gva2xsaln40x226fl8fsnqyyvzxtqqm3qw9","addr1qy0xznhgdhqj9u4g6jjdntf2cxy5lyad8j2p6a6dp8jwwttfq4uncdzu6hqlxn7gva2xsaln40x226fl8fsnqyyvzxtqqm3qw9"],"fee":358533,"totalOutput":7080527,"tokens":[]},{"hash":"48d4f2b660e2e5a7062a7fc1fdd3139961a30abbf0edbd0bedaeb51169ff0a8e","blockNo":8111112,"blockHash":"8aa02f4b96f682d24e07d85458712342f1d6738205e4cd4e38e0ed87cd11c60d","epochNo":380,"epochSlotNo":98226,"slot":78895026,"time":"2022/12/08 01:01:57","addressesInput":["addr1q9vj9w32w77p47ca725hantcf5nrzcex66vqq58kqm4l04y6hn99676mvdj6qvd34vfqh3jx6vy8tyfkuy6u3xcghq8sex2gzq","addr1q9vj9w32w77p47ca725hantcf5nrzcex66vqq58kqm4l04y6hn99676mvdj6qvd34vfqh3jx6vy8tyfkuy6u3xcghq8sex2gzq","addr1q9vj9w32w77p47ca725hantcf5nrzcex66vqq58kqm4l04y6hn99676mvdj6qvd34vfqh3jx6vy8tyfkuy6u3xcghq8sex2gzq"],"addressesOutput":["addr1zxgx3far7qygq0k6epa0zcvcvrevmn0ypsnfsue94nsn3tvpw288a4x0xf8pxgcntelxmyclq83s0ykeehchz2wtspks905plm","addr1q9vj9w32w77p47ca725hantcf5nrzcex66vqq58kqm4l04y6hn99676mvdj6qvd34vfqh3jx6vy8tyfkuy6u3xcghq8sex2gzq"],"fee":246593,"totalOutput":7352972,"tokens":[]},{"hash":"9e5b9c581039e10fecc5b471cee13148c7ed79baa518d56168c0bfabcb2c821d","blockNo":8110978,"blockHash":"68ad1f6ab209e7f4b426d867d7cbdb6218b237da685a645c7306bf14d54709e1","epochNo":380,"epochSlotNo":95572,"slot":78892372,"time":"2022/12/08 00:17:43","addressesInput":["addr1qyt28uspfc0jdfehgv9dylppjr6uad5e76sgy3njswewef3qxqnl90qt2lakyj2xkp0flcvwx4y4fl3vxuskyvr4cjsqtyfgqx"],"addressesOutput":["addr1vx5ac70v8504uk5dr69zjexxu2ztacpw8cr7qcetwkr8f2s9973vm","addr1q9txcnn86a44y3v0797xq4qkhrh8ljnwk2s3u699l43hrt3qxqnl90qt2lakyj2xkp0flcvwx4y4fl3vxuskyvr4cjsqccljkt"],"fee":368649,"totalOutput":29170177,"tokens":[]},{"hash":"368000aec48a7ef095d52a2bfe568fdf1d1404318464c795295161b2fda8eaea","blockNo":8110925,"blockHash":"a32358aa66669582448330d9dd70064c99466bc750725f2496bde8f11ecb83a5","epochNo":380,"epochSlotNo":94817,"slot":78891617,"time":"2022/12/08 00:05:08","addressesInput":["addr1qxvfczek4uzgsdd4trqg6qu62r8ms2akfcm78km53hku6jycns9ndtcy3q6m2kxq35pe55x0hq4mvn3hu0dhfr0de4yq577lxc","addr1qxvfczek4uzgsdd4trqg6qu62r8ms2akfcm78km53hku6jycns9ndtcy3q6m2kxq35pe55x0hq4mvn3hu0dhfr0de4yq577lxc"],"addressesOutput":["addr1qxvfczek4uzgsdd4trqg6qu62r8ms2akfcm78km53hku6jycns9ndtcy3q6m2kxq35pe55x0hq4mvn3hu0dhfr0de4yq577lxc","addr1qxvfczek4uzgsdd4trqg6qu62r8ms2akfcm78km53hku6jycns9ndtcy3q6m2kxq35pe55x0hq4mvn3hu0dhfr0de4yq577lxc"],"fee":237985,"totalOutput":2164627481673,"tokens":[]},{"hash":"19a13bcfc1f60c4c46ac9e65a521eb231dbcfdd6dbb4892933de1ba7073b67f4","blockNo":8110616,"blockHash":"f48ae1a7d6267dc33983bb180b664a33f0aaecb7712b1ea99d907e2fde0cf4fd","epochNo":380,"epochSlotNo":88570,"slot":78885370,"time":"2022/12/07 22:21:01","addressesInput":["addr1qxa7hxs2plv3ghfvm2ds0ddlgljjmr870nyj0dcuttr9emmhy29z9apw4amvddq7cz3u2c6jffld2rlzcrmuk57cdvcsnml3cx","addr1qxa7hxs2plv3ghfvm2ds0ddlgljjmr870nyj0dcuttr9emmhy29z9apw4amvddq7cz3u2c6jffld2rlzcrmuk57cdvcsnml3cx"],"addressesOutput":["addr1zxgx3far7qygq0k6epa0zcvcvrevmn0ypsnfsue94nsn3tvpw288a4x0xf8pxgcntelxmyclq83s0ykeehchz2wtspks905plm","addr1qxa7hxs2plv3ghfvm2ds0ddlgljjmr870nyj0dcuttr9emmhy29z9apw4amvddq7cz3u2c6jffld2rlzcrmuk57cdvcsnml3cx"],"fee":263445,"totalOutput":9273921,"tokens":[]},{"hash":"78d309de2ce9395d928349332525c96df73f93e12bfd04bcfdab7d8ecdffbb78","blockNo":8110609,"blockHash":"232f89408f3cddd60a1cc941310ab8b0cf52ab9a3bc80385e5d4001103dd74a1","epochNo":380,"epochSlotNo":88446,"slot":78885246,"time":"2022/12/07 22:18:57","addressesInput":["addr1q9vj9w32w77p47ca725hantcf5nrzcex66vqq58kqm4l04y6hn99676mvdj6qvd34vfqh3jx6vy8tyfkuy6u3xcghq8sex2gzq","addr1q9vj9w32w77p47ca725hantcf5nrzcex66vqq58kqm4l04y6hn99676mvdj6qvd34vfqh3jx6vy8tyfkuy6u3xcghq8sex2gzq","addr1q9vj9w32w77p47ca725hantcf5nrzcex66vqq58kqm4l04y6hn99676mvdj6qvd34vfqh3jx6vy8tyfkuy6u3xcghq8sex2gzq"],"addressesOutput":["addr1zxgx3far7qygq0k6epa0zcvcvrevmn0ypsnfsue94nsn3tvpw288a4x0xf8pxgcntelxmyclq83s0ykeehchz2wtspks905plm","addr1q9vj9w32w77p47ca725hantcf5nrzcex66vqq58kqm4l04y6hn99676mvdj6qvd34vfqh3jx6vy8tyfkuy6u3xcghq8sex2gzq","addr1q9vj9w32w77p47ca725hantcf5nrzcex66vqq58kqm4l04y6hn99676mvdj6qvd34vfqh3jx6vy8tyfkuy6u3xcghq8sex2gzq"],"fee":240257,"totalOutput":31001298,"tokens":[]},{"hash":"089e29fb128b613f02ba181d18248cc0cc7f29d0601ed77ccc9da45a726a4962","blockNo":8110599,"blockHash":"d7bd25e759c7a1856945f0b1089fb05eea0b31e286cce7c9aefe64b0e4f3b28f","epochNo":380,"epochSlotNo":88322,"slot":78885122,"time":"2022/12/07 22:16:53","addressesInput":["addr1q9vj9w32w77p47ca725hantcf5nrzcex66vqq58kqm4l04y6hn99676mvdj6qvd34vfqh3jx6vy8tyfkuy6u3xcghq8sex2gzq","addr1q9vj9w32w77p47ca725hantcf5nrzcex66vqq58kqm4l04y6hn99676mvdj6qvd34vfqh3jx6vy8tyfkuy6u3xcghq8sex2gzq","addr1q9vj9w32w77p47ca725hantcf5nrzcex66vqq58kqm4l04y6hn99676mvdj6qvd34vfqh3jx6vy8tyfkuy6u3xcghq8sex2gzq","addr1q9vj9w32w77p47ca725hantcf5nrzcex66vqq58kqm4l04y6hn99676mvdj6qvd34vfqh3jx6vy8tyfkuy6u3xcghq8sex2gzq"],"addressesOutput":["addr1zxgx3far7qygq0k6epa0zcvcvrevmn0ypsnfsue94nsn3tvpw288a4x0xf8pxgcntelxmyclq83s0ykeehchz2wtspks905plm","addr1q9vj9w32w77p47ca725hantcf5nrzcex66vqq58kqm4l04y6hn99676mvdj6qvd34vfqh3jx6vy8tyfkuy6u3xcghq8sex2gzq","addr1q9vj9w32w77p47ca725hantcf5nrzcex66vqq58kqm4l04y6hn99676mvdj6qvd34vfqh3jx6vy8tyfkuy6u3xcghq8sex2gzq"],"fee":244173,"totalOutput":6875947,"tokens":[]},{"hash":"42ac4c5a2440bd02211bd1bfd28b636864c14f3a5e2f3380dc5af75bc924c73d","blockNo":8110497,"blockHash":"d962069a72842b181f13911da753c98ab1ebdf5548ceb0678269edb2c9e4dbb1","epochNo":380,"epochSlotNo":86148,"slot":78882948,"time":"2022/12/07 21:40:39","addressesInput":["DdzFFzCqrhsgs2D7DLfgjwS56qqVEDsMSf8WtW8QnenjcUVk7EC2jEvH4DNjbCXUyYBuzXrRzWwpPGioWpAGAZxUcMdApMUHkXnU8KL3","DdzFFzCqrhsrYujMXJWkw9QzyJUgwZeWA6vQK2ZkXxKiy8XSxzediiFCYzj2gCkUsrpWGhVYoDfJMEnu2jTNHqJCwi55KM7Y6uC6if5o","DdzFFzCqrhsvXvEN55nv7cYvSTFSHf5JS1buYWsDqtL3U8xfqkmhp4XbCRGvU8KiHjDYGnTaAB8QMS2ZK8vMZdGkWvEPDykn1TA2hD16","DdzFFzCqrhsdzK42MpiYLrWq4RcVTktQvBLy44xqqfUNDCQmY5mdyZ4Rrk9mb41wQD84G41uUWBfdgN6cEN692v4xFfKn2UNqejQ5Ur1","DdzFFzCqrht6WTSLvnQvJMEzwyUzVYZheDxHTzJy8BvMAhapnAkkwCdw9LuDshrKei4jHydggit7PZWWvaT3VJ7TUpNXKSJkgsbrzRNv","DdzFFzCqrht6QyfH5YhcGGWFzWgWqzuRDRZBRR9eDu9VApW6wZcGKxtMUGyqwzreqtWUbnVghR4XhW9Sa4G1unPrWQu7JiQEa5bei45P","DdzFFzCqrhtBmNBPy9xcC6B9wBQ54yFJSiP1VgNkgPnm5dwXZJAekYyGY7BMb1o5xtH2M7TLzZBtqGpCyAyiVL1RE1S7JrH2P9ZBiiRP","DdzFFzCqrht8v1AEDWwKyvV14jn3gVev4tCQr9XfLkJDF4DuqHgDBZFyvTRqQmxCiEc6CiJw2avhaihkeyABozgrko2X2mqHy1tvzu1F","DdzFFzCqrhtDAdH5SQxcVtJsdCo4bYo7dU9Fvf4FtCMuafAT5vhS69UqmBuyuZmLwTHfj9ukuxjmPF4CiLfdvQ9CEwqYUgpkEi9jhkuQ","DdzFFzCqrhseK65HUZaghJgPvkcSgeCu1wwyU2Ra1npoS4R2BBotQDtvMwXgGJErDBk2XDMF9tU74b5qosrovPYAfoBQ4jw4WanwLFBf","DdzFFzCqrhsjTg2F21pEcdCmKdzva1fAsdbySi1YjnnAHfCjyR6cwzncJPJUp7rXZnTzG8p6dL74By6usoBqJ77TMxrA4Pg75ad4uKoZ","DdzFFzCqrht9pnVGKh6df59Roq9z1MBr5N8o9qf9xgduARS855dvkzznuZg6Py6Q1feQWKAmfoazXVscmsv1y1eYuFi2aKKdNiww4swq","DdzFFzCqrhsdzK42MpiYLrWq4RcVTktQvBLy44xqqfUNDCQmY5mdyZ4Rrk9mb41wQD84G41uUWBfdgN6cEN692v4xFfKn2UNqejQ5Ur1","DdzFFzCqrht6sueSbQrNwxUWmHNu3zzageuJfU21tJCBxYVDDqkNYUNHSVjoCR6x1iwjH2FqCz7fz8F5SsoTACdRQcaDxPHGjukaVz44","DdzFFzCqrhtAiG4sLgH6iT5KiXZhYgB8ZzdEyGfkujbkYeDVnBC4AMG7nrJni8e6NVkJmva2qurFNMqGee8BmMwHrh9k5SnWka65uSFE","DdzFFzCqrhtCejYQezyh5kFPKXGv1kWE8wWvy1shzxoMkbG2w9YnA2Do7mXRzFuGgzAEkKxod8jcFwUKXksMhdeF1owg3Fyyqsf9RD8Z","DdzFFzCqrhsgFdHwPcMHGoYNc7pDE9rCDSuDQT7tt75PvCSzE2i6DYZJbrneuLowthbkvDgeyNVn1k3U8T3tbrKwSdFiwSi5Us4KiUDt","DdzFFzCqrhtBDECjMbrhrekPDyzaeu9itDveXbqwxJi8FaZULogfubPwp8ARz1saYcgNnoGoS5o3Rai2RJGdVSpnLUGtsKa936uvExyZ","DdzFFzCqrht7kTW3u6p1BVVJ7QdvKL8bQ3D4zWPFyHcAjBrtqrTYccyF9fjZfC1MEp8y2xjW8HfanQyjoPdKch73NwzUKXxq1htwLnoY","DdzFFzCqrhsiAoo8qnv7nKN2iKnpLJS8Yu1qDXpV98PC9WmnAM7DyAy98LktJJZSEJBHjLnU8wvesCCcyRfEmy9CBP76oo3pkeWNqdr2","DdzFFzCqrhsdzK42MpiYLrWq4RcVTktQvBLy44xqqfUNDCQmY5mdyZ4Rrk9mb41wQD84G41uUWBfdgN6cEN692v4xFfKn2UNqejQ5Ur1","DdzFFzCqrhshcUEYArNFMgji7zL79EBHEEtXRYxRHEX5ExpiD7WuzkGPZzEuiFrY6JE8qUPRZBQv6eYbti8pXJGeGyEwnNuF6KP8e9re","DdzFFzCqrhsucEoipmB3dPK3brWua19rovbkwBbRtkF7rYWbpwonos4BL59URiJc7dsoW2AqYgP1cKD6FtDh87CwFVw3aBq7BYZWp7xt"],"addressesOutput":["addr1q9atjfpqwdtg7ytz0pz9zcaqvx8zr2uv6ysvc4csqynr683dzefudzxhadht99nh8gv4l3z93d486ygllgxuh2drrrpsdw6fws","DdzFFzCqrhtC4Na7pRtDkGNT5xzPwCaWUiBYSLTU6aWpnAitDg1ZfTRsSnqHf5tja32WVoVj16okPHA1ECD12CT356G5by449aL32Rft","DdzFFzCqrht7Ma8rftaQvTFLDrn15QKRzwMo7jiXtXdpBZqVkPvyroQTPGJTJHhy4YbdGVY2ihqcEbXHXFZm5XRLMXotTtknJ5sVnWpK","DdzFFzCqrhsvQCeB9RDunGTQpFWwt1C4Nss9giPbRzckpUYM5WouUixUBWjYAwjwvCt943ripiKKaBcdaQAwRkJsoLMoLQdn94GGdxiv","DdzFFzCqrhtABdqrQ8xLnQDDcwEnfH7vDzhvRQPespsg577PrzSqTeZc4kwdUfTBSGbvdBKnBXWSa5UmBcGvNj1a7NuDEHDrS2dccgcC"],"fee":1106309,"totalOutput":53705348003,"tokens":[]},{"hash":"102674adbb02999ac2c601552b4a9c8cd4062b5a5190a6eedb4aa469493a4524","blockNo":8109565,"blockHash":"be5de03df050b9a0f0ea84cca89d6f0afaaea1f28851604caa8a9e003ce6435f","epochNo":380,"epochSlotNo":66670,"slot":78863470,"time":"2022/12/07 16:16:01","addressesInput":["addr1qxuey0q5elzgxl59dnsresuf7ywt7tedd289jxmmsqmw9qcl4a7843764rakvn7dtyrq863whuq9vfxsl6cpg0n5kudqtrf59e","addr1qxuey0q5elzgxl59dnsresuf7ywt7tedd289jxmmsqmw9qcl4a7843764rakvn7dtyrq863whuq9vfxsl6cpg0n5kudqtrf59e","addr1qxssqvlcacaz3galh0yeesx55x75nzyhhajm97l36a2tdfcl4a7843764rakvn7dtyrq863whuq9vfxsl6cpg0n5kudqss0war","addr1qxuey0q5elzgxl59dnsresuf7ywt7tedd289jxmmsqmw9qcl4a7843764rakvn7dtyrq863whuq9vfxsl6cpg0n5kudqtrf59e","addr1qxuey0q5elzgxl59dnsresuf7ywt7tedd289jxmmsqmw9qcl4a7843764rakvn7dtyrq863whuq9vfxsl6cpg0n5kudqtrf59e","addr1qxuey0q5elzgxl59dnsresuf7ywt7tedd289jxmmsqmw9qcl4a7843764rakvn7dtyrq863whuq9vfxsl6cpg0n5kudqtrf59e","addr1qxuey0q5elzgxl59dnsresuf7ywt7tedd289jxmmsqmw9qcl4a7843764rakvn7dtyrq863whuq9vfxsl6cpg0n5kudqtrf59e","addr1qxuey0q5elzgxl59dnsresuf7ywt7tedd289jxmmsqmw9qcl4a7843764rakvn7dtyrq863whuq9vfxsl6cpg0n5kudqtrf59e","addr1qxuey0q5elzgxl59dnsresuf7ywt7tedd289jxmmsqmw9qcl4a7843764rakvn7dtyrq863whuq9vfxsl6cpg0n5kudqtrf59e","addr1qxuey0q5elzgxl59dnsresuf7ywt7tedd289jxmmsqmw9qcl4a7843764rakvn7dtyrq863whuq9vfxsl6cpg0n5kudqtrf59e","addr1qxq5lehud4522rrww6tjjvz94267lv6lgwtm3uafkdem5kgl4a7843764rakvn7dtyrq863whuq9vfxsl6cpg0n5kudq5tnekl","addr1qxuey0q5elzgxl59dnsresuf7ywt7tedd289jxmmsqmw9qcl4a7843764rakvn7dtyrq863whuq9vfxsl6cpg0n5kudqtrf59e"],"addressesOutput":["addr1vyc7ca9flp5gfeapd78uxzzq7l6qnsytj85n62lr5smhgssen2u2s","addr1q9zc25hyj7lp8a66rk9jqud73eu5dwequgxp2l5htusj52ql4a7843764rakvn7dtyrq863whuq9vfxsl6cpg0n5kudq9w9axy","addr1q9zc25hyj7lp8a66rk9jqud73eu5dwequgxp2l5htusj52ql4a7843764rakvn7dtyrq863whuq9vfxsl6cpg0n5kudq9w9axy","addr1q9zc25hyj7lp8a66rk9jqud73eu5dwequgxp2l5htusj52ql4a7843764rakvn7dtyrq863whuq9vfxsl6cpg0n5kudq9w9axy","addr1q9zc25hyj7lp8a66rk9jqud73eu5dwequgxp2l5htusj52ql4a7843764rakvn7dtyrq863whuq9vfxsl6cpg0n5kudq9w9axy","addr1q9zc25hyj7lp8a66rk9jqud73eu5dwequgxp2l5htusj52ql4a7843764rakvn7dtyrq863whuq9vfxsl6cpg0n5kudq9w9axy","addr1q9zc25hyj7lp8a66rk9jqud73eu5dwequgxp2l5htusj52ql4a7843764rakvn7dtyrq863whuq9vfxsl6cpg0n5kudq9w9axy","addr1q9zc25hyj7lp8a66rk9jqud73eu5dwequgxp2l5htusj52ql4a7843764rakvn7dtyrq863whuq9vfxsl6cpg0n5kudq9w9axy","addr1q9zc25hyj7lp8a66rk9jqud73eu5dwequgxp2l5htusj52ql4a7843764rakvn7dtyrq863whuq9vfxsl6cpg0n5kudq9w9axy","addr1q9zc25hyj7lp8a66rk9jqud73eu5dwequgxp2l5htusj52ql4a7843764rakvn7dtyrq863whuq9vfxsl6cpg0n5kudq9w9axy","addr1q9zc25hyj7lp8a66rk9jqud73eu5dwequgxp2l5htusj52ql4a7843764rakvn7dtyrq863whuq9vfxsl6cpg0n5kudq9w9axy"],"fee":658917,"totalOutput":82231304,"tokens":[]},{"hash":"57e659090edf2e4cc6c36c39fe97935c851065ab611d3873735c37d44a8b294c","blockNo":8109561,"blockHash":"e6719a3a85bd225367c63fd114c4a6433fd126fbd7ec29034a404ac51d258ddd","epochNo":380,"epochSlotNo":66590,"slot":78863390,"time":"2022/12/07 16:14:41","addressesInput":["addr1q8v4kr9jjppfattchjcj9zqkg6fr2r7hl3duqlvuad65d4ql4a7843764rakvn7dtyrq863whuq9vfxsl6cpg0n5kudqlqk7zg","addr1q8v4kr9jjppfattchjcj9zqkg6fr2r7hl3duqlvuad65d4ql4a7843764rakvn7dtyrq863whuq9vfxsl6cpg0n5kudqlqk7zg","addr1qxq5lehud4522rrww6tjjvz94267lv6lgwtm3uafkdem5kgl4a7843764rakvn7dtyrq863whuq9vfxsl6cpg0n5kudq5tnekl","addr1q8v4kr9jjppfattchjcj9zqkg6fr2r7hl3duqlvuad65d4ql4a7843764rakvn7dtyrq863whuq9vfxsl6cpg0n5kudqlqk7zg","addr1q8v4kr9jjppfattchjcj9zqkg6fr2r7hl3duqlvuad65d4ql4a7843764rakvn7dtyrq863whuq9vfxsl6cpg0n5kudqlqk7zg","addr1q8v4kr9jjppfattchjcj9zqkg6fr2r7hl3duqlvuad65d4ql4a7843764rakvn7dtyrq863whuq9vfxsl6cpg0n5kudqlqk7zg","addr1q8v4kr9jjppfattchjcj9zqkg6fr2r7hl3duqlvuad65d4ql4a7843764rakvn7dtyrq863whuq9vfxsl6cpg0n5kudqlqk7zg","addr1q8v4kr9jjppfattchjcj9zqkg6fr2r7hl3duqlvuad65d4ql4a7843764rakvn7dtyrq863whuq9vfxsl6cpg0n5kudqlqk7zg","addr1q8v4kr9jjppfattchjcj9zqkg6fr2r7hl3duqlvuad65d4ql4a7843764rakvn7dtyrq863whuq9vfxsl6cpg0n5kudqlqk7zg","addr1q8v4kr9jjppfattchjcj9zqkg6fr2r7hl3duqlvuad65d4ql4a7843764rakvn7dtyrq863whuq9vfxsl6cpg0n5kudqlqk7zg","addr1q8v4kr9jjppfattchjcj9zqkg6fr2r7hl3duqlvuad65d4ql4a7843764rakvn7dtyrq863whuq9vfxsl6cpg0n5kudqlqk7zg"],"addressesOutput":["addr1vyc67lpx2p4429pfmggqew493mdvky7wguyrsr8rmjcn6cgy0zcvd","addr1qxuey0q5elzgxl59dnsresuf7ywt7tedd289jxmmsqmw9qcl4a7843764rakvn7dtyrq863whuq9vfxsl6cpg0n5kudqtrf59e","addr1qxuey0q5elzgxl59dnsresuf7ywt7tedd289jxmmsqmw9qcl4a7843764rakvn7dtyrq863whuq9vfxsl6cpg0n5kudqtrf59e","addr1qxuey0q5elzgxl59dnsresuf7ywt7tedd289jxmmsqmw9qcl4a7843764rakvn7dtyrq863whuq9vfxsl6cpg0n5kudqtrf59e","addr1qxuey0q5elzgxl59dnsresuf7ywt7tedd289jxmmsqmw9qcl4a7843764rakvn7dtyrq863whuq9vfxsl6cpg0n5kudqtrf59e","addr1qxuey0q5elzgxl59dnsresuf7ywt7tedd289jxmmsqmw9qcl4a7843764rakvn7dtyrq863whuq9vfxsl6cpg0n5kudqtrf59e","addr1qxuey0q5elzgxl59dnsresuf7ywt7tedd289jxmmsqmw9qcl4a7843764rakvn7dtyrq863whuq9vfxsl6cpg0n5kudqtrf59e","addr1qxuey0q5elzgxl59dnsresuf7ywt7tedd289jxmmsqmw9qcl4a7843764rakvn7dtyrq863whuq9vfxsl6cpg0n5kudqtrf59e","addr1qxuey0q5elzgxl59dnsresuf7ywt7tedd289jxmmsqmw9qcl4a7843764rakvn7dtyrq863whuq9vfxsl6cpg0n5kudqtrf59e","addr1qxuey0q5elzgxl59dnsresuf7ywt7tedd289jxmmsqmw9qcl4a7843764rakvn7dtyrq863whuq9vfxsl6cpg0n5kudqtrf59e","addr1qxuey0q5elzgxl59dnsresuf7ywt7tedd289jxmmsqmw9qcl4a7843764rakvn7dtyrq863whuq9vfxsl6cpg0n5kudqtrf59e"],"fee":652933,"totalOutput":80597174,"tokens":[]},{"hash":"317a6fddbd27c08360d968fa6b342593651bb08daa063e45afbf9180e68f3584","blockNo":8109553,"blockHash":"7da6612f44e768d95da1d3ac86efac64cdfac6c7285090a03ba53d8b2a628244","epochNo":380,"epochSlotNo":66415,"slot":78863215,"time":"2022/12/07 16:11:46","addressesInput":["addr1qysqgr0kl35mlkkdp9rmqkeu5mmevytggw8p6h8dwdmsntcl4a7843764rakvn7dtyrq863whuq9vfxsl6cpg0n5kudqtryv0n","addr1qysqgr0kl35mlkkdp9rmqkeu5mmevytggw8p6h8dwdmsntcl4a7843764rakvn7dtyrq863whuq9vfxsl6cpg0n5kudqtryv0n","addr1qysqgr0kl35mlkkdp9rmqkeu5mmevytggw8p6h8dwdmsntcl4a7843764rakvn7dtyrq863whuq9vfxsl6cpg0n5kudqtryv0n","addr1qysqgr0kl35mlkkdp9rmqkeu5mmevytggw8p6h8dwdmsntcl4a7843764rakvn7dtyrq863whuq9vfxsl6cpg0n5kudqtryv0n","addr1qysqgr0kl35mlkkdp9rmqkeu5mmevytggw8p6h8dwdmsntcl4a7843764rakvn7dtyrq863whuq9vfxsl6cpg0n5kudqtryv0n","addr1qysqgr0kl35mlkkdp9rmqkeu5mmevytggw8p6h8dwdmsntcl4a7843764rakvn7dtyrq863whuq9vfxsl6cpg0n5kudqtryv0n","addr1qxq5lehud4522rrww6tjjvz94267lv6lgwtm3uafkdem5kgl4a7843764rakvn7dtyrq863whuq9vfxsl6cpg0n5kudq5tnekl","addr1qysqgr0kl35mlkkdp9rmqkeu5mmevytggw8p6h8dwdmsntcl4a7843764rakvn7dtyrq863whuq9vfxsl6cpg0n5kudqtryv0n","addr1qysqgr0kl35mlkkdp9rmqkeu5mmevytggw8p6h8dwdmsntcl4a7843764rakvn7dtyrq863whuq9vfxsl6cpg0n5kudqtryv0n","addr1qysqgr0kl35mlkkdp9rmqkeu5mmevytggw8p6h8dwdmsntcl4a7843764rakvn7dtyrq863whuq9vfxsl6cpg0n5kudqtryv0n","addr1q832pjpv9zzpnq5wkq0lpju88cs0krvdcynxsm4f9v8g4scl4a7843764rakvn7dtyrq863whuq9vfxsl6cpg0n5kudqn6frug","addr1qysqgr0kl35mlkkdp9rmqkeu5mmevytggw8p6h8dwdmsntcl4a7843764rakvn7dtyrq863whuq9vfxsl6cpg0n5kudqtryv0n"],"addressesOutput":["addr1q87k9zrel8zsqpqhue55u7356gch8a4wp7xfpg5et2nn3q72h8y4gwedd2z2nx6544nalel0zd0g0kel44c96xy3vxvqwq22c9","addr1q8v4kr9jjppfattchjcj9zqkg6fr2r7hl3duqlvuad65d4ql4a7843764rakvn7dtyrq863whuq9vfxsl6cpg0n5kudqlqk7zg","addr1q8v4kr9jjppfattchjcj9zqkg6fr2r7hl3duqlvuad65d4ql4a7843764rakvn7dtyrq863whuq9vfxsl6cpg0n5kudqlqk7zg","addr1q8v4kr9jjppfattchjcj9zqkg6fr2r7hl3duqlvuad65d4ql4a7843764rakvn7dtyrq863whuq9vfxsl6cpg0n5kudqlqk7zg","addr1q8v4kr9jjppfattchjcj9zqkg6fr2r7hl3duqlvuad65d4ql4a7843764rakvn7dtyrq863whuq9vfxsl6cpg0n5kudqlqk7zg","addr1q8v4kr9jjppfattchjcj9zqkg6fr2r7hl3duqlvuad65d4ql4a7843764rakvn7dtyrq863whuq9vfxsl6cpg0n5kudqlqk7zg","addr1q8v4kr9jjppfattchjcj9zqkg6fr2r7hl3duqlvuad65d4ql4a7843764rakvn7dtyrq863whuq9vfxsl6cpg0n5kudqlqk7zg","addr1q8v4kr9jjppfattchjcj9zqkg6fr2r7hl3duqlvuad65d4ql4a7843764rakvn7dtyrq863whuq9vfxsl6cpg0n5kudqlqk7zg","addr1q8v4kr9jjppfattchjcj9zqkg6fr2r7hl3duqlvuad65d4ql4a7843764rakvn7dtyrq863whuq9vfxsl6cpg0n5kudqlqk7zg","addr1q8v4kr9jjppfattchjcj9zqkg6fr2r7hl3duqlvuad65d4ql4a7843764rakvn7dtyrq863whuq9vfxsl6cpg0n5kudqlqk7zg","addr1q8v4kr9jjppfattchjcj9zqkg6fr2r7hl3duqlvuad65d4ql4a7843764rakvn7dtyrq863whuq9vfxsl6cpg0n5kudqlqk7zg"],"fee":658169,"totalOutput":84864832,"tokens":[]},{"hash":"8944c3ff6f25206a141eb4063a0317d14244a58f8ae91daeb417d46898dba873","blockNo":8109260,"blockHash":"717c09ff528c0b18a947c4fa2a41abac38ca71c492a0e7e857fb8c64f2e21451","epochNo":380,"epochSlotNo":60814,"slot":78857614,"time":"2022/12/07 14:38:25","addressesInput":["addr1q88lnurfsc3jyg5sgwqjfayl02ztmw2qfwqtpjsg0gvtkpezuq20wwz394xr5htm9c32fc98tl6u8qcrnryrg4g9hars5ckeqv","addr1q8zxwhlpzhc96eqwg57jkjrmqtj7jw8nhqevfs6yj5zkh2fzuq20wwz394xr5htm9c32fc98tl6u8qcrnryrg4g9harsgxwe0x"],"addressesOutput":["addr1qx033kkwpc3tg4s4kmfy03z3ywevz7t9v25facs2fzuzdspzuq20wwz394xr5htm9c32fc98tl6u8qcrnryrg4g9harspv4a4u","addr1qx033kkwpc3tg4s4kmfy03z3ywevz7t9v25facs2fzuzdspzuq20wwz394xr5htm9c32fc98tl6u8qcrnryrg4g9harspv4a4u"],"fee":207653,"totalOutput":10337261,"tokens":[]},{"hash":"2135a431aaec43489ef7968390e225ea2be4651a3ad0af8cf122b0ecbd334c7e","blockNo":8108784,"blockHash":"0cb6295ad7399308bdbe56b665c8b11fcadb9f1fd8a54c271e1f33dc49e1cfe8","epochNo":380,"epochSlotNo":51801,"slot":78848601,"time":"2022/12/07 12:08:12","addressesInput":["addr1q896raajajkh5hnetr2fcjgn5kvanx6c3sjfc2s2c39sf88y4fx70as64j7qekw4ee8khun9vk3cvydvdym4dlx4r38sce3s8p","addr1q896raajajkh5hnetr2fcjgn5kvanx6c3sjfc2s2c39sf88y4fx70as64j7qekw4ee8khun9vk3cvydvdym4dlx4r38sce3s8p","addr1q896raajajkh5hnetr2fcjgn5kvanx6c3sjfc2s2c39sf88y4fx70as64j7qekw4ee8khun9vk3cvydvdym4dlx4r38sce3s8p","addr1q8usepc3pc8ydmvyvq0x8y3g5uadearw9pr4jl8q47s0sshy4fx70as64j7qekw4ee8khun9vk3cvydvdym4dlx4r38snzd6cd","addr1qy0093umlhn46dpe8sse8vz96mqlkhvangzql9vgrz7cmwly4fx70as64j7qekw4ee8khun9vk3cvydvdym4dlx4r38svvzu0v","addr1qy2ffdht9q8mc3qyv0hc0gw4yxywck75j84lp749zap9hchy4fx70as64j7qekw4ee8khun9vk3cvydvdym4dlx4r38s49tyaj"],"addressesOutput":["addr1q9y8z7h648a44xj730689kggn0tn05a5h4yagwyt7u7wceu7t09k6klc7gd9cpp6cynstxhu455gj8a0lcw5p6g9e6wqv88a2a","addr1qywwf85pt400ukc4z6zrxdx6kx3fdrtwgaeynnpxf7mz66ly4fx70as64j7qekw4ee8khun9vk3cvydvdym4dlx4r38shcec3c","addr1qywwf85pt400ukc4z6zrxdx6kx3fdrtwgaeynnpxf7mz66ly4fx70as64j7qekw4ee8khun9vk3cvydvdym4dlx4r38shcec3c","addr1qywwf85pt400ukc4z6zrxdx6kx3fdrtwgaeynnpxf7mz66ly4fx70as64j7qekw4ee8khun9vk3cvydvdym4dlx4r38shcec3c","addr1qywwf85pt400ukc4z6zrxdx6kx3fdrtwgaeynnpxf7mz66ly4fx70as64j7qekw4ee8khun9vk3cvydvdym4dlx4r38shcec3c","addr1qywwf85pt400ukc4z6zrxdx6kx3fdrtwgaeynnpxf7mz66ly4fx70as64j7qekw4ee8khun9vk3cvydvdym4dlx4r38shcec3c","addr1qywwf85pt400ukc4z6zrxdx6kx3fdrtwgaeynnpxf7mz66ly4fx70as64j7qekw4ee8khun9vk3cvydvdym4dlx4r38shcec3c"],"fee":450929,"totalOutput":275809781,"tokens":[]}],"totalItems":11965,"totalPages":599,"currentPage":0}