{"data":[{"name":"74544555524f","displayName":"tTEURO","policy":"e68f1cea19752d1292b4be71b7f5d2b3219a15859c028f7454f66cdf","fingerprint":"asset1azw6h7l3zmwrpmuhuny0u3k70hk3qxyjkcq4du","txCount":11081,"supply":"99687000000000000000000","volumeIn24h":"0","totalVolume":"100413000000001000000000","numberOfHolders":1,"createdOn":"2022/12/06 17:30:03"},{"name":"7449534b59","displayName":"tISKY","policy":"fb2b3a629a09014e28d0a54fc06499af12127c79b0bc1c39478da1dd","fingerprint":"asset1xa965epc4j0jzun4uuujrhhvwec7fyscjpxnfa","txCount":139,"supply":"126770116110564324352","volumeIn24h":"0","totalVolume":"703177520422587487696","numberOfHolders":10,"createdOn":"2022/11/19 03:44:22"},{"name":"06b5e33ad456a338e7513cce2b112f33ae70024c0d3b77fabd006dac99cde45d","displayName":"asset1rac84676cqqjrneazqrvqj9nelkm38zzkwcg02","policy":"4d694d886f51c2142af20a97f0dc67d0113aa99762f3f33d7af6c17a","fingerprint":"asset1rac84676cqqjrneazqrvqj9nelkm38zzkwcg02","txCount":168,"supply":"119903836479112084191","volumeIn24h":"36893488147419439420","totalVolume":"304371277216210825639","numberOfHolders":4,"createdOn":"2023/06/06 13:04:36"},{"name":"dbadab0ede1fd6f8e2caa8fa97f42dc4ae86b3d59a211f79193ccc14389fc07c","displayName":"asset168un3d0dmn0ez98a9xg9rwaf5qjdtmn2d582ew","policy":"2405a9c619fa906642da515dea1e4457984d101b19d80a7af6323dc1","fingerprint":"asset168un3d0dmn0ez98a9xg9rwaf5qjdtmn2d582ew","txCount":211,"supply":"27670116110564327421","volumeIn24h":"2961","totalVolume":"27670116110564396088","numberOfHolders":4,"createdOn":"2023/03/23 12:05:46"},{"name":"de0090a310a015b7eda09883c29843eea9e76d3b2052359ca68bf372ed036dd9","displayName":"asset18n63c2p39usl9t5kcw3ree5fjgfxcg9lyl0lvm","policy":"e76d0e9268cb957d404e13425ab78bddbdd25b8d87dc42164e1f486e","fingerprint":"asset18n63c2p39usl9t5kcw3ree5fjgfxcg9lyl0lvm","txCount":247,"supply":"18446744073709551614","volumeIn24h":"1974","totalVolume":"18446744073709609565","numberOfHolders":2,"createdOn":"2023/03/14 12:38:23"},{"name":"f177988534eed34d2fd541953e5eaf7a1592a58d8488eae230a629729ac89dd8","displayName":"asset19v5ux23k4nvjpl06f7mscwqs5umps6hxa6up0q","policy":"2405a9c619fa906642da515dea1e4457984d101b19d80a7af6323dc1","fingerprint":"asset19v5ux23k4nvjpl06f7mscwqs5umps6hxa6up0q","txCount":214,"supply":"18446744073709551614","volumeIn24h":"72212","totalVolume":"36893488147420716239","numberOfHolders":3,"createdOn":"2023/03/24 13:46:24"},{"name":"a1f4032813cf6dd4c668f56c286409e6e18d021361dfd3584af7754b1b242ff1","displayName":"asset135e8j3sa09c9sa2llw9mw4zz88ph8wlgjnfvpl","policy":"2405a9c619fa906642da515dea1e4457984d101b19d80a7af6323dc1","fingerprint":"asset135e8j3sa09c9sa2llw9mw4zz88ph8wlgjnfvpl","txCount":204,"supply":"18446744073709551614","volumeIn24h":"197897","totalVolume":"64563604257987727848","numberOfHolders":4,"createdOn":"2023/03/27 07:04:02"},{"name":"06b5e33ad456a338e7513cce2b112f33ae70024c0d3b77fabd006dac99cde45d","displayName":"asset1z2yh0uzpy07maltarxl8xrgl29vyqerxcn92sd","policy":"2405a9c619fa906642da515dea1e4457984d101b19d80a7af6323dc1","fingerprint":"asset1z2yh0uzpy07maltarxl8xrgl29vyqerxcn92sd","txCount":193,"supply":"18446744073709551614","volumeIn24h":"345716","totalVolume":"110680464442264174898","numberOfHolders":3,"createdOn":"2023/03/29 07:10:55"},{"name":"dbadab0ede1fd6f8e2caa8fa97f42dc4ae86b3d59a211f79193ccc14389fc07c","displayName":"asset12py9skecv6aeqys6zqcv6kj3nlqzwf0rd2kjf0","policy":"4352f4ff9994a12c714f55e05f2706f9f57ff36c91cfadb12de089a8","fingerprint":"asset12py9skecv6aeqys6zqcv6kj3nlqzwf0rd2kjf0","txCount":191,"supply":"18446744073709551614","volumeIn24h":"1974","totalVolume":"18446744073709592786","numberOfHolders":2,"createdOn":"2023/03/21 07:37:11"},{"name":"b4f53036ae55cf43c2c705a1251f5644fa7a62e09cb3275ab98a299d9b593253","displayName":"asset1jnagu86kx0gr5yylmj0xyz3a4qcq5zmnrdm940","policy":"2405a9c619fa906642da515dea1e4457984d101b19d80a7af6323dc1","fingerprint":"asset1jnagu86kx0gr5yylmj0xyz3a4qcq5zmnrdm940","txCount":7,"supply":"18446744073709551614","volumeIn24h":"0","totalVolume":"55340232221128234842","numberOfHolders":4,"createdOn":"2023/03/27 06:48:08"},{"name":"263c7b2b6d64ee3fa32bcf159f72dcd766dde983f06489aaa695de1f2d06981a","displayName":"asset1cstqhgfa5qzww9te2phcv6cu2fm6qjajvfhje0","policy":"2405a9c619fa906642da515dea1e4457984d101b19d80a7af6323dc1","fingerprint":"asset1cstqhgfa5qzww9te2phcv6cu2fm6qjajvfhje0","txCount":205,"supply":"18446744073709551514","volumeIn24h":"184653","totalVolume":"92233720368551546246","numberOfHolders":4,"createdOn":"2023/03/28 05:34:40"},{"name":"0707d0d1ce8e87b300818bb82b96b49175c9226dc8fd5aa7b62ed90a428d7e96","displayName":"asset1s084v0ety0gqqjdwtns9jedvfu9kw244yepqru","policy":"2405a9c619fa906642da515dea1e4457984d101b19d80a7af6323dc1","fingerprint":"asset1s084v0ety0gqqjdwtns9jedvfu9kw244yepqru","txCount":192,"supply":"18446744073709551514","volumeIn24h":"11559688","totalVolume":"73786976295068851450","numberOfHolders":4,"createdOn":"2023/03/28 05:05:30"},{"name":"74657374546f6b656e313964","displayName":"testToken19d","policy":"d14bc12c40521c06f48c96d0ebbe7f1060451b5f1422f217be2d0299","fingerprint":"asset196sepj9jueqs0d2d8z8r7s7sqx0vqtn5vzc2lv","txCount":3,"supply":"13577953573621935726","volumeIn24h":"0","totalVolume":"13577953573621935726","numberOfHolders":3,"createdOn":"2023/03/21 18:14:13"},{"name":"57415350","displayName":"WASP","policy":"0052bf6cd66b13b469813422373d8362918aef39a2607af9fa878719","fingerprint":"asset1afzep9kqy2vyhf5algjygxtkru3ur9dnupjy70","txCount":62,"supply":"12229999999800000040","volumeIn24h":"0","totalVolume":"33229999995900000705","numberOfHolders":3,"createdOn":"2023/03/17 02:33:33"},{"name":"5468697349734f6e6553746172746572546f6b656e466f7254657374696e6734","displayName":"ThisIsOneStarterTokenForTesting4","policy":"0ed672eef8d5d58a6fbce91327baa25636a8ff97af513e3481c97c52","fingerprint":"asset17qdwgqk0exns0m2dx0sj3uk5p8zph86z3w752n","txCount":223,"supply":"9223372036854775807","volumeIn24h":"0","totalVolume":"193695810763077285570","numberOfHolders":28,"createdOn":"2023/01/18 02:48:39"},{"name":"3ce1e53ed3b59fdd30df8da6c4c316aa0709f26ad667c62521202528bd5ea78b","displayName":"asset1xnyf5sjmxd267ucqp4t8hd0204zjtyrk6nrz02","policy":"2405a9c619fa906642da515dea1e4457984d101b19d80a7af6323dc1","fingerprint":"asset1xnyf5sjmxd267ucqp4t8hd0204zjtyrk6nrz02","txCount":217,"supply":"9223372036854775807","volumeIn24h":"139930","totalVolume":"46116860184277207355","numberOfHolders":2,"createdOn":"2023/03/23 12:07:16"},{"name":"5468697349734f6e6553746172746572546f6b656e466f7254657374696e6731","displayName":"ThisIsOneStarterTokenForTesting1","policy":"c34332d539bb554707a2d8826f2057bc628ac433a779c2f43d4a5b5c","fingerprint":"asset1smp2ssjsp3mpa3euwtf4ue8ku5z6j9v7a7kse5","txCount":211,"supply":"9223372036854775807","volumeIn24h":"0","totalVolume":"212137556847699172681","numberOfHolders":36,"createdOn":"2022/12/22 16:48:29"},{"name":"964f50d671c5db4d3e805b511278be431099bf3fc5b21d8cf9b077ca3c0af70a","displayName":"asset14gq5p07r77ale6ss2lhwsdcvkq0hdlseyxr3pp","policy":"2405a9c619fa906642da515dea1e4457984d101b19d80a7af6323dc1","fingerprint":"asset14gq5p07r77ale6ss2lhwsdcvkq0hdlseyxr3pp","txCount":210,"supply":"9223372036854775807","volumeIn24h":"71400","totalVolume":"18446744073711224714","numberOfHolders":2,"createdOn":"2023/03/24 05:51:57"},{"name":"c5b506531c7bd773a06dd9fa71ffeb678798ebc0943706b5a10e73262fee5c19","displayName":"asset1n5yptrkz22l3vcfjcn7mk8uujd5hm4us6k99ea","policy":"2405a9c619fa906642da515dea1e4457984d101b19d80a7af6323dc1","fingerprint":"asset1n5yptrkz22l3vcfjcn7mk8uujd5hm4us6k99ea","txCount":208,"supply":"9223372036854775807","volumeIn24h":"7000","totalVolume":"18446744073709713815","numberOfHolders":3,"createdOn":"2023/03/24 11:46:06"},{"name":"8256e7be58e25a0769825dd95ca8ab6c7b8e7ea1b2734646e10d2af0b146e51e","displayName":"asset1xr50f0f0rgd6ftye0l06wdk945cglq2pxhuuul","policy":"2405a9c619fa906642da515dea1e4457984d101b19d80a7af6323dc1","fingerprint":"asset1xr50f0f0rgd6ftye0l06wdk945cglq2pxhuuul","txCount":207,"supply":"9223372036854775807","volumeIn24h":"99372","totalVolume":"27670116110566613031","numberOfHolders":2,"createdOn":"2023/03/24 07:52:21"}],"totalItems":284551,"totalPages":14228,"currentPage":0}