{"data":[{"txId":28831127,"txHash":"ac617398de2439893bbaf3561a3874552749b7ac1371c25b02ff60a77d09e440","txTime":"2022/01/27 03:18:01","block":6806344,"epoch":317,"slotNo":51687190,"epochSlotNo":106390,"stakeKey":"stake1uypcd0q24887srhdwx04mymsyj4u470m4fypdeqg90aue6gcqk9ca"},{"txId":28831102,"txHash":"5e8d76b9c5c2dbcf0b587a90e15e44faa00ebf32e447db1af7247ecce671a47f","txTime":"2022/01/27 03:18:01","block":6806344,"epoch":317,"slotNo":51687190,"epochSlotNo":106390,"stakeKey":"stake1u9sfntx3peexmh4rse5k0mfv296enmdmtfc33zjpcaukscg8ucjg7"},{"txId":28830994,"txHash":"7e11f8e377f2e14b97a45797df3237d78d98d46afb7e90aa2ab5d5f616864aea","txTime":"2022/01/27 03:16:13","block":6806341,"epoch":317,"slotNo":51687082,"epochSlotNo":106282,"stakeKey":"stake1u9d5r2qzpse4xp8m6atehku7yskvaaffjqse3ynhzaasc7qe3wny7"},{"txId":28830793,"txHash":"937dd62f7ad671aae0712bcfea2c3d0d44c8793d326fc1a5ca860791d6fe8078","txTime":"2022/01/27 03:15:11","block":6806336,"epoch":317,"slotNo":51687020,"epochSlotNo":106220,"stakeKey":"stake1u887ew79fl5r90348wwzfj9jua7r5gvzqjsgsx7fgwfkffs5vw25p"},{"txId":28830574,"txHash":"79385be1660a3541fa4011a6522f241bc831a490a62fc0321ef5862bb831ca9d","txTime":"2022/01/27 03:13:48","block":6806331,"epoch":317,"slotNo":51686937,"epochSlotNo":106137,"stakeKey":"stake1uyksw5896el7s5tusvessscgg7ncjefwgqz0pfpc3d9rhtghfhy4m"},{"txId":28830274,"txHash":"bdbc77f04f49c7f7d371f98fc80a7f58e7feb159a54fb3c2f2c251af5d2becad","txTime":"2022/01/27 03:11:01","block":6806322,"epoch":317,"slotNo":51686770,"epochSlotNo":105970,"stakeKey":"stake1uxf89ml30tvc55s0qukhg3sx0pch6hz8q08yy6c9jlzstlsrvxa48"},{"txId":28830153,"txHash":"fabeaad3eede119e4f813213da56db7f0ea46b260311e5f8e5b292bca91ce6a2","txTime":"2022/01/27 03:10:27","block":6806320,"epoch":317,"slotNo":51686736,"epochSlotNo":105936,"stakeKey":"stake1ux9s70nt3f9e632yycxjluwzu88mcc2u2zqlry8qg6alqxqme4ee6"},{"txId":28830059,"txHash":"cc5b7aee5d29a3a4b5ffaae1f9f5a89ae16aefa38a8412809536fa160bb36786","txTime":"2022/01/27 03:08:20","block":6806317,"epoch":317,"slotNo":51686609,"epochSlotNo":105809,"stakeKey":"stake1uy7jt7pyd3xf0xdnmmrs8w8ggh9glskarqlu8yf47089tvgcnvqnt"},{"txId":28829990,"txHash":"3d49587b718dbd68650bf93f1528a7f2489befd31eb5138c725f062d7d0991cb","txTime":"2022/01/27 03:07:35","block":6806315,"epoch":317,"slotNo":51686564,"epochSlotNo":105764,"stakeKey":"stake1u9a60vksuw64edyqqjdjzjysten02gqp267aglnjew682vg276n6c"},{"txId":28829977,"txHash":"75dfde02130009dce86bdd76d24e471778e21c93a96a7226aa1cb4a169edfa02","txTime":"2022/01/27 03:07:35","block":6806315,"epoch":317,"slotNo":51686564,"epochSlotNo":105764,"stakeKey":"stake1uxzv6kd9224tf8pumq272pewpsd5uyjlgn6yh4t8s46928speczys"},{"txId":28829959,"txHash":"c1906e545ac83a1d842b205895aa7a7aff4f9d93c3fccee7b94435ff20c11dd4","txTime":"2022/01/27 03:07:22","block":6806314,"epoch":317,"slotNo":51686551,"epochSlotNo":105751,"stakeKey":"stake1u9ckd4tgjyx8wfp7lhswcwuetf3rt974gz0txnf79uspnegd0ffmt"},{"txId":28829957,"txHash":"71eecf7fb62947573b21a717681d440bb7afb243326857ddab1a2ce2a06a86ce","txTime":"2022/01/27 03:07:22","block":6806314,"epoch":317,"slotNo":51686551,"epochSlotNo":105751,"stakeKey":"stake1uy4kquskuu2uw2676lpu6tdpr4tjplxr9pfx78juf3u7htsgjcwt5"},{"txId":28829836,"txHash":"ea3f3bd8c214820c9cb870069ef6e9c29e605e2a7fc14c76be3e2f2a46407cc8","txTime":"2022/01/27 03:06:23","block":6806311,"epoch":317,"slotNo":51686492,"epochSlotNo":105692,"stakeKey":"stake1uxrxlseef54x4jq0dw0fpcph9y3z6aajqvvp04tl87ydqfq84pkcm"},{"txId":28829806,"txHash":"4a8a07a292acff0b3d22cbb79236910cf9695a49b49fc4dffdd466bc37ddef65","txTime":"2022/01/27 03:05:15","block":6806310,"epoch":317,"slotNo":51686424,"epochSlotNo":105624,"stakeKey":"stake1uyv9j960rpf7rk8nv6x6jf34ys702veeys4kzf23snqzxuqnlud98"},{"txId":28829728,"txHash":"83826f43cf6b37258976d2cfa0df8a6706717ed69af6819e77c05790f9cd3893","txTime":"2022/01/27 03:03:54","block":6806308,"epoch":317,"slotNo":51686343,"epochSlotNo":105543,"stakeKey":"stake1uydpqr9k7swg8k9vrqxx568dzm5hk3azascs2rjyarjva9sj6lsxf"},{"txId":28829715,"txHash":"8fb2e2ed71e4c787ecb52c8af3f64c595d15c4e2356af0d8f52388c756c92e33","txTime":"2022/01/27 03:03:54","block":6806308,"epoch":317,"slotNo":51686343,"epochSlotNo":105543,"stakeKey":"stake1uxkuykvq76qt2a98u3pmu3jzw320spa62zehmh5932pzeasynfr6e"},{"txId":28829711,"txHash":"40293c10ff71fe107ff921df81a37c7cef1d9a44a7c0b01e8672767ad3bfd0dc","txTime":"2022/01/27 03:03:54","block":6806308,"epoch":317,"slotNo":51686343,"epochSlotNo":105543,"stakeKey":"stake1u8dhaj9qg75xjh8afg0flkt4lu4yf0hey6pgs8t07lff79cu6yqtm"},{"txId":28829478,"txHash":"9f27f0d671850b64e76327ddc5f0b9a29bdfb41d461140158fdb0682a26e0e20","txTime":"2022/01/27 03:02:48","block":6806303,"epoch":317,"slotNo":51686277,"epochSlotNo":105477,"stakeKey":"stake1uxslvaheuda67eenkhp9qmep8psh2yl3tr46wn8c4usfrzqwtazc6"},{"txId":28829383,"txHash":"f899720545893efb60b0c398d12d44138cd350f7c15e5cd91e6d748a631edd71","txTime":"2022/01/27 03:02:10","block":6806300,"epoch":317,"slotNo":51686239,"epochSlotNo":105439,"stakeKey":"stake1u9tw5krqlxk8er2t22f2eyx8rsny8hl8r7kup9q2pdc8zzsxqqaeu"},{"txId":28829374,"txHash":"22c2ea1358810b7f3628e4ef8879dfc1700fa282ffa727f42c68b411fcee1ea6","txTime":"2022/01/27 03:02:10","block":6806300,"epoch":317,"slotNo":51686239,"epochSlotNo":105439,"stakeKey":"stake1uxq830el56ckl5n7d42txzupva3fg8c366zzm22zq0p239sxjtku9"}],"totalItems":1373602,"totalPages":68681,"currentPage":0}