{"data":[{"hash":"906a497dd288a3098c4752db2f480c32ba1dea91b5a5d7cac1c64f1ef90ba871","blockNo":8278048,"blockHash":"b816665170900e70f7aae05534ff3044bb5deeeff8fbf738a2fb07e5286965fc","epochNo":388,"epochSlotNo":65750,"slot":82318550,"time":"2023/01/16 16:00:41","addressesInput":["addr1qx76hnwx8qukkylx5te0em5gf7kgjqadv6x8z406mpyxz6nn3lmaa3wnh8ka8wxllq5f9kpp6spcwum5vvas6xgvuedsh0rgkp","addr1qx76hnwx8qukkylx5te0em5gf7kgjqadv6x8z406mpyxz6nn3lmaa3wnh8ka8wxllq5f9kpp6spcwum5vvas6xgvuedsh0rgkp","addr1qx76hnwx8qukkylx5te0em5gf7kgjqadv6x8z406mpyxz6nn3lmaa3wnh8ka8wxllq5f9kpp6spcwum5vvas6xgvuedsh0rgkp"],"addressesOutput":["addr1wxn9efv2f6w82hagxqtn62ju4m293tqvw0uhmdl64ch8uwc0h43gt","addr1qx76hnwx8qukkylx5te0em5gf7kgjqadv6x8z406mpyxz6nn3lmaa3wnh8ka8wxllq5f9kpp6spcwum5vvas6xgvuedsh0rgkp","addr1qx76hnwx8qukkylx5te0em5gf7kgjqadv6x8z406mpyxz6nn3lmaa3wnh8ka8wxllq5f9kpp6spcwum5vvas6xgvuedsh0rgkp"],"fee":410493,"totalOutput":278088542,"tokens":[]},{"hash":"d51c72bdd02b65bcb6da10bdfb8240345b97a1f9039dde1333475a38b5228933","blockNo":8278034,"blockHash":"960e9e95c2ee89280d7d4d363d1b79a80ac9cacea5623cad055d56b7b703bacf","epochNo":388,"epochSlotNo":65476,"slot":82318276,"time":"2023/01/16 15:56:07","addressesInput":["addr1q80n0fng4c83js888xcfsmtxq4h2hj5hhgy7w2ftlsuqhml6wmvzcun764vwdlan6ctg303ktw5h2ejwv2epgzk6u00q0qykcp","addr1qxzavjgcrqlse89u6p87cqahsepmhyp5sfgvx7tpqcf8n5l6wmvzcun764vwdlan6ctg303ktw5h2ejwv2epgzk6u00qjkxtr5"],"addressesOutput":["addr1q9c80r35zzs6zn7yqahu9edjnzcxnqlau2f3srcvf73ztn06wmvzcun764vwdlan6ctg303ktw5h2ejwv2epgzk6u00qlkde7g","addr1qxzavjgcrqlse89u6p87cqahsepmhyp5sfgvx7tpqcf8n5l6wmvzcun764vwdlan6ctg303ktw5h2ejwv2epgzk6u00qjkxtr5"],"fee":367945,"totalOutput":96908557,"tokens":[]},{"hash":"b402e0de6e73b5b7220c2d5e003aa8322bee351c29b0ac76b7b3ea53d6e7f3e8","blockNo":8277935,"blockHash":"ad9597022c1c8bc8b9ea91b42ad24261e45e88a4b078b9a47607f8a229326dd0","epochNo":388,"epochSlotNo":63530,"slot":82316330,"time":"2023/01/16 15:23:41","addressesInput":["addr1qxzavjgcrqlse89u6p87cqahsepmhyp5sfgvx7tpqcf8n5l6wmvzcun764vwdlan6ctg303ktw5h2ejwv2epgzk6u00qjkxtr5"],"addressesOutput":["addr1vxrez5z4w7699c2tkppqtfc4ds9qknw3v227mu4f6arzgcsy5flpl","addr1q80n0fng4c83js888xcfsmtxq4h2hj5hhgy7w2ftlsuqhml6wmvzcun764vwdlan6ctg303ktw5h2ejwv2epgzk6u00q0qykcp"],"fee":360641,"totalOutput":21392089,"tokens":[]},{"hash":"0a9a2b4360d5589200e04ff276a0732dedd342de918d4b5b73043e1b27059bea","blockNo":8277927,"blockHash":"b839a5d78ca8a2f6e011301e9603943c4b1212153748795943f38268876f9100","epochNo":388,"epochSlotNo":63369,"slot":82316169,"time":"2023/01/16 15:21:00","addressesInput":["addr1qxzavjgcrqlse89u6p87cqahsepmhyp5sfgvx7tpqcf8n5l6wmvzcun764vwdlan6ctg303ktw5h2ejwv2epgzk6u00qjkxtr5","addr1qyp5xjselvez6h3l5m2p8k6569md92hrdy063c9jxkpk3f06wmvzcun764vwdlan6ctg303ktw5h2ejwv2epgzk6u00qetayhm","addr1qxzavjgcrqlse89u6p87cqahsepmhyp5sfgvx7tpqcf8n5l6wmvzcun764vwdlan6ctg303ktw5h2ejwv2epgzk6u00qjkxtr5","addr1qxzavjgcrqlse89u6p87cqahsepmhyp5sfgvx7tpqcf8n5l6wmvzcun764vwdlan6ctg303ktw5h2ejwv2epgzk6u00qjkxtr5","addr1qxzavjgcrqlse89u6p87cqahsepmhyp5sfgvx7tpqcf8n5l6wmvzcun764vwdlan6ctg303ktw5h2ejwv2epgzk6u00qjkxtr5","addr1qxgqz7d26ntxwuv3cc2zktkfg7ryjwlpfv8euuyjgfq6fxh6wmvzcun764vwdlan6ctg303ktw5h2ejwv2epgzk6u00q6p0tgp","addr1qxzavjgcrqlse89u6p87cqahsepmhyp5sfgvx7tpqcf8n5l6wmvzcun764vwdlan6ctg303ktw5h2ejwv2epgzk6u00qjkxtr5","addr1qxzavjgcrqlse89u6p87cqahsepmhyp5sfgvx7tpqcf8n5l6wmvzcun764vwdlan6ctg303ktw5h2ejwv2epgzk6u00qjkxtr5","addr1qxzavjgcrqlse89u6p87cqahsepmhyp5sfgvx7tpqcf8n5l6wmvzcun764vwdlan6ctg303ktw5h2ejwv2epgzk6u00qjkxtr5","addr1qxzavjgcrqlse89u6p87cqahsepmhyp5sfgvx7tpqcf8n5l6wmvzcun764vwdlan6ctg303ktw5h2ejwv2epgzk6u00qjkxtr5"],"addressesOutput":["addr1qxzavjgcrqlse89u6p87cqahsepmhyp5sfgvx7tpqcf8n5l6wmvzcun764vwdlan6ctg303ktw5h2ejwv2epgzk6u00qjkxtr5","addr1qxzavjgcrqlse89u6p87cqahsepmhyp5sfgvx7tpqcf8n5l6wmvzcun764vwdlan6ctg303ktw5h2ejwv2epgzk6u00qjkxtr5","addr1qxzavjgcrqlse89u6p87cqahsepmhyp5sfgvx7tpqcf8n5l6wmvzcun764vwdlan6ctg303ktw5h2ejwv2epgzk6u00qjkxtr5","addr1qxzavjgcrqlse89u6p87cqahsepmhyp5sfgvx7tpqcf8n5l6wmvzcun764vwdlan6ctg303ktw5h2ejwv2epgzk6u00qjkxtr5"],"fee":661293,"totalOutput":130802913,"tokens":[]},{"hash":"369a9cde322d20ec7b129cd5aa2ac6049282d6d9a1c12a159fdb841ae5fc2385","blockNo":8277861,"blockHash":"df50a2881a0134af494d65b379dc93598dcb43ac597feaa28fa974514e7f282d","epochNo":388,"epochSlotNo":61673,"slot":82314473,"time":"2023/01/16 14:52:44","addressesInput":["addr1q92tjep7fpmm6t6vsg9s4gc33sj506qyfht3ajflyd408hhy4fx70as64j7qekw4ee8khun9vk3cvydvdym4dlx4r38swzyssq","addr1q896raajajkh5hnetr2fcjgn5kvanx6c3sjfc2s2c39sf88y4fx70as64j7qekw4ee8khun9vk3cvydvdym4dlx4r38sce3s8p"],"addressesOutput":["addr1zyq0kyrml023kwjk8zr86d5gaxrt5w8lxnah8r6m6s4jp4g3r6dxnzml343sx8jweqn4vn3fz2kj8kgu9czghx0jrsyqqktyhv","addr1q9ad5mud938r7l24eaac4v57ydlj72hazgprts9f7daaz09mm95jvs5h94099yglxr7v6ug6pp43780huy040lm4utmqx8g5eu","addr1q896raajajkh5hnetr2fcjgn5kvanx6c3sjfc2s2c39sf88y4fx70as64j7qekw4ee8khun9vk3cvydvdym4dlx4r38sce3s8p","addr1q896raajajkh5hnetr2fcjgn5kvanx6c3sjfc2s2c39sf88y4fx70as64j7qekw4ee8khun9vk3cvydvdym4dlx4r38sce3s8p"],"fee":439970,"totalOutput":95516373,"tokens":[]},{"hash":"e2aba780efe3258f4185b171555137faecc45bd19792bcf581cff301228f77fb","blockNo":8277824,"blockHash":"fd24ad3eb5b39ad9f21518c4fe57f33d00ebf71bfac13481c3742eaeb068d71c","epochNo":388,"epochSlotNo":60852,"slot":82313652,"time":"2023/01/16 14:39:03","addressesInput":["DdzFFzCqrhss4JatWzPagH3A4UgUfif9DfLWm3P7RNfWbfxRn4Ci8scZDopzohpSkVTTAeU3VrsAhE9vMtGDLbdERvvpywKrU4xAUBMz"],"addressesOutput":["addr1q9atjfpqwdtg7ytz0pz9zcaqvx8zr2uv6ysvc4csqynr683dzefudzxhadht99nh8gv4l3z93d486ygllgxuh2drrrpsdw6fws","DdzFFzCqrht4LiisFSMQBhECkQp44HHgJDS6R4XpGwUQYuchL3gZXM6U6ggM2vjrfCnzPtDtQccfH51sHJNSbCsccaTqt5zLJRAqePuA"],"fee":362401,"totalOutput":1885778318,"tokens":[]},{"hash":"85b970729941206d7223cb0d744125368d30e79bf3725bad47dbfad12772c254","blockNo":8277811,"blockHash":"ee7fd1290891925f229dfaa2bcabd1c7123339c9a44d645fedb1f868c52320a5","epochNo":388,"epochSlotNo":60586,"slot":82313386,"time":"2023/01/16 14:34:37","addressesInput":["DdzFFzCqrhsuYZBpoqsBfeQBFFV9asfHtcZsqhgLPtFdS9VsSs4qwT3gjVFdqcpasz4VmGFid2DbNiPJnPXDbavj11FdBvqAushbSMdG","DdzFFzCqrht2aUf3HGzaCE5b7BYtSxhg2pARxjmqVcxmXjLjgfQFRnQKYWYDKKv3U5z9jgU3qeWWHvWZVYx1bSWKHgnY2drCbe99EV9p","DdzFFzCqrht8KhfhfxcQKnQGtJH1uM9DEHyMr56CXkuifYWggFK7KU39X9khRy4DNewm2EophTjFdBzB9EDPFNxbvb3743e1mnwG7a9G","DdzFFzCqrht6Zn7MLuCvGvyVcpZzQSqdUVfKwyovW6pDbEfQniR8ytnevNWdezgRhEcn8cCxZwZSm6UXNxJFy8Eru5aFYxxEkUFGT7pq","DdzFFzCqrht1QLjJ8MGZM1aprRaVfpiV88ei761ztWrbYQSPL29TGCxFMQEBNXtPe47mar8oU2mTMfhb6mZvEzRhZNMmpbgqA2csPQaf","DdzFFzCqrht9HsfKgZaNHNb7XzT6CvgGgqwgRBXxQ9nrJvWJYch4Xv9pBACxWuvkipuSfajamze2RAdqTy9L2dxgf6HoR6fLF9gPoREM","DdzFFzCqrhsnsRFJffZkKsecXdCpjyDoqRHHrnhmt59s72B8qp5rALxsqx8QLoRr7Z6GCFy31NaPtaCHzer5PyDwtx8hz8iAWYhfwbkk","DdzFFzCqrhsyinRmEnNezUhq453nV6hHmYNiBRu9m6Rcx59xaXk1Rkw6CbgHzm1ykwamgTbvz7dwVW4SB3uxszJEmR4hY4tEVEmRn54M","DdzFFzCqrht6Dguzq2ikqxHo33WgjSpizXExk9qjzrajrFqd2K1BDYsrCk4fYme1it4NDgt6JXfsAAobibwHhA2tfTTF8kL5DfQxieBo","DdzFFzCqrhsgfWCwv8MEyYwbB4HdaSxdXTX4r6DXPM8yN5hACnyzdR8D8m1XyRDBooDqsc6mLL1xQVQVD18TAmv3gyCSN9ZDySCQqDGy","DdzFFzCqrhspQhWhp64BV8keHQqX8561Xe9n9hBrciCwg9zZDMnH6zLrYTnyMi7r93uPZkJp4KMWk1wuGFrkvzvWstbCWQdPMfpwMggi","DdzFFzCqrhst4Yg5kTrEzpDMSFPceUZ8TwbBHpXyBTUMAyNxDuVyK6mxC5nPsgV3yvWVFhctUsDoifmf2DNH1qLaXYHxbLS4svLqy78V","DdzFFzCqrhshDKyi7CknLFxf9dvnzVzGPEweaAhtyHjd6XgsQvj2YfyWf6K5Ej78EA9FUgHiqz9gZCQ9d2D2boa7SYynifTEcPHz7sWf","DdzFFzCqrhtAB8PGbEB1MdSvCEZySHXFychiFC7i59DCuParYhXbhNnERE7jtkUFWim2fm2mMzC4yFVEN4ngxMm1aXrr9ibk57akatgY","DdzFFzCqrhsnpYzXgqnUe9W1tDyH9RsAGQJJK8f1aZUaA1jGYWm6PoBZ47AJBQHhZ4RGVrHjVH3nHnPmYDQsQoThN4ABkeSrQCQcmxPh","DdzFFzCqrhsh5TL3SsYVG7jSk7as3E2meRMKyaaRyrBKBvs8WkaUXYwTCVysSrsBk16gCFNteK1c1nkvaRAtqrbCUiSb96bAT5KKpnLi","DdzFFzCqrht8UASxuX1w2YZ6cHkvLqBFurg717LKDja8ZoiCm6AxuFYxzVfcMxuCs3qvXcDt9N6zPHEPvWg64ZPE4AboEMbk8SaBb18r"],"addressesOutput":["addr1q9atjfpqwdtg7ytz0pz9zcaqvx8zr2uv6ysvc4csqynr683dzefudzxhadht99nh8gv4l3z93d486ygllgxuh2drrrpsdw6fws","DdzFFzCqrhss4JatWzPagH3A4UgUfif9DfLWm3P7RNfWbfxRn4Ci8scZDopzohpSkVTTAeU3VrsAhE9vMtGDLbdERvvpywKrU4xAUBMz","DdzFFzCqrhsvmJiDN6zpbKEKCJiv2HNEzvvDXJ4t2HZ4aAb48HcznMS9DJv1be8HhzELxtgqU7ykSr5wwfxCMF1UafCWf8TbxjGThBE5","DdzFFzCqrhsn3fBQGMQj5DRSVYN5VZsB6M6grFXCc232HHbmAYG182U9BzXpE4VT9kqgr9oeixvqLDJUBs6sbjQGhf4M7hhLtTRou4ig","DdzFFzCqrhszvjyxkQp2g9fcJTrjvXH1BSWc8c7KHgqhQfGfjvKRRXWvJQDxwfsFCafc5XUjFRoKM5CxwYTvBfmCXzsmNJibpXxCetGL"],"fee":1069921,"totalOutput":57550394304,"tokens":[]},{"hash":"1396347e570476b1e4ae2f7c8dc5b4099739371ab8ecc9f264f3ce6d445ac0e1","blockNo":8277810,"blockHash":"26b2f0d4ab2be82aec31a16ad5b44286a034a81e105ff531a24863dba207147d","epochNo":388,"epochSlotNo":60553,"slot":82313353,"time":"2023/01/16 14:34:04","addressesInput":["DdzFFzCqrhsxVTa3Wid9BSBBjwEeE1Mb5t5jDZt6JAYTPwrXH3XFFQJH2daCWKsnhCGs8KeEgghhhHffNhQDnjBR4HzHFq6WJxrRwSQz"],"addressesOutput":["addr1q9atjfpqwdtg7ytz0pz9zcaqvx8zr2uv6ysvc4csqynr683dzefudzxhadht99nh8gv4l3z93d486ygllgxuh2drrrpsdw6fws","DdzFFzCqrht2aUf3HGzaCE5b7BYtSxhg2pARxjmqVcxmXjLjgfQFRnQKYWYDKKv3U5z9jgU3qeWWHvWZVYx1bSWKHgnY2drCbe99EV9p"],"fee":362401,"totalOutput":1978532382,"tokens":[]},{"hash":"c4c2c1786891dca7d01aa9845479fd9f645ff277e88fbdde14f75c142942fe12","blockNo":8277796,"blockHash":"21e240e232037a2aabe5df79e529467f745cf61f276926a3cc4e52812c1e3f6e","epochNo":388,"epochSlotNo":60296,"slot":82313096,"time":"2023/01/16 14:29:47","addressesInput":["addr1q896raajajkh5hnetr2fcjgn5kvanx6c3sjfc2s2c39sf88y4fx70as64j7qekw4ee8khun9vk3cvydvdym4dlx4r38sce3s8p","addr1q8taj4mfrzftpau8wqj9admd3xh29dk90p6qymcw6pc98wly4fx70as64j7qekw4ee8khun9vk3cvydvdym4dlx4r38szjtc7k","addr1qy4dg3mfxrattf56tyqcerpdlv0s3tax88htngl8n9vffu0y4fx70as64j7qekw4ee8khun9vk3cvydvdym4dlx4r38sha6gpw","addr1q896raajajkh5hnetr2fcjgn5kvanx6c3sjfc2s2c39sf88y4fx70as64j7qekw4ee8khun9vk3cvydvdym4dlx4r38sce3s8p","addr1qywwf85pt400ukc4z6zrxdx6kx3fdrtwgaeynnpxf7mz66ly4fx70as64j7qekw4ee8khun9vk3cvydvdym4dlx4r38shcec3c","addr1q896raajajkh5hnetr2fcjgn5kvanx6c3sjfc2s2c39sf88y4fx70as64j7qekw4ee8khun9vk3cvydvdym4dlx4r38sce3s8p","addr1q896raajajkh5hnetr2fcjgn5kvanx6c3sjfc2s2c39sf88y4fx70as64j7qekw4ee8khun9vk3cvydvdym4dlx4r38sce3s8p","addr1q896raajajkh5hnetr2fcjgn5kvanx6c3sjfc2s2c39sf88y4fx70as64j7qekw4ee8khun9vk3cvydvdym4dlx4r38sce3s8p","addr1q896raajajkh5hnetr2fcjgn5kvanx6c3sjfc2s2c39sf88y4fx70as64j7qekw4ee8khun9vk3cvydvdym4dlx4r38sce3s8p","addr1q896raajajkh5hnetr2fcjgn5kvanx6c3sjfc2s2c39sf88y4fx70as64j7qekw4ee8khun9vk3cvydvdym4dlx4r38sce3s8p","addr1q896raajajkh5hnetr2fcjgn5kvanx6c3sjfc2s2c39sf88y4fx70as64j7qekw4ee8khun9vk3cvydvdym4dlx4r38sce3s8p","addr1qxrmevcnlv36vcxwh6aksu9cka95hk4nr5mkp5ckwxx2kaly4fx70as64j7qekw4ee8khun9vk3cvydvdym4dlx4r38sqqgjez","addr1qyfr9uktzevew9sdfkpdsyy5ksjvcku3c5g066ju75nkjq0y4fx70as64j7qekw4ee8khun9vk3cvydvdym4dlx4r38sq636eu","addr1q896raajajkh5hnetr2fcjgn5kvanx6c3sjfc2s2c39sf88y4fx70as64j7qekw4ee8khun9vk3cvydvdym4dlx4r38sce3s8p"],"addressesOutput":["addr1q9ad5mud938r7l24eaac4v57ydlj72hazgprts9f7daaz09mm95jvs5h94099yglxr7v6ug6pp43780huy040lm4utmqx8g5eu","addr1wxr2a8htmzuhj39y2gq7ftkpxv98y2g67tg8zezthgq4jkg0a4ul4","addr1q896raajajkh5hnetr2fcjgn5kvanx6c3sjfc2s2c39sf88y4fx70as64j7qekw4ee8khun9vk3cvydvdym4dlx4r38sce3s8p"],"fee":443446,"totalOutput":269906350,"tokens":[]},{"hash":"cb5d1c70553aae797f5971c231670784f6f971a274150d6dbb0d1db52c8b839a","blockNo":8277781,"blockHash":"5df430a72180b85c2e25963a4ddbab93554b758efab0bb309efaca9602ea63bf","epochNo":388,"epochSlotNo":60039,"slot":82312839,"time":"2023/01/16 14:25:30","addressesInput":["DdzFFzCqrhst32B9xBCU1q44fFLiRN6Su9PYUKv4PhLNPH8S453ZGj7Qb5dR4HSZ6T2DuF8YpvkyFciK5BgAewPp3NXCbSE8RizRh6hN"],"addressesOutput":["addr1q9atjfpqwdtg7ytz0pz9zcaqvx8zr2uv6ysvc4csqynr683dzefudzxhadht99nh8gv4l3z93d486ygllgxuh2drrrpsdw6fws","DdzFFzCqrhsxVTa3Wid9BSBBjwEeE1Mb5t5jDZt6JAYTPwrXH3XFFQJH2daCWKsnhCGs8KeEgghhhHffNhQDnjBR4HzHFq6WJxrRwSQz"],"fee":362401,"totalOutput":1980144683,"tokens":[]},{"hash":"a131f082b662e69c497b0ed7ba6d55e52cd5aa7622ca3e5693a586b33e0aac7d","blockNo":8277755,"blockHash":"5b8ffb3b47b23bb1cb2f34c6b07e00f780c8318c4685143f57041f8eb600dde8","epochNo":388,"epochSlotNo":59673,"slot":82312473,"time":"2023/01/16 14:19:24","addressesInput":["DdzFFzCqrhsyxYKoMkvBdAzWo4taz3MfpPm8FEqbc8Tyf2B5nVi7dmLG6k81LGmq1SX5dqPd4fQVNhBZtVXDV8C8iy2BQqCEt2ncv4cE"],"addressesOutput":["addr1q9atjfpqwdtg7ytz0pz9zcaqvx8zr2uv6ysvc4csqynr683dzefudzxhadht99nh8gv4l3z93d486ygllgxuh2drrrpsdw6fws","DdzFFzCqrhst32B9xBCU1q44fFLiRN6Su9PYUKv4PhLNPH8S453ZGj7Qb5dR4HSZ6T2DuF8YpvkyFciK5BgAewPp3NXCbSE8RizRh6hN"],"fee":362401,"totalOutput":1981756984,"tokens":[]},{"hash":"9cb70d0d2ee1c6537d29305d189d0b0efb6ddf9de41643527b674afb3ddb1143","blockNo":8277745,"blockHash":"56e5ac7f532ddb581b5b3c70a6ecc397b32cf95596fcfcfe6c556c8704b8a26c","epochNo":388,"epochSlotNo":59376,"slot":82312176,"time":"2023/01/16 14:14:27","addressesInput":["DdzFFzCqrhsxYvqiYGb6vi5J7LmT9y25AT1rxwT9J5AEdWn6cPDxGQdaQqRyQSDKp3vJLVTZSCjs9TqLBckh7KyZdXto2K3o4vCawqbe"],"addressesOutput":["addr1q9atjfpqwdtg7ytz0pz9zcaqvx8zr2uv6ysvc4csqynr683dzefudzxhadht99nh8gv4l3z93d486ygllgxuh2drrrpsdw6fws","DdzFFzCqrhsyxYKoMkvBdAzWo4taz3MfpPm8FEqbc8Tyf2B5nVi7dmLG6k81LGmq1SX5dqPd4fQVNhBZtVXDV8C8iy2BQqCEt2ncv4cE"],"fee":362401,"totalOutput":1983369285,"tokens":[]},{"hash":"3d7b48bde304d5a2a4bcb1b496ba09bbbec457d02107c07c5650f4ded79b40a8","blockNo":8277717,"blockHash":"5985ee0b152065d9769ef8c9923e6b1539647cc7308132e624dfe1ec717c46da","epochNo":388,"epochSlotNo":58865,"slot":82311665,"time":"2023/01/16 14:05:56","addressesInput":["DdzFFzCqrhss6AdabgvSBQqMrKJPKSWznCRY8oFi38j5QbshKUqKyNgkgh87pDz9eRog4v9kpqxNicEhvNM8org2vNDc3hwHuQ1k3YFq"],"addressesOutput":["addr1q9atjfpqwdtg7ytz0pz9zcaqvx8zr2uv6ysvc4csqynr683dzefudzxhadht99nh8gv4l3z93d486ygllgxuh2drrrpsdw6fws","DdzFFzCqrhsxYvqiYGb6vi5J7LmT9y25AT1rxwT9J5AEdWn6cPDxGQdaQqRyQSDKp3vJLVTZSCjs9TqLBckh7KyZdXto2K3o4vCawqbe"],"fee":362401,"totalOutput":1984981586,"tokens":[]},{"hash":"9a55a8a534bcde5eaee48853cd3f5561296a4a1f8f34c08dcac620c8abce40a2","blockNo":8277695,"blockHash":"994034bb4aeb13734f881f744cb4acefe93b875bae1894609867dc5ef84c34b7","epochNo":388,"epochSlotNo":58385,"slot":82311185,"time":"2023/01/16 13:57:56","addressesInput":["DdzFFzCqrht86Zoyr28SMSBMHcg5ovdPn1hQvW1Qap9UnXUzEqKf14JvQZQGRVfJgc4ptkw7W4ZaHckfMtf26DUKvVUULKEuotzeS5e2"],"addressesOutput":["addr1q9atjfpqwdtg7ytz0pz9zcaqvx8zr2uv6ysvc4csqynr683dzefudzxhadht99nh8gv4l3z93d486ygllgxuh2drrrpsdw6fws","DdzFFzCqrhss6AdabgvSBQqMrKJPKSWznCRY8oFi38j5QbshKUqKyNgkgh87pDz9eRog4v9kpqxNicEhvNM8org2vNDc3hwHuQ1k3YFq"],"fee":362401,"totalOutput":1986593887,"tokens":[]},{"hash":"9bbf66ccad91df5b6b543d946bf56b07649ed0b64fab7c32573aa17198ac68d8","blockNo":8277689,"blockHash":"282d46155950d49bac238769718580124b93b41c6504ab073c6941ac06ac812e","epochNo":388,"epochSlotNo":58200,"slot":82311000,"time":"2023/01/16 13:54:51","addressesInput":["DdzFFzCqrhsskxY5xW1csVnpFwaTN84j6qbKoxgBnhJyKgMRKJqtZq42EiWMAPPbQ3W914qVUd6KtwCCjB2ph6hPijA3rg3mAJRyxrz2"],"addressesOutput":["addr1q9atjfpqwdtg7ytz0pz9zcaqvx8zr2uv6ysvc4csqynr683dzefudzxhadht99nh8gv4l3z93d486ygllgxuh2drrrpsdw6fws","DdzFFzCqrht86Zoyr28SMSBMHcg5ovdPn1hQvW1Qap9UnXUzEqKf14JvQZQGRVfJgc4ptkw7W4ZaHckfMtf26DUKvVUULKEuotzeS5e2"],"fee":362401,"totalOutput":1988206188,"tokens":[]},{"hash":"95aa4db62eac7b51444373d6ac584dd006a82d6a86121719986a20e458727343","blockNo":8277675,"blockHash":"a6bbd4be4ee1dda20380e75b4faf81617e5c62429391df112d7cfa1f71862dbc","epochNo":388,"epochSlotNo":57812,"slot":82310612,"time":"2023/01/16 13:48:23","addressesInput":["DdzFFzCqrhst5xvC9PQvpWkJegufXv1CWjLnZsRBqpz6Jkqo56HRqJsx4YpXz11NAWLyWNuE163SvLmrkJLRiRmMVqaSt5ab1WjsnQbP"],"addressesOutput":["addr1q9atjfpqwdtg7ytz0pz9zcaqvx8zr2uv6ysvc4csqynr683dzefudzxhadht99nh8gv4l3z93d486ygllgxuh2drrrpsdw6fws","DdzFFzCqrhsskxY5xW1csVnpFwaTN84j6qbKoxgBnhJyKgMRKJqtZq42EiWMAPPbQ3W914qVUd6KtwCCjB2ph6hPijA3rg3mAJRyxrz2"],"fee":362401,"totalOutput":1989818489,"tokens":[]},{"hash":"12c2304d98cb5f73cdfa930843798aecde723f6820e971aff2d38a455476104d","blockNo":8277660,"blockHash":"cfd18e09e4e588633813da993a047ee1b3dbfd3c9818e38f16a0c55f616ac31e","epochNo":388,"epochSlotNo":57462,"slot":82310262,"time":"2023/01/16 13:42:33","addressesInput":["DdzFFzCqrhtDE3cZJVjMSVLi3P18hLTTSecwEjSrjNCvH9efsGErEomUVt4sBHGNp4GUDCUwPTnkthk2CNHqa4CNCsMRREYYRZVr1qsa"],"addressesOutput":["addr1q9atjfpqwdtg7ytz0pz9zcaqvx8zr2uv6ysvc4csqynr683dzefudzxhadht99nh8gv4l3z93d486ygllgxuh2drrrpsdw6fws","DdzFFzCqrhst5xvC9PQvpWkJegufXv1CWjLnZsRBqpz6Jkqo56HRqJsx4YpXz11NAWLyWNuE163SvLmrkJLRiRmMVqaSt5ab1WjsnQbP"],"fee":362401,"totalOutput":1991430790,"tokens":[]},{"hash":"f7661f66d52278a5c50b5e04ade8c8e7a259963e0769e4d6e12af3d21df5f9d5","blockNo":8277651,"blockHash":"120914891013d7b0b88819799505177c70067e2b51156ca7f07836f05d672043","epochNo":388,"epochSlotNo":57240,"slot":82310040,"time":"2023/01/16 13:38:51","addressesInput":["DdzFFzCqrht3WCGCvumEsd84vqzHPCY755B6QZK688Ly6pvhUa2RHaDYbka6kwLczAPMCAmcvm7QMCLGQkA3szLBS3XdXSuuo7bQ9q8u"],"addressesOutput":["addr1q9atjfpqwdtg7ytz0pz9zcaqvx8zr2uv6ysvc4csqynr683dzefudzxhadht99nh8gv4l3z93d486ygllgxuh2drrrpsdw6fws","DdzFFzCqrhtDE3cZJVjMSVLi3P18hLTTSecwEjSrjNCvH9efsGErEomUVt4sBHGNp4GUDCUwPTnkthk2CNHqa4CNCsMRREYYRZVr1qsa"],"fee":362401,"totalOutput":1993043091,"tokens":[]},{"hash":"5a64deed29a493cfe66c842b70bf26e172cc88d00ffeda9aedc4578977737a0f","blockNo":8277628,"blockHash":"f0235008d9308ac81607fbeb4212b5039d8d3bf470254f20748838923f073641","epochNo":388,"epochSlotNo":56776,"slot":82309576,"time":"2023/01/16 13:31:07","addressesInput":["DdzFFzCqrhsvbuTRxkfi1xeUubw86PQyTuBs8rZbmcpNcrQtkRQgeUSSBBzh1TzqAsDuopGKkqcnrYFWYfuBs1Qy4Wsge6q7SzxV8UJd","DdzFFzCqrht4zwowAesBAYXDQ68HrUEGWqJu8X9xJsEk5PEZGq6wdVpR67Zbxd7GCZqvLgAYQzafLZqgDYVUWwue6HpkQ3aRfqAvS5BB","DdzFFzCqrhsuVCBSfoAZSfvDkQSZmwNjp93qdkY1BrngQfvrMi4JPuwX1zijtapUXhbMzGYStR4Huf5BBPUyMKGGStsatoiKWTpLdCvC","DdzFFzCqrhtA7jrtWeyUw7nnbwC9FXG5qCUL2qSfcfVyZgBGiSUeyKyVmUbpT9CgKMQgKYAVANdJRxUxm8nq1RB6CHPfsP86kPbomd1W","DdzFFzCqrhsr6dzCVSK6i8iCyggMrtaSJDjDGy95nt1Xj6xe9vTrDzM48xSygh1N3ripnM5HpFHg3xEcm1S6Ra32Kz4DpEXZbL2UNtwr","DdzFFzCqrht79QrMt7e675bLf28CYmEznU63ynTP4DWfynz5EXvt1B4vjckgWuSoABetme3H2LSzrkuR6q12uqSqz7Sjo6niKPCq9Scd","DdzFFzCqrhssVxgRRoV2kbwNNiMJfvp3oNYgAsupxw5qtazZKiFV7KTJi8MaFwuZogbENWGm5cpC1XF1Np4f4AHPvSNs3qMJaEsVGFN8"],"addressesOutput":["addr1q9atjfpqwdtg7ytz0pz9zcaqvx8zr2uv6ysvc4csqynr683dzefudzxhadht99nh8gv4l3z93d486ygllgxuh2drrrpsdw6fws","DdzFFzCqrht3WCGCvumEsd84vqzHPCY755B6QZK688Ly6pvhUa2RHaDYbka6kwLczAPMCAmcvm7QMCLGQkA3szLBS3XdXSuuo7bQ9q8u","DdzFFzCqrhspQhWhp64BV8keHQqX8561Xe9n9hBrciCwg9zZDMnH6zLrYTnyMi7r93uPZkJp4KMWk1wuGFrkvzvWstbCWQdPMfpwMggi","DdzFFzCqrhsh5TL3SsYVG7jSk7as3E2meRMKyaaRyrBKBvs8WkaUXYwTCVysSrsBk16gCFNteK1c1nkvaRAtqrbCUiSb96bAT5KKpnLi","DdzFFzCqrht6Zn7MLuCvGvyVcpZzQSqdUVfKwyovW6pDbEfQniR8ytnevNWdezgRhEcn8cCxZwZSm6UXNxJFy8Eru5aFYxxEkUFGT7pq"],"fee":973121,"totalOutput":57979453395,"tokens":[]},{"hash":"b64877cc2a4886aeb8706c71057b4522241cdae835e4b3d5b92c4c9784dbcf37","blockNo":8277605,"blockHash":"56f1a30c61f432e5bb7bcacda7b1cb36bcae2da3da47da21fe808886357dd135","epochNo":388,"epochSlotNo":56417,"slot":82309217,"time":"2023/01/16 13:25:08","addressesInput":["DdzFFzCqrhsfZDBojHYZdDfoadb7UKyyQWgg25cXobmx2hXRtHak8JUE85P55Wwxd7fk5pbikirPMF4jDpBbKDxcYsNhWcw5aYpPfKg8","DdzFFzCqrhsf6adUVmvr7xM6ZjXbeWVe5k4CoE5MVGHg5faPu3xTdALYDDiKqm3CUMzEZuTFfrWiaKTqv1WHmjgDn6aSiYYW1EUpvt45","DdzFFzCqrhtBaB8AXMe5nzxuHUh9qxCVQphcgzrRutT4qRWXM8DwfjJkUZ9Eadz1QaPwPSL2th9ms2xzFS2qxU1dAKEuC7ma91VCy3rQ","DdzFFzCqrhsf7j7BZ9YZtjKM8wQrCJmgmFQ47DCZJWKtEFBgqgzuE9eCaRwrifGS4BrCzDbzhYDZfBYD1fcBJgjkbRT1ZqwQmXXGrXii","DdzFFzCqrhtBMciFma5ggtaN12WxXPMCUNyH7XHN4T2MECbhbbEmoWuedeKPqi3uBxtKwT4yGjSty1EQWfphuQeTWLAjWtYjZwtejxVJ","DdzFFzCqrhsev8ABdvpAcVJ99FsWsnM3Mu2eNVaJrY2bEnciRJGmR1KAXSCCNbEkrsKhoyMgLbzyVkT95XocvbqnWLdtokPGiUmcmZVe","DdzFFzCqrhstLJPssTpXZx8qsNa83fZeYJUiM3PWRvCUBGwMYP5HrU5WEn8GRxJ7hkNK7axFbyh23ESE74iPxAnKNZfmt6RrgmdZ9Fnh","DdzFFzCqrhsuFzAoZeiCZKTZ1SzEok3ja1BUX9vUwGjx4HtR7JBh9LrerkkRBFjumm2bHDHRNP7n6rFjGmQTB367f26evyJkfCxpGxkU","DdzFFzCqrhszmYC21sJ8QjiKBXKZxaXpuKv7Q9Bn65kaTGnWZtrPdVLiwvpBWZvpQSpJA2TCkVY6Ms4918sK5mZoGg3f2MRso6ciVJig","DdzFFzCqrhsvBXgApWkXagV1k5qbK82CKb9BP5RsXXbTD7f7538ftmWPb9U7eZGjdbYFq4pfvsuEjyvro8JEvTt5zRTQXTmWoDDq5XgG"],"addressesOutput":["addr1q9atjfpqwdtg7ytz0pz9zcaqvx8zr2uv6ysvc4csqynr683dzefudzxhadht99nh8gv4l3z93d486ygllgxuh2drrrpsdw6fws","DdzFFzCqrht79QrMt7e675bLf28CYmEznU63ynTP4DWfynz5EXvt1B4vjckgWuSoABetme3H2LSzrkuR6q12uqSqz7Sjo6niKPCq9Scd","DdzFFzCqrhtA7jrtWeyUw7nnbwC9FXG5qCUL2qSfcfVyZgBGiSUeyKyVmUbpT9CgKMQgKYAVANdJRxUxm8nq1RB6CHPfsP86kPbomd1W","DdzFFzCqrht4zwowAesBAYXDQ68HrUEGWqJu8X9xJsEk5PEZGq6wdVpR67Zbxd7GCZqvLgAYQzafLZqgDYVUWwue6HpkQ3aRfqAvS5BB","DdzFFzCqrhssVxgRRoV2kbwNNiMJfvp3oNYgAsupxw5qtazZKiFV7KTJi8MaFwuZogbENWGm5cpC1XF1Np4f4AHPvSNs3qMJaEsVGFN8"],"fee":1002161,"totalOutput":99098787007,"tokens":[]}],"totalItems":13012,"totalPages":651,"currentPage":0}