{"data":[{"blockNo":8106954,"slotNo":78809818,"epochNo":380,"epochSlotNo":13018,"hash":"c5e704dcd0909c6db9a00999e66950c3374ac20de758b72d23f5a976c35392e6","time":"2022/12/07 01:21:49","txCount":20,"totalFees":6215136,"totalOutput":17827265935559,"slotLeader":"07cc67445f419f643158cfdf3d0a3dd12507b8e81b961a19d3e9d3b5"},{"blockNo":8106953,"slotNo":78809801,"epochNo":380,"epochSlotNo":13001,"hash":"7cfa5d8812dac754ba8b724f5daef1272e3d2aef7f60a0cd2b9bb0b878dbba6c","time":"2022/12/07 01:21:32","txCount":3,"totalFees":592599,"totalOutput":2002388855362,"slotLeader":"58494275c20e5786646ccc1f7d19a4c190382f374b0762208d596580"},{"blockNo":8106952,"slotNo":78809796,"epochNo":380,"epochSlotNo":12996,"hash":"7e227fc67280ff732ebe69d01ba87a2aa49317cce6f67e2b8336fc16c2797b7d","time":"2022/12/07 01:21:27","txCount":30,"totalFees":8860434,"totalOutput":17429553708536,"slotLeader":"a7784228ea544bc94455e76f527aaee53266929f0bb2896893a0444f"},{"blockNo":8106951,"slotNo":78809772,"epochNo":380,"epochSlotNo":12972,"hash":"633da2e6cc906fdf7fa06120d91306353af11c816f0ae266a1141c4aa754ea8a","time":"2022/12/07 01:21:03","txCount":13,"totalFees":5432973,"totalOutput":416280870520,"slotLeader":"9ca4378a7ee308d910efd7a611a1df2181314c25723ff4cfa855664c"},{"blockNo":8106950,"slotNo":78809761,"epochNo":380,"epochSlotNo":12961,"hash":"7123282c6e58d60e7a5baf22652adae09bf37e61c9f8da4b239e0ffe81f479b9","time":"2022/12/07 01:20:52","txCount":16,"totalFees":6161334,"totalOutput":3215379473405,"slotLeader":"e118432cb62a1f13de9af18f7eff32a98fe97b751d444117f7655b86"},{"blockNo":8106949,"slotNo":78809745,"epochNo":380,"epochSlotNo":12945,"hash":"eefcd8017c8869e84b333bd01f6cac67134a73cce92b7e8fd3afd5fa27fb26e5","time":"2022/12/07 01:20:36","txCount":3,"totalFees":1792138,"totalOutput":13775585841,"slotLeader":"89eba2781e5cd11ccda6be56503702a39e9941e522f04cd5bba22957"},{"blockNo":8106948,"slotNo":78809744,"epochNo":380,"epochSlotNo":12944,"hash":"dc9f45bf6d5098bb306541d282fe0e99876311d991b40ce0fcf99e8a00c8f821","time":"2022/12/07 01:20:35","txCount":0,"totalFees":0,"totalOutput":0,"slotLeader":"45822f964089d86a48f9630e0187f26b4dbba9013ac7b1e04c443c82"},{"blockNo":8106947,"slotNo":78809743,"epochNo":380,"epochSlotNo":12943,"hash":"6eecc8f79e1c7e001ae155be2d7691c78696f91fdd18f092245b3e7ea81b0003","time":"2022/12/07 01:20:34","txCount":2,"totalFees":763390,"totalOutput":7776178842,"slotLeader":"988b7a8fa476f5be2987ffaebe740cdcdfafc7790f3a624c22fbbf28"},{"blockNo":8106946,"slotNo":78809740,"epochNo":380,"epochSlotNo":12940,"hash":"3b593089ae5ccbb8f9ab329d4dfeeaf23dfcf347ff2ad0bfe2c3a0bb223f37ac","time":"2022/12/07 01:20:31","txCount":28,"totalFees":8188286,"totalOutput":199967368276,"slotLeader":"ad1b6687f605b3543f9315a5f966ea70fc5f35e7b2a4c3a943bef78d"},{"blockNo":8106945,"slotNo":78809714,"epochNo":380,"epochSlotNo":12914,"hash":"542d052c291040150a2222c0e2a9fb8231664e883f7d2e05598bf494bd6ca65e","time":"2022/12/07 01:20:05","txCount":30,"totalFees":8562556,"totalOutput":17857490627493,"slotLeader":"fc88e862f18afc8ea5eaee720b003cb71f3405df2a76faafdca43f43"},{"blockNo":8106944,"slotNo":78809710,"epochNo":380,"epochSlotNo":12910,"hash":"e64746881fa4fc2b3ba211704e299f6b5a26890a6218099a2e04fee601555567","time":"2022/12/07 01:20:01","txCount":54,"totalFees":16027409,"totalOutput":2522530202563,"slotLeader":"e2eed9f58a161573050ab9324252b4fcccbf9fe06e1a034b6f91d748"},{"blockNo":8106943,"slotNo":78809637,"epochNo":380,"epochSlotNo":12837,"hash":"4f0390519dacef5181e774cc7271394849e7512cafb127131303e4a038144102","time":"2022/12/07 01:18:48","txCount":13,"totalFees":4733398,"totalOutput":927219029409,"slotLeader":"9af540f1fa5fd08967b919cfa525b2e14ed68c66e95d3746d5fdd2c4"},{"blockNo":8106942,"slotNo":78809626,"epochNo":380,"epochSlotNo":12826,"hash":"10837560e9d568d598313135ca292c1a46ae1af90018c202ff762e56478e0f22","time":"2022/12/07 01:18:37","txCount":23,"totalFees":4906905,"totalOutput":201764340570,"slotLeader":"69e4815b2aeafd63912d61b60b5ab7466668ab3e84d393a5932fe831"},{"blockNo":8106941,"slotNo":78809613,"epochNo":380,"epochSlotNo":12813,"hash":"4f805cfdbe02ee2d6762fe2edc8c5cfb85d1935673dc6b9014b31a6438b900e1","time":"2022/12/07 01:18:24","txCount":28,"totalFees":7142152,"totalOutput":17805394308100,"slotLeader":"d4970177385f7c3c90f51af3dbc4a865221778b48f23e4dc60dd4a67"},{"blockNo":8106940,"slotNo":78809586,"epochNo":380,"epochSlotNo":12786,"hash":"7a2f447100a433b85a4ce16b75254189e2fa880c5e128263f245cd08ae06748d","time":"2022/12/07 01:17:57","txCount":8,"totalFees":2064781,"totalOutput":1042486262506,"slotLeader":"07c30535c3781afef83200ebee872e4abe0aa8cc7c448ccd68730bb8"},{"blockNo":8106939,"slotNo":78809577,"epochNo":380,"epochSlotNo":12777,"hash":"24c2b07f67013c9698ff8718f0fcab95ef88eeefdf16891244857b11cf8201a6","time":"2022/12/07 01:17:48","txCount":1,"totalFees":172057,"totalOutput":3026123,"slotLeader":"523484ee98a83c3139c66eeef334d67f96467241d34abb655baeade0"},{"blockNo":8106938,"slotNo":78809574,"epochNo":380,"epochSlotNo":12774,"hash":"76eaf40d1d28cd0b79d5dcb0314c0e916a7723d9f68d4ab67efe3b66e188d47a","time":"2022/12/07 01:17:45","txCount":37,"totalFees":10192160,"totalOutput":556040122588,"slotLeader":"765e6963038b3152067bb8a08707d0306045f0ed5b1f02641b58fff6"},{"blockNo":8106937,"slotNo":78809549,"epochNo":380,"epochSlotNo":12749,"hash":"8484971050af96f6cf679a9ce50479aed2d6a1943478834ef9f314248d614f56","time":"2022/12/07 01:17:20","txCount":16,"totalFees":4443256,"totalOutput":85666673668,"slotLeader":"bf7908ea0ef61c441e4dca0e756f335c33459bb8f2779cb8f6caf8eb"},{"blockNo":8106936,"slotNo":78809538,"epochNo":380,"epochSlotNo":12738,"hash":"2c5de217a55a01a60599d7f7f3e4b81849646d290ebc040b4a554e84df12314f","time":"2022/12/07 01:17:09","txCount":3,"totalFees":584239,"totalOutput":6426000659,"slotLeader":"c4ded02c3f7275e4b6157dd164bf941eea0af4596501c5ed16752ed2"},{"blockNo":8106935,"slotNo":78809537,"epochNo":380,"epochSlotNo":12737,"hash":"c89635ee81c61fe05966d82c847b05f631ac8976e66619425c78c3e8c6bbfcf5","time":"2022/12/07 01:17:08","txCount":6,"totalFees":2673689,"totalOutput":20323715130,"slotLeader":"2d10d9ee5a86c5cedb75cacd033a2945cfd80315eb978858244cec1c"}],"totalItems":8107130,"totalPages":405357,"currentPage":0}