{"data":[{"hash":"d31adb3f17f1bd5e2634d3b4ab9555d2d4636c0211c49d750beb06c7a808d264","blockNo":6771076,"blockHash":"1a3e3566e8a7f2b64ac42ab0bb1dbfa2d2088af6da2d279665d0ccd35b799cfe","epochNo":315,"epochSlotNo":214713,"slot":50931513,"time":"2022/01/18 09:23:24","addressesInput":["Ae2tdPwUPEZ5faoeL9oL2wHadcQo3mJLi68M4eep8wo45BFnk46sMkvCmM9","Ae2tdPwUPEZ5faoeL9oL2wHadcQo3mJLi68M4eep8wo45BFnk46sMkvCmM9","addr1q9ukkxqf7cwdfgzshltrrmqj0skmv0s8f7s22cvysucug8jgfzwl8zg88xl6z4e6q0sdgeqrhgqq8aa3zj2nuqqvntcs6utve7","Ae2tdPwUPEZ5faoeL9oL2wHadcQo3mJLi68M4eep8wo45BFnk46sMkvCmM9","Ae2tdPwUPEZ5faoeL9oL2wHadcQo3mJLi68M4eep8wo45BFnk46sMkvCmM9","Ae2tdPwUPEZ5faoeL9oL2wHadcQo3mJLi68M4eep8wo45BFnk46sMkvCmM9","Ae2tdPwUPEZ5faoeL9oL2wHadcQo3mJLi68M4eep8wo45BFnk46sMkvCmM9","addr1q9ukkxqf7cwdfgzshltrrmqj0skmv0s8f7s22cvysucug8jgfzwl8zg88xl6z4e6q0sdgeqrhgqq8aa3zj2nuqqvntcs6utve7","Ae2tdPwUPEZ5faoeL9oL2wHadcQo3mJLi68M4eep8wo45BFnk46sMkvCmM9","addr1q9ukkxqf7cwdfgzshltrrmqj0skmv0s8f7s22cvysucug8jgfzwl8zg88xl6z4e6q0sdgeqrhgqq8aa3zj2nuqqvntcs6utve7","addr1q9ukkxqf7cwdfgzshltrrmqj0skmv0s8f7s22cvysucug8jgfzwl8zg88xl6z4e6q0sdgeqrhgqq8aa3zj2nuqqvntcs6utve7","Ae2tdPwUPEZ5faoeL9oL2wHadcQo3mJLi68M4eep8wo45BFnk46sMkvCmM9","Ae2tdPwUPEZ5faoeL9oL2wHadcQo3mJLi68M4eep8wo45BFnk46sMkvCmM9"],"addressesOutput":["Ae2tdPwUPEZ5faoeL9oL2wHadcQo3mJLi68M4eep8wo45BFnk46sMkvCmM9","addr1q9ukkxqf7cwdfgzshltrrmqj0skmv0s8f7s22cvysucug8jgfzwl8zg88xl6z4e6q0sdgeqrhgqq8aa3zj2nuqqvntcs6utve7"],"fee":269158,"totalOutput":618271864659718,"balance":618271843879525,"tokens":[]},{"hash":"a6d5ad826c13eaa9fa964bdf338ca7f6914c10977afbdaa78d8a9d1ce8d7dafa","blockNo":6771064,"blockHash":"d052b188831ff94dc9a6ef6cabdb40814c98b7a61f4f4075fbaffc44e1a66e8f","epochNo":315,"epochSlotNo":214361,"slot":50931161,"time":"2022/01/18 09:17:32","addressesInput":["Ae2tdPwUPEZ5faoeL9oL2wHadcQo3mJLi68M4eep8wo45BFnk46sMkvCmM9"],"addressesOutput":["DdzFFzCqrhsugcALXcH5KTVMWy3586WRXDdFBbRUzR6froGVK4PG1xJe7op1UZgT3385PjnfBPKSdti13hkzvSjrmJBmw9HCdidUZdeP","addr1q9ukkxqf7cwdfgzshltrrmqj0skmv0s8f7s22cvysucug8jgfzwl8zg88xl6z4e6q0sdgeqrhgqq8aa3zj2nuqqvntcs6utve7"],"fee":171334,"totalOutput":633271839828666,"balance":-633271840000000,"tokens":[]},{"hash":"1b5ba18b7022524aed8b7de78ff0dc3309a3aa88ff88453b70cb09de49050c17","blockNo":6701596,"blockHash":"e6e5e46927015f7e9731caa49388dd2e536d0da3208f9bbd476ab79dfdc0f3f7","epochNo":312,"epochSlotNo":40561,"slot":49461361,"time":"2022/01/01 09:00:52","addressesInput":["DdzFFzCqrhsg4NhDRNytJznvFZPDWs4FMA4PVBLWw9Dca15E8Uo6WnJdGCUfvfUav643x9aA8qpnPJbceu4KoUUsqZeL2SnZ6ErdXp4q"],"addressesOutput":["Ae2tdPwUPEZ5faoeL9oL2wHadcQo3mJLi68M4eep8wo45BFnk46sMkvCmM9","DdzFFzCqrhsshieUDsaKZ9atLD5VApW9qKc1oFTHGXsdwwkhw3BBDaExqzL7MULHaMuJAHYxviFxhRmR1V2iLUKh3o2nsD7dK5SMjJGt"],"fee":173025,"totalOutput":1344534739,"balance":10000000,"tokens":[]},{"hash":"a502a07e7e3e9614b2fd6963b58b2870ea00cb3a7c5ca35119591a5e7648368b","blockNo":6670250,"blockHash":"ca35498a108d7c8118b9b1667ad13c8dfd65a8f31fd458c1793e2c554377625c","epochNo":310,"epochSlotNo":265993,"slot":48822793,"time":"2021/12/24 23:38:04","addressesInput":["addr1q8h9cjpkmlyanm7n2680x5up68mvlnw8ycpkhl9y7j6es08wt3yrdh7fm8hax45w7dfcr50kelxuwfsrd072fa94nq7qgfykd0"],"addressesOutput":["Ae2tdPwUPEZ5faoeL9oL2wHadcQo3mJLi68M4eep8wo45BFnk46sMkvCmM9","addr1q8h9cjpkmlyanm7n2680x5up68mvlnw8ycpkhl9y7j6es08wt3yrdh7fm8hax45w7dfcr50kelxuwfsrd072fa94nq7qgfykd0"],"fee":216539,"totalOutput":129827946,"balance":1101000,"tokens":[]},{"hash":"a1d462dee8474e5fd7a24a0c0b57f2192c6deac7d090f6511dfa25800b0aac0a","blockNo":6670162,"blockHash":"893e6fb24e139b0adff0800ebca84bd4494c9bb95e5b42e5f90887acbc38784b","epochNo":310,"epochSlotNo":264070,"slot":48820870,"time":"2021/12/24 23:06:01","addressesInput":["addr1q8h9cjpkmlyanm7n2680x5up68mvlnw8ycpkhl9y7j6es08wt3yrdh7fm8hax45w7dfcr50kelxuwfsrd072fa94nq7qgfykd0"],"addressesOutput":["Ae2tdPwUPEZ5faoeL9oL2wHadcQo3mJLi68M4eep8wo45BFnk46sMkvCmM9","addr1q8h9cjpkmlyanm7n2680x5up68mvlnw8ycpkhl9y7j6es08wt3yrdh7fm8hax45w7dfcr50kelxuwfsrd072fa94nq7qgfykd0"],"fee":216539,"totalOutput":131054585,"balance":1010100,"tokens":[]},{"hash":"2da8420bf37477a8cadcf5935635bcdc4c46711b8111d7899a6450d7b1ab4c13","blockNo":6670112,"blockHash":"48978f7941552e4d188c02c5d557053e4723977d1cd4209e1e01e61c0f8ed5fa","epochNo":310,"epochSlotNo":263126,"slot":48819926,"time":"2021/12/24 22:50:17","addressesInput":["addr1q8h9cjpkmlyanm7n2680x5up68mvlnw8ycpkhl9y7j6es08wt3yrdh7fm8hax45w7dfcr50kelxuwfsrd072fa94nq7qgfykd0"],"addressesOutput":["Ae2tdPwUPEZ5faoeL9oL2wHadcQo3mJLi68M4eep8wo45BFnk46sMkvCmM9","addr1q8h9cjpkmlyanm7n2680x5up68mvlnw8ycpkhl9y7j6es08wt3yrdh7fm8hax45w7dfcr50kelxuwfsrd072fa94nq7qgfykd0"],"fee":216539,"totalOutput":132281124,"balance":1010000,"tokens":[]},{"hash":"789d4d7479b02d126c73ad92faa3b0380de1c444ae9a1b3ea87d6431272ede6c","blockNo":6670015,"blockHash":"0f17a372b628cf820ae46562b9323eed88735c542c6e7a99e2cacc291bbdbe52","epochNo":310,"epochSlotNo":261281,"slot":48818081,"time":"2021/12/24 22:19:32","addressesInput":["addr1q8h9cjpkmlyanm7n2680x5up68mvlnw8ycpkhl9y7j6es08wt3yrdh7fm8hax45w7dfcr50kelxuwfsrd072fa94nq7qgfykd0"],"addressesOutput":["Ae2tdPwUPEZ5faoeL9oL2wHadcQo3mJLi68M4eep8wo45BFnk46sMkvCmM9","addr1q8h9cjpkmlyanm7n2680x5up68mvlnw8ycpkhl9y7j6es08wt3yrdh7fm8hax45w7dfcr50kelxuwfsrd072fa94nq7qgfykd0"],"fee":216539,"totalOutput":133507763,"balance":1010100,"tokens":[]},{"hash":"8e196b81515048524cba5d71238149e61f13f2a888dc2662f4458eeb41d4e83f","blockNo":6669947,"blockHash":"ea40cf620c9995a92b4670c854b4d44ac1e0bdedc09e272e01e09fd4f7a75824","epochNo":310,"epochSlotNo":259892,"slot":48816692,"time":"2021/12/24 21:56:23","addressesInput":["addr1q8h9cjpkmlyanm7n2680x5up68mvlnw8ycpkhl9y7j6es08wt3yrdh7fm8hax45w7dfcr50kelxuwfsrd072fa94nq7qgfykd0"],"addressesOutput":["Ae2tdPwUPEZ5faoeL9oL2wHadcQo3mJLi68M4eep8wo45BFnk46sMkvCmM9","addr1q8h9cjpkmlyanm7n2680x5up68mvlnw8ycpkhl9y7j6es08wt3yrdh7fm8hax45w7dfcr50kelxuwfsrd072fa94nq7qgfykd0"],"fee":216539,"totalOutput":134724402,"balance":1000100,"tokens":[]},{"hash":"45049533d766da9573a2e1f5893ba75bc4b92b93dcee8b4a9323b388d5846f92","blockNo":6669882,"blockHash":"6071012265d520e6d88ec4b1126a7263ba04e8b69266ec4ca9c6bef8a3c4bb6b","epochNo":310,"epochSlotNo":258681,"slot":48815481,"time":"2021/12/24 21:36:12","addressesInput":["addr1q8h9cjpkmlyanm7n2680x5up68mvlnw8ycpkhl9y7j6es08wt3yrdh7fm8hax45w7dfcr50kelxuwfsrd072fa94nq7qgfykd0"],"addressesOutput":["Ae2tdPwUPEZ5faoeL9oL2wHadcQo3mJLi68M4eep8wo45BFnk46sMkvCmM9","addr1q8h9cjpkmlyanm7n2680x5up68mvlnw8ycpkhl9y7j6es08wt3yrdh7fm8hax45w7dfcr50kelxuwfsrd072fa94nq7qgfykd0"],"fee":216539,"totalOutput":135950941,"balance":1010000,"tokens":[]},{"hash":"5288e0c76e120d696089e70ee23dcda1abd056dd8e6afec0143bcfd8bec13bb9","blockNo":6669726,"blockHash":"89600fc88e7ee414f0f6dae8c23722a4f2728ff11d84de99d078d22984838438","epochNo":310,"epochSlotNo":255268,"slot":48812068,"time":"2021/12/24 20:39:19","addressesInput":["addr1q8h9cjpkmlyanm7n2680x5up68mvlnw8ycpkhl9y7j6es08wt3yrdh7fm8hax45w7dfcr50kelxuwfsrd072fa94nq7qgfykd0"],"addressesOutput":["Ae2tdPwUPEZ5faoeL9oL2wHadcQo3mJLi68M4eep8wo45BFnk46sMkvCmM9","addr1q8h9cjpkmlyanm7n2680x5up68mvlnw8ycpkhl9y7j6es08wt3yrdh7fm8hax45w7dfcr50kelxuwfsrd072fa94nq7qgfykd0"],"fee":216539,"totalOutput":137168580,"balance":1001100,"tokens":[]},{"hash":"f28f96eba4bbcf132d217971dc11a601bae42f293ff0a5f6d946e8a9d19c281a","blockNo":6669567,"blockHash":"7af19089e74222cea6f50a3caea1da762012e0366a7f2cf437190e72ffca6072","epochNo":310,"epochSlotNo":252061,"slot":48808861,"time":"2021/12/24 19:45:52","addressesInput":["addr1q8h9cjpkmlyanm7n2680x5up68mvlnw8ycpkhl9y7j6es08wt3yrdh7fm8hax45w7dfcr50kelxuwfsrd072fa94nq7qgfykd0"],"addressesOutput":["Ae2tdPwUPEZ5faoeL9oL2wHadcQo3mJLi68M4eep8wo45BFnk46sMkvCmM9","addr1q8h9cjpkmlyanm7n2680x5up68mvlnw8ycpkhl9y7j6es08wt3yrdh7fm8hax45w7dfcr50kelxuwfsrd072fa94nq7qgfykd0"],"fee":216539,"totalOutput":138395119,"balance":1010000,"tokens":[]},{"hash":"1065eed7d1c15b3e2d8aba78ac24dfcea5e7ab4b533079cc85b27e9094b006cb","blockNo":6596093,"blockHash":"13248167fe121b3cee2fefe3a0c595122960ed939014f568eac79e8c539f3479","epochNo":307,"epochSlotNo":29655,"slot":47290455,"time":"2021/12/07 05:59:06","addressesInput":["addr1q9ukkxqf7cwdfgzshltrrmqj0skmv0s8f7s22cvysucug8jgfzwl8zg88xl6z4e6q0sdgeqrhgqq8aa3zj2nuqqvntcs6utve7","addr1q9ukkxqf7cwdfgzshltrrmqj0skmv0s8f7s22cvysucug8jgfzwl8zg88xl6z4e6q0sdgeqrhgqq8aa3zj2nuqqvntcs6utve7","addr1q9ukkxqf7cwdfgzshltrrmqj0skmv0s8f7s22cvysucug8jgfzwl8zg88xl6z4e6q0sdgeqrhgqq8aa3zj2nuqqvntcs6utve7","Ae2tdPwUPEZ5faoeL9oL2wHadcQo3mJLi68M4eep8wo45BFnk46sMkvCmM9"],"addressesOutput":["Ae2tdPwUPEZ5faoeL9oL2wHadcQo3mJLi68M4eep8wo45BFnk46sMkvCmM9","addr1q9ukkxqf7cwdfgzshltrrmqj0skmv0s8f7s22cvysucug8jgfzwl8zg88xl6z4e6q0sdgeqrhgqq8aa3zj2nuqqvntcs6utve7","addr1q9ukkxqf7cwdfgzshltrrmqj0skmv0s8f7s22cvysucug8jgfzwl8zg88xl6z4e6q0sdgeqrhgqq8aa3zj2nuqqvntcs6utve7"],"fee":198053,"totalOutput":633271845223710,"balance":633271838555596,"tokens":[{"addressId":2696546,"address":"Ae2tdPwUPEZ5faoeL9oL2wHadcQo3mJLi68M4eep8wo45BFnk46sMkvCmM9","policy":"05ded3e66d6413f90908e65d14ca3cc1456a5f650e79a8ad93414cb2","name":"52554747","displayName":"RUGG","fingerprint":"asset1edhutprum7p6d0sed38hscfllt4sg7h95k3jz2","quantity":-20000000000}]},{"hash":"f8756e8377e83a987fddee7423c2cbbdda2386444251c7504ccc9c57006a57a4","blockNo":6596075,"blockHash":"e039dded9a20c87648735a22944ed4a830329d0179d402355c716dbeddf40a41","epochNo":307,"epochSlotNo":29285,"slot":47290085,"time":"2021/12/07 05:52:56","addressesInput":["Ae2tdPwUPEZ5faoeL9oL2wHadcQo3mJLi68M4eep8wo45BFnk46sMkvCmM9"],"addressesOutput":["DdzFFzCqrhsugcALXcH5KTVMWy3586WRXDdFBbRUzR6froGVK4PG1xJe7op1UZgT3385PjnfBPKSdti13hkzvSjrmJBmw9HCdidUZdeP","addr1q9ukkxqf7cwdfgzshltrrmqj0skmv0s8f7s22cvysucug8jgfzwl8zg88xl6z4e6q0sdgeqrhgqq8aa3zj2nuqqvntcs6utve7"],"fee":171334,"totalOutput":643271840828666,"balance":-643271841000000,"tokens":[]},{"hash":"f3cc01c88d696c2870a1b63e71ed36b006eca625b4f4dfee6f37c35b964fa45e","blockNo":6584671,"blockHash":"c3a57393ec04966feebc3bc7771cccbc8b7d1c7ea24a3412c67ed4c22f135e2c","epochNo":306,"epochSlotNo":232013,"slot":47060813,"time":"2021/12/04 14:11:44","addressesInput":["addr1qym33zcfuaju2zsfnfl022tg2enk3d2s8vs62wxn53wdyp3zsfkk5u6g6z4xchrrh58excl0v38ecf0zezl35un3s37sgfdhv3"],"addressesOutput":["Ae2tdPwUPEZ5faoeL9oL2wHadcQo3mJLi68M4eep8wo45BFnk46sMkvCmM9","addr1qxec5cwjjkc4m7awv3pztqkc2g4z4ceat9jal2mwyzn5fy3zsfkk5u6g6z4xchrrh58excl0v38ecf0zezl35un3s37sjnstkk"],"fee":174917,"totalOutput":3269487,"balance":1444404,"tokens":[{"addressId":2696546,"address":"Ae2tdPwUPEZ5faoeL9oL2wHadcQo3mJLi68M4eep8wo45BFnk46sMkvCmM9","policy":"05ded3e66d6413f90908e65d14ca3cc1456a5f650e79a8ad93414cb2","name":"52554747","displayName":"RUGG","fingerprint":"asset1edhutprum7p6d0sed38hscfllt4sg7h95k3jz2","quantity":20000000000}]},{"hash":"490051dbf24d2a2d5f35f50bf70a3703d269c56bcc1060688b4f5cae530d6933","blockNo":6579192,"blockHash":"7225438e972132070b3a8619d6a39d2016cefb269dc5d1a4083be1582eda9284","epochNo":306,"epochSlotNo":115606,"slot":46944406,"time":"2021/12/03 05:51:37","addressesInput":["Ae2tdPwUPEZ5faoeL9oL2wHadcQo3mJLi68M4eep8wo45BFnk46sMkvCmM9","addr1q9ukkxqf7cwdfgzshltrrmqj0skmv0s8f7s22cvysucug8jgfzwl8zg88xl6z4e6q0sdgeqrhgqq8aa3zj2nuqqvntcs6utve7","Ae2tdPwUPEZ5faoeL9oL2wHadcQo3mJLi68M4eep8wo45BFnk46sMkvCmM9","Ae2tdPwUPEZ5faoeL9oL2wHadcQo3mJLi68M4eep8wo45BFnk46sMkvCmM9","Ae2tdPwUPEZ5faoeL9oL2wHadcQo3mJLi68M4eep8wo45BFnk46sMkvCmM9","Ae2tdPwUPEZ5faoeL9oL2wHadcQo3mJLi68M4eep8wo45BFnk46sMkvCmM9","Ae2tdPwUPEZ5faoeL9oL2wHadcQo3mJLi68M4eep8wo45BFnk46sMkvCmM9"],"addressesOutput":["Ae2tdPwUPEZ5faoeL9oL2wHadcQo3mJLi68M4eep8wo45BFnk46sMkvCmM9","addr1q9ukkxqf7cwdfgzshltrrmqj0skmv0s8f7s22cvysucug8jgfzwl8zg88xl6z4e6q0sdgeqrhgqq8aa3zj2nuqqvntcs6utve7","addr1q9ukkxqf7cwdfgzshltrrmqj0skmv0s8f7s22cvysucug8jgfzwl8zg88xl6z4e6q0sdgeqrhgqq8aa3zj2nuqqvntcs6utve7"],"fee":221169,"totalOutput":643271843940826,"balance":18999996666671,"tokens":[{"addressId":2696546,"address":"Ae2tdPwUPEZ5faoeL9oL2wHadcQo3mJLi68M4eep8wo45BFnk46sMkvCmM9","policy":"cc23ae82bd518021787ab4929062718fdce75726c9e78b360a953925","name":"444f47474f","displayName":"DOGGO","fingerprint":"asset1ma38m7ek00asavr24vjxlnpvpjy3g5uexlany2","quantity":-20001000000000}]},{"hash":"4a9e2850b8f8493c6b63880f48673f13365c18028b5f987396ee7f030050e3ba","blockNo":6579177,"blockHash":"9e9e66ac97243744169ae19a562cc79ec600a9ce2ad89b5a35ed6d2b15eab8bd","epochNo":306,"epochSlotNo":115210,"slot":46944010,"time":"2021/12/03 05:45:01","addressesInput":["Ae2tdPwUPEZ5faoeL9oL2wHadcQo3mJLi68M4eep8wo45BFnk46sMkvCmM9"],"addressesOutput":["DdzFFzCqrhsugcALXcH5KTVMWy3586WRXDdFBbRUzR6froGVK4PG1xJe7op1UZgT3385PjnfBPKSdti13hkzvSjrmJBmw9HCdidUZdeP","addr1q9ukkxqf7cwdfgzshltrrmqj0skmv0s8f7s22cvysucug8jgfzwl8zg88xl6z4e6q0sdgeqrhgqq8aa3zj2nuqqvntcs6utve7"],"fee":171334,"totalOutput":28999999828666,"balance":-29000000000000,"tokens":[]},{"hash":"f9a5a5ef9a5f1fd95e3f1ca5201f612c8ca6303acd63e32b5c7485fd12a22e1a","blockNo":6578054,"blockHash":"4d9eba68935d0a9109482efe0b4b2f9da916fe814c000ea75ee59f15c49e957b","epochNo":306,"epochSlotNo":92613,"slot":46921413,"time":"2021/12/02 23:28:24","addressesInput":["addr1qxrcuwd67ukjykgpakgvy7s0ygaf8ezpckuc7l6pxhehc3zugntj9v3fv8yvda5m0ffca90z6wv0dnptzky8j6w358ds2h8m96"],"addressesOutput":["Ae2tdPwUPEZ5faoeL9oL2wHadcQo3mJLi68M4eep8wo45BFnk46sMkvCmM9","addr1qym2ztnn8k0edas645qhduqc4c0t56kyqxq75s3gwdp4kpzugntj9v3fv8yvda5m0ffca90z6wv0dnptzky8j6w358dsmxqzk4"],"fee":171881,"totalOutput":22807570,"balance":1444443,"tokens":[{"addressId":2696546,"address":"Ae2tdPwUPEZ5faoeL9oL2wHadcQo3mJLi68M4eep8wo45BFnk46sMkvCmM9","policy":"cc23ae82bd518021787ab4929062718fdce75726c9e78b360a953925","name":"444f47474f","displayName":"DOGGO","fingerprint":"asset1ma38m7ek00asavr24vjxlnpvpjy3g5uexlany2","quantity":11000000000000}]},{"hash":"f6e33b7d172a25e9f9a87097fea4775ddfb99eb02857b6f854199a9406608937","blockNo":6572530,"blockHash":"9d1451d2089bfe6502e415c44dd1c763ceff98f640a4d8c1a8d6c4e37b7bbc3a","epochNo":305,"epochSlotNo":412559,"slot":46809359,"time":"2021/12/01 16:20:50","addressesInput":["addr1q995ullml8cswq7sj4mv9ad4d7287w8esz4mj9hwtf48rfzugntj9v3fv8yvda5m0ffca90z6wv0dnptzky8j6w358dsw662xh"],"addressesOutput":["Ae2tdPwUPEZ5faoeL9oL2wHadcQo3mJLi68M4eep8wo45BFnk46sMkvCmM9","addr1q9v4gmw9mzpyrfhhzdk52kw8z6w9uj5hyxm075va6x8akd6ugntj9v3fv8yvda5m0ffca90z6wv0dnptzky8j6w358ds6kt7m6"],"fee":171881,"totalOutput":5814114,"balance":1444443,"tokens":[{"addressId":2696546,"address":"Ae2tdPwUPEZ5faoeL9oL2wHadcQo3mJLi68M4eep8wo45BFnk46sMkvCmM9","policy":"cc23ae82bd518021787ab4929062718fdce75726c9e78b360a953925","name":"444f47474f","displayName":"DOGGO","fingerprint":"asset1ma38m7ek00asavr24vjxlnpvpjy3g5uexlany2","quantity":9000000000000}]},{"hash":"d85a9173d9c3ecb6fe38502f609f7e8dfc4e01f7133d4ea2778095024463e747","blockNo":6572486,"blockHash":"0046d7e9c4d02707c84333100325be9c12620d746c3c3d4e982359b21f34e65d","epochNo":305,"epochSlotNo":411694,"slot":46808494,"time":"2021/12/01 16:06:25","addressesInput":["addr1qyg6h5nh060a66608ay8mjczf9uep3g08qfttmfzulmk5tzugntj9v3fv8yvda5m0ffca90z6wv0dnptzky8j6w358ds8y2hvp"],"addressesOutput":["Ae2tdPwUPEZ5faoeL9oL2wHadcQo3mJLi68M4eep8wo45BFnk46sMkvCmM9","addr1qykhz9pe6gek684285qayucet0069ynfdpj9usgfetmvnp2ugntj9v3fv8yvda5m0ffca90z6wv0dnptzky8j6w358dsre0vrd"],"fee":171705,"totalOutput":3764638,"balance":1444443,"tokens":[{"addressId":2696546,"address":"Ae2tdPwUPEZ5faoeL9oL2wHadcQo3mJLi68M4eep8wo45BFnk46sMkvCmM9","policy":"cc23ae82bd518021787ab4929062718fdce75726c9e78b360a953925","name":"444f47474f","displayName":"DOGGO","fingerprint":"asset1ma38m7ek00asavr24vjxlnpvpjy3g5uexlany2","quantity":1000000000}]},{"hash":"63e613bcc95c4367f8bc4e4fd8b507277e20e99228229b2113d55989456fcf03","blockNo":6546725,"blockHash":"363775dfed600e1f5bc730ecabda1a02a6af863e8a38eb012e8a039e3e79bb02","epochNo":304,"epochSlotNo":315215,"slot":46280015,"time":"2021/11/25 13:18:26","addressesInput":["DdzFFzCqrhszs6212qqHSgnFj5rHBfDBMndN3qsYyh38jwsVw3njChgDC3R3ed2TKitidshmaSz9BefSUdGbon1vn2X1w72W1rVqbg3S","DdzFFzCqrhsviVYtzGW8xbVE5Kt3v9J9ebn13N2xmU8eckVTjbypVHtrk2juKhJ3ojgyiMr3nTavkFkjyFVCPc6nEAbBnSA5ZESF1sbP","DdzFFzCqrhseQfqJR3PSKZXdDKyAgTuURKZYnCpTmmjYRQS6qqbxSNFfd7KcKXjN3dkKjcCXQ6VYSk6HEUis9kcSEJHXBvZjerCD8CCS","DdzFFzCqrhtA53dzLwnt28317Eqgev4LGyxC4ENKqMj6RkqyicBWKR2JzX81CHfCPpnd89nVVHHPtHQeYj6qod7ku3P2biAZy5b2aS4a","DdzFFzCqrhtA53dzLwnt28317Eqgev4LGyxC4ENKqMj6RkqyicBWKR2JzX81CHfCPpnd89nVVHHPtHQeYj6qod7ku3P2biAZy5b2aS4a","DdzFFzCqrhsswnbhc75oZzKVD3APbNVVMLrzX8wMLWzi5rwKwBKjRJjA7hU7bHxfqDZaXcxz5J6k1eSyPC3nXgqJSdZr8tEfG2zMgrpw","DdzFFzCqrhtA53dzLwnt28317Eqgev4LGyxC4ENKqMj6RkqyicBWKR2JzX81CHfCPpnd89nVVHHPtHQeYj6qod7ku3P2biAZy5b2aS4a","DdzFFzCqrht9xoHCLQR1XcNNJY8LKB8Uk3X68WC3ctg7wzxmbxB8dUVgDL71tKkVdMcfNLhiyNz5y47MtMwebpF3r81p2pSHEUFJp1De","DdzFFzCqrhsnCyuccuPvJ3gJiPxcDZZfnPy7gs3xejuYqFQeG3bkpWigxfNu2AER5tsAGAgQzzow1tHSE1fmMMtRUTxgvJfQ3V2nswYH","DdzFFzCqrhsxHfmFzwKdSFkjFGZKZfi9nUFw9zhLwRpJvzEAxtBAxAApZYPGwjxuuBBv35d4SoKqN39BNcsR219XSvY5FmDuzoG4BTeo","DdzFFzCqrhstktWhTk59TQbcDK2hJSsw5QhVCKBPLfYdWUo3djPQuEoaBUnou6yvN8cZt93q9n2dKy5zvDnHpHsAZfFZetVrNH9qqzm2","DdzFFzCqrhseMYtu8HqJL9xXBAP1zpeQCp9Nbaczbbq1YgUGpdutxYyAmzYW6NXfwDMQ6VkZH8PtBaZRyFZXt5GfhngWHgDzD2dgQsUa","DdzFFzCqrhtA53dzLwnt28317Eqgev4LGyxC4ENKqMj6RkqyicBWKR2JzX81CHfCPpnd89nVVHHPtHQeYj6qod7ku3P2biAZy5b2aS4a","DdzFFzCqrhtA53dzLwnt28317Eqgev4LGyxC4ENKqMj6RkqyicBWKR2JzX81CHfCPpnd89nVVHHPtHQeYj6qod7ku3P2biAZy5b2aS4a","DdzFFzCqrhtA53dzLwnt28317Eqgev4LGyxC4ENKqMj6RkqyicBWKR2JzX81CHfCPpnd89nVVHHPtHQeYj6qod7ku3P2biAZy5b2aS4a","DdzFFzCqrhtA53dzLwnt28317Eqgev4LGyxC4ENKqMj6RkqyicBWKR2JzX81CHfCPpnd89nVVHHPtHQeYj6qod7ku3P2biAZy5b2aS4a","DdzFFzCqrhtA53dzLwnt28317Eqgev4LGyxC4ENKqMj6RkqyicBWKR2JzX81CHfCPpnd89nVVHHPtHQeYj6qod7ku3P2biAZy5b2aS4a","DdzFFzCqrht5cHsBtJpeQ2YNzvFTRMHQahenstE71oA6UBj3Wvg6WFjrMov71Gm3RfeY9sZqoo9Zv5E6uDmhjEhW247hyQQqBssZbdPY","DdzFFzCqrhtBAk9ugSiepxkEpT35ADKATwRmSc5RhYue8LiQ3p77tkHbRAZjxLq1Zzmi5xYHff3wSGaeFzorSpiY2oU93RAmURjt7QYm","DdzFFzCqrhspKLqHkwP6aRW6zzM2Q4za5SsLhVusHRnAGQW52Rjvshx4JtoQf3mUTWCzP3DBDPqZi3pAoQYjTdyT8d3ewRHD7wLb4mcR","DdzFFzCqrhtA53dzLwnt28317Eqgev4LGyxC4ENKqMj6RkqyicBWKR2JzX81CHfCPpnd89nVVHHPtHQeYj6qod7ku3P2biAZy5b2aS4a","DdzFFzCqrhtA53dzLwnt28317Eqgev4LGyxC4ENKqMj6RkqyicBWKR2JzX81CHfCPpnd89nVVHHPtHQeYj6qod7ku3P2biAZy5b2aS4a","DdzFFzCqrhskR1tmf5ckhim7pxRvkvCFtiXNEFnhhVaLCmQoCCZrrDwK1VdN4cYWd3x3iSveQ331pmUY15y2v6MFwj6an4KnnBncMyKb","DdzFFzCqrhsiRadUkkybcHjBG7mpezWTZrkxpH9CPyJ5MCWhwXdYkokQTwAt87CWshbP4xH5vEUGWN2vxwD741ccWtCRrX6RgjDqcDPE","DdzFFzCqrhtA53dzLwnt28317Eqgev4LGyxC4ENKqMj6RkqyicBWKR2JzX81CHfCPpnd89nVVHHPtHQeYj6qod7ku3P2biAZy5b2aS4a","DdzFFzCqrhsyHXfFkDobFAhh3ZkvWyTeAEdDdetXnyvitM5d9MZGcbN9fVK7aYuRSp4JFveFzSMQhqtXq4bC3XZC415sHc4VHc57EN2N","DdzFFzCqrhsuUkX9BYXHoEFEq6FEuxFsWSQnN1Yufzb2wqahHo2ZCzx5ZCVLWJRjKtknXpxW9J9GrDP2y7u35yHCmiQG7uVyeyvXUhhd","DdzFFzCqrhtA53dzLwnt28317Eqgev4LGyxC4ENKqMj6RkqyicBWKR2JzX81CHfCPpnd89nVVHHPtHQeYj6qod7ku3P2biAZy5b2aS4a","DdzFFzCqrhtA53dzLwnt28317Eqgev4LGyxC4ENKqMj6RkqyicBWKR2JzX81CHfCPpnd89nVVHHPtHQeYj6qod7ku3P2biAZy5b2aS4a","DdzFFzCqrhtA53dzLwnt28317Eqgev4LGyxC4ENKqMj6RkqyicBWKR2JzX81CHfCPpnd89nVVHHPtHQeYj6qod7ku3P2biAZy5b2aS4a","DdzFFzCqrhsyTY66TDiWm3Fueyn7XTujyqSEiwjL3smYNXNfSarfr1kfPJcfTxybjtCwVi1FpDvmDM7irUfdeGKkkkPBfPoop2vS2CiZ","DdzFFzCqrhsvYz5YYpmPCYdFyoR8ZVxe1zh39qhpKYtVFxLq5HRwoWbZCxLWBbRnQs7HVd4pNNABdUWGjFdoBKdjHGywi9vkuXgZm68X","DdzFFzCqrhsfAKVY7V6yxCJTtYJrBtie9MJ235VABraw5SVogbYDgbwsS8m9LBbn2kuNVfN1HEC1SZvuD4GgnEHPXDPTtmni2bG9iDtZ","DdzFFzCqrht95yLrrGuE5M7wwwVhuBP6w38RPMEGSfCfQA16nm9koY6rv2LmSgXttqXQ15RwyzZVFScrLuvu3KfDgJBGzwxSU3d9aQb3","DdzFFzCqrht1p6oUoAHF1UJJXNg85mGATjoagxF8ZdmArqLFHYyupUWaRsEhvd3apu2hVxBe3og25YCeHggDxdTo96JQ14d91Mo1BPzG","DdzFFzCqrht3GcJkjTXdbzFZHbmVkBXYFqBEYkoaxYBrduMGLTUicL6eefeevbDyXuxwzMyhuCoKHZ7cCmHjieqYAJcit5PQhvQ9JKjT","DdzFFzCqrhtAJXUu7TepSx73GHW6Udzm8KX3xjjotRqcAEoMdHYN9H1FPLZrQDfEBupUn2cqWcYTjwMmmr7ds3qCM2qcyRmbHZiAwjpw","DdzFFzCqrhtA53dzLwnt28317Eqgev4LGyxC4ENKqMj6RkqyicBWKR2JzX81CHfCPpnd89nVVHHPtHQeYj6qod7ku3P2biAZy5b2aS4a","DdzFFzCqrhtA53dzLwnt28317Eqgev4LGyxC4ENKqMj6RkqyicBWKR2JzX81CHfCPpnd89nVVHHPtHQeYj6qod7ku3P2biAZy5b2aS4a","DdzFFzCqrhsiEGNYTQ5oPQwPaex61eggVmxKPiaXWYQ8MNCjoTA9PEG38sp5mG6rqXUTfwGQ5LDiX4qN4ifcx7fDPnVtJeQMiKj388o9","DdzFFzCqrhspzXPxugUByz1KNvMMmWrTY1LUCA4QLBERKDBYDoZJu5XaVygQP6EfBeSrZ82bUiMcmiYzRvZ6ybknrY4RjivDE8cSkwJz","DdzFFzCqrhsrigPbp7VpuLSgw2GEw47gBfoPLZADreAm7QjxYfyuhViYHpRQctcDPkbD3gVNbCVKQF4VX6AoS5PTnSoePwmTxTD2mB33","DdzFFzCqrhtA53dzLwnt28317Eqgev4LGyxC4ENKqMj6RkqyicBWKR2JzX81CHfCPpnd89nVVHHPtHQeYj6qod7ku3P2biAZy5b2aS4a","DdzFFzCqrhszAoCWLD9BTwwxfu4qkMtmLfhuX6vY5nSsGaCt6GvhTqcZKEvw6UMkQxJSMkNnFDR9rLqg9Vn5K6s57TQrziXQyCJFQzDS","DdzFFzCqrhtA53dzLwnt28317Eqgev4LGyxC4ENKqMj6RkqyicBWKR2JzX81CHfCPpnd89nVVHHPtHQeYj6qod7ku3P2biAZy5b2aS4a","DdzFFzCqrhsn7Jpe4sWfqvxLPHDdARxKur1nBurPvEJq7aEp1jbJ9vxBuXYAVXEn1CNK3ZGZ7u8891TXAh5dW57EdUGxyRdt8AdtANfG","DdzFFzCqrhtA53dzLwnt28317Eqgev4LGyxC4ENKqMj6RkqyicBWKR2JzX81CHfCPpnd89nVVHHPtHQeYj6qod7ku3P2biAZy5b2aS4a","DdzFFzCqrhsuF7mrGvUvX98KVDV6jofBXwbz4Nm24nnc2MBXo9TePyU2hzZ5aR3RPpLWs8rZHDEfjCDWW1suT2w7uYgRewYrkK6afBbD","DdzFFzCqrhspSpXnWx8WzHTkevwqU4V4pmK7cCreS4SQY3mQPQxbEeWeUG2etuAHq8H3CATTHbUqigutFXcgQcQtvWMydEwtfzagQX4e","DdzFFzCqrhsqYfkB2nT7tKEidL5akjUmfJD8UiMzNoacMyg9oE2wh27X3JcgbhUfxSJosuCqntv64TfDLHK6xDxu7NiKSykK5s2vo4Cz","DdzFFzCqrht7Yx7rEzPn5ww9ohSb2Xgf3Z8mDUvsrMj2UszWKst6HVvFcPgS7NyWd2wC1bE3E2YyXi2KNnuKeYTsHXqLGeny1ybWcx52","DdzFFzCqrhsruVP3TRMs97xHUPmpZCEUWEBRjR4zJfyHkMmfXqCgj4YEH8dr1gGU6eh4QDQYJUT72Vck45bX3Lf1tBEQ3PSWGPf9fKCE","DdzFFzCqrhtA53dzLwnt28317Eqgev4LGyxC4ENKqMj6RkqyicBWKR2JzX81CHfCPpnd89nVVHHPtHQeYj6qod7ku3P2biAZy5b2aS4a","DdzFFzCqrhsnS2RDByNhBsK1AkXVhbDs2a1yHs61qft7NJj9kLWCwbkHeKxuuDujrmdDn7T5z1dJTrDFT42VFr6VkYu7H1m4zEAdWqnw","DdzFFzCqrhtA53dzLwnt28317Eqgev4LGyxC4ENKqMj6RkqyicBWKR2JzX81CHfCPpnd89nVVHHPtHQeYj6qod7ku3P2biAZy5b2aS4a","DdzFFzCqrht3zqWr4Ysg1eC83N6wTLEYMvGTB9MdkuTAj52ffSuqtR8Q8FfsRrnBNTWmd5WZaTV355DFNwQ32unLb3UnvkesY6JdKrHV"],"addressesOutput":["Ae2tdPwUPEZ5faoeL9oL2wHadcQo3mJLi68M4eep8wo45BFnk46sMkvCmM9","DdzFFzCqrhsknYYmXacuNwiZmcTfvdZRpubwQfSHmmH1QJeG62isus6Zh72o7GEVki28amD4KstYm9Qss5R8muTkBoihJyMHPHY2xtjq"],"fee":707713,"totalOutput":29812002340095,"balance":29000000000000,"tokens":[]}],"totalItems":2437,"totalPages":122,"currentPage":0}