{"data":[{"blockNo":7922583,"slotNo":75002148,"epochNo":371,"epochSlotNo":93348,"hash":"f15663dbff2f484e1beaa87f50ae9474b79342548565508eede21bbc4f6f1611","time":"2022/10/23 23:40:39","txCount":13,"totalFees":4707865,"totalOutput":602975539544,"slotLeader":"a24a0b7f7dec890db8c59c47646290522234a522a98f00cf2d589a80"},{"blockNo":7922582,"slotNo":75002143,"epochNo":371,"epochSlotNo":93343,"hash":"69a6844f367566d3d3c1ca7fdf17db474b9668a9b0623fd535b65e2dbdd0ec2d","time":"2022/10/23 23:40:34","txCount":32,"totalFees":10921352,"totalOutput":831804263801,"slotLeader":"93ca5c2f1eb63054f7c768a807408a43e65d7c68fe56e330db20af51"},{"blockNo":7922581,"slotNo":75002108,"epochNo":371,"epochSlotNo":93308,"hash":"981067158b936b70f8f55ba43f5751bb1595074b5c2c2a4a35b823e12b477773","time":"2022/10/23 23:39:59","txCount":48,"totalFees":14538872,"totalOutput":472016529597,"slotLeader":"96aa57f4af0652c800cde0d25288bf6d1e35aefd11770d60e6bf8f0a"},{"blockNo":7922580,"slotNo":75002056,"epochNo":371,"epochSlotNo":93256,"hash":"b264722dd842c0ac79712337e9f467205233c662e67e5a4ee777abd5881b02e0","time":"2022/10/23 23:39:07","txCount":47,"totalFees":13788062,"totalOutput":242975207665,"slotLeader":"d2b32bb469f6e8bcd6e1e0ba818716d317e3f26d0a93f317b08fdced"},{"blockNo":7922579,"slotNo":75002013,"epochNo":371,"epochSlotNo":93213,"hash":"976c903e14e547a60f3b38575e4e789fc9c3f6c7fc85cd9dd425afddf9a7e2fc","time":"2022/10/23 23:38:24","txCount":24,"totalFees":8582758,"totalOutput":6756771375411,"slotLeader":"1d2972246d8adda98836626a34e337525f5206e552715d28379b5fdb"},{"blockNo":7922578,"slotNo":75001991,"epochNo":371,"epochSlotNo":93191,"hash":"b846d6fa316dd1bb24003e23147505a45bdcbdbd3dadf3b540cd8cc3c8218c0e","time":"2022/10/23 23:38:02","txCount":20,"totalFees":6910044,"totalOutput":30709326577,"slotLeader":"2352f8c7d0b9f0bf5b342c135d5b25c910491deec1440bd9d27799a6"},{"blockNo":7922577,"slotNo":75001962,"epochNo":371,"epochSlotNo":93162,"hash":"d58661607807a4cf62e8eb5093212df74509786da6ed2a24ac2c4b2c0e4afa33","time":"2022/10/23 23:37:33","txCount":39,"totalFees":12599559,"totalOutput":406819222708,"slotLeader":"b619d366a0acc2e5a8e0f8e373d6eb926a01811f05a381aaa7a8564c"},{"blockNo":7922576,"slotNo":75001955,"epochNo":371,"epochSlotNo":93155,"hash":"49291442c43ca2fee45adacb5d5fbc7c7038e2fe62205012c1a2dcf23bbec905","time":"2022/10/23 23:37:26","txCount":20,"totalFees":8999992,"totalOutput":5402356413204,"slotLeader":"4ee9e4c2ec6fc68850330dbc75ccd7ebf7951f20e1085d324f36cf44"},{"blockNo":7922575,"slotNo":75001906,"epochNo":371,"epochSlotNo":93106,"hash":"c9740379fe0d11f9befec324ec539cde249822ecad15e25153a714da71489af6","time":"2022/10/23 23:36:37","txCount":14,"totalFees":5394957,"totalOutput":10264447991,"slotLeader":"a10865dae2d543ee9f13e98bff70ea81565bb6e4343b15b765f78174"},{"blockNo":7922574,"slotNo":75001887,"epochNo":371,"epochSlotNo":93087,"hash":"d4bbdcbead7efadb163ac8444b83166c1d4428212518bbed149ac7e2b7f5ad51","time":"2022/10/23 23:36:18","txCount":2,"totalFees":340374,"totalOutput":402755128,"slotLeader":"4045672633587d62688c258870681cab49c0d09a6542614e9a271678"}],"totalItems":4537,"totalPages":454,"currentPage":0}