{"data":[{"txId":59616317,"txHash":"22df6852dd0399170d03a87ab15144a07030120b2df80658a24f313fd64cc9ea","txTime":"2023/01/13 19:47:13","block":8266033,"epoch":387,"slotNo":82072942,"epochSlotNo":252142,"stakeKey":"stake1ux3smjz00s9jn5x9wfz7llxx6u8x23wr02h788x9tuh0qeqq3xwrr"},{"txId":59616274,"txHash":"b8c56c295beab4b27991497ddb511b7fda775bb6cb8714e0a5020a243f241c53","txTime":"2023/01/13 19:46:32","block":8266031,"epoch":387,"slotNo":82072901,"epochSlotNo":252101,"stakeKey":"stake1u9ll2qpj6tp5gqsj2gduvwhg269rxr8ggc8cd7skgav945snekqkg"},{"txId":59616060,"txHash":"a4a649374f6a8b4cc025f1574f5e3a8b72bcf41c5472e55e6edf932d50f129e5","txTime":"2023/01/13 19:42:28","block":8266018,"epoch":387,"slotNo":82072657,"epochSlotNo":251857,"stakeKey":"stake1uy9a7v2j5u8h6gd3w5xc8kv0kyheyly79qx88kerpw62akc0dvtny"},{"txId":59615971,"txHash":"8cf850ceed7acb929758dbf8163f1f5a854f37a6f5d6524da58b9db1ca533c55","txTime":"2023/01/13 19:41:05","block":8266012,"epoch":387,"slotNo":82072574,"epochSlotNo":251774,"stakeKey":"stake1u9r8xzupg62uhz7ayu0hxqfwjndkq8pu6u77z3ynx9lpszg8mumgz"},{"txId":59615770,"txHash":"2af0fc90f7012a75545a6bcf24e711a755c14a490adba9acc4e0a8f69c086fa9","txTime":"2023/01/13 19:36:50","block":8265996,"epoch":387,"slotNo":82072319,"epochSlotNo":251519,"stakeKey":"stake1uylvmknfafegwxuqapjl9g2hadzz8m58gzec8zd3pr7g0lgx0k9d4"},{"txId":59615652,"txHash":"9a50f5010bb5cefaa0591af91f4084f387092df724af326ecfa4a3bd7f2e753f","txTime":"2023/01/13 19:34:27","block":8265988,"epoch":387,"slotNo":82072176,"epochSlotNo":251376,"stakeKey":"stake1ux4sscs63pgw7w4lc4ll6ka2tm0weemvx6ca7u2wu36r85gyewt3h"},{"txId":59615638,"txHash":"b1bcef8b62dfa677d892332ca3f6204072c686955301f6b11e692dccbe07b430","txTime":"2023/01/13 19:34:04","block":8265985,"epoch":387,"slotNo":82072153,"epochSlotNo":251353,"stakeKey":"stake1uy45g59s77238xdggezm0q3mlha7pyrekw4p78znn48ztqq9qn969"},{"txId":59615622,"txHash":"6ca8df169cdc2f573796755cd48c26ac35f61219e89defd36fd402c3864bc4d8","txTime":"2023/01/13 19:34:04","block":8265985,"epoch":387,"slotNo":82072153,"epochSlotNo":251353,"stakeKey":"stake1uxpva5fujmdnr5kkus9am8qvx9yuc03keccxyqrsvyvtgxqslsy2f"},{"txId":59615535,"txHash":"0d51c4b3baeeca098c8947cb07470b40a86ceef07978947f1b3fd18c3fe90840","txTime":"2023/01/13 19:32:16","block":8265979,"epoch":387,"slotNo":82072045,"epochSlotNo":251245,"stakeKey":"stake1u89rq9pp98nhdg62n8lhumt6rskugcas43gzjawg5usznqqmvlqzw"},{"txId":59615359,"txHash":"f6a1aac37c2807bf48c66a7dcd34cd469e9b4ee3d5e0619a1ab16e569d2881b2","txTime":"2023/01/13 19:29:10","block":8265967,"epoch":387,"slotNo":82071859,"epochSlotNo":251059,"stakeKey":"stake1uxya7pqeghdua407cq5vdscwcq9y30y8nwnjahslerh2qmcc5azk6"},{"txId":59615290,"txHash":"cf0e9c377d7e3a588593e4540083d8ac48480fe56574487f906dbb2292bab401","txTime":"2023/01/13 19:28:19","block":8265964,"epoch":387,"slotNo":82071808,"epochSlotNo":251008,"stakeKey":"stake1u943700as4wynrnmfdywayn5l47p20d3390p8mm3dm8sxwcjwpqn5"},{"txId":59615250,"txHash":"116a7e2c002dde4c9a28a0f182aca96c4ba78f054c91bd5ef8cb0d0e4c0cbc8c","txTime":"2023/01/13 19:27:19","block":8265962,"epoch":387,"slotNo":82071748,"epochSlotNo":250948,"stakeKey":"stake1uy9nlryvk79kpcs0xevwgv5ezqdv4r7atrw7vefxqngsvcc5clr3k"},{"txId":59615148,"txHash":"18d5002c1b65050a6c390ecf12c2781ef53c674dde13cd60bbca5742e5b7fd79","txTime":"2023/01/13 19:25:11","block":8265953,"epoch":387,"slotNo":82071620,"epochSlotNo":250820,"stakeKey":"stake1uywqnxdvxjr9xs290mxt9ze63qwydma5tes2cyq6rrzm24gexgpuw"},{"txId":59615124,"txHash":"4d9afd7452802d5a994b3729bee6ac0a93b654fb37f50c65fd706def8b0959e8","txTime":"2023/01/13 19:25:00","block":8265952,"epoch":387,"slotNo":82071609,"epochSlotNo":250809,"stakeKey":"stake1uydteeplrs5xjlrs6vcdpkq85rux66mm45wxcgkuwx70w3c64wsan"},{"txId":59615065,"txHash":"6a74aaa59818838bc6463102296ac78b8f7551be7e4c12bc08fc2ca379d6bc52","txTime":"2023/01/13 19:23:24","block":8265949,"epoch":387,"slotNo":82071513,"epochSlotNo":250713,"stakeKey":"stake1u8q52q5n7apkvpczmuz90h9ncqkflfpm5l94kmdyr5sglfsmxjskn"},{"txId":59615037,"txHash":"075fdfdfdb069a11be706b2b8474993e6f4ca1412bf0136e873d976192b14a16","txTime":"2023/01/13 19:23:24","block":8265949,"epoch":387,"slotNo":82071513,"epochSlotNo":250713,"stakeKey":"stake1uy4x3gc64g2479te9e5v4zxhxpwruedglldfprc4turutxsgt5fhl"},{"txId":59614979,"txHash":"5278dd50c2224e2d29b3a0c883416bacb991ed8dd978a72eec636725e491a3ed","txTime":"2023/01/13 19:22:25","block":8265947,"epoch":387,"slotNo":82071454,"epochSlotNo":250654,"stakeKey":"stake1u9t2c22y4muczpp7eqzq7wdehchk3c0d0gve0w4q7wj3k8qr8vjf8"},{"txId":59614977,"txHash":"28024acf9ac05fd9ec0a106659c8a607835af83f9bea58803b8a4ad85efde60b","txTime":"2023/01/13 19:22:25","block":8265947,"epoch":387,"slotNo":82071454,"epochSlotNo":250654,"stakeKey":"stake1uytv9fms5pzd56nk0rypl7wnqf8az2nlh933evzex7f0j8gv66ykq"},{"txId":59614959,"txHash":"13930c091d902f94de6fd9c2c3d65ba888f86c92971ae25a327fe46215b9c331","txTime":"2023/01/13 19:21:52","block":8265946,"epoch":387,"slotNo":82071421,"epochSlotNo":250621,"stakeKey":"stake1u8vajpdq5zjut8mdcyu898gaxd8laua35yje6lz0kc4swtcw7mckh"},{"txId":59614883,"txHash":"ad8b2389dffded20691240e285309591efbd7055f09b6a65350e4c54308415f2","txTime":"2023/01/13 19:20:32","block":8265940,"epoch":387,"slotNo":82071341,"epochSlotNo":250541,"stakeKey":"stake1uxnps5lf5f2u2z82gtacshq54snn4yj00qhymqwsgcl0cmq3tgwz8"}],"totalItems":1644921,"totalPages":82247,"currentPage":0}