{"data":[{"blockNo":8127495,"slotNo":79226418,"epochNo":380,"epochSlotNo":429618,"hash":"e0f7037952733d56130704eead457d31b26dea2e76f38f34191ee275326762ca","time":"2022/12/11 21:05:09","txCount":37,"totalFees":13103497,"totalOutput":4312403662248,"slotLeader":"4987d8a81c1e79f600771b4331fe84ce2f700f2855ae345d915dbf51"},{"blockNo":8127494,"slotNo":79226359,"epochNo":380,"epochSlotNo":429559,"hash":"260cd91faec5b79645b375a270e5cf41e737048dd53f5df93fd96ea15370a946","time":"2022/12/11 21:04:10","txCount":1,"totalFees":175665,"totalOutput":113428582,"slotLeader":"e76cf5ef93b5c650db92026b1c5fd802e4b4913a66efb96d410a92ae"},{"blockNo":8127493,"slotNo":79226358,"epochNo":380,"epochSlotNo":429558,"hash":"2b2e04c2a2dc3ae2a103af6e52eb8c8b7cb0c27dad86e3c1f7a1fff3e5fe4a19","time":"2022/12/11 21:04:09","txCount":57,"totalFees":16537458,"totalOutput":4510299140820,"slotLeader":"a087620de93bee6faeb0c33ca5e647f9c4e1e037d8f28e95dc583179"},{"blockNo":8127492,"slotNo":79226308,"epochNo":380,"epochSlotNo":429508,"hash":"404217441f19a1fa5ee7f569f44a30a67ed30d70266eb8f8967147251aa235d0","time":"2022/12/11 21:03:19","txCount":1,"totalFees":170253,"totalOutput":2328711084,"slotLeader":"0319357f4578b716282f4c58dd6be4d613053a40346a208306a05d03"},{"blockNo":8127491,"slotNo":79226307,"epochNo":380,"epochSlotNo":429507,"hash":"3a2b71c1ab068b0ee1c1f7bf1a6bcb8ea461ce68ec747b6d93b35364040e0331","time":"2022/12/11 21:03:18","txCount":4,"totalFees":1953880,"totalOutput":5710018417,"slotLeader":"00000036d515e12e18cd3c88c74f09a67984c2c279a5296aa96efe89"},{"blockNo":8127490,"slotNo":79226300,"epochNo":380,"epochSlotNo":429500,"hash":"eb68d53a17beb84d862a782b6db407a0ef0f9f9d538f5aa430c6cf771b58cccc","time":"2022/12/11 21:03:11","txCount":6,"totalFees":1465576,"totalOutput":2233202344,"slotLeader":"c6074d596a4d1629304bfd92715ec1677aeb378e4932723616d575f1"},{"blockNo":8127489,"slotNo":79226297,"epochNo":380,"epochSlotNo":429497,"hash":"586232750c83def1c727a4e616a93b3d9aa533015e3a5cdd9ea284299e5adfb9","time":"2022/12/11 21:03:08","txCount":8,"totalFees":2624161,"totalOutput":928805385,"slotLeader":"c7a434e33111ad62c0b99882c748e9e748c3442d161565661ad8dda4"},{"blockNo":8127488,"slotNo":79226286,"epochNo":380,"epochSlotNo":429486,"hash":"b146562612fc003f730afec66c5b2ba88f871671d8b33f4e73b48bfa7acccfb4","time":"2022/12/11 21:02:57","txCount":21,"totalFees":9353547,"totalOutput":1110438219736,"slotLeader":"c1cadab46b74defa9f79b59b617fe2a50bdbce6b367e472b6109a7bc"},{"blockNo":8127487,"slotNo":79226255,"epochNo":380,"epochSlotNo":429455,"hash":"241f3b83fbbc4adaba5159191981400e5b38734497d805d0fd1af2d77e57dfad","time":"2022/12/11 21:02:26","txCount":18,"totalFees":4359494,"totalOutput":294755329768,"slotLeader":"bf7908ea0ef61c441e4dca0e756f335c33459bb8f2779cb8f6caf8eb"},{"blockNo":8127486,"slotNo":79226235,"epochNo":380,"epochSlotNo":429435,"hash":"fab8beaa1bd2d1d536f15f18a27bcbdf526809b53bef02fa37c5b37f660bc2f5","time":"2022/12/11 21:02:06","txCount":6,"totalFees":2314332,"totalOutput":9670931075048,"slotLeader":"49f23c86547526bbd0c9320d3704542c84472f426b923a3e429392eb"}],"totalItems":21172,"totalPages":2118,"currentPage":0}