{"data":[{"txId":30483868,"txHash":"738e4d2cc7109ce165958b47f1ec3968e739cb8a3053c9cae896786b3c0778c0","txTime":"2022/02/08 09:57:23","block":6856390,"epoch":319,"slotNo":52747952,"epochSlotNo":303152,"stakeKey":"stake1u98z4elexjjxx8v4pvdvven2xc49dd8hwejxuyant7f5kdq0xw98s"},{"txId":30483850,"txHash":"b4623c1b9ed8141bf9af3c57e626c9b5f9fd9e8676707d4d782fd3999901d0ce","txTime":"2022/02/08 09:57:23","block":6856390,"epoch":319,"slotNo":52747952,"epochSlotNo":303152,"stakeKey":"stake1u9v2vckm36crlfnyu5ptsjxgey0963ejhf5hm8mpy039eqgw4sfn5"},{"txId":30483803,"txHash":"e1e3866fb9f46be5a90999bd2388ab81f4b5561fc2bab2e5b998b2f5b12832ec","txTime":"2022/02/08 09:57:09","block":6856389,"epoch":319,"slotNo":52747938,"epochSlotNo":303138,"stakeKey":"stake1uyafkx27myvhgmfu5ynskwxds470a9g56p8zusyrndm0w4q3fgt6z"},{"txId":30483177,"txHash":"00bafd64dfe050d6996334a578ba0ad48df0693f2207287d61766262baf854c6","txTime":"2022/02/08 09:44:11","block":6856362,"epoch":319,"slotNo":52747160,"epochSlotNo":302360,"stakeKey":"stake1uxnz9mmhe5yq8v9wwaepxz9m90lrrww7u4pzmr55fekvp8sgwwgz6"},{"txId":30482759,"txHash":"a1938253bbabbbe483ae9f116ecc4da03ab76e5920704fbb43aeb8465805864b","txTime":"2022/02/08 09:39:23","block":6856345,"epoch":319,"slotNo":52746872,"epochSlotNo":302072,"stakeKey":"stake1u8h27ejvk0ksx2hz3ld9ea33t2w4e6v88ex4qcc0295tedquvm56g"},{"txId":30482608,"txHash":"d13305ba0216fd49a8abc051daf060db75cba0191290a6c49ef46266cc1b9063","txTime":"2022/02/08 09:35:33","block":6856338,"epoch":319,"slotNo":52746642,"epochSlotNo":301842,"stakeKey":"stake1u8talp0ppaw0uqg0dpu9uu8q37y65petsc73ftt293qsl7c3w8nfk"},{"txId":30482371,"txHash":"9bd225fabd58836443a46398040696b97667f572e6dbb0ef0ccb19abe669fadb","txTime":"2022/02/08 09:31:47","block":6856328,"epoch":319,"slotNo":52746416,"epochSlotNo":301616,"stakeKey":"stake1u9nf0a8mqatx0e37z05f3w2ydwmqlmpk77j3ytjlnu9eqsch6sr32"},{"txId":30482261,"txHash":"7b5583a489a912dd46b65e7bfe7a19e3525953e12e63bac7d6dbc8f6b0a3c8fb","txTime":"2022/02/08 09:29:43","block":6856324,"epoch":319,"slotNo":52746292,"epochSlotNo":301492,"stakeKey":"stake1uxajdv0vlyasndlu8cnfmh6rygt6daaqxdqkwzj02a7yfgqa6exgw"},{"txId":30482125,"txHash":"8ee4b30132b24788a00f1670279c4862897ab34a519b6ebb9fa4f05d910499e3","txTime":"2022/02/08 09:28:53","block":6856319,"epoch":319,"slotNo":52746242,"epochSlotNo":301442,"stakeKey":"stake1u8wutvruwhgfvevrwy95s08zc393spentu0ygr5qr5qk2sglzhvyg"},{"txId":30481510,"txHash":"25141dd21a742a8e618ce33cb6691c2bceb1d237d1f323ddba5fe933b2dab4d4","txTime":"2022/02/08 09:21:23","block":6856292,"epoch":319,"slotNo":52745792,"epochSlotNo":300992,"stakeKey":"stake1uy0sw8zly8npczcfy35wqc5nrp5nwlhkvatytttqqfysrrqtpn3vt"},{"txId":30481374,"txHash":"c384ac9fe7e91413cd3e6e544e9e80313377e9566ed8670f15bfccca1d20e01b","txTime":"2022/02/08 09:20:12","block":6856288,"epoch":319,"slotNo":52745721,"epochSlotNo":300921,"stakeKey":"stake1uypkdh0y2cldgwyy28aj4kzg0f7ks3hxvk2jge0tw96lhjcjz0s2f"},{"txId":30480482,"txHash":"a85230244cc5e19b2df260420ca7df2fdbe79948fcaa5e70c7ef6e3b2b9747b8","txTime":"2022/02/08 09:07:28","block":6856245,"epoch":319,"slotNo":52744957,"epochSlotNo":300157,"stakeKey":"stake1uxth88v7908j9yzz08r7xzynxfjv99q4umqxul795rarmrcvpq45n"},{"txId":30480438,"txHash":"0299b33af644bf62254be46eb591f9aaf56de61e3fd44425fce522200529d0b9","txTime":"2022/02/08 09:07:24","block":6856244,"epoch":319,"slotNo":52744953,"epochSlotNo":300153,"stakeKey":"stake1u8sv2gqdaphffvlr9lp88lptrhpt9j2r32fpdpnwlwxgyyqlpxc6w"},{"txId":30479947,"txHash":"21e804372cb8372abcab3668a098826791bc01d33f3665725862da0965503f0c","txTime":"2022/02/08 09:00:53","block":6856225,"epoch":319,"slotNo":52744562,"epochSlotNo":299762,"stakeKey":"stake1u8656ymaju83yxv7rc2jvrcfqgwqkrzc3sjnumcn6mmmdagkp86w6"},{"txId":30479539,"txHash":"d2a16883e88f335187b6bf3e2037de8499b2d42ecaf4439ac091767b1b475502","txTime":"2022/02/08 08:56:32","block":6856210,"epoch":319,"slotNo":52744301,"epochSlotNo":299501,"stakeKey":"stake1u9cyhvavx9hl28wmrfykr2v76ux9gc36f53kk32cl7wdmwqvz2zrj"},{"txId":30479235,"txHash":"b17cfbded0e92eb92541636b539cd2c1b6cfaddf0540a1313a5ac492ae86f6c0","txTime":"2022/02/08 08:54:17","block":6856201,"epoch":319,"slotNo":52744166,"epochSlotNo":299366,"stakeKey":"stake1uxenvl87uwx73nedzp3swxy2rnjkd0mvcwsjfkvjhsrneucqdtw0m"},{"txId":30479093,"txHash":"5b8d42e80d103e56d0e35d3ca4037e9fe1a0511fd945393256f0ef577016694f","txTime":"2022/02/08 08:51:22","block":6856194,"epoch":319,"slotNo":52743991,"epochSlotNo":299191,"stakeKey":"stake1uyyylct3hukgmcc9qv8ury3pacdrwyd4ng20x725egn7x6qarxd2s"},{"txId":30479063,"txHash":"64cf6f215e3199b83ccf2630f5485bae4ea3e86f8240faa54b8e68d7df298c39","txTime":"2022/02/08 08:51:22","block":6856194,"epoch":319,"slotNo":52743991,"epochSlotNo":299191,"stakeKey":"stake1uy2dmdzj2gmg52pdfg5j47ju40q2rl47wpy05pln6k6pxfch3p2jz"},{"txId":30479021,"txHash":"d38e5ff1800a7f8a00d6f9c8d357c5df05773fab5cbe18aefb74773da5266c0b","txTime":"2022/02/08 08:50:55","block":6856192,"epoch":319,"slotNo":52743964,"epochSlotNo":299164,"stakeKey":"stake1u9rs9cwcr8g8qtt0nqfcr4ge5zrujwpfzmnnn7a2harx9pc42e6pl"},{"txId":30478985,"txHash":"9f4191c303093db6247efc3b4b0613513d8a880c0d9415f25b0116023dea0a02","txTime":"2022/02/08 08:50:55","block":6856192,"epoch":319,"slotNo":52743964,"epochSlotNo":299164,"stakeKey":"stake1u84rrug3ykaf29ysk4dlxt2s4y5p2zm9jvh809k48hf4khcwfep58"}],"totalItems":215301,"totalPages":10766,"currentPage":0}