{"data":[{"address":"addr1z8snz7c4974vzdpxu65ruphl3zjdvtxw8strf2c2tmqnxz2j2c79gy9l76sdg0xwhd7r0c0kna0tycz4y5s6mlenh8pq0xmsha","txCount":702189,"balance":44845113824041},{"address":"addr1z8297ay4dlcdngmat86080adn8f8jlvveammehrunpx60aqm5kjdmrpmng059yellupyvwgay2v0lz6663swmds7hp0qnm8ly0","txCount":431,"balance":30975422451995},{"address":"addr1z8jd97ct35n4s5ss8lt4sq0zclw0dmf7yak8fj46m0jm3dswtf6nj8t35qph4n6m04gawl49yvsxytfjpjpcfhehpcvqwwrrlu","txCount":8,"balance":21000000000000},{"address":"addr1wy0nmrl40z3nx9d0d79pu5u7zett4hl2apfuj9caqgf7jjqcj3r8z","txCount":834,"balance":14533674529590},{"address":"addr1w9afj34vc68qdm7heuz7esmr8sj76wpa45t7dh3ag8xpplgml3zuk","txCount":1145,"balance":14281415812608},{"address":"addr1w9qzpelu9hn45pefc0xr4ac4kdxeswq7pndul2vuj59u8tqaxdznu","txCount":498936,"balance":10806481633860},{"address":"addr1w8pydstdswmdqmg2rdt59dzql3zgfp9pt8sulnjgalycwdsj9js7w","txCount":68638,"balance":4968698048916},{"address":"addr1w93j7t23z99448k7xspzrppjtgun0janh0rcq6k8wt2e8vc2fraw4","txCount":3917,"balance":3851591850115},{"address":"addr1z8nvjzjeydcn4atcd93aac8allvrpjn7pjr2qsweukpnaytpq3ryg76qvca5eu9c6py33ncg8zf09nh7gy2cvdps2yeqlvvkfh","txCount":3118,"balance":3259614286997},{"address":"addr1z8nvjzjeydcn4atcd93aac8allvrpjn7pjr2qsweukpnayd8awyllkdhpwm7r3tnvvm0mzx592fzgazhuevl679cf7lq35qw53","txCount":1716,"balance":2696522263225},{"address":"addr1z8nvjzjeydcn4atcd93aac8allvrpjn7pjr2qsweukpnayvrzwt47mccrc8akjdnwat82r82man0g3s2m9czqdja6mfsqmv4gp","txCount":1132,"balance":2104252110714},{"address":"addr1z8nvjzjeydcn4atcd93aac8allvrpjn7pjr2qsweukpnaytvcg6zm2vds6mz9x3h3yalqmnf24w86m09n40q3tgqxjms9yu6v8","txCount":18802,"balance":2102627731805},{"address":"addr1z8nvjzjeydcn4atcd93aac8allvrpjn7pjr2qsweukpnay2tqrfwamagnyfv43jgm94yvkmsnfvpzlytmkl0cs0uh8zqszu5da","txCount":9168,"balance":1899309048907},{"address":"addr1z8jd97ct35n4s5ss8lt4sq0zclw0dmf7yak8fj46m0jm3dkumyryd7wxymucr47uyf9zekr5wn43f0ysvzvsgc5x80zqlvjd9t","txCount":18,"balance":1639362602011},{"address":"addr1z9fvxytwm8dv0aht3x8cxetm3tu4f47kaqdgxney8mu6hj8ktmp978vxcf308hnf8v4js57z4az4a0sx592h7t58w7fsqz6x77","txCount":5,"balance":1525993150679},{"address":"addr1zxgx3far7qygq0k6epa0zcvcvrevmn0ypsnfsue94nsn3tvpw288a4x0xf8pxgcntelxmyclq83s0ykeehchz2wtspks905plm","txCount":2596927,"balance":1363743840626},{"address":"addr1z8nvjzjeydcn4atcd93aac8allvrpjn7pjr2qsweukpnay0juqg4tpvktqnle8j0ukcnww78l7ze4lrgunuwqnxtvjps8lclpw","txCount":3597,"balance":1232561249122},{"address":"addr1z85t4tvj3rwf40wqnx6x72kqq6c6stra7jvkupnlqrqyarthhd58w0qrqpyv4dc2c2mk98sduawl7l4gjuc9rafyv98sgylfw3","txCount":7240,"balance":1085489220290},{"address":"addr1z8nvjzjeydcn4atcd93aac8allvrpjn7pjr2qsweukpnayg3sm3lpp76yuejdf6w3qyry2spy8xjmjrlxy2cstm3fthsjc3xze","txCount":8035,"balance":1038994269564},{"address":"addr1z9fvxytwm8dv0aht3x8cxetm3tu4f47kaqdgxney8mu6hj9jnkhthhfhduv0p5m4l93pdadpgxsuf3xl89rk2tnknx4qstj3xa","txCount":5,"balance":1022602739711}],"totalItems":30403,"totalPages":1521,"currentPage":0}