{"data":[{"hash":"c306c33543390b70deef32f00a75d59b6dfe03bebf284712fa13c7f103fc3b53","blockNo":8264695,"blockHash":"caaf258337f8ea2208d00d0883e45c7713b2fbaa292b9911dee7b3efe5f44ea8","epochNo":387,"epochSlotNo":224418,"slot":82045218,"time":"2023/01/13 12:05:09","addressesInput":["addr1qx76hnwx8qukkylx5te0em5gf7kgjqadv6x8z406mpyxz6nn3lmaa3wnh8ka8wxllq5f9kpp6spcwum5vvas6xgvuedsh0rgkp","addr1qx76hnwx8qukkylx5te0em5gf7kgjqadv6x8z406mpyxz6nn3lmaa3wnh8ka8wxllq5f9kpp6spcwum5vvas6xgvuedsh0rgkp","addr1qx76hnwx8qukkylx5te0em5gf7kgjqadv6x8z406mpyxz6nn3lmaa3wnh8ka8wxllq5f9kpp6spcwum5vvas6xgvuedsh0rgkp"],"addressesOutput":["addr1wxn9efv2f6w82hagxqtn62ju4m293tqvw0uhmdl64ch8uwc0h43gt","addr1qx76hnwx8qukkylx5te0em5gf7kgjqadv6x8z406mpyxz6nn3lmaa3wnh8ka8wxllq5f9kpp6spcwum5vvas6xgvuedsh0rgkp","addr1qx76hnwx8qukkylx5te0em5gf7kgjqadv6x8z406mpyxz6nn3lmaa3wnh8ka8wxllq5f9kpp6spcwum5vvas6xgvuedsh0rgkp","addr1qx76hnwx8qukkylx5te0em5gf7kgjqadv6x8z406mpyxz6nn3lmaa3wnh8ka8wxllq5f9kpp6spcwum5vvas6xgvuedsh0rgkp"],"fee":422065,"totalOutput":256802757,"tokens":[]},{"hash":"7ba822bd12f9ed7e83a2effff3069ad119acc0e89afb7882c66d9d7ed4f25a4a","blockNo":8264608,"blockHash":"68b15dc2414e3c8e318cbc7d40f69f436437318d506c3027543924d52b9352db","epochNo":387,"epochSlotNo":222529,"slot":82043329,"time":"2023/01/13 11:33:40","addressesInput":["addr1qxq5y44unts8vr2m8shpnlqf0l3de63qnfq0gq8nwk0v676jtz7y93808mevjgshdsvl9p9q9cpnhapq5c9qpfnx6lsq0mfznw","addr1qxsud697cnzweys49lgj5klwt45p8kyujrcs5q2yxf9khz6jtz7y93808mevjgshdsvl9p9q9cpnhapq5c9qpfnx6lsq7mqgm8"],"addressesOutput":["addr1q9ys3fqzrpnxsflgc7xe3lwke2nqhr8nt9ahnhg2f6fr65knchqur28c7wwu3ca2xpufvtdnu2ys99xhsz8xxyck9m4qhpkpuj","addr1qxnzzzaqtctzya7kd2lr9x520xvukl4fz2mep2f59ftyzezjtz7y93808mevjgshdsvl9p9q9cpnhapq5c9qpfnx6lsqnfw5en","addr1qyj8cpwsry7nxmlkvv4ctvtks4r8pzwv8n04p68cyux0ydzjtz7y93808mevjgshdsvl9p9q9cpnhapq5c9qpfnx6lsq6pc394"],"fee":508701,"totalOutput":40868005,"tokens":[]},{"hash":"ee4a680b945bc701b9242293261473961b4b49fc9a90830b04368222b469e415","blockNo":8264481,"blockHash":"dc0207f03801d310fdfb8f340bfc980a26877bd67e5281b56c431f7dfce69939","epochNo":387,"epochSlotNo":220320,"slot":82041120,"time":"2023/01/13 10:56:51","addressesInput":["DdzFFzCqrhtCNLnK64M8xtm17Tkq9yJPoJUbKvca8qvJ1rYCPEyxhcqEoANQ2eK6xm7MBSXRnWcSuWGAuvAMvLddHwxVxPsvcE9DhP4b","DdzFFzCqrhsyhG3zre7H9kr6LtWywR4RqFYTBsR1xsM547gGgNzCZXkdPGAx3BYgEfBqQGxrvdPZBw2Fnzetvx48qaeVjJJKjtYFvh64","DdzFFzCqrhsybuLbnzD8TiCNvhAHLiRoJBaSpo5Z9vYtc2XGqkbsa2XagecX8YU9YoKnbwe6vXTXGbJWiyjN49GgSrUN5n8Qxo3q6Ycf","DdzFFzCqrhsyR6QvBFQjdvty5deKSa4D2wRDyDMxRJuroDQbEoMdK9VeYsfkN8jUm82R4Ter7U3UoVsbdK2Aa1AkHn5pnx1yonvo4PKU","DdzFFzCqrhsoSvZMHUgxryxquU9QR6qPBp2uQN8UFjTyZF3GaeodgKnV2LULzmPgNR6onVmWRttWWsiizMhP5NXbHD9uHW7Z7A9YZkHr","DdzFFzCqrhsfzVq9cKFQh5RxPtuVbUyVCTad9ruAzVm7YQbamePcXDGnp9ZfWWxkThvy456xaBayTqyACBwx8xZfdwzFYkUrfqbJpJMp","DdzFFzCqrhsizxyd6oN7Ku9f4JY9wnwEr9ifNmcP4SbktcpajYZzWpRxUub61Ewk7skqqAKwEcj51eWc38D3yaP4fVkUZGMkvP8L9TW6","DdzFFzCqrhtCYf2QcQGVPCAaTaCcQjYkzAEsZpohLcuZCEWhTTG1865tpcfJQHME2ya5b12c1MtiXmtKxd5osv3AexeKK1kYg479gNfb","DdzFFzCqrht1s4iAsiVVionxs5XRaoPFyG9EqL8aPRwrK8TrRmr2anhVG2kgYA2DVHZ7MHeUBixkSXccwX4uNqdRFAXCxWR6FTDToBXQ","DdzFFzCqrhsq4uTKYzeCjrTqbNdhoX3L1M9aUHU55tFQW5wU5he4tzkto9AefUmXid49RUstUQnaQ9jgiN3iUom4ap8gaxqwanTkERRg","DdzFFzCqrht7yJEUHne5HXRdNFkFxykcoPUR83kjYMR57pfDNWpaDwgaqewv67nmMVNsYM92JLn6ntFrV2x5YfMcpbwSAWiqhj86FR1p","DdzFFzCqrhsdzK42MpiYLrWq4RcVTktQvBLy44xqqfUNDCQmY5mdyZ4Rrk9mb41wQD84G41uUWBfdgN6cEN692v4xFfKn2UNqejQ5Ur1","DdzFFzCqrht3VAqNXhXnpjRQ3o3isBMEAsgRbHAnpQU3SEFEAFQwVQPdEAuFhAmm7WENcgJmd1iLZv7dkBGw1FQtPxpxp6nsrdw5t3aM","DdzFFzCqrhsoVa8hcxAtA8RrSM3gtoRYQDzRbEEaTygYR3dBCyXjU8WAbrFFnsM4N5KpsThZp7Jd7uiB9o11NyuzyDTd6EdM4VWVe67u","DdzFFzCqrhsdvvP61ZdgkT436UoSKqkPAs3N5kFBna9vWwxoUA6ZvdVWJVTgjkWjVe6yGKeT5CcddzoM2CXJ81RPJ5SX4CJpE2KmvYy8","DdzFFzCqrht7yJEUHne5HXRdNFkFxykcoPUR83kjYMR57pfDNWpaDwgaqewv67nmMVNsYM92JLn6ntFrV2x5YfMcpbwSAWiqhj86FR1p","DdzFFzCqrhsv4xBNAmtkCEajsfAvngoWbQAqbPVLbBjmMwukS2gqUJeFsXuvRtXaUnXTG1wwi7baUt4xgjYSUnfVR24NhemRUNv6sDNd","DdzFFzCqrhshdLZUe71jE4G9dhtzwPu26UDhTgYQAgFG18wwwtXZFLPFSaNCyqgUvu66oYCM9oNU7ZAkG289MZjYSUv7E4iqKMP8iXc4"],"addressesOutput":["addr1q9atjfpqwdtg7ytz0pz9zcaqvx8zr2uv6ysvc4csqynr683dzefudzxhadht99nh8gv4l3z93d486ygllgxuh2drrrpsdw6fws","DdzFFzCqrhsmCnoxH1Vg2w9TPK9tRD3UF9fEGg7LNSBULQoDatuqdb5kyvsuxxiNByNVdME9JnXYitcAW8Akvboyf2bLSuUpzUukMmTZ","DdzFFzCqrhtD64dzWGFhdmkJqyvzKxoABowo5jJ3qNCqXFMALEkxoCLx6V4a1Prk5QTbDVFAWW1CdoMNppNahAFJ7cji2wq1EKvzKeY3","DdzFFzCqrhsp4J9DXk57kQhMxUCHPeYJ2YcHRfDvexeDWUUiQ3BvUn1xzCcCG4vhgC2auGgMb4MoETPHJNdSjd1pxKrYR5gNoRCFf1N9","DdzFFzCqrht1aHcDE2SGf1RWHVm4ECwcv4chcW7paC5ELo71gfocu4pW9cmuc4nvDSzdvgNk4cmQwXHKwUWvSSqby2FY2P518KgwCudx"],"fee":1079601,"totalOutput":50463119890,"tokens":[]},{"hash":"be2b970bb4b4124a930212f611103ade8ef767e475e35a3d9b5ff3c14cf300c9","blockNo":8264265,"blockHash":"3ec4abb26007c781e5c38a20dcba2b16345ae922901f457830ad1f2ef278b9c0","epochNo":387,"epochSlotNo":216585,"slot":82037385,"time":"2023/01/13 09:54:36","addressesInput":["DdzFFzCqrhswGFEfbCv3o7K2FdVimMfhaWxJjniPo99B8RLe4owiew3i7VQ8u3m4xJX4KBhdNvB4xFmFk5RSQKZQosf9f8gL4hE4syiB","DdzFFzCqrht5DgZYvjRqpGQnTEcP1b3YBgRF55z8cLJVB7rBMsuow7K4c7uBb2uZCKPxLryT3WJNj6H67smZ2HH6eT6yTnGzw2ccLnRN"],"addressesOutput":["addr1q9atjfpqwdtg7ytz0pz9zcaqvx8zr2uv6ysvc4csqynr683dzefudzxhadht99nh8gv4l3z93d486ygllgxuh2drrrpsdw6fws","DdzFFzCqrhtCYf2QcQGVPCAaTaCcQjYkzAEsZpohLcuZCEWhTTG1865tpcfJQHME2ya5b12c1MtiXmtKxd5osv3AexeKK1kYg479gNfb"],"fee":372081,"totalOutput":2115708739,"tokens":[]},{"hash":"bad0f8a78beb3520f9ace558c963e8a7d766edfd32c41b8af574db709707fd0e","blockNo":8264233,"blockHash":"ea91ea6fce75bb3f0040edc118deff562d0a50818d204a09054a4c563821e7ac","epochNo":387,"epochSlotNo":215983,"slot":82036783,"time":"2023/01/13 09:44:34","addressesInput":["DdzFFzCqrhskBRcwXUxeoKXzjxHRHF6RKNXvcEh5xxfLhbGFJRHduUBMkZgKeiyKEYBP99eHsQg2u8s1EzFPY4yTrxs5dCoyx6b9tk6s"],"addressesOutput":["addr1q9atjfpqwdtg7ytz0pz9zcaqvx8zr2uv6ysvc4csqynr683dzefudzxhadht99nh8gv4l3z93d486ygllgxuh2drrrpsdw6fws","DdzFFzCqrhswGFEfbCv3o7K2FdVimMfhaWxJjniPo99B8RLe4owiew3i7VQ8u3m4xJX4KBhdNvB4xFmFk5RSQKZQosf9f8gL4hE4syiB"],"fee":362401,"totalOutput":2115951440,"tokens":[]},{"hash":"1659f0cc5eaaf1cb2c0c66be559411237bdfc1645deb758bf83a3ded2956f856","blockNo":8264215,"blockHash":"87b073521c79b449a41cb0873a03fe837f39c730e22269d7daafbe676949e2fc","epochNo":387,"epochSlotNo":215629,"slot":82036429,"time":"2023/01/13 09:38:40","addressesInput":["DdzFFzCqrhsvrthb2hCEafoiEeJHncrdyvHUyViVmutKQg58PQtbVCAUJjHtoUBbiv8oEM2VFpW2wgQDLUVKkByTczCaK8bRsa4iUGvA"],"addressesOutput":["addr1q9atjfpqwdtg7ytz0pz9zcaqvx8zr2uv6ysvc4csqynr683dzefudzxhadht99nh8gv4l3z93d486ygllgxuh2drrrpsdw6fws","DdzFFzCqrhskBRcwXUxeoKXzjxHRHF6RKNXvcEh5xxfLhbGFJRHduUBMkZgKeiyKEYBP99eHsQg2u8s1EzFPY4yTrxs5dCoyx6b9tk6s"],"fee":362401,"totalOutput":2117563741,"tokens":[]},{"hash":"fc2dd1d1992543475e5b2dff6a0c4016f50801e02076e76f246ffaa0e96ab583","blockNo":8264194,"blockHash":"d66eaae2e3661234a05bbcaa7cf47af6979b9d0aca04fa1e736955e91acb57a5","epochNo":387,"epochSlotNo":215146,"slot":82035946,"time":"2023/01/13 09:30:37","addressesInput":["DdzFFzCqrhsgv5RRiRhpREg7du3FycE96k8MAGqY1etreVxNjbPbYUzEJsWQk3RwMstPTnUZH8rnKbF1NU1frt9RVKnvMnLeKHezarwS"],"addressesOutput":["addr1q9atjfpqwdtg7ytz0pz9zcaqvx8zr2uv6ysvc4csqynr683dzefudzxhadht99nh8gv4l3z93d486ygllgxuh2drrrpsdw6fws","DdzFFzCqrhsvrthb2hCEafoiEeJHncrdyvHUyViVmutKQg58PQtbVCAUJjHtoUBbiv8oEM2VFpW2wgQDLUVKkByTczCaK8bRsa4iUGvA"],"fee":362401,"totalOutput":2119176042,"tokens":[]},{"hash":"416477fae3d833479f5141699aed628ab85bd68c940d84574a9c06573618f284","blockNo":8264172,"blockHash":"e0fa388b3b541f97b66313376e12fde8d4eb7e0119b8c99943d02ff5130cdf0e","epochNo":387,"epochSlotNo":214718,"slot":82035518,"time":"2023/01/13 09:23:29","addressesInput":["DdzFFzCqrhtBb9rmp4LerJqXMG4rFnQWXAph7sPa54oubV2Yee5b68PttT4vjAAyQDrzT1jMoGBYjWhmK1hzsNpTyL8eLZvrQxLNiATA"],"addressesOutput":["addr1q9atjfpqwdtg7ytz0pz9zcaqvx8zr2uv6ysvc4csqynr683dzefudzxhadht99nh8gv4l3z93d486ygllgxuh2drrrpsdw6fws","DdzFFzCqrhsgv5RRiRhpREg7du3FycE96k8MAGqY1etreVxNjbPbYUzEJsWQk3RwMstPTnUZH8rnKbF1NU1frt9RVKnvMnLeKHezarwS"],"fee":362401,"totalOutput":2120788343,"tokens":[]},{"hash":"1cf8439296e94844ab5a110f06eeeef6246cfbeeca693eb80bfeb7e81a610262","blockNo":8264151,"blockHash":"cd0acedd4bdb29bfa9fec364ca5a2a4852ebdfc5c0d200b6e170f6b36b5c9476","epochNo":387,"epochSlotNo":214293,"slot":82035093,"time":"2023/01/13 09:16:24","addressesInput":["DdzFFzCqrhsnWdBNrgbjds7jp8kXYpfkaMxpV9bpTbD6NzCM4gC8DEsZgDzFdQCZhUUMWNigoAzijSaPwKZ6BAFmLBuWfCwwcBSawPXx","DdzFFzCqrhsyR6QvBFQjdvty5deKSa4D2wRDyDMxRJuroDQbEoMdK9VeYsfkN8jUm82R4Ter7U3UoVsbdK2Aa1AkHn5pnx1yonvo4PKU","DdzFFzCqrhsrq2YtJDZoooGsA1ys4P2TFKyrY3ncw2Bk9dR4UzMyx4Ni2buikft2iR9z5LJ4gVZe8W5pGJAqWVeS49Qynm7fPPEX7H55","DdzFFzCqrht72GciRmeY8QBGQsR4o6zFdgyHgDKku8ysGLrf9GYUwXQEFuKxPsWNVttGTGHgnZvZ8VFXHNPqiazKCWAZxn5iChC6Pmcy","DdzFFzCqrhsxBhfCnggxH9mGPhFQM8RLbfG2jdhHWMmLjh6BiKL4F1E9jr7VvB1C8DvVzeKQNpmZLFeVb9Qc1obgcq13TQgaeR2Tvhbb","DdzFFzCqrhsyJy46r3HwxeaQSDKTC4jAsyfhT8fnE7ssjUeLhscXg8f2EnpiPs3ErEg7z12WpX5ihNBDEscC5aAmsKUQzX1ZJtjuWXNJ","DdzFFzCqrhstvZ6Vxfm83EzALViggG8ehdVnpng8tV2UKZBDXcLcdji4z7ZdacNdAtvEpegotLE49yUAoNQcTG9kAuPmigV1FhCLcKpF","DdzFFzCqrhtCPgn6Xr4kxPWboeKLKsdb5vbd9hSHS3LHqGPZXWp43uYPFjjQkTuyyxRnR7iQHm2MHkjcCpcUtWB6RP4F78jmeLpTMD1M","DdzFFzCqrhsoDfqZwuqmASPERpMKCtBbJtQUxAJcZKe2o46xxexSYpQ1Uu2ABwB3pyUN9AankzB33AQ2PR5Pcj2FomxzieavXruwu2KC","DdzFFzCqrhsrULdffH3xQSavTx9yWPFrUj9zEssFDnL8CnCvNGAFqnUYhcdpguCoQAJciZjndNQncauAbPRokrwytwBmkEad4PaofYyh","DdzFFzCqrhsdzK42MpiYLrWq4RcVTktQvBLy44xqqfUNDCQmY5mdyZ4Rrk9mb41wQD84G41uUWBfdgN6cEN692v4xFfKn2UNqejQ5Ur1","DdzFFzCqrhsdzK42MpiYLrWq4RcVTktQvBLy44xqqfUNDCQmY5mdyZ4Rrk9mb41wQD84G41uUWBfdgN6cEN692v4xFfKn2UNqejQ5Ur1","DdzFFzCqrhsyR6QvBFQjdvty5deKSa4D2wRDyDMxRJuroDQbEoMdK9VeYsfkN8jUm82R4Ter7U3UoVsbdK2Aa1AkHn5pnx1yonvo4PKU","DdzFFzCqrhtCpQNB9EUPtPcBMR8GJXnL9Vy2KjUdPDJsEVtkXcfDv45uizWRVv77sMXNM7qcLXkv8NSDjGvQxnMXuDoj4iYgtdNNxy8i","DdzFFzCqrhsjvWihjUZ8jAxfoHZkupxv1db6wMzygFxCxWGGpdzaGVFYaLrsmuyKPB9PsqnQcmwoo3fHE4dfTDmg1cd9sEZMfgou9FMf","DdzFFzCqrhsmGYwweqo93e2oN2E2LVJApfvCQidxv8TBwNxpz7V1pAMdrNn6cAj3Xv1aBgpcPEiab4qRcpJpQZBcCd5Gqb4CnraKR3jC","DdzFFzCqrhtAsTDpjZ6dxSP9vAdzQ2zQaA5yWY5nfbX36XejZH3Si3PFYcbiWnqgG59V1ApNhGiNqPFhJWd952Vk6Vm46TudXGq5VfwF","DdzFFzCqrhtAbAKcHzGpyu8hYToLZWZwK9cKoT1RCfZ2BTM3F5U6TGqTtoqd8zJSeLAT4qBqJtmkf9CUPo3rNAkNEufaxTyZy7e7vjuP","DdzFFzCqrhsizFX3rTHBG6Rb3o1qdG9bdx3SQNWPhBcEwv25Xvz3YPg81auV6bGiJkDYrx8pZUCahQzct3x8gvyNhzxDd8b2dhR6yyvb","DdzFFzCqrhtCpJ8tKUYr4A74UNkvb7ELYQuM3ighwb26tjw8Axa4aPsVT3jH8V5rXesQecCqRvZj1qQSvoebDRD8kf18ph5hkwEjt24J"],"addressesOutput":["addr1q9atjfpqwdtg7ytz0pz9zcaqvx8zr2uv6ysvc4csqynr683dzefudzxhadht99nh8gv4l3z93d486ygllgxuh2drrrpsdw6fws","DdzFFzCqrhtBb9rmp4LerJqXMG4rFnQWXAph7sPa54oubV2Yee5b68PttT4vjAAyQDrzT1jMoGBYjWhmK1hzsNpTyL8eLZvrQxLNiATA","DdzFFzCqrhshdLZUe71jE4G9dhtzwPu26UDhTgYQAgFG18wwwtXZFLPFSaNCyqgUvu66oYCM9oNU7ZAkG289MZjYSUv7E4iqKMP8iXc4","DdzFFzCqrhsv4xBNAmtkCEajsfAvngoWbQAqbPVLbBjmMwukS2gqUJeFsXuvRtXaUnXTG1wwi7baUt4xgjYSUnfVR24NhemRUNv6sDNd","DdzFFzCqrhsvYyg1zgzbjmBXa8RupGFbyjfMhPtWabqBxY1tmFQmsDbyLRcw75DTowsfprTu2XAzgSPQntYFtVeTFBb24NMLn6RmeCVH"],"fee":1098961,"totalOutput":58490434403,"tokens":[]},{"hash":"990a95633fa4ee6661b9deef16783b8db5a922583bb7e26b74902f5e51ef5ac7","blockNo":8263794,"blockHash":"b4ae0723a38835e4b74efadbd55bbc9650d440f5169dd78cd8186765b4b581d6","epochNo":387,"epochSlotNo":207076,"slot":82027876,"time":"2023/01/13 07:16:07","addressesInput":["DdzFFzCqrhsg8312ijphreTT6NYAjzqi5XctMQVhC71qq5rBFdnDrEqjpTTMKZhBpFpiq397e9R6KyMnPa376uzZCxguMSTzpJLTeutn","DdzFFzCqrhsxhdNeuH9qXx7WDxNALVd69VoykwpGwDRZ2tn2j4Dv3mpJ9pA1V8GJ8fdwgvTXDBBpNReNC2opML2JvARKM5VLTbPrNWgN","DdzFFzCqrht4cn3R7jhxtrnpfWJ4bswQQSEmsGCf1QvgCyMcwCh3VZDoLmNyMHtPEY9BoihG33KVNmeLmtB38S4mJ4ECRuTWAHNYQU8G","DdzFFzCqrhtBaB8AXMe5nzxuHUh9qxCVQphcgzrRutT4qRWXM8DwfjJkUZ9Eadz1QaPwPSL2th9ms2xzFS2qxU1dAKEuC7ma91VCy3rQ","DdzFFzCqrhsyFxFxycfjNPQWs3ADm8QMxXiGvAXSKPWvCALJrVr3xvegnC9uTaThrT1MnAy6rArSPyZffRE3y18FiR5JAoqQAkrpWqg5","DdzFFzCqrht2hhhjWXMqesmyiiqUbDRvVihNoSwdNzvDHN7LxvMHsiGCGCuRBvQXmWT3FbE5aUWbmreAKoX7uu4CDnK7XHZ1vbYY6Z45","DdzFFzCqrhtDDXaNY8hnprux2u4CeP6w7mnswaowfwYnwGYe1g6B9SscQHHP12FUpa8SmLaCbhLWZyruo5w2QP2NfD69U8kLrk5Jmfya","DdzFFzCqrht3kXhnRqQZGFY7Y5yR3a5V2jsKaztvib2Rp3wqo45Jgksb75nTumeBd5APnF5WFTbBhvsL4MqD6mtaEqTgPAaaoKa19R8n","DdzFFzCqrhsh3m24XkPp9jzoCMTAMpPqhs3ZQFsYhDkJCmvx2kWfio5PTrkdS5MbKLqXLgFzh71QrGtk1NZibNMGSvrLAxmgizpkN5c3","DdzFFzCqrhtCugV4KdVV7eR8s8DSFyxuo1CvTwW8TnUNawu2a2rtZ8cn3p8Me2AF5EpPZ6mSNCYE7hWpRh9j1K9eUKJ2jtV3j3b1WBvC","DdzFFzCqrht8mHghy7AEkvHEbj6n5Z2LGEBBwi5ajvMVPqDf2ifS2CPu84xuyG39eH5u1x2Zx6GYfdKXqrJt6vb4EC8xHDG999f2Nt97","DdzFFzCqrhsjiKkXSoDr8dU33h6hA9oSLU4EkLvgJRVnVEctkyFNmrd5SmxsGcdehKCdoYF3MxCDviWJyxBrrEdHVEgR58zTRU7Sqt9S","DdzFFzCqrhsdroLX2p82eKNQAvMHwLzBaUYM7Q5D4oHeAnEqXmhW3idSsHJXgSxenUNSgpiyVB6chdGHo5MVNTTCYd6tMfwPaAhk9np2","DdzFFzCqrht4UZAB8epayb8TAqD1MNFzkQdwYCmcHpywokqYBT5FedfXKo6XQeLZdvVsGjjEHr2h62RW543YkxB7M9zz6EnBsjdARCEE","DdzFFzCqrhsiecg45rQoupmcasB4qYCPmQDVYdXzzQms9c6SC7nUTe91nb9uDRVvwJWUPrHHJ6GCLEizoB9Wn4eW5Xm5ovWakg3naDit","DdzFFzCqrhspPay8qJ2oFHuWXrq8SRn6Wab9Kd8NLQvHCu4Rwm2uaRxDCsQejVCfSP7i6HsKufMxgACBW4gcw4zaL7KSGMettB86dW4q","DdzFFzCqrhsg8312ijphreTT6NYAjzqi5XctMQVhC71qq5rBFdnDrEqjpTTMKZhBpFpiq397e9R6KyMnPa376uzZCxguMSTzpJLTeutn","DdzFFzCqrht3kXhnRqQZGFY7Y5yR3a5V2jsKaztvib2Rp3wqo45Jgksb75nTumeBd5APnF5WFTbBhvsL4MqD6mtaEqTgPAaaoKa19R8n","DdzFFzCqrhswU2ud6aC9sZbaLF3hwSTpfH6ftcGan9QJnWHERDn2cf9vvLTEawRVucMbc3tyjN1m4k7qdy1fURJ2EY8X9zFHgRE7FUkd"],"addressesOutput":["addr1q9atjfpqwdtg7ytz0pz9zcaqvx8zr2uv6ysvc4csqynr683dzefudzxhadht99nh8gv4l3z93d486ygllgxuh2drrrpsdw6fws","DdzFFzCqrht72GciRmeY8QBGQsR4o6zFdgyHgDKku8ysGLrf9GYUwXQEFuKxPsWNVttGTGHgnZvZ8VFXHNPqiazKCWAZxn5iChC6Pmcy","DdzFFzCqrhsrq2YtJDZoooGsA1ys4P2TFKyrY3ncw2Bk9dR4UzMyx4Ni2buikft2iR9z5LJ4gVZe8W5pGJAqWVeS49Qynm7fPPEX7H55","DdzFFzCqrht17N5QqQpfTKMBvTyt6Kgj3dWRFz6VjSNZdLsheYpP3Nq3r1kBk56h3Jgs1FaR5BS9ddjJuG5WGTgqwwRritC6U9NvVftA","DdzFFzCqrhsg7dfsUH43VMnpBQp42QCxfCEc15GgxK4f6Xo6fn5E9Nn9XYkzy2FT3FgYn4kZN7BFTY49DACrRJBoBzYh11ZmS4trDb9k"],"fee":1089281,"totalOutput":52524111889,"tokens":[]},{"hash":"aad31daf413cbf26a35649c4e7b851b90c931296f05c478d876fc0be2ab9bfc1","blockNo":8263663,"blockHash":"1992c20f093487728a1b388f744cfc7bdb71fdbffa50a5008b8e6592fefd9807","epochNo":387,"epochSlotNo":204084,"slot":82024884,"time":"2023/01/13 06:26:15","addressesInput":["addr1q8awq9hnm0g54mmmnaqvuqvqvpdau7jgcsvjne3xkn8pe8rtfwww90n8hqpztgvk3uf8vu3pcs9s4ca27murgrfrk23qjw2dsj","addr1qynqkps2fme5kyg9llfr2uq2umadh7vylpsxlfjjt5lhqettfwww90n8hqpztgvk3uf8vu3pcs9s4ca27murgrfrk23qhgl6nx"],"addressesOutput":["addr1q907h4egsf8ff6t0z4tzy58z4tqvwp73dtupvms6x30wnzrlqwua4mhfluw3myclgrdqzl9gc4k0n62xqz8fmwh8z7wq75xv7m","addr1q805lqda0j45sgcthkewf3k4krc67rx2lpsalpueshn85sttfwww90n8hqpztgvk3uf8vu3pcs9s4ca27murgrfrk23q24w5fj"],"fee":353205,"totalOutput":121743169,"tokens":[]},{"hash":"5a44a662412bf7b9b1eedc6bf50979ec4aea51f8fecf29fbbd736d06c5cb9aa0","blockNo":8263578,"blockHash":"8026e1ebacfc975e994b704fe8417fdb35ed63a08ea97e059869c315a6645004","epochNo":387,"epochSlotNo":202262,"slot":82023062,"time":"2023/01/13 05:55:53","addressesInput":["DdzFFzCqrhsoyyALwa9MgEKe821wgZUZQi2kvtBPRtzuaWyTySfL66PgQcjmkRfpnDxyD9hBTwnKvDCfDbHHRfuQWMXieSd3M7PbJBNE","DdzFFzCqrhsjLvNvoQAU3YCy9X4mvuWh3PJyn6scfqTprLNS3nrvWcwBA7kRAL4aSjsrDAXzMNfNi4NR84JD79eoGggeco91gEf2aDnc","DdzFFzCqrht4cr4WfgBfhx15k7aNBdzmay8mKUTYkWBjNLAB9DC75eiiHRvs8CVjHePr8oZYrVMqUkSFiiUy7xiNqieGJaas1z7hYfkm"],"addressesOutput":["addr1q9atjfpqwdtg7ytz0pz9zcaqvx8zr2uv6ysvc4csqynr683dzefudzxhadht99nh8gv4l3z93d486ygllgxuh2drrrpsdw6fws","DdzFFzCqrhsh3m24XkPp9jzoCMTAMpPqhs3ZQFsYhDkJCmvx2kWfio5PTrkdS5MbKLqXLgFzh71QrGtk1NZibNMGSvrLAxmgizpkN5c3","DdzFFzCqrht8mHghy7AEkvHEbj6n5Z2LGEBBwi5ajvMVPqDf2ifS2CPu84xuyG39eH5u1x2Zx6GYfdKXqrJt6vb4EC8xHDG999f2Nt97","DdzFFzCqrht4cn3R7jhxtrnpfWJ4bswQQSEmsGCf1QvgCyMcwCh3VZDoLmNyMHtPEY9BoihG33KVNmeLmtB38S4mJ4ECRuTWAHNYQU8G","DdzFFzCqrhsw2zZZrNxjpB9DjpuWwYVrVFBYRZibfshMTwfHdYUDn8nx1DCQ5CU4iNLEQatahYPgFs8uBPNxMEw68Jea6PkK7hm7VPzE"],"fee":934401,"totalOutput":51671829331,"tokens":[]},{"hash":"e43630a28e2d107594b3d0608c373cfc414c0ec8ee12a09e61d4082aec4527ba","blockNo":8263554,"blockHash":"105323c87a2d784c965fdb7c8fcaeef210d9abff4ea0429ca93fd3a7241f0fcb","epochNo":387,"epochSlotNo":201888,"slot":82022688,"time":"2023/01/13 05:49:39","addressesInput":["DdzFFzCqrht2hhhjWXMqesmyiiqUbDRvVihNoSwdNzvDHN7LxvMHsiGCGCuRBvQXmWT3FbE5aUWbmreAKoX7uu4CDnK7XHZ1vbYY6Z45","DdzFFzCqrhspG5bsCnA6h9WAvQLFkUfyPT8ckZjJaCgDcmEWmN8fyeHmoD4mnPKjZiVbAdPEubxz6YRZMhp5Svw3DcQryWDLcm2AeVNa","DdzFFzCqrht9gi9Hi8QgPajn4eFwdNcWn4kdLK4A28h2UnFTgYoeDboQPVPq9PyHpRQQUVVxHZEFLEGTcNeVvjiByVq9WGKZvxaASFCs","DdzFFzCqrht7DWG4zZpbqSKb9AsV8BHEaXqC4fHdmtDZFSiJKAnjTeKfFGAHXJFHqGokZLsKCWS68QpMnXvYyGvVfZF4D6CNA6TUbfs2","DdzFFzCqrhsekbVRTkAno9jijJNqaHFJ73mumocjRABEUJqHcPXNHen4iHPnF4dRwPeHQzQfhvVKQDzrmga2SHzmiHpRtgru3cNWdN6B","DdzFFzCqrhtBiGjgNkrdmm5jZVRmfnnNdz99xrkDyGZs276MMXQcvDCLctboJLP3aWPR5cKu3nznvfwMgRaspXAddYXVbCRVFVcgVp5a","DdzFFzCqrhsdzK42MpiYLrWq4RcVTktQvBLy44xqqfUNDCQmY5mdyZ4Rrk9mb41wQD84G41uUWBfdgN6cEN692v4xFfKn2UNqejQ5Ur1","DdzFFzCqrhtA63kYJrwm7AqQAouwVzi2GMHvTJjUV4kxMT3EJuNiNSSrg5Qfw4kBBondc7eEAKCAEMdgnuYDHWAVvh2y5pAmqn9kArcu","DdzFFzCqrhsogSCeEp13hFZkebvAJV3znGWxyy1fFJ9k51wmoGH9xbqRvzm4jd1iaKxeTWXZcmu83AnuPJnz3xg1LsrkLVZxLYHQHhEK","DdzFFzCqrht5Ya8nRqH9TJbdbPd2hDx7ghodp7db5UHxnQuMXPndU6Ro8xHKVRn1Kf3yrTSCRsR2XptaReDHBWMViNUMa13MPWHrsakx","DdzFFzCqrhsog5BiDPaXwRiddb4gCk7xfCjFGUWpHwXfUyCbAdxJZuumpvmYCPz8o2bFQoYZ4gAsP6dMr5oNRPRjPoupKPM8wWCKC6vx","DdzFFzCqrhsgJBM1X2JVEvTeoxswsCbiZjgzME52udCEyvaVgyADy1ELkZsXAJP9eBuAkeWK9PrmMhkVGjX1iKikUtH1oPkK1tpgJifH","DdzFFzCqrhsh5RLgridtfZFq6PLjy2y2f3JRvATcctTFJMwJ6ZKTF6aRiUHiUJqZujinHkAQkgqvyLhaTXdJHv6wnyMo46LvFYamL88t","DdzFFzCqrhsmT8BeJMtTcjTDykde1KjgkQ1Qs3XoTrW7tqzjan8MB4KPzGH9xQdPrvH5Ah84nVbysXyi2LAtBYfsAkryhFnGvGErGsao","DdzFFzCqrhsjdr4buAXLbcdY9dpB6fdy1ms146LbyDapRrqCFLX1MS2gs3KfSHDLdhpgX7X1ZyPQ44GxHQKQ3yjnLgmkaGnh7wkza6TH","DdzFFzCqrhswXjpqLxeb8RAMtGpnFDLcDz6Xn5b7ufBFiv8RfdB6RdpXfPrP2UT4jHkyNWk3FbB44qD3b1xQX4fpprWNCqCiPPfgrNxB","DdzFFzCqrht6iJcetRfQYhQH37J8NokNYNw1UQeXM2puJJS98QAjxSnzkWxZ5FLhC11NhcsRd4FVndSXZJqQjYsr5ch3rFU7WHSDi5UW","DdzFFzCqrhseT6mfwhnf9YmNTXAA4KxUzcKBjHtP1e5v6FYMEkpKEd3q4mYnVMPuPB8hw99HPmSwrYyqz14JsekUY4rNCBRdmHywWb8L","DdzFFzCqrht2UVMqSjBmddyZdrV7VTnPQbSM8YyxZnLbL8Q1dFHGJVMLCQaYF6ua9NXe458Bf9NriUfXCZPHut6xy3PxwTbLb8zAkB7q","DdzFFzCqrht9Ht5WRSGNXHDtZUpoWYDPwZeD7V8wpHchawb5ZtjyDnFmxKYMPvr1u8j2LUyszuwbna2pkXwuMUn3Cy2LpqemwFYkNvyU","DdzFFzCqrhssQXo6QkW6W6suVrU1RHchbEasfy3FtinZNE1upDqp9uXZucSu8bZyTmvkZ2zdJwEhx9RNbQqf7spv1yj2orPVhR9Wfsh7","DdzFFzCqrhsf9cMYuEMFyrwKdmwWvEXGGS5juYKFi77MpgBxK68WGT1Rpj6bBPPUTBnwdRs3kgv6UjsVCibxgEB5hr1rhbghWQyti8iC","DdzFFzCqrhsiCj9HEsu8Jzuo8t78rB7Ju8229Eh7FCqsMZxHkzacNLvX2oQ4prUbLwN1m9CLZgJXcusFi73yM6Vqbm7af88RGJUEEF1C","DdzFFzCqrht6e56E2ekNxTUhPZjKc4D1nboftm5R4UgbNaeANgBJXw6C5Wghf1MKG9vLWKiH1P6zP96A3L3t9LxDWZfP9cxyhMAtRajY","DdzFFzCqrht2EVHjaxtCMbT7kfoYf9RzX88U6XEEEwea42qQWctt9WyM6tLAKX5RR3s4gvJ82Khhhs1yuQFfZUBwYtnuNDEUsmQJ4GnL","DdzFFzCqrhsqKGEnaDmbGLSJjLENRa2NWCRc5gj2MkT3vevZabwyU2WsWZfChJEzbhgzc9urhv4DfAgfy5j8EXsnuWWPXmuGvBuRyMTK","DdzFFzCqrhtC7Pkb7ocMinRXrJbbJ4R41AZ4A9jrLChiMuru2LCoCUKXaAHFySckdAVDDkRoMHWFiGibaNAZWYmfCTcbwCUfgc6nvJtt","DdzFFzCqrht5ybquskeA4T9eKmhATjcV4P2cyGF9L7BgZxrpbQqDzCbF4ukuUZpVFQwJ1wK1vijjarJJrcbs13R7XySNrqRdyeHgdPTX","DdzFFzCqrhtCkTZ7CU8B8ziUsgwPdymJcpqYDsDizsUVcBEiiiG6KpSZUQ6wYHiZtmeu6QdisRpAx3xuosCL2aK7w2ZjnTravoERtv2S"],"addressesOutput":["addr1q9atjfpqwdtg7ytz0pz9zcaqvx8zr2uv6ysvc4csqynr683dzefudzxhadht99nh8gv4l3z93d486ygllgxuh2drrrpsdw6fws","DdzFFzCqrht4cr4WfgBfhx15k7aNBdzmay8mKUTYkWBjNLAB9DC75eiiHRvs8CVjHePr8oZYrVMqUkSFiiUy7xiNqieGJaas1z7hYfkm","DdzFFzCqrhsjLvNvoQAU3YCy9X4mvuWh3PJyn6scfqTprLNS3nrvWcwBA7kRAL4aSjsrDAXzMNfNi4NR84JD79eoGggeco91gEf2aDnc"],"fee":999653,"totalOutput":94147025456,"tokens":[]},{"hash":"154b41244b39b5454d7dfa05c6b68d67d8990ff5d8275da43c1c0d37804893c0","blockNo":8263523,"blockHash":"5cd56fe275ec45c612e7dc44c53b5ecefe89f1a68848281188b671e995b28b22","epochNo":387,"epochSlotNo":201209,"slot":82022009,"time":"2023/01/13 05:38:20","addressesInput":["addr1q9vj9w32w77p47ca725hantcf5nrzcex66vqq58kqm4l04y6hn99676mvdj6qvd34vfqh3jx6vy8tyfkuy6u3xcghq8sex2gzq","addr1q9vj9w32w77p47ca725hantcf5nrzcex66vqq58kqm4l04y6hn99676mvdj6qvd34vfqh3jx6vy8tyfkuy6u3xcghq8sex2gzq"],"addressesOutput":["addr1zxgx3far7qygq0k6epa0zcvcvrevmn0ypsnfsue94nsn3tvpw288a4x0xf8pxgcntelxmyclq83s0ykeehchz2wtspks905plm","addr1q9vj9w32w77p47ca725hantcf5nrzcex66vqq58kqm4l04y6hn99676mvdj6qvd34vfqh3jx6vy8tyfkuy6u3xcghq8sex2gzq","addr1q9vj9w32w77p47ca725hantcf5nrzcex66vqq58kqm4l04y6hn99676mvdj6qvd34vfqh3jx6vy8tyfkuy6u3xcghq8sex2gzq"],"fee":301021,"totalOutput":12702324,"tokens":[]},{"hash":"0704fd8e120a835ced12c5d49ead147e7b467c129766442c7c8b0d7794e54649","blockNo":8263449,"blockHash":"30970d7016936eac978faa63b55fff6f42112113fa0d4f9c8b803d0f405f0d19","epochNo":387,"epochSlotNo":199844,"slot":82020644,"time":"2023/01/13 05:15:35","addressesInput":["addr1q9vj9w32w77p47ca725hantcf5nrzcex66vqq58kqm4l04y6hn99676mvdj6qvd34vfqh3jx6vy8tyfkuy6u3xcghq8sex2gzq","addr1q9vj9w32w77p47ca725hantcf5nrzcex66vqq58kqm4l04y6hn99676mvdj6qvd34vfqh3jx6vy8tyfkuy6u3xcghq8sex2gzq","addr1q9vj9w32w77p47ca725hantcf5nrzcex66vqq58kqm4l04y6hn99676mvdj6qvd34vfqh3jx6vy8tyfkuy6u3xcghq8sex2gzq"],"addressesOutput":["addr1zxgx3far7qygq0k6epa0zcvcvrevmn0ypsnfsue94nsn3tvpw288a4x0xf8pxgcntelxmyclq83s0ykeehchz2wtspks905plm","addr1q9vj9w32w77p47ca725hantcf5nrzcex66vqq58kqm4l04y6hn99676mvdj6qvd34vfqh3jx6vy8tyfkuy6u3xcghq8sex2gzq","addr1q9vj9w32w77p47ca725hantcf5nrzcex66vqq58kqm4l04y6hn99676mvdj6qvd34vfqh3jx6vy8tyfkuy6u3xcghq8sex2gzq"],"fee":310041,"totalOutput":78003345,"tokens":[]},{"hash":"eeba162b4fdf7dbe520b6f8e39914daede13e5f936ab76393a103f5abc771d57","blockNo":8263259,"blockHash":"5f3fb8c0ec3c7c3e85fec66b645491b4941e391751855563146ad16f38c0dd5c","epochNo":387,"epochSlotNo":195830,"slot":82016630,"time":"2023/01/13 04:08:41","addressesInput":["addr1q9vj9w32w77p47ca725hantcf5nrzcex66vqq58kqm4l04y6hn99676mvdj6qvd34vfqh3jx6vy8tyfkuy6u3xcghq8sex2gzq","addr1q9vj9w32w77p47ca725hantcf5nrzcex66vqq58kqm4l04y6hn99676mvdj6qvd34vfqh3jx6vy8tyfkuy6u3xcghq8sex2gzq","addr1q9vj9w32w77p47ca725hantcf5nrzcex66vqq58kqm4l04y6hn99676mvdj6qvd34vfqh3jx6vy8tyfkuy6u3xcghq8sex2gzq"],"addressesOutput":["addr1zxgx3far7qygq0k6epa0zcvcvrevmn0ypsnfsue94nsn3tvpw288a4x0xf8pxgcntelxmyclq83s0ykeehchz2wtspks905plm","addr1q9vj9w32w77p47ca725hantcf5nrzcex66vqq58kqm4l04y6hn99676mvdj6qvd34vfqh3jx6vy8tyfkuy6u3xcghq8sex2gzq","addr1q9vj9w32w77p47ca725hantcf5nrzcex66vqq58kqm4l04y6hn99676mvdj6qvd34vfqh3jx6vy8tyfkuy6u3xcghq8sex2gzq"],"fee":309513,"totalOutput":78576547,"tokens":[]},{"hash":"6d289ac1c6cd028d9e1affc8aad7f1e393a39d686681eb94d5b576186da9cdd2","blockNo":8263248,"blockHash":"d5dc2ee433786a14296cb7db77965807cf9d5b2508e58711584729421f5b065f","epochNo":387,"epochSlotNo":195568,"slot":82016368,"time":"2023/01/13 04:04:19","addressesInput":["addr1q9vj9w32w77p47ca725hantcf5nrzcex66vqq58kqm4l04y6hn99676mvdj6qvd34vfqh3jx6vy8tyfkuy6u3xcghq8sex2gzq","addr1q9vj9w32w77p47ca725hantcf5nrzcex66vqq58kqm4l04y6hn99676mvdj6qvd34vfqh3jx6vy8tyfkuy6u3xcghq8sex2gzq","addr1zxgx3far7qygq0k6epa0zcvcvrevmn0ypsnfsue94nsn3tvpw288a4x0xf8pxgcntelxmyclq83s0ykeehchz2wtspks905plm"],"addressesOutput":["addr1q9vj9w32w77p47ca725hantcf5nrzcex66vqq58kqm4l04y6hn99676mvdj6qvd34vfqh3jx6vy8tyfkuy6u3xcghq8sex2gzq","addr1q9vj9w32w77p47ca725hantcf5nrzcex66vqq58kqm4l04y6hn99676mvdj6qvd34vfqh3jx6vy8tyfkuy6u3xcghq8sex2gzq","addr1q9vj9w32w77p47ca725hantcf5nrzcex66vqq58kqm4l04y6hn99676mvdj6qvd34vfqh3jx6vy8tyfkuy6u3xcghq8sex2gzq"],"fee":440521,"totalOutput":78886060,"tokens":[]},{"hash":"fa8d1a94b5186df680ed00d052530b6202c6804255f68fca7345cfa2693617a3","blockNo":8263198,"blockHash":"6581427d521e4b639e2b63679e49afa419c53a3caef80420d69dd402bc984857","epochNo":387,"epochSlotNo":194424,"slot":82015224,"time":"2023/01/13 03:45:15","addressesInput":["addr1q9vj9w32w77p47ca725hantcf5nrzcex66vqq58kqm4l04y6hn99676mvdj6qvd34vfqh3jx6vy8tyfkuy6u3xcghq8sex2gzq","addr1q9vj9w32w77p47ca725hantcf5nrzcex66vqq58kqm4l04y6hn99676mvdj6qvd34vfqh3jx6vy8tyfkuy6u3xcghq8sex2gzq","addr1q9vj9w32w77p47ca725hantcf5nrzcex66vqq58kqm4l04y6hn99676mvdj6qvd34vfqh3jx6vy8tyfkuy6u3xcghq8sex2gzq"],"addressesOutput":["addr1zxgx3far7qygq0k6epa0zcvcvrevmn0ypsnfsue94nsn3tvpw288a4x0xf8pxgcntelxmyclq83s0ykeehchz2wtspks905plm","addr1q9vj9w32w77p47ca725hantcf5nrzcex66vqq58kqm4l04y6hn99676mvdj6qvd34vfqh3jx6vy8tyfkuy6u3xcghq8sex2gzq","addr1q9vj9w32w77p47ca725hantcf5nrzcex66vqq58kqm4l04y6hn99676mvdj6qvd34vfqh3jx6vy8tyfkuy6u3xcghq8sex2gzq"],"fee":308941,"totalOutput":79326581,"tokens":[]},{"hash":"7b751cec2a6ae30de1e6a927cc3819b6ab482169a87c1aecdbb24b38be984762","blockNo":8263105,"blockHash":"50a6c236bad4aa9d0012e92e6e7c9d48de25fd5ea8ab8b14210ab9c4d04cc071","epochNo":387,"epochSlotNo":192526,"slot":82013326,"time":"2023/01/13 03:13:37","addressesInput":["addr1q9vj9w32w77p47ca725hantcf5nrzcex66vqq58kqm4l04y6hn99676mvdj6qvd34vfqh3jx6vy8tyfkuy6u3xcghq8sex2gzq","addr1q9vj9w32w77p47ca725hantcf5nrzcex66vqq58kqm4l04y6hn99676mvdj6qvd34vfqh3jx6vy8tyfkuy6u3xcghq8sex2gzq","addr1q9vj9w32w77p47ca725hantcf5nrzcex66vqq58kqm4l04y6hn99676mvdj6qvd34vfqh3jx6vy8tyfkuy6u3xcghq8sex2gzq","addr1q9vj9w32w77p47ca725hantcf5nrzcex66vqq58kqm4l04y6hn99676mvdj6qvd34vfqh3jx6vy8tyfkuy6u3xcghq8sex2gzq","addr1q9vj9w32w77p47ca725hantcf5nrzcex66vqq58kqm4l04y6hn99676mvdj6qvd34vfqh3jx6vy8tyfkuy6u3xcghq8sex2gzq","addr1q9vj9w32w77p47ca725hantcf5nrzcex66vqq58kqm4l04y6hn99676mvdj6qvd34vfqh3jx6vy8tyfkuy6u3xcghq8sex2gzq","addr1q9vj9w32w77p47ca725hantcf5nrzcex66vqq58kqm4l04y6hn99676mvdj6qvd34vfqh3jx6vy8tyfkuy6u3xcghq8sex2gzq"],"addressesOutput":["addr1zxgx3far7qygq0k6epa0zcvcvrevmn0ypsnfsue94nsn3tvpw288a4x0xf8pxgcntelxmyclq83s0ykeehchz2wtspks905plm","addr1q9vj9w32w77p47ca725hantcf5nrzcex66vqq58kqm4l04y6hn99676mvdj6qvd34vfqh3jx6vy8tyfkuy6u3xcghq8sex2gzq","addr1q9vj9w32w77p47ca725hantcf5nrzcex66vqq58kqm4l04y6hn99676mvdj6qvd34vfqh3jx6vy8tyfkuy6u3xcghq8sex2gzq"],"fee":315849,"totalOutput":79898683,"tokens":[]},{"hash":"2e8e9344f189cce7d63600f8ead2956039e3f11664354cfb8b7f960e6fe3d545","blockNo":8263095,"blockHash":"ad8cd2b26ddc15864c1394fb46a013bf10a162188c4314a259592d188adf3205","epochNo":387,"epochSlotNo":192304,"slot":82013104,"time":"2023/01/13 03:09:55","addressesInput":["DdzFFzCqrhse1mMYZFL95gAuQaYG1uPu7vtDqNCiabLjk6etTorVR7KCHjaGPFFwRDdjZdSxLYmnPPrLJg91njSyT6dcnasQgLc8ew11","DdzFFzCqrhshLXW3ffe9et1LCarVYo32EXnsu8FZrV2jAKeptxqExwzJp3CPK2f8tRtvd5ysZFy5McC5Bm6jbojULEU7WgjGt4gSoFKs","DdzFFzCqrhskm7aWrvNhiweAK5pBbLpUbgMAzFrTAabWkMS1372ALfU9qcruQonTz9NBsKQ7sE5nvGaZBTFj1KzxnUXEekmMvuE4887u","DdzFFzCqrhssNarezaKWV5H6GVfdHySVfw6RxrspuM6n3fJHptioPZ9n4aw1353bBiXJoaUYazEzzT3MzWbqK16dMA4JjZoBpkcMGapf","DdzFFzCqrhsu4SZmzaRLR1vdfGKCzCZT2Lh1UQXmkiwNj1vh4VbzJ5TNrKpu6RrEzMsp1hg4MFKksJ3vJ7iKS1dnvMtPMxyqudAYQHd1","DdzFFzCqrhsoa4isqwXqpgTATELMWukhRKqyhWFf3UdEgu3igR5UnJrFrJTCziTcq99KhWEwFqrvXT6BARxWiyW3QcHeiSQf8K4PvPFG","DdzFFzCqrhsufntb5nPzXzzHQWvCnvTSs3bEXEmpJMxMLbDfE9kCP35oDmCTN7esxyNwNbkVT6Gt3ZMVYYWX6Afpuxeuz2sYxk4WeNwB","DdzFFzCqrhsmT8BeJMtTcjTDykde1KjgkQ1Qs3XoTrW7tqzjan8MB4KPzGH9xQdPrvH5Ah84nVbysXyi2LAtBYfsAkryhFnGvGErGsao","DdzFFzCqrhsufntb5nPzXzzHQWvCnvTSs3bEXEmpJMxMLbDfE9kCP35oDmCTN7esxyNwNbkVT6Gt3ZMVYYWX6Afpuxeuz2sYxk4WeNwB","DdzFFzCqrhswheS9ByebksRyQJd6rQPs1GdL7pHMQBsne8gbtMYFmJL8Yzi7BvfRV8UiCr8bUFnyJNFkB8wnnL9ChCtwfBzfJDXeV3Q9","DdzFFzCqrhtBVUGmJNPCXBHBmYnBP25gvhFVabBhiFN9BKhhBi3XgK6UJmFwbNsWqGAdmuzT5nFGycq5YgM82cKCPcUTdF3MsksNrNuo","DdzFFzCqrht5SwiSq2c5yTmgBZ9Y9UHw4Mwk4rs6cEquHLN1HmTegvadnrZ1gRPR1wYFv4E8gSYXMUQZhgdQGuMavr7mehtu23u9ys3K","DdzFFzCqrhsiAMvLCe8ezkCNiYNprfLNVYu32BF2g6pGLqaMsa6fc79KxhEccvUJfQWWNrrxaMmVZeUKGMpHeXdkHD37E3pSu4CpWXNZ","DdzFFzCqrhsxeYbBsEjTG5h7aKQoCd9cXkbN6QFpDy13aWAdeovJHsRcVeA39GDo2cj6nCmMqqe1R8X1ZuakNNkEnknLEDdQB4fPgG2A","DdzFFzCqrhsyubjKMCoszD9ZK7xJQ5wPbcMoUL9SGLwKkRS2Fnkug1UdouGV5Rquo7PSGh6qxoXo8Ummfz8GuDYYFEFVH3VGv7UeSuhW","DdzFFzCqrhshcadCXJXQSXsRbLqdQFoHbXcocDziRejT5U2v46MG5EvP9A5NxrwYTUmAWJwvpP8V6WAkqo4jEFm1AdZQvRQdhgi7qGm2","DdzFFzCqrhsm9VW5uFh6EZXc4M6CEToueBatAY5ddJF9gYUW7SEZ5emXYkDKaxSKNbcPzjg36AJiP9KGxza4h2HDzdbjrddtzeDaDQDN","DdzFFzCqrhtBKiPHitNkL6QtftkDgvsy6L3q5u51SuCKg7cfsbdt4fWYFP6B8b7bGKGTQCgH6R1nSGMprbub1cZKEFk5Kumui1cMQhj3"],"addressesOutput":["addr1q9atjfpqwdtg7ytz0pz9zcaqvx8zr2uv6ysvc4csqynr683dzefudzxhadht99nh8gv4l3z93d486ygllgxuh2drrrpsdw6fws","DdzFFzCqrht2UVMqSjBmddyZdrV7VTnPQbSM8YyxZnLbL8Q1dFHGJVMLCQaYF6ua9NXe458Bf9NriUfXCZPHut6xy3PxwTbLb8zAkB7q","DdzFFzCqrhssQXo6QkW6W6suVrU1RHchbEasfy3FtinZNE1upDqp9uXZucSu8bZyTmvkZ2zdJwEhx9RNbQqf7spv1yj2orPVhR9Wfsh7","DdzFFzCqrhswXjpqLxeb8RAMtGpnFDLcDz6Xn5b7ufBFiv8RfdB6RdpXfPrP2UT4jHkyNWk3FbB44qD3b1xQX4fpprWNCqCiPPfgrNxB","DdzFFzCqrhsuL24yBuvPo1ApXgWETBqTjuzwWazzTukp7ZVN76yjmThHRqtmwED5Qh8zbMt34Z4cqQ7BEr6tfCDsoowDtQ1HXoJKKCvJ"],"fee":1079601,"totalOutput":80074934439,"tokens":[]}],"totalItems":12881,"totalPages":645,"currentPage":0}