{"data":[{"txId":56839847,"txHash":"97c1a0a5e7073ee28ddf4c9fef31582fe0cd17c8b50128794bcf408de0d00feb","txTime":"2022/12/07 15:32:38","block":8109438,"epoch":380,"slotNo":78860867,"epochSlotNo":64067,"stakeKey":"stake1u9kvwumqljwm2wrcyfsm23echu020pf3mm9aukrnwej7segnf55tv"},{"txId":56839612,"txHash":"c25c35832db2221a8b271289842761d9edb792cc923e3a7cc149297c367fc893","txTime":"2022/12/07 15:29:07","block":8109429,"epoch":380,"slotNo":78860656,"epochSlotNo":63856,"stakeKey":"stake1u8xcdyr9njlq8myh7nx0ma5sd6f0qny0p3hdrqu9zdln5rc53mrh6"},{"txId":56839103,"txHash":"012e3b456d53f595b857946ca6dbca2e81646253141121430b4aafb247f307ab","txTime":"2022/12/07 15:20:57","block":8109402,"epoch":380,"slotNo":78860166,"epochSlotNo":63366,"stakeKey":"stake1ux8z2uc78rk7v2wjlavrcdrjlr9t7zfr9ef4zymrdg836qq5s9e4q"},{"txId":56839029,"txHash":"7e70eeeb9262b379580e980eab0fef148ff5eebb0255186e1b0dcd9f73e2448d","txTime":"2022/12/07 15:19:38","block":8109396,"epoch":380,"slotNo":78860087,"epochSlotNo":63287,"stakeKey":"stake1u9anyv0sx545836ts3hu238ywd2ay3ngys8y98uccrcjl8q5w4038"},{"txId":56839016,"txHash":"807264d37b7b430a481deea1d6ce4695faddd42520d823cc413f4a7b36b1a432","txTime":"2022/12/07 15:19:38","block":8109396,"epoch":380,"slotNo":78860087,"epochSlotNo":63287,"stakeKey":"stake1u9h45hgj7xrqgk3z69gyt2w9y2kasarnlmqtm2k93dyrr4cvq55nc"},{"txId":56838983,"txHash":"4ebd89382a6b2acf88535cd14f5b1961acb53f411434b081c6e753debf2890d4","txTime":"2022/12/07 15:18:57","block":8109394,"epoch":380,"slotNo":78860046,"epochSlotNo":63246,"stakeKey":"stake1u9stnrqt9xym64c0z95gggn35fpffe5mkhvhzqq6tr7rd2ga55q5m"},{"txId":56838979,"txHash":"69b05d728b4311228b32681dfdc4a45a5c57d2c397a52afdfdd1997eeacf336c","txTime":"2022/12/07 15:18:57","block":8109394,"epoch":380,"slotNo":78860046,"epochSlotNo":63246,"stakeKey":"stake1u9kzvcy565yvslr0c5kjptrklqa6snk9wgqvqq0kmpns4vsjwl3nw"},{"txId":56838844,"txHash":"9ca069e0c7df16608ed94772158bb7ddd9ec87ba9eab756497b861c045e22548","txTime":"2022/12/07 15:16:17","block":8109384,"epoch":380,"slotNo":78859886,"epochSlotNo":63086,"stakeKey":"stake1uxyhk0f5hkv6tunclgjq8m8j8d5djqzdyzam6hajtcwwyugtmeuf9"},{"txId":56838442,"txHash":"c93476f42b3e4b377461a2dbf6fa2e5db3ecf82cf334045ba4e3ce2e7705a755","txTime":"2022/12/07 15:09:19","block":8109360,"epoch":380,"slotNo":78859468,"epochSlotNo":62668,"stakeKey":"stake1uy9rf63l5nqvv2g2j0yvhyfqec2v0pywa0mmcgdxvmgjvuclx86nz"},{"txId":56838290,"txHash":"12b587e8a1b49abf75189b345d65a203a7bfa7ecebabbb8952bbbb155030db1a","txTime":"2022/12/07 15:06:52","block":8109350,"epoch":380,"slotNo":78859321,"epochSlotNo":62521,"stakeKey":"stake1u8xu5csclr7p6xnkxwmlcrjwjx32vhhh4ax89u7qv5gtvrgr4h3dt"},{"txId":56837994,"txHash":"e415cd65820317191cd4084e302c0e42351e21c3e39f3c739d4bc93b9a3ec236","txTime":"2022/12/07 15:02:10","block":8109336,"epoch":380,"slotNo":78859039,"epochSlotNo":62239,"stakeKey":"stake1uy6dyctdl4ckhne2wr38aszx0usmrpqrvlytcr5dhyjgtsqu9rtvp"},{"txId":56837784,"txHash":"1b007ef840fa279139e1832d802bf863d1684b59da2fda69283b6fbf4de23d43","txTime":"2022/12/07 14:59:11","block":8109320,"epoch":380,"slotNo":78858860,"epochSlotNo":62060,"stakeKey":"stake1u9hkljca6pxzpn4hnpu5rtkp4s6s3805hjguf2w8mt3sw9ct2r7py"},{"txId":56837694,"txHash":"4161bc3616c32def747d1a15ec9dfd74b9a8c1118471e8f00bc2189482b1b623","txTime":"2022/12/07 14:57:51","block":8109313,"epoch":380,"slotNo":78858780,"epochSlotNo":61980,"stakeKey":"stake1uy9pxre5ekax246r4vr8qv0dv65kvz88jlpd0k4rn4phf2q0xq65k"},{"txId":56837443,"txHash":"21e5893a5f358c4a9c04a73fe6649204f2e181c79352a9a8c397ff410c150ccd","txTime":"2022/12/07 14:53:03","block":8109299,"epoch":380,"slotNo":78858492,"epochSlotNo":61692,"stakeKey":"stake1uyh38mgdzd6r2726e4zu5gs9lgax8w8seh4ja65rzx89wzqjfqfhk"},{"txId":56837302,"txHash":"eb28109a9d6be7a56746f3c4939b8f8b81b87cc0f8d6b3dc2b22ded8aa792a87","txTime":"2022/12/07 14:50:51","block":8109290,"epoch":380,"slotNo":78858360,"epochSlotNo":61560,"stakeKey":"stake1u8xu5csclr7p6xnkxwmlcrjwjx32vhhh4ax89u7qv5gtvrgr4h3dt"},{"txId":56837135,"txHash":"c5f2d536918761f6882855af50610f1b31c8404f1d260f19790d1b649b7fb96c","txTime":"2022/12/07 14:47:58","block":8109281,"epoch":380,"slotNo":78858187,"epochSlotNo":61387,"stakeKey":"stake1uxv97n4qtmap2pwf3ed3m33wrzp48d2hzzv72q96e5qlz9gqfy4qw"},{"txId":56837095,"txHash":"d6046bf5a8aae66860af053ca016b630e1a8d899a9d74f452ec2a74b1c015652","txTime":"2022/12/07 14:47:19","block":8109279,"epoch":380,"slotNo":78858148,"epochSlotNo":61348,"stakeKey":"stake1uyxwal0cf5qa5sn5t2c8fa7secglmsedglfmr8ut59603ygc9drrt"},{"txId":56836985,"txHash":"047f4bf617b6d7d1da2ca1e05d9053df36c1f2fb743b99d76b6b0c5f4927daaf","txTime":"2022/12/07 14:45:36","block":8109272,"epoch":380,"slotNo":78858045,"epochSlotNo":61245,"stakeKey":"stake1u86td79yed5w5n6nfrzf5yn0fz68mqajqyt5m8h9c0nwtecc8x7gf"},{"txId":56836629,"txHash":"0a4ab1d4d724db4d6d9741cd9ca9c62eb1f4e99fcfa64279224aff4c1303849b","txTime":"2022/12/07 14:38:48","block":8109261,"epoch":380,"slotNo":78857637,"epochSlotNo":60837,"stakeKey":"stake1u8jpylj034lgt7kvwt7xmz60laz772cgkd2mmntgfzr9zccgxzfqm"},{"txId":56836551,"txHash":"db0e081589bb72c25847c47998845f4a776a8e4c133c8e3d3fd26b3de0b490b4","txTime":"2022/12/07 14:37:42","block":8109259,"epoch":380,"slotNo":78857571,"epochSlotNo":60771,"stakeKey":"stake1uyrxcp6u3j99k4hrvprkzj9qem6jpgrn3t709kz7lpdrxzc4j7a63"}],"totalItems":1617388,"totalPages":80870,"currentPage":0}