{"data":[{"address":"addr1vx0l928zuszdgn2qs062tyze320v0vmg3hdszkw3fykwdece25sw8","quantity":258074545031933722596},{"address":"addr1qyya3tqthg9ajrfh2ux0chm6dse50r74cqrppwfqd5naxrav002vf6te3g057nrg4ry2fxlas0cdyt5y8x0e7z6mmmpspdvr6h","quantity":6358543127070752768},{"address":"addr1qxehxrsky96celtr2xt9nt2p607eq5dua4t2w4kgk5t36pjheyqfqqeddffaspdfs9y3vf98lgmwrp750hqvsy66r4vqpqt0sl","quantity":6165000000000000},{"address":"addr1q8t3thze7q95p807umg7alfu507umvlyhu5yjeq2lh5t34mj7nlh4tqz48qap2v2r3c2s3nrnpyq8qtymqszzw8j6zcqcd0zkf","quantity":5688000000000000},{"address":"addr1q8fjdde87jrua78trg9ylv7gpvd5skzcv5nqp3wl467ykzgsmz083klcvm744y0n7yyg49ykzz0j628xpu4n5u0r0r4qrfqf6q","quantity":5670000000000000},{"address":"addr1qxa7hxs2plv3ghfvm2ds0ddlgljjmr870nyj0dcuttr9emmhy29z9apw4amvddq7cz3u2c6jffld2rlzcrmuk57cdvcsnml3cx","quantity":3993000000000000},{"address":"addr1q9rwyk59rgr602fv865mutvam4tcvpg4rdkwg5zdevnxjy24mv86l2c6nvmhzu7n4rqjpp84p6ly3gucwtukw0tllf9slzxggx","quantity":2625000000000000},{"address":"addr1qyecjgprat9qjdfkv6ln45eww5a9lwkgqn92x6lspd339ky00hv6dpawknxe42d8dlx42msv2nt8yej77vudk0uruvtsh2aeym","quantity":1912000000000000},{"address":"addr1q8krylahve69vwxv9ultxaajce4jn8ne84kv4nuzdnam0plnhg9pdyuuy63884c8u39f2w7rctqp6vzf7mlzxfzyv30s9x2slx","quantity":1830000000000000},{"address":"addr1qx55mapywh6knqs3wzwpj7ruu0dd6q2tjn2vk0lcuuxa4vqjrf42gwq47sdwwz48haj2skdypq9eyq8a5n0nym55lskqh0q3ym","quantity":1770000000000000},{"address":"addr1qxqltk0rc6ql9a3p5nygk68vrxu9qvz0anl2mu8ntnrqkvphcdj45clk5lfnp6a2m7jdkpwd06t207rf6p2hzx6lv2jsl7295c","quantity":1539000000000000},{"address":"addr1qx2yalmksmq4zq8dmjxetpt8hhucrsd9u2axeawhya9ehmfhcdj45clk5lfnp6a2m7jdkpwd06t207rf6p2hzx6lv2jswpalyy","quantity":1539000000000000},{"address":"addr1q83fuawzq95z6p58p7e4rygtylp7efel256y98lq8s74chmspp3yjgkrxjyd2qdmfgyu0m7kcy6hr6v6r9crzzg0pejqghepph","quantity":1168000000000000},{"address":"addr1qxszsqjtp8kf60yvk896cr9td2rkqnsxsgvej2ad8lah8x3hcdj45clk5lfnp6a2m7jdkpwd06t207rf6p2hzx6lv2jsl2szk3","quantity":1164000000000000},{"address":"addr1q9u8ec3x4nry49afkvrmu26kx7u67g49dx4zxpnwker8zlevarngxaqdlyqw85tju7l6hyffclquxm98dzkraad6md9qc9quux","quantity":999000000000000},{"address":"addr1q82hk36g35gdamvak08ctn8kdqn4qwvjt2q034tscekwrgprlkahfsmech9j9n9vflajrw0e46rv4lmv3a55e8x4a4ss8c6qe7","quantity":960000000000000},{"address":"addr1qymaumdm272r24d0s46827plplhc6t520lufdr5vdqn0z8hze4zwjlw3vpjum04n0gjymwde8c9p5r67yqupkzy8yz5qwdv2cd","quantity":926000000000000},{"address":"addr1qyaveg26yhdav7jafu3008zgp9haq3wmq6l6pxqsdgzgelaamg9xyp2676mydldtclx7mx6mytyyau4s3dstju2f2czs0heg62","quantity":871000000000000},{"address":"addr1q9j9edkjryr9fnz6eyuwjcjutun9kpgtkdlulzquheldfeermhplrjkd38pvcn2r58dnl0v4rxs9lz6rdj5p77j3wvcs7ud37u","quantity":818000000000000},{"address":"addr1qyy3nhy7dd0fcdancupwhdxezlfwneqedrkq99upznw93htar6yl38wymv693k5axgj087nucvqrz80h3gec30etm6esghywpg","quantity":634000000000000}],"totalItems":36,"totalPages":2,"currentPage":0}