{"data":[{"address":"addr1z8snz7c4974vzdpxu65ruphl3zjdvtxw8strf2c2tmqnxz2j2c79gy9l76sdg0xwhd7r0c0kna0tycz4y5s6mlenh8pq0xmsha","txCount":548937,"balance":43433490947062},{"address":"addr1z8jd97ct35n4s5ss8lt4sq0zclw0dmf7yak8fj46m0jm3d475v0pzyfnfwd4drdgh0uxkl9tpd679xps84y757htua9s6w8m7p","txCount":9,"balance":20000000000000},{"address":"addr1w9qzpelu9hn45pefc0xr4ac4kdxeswq7pndul2vuj59u8tqaxdznu","txCount":465143,"balance":12327688984941},{"address":"addr1wy0nmrl40z3nx9d0d79pu5u7zett4hl2apfuj9caqgf7jjqcj3r8z","txCount":452,"balance":7031898726341},{"address":"addr1w8pydstdswmdqmg2rdt59dzql3zgfp9pt8sulnjgalycwdsj9js7w","txCount":65181,"balance":6404140294389},{"address":"addr1z8nvjzjeydcn4atcd93aac8allvrpjn7pjr2qsweukpnay2tqrfwamagnyfv43jgm94yvkmsnfvpzlytmkl0cs0uh8zqszu5da","txCount":6968,"balance":2882329738476},{"address":"addr1w93j7t23z99448k7xspzrppjtgun0janh0rcq6k8wt2e8vc2fraw4","txCount":3455,"balance":2780724616550},{"address":"addr1z8nvjzjeydcn4atcd93aac8allvrpjn7pjr2qsweukpnayg3sm3lpp76yuejdf6w3qyry2spy8xjmjrlxy2cstm3fthsjc3xze","txCount":6244,"balance":2599968471385},{"address":"addr1wyfddcvq3hqpjsyval388g9sguqs8r6249hhx0v0gn9es9ckxzfgr","txCount":369,"balance":2307270133571},{"address":"addr1z8nvjzjeydcn4atcd93aac8allvrpjn7pjr2qsweukpnaytvcg6zm2vds6mz9x3h3yalqmnf24w86m09n40q3tgqxjms9yu6v8","txCount":15195,"balance":1697541610627},{"address":"addr1z8nvjzjeydcn4atcd93aac8allvrpjn7pjr2qsweukpnay0juqg4tpvktqnle8j0ukcnww78l7ze4lrgunuwqnxtvjps8lclpw","txCount":2767,"balance":1651235210598},{"address":"addr1w8hp3z9akrwr6px578j9rvd47nw3kklhljwkfmvxs9wyxhchydnq4","txCount":1,"balance":1399769000000},{"address":"addr1z85t4tvj3rwf40wqnx6x72kqq6c6stra7jvkupnlqrqyarthhd58w0qrqpyv4dc2c2mk98sduawl7l4gjuc9rafyv98sgylfw3","txCount":5435,"balance":1363942895184},{"address":"addr1z8nvjzjeydcn4atcd93aac8allvrpjn7pjr2qsweukpnayg4pn8uxr87tguqw8jkn6p233rk7k683ppl2mspr8appw9q640ms8","txCount":4855,"balance":1229070625916},{"address":"addr1w9j4z3xz6sze3se4d06rawhpqt5sag98l0fykwt5q08nwxgvmk5vf","txCount":3303,"balance":1135090055044},{"address":"addr1zxgx3far7qygq0k6epa0zcvcvrevmn0ypsnfsue94nsn3tvpw288a4x0xf8pxgcntelxmyclq83s0ykeehchz2wtspks905plm","txCount":1464882,"balance":1134701319539},{"address":"addr1z9cy2gmar6cpn8yymll93lnd7lw96f27kn2p3eq5d4tjr7rshnr04ple6jjfc0cvcmcpcxmsh576v7j2mjk8tw890vespzvgwd","txCount":9726,"balance":1092819611237},{"address":"addr1z9fvxytwm8dv0aht3x8cxetm3tu4f47kaqdgxney8mu6hj9jnkhthhfhduv0p5m4l93pdadpgxsuf3xl89rk2tnknx4qstj3xa","txCount":2,"balance":1010547945199},{"address":"addr1z8nvjzjeydcn4atcd93aac8allvrpjn7pjr2qsweukpnaygg8lttvgp8sat8helm9xq0lmme24xc2tecfgwsm6853dhqvjdyu3","txCount":1132,"balance":905380912119},{"address":"addr1w9jx45flh83z6wuqypyash54mszwmdj8r64fydafxtfc6jgrw4rm3","txCount":464980,"balance":899959568255}],"totalItems":23929,"totalPages":1197,"currentPage":0}