{"data":[{"txId":59616444,"txHash":"fb4049afa84226416a07d55164ef7ea6e226f9f2c32e0d1d4a209eac8e16f8e0","txTime":"2023/01/13 19:49:30","block":8266038,"epoch":387,"slotNo":82073079,"epochSlotNo":252279,"stakeKey":"stake1ux58huwqmpculqh2z7zxqsyyant9p92dmrfnggvcxzrgkkglv2nk7"},{"txId":59615965,"txHash":"439bece86c9d16446791df8597a5ec317748d68de2b4eb7cad654a9a785d395e","txTime":"2023/01/13 19:40:46","block":8266011,"epoch":387,"slotNo":82072555,"epochSlotNo":251755,"stakeKey":"stake1uy9a7v2j5u8h6gd3w5xc8kv0kyheyly79qx88kerpw62akc0dvtny"},{"txId":59615840,"txHash":"716d4790f9eedcb5fcea9919e16559687a063ebf91258cc83cec2bd25cfbd869","txTime":"2023/01/13 19:38:20","block":8266002,"epoch":387,"slotNo":82072409,"epochSlotNo":251609,"stakeKey":"stake1uytumqa4pj5w93wyygtwujdj9sywq85mwgx284tvm2rylxcmhfcc3"},{"txId":59615822,"txHash":"fe1041c44ae7bdecf3b16c17f780db1bad74fe8c9e412c93bb4701e76adefa0f","txTime":"2023/01/13 19:38:03","block":8265999,"epoch":387,"slotNo":82072392,"epochSlotNo":251592,"stakeKey":"stake1ux7y3qztclv655ulq2cdlm8ty8f3gqk9mhk38hngxt6r57svxtara"},{"txId":59615712,"txHash":"a4280d0dcda93ec7a2aace67be0bbdc3af4ec251be9a19e98cf0e74d67c3a8ff","txTime":"2023/01/13 19:35:39","block":8265992,"epoch":387,"slotNo":82072248,"epochSlotNo":251448,"stakeKey":"stake1uxdhwpx3nl95y4sr9fdwkfjxqenr3anttxw2tg8w4xa93lgmr4ens"},{"txId":59615257,"txHash":"ed5438c8a93085a1d9c2a20606c97c48881c8ab17324d89e4c4add169258c067","txTime":"2023/01/13 19:27:44","block":8265963,"epoch":387,"slotNo":82071773,"epochSlotNo":250973,"stakeKey":"stake1uyxdef7d38cvp8f9fls6wkl7f2qndvxjvepycykgys528wcdrvpth"},{"txId":59614960,"txHash":"26422de386d391e504cd8da163d667685ee8ed44a35e59cee779704d45df6822","txTime":"2023/01/13 19:21:52","block":8265946,"epoch":387,"slotNo":82071421,"epochSlotNo":250621,"stakeKey":"stake1uy9xdkl9n94n4e8jskwnnjagegh654gy4edejmu4w84ggtcv674rg"},{"txId":59614771,"txHash":"63a6440152909d9c5475fb809bc34978fdee2a5e1723cc9820bfd0c43449c739","txTime":"2023/01/13 19:18:33","block":8265937,"epoch":387,"slotNo":82071222,"epochSlotNo":250422,"stakeKey":"stake1uxjsqqkgjk7e63h28rgp8nqj76uklcy0f5aephdnwhyzdlq44t4w5"},{"txId":59614586,"txHash":"c36e8cb38228810bf56c176135665544e14e4b120042a8a17941dbfd89fbab54","txTime":"2023/01/13 19:15:21","block":8265927,"epoch":387,"slotNo":82071030,"epochSlotNo":250230,"stakeKey":"stake1u8qxkyesnfu4nndul3gdzz9gl3ngmqur973vgp575lfjy8s5pdnhh"},{"txId":59613929,"txHash":"5377f3c91de029edb13f55d50958da95f988a9e2b44243833b7506b7c24736c9","txTime":"2023/01/13 19:05:47","block":8265894,"epoch":387,"slotNo":82070456,"epochSlotNo":249656,"stakeKey":"stake1uxa9u642x3yutvg8hcj2yl5dnf2yjm2grl2j4kgf64kkx5qu73v5e"},{"txId":59613802,"txHash":"ada3206764f1fb8aa07e833ef495bd9386b4a7637d80e9e340bf080ce9e5eadd","txTime":"2023/01/13 19:04:01","block":8265888,"epoch":387,"slotNo":82070350,"epochSlotNo":249550,"stakeKey":"stake1uy7d9t04fnwaf9ylssg3fc3t7swnasvrn7942tgvt7cj2wq6g4y5c"},{"txId":59613291,"txHash":"b270f4ffcbe5d218a36801970f44f2abbd581c9a86f867d83db21d4950e18319","txTime":"2023/01/13 18:56:19","block":8265868,"epoch":387,"slotNo":82069888,"epochSlotNo":249088,"stakeKey":"stake1uy95qcmdc48rfxwdnu4508302v7r5uaxn3upgxdp6zgqe5qn8ttuk"},{"txId":59613170,"txHash":"c21a483651710c2db0d396eb4f78cf026f19d0208fdbc0b893efbde4241104f3","txTime":"2023/01/13 18:54:21","block":8265865,"epoch":387,"slotNo":82069770,"epochSlotNo":248970,"stakeKey":"stake1u90t6wdqktfdz7mz3gdgmz80w4jffu5addqg3qza4g5m87c8symhr"},{"txId":59612399,"txHash":"c4e61da2b69ab060d528d635c8cc71aaa6e606429de4f3f6447917594ba2e7cc","txTime":"2023/01/13 18:41:08","block":8265826,"epoch":387,"slotNo":82068977,"epochSlotNo":248177,"stakeKey":"stake1uxmpmnyxgq5ahaeyalz7zqm4zcxq0d80nxf8lt7yztp77vsvtzmnf"},{"txId":59612096,"txHash":"27fb5ae8a1a136b15017126b1b48aa75dbe16234f8ce1ad120d64ca2ba1e7efa","txTime":"2023/01/13 18:36:21","block":8265813,"epoch":387,"slotNo":82068690,"epochSlotNo":247890,"stakeKey":"stake1uypw0s795mt8thnvzv3m6lg40cehmymcvs5dyylqzuhxkhcpme5lc"},{"txId":59611959,"txHash":"45192b99e7cca22c52985daa77057dbce4e0c6a02e12ed9eb6e2507fe28b34cf","txTime":"2023/01/13 18:33:59","block":8265805,"epoch":387,"slotNo":82068548,"epochSlotNo":247748,"stakeKey":"stake1uyvulagvalnmsh45pg8m82d4yszrjv3v5d5w7t0ajmp7hmc38vure"},{"txId":59611946,"txHash":"d888135af3260d4b024e8992f8b84499dc2be45bb6bb3622eae6bbf6a3e33231","txTime":"2023/01/13 18:33:59","block":8265805,"epoch":387,"slotNo":82068548,"epochSlotNo":247748,"stakeKey":"stake1uyhry69exkrd3zyvf8fthpfasw6casv608qq43g9f0grgxc7c4e2k"},{"txId":59611691,"txHash":"6438017fd1682ec362128807768e1a5eba8ae189a613d9aa4524cf813ce41082","txTime":"2023/01/13 18:29:43","block":8265795,"epoch":387,"slotNo":82068292,"epochSlotNo":247492,"stakeKey":"stake1u9c6nsz0xcjg44pwch75j69zrl3gjetqmgvalxclutdyt0sh7yuj7"},{"txId":59611575,"txHash":"aff43d37059fb638e2fb7dcf48d9a4a6e85535278629740e85c703ca512cb707","txTime":"2023/01/13 18:28:08","block":8265790,"epoch":387,"slotNo":82068197,"epochSlotNo":247397,"stakeKey":"stake1u8nax8re90zajckmgce5hdgd8d0zjf0np8xe30vcyg7zysqz035sh"},{"txId":59611545,"txHash":"79557c42d5f2d3d47af15745bf4133a4dadccfde85d00311d82ca2dbe35a4aa4","txTime":"2023/01/13 18:26:46","block":8265788,"epoch":387,"slotNo":82068115,"epochSlotNo":247315,"stakeKey":"stake1u8a0dzlqeg9aqw7p5xppx6r68z8sd73rerc8vgchzlzf5fcjpqwe9"}],"totalItems":344377,"totalPages":17219,"currentPage":0}