{"data":[{"name":"43554259","displayName":"CUBY","policy":"14696a4676909f4e3cb1f2e60e2e08e5abed70caf5c02699be971139","fingerprint":"asset1s7nlt45cc82upqewvjtgu7g97l7eg483c6wu75","txCount":120,"supply":"43252003274489855996","volumeIn24h":"0","totalVolume":"264539109159004475364","numberOfHolders":29,"createdOn":"2022/01/19 02:33:50"},{"name":"4154484f4d","displayName":"ATHOM","policy":"5acc52d5696e52345aec108468050d9d743eb21d6e41305bbc23a27b","fingerprint":"asset1cw6a0zyc97cy94qgt0u4t2hz54c6rdtcrzc2ta","txCount":10325,"supply":"9223372036854775807","volumeIn24h":"0","totalVolume":"1450760978598450584732","numberOfHolders":410,"createdOn":"2021/03/29 23:30:45"},{"name":"4341494154","displayName":"CAIAT","policy":"b1ebea36cfe204a418dcab6a6e95ba9866eaf16da7c4281fb255c7de","fingerprint":"asset18lmjj086jh7fk3y3qn07xyg97hpc5x7lahsrjn","txCount":548,"supply":"9223372036854775807","volumeIn24h":"0","totalVolume":"481390485584660438667","numberOfHolders":37,"createdOn":"2021/12/02 06:28:01"},{"name":"485043","displayName":"HPC","policy":"b9befaf6d58079a8df618555d6371c02029b03b99db6f5b0c9bb2635","fingerprint":"asset1sujuhupwe0gld3cpxlkfme2ufpmctrhax5aj7u","txCount":327,"supply":"9223372036854775807","volumeIn24h":"0","totalVolume":"336817891196811153217","numberOfHolders":16,"createdOn":"2021/11/21 07:45:34"},{"name":"46726565646f6d546f4e6176616c6e79436f696e","displayName":"FreedomToNavalnyCoin","policy":"9b9ddbada8dc9cd08509ed660d5b3a65da8f36178def7ced99fa0333","fingerprint":"asset1rp3y0cqvee3cxevwxaelg42veff76xa2tahlfz","txCount":42,"supply":"9223372036854775807","volumeIn24h":"0","totalVolume":"81786976294838341259","numberOfHolders":4,"createdOn":"2021/03/02 01:24:58"},{"name":"6d65746143686c616d79646961546f6b656e","displayName":"metaChlamydiaToken","policy":"30aa65f5efa96eaf3bc9a3e76ff47c6eac6472f908d6591f93e329fe","fingerprint":"asset1r5rus2gv8m86yynlh3erhx50r97qtaeutkp504","txCount":21,"supply":"9223372036854775807","volumeIn24h":"0","totalVolume":"48883871795070310728","numberOfHolders":4,"createdOn":"2021/12/03 03:48:50"},{"name":"","displayName":"","policy":"9b9ddbada8dc9cd08509ed660d5b3a65da8f36178def7ced99fa0333","fingerprint":"asset12pklc3w58qexsp2pzkwhh4maf2sh2et7wu8gav","txCount":11,"supply":"9223372036854775807","volumeIn24h":"0","totalVolume":"64563604257983430649","numberOfHolders":1,"createdOn":"2021/03/02 22:04:49"},{"name":"524156454e5343414d","displayName":"RAVENSCAM","policy":"747ced8acca43caeedc14a6d110550c937868fb276beb639c0fa297f","fingerprint":"asset1exu5llsa3nh8qxjurkfqftzay976jlxhn5z07g","txCount":1,"supply":"9223372036854775801","volumeIn24h":"0","totalVolume":"9223372036854775801","numberOfHolders":1,"createdOn":"2021/10/28 20:28:21"},{"name":"54686973546f6b656e57696c6c53656c664465737472756374496e53657665","displayName":"ThisTokenWillSelfDestructInSeve","policy":"7a8414dcb7037abcc155a8edb7d56f7a3d24fa14d57635c5fd5a185f","fingerprint":"asset1764754mzpc48wl3h8lhs26vptvtaagdrtmhgfq","txCount":18,"supply":"9223372036854775000","volumeIn24h":"0","totalVolume":"119903836479112075000","numberOfHolders":1,"createdOn":"2021/03/02 11:33:55"},{"name":"6e6575726f6e","displayName":"neuron","policy":"d070f6b0e45fc3cd280e21fd4fcac4d59b3d35b23387eb6559455879","fingerprint":"asset1cfkf4zw2ccghnjcdav3w7flmtd4cpjxsn4ck2v","txCount":29,"supply":"9000000000000000000","volumeIn24h":"0","totalVolume":"10800000978536355709","numberOfHolders":13,"createdOn":"2021/11/20 19:22:42"},{"name":"54726176656c436f696e","displayName":"TravelCoin","policy":"ba37e7c25e5b425025929bfcb8d03cec0d758654a844109c3283b338","fingerprint":"asset1njmmlqplqy36h2zytkuwwkrmt84p4yds4am65v","txCount":2,"supply":"9000000000000000000","volumeIn24h":"0","totalVolume":"18000000000000000000","numberOfHolders":2,"createdOn":"2021/11/18 02:30:07"},{"name":"706f6c79676f6e","displayName":"polygon","policy":"21fee9cc7dc5f1397c1fcf798f4379ee853e6b55b6520ebc8160a852","fingerprint":"asset1hullv8um2u6xy39hesljdsazdesygww7hh4hu7","txCount":1,"supply":"9000000000000000000","volumeIn24h":"0","totalVolume":"9000000000000000000","numberOfHolders":1,"createdOn":"2021/08/17 03:34:11"},{"name":"4d484c4b42414e4b","displayName":"MHLKBANK","policy":"9f37b78c0558902e5cac96aa6402905ce3cf7c29e964623efa38f363","fingerprint":"asset154fnj52nau8d6m32zqfl5fwkvyx47tyrm0v99q","txCount":4,"supply":"8000000000000000000","volumeIn24h":"0","totalVolume":"16000000000000000000","numberOfHolders":1,"createdOn":"2021/05/03 16:42:58"},{"name":"4153484942","displayName":"ASHIB","policy":"afc910d7a306d20c12903979d4935ae4307241d03245743548e76783","fingerprint":"asset1wrng86n9sz6t5d0lemvudur4ul6mgduv0gzuj8","txCount":170701,"supply":"1000000000000000000","volumeIn24h":"0","totalVolume":"1035910497246947088835","numberOfHolders":26513,"createdOn":"2021/11/13 17:32:22"},{"name":"574f4c46","displayName":"WOLF","policy":"1a71dc14baa0b4fcfb34464adc6656d0e562571e2ac1bc990c9ce5f6","fingerprint":"asset122jwwf6hls6w6dlumfkeut9u99c6m9ctqmt2ep","txCount":130125,"supply":"1000000000000000000","volumeIn24h":"0","totalVolume":"3219632555660532417465","numberOfHolders":21041,"createdOn":"2021/12/10 13:46:02"},{"name":"4849","displayName":"HI","policy":"1f4b1b277c9c001c1522727506a2cfb401a0d0ade069b0241f16f07d","fingerprint":"asset1znn0w56jznzygnlxgpy8azvjgjzvn6q68fycm2","txCount":120010,"supply":"1000000000000000000","volumeIn24h":"0","totalVolume":"20024668716662066446","numberOfHolders":13369,"createdOn":"2021/11/27 17:16:07"},{"name":"4c4f4c","displayName":"LOL","policy":"ad0aec69bf304355029bfdc6f87e6e6aba7e219f3140646b69aed96c","fingerprint":"asset1002rz2dgf5xvaghml4rqr6eart30gy437xml79","txCount":1439,"supply":"1000000000000000000","volumeIn24h":"0","totalVolume":"62126194499772999997","numberOfHolders":53,"createdOn":"2021/12/30 21:38:25"},{"name":"576f726c64","displayName":"World","policy":"9c2a02b3a38380568749ff510a27d8884bd689dd6acbe2acfee4a509","fingerprint":"asset1gm7qdvl6tvfe72uu6dz2p9wphynqmkcjugt9df","txCount":342,"supply":"1000000000000000000","volumeIn24h":"0","totalVolume":"39079922654161814441","numberOfHolders":14,"createdOn":"2021/09/19 10:04:50"},{"name":"45514e","displayName":"EQN","policy":"e681e6d095b21bcfdd74e8ae8e2beeb9309d922f8faf8ebf37c076b5","fingerprint":"asset1z5vdh8x235ru29v95kgmqkha7q344l5dgdp5jn","txCount":294,"supply":"1000000000000000000","volumeIn24h":"0","totalVolume":"21000010123125466704","numberOfHolders":9,"createdOn":"2021/11/13 13:22:09"},{"name":"4b494e474b554e5441","displayName":"KINGKUNTA","policy":"58c6c528c44cc320901f8854d282df65cdedf25f4dfb57988299266e","fingerprint":"asset17hagd6x49x0us7gl3hve22gvhej0j77zcey7h7","txCount":263,"supply":"1000000000000000000","volumeIn24h":"0","totalVolume":"79693489091046940702","numberOfHolders":22,"createdOn":"2022/01/14 20:04:45"}],"totalItems":3021427,"totalPages":151072,"currentPage":0}