{"data":[{"blockNo":8279564,"slotNo":82350305,"epochNo":388,"epochSlotNo":97505,"hash":"97b74e811d0ac09eb00a66a2d70d3add1891a268f20151a4c1b84bcb51c34552","time":"2023/01/17 00:49:56","txCount":10,"totalFees":3121544,"totalOutput":17901745146,"slotLeader":"fdb0d8ba88d434c8dd3ab3974a3401efc7b016e54c7387c63398aec4"},{"blockNo":8279563,"slotNo":82350294,"epochNo":388,"epochSlotNo":97494,"hash":"282b4dd3434d520555c05bc2d5d7f068d61ae719cec945ada8ae70ba5d59a155","time":"2023/01/17 00:49:45","txCount":2,"totalFees":1210271,"totalOutput":2224825078,"slotLeader":"40e81ed617140994bab5a00619d0269f0dd3af9963e40e09f5ee1a6d"},{"blockNo":8279562,"slotNo":82350290,"epochNo":388,"epochSlotNo":97490,"hash":"ea4015c3eb7bcc2536faecdfc38fc7669282779e74935b1e13eb7260416d96d6","time":"2023/01/17 00:49:41","txCount":14,"totalFees":5401610,"totalOutput":2678951519675,"slotLeader":"21ad7ca84128f182623df17e6cb29ca1e83889e0013f1004cf5beb73"},{"blockNo":8279561,"slotNo":82350280,"epochNo":388,"epochSlotNo":97480,"hash":"0a2bcd39559e53632148fc0ab3367f04306a3baab52e44d74960704fdd906d83","time":"2023/01/17 00:49:31","txCount":11,"totalFees":3623121,"totalOutput":1713801291855,"slotLeader":"b573268bf369e3f3a4e6dd16fdd78ca01eb164c1daa29d611ef885d2"},{"blockNo":8279560,"slotNo":82350272,"epochNo":388,"epochSlotNo":97472,"hash":"180c6b6ca9d93be12cb5c26a7a541f45ae841799352a1c5c6d778a186c7c4664","time":"2023/01/17 00:49:23","txCount":6,"totalFees":2550834,"totalOutput":1731440232570,"slotLeader":"cfff13497008842ab170eae18ecf43be7eb4fa51bdd503821ddaaf19"},{"blockNo":8279559,"slotNo":82350265,"epochNo":388,"epochSlotNo":97465,"hash":"aad5815dcb93fb3b721eb7966656d88e32cc1b001f178053371c8afd51e10b65","time":"2023/01/17 00:49:16","txCount":2,"totalFees":851962,"totalOutput":4165352169,"slotLeader":"9b9890b811d67ba9e69810581e4fc119ca0c2354adb7cd6ff564b0a3"},{"blockNo":8279558,"slotNo":82350261,"epochNo":388,"epochSlotNo":97461,"hash":"175f7a205a5191cc131232ed7dd8a146d8db7c8113be14dd59e7d0f8e459ba90","time":"2023/01/17 00:49:12","txCount":17,"totalFees":8060067,"totalOutput":1799027897831,"slotLeader":"31415926227256e22339e7edc3997f23b6bd89c6959488a4519537f7"},{"blockNo":8279557,"slotNo":82350250,"epochNo":388,"epochSlotNo":97450,"hash":"6a4c7eea9ba023261a0209d3266c39fcebb8686f02f2fa0330464fe178ffc4d8","time":"2023/01/17 00:49:01","txCount":10,"totalFees":2342450,"totalOutput":13410089371,"slotLeader":"71efddeabf5dd8211853a5ed30548391ccb54fa3b55e5828db9afee6"},{"blockNo":8279556,"slotNo":82350236,"epochNo":388,"epochSlotNo":97436,"hash":"89b747db881c9745fc0a24ae4094aa85736c3c74f75c6eef69839eb058cbc954","time":"2023/01/17 00:48:47","txCount":14,"totalFees":3825249,"totalOutput":279409731833,"slotLeader":"b44181287c72d0c7b1bce6a57173cdf739ac77d030bdfc4606138dd2"},{"blockNo":8279555,"slotNo":82350219,"epochNo":388,"epochSlotNo":97419,"hash":"9dc46a5a729d2a53e0e608d661444104410dcdd672df5f1c3b0ae1ac8336aac4","time":"2023/01/17 00:48:30","txCount":22,"totalFees":6665500,"totalOutput":2307432476871,"slotLeader":"3407812f0f5b698329dd4db9b7748e7aa6078b5e5f74c0af318385e4"}],"totalItems":4762,"totalPages":477,"currentPage":0}