{"data":[{"blockNo":8311603,"slotNo":83010342,"epochNo":389,"epochSlotNo":325542,"hash":"51db84614bee724a5dc7829915b61f84b4a84f34c4d3290bd8a98e5b79529758","time":"2023/01/24 16:10:33","txCount":4,"totalFees":1324414,"totalOutput":5658424682,"slotLeader":"76e80e1b3f622c7051f222453497b0667e12892f5d94ee565d17dc52"},{"blockNo":8311602,"slotNo":83010339,"epochNo":389,"epochSlotNo":325539,"hash":"2f3fde0cb96e644df1f19215b1bca57fa013f35e81cafe1894c5bacc5dec64b2","time":"2023/01/24 16:10:30","txCount":4,"totalFees":1693933,"totalOutput":785941713,"slotLeader":"2c88e3a7f6279bda114f92dbbcd78b734f0ebff40ff2bdce647e9c53"},{"blockNo":8311601,"slotNo":83010332,"epochNo":389,"epochSlotNo":325532,"hash":"9f66ff277f8bb30c2e964c33ce93895280681badfcca0c48299533227b74f190","time":"2023/01/24 16:10:23","txCount":34,"totalFees":12910684,"totalOutput":1395860583534,"slotLeader":"486d217a5ef6e9cb5e46a19900a56b1c1f4f1ec4374b744df5a1ef6a"},{"blockNo":8311600,"slotNo":83010294,"epochNo":389,"epochSlotNo":325494,"hash":"210d8c3d0b0a9edf4a097aa793871fb5b798da76d6c8f5150541d24d1f276566","time":"2023/01/24 16:09:45","txCount":24,"totalFees":7847153,"totalOutput":1949477972310,"slotLeader":"c83beb18d532234c72a304ab935982be670c22e771b227a3febc3a82"},{"blockNo":8311599,"slotNo":83010259,"epochNo":389,"epochSlotNo":325459,"hash":"caf400ea23139dfc121bada64dc979e6f7f77f47b46cdade80804797cc545d88","time":"2023/01/24 16:09:10","txCount":0,"totalFees":0,"totalOutput":0,"slotLeader":"d765dee553a7e041d525b1782a10eb0a5e52e96ed55ed173d8bb82a7"},{"blockNo":8311598,"slotNo":83010258,"epochNo":389,"epochSlotNo":325458,"hash":"ff831b6054f06e7dc900df57646c8ec7abba5090532b7552bc9ac845e6259263","time":"2023/01/24 16:09:09","txCount":4,"totalFees":1762070,"totalOutput":2459936580,"slotLeader":"27ca1ffda65d1ef326c9e6a717210c98b10a0e17910c0ab6d9eeb6fb"},{"blockNo":8311597,"slotNo":83010251,"epochNo":389,"epochSlotNo":325451,"hash":"38c1a178ede93b4f4cae4c72d76eca4076f981e29197b64e6b75dfcc26588e54","time":"2023/01/24 16:09:02","txCount":20,"totalFees":7763701,"totalOutput":3190588053537,"slotLeader":"00004614332ac81201d8302d4cb8262502af229256e143dc2156156e"},{"blockNo":8311596,"slotNo":83010221,"epochNo":389,"epochSlotNo":325421,"hash":"5d6911fdf6f01be7a57dd5e7544fcf5495714e8ccc963ed37035fb2260982287","time":"2023/01/24 16:08:32","txCount":11,"totalFees":5175942,"totalOutput":37176411306,"slotLeader":"7f6c103302f96390d478a170fe80938b76fccd8a23490e3b6ddebcf7"},{"blockNo":8311595,"slotNo":83010211,"epochNo":389,"epochSlotNo":325411,"hash":"d76bf2ce55d5c3014299b08c60d5559943cb00e2fa4c259616661cd08f6ab784","time":"2023/01/24 16:08:22","txCount":2,"totalFees":430442,"totalOutput":28176861,"slotLeader":"92bda83eb105d569b23cb6fa1d407dd42de0d2d7e6562718b7ac5c02"},{"blockNo":8311594,"slotNo":83010210,"epochNo":389,"epochSlotNo":325410,"hash":"f301dd6a819ca730abb631909ad18804c6506627a5918045f04a65e33f58cddc","time":"2023/01/24 16:08:21","txCount":4,"totalFees":958032,"totalOutput":739669347,"slotLeader":"2f09336a66c36d0df40dc42f2454fe4f4311c23d312e3683be434081"}],"totalItems":15607,"totalPages":1561,"currentPage":0}