{"data":[{"txId":54168718,"txHash":"bd3b03c81685b3d6649fd7c760596d3bddac6c64a8156c4776e1a333787c3068","txTime":"2022/11/02 18:42:11","block":7963651,"epoch":373,"slotNo":75848240,"epochSlotNo":75440,"stakeKey":"stake1u9v95t6kdj0vy640uzrlvckqzx0g3hvdv3r4tr0hfa6d4mgy8f3l5"},{"txId":54168473,"txHash":"3c9bd074aa3f03a37c65515a02aad844ad9edd6ad9f8e4705565c5a94b8a19f4","txTime":"2022/11/02 18:37:53","block":7963644,"epoch":373,"slotNo":75847982,"epochSlotNo":75182,"stakeKey":"stake1uy346g86qyvn48zuzsxrp35kfsyzrk63nlw9cdqrxyhpgpgas778m"},{"txId":54168260,"txHash":"da098ef01e3d4f365a0ab0ffcd7f919455d2a9919d49646137ed36116fbc0ed5","txTime":"2022/11/02 18:35:03","block":7963636,"epoch":373,"slotNo":75847812,"epochSlotNo":75012,"stakeKey":"stake1u8us4qqapqeat8r0qhy9z5tc99f9k642npaf0hkq8dwauwsx68fvu"},{"txId":54168225,"txHash":"63f770deb87322a44449c0e97ec1c1c03a99ec9a309a85d9fd891b7f8b184ede","txTime":"2022/11/02 18:35:03","block":7963636,"epoch":373,"slotNo":75847812,"epochSlotNo":75012,"stakeKey":"stake1uy66gaum82jdye3nxdedwl4wjykdzqpk9pr2tcmvqu5detg9lc2u9"},{"txId":54168208,"txHash":"0a944babdd85e7251a06252e519e213758256d890487a7fa6451a602c05ec428","txTime":"2022/11/02 18:35:03","block":7963636,"epoch":373,"slotNo":75847812,"epochSlotNo":75012,"stakeKey":"stake1uy8r38g2nzulyd4030yet6sfeaaavz20mxg3kd778sz9y6qayzwy3"},{"txId":54168154,"txHash":"286b9f597b4f60e700e28720404d8393b851663feaf9d7c42c279d420260e728","txTime":"2022/11/02 18:33:12","block":7963632,"epoch":373,"slotNo":75847701,"epochSlotNo":74901,"stakeKey":"stake1uyykqgwkkmfut7f5y4g87fd6l7y7fj4wcjalylt42q4f64qy78ph0"},{"txId":54168046,"txHash":"6651075073eb3405146e56b4d4ad40a56e22fe9d07cd004f3011553983ead121","txTime":"2022/11/02 18:32:04","block":7963627,"epoch":373,"slotNo":75847633,"epochSlotNo":74833,"stakeKey":"stake1uxqqp3zrj7xm39r57fsa58x557jl7gml38gntt4yhd5yuegj9eg3e"},{"txId":54168045,"txHash":"6b01de724a52f7a015af91f63c9b4f7327ccfed99bec15ad228a0f89f609b8c4","txTime":"2022/11/02 18:32:04","block":7963627,"epoch":373,"slotNo":75847633,"epochSlotNo":74833,"stakeKey":"stake1u8cg5tctymentcwkc32ew4tay4kx5cf8pt86jw63ca7j6fglmpn6h"},{"txId":54167778,"txHash":"24a4c7b395e784614b72465433ce49aa8be7639ee1dc7be553635f0fd34359de","txTime":"2022/11/02 18:29:00","block":7963618,"epoch":373,"slotNo":75847449,"epochSlotNo":74649,"stakeKey":"stake1uxm4e6xwjgwaw7a6lcqq578hep05w0en00sn2kl4tnmhsxsrlrxam"},{"txId":54167579,"txHash":"0af21209b18144f059d5b650cbbcaa82d0095e9bfda53a199bfdaacbf87def4a","txTime":"2022/11/02 18:27:33","block":7963614,"epoch":373,"slotNo":75847362,"epochSlotNo":74562,"stakeKey":"stake1u9ypyr2gesctq6457ma334v4jq6qfwu64jt0j5gsa0neugckxwsql"},{"txId":54167403,"txHash":"09bc83f253f8a813b3073b2be99d9573e874e8eeefd92e165d8b5a6b25a3bdad","txTime":"2022/11/02 18:25:00","block":7963610,"epoch":373,"slotNo":75847209,"epochSlotNo":74409,"stakeKey":"stake1u9s428ejm2067dl395mkgkpwuwf2z2ep4negagd9emz3a8sg2mjvp"},{"txId":54167129,"txHash":"b9323139a2e970b0b5b587329dafee4b102d6e8e25ebb556a0d65d86e756a1aa","txTime":"2022/11/02 18:21:10","block":7963601,"epoch":373,"slotNo":75846979,"epochSlotNo":74179,"stakeKey":"stake1uyn5l8aayfjyu4jmfnw9t22z5537zmuy9er27vd8snhrh2czeqruj"},{"txId":54167028,"txHash":"0d9213cab9fc02c843a4892eed7c75691fa9c668d7c4f669f96f788e0f8e5972","txTime":"2022/11/02 18:19:08","block":7963598,"epoch":373,"slotNo":75846857,"epochSlotNo":74057,"stakeKey":"stake1uy5vcdxe3aqpx46mwrkv6k9c00pq6manv955skaj86px7ac7ag9t4"},{"txId":54166210,"txHash":"4963563efb1da73286f20d54691bdab5881a7574dcc85113f27479245e46412a","txTime":"2022/11/02 18:07:12","block":7963580,"epoch":373,"slotNo":75846141,"epochSlotNo":73341,"stakeKey":"stake1ux7060ukwalk48l7z3msp0pc8c8k02kzq43sssdw9u2aycsac3u2e"},{"txId":54165934,"txHash":"f75fb04ba1cef845fb2392d85b5a04e5744ec629ff02c799a568add2a6db7dff","txTime":"2022/11/02 18:03:38","block":7963573,"epoch":373,"slotNo":75845927,"epochSlotNo":73127,"stakeKey":"stake1ux88kv9zcy7d2sava8w7t5n65dajpet7hzyhw3k894yntzqc2y8x4"},{"txId":54165906,"txHash":"158b7199b50c2d591819e7bfd8cf8e9811586f55b8f1f3e2d025df2db5fbf4ba","txTime":"2022/11/02 18:03:21","block":7963572,"epoch":373,"slotNo":75845910,"epochSlotNo":73110,"stakeKey":"stake1uxehqvsk4zjel5p4023h72c9km7weuw5esfht2gxlph59ggv3was3"},{"txId":54165763,"txHash":"052d56b857028bea1654d0f0679ca742a22bb662fa46fe633116199c20d06d11","txTime":"2022/11/02 18:01:39","block":7963568,"epoch":373,"slotNo":75845808,"epochSlotNo":73008,"stakeKey":"stake1uxfm4n6s36ahtsxj6rljmhmjne62pc2t9y80vsxgrecyw0gjglg02"},{"txId":54165291,"txHash":"5738051e85205c416db78973f9b92c54ea8416cddac427b4d7036f0c95df4896","txTime":"2022/11/02 17:55:04","block":7963549,"epoch":373,"slotNo":75845413,"epochSlotNo":72613,"stakeKey":"stake1u842fwr8srp99997mgweernzuvvsmyet0jlx20m407ccakgzcgvqr"},{"txId":54164893,"txHash":"288a323c24a512c6ac7a62932002c981c9de6d00786a389f5c5af21d4d8d9f6c","txTime":"2022/11/02 17:50:07","block":7963537,"epoch":373,"slotNo":75845116,"epochSlotNo":72316,"stakeKey":"stake1uyc90eppk6ukhdhuwqtktlaqdfqz7cx33f78sq3n2fhtz0s0vc9wk"},{"txId":54164793,"txHash":"23e245c6d7266474f44805913c18a63e190b5fd0f9b9e1ff4d40f2273e686b5d","txTime":"2022/11/02 17:49:05","block":7963532,"epoch":373,"slotNo":75845054,"epochSlotNo":72254,"stakeKey":"stake1u86027uyf7w0c9cmum682fehegt8whrl26w20jacpfr4vxsqjufyw"}],"totalItems":1594471,"totalPages":79724,"currentPage":0}