{"data":[{"hash":"4ce2e0777275e7d99b005553f634cf6c8fd99509ab6a2c3d74481f26a2073a14","blockNo":7956632,"blockHash":"b1396e3c08254dedf1ec955314d4bc0579b97da15eab6fb7600a4bc616cfa0ed","epochNo":372,"epochSlotNo":361902,"slot":75702702,"time":"2022/11/01 02:16:33","addressesInput":["addr1v95sf69jcfhnmknvffwmfvlvnccatqwfjcyh0nlfc6gh5scta2yzg"],"addressesOutput":["DdzFFzCqrhsygxW5VmUrooD2d9MCYZbSpmHMqiqtoQCjqxgf2apfPs9bLQ5hsKEHdBa1VAkQPnQWPVyu1TPc46bqoG2KLT2a1GjjqRts","addr1v8v3auqmw0eszza3ww29ea2pwftuqrqqyu26zvzjq9dt2ncydzvs5"],"fee":171221,"totalOutput":2470493584,"tokens":[]},{"hash":"f668a25ca53f347e5f5f29e33f1c58db5629442c58e37efae429edd96ee8709e","blockNo":7956632,"blockHash":"b1396e3c08254dedf1ec955314d4bc0579b97da15eab6fb7600a4bc616cfa0ed","epochNo":372,"epochSlotNo":361902,"slot":75702702,"time":"2022/11/01 02:16:33","addressesInput":["addr1q80s2l69f9vkqjr9qh30vhs3585u9maxxyy80fwze9y4wea20y38uquwej40pzt0t6gydfw3f2gydlgl8dtlquj32rasjqa4n2"],"addressesOutput":["addr1v9aedy2s0jxhz2qsxns9ssguvceyqwtyg4yrs8me077jctgvmvm3e","addr1q8alzj52yn7s4tjwrfs9nztksx3zzr5ghj8amn2aca2pjj420y38uquwej40pzt0t6gydfw3f2gydlgl8dtlquj32rasd483mu"],"fee":239773,"totalOutput":316940104,"tokens":[]},{"hash":"7a321d15cbf9bd78427f134707f54fe7b143334534e4db284a35dc3f59906020","blockNo":7956632,"blockHash":"b1396e3c08254dedf1ec955314d4bc0579b97da15eab6fb7600a4bc616cfa0ed","epochNo":372,"epochSlotNo":361902,"slot":75702702,"time":"2022/11/01 02:16:33","addressesInput":["addr1qxvej8t7vfzjsqd986clp5z2e7w74hd3qcckrdaudxzhewtaa9se6u8zu6pe3ezgr652af7hkz635n46gqu6yl03gnmsvn4my8","addr1zxj47sy4qxlktqzmkrw8dahe46gtv8seakrshsqz26qnvzypw288a4x0xf8pxgcntelxmyclq83s0ykeehchz2wtspksr3q9nx"],"addressesOutput":["addr1q80xrnzzu7rgpw65r3cj9qmlfdfdj5dplf38xweuxxtcrqu3am3v72q0vzta5mmrc0nlr2xfxxs2f58j7eqr2l5xmthqzay7zr","addr1q9cwvremt6n320s2e3agq0jyq82yhrk3htsu0w426xnz5us70z4w0jgvcdkkynmm8wmds66jd9kusnjfpu6raw5fqp0sr07p5w","addr1q93e5cdl7wr5ctwr3s229wzjte4gz5q5tfuacvxrfwx8zrlg9z003fx4uv4wmycey0cwnpmmjp0m82pf87gdgq4zkc9qx8jgvr","addr1qxvej8t7vfzjsqd986clp5z2e7w74hd3qcckrdaudxzhewtaa9se6u8zu6pe3ezgr652af7hkz635n46gqu6yl03gnmsvn4my8","addr1qxvej8t7vfzjsqd986clp5z2e7w74hd3qcckrdaudxzhewtaa9se6u8zu6pe3ezgr652af7hkz635n46gqu6yl03gnmsvn4my8","addr1qxvej8t7vfzjsqd986clp5z2e7w74hd3qcckrdaudxzhewtaa9se6u8zu6pe3ezgr652af7hkz635n46gqu6yl03gnmsvn4my8"],"fee":757831,"totalOutput":81428764,"tokens":[]},{"hash":"fb814508664bbeb025e42344d2b3416527ce6298f7a697514d7c725d7556e5d1","blockNo":7956632,"blockHash":"b1396e3c08254dedf1ec955314d4bc0579b97da15eab6fb7600a4bc616cfa0ed","epochNo":372,"epochSlotNo":361902,"slot":75702702,"time":"2022/11/01 02:16:33","addressesInput":["addr1qyzktt9gyx5ka9esg7sa32wk8ym80n99nmlfgcxg2qac0kn5nndsdtjqtajkxcpwwv8xchhzv6uhlsc2jjxmwxw6y47sd8kls7","addr1qyzktt9gyx5ka9esg7sa32wk8ym80n99nmlfgcxg2qac0kn5nndsdtjqtajkxcpwwv8xchhzv6uhlsc2jjxmwxw6y47sd8kls7"],"addressesOutput":["addr1zxgx3far7qygq0k6epa0zcvcvrevmn0ypsnfsue94nsn3tvpw288a4x0xf8pxgcntelxmyclq83s0ykeehchz2wtspks905plm","addr1qyzktt9gyx5ka9esg7sa32wk8ym80n99nmlfgcxg2qac0kn5nndsdtjqtajkxcpwwv8xchhzv6uhlsc2jjxmwxw6y47sd8kls7"],"fee":207213,"totalOutput":28600027,"tokens":[]},{"hash":"cb352660cf89d2a91d456afc088eed7ffb0c9f35ae27b4c60e3490b7d8a2b294","blockNo":7956632,"blockHash":"b1396e3c08254dedf1ec955314d4bc0579b97da15eab6fb7600a4bc616cfa0ed","epochNo":372,"epochSlotNo":361902,"slot":75702702,"time":"2022/11/01 02:16:33","addressesInput":["addr1qy90pyvjd8ajkvpt7ws7ucdpk4qdlxty92uajg0aweau8zwcvhv8845dr9ezmnmdqmk64z5wxh63uef7cv67m9dhx70sr3n5yf","addr1qy90pyvjd8ajkvpt7ws7ucdpk4qdlxty92uajg0aweau8zwcvhv8845dr9ezmnmdqmk64z5wxh63uef7cv67m9dhx70sr3n5yf","addr1qy90pyvjd8ajkvpt7ws7ucdpk4qdlxty92uajg0aweau8zwcvhv8845dr9ezmnmdqmk64z5wxh63uef7cv67m9dhx70sr3n5yf","addr1qy90pyvjd8ajkvpt7ws7ucdpk4qdlxty92uajg0aweau8zwcvhv8845dr9ezmnmdqmk64z5wxh63uef7cv67m9dhx70sr3n5yf","addr1qy90pyvjd8ajkvpt7ws7ucdpk4qdlxty92uajg0aweau8zwcvhv8845dr9ezmnmdqmk64z5wxh63uef7cv67m9dhx70sr3n5yf","addr1zxgx3far7qygq0k6epa0zcvcvrevmn0ypsnfsue94nsn3tvpw288a4x0xf8pxgcntelxmyclq83s0ykeehchz2wtspks905plm","addr1qy90pyvjd8ajkvpt7ws7ucdpk4qdlxty92uajg0aweau8zwcvhv8845dr9ezmnmdqmk64z5wxh63uef7cv67m9dhx70sr3n5yf","addr1qy90pyvjd8ajkvpt7ws7ucdpk4qdlxty92uajg0aweau8zwcvhv8845dr9ezmnmdqmk64z5wxh63uef7cv67m9dhx70sr3n5yf"],"addressesOutput":["addr1qxx3cexlje3rjxrkugknxepwltsyurcrzsz7wwqyhh0yfup44q0wj0sgcwzyu0ycevnauarwsg2qywrhevf5gpea8pfs489p4j","addr1q9cwvremt6n320s2e3agq0jyq82yhrk3htsu0w426xnz5us70z4w0jgvcdkkynmm8wmds66jd9kusnjfpu6raw5fqp0sr07p5w","addr1q8lu3knpkvx3eqnsf36wzwrch4s8vulfpccw0ez8a5050xvecvpxxjt8ymc6rkka7w762g7axyzu295jwl6w27u93eqsp9zwke","addr1qy90pyvjd8ajkvpt7ws7ucdpk4qdlxty92uajg0aweau8zwcvhv8845dr9ezmnmdqmk64z5wxh63uef7cv67m9dhx70sr3n5yf"],"fee":954557,"totalOutput":196814940,"tokens":[]},{"hash":"6b9ad4b02755be4f733b4dddcf8c802c5f974c3e3632ebdb5d7443f9a6daafaf","blockNo":7956632,"blockHash":"b1396e3c08254dedf1ec955314d4bc0579b97da15eab6fb7600a4bc616cfa0ed","epochNo":372,"epochSlotNo":361902,"slot":75702702,"time":"2022/11/01 02:16:33","addressesInput":["addr1q8tela2a6wwjngev8kemupku2yufqm9quuz732qhg2ltk34hw6jt9st6kmnh54w2ecj9zn9c263h8dhs73ahnuge0ansdvx8ep"],"addressesOutput":["addr1q9sul4jgjrs8g0wv26v7kwhjn6ptxjv0vthutqm4t8a3pxzhsgle4pkwaggqzgwhayktqgl4xag95l86uwnl6ulf22vqp4ze7t","addr1q8tela2a6wwjngev8kemupku2yufqm9quuz732qhg2ltk34hw6jt9st6kmnh54w2ecj9zn9c263h8dhs73ahnuge0ansdvx8ep","addr1q8tela2a6wwjngev8kemupku2yufqm9quuz732qhg2ltk34hw6jt9st6kmnh54w2ecj9zn9c263h8dhs73ahnuge0ansdvx8ep","addr1q8tela2a6wwjngev8kemupku2yufqm9quuz732qhg2ltk34hw6jt9st6kmnh54w2ecj9zn9c263h8dhs73ahnuge0ansdvx8ep","addr1q8tela2a6wwjngev8kemupku2yufqm9quuz732qhg2ltk34hw6jt9st6kmnh54w2ecj9zn9c263h8dhs73ahnuge0ansdvx8ep"],"fee":176897,"totalOutput":272612505,"tokens":[]},{"hash":"7228283193d0eedd2c01f8843526dff151a9ba705fbf58aef19dc63a52fa0c4b","blockNo":7956632,"blockHash":"b1396e3c08254dedf1ec955314d4bc0579b97da15eab6fb7600a4bc616cfa0ed","epochNo":372,"epochSlotNo":361902,"slot":75702702,"time":"2022/11/01 02:16:33","addressesInput":["addr1zxgx3far7qygq0k6epa0zcvcvrevmn0ypsnfsue94nsn3tvpw288a4x0xf8pxgcntelxmyclq83s0ykeehchz2wtspks905plm","addr1q9qrdqestfh7d0958xxug0zt7u9e9d7tv3ep2mrdxmpltujjh963n3vjxf9emmlf4vj0tnzwqgpt5tyeskej7gnau2aq55j2cg"],"addressesOutput":["addr1q9qrdqestfh7d0958xxug0zt7u9e9d7tv3ep2mrdxmpltujjh963n3vjxf9emmlf4vj0tnzwqgpt5tyeskej7gnau2aq55j2cg","addr1q9qrdqestfh7d0958xxug0zt7u9e9d7tv3ep2mrdxmpltujjh963n3vjxf9emmlf4vj0tnzwqgpt5tyeskej7gnau2aq55j2cg"],"fee":264028,"totalOutput":2660387,"tokens":[]},{"hash":"1980bdeb5bce83cb8464c2b2a82e06b25bcba0aa03f46fdc0f9d560f6cf2e7f1","blockNo":7956632,"blockHash":"b1396e3c08254dedf1ec955314d4bc0579b97da15eab6fb7600a4bc616cfa0ed","epochNo":372,"epochSlotNo":361902,"slot":75702702,"time":"2022/11/01 02:16:33","addressesInput":["addr1q89zyj56esps6jkxwtslq5m357xq7zymnu30jehmvrnmq3mgweh26yf44vstqctt43p9n7ezv3mxa0qqpm8uulqd042sy249lg","addr1zxgx3far7qygq0k6epa0zcvcvrevmn0ypsnfsue94nsn3tvpw288a4x0xf8pxgcntelxmyclq83s0ykeehchz2wtspks905plm"],"addressesOutput":["addr1zxgx3far7qygq0k6epa0zcvcvrevmn0ypsnfsue94nsn3tvpw288a4x0xf8pxgcntelxmyclq83s0ykeehchz2wtspks905plm","addr1q89zyj56esps6jkxwtslq5m357xq7zymnu30jehmvrnmq3mgweh26yf44vstqctt43p9n7ezv3mxa0qqpm8uulqd042sy249lg"],"fee":296620,"totalOutput":163201437,"tokens":[]},{"hash":"3f79787d3079e11d68639c796826d0eab0229f00c3b0952eeedad134743060a5","blockNo":7956632,"blockHash":"b1396e3c08254dedf1ec955314d4bc0579b97da15eab6fb7600a4bc616cfa0ed","epochNo":372,"epochSlotNo":361902,"slot":75702702,"time":"2022/11/01 02:16:33","addressesInput":["addr1zxgx3far7qygq0k6epa0zcvcvrevmn0ypsnfsue94nsn3tvpw288a4x0xf8pxgcntelxmyclq83s0ykeehchz2wtspks905plm","addr1q93u4n0ek9fq3q950kfrj5fka7pjk3xerx9tjcg2rezljsrd9e6z3ccedya305y9kjnc6f99llkvcmkzxrr2k9w5qacqnyxuek"],"addressesOutput":["addr1zxgx3far7qygq0k6epa0zcvcvrevmn0ypsnfsue94nsn3tvpw288a4x0xf8pxgcntelxmyclq83s0ykeehchz2wtspks905plm","addr1q93u4n0ek9fq3q950kfrj5fka7pjk3xerx9tjcg2rezljsrd9e6z3ccedya305y9kjnc6f99llkvcmkzxrr2k9w5qacqnyxuek"],"fee":296752,"totalOutput":22228976,"tokens":[]},{"hash":"9ef2a306a6ab0bd572e0422b6d39ebc448e7af1d2f2df1b6e96480c91d536991","blockNo":7956631,"blockHash":"5defd2b47b39137e8e9ac7e55a86ddd7e3671c3f09b88c1d9ae9a430800ab232","epochNo":372,"epochSlotNo":361892,"slot":75702692,"time":"2022/11/01 02:16:23","addressesInput":["addr1qykn3k72dkenev7w6yt8l399d4cf2jqm9cklm29qcntn5apjxy6njh0xv2mqseg3qpwnhnmpx2pn4zff92hqz6pjndeszf2gk0","addr1zxj47sy4qxlktqzmkrw8dahe46gtv8seakrshsqz26qnvzypw288a4x0xf8pxgcntelxmyclq83s0ykeehchz2wtspksr3q9nx"],"addressesOutput":["addr1qynwvkwwv8yn4nepa4lfwm276um99la46d8k6htuzp4d89gl258sp0z85s6hekppvhtc28sarkyg4n62l7hyfy2lwd4sg5we7f","addr1q9cwvremt6n320s2e3agq0jyq82yhrk3htsu0w426xnz5us70z4w0jgvcdkkynmm8wmds66jd9kusnjfpu6raw5fqp0sr07p5w","addr1qxmsr9vud276avk6xpeft5l6mmewv3hmzuva7wnrn099hemvecxtsaxup6fa75mjzv28pfy63hx4s8slpp849xqxdmrq3c9e6j","addr1qykn3k72dkenev7w6yt8l399d4cf2jqm9cklm29qcntn5apjxy6njh0xv2mqseg3qpwnhnmpx2pn4zff92hqz6pjndeszf2gk0","addr1qykn3k72dkenev7w6yt8l399d4cf2jqm9cklm29qcntn5apjxy6njh0xv2mqseg3qpwnhnmpx2pn4zff92hqz6pjndeszf2gk0","addr1qykn3k72dkenev7w6yt8l399d4cf2jqm9cklm29qcntn5apjxy6njh0xv2mqseg3qpwnhnmpx2pn4zff92hqz6pjndeszf2gk0","addr1qykn3k72dkenev7w6yt8l399d4cf2jqm9cklm29qcntn5apjxy6njh0xv2mqseg3qpwnhnmpx2pn4zff92hqz6pjndeszf2gk0","addr1qykn3k72dkenev7w6yt8l399d4cf2jqm9cklm29qcntn5apjxy6njh0xv2mqseg3qpwnhnmpx2pn4zff92hqz6pjndeszf2gk0","addr1qykn3k72dkenev7w6yt8l399d4cf2jqm9cklm29qcntn5apjxy6njh0xv2mqseg3qpwnhnmpx2pn4zff92hqz6pjndeszf2gk0","addr1qykn3k72dkenev7w6yt8l399d4cf2jqm9cklm29qcntn5apjxy6njh0xv2mqseg3qpwnhnmpx2pn4zff92hqz6pjndeszf2gk0","addr1qykn3k72dkenev7w6yt8l399d4cf2jqm9cklm29qcntn5apjxy6njh0xv2mqseg3qpwnhnmpx2pn4zff92hqz6pjndeszf2gk0","addr1qykn3k72dkenev7w6yt8l399d4cf2jqm9cklm29qcntn5apjxy6njh0xv2mqseg3qpwnhnmpx2pn4zff92hqz6pjndeszf2gk0"],"fee":1113679,"totalOutput":1219517262,"tokens":[]},{"hash":"dfcc8a5b8dfb70b1f6c48915bc4287bfc369297ba71b5def34a543fd6d0c2231","blockNo":7956631,"blockHash":"5defd2b47b39137e8e9ac7e55a86ddd7e3671c3f09b88c1d9ae9a430800ab232","epochNo":372,"epochSlotNo":361892,"slot":75702692,"time":"2022/11/01 02:16:23","addressesInput":["addr1q9pdttvqqq30au656tzhn9pvhxkln7m93pm6p2ztfdj47de93u9nzzqh4px99ev355qey0e5kn9yx6z709ld3w67y4hqw86vem","addr1q9pdttvqqq30au656tzhn9pvhxkln7m93pm6p2ztfdj47de93u9nzzqh4px99ev355qey0e5kn9yx6z709ld3w67y4hqw86vem","addr1q9pdttvqqq30au656tzhn9pvhxkln7m93pm6p2ztfdj47de93u9nzzqh4px99ev355qey0e5kn9yx6z709ld3w67y4hqw86vem"],"addressesOutput":["addr1zxgx3far7qygq0k6epa0zcvcvrevmn0ypsnfsue94nsn3tvpw288a4x0xf8pxgcntelxmyclq83s0ykeehchz2wtspks905plm","addr1q9pdttvqqq30au656tzhn9pvhxkln7m93pm6p2ztfdj47de93u9nzzqh4px99ev355qey0e5kn9yx6z709ld3w67y4hqw86vem"],"fee":965440,"totalOutput":2689440,"tokens":[]},{"hash":"60ed76dfb6d0f2404e57ee3bef25ce45c1b6fdfe5cde7fc54fdb990d364414b5","blockNo":7956631,"blockHash":"5defd2b47b39137e8e9ac7e55a86ddd7e3671c3f09b88c1d9ae9a430800ab232","epochNo":372,"epochSlotNo":361892,"slot":75702692,"time":"2022/11/01 02:16:23","addressesInput":["addr1qxammuzurlt4rdmvwjwwlkr0f470ck20fh663907kageq82vkz2dpwc5cfrcgq0efp5lge78sdyl29svmuagj3c6cceqg0f8xn","addr1zxgx3far7qygq0k6epa0zcvcvrevmn0ypsnfsue94nsn3tvpw288a4x0xf8pxgcntelxmyclq83s0ykeehchz2wtspks905plm"],"addressesOutput":["addr1qxammuzurlt4rdmvwjwwlkr0f470ck20fh663907kageq82vkz2dpwc5cfrcgq0efp5lge78sdyl29svmuagj3c6cceqg0f8xn","addr1qxammuzurlt4rdmvwjwwlkr0f470ck20fh663907kageq82vkz2dpwc5cfrcgq0efp5lge78sdyl29svmuagj3c6cceqg0f8xn"],"fee":257459,"totalOutput":249923290,"tokens":[]},{"hash":"a9f1f86a8a410aa4e0418568ba50b5c0bdee152eca2bc330d0adb38c7c4b4802","blockNo":7956631,"blockHash":"5defd2b47b39137e8e9ac7e55a86ddd7e3671c3f09b88c1d9ae9a430800ab232","epochNo":372,"epochSlotNo":361892,"slot":75702692,"time":"2022/11/01 02:16:23","addressesInput":["addr1qy44k2yeerm8nxlcvpypyq7drx57dh0as0gn224v9alxxh52ww8twgmg50xtx58lf26ur3n663x2x8yfjlk94f90v3nq2a3l97","addr1zxgx3far7qygq0k6epa0zcvcvrevmn0ypsnfsue94nsn3tvpw288a4x0xf8pxgcntelxmyclq83s0ykeehchz2wtspks905plm"],"addressesOutput":["addr1zxgx3far7qygq0k6epa0zcvcvrevmn0ypsnfsue94nsn3tvpw288a4x0xf8pxgcntelxmyclq83s0ykeehchz2wtspks905plm","addr1qy44k2yeerm8nxlcvpypyq7drx57dh0as0gn224v9alxxh52ww8twgmg50xtx58lf26ur3n663x2x8yfjlk94f90v3nq2a3l97"],"fee":296620,"totalOutput":3607891,"tokens":[]},{"hash":"9d19ebe7379f8cca748856439a726474c87ccf3e13c5f25c6cbd9efbb40f2429","blockNo":7956631,"blockHash":"5defd2b47b39137e8e9ac7e55a86ddd7e3671c3f09b88c1d9ae9a430800ab232","epochNo":372,"epochSlotNo":361892,"slot":75702692,"time":"2022/11/01 02:16:23","addressesInput":["addr1qx36qagqt0m2fn495x70sdhn9nxuusgj3sgm3g2sk6upywxjqd2mv6hpqalq9lj7ppytre49fnk23su6ycaaqk0j7sws7u5tn5"],"addressesOutput":["addr1q95zdpkjfmfm4c2txcg25xuj5mw7zrc0wmwafsxr47jg5gv0ncn0qzs98qk6w4uhcwfqqky2sz9pk6rnvn4mc5fw4dhsr9zq78","addr1qx6nyjdjw85ammeamm95qjdd7kwg2z9v5cf3m2t34k2knvkjqd2mv6hpqalq9lj7ppytre49fnk23su6ycaaqk0j7swsjkzskq","addr1qx6nyjdjw85ammeamm95qjdd7kwg2z9v5cf3m2t34k2knvkjqd2mv6hpqalq9lj7ppytre49fnk23su6ycaaqk0j7swsjkzskq","addr1qx6nyjdjw85ammeamm95qjdd7kwg2z9v5cf3m2t34k2knvkjqd2mv6hpqalq9lj7ppytre49fnk23su6ycaaqk0j7swsjkzskq","addr1qx6nyjdjw85ammeamm95qjdd7kwg2z9v5cf3m2t34k2knvkjqd2mv6hpqalq9lj7ppytre49fnk23su6ycaaqk0j7swsjkzskq"],"fee":176897,"totalOutput":368945256,"tokens":[]},{"hash":"567ebbfd89826dae0cdc8c72e5afc2554e0030dc6b3154ee48a3a3996a5651a3","blockNo":7956631,"blockHash":"5defd2b47b39137e8e9ac7e55a86ddd7e3671c3f09b88c1d9ae9a430800ab232","epochNo":372,"epochSlotNo":361892,"slot":75702692,"time":"2022/11/01 02:16:23","addressesInput":["addr1zxgx3far7qygq0k6epa0zcvcvrevmn0ypsnfsue94nsn3tvpw288a4x0xf8pxgcntelxmyclq83s0ykeehchz2wtspks905plm","addr1zxgx3far7qygq0k6epa0zcvcvrevmn0ypsnfsue94nsn3tvpw288a4x0xf8pxgcntelxmyclq83s0ykeehchz2wtspks905plm"],"addressesOutput":["addr1q8dpmhnhga92gly238kaznnmjlmce9xa9d6j32vzkesjfs65fml653vf3rmc6ewyq9umdw7grtgmhywcuky7mltlh07svct0e2","addr1qx7mrlnn2yzwv048y2e45ks70w493uj3x7wpwcusmtcrf5syd48ad9tdazd6j0lxazawqksvfz3ynhqf7fj2w3tvqd4qud3l43","addr1q9cwvremt6n320s2e3agq0jyq82yhrk3htsu0w426xnz5us70z4w0jgvcdkkynmm8wmds66jd9kusnjfpu6raw5fqp0sr07p5w","addr1qy0rfe2e77sglcmzm0zxnc6axpsy5mjwg2k5q0gdjgul2r5yx39fvzzuhdj0uzhf06redd6t5mjmndsp03qya66r0zyqt5zhz6","addr1q8dpmhnhga92gly238kaznnmjlmce9xa9d6j32vzkesjfs65fml653vf3rmc6ewyq9umdw7grtgmhywcuky7mltlh07svct0e2"],"fee":503848,"totalOutput":25810702,"tokens":[]},{"hash":"005e7072f5cf589f93d7e6a67c171812a02a288557c2fece316fc5aadab1c4a1","blockNo":7956631,"blockHash":"5defd2b47b39137e8e9ac7e55a86ddd7e3671c3f09b88c1d9ae9a430800ab232","epochNo":372,"epochSlotNo":361892,"slot":75702692,"time":"2022/11/01 02:16:23","addressesInput":["addr1qxwg5ycu9rae4q8wxuhdqumeslyqr44c6jpzeqtft8gf2dn73mc4x9h4efd334w0mhr7ap2a6zz7fljrz9tuks6jfhtsqdw606","addr1qxwg5ycu9rae4q8wxuhdqumeslyqr44c6jpzeqtft8gf2dn73mc4x9h4efd334w0mhr7ap2a6zz7fljrz9tuks6jfhtsqdw606"],"addressesOutput":["addr1zxgx3far7qygq0k6epa0zcvcvrevmn0ypsnfsue94nsn3tvpw288a4x0xf8pxgcntelxmyclq83s0ykeehchz2wtspks905plm","addr1qxwg5ycu9rae4q8wxuhdqumeslyqr44c6jpzeqtft8gf2dn73mc4x9h4efd334w0mhr7ap2a6zz7fljrz9tuks6jfhtsqdw606"],"fee":207257,"totalOutput":38504765,"tokens":[]},{"hash":"281560cda486c3e06b51c1d41b524f29dde780b9b614a610eec20b901e80f0c1","blockNo":7956631,"blockHash":"5defd2b47b39137e8e9ac7e55a86ddd7e3671c3f09b88c1d9ae9a430800ab232","epochNo":372,"epochSlotNo":361892,"slot":75702692,"time":"2022/11/01 02:16:23","addressesInput":["addr1zxgx3far7qygq0k6epa0zcvcvrevmn0ypsnfsue94nsn3tvpw288a4x0xf8pxgcntelxmyclq83s0ykeehchz2wtspks905plm","addr1q90axs2ecxmvakg89a2ef0syuxl85qzswy0ghtw74eejf4tgdrr605x2dskxw9l95e5ey7la7yr4y3pghhk7h6r9sgeq2zncme"],"addressesOutput":["addr1zxgx3far7qygq0k6epa0zcvcvrevmn0ypsnfsue94nsn3tvpw288a4x0xf8pxgcntelxmyclq83s0ykeehchz2wtspks905plm","addr1q90axs2ecxmvakg89a2ef0syuxl85qzswy0ghtw74eejf4tgdrr605x2dskxw9l95e5ey7la7yr4y3pghhk7h6r9sgeq2zncme"],"fee":297442,"totalOutput":35218836,"tokens":[]},{"hash":"70a7316064e0c54bb1d44a9cbd7a350766ab1eedb424d23761eb6c60fa667e83","blockNo":7956631,"blockHash":"5defd2b47b39137e8e9ac7e55a86ddd7e3671c3f09b88c1d9ae9a430800ab232","epochNo":372,"epochSlotNo":361892,"slot":75702692,"time":"2022/11/01 02:16:23","addressesInput":["addr1q9zp40r9s5lug44mfdd73z0wqttzj5qugpkcgk7xyez84jag89gczhtskjpvuej3z9dg4s5e7pmctdt9k82s689ulevsx282vl"],"addressesOutput":["addr1qygaknzlfxqdw4j56kxdue0reqtvgd6xelkt45xwm0zauk53hrur6rdn8hfaalswh6xsfv30366z0kml2wz3wl7ht5es2cfyjx","addr1q83q0q467wkyplngn0g0630gq3tn75678u7gqp548yug7rag89gczhtskjpvuej3z9dg4s5e7pmctdt9k82s689ulevs5yytue"],"fee":169197,"totalOutput":872485536241,"tokens":[]},{"hash":"305f7b9052397509fce500dbda01032878327dd9d62935ce6daf3459d459189d","blockNo":7956631,"blockHash":"5defd2b47b39137e8e9ac7e55a86ddd7e3671c3f09b88c1d9ae9a430800ab232","epochNo":372,"epochSlotNo":361892,"slot":75702692,"time":"2022/11/01 02:16:23","addressesInput":["addr1qxvej8t7vfzjsqd986clp5z2e7w74hd3qcckrdaudxzhewtaa9se6u8zu6pe3ezgr652af7hkz635n46gqu6yl03gnmsvn4my8","addr1zxj47sy4qxlktqzmkrw8dahe46gtv8seakrshsqz26qnvzypw288a4x0xf8pxgcntelxmyclq83s0ykeehchz2wtspksr3q9nx"],"addressesOutput":["addr1q80xrnzzu7rgpw65r3cj9qmlfdfdj5dplf38xweuxxtcrqu3am3v72q0vzta5mmrc0nlr2xfxxs2f58j7eqr2l5xmthqzay7zr","addr1q9cwvremt6n320s2e3agq0jyq82yhrk3htsu0w426xnz5us70z4w0jgvcdkkynmm8wmds66jd9kusnjfpu6raw5fqp0sr07p5w","addr1q9qsdf6e5r967hgn6vsxet0cvy75qveykcpyxxu4wmdnsjvlvhysppvulkq0cslvgtjn0atz5548g28xn8yttvtemeassrha5a","addr1qxvej8t7vfzjsqd986clp5z2e7w74hd3qcckrdaudxzhewtaa9se6u8zu6pe3ezgr652af7hkz635n46gqu6yl03gnmsvn4my8","addr1qxvej8t7vfzjsqd986clp5z2e7w74hd3qcckrdaudxzhewtaa9se6u8zu6pe3ezgr652af7hkz635n46gqu6yl03gnmsvn4my8","addr1qxvej8t7vfzjsqd986clp5z2e7w74hd3qcckrdaudxzhewtaa9se6u8zu6pe3ezgr652af7hkz635n46gqu6yl03gnmsvn4my8"],"fee":754605,"totalOutput":87973216,"tokens":[]},{"hash":"56843aaf413c931a41ba47ead3bc76bab2e4850da49656c8a974bdbc03e24425","blockNo":7956631,"blockHash":"5defd2b47b39137e8e9ac7e55a86ddd7e3671c3f09b88c1d9ae9a430800ab232","epochNo":372,"epochSlotNo":361892,"slot":75702692,"time":"2022/11/01 02:16:23","addressesInput":["addr1qxw337ynpqj62l7dmta8ntl3jrgrkzv9v55yksld2a8n3mexgcyded43p9adt5qylntlxpem34sk4mvkazcjxgpw8f3qyk4046","addr1qxw337ynpqj62l7dmta8ntl3jrgrkzv9v55yksld2a8n3mexgcyded43p9adt5qylntlxpem34sk4mvkazcjxgpw8f3qyk4046","addr1qxw337ynpqj62l7dmta8ntl3jrgrkzv9v55yksld2a8n3mexgcyded43p9adt5qylntlxpem34sk4mvkazcjxgpw8f3qyk4046"],"addressesOutput":["addr1zxgx3far7qygq0k6epa0zcvcvrevmn0ypsnfsue94nsn3tvpw288a4x0xf8pxgcntelxmyclq83s0ykeehchz2wtspks905plm","addr1qxw337ynpqj62l7dmta8ntl3jrgrkzv9v55yksld2a8n3mexgcyded43p9adt5qylntlxpem34sk4mvkazcjxgpw8f3qyk4046"],"fee":250773,"totalOutput":8309749,"tokens":[]}],"totalItems":53429444,"totalPages":2671473,"currentPage":0}