{"data":[{"hash":"ba6c163ec8a43e51d198e16211fd92de96f8bb4b16cdeb6c378c7cb577e89706","blockNo":7962630,"blockHash":"f997245a581686658078bd8ad911bea8996fa2e7c9082eb9bfef518f3c1a3afa","epochNo":373,"epochSlotNo":54025,"slot":75826825,"time":"2022/11/02 12:45:16","addressesInput":["DdzFFzCqrhtBnvt8mA49NpcP4yoBkifwUyVzK35E6GxgeeR9q7Q3o8vJGMYevKKgygmiUiD6aBu3ahSiSHjSEYLHDFC1ov3YEHqXaJpW","DdzFFzCqrhsn8qL72kDu4cUtvZbbpwxuiK59jUSis8x8qFbzMZ3BeXyt1iL6dtqwm3btBnXG2ciK9mHemWYhaqpcMFWgnvcuB47jxRH4","DdzFFzCqrht78dWVEzMuvHQmqWxUsyvLpEc91aGHFfEtXfYVksfoxRkCLPqpja9dsju2d5SoRNRwFrDk5aJ6VUfBzZs7qDiJhaV4Kxkg","DdzFFzCqrhssc6jnGr5LS3EtYxqDYA3nG94hFZoDVMara1z933sj8xftPUrioDrnb4RkmpFVEgz5aMpAWYLushz9RorZ7o4uz9ynfxGu","DdzFFzCqrht7WSVGpA4aQwCn3q7AwnRfpAJomSVxPdUBu5uCj5A2rCFqWvEHWqEwEHDbocnJRmg4xhVQoRbwW2Y2UxHrsMYLvWd5MVCi","DdzFFzCqrhtCLtvAgWc7mYe5GTYZze4dhur9XRA7v6JDsEtbpYb2UP1BstwECdZwZP48rSkNMbSRDzkNS12YeQ2bo7bzvN7eHBsXR7Ty","DdzFFzCqrhsyPUA7fVrUCbFjVbo4RKSheAkHFTFZenEGDnZP9NCcBVm9rhLHrGRVVuYoep5naJUMjxzcrY1pKb4m7KdE2ri5FvDrGnEB","DdzFFzCqrht78dWVEzMuvHQmqWxUsyvLpEc91aGHFfEtXfYVksfoxRkCLPqpja9dsju2d5SoRNRwFrDk5aJ6VUfBzZs7qDiJhaV4Kxkg","DdzFFzCqrhsvWbUkimnAUGxaqgYEcLw4iGSMDTmfeTkPAW8DbLEQ74oguBAfFUBkitU5FRXBZRSm2rHuZENn5uQDodY9SVe2XG4ZBzxf","DdzFFzCqrhsiuikc9xjN54ZS68wFtKmSCVSWEb7dukaywsN4Zq3tjY5sucw8nySYrFfDxHK7LyX6jaAhiDAcfRkCsrr5XMFGqxa5FzsK","DdzFFzCqrht2wn3RxtAW5hhvUS6NhcpmVbvHCPhSNK9SEQ4fp4gb11yBw3PHZsBUTFPpuF1Vn2eXSbMwLh7bzbeGu632hXMVNpW9fADx","DdzFFzCqrhsvgUxr1VtS95AVVQm7NGAZxsYmQo3hR86f5x7Xiz64NMhfAkCBRroRLoFsoRtciCqUzKeS6AXGg95Wt6YBHqWTxv5JBcMv","DdzFFzCqrhsyinRmEnNezUhq453nV6hHmYNiBRu9m6Rcx59xaXk1Rkw6CbgHzm1ykwamgTbvz7dwVW4SB3uxszJEmR4hY4tEVEmRn54M","DdzFFzCqrht2FQTBySHqNoPnBDyrVRqgocrAeUZHFci8Gs8GsZPdCc98t4ExLZpmUnQcAWLvBcegojyjVBu4qqHhyefQk6QuLac1zn8M","DdzFFzCqrhsdwJwcGnxkUDJ1zvQsXg1nH7xgqRGBHJTvup2zUJK6vDfuEeuAPH3t5Rbj6r3pxgttJd34uhXwjLgKH6wuHX9i6WGwXXoT","DdzFFzCqrhsx9Z5ngfJEmphFcQo2ND5LRruW1zktkvjj2KtCPjZhdj4ZULY8oBRjn1HMwcXugqjMVcFWJwxTvvyo9z9hMivJJP8g5GJ8","DdzFFzCqrhskC2TrRh44tNQT8ZcdH3M2ZjcHFi81u2Kbv8uTHh4MGhtuneAA7kJecNP15pDApare5pirTkVHkKYBWTXGmK7Czow1jESH","DdzFFzCqrhtBPANmQd3vr8cGdGDHPU1iSBHYRXWVGdgoCxxhayAwH8FzuLXB1C3BrbzZcu9bX4yKxPrBAxiDTYSvqx8HDr64s3EGzpGH","DdzFFzCqrhsp8oG4kwmwxm5mEHSaLphT2m8ffPaaviniJ8gjkAM4ZFJYN45Zpoe1dpN92qrAbvpy4XKEn5kA3mABZS4W9vVkXbEWzegA","DdzFFzCqrhsit3tuVCTXBNP5D3ny5QEQYF6VWHtmjbW8ffDXGkuwNbdxkkaWrMNhHeFxySaaPQevwMb5us4v2Qpzq6hryi1wJnsRVJYW","DdzFFzCqrht2wn3RxtAW5hhvUS6NhcpmVbvHCPhSNK9SEQ4fp4gb11yBw3PHZsBUTFPpuF1Vn2eXSbMwLh7bzbeGu632hXMVNpW9fADx","DdzFFzCqrhsvjzhzbzm6nPUpJGHLJXEG7q4YJn7dS4pi8L95j3x7pCyA6v87s3aeHeHkr6BhatmSDU5R738PezQSkRnte2V7YzXRD9KP","DdzFFzCqrht9HyFQ7MFbGk3pdSX5LxsXBzauaHhnS5CmpbqyNNTUsPtCC8FzAnLLmtvgmgV6jvc6NyXcdd3xzQewuyFWYrcnzkA2h914"],"addressesOutput":["addr1q9atjfpqwdtg7ytz0pz9zcaqvx8zr2uv6ysvc4csqynr683dzefudzxhadht99nh8gv4l3z93d486ygllgxuh2drrrpsdw6fws","DdzFFzCqrhsm56FjYinJpirjPgvSqZ2ez6GgfCLN6upVjHsEh8d9godQRxDSC9jQ2snHTWPHgUWWaHePRh5CNiBYKGfjodgTbra4u1Ud","DdzFFzCqrhstTRT8hcwcv5tCJ12zjDByU2ZNWEkCsMpHzDaMcbePXnhHbA41gm29Zi1qGrkJMXS5KkxTQ56cc5F2YANt3a1E8BPCifUa","DdzFFzCqrhsgpLnWm3QHJsB2uTuZsyU7DCbshV9MbtUjSpkpU5QCqgE8dnxMhDoo4MUn5m7wiw5ZWp86EdUCpj6tEqc566MAH6wsnnkE"],"fee":1069305,"totalOutput":77949849003,"tokens":[]},{"hash":"e677f3ef8ac32f2ba15abb3585c3647a0c529d3131f59d8925bda3e4fb48a647","blockNo":7962619,"blockHash":"cb7c08a9d03d714e856eb117a537937588f2ca8ffa26555de993239e81a5a0e0","epochNo":373,"epochSlotNo":53842,"slot":75826642,"time":"2022/11/02 12:42:13","addressesInput":["addr1qxn0kuqk8mysdv8rpqhl39vp6njnxd7dw3yvkcvdk9ke4revmezswc6ql6x9kekl6zm3ptc6g9jlwln9lt6sml5mcl0sndmr62","addr1qxn0kuqk8mysdv8rpqhl39vp6njnxd7dw3yvkcvdk9ke4revmezswc6ql6x9kekl6zm3ptc6g9jlwln9lt6sml5mcl0sndmr62","addr1qxn0kuqk8mysdv8rpqhl39vp6njnxd7dw3yvkcvdk9ke4revmezswc6ql6x9kekl6zm3ptc6g9jlwln9lt6sml5mcl0sndmr62","addr1qxn0kuqk8mysdv8rpqhl39vp6njnxd7dw3yvkcvdk9ke4revmezswc6ql6x9kekl6zm3ptc6g9jlwln9lt6sml5mcl0sndmr62"],"addressesOutput":["addr1zyq0kyrml023kwjk8zr86d5gaxrt5w8lxnah8r6m6s4jp4g3r6dxnzml343sx8jweqn4vn3fz2kj8kgu9czghx0jrsyqqktyhv","addr1q9ad5mud938r7l24eaac4v57ydlj72hazgprts9f7daaz09mm95jvs5h94099yglxr7v6ug6pp43780huy040lm4utmqx8g5eu","addr1qxn0kuqk8mysdv8rpqhl39vp6njnxd7dw3yvkcvdk9ke4revmezswc6ql6x9kekl6zm3ptc6g9jlwln9lt6sml5mcl0sndmr62"],"fee":345286,"totalOutput":380872667,"tokens":[]},{"hash":"2bba4951d4bd679f38af0d52005a975989fbf207c3c35346ca0269c0e972643c","blockNo":7962606,"blockHash":"0523da771247bb352586e7acb262f05ef43b0a1193a02641117a134aa40a2654","epochNo":373,"epochSlotNo":53577,"slot":75826377,"time":"2022/11/02 12:37:48","addressesInput":["addr1qxn0kuqk8mysdv8rpqhl39vp6njnxd7dw3yvkcvdk9ke4revmezswc6ql6x9kekl6zm3ptc6g9jlwln9lt6sml5mcl0sndmr62"],"addressesOutput":["addr1wxn9efv2f6w82hagxqtn62ju4m293tqvw0uhmdl64ch8uwc0h43gt","addr1qxn0kuqk8mysdv8rpqhl39vp6njnxd7dw3yvkcvdk9ke4revmezswc6ql6x9kekl6zm3ptc6g9jlwln9lt6sml5mcl0sndmr62","addr1qxn0kuqk8mysdv8rpqhl39vp6njnxd7dw3yvkcvdk9ke4revmezswc6ql6x9kekl6zm3ptc6g9jlwln9lt6sml5mcl0sndmr62"],"fee":336133,"totalOutput":384218033,"tokens":[]},{"hash":"e3d10604cbcaa5f8adc57ad7ec4aae9dd3d518387d3c64b9cfb7c82e49878948","blockNo":7962597,"blockHash":"f6db11baa8020b7e8399887eb886115b989ad661befa85bed6dddc0bc06817d1","epochNo":373,"epochSlotNo":53349,"slot":75826149,"time":"2022/11/02 12:34:00","addressesInput":["addr1qxn0kuqk8mysdv8rpqhl39vp6njnxd7dw3yvkcvdk9ke4revmezswc6ql6x9kekl6zm3ptc6g9jlwln9lt6sml5mcl0sndmr62"],"addressesOutput":["addr1zyq0kyrml023kwjk8zr86d5gaxrt5w8lxnah8r6m6s4jp4g3r6dxnzml343sx8jweqn4vn3fz2kj8kgu9czghx0jrsyqqktyhv","addr1qxn0kuqk8mysdv8rpqhl39vp6njnxd7dw3yvkcvdk9ke4revmezswc6ql6x9kekl6zm3ptc6g9jlwln9lt6sml5mcl0sndmr62"],"fee":334198,"totalOutput":388204166,"tokens":[]},{"hash":"d201f0b42b8613596c30bafdf89d25a328726af413ec96439c7fd538ee9f8874","blockNo":7962593,"blockHash":"13aa4dd6394b54d904a1583713ab528e111345bd2a9b9e82096a00651eb0f4e1","epochNo":373,"epochSlotNo":53167,"slot":75825967,"time":"2022/11/02 12:30:58","addressesInput":["addr1qxn0kuqk8mysdv8rpqhl39vp6njnxd7dw3yvkcvdk9ke4revmezswc6ql6x9kekl6zm3ptc6g9jlwln9lt6sml5mcl0sndmr62","addr1qxn0kuqk8mysdv8rpqhl39vp6njnxd7dw3yvkcvdk9ke4revmezswc6ql6x9kekl6zm3ptc6g9jlwln9lt6sml5mcl0sndmr62"],"addressesOutput":["addr1zyq0kyrml023kwjk8zr86d5gaxrt5w8lxnah8r6m6s4jp4g3r6dxnzml343sx8jweqn4vn3fz2kj8kgu9czghx0jrsyqqktyhv","addr1q9ad5mud938r7l24eaac4v57ydlj72hazgprts9f7daaz09mm95jvs5h94099yglxr7v6ug6pp43780huy040lm4utmqx8g5eu","addr1qxn0kuqk8mysdv8rpqhl39vp6njnxd7dw3yvkcvdk9ke4revmezswc6ql6x9kekl6zm3ptc6g9jlwln9lt6sml5mcl0sndmr62"],"fee":340358,"totalOutput":392323364,"tokens":[]},{"hash":"9ec03487564ebc9d5f3906ad199823e4b0d260212b66e51e9c784d9317986102","blockNo":7962584,"blockHash":"cb18b4c2cd95f7695c7e73b726f525c7ce58a6fb0468437333c0569f103df67d","epochNo":373,"epochSlotNo":53062,"slot":75825862,"time":"2022/11/02 12:29:13","addressesInput":["addr1qxn0kuqk8mysdv8rpqhl39vp6njnxd7dw3yvkcvdk9ke4revmezswc6ql6x9kekl6zm3ptc6g9jlwln9lt6sml5mcl0sndmr62"],"addressesOutput":["addr1zyq0kyrml023kwjk8zr86d5gaxrt5w8lxnah8r6m6s4jp4g3r6dxnzml343sx8jweqn4vn3fz2kj8kgu9czghx0jrsyqqktyhv","addr1qxn0kuqk8mysdv8rpqhl39vp6njnxd7dw3yvkcvdk9ke4revmezswc6ql6x9kekl6zm3ptc6g9jlwln9lt6sml5mcl0sndmr62"],"fee":332526,"totalOutput":394313722,"tokens":[]},{"hash":"f23c75e859e6ad77aeb61e065f21c49d560a7dcb497ec0277272cba9077a3ff9","blockNo":7962576,"blockHash":"2301577e053f4cc8d83a371723902a20b1e8ec59510de2fd316edce9c50dd749","epochNo":373,"epochSlotNo":52933,"slot":75825733,"time":"2022/11/02 12:27:04","addressesInput":["addr1qxn0kuqk8mysdv8rpqhl39vp6njnxd7dw3yvkcvdk9ke4revmezswc6ql6x9kekl6zm3ptc6g9jlwln9lt6sml5mcl0sndmr62"],"addressesOutput":["addr1wxn9efv2f6w82hagxqtn62ju4m293tqvw0uhmdl64ch8uwc0h43gt","addr1qxn0kuqk8mysdv8rpqhl39vp6njnxd7dw3yvkcvdk9ke4revmezswc6ql6x9kekl6zm3ptc6g9jlwln9lt6sml5mcl0sndmr62","addr1qxn0kuqk8mysdv8rpqhl39vp6njnxd7dw3yvkcvdk9ke4revmezswc6ql6x9kekl6zm3ptc6g9jlwln9lt6sml5mcl0sndmr62"],"fee":334285,"totalOutput":401646168,"tokens":[]},{"hash":"c207c64c4a72c9bf67ce6b0e86d9acf9ac70fbfe00a1546c2044eb5cff8209ea","blockNo":7962568,"blockHash":"ae1bf046f51bc9fdc482883df840d5b9b5254dfc60eb64ef0ed5230e2db64cf2","epochNo":373,"epochSlotNo":52778,"slot":75825578,"time":"2022/11/02 12:24:29","addressesInput":["addr1qxn0kuqk8mysdv8rpqhl39vp6njnxd7dw3yvkcvdk9ke4revmezswc6ql6x9kekl6zm3ptc6g9jlwln9lt6sml5mcl0sndmr62","addr1qxn0kuqk8mysdv8rpqhl39vp6njnxd7dw3yvkcvdk9ke4revmezswc6ql6x9kekl6zm3ptc6g9jlwln9lt6sml5mcl0sndmr62","addr1qxn0kuqk8mysdv8rpqhl39vp6njnxd7dw3yvkcvdk9ke4revmezswc6ql6x9kekl6zm3ptc6g9jlwln9lt6sml5mcl0sndmr62"],"addressesOutput":["addr1zyq0kyrml023kwjk8zr86d5gaxrt5w8lxnah8r6m6s4jp4g3r6dxnzml343sx8jweqn4vn3fz2kj8kgu9czghx0jrsyqqktyhv","addr1q9ad5mud938r7l24eaac4v57ydlj72hazgprts9f7daaz09mm95jvs5h94099yglxr7v6ug6pp43780huy040lm4utmqx8g5eu","addr1qxn0kuqk8mysdv8rpqhl39vp6njnxd7dw3yvkcvdk9ke4revmezswc6ql6x9kekl6zm3ptc6g9jlwln9lt6sml5mcl0sndmr62"],"fee":340138,"totalOutput":405730453,"tokens":[]},{"hash":"ff2730e20fb61b00c026d40362f0b39742d60664101ab8d81a47f0348b7e1626","blockNo":7962564,"blockHash":"501e92061abf480179beb9e819c62fdd987ecea46bce2396baf0016480590075","epochNo":373,"epochSlotNo":52664,"slot":75825464,"time":"2022/11/02 12:22:35","addressesInput":["addr1qxn0kuqk8mysdv8rpqhl39vp6njnxd7dw3yvkcvdk9ke4revmezswc6ql6x9kekl6zm3ptc6g9jlwln9lt6sml5mcl0sndmr62","addr1qxn0kuqk8mysdv8rpqhl39vp6njnxd7dw3yvkcvdk9ke4revmezswc6ql6x9kekl6zm3ptc6g9jlwln9lt6sml5mcl0sndmr62","addr1qxn0kuqk8mysdv8rpqhl39vp6njnxd7dw3yvkcvdk9ke4revmezswc6ql6x9kekl6zm3ptc6g9jlwln9lt6sml5mcl0sndmr62"],"addressesOutput":["addr1zyq0kyrml023kwjk8zr86d5gaxrt5w8lxnah8r6m6s4jp4g3r6dxnzml343sx8jweqn4vn3fz2kj8kgu9czghx0jrsyqqktyhv","addr1q9ad5mud938r7l24eaac4v57ydlj72hazgprts9f7daaz09mm95jvs5h94099yglxr7v6ug6pp43780huy040lm4utmqx8g5eu","addr1qxn0kuqk8mysdv8rpqhl39vp6njnxd7dw3yvkcvdk9ke4revmezswc6ql6x9kekl6zm3ptc6g9jlwln9lt6sml5mcl0sndmr62"],"fee":338114,"totalOutput":406820671,"tokens":[]},{"hash":"9dd35a6856cae2f547b24a152187b37df9dc7bfdb0820491b27db441966e13da","blockNo":7962562,"blockHash":"b018e22df6bfcd7dde4bcd055da26a4940059e5db869e9d31c917bc0753abb58","epochNo":373,"epochSlotNo":52583,"slot":75825383,"time":"2022/11/02 12:21:14","addressesInput":["addr1qxn0kuqk8mysdv8rpqhl39vp6njnxd7dw3yvkcvdk9ke4revmezswc6ql6x9kekl6zm3ptc6g9jlwln9lt6sml5mcl0sndmr62"],"addressesOutput":["addr1wxn9efv2f6w82hagxqtn62ju4m293tqvw0uhmdl64ch8uwc0h43gt","addr1qxn0kuqk8mysdv8rpqhl39vp6njnxd7dw3yvkcvdk9ke4revmezswc6ql6x9kekl6zm3ptc6g9jlwln9lt6sml5mcl0sndmr62","addr1qxn0kuqk8mysdv8rpqhl39vp6njnxd7dw3yvkcvdk9ke4revmezswc6ql6x9kekl6zm3ptc6g9jlwln9lt6sml5mcl0sndmr62"],"fee":330589,"totalOutput":410022717,"tokens":[]},{"hash":"5b32b2bdc364315d1f279edd41d19d05bce8c2698309196f8409e0741c31e512","blockNo":7962559,"blockHash":"f38ca7791b6958935990462106926bee0966b5b86e9fb644362f6d74666743f5","epochNo":373,"epochSlotNo":52449,"slot":75825249,"time":"2022/11/02 12:19:00","addressesInput":["addr1qxn0kuqk8mysdv8rpqhl39vp6njnxd7dw3yvkcvdk9ke4revmezswc6ql6x9kekl6zm3ptc6g9jlwln9lt6sml5mcl0sndmr62"],"addressesOutput":["addr1wxaptpmxcxawvr3pzlhgnpmzz3ql43n2tc8mn3av5kx0yzs09tqh8","addr1qxn0kuqk8mysdv8rpqhl39vp6njnxd7dw3yvkcvdk9ke4revmezswc6ql6x9kekl6zm3ptc6g9jlwln9lt6sml5mcl0sndmr62"],"fee":336922,"totalOutput":416853306,"tokens":[]},{"hash":"f51732cf7ff572d04874e2e0de11e4bdd0667df3b3a18a0ea9a20a68df4eb991","blockNo":7962406,"blockHash":"512e7748580e19ecac0fb7e15e1c0cf3e581a43f1eb5a2222bb86c2577682d4c","epochNo":373,"epochSlotNo":49457,"slot":75822257,"time":"2022/11/02 11:29:08","addressesInput":["DdzFFzCqrhswFp8BYAY39thQgHbwacjLbGUrDsREszGJgWh5eCQScY3nZC5bgQsrFWa25qwbV7WfMAQs1pM6kHcfUMVig5dRjD9bUNzB","DdzFFzCqrhsu8XWJz6YAte7FR1tEnYTAbwyBDPCf1wyedUWEp2AL99FaJ91fafuPCy6Azq9rXKVDHTjsu1j5Zmp69epgweRo1QyggDvm","DdzFFzCqrht2UBqqmbiNzN7yKE2BA4TTGwHWSPzPmcd1WntM9rNntb8d4mzsKM6B4bdhscet1Y1xmwvd6gm9CU1Yta9TSGCTuq1LxsQi","DdzFFzCqrht2kEV7kyadG6p35oyPWuuATUjDPxD5u14z9FHy66MzYWS9q9iEbQc2kUJSyrcg6DRADuF7ogGB5dint4F7e8X8Rti4GAX3","DdzFFzCqrhswHg4cRhRaQorbmdhW8WiRhMK1Vgp3ATnePU5SENcLWXixaAFBysVS8r19htzYegRxB1HXqdbxpptLxe2huYvfzUX5g2c9","DdzFFzCqrhssj7sqnZH6qhbRG8J7a9jbzmzmGqLuB4MLmLTBuh9o9tokPPApzQv1arDMvgmMSGYhefa6sxS9JkwaK2JxiBem26W1XoYp","DdzFFzCqrhsjvhJuZXKv8UtDRfv4f6fe7oShQs2L55hRnq2NTswr8BrBdmpf3g7vhQJdkyiiBfXup58NgiVBxFRznxw658RuwPHo5edk","DdzFFzCqrhswFp8BYAY39thQgHbwacjLbGUrDsREszGJgWh5eCQScY3nZC5bgQsrFWa25qwbV7WfMAQs1pM6kHcfUMVig5dRjD9bUNzB","DdzFFzCqrhsdu6mTnQHY7zHbKJHzxQ7HjnowvGeiWjSXuQZLFsELKBtmaKNkb4rsHs6wG22PePXVazit9JVCpM6FymWR2RhwTx8pArSr","DdzFFzCqrhtApdTNEtHkDqhKnMwoTG8cHrws82Pu79cHrenKcC7nYgf4iVGDwVkLPbeUDUZd9LG5ETVtpTagEpFZ8cMw4wn6EdcLXPSg"],"addressesOutput":["addr1q9atjfpqwdtg7ytz0pz9zcaqvx8zr2uv6ysvc4csqynr683dzefudzxhadht99nh8gv4l3z93d486ygllgxuh2drrrpsdw6fws","DdzFFzCqrhtBPANmQd3vr8cGdGDHPU1iSBHYRXWVGdgoCxxhayAwH8FzuLXB1C3BrbzZcu9bX4yKxPrBAxiDTYSvqx8HDr64s3EGzpGH","DdzFFzCqrht9HyFQ7MFbGk3pdSX5LxsXBzauaHhnS5CmpbqyNNTUsPtCC8FzAnLLmtvgmgV6jvc6NyXcdd3xzQewuyFWYrcnzkA2h914","DdzFFzCqrhskC2TrRh44tNQT8ZcdH3M2ZjcHFi81u2Kbv8uTHh4MGhtuneAA7kJecNP15pDApare5pirTkVHkKYBWTXGmK7Czow1jESH"],"fee":943465,"totalOutput":57793600208,"tokens":[]},{"hash":"a7fa45fe70cbd8eee9995912fb7771cdbdfae93e6f2af6e6246f0ec6c3389288","blockNo":7962328,"blockHash":"c8666bde3a814bc1ba4a98ae8cf2dc0c0d67b8249e9e75f1ce35fb57d1614478","epochNo":373,"epochSlotNo":47799,"slot":75820599,"time":"2022/11/02 11:01:30","addressesInput":["addr1qyecjgprat9qjdfkv6ln45eww5a9lwkgqn92x6lspd339ky00hv6dpawknxe42d8dlx42msv2nt8yej77vudk0uruvtsh2aeym","addr1qyecjgprat9qjdfkv6ln45eww5a9lwkgqn92x6lspd339ky00hv6dpawknxe42d8dlx42msv2nt8yej77vudk0uruvtsh2aeym","addr1qyecjgprat9qjdfkv6ln45eww5a9lwkgqn92x6lspd339ky00hv6dpawknxe42d8dlx42msv2nt8yej77vudk0uruvtsh2aeym","addr1qyecjgprat9qjdfkv6ln45eww5a9lwkgqn92x6lspd339ky00hv6dpawknxe42d8dlx42msv2nt8yej77vudk0uruvtsh2aeym"],"addressesOutput":["addr1vx4dy0jfjj0035wp4wcejp24z2q3wsg7anz7j4qcn5upa3sg590p6","addr1qyecjgprat9qjdfkv6ln45eww5a9lwkgqn92x6lspd339ky00hv6dpawknxe42d8dlx42msv2nt8yej77vudk0uruvtsh2aeym","addr1qyecjgprat9qjdfkv6ln45eww5a9lwkgqn92x6lspd339ky00hv6dpawknxe42d8dlx42msv2nt8yej77vudk0uruvtsh2aeym","addr1qyecjgprat9qjdfkv6ln45eww5a9lwkgqn92x6lspd339ky00hv6dpawknxe42d8dlx42msv2nt8yej77vudk0uruvtsh2aeym"],"fee":401517,"totalOutput":46146832,"tokens":[]},{"hash":"feda88c5e9a3362ee2cedd878ef51c2671fae2e32fea94a7c3e15cfbfa31e4f4","blockNo":7962319,"blockHash":"2810d790026fce74de20f99e890c3d6a4366ebd4a05e7b3cdfae5244e4fd7ed8","epochNo":373,"epochSlotNo":47623,"slot":75820423,"time":"2022/11/02 10:58:34","addressesInput":["addr1qyecjgprat9qjdfkv6ln45eww5a9lwkgqn92x6lspd339ky00hv6dpawknxe42d8dlx42msv2nt8yej77vudk0uruvtsh2aeym"],"addressesOutput":["addr1wxn9efv2f6w82hagxqtn62ju4m293tqvw0uhmdl64ch8uwc0h43gt","addr1qyecjgprat9qjdfkv6ln45eww5a9lwkgqn92x6lspd339ky00hv6dpawknxe42d8dlx42msv2nt8yej77vudk0uruvtsh2aeym","addr1qyecjgprat9qjdfkv6ln45eww5a9lwkgqn92x6lspd339ky00hv6dpawknxe42d8dlx42msv2nt8yej77vudk0uruvtsh2aeym"],"fee":400769,"totalOutput":50169710,"tokens":[]},{"hash":"ac8972ad870bae87ae11c9f2c3b24c47931b9a2a96831a0dde2b9a481a514afa","blockNo":7962220,"blockHash":"dbf303fabe86cb3f111c3f1d8d5954051927d5404f2f4bb77e997bb3db1ab0e3","epochNo":373,"epochSlotNo":45346,"slot":75818146,"time":"2022/11/02 10:20:37","addressesInput":["DdzFFzCqrhskJzUNSWRU2eWMxHErjYn95o1W6dGKuQTadRd4TW4Bgp2vcvfrbkqrUjiXd75Qsha7SioLtzAE6o7bxrmntWB5k8DDgBDU","DdzFFzCqrht67NM2mdzYWBt7GuixVBCfUGKhsGWvkDBVk53NSF4t1MwvzuETxhcu6YKTJHwK1xjwwM73bzAYV9yLWd8bBvVQer91PSeD","DdzFFzCqrhskJAWg59F4oE71G37AivqGArVEgEuvBBiaDZfGijD7m2vmmLm3vBUEZpmdwrrvLpq67yWi952KFNVLrFULyFiqF6EoDJGm","DdzFFzCqrhtCLW2DqDyGF9yzEDArTbc3Wuu4K5WLNda2LyrPnbR5EwVfxGfheaBEzgqZiiNq7Qme5LaCcTFHLMAcQPjAAJPmTT3zWfyP","DdzFFzCqrhsy8CZpV2PMgYG9YRWa3ZRK1LU4V2s4K35KABvngkgKB4NsWcp6CWUkaxaKTg5jMrXnj88svCprxn78yvMVKJfXuc8mQV9V","DdzFFzCqrhssr9Z4oxAsWehVL4GmUkhz1zPqMvtePNNRPah1kSoG7ya175dYGLu2LpSgHao2e688fTMFDWn5mJ1D8crMM74K63saHjoT","DdzFFzCqrhssDcA1oMdHwqmFCfTh6Aic6Y6c71SATEf9kjWK74oQYFtGG9u9iQUNgRrZmt8CWRK9SKvGzQ2QoufvE1AaLNcY8iYbZxgA","DdzFFzCqrhsz4abKfuCziKXzaQG315AExpqzmk2aXceVqmGgbSd2Neus29DA9HkkZL9FKbDp63J6GmczSzE64YwKFB8FQoZcBg1pzzJK"],"addressesOutput":["addr1q9atjfpqwdtg7ytz0pz9zcaqvx8zr2uv6ysvc4csqynr683dzefudzxhadht99nh8gv4l3z93d486ygllgxuh2drrrpsdw6fws","DdzFFzCqrhtApdTNEtHkDqhKnMwoTG8cHrws82Pu79cHrenKcC7nYgf4iVGDwVkLPbeUDUZd9LG5ETVtpTagEpFZ8cMw4wn6EdcLXPSg","DdzFFzCqrhsu8XWJz6YAte7FR1tEnYTAbwyBDPCf1wyedUWEp2AL99FaJ91fafuPCy6Azq9rXKVDHTjsu1j5Zmp69epgweRo1QyggDvm","DdzFFzCqrhsjvhJuZXKv8UtDRfv4f6fe7oShQs2L55hRnq2NTswr8BrBdmpf3g7vhQJdkyiiBfXup58NgiVBxFRznxw658RuwPHo5edk"],"fee":924105,"totalOutput":68219307441,"tokens":[]},{"hash":"d1b80acfbab7902f77d69d5ab6951b5ec27f8fc09b3c57a3fac6e1115b9b9a74","blockNo":7962190,"blockHash":"b647263e8bc1dc555725d4772d30f219a76f38250e0f96c1efb80b5b7968a911","epochNo":373,"epochSlotNo":44777,"slot":75817577,"time":"2022/11/02 10:11:08","addressesInput":["addr1qxzavjgcrqlse89u6p87cqahsepmhyp5sfgvx7tpqcf8n5l6wmvzcun764vwdlan6ctg303ktw5h2ejwv2epgzk6u00qjkxtr5"],"addressesOutput":["addr1vyjdya9lmyfmysdgej3qc6thwat33lwm3umk8uwnvhy9g3gzvd2jp","addr1qyxr5m2uy8az3whnycvs65t255ycwl5vamh74h0hh4kmrg06wmvzcun764vwdlan6ctg303ktw5h2ejwv2epgzk6u00q7n8znl"],"fee":353557,"totalOutput":24806649,"tokens":[]},{"hash":"77698a5b17cc16f33b99480fac2d86dc2059772613d11bb6c1182d04166b846b","blockNo":7962163,"blockHash":"52e8b17d8c7a2ba40999b3414d51628c89ef453ef4bba122eab068e8e6ee9e01","epochNo":373,"epochSlotNo":44197,"slot":75816997,"time":"2022/11/02 10:01:28","addressesInput":["addr1qxn0kuqk8mysdv8rpqhl39vp6njnxd7dw3yvkcvdk9ke4revmezswc6ql6x9kekl6zm3ptc6g9jlwln9lt6sml5mcl0sndmr62"],"addressesOutput":["addr1zyq0kyrml023kwjk8zr86d5gaxrt5w8lxnah8r6m6s4jp4g3r6dxnzml343sx8jweqn4vn3fz2kj8kgu9czghx0jrsyqqktyhv","addr1qxn0kuqk8mysdv8rpqhl39vp6njnxd7dw3yvkcvdk9ke4revmezswc6ql6x9kekl6zm3ptc6g9jlwln9lt6sml5mcl0sndmr62"],"fee":328698,"totalOutput":421840228,"tokens":[]},{"hash":"2fda6d165087a20a07d403f50ff4749f90e743cae441ee4aadf3e731fdf5d063","blockNo":7962154,"blockHash":"dbc9fcd1b6c1b1201f2b5d6b915dd73a85c45ceb8615f1438401136ead7f09af","epochNo":373,"epochSlotNo":44047,"slot":75816847,"time":"2022/11/02 09:58:58","addressesInput":["addr1qxn0kuqk8mysdv8rpqhl39vp6njnxd7dw3yvkcvdk9ke4revmezswc6ql6x9kekl6zm3ptc6g9jlwln9lt6sml5mcl0sndmr62"],"addressesOutput":["addr1zyq0kyrml023kwjk8zr86d5gaxrt5w8lxnah8r6m6s4jp4g3r6dxnzml343sx8jweqn4vn3fz2kj8kgu9czghx0jrsyqqktyhv","addr1qxn0kuqk8mysdv8rpqhl39vp6njnxd7dw3yvkcvdk9ke4revmezswc6ql6x9kekl6zm3ptc6g9jlwln9lt6sml5mcl0sndmr62"],"fee":328434,"totalOutput":425818926,"tokens":[]},{"hash":"b728d071ff8eef8cdb2fc9e66db6efc762ef15223b3d4545453d0c3174aaa55c","blockNo":7962126,"blockHash":"a7a4e9a9cb13ce990e7f803257997b30b7723bf49b3069ec648598c943076233","epochNo":373,"epochSlotNo":43614,"slot":75816414,"time":"2022/11/02 09:51:45","addressesInput":["addr1qxn0kuqk8mysdv8rpqhl39vp6njnxd7dw3yvkcvdk9ke4revmezswc6ql6x9kekl6zm3ptc6g9jlwln9lt6sml5mcl0sndmr62","addr1qxn0kuqk8mysdv8rpqhl39vp6njnxd7dw3yvkcvdk9ke4revmezswc6ql6x9kekl6zm3ptc6g9jlwln9lt6sml5mcl0sndmr62"],"addressesOutput":["addr1zyq0kyrml023kwjk8zr86d5gaxrt5w8lxnah8r6m6s4jp4g3r6dxnzml343sx8jweqn4vn3fz2kj8kgu9czghx0jrsyqqktyhv","addr1qxn0kuqk8mysdv8rpqhl39vp6njnxd7dw3yvkcvdk9ke4revmezswc6ql6x9kekl6zm3ptc6g9jlwln9lt6sml5mcl0sndmr62"],"fee":330018,"totalOutput":430797360,"tokens":[]},{"hash":"ff2f899e4c8edfcff3ae227b8820373537af57b61c41931e1ce65d526eb067ef","blockNo":7962099,"blockHash":"caeb981bdb87ef9be693a38aec981d19e6fde5d736288609697de9cc6c33b373","epochNo":373,"epochSlotNo":42921,"slot":75815721,"time":"2022/11/02 09:40:12","addressesInput":["addr1qxn0kuqk8mysdv8rpqhl39vp6njnxd7dw3yvkcvdk9ke4revmezswc6ql6x9kekl6zm3ptc6g9jlwln9lt6sml5mcl0sndmr62"],"addressesOutput":["addr1zyq0kyrml023kwjk8zr86d5gaxrt5w8lxnah8r6m6s4jp4g3r6dxnzml343sx8jweqn4vn3fz2kj8kgu9czghx0jrsyqqktyhv","addr1qxn0kuqk8mysdv8rpqhl39vp6njnxd7dw3yvkcvdk9ke4revmezswc6ql6x9kekl6zm3ptc6g9jlwln9lt6sml5mcl0sndmr62"],"fee":330414,"totalOutput":434777458,"tokens":[]}],"totalItems":11112,"totalPages":556,"currentPage":0}