{"data":[{"txId":56850550,"txHash":"d8bde85749bc8850ff64b7115ea59e9f163fec681588398dbc688ee9cead859a","txTime":"2022/12/07 18:36:05","block":8109959,"epoch":380,"slotNo":78871874,"epochSlotNo":75074,"stakeKey":"stake1u99j4vhmtv6vdr2n0xyaxgkadrrjrlt56k6wdveyfayrehgah8pdr"},{"txId":56850316,"txHash":"21347319a6a9a84b9472e1e829a116a3d12ab41db7470b938b9aa71e9c339e93","txTime":"2022/12/07 18:31:39","block":8109946,"epoch":380,"slotNo":78871608,"epochSlotNo":74808,"stakeKey":"stake1uypksjh6q0xhsntutxfq9xj2vaqwq2nrgy606vrkg766k7cs6cum4"},{"txId":56850216,"txHash":"e5c3efcda5c45db28c8317b2d35c6e9a9bec1e6c515beafa2526dc629865816e","txTime":"2022/12/07 18:29:50","block":8109941,"epoch":380,"slotNo":78871499,"epochSlotNo":74699,"stakeKey":"stake1u9yckuz8v0ujz6ltq0p8cqe93huzzlngv73gf4uff5meqes093ldu"},{"txId":56850093,"txHash":"d6c54fc0ec27b6b063598d8eba99e775ad063287445987efda71c34ad59f3acf","txTime":"2022/12/07 18:27:29","block":8109934,"epoch":380,"slotNo":78871358,"epochSlotNo":74558,"stakeKey":"stake1u9kqq47zgencxxgk9jqfhrhm4lda5d59yxlfgjlf0uelurgu7wz24"},{"txId":56849288,"txHash":"4e0a140d6788168772e8e3e3e61245cef2a6520813e3ab58a40c4f2f46fc18c4","txTime":"2022/12/07 18:14:21","block":8109890,"epoch":380,"slotNo":78870570,"epochSlotNo":73770,"stakeKey":"stake1u9jf8rpkzfj2m3vrcdzlvss2vs4usznj8fknmwyk03khgngfprnmg"},{"txId":56849233,"txHash":"a6dfe95994fd231b05f68f41bf9cd6dcc166f64b6b11f9761876406aeefd475e","txTime":"2022/12/07 18:13:05","block":8109888,"epoch":380,"slotNo":78870494,"epochSlotNo":73694,"stakeKey":"stake1u9kgsqd3tlxfqc8vksets42g8nnagf25l0z30e667vuwv6cn50yyg"},{"txId":56849105,"txHash":"063b94c765c092ead6bbf5baa32f7d7151d5bab8afbaf204042209cf80d83326","txTime":"2022/12/07 18:11:22","block":8109883,"epoch":380,"slotNo":78870391,"epochSlotNo":73591,"stakeKey":"stake1uxtmj4y9w9p39ly7z08can38w06r5yhkuytrhef8jz934xsacur7f"},{"txId":56848497,"txHash":"09a2ef811481f5e5d3c489557c62c4fbf0b39a7952eda942dc4f95192de91675","txTime":"2022/12/07 18:01:10","block":8109860,"epoch":380,"slotNo":78869779,"epochSlotNo":72979,"stakeKey":"stake1uykz66pkta4eh6rfnwl80pth9tdzy09vwgzzd0u2v4ynp4sfpsd2h"},{"txId":56848360,"txHash":"2d565901d92c1338762494f6e04b8f9726c5130c06f3b179efefa650a4c9db58","txTime":"2022/12/07 17:58:41","block":8109854,"epoch":380,"slotNo":78869630,"epochSlotNo":72830,"stakeKey":"stake1u83zcncfyhel0v0qsuku55vvtjua0es847kxrh5h30almdckpru3j"},{"txId":56848321,"txHash":"de696310f624f8dc4940d92b736870c775f3dbe0ca6d8ea052b2e071d51c30ab","txTime":"2022/12/07 17:57:43","block":8109853,"epoch":380,"slotNo":78869572,"epochSlotNo":72772,"stakeKey":"stake1uxea6uah0mcajvaw5csgls5tcz3cax53j3wa0uk88mccx4q2k7csk"},{"txId":56847491,"txHash":"14a00077c19d168c1cf0e9b4fbe9afa770f3fd378fd2676cc1126b18da28000d","txTime":"2022/12/07 17:41:51","block":8109803,"epoch":380,"slotNo":78868620,"epochSlotNo":71820,"stakeKey":"stake1uyszyqt2q4tfe3nazzheuggxw5p0ys8kknyhvna7xyek5egmajex8"},{"txId":56847262,"txHash":"b0ec83dfcf1e67d904b3ec098a7c087c19b993cc013c1714e11456ba9ce4e961","txTime":"2022/12/07 17:37:51","block":8109792,"epoch":380,"slotNo":78868380,"epochSlotNo":71580,"stakeKey":"stake1u8atl3hdz8c3l8z0kuuveljzdlyq0xap9svnexcdzv82yuqr4qujl"},{"txId":56847194,"txHash":"c31e785c8f09c659ed1d6bacd9687f12c69fd733ce0021316579ed7f535fe973","txTime":"2022/12/07 17:36:17","block":8109791,"epoch":380,"slotNo":78868286,"epochSlotNo":71486,"stakeKey":"stake1u8jjphq5p3dchwy9amhj7madzf3nuhz4jz5ekuqddazvgeqchcj0f"},{"txId":56847089,"txHash":"7c7a7540b0e529dc71a48dbffdc4c5a93871df6a585060cb316c6ecb0b353753","txTime":"2022/12/07 17:33:45","block":8109785,"epoch":380,"slotNo":78868134,"epochSlotNo":71334,"stakeKey":"stake1u83xzrxygyur2t2l9s5kk4f80s923xuykdtprjyx3glvvmqkv5qsa"},{"txId":56847080,"txHash":"b05a30441b3d8f5e93f97a2ba57c75a44e0ef798f44b9dfbb3468cbd1840529f","txTime":"2022/12/07 17:33:45","block":8109785,"epoch":380,"slotNo":78868134,"epochSlotNo":71334,"stakeKey":"stake1uyzqp5ws0vlzmvs46k88zlevfkecqmfwhmtn572zgnmmgvg6gkv75"},{"txId":56846846,"txHash":"51289fb915db0bbda673d2001c205bb19d79856150893bdb77ee5dbec8f58203","txTime":"2022/12/07 17:30:09","block":8109781,"epoch":380,"slotNo":78867918,"epochSlotNo":71118,"stakeKey":"stake1u8jjphq5p3dchwy9amhj7madzf3nuhz4jz5ekuqddazvgeqchcj0f"},{"txId":56846203,"txHash":"234626dfc257abc63e4e71feb3fe0f86bd8b1bfb348d14d2330b49a383c4238e","txTime":"2022/12/07 17:17:06","block":8109745,"epoch":380,"slotNo":78867135,"epochSlotNo":70335,"stakeKey":"stake1u8892ekjs33fw64t0ejp8vez3wh9txacgyw30ypt3tj99egypflvc"},{"txId":56846096,"txHash":"db34b032ef3d3bb621870bbfd769822bac4090ca436ae6c8989a08c84c072b25","txTime":"2022/12/07 17:15:16","block":8109737,"epoch":380,"slotNo":78867025,"epochSlotNo":70225,"stakeKey":"stake1uxkdyve7yqgl3v7cvf9u9f04szsgrmp89e7kk52lm95ahss3g8m90"},{"txId":56845951,"txHash":"d96cb01d0f792d0fe896691ef2c17d8c57df8653d4144fb51d17bb778844c8a6","txTime":"2022/12/07 17:13:00","block":8109729,"epoch":380,"slotNo":78866889,"epochSlotNo":70089,"stakeKey":"stake1ux2trh6pwc8svrt3tukxek0prg9f4jx8fakzdcrmwpjncvg3hfqpg"},{"txId":56845862,"txHash":"0137ba5bab656768b9b2b7e017cd4821f81298f918a98d8e1450ebcd10b8a818","txTime":"2022/12/07 17:11:11","block":8109724,"epoch":380,"slotNo":78866780,"epochSlotNo":69980,"stakeKey":"stake1u990dkhayu38a90zty9znwp7mv945vxuru57yzjwupded4sxgwupf"}],"totalItems":335430,"totalPages":16772,"currentPage":0}