{"data":[{"txHash":"b993b42af503ee3af2e405350528761e9bee7f47391d04a8accea7ade0e68613","amount":"9000000000000000000","time":"2022/12/07 15:39:10"},{"txHash":"5f57813a37ba1816e9e47017397cd76322868819f8adf7dac6800704f2bf589f","amount":"9000000000000000000","time":"2022/12/07 15:39:10"},{"txHash":"2b947240eb7d9c80b0eb8d7c6ca59e33bd7e6fc26295544ee6626e22305abcad","amount":"9000000000000000000","time":"2022/12/07 15:39:10"},{"txHash":"ae69fcbc4cde46828896c80bb8a0061ca29c002b49688c04af59930356c62d67","amount":"9000000000000000000","time":"2022/12/07 15:39:10"},{"txHash":"8748c13ba85a4e9776e3b9b7770b94f8ee25d275af180feaa9d567ec7aa0b249","amount":"9000000000000000000","time":"2022/12/07 15:39:10"},{"txHash":"bba4418903ce0aceba370ecc961308f3be148cd4d7ec10bf679ea99609203878","amount":"9000000000000000000","time":"2022/12/07 15:39:10"},{"txHash":"2859d7a4471d4ff169d31c5cd9902b72f8f9b761eada62eae82a9be295f4cde0","amount":"9000000000000000000","time":"2022/12/07 15:39:10"},{"txHash":"1f6ae66412b0e99ceb4b1c9ca91be5e64f39f8abf4f5e2ad43aa3947cc4ca3df","amount":"9000000000000000000","time":"2022/12/07 15:39:10"},{"txHash":"6def8a7267299e6f711e714cada147621202f6cb0672eb19b42a8518ce6d884f","amount":"9000000000000000000","time":"2022/12/07 15:39:10"},{"txHash":"e91947b8a3a5f172eaa5204128510911461460b6b2f990f3633a2b3a8baf9b2f","amount":"9000000000000000000","time":"2022/12/07 15:39:10"},{"txHash":"8dc9e54faf1fc10056238c547784b2e66784500a0432547f33a4d65966f84f53","amount":"9000000000000000000","time":"2022/12/07 15:39:10"},{"txHash":"c5484c6f7956c893de6dae77f78a9670086d006f5e27cb172311383559da2fdd","amount":"9000000000000000000","time":"2022/12/07 15:39:10"},{"txHash":"93e12a9a86d91c91352484bf5a64db55b9ef70613461f87178da935930528e5a","amount":"9000000000000000000","time":"2022/12/07 15:39:10"},{"txHash":"25f065cbc263cef129c4af354a6fe41bc22f272f316bd244767c4ea20bca51ae","amount":"9000000000000000000","time":"2022/12/07 15:39:10"},{"txHash":"bf7e75bc565ef6f5e00e6de0376387d9e468978ba293bbcf12ce9536b22b87d7","amount":"9000000000000000000","time":"2022/12/07 15:39:10"},{"txHash":"3c8afa97d21ff02da2a51754ff6b7182f1bb9257690d10f52d93369d0baddbe7","amount":"9000000000000000000","time":"2022/12/07 15:39:10"},{"txHash":"13fc49255025c552e7afef4e41a0dea2aef70d6eee919654b740d1d02a88c932","amount":"9000000000000000000","time":"2022/12/07 15:39:10"},{"txHash":"41a2eaf2b1172104d484fdf164aa569b3a33b3346828256fd80d4c1c23a5731b","amount":"9000000000000000000","time":"2022/12/07 15:39:10"},{"txHash":"89028f80908daf710bb444260e37fa49dac2e2ac8a6d8412e13e2f36190c7b10","amount":"9000000000000000000","time":"2022/12/07 15:39:10"},{"txHash":"333fab8e9bee64691daa9a1a63bedb198d7df2501529697664f06c1317bb9c9c","amount":"9000000000000000000","time":"2022/12/07 15:39:10"}],"totalItems":11081,"totalPages":555,"currentPage":0}