{"data":[{"hash":"17fd4f23851812f997e79ce8a88f75d7036d12c6099a23011ec18efe8da615f9","blockNo":8228995,"blockHash":"b90ea00eaa6d126ea7e1d924f3c8ca57090d894a3a1cbf4d3deed16c20a7445c","epochNo":385,"epochSlotNo":353962,"slot":81310762,"time":"2023/01/05 00:04:13","addressesInput":["DdzFFzCqrht3Kt9Z7bLppqXAhS6dns49LYhTa3spfqD8CvvZ2CWscKx8srBcCcrMPHEHfZ4qzGAhJKiqcMXvXfDryzJnkFwxFFC8wLY8"],"addressesOutput":["addr1vy4nmtfc4jfftgqg369hs2ku6kvcncgzhkemq6mh0u3zgpslf59wr"],"fee":169505,"totalOutput":1499830495,"tokens":[]},{"hash":"5c42d430b62c88ca51d5f50e753cefd15d30fb04af4f4abe180e21e7a1f7e11b","blockNo":8228995,"blockHash":"b90ea00eaa6d126ea7e1d924f3c8ca57090d894a3a1cbf4d3deed16c20a7445c","epochNo":385,"epochSlotNo":353962,"slot":81310762,"time":"2023/01/05 00:04:13","addressesInput":["addr1qy8xh3js7eqnlc2empq4vmu37axfhvcjyrs9armchyczzxelvjtkvsvv2ejaltm2sgpdrk2c9w8nqvdv7pdwav2kvgfqerhl8t","addr1q8mjjpavjdw39vjg7j4lsxj3sjqun8fhc9786yfs9w2wk23lvjtkvsvv2ejaltm2sgpdrk2c9w8nqvdv7pdwav2kvgfqs9vukq"],"addressesOutput":["addr1zxgx3far7qygq0k6epa0zcvcvrevmn0ypsnfsue94nsn3tvpw288a4x0xf8pxgcntelxmyclq83s0ykeehchz2wtspks905plm","addr1qy8xh3js7eqnlc2empq4vmu37axfhvcjyrs9armchyczzxelvjtkvsvv2ejaltm2sgpdrk2c9w8nqvdv7pdwav2kvgfqerhl8t","addr1qy8xh3js7eqnlc2empq4vmu37axfhvcjyrs9armchyczzxelvjtkvsvv2ejaltm2sgpdrk2c9w8nqvdv7pdwav2kvgfqerhl8t"],"fee":251609,"totalOutput":170099080,"tokens":[]},{"hash":"f80f108f7277127c73250838e94b5e7abf32c1841bd999b8b68f25799ae40b15","blockNo":8228995,"blockHash":"b90ea00eaa6d126ea7e1d924f3c8ca57090d894a3a1cbf4d3deed16c20a7445c","epochNo":385,"epochSlotNo":353962,"slot":81310762,"time":"2023/01/05 00:04:13","addressesInput":["addr1q84n5g6vx4grp3dv63njv8jdhxqwrhfkjcfnl3skt926pwze9sge0q83zun7spawywxxfkpsy330v0lrdfs306vx3ltqu8p5mc","addr1qxra7590d53w6y9xfrq4teshsfc9gnvmd0t6wvruuheyj06e9sge0q83zun7spawywxxfkpsy330v0lrdfs306vx3ltquzk8hm","addr1qxw0r9n55xl75vyrng2hxn7k3s2pry76xsdzy9rqj8tv6cze9sge0q83zun7spawywxxfkpsy330v0lrdfs306vx3ltqsmzye9"],"addressesOutput":["addr1wxn9efv2f6w82hagxqtn62ju4m293tqvw0uhmdl64ch8uwc0h43gt","addr1qxs76zpnfyq5w0xrpjwrkkghch0ew024j83hx0dg00f9xjrx828mrjy00s2sd8awhvummze55m8hq4fqghdzqlcaqwlshwkm0m","addr1qxra7590d53w6y9xfrq4teshsfc9gnvmd0t6wvruuheyj06e9sge0q83zun7spawywxxfkpsy330v0lrdfs306vx3ltquzk8hm","addr1q93acwz8agep07rjxa4pr4z7p2kjnzr7usrsnwvu3cc3myze9sge0q83zun7spawywxxfkpsy330v0lrdfs306vx3ltqqqsn0m","addr1q93acwz8agep07rjxa4pr4z7p2kjnzr7usrsnwvu3cc3myze9sge0q83zun7spawywxxfkpsy330v0lrdfs306vx3ltqqqsn0m"],"fee":476889,"totalOutput":34890295,"tokens":[]},{"hash":"8c394b31bd69fe2496a64f2a8282c238cd2b26b863b02c184f93a0eef583e7c0","blockNo":8228995,"blockHash":"b90ea00eaa6d126ea7e1d924f3c8ca57090d894a3a1cbf4d3deed16c20a7445c","epochNo":385,"epochSlotNo":353962,"slot":81310762,"time":"2023/01/05 00:04:13","addressesInput":["addr1q8selvme5qg2fjrk9unl5ndumzyw8qppqcc37qcmcw32h3zz40pjxvc80zc5np886vuhnmtxptsdrafceanm59pjyklsmckh55"],"addressesOutput":["addr1vy8vmkgyxntc5hzad88lrkfzsp9pnk5ayugexh46h8wnq7gy243vt","addr1q8selvme5qg2fjrk9unl5ndumzyw8qppqcc37qcmcw32h3zz40pjxvc80zc5np886vuhnmtxptsdrafceanm59pjyklsmckh55"],"fee":167554,"totalOutput":49999832446,"tokens":[]},{"hash":"33203133c6521f123507604f42d95ea61b8741062d5d56bda922134c2b434f91","blockNo":8228995,"blockHash":"b90ea00eaa6d126ea7e1d924f3c8ca57090d894a3a1cbf4d3deed16c20a7445c","epochNo":385,"epochSlotNo":353962,"slot":81310762,"time":"2023/01/05 00:04:13","addressesInput":["addr1q93p9d2yp8hjwhhuzta87e9wcqn8wncucym4447fsqhszaj58wh5txdgld82vgmz0ecjjwlum7zqgrvf8dr8hz4mj94sty4uee","addr1q93p9d2yp8hjwhhuzta87e9wcqn8wncucym4447fsqhszaj58wh5txdgld82vgmz0ecjjwlum7zqgrvf8dr8hz4mj94sty4uee"],"addressesOutput":["addr1qyhg2enxe357dqdrcqgmh5zqvq9cqrc723dcsj09pfy9a3pm4qtqj29j2eymn393wgszmfcza83pzult2nera7ff7wusys5krp","addr1qypzsx6e65spryzyjwc8vpk4fyxt6378eya4nsg3tlyuygz58wh5txdgld82vgmz0ecjjwlum7zqgrvf8dr8hz4mj94sqsq7dd"],"fee":176369,"totalOutput":866168429,"tokens":[]},{"hash":"0297c3caa1fd2b3d8537a8dcd84259bf15c3970a99bae09bd7bd38d569cfc161","blockNo":8228995,"blockHash":"b90ea00eaa6d126ea7e1d924f3c8ca57090d894a3a1cbf4d3deed16c20a7445c","epochNo":385,"epochSlotNo":353962,"slot":81310762,"time":"2023/01/05 00:04:13","addressesInput":["addr1q9lnm704el6y0f2lmelxtupcrsnhhgfdvzj393kt2x8cdgxmgepcdxunvx76mcrnmpallzjamzjnv4pmwjpqr400n25s0xq40e"],"addressesOutput":["addr1qxaxsz3mlwuvwut2v6nqcnvtq44hc7ddsd3s4d29yg4zgt7mgepcdxunvx76mcrnmpallzjamzjnv4pmwjpqr400n25sd3ypy2"],"fee":173157,"totalOutput":52925817,"tokens":[]},{"hash":"6f57cdb1591fd359322cfa73e054b298a91ac3cb35c839acd362e5219920b995","blockNo":8228995,"blockHash":"b90ea00eaa6d126ea7e1d924f3c8ca57090d894a3a1cbf4d3deed16c20a7445c","epochNo":385,"epochSlotNo":353962,"slot":81310762,"time":"2023/01/05 00:04:13","addressesInput":["addr1wyzynye0nksztrfzpsulsq7whr3vgh7uvp0gm4p0x42ckkqqq6kxq","addr1qyk68cyytv6w575jeffayyfkfnmwucl32kl96cy0zf5vkwvkhxnugtnvq84chg28m8gwh2l638s8zzp5rv4zm8h06erqpc8gj6"],"addressesOutput":["addr1wyzynye0nksztrfzpsulsq7whr3vgh7uvp0gm4p0x42ckkqqq6kxq","addr1qyk68cyytv6w575jeffayyfkfnmwucl32kl96cy0zf5vkwvkhxnugtnvq84chg28m8gwh2l638s8zzp5rv4zm8h06erqpc8gj6"],"fee":592731,"totalOutput":11112566846,"tokens":[]},{"hash":"6b59adb9e52f6965ec7e9fcefc10dfd5ceedd8c794e477764939fa99723473c0","blockNo":8228995,"blockHash":"b90ea00eaa6d126ea7e1d924f3c8ca57090d894a3a1cbf4d3deed16c20a7445c","epochNo":385,"epochSlotNo":353962,"slot":81310762,"time":"2023/01/05 00:04:13","addressesInput":["addr1v9ywm0h3r8cnxrs04gfy7c3s2j44utjyvn5ldjdca0c2ltccgqdes"],"addressesOutput":["addr1qxvrfkkfn2u507yup8jhvaxs8zk5ezgkn5c4vul732cndv79w8s87lczf7muc9h8enn02zksu7vkfrr6kdsqdvmqaf7qspurgq"],"fee":206069,"totalOutput":4793931,"tokens":[]},{"hash":"d5418d99dafd4d8a82ad18ed8335419c02e7fc1b3c6c2361e69a19d6bcb689ae","blockNo":8228994,"blockHash":"7ed0a7981d51030a7ad1e1c6ef779b1f5e7a313608e1a55c88e45e358d0a0c9c","epochNo":385,"epochSlotNo":353960,"slot":81310760,"time":"2023/01/05 00:04:11","addressesInput":["addr1qx8unqhp2vvq3qljynjgzwvzfx2v33ke6flu74dk67pz8ulyy33an25wd8k8vrs57at26t93hjmdmlcs9jdpj9tw3l5sk70qhx","addr1q84v3v6lfpsakk5xg7a7tnzgsuhfus2mjdm2esxtqmxnv8lyy33an25wd8k8vrs57at26t93hjmdmlcs9jdpj9tw3l5secpag7"],"addressesOutput":["addr1wxn9efv2f6w82hagxqtn62ju4m293tqvw0uhmdl64ch8uwc0h43gt","addr1qx8unqhp2vvq3qljynjgzwvzfx2v33ke6flu74dk67pz8ulyy33an25wd8k8vrs57at26t93hjmdmlcs9jdpj9tw3l5sk70qhx","addr1q9gskfuvedra73qw2nz95u9t6m30ljgw09pc8rgfw52n5dlyy33an25wd8k8vrs57at26t93hjmdmlcs9jdpj9tw3l5sqsvlue"],"fee":195157,"totalOutput":72300908,"tokens":[]},{"hash":"4f8da9f9355cd9ba31141738a3e7970467be581546a8e965e05265e060a49ca5","blockNo":8228994,"blockHash":"7ed0a7981d51030a7ad1e1c6ef779b1f5e7a313608e1a55c88e45e358d0a0c9c","epochNo":385,"epochSlotNo":353960,"slot":81310760,"time":"2023/01/05 00:04:11","addressesInput":["addr1zxgx3far7qygq0k6epa0zcvcvrevmn0ypsnfsue94nsn3tvpw288a4x0xf8pxgcntelxmyclq83s0ykeehchz2wtspks905plm","addr1q9sqqc0qu7yfrq65w5mk8hynszr8s7wnha4l7ad7swme9u3xn3q8evldqvzm2qukczzxpup98eq759vf50czkwldgxjs9gakx7"],"addressesOutput":["addr1q9af52ca5j7uq9d2ka0zcyazq34z0xf77q4c74pewd0dhakktvx2uxcg5l4xk64fjc6nx49txn66grkjvn0thjh6te9quq2hqn","addr1q9cwvremt6n320s2e3agq0jyq82yhrk3htsu0w426xnz5us70z4w0jgvcdkkynmm8wmds66jd9kusnjfpu6raw5fqp0sr07p5w","addr1q858ve5j5wtdlm0092z8mcu2jxr6pz80d3up9xjs4xvhakqjtk634hrt6kzpfxgz74t2zdhnzd78q3h3ph5dn0j4aeescvq39v","addr1q9sqqc0qu7yfrq65w5mk8hynszr8s7wnha4l7ad7swme9u3xn3q8evldqvzm2qukczzxpup98eq759vf50czkwldgxjs9gakx7","addr1q9sqqc0qu7yfrq65w5mk8hynszr8s7wnha4l7ad7swme9u3xn3q8evldqvzm2qukczzxpup98eq759vf50czkwldgxjs9gakx7"],"fee":396695,"totalOutput":155936987,"tokens":[]},{"hash":"410ab397582de1350394b4195db1dbfb0ce9a670e04ba6acaa3508a5b5b852c9","blockNo":8228994,"blockHash":"7ed0a7981d51030a7ad1e1c6ef779b1f5e7a313608e1a55c88e45e358d0a0c9c","epochNo":385,"epochSlotNo":353960,"slot":81310760,"time":"2023/01/05 00:04:11","addressesInput":["addr1q88n34unlq30ep3ynw68vx9t8q2j9zhnpts9t0s48tfk3z6qcyn809r8q5q9ektvdjp3upw8kyrugeteuyyq0smhvgvqrf08z7","addr1q88n34unlq30ep3ynw68vx9t8q2j9zhnpts9t0s48tfk3z6qcyn809r8q5q9ektvdjp3upw8kyrugeteuyyq0smhvgvqrf08z7"],"addressesOutput":["addr1zxgx3far7qygq0k6epa0zcvcvrevmn0ypsnfsue94nsn3tvpw288a4x0xf8pxgcntelxmyclq83s0ykeehchz2wtspks905plm","addr1q88n34unlq30ep3ynw68vx9t8q2j9zhnpts9t0s48tfk3z6qcyn809r8q5q9ektvdjp3upw8kyrugeteuyyq0smhvgvqrf08z7","addr1q88n34unlq30ep3ynw68vx9t8q2j9zhnpts9t0s48tfk3z6qcyn809r8q5q9ektvdjp3upw8kyrugeteuyyq0smhvgvqrf08z7"],"fee":229389,"totalOutput":63019670,"tokens":[]},{"hash":"a201665b610a5802f7fe073978eb6c5fa224bc0d06f77d0ee8a385eb47a8aa55","blockNo":8228994,"blockHash":"7ed0a7981d51030a7ad1e1c6ef779b1f5e7a313608e1a55c88e45e358d0a0c9c","epochNo":385,"epochSlotNo":353960,"slot":81310760,"time":"2023/01/05 00:04:11","addressesInput":["addr1q89fnaccgsgmanzmweus46fjd7mdglp262sqp7c8rkt0gn2snjhxsqxupdkp98rjwvu4cq5adnfte7q2pxyuer9w3c0szujd75","addr1q89fnaccgsgmanzmweus46fjd7mdglp262sqp7c8rkt0gn2snjhxsqxupdkp98rjwvu4cq5adnfte7q2pxyuer9w3c0szujd75","addr1zxgx3far7qygq0k6epa0zcvcvrevmn0ypsnfsue94nsn3tvpw288a4x0xf8pxgcntelxmyclq83s0ykeehchz2wtspks905plm","addr1q89fnaccgsgmanzmweus46fjd7mdglp262sqp7c8rkt0gn2snjhxsqxupdkp98rjwvu4cq5adnfte7q2pxyuer9w3c0szujd75"],"addressesOutput":["addr1zxgx3far7qygq0k6epa0zcvcvrevmn0ypsnfsue94nsn3tvpw288a4x0xf8pxgcntelxmyclq83s0ykeehchz2wtspks905plm","addr1q89fnaccgsgmanzmweus46fjd7mdglp262sqp7c8rkt0gn2snjhxsqxupdkp98rjwvu4cq5adnfte7q2pxyuer9w3c0szujd75","addr1q89fnaccgsgmanzmweus46fjd7mdglp262sqp7c8rkt0gn2snjhxsqxupdkp98rjwvu4cq5adnfte7q2pxyuer9w3c0szujd75","addr1q89fnaccgsgmanzmweus46fjd7mdglp262sqp7c8rkt0gn2snjhxsqxupdkp98rjwvu4cq5adnfte7q2pxyuer9w3c0szujd75"],"fee":351292,"totalOutput":879675031,"tokens":[]},{"hash":"97139fcc7f14d1dbf26e41288acb7e14c77549b29eb420c6d52fd7f984bb56ab","blockNo":8228994,"blockHash":"7ed0a7981d51030a7ad1e1c6ef779b1f5e7a313608e1a55c88e45e358d0a0c9c","epochNo":385,"epochSlotNo":353960,"slot":81310760,"time":"2023/01/05 00:04:11","addressesInput":["addr1q8q30vhp0raxf7hurfeus9l6xtq46vahqxx2ycnpgcacxkfmyz5z82qmh2l56gyewjefvme90rsqfz4f6w5af0fy9y2qlhhz8c","addr1zxgx3far7qygq0k6epa0zcvcvrevmn0ypsnfsue94nsn3tvpw288a4x0xf8pxgcntelxmyclq83s0ykeehchz2wtspks905plm"],"addressesOutput":["addr1q8q30vhp0raxf7hurfeus9l6xtq46vahqxx2ycnpgcacxkfmyz5z82qmh2l56gyewjefvme90rsqfz4f6w5af0fy9y2qlhhz8c","addr1q8q30vhp0raxf7hurfeus9l6xtq46vahqxx2ycnpgcacxkfmyz5z82qmh2l56gyewjefvme90rsqfz4f6w5af0fy9y2qlhhz8c"],"fee":263294,"totalOutput":52218496,"tokens":[]},{"hash":"7a86d1070378559956b77ec368b7d7a4e83c49d5ed3811ed50f34f8657fce5de","blockNo":8228994,"blockHash":"7ed0a7981d51030a7ad1e1c6ef779b1f5e7a313608e1a55c88e45e358d0a0c9c","epochNo":385,"epochSlotNo":353960,"slot":81310760,"time":"2023/01/05 00:04:11","addressesInput":["addr1q8a98w2jj26hx75q3p3lqqlcv5yh8stjhgpcm3dc4u8qnnne3juj8e2ukwsx54v4vk33y29fz9vjqr80x0wjunnemg6s0gtluz","addr1q8a98w2jj26hx75q3p3lqqlcv5yh8stjhgpcm3dc4u8qnnne3juj8e2ukwsx54v4vk33y29fz9vjqr80x0wjunnemg6s0gtluz","addr1q8a98w2jj26hx75q3p3lqqlcv5yh8stjhgpcm3dc4u8qnnne3juj8e2ukwsx54v4vk33y29fz9vjqr80x0wjunnemg6s0gtluz","addr1q8a98w2jj26hx75q3p3lqqlcv5yh8stjhgpcm3dc4u8qnnne3juj8e2ukwsx54v4vk33y29fz9vjqr80x0wjunnemg6s0gtluz","addr1q8a98w2jj26hx75q3p3lqqlcv5yh8stjhgpcm3dc4u8qnnne3juj8e2ukwsx54v4vk33y29fz9vjqr80x0wjunnemg6s0gtluz","addr1q8a98w2jj26hx75q3p3lqqlcv5yh8stjhgpcm3dc4u8qnnne3juj8e2ukwsx54v4vk33y29fz9vjqr80x0wjunnemg6s0gtluz","addr1q8a98w2jj26hx75q3p3lqqlcv5yh8stjhgpcm3dc4u8qnnne3juj8e2ukwsx54v4vk33y29fz9vjqr80x0wjunnemg6s0gtluz","addr1q8a98w2jj26hx75q3p3lqqlcv5yh8stjhgpcm3dc4u8qnnne3juj8e2ukwsx54v4vk33y29fz9vjqr80x0wjunnemg6s0gtluz","addr1q8a98w2jj26hx75q3p3lqqlcv5yh8stjhgpcm3dc4u8qnnne3juj8e2ukwsx54v4vk33y29fz9vjqr80x0wjunnemg6s0gtluz","addr1q8a98w2jj26hx75q3p3lqqlcv5yh8stjhgpcm3dc4u8qnnne3juj8e2ukwsx54v4vk33y29fz9vjqr80x0wjunnemg6s0gtluz"],"addressesOutput":["addr1qx97fvn4su38ec6rkjyxexzeukww7a3n6eglqkeezq50pl2yn3ljrkmeua53az0ydw96vjqnaekw5pmrm8a55xvjmnsqe5g27j","addr1q8a98w2jj26hx75q3p3lqqlcv5yh8stjhgpcm3dc4u8qnnne3juj8e2ukwsx54v4vk33y29fz9vjqr80x0wjunnemg6s0gtluz"],"fee":182573,"totalOutput":1828774762,"tokens":[]},{"hash":"51015ba3ea6a2c420149a9f15c5bf3a0ff99008a92f9322a3171a4244730c34a","blockNo":8228994,"blockHash":"7ed0a7981d51030a7ad1e1c6ef779b1f5e7a313608e1a55c88e45e358d0a0c9c","epochNo":385,"epochSlotNo":353960,"slot":81310760,"time":"2023/01/05 00:04:11","addressesInput":["addr1qx8vgmvg6j456jmk9tn28ggqkenxjs0vdk3xgvkgd8ggqr5wc3kc349tf49hv2hx5wsspdnxd9q7cmdzvsevs6wssq8q9mm9j6","addr1qx8vgmvg6j456jmk9tn28ggqkenxjs0vdk3xgvkgd8ggqr5wc3kc349tf49hv2hx5wsspdnxd9q7cmdzvsevs6wssq8q9mm9j6"],"addressesOutput":["addr1qx8vgmvg6j456jmk9tn28ggqkenxjs0vdk3xgvkgd8ggqr5wc3kc349tf49hv2hx5wsspdnxd9q7cmdzvsevs6wssq8q9mm9j6","addr1qx8vgmvg6j456jmk9tn28ggqkenxjs0vdk3xgvkgd8ggqr5wc3kc349tf49hv2hx5wsspdnxd9q7cmdzvsevs6wssq8q9mm9j6"],"fee":233854,"totalOutput":10075485678,"tokens":[]},{"hash":"1377d14d9b541ff1a35b0c769a5624478d9d3337f5c414006a3a26506363f7a0","blockNo":8228994,"blockHash":"7ed0a7981d51030a7ad1e1c6ef779b1f5e7a313608e1a55c88e45e358d0a0c9c","epochNo":385,"epochSlotNo":353960,"slot":81310760,"time":"2023/01/05 00:04:11","addressesInput":["addr1qy430y9u92ln4xz2a9t2t2zm5dv7gjqsd085t8922etfstkkxunpxessrj2lyfu4jg5gqsq29nl6vyd93acm86hyg0eqj9pcgj","addr1qy430y9u92ln4xz2a9t2t2zm5dv7gjqsd085t8922etfstkkxunpxessrj2lyfu4jg5gqsq29nl6vyd93acm86hyg0eqj9pcgj"],"addressesOutput":["addr1zxgx3far7qygq0k6epa0zcvcvrevmn0ypsnfsue94nsn3tvpw288a4x0xf8pxgcntelxmyclq83s0ykeehchz2wtspks905plm","addr1qy430y9u92ln4xz2a9t2t2zm5dv7gjqsd085t8922etfstkkxunpxessrj2lyfu4jg5gqsq29nl6vyd93acm86hyg0eqj9pcgj","addr1qy430y9u92ln4xz2a9t2t2zm5dv7gjqsd085t8922etfstkkxunpxessrj2lyfu4jg5gqsq29nl6vyd93acm86hyg0eqj9pcgj"],"fee":238321,"totalOutput":27794013,"tokens":[]},{"hash":"a74bbd73a6536f23d6a70c54be6988c2db5dfda7ebe2688278ef100f7950053f","blockNo":8228994,"blockHash":"7ed0a7981d51030a7ad1e1c6ef779b1f5e7a313608e1a55c88e45e358d0a0c9c","epochNo":385,"epochSlotNo":353960,"slot":81310760,"time":"2023/01/05 00:04:11","addressesInput":["addr1qxj99age2q53pk9jaqc0a0wskgex0ukddl5nm5vpcgjcxxsmj4pejc24gsk5lhxfgtjvqhfqfd3eppkx2wm7evl3z3rqtcnjjq","addr1qxdtarncly9ydd7yrs8wyctjhknrzywh5rfs9t5tgxuf67cmj4pejc24gsk5lhxfgtjvqhfqfd3eppkx2wm7evl3z3rqxmhj3e","addr1qy3cgnerqulahgdmfu4ma50naj5jcvu682k8nyq72hnqd7gmj4pejc24gsk5lhxfgtjvqhfqfd3eppkx2wm7evl3z3rqtgzvxp","addr1qxj99age2q53pk9jaqc0a0wskgex0ukddl5nm5vpcgjcxxsmj4pejc24gsk5lhxfgtjvqhfqfd3eppkx2wm7evl3z3rqtcnjjq","addr1qxdtarncly9ydd7yrs8wyctjhknrzywh5rfs9t5tgxuf67cmj4pejc24gsk5lhxfgtjvqhfqfd3eppkx2wm7evl3z3rqxmhj3e","addr1qxj99age2q53pk9jaqc0a0wskgex0ukddl5nm5vpcgjcxxsmj4pejc24gsk5lhxfgtjvqhfqfd3eppkx2wm7evl3z3rqtcnjjq","addr1qxdtarncly9ydd7yrs8wyctjhknrzywh5rfs9t5tgxuf67cmj4pejc24gsk5lhxfgtjvqhfqfd3eppkx2wm7evl3z3rqxmhj3e","addr1qxj99age2q53pk9jaqc0a0wskgex0ukddl5nm5vpcgjcxxsmj4pejc24gsk5lhxfgtjvqhfqfd3eppkx2wm7evl3z3rqtcnjjq","addr1qxj99age2q53pk9jaqc0a0wskgex0ukddl5nm5vpcgjcxxsmj4pejc24gsk5lhxfgtjvqhfqfd3eppkx2wm7evl3z3rqtcnjjq","addr1qy3cgnerqulahgdmfu4ma50naj5jcvu682k8nyq72hnqd7gmj4pejc24gsk5lhxfgtjvqhfqfd3eppkx2wm7evl3z3rqtgzvxp","addr1qxj99age2q53pk9jaqc0a0wskgex0ukddl5nm5vpcgjcxxsmj4pejc24gsk5lhxfgtjvqhfqfd3eppkx2wm7evl3z3rqtcnjjq","addr1qxj99age2q53pk9jaqc0a0wskgex0ukddl5nm5vpcgjcxxsmj4pejc24gsk5lhxfgtjvqhfqfd3eppkx2wm7evl3z3rqtcnjjq","addr1qy3cgnerqulahgdmfu4ma50naj5jcvu682k8nyq72hnqd7gmj4pejc24gsk5lhxfgtjvqhfqfd3eppkx2wm7evl3z3rqtgzvxp","addr1qxj99age2q53pk9jaqc0a0wskgex0ukddl5nm5vpcgjcxxsmj4pejc24gsk5lhxfgtjvqhfqfd3eppkx2wm7evl3z3rqtcnjjq"],"addressesOutput":["addr1q9enur8yy8xu5x3wcthau3xzslup0tzlyk5epwp8sajamzt8vxyajm89gr20mlgen57hjmg92r9gu03xw5q0hdkn953sg87p7a","addr1qyxvz8r0f2z3w8qu8ma8xasq2sx9wk8u424qc8h2eyqu4vqmj4pejc24gsk5lhxfgtjvqhfqfd3eppkx2wm7evl3z3rq9sw6pn"],"fee":197973,"totalOutput":13079665176,"tokens":[]},{"hash":"937fb4b8b2d49dabd89eba205dca347dd463f26eb66b014ac5d068fd2bf26c34","blockNo":8228994,"blockHash":"7ed0a7981d51030a7ad1e1c6ef779b1f5e7a313608e1a55c88e45e358d0a0c9c","epochNo":385,"epochSlotNo":353960,"slot":81310760,"time":"2023/01/05 00:04:11","addressesInput":["addr1q8q02nghuj9dltgyx872rrn9fcpqn4uq0rukw334hrmeqqez5ps06272c25mwn4na53vjcn0kjgz53snpuxsh75czrrs25qnxs","addr1q8q02nghuj9dltgyx872rrn9fcpqn4uq0rukw334hrmeqqez5ps06272c25mwn4na53vjcn0kjgz53snpuxsh75czrrs25qnxs"],"addressesOutput":["addr1qxwyagx0whvfjz9c0uyknzy0xz3fyhc895lx6ykvm5ynpz2m26d733p29jvfhtmzk09y7e0aghj7hxnxllhajkza9tgs2ktfxw","addr1q8q02nghuj9dltgyx872rrn9fcpqn4uq0rukw334hrmeqqez5ps06272c25mwn4na53vjcn0kjgz53snpuxsh75czrrs25qnxs"],"fee":184157,"totalOutput":193303850,"tokens":[]},{"hash":"b561192ef1637c0c0ac7e2f101f714331d09c1a92b38fa9c7393bb3c62f6b89c","blockNo":8228994,"blockHash":"7ed0a7981d51030a7ad1e1c6ef779b1f5e7a313608e1a55c88e45e358d0a0c9c","epochNo":385,"epochSlotNo":353960,"slot":81310760,"time":"2023/01/05 00:04:11","addressesInput":["addr1zxgx3far7qygq0k6epa0zcvcvrevmn0ypsnfsue94nsn3tvpw288a4x0xf8pxgcntelxmyclq83s0ykeehchz2wtspks905plm","addr1q8mv732d0q7vzqcx6hw6waqsxhxcncurjsuyye6k3gmwh3fglqsfmysp3zzxckzy55mtthfy0kgwy5myaz585xklqghsfvq4ed"],"addressesOutput":["addr1q8mv732d0q7vzqcx6hw6waqsxhxcncurjsuyye6k3gmwh3fglqsfmysp3zzxckzy55mtthfy0kgwy5myaz585xklqghsfvq4ed","addr1q8mv732d0q7vzqcx6hw6waqsxhxcncurjsuyye6k3gmwh3fglqsfmysp3zzxckzy55mtthfy0kgwy5myaz585xklqghsfvq4ed"],"fee":264159,"totalOutput":156810098,"tokens":[]},{"hash":"46dc7198186b66e15b847018134bfba697fd62ebdff4c47a93f36e21b620a072","blockNo":8228994,"blockHash":"7ed0a7981d51030a7ad1e1c6ef779b1f5e7a313608e1a55c88e45e358d0a0c9c","epochNo":385,"epochSlotNo":353960,"slot":81310760,"time":"2023/01/05 00:04:11","addressesInput":["addr1qx2wxz05lq79r4uezsdwl2re294s7r5e3ng6zhlkdps56z5mu0vt2p0r09nnaea07uac5qnasqye3py3vrvkz7t22gsqdsa8fs","addr1qx2wxz05lq79r4uezsdwl2re294s7r5e3ng6zhlkdps56z5mu0vt2p0r09nnaea07uac5qnasqye3py3vrvkz7t22gsqdsa8fs","addr1qx2wxz05lq79r4uezsdwl2re294s7r5e3ng6zhlkdps56z5mu0vt2p0r09nnaea07uac5qnasqye3py3vrvkz7t22gsqdsa8fs","addr1zxgx3far7qygq0k6epa0zcvcvrevmn0ypsnfsue94nsn3tvpw288a4x0xf8pxgcntelxmyclq83s0ykeehchz2wtspks905plm","addr1qx2wxz05lq79r4uezsdwl2re294s7r5e3ng6zhlkdps56z5mu0vt2p0r09nnaea07uac5qnasqye3py3vrvkz7t22gsqdsa8fs","addr1qx2wxz05lq79r4uezsdwl2re294s7r5e3ng6zhlkdps56z5mu0vt2p0r09nnaea07uac5qnasqye3py3vrvkz7t22gsqdsa8fs"],"addressesOutput":["addr1q9c73u296x5eqwykrhr7ynluscjw9knegzgpzv857s6vtl48f6hqz2x89748umvmgs5hsnuhj6mhflnqd4pxwa5y52lqu2tufv","addr1q9cwvremt6n320s2e3agq0jyq82yhrk3htsu0w426xnz5us70z4w0jgvcdkkynmm8wmds66jd9kusnjfpu6raw5fqp0sr07p5w","addr1q8ph2yl6zwfste265qz9axzd2k3sf30g8aefkyctyz7h32kgtwxxm7zdlwp6hcftxduvpjf44wy4p7ngd7glca9qwvgqk3z46w","addr1qx2wxz05lq79r4uezsdwl2re294s7r5e3ng6zhlkdps56z5mu0vt2p0r09nnaea07uac5qnasqye3py3vrvkz7t22gsqdsa8fs","addr1qx2wxz05lq79r4uezsdwl2re294s7r5e3ng6zhlkdps56z5mu0vt2p0r09nnaea07uac5qnasqye3py3vrvkz7t22gsqdsa8fs"],"fee":428147,"totalOutput":690662039,"tokens":[]}],"totalItems":58202822,"totalPages":2910142,"currentPage":0}