{"data":[{"txId":30484184,"txHash":"e03d6e5ad32590e736e52e330d8eaaecdc50f2f377e06d1daed4ed6766f6375a","txTime":"2022/02/08 09:58:44","block":6856400,"epoch":319,"slotNo":52748033,"epochSlotNo":303233,"stakeKey":"stake1uy5wpm3ru8udwan804j4mucuxq4pwkp8lf0w4esm0gmdm9sd30eeu"},{"txId":30484124,"txHash":"6fcfa63ef857f6beb8d505e0d3fbb09c795c715ddbee409ca3aa87de22d92202","txTime":"2022/02/08 09:58:35","block":6856399,"epoch":319,"slotNo":52748024,"epochSlotNo":303224,"stakeKey":"stake1u8y4909p5jdxkt5pcxetq9ffvrwh4kjvwdj0pt7vaf2a2psgzmkhe"},{"txId":30484113,"txHash":"e5e5912cb1b3d8651a193dc195770efd22b52fab5d8d1c6f7955964937c03bfa","txTime":"2022/02/08 09:58:26","block":6856398,"epoch":319,"slotNo":52748015,"epochSlotNo":303215,"stakeKey":"stake1uytzpwvgqu638rvf2l7l4qv0s3g82kye3du58rl096gcgcg8f6tfn"},{"txId":30484036,"txHash":"a4451c8ce49f6e4771836fb14548a4a6da558bba86bc2da1e9a1f963d8336225","txTime":"2022/02/08 09:58:04","block":6856396,"epoch":319,"slotNo":52747993,"epochSlotNo":303193,"stakeKey":"stake1ux5fdzp0ch5q6t5ktrfmq4dznlwnlq9p8nx8u4rv8yjwgzc0mq0qr"},{"txId":30484016,"txHash":"c103216b96f4e67cfaf9bb6707268dd13bb3223966f491a40b0f42d4b27561eb","txTime":"2022/02/08 09:58:04","block":6856396,"epoch":319,"slotNo":52747993,"epochSlotNo":303193,"stakeKey":"stake1u8n5sv5mmwldkcgytjjwgs7gw2mzrex8xwuejhulz48828qgt69yq"},{"txId":30484007,"txHash":"6bb53ed4c1b4a3ffcdf030a54cd0881f76619b3be1270d43c560514a7ed4b89a","txTime":"2022/02/08 09:57:58","block":6856395,"epoch":319,"slotNo":52747987,"epochSlotNo":303187,"stakeKey":"stake1u9kxrk9ldyalq0umrwcvf8pjgauzrhhmecqxuyfm5svywjsjj2zeu"},{"txId":30483970,"txHash":"a2d213713ccdf7ec6e1ae8335ba81b639dd908f3fd021265794974416c68afe8","txTime":"2022/02/08 09:57:58","block":6856395,"epoch":319,"slotNo":52747987,"epochSlotNo":303187,"stakeKey":"stake1uy5nvg56rguwwyam2cdkxrq4apc3eja5g6rukkkqdrv0jkc30vtpj"},{"txId":30483961,"txHash":"6bf487d592dbff38568520c4a7015fa18a71e3bae19de9c7945e06d8bf84a0af","txTime":"2022/02/08 09:57:55","block":6856394,"epoch":319,"slotNo":52747984,"epochSlotNo":303184,"stakeKey":"stake1ux9l6v2da8tdn02t7uqmq6qqprkfmk2ca3eum88zcc7menselsruy"},{"txId":30483882,"txHash":"027a456f663f88ff46e104372fea4ba17047692996d62f904f1c2a47a72fba65","txTime":"2022/02/08 09:57:26","block":6856391,"epoch":319,"slotNo":52747955,"epochSlotNo":303155,"stakeKey":"stake1uxrzquys790khrdn3px7j0ru933m7hlwyuxzd2ft5zte7wsz98uwz"},{"txId":30483558,"txHash":"1a801ce096e2fb15119f819fa2f15300aa1eafa1eaadfa54f411188257fdf1f3","txTime":"2022/02/08 09:50:44","block":6856377,"epoch":319,"slotNo":52747553,"epochSlotNo":302753,"stakeKey":"stake1uyr6s5jm2s4kmta6pwffj0srr4ut3wya3a8mqc7uad28m9gjls4a7"},{"txId":30483547,"txHash":"7b02c21aa030bc75c9bd0fc4f4c329d3b9b8a669cda54290a494b35db126b194","txTime":"2022/02/08 09:50:44","block":6856377,"epoch":319,"slotNo":52747553,"epochSlotNo":302753,"stakeKey":"stake1uynxral3eh42qt4q3uaw4wfp3xxs88nmnqdfs6898e32ldcvh98yd"},{"txId":30483507,"txHash":"09f49732729c17f7596982815a00d5dcd4c1166f5ace4a30bded95efa97db6de","txTime":"2022/02/08 09:49:58","block":6856375,"epoch":319,"slotNo":52747507,"epochSlotNo":302707,"stakeKey":"stake1u9qvv05dz8gt7xjkkwtl7tptmz37wr5hvj84qx3692elssqg2k9k9"},{"txId":30483491,"txHash":"424d0b5e7ee65d1cb086fe75e409e175d0a09b7c464bef570e323bfb8bdb16b9","txTime":"2022/02/08 09:49:58","block":6856375,"epoch":319,"slotNo":52747507,"epochSlotNo":302707,"stakeKey":"stake1uxzftm4txgc03nxqcexgujmlc5waecyj5rt2wdhpt7l0s8chy9mp0"},{"txId":30483391,"txHash":"422303a3616cd2e024830e588873ff2074cd5e587c8479c707a92d09aa1799ea","txTime":"2022/02/08 09:48:05","block":6856369,"epoch":319,"slotNo":52747394,"epochSlotNo":302594,"stakeKey":"stake1uycn3y89g2p9j3caw02hgrmk5evkq0cj58mk0w7s9y2vmygq0ptvm"},{"txId":30483330,"txHash":"727be7ca521f6fab1bdbf858ddef11b08fd6d3257d205b6cf90ea640711ef42f","txTime":"2022/02/08 09:47:34","block":6856368,"epoch":319,"slotNo":52747363,"epochSlotNo":302563,"stakeKey":"stake1u9es2vuqhkak8mkrcnxq7sdn6ydn38lg82j49z3n9gm0shslerxac"},{"txId":30483309,"txHash":"0135b4c3c2c0f6c7e7e4b6bc0dbc795f8e0a12822b36cee2eb0da621a29d8eaa","txTime":"2022/02/08 09:45:17","block":6856366,"epoch":319,"slotNo":52747226,"epochSlotNo":302426,"stakeKey":"stake1u85a645dhztkpd9h00rcaqgpvknqxjkgxf6dhtunn2w6zdqmmx744"},{"txId":30483268,"txHash":"3a42a9f7d727a242d4875ab5c16621d1f820caae5f8261422de25fdafa831f97","txTime":"2022/02/08 09:44:26","block":6856364,"epoch":319,"slotNo":52747175,"epochSlotNo":302375,"stakeKey":"stake1uyr6w3w8rv7acnw36l062aclqc8m44q7wjy60vlhkftcnfsqh4h6h"},{"txId":30483257,"txHash":"3cd9316faa51d9480ae0cbfb76713937f1d69db312fbb6a5c06a2d27d0df83a0","txTime":"2022/02/08 09:44:26","block":6856364,"epoch":319,"slotNo":52747175,"epochSlotNo":302375,"stakeKey":"stake1u9yf0dqnjqm45znu7qrcf42rffyznexyck56mv8wrrwpw4gkxv0k4"},{"txId":30483211,"txHash":"22adf3e96e09c8d4211e3254cbe52ec4a8e3277455b600eeef6325efa90b1ed5","txTime":"2022/02/08 09:44:17","block":6856363,"epoch":319,"slotNo":52747166,"epochSlotNo":302366,"stakeKey":"stake1u8talp0ppaw0uqg0dpu9uu8q37y65petsc73ftt293qsl7c3w8nfk"},{"txId":30482977,"txHash":"04910e222827d412f24c35af2acd76386ccf19050ef47b430fbd827aa1a309be","txTime":"2022/02/08 09:41:28","block":6856354,"epoch":319,"slotNo":52746997,"epochSlotNo":302197,"stakeKey":"stake1uxhaxrm23sr2rmx4czwdrgucy9y74ynunxxgtn9aqlywg5gma2xp8"}],"totalItems":1401617,"totalPages":70081,"currentPage":0}