{"data":[{"no":77,"status":"IN_PROGRESS","blkCount":1808,"outSum":91214349147228,"txCount":2786,"startTime":"2023/06/21 00:00:28","endTime":"2023/06/26 00:00:28","maxSlot":432000},{"no":76,"status":"REWARDING","blkCount":18314,"outSum":250766117060438,"txCount":22900,"startTime":"2023/06/16 00:00:37","endTime":"2023/06/20 23:59:54","maxSlot":432000},{"no":75,"status":"REWARDING","blkCount":18353,"outSum":220267439313069781,"txCount":17175,"startTime":"2023/06/11 00:00:33","endTime":"2023/06/15 23:59:42","maxSlot":432000},{"no":74,"status":"FINISHED","blkCount":18596,"outSum":264570480593895,"txCount":23213,"startTime":"2023/06/06 00:00:20","endTime":"2023/06/10 23:59:54","maxSlot":432000},{"no":73,"status":"FINISHED","blkCount":18526,"outSum":179961147361775,"txCount":12170,"startTime":"2023/06/01 00:00:31","endTime":"2023/06/05 23:59:40","maxSlot":432000},{"no":72,"status":"FINISHED","blkCount":18339,"outSum":154428358303528,"txCount":11581,"startTime":"2023/05/27 00:00:22","endTime":"2023/05/31 23:59:52","maxSlot":432000},{"no":71,"status":"FINISHED","blkCount":18602,"outSum":176993878911759,"txCount":11579,"startTime":"2023/05/22 00:00:04","endTime":"2023/05/26 23:59:15","maxSlot":432000},{"no":70,"status":"FINISHED","blkCount":18289,"outSum":185934694493171,"txCount":10348,"startTime":"2023/05/17 00:01:01","endTime":"2023/05/21 23:58:54","maxSlot":432000},{"no":69,"status":"FINISHED","blkCount":18024,"outSum":165274480304855026,"txCount":11242,"startTime":"2023/05/12 00:00:05","endTime":"2023/05/16 23:59:54","maxSlot":432000},{"no":68,"status":"FINISHED","blkCount":17693,"outSum":412743077756240,"txCount":15009,"startTime":"2023/05/07 00:00:02","endTime":"2023/05/11 23:59:27","maxSlot":432000}],"totalItems":78,"totalPages":8,"currentPage":0}