{"data":[{"address":"addr1z8snz7c4974vzdpxu65ruphl3zjdvtxw8strf2c2tmqnxz2j2c79gy9l76sdg0xwhd7r0c0kna0tycz4y5s6mlenh8pq0xmsha","txCount":1381235,"balance":62361899231250},{"address":"addr1z8jd97ct35n4s5ss8lt4sq0zclw0dmf7yak8fj46m0jm3dswtf6nj8t35qph4n6m04gawl49yvsxytfjpjpcfhehpcvqwwrrlu","txCount":30,"balance":44000000000000},{"address":"addr1z9s3v9vyyctzr4xagvrayw87yvzre6qcq7qw2uvqfznf92qm5kjdmrpmng059yellupyvwgay2v0lz6663swmds7hp0q2jjlf4","txCount":948,"balance":39185494967650},{"address":"addr1wy0nmrl40z3nx9d0d79pu5u7zett4hl2apfuj9caqgf7jjqcj3r8z","txCount":1944,"balance":24599590081073},{"address":"addr1w9qzpelu9hn45pefc0xr4ac4kdxeswq7pndul2vuj59u8tqaxdznu","txCount":597735,"balance":10323843654925},{"address":"addr1z8jd97ct35n4s5ss8lt4sq0zclw0dmf7yak8fj46m0jm3djv95lqhj0agy8awy9g82v0r6qatxdz9kza4m94sqyunvssgdq8ua","txCount":10,"balance":7501516000000},{"address":"addr1w93j7t23z99448k7xspzrppjtgun0janh0rcq6k8wt2e8vc2fraw4","txCount":4709,"balance":6444486420321},{"address":"addr1z8snz7c4974vzdpxu65ruphl3zjdvtxw8strf2c2tmqnxzfgf0jgfz5xdvg2pges20usxhw8zwnkggheqrxwmxd6huuqss46eh","txCount":2244,"balance":5362784738874},{"address":"addr1z8snz7c4974vzdpxu65ruphl3zjdvtxw8strf2c2tmqnxz02znpd777wgl9wwpk0dvdzuxn93mqh82q7vv6s9jn25rws52z94g","txCount":2510,"balance":5263109604428},{"address":"addr1z8snz7c4974vzdpxu65ruphl3zjdvtxw8strf2c2tmqnxztnqm37tpj0q63s0qns5wfe4flqzqqg55760472n7yt4v8skpaj3k","txCount":20491,"balance":5105335589057},{"address":"addr1z8snz7c4974vzdpxu65ruphl3zjdvtxw8strf2c2tmqnxzwccf8ywaly0m99ngq68lus48lmafut7ku9geawu8u6k49suv42qq","txCount":1503,"balance":4750875059303},{"address":"addr1z8snz7c4974vzdpxu65ruphl3zjdvtxw8strf2c2tmqnxz2jyskd3y6etkv8ye450545xu6q4jfq5hv4e0uxwkpf8lsq048y90","txCount":3024,"balance":4246959243074},{"address":"addr1w8pydstdswmdqmg2rdt59dzql3zgfp9pt8sulnjgalycwdsj9js7w","txCount":76141,"balance":4136260266209},{"address":"addr1zxn9efv2f6w82hagxqtn62ju4m293tqvw0uhmdl64ch8uw6j2c79gy9l76sdg0xwhd7r0c0kna0tycz4y5s6mlenh8pq6s3z70","txCount":1512282,"balance":3045256474933},{"address":"addr1z9es6px68rlmwatqwg6qxwqf3szyz0n4lm0m2e5j38nu0062a6yhtrq8a4cxg2trrtzddev7v974nafzmx4xaegv2ngqky7khv","txCount":5087,"balance":2867882263677},{"address":"addr1xxqqegnx4ref4q6derz2n0zs0jeanaxdq7ynfhwv3luhsg63z228hznt0rz2enxfzhtk2270gels0ht9uvf9wmyxs99qgwkkf2","txCount":11969,"balance":2165802804993},{"address":"addr1xxqqegnx4ref4q6derz2n0zs0jeanaxdq7ynfhwv3luhsglnschmu7dwefmhkd078735ucq2yh90ylkzxrenz9cy8uds3gzd0f","txCount":11961,"balance":2165802804978},{"address":"addr1xxqqegnx4ref4q6derz2n0zs0jeanaxdq7ynfhwv3luhsgl0sfgalgyvgedlnhfl7u2059dkyhp453hm86797rm5qhasyaak0d","txCount":11917,"balance":2165802804978},{"address":"addr1xxqqegnx4ref4q6derz2n0zs0jeanaxdq7ynfhwv3luhsglwdw2g8sat0hr2pdt2ct27n33z0w6dzsfy684ut24gjfsqjxugry","txCount":11952,"balance":2165802804978},{"address":"addr1xxqqegnx4ref4q6derz2n0zs0jeanaxdq7ynfhwv3luhsg6ypq27sagqxt4jwt57mdsef3zu65ng4zmzxaa246s97nxswjed26","txCount":11957,"balance":2165802804978}],"totalItems":46135,"totalPages":2307,"currentPage":0}