{"data":[{"blockNo":8270043,"slotNo":82156240,"epochNo":387,"epochSlotNo":335440,"hash":"5a02a81fe3473ecbb641fe2218836893681e43af2655177c65302d7b4103ac63","time":"2023/01/14 18:55:31","txCount":27,"totalFees":8113112,"totalOutput":540699117015,"slotLeader":"4a5571be1cb000df524350ef170f73cc0c0404155350dd0f71e4d130"},{"blockNo":8270042,"slotNo":82156205,"epochNo":387,"epochSlotNo":335405,"hash":"1ece684b43c8ae5d31775d86e8f1e9d3ee44322f78ef9360d9ecc78d789714f8","time":"2023/01/14 18:54:56","txCount":19,"totalFees":4602710,"totalOutput":1975596972057,"slotLeader":"db3ef28510cc87c6a2f2b83c50707c40d8024438c8a61f24ac16a33f"},{"blockNo":8270041,"slotNo":82156189,"epochNo":387,"epochSlotNo":335389,"hash":"d589a73f8db9db23e57613abd9b0a1f73f69993fdd6a8d319db691e3e5126544","time":"2023/01/14 18:54:40","txCount":62,"totalFees":19193420,"totalOutput":347479797023,"slotLeader":"4a2aa209e00f2926bd0d8a286592bbdea4d35a593c05d41efe29e642"},{"blockNo":8270040,"slotNo":82156140,"epochNo":387,"epochSlotNo":335340,"hash":"499c6a52a516f9b70ac999a5e8247b7b5dfeace378989eaa5fdae43f724ea6ad","time":"2023/01/14 18:53:51","txCount":49,"totalFees":14736132,"totalOutput":30768678579830,"slotLeader":"f76e3a1104a9d816a67d5826a155c9e2979a839d0d944346d47e33ab"},{"blockNo":8270039,"slotNo":82156073,"epochNo":387,"epochSlotNo":335273,"hash":"c1c0e2a954448fb0c7034567589a53840aba92212ec142205a10d010e6ed4eb0","time":"2023/01/14 18:52:44","txCount":20,"totalFees":4767292,"totalOutput":140719225496,"slotLeader":"936316c217c6f217640ed8d132cb0ff8133eef73e74e4c28002b9eb3"},{"blockNo":8270038,"slotNo":82156052,"epochNo":387,"epochSlotNo":335252,"hash":"ea16be2f752c845c9eb15cd688141f999dc8e62c655041dbe5ca3d392a1bb14a","time":"2023/01/14 18:52:23","txCount":48,"totalFees":13414839,"totalOutput":1176852246040,"slotLeader":"d248ded3c18e0e80d07a46f00a2d808075b989ccb1a0e40a76e5cee1"},{"blockNo":8270037,"slotNo":82155995,"epochNo":387,"epochSlotNo":335195,"hash":"47f1d21488c13058dabcae41211482819ee0587668694be20ac12f2549b7d090","time":"2023/01/14 18:51:26","txCount":9,"totalFees":3808759,"totalOutput":37170764969,"slotLeader":"970e9a7ae4677b152c27a0eba3db996b372de094d24fc2974768f3da"},{"blockNo":8270036,"slotNo":82155984,"epochNo":387,"epochSlotNo":335184,"hash":"6bdf63d87669c84a5302d57176bf5744e748515504df9890b4dd7efbc68add7c","time":"2023/01/14 18:51:15","txCount":10,"totalFees":3937648,"totalOutput":3865262832322,"slotLeader":"660f20fb9d419173ac623786ad3e6dc11a23951981e0e83e98233d29"},{"blockNo":8270035,"slotNo":82155975,"epochNo":387,"epochSlotNo":335175,"hash":"3709470d6dd8fa3b0fdc3e4f5f34642d992545cf1f7f4d9fc74add49374a89bf","time":"2023/01/14 18:51:06","txCount":44,"totalFees":15445970,"totalOutput":4044075875065,"slotLeader":"d7513627b3d50819c1c84687bfd15f02f00cd11c37d7935a67540089"},{"blockNo":8270034,"slotNo":82155928,"epochNo":387,"epochSlotNo":335128,"hash":"ac53274ae0b25f4bc184043057b2242c87f959829075a7164767a82041f95f4b","time":"2023/01/14 18:50:19","txCount":6,"totalFees":1927669,"totalOutput":24923804837,"slotLeader":"b44181287c72d0c7b1bce6a57173cdf739ac77d030bdfc4606138dd2"}],"totalItems":16306,"totalPages":1631,"currentPage":0}