{"data":[{"blockNo":8377687,"slotNo":84378174,"epochNo":392,"epochSlotNo":397374,"hash":"cd647c1f58d8d3986ab9a8d82bf6f16bf22b12752291fdaf18238c01e9e3a2f7","time":"2023/02/09 12:07:45","txCount":39,"totalFees":12191769,"totalOutput":23592004532067,"slotLeader":"58494275c20e5786646ccc1f7d19a4c190382f374b0762208d596580"},{"blockNo":8377686,"slotNo":84378140,"epochNo":392,"epochSlotNo":397340,"hash":"5293a32083d0caf9633bd71021ae416a9dddeb27ed6d86367d66b91ba2e8cdbf","time":"2023/02/09 12:07:11","txCount":47,"totalFees":11310692,"totalOutput":246592403041,"slotLeader":"61d2598400211dcda6878511eb6d84719e5c502c7aa63d500f7a57ce"},{"blockNo":8377685,"slotNo":84378119,"epochNo":392,"epochSlotNo":397319,"hash":"86b0c86e08e7b7aedce2e0889170aa543adffc9661928935c2447abba06bcb71","time":"2023/02/09 12:06:50","txCount":38,"totalFees":11319945,"totalOutput":2727018898524,"slotLeader":"c83beb18d532234c72a304ab935982be670c22e771b227a3febc3a82"},{"blockNo":8377684,"slotNo":84378104,"epochNo":392,"epochSlotNo":397304,"hash":"6a98070e52202a3bbc44c5362d84fc8d9d8748860cfd9a121fd415ea2a29cc31","time":"2023/02/09 12:06:35","txCount":15,"totalFees":3800237,"totalOutput":33420987081,"slotLeader":"6658713e2cbfa4e347691a0435953f5acbe9f03d330e94caa3a0cfb4"},{"blockNo":8377683,"slotNo":84378102,"epochNo":392,"epochSlotNo":397302,"hash":"00ad99587e9364778106fc6d1faf1014e10ad4af5c04c26813d65287c684f1c8","time":"2023/02/09 12:06:33","txCount":70,"totalFees":18011646,"totalOutput":5646295432168,"slotLeader":"087cb9a9dab66751853893b0de0628aee88c36f82fd0c1ee3b998548"},{"blockNo":8377682,"slotNo":84378094,"epochNo":392,"epochSlotNo":397294,"hash":"104537963d2f4c8bea012c8c384d1ecc146bb3152243135593da47f3d738964f","time":"2023/02/09 12:06:25","txCount":34,"totalFees":11850841,"totalOutput":4313575782017,"slotLeader":"259d8027c33ee454ec2319531269495c07fefcdb52a513c5090f59ed"},{"blockNo":8377681,"slotNo":84378036,"epochNo":392,"epochSlotNo":397236,"hash":"39f67cda92d42138a930eaad70de854c83a9dd3e7b8acbcc1f90840f021dae12","time":"2023/02/09 12:05:27","txCount":54,"totalFees":14611554,"totalOutput":3342898118394,"slotLeader":"86d56db6754947d5c6dfd788568c189cc188d448aa6bc4ee634f655a"},{"blockNo":8377680,"slotNo":84377989,"epochNo":392,"epochSlotNo":397189,"hash":"34d468445f33ac01a384c17fe916e3e4293c19d7a7f7058d5dd261684a0cfd6f","time":"2023/02/09 12:04:40","txCount":48,"totalFees":13932886,"totalOutput":2133562786844,"slotLeader":"689a60c22ae02ece9405e0cd5fefdb7ceffc0a52c61c42d9955a9b1b"},{"blockNo":8377679,"slotNo":84377963,"epochNo":392,"epochSlotNo":397163,"hash":"3a5999a15bfb258cf9fb565e88ba905d745779561b0d3ed11724d97fd25662ca","time":"2023/02/09 12:04:14","txCount":19,"totalFees":7475857,"totalOutput":3800242923253,"slotLeader":"60397646d7d1ad6fe2ddccfe7efc9cba61f6d3d94d29e8f41de73240"},{"blockNo":8377678,"slotNo":84377962,"epochNo":392,"epochSlotNo":397162,"hash":"5545192e857095ed986fd9ba7e9443dd5f5fdefd91d1644b68a10695c80e670c","time":"2023/02/09 12:04:13","txCount":56,"totalFees":15968596,"totalOutput":176824972259,"slotLeader":"41b8741536cd484687a4c3adcdc07211cfce03ca58727212336acc5e"},{"blockNo":8377677,"slotNo":84377944,"epochNo":392,"epochSlotNo":397144,"hash":"62eb78c4dee1b7a82dfeb724b4aab6d797fb53aaf6b46cc5fba856ea01b949e5","time":"2023/02/09 12:03:55","txCount":43,"totalFees":13536750,"totalOutput":3438783747477,"slotLeader":"feaf6e416cd79649df5a7575b240b5740d7735a80a8f688e8b73bf06"},{"blockNo":8377676,"slotNo":84377902,"epochNo":392,"epochSlotNo":397102,"hash":"a22d8c98746a4aadf1c8363bee3ce02921163f854cb6baf54b1d02adc9598d06","time":"2023/02/09 12:03:13","txCount":58,"totalFees":16946731,"totalOutput":1244360168908,"slotLeader":"654d96593e499e70889eeae16a15ad8682f8349fd1b77726bbbf8a6d"},{"blockNo":8377675,"slotNo":84377896,"epochNo":392,"epochSlotNo":397096,"hash":"dc54609f175de1ae162876d209a97ba79ceaa792060bc440e9b235e0d30dca1e","time":"2023/02/09 12:03:07","txCount":60,"totalFees":14583979,"totalOutput":92857589415,"slotLeader":"780623d70c1168241e1d4d623e5e14e7f02e701b536329e9a735ad61"},{"blockNo":8377674,"slotNo":84377854,"epochNo":392,"epochSlotNo":397054,"hash":"025d93a8e30bb537c91fc81a626f2981aa49d1d7991af82547664fc0b2afb413","time":"2023/02/09 12:02:25","txCount":26,"totalFees":9897517,"totalOutput":10197071448175,"slotLeader":"c1cadab46b74defa9f79b59b617fe2a50bdbce6b367e472b6109a7bc"},{"blockNo":8377673,"slotNo":84377824,"epochNo":392,"epochSlotNo":397024,"hash":"756c327b159a8a4aa4d9d23648f635978cc9e874d45419bbc64e7f5fc029d26f","time":"2023/02/09 12:01:55","txCount":45,"totalFees":15151985,"totalOutput":1938215700525,"slotLeader":"65ea43eab7c0143d6bb68f9d56c276bce09377bdc41e1a42ac9535ed"},{"blockNo":8377672,"slotNo":84377788,"epochNo":392,"epochSlotNo":396988,"hash":"3472eb5bf02124e5e26fef069155db8788731eef4e59584d7e079878dfa6f779","time":"2023/02/09 12:01:19","txCount":29,"totalFees":7374485,"totalOutput":176114896495,"slotLeader":"c2b8bff5160dd75149f2cae0955698550e8cf0d390025b26a9508a3e"},{"blockNo":8377671,"slotNo":84377773,"epochNo":392,"epochSlotNo":396973,"hash":"9de66d68fdbfeecdd567c07c458b6d9cd12aeecb2039306dedc9e69545b80850","time":"2023/02/09 12:01:04","txCount":12,"totalFees":2866350,"totalOutput":4902206677,"slotLeader":"00000036d515e12e18cd3c88c74f09a67984c2c279a5296aa96efe89"},{"blockNo":8377670,"slotNo":84377759,"epochNo":392,"epochSlotNo":396959,"hash":"e4940f401815d67e60fb81c3532e3dbee11f48aaba4a9c23c154aebff10c2d01","time":"2023/02/09 12:00:50","txCount":38,"totalFees":10232156,"totalOutput":814626231010,"slotLeader":"737929797be1a93e3a61cda089e33368e3b91f3884b0d684462a32ec"},{"blockNo":8377669,"slotNo":84377749,"epochNo":392,"epochSlotNo":396949,"hash":"069653cd57d0e07d5948e8c6697e4a2fd24147033c0270270692eea45037515d","time":"2023/02/09 12:00:40","txCount":52,"totalFees":14745008,"totalOutput":5731857066960,"slotLeader":"9fa14b049b735e287da702a2b0a7c2a6612e81db9cc4284339a6a2f1"},{"blockNo":8377668,"slotNo":84377735,"epochNo":392,"epochSlotNo":396935,"hash":"2ebcbfd92e161ecb91bd36a14305193edaa3d0684f4b8b567a95303508c7b0ba","time":"2023/02/09 12:00:26","txCount":41,"totalFees":13364832,"totalOutput":5079437263293,"slotLeader":"fdb0d8ba88d434c8dd3ab3974a3401efc7b016e54c7387c63398aec4"}],"totalItems":8377863,"totalPages":418894,"currentPage":0}