{"data":[{"blockNo":8924005,"slotNo":95611305,"epochNo":418,"epochSlotNo":398505,"hash":"5f3996a36633c053f170b25892d60f80ae3e7f7b31b977129d907910144325a1","time":"2023/06/19 12:26:36","txCount":15,"totalFees":7599311,"totalOutput":7430695552337,"slotLeader":"ee98a72dfb3ba43e9de2e39ef825a69d5d45627d2e918ea3e260f2dd"},{"blockNo":8924004,"slotNo":95611247,"epochNo":418,"epochSlotNo":398447,"hash":"9135c7e3c163076bb7e01b14f3712e9cc8bc478b35f40c5af76d69352c7a5f77","time":"2023/06/19 12:25:38","txCount":2,"totalFees":920481,"totalOutput":104562022,"slotLeader":"86c8a19e4d6227da12d7c9c63c5fd7a83bf227a92089778f7d9ec0f9"},{"blockNo":8924003,"slotNo":95611245,"epochNo":418,"epochSlotNo":398445,"hash":"a9ddb367d7e487d29e1aaf09ef8547d8862bc13367cc6895aa0fa7b2ef9acf26","time":"2023/06/19 12:25:36","txCount":6,"totalFees":1794260,"totalOutput":19580869653,"slotLeader":"351a90a0253fb3595ccc460438b9947cd8a0b9a7f457f3478bbb31d8"},{"blockNo":8924002,"slotNo":95611242,"epochNo":418,"epochSlotNo":398442,"hash":"59fa946fa41ca00880473722196f1bc0ab8eb0297e01dd6a145c352cc259cd6b","time":"2023/06/19 12:25:33","txCount":3,"totalFees":646910,"totalOutput":26557983229,"slotLeader":"3a203ec1a8bae5098be953c3759e9fae42eea3d5714293500c6b3013"},{"blockNo":8924001,"slotNo":95611240,"epochNo":418,"epochSlotNo":398440,"hash":"fd171890bbd8894c0c3409fbce79f5ff34f5dbfb34d6ca7e9d12d1688a9f347b","time":"2023/06/19 12:25:31","txCount":38,"totalFees":12181422,"totalOutput":6829634353996,"slotLeader":"3c68076a8b81226f6d7da352dda415db00299701624b6cf71d7cc086"},{"blockNo":8924000,"slotNo":95611183,"epochNo":418,"epochSlotNo":398383,"hash":"90e26a1c1c9f8fd736105ed42beb9759c0f27984d5a6fca0075ca3b752d7c386","time":"2023/06/19 12:24:34","txCount":41,"totalFees":11537750,"totalOutput":37947937192527,"slotLeader":"5ea0be57485dfdd737e36ecdb95d03b1472be4450267fbdae9625e99"},{"blockNo":8923999,"slotNo":95611134,"epochNo":418,"epochSlotNo":398334,"hash":"823676e9bae517a96347ded29761e710ad856a3e4aff648426a67b698493868e","time":"2023/06/19 12:23:45","txCount":2,"totalFees":703547,"totalOutput":429133023100,"slotLeader":"fa67f324c67325d6e60616eb8f20688473f979ec4b66193a5b43f898"},{"blockNo":8923998,"slotNo":95611130,"epochNo":418,"epochSlotNo":398330,"hash":"4d4a7050e2d6a62dfde08b3399437976da26f7e56c68c3c3814d841426bac279","time":"2023/06/19 12:23:41","txCount":10,"totalFees":4468626,"totalOutput":2514176590713,"slotLeader":"5e376d756f6eec459900a4abcf2510316c45b13cf204a57c703dc251"},{"blockNo":8923997,"slotNo":95611115,"epochNo":418,"epochSlotNo":398315,"hash":"0349de376c0d4d5834dfb5e49ca69a636cf46d8609a4e3211e49ae9cf5d679e3","time":"2023/06/19 12:23:26","txCount":2,"totalFees":494899,"totalOutput":376876512,"slotLeader":"8d40e1d5d817183a0ca2613f7d998a6ac3962162adaf3d5176af7cbb"},{"blockNo":8923996,"slotNo":95611111,"epochNo":418,"epochSlotNo":398311,"hash":"a6bd12778f251dbf0b7200f13df97912147e6f28422209c8b0c592ba221ba73c","time":"2023/06/19 12:23:22","txCount":3,"totalFees":1350287,"totalOutput":215939393468,"slotLeader":"397f04eb0ae0497d8c4d691844c8c6b026bc942e3f406f26b8e24f48"}],"totalItems":19352,"totalPages":1936,"currentPage":0}