{"data":[{"hash":"91a80516b613551f31e9fc8b09ffb94dcf24dc8820a7fefb724ac5dc5014352b","blockNo":8126493,"blockHash":"d5e575c39af828839f52c31bd70a85b238ccbda0941b50b4a5e07ca5dd29dcb1","epochNo":380,"epochSlotNo":409838,"slot":79206638,"time":"2022/12/11 15:35:29","addressesInput":["addr1q9nhww8fgp8azy230968024tvj9yvzrs6z7k3wzemgrlmgd3uk6ppl0eddgetma0mtwgqfw0hg5f5fhkz9us66jgcr4qp23tf9"],"addressesOutput":["addr1vx83rfwfwwq07ttgd6qgl7uqn5dvmpr6ml2e4wxq98jr4mqnrv9zt","addr1q9ked9hc49phzhasw2sguahcn4u4hvsdt8w64j4lh49ptvd3uk6ppl0eddgetma0mtwgqfw0hg5f5fhkz9us66jgcr4q9waxmy"],"fee":187017,"totalOutput":2997618750,"tokens":[]},{"hash":"93ced95aff55e296ae195b45147fcf335fc83d8fc79a27181157638e225264a9","blockNo":8126493,"blockHash":"d5e575c39af828839f52c31bd70a85b238ccbda0941b50b4a5e07ca5dd29dcb1","epochNo":380,"epochSlotNo":409838,"slot":79206638,"time":"2022/12/11 15:35:29","addressesInput":["addr1qxyd7ly8gupyuzmnlyzaucnktvdsddtarq7ss6w2zy3hmwzvx99ffjg24uq70vcsfag9s759d345ns8a394vxluj4n7q7ejqtu","addr1qxyd7ly8gupyuzmnlyzaucnktvdsddtarq7ss6w2zy3hmwzvx99ffjg24uq70vcsfag9s759d345ns8a394vxluj4n7q7ejqtu"],"addressesOutput":["addr1qytuur074p2077uemvj9k87zj0wntfsw622q4e55v8uz5829e9hkvm5ax4wr0s2pshajqzghu2v4x24ad3zkc96a80vst5d7xn","addr1qxyd7ly8gupyuzmnlyzaucnktvdsddtarq7ss6w2zy3hmwzvx99ffjg24uq70vcsfag9s759d345ns8a394vxluj4n7q7ejqtu","addr1qxyd7ly8gupyuzmnlyzaucnktvdsddtarq7ss6w2zy3hmwzvx99ffjg24uq70vcsfag9s759d345ns8a394vxluj4n7q7ejqtu","addr1qxyd7ly8gupyuzmnlyzaucnktvdsddtarq7ss6w2zy3hmwzvx99ffjg24uq70vcsfag9s759d345ns8a394vxluj4n7q7ejqtu","addr1qxyd7ly8gupyuzmnlyzaucnktvdsddtarq7ss6w2zy3hmwzvx99ffjg24uq70vcsfag9s759d345ns8a394vxluj4n7q7ejqtu"],"fee":180549,"totalOutput":500991771,"tokens":[]},{"hash":"9cd8781fb167ccc61efdb759df1ae215b1b73422840c6d2237c0e43ad049b468","blockNo":8126493,"blockHash":"d5e575c39af828839f52c31bd70a85b238ccbda0941b50b4a5e07ca5dd29dcb1","epochNo":380,"epochSlotNo":409838,"slot":79206638,"time":"2022/12/11 15:35:29","addressesInput":["addr1vx5ac70v8504uk5dr69zjexxu2ztacpw8cr7qcetwkr8f2s9973vm"],"addressesOutput":["addr1qxc5az2mqmz3kdtd5ytqu83fk02qcknvcdgvs5vds2eyyy3gecd3auh285twa0svkzcf76sz4d9kgf4ms3r8wd2nzrcsjcu696"],"fee":201141,"totalOutput":1798859,"tokens":[]},{"hash":"b9a9f5cc4dc21d2818e1003c4ef74eaa33f0171541826eebcf93fd01dab4ee91","blockNo":8126493,"blockHash":"d5e575c39af828839f52c31bd70a85b238ccbda0941b50b4a5e07ca5dd29dcb1","epochNo":380,"epochSlotNo":409838,"slot":79206638,"time":"2022/12/11 15:35:29","addressesInput":["addr1qxz7qn3z7rf8v5xh2evwvv23z39ejnaxm3u6wq5q3ehdt7a608tk6fywhmz6sadzcgeuyj7zm3aln9rzzfl736gd2tcqjg3pz2","addr1zxgx3far7qygq0k6epa0zcvcvrevmn0ypsnfsue94nsn3tvpw288a4x0xf8pxgcntelxmyclq83s0ykeehchz2wtspks905plm"],"addressesOutput":["addr1q9ptpqj540dlxt96rlgvq2a4vsyggztfaw6u9ngnx4x75t8x5pfg7le4m0ze02z30yvr7glvpy0l3jpaqf5evzvl0lrqn2senf","addr1q9cwvremt6n320s2e3agq0jyq82yhrk3htsu0w426xnz5us70z4w0jgvcdkkynmm8wmds66jd9kusnjfpu6raw5fqp0sr07p5w","addr1qxcgrex4xam2m2x7389c84hkphrv55vdvduen35ly5k9v20v0d3nwnn9tvgmzldyfvz9zgr7k9yfjyvjex5wxvk3as0q2e844c","addr1qxz7qn3z7rf8v5xh2evwvv23z39ejnaxm3u6wq5q3ehdt7a608tk6fywhmz6sadzcgeuyj7zm3aln9rzzfl736gd2tcqjg3pz2","addr1qxz7qn3z7rf8v5xh2evwvv23z39ejnaxm3u6wq5q3ehdt7a608tk6fywhmz6sadzcgeuyj7zm3aln9rzzfl736gd2tcqjg3pz2","addr1qxz7qn3z7rf8v5xh2evwvv23z39ejnaxm3u6wq5q3ehdt7a608tk6fywhmz6sadzcgeuyj7zm3aln9rzzfl736gd2tcqjg3pz2","addr1qxz7qn3z7rf8v5xh2evwvv23z39ejnaxm3u6wq5q3ehdt7a608tk6fywhmz6sadzcgeuyj7zm3aln9rzzfl736gd2tcqjg3pz2","addr1qxz7qn3z7rf8v5xh2evwvv23z39ejnaxm3u6wq5q3ehdt7a608tk6fywhmz6sadzcgeuyj7zm3aln9rzzfl736gd2tcqjg3pz2"],"fee":437873,"totalOutput":1498438280,"tokens":[]},{"hash":"299a48cc0b8c10b44a83ed29e3c8d09c76239949de2886e8822f1a18e085da4e","blockNo":8126493,"blockHash":"d5e575c39af828839f52c31bd70a85b238ccbda0941b50b4a5e07ca5dd29dcb1","epochNo":380,"epochSlotNo":409838,"slot":79206638,"time":"2022/12/11 15:35:29","addressesInput":["addr1qx25a067yval8a70nfpfsxl7wh2cmpmrd5xq3amx4da6c249crzxcuxny922upmx7yxuy3p2xwgpnxv8df40sqw8z0ms9sqars"],"addressesOutput":["addr1vyjdya9lmyfmysdgej3qc6thwat33lwm3umk8uwnvhy9g3gzvd2jp","addr1q8frqwplty8ga38grk9jlulneelpemfptpvf64ds779laha9crzxcuxny922upmx7yxuy3p2xwgpnxv8df40sqw8z0ms2l59vp"],"fee":167085,"totalOutput":21160110,"tokens":[]},{"hash":"d742017e96e9afd354e76351923d0deb24e5d69315507059cbffa42499cff7aa","blockNo":8126493,"blockHash":"d5e575c39af828839f52c31bd70a85b238ccbda0941b50b4a5e07ca5dd29dcb1","epochNo":380,"epochSlotNo":409838,"slot":79206638,"time":"2022/12/11 15:35:29","addressesInput":["addr1wy30zf2g4xc7v872fdweewrlj3lh2lgttelmydn0cvhyplsg3vnkq","addr1q8jnt8drxanvt296t4aflqe6040z747j0400gmzs6f4pp9ps4r35wtd90pmsvu2wf5d7vrexyvamyr5um2pfmsr9xk2sgxskw4"],"addressesOutput":["addr1q8jnt8drxanvt296t4aflqe6040z747j0400gmzs6f4pp9ps4r35wtd90pmsvu2wf5d7vrexyvamyr5um2pfmsr9xk2sgxskw4","addr1wy30zf2g4xc7v872fdweewrlj3lh2lgttelmydn0cvhyplsg3vnkq"],"fee":817789,"totalOutput":590149020,"tokens":[]},{"hash":"b5bda01a49933fd1f2f662647198dfa7d8fd9f42b11510f2f0be80448a250ad5","blockNo":8126493,"blockHash":"d5e575c39af828839f52c31bd70a85b238ccbda0941b50b4a5e07ca5dd29dcb1","epochNo":380,"epochSlotNo":409838,"slot":79206638,"time":"2022/12/11 15:35:29","addressesInput":["addr1zxgx3far7qygq0k6epa0zcvcvrevmn0ypsnfsue94nsn3tvpw288a4x0xf8pxgcntelxmyclq83s0ykeehchz2wtspks905plm","addr1zxgx3far7qygq0k6epa0zcvcvrevmn0ypsnfsue94nsn3tvpw288a4x0xf8pxgcntelxmyclq83s0ykeehchz2wtspks905plm"],"addressesOutput":["addr1q8uea9g4gjm07zaha5k2wxynp955lzxr2945e3mxzuk3347jpz8eym826tvpena29enxzuuejsjj0v935j7gf2gau74sfxx8j8","addr1q9z0muesw8pzk73jtarx0jx2wwzqr3966rq8hpuwrx88e4atf7ehwje9wkfw06xgv88nw08vkwehcpspnc62pvuztm3slqs9nk","addr1q9cwvremt6n320s2e3agq0jyq82yhrk3htsu0w426xnz5us70z4w0jgvcdkkynmm8wmds66jd9kusnjfpu6raw5fqp0sr07p5w","addr1qyry9sfhnvfl8u76u2la368zxqedgl4ggvp4j7kvw0tsk5jhezflh9c5caqmt2stmdz792kzvqwuqphdzd5kdsdcmmcqrdmr5v","addr1q8uea9g4gjm07zaha5k2wxynp955lzxr2945e3mxzuk3347jpz8eym826tvpena29enxzuuejsjj0v935j7gf2gau74sfxx8j8"],"fee":503936,"totalOutput":30814924,"tokens":[]},{"hash":"b346c4105f2f5455bfc8934e564c50e59d86c9e9a2c2424153a495815884781f","blockNo":8126493,"blockHash":"d5e575c39af828839f52c31bd70a85b238ccbda0941b50b4a5e07ca5dd29dcb1","epochNo":380,"epochSlotNo":409838,"slot":79206638,"time":"2022/12/11 15:35:29","addressesInput":["addr1qyaymmjhu05p4ycarfk4edun0tta5rurf069gmuw8e5jvms6utu9kdc2qumju3vr7xwyd3q7r6e7kgun3z5cqfsk6qlqee9gx8"],"addressesOutput":["addr1v9gs0trlcmyty7jakcewjs3h00a7xrzyd5wnyfrpeg4wjts0ugx63","addr1q8ywkghuyyvz6nfkmhwdthvyacr2e9e9c7cdekldma0ly9c6utu9kdc2qumju3vr7xwyd3q7r6e7kgun3z5cqfsk6qlqk88ycd"],"fee":167261,"totalOutput":4613286109,"tokens":[]},{"hash":"e7a7acbd5aec30c9342449b6eb3260db3149f4077f93a3155311c14b0b727655","blockNo":8126493,"blockHash":"d5e575c39af828839f52c31bd70a85b238ccbda0941b50b4a5e07ca5dd29dcb1","epochNo":380,"epochSlotNo":409838,"slot":79206638,"time":"2022/12/11 15:35:29","addressesInput":["addr1q85yqznc6j9j2eq5rw4rw2828m850vq04czz2jqku8qtlsjzctzjl35njwdz0p3yahcpux27rev34xe6tzg08tvvteuskygnd3","addr1qy3zm0s04ww5krcg8v04euj5affnr03739e6zphtfqthp5zzctzjl35njwdz0p3yahcpux27rev34xe6tzg08tvvteuss853xd"],"addressesOutput":["addr1qy3xt5d3z6m8dtg0ltclwx3yrkf3y7c5ut2rg9htj72r9r830tqljgslcry3zg2jv5gdfhlfxzdx27xn5pvp4rfmk34su09k7f","addr1qxukzlm76zapxppfq27l7dk52z9pmluaur5s9lxt4zvw0ajzctzjl35njwdz0p3yahcpux27rev34xe6tzg08tvvteussz3v6k","addr1qxukzlm76zapxppfq27l7dk52z9pmluaur5s9lxt4zvw0ajzctzjl35njwdz0p3yahcpux27rev34xe6tzg08tvvteussz3v6k"],"fee":208621,"totalOutput":18740412,"tokens":[]},{"hash":"63286f2f5501bbbb51784bded3839a1af5f683fe50c130038885cdedc3ab7e67","blockNo":8126493,"blockHash":"d5e575c39af828839f52c31bd70a85b238ccbda0941b50b4a5e07ca5dd29dcb1","epochNo":380,"epochSlotNo":409838,"slot":79206638,"time":"2022/12/11 15:35:29","addressesInput":["addr1q826tz6y7vhtguz7eqmr2vynwu0x4xxv7f3wy2ew7lvppxtynlh5xrzu5junxuhl4fealcxkpugu7ac6t48jzwse4lhsadfyuh","addr1zxgx3far7qygq0k6epa0zcvcvrevmn0ypsnfsue94nsn3tvpw288a4x0xf8pxgcntelxmyclq83s0ykeehchz2wtspks905plm"],"addressesOutput":["addr1q826tz6y7vhtguz7eqmr2vynwu0x4xxv7f3wy2ew7lvppxtynlh5xrzu5junxuhl4fealcxkpugu7ac6t48jzwse4lhsadfyuh","addr1q826tz6y7vhtguz7eqmr2vynwu0x4xxv7f3wy2ew7lvppxtynlh5xrzu5junxuhl4fealcxkpugu7ac6t48jzwse4lhsadfyuh"],"fee":262986,"totalOutput":82638634,"tokens":[]},{"hash":"a8b19783537095a88bc0d8e5c238e8578e4a71a60db5fb3c4ca638ed60dd8eb8","blockNo":8126493,"blockHash":"d5e575c39af828839f52c31bd70a85b238ccbda0941b50b4a5e07ca5dd29dcb1","epochNo":380,"epochSlotNo":409838,"slot":79206638,"time":"2022/12/11 15:35:29","addressesInput":["addr1zxgx3far7qygq0k6epa0zcvcvrevmn0ypsnfsue94nsn3tvpw288a4x0xf8pxgcntelxmyclq83s0ykeehchz2wtspks905plm","addr1q8j4yujr9lknrp5qwcndk7p899j4h3jzvepcdg58y6gtysx0lzc7nj9ckjq2uu588n20z9vajk764lfjv7z9rpeqq7ls985rpt","addr1q8j4yujr9lknrp5qwcndk7p899j4h3jzvepcdg58y6gtysx0lzc7nj9ckjq2uu588n20z9vajk764lfjv7z9rpeqq7ls985rpt"],"addressesOutput":["addr1zxgx3far7qygq0k6epa0zcvcvrevmn0ypsnfsue94nsn3tvpw288a4x0xf8pxgcntelxmyclq83s0ykeehchz2wtspks905plm","addr1q8j4yujr9lknrp5qwcndk7p899j4h3jzvepcdg58y6gtysx0lzc7nj9ckjq2uu588n20z9vajk764lfjv7z9rpeqq7ls985rpt"],"fee":305191,"totalOutput":27876738,"tokens":[]},{"hash":"5986725e636a9ecf9310de4d741264125b5a6e6f01aba60ffdd47cca8e6e3c38","blockNo":8126493,"blockHash":"d5e575c39af828839f52c31bd70a85b238ccbda0941b50b4a5e07ca5dd29dcb1","epochNo":380,"epochSlotNo":409838,"slot":79206638,"time":"2022/12/11 15:35:29","addressesInput":["addr1q80a77234yzkhr2ezr5gkyp7jfqxkva6xq5dsyxt6ak7pjfh20284nye0xv3rfnrcwrwj7c0kl5jlz06a2cl9r3t0n4sws5qsw","addr1wy30zf2g4xc7v872fdweewrlj3lh2lgttelmydn0cvhyplsg3vnkq"],"addressesOutput":["addr1q80a77234yzkhr2ezr5gkyp7jfqxkva6xq5dsyxt6ak7pjfh20284nye0xv3rfnrcwrwj7c0kl5jlz06a2cl9r3t0n4sws5qsw","addr1wy30zf2g4xc7v872fdweewrlj3lh2lgttelmydn0cvhyplsg3vnkq"],"fee":828085,"totalOutput":11633149,"tokens":[]},{"hash":"e5a45d00828f82d3dd750fa71dc40abb1edb79a4001c5263404304ad9eb1fbbd","blockNo":8126493,"blockHash":"d5e575c39af828839f52c31bd70a85b238ccbda0941b50b4a5e07ca5dd29dcb1","epochNo":380,"epochSlotNo":409838,"slot":79206638,"time":"2022/12/11 15:35:29","addressesInput":["addr1qyzh7phh2prt42spdqpuxjg8jnzjnss7xgsajj7p35k3gpwwycpawqavqtw6c5x24dcy68w7lncee3pa83uql5wj2z2qh8nyky","addr1qyzh7phh2prt42spdqpuxjg8jnzjnss7xgsajj7p35k3gpwwycpawqavqtw6c5x24dcy68w7lncee3pa83uql5wj2z2qh8nyky","addr1zxgx3far7qygq0k6epa0zcvcvrevmn0ypsnfsue94nsn3tvpw288a4x0xf8pxgcntelxmyclq83s0ykeehchz2wtspks905plm","addr1qyzh7phh2prt42spdqpuxjg8jnzjnss7xgsajj7p35k3gpwwycpawqavqtw6c5x24dcy68w7lncee3pa83uql5wj2z2qh8nyky"],"addressesOutput":["addr1qyzh7phh2prt42spdqpuxjg8jnzjnss7xgsajj7p35k3gpwwycpawqavqtw6c5x24dcy68w7lncee3pa83uql5wj2z2qh8nyky","addr1qyzh7phh2prt42spdqpuxjg8jnzjnss7xgsajj7p35k3gpwwycpawqavqtw6c5x24dcy68w7lncee3pa83uql5wj2z2qh8nyky"],"fee":280055,"totalOutput":9000015,"tokens":[]},{"hash":"bb923c3d415bc243d2c675fdfaa1e1f916c7f6a1d4846d892c0fd0ba7a1f775b","blockNo":8126493,"blockHash":"d5e575c39af828839f52c31bd70a85b238ccbda0941b50b4a5e07ca5dd29dcb1","epochNo":380,"epochSlotNo":409838,"slot":79206638,"time":"2022/12/11 15:35:29","addressesInput":["addr1qyvyw5fmuvqhsjxp426w6zlkfgsegsrn0qnp7p2k53nnlvgz70v70gzklux72f5736zjhw9n5jdhhw7s6g6a7mnmnpzqdpewm2","addr1zxgx3far7qygq0k6epa0zcvcvrevmn0ypsnfsue94nsn3tvpw288a4x0xf8pxgcntelxmyclq83s0ykeehchz2wtspks905plm"],"addressesOutput":["addr1q9ptpqj540dlxt96rlgvq2a4vsyggztfaw6u9ngnx4x75t8x5pfg7le4m0ze02z30yvr7glvpy0l3jpaqf5evzvl0lrqn2senf","addr1q9cwvremt6n320s2e3agq0jyq82yhrk3htsu0w426xnz5us70z4w0jgvcdkkynmm8wmds66jd9kusnjfpu6raw5fqp0sr07p5w","addr1qxvu632wy4pm9plntuv7kpxgnu6343jpqjm5s4xv9ch3ca8lh2jk5qgdz7l9ru9aeud374t6ccv4z763gcdsqcsnv5uq3txrnr","addr1qyvyw5fmuvqhsjxp426w6zlkfgsegsrn0qnp7p2k53nnlvgz70v70gzklux72f5736zjhw9n5jdhhw7s6g6a7mnmnpzqdpewm2","addr1qyvyw5fmuvqhsjxp426w6zlkfgsegsrn0qnp7p2k53nnlvgz70v70gzklux72f5736zjhw9n5jdhhw7s6g6a7mnmnpzqdpewm2","addr1qyvyw5fmuvqhsjxp426w6zlkfgsegsrn0qnp7p2k53nnlvgz70v70gzklux72f5736zjhw9n5jdhhw7s6g6a7mnmnpzqdpewm2"],"fee":409771,"totalOutput":470891849,"tokens":[]},{"hash":"1e61b302b5af5255619fb68ec7fbc511a76ddada3b389ac7dae539a32af83dbc","blockNo":8126493,"blockHash":"d5e575c39af828839f52c31bd70a85b238ccbda0941b50b4a5e07ca5dd29dcb1","epochNo":380,"epochSlotNo":409838,"slot":79206638,"time":"2022/12/11 15:35:29","addressesInput":["addr1v9yd300xl98429gr86cyy3gsehq4qqj05ekqwx4cud526lslt4kh9"],"addressesOutput":["addr1qy6cjws5zzatxfj6yp299e266c0g9vcxm0slmnfzqdzg06xpcrccm3z25ytl67mcp39w03mpgxjnc5vyeps3njmf7p9q92hjvz"],"fee":175181,"totalOutput":349824819,"tokens":[]},{"hash":"4f12316926acce373daacf73ed610a72c7de412a1702f7976c5c1f33ea9c0460","blockNo":8126493,"blockHash":"d5e575c39af828839f52c31bd70a85b238ccbda0941b50b4a5e07ca5dd29dcb1","epochNo":380,"epochSlotNo":409838,"slot":79206638,"time":"2022/12/11 15:35:29","addressesInput":["addr1q9fvmjvdknscpez4evwjs3s4cfrl7l72jss3xcmx3ew0aep6esdy50qectx6hyl3yjdmj8sqpurnc052ppjts8za5v9qlwv9ex","addr1q9r5872xyk30czqdg565xpzpy9l0h975ptg652udx9rrune6esdy50qectx6hyl3yjdmj8sqpurnc052ppjts8za5v9qzylhas"],"addressesOutput":["DdzFFzCqrhszeeqZdkrmuRq3VLgEzGJDzWbEjLsQgsUJM6sfnNLTHFs8fTgvdzQ1mx6AUmyaz65PKVoU1wjgKjAAKnkpg7WRZ9bYSJbG","addr1q9vgwg9cyj2sktqn2rag3t8zfpfj98ymfd7k76yp9n2m4sp6esdy50qectx6hyl3yjdmj8sqpurnc052ppjts8za5v9q432dyx"],"fee":175357,"totalOutput":20138124354,"tokens":[]},{"hash":"a3784fdb7acb6a8c31192fe3c941642de2c76a413effd4385c56b206f4aff08a","blockNo":8126493,"blockHash":"d5e575c39af828839f52c31bd70a85b238ccbda0941b50b4a5e07ca5dd29dcb1","epochNo":380,"epochSlotNo":409838,"slot":79206638,"time":"2022/12/11 15:35:29","addressesInput":["addr1q8045u7tz5txhkaqp7vkvalklla6ux6j3le0r5wurspyexskqnq52f7pkrsjvmwqjvfltn0cdtpjcmygd2d4tp8kje3q8tdgjc","addr1q8045u7tz5txhkaqp7vkvalklla6ux6j3le0r5wurspyexskqnq52f7pkrsjvmwqjvfltn0cdtpjcmygd2d4tp8kje3q8tdgjc","addr1zxgx3far7qygq0k6epa0zcvcvrevmn0ypsnfsue94nsn3tvpw288a4x0xf8pxgcntelxmyclq83s0ykeehchz2wtspks905plm"],"addressesOutput":["addr1q9ptpqj540dlxt96rlgvq2a4vsyggztfaw6u9ngnx4x75t8x5pfg7le4m0ze02z30yvr7glvpy0l3jpaqf5evzvl0lrqn2senf","addr1q9cwvremt6n320s2e3agq0jyq82yhrk3htsu0w426xnz5us70z4w0jgvcdkkynmm8wmds66jd9kusnjfpu6raw5fqp0sr07p5w","addr1q94k5l0dxhpljpyr5rpwh7q6et5s6n3hn5vgslzsshr9d79c76xhazveyrdp9agfhy4zcq4ej0ex6caqqavcrhvt7m2sl4u47p","addr1q8045u7tz5txhkaqp7vkvalklla6ux6j3le0r5wurspyexskqnq52f7pkrsjvmwqjvfltn0cdtpjcmygd2d4tp8kje3q8tdgjc","addr1q8045u7tz5txhkaqp7vkvalklla6ux6j3le0r5wurspyexskqnq52f7pkrsjvmwqjvfltn0cdtpjcmygd2d4tp8kje3q8tdgjc"],"fee":402985,"totalOutput":275088217,"tokens":[]},{"hash":"daf0d6cf71ba7f2a95d724c51523425e27b3e55a00880d992b3f4885b72105fa","blockNo":8126493,"blockHash":"d5e575c39af828839f52c31bd70a85b238ccbda0941b50b4a5e07ca5dd29dcb1","epochNo":380,"epochSlotNo":409838,"slot":79206638,"time":"2022/12/11 15:35:29","addressesInput":["addr1v9gs0trlcmyty7jakcewjs3h00a7xrzyd5wnyfrpeg4wjts0ugx63","addr1v9gs0trlcmyty7jakcewjs3h00a7xrzyd5wnyfrpeg4wjts0ugx63"],"addressesOutput":["addr1q8yv5fqyx76s3jtrw96qgz9ply32hq84690dq6psdfazrmn2cr3agje4kp2e3crjatftkjtuugs3ftpwz8lxugwng8fq9wl02y","addr1v9gs0trlcmyty7jakcewjs3h00a7xrzyd5wnyfrpeg4wjts0ugx63","addr1qymmvvxjk0hnjvlfxh9grv7twvhnjje904fjmh7tyz38c0s6utu9kdc2qumju3vr7xwyd3q7r6e7kgun3z5cqfsk6qlqlecv24"],"fee":181209,"totalOutput":3943701,"tokens":[]},{"hash":"3703d19a6b288e88fdb66afe52164a4fa8d365ebe946454396d18652c9b2ab5d","blockNo":8126492,"blockHash":"fb1687a93755ae36efdc100f5e90617e59fe89b83a152afd145bbbefc7e3de68","epochNo":380,"epochSlotNo":409821,"slot":79206621,"time":"2022/12/11 15:35:12","addressesInput":["addr1qy7t7hz723yny4yv4sl8rpj7xp5y28g0n7srft42z09tq8e8petqqaclpcxa4e5y3tyqm2j9lct6n6m37snaxuk6qcjq0ka0f5"],"addressesOutput":["addr1wxn9efv2f6w82hagxqtn62ju4m293tqvw0uhmdl64ch8uwc0h43gt","addr1qy7t7hz723yny4yv4sl8rpj7xp5y28g0n7srft42z09tq8e8petqqaclpcxa4e5y3tyqm2j9lct6n6m37snaxuk6qcjq0ka0f5","addr1qy7t7hz723yny4yv4sl8rpj7xp5y28g0n7srft42z09tq8e8petqqaclpcxa4e5y3tyqm2j9lct6n6m37snaxuk6qcjq0ka0f5"],"fee":186181,"totalOutput":286510658,"tokens":[]},{"hash":"8e86e5ae332aabd8915032e857ff0a78055138c499b08e66a46ac2c12274b34a","blockNo":8126491,"blockHash":"b5ca5477842dfce08652e66305937d6f321fa944f95fdbd62ddb6535310723cf","epochNo":380,"epochSlotNo":409818,"slot":79206618,"time":"2022/12/11 15:35:09","addressesInput":["addr1q9ns7sef289n4xu53ge5j8lhe5ype7n2pg3mqaekct7cn8npykh5zsq8rp2l8tsq4nc2az60psn3we9aszlsh0exd65sqls4ur","addr1q9ns7sef289n4xu53ge5j8lhe5ype7n2pg3mqaekct7cn8npykh5zsq8rp2l8tsq4nc2az60psn3we9aszlsh0exd65sqls4ur"],"addressesOutput":["addr1wxn9efv2f6w82hagxqtn62ju4m293tqvw0uhmdl64ch8uwc0h43gt","addr1q9ns7sef289n4xu53ge5j8lhe5ype7n2pg3mqaekct7cn8npykh5zsq8rp2l8tsq4nc2az60psn3we9aszlsh0exd65sqls4ur","addr1q9ns7sef289n4xu53ge5j8lhe5ype7n2pg3mqaekct7cn8npykh5zsq8rp2l8tsq4nc2az60psn3we9aszlsh0exd65sqls4ur"],"fee":190317,"totalOutput":52014440,"tokens":[]}],"totalItems":56450829,"totalPages":2822542,"currentPage":0}