{"data":[{"txId":57374555,"txHash":"830b9a74fc884632b00abcc3274c6de79d0fa6976faf98c8c9c67fdb1aaf8b55","txTime":"2022/12/14 15:31:49","block":8139104,"epoch":381,"slotNo":79465618,"epochSlotNo":236818,"stakeKey":"stake1u8pky96qujka083v4v7w8yznqwg9dzp9an282pwlxg9lwhgesund7"},{"txId":57374514,"txHash":"1975ab4e192bc696a3c82b9da36a75c6ed3646def8984a5ec673b8bd2baef5fb","txTime":"2022/12/14 15:31:04","block":8139098,"epoch":381,"slotNo":79465573,"epochSlotNo":236773,"stakeKey":"stake1u9stwverp9zg4lql5yy805jvww58ju555w2956cq0j97ung3z8tg8"},{"txId":57374506,"txHash":"4f2ed3e4ac64e2ffd266789b97c046f2563765664235870d623c76e065eb8215","txTime":"2022/12/14 15:31:04","block":8139098,"epoch":381,"slotNo":79465573,"epochSlotNo":236773,"stakeKey":"stake1ux6fehq0qhnrvmtft9h2xhqsagtpmc6c8rzqgzxpvmpze2qfmadv8"},{"txId":57374041,"txHash":"0692d7b6f416776ddb39197896d91a2ec0c8f7c290d409ecdf3c920aadd27324","txTime":"2022/12/14 15:22:47","block":8139077,"epoch":381,"slotNo":79465076,"epochSlotNo":236276,"stakeKey":"stake1u8sxdvkzxr52q928q990990kdes6cgggm2vefdc7l4qnpuq9uwjy7"},{"txId":57374026,"txHash":"7bca83e9206b0b122f2e74c268aae0756fd23e3c505f321debf015038c1f8220","txTime":"2022/12/14 15:22:41","block":8139076,"epoch":381,"slotNo":79465070,"epochSlotNo":236270,"stakeKey":"stake1uxzr5aq9ckkcck50898phz5y65wyst6jeq7e95vyes5u3ls687m20"},{"txId":57373981,"txHash":"14f7430fbe4ac5bc6efde286506313e765b3272a32ee9a3bed45a8db4c04cbb4","txTime":"2022/12/14 15:22:08","block":8139074,"epoch":381,"slotNo":79465037,"epochSlotNo":236237,"stakeKey":"stake1uxzssml6729j3anrl7nzpx8uxvc936k3lzddevf4rfu84agqmvrzy"},{"txId":57373730,"txHash":"d11155ccf69a550e1a942a7f6fe8a984da82004acebcae30adf55a32c0546cc3","txTime":"2022/12/14 15:16:15","block":8139053,"epoch":381,"slotNo":79464684,"epochSlotNo":235884,"stakeKey":"stake1u9h45hgj7xrqgk3z69gyt2w9y2kasarnlmqtm2k93dyrr4cvq55nc"},{"txId":57373642,"txHash":"6d3eddb6f3173bb967f8afbf3130688c5209e34655c514e566f049c18d39a835","txTime":"2022/12/14 15:15:01","block":8139049,"epoch":381,"slotNo":79464610,"epochSlotNo":235810,"stakeKey":"stake1u9nnh34awfjl4auuj9mqak3mwqczf63znzwhej74dzxvqpcjwg24s"},{"txId":57373436,"txHash":"fdfcaa4dedd668564a726e7870c543a7e13f6b6463b086071cbf164c94c56798","txTime":"2022/12/14 15:10:52","block":8139040,"epoch":381,"slotNo":79464361,"epochSlotNo":235561,"stakeKey":"stake1u8y74zz9pdmap8nkgl9vw6kc4lttmfzj4n02pf0p052er7sclddk5"},{"txId":57373314,"txHash":"8cf26ebb1b50d74001f44a4f67a30e9337b5ac5c9a9bf75cf7098ca6952dc0f2","txTime":"2022/12/14 15:08:20","block":8139032,"epoch":381,"slotNo":79464209,"epochSlotNo":235409,"stakeKey":"stake1ux0s2utmshe0uax2y5da69ppfsun9u6gnfax8jeeaxzywag6nf2tu"},{"txId":57348496,"txHash":"5bc1b6ca93eec29603255799d6d403e0ceb90a9c914177ad0750848ae77791ae","txTime":"2022/12/14 14:50:46","block":8138981,"epoch":381,"slotNo":79463155,"epochSlotNo":234355,"stakeKey":"stake1u833c9tlmja6ye4wap9f46ftyzzpspxzs3hsqpx090fhcnsnt9mag"},{"txId":57347822,"txHash":"3b5ba0c59a48c6ce79c7ff7f74eca25f51e7fa79fb88abd95152510014bd6c59","txTime":"2022/12/14 14:38:30","block":8138939,"epoch":381,"slotNo":79462419,"epochSlotNo":233619,"stakeKey":"stake1uyv0lsma0shkq6f48k8ql7u2uzrhdf2xc2xsp8uxglnrwng560j4z"},{"txId":57347591,"txHash":"dc5141c8ae2bf9b0f0d4dda2c1e98dc47bda7ccb6a6ad1b1376bf0ab6c36c10a","txTime":"2022/12/14 14:34:44","block":8138920,"epoch":381,"slotNo":79462193,"epochSlotNo":233393,"stakeKey":"stake1ux40kyts9ckly79z92szuvuj7msjrgkrhp0dlwlm9zy2shqrw6jwh"},{"txId":57347588,"txHash":"818cbc221c116b30688f7a7c3add5da8fd2efead7f350443bcde988c21a1a635","txTime":"2022/12/14 14:34:44","block":8138920,"epoch":381,"slotNo":79462193,"epochSlotNo":233393,"stakeKey":"stake1uxk70z8ytp76v53xs7qj9vg2hgfdtf5eaxlujl4xn8kwuscz8y4d4"},{"txId":57347093,"txHash":"c55e54cb1a7bdb950b5833f59452e2bdde2af0180e8dbb2fe726649283d54f04","txTime":"2022/12/14 14:26:49","block":8138892,"epoch":381,"slotNo":79461718,"epochSlotNo":232918,"stakeKey":"stake1u8kcjn334rwtauzu37gwa6ez3asyttvu67c2j4ya5evsnlqxatrzx"},{"txId":57346751,"txHash":"1dd16577f848b32df21ff125367fd88fcd6768742ba9ba2495e358c0633a797e","txTime":"2022/12/14 14:20:40","block":8138877,"epoch":381,"slotNo":79461349,"epochSlotNo":232549,"stakeKey":"stake1uy6lady7mg5d3fdcupch3xe6ee0vsk2qgcd9050ray9dlucuvu0n0"},{"txId":57346621,"txHash":"ce02ca15ffb3e3c9d5cf7273ef3597fa4cc3626496afc2b13da4fb1f05fcb4d4","txTime":"2022/12/14 14:19:08","block":8138872,"epoch":381,"slotNo":79461257,"epochSlotNo":232457,"stakeKey":"stake1u8yp55xr5tgl0ud8d5jav7khl9cncv9e0f4k84mj4epw4us7l2sc3"},{"txId":57345978,"txHash":"305b95d8c5c976db2048b2cfc84aee2c801ca629c90f33a35515e61520b5c9fa","txTime":"2022/12/14 14:09:13","block":8138842,"epoch":381,"slotNo":79460662,"epochSlotNo":231862,"stakeKey":"stake1uxgfy4nfvdw6hp40ggcn7wu3m8xezpgp0d8nvpp43tqaz0qetqgqq"},{"txId":57344871,"txHash":"e6ae6775533436f5fc95ea92379d4d80e956da9dd4d12d17207c64d698101cca","txTime":"2022/12/14 13:52:05","block":8138782,"epoch":381,"slotNo":79459634,"epochSlotNo":230834,"stakeKey":"stake1uygdzv60sznq0g2u0d74ap7pcl99z4rxma85swcgcczrkqqrttftc"},{"txId":57344855,"txHash":"574bc013d5400c36e80417c24c57d9a9edd3c28010d4732c663eadffd26809e6","txTime":"2022/12/14 13:51:37","block":8138780,"epoch":381,"slotNo":79459606,"epochSlotNo":230806,"stakeKey":"stake1uyfqakxgsgwgxvq0cfrqdgerrm65yxnmlrljs07zvzx5d6gv3wnfk"}],"totalItems":336883,"totalPages":16845,"currentPage":0}