{"data":[{"hash":"990a95633fa4ee6661b9deef16783b8db5a922583bb7e26b74902f5e51ef5ac7","blockNo":8263794,"blockHash":"b4ae0723a38835e4b74efadbd55bbc9650d440f5169dd78cd8186765b4b581d6","epochNo":387,"epochSlotNo":207076,"slot":82027876,"time":"2023/01/13 07:16:07","addressesInput":["DdzFFzCqrhsg8312ijphreTT6NYAjzqi5XctMQVhC71qq5rBFdnDrEqjpTTMKZhBpFpiq397e9R6KyMnPa376uzZCxguMSTzpJLTeutn","DdzFFzCqrhsxhdNeuH9qXx7WDxNALVd69VoykwpGwDRZ2tn2j4Dv3mpJ9pA1V8GJ8fdwgvTXDBBpNReNC2opML2JvARKM5VLTbPrNWgN","DdzFFzCqrht4cn3R7jhxtrnpfWJ4bswQQSEmsGCf1QvgCyMcwCh3VZDoLmNyMHtPEY9BoihG33KVNmeLmtB38S4mJ4ECRuTWAHNYQU8G","DdzFFzCqrhtBaB8AXMe5nzxuHUh9qxCVQphcgzrRutT4qRWXM8DwfjJkUZ9Eadz1QaPwPSL2th9ms2xzFS2qxU1dAKEuC7ma91VCy3rQ","DdzFFzCqrhsyFxFxycfjNPQWs3ADm8QMxXiGvAXSKPWvCALJrVr3xvegnC9uTaThrT1MnAy6rArSPyZffRE3y18FiR5JAoqQAkrpWqg5","DdzFFzCqrht2hhhjWXMqesmyiiqUbDRvVihNoSwdNzvDHN7LxvMHsiGCGCuRBvQXmWT3FbE5aUWbmreAKoX7uu4CDnK7XHZ1vbYY6Z45","DdzFFzCqrhtDDXaNY8hnprux2u4CeP6w7mnswaowfwYnwGYe1g6B9SscQHHP12FUpa8SmLaCbhLWZyruo5w2QP2NfD69U8kLrk5Jmfya","DdzFFzCqrht3kXhnRqQZGFY7Y5yR3a5V2jsKaztvib2Rp3wqo45Jgksb75nTumeBd5APnF5WFTbBhvsL4MqD6mtaEqTgPAaaoKa19R8n","DdzFFzCqrhsh3m24XkPp9jzoCMTAMpPqhs3ZQFsYhDkJCmvx2kWfio5PTrkdS5MbKLqXLgFzh71QrGtk1NZibNMGSvrLAxmgizpkN5c3","DdzFFzCqrhtCugV4KdVV7eR8s8DSFyxuo1CvTwW8TnUNawu2a2rtZ8cn3p8Me2AF5EpPZ6mSNCYE7hWpRh9j1K9eUKJ2jtV3j3b1WBvC","DdzFFzCqrht8mHghy7AEkvHEbj6n5Z2LGEBBwi5ajvMVPqDf2ifS2CPu84xuyG39eH5u1x2Zx6GYfdKXqrJt6vb4EC8xHDG999f2Nt97","DdzFFzCqrhsjiKkXSoDr8dU33h6hA9oSLU4EkLvgJRVnVEctkyFNmrd5SmxsGcdehKCdoYF3MxCDviWJyxBrrEdHVEgR58zTRU7Sqt9S","DdzFFzCqrhsdroLX2p82eKNQAvMHwLzBaUYM7Q5D4oHeAnEqXmhW3idSsHJXgSxenUNSgpiyVB6chdGHo5MVNTTCYd6tMfwPaAhk9np2","DdzFFzCqrht4UZAB8epayb8TAqD1MNFzkQdwYCmcHpywokqYBT5FedfXKo6XQeLZdvVsGjjEHr2h62RW543YkxB7M9zz6EnBsjdARCEE","DdzFFzCqrhsiecg45rQoupmcasB4qYCPmQDVYdXzzQms9c6SC7nUTe91nb9uDRVvwJWUPrHHJ6GCLEizoB9Wn4eW5Xm5ovWakg3naDit","DdzFFzCqrhspPay8qJ2oFHuWXrq8SRn6Wab9Kd8NLQvHCu4Rwm2uaRxDCsQejVCfSP7i6HsKufMxgACBW4gcw4zaL7KSGMettB86dW4q","DdzFFzCqrhsg8312ijphreTT6NYAjzqi5XctMQVhC71qq5rBFdnDrEqjpTTMKZhBpFpiq397e9R6KyMnPa376uzZCxguMSTzpJLTeutn","DdzFFzCqrht3kXhnRqQZGFY7Y5yR3a5V2jsKaztvib2Rp3wqo45Jgksb75nTumeBd5APnF5WFTbBhvsL4MqD6mtaEqTgPAaaoKa19R8n","DdzFFzCqrhswU2ud6aC9sZbaLF3hwSTpfH6ftcGan9QJnWHERDn2cf9vvLTEawRVucMbc3tyjN1m4k7qdy1fURJ2EY8X9zFHgRE7FUkd"],"addressesOutput":["addr1q9atjfpqwdtg7ytz0pz9zcaqvx8zr2uv6ysvc4csqynr683dzefudzxhadht99nh8gv4l3z93d486ygllgxuh2drrrpsdw6fws","DdzFFzCqrht72GciRmeY8QBGQsR4o6zFdgyHgDKku8ysGLrf9GYUwXQEFuKxPsWNVttGTGHgnZvZ8VFXHNPqiazKCWAZxn5iChC6Pmcy","DdzFFzCqrhsrq2YtJDZoooGsA1ys4P2TFKyrY3ncw2Bk9dR4UzMyx4Ni2buikft2iR9z5LJ4gVZe8W5pGJAqWVeS49Qynm7fPPEX7H55","DdzFFzCqrht17N5QqQpfTKMBvTyt6Kgj3dWRFz6VjSNZdLsheYpP3Nq3r1kBk56h3Jgs1FaR5BS9ddjJuG5WGTgqwwRritC6U9NvVftA","DdzFFzCqrhsg7dfsUH43VMnpBQp42QCxfCEc15GgxK4f6Xo6fn5E9Nn9XYkzy2FT3FgYn4kZN7BFTY49DACrRJBoBzYh11ZmS4trDb9k"],"fee":1089281,"totalOutput":52524111889,"tokens":[]},{"hash":"aad31daf413cbf26a35649c4e7b851b90c931296f05c478d876fc0be2ab9bfc1","blockNo":8263663,"blockHash":"1992c20f093487728a1b388f744cfc7bdb71fdbffa50a5008b8e6592fefd9807","epochNo":387,"epochSlotNo":204084,"slot":82024884,"time":"2023/01/13 06:26:15","addressesInput":["addr1q8awq9hnm0g54mmmnaqvuqvqvpdau7jgcsvjne3xkn8pe8rtfwww90n8hqpztgvk3uf8vu3pcs9s4ca27murgrfrk23qjw2dsj","addr1qynqkps2fme5kyg9llfr2uq2umadh7vylpsxlfjjt5lhqettfwww90n8hqpztgvk3uf8vu3pcs9s4ca27murgrfrk23qhgl6nx"],"addressesOutput":["addr1q907h4egsf8ff6t0z4tzy58z4tqvwp73dtupvms6x30wnzrlqwua4mhfluw3myclgrdqzl9gc4k0n62xqz8fmwh8z7wq75xv7m","addr1q805lqda0j45sgcthkewf3k4krc67rx2lpsalpueshn85sttfwww90n8hqpztgvk3uf8vu3pcs9s4ca27murgrfrk23q24w5fj"],"fee":353205,"totalOutput":121743169,"tokens":[]},{"hash":"5a44a662412bf7b9b1eedc6bf50979ec4aea51f8fecf29fbbd736d06c5cb9aa0","blockNo":8263578,"blockHash":"8026e1ebacfc975e994b704fe8417fdb35ed63a08ea97e059869c315a6645004","epochNo":387,"epochSlotNo":202262,"slot":82023062,"time":"2023/01/13 05:55:53","addressesInput":["DdzFFzCqrhsoyyALwa9MgEKe821wgZUZQi2kvtBPRtzuaWyTySfL66PgQcjmkRfpnDxyD9hBTwnKvDCfDbHHRfuQWMXieSd3M7PbJBNE","DdzFFzCqrhsjLvNvoQAU3YCy9X4mvuWh3PJyn6scfqTprLNS3nrvWcwBA7kRAL4aSjsrDAXzMNfNi4NR84JD79eoGggeco91gEf2aDnc","DdzFFzCqrht4cr4WfgBfhx15k7aNBdzmay8mKUTYkWBjNLAB9DC75eiiHRvs8CVjHePr8oZYrVMqUkSFiiUy7xiNqieGJaas1z7hYfkm"],"addressesOutput":["addr1q9atjfpqwdtg7ytz0pz9zcaqvx8zr2uv6ysvc4csqynr683dzefudzxhadht99nh8gv4l3z93d486ygllgxuh2drrrpsdw6fws","DdzFFzCqrhsh3m24XkPp9jzoCMTAMpPqhs3ZQFsYhDkJCmvx2kWfio5PTrkdS5MbKLqXLgFzh71QrGtk1NZibNMGSvrLAxmgizpkN5c3","DdzFFzCqrht8mHghy7AEkvHEbj6n5Z2LGEBBwi5ajvMVPqDf2ifS2CPu84xuyG39eH5u1x2Zx6GYfdKXqrJt6vb4EC8xHDG999f2Nt97","DdzFFzCqrht4cn3R7jhxtrnpfWJ4bswQQSEmsGCf1QvgCyMcwCh3VZDoLmNyMHtPEY9BoihG33KVNmeLmtB38S4mJ4ECRuTWAHNYQU8G","DdzFFzCqrhsw2zZZrNxjpB9DjpuWwYVrVFBYRZibfshMTwfHdYUDn8nx1DCQ5CU4iNLEQatahYPgFs8uBPNxMEw68Jea6PkK7hm7VPzE"],"fee":934401,"totalOutput":51671829331,"tokens":[]},{"hash":"e43630a28e2d107594b3d0608c373cfc414c0ec8ee12a09e61d4082aec4527ba","blockNo":8263554,"blockHash":"105323c87a2d784c965fdb7c8fcaeef210d9abff4ea0429ca93fd3a7241f0fcb","epochNo":387,"epochSlotNo":201888,"slot":82022688,"time":"2023/01/13 05:49:39","addressesInput":["DdzFFzCqrht2hhhjWXMqesmyiiqUbDRvVihNoSwdNzvDHN7LxvMHsiGCGCuRBvQXmWT3FbE5aUWbmreAKoX7uu4CDnK7XHZ1vbYY6Z45","DdzFFzCqrhspG5bsCnA6h9WAvQLFkUfyPT8ckZjJaCgDcmEWmN8fyeHmoD4mnPKjZiVbAdPEubxz6YRZMhp5Svw3DcQryWDLcm2AeVNa","DdzFFzCqrht9gi9Hi8QgPajn4eFwdNcWn4kdLK4A28h2UnFTgYoeDboQPVPq9PyHpRQQUVVxHZEFLEGTcNeVvjiByVq9WGKZvxaASFCs","DdzFFzCqrht7DWG4zZpbqSKb9AsV8BHEaXqC4fHdmtDZFSiJKAnjTeKfFGAHXJFHqGokZLsKCWS68QpMnXvYyGvVfZF4D6CNA6TUbfs2","DdzFFzCqrhsekbVRTkAno9jijJNqaHFJ73mumocjRABEUJqHcPXNHen4iHPnF4dRwPeHQzQfhvVKQDzrmga2SHzmiHpRtgru3cNWdN6B","DdzFFzCqrhtBiGjgNkrdmm5jZVRmfnnNdz99xrkDyGZs276MMXQcvDCLctboJLP3aWPR5cKu3nznvfwMgRaspXAddYXVbCRVFVcgVp5a","DdzFFzCqrhsdzK42MpiYLrWq4RcVTktQvBLy44xqqfUNDCQmY5mdyZ4Rrk9mb41wQD84G41uUWBfdgN6cEN692v4xFfKn2UNqejQ5Ur1","DdzFFzCqrhtA63kYJrwm7AqQAouwVzi2GMHvTJjUV4kxMT3EJuNiNSSrg5Qfw4kBBondc7eEAKCAEMdgnuYDHWAVvh2y5pAmqn9kArcu","DdzFFzCqrhsogSCeEp13hFZkebvAJV3znGWxyy1fFJ9k51wmoGH9xbqRvzm4jd1iaKxeTWXZcmu83AnuPJnz3xg1LsrkLVZxLYHQHhEK","DdzFFzCqrht5Ya8nRqH9TJbdbPd2hDx7ghodp7db5UHxnQuMXPndU6Ro8xHKVRn1Kf3yrTSCRsR2XptaReDHBWMViNUMa13MPWHrsakx","DdzFFzCqrhsog5BiDPaXwRiddb4gCk7xfCjFGUWpHwXfUyCbAdxJZuumpvmYCPz8o2bFQoYZ4gAsP6dMr5oNRPRjPoupKPM8wWCKC6vx","DdzFFzCqrhsgJBM1X2JVEvTeoxswsCbiZjgzME52udCEyvaVgyADy1ELkZsXAJP9eBuAkeWK9PrmMhkVGjX1iKikUtH1oPkK1tpgJifH","DdzFFzCqrhsh5RLgridtfZFq6PLjy2y2f3JRvATcctTFJMwJ6ZKTF6aRiUHiUJqZujinHkAQkgqvyLhaTXdJHv6wnyMo46LvFYamL88t","DdzFFzCqrhsmT8BeJMtTcjTDykde1KjgkQ1Qs3XoTrW7tqzjan8MB4KPzGH9xQdPrvH5Ah84nVbysXyi2LAtBYfsAkryhFnGvGErGsao","DdzFFzCqrhsjdr4buAXLbcdY9dpB6fdy1ms146LbyDapRrqCFLX1MS2gs3KfSHDLdhpgX7X1ZyPQ44GxHQKQ3yjnLgmkaGnh7wkza6TH","DdzFFzCqrhswXjpqLxeb8RAMtGpnFDLcDz6Xn5b7ufBFiv8RfdB6RdpXfPrP2UT4jHkyNWk3FbB44qD3b1xQX4fpprWNCqCiPPfgrNxB","DdzFFzCqrht6iJcetRfQYhQH37J8NokNYNw1UQeXM2puJJS98QAjxSnzkWxZ5FLhC11NhcsRd4FVndSXZJqQjYsr5ch3rFU7WHSDi5UW","DdzFFzCqrhseT6mfwhnf9YmNTXAA4KxUzcKBjHtP1e5v6FYMEkpKEd3q4mYnVMPuPB8hw99HPmSwrYyqz14JsekUY4rNCBRdmHywWb8L","DdzFFzCqrht2UVMqSjBmddyZdrV7VTnPQbSM8YyxZnLbL8Q1dFHGJVMLCQaYF6ua9NXe458Bf9NriUfXCZPHut6xy3PxwTbLb8zAkB7q","DdzFFzCqrht9Ht5WRSGNXHDtZUpoWYDPwZeD7V8wpHchawb5ZtjyDnFmxKYMPvr1u8j2LUyszuwbna2pkXwuMUn3Cy2LpqemwFYkNvyU","DdzFFzCqrhssQXo6QkW6W6suVrU1RHchbEasfy3FtinZNE1upDqp9uXZucSu8bZyTmvkZ2zdJwEhx9RNbQqf7spv1yj2orPVhR9Wfsh7","DdzFFzCqrhsf9cMYuEMFyrwKdmwWvEXGGS5juYKFi77MpgBxK68WGT1Rpj6bBPPUTBnwdRs3kgv6UjsVCibxgEB5hr1rhbghWQyti8iC","DdzFFzCqrhsiCj9HEsu8Jzuo8t78rB7Ju8229Eh7FCqsMZxHkzacNLvX2oQ4prUbLwN1m9CLZgJXcusFi73yM6Vqbm7af88RGJUEEF1C","DdzFFzCqrht6e56E2ekNxTUhPZjKc4D1nboftm5R4UgbNaeANgBJXw6C5Wghf1MKG9vLWKiH1P6zP96A3L3t9LxDWZfP9cxyhMAtRajY","DdzFFzCqrht2EVHjaxtCMbT7kfoYf9RzX88U6XEEEwea42qQWctt9WyM6tLAKX5RR3s4gvJ82Khhhs1yuQFfZUBwYtnuNDEUsmQJ4GnL","DdzFFzCqrhsqKGEnaDmbGLSJjLENRa2NWCRc5gj2MkT3vevZabwyU2WsWZfChJEzbhgzc9urhv4DfAgfy5j8EXsnuWWPXmuGvBuRyMTK","DdzFFzCqrhtC7Pkb7ocMinRXrJbbJ4R41AZ4A9jrLChiMuru2LCoCUKXaAHFySckdAVDDkRoMHWFiGibaNAZWYmfCTcbwCUfgc6nvJtt","DdzFFzCqrht5ybquskeA4T9eKmhATjcV4P2cyGF9L7BgZxrpbQqDzCbF4ukuUZpVFQwJ1wK1vijjarJJrcbs13R7XySNrqRdyeHgdPTX","DdzFFzCqrhtCkTZ7CU8B8ziUsgwPdymJcpqYDsDizsUVcBEiiiG6KpSZUQ6wYHiZtmeu6QdisRpAx3xuosCL2aK7w2ZjnTravoERtv2S"],"addressesOutput":["addr1q9atjfpqwdtg7ytz0pz9zcaqvx8zr2uv6ysvc4csqynr683dzefudzxhadht99nh8gv4l3z93d486ygllgxuh2drrrpsdw6fws","DdzFFzCqrht4cr4WfgBfhx15k7aNBdzmay8mKUTYkWBjNLAB9DC75eiiHRvs8CVjHePr8oZYrVMqUkSFiiUy7xiNqieGJaas1z7hYfkm","DdzFFzCqrhsjLvNvoQAU3YCy9X4mvuWh3PJyn6scfqTprLNS3nrvWcwBA7kRAL4aSjsrDAXzMNfNi4NR84JD79eoGggeco91gEf2aDnc"],"fee":999653,"totalOutput":94147025456,"tokens":[]},{"hash":"154b41244b39b5454d7dfa05c6b68d67d8990ff5d8275da43c1c0d37804893c0","blockNo":8263523,"blockHash":"5cd56fe275ec45c612e7dc44c53b5ecefe89f1a68848281188b671e995b28b22","epochNo":387,"epochSlotNo":201209,"slot":82022009,"time":"2023/01/13 05:38:20","addressesInput":["addr1q9vj9w32w77p47ca725hantcf5nrzcex66vqq58kqm4l04y6hn99676mvdj6qvd34vfqh3jx6vy8tyfkuy6u3xcghq8sex2gzq","addr1q9vj9w32w77p47ca725hantcf5nrzcex66vqq58kqm4l04y6hn99676mvdj6qvd34vfqh3jx6vy8tyfkuy6u3xcghq8sex2gzq"],"addressesOutput":["addr1zxgx3far7qygq0k6epa0zcvcvrevmn0ypsnfsue94nsn3tvpw288a4x0xf8pxgcntelxmyclq83s0ykeehchz2wtspks905plm","addr1q9vj9w32w77p47ca725hantcf5nrzcex66vqq58kqm4l04y6hn99676mvdj6qvd34vfqh3jx6vy8tyfkuy6u3xcghq8sex2gzq","addr1q9vj9w32w77p47ca725hantcf5nrzcex66vqq58kqm4l04y6hn99676mvdj6qvd34vfqh3jx6vy8tyfkuy6u3xcghq8sex2gzq"],"fee":301021,"totalOutput":12702324,"tokens":[]},{"hash":"0704fd8e120a835ced12c5d49ead147e7b467c129766442c7c8b0d7794e54649","blockNo":8263449,"blockHash":"30970d7016936eac978faa63b55fff6f42112113fa0d4f9c8b803d0f405f0d19","epochNo":387,"epochSlotNo":199844,"slot":82020644,"time":"2023/01/13 05:15:35","addressesInput":["addr1q9vj9w32w77p47ca725hantcf5nrzcex66vqq58kqm4l04y6hn99676mvdj6qvd34vfqh3jx6vy8tyfkuy6u3xcghq8sex2gzq","addr1q9vj9w32w77p47ca725hantcf5nrzcex66vqq58kqm4l04y6hn99676mvdj6qvd34vfqh3jx6vy8tyfkuy6u3xcghq8sex2gzq","addr1q9vj9w32w77p47ca725hantcf5nrzcex66vqq58kqm4l04y6hn99676mvdj6qvd34vfqh3jx6vy8tyfkuy6u3xcghq8sex2gzq"],"addressesOutput":["addr1zxgx3far7qygq0k6epa0zcvcvrevmn0ypsnfsue94nsn3tvpw288a4x0xf8pxgcntelxmyclq83s0ykeehchz2wtspks905plm","addr1q9vj9w32w77p47ca725hantcf5nrzcex66vqq58kqm4l04y6hn99676mvdj6qvd34vfqh3jx6vy8tyfkuy6u3xcghq8sex2gzq","addr1q9vj9w32w77p47ca725hantcf5nrzcex66vqq58kqm4l04y6hn99676mvdj6qvd34vfqh3jx6vy8tyfkuy6u3xcghq8sex2gzq"],"fee":310041,"totalOutput":78003345,"tokens":[]},{"hash":"eeba162b4fdf7dbe520b6f8e39914daede13e5f936ab76393a103f5abc771d57","blockNo":8263259,"blockHash":"5f3fb8c0ec3c7c3e85fec66b645491b4941e391751855563146ad16f38c0dd5c","epochNo":387,"epochSlotNo":195830,"slot":82016630,"time":"2023/01/13 04:08:41","addressesInput":["addr1q9vj9w32w77p47ca725hantcf5nrzcex66vqq58kqm4l04y6hn99676mvdj6qvd34vfqh3jx6vy8tyfkuy6u3xcghq8sex2gzq","addr1q9vj9w32w77p47ca725hantcf5nrzcex66vqq58kqm4l04y6hn99676mvdj6qvd34vfqh3jx6vy8tyfkuy6u3xcghq8sex2gzq","addr1q9vj9w32w77p47ca725hantcf5nrzcex66vqq58kqm4l04y6hn99676mvdj6qvd34vfqh3jx6vy8tyfkuy6u3xcghq8sex2gzq"],"addressesOutput":["addr1zxgx3far7qygq0k6epa0zcvcvrevmn0ypsnfsue94nsn3tvpw288a4x0xf8pxgcntelxmyclq83s0ykeehchz2wtspks905plm","addr1q9vj9w32w77p47ca725hantcf5nrzcex66vqq58kqm4l04y6hn99676mvdj6qvd34vfqh3jx6vy8tyfkuy6u3xcghq8sex2gzq","addr1q9vj9w32w77p47ca725hantcf5nrzcex66vqq58kqm4l04y6hn99676mvdj6qvd34vfqh3jx6vy8tyfkuy6u3xcghq8sex2gzq"],"fee":309513,"totalOutput":78576547,"tokens":[]},{"hash":"6d289ac1c6cd028d9e1affc8aad7f1e393a39d686681eb94d5b576186da9cdd2","blockNo":8263248,"blockHash":"d5dc2ee433786a14296cb7db77965807cf9d5b2508e58711584729421f5b065f","epochNo":387,"epochSlotNo":195568,"slot":82016368,"time":"2023/01/13 04:04:19","addressesInput":["addr1q9vj9w32w77p47ca725hantcf5nrzcex66vqq58kqm4l04y6hn99676mvdj6qvd34vfqh3jx6vy8tyfkuy6u3xcghq8sex2gzq","addr1q9vj9w32w77p47ca725hantcf5nrzcex66vqq58kqm4l04y6hn99676mvdj6qvd34vfqh3jx6vy8tyfkuy6u3xcghq8sex2gzq","addr1zxgx3far7qygq0k6epa0zcvcvrevmn0ypsnfsue94nsn3tvpw288a4x0xf8pxgcntelxmyclq83s0ykeehchz2wtspks905plm"],"addressesOutput":["addr1q9vj9w32w77p47ca725hantcf5nrzcex66vqq58kqm4l04y6hn99676mvdj6qvd34vfqh3jx6vy8tyfkuy6u3xcghq8sex2gzq","addr1q9vj9w32w77p47ca725hantcf5nrzcex66vqq58kqm4l04y6hn99676mvdj6qvd34vfqh3jx6vy8tyfkuy6u3xcghq8sex2gzq","addr1q9vj9w32w77p47ca725hantcf5nrzcex66vqq58kqm4l04y6hn99676mvdj6qvd34vfqh3jx6vy8tyfkuy6u3xcghq8sex2gzq"],"fee":440521,"totalOutput":78886060,"tokens":[]},{"hash":"fa8d1a94b5186df680ed00d052530b6202c6804255f68fca7345cfa2693617a3","blockNo":8263198,"blockHash":"6581427d521e4b639e2b63679e49afa419c53a3caef80420d69dd402bc984857","epochNo":387,"epochSlotNo":194424,"slot":82015224,"time":"2023/01/13 03:45:15","addressesInput":["addr1q9vj9w32w77p47ca725hantcf5nrzcex66vqq58kqm4l04y6hn99676mvdj6qvd34vfqh3jx6vy8tyfkuy6u3xcghq8sex2gzq","addr1q9vj9w32w77p47ca725hantcf5nrzcex66vqq58kqm4l04y6hn99676mvdj6qvd34vfqh3jx6vy8tyfkuy6u3xcghq8sex2gzq","addr1q9vj9w32w77p47ca725hantcf5nrzcex66vqq58kqm4l04y6hn99676mvdj6qvd34vfqh3jx6vy8tyfkuy6u3xcghq8sex2gzq"],"addressesOutput":["addr1zxgx3far7qygq0k6epa0zcvcvrevmn0ypsnfsue94nsn3tvpw288a4x0xf8pxgcntelxmyclq83s0ykeehchz2wtspks905plm","addr1q9vj9w32w77p47ca725hantcf5nrzcex66vqq58kqm4l04y6hn99676mvdj6qvd34vfqh3jx6vy8tyfkuy6u3xcghq8sex2gzq","addr1q9vj9w32w77p47ca725hantcf5nrzcex66vqq58kqm4l04y6hn99676mvdj6qvd34vfqh3jx6vy8tyfkuy6u3xcghq8sex2gzq"],"fee":308941,"totalOutput":79326581,"tokens":[]},{"hash":"7b751cec2a6ae30de1e6a927cc3819b6ab482169a87c1aecdbb24b38be984762","blockNo":8263105,"blockHash":"50a6c236bad4aa9d0012e92e6e7c9d48de25fd5ea8ab8b14210ab9c4d04cc071","epochNo":387,"epochSlotNo":192526,"slot":82013326,"time":"2023/01/13 03:13:37","addressesInput":["addr1q9vj9w32w77p47ca725hantcf5nrzcex66vqq58kqm4l04y6hn99676mvdj6qvd34vfqh3jx6vy8tyfkuy6u3xcghq8sex2gzq","addr1q9vj9w32w77p47ca725hantcf5nrzcex66vqq58kqm4l04y6hn99676mvdj6qvd34vfqh3jx6vy8tyfkuy6u3xcghq8sex2gzq","addr1q9vj9w32w77p47ca725hantcf5nrzcex66vqq58kqm4l04y6hn99676mvdj6qvd34vfqh3jx6vy8tyfkuy6u3xcghq8sex2gzq","addr1q9vj9w32w77p47ca725hantcf5nrzcex66vqq58kqm4l04y6hn99676mvdj6qvd34vfqh3jx6vy8tyfkuy6u3xcghq8sex2gzq","addr1q9vj9w32w77p47ca725hantcf5nrzcex66vqq58kqm4l04y6hn99676mvdj6qvd34vfqh3jx6vy8tyfkuy6u3xcghq8sex2gzq","addr1q9vj9w32w77p47ca725hantcf5nrzcex66vqq58kqm4l04y6hn99676mvdj6qvd34vfqh3jx6vy8tyfkuy6u3xcghq8sex2gzq","addr1q9vj9w32w77p47ca725hantcf5nrzcex66vqq58kqm4l04y6hn99676mvdj6qvd34vfqh3jx6vy8tyfkuy6u3xcghq8sex2gzq"],"addressesOutput":["addr1zxgx3far7qygq0k6epa0zcvcvrevmn0ypsnfsue94nsn3tvpw288a4x0xf8pxgcntelxmyclq83s0ykeehchz2wtspks905plm","addr1q9vj9w32w77p47ca725hantcf5nrzcex66vqq58kqm4l04y6hn99676mvdj6qvd34vfqh3jx6vy8tyfkuy6u3xcghq8sex2gzq","addr1q9vj9w32w77p47ca725hantcf5nrzcex66vqq58kqm4l04y6hn99676mvdj6qvd34vfqh3jx6vy8tyfkuy6u3xcghq8sex2gzq"],"fee":315849,"totalOutput":79898683,"tokens":[]},{"hash":"2e8e9344f189cce7d63600f8ead2956039e3f11664354cfb8b7f960e6fe3d545","blockNo":8263095,"blockHash":"ad8cd2b26ddc15864c1394fb46a013bf10a162188c4314a259592d188adf3205","epochNo":387,"epochSlotNo":192304,"slot":82013104,"time":"2023/01/13 03:09:55","addressesInput":["DdzFFzCqrhse1mMYZFL95gAuQaYG1uPu7vtDqNCiabLjk6etTorVR7KCHjaGPFFwRDdjZdSxLYmnPPrLJg91njSyT6dcnasQgLc8ew11","DdzFFzCqrhshLXW3ffe9et1LCarVYo32EXnsu8FZrV2jAKeptxqExwzJp3CPK2f8tRtvd5ysZFy5McC5Bm6jbojULEU7WgjGt4gSoFKs","DdzFFzCqrhskm7aWrvNhiweAK5pBbLpUbgMAzFrTAabWkMS1372ALfU9qcruQonTz9NBsKQ7sE5nvGaZBTFj1KzxnUXEekmMvuE4887u","DdzFFzCqrhssNarezaKWV5H6GVfdHySVfw6RxrspuM6n3fJHptioPZ9n4aw1353bBiXJoaUYazEzzT3MzWbqK16dMA4JjZoBpkcMGapf","DdzFFzCqrhsu4SZmzaRLR1vdfGKCzCZT2Lh1UQXmkiwNj1vh4VbzJ5TNrKpu6RrEzMsp1hg4MFKksJ3vJ7iKS1dnvMtPMxyqudAYQHd1","DdzFFzCqrhsoa4isqwXqpgTATELMWukhRKqyhWFf3UdEgu3igR5UnJrFrJTCziTcq99KhWEwFqrvXT6BARxWiyW3QcHeiSQf8K4PvPFG","DdzFFzCqrhsufntb5nPzXzzHQWvCnvTSs3bEXEmpJMxMLbDfE9kCP35oDmCTN7esxyNwNbkVT6Gt3ZMVYYWX6Afpuxeuz2sYxk4WeNwB","DdzFFzCqrhsmT8BeJMtTcjTDykde1KjgkQ1Qs3XoTrW7tqzjan8MB4KPzGH9xQdPrvH5Ah84nVbysXyi2LAtBYfsAkryhFnGvGErGsao","DdzFFzCqrhsufntb5nPzXzzHQWvCnvTSs3bEXEmpJMxMLbDfE9kCP35oDmCTN7esxyNwNbkVT6Gt3ZMVYYWX6Afpuxeuz2sYxk4WeNwB","DdzFFzCqrhswheS9ByebksRyQJd6rQPs1GdL7pHMQBsne8gbtMYFmJL8Yzi7BvfRV8UiCr8bUFnyJNFkB8wnnL9ChCtwfBzfJDXeV3Q9","DdzFFzCqrhtBVUGmJNPCXBHBmYnBP25gvhFVabBhiFN9BKhhBi3XgK6UJmFwbNsWqGAdmuzT5nFGycq5YgM82cKCPcUTdF3MsksNrNuo","DdzFFzCqrht5SwiSq2c5yTmgBZ9Y9UHw4Mwk4rs6cEquHLN1HmTegvadnrZ1gRPR1wYFv4E8gSYXMUQZhgdQGuMavr7mehtu23u9ys3K","DdzFFzCqrhsiAMvLCe8ezkCNiYNprfLNVYu32BF2g6pGLqaMsa6fc79KxhEccvUJfQWWNrrxaMmVZeUKGMpHeXdkHD37E3pSu4CpWXNZ","DdzFFzCqrhsxeYbBsEjTG5h7aKQoCd9cXkbN6QFpDy13aWAdeovJHsRcVeA39GDo2cj6nCmMqqe1R8X1ZuakNNkEnknLEDdQB4fPgG2A","DdzFFzCqrhsyubjKMCoszD9ZK7xJQ5wPbcMoUL9SGLwKkRS2Fnkug1UdouGV5Rquo7PSGh6qxoXo8Ummfz8GuDYYFEFVH3VGv7UeSuhW","DdzFFzCqrhshcadCXJXQSXsRbLqdQFoHbXcocDziRejT5U2v46MG5EvP9A5NxrwYTUmAWJwvpP8V6WAkqo4jEFm1AdZQvRQdhgi7qGm2","DdzFFzCqrhsm9VW5uFh6EZXc4M6CEToueBatAY5ddJF9gYUW7SEZ5emXYkDKaxSKNbcPzjg36AJiP9KGxza4h2HDzdbjrddtzeDaDQDN","DdzFFzCqrhtBKiPHitNkL6QtftkDgvsy6L3q5u51SuCKg7cfsbdt4fWYFP6B8b7bGKGTQCgH6R1nSGMprbub1cZKEFk5Kumui1cMQhj3"],"addressesOutput":["addr1q9atjfpqwdtg7ytz0pz9zcaqvx8zr2uv6ysvc4csqynr683dzefudzxhadht99nh8gv4l3z93d486ygllgxuh2drrrpsdw6fws","DdzFFzCqrht2UVMqSjBmddyZdrV7VTnPQbSM8YyxZnLbL8Q1dFHGJVMLCQaYF6ua9NXe458Bf9NriUfXCZPHut6xy3PxwTbLb8zAkB7q","DdzFFzCqrhssQXo6QkW6W6suVrU1RHchbEasfy3FtinZNE1upDqp9uXZucSu8bZyTmvkZ2zdJwEhx9RNbQqf7spv1yj2orPVhR9Wfsh7","DdzFFzCqrhswXjpqLxeb8RAMtGpnFDLcDz6Xn5b7ufBFiv8RfdB6RdpXfPrP2UT4jHkyNWk3FbB44qD3b1xQX4fpprWNCqCiPPfgrNxB","DdzFFzCqrhsuL24yBuvPo1ApXgWETBqTjuzwWazzTukp7ZVN76yjmThHRqtmwED5Qh8zbMt34Z4cqQ7BEr6tfCDsoowDtQ1HXoJKKCvJ"],"fee":1079601,"totalOutput":80074934439,"tokens":[]},{"hash":"be0343f03f4ff10b70a37e483c2954621eedc71adbe1a7fd571e336fb5144130","blockNo":8262725,"blockHash":"31df3a2dedc232da104936721168fccd63628d62e570afeb60c918ca3b92b197","epochNo":387,"epochSlotNo":184828,"slot":82005628,"time":"2023/01/13 01:05:19","addressesInput":["DdzFFzCqrhsei6EH3YZb936j96jvfqvMNdNcfzgZSLN9vdFjWuCPvg1WWi6j8U7dq4xfoj429CLmTsLTQys3RbdgxLcDQXTj1jdukw1Z","DdzFFzCqrhsjE7YrQmQjsE2bEXU2i9YeoJ73VpgHkuoWmMyGfed2qxrMtMMyZX5s21RTFu3n1Exfcw14LMJ6w7FiYwU7Q8jp1M3ma36U","DdzFFzCqrht4E8uYmrp3YErgJhc3gHtX4ruJvdACu3zM5HC89L2iMxjJF2mBTVdVSo7Dz41QHfTHRK2pBb8UhMt2uzA9pNseeZVDzt6h","DdzFFzCqrhsob8NAqc44oaDXjdq1ivnJ7UFhToKjgi8Us4dAmnnjLmw8TSknM8aRQkEk9azr1QYA6impxLkR5Hrbchn6erNDdnv9rxPH","DdzFFzCqrhtANV1Bz8SfKWaPrUPpzCqU4wwxV9rz8BfAJGqx83gBEK4ntqMGH5rYDVpmJdH7oZtwnmnpvr6QhfcuKDW1U1f7NxQypHsP","DdzFFzCqrhszMSTvAYXTgCjC4ComJ2iS4EYp2V1PMQxEDfUczjwjvdxkD8oqa6USkT98s4ZC4pVhvdKe5JdQ11z8ubHkF18Nw8Wi9TYv","DdzFFzCqrhsea3FtK3wkv3iYHdHiW96thW25gRFVWayp75QMnPQAXWbJNavh1NDTdGRuDanaoZrKnkgZpSLwHQVZNg2D6EoWEF25dGgN","DdzFFzCqrhsxqjmnUkcnmU1gGYjXqeqL7ejwohdje3SkKpbzEcQdNZf6ouHb1x8tjvh9eLcJzsiZ2pWzrzs7ddW46TpUKtYLGReQduWm","DdzFFzCqrhstbfTHKoyCh7E7dAXmkp4yY5nYQLU35TYjiReQkAe1uX7svA8zE9397LUiPofSVh6p7heLrarmPfLJpGagLxfhjFqbthfP","DdzFFzCqrhtBNNcbWbC3RMpAzt6mEsS3AmATpGvi8kpehLiQ95J3nzzoPRr7FLgewTEtAb8AVYH6zB1KAzabBbkSZXvE87XQDWiyQeG8","DdzFFzCqrhtAFnbRZLaWUAqUQCQeEXbXMDtNKahGpE83yXNmJyJucxUa67orAny2qDq4bAENZsnog9FJEgwf5pRVGtcmahNXG7dFHGph","DdzFFzCqrhsqNj6xx4huETrKmHUhyxjxP7mAgNjZacJuj76DdHBmjwT6pU68ozuxFGLrKAQXSQwbCMYVuf91cZPWAsBgNGw8EB14Fn2f","DdzFFzCqrht2ZCNzHRcG5Vyh1HwV5a6zEL7ScV4Vxuhrx7bU4a1hDerrfRGbSr7ChrTASP8JTfHvbwPxcBrdjA997i9o1h9nNjJFTNDt","DdzFFzCqrhspJcqDQ7bEnmfV2ddKgVQcGMnBXSjnc55UnTLgmFxvkzXpLYQAiLRyXSEhpgj65GxQ72rYD4gPqrCAZ385hos91EhgYoFd","DdzFFzCqrhshsc32TyW1PsDKfgJ5uCVpGhbDrLCxjeed3aKeS9NXeKfy842fgGFFzbDcCUxYiy9Lzr3wmPAkToSaHoFnK2XTPWbXqYZx"],"addressesOutput":["addr1q9atjfpqwdtg7ytz0pz9zcaqvx8zr2uv6ysvc4csqynr683dzefudzxhadht99nh8gv4l3z93d486ygllgxuh2drrrpsdw6fws","DdzFFzCqrhskm7aWrvNhiweAK5pBbLpUbgMAzFrTAabWkMS1372ALfU9qcruQonTz9NBsKQ7sE5nvGaZBTFj1KzxnUXEekmMvuE4887u","DdzFFzCqrhssNarezaKWV5H6GVfdHySVfw6RxrspuM6n3fJHptioPZ9n4aw1353bBiXJoaUYazEzzT3MzWbqK16dMA4JjZoBpkcMGapf","DdzFFzCqrhsoa4isqwXqpgTATELMWukhRKqyhWFf3UdEgu3igR5UnJrFrJTCziTcq99KhWEwFqrvXT6BARxWiyW3QcHeiSQf8K4PvPFG","DdzFFzCqrht5SwiSq2c5yTmgBZ9Y9UHw4Mwk4rs6cEquHLN1HmTegvadnrZ1gRPR1wYFv4E8gSYXMUQZhgdQGuMavr7mehtu23u9ys3K"],"fee":1050561,"totalOutput":63880222971,"tokens":[]},{"hash":"cef6fc425464b5d327fa3c4edb5ce3b156283aa26ac5ac6e295a0e7be548af39","blockNo":8262394,"blockHash":"1d99d48a507a37921bfdeeca93eb9e1bbcc3c8e4bd6dd74b76efb0d70e90059d","epochNo":387,"epochSlotNo":177941,"slot":81998741,"time":"2023/01/12 23:10:32","addressesInput":["addr1qxys73l3hryn8fc2ph0vpq0d202spw33tadhycczsywtvtv3628la2lcg3lqy85p5je4yrgza2kr0aus4sszeqxaudus7n9958","addr1qxys73l3hryn8fc2ph0vpq0d202spw33tadhycczsywtvtv3628la2lcg3lqy85p5je4yrgza2kr0aus4sszeqxaudus7n9958","addr1qxys73l3hryn8fc2ph0vpq0d202spw33tadhycczsywtvtv3628la2lcg3lqy85p5je4yrgza2kr0aus4sszeqxaudus7n9958"],"addressesOutput":["addr1wxaptpmxcxawvr3pzlhgnpmzz3ql43n2tc8mn3av5kx0yzs09tqh8","addr1qxys73l3hryn8fc2ph0vpq0d202spw33tadhycczsywtvtv3628la2lcg3lqy85p5je4yrgza2kr0aus4sszeqxaudus7n9958","addr1qxys73l3hryn8fc2ph0vpq0d202spw33tadhycczsywtvtv3628la2lcg3lqy85p5je4yrgza2kr0aus4sszeqxaudus7n9958"],"fee":501966,"totalOutput":87625966,"tokens":[]},{"hash":"1a0c61307dd2abd977349a33a19f2d25e801829ac3adcffcdfa80a7885c4975a","blockNo":8262334,"blockHash":"a0ad817d42f798cac733cd537a720b014140afe16f579253e72c15789379f6f0","epochNo":387,"epochSlotNo":176418,"slot":81997218,"time":"2023/01/12 22:45:09","addressesInput":["DdzFFzCqrhsu4E4nsoDBY3dzTQ6fyg1Zbg9p3cWFD6HiYp7pbSdXGqqfNLyyrjk9dc6DkCdQu8A7PmGD8NEaknfkoavA4UmCAmJzNqQr","DdzFFzCqrhseWd43uZ9kkpJAT9eAPPmR8YmsshQxHEaWtwTRVmRnVRv6d8Nnhitr63YQ8EzrEVgBz3c6Wy8ck3ThM5jbhFuTrUNNzqax","DdzFFzCqrht3iXXkUDUcGiZbFfX5SySbhwmgZFNvnxx2dqfNnyZw2hb7kmuGh9VmMtcpDYTGNaCqLW2ZGVgqXVDmZwpZCEHnS6MJK77e","DdzFFzCqrhsn4oht9NFuqypwaXjoujzmidLm5cJizENZ71VfzonWaFc1jU45wb6MV8bk2LQi5TWSUExKajPREd1jyvZCH8NKvb6tpSqt","DdzFFzCqrhsrEm3Prd7BoCQXwVEdJzkhaaDtMyVMvcJUtFdhnpLrd8Fd2vY2Xi9uhCVpgHdD6wrsndfLEQAFwtJ3xVHvytRVfWRjHwEj","DdzFFzCqrhst6j91pd1A82Lf3FtM4Mte8FqK6ZcRdiH8WCoGkasZtLrgpLUersr5upH54E5Bth2Qwm7BMMZSB6p9dTct9wVMUYTjBLPP","DdzFFzCqrhsfspTx7nxYCvFoR1qMbeSnqRrpnmxYnqQm5C4xccA6U1jj2sGMjtBL9ArmCbwU5VTMK4udxi9ybJxruo6kG21AzUhHWnqK","DdzFFzCqrhsjdp3XtjVnfusKwLQrbcbunP6As2bek5CxcF8Zzpf5ka1FBnsxELSWVnWFQKS1n7KfEgtJHm7oytkNPXFuFwz2i36fPX4m"],"addressesOutput":["addr1q9atjfpqwdtg7ytz0pz9zcaqvx8zr2uv6ysvc4csqynr683dzefudzxhadht99nh8gv4l3z93d486ygllgxuh2drrrpsdw6fws","DdzFFzCqrhszMSTvAYXTgCjC4ComJ2iS4EYp2V1PMQxEDfUczjwjvdxkD8oqa6USkT98s4ZC4pVhvdKe5JdQ11z8ubHkF18Nw8Wi9TYv","DdzFFzCqrhsei6EH3YZb936j96jvfqvMNdNcfzgZSLN9vdFjWuCPvg1WWi6j8U7dq4xfoj429CLmTsLTQys3RbdgxLcDQXTj1jdukw1Z","DdzFFzCqrhsjE7YrQmQjsE2bEXU2i9YeoJ73VpgHkuoWmMyGfed2qxrMtMMyZX5s21RTFu3n1Exfcw14LMJ6w7FiYwU7Q8jp1M3ma36U","DdzFFzCqrhstbfTHKoyCh7E7dAXmkp4yY5nYQLU35TYjiReQkAe1uX7svA8zE9397LUiPofSVh6p7heLrarmPfLJpGagLxfhjFqbthfP"],"fee":982801,"totalOutput":57032982196,"tokens":[]},{"hash":"a50438c45f1731f1506136c242c4968714b35a641c42e9dba9eee1bbda99b8ff","blockNo":8262271,"blockHash":"3c649abd3c3485381ae49bdd216da9f79d8b5517293d2b578ed9df6a3832c7ec","epochNo":387,"epochSlotNo":174942,"slot":81995742,"time":"2023/01/12 22:20:33","addressesInput":["DdzFFzCqrhsjqpzHNpHf754WeoyMeUeXvDtG69qEPxrKqTp6jcDNAWZucMirMon8NiARmiPJwTrUDoRLfMMuEHhWu3f3fGk1VkMgFyrY","DdzFFzCqrhsq6Mfbe2CFLFoDSk2wZUM9nu8HAguptBuQCvWXS2RaUT4YbYJNPnPmuqAAob5fnMBGGEwLxCjx83SVRopmWviV4M2LXWp1","DdzFFzCqrhsrkz4He6j6DNxgfdtWR5ey4z3yNExggNYjDSLeAvmAsMm2YhY3pJvRJMsy7dB1Kc2FGT24pPscxLZNEEwjfAj8Tf7Ahwkr","DdzFFzCqrhsn2H5MQrcTYmijrt8dgLKRYQUTBZoHHgUsSxPzf5kEqwqunUMKZG9ZjQAVsq1Dqzqnyh1gfbKL1eBp2cz4BQGV1kqEzpWb","DdzFFzCqrht5xE1sTHzQzNTFgVpBdvUPDcZ7fQR5mk8eaiwrpRBEtgsZvUVgzqkRKTzUVTzcUhM89o4Lk16DFQTpFby39E7wixYDDj9T","DdzFFzCqrht5GGJePXEoYYETmRNaVVCYbks5J6Fvmx8YhymqvwYMArd1dQsCvtrhYeqMzNWW5zTwLxypnDpGXpnipdRXEGwpYawDrY49","DdzFFzCqrhstXzeNCLXzC7StiAHT3Bjt24KmZ7ezYt7B6NtbQrGuFjTTTsAMckv5ufrTbsNY5bQ2RUu82QGYYihhvc1u7TadDuUwbDV4","DdzFFzCqrhse5oNdZYy1xcMQEu3GEGPzUy5TcQdGSpXRdNtLpXUbq2zoeusditPrhH57dmAz4Xxigdx3H1SaWbzTGiRg1JkxU9NqEkHz","DdzFFzCqrhskz4UJfXQXdTD5f4HV66oFehpBK3x6WhVkhrwayzLjatzzmrTZtXyju4iu6SuPwYFsTkgGwdjV56CzQJz4xUKSiTaqwcox","DdzFFzCqrhtCiJppwa31TjD1ECjSrmq2pGjaKP2x5ZEa1BJZZEXw6EBiFQMHnB6APLa8S2M6qL1mbCR7sV31eUSiKcMXWS4qgNjccqTP","DdzFFzCqrhsjE9oBsZFHUMVMfXyNzLtwxiLWvu5NMZC6NKXGA7JnfQrNvna2vv7Z3aYR8RcTxrKwRtLCiAy2gAbg6B7Bz6iEod5p99Rm","DdzFFzCqrht9N2FEEPCWfnZppWa4iSFv2x3EN9UcgTJf7Gfk6a8Nb8Svex7KB54veV2xjj7w3xzXQTDJZxb4j6roUjASKQ1oerFeuGJZ","DdzFFzCqrhsw1xKRgWTpH5V1DDHL5Qw2hHpEkEwGxLSrZRXw7r15ofbDmrfThaUp2BEQh6MhodCbxVyNXtUG6CN18f7goQZ7Aip9xXSS","DdzFFzCqrhseo76Y6iKPwKCRg5Cb5T9tTrXPT3AbCKoREeEzmX94hMGXTicpHfH2Hzk4VfdtLirDnxAQmfGVN7b4AkjTqHqgWEStpgVS","DdzFFzCqrhsnABDNkg811iTisYFwoPLczCuWnAfViqfChVXCFyYCHeMmm3DVrVyBcEk5Rm3SPUayi3VDtFKvn7u8weL61NjwwxFxmX9Z","DdzFFzCqrhsecZVrj7Eo6UZosqtmDBwckwRSaG8jQ1iPRogcNsoC9uWGaGcgoyoSrDw7ESezfn5d5Wq3QxLGWY2rx9iJoafknmGke1mW"],"addressesOutput":["addr1q9atjfpqwdtg7ytz0pz9zcaqvx8zr2uv6ysvc4csqynr683dzefudzxhadht99nh8gv4l3z93d486ygllgxuh2drrrpsdw6fws","DdzFFzCqrhsfspTx7nxYCvFoR1qMbeSnqRrpnmxYnqQm5C4xccA6U1jj2sGMjtBL9ArmCbwU5VTMK4udxi9ybJxruo6kG21AzUhHWnqK","DdzFFzCqrht3iXXkUDUcGiZbFfX5SySbhwmgZFNvnxx2dqfNnyZw2hb7kmuGh9VmMtcpDYTGNaCqLW2ZGVgqXVDmZwpZCEHnS6MJK77e","DdzFFzCqrhsn4oht9NFuqypwaXjoujzmidLm5cJizENZ71VfzonWaFc1jU45wb6MV8bk2LQi5TWSUExKajPREd1jyvZCH8NKvb6tpSqt","DdzFFzCqrhsjdp3XtjVnfusKwLQrbcbunP6As2bek5CxcF8Zzpf5ka1FBnsxELSWVnWFQKS1n7KfEgtJHm7oytkNPXFuFwz2i36fPX4m"],"fee":1060241,"totalOutput":86407911767,"tokens":[]},{"hash":"16c19c87e4a441e6b57fb800f75967bd62bcc6600afb91afcd0fa4e5553520b7","blockNo":8262203,"blockHash":"4c23230ae8141e0539f7fbd1de1f26f1466c72bb8a19a6cc9917bf6e2a607c1e","epochNo":387,"epochSlotNo":173261,"slot":81994061,"time":"2023/01/12 21:52:32","addressesInput":["addr1q8jar6h9rt9uwv8ep4f3tj80uxxkmrpd6zx5me3s0xm2fzn56spmqx2dm4vspmm5x7kv8hfhku09tc7fkvyawke9ttssawewpc"],"addressesOutput":["addr1qx4hdnvermd0h64l8nycrsv84mqvnc8zrkmggznlm9ltlcw8gj9gewxpw9aaw6enugdf48dqzsw0aev772k9rjdcprxqmn4kqe","addr1qx0e896vs0qgckpfypqxx02clr7alhf9ppf3yu45tygml4t56spmqx2dm4vspmm5x7kv8hfhku09tc7fkvyawke9ttssl8cyzx"],"fee":198017,"totalOutput":5672363,"tokens":[]},{"hash":"972e0efb068237bfa5ed0642a5bb14a63127fab1a220ca10b698898d6e6bd8ed","blockNo":8262179,"blockHash":"45836f95156e2cd3ae240d11d82b2055201de075737dc68e8dccac0e2c44ffbc","epochNo":387,"epochSlotNo":172892,"slot":81993692,"time":"2023/01/12 21:46:23","addressesInput":["addr1qxa7hxs2plv3ghfvm2ds0ddlgljjmr870nyj0dcuttr9emmhy29z9apw4amvddq7cz3u2c6jffld2rlzcrmuk57cdvcsnml3cx","addr1qxa7hxs2plv3ghfvm2ds0ddlgljjmr870nyj0dcuttr9emmhy29z9apw4amvddq7cz3u2c6jffld2rlzcrmuk57cdvcsnml3cx","addr1qxa7hxs2plv3ghfvm2ds0ddlgljjmr870nyj0dcuttr9emmhy29z9apw4amvddq7cz3u2c6jffld2rlzcrmuk57cdvcsnml3cx"],"addressesOutput":["addr1qykgr7mfkzh6hqjjh3ypcskqvfq5064ehy72p3swjk76v9j64cwepfzne52q76u7ra3urf0eqr9aaj07v0g874yxuz5svkm45c","addr1qxa7hxs2plv3ghfvm2ds0ddlgljjmr870nyj0dcuttr9emmhy29z9apw4amvddq7cz3u2c6jffld2rlzcrmuk57cdvcsnml3cx","addr1qxa7hxs2plv3ghfvm2ds0ddlgljjmr870nyj0dcuttr9emmhy29z9apw4amvddq7cz3u2c6jffld2rlzcrmuk57cdvcsnml3cx"],"fee":218345,"totalOutput":10966456,"tokens":[]},{"hash":"5c266c46686e2ca17ea4112ffd8a01a7f0c9c4353386d628b849c5e925990f59","blockNo":8262161,"blockHash":"3ad8a17656e26e52d64f5cec2cca5756e544daaaee470dd43b8fda69cc764eb3","epochNo":387,"epochSlotNo":172186,"slot":81992986,"time":"2023/01/12 21:34:37","addressesInput":["addr1q99m6qg6wmqjsxswwq9xprtjzlkmg986u7ws0glawgu7lvcdglhcj9y9lqrf8aw00u26dcvrncm5rwdjxsmeedvn975qgf3uue","addr1q99m6qg6wmqjsxswwq9xprtjzlkmg986u7ws0glawgu7lvcdglhcj9y9lqrf8aw00u26dcvrncm5rwdjxsmeedvn975qgf3uue"],"addressesOutput":["addr1qykgr7mfkzh6hqjjh3ypcskqvfq5064ehy72p3swjk76v9j64cwepfzne52q76u7ra3urf0eqr9aaj07v0g874yxuz5svkm45c","addr1q99m6qg6wmqjsxswwq9xprtjzlkmg986u7ws0glawgu7lvcdglhcj9y9lqrf8aw00u26dcvrncm5rwdjxsmeedvn975qgf3uue","addr1q99m6qg6wmqjsxswwq9xprtjzlkmg986u7ws0glawgu7lvcdglhcj9y9lqrf8aw00u26dcvrncm5rwdjxsmeedvn975qgf3uue"],"fee":222305,"totalOutput":12174072,"tokens":[]},{"hash":"a664c8e0b20bee7274ba3ee4c7cd7dfe9a0d27f9f378067768c9079596b6ed65","blockNo":8262143,"blockHash":"d442a48d67f7e0c4cf1498ca6317098f941812e798aa48dc27affa48fa7c127e","epochNo":387,"epochSlotNo":171921,"slot":81992721,"time":"2023/01/12 21:30:12","addressesInput":["addr1q99m6qg6wmqjsxswwq9xprtjzlkmg986u7ws0glawgu7lvcdglhcj9y9lqrf8aw00u26dcvrncm5rwdjxsmeedvn975qgf3uue","addr1q99m6qg6wmqjsxswwq9xprtjzlkmg986u7ws0glawgu7lvcdglhcj9y9lqrf8aw00u26dcvrncm5rwdjxsmeedvn975qgf3uue","addr1q99m6qg6wmqjsxswwq9xprtjzlkmg986u7ws0glawgu7lvcdglhcj9y9lqrf8aw00u26dcvrncm5rwdjxsmeedvn975qgf3uue"],"addressesOutput":["addr1qykgr7mfkzh6hqjjh3ypcskqvfq5064ehy72p3swjk76v9j64cwepfzne52q76u7ra3urf0eqr9aaj07v0g874yxuz5svkm45c","addr1q99m6qg6wmqjsxswwq9xprtjzlkmg986u7ws0glawgu7lvcdglhcj9y9lqrf8aw00u26dcvrncm5rwdjxsmeedvn975qgf3uue","addr1q99m6qg6wmqjsxswwq9xprtjzlkmg986u7ws0glawgu7lvcdglhcj9y9lqrf8aw00u26dcvrncm5rwdjxsmeedvn975qgf3uue"],"fee":245801,"totalOutput":15516817,"tokens":[]},{"hash":"9b1d06b5ac5204e677b12aba076cf514a8357c3fadc79d560fb365711d139571","blockNo":8262124,"blockHash":"1c4e409eefd8787ab4f237860b48ac11ab73a83983a4c6d18058d92e94f68e53","epochNo":387,"epochSlotNo":171551,"slot":81992351,"time":"2023/01/12 21:24:02","addressesInput":["DdzFFzCqrhsfHbsREJSCMVhPpKadRe84we4SFk6N2TiAQSeUJxpK9rVSNS8EC1GrWiu5SxEDpkyzKeNf68957g9ygcJybsVRpj3NZzMo","DdzFFzCqrhskuQYg5qdvc61wzmf148uxezK84MnxY3hjCi834Bba4FvxLx8daPo57RmpNkjuTPGhsBDEXb1XjbwvnQLbR54sbFTCqDLY","DdzFFzCqrhsuCnYwL9z22ZHgJfVZXnaCnNEUhU2waoQoUJT1djZvVKYmxTwWW2xuhuLWcXLypHFDjr11irBDWnmKEFzNjvJ4eVe5Km8b","DdzFFzCqrhsoHor9r6659AtQGbEw2S8r9V6cEAi7bEfJGgfPycSRK6qTMR42MmVWRQz4jz7Eb71YDMRQEUT8DaZx6tLDGYTTYZQR7Eno"],"addressesOutput":["addr1q9atjfpqwdtg7ytz0pz9zcaqvx8zr2uv6ysvc4csqynr683dzefudzxhadht99nh8gv4l3z93d486ygllgxuh2drrrpsdw6fws","DdzFFzCqrhtCiJppwa31TjD1ECjSrmq2pGjaKP2x5ZEa1BJZZEXw6EBiFQMHnB6APLa8S2M6qL1mbCR7sV31eUSiKcMXWS4qgNjccqTP"],"fee":391441,"totalOutput":745421232,"tokens":[]}],"totalItems":12872,"totalPages":644,"currentPage":0}