{"data":[{"blockNo":8058353,"slotNo":77809109,"epochNo":377,"epochSlotNo":308309,"hash":"8740734fe0b33d1a1386dc59014f55b6fa5de5ff7d7b45b23d7d23c032ecdf77","time":"2022/11/25 11:23:20","txCount":46,"totalFees":11981047,"totalOutput":1090635300436,"slotLeader":"31af0509d4376a8a55b40e952aea7f009c13cadf0338c57512ff42e9"},{"blockNo":8058352,"slotNo":77809016,"epochNo":377,"epochSlotNo":308216,"hash":"fce9ee92badd25923cb334c73eac02723faa8f7c574c00ba4372ed9d11b5d69e","time":"2022/11/25 11:21:47","txCount":16,"totalFees":4158515,"totalOutput":749905313442,"slotLeader":"e2eed9f58a161573050ab9324252b4fcccbf9fe06e1a034b6f91d748"},{"blockNo":8058351,"slotNo":77808996,"epochNo":377,"epochSlotNo":308196,"hash":"9f24d7885e62821c3e3098b2cbdd60e697af81f196e972fbcaba7af2b2ef1262","time":"2022/11/25 11:21:27","txCount":6,"totalFees":2384538,"totalOutput":1360699737577,"slotLeader":"bdd750e173f3d606c1af13b8661da7c0b5fa43121741c593cceec822"},{"blockNo":8058350,"slotNo":77808988,"epochNo":377,"epochSlotNo":308188,"hash":"bcbdf2d5a4dd72495d4185ea45c8050c59714b36430268d7a43cad3adc86c773","time":"2022/11/25 11:21:19","txCount":10,"totalFees":3037549,"totalOutput":2428951737,"slotLeader":"153806dbcd134ddee69a8c5204e38ac80448f62342f8c23cfe4b7edf"},{"blockNo":8058349,"slotNo":77808970,"epochNo":377,"epochSlotNo":308170,"hash":"d5e74e533826f8d9646cf10538a2efef142b96b4200307d25f57a58e3825f48f","time":"2022/11/25 11:21:01","txCount":27,"totalFees":6540025,"totalOutput":2864026481946,"slotLeader":"04357793d81097a7d2c15ec6cd6067a58cdd2fb21aaf07e56c306ecf"},{"blockNo":8058348,"slotNo":77808916,"epochNo":377,"epochSlotNo":308116,"hash":"85c62bb9d3e620da4390406f7f370fb84a86486245b85729bc8025b4aa7d16f5","time":"2022/11/25 11:20:07","txCount":4,"totalFees":784270,"totalOutput":6831268699,"slotLeader":"fdc55442d4c89bfa42bb62ac640ed710afd6eb79531e6dbb8459eb46"},{"blockNo":8058347,"slotNo":77808913,"epochNo":377,"epochSlotNo":308113,"hash":"877b70dd70f12c89cfa5a161d29b22efd1b9f1a84c9fd8c72420595b7b296985","time":"2022/11/25 11:20:04","txCount":15,"totalFees":4966694,"totalOutput":17724317518351,"slotLeader":"5eb362978a68a4780f4fd701b8f04f5aeb990eb80b1cb025d99e82a1"},{"blockNo":8058346,"slotNo":77808890,"epochNo":377,"epochSlotNo":308090,"hash":"e8697d5839f15e03d0af57d0ad43be948dc113826d0d199076d02ed9d5b2563d","time":"2022/11/25 11:19:41","txCount":5,"totalFees":2785621,"totalOutput":7373135710371,"slotLeader":"b3cc3005f1dccbc88230eb66d6e99c2f1bfa32273044473e17d9e10b"},{"blockNo":8058345,"slotNo":77808883,"epochNo":377,"epochSlotNo":308083,"hash":"1944722875a4baf033002b9f9cf6e5cb6222dffb89ba8dedaa168a2a53836daf","time":"2022/11/25 11:19:34","txCount":19,"totalFees":5784276,"totalOutput":641384570430,"slotLeader":"fe59e220d8036bd7533bf393e26abde56ec7d49fa632e57bf696d134"},{"blockNo":8058344,"slotNo":77808858,"epochNo":377,"epochSlotNo":308058,"hash":"fb042afd0e947495bd113cefbf9500d6180c025e9d35bfc04aebd6d9b873d0c6","time":"2022/11/25 11:19:09","txCount":3,"totalFees":1771582,"totalOutput":39907528465,"slotLeader":"a250eb51869c6b94cbc507d22e76ed0f35d31ccabdb1725cfbcddb75"},{"blockNo":8058343,"slotNo":77808854,"epochNo":377,"epochSlotNo":308054,"hash":"39fd84b130a3e34755142bf136b74605a4c7c0db8e26b0ff9e301b5773b279d1","time":"2022/11/25 11:19:05","txCount":13,"totalFees":6149212,"totalOutput":390127453245,"slotLeader":"04357793d81097a7d2c15ec6cd6067a58cdd2fb21aaf07e56c306ecf"},{"blockNo":8058342,"slotNo":77808837,"epochNo":377,"epochSlotNo":308037,"hash":"0fb9b016567d26c049f0975c5fc63414e14fa25647358b9354b1a9edbd839dad","time":"2022/11/25 11:18:48","txCount":34,"totalFees":9737961,"totalOutput":1330952467752,"slotLeader":"68ac3c1be0477698b5c825ce598cca359dbf6132e1761a572403b9fb"},{"blockNo":8058341,"slotNo":77808769,"epochNo":377,"epochSlotNo":307969,"hash":"7774f00b36019ecef58af3cd542a613eb115802fcc2522a656c95fdde1282e00","time":"2022/11/25 11:17:40","txCount":0,"totalFees":0,"totalOutput":0,"slotLeader":"34eb602eb435e3c6a4feb6d766a44735ca09e963f82098973c85951e"},{"blockNo":8058340,"slotNo":77808768,"epochNo":377,"epochSlotNo":307968,"hash":"7e89e51b205303305c20c3a35a8e652ef528f6d35807da72511b491e7cf1d4bf","time":"2022/11/25 11:17:39","txCount":15,"totalFees":4418546,"totalOutput":4224026562125,"slotLeader":"91d030730d73b037e1c230d6e8bd80c05687c9bf1efbc051de22d803"},{"blockNo":8058339,"slotNo":77808733,"epochNo":377,"epochSlotNo":307933,"hash":"9238286f375072d7e50424665d132e03f959519946f6e636753e822cd78a2e70","time":"2022/11/25 11:17:04","txCount":31,"totalFees":7128031,"totalOutput":19747133952900,"slotLeader":"494b1adec5eb9aaa6f66fbdad55fa0637a59fc1c74ef40b355bc2aa1"},{"blockNo":8058338,"slotNo":77808688,"epochNo":377,"epochSlotNo":307888,"hash":"e2d344dbd002ab4e9e5b5d1ebfe7971c92de0ae97dc40120f0acf5cb16b367f7","time":"2022/11/25 11:16:19","txCount":4,"totalFees":872937,"totalOutput":4524229772,"slotLeader":"c91e83649984043842f8d0a5f17763f09e953545cc78b78428acaa83"},{"blockNo":8058337,"slotNo":77808679,"epochNo":377,"epochSlotNo":307879,"hash":"e63151c73b78fbc9faf424d14bcb458db0bdae3f0868f000de635c6581d72b77","time":"2022/11/25 11:16:10","txCount":12,"totalFees":3586570,"totalOutput":4167154972,"slotLeader":"7df262feae9201d1b2e32d4c825ca91b29fbafb2b8e556f6efb7f549"},{"blockNo":8058336,"slotNo":77808656,"epochNo":377,"epochSlotNo":307856,"hash":"1b38a3c112737536daf02f569140ec841d634cfc091b5c25cb6b81e90e38515d","time":"2022/11/25 11:15:47","txCount":1,"totalFees":171221,"totalOutput":1402112326,"slotLeader":"be80794a946cf5e578846fc81e3c62ac13f4ab3335e0f5dc046edad4"},{"blockNo":8058335,"slotNo":77808654,"epochNo":377,"epochSlotNo":307854,"hash":"92efe0e93a2d454378bdcd3decbd379de86d629394a47a72f07b6ae0bd6c3d77","time":"2022/11/25 11:15:45","txCount":10,"totalFees":2951996,"totalOutput":186626561291,"slotLeader":"1c8cd022e993a8366be641c17cb6d9c5d8944e00bfce3189d8b1515a"},{"blockNo":8058334,"slotNo":77808636,"epochNo":377,"epochSlotNo":307836,"hash":"d1eddacab674791526727bffc40996f6a22fd3abda931907bd932bbe3e65d355","time":"2022/11/25 11:15:27","txCount":4,"totalFees":1513016,"totalOutput":17682116691032,"slotLeader":"2382bac66b58a4df1cf1775285529bbbefb9102ecea991e1da0aa064"}],"totalItems":8058529,"totalPages":402927,"currentPage":0}