{"data":[{"hash":"d5bdcaf6c9380a133aacdfb6f019dcd5c354da38ff8c13c54d63dc2bde989008","blockNo":7862040,"blockHash":"247e2dd521d3c0e9b766901a5187fb384a8ba345c096eda1a33b82db65dcaeae","epochNo":368,"epochSlotNo":150781,"slot":73763581,"time":"2022/10/09 15:37:52","addressesInput":["addr1qx0chsxv248823u7qj5z0vy4ed2anlcyge5dm3lq40f5qrlg9adpx69zj7ey4ml7p63uf2dduzgtc5pu959ue066l87qx4dksu","addr1qx0chsxv248823u7qj5z0vy4ed2anlcyge5dm3lq40f5qrlg9adpx69zj7ey4ml7p63uf2dduzgtc5pu959ue066l87qx4dksu"],"addressesOutput":["addr1qxm5d8llmpjhlhr3hlxzx69t7pcqyhuw6wedqlklgggns0y79mlv5fzypa80p5r33mgxdvxsj290wevyawr68dl7y4yseyqeam","addr1qx0chsxv248823u7qj5z0vy4ed2anlcyge5dm3lq40f5qrlg9adpx69zj7ey4ml7p63uf2dduzgtc5pu959ue066l87qx4dksu"],"fee":171793,"totalOutput":27593723,"tokens":[]},{"hash":"49df0f39a417cebe1b1456293ede0acf0f1b0fbdee05628dce3355dc58aedb2a","blockNo":7862040,"blockHash":"247e2dd521d3c0e9b766901a5187fb384a8ba345c096eda1a33b82db65dcaeae","epochNo":368,"epochSlotNo":150781,"slot":73763581,"time":"2022/10/09 15:37:52","addressesInput":["addr1v9u7va2sktlnz8dp3qadpnxxlv4m03672jy6elmntlxxs7q9nnwl9","addr1v9u7va2sktlnz8dp3qadpnxxlv4m03672jy6elmntlxxs7q9nnwl9"],"addressesOutput":["addr1q9klsccnznxfmpxezn7s7tnk3lxd3am8ywhxk7s706zx6cw89djtzdx5gctjj49vj6ectuthaj27zvzyj733sehggvfsa44x35","addr1v95sf69jcfhnmknvffwmfvlvnccatqwfjcyh0nlfc6gh5scta2yzg"],"fee":180021,"totalOutput":56758682,"tokens":[]},{"hash":"2036e23efc2ba2749b96350cea4b1134fa2bb6916241cb77c14a5905d553a47d","blockNo":7862040,"blockHash":"247e2dd521d3c0e9b766901a5187fb384a8ba345c096eda1a33b82db65dcaeae","epochNo":368,"epochSlotNo":150781,"slot":73763581,"time":"2022/10/09 15:37:52","addressesInput":["addr1w999n67e86jn6xal07pzxtrmqynspgx0fwmcmpua4wc6yzsxpljz3","addr1qyt960dzqcrl7t5xcv23zumjeexe6yvnzmgf68f5fr6nx683vdq0uf0r8jf0jg0dnhq7z50hmpce5jnyewz98qwwvdwsx7h8de"],"addressesOutput":["addr1qyt960dzqcrl7t5xcv23zumjeexe6yvnzmgf68f5fr6nx683vdq0uf0r8jf0jg0dnhq7z50hmpce5jnyewz98qwwvdwsx7h8de","addr1qyt960dzqcrl7t5xcv23zumjeexe6yvnzmgf68f5fr6nx683vdq0uf0r8jf0jg0dnhq7z50hmpce5jnyewz98qwwvdwsx7h8de","addr1qyt960dzqcrl7t5xcv23zumjeexe6yvnzmgf68f5fr6nx683vdq0uf0r8jf0jg0dnhq7z50hmpce5jnyewz98qwwvdwsx7h8de"],"fee":487150,"totalOutput":28556335,"tokens":[]},{"hash":"f2d896645c61359b6d5606d75891cc7e3caab5522cb55fc0ca5c0d3af9a444d2","blockNo":7862040,"blockHash":"247e2dd521d3c0e9b766901a5187fb384a8ba345c096eda1a33b82db65dcaeae","epochNo":368,"epochSlotNo":150781,"slot":73763581,"time":"2022/10/09 15:37:52","addressesInput":["addr1q9pvvaw2ueckg49xnfk7pmfxnks74adpqdmq8298yql9v5wgjey59wwx8f0su6l95s94nnann38r7mz853qjzv9eqjpqy8hr2h","addr1q9pvvaw2ueckg49xnfk7pmfxnks74adpqdmq8298yql9v5wgjey59wwx8f0su6l95s94nnann38r7mz853qjzv9eqjpqy8hr2h"],"addressesOutput":["addr1q9pvvaw2ueckg49xnfk7pmfxnks74adpqdmq8298yql9v5wgjey59wwx8f0su6l95s94nnann38r7mz853qjzv9eqjpqy8hr2h","addr1qy9c2m8fh9v87cqvn4e7yydajc8fa046rd4p5n2g0mpd2tjc5altrjrluqaqtt06rlxes090swmurgz8hkg04c4chhusfh0v8e"],"fee":188909,"totalOutput":2181997524,"tokens":[]},{"hash":"743d49f29812be0541f5d8cbd21895624af7050e1100e6b5c57ea9063514d71e","blockNo":7862040,"blockHash":"247e2dd521d3c0e9b766901a5187fb384a8ba345c096eda1a33b82db65dcaeae","epochNo":368,"epochSlotNo":150781,"slot":73763581,"time":"2022/10/09 15:37:52","addressesInput":["addr1q8e6xtdk8zt3d2jz2l29t3kcmxwl59cfz3a6wjhp8j448y0dudc35wc2sjsjdxjlksml5agkqh5cx2kckhhh9p2045kqpch5n9"],"addressesOutput":["addr1qxuw73e7a488aj9etpkk4dxrk6fgtf93l8hcaky8dujchdpmj7va8u6j9xr4pfrlrf5z64u26xlxclnx73nmuczjrfnsvwyn7r","addr1q97896fdxah4gl0sn0zcyd678l6a72gksye3u9qpq26dl40dudc35wc2sjsjdxjlksml5agkqh5cx2kckhhh9p2045kqzvg8ll","addr1q97896fdxah4gl0sn0zcyd678l6a72gksye3u9qpq26dl40dudc35wc2sjsjdxjlksml5agkqh5cx2kckhhh9p2045kqzvg8ll"],"fee":190361,"totalOutput":4760006060,"tokens":[]},{"hash":"8096e1bcaa1c7e97cb5296ca9d18c7dfe0d99ac7eaf1406738e535e99dda081f","blockNo":7862040,"blockHash":"247e2dd521d3c0e9b766901a5187fb384a8ba345c096eda1a33b82db65dcaeae","epochNo":368,"epochSlotNo":150781,"slot":73763581,"time":"2022/10/09 15:37:52","addressesInput":["addr1q8szmxk50w6flvtuvex7qnnx856yzk0mfrmcndvgfqa2awdl6wf32fgruzj3hshnaxtzlft5ptpkc3v697yc6r0lu4uqlcr7wa","addr1q8szmxk50w6flvtuvex7qnnx856yzk0mfrmcndvgfqa2awdl6wf32fgruzj3hshnaxtzlft5ptpkc3v697yc6r0lu4uqlcr7wa","addr1zxj47sy4qxlktqzmkrw8dahe46gtv8seakrshsqz26qnvzypw288a4x0xf8pxgcntelxmyclq83s0ykeehchz2wtspksr3q9nx"],"addressesOutput":["addr1qysjam9wr3wyg5n97xc8wy3z6u6claxpcnrqmc2dydf54kun9p0w3xk6m92r34wdppp540eqxxvp5g5e0pae8juxl76stl63lc","addr1q9cwvremt6n320s2e3agq0jyq82yhrk3htsu0w426xnz5us70z4w0jgvcdkkynmm8wmds66jd9kusnjfpu6raw5fqp0sr07p5w","addr1qylsujy33hjlve82l58gkuyvtujs75dkazvsh9p0sdnmvupkzdydx273aktj83qwtwz9l8r6d48kakjs8apha64c80gssh5tfe","addr1q8szmxk50w6flvtuvex7qnnx856yzk0mfrmcndvgfqa2awdl6wf32fgruzj3hshnaxtzlft5ptpkc3v697yc6r0lu4uqlcr7wa","addr1q8szmxk50w6flvtuvex7qnnx856yzk0mfrmcndvgfqa2awdl6wf32fgruzj3hshnaxtzlft5ptpkc3v697yc6r0lu4uqlcr7wa","addr1q8szmxk50w6flvtuvex7qnnx856yzk0mfrmcndvgfqa2awdl6wf32fgruzj3hshnaxtzlft5ptpkc3v697yc6r0lu4uqlcr7wa"],"fee":692963,"totalOutput":92546428,"tokens":[]},{"hash":"38a1ec8de72ce95e303ae6a3c2a485a49e10c2c71995ad3544564530c5e319ab","blockNo":7862040,"blockHash":"247e2dd521d3c0e9b766901a5187fb384a8ba345c096eda1a33b82db65dcaeae","epochNo":368,"epochSlotNo":150781,"slot":73763581,"time":"2022/10/09 15:37:52","addressesInput":["addr1qyvk2q3xlmta8y8u4xns9g4k2xwhc6jaj8w26aztdw9649w2udrnkc5qenjx3s6c7xx5ps4ppn8pwftqv8wr6h0suzhq5l4yjl","addr1zxj47sy4qxlktqzmkrw8dahe46gtv8seakrshsqz26qnvzypw288a4x0xf8pxgcntelxmyclq83s0ykeehchz2wtspksr3q9nx"],"addressesOutput":["addr1q9q4hffjvpks0ugd5mq74t0dm47d94r0e0kwfwyfy6peqzx3descm7un635myfmcsqyt0v9g7pc9vdtxua7zqqaxgruqqlfnpp","addr1q9cwvremt6n320s2e3agq0jyq82yhrk3htsu0w426xnz5us70z4w0jgvcdkkynmm8wmds66jd9kusnjfpu6raw5fqp0sr07p5w","addr1qyyu0a4xafsj4awnv34wkdknfsyx77ztvkyyywk78ekf7sqza42whj8k0mw02rnwwye09kk7ksql754pxjgvkgu5pu7s5ektck","addr1qyvk2q3xlmta8y8u4xns9g4k2xwhc6jaj8w26aztdw9649w2udrnkc5qenjx3s6c7xx5ps4ppn8pwftqv8wr6h0suzhq5l4yjl","addr1qyvk2q3xlmta8y8u4xns9g4k2xwhc6jaj8w26aztdw9649w2udrnkc5qenjx3s6c7xx5ps4ppn8pwftqv8wr6h0suzhq5l4yjl","addr1qyvk2q3xlmta8y8u4xns9g4k2xwhc6jaj8w26aztdw9649w2udrnkc5qenjx3s6c7xx5ps4ppn8pwftqv8wr6h0suzhq5l4yjl"],"fee":681313,"totalOutput":130851114,"tokens":[]},{"hash":"6c00388ccb4262fcc002469a77780eed836d0a2f2ac447cfe4f56205794b32e9","blockNo":7862040,"blockHash":"247e2dd521d3c0e9b766901a5187fb384a8ba345c096eda1a33b82db65dcaeae","epochNo":368,"epochSlotNo":150781,"slot":73763581,"time":"2022/10/09 15:37:52","addressesInput":["addr1q9fjdd3754puyz45z38ypq7m04hxelk422xum9vpekh029ukp96f3r49svzlvmzmwgkwp6k6tmz4726ukuxc8z3kfwcswgtgcq","addr1zxgx3far7qygq0k6epa0zcvcvrevmn0ypsnfsue94nsn3tvpw288a4x0xf8pxgcntelxmyclq83s0ykeehchz2wtspks905plm","addr1q9fjdd3754puyz45z38ypq7m04hxelk422xum9vpekh029ukp96f3r49svzlvmzmwgkwp6k6tmz4726ukuxc8z3kfwcswgtgcq","addr1q9fjdd3754puyz45z38ypq7m04hxelk422xum9vpekh029ukp96f3r49svzlvmzmwgkwp6k6tmz4726ukuxc8z3kfwcswgtgcq"],"addressesOutput":["addr1q9cwvremt6n320s2e3agq0jyq82yhrk3htsu0w426xnz5us70z4w0jgvcdkkynmm8wmds66jd9kusnjfpu6raw5fqp0sr07p5w","addr1qxq5et9hgq2cmu5edjps909gslv3trqd7gwa0p9tjndpt3tv5wm0pvdcg39nfakxhs9xjg4am5t356fpjasyz6gtdt5srze6jv","addr1q9fjdd3754puyz45z38ypq7m04hxelk422xum9vpekh029ukp96f3r49svzlvmzmwgkwp6k6tmz4726ukuxc8z3kfwcswgtgcq","addr1q9fjdd3754puyz45z38ypq7m04hxelk422xum9vpekh029ukp96f3r49svzlvmzmwgkwp6k6tmz4726ukuxc8z3kfwcswgtgcq"],"fee":347967,"totalOutput":149010394,"tokens":[]},{"hash":"d03b56d6195d74c11a5b505a767f44c61f3bc1000e12d188ba8b9f4126334f3a","blockNo":7862040,"blockHash":"247e2dd521d3c0e9b766901a5187fb384a8ba345c096eda1a33b82db65dcaeae","epochNo":368,"epochSlotNo":150781,"slot":73763581,"time":"2022/10/09 15:37:52","addressesInput":["addr1zxgx3far7qygq0k6epa0zcvcvrevmn0ypsnfsue94nsn3tvpw288a4x0xf8pxgcntelxmyclq83s0ykeehchz2wtspks905plm","addr1qymjavuufu3upme4jmh5vqwp9mqz9z60zvpkq2una4pq9yp98dvuttdgan4kd7w3x5zmq8ll69fpdt8f56x7nuxrf5gqftdffj"],"addressesOutput":["addr1qymjavuufu3upme4jmh5vqwp9mqz9z60zvpkq2una4pq9yp98dvuttdgan4kd7w3x5zmq8ll69fpdt8f56x7nuxrf5gqftdffj","addr1qymjavuufu3upme4jmh5vqwp9mqz9z60zvpkq2una4pq9yp98dvuttdgan4kd7w3x5zmq8ll69fpdt8f56x7nuxrf5gqftdffj"],"fee":263514,"totalOutput":90420727,"tokens":[]},{"hash":"5ab4007be77dd2dbc3f486ba64f333fd1c9784ca49d7760a90369ba9dead6651","blockNo":7862040,"blockHash":"247e2dd521d3c0e9b766901a5187fb384a8ba345c096eda1a33b82db65dcaeae","epochNo":368,"epochSlotNo":150781,"slot":73763581,"time":"2022/10/09 15:37:52","addressesInput":["addr1qxp5t4e7hn2zz6w0572ydqr6uxnz7pejchkezmpalyxjq2ed8ywws59unehpf9ru4tle4xqa8hmw6xgvaegm37hmyy8qcvzk99","addr1qxp5t4e7hn2zz6w0572ydqr6uxnz7pejchkezmpalyxjq2ed8ywws59unehpf9ru4tle4xqa8hmw6xgvaegm37hmyy8qcvzk99","addr1qxp5t4e7hn2zz6w0572ydqr6uxnz7pejchkezmpalyxjq2ed8ywws59unehpf9ru4tle4xqa8hmw6xgvaegm37hmyy8qcvzk99"],"addressesOutput":["addr1zxgx3far7qygq0k6epa0zcvcvrevmn0ypsnfsue94nsn3tvpw288a4x0xf8pxgcntelxmyclq83s0ykeehchz2wtspks905plm","addr1qxp5t4e7hn2zz6w0572ydqr6uxnz7pejchkezmpalyxjq2ed8ywws59unehpf9ru4tle4xqa8hmw6xgvaegm37hmyy8qcvzk99"],"fee":1155080,"totalOutput":4137600,"tokens":[]},{"hash":"bf5f9e739533b03326ba848e62eb07bad51ec170605fdff37e74ddb68ae3dea1","blockNo":7862040,"blockHash":"247e2dd521d3c0e9b766901a5187fb384a8ba345c096eda1a33b82db65dcaeae","epochNo":368,"epochSlotNo":150781,"slot":73763581,"time":"2022/10/09 15:37:52","addressesInput":["addr1q9k9rg7ar0jrajg3uz26v7twg22u8n03ahtp3cyuj6kds5p4w5yv60ynvnan0tr3u8p4zjmk4v5c7cmwd5mgu7dlr67swn3l8y","addr1q9k9rg7ar0jrajg3uz26v7twg22u8n03ahtp3cyuj6kds5p4w5yv60ynvnan0tr3u8p4zjmk4v5c7cmwd5mgu7dlr67swn3l8y","addr1zxj47sy4qxlktqzmkrw8dahe46gtv8seakrshsqz26qnvzypw288a4x0xf8pxgcntelxmyclq83s0ykeehchz2wtspksr3q9nx","addr1q9k9rg7ar0jrajg3uz26v7twg22u8n03ahtp3cyuj6kds5p4w5yv60ynvnan0tr3u8p4zjmk4v5c7cmwd5mgu7dlr67swn3l8y"],"addressesOutput":["addr1q8s3yxku62ykah6jgx5gr47nc0hrn8pw59xjtmruk0cuse2mejj3zjehp36akrhum8ca8fhft6j3sxl3yv87mnxe6l0qdw8xd0","addr1q9cwvremt6n320s2e3agq0jyq82yhrk3htsu0w426xnz5us70z4w0jgvcdkkynmm8wmds66jd9kusnjfpu6raw5fqp0sr07p5w","addr1qyk9dfnnhzaxspejg2gu8c3l526fx9rnhtley72z2qlu3ar4tflve7ufk23ge0g4agaqrfhj0wtaw6f6qndm6m2uehpsaemuka","addr1q9k9rg7ar0jrajg3uz26v7twg22u8n03ahtp3cyuj6kds5p4w5yv60ynvnan0tr3u8p4zjmk4v5c7cmwd5mgu7dlr67swn3l8y","addr1q9k9rg7ar0jrajg3uz26v7twg22u8n03ahtp3cyuj6kds5p4w5yv60ynvnan0tr3u8p4zjmk4v5c7cmwd5mgu7dlr67swn3l8y","addr1q9k9rg7ar0jrajg3uz26v7twg22u8n03ahtp3cyuj6kds5p4w5yv60ynvnan0tr3u8p4zjmk4v5c7cmwd5mgu7dlr67swn3l8y"],"fee":774587,"totalOutput":491453280,"tokens":[]},{"hash":"4d4f36aa061a4970d2535843e51623e6b352feb591bfb05d00c070989185ef77","blockNo":7862040,"blockHash":"247e2dd521d3c0e9b766901a5187fb384a8ba345c096eda1a33b82db65dcaeae","epochNo":368,"epochSlotNo":150781,"slot":73763581,"time":"2022/10/09 15:37:52","addressesInput":["addr1wy30zf2g4xc7v872fdweewrlj3lh2lgttelmydn0cvhyplsg3vnkq","addr1q89xn789nh30gkgs0agx52jcaprgzvapll7j64zz85tcm43za7ekpym4ukenswuulzg0556q270a5uq3rj32wrv0fyjs8kv934"],"addressesOutput":["addr1q89xn789nh30gkgs0agx52jcaprgzvapll7j64zz85tcm43za7ekpym4ukenswuulzg0556q270a5uq3rj32wrv0fyjs8kv934","addr1wy30zf2g4xc7v872fdweewrlj3lh2lgttelmydn0cvhyplsg3vnkq"],"fee":899717,"totalOutput":58039724,"tokens":[]},{"hash":"7f6d73c5cdeb06680b19386506ef22adbbf03a5cf19f19bd1cdfc6bc98767348","blockNo":7862040,"blockHash":"247e2dd521d3c0e9b766901a5187fb384a8ba345c096eda1a33b82db65dcaeae","epochNo":368,"epochSlotNo":150781,"slot":73763581,"time":"2022/10/09 15:37:52","addressesInput":["addr1qxrlkh6yh0km5m5n7923syel0yqqvc3pjrnqrzrz3gwpxd70prfqwehanuxzkwmv55ff9gr7tjx5vymykd2galr9chaqlwjwm9"],"addressesOutput":["addr1qxrlkh6yh0km5m5n7923syel0yqqvc3pjrnqrzrz3gwpxd70prfqwehanuxzkwmv55ff9gr7tjx5vymykd2galr9chaqlwjwm9"],"fee":175333,"totalOutput":262277892659,"tokens":[]},{"hash":"7819f025b120b0f9c66be22d8662649a88d92b7045a8c05a31e240a5b6d6a817","blockNo":7862040,"blockHash":"247e2dd521d3c0e9b766901a5187fb384a8ba345c096eda1a33b82db65dcaeae","epochNo":368,"epochSlotNo":150781,"slot":73763581,"time":"2022/10/09 15:37:52","addressesInput":["addr1qxe5xh30jpyq0k807wym30r746dyxcmtakj8tumxae02jpd4cm25j9qr9w6tyafsar6hdan7v7yey8qftcj5cw0uc2js3u4s74","addr1zxj47sy4qxlktqzmkrw8dahe46gtv8seakrshsqz26qnvzypw288a4x0xf8pxgcntelxmyclq83s0ykeehchz2wtspksr3q9nx"],"addressesOutput":["addr1qxe5xh30jpyq0k807wym30r746dyxcmtakj8tumxae02jpd4cm25j9qr9w6tyafsar6hdan7v7yey8qftcj5cw0uc2js3u4s74","addr1qxe5xh30jpyq0k807wym30r746dyxcmtakj8tumxae02jpd4cm25j9qr9w6tyafsar6hdan7v7yey8qftcj5cw0uc2js3u4s74","addr1qxe5xh30jpyq0k807wym30r746dyxcmtakj8tumxae02jpd4cm25j9qr9w6tyafsar6hdan7v7yey8qftcj5cw0uc2js3u4s74","addr1qxe5xh30jpyq0k807wym30r746dyxcmtakj8tumxae02jpd4cm25j9qr9w6tyafsar6hdan7v7yey8qftcj5cw0uc2js3u4s74"],"fee":537999,"totalOutput":346218004,"tokens":[]},{"hash":"0f852ba24a7fa5703d9b84dae5f54cc1cf3b19e8eec12f687ea3a032d7bbf5b9","blockNo":7862040,"blockHash":"247e2dd521d3c0e9b766901a5187fb384a8ba345c096eda1a33b82db65dcaeae","epochNo":368,"epochSlotNo":150781,"slot":73763581,"time":"2022/10/09 15:37:52","addressesInput":["addr1qygs0awv7ghunws8ujjwjdq67cnuyzpdtt02h0yvnxex45g3ql6ueu30exaq0e9yay6p4a38cgyz6kk74w7gexdjdtgs9l5xlw"],"addressesOutput":["addr1qygs0awv7ghunws8ujjwjdq67cnuyzpdtt02h0yvnxex45g3ql6ueu30exaq0e9yay6p4a38cgyz6kk74w7gexdjdtgs9l5xlw","addr1qygs0awv7ghunws8ujjwjdq67cnuyzpdtt02h0yvnxex45g3ql6ueu30exaq0e9yay6p4a38cgyz6kk74w7gexdjdtgs9l5xlw"],"fee":226163,"totalOutput":9058816257,"tokens":[]},{"hash":"aa4be02dec52585df18bd9a28eb84035a7c8238f5479cc37458236277546e544","blockNo":7862040,"blockHash":"247e2dd521d3c0e9b766901a5187fb384a8ba345c096eda1a33b82db65dcaeae","epochNo":368,"epochSlotNo":150781,"slot":73763581,"time":"2022/10/09 15:37:52","addressesInput":["addr1qyu5qgqwncx9fpk3zqsf39l8w0yxzm68487krqm4t58xnqltprq3ewgj6lt2yae4w0zww7pz720yk3psavz0upavsxkq2sh5ey"],"addressesOutput":["addr1vy2z853w49ksnwypv2cm02dg3hcmls4wcd7dsp2z344q6vcx3g0sd","addr1qyu5qgqwncx9fpk3zqsf39l8w0yxzm68487krqm4t58xnqltprq3ewgj6lt2yae4w0zww7pz720yk3psavz0upavsxkq2sh5ey"],"fee":167085,"totalOutput":96348272,"tokens":[]},{"hash":"0025c27f1a9f6c4a0168e24005d5afbac6daa51154bb036269c3b433179d448f","blockNo":7862040,"blockHash":"247e2dd521d3c0e9b766901a5187fb384a8ba345c096eda1a33b82db65dcaeae","epochNo":368,"epochSlotNo":150781,"slot":73763581,"time":"2022/10/09 15:37:52","addressesInput":["addr1zxgx3far7qygq0k6epa0zcvcvrevmn0ypsnfsue94nsn3tvpw288a4x0xf8pxgcntelxmyclq83s0ykeehchz2wtspks905plm","addr1q8szmxk50w6flvtuvex7qnnx856yzk0mfrmcndvgfqa2awdl6wf32fgruzj3hshnaxtzlft5ptpkc3v697yc6r0lu4uqlcr7wa","addr1q8szmxk50w6flvtuvex7qnnx856yzk0mfrmcndvgfqa2awdl6wf32fgruzj3hshnaxtzlft5ptpkc3v697yc6r0lu4uqlcr7wa"],"addressesOutput":["addr1qysjam9wr3wyg5n97xc8wy3z6u6claxpcnrqmc2dydf54kun9p0w3xk6m92r34wdppp540eqxxvp5g5e0pae8juxl76stl63lc","addr1q9cwvremt6n320s2e3agq0jyq82yhrk3htsu0w426xnz5us70z4w0jgvcdkkynmm8wmds66jd9kusnjfpu6raw5fqp0sr07p5w","addr1q89cla86c9c5gqdwtvce5vvyd353z2y6sjes8qk0ahvhae4kn3w8t5f3xdcag40dytk75tuvxyq39g0mh7zgearr2m6srg0xxj","addr1q8szmxk50w6flvtuvex7qnnx856yzk0mfrmcndvgfqa2awdl6wf32fgruzj3hshnaxtzlft5ptpkc3v697yc6r0lu4uqlcr7wa","addr1q8szmxk50w6flvtuvex7qnnx856yzk0mfrmcndvgfqa2awdl6wf32fgruzj3hshnaxtzlft5ptpkc3v697yc6r0lu4uqlcr7wa"],"fee":405113,"totalOutput":109779777,"tokens":[]},{"hash":"fffa39fef0422726447dec03e99d952944d68ab0ac29d35b568ddfc12ff21663","blockNo":7862040,"blockHash":"247e2dd521d3c0e9b766901a5187fb384a8ba345c096eda1a33b82db65dcaeae","epochNo":368,"epochSlotNo":150781,"slot":73763581,"time":"2022/10/09 15:37:52","addressesInput":["addr1q8aukkn08r2kpe6lv08zmfl9gym4gcpl8weltxrwvd5uwwlvj7j0zrgsepyvqmcukm7f5v9c7uphre9tschgtpn93euqzsms8j","addr1q8aukkn08r2kpe6lv08zmfl9gym4gcpl8weltxrwvd5uwwlvj7j0zrgsepyvqmcukm7f5v9c7uphre9tschgtpn93euqzsms8j","addr1q8aukkn08r2kpe6lv08zmfl9gym4gcpl8weltxrwvd5uwwlvj7j0zrgsepyvqmcukm7f5v9c7uphre9tschgtpn93euqzsms8j"],"addressesOutput":["addr1q8aukkn08r2kpe6lv08zmfl9gym4gcpl8weltxrwvd5uwwlvj7j0zrgsepyvqmcukm7f5v9c7uphre9tschgtpn93euqzsms8j","addr1q8aukkn08r2kpe6lv08zmfl9gym4gcpl8weltxrwvd5uwwlvj7j0zrgsepyvqmcukm7f5v9c7uphre9tschgtpn93euqzsms8j","addr1q8aukkn08r2kpe6lv08zmfl9gym4gcpl8weltxrwvd5uwwlvj7j0zrgsepyvqmcukm7f5v9c7uphre9tschgtpn93euqzsms8j"],"fee":178833,"totalOutput":6721077,"tokens":[]},{"hash":"9bb9f7db77b3fb80e6838b63ea144fc6dfe7e1c2e54ffcb89fd7c6a9f9992cec","blockNo":7862040,"blockHash":"247e2dd521d3c0e9b766901a5187fb384a8ba345c096eda1a33b82db65dcaeae","epochNo":368,"epochSlotNo":150781,"slot":73763581,"time":"2022/10/09 15:37:52","addressesInput":["addr1qy32y4pc5mtmurru9h5w5zkmc32qaryq4fpg94kejlt7k6ez5f2r3fkhhcx8ct0gag9dh3z5p6xgp2jzsttdn97had4sjylsje","addr1qy32y4pc5mtmurru9h5w5zkmc32qaryq4fpg94kejlt7k6ez5f2r3fkhhcx8ct0gag9dh3z5p6xgp2jzsttdn97had4sjylsje"],"addressesOutput":["addr1qy32y4pc5mtmurru9h5w5zkmc32qaryq4fpg94kejlt7k6ez5f2r3fkhhcx8ct0gag9dh3z5p6xgp2jzsttdn97had4sjylsje","addr1qy32y4pc5mtmurru9h5w5zkmc32qaryq4fpg94kejlt7k6ez5f2r3fkhhcx8ct0gag9dh3z5p6xgp2jzsttdn97had4sjylsje"],"fee":233854,"totalOutput":5008117466,"tokens":[]},{"hash":"776e164d832f874186f1814e43b6371cf54cb2919d53bae78d222733f1646efd","blockNo":7862040,"blockHash":"247e2dd521d3c0e9b766901a5187fb384a8ba345c096eda1a33b82db65dcaeae","epochNo":368,"epochSlotNo":150781,"slot":73763581,"time":"2022/10/09 15:37:52","addressesInput":["addr1z8l28a6jsx4870ulrfygqvqqdnkdjc5sa8f70ys6dvgvjqc3r6dxnzml343sx8jweqn4vn3fz2kj8kgu9czghx0jrsyqxyrhvq","addr1q9yrhxezs9jpv9huxd6sk27pecrak8863gqfkan7m24678dcvtjm8enawhyjjkcf6eves2cwz4c8y9tvhjuzpvmu4rwssukzmr","addr1q9yrhxezs9jpv9huxd6sk27pecrak8863gqfkan7m24678dcvtjm8enawhyjjkcf6eves2cwz4c8y9tvhjuzpvmu4rwssukzmr","addr1q9yrhxezs9jpv9huxd6sk27pecrak8863gqfkan7m24678dcvtjm8enawhyjjkcf6eves2cwz4c8y9tvhjuzpvmu4rwssukzmr","addr1z9cy2gmar6cpn8yymll93lnd7lw96f27kn2p3eq5d4tjr7rshnr04ple6jjfc0cvcmcpcxmsh576v7j2mjk8tw890vespzvgwd"],"addressesOutput":["addr1q9yrhxezs9jpv9huxd6sk27pecrak8863gqfkan7m24678dcvtjm8enawhyjjkcf6eves2cwz4c8y9tvhjuzpvmu4rwssukzmr","addr1q9yrhxezs9jpv9huxd6sk27pecrak8863gqfkan7m24678dcvtjm8enawhyjjkcf6eves2cwz4c8y9tvhjuzpvmu4rwssukzmr","addr1q9yrhxezs9jpv9huxd6sk27pecrak8863gqfkan7m24678dcvtjm8enawhyjjkcf6eves2cwz4c8y9tvhjuzpvmu4rwssukzmr","addr1z9cy2gmar6cpn8yymll93lnd7lw96f27kn2p3eq5d4tjr7rshnr04ple6jjfc0cvcmcpcxmsh576v7j2mjk8tw890vespzvgwd","addr1qymy6adtqst8nta86rfdrz79t5g7gu4qxcwjc9cl4rpnqafdav8wqkwtcuy0868s2hva3cu9pqrxhsgygqcsrfu7lhtqhsux6m"],"fee":810968,"totalOutput":60496852871,"tokens":[]}],"totalItems":28,"totalPages":2,"currentPage":0}