{"data":[{"blockNo":8227992,"slotNo":81290491,"epochNo":385,"epochSlotNo":333691,"hash":"c09e8596348c7206b4d838c1ef841dd66bde4519d94f30365b0dbbfeb53a72de","time":"2023/01/04 18:26:22","txCount":13,"totalFees":5624386,"totalOutput":93488377785,"slotLeader":"000000f66e28b0f18aef20555f4c4954234e3270dfbbdcc13f54e799"},{"blockNo":8227991,"slotNo":81290488,"epochNo":385,"epochSlotNo":333688,"hash":"4960e4dceb17738d7f0be9b01e48d71356b1ecf7ed36fa3bf8b895d584e494cc","time":"2023/01/04 18:26:19","txCount":32,"totalFees":11279410,"totalOutput":5721174706070,"slotLeader":"b3cc3005f1dccbc88230eb66d6e99c2f1bfa32273044473e17d9e10b"},{"blockNo":8227990,"slotNo":81290487,"epochNo":385,"epochSlotNo":333687,"hash":"94c1a9713a72d344c87e7adc7ef26a5b434d9a6983e1735de2de42059db53954","time":"2023/01/04 18:26:18","txCount":24,"totalFees":10470340,"totalOutput":8345108867764,"slotLeader":"903c38e5905f1587d5ecf8c875a181725fb4b12b3eb06ce1d20bb1c6"},{"blockNo":8227989,"slotNo":81290479,"epochNo":385,"epochSlotNo":333679,"hash":"3ac13441343fc9fbac4daa6c8d5f22d6547d20292d2fa121ee3f680591410c00","time":"2023/01/04 18:26:10","txCount":47,"totalFees":15488924,"totalOutput":1299586566047,"slotLeader":"6feba2d1c9ff8b6f216259fc8824e8803202f882e33a07b6a235c5ac"},{"blockNo":8227988,"slotNo":81290471,"epochNo":385,"epochSlotNo":333671,"hash":"633bd0a80ba5656cf9fec917c5a7848cedc840d571dcbb50f679940ae95b2e97","time":"2023/01/04 18:26:02","txCount":42,"totalFees":15108800,"totalOutput":1290949186134,"slotLeader":"f619a10b7ccea6167c5f169634e834b57739c2db892185f2efa9f1eb"},{"blockNo":8227987,"slotNo":81290428,"epochNo":385,"epochSlotNo":333628,"hash":"c418039403c89ec17d267b0e21cabaeff277f9791cc70b9aa1530c3780d18b11","time":"2023/01/04 18:25:19","txCount":47,"totalFees":14977940,"totalOutput":1167517918354,"slotLeader":"9ac6f4118dccc20d978e7239d73d47e939cc594c350effa8711f5ac4"},{"blockNo":8227986,"slotNo":81290392,"epochNo":385,"epochSlotNo":333592,"hash":"22bf583a8a561284c43283d0d5fc9c3f8d352419d3a2e8216a28db567e961ef6","time":"2023/01/04 18:24:43","txCount":30,"totalFees":12785039,"totalOutput":1605562652571,"slotLeader":"585a5de1da253667d10c28d09b7f447b20d83810381b936d27641760"},{"blockNo":8227985,"slotNo":81290341,"epochNo":385,"epochSlotNo":333541,"hash":"d3ab7204d30a56dabd94b2db1ea2fb5e46ba91dfa9e4dec2af41139b4948f29e","time":"2023/01/04 18:23:52","txCount":30,"totalFees":11708553,"totalOutput":24489428250384,"slotLeader":"bce696401137ff3d305e6a8dbb6ac0cd9b41570bda42deb4e83d86f2"},{"blockNo":8227984,"slotNo":81290316,"epochNo":385,"epochSlotNo":333516,"hash":"65d4f7e6830b182ac76e10082e9d95ea87663ce3c9ecb2ac5e8f34a290b59c57","time":"2023/01/04 18:23:27","txCount":59,"totalFees":17533615,"totalOutput":341385485779,"slotLeader":"012abf0f0a65192fcba3e5e305fe13478f0cd58f271873b0f20ddb10"},{"blockNo":8227983,"slotNo":81290301,"epochNo":385,"epochSlotNo":333501,"hash":"e1f69e5c1985a5da9f2f7030d00e041d23e028fc6529845f375d089ba2d9441a","time":"2023/01/04 18:23:12","txCount":37,"totalFees":13788265,"totalOutput":7137048238034,"slotLeader":"5b5804135b07be6f3635a655ed1b68ddef1854523b45cd1840a6fc33"},{"blockNo":8227982,"slotNo":81290285,"epochNo":385,"epochSlotNo":333485,"hash":"33479884ee3776f876e07ca3b352e61a59dfdb5e0b1767643a329bcf9305d3a2","time":"2023/01/04 18:22:56","txCount":33,"totalFees":13651423,"totalOutput":156365865188,"slotLeader":"d31f204c4a1701068d3a116b9c50662b60f365178336d6f7825ea547"},{"blockNo":8227981,"slotNo":81290235,"epochNo":385,"epochSlotNo":333435,"hash":"59381d693b64e0d14b0d077bc2a5daf9d1577688380bccde26a0074fcc8b29f2","time":"2023/01/04 18:22:06","txCount":50,"totalFees":17207138,"totalOutput":31538999205135,"slotLeader":"a503e42a2c6ef347d834fa404fa4d4bfa6dfb48256ff95b067483980"},{"blockNo":8227980,"slotNo":81290152,"epochNo":385,"epochSlotNo":333352,"hash":"496f5a18e1be2719ceac00ea9d36d6b84b3f4077a4edeb84842e3259cab198e7","time":"2023/01/04 18:20:43","txCount":10,"totalFees":4272842,"totalOutput":61308735649,"slotLeader":"c1bef45a2abbb3a862cdd9142236dff38763cc32e91fc8f282823ee6"},{"blockNo":8227979,"slotNo":81290145,"epochNo":385,"epochSlotNo":333345,"hash":"fe821cb727d5e6c0eb20944c4956de5d850424a4ec06f3f63c909a42a4c68dd3","time":"2023/01/04 18:20:36","txCount":48,"totalFees":16069982,"totalOutput":55741626896,"slotLeader":"3200ed8ab323773d4d1a64333a0d79b93dc8f3a45c37f88141e34317"},{"blockNo":8227978,"slotNo":81290120,"epochNo":385,"epochSlotNo":333320,"hash":"3ae602e46860c6d2fcf61adc8717dd3df34a692fefcfa64b164d38ac974a954f","time":"2023/01/04 18:20:11","txCount":39,"totalFees":14108088,"totalOutput":5803791323366,"slotLeader":"f747045bf6584b0e92d4b0bbdb399f8c9c4c082ff239c3288d7f0280"},{"blockNo":8227977,"slotNo":81290104,"epochNo":385,"epochSlotNo":333304,"hash":"9f4a0e3a2f97851dd07107613026238e5db614d66cef0110e28ff9ceb6989557","time":"2023/01/04 18:19:55","txCount":33,"totalFees":11721696,"totalOutput":1823908556359,"slotLeader":"52e22df52e90370f639c99f5c760f0cd67d7f871cd0d0764fae47cd9"},{"blockNo":8227976,"slotNo":81290053,"epochNo":385,"epochSlotNo":333253,"hash":"43c27d45bc7e9aeb295d89e3d361e0649bee2715a465ba35d711fa238efacec9","time":"2023/01/04 18:19:04","txCount":10,"totalFees":3104687,"totalOutput":63701210542,"slotLeader":"f619a10b7ccea6167c5f169634e834b57739c2db892185f2efa9f1eb"},{"blockNo":8227975,"slotNo":81290048,"epochNo":385,"epochSlotNo":333248,"hash":"26fecafcc7da11ab4cc8558a06372fd00c14dd672b7da4c17043b5690c4498eb","time":"2023/01/04 18:18:59","txCount":3,"totalFees":1459676,"totalOutput":6595574650,"slotLeader":"13d3a7c2fbc1e210ce97ac1a3973bc4bc9d03f7d3906545a19782f7a"},{"blockNo":8227974,"slotNo":81290046,"epochNo":385,"epochSlotNo":333246,"hash":"467d7c6c37cef5b8c12d11cdc6873da6a825e26202c6330b15c7fa52467ca8a0","time":"2023/01/04 18:18:57","txCount":29,"totalFees":7910043,"totalOutput":38698995383,"slotLeader":"3c68076a8b81226f6d7da352dda415db00299701624b6cf71d7cc086"},{"blockNo":8227973,"slotNo":81290039,"epochNo":385,"epochSlotNo":333239,"hash":"f269adc240299a86b005bac076b998f14fd24fa5ba73e27ad66ede121e5cccfa","time":"2023/01/04 18:18:50","txCount":34,"totalFees":11640054,"totalOutput":2115532117170,"slotLeader":"61d2598400211dcda6878511eb6d84719e5c502c7aa63d500f7a57ce"}],"totalItems":8228168,"totalPages":411409,"currentPage":0}