{"data":[{"txId":56933932,"txHash":"7e07db556c8c77121e00a9a2a5f85df3a0f23c14bbb178bec0da677ca8a1261f","txTime":"2022/12/09 00:59:59","block":8115414,"epoch":380,"slotNo":78981308,"epochSlotNo":184508,"stakeKey":"stake1u9upvklrcxhnrlgs3t96qk8rk8nnt5krk275aa3flv70pgsuy6je4"},{"txId":56933784,"txHash":"63ffc14f86ce42274bc6718e1046f4115200334ca591a75fbced5b3a26f41a8a","txTime":"2022/12/09 00:56:32","block":8115405,"epoch":380,"slotNo":78981101,"epochSlotNo":184301,"stakeKey":"stake1u8jc09dv5fs57gq04mzx3lm5npx52s5ch8jx2hzfaz78s0ctfkytq"},{"txId":56933735,"txHash":"baa4266804631b187b7c43ab3b92ad383c6a91b7a020914fea56f82efd18a808","txTime":"2022/12/09 00:54:26","block":8115397,"epoch":380,"slotNo":78980975,"epochSlotNo":184175,"stakeKey":"stake1uyt6nhn2tfdwpqtmy5ga68eva4tqw478d7hpudnlkdhkrvq4dl428"},{"txId":56933432,"txHash":"048109d9ecfeefc9287e020ff4641fed4dcbb511139f71a06aee9109aa091c22","txTime":"2022/12/09 00:47:06","block":8115376,"epoch":380,"slotNo":78980535,"epochSlotNo":183735,"stakeKey":"stake1u8udmnv8vk9x7vwt5ru7wdj8vf7r9lr5svclxgp7rp89xqsmy6mlm"},{"txId":56933257,"txHash":"b4c713b2b7e189d722b4a9845b215ac4cd31645a96186516580d2d3b2af4b310","txTime":"2022/12/09 00:41:45","block":8115362,"epoch":380,"slotNo":78980214,"epochSlotNo":183414,"stakeKey":"stake1uyp47mm0dwhdce83j4lxvjchd92r3xfshth24d23ehylm7sagcjun"},{"txId":56933036,"txHash":"fa04d740b11b33949a991b62fabe076b8b28618216d59f5d5f2c28e635e0fa4b","txTime":"2022/12/09 00:37:09","block":8115352,"epoch":380,"slotNo":78979938,"epochSlotNo":183138,"stakeKey":"stake1uxlk84zwn273s73y7c2a8xdua0psnmgexkguz8430che2tqpjl337"},{"txId":56932774,"txHash":"db9cda9e8257e4902e9422ec4a30f835806655702a3cf04e2790797974df3f4f","txTime":"2022/12/09 00:30:39","block":8115328,"epoch":380,"slotNo":78979548,"epochSlotNo":182748,"stakeKey":"stake1uyx8sc5scxfsuekjkz3zld94fgq2r6f34cujx7gcvgmlksq8zg8x7"},{"txId":56932608,"txHash":"e697d22a5e7e2a1956dadd3779f14a8051ef88010dd09218fa88ce26798336fb","txTime":"2022/12/09 00:26:59","block":8115314,"epoch":380,"slotNo":78979328,"epochSlotNo":182528,"stakeKey":"stake1u8tctv2u3vgck255jlzezucumxr5zxxazlp8qy0975acd3qhqllm6"},{"txId":56932586,"txHash":"68f331bb2f53b329b9f89a1c477eb5836d9a9caec05a7e3e4f7a0d02404fa407","txTime":"2022/12/09 00:26:36","block":8115313,"epoch":380,"slotNo":78979305,"epochSlotNo":182505,"stakeKey":"stake1u8we4pydxgtddsez2ex8u243xyfjsfzm87lqlhq902h2cvgpzza09"},{"txId":56932487,"txHash":"bbaed45eaf3538d69e34b0ec02e7034281682006c3d9bde6c996ef17ed7c28df","txTime":"2022/12/09 00:24:10","block":8115304,"epoch":380,"slotNo":78979159,"epochSlotNo":182359,"stakeKey":"stake1ux3ua053uq648n30s9kgtlysrcz3nvny50p9002tygjhdqqzz4qe7"},{"txId":56932068,"txHash":"940033546d6d3ad08bf8e9888a693f2938f3bf5ebfd3d0d330d025475b0953c1","txTime":"2022/12/09 00:15:01","block":8115273,"epoch":380,"slotNo":78978610,"epochSlotNo":181810,"stakeKey":"stake1u8uymljt8tnzddw73tfd5s6u7yhjtsuu3rgunfudlvazskgacs8zg"},{"txId":56931766,"txHash":"aaf561f55a74aad1f425785a5b92069d7970c3300f50b10a34c78854a8ced167","txTime":"2022/12/09 00:09:02","block":8115254,"epoch":380,"slotNo":78978251,"epochSlotNo":181451,"stakeKey":"stake1uxj03j3z3hpujayzrw7vtxwr9apn5xe07f63r34tahj5kfg9axfnr"},{"txId":56931247,"txHash":"bb9d3c91426e8cf424158f695bcc755a1d2a9394aae371658ee9501d4061a5d9","txTime":"2022/12/08 23:59:30","block":8115226,"epoch":380,"slotNo":78977679,"epochSlotNo":180879,"stakeKey":"stake1u8qfw2zhj4jasjfm5cyr0z3gae0d3sz469r4d2tnv4rjaks32qzqu"},{"txId":56931227,"txHash":"98bc4e408dfac93e9cea9139872728bcbcf89dadf3bc01b3fb5f8e5d7ff601e0","txTime":"2022/12/08 23:58:32","block":8115224,"epoch":380,"slotNo":78977621,"epochSlotNo":180821,"stakeKey":"stake1uy6gg0s2ac4c9t85qx3lfas905u6f7l03rzueqk04slq7lssmyp8d"},{"txId":56931081,"txHash":"9494e53711a81429992544bada655183634a43896269da303f42fef2655dac64","txTime":"2022/12/08 23:55:39","block":8115216,"epoch":380,"slotNo":78977448,"epochSlotNo":180648,"stakeKey":"stake1uxv7uxs8cv6jy5750rkr5l7d2lhqhwgwx84rt04xrw4qr8qgqck7l"},{"txId":56930909,"txHash":"d0e67634b9c5873c65a51eb189f4dd514febae0fa5ad20bc750a249e7f621039","txTime":"2022/12/08 23:50:21","block":8115199,"epoch":380,"slotNo":78977130,"epochSlotNo":180330,"stakeKey":"stake1uxhj5d2xmk2n3nm7mfdccnh58u7d8py0cnk3ecm0l5jzqxsf7jadx"},{"txId":56930226,"txHash":"341051a4573fc40bc96f8c21d12a6965c29e245d8475894ed660adc03d81f92e","txTime":"2022/12/08 23:34:48","block":8115150,"epoch":380,"slotNo":78976197,"epochSlotNo":179397,"stakeKey":"stake1uym4jtr28svr4k3t2k72sy504qg3c2f0q0mld3y5v09s5psmp5p3z"},{"txId":56930186,"txHash":"afbe9c69c76e7511fc864ef546b8cd505c73adf8e93dc91dba010cdc6cffaf6a","txTime":"2022/12/08 23:33:55","block":8115147,"epoch":380,"slotNo":78976144,"epochSlotNo":179344,"stakeKey":"stake1u8v4p030pd9dr6y067yah9f3448d6kc6ludfxg4jd0zl39s8lla4d"},{"txId":56929455,"txHash":"09eb23325179b5232e8404cd2543f49119507a24ce714437d123add1223781df","txTime":"2022/12/08 23:17:50","block":8115105,"epoch":380,"slotNo":78975179,"epochSlotNo":178379,"stakeKey":"stake1uxgwq9q9l258zgg74rst9966w4p6yphs6g98ll7us47j0zggj5n9r"},{"txId":56929215,"txHash":"131878274a7e3d0ed0780d991c3ad9ef8021e99052bd61b946a0ccbb1c69f7bd","txTime":"2022/12/08 23:11:56","block":8115093,"epoch":380,"slotNo":78974825,"epochSlotNo":178025,"stakeKey":"stake1uy249s56nrq2ptzup0km6n2naxzsu42ruqh5ludy6mdc2ms98m3p8"}],"totalItems":335702,"totalPages":16786,"currentPage":0}