{"data":[{"txId":59473459,"txHash":"8246f59dce275c1d077a250abcbbf520df38714801b88fdf3f1a362236928ca4","txTime":"2023/01/11 22:33:39","block":8258028,"epoch":387,"slotNo":81910128,"epochSlotNo":89328,"stakeKey":"stake1u9w36x2qc3cx4hawpfngfe606xk5ungenpveeht9n80y36q7qxcqg"},{"txId":59473438,"txHash":"829b0434c9f0e675e00fb58697d3ba16b49fd868ca39e35d05deb5917f45bd70","txTime":"2023/01/11 22:32:53","block":8258026,"epoch":387,"slotNo":81910082,"epochSlotNo":89282,"stakeKey":"stake1uymvwvlvv95xuw8neytrfherdd8g9l4w5tz247xu29vnw9sr2enes"},{"txId":59473287,"txHash":"1b01b41f810d384b5407146f13da3ea3b96340f08dbd18681bf69136728f628f","txTime":"2023/01/11 22:30:28","block":8258022,"epoch":387,"slotNo":81909937,"epochSlotNo":89137,"stakeKey":"stake1u80w0njs2ttwqh4ejffs4jpxh22g08858fpq6v6eplr0jrcmmxrr6"},{"txId":59473044,"txHash":"5f46cd178d12b3cdcb78ca4137860c1533b7da913ad66f3c9145e8bf49e059e3","txTime":"2023/01/11 22:25:51","block":8258013,"epoch":387,"slotNo":81909660,"epochSlotNo":88860,"stakeKey":"stake1uysk28qvrc08s303yd6n8s867uc2nyudr373ca9kf9xrg2syqqd3w"},{"txId":59472973,"txHash":"f6fa124e14708143e67481185ca2ad1c9c3a747fb55a44573948ec08ae1f7d89","txTime":"2023/01/11 22:25:46","block":8258012,"epoch":387,"slotNo":81909655,"epochSlotNo":88855,"stakeKey":"stake1u94xzkkzq9kj5equ5lr0jlxylq2lr9u5030vrxmpxll2j9gu3wvcv"},{"txId":59472743,"txHash":"26a316d2dc74cdf3b9e02a082c4a5fa2130ec9a023f8a7d3ba7f582604a6f168","txTime":"2023/01/11 22:21:31","block":8258005,"epoch":387,"slotNo":81909400,"epochSlotNo":88600,"stakeKey":"stake1ux8uurvrn9j57vwtwxaevykynj85lm9x2txxcyvxhhn9hrqx3h3zg"},{"txId":59472232,"txHash":"43ad58e593818cd1e60ec73ef78d41cf4e33e414ba077eea3dfaee9d5bb52777","txTime":"2023/01/11 22:12:24","block":8257988,"epoch":387,"slotNo":81908853,"epochSlotNo":88053,"stakeKey":"stake1uyw7uusp8mzn5m9p0nhdl25u73z7ser2226z2ylp0spxn6cdtzztc"},{"txId":59472223,"txHash":"8edf40ea30f2bca4df802434651f1cb02495577b2c03435a709e1290aabbe06d","txTime":"2023/01/11 22:12:24","block":8257988,"epoch":387,"slotNo":81908853,"epochSlotNo":88053,"stakeKey":"stake1u8v7dfu78hxd5nf32c74wpdkv4mgj3v6mc5cmzydaww5y9qwt3t2l"},{"txId":59472059,"txHash":"485604edfbb3462067cc8b593924e97b21f23c00302dc443cdb785ac22214299","txTime":"2023/01/11 22:09:21","block":8257979,"epoch":387,"slotNo":81908670,"epochSlotNo":87870,"stakeKey":"stake1u96nwhvtefscuac6kjexs2xwj0fcgpuhzunm6alt0ewjzls5u2dla"},{"txId":59471856,"txHash":"38794fd08bae2949617a5209333907ceec358abf9258a008b55579e0256f33cf","txTime":"2023/01/11 22:04:56","block":8257969,"epoch":387,"slotNo":81908405,"epochSlotNo":87605,"stakeKey":"stake1u9j8y4v30c2lme3vl9659m2yt9rvkvevlvla5su4nx85avsxh6evh"},{"txId":59471787,"txHash":"8f702912fa9ce3052bbefc97e6d08bdafc68a984bd8703117d0e6e215f0b0fe3","txTime":"2023/01/11 22:04:42","block":8257968,"epoch":387,"slotNo":81908391,"epochSlotNo":87591,"stakeKey":"stake1u902jwvwewdykg5jgvlmf5jxq6pnqwr6qqz6zm6ysrtcfpgkw60dm"},{"txId":59471750,"txHash":"bb1fde3c40c1c665a1ff4b9e1dca7b72fbee1ab0b0c0322c69085ae9cbf3c1f2","txTime":"2023/01/11 22:02:55","block":8257967,"epoch":387,"slotNo":81908284,"epochSlotNo":87484,"stakeKey":"stake1uysu3t0gfd8ared9xfm5x74j98wxfn99r6uj0stxk83m22srgyn3r"},{"txId":59471339,"txHash":"b33dbc2a13144e24e915d1b84b5fd7fc2cf098084830953f0586d5556328df7c","txTime":"2023/01/11 21:55:05","block":8257938,"epoch":387,"slotNo":81907814,"epochSlotNo":87014,"stakeKey":"stake1u8gh58a0j08uvgy3u6t6fpmsz7ewzcvqxvrdzt5cwk7w39q5e9zhh"},{"txId":59471056,"txHash":"3e8dc7b7d180c6a9e62c52d6a6ab6acb49d9bf2b89359a5ca1a7ee831ecae581","txTime":"2023/01/11 21:50:04","block":8257920,"epoch":387,"slotNo":81907513,"epochSlotNo":86713,"stakeKey":"stake1ux9gq23ef0tdhxj6t54cddnm74m93v24zu3yl2z59gc98zqkk2fqx"},{"txId":59471049,"txHash":"44e388ebed8cda468b32a8383c9c39a45bcb86b7e2943b5aa0e3f10dc456054a","txTime":"2023/01/11 21:50:04","block":8257920,"epoch":387,"slotNo":81907513,"epochSlotNo":86713,"stakeKey":"stake1u9zhvkfz6ne8v2twyl7u0pvfkd0cd9tpu3vfxer42qncf8qss7e9s"},{"txId":59470867,"txHash":"9137ba8bd2c29bd9f1a3adb0f7442e169877fe2e7a08f72d59ffccd8d76002d2","txTime":"2023/01/11 21:46:19","block":8257910,"epoch":387,"slotNo":81907288,"epochSlotNo":86488,"stakeKey":"stake1ux4ydagquhq8pnygw2khqywn05t5dkvcpxzcgt2kan3mdrqjvnp8j"},{"txId":59470818,"txHash":"3b8780934467129624637093193598049a383e0c494bb6804008b81e0fc83a62","txTime":"2023/01/11 21:45:54","block":8257908,"epoch":387,"slotNo":81907263,"epochSlotNo":86463,"stakeKey":"stake1uy7rs0pv4yasfusyc45pqqnxchhyph77akvyxvurx3eedpsexju4h"},{"txId":59470680,"txHash":"5fc9017544e9e5cab1dccb13b7ebe63ebbf610b8c5a3dd022e70d469473ed20d","txTime":"2023/01/11 21:43:22","block":8257904,"epoch":387,"slotNo":81907111,"epochSlotNo":86311,"stakeKey":"stake1u84t8aun279u4j79mtredpye3sxfvusgfglnw83dxueshnsk63527"},{"txId":59470501,"txHash":"0f4d5ffe03f29a55ccac9c30b8ad6785080588b0a4b0a25e2224bc25d7a4bb12","txTime":"2023/01/11 21:39:38","block":8257895,"epoch":387,"slotNo":81906887,"epochSlotNo":86087,"stakeKey":"stake1uxhgqe53snxksjmf7h0p46t0urdye4lxnlfvyshw4ak6n6q2u3r94"},{"txId":59470462,"txHash":"b92365899458663c73004e0fdcc2960dde07fab61e7a9e17fd42c95cad8749df","txTime":"2023/01/11 21:38:54","block":8257893,"epoch":387,"slotNo":81906843,"epochSlotNo":86043,"stakeKey":"stake1u9r5p75ur96qpvt5ur9actfsaxlrm26jxhwgut9cgxasjzct7fj3w"}],"totalItems":343778,"totalPages":17189,"currentPage":0}