{"data":[{"txId":54168594,"txHash":"4cbb20fbe006f5079b7310602229b3fb50d2f56430b4d91d26d66c209db68815","txTime":"2022/11/02 18:40:41","block":7963648,"epoch":373,"slotNo":75848150,"epochSlotNo":75350,"stakeKey":"stake1uxj2l0hfk6wz8fzmr7ru9fg9z0476fd5mqhzg0ytsgn4pwc7quy8h"},{"txId":54167650,"txHash":"b95b8781ae9a05e6c9f0b9a7453e659202d80be8ab1c529de58c0bf9dcc4103c","txTime":"2022/11/02 18:28:08","block":7963615,"epoch":373,"slotNo":75847397,"epochSlotNo":74597,"stakeKey":"stake1uytjsyrzekrl2g9fljksxwzdrkw40ett6ylc8r4njse7yps5k24fe"},{"txId":54167584,"txHash":"c3ea9ce0090e126d68ee39d4101b44d81b0a0bd641674f78dbd6b12ded13d830","txTime":"2022/11/02 18:27:33","block":7963614,"epoch":373,"slotNo":75847362,"epochSlotNo":74562,"stakeKey":"stake1uy8r38g2nzulyd4030yet6sfeaaavz20mxg3kd778sz9y6qayzwy3"},{"txId":54166637,"txHash":"45ce24c9ed671a7b8a2be11c216e7c543ae844470b56a78d47754adbe583b83e","txTime":"2022/11/02 18:16:30","block":7963590,"epoch":373,"slotNo":75846699,"epochSlotNo":73899,"stakeKey":"stake1u94rzxhrsxmwd3kj9cy80ruz59atrvnwx52w2k3xl4dk2yc7njlrp"},{"txId":54166619,"txHash":"c90fa10e80375b23e919e74008bcd729381206ab6227458d7ab2513449ce7819","txTime":"2022/11/02 18:13:02","block":7963589,"epoch":373,"slotNo":75846491,"epochSlotNo":73691,"stakeKey":"stake1u8wxehg9kwwf4vckg5yk2gksvhc2tm5gdthcwwpya72lvsstrj7pa"},{"txId":54166382,"txHash":"cc9d598c0a986eef9507be4880ddfb3c1731db64f5e6bd9d0b2456ac4cd91082","txTime":"2022/11/02 18:10:32","block":7963584,"epoch":373,"slotNo":75846341,"epochSlotNo":73541,"stakeKey":"stake1uy9drs980e94txdp0q3uhrun3dkl5ye52y3xerlj5yfqwms7zp4xz"},{"txId":54165546,"txHash":"c8efeb8ed11e6c8e7e41ab26f11e3ee6356ad3f41bd2638d38e0a3de8838cafc","txTime":"2022/11/02 17:58:07","block":7963558,"epoch":373,"slotNo":75845596,"epochSlotNo":72796,"stakeKey":"stake1u8se66p6r0cpmv9d282ugymm60e5jdwyh3nem26r6hsezxqvj9wfv"},{"txId":54165525,"txHash":"abe3a58a645e987912794c31baf2f512b88e904f4405c9ff9d6e6449245fd893","txTime":"2022/11/02 17:57:48","block":7963557,"epoch":373,"slotNo":75845577,"epochSlotNo":72777,"stakeKey":"stake1ux7060ukwalk48l7z3msp0pc8c8k02kzq43sssdw9u2aycsac3u2e"},{"txId":54164944,"txHash":"ee72625d270cf3e18cd2994b31ceed248771088f1f2b271e9e604e8b51c129f7","txTime":"2022/11/02 17:51:55","block":7963540,"epoch":373,"slotNo":75845224,"epochSlotNo":72424,"stakeKey":"stake1uy34079ct7v5el0rkaqf0att3u3ggqd57kt39gm4tple4eslak8a6"},{"txId":54164868,"txHash":"04e076ade15e73a8cca61526e9ed5dd2be23dda9fe1185bf0de75fdd6787ee75","txTime":"2022/11/02 17:49:41","block":7963534,"epoch":373,"slotNo":75845090,"epochSlotNo":72290,"stakeKey":"stake1uxje45tgcyutaafwe63m2qsrnq9330cnw7s0fmnpssyalmsxn3mc7"},{"txId":54164817,"txHash":"c78f0570e73d2974374b39de14a3db5a9d510b55486502f79c08e64d57d48c7a","txTime":"2022/11/02 17:49:21","block":7963533,"epoch":373,"slotNo":75845070,"epochSlotNo":72270,"stakeKey":"stake1ux6kxn3g5zzhr0zh0ldrje0jp4my5sqkdmtpd4e42r83mygjj95sy"},{"txId":54164557,"txHash":"3a642bfc08c2a7099f9f21b13b8f9699336aec0d4abb8a1d7c709c51d0909f2c","txTime":"2022/11/02 17:45:56","block":7963521,"epoch":373,"slotNo":75844865,"epochSlotNo":72065,"stakeKey":"stake1uyd3aa9uppy9p6aaangv6svx8pvt5fr2sm9jchcsudaq29cwv3gfj"},{"txId":54163754,"txHash":"8369fe8f3b2d2772a9c5792dd6f90d2cfd2b28f349a5109cb954f6ad35d5deab","txTime":"2022/11/02 17:34:57","block":7963492,"epoch":373,"slotNo":75844206,"epochSlotNo":71406,"stakeKey":"stake1uyzhf8knp9wa7qtpjhqfrfqvdawlyeq9sxmwz5ywl9hy0fc82a04n"},{"txId":54162641,"txHash":"6bcecd8b9df443e2fee6fa2020bd8e852e4a91119319c4fd01f75084526aa0b7","txTime":"2022/11/02 17:20:14","block":7963455,"epoch":373,"slotNo":75843323,"epochSlotNo":70523,"stakeKey":"stake1uxk77gdzkupgsrkgpg83la5ejza7736cv7lj37xv4lt6vqczyqkkf"},{"txId":54161957,"txHash":"fab2d562828d8c154827e413dccb2a1d6e2972b28e9b22d10ee041988a7ba4b8","txTime":"2022/11/02 17:10:38","block":7963428,"epoch":373,"slotNo":75842747,"epochSlotNo":69947,"stakeKey":"stake1u8s52e3havtj0u6tmtr9cps6tpwmr86pruvc8ycef7h6zds8pydgn"},{"txId":54161943,"txHash":"6357c5af0f8e1c93d0f17c809f38103df98a1d9e2e75fc403ae61b976259db52","txTime":"2022/11/02 17:10:35","block":7963427,"epoch":373,"slotNo":75842744,"epochSlotNo":69944,"stakeKey":"stake1uxxdd6w980hc34ugqhkkzwgrjxydrpydplqg33k3fpu5l9saswkkw"},{"txId":54159605,"txHash":"b684f92e0949eb41a59f0a8c4e3cda7891003baa548dcacbd35d986185df0670","txTime":"2022/11/02 16:42:05","block":7963342,"epoch":373,"slotNo":75841034,"epochSlotNo":68234,"stakeKey":"stake1u9pkfe39gqnh5zlg93ascpx8xyshy7gh84d3l35mep9rgegz3q2z2"},{"txId":54159487,"txHash":"ea4b7aca455ad775af99e5670bc52d2b5a445660c480b2fbf3c046ba536a4aaa","txTime":"2022/11/02 16:40:39","block":7963339,"epoch":373,"slotNo":75840948,"epochSlotNo":68148,"stakeKey":"stake1u8t2n7a40rfjjku4lm332r8xq374wt89wugccautygyxnhcm0qk3k"},{"txId":54159451,"txHash":"17c1e2a1322812dadfeac22e9ce677adbd5770b2977db8786664d2ab95f45a00","txTime":"2022/11/02 16:40:38","block":7963338,"epoch":373,"slotNo":75840947,"epochSlotNo":68147,"stakeKey":"stake1uxmnmrgc06nu7734rknemfzv0xzkcqpt2ldmutywctgjm3c8fpyny"},{"txId":54159443,"txHash":"20fb6902fd7dbf743fb13b3aca86fa64a9eb4f3aef525f423f6beb42e279a71d","txTime":"2022/11/02 16:40:38","block":7963338,"epoch":373,"slotNo":75840947,"epochSlotNo":68147,"stakeKey":"stake1uxmf8xa8ygs33cm9j6fk6xmefcx8s8hgd7mdqw49z5hkheqsq5n2k"}],"totalItems":325481,"totalPages":16275,"currentPage":0}