{"data":[{"name":"43554259","displayName":"CUBY","policy":"14696a4676909f4e3cb1f2e60e2e08e5abed70caf5c02699be971139","fingerprint":"asset1s7nlt45cc82upqewvjtgu7g97l7eg483c6wu75","txCount":4030,"supply":"43252003274489856000","volumeIn24h":"0","totalVolume":"947926930784172584373","numberOfHolders":153,"createdOn":"2022/01/19 02:33:50"},{"name":"4154484f4d","displayName":"ATHOM","policy":"5acc52d5696e52345aec108468050d9d743eb21d6e41305bbc23a27b","fingerprint":"asset1cw6a0zyc97cy94qgt0u4t2hz54c6rdtcrzc2ta","txCount":12454,"supply":"9223372036854775807","volumeIn24h":"0","totalVolume":"1676033583508946923779","numberOfHolders":453,"createdOn":"2021/03/29 23:30:45"},{"name":"4341494154","displayName":"CAIAT","policy":"b1ebea36cfe204a418dcab6a6e95ba9866eaf16da7c4281fb255c7de","fingerprint":"asset18lmjj086jh7fk3y3qn07xyg97hpc5x7lahsrjn","txCount":1123,"supply":"9223372036854775807","volumeIn24h":"0","totalVolume":"626963411198059031321","numberOfHolders":55,"createdOn":"2021/12/02 06:28:01"},{"name":"485043","displayName":"HPC","policy":"b9befaf6d58079a8df618555d6371c02029b03b99db6f5b0c9bb2635","fingerprint":"asset1sujuhupwe0gld3cpxlkfme2ufpmctrhax5aj7u","txCount":734,"supply":"9223372036854775807","volumeIn24h":"0","totalVolume":"449498109586061462606","numberOfHolders":20,"createdOn":"2021/11/21 07:45:34"},{"name":"6d65746143686c616d79646961546f6b656e","displayName":"metaChlamydiaToken","policy":"30aa65f5efa96eaf3bc9a3e76ff47c6eac6472f908d6591f93e329fe","fingerprint":"asset1r5rus2gv8m86yynlh3erhx50r97qtaeutkp504","txCount":83,"supply":"9223372036854775807","volumeIn24h":"0","totalVolume":"75631650806714615184","numberOfHolders":6,"createdOn":"2021/12/03 03:48:50"},{"name":"46726565646f6d546f4e6176616c6e79436f696e","displayName":"FreedomToNavalnyCoin","policy":"9b9ddbada8dc9cd08509ed660d5b3a65da8f36178def7ced99fa0333","fingerprint":"asset1rp3y0cqvee3cxevwxaelg42veff76xa2tahlfz","txCount":44,"supply":"9223372036854775807","volumeIn24h":"0","totalVolume":"98233720368547890871","numberOfHolders":4,"createdOn":"2021/03/02 01:24:58"},{"name":"","displayName":"","policy":"9b9ddbada8dc9cd08509ed660d5b3a65da8f36178def7ced99fa0333","fingerprint":"asset12pklc3w58qexsp2pzkwhh4maf2sh2et7wu8gav","txCount":11,"supply":"9223372036854775807","volumeIn24h":"0","totalVolume":"64563604257983430649","numberOfHolders":1,"createdOn":"2021/03/02 22:04:49"},{"name":"55534443","displayName":"USDC","policy":"869fc72c11977e4be3e8e1cc63cca008a925886332795c9601f965ca","fingerprint":"asset18f7zn35vthuh24ed4y6ucvmheur2wggcdfwj29","txCount":3,"supply":"9223372036854775807","volumeIn24h":"0","totalVolume":"27670116110564327421","numberOfHolders":2,"createdOn":"2022/04/01 13:27:59"},{"name":"55534454","displayName":"USDT","policy":"25ff9715e1619277ef98c49a16f75d9dc430895504a82febb57e4713","fingerprint":"asset1tv2j54daupnag632vl838es282duv3p8em3d3y","txCount":2,"supply":"9223372036854775807","volumeIn24h":"0","totalVolume":"18446744073709551614","numberOfHolders":1,"createdOn":"2022/04/01 14:36:38"},{"name":"57425443","displayName":"WBTC","policy":"84c920ee2b81a5cc5fca698a0b18093cc5d033e362e187acb83c577f","fingerprint":"asset1zumrxdwdtrph9ujx7veuv2wnw6h46e3dkh2l4p","txCount":2,"supply":"9223372036854775807","volumeIn24h":"0","totalVolume":"18446744073709551614","numberOfHolders":1,"createdOn":"2022/04/01 15:13:38"},{"name":"57455448","displayName":"WETH","policy":"318847394ec6842e1069f93c4b3641418a128ab57a97fcca520c7ff2","fingerprint":"asset1rqm40arh980fn6jjnq666efd47gl0j6hse4p9u","txCount":1,"supply":"9223372036854775807","volumeIn24h":"0","totalVolume":"9223372036854775807","numberOfHolders":1,"createdOn":"2022/04/01 15:30:44"},{"name":"524156454e5343414d","displayName":"RAVENSCAM","policy":"747ced8acca43caeedc14a6d110550c937868fb276beb639c0fa297f","fingerprint":"asset1exu5llsa3nh8qxjurkfqftzay976jlxhn5z07g","txCount":19,"supply":"9223372036854775801","volumeIn24h":"0","totalVolume":"156446744148284053485","numberOfHolders":3,"createdOn":"2021/10/28 20:28:21"},{"name":"54686973546f6b656e57696c6c53656c664465737472756374496e53657665","displayName":"ThisTokenWillSelfDestructInSeve","policy":"7a8414dcb7037abcc155a8edb7d56f7a3d24fa14d57635c5fd5a185f","fingerprint":"asset1764754mzpc48wl3h8lhs26vptvtaagdrtmhgfq","txCount":18,"supply":"9223372036854775000","volumeIn24h":"0","totalVolume":"119903836479112075000","numberOfHolders":1,"createdOn":"2021/03/02 11:33:55"},{"name":"a449f98fa06fff1d6c17b95c65ca609660049dc683cc3e94d3846b05419fc20d","displayName":"asset134xuzdykmcpjnfwpd0c4v60jvh2jh9rvlxr6dy","policy":"026a18d04a0c642759bb3d83b12e3344894e5c1c7b2aeb1a2113a570","fingerprint":"asset134xuzdykmcpjnfwpd0c4v60jvh2jh9rvlxr6dy","txCount":36,"supply":"9223372036854774807","volumeIn24h":"0","totalVolume":"175244068659005258081","numberOfHolders":9,"createdOn":"2022/04/01 19:34:26"},{"name":"0242c3c529575103cba90fa9503b8272abba5de97695739849b152050ae0beb7","displayName":"asset135ynrw3mhqcv5nmhvwyswncndxs66jsv4cv5sn","policy":"026a18d04a0c642759bb3d83b12e3344894e5c1c7b2aeb1a2113a570","fingerprint":"asset135ynrw3mhqcv5nmhvwyswncndxs66jsv4cv5sn","txCount":28,"supply":"9223372036854774807","volumeIn24h":"0","totalVolume":"101457092237773701076","numberOfHolders":5,"createdOn":"2022/04/01 19:26:22"},{"name":"c0a74e09e9b8985815a55d6cac0827031e50ae188221615a44638b52c5865e87","displayName":"asset19ypq87k32ch8gtt6hxjgl4cx4kwvnqwv2aqmjc","policy":"026a18d04a0c642759bb3d83b12e3344894e5c1c7b2aeb1a2113a570","fingerprint":"asset19ypq87k32ch8gtt6hxjgl4cx4kwvnqwv2aqmjc","txCount":5,"supply":"9223372036854774807","volumeIn24h":"0","totalVolume":"18446744073808143271","numberOfHolders":4,"createdOn":"2022/04/03 19:36:28"},{"name":"377949fb80c44ab5647e7609bef787c344a1ef079e47e66a23d0a1ccf8f11ffb","displayName":"asset13lpm27dg0qhg7fy93v0vav4wlflsegv8t7jvh3","policy":"026a18d04a0c642759bb3d83b12e3344894e5c1c7b2aeb1a2113a570","fingerprint":"asset13lpm27dg0qhg7fy93v0vav4wlflsegv8t7jvh3","txCount":4,"supply":"9223372036854774807","volumeIn24h":"0","totalVolume":"18446744073797770054","numberOfHolders":4,"createdOn":"2022/04/03 19:17:50"},{"name":"f734af78799c4e857bfd37e8f919678020c0bb3f2aae9328bdb7c557a939a926","displayName":"asset1kwm4jvmz9kf6jpcn5z4yrck0zs3j0wd2u8a6xw","policy":"026a18d04a0c642759bb3d83b12e3344894e5c1c7b2aeb1a2113a570","fingerprint":"asset1kwm4jvmz9kf6jpcn5z4yrck0zs3j0wd2u8a6xw","txCount":1,"supply":"9223372036854774807","volumeIn24h":"0","totalVolume":"9223372036854774807","numberOfHolders":2,"createdOn":"2022/04/03 20:28:06"},{"name":"6e6575726f6e","displayName":"neuron","policy":"d070f6b0e45fc3cd280e21fd4fcac4d59b3d35b23387eb6559455879","fingerprint":"asset1cfkf4zw2ccghnjcdav3w7flmtd4cpjxsn4ck2v","txCount":134,"supply":"9000000000000000000","volumeIn24h":"0","totalVolume":"10800003209930779176","numberOfHolders":16,"createdOn":"2021/11/20 19:22:42"},{"name":"54726176656c436f696e","displayName":"TravelCoin","policy":"ba37e7c25e5b425025929bfcb8d03cec0d758654a844109c3283b338","fingerprint":"asset1njmmlqplqy36h2zytkuwwkrmt84p4yds4am65v","txCount":2,"supply":"9000000000000000000","volumeIn24h":"0","totalVolume":"18000000000000000000","numberOfHolders":2,"createdOn":"2021/11/18 02:30:07"}],"totalItems":4177264,"totalPages":208864,"currentPage":0}