{"data":[{"hash":"a75236c4d645b68a81702c338bc72b4a86635a38242c155b15d78639bba4938d","blockNo":8127302,"blockHash":"ac0a8201646ef9516421e295aa0dbad09dd3d6e8d3b015e9c4b7517c7041bf14","epochNo":380,"epochSlotNo":426036,"slot":79222836,"time":"2022/12/11 20:05:27","addressesInput":["addr1q9x2jzdeyj7q5u9uvhpzvpuf394f8tekyp26dg4q7kpcyw24mv86l2c6nvmhzu7n4rqjpp84p6ly3gucwtukw0tllf9sjln2tv"],"addressesOutput":["addr1v99utrh2xfzewtejetqj53w34qlx532zyrahagjf9y4969gcjzd2t","addr1q9x2jzdeyj7q5u9uvhpzvpuf394f8tekyp26dg4q7kpcyw24mv86l2c6nvmhzu7n4rqjpp84p6ly3gucwtukw0tllf9sjln2tv"],"fee":382465,"totalOutput":78898916,"tokens":[]},{"hash":"ff7abc55ff1ebfb55e1ad5148f9099e6ad036eee027c37450f1842df2d0601be","blockNo":8127296,"blockHash":"5432074666bc325508935044cb08f368e17d7050c15d17540b25f1b3aa79e66b","epochNo":380,"epochSlotNo":425883,"slot":79222683,"time":"2022/12/11 20:02:54","addressesInput":["addr1q9x2jzdeyj7q5u9uvhpzvpuf394f8tekyp26dg4q7kpcyw24mv86l2c6nvmhzu7n4rqjpp84p6ly3gucwtukw0tllf9sjln2tv"],"addressesOutput":["addr1v99utrh2xfzewtejetqj53w34qlx532zyrahagjf9y4969gcjzd2t","addr1q9x2jzdeyj7q5u9uvhpzvpuf394f8tekyp26dg4q7kpcyw24mv86l2c6nvmhzu7n4rqjpp84p6ly3gucwtukw0tllf9sjln2tv"],"fee":382465,"totalOutput":84281381,"tokens":[]},{"hash":"4d8141bf857eb72bc54f1cd325622954a2082469ac97ec6ba3906d7edb92594b","blockNo":8127283,"blockHash":"a354bf82efdb22827bf33af22e0af8176a9b9c6d5605a005d9a68a1f8885b4c2","epochNo":380,"epochSlotNo":425710,"slot":79222510,"time":"2022/12/11 20:00:01","addressesInput":["DdzFFzCqrhsrhhSGVMBGKj5ikzxCc7mxU6jxGmgEuv5zdGjNwo6Ktb9ABN4sBgnpkfDKuCh3tAiaMqqrKNPwZX4vxPYEC3HKKWa9QBEP","DdzFFzCqrhsjFDS1ireExVYwM24jRDshbRmb1Q5hdY2G4mr6sd7iJLui5C9M5GzGwYasajmQotZhqHgFpxFKXzPKwEjzwaMqDiWALM28","DdzFFzCqrhsoep4gTCzME9dumoskyD3BJAkxLgXQVBFHdX8sHnL5FChmv8DeLdp1oVL5sZcbnJzSo9UkLs3vr6FwC4uLph8fZiZuW4Lj","DdzFFzCqrhsyjZPkCx3BtWLc5DeAnyQ5tNntpsapGDtnChhHnhtpQNfaWVhTLsWdNfj84QaGBEvhEPU4etTweTaHj282zoYEQL9t7T9Y","DdzFFzCqrhsyinRmEnNezUhq453nV6hHmYNiBRu9m6Rcx59xaXk1Rkw6CbgHzm1ykwamgTbvz7dwVW4SB3uxszJEmR4hY4tEVEmRn54M","DdzFFzCqrhsvyg6p27r3aVFrhHQCDobkWfS6rV6JBDyH2zHifTPSUuVv1G9eU1KeGho4Kubnoik5xz9AdNjcGio6jcTNYvkDnQbVkVLy","DdzFFzCqrht54dXKmFMo6GpGy3ARJfdHMVucTVdpU6MHn5sttgeC5Snwg5QNCaEKzk1BksCy4E7i3zFGJCsn5GPKJTbkvUf7qcMWcrVn"],"addressesOutput":["addr1q9atjfpqwdtg7ytz0pz9zcaqvx8zr2uv6ysvc4csqynr683dzefudzxhadht99nh8gv4l3z93d486ygllgxuh2drrrpsdw6fws","DdzFFzCqrhsz8ozdCirGJ22Q1RACff3wbQcBysGw3DA2ZoMtqkNTrLTAR5qKCzzFwEpqZLGMBkfSUE66WjSc9dQtVzdMFb8HM1RmAC2X","DdzFFzCqrhsjvgzVd81YmWLMdBoimD483gzEXST6uNHfnoec7YHF3mU9p9L8tpZd9YQ5V5M9wMrVJEH9yM67kXRXPX54eep7EymCsbUe","DdzFFzCqrhsrhqPgGnXPwA1MrrAyNn7zGGZigX93CuouWgnTdM98U25abpGi2HpMdygCX3xu73xyXXBwfTrSoJLEeZnV88X4HZtasUwp","DdzFFzCqrhsmangrF3xtGwkvKHQe4kJV2RiDjSN1Tb2DvqkieRibXNq67HWVuvqiXuETkm3iBWr5BMBBmVxDhkEEfQV9pomfYas5frpy"],"fee":953761,"totalOutput":75608271817,"tokens":[]},{"hash":"7d1f5e13738f4b0bba570734e9454541a0c3077d24ea0e10390fb4773612f744","blockNo":8127229,"blockHash":"d0e58f40391b054e642d298bd6872d8c175ed3db9528a9235c6bc95743fdde68","epochNo":380,"epochSlotNo":424758,"slot":79221558,"time":"2022/12/11 19:44:09","addressesInput":["DdzFFzCqrhswpn44YUcAbnhsvRAQ5nh8P85NUV6J84RAbRVN2PF7Usacdxx11hkAVMkg853cyf5J3JF5uoJCchYUqanwAyEowmF5giFE","DdzFFzCqrhsqq5DMHcGfBa1FbpWng8tAZ29kJMwBKvNWykfEfsHXtC1PVVKdx9a93TEFc5aEvyLaB8ocdZE67cS2zv12BScmj6tCAVvG","DdzFFzCqrht84uTyce8XFFaGYbQWZKZ5F51xGZYdQY2R7R4LakyvU9ttVtdwnWeS9dDigyq5oZroTjRpfPjEoNfF5hhdguiJGUzZJcxx","DdzFFzCqrhsx1XyNXvA2qdMVDdJ1PtDuzZq3tXomxSEUNiQMKJJgwxkE3Pah8b26Mtog3U7NNKGyjn1EDXT6CDe2pJYx8dJYzb9jDzsV","DdzFFzCqrhsoEXV4qq3bFNNyUUQuhGzn5LKLUpUyzemeYZVmVB3d3BrK6nphqqVzpone84G23cGFDYEb2XXLqMAfinZwHvBZ4RGtjbeA","DdzFFzCqrht26bM2sCmgK5p4jPJoY6Hz41MRA7XXUUYCtGiuTGuf2TAtifhyg18x2AVjYtEUdq7u8VJVW8SX2SP3aEJCWB3rWmUYUaAA","DdzFFzCqrhsmvLd3ux8DPWrsKLhE5qUK8xvVks3YTaZjiTCe8EeiuSv3afFtPeCujDpF73bKDKobr7dnPHQxjt9M81F6rdKFyGyJdf44","DdzFFzCqrhsqgpTWwNUuRWTNDjb6znm81nQhF5m1j7kgzwEfSknfJGnXxk9AuzcpJ5vLfbnT2a6gY4iFm9jkNry1dL2dYR1cv1DkYDa7","DdzFFzCqrhsgvDKgYA4ECzm7ubUM3PUAuhvRdnNNunBSEH6KdioYHiDi6NPUhcTiP5Ju9dA9ZD6gung2jVdtpy5aYHw1zvCa6pMyyuXh","DdzFFzCqrhssbZE9NpDTtQN7iF6iz8vSvJX6PN8Q1Gn81JSaVH9jBGevcBR6eVwkdNmqHAnCi3ZVLPHF7853AkSYzni4qrYQRXSc2qkb","DdzFFzCqrhsnqoyodkjJhXa522t8kHadt8gmdwUMXfRVosEqdoNjccWBtJsM83UjdknQXoMkPcW4xqsUkx7QAxGq4nXWAjHSJhFBb23S","DdzFFzCqrhstqdqx6jXC9RLtmwUCZfKa8G2jF4bwk5mNdQoagEGACCKJhb4tbt5LFUt87r2HUrmVE67Q9CCqa8HyBRYmHZdRUeC95TaK"],"addressesOutput":["addr1q9atjfpqwdtg7ytz0pz9zcaqvx8zr2uv6ysvc4csqynr683dzefudzxhadht99nh8gv4l3z93d486ygllgxuh2drrrpsdw6fws","DdzFFzCqrhsyjZPkCx3BtWLc5DeAnyQ5tNntpsapGDtnChhHnhtpQNfaWVhTLsWdNfj84QaGBEvhEPU4etTweTaHj282zoYEQL9t7T9Y","DdzFFzCqrhsjFDS1ireExVYwM24jRDshbRmb1Q5hdY2G4mr6sd7iJLui5C9M5GzGwYasajmQotZhqHgFpxFKXzPKwEjzwaMqDiWALM28","DdzFFzCqrht54dXKmFMo6GpGy3ARJfdHMVucTVdpU6MHn5sttgeC5Snwg5QNCaEKzk1BksCy4E7i3zFGJCsn5GPKJTbkvUf7qcMWcrVn","DdzFFzCqrhsoep4gTCzME9dumoskyD3BJAkxLgXQVBFHdX8sHnL5FChmv8DeLdp1oVL5sZcbnJzSo9UkLs3vr6FwC4uLph8fZiZuW4Lj"],"fee":1002161,"totalOutput":50552328153,"tokens":[]},{"hash":"85e3640175de2cffc157abf5792ad2e063dcf8a6c2de5e8edfa513075c044f20","blockNo":8127116,"blockHash":"d0d525b51630dcdbc461e734d0b2906c29a65648834e28da2834d419f1c41492","epochNo":380,"epochSlotNo":422133,"slot":79218933,"time":"2022/12/11 19:00:24","addressesInput":["addr1qyvcr8mppy5g393nnquyrxhlwwf2ku3h5cwys0hjlaejvpmtfwww90n8hqpztgvk3uf8vu3pcs9s4ca27murgrfrk23qaavtsp","addr1q8xu734wyp66m5uv7g888n85h87lc9wdrm07a2c2l2kahyrtfwww90n8hqpztgvk3uf8vu3pcs9s4ca27murgrfrk23qnk2g6s"],"addressesOutput":["addr1q86mxamv58w6ewhz0dc2c9m43w99vjaslgkdskdjc3upr540v6eh6w72qux4x0zezsg2aszmenuqk2tc2f7hwffn789q4quxy6","addr1qynqkps2fme5kyg9llfr2uq2umadh7vylpsxlfjjt5lhqettfwww90n8hqpztgvk3uf8vu3pcs9s4ca27murgrfrk23qhgl6nx"],"fee":355229,"totalOutput":122294634,"tokens":[]},{"hash":"60eee2cbb0f83e5c2914c6d2b68662178c414c96edf8ddfbd26aa5e8a7539855","blockNo":8127063,"blockHash":"8feb424ac0573993885d9c0fc77c8597b9a47f2b4a26412453f4e98fb64e5756","epochNo":380,"epochSlotNo":421223,"slot":79218023,"time":"2022/12/11 18:45:14","addressesInput":["DdzFFzCqrht7ZGZTuexDDiR68uxbmrz7ANe3zNP6EYoXRQQHWh7FnJm1nGjARzZeKkYgEwzkyzz5mzP2cqaJAWYgzGseqqaqQ2bUqTsJ","DdzFFzCqrhsgFiSJhkbAe1rANihn7bZVxA1AgZeDyLwy2s4dJaMExWgdznPpUKuQjTHRPRyRoVxzHr68LReDoPx19D3T2MAYn7XXgS6f","DdzFFzCqrht4e4Na8e9MYKM3YH2MoAHrNWMBT18YSUBsExkpHmpbiYxZdP7zxavhzk1bagEyCBRzAEZmxDzd2tiUmDWiKMcAvf5cnjgg","DdzFFzCqrhtBAF9cPrwfAfU14JrBYaHAMVtvKrT3NzefqsJqAD6uXN6kdTAjfayse7dciqviTLNVmpGQkecrTzbpaSmcZRwK2WS8yaFA","DdzFFzCqrhsoEXV4qq3bFNNyUUQuhGzn5LKLUpUyzemeYZVmVB3d3BrK6nphqqVzpone84G23cGFDYEb2XXLqMAfinZwHvBZ4RGtjbeA","DdzFFzCqrht8P6yd5hxBdD6Q8KMJ4bsx4znV9NWnnnJ2BqbXXVausjmpXVXxg8y9skVLAsHwvfbQgTgVayB3TpWKvFwhAoKbYRr2aH8S","DdzFFzCqrht46U1zKNTTsZcKegUtKDa8ns1gshwzGpzDhEViUqVS12ZbYTvhwCbi7AqC3KgsWehwaEaxkGpsEVoAb7pwMPUcYRdjupWu","DdzFFzCqrhsytnexTcveouXFwAgTxCgBKC9s8j1B6G7GqSKcFZp6AC9st6jyj2F3k4xwDoaZMo8zQh6HigcnpGhiBhmhEiqD18t8Q7Mz","DdzFFzCqrhsqEw791P7ZzQ66jyBQhPSKE3whduiZXbCs42A8RKZDPA7YPpBdkd2WvjVFQ3CekPT6iWrwuakmSk5CK7DcdRFA4a8W5QeX","DdzFFzCqrhsdzK42MpiYLrWq4RcVTktQvBLy44xqqfUNDCQmY5mdyZ4Rrk9mb41wQD84G41uUWBfdgN6cEN692v4xFfKn2UNqejQ5Ur1","DdzFFzCqrhsdzK42MpiYLrWq4RcVTktQvBLy44xqqfUNDCQmY5mdyZ4Rrk9mb41wQD84G41uUWBfdgN6cEN692v4xFfKn2UNqejQ5Ur1","DdzFFzCqrht1hyBdaoJbYEWKHjjVQFfouCr9aAFmcNhGrwCryuSPcJKXgnpvJSEKzDjXqC3L55YjoQyV857ZMRZ9vss4ZKPHHpfhwkCK","DdzFFzCqrhtAETb1acZPksmCutWu9DUpT6WgKZpVb4p4ocJvNrSp6zMxg9jbNEagpLjHMexVt4Gg4y6a4bQKAjkysBihZSNVRVFHYNLm","DdzFFzCqrhsgDq2GvH5iVVx3RG5ipSC9cf69GYxepPX9vTuDh8gUqx4uxdL4RK9umWLkgjD3zPDLS86B4iDeKeeCqAknDDQTiKkHHFHK","DdzFFzCqrht7zZRMFUxhhDAr8e4jRCMFJ7EeUrR4s7H2585j7NP4ZxPiBxsT5P7HUdcR3vNZ6NGFKLdJcM9AFwSvNhJTZhkjZJKRZeDv","DdzFFzCqrht6uR7kU6TZs5zahGEGXNc5vqPXg7vqTS9hYAk1xdrRtudp9QnXTP5KR48raHm9b3E7n8m7J2Rhg9tRrbaRKERdpkuEyJGP","DdzFFzCqrhso1makwftmc9bVQEFehbXLsSrR4HSNDCYUKmGETAQys9ApFjxeR5sPUVCM65wux6cuUtjqADGbseTTLRBVKRadrcA3v2Wn","DdzFFzCqrhsmSkiwW74iAEdxapN9HygwgWWrUabnZRQtpXVUcQScmmL14yVnjD4dJ6mBFqitS4pAohwePdgLkcwWhxMPFgbhfkDt54Wm","DdzFFzCqrhtBY8e5xyYfXcThP2Q8CNrjsg8hEyJzZuQZDgoeQy2PXTFbegSQcGqkLaQ4kT8xh4VtTGviFo8kaTQraeEZ4su3sbq8dTzT","DdzFFzCqrht3rBn1QhirK9XXYMD2AdehxGSLuktiVXMLTMugHKokQz81SH8qGBVueNvTveNth261eCs5DMs12dN8m1Ysfu1npYKvjf3d","DdzFFzCqrhtBaB8AXMe5nzxuHUh9qxCVQphcgzrRutT4qRWXM8DwfjJkUZ9Eadz1QaPwPSL2th9ms2xzFS2qxU1dAKEuC7ma91VCy3rQ","DdzFFzCqrhsvyaP7r1QWoHG7BJD1Evo5Cr8CjKXaEyC2pgekinqmJcmMVQ8iWHP9cHYqkaWofaUoX2HmvLBXtnwMnWGWAJp5Ri1is8wq","DdzFFzCqrhsdzK42MpiYLrWq4RcVTktQvBLy44xqqfUNDCQmY5mdyZ4Rrk9mb41wQD84G41uUWBfdgN6cEN692v4xFfKn2UNqejQ5Ur1"],"addressesOutput":["addr1q9atjfpqwdtg7ytz0pz9zcaqvx8zr2uv6ysvc4csqynr683dzefudzxhadht99nh8gv4l3z93d486ygllgxuh2drrrpsdw6fws","DdzFFzCqrhsx1XyNXvA2qdMVDdJ1PtDuzZq3tXomxSEUNiQMKJJgwxkE3Pah8b26Mtog3U7NNKGyjn1EDXT6CDe2pJYx8dJYzb9jDzsV","DdzFFzCqrhsqq5DMHcGfBa1FbpWng8tAZ29kJMwBKvNWykfEfsHXtC1PVVKdx9a93TEFc5aEvyLaB8ocdZE67cS2zv12BScmj6tCAVvG","DdzFFzCqrhssbZE9NpDTtQN7iF6iz8vSvJX6PN8Q1Gn81JSaVH9jBGevcBR6eVwkdNmqHAnCi3ZVLPHF7853AkSYzni4qrYQRXSc2qkb","DdzFFzCqrht84uTyce8XFFaGYbQWZKZ5F51xGZYdQY2R7R4LakyvU9ttVtdwnWeS9dDigyq5oZroTjRpfPjEoNfF5hhdguiJGUzZJcxx"],"fee":1108641,"totalOutput":79717494461,"tokens":[]},{"hash":"d82cac8c57019de6023a0d0abcfd709883b321a542449e56fa5a928113cb1751","blockNo":8126064,"blockHash":"2081ce9bcc21b1eb41c4c648acad1f2672d592bc6b9706aded8c9bedacd47eb1","epochNo":380,"epochSlotNo":399865,"slot":79196665,"time":"2022/12/11 12:49:16","addressesInput":["DdzFFzCqrhsyinRmEnNezUhq453nV6hHmYNiBRu9m6Rcx59xaXk1Rkw6CbgHzm1ykwamgTbvz7dwVW4SB3uxszJEmR4hY4tEVEmRn54M","DdzFFzCqrhsdzK42MpiYLrWq4RcVTktQvBLy44xqqfUNDCQmY5mdyZ4Rrk9mb41wQD84G41uUWBfdgN6cEN692v4xFfKn2UNqejQ5Ur1","DdzFFzCqrht4g2fzuv1165diAG6gJR3fAZyepMMPZ1ybb6ZdKvsQu6rTeGts5eRSypevL6nFwbTFxoSh7549jQXLgCw7guZ2Aqn64qiX","DdzFFzCqrhsnePMRVXABxqCUdnevQEVj2So6fmNmzY8FQkke5tdrbgDzh237hssAfYkBJhpWfS2SVnr8NyWn1Za2wiB3JNEvDvX1sAkY","DdzFFzCqrhsm9L8jfpe3ySkNEqShrep68uotjJc7GZiGn7fjnEvivXLeEvtqsNHqTNcBhkKwNXnZcLNTJyvArwTbmi8C6cv4wmdw1cgg","DdzFFzCqrhspYJ45ndGx7s7X32eyTATbdLnzmWyEjWQYHg7WbJP87UdAqrJFz5ko9Pd35iFvkqEdei8869KuoDtkUtt6btkZ8ysi12Jr","DdzFFzCqrht5XLd1AEN7bJwSETXEjrpzbutCLebymJxMaWKqQ3f1bYzkBUxcqnAzjsCi1VDeZtbnfMcqQ9jmQ6S8SPH7hGFYEY8bwfK1","DdzFFzCqrhsiHDpLeQGgtmFYGTeaJB4c6RUpqpbdsrN34vovfY1mS2ZWahaiGR8XkiynbrQ39cF6oLi2Y22Bp8C98o32ENgFMVVcjgtA","DdzFFzCqrhsgQsk9wuefnUQyJ6RUXdnBXV1F7kGQMVATcqtVtzxHMriTJuGyZp2Hb28RSb1GRavv9Pi8XH36Aj8EXHRZ1ExzAgnBpXfH","DdzFFzCqrht3QXmBgJ1rmpMDXCiqvnBCahoxjdRzorik4tWeEGBhRSGFBKfcRXCvVp1gr7fZAjcwD6nff5gY6ADLA2A7m2xKtYKLcahk","DdzFFzCqrht8iQfsuVRC7ybcBpYRvPTJtWcAX4WEYgLe9TjZKXQbDniaDurUNihD2HrVrFsmTBzE9vHpvyNFk91PpSFH4zn1HLNdg7Ka","DdzFFzCqrhsqmHkLJkXBxWgiVRGfkYLyLHSqCk4cJxGK3szkGZygZafmJhoUmPPqTWDvahbdZN6qir8zubahjyVtsJ214UYRL5NiXfnq","DdzFFzCqrhsrfK1PZT2KGUtQwQNFEeh1RVbPf7PuCSkMLceNq3vs69WXE86bgr7vPEY3VpeWWbbXvqXihDYg1beP6dwe6GE1sYA3bSTP","DdzFFzCqrhsxur7k5CpRUMwasQjqZcWXXhAFpEjKdS372PjGCDsv77CTpfu6KAFxErMTZSyVsE84RJjCSaMHin4UXE3mPTKG82X8qqUz","DdzFFzCqrht1mVV9D6em17W43BYArkV7qcuu842imrv6vs6qeNg5vz4RsgfjeczH1Q1LeQa4C1hVAfp2aazunzEsvjkbhvEg9sU6iseH","DdzFFzCqrhsweNVnoghYox2Mxy5RM34J9NRm1yL99en1creK1M8AsP1kZ9qmKztLaAiivVvSqZdWoCeBXcxThT4Q1AkJN9EnPRM7FWyF","DdzFFzCqrhsdzK42MpiYLrWq4RcVTktQvBLy44xqqfUNDCQmY5mdyZ4Rrk9mb41wQD84G41uUWBfdgN6cEN692v4xFfKn2UNqejQ5Ur1","DdzFFzCqrht5ct94zhguUXUzYZ796TJW5SPQgujakUsY5iLJd7k2Yz8Ysox782aStuakgekaB39T4krBNgkQfTdsMW71HnviqBoZ1mzf","DdzFFzCqrht3D1RPJEZmsJuR3ENLpU7ABonVXfPa9PiRQhuy5CdLWjepxiGW1C6HY4M5dyLFL1CV8jRYmGDLgCVsr2YyY7LmH9Eo7v6A","DdzFFzCqrhstrJ8ysh81aV5FY3dx7CdhSFowr5RXTLXgmknk1aAqzhkt8DanAPtM7v5xBgt5Cv4eV4pk12LxbyCTuM3nMQPRHC65zW2c","DdzFFzCqrht6k6yyLoDYRzzTxA7224SjQiBgEp91Nf9cwdCpbDoiEoExpq6DMBZMSvFcsv9S56rUFhew4sxnzTNmhaMv7JPEsBBKjYr9","DdzFFzCqrhsmrZ5QS9Cekp6swVXcFWKJaB8thgTDztRoUK9M8yj6kHcLwo9KXNvFzUvkFs3QGmWsWMREUtE1RH8wNtxnv6LXMwYB8eAv","DdzFFzCqrht4Fj4ACnfY5zT295CEuAxwyfE6pKqnByHDuiWP5JJKpfzuqiRQanRVAkQFpnWwsfvFQ4NKoRYhD9hfjTvVbEpFWKF17P26"],"addressesOutput":["addr1q9atjfpqwdtg7ytz0pz9zcaqvx8zr2uv6ysvc4csqynr683dzefudzxhadht99nh8gv4l3z93d486ygllgxuh2drrrpsdw6fws","DdzFFzCqrhsytnexTcveouXFwAgTxCgBKC9s8j1B6G7GqSKcFZp6AC9st6jyj2F3k4xwDoaZMo8zQh6HigcnpGhiBhmhEiqD18t8Q7Mz","DdzFFzCqrhtAETb1acZPksmCutWu9DUpT6WgKZpVb4p4ocJvNrSp6zMxg9jbNEagpLjHMexVt4Gg4y6a4bQKAjkysBihZSNVRVFHYNLm","DdzFFzCqrhsmSkiwW74iAEdxapN9HygwgWWrUabnZRQtpXVUcQScmmL14yVnjD4dJ6mBFqitS4pAohwePdgLkcwWhxMPFgbhfkDt54Wm","DdzFFzCqrhtBY8e5xyYfXcThP2Q8CNrjsg8hEyJzZuQZDgoeQy2PXTFbegSQcGqkLaQ4kT8xh4VtTGviFo8kaTQraeEZ4su3sbq8dTzT"],"fee":1108641,"totalOutput":66956561262,"tokens":[]},{"hash":"71684f5581815d0bb35d36e39a399bc090d64f9e684131170574082685cb5da0","blockNo":8125956,"blockHash":"ce1e5d9607ecc5e9f4fc824f50c6de326663aa3d7c7ebbe74067b2db5cbdcd84","epochNo":380,"epochSlotNo":397485,"slot":79194285,"time":"2022/12/11 12:09:36","addressesInput":["addr1qy0xznhgdhqj9u4g6jjdntf2cxy5lyad8j2p6a6dp8jwwttfq4uncdzu6hqlxn7gva2xsaln40x226fl8fsnqyyvzxtqqm3qw9"],"addressesOutput":["addr1zxgx3far7qygq0k6epa0zcvcvrevmn0ypsnfsue94nsn3tvpw288a4x0xf8pxgcntelxmyclq83s0ykeehchz2wtspks905plm","addr1qy0xznhgdhqj9u4g6jjdntf2cxy5lyad8j2p6a6dp8jwwttfq4uncdzu6hqlxn7gva2xsaln40x226fl8fsnqyyvzxtqqm3qw9"],"fee":257813,"totalOutput":8947415,"tokens":[]},{"hash":"1dd7addf841b4720b60102a67503b74f8a73cd32f1affc62904685d177b64df5","blockNo":8125952,"blockHash":"c4cded54a5a9655b792bc739c97a3dc93f78723415320931f4811e8bc110ceac","epochNo":380,"epochSlotNo":397401,"slot":79194201,"time":"2022/12/11 12:08:12","addressesInput":["addr1qy0xznhgdhqj9u4g6jjdntf2cxy5lyad8j2p6a6dp8jwwttfq4uncdzu6hqlxn7gva2xsaln40x226fl8fsnqyyvzxtqqm3qw9"],"addressesOutput":["addr1zxgx3far7qygq0k6epa0zcvcvrevmn0ypsnfsue94nsn3tvpw288a4x0xf8pxgcntelxmyclq83s0ykeehchz2wtspks905plm","addr1qy0xznhgdhqj9u4g6jjdntf2cxy5lyad8j2p6a6dp8jwwttfq4uncdzu6hqlxn7gva2xsaln40x226fl8fsnqyyvzxtqqm3qw9"],"fee":259617,"totalOutput":10506848,"tokens":[]},{"hash":"9435951ed4faf8ca928a29b0b469976702655fec59d517941e654a1eda700308","blockNo":8125945,"blockHash":"0da4aed8aed1b741030a0cdf086f48efd9103c0b511debe294fccbbba3f1bd2a","epochNo":380,"epochSlotNo":397308,"slot":79194108,"time":"2022/12/11 12:06:39","addressesInput":["addr1qy0xznhgdhqj9u4g6jjdntf2cxy5lyad8j2p6a6dp8jwwttfq4uncdzu6hqlxn7gva2xsaln40x226fl8fsnqyyvzxtqqm3qw9","addr1qy0xznhgdhqj9u4g6jjdntf2cxy5lyad8j2p6a6dp8jwwttfq4uncdzu6hqlxn7gva2xsaln40x226fl8fsnqyyvzxtqqm3qw9","addr1qy0xznhgdhqj9u4g6jjdntf2cxy5lyad8j2p6a6dp8jwwttfq4uncdzu6hqlxn7gva2xsaln40x226fl8fsnqyyvzxtqqm3qw9"],"addressesOutput":["addr1zxgx3far7qygq0k6epa0zcvcvrevmn0ypsnfsue94nsn3tvpw288a4x0xf8pxgcntelxmyclq83s0ykeehchz2wtspks905plm","addr1qy0xznhgdhqj9u4g6jjdntf2cxy5lyad8j2p6a6dp8jwwttfq4uncdzu6hqlxn7gva2xsaln40x226fl8fsnqyyvzxtqqm3qw9"],"fee":263225,"totalOutput":12068085,"tokens":[]},{"hash":"ab4708ce21662aee9d1f46502ab6d5c2eecf2fbb41a27837daa721ba6e276cd9","blockNo":8125943,"blockHash":"41457dd74528b4c6c91761afba52e5fa89f7742df0861d70b69f014d916684b0","epochNo":380,"epochSlotNo":397247,"slot":79194047,"time":"2022/12/11 12:05:38","addressesInput":["addr1qy0xznhgdhqj9u4g6jjdntf2cxy5lyad8j2p6a6dp8jwwttfq4uncdzu6hqlxn7gva2xsaln40x226fl8fsnqyyvzxtqqm3qw9","addr1qy0xznhgdhqj9u4g6jjdntf2cxy5lyad8j2p6a6dp8jwwttfq4uncdzu6hqlxn7gva2xsaln40x226fl8fsnqyyvzxtqqm3qw9"],"addressesOutput":["addr1zxgx3far7qygq0k6epa0zcvcvrevmn0ypsnfsue94nsn3tvpw288a4x0xf8pxgcntelxmyclq83s0ykeehchz2wtspks905plm","addr1qy0xznhgdhqj9u4g6jjdntf2cxy5lyad8j2p6a6dp8jwwttfq4uncdzu6hqlxn7gva2xsaln40x226fl8fsnqyyvzxtqqm3qw9","addr1qy0xznhgdhqj9u4g6jjdntf2cxy5lyad8j2p6a6dp8jwwttfq4uncdzu6hqlxn7gva2xsaln40x226fl8fsnqyyvzxtqqm3qw9","addr1qy0xznhgdhqj9u4g6jjdntf2cxy5lyad8j2p6a6dp8jwwttfq4uncdzu6hqlxn7gva2xsaln40x226fl8fsnqyyvzxtqqm3qw9"],"fee":267889,"totalOutput":24196288,"tokens":[]},{"hash":"347251ad16fc3014d076f73ed5c128560270b4c6c85e0dfc5a9507c40e54d5b6","blockNo":8125939,"blockHash":"1928a07eef19294056087948ee79e280c9a096b4b8ab5fcf5f16b79665b897b0","epochNo":380,"epochSlotNo":397161,"slot":79193961,"time":"2022/12/11 12:04:12","addressesInput":["addr1qy0xznhgdhqj9u4g6jjdntf2cxy5lyad8j2p6a6dp8jwwttfq4uncdzu6hqlxn7gva2xsaln40x226fl8fsnqyyvzxtqqm3qw9","addr1qy0xznhgdhqj9u4g6jjdntf2cxy5lyad8j2p6a6dp8jwwttfq4uncdzu6hqlxn7gva2xsaln40x226fl8fsnqyyvzxtqqm3qw9"],"addressesOutput":["addr1qy0xznhgdhqj9u4g6jjdntf2cxy5lyad8j2p6a6dp8jwwttfq4uncdzu6hqlxn7gva2xsaln40x226fl8fsnqyyvzxtqqm3qw9","addr1qy0xznhgdhqj9u4g6jjdntf2cxy5lyad8j2p6a6dp8jwwttfq4uncdzu6hqlxn7gva2xsaln40x226fl8fsnqyyvzxtqqm3qw9","addr1qy0xznhgdhqj9u4g6jjdntf2cxy5lyad8j2p6a6dp8jwwttfq4uncdzu6hqlxn7gva2xsaln40x226fl8fsnqyyvzxtqqm3qw9"],"fee":228157,"totalOutput":29464177,"tokens":[]},{"hash":"60a1318f993cd2f824c44cf9f5b5d58cbfca75d739687e9e7f16a3a8d3f88eca","blockNo":8125925,"blockHash":"71c093121b375c70396931f52e36d2f5910c51b5e80ec74f85a34c7621d5ecdb","epochNo":380,"epochSlotNo":396833,"slot":79193633,"time":"2022/12/11 11:58:44","addressesInput":["DdzFFzCqrhtCSo9eZvQUktpm9deF1E22RcCUpgDZ758NrUPVnydmkwjvqhjiLZJuSZJJMA7U61vVaVabMd1ChvzsSMTs7YZKAToMKRXp","DdzFFzCqrhsoHor9r6659AtQGbEw2S8r9V6cEAi7bEfJGgfPycSRK6qTMR42MmVWRQz4jz7Eb71YDMRQEUT8DaZx6tLDGYTTYZQR7Eno"],"addressesOutput":["addr1q9atjfpqwdtg7ytz0pz9zcaqvx8zr2uv6ysvc4csqynr683dzefudzxhadht99nh8gv4l3z93d486ygllgxuh2drrrpsdw6fws","DdzFFzCqrht5XLd1AEN7bJwSETXEjrpzbutCLebymJxMaWKqQ3f1bYzkBUxcqnAzjsCi1VDeZtbnfMcqQ9jmQ6S8SPH7hGFYEY8bwfK1"],"fee":366757,"totalOutput":1548566627,"tokens":[]},{"hash":"050d969d21c84c102d8bbeb23feb89a7e310c0352d1177bfcac62a69ca9e9957","blockNo":8125585,"blockHash":"eb2aa866761b5f299ec6db3673e9b0f7c28bb93a2625ab7229f29a89e2b7d108","epochNo":380,"epochSlotNo":389432,"slot":79186232,"time":"2022/12/11 09:55:23","addressesInput":["DdzFFzCqrhsyuzFFG1SBeGVHuJEXyHsN8b8VurcJYfrrwzoFyGZPwheRAxznHbKqZPvgXiccsCAnmzvUcZuToLmEHH6jweEFQxzSDvwK","DdzFFzCqrhtBaB8AXMe5nzxuHUh9qxCVQphcgzrRutT4qRWXM8DwfjJkUZ9Eadz1QaPwPSL2th9ms2xzFS2qxU1dAKEuC7ma91VCy3rQ","DdzFFzCqrhsinoLWzrUizcfZD3ddjQeovrcehf8BKi8RvCrmNwvByY4byEwoj6B9gcejcFpoZbSmvHeg7qUdQX5zjVLqhwMoNXsKuXeG","DdzFFzCqrhsuVPnbTnv6g6Cha4vXAxvUWmhzgGmnWmRAx6xKLtyEvVGutPneELAuPRJ82M5Ymj2DnsjBn1HPgVE3KGfZNebgWRxjwsxH","DdzFFzCqrht3X5FbYsvCcyG1nZXztAfieBVPn3zWuS9jsdQAx8du1vwC3TdoesDkUmtgjAKZZf5X5niHVwR5YfvdRGkkTRFSu2Pc5WDi","DdzFFzCqrht2LuFBzon7MR4DRf9o9tR9MtKgvkK3fKPvigdxnznGWSngdCFFekfQLNv8aUPp7sysfxjqeU3gxwa3HZRSTHV6tP849BHs","DdzFFzCqrht2YNLdTbYNyLi1FMmnqLvKSXJpj5Xww9xcYptqLmA4iRbD7GY8bkEhwiK5PsWF4gLxKwJV6LrYGW4zy4oCPtFb9z8VuewV","DdzFFzCqrhsquaZqLm4u4NRmcXDCjA4cGLzVCbCdmm5wHZuokt18JnVkg6pdE7GB1KsCGWUCPE6cFmhw5ac2Fc1SjdK5Jv9k8vXfbXQK","DdzFFzCqrhsxZ8azz3UwZcfu3WvunR1dib8VkePc5HXiR7VtN1rJEUseKsdi4hanWVU4sBmemSYHFuPj1YxBkixr8iiJrcheV9EnyrSq","DdzFFzCqrht5YDH291CTF4VpU3AoE3ikmaK7gtYcW8XqyM6gj9qxfUjjHnar3qZyg27EXzj11ybGQbK6YjpUJB8oTFEbxbaXFgLPw2LS","DdzFFzCqrhsgesLxPtPX6CnzhcY7uNNHBDLqmZyrBnj7bxgcTtagdw1dT3aC4Jh5SxMfkK7Cm6X3pfWt1vasvGzLd6xPGkUfdmRe2imL","DdzFFzCqrhsuQXwSbh2Rjg5ssyi28vCZfduo32qkB375fBYW6VzzpL1LQPPX8bs26j9ZLd9Lwkb1f6YrCGvzLvAW1uLii8X4kpjsoqGB","DdzFFzCqrhsw6sCCzhNBrYP8KdhrETZGMBmhbF9CQgyD5Zg4VCtPtJjcMVJNQ9xUYRezpmuJQZAgkn3GWWVku27qyYapeAM82zGCvQMc","DdzFFzCqrhtD3GChrfLYMjU8KJwdg2dJjprWjxWeEWJrXEjBqtD6WJVjGxsyvNuCiLoX2wqGrjgNz1MyuUDc2JE5xD8dPMB1kaQck76W","DdzFFzCqrhsea3KbvhktB26HmAdu15VjbKWLREaYrPwE9kD1HevsNSH1jLaAwLfB8aEHPE8CcBgGT8gTGtD1kVup7tmQvjJ92eAoK5iu","DdzFFzCqrhsqE77y7nxQzNpxMEVX5gT23CtE7fVyd3ffET1etw4884QEM1y9BS7f47AcfLZUh7EWYdh3MMa9mkjHa2BZEWmj9FWwKSFX","DdzFFzCqrhsmWB2fs4GcKN3i4kGzMo9vLwCVCsAAQqqNHZZTwhLt4tR5YQXtpQVt7kme3vG27frgiAXVcpyn4zQ8GXa1Dm3cnuh4YW5y","DdzFFzCqrhtBQDyM56XMRMSXHcM4L9YYR5W9gh1n4Zn4HBm3mu6Q4Lcwnn9Ld69AqvvXMV9Uh8DUanUywRfr8Vm33fmd1ZHZsq8LXxny","DdzFFzCqrhsofi7eaYPxkwJ95BBxb3NLaj1DLkhf11aYXwLTHsuAvLvWrnC7VwBTkYhQVauyLVsnPauNtcg2qQRm7Y9SdwqqUefvBKMU","DdzFFzCqrhsxPqmRdrbNcdn2UgebXRWKqVJ8CGzYr1idA29kZvNUxq7iu34VixNws4XC7evU9C7GsGGtRU7s4jneYkYiLvDcedkrecAE","DdzFFzCqrht4t3sCFG6yPSP1CvXtVz4BojgmfRfuMVECGLJbubrtygNZphsTiR6uJJUhkD4pJAEPe3N29fhC7pPKWMPKspUJYKe24ywo","DdzFFzCqrht4SRbdqgNsEJ9ZaJiZyaQ6zJpQGG7zemhqDMpiZb2nLV6PoGqAPiVGukVz2NYxrKtyhHcbGhxk4Je4SkMij8sbNaHLuzAt"],"addressesOutput":["addr1q9atjfpqwdtg7ytz0pz9zcaqvx8zr2uv6ysvc4csqynr683dzefudzxhadht99nh8gv4l3z93d486ygllgxuh2drrrpsdw6fws","DdzFFzCqrhtCSo9eZvQUktpm9deF1E22RcCUpgDZ758NrUPVnydmkwjvqhjiLZJuSZJJMA7U61vVaVabMd1ChvzsSMTs7YZKAToMKRXp","DdzFFzCqrhsmrZ5QS9Cekp6swVXcFWKJaB8thgTDztRoUK9M8yj6kHcLwo9KXNvFzUvkFs3QGmWsWMREUtE1RH8wNtxnv6LXMwYB8eAv","DdzFFzCqrhsxur7k5CpRUMwasQjqZcWXXhAFpEjKdS372PjGCDsv77CTpfu6KAFxErMTZSyVsE84RJjCSaMHin4UXE3mPTKG82X8qqUz","DdzFFzCqrht4g2fzuv1165diAG6gJR3fAZyepMMPZ1ybb6ZdKvsQu6rTeGts5eRSypevL6nFwbTFxoSh7549jQXLgCw7guZ2Aqn64qiX"],"fee":1098961,"totalOutput":56195896993,"tokens":[]},{"hash":"0ff06b33b5846033214e255acdc1cf2f645f85f243b3814eda97e064e23f0cba","blockNo":8125570,"blockHash":"e00bc0abe482056000a922c45a17694f2def0780ce2df2de0b2dc012fc50a5f5","epochNo":380,"epochSlotNo":389176,"slot":79185976,"time":"2022/12/11 09:51:07","addressesInput":["addr1q83avhvsxscwyzux5ga9r7t9px9qsph5xxdektnsrwssvr3gapuw6td0x8h5qsmqqmnmrmvwdmwj66cj349ay6ddjzzqthwy9t"],"addressesOutput":["addr1qxdr6evd9cedysepu062e5009l7rzuw6y4c84csyxs4s2e3pjfdn95f0gjj72vem3qsd7n39kcmavkk3dwkl7dn3z2gqegapvd","addr1qxmx28n8w7w8k9pjgqam6xqmv2nd8e2gs9akhxz2cu47pc3gapuw6td0x8h5qsmqqmnmrmvwdmwj66cj349ay6ddjzzq9wvepd"],"fee":246725,"totalOutput":115408103,"tokens":[]},{"hash":"0c70c44acd35f1aa6ad293193fdb16975fc6056a8030dd37ee1fcde934667c69","blockNo":8125550,"blockHash":"6173271d0b306bfe2ab07a63374276bcd0b8f7fe24c8b1b265568ac026f22888","epochNo":380,"epochSlotNo":388592,"slot":79185392,"time":"2022/12/11 09:41:23","addressesInput":["addr1qx76hnwx8qukkylx5te0em5gf7kgjqadv6x8z406mpyxz6nn3lmaa3wnh8ka8wxllq5f9kpp6spcwum5vvas6xgvuedsh0rgkp","addr1qx76hnwx8qukkylx5te0em5gf7kgjqadv6x8z406mpyxz6nn3lmaa3wnh8ka8wxllq5f9kpp6spcwum5vvas6xgvuedsh0rgkp"],"addressesOutput":["addr1wxn9efv2f6w82hagxqtn62ju4m293tqvw0uhmdl64ch8uwc0h43gt","addr1qx76hnwx8qukkylx5te0em5gf7kgjqadv6x8z406mpyxz6nn3lmaa3wnh8ka8wxllq5f9kpp6spcwum5vvas6xgvuedsh0rgkp","addr1qx76hnwx8qukkylx5te0em5gf7kgjqadv6x8z406mpyxz6nn3lmaa3wnh8ka8wxllq5f9kpp6spcwum5vvas6xgvuedsh0rgkp"],"fee":408073,"totalOutput":73005470,"tokens":[]},{"hash":"1ba64c4015c47bbd52b263123ad6185f96d35f885463b4137c8e9689c9c3f8f8","blockNo":8125464,"blockHash":"56aa0671be64a5bb2082bb6c8b3355a49eb7e08c12ff48b5dbfee9386536f1ab","epochNo":380,"epochSlotNo":387027,"slot":79183827,"time":"2022/12/11 09:15:18","addressesInput":["addr1qx76hnwx8qukkylx5te0em5gf7kgjqadv6x8z406mpyxz6nn3lmaa3wnh8ka8wxllq5f9kpp6spcwum5vvas6xgvuedsh0rgkp","addr1qx76hnwx8qukkylx5te0em5gf7kgjqadv6x8z406mpyxz6nn3lmaa3wnh8ka8wxllq5f9kpp6spcwum5vvas6xgvuedsh0rgkp"],"addressesOutput":["addr1zxgx3far7qygq0k6epa0zcvcvrevmn0ypsnfsue94nsn3tvpw288a4x0xf8pxgcntelxmyclq83s0ykeehchz2wtspks905plm","addr1qx76hnwx8qukkylx5te0em5gf7kgjqadv6x8z406mpyxz6nn3lmaa3wnh8ka8wxllq5f9kpp6spcwum5vvas6xgvuedsh0rgkp","addr1qx76hnwx8qukkylx5te0em5gf7kgjqadv6x8z406mpyxz6nn3lmaa3wnh8ka8wxllq5f9kpp6spcwum5vvas6xgvuedsh0rgkp"],"fee":445605,"totalOutput":29244969,"tokens":[]},{"hash":"022a1ec0045c755d0574a9264f479d0673194a4d3086da8360340f131ed5211c","blockNo":8124969,"blockHash":"f0781c3ad85070e67523065ecd301dcc4afdbd8348776bb11dc50a459bf6f07c","epochNo":380,"epochSlotNo":377097,"slot":79173897,"time":"2022/12/11 06:29:48","addressesInput":["addr1q9vj9w32w77p47ca725hantcf5nrzcex66vqq58kqm4l04y6hn99676mvdj6qvd34vfqh3jx6vy8tyfkuy6u3xcghq8sex2gzq","addr1q9vj9w32w77p47ca725hantcf5nrzcex66vqq58kqm4l04y6hn99676mvdj6qvd34vfqh3jx6vy8tyfkuy6u3xcghq8sex2gzq"],"addressesOutput":["addr1zxgx3far7qygq0k6epa0zcvcvrevmn0ypsnfsue94nsn3tvpw288a4x0xf8pxgcntelxmyclq83s0ykeehchz2wtspks905plm","addr1q9vj9w32w77p47ca725hantcf5nrzcex66vqq58kqm4l04y6hn99676mvdj6qvd34vfqh3jx6vy8tyfkuy6u3xcghq8sex2gzq","addr1q9vj9w32w77p47ca725hantcf5nrzcex66vqq58kqm4l04y6hn99676mvdj6qvd34vfqh3jx6vy8tyfkuy6u3xcghq8sex2gzq"],"fee":243953,"totalOutput":109511924,"tokens":[]},{"hash":"db8c9f43c1e289289f79eca91207c186bcc78ab6b9cf94c6d45cee7853df7034","blockNo":8124959,"blockHash":"88898907bab27d60e14931574af72780dfa9b8c0c59a5e9f91ae512ce0205428","epochNo":380,"epochSlotNo":376887,"slot":79173687,"time":"2022/12/11 06:26:18","addressesInput":["addr1q9vj9w32w77p47ca725hantcf5nrzcex66vqq58kqm4l04y6hn99676mvdj6qvd34vfqh3jx6vy8tyfkuy6u3xcghq8sex2gzq","addr1q9vj9w32w77p47ca725hantcf5nrzcex66vqq58kqm4l04y6hn99676mvdj6qvd34vfqh3jx6vy8tyfkuy6u3xcghq8sex2gzq"],"addressesOutput":["addr1zxgx3far7qygq0k6epa0zcvcvrevmn0ypsnfsue94nsn3tvpw288a4x0xf8pxgcntelxmyclq83s0ykeehchz2wtspks905plm","addr1q9vj9w32w77p47ca725hantcf5nrzcex66vqq58kqm4l04y6hn99676mvdj6qvd34vfqh3jx6vy8tyfkuy6u3xcghq8sex2gzq","addr1q9vj9w32w77p47ca725hantcf5nrzcex66vqq58kqm4l04y6hn99676mvdj6qvd34vfqh3jx6vy8tyfkuy6u3xcghq8sex2gzq"],"fee":246241,"totalOutput":111104907,"tokens":[]},{"hash":"a29eec1f00560577bb89e0163c12963d12fe4f79c4968ebdd7a6d39b66c4945d","blockNo":8124925,"blockHash":"ec63e59e938e37345ed073cb04d9ac4cbe2b434a0f58032e3212f6e2eac484c4","epochNo":380,"epochSlotNo":376154,"slot":79172954,"time":"2022/12/11 06:14:05","addressesInput":["DdzFFzCqrhszqWDo5xXKsibqUMzJ9SzNLqZjpjnfKneBiZ9ugR5Rg1P9KKrA2YuwgYvfVgtJhJz57LG7uMTRmcyVp1Tr57YLPQTh7kpn","DdzFFzCqrhsx4Map5ySq8Vwr3Fw4p9syU9gK5ton11nhEeF9hsF8jXbdMD2WYhgKwaeCz6TSaNfmdoQdXNADKAnE182yFtZzRpCWojYr","DdzFFzCqrhsn5jhL5fGPqT1viE9uwJnhjnRVwGUJUnetU46FPSfdXT8PjJSYDf3zYAEsoVM2vxobEevhKZSDVqo1owys5tBebbxYh4kg","DdzFFzCqrhsyUJESUS43EhSm36z2hb6zXeDS14iku7zrebZjsMPzKHPMpnHdQm6VRNev2q692rfV7d8HkDCDgTptHvDHf8i6GbfkEuwZ"],"addressesOutput":["addr1q9atjfpqwdtg7ytz0pz9zcaqvx8zr2uv6ysvc4csqynr683dzefudzxhadht99nh8gv4l3z93d486ygllgxuh2drrrpsdw6fws","DdzFFzCqrht2LuFBzon7MR4DRf9o9tR9MtKgvkK3fKPvigdxnznGWSngdCFFekfQLNv8aUPp7sysfxjqeU3gxwa3HZRSTHV6tP849BHs","DdzFFzCqrhsinoLWzrUizcfZD3ddjQeovrcehf8BKi8RvCrmNwvByY4byEwoj6B9gcejcFpoZbSmvHeg7qUdQX5zjVLqhwMoNXsKuXeG","DdzFFzCqrht5YDH291CTF4VpU3AoE3ikmaK7gtYcW8XqyM6gj9qxfUjjHnar3qZyg27EXzj11ybGQbK6YjpUJB8oTFEbxbaXFgLPw2LS","DdzFFzCqrhsz4yt3y2wuixANJ3TJqVXdrpB3itPH7TnK9ktztzqtmtRyijBFam5VTtCJD5SWY3h7BB2R7GMH5Z361wVQjqZSHEkkFbgv"],"fee":924721,"totalOutput":72051834660,"tokens":[]}],"totalItems":12027,"totalPages":602,"currentPage":0}