{"data":[{"txId":60423093,"txHash":"c9ae1cf203f12e8175a777c72159941d67fefaf5ac07fa2598b365c6068be64f","txTime":"2023/01/24 16:10:23","block":8311601,"epoch":389,"slotNo":83010332,"epochSlotNo":325532,"stakeKey":"stake1uy8p3s0kv0xkh2u5fs7rfsr6fes7n85n254dy70ksv38jegmc2vdt"},{"txId":60422895,"txHash":"a65ba9d92f5e8bdb49a9107d66e8e6902e1f71ccf9e26fcdb1cc97b163dec424","txTime":"2023/01/24 16:06:00","block":8311586,"epoch":389,"slotNo":83010069,"epochSlotNo":325269,"stakeKey":"stake1uxm8pmkpcg8c4nh7jvn3vt2zvsf58uww9vljegwluwwzc4gpwqgl0"},{"txId":60422473,"txHash":"511f77f92e9f09e503b4460cdaea3ec300975225137ef2ec90ddb6f381d0c24b","txTime":"2023/01/24 15:55:20","block":8311555,"epoch":389,"slotNo":83009429,"epochSlotNo":324629,"stakeKey":"stake1u8yvr7syz7thega36gx0wpg8up4acx092kpnt86q7vp697sa5cdml"},{"txId":60421979,"txHash":"8fccf6c5b2670d2dccf1f87afc506262953748b5531d32274c516693da9666dd","txTime":"2023/01/24 15:44:22","block":8311527,"epoch":389,"slotNo":83008771,"epochSlotNo":323971,"stakeKey":"stake1u9nue90nsfctpgart4ap94hxdfxt0zrz966ev6n92y0xmes5hzy3x"},{"txId":60421661,"txHash":"22b3c4118d8e3d15ecea4c22968c5609b5ccb2883b6fd7384968d3ba35194860","txTime":"2023/01/24 15:37:21","block":8311510,"epoch":389,"slotNo":83008350,"epochSlotNo":323550,"stakeKey":"stake1u89yzz9hclu3g9z8nztdn0tu52r60az8dq88twrxxd4nlzss955s0"},{"txId":60421601,"txHash":"bed80c3b70253e59ed983dc0467cb15cc4f83d78ba75f2a32de340d30f14b7ee","txTime":"2023/01/24 15:36:10","block":8311507,"epoch":389,"slotNo":83008279,"epochSlotNo":323479,"stakeKey":"stake1u8jza68ap4uurrdxtu50lje6989hjk4fj4fvsm90ecy0xtqxwvnfm"},{"txId":60421572,"txHash":"0694c1d8e745934cda332db096342a138eb937bdc19e61682e145559aae04c82","txTime":"2023/01/24 15:35:34","block":8311506,"epoch":389,"slotNo":83008243,"epochSlotNo":323443,"stakeKey":"stake1uyza6twcekvyztcs9j6j64d2grvks6su69qt8ly6vv557vcr5ag5q"},{"txId":60421432,"txHash":"fa811fd7025c357bd07b655d82ac65f7b804e3e8d93307dc3e95dd5a4d3a6e14","txTime":"2023/01/24 15:32:26","block":8311499,"epoch":389,"slotNo":83008055,"epochSlotNo":323255,"stakeKey":"stake1uy032k8yzvz956a8etmnz9mnvytjxaafjrg0w3308rxxknsztmlks"},{"txId":60421001,"txHash":"9bb7834dad71b702a02755cb89d1f418715260d5cab2333c78448fc86f4ad08d","txTime":"2023/01/24 15:23:08","block":8311471,"epoch":389,"slotNo":83007497,"epochSlotNo":322697,"stakeKey":"stake1uyhx3nv3x3cuvmv0u5yrhmj229hnvtke2cgyl7t5vjv7d8sx967xl"},{"txId":60420146,"txHash":"94a0e613a612faa40c01aa294e28b696b7cef7177f1df3258cd249cf56d653cd","txTime":"2023/01/24 15:05:06","block":8311421,"epoch":389,"slotNo":83006415,"epochSlotNo":321615,"stakeKey":"stake1u926yf0puljmtvh3jmeq5579yk590nfq9mymdaa7yc7vaqqdlgvs8"},{"txId":60419880,"txHash":"7777d14802f6f692c1bc131684b6140a26d53853bc281f05f27e88dbb9b48493","txTime":"2023/01/24 15:00:18","block":8311403,"epoch":389,"slotNo":83006127,"epochSlotNo":321327,"stakeKey":"stake1u89yj0uyjft9vtynypms2fcvm748hr44a9lurfgrwcqam6g82sm66"},{"txId":60419306,"txHash":"40f7d394b0f2d6f4e5a9bbceb23c84a1a982ce299487c260b1aad69963e24c04","txTime":"2023/01/24 14:48:56","block":8311361,"epoch":389,"slotNo":83005445,"epochSlotNo":320645,"stakeKey":"stake1u9xn3yfvc35xtw3jvd96crpvt50r43j2hp2ndq8w8qaqa9sfaz4e3"},{"txId":60419105,"txHash":"f0556eb5042e75a01cd7c8823c3c405338baad8af68b7a4798013ebd654d26aa","txTime":"2023/01/24 14:46:29","block":8311352,"epoch":389,"slotNo":83005298,"epochSlotNo":320498,"stakeKey":"stake1uyyayk7q8p7q9tphfxzkgrnpwdnm3ks67m20qj3pfagc7lg2759gt"},{"txId":60418889,"txHash":"85ac633af46110ef98acbb4c7b839e80b0a2944ca3c01e839fe36048994ac76e","txTime":"2023/01/24 14:40:26","block":8311335,"epoch":389,"slotNo":83004935,"epochSlotNo":320135,"stakeKey":"stake1u9sh6t8w2zcaca0tas7q0fsudh26j05nd8x9alvdsexumcqr2rgne"},{"txId":60418692,"txHash":"cc0595c3ff134bef1b964c51ff8d594583eaa3d1afc5c9f38c517cfdd243ae14","txTime":"2023/01/24 14:36:47","block":8311320,"epoch":389,"slotNo":83004716,"epochSlotNo":319916,"stakeKey":"stake1uyvf909ns38lx8xfpn5k9dkrda6mla68e2w8thgydsdh07s6f604f"},{"txId":60418677,"txHash":"7d406cc67858353dec085f8761db2dd69d09d0b13f7e2b8935f4a111632f940d","txTime":"2023/01/24 14:36:24","block":8311319,"epoch":389,"slotNo":83004693,"epochSlotNo":319893,"stakeKey":"stake1u8pslmrkm3wsxd6d0tvdmkrmwvypfhq8qrqk9vfvkfp0kxgetaf46"},{"txId":60418621,"txHash":"2021e95a0c6cc694780bdca504a8f065dbfbff4baefeab95511365db1601cd52","txTime":"2023/01/24 14:35:21","block":8311312,"epoch":389,"slotNo":83004630,"epochSlotNo":319830,"stakeKey":"stake1uyw3yvp0auaewpdesdfnw4y56w2yv3ayqmg402unkpl5tlqwzq3a5"},{"txId":60418504,"txHash":"2995c89a3c8908cb5915aca7d74ac983c3e99db3b242ccc18135fe05c5ba4c18","txTime":"2023/01/24 14:32:46","block":8311302,"epoch":389,"slotNo":83004475,"epochSlotNo":319675,"stakeKey":"stake1u9a46qdmhd6lw673aavek8xzm3pms9d8g3nuw2sflj7s95cnpdtq7"},{"txId":60418298,"txHash":"53f183b7225960b9cf3f05579511dffc9abbeb6eae573f317d843b66e2b532c8","txTime":"2023/01/24 14:27:17","block":8311286,"epoch":389,"slotNo":83004146,"epochSlotNo":319346,"stakeKey":"stake1u9pvtfuw0rm6q23tfnwt6h883nk3npa46m4zj2zknj7avlqm03wz3"},{"txId":60418126,"txHash":"81e894089b3cb87297d26cb95be83066968df24841c02d425b2d058a29860478","txTime":"2023/01/24 14:23:47","block":8311278,"epoch":389,"slotNo":83003936,"epochSlotNo":319136,"stakeKey":"stake1u90pxaqmejmxepvendwy2lek9k36hgn429u4udy02nnatmgtdn23q"}],"totalItems":347339,"totalPages":17367,"currentPage":0}