{"data":[{"blockNo":8076890,"slotNo":78193322,"epochNo":378,"epochSlotNo":260522,"hash":"54843a4b553c5a4e9d3e4c4d7f1437133a1cc04f3b695bb3d582f5d93806b7a1","time":"2022/11/29 22:06:53","txCount":11,"totalFees":2743892,"totalOutput":99037756862,"slotLeader":"4ee9e4c2ec6fc68850330dbc75ccd7ebf7951f20e1085d324f36cf44"},{"blockNo":8076889,"slotNo":78193310,"epochNo":378,"epochSlotNo":260510,"hash":"782bd2426c15ca1dc4a2efae0a41c44f308c8f7bba5234383e1c37928fa898fd","time":"2022/11/29 22:06:41","txCount":2,"totalFees":370866,"totalOutput":555249928,"slotLeader":"936316c217c6f217640ed8d132cb0ff8133eef73e74e4c28002b9eb3"},{"blockNo":8076888,"slotNo":78193306,"epochNo":378,"epochSlotNo":260506,"hash":"3015dfb9b6bf84f3212591b0ebaf4ba9318ed9a03ffc389a6647f80ccac3ec29","time":"2022/11/29 22:06:37","txCount":8,"totalFees":2637364,"totalOutput":1674371351,"slotLeader":"49c24284e61ad58c6e59e865c74e9b0a0a36654eb2091ad846e1c4ec"},{"blockNo":8076887,"slotNo":78193297,"epochNo":378,"epochSlotNo":260497,"hash":"6b39e85c8c950b6572a225f265eb2b72b49fafda185739627c5205602c987b9a","time":"2022/11/29 22:06:28","txCount":2,"totalFees":476730,"totalOutput":15530718848996,"slotLeader":"936f24e391afc0738c816ae1f1388957b977de3d0e065dc9ba38af8d"},{"blockNo":8076886,"slotNo":78193295,"epochNo":378,"epochSlotNo":260495,"hash":"9e02be1f96f1ebdd4d6d9ed3a6754088e4655b5ab3c976cbad615ec47e96ee96","time":"2022/11/29 22:06:26","txCount":42,"totalFees":10685970,"totalOutput":899584739836,"slotLeader":"837a3cf8c96e97bed8e8be6deb390144b46171e3c843b75575d0f788"},{"blockNo":8076885,"slotNo":78193254,"epochNo":378,"epochSlotNo":260454,"hash":"3da9637a52d78ee85c42048771a4786e7e726353df1816fc9d9ebc3f9d5028b6","time":"2022/11/29 22:05:45","txCount":38,"totalFees":12046873,"totalOutput":18022608122891,"slotLeader":"cb9a5414581696cf9176787e99472790355a7de61d67a5643da95a86"},{"blockNo":8076884,"slotNo":78193203,"epochNo":378,"epochSlotNo":260403,"hash":"d86c28f3960173e4543e2472c5f4c8a47617a0047ac425aa04e7ba04e70ddcb9","time":"2022/11/29 22:04:54","txCount":24,"totalFees":6150752,"totalOutput":17443267242470,"slotLeader":"a532904ca60e13e88437b58e7c6ff66b8d5e7ec8d3f4b9e4be7820ec"},{"blockNo":8076883,"slotNo":78193169,"epochNo":378,"epochSlotNo":260369,"hash":"7b3d25454f00f8d9500242e30e7e899b4b3f8dcc6bc0151fb4c82cf6d9522e79","time":"2022/11/29 22:04:20","txCount":40,"totalFees":10856624,"totalOutput":109046978192,"slotLeader":"fd2a060be85493dfdb03eecb6343a76636823d223d680a202b900f65"},{"blockNo":8076882,"slotNo":78193149,"epochNo":378,"epochSlotNo":260349,"hash":"3e8fbe256f244db027b1a44eb5aaeb6639a89c4ac57ac19db3f842d2153b9ab4","time":"2022/11/29 22:04:00","txCount":43,"totalFees":14514700,"totalOutput":87478375963,"slotLeader":"079c374160b0ae34a5a20b8e95a5b5c8766239b2984f13d7ab962791"},{"blockNo":8076881,"slotNo":78193099,"epochNo":378,"epochSlotNo":260299,"hash":"c37fe6a88b964d944cd64a862cc462b28fa397959512f1b99c42f2570138440d","time":"2022/11/29 22:03:10","txCount":26,"totalFees":9962464,"totalOutput":5011946323938,"slotLeader":"0cbc37bbfc5161da696ae49bb5313f510def4ba6711de70c2beaf80d"},{"blockNo":8076880,"slotNo":78193026,"epochNo":378,"epochSlotNo":260226,"hash":"02ba748dc7b5ea5619b757c9a0327b4a5115013ff7c67aa0d500dc9ff10d93d6","time":"2022/11/29 22:01:57","txCount":13,"totalFees":3907541,"totalOutput":104386946963,"slotLeader":"77b0a93c26ac65be36e9a9f220f9a43cbc57d705fc5d8f1de5fdeea1"},{"blockNo":8076879,"slotNo":78193025,"epochNo":378,"epochSlotNo":260225,"hash":"ebc9d672c2b2e54f3b8457b6a41f46057319fcb174142816d305dcd210d501ee","time":"2022/11/29 22:01:56","txCount":22,"totalFees":9522848,"totalOutput":5938577766969,"slotLeader":"4ed1c8475cc3e497bbf00a5827266faec51ad9c3cce1b02122b33cba"},{"blockNo":8076878,"slotNo":78192987,"epochNo":378,"epochSlotNo":260187,"hash":"4e89afe3b3a36aab6f475cd67b9ca5fc9890f0e744eb8a95b2c63619dc6f2ab9","time":"2022/11/29 22:01:18","txCount":42,"totalFees":10756451,"totalOutput":735762897802,"slotLeader":"7d479a2fb245ebb087d8f56b6bf434d7d3a7970997e7da1212b73670"},{"blockNo":8076877,"slotNo":78192962,"epochNo":378,"epochSlotNo":260162,"hash":"64dd51b1bb8d7f26676508d6e799e8ca4aa1b6261c9bbd987d970cfb6b960478","time":"2022/11/29 22:00:53","txCount":49,"totalFees":15266024,"totalOutput":942420819198,"slotLeader":"837a3cf8c96e97bed8e8be6deb390144b46171e3c843b75575d0f788"},{"blockNo":8076876,"slotNo":78192960,"epochNo":378,"epochSlotNo":260160,"hash":"de4cfd919cd497348fd18f719146e3d7973e586587333f371edf54f140a74c53","time":"2022/11/29 22:00:51","txCount":36,"totalFees":11939938,"totalOutput":6937950355747,"slotLeader":"fe59e220d8036bd7533bf393e26abde56ec7d49fa632e57bf696d134"},{"blockNo":8076875,"slotNo":78192820,"epochNo":378,"epochSlotNo":260020,"hash":"53a1442a5bd5af425a30a6d9961db35b925eb12f3ffa95498e2eea981387a81c","time":"2022/11/29 21:58:31","txCount":34,"totalFees":11789934,"totalOutput":19072475655692,"slotLeader":"c1cadab46b74defa9f79b59b617fe2a50bdbce6b367e472b6109a7bc"},{"blockNo":8076874,"slotNo":78192766,"epochNo":378,"epochSlotNo":259966,"hash":"0cda836587eeb9946eb15724f9341b9caac7b7136859309dbe3e252db978693d","time":"2022/11/29 21:57:37","txCount":17,"totalFees":6080234,"totalOutput":563987006553,"slotLeader":"37e0b7c9c58753b14707dd34267ebbd50917e9b80d4f76da07e0e1b8"},{"blockNo":8076873,"slotNo":78192741,"epochNo":378,"epochSlotNo":259941,"hash":"8096b1282fdc0e8d05d6a4a4a5f95d50ac2d42b8bd4032b331601ffc9e6fcf8e","time":"2022/11/29 21:57:12","txCount":1,"totalFees":832133,"totalOutput":144648362,"slotLeader":"a9807616077f17a66dc12c562bfc8dbc1a0b9ad1c96591fd56ffafb5"},{"blockNo":8076872,"slotNo":78192738,"epochNo":378,"epochSlotNo":259938,"hash":"f2a0d18efea2e7d9241ec8042ecf9540ecf7335d1dababb72b488831e068c387","time":"2022/11/29 21:57:09","txCount":20,"totalFees":8296040,"totalOutput":1977216105800,"slotLeader":"0a423fa44f23b13cba59474427d11746136672af66b2d80b4499dd1d"},{"blockNo":8076871,"slotNo":78192706,"epochNo":378,"epochSlotNo":259906,"hash":"7a077f49ff0fdee8a4655bfd733ac9dd78e848aeffa471dfa066018ac925157b","time":"2022/11/29 21:56:37","txCount":15,"totalFees":4691323,"totalOutput":21784207605,"slotLeader":"fdb0d8ba88d434c8dd3ab3974a3401efc7b016e54c7387c63398aec4"}],"totalItems":8077066,"totalPages":403854,"currentPage":0}