{"data":[{"txId":56649256,"txHash":"35e5ee5db0af7c7e4023f3956371f57941f3cd70c7d48b6f1d68b49607ba82b6","txTime":"2022/12/04 21:43:07","block":8097929,"epoch":379,"slotNo":78623896,"epochSlotNo":259096,"stakeKey":"stake1u86ufqy0st8sq73nwk36nagn3c32jujreer5793h9n5skwcfa94pq"},{"txId":56649089,"txHash":"d8df71eb9d2d5cc99ed2b1d35c8513add28408d1ca9d5351face54dfa962227b","txTime":"2022/12/04 21:39:11","block":8097922,"epoch":379,"slotNo":78623660,"epochSlotNo":258860,"stakeKey":"stake1uynk07t0namkskhuzumkpkh5lalf0dnh5c6jd0h9hrtfvnqxtz2rh"},{"txId":56649036,"txHash":"e6a1971dabbf47ffbe4abde03e4fd7f1aee1972ddad769546d4396de1422762b","txTime":"2022/12/04 21:38:22","block":8097921,"epoch":379,"slotNo":78623611,"epochSlotNo":258811,"stakeKey":"stake1uyjyyrc35kct67qnwrjvhyd3nxw9ya33d6wlh8m788zaghc3kdnl4"},{"txId":56648812,"txHash":"32d2dfc132ac827a0f14090f618c86c3cec7588da4ed5948a4e0951218c55b1f","txTime":"2022/12/04 21:34:22","block":8097909,"epoch":379,"slotNo":78623371,"epochSlotNo":258571,"stakeKey":"stake1u93uj367lnwd403dka7dcrmsdh9xd2jx54x0vufv9aur4wqfq24cf"},{"txId":56648165,"txHash":"3017211ecc6b2dee58b209a09affdcd0762af9fa84fb4025f5a163373f957f0b","txTime":"2022/12/04 21:21:49","block":8097881,"epoch":379,"slotNo":78622618,"epochSlotNo":257818,"stakeKey":"stake1uxl769h20y4kuv7h7fvunehm6ahh2e4hq4sgl5e6q3jprcg9y7066"},{"txId":56647979,"txHash":"636d49a92426c10b000a80c89a48b0ac010513fc4dc75c4ad917c1748dea8519","txTime":"2022/12/04 21:18:49","block":8097874,"epoch":379,"slotNo":78622438,"epochSlotNo":257638,"stakeKey":"stake1uxg5dr806fn9lagpuvkljsv3dme8j96sm2jx3f0s34j967sn0ks9m"},{"txId":56647916,"txHash":"f1e8856885dfc51dcac472971a27096f90ec8436367d03edbad0e8eb44ab2347","txTime":"2022/12/04 21:16:11","block":8097871,"epoch":379,"slotNo":78622280,"epochSlotNo":257480,"stakeKey":"stake1uxyydh5vpt5a2av5sm6vnr6z369whcylq7rlfxxtez3j9aqxy3x68"},{"txId":56647832,"txHash":"7bee4a07eda5a70b82fdc82b2c4ba500d0ac49ae6a6972bf2d8d4789a4227c42","txTime":"2022/12/04 21:15:15","block":8097868,"epoch":379,"slotNo":78622224,"epochSlotNo":257424,"stakeKey":"stake1ux557raqjdpc9gz25wm02dut5jgftzsxespgcwkqjwg296stuaxe8"},{"txId":56647636,"txHash":"a630a08c0df909f2f39ed73348b1377cc41f53d103d3df34f1a96c33ee3830b9","txTime":"2022/12/04 21:10:39","block":8097853,"epoch":379,"slotNo":78621948,"epochSlotNo":257148,"stakeKey":"stake1u8vrcydnzqqrlx3d8n5y3kg4vfc96swevrxyy9tm99neucgdhksqh"},{"txId":56647458,"txHash":"72b9f8f01ca25a0a7a1725b61f168fb6a76abfe92b07f2258c01ad755ac096de","txTime":"2022/12/04 21:07:22","block":8097840,"epoch":379,"slotNo":78621751,"epochSlotNo":256951,"stakeKey":"stake1uxqdyrsuppl7cwxdpmlgmntq8ng99pa4wr78ucep7u03wrcr2lp6t"},{"txId":56647444,"txHash":"c6160224cd0f3c58bf0f08e181e43233318654efe666aff9a79199b3f1b0eb30","txTime":"2022/12/04 21:07:11","block":8097839,"epoch":379,"slotNo":78621740,"epochSlotNo":256940,"stakeKey":"stake1uy649220kkyemanqck3k4h6cdqgcyqwz0qw585fj6gxtghg2rvmf7"},{"txId":56647409,"txHash":"5128c63bb7ed78c1573fd7f039f14acbac6391e8b82ea32881bfc8d7c43fd997","txTime":"2022/12/04 21:06:42","block":8097837,"epoch":379,"slotNo":78621711,"epochSlotNo":256911,"stakeKey":"stake1uy9rs6hzgk3vadj0sjqwy34xxustxc4rf5zfz7p9xrfz00cy6ckzw"},{"txId":56647099,"txHash":"5ee9fab9f2e3978dfc10e493cf3925f1a97a5b5d298753eab7e620841900b03e","txTime":"2022/12/04 21:01:22","block":8097828,"epoch":379,"slotNo":78621391,"epochSlotNo":256591,"stakeKey":"stake1uxhu3m385aa30kfzwwjr37nkemfauwadfe3l9gn5aukru8gu7lt5l"},{"txId":56647089,"txHash":"90ee09ad425096f51120d9332e0f27cf21156032a2a6d5e96594144d4c2fe939","txTime":"2022/12/04 21:01:22","block":8097828,"epoch":379,"slotNo":78621391,"epochSlotNo":256591,"stakeKey":"stake1uxrq9pllmlf9j9e98kfamsaa46tl87kgjr29p9apfn5xmxgv8djle"},{"txId":56647014,"txHash":"2e2a6718d36bd6e63088950c6a204c6222597738ad7be851613c9fae539fa072","txTime":"2022/12/04 20:59:27","block":8097824,"epoch":379,"slotNo":78621276,"epochSlotNo":256476,"stakeKey":"stake1u89csue6rtjj7gakzv6yhnstjv7hdpsa4n4zmcwrke5weasc5f3v4"},{"txId":56646919,"txHash":"211dad077031326b28c8844568d80ce406961865e5f71941dbd31724d643ae5d","txTime":"2022/12/04 20:57:58","block":8097820,"epoch":379,"slotNo":78621187,"epochSlotNo":256387,"stakeKey":"stake1u9jm3gwxuf4qt0tqpcgv9cty4hnl2l56nj9qsjgdt8qsg6gtfv9ux"},{"txId":56646893,"txHash":"5fe228f3e0df17bbc3cbe0a46b53e5b97af07e46dcc54662bf988d71e068427b","txTime":"2022/12/04 20:57:40","block":8097819,"epoch":379,"slotNo":78621169,"epochSlotNo":256369,"stakeKey":"stake1uyc9kah0sepaw8vczf3rll3mkcwl9hj7f5l7acgrv5xmsnq8jpp56"},{"txId":56646890,"txHash":"8538e391616b05aa246964e78d9efd512867524b23af3c03bb06314a0b377a7e","txTime":"2022/12/04 20:57:40","block":8097819,"epoch":379,"slotNo":78621169,"epochSlotNo":256369,"stakeKey":"stake1uyz93p7rre4mwju37kl834mfu0as3d35xckfnxez09nhqzgmmxp9w"},{"txId":56646752,"txHash":"72158bbb7869ee6d72ccd0d3cb16b77e3984702b99af0ac66832d340c0e6e15d","txTime":"2022/12/04 20:55:32","block":8097814,"epoch":379,"slotNo":78621041,"epochSlotNo":256241,"stakeKey":"stake1uyfjkatap5vesgrgg4u8uqpqczlvynvfag05rwumvd54thq9vp9sr"},{"txId":56646629,"txHash":"9a9106ba4623d21e51edb8593ed6b1c8ac291810aaa5cd4c525b1e350591630b","txTime":"2022/12/04 20:52:54","block":8097810,"epoch":379,"slotNo":78620883,"epochSlotNo":256083,"stakeKey":"stake1u9jk99agkapnn6qscwn7xpqjyxnkln2fl0dkkwwlwxzr76g76r2j8"}],"totalItems":1615977,"totalPages":80799,"currentPage":0}