{"data":[{"hash":"0be534c2493a17a4a7d12b264ae81ac77c125fc88dcbb2f51ab06d76ed49b636","blockNo":8262033,"blockHash":"f2842439cc5eb03a8743b2d0ebf8dc5a3ccd7cb85282f9faa82958e4dba70a45","epochNo":387,"epochSlotNo":169831,"slot":81990631,"time":"2023/01/12 20:55:22","addressesInput":["addr1q9gxenh2ky37ntq5zc2gheaedy9nkxuvrg2adpaap2vmrthz7swcqqajnc94l0ytzxlde3yyd32tnfwjy30gpft0g99sh7s56p"],"addressesOutput":["addr1qykwgus5e9ct9k4v47fmvlucypqg76x0e5lq8scy9yhwgf0a4agrlcg4zewh67d5f4gdk0khzt2cmcy029cgu0r30lxsa9v3rk","addr1q9gxenh2ky37ntq5zc2gheaedy9nkxuvrg2adpaap2vmrthz7swcqqajnc94l0ytzxlde3yyd32tnfwjy30gpft0g99sh7s56p"],"fee":168141,"totalOutput":549831859,"tokens":[]},{"hash":"db311c650023c0cc08e3bd7d849dbcdae616de3007d9316c1f175e95d39bd7d4","blockNo":8262033,"blockHash":"f2842439cc5eb03a8743b2d0ebf8dc5a3ccd7cb85282f9faa82958e4dba70a45","epochNo":387,"epochSlotNo":169831,"slot":81990631,"time":"2023/01/12 20:55:22","addressesInput":["addr1vxy8apn93mvpsll86rxn7rsuarvxq9799vmfptzhn9fj4xqvfs9qd"],"addressesOutput":["addr1q8ypy0x20h9nlrsmtdsert02drcv2y0rzw630drqake4hzgs6vg7d572rq93m0cvkpe04pk6tzxns427uzf6l72akyzqyjc72u","addr1qxyae6p9rutphpjh7t0d27epuv70zy26e96ggwmz4j3qlkwe6m792snhfw39kc3sxly8a4nqhkly5ggl0tslrh6j3axsqsyhrv","addr1qxa7e43f6qar54tn5dr05k823shrrlaq406c55mv3nqcrqelhgap4j0ymj5n6ddxejvn9kndsqk4e623xpx83w0d48nq4avssw"],"fee":455065,"totalOutput":49544935,"tokens":[]},{"hash":"b8c2bef03377813259d00cced291dc1cb8629f87d2acea3209d3c93e48c67733","blockNo":8262033,"blockHash":"f2842439cc5eb03a8743b2d0ebf8dc5a3ccd7cb85282f9faa82958e4dba70a45","epochNo":387,"epochSlotNo":169831,"slot":81990631,"time":"2023/01/12 20:55:22","addressesInput":["addr1qy4cyvlyuursvzm72pxezmqkzuu4p04vscvthxx3nnkaeuw66t87qphdtk0jja6usmzp90pq8c3hhpde9l70vtfaj5rqvt0ldz"],"addressesOutput":["addr1wxaptpmxcxawvr3pzlhgnpmzz3ql43n2tc8mn3av5kx0yzs09tqh8","addr1qy4cyvlyuursvzm72pxezmqkzuu4p04vscvthxx3nnkaeuw66t87qphdtk0jja6usmzp90pq8c3hhpde9l70vtfaj5rqvt0ldz"],"fee":180681,"totalOutput":289276406,"tokens":[]},{"hash":"c4be27f0ad7ec92be7904f713eedbd70a9cb3789e39bda8d34047eb796632d3f","blockNo":8262033,"blockHash":"f2842439cc5eb03a8743b2d0ebf8dc5a3ccd7cb85282f9faa82958e4dba70a45","epochNo":387,"epochSlotNo":169831,"slot":81990631,"time":"2023/01/12 20:55:22","addressesInput":["addr1vy4nmtfc4jfftgqg369hs2ku6kvcncgzhkemq6mh0u3zgpslf59wr"],"addressesOutput":["addr1qy8jzljxqnwrkf0j2kv3sel3jcqhhnucsxadt748cm7djaglwyxepwfvufn6345ajvukd5658lpr6ewkq4x6c929cz2savrym6","addr1q93kr6fck8wxatxel3dmlcfy0zdr64vpsxp407d4es2qkflq9uxxfshjg2e70pukvqtqvqqlf33esrf3nywq9lq74fxqekzyve","addr1qy8svrhvyyv8mruvjrfd5yqtlk2536atgn83mrpzwayhppyx8nwl0evx3jt70szspy94ul99dmnsrrcpwjspacu2ndss30achg","addr1q99ytea6nm8dnv6arr255smkj0acz250k8ahm85dvuwgplrxsu3ax5jwpzfc78s76t2xed852k7wvsgcwfdx4quj6v7snhxp5s","addr1qyqf94fyj4zyehgllhq3xrqcac8chhe0zl7mr6th96qs0jusptmt924ppwt27ycf9ljfnk9t7vcw467kaeuump8hhgtqta6jer","addr1qx9kvhwy6neu0rzvf8x63v9u6dl05lz8mvp5kxrx06vrpu7ddk9jjfdfmwr5ztlu80cn6lzw0jqw5cyrhrwfny95sjqqmgpl5d","addr1qxxeq2p2wc675l96kc7867wc0jl3czkc9rfcn7k9hjsrvwvdjq5z5a34af7t4d3u04uasl9lrs9ds2xn38avt09qxcus9zzmsn","addr1qx9s8s9asqj24juw5lyp6wlj6kz6kq4g78z6cp9ue2h920qpddgt7za0s698fcspjnwjj924u2qr7r3dq0judt9kwp0qxrt2xd","addr1vy4nmtfc4jfftgqg369hs2ku6kvcncgzhkemq6mh0u3zgpslf59wr"],"fee":196850,"totalOutput":197635452800,"tokens":[]},{"hash":"293ffbbb02217fa9fb10aaa2ea8d612b4a42831e044f205c696b28a830b300ef","blockNo":8262033,"blockHash":"f2842439cc5eb03a8743b2d0ebf8dc5a3ccd7cb85282f9faa82958e4dba70a45","epochNo":387,"epochSlotNo":169831,"slot":81990631,"time":"2023/01/12 20:55:22","addressesInput":["Ae2tdPwUPEYwNguM7TB3dMnZMfZxn1pjGHyGdjaF4mFqZF9L3bj6cdhiH8t"],"addressesOutput":["addr1vywa2n8la6ln7k7htreuausm05x82sjkkykh02dc3y3rqcq302k49","Ae2tdPwUPEYwNguM7TB3dMnZMfZxn1pjGHyGdjaF4mFqZF9L3bj6cdhiH8t"],"fee":220281,"totalOutput":29373355565,"tokens":[]},{"hash":"dd9f7845c08102af9f2ae32e5b09ed981800873fe484794f00b4003cf4ed8eec","blockNo":8262033,"blockHash":"f2842439cc5eb03a8743b2d0ebf8dc5a3ccd7cb85282f9faa82958e4dba70a45","epochNo":387,"epochSlotNo":169831,"slot":81990631,"time":"2023/01/12 20:55:22","addressesInput":["addr1qyht4ja0zcn45qvyx477qlyp6j5ftu5ng0prt9608dxp6l2j2c79gy9l76sdg0xwhd7r0c0kna0tycz4y5s6mlenh8pq4jxtdy","addr1qyht4ja0zcn45qvyx477qlyp6j5ftu5ng0prt9608dxp6l2j2c79gy9l76sdg0xwhd7r0c0kna0tycz4y5s6mlenh8pq4jxtdy","addr1wxn9efv2f6w82hagxqtn62ju4m293tqvw0uhmdl64ch8uwc0h43gt","addr1z8snz7c4974vzdpxu65ruphl3zjdvtxw8strf2c2tmqnxz2j2c79gy9l76sdg0xwhd7r0c0kna0tycz4y5s6mlenh8pq0xmsha"],"addressesOutput":["addr1qyht4ja0zcn45qvyx477qlyp6j5ftu5ng0prt9608dxp6l2j2c79gy9l76sdg0xwhd7r0c0kna0tycz4y5s6mlenh8pq4jxtdy","addr1qyht4ja0zcn45qvyx477qlyp6j5ftu5ng0prt9608dxp6l2j2c79gy9l76sdg0xwhd7r0c0kna0tycz4y5s6mlenh8pq4jxtdy","addr1q9jh26j0upf25x0wz6pcw5kcn76vmn8qx5f8kpaxdafkyhem86f3unqp6r6g6nusvsfywuww4x3auk8cdhvw0ak7cxmq7htmpq","addr1z8snz7c4974vzdpxu65ruphl3zjdvtxw8strf2c2tmqnxz2j2c79gy9l76sdg0xwhd7r0c0kna0tycz4y5s6mlenh8pq0xmsha"],"fee":816250,"totalOutput":73553466752,"tokens":[]},{"hash":"dec792996c3541bca62acf82ac111f68eb3b6f36c586b23fe1d7b27c1874109a","blockNo":8262033,"blockHash":"f2842439cc5eb03a8743b2d0ebf8dc5a3ccd7cb85282f9faa82958e4dba70a45","epochNo":387,"epochSlotNo":169831,"slot":81990631,"time":"2023/01/12 20:55:22","addressesInput":["addr1wxn9efv2f6w82hagxqtn62ju4m293tqvw0uhmdl64ch8uwc0h43gt","addr1z8snz7c4974vzdpxu65ruphl3zjdvtxw8strf2c2tmqnxz2j2c79gy9l76sdg0xwhd7r0c0kna0tycz4y5s6mlenh8pq0xmsha","addr1qyht4ja0zcn45qvyx477qlyp6j5ftu5ng0prt9608dxp6l2j2c79gy9l76sdg0xwhd7r0c0kna0tycz4y5s6mlenh8pq4jxtdy","addr1qyht4ja0zcn45qvyx477qlyp6j5ftu5ng0prt9608dxp6l2j2c79gy9l76sdg0xwhd7r0c0kna0tycz4y5s6mlenh8pq4jxtdy"],"addressesOutput":["addr1qyht4ja0zcn45qvyx477qlyp6j5ftu5ng0prt9608dxp6l2j2c79gy9l76sdg0xwhd7r0c0kna0tycz4y5s6mlenh8pq4jxtdy","addr1qyht4ja0zcn45qvyx477qlyp6j5ftu5ng0prt9608dxp6l2j2c79gy9l76sdg0xwhd7r0c0kna0tycz4y5s6mlenh8pq4jxtdy","addr1q94dgx4939x4p7v56dcje78jxv459wxudzuzkqu3l7hzldxymsjgtyzm0q2xaawz69ry9ju2rprcz3f5k6zj5scx3xrq20cw4q","addr1z8snz7c4974vzdpxu65ruphl3zjdvtxw8strf2c2tmqnxz2j2c79gy9l76sdg0xwhd7r0c0kna0tycz4y5s6mlenh8pq0xmsha"],"fee":824207,"totalOutput":2720109049,"tokens":[]},{"hash":"00866675364068ce372a3ac192c715961ffdf11b32f48b26d0f0572a19abd849","blockNo":8262033,"blockHash":"f2842439cc5eb03a8743b2d0ebf8dc5a3ccd7cb85282f9faa82958e4dba70a45","epochNo":387,"epochSlotNo":169831,"slot":81990631,"time":"2023/01/12 20:55:22","addressesInput":["addr1q8tt59l99yp68lqzph7jls4660z70v9dvpc08m8adu7gj9457p0ve87ceyrxaalajp7ms4x8djhkgc43xt8px0w8e3zq4lxugy"],"addressesOutput":["addr1vxt0fr88dn6ccvlpkq72kh9djamrxh25v0ejpekytxxp5qqnhtl8w","addr1q8z90cg62evl9lggezcmuzcujt40rtdlh3pjqja7eeh23a457p0ve87ceyrxaalajp7ms4x8djhkgc43xt8px0w8e3zqfeyhdj"],"fee":172453,"totalOutput":62322420490,"tokens":[]},{"hash":"09b6bfca5799e598c5980b6184e500ccdfa2e3c31f900f55f36d4c8cef091e96","blockNo":8262033,"blockHash":"f2842439cc5eb03a8743b2d0ebf8dc5a3ccd7cb85282f9faa82958e4dba70a45","epochNo":387,"epochSlotNo":169831,"slot":81990631,"time":"2023/01/12 20:55:22","addressesInput":["addr1q8v6l6vu3xh5cmys76yv9uyv9p3q5jly9deufyl97fv2hjwwrcnk89wrv7sar6hpmjvth5llrd9rvxxgyknk3zsuh6nswcsrq0"],"addressesOutput":["addr1wyftprgmz65n55z2arxt7xtwrpd48jvrqqjm2vynytu94pq3l8wg6","addr1q8v6l6vu3xh5cmys76yv9uyv9p3q5jly9deufyl97fv2hjwwrcnk89wrv7sar6hpmjvth5llrd9rvxxgyknk3zsuh6nswcsrq0"],"fee":462925,"totalOutput":23631019,"tokens":[]},{"hash":"ad721a112cac655edb8d9a97d93c8bc9619656170f99c7d51282c4f6c06f1599","blockNo":8262033,"blockHash":"f2842439cc5eb03a8743b2d0ebf8dc5a3ccd7cb85282f9faa82958e4dba70a45","epochNo":387,"epochSlotNo":169831,"slot":81990631,"time":"2023/01/12 20:55:22","addressesInput":["addr1q9rdpg9jr893xda5ma6twht7t6jqfvzlgwsxjknc6h7vnv5uaqa64h28nc9agvl2lnjukvz37kn2t4wlf079jh3v7mjsmdc4al","addr1q9rdpg9jr893xda5ma6twht7t6jqfvzlgwsxjknc6h7vnv5uaqa64h28nc9agvl2lnjukvz37kn2t4wlf079jh3v7mjsmdc4al"],"addressesOutput":["addr1zxgx3far7qygq0k6epa0zcvcvrevmn0ypsnfsue94nsn3tvpw288a4x0xf8pxgcntelxmyclq83s0ykeehchz2wtspks905plm","addr1q9rdpg9jr893xda5ma6twht7t6jqfvzlgwsxjknc6h7vnv5uaqa64h28nc9agvl2lnjukvz37kn2t4wlf079jh3v7mjsmdc4al","addr1q9rdpg9jr893xda5ma6twht7t6jqfvzlgwsxjknc6h7vnv5uaqa64h28nc9agvl2lnjukvz37kn2t4wlf079jh3v7mjsmdc4al"],"fee":248221,"totalOutput":11789515,"tokens":[]},{"hash":"256cbf98720205c26dbb8e899d5e2cf28d6f0b3d2b88b39dc1a20b3a5cbe863d","blockNo":8262033,"blockHash":"f2842439cc5eb03a8743b2d0ebf8dc5a3ccd7cb85282f9faa82958e4dba70a45","epochNo":387,"epochSlotNo":169831,"slot":81990631,"time":"2023/01/12 20:55:22","addressesInput":["addr1qyerm2wqpvzl9nh0zwtume5ar49tzutcc9tm975g7mxrfu6elhm0n9tvan3sjwp0eyt73nhp8p888n0k3k70pc5pf7xswemr72"],"addressesOutput":["addr1qyerm2wqpvzl9nh0zwtume5ar49tzutcc9tm975g7mxrfu6elhm0n9tvan3sjwp0eyt73nhp8p888n0k3k70pc5pf7xswemr72","addr1qyerm2wqpvzl9nh0zwtume5ar49tzutcc9tm975g7mxrfu6elhm0n9tvan3sjwp0eyt73nhp8p888n0k3k70pc5pf7xswemr72","addr1qyerm2wqpvzl9nh0zwtume5ar49tzutcc9tm975g7mxrfu6elhm0n9tvan3sjwp0eyt73nhp8p888n0k3k70pc5pf7xswemr72","addr1qyerm2wqpvzl9nh0zwtume5ar49tzutcc9tm975g7mxrfu6elhm0n9tvan3sjwp0eyt73nhp8p888n0k3k70pc5pf7xswemr72"],"fee":182881,"totalOutput":7517817119,"tokens":[]},{"hash":"702969732b0ae509e9f812fcdca4a874b1d42f57f99b9c801f399af508bf1cdf","blockNo":8262033,"blockHash":"f2842439cc5eb03a8743b2d0ebf8dc5a3ccd7cb85282f9faa82958e4dba70a45","epochNo":387,"epochSlotNo":169831,"slot":81990631,"time":"2023/01/12 20:55:22","addressesInput":["addr1qykuk4pfp64ze4v550zm3a5j4w72gq68kyjvgll3hsqe0wj3hq0a7r6utqvj386dvukkh0s7p8zceasmaq5dedfuzlaqpyv0up"],"addressesOutput":["addr1vxze4ce0kv3flqqllmg2yjc28n7n74vp66pcelvherfnshcsz0pk6","addr1qykuk4pfp64ze4v550zm3a5j4w72gq68kyjvgll3hsqe0wj3hq0a7r6utqvj386dvukkh0s7p8zceasmaq5dedfuzlaqpyv0up"],"fee":205893,"totalOutput":122786364,"tokens":[]},{"hash":"5a514a454981dac24dfc52983863fb2223b1a3e787222de2c1264ad2d8fdf5f1","blockNo":8262033,"blockHash":"f2842439cc5eb03a8743b2d0ebf8dc5a3ccd7cb85282f9faa82958e4dba70a45","epochNo":387,"epochSlotNo":169831,"slot":81990631,"time":"2023/01/12 20:55:22","addressesInput":["addr1q8hzx5270m8ya3ufwejtttmh4vatvr63we3wddvz5ky7c7etfv5ctdrw9eyg7q09620j44lpez5xdj8z38ss706ljrcsdm7daq","addr1zxgx3far7qygq0k6epa0zcvcvrevmn0ypsnfsue94nsn3tvpw288a4x0xf8pxgcntelxmyclq83s0ykeehchz2wtspks905plm","addr1q8hzx5270m8ya3ufwejtttmh4vatvr63we3wddvz5ky7c7etfv5ctdrw9eyg7q09620j44lpez5xdj8z38ss706ljrcsdm7daq"],"addressesOutput":["addr1zxgx3far7qygq0k6epa0zcvcvrevmn0ypsnfsue94nsn3tvpw288a4x0xf8pxgcntelxmyclq83s0ykeehchz2wtspks905plm","addr1q8hzx5270m8ya3ufwejtttmh4vatvr63we3wddvz5ky7c7etfv5ctdrw9eyg7q09620j44lpez5xdj8z38ss706ljrcsdm7daq","addr1q8hzx5270m8ya3ufwejtttmh4vatvr63we3wddvz5ky7c7etfv5ctdrw9eyg7q09620j44lpez5xdj8z38ss706ljrcsdm7daq"],"fee":331473,"totalOutput":216618155,"tokens":[]},{"hash":"ff7af60be168e167dbe8ba46bd79826546140f3c739901bb3f4a91db8a07e28d","blockNo":8262033,"blockHash":"f2842439cc5eb03a8743b2d0ebf8dc5a3ccd7cb85282f9faa82958e4dba70a45","epochNo":387,"epochSlotNo":169831,"slot":81990631,"time":"2023/01/12 20:55:22","addressesInput":["addr1q9hc3rls8rf3p286h7dr79drr4u36m8l0uuchwpkxlf89u5r9y6t5t83nlpjy47pt7e7efvhwwh7rjva4zqktvnwcngqknpthe","addr1zxgx3far7qygq0k6epa0zcvcvrevmn0ypsnfsue94nsn3tvpw288a4x0xf8pxgcntelxmyclq83s0ykeehchz2wtspks905plm","addr1q978h7nd9yx5rxhzypwrma5aanvweujt4z56as0sle8yjmyr9y6t5t83nlpjy47pt7e7efvhwwh7rjva4zqktvnwcngqm0vuye","addr1qyre7q4m7qkl2xqtnaw4hm8g3cd6a6q9eujzyxeqzewzftvr9y6t5t83nlpjy47pt7e7efvhwwh7rjva4zqktvnwcngq9t3j39","addr1q978h7nd9yx5rxhzypwrma5aanvweujt4z56as0sle8yjmyr9y6t5t83nlpjy47pt7e7efvhwwh7rjva4zqktvnwcngqm0vuye","addr1q9hc3rls8rf3p286h7dr79drr4u36m8l0uuchwpkxlf89u5r9y6t5t83nlpjy47pt7e7efvhwwh7rjva4zqktvnwcngqknpthe"],"addressesOutput":["addr1qxgt3vnlpvp94dskaz7l88vpndcy0vspf4d78lwm4z0auqhgvqsh4xfq393jl2x6spmcqpw44zmlm5gsrwxx8yzt9ttqdprg23","addr1q9cwvremt6n320s2e3agq0jyq82yhrk3htsu0w426xnz5us70z4w0jgvcdkkynmm8wmds66jd9kusnjfpu6raw5fqp0sr07p5w","addr1qx3cv5xa4qq4gk90amfznnnw7pe3ucq9jhmuhd4fl07pnq0e43h3kctwulpff833925mmxlva7ucqxj3p5cghkrlw2eq5drxlu","addr1q9hc3rls8rf3p286h7dr79drr4u36m8l0uuchwpkxlf89u5r9y6t5t83nlpjy47pt7e7efvhwwh7rjva4zqktvnwcngqknpthe","addr1q9hc3rls8rf3p286h7dr79drr4u36m8l0uuchwpkxlf89u5r9y6t5t83nlpjy47pt7e7efvhwwh7rjva4zqktvnwcngqknpthe","addr1q9hc3rls8rf3p286h7dr79drr4u36m8l0uuchwpkxlf89u5r9y6t5t83nlpjy47pt7e7efvhwwh7rjva4zqktvnwcngqknpthe"],"fee":452598,"totalOutput":346464052,"tokens":[]},{"hash":"062497cda3e84fe5ec2659feb7750e7609a51cd8f3a07a85ba84cd140aff40ba","blockNo":8262033,"blockHash":"f2842439cc5eb03a8743b2d0ebf8dc5a3ccd7cb85282f9faa82958e4dba70a45","epochNo":387,"epochSlotNo":169831,"slot":81990631,"time":"2023/01/12 20:55:22","addressesInput":["addr1q8qwxnce34dse7lal0kvymp4n3h285jpzwchwmy3s32mp3h4ugrn8jfajh7lxkdpmux3uy9hv83359t6ls8p8648fjus6wq2k3","addr1wy30zf2g4xc7v872fdweewrlj3lh2lgttelmydn0cvhyplsg3vnkq"],"addressesOutput":["addr1q8qwxnce34dse7lal0kvymp4n3h285jpzwchwmy3s32mp3h4ugrn8jfajh7lxkdpmux3uy9hv83359t6ls8p8648fjus6wq2k3","addr1wy30zf2g4xc7v872fdweewrlj3lh2lgttelmydn0cvhyplsg3vnkq"],"fee":831693,"totalOutput":53524654,"tokens":[]},{"hash":"44d49e50e5049893d8227df476ceff5fa3a43560dfe2baa0aef46c86ed1cec42","blockNo":8262033,"blockHash":"f2842439cc5eb03a8743b2d0ebf8dc5a3ccd7cb85282f9faa82958e4dba70a45","epochNo":387,"epochSlotNo":169831,"slot":81990631,"time":"2023/01/12 20:55:22","addressesInput":["addr1qxa7hxs2plv3ghfvm2ds0ddlgljjmr870nyj0dcuttr9emmhy29z9apw4amvddq7cz3u2c6jffld2rlzcrmuk57cdvcsnml3cx","addr1qxa7hxs2plv3ghfvm2ds0ddlgljjmr870nyj0dcuttr9emmhy29z9apw4amvddq7cz3u2c6jffld2rlzcrmuk57cdvcsnml3cx","addr1qxa7hxs2plv3ghfvm2ds0ddlgljjmr870nyj0dcuttr9emmhy29z9apw4amvddq7cz3u2c6jffld2rlzcrmuk57cdvcsnml3cx"],"addressesOutput":["addr1q80eqx5xgy4m78dp7xusmt0x00h745rldxetwmlq5nwkv9z64cwepfzne52q76u7ra3urf0eqr9aaj07v0g874yxuz5s3rllsg","addr1qxa7hxs2plv3ghfvm2ds0ddlgljjmr870nyj0dcuttr9emmhy29z9apw4amvddq7cz3u2c6jffld2rlzcrmuk57cdvcsnml3cx","addr1qxa7hxs2plv3ghfvm2ds0ddlgljjmr870nyj0dcuttr9emmhy29z9apw4amvddq7cz3u2c6jffld2rlzcrmuk57cdvcsnml3cx"],"fee":232821,"totalOutput":91669644,"tokens":[]},{"hash":"ea0ca04ddbe679ea16eb8840d53178d37d68c8cf0181efc54aea35a12ddc5c5f","blockNo":8262033,"blockHash":"f2842439cc5eb03a8743b2d0ebf8dc5a3ccd7cb85282f9faa82958e4dba70a45","epochNo":387,"epochSlotNo":169831,"slot":81990631,"time":"2023/01/12 20:55:22","addressesInput":["DdzFFzCqrhstb2V3kAgfnhrNHnMvj5zGWoCqA4hbHN9SsHHW2ERVuvE4evkpMDQwnkRdoKm7vDANVSbXdzuue938wxF7AwyUeFRu89wo"],"addressesOutput":["DdzFFzCqrhsuPYqRbmfcmvphr6oR7aZY32t4r3tN4WtfpH9t3eWDaDmqGpGWzXB3dhZcKAX32s5MBHQZMAcmMKnKbFqrSP2wjV5P7abJ","DdzFFzCqrhsw2HjfZWbFSUiFXNsg8cuq79G9uxAgN3coUzYJ5i2mLbf5ei2Exd6EnVpzpsHmqZsaX4k6tt5erRfEX5eGqWvZ7ziGFezE"],"fee":174653,"totalOutput":29446850694,"tokens":[]},{"hash":"dca6b0283391e5fd31b638fb742b3e73c74029a1b0f026fff7cf34fa081b75f6","blockNo":8262033,"blockHash":"f2842439cc5eb03a8743b2d0ebf8dc5a3ccd7cb85282f9faa82958e4dba70a45","epochNo":387,"epochSlotNo":169831,"slot":81990631,"time":"2023/01/12 20:55:22","addressesInput":["addr1qxqwyweuhfx0w65mj0n3l8knn0u37np5tgcl42wzl89u73kf8pcrregr8wyjx5wgtqfshak7d8zpq56sr3puywz4x64qu2cstr","addr1qxqwyweuhfx0w65mj0n3l8knn0u37np5tgcl42wzl89u73kf8pcrregr8wyjx5wgtqfshak7d8zpq56sr3puywz4x64qu2cstr","addr1qxqwyweuhfx0w65mj0n3l8knn0u37np5tgcl42wzl89u73kf8pcrregr8wyjx5wgtqfshak7d8zpq56sr3puywz4x64qu2cstr"],"addressesOutput":["addr1zxgx3far7qygq0k6epa0zcvcvrevmn0ypsnfsue94nsn3tvpw288a4x0xf8pxgcntelxmyclq83s0ykeehchz2wtspks905plm","addr1qxqwyweuhfx0w65mj0n3l8knn0u37np5tgcl42wzl89u73kf8pcrregr8wyjx5wgtqfshak7d8zpq56sr3puywz4x64qu2cstr"],"fee":224901,"totalOutput":19372913,"tokens":[]},{"hash":"aae5b53674c9bd084a872b8b40c55350923c898ee841c02a7ade0e33f8086e2f","blockNo":8262033,"blockHash":"f2842439cc5eb03a8743b2d0ebf8dc5a3ccd7cb85282f9faa82958e4dba70a45","epochNo":387,"epochSlotNo":169831,"slot":81990631,"time":"2023/01/12 20:55:22","addressesInput":["addr1q9ehsetqs98emgsx8kzpfzzg3rzpvzsrf7xve0mt9yg37680ew66rrfc992fmsr46ylxrdhrdzs7ujhnj36cvhtx38ws7h0gws","addr1qyew9jn0qn9g0quzdxxh5xf9sypt700qeymjpl6cre8f7a00ew66rrfc992fmsr46ylxrdhrdzs7ujhnj36cvhtx38ws0ckukw","addr1qyew9jn0qn9g0quzdxxh5xf9sypt700qeymjpl6cre8f7a00ew66rrfc992fmsr46ylxrdhrdzs7ujhnj36cvhtx38ws0ckukw","addr1qxqxc2qlmwdlm6ve5mx8d6n99tl6v5fgkdshl5ds6ssdgq00ew66rrfc992fmsr46ylxrdhrdzs7ujhnj36cvhtx38wsrmv0xk","addr1qyek92xwy2xffujxxpllse399efwr5ncuhwhlnr28nxyk9l0ew66rrfc992fmsr46ylxrdhrdzs7ujhnj36cvhtx38ws3r43nm","addr1qyek92xwy2xffujxxpllse399efwr5ncuhwhlnr28nxyk9l0ew66rrfc992fmsr46ylxrdhrdzs7ujhnj36cvhtx38ws3r43nm","addr1qyek92xwy2xffujxxpllse399efwr5ncuhwhlnr28nxyk9l0ew66rrfc992fmsr46ylxrdhrdzs7ujhnj36cvhtx38ws3r43nm","addr1q9607wgwcs0a9ufgh9swmeazkg4x6uudpmzq8zham6ql8r80ew66rrfc992fmsr46ylxrdhrdzs7ujhnj36cvhtx38wshqs95h","addr1q9ehsetqs98emgsx8kzpfzzg3rzpvzsrf7xve0mt9yg37680ew66rrfc992fmsr46ylxrdhrdzs7ujhnj36cvhtx38ws7h0gws","addr1qxgmn8u0xwuvxxv8s9pr03anvl4rgx53rpjku3t858x5ts80ew66rrfc992fmsr46ylxrdhrdzs7ujhnj36cvhtx38wsvgsepw","addr1qxgmn8u0xwuvxxv8s9pr03anvl4rgx53rpjku3t858x5ts80ew66rrfc992fmsr46ylxrdhrdzs7ujhnj36cvhtx38wsvgsepw","addr1q9ehsetqs98emgsx8kzpfzzg3rzpvzsrf7xve0mt9yg37680ew66rrfc992fmsr46ylxrdhrdzs7ujhnj36cvhtx38ws7h0gws"],"addressesOutput":["addr1wxn9efv2f6w82hagxqtn62ju4m293tqvw0uhmdl64ch8uwc0h43gt","addr1qyek92xwy2xffujxxpllse399efwr5ncuhwhlnr28nxyk9l0ew66rrfc992fmsr46ylxrdhrdzs7ujhnj36cvhtx38ws3r43nm","addr1qx344fkqcwl9gjz75duvkygf8nsgucu6cjpea75777kyza80ew66rrfc992fmsr46ylxrdhrdzs7ujhnj36cvhtx38wsc6a327"],"fee":240653,"totalOutput":543860298,"tokens":[]},{"hash":"b34c2ca3d9e817b380840c8b1505bb8bdad09d64a91ed4a4268e326a802c1164","blockNo":8262033,"blockHash":"f2842439cc5eb03a8743b2d0ebf8dc5a3ccd7cb85282f9faa82958e4dba70a45","epochNo":387,"epochSlotNo":169831,"slot":81990631,"time":"2023/01/12 20:55:22","addressesInput":["addr1wxdct40gvyv525zlq79wahkuhmgadjs3q5lkrclemxvlu3qyda7l2","addr1qyre0jz5wqlmf4spgv0sv8vm5e4jqvx2549znpm9kfz8rlg4zhj6l4zrrvsw5h6ndc062yd0luer2wkzkt5uy7nd0dssw29d05"],"addressesOutput":["addr1qxkmr0m22xeqludcg5rjdmecjxasu9fat0680qehtcsnftaadgykewa9ufvegeuca9yyq03d9v7ea2y2zthgu7hfgjtsddp6gr","addr1qyre0jz5wqlmf4spgv0sv8vm5e4jqvx2549znpm9kfz8rlg4zhj6l4zrrvsw5h6ndc062yd0luer2wkzkt5uy7nd0dssw29d05","addr1qyre0jz5wqlmf4spgv0sv8vm5e4jqvx2549znpm9kfz8rlg4zhj6l4zrrvsw5h6ndc062yd0luer2wkzkt5uy7nd0dssw29d05"],"fee":346159,"totalOutput":5150437857,"tokens":[]}],"totalItems":58853961,"totalPages":2942699,"currentPage":0}