{"data":[{"hash":"be223a2d9142121610b2b8852f4a6601e89bcb7712380939f281b134b8d51556","blockNo":7251814,"blockHash":"9d17ba2697090ea1e17f3fb0fd9df9dbc99c67259d7f6eb332495735c883916c","epochNo":339,"epochSlotNo":12649,"slot":61097449,"time":"2022/05/16 01:15:40","addressesInput":["addr1q9vj9w32w77p47ca725hantcf5nrzcex66vqq58kqm4l04y6hn99676mvdj6qvd34vfqh3jx6vy8tyfkuy6u3xcghq8sex2gzq","addr1q9vj9w32w77p47ca725hantcf5nrzcex66vqq58kqm4l04y6hn99676mvdj6qvd34vfqh3jx6vy8tyfkuy6u3xcghq8sex2gzq"],"addressesOutput":["addr1qxslxcp6jagtlg5rm6zwq6gtpc4mrrwmqppcv05ts6mx82e4jwhdumf7vr72emxcn2pf8pcftergg8zsta6la2sy45csq3f77w","addr1q9vj9w32w77p47ca725hantcf5nrzcex66vqq58kqm4l04y6hn99676mvdj6qvd34vfqh3jx6vy8tyfkuy6u3xcghq8sex2gzq","addr1q9vj9w32w77p47ca725hantcf5nrzcex66vqq58kqm4l04y6hn99676mvdj6qvd34vfqh3jx6vy8tyfkuy6u3xcghq8sex2gzq"],"fee":242545,"totalOutput":47010365,"tokens":[]},{"hash":"9c415b6151bacaf079ebd7868e7df898e5958d94eaee25b10154c8aced7fa9d3","blockNo":7251744,"blockHash":"61c68605d690895ea62374833298724cbc9e6232dd247b455e09668b394ccaf2","epochNo":339,"epochSlotNo":10863,"slot":61095663,"time":"2022/05/16 00:45:54","addressesInput":["addr1q9t452rame6y09gmvlewdrl7jq620ld5ue9lvzx6swyvk7qa49c73yv32axatm687gp8req4y0v6thvmec00sz5fdn3sfvqxh2"],"addressesOutput":["addr1vyhv4sed64uugfx2akydq6z7v3sf5s0679wwdqyn8scx0jc4pylkx","addr1qyx5es2xqykalp0cfr7h0u0pqygchgwsvqeza28gp4eq44sa49c73yv32axatm687gp8req4y0v6thvmec00sz5fdn3s0ka3hv"],"fee":317741,"totalOutput":863555580,"tokens":[]},{"hash":"507e402c18b4d3366aadce8a5fd8015c0561fee09d1e6696c82c73f66e2becd1","blockNo":7251691,"blockHash":"bcc8b577ae104c6587e3fcc38e20622c03b4233dbf8b56d3a0d3114e26bc40c3","epochNo":339,"epochSlotNo":9668,"slot":61094468,"time":"2022/05/16 00:25:59","addressesInput":["addr1q9vj9w32w77p47ca725hantcf5nrzcex66vqq58kqm4l04y6hn99676mvdj6qvd34vfqh3jx6vy8tyfkuy6u3xcghq8sex2gzq"],"addressesOutput":["addr1qxslxcp6jagtlg5rm6zwq6gtpc4mrrwmqppcv05ts6mx82e4jwhdumf7vr72emxcn2pf8pcftergg8zsta6la2sy45csq3f77w","addr1q9vj9w32w77p47ca725hantcf5nrzcex66vqq58kqm4l04y6hn99676mvdj6qvd34vfqh3jx6vy8tyfkuy6u3xcghq8sex2gzq"],"fee":250025,"totalOutput":12476988,"tokens":[]},{"hash":"3ac61977851757bbb746be49dff423e28bbbb33ad54aae4f2fdbbc70b8e48cf4","blockNo":7251290,"blockHash":"639d85844fa5b71e6f031c45bcb74a5c98bc151c9005411ceaf48cd043397f06","epochNo":339,"epochSlotNo":783,"slot":61085583,"time":"2022/05/15 21:57:54","addressesInput":["addr1q9vj9w32w77p47ca725hantcf5nrzcex66vqq58kqm4l04y6hn99676mvdj6qvd34vfqh3jx6vy8tyfkuy6u3xcghq8sex2gzq","addr1q9vj9w32w77p47ca725hantcf5nrzcex66vqq58kqm4l04y6hn99676mvdj6qvd34vfqh3jx6vy8tyfkuy6u3xcghq8sex2gzq"],"addressesOutput":["addr1w999n67e86jn6xal07pzxtrmqynspgx0fwmcmpua4wc6yzsxpljz3","addr1q9vj9w32w77p47ca725hantcf5nrzcex66vqq58kqm4l04y6hn99676mvdj6qvd34vfqh3jx6vy8tyfkuy6u3xcghq8sex2gzq"],"fee":277138,"totalOutput":14485595,"tokens":[]},{"hash":"202cbcdb744e910f9259fa2a5c5d46ef50c614ea9c3508f4241e50fa8f81c742","blockNo":7251020,"blockHash":"e8a5aa3f9829f40db20eacdc4a5027ad359a9167156bd058d6fe2eb5ad800f22","epochNo":338,"epochSlotNo":426821,"slot":61079621,"time":"2022/05/15 20:18:32","addressesInput":["addr1q9dk87tmypnspkeqsy4z8jn734vdwt0h93sdvzzcguahx6zgut86gkznu32y850pllqd77zydskxvp6kcnj93gf2k5gs0g094y","addr1q8cgmvmpdau7qv9f7km92zf4lmunnrq6g6j8cth7zwf6qzzgut86gkznu32y850pllqd77zydskxvp6kcnj93gf2k5gsvlkxxu","addr1q9dk87tmypnspkeqsy4z8jn734vdwt0h93sdvzzcguahx6zgut86gkznu32y850pllqd77zydskxvp6kcnj93gf2k5gs0g094y","addr1q9dk87tmypnspkeqsy4z8jn734vdwt0h93sdvzzcguahx6zgut86gkznu32y850pllqd77zydskxvp6kcnj93gf2k5gs0g094y","addr1q9dk87tmypnspkeqsy4z8jn734vdwt0h93sdvzzcguahx6zgut86gkznu32y850pllqd77zydskxvp6kcnj93gf2k5gs0g094y","addr1q9dk87tmypnspkeqsy4z8jn734vdwt0h93sdvzzcguahx6zgut86gkznu32y850pllqd77zydskxvp6kcnj93gf2k5gs0g094y"],"addressesOutput":["addr1q9pgh7ev7cvega5tzu888a3ha4raf70w3yk6pqpjt9vkmd5jwjuc8tyr35p58r357lt6vjxxrfmryv3qralcd3snmnsqaawgpx","addr1q9r4vl7kf40k6whqc2kn72ldpcvwsj007e0euake2ye96p6gut86gkznu32y850pllqd77zydskxvp6kcnj93gf2k5gscldpvx"],"fee":441205,"totalOutput":58242977,"tokens":[]},{"hash":"378ff44da0d99c3fe6bef2878fa5351450922becfb97d88581c37592711146eb","blockNo":7250793,"blockHash":"ca6ead48e7e85ce62aac4ce9fd3032f071484746e3035b640b0fcbbd4186e4d9","epochNo":338,"epochSlotNo":422211,"slot":61075011,"time":"2022/05/15 19:01:42","addressesInput":["addr1qyu6f6t487fy5aawnhhvy963p4k8k6t30a02vn8yw4jqxarhe46zgqyydp84dpag98t8775u4aq0uu7w8nkm7jqh4n8qn8etzj","addr1qyu6f6t487fy5aawnhhvy963p4k8k6t30a02vn8yw4jqxarhe46zgqyydp84dpag98t8775u4aq0uu7w8nkm7jqh4n8qn8etzj","addr1qyu6f6t487fy5aawnhhvy963p4k8k6t30a02vn8yw4jqxarhe46zgqyydp84dpag98t8775u4aq0uu7w8nkm7jqh4n8qn8etzj","addr1qyu6f6t487fy5aawnhhvy963p4k8k6t30a02vn8yw4jqxarhe46zgqyydp84dpag98t8775u4aq0uu7w8nkm7jqh4n8qn8etzj","addr1qyu6f6t487fy5aawnhhvy963p4k8k6t30a02vn8yw4jqxarhe46zgqyydp84dpag98t8775u4aq0uu7w8nkm7jqh4n8qn8etzj","addr1qyu6f6t487fy5aawnhhvy963p4k8k6t30a02vn8yw4jqxarhe46zgqyydp84dpag98t8775u4aq0uu7w8nkm7jqh4n8qn8etzj","addr1qyu6f6t487fy5aawnhhvy963p4k8k6t30a02vn8yw4jqxarhe46zgqyydp84dpag98t8775u4aq0uu7w8nkm7jqh4n8qn8etzj","addr1qyu6f6t487fy5aawnhhvy963p4k8k6t30a02vn8yw4jqxarhe46zgqyydp84dpag98t8775u4aq0uu7w8nkm7jqh4n8qn8etzj"],"addressesOutput":["addr1v9hnfulv8ckvm4azs0altptwplxwmnl43yxyqa2gpuefdvsu5lhrc","addr1qyu6f6t487fy5aawnhhvy963p4k8k6t30a02vn8yw4jqxarhe46zgqyydp84dpag98t8775u4aq0uu7w8nkm7jqh4n8qn8etzj","addr1qyu6f6t487fy5aawnhhvy963p4k8k6t30a02vn8yw4jqxarhe46zgqyydp84dpag98t8775u4aq0uu7w8nkm7jqh4n8qn8etzj"],"fee":439797,"totalOutput":354728295,"tokens":[]},{"hash":"155713d550d583fe9a9c134e39ecf29b618749a2918bb5d48aa490aa73f80b64","blockNo":7250661,"blockHash":"a6808ffd819551c9a616a644e23962d1a2dd2a560c4377d3726b63568a677337","epochNo":338,"epochSlotNo":419254,"slot":61072054,"time":"2022/05/15 18:12:25","addressesInput":["addr1qysdvmvecllayy4rkksgsms5lu4vxhvxwtmx85ks3cctcdl49v0llr6kh86h28lyzeulsjnz9e0rfk2j0t9qend2e6xqvu3nts","addr1qysdvmvecllayy4rkksgsms5lu4vxhvxwtmx85ks3cctcdl49v0llr6kh86h28lyzeulsjnz9e0rfk2j0t9qend2e6xqvu3nts","addr1qysdvmvecllayy4rkksgsms5lu4vxhvxwtmx85ks3cctcdl49v0llr6kh86h28lyzeulsjnz9e0rfk2j0t9qend2e6xqvu3nts","addr1qysdvmvecllayy4rkksgsms5lu4vxhvxwtmx85ks3cctcdl49v0llr6kh86h28lyzeulsjnz9e0rfk2j0t9qend2e6xqvu3nts","addr1qysdvmvecllayy4rkksgsms5lu4vxhvxwtmx85ks3cctcdl49v0llr6kh86h28lyzeulsjnz9e0rfk2j0t9qend2e6xqvu3nts","addr1qysdvmvecllayy4rkksgsms5lu4vxhvxwtmx85ks3cctcdl49v0llr6kh86h28lyzeulsjnz9e0rfk2j0t9qend2e6xqvu3nts","addr1qysdvmvecllayy4rkksgsms5lu4vxhvxwtmx85ks3cctcdl49v0llr6kh86h28lyzeulsjnz9e0rfk2j0t9qend2e6xqvu3nts"],"addressesOutput":["addr1vycjwguxff9y4zguy5dvh8r2cj08u3vuf807lhvk9cunzdq06zs5l","addr1qysdvmvecllayy4rkksgsms5lu4vxhvxwtmx85ks3cctcdl49v0llr6kh86h28lyzeulsjnz9e0rfk2j0t9qend2e6xqvu3nts","addr1qysdvmvecllayy4rkksgsms5lu4vxhvxwtmx85ks3cctcdl49v0llr6kh86h28lyzeulsjnz9e0rfk2j0t9qend2e6xqvu3nts"],"fee":285049,"totalOutput":238527594,"tokens":[]},{"hash":"ec731b1ec14944f4c0dbeac2b876c64eba00f85b56f4b2d1e78fb9b39713ce49","blockNo":7250379,"blockHash":"285f308eda82252a9a42b507a66455bbc6e45801d61d42d8fd2ec850853ce407","epochNo":338,"epochSlotNo":413347,"slot":61066147,"time":"2022/05/15 16:33:58","addressesInput":["addr1q8fjdde87jrua78trg9ylv7gpvd5skzcv5nqp3wl467ykzgsmz083klcvm744y0n7yyg49ykzz0j628xpu4n5u0r0r4qrfqf6q","addr1q8fjdde87jrua78trg9ylv7gpvd5skzcv5nqp3wl467ykzgsmz083klcvm744y0n7yyg49ykzz0j628xpu4n5u0r0r4qrfqf6q"],"addressesOutput":["addr1q88qg9cvdyqts06yk463l6t0q5ccsn86d0emw4hgungt0n74q9ux9c5k6wc6hmc6m0vjyfc8cvpq96zrdlmtp7u2v4xsdyam7v","addr1q8fjdde87jrua78trg9ylv7gpvd5skzcv5nqp3wl467ykzgsmz083klcvm744y0n7yyg49ykzz0j628xpu4n5u0r0r4qrfqf6q"],"fee":374237,"totalOutput":31042399,"tokens":[]},{"hash":"5b8a775dafac33f58fe26a223a5a371320d7df330b1f77fef3a929f6638d9525","blockNo":7250366,"blockHash":"895296f47fd1b5542a5141b4cfed4f79cb903198b7d524d4a201ccd832d91e37","epochNo":338,"epochSlotNo":413079,"slot":61065879,"time":"2022/05/15 16:29:30","addressesInput":["addr1q8fjdde87jrua78trg9ylv7gpvd5skzcv5nqp3wl467ykzgsmz083klcvm744y0n7yyg49ykzz0j628xpu4n5u0r0r4qrfqf6q","addr1q8fjdde87jrua78trg9ylv7gpvd5skzcv5nqp3wl467ykzgsmz083klcvm744y0n7yyg49ykzz0j628xpu4n5u0r0r4qrfqf6q","addr1q8fjdde87jrua78trg9ylv7gpvd5skzcv5nqp3wl467ykzgsmz083klcvm744y0n7yyg49ykzz0j628xpu4n5u0r0r4qrfqf6q"],"addressesOutput":["addr1q88qg9cvdyqts06yk463l6t0q5ccsn86d0emw4hgungt0n74q9ux9c5k6wc6hmc6m0vjyfc8cvpq96zrdlmtp7u2v4xsdyam7v","addr1q8fjdde87jrua78trg9ylv7gpvd5skzcv5nqp3wl467ykzgsmz083klcvm744y0n7yyg49ykzz0j628xpu4n5u0r0r4qrfqf6q","addr1q8fjdde87jrua78trg9ylv7gpvd5skzcv5nqp3wl467ykzgsmz083klcvm744y0n7yyg49ykzz0j628xpu4n5u0r0r4qrfqf6q"],"fee":375777,"totalOutput":546629139,"tokens":[]},{"hash":"741099684f15b40a445f91da98d437d25337ccf70b4d25f86a256d088b8827bd","blockNo":7249605,"blockHash":"d2493abb5e640b8ec493dacc34900a08acff75e75031a7019f1889d62d00f230","epochNo":338,"epochSlotNo":397431,"slot":61050231,"time":"2022/05/15 12:08:42","addressesInput":["addr1q93vyug8m3qrqc5qr9u28hzkvdpzyvmez85f58l8y9t2502xrdyd4ezx43vxjgw0dvz6dzy36jku3ptrr9mcv5dftkhsx6f5gt","addr1q93vyug8m3qrqc5qr9u28hzkvdpzyvmez85f58l8y9t2502xrdyd4ezx43vxjgw0dvz6dzy36jku3ptrr9mcv5dftkhsx6f5gt","addr1q93vyug8m3qrqc5qr9u28hzkvdpzyvmez85f58l8y9t2502xrdyd4ezx43vxjgw0dvz6dzy36jku3ptrr9mcv5dftkhsx6f5gt"],"addressesOutput":["addr1q93vyug8m3qrqc5qr9u28hzkvdpzyvmez85f58l8y9t2502xrdyd4ezx43vxjgw0dvz6dzy36jku3ptrr9mcv5dftkhsx6f5gt","addr1q93vyug8m3qrqc5qr9u28hzkvdpzyvmez85f58l8y9t2502xrdyd4ezx43vxjgw0dvz6dzy36jku3ptrr9mcv5dftkhsx6f5gt","addr1q93vyug8m3qrqc5qr9u28hzkvdpzyvmez85f58l8y9t2502xrdyd4ezx43vxjgw0dvz6dzy36jku3ptrr9mcv5dftkhsx6f5gt"],"fee":257329,"totalOutput":17489144,"tokens":[]},{"hash":"900b209c1794b9af7941bed2e59c9e3cbce0fc9424c01dfb14f69c760235a984","blockNo":7249575,"blockHash":"050c52d20d79039eafbbdda99fa453990e734a7392a11bc435d605c27c5985fe","epochNo":338,"epochSlotNo":396881,"slot":61049681,"time":"2022/05/15 11:59:32","addressesInput":["addr1qx5z0387hdvgq6lm9r3dgkk6akeadg48grvnyugdrvjkphyj300f3pn8weljsnxjn5dfcesd0m8dqc44kpsctkdexm7sahd758"],"addressesOutput":["addr1q8793atavxr7nzndu88qgwej6ddhpkdy2jl2dsqm3894qc6jtz7y93808mevjgshdsvl9p9q9cpnhapq5c9qpfnx6lsqu9h6fs","addr1q9a6fkdt2g52s8rdrdfsvscay9x5xrkaedy6s8jcc8dk2n5j300f3pn8weljsnxjn5dfcesd0m8dqc44kpsctkdexm7san8lxj"],"fee":370057,"totalOutput":125703568,"tokens":[]},{"hash":"c33a97b07d2b868562ddd64c348ab03686fdbce42adaccd72c135692692fa483","blockNo":7249564,"blockHash":"b2dd0b80dc820be2ca3f36916a54c13297b2b7fcb541ed8b08083ebfe8445c25","epochNo":338,"epochSlotNo":396652,"slot":61049452,"time":"2022/05/15 11:55:43","addressesInput":["addr1qyvs0tnys8e9hupqhk6nj806syvvg40jl7d2ut4ugvvxhq0phsdlyazqdeza90cc4yjs3956l0xqthnzad8qpgewz27s4hahqz"],"addressesOutput":["addr1v99d4u5dy563e7qkx9jvecck78dmqw3ysvqqq9y07p2y5jqec38sm","addr1qyvs0tnys8e9hupqhk6nj806syvvg40jl7d2ut4ugvvxhq0phsdlyazqdeza90cc4yjs3956l0xqthnzad8qpgewz27s4hahqz","addr1qyvs0tnys8e9hupqhk6nj806syvvg40jl7d2ut4ugvvxhq0phsdlyazqdeza90cc4yjs3956l0xqthnzad8qpgewz27s4hahqz"],"fee":378505,"totalOutput":40440106,"tokens":[]},{"hash":"56b5de5b33e029a5dcaf4ae8e82252d77e1a67587a9a1a40dded670168939539","blockNo":7249562,"blockHash":"f87f0969201cea6eeeaef86e3c81472636993cbd76cbd21e28829bea87c3bf02","epochNo":338,"epochSlotNo":396627,"slot":61049427,"time":"2022/05/15 11:55:18","addressesInput":["addr1q9wd66k5aumfv7qed8fzdp2kvg6uvxqsl7dsczyhnwelzljjtz7y93808mevjgshdsvl9p9q9cpnhapq5c9qpfnx6lsq9sw9sh","addr1qyyf7cymf4tgf78a37y6uacupn9zfd8ghtsdnfs532ppa46jtz7y93808mevjgshdsvl9p9q9cpnhapq5c9qpfnx6lsqval0vr"],"addressesOutput":["addr1qx7h83nlgwsp70zdxp9dy58hmyryu3t3x3a3z35nl42ndkyj300f3pn8weljsnxjn5dfcesd0m8dqc44kpsctkdexm7s48k43s","addr1q9lmc4p2cakhjawj7alkqvm0l6f3mn8wlgccdfxcr0rrlnjjtz7y93808mevjgshdsvl9p9q9cpnhapq5c9qpfnx6lsq3sva0g"],"fee":496689,"totalOutput":33742568,"tokens":[]},{"hash":"606e6151f7eef45b49f7eb412801f35feec4bd9720f364b09ccb40e2525cbd9c","blockNo":7249468,"blockHash":"601a7e656d1b8fbfd408fd64ef0304e1b97241567546d13dac293ddf1b008e48","epochNo":338,"epochSlotNo":394642,"slot":61047442,"time":"2022/05/15 11:22:13","addressesInput":["addr1qy0xznhgdhqj9u4g6jjdntf2cxy5lyad8j2p6a6dp8jwwttfq4uncdzu6hqlxn7gva2xsaln40x226fl8fsnqyyvzxtqqm3qw9"],"addressesOutput":["addr1w999n67e86jn6xal07pzxtrmqynspgx0fwmcmpua4wc6yzsxpljz3","addr1qy0xznhgdhqj9u4g6jjdntf2cxy5lyad8j2p6a6dp8jwwttfq4uncdzu6hqlxn7gva2xsaln40x226fl8fsnqyyvzxtqqm3qw9"],"fee":259842,"totalOutput":12203067,"tokens":[]},{"hash":"6d85d8962935844d352454b2d6248ffbbe3d283ce2103594dc1c3fc338a48b4a","blockNo":7249461,"blockHash":"84d90e0718fb6ca453587e1dcaa88b130c2516f4398e8f21484a3cee3829de4c","epochNo":338,"epochSlotNo":394529,"slot":61047329,"time":"2022/05/15 11:20:20","addressesInput":["addr1q93vyug8m3qrqc5qr9u28hzkvdpzyvmez85f58l8y9t2502xrdyd4ezx43vxjgw0dvz6dzy36jku3ptrr9mcv5dftkhsx6f5gt","addr1q93vyug8m3qrqc5qr9u28hzkvdpzyvmez85f58l8y9t2502xrdyd4ezx43vxjgw0dvz6dzy36jku3ptrr9mcv5dftkhsx6f5gt"],"addressesOutput":["addr1q9lcm9n89eycshfs9as4qqajpmqdlqa0s5cdxkt6r0sg6x4nvggmfx7rxtc5dqlylt6k4cdldwa9yachcpryrz2r3fesv04m28","addr1q93vyug8m3qrqc5qr9u28hzkvdpzyvmez85f58l8y9t2502xrdyd4ezx43vxjgw0dvz6dzy36jku3ptrr9mcv5dftkhsx6f5gt","addr1q93vyug8m3qrqc5qr9u28hzkvdpzyvmez85f58l8y9t2502xrdyd4ezx43vxjgw0dvz6dzy36jku3ptrr9mcv5dftkhsx6f5gt"],"fee":257593,"totalOutput":15500791,"tokens":[]},{"hash":"9be11296f54ecbbfd414ed3a7dbc94e2b26cf03defe475e413c34cfd508f0e89","blockNo":7249423,"blockHash":"25532a0d430327ce0bb24644f02864281ab22c3a474219224bf58806385eb307","epochNo":338,"epochSlotNo":393613,"slot":61046413,"time":"2022/05/15 11:05:04","addressesInput":["addr1qxq5lehud4522rrww6tjjvz94267lv6lgwtm3uafkdem5kgl4a7843764rakvn7dtyrq863whuq9vfxsl6cpg0n5kudq5tnekl","addr1qxq5lehud4522rrww6tjjvz94267lv6lgwtm3uafkdem5kgl4a7843764rakvn7dtyrq863whuq9vfxsl6cpg0n5kudq5tnekl","addr1qxq5lehud4522rrww6tjjvz94267lv6lgwtm3uafkdem5kgl4a7843764rakvn7dtyrq863whuq9vfxsl6cpg0n5kudq5tnekl","addr1qxq5lehud4522rrww6tjjvz94267lv6lgwtm3uafkdem5kgl4a7843764rakvn7dtyrq863whuq9vfxsl6cpg0n5kudq5tnekl","addr1qxq5lehud4522rrww6tjjvz94267lv6lgwtm3uafkdem5kgl4a7843764rakvn7dtyrq863whuq9vfxsl6cpg0n5kudq5tnekl","addr1qxq5lehud4522rrww6tjjvz94267lv6lgwtm3uafkdem5kgl4a7843764rakvn7dtyrq863whuq9vfxsl6cpg0n5kudq5tnekl","addr1qxq5lehud4522rrww6tjjvz94267lv6lgwtm3uafkdem5kgl4a7843764rakvn7dtyrq863whuq9vfxsl6cpg0n5kudq5tnekl"],"addressesOutput":["addr1q83cd4dsvxn66u8ejlft2mslylz6rg54drlky7u03c9mcp8286g2c8pcesz7n99tqpm5vctfgg5x3vg56jnefun6axpq9wskvp","addr1qxq5lehud4522rrww6tjjvz94267lv6lgwtm3uafkdem5kgl4a7843764rakvn7dtyrq863whuq9vfxsl6cpg0n5kudq5tnekl","addr1qxq5lehud4522rrww6tjjvz94267lv6lgwtm3uafkdem5kgl4a7843764rakvn7dtyrq863whuq9vfxsl6cpg0n5kudq5tnekl","addr1qxq5lehud4522rrww6tjjvz94267lv6lgwtm3uafkdem5kgl4a7843764rakvn7dtyrq863whuq9vfxsl6cpg0n5kudq5tnekl"],"fee":475921,"totalOutput":471312162,"tokens":[]},{"hash":"107fcff337b1781aad1e1de8f5103c27a67252ae5f38bf60d6613bd922928364","blockNo":7249350,"blockHash":"e3140dd609541e37c45c9af3beef232b22d995437cdb3b3275b211423a852e06","epochNo":338,"epochSlotNo":392106,"slot":61044906,"time":"2022/05/15 10:39:57","addressesInput":["addr1qxq5lehud4522rrww6tjjvz94267lv6lgwtm3uafkdem5kgl4a7843764rakvn7dtyrq863whuq9vfxsl6cpg0n5kudq5tnekl","addr1qxq5lehud4522rrww6tjjvz94267lv6lgwtm3uafkdem5kgl4a7843764rakvn7dtyrq863whuq9vfxsl6cpg0n5kudq5tnekl","addr1qxq5lehud4522rrww6tjjvz94267lv6lgwtm3uafkdem5kgl4a7843764rakvn7dtyrq863whuq9vfxsl6cpg0n5kudq5tnekl","addr1qxq5lehud4522rrww6tjjvz94267lv6lgwtm3uafkdem5kgl4a7843764rakvn7dtyrq863whuq9vfxsl6cpg0n5kudq5tnekl","addr1qxq5lehud4522rrww6tjjvz94267lv6lgwtm3uafkdem5kgl4a7843764rakvn7dtyrq863whuq9vfxsl6cpg0n5kudq5tnekl"],"addressesOutput":["addr1wxn9efv2f6w82hagxqtn62ju4m293tqvw0uhmdl64ch8uwc0h43gt","addr1qxq5lehud4522rrww6tjjvz94267lv6lgwtm3uafkdem5kgl4a7843764rakvn7dtyrq863whuq9vfxsl6cpg0n5kudq5tnekl","addr1qxq5lehud4522rrww6tjjvz94267lv6lgwtm3uafkdem5kgl4a7843764rakvn7dtyrq863whuq9vfxsl6cpg0n5kudq5tnekl"],"fee":415245,"totalOutput":41256862,"tokens":[]},{"hash":"2fd8b4fc642f205c2b7acb1781c93270e89bd5b8ba090dbf46c8d94da6120c06","blockNo":7248928,"blockHash":"5d7597eedf6fef5cd260b728f23949d43ccd603d6c9a039b39ab50eb41ec4773","epochNo":338,"epochSlotNo":382709,"slot":61035509,"time":"2022/05/15 08:03:20","addressesInput":["addr1q99c9gm5vs9xqpt6g4h4yv2gkppgqm4l7haswzk3zjftdnr5mnxfh58zh2ygjm077y325dquf9d0y2xja86a6jrdlhwqgadvcl"],"addressesOutput":["addr1v9uy3mwhfv2z9dpd4gtwhq7jcmpzkd5s4zn3zxdmnc84v4q9dxp74","addr1q9dg0tu69sgqw86tu3qj0ujnr2wajs2qpcj83w6dht4w64n5mnxfh58zh2ygjm077y325dquf9d0y2xja86a6jrdlhwqztncqe"],"fee":277657,"totalOutput":39245602,"tokens":[]},{"hash":"14a7bf6f7101776d632e1a31a9946ccc5e269a36398e6714289189e0b88f5d27","blockNo":7248851,"blockHash":"7b3f458bc9ea62586e13490751c02a2f2dd9e7e5b0dd094b00660897bec642aa","epochNo":338,"epochSlotNo":381163,"slot":61033963,"time":"2022/05/15 07:37:34","addressesInput":["addr1qx76hnwx8qukkylx5te0em5gf7kgjqadv6x8z406mpyxz6nn3lmaa3wnh8ka8wxllq5f9kpp6spcwum5vvas6xgvuedsh0rgkp","addr1qx76hnwx8qukkylx5te0em5gf7kgjqadv6x8z406mpyxz6nn3lmaa3wnh8ka8wxllq5f9kpp6spcwum5vvas6xgvuedsh0rgkp","addr1qx76hnwx8qukkylx5te0em5gf7kgjqadv6x8z406mpyxz6nn3lmaa3wnh8ka8wxllq5f9kpp6spcwum5vvas6xgvuedsh0rgkp","addr1qx76hnwx8qukkylx5te0em5gf7kgjqadv6x8z406mpyxz6nn3lmaa3wnh8ka8wxllq5f9kpp6spcwum5vvas6xgvuedsh0rgkp","addr1qx76hnwx8qukkylx5te0em5gf7kgjqadv6x8z406mpyxz6nn3lmaa3wnh8ka8wxllq5f9kpp6spcwum5vvas6xgvuedsh0rgkp","addr1qx76hnwx8qukkylx5te0em5gf7kgjqadv6x8z406mpyxz6nn3lmaa3wnh8ka8wxllq5f9kpp6spcwum5vvas6xgvuedsh0rgkp","addr1qx76hnwx8qukkylx5te0em5gf7kgjqadv6x8z406mpyxz6nn3lmaa3wnh8ka8wxllq5f9kpp6spcwum5vvas6xgvuedsh0rgkp","addr1qx76hnwx8qukkylx5te0em5gf7kgjqadv6x8z406mpyxz6nn3lmaa3wnh8ka8wxllq5f9kpp6spcwum5vvas6xgvuedsh0rgkp"],"addressesOutput":["addr1qxl2efgrlwj5w4nswyurpcqrz4q7xp6ej5d475dh50hx7ln395lttaf34a89gqp40ratt2fk493uqchx0y2vz9qmq2dqkpyx3n","addr1qx76hnwx8qukkylx5te0em5gf7kgjqadv6x8z406mpyxz6nn3lmaa3wnh8ka8wxllq5f9kpp6spcwum5vvas6xgvuedsh0rgkp","addr1qx76hnwx8qukkylx5te0em5gf7kgjqadv6x8z406mpyxz6nn3lmaa3wnh8ka8wxllq5f9kpp6spcwum5vvas6xgvuedsh0rgkp","addr1qx76hnwx8qukkylx5te0em5gf7kgjqadv6x8z406mpyxz6nn3lmaa3wnh8ka8wxllq5f9kpp6spcwum5vvas6xgvuedsh0rgkp"],"fee":435573,"totalOutput":290542014,"tokens":[]},{"hash":"d2ca22dd3efa691def619589edfc3cb38a1508f5df4e7a70e1c15f4fe61efb55","blockNo":7248360,"blockHash":"bbea66609ae34a049704819022772ef711daed42cac543b31397dc73387bff8d","epochNo":338,"epochSlotNo":370571,"slot":61023371,"time":"2022/05/15 04:41:02","addressesInput":["addr1qycy2yp5ymewr6c0yq6p2ygd5w0gpwllr5n6ycw8qlfentjcnqa3jeyd7z5h6670654h2nq4d7pmc7kseruqydq3w3sq5ufyr9","addr1q8dw5cld2qz3t4lqa2sycl0z7z782zmgce6na08mmnje7rjcnqa3jeyd7z5h6670654h2nq4d7pmc7kseruqydq3w3squafaml"],"addressesOutput":["addr1w999n67e86jn6xal07pzxtrmqynspgx0fwmcmpua4wc6yzsxpljz3","addr1q8dw5cld2qz3t4lqa2sycl0z7z782zmgce6na08mmnje7rjcnqa3jeyd7z5h6670654h2nq4d7pmc7kseruqydq3w3squafaml","addr1q8dw5cld2qz3t4lqa2sycl0z7z782zmgce6na08mmnje7rjcnqa3jeyd7z5h6670654h2nq4d7pmc7kseruqydq3w3squafaml","addr1q8dw5cld2qz3t4lqa2sycl0z7z782zmgce6na08mmnje7rjcnqa3jeyd7z5h6670654h2nq4d7pmc7kseruqydq3w3squafaml"],"fee":269318,"totalOutput":26000382,"tokens":[]}],"totalItems":5784,"totalPages":290,"currentPage":0}