{"data":[{"blockNo":8413733,"slotNo":85132165,"epochNo":394,"epochSlotNo":287365,"hash":"9ed5bcc400ab2c068cd07339737eea21129c4548b18952cf73d2a4431477f7ed","time":"2023/02/18 05:34:16","txCount":13,"totalFees":4970592,"totalOutput":26082630975559,"slotLeader":"fe59e220d8036bd7533bf393e26abde56ec7d49fa632e57bf696d134"},{"blockNo":8413732,"slotNo":85132126,"epochNo":394,"epochSlotNo":287326,"hash":"8df541302d77c6cb1a7f97e450aea94cd652d874053bba16911162ce55ba7736","time":"2023/02/18 05:33:37","txCount":7,"totalFees":2819602,"totalOutput":164401472868,"slotLeader":"b619d366a0acc2e5a8e0f8e373d6eb926a01811f05a381aaa7a8564c"},{"blockNo":8413731,"slotNo":85132113,"epochNo":394,"epochSlotNo":287313,"hash":"5943178c4f1b6aa1b196d53448767d5701fd0d2c0bf78251f0da595ea166a6e2","time":"2023/02/18 05:33:24","txCount":30,"totalFees":9358344,"totalOutput":3947279671161,"slotLeader":"1bdb8db050fb6cfd13a8e34ddec812e0aec77c589f71fc396cd9d950"},{"blockNo":8413730,"slotNo":85132046,"epochNo":394,"epochSlotNo":287246,"hash":"b0f9837379f92080b70ef2dfab010b63dc42889a71af3e479836f974ac7ca197","time":"2023/02/18 05:32:17","txCount":1,"totalFees":255569,"totalOutput":21822137,"slotLeader":"e4abcf4408584601e7c707a8902996c0c291e1a3c8300b327ae3f6ab"},{"blockNo":8413729,"slotNo":85132044,"epochNo":394,"epochSlotNo":287244,"hash":"5a0cc668be45515ef7a26315ac62693ab6e359a8a77c352ff67281d45c5a7a0e","time":"2023/02/18 05:32:15","txCount":6,"totalFees":1342097,"totalOutput":4432003339,"slotLeader":"92bda83eb105d569b23cb6fa1d407dd42de0d2d7e6562718b7ac5c02"},{"blockNo":8413728,"slotNo":85132028,"epochNo":394,"epochSlotNo":287228,"hash":"905c3977428ddd2262f08a1eb38e7e7145cb0744df33a0e380984ffc01315beb","time":"2023/02/18 05:31:59","txCount":5,"totalFees":1230289,"totalOutput":90702247615,"slotLeader":"4b11b32e3a39fb417f5dddd9d058abdb2d1fdcd64360bee8928e05c2"},{"blockNo":8413727,"slotNo":85132017,"epochNo":394,"epochSlotNo":287217,"hash":"bef786003bcad1ccc5dc0b0f4fd30d09dd1437c5108cae041e8e19ac631c250f","time":"2023/02/18 05:31:48","txCount":34,"totalFees":8775891,"totalOutput":1150722398520,"slotLeader":"95c4956f7a137f7fe9c72f2e831e6038744b6307d00143b2447e6443"},{"blockNo":8413726,"slotNo":85131958,"epochNo":394,"epochSlotNo":287158,"hash":"7359f5ad39871e3e163c0c05660ec1cace49d49b0e832c258cedcb4248e4be40","time":"2023/02/18 05:30:49","txCount":1,"totalFees":315700,"totalOutput":137568329,"slotLeader":"d679d78bbfefe7e03e05e7a42f9088075af0f15f501a631c67e64037"},{"blockNo":8413725,"slotNo":85131956,"epochNo":394,"epochSlotNo":287156,"hash":"65201507b83be155efb4013d51a12b8f9d7679ffda00d1b7f0d60f62a76fa241","time":"2023/02/18 05:30:47","txCount":2,"totalFees":368226,"totalOutput":69688162002,"slotLeader":"000006d97fd0415d2dafdbb8b782717a3d3ff32f865792b8df7ddd00"},{"blockNo":8413724,"slotNo":85131953,"epochNo":394,"epochSlotNo":287153,"hash":"8c5e825ded600f18780347a4309525671f2f1fe6c196a09d16e7ddcb15beaeb3","time":"2023/02/18 05:30:44","txCount":21,"totalFees":7170078,"totalOutput":3793976963770,"slotLeader":"5cfc3c3314ffe6748ff3a4ca34b4b841ed81caacfee24c341c21a905"},{"blockNo":8413723,"slotNo":85131920,"epochNo":394,"epochSlotNo":287120,"hash":"b1dc0a541d3bf1fb9a7f4a4d454bc3ddb79b50de616a19f87cd617057006e02f","time":"2023/02/18 05:30:11","txCount":3,"totalFees":735492,"totalOutput":299042127,"slotLeader":"c473846af5dfa3d56d2bdb765d8a2835be6dcc5c70be5cc4ff136a45"},{"blockNo":8413722,"slotNo":85131910,"epochNo":394,"epochSlotNo":287110,"hash":"2a47c8e86477326703cbaeed7c64abbb9312d8f74405eb1946c4093ded6f8fd3","time":"2023/02/18 05:30:01","txCount":7,"totalFees":2045445,"totalOutput":1903060729,"slotLeader":"50a251d84927d932b9393cb462f300d215faedd5e8a5e791e869f32c"},{"blockNo":8413721,"slotNo":85131903,"epochNo":394,"epochSlotNo":287103,"hash":"ed715a96ba6044b3d17fed2a6227780345022cf95bcd5ff18939c45ecc7adb89","time":"2023/02/18 05:29:54","txCount":18,"totalFees":6433546,"totalOutput":6007366718397,"slotLeader":"494b1adec5eb9aaa6f66fbdad55fa0637a59fc1c74ef40b355bc2aa1"},{"blockNo":8413720,"slotNo":85131864,"epochNo":394,"epochSlotNo":287064,"hash":"350555a95c604ca5b91d3f812635977122356164f526764ee4d431f88fa771b2","time":"2023/02/18 05:29:15","txCount":9,"totalFees":4010279,"totalOutput":17630445927146,"slotLeader":"86c8a19e4d6227da12d7c9c63c5fd7a83bf227a92089778f7d9ec0f9"},{"blockNo":8413719,"slotNo":85131840,"epochNo":394,"epochSlotNo":287040,"hash":"8ce0e8af375b4820bec78b49ac15af6a6349aa1dcb4c114d448d14a36b48c18f","time":"2023/02/18 05:28:51","txCount":3,"totalFees":1056311,"totalOutput":213621817,"slotLeader":"9ca4378a7ee308d910efd7a611a1df2181314c25723ff4cfa855664c"},{"blockNo":8413718,"slotNo":85131835,"epochNo":394,"epochSlotNo":287035,"hash":"4a8e223acdbf57c1bf6021f91ceebd90f4a54b281f3c9ec59fa8f8b640f5f573","time":"2023/02/18 05:28:46","txCount":0,"totalFees":0,"totalOutput":0,"slotLeader":"77b0a93c26ac65be36e9a9f220f9a43cbc57d705fc5d8f1de5fdeea1"},{"blockNo":8413717,"slotNo":85131831,"epochNo":394,"epochSlotNo":287031,"hash":"f1064d1b109c32e502fab95051816aa98f265b36c3261f0f54f468c0493c8ebf","time":"2023/02/18 05:28:42","txCount":5,"totalFees":2527367,"totalOutput":19147512186597,"slotLeader":"0236ec1a0769c1b1bd8b6400d2f0e8e206cccd77a3700e5b7cf172a8"},{"blockNo":8413716,"slotNo":85131817,"epochNo":394,"epochSlotNo":287017,"hash":"affb961d7e83be507a4ad8db8f5f6ffa9f959f0c67947c99e361bf77bf8b9ed5","time":"2023/02/18 05:28:28","txCount":15,"totalFees":5368093,"totalOutput":6445224370,"slotLeader":"30f9a4c529f89d60ad1bd1c33c0e13c20b347fec7cac794c557efcee"},{"blockNo":8413715,"slotNo":85131783,"epochNo":394,"epochSlotNo":286983,"hash":"a2fdb46b00d2a7a134da21b6980634dc960c97622dbc17e2d0485bc7aefa35cd","time":"2023/02/18 05:27:54","txCount":11,"totalFees":3490481,"totalOutput":2221815242919,"slotLeader":"caf8502f66536e95138fbf23c14abde1d13090d4aef52b9287f682e8"},{"blockNo":8413714,"slotNo":85131763,"epochNo":394,"epochSlotNo":286963,"hash":"421f9c31c719384810713791ee1f032a486147c0f4ff912be469715df3aef62d","time":"2023/02/18 05:27:34","txCount":7,"totalFees":3302148,"totalOutput":2195131788865,"slotLeader":"849cdde779a0a0faaa4276dac342f762bd6c84d6cbf637a92a20bb88"}],"totalItems":8413909,"totalPages":420696,"currentPage":0}