{"data":[{"address":"addr1z8snz7c4974vzdpxu65ruphl3zjdvtxw8strf2c2tmqnxz2j2c79gy9l76sdg0xwhd7r0c0kna0tycz4y5s6mlenh8pq0xmsha","txCount":636448,"balance":41264023955199},{"address":"addr1z8jd97ct35n4s5ss8lt4sq0zclw0dmf7yak8fj46m0jm3d475v0pzyfnfwd4drdgh0uxkl9tpd679xps84y757htua9s6w8m7p","txCount":13,"balance":20000000000000},{"address":"addr1wy0nmrl40z3nx9d0d79pu5u7zett4hl2apfuj9caqgf7jjqcj3r8z","txCount":694,"balance":13500246065635},{"address":"addr1w9qzpelu9hn45pefc0xr4ac4kdxeswq7pndul2vuj59u8tqaxdznu","txCount":487385,"balance":10957533310665},{"address":"addr1w8pydstdswmdqmg2rdt59dzql3zgfp9pt8sulnjgalycwdsj9js7w","txCount":67314,"balance":5831119178583},{"address":"addr1w93j7t23z99448k7xspzrppjtgun0janh0rcq6k8wt2e8vc2fraw4","txCount":3760,"balance":4134764532891},{"address":"addr1z8nvjzjeydcn4atcd93aac8allvrpjn7pjr2qsweukpnaytpq3ryg76qvca5eu9c6py33ncg8zf09nh7gy2cvdps2yeqlvvkfh","txCount":1955,"balance":3625083078394},{"address":"addr1z8nvjzjeydcn4atcd93aac8allvrpjn7pjr2qsweukpnay2tqrfwamagnyfv43jgm94yvkmsnfvpzlytmkl0cs0uh8zqszu5da","txCount":8418,"balance":2487836629416},{"address":"addr1z8nvjzjeydcn4atcd93aac8allvrpjn7pjr2qsweukpnaytvcg6zm2vds6mz9x3h3yalqmnf24w86m09n40q3tgqxjms9yu6v8","txCount":17132,"balance":1871655251277},{"address":"addr1z9fvxytwm8dv0aht3x8cxetm3tu4f47kaqdgxney8mu6hj8ktmp978vxcf308hnf8v4js57z4az4a0sx592h7t58w7fsqz6x77","txCount":4,"balance":1522602739721},{"address":"addr1z8nvjzjeydcn4atcd93aac8allvrpjn7pjr2qsweukpnay0juqg4tpvktqnle8j0ukcnww78l7ze4lrgunuwqnxtvjps8lclpw","txCount":3297,"balance":1486958666818},{"address":"addr1z85t4tvj3rwf40wqnx6x72kqq6c6stra7jvkupnlqrqyarthhd58w0qrqpyv4dc2c2mk98sduawl7l4gjuc9rafyv98sgylfw3","txCount":6375,"balance":1334923644828},{"address":"addr1z8nvjzjeydcn4atcd93aac8allvrpjn7pjr2qsweukpnayg3sm3lpp76yuejdf6w3qyry2spy8xjmjrlxy2cstm3fthsjc3xze","txCount":7460,"balance":1288429241238},{"address":"addr1zxgx3far7qygq0k6epa0zcvcvrevmn0ypsnfsue94nsn3tvpw288a4x0xf8pxgcntelxmyclq83s0ykeehchz2wtspks905plm","txCount":2212696,"balance":1282300216324},{"address":"addr1z8jd97ct35n4s5ss8lt4sq0zclw0dmf7yak8fj46m0jm3dkumyryd7wxymucr47uyf9zekr5wn43f0ysvzvsgc5x80zqlvjd9t","txCount":8,"balance":1208055491626},{"address":"addr1z9cy2gmar6cpn8yymll93lnd7lw96f27kn2p3eq5d4tjr7rshnr04ple6jjfc0cvcmcpcxmsh576v7j2mjk8tw890vespzvgwd","txCount":14028,"balance":1107845607312},{"address":"addr1z8nvjzjeydcn4atcd93aac8allvrpjn7pjr2qsweukpnayg4pn8uxr87tguqw8jkn6p233rk7k683ppl2mspr8appw9q640ms8","txCount":5125,"balance":1053819111030},{"address":"addr1z9fvxytwm8dv0aht3x8cxetm3tu4f47kaqdgxney8mu6hj9jnkhthhfhduv0p5m4l93pdadpgxsuf3xl89rk2tnknx4qstj3xa","txCount":5,"balance":1022602739711},{"address":"addr1z9fvxytwm8dv0aht3x8cxetm3tu4f47kaqdgxney8mu6hjrt9c6gkf7u8w3ad9aflzsvcexqtu4zvrx0kec4g6za36fs822ayc","txCount":3,"balance":1017328767112},{"address":"addr1z9fvxytwm8dv0aht3x8cxetm3tu4f47kaqdgxney8mu6hjp5gf28py0gn0atww37h5gyu9a2j7g2yy8a9c4m369n4c3sjzpftt","txCount":3,"balance":1011301369856}],"totalItems":27420,"totalPages":1371,"currentPage":0}