{"data":[{"blockNo":8116974,"slotNo":79012873,"epochNo":380,"epochSlotNo":216073,"hash":"918eef5e848e090f5d830593373ddeac64e5f8b572e17cb5a60b2309c1861a87","time":"2022/12/09 09:46:04","txCount":3,"totalFees":521275,"totalOutput":3384019054,"slotLeader":"6539a70bb6e61540444133eab3a24288d1cd3ddc3598adde93475513"},{"blockNo":8116973,"slotNo":79012870,"epochNo":380,"epochSlotNo":216070,"hash":"8e35d1d454c323b2e1e8822afc21e534fe15402bcd9662016c1858780939c7b0","time":"2022/12/09 09:46:01","txCount":1,"totalFees":171221,"totalOutput":506726137,"slotLeader":"cb9a5414581696cf9176787e99472790355a7de61d67a5643da95a86"},{"blockNo":8116972,"slotNo":79012868,"epochNo":380,"epochSlotNo":216068,"hash":"dddfce8c6abb733e030f208ca294ab35b2ad12d11bf57364992c1121951556dc","time":"2022/12/09 09:45:59","txCount":11,"totalFees":4139842,"totalOutput":13292004583,"slotLeader":"c3cd2527a5f0b82a86ff69fdd5a3440dc51bcb957953ba19137738c0"},{"blockNo":8116971,"slotNo":79012843,"epochNo":380,"epochSlotNo":216043,"hash":"9673cc81e833255ba74969280cc7b4d47d06181888519d2952183cb0c84c8484","time":"2022/12/09 09:45:34","txCount":11,"totalFees":3684650,"totalOutput":124408301896,"slotLeader":"60397646d7d1ad6fe2ddccfe7efc9cba61f6d3d94d29e8f41de73240"},{"blockNo":8116970,"slotNo":79012816,"epochNo":380,"epochSlotNo":216016,"hash":"1049e7c97b1c62034be1328a9b65e2a6af48df2cb72b99247401c16e3fda67fa","time":"2022/12/09 09:45:07","txCount":8,"totalFees":1708788,"totalOutput":90223100763,"slotLeader":"b44181287c72d0c7b1bce6a57173cdf739ac77d030bdfc4606138dd2"},{"blockNo":8116969,"slotNo":79012793,"epochNo":380,"epochSlotNo":215993,"hash":"a587630138d9ce007ec0644ab607c1283d911ba94e89fcca691f99200e93f004","time":"2022/12/09 09:44:44","txCount":3,"totalFees":1682018,"totalOutput":18462210252,"slotLeader":"d679d78bbfefe7e03e05e7a42f9088075af0f15f501a631c67e64037"},{"blockNo":8116968,"slotNo":79012787,"epochNo":380,"epochSlotNo":215987,"hash":"78d188da48e50f5c3d04ffd92fbfe0bd921efeab5247519f19a80d7fde0f9f57","time":"2022/12/09 09:44:38","txCount":11,"totalFees":2471755,"totalOutput":22097611404,"slotLeader":"213ccec05701bd77a8613e48f09ea42504c50d5d709ad16339ef0638"},{"blockNo":8116967,"slotNo":79012767,"epochNo":380,"epochSlotNo":215967,"hash":"501f9eed857a3ee8ab5337d3a925d64c8b7ff7a022c7ed52cbc8e1f86c1d91e3","time":"2022/12/09 09:44:18","txCount":6,"totalFees":3830676,"totalOutput":142329910967,"slotLeader":"c83beb18d532234c72a304ab935982be670c22e771b227a3febc3a82"},{"blockNo":8116966,"slotNo":79012749,"epochNo":380,"epochSlotNo":215949,"hash":"cc4936ee2bd7641b5ae3b73498aaf2bf84003ca405ab22bde635de2dbb20e7da","time":"2022/12/09 09:44:00","txCount":15,"totalFees":4663727,"totalOutput":350875694663,"slotLeader":"72583cf41012446cd1ca839c10049ecd65d31664b11e63d286041d61"},{"blockNo":8116965,"slotNo":79012727,"epochNo":380,"epochSlotNo":215927,"hash":"d75369a89398be2afeb104fc193848ae67fdeef2d59c155bda3553a7e2e8fd24","time":"2022/12/09 09:43:38","txCount":20,"totalFees":4906467,"totalOutput":1227206167997,"slotLeader":"ec6cdcad62633e065be5d96eecea28464144a1827adc0cba98d29a23"},{"blockNo":8116964,"slotNo":79012691,"epochNo":380,"epochSlotNo":215891,"hash":"7d574ab222a554257592d01f15f4cf5ac711467ef5b7333b77c71b831f0eb97b","time":"2022/12/09 09:43:02","txCount":3,"totalFees":2138752,"totalOutput":131521733305,"slotLeader":"f747208eb5e3b703b271ff373b4dc4ca643c026071e480689be320d9"},{"blockNo":8116963,"slotNo":79012683,"epochNo":380,"epochSlotNo":215883,"hash":"319b64a86d6df823cd88814f9206de08b6b14d1a5b3329d2f74ba54e2d891c50","time":"2022/12/09 09:42:54","txCount":10,"totalFees":2919352,"totalOutput":482809247693,"slotLeader":"3c68076a8b81226f6d7da352dda415db00299701624b6cf71d7cc086"},{"blockNo":8116962,"slotNo":79012672,"epochNo":380,"epochSlotNo":215872,"hash":"59a5d284e6a1eab3f16a46dd12db4d7499bffd8bf0f3d2870cb551f1e1e7e41c","time":"2022/12/09 09:42:43","txCount":12,"totalFees":3364430,"totalOutput":9092822297,"slotLeader":"b62772f5982c919ff658977c4d3a0c937bcfd8127aba2c405266e217"},{"blockNo":8116961,"slotNo":79012648,"epochNo":380,"epochSlotNo":215848,"hash":"f9344ec55ce69ce070a962be245bbe39f9a27fe1c8540a3b04091922655a2d54","time":"2022/12/09 09:42:19","txCount":12,"totalFees":5095186,"totalOutput":1141434936352,"slotLeader":"40ff71258d2c73da9e2a5ee3abb9be256e745e7f74c31eb8d4be5299"},{"blockNo":8116960,"slotNo":79012631,"epochNo":380,"epochSlotNo":215831,"hash":"e08b1f706f2ec3fe2cb39a2f8a1f872cebf2a2248b4d892cf675acd28b2121ca","time":"2022/12/09 09:42:02","txCount":1,"totalFees":265611,"totalOutput":169932084,"slotLeader":"11c660b87cb43e4720b053895b3137b4c08f367dbd030127c9c6de9e"},{"blockNo":8116959,"slotNo":79012629,"epochNo":380,"epochSlotNo":215829,"hash":"b5fa4f17d80a9a8fa0c06df74f5ebfe838ac220fabaa3fdf2b643a50171e7979","time":"2022/12/09 09:42:00","txCount":15,"totalFees":4404892,"totalOutput":39942370930,"slotLeader":"4511bcca3896bcb6d43b66fb89fe079f00f44bed505c9ca232704dc9"},{"blockNo":8116958,"slotNo":79012595,"epochNo":380,"epochSlotNo":215795,"hash":"4b0228642b96bd56fc9e5fba721cc5c27e9450f08c0abac699225ccbeb347236","time":"2022/12/09 09:41:26","txCount":0,"totalFees":0,"totalOutput":0,"slotLeader":"c51e4e6cb25065ad0740249c66eafa11e186120602aff1cdca53110a"},{"blockNo":8116957,"slotNo":79012594,"epochNo":380,"epochSlotNo":215794,"hash":"22289712061d8ec10ccf36313954c05d7cc5eccf29487c64d234b08687eb2f71","time":"2022/12/09 09:41:25","txCount":42,"totalFees":13129654,"totalOutput":1407781224368,"slotLeader":"618ab17ec8ea7239b4ac0c826b667c599489e25524ce74841a29d510"},{"blockNo":8116956,"slotNo":79012528,"epochNo":380,"epochSlotNo":215728,"hash":"8068214daae9f66a556c95b80da0630978703e86bd13029caf812acdd1f32da4","time":"2022/12/09 09:40:19","txCount":11,"totalFees":4095590,"totalOutput":2068499847699,"slotLeader":"a10865dae2d543ee9f13e98bff70ea81565bb6e4343b15b765f78174"},{"blockNo":8116955,"slotNo":79012513,"epochNo":380,"epochSlotNo":215713,"hash":"6929670329a7fc135d702f6e1df7865b75994f0733ffca3de11224155aa7b1ca","time":"2022/12/09 09:40:04","txCount":3,"totalFees":590618,"totalOutput":17712392555,"slotLeader":"b619d366a0acc2e5a8e0f8e373d6eb926a01811f05a381aaa7a8564c"}],"totalItems":8117150,"totalPages":405858,"currentPage":0}