{"data":[{"txId":57072409,"txHash":"fd01fe7fb667c339bdcf557ede39737106b60a5ea4fa7705d64b4b4ff37c778c","txTime":"2022/12/11 06:27:53","block":8124961,"epoch":380,"slotNo":79173782,"epochSlotNo":376982,"stakeKey":"stake1uy2p0yzvreq4cspekc0fn770f7zcpjucqsrj7xdr78mh8cqmtf93e"},{"txId":57072215,"txHash":"9c7043f7f195793e878182353c3e9bbe0f88dac25b4a62d7eb49a94e91258897","txTime":"2022/12/11 06:22:37","block":8124948,"epoch":380,"slotNo":79173466,"epochSlotNo":376666,"stakeKey":"stake1uxhdvh0qx0sqe0qq8pkkznvp6hukugclwx7t8mzv928navsa0cl82"},{"txId":57071574,"txHash":"6b1cee9a4a46b7e310743fd9f5f189ce1049050640054603b968691b918bb8ac","txTime":"2022/12/11 06:04:46","block":8124903,"epoch":380,"slotNo":79172395,"epochSlotNo":375595,"stakeKey":"stake1uy2q0sfsqurpv0w837demtnl62zwng3rlfmtu58q36kg2jsd38p4n"},{"txId":57071206,"txHash":"d6995fdc15b88be5a40be6b417b32822ca1461e5156838b4650b6f47e86f95d6","txTime":"2022/12/11 05:52:45","block":8124856,"epoch":380,"slotNo":79171674,"epochSlotNo":374874,"stakeKey":"stake1uyknfxjlpt2ynjssmxppsctszcw0rfkcnsqj48r45e7jkfg7cecuj"},{"txId":57070358,"txHash":"12b2b1eb5d07a762f6096d636d594e8509ce39cd3412c074df4012082c7c8005","txTime":"2022/12/11 05:28:47","block":8124778,"epoch":380,"slotNo":79170236,"epochSlotNo":373436,"stakeKey":"stake1uy80rvzyem2t3dulatcqt8pked884lmcls00vdevnkd4wncp4z6sw"},{"txId":57068501,"txHash":"1af50a1489bf51de40ad1cc435782bf713ba136afb810be833ecb2ddf97572cf","txTime":"2022/12/11 04:22:24","block":8124586,"epoch":380,"slotNo":79166253,"epochSlotNo":369453,"stakeKey":"stake1uxvg5hvzcktd0da07dk33p654h2egcye3zpv9fdgp7cgw5c0p6sw2"},{"txId":57067856,"txHash":"25e2eba4ff491ec2b5052c10773b9d11296acf44ab5da0a25ceb4ad6ad707404","txTime":"2022/12/11 04:03:07","block":8124519,"epoch":380,"slotNo":79165096,"epochSlotNo":368296,"stakeKey":"stake1u8huv65qq9485lvsz3etdc82jccjn694z773wmfjjurk56q43dyhe"},{"txId":57067796,"txHash":"d3577868a1271c08e746568124879b2d41412260bec0c584c55dced5c3bcd736","txTime":"2022/12/11 04:01:05","block":8124510,"epoch":380,"slotNo":79164974,"epochSlotNo":368174,"stakeKey":"stake1u80hvq77800072rwxyj380s9nk5hmuzmh4zyqvj4rmc3prsfwr070"},{"txId":57067737,"txHash":"8d490485c0adfcffa453011d8a0dd36c969fe086b7a3cf8d374b2c4788b4fa32","txTime":"2022/12/11 03:59:15","block":8124503,"epoch":380,"slotNo":79164864,"epochSlotNo":368064,"stakeKey":"stake1u8ahdlpnmzqpyvuzcchy459tu4798d9t0kludtwv9z4qvfqtxqwds"},{"txId":57067677,"txHash":"8a8d55986355fff2fbb28d46c91dfefe487d62933313641e63054a36ce9b37a2","txTime":"2022/12/11 03:57:31","block":8124494,"epoch":380,"slotNo":79164760,"epochSlotNo":367960,"stakeKey":"stake1u8hmsddymvdc5juf89p8u9cn6x6wphs7wsn3k3xrsmup58c2ssvee"},{"txId":57067557,"txHash":"c643cb336046b6bcff1477603e43d5b875d122fde2cf9e00acb20082067a7ccf","txTime":"2022/12/11 03:54:15","block":8124485,"epoch":380,"slotNo":79164564,"epochSlotNo":367764,"stakeKey":"stake1uxn3mkp6rp9gpkdquc57kalyef9a4k0uf0vv087tksqaaag0xkqxx"},{"txId":57067550,"txHash":"4752385606a0165307d250a8e2d25cc655677d70e0ecebd921e803aa4f732214","txTime":"2022/12/11 03:54:15","block":8124485,"epoch":380,"slotNo":79164564,"epochSlotNo":367764,"stakeKey":"stake1uxzh2sfefqucsa20e2xj04g7p5f9xxvwmdcm6tfec7p4upsqlvkax"},{"txId":57067533,"txHash":"8f6eb623b5f0027edb39dfb61422abd6dbdb6f153a7a03d921510cb987fb12ff","txTime":"2022/12/11 03:53:39","block":8124483,"epoch":380,"slotNo":79164528,"epochSlotNo":367728,"stakeKey":"stake1u8k6m8mcr0w07g39upccjvlf0kjsnvkvlsxdchs7uue7yjsxednep"},{"txId":57067495,"txHash":"a30e6bb5be33bc67761aff10034d84c37ce8d959a15e83da2811425f188cbcf1","txTime":"2022/12/11 03:52:42","block":8124479,"epoch":380,"slotNo":79164471,"epochSlotNo":367671,"stakeKey":"stake1ux300twsd80t9rgv9ygddlgt4mgc408t7qrputr2rv4gwgqrxr9a6"},{"txId":57067326,"txHash":"bb8b863043fd25ec152ddc1d166f51c54108675b4ec66df18c5437e2556a59ce","txTime":"2022/12/11 03:48:27","block":8124463,"epoch":380,"slotNo":79164216,"epochSlotNo":367416,"stakeKey":"stake1u9xud5pkeyzq9zedzqm8d3645uxdxrh7awfkagl3ulmnwsspaatw0"},{"txId":57067315,"txHash":"ba6a399460cc407dd42e4a0557e478a0fa3366fc29ffb36a95ffa52cc705dcae","txTime":"2022/12/11 03:48:00","block":8124462,"epoch":380,"slotNo":79164189,"epochSlotNo":367389,"stakeKey":"stake1u9jafxma9y67nc35wdz9tky43jyver9dergj78sgvnedeyqjkkflu"},{"txId":57067270,"txHash":"77b25d37eb1e0aaa6125e2c65f7f9864a79d4c43a27bad2203b4d8ae8833c377","txTime":"2022/12/11 03:46:38","block":8124459,"epoch":380,"slotNo":79164107,"epochSlotNo":367307,"stakeKey":"stake1u9au6mt64j2w73ktp7hsauhldw7e6cydrgmnpr4t3jt9amsjjq980"},{"txId":57067205,"txHash":"6c312f23d1a65d3a43ba5dceb1f16f997e031bb20a2755d3f6546335c0aa55af","txTime":"2022/12/11 03:45:51","block":8124455,"epoch":380,"slotNo":79164060,"epochSlotNo":367260,"stakeKey":"stake1u9py2fdx6596z3q2ggzq3spvapas573mly8fvpj5dk0r3qg6npy37"},{"txId":57066974,"txHash":"7853d848f7a9759bc3a23a7facebe7075069500c735cfba3039b5955848a3373","txTime":"2022/12/11 03:37:28","block":8124436,"epoch":380,"slotNo":79163557,"epochSlotNo":366757,"stakeKey":"stake1uyk3630d953t76gdu9tmsf3zyyz5lnkackt0r9v7774vazgcwrrv4"},{"txId":57066841,"txHash":"948300196cb485ae36befef6c9a3825c888a5b8448b902a4f4c41409adb35da6","txTime":"2022/12/11 03:34:00","block":8124429,"epoch":380,"slotNo":79163349,"epochSlotNo":366549,"stakeKey":"stake1u97nsu9fvflmsqg05f22565a9phqd36r9spyp0ee7lzaugqyhqr8v"}],"totalItems":336064,"totalPages":16804,"currentPage":0}