{"data":[{"txId":30210577,"txHash":"1ee5abd3c478b3e346c25bb9dd57d40da3a8556f6868efb1b8f636a0a490b21f","txTime":"2022/02/06 05:07:42","block":6847360,"epoch":319,"slotNo":52557771,"epochSlotNo":112971,"stakeKey":"stake1u93ejsm6nz996l4rga4zy0gfp4u3hh4eshwztm9mpr7wavcu96jhj"},{"txId":30210570,"txHash":"904733693d6b75310643692b8b3c8cb369086761c02e40ba21add688b6c746e0","txTime":"2022/02/06 05:07:42","block":6847360,"epoch":319,"slotNo":52557771,"epochSlotNo":112971,"stakeKey":"stake1uxlsk3l54r8tsks757g2d9q6kdlpyz53yhfnhnj5qnycancphv07k"},{"txId":30210562,"txHash":"deed166c3e6b711ced35db3a3df784755983c8cfcc8e170ba41408d9fcb27183","txTime":"2022/02/06 05:07:42","block":6847360,"epoch":319,"slotNo":52557771,"epochSlotNo":112971,"stakeKey":"stake1u8ht66j5gezxzg3scqqge5qt7mpmalv2ruxs2p730p2zszqlcm5ck"},{"txId":30210327,"txHash":"fcbdb027ebb5e14b890f4e73c82de0f2a13bd95168c97f7cb727fefd0426a480","txTime":"2022/02/06 05:05:55","block":6847352,"epoch":319,"slotNo":52557664,"epochSlotNo":112864,"stakeKey":"stake1uy6umw7xzjt6r9ler7qxxfj64hndmsg4c4zkjlsfsgecnds9f4dxv"},{"txId":30210314,"txHash":"809da463554d43770e69e453e0a012decfcdf127ab34245438229544a40adb8e","txTime":"2022/02/06 05:05:55","block":6847352,"epoch":319,"slotNo":52557664,"epochSlotNo":112864,"stakeKey":"stake1u80t4paftrscxa9k2p6hvtfgs2uugn6lk6d493t69lhq8ds08tls7"},{"txId":30210271,"txHash":"eae35e8eee96567bef9b858e9f98874f16b4c061d1b219e87934b738581c7ff3","txTime":"2022/02/06 05:05:44","block":6847350,"epoch":319,"slotNo":52557653,"epochSlotNo":112853,"stakeKey":"stake1u8njwyn9lvtt60pqj2a0wktg23030uq5705epyklfv8stss38ezc6"},{"txId":30209240,"txHash":"245876f3dd189489eb535767b0e3a21f068c7ea465dd0d7175a6587b85aa70c3","txTime":"2022/02/06 04:50:44","block":6847308,"epoch":319,"slotNo":52556753,"epochSlotNo":111953,"stakeKey":"stake1u9n64ccqnhewm2r7kwpvdhw5xl4u2d4zdepklu2s0nu5u8qs2egs5"},{"txId":30208354,"txHash":"73cbd4202d0710d6e56b1152f2311c1250a17022dbc8f1a52c4e07d598380388","txTime":"2022/02/06 04:40:43","block":6847276,"epoch":319,"slotNo":52556152,"epochSlotNo":111352,"stakeKey":"stake1uxs8vw93r23r06vmvc6k7wwtucs03vcq76ychf5jav6n73qr0x563"},{"txId":30207989,"txHash":"e2da714147cd95d9e0dd3dba86e7979c2cd52fdd2b2c7875e54c6113034de3af","txTime":"2022/02/06 04:34:36","block":6847261,"epoch":319,"slotNo":52555785,"epochSlotNo":110985,"stakeKey":"stake1uyjfndefakx0zu3h9yu9s207ywd0shzj69qsr7jjurmt9qq2km5m7"},{"txId":30207960,"txHash":"fb45181e089a0e82f54a280f4edc5a8fb426b8b61ecddc05c5c2b45073027ec9","txTime":"2022/02/06 04:33:54","block":6847260,"epoch":319,"slotNo":52555743,"epochSlotNo":110943,"stakeKey":"stake1u9e4xqldr6fr9mrdqku265t2mujufpzxhjxy0ll9rhr0xlcpzl843"},{"txId":30207538,"txHash":"b33630d97f5b80cec7b71456d807fcc054a335132930d06b884063a19da9eacd","txTime":"2022/02/06 04:29:24","block":6847242,"epoch":319,"slotNo":52555473,"epochSlotNo":110673,"stakeKey":"stake1uy3gtgc2uh3klc6krejtzm6tkwslyt3zmhgz64f0eaxmy6s37q6hu"},{"txId":30207470,"txHash":"c7e3967045ca1bab1a9cef5f95bca3de5619fae04787621b1db2256d5d0f5b1f","txTime":"2022/02/06 04:28:37","block":6847240,"epoch":319,"slotNo":52555426,"epochSlotNo":110626,"stakeKey":"stake1u9mkfsey07eycmy5pcwsa6vqumesszdc3zj976m0spxtmhsf04yvu"},{"txId":30207332,"txHash":"5e54175c3f6c070210ea475a8d27ae2e0881ccea2a355384fe59a16eb1bb9955","txTime":"2022/02/06 04:27:24","block":6847234,"epoch":319,"slotNo":52555353,"epochSlotNo":110553,"stakeKey":"stake1uyv05k30hvk9a73n3eatw8md6mzjcweczxp6k7sckp20tlc0hlm8f"},{"txId":30206786,"txHash":"e9ac23d69c82b48f44a98830b2d6b9cd4d78369074f198cb9a26100b089b938d","txTime":"2022/02/06 04:20:21","block":6847211,"epoch":319,"slotNo":52554930,"epochSlotNo":110130,"stakeKey":"stake1u8t0csx4ps3f0pdsxdumcfrx4tn95887fdppm0cgp6qyp0g3fp4xx"},{"txId":30206769,"txHash":"f563c30212b9c4438bdcfe7ba1ee7be4a4f38afad00832b42dd2d9531783b82a","txTime":"2022/02/06 04:20:21","block":6847211,"epoch":319,"slotNo":52554930,"epochSlotNo":110130,"stakeKey":"stake1u88anu8r5arvadkzw7qhka24edttx7z4ycm02p0rdh9e9tqt3ksm9"},{"txId":30206675,"txHash":"19ac054c9e80370db9c6c8665fb5917b90a9ec5a4bcd2b70c5d55cb924100acc","txTime":"2022/02/06 04:19:28","block":6847208,"epoch":319,"slotNo":52554877,"epochSlotNo":110077,"stakeKey":"stake1uxpew7546zmvrxr872c0jp6836ejxhcucksn2alfvstmgcsl8vjkh"},{"txId":30206665,"txHash":"553a00079e4993b20f417262125b61511856319244f2d1abb4d2ca780e426190","txTime":"2022/02/06 04:19:28","block":6847208,"epoch":319,"slotNo":52554877,"epochSlotNo":110077,"stakeKey":"stake1uxcxupj4sag2v6xxmm6hrl9y054e2q686fl37cxctf6qescqd4z32"},{"txId":30206467,"txHash":"ccdf8e9479144d167017915bdae7285ff43d61616fa8f9b3dc99e2929cc2c8f5","txTime":"2022/02/06 04:18:28","block":6847202,"epoch":319,"slotNo":52554817,"epochSlotNo":110017,"stakeKey":"stake1u8p5jwt8q7f7rx3465eh975jgaz0pjtxwn27uq2r4jgnvtgursf3z"},{"txId":30206460,"txHash":"df034e66480b4e48419f3f143f3b995aca7105026df962525f9492beef71ac37","txTime":"2022/02/06 04:18:28","block":6847202,"epoch":319,"slotNo":52554817,"epochSlotNo":110017,"stakeKey":"stake1u99dhuu0c223q6ek8h7ms5m97364wmyd9rlw5dm5ktk533s4kdhwk"},{"txId":30206392,"txHash":"d7495051dc04ecc921ecb49e5a7831a92a4c06b1b256ffd394f3ad6d2777e005","txTime":"2022/02/06 04:17:39","block":6847200,"epoch":319,"slotNo":52554768,"epochSlotNo":109968,"stakeKey":"stake1uyfx983fsv9cr0zwecyuqwy9nw7fvlfwevhsk44y32chv9gg65apq"}],"totalItems":213897,"totalPages":10695,"currentPage":0}