{"data":[{"no":364,"status":"SYNCING","blkCount":19691,"outSum":45052896981974319,"txCount":290088,"startTime":"2022/09/17 21:45:01","endTime":"2022/09/22 14:26:26","maxSlot":432000},{"no":363,"status":"FINISHED","blkCount":21361,"outSum":52367504905067104,"txCount":271609,"startTime":"2022/09/12 21:53:14","endTime":"2022/09/17 21:44:21","maxSlot":432000},{"no":362,"status":"FINISHED","blkCount":21266,"outSum":50709125607148052,"txCount":297134,"startTime":"2022/09/07 21:56:05","endTime":"2022/09/12 21:44:47","maxSlot":432000},{"no":361,"status":"FINISHED","blkCount":21242,"outSum":62121616150743418,"txCount":326137,"startTime":"2022/09/02 21:49:50","endTime":"2022/09/07 21:44:46","maxSlot":432000},{"no":360,"status":"FINISHED","blkCount":21226,"outSum":66982837685525805,"txCount":319465,"startTime":"2022/08/28 21:45:32","endTime":"2022/09/02 21:44:28","maxSlot":432000},{"no":359,"status":"FINISHED","blkCount":21023,"outSum":52059343025583155,"txCount":320500,"startTime":"2022/08/23 21:45:52","endTime":"2022/08/28 21:42:39","maxSlot":432000},{"no":358,"status":"FINISHED","blkCount":21169,"outSum":53530066867752145,"txCount":341618,"startTime":"2022/08/18 21:44:58","endTime":"2022/08/23 21:44:46","maxSlot":432000},{"no":357,"status":"FINISHED","blkCount":20692,"outSum":55010016772991680,"txCount":342561,"startTime":"2022/08/13 21:46:53","endTime":"2022/08/18 21:44:42","maxSlot":432000},{"no":356,"status":"FINISHED","blkCount":20782,"outSum":57510233170747507,"txCount":323867,"startTime":"2022/08/08 21:45:00","endTime":"2022/08/13 21:44:46","maxSlot":432000},{"no":355,"status":"FINISHED","blkCount":20825,"outSum":60625504814139846,"txCount":340089,"startTime":"2022/08/03 21:45:02","endTime":"2022/08/08 21:44:46","maxSlot":432000}],"totalItems":365,"totalPages":37,"currentPage":0}