{"data":[{"blockNo":8101942,"slotNo":78705918,"epochNo":379,"epochSlotNo":341118,"hash":"a2723b5b53011fb062f394ab0929ff74c4a3b42f9750898c1ee4f99209f27bba","time":"2022/12/05 20:30:09","txCount":8,"totalFees":1448948,"totalOutput":88890402351,"slotLeader":"f99151a5fd003b8bb92ba2af02ed6efec2923b520189cf89e1c264aa"},{"blockNo":8101941,"slotNo":78705900,"epochNo":379,"epochSlotNo":341100,"hash":"7ed02b3a5c3d4aa23e7332da710562d2edfcf0dd8e3c14d02344f2298a1aef54","time":"2022/12/05 20:29:51","txCount":3,"totalFees":869899,"totalOutput":1000205467,"slotLeader":"55eaf38bf6eb1c6755d67175b59f93940f09abd6792d525c55089903"},{"blockNo":8101940,"slotNo":78705895,"epochNo":379,"epochSlotNo":341095,"hash":"50f6ad06c0fbc3830f10b5448e33e373c3d72677ce11fa9ba483e147f33c87c1","time":"2022/12/05 20:29:46","txCount":9,"totalFees":4121778,"totalOutput":108736027406,"slotLeader":"126f84b8f88fd0f65de921ef521f2aa637e5e465cea06042c103fe22"},{"blockNo":8101939,"slotNo":78705886,"epochNo":379,"epochSlotNo":341086,"hash":"ecf792e56eb4f5a440f03d5685f2319c2f4f48c918f63c436c4580a95be34808","time":"2022/12/05 20:29:37","txCount":5,"totalFees":2345996,"totalOutput":26703663802,"slotLeader":"b59366e330a6db8260ad9aae8446ba8c908931d1b9cb3cca5d1d84aa"},{"blockNo":8101938,"slotNo":78705872,"epochNo":379,"epochSlotNo":341072,"hash":"026e10c20115b397e404f8f984118c7ce4e90b0c608bf626fa16ed66153536c6","time":"2022/12/05 20:29:23","txCount":0,"totalFees":0,"totalOutput":0,"slotLeader":"dda4bc64e339336e3f7bc158177df0c71dc760ff11cb8b0651b3ece4"},{"blockNo":8101937,"slotNo":78705871,"epochNo":379,"epochSlotNo":341071,"hash":"fa60f70000a9fad4c683bfff6edba35f3a1c6d53828043783303eb5d5660a2da","time":"2022/12/05 20:29:22","txCount":4,"totalFees":1821736,"totalOutput":74439166076,"slotLeader":"7d89d3f11170f5874c5b781b80864be392edcd9c8715ccce18155a8f"},{"blockNo":8101936,"slotNo":78705866,"epochNo":379,"epochSlotNo":341066,"hash":"9697e045e12a58abf08739e3a2d5886f2ea4b250c5ad5d4be79d223e1037dfc6","time":"2022/12/05 20:29:17","txCount":16,"totalFees":4601101,"totalOutput":800695728418,"slotLeader":"b44181287c72d0c7b1bce6a57173cdf739ac77d030bdfc4606138dd2"},{"blockNo":8101935,"slotNo":78705849,"epochNo":379,"epochSlotNo":341049,"hash":"3cf63aaa03f7cbcf3605bb9e2df874511997947acc91ead5f6113e84b6b30e23","time":"2022/12/05 20:29:00","txCount":1,"totalFees":345593,"totalOutput":153182409,"slotLeader":"c7e431518477a4156c2a8cd6523a6a73514e7fbbbf7eed363b9a22ad"},{"blockNo":8101934,"slotNo":78705846,"epochNo":379,"epochSlotNo":341046,"hash":"a57ec99d5bb3b5b2522a583939fb7917f1cff3be98617975d721c009fb5496df","time":"2022/12/05 20:28:57","txCount":34,"totalFees":11679927,"totalOutput":18223204577819,"slotLeader":"3d5f6d2a147cf3c97aed0d7ea973e6a95abdf94255025bdf470c9809"},{"blockNo":8101933,"slotNo":78705794,"epochNo":379,"epochSlotNo":340994,"hash":"1c77ed663fc3c9bf84108ee9227495065d41d82f9f998a7eed323014725ffeec","time":"2022/12/05 20:28:05","txCount":31,"totalFees":12992457,"totalOutput":8264724554213,"slotLeader":"a2d42d873250321acca2d7cc7a5465f9060892bdbb645b4dedb28125"},{"blockNo":8101932,"slotNo":78705768,"epochNo":379,"epochSlotNo":340968,"hash":"cb1e5787ca6d085b7dc760e9eec9e67517bb18ad6ad37f07dd18235798248e99","time":"2022/12/05 20:27:39","txCount":23,"totalFees":8903209,"totalOutput":6762907983034,"slotLeader":"827900818541013d518ee6b2af343a973c8d836884fb000742307400"},{"blockNo":8101931,"slotNo":78705741,"epochNo":379,"epochSlotNo":340941,"hash":"510a71cf57870d69fca0504b75f62d64e81f47edc6231930d28b9f7a7d7aeaea","time":"2022/12/05 20:27:12","txCount":14,"totalFees":4284078,"totalOutput":10361032891,"slotLeader":"4594f67c08f0007d1fac243169624b710375cb834bbe81f6b4d79f32"},{"blockNo":8101930,"slotNo":78705725,"epochNo":379,"epochSlotNo":340925,"hash":"cf38571e0a3204d7a832cad27189b2220f00935f57cfdb268dcbbd31d65017e2","time":"2022/12/05 20:26:56","txCount":11,"totalFees":2822556,"totalOutput":10681800379,"slotLeader":"3862e102e1440b150ccafe5d16ac68cd78ce6e46afc4fb0977fcd6bd"},{"blockNo":8101929,"slotNo":78705705,"epochNo":379,"epochSlotNo":340905,"hash":"3e14655910e75f4b5a3f874ed0f17f69323a6104104f8dd5b7a3318343c00bb2","time":"2022/12/05 20:26:36","txCount":11,"totalFees":3420619,"totalOutput":8540989583,"slotLeader":"76bfa1b2e6593740c3388ed881cbe851dbab8d8741652c9bad16cc94"},{"blockNo":8101928,"slotNo":78705693,"epochNo":379,"epochSlotNo":340893,"hash":"0f52144bcbc1f8fdf4cf7d620c3d8f7be945a1296df24eb6be6c47bfcbd540ed","time":"2022/12/05 20:26:24","txCount":20,"totalFees":7241564,"totalOutput":4112406070085,"slotLeader":"f1c96d35a89c44f6bebbdb70bbd62fb8435090cfd4899fb2fa336d34"},{"blockNo":8101927,"slotNo":78705676,"epochNo":379,"epochSlotNo":340876,"hash":"7677bffeec33b2a519d118edffad2a6fbec11e5e1263f008a74f7b3c0fb65e7d","time":"2022/12/05 20:26:07","txCount":49,"totalFees":14021382,"totalOutput":3196528355027,"slotLeader":"98a124471ceee3c944a0e4275ae20ae4bd78bfe108203043ff71a0ac"},{"blockNo":8101926,"slotNo":78705621,"epochNo":379,"epochSlotNo":340821,"hash":"06d17fd3c3118abffc41b104f49aec500d9060cf43b31b054c06eba2a7fae5a8","time":"2022/12/05 20:25:12","txCount":6,"totalFees":1953652,"totalOutput":20215572840,"slotLeader":"266a21992f779be68c1476fab8e9bf1015e7b4c428ee8c3b899f65dd"},{"blockNo":8101925,"slotNo":78705616,"epochNo":379,"epochSlotNo":340816,"hash":"fd3b8b6821df9e8edc8cd6d9aa9b8610ccbce3e836772a7b508dbecf75d70230","time":"2022/12/05 20:25:07","txCount":10,"totalFees":3981809,"totalOutput":9915610538,"slotLeader":"3d82913d4c8da690aab6af622651f7a659da40af87dcb4b3b98ce830"},{"blockNo":8101924,"slotNo":78705604,"epochNo":379,"epochSlotNo":340804,"hash":"4001d046bbff8f527b105e320f109b7e2f4936ceed603b8920de4e1842f7bb49","time":"2022/12/05 20:24:55","txCount":21,"totalFees":7293122,"totalOutput":975485184906,"slotLeader":"e6e1f4291b1e6a29c8f7818a6572bdbd50971d1c657725de72466365"},{"blockNo":8101923,"slotNo":78705577,"epochNo":379,"epochSlotNo":340777,"hash":"1c89aeb2306a4b593d4a46e4f9ad71f914f4fa209a984d241f3430811e376e30","time":"2022/12/05 20:24:28","txCount":28,"totalFees":9641601,"totalOutput":2007762210045,"slotLeader":"db827cb962df26faab4c289f72f36aeee0e42453f1c78b27ea4e22ba"}],"totalItems":8102118,"totalPages":405106,"currentPage":0}