{"data":[{"txId":29756545,"txHash":"1cd482edee38a7c3e8a1b0ff31a6ac7dd964182d2bf70b77e16f6a8ddca7d420","txTime":"2022/02/02 18:26:53","block":6833372,"epoch":318,"slotNo":52260122,"epochSlotNo":247322,"stakeKey":"stake1u9399l4c7ghlt9jgkv3n44nv02pws8ma0shxjfze5a7zh2sr8ldrm"},{"txId":29756513,"txHash":"d96d8ff426bdcb74507127721a42ec57277fb27e43332844e39f8faa0cf6e53d","txTime":"2022/02/02 18:26:53","block":6833372,"epoch":318,"slotNo":52260122,"epochSlotNo":247322,"stakeKey":"stake1u92tfexa70vp56zkzg4pm2myc0j57nqfqens3gnsf6svl2ckusqa8"},{"txId":29756511,"txHash":"013472ce4b53e4d9445499ef0d280aa7f9787de29fa2dd2632b6d423afa0129a","txTime":"2022/02/02 18:26:53","block":6833372,"epoch":318,"slotNo":52260122,"epochSlotNo":247322,"stakeKey":"stake1uynutnv66ue2fn7cdrf2grn6ce3q705k7dxjq5csa9ypq4gfcx0mm"},{"txId":29756435,"txHash":"75d3a77ab1f08725923d6fba248b4b9c68a3fafea89ba482b880559c9dab6355","txTime":"2022/02/02 18:26:25","block":6833369,"epoch":318,"slotNo":52260094,"epochSlotNo":247294,"stakeKey":"stake1ux9gmw3w2gev03vfejpsgrqtwzx6kv43mcurchg3tdr75ucavzn8h"},{"txId":29756433,"txHash":"b59c88a020438dbb1582f178df4702537b2315e3b465b64af60319e8e5d920da","txTime":"2022/02/02 18:26:25","block":6833369,"epoch":318,"slotNo":52260094,"epochSlotNo":247294,"stakeKey":"stake1ux3gkx5m757a2nedaxhxfrk2svt6zk4d0qxkgxf86nchefqmctz69"},{"txId":29756359,"txHash":"7065d1b5aea84a5263bf495820c1789b8c4c59da87a8baa9c5d8f0845b0b1430","txTime":"2022/02/02 18:26:06","block":6833368,"epoch":318,"slotNo":52260075,"epochSlotNo":247275,"stakeKey":"stake1uxhgcyg05v3ngmhc98hleddqpm2acgawz789gw73wmtpvact9455x"},{"txId":29755714,"txHash":"c97e87581d3f63840cb933519e0e92f5327ab125ea5fa9e032dc413f75d9ad95","txTime":"2022/02/02 18:17:17","block":6833350,"epoch":318,"slotNo":52259546,"epochSlotNo":246746,"stakeKey":"stake1uxz4n80z3u0rsx3sgjcu4x0zcc2a80j379jc4eeejlu70xq3q3jck"},{"txId":29755372,"txHash":"410a2955c0894059f526ad4521a53ed8c9cc2a5fb6af83cc5ed9e43672391135","txTime":"2022/02/02 18:13:17","block":6833341,"epoch":318,"slotNo":52259306,"epochSlotNo":246506,"stakeKey":"stake1u8s06caf5jypcmegfuc7w9f9c3qt792k4tlmfadd7yqz5yqwn5vq6"},{"txId":29754923,"txHash":"f0fe7c7ddbb88dd6f3772a921836ebe4dfd1add2fa6a6895572f548912b70ab7","txTime":"2022/02/02 18:08:33","block":6833329,"epoch":318,"slotNo":52259022,"epochSlotNo":246222,"stakeKey":"stake1u8qq0nhjun8uq7chp2qj5wuh2y22srgav3jt6vr9w4pe8nq2jfecy"},{"txId":29754821,"txHash":"129fe88e30f685b76ebf630af3eaed2e162a9bb152e6fcb311c2985de1941643","txTime":"2022/02/02 18:07:28","block":6833326,"epoch":318,"slotNo":52258957,"epochSlotNo":246157,"stakeKey":"stake1uxa2umnxurt5uz3cdfnzqyanpf6kcv2vp295g220w40s5dcawn873"},{"txId":29754568,"txHash":"d55b64ab577c9bf9207abc49597b41967b14321922a6127809781f64e89b2ee6","txTime":"2022/02/02 18:04:59","block":6833320,"epoch":318,"slotNo":52258808,"epochSlotNo":246008,"stakeKey":"stake1uxvvq9gshpsj2gpkjjs05z7f0u5vsc2rwztuj5tsjk83l7s03j2su"},{"txId":29754456,"txHash":"2b216127a61ed9893864ab1e9afc5bb052d2e1e4ca1012918f1c27a35b83e84d","txTime":"2022/02/02 18:01:06","block":6833315,"epoch":318,"slotNo":52258575,"epochSlotNo":245775,"stakeKey":"stake1uy6666a8hrlad48fqkxxyzyvxc5ja658aynxgttrepr6quqy73hng"},{"txId":29754441,"txHash":"121824b23357072b4dab87b513ed958b4d724592d0b639c835052d091eda6345","txTime":"2022/02/02 18:01:06","block":6833315,"epoch":318,"slotNo":52258575,"epochSlotNo":245775,"stakeKey":"stake1u9zq8vz32sdapk9njzfld2y7e4n0atley6ulqzlux5xum7qq2etc7"},{"txId":29754389,"txHash":"c9f91fb2145923a0b460ddf99be1d01fc6ddcf92cbd283f7b3b2623653f250a6","txTime":"2022/02/02 17:59:57","block":6833313,"epoch":318,"slotNo":52258506,"epochSlotNo":245706,"stakeKey":"stake1uyunepngduqlz6qxhaqkr0l0l7rxv0h38m7u94hstft75qgl3gt5j"},{"txId":29753478,"txHash":"622a3630366ce1a4dac05668469b68026aab38a28effb071a031c0b419b937a7","txTime":"2022/02/02 17:50:52","block":6833288,"epoch":318,"slotNo":52257961,"epochSlotNo":245161,"stakeKey":"stake1u9eyu9p6pqq8n36dtv2yhhe6utx83feaufxq78rmc66rn7s9gqjm6"},{"txId":29753465,"txHash":"c3ec052936b9a0c25a8f786148e12820c81564962c708ae706b48dc49f46aeac","txTime":"2022/02/02 17:50:52","block":6833288,"epoch":318,"slotNo":52257961,"epochSlotNo":245161,"stakeKey":"stake1u8jlssa90jdpdgnpphyp24qurgzf94vssf9857xz3pt65sg93h5g4"},{"txId":29753317,"txHash":"0079718b4449982650ac3b844a33a6df35dbe266c875d5c680a93c0e35bb9e2f","txTime":"2022/02/02 17:49:24","block":6833285,"epoch":318,"slotNo":52257873,"epochSlotNo":245073,"stakeKey":"stake1uy6lyp57g6lgyzf407vn9vadm8mqy292n9xmel6666q33dqk84has"},{"txId":29752928,"txHash":"a807a302a43dd6d79042166866b049c03371eb4ce423fdb986419875c6cea2d2","txTime":"2022/02/02 17:47:23","block":6833273,"epoch":318,"slotNo":52257752,"epochSlotNo":244952,"stakeKey":"stake1uy7aetscqqww549nmkhvlv3vtucey6v9qj7ryyk5phl3rvchqmjlt"},{"txId":29752782,"txHash":"b02b75b704aa16cfccc7d61f614b173866e43939174c18b8ef61b88bb50d80ee","txTime":"2022/02/02 17:45:25","block":6833268,"epoch":318,"slotNo":52257634,"epochSlotNo":244834,"stakeKey":"stake1u978zdfnu44t7cqnzslzvmlnaeu86pwg344h67u4tr98chq50k4t3"},{"txId":29752702,"txHash":"91ad301deb7ad315412184c82d3dcd66daed6e45ae2c92ecf0237aae1bf4e7fb","txTime":"2022/02/02 17:45:00","block":6833267,"epoch":318,"slotNo":52257609,"epochSlotNo":244809,"stakeKey":"stake1uyf46ljsue2mnq87p4m6pu4rk8cly5p0gh2nwm26f64h3zsvzhcfv"}],"totalItems":211936,"totalPages":10597,"currentPage":0}