{"data":[{"txId":58984055,"txHash":"9dc01edbcd0e79b65e1941fbcc8ffb95eed09efb8a89f5f03fee194aa8e6df07","txTime":"2023/01/06 04:25:12","block":8233989,"epoch":386,"slotNo":81412821,"epochSlotNo":24021,"stakeKey":"stake1u8lqfvltnhycdm6futfhh84qqwe8vuxszeavd8677he8jeq07dfkg"},{"txId":58983890,"txHash":"341e3b7fec5758fe2ee950fdd7405c8cb4ce9b839d30e08a4e8fbcb3c834b5da","txTime":"2023/01/06 04:21:58","block":8233976,"epoch":386,"slotNo":81412627,"epochSlotNo":23827,"stakeKey":"stake1u82qnv5gzfskgtvnqt3p5vv9wy9q92fpxj63h3juf2zws8g9l3n26"},{"txId":58983784,"txHash":"cc08eb4d4420abaa5996c337273d5ba32cc45af5bc6a3b241ea4b156085d63f3","txTime":"2023/01/06 04:19:50","block":8233965,"epoch":386,"slotNo":81412499,"epochSlotNo":23699,"stakeKey":"stake1uxqup49cftwmm4435rpercg5gte3knsenwzmvam83c796rccjny5x"},{"txId":58983542,"txHash":"3716786aa66c62bffaabe1f711d12d40a0296bf70c3f791cce5d84950a69655f","txTime":"2023/01/06 04:15:27","block":8233956,"epoch":386,"slotNo":81412236,"epochSlotNo":23436,"stakeKey":"stake1ux5430pp8u2qpltz94w0khn97rw77lmweuw2eqp9n70eewgknqfmr"},{"txId":58983418,"txHash":"53c3a889fa26ca621f81728414d0c83ef8915beff69dd0d948810294e2e89bcc","txTime":"2023/01/06 04:13:09","block":8233949,"epoch":386,"slotNo":81412098,"epochSlotNo":23298,"stakeKey":"stake1u8ahw9345e0g5df3k6nslvkrryvjym4cgqrxs3ha5t2tnuqtlpvsf"},{"txId":58983308,"txHash":"585d3b0c4e4356e20548f80ca704aa58662bc0221884810bd70020957ab0d945","txTime":"2023/01/06 04:11:26","block":8233945,"epoch":386,"slotNo":81411995,"epochSlotNo":23195,"stakeKey":"stake1u9guyrenxa8pep3xh4dgr9wxlmjf5uemt028m40sgsdhwscyc2uc5"},{"txId":58983152,"txHash":"0782367d4ba84856d448d80e761b8f1b63a4e90ec863103f47b37e51ea5f3b86","txTime":"2023/01/06 04:08:38","block":8233938,"epoch":386,"slotNo":81411827,"epochSlotNo":23027,"stakeKey":"stake1uxd3amfjydlm92t4nn2axp48rvx6h4qlgc4ug4at3aznpyqnh83m9"},{"txId":58983091,"txHash":"57d2ba8c26cb5e81b0a130142102d98918b0bc33b3021ea4ebc4adaeaf6653c4","txTime":"2023/01/06 04:07:45","block":8233936,"epoch":386,"slotNo":81411774,"epochSlotNo":22974,"stakeKey":"stake1uxhu84yqyguyumesadxg4zu5qpumhfvhkczawlmwe3z2hrqvzukc3"},{"txId":58983017,"txHash":"1db8800fa8e3efec4dbef147fda0126091ec73a35435ca50764dc46d17bb08fd","txTime":"2023/01/06 04:06:22","block":8233934,"epoch":386,"slotNo":81411691,"epochSlotNo":22891,"stakeKey":"stake1u93w3m5y0qme400rnmlj6a9t3wknnjynrzzeuaxq9gk4d6s7tmql0"},{"txId":58982958,"txHash":"cb0bb7adfcd541efc551bfcd9943caa8d3a663aaf932f4dc628362d1aed6cf09","txTime":"2023/01/06 04:06:12","block":8233933,"epoch":386,"slotNo":81411681,"epochSlotNo":22881,"stakeKey":"stake1u9fk27sg3z0gtytqur5yszcefe0eq90qvtyyf4adgdp54lgj3sy9f"},{"txId":58982884,"txHash":"c69ab0bce00f7bc715aedf4f4664151c024e6a3693f407809aa76ca4498abec8","txTime":"2023/01/06 04:03:33","block":8233930,"epoch":386,"slotNo":81411522,"epochSlotNo":22722,"stakeKey":"stake1u80e5yrxunxgugzwfz8dznz2drfzy7v7jn5arj6mmjjzq6gmaec5l"},{"txId":58982775,"txHash":"1e8204a2453bcf7308bd3e9c131b0887e7aa6b30806ea846497567fb41c6ec22","txTime":"2023/01/06 04:01:14","block":8233926,"epoch":386,"slotNo":81411383,"epochSlotNo":22583,"stakeKey":"stake1uxhvu3s8nhwcg3sspn3szhlnph8267wrx5tzkqhez69gd4crpklz4"},{"txId":58982693,"txHash":"f8e04cfa33a22289329cb20a8742dde7c5848fa5974f7547bbd112937e010845","txTime":"2023/01/06 03:59:36","block":8233922,"epoch":386,"slotNo":81411285,"epochSlotNo":22485,"stakeKey":"stake1uyse4prf6tyec29a3a9jr4gdmad0fntcrnk0vj7faexa89gnujs4r"},{"txId":58982657,"txHash":"133bf019c2648013267c4f0f7d216427752e414b5fa8ca7b11f1c6860252191d","txTime":"2023/01/06 03:59:04","block":8233919,"epoch":386,"slotNo":81411253,"epochSlotNo":22453,"stakeKey":"stake1uxfap55wrp553rtjz04w7lrsnlytdztszuvzkykylmwxunssf89rf"},{"txId":58982350,"txHash":"01804fc7c65b372df4e686615ab782fe2977cbfb371e90e53596259595b560fd","txTime":"2023/01/06 03:52:59","block":8233901,"epoch":386,"slotNo":81410888,"epochSlotNo":22088,"stakeKey":"stake1u9hn35kfmywrhskzzqwzg44lgw78y5ln0gpte9rgls6pmnggn389t"},{"txId":58981926,"txHash":"833c40602fe9aa44e5b5c4f7e99fdf3a929f82fbe9f93f4a4c1fc07bad8045fc","txTime":"2023/01/06 03:45:21","block":8233885,"epoch":386,"slotNo":81410430,"epochSlotNo":21630,"stakeKey":"stake1uysrn2kpq7pnmfk0lepkswqdntc5hgxsj9kxmx3ej735r7cyp82dc"},{"txId":58981897,"txHash":"3e452ad504c9134655931b23d952718e8740020b556c5a9bdb2a395217f97849","txTime":"2023/01/06 03:45:21","block":8233885,"epoch":386,"slotNo":81410430,"epochSlotNo":21630,"stakeKey":"stake1uy6s20qy2vymvgjpm8wmqat253ce3khqt36rpg4cq8dmgjged4qvz"},{"txId":58981713,"txHash":"8d5e42f738335ced9c16e2375e9400d396279a0ed63524f73315d12757b3691a","txTime":"2023/01/06 03:41:21","block":8233880,"epoch":386,"slotNo":81410190,"epochSlotNo":21390,"stakeKey":"stake1ux6a89gr3e80pp0hw5vyc35fjp88tym3tz7cffzg8etusxg754xjh"},{"txId":58981666,"txHash":"f47a369dfc24f20c85701cb9d7c91b8568bc1f1ea2159bc76f853bae21e543f0","txTime":"2023/01/06 03:40:58","block":8233879,"epoch":386,"slotNo":81410167,"epochSlotNo":21367,"stakeKey":"stake1uxqc8jth857h0ufnzemt4lnrtxpyxngd4568kd479jy946szy7nre"},{"txId":58981620,"txHash":"c7d7de729414d6bef51c292991fa017fa8c9dc602b3a3b8d1b92e13442be7d1a","txTime":"2023/01/06 03:39:42","block":8233876,"epoch":386,"slotNo":81410091,"epochSlotNo":21291,"stakeKey":"stake1u9p4xjn02a2wnj0rdkt7nk3h6lj7ep65gu6m6d6c89gdsdslsuq34"}],"totalItems":1639608,"totalPages":81981,"currentPage":0}