{"data":[{"hash":"fb588a5bdd243cac85ec280f262a116bf6a62f489db9535c4e0ff7c61739f08e","blockNo":8113968,"blockHash":"3760ab71c729c40d1b85b12d25d78b2d05e445c542be9a8a4394655a5814b0a4","epochNo":380,"epochSlotNo":155833,"slot":78952633,"time":"2022/12/08 17:02:04","addressesInput":["addr1q9u9tp9he0gh68y8qxvm9khq28da4k5n747sjjxlmp3pnpeysq7cf2stz73qd97vsk32jpjfj9v7ztvkxa5nv2ly86usr3t5ry"],"addressesOutput":["addr1qxw492psyfczqk4x5jjgf66n467ud4vqp0l52u0q65x2evfysq7cf2stz73qd97vsk32jpjfj9v7ztvkxa5nv2ly86usyffpwc","addr1qxw492psyfczqk4x5jjgf66n467ud4vqp0l52u0q65x2evfysq7cf2stz73qd97vsk32jpjfj9v7ztvkxa5nv2ly86usyffpwc","addr1qxw492psyfczqk4x5jjgf66n467ud4vqp0l52u0q65x2evfysq7cf2stz73qd97vsk32jpjfj9v7ztvkxa5nv2ly86usyffpwc","addr1qxw492psyfczqk4x5jjgf66n467ud4vqp0l52u0q65x2evfysq7cf2stz73qd97vsk32jpjfj9v7ztvkxa5nv2ly86usyffpwc"],"fee":181385,"totalOutput":498025320,"tokens":[]},{"hash":"29a5236f2fdf948b02cb30adfe2f55a21bf0ce228f9f1a800461f1a5497503d3","blockNo":8113968,"blockHash":"3760ab71c729c40d1b85b12d25d78b2d05e445c542be9a8a4394655a5814b0a4","epochNo":380,"epochSlotNo":155833,"slot":78952633,"time":"2022/12/08 17:02:04","addressesInput":["addr1qxge2eyn9wtw4ck72yzkl2fskuu4a6m57zcs0hugn537nq7m3fhyhn3ml980gqd3wgxz7he3sy2x6e59zugnlt5vmp8qv6eqp8"],"addressesOutput":["addr1vy4gjklyep5dcwetrf85rpjtrzgav9kh5wpftjkqvccjpccd6umzq","addr1qxge2eyn9wtw4ck72yzkl2fskuu4a6m57zcs0hugn537nq7m3fhyhn3ml980gqd3wgxz7he3sy2x6e59zugnlt5vmp8qv6eqp8"],"fee":167085,"totalOutput":157816277,"tokens":[]},{"hash":"b04b33ccb0523966c2f23998e9f7582d8d26dfe43f9d49e65a0fae3f98fb643b","blockNo":8113968,"blockHash":"3760ab71c729c40d1b85b12d25d78b2d05e445c542be9a8a4394655a5814b0a4","epochNo":380,"epochSlotNo":155833,"slot":78952633,"time":"2022/12/08 17:02:04","addressesInput":["addr1q9qm5xqwvlu9l257nefsqudlhyplxg9a5eme59rz08vgkqrrn0xaxd00g0wm0zw6xmgq2dpd08cua3r2dj6f45sq9aks6hqme9","addr1q9qm5xqwvlu9l257nefsqudlhyplxg9a5eme59rz08vgkqrrn0xaxd00g0wm0zw6xmgq2dpd08cua3r2dj6f45sq9aks6hqme9"],"addressesOutput":["addr1zxgx3far7qygq0k6epa0zcvcvrevmn0ypsnfsue94nsn3tvpw288a4x0xf8pxgcntelxmyclq83s0ykeehchz2wtspks905plm","addr1q9qm5xqwvlu9l257nefsqudlhyplxg9a5eme59rz08vgkqrrn0xaxd00g0wm0zw6xmgq2dpd08cua3r2dj6f45sq9aks6hqme9"],"fee":207609,"totalOutput":122148704,"tokens":[]},{"hash":"1eb3200f37de73ad63aa4e6ac52efbb1194e715d1f11e6e4b43a11a998e93ee0","blockNo":8113968,"blockHash":"3760ab71c729c40d1b85b12d25d78b2d05e445c542be9a8a4394655a5814b0a4","epochNo":380,"epochSlotNo":155833,"slot":78952633,"time":"2022/12/08 17:02:04","addressesInput":["addr1zxgx3far7qygq0k6epa0zcvcvrevmn0ypsnfsue94nsn3tvpw288a4x0xf8pxgcntelxmyclq83s0ykeehchz2wtspks905plm","addr1q84kgc5jncnz6zamh77l9ttr3y8tufyvr9r4j7rv9w0sl37msxcdn2menea5l7tj8eaq4qqzmxyjmzjffgyq2y40qumqurt0qp"],"addressesOutput":["addr1q84kgc5jncnz6zamh77l9ttr3y8tufyvr9r4j7rv9w0sl37msxcdn2menea5l7tj8eaq4qqzmxyjmzjffgyq2y40qumqurt0qp","addr1q84kgc5jncnz6zamh77l9ttr3y8tufyvr9r4j7rv9w0sl37msxcdn2menea5l7tj8eaq4qqzmxyjmzjffgyq2y40qumqurt0qp"],"fee":263852,"totalOutput":9171891,"tokens":[]},{"hash":"bf3e04ab2a242de7873dfe4d55f8189690493b5e0d544f062aed3291ec305c48","blockNo":8113968,"blockHash":"3760ab71c729c40d1b85b12d25d78b2d05e445c542be9a8a4394655a5814b0a4","epochNo":380,"epochSlotNo":155833,"slot":78952633,"time":"2022/12/08 17:02:04","addressesInput":["addr1qxpyz4m2t2l49nck0n3tapdqftrlxlrfvw45dsv93xdlundqgyxdyvgajwjf24du3tv2tzr69zea8prh8jdprxsmwvfsj07qpa","addr1qxpyz4m2t2l49nck0n3tapdqftrlxlrfvw45dsv93xdlundqgyxdyvgajwjf24du3tv2tzr69zea8prh8jdprxsmwvfsj07qpa","addr1qxpyz4m2t2l49nck0n3tapdqftrlxlrfvw45dsv93xdlundqgyxdyvgajwjf24du3tv2tzr69zea8prh8jdprxsmwvfsj07qpa","addr1qxpyz4m2t2l49nck0n3tapdqftrlxlrfvw45dsv93xdlundqgyxdyvgajwjf24du3tv2tzr69zea8prh8jdprxsmwvfsj07qpa"],"addressesOutput":["addr1q8fgjagm96jmkg77282rvppznv2c4hwl2eqqn44a43qdptljxdw2qu02ydklmaayyhn9lhms4r7exfqg9nrge4vhtqyq7avgjd","addr1qxpyz4m2t2l49nck0n3tapdqftrlxlrfvw45dsv93xdlundqgyxdyvgajwjf24du3tv2tzr69zea8prh8jdprxsmwvfsj07qpa","addr1qxpyz4m2t2l49nck0n3tapdqftrlxlrfvw45dsv93xdlundqgyxdyvgajwjf24du3tv2tzr69zea8prh8jdprxsmwvfsj07qpa"],"fee":252093,"totalOutput":492493534,"tokens":[]},{"hash":"e63f4d090223e6c556e3de63da3a1610ef85bd6974128ac48541735917e39e11","blockNo":8113968,"blockHash":"3760ab71c729c40d1b85b12d25d78b2d05e445c542be9a8a4394655a5814b0a4","epochNo":380,"epochSlotNo":155833,"slot":78952633,"time":"2022/12/08 17:02:04","addressesInput":["addr1qxkl25urdhapqldqpfdskvz39c9vsz8rtqh4yahpnddcp72pxqu8amhvprp4lycx7k8g8mkrjgctsgve70qullas0lcqa35hgv"],"addressesOutput":["addr1qypxxu5ruela30rksyh2vumdjh34qcwzyflszzjsx9k2ts6pxqu8amhvprp4lycx7k8g8mkrjgctsgve70qullas0lcqz9fnw2","addr1qyfem6cl6vwadv9f93jzh95t2wtnqkl6jp9aj3dugx5ecdprew2zlw64sztun53qvfl34rqtuyer6jwtpx2vmzns2xesnr5rma","addr1q82mdvh5d6ded8wd53hvl6df7jgv5s34vx9we7vgrnq9qvfg79la6tvt3a2e44s73x0rr6hfpw0zp897mv0w32xxclgsxkc9np","addr1qypxxu5ruela30rksyh2vumdjh34qcwzyflszzjsx9k2ts6pxqu8amhvprp4lycx7k8g8mkrjgctsgve70qullas0lcqz9fnw2"],"fee":245013,"totalOutput":469403430,"tokens":[]},{"hash":"5f9281a772bf7f3b7197fea74c6e9251a1b92c5d590264786e37a1245fb83543","blockNo":8113968,"blockHash":"3760ab71c729c40d1b85b12d25d78b2d05e445c542be9a8a4394655a5814b0a4","epochNo":380,"epochSlotNo":155833,"slot":78952633,"time":"2022/12/08 17:02:04","addressesInput":["addr1q9ehjm4gllxzwwhjqwrxc49s0sxwd0kfx2uu0mejsm20wtcyx6c8v524c9a5r2krczvslgyw05k2fmhds8vk4ee6qy8s2erclj","addr1qxsf3jqpgvs7jj4zhc7672v5lcfrx8jzfsnkq4txxvjuwxgyx6c8v524c9a5r2krczvslgyw05k2fmhds8vk4ee6qy8sz66xde","addr1q9maxnaznqux9ukfkcjsv9wg6r3qfet3uk9vm8z272ehakgyx6c8v524c9a5r2krczvslgyw05k2fmhds8vk4ee6qy8sxmktsz","addr1q8h2u0cyzjankydjt833scm03nzd0sjd5ugkjperf4gkjksyx6c8v524c9a5r2krczvslgyw05k2fmhds8vk4ee6qy8srdf2aw"],"addressesOutput":["DdzFFzCqrht5YBjvzkPRXQvgtwEXHBpH4SuyQ5FrJZ63266ZKRrEkLx5GPbvV6djDWAmiHJunDbUKqmbvgZacXk64ixCMtD9pyBA465v","addr1q9vq5h63taa3m0e00s0l9vf8tu25kmytsu40s9uamv9l63gyx6c8v524c9a5r2krczvslgyw05k2fmhds8vk4ee6qy8s827av3"],"fee":188645,"totalOutput":47211074,"tokens":[]},{"hash":"7d646bf4e274e2208a0d92eb16ba20b675737f3a8c301dc2b1e7de083968ec03","blockNo":8113968,"blockHash":"3760ab71c729c40d1b85b12d25d78b2d05e445c542be9a8a4394655a5814b0a4","epochNo":380,"epochSlotNo":155833,"slot":78952633,"time":"2022/12/08 17:02:04","addressesInput":["addr1v95sf69jcfhnmknvffwmfvlvnccatqwfjcyh0nlfc6gh5scta2yzg"],"addressesOutput":["addr1qyfgpask3jjg9kxrk7wkdajz8nk5v03txlv0py8w6epkvaqq4wwhakzlyzka3myr4hvrg383a3p5csyykqxqr4gjcszqsyemgn","addr1v9u7va2sktlnz8dp3qadpnxxlv4m03672jy6elmntlxxs7q9nnwl9"],"fee":171221,"totalOutput":50068840,"tokens":[]},{"hash":"cfa7f085bb8592401ef309582629389dcec15c5f8424de16717ce3f5f96665ea","blockNo":8113967,"blockHash":"1813aecebf25591c4a7e412ce0d8eb0921df69c5d5ea311a5d89137cf6949580","epochNo":380,"epochSlotNo":155825,"slot":78952625,"time":"2022/12/08 17:01:56","addressesInput":["addr1q8ee29yja9ddlvfc5v7jlqvhfv8nv042fpqkayhkrg4y56zcrelw4hz22jywzhjhufx6x64g4ckjnxtxvex23g0zjmcqe9uccj","addr1q8ee29yja9ddlvfc5v7jlqvhfv8nv042fpqkayhkrg4y56zcrelw4hz22jywzhjhufx6x64g4ckjnxtxvex23g0zjmcqe9uccj","addr1q8ee29yja9ddlvfc5v7jlqvhfv8nv042fpqkayhkrg4y56zcrelw4hz22jywzhjhufx6x64g4ckjnxtxvex23g0zjmcqe9uccj","addr1q8ee29yja9ddlvfc5v7jlqvhfv8nv042fpqkayhkrg4y56zcrelw4hz22jywzhjhufx6x64g4ckjnxtxvex23g0zjmcqe9uccj","addr1q8ee29yja9ddlvfc5v7jlqvhfv8nv042fpqkayhkrg4y56zcrelw4hz22jywzhjhufx6x64g4ckjnxtxvex23g0zjmcqe9uccj","addr1q8ee29yja9ddlvfc5v7jlqvhfv8nv042fpqkayhkrg4y56zcrelw4hz22jywzhjhufx6x64g4ckjnxtxvex23g0zjmcqe9uccj","addr1q8ee29yja9ddlvfc5v7jlqvhfv8nv042fpqkayhkrg4y56zcrelw4hz22jywzhjhufx6x64g4ckjnxtxvex23g0zjmcqe9uccj","addr1q8ee29yja9ddlvfc5v7jlqvhfv8nv042fpqkayhkrg4y56zcrelw4hz22jywzhjhufx6x64g4ckjnxtxvex23g0zjmcqe9uccj","addr1q8ee29yja9ddlvfc5v7jlqvhfv8nv042fpqkayhkrg4y56zcrelw4hz22jywzhjhufx6x64g4ckjnxtxvex23g0zjmcqe9uccj","addr1q8ee29yja9ddlvfc5v7jlqvhfv8nv042fpqkayhkrg4y56zcrelw4hz22jywzhjhufx6x64g4ckjnxtxvex23g0zjmcqe9uccj","addr1q8ee29yja9ddlvfc5v7jlqvhfv8nv042fpqkayhkrg4y56zcrelw4hz22jywzhjhufx6x64g4ckjnxtxvex23g0zjmcqe9uccj","addr1q8ee29yja9ddlvfc5v7jlqvhfv8nv042fpqkayhkrg4y56zcrelw4hz22jywzhjhufx6x64g4ckjnxtxvex23g0zjmcqe9uccj"],"addressesOutput":["addr1q8ee29yja9ddlvfc5v7jlqvhfv8nv042fpqkayhkrg4y56zcrelw4hz22jywzhjhufx6x64g4ckjnxtxvex23g0zjmcqe9uccj","addr1qy6d7k4awzc4eamlf72q29yra7lk0xc3d0gl2r0a6zlxr2n5cr2sgkkd49ujlhhrr5lj3fj66djnm9398fq0jwfns9ksq86rre","addr1q8ff0pdlaud0dxw84p0ypqc4c74t27c5s29x3azjaf0u6h3g79la6tvt3a2e44s73x0rr6hfpw0zp897mv0w32xxclgs9dn9zj","addr1q8ee29yja9ddlvfc5v7jlqvhfv8nv042fpqkayhkrg4y56zcrelw4hz22jywzhjhufx6x64g4ckjnxtxvex23g0zjmcqe9uccj","addr1q8ee29yja9ddlvfc5v7jlqvhfv8nv042fpqkayhkrg4y56zcrelw4hz22jywzhjhufx6x64g4ckjnxtxvex23g0zjmcqe9uccj"],"fee":611533,"totalOutput":210397356,"tokens":[]},{"hash":"25c5bf0a3155284ccb0ae5463755e379942b75516157b73e63dd97818a81769b","blockNo":8113967,"blockHash":"1813aecebf25591c4a7e412ce0d8eb0921df69c5d5ea311a5d89137cf6949580","epochNo":380,"epochSlotNo":155825,"slot":78952625,"time":"2022/12/08 17:01:56","addressesInput":["addr1q9aktmm7k4ztlu5hxkqlsa94krq4frxgdr8mqyveassqvu8wcxlf5yvtadgrj323sr9j4se7u2hdrmeuxhwudja9zgyqvh73vt"],"addressesOutput":["addr1q9aktmm7k4ztlu5hxkqlsa94krq4frxgdr8mqyveassqvu8wcxlf5yvtadgrj323sr9j4se7u2hdrmeuxhwudja9zgyqvh73vt"],"fee":397100,"totalOutput":86529394,"tokens":[]},{"hash":"b43818f89097a82f8b3bb5070c437d5bf8007cfb67be3efad419466c1a306dea","blockNo":8113967,"blockHash":"1813aecebf25591c4a7e412ce0d8eb0921df69c5d5ea311a5d89137cf6949580","epochNo":380,"epochSlotNo":155825,"slot":78952625,"time":"2022/12/08 17:01:56","addressesInput":["addr1q8emddg38ct20zxe36f6a7myxf69jw7r599h424mxzcrrt6r4e3njq3423k40ahfkjqpms00tsn02fhxet7l83hmewzs80p94m","addr1zxgx3far7qygq0k6epa0zcvcvrevmn0ypsnfsue94nsn3tvpw288a4x0xf8pxgcntelxmyclq83s0ykeehchz2wtspks905plm"],"addressesOutput":["addr1zxgx3far7qygq0k6epa0zcvcvrevmn0ypsnfsue94nsn3tvpw288a4x0xf8pxgcntelxmyclq83s0ykeehchz2wtspks905plm","addr1q8emddg38ct20zxe36f6a7myxf69jw7r599h424mxzcrrt6r4e3njq3423k40ahfkjqpms00tsn02fhxet7l83hmewzs80p94m"],"fee":297222,"totalOutput":150458685,"tokens":[]},{"hash":"241be07955ddecf01919692c5cf6881623be331cb3e3f63657b1c82b2a943400","blockNo":8113967,"blockHash":"1813aecebf25591c4a7e412ce0d8eb0921df69c5d5ea311a5d89137cf6949580","epochNo":380,"epochSlotNo":155825,"slot":78952625,"time":"2022/12/08 17:01:56","addressesInput":["addr1q96qdwvqagu0ufqch8rc66fsgrdugyxk0y6krrcnmdnnjpgfv7n8tkn22cn42tf6dp63mwppa2e6kkr8fypn5h92h34qu87key","addr1q96qdwvqagu0ufqch8rc66fsgrdugyxk0y6krrcnmdnnjpgfv7n8tkn22cn42tf6dp63mwppa2e6kkr8fypn5h92h34qu87key"],"addressesOutput":["addr1q96qdwvqagu0ufqch8rc66fsgrdugyxk0y6krrcnmdnnjpgfv7n8tkn22cn42tf6dp63mwppa2e6kkr8fypn5h92h34qu87key","addr1qyfem6cl6vwadv9f93jzh95t2wtnqkl6jp9aj3dugx5ecdprew2zlw64sztun53qvfl34rqtuyer6jwtpx2vmzns2xesnr5rma","addr1q82mdvh5d6ded8wd53hvl6df7jgv5s34vx9we7vgrnq9qvfg79la6tvt3a2e44s73x0rr6hfpw0zp897mv0w32xxclgsxkc9np","addr1q96qdwvqagu0ufqch8rc66fsgrdugyxk0y6krrcnmdnnjpgfv7n8tkn22cn42tf6dp63mwppa2e6kkr8fypn5h92h34qu87key"],"fee":278981,"totalOutput":293531720,"tokens":[]},{"hash":"191e74fcacc246b12126050db3d5e2977d6e505e1a5b8e8c0edca7f0db955c54","blockNo":8113967,"blockHash":"1813aecebf25591c4a7e412ce0d8eb0921df69c5d5ea311a5d89137cf6949580","epochNo":380,"epochSlotNo":155825,"slot":78952625,"time":"2022/12/08 17:01:56","addressesInput":["addr1q9mn2hjw84nykqzu2vgphu4tc4udtzmhv62uanuexmezh2qlt9vkzfjs896a60qxfplvln6v7f8tcaw6arxr24vvmarq28cnh3","addr1q9mn2hjw84nykqzu2vgphu4tc4udtzmhv62uanuexmezh2qlt9vkzfjs896a60qxfplvln6v7f8tcaw6arxr24vvmarq28cnh3"],"addressesOutput":["addr1v8hg4wreleldf7rtkxqlntlkrud7yfyk5s80gxcwt5xxfvcq5na2g","addr1q9mn2hjw84nykqzu2vgphu4tc4udtzmhv62uanuexmezh2qlt9vkzfjs896a60qxfplvln6v7f8tcaw6arxr24vvmarq28cnh3"],"fee":168669,"totalOutput":1721017777,"tokens":[]},{"hash":"748f3afc3ecae8b40745a2dc7afe91b54c3871a64ad0e5d39b6611426dfb08aa","blockNo":8113967,"blockHash":"1813aecebf25591c4a7e412ce0d8eb0921df69c5d5ea311a5d89137cf6949580","epochNo":380,"epochSlotNo":155825,"slot":78952625,"time":"2022/12/08 17:01:56","addressesInput":["addr1q9gu3lmj306jrg7w7mm89satjlk7an55qrra3m249vjd84tm509aye69x3gjy3r3wp0uxhqauy7d8sk8zsg0aevs3cxqpefghm"],"addressesOutput":["addr1q87k9zrel8zsqpqhue55u7356gch8a4wp7xfpg5et2nn3q72h8y4gwedd2z2nx6544nalel0zd0g0kel44c96xy3vxvqwq22c9","addr1qxfeea9t4eepfk3ag97mwvkmmd0a8ywws3e8qjcccf2egwrm509aye69x3gjy3r3wp0uxhqauy7d8sk8zsg0aevs3cxqqp2g2c"],"fee":170165,"totalOutput":18116889,"tokens":[]},{"hash":"737f81dbb33cb4c996a7ac757c13bed16caaca1e563cefe63b48f9af9f50d977","blockNo":8113967,"blockHash":"1813aecebf25591c4a7e412ce0d8eb0921df69c5d5ea311a5d89137cf6949580","epochNo":380,"epochSlotNo":155825,"slot":78952625,"time":"2022/12/08 17:01:56","addressesInput":["addr1q8uq2sh0mflsuy70ka2dd7u9vg2gruxpgmqtgl8rzcppxpxukvpda2crdhn6c85hamh43tuwfqw5fre52445fqu3qm8s4juwn0","addr1q8uq2sh0mflsuy70ka2dd7u9vg2gruxpgmqtgl8rzcppxpxukvpda2crdhn6c85hamh43tuwfqw5fre52445fqu3qm8s4juwn0"],"addressesOutput":["addr1zxgx3far7qygq0k6epa0zcvcvrevmn0ypsnfsue94nsn3tvpw288a4x0xf8pxgcntelxmyclq83s0ykeehchz2wtspks905plm","addr1q8uq2sh0mflsuy70ka2dd7u9vg2gruxpgmqtgl8rzcppxpxukvpda2crdhn6c85hamh43tuwfqw5fre52445fqu3qm8s4juwn0"],"fee":207125,"totalOutput":6272067,"tokens":[]},{"hash":"0bfbbecaee151dd941e863ecd519bdee60f429bd0509634dffe5e01014bbf196","blockNo":8113967,"blockHash":"1813aecebf25591c4a7e412ce0d8eb0921df69c5d5ea311a5d89137cf6949580","epochNo":380,"epochSlotNo":155825,"slot":78952625,"time":"2022/12/08 17:01:56","addressesInput":["addr1q8d5k95g8erad36dk5sjjysydtlp2fmew8e7tt3v4cmmdd6ga2jyh82saw8fyktfe75uy5nljkpndvgcc6h89p698vaqs86ql9","addr1q8d5k95g8erad36dk5sjjysydtlp2fmew8e7tt3v4cmmdd6ga2jyh82saw8fyktfe75uy5nljkpndvgcc6h89p698vaqs86ql9"],"addressesOutput":["addr1qxs2mu7hram7autzpxrjdl5hywjmnx62fe4z5xuqqyrxpxp2f4hvnq4vthlmlg66cs9lgkkcf635s4u83lgg64uymhrsmhetg3","addr1q8d5k95g8erad36dk5sjjysydtlp2fmew8e7tt3v4cmmdd6ga2jyh82saw8fyktfe75uy5nljkpndvgcc6h89p698vaqs86ql9","addr1q8d5k95g8erad36dk5sjjysydtlp2fmew8e7tt3v4cmmdd6ga2jyh82saw8fyktfe75uy5nljkpndvgcc6h89p698vaqs86ql9"],"fee":174389,"totalOutput":18891320,"tokens":[]},{"hash":"245eb8d68d6014caef40e79614e254eb102185da215658fba6b90ec9e1fe10f0","blockNo":8113967,"blockHash":"1813aecebf25591c4a7e412ce0d8eb0921df69c5d5ea311a5d89137cf6949580","epochNo":380,"epochSlotNo":155825,"slot":78952625,"time":"2022/12/08 17:01:56","addressesInput":["addr1qxeet5w4eg6rq0tnhszmxh9qu2x02sz3pjqp640t9r4du0wkuw8ukw2jkphqqq38hrndz7fcz5slmwxk8jhvyw5d5jnsjnmel9","addr1zxgx3far7qygq0k6epa0zcvcvrevmn0ypsnfsue94nsn3tvpw288a4x0xf8pxgcntelxmyclq83s0ykeehchz2wtspks905plm","addr1qxeet5w4eg6rq0tnhszmxh9qu2x02sz3pjqp640t9r4du0wkuw8ukw2jkphqqq38hrndz7fcz5slmwxk8jhvyw5d5jnsjnmel9","addr1qxeet5w4eg6rq0tnhszmxh9qu2x02sz3pjqp640t9r4du0wkuw8ukw2jkphqqq38hrndz7fcz5slmwxk8jhvyw5d5jnsjnmel9"],"addressesOutput":["addr1qxeet5w4eg6rq0tnhszmxh9qu2x02sz3pjqp640t9r4du0wkuw8ukw2jkphqqq38hrndz7fcz5slmwxk8jhvyw5d5jnsjnmel9","addr1qxeet5w4eg6rq0tnhszmxh9qu2x02sz3pjqp640t9r4du0wkuw8ukw2jkphqqq38hrndz7fcz5slmwxk8jhvyw5d5jnsjnmel9","addr1qxeet5w4eg6rq0tnhszmxh9qu2x02sz3pjqp640t9r4du0wkuw8ukw2jkphqqq38hrndz7fcz5slmwxk8jhvyw5d5jnsjnmel9"],"fee":283690,"totalOutput":501431439,"tokens":[]},{"hash":"6a586ea9d3848e55a78c8d2651527cab098ae8e8f3b477b45890170e34dd5d86","blockNo":8113967,"blockHash":"1813aecebf25591c4a7e412ce0d8eb0921df69c5d5ea311a5d89137cf6949580","epochNo":380,"epochSlotNo":155825,"slot":78952625,"time":"2022/12/08 17:01:56","addressesInput":["addr1qyyne6qz5ue4ghlnpc25auesk36peqzum0gnm8ql2qz4lw66z4gejhhpnewc85kmxmhlgtepc43k4560exuua29vjhhqcwuzua","addr1qyyne6qz5ue4ghlnpc25auesk36peqzum0gnm8ql2qz4lw66z4gejhhpnewc85kmxmhlgtepc43k4560exuua29vjhhqcwuzua"],"addressesOutput":["addr1q884yn50yd2yar3jyh0stpgdneae43upfwkjfvwp9266y2mwla4ty03v7p7nyrqj7xxmsjvhg4fhpe0p0pesrngfahpqlk762c","addr1qyyne6qz5ue4ghlnpc25auesk36peqzum0gnm8ql2qz4lw66z4gejhhpnewc85kmxmhlgtepc43k4560exuua29vjhhqcwuzua","addr1qyyne6qz5ue4ghlnpc25auesk36peqzum0gnm8ql2qz4lw66z4gejhhpnewc85kmxmhlgtepc43k4560exuua29vjhhqcwuzua","addr1qyyne6qz5ue4ghlnpc25auesk36peqzum0gnm8ql2qz4lw66z4gejhhpnewc85kmxmhlgtepc43k4560exuua29vjhhqcwuzua","addr1qyyne6qz5ue4ghlnpc25auesk36peqzum0gnm8ql2qz4lw66z4gejhhpnewc85kmxmhlgtepc43k4560exuua29vjhhqcwuzua"],"fee":180417,"totalOutput":144553050,"tokens":[]},{"hash":"59f77bcc54b6757c7a731e989b56ae390de273fee2644bac11795834d0db0e52","blockNo":8113967,"blockHash":"1813aecebf25591c4a7e412ce0d8eb0921df69c5d5ea311a5d89137cf6949580","epochNo":380,"epochSlotNo":155825,"slot":78952625,"time":"2022/12/08 17:01:56","addressesInput":["addr1q8evp8ewsw6t9h5y58g89r65rmg6wy0zzgclg6m7hrnefmp9mrjh3903rpvtjgh9080a5n89jzytkrpqd35tdsscetqswl3sez"],"addressesOutput":["addr1wxn9efv2f6w82hagxqtn62ju4m293tqvw0uhmdl64ch8uwc0h43gt","addr1q8evp8ewsw6t9h5y58g89r65rmg6wy0zzgclg6m7hrnefmp9mrjh3903rpvtjgh9080a5n89jzytkrpqd35tdsscetqswl3sez","addr1q8evp8ewsw6t9h5y58g89r65rmg6wy0zzgclg6m7hrnefmp9mrjh3903rpvtjgh9080a5n89jzytkrpqd35tdsscetqswl3sez"],"fee":186269,"totalOutput":1080893051,"tokens":[]},{"hash":"de31395bd8fe6dce6d95ff74d2002158515a69a9df0306295b36f10e2ff2fd12","blockNo":8113967,"blockHash":"1813aecebf25591c4a7e412ce0d8eb0921df69c5d5ea311a5d89137cf6949580","epochNo":380,"epochSlotNo":155825,"slot":78952625,"time":"2022/12/08 17:01:56","addressesInput":["addr1q8pa7cuy83p8pulcjqnkehzfk5fxa8s5mw6j9akkf3893635p4cdk0evk9asug69gzfqfmrr2nvaj9p66s7ghj95z9ws8an92e","addr1zxgx3far7qygq0k6epa0zcvcvrevmn0ypsnfsue94nsn3tvpw288a4x0xf8pxgcntelxmyclq83s0ykeehchz2wtspks905plm"],"addressesOutput":["addr1zxgx3far7qygq0k6epa0zcvcvrevmn0ypsnfsue94nsn3tvpw288a4x0xf8pxgcntelxmyclq83s0ykeehchz2wtspks905plm","addr1q8pa7cuy83p8pulcjqnkehzfk5fxa8s5mw6j9akkf3893635p4cdk0evk9asug69gzfqfmrr2nvaj9p66s7ghj95z9ws8an92e"],"fee":297222,"totalOutput":46383112,"tokens":[]}],"totalItems":56268981,"totalPages":2813450,"currentPage":0}