{"data":[{"no":377,"status":"SYNCING","blkCount":13996,"outSum":63164614511235700,"txCount":284847,"startTime":"2022/11/21 21:50:06","endTime":"2022/11/25 05:36:37","maxSlot":432000},{"no":376,"status":"FINISHED","blkCount":20525,"outSum":66095389145226043,"txCount":394766,"startTime":"2022/11/16 21:46:42","endTime":"2022/11/21 21:44:19","maxSlot":432000},{"no":375,"status":"FINISHED","blkCount":20731,"outSum":88897116679395604,"txCount":367258,"startTime":"2022/11/11 21:48:29","endTime":"2022/11/16 21:44:38","maxSlot":432000},{"no":374,"status":"FINISHED","blkCount":20881,"outSum":75810590162751187,"txCount":363881,"startTime":"2022/11/06 21:44:51","endTime":"2022/11/11 21:44:47","maxSlot":432000},{"no":373,"status":"FINISHED","blkCount":21095,"outSum":49607685362391189,"txCount":417406,"startTime":"2022/11/01 21:44:51","endTime":"2022/11/06 21:44:46","maxSlot":432000},{"no":372,"status":"FINISHED","blkCount":21095,"outSum":51207060825725877,"txCount":428636,"startTime":"2022/10/27 21:44:55","endTime":"2022/11/01 21:44:35","maxSlot":432000},{"no":371,"status":"FINISHED","blkCount":20982,"outSum":50348309722095867,"txCount":482453,"startTime":"2022/10/22 21:46:23","endTime":"2022/10/27 21:44:30","maxSlot":432000},{"no":370,"status":"FINISHED","blkCount":21170,"outSum":48437550491049565,"txCount":457692,"startTime":"2022/10/17 21:48:28","endTime":"2022/10/22 21:44:24","maxSlot":432000},{"no":369,"status":"FINISHED","blkCount":21048,"outSum":53997777806675189,"txCount":385470,"startTime":"2022/10/12 21:45:08","endTime":"2022/10/17 21:44:34","maxSlot":432000},{"no":368,"status":"FINISHED","blkCount":21103,"outSum":38563980412393616,"txCount":324010,"startTime":"2022/10/07 21:45:45","endTime":"2022/10/12 21:44:36","maxSlot":432000}],"totalItems":378,"totalPages":38,"currentPage":0}