{"data":[{"txId":57334092,"txHash":"107ebfbb0c05ddb48b71adc382f94b7d95598b20ed13bdeab32f40e4ece46580","txTime":"2022/12/14 09:32:38","block":8138017,"epoch":381,"slotNo":79444067,"epochSlotNo":215267,"stakeKey":"stake1u8h83cj4pe87yefpgx0vlrr4ku8zvuphjnyze630g3pmxuszr7a0x"},{"txId":57334065,"txHash":"a44f6037eb5081b7c0eaab9b3a53e02e08e25ca9e0fd679396e6287fc7ee3062","txTime":"2022/12/14 09:31:31","block":8138014,"epoch":381,"slotNo":79444000,"epochSlotNo":215200,"stakeKey":"stake1uyf3yzqh83hcktxaf79ks4sgnym0r8nwxplaus8mcvhprggklw6uj"},{"txId":57333961,"txHash":"79c5f7b5d9fb54418326e63252733b5c7a4be39d7c468ff8a7e28f36d23e3d5f","txTime":"2022/12/14 09:28:12","block":8138005,"epoch":381,"slotNo":79443801,"epochSlotNo":215001,"stakeKey":"stake1uykavrsmgk7hzvkzst83pv586n2e3e7navkx765se43gyrq6qx3hs"},{"txId":57333949,"txHash":"e1ba738975a4091d12672349b530ef482994ed48f2cad67d66d2579f5187496f","txTime":"2022/12/14 09:27:46","block":8138002,"epoch":381,"slotNo":79443775,"epochSlotNo":214975,"stakeKey":"stake1u9uyl8zvcgvqqvgteuudmf6fq8c3z5ldxthvfg2c964gqdc37rvfy"},{"txId":57333918,"txHash":"9c6856b19a2fe215d3dfa7b87bb70db3a19d333f4056f1059173fb7039eb6df7","txTime":"2022/12/14 09:26:30","block":8138000,"epoch":381,"slotNo":79443699,"epochSlotNo":214899,"stakeKey":"stake1u8exa3sktdhan37t3ru47994lwswg5djsapf5svn50aejmcrnzukh"},{"txId":57333842,"txHash":"022c95f43801b655d86279e808f36a4dd0f0504ec8390e3656c45555d1aeba06","txTime":"2022/12/14 09:23:36","block":8137993,"epoch":381,"slotNo":79443525,"epochSlotNo":214725,"stakeKey":"stake1uyjz5mzkgs0s0pqly37mufy7z6zgzydcav79gj7rrwhgxsceszex6"},{"txId":57333814,"txHash":"6f0d4170c29531420ba9b1c0912604328c5aa44613237534fd02cf2dfd9cfc21","txTime":"2022/12/14 09:22:59","block":8137991,"epoch":381,"slotNo":79443488,"epochSlotNo":214688,"stakeKey":"stake1u95wkskhaclmw5rzdpudaj2p3k4vvd3upy9n7r5trruc9hs7gnuzx"},{"txId":57333801,"txHash":"d2ae1563fda9e908aeb5f427e0624c6c44c29d027ab9fc02901c7595b8e5206f","txTime":"2022/12/14 09:22:36","block":8137988,"epoch":381,"slotNo":79443465,"epochSlotNo":214665,"stakeKey":"stake1u8tkptd3yd2cfulf8zzk20xwt0s50avflfdl6akq7mg8a2sxd79c5"},{"txId":57333749,"txHash":"46228753029e9b6f6ddb95f46b4a3e2648e981a5fec5a78dad44c21af697930f","txTime":"2022/12/14 09:20:40","block":8137978,"epoch":381,"slotNo":79443349,"epochSlotNo":214549,"stakeKey":"stake1uxjx4juyj0paw96r22nd2xherx7g0h55udt454838ajky7gm8pk3g"},{"txId":57333538,"txHash":"932680cf7470927d53e31f06a199ff9e687853a763c481083efba588db961e1d","txTime":"2022/12/14 09:14:15","block":8137967,"epoch":381,"slotNo":79442964,"epochSlotNo":214164,"stakeKey":"stake1uxtymhzlzhlqtppze9yw4n73lgshkpvufu95m66wvnupecs90p8cw"},{"txId":57333517,"txHash":"5929464bc3f5683571c37d8ec2aca9c2ead97d21cdd908aa98c151386d5aed08","txTime":"2022/12/14 09:13:31","block":8137966,"epoch":381,"slotNo":79442920,"epochSlotNo":214120,"stakeKey":"stake1u9thmzz5ywcaqx74nx45az0e52r9zaqdujq7c0md8w8j0yglq05ry"},{"txId":57333452,"txHash":"9271730e864c0ff131903b9518f0253e1ea71f721f1948618e455a555486dcef","txTime":"2022/12/14 09:11:12","block":8137954,"epoch":381,"slotNo":79442781,"epochSlotNo":213981,"stakeKey":"stake1u8ucdatch7gsdcyunsjtykzynl8hu9tdfdv2cylxyuysjgc4mjttc"},{"txId":57333391,"txHash":"bcaef1e2c3906eb9b0046d16006a6ce5d52dd2b6e44d31677f1e3af44d912db2","txTime":"2022/12/14 09:09:12","block":8137949,"epoch":381,"slotNo":79442661,"epochSlotNo":213861,"stakeKey":"stake1ux2cwdrk0tza2t25mjxjmj9p40suaryuvtpets9sh3vz42qxym3r2"},{"txId":57333328,"txHash":"6d1aea02f2cf558b450c0ec6d4f2db2fb9c7bc343b5d3b2b4e529f237be3c921","txTime":"2022/12/14 09:07:49","block":8137945,"epoch":381,"slotNo":79442578,"epochSlotNo":213778,"stakeKey":"stake1uyu7f9ac25adnq06arcrvwke6xlw2avvyykn7pp482tqhcssmsc3n"},{"txId":57333150,"txHash":"5c22289c1896f8baa017d862d86ec22110f8b01d4f90a19c15af417d3ba6184a","txTime":"2022/12/14 09:01:34","block":8137929,"epoch":381,"slotNo":79442203,"epochSlotNo":213403,"stakeKey":"stake1uxrahjss6zr0f547pvp43wuqgyt3swdj9fv5qvdm58esq4sydhwmu"},{"txId":57333075,"txHash":"8ca2eed5f84f9c5ad4b4203a867276f91380ed8d4a2ff0ea4c27f46282bca41c","txTime":"2022/12/14 08:58:27","block":8137917,"epoch":381,"slotNo":79442016,"epochSlotNo":213216,"stakeKey":"stake1u860vhmulvhxht2tjc83xdq840236v0z48e55fs0v7q689cyyhen5"},{"txId":57332928,"txHash":"4f75c8cde670d8febd203e999f79a993ca0734694da7a70f11cbebe950305eaf","txTime":"2022/12/14 08:53:44","block":8137905,"epoch":381,"slotNo":79441733,"epochSlotNo":212933,"stakeKey":"stake1uxde6lfsnq42whs3gghw4dpy3st943wul8vfd456mgd8xmsfmjqe5"},{"txId":57332919,"txHash":"c451232512e02cc3289c891506a7b98d3b6e57b39718ccbf965970bf71da8d0c","txTime":"2022/12/14 08:53:44","block":8137905,"epoch":381,"slotNo":79441733,"epochSlotNo":212933,"stakeKey":"stake1uyv02tepz0m2agfjrtsher72r7tv0q8gn9e30urff3hae2q2gvc35"},{"txId":57332722,"txHash":"53822113c28a4679d5f282446c6868a7ae9f16046660ce3f4ee42968f63b2fd1","txTime":"2022/12/14 08:47:10","block":8137890,"epoch":381,"slotNo":79441339,"epochSlotNo":212539,"stakeKey":"stake1u9d0d2ne4qtc03w9nsf2ffyywjgqdhpqhhjx9rcxh4y4vzgs5fll7"},{"txId":57332694,"txHash":"026786d6c981c99f4bb30af7cf7575250a15911948690f5c079996fe8b54f782","txTime":"2022/12/14 08:46:40","block":8137888,"epoch":381,"slotNo":79441309,"epochSlotNo":212509,"stakeKey":"stake1uyayagh6st89dydqtf0hehnpkymrsnmp8krn30cs3x7xzqc3ew6xg"}],"totalItems":1621398,"totalPages":81070,"currentPage":0}