{"data":[{"blockNo":6725264,"slotNo":49958819,"epochNo":313,"epochSlotNo":106019,"hash":"c68ef9c302b776d5bfed6ca64b604e5496dae94d1e9d0d4602bea8b4bda4951c","time":"2022/01/07 03:11:50","txCount":32,"totalFees":11489842,"totalOutput":456421600441,"slotLeader":"6184f6e7229530a2d1f9f746112406100e2696dd7439ff8c52750700"},{"blockNo":6725263,"slotNo":49958808,"epochNo":313,"epochSlotNo":106008,"hash":"10216863f42af2be13733153be7c0733406731e4b033dfe57142480747192f8f","time":"2022/01/07 03:11:39","txCount":53,"totalFees":15889297,"totalOutput":329545054802,"slotLeader":"79c4d4fe108f480fee98f307adac12571df2959651f833b595141cd1"},{"blockNo":6725262,"slotNo":49958791,"epochNo":313,"epochSlotNo":105991,"hash":"a45185489878fab31d08be1d5b9e9aaffab784e55c1c8fb5a5a8b269924eef00","time":"2022/01/07 03:11:22","txCount":49,"totalFees":13480792,"totalOutput":1624116660730,"slotLeader":"6b51a5aae5b4b5f07f38acf12816b4f8a558ee2840d0dba69040aeb2"},{"blockNo":6725261,"slotNo":49958719,"epochNo":313,"epochSlotNo":105919,"hash":"35138b9683dc17ceada09b34ec197fac30a831edb4d7ec1074849e0396938365","time":"2022/01/07 03:10:10","txCount":31,"totalFees":6575303,"totalOutput":224114735358,"slotLeader":"00beef8710427e328a29555283c74b202b40bec9a62630a9f03b1e18"},{"blockNo":6725260,"slotNo":49958695,"epochNo":313,"epochSlotNo":105895,"hash":"132943ca7f2436c013f09e8af6f2019519cb92f0fd4792089dd69965be4346ab","time":"2022/01/07 03:09:46","txCount":36,"totalFees":10571145,"totalOutput":57226033819,"slotLeader":"4ef0c287cc67a951bb0f0eb8d56d1bf69939bd007a2681dbc3055ef6"},{"blockNo":6725259,"slotNo":49958680,"epochNo":313,"epochSlotNo":105880,"hash":"1233a466d14db428ea85cb601df5e3357f2ca2640b2dee2e694db3d59cf366ab","time":"2022/01/07 03:09:31","txCount":44,"totalFees":13295304,"totalOutput":270426240488,"slotLeader":"d785ff6a030ae9d521770c00f264a2aa423e928c85fc620b13d46eda"},{"blockNo":6725258,"slotNo":49958648,"epochNo":313,"epochSlotNo":105848,"hash":"358fa3d9e73c82e2e075b2603a4ea92c5c83484a70bfa955bcc1b4dcff6d5c86","time":"2022/01/07 03:08:59","txCount":51,"totalFees":14953761,"totalOutput":292857513724,"slotLeader":"6371c7935c90ddb9b2bca3e5ae04d69711ec1bc28749393116c6d44c"},{"blockNo":6725257,"slotNo":49958633,"epochNo":313,"epochSlotNo":105833,"hash":"a64a5cbb94757d25dd22c9c990fc089ee6647ac142cfbae1e54cf8cfc2aa2957","time":"2022/01/07 03:08:44","txCount":40,"totalFees":14295305,"totalOutput":50062418014,"slotLeader":"a07f6d16fc809cbd6c3dd8bb8e3fdc9e874e1cacba480a359b3f2252"},{"blockNo":6725256,"slotNo":49958598,"epochNo":313,"epochSlotNo":105798,"hash":"39407a240ed607426eb824145917fdc24cb08e9f213ac8c919dee99c0f360efb","time":"2022/01/07 03:08:09","txCount":72,"totalFees":17583374,"totalOutput":1197594064772,"slotLeader":"9b9890b811d67ba9e69810581e4fc119ca0c2354adb7cd6ff564b0a3"},{"blockNo":6725255,"slotNo":49958584,"epochNo":313,"epochSlotNo":105784,"hash":"3b7f6b0ff5e2a285076656685c37f35d6eb72bb92c62313963b7fbd757a65ade","time":"2022/01/07 03:07:55","txCount":64,"totalFees":15560987,"totalOutput":459815186093,"slotLeader":"2f09336a66c36d0df40dc42f2454fe4f4311c23d312e3683be434081"},{"blockNo":6725254,"slotNo":49958512,"epochNo":313,"epochSlotNo":105712,"hash":"c9cf211b29267cdb57f126bc83996c0d237908eb6ff99dff885f2e9cd4d37505","time":"2022/01/07 03:06:43","txCount":25,"totalFees":4944851,"totalOutput":54150060177,"slotLeader":"abacadaba9f12a8b5382fc370e4e7e69421fb59831bb4ecca3a11d9b"},{"blockNo":6725253,"slotNo":49958500,"epochNo":313,"epochSlotNo":105700,"hash":"b95392c5d11351b2379106e13f4ba426f66b29b3acbc61fa6afa724425fc9e2a","time":"2022/01/07 03:06:31","txCount":14,"totalFees":3715341,"totalOutput":9608549403,"slotLeader":"e0bfd78fd14b0336186ff6ca79a45f3619102b5bb484f7e0124dfdc0"},{"blockNo":6725252,"slotNo":49958495,"epochNo":313,"epochSlotNo":105695,"hash":"733f6c6cb34f8cf907946ee6296885dd12268db6233ea2966d98323839f7952e","time":"2022/01/07 03:06:26","txCount":3,"totalFees":1467647,"totalOutput":647126717,"slotLeader":"6b51a5aae5b4b5f07f38acf12816b4f8a558ee2840d0dba69040aeb2"},{"blockNo":6725251,"slotNo":49958492,"epochNo":313,"epochSlotNo":105692,"hash":"3150907871f52815dabe09498bb402c5a95d8b83878e16e1fc6c5446c8ff0bf1","time":"2022/01/07 03:06:23","txCount":48,"totalFees":11421876,"totalOutput":138182626611,"slotLeader":"00000aedaa1a5abf500cbc4c5c23761a2dff570bc4a299983c893f8e"},{"blockNo":6725250,"slotNo":49958475,"epochNo":313,"epochSlotNo":105675,"hash":"1adcf8a4e7d41da9298a6a41f3a60296059639d8342d1160cb9df05f3563d058","time":"2022/01/07 03:06:06","txCount":42,"totalFees":13224158,"totalOutput":42914914837,"slotLeader":"2fc479904f9482d1b573977a3af26bb5577545014521eee513f54ef1"},{"blockNo":6725249,"slotNo":49958449,"epochNo":313,"epochSlotNo":105649,"hash":"445e4a6d503f53c688e176fa7186216506f19912ae78e328e17fdad332894d08","time":"2022/01/07 03:05:40","txCount":46,"totalFees":12765295,"totalOutput":554125193909,"slotLeader":"3116c834a09b0060aef7284f63d3275456364e3309b3c19ec328af60"},{"blockNo":6725248,"slotNo":49958421,"epochNo":313,"epochSlotNo":105621,"hash":"3fbd15f20850dc99f6a960213bb73611f17d216ba96061446d91d7dcb5ccc90d","time":"2022/01/07 03:05:12","txCount":46,"totalFees":14273818,"totalOutput":128484466907,"slotLeader":"28cf6c6c01ecbfbd5e807fd879132f07b2c6f0712b930442a229d380"},{"blockNo":6725247,"slotNo":49958402,"epochNo":313,"epochSlotNo":105602,"hash":"f56e66a18489b3e6507bd75cb63839430c98bc83f7cfe2dcf36284ec4d72187c","time":"2022/01/07 03:04:53","txCount":65,"totalFees":16823389,"totalOutput":778102791410,"slotLeader":"c51e4e6cb25065ad0740249c66eafa11e186120602aff1cdca53110a"},{"blockNo":6725246,"slotNo":49958364,"epochNo":313,"epochSlotNo":105564,"hash":"6c3bf6f71a2567e07cc08adac29742b8d5cf934c90425c686991e8cda7232d8c","time":"2022/01/07 03:04:15","txCount":31,"totalFees":12100445,"totalOutput":51392810067,"slotLeader":"03fbee96b84daa1bf91c44b51d2e1cbdda53fd504c98aeb6fd4a55b6"},{"blockNo":6725245,"slotNo":49958350,"epochNo":313,"epochSlotNo":105550,"hash":"7aa52559f3d03286be1a7cfe25ef0f0e46111fef605a41ac7201205abb547488","time":"2022/01/07 03:04:01","txCount":63,"totalFees":14806146,"totalOutput":800805311419,"slotLeader":"f4762ca1dce3c32c0d7a7e6d9f8a54bf40338e99ae5f3ad0172c9a2f"}],"totalItems":6725440,"totalPages":336272,"currentPage":0}