{"data":[{"blockNo":8096431,"slotNo":78592171,"epochNo":379,"epochSlotNo":227371,"hash":"5da881cdfe1cabb01fe1f4ab7b315ef0e146455cfce746b9071d11aa13779c77","time":"2022/12/04 12:54:22","txCount":4,"totalFees":910550,"totalOutput":621092943,"slotLeader":"699c814b5a0f3bf2d35b9b0adcfed9fa0fe891881a9ad3c15e2edf73"},{"blockNo":8096430,"slotNo":78592160,"epochNo":379,"epochSlotNo":227360,"hash":"8b3d7e2be3a7ae289141b9d7ace68805d864cc52acd5fd15b15e97c153a91247","time":"2022/12/04 12:54:11","txCount":26,"totalFees":7003551,"totalOutput":476527859376,"slotLeader":"3200ed8ab323773d4d1a64333a0d79b93dc8f3a45c37f88141e34317"},{"blockNo":8096429,"slotNo":78592119,"epochNo":379,"epochSlotNo":227319,"hash":"acd2b6ef602ac2faf9742f0fcd350ddbf70d542400e76d917ec1a5be39e92615","time":"2022/12/04 12:53:30","txCount":25,"totalFees":9604442,"totalOutput":135396794025,"slotLeader":"53215c471b7ac752e3ddf8f2c4c1e6ed111857bfaa675d5e31ce8bce"},{"blockNo":8096428,"slotNo":78592070,"epochNo":379,"epochSlotNo":227270,"hash":"831b6920c8ea33591d8b565810f3ba8ab1a343f5b5f0d259c16a758bc1f8bd92","time":"2022/12/04 12:52:41","txCount":33,"totalFees":9902951,"totalOutput":335370917811,"slotLeader":"e455088c9164ae075f0300bc1a7234c30433556c6b88d4301a06cfe5"},{"blockNo":8096427,"slotNo":78592012,"epochNo":379,"epochSlotNo":227212,"hash":"5248dd7a5c573d1157a45eda730180ab4c537e3b72e563bab9789b738ce635b9","time":"2022/12/04 12:51:43","txCount":5,"totalFees":1132960,"totalOutput":260182018,"slotLeader":"3d2294baebe5bbeaa920af59e8461068582bb6c17522bbc7308e8567"},{"blockNo":8096426,"slotNo":78592003,"epochNo":379,"epochSlotNo":227203,"hash":"6c6b16af7a247d85d7ceb1c4a9b20ec30e903ec047c6d6f2dcef7b87525b92b2","time":"2022/12/04 12:51:34","txCount":1,"totalFees":296840,"totalOutput":33656780,"slotLeader":"cf2b0acb72eecb56a05ba6b79922d4b47fedfb93b168a2eb1e5fa260"},{"blockNo":8096425,"slotNo":78591996,"epochNo":379,"epochSlotNo":227196,"hash":"46509c3c848a0acd69a87dab0e7dee0c1c4149be58bc60e1249b070021c90c6e","time":"2022/12/04 12:51:27","txCount":8,"totalFees":3622496,"totalOutput":19676860414464,"slotLeader":"b40683f4baad755ff60f26dc73c3e371ac4c5e422feef2fc1f5f29bf"},{"blockNo":8096424,"slotNo":78591983,"epochNo":379,"epochSlotNo":227183,"hash":"28b98328758ade527a19242237e8ee87bcabe87c26cf623da2a043036d1a413b","time":"2022/12/04 12:51:14","txCount":7,"totalFees":2223354,"totalOutput":70167825447,"slotLeader":"a9807616077f17a66dc12c562bfc8dbc1a0b9ad1c96591fd56ffafb5"},{"blockNo":8096423,"slotNo":78591977,"epochNo":379,"epochSlotNo":227177,"hash":"34e840768eb2e7c2bdda0bfa6dfc8196d5d1dc3f896cee85935b3f4503dbcafd","time":"2022/12/04 12:51:08","txCount":3,"totalFees":2089427,"totalOutput":117946826,"slotLeader":"07c30535c3781afef83200ebee872e4abe0aa8cc7c448ccd68730bb8"},{"blockNo":8096422,"slotNo":78591972,"epochNo":379,"epochSlotNo":227172,"hash":"d49b4da279be7aa91e07a2493b6bbfcd15ce36b58126ca461826ea310c05897f","time":"2022/12/04 12:51:03","txCount":7,"totalFees":3553058,"totalOutput":188756181234,"slotLeader":"00beef0a9be2f6d897ed24a613cf547bb20cd282a04edfc53d477114"}],"totalItems":11056,"totalPages":1106,"currentPage":0}