{"data":[{"blockNo":8262033,"slotNo":81990631,"epochNo":387,"epochSlotNo":169831,"hash":"f2842439cc5eb03a8743b2d0ebf8dc5a3ccd7cb85282f9faa82958e4dba70a45","time":"2023/01/12 20:55:22","txCount":39,"totalFees":11848479,"totalOutput":1084533832702,"slotLeader":"266a21992f779be68c1476fab8e9bf1015e7b4c428ee8c3b899f65dd"},{"blockNo":8262032,"slotNo":81990627,"epochNo":387,"epochSlotNo":169827,"hash":"63bc1b21b91b7e0ec2581470979e92fa5f197a8f45a43ba0d164f17b54f2c0cf","time":"2023/01/12 20:55:18","txCount":48,"totalFees":13697638,"totalOutput":27442560186453,"slotLeader":"d918835729aaab9d4dca82c60079a6c643d65141f909730ecfeb3aef"},{"blockNo":8262031,"slotNo":81990545,"epochNo":387,"epochSlotNo":169745,"hash":"63327fee7772e04f481ac8594d1f708ebd7bf020980372446f9ba3af4d870642","time":"2023/01/12 20:53:56","txCount":12,"totalFees":4177871,"totalOutput":5159746562,"slotLeader":"5eb362978a68a4780f4fd701b8f04f5aeb990eb80b1cb025d99e82a1"},{"blockNo":8262030,"slotNo":81990541,"epochNo":387,"epochSlotNo":169741,"hash":"72891afc27c35ed779986ec5c09119ccae6f698dd8c50cb6d5761e52782339b7","time":"2023/01/12 20:53:52","txCount":44,"totalFees":12929539,"totalOutput":1217311796458,"slotLeader":"24cc639f00790ec41c830464376b21df8602f4e7a1591ac005f8a44f"},{"blockNo":8262029,"slotNo":81990520,"epochNo":387,"epochSlotNo":169720,"hash":"f33179819dd87bb42c117609f47d8ec1ced51342669bff8110220ea457f56fb2","time":"2023/01/12 20:53:31","txCount":47,"totalFees":15596851,"totalOutput":330865175315,"slotLeader":"4511bcca3896bcb6d43b66fb89fe079f00f44bed505c9ca232704dc9"},{"blockNo":8262028,"slotNo":81990433,"epochNo":387,"epochSlotNo":169633,"hash":"0b1007691df361fc1506b16abfa2403e6dbc320ca235936a068ca419712f9c1e","time":"2023/01/12 20:52:04","txCount":34,"totalFees":9960863,"totalOutput":365180641805,"slotLeader":"e7b605b72af41d6e8e6894274dedd18114f1759fea500b6d07031535"},{"blockNo":8262027,"slotNo":81990399,"epochNo":387,"epochSlotNo":169599,"hash":"d5a3c1d5070ce5e7d66ada04787db655745d58f0a228d6d8d429b6064a20ee3e","time":"2023/01/12 20:51:30","txCount":3,"totalFees":1060772,"totalOutput":1714196119,"slotLeader":"2bf5a031b46b34c07937a769ff6f82b6a78a25c71022eaaf1f20eec9"},{"blockNo":8262026,"slotNo":81990390,"epochNo":387,"epochSlotNo":169590,"hash":"0b643187c20aac596bf7b29dde679e0995473ff379c75bda99053f6a6d7dfc4b","time":"2023/01/12 20:51:21","txCount":18,"totalFees":5707864,"totalOutput":2242949183225,"slotLeader":"c1cadab46b74defa9f79b59b617fe2a50bdbce6b367e472b6109a7bc"},{"blockNo":8262025,"slotNo":81990375,"epochNo":387,"epochSlotNo":169575,"hash":"9fae163c7301911940d0bc290dce54b9c4dead711f0f929e1073848ea16ab33f","time":"2023/01/12 20:51:06","txCount":22,"totalFees":6387546,"totalOutput":278439660810,"slotLeader":"8f67312cb7927075292fcc986927c986ccdd630a3bae1b52dd4671a4"},{"blockNo":8262024,"slotNo":81990348,"epochNo":387,"epochSlotNo":169548,"hash":"3a07daf14902ac62d418abf2f5f2d18762e98703cdb4c0e50c7287ae7dc522bd","time":"2023/01/12 20:50:39","txCount":23,"totalFees":6383691,"totalOutput":57076012018,"slotLeader":"0001a003afb844ce6d9409fc49e049db654a78dc77f1151cb6cd548f"},{"blockNo":8262023,"slotNo":81990335,"epochNo":387,"epochSlotNo":169535,"hash":"28410ef32f11c093fc8ee7b4e4a06fbc424c245d0d3fa74fbecf47d191d8a56b","time":"2023/01/12 20:50:26","txCount":22,"totalFees":7692439,"totalOutput":1446932912129,"slotLeader":"00beef68425d90f50c8e2102476a0f42ec850836e9affd601ecf7804"},{"blockNo":8262022,"slotNo":81990316,"epochNo":387,"epochSlotNo":169516,"hash":"c984751a08c3b5a74b98641e5f4759a6a183f3115c0ba5f168d1ad15d161779b","time":"2023/01/12 20:50:07","txCount":8,"totalFees":2645724,"totalOutput":13797389144,"slotLeader":"849cdde779a0a0faaa4276dac342f762bd6c84d6cbf637a92a20bb88"},{"blockNo":8262021,"slotNo":81990310,"epochNo":387,"epochSlotNo":169510,"hash":"660ab63f6da23e8d01d2172423762c78fcad3f8a430b925a10c585a118f67526","time":"2023/01/12 20:50:01","txCount":18,"totalFees":5362976,"totalOutput":34009452314,"slotLeader":"213ccec05701bd77a8613e48f09ea42504c50d5d709ad16339ef0638"},{"blockNo":8262020,"slotNo":81990295,"epochNo":387,"epochSlotNo":169495,"hash":"16843a05cfe5ec18f61dccf8c81868d3aa962107ba63d2daafa95783e41fd6dc","time":"2023/01/12 20:49:46","txCount":21,"totalFees":6933055,"totalOutput":160353806852,"slotLeader":"04c60c78417132a195cbb74975346462410f72612952a7c4ade7e438"},{"blockNo":8262019,"slotNo":81990275,"epochNo":387,"epochSlotNo":169475,"hash":"6c9dcad64acbf4f5ad443945bdc3fca3e9630b4c9b1c876002d12dbca0a5d70e","time":"2023/01/12 20:49:26","txCount":1,"totalFees":197381,"totalOutput":8437488353,"slotLeader":"6c907940885e39f6440a034665cc26481ef885a6c33ee50589e041e9"},{"blockNo":8262018,"slotNo":81990274,"epochNo":387,"epochSlotNo":169474,"hash":"9fd6cf5bba5bbbc94351c295423b242993915d313570d1fe79cef19a3371f4d5","time":"2023/01/12 20:49:25","txCount":14,"totalFees":7447970,"totalOutput":23543780737384,"slotLeader":"b2817f8c6ecf0e9ce1b5b9ab79a95f63df31b623934d2d3783e9bdbf"},{"blockNo":8262017,"slotNo":81990269,"epochNo":387,"epochSlotNo":169469,"hash":"d4f7fbb2885d69060ac05d5690cc1a4e6095917a65a476a548bff3ba4512adb2","time":"2023/01/12 20:49:20","txCount":43,"totalFees":13898491,"totalOutput":803230505221,"slotLeader":"3b3327c0a885ba7c1ebeec8b44158aab79c32148d45b4c701344cd97"},{"blockNo":8262016,"slotNo":81990221,"epochNo":387,"epochSlotNo":169421,"hash":"399c500ede8903214a685d2559d85d64180edbc4689fc95df719401773488140","time":"2023/01/12 20:48:32","txCount":8,"totalFees":2142557,"totalOutput":2143574478,"slotLeader":"30f9a4c529f89d60ad1bd1c33c0e13c20b347fec7cac794c557efcee"},{"blockNo":8262015,"slotNo":81990214,"epochNo":387,"epochSlotNo":169414,"hash":"07dc359c2bebb2606f949f467e6ece3de4768ecc5a87fab44242894c9476efe3","time":"2023/01/12 20:48:25","txCount":20,"totalFees":6808970,"totalOutput":554791842353,"slotLeader":"71efddeabf5dd8211853a5ed30548391ccb54fa3b55e5828db9afee6"},{"blockNo":8262014,"slotNo":81990194,"epochNo":387,"epochSlotNo":169394,"hash":"ac63e5f278237196a71daba29df21dffa22ffb4048e2439616af4711e54e5dbe","time":"2023/01/12 20:48:05","txCount":6,"totalFees":1316119,"totalOutput":5002740006,"slotLeader":"7e3a1ed8f2085923debacc6866aefaba941edd638ff0886061ebf521"}],"totalItems":8262209,"totalPages":413111,"currentPage":0}