{"data":[{"blockNo":8297589,"slotNo":82718694,"epochNo":389,"epochSlotNo":33894,"hash":"c2b80fe0fb2a6dd24ace4e516a1dc9fecfecf720794a958c3b6207098ff5f9cf","time":"2023/01/21 07:09:45","txCount":19,"totalFees":7467890,"totalOutput":24979518325578,"slotLeader":"c83beb18d532234c72a304ab935982be670c22e771b227a3febc3a82"},{"blockNo":8297588,"slotNo":82718673,"epochNo":389,"epochSlotNo":33873,"hash":"66008599fcbdeea9b74230b5a58e4429c1a1e4a6015f1ab7f6d612314acf93d1","time":"2023/01/21 07:09:24","txCount":1,"totalFees":179317,"totalOutput":1839820683,"slotLeader":"43bf2e2c7601bd6dfb38564fc2c48f5b1a773fdb4095dee412f52e50"},{"blockNo":8297587,"slotNo":82718669,"epochNo":389,"epochSlotNo":33869,"hash":"e5be95b38b1df96c47a782a53e194c58a887f05d83a8c11db68ba41c79be2545","time":"2023/01/21 07:09:20","txCount":5,"totalFees":983837,"totalOutput":78772413762,"slotLeader":"7d45120fc9e82f8b69d886057d80630b721e8f033cb8e3f26621d7bd"},{"blockNo":8297586,"slotNo":82718657,"epochNo":389,"epochSlotNo":33857,"hash":"b038db4e203f41f03ffda8c0e2e4d0d82a438ad6e1915704f5f30bd291c317f7","time":"2023/01/21 07:09:08","txCount":11,"totalFees":2576650,"totalOutput":43474086176,"slotLeader":"7d45120fc9e82f8b69d886057d80630b721e8f033cb8e3f26621d7bd"},{"blockNo":8297585,"slotNo":82718642,"epochNo":389,"epochSlotNo":33842,"hash":"4985ff7896390e6ea94a3baf09106f226eef49f9e353535e87d8e49b5128801c","time":"2023/01/21 07:08:53","txCount":3,"totalFees":788247,"totalOutput":8505150331,"slotLeader":"483b0d11a79c52d088f93e8a0930999c1bb17f2b04b26c7167d9bb0e"},{"blockNo":8297584,"slotNo":82718635,"epochNo":389,"epochSlotNo":33835,"hash":"22d0143011ed2c9f2318b1f71c6c2f31df6bf05a8902069239abd7bc2692e425","time":"2023/01/21 07:08:46","txCount":2,"totalFees":1045286,"totalOutput":2113626728,"slotLeader":"699c814b5a0f3bf2d35b9b0adcfed9fa0fe891881a9ad3c15e2edf73"},{"blockNo":8297583,"slotNo":82718631,"epochNo":389,"epochSlotNo":33831,"hash":"ba07db1cb85616a97993e7edf385043111571ed1086047c44dc18d2d7776a438","time":"2023/01/21 07:08:42","txCount":19,"totalFees":6286531,"totalOutput":3539197234220,"slotLeader":"34ae2462f0fab1866281947a022d85bddf29f45a8b9699baabbbfcb9"},{"blockNo":8297582,"slotNo":82718602,"epochNo":389,"epochSlotNo":33802,"hash":"ea9d5f88cb0188794657fba55f543bafb8ba34b9c57ecf7fbbd285a9ff2cff74","time":"2023/01/21 07:08:13","txCount":8,"totalFees":3375035,"totalOutput":1315557547843,"slotLeader":"397f04eb0ae0497d8c4d691844c8c6b026bc942e3f406f26b8e24f48"},{"blockNo":8297581,"slotNo":82718592,"epochNo":389,"epochSlotNo":33792,"hash":"c6e1804113446dcf19b27204d62d0f4088ad4e31b036944f71377e58b45b9dfc","time":"2023/01/21 07:08:03","txCount":3,"totalFees":1254179,"totalOutput":6842771424,"slotLeader":"7e53c234d29f6037c5e5f82dfdc8a6edf816cc406d0a3a3412cdeab7"},{"blockNo":8297580,"slotNo":82718587,"epochNo":389,"epochSlotNo":33787,"hash":"f72ccfe48333cc6154891c9c8a4641d1e355ccbc8357950852b1a3136eade2eb","time":"2023/01/21 07:07:58","txCount":5,"totalFees":1368460,"totalOutput":31738767700,"slotLeader":"ec3308cedfbe904927d51f9a0d9cb93492da29e22e32900f85a15d8c"}],"totalItems":1593,"totalPages":160,"currentPage":0}