{"data":[{"hash":"375c0d82fc72b9a27d2562dd29acbed700ee8c0db02c3431ddcbfbe3318121fb","blockNo":8430752,"blockHash":"e4002876fa9060a37403147ac16ef3fc32bb34377454a2eb35eb2bfe95c88264","epochNo":395,"epochSlotNo":210728,"slot":85487528,"time":"2023/02/22 08:16:59","addressesInput":["addr1qyh3t9rl8jeuahy52kc9rsvujuzw30zupulepfchpz4mpjqtqcprzs0tk353fwxf54wzph8ks4cnfwl5xak8zm0j6ulssl6wc0","addr1qyh3t9rl8jeuahy52kc9rsvujuzw30zupulepfchpz4mpjqtqcprzs0tk353fwxf54wzph8ks4cnfwl5xak8zm0j6ulssl6wc0"],"addressesOutput":["addr1w9tl479qmqnz0gl0heu6gh74wc80ee090v05arp6vhzkdjsaz2xd9","addr1qyh3t9rl8jeuahy52kc9rsvujuzw30zupulepfchpz4mpjqtqcprzs0tk353fwxf54wzph8ks4cnfwl5xak8zm0j6ulssl6wc0","addr1qyh3t9rl8jeuahy52kc9rsvujuzw30zupulepfchpz4mpjqtqcprzs0tk353fwxf54wzph8ks4cnfwl5xak8zm0j6ulssl6wc0"],"fee":338245,"totalOutput":116597174,"tokens":[]},{"hash":"574d10e1447a4e0a191479d80b571336c8d9731e14edba41771dfb547a385c56","blockNo":8430751,"blockHash":"9e1306480c898c0f2165d1d10ab1f4f64aa6da7293815d0e4aff7169248a7dcf","epochNo":395,"epochSlotNo":210720,"slot":85487520,"time":"2023/02/22 08:16:51","addressesInput":["addr1z8snz7c4974vzdpxu65ruphl3zjdvtxw8strf2c2tmqnxz2j2c79gy9l76sdg0xwhd7r0c0kna0tycz4y5s6mlenh8pq0xmsha","addr1qyht4ja0zcn45qvyx477qlyp6j5ftu5ng0prt9608dxp6l2j2c79gy9l76sdg0xwhd7r0c0kna0tycz4y5s6mlenh8pq4jxtdy","addr1wxn9efv2f6w82hagxqtn62ju4m293tqvw0uhmdl64ch8uwc0h43gt","addr1qyht4ja0zcn45qvyx477qlyp6j5ftu5ng0prt9608dxp6l2j2c79gy9l76sdg0xwhd7r0c0kna0tycz4y5s6mlenh8pq4jxtdy"],"addressesOutput":["addr1qyht4ja0zcn45qvyx477qlyp6j5ftu5ng0prt9608dxp6l2j2c79gy9l76sdg0xwhd7r0c0kna0tycz4y5s6mlenh8pq4jxtdy","addr1qyht4ja0zcn45qvyx477qlyp6j5ftu5ng0prt9608dxp6l2j2c79gy9l76sdg0xwhd7r0c0kna0tycz4y5s6mlenh8pq4jxtdy","addr1qyngqts62vxxdr33rhglpq5axz0nl95stf763v328v05nx0hlkgqvzhaj5wfcmajf8u3dmug33rtvys35g03rggrs52qmddkp6","addr1z8snz7c4974vzdpxu65ruphl3zjdvtxw8strf2c2tmqnxz2j2c79gy9l76sdg0xwhd7r0c0kna0tycz4y5s6mlenh8pq0xmsha"],"fee":945885,"totalOutput":23013722280175,"tokens":[]},{"hash":"3c67699d9b38ae01446b1674e1753761e64e9b59e837e0f0ee6dc88070bbfca2","blockNo":8430751,"blockHash":"9e1306480c898c0f2165d1d10ab1f4f64aa6da7293815d0e4aff7169248a7dcf","epochNo":395,"epochSlotNo":210720,"slot":85487520,"time":"2023/02/22 08:16:51","addressesInput":["addr1qyht4ja0zcn45qvyx477qlyp6j5ftu5ng0prt9608dxp6l2j2c79gy9l76sdg0xwhd7r0c0kna0tycz4y5s6mlenh8pq4jxtdy","addr1qyht4ja0zcn45qvyx477qlyp6j5ftu5ng0prt9608dxp6l2j2c79gy9l76sdg0xwhd7r0c0kna0tycz4y5s6mlenh8pq4jxtdy","addr1wxn9efv2f6w82hagxqtn62ju4m293tqvw0uhmdl64ch8uwc0h43gt","addr1z8snz7c4974vzdpxu65ruphl3zjdvtxw8strf2c2tmqnxz2j2c79gy9l76sdg0xwhd7r0c0kna0tycz4y5s6mlenh8pq0xmsha"],"addressesOutput":["addr1qyht4ja0zcn45qvyx477qlyp6j5ftu5ng0prt9608dxp6l2j2c79gy9l76sdg0xwhd7r0c0kna0tycz4y5s6mlenh8pq4jxtdy","addr1qyht4ja0zcn45qvyx477qlyp6j5ftu5ng0prt9608dxp6l2j2c79gy9l76sdg0xwhd7r0c0kna0tycz4y5s6mlenh8pq4jxtdy","addr1q8xactrqtpv4evam7tc66tltf25yl4jsw259smssr3nekjn82kgnysswxsjvlpnemrxlfdqp9pyc6wxj06qyy73a4phsx9cydv","addr1z8snz7c4974vzdpxu65ruphl3zjdvtxw8strf2c2tmqnxz2j2c79gy9l76sdg0xwhd7r0c0kna0tycz4y5s6mlenh8pq0xmsha"],"fee":945061,"totalOutput":2236172905766,"tokens":[]},{"hash":"839851d34a6b5371757e317070be08a6140e8f06b982893fa6f48881736bd254","blockNo":8430751,"blockHash":"9e1306480c898c0f2165d1d10ab1f4f64aa6da7293815d0e4aff7169248a7dcf","epochNo":395,"epochSlotNo":210720,"slot":85487520,"time":"2023/02/22 08:16:51","addressesInput":["addr1qyht4ja0zcn45qvyx477qlyp6j5ftu5ng0prt9608dxp6l2j2c79gy9l76sdg0xwhd7r0c0kna0tycz4y5s6mlenh8pq4jxtdy","addr1wxn9efv2f6w82hagxqtn62ju4m293tqvw0uhmdl64ch8uwc0h43gt","addr1z8snz7c4974vzdpxu65ruphl3zjdvtxw8strf2c2tmqnxz2j2c79gy9l76sdg0xwhd7r0c0kna0tycz4y5s6mlenh8pq0xmsha","addr1qyht4ja0zcn45qvyx477qlyp6j5ftu5ng0prt9608dxp6l2j2c79gy9l76sdg0xwhd7r0c0kna0tycz4y5s6mlenh8pq4jxtdy"],"addressesOutput":["addr1qyht4ja0zcn45qvyx477qlyp6j5ftu5ng0prt9608dxp6l2j2c79gy9l76sdg0xwhd7r0c0kna0tycz4y5s6mlenh8pq4jxtdy","addr1qyht4ja0zcn45qvyx477qlyp6j5ftu5ng0prt9608dxp6l2j2c79gy9l76sdg0xwhd7r0c0kna0tycz4y5s6mlenh8pq4jxtdy","addr1q9z8cxfnu2vwxgvt5tzvgsuw3x3jz879g220scv77drtlnkeyug4469t42zn3ej4rs23z7wrscgv22zq4g4xy489uk5s05fjmv","addr1z8snz7c4974vzdpxu65ruphl3zjdvtxw8strf2c2tmqnxz2j2c79gy9l76sdg0xwhd7r0c0kna0tycz4y5s6mlenh8pq0xmsha"],"fee":972958,"totalOutput":23013721226112,"tokens":[]},{"hash":"407903a2c34a027b858bf7d005241ae5eeea74bc4ada778b4f9f05cc91933ff9","blockNo":8430751,"blockHash":"9e1306480c898c0f2165d1d10ab1f4f64aa6da7293815d0e4aff7169248a7dcf","epochNo":395,"epochSlotNo":210720,"slot":85487520,"time":"2023/02/22 08:16:51","addressesInput":["addr1q9jtgknewlez3ug4yycdv9vyenyv4za0p4fvyyssv0f5xp8rsj8cyk6cl3xvw8gps3g8767ldhda8fuzp45mtjsrmlfqvuay0d","addr1zxgx3far7qygq0k6epa0zcvcvrevmn0ypsnfsue94nsn3tvpw288a4x0xf8pxgcntelxmyclq83s0ykeehchz2wtspks905plm"],"addressesOutput":["addr1zxgx3far7qygq0k6epa0zcvcvrevmn0ypsnfsue94nsn3tvpw288a4x0xf8pxgcntelxmyclq83s0ykeehchz2wtspks905plm","addr1q9jtgknewlez3ug4yycdv9vyenyv4za0p4fvyyssv0f5xp8rsj8cyk6cl3xvw8gps3g8767ldhda8fuzp45mtjsrmlfqvuay0d"],"fee":315436,"totalOutput":114821714,"tokens":[]},{"hash":"a33331bb57f7d8eb38a909fd639578c2b906066ba5999f29f9fe8af5739ddefd","blockNo":8430751,"blockHash":"9e1306480c898c0f2165d1d10ab1f4f64aa6da7293815d0e4aff7169248a7dcf","epochNo":395,"epochSlotNo":210720,"slot":85487520,"time":"2023/02/22 08:16:51","addressesInput":["addr1qyx7u469a3spaqtc8weczgcp2du9vmfytr46jwt3ffkkd9p998x020gdefv4qj6cadwf8ay3a5zwm38xw0laypp3rlxqa0c6wq","addr1qyx7u469a3spaqtc8weczgcp2du9vmfytr46jwt3ffkkd9p998x020gdefv4qj6cadwf8ay3a5zwm38xw0laypp3rlxqa0c6wq","addr1qyx7u469a3spaqtc8weczgcp2du9vmfytr46jwt3ffkkd9p998x020gdefv4qj6cadwf8ay3a5zwm38xw0laypp3rlxqa0c6wq"],"addressesOutput":["addr1q8s8wytkp5an5e6p4flcd2f4s4cqlc75w2qnfr5dk0lxjmsghgaq68qxmxpfgcxnyv8wchd8fn84eajqms3qyjq5wd4se4lh2m","addr1qyx7u469a3spaqtc8weczgcp2du9vmfytr46jwt3ffkkd9p998x020gdefv4qj6cadwf8ay3a5zwm38xw0laypp3rlxqa0c6wq"],"fee":174257,"totalOutput":25195976,"tokens":[]},{"hash":"c254416ce7befdd26c02611e26f2ca4e1f46f1313f0db1581c3f259f7e09ec4d","blockNo":8430750,"blockHash":"76526636062105e0c748a592d38c72162bae0660e2c03a69907a537bef652ca5","epochNo":395,"epochSlotNo":210712,"slot":85487512,"time":"2023/02/22 08:16:43","addressesInput":["addr1q8pzzvcjgq36jjzwpdf4x6c6qkdlpu7ryek4p0elg6plgml4q6pl9evk0r5t8gwwk4cz0s855wwj8ayravkuh3mtcyss2xcet9","addr1zxgx3far7qygq0k6epa0zcvcvrevmn0ypsnfsue94nsn3tvpw288a4x0xf8pxgcntelxmyclq83s0ykeehchz2wtspks905plm"],"addressesOutput":["addr1zxgx3far7qygq0k6epa0zcvcvrevmn0ypsnfsue94nsn3tvpw288a4x0xf8pxgcntelxmyclq83s0ykeehchz2wtspks905plm","addr1q8pzzvcjgq36jjzwpdf4x6c6qkdlpu7ryek4p0elg6plgml4q6pl9evk0r5t8gwwk4cz0s855wwj8ayravkuh3mtcyss2xcet9"],"fee":316034,"totalOutput":126744236,"tokens":[]},{"hash":"c14b5635a2f14137d39a13f5c87ceea924caf60d42de6e055df7f08e121f515f","blockNo":8430750,"blockHash":"76526636062105e0c748a592d38c72162bae0660e2c03a69907a537bef652ca5","epochNo":395,"epochSlotNo":210712,"slot":85487512,"time":"2023/02/22 08:16:43","addressesInput":["addr1q8fzdxwyxjvmzfw49lcxpt7e2hnvxmnkqty0cryrez5lt35cpj3hdwynyxdk5tzpx0r69m28te5wq8mpqwnd8fjqmzms85yx8s","addr1qx2vlu3tutpvdpfh9dsytxqfd86qtd9mv4twtsdwdx709svcpj3hdwynyxdk5tzpx0r69m28te5wq8mpqwnd8fjqmzmsa72kgx"],"addressesOutput":["addr1wxr2a8htmzuhj39y2gq7ftkpxv98y2g67tg8zezthgq4jkg0a4ul4","addr1q8fzdxwyxjvmzfw49lcxpt7e2hnvxmnkqty0cryrez5lt35cpj3hdwynyxdk5tzpx0r69m28te5wq8mpqwnd8fjqmzms85yx8s"],"fee":192561,"totalOutput":74156180,"tokens":[]},{"hash":"c207e2204302f7760ff46360a99caff5e4d64b71971e0dcb31bceb0cce4cf59b","blockNo":8430750,"blockHash":"76526636062105e0c748a592d38c72162bae0660e2c03a69907a537bef652ca5","epochNo":395,"epochSlotNo":210712,"slot":85487512,"time":"2023/02/22 08:16:43","addressesInput":["addr1qxrgcfsqqaf69wq4rc2nqvc33mwey00mutk6m8rrprcr73ynknpyw83c6vrd872gw89pcc3fwuq6tndrfnt0rzmpdfls5yrnae","addr1zxgx3far7qygq0k6epa0zcvcvrevmn0ypsnfsue94nsn3tvpw288a4x0xf8pxgcntelxmyclq83s0ykeehchz2wtspks905plm"],"addressesOutput":["addr1zxgx3far7qygq0k6epa0zcvcvrevmn0ypsnfsue94nsn3tvpw288a4x0xf8pxgcntelxmyclq83s0ykeehchz2wtspks905plm","addr1qxrgcfsqqaf69wq4rc2nqvc33mwey00mutk6m8rrprcr73ynknpyw83c6vrd872gw89pcc3fwuq6tndrfnt0rzmpdfls5yrnae","addr1qxrgcfsqqaf69wq4rc2nqvc33mwey00mutk6m8rrprcr73ynknpyw83c6vrd872gw89pcc3fwuq6tndrfnt0rzmpdfls5yrnae"],"fee":327780,"totalOutput":1593613197,"tokens":[]},{"hash":"ce36e589bfad8a06a3dd0913bae717c06fd671ed573531d245976fbc25cc124d","blockNo":8430750,"blockHash":"76526636062105e0c748a592d38c72162bae0660e2c03a69907a537bef652ca5","epochNo":395,"epochSlotNo":210712,"slot":85487512,"time":"2023/02/22 08:16:43","addressesInput":["addr1w8cvzcnclvkua25vx26j72pddatuedsxspm62mr63urs0fctuuzfv","addr1q8ltk7fw6uednrw8guc77pj8eudw880lzacnqgsw99fscy73wkpa5mcyzllh5drd493cuvdspa5xaywdjefl6u86xqts9akaxg"],"addressesOutput":["addr1q8ltk7fw6uednrw8guc77pj8eudw880lzacnqgsw99fscy73wkpa5mcyzllh5drd493cuvdspa5xaywdjefl6u86xqts9akaxg","addr1w8cvzcnclvkua25vx26j72pddatuedsxspm62mr63urs0fctuuzfv"],"fee":217241,"totalOutput":1465926156,"tokens":[]},{"hash":"5e0b261cedf6ca0d2191833a616dcf3d926fdb7dc4c43f70898c67e4379510e8","blockNo":8430749,"blockHash":"6ee2d9a5a8f28f7736a006697d5b15bfa673ae7151977021147ce1b1d0eb6f19","epochNo":395,"epochSlotNo":210697,"slot":85487497,"time":"2023/02/22 08:16:28","addressesInput":["addr1qxz96cu8gelks8nqdyyjccnpg5dahfk7ldph78m33w2hqnsezw5ce0f4p2jxe7ukqpk42t8579chpvu5q5g4yr36q47qddglay","addr1zxgx3far7qygq0k6epa0zcvcvrevmn0ypsnfsue94nsn3tvpw288a4x0xf8pxgcntelxmyclq83s0ykeehchz2wtspks905plm"],"addressesOutput":["addr1zxgx3far7qygq0k6epa0zcvcvrevmn0ypsnfsue94nsn3tvpw288a4x0xf8pxgcntelxmyclq83s0ykeehchz2wtspks905plm","addr1qxz96cu8gelks8nqdyyjccnpg5dahfk7ldph78m33w2hqnsezw5ce0f4p2jxe7ukqpk42t8579chpvu5q5g4yr36q47qddglay"],"fee":316460,"totalOutput":115659309,"tokens":[]},{"hash":"b53471d7f3ea37f2f3b7d225f08edcc11c884f1295538ba68a51207b85475448","blockNo":8430749,"blockHash":"6ee2d9a5a8f28f7736a006697d5b15bfa673ae7151977021147ce1b1d0eb6f19","epochNo":395,"epochSlotNo":210697,"slot":85487497,"time":"2023/02/22 08:16:28","addressesInput":["addr1qxtqenzgc78ul4f9g3gugyjw8am5ewnrtj8w9t9l86rnphy4k7hlfgefpjwlw4msnyfxgqjj2lahpqcex9cdnq9mxc8selwkpx","addr1qxtqenzgc78ul4f9g3gugyjw8am5ewnrtj8w9t9l86rnphy4k7hlfgefpjwlw4msnyfxgqjj2lahpqcex9cdnq9mxc8selwkpx","addr1zxgx3far7qygq0k6epa0zcvcvrevmn0ypsnfsue94nsn3tvpw288a4x0xf8pxgcntelxmyclq83s0ykeehchz2wtspks905plm","addr1qxtqenzgc78ul4f9g3gugyjw8am5ewnrtj8w9t9l86rnphy4k7hlfgefpjwlw4msnyfxgqjj2lahpqcex9cdnq9mxc8selwkpx"],"addressesOutput":["addr1qy5lwa5yk09srsmt4d4rm3lz6f6j06njtzq7w8lpfu0ueye8c5yn9hpk4cfs47ky58sa64sz2mfr8dfwv77nyysmjqtq2y3ycm","addr1q9cwvremt6n320s2e3agq0jyq82yhrk3htsu0w426xnz5us70z4w0jgvcdkkynmm8wmds66jd9kusnjfpu6raw5fqp0sr07p5w","addr1q924uyuddswcj9s0qhlk64ms53nr75k9hkdvtjh3we5up8yuv6qyy7pk536033dv7z6x67k33eumw75t3eulazh8c25q6s0fcm","addr1qxtqenzgc78ul4f9g3gugyjw8am5ewnrtj8w9t9l86rnphy4k7hlfgefpjwlw4msnyfxgqjj2lahpqcex9cdnq9mxc8selwkpx","addr1qxtqenzgc78ul4f9g3gugyjw8am5ewnrtj8w9t9l86rnphy4k7hlfgefpjwlw4msnyfxgqjj2lahpqcex9cdnq9mxc8selwkpx","addr1qxtqenzgc78ul4f9g3gugyjw8am5ewnrtj8w9t9l86rnphy4k7hlfgefpjwlw4msnyfxgqjj2lahpqcex9cdnq9mxc8selwkpx"],"fee":431129,"totalOutput":336155234,"tokens":[]},{"hash":"79b92fca68d63596ddaa61b5b0b46a4bde674b3373149bd9c0a5d75044754dc6","blockNo":8430746,"blockHash":"3f17279a7fdc67545d0ca25388fbb61a3b951cbba06dc8359f292ff50f75ecd9","epochNo":395,"epochSlotNo":210685,"slot":85487485,"time":"2023/02/22 08:16:16","addressesInput":["addr1q9n555sq6ya2mwfk556vy58vkxtuzsqlvgzapglpxxn6ysawyyhsg60tg03k6m2vqwhgklmgt65dhvxmmf3cyvlr8zfqj3zjfh","addr1q9n555sq6ya2mwfk556vy58vkxtuzsqlvgzapglpxxn6ysawyyhsg60tg03k6m2vqwhgklmgt65dhvxmmf3cyvlr8zfqj3zjfh"],"addressesOutput":["addr1zxgx3far7qygq0k6epa0zcvcvrevmn0ypsnfsue94nsn3tvpw288a4x0xf8pxgcntelxmyclq83s0ykeehchz2wtspks905plm","addr1q9n555sq6ya2mwfk556vy58vkxtuzsqlvgzapglpxxn6ysawyyhsg60tg03k6m2vqwhgklmgt65dhvxmmf3cyvlr8zfqj3zjfh","addr1q9n555sq6ya2mwfk556vy58vkxtuzsqlvgzapglpxxn6ysawyyhsg60tg03k6m2vqwhgklmgt65dhvxmmf3cyvlr8zfqj3zjfh"],"fee":251345,"totalOutput":150426505,"tokens":[]},{"hash":"f9b2cd2a0d35ecee94a380e588725b39bf9946ce6ebc6ffe5688f29f3579b10b","blockNo":8430745,"blockHash":"6447cfe9a1576568e3bc94af8bc5e084db629ecafd86b1efe8cffc8e78b6e712","epochNo":395,"epochSlotNo":210677,"slot":85487477,"time":"2023/02/22 08:16:08","addressesInput":["addr1qxy248aek04ky54pwu3kpaf5nv8gl8s6lyupmepkha7m83vla5qg2ryas2ec8z5vr2qd7krqp25x4x9fdvhu4m6qxm4q0eq82t","addr1zxgx3far7qygq0k6epa0zcvcvrevmn0ypsnfsue94nsn3tvpw288a4x0xf8pxgcntelxmyclq83s0ykeehchz2wtspks905plm"],"addressesOutput":["addr1vxl79gy5te8esnw3y7jcvh60xkkjqjsj97myzmlm8yvljhgf83feu","addr1q9cwvremt6n320s2e3agq0jyq82yhrk3htsu0w426xnz5us70z4w0jgvcdkkynmm8wmds66jd9kusnjfpu6raw5fqp0sr07p5w","addr1qy8xu45mdd330ehtw5ey265zcz997af9vrjgwl2dw7cr74aetxxtq4ysx4t02u6znutv30t43spc6nsz9m2erw403twszvk6fu","addr1qxy248aek04ky54pwu3kpaf5nv8gl8s6lyupmepkha7m83vla5qg2ryas2ec8z5vr2qd7krqp25x4x9fdvhu4m6qxm4q0eq82t","addr1qxy248aek04ky54pwu3kpaf5nv8gl8s6lyupmepkha7m83vla5qg2ryas2ec8z5vr2qd7krqp25x4x9fdvhu4m6qxm4q0eq82t"],"fee":389560,"totalOutput":87325379,"tokens":[]},{"hash":"a11d13fd7d5a9ad1aa4048419d41e4d1b01585df7721a767111c6a710b5ba922","blockNo":8430745,"blockHash":"6447cfe9a1576568e3bc94af8bc5e084db629ecafd86b1efe8cffc8e78b6e712","epochNo":395,"epochSlotNo":210677,"slot":85487477,"time":"2023/02/22 08:16:08","addressesInput":["addr1q9vmujn8x0vfvpyt2wvpm8hxgqnazc9rnex6ahg53p4ev7f658r7kd3hgda2ara427hzehfllsvd5zjlg5x29v8fwzjsuqc0la"],"addressesOutput":["addr1qxeq79zq6kzkklnesd45ydg9qtt27my4ucg8yvy075m0mup658r7kd3hgda2ara427hzehfllsvd5zjlg5x29v8fwzjsxzye24","addr1q99s2qzeu3dyvxwychavnqcfgtn8699hc32x2fyjk9548u3658r7kd3hgda2ara427hzehfllsvd5zjlg5x29v8fwzjs0kurep"],"fee":180153,"totalOutput":1066373957,"tokens":[]},{"hash":"c03e7d7d31812a085412066a5cae8e854541bbb91b21b06b8eacc447d4684e3a","blockNo":8430745,"blockHash":"6447cfe9a1576568e3bc94af8bc5e084db629ecafd86b1efe8cffc8e78b6e712","epochNo":395,"epochSlotNo":210677,"slot":85487477,"time":"2023/02/22 08:16:08","addressesInput":["addr1v8wc5q5pfqsxz6cn0c8mfpf0mz4tx6r4mpyer89x32nvkuqfqy8gv","addr1wxaptpmxcxawvr3pzlhgnpmzz3ql43n2tc8mn3av5kx0yzs09tqh8","addr1v8wc5q5pfqsxz6cn0c8mfpf0mz4tx6r4mpyer89x32nvkuqfqy8gv","addr1w9qzpelu9hn45pefc0xr4ac4kdxeswq7pndul2vuj59u8tqaxdznu"],"addressesOutput":["addr1w9qzpelu9hn45pefc0xr4ac4kdxeswq7pndul2vuj59u8tqaxdznu","addr1w9jx45flh83z6wuqypyash54mszwmdj8r64fydafxtfc6jgrw4rm3","addr1qysyaetaq3yurrree4s9hzs3wj4fp4jpwqtmwcramw2h9ejhyc0rk32j9wtca9l9nz8jqudex4ffrwyq92mujnzncnxqhq2zhn","addr1v8wc5q5pfqsxz6cn0c8mfpf0mz4tx6r4mpyer89x32nvkuqfqy8gv","addr1v8wc5q5pfqsxz6cn0c8mfpf0mz4tx6r4mpyer89x32nvkuqfqy8gv"],"fee":1314984,"totalOutput":4000740334616,"tokens":[]},{"hash":"15bf18d06ccf0d35a7371fecb65dbbc2db0d796a8614ffd6c8c212aa9d26f052","blockNo":8430744,"blockHash":"7c6341fab87182b791c45ad7b9e8440d8d5894fda37d3e1ecb2de5d17167e59f","epochNo":395,"epochSlotNo":210666,"slot":85487466,"time":"2023/02/22 08:15:57","addressesInput":["addr1q97lhgh8mvy9cfm97aphnsa4dekp9xgnv0sewmqpsmpcz6uce9qgzfagttg2qvp3m08zdmsev0rvu7xlvm067v05qvrsy8xfy0"],"addressesOutput":["addr1vy36xe7rne2stqhh9zs5d3tdsfycfm8x8t7d37zgurm3edq26we5u","addr1q9c87qfpkjlw3uyr4qp3wz3azxfzyhe9wfmtz9n4jmqzdv5ce9qgzfagttg2qvp3m08zdmsev0rvu7xlvm067v05qvrszgqm75"],"fee":167965,"totalOutput":2026674728,"tokens":[]},{"hash":"25bcecb6d29242ec5f5bb546c93f1ca20ec33a95172bf536d9f8e1dfc7b77c63","blockNo":8430744,"blockHash":"7c6341fab87182b791c45ad7b9e8440d8d5894fda37d3e1ecb2de5d17167e59f","epochNo":395,"epochSlotNo":210666,"slot":85487466,"time":"2023/02/22 08:15:57","addressesInput":["addr1wyd8cezjr0gcf8nfxuc9trd4hs7ec520jmkwkqzywx6l5jg0al0ya","addr1v8d48x9ny5zpmh7xkr2wtds2ww8sg6fgg9lxq2lhgkzrgdcey284d","addr1wyd8cezjr0gcf8nfxuc9trd4hs7ec520jmkwkqzywx6l5jg0al0ya","addr1wyd8cezjr0gcf8nfxuc9trd4hs7ec520jmkwkqzywx6l5jg0al0ya","addr1wyd8cezjr0gcf8nfxuc9trd4hs7ec520jmkwkqzywx6l5jg0al0ya","addr1wyd8cezjr0gcf8nfxuc9trd4hs7ec520jmkwkqzywx6l5jg0al0ya","addr1v8d48x9ny5zpmh7xkr2wtds2ww8sg6fgg9lxq2lhgkzrgdcey284d","addr1wyd8cezjr0gcf8nfxuc9trd4hs7ec520jmkwkqzywx6l5jg0al0ya"],"addressesOutput":["addr1wyd8cezjr0gcf8nfxuc9trd4hs7ec520jmkwkqzywx6l5jg0al0ya","addr1wyd8cezjr0gcf8nfxuc9trd4hs7ec520jmkwkqzywx6l5jg0al0ya","addr1wyd8cezjr0gcf8nfxuc9trd4hs7ec520jmkwkqzywx6l5jg0al0ya","addr1wyd8cezjr0gcf8nfxuc9trd4hs7ec520jmkwkqzywx6l5jg0al0ya","addr1wyd8cezjr0gcf8nfxuc9trd4hs7ec520jmkwkqzywx6l5jg0al0ya","addr1wyd8cezjr0gcf8nfxuc9trd4hs7ec520jmkwkqzywx6l5jg0al0ya","addr1v8d48x9ny5zpmh7xkr2wtds2ww8sg6fgg9lxq2lhgkzrgdcey284d","addr1v8d48x9ny5zpmh7xkr2wtds2ww8sg6fgg9lxq2lhgkzrgdcey284d"],"fee":899514,"totalOutput":22100486,"tokens":[]},{"hash":"f99bd5ce000f234c108c7829a77a2a477aa3a8e8a71f6ae39e3df68b3ebb011b","blockNo":8430744,"blockHash":"7c6341fab87182b791c45ad7b9e8440d8d5894fda37d3e1ecb2de5d17167e59f","epochNo":395,"epochSlotNo":210666,"slot":85487466,"time":"2023/02/22 08:15:57","addressesInput":["addr1q9e0qmm5qhqep89c3ktnxxs8e4aesachxm2d6njkexdnyzz485yj2769aaqshvh4ypthyyxzp7etrn7gx8e06amwfgrszas08s"],"addressesOutput":["addr1q9e0qmm5qhqep89c3ktnxxs8e4aesachxm2d6njkexdnyzz485yj2769aaqshvh4ypthyyxzp7etrn7gx8e06amwfgrszas08s"],"fee":171573,"totalOutput":101587124,"tokens":[]},{"hash":"df3cab1c98549d1c22a7e977d04788f518135747b6af552869d706fb57fb9c48","blockNo":8430744,"blockHash":"7c6341fab87182b791c45ad7b9e8440d8d5894fda37d3e1ecb2de5d17167e59f","epochNo":395,"epochSlotNo":210666,"slot":85487466,"time":"2023/02/22 08:15:57","addressesInput":["addr1q9gftt85xv7spqhlh5c4927vmvgu04mnurr57ndmuegm8u49w9tjpgcq2l5m3g8cl5k7y05musy3dc3f87p0vc8d9ceqrcus4v"],"addressesOutput":["addr1qx97nzmql50h8nz27aklp3tnhg2gyd8pd2rah8wxe0p0498sz9kezzz53m6ttnfdt4jr5n2ekpg238sjgwv5qnf5jczqnmr6mp","addr1q9gftt85xv7spqhlh5c4927vmvgu04mnurr57ndmuegm8u49w9tjpgcq2l5m3g8cl5k7y05musy3dc3f87p0vc8d9ceqrcus4v"],"fee":168611,"totalOutput":99831389,"tokens":[]}],"totalItems":61755005,"totalPages":3087751,"currentPage":0}