{"data":[{"hash":"81fa5004e336acb9738e10a685c064ec54e35ab293d9dd277021733e7332cf30","blockNo":7837472,"blockHash":"eb1c78aad7f2fb8fb7fad3d4186749917143c33652e74c9a409e8c30036626ac","epochNo":367,"epochSlotNo":75466,"slot":73256266,"time":"2022/10/03 18:42:37","addressesInput":["addr1v8v3auqmw0eszza3ww29ea2pwftuqrqqyu26zvzjq9dt2ncydzvs5"],"addressesOutput":["addr1qyshxdr6ql6hhmxjzmvqw43gs05tvjnmnsh92tlmnumsz6tdlk0egxfazut85hvmrvl3nvyec3t24l5qm3kum5aspq0s630chv","addr1vypr00ss7hkqejmvh53xkyf0p9q0a4z2uprxmx6njc463vgst3pe4"],"fee":171221,"totalOutput":203083264489,"tokens":[]},{"hash":"6f4425791af1c440dd628f6a446f9c60c849adacdbabca6f0bd92e48d5f2d976","blockNo":7837472,"blockHash":"eb1c78aad7f2fb8fb7fad3d4186749917143c33652e74c9a409e8c30036626ac","epochNo":367,"epochSlotNo":75466,"slot":73256266,"time":"2022/10/03 18:42:37","addressesInput":["addr1wxwrp3hhg8xdddx7ecg6el2s2dj6h2c5g582yg2yxhupyns8feg4m","addr1qyjs0x7aytnv36a92rdnrpnm002c04n0fqky8j4u34a5mpxu6fyey23yq9cuq5zwvw4mvykljtarsermds9m9m78w9wsx3dt64"],"addressesOutput":["addr1qyjs0x7aytnv36a92rdnrpnm002c04n0fqky8j4u34a5mpxu6fyey23yq9cuq5zwvw4mvykljtarsermds9m9m78w9wsx3dt64","addr1qyjs0x7aytnv36a92rdnrpnm002c04n0fqky8j4u34a5mpxu6fyey23yq9cuq5zwvw4mvykljtarsermds9m9m78w9wsx3dt64"],"fee":639022,"totalOutput":16046556,"tokens":[]},{"hash":"031cf0e78197c2475046678b15238d295d5017280faa42c64778fba71ea59056","blockNo":7837472,"blockHash":"eb1c78aad7f2fb8fb7fad3d4186749917143c33652e74c9a409e8c30036626ac","epochNo":367,"epochSlotNo":75466,"slot":73256266,"time":"2022/10/03 18:42:37","addressesInput":["addr1q9vzcmhp5j6hdhq5ddfjgkh4exvkm4p3rv4x88a8y3gdw7326n4xmu6zf5pxkffp4j6p0jsa2pkw53xmnag4vx4ws24qyt5gmq","addr1q9vzcmhp5j6hdhq5ddfjgkh4exvkm4p3rv4x88a8y3gdw7326n4xmu6zf5pxkffp4j6p0jsa2pkw53xmnag4vx4ws24qyt5gmq","addr1q9vzcmhp5j6hdhq5ddfjgkh4exvkm4p3rv4x88a8y3gdw7326n4xmu6zf5pxkffp4j6p0jsa2pkw53xmnag4vx4ws24qyt5gmq"],"addressesOutput":["addr1wxn9efv2f6w82hagxqtn62ju4m293tqvw0uhmdl64ch8uwc0h43gt","addr1q9vzcmhp5j6hdhq5ddfjgkh4exvkm4p3rv4x88a8y3gdw7326n4xmu6zf5pxkffp4j6p0jsa2pkw53xmnag4vx4ws24qyt5gmq","addr1q9vzcmhp5j6hdhq5ddfjgkh4exvkm4p3rv4x88a8y3gdw7326n4xmu6zf5pxkffp4j6p0jsa2pkw53xmnag4vx4ws24qyt5gmq"],"fee":195641,"totalOutput":44335966,"tokens":[]},{"hash":"6208bc2c4df76ef1f225ae0797761109462d078556f2d3f9c93f79d73a141954","blockNo":7837472,"blockHash":"eb1c78aad7f2fb8fb7fad3d4186749917143c33652e74c9a409e8c30036626ac","epochNo":367,"epochSlotNo":75466,"slot":73256266,"time":"2022/10/03 18:42:37","addressesInput":["addr1qyjnasqq06thgezynjh6pgmu2grhdxkkpsfp2fp6l32y6fdw8twv4rg6vfex6jstn9glu6e6vjycdlhr2efp4xyljchqkcyc9l","addr1qyjnasqq06thgezynjh6pgmu2grhdxkkpsfp2fp6l32y6fdw8twv4rg6vfex6jstn9glu6e6vjycdlhr2efp4xyljchqkcyc9l"],"addressesOutput":["DdzFFzCqrhsvqEywfSEepH6ehEDxMoaYXuBV8P1cTf7pdgzEirBKdeQ1vwhFe9sKJ15uMq5nyBZBHKLXCzNJ9ghpui8f3KqpJahdSB4K","addr1qyjnasqq06thgezynjh6pgmu2grhdxkkpsfp2fp6l32y6fdw8twv4rg6vfex6jstn9glu6e6vjycdlhr2efp4xyljchqkcyc9l"],"fee":170737,"totalOutput":156660110,"tokens":[]},{"hash":"7d735c87bda6b4040f2a2bab508d617657eddb3cb3c7ce56402534a698119025","blockNo":7837472,"blockHash":"eb1c78aad7f2fb8fb7fad3d4186749917143c33652e74c9a409e8c30036626ac","epochNo":367,"epochSlotNo":75466,"slot":73256266,"time":"2022/10/03 18:42:37","addressesInput":["addr1vxzaanwdlqde0k8hhhknutwar8t3uexuq8383jz28wngvnc2e6k6e"],"addressesOutput":["addr1q8ummc0sech3ls9w7gfg9vmwy8eslxafqxh2lvscasd9zlys7sydt3scvz0dgagy7v4z47swcmpkpfqyaqzydcqnktgscls58v","addr1v9u7va2sktlnz8dp3qadpnxxlv4m03672jy6elmntlxxs7q9nnwl9"],"fee":171221,"totalOutput":187213799,"tokens":[]},{"hash":"09656f1873ea38003076a0be9a8cb728324bfab47589943e9fc2144521479178","blockNo":7837472,"blockHash":"eb1c78aad7f2fb8fb7fad3d4186749917143c33652e74c9a409e8c30036626ac","epochNo":367,"epochSlotNo":75466,"slot":73256266,"time":"2022/10/03 18:42:37","addressesInput":["addr1v9u7va2sktlnz8dp3qadpnxxlv4m03672jy6elmntlxxs7q9nnwl9"],"addressesOutput":["DdzFFzCqrhsyknbZTDGHGgXMu1ospNRkhnng9v4NcAsJgP3bh4BkkVam6or4qahtYVGqCCiHpATKL9dyuAagQ7FRcTg6bPu7zV64xAZq","addr1v9u7va2sktlnz8dp3qadpnxxlv4m03672jy6elmntlxxs7q9nnwl9"],"fee":171221,"totalOutput":12152710,"tokens":[]},{"hash":"7f99643cc561edb7dcb44c9c02079be8f5378851ba1e965f6218b663811d3342","blockNo":7837472,"blockHash":"eb1c78aad7f2fb8fb7fad3d4186749917143c33652e74c9a409e8c30036626ac","epochNo":367,"epochSlotNo":75466,"slot":73256266,"time":"2022/10/03 18:42:37","addressesInput":["addr1q84f6xfzuq6z38kwgvv2dx7gh6a58lruu2uc5umd2ps9t7wyaqm7hpykmc452uqvpj9nf7wmpssg4cngnmm0emj4up4syu9kka"],"addressesOutput":["addr1q84f6xfzuq6z38kwgvv2dx7gh6a58lruu2uc5umd2ps9t7wyaqm7hpykmc452uqvpj9nf7wmpssg4cngnmm0emj4up4syu9kka","addr1q84f6xfzuq6z38kwgvv2dx7gh6a58lruu2uc5umd2ps9t7wyaqm7hpykmc452uqvpj9nf7wmpssg4cngnmm0emj4up4syu9kka"],"fee":180417,"totalOutput":6601239,"tokens":[]},{"hash":"04e3b3d806ee2dcd4129bc06b797725c76475f86361ca0ae61643b070b9106ea","blockNo":7837472,"blockHash":"eb1c78aad7f2fb8fb7fad3d4186749917143c33652e74c9a409e8c30036626ac","epochNo":367,"epochSlotNo":75466,"slot":73256266,"time":"2022/10/03 18:42:37","addressesInput":["addr1qxwgqjd77n4whll86lruqt7djefp2eqg63h8zahuel6am0k7d3u7kh3txvg5uhmwrf57ycph82ma9fhthvnxqm7lr44qge290x"],"addressesOutput":["addr1qyz5fl9l220nz8fyuu84pxcax0zuvjzfs7qs7d5mpskry9x7d3u7kh3txvg5uhmwrf57ycph82ma9fhthvnxqm7lr44qmp4f4w"],"fee":171485,"totalOutput":283988648,"tokens":[]},{"hash":"67ec96d0a6387dc3f748d27665ef91fa29548cfde885e375b8be40f64841f323","blockNo":7837472,"blockHash":"eb1c78aad7f2fb8fb7fad3d4186749917143c33652e74c9a409e8c30036626ac","epochNo":367,"epochSlotNo":75466,"slot":73256266,"time":"2022/10/03 18:42:37","addressesInput":["addr1q96pl4zda0hkn550y68muhhar096l2awuf0ey0lxze8w3g4phwzrdqmmk6335x5t48f3vj6ask4a36hj5cc0vs93epfs22mkhj","addr1zxj47sy4qxlktqzmkrw8dahe46gtv8seakrshsqz26qnvzypw288a4x0xf8pxgcntelxmyclq83s0ykeehchz2wtspksr3q9nx"],"addressesOutput":["addr1q9cwvremt6n320s2e3agq0jyq82yhrk3htsu0w426xnz5us70z4w0jgvcdkkynmm8wmds66jd9kusnjfpu6raw5fqp0sr07p5w","addr1q8f83ppvt9vgp3mvk6uzxaw5nsj3jfjdfn4gdp4ml0nsm7phsenxjqf0uyz5ehregj4cnqy7ypptc0948gwa88ysqhpsgz0v5g","addr1q96pl4zda0hkn550y68muhhar096l2awuf0ey0lxze8w3g4phwzrdqmmk6335x5t48f3vj6ask4a36hj5cc0vs93epfs22mkhj","addr1q96pl4zda0hkn550y68muhhar096l2awuf0ey0lxze8w3g4phwzrdqmmk6335x5t48f3vj6ask4a36hj5cc0vs93epfs22mkhj","addr1q96pl4zda0hkn550y68muhhar096l2awuf0ey0lxze8w3g4phwzrdqmmk6335x5t48f3vj6ask4a36hj5cc0vs93epfs22mkhj","addr1q96pl4zda0hkn550y68muhhar096l2awuf0ey0lxze8w3g4phwzrdqmmk6335x5t48f3vj6ask4a36hj5cc0vs93epfs22mkhj"],"fee":597507,"totalOutput":300742903,"tokens":[]},{"hash":"fd27ef5d12dce2c678be870d4ae69a9b3468ae43abf10453eb70b1121f4ce0bb","blockNo":7837472,"blockHash":"eb1c78aad7f2fb8fb7fad3d4186749917143c33652e74c9a409e8c30036626ac","epochNo":367,"epochSlotNo":75466,"slot":73256266,"time":"2022/10/03 18:42:37","addressesInput":["addr1v95sf69jcfhnmknvffwmfvlvnccatqwfjcyh0nlfc6gh5scta2yzg"],"addressesOutput":["addr1qxec9tjz5mcwwxe5lqc05y39hv4ukf5awzussn8dt5hzfxxj62fy94w0jw8cse95p6lyw6dysudcazx7fdd2xqll7f2q7d3lc9","addr1v9u7va2sktlnz8dp3qadpnxxlv4m03672jy6elmntlxxs7q9nnwl9"],"fee":171221,"totalOutput":4814401,"tokens":[]},{"hash":"00464eca5e6651a34fa968e592fd1b18437d42f0bdf4aa13ed8c7da127a01e83","blockNo":7837472,"blockHash":"eb1c78aad7f2fb8fb7fad3d4186749917143c33652e74c9a409e8c30036626ac","epochNo":367,"epochSlotNo":75466,"slot":73256266,"time":"2022/10/03 18:42:37","addressesInput":["addr1q800h57vhlprmcmy6aqfmad5vlms4susqspqmz5vajd4678nxq832z6zq568fqrg2hpzc3c9344gssejeluxll2lwkmsya902a"],"addressesOutput":["addr1wxn9efv2f6w82hagxqtn62ju4m293tqvw0uhmdl64ch8uwc0h43gt","addr1q800h57vhlprmcmy6aqfmad5vlms4susqspqmz5vajd4678nxq832z6zq568fqrg2hpzc3c9344gssejeluxll2lwkmsya902a"],"fee":180109,"totalOutput":6462822370,"tokens":[]},{"hash":"90e0f6fffbeeae61713433added4c2423d66ebdb7c3e98902be12ea29fca0761","blockNo":7837472,"blockHash":"eb1c78aad7f2fb8fb7fad3d4186749917143c33652e74c9a409e8c30036626ac","epochNo":367,"epochSlotNo":75466,"slot":73256266,"time":"2022/10/03 18:42:37","addressesInput":["addr1qxqlphyp3f94s8pa0zg5pk5plem4vgrphth6kkmf4zrtayy2qvqktll58hnf9d0nddd6v3xyle5vyymnyfnhfp42eyeq2zn3w2","addr1qxqlphyp3f94s8pa0zg5pk5plem4vgrphth6kkmf4zrtayy2qvqktll58hnf9d0nddd6v3xyle5vyymnyfnhfp42eyeq2zn3w2"],"addressesOutput":["addr1zxj47sy4qxlktqzmkrw8dahe46gtv8seakrshsqz26qnvzypw288a4x0xf8pxgcntelxmyclq83s0ykeehchz2wtspksr3q9nx","addr1qxqlphyp3f94s8pa0zg5pk5plem4vgrphth6kkmf4zrtayy2qvqktll58hnf9d0nddd6v3xyle5vyymnyfnhfp42eyeq2zn3w2"],"fee":953226,"totalOutput":3185521,"tokens":[]},{"hash":"1e8fe0dbdfd534546089bb92a6a011e9df259492b012c057ab40893b122a5e6c","blockNo":7837472,"blockHash":"eb1c78aad7f2fb8fb7fad3d4186749917143c33652e74c9a409e8c30036626ac","epochNo":367,"epochSlotNo":75466,"slot":73256266,"time":"2022/10/03 18:42:37","addressesInput":["addr1qywk5vxfl9rvgyd0fahdx273xzyfjfl76jdajsewejzul8hnqv5marghahzm7uvmt9hmkh9sgjl90wwpguf0e8s5ejesvkq020","addr1qywk5vxfl9rvgyd0fahdx273xzyfjfl76jdajsewejzul8hnqv5marghahzm7uvmt9hmkh9sgjl90wwpguf0e8s5ejesvkq020"],"addressesOutput":["addr1qxfp4yfesl4ul4ekesgt2zu8echg8vuzx6r34fudms77pxmwthakht7plymcq38pzuhjjjwv9uefuth364xgwtsp67eqdhmzj8","addr1qywk5vxfl9rvgyd0fahdx273xzyfjfl76jdajsewejzul8hnqv5marghahzm7uvmt9hmkh9sgjl90wwpguf0e8s5ejesvkq020","addr1qywk5vxfl9rvgyd0fahdx273xzyfjfl76jdajsewejzul8hnqv5marghahzm7uvmt9hmkh9sgjl90wwpguf0e8s5ejesvkq020"],"fee":356593,"totalOutput":48440014,"tokens":[]},{"hash":"1b2ace99a2668c45939292818002d8f9390046660309c3168f9f6dafee36b1ef","blockNo":7837471,"blockHash":"528ab0a5e5ca604101199ef68abfc0d6e8aabd788938c81039e88fe8cbd5e00c","epochNo":367,"epochSlotNo":75448,"slot":73256248,"time":"2022/10/03 18:42:19","addressesInput":["addr1qxkr005mw67qeus4nms2wjnw5zc6a83czrqmepg4tx9wcdth0kph2dwravxv6t5qr8sh526t6aj4lu62d07304qfye0st3qqmk"],"addressesOutput":["addr1zxj47sy4qxlktqzmkrw8dahe46gtv8seakrshsqz26qnvzypw288a4x0xf8pxgcntelxmyclq83s0ykeehchz2wtspksr3q9nx","addr1qxkr005mw67qeus4nms2wjnw5zc6a83czrqmepg4tx9wcdth0kph2dwravxv6t5qr8sh526t6aj4lu62d07304qfye0st3qqmk"],"fee":279241,"totalOutput":14577771,"tokens":[]},{"hash":"013af4d08a84fb18be1b22ce474f957abb4784b226d6299a853c1b916b706b73","blockNo":7837471,"blockHash":"528ab0a5e5ca604101199ef68abfc0d6e8aabd788938c81039e88fe8cbd5e00c","epochNo":367,"epochSlotNo":75448,"slot":73256248,"time":"2022/10/03 18:42:19","addressesInput":["addr1q8k6vaegv4ht6xnt8cpxfm0xrfe5hkvexestra6thutzcgscn5q9mx7hc20p39rtc7ux0ekqvacwxj2eu967mxyn24csqlyhcn","addr1qyum7c4ej4kzp90hyx5wr0m789gpccsuldmha7v0agqekmscn5q9mx7hc20p39rtc7ux0ekqvacwxj2eu967mxyn24css8n4z3"],"addressesOutput":["addr1q8k6vaegv4ht6xnt8cpxfm0xrfe5hkvexestra6thutzcgscn5q9mx7hc20p39rtc7ux0ekqvacwxj2eu967mxyn24csqlyhcn","addr1qxhvuj8t98s4ym5r9eaxr7zguryvsm0aggg4q9s7w5yzzwgcn5q9mx7hc20p39rtc7ux0ekqvacwxj2eu967mxyn24csl4fdph"],"fee":174345,"totalOutput":37235308,"tokens":[]},{"hash":"529c1eb824384abb37d7b85f577846feea30990ef5cc10f0c4a3521f20276bb4","blockNo":7837471,"blockHash":"528ab0a5e5ca604101199ef68abfc0d6e8aabd788938c81039e88fe8cbd5e00c","epochNo":367,"epochSlotNo":75448,"slot":73256248,"time":"2022/10/03 18:42:19","addressesInput":["addr1qyefwfskld82x7wkl529e4893dczm50vmcx4gw8mj23rrrk47vwtqxw6x7xf48am4dz4ljvsulqa49jnahgdlmf42sfqwtu2pe","addr1qxjjemd6d2kxj55ljpu3pa2jk5hzyvmdwqphlg4k23l2d8w47vwtqxw6x7xf48am4dz4ljvsulqa49jnahgdlmf42sfq7fv3pk","addr1qyefwfskld82x7wkl529e4893dczm50vmcx4gw8mj23rrrk47vwtqxw6x7xf48am4dz4ljvsulqa49jnahgdlmf42sfqwtu2pe"],"addressesOutput":["addr1q9k0zpkx3k6386hgv72kg3tfuurqh5xk3e6e23l28rrcpjzqpnwvmkqar35n5ejv2xqnfqrfp5u8a5purdxstp6mg0ashryvwx","addr1q83qxmujhj2jsgfqatcge8gc2xkruukvdmr0m2520jkxg3x47vwtqxw6x7xf48am4dz4ljvsulqa49jnahgdlmf42sfqvuf5s2"],"fee":362973,"totalOutput":29436571,"tokens":[]},{"hash":"97cf15a1a631c4695117aa51cbc65d58ee2899aab78a95e600674f46bdbf3802","blockNo":7837471,"blockHash":"528ab0a5e5ca604101199ef68abfc0d6e8aabd788938c81039e88fe8cbd5e00c","epochNo":367,"epochSlotNo":75448,"slot":73256248,"time":"2022/10/03 18:42:19","addressesInput":["addr1zxj47sy4qxlktqzmkrw8dahe46gtv8seakrshsqz26qnvzypw288a4x0xf8pxgcntelxmyclq83s0ykeehchz2wtspksr3q9nx","addr1qxcylg4y3z9gzfxtdrrvs5x24cv5vys868uzl5krh3a5k8p8a78mmuk5qnfll4n4agf58tput8c9gnkdhqx4rrqzv2ysehym48"],"addressesOutput":["addr1qxcylg4y3z9gzfxtdrrvs5x24cv5vys868uzl5krh3a5k8p8a78mmuk5qnfll4n4agf58tput8c9gnkdhqx4rrqzv2ysehym48","addr1qxcylg4y3z9gzfxtdrrvs5x24cv5vys868uzl5krh3a5k8p8a78mmuk5qnfll4n4agf58tput8c9gnkdhqx4rrqzv2ysehym48","addr1qxcylg4y3z9gzfxtdrrvs5x24cv5vys868uzl5krh3a5k8p8a78mmuk5qnfll4n4agf58tput8c9gnkdhqx4rrqzv2ysehym48"],"fee":492154,"totalOutput":60521029,"tokens":[]},{"hash":"503ee0f5e1fd99c86bb5c663907abbc4c46c06ca831f4c655d7597bce44e0151","blockNo":7837471,"blockHash":"528ab0a5e5ca604101199ef68abfc0d6e8aabd788938c81039e88fe8cbd5e00c","epochNo":367,"epochSlotNo":75448,"slot":73256248,"time":"2022/10/03 18:42:19","addressesInput":["addr1qxahptxx4272ny659h6rcwsr6f6287xlzn0stddf37epaagslvndn293lz9732pzjaea6qpzdyq6n8umnzgx6z3ma78sqjrxr6","addr1qxahptxx4272ny659h6rcwsr6f6287xlzn0stddf37epaagslvndn293lz9732pzjaea6qpzdyq6n8umnzgx6z3ma78sqjrxr6","addr1qxahptxx4272ny659h6rcwsr6f6287xlzn0stddf37epaagslvndn293lz9732pzjaea6qpzdyq6n8umnzgx6z3ma78sqjrxr6","addr1qxahptxx4272ny659h6rcwsr6f6287xlzn0stddf37epaagslvndn293lz9732pzjaea6qpzdyq6n8umnzgx6z3ma78sqjrxr6","addr1qxahptxx4272ny659h6rcwsr6f6287xlzn0stddf37epaagslvndn293lz9732pzjaea6qpzdyq6n8umnzgx6z3ma78sqjrxr6","addr1qxahptxx4272ny659h6rcwsr6f6287xlzn0stddf37epaagslvndn293lz9732pzjaea6qpzdyq6n8umnzgx6z3ma78sqjrxr6"],"addressesOutput":["DdzFFzCqrhsoYEfeMpHJn9cdeyuuTgHeW4S98UipVEw7kRYE9KHjJjJ5xe8ZpqvmHmYXaYKw6CGGViwAEJudie3jTL9evResK6Sc9y4h"],"fee":846247,"totalOutput":135000000,"tokens":[]},{"hash":"0eb6381e6d3e9087064c86c10c781baeeebdbb049c29b85dcdc2b297b8a70c44","blockNo":7837471,"blockHash":"528ab0a5e5ca604101199ef68abfc0d6e8aabd788938c81039e88fe8cbd5e00c","epochNo":367,"epochSlotNo":75448,"slot":73256248,"time":"2022/10/03 18:42:19","addressesInput":["addr1qxxlkl0ftj86sa6c8vjy0cnedmtjgd7u7nfqz6tkt645pt5dld77jhy04pm4sweygl38jmkhysmaeaxjq95hvh4tgzhqvwa4mc","addr1qxxlkl0ftj86sa6c8vjy0cnedmtjgd7u7nfqz6tkt645pt5dld77jhy04pm4sweygl38jmkhysmaeaxjq95hvh4tgzhqvwa4mc"],"addressesOutput":["addr1qxxlkl0ftj86sa6c8vjy0cnedmtjgd7u7nfqz6tkt645pt5dld77jhy04pm4sweygl38jmkhysmaeaxjq95hvh4tgzhqvwa4mc","addr1qxxlkl0ftj86sa6c8vjy0cnedmtjgd7u7nfqz6tkt645pt5dld77jhy04pm4sweygl38jmkhysmaeaxjq95hvh4tgzhqvwa4mc"],"fee":233854,"totalOutput":4650305407,"tokens":[]},{"hash":"7f797ac6951872214d72295f0d8ff237d4d5e5f570921c9c479c79f0f8b45afc","blockNo":7837471,"blockHash":"528ab0a5e5ca604101199ef68abfc0d6e8aabd788938c81039e88fe8cbd5e00c","epochNo":367,"epochSlotNo":75448,"slot":73256248,"time":"2022/10/03 18:42:19","addressesInput":["addr1v975mcqf4g7ls4m3m0e32cmy29mags82zd3jf0e0ff9zuvs3umydj"],"addressesOutput":["addr1qyw2paxzw75a002vjv57hqudg63p20l33vk6levuqjm7rsvl2xgpzhj52p955pvya257cqdwxx5aae0hkeavkckz38hsamk6vr","addr1vxrmu3m2cc5k6xltupj86a2uzcuq8r4nhznrhfq0pkwl4hgqj2v8w","addr1qyaap7vh662kdsw26478z4kpfyfkg9c29c8ekjaperpp8dqzwlzvdd2s2qhkp46shfdu9gn9zprkyewe33pvyu08jxgqm2manr"],"fee":214209,"totalOutput":59785791,"tokens":[]}],"totalItems":51163736,"totalPages":2558187,"currentPage":0}