{"data":[{"hash":"a917eba49ab273a3d05c3579ae5ce97ba444e9565dddc36e2032b62f5de0fde4","blockNo":8227992,"blockHash":"c09e8596348c7206b4d838c1ef841dd66bde4519d94f30365b0dbbfeb53a72de","epochNo":385,"epochSlotNo":333691,"slot":81290491,"time":"2023/01/04 18:26:22","addressesInput":["addr1zxgx3far7qygq0k6epa0zcvcvrevmn0ypsnfsue94nsn3tvpw288a4x0xf8pxgcntelxmyclq83s0ykeehchz2wtspks905plm","addr1q8se277eev4fszcgf5r7c9rtldt8s8qkqvvjde2u4cwavj5fe6e5tqh2zr7v4k0rl7jwupnsgaje7uhf9g7c4vwuvgyqz2vesw"],"addressesOutput":["addr1q8se277eev4fszcgf5r7c9rtldt8s8qkqvvjde2u4cwavj5fe6e5tqh2zr7v4k0rl7jwupnsgaje7uhf9g7c4vwuvgyqz2vesw","addr1q8se277eev4fszcgf5r7c9rtldt8s8qkqvvjde2u4cwavj5fe6e5tqh2zr7v4k0rl7jwupnsgaje7uhf9g7c4vwuvgyqz2vesw"],"fee":263983,"totalOutput":4183910528,"tokens":[]},{"hash":"5629ca6d4a1d076c3d0d8cdb73cca323d2e097aaf0f7de7636d9fc9800d80be6","blockNo":8227992,"blockHash":"c09e8596348c7206b4d838c1ef841dd66bde4519d94f30365b0dbbfeb53a72de","epochNo":385,"epochSlotNo":333691,"slot":81290491,"time":"2023/01/04 18:26:22","addressesInput":["addr1qxz3zrldxkkwlawrdx2w8ycsnz578r5nrrj96d7e2na9n32cd7gh928plcchqknd3duaxpl5zu86g5gqkd3npv58vvgs8tgtk0","addr1qxz3zrldxkkwlawrdx2w8ycsnz578r5nrrj96d7e2na9n32cd7gh928plcchqknd3duaxpl5zu86g5gqkd3npv58vvgs8tgtk0","addr1qxz3zrldxkkwlawrdx2w8ycsnz578r5nrrj96d7e2na9n32cd7gh928plcchqknd3duaxpl5zu86g5gqkd3npv58vvgs8tgtk0"],"addressesOutput":["addr1zxgx3far7qygq0k6epa0zcvcvrevmn0ypsnfsue94nsn3tvpw288a4x0xf8pxgcntelxmyclq83s0ykeehchz2wtspks905plm","addr1qxz3zrldxkkwlawrdx2w8ycsnz578r5nrrj96d7e2na9n32cd7gh928plcchqknd3duaxpl5zu86g5gqkd3npv58vvgs8tgtk0","addr1qxz3zrldxkkwlawrdx2w8ycsnz578r5nrrj96d7e2na9n32cd7gh928plcchqknd3duaxpl5zu86g5gqkd3npv58vvgs8tgtk0"],"fee":244041,"totalOutput":139519330,"tokens":[]},{"hash":"4b8cf86041fd2c982fb6856d7df7da6d184917ffadd7760d04db53a7460ce670","blockNo":8227992,"blockHash":"c09e8596348c7206b4d838c1ef841dd66bde4519d94f30365b0dbbfeb53a72de","epochNo":385,"epochSlotNo":333691,"slot":81290491,"time":"2023/01/04 18:26:22","addressesInput":["addr1zxgx3far7qygq0k6epa0zcvcvrevmn0ypsnfsue94nsn3tvpw288a4x0xf8pxgcntelxmyclq83s0ykeehchz2wtspks905plm","addr1q9rjrzfz4t0t0ezdc7an5v45yrt5gl6ezzchnpqqqd9f8d0fr2q5pdxl8v7k3v6zwsplka9cu303znlzrgvq77jw5y2s2fx7rn"],"addressesOutput":["addr1zxgx3far7qygq0k6epa0zcvcvrevmn0ypsnfsue94nsn3tvpw288a4x0xf8pxgcntelxmyclq83s0ykeehchz2wtspks905plm","addr1q9rjrzfz4t0t0ezdc7an5v45yrt5gl6ezzchnpqqqd9f8d0fr2q5pdxl8v7k3v6zwsplka9cu303znlzrgvq77jw5y2s2fx7rn"],"fee":315230,"totalOutput":10722522,"tokens":[]},{"hash":"968a7a025f2dfbcd3ed852c15afc25e7a716c733cfdb44d8947607edb64be36e","blockNo":8227992,"blockHash":"c09e8596348c7206b4d838c1ef841dd66bde4519d94f30365b0dbbfeb53a72de","epochNo":385,"epochSlotNo":333691,"slot":81290491,"time":"2023/01/04 18:26:22","addressesInput":["addr1zxgx3far7qygq0k6epa0zcvcvrevmn0ypsnfsue94nsn3tvpw288a4x0xf8pxgcntelxmyclq83s0ykeehchz2wtspks905plm","addr1q8a8d0z6fy22xlhd8gtxlywlwmwnnvjymzfy39kxpyflt79jtzesuu29thwp40gyxjttjglyq3tjjmz7ykly4wrrq33sql2dlz","addr1q8a8d0z6fy22xlhd8gtxlywlwmwnnvjymzfy39kxpyflt79jtzesuu29thwp40gyxjttjglyq3tjjmz7ykly4wrrq33sql2dlz"],"addressesOutput":["addr1q8a8d0z6fy22xlhd8gtxlywlwmwnnvjymzfy39kxpyflt79jtzesuu29thwp40gyxjttjglyq3tjjmz7ykly4wrrq33sql2dlz","addr1q8a8d0z6fy22xlhd8gtxlywlwmwnnvjymzfy39kxpyflt79jtzesuu29thwp40gyxjttjglyq3tjjmz7ykly4wrrq33sql2dlz"],"fee":269522,"totalOutput":157453635,"tokens":[]},{"hash":"e1633702badd52aeff5c76f86e969473289e16186ef3f5e81861bb570073d35e","blockNo":8227992,"blockHash":"c09e8596348c7206b4d838c1ef841dd66bde4519d94f30365b0dbbfeb53a72de","epochNo":385,"epochSlotNo":333691,"slot":81290491,"time":"2023/01/04 18:26:22","addressesInput":["addr1zxgx3far7qygq0k6epa0zcvcvrevmn0ypsnfsue94nsn3tvpw288a4x0xf8pxgcntelxmyclq83s0ykeehchz2wtspks905plm","addr1qytgwld5lqppmcgaucgesxtlefe4l97tn3afxga507sznhlga3ggngwg2mwzg6kh5remka8pr32nsxvrwv05cjlfuksqhj7x4a"],"addressesOutput":["addr1q86ylp637q7hv7a9r387nz8d9zdhem2v06pjyg75fvcmen3rg8t4q3f80r56p93xqzhcup0w7e5heq7lnayjzqau3dfs7yrls5","addr1q9cwvremt6n320s2e3agq0jyq82yhrk3htsu0w426xnz5us70z4w0jgvcdkkynmm8wmds66jd9kusnjfpu6raw5fqp0sr07p5w","addr1qyzepks7slj9009xhlqcg0wu2k5waw66a0t7l5dzpjacs997t4jg8jg4zknw0vtelhqn3pjlph32fpyrc9srfstnapdst40rzp","addr1qytgwld5lqppmcgaucgesxtlefe4l97tn3afxga507sznhlga3ggngwg2mwzg6kh5remka8pr32nsxvrwv05cjlfuksqhj7x4a","addr1qytgwld5lqppmcgaucgesxtlefe4l97tn3afxga507sznhlga3ggngwg2mwzg6kh5remka8pr32nsxvrwv05cjlfuksqhj7x4a"],"fee":396255,"totalOutput":120781889,"tokens":[]},{"hash":"7e993e78f2a5c0b831696df21434ef4d18641b4b0e6b3857070a31cd947d3775","blockNo":8227992,"blockHash":"c09e8596348c7206b4d838c1ef841dd66bde4519d94f30365b0dbbfeb53a72de","epochNo":385,"epochSlotNo":333691,"slot":81290491,"time":"2023/01/04 18:26:22","addressesInput":["addr1v8u8957hpjcw9x4t3ajezt9sqk9ywvq7qmsflrqvgt5f03g9tc7d7"],"addressesOutput":["addr1qygm0pq0vtvce6lvkj9w940vzwyvjxayap5v0ecw2rjcfqfvl0l5ezuf76rxdvgjtk5utkevv3e5rtuxpq9837w385qsw0a82u","addr1q8tx5g9cnj9t83xe8x9ns2wrd3drrvpzpe9hca2uwdrvy3c7apys7s4hq3u8yet6s4hu5mrax27hlk35jdw0zyhn4r3qf3vww9","addr1q9phzqu5dncp83ztval7s9q9lwpghxj3mlgmvcdm9ted84tm8k8mxjhpfz8ta4jjgf797dgsnpcqjzazxzhxlt9jggmstacy98"],"fee":206157,"totalOutput":64793843,"tokens":[]},{"hash":"297176d4d8895c3b0f9fbc0784411d65aea792d7f6932c8ced08c7027530a9c6","blockNo":8227992,"blockHash":"c09e8596348c7206b4d838c1ef841dd66bde4519d94f30365b0dbbfeb53a72de","epochNo":385,"epochSlotNo":333691,"slot":81290491,"time":"2023/01/04 18:26:22","addressesInput":["addr1qx576e6prk6jk9t0k5azl5vat7y6xtapgjwqurqspq4cxfjc5cs72a8en3hcydwahs0hnt5sqs8spgl3l0utchsjvsls90xlsw","addr1q8gqarkxy3k5xu4k8ywlur5z6pp0f9eev4ps08wz3zdjkwm6jsglxzcktpmlgc9lhgh48fcge3wwkthk98whdx2a9mss54dtup"],"addressesOutput":["addr1qx576e6prk6jk9t0k5azl5vat7y6xtapgjwqurqspq4cxfjc5cs72a8en3hcydwahs0hnt5sqs8spgl3l0utchsjvsls90xlsw","addr1qx576e6prk6jk9t0k5azl5vat7y6xtapgjwqurqspq4cxfjc5cs72a8en3hcydwahs0hnt5sqs8spgl3l0utchsjvsls90xlsw","addr1q8gqarkxy3k5xu4k8ywlur5z6pp0f9eev4ps08wz3zdjkwm6jsglxzcktpmlgc9lhgh48fcge3wwkthk98whdx2a9mss54dtup","addr1qxsgae4x0z3q0hjjqcwya7vzp9f9ex52lrly0wadmfgvhpfyzttqmp0evfcrwxkda77m5lg8c9ta2aafdf83jxyvhw3sgp9v30"],"fee":193749,"totalOutput":71554058,"tokens":[]},{"hash":"fa40b33b882968c430cb94089203069fead64ba11ac7c8205f2aa75f4c710709","blockNo":8227992,"blockHash":"c09e8596348c7206b4d838c1ef841dd66bde4519d94f30365b0dbbfeb53a72de","epochNo":385,"epochSlotNo":333691,"slot":81290491,"time":"2023/01/04 18:26:22","addressesInput":["addr1vypvkl7gntq7j0mhph89xaqsdde45zfazttfq4ffd9kjxdsqf4qg0"],"addressesOutput":["addr1qykm2jwx0ts2frprgj8t3z7pfld2lw7s9r3wgeqgg0dyfl6wjy5fr5nft2wpwvs6uucvgtyau7qhsq0af33hypmzkrmqm0svvc","addr1v8mn6dmk7tf9u26kr09a05lmvc9j4k9d940a88ta3hdczqgyt7whl"],"fee":197381,"totalOutput":26693982776,"tokens":[]},{"hash":"10ee7b5f58e560a378eb65750be9b6fa9e1cd25b1c24eb24e44e31f18f59f7ca","blockNo":8227992,"blockHash":"c09e8596348c7206b4d838c1ef841dd66bde4519d94f30365b0dbbfeb53a72de","epochNo":385,"epochSlotNo":333691,"slot":81290491,"time":"2023/01/04 18:26:22","addressesInput":["addr1qx6nf2mpkgatu27ka0s8rxz46f72yla2wp6c726yarqku4xj2m5spwycrp7hs40f6aruym7er3l4neh9cqyvat9t4nksmtyqlv"],"addressesOutput":["addr1q9awkcmp7pcuc3kpr0pj53aj786ea5n70fp62z5hypuauea5dp2a4ev7fnxqazv5s6sh3nggallk2g7wamg9ldg93ujs4hy8j3","addr1qxfdrrtktedhwp5l4x0rv5plavjyvzq9uc6gqhdzzm4hhh7j2m5spwycrp7hs40f6aruym7er3l4neh9cqyvat9t4nksesapvc"],"fee":170385,"totalOutput":2609209690,"tokens":[]},{"hash":"3d46ad8d1ca3ba17accdc992ba75ec37c7cc2143c379c5791782a1177ba9488b","blockNo":8227992,"blockHash":"c09e8596348c7206b4d838c1ef841dd66bde4519d94f30365b0dbbfeb53a72de","epochNo":385,"epochSlotNo":333691,"slot":81290491,"time":"2023/01/04 18:26:22","addressesInput":["addr1q9z3g3en534jl9pxa68axcgz38hapvkju40ruul8wm0sgptz8kdmkj3htua4srzks2g8cszvtnkkelqacamk8lms4pvsmmvjdn","addr1q9z3g3en534jl9pxa68axcgz38hapvkju40ruul8wm0sgptz8kdmkj3htua4srzks2g8cszvtnkkelqacamk8lms4pvsmmvjdn"],"addressesOutput":["addr1qy4nsw22t8tcwjdl6afdrlu9np45a4xkxt23ygmmxn8vyets6z4ra5jvevg25nwsxzn7d9sdqjn4k9nwa5xs9gsns85qgz32ze"],"fee":167333,"totalOutput":16648564,"tokens":[]},{"hash":"e9675f83d5b39ddda2feabecaf6638807c85f3d4c6618e37d7ac63078a394b40","blockNo":8227992,"blockHash":"c09e8596348c7206b4d838c1ef841dd66bde4519d94f30365b0dbbfeb53a72de","epochNo":385,"epochSlotNo":333691,"slot":81290491,"time":"2023/01/04 18:26:22","addressesInput":["addr1zxgx3far7qygq0k6epa0zcvcvrevmn0ypsnfsue94nsn3tvpw288a4x0xf8pxgcntelxmyclq83s0ykeehchz2wtspks905plm","addr1qxapzjjssvnnynlt2fu7wdagrwpx2yz8kn8mjkms20hw5ldqegznle07krwgkmg67zys67f8yfzace7f282sx0ncylcsnz7l88","addr1qxapzjjssvnnynlt2fu7wdagrwpx2yz8kn8mjkms20hw5ldqegznle07krwgkmg67zys67f8yfzace7f282sx0ncylcsnz7l88"],"addressesOutput":["addr1qxehtwulcnhmzq6mhnpltyl5c0lag0ufy5qyhanf76ppr8ylh95xcufa6pyn9f2qussy0ua52q7uv0wjgqsvlh2d4hlsgsptw4","addr1q9cwvremt6n320s2e3agq0jyq82yhrk3htsu0w426xnz5us70z4w0jgvcdkkynmm8wmds66jd9kusnjfpu6raw5fqp0sr07p5w","addr1qxhuf4fw3lrmffe6wl80tw5gua3cwqy5yssd5kyysq7emrkt0ezylz4c6k4utf0nugy6t6lm53c03xxjhljk5z2x350qejhrvm","addr1qxapzjjssvnnynlt2fu7wdagrwpx2yz8kn8mjkms20hw5ldqegznle07krwgkmg67zys67f8yfzace7f282sx0ncylcsnz7l88","addr1qxapzjjssvnnynlt2fu7wdagrwpx2yz8kn8mjkms20hw5ldqegznle07krwgkmg67zys67f8yfzace7f282sx0ncylcsnz7l88"],"fee":403983,"totalOutput":174853606,"tokens":[]},{"hash":"8c82d3ffc88ec3c3a3e188cf10ae33e7481967be5e7848dc60e62cc8a1e12053","blockNo":8227992,"blockHash":"c09e8596348c7206b4d838c1ef841dd66bde4519d94f30365b0dbbfeb53a72de","epochNo":385,"epochSlotNo":333691,"slot":81290491,"time":"2023/01/04 18:26:22","addressesInput":["addr1qy5fwqyls5ujrhm72xmdxnl6snv2f4h5e7kvre22sushgdx76xvxwgqp8fjewfydf25hvgh8mpquxl9gas0tuxj8l9rseyjycf","addr1wy30zf2g4xc7v872fdweewrlj3lh2lgttelmydn0cvhyplsg3vnkq"],"addressesOutput":["addr1qy5fwqyls5ujrhm72xmdxnl6snv2f4h5e7kvre22sushgdx76xvxwgqp8fjewfydf25hvgh8mpquxl9gas0tuxj8l9rseyjycf","addr1wy30zf2g4xc7v872fdweewrlj3lh2lgttelmydn0cvhyplsg3vnkq"],"fee":817437,"totalOutput":586182563,"tokens":[]},{"hash":"f2c85d0d618fe4a23ccf6282be35b25702bc02af1a81926f6d5c0a5fddd12c1b","blockNo":8227992,"blockHash":"c09e8596348c7206b4d838c1ef841dd66bde4519d94f30365b0dbbfeb53a72de","epochNo":385,"epochSlotNo":333691,"slot":81290491,"time":"2023/01/04 18:26:22","addressesInput":["addr1w82z6yrftsxz77el0ce2q4vuspcym2x0xgpgneurrwvasfge778fd","addr1w9jx45flh83z6wuqypyash54mszwmdj8r64fydafxtfc6jgrw4rm3","addr1w9jx45flh83z6wuqypyash54mszwmdj8r64fydafxtfc6jgrw4rm3","addr1w9jx45flh83z6wuqypyash54mszwmdj8r64fydafxtfc6jgrw4rm3","addr1vynz6z9jmu9t9ftj830kxr43dslacqnktpv3vcdhymzx2zsg4cuk6","addr1w9jx45flh83z6wuqypyash54mszwmdj8r64fydafxtfc6jgrw4rm3","addr1w9jx45flh83z6wuqypyash54mszwmdj8r64fydafxtfc6jgrw4rm3","addr1w9jx45flh83z6wuqypyash54mszwmdj8r64fydafxtfc6jgrw4rm3","addr1w9jx45flh83z6wuqypyash54mszwmdj8r64fydafxtfc6jgrw4rm3"],"addressesOutput":["addr1w82z6yrftsxz77el0ce2q4vuspcym2x0xgpgneurrwvasfge778fd","addr1vynz6z9jmu9t9ftj830kxr43dslacqnktpv3vcdhymzx2zsg4cuk6"],"fee":1978930,"totalOutput":58658764781,"tokens":[]},{"hash":"eb496ffe1b795924be9dce67059f999b7ca88e4a6c3c4b669fab01b6033fca13","blockNo":8227991,"blockHash":"4960e4dceb17738d7f0be9b01e48d71356b1ecf7ed36fa3bf8b895d584e494cc","epochNo":385,"epochSlotNo":333688,"slot":81290488,"time":"2023/01/04 18:26:19","addressesInput":["addr1wxn9efv2f6w82hagxqtn62ju4m293tqvw0uhmdl64ch8uwc0h43gt","addr1qyht4ja0zcn45qvyx477qlyp6j5ftu5ng0prt9608dxp6l2j2c79gy9l76sdg0xwhd7r0c0kna0tycz4y5s6mlenh8pq4jxtdy","addr1z8snz7c4974vzdpxu65ruphl3zjdvtxw8strf2c2tmqnxz2j2c79gy9l76sdg0xwhd7r0c0kna0tycz4y5s6mlenh8pq0xmsha","addr1qyht4ja0zcn45qvyx477qlyp6j5ftu5ng0prt9608dxp6l2j2c79gy9l76sdg0xwhd7r0c0kna0tycz4y5s6mlenh8pq4jxtdy"],"addressesOutput":["addr1qyht4ja0zcn45qvyx477qlyp6j5ftu5ng0prt9608dxp6l2j2c79gy9l76sdg0xwhd7r0c0kna0tycz4y5s6mlenh8pq4jxtdy","addr1qyht4ja0zcn45qvyx477qlyp6j5ftu5ng0prt9608dxp6l2j2c79gy9l76sdg0xwhd7r0c0kna0tycz4y5s6mlenh8pq4jxtdy","addr1q95d4g4tl4l8lawf9ny3npj3jr39jwnuee3hf6wyeehqjwk3wq8dtc3a50qg7p7xe52qvermjyut7k2wkrtmdvncattsvpyujt","addr1z8snz7c4974vzdpxu65ruphl3zjdvtxw8strf2c2tmqnxz2j2c79gy9l76sdg0xwhd7r0c0kna0tycz4y5s6mlenh8pq0xmsha"],"fee":820760,"totalOutput":17147359159,"tokens":[]},{"hash":"e75a20adf1b3f901779fbf553bb0773a2a3e60a4a783355bb622439d3c460056","blockNo":8227991,"blockHash":"4960e4dceb17738d7f0be9b01e48d71356b1ecf7ed36fa3bf8b895d584e494cc","epochNo":385,"epochSlotNo":333688,"slot":81290488,"time":"2023/01/04 18:26:19","addressesInput":["addr1qxuqqfrdz40ymtxq7zm7803jfd5qsswe898eavscqy0mjww79z3exx4n35r0zn09jv3t8vteq49ctlwnmp2umf7a0a2snh63wu","addr1qxuqqfrdz40ymtxq7zm7803jfd5qsswe898eavscqy0mjww79z3exx4n35r0zn09jv3t8vteq49ctlwnmp2umf7a0a2snh63wu","addr1qxuqqfrdz40ymtxq7zm7803jfd5qsswe898eavscqy0mjww79z3exx4n35r0zn09jv3t8vteq49ctlwnmp2umf7a0a2snh63wu"],"addressesOutput":["addr1z8n7s4g2ux528ch6ty3sq3nz65706chdvfykun0hf9kyvtq92vl27xmdcqhdvcu632a585gfsgx9h29atl8uhqph2rdsgkfpn3","addr1qxuqqfrdz40ymtxq7zm7803jfd5qsswe898eavscqy0mjww79z3exx4n35r0zn09jv3t8vteq49ctlwnmp2umf7a0a2snh63wu","addr1qxuqqfrdz40ymtxq7zm7803jfd5qsswe898eavscqy0mjww79z3exx4n35r0zn09jv3t8vteq49ctlwnmp2umf7a0a2snh63wu"],"fee":241533,"totalOutput":13221088,"tokens":[]},{"hash":"7e365a08248a4260905006c195080b042ce1766d818a8e973885db6cd7504f08","blockNo":8227991,"blockHash":"4960e4dceb17738d7f0be9b01e48d71356b1ecf7ed36fa3bf8b895d584e494cc","epochNo":385,"epochSlotNo":333688,"slot":81290488,"time":"2023/01/04 18:26:19","addressesInput":["addr1qxds2srt8aulvqcjg3nuad7tlze9dgs74392zma0gmz9fdsw566lhmpvn5lxcsq5czx8uy93ughszjlxpf6uxxgj7g7q84k47m","addr1q984qpe0fsfgd6jjlregfrh2l4nculsxwkuglspdax4fleqw566lhmpvn5lxcsq5czx8uy93ughszjlxpf6uxxgj7g7q7v0nxu"],"addressesOutput":["Ae2tdPwUPEZJJS7vmkUcWhKV17KGZ8cRAJJRR1Eu4rEL6dPXo2Y3sB6J26P","addr1qyznjzf7ndd8nzjce80tf609wrj0qu827ckld58dss9npuqw566lhmpvn5lxcsq5czx8uy93ughszjlxpf6uxxgj7g7qcy7cff"],"fee":184201,"totalOutput":10009013814,"tokens":[]},{"hash":"2321549975a9d488abaa0f8520325ae36736e05c71e0f6937813566d48421d6f","blockNo":8227991,"blockHash":"4960e4dceb17738d7f0be9b01e48d71356b1ecf7ed36fa3bf8b895d584e494cc","epochNo":385,"epochSlotNo":333688,"slot":81290488,"time":"2023/01/04 18:26:19","addressesInput":["addr1v8ztnw8gd4gq8s7a5aknry2vvdn48j9cp90me35tx7dedtqantyjv"],"addressesOutput":["addr1q87zdn98e39kwqev8rkk545zxlxqtwnnuvwnw5vcllsw0atvg5rgp8086x0tndsejz8zqf68r6tla9fmxg62ga39s4sq3660m2","addr1q8tx5g9cnj9t83xe8x9ns2wrd3drrvpzpe9hca2uwdrvy3c7apys7s4hq3u8yet6s4hu5mrax27hlk35jdw0zyhn4r3qf3vww9","addr1q9phzqu5dncp83ztval7s9q9lwpghxj3mlgmvcdm9ted84tm8k8mxjhpfz8ta4jjgf797dgsnpcqjzazxzhxlt9jggmstacy98"],"fee":404245,"totalOutput":714595755,"tokens":[]},{"hash":"f113153a8e661af38ef113d04c62379dda652b77f502cf86e54d9721015e9a2f","blockNo":8227991,"blockHash":"4960e4dceb17738d7f0be9b01e48d71356b1ecf7ed36fa3bf8b895d584e494cc","epochNo":385,"epochSlotNo":333688,"slot":81290488,"time":"2023/01/04 18:26:19","addressesInput":["addr1zxgx3far7qygq0k6epa0zcvcvrevmn0ypsnfsue94nsn3tvpw288a4x0xf8pxgcntelxmyclq83s0ykeehchz2wtspks905plm","addr1q8k7dutn48cdnzsn9g03mycy87th5tex5n6k6q44l4c2599w8xvelz6d93e0w6jk7lhhcq2k306ahd56x742jad7xsksq44rlf","addr1q8k7dutn48cdnzsn9g03mycy87th5tex5n6k6q44l4c2599w8xvelz6d93e0w6jk7lhhcq2k306ahd56x742jad7xsksq44rlf","addr1q8k7dutn48cdnzsn9g03mycy87th5tex5n6k6q44l4c2599w8xvelz6d93e0w6jk7lhhcq2k306ahd56x742jad7xsksq44rlf"],"addressesOutput":["addr1qynwvkwwv8yn4nepa4lfwm276um99la46d8k6htuzp4d89gl258sp0z85s6hekppvhtc28sarkyg4n62l7hyfy2lwd4sg5we7f","addr1q9cwvremt6n320s2e3agq0jyq82yhrk3htsu0w426xnz5us70z4w0jgvcdkkynmm8wmds66jd9kusnjfpu6raw5fqp0sr07p5w","addr1qyst3sdg7vlhztd6cdx08fndvhw93wt9hsycrrnssjhxtrj7hvy7evmq2ng9t5qdp84kjctmehcw84lcy09yaqwt96pseupf8g","addr1q8k7dutn48cdnzsn9g03mycy87th5tex5n6k6q44l4c2599w8xvelz6d93e0w6jk7lhhcq2k306ahd56x742jad7xsksq44rlf","addr1q8k7dutn48cdnzsn9g03mycy87th5tex5n6k6q44l4c2599w8xvelz6d93e0w6jk7lhhcq2k306ahd56x742jad7xsksq44rlf","addr1q8k7dutn48cdnzsn9g03mycy87th5tex5n6k6q44l4c2599w8xvelz6d93e0w6jk7lhhcq2k306ahd56x742jad7xsksq44rlf","addr1q8k7dutn48cdnzsn9g03mycy87th5tex5n6k6q44l4c2599w8xvelz6d93e0w6jk7lhhcq2k306ahd56x742jad7xsksq44rlf"],"fee":440647,"totalOutput":825533330,"tokens":[]},{"hash":"beed5b7416398f89fa480ca9674dbecacac9b5cd16247a8b05b2d75563d43837","blockNo":8227991,"blockHash":"4960e4dceb17738d7f0be9b01e48d71356b1ecf7ed36fa3bf8b895d584e494cc","epochNo":385,"epochSlotNo":333688,"slot":81290488,"time":"2023/01/04 18:26:19","addressesInput":["addr1qxq4e7804g980q00ddpdkrhgh9el3h4uewczs2aef25ut764mya972xe80ufcreq42zhv6f2ghfkpa0jacsyzhvfs84ssa0x3j","addr1qxq4e7804g980q00ddpdkrhgh9el3h4uewczs2aef25ut764mya972xe80ufcreq42zhv6f2ghfkpa0jacsyzhvfs84ssa0x3j"],"addressesOutput":["addr1qxq4e7804g980q00ddpdkrhgh9el3h4uewczs2aef25ut764mya972xe80ufcreq42zhv6f2ghfkpa0jacsyzhvfs84ssa0x3j","addr1qxq4e7804g980q00ddpdkrhgh9el3h4uewczs2aef25ut764mya972xe80ufcreq42zhv6f2ghfkpa0jacsyzhvfs84ssa0x3j","addr1qxq4e7804g980q00ddpdkrhgh9el3h4uewczs2aef25ut764mya972xe80ufcreq42zhv6f2ghfkpa0jacsyzhvfs84ssa0x3j"],"fee":196829,"totalOutput":1619362092,"tokens":[]},{"hash":"9c06b70bf8ecd5145672748678307519f531c8587b949dc68b848714be5c8887","blockNo":8227991,"blockHash":"4960e4dceb17738d7f0be9b01e48d71356b1ecf7ed36fa3bf8b895d584e494cc","epochNo":385,"epochSlotNo":333688,"slot":81290488,"time":"2023/01/04 18:26:19","addressesInput":["addr1q8rw2jatlhgf6lhrd9l5gvpcmvvsqmgtlrgnkagzmz4mzl6pxqu8amhvprp4lycx7k8g8mkrjgctsgve70qullas0lcq7trn3q","addr1qxkl25urdhapqldqpfdskvz39c9vsz8rtqh4yahpnddcp72pxqu8amhvprp4lycx7k8g8mkrjgctsgve70qullas0lcqa35hgv","addr1qxkl25urdhapqldqpfdskvz39c9vsz8rtqh4yahpnddcp72pxqu8amhvprp4lycx7k8g8mkrjgctsgve70qullas0lcqa35hgv","addr1qxxlgfxxgf6n3mezq8yl8fftlfeelrhz8wndg7vacvdeyx6pxqu8amhvprp4lycx7k8g8mkrjgctsgve70qullas0lcquhhmhn"],"addressesOutput":["addr1zxgx3far7qygq0k6epa0zcvcvrevmn0ypsnfsue94nsn3tvpw288a4x0xf8pxgcntelxmyclq83s0ykeehchz2wtspks905plm","addr1qxkl25urdhapqldqpfdskvz39c9vsz8rtqh4yahpnddcp72pxqu8amhvprp4lycx7k8g8mkrjgctsgve70qullas0lcqa35hgv","addr1qxkl25urdhapqldqpfdskvz39c9vsz8rtqh4yahpnddcp72pxqu8amhvprp4lycx7k8g8mkrjgctsgve70qullas0lcqa35hgv"],"fee":239817,"totalOutput":89102959,"tokens":[]}],"totalItems":58178687,"totalPages":2908935,"currentPage":0}