{"data":[{"hash":"ba7e6d46495c4a9d5bbb58f373b70ee465ebe1fe0df59977bb12cf0b1ab162d5","blockNo":6831372,"blockHash":"06088c943b4e26a1fa3a0b8947f46603a1c313aa898f019cf5a4e1be163b0f0b","epochNo":318,"epochSlotNo":202667,"slot":52215467,"time":"2022/02/02 06:02:38","addressesInput":["addr1q8yz336ckk75mzj8e0whpu428dmpapz5ccsqnlme2asawvc3ws75lp0dqyhh0llcfgphw6x4rcmyrjnte0fl5dut4n2q598jps"],"addressesOutput":["addr1vyhe8f8nhzx2saqjsvjpkr56fktmhxjqe2w5zy63vr8z0lq0yksvm","addr1qx5g80uc3v8sc873xnj7q8t7d7k9p2uhphkyygteqzahhzg3ws75lp0dqyhh0llcfgphw6x4rcmyrjnte0fl5dut4n2qs3lkcl"],"fee":182177,"totalOutput":104052289,"tokens":[]},{"hash":"e4765eb9388ae182f8d23bc13e6095234ca7049c16f18b396feeab52c8f2fcb8","blockNo":6831372,"blockHash":"06088c943b4e26a1fa3a0b8947f46603a1c313aa898f019cf5a4e1be163b0f0b","epochNo":318,"epochSlotNo":202667,"slot":52215467,"time":"2022/02/02 06:02:38","addressesInput":["addr1q9g0a8ht3ln776096kjwwfrr8rel5tlung82r5p9j5eyx3s97x0tykezmrf2ma4k5s88s42gq78dut7hc2lwjz8x54ps6yx2v2","addr1q9g0a8ht3ln776096kjwwfrr8rel5tlung82r5p9j5eyx3s97x0tykezmrf2ma4k5s88s42gq78dut7hc2lwjz8x54ps6yx2v2","addr1q9g0a8ht3ln776096kjwwfrr8rel5tlung82r5p9j5eyx3s97x0tykezmrf2ma4k5s88s42gq78dut7hc2lwjz8x54ps6yx2v2","addr1q9g0a8ht3ln776096kjwwfrr8rel5tlung82r5p9j5eyx3s97x0tykezmrf2ma4k5s88s42gq78dut7hc2lwjz8x54ps6yx2v2","addr1q9g0a8ht3ln776096kjwwfrr8rel5tlung82r5p9j5eyx3s97x0tykezmrf2ma4k5s88s42gq78dut7hc2lwjz8x54ps6yx2v2","addr1q9g0a8ht3ln776096kjwwfrr8rel5tlung82r5p9j5eyx3s97x0tykezmrf2ma4k5s88s42gq78dut7hc2lwjz8x54ps6yx2v2","addr1q9g0a8ht3ln776096kjwwfrr8rel5tlung82r5p9j5eyx3s97x0tykezmrf2ma4k5s88s42gq78dut7hc2lwjz8x54ps6yx2v2","addr1q9g0a8ht3ln776096kjwwfrr8rel5tlung82r5p9j5eyx3s97x0tykezmrf2ma4k5s88s42gq78dut7hc2lwjz8x54ps6yx2v2","addr1q9g0a8ht3ln776096kjwwfrr8rel5tlung82r5p9j5eyx3s97x0tykezmrf2ma4k5s88s42gq78dut7hc2lwjz8x54ps6yx2v2","addr1q9g0a8ht3ln776096kjwwfrr8rel5tlung82r5p9j5eyx3s97x0tykezmrf2ma4k5s88s42gq78dut7hc2lwjz8x54ps6yx2v2","addr1q9g0a8ht3ln776096kjwwfrr8rel5tlung82r5p9j5eyx3s97x0tykezmrf2ma4k5s88s42gq78dut7hc2lwjz8x54ps6yx2v2"],"addressesOutput":["addr1q8c9rukqlryezjvudylz4ns7g5mcfuhplmn2uk3yqar9vm0zze6rg05sezcp3zlt08qn3m6m6cpwm5sr0n3xvtlfm4aqgvcx5j","addr1q9g0a8ht3ln776096kjwwfrr8rel5tlung82r5p9j5eyx3s97x0tykezmrf2ma4k5s88s42gq78dut7hc2lwjz8x54ps6yx2v2","addr1q9g0a8ht3ln776096kjwwfrr8rel5tlung82r5p9j5eyx3s97x0tykezmrf2ma4k5s88s42gq78dut7hc2lwjz8x54ps6yx2v2"],"fee":279769,"totalOutput":87347630487,"tokens":[]},{"hash":"b413463b960da1693cd963c1d04e9015235c72863a6329b3fa44064d49d02e8c","blockNo":6831372,"blockHash":"06088c943b4e26a1fa3a0b8947f46603a1c313aa898f019cf5a4e1be163b0f0b","epochNo":318,"epochSlotNo":202667,"slot":52215467,"time":"2022/02/02 06:02:38","addressesInput":["addr1v95sf69jcfhnmknvffwmfvlvnccatqwfjcyh0nlfc6gh5scta2yzg"],"addressesOutput":["addr1qy7vckv58mv82znsmep00hekz8sed8jksppr3vl5h9d6ud4htyd80d80zdl74mp9nsruq7nx97llza76zsp5l8hf0yns75gcj4","addr1vypr00ss7hkqejmvh53xkyf0p9q0a4z2uprxmx6njc463vgst3pe4"],"fee":171221,"totalOutput":802528058,"tokens":[]},{"hash":"c0c0ab1138a79a8b960404816ba30163962b5b0501beb76199f101e455ffef63","blockNo":6831372,"blockHash":"06088c943b4e26a1fa3a0b8947f46603a1c313aa898f019cf5a4e1be163b0f0b","epochNo":318,"epochSlotNo":202667,"slot":52215467,"time":"2022/02/02 06:02:38","addressesInput":["addr1vyp6tshmlkhw37qw90exxxf95c0t2lhx59pg3a8sqd4nsmq5k4r7w","addr1vy5dmf5h4xjje6d7lagdxppvy70dyj5x4cxcpxavvn2vwuqm5wnxp","addr1vxlhtswjtxjzd4gntqy54mh6ydqtan4kncr7pzp62jcvwgsel7cd4","addr1vx0rklrlp9wjvx5vjy7tmunvgpe2ryyt9wyy5ytyk7k29jc5j0ucq","addr1v9we547xfsgahl2mj8kpkhpwj5nnw80ng9qvcxgwhsp226q8wy930","addr1v8el0cpvhtc8lmpyly6ncwd9c426xjxn90lj2ekssnw3urgdgn77l","addr1vygsm9qsf6gksmsefzen3hsuau7jyslyyk68x6yqh474sagsxl34t","addr1v9ww300mnrsq6zcpk8rsgr3287hjz9wrf238gt4j5eq2aegf6yt37","addr1vy29gl3396gvph7ucn9y9gcnnq5g0y42yn6d36xheam8e5g7f5hfd","addr1v9usc8u3ypzc884jauw2ql9408uwwqsa3dj3eq5kylsquqcx8jlh9","addr1vy9rp6a849v89yu80wnfjfcvam6q757axxj6xw5n0xe7ljcpge9jh","addr1vy3qpx09uscywhppj5vp08hu0ekg9zwmq2ysfq6qyh2mpps865j6t","addr1vy0rzktdrtfeu6urn9w8v4z9faqtjvzectkeuzzl9h0qnpccjp2v5","addr1vxr9f336af4yntz87gtdrrhdj5cxuch5jpk9zljpllezgxgcx6v3r","addr1vyvmdaqanttyyclt57fd9ehh9hrwfaf8al40axvsr4yfe8qha05am","addr1vxxpm9xmtlh6pzncj2zcphccwnztw6dcnlqz5m3smvj6zxqhz5drf","addr1v8pr9mwnqarw808gtllvmlxvk70hnszrukjeqfstr9t9g5crud8c4","addr1vx5cdygdznlx5hlvaunpxhx7nqkygnzy3x2y67zld3p59eclcyhnn","addr1vyx3g7tu83qnfxg6hy8992n8xahelkhpx67peya2jdg94fsckecr0","addr1vxkrrfme83jhqcwpcmx5k9pvdlets8tklgpnrsefwpnys5csq6tk7","addr1vyp5ayk0822akma8lfajwpmytcdprzk6dlxw60gvf27nt8cge27zt"],"addressesOutput":["addr1vy3qpx09uscywhppj5vp08hu0ekg9zwmq2ysfq6qyh2mpps865j6t","addr1v8pr9mwnqarw808gtllvmlxvk70hnszrukjeqfstr9t9g5crud8c4","addr1qx80mtytq34dquptgrchafudztnfs7mz060vfdrytzkzw9fv0ft3jswa53tlhzputcfq94kgjmwg4r9ct9q392keddwqegaauw","addr1qy0e80jz6j0wnfyktgj7vknyr9g6pn8z0lnyhvzjf330cjs92a3plknqwc5rchtdv2x0le9v5vfsjp7dqdv84gtv5x8qaarwwr","addr1vyp6tshmlkhw37qw90exxxf95c0t2lhx59pg3a8sqd4nsmq5k4r7w","addr1vy5dmf5h4xjje6d7lagdxppvy70dyj5x4cxcpxavvn2vwuqm5wnxp","addr1vy29gl3396gvph7ucn9y9gcnnq5g0y42yn6d36xheam8e5g7f5hfd","addr1v9usc8u3ypzc884jauw2ql9408uwwqsa3dj3eq5kylsquqcx8jlh9","addr1vyvmdaqanttyyclt57fd9ehh9hrwfaf8al40axvsr4yfe8qha05am","addr1vyx3g7tu83qnfxg6hy8992n8xahelkhpx67peya2jdg94fsckecr0","addr1vxkrrfme83jhqcwpcmx5k9pvdlets8tklgpnrsefwpnys5csq6tk7","addr1v9we547xfsgahl2mj8kpkhpwj5nnw80ng9qvcxgwhsp226q8wy930","addr1vxxpm9xmtlh6pzncj2zcphccwnztw6dcnlqz5m3smvj6zxqhz5drf","addr1vx0rklrlp9wjvx5vjy7tmunvgpe2ryyt9wyy5ytyk7k29jc5j0ucq","addr1v8el0cpvhtc8lmpyly6ncwd9c426xjxn90lj2ekssnw3urgdgn77l","addr1vxr9f336af4yntz87gtdrrhdj5cxuch5jpk9zljpllezgxgcx6v3r","addr1vyp5ayk0822akma8lfajwpmytcdprzk6dlxw60gvf27nt8cge27zt","addr1v9ww300mnrsq6zcpk8rsgr3287hjz9wrf238gt4j5eq2aegf6yt37","addr1vxlhtswjtxjzd4gntqy54mh6ydqtan4kncr7pzp62jcvwgsel7cd4","addr1vygsm9qsf6gksmsefzen3hsuau7jyslyyk68x6yqh474sagsxl34t","addr1vy0rzktdrtfeu6urn9w8v4z9faqtjvzectkeuzzl9h0qnpccjp2v5"],"fee":403717,"totalOutput":7020898090,"tokens":[]},{"hash":"97e2f705555bba9abeca414248f3a5d1be01da208ae22718c5c744d884175974","blockNo":6831372,"blockHash":"06088c943b4e26a1fa3a0b8947f46603a1c313aa898f019cf5a4e1be163b0f0b","epochNo":318,"epochSlotNo":202667,"slot":52215467,"time":"2022/02/02 06:02:38","addressesInput":["addr1v95sf69jcfhnmknvffwmfvlvnccatqwfjcyh0nlfc6gh5scta2yzg","addr1v95sf69jcfhnmknvffwmfvlvnccatqwfjcyh0nlfc6gh5scta2yzg"],"addressesOutput":["DdzFFzCqrhszN9ELmsBmCKQFimBYxJRr4Lj2H9EmiuQ5VH6pUDG99jRBBhYwvMgqvZ6DkyqeR2zAosAdF1Fe95YC16QDHChVLsEu7GFr","addr1v95sf69jcfhnmknvffwmfvlvnccatqwfjcyh0nlfc6gh5scta2yzg"],"fee":180021,"totalOutput":8790032,"tokens":[]},{"hash":"76ab7e33f73777ac550db365712ad7e3a8221dcdd83124c9e54258279e6a81a8","blockNo":6831372,"blockHash":"06088c943b4e26a1fa3a0b8947f46603a1c313aa898f019cf5a4e1be163b0f0b","epochNo":318,"epochSlotNo":202667,"slot":52215467,"time":"2022/02/02 06:02:38","addressesInput":["addr1q8ycy3pvlqu85qfw66wrlzzkld0pswq3n6mpfy9ul8w3ds94dme449s6usvkutcg87hx2gx8zl57kycfkkn8xq6yjexqmjxk7j","addr1q9m6lm038egw02sp60s2cs2n0srzhhm7nvcvvpjyje2yada4dme449s6usvkutcg87hx2gx8zl57kycfkkn8xq6yjexqwfwjw6"],"addressesOutput":["addr1q9f2snsl7mqd6cld38j6fwc4dnte6as4e205k2y566742c6teem4crxfd42y40t3t4z03dle56x6v5gxmcw90usvpnvqjtd885","addr1qxgfvhcdae0khjtrpmdr0mp2hxlsmqd5gdx26getnwl3se94dme449s6usvkutcg87hx2gx8zl57kycfkkn8xq6yjexqhvvx8r"],"fee":176237,"totalOutput":15827175,"tokens":[]},{"hash":"8148b11db005b5236c8524c92b61bf0e3ee300825b4df537ef482f4990aa8570","blockNo":6831372,"blockHash":"06088c943b4e26a1fa3a0b8947f46603a1c313aa898f019cf5a4e1be163b0f0b","epochNo":318,"epochSlotNo":202667,"slot":52215467,"time":"2022/02/02 06:02:38","addressesInput":["addr1v9u7va2sktlnz8dp3qadpnxxlv4m03672jy6elmntlxxs7q9nnwl9","addr1v9u7va2sktlnz8dp3qadpnxxlv4m03672jy6elmntlxxs7q9nnwl9"],"addressesOutput":["addr1qy0lu9mff8dht50lmmu3dgpsmezldwgp5v8lx3anl567429m4j7j66tu429wywv7ej369lsyxed8mh70c2zthzujvv9s6tk2xg","addr1v95sf69jcfhnmknvffwmfvlvnccatqwfjcyh0nlfc6gh5scta2yzg"],"fee":180021,"totalOutput":18792690,"tokens":[]},{"hash":"23095969b898c46446fd1d4505b556b20fb9ca87184bcc8c6c40862a4ffc5059","blockNo":6831372,"blockHash":"06088c943b4e26a1fa3a0b8947f46603a1c313aa898f019cf5a4e1be163b0f0b","epochNo":318,"epochSlotNo":202667,"slot":52215467,"time":"2022/02/02 06:02:38","addressesInput":["addr1qyqfrdfdj785w2yeq6sw5kmkhp484jffymnleyfewmka20sqjx6jm9u0gu5fjp4qafdhdwr20tyjjfh8ljgnjahd65lqm06fv6"],"addressesOutput":["DdzFFzCqrhsys9qJADorT1JCX8KZZpQwn6FQ7vBMphfPeA345hRMU4W37RUagy2tHoCqzTk8TVGmAGwPV95KZKmP4GASyUGmNm9xtLKp","addr1qyqfrdfdj785w2yeq6sw5kmkhp484jffymnleyfewmka20sqjx6jm9u0gu5fjp4qafdhdwr20tyjjfh8ljgnjahd65lqm06fv6"],"fee":227526,"totalOutput":1098839716,"tokens":[]},{"hash":"b3b26e540238649cb732f4143334bae3c1a1e18a7b3f44d595d24b993bc7d778","blockNo":6831372,"blockHash":"06088c943b4e26a1fa3a0b8947f46603a1c313aa898f019cf5a4e1be163b0f0b","epochNo":318,"epochSlotNo":202667,"slot":52215467,"time":"2022/02/02 06:02:38","addressesInput":["addr1qxpeh4e7lpnrkzemul3ljdesyxmzcea9w5px5nlse3r6ukvrn0tna7rx8v9nhelrlymnqgdk93n62agzdf8lpnz84evsr3uc45","addr1qxpeh4e7lpnrkzemul3ljdesyxmzcea9w5px5nlse3r6ukvrn0tna7rx8v9nhelrlymnqgdk93n62agzdf8lpnz84evsr3uc45"],"addressesOutput":["addr1qxpeh4e7lpnrkzemul3ljdesyxmzcea9w5px5nlse3r6ukvrn0tna7rx8v9nhelrlymnqgdk93n62agzdf8lpnz84evsr3uc45","addr1qxpeh4e7lpnrkzemul3ljdesyxmzcea9w5px5nlse3r6ukvrn0tna7rx8v9nhelrlymnqgdk93n62agzdf8lpnz84evsr3uc45"],"fee":238161,"totalOutput":1785813626,"tokens":[]},{"hash":"b449ae6cb0935643d419971a6e3448d6fec5d511fbc2f355e7cdd998badaee3c","blockNo":6831372,"blockHash":"06088c943b4e26a1fa3a0b8947f46603a1c313aa898f019cf5a4e1be163b0f0b","epochNo":318,"epochSlotNo":202667,"slot":52215467,"time":"2022/02/02 06:02:38","addressesInput":["addr1wxaptpmxcxawvr3pzlhgnpmzz3ql43n2tc8mn3av5kx0yzs09tqh8","addr1w9qzpelu9hn45pefc0xr4ac4kdxeswq7pndul2vuj59u8tqaxdznu","addr1v95p4x355p0yv0me3kkdy40hk7954atz5lrmhx2vf5c867qph4aqe","addr1v95p4x355p0yv0me3kkdy40hk7954atz5lrmhx2vf5c867qph4aqe"],"addressesOutput":["addr1w9qzpelu9hn45pefc0xr4ac4kdxeswq7pndul2vuj59u8tqaxdznu","addr1w9jx45flh83z6wuqypyash54mszwmdj8r64fydafxtfc6jgrw4rm3","addr1qyfcmsl3jnqgfcnra26d63acrn7keanax4l6sxachjwqf72yvqxu2ukka5x4nv9q3ugjhr2z55lund99ygdmleae0klqcdpheu","addr1v95p4x355p0yv0me3kkdy40hk7954atz5lrmhx2vf5c867qph4aqe","addr1v95p4x355p0yv0me3kkdy40hk7954atz5lrmhx2vf5c867qph4aqe"],"fee":1220488,"totalOutput":52357238442,"tokens":[]},{"hash":"d19f022472f0577978de3372ec17fa884f553ce1f9afa40535666900b7274e2b","blockNo":6831372,"blockHash":"06088c943b4e26a1fa3a0b8947f46603a1c313aa898f019cf5a4e1be163b0f0b","epochNo":318,"epochSlotNo":202667,"slot":52215467,"time":"2022/02/02 06:02:38","addressesInput":["addr1qxyynef8gt83wyky4kpx3qj34vmsu769vg5dl4sj8ma7dz8s96ag02s4ln30mfappathejp7nlr6nsrgre7dameyxgvq30pmzh"],"addressesOutput":["addr1w999n67e86jn6xal07pzxtrmqynspgx0fwmcmpua4wc6yzsxpljz3","addr1qxyynef8gt83wyky4kpx3qj34vmsu769vg5dl4sj8ma7dz8s96ag02s4ln30mfappathejp7nlr6nsrgre7dameyxgvq30pmzh"],"fee":231975,"totalOutput":84640860,"tokens":[]},{"hash":"799dc51afc00b682c807ebcf64cc6308fe5796379aa065c824187bc7a8a105f8","blockNo":6831372,"blockHash":"06088c943b4e26a1fa3a0b8947f46603a1c313aa898f019cf5a4e1be163b0f0b","epochNo":318,"epochSlotNo":202667,"slot":52215467,"time":"2022/02/02 06:02:38","addressesInput":["addr1q9u8pqezxlpavt0yfcxhmzry6pzr0qcn2ky0nnu243skjdxz0dszjvmvak4glg0dep5828yf3kpxgtp9ffada0vqw7asa228f9","addr1w9yr0zr530tp9yzrhly8lw5upddu0eym3yh0mjwa0qlr9pgmkzgv0","addr1q9u8pqezxlpavt0yfcxhmzry6pzr0qcn2ky0nnu243skjdxz0dszjvmvak4glg0dep5828yf3kpxgtp9ffada0vqw7asa228f9"],"addressesOutput":["addr1q9u8pqezxlpavt0yfcxhmzry6pzr0qcn2ky0nnu243skjdxz0dszjvmvak4glg0dep5828yf3kpxgtp9ffada0vqw7asa228f9","addr1q9u8pqezxlpavt0yfcxhmzry6pzr0qcn2ky0nnu243skjdxz0dszjvmvak4glg0dep5828yf3kpxgtp9ffada0vqw7asa228f9"],"fee":1129297,"totalOutput":123834350,"tokens":[]},{"hash":"ce06dc071304046d4a59b7959925f2911cd80d424297f9195364dbdeaaa23c66","blockNo":6831372,"blockHash":"06088c943b4e26a1fa3a0b8947f46603a1c313aa898f019cf5a4e1be163b0f0b","epochNo":318,"epochSlotNo":202667,"slot":52215467,"time":"2022/02/02 06:02:38","addressesInput":["addr1vx766j3pvaydcspxt59a25ay4u8jj4tukevypg3k0sh2y7gladzp5","addr1wxaptpmxcxawvr3pzlhgnpmzz3ql43n2tc8mn3av5kx0yzs09tqh8","addr1wxaptpmxcxawvr3pzlhgnpmzz3ql43n2tc8mn3av5kx0yzs09tqh8","addr1wxaptpmxcxawvr3pzlhgnpmzz3ql43n2tc8mn3av5kx0yzs09tqh8","addr1wxaptpmxcxawvr3pzlhgnpmzz3ql43n2tc8mn3av5kx0yzs09tqh8","addr1w9qzpelu9hn45pefc0xr4ac4kdxeswq7pndul2vuj59u8tqaxdznu"],"addressesOutput":["addr1w9qzpelu9hn45pefc0xr4ac4kdxeswq7pndul2vuj59u8tqaxdznu","addr1w9jx45flh83z6wuqypyash54mszwmdj8r64fydafxtfc6jgrw4rm3","addr1q88a5d7k8e4msrluk4926c3pejx779t6wk4xa0gump8860esk72ag5lvyly739h78n5qkjhux5kyedzpd3fz293paa0sywsjwd","addr1qxcaesp7gymhlm0xqj7k7u5s73vn0rtkywa074se7fryca7z5x4gd7g90hp0vmdlkk3jmp4rzgu30cpx8ur7gzgv9klqj9h20k","addr1q9wgdhqn9mal6y6fp4xjkrmazkzv0x9j6c2ldfhaw2jyu5cs2q9rq960st84sg0zmjltcckknlkd6dng5xctn6sym0xqf33d4c","addr1q8p6aw5hdfmafcw0sr22exkvlhqn6ex73fxckg497k7uynjg2sk6ta6tskm42wmnwhx3jvr7sxchl7m47x40lvu9jzusqe9v96","addr1vx766j3pvaydcspxt59a25ay4u8jj4tukevypg3k0sh2y7gladzp5"],"fee":1608330,"totalOutput":287573973696,"tokens":[]},{"hash":"58a4490b1e7f903e2c17c2b918d88a2500f1f58774640044d567854adc885790","blockNo":6831372,"blockHash":"06088c943b4e26a1fa3a0b8947f46603a1c313aa898f019cf5a4e1be163b0f0b","epochNo":318,"epochSlotNo":202667,"slot":52215467,"time":"2022/02/02 06:02:38","addressesInput":["addr1q97f5ehaalnmnxsmy8r9asr0clqmhgj90n298pllkpla7glsewfcjgm22x6wm6y623pgv0ph0h85xx4285wmw4l6pkfqse4fc8"],"addressesOutput":["addr1wy2mjh76em44qurn5x73nzqrxua7ataasftql0u2h6g88lc3gtgpz","addr1q97f5ehaalnmnxsmy8r9asr0clqmhgj90n298pllkpla7glsewfcjgm22x6wm6y623pgv0ph0h85xx4285wmw4l6pkfqse4fc8"],"fee":215530,"totalOutput":12942123,"tokens":[]},{"hash":"9fd5551af43b510f0bebe3ca4a88b9bb6b5ddc103a1592a2e2c4dd0818d154c7","blockNo":6831372,"blockHash":"06088c943b4e26a1fa3a0b8947f46603a1c313aa898f019cf5a4e1be163b0f0b","epochNo":318,"epochSlotNo":202667,"slot":52215467,"time":"2022/02/02 06:02:38","addressesInput":["addr1v95p4x355p0yv0me3kkdy40hk7954atz5lrmhx2vf5c867qph4aqe","addr1v95p4x355p0yv0me3kkdy40hk7954atz5lrmhx2vf5c867qph4aqe","addr1wxaptpmxcxawvr3pzlhgnpmzz3ql43n2tc8mn3av5kx0yzs09tqh8","addr1w9qzpelu9hn45pefc0xr4ac4kdxeswq7pndul2vuj59u8tqaxdznu"],"addressesOutput":["addr1w9qzpelu9hn45pefc0xr4ac4kdxeswq7pndul2vuj59u8tqaxdznu","addr1w9jx45flh83z6wuqypyash54mszwmdj8r64fydafxtfc6jgrw4rm3","addr1q9m3lw5440fcsm0vu6cd28dce0e0cpuz6l7ec59ep24zl4e5x5cju5ee5y9hl6fnrnqgx6sqzw7d8zza35r0tatae5cq367nne","addr1v95p4x355p0yv0me3kkdy40hk7954atz5lrmhx2vf5c867qph4aqe","addr1v95p4x355p0yv0me3kkdy40hk7954atz5lrmhx2vf5c867qph4aqe"],"fee":1218455,"totalOutput":595868795053,"tokens":[]},{"hash":"c4bbc2b2fb3d7b6bb0b6fa36408b1387f820c07a53a80ddf6fcce60d57ffa508","blockNo":6831372,"blockHash":"06088c943b4e26a1fa3a0b8947f46603a1c313aa898f019cf5a4e1be163b0f0b","epochNo":318,"epochSlotNo":202667,"slot":52215467,"time":"2022/02/02 06:02:38","addressesInput":["addr1q90hy7ghkjzy0dlmnkqrjwpn38dc6cuw52gaye96phmtjsxdxs22nvzkcf6tu2c697wpqj9kfmef2chxm2rc6pzhz8zqd9t462"],"addressesOutput":["addr1wy2mjh76em44qurn5x73nzqrxua7ataasftql0u2h6g88lc3gtgpz","addr1qy9yrva9vnxjd09vvnr7v8z7qzr73vyyd40qhnhz98yk9aq3wj76wr3m5njwkezqp2qzed6cgy40q3ax3yxddm29ygcqez2pvl","addr1q90hy7ghkjzy0dlmnkqrjwpn38dc6cuw52gaye96phmtjsxdxs22nvzkcf6tu2c697wpqj9kfmef2chxm2rc6pzhz8zqd9t462"],"fee":205058,"totalOutput":344661768,"tokens":[]},{"hash":"032545eff065ffdab88e5e7d6ff7229fe5b018ba07599909bde6fcc2cc883413","blockNo":6831372,"blockHash":"06088c943b4e26a1fa3a0b8947f46603a1c313aa898f019cf5a4e1be163b0f0b","epochNo":318,"epochSlotNo":202667,"slot":52215467,"time":"2022/02/02 06:02:38","addressesInput":["addr1q8lmw5vc7dxkrauqz70gdca4cvu3kyzzvuymg5s6lwyq9pxqleph9u9kyxe2er0xh35nekquhuc0u5fwruaz43akvcrs597scy","addr1w999n67e86jn6xal07pzxtrmqynspgx0fwmcmpua4wc6yzsxpljz3"],"addressesOutput":["addr1q9cwvremt6n320s2e3agq0jyq82yhrk3htsu0w426xnz5us70z4w0jgvcdkkynmm8wmds66jd9kusnjfpu6raw5fqp0sr07p5w","addr1qxncck0aekvnadmxln6ge9f04fr7rwphq607mwzcr7qwjl37c4v606jdj96ggawwswzvywknulmf2lw9mr382vwz6kyqnkgd8u","addr1qxkz87zcwqrea7apehptykc3whyd3x3evgk7eq7zl3nnpk9pf7w8erlgkr8w0hyfupz8zmnvxs3ul7jpll9k4lyt07msnfv2mg","addr1q8lmw5vc7dxkrauqz70gdca4cvu3kyzzvuymg5s6lwyq9pxqleph9u9kyxe2er0xh35nekquhuc0u5fwruaz43akvcrs597scy","addr1q8lmw5vc7dxkrauqz70gdca4cvu3kyzzvuymg5s6lwyq9pxqleph9u9kyxe2er0xh35nekquhuc0u5fwruaz43akvcrs597scy"],"fee":1143301,"totalOutput":660600224,"tokens":[]},{"hash":"7740b5c5e018355bf528e8fb2198939f563bac7e65e2213ada3e36975bac554c","blockNo":6831371,"blockHash":"110c11b4ff1303b307565e92988de9d1428b75048c9b4d4279566cb9f3eee713","epochNo":318,"epochSlotNo":202658,"slot":52215458,"time":"2022/02/02 06:02:29","addressesInput":["addr1vyp6tshmlkhw37qw90exxxf95c0t2lhx59pg3a8sqd4nsmq5k4r7w","addr1vy3qpx09uscywhppj5vp08hu0ekg9zwmq2ysfq6qyh2mpps865j6t","addr1v99zcx6s0jc8mzj8qxt2d8eeysq3n36lul6mzv7cgmrr88q6qweq2","addr1v8el0cpvhtc8lmpyly6ncwd9c426xjxn90lj2ekssnw3urgdgn77l","addr1v89jryfhl2qaqge9sf6e9m0yqt22sv8d3c6s0pw7ued4ptsehgxht","addr1vxxpm9xmtlh6pzncj2zcphccwnztw6dcnlqz5m3smvj6zxqhz5drf","addr1v8g3ws3nwhxlkavul9anjepu9l5asjhg709lmsnulxx9kdcaaurjn","addr1vywpc2zgr48msw0aag6kfanzm2rr24a8urfydxrwrvc7fjsp4j7qw","addr1v8pr9mwnqarw808gtllvmlxvk70hnszrukjeqfstr9t9g5crud8c4","addr1v9ww300mnrsq6zcpk8rsgr3287hjz9wrf238gt4j5eq2aegf6yt37","addr1vxnfsfv733myk02hd25h025lhv278t4xfzz4z3hll5ca9ag6jfrsn","addr1vx7m9det66f5utfcjsssllxgqkjanvs8dx3ye8zq28l8u0ccysy0z","addr1v8jp36q7tnlasn335u7c5yuaa7tcur6jhz4up80q78nhhes5jrd5t","addr1vxfhgppgra3ys62e82s9ac2krvq0n5ctt4qnankdpls6wtgx90w80","addr1vyl4sfc5ezhmnfw5dqr86rxudmp3n0cqewxvlagru0my28qfzjvqw","addr1vxr9f336af4yntz87gtdrrhdj5cxuch5jpk9zljpllezgxgcx6v3r","addr1vy0rzktdrtfeu6urn9w8v4z9faqtjvzectkeuzzl9h0qnpccjp2v5"],"addressesOutput":["addr1vy3qpx09uscywhppj5vp08hu0ekg9zwmq2ysfq6qyh2mpps865j6t","addr1v8pr9mwnqarw808gtllvmlxvk70hnszrukjeqfstr9t9g5crud8c4","addr1qyelvammzyaqrn9ne0awlnzllh9y78y639gxujuqt6jhv3fkf74y5m8580jy8jsu8dnllrerukze9daypga2sdxc34tskjd735","addr1q8pn5uj3uuscfvp4m277jnuw80rz7lfnwrnl8krz36ce2q2gfhe2znhmu5z5272hgtkg8kpjyp8xh8dmvx4fgwt3vuhq7e63r0","addr1vyp6tshmlkhw37qw90exxxf95c0t2lhx59pg3a8sqd4nsmq5k4r7w","addr1v8el0cpvhtc8lmpyly6ncwd9c426xjxn90lj2ekssnw3urgdgn77l","addr1vxr9f336af4yntz87gtdrrhdj5cxuch5jpk9zljpllezgxgcx6v3r","addr1vyl4sfc5ezhmnfw5dqr86rxudmp3n0cqewxvlagru0my28qfzjvqw","addr1v8jp36q7tnlasn335u7c5yuaa7tcur6jhz4up80q78nhhes5jrd5t","addr1vx7m9det66f5utfcjsssllxgqkjanvs8dx3ye8zq28l8u0ccysy0z","addr1v9ww300mnrsq6zcpk8rsgr3287hjz9wrf238gt4j5eq2aegf6yt37","addr1v89jryfhl2qaqge9sf6e9m0yqt22sv8d3c6s0pw7ued4ptsehgxht","addr1vxxpm9xmtlh6pzncj2zcphccwnztw6dcnlqz5m3smvj6zxqhz5drf","addr1vy0rzktdrtfeu6urn9w8v4z9faqtjvzectkeuzzl9h0qnpccjp2v5","addr1v8g3ws3nwhxlkavul9anjepu9l5asjhg709lmsnulxx9kdcaaurjn","addr1vywpc2zgr48msw0aag6kfanzm2rr24a8urfydxrwrvc7fjsp4j7qw","addr1vxnfsfv733myk02hd25h025lhv278t4xfzz4z3hll5ca9ag6jfrsn"],"fee":346649,"totalOutput":7010956987,"tokens":[]},{"hash":"36b8def2bbbc0cb3980126fe271dfd82681f21940cfa5be9bb5806290fd37a1b","blockNo":6831371,"blockHash":"110c11b4ff1303b307565e92988de9d1428b75048c9b4d4279566cb9f3eee713","epochNo":318,"epochSlotNo":202658,"slot":52215458,"time":"2022/02/02 06:02:29","addressesInput":["addr1q864yprxyggj4v064cklzkvfc6ur96uyypz37r609dzzqnfvep55nfane06hggrc2gvnpdj4gcf26kzhkd3fs874hzhsenaqrx"],"addressesOutput":["addr1q9xfxus6mfvkg48g8yxesvl2wg6nftt0dncnkpcxt64tpsv4zzeg0557q7z3f5v742m8swu74m5hc45fugtsslmlx80sdwz23r","addr1q9jvy86tjlgnh4gefhlw7p9f62v2xsp28xws474jcmqaq8pvep55nfane06hggrc2gvnpdj4gcf26kzhkd3fs874hzhsw50sax"],"fee":169021,"totalOutput":37654142764,"tokens":[]},{"hash":"92a9c8880736459fe3f9b261f69ef4c041cb73886f9b3fc16e4a6ecd0f9001f4","blockNo":6831371,"blockHash":"110c11b4ff1303b307565e92988de9d1428b75048c9b4d4279566cb9f3eee713","epochNo":318,"epochSlotNo":202658,"slot":52215458,"time":"2022/02/02 06:02:29","addressesInput":["addr1qx9qegw5zljdesgx57puxvxhndx6menqhfmd2zuuc084xvgwq3wh8ycd3n4ulgmjsd7yg99dexmrjn5jvq02zndyl53sqxhhlr","addr1qxfk58ewj8nf8uhz5qdfjckrcxukshq9wn0tzpakvpfxxrgwq3wh8ycd3n4ulgmjsd7yg99dexmrjn5jvq02zndyl53swcj7mp","addr1q9c4ujpltfu59jpdxtks3tw7y3cdc27mg4qchumal3vvz9cwq3wh8ycd3n4ulgmjsd7yg99dexmrjn5jvq02zndyl53sa2nam4","addr1qx3eh9awlwpmxlevrf5h6tl90za7zr270zehz98qjql2akgwq3wh8ycd3n4ulgmjsd7yg99dexmrjn5jvq02zndyl53sa69e2f","addr1q94hrcnqk7qn0wt28x59qyj47xa90nxfnd9ahwlf2mt6u9gwq3wh8ycd3n4ulgmjsd7yg99dexmrjn5jvq02zndyl53smuua54","addr1qy6fayu2rp2kvepw7drcqguxhtvwez4v7qjreex505wrgwgwq3wh8ycd3n4ulgmjsd7yg99dexmrjn5jvq02zndyl53sy4w8h4","addr1q8myjsldhhshmjsec7d3n76p544g020ejyauf5sztpnwxeqwq3wh8ycd3n4ulgmjsd7yg99dexmrjn5jvq02zndyl53spmkksn","addr1qxv4e5c9fjvfs5er5zfwcefdzzp7mqhk44recad4yfse47cwq3wh8ycd3n4ulgmjsd7yg99dexmrjn5jvq02zndyl53sx7lh66","addr1qy58a7fu4rne4y3mrekjl7lwy2md2w8zz4gskwwhkgqahncwq3wh8ycd3n4ulgmjsd7yg99dexmrjn5jvq02zndyl53s60qty5","addr1q8r7ja26pr04w3dzu7t84x4yxgsl6gfmuzrs7k579xulq7swq3wh8ycd3n4ulgmjsd7yg99dexmrjn5jvq02zndyl53sc328ny","addr1qxv4e5c9fjvfs5er5zfwcefdzzp7mqhk44recad4yfse47cwq3wh8ycd3n4ulgmjsd7yg99dexmrjn5jvq02zndyl53sx7lh66"],"addressesOutput":["addr1q8e425tgn0hvgge95rv282htk7fawdckxyrte8dmj3xf4a27x6lmkdndvp0nd6fh90ryqmsjhfvv28e6rwt9wcaukdssztlg23","addr1q8hgdvmw2rzw6n2ftapayxu6cxanl68nsca86dc0enmzdj0ws6eku5xya4x5jh6r6gde4sdm8l508p3605msln8kymys963yys","DdzFFzCqrhtBtXBjuoMzfkojMnBJyAy7iz4dwXNNeHoQDeNNQbTrU1kRca5ybxcvmoX3YPcYrPHzuMqWryayqRB6gh8PvPC1ExnMEuBu","addr1qycxasynwf4a3739f6eavxddmzkxehfg2rwcefe9z46jtky4va02kzhwnrxzz80ktjau0v2rhekxg6ma8h4vfn2c02es2y8yk6","addr1qx4etp5e4wfeky9srs6kas0g0m25ezt5yj9dn2pvxgetf9t7qf56stvcpra9a4u5wua7cuygu80feswjqygyagqf4ntsxh6s5d","addr1q8z7vpqq9zmrlckuq4tg90xpd99wfy495thr6qu4xwwqk33wxg6df80xed5jm233k3ay8d9wk06dfynmqgmdu37pjtysr6trxk","addr1qyr9f8u338hw9l36p6zk9vqm3cjv6xnxphmfr8wv9darpaqwq3wh8ycd3n4ulgmjsd7yg99dexmrjn5jvq02zndyl53sjuau43","addr1q9gkp6w95xxlx2qf4jfvhmqfxlrn3uqd6f4hp40cm4e0e9gwq3wh8ycd3n4ulgmjsd7yg99dexmrjn5jvq02zndyl53szx5kxa","addr1q8j975pr82n3cjhqnlgca045h7lkkjqk4kadckp99a5hsgswq3wh8ycd3n4ulgmjsd7yg99dexmrjn5jvq02zndyl53sz0puve","addr1q92nfgsydzz26809krg5jrfgykhxwmjk4rjupgmaa983pycwq3wh8ycd3n4ulgmjsd7yg99dexmrjn5jvq02zndyl53s0cc579","addr1q92nfgsydzz26809krg5jrfgykhxwmjk4rjupgmaa983pycwq3wh8ycd3n4ulgmjsd7yg99dexmrjn5jvq02zndyl53s0cc579","addr1q8j975pr82n3cjhqnlgca045h7lkkjqk4kadckp99a5hsgswq3wh8ycd3n4ulgmjsd7yg99dexmrjn5jvq02zndyl53sz0puve"],"fee":261993,"totalOutput":35988781034,"tokens":[]}],"totalItems":29554039,"totalPages":1477702,"currentPage":0}