{"data":[{"txId":51530187,"txHash":"cb82d27f6852306c01aa397c994a40255e9f30a298157d41e6513ea6922ad4d8","txTime":"2022/10/03 18:42:19","block":7837471,"epoch":367,"slotNo":73256248,"epochSlotNo":75448,"stakeKey":"stake1u93k85hwrs7cqprknws39vvtkt98g3t5t0g3x2w48wfurfg92v5tj"},{"txId":51530073,"txHash":"33d9cabab637e7faea9927297b9d1f0e0a629c6fa9ae376ccec865ab46718657","txTime":"2022/10/03 18:40:12","block":7837466,"epoch":367,"slotNo":73256121,"epochSlotNo":75321,"stakeKey":"stake1u8xu3rgn4aljn7h45llkueana43nm073mg2a8u78hln732qr895sg"},{"txId":51530012,"txHash":"0ac661ff2be9d6d8f27d2a2d21f3335c3c8dc8624a777f1183b80fa540e60ff9","txTime":"2022/10/03 18:39:06","block":7837463,"epoch":367,"slotNo":73256055,"epochSlotNo":75255,"stakeKey":"stake1u9x8v59rpyryjzly592rwwpw683299gfnyvxsydlp5xc2jsx5s0sy"},{"txId":51529781,"txHash":"96d3ece071f4d8bf73e1665bf754d3c96b84ff84c613b9c4b7262c1b64ce9a23","txTime":"2022/10/03 18:35:17","block":7837443,"epoch":367,"slotNo":73255826,"epochSlotNo":75026,"stakeKey":"stake1u80xc70ttc4nxy2wtahp560zvqmn4d7j5m4mkfnqdl0366smqq7gf"},{"txId":51529769,"txHash":"4dee808c890939b015deb344f44b9aa7024df2b83c615a86b32b61105046f1ad","txTime":"2022/10/03 18:34:23","block":7837441,"epoch":367,"slotNo":73255772,"epochSlotNo":74972,"stakeKey":"stake1uyv5330dt7kes59pgqdd5rf229vhy6wy39v8525tjg6x3kc6txc0w"},{"txId":51529765,"txHash":"746a3936ddf54300ec93c518f67399b69c1ece8fece4d19b49b98f0fd190cb03","txTime":"2022/10/03 18:34:23","block":7837441,"epoch":367,"slotNo":73255772,"epochSlotNo":74972,"stakeKey":"stake1uxp9ut04456mp8jtwk6kxtcvvuwurqa9szkwenkcr29m57szx4xhm"},{"txId":51529470,"txHash":"f568d0eafeef7b2f96b4dbbd49c427cbd85de61d0c187ba981979e4213899160","txTime":"2022/10/03 18:29:29","block":7837419,"epoch":367,"slotNo":73255478,"epochSlotNo":74678,"stakeKey":"stake1uyadqf4neeatkjzgjhfsvlulwrxud5ht85x848pfhwlxs6s828dtw"},{"txId":51529422,"txHash":"95ff29890e72cc5fb66249c91457d001e0ab1ed6e0e986256a4b89a55371de7e","txTime":"2022/10/03 18:28:37","block":7837417,"epoch":367,"slotNo":73255426,"epochSlotNo":74626,"stakeKey":"stake1u9ujyrskurdfxh43j346qy3ttwldfkldwl38s2lshv0692s47eqa3"},{"txId":51529335,"txHash":"b8d99efe3a1708bc4504accdd9413dec93c64eec6303665a477dac5d3413ad6a","txTime":"2022/10/03 18:26:21","block":7837412,"epoch":367,"slotNo":73255290,"epochSlotNo":74490,"stakeKey":"stake1u96ugxz0uazujezu69dejxean0cmzk4aw6sdazeakz0r6wga3s3mq"},{"txId":51529318,"txHash":"033151f9de838319e92ba9fcabbf9210b71cbf73ee175c6f806bf10f6034be5d","txTime":"2022/10/03 18:26:12","block":7837411,"epoch":367,"slotNo":73255281,"epochSlotNo":74481,"stakeKey":"stake1u97dt54yasgwefk5kztrvhty4l0lc6vzuw054laef56un0srcf2c9"},{"txId":51528796,"txHash":"86ad2ebf7d1d9a60f84d70f696520e16e3c5af3bbba460217062d40f9b934c16","txTime":"2022/10/03 18:20:21","block":7837398,"epoch":367,"slotNo":73254930,"epochSlotNo":74130,"stakeKey":"stake1u83cmx4n3y5fwypj3w0uy2sx3y4t3qfhuhqat6qtmj3anhsxutw97"},{"txId":51528660,"txHash":"224d3697be04ef59676814ee10456a28b913661944603175e5d9f3bf1b10def2","txTime":"2022/10/03 18:16:54","block":7837392,"epoch":367,"slotNo":73254723,"epochSlotNo":73923,"stakeKey":"stake1uxq3xs7p8ak90f676v7xgg6qf28hc7n2z3egn5kw09cpwpcdxesrv"},{"txId":51528595,"txHash":"9de98c19e565a13581d25987613f2b4a7d936ea6de3d32fa4f8d6e081c54d9ef","txTime":"2022/10/03 18:15:47","block":7837390,"epoch":367,"slotNo":73254656,"epochSlotNo":73856,"stakeKey":"stake1u94ycr4gehmzta5glxrafkzg7x8cya9wt3nqjlaqfaggdzq2gdgr6"},{"txId":51528423,"txHash":"13376a8bf198afa7ce04a5dbc9048c71de093e30411b42158540583cdf6d176e","txTime":"2022/10/03 18:12:20","block":7837381,"epoch":367,"slotNo":73254449,"epochSlotNo":73649,"stakeKey":"stake1u82vlcjux77lwx69rmld7nupu7zty0q0d42ceacm75catdssxh07z"},{"txId":51528343,"txHash":"d73eda8ea303e2fe0bc46322f5d01c4ab978da70386400eaa01108ddf50f449c","txTime":"2022/10/03 18:11:08","block":7837376,"epoch":367,"slotNo":73254377,"epochSlotNo":73577,"stakeKey":"stake1u99lvksxgpd646aln0f6wkj24fqnvqdrvayemqj62u6we5crpawk0"},{"txId":51528194,"txHash":"cc63b6cda9086ffd2036184c82e7f12fd21a4f5166186413638549caf21fe014","txTime":"2022/10/03 18:09:10","block":7837367,"epoch":367,"slotNo":73254259,"epochSlotNo":73459,"stakeKey":"stake1u94qpd02kccpxx7ae9cwkf4335nde6e9gp5ltksaj4njl2ctlnvuy"},{"txId":51527824,"txHash":"37dc0c228a22a2c8b8f3ba2a7b671617be6e3776c444bd619a541f5927544a3d","txTime":"2022/10/03 18:03:47","block":7837344,"epoch":367,"slotNo":73253936,"epochSlotNo":73136,"stakeKey":"stake1ux6tkvarpmrrpq7j5flhyxz03arkp4qhdypcwylvtumyc6g8gah37"},{"txId":51527722,"txHash":"c742238905f1365e323dcfae06b1fb0680dd145a8e5abe4ddf379dfc4889d23e","txTime":"2022/10/03 18:00:57","block":7837339,"epoch":367,"slotNo":73253766,"epochSlotNo":72966,"stakeKey":"stake1uxczwjfz3kunmygeurwwjknrh5dw4h4hvusvfcr3lw53v8cwez38r"},{"txId":51527314,"txHash":"c7b33881cffa3bda1cbc0af88fca6f209735a3ee739ee70a47e6b94c7ef81f13","txTime":"2022/10/03 17:54:47","block":7837315,"epoch":367,"slotNo":73253396,"epochSlotNo":72596,"stakeKey":"stake1u8s0yw7cuz3l4fm6m9el6qlhd9vrds6u5h00ayhkvl652vq7uqnjs"},{"txId":51526735,"txHash":"3b19f4aa37e75ca34cff132b15371c8d8083729f13b89deb4cf75cdb9b6407ba","txTime":"2022/10/03 17:43:30","block":7837287,"epoch":367,"slotNo":73252719,"epochSlotNo":71919,"stakeKey":"stake1u93rc4ghhpfn3902y3gtt27ejcd7x6hxv3y07n4z2hlgnhs5tcqcd"}],"totalItems":1582708,"totalPages":79136,"currentPage":0}