{"data":[{"blockNo":8109960,"slotNo":78871876,"epochNo":380,"epochSlotNo":75076,"hash":"e3a6795a206728fe83743be19c4d9f600e55658bab344b76ae3554a64f585496","time":"2022/12/07 18:36:07","txCount":0,"totalFees":0,"totalOutput":0,"slotLeader":"e11427a833aff02b782a0fd93b087bfacdb0414b7d5a545cd45bd8ed"},{"blockNo":8109959,"slotNo":78871874,"epochNo":380,"epochSlotNo":75074,"hash":"f7119853bfee9f567831ff760454c8b990643b7bec41b16f7310cb8578289afe","time":"2022/12/07 18:36:05","txCount":40,"totalFees":11628399,"totalOutput":6112055058787,"slotLeader":"a532904ca60e13e88437b58e7c6ff66b8d5e7ec8d3f4b9e4be7820ec"},{"blockNo":8109958,"slotNo":78871826,"epochNo":380,"epochSlotNo":75026,"hash":"e0d2700517b9edc9d03f9e32c34ffab9ceacde699bf9feeccec012b996fe12ef","time":"2022/12/07 18:35:17","txCount":21,"totalFees":7336404,"totalOutput":918578930980,"slotLeader":"e069112add6af5fa1a11a1716357de1848c22229eb2eaa007702d5c9"},{"blockNo":8109957,"slotNo":78871807,"epochNo":380,"epochSlotNo":75007,"hash":"8a0ba3a3740f3f664f5683f8e2740c55bc82ca86bdeb99696108237b4481d82e","time":"2022/12/07 18:34:58","txCount":13,"totalFees":4497805,"totalOutput":39705087889,"slotLeader":"2ba96bc27be2bdde3ec11b9f696cf21fad39e49097be9b0193e6b572"},{"blockNo":8109956,"slotNo":78871795,"epochNo":380,"epochSlotNo":74995,"hash":"ea182ef8aea3d1af60f8253ba572e457cd021fb5b23fe665f17463c0dbfa2567","time":"2022/12/07 18:34:46","txCount":3,"totalFees":1101592,"totalOutput":229316433,"slotLeader":"3407812f0f5b698329dd4db9b7748e7aa6078b5e5f74c0af318385e4"},{"blockNo":8109955,"slotNo":78871792,"epochNo":380,"epochSlotNo":74992,"hash":"706173a0a909042b3caccdf4c8228f6d786c889ba2efe5b342181e390ec3d12b","time":"2022/12/07 18:34:43","txCount":13,"totalFees":2778235,"totalOutput":277244873497,"slotLeader":"b83ec9c4136a2d3cd15cbe691afa7f2437bce3d1240ac6f2c5d0e159"},{"blockNo":8109954,"slotNo":78871773,"epochNo":380,"epochSlotNo":74973,"hash":"12d939ade20b7596a6c378fe2cfe92e5634516a1cdd32f6da7fc47625e98bcdc","time":"2022/12/07 18:34:24","txCount":21,"totalFees":7297149,"totalOutput":1572822741474,"slotLeader":"2a748e3885f6f73320ad16a8331247b81fe01b8d39f57eec9caa5091"},{"blockNo":8109953,"slotNo":78871755,"epochNo":380,"epochSlotNo":74955,"hash":"23ce4708da08622deff9579275b0ddf300328de22c0ca35ab3cc5e5493dd7c19","time":"2022/12/07 18:34:06","txCount":36,"totalFees":10461351,"totalOutput":696406905927,"slotLeader":"72583cf41012446cd1ca839c10049ecd65d31664b11e63d286041d61"},{"blockNo":8109952,"slotNo":78871731,"epochNo":380,"epochSlotNo":74931,"hash":"608a623a06ac66a2145183f61b934c4644803eac064a11469357e65db0fa5eee","time":"2022/12/07 18:33:42","txCount":54,"totalFees":14729871,"totalOutput":44721440081045,"slotLeader":"662796197f741c9b9f0d9830530d01300ee5c63f549784ff2ac81c17"},{"blockNo":8109951,"slotNo":78871662,"epochNo":380,"epochSlotNo":74862,"hash":"7526984cf06dc26abca9fd944541168731abcac047d50cc5e20fb01aed15a04f","time":"2022/12/07 18:32:33","txCount":0,"totalFees":0,"totalOutput":0,"slotLeader":"fe98bee75e8e7eb818fa85aa630e299ccabb1f252cac36b31b903f8d"}],"totalItems":3637,"totalPages":364,"currentPage":0}