{"data":[{"txId":60541727,"txHash":"39c8c6c21fd0dad1fd668620bf4026eb9aad3116168e8dcadd6d43186571e8cd","txTime":"2023/01/26 08:15:23","block":8318583,"epoch":390,"slotNo":83154632,"epochSlotNo":37832,"stakeKey":"stake1ux2635963trnve69fh6m6dyux74lz2z4ea7wg5jydywx8gs6l9dwp"},{"txId":60541582,"txHash":"1f2cebc9932159c5aedf5eff244fb61b8b2f34105ad13189e4c82879ac97d527","txTime":"2023/01/26 08:12:11","block":8318574,"epoch":390,"slotNo":83154440,"epochSlotNo":37640,"stakeKey":"stake1u8sz4rcg6upyvuhwzcur7le5sujvcc7qxmsx7hzq3uscz7gjcpqev"},{"txId":60541513,"txHash":"d5a3840e3306a5187847a3b0a96793925dd88cb44562e1eb62d812e1dfe44b7f","txTime":"2023/01/26 08:10:36","block":8318569,"epoch":390,"slotNo":83154345,"epochSlotNo":37545,"stakeKey":"stake1ux6qr4esh0x0wremj39fpq2f4llrnsjkxlrvfflc6hkzczqsvfyqv"},{"txId":60541433,"txHash":"a50d2a936e57d10a23af6767060585829cbb64502e28c3fcc347734b4f97ca2e","txTime":"2023/01/26 08:09:00","block":8318565,"epoch":390,"slotNo":83154249,"epochSlotNo":37449,"stakeKey":"stake1uxnuaued6pmmuymtdny3x2w5wsev02zg5p30wmxa5mga7sgcac8zl"},{"txId":60541404,"txHash":"dbce630d688420a0e7103070ac03de8e638b5585af76cff3a40d607bf187ff70","txTime":"2023/01/26 08:08:36","block":8318564,"epoch":390,"slotNo":83154225,"epochSlotNo":37425,"stakeKey":"stake1uxd04jr5lk9x2sw9clhmq79zz8tw0ewjasn0ytl23vw8tdc98rt8s"},{"txId":60541167,"txHash":"c6915eaf3051b1656aff590cf6c6a0f72806c6af7a8dacaab668374672c658a2","txTime":"2023/01/26 08:03:39","block":8318539,"epoch":390,"slotNo":83153928,"epochSlotNo":37128,"stakeKey":"stake1u80w89jenu8q255ua72jtnjldzkpeukfdd0uhkt4v537mrq0yfu42"},{"txId":60541063,"txHash":"5e9611715ee7ac72f3a58759223d5d3e68763e801d5753f9794cc3dcc9ac8cf7","txTime":"2023/01/26 08:00:50","block":8318531,"epoch":390,"slotNo":83153759,"epochSlotNo":36959,"stakeKey":"stake1u99mw7233gvr3g75lfdal5evgxl6hrfnr7c9pjsp32586tcwkpcwa"},{"txId":60540996,"txHash":"8af93bc10da5da9725d27df2842c943f19c068cf5b7ca3ca500825c1b586ec40","txTime":"2023/01/26 07:59:58","block":8318529,"epoch":390,"slotNo":83153707,"epochSlotNo":36907,"stakeKey":"stake1u86hw2a2qfvm52e3xhhfpyy4qdyaaavcf7a0ugfygvwu6gcedqnt2"},{"txId":60540966,"txHash":"ae8544c0aa80b67c1a327696bb4ed2305b171f2c18937438b07e50e46ef258d5","txTime":"2023/01/26 07:59:58","block":8318529,"epoch":390,"slotNo":83153707,"epochSlotNo":36907,"stakeKey":"stake1u8qjl0auuuxv2dperzxqdxy6ppln6vztganfa0qzn60e5dq9d279p"},{"txId":60540921,"txHash":"2f0178b06b3786af3311b926a7fb1043fb45a60fb81c72a6c17de9e87360983f","txTime":"2023/01/26 07:58:58","block":8318528,"epoch":390,"slotNo":83153647,"epochSlotNo":36847,"stakeKey":"stake1uxuyhrsd9h64gfah83mlnr5asu8hdrcfljl7x6g4dqgf8sshacns2"},{"txId":60540744,"txHash":"c5057326409f554ed1c2fd09e31cb542eff0f4a08d96cfe74573438f4ca11edc","txTime":"2023/01/26 07:53:06","block":8318516,"epoch":390,"slotNo":83153295,"epochSlotNo":36495,"stakeKey":"stake1uxqwh5tmjspd65e2dykrqrual4k2jfc7jg2h80xtl8e4y8sf99x9q"},{"txId":60540357,"txHash":"1ed6096df4499b84e5785a4922b035bf7efaac27dee383dc5fcd574e2556ba7a","txTime":"2023/01/26 07:42:52","block":8318489,"epoch":390,"slotNo":83152681,"epochSlotNo":35881,"stakeKey":"stake1uye0qg2kycqee8xsdzc8fvjeg5gxe2l9d9j4ske3sw2hj5ssjpuqs"},{"txId":60540107,"txHash":"46d1c893564a26250911541f36c99c4c4d6d78bf3eba070a934a5347d435a6b0","txTime":"2023/01/26 07:37:03","block":8318475,"epoch":390,"slotNo":83152332,"epochSlotNo":35532,"stakeKey":"stake1u9zymg4lyak9yvk90lk5krzdyunqyyn2mfe6nmrpkedfpvst87wew"},{"txId":60540085,"txHash":"896ad08a9856f47c9e99a9e41447f841fad1a5293d69d0bb89763d597373b51e","txTime":"2023/01/26 07:37:03","block":8318475,"epoch":390,"slotNo":83152332,"epochSlotNo":35532,"stakeKey":"stake1u890j3n5slspf2f4ndnl09zyds9eatstlxy35gvf03jf6hqfvwwpr"},{"txId":60539975,"txHash":"dae12dc33457e8eb876755d77b60ea5682126b7b88c040ea528bca201f2ae11f","txTime":"2023/01/26 07:33:37","block":8318464,"epoch":390,"slotNo":83152126,"epochSlotNo":35326,"stakeKey":"stake1uxkg74exkyuheyusgvhc2e5z2yyk0ak4vrhm2khne0n2m6shxy6he"},{"txId":60539934,"txHash":"0cb80864073cacf347db4b30c7bd09cef3cc4197027acbe445d89a0115df13ac","txTime":"2023/01/26 07:32:43","block":8318461,"epoch":390,"slotNo":83152072,"epochSlotNo":35272,"stakeKey":"stake1u9zx2c7cp8zwnz4f0jgd36zq6cl7a7vprg7q2wz65v460ksvpf3na"},{"txId":60539932,"txHash":"9c38f60dfe6933fff3bc900b3221b0ce9ef472b9998e38b319b63204584e9357","txTime":"2023/01/26 07:32:43","block":8318461,"epoch":390,"slotNo":83152072,"epochSlotNo":35272,"stakeKey":"stake1uyxn44ez7z99v5xec8z9rdq8rpq3sy8fz6lflsfv2c3ymgsq3scaf"},{"txId":60539810,"txHash":"895cb2c4504ff6565bfd39e1a5720aa5c92ace9973380d066066b6287d60f9a4","txTime":"2023/01/26 07:30:13","block":8318451,"epoch":390,"slotNo":83151922,"epochSlotNo":35122,"stakeKey":"stake1u88f6q9ek7mmln69mg7h55az3jxq65nawu6c46482r3u9nsevsw3e"},{"txId":60539723,"txHash":"0eeec9806c7a9e20210de36427cf4cc24a8cc91fd934209e759609f651d646e9","txTime":"2023/01/26 07:28:28","block":8318445,"epoch":390,"slotNo":83151817,"epochSlotNo":35017,"stakeKey":"stake1uyyrpf78c9pw7lkj8pgp3ucu3fca8tve0pnxsm5deju84rgun48cv"},{"txId":60539688,"txHash":"e8f7d0f30cd67e59df3391c9a278c53c5af024859702d6986244f2c2dfcf8659","txTime":"2023/01/26 07:27:25","block":8318442,"epoch":390,"slotNo":83151754,"epochSlotNo":34954,"stakeKey":"stake1u88mta3dqc8xaqpd2uaj7twl2r5ejg59vahjvxpyy3ymr9chjux3e"}],"totalItems":1652606,"totalPages":82631,"currentPage":0}