{"data":[{"hash":"94fc70a147ad341e0d97d47f7da4cb4db0814a0ae99458051e53a517bb517ad1","blockNo":8108958,"blockHash":"060eda030aadfd7537cb4403e2d0f5fd197f13671d96fd8a902841e4f9facf80","epochNo":380,"epochSlotNo":55200,"slot":78852000,"time":"2022/12/07 13:04:51","addressesInput":["addr1qxwtwepawur9my58xg4rj0dr8hyf8llwmt4d4ghy30j26hh3f8yzfl6mduc2wwl45s57ua5wedc4f8nmpz4jvw8d2hjqqptfse","addr1qxvvwlplajr4x0j8kgvu6qzhk8aymsauf0te8dy6kpg6y503f8yzfl6mduc2wwl45s57ua5wedc4f8nmpz4jvw8d2hjq0ukvtn"],"addressesOutput":["addr1qyfszsdh8vmzen86gs2al9hanmdgre8uguka7axfq93cqeywysh72j4dsjgrq7c9ztxqdrm97r5qj4ymeha2xmtx82qq58tmpy","addr1qynk6wd6ylc4d8nn2v2tnxf0z5muczyn04k2g64278f2uzl3f8yzfl6mduc2wwl45s57ua5wedc4f8nmpz4jvw8d2hjq5ep30z"],"fee":177029,"totalOutput":2622971,"tokens":[]},{"hash":"748c47b121b7b7c46de672e9a23809b5ae2c68b5d918b0b607d04bccb2e2b30c","blockNo":8108958,"blockHash":"060eda030aadfd7537cb4403e2d0f5fd197f13671d96fd8a902841e4f9facf80","epochNo":380,"epochSlotNo":55200,"slot":78852000,"time":"2022/12/07 13:04:51","addressesInput":["addr1qy8jnfqn3pqld00yug6t29gwypyezed4q5ndh9y3zx3mx3x9869r7pc48qy4vzhfsxarycwx8chz2xxse27unrhj3esqsrqant"],"addressesOutput":["addr1q8qdqtz7pmmpu2kp47d4hfqwufkqt6vspcpu62uw0xwxel9m5625r2yym5yctpfkns5ghu8yx202s8y3zqagyrnhe63s75ynn0","addr1qy8jnfqn3pqld00yug6t29gwypyezed4q5ndh9y3zx3mx3x9869r7pc48qy4vzhfsxarycwx8chz2xxse27unrhj3esqsrqant"],"fee":169329,"totalOutput":2368979705087,"tokens":[]},{"hash":"f2688bf71ce018e54319cc8974b0841978c5e6adc7f2053107b173e0ba4fae58","blockNo":8108958,"blockHash":"060eda030aadfd7537cb4403e2d0f5fd197f13671d96fd8a902841e4f9facf80","epochNo":380,"epochSlotNo":55200,"slot":78852000,"time":"2022/12/07 13:04:51","addressesInput":["addr1vxsz6gkhy2vf3kqmd379xcy6d4tndpuqft9d8665ydpk4kcm7wmkt"],"addressesOutput":["addr1q9tl2z5v9pgjwl5ccav3hqfne66wla37gyd9mmlvmpzw7ppcdcz34fqky8ejtrkyuyk9lhlh3y7v6zkvyysnj9g2kerscrgq8d","addr1vypr00ss7hkqejmvh53xkyf0p9q0a4z2uprxmx6njc463vgst3pe4"],"fee":171221,"totalOutput":79828779,"tokens":[]},{"hash":"415f6a8f599d6dd9998f2c940585d7c171693c0385a1c6d2d231b7b3e14668ed","blockNo":8108958,"blockHash":"060eda030aadfd7537cb4403e2d0f5fd197f13671d96fd8a902841e4f9facf80","epochNo":380,"epochSlotNo":55200,"slot":78852000,"time":"2022/12/07 13:04:51","addressesInput":["addr1q90h4g5cy47087nakzdws6fjc7tlc4gepfaj9plaex07mrk5qkh9rhzszfz5u90gldtkammllkt6lswrexmttzd6wmlsqe72tp","addr1zxgx3far7qygq0k6epa0zcvcvrevmn0ypsnfsue94nsn3tvpw288a4x0xf8pxgcntelxmyclq83s0ykeehchz2wtspks905plm"],"addressesOutput":["addr1zxgx3far7qygq0k6epa0zcvcvrevmn0ypsnfsue94nsn3tvpw288a4x0xf8pxgcntelxmyclq83s0ykeehchz2wtspks905plm","addr1q90h4g5cy47087nakzdws6fjc7tlc4gepfaj9plaex07mrk5qkh9rhzszfz5u90gldtkammllkt6lswrexmttzd6wmlsqe72tp"],"fee":296664,"totalOutput":133690119,"tokens":[]},{"hash":"db15f914123c0387159a90f42073f61816ffe5395e7463b372a8365d70ae0cdb","blockNo":8108958,"blockHash":"060eda030aadfd7537cb4403e2d0f5fd197f13671d96fd8a902841e4f9facf80","epochNo":380,"epochSlotNo":55200,"slot":78852000,"time":"2022/12/07 13:04:51","addressesInput":["addr1q8mhh95xuggymhqee8al0z6ljve0d0zsudw59sgzsu6dnsuz8rx9e6wqw9kc8w8l506f3y9clxayx4qr3dvskus8vfeqyalvkq","addr1q8mhh95xuggymhqee8al0z6ljve0d0zsudw59sgzsu6dnsuz8rx9e6wqw9kc8w8l506f3y9clxayx4qr3dvskus8vfeqyalvkq","addr1q9vf37jsqqlr3nxrxzvfm27y7jy8z6c4u4v4pasuyn8p9yuz8rx9e6wqw9kc8w8l506f3y9clxayx4qr3dvskus8vfeqdzr89t"],"addressesOutput":["addr1qxs0ned6z8ctjenkpf8hkh3p5uyrhrstp83q25enw0zw79emh9s3rz7c2vlz0hyy8p3awdh0h4hnxf0s02ccze72xlhqshharx","addr1qx94ce7chvc494se5t63lpccyk42qwdm2la9xvma4aqtg4uz8rx9e6wqw9kc8w8l506f3y9clxayx4qr3dvskus8vfeqk72m0z","addr1qx94ce7chvc494se5t63lpccyk42qwdm2la9xvma4aqtg4uz8rx9e6wqw9kc8w8l506f3y9clxayx4qr3dvskus8vfeqk72m0z"],"fee":180945,"totalOutput":85113662,"tokens":[]},{"hash":"261569347930d11aba7a73e64e4fea3609721d9c2c2217c5d03e8b32e6b3aa1d","blockNo":8108958,"blockHash":"060eda030aadfd7537cb4403e2d0f5fd197f13671d96fd8a902841e4f9facf80","epochNo":380,"epochSlotNo":55200,"slot":78852000,"time":"2022/12/07 13:04:51","addressesInput":["addr1qxedpq6fw09r7f4wu8cp9sd57q7vphxedf0zn8rzh6uxydluy3ncf0haddh9k75y4s07kz4f7t2c0jr8fg8new2s7p3ssvju2w","addr1qxedpq6fw09r7f4wu8cp9sd57q7vphxedf0zn8rzh6uxydluy3ncf0haddh9k75y4s07kz4f7t2c0jr8fg8new2s7p3ssvju2w","addr1qxedpq6fw09r7f4wu8cp9sd57q7vphxedf0zn8rzh6uxydluy3ncf0haddh9k75y4s07kz4f7t2c0jr8fg8new2s7p3ssvju2w"],"addressesOutput":["addr1qycjw9fxnvsl5lwksj605rh67w8ascvklslpfqwrm0fsx3hents8aeyvp298fht2rxsn6p3dcfmjjjrwksl297hkayssqcwutc","addr1qxedpq6fw09r7f4wu8cp9sd57q7vphxedf0zn8rzh6uxydluy3ncf0haddh9k75y4s07kz4f7t2c0jr8fg8new2s7p3ssvju2w","addr1qxedpq6fw09r7f4wu8cp9sd57q7vphxedf0zn8rzh6uxydluy3ncf0haddh9k75y4s07kz4f7t2c0jr8fg8new2s7p3ssvju2w","addr1qxedpq6fw09r7f4wu8cp9sd57q7vphxedf0zn8rzh6uxydluy3ncf0haddh9k75y4s07kz4f7t2c0jr8fg8new2s7p3ssvju2w","addr1qxedpq6fw09r7f4wu8cp9sd57q7vphxedf0zn8rzh6uxydluy3ncf0haddh9k75y4s07kz4f7t2c0jr8fg8new2s7p3ssvju2w"],"fee":188073,"totalOutput":25564404820,"tokens":[]},{"hash":"29462abf4ca7b7d277b9792ef538e4eb928126360a927144fa04e3daced49562","blockNo":8108958,"blockHash":"060eda030aadfd7537cb4403e2d0f5fd197f13671d96fd8a902841e4f9facf80","epochNo":380,"epochSlotNo":55200,"slot":78852000,"time":"2022/12/07 13:04:51","addressesInput":["addr1qyj0gayeh4hv0n5twq3j9577df4ywmxvxp6p8ka6708n8ernrgreflxq9nsckhwk02pnxvtmdpzuvxqg5c2yxcgvde8q6kftn8","addr1qyj0gayeh4hv0n5twq3j9577df4ywmxvxp6p8ka6708n8ernrgreflxq9nsckhwk02pnxvtmdpzuvxqg5c2yxcgvde8q6kftn8"],"addressesOutput":["addr1q9clukc2zldcj9j66seqn7n4mw4g0a07rpe3f53xxnvv5m2heaf72dlq3veptzmy9cyh8hvnlw9nuy7ehd9ucgntvepsvu5y6n","addr1q8nttt39eqecrl5mcruyzesrmlu8zz2pj659g0sf25lzgdtnrgreflxq9nsckhwk02pnxvtmdpzuvxqg5c2yxcgvde8qlkg9g5","addr1q8nttt39eqecrl5mcruyzesrmlu8zz2pj659g0sf25lzgdtnrgreflxq9nsckhwk02pnxvtmdpzuvxqg5c2yxcgvde8qlkg9g5","addr1q8nttt39eqecrl5mcruyzesrmlu8zz2pj659g0sf25lzgdtnrgreflxq9nsckhwk02pnxvtmdpzuvxqg5c2yxcgvde8qlkg9g5","addr1q8nttt39eqecrl5mcruyzesrmlu8zz2pj659g0sf25lzgdtnrgreflxq9nsckhwk02pnxvtmdpzuvxqg5c2yxcgvde8qlkg9g5"],"fee":180901,"totalOutput":108303438,"tokens":[]},{"hash":"77c6d4391ba289b9bc9ceaafd378239c90e3bd08d58b5118c21f1b677610fc0a","blockNo":8108958,"blockHash":"060eda030aadfd7537cb4403e2d0f5fd197f13671d96fd8a902841e4f9facf80","epochNo":380,"epochSlotNo":55200,"slot":78852000,"time":"2022/12/07 13:04:51","addressesInput":["addr1qyu2dvr3mzespg9gyxwtfxhzjvpy73nfsk5f7ckkrzxs8z9k9n9ws0xvp6zmxltltym90d7636pq8ep4srnwhz6t4wgqgv0v7g"],"addressesOutput":["addr1wxn9efv2f6w82hagxqtn62ju4m293tqvw0uhmdl64ch8uwc0h43gt","addr1qyu2dvr3mzespg9gyxwtfxhzjvpy73nfsk5f7ckkrzxs8z9k9n9ws0xvp6zmxltltym90d7636pq8ep4srnwhz6t4wgqgv0v7g","addr1qx97s7nsg3cpyj40s4qgqa9q7jq77y4hxp9998h25hjsp3ak9n9ws0xvp6zmxltltym90d7636pq8ep4srnwhz6t4wgqkfwsud"],"fee":188425,"totalOutput":199129680,"tokens":[]},{"hash":"891dfb998ef47db5da6ad109e9d78a977492d7b96f5ff3dc2d3439e2d6578425","blockNo":8108958,"blockHash":"060eda030aadfd7537cb4403e2d0f5fd197f13671d96fd8a902841e4f9facf80","epochNo":380,"epochSlotNo":55200,"slot":78852000,"time":"2022/12/07 13:04:51","addressesInput":["addr1qx9je6vnml3xzysdk2m2tpy3nc89x3whhz56jh482y55wjrfyc639z7gt85duy3c2ygngpac62hrfn84zhcmwdhm5puqjgkz5r","addr1wy30zf2g4xc7v872fdweewrlj3lh2lgttelmydn0cvhyplsg3vnkq"],"addressesOutput":["addr1qx9je6vnml3xzysdk2m2tpy3nc89x3whhz56jh482y55wjrfyc639z7gt85duy3c2ygngpac62hrfn84zhcmwdhm5puqjgkz5r","addr1wy30zf2g4xc7v872fdweewrlj3lh2lgttelmydn0cvhyplsg3vnkq"],"fee":817789,"totalOutput":173112666,"tokens":[]},{"hash":"ab5d800e128a7c2d56f35fe2bf09096c25934f6cc834372fbf2f90c58beea369","blockNo":8108958,"blockHash":"060eda030aadfd7537cb4403e2d0f5fd197f13671d96fd8a902841e4f9facf80","epochNo":380,"epochSlotNo":55200,"slot":78852000,"time":"2022/12/07 13:04:51","addressesInput":["addr1q9ea47w3h9jnp2hexpyzay8h4r9j2p5ugsfwx0ksrzm37ntf86l9sp2fmalc70w3y2l2g2zu4vhdxjfehq29xgyxetlsx7ak6d"],"addressesOutput":["addr1vx2fgm6gf2rcse9uptzdlewwcc239mc296ssulm8p5jyk0cs3m72m","addr1q9ea47w3h9jnp2hexpyzay8h4r9j2p5ugsfwx0ksrzm37ntf86l9sp2fmalc70w3y2l2g2zu4vhdxjfehq29xgyxetlsx7ak6d"],"fee":167921,"totalOutput":5220887785,"tokens":[]},{"hash":"13705e58abce4c21f4b8944af9966b19ba932ae60c68c6538925580879dfe72c","blockNo":8108958,"blockHash":"060eda030aadfd7537cb4403e2d0f5fd197f13671d96fd8a902841e4f9facf80","epochNo":380,"epochSlotNo":55200,"slot":78852000,"time":"2022/12/07 13:04:51","addressesInput":["addr1qxjxauyry45xwwyk3u3s3knygxx0u4vde3aymdtdc7mg6lk9q7w4cuesmrw5sc0pyjeq4r60mjz68q9p382e8a0jattqllddrf","addr1qxjxauyry45xwwyk3u3s3knygxx0u4vde3aymdtdc7mg6lk9q7w4cuesmrw5sc0pyjeq4r60mjz68q9p382e8a0jattqllddrf","addr1qxjxauyry45xwwyk3u3s3knygxx0u4vde3aymdtdc7mg6lk9q7w4cuesmrw5sc0pyjeq4r60mjz68q9p382e8a0jattqllddrf"],"addressesOutput":["addr1zxgx3far7qygq0k6epa0zcvcvrevmn0ypsnfsue94nsn3tvpw288a4x0xf8pxgcntelxmyclq83s0ykeehchz2wtspks905plm","addr1qxjxauyry45xwwyk3u3s3knygxx0u4vde3aymdtdc7mg6lk9q7w4cuesmrw5sc0pyjeq4r60mjz68q9p382e8a0jattqllddrf","addr1qxjxauyry45xwwyk3u3s3knygxx0u4vde3aymdtdc7mg6lk9q7w4cuesmrw5sc0pyjeq4r60mjz68q9p382e8a0jattqllddrf"],"fee":221073,"totalOutput":77751107,"tokens":[]},{"hash":"d8217936ee2438ed358c8a66273f13c45a74ebc9d187c3debee5983fd64421f8","blockNo":8108958,"blockHash":"060eda030aadfd7537cb4403e2d0f5fd197f13671d96fd8a902841e4f9facf80","epochNo":380,"epochSlotNo":55200,"slot":78852000,"time":"2022/12/07 13:04:51","addressesInput":["addr1qxjvjned790mslrc8lxfcpg4v79sxgvnvttakj0wdtqs34t5mnxfh58zh2ygjm077y325dquf9d0y2xja86a6jrdlhwqzmlntz","addr1qxwsdyqxe0hh3xw56echhcuevuxupnf6nwfy4yk76uq98dm5mnxfh58zh2ygjm077y325dquf9d0y2xja86a6jrdlhwqvhfshd","addr1qy6n6haerygskxktsck83gwvatj5hddct7u3seeweann8at5mnxfh58zh2ygjm077y325dquf9d0y2xja86a6jrdlhwqs4dhsf","addr1qxx3tv2jzxz6k9afwkms4q2zerkx47n2tuea57rmexu6lvt5mnxfh58zh2ygjm077y325dquf9d0y2xja86a6jrdlhwq2f9u9k"],"addressesOutput":["addr1vyrxq9n6eflh08fknc82fu97neh76nzhgrm4svhku0crfxste8zcd","addr1qxz2yau4kapkfqyz98um0pnxf80nwtnmggc5gt2vka2s54t5mnxfh58zh2ygjm077y325dquf9d0y2xja86a6jrdlhwqx3rjpn","addr1qxz2yau4kapkfqyz98um0pnxf80nwtnmggc5gt2vka2s54t5mnxfh58zh2ygjm077y325dquf9d0y2xja86a6jrdlhwqx3rjpn"],"fee":188029,"totalOutput":17618444,"tokens":[]},{"hash":"3efea1646590b10a4bd6bcc2a99cbaef2f2dc748759550963123db12497118e1","blockNo":8108958,"blockHash":"060eda030aadfd7537cb4403e2d0f5fd197f13671d96fd8a902841e4f9facf80","epochNo":380,"epochSlotNo":55200,"slot":78852000,"time":"2022/12/07 13:04:51","addressesInput":["addr1zxgx3far7qygq0k6epa0zcvcvrevmn0ypsnfsue94nsn3tvpw288a4x0xf8pxgcntelxmyclq83s0ykeehchz2wtspks905plm","addr1q94lacp4wynj7w539crf7gmv96n9vf98lhwnhspxz2x3yt9tc40qfxxyfhjlm03d27ek85q9uuph5asljdpplfa59tzq2acjwa"],"addressesOutput":["addr1zxgx3far7qygq0k6epa0zcvcvrevmn0ypsnfsue94nsn3tvpw288a4x0xf8pxgcntelxmyclq83s0ykeehchz2wtspks905plm","addr1q94lacp4wynj7w539crf7gmv96n9vf98lhwnhspxz2x3yt9tc40qfxxyfhjlm03d27ek85q9uuph5asljdpplfa59tzq2acjwa"],"fee":296664,"totalOutput":14520265,"tokens":[]},{"hash":"3aedb287f635698942539c8c5da321c58f8e584e50e76790f9ac43aed9b5c57e","blockNo":8108958,"blockHash":"060eda030aadfd7537cb4403e2d0f5fd197f13671d96fd8a902841e4f9facf80","epochNo":380,"epochSlotNo":55200,"slot":78852000,"time":"2022/12/07 13:04:51","addressesInput":["addr1q8yex70nmx444hhn2xsk6g9ms9lxcjc5thwqdza7ndgwgns7dsqmkkrdpzn83z88hr7dwdcvv0r79p4le3420j69nppq0d7a0j","addr1q8yex70nmx444hhn2xsk6g9ms9lxcjc5thwqdza7ndgwgns7dsqmkkrdpzn83z88hr7dwdcvv0r79p4le3420j69nppq0d7a0j","addr1q8yex70nmx444hhn2xsk6g9ms9lxcjc5thwqdza7ndgwgns7dsqmkkrdpzn83z88hr7dwdcvv0r79p4le3420j69nppq0d7a0j","addr1q8yex70nmx444hhn2xsk6g9ms9lxcjc5thwqdza7ndgwgns7dsqmkkrdpzn83z88hr7dwdcvv0r79p4le3420j69nppq0d7a0j"],"addressesOutput":["addr1q83nw60a7n07snmnp6udzu8yakmu652uz08dv7x9tw78y7jxtxg05yyc6h5qxvhjnpkyexpnzfxm4r7nfxntcpesmfts66tk73","addr1qy20qhyr56qta00cv5j7zyf7ketwevaw8rcc3ml67qmw7hs7dsqmkkrdpzn83z88hr7dwdcvv0r79p4le3420j69nppqq5pwys","addr1qy20qhyr56qta00cv5j7zyf7ketwevaw8rcc3ml67qmw7hs7dsqmkkrdpzn83z88hr7dwdcvv0r79p4le3420j69nppqq5pwys","addr1qy20qhyr56qta00cv5j7zyf7ketwevaw8rcc3ml67qmw7hs7dsqmkkrdpzn83z88hr7dwdcvv0r79p4le3420j69nppqq5pwys","addr1qy20qhyr56qta00cv5j7zyf7ketwevaw8rcc3ml67qmw7hs7dsqmkkrdpzn83z88hr7dwdcvv0r79p4le3420j69nppqq5pwys"],"fee":181649,"totalOutput":649538351,"tokens":[]},{"hash":"88c831ea153bd0ff7486ce36303791dec5608aa0c722418a615f4ed225f25e51","blockNo":8108958,"blockHash":"060eda030aadfd7537cb4403e2d0f5fd197f13671d96fd8a902841e4f9facf80","epochNo":380,"epochSlotNo":55200,"slot":78852000,"time":"2022/12/07 13:04:51","addressesInput":["addr1v8mtpe3lckpe5fk9hg0vad9t89h0jwlpcarqzvvsmppnh3g3s3ens","addr1vxz9dwt23kym2dccq23v3sx4fzk2x7czy6gdsk39vvzjezq7a440u","addr1vytf58c2vmkxf2yxk6e8yesf9fwgma0f9mzxkmzg5kaechqth63dy"],"addressesOutput":["addr1q9w9hzygw7qlpllt7lx5qe245sppmhjzl7vf9as6au28z64j92s4gh8jhstlkmnz4krx49cl3jpxw0gsplw56p3wn2gq39leu0","addr1vypr00ss7hkqejmvh53xkyf0p9q0a4z2uprxmx6njc463vgst3pe4"],"fee":188821,"totalOutput":5860109279,"tokens":[]},{"hash":"dce4e28176453bfb77e7687395894d25a61d1986d6acdaec6f435ab2c23f6406","blockNo":8108958,"blockHash":"060eda030aadfd7537cb4403e2d0f5fd197f13671d96fd8a902841e4f9facf80","epochNo":380,"epochSlotNo":55200,"slot":78852000,"time":"2022/12/07 13:04:51","addressesInput":["addr1vy4nmtfc4jfftgqg369hs2ku6kvcncgzhkemq6mh0u3zgpslf59wr"],"addressesOutput":["addr1q9hhcpjntwtaf9tf8em3a7nj3sntfdj84eyhdelrgngh5d0dyvaxmlu7k8xpwuhxrtn64cugsu3uz9gufcejyvtwct7spjc3vk","addr1q8cfpd84af97awp5cd87jdp6peqwhl6j84ujevr4h89elcp9eucc5kmeds2fa0jgsc7y5n7eyxkd4a8sedrgyv049d4smpzft3","addr1vxwq6drtmsj2js36u7ezut2jjle9qdz3txp28rujuxquxwqhf7068","addr1qyvgqgaxst99ptavm83enm80kvwzqvzu2rvnct87ssnq007wpngqdu3jsxznx6lc50a0z2xel5wfd6nrceryjh4z0s9sk632c2","Ae2tdPwUPEYy47oH53dQnVd4j527dM2KiFyPwpLfkgC2X5uVi8rhieR89iM","addr1q8nwl0v5lyfaknqtyuvf3v66j00fy3z7qcrhylw8ewrg39kr9t65v8jvwge4vg6nqqfx5zjkyd5zr2yxd9ccwuatec8sy0xmka","addr1q8pmkvextcjzgkcwyvknwn28rwczds874ku35updjh5nfylay4a7w3504m2xspa7cj8tyyq0kap03ej4m7xzpfsagcpsesjcse","addr1vy4nmtfc4jfftgqg369hs2ku6kvcncgzhkemq6mh0u3zgpslf59wr"],"fee":191750,"totalOutput":199999808250,"tokens":[]},{"hash":"4743958490a195d5ba0fe7fd1b46118ded70bf111a80716964bcde9a4c460695","blockNo":8108958,"blockHash":"060eda030aadfd7537cb4403e2d0f5fd197f13671d96fd8a902841e4f9facf80","epochNo":380,"epochSlotNo":55200,"slot":78852000,"time":"2022/12/07 13:04:51","addressesInput":["addr1zxgx3far7qygq0k6epa0zcvcvrevmn0ypsnfsue94nsn3tvpw288a4x0xf8pxgcntelxmyclq83s0ykeehchz2wtspks905plm","addr1zxgx3far7qygq0k6epa0zcvcvrevmn0ypsnfsue94nsn3tvpw288a4x0xf8pxgcntelxmyclq83s0ykeehchz2wtspks905plm"],"addressesOutput":["addr1qy58uhg4h8s8fuqa70fcueuqtvd8d9vruch7lpmcuwn47f5c5kcmn7q369e5v3qxah6uxngc76q0gryr6awcjhdgm2wsqxq0gs","addr1qye59j5vquaprdmxf0gs2y3n20necqg3dnzxty23x07u7awkchm0w43pg2uczh4vcvdr59teny2996rq4tmq2umjyqvqlhm7d2","addr1q9cwvremt6n320s2e3agq0jyq82yhrk3htsu0w426xnz5us70z4w0jgvcdkkynmm8wmds66jd9kusnjfpu6raw5fqp0sr07p5w","addr1q8qddmme2rumfgnyk50p8qwcjuh0eknyxqwm8tmln2wkzrq0sc5f4ucs3h7r4wyy2arx0sj0a4e7sa9thma79wvl3prsycchyu","addr1qy58uhg4h8s8fuqa70fcueuqtvd8d9vruch7lpmcuwn47f5c5kcmn7q369e5v3qxah6uxngc76q0gryr6awcjhdgm2wsqxq0gs"],"fee":503232,"totalOutput":100781148,"tokens":[]},{"hash":"30046d890c59c758db3045a457f3675ce9b2a7fbf9a998a2cf303185b093dd84","blockNo":8108958,"blockHash":"060eda030aadfd7537cb4403e2d0f5fd197f13671d96fd8a902841e4f9facf80","epochNo":380,"epochSlotNo":55200,"slot":78852000,"time":"2022/12/07 13:04:51","addressesInput":["addr1qxw9hwmx2t9yldcat49dnahcw8utmknda9tl42gfm20w425pfryj2gatpcn2003uqmpwfw096vcrulg58ftj08luehlspgzyde","addr1qxw9hwmx2t9yldcat49dnahcw8utmknda9tl42gfm20w425pfryj2gatpcn2003uqmpwfw096vcrulg58ftj08luehlspgzyde","addr1qxw9hwmx2t9yldcat49dnahcw8utmknda9tl42gfm20w425pfryj2gatpcn2003uqmpwfw096vcrulg58ftj08luehlspgzyde","addr1qxw9hwmx2t9yldcat49dnahcw8utmknda9tl42gfm20w425pfryj2gatpcn2003uqmpwfw096vcrulg58ftj08luehlspgzyde","addr1qxw9hwmx2t9yldcat49dnahcw8utmknda9tl42gfm20w425pfryj2gatpcn2003uqmpwfw096vcrulg58ftj08luehlspgzyde","addr1qxw9hwmx2t9yldcat49dnahcw8utmknda9tl42gfm20w425pfryj2gatpcn2003uqmpwfw096vcrulg58ftj08luehlspgzyde","addr1qxw9hwmx2t9yldcat49dnahcw8utmknda9tl42gfm20w425pfryj2gatpcn2003uqmpwfw096vcrulg58ftj08luehlspgzyde","addr1qxw9hwmx2t9yldcat49dnahcw8utmknda9tl42gfm20w425pfryj2gatpcn2003uqmpwfw096vcrulg58ftj08luehlspgzyde","addr1qxw9hwmx2t9yldcat49dnahcw8utmknda9tl42gfm20w425pfryj2gatpcn2003uqmpwfw096vcrulg58ftj08luehlspgzyde"],"addressesOutput":["addr1qx33fk5qwwzuv6suuktyf7jxgy5ulpawrxvlx47d9c5nwy80xp46urvt2tkjusceez02xy7swnt2ythmmp7pvu0jutwszgyd39"],"fee":183962,"totalOutput":362190000,"tokens":[]},{"hash":"7f4c1fd61627ee701b672f81662657e3269c8c862d3841c354fc03426018bf95","blockNo":8108958,"blockHash":"060eda030aadfd7537cb4403e2d0f5fd197f13671d96fd8a902841e4f9facf80","epochNo":380,"epochSlotNo":55200,"slot":78852000,"time":"2022/12/07 13:04:51","addressesInput":["addr1qxdtr6wjx3kr7jlrvrfzhrh8w44qx9krcxhvu3e79zr749e46c4hv735d0vvnupe30mvmumc2nz7afryxy8q3597pxyscsqwwu","addr1qxdtr6wjx3kr7jlrvrfzhrh8w44qx9krcxhvu3e79zr749e46c4hv735d0vvnupe30mvmumc2nz7afryxy8q3597pxyscsqwwu"],"addressesOutput":["addr1zxgx3far7qygq0k6epa0zcvcvrevmn0ypsnfsue94nsn3tvpw288a4x0xf8pxgcntelxmyclq83s0ykeehchz2wtspks905plm","addr1qxdtr6wjx3kr7jlrvrfzhrh8w44qx9krcxhvu3e79zr749e46c4hv735d0vvnupe30mvmumc2nz7afryxy8q3597pxyscsqwwu"],"fee":212493,"totalOutput":134037064,"tokens":[]},{"hash":"f48b4c8ced0cccff3dfa87d3e23097733cc48f4b0336d6af96f40295d90699d3","blockNo":8108958,"blockHash":"060eda030aadfd7537cb4403e2d0f5fd197f13671d96fd8a902841e4f9facf80","epochNo":380,"epochSlotNo":55200,"slot":78852000,"time":"2022/12/07 13:04:51","addressesInput":["addr1qxwcj6llhu7lehz2zsv4zwne9ctadtsu7daj7g8xap4ealhfn3z92mnrm590rax759x8mfsc52fwmadwclyh9tcllqyqmgc8z2"],"addressesOutput":["addr1qxwcj6llhu7lehz2zsv4zwne9ctadtsu7daj7g8xap4ealhfn3z92mnrm590rax759x8mfsc52fwmadwclyh9tcllqyqmgc8z2"],"fee":397100,"totalOutput":13751000,"tokens":[]}],"totalItems":56190698,"totalPages":2809535,"currentPage":0}