{"data":[{"hash":"618513fd4c150d80fa3e3ec54d367ab25c57c2eb1f0b11dc141a1ee53af23a3f","blockNo":8265036,"blockHash":"0aba83982f35d88419d9f1b62326772eeeb26c00f0c02ead87229700b65a5735","epochNo":387,"epochSlotNo":230645,"slot":82051445,"time":"2023/01/13 13:48:56","addressesInput":["addr1wxdct40gvyv525zlq79wahkuhmgadjs3q5lkrclemxvlu3qyda7l2","addr1q8skqu8yzay30jstekmtr5q584rwhkl77c554mmdt6t95tq9dn9f5ewwn6ngaxfu56hwdmjwntyls4eys9ty4qrzkxlsc9gkkj","addr1q8skqu8yzay30jstekmtr5q584rwhkl77c554mmdt6t95tq9dn9f5ewwn6ngaxfu56hwdmjwntyls4eys9ty4qrzkxlsc9gkkj","addr1q8skqu8yzay30jstekmtr5q584rwhkl77c554mmdt6t95tq9dn9f5ewwn6ngaxfu56hwdmjwntyls4eys9ty4qrzkxlsc9gkkj"],"addressesOutput":["addr1qxkmr0m22xeqludcg5rjdmecjxasu9fat0680qehtcsnftaadgykewa9ufvegeuca9yyq03d9v7ea2y2zthgu7hfgjtsddp6gr","addr1wxdct40gvyv525zlq79wahkuhmgadjs3q5lkrclemxvlu3qyda7l2","addr1q8skqu8yzay30jstekmtr5q584rwhkl77c554mmdt6t95tq9dn9f5ewwn6ngaxfu56hwdmjwntyls4eys9ty4qrzkxlsc9gkkj"],"fee":359855,"totalOutput":130337907,"tokens":[]},{"hash":"0bcc2a577a16a248e0fc1882e31cc38929bf99f97d54d8db6b77307c5b656dc3","blockNo":8265036,"blockHash":"0aba83982f35d88419d9f1b62326772eeeb26c00f0c02ead87229700b65a5735","epochNo":387,"epochSlotNo":230645,"slot":82051445,"time":"2023/01/13 13:48:56","addressesInput":["addr1zxgx3far7qygq0k6epa0zcvcvrevmn0ypsnfsue94nsn3tvpw288a4x0xf8pxgcntelxmyclq83s0ykeehchz2wtspks905plm","addr1qy3em4r8v4uqyzq98ulm3l46aewevkxnq5ttqe8uq47zu322gfnamqcvdugl5umca66zdzd473ln6rl0uh2gmtm6nqrqk3tu7h"],"addressesOutput":["addr1qy3em4r8v4uqyzq98ulm3l46aewevkxnq5ttqe8uq47zu322gfnamqcvdugl5umca66zdzd473ln6rl0uh2gmtm6nqrqk3tu7h","addr1qy3em4r8v4uqyzq98ulm3l46aewevkxnq5ttqe8uq47zu322gfnamqcvdugl5umca66zdzd473ln6rl0uh2gmtm6nqrqk3tu7h"],"fee":266580,"totalOutput":183128466,"tokens":[]},{"hash":"ee489e37056f5b86d78b2336d89f108eba8a83d6c48e31f5b30fbf4af732c39a","blockNo":8265036,"blockHash":"0aba83982f35d88419d9f1b62326772eeeb26c00f0c02ead87229700b65a5735","epochNo":387,"epochSlotNo":230645,"slot":82051445,"time":"2023/01/13 13:48:56","addressesInput":["addr1qypcpcl39klyuhqed5rldgjssyws2755atk9zgpgkk34e2grsr3lztd7fewpjmg87639pqgaq4aff6hv2ysz3ddrtj5ssgsr57","addr1qypcpcl39klyuhqed5rldgjssyws2755atk9zgpgkk34e2grsr3lztd7fewpjmg87639pqgaq4aff6hv2ysz3ddrtj5ssgsr57"],"addressesOutput":["addr1qypcpcl39klyuhqed5rldgjssyws2755atk9zgpgkk34e2grsr3lztd7fewpjmg87639pqgaq4aff6hv2ysz3ddrtj5ssgsr57","addr1qypcpcl39klyuhqed5rldgjssyws2755atk9zgpgkk34e2grsr3lztd7fewpjmg87639pqgaq4aff6hv2ysz3ddrtj5ssgsr57"],"fee":230910,"totalOutput":46446240,"tokens":[]},{"hash":"80838c952287902161b85f6600c09d1157b229beefc4eb6fbdf8383c71c961fc","blockNo":8265036,"blockHash":"0aba83982f35d88419d9f1b62326772eeeb26c00f0c02ead87229700b65a5735","epochNo":387,"epochSlotNo":230645,"slot":82051445,"time":"2023/01/13 13:48:56","addressesInput":["addr1qyf7c2nl9h3nx9fn3ze79kthtv5rxs9ntpcdqpks45zatzg3gvyqk9zq7hjffgc5nnrs98lpcx9ezww5u5vxv2kh02xse5mlcf","addr1q9yw653r23he4gr5ccr0vp62s2lrzv9qcrx0znrc92vnftc3gvyqk9zq7hjffgc5nnrs98lpcx9ezww5u5vxv2kh02xsq2jhy9","addr1q9yw653r23he4gr5ccr0vp62s2lrzv9qcrx0znrc92vnftc3gvyqk9zq7hjffgc5nnrs98lpcx9ezww5u5vxv2kh02xsq2jhy9"],"addressesOutput":["addr1wxn9efv2f6w82hagxqtn62ju4m293tqvw0uhmdl64ch8uwc0h43gt","addr1q9yw653r23he4gr5ccr0vp62s2lrzv9qcrx0znrc92vnftc3gvyqk9zq7hjffgc5nnrs98lpcx9ezww5u5vxv2kh02xsq2jhy9","addr1q9nrn2fsdxa0lepkz5vddwsdz0ammcl38vvffuse6ddhulg3gvyqk9zq7hjffgc5nnrs98lpcx9ezww5u5vxv2kh02xs089snh"],"fee":196345,"totalOutput":3402490315,"tokens":[]},{"hash":"11262f6de32f46da1be471436b81f7d60b1ffce65588146ce48cde779d952330","blockNo":8265036,"blockHash":"0aba83982f35d88419d9f1b62326772eeeb26c00f0c02ead87229700b65a5735","epochNo":387,"epochSlotNo":230645,"slot":82051445,"time":"2023/01/13 13:48:56","addressesInput":["addr1qyg33dz7ayhe2pmfpu8tau8arz06sd4p22harcje5ru2mtq3rz69a6f0j5rkjrcwhmc06xyl4qm2z5406839ng8c4kkqcmhflw","addr1qyg33dz7ayhe2pmfpu8tau8arz06sd4p22harcje5ru2mtq3rz69a6f0j5rkjrcwhmc06xyl4qm2z5406839ng8c4kkqcmhflw"],"addressesOutput":["addr1qyg33dz7ayhe2pmfpu8tau8arz06sd4p22harcje5ru2mtq3rz69a6f0j5rkjrcwhmc06xyl4qm2z5406839ng8c4kkqcmhflw","addr1qyg33dz7ayhe2pmfpu8tau8arz06sd4p22harcje5ru2mtq3rz69a6f0j5rkjrcwhmc06xyl4qm2z5406839ng8c4kkqcmhflw"],"fee":233854,"totalOutput":493400097,"tokens":[]},{"hash":"59a1c9f1d95778cb055572ec15194954ec4a0dc78483070ab26513b8aff38772","blockNo":8265036,"blockHash":"0aba83982f35d88419d9f1b62326772eeeb26c00f0c02ead87229700b65a5735","epochNo":387,"epochSlotNo":230645,"slot":82051445,"time":"2023/01/13 13:48:56","addressesInput":["addr1qyhp3cql0jrrfantylufa0j9gy8u0pqx0qesd4uz5mhf0fpwrrsp7lyxxnmxkflcn6ly2sg0c7zqv7pnqmtc9fhwj7jq867r03"],"addressesOutput":["addr1qxnj2f52kcm3gr3rta4zwhg5lnwgtaa82lnfcn446uzhen5e0la75984zug6gfrvm49572ednstvey7l2a5742kz5e7s35a24m","addr1qyhp3cql0jrrfantylufa0j9gy8u0pqx0qesd4uz5mhf0fpwrrsp7lyxxnmxkflcn6ly2sg0c7zqv7pnqmtc9fhwj7jq867r03"],"fee":223219,"totalOutput":154326433,"tokens":[]},{"hash":"332178bce07159cdc297d41740ce287a9ad6ec5a1d6c4b8d66835c1634c3167c","blockNo":8265036,"blockHash":"0aba83982f35d88419d9f1b62326772eeeb26c00f0c02ead87229700b65a5735","epochNo":387,"epochSlotNo":230645,"slot":82051445,"time":"2023/01/13 13:48:56","addressesInput":["addr1wy30zf2g4xc7v872fdweewrlj3lh2lgttelmydn0cvhyplsg3vnkq","addr1q8gml9298kqw85nfny24ykmgy5drs9tesfg882madkz8jynca3vvu4qlyu0el0lpx9uk37zwhn3mz35kkxza96vzvemscvxv6n"],"addressesOutput":["addr1q8gml9298kqw85nfny24ykmgy5drs9tesfg882madkz8jynca3vvu4qlyu0el0lpx9uk37zwhn3mz35kkxza96vzvemscvxv6n","addr1wy30zf2g4xc7v872fdweewrlj3lh2lgttelmydn0cvhyplsg3vnkq"],"fee":817965,"totalOutput":21293393053,"tokens":[]},{"hash":"c779167d92175edb0786f3dbd014bdd8045d67637e62036913323c6e7bf8bd04","blockNo":8265036,"blockHash":"0aba83982f35d88419d9f1b62326772eeeb26c00f0c02ead87229700b65a5735","epochNo":387,"epochSlotNo":230645,"slot":82051445,"time":"2023/01/13 13:48:56","addressesInput":["addr1qx2at38g67duav26y87ncqurafamptwxt3s5pffmeahgg0njzsp0axkgsxw49zsvh6fz8c3v9r93gw323qgp8ajkk2xqlgqm0q","addr1qx2at38g67duav26y87ncqurafamptwxt3s5pffmeahgg0njzsp0axkgsxw49zsvh6fz8c3v9r93gw323qgp8ajkk2xqlgqm0q","addr1qx2at38g67duav26y87ncqurafamptwxt3s5pffmeahgg0njzsp0axkgsxw49zsvh6fz8c3v9r93gw323qgp8ajkk2xqlgqm0q"],"addressesOutput":["addr1zxgx3far7qygq0k6epa0zcvcvrevmn0ypsnfsue94nsn3tvpw288a4x0xf8pxgcntelxmyclq83s0ykeehchz2wtspks905plm","addr1qx2at38g67duav26y87ncqurafamptwxt3s5pffmeahgg0njzsp0axkgsxw49zsvh6fz8c3v9r93gw323qgp8ajkk2xqlgqm0q","addr1qx2at38g67duav26y87ncqurafamptwxt3s5pffmeahgg0njzsp0axkgsxw49zsvh6fz8c3v9r93gw323qgp8ajkk2xqlgqm0q"],"fee":251565,"totalOutput":193008598,"tokens":[]},{"hash":"23a66be614cfce9a7b9a20bb3b3b61506be694e70ceead763faf2500f3a4a3a7","blockNo":8265036,"blockHash":"0aba83982f35d88419d9f1b62326772eeeb26c00f0c02ead87229700b65a5735","epochNo":387,"epochSlotNo":230645,"slot":82051445,"time":"2023/01/13 13:48:56","addressesInput":["addr1q9uu2k8cmcpy2qc49vjus0phwtdchdmpq8hflwgn0gugvfaya8kcefsqkf5s82jc7g06g55gm33255x244gxyvzygkhs2j24cd"],"addressesOutput":["addr1qy9avzkrnqs5eggdjhmcpwdxjc8cn47zcq6xh84q4wzc0jjcp42kfagx00qq6u89rcg5cnlltc3hcwl9r62qdwjmh3zsdpd2u3","addr1qy6wgalqqrtfljvl4vg3g0cel6gwx60rv7mkdl4jm3gvecaya8kcefsqkf5s82jc7g06g55gm33255x244gxyvzygkhsh9qwk9"],"fee":169197,"totalOutput":1126596155,"tokens":[]},{"hash":"effa9cb2af4ecffe969881522c583477be75ef4bebb0cb915653d948a73c460b","blockNo":8265036,"blockHash":"0aba83982f35d88419d9f1b62326772eeeb26c00f0c02ead87229700b65a5735","epochNo":387,"epochSlotNo":230645,"slot":82051445,"time":"2023/01/13 13:48:56","addressesInput":["addr1w999n67e86jn6xal07pzxtrmqynspgx0fwmcmpua4wc6yzsxpljz3","addr1q9cla3cfnhaq7gvra0he9wklu0ykczzh803jn42932crkp0w9gyz4guursspme2qsl5lp85cx374gjyuq5sjtdjc34uq3kcljg"],"addressesOutput":["addr1w999n67e86jn6xal07pzxtrmqynspgx0fwmcmpua4wc6yzsxpljz3","addr1q9cla3cfnhaq7gvra0he9wklu0ykczzh803jn42932crkp0w9gyz4guursspme2qsl5lp85cx374gjyuq5sjtdjc34uq3kcljg","addr1q9cla3cfnhaq7gvra0he9wklu0ykczzh803jn42932crkp0w9gyz4guursspme2qsl5lp85cx374gjyuq5sjtdjc34uq3kcljg"],"fee":497689,"totalOutput":111725197,"tokens":[]},{"hash":"27eed441cd27732d9658f04ae575dfddf48de1af178366f76a8d441e59371072","blockNo":8265036,"blockHash":"0aba83982f35d88419d9f1b62326772eeeb26c00f0c02ead87229700b65a5735","epochNo":387,"epochSlotNo":230645,"slot":82051445,"time":"2023/01/13 13:48:56","addressesInput":["addr1qyz5elvyx07qme9vx3z5ylqegxuamnefs2x3hzl5qxzscxck4uwrd8234yc4uxmc090f33e3uq0g97z4guwa4r06ajwqqvxuj4","addr1qyz5elvyx07qme9vx3z5ylqegxuamnefs2x3hzl5qxzscxck4uwrd8234yc4uxmc090f33e3uq0g97z4guwa4r06ajwqqvxuj4"],"addressesOutput":["addr1qxjpwtye2hflcd2v09uh3jrtkkvuakpglten59d9caqm80p7w0q8gx2nff4kah2rq278xdl237xmwh2a9xh5p6lg8qeqlu4xad","addr1qx6dztu2xy6k3vzp44dzhqwl2lunq0e4tkuu4272njsn5mqk4uwrd8234yc4uxmc090f33e3uq0g97z4guwa4r06ajwqgvdm5k"],"fee":169901,"totalOutput":1084472559,"tokens":[]},{"hash":"961a76b10113333972bc7e36e644a144e8f3760e43fcdc4b7003115b99246b2a","blockNo":8265036,"blockHash":"0aba83982f35d88419d9f1b62326772eeeb26c00f0c02ead87229700b65a5735","epochNo":387,"epochSlotNo":230645,"slot":82051445,"time":"2023/01/13 13:48:56","addressesInput":["addr1qx8xg0w32c6g0zh7rcm07dvtwe0ms7n8utgxtpjgkg7vnqw6vz9h7r6wgpjxk2s8rt5uaru0lcv8ccwj9a40rpvglv2s32m2j4","addr1qx8xg0w32c6g0zh7rcm07dvtwe0ms7n8utgxtpjgkg7vnqw6vz9h7r6wgpjxk2s8rt5uaru0lcv8ccwj9a40rpvglv2s32m2j4"],"addressesOutput":["addr1vxrmu3m2cc5k6xltupj86a2uzcuq8r4nhznrhfq0pkwl4hgqj2v8w","addr1vyzd6yttznr37l6wxxuzxeyfps6rg68xttcrvz8twvzqlscyn6rtt","addr1qx8xg0w32c6g0zh7rcm07dvtwe0ms7n8utgxtpjgkg7vnqw6vz9h7r6wgpjxk2s8rt5uaru0lcv8ccwj9a40rpvglv2s32m2j4"],"fee":227365,"totalOutput":275359901,"tokens":[]},{"hash":"d2f730e61546e973ab9164f10f3d1d5794634210dd5354abc739e84daf0e6d8e","blockNo":8265036,"blockHash":"0aba83982f35d88419d9f1b62326772eeeb26c00f0c02ead87229700b65a5735","epochNo":387,"epochSlotNo":230645,"slot":82051445,"time":"2023/01/13 13:48:56","addressesInput":["addr1qy4m0sp824hms8w7qy7ucgh6gw5rjhnkh47jj2y376r8ly78gj9gewxpw9aaw6enugdf48dqzsw0aev772k9rjdcprxqfla88m","addr1w89wq77ksj7t9ch32dtgst02cxmvc7ptqfwuyw4wzp6cgugwa8fj4","addr1qy4m0sp824hms8w7qy7ucgh6gw5rjhnkh47jj2y376r8ly78gj9gewxpw9aaw6enugdf48dqzsw0aev772k9rjdcprxqfla88m"],"addressesOutput":["addr1vxg4dazeyyzc40g26ty22uyz5nrnax4gmyfj8m87xl44wvsw3pyfp","addr1qy4m0sp824hms8w7qy7ucgh6gw5rjhnkh47jj2y376r8ly78gj9gewxpw9aaw6enugdf48dqzsw0aev772k9rjdcprxqfla88m"],"fee":206645,"totalOutput":4972371,"tokens":[]},{"hash":"19c473a852556b17ec3593a2f10ad86a36d99ea891d8351958322615fdea6e14","blockNo":8265036,"blockHash":"0aba83982f35d88419d9f1b62326772eeeb26c00f0c02ead87229700b65a5735","epochNo":387,"epochSlotNo":230645,"slot":82051445,"time":"2023/01/13 13:48:56","addressesInput":["addr1qymvzlzp5vunslcwgkq3cus39nh2lrmpuk9308nxs73nqjm4sar0he5krft3jsp4nrdze2aclypm8d4w2r669966re6qc023mr"],"addressesOutput":["addr1v9slwmwrgemkn7ucdws6kq6qmz3d4f2etqergjm247c0k7q0r43ps","addr1qxlez2fp82gewdp7jh388xhy8cx998s3a93u4ntrlfghn9n4sar0he5krft3jsp4nrdze2aclypm8d4w2r669966re6qrx3lsp"],"fee":167085,"totalOutput":6654332915,"tokens":[]},{"hash":"eb140259cd8a0904212767f4752c4bdb762ab07fa23b10e2e1f23a872fa0a760","blockNo":8265035,"blockHash":"a53b61091140b83449707a1f3967c7174ce634f54347234d9aad837fd76999a6","epochNo":387,"epochSlotNo":230631,"slot":82051431,"time":"2023/01/13 13:48:42","addressesInput":["addr1qxerumkjmsrxj6utqcvv8ap4zw6v22x4qq7742k65udj4d9sl8tqttgrfp6kwetud0sk7avttreve7sgrpzc33nvewlqqneuj0"],"addressesOutput":["addr1q93pdfn73k6up466cea8rg982st83jxgt56kux69y5rpkz2usre907j6vjxr6j3y2jlq5w40stdug2tew8p0cf0lcchqj4eppp","addr1q96c47ewy525358wu750yr54n354h73a6d09ervymwcsvldsl8tqttgrfp6kwetud0sk7avttreve7sgrpzc33nvewlqev9vr5"],"fee":168669,"totalOutput":1737678383599,"tokens":[]},{"hash":"7134245601b023e20c918a64e2ba984c59992dd4d66141a4fec7b5f5b954adc7","blockNo":8265035,"blockHash":"a53b61091140b83449707a1f3967c7174ce634f54347234d9aad837fd76999a6","epochNo":387,"epochSlotNo":230631,"slot":82051431,"time":"2023/01/13 13:48:42","addressesInput":["addr1q8zpv7dy3frh9sa4rny0vn7xxcnczatptalasdcah6c4txr27zhf04n67pnmasx8jmqvyynvl3295xzgrjhrfljek0uqmscq5j","addr1q8zpv7dy3frh9sa4rny0vn7xxcnczatptalasdcah6c4txr27zhf04n67pnmasx8jmqvyynvl3295xzgrjhrfljek0uqmscq5j"],"addressesOutput":["addr1qy02sq8carpuknh7wg79qyutx4zug8erq2mr0xg2yvym0pqguf44j6h5c5n09ruqsf8dwpayxeas626vxn4lmpjd549q9hv33k","addr1q8zpv7dy3frh9sa4rny0vn7xxcnczatptalasdcah6c4txr27zhf04n67pnmasx8jmqvyynvl3295xzgrjhrfljek0uqmscq5j"],"fee":174697,"totalOutput":8985891,"tokens":[]},{"hash":"90f4359cbb5c42013a2c8172fe125e38aeb78b24cf82150d64f081b971db0864","blockNo":8265035,"blockHash":"a53b61091140b83449707a1f3967c7174ce634f54347234d9aad837fd76999a6","epochNo":387,"epochSlotNo":230631,"slot":82051431,"time":"2023/01/13 13:48:42","addressesInput":["addr1q98jmhge3fvqzaqh8jueueex778nkqqs4mr3ghau29764f0c5rjultwxpfssm657f6v7yhaffq5qhml05flm5r64x7cq5k8tw9","addr1q98jmhge3fvqzaqh8jueueex778nkqqs4mr3ghau29764f0c5rjultwxpfssm657f6v7yhaffq5qhml05flm5r64x7cq5k8tw9"],"addressesOutput":["addr1vxggxj4wlk2am3emz3gzaq0d6ve2ryvywx6xuzunhw6eg0gy9edkq","addr1q98jmhge3fvqzaqh8jueueex778nkqqs4mr3ghau29764f0c5rjultwxpfssm657f6v7yhaffq5qhml05flm5r64x7cq5k8tw9"],"fee":170913,"totalOutput":111939878,"tokens":[]},{"hash":"11e2297c49b54dcc0a078e72e418b352f7618ef2430d3077389f7c0adc521c22","blockNo":8265035,"blockHash":"a53b61091140b83449707a1f3967c7174ce634f54347234d9aad837fd76999a6","epochNo":387,"epochSlotNo":230631,"slot":82051431,"time":"2023/01/13 13:48:42","addressesInput":["addr1qxwllecwj9zlah00k6rql2hrt8n0vrynn0n4qke7lhr4ftyscyf3ew9jheqh2eam4eluhe0hv00a66fc0hmmvpjvumxqqwadsw","addr1qxwllecwj9zlah00k6rql2hrt8n0vrynn0n4qke7lhr4ftyscyf3ew9jheqh2eam4eluhe0hv00a66fc0hmmvpjvumxqqwadsw"],"addressesOutput":["addr1zxgx3far7qygq0k6epa0zcvcvrevmn0ypsnfsue94nsn3tvpw288a4x0xf8pxgcntelxmyclq83s0ykeehchz2wtspks905plm","addr1qxwllecwj9zlah00k6rql2hrt8n0vrynn0n4qke7lhr4ftyscyf3ew9jheqh2eam4eluhe0hv00a66fc0hmmvpjvumxqqwadsw","addr1qxwllecwj9zlah00k6rql2hrt8n0vrynn0n4qke7lhr4ftyscyf3ew9jheqh2eam4eluhe0hv00a66fc0hmmvpjvumxqqwadsw"],"fee":251741,"totalOutput":47869974,"tokens":[]},{"hash":"9319c00be350162941c63a2021fc3bae97d2520578d82e7e83c82abb1f4c0efe","blockNo":8265035,"blockHash":"a53b61091140b83449707a1f3967c7174ce634f54347234d9aad837fd76999a6","epochNo":387,"epochSlotNo":230631,"slot":82051431,"time":"2023/01/13 13:48:42","addressesInput":["addr1qxw73awuxnxjdrx4e824xfm4pl2znsn9y9c5mne9kadgmt2pyjanw3zt7flxhe7snd0vqvjmhqt5km0dtndk5vxt0cwqfckcq7","addr1qxw73awuxnxjdrx4e824xfm4pl2znsn9y9c5mne9kadgmt2pyjanw3zt7flxhe7snd0vqvjmhqt5km0dtndk5vxt0cwqfckcq7","addr1qxw73awuxnxjdrx4e824xfm4pl2znsn9y9c5mne9kadgmt2pyjanw3zt7flxhe7snd0vqvjmhqt5km0dtndk5vxt0cwqfckcq7","addr1qxw73awuxnxjdrx4e824xfm4pl2znsn9y9c5mne9kadgmt2pyjanw3zt7flxhe7snd0vqvjmhqt5km0dtndk5vxt0cwqfckcq7"],"addressesOutput":["addr1qx5jv4kup7hathpmxsvclushmhv0raqs8gpumry47mf3rvhm9gly7mwjawl2apqz30ugnls8h8yj5mggxcuzqdfa58js967r75","addr1qxw73awuxnxjdrx4e824xfm4pl2znsn9y9c5mne9kadgmt2pyjanw3zt7flxhe7snd0vqvjmhqt5km0dtndk5vxt0cwqfckcq7","addr1qxw73awuxnxjdrx4e824xfm4pl2znsn9y9c5mne9kadgmt2pyjanw3zt7flxhe7snd0vqvjmhqt5km0dtndk5vxt0cwqfckcq7"],"fee":183409,"totalOutput":286083183,"tokens":[]},{"hash":"b67f1f1ba335a425fc35c7c6a03cf89ee480a65b0997b29e4c5968cbadcd3eb2","blockNo":8265035,"blockHash":"a53b61091140b83449707a1f3967c7174ce634f54347234d9aad837fd76999a6","epochNo":387,"epochSlotNo":230631,"slot":82051431,"time":"2023/01/13 13:48:42","addressesInput":["addr1qxqt8uevuy6yqsgce75ppzqup6rzt9v9j2swah784d5srexnla4xnklqrt99sd62vcngm6z886k9at5mtgzrcxu5gxsql670uc","addr1qxqt8uevuy6yqsgce75ppzqup6rzt9v9j2swah784d5srexnla4xnklqrt99sd62vcngm6z886k9at5mtgzrcxu5gxsql670uc","addr1qxqt8uevuy6yqsgce75ppzqup6rzt9v9j2swah784d5srexnla4xnklqrt99sd62vcngm6z886k9at5mtgzrcxu5gxsql670uc","addr1qxqt8uevuy6yqsgce75ppzqup6rzt9v9j2swah784d5srexnla4xnklqrt99sd62vcngm6z886k9at5mtgzrcxu5gxsql670uc","addr1qxqt8uevuy6yqsgce75ppzqup6rzt9v9j2swah784d5srexnla4xnklqrt99sd62vcngm6z886k9at5mtgzrcxu5gxsql670uc","addr1qxqt8uevuy6yqsgce75ppzqup6rzt9v9j2swah784d5srexnla4xnklqrt99sd62vcngm6z886k9at5mtgzrcxu5gxsql670uc","addr1qxqt8uevuy6yqsgce75ppzqup6rzt9v9j2swah784d5srexnla4xnklqrt99sd62vcngm6z886k9at5mtgzrcxu5gxsql670uc","addr1qxqt8uevuy6yqsgce75ppzqup6rzt9v9j2swah784d5srexnla4xnklqrt99sd62vcngm6z886k9at5mtgzrcxu5gxsql670uc","addr1qxqt8uevuy6yqsgce75ppzqup6rzt9v9j2swah784d5srexnla4xnklqrt99sd62vcngm6z886k9at5mtgzrcxu5gxsql670uc","addr1qxqt8uevuy6yqsgce75ppzqup6rzt9v9j2swah784d5srexnla4xnklqrt99sd62vcngm6z886k9at5mtgzrcxu5gxsql670uc","addr1qxqt8uevuy6yqsgce75ppzqup6rzt9v9j2swah784d5srexnla4xnklqrt99sd62vcngm6z886k9at5mtgzrcxu5gxsql670uc","addr1qxqt8uevuy6yqsgce75ppzqup6rzt9v9j2swah784d5srexnla4xnklqrt99sd62vcngm6z886k9at5mtgzrcxu5gxsql670uc","addr1qxqt8uevuy6yqsgce75ppzqup6rzt9v9j2swah784d5srexnla4xnklqrt99sd62vcngm6z886k9at5mtgzrcxu5gxsql670uc","addr1qxqt8uevuy6yqsgce75ppzqup6rzt9v9j2swah784d5srexnla4xnklqrt99sd62vcngm6z886k9at5mtgzrcxu5gxsql670uc","addr1qxqt8uevuy6yqsgce75ppzqup6rzt9v9j2swah784d5srexnla4xnklqrt99sd62vcngm6z886k9at5mtgzrcxu5gxsql670uc","addr1qxqt8uevuy6yqsgce75ppzqup6rzt9v9j2swah784d5srexnla4xnklqrt99sd62vcngm6z886k9at5mtgzrcxu5gxsql670uc","addr1qxqt8uevuy6yqsgce75ppzqup6rzt9v9j2swah784d5srexnla4xnklqrt99sd62vcngm6z886k9at5mtgzrcxu5gxsql670uc","addr1qxqt8uevuy6yqsgce75ppzqup6rzt9v9j2swah784d5srexnla4xnklqrt99sd62vcngm6z886k9at5mtgzrcxu5gxsql670uc","addr1qxqt8uevuy6yqsgce75ppzqup6rzt9v9j2swah784d5srexnla4xnklqrt99sd62vcngm6z886k9at5mtgzrcxu5gxsql670uc","addr1qxqt8uevuy6yqsgce75ppzqup6rzt9v9j2swah784d5srexnla4xnklqrt99sd62vcngm6z886k9at5mtgzrcxu5gxsql670uc","addr1qxqt8uevuy6yqsgce75ppzqup6rzt9v9j2swah784d5srexnla4xnklqrt99sd62vcngm6z886k9at5mtgzrcxu5gxsql670uc","addr1qxqt8uevuy6yqsgce75ppzqup6rzt9v9j2swah784d5srexnla4xnklqrt99sd62vcngm6z886k9at5mtgzrcxu5gxsql670uc","addr1qxqt8uevuy6yqsgce75ppzqup6rzt9v9j2swah784d5srexnla4xnklqrt99sd62vcngm6z886k9at5mtgzrcxu5gxsql670uc","addr1qxqt8uevuy6yqsgce75ppzqup6rzt9v9j2swah784d5srexnla4xnklqrt99sd62vcngm6z886k9at5mtgzrcxu5gxsql670uc","addr1qxqt8uevuy6yqsgce75ppzqup6rzt9v9j2swah784d5srexnla4xnklqrt99sd62vcngm6z886k9at5mtgzrcxu5gxsql670uc","addr1qxqt8uevuy6yqsgce75ppzqup6rzt9v9j2swah784d5srexnla4xnklqrt99sd62vcngm6z886k9at5mtgzrcxu5gxsql670uc","addr1qxqt8uevuy6yqsgce75ppzqup6rzt9v9j2swah784d5srexnla4xnklqrt99sd62vcngm6z886k9at5mtgzrcxu5gxsql670uc","addr1qxqt8uevuy6yqsgce75ppzqup6rzt9v9j2swah784d5srexnla4xnklqrt99sd62vcngm6z886k9at5mtgzrcxu5gxsql670uc","addr1qxqt8uevuy6yqsgce75ppzqup6rzt9v9j2swah784d5srexnla4xnklqrt99sd62vcngm6z886k9at5mtgzrcxu5gxsql670uc","addr1qxqt8uevuy6yqsgce75ppzqup6rzt9v9j2swah784d5srexnla4xnklqrt99sd62vcngm6z886k9at5mtgzrcxu5gxsql670uc","addr1qxqt8uevuy6yqsgce75ppzqup6rzt9v9j2swah784d5srexnla4xnklqrt99sd62vcngm6z886k9at5mtgzrcxu5gxsql670uc","addr1qxqt8uevuy6yqsgce75ppzqup6rzt9v9j2swah784d5srexnla4xnklqrt99sd62vcngm6z886k9at5mtgzrcxu5gxsql670uc","addr1qxqt8uevuy6yqsgce75ppzqup6rzt9v9j2swah784d5srexnla4xnklqrt99sd62vcngm6z886k9at5mtgzrcxu5gxsql670uc","addr1qxqt8uevuy6yqsgce75ppzqup6rzt9v9j2swah784d5srexnla4xnklqrt99sd62vcngm6z886k9at5mtgzrcxu5gxsql670uc","addr1qxqt8uevuy6yqsgce75ppzqup6rzt9v9j2swah784d5srexnla4xnklqrt99sd62vcngm6z886k9at5mtgzrcxu5gxsql670uc","addr1qxqt8uevuy6yqsgce75ppzqup6rzt9v9j2swah784d5srexnla4xnklqrt99sd62vcngm6z886k9at5mtgzrcxu5gxsql670uc","addr1qxqt8uevuy6yqsgce75ppzqup6rzt9v9j2swah784d5srexnla4xnklqrt99sd62vcngm6z886k9at5mtgzrcxu5gxsql670uc"],"addressesOutput":["addr1zxgx3far7qygq0k6epa0zcvcvrevmn0ypsnfsue94nsn3tvpw288a4x0xf8pxgcntelxmyclq83s0ykeehchz2wtspks905plm","addr1qxqt8uevuy6yqsgce75ppzqup6rzt9v9j2swah784d5srexnla4xnklqrt99sd62vcngm6z886k9at5mtgzrcxu5gxsql670uc","addr1qxqt8uevuy6yqsgce75ppzqup6rzt9v9j2swah784d5srexnla4xnklqrt99sd62vcngm6z886k9at5mtgzrcxu5gxsql670uc"],"fee":459597,"totalOutput":757937140,"tokens":[]}],"totalItems":58901530,"totalPages":2945077,"currentPage":0}