{"data":[{"blockNo":8101441,"slotNo":78695553,"epochNo":379,"epochSlotNo":330753,"hash":"9a8825fc2805fa91f6a4b7c1a8ef9d35869ac47123d52367ef01a59b9f58b609","time":"2022/12/05 17:37:24","txCount":24,"totalFees":6473586,"totalOutput":71761996342,"slotLeader":"5b5804135b07be6f3635a655ed1b68ddef1854523b45cd1840a6fc33"},{"blockNo":8101440,"slotNo":78695525,"epochNo":379,"epochSlotNo":330725,"hash":"18588e0c0b4fee9f1c7491bce49ef65638a7029310feecac8ba7240783012c64","time":"2022/12/05 17:36:56","txCount":4,"totalFees":2832504,"totalOutput":41442241102,"slotLeader":"a2d42d873250321acca2d7cc7a5465f9060892bdbb645b4dedb28125"},{"blockNo":8101439,"slotNo":78695522,"epochNo":379,"epochSlotNo":330722,"hash":"89bfd125d2d72bc95bf24ddaa7a4c5b7330832c049cc526bb7852c2e7360ac10","time":"2022/12/05 17:36:53","txCount":8,"totalFees":3392025,"totalOutput":3044187046866,"slotLeader":"fdb0d8ba88d434c8dd3ab3974a3401efc7b016e54c7387c63398aec4"},{"blockNo":8101438,"slotNo":78695511,"epochNo":379,"epochSlotNo":330711,"hash":"97aae9c700a64ce0fc07751caf283a931c837be466d41c0ad2feb1136c70978f","time":"2022/12/05 17:36:42","txCount":42,"totalFees":13793258,"totalOutput":18799977875435,"slotLeader":"a60950c7a6e3f7a8247b34035d0a98cb0d11f2d04ba5fa9fd17e1065"},{"blockNo":8101437,"slotNo":78695490,"epochNo":379,"epochSlotNo":330690,"hash":"97cd0cdac7db8c51a4138ec7424a8cf08bba0958448473da4f8d0ea899c559f6","time":"2022/12/05 17:36:21","txCount":32,"totalFees":10322060,"totalOutput":33093599021737,"slotLeader":"bdd750e173f3d606c1af13b8661da7c0b5fa43121741c593cceec822"},{"blockNo":8101436,"slotNo":78695424,"epochNo":379,"epochSlotNo":330624,"hash":"2f9363792d25205ae1c9b60f738ef0705043e93f2207c75c859cee50f786b673","time":"2022/12/05 17:35:15","txCount":25,"totalFees":7996523,"totalOutput":4113763097475,"slotLeader":"970e9a7ae4677b152c27a0eba3db996b372de094d24fc2974768f3da"},{"blockNo":8101435,"slotNo":78695396,"epochNo":379,"epochSlotNo":330596,"hash":"445d8bd1d97a5842ba90820dfd9b2b95bc58d162953a77c42fba02b358c2ab54","time":"2022/12/05 17:34:47","txCount":46,"totalFees":14050491,"totalOutput":2323206453797,"slotLeader":"00004614332ac81201d8302d4cb8262502af229256e143dc2156156e"},{"blockNo":8101434,"slotNo":78695343,"epochNo":379,"epochSlotNo":330543,"hash":"78f5316f2ad7ef2707c877d2a81f65143698a7acb40d2a0372681daa4721dc70","time":"2022/12/05 17:33:54","txCount":10,"totalFees":2489285,"totalOutput":8410720302,"slotLeader":"fdc55442d4c89bfa42bb62ac640ed710afd6eb79531e6dbb8459eb46"},{"blockNo":8101433,"slotNo":78695334,"epochNo":379,"epochSlotNo":330534,"hash":"acc68b95a04dc3f80cf3866e0976170bb9e11bfc63c1db740f799f1c8a74bd21","time":"2022/12/05 17:33:45","txCount":30,"totalFees":8777042,"totalOutput":6196305801295,"slotLeader":"7d45120fc9e82f8b69d886057d80630b721e8f033cb8e3f26621d7bd"},{"blockNo":8101432,"slotNo":78695316,"epochNo":379,"epochSlotNo":330516,"hash":"6a21a8f7f32aedca9daa73c6a2132f2f26c6af17b46f336d8c14222af1709d35","time":"2022/12/05 17:33:27","txCount":8,"totalFees":2018194,"totalOutput":362719268397,"slotLeader":"ed40b0a319f639a70b1e2a4de00f112c4f7b7d4849f0abd25c4336a4"}],"totalItems":16066,"totalPages":1607,"currentPage":0}