{"data":[{"blockNo":6833375,"slotNo":52260174,"epochNo":318,"epochSlotNo":247374,"hash":"829c642929cf5127cdf6f42684d767f7fb3db8d248c98d89ac41df9acf5325bd","time":"2022/02/02 18:27:45","txCount":19,"totalFees":8626891,"totalOutput":19090296310,"slotLeader":"c5293f2ba88ac474787358b9c2f4fae7b3c4408f79cdf89a12c9ece4"},{"blockNo":6833374,"slotNo":52260170,"epochNo":318,"epochSlotNo":247370,"hash":"476db7ad4523b5ecff51377698d0d2733083ff5ae59003ed7702c79afdc2f440","time":"2022/02/02 18:27:41","txCount":65,"totalFees":16012475,"totalOutput":355198546031,"slotLeader":"79c4d4fe108f480fee98f307adac12571df2959651f833b595141cd1"},{"blockNo":6833373,"slotNo":52260156,"epochNo":318,"epochSlotNo":247356,"hash":"c561e908b41904860af370e47964e0a701370c1080fcad59fd4175f6ea9d1611","time":"2022/02/02 18:27:27","txCount":42,"totalFees":13013202,"totalOutput":18318225918,"slotLeader":"00000110093effbf3ce788aebd3e7506b80322bd3995ad432e61fad5"},{"blockNo":6833372,"slotNo":52260122,"epochNo":318,"epochSlotNo":247322,"hash":"89bced070193b1128821125129292aaaf12620ac448ee9fbbe96b26aa3ff1f0e","time":"2022/02/02 18:26:53","txCount":54,"totalFees":15106076,"totalOutput":335504285211,"slotLeader":"17a6a1f2fb36d9ef275805db17409af7ab753b9d27bdd41b89510bb9"},{"blockNo":6833371,"slotNo":52260116,"epochNo":318,"epochSlotNo":247316,"hash":"96ea113097837569a1dcac3a722514658477115522f74c5a04e3e70d96bfba9c","time":"2022/02/02 18:26:47","txCount":26,"totalFees":11446645,"totalOutput":23128754459,"slotLeader":"3257f318b0f84542aef842dc86ca362e5f35ce21a827b142233d5b63"},{"blockNo":6833370,"slotNo":52260098,"epochNo":318,"epochSlotNo":247298,"hash":"40d42d6f247821e09332c6c8caa5a451ab7da827928cf148e1b73918a5b4c576","time":"2022/02/02 18:26:29","txCount":29,"totalFees":13794978,"totalOutput":2023844384077,"slotLeader":"d31f204c4a1701068d3a116b9c50662b60f365178336d6f7825ea547"},{"blockNo":6833369,"slotNo":52260094,"epochNo":318,"epochSlotNo":247294,"hash":"bd9f7362a26c96fd72e6714a03ffaf9942107863180a2fb380d5ca73b2b10953","time":"2022/02/02 18:26:25","txCount":70,"totalFees":15976822,"totalOutput":150683333424,"slotLeader":"9479b6e386c65d8308a776e30350c0720c67b3c28fb4624920ac9199"},{"blockNo":6833368,"slotNo":52260075,"epochNo":318,"epochSlotNo":247275,"hash":"33b9729a94c7bbc8025f448b89827af1a5661c670d7a46ca6eb825d976e5f987","time":"2022/02/02 18:26:06","txCount":33,"totalFees":12398818,"totalOutput":192458150904,"slotLeader":"89f7ebe5936075aae36b1f7f2e1e9e5d2decd5230cfb962d01e12c84"},{"blockNo":6833367,"slotNo":52260051,"epochNo":318,"epochSlotNo":247251,"hash":"f331cb87b862aca3d6e0599bf5f1acc46f769c44ca9551735ca1bdafe3457f2f","time":"2022/02/02 18:25:42","txCount":60,"totalFees":16457967,"totalOutput":682190978503,"slotLeader":"c48ed34a5f24ca6dcbac194e45ed9f0b6ac720018eac038ffa9488bd"},{"blockNo":6833366,"slotNo":52260028,"epochNo":318,"epochSlotNo":247228,"hash":"1066cbb7159cfd8a8ea69d2ed68f77e503ff44a01e020d16a27b62269fa8d409","time":"2022/02/02 18:25:19","txCount":31,"totalFees":11852171,"totalOutput":24712575608,"slotLeader":"c5293f2ba88ac474787358b9c2f4fae7b3c4408f79cdf89a12c9ece4"}],"totalItems":11561,"totalPages":1157,"currentPage":0}