{"data":[{"txId":29694101,"txHash":"fed199d9dadd5f9c9c30a6fe250fac18c52688bbbcfc52ee138e59470add87a6","txTime":"2022/02/02 06:02:29","block":6831371,"epoch":318,"slotNo":52215458,"epochSlotNo":202658,"stakeKey":"stake1u9a2z0tgdwjpylm92x6kvw5nkd0xsplm2zjac04p0m34qhgjs7jyq"},{"txId":29693908,"txHash":"71d9888c66beb7c8d6fd1dd723fd2be0df760aea43f845d0193bbac1d3d832c3","txTime":"2022/02/02 05:58:30","block":6831363,"epoch":318,"slotNo":52215219,"epochSlotNo":202419,"stakeKey":"stake1uxm6e5lyw0hxpsqdzvfccp2pcqh63fvhj0tema05zupk3mswlsn5j"},{"txId":29693886,"txHash":"576465312a00041c593a5b06354c6b9626c394b9d3d4b09e509b96f68cda2a81","txTime":"2022/02/02 05:58:22","block":6831362,"epoch":318,"slotNo":52215211,"epochSlotNo":202411,"stakeKey":"stake1uyg87su95wjdw5yj5uq2qkgzm6dmtklwyhze8pxsrc8kt5s0400k4"},{"txId":29693678,"txHash":"4d3cf27aed9b0966acf4a8329574ab00ae4f6c8f8a84d0366cb01ea0a029fd07","txTime":"2022/02/02 05:56:56","block":6831355,"epoch":318,"slotNo":52215125,"epochSlotNo":202325,"stakeKey":"stake1u9k6n4yfksdz7r77p8f0z2dq6dq74mhklrw93vpj5j88x8c28ps92"},{"txId":29693634,"txHash":"776131d3fb21b963fd1a356cb43b860e1b8c7a5e225f9545c4fb094520844a51","txTime":"2022/02/02 05:56:30","block":6831353,"epoch":318,"slotNo":52215099,"epochSlotNo":202299,"stakeKey":"stake1uyre6rgxqk5rfkcggf6k44qx7n95j9ty7q8sph0kf66fq4sf74wxd"},{"txId":29693516,"txHash":"be61b543d8284aa1b845e03104330258193aa0013dafa1e5d85074fd4253924d","txTime":"2022/02/02 05:55:39","block":6831350,"epoch":318,"slotNo":52215048,"epochSlotNo":202248,"stakeKey":"stake1uxxuchu2yyqyc94fgllkpdut8h02p4rd2ysdnfuvq6ckkus58k8xw"},{"txId":29693336,"txHash":"b6ed0a6c1ef2191d3029f4bbfb4adb583a7da47b723bb5502e3b2b4147994a09","txTime":"2022/02/02 05:52:26","block":6831343,"epoch":318,"slotNo":52214855,"epochSlotNo":202055,"stakeKey":"stake1u90cd0s6ft06h0qeafvgjdjp6swkpyttr2wspgkrvpn9ezg2fda27"},{"txId":29693278,"txHash":"b6837427ebba03f4958a4e70a9dcfafdbdcd4742a7260caf7fb705c69b513e07","txTime":"2022/02/02 05:51:47","block":6831340,"epoch":318,"slotNo":52214816,"epochSlotNo":202016,"stakeKey":"stake1u9xm8gl226x0dyca6e88dydg93mvyy8k65aglsq3n8l8n9s7nqsvr"},{"txId":29693272,"txHash":"ae9e01ecfc16bee6d0ce1260871fd31839212eb8f4e94fcaa06e1c7ff13363c1","txTime":"2022/02/02 05:51:47","block":6831340,"epoch":318,"slotNo":52214816,"epochSlotNo":202016,"stakeKey":"stake1u97jgwe40qrtt9v07346hpg99ecmzvs7kustv93z7jytejq545eph"},{"txId":29693266,"txHash":"c4e01d0fa01b8a81bcb5fee2076ea53486c785e19ea74d0c435e04191b27d25c","txTime":"2022/02/02 05:51:47","block":6831340,"epoch":318,"slotNo":52214816,"epochSlotNo":202016,"stakeKey":"stake1ux9r735k0sy9nazcqpaz8z85kfaenz89t2hhku5ejwzlv4c5x07zl"},{"txId":29693246,"txHash":"c2c6fb9a9edb10f8b8c4c3870e2ae8960d75de3f5493297eeca9d4260a6f5c62","txTime":"2022/02/02 05:50:44","block":6831338,"epoch":318,"slotNo":52214753,"epochSlotNo":201953,"stakeKey":"stake1uxehgyk0mpl4v8h3p54e6wtqqzxqv0l8sl0c37n2ls5lm7qaas6rv"},{"txId":29693221,"txHash":"156b57b09b3820fabb429bee0601d05507cc64b0a82bab0ece0f8b1230ff496e","txTime":"2022/02/02 05:50:42","block":6831337,"epoch":318,"slotNo":52214751,"epochSlotNo":201951,"stakeKey":"stake1u97xryatk5gc74qkajvhmp8h5da0frf87m9jc3cutlm49hc3lj3yt"},{"txId":29693205,"txHash":"7c2a878b24ee63e048c86f398721c74a9db294db644f2f885fb64f06cc7e95f5","txTime":"2022/02/02 05:50:32","block":6831336,"epoch":318,"slotNo":52214741,"epochSlotNo":201941,"stakeKey":"stake1uyk3rqjeqzvsyqq93yjrhvnwrlqc96szwqsr6mx0keq20us7xnl64"},{"txId":29693199,"txHash":"f84ccc570be2fab2834fa1a3b11d4dabfdcd754101de3ed34c41f4e87984af17","txTime":"2022/02/02 05:50:32","block":6831336,"epoch":318,"slotNo":52214741,"epochSlotNo":201941,"stakeKey":"stake1ux4ah6lc4dpdx2mmjrwl73flr3eh009h6llgcuf3jdmg0fq3yte3m"},{"txId":29693101,"txHash":"464d21a1bb14f56c4cefab5f4e33d0804a5ce45d43a8d3a6ec349ff0c23e9592","txTime":"2022/02/02 05:48:21","block":6831331,"epoch":318,"slotNo":52214610,"epochSlotNo":201810,"stakeKey":"stake1uydjvasu38s2szmaru6s06g4m3qqgfhva45dtp243l5eqsc3eu5z0"},{"txId":29693090,"txHash":"60cb47b9f0b0bb6a239c63f2b396c4ad6a6edaba596801099615be930e781740","txTime":"2022/02/02 05:48:21","block":6831331,"epoch":318,"slotNo":52214610,"epochSlotNo":201810,"stakeKey":"stake1u9kschwychy47vkwcx653uh60hjpvnl5ypkwnprsnacz42qarppl0"},{"txId":29692936,"txHash":"f2a5c40c583a97cd0e34f4d36763fb5536a0d8ee698fdac7ae0eb3cfe09ff1ef","txTime":"2022/02/02 05:45:33","block":6831325,"epoch":318,"slotNo":52214442,"epochSlotNo":201642,"stakeKey":"stake1u8lj9lzpmhzu87hc8hjangzkrau85yjuhdl0y46v0pnvx9cj0p43y"},{"txId":29692793,"txHash":"8983a3fb8b76761d64d5e6690c16f36612b39260f0a1f1899f30400d15f787b6","txTime":"2022/02/02 05:43:59","block":6831320,"epoch":318,"slotNo":52214348,"epochSlotNo":201548,"stakeKey":"stake1u8v9u8mnhc5ng8tet3pvvjgp6ejgw25dgdhwcntw6gf2zmqzey45p"},{"txId":29692575,"txHash":"77da098643432cbf4c3b2de7ff0a0bd3d53134e82ae86499f2d4ee5880cb006e","txTime":"2022/02/02 05:41:08","block":6831313,"epoch":318,"slotNo":52214177,"epochSlotNo":201377,"stakeKey":"stake1u9qnmrl9ahqvdm8csrr2y8w8s5rg0n4whezna0j7kcym8zgzn3s6z"},{"txId":29692452,"txHash":"e2fbcc5c8d766a0be2382dddbf4f73491058ff63fd5e03df424772faf99baf2d","txTime":"2022/02/02 05:40:26","block":6831309,"epoch":318,"slotNo":52214135,"epochSlotNo":201335,"stakeKey":"stake1uykfe788nyrdkn8hxqykyc8wd59kgvhm7luf352nrp2wgms0qk66a"}],"totalItems":1389075,"totalPages":69454,"currentPage":0}