{"data":[{"no":317,"status":"SYNCING","blkCount":5010,"outSum":10222957407466877,"txCount":210270,"startTime":"2022/01/25 21:45:22","endTime":"2022/01/27 03:18:22","maxSlot":432000},{"no":316,"status":"FINISHED","blkCount":20141,"outSum":53565358148257632,"txCount":841394,"startTime":"2022/01/20 21:44:59","endTime":"2022/01/25 21:44:50","maxSlot":432000},{"no":315,"status":"FINISHED","blkCount":20182,"outSum":31390388454243129,"txCount":906299,"startTime":"2022/01/15 21:46:27","endTime":"2022/01/20 21:44:38","maxSlot":432000},{"no":314,"status":"FINISHED","blkCount":20390,"outSum":20300614123659385,"txCount":643632,"startTime":"2022/01/10 21:46:48","endTime":"2022/01/15 21:44:03","maxSlot":432000},{"no":313,"status":"FINISHED","blkCount":20267,"outSum":12799132332645463,"txCount":643762,"startTime":"2022/01/05 21:45:31","endTime":"2022/01/10 21:44:33","maxSlot":432000},{"no":312,"status":"FINISHED","blkCount":20821,"outSum":12414570555178621,"txCount":501383,"startTime":"2021/12/31 21:44:58","endTime":"2022/01/05 21:44:40","maxSlot":432000},{"no":311,"status":"FINISHED","blkCount":21090,"outSum":12815272307603394,"txCount":452652,"startTime":"2021/12/26 21:45:00","endTime":"2021/12/31 21:44:46","maxSlot":432000},{"no":310,"status":"FINISHED","blkCount":21045,"outSum":12210427846799865,"txCount":475918,"startTime":"2021/12/21 21:46:06","endTime":"2021/12/26 21:44:36","maxSlot":432000},{"no":309,"status":"FINISHED","blkCount":20804,"outSum":13560377046033274,"txCount":553388,"startTime":"2021/12/16 21:45:46","endTime":"2021/12/21 21:44:45","maxSlot":432000},{"no":308,"status":"FINISHED","blkCount":21033,"outSum":18080504620762237,"txCount":427399,"startTime":"2021/12/11 21:45:50","endTime":"2021/12/16 21:43:58","maxSlot":432000}],"totalItems":318,"totalPages":32,"currentPage":0}