{"data":[{"blockNo":8270043,"slotNo":82156240,"epochNo":387,"epochSlotNo":335440,"hash":"5a02a81fe3473ecbb641fe2218836893681e43af2655177c65302d7b4103ac63","time":"2023/01/14 18:55:31","txCount":27,"totalFees":8113112,"totalOutput":540699117015,"slotLeader":"4a5571be1cb000df524350ef170f73cc0c0404155350dd0f71e4d130"},{"blockNo":8270042,"slotNo":82156205,"epochNo":387,"epochSlotNo":335405,"hash":"1ece684b43c8ae5d31775d86e8f1e9d3ee44322f78ef9360d9ecc78d789714f8","time":"2023/01/14 18:54:56","txCount":19,"totalFees":4602710,"totalOutput":1975596972057,"slotLeader":"db3ef28510cc87c6a2f2b83c50707c40d8024438c8a61f24ac16a33f"},{"blockNo":8270041,"slotNo":82156189,"epochNo":387,"epochSlotNo":335389,"hash":"d589a73f8db9db23e57613abd9b0a1f73f69993fdd6a8d319db691e3e5126544","time":"2023/01/14 18:54:40","txCount":62,"totalFees":19193420,"totalOutput":347479797023,"slotLeader":"4a2aa209e00f2926bd0d8a286592bbdea4d35a593c05d41efe29e642"},{"blockNo":8270040,"slotNo":82156140,"epochNo":387,"epochSlotNo":335340,"hash":"499c6a52a516f9b70ac999a5e8247b7b5dfeace378989eaa5fdae43f724ea6ad","time":"2023/01/14 18:53:51","txCount":49,"totalFees":14736132,"totalOutput":30768678579830,"slotLeader":"f76e3a1104a9d816a67d5826a155c9e2979a839d0d944346d47e33ab"},{"blockNo":8270039,"slotNo":82156073,"epochNo":387,"epochSlotNo":335273,"hash":"c1c0e2a954448fb0c7034567589a53840aba92212ec142205a10d010e6ed4eb0","time":"2023/01/14 18:52:44","txCount":20,"totalFees":4767292,"totalOutput":140719225496,"slotLeader":"936316c217c6f217640ed8d132cb0ff8133eef73e74e4c28002b9eb3"},{"blockNo":8270038,"slotNo":82156052,"epochNo":387,"epochSlotNo":335252,"hash":"ea16be2f752c845c9eb15cd688141f999dc8e62c655041dbe5ca3d392a1bb14a","time":"2023/01/14 18:52:23","txCount":48,"totalFees":13414839,"totalOutput":1176852246040,"slotLeader":"d248ded3c18e0e80d07a46f00a2d808075b989ccb1a0e40a76e5cee1"},{"blockNo":8270037,"slotNo":82155995,"epochNo":387,"epochSlotNo":335195,"hash":"47f1d21488c13058dabcae41211482819ee0587668694be20ac12f2549b7d090","time":"2023/01/14 18:51:26","txCount":9,"totalFees":3808759,"totalOutput":37170764969,"slotLeader":"970e9a7ae4677b152c27a0eba3db996b372de094d24fc2974768f3da"},{"blockNo":8270036,"slotNo":82155984,"epochNo":387,"epochSlotNo":335184,"hash":"6bdf63d87669c84a5302d57176bf5744e748515504df9890b4dd7efbc68add7c","time":"2023/01/14 18:51:15","txCount":10,"totalFees":3937648,"totalOutput":3865262832322,"slotLeader":"660f20fb9d419173ac623786ad3e6dc11a23951981e0e83e98233d29"},{"blockNo":8270035,"slotNo":82155975,"epochNo":387,"epochSlotNo":335175,"hash":"3709470d6dd8fa3b0fdc3e4f5f34642d992545cf1f7f4d9fc74add49374a89bf","time":"2023/01/14 18:51:06","txCount":44,"totalFees":15445970,"totalOutput":4044075875065,"slotLeader":"d7513627b3d50819c1c84687bfd15f02f00cd11c37d7935a67540089"},{"blockNo":8270034,"slotNo":82155928,"epochNo":387,"epochSlotNo":335128,"hash":"ac53274ae0b25f4bc184043057b2242c87f959829075a7164767a82041f95f4b","time":"2023/01/14 18:50:19","txCount":6,"totalFees":1927669,"totalOutput":24923804837,"slotLeader":"b44181287c72d0c7b1bce6a57173cdf739ac77d030bdfc4606138dd2"},{"blockNo":8270033,"slotNo":82155919,"epochNo":387,"epochSlotNo":335119,"hash":"a7aa5d857f3a69949632899ffd0fe8ab507ea97255ee279858f74c9f5e97cc2c","time":"2023/01/14 18:50:10","txCount":39,"totalFees":11071108,"totalOutput":1888564316383,"slotLeader":"92bda83eb105d569b23cb6fa1d407dd42de0d2d7e6562718b7ac5c02"},{"blockNo":8270032,"slotNo":82155868,"epochNo":387,"epochSlotNo":335068,"hash":"8d8c2d1b410970bbe20c329f9ebecec0dd94ade1ac8f73615d3d149342db4e95","time":"2023/01/14 18:49:19","txCount":1,"totalFees":190800,"totalOutput":415456994378,"slotLeader":"1ec2c7dde1ce090ee2e75c9fa618c575b8a0b77eaeec5c7266f50aca"},{"blockNo":8270031,"slotNo":82155863,"epochNo":387,"epochSlotNo":335063,"hash":"9e8b11aa2882afb47de8172d81acf6b6023c0cc8ffa3fc7b2090877605974174","time":"2023/01/14 18:49:14","txCount":17,"totalFees":6912659,"totalOutput":4645682133944,"slotLeader":"9679eaa0fa242a9cdae4b030e714b66c0119fc9b3f7564b8f03a5316"},{"blockNo":8270030,"slotNo":82155849,"epochNo":387,"epochSlotNo":335049,"hash":"679b4abcac6d87677d7dd8aede08a9587e548a789d6205be73d2d5bd840036b5","time":"2023/01/14 18:49:00","txCount":4,"totalFees":1002476,"totalOutput":106997209576,"slotLeader":"881b67128439e781d00190ee7ba1692d5af13aaee5d1914911bb3e42"},{"blockNo":8270029,"slotNo":82155838,"epochNo":387,"epochSlotNo":335038,"hash":"3c9df113cdf9bec98ee73a67710688bc5d426d68857f200560ae4bb2bc2fbaab","time":"2023/01/14 18:48:49","txCount":23,"totalFees":7568680,"totalOutput":345986551707,"slotLeader":"4a5571be1cb000df524350ef170f73cc0c0404155350dd0f71e4d130"},{"blockNo":8270028,"slotNo":82155811,"epochNo":387,"epochSlotNo":335011,"hash":"e4802e61a8ff7a8b38250e1109660c95dd7a0b04c7277cbf6f874ee0625df088","time":"2023/01/14 18:48:22","txCount":0,"totalFees":0,"totalOutput":0,"slotLeader":"f76e3a1104a9d816a67d5826a155c9e2979a839d0d944346d47e33ab"},{"blockNo":8270027,"slotNo":82155809,"epochNo":387,"epochSlotNo":335009,"hash":"2b62c9ba345d35b0bd0add3407a80a956fa3975ab03db0599a29dc0071216009","time":"2023/01/14 18:48:20","txCount":7,"totalFees":2767079,"totalOutput":3744611582200,"slotLeader":"fd30f95effb4f28920020901e3a4ad04f4d3585bc46953de762e8c0c"},{"blockNo":8270026,"slotNo":82155797,"epochNo":387,"epochSlotNo":334997,"hash":"e7830a6bbcf780a946f3a732fd1565bd7d808b31227fba3cb7c0e963262311ec","time":"2023/01/14 18:48:08","txCount":38,"totalFees":10344955,"totalOutput":1530221702682,"slotLeader":"da482311081902f95d08bb05d878126904a1e133dd06901e05e652ce"},{"blockNo":8270025,"slotNo":82155761,"epochNo":387,"epochSlotNo":334961,"hash":"5e628ee1b4d4fa61aa5f28836dff2c5c362ccb808bbcf9a1aa9ec07cc6278ecf","time":"2023/01/14 18:47:32","txCount":9,"totalFees":3345632,"totalOutput":1630169434272,"slotLeader":"61d2598400211dcda6878511eb6d84719e5c502c7aa63d500f7a57ce"},{"blockNo":8270024,"slotNo":82155750,"epochNo":387,"epochSlotNo":334950,"hash":"e09f3b13709570adda4012d0053398a3a44b79dcfa874db25e7b4937d7068e97","time":"2023/01/14 18:47:21","txCount":32,"totalFees":9769341,"totalOutput":217017935405,"slotLeader":"675304517e38e66880714b3c4816f47866c302edafceb96945fd056f"}],"totalItems":8270219,"totalPages":413511,"currentPage":0}