{"data":[{"hash":"c9334fe04af0f5e9f7056c07b111cca64d1161347bb9fb642408921cb68b4d87","blockNo":8276558,"blockHash":"436e8a236e67860310b6366e00c02d8303054b3dea25efc075ad0d8aac9af56b","epochNo":388,"epochSlotNo":36300,"slot":82289100,"time":"2023/01/16 07:49:51","addressesInput":["addr1zyq0kyrml023kwjk8zr86d5gaxrt5w8lxnah8r6m6s4jp4g3r6dxnzml343sx8jweqn4vn3fz2kj8kgu9czghx0jrsyqqktyhv","addr1q9yrhxezs9jpv9huxd6sk27pecrak8863gqfkan7m24678dcvtjm8enawhyjjkcf6eves2cwz4c8y9tvhjuzpvmu4rwssukzmr","addr1q9yrhxezs9jpv9huxd6sk27pecrak8863gqfkan7m24678dcvtjm8enawhyjjkcf6eves2cwz4c8y9tvhjuzpvmu4rwssukzmr","addr1q9yrhxezs9jpv9huxd6sk27pecrak8863gqfkan7m24678dcvtjm8enawhyjjkcf6eves2cwz4c8y9tvhjuzpvmu4rwssukzmr","addr1z9cy2gmar6cpn8yymll93lnd7lw96f27kn2p3eq5d4tjr7rshnr04ple6jjfc0cvcmcpcxmsh576v7j2mjk8tw890vespzvgwd","addr1q9yrhxezs9jpv9huxd6sk27pecrak8863gqfkan7m24678dcvtjm8enawhyjjkcf6eves2cwz4c8y9tvhjuzpvmu4rwssukzmr"],"addressesOutput":["addr1q9yrhxezs9jpv9huxd6sk27pecrak8863gqfkan7m24678dcvtjm8enawhyjjkcf6eves2cwz4c8y9tvhjuzpvmu4rwssukzmr","addr1q9yrhxezs9jpv9huxd6sk27pecrak8863gqfkan7m24678dcvtjm8enawhyjjkcf6eves2cwz4c8y9tvhjuzpvmu4rwssukzmr","addr1q9yrhxezs9jpv9huxd6sk27pecrak8863gqfkan7m24678dcvtjm8enawhyjjkcf6eves2cwz4c8y9tvhjuzpvmu4rwssukzmr","addr1q9yrhxezs9jpv9huxd6sk27pecrak8863gqfkan7m24678dcvtjm8enawhyjjkcf6eves2cwz4c8y9tvhjuzpvmu4rwssukzmr","addr1z9cy2gmar6cpn8yymll93lnd7lw96f27kn2p3eq5d4tjr7rshnr04ple6jjfc0cvcmcpcxmsh576v7j2mjk8tw890vespzvgwd","addr1q8afclsta2knwgyrht7nn37w742gyjs7n6ep24n8dpj2klnzcftydjxcnv27mxujtkj0ayzy30m8hggvl7h9r5k4a8ds993tx9"],"fee":715952,"totalOutput":29657491976,"tokens":[]},{"hash":"f98e096f5fb5c7a4ad6d3fb91efef34700ade8d509b4adfa8436066f1a26eed8","blockNo":8276558,"blockHash":"436e8a236e67860310b6366e00c02d8303054b3dea25efc075ad0d8aac9af56b","epochNo":388,"epochSlotNo":36300,"slot":82289100,"time":"2023/01/16 07:49:51","addressesInput":["addr1qygvqsyvgnyrfyannau2w50yffgcew2t652mrjx4sdct5zczxc0yv3l6eefllwkwfjt83my5tvc4c0ql4d9t9ksep4ns57sdeh","addr1zxgx3far7qygq0k6epa0zcvcvrevmn0ypsnfsue94nsn3tvpw288a4x0xf8pxgcntelxmyclq83s0ykeehchz2wtspks905plm"],"addressesOutput":["addr1zxgx3far7qygq0k6epa0zcvcvrevmn0ypsnfsue94nsn3tvpw288a4x0xf8pxgcntelxmyclq83s0ykeehchz2wtspks905plm","addr1qygvqsyvgnyrfyannau2w50yffgcew2t652mrjx4sdct5zczxc0yv3l6eefllwkwfjt83my5tvc4c0ql4d9t9ksep4ns57sdeh"],"fee":315902,"totalOutput":129341786,"tokens":[]},{"hash":"21a01457af198b9a1509766d457ce9c94e578c5c1e585f75ffef5ad83b1cf798","blockNo":8276558,"blockHash":"436e8a236e67860310b6366e00c02d8303054b3dea25efc075ad0d8aac9af56b","epochNo":388,"epochSlotNo":36300,"slot":82289100,"time":"2023/01/16 07:49:51","addressesInput":["addr1q8hdywc9c2lj3k54f3pr7xslp6svga7lay8x46esvjzvk5uvj4fjcsn5z8y28x8wvtv03shac9zexvvnuj60lewdmxeq2a002z"],"addressesOutput":["addr1q8hdywc9c2lj3k54f3pr7xslp6svga7lay8x46esvjzvk5uvj4fjcsn5z8y28x8wvtv03shac9zexvvnuj60lewdmxeq2a002z"],"fee":397100,"totalOutput":417590704,"tokens":[]},{"hash":"6d17b35d848cd8009ba864138f0ffec670950d9f272c270eb208d1ce2a37b84f","blockNo":8276557,"blockHash":"1efa0b2baea0b83ab61337234e4e6239257e529799e5ef57080844ef04912e05","epochNo":388,"epochSlotNo":36295,"slot":82289095,"time":"2023/01/16 07:49:46","addressesInput":["addr1vx7e04cz70ptgr8wmgd2lf4e8d0nagnyq0rttx0tafvl2ws3xw7c2"],"addressesOutput":["addr1qx0d0grkfj64qu9wwr5tzx5g794u5d0gs6vwlpgetmkp3mnu5gprtuxpru0z8aa58armwm6x7906wlmzpqzdj3kewt8sfvn5pk"],"fee":486349,"totalOutput":1513651,"tokens":[]},{"hash":"a80c432ed0cebf9b45d8e016a07894ce6a8128bb40bcdbc599f36e5a63d354a1","blockNo":8276557,"blockHash":"1efa0b2baea0b83ab61337234e4e6239257e529799e5ef57080844ef04912e05","epochNo":388,"epochSlotNo":36295,"slot":82289095,"time":"2023/01/16 07:49:46","addressesInput":["addr1qxyyjjvatqmskhvckxfk4emudzskynhey25lsuzm5d8kfxdg00ncdguaxzx95wrvztmnxuavp0qyseftf6w6kggxfc2quwy2nx","addr1qxyyjjvatqmskhvckxfk4emudzskynhey25lsuzm5d8kfxdg00ncdguaxzx95wrvztmnxuavp0qyseftf6w6kggxfc2quwy2nx"],"addressesOutput":["addr1zxgx3far7qygq0k6epa0zcvcvrevmn0ypsnfsue94nsn3tvpw288a4x0xf8pxgcntelxmyclq83s0ykeehchz2wtspks905plm","addr1qxyyjjvatqmskhvckxfk4emudzskynhey25lsuzm5d8kfxdg00ncdguaxzx95wrvztmnxuavp0qyseftf6w6kggxfc2quwy2nx"],"fee":222437,"totalOutput":144586297,"tokens":[]},{"hash":"6e0741cabf23fadd45fe9e2c0b4a745cdc50b304d1f90c4c3bd0f0fcb86e5a2d","blockNo":8276557,"blockHash":"1efa0b2baea0b83ab61337234e4e6239257e529799e5ef57080844ef04912e05","epochNo":388,"epochSlotNo":36295,"slot":82289095,"time":"2023/01/16 07:49:46","addressesInput":["addr1q8sk08cv6hf3me63mvxnl6vz6m9tpeme09dj50tgnsqr6a42fdpjyxr0yfwkz027tj0rdm4tmdcqpfcrfxm2dxzqfm3sc2nyrw","addr1q8sk08cv6hf3me63mvxnl6vz6m9tpeme09dj50tgnsqr6a42fdpjyxr0yfwkz027tj0rdm4tmdcqpfcrfxm2dxzqfm3sc2nyrw"],"addressesOutput":["addr1zxgx3far7qygq0k6epa0zcvcvrevmn0ypsnfsue94nsn3tvpw288a4x0xf8pxgcntelxmyclq83s0ykeehchz2wtspks905plm","addr1q8sk08cv6hf3me63mvxnl6vz6m9tpeme09dj50tgnsqr6a42fdpjyxr0yfwkz027tj0rdm4tmdcqpfcrfxm2dxzqfm3sc2nyrw","addr1q8sk08cv6hf3me63mvxnl6vz6m9tpeme09dj50tgnsqr6a42fdpjyxr0yfwkz027tj0rdm4tmdcqpfcrfxm2dxzqfm3sc2nyrw"],"fee":245977,"totalOutput":25297307,"tokens":[]},{"hash":"19bcbf7c406a2bbd582b1f52314438f886a4838d491e9a6f8f160fe4ca0d669f","blockNo":8276557,"blockHash":"1efa0b2baea0b83ab61337234e4e6239257e529799e5ef57080844ef04912e05","epochNo":388,"epochSlotNo":36295,"slot":82289095,"time":"2023/01/16 07:49:46","addressesInput":["addr1w8f6ks97mprgnz7gp9v6c7ynaqpst7jsssguntu4euzewssa8ffal","addr1w9gpqcjytr8fe3nj8r7vautftvtr4l4nzkveh7e23pstkwgaak8p3","addr1w9xc5279jqxql020jp295d377nqrms826gnhgqxt5g5m9dqlfqf3f","addr1wxau62drpn3e832yqhhjqjvw3qxuztuns2f93qvzq5w78qsavxpmv","addr1v89v2vhqp9q9dft0stcdnravcrm4lczrspxpy35fvvmytzsaygmrd","addr1w9rerwzk0f5v4den9u2c7anv2d4dl88hq9cq0xgcmernsfsak7w6r","addr1vy354f7qdpl89uplfkkqkcksvkfdjkqshzsz227sjus38xqtnapkw","addr1w8nv7fl5jk9r4h6djgv9pjvzvd3f3gduvmzlzt5946aerpc68hrca","addr1wxugd4ufxmtrnh9jz28543daw9plce3x3nmcnamj5appugcpv2jrq","addr1wypk6usz8zq25md9hh69792snssf8cr54uryu5cvmy9a74cf43wj6","addr1vy3qpx09uscywhppj5vp08hu0ekg9zwmq2ysfq6qyh2mpps865j6t","addr1w828m0rdlumnp30dwmv33l4akzhxcpx7a64tuvjwhjn7pxgngjrpx","addr1wy700n0cev4jr3j06remajyvetlks4kly349ahhnqkm9hwcz862yz","addr1w9v5h80g9nk4qn3vxxxrzpwp2vnr4fv9jgd7jwcnk4eseqc2arf39","addr1wxgg25t3tk30jqzl2elqz94lzgmr8a9c9m5z902ds5sjh0g7uaj8z","addr1w835n68qeax023uperwgwlruk3d8yjl4k98r433nhw5waqgkx8prf","addr1wxkajet4zhhuylr6475ykqerll0gl8x8v8kgmnrpxt2vrwq2eh67y","addr1w92k8rhqzax70x3v59407ltggfskztm7g5mzm9sfl4cknqq9t6yzm","addr1w9a3d443fe7fdthnuf3gaq2jh0cvm4er43et4w8r88tlc3s50x86h","addr1w9thy3udu58yxqthaqn8vhvh6q9uvmm9y2rrwktnecjrt8gh44tx8","addr1wxa7lw56r076ejsja40l3vfver0k4sznu085p87fjx7hkmc67k2dd","addr1wy96wdkpq2t6yf25epwtauad3kj24yrx5rk4vnmnczujknc8tptgn","addr1w8frpnd6lhleyh9wnh32gkc2z6fmgngedr8zh96xa2fguyqdetk4w","addr1vyn7nr6pfaql0m4nangylp83c8lz2lh40vvlvv96lmr7wfqzttte2","addr1w8w4s678y7jcrpkqgkwagujwcuzfvnfkt7he0w80y934xxsgg75th","addr1w8vh8ssekk52ye3pt7a2j8upv3qphzmar2sj68353xds9lq5urex7","addr1w8dmtwktj7lktd0zv0wpxuny590ndshmj3z8xxmq3tjyvdggs35jy","addr1v8pr9mwnqarw808gtllvmlxvk70hnszrukjeqfstr9t9g5crud8c4","addr1w9xnt8ucaje6tevrafvtcc0yzs8d9m3ck67uvmperh29v0ckjalnj","addr1v8vvw6xhqjap8x2cqcleuxdvj3dry5axg7f7mvj9y8tvs8gqrcm9r","addr1w80k8xe6vckm3qgklhw98tqjekfvw3mgwux3stmtq3jlprga3u33c","addr1w9wqtvzn8yt8jexr5su6y3c4nkl9yhwfw0anvutfz37ymmqnsuy0z","addr1wxje849hq4nmnqs8u3s3tdhyjum7sw4y9j29hlmh6x944cg7xdmn6","addr1wx524gq72mduxehj6w2tt56fjq5z97d79m6zevu87s6ujxq7x9y9d","addr1w82gs6e4s9kdu38lvln8umkwm6kuyfm7me9jsaaxk37mwtgut99xg"],"addressesOutput":["addr1vy3qpx09uscywhppj5vp08hu0ekg9zwmq2ysfq6qyh2mpps865j6t","addr1v8pr9mwnqarw808gtllvmlxvk70hnszrukjeqfstr9t9g5crud8c4","addr1q8ugdd8q8tayxnah6lzwlayh4khusdskawnwhhackze0ffktg6pyca3rfng3nyzwklf6ne8d5t2f6sd3l4p2yh8l7tfqmhna2u","addr1qxhv09myqz3n92la7jtl9k03kaprafugrgxxgnmnhnndkhhzve97qmffkj4c6wwn6wlwg7zcydw9l0cfwx7nf00g4d2s05g7l9","addr1q89wew3ghpnzxlje3nepyrga8rp9aghlt5sctpfzmqqptf6m5q6dfsfg3yk3jlledeefxpmzkg7y82fan485r738w90s2asxg7","addr1q9ugnkj0pft5k84gpp69hxlxeznxwt7zh98ztjgxumq49axv4g2ju68rjhwjlmqaz3802lpfwtd7uyc2wa8zemjfredqg484l9","addr1w92k8rhqzax70x3v59407ltggfskztm7g5mzm9sfl4cknqq9t6yzm","addr1w9a3d443fe7fdthnuf3gaq2jh0cvm4er43et4w8r88tlc3s50x86h","addr1w82gs6e4s9kdu38lvln8umkwm6kuyfm7me9jsaaxk37mwtgut99xg","addr1w9xnt8ucaje6tevrafvtcc0yzs8d9m3ck67uvmperh29v0ckjalnj","addr1wy96wdkpq2t6yf25epwtauad3kj24yrx5rk4vnmnczujknc8tptgn","addr1w9wqtvzn8yt8jexr5su6y3c4nkl9yhwfw0anvutfz37ymmqnsuy0z","addr1w8nv7fl5jk9r4h6djgv9pjvzvd3f3gduvmzlzt5946aerpc68hrca","addr1w8w4s678y7jcrpkqgkwagujwcuzfvnfkt7he0w80y934xxsgg75th","addr1w8vh8ssekk52ye3pt7a2j8upv3qphzmar2sj68353xds9lq5urex7","addr1w80k8xe6vckm3qgklhw98tqjekfvw3mgwux3stmtq3jlprga3u33c","addr1w9rerwzk0f5v4den9u2c7anv2d4dl88hq9cq0xgcmernsfsak7w6r","addr1wxau62drpn3e832yqhhjqjvw3qxuztuns2f93qvzq5w78qsavxpmv","addr1wxugd4ufxmtrnh9jz28543daw9plce3x3nmcnamj5appugcpv2jrq","addr1wy700n0cev4jr3j06remajyvetlks4kly349ahhnqkm9hwcz862yz","addr1w835n68qeax023uperwgwlruk3d8yjl4k98r433nhw5waqgkx8prf","addr1w828m0rdlumnp30dwmv33l4akzhxcpx7a64tuvjwhjn7pxgngjrpx","addr1w9thy3udu58yxqthaqn8vhvh6q9uvmm9y2rrwktnecjrt8gh44tx8","addr1w8frpnd6lhleyh9wnh32gkc2z6fmgngedr8zh96xa2fguyqdetk4w","addr1wxa7lw56r076ejsja40l3vfver0k4sznu085p87fjx7hkmc67k2dd","addr1w9xc5279jqxql020jp295d377nqrms826gnhgqxt5g5m9dqlfqf3f","addr1wx524gq72mduxehj6w2tt56fjq5z97d79m6zevu87s6ujxq7x9y9d","addr1wypk6usz8zq25md9hh69792snssf8cr54uryu5cvmy9a74cf43wj6","addr1w9gpqcjytr8fe3nj8r7vautftvtr4l4nzkveh7e23pstkwgaak8p3","addr1w8dmtwktj7lktd0zv0wpxuny590ndshmj3z8xxmq3tjyvdggs35jy","addr1wxje849hq4nmnqs8u3s3tdhyjum7sw4y9j29hlmh6x944cg7xdmn6","addr1w9v5h80g9nk4qn3vxxxrzpwp2vnr4fv9jgd7jwcnk4eseqc2arf39","addr1wxkajet4zhhuylr6475ykqerll0gl8x8v8kgmnrpxt2vrwq2eh67y","addr1w8f6ks97mprgnz7gp9v6c7ynaqpst7jsssguntu4euzewssa8ffal","addr1wxgg25t3tk30jqzl2elqz94lzgmr8a9c9m5z902ds5sjh0g7uaj8z"],"fee":697945,"totalOutput":4181772280,"tokens":[]},{"hash":"f17656b20726777b9da557ecad9c1fc8a4847a98c5969810f480115e683272b4","blockNo":8276557,"blockHash":"1efa0b2baea0b83ab61337234e4e6239257e529799e5ef57080844ef04912e05","epochNo":388,"epochSlotNo":36295,"slot":82289095,"time":"2023/01/16 07:49:46","addressesInput":["addr1q869cazpdpmj24kv9tcjsnc5u8g2rcqmp63cg06mzl4pud69089x899tp8yjc9hvnr7qhrw9unnm99ne5kqdcp6ygw2sl8kwyx"],"addressesOutput":["addr1q869cazpdpmj24kv9tcjsnc5u8g2rcqmp63cg06mzl4pud69089x899tp8yjc9hvnr7qhrw9unnm99ne5kqdcp6ygw2sl8kwyx"],"fee":199601,"totalOutput":41333400,"tokens":[]},{"hash":"673f62dbdf99bcdc2acb4d49333dd8e4a84b35517bb7b1fc86d29b17ed79e2ac","blockNo":8276557,"blockHash":"1efa0b2baea0b83ab61337234e4e6239257e529799e5ef57080844ef04912e05","epochNo":388,"epochSlotNo":36295,"slot":82289095,"time":"2023/01/16 07:49:46","addressesInput":["addr1qy0ttf4ea3mawdnvp2xycwsqywm3eh5egjsr5skc9gfhyhsmx4w56mvnsgekyux8vahztwxqv0hx208xvufrydjx7f8qhnw0rz","addr1qy0ttf4ea3mawdnvp2xycwsqywm3eh5egjsr5skc9gfhyhsmx4w56mvnsgekyux8vahztwxqv0hx208xvufrydjx7f8qhnw0rz","addr1qy0ttf4ea3mawdnvp2xycwsqywm3eh5egjsr5skc9gfhyhsmx4w56mvnsgekyux8vahztwxqv0hx208xvufrydjx7f8qhnw0rz","addr1qy0ttf4ea3mawdnvp2xycwsqywm3eh5egjsr5skc9gfhyhsmx4w56mvnsgekyux8vahztwxqv0hx208xvufrydjx7f8qhnw0rz"],"addressesOutput":["addr1zxgx3far7qygq0k6epa0zcvcvrevmn0ypsnfsue94nsn3tvpw288a4x0xf8pxgcntelxmyclq83s0ykeehchz2wtspks905plm","addr1qy0ttf4ea3mawdnvp2xycwsqywm3eh5egjsr5skc9gfhyhsmx4w56mvnsgekyux8vahztwxqv0hx208xvufrydjx7f8qhnw0rz","addr1qy0ttf4ea3mawdnvp2xycwsqywm3eh5egjsr5skc9gfhyhsmx4w56mvnsgekyux8vahztwxqv0hx208xvufrydjx7f8qhnw0rz"],"fee":232425,"totalOutput":7628033,"tokens":[]},{"hash":"27be51870a28373070507b421b7668f54fd6c5c897756190c9939058d3ea5e7b","blockNo":8276556,"blockHash":"e82e943992063913b997fd0050aa5c1f921dc13f7df209efb4cda08b7eb50b6a","epochNo":388,"epochSlotNo":36288,"slot":82289088,"time":"2023/01/16 07:49:39","addressesInput":["addr1qx76hnwx8qukkylx5te0em5gf7kgjqadv6x8z406mpyxz6nn3lmaa3wnh8ka8wxllq5f9kpp6spcwum5vvas6xgvuedsh0rgkp"],"addressesOutput":["addr1vyc7ca9flp5gfeapd78uxzzq7l6qnsytj85n62lr5smhgssen2u2s","addr1qx76hnwx8qukkylx5te0em5gf7kgjqadv6x8z406mpyxz6nn3lmaa3wnh8ka8wxllq5f9kpp6spcwum5vvas6xgvuedsh0rgkp"],"fee":166821,"totalOutput":250352311,"tokens":[]},{"hash":"e06cb5c0932b68d8a060ce9e6aee44753ea94bfa9fabd22d4666ee1b6fe81a9b","blockNo":8276556,"blockHash":"e82e943992063913b997fd0050aa5c1f921dc13f7df209efb4cda08b7eb50b6a","epochNo":388,"epochSlotNo":36288,"slot":82289088,"time":"2023/01/16 07:49:39","addressesInput":["addr1q82phhtfrvn0zmsga02p85mup66da6xzqnux5d520cq6ev3rnw3jkxafjvfz4dw0h7ut5ljuukz38srrhntnszkg3ncqkudh0z","addr1q82phhtfrvn0zmsga02p85mup66da6xzqnux5d520cq6ev3rnw3jkxafjvfz4dw0h7ut5ljuukz38srrhntnszkg3ncqkudh0z"],"addressesOutput":["addr1qyg5yk36ee0rhl5hw5kxcfng5ygrsv55tuchs0nxjmh9uqmpmpaxya7n6kzmyy6f72st0akwx8zg5n6emrxa5mhywg9q3v23dv","addr1q82phhtfrvn0zmsga02p85mup66da6xzqnux5d520cq6ev3rnw3jkxafjvfz4dw0h7ut5ljuukz38srrhntnszkg3ncqkudh0z","addr1q82phhtfrvn0zmsga02p85mup66da6xzqnux5d520cq6ev3rnw3jkxafjvfz4dw0h7ut5ljuukz38srrhntnszkg3ncqkudh0z"],"fee":280077,"totalOutput":125228211,"tokens":[]},{"hash":"a322e58f6feceed7f639ed6a9747e4bd6751f56531699f7a12f77257a429f9ff","blockNo":8276556,"blockHash":"e82e943992063913b997fd0050aa5c1f921dc13f7df209efb4cda08b7eb50b6a","epochNo":388,"epochSlotNo":36288,"slot":82289088,"time":"2023/01/16 07:49:39","addressesInput":["addr1qy99pp6eygktm5nzvd65fx6yvrtg3k7c85hg6xswhczezkj7mn925eyz8nyvrpv9lqd5766zd2eqneq2f7lmawl4w7asgwsg4g","addr1q8e2dsx5e7946200rffx2suyfhm57j890ferlrwr4f7swqz7mn925eyz8nyvrpv9lqd5766zd2eqneq2f7lmawl4w7ask44fpt","addr1q8e2dsx5e7946200rffx2suyfhm57j890ferlrwr4f7swqz7mn925eyz8nyvrpv9lqd5766zd2eqneq2f7lmawl4w7ask44fpt"],"addressesOutput":["addr1wxn9efv2f6w82hagxqtn62ju4m293tqvw0uhmdl64ch8uwc0h43gt","addr1q8e2dsx5e7946200rffx2suyfhm57j890ferlrwr4f7swqz7mn925eyz8nyvrpv9lqd5766zd2eqneq2f7lmawl4w7ask44fpt","addr1qx8zpuj4h56y3zhy76mx09qm7l6jlgacjjg5kaf58lgccpj7mn925eyz8nyvrpv9lqd5766zd2eqneq2f7lmawl4w7as76n0ms"],"fee":247297,"totalOutput":810656958,"tokens":[]},{"hash":"ff745f6342cb4898d752256878033eb43511ac0490fccfe461376fc32c0a0110","blockNo":8276556,"blockHash":"e82e943992063913b997fd0050aa5c1f921dc13f7df209efb4cda08b7eb50b6a","epochNo":388,"epochSlotNo":36288,"slot":82289088,"time":"2023/01/16 07:49:39","addressesInput":["addr1qyqgfjptaumk8x200exfusnmwjy227cw6qaxz8k0dzwzskzx4lhp7d2606uaupj36jqn4xkjc5lz7jf720ffwa0uuvks9pe4yk","addr1qyqgfjptaumk8x200exfusnmwjy227cw6qaxz8k0dzwzskzx4lhp7d2606uaupj36jqn4xkjc5lz7jf720ffwa0uuvks9pe4yk","addr1qyqgfjptaumk8x200exfusnmwjy227cw6qaxz8k0dzwzskzx4lhp7d2606uaupj36jqn4xkjc5lz7jf720ffwa0uuvks9pe4yk"],"addressesOutput":["addr1zxgx3far7qygq0k6epa0zcvcvrevmn0ypsnfsue94nsn3tvpw288a4x0xf8pxgcntelxmyclq83s0ykeehchz2wtspks905plm","addr1qyqgfjptaumk8x200exfusnmwjy227cw6qaxz8k0dzwzskzx4lhp7d2606uaupj36jqn4xkjc5lz7jf720ffwa0uuvks9pe4yk","addr1qyqgfjptaumk8x200exfusnmwjy227cw6qaxz8k0dzwzskzx4lhp7d2606uaupj36jqn4xkjc5lz7jf720ffwa0uuvks9pe4yk"],"fee":262477,"totalOutput":9325755,"tokens":[]},{"hash":"716c2df6d3224b4883c7f3290d11b11c7bb0148a35a3409c0496d48904035471","blockNo":8276556,"blockHash":"e82e943992063913b997fd0050aa5c1f921dc13f7df209efb4cda08b7eb50b6a","epochNo":388,"epochSlotNo":36288,"slot":82289088,"time":"2023/01/16 07:49:39","addressesInput":["addr1qykfq7t5ekcju9f2n3y3yygm8y7mv3l337fumytmgfwxevevjpuhfnd39c2j48zfzgg3kwfakerlrrunekghksjudjesqzuxz4","addr1qykfq7t5ekcju9f2n3y3yygm8y7mv3l337fumytmgfwxevevjpuhfnd39c2j48zfzgg3kwfakerlrrunekghksjudjesqzuxz4"],"addressesOutput":["addr1qykfq7t5ekcju9f2n3y3yygm8y7mv3l337fumytmgfwxevevjpuhfnd39c2j48zfzgg3kwfakerlrrunekghksjudjesqzuxz4","addr1qykfq7t5ekcju9f2n3y3yygm8y7mv3l337fumytmgfwxevevjpuhfnd39c2j48zfzgg3kwfakerlrrunekghksjudjesqzuxz4"],"fee":233854,"totalOutput":17078736113,"tokens":[]},{"hash":"7cf4aa291ce9924c504d33910cd6ba14c0c680bd61347954451b66521511bc56","blockNo":8276555,"blockHash":"2e6d92d7501157501ca0f256808a63d76196c99ef8f265a8de3a18ef46b2dafd","epochNo":388,"epochSlotNo":36266,"slot":82289066,"time":"2023/01/16 07:49:17","addressesInput":["addr1q8n7gchh93ceswa8hugdczjt695r4vasy7sj2fxduxkzlm08u330wtr3nqa600csms9yh5tg82emqfapy5jvmcdv9lks7v4lhv","addr1q8n7gchh93ceswa8hugdczjt695r4vasy7sj2fxduxkzlm08u330wtr3nqa600csms9yh5tg82emqfapy5jvmcdv9lks7v4lhv","addr1q8n7gchh93ceswa8hugdczjt695r4vasy7sj2fxduxkzlm08u330wtr3nqa600csms9yh5tg82emqfapy5jvmcdv9lks7v4lhv","addr1q8n7gchh93ceswa8hugdczjt695r4vasy7sj2fxduxkzlm08u330wtr3nqa600csms9yh5tg82emqfapy5jvmcdv9lks7v4lhv"],"addressesOutput":["addr1q8n7gchh93ceswa8hugdczjt695r4vasy7sj2fxduxkzlm08u330wtr3nqa600csms9yh5tg82emqfapy5jvmcdv9lks7v4lhv","addr1q8n7gchh93ceswa8hugdczjt695r4vasy7sj2fxduxkzlm08u330wtr3nqa600csms9yh5tg82emqfapy5jvmcdv9lks7v4lhv"],"fee":249235,"totalOutput":180039602,"tokens":[]},{"hash":"85a2fc8596b9a1fe069e20e5cca30e8aa7f948cde48f109ebfdff30dc0185f11","blockNo":8276555,"blockHash":"2e6d92d7501157501ca0f256808a63d76196c99ef8f265a8de3a18ef46b2dafd","epochNo":388,"epochSlotNo":36266,"slot":82289066,"time":"2023/01/16 07:49:17","addressesInput":["addr1qyexaq2gnjvrzjh7fkf99ar9z04w7zxl9ay3azpq649cwzppw5eyxfsk0l3fzkmzcwwf2xe2j43c5y0l5wel8w5jvkyq46p482"],"addressesOutput":["addr1v9zmca5eykpzca42xjncs8nmy7jcfrwvjl2qk0rdztlw2tgngt06j","addr1q8gc2gsgy77dmfkvjpelfkzurjpzkxhugmclqc0n4g0rzvepw5eyxfsk0l3fzkmzcwwf2xe2j43c5y0l5wel8w5jvkyqhv7e58"],"fee":167261,"totalOutput":33714725396,"tokens":[]},{"hash":"c0a240220bfb3e2a277f3b3099c6e549c986d921726f17bbddd5c2c12a2ae651","blockNo":8276555,"blockHash":"2e6d92d7501157501ca0f256808a63d76196c99ef8f265a8de3a18ef46b2dafd","epochNo":388,"epochSlotNo":36266,"slot":82289066,"time":"2023/01/16 07:49:17","addressesInput":["addr1q92pjkmh4m8l7ns5v6589sxv45uf7hca289x6trqyf2a3d6lyaz7dlr930cjl7lc6a9zufcr4u7tm2qzxgjxv6nu3tzqp56jgg"],"addressesOutput":["addr1vyc7ca9flp5gfeapd78uxzzq7l6qnsytj85n62lr5smhgssen2u2s","addr1qxp4zzeu9dnfxres9at4yj0qapccjhk8dvfwm8jqeawlcu2lyaz7dlr930cjl7lc6a9zufcr4u7tm2qzxgjxv6nu3tzqd8ru03"],"fee":166821,"totalOutput":19679996,"tokens":[]},{"hash":"31394a31a4154bcdf078ceb0cb41eb423bd5fdb9d4b5a06a55e8eafee0b4a36f","blockNo":8276555,"blockHash":"2e6d92d7501157501ca0f256808a63d76196c99ef8f265a8de3a18ef46b2dafd","epochNo":388,"epochSlotNo":36266,"slot":82289066,"time":"2023/01/16 07:49:17","addressesInput":["addr1vy4nmtfc4jfftgqg369hs2ku6kvcncgzhkemq6mh0u3zgpslf59wr"],"addressesOutput":["addr1q9d7p324cf7u234s56nvafpsufkshkdvjd272p7qcvwwmnk6s0qr3rpd6asg9nkkvywj79dfn66vjkprgpsm2na8fw8sdjcz27","addr1vx0965tza4e5f3jgyr7j8w2qlvhrhk0dqtqxw8d3jly58jct0v46m","addr1q804wpsrfr5t5xx2quqt9drak6y045q77u6lhpxd253hj9n8yrgx78z7ddjl6qrjys07rm4d27n9lx348gqv4c2m00uq0vhhmk","addr1qyuvud5x99velwshuryyuzrr9ng27u6nmwlht4lmtvfcjgtj5ev5jg54flvpw44e4wvygpqvdj0fqjzfz4f3npvhhlcs8js0sq","addr1q8vkn2vyqmzgtyu8m7akrk95nq6qyd5692j2fh60uj67mtqn49yrva6xcqqdhzfed0y4rkfdnxtrk6ymx90uy0dkz0lsp3z8f6","addr1qxpgsvxvv2eqn5zvfwlunhh6y8gwp7cvtaruzgttuzeh809rn7srxzrkuky9qpu340nns8hmu3xllmjha805l023wp6snus7hq","addr1vy4nmtfc4jfftgqg369hs2ku6kvcncgzhkemq6mh0u3zgpslf59wr"],"fee":189150,"totalOutput":598285984491,"tokens":[]},{"hash":"1931ef462cc2c439d63bf710ae387828536077b073e21622ae5c010025ec6cda","blockNo":8276555,"blockHash":"2e6d92d7501157501ca0f256808a63d76196c99ef8f265a8de3a18ef46b2dafd","epochNo":388,"epochSlotNo":36266,"slot":82289066,"time":"2023/01/16 07:49:17","addressesInput":["addr1q9afjdrvytkher0dtsdvheew4p3fe89t608g9n3gcw6ry8d7hhz8vu5d5mlms9m7w5342g4ycns4fte22wn03s6u6fhshqqzns"],"addressesOutput":["addr1vx960ckaqgfel4h9sduujkscf7358eca0fp3jxecmrr8rwsnadwrd","addr1q9afjdrvytkher0dtsdvheew4p3fe89t608g9n3gcw6ry8d7hhz8vu5d5mlms9m7w5342g4ycns4fte22wn03s6u6fhshqqzns"],"fee":166821,"totalOutput":28797445,"tokens":[]},{"hash":"7e53bf0c2eaa3a2b7585dd24608adceff22d17789fbe1aee297722baf94d8970","blockNo":8276555,"blockHash":"2e6d92d7501157501ca0f256808a63d76196c99ef8f265a8de3a18ef46b2dafd","epochNo":388,"epochSlotNo":36266,"slot":82289066,"time":"2023/01/16 07:49:17","addressesInput":["Ae2tdPwUPEYwNguM7TB3dMnZMfZxn1pjGHyGdjaF4mFqZF9L3bj6cdhiH8t"],"addressesOutput":["addr1vxslc54kxyp9g9708ef9hcs52e3s3dq5z0v52n0c5uauzqcsr2erh","addr1q9mcnxhd8g20tcwp5hw60zywlrufylgknlxg6x258akef0zp3x2cc7av3sqf8dyeyha90ajuukpgsfssc4sg86ppapzsxalfyz","Ae2tdPwUPEYwNguM7TB3dMnZMfZxn1pjGHyGdjaF4mFqZF9L3bj6cdhiH8t"],"fee":230031,"totalOutput":46922434642,"tokens":[]}],"totalItems":59116334,"totalPages":2955817,"currentPage":0}