{"data":[{"hash":"268d6a95b7c6fd22d0ff0ed47787f37a54e912f1ddfe69bcfa192b455894c3b1","blockNo":8106453,"blockHash":"2cb21b0e1de47661aad974262cf514a0b78209d2dc850a6456f1d0b14dbe7a0e","epochNo":380,"epochSlotNo":2879,"slot":78799679,"time":"2022/12/06 22:32:50","addressesInput":["addr1q9hc2nghz9xd3j2duyfq2h2afyuypvds0eemuzdvn7726swu57nrn0nhczmgewcda9h7t0kaxvxsn0hv00zxwttuunuqdqcx68","addr1q9hc2nghz9xd3j2duyfq2h2afyuypvds0eemuzdvn7726swu57nrn0nhczmgewcda9h7t0kaxvxsn0hv00zxwttuunuqdqcx68"],"addressesOutput":["addr1v9us5zlvyjzrgpgmqussqve2fvs0vljs7s8zfyl4v70fltgexarxz","addr1qy3g2f8vuh0vcc5ku6m7d2h8e87wckrtpt76xyxpumkhy2wu57nrn0nhczmgewcda9h7t0kaxvxsn0hv00zxwttuunuq2w4rfe"],"fee":168669,"totalOutput":253849266,"tokens":[]},{"hash":"e5d8d0c4daa9298efbac2e4849eba28108ae975cd673861aea08631ef2378efd","blockNo":8106453,"blockHash":"2cb21b0e1de47661aad974262cf514a0b78209d2dc850a6456f1d0b14dbe7a0e","epochNo":380,"epochSlotNo":2879,"slot":78799679,"time":"2022/12/06 22:32:50","addressesInput":["addr1q9urrn4sqtmhlydag73d3e8xcm596mqzqzqa7wsadqxmfnqaggsu2pstpl0mpvkl9u0gsje9mnrkm55xc2m8ujq5dj0que9g73","addr1q9urrn4sqtmhlydag73d3e8xcm596mqzqzqa7wsadqxmfnqaggsu2pstpl0mpvkl9u0gsje9mnrkm55xc2m8ujq5dj0que9g73","addr1q9urrn4sqtmhlydag73d3e8xcm596mqzqzqa7wsadqxmfnqaggsu2pstpl0mpvkl9u0gsje9mnrkm55xc2m8ujq5dj0que9g73","addr1q9urrn4sqtmhlydag73d3e8xcm596mqzqzqa7wsadqxmfnqaggsu2pstpl0mpvkl9u0gsje9mnrkm55xc2m8ujq5dj0que9g73"],"addressesOutput":["addr1v94fk6h228pglfhhnp0nu6xc5lq06pdd6c6jfp3zx6h5z6g6kqhcn","addr1q9urrn4sqtmhlydag73d3e8xcm596mqzqzqa7wsadqxmfnqaggsu2pstpl0mpvkl9u0gsje9mnrkm55xc2m8ujq5dj0que9g73","addr1q9urrn4sqtmhlydag73d3e8xcm596mqzqzqa7wsadqxmfnqaggsu2pstpl0mpvkl9u0gsje9mnrkm55xc2m8ujq5dj0que9g73","addr1q9urrn4sqtmhlydag73d3e8xcm596mqzqzqa7wsadqxmfnqaggsu2pstpl0mpvkl9u0gsje9mnrkm55xc2m8ujq5dj0que9g73","addr1q9urrn4sqtmhlydag73d3e8xcm596mqzqzqa7wsadqxmfnqaggsu2pstpl0mpvkl9u0gsje9mnrkm55xc2m8ujq5dj0que9g73"],"fee":180417,"totalOutput":725748822,"tokens":[]},{"hash":"6f09e2f95030d2d1f8bfc45d5774608a800be184d4c328080b73c33c372af7f3","blockNo":8106453,"blockHash":"2cb21b0e1de47661aad974262cf514a0b78209d2dc850a6456f1d0b14dbe7a0e","epochNo":380,"epochSlotNo":2879,"slot":78799679,"time":"2022/12/06 22:32:50","addressesInput":["addr1q8kfltln50kmrz9netjsw9gfg9gr094pgmpzjjw7j7p3rn89642g9umcq66y4hl0k3kan2nln6lf07lsp8hytm8s4m5qzzcre5"],"addressesOutput":["addr1v8mhcmap8jr3jtj37ed9z4mdpfkau7ntz7mhaqlm3ekmr4gfehvz8","addr1q8kfltln50kmrz9netjsw9gfg9gr094pgmpzjjw7j7p3rn89642g9umcq66y4hl0k3kan2nln6lf07lsp8hytm8s4m5qzzcre5"],"fee":167261,"totalOutput":5432510718,"tokens":[]},{"hash":"f8808ee5140ea6f550a76448d65d85eec3f62474fe5393cda2996901ccb89d98","blockNo":8106453,"blockHash":"2cb21b0e1de47661aad974262cf514a0b78209d2dc850a6456f1d0b14dbe7a0e","epochNo":380,"epochSlotNo":2879,"slot":78799679,"time":"2022/12/06 22:32:50","addressesInput":["addr1qxwnnu626h5s3lzkx8rtzmrlyycfhtv0j6derrmzd0quenadhkdp0sas5mfcuw4lsljkuz55sgunchfsr53ndkm93kcq9ej959","addr1qxwnnu626h5s3lzkx8rtzmrlyycfhtv0j6derrmzd0quenadhkdp0sas5mfcuw4lsljkuz55sgunchfsr53ndkm93kcq9ej959"],"addressesOutput":["addr1vx090fp93wzvel3nud0u7gqzp6zgd2wx0w9wq750vsjrjasqew3hp","addr1qxwnnu626h5s3lzkx8rtzmrlyycfhtv0j6derrmzd0quenadhkdp0sas5mfcuw4lsljkuz55sgunchfsr53ndkm93kcq9ej959"],"fee":168669,"totalOutput":64914253,"tokens":[]},{"hash":"05b4ce5ccf2d2d095ee56ed0ac0eefbb46748c7c12340895f282bc7e5c534e45","blockNo":8106453,"blockHash":"2cb21b0e1de47661aad974262cf514a0b78209d2dc850a6456f1d0b14dbe7a0e","epochNo":380,"epochSlotNo":2879,"slot":78799679,"time":"2022/12/06 22:32:50","addressesInput":["addr1q8dr7f6qa2vdmfjkd6c22qrfu22ylunegh2mqjn66l6c92rcrtp3ncsf0yj2vzdx2fsv0z88ku09cfe2s30ulmuh825qwpkwpr","addr1q8dr7f6qa2vdmfjkd6c22qrfu22ylunegh2mqjn66l6c92rcrtp3ncsf0yj2vzdx2fsv0z88ku09cfe2s30ulmuh825qwpkwpr"],"addressesOutput":["addr1vxna2sfdrrt3kmurq2ttv5qkmtc2lgcqe03jdv02m9wy8mg7kz500","addr1q8dr7f6qa2vdmfjkd6c22qrfu22ylunegh2mqjn66l6c92rcrtp3ncsf0yj2vzdx2fsv0z88ku09cfe2s30ulmuh825qwpkwpr"],"fee":168669,"totalOutput":2694116416,"tokens":[]},{"hash":"80fcf9da83e874779c358e5a45c8919e7436bdaa2023ee59f544acecf2bfd8cb","blockNo":8106453,"blockHash":"2cb21b0e1de47661aad974262cf514a0b78209d2dc850a6456f1d0b14dbe7a0e","epochNo":380,"epochSlotNo":2879,"slot":78799679,"time":"2022/12/06 22:32:50","addressesInput":["addr1q8krg0hcmy9ggly6ygmvn8wyp22w89qm0cnk4vwfjtat8w0g8ppmsrvuttt6h6qf0s7usc98eh8g4zjxj7mtkraf6ycsw4tnzl","addr1qy3sfmdcsuhtlmmc5g50w2grcqxmstx36hx7rl3wec0d6c0g8ppmsrvuttt6h6qf0s7usc98eh8g4zjxj7mtkraf6ycs9vjj62"],"addressesOutput":["addr1qx8yxwhdd2njmd2f4w2z2yrvhvs9ycumpx6ajdd7ewsnxnw03r75jueh9yseqm4m776e5e3uwk5r5xd9mj4g8cn3aj2quxncrx","addr1q9m8gqjtuaml7z74tvepr73r3q4xd3xvx9fp80u5qmfc6qlg8ppmsrvuttt6h6qf0s7usc98eh8g4zjxj7mtkraf6ycskuwxsp"],"fee":190361,"totalOutput":81315887,"tokens":[]},{"hash":"c78269edce61e68122f3a59d1de6f708c5ae42dcc77f064377a2d879111c939d","blockNo":8106453,"blockHash":"2cb21b0e1de47661aad974262cf514a0b78209d2dc850a6456f1d0b14dbe7a0e","epochNo":380,"epochSlotNo":2879,"slot":78799679,"time":"2022/12/06 22:32:50","addressesInput":["addr1qy2d0pk4g0larx3k2las8q5ap4a2mqv0fn5w7w7e4yz07kz7gf7r5d7unrzanzlgw5y3lm2lcf62wegyelq6f7jq8hyszaghrp","addr1q8mklgj84qzgr0asqrqzw2xrn6tfxws3xq7we93g58ksw6z7gf7r5d7unrzanzlgw5y3lm2lcf62wegyelq6f7jq8hys8pvjyz"],"addressesOutput":["addr1vxtwxxf2fyfdt63yfapcksjqn0x37uqumqcn79j5v6r08zc3cj40q","addr1qxfr5ggkgnx3dztha3zqu0547c7jcjlj3kkpvu0r56ey9zj7gf7r5d7unrzanzlgw5y3lm2lcf62wegyelq6f7jq8hysg8qn00"],"fee":173113,"totalOutput":126393653,"tokens":[]},{"hash":"dbf7b31daaf5f926d0fdecdad1154c787f6f90d13960945dbf63a10ec5f9365f","blockNo":8106453,"blockHash":"2cb21b0e1de47661aad974262cf514a0b78209d2dc850a6456f1d0b14dbe7a0e","epochNo":380,"epochSlotNo":2879,"slot":78799679,"time":"2022/12/06 22:32:50","addressesInput":["addr1qxt3jcz5ypm897755kdxnz8vvxrmvrpgdc2uvkcahkqzcj7tq789u6w4snp8ja2569ufm3h9kef6yrfwgvgpa4z7exdsgsz00v"],"addressesOutput":["addr1vx7emvw3ejn58vw90j0hfpfu5csq2ftkx2eag0z8hdfvzkqz2eeut","addr1qy74p9g2dc73kfujj8mcnuf3nnev98wu4f8apyum2nsl2zwtq789u6w4snp8ja2569ufm3h9kef6yrfwgvgpa4z7exds6c7nt6","addr1qy74p9g2dc73kfujj8mcnuf3nnev98wu4f8apyum2nsl2zwtq789u6w4snp8ja2569ufm3h9kef6yrfwgvgpa4z7exds6c7nt6","addr1qy74p9g2dc73kfujj8mcnuf3nnev98wu4f8apyum2nsl2zwtq789u6w4snp8ja2569ufm3h9kef6yrfwgvgpa4z7exds6c7nt6","addr1qy74p9g2dc73kfujj8mcnuf3nnev98wu4f8apyum2nsl2zwtq789u6w4snp8ja2569ufm3h9kef6yrfwgvgpa4z7exds6c7nt6"],"fee":175665,"totalOutput":306633114,"tokens":[]},{"hash":"fc5e35fbe6f04f07ca1dfd42792f25b84151121f19315eb9f9d71c3ded4fa94f","blockNo":8106453,"blockHash":"2cb21b0e1de47661aad974262cf514a0b78209d2dc850a6456f1d0b14dbe7a0e","epochNo":380,"epochSlotNo":2879,"slot":78799679,"time":"2022/12/06 22:32:50","addressesInput":["addr1w8vh8ssekk52ye3pt7a2j8upv3qphzmar2sj68353xds9lq5urex7","addr1v8pr9mwnqarw808gtllvmlxvk70hnszrukjeqfstr9t9g5crud8c4","addr1w9v5h80g9nk4qn3vxxxrzpwp2vnr4fv9jgd7jwcnk4eseqc2arf39","addr1w828m0rdlumnp30dwmv33l4akzhxcpx7a64tuvjwhjn7pxgngjrpx","addr1w80k8xe6vckm3qgklhw98tqjekfvw3mgwux3stmtq3jlprga3u33c","addr1wxfy7dlg4u7uzce0930uuqxlkdk0xwm5hxejz896dxjkrcslntswa","addr1w835n68qeax023uperwgwlruk3d8yjl4k98r433nhw5waqgkx8prf","addr1vy3qpx09uscywhppj5vp08hu0ekg9zwmq2ysfq6qyh2mpps865j6t","addr1w8dmtwktj7lktd0zv0wpxuny590ndshmj3z8xxmq3tjyvdggs35jy","addr1wxc40w4gk5lh6d6fqvmhx7zrahes7rcgdav0mejwggce26sknjav5","addr1w9xc5279jqxql020jp295d377nqrms826gnhgqxt5g5m9dqlfqf3f"],"addressesOutput":["addr1vy3qpx09uscywhppj5vp08hu0ekg9zwmq2ysfq6qyh2mpps865j6t","addr1v8pr9mwnqarw808gtllvmlxvk70hnszrukjeqfstr9t9g5crud8c4","addr1q8lgsjcejwg7g7dajuprs2gpkchq5wx25hz39xvg02ny3l95u6agkzxlgwlkl6cfe6xh7qrfr9yx6tfsmnk034vkdy2st3laet","addr1q86w2euf89a573npmnvvkj77zauhgyr6wl85lvqn5v00xpsr478sdtrcnc8et307qpq3fjp8g5gnw8hfspu7vza0qk0s9ge407","addr1qy8q7tg6zqdxmpsrjn07jzs646qhxu5usmd6htkm0dfmmkuj5ahl3pp46f4djnrjmk73mxwcdlvgwp0l8fn47rf0ha9qea952s","addr1qxj7j6cj3qt94y985rzaf8ur60eeu77wy7u4n3cgyajr3d9j7z68x07gsc7ems8ulg5helq87nvnxvedk54quw0r2q2qephw3r","addr1w9xc5279jqxql020jp295d377nqrms826gnhgqxt5g5m9dqlfqf3f","addr1w8vh8ssekk52ye3pt7a2j8upv3qphzmar2sj68353xds9lq5urex7","addr1w80k8xe6vckm3qgklhw98tqjekfvw3mgwux3stmtq3jlprga3u33c","addr1wxc40w4gk5lh6d6fqvmhx7zrahes7rcgdav0mejwggce26sknjav5","addr1w835n68qeax023uperwgwlruk3d8yjl4k98r433nhw5waqgkx8prf","addr1w828m0rdlumnp30dwmv33l4akzhxcpx7a64tuvjwhjn7pxgngjrpx","addr1w8dmtwktj7lktd0zv0wpxuny590ndshmj3z8xxmq3tjyvdggs35jy","addr1wxfy7dlg4u7uzce0930uuqxlkdk0xwm5hxejz896dxjkrcslntswa","addr1w9v5h80g9nk4qn3vxxxrzpwp2vnr4fv9jgd7jwcnk4eseqc2arf39"],"fee":511913,"totalOutput":3250896805,"tokens":[]},{"hash":"bde203fd1f3b930e1a1167402633e47ae59d19a26cda0dbcfae34afbf645007e","blockNo":8106453,"blockHash":"2cb21b0e1de47661aad974262cf514a0b78209d2dc850a6456f1d0b14dbe7a0e","epochNo":380,"epochSlotNo":2879,"slot":78799679,"time":"2022/12/06 22:32:50","addressesInput":["addr1w80k8xe6vckm3qgklhw98tqjekfvw3mgwux3stmtq3jlprga3u33c","addr1w835n68qeax023uperwgwlruk3d8yjl4k98r433nhw5waqgkx8prf","addr1v8pr9mwnqarw808gtllvmlxvk70hnszrukjeqfstr9t9g5crud8c4","addr1w9v5h80g9nk4qn3vxxxrzpwp2vnr4fv9jgd7jwcnk4eseqc2arf39","addr1vy3qpx09uscywhppj5vp08hu0ekg9zwmq2ysfq6qyh2mpps865j6t","addr1w8vh8ssekk52ye3pt7a2j8upv3qphzmar2sj68353xds9lq5urex7","addr1w828m0rdlumnp30dwmv33l4akzhxcpx7a64tuvjwhjn7pxgngjrpx","addr1w8dmtwktj7lktd0zv0wpxuny590ndshmj3z8xxmq3tjyvdggs35jy","addr1w9xc5279jqxql020jp295d377nqrms826gnhgqxt5g5m9dqlfqf3f","addr1wxc40w4gk5lh6d6fqvmhx7zrahes7rcgdav0mejwggce26sknjav5","addr1wxfy7dlg4u7uzce0930uuqxlkdk0xwm5hxejz896dxjkrcslntswa"],"addressesOutput":["addr1vy3qpx09uscywhppj5vp08hu0ekg9zwmq2ysfq6qyh2mpps865j6t","addr1v8pr9mwnqarw808gtllvmlxvk70hnszrukjeqfstr9t9g5crud8c4","addr1q9ledzrym2g0t2tawu6ga8e96x5y8l0mvl4h693wpjzdz4yr3qqgeg0cgyaqwf7surku355lg00np0m0g5x2jnfhsnxqstvgtk","addr1q8sy8ftfkv46x5dv7l8uts863x7ra5dunppqgxftqq052rlt3swpz6nkc7l7gdg5r9nsecpsqeza7nx9gk3etaesqjgsae8vss","addr1qxauysjpaum865lzuv75z2rffzutac64ppukth59jhwrtud3sl4svl9y0skrnlnta5n4rh33es6z9txpmq8c3lmuvn6sur7s5m","addr1q9k3hmf6wplgmhue9knnntckdc9rugqjs4pr9gysm3ss35zf33m5tkgaf2g6e0f6l84268k4vc5p2vr3lq7g50q5h82s82lhk3","addr1w9xc5279jqxql020jp295d377nqrms826gnhgqxt5g5m9dqlfqf3f","addr1w8vh8ssekk52ye3pt7a2j8upv3qphzmar2sj68353xds9lq5urex7","addr1w80k8xe6vckm3qgklhw98tqjekfvw3mgwux3stmtq3jlprga3u33c","addr1wxc40w4gk5lh6d6fqvmhx7zrahes7rcgdav0mejwggce26sknjav5","addr1w835n68qeax023uperwgwlruk3d8yjl4k98r433nhw5waqgkx8prf","addr1w828m0rdlumnp30dwmv33l4akzhxcpx7a64tuvjwhjn7pxgngjrpx","addr1w8dmtwktj7lktd0zv0wpxuny590ndshmj3z8xxmq3tjyvdggs35jy","addr1wxfy7dlg4u7uzce0930uuqxlkdk0xwm5hxejz896dxjkrcslntswa","addr1w9v5h80g9nk4qn3vxxxrzpwp2vnr4fv9jgd7jwcnk4eseqc2arf39"],"fee":512001,"totalOutput":3263545678,"tokens":[]},{"hash":"0d38e964c93b1d3a56d516fa5cd565231de0b64e518668258ed6fa38f260aa08","blockNo":8106453,"blockHash":"2cb21b0e1de47661aad974262cf514a0b78209d2dc850a6456f1d0b14dbe7a0e","epochNo":380,"epochSlotNo":2879,"slot":78799679,"time":"2022/12/06 22:32:50","addressesInput":["addr1v8pr9mwnqarw808gtllvmlxvk70hnszrukjeqfstr9t9g5crud8c4","addr1w8vg4e5xdpad2jt0z775rt0alwmku3my2dmw8ezd884zvtssrq6fg","addr1wysvn9wkuay63m4hn8r5ert7vq47a0exfap7juvugdxm30gddwmuq","addr1vy3qpx09uscywhppj5vp08hu0ekg9zwmq2ysfq6qyh2mpps865j6t","addr1wxfy7dlg4u7uzce0930uuqxlkdk0xwm5hxejz896dxjkrcslntswa","addr1wxau62drpn3e832yqhhjqjvw3qxuztuns2f93qvzq5w78qsavxpmv","addr1wxje849hq4nmnqs8u3s3tdhyjum7sw4y9j29hlmh6x944cg7xdmn6","addr1wyf9n27a7sa5y0lmfn9duuj6llvgvfw5slk8yq3nktwej4sjuzja2","addr1vxsejf4ftrelyyej0n20cz6c0j4hf6ljkptqxfwerjejwgsr4f6j7","addr1w8dmtwktj7lktd0zv0wpxuny590ndshmj3z8xxmq3tjyvdggs35jy","addr1w8d53566qrlwdgnv2x9rjn98rmlwz7ff58rrrwglwau27dssx37uq","addr1wxcpjfdxav75dfr2m653l2pf38q5juwz8fst6v5sqdcjsns74jyxe","addr1wx524gq72mduxehj6w2tt56fjq5z97d79m6zevu87s6ujxq7x9y9d","addr1w8usfr3avzl8qh5wm9wcy8uv7cr800ft5vjz5dw3pxeh8fgdp6e6r","addr1wxc40w4gk5lh6d6fqvmhx7zrahes7rcgdav0mejwggce26sknjav5","addr1v8nalsess89a34jszdvfw38wwk0eq9t59v69g604kps7d8cdxf63r","addr1wyez88j3n284puhedanu0kw7dmuxg3yzpw3xhuetlk0ygvs2qvqq3","addr1vx8p7e9hr03z2683paml642p2jljpmd7kzgsuykwx0jy5ks8d0kxv","addr1w8aqhs9aaw25jzc95chkqwje7c3ky4r7j60r3fde9zynumg7qn7kc","addr1w9xnt8ucaje6tevrafvtcc0yzs8d9m3ck67uvmperh29v0ckjalnj","addr1w80k8xe6vckm3qgklhw98tqjekfvw3mgwux3stmtq3jlprga3u33c","addr1w9v5h80g9nk4qn3vxxxrzpwp2vnr4fv9jgd7jwcnk4eseqc2arf39","addr1w835n68qeax023uperwgwlruk3d8yjl4k98r433nhw5waqgkx8prf","addr1w828m0rdlumnp30dwmv33l4akzhxcpx7a64tuvjwhjn7pxgngjrpx","addr1w9xc5279jqxql020jp295d377nqrms826gnhgqxt5g5m9dqlfqf3f","addr1w8vh8ssekk52ye3pt7a2j8upv3qphzmar2sj68353xds9lq5urex7","addr1v86wafzcufu7vt6ekmwp2j2m66yddrc959dhcxefn7us2psmflttq","addr1w9x787lmy2u0686zlppq3mw725yxr95u6puel2cflftpvacfjup2r"],"addressesOutput":["addr1vy3qpx09uscywhppj5vp08hu0ekg9zwmq2ysfq6qyh2mpps865j6t","addr1v8pr9mwnqarw808gtllvmlxvk70hnszrukjeqfstr9t9g5crud8c4","addr1qxsrzmhumcvdy6jl62vqqpcgy9q6mvgxgfq8fqu6tvx68yl8vr6wta397ykcskl2zztmmjaqw9e4xpl4x8wsqj5sspfqdv9xae","addr1qxmjzlneakasddydw2a9qyx6sd6pnstl6gy2lup6mtfh5j4sh5z6m07sk505xvxkp650tjqs6wx2weakdq5ehn7ceq0smyjs8e","addr1qxx6ftq4yp4yd45dnfdnt3qazqdslxs93v6da5ghj0lxwxa9dmj8pzxwxa6yxsz7c0dphu3efqe8pulyjzms0a07svms4ccygz","addr1qye24am4ekxmdh3lnm2pvdptax0f6e7rr2ah0pucrfmdqs6umpzdwg7pyqjn0s43zf4v0ggdz5zkvuxjqyc6yw809hwqrlhk94","addr1wx524gq72mduxehj6w2tt56fjq5z97d79m6zevu87s6ujxq7x9y9d","addr1w8usfr3avzl8qh5wm9wcy8uv7cr800ft5vjz5dw3pxeh8fgdp6e6r","addr1wxau62drpn3e832yqhhjqjvw3qxuztuns2f93qvzq5w78qsavxpmv","addr1wyf9n27a7sa5y0lmfn9duuj6llvgvfw5slk8yq3nktwej4sjuzja2","addr1wxc40w4gk5lh6d6fqvmhx7zrahes7rcgdav0mejwggce26sknjav5","addr1w8d53566qrlwdgnv2x9rjn98rmlwz7ff58rrrwglwau27dssx37uq","addr1w8vg4e5xdpad2jt0z775rt0alwmku3my2dmw8ezd884zvtssrq6fg","addr1w8aqhs9aaw25jzc95chkqwje7c3ky4r7j60r3fde9zynumg7qn7kc","addr1w8dmtwktj7lktd0zv0wpxuny590ndshmj3z8xxmq3tjyvdggs35jy","addr1w9v5h80g9nk4qn3vxxxrzpwp2vnr4fv9jgd7jwcnk4eseqc2arf39","addr1w9xc5279jqxql020jp295d377nqrms826gnhgqxt5g5m9dqlfqf3f","addr1wysvn9wkuay63m4hn8r5ert7vq47a0exfap7juvugdxm30gddwmuq","addr1w8vh8ssekk52ye3pt7a2j8upv3qphzmar2sj68353xds9lq5urex7","addr1w80k8xe6vckm3qgklhw98tqjekfvw3mgwux3stmtq3jlprga3u33c","addr1w9xnt8ucaje6tevrafvtcc0yzs8d9m3ck67uvmperh29v0ckjalnj","addr1w9x787lmy2u0686zlppq3mw725yxr95u6puel2cflftpvacfjup2r","addr1w835n68qeax023uperwgwlruk3d8yjl4k98r433nhw5waqgkx8prf","addr1wxje849hq4nmnqs8u3s3tdhyjum7sw4y9j29hlmh6x944cg7xdmn6","addr1wxcpjfdxav75dfr2m653l2pf38q5juwz8fst6v5sqdcjsns74jyxe","addr1wyez88j3n284puhedanu0kw7dmuxg3yzpw3xhuetlk0ygvs2qvqq3","addr1wxfy7dlg4u7uzce0930uuqxlkdk0xwm5hxejz896dxjkrcslntswa","addr1w828m0rdlumnp30dwmv33l4akzhxcpx7a64tuvjwhjn7pxgngjrpx"],"fee":649325,"totalOutput":3290542629,"tokens":[]},{"hash":"5c6f7d80c78566a4b73087e05f6cedd33ad3d34baa05c152f7ba4af6c9a79fe6","blockNo":8106453,"blockHash":"2cb21b0e1de47661aad974262cf514a0b78209d2dc850a6456f1d0b14dbe7a0e","epochNo":380,"epochSlotNo":2879,"slot":78799679,"time":"2022/12/06 22:32:50","addressesInput":["addr1q835kdjyhq6mvhkurak7pl560gxkgl83w5mjx6xv22njkrg094uep9wy33e4n4rkf0yvhzj2p6dmr2rffwlmgawcc82qj5xqrp"],"addressesOutput":["addr1vynpaf08rr9wt2vjvj76n83f5sdp3fszhpn7exete9z7s3su3xa24","addr1q835kdjyhq6mvhkurak7pl560gxkgl83w5mjx6xv22njkrg094uep9wy33e4n4rkf0yvhzj2p6dmr2rffwlmgawcc82qj5xqrp","addr1q835kdjyhq6mvhkurak7pl560gxkgl83w5mjx6xv22njkrg094uep9wy33e4n4rkf0yvhzj2p6dmr2rffwlmgawcc82qj5xqrp","addr1q835kdjyhq6mvhkurak7pl560gxkgl83w5mjx6xv22njkrg094uep9wy33e4n4rkf0yvhzj2p6dmr2rffwlmgawcc82qj5xqrp","addr1q835kdjyhq6mvhkurak7pl560gxkgl83w5mjx6xv22njkrg094uep9wy33e4n4rkf0yvhzj2p6dmr2rffwlmgawcc82qj5xqrp"],"fee":175665,"totalOutput":371824335,"tokens":[]},{"hash":"e7fe261ed3edb7ccf70428eaffa0703570dd372321ab1e38f3a5c931b19a6bca","blockNo":8106453,"blockHash":"2cb21b0e1de47661aad974262cf514a0b78209d2dc850a6456f1d0b14dbe7a0e","epochNo":380,"epochSlotNo":2879,"slot":78799679,"time":"2022/12/06 22:32:50","addressesInput":["addr1qyv9kp479hru9lkecye6v20ftqekx40ze06me5f2kdu2ut4qzpvjhweak4relcnlpdjph57qrdthk3cjyvy6myfmeykqcfp3dh","addr1qyv9kp479hru9lkecye6v20ftqekx40ze06me5f2kdu2ut4qzpvjhweak4relcnlpdjph57qrdthk3cjyvy6myfmeykqcfp3dh","addr1qyv9kp479hru9lkecye6v20ftqekx40ze06me5f2kdu2ut4qzpvjhweak4relcnlpdjph57qrdthk3cjyvy6myfmeykqcfp3dh","addr1qyv9kp479hru9lkecye6v20ftqekx40ze06me5f2kdu2ut4qzpvjhweak4relcnlpdjph57qrdthk3cjyvy6myfmeykqcfp3dh","addr1q9ndlu80qpummq3z2l4g2e60ndvf0syyev8lav00fplsz69qzpvjhweak4relcnlpdjph57qrdthk3cjyvy6myfmeykqmm0y0r","addr1qyv9kp479hru9lkecye6v20ftqekx40ze06me5f2kdu2ut4qzpvjhweak4relcnlpdjph57qrdthk3cjyvy6myfmeykqcfp3dh"],"addressesOutput":["addr1v9yjqkd7hpaf8e8rsmkr72xxd2frmrvjj7qjhxgcw0atdes2d32aw","addr1qx8acpn9slantg9ggug9wtl59862q6gxgag3cuxvlp3qvg9qzpvjhweak4relcnlpdjph57qrdthk3cjyvy6myfmeykqedxrq9"],"fee":179449,"totalOutput":407886036,"tokens":[]},{"hash":"991a3610670cb14a70704a5b01aab252457986a4a53795d68750a428dd41191a","blockNo":8106453,"blockHash":"2cb21b0e1de47661aad974262cf514a0b78209d2dc850a6456f1d0b14dbe7a0e","epochNo":380,"epochSlotNo":2879,"slot":78799679,"time":"2022/12/06 22:32:50","addressesInput":["addr1q86cm8mpxgrztw5u9ah90m6qvxlls588mvqtp6s5v6sjt84ejq2w0cl7e66n6kjs2d9h6q2chhl9lq85sk6uwaa7xnhsjnyne3"],"addressesOutput":["addr1vxf0xdtjfqksrr0szq2tpl9lq4dpr5uzw97qj9exfum9qfsnmn39k","addr1q9rztc7wj5ea0jqays2q9999zkv28gn20a0kwmh3qp7kgddejq2w0cl7e66n6kjs2d9h6q2chhl9lq85sk6uwaa7xnhsf2uhhg"],"fee":167085,"totalOutput":94657250,"tokens":[]},{"hash":"93c29f7972d8c005341288b35bf462fe7fe7b0c12e4cbc4f8da46a77ade98856","blockNo":8106453,"blockHash":"2cb21b0e1de47661aad974262cf514a0b78209d2dc850a6456f1d0b14dbe7a0e","epochNo":380,"epochSlotNo":2879,"slot":78799679,"time":"2022/12/06 22:32:50","addressesInput":["addr1q9ptzt76frxklv8a45lrju94eq2w7xd6nxrreegldwxwc43g2gld4s3u03lmfv4s66ppdhf9r6z57sz4txvwzuvu4s8sje4gze"],"addressesOutput":["addr1wxr2a8htmzuhj39y2gq7ftkpxv98y2g67tg8zezthgq4jkg0a4ul4","addr1q9ptzt76frxklv8a45lrju94eq2w7xd6nxrreegldwxwc43g2gld4s3u03lmfv4s66ppdhf9r6z57sz4txvwzuvu4s8sje4gze"],"fee":181121,"totalOutput":348641890,"tokens":[]},{"hash":"5178f954cf1799fd26745c9ba6cc7e9e1f7766db8b6829b8c28d13aefab4850b","blockNo":8106453,"blockHash":"2cb21b0e1de47661aad974262cf514a0b78209d2dc850a6456f1d0b14dbe7a0e","epochNo":380,"epochSlotNo":2879,"slot":78799679,"time":"2022/12/06 22:32:50","addressesInput":["addr1qxqjjytwjlhp2vvwf68amfvyf6shvz4aw4wfgm2lrxvexd0zms8e8yzsty49htcwktz7crq4js9tr0rvafcgg7w6dz7qzshlk2","addr1qxqjjytwjlhp2vvwf68amfvyf6shvz4aw4wfgm2lrxvexd0zms8e8yzsty49htcwktz7crq4js9tr0rvafcgg7w6dz7qzshlk2"],"addressesOutput":["addr1v8p28w74k7fxm6zhrvrme0vnn56dg5x0wzgc8jtf3s5yz9ca6qeea","addr1qxqjjytwjlhp2vvwf68amfvyf6shvz4aw4wfgm2lrxvexd0zms8e8yzsty49htcwktz7crq4js9tr0rvafcgg7w6dz7qzshlk2"],"fee":168669,"totalOutput":2152383452,"tokens":[]},{"hash":"d0fd764f192ec470668a2f57af1afeb571b0ba2f4aa6a4383d5ea6c759f927f5","blockNo":8106453,"blockHash":"2cb21b0e1de47661aad974262cf514a0b78209d2dc850a6456f1d0b14dbe7a0e","epochNo":380,"epochSlotNo":2879,"slot":78799679,"time":"2022/12/06 22:32:50","addressesInput":["addr1q8jqthg3yfxgv0lm4umj0mk55xrv7z7qrf29s60wfy9vv29ryz3vnl4wl4f5c6f25amnyyd2fp98ewzzljggex0dcmdq9s55xd"],"addressesOutput":["addr1v8y4d5xlev9898fe22l35spm6655dmq45k7hpdnw4skj8ss8kld5p","addr1q9hng054jvqutefsrqku98clalrv8nm27uqerafrt2ajc04ryz3vnl4wl4f5c6f25amnyyd2fp98ewzzljggex0dcmdqlaer30"],"fee":167085,"totalOutput":92676192,"tokens":[]},{"hash":"4ccc998939515b83bf0e0f5f4ae4c3b755386e5143c581ac438c443f4554796a","blockNo":8106453,"blockHash":"2cb21b0e1de47661aad974262cf514a0b78209d2dc850a6456f1d0b14dbe7a0e","epochNo":380,"epochSlotNo":2879,"slot":78799679,"time":"2022/12/06 22:32:50","addressesInput":["addr1vxfa8dwzflct4re7qn2ls7t46w6rc479rafnwzqx4z2asuq6cg00t","addr1vxfa8dwzflct4re7qn2ls7t46w6rc479rafnwzqx4z2asuq6cg00t","addr1vxfa8dwzflct4re7qn2ls7t46w6rc479rafnwzqx4z2asuq6cg00t"],"addressesOutput":["addr1qxglksy65w6x3kuksp3m7xlvuqhl2a9f0w2nm3crmew7057vpuzhn97jay38vh4sspz45ukzavalsm0tf6q4gx39rl8s7ypxef","addr1vxfa8dwzflct4re7qn2ls7t46w6rc479rafnwzqx4z2asuq6cg00t","addr1vxfa8dwzflct4re7qn2ls7t46w6rc479rafnwzqx4z2asuq6cg00t"],"fee":209061,"totalOutput":3165026689,"tokens":[]},{"hash":"a3ba8dd49bc6a81d55e4e2efb4156f36e6ab15498a3c0a02ffef4ee89bde5f76","blockNo":8106453,"blockHash":"2cb21b0e1de47661aad974262cf514a0b78209d2dc850a6456f1d0b14dbe7a0e","epochNo":380,"epochSlotNo":2879,"slot":78799679,"time":"2022/12/06 22:32:50","addressesInput":["addr1q99n4az72cxw5u2vlq92y0587gedfmqs2zt8rwvjwa7xszfvqy8gf02plruh6t03t6vd2emdffawth8yxcs43kf70k3su4em7e"],"addressesOutput":["addr1v8qnhsql37jgzqvtx6dpy7yt8h9wggz98n9ec2t4spggpvsy982u3","addr1q805tx686dp8td47g024kzmn0lphjnru8vskratwpmpjxz3vqy8gf02plruh6t03t6vd2emdffawth8yxcs43kf70k3sk9549v"],"fee":167085,"totalOutput":15272350,"tokens":[]},{"hash":"97b04f36b64e0e0ae52192dc3934686c38ab74c5d25a1a71a3760bc25f78f50c","blockNo":8106453,"blockHash":"2cb21b0e1de47661aad974262cf514a0b78209d2dc850a6456f1d0b14dbe7a0e","epochNo":380,"epochSlotNo":2879,"slot":78799679,"time":"2022/12/06 22:32:50","addressesInput":["addr1wxr2a8htmzuhj39y2gq7ftkpxv98y2g67tg8zezthgq4jkg0a4ul4","addr1qxeugc32x6gxqfm6xe0p3q4vzn5p3hdykeychhxmh2043fqaz2s0jvfkvtnl6uauda23mjuxdjvr0rxtstvn62v5sw0qjt0rkz","addr1z8nvjzjeydcn4atcd93aac8allvrpjn7pjr2qsweukpnayvuk3puqmn2c5jn5ymlc4r8yylrc00t826weads3j5m8cdqr52nd9"],"addressesOutput":["addr1z8nvjzjeydcn4atcd93aac8allvrpjn7pjr2qsweukpnayvuk3puqmn2c5jn5ymlc4r8yylrc00t826weads3j5m8cdqr52nd9","addr1q87unujy0sx4vchcstl0um2tk9sf5n6qjmmpmajvh9m3z6cecyntf8fnfn34c2gftqc9j5xlqzpfawfgqpg3ysks2ywsrmzru4","addr1qxeugc32x6gxqfm6xe0p3q4vzn5p3hdykeychhxmh2043fqaz2s0jvfkvtnl6uauda23mjuxdjvr0rxtstvn62v5sw0qjt0rkz"],"fee":822556,"totalOutput":77540803968,"tokens":[]}],"totalItems":56144543,"totalPages":2807228,"currentPage":0}