{"data":[{"blockNo":8295586,"slotNo":82676959,"epochNo":388,"epochSlotNo":424159,"hash":"6168a89f3704a9dbe5a00e4e419f1b681d6d053d461973ced92499eb44263f19","time":"2023/01/20 19:34:10","txCount":28,"totalFees":10643893,"totalOutput":3525554505840,"slotLeader":"d68eed68381b65beb04fc7984dfa156c4dbf53c7911e900af6a535ef"},{"blockNo":8295585,"slotNo":82676922,"epochNo":388,"epochSlotNo":424122,"hash":"ee6349e850f21d7f4b64f816306b9b5eaa04fa9d00450e7d1b3aaeab765c920c","time":"2023/01/20 19:33:33","txCount":16,"totalFees":5164400,"totalOutput":391804589132,"slotLeader":"c7e431518477a4156c2a8cd6523a6a73514e7fbbbf7eed363b9a22ad"},{"blockNo":8295584,"slotNo":82676900,"epochNo":388,"epochSlotNo":424100,"hash":"d2c4e235c11bb3334710198cdeb4559055d9d0861803f261181aca8363379966","time":"2023/01/20 19:33:11","txCount":10,"totalFees":3283836,"totalOutput":6023545767,"slotLeader":"2a748e3885f6f73320ad16a8331247b81fe01b8d39f57eec9caa5091"},{"blockNo":8295583,"slotNo":82676892,"epochNo":388,"epochSlotNo":424092,"hash":"659f9f2c9389d5ffb7ce24954f89af85c1d43ee48da1c538b44462aac09d7c3b","time":"2023/01/20 19:33:03","txCount":14,"totalFees":3336916,"totalOutput":7995571214,"slotLeader":"4ebf3e184e2bf7b6c4a5998126088432369ade380fa5a08690f1b618"},{"blockNo":8295582,"slotNo":82676874,"epochNo":388,"epochSlotNo":424074,"hash":"d4b66a1bf912033c1067eb7f1093a84b9ea5644fad79af82d9d230610398e2e2","time":"2023/01/20 19:32:45","txCount":48,"totalFees":15569907,"totalOutput":3124400613967,"slotLeader":"662796197f741c9b9f0d9830530d01300ee5c63f549784ff2ac81c17"},{"blockNo":8295581,"slotNo":82676801,"epochNo":388,"epochSlotNo":424001,"hash":"2cb0678c85d824a8ac7cee7f5572b98b61cd4d0745f210e0f5a95931c68259e0","time":"2023/01/20 19:31:32","txCount":2,"totalFees":451890,"totalOutput":39983702238,"slotLeader":"b0c53bbb91bd03c5417c87c7488a83de68f5ea27aefb886c9fc4ff27"},{"blockNo":8295580,"slotNo":82676796,"epochNo":388,"epochSlotNo":423996,"hash":"970d31338df3234de27273f2ec4ed4d049b5e92553333c4b01da1dff964df046","time":"2023/01/20 19:31:27","txCount":0,"totalFees":0,"totalOutput":0,"slotLeader":"fd30f95effb4f28920020901e3a4ad04f4d3585bc46953de762e8c0c"},{"blockNo":8295579,"slotNo":82676795,"epochNo":388,"epochSlotNo":423995,"hash":"448e4f370a97555ee40805fe2cf7a57335ec255802c629d5a26fa4f189710bee","time":"2023/01/20 19:31:26","txCount":39,"totalFees":15236815,"totalOutput":3952242933532,"slotLeader":"4690a6bcbfc9eedd4d8595c9d665cd9b8ebe3e6d82ebf0120d7bc7c5"},{"blockNo":8295578,"slotNo":82676777,"epochNo":388,"epochSlotNo":423977,"hash":"bd47d8c60d132562b75c34d4ce24b06306f11a1ad0b7eb94d332bc4cd8336ab8","time":"2023/01/20 19:31:08","txCount":16,"totalFees":7091267,"totalOutput":39935313818,"slotLeader":"a503e42a2c6ef347d834fa404fa4d4bfa6dfb48256ff95b067483980"},{"blockNo":8295577,"slotNo":82676722,"epochNo":388,"epochSlotNo":423922,"hash":"21941ad92f171000b01d68318d9c2c2cdad83dcc627da2c794462b23e8d853ad","time":"2023/01/20 19:30:13","txCount":32,"totalFees":10343718,"totalOutput":6783508492818,"slotLeader":"e66b34646251e760c1701d0348819fa73e08c97bffe55d91ed7cd472"}],"totalItems":20784,"totalPages":2079,"currentPage":0}