{"data":[{"no":313,"status":"SYNCING","blkCount":4908,"outSum":4207206160568598,"txCount":184628,"startTime":"2022/01/05 21:45:31","endTime":"2022/01/07 03:11:50","maxSlot":432000},{"no":312,"status":"FINISHED","blkCount":20821,"outSum":12414570555178621,"txCount":501383,"startTime":"2021/12/31 21:44:58","endTime":"2022/01/05 21:44:40","maxSlot":432000},{"no":311,"status":"FINISHED","blkCount":21090,"outSum":12815272307603394,"txCount":452652,"startTime":"2021/12/26 21:45:00","endTime":"2021/12/31 21:44:46","maxSlot":432000},{"no":310,"status":"FINISHED","blkCount":21045,"outSum":12210427846799865,"txCount":475918,"startTime":"2021/12/21 21:46:06","endTime":"2021/12/26 21:44:36","maxSlot":432000},{"no":309,"status":"FINISHED","blkCount":20804,"outSum":13560377046033274,"txCount":553388,"startTime":"2021/12/16 21:45:46","endTime":"2021/12/21 21:44:45","maxSlot":432000},{"no":308,"status":"FINISHED","blkCount":21033,"outSum":18080504620762237,"txCount":427399,"startTime":"2021/12/11 21:45:50","endTime":"2021/12/16 21:43:58","maxSlot":432000},{"no":307,"status":"FINISHED","blkCount":20910,"outSum":29271525504982268,"txCount":604359,"startTime":"2021/12/06 21:45:26","endTime":"2021/12/11 21:43:57","maxSlot":432000},{"no":306,"status":"FINISHED","blkCount":21141,"outSum":38644324751006758,"txCount":531293,"startTime":"2021/12/01 21:46:31","endTime":"2021/12/06 21:44:50","maxSlot":432000},{"no":305,"status":"FINISHED","blkCount":21025,"outSum":31316579883453929,"txCount":769219,"startTime":"2021/11/26 21:45:18","endTime":"2021/12/01 21:44:40","maxSlot":432000},{"no":304,"status":"FINISHED","blkCount":21095,"outSum":41119279092669542,"txCount":1566974,"startTime":"2021/11/21 21:44:55","endTime":"2021/11/26 21:43:39","maxSlot":432000}],"totalItems":314,"totalPages":32,"currentPage":0}