{"data":[{"hash":"7dcf574d34a176d765be0f72126a4d9e41b3018a355c66569aa933360d6e6e22","blockNo":8116974,"blockHash":"918eef5e848e090f5d830593373ddeac64e5f8b572e17cb5a60b2309c1861a87","epochNo":380,"epochSlotNo":216073,"slot":79012873,"time":"2022/12/09 09:46:04","addressesInput":["addr1qyqutfmft3gkjql5s2cl0g60hqn8zvxa04xjrty6lvve5ceyry0ytsw59l6elj8u4ql25ly0pg3aknmyx9h49ls7ndas54hms0"],"addressesOutput":["addr1vyytk8t7245kjq4f90msj6swsq5zrmg2ljn52p6ue7mtryg53nsz4","addr1q8dmp9vstj44wnk5ccsmw3evl86af8d354mf2h9ft95860fyry0ytsw59l6elj8u4ql25ly0pg3aknmyx9h49ls7ndasf4krpt"],"fee":166821,"totalOutput":136211651,"tokens":[]},{"hash":"3e5dc7007e29ed10b490ee080d696c48a2a4212e0ef8676ad082940c82ce36a3","blockNo":8116974,"blockHash":"918eef5e848e090f5d830593373ddeac64e5f8b572e17cb5a60b2309c1861a87","epochNo":380,"epochSlotNo":216073,"slot":79012873,"time":"2022/12/09 09:46:04","addressesInput":["addr1qyt59xjl252mfc2cxargv85em2pt8xg7qq4ay44avv05jmqeeyggpuk94x3nzc0cqlv4ez2x9hkq9dptzhwmffuwcmvqe7r39p","addr1qyt59xjl252mfc2cxargv85em2pt8xg7qq4ay44avv05jmqeeyggpuk94x3nzc0cqlv4ez2x9hkq9dptzhwmffuwcmvqe7r39p","addr1qxaxlhssqygx2m90zj4fmzjr83lgzvnzvpmjscsl8df5fcgeeyggpuk94x3nzc0cqlv4ez2x9hkq9dptzhwmffuwcmvqr5v9cu","addr1qyt59xjl252mfc2cxargv85em2pt8xg7qq4ay44avv05jmqeeyggpuk94x3nzc0cqlv4ez2x9hkq9dptzhwmffuwcmvqe7r39p","addr1qyt59xjl252mfc2cxargv85em2pt8xg7qq4ay44avv05jmqeeyggpuk94x3nzc0cqlv4ez2x9hkq9dptzhwmffuwcmvqe7r39p","addr1qyt59xjl252mfc2cxargv85em2pt8xg7qq4ay44avv05jmqeeyggpuk94x3nzc0cqlv4ez2x9hkq9dptzhwmffuwcmvqe7r39p"],"addressesOutput":["DdzFFzCqrhtAkYENRNe23u6MEHfaD8EaP2rUg7oDKoJDacnm64Ws1vsmskN8r4fYyW8KrwM6gJ2vEx1oeLgWDuBNvurZrUwnuq8uo5uq"],"fee":178657,"totalOutput":2974664800,"tokens":[]},{"hash":"a01095871a96f3b9cdfca4152f7569f9bfb048e1c5079e21e7ca16c7316008d1","blockNo":8116974,"blockHash":"918eef5e848e090f5d830593373ddeac64e5f8b572e17cb5a60b2309c1861a87","epochNo":380,"epochSlotNo":216073,"slot":79012873,"time":"2022/12/09 09:46:04","addressesInput":["addr1q98rk8qam6s773sgcwfa6t57tf0tdw2hp8uj6rr8htvj96gq5lct05tr9vk2nkmfth2rryxyegdr3gp005jklatzvlnqjfz8mp","addr1q8rkp4d7pv8q0l9y3mr8ahu3hhjnahfgcgm7387ehaxtvxsq5lct05tr9vk2nkmfth2rryxyegdr3gp005jklatzvlnq3cwx0p"],"addressesOutput":["addr1qxjd4ve909hp7nh0jnsuwsh6lpcyha7lu0lm70rwqqj5pu9ym2ej27twra8wl98pcap047rsf0malcllhu7xuqp9grcqgtrw5h","addr1q9rutkdzg8lp9xvst822z7lvf9x5mqvfny2t2epy24xsqyqq5lct05tr9vk2nkmfth2rryxyegdr3gp005jklatzvlnqa5zq4s"],"fee":175797,"totalOutput":273142603,"tokens":[]},{"hash":"f6ef327d408ba4ba314855513c1583c1d925203ab80f445357486745c197fb95","blockNo":8116973,"blockHash":"8e35d1d454c323b2e1e8822afc21e534fe15402bcd9662016c1858780939c7b0","epochNo":380,"epochSlotNo":216070,"slot":79012870,"time":"2022/12/09 09:46:01","addressesInput":["addr1v9u7va2sktlnz8dp3qadpnxxlv4m03672jy6elmntlxxs7q9nnwl9"],"addressesOutput":["addr1qxurpus05gw5a74sp6mrnuk8u62f2quxrjkrp0yjex9ln2ntgspr4zwx5vkvyj39g7jrh8n997vrjzxes6ydkyryva7sqml2xk","addr1v8v3auqmw0eszza3ww29ea2pwftuqrqqyu26zvzjq9dt2ncydzvs5"],"fee":171221,"totalOutput":506726137,"tokens":[]},{"hash":"2f35d13f6b60d2869627e0d06778f6f8a725ccfa2ab3cc80f42ff449a51a32a3","blockNo":8116972,"blockHash":"dddfce8c6abb733e030f208ca294ab35b2ad12d11bf57364992c1121951556dc","epochNo":380,"epochSlotNo":216068,"slot":79012868,"time":"2022/12/09 09:45:59","addressesInput":["addr1q8x65t05pmpenq5gsm7wgl50rudyh4usxsxv7t89w3yrqwpw3t7hanyec2fxvmtv8ja9rp5jpcsqqt6yhg8237v88gdstwtz3r","addr1q8x65t05pmpenq5gsm7wgl50rudyh4usxsxv7t89w3yrqwpw3t7hanyec2fxvmtv8ja9rp5jpcsqqt6yhg8237v88gdstwtz3r"],"addressesOutput":["addr1wxr2a8htmzuhj39y2gq7ftkpxv98y2g67tg8zezthgq4jkg0a4ul4","addr1q8x65t05pmpenq5gsm7wgl50rudyh4usxsxv7t89w3yrqwpw3t7hanyec2fxvmtv8ja9rp5jpcsqqt6yhg8237v88gdstwtz3r"],"fee":186269,"totalOutput":3406323829,"tokens":[]},{"hash":"d63ee49c86a0338b49a5c881585f32f837812b30999a6f160629e25f1751539f","blockNo":8116972,"blockHash":"dddfce8c6abb733e030f208ca294ab35b2ad12d11bf57364992c1121951556dc","epochNo":380,"epochSlotNo":216068,"slot":79012868,"time":"2022/12/09 09:45:59","addressesInput":["addr1zxgx3far7qygq0k6epa0zcvcvrevmn0ypsnfsue94nsn3tvpw288a4x0xf8pxgcntelxmyclq83s0ykeehchz2wtspks905plm","addr1qxn3znsh2hhkyp3lckpf6a0rh0r7uvq5gpctsjphdrsrul4nqcy8p0cuj6xy7wqqxu8dnpx54z3n5m28gpnd0859twtsennymd"],"addressesOutput":["addr1zxgx3far7qygq0k6epa0zcvcvrevmn0ypsnfsue94nsn3tvpw288a4x0xf8pxgcntelxmyclq83s0ykeehchz2wtspks905plm","addr1qxn3znsh2hhkyp3lckpf6a0rh0r7uvq5gpctsjphdrsrul4nqcy8p0cuj6xy7wqqxu8dnpx54z3n5m28gpnd0859twtsennymd","addr1qxn3znsh2hhkyp3lckpf6a0rh0r7uvq5gpctsjphdrsrul4nqcy8p0cuj6xy7wqqxu8dnpx54z3n5m28gpnd0859twtsennymd","addr1qxn3znsh2hhkyp3lckpf6a0rh0r7uvq5gpctsjphdrsrul4nqcy8p0cuj6xy7wqqxu8dnpx54z3n5m28gpnd0859twtsennymd"],"fee":312887,"totalOutput":438244863,"tokens":[]},{"hash":"1e40770dee56cb19e3474c8f1e00235752a476c16bd29539bba0d6a8e6af46af","blockNo":8116972,"blockHash":"dddfce8c6abb733e030f208ca294ab35b2ad12d11bf57364992c1121951556dc","epochNo":380,"epochSlotNo":216068,"slot":79012868,"time":"2022/12/09 09:45:59","addressesInput":["addr1qyzlazpage4shn25l4rgqd2hz7pr9966jvx34qhlt7upuf7feqzunfuzdvas294dmd6d265aep7u87eg8ypwx4flq84q7y2j5x"],"addressesOutput":["addr1qx0qt6yad52wwjgz6z8ar6achcwy8v7tw97x3gzmtfmy0nayanefx78cyafsn4ts0403nwc3wsgfjku6xtxdsqdl9sksrg705r","addr1qyzlazpage4shn25l4rgqd2hz7pr9966jvx34qhlt7upuf7feqzunfuzdvas294dmd6d265aep7u87eg8ypwx4flq84q7y2j5x"],"fee":169153,"totalOutput":1096878456,"tokens":[]},{"hash":"4acf6a48ea6185f0160def8e3219ae6ab995308f59ebd3f08162f1e17c5a2946","blockNo":8116972,"blockHash":"dddfce8c6abb733e030f208ca294ab35b2ad12d11bf57364992c1121951556dc","epochNo":380,"epochSlotNo":216068,"slot":79012868,"time":"2022/12/09 09:45:59","addressesInput":["addr1w999n67e86jn6xal07pzxtrmqynspgx0fwmcmpua4wc6yzsxpljz3","addr1qy5rl2zxegf36fg4nyds94k3ycfpxcfps6a8ke6m8whxnyvce2zqdqtt3nmf8kpmqjhxxkn5ut2pc53rayj7tlag50eqgcc2ld"],"addressesOutput":["addr1w999n67e86jn6xal07pzxtrmqynspgx0fwmcmpua4wc6yzsxpljz3","addr1qy5rl2zxegf36fg4nyds94k3ycfpxcfps6a8ke6m8whxnyvce2zqdqtt3nmf8kpmqjhxxkn5ut2pc53rayj7tlag50eqgcc2ld"],"fee":1289428,"totalOutput":13176841,"tokens":[]},{"hash":"a29c14a009c269352534e296f955e763ba1813335c0d1475dd75d9bf2dd95b55","blockNo":8116972,"blockHash":"dddfce8c6abb733e030f208ca294ab35b2ad12d11bf57364992c1121951556dc","epochNo":380,"epochSlotNo":216068,"slot":79012868,"time":"2022/12/09 09:45:59","addressesInput":["addr1q99mwttpjpscn5sf9mvc2lw07k3nmkpfy9nxg786k8237zj544w3fla0syukxrslm52l33j3xmwd5ngv29mqg3a0yk7qplwqlw"],"addressesOutput":["addr1q8u44555g3xnzktnvyeye8g2rlqear2d8rcjhy90ledft3z544w3fla0syukxrslm52l33j3xmwd5ngv29mqg3a0yk7qj6vlye","addr1qxwcldjcg43eujhqpza9ezxh6qtl7kcf8ue2ejlh8qw7cuz544w3fla0syukxrslm52l33j3xmwd5ngv29mqg3a0yk7qjt9nf4"],"fee":168317,"totalOutput":14831683,"tokens":[]},{"hash":"189592336accc8f51d49bb01808b56e09219d86daa25b4b07850f7d883de0410","blockNo":8116972,"blockHash":"dddfce8c6abb733e030f208ca294ab35b2ad12d11bf57364992c1121951556dc","epochNo":380,"epochSlotNo":216068,"slot":79012868,"time":"2022/12/09 09:45:59","addressesInput":["addr1q8m5lqsy2dvaep0a3khaty9kmnkarg5ek9ye8xjtpflle3cpkrvk44knv8ghvmjvkf4dya9rx56jdm6cycauwa7h7anstkqtf0"],"addressesOutput":["addr1vyhsg2alqtwxxaj8z6txlh8dgr8kuyl3gapnm9ze25ch0dq5pmdpd","addr1qyjth09upke8t0eh2jl4gtr03su0zzetk5nhxe2jmtmygagpkrvk44knv8ghvmjvkf4dya9rx56jdm6cycauwa7h7ansl3jj3g"],"fee":167965,"totalOutput":6249862292,"tokens":[]},{"hash":"77fcd80004df3492d28027c0617dc706bec0d9bed503894205e9d0ffff9a2808","blockNo":8116972,"blockHash":"dddfce8c6abb733e030f208ca294ab35b2ad12d11bf57364992c1121951556dc","epochNo":380,"epochSlotNo":216068,"slot":79012868,"time":"2022/12/09 09:45:59","addressesInput":["addr1q92aevhthglhcmvvq62slmt6v0nzqne0a4qsauwzqfwlhr4lhtj0pq4fwvg3nwc2v24ld3zwuxz7u4rz43tqp5wchc3szy546v","addr1q92aevhthglhcmvvq62slmt6v0nzqne0a4qsauwzqfwlhr4lhtj0pq4fwvg3nwc2v24ld3zwuxz7u4rz43tqp5wchc3szy546v","addr1q92aevhthglhcmvvq62slmt6v0nzqne0a4qsauwzqfwlhr4lhtj0pq4fwvg3nwc2v24ld3zwuxz7u4rz43tqp5wchc3szy546v","addr1q92aevhthglhcmvvq62slmt6v0nzqne0a4qsauwzqfwlhr4lhtj0pq4fwvg3nwc2v24ld3zwuxz7u4rz43tqp5wchc3szy546v","addr1q92aevhthglhcmvvq62slmt6v0nzqne0a4qsauwzqfwlhr4lhtj0pq4fwvg3nwc2v24ld3zwuxz7u4rz43tqp5wchc3szy546v","addr1q92aevhthglhcmvvq62slmt6v0nzqne0a4qsauwzqfwlhr4lhtj0pq4fwvg3nwc2v24ld3zwuxz7u4rz43tqp5wchc3szy546v"],"addressesOutput":["addr1qy9mf6uu3hgllksc6qz23ftvtt4s2q9e4fqdjsycfk6qc220g0e8c674e7ksedq4ce5hadjvpaq22w7dy3mdrxff2pmsgj2ee0","addr1qy5pdzcaplvl0jwqnkl4jwk5493mmr33s4kn7qwj0nk3k4dlhtj0pq4fwvg3nwc2v24ld3zwuxz7u4rz43tqp5wchc3sdj6v09"],"fee":176237,"totalOutput":1096570560,"tokens":[]},{"hash":"6b1ee3435e99236a8c4d9e737771e96f2559239aa256fdbe769749e88facfab8","blockNo":8116972,"blockHash":"dddfce8c6abb733e030f208ca294ab35b2ad12d11bf57364992c1121951556dc","epochNo":380,"epochSlotNo":216068,"slot":79012868,"time":"2022/12/09 09:45:59","addressesInput":["addr1v8ahd8ge40t03qsgdz63j0tqkmru72wz2slersyu9a0csaq96mgy5","addr1vyd9hzzj5tychlpee390fvue8jfjjz22jjcgwkp0y4x3clshv7tsj","addr1v8pg04dwgxug4vy8mx9g8kg25gxp672apn94r4nd392v97qj4apl8","addr1v80mugp5a7dk9466m5qwgkv5wc4fk0vkm0d48xctpmp7vgs4p8enw","addr1vy0gzzg7afujxcy8yqx456zymfmxzgteatquex3ltayr2scatnkz6","addr1v8ncdcdclu74ylfggz8metzwx4r94tqtuy2hc3w57w6sfncu542x6","addr1v8h0662vuhz3zejl984durtjtlnxhvx7q6h23phjfg4gpwc45yrsx","addr1vy9ylz423g58wu68650mjs9rxydmauqj035menp0f3t75ecnqgn8d","addr1v9uwcjyl9j6xf9k7707ey8qzd3ye60cpgd8ruzjf3g73plcxk0t7u","addr1vxhwwcegeks67vya4gfnwzrh2f9klrjyz2jk3c9ck8r54jc4w8er9","addr1vyc7ca9flp5gfeapd78uxzzq7l6qnsytj85n62lr5smhgssen2u2s"],"addressesOutput":["addr1v9uwcjyl9j6xf9k7707ey8qzd3ye60cpgd8ruzjf3g73plcxk0t7u","addr1vy0gzzg7afujxcy8yqx456zymfmxzgteatquex3ltayr2scatnkz6","addr1v8ncdcdclu74ylfggz8metzwx4r94tqtuy2hc3w57w6sfncu542x6","addr1v8h0662vuhz3zejl984durtjtlnxhvx7q6h23phjfg4gpwc45yrsx","addr1vy9ylz423g58wu68650mjs9rxydmauqj035menp0f3t75ecnqgn8d","addr1vyd9hzzj5tychlpee390fvue8jfjjz22jjcgwkp0y4x3clshv7tsj","addr1vxhwwcegeks67vya4gfnwzrh2f9klrjyz2jk3c9ck8r54jc4w8er9","addr1v8pg04dwgxug4vy8mx9g8kg25gxp672apn94r4nd392v97qj4apl8","addr1v8ahd8ge40t03qsgdz63j0tqkmru72wz2slersyu9a0csaq96mgy5","addr1v80mugp5a7dk9466m5qwgkv5wc4fk0vkm0d48xctpmp7vgs4p8enw","addr1q9dtpd67jm36wl2z89a44ku8a4e7k8rv49mdhztln66gphektfqyd3jexj30mf5m48tkphe9pphv949z4lwq0vetyq3qjzwfpu"],"fee":353249,"totalOutput":17883319,"tokens":[]},{"hash":"3d044721efc9f75abf3b1a379122b2fa5d48ab7f419a85cd4fd6c8a77ef3ce04","blockNo":8116972,"blockHash":"dddfce8c6abb733e030f208ca294ab35b2ad12d11bf57364992c1121951556dc","epochNo":380,"epochSlotNo":216068,"slot":79012868,"time":"2022/12/09 09:45:59","addressesInput":["addr1wxn9efv2f6w82hagxqtn62ju4m293tqvw0uhmdl64ch8uwc0h43gt","addr1qyht4ja0zcn45qvyx477qlyp6j5ftu5ng0prt9608dxp6l2j2c79gy9l76sdg0xwhd7r0c0kna0tycz4y5s6mlenh8pq4jxtdy","addr1qyht4ja0zcn45qvyx477qlyp6j5ftu5ng0prt9608dxp6l2j2c79gy9l76sdg0xwhd7r0c0kna0tycz4y5s6mlenh8pq4jxtdy","addr1z8snz7c4974vzdpxu65ruphl3zjdvtxw8strf2c2tmqnxz2j2c79gy9l76sdg0xwhd7r0c0kna0tycz4y5s6mlenh8pq0xmsha"],"addressesOutput":["addr1qyht4ja0zcn45qvyx477qlyp6j5ftu5ng0prt9608dxp6l2j2c79gy9l76sdg0xwhd7r0c0kna0tycz4y5s6mlenh8pq4jxtdy","addr1qyht4ja0zcn45qvyx477qlyp6j5ftu5ng0prt9608dxp6l2j2c79gy9l76sdg0xwhd7r0c0kna0tycz4y5s6mlenh8pq4jxtdy","addr1qxs99gpa8apfnvmml2ev7c7cx7rt944d8rruc9fuars4spp5475nh7k53sjak2zh0pw6zkdrzd9aefhk7ytjfg6dhvnsmvrh6g","addr1z8snz7c4974vzdpxu65ruphl3zjdvtxw8strf2c2tmqnxz2j2c79gy9l76sdg0xwhd7r0c0kna0tycz4y5s6mlenh8pq0xmsha"],"fee":806376,"totalOutput":933658935,"tokens":[]},{"hash":"996a3682dd83c213564f2df71e5c40ef4ed158f44699bfee7a492dc0ff89706d","blockNo":8116972,"blockHash":"dddfce8c6abb733e030f208ca294ab35b2ad12d11bf57364992c1121951556dc","epochNo":380,"epochSlotNo":216068,"slot":79012868,"time":"2022/12/09 09:45:59","addressesInput":["addr1q9dthel4q6a2yeph53tj0vzewjelqdwzfc5rahn6qzjtcpw9u3jj709997hrsjeg5e9qs6dkdaasjw2sjgt4t3wgt9kqal3cau","addr1wxdct40gvyv525zlq79wahkuhmgadjs3q5lkrclemxvlu3qyda7l2"],"addressesOutput":["addr1qxkmr0m22xeqludcg5rjdmecjxasu9fat0680qehtcsnftaadgykewa9ufvegeuca9yyq03d9v7ea2y2zthgu7hfgjtsddp6gr","addr1wxdct40gvyv525zlq79wahkuhmgadjs3q5lkrclemxvlu3qyda7l2","addr1q9dthel4q6a2yeph53tj0vzewjelqdwzfc5rahn6qzjtcpw9u3jj709997hrsjeg5e9qs6dkdaasjw2sjgt4t3wgt9kqal3cau"],"fee":339664,"totalOutput":21942339,"tokens":[]},{"hash":"76e3d56c726e1180dc5e445309e7e8d0b07b585a3fd6820984e7bd4c015b3625","blockNo":8116972,"blockHash":"dddfce8c6abb733e030f208ca294ab35b2ad12d11bf57364992c1121951556dc","epochNo":380,"epochSlotNo":216068,"slot":79012868,"time":"2022/12/09 09:45:59","addressesInput":["addr1q8f087n72rdwvw49zx96y8hcdt05qw985rxaz3uyjxk64puqyt4d6sqwe3cd4622kfm9gync5tdqcqjjfg590zknqtssud722z"],"addressesOutput":["addr1q9smuu27na7v9x7razfxacr2k8k6mcvtec39e45n5puvhglgkzk599v0ea76k7mky5pj2t34k77w60hwgfdhqjme5d2s3evetu","addr1q8mg536l3qya2wxgrcr8n8vmrqnqrcfzlwftffq94tdtlg5qyt4d6sqwe3cd4622kfm9gync5tdqcqjjfg590zknqtssyh9q7r"],"fee":170297,"totalOutput":2631466,"tokens":[]},{"hash":"c8f548712ba1c14940eebc31fc252ee50d60d38177676e1421201f40ac7c39f3","blockNo":8116971,"blockHash":"9673cc81e833255ba74969280cc7b4d47d06181888519d2952183cb0c84c8484","epochNo":380,"epochSlotNo":216043,"slot":79012843,"time":"2022/12/09 09:45:34","addressesInput":["addr1q8pqxufy740570zyqrgsz8u7l92lwqf96gxqre2xw02nsl7zqdcjfa2lfu7ygqx3qy0ea7247uqjt5svq8j5vu748plscp4ulc","addr1q8pqxufy740570zyqrgsz8u7l92lwqf96gxqre2xw02nsl7zqdcjfa2lfu7ygqx3qy0ea7247uqjt5svq8j5vu748plscp4ulc"],"addressesOutput":["addr1q8pqxufy740570zyqrgsz8u7l92lwqf96gxqre2xw02nsl7zqdcjfa2lfu7ygqx3qy0ea7247uqjt5svq8j5vu748plscp4ulc","addr1q8pqxufy740570zyqrgsz8u7l92lwqf96gxqre2xw02nsl7zqdcjfa2lfu7ygqx3qy0ea7247uqjt5svq8j5vu748plscp4ulc"],"fee":233854,"totalOutput":5254027187,"tokens":[]},{"hash":"f5d4f2bc82344194ac5a0630ea1912ceffb322aa27e53c788dc178169c6414bf","blockNo":8116971,"blockHash":"9673cc81e833255ba74969280cc7b4d47d06181888519d2952183cb0c84c8484","epochNo":380,"epochSlotNo":216043,"slot":79012843,"time":"2022/12/09 09:45:34","addressesInput":["addr1qyd7ygw25tsy8clj4jypyeughw4ht2f0d8ukcn4ashja8kkachcvfqwllkyc6ttl3q2du8lwqc9n455vd8zt2xmcrjns0jsvcz","addr1qyd7ygw25tsy8clj4jypyeughw4ht2f0d8ukcn4ashja8kkachcvfqwllkyc6ttl3q2du8lwqc9n455vd8zt2xmcrjns0jsvcz","addr1qxy2zmxsnhfw7dfj3t9z85edf303zfn2pg8299ucwex5aq7achcvfqwllkyc6ttl3q2du8lwqc9n455vd8zt2xmcrjnsk3wtwc","addr1qyd7ygw25tsy8clj4jypyeughw4ht2f0d8ukcn4ashja8kkachcvfqwllkyc6ttl3q2du8lwqc9n455vd8zt2xmcrjns0jsvcz","addr1qyd7ygw25tsy8clj4jypyeughw4ht2f0d8ukcn4ashja8kkachcvfqwllkyc6ttl3q2du8lwqc9n455vd8zt2xmcrjns0jsvcz","addr1qxy2zmxsnhfw7dfj3t9z85edf303zfn2pg8299ucwex5aq7achcvfqwllkyc6ttl3q2du8lwqc9n455vd8zt2xmcrjnsk3wtwc","addr1qyd7ygw25tsy8clj4jypyeughw4ht2f0d8ukcn4ashja8kkachcvfqwllkyc6ttl3q2du8lwqc9n455vd8zt2xmcrjns0jsvcz","addr1qyd7ygw25tsy8clj4jypyeughw4ht2f0d8ukcn4ashja8kkachcvfqwllkyc6ttl3q2du8lwqc9n455vd8zt2xmcrjns0jsvcz","addr1qxy2zmxsnhfw7dfj3t9z85edf303zfn2pg8299ucwex5aq7achcvfqwllkyc6ttl3q2du8lwqc9n455vd8zt2xmcrjnsk3wtwc","addr1qyd7ygw25tsy8clj4jypyeughw4ht2f0d8ukcn4ashja8kkachcvfqwllkyc6ttl3q2du8lwqc9n455vd8zt2xmcrjns0jsvcz","addr1qyd7ygw25tsy8clj4jypyeughw4ht2f0d8ukcn4ashja8kkachcvfqwllkyc6ttl3q2du8lwqc9n455vd8zt2xmcrjns0jsvcz","addr1wxj88juwkzmpcqacd9hua2cur2yl50kgx3tjs588c2470qc2ftfae"],"addressesOutput":["addr1wxj88juwkzmpcqacd9hua2cur2yl50kgx3tjs588c2470qc2ftfae","addr1wxj88juwkzmpcqacd9hua2cur2yl50kgx3tjs588c2470qc2ftfae","addr1qyd7ygw25tsy8clj4jypyeughw4ht2f0d8ukcn4ashja8kkachcvfqwllkyc6ttl3q2du8lwqc9n455vd8zt2xmcrjns0jsvcz"],"fee":1202610,"totalOutput":105969950185,"tokens":[]},{"hash":"848f041fa37a09b94e8e2a1c6d33ab4fcd69db732ae42a2c38e89b4a8af3644f","blockNo":8116971,"blockHash":"9673cc81e833255ba74969280cc7b4d47d06181888519d2952183cb0c84c8484","epochNo":380,"epochSlotNo":216043,"slot":79012843,"time":"2022/12/09 09:45:34","addressesInput":["addr1q8x65t05pmpenq5gsm7wgl50rudyh4usxsxv7t89w3yrqwpw3t7hanyec2fxvmtv8ja9rp5jpcsqqt6yhg8237v88gdstwtz3r","addr1q8x65t05pmpenq5gsm7wgl50rudyh4usxsxv7t89w3yrqwpw3t7hanyec2fxvmtv8ja9rp5jpcsqqt6yhg8237v88gdstwtz3r","addr1q8x65t05pmpenq5gsm7wgl50rudyh4usxsxv7t89w3yrqwpw3t7hanyec2fxvmtv8ja9rp5jpcsqqt6yhg8237v88gdstwtz3r","addr1q8x65t05pmpenq5gsm7wgl50rudyh4usxsxv7t89w3yrqwpw3t7hanyec2fxvmtv8ja9rp5jpcsqqt6yhg8237v88gdstwtz3r"],"addressesOutput":["addr1wxr2a8htmzuhj39y2gq7ftkpxv98y2g67tg8zezthgq4jkg0a4ul4","addr1q8x65t05pmpenq5gsm7wgl50rudyh4usxsxv7t89w3yrqwpw3t7hanyec2fxvmtv8ja9rp5jpcsqqt6yhg8237v88gdstwtz3r"],"fee":189525,"totalOutput":2896133977,"tokens":[]},{"hash":"b0132c22172f352984401eed7c37e29e230f430c4647043cd63ee34a6c37727f","blockNo":8116971,"blockHash":"9673cc81e833255ba74969280cc7b4d47d06181888519d2952183cb0c84c8484","epochNo":380,"epochSlotNo":216043,"slot":79012843,"time":"2022/12/09 09:45:34","addressesInput":["addr1qy2ya63yg8cvccf94ldslshvzexl8ma5f3rmfe0j9zkef2c5fm4zgs0se3sjtt7mplpwc9jd70hmgnz8knjly29djj4s7q9cnp","addr1qy2ya63yg8cvccf94ldslshvzexl8ma5f3rmfe0j9zkef2c5fm4zgs0se3sjtt7mplpwc9jd70hmgnz8knjly29djj4s7q9cnp"],"addressesOutput":["addr1qy2ya63yg8cvccf94ldslshvzexl8ma5f3rmfe0j9zkef2c5fm4zgs0se3sjtt7mplpwc9jd70hmgnz8knjly29djj4s7q9cnp","addr1qy2ya63yg8cvccf94ldslshvzexl8ma5f3rmfe0j9zkef2c5fm4zgs0se3sjtt7mplpwc9jd70hmgnz8knjly29djj4s7q9cnp"],"fee":233854,"totalOutput":8405580093,"tokens":[]},{"hash":"31fb93b396cb2d96d9c07d554647d9c125ca96b69d98ec2fa15f0d78d05be8e2","blockNo":8116971,"blockHash":"9673cc81e833255ba74969280cc7b4d47d06181888519d2952183cb0c84c8484","epochNo":380,"epochSlotNo":216043,"slot":79012843,"time":"2022/12/09 09:45:34","addressesInput":["addr1vyjcjxd32xg3tvy6wkxwssvwqft8a7z6l0h9g936hcdjaysxgfyjn","addr1vyjdya9lmyfmysdgej3qc6thwat33lwm3umk8uwnvhy9g3gzvd2jp"],"addressesOutput":["addr1q9sx89kyg445w82nrccwtzzm93hrnmnxfd0tfsdl5new4cf64gl92fl8d4f9e8p9alk2l99n4qv78xjg0kgllgqcnfpqs7zg97","addr1vyjcjxd32xg3tvy6wkxwssvwqft8a7z6l0h9g936hcdjaysxgfyjn"],"fee":185689,"totalOutput":312469411,"tokens":[]}],"totalItems":56312901,"totalPages":2815646,"currentPage":0}