{"data":[{"txId":59694452,"txHash":"499fecc6e8a610c762843aa977f66ffd1900d02f50d58c857bb26bde8df6b9d7","txTime":"2023/01/14 18:54:40","block":8270041,"epoch":387,"slotNo":82156189,"epochSlotNo":335389,"stakeKey":"stake1uywrmw2pvgqljp4jzed0f0hfm0pa7gmkac0m89wl9fgns4gvhgjml"},{"txId":59694346,"txHash":"4d512795bb49cb3eef149ac09427914d086771389e1c800a30e8e5bf8a194d9d","txTime":"2023/01/14 18:52:44","block":8270039,"epoch":387,"slotNo":82156073,"epochSlotNo":335273,"stakeKey":"stake1u9a37zuxrkyqm4927j4tgmd6j3k3eljz3rklfrypwnz657s9p5tg4"},{"txId":59694326,"txHash":"e71ddafff15956fbb5323b24c514b07fc0835e242b3db8251ccd345ffe33bf18","txTime":"2023/01/14 18:52:23","block":8270038,"epoch":387,"slotNo":82156052,"epochSlotNo":335252,"stakeKey":"stake1uxlujn65537dk2wec7nrsj57k08qej6pm97d6tdm4ghuufgt96pgt"},{"txId":59694324,"txHash":"a256342ffb92771eb1b99e8db857094a603a75cb67b5991fb93dfdcd954a98f0","txTime":"2023/01/14 18:52:23","block":8270038,"epoch":387,"slotNo":82156052,"epochSlotNo":335252,"stakeKey":"stake1u9hnmm6hynvjfej9nkkgzgrqrs2g0z9sp5dzu5x6lvlynmcl455fr"},{"txId":59694312,"txHash":"6c0e8ddb19ccc65173d568311a449049e894ae07f584ba53f88ea15619081c77","txTime":"2023/01/14 18:52:23","block":8270038,"epoch":387,"slotNo":82156052,"epochSlotNo":335252,"stakeKey":"stake1u9ulj2yev4qvxkdtn77pmv9qtuesyhr64n9533zkrq4eccc7vy9ws"},{"txId":59694146,"txHash":"66b9ae30654d10d376e330840eaacd07a2c909207b4157ca7fbffcb63d590df2","txTime":"2023/01/14 18:48:49","block":8270029,"epoch":387,"slotNo":82155838,"epochSlotNo":335038,"stakeKey":"stake1u9janauarwzgu94gxnw7gpfl6tmttpeygaydsac75hhndwcq5xj9x"},{"txId":59694143,"txHash":"a9afe62731a7c07267d28bead53eb36c0d022ab329cf2032a81a5203926911b1","txTime":"2023/01/14 18:48:49","block":8270029,"epoch":387,"slotNo":82155838,"epochSlotNo":335038,"stakeKey":"stake1u9nhceks52vzxgka32q5u77pk0xhp5mleprwjwexu5pqznqx5pxu2"},{"txId":59693955,"txHash":"70d97095b123ecc90d961cb0690a6eb85162af44aded318f0b01e3d2d7ba3221","txTime":"2023/01/14 18:45:25","block":8270014,"epoch":387,"slotNo":82155634,"epochSlotNo":334834,"stakeKey":"stake1u9jtdtvrlyw9kc4s448wtk05frtx5zzu5ew6faljptcwatch0tfxe"},{"txId":59693897,"txHash":"95c83c8df7984713602d620200a12e2e0d7389d4f87bfe3d898f3577f6f30fe6","txTime":"2023/01/14 18:43:40","block":8270007,"epoch":387,"slotNo":82155529,"epochSlotNo":334729,"stakeKey":"stake1u9zy664qcwgxm5dr4txfvmqemund2qmr36zsspg7fge000gsdx5rd"},{"txId":59693779,"txHash":"e7fce55ef91cc6d4460bbb33614b1a43b06aefedfeddf06c2bbd987ee4a06d9e","txTime":"2023/01/14 18:41:28","block":8269998,"epoch":387,"slotNo":82155397,"epochSlotNo":334597,"stakeKey":"stake1u8d9w3taz43vse3kf6pc9f2z75p8uk468wm8yyzesqy3kwsp54r55"},{"txId":59693646,"txHash":"c5c0cbc98a82edb287b10f2c5e835afd8f110fbc05431c8b22e2c5c5960c7e73","txTime":"2023/01/14 18:38:43","block":8269986,"epoch":387,"slotNo":82155232,"epochSlotNo":334432,"stakeKey":"stake1u8v6wdgv67zynu874w0rgxjha2h4z9rgmkmvlp26y5ke6lg5a7e5k"},{"txId":59693577,"txHash":"4e841f9f6dd07e59109663642a0813cf10c636d0639d7b7989284c1cf6ea5607","txTime":"2023/01/14 18:37:33","block":8269984,"epoch":387,"slotNo":82155162,"epochSlotNo":334362,"stakeKey":"stake1uxnx7kp2tpa3w9z7u88c08vcpjnsfcw7zljvqc0mucvur0sa5gw0t"},{"txId":59693427,"txHash":"b03bd99a4de5f91b20d4d6b01a7f33565318de14b79f36866735c284f910257c","txTime":"2023/01/14 18:35:07","block":8269978,"epoch":387,"slotNo":82155016,"epochSlotNo":334216,"stakeKey":"stake1uxckwk00g8lezdzmr5qawhxfclp2l9uqkk6sdyg783v3zggztcrsx"},{"txId":59693386,"txHash":"fe3c14ddd3924f0d3e8c5c63dccebad1a2f263ea5a7c385ba4bb01c0ecf46fbb","txTime":"2023/01/14 18:34:08","block":8269974,"epoch":387,"slotNo":82154957,"epochSlotNo":334157,"stakeKey":"stake1uypgu3s6yfypgjmwuly2lkzme5ee2g36pt5y5qzcgsufwycg4vm9h"},{"txId":59693303,"txHash":"ff7beca44ddcd17073b90d2a2e779e358df886eaa1c5d7fdda2163c85ad6d6ba","txTime":"2023/01/14 18:33:00","block":8269967,"epoch":387,"slotNo":82154889,"epochSlotNo":334089,"stakeKey":"stake1u9tlg86h2jjaadcnh5slj92zjpcd4zpfdexwyspskwnpeyqkadw00"},{"txId":59693244,"txHash":"d06a6e7ce77f2b43f44866f63a242e316afb87763377c8ba322166670050e244","txTime":"2023/01/14 18:32:03","block":8269964,"epoch":387,"slotNo":82154832,"epochSlotNo":334032,"stakeKey":"stake1u97d28yv9g2jn8ss7a09j5h8h4avx9cgx77xfyzdfsff52ce3vlxc"},{"txId":59693200,"txHash":"f638c6d0cab4bae89a930812f803d0b6ff7c144796180aeac6eeb11d0192ccaf","txTime":"2023/01/14 18:31:20","block":8269963,"epoch":387,"slotNo":82154789,"epochSlotNo":333989,"stakeKey":"stake1u9zf5w5943ysqlf569n4xh6ut4r356fwn8kgqggag0wklmscnrfnk"},{"txId":59693105,"txHash":"1bd3c6dfcdda497cd5ab164c29ecf31da1405c64501860c9b713680a08a74406","txTime":"2023/01/14 18:29:58","block":8269959,"epoch":387,"slotNo":82154707,"epochSlotNo":333907,"stakeKey":"stake1u96ghgu2q2hxnztzf4hrdl5dkvetwmcv8falh5jl9tjhmwc40qdyt"},{"txId":59693091,"txHash":"3edfe17d22c4612fbace21201c6a8fc71a6ea388a940325fd379ab3bed4aa9cf","txTime":"2023/01/14 18:29:58","block":8269959,"epoch":387,"slotNo":82154707,"epochSlotNo":333907,"stakeKey":"stake1u9qm46s6xntrex6cf0cgcuqs8vmk0fzwhg8rn0edfksfxmc2p7jxd"},{"txId":59693066,"txHash":"61c9b84d0c18b51aea80892910cc7dd279762cbe1680d7e50311b813206d8238","txTime":"2023/01/14 18:28:47","block":8269957,"epoch":387,"slotNo":82154636,"epochSlotNo":333836,"stakeKey":"stake1u92euc7u85677wtzrzwjt9cfm9tk0zujmujnys3yegqd35cprycgd"}],"totalItems":1645793,"totalPages":82290,"currentPage":0}