{"data":[{"hash":"c193c062bed40a5349a67ea6f249a69c209c018ca08f1e1b664a45b0312a9697","blockNo":8285573,"blockHash":"885493e74632cd770d958229bd5f76eff6540ed39aa69958292f069e5dae0b89","epochNo":388,"epochSlotNo":216956,"slot":82469756,"time":"2023/01/18 10:00:47","addressesInput":["addr1qykr9crflhkg2j6lxp2a5rklddz3gjf9ms85r5s9gakgyppd6qwkfj8rtk3367994psy9fj6d873yhhx24arkfk2pxgs0kwpq4","addr1qykr9crflhkg2j6lxp2a5rklddz3gjf9ms85r5s9gakgyppd6qwkfj8rtk3367994psy9fj6d873yhhx24arkfk2pxgs0kwpq4","addr1wxdct40gvyv525zlq79wahkuhmgadjs3q5lkrclemxvlu3qyda7l2"],"addressesOutput":["addr1qxkmr0m22xeqludcg5rjdmecjxasu9fat0680qehtcsnftaadgykewa9ufvegeuca9yyq03d9v7ea2y2zthgu7hfgjtsddp6gr","addr1qykr9crflhkg2j6lxp2a5rklddz3gjf9ms85r5s9gakgyppd6qwkfj8rtk3367994psy9fj6d873yhhx24arkfk2pxgs0kwpq4","addr1wxc45xspppp73takl93mq029905ptdfnmtgv6g7cr8pdyqgvks3s8","addr1qykr9crflhkg2j6lxp2a5rklddz3gjf9ms85r5s9gakgyppd6qwkfj8rtk3367994psy9fj6d873yhhx24arkfk2pxgs0kwpq4"],"fee":445732,"totalOutput":10000394,"tokens":[]},{"hash":"2db6d803f0800e67c8b2837dfff6e98927e33667bf4c48feba1f3590bd579455","blockNo":8285573,"blockHash":"885493e74632cd770d958229bd5f76eff6540ed39aa69958292f069e5dae0b89","epochNo":388,"epochSlotNo":216956,"slot":82469756,"time":"2023/01/18 10:00:47","addressesInput":["addr1wy30zf2g4xc7v872fdweewrlj3lh2lgttelmydn0cvhyplsg3vnkq","addr1q8t40nzj28pjvkujyqme0srkl2cqa8j6n7clwm0nnrr3nvr6lw5a49zpt29v3f3umpc3dtfzx0kpw6ku5qf0nah8hk9q5qfw6e"],"addressesOutput":["addr1q8t40nzj28pjvkujyqme0srkl2cqa8j6n7clwm0nnrr3nvr6lw5a49zpt29v3f3umpc3dtfzx0kpw6ku5qf0nah8hk9q5qfw6e","addr1wy30zf2g4xc7v872fdweewrlj3lh2lgttelmydn0cvhyplsg3vnkq"],"fee":817789,"totalOutput":45217965,"tokens":[]},{"hash":"19818ca791af1fbbe114bf7aa7c0d6d19e1fd1663ae1e9c4e78ce6a21ecbca0f","blockNo":8285573,"blockHash":"885493e74632cd770d958229bd5f76eff6540ed39aa69958292f069e5dae0b89","epochNo":388,"epochSlotNo":216956,"slot":82469756,"time":"2023/01/18 10:00:47","addressesInput":["addr1q8xt3h22shldz6unhef6nkmhuswh0aa7l9g9m8440mw3dcyax2neeyefz4wqv0scjr93vrj572nz4kfzkd62dl93s93qvnrnaw","addr1wxdct40gvyv525zlq79wahkuhmgadjs3q5lkrclemxvlu3qyda7l2"],"addressesOutput":["addr1qxkmr0m22xeqludcg5rjdmecjxasu9fat0680qehtcsnftaadgykewa9ufvegeuca9yyq03d9v7ea2y2zthgu7hfgjtsddp6gr","addr1q8xt3h22shldz6unhef6nkmhuswh0aa7l9g9m8440mw3dcyax2neeyefz4wqv0scjr93vrj572nz4kfzkd62dl93s93qvnrnaw","addr1wxc45xspppp73takl93mq029905ptdfnmtgv6g7cr8pdyqgvks3s8","addr1q8xt3h22shldz6unhef6nkmhuswh0aa7l9g9m8440mw3dcyax2neeyefz4wqv0scjr93vrj572nz4kfzkd62dl93s93qvnrnaw"],"fee":369124,"totalOutput":252421010,"tokens":[]},{"hash":"7503f206123f0a9d0c5d3b1260e2899022759ddf27fc61200c32f17e54736d52","blockNo":8285573,"blockHash":"885493e74632cd770d958229bd5f76eff6540ed39aa69958292f069e5dae0b89","epochNo":388,"epochSlotNo":216956,"slot":82469756,"time":"2023/01/18 10:00:47","addressesInput":["DdzFFzCqrhtCGWvpxhdf4ZrvvTk2aRgzzncN4jovUutVUm54DikS4sESXKaekrUTTPYupumwcsFMJSTKs2UkMaumtzJjrWeteVVyS6sB","DdzFFzCqrht8YjCBjYfst3hcz5b4HvSJLvEoY8gmsD2RZF4pxaHuKnJSzAtA4BDHsMT3GnWLCDFVoPQNRs8jX4rAU4dCWCdy1rEcWHNG"],"addressesOutput":["DdzFFzCqrhszAisfe4k7wNnA8Ue4L3AyHVpdeewZkyrfScRqRptz6RxzzVdbvYNscoq7cWyz69sECE2tKwC7gKFiqu5dzLZfTs3ez1xy","DdzFFzCqrhsov3FBpJCGitS6Y6wRKpYsASv3HHCrYVFPHUjPYau92k32b8sDT7iUTJbskmzeyPK4HchCZX7YxPbfewPo3nY9iTqimA1b"],"fee":287557,"totalOutput":613683147,"tokens":[]},{"hash":"e1b223319cdd32b29dbf30b9ccc361c94b72e0365258f81b36bcb6b6fb959971","blockNo":8285573,"blockHash":"885493e74632cd770d958229bd5f76eff6540ed39aa69958292f069e5dae0b89","epochNo":388,"epochSlotNo":216956,"slot":82469756,"time":"2023/01/18 10:00:47","addressesInput":["addr1q8z99hjnmq2vgneprt82eu4jlscvyd40sgyr5j86qrscgnu4lk5vjazkkjgyeplv0advhxt36e2plw237phpf7ntay9q7y7j2p","addr1qx4drqgcqqurfjtt7cwfe0fe0nwq3jr2ff5n0d4dnwkc8kv4lk5vjazkkjgyeplv0advhxt36e2plw237phpf7ntay9qk83meq"],"addressesOutput":["addr1q8dar8wp7yuv6sv5ahaphf7h4v92ggh26krprae9d9v77x0r3v0svtqzfdeh9wnvanucqwy4pgdtsd3ylxklzrvas9tq4gyv4k","addr1q8ly6zcfagjvk4n0lqtc2e80eef7uwy670jjrqxez3j7fzv4lk5vjazkkjgyeplv0advhxt36e2plw237phpf7ntay9qv8c3sx"],"fee":186357,"totalOutput":66494900,"tokens":[]},{"hash":"1e31e17cb6b3eeb83b61f9b2770eb23b3c59e091ad60f765afed54a6961a2b52","blockNo":8285573,"blockHash":"885493e74632cd770d958229bd5f76eff6540ed39aa69958292f069e5dae0b89","epochNo":388,"epochSlotNo":216956,"slot":82469756,"time":"2023/01/18 10:00:47","addressesInput":["addr1qy3fe247mjlpy3wcfgda6v3z6v4huh9ma522wm2kpd72hfthku43uxau4g83v0z74zkcwkmkpzsmyh6lrchqwlh2svjqz9ya4w"],"addressesOutput":["addr1qy3fe247mjlpy3wcfgda6v3z6v4huh9ma522wm2kpd72hfthku43uxau4g83v0z74zkcwkmkpzsmyh6lrchqwlh2svjqz9ya4w"],"fee":179273,"totalOutput":3529654,"tokens":[]},{"hash":"f8b5a08ad1539272c8ec73b2ad3d52ad0ea1327dfb3a32719c16fe90e76091bd","blockNo":8285573,"blockHash":"885493e74632cd770d958229bd5f76eff6540ed39aa69958292f069e5dae0b89","epochNo":388,"epochSlotNo":216956,"slot":82469756,"time":"2023/01/18 10:00:47","addressesInput":["DdzFFzCqrht3QqRbJf8F1JnQ87FniHQwcqMmdLmHQ3rWb3Dkigp3eVfohv5zM56QptgVCYALko1QzBb56sfs6jLyc31PdTzk5iG8nqn2"],"addressesOutput":["addr1qxea2rxpr5g9j95cat26xg3ht8ph7s7887q9rwda4e9mue9n65xvz8gstytf36k45v3rwkwr0apuw0uq2xummtjthejq75zp3n","DdzFFzCqrhsstDrfeKU3qBectqR3urBadXpCctKueCqn8ckm1cd9Nv3q1X3MdwJxFco8URwFeE1Y9T5YYCbrUhQL9KfA6cfZfaFaCwZN"],"fee":173817,"totalOutput":9044934395,"tokens":[]},{"hash":"1b52ecc1c24db2612e132c964b549488e9172cf4447eb1786db01332060ad465","blockNo":8285573,"blockHash":"885493e74632cd770d958229bd5f76eff6540ed39aa69958292f069e5dae0b89","epochNo":388,"epochSlotNo":216956,"slot":82469756,"time":"2023/01/18 10:00:47","addressesInput":["addr1q8fqdxf3fukw0t2hzvqekldlckyqpsc2szp8knphtcy3e0wxury47zs56cpkhznnvpn39msjve34pr7arp7gftswpkgqr6zx5h"],"addressesOutput":["addr1qxfhrdum74vz3wk7jwxe8fg27nzflwakhyethk5excst6cjc6esqeqgnpngkvv7u96q0ha0pdn5mml3rk7kft98k4j5spdhwl6","addr1q9vg45mrtta8lx4uc9wp7t47r4af4xg2yvg4dwqvu5wkf5wxury47zs56cpkhznnvpn39msjve34pr7arp7gftswpkgqp8lzju"],"fee":175621,"totalOutput":656137368,"tokens":[]},{"hash":"4b5f6dfc4148ee5be3ee829653fc600ce439ccdaaccc156ee551fe620447e6ec","blockNo":8285573,"blockHash":"885493e74632cd770d958229bd5f76eff6540ed39aa69958292f069e5dae0b89","epochNo":388,"epochSlotNo":216956,"slot":82469756,"time":"2023/01/18 10:00:47","addressesInput":["addr1qy423dtmusjlul34spujeqpl3jfug08ctmgtz96awpgq3x60l8ex9e306p5han7qsqtmzvslpjmq44rteelm0vs3m6lswnrvp3","addr1wy30zf2g4xc7v872fdweewrlj3lh2lgttelmydn0cvhyplsg3vnkq"],"addressesOutput":["addr1qy423dtmusjlul34spujeqpl3jfug08ctmgtz96awpgq3x60l8ex9e306p5han7qsqtmzvslpjmq44rteelm0vs3m6lswnrvp3","addr1wy30zf2g4xc7v872fdweewrlj3lh2lgttelmydn0cvhyplsg3vnkq"],"fee":818317,"totalOutput":4680761856,"tokens":[]},{"hash":"2db0f0d31bb18ed68c6705244a82d9d9872297e41014680eefa9d1fe8fafb04f","blockNo":8285573,"blockHash":"885493e74632cd770d958229bd5f76eff6540ed39aa69958292f069e5dae0b89","epochNo":388,"epochSlotNo":216956,"slot":82469756,"time":"2023/01/18 10:00:47","addressesInput":["addr1qxvej8t7vfzjsqd986clp5z2e7w74hd3qcckrdaudxzhewtaa9se6u8zu6pe3ezgr652af7hkz635n46gqu6yl03gnmsvn4my8","addr1qxvej8t7vfzjsqd986clp5z2e7w74hd3qcckrdaudxzhewtaa9se6u8zu6pe3ezgr652af7hkz635n46gqu6yl03gnmsvn4my8"],"addressesOutput":["addr1zxgx3far7qygq0k6epa0zcvcvrevmn0ypsnfsue94nsn3tvpw288a4x0xf8pxgcntelxmyclq83s0ykeehchz2wtspks905plm","addr1qxvej8t7vfzjsqd986clp5z2e7w74hd3qcckrdaudxzhewtaa9se6u8zu6pe3ezgr652af7hkz635n46gqu6yl03gnmsvn4my8","addr1qxvej8t7vfzjsqd986clp5z2e7w74hd3qcckrdaudxzhewtaa9se6u8zu6pe3ezgr652af7hkz635n46gqu6yl03gnmsvn4my8"],"fee":444197,"totalOutput":145051456,"tokens":[]},{"hash":"dca537653d8fd06cafc40fda6acc1ae817de5e3f60f12a17abeb7421be49ff27","blockNo":8285573,"blockHash":"885493e74632cd770d958229bd5f76eff6540ed39aa69958292f069e5dae0b89","epochNo":388,"epochSlotNo":216956,"slot":82469756,"time":"2023/01/18 10:00:47","addressesInput":["addr1qy0x685m70rvq2j7rjqv30ewr0u876mq8stcvdzj5vcgmpyyt2se9szfgc09gnnhg98pee8nzeslwflglpy2yxn77w9s93p92n","addr1q8spxysg2m7u5hh5zaulqddzreqf2hp93pqnap4l593cvv5yt2se9szfgc09gnnhg98pee8nzeslwflglpy2yxn77w9s4nutlu"],"addressesOutput":["addr1qxknxs77cu8wgekunj34dyp2zgeyrfjy0xqgjdfcprn2kp9stjhkhxm5qff5uh707cdh90zv09j09k2w0qhgmyxad0pq7dp4py","addr1q93xkwahftmqpz30a80lwzqlp9m5kschhmptwuyrehdakvuyt2se9szfgc09gnnhg98pee8nzeslwflglpy2yxn77w9scgpm3e"],"fee":290417,"totalOutput":18787663,"tokens":[]},{"hash":"efadbf6267ec73261c25a1293c0fe8004da8aba7b9c4b73a9358d7cf305cdceb","blockNo":8285573,"blockHash":"885493e74632cd770d958229bd5f76eff6540ed39aa69958292f069e5dae0b89","epochNo":388,"epochSlotNo":216956,"slot":82469756,"time":"2023/01/18 10:00:47","addressesInput":["addr1v8qwlfupp70ew9lpgfmh5ghatp08nzqd8gjrkv24ky8hgusc94dka","addr1vx9lyan0kn6s70ucn27u0su22q9uu94q7qlkxxa969ucc6ctvtsyf","addr1vx9lyan0kn6s70ucn27u0su22q9uu94q7qlkxxa969ucc6ctvtsyf"],"addressesOutput":["DdzFFzCqrhsj5Na3nPuvuyVp6JomnwsxchG8fyadnyXBDKL76vuXBcEq4r4iSTQKork45sC67onmFBiG1TgAaKdF4TyH4wqtiB6LYspX","addr1vx9lyan0kn6s70ucn27u0su22q9uu94q7qlkxxa969ucc6ctvtsyf"],"fee":178684,"totalOutput":5679589136,"tokens":[]},{"hash":"1830316b42064e75263f48180620224d56140b39f34f16ca40f9865e2a988d41","blockNo":8285573,"blockHash":"885493e74632cd770d958229bd5f76eff6540ed39aa69958292f069e5dae0b89","epochNo":388,"epochSlotNo":216956,"slot":82469756,"time":"2023/01/18 10:00:47","addressesInput":["addr1q9q67xvkjavxpv2n5stmgwclspuges8rx67vg24m2yqmly2p4uved96cvzc48fqhksa3lqrc3nqwxd4ucs4tk5gph7gsajkml5","addr1q9q67xvkjavxpv2n5stmgwclspuges8rx67vg24m2yqmly2p4uved96cvzc48fqhksa3lqrc3nqwxd4ucs4tk5gph7gsajkml5"],"addressesOutput":["addr1q9q67xvkjavxpv2n5stmgwclspuges8rx67vg24m2yqmly2p4uved96cvzc48fqhksa3lqrc3nqwxd4ucs4tk5gph7gsajkml5","addr1q9q67xvkjavxpv2n5stmgwclspuges8rx67vg24m2yqmly2p4uved96cvzc48fqhksa3lqrc3nqwxd4ucs4tk5gph7gsajkml5"],"fee":233854,"totalOutput":187462838343,"tokens":[]},{"hash":"32d749638de22e4ed1f2c4e6af42285c0ec83856aedc0190d6013a630cfc0866","blockNo":8285573,"blockHash":"885493e74632cd770d958229bd5f76eff6540ed39aa69958292f069e5dae0b89","epochNo":388,"epochSlotNo":216956,"slot":82469756,"time":"2023/01/18 10:00:47","addressesInput":["addr1q800fc2q79pskz8ur442l96yceq9gz3fzyda6n24ce25agrxha0eruqg0llutdf2z0v2lu4rm9y3uds3wskhs5w2a6rqmfpzf6","addr1w999n67e86jn6xal07pzxtrmqynspgx0fwmcmpua4wc6yzsxpljz3"],"addressesOutput":["addr1q800fc2q79pskz8ur442l96yceq9gz3fzyda6n24ce25agrxha0eruqg0llutdf2z0v2lu4rm9y3uds3wskhs5w2a6rqmfpzf6","addr1q800fc2q79pskz8ur442l96yceq9gz3fzyda6n24ce25agrxha0eruqg0llutdf2z0v2lu4rm9y3uds3wskhs5w2a6rqmfpzf6","addr1q800fc2q79pskz8ur442l96yceq9gz3fzyda6n24ce25agrxha0eruqg0llutdf2z0v2lu4rm9y3uds3wskhs5w2a6rqmfpzf6"],"fee":491975,"totalOutput":9114688,"tokens":[]},{"hash":"1c2b7c9bbf4c4897840bd01c30cc3c326ffe4600a36fb56b6ebe5d8b84bf51b5","blockNo":8285573,"blockHash":"885493e74632cd770d958229bd5f76eff6540ed39aa69958292f069e5dae0b89","epochNo":388,"epochSlotNo":216956,"slot":82469756,"time":"2023/01/18 10:00:47","addressesInput":["addr1qyec6tyvd9t5qvj22gtvgnu7rakd7qnknj8e6h9uzpch5hetx4fy3myfy7hmxphsptm8quqhvsvxsje052xdlufsqkvsq77k5w","addr1q9a7har9agjg7stypxxnm9dzck6t8cajx0s54u7nzruac0ptx4fy3myfy7hmxphsptm8quqhvsvxsje052xdlufsqkvsjzv0ge","addr1qyec6tyvd9t5qvj22gtvgnu7rakd7qnknj8e6h9uzpch5hetx4fy3myfy7hmxphsptm8quqhvsvxsje052xdlufsqkvsq77k5w"],"addressesOutput":["addr1qycewgm43uc96vt3qjp434mqp4jfzttws0xjwqz4a364qu95mx98r9d2mpx5ka4xe5npakhrz2qz4n2tqzgvyngrkedqn3hctc","addr1wxaptpmxcxawvr3pzlhgnpmzz3ql43n2tc8mn3av5kx0yzs09tqh8","addr1q9rk5d7vxnxvd0snju5q0qpvztj2uzejjl4at03jv8wfg7ptx4fy3myfy7hmxphsptm8quqhvsvxsje052xdlufsqkvsen6ms3"],"fee":220193,"totalOutput":42360285,"tokens":[]},{"hash":"6d76ad6d75c1e4ada7db4f33aaf06f0c417f30690129d9d00cab58f9974820d0","blockNo":8285572,"blockHash":"e46fcd264a3a8df67f0d557bda4579699dfccaa9fcf5665a80bc322854e9124f","epochNo":388,"epochSlotNo":216931,"slot":82469731,"time":"2023/01/18 10:00:22","addressesInput":["addr1q87vxtlj5qmuc49jt2pnrj8d25y3m0x3sa7n6wwp072geq0klhl7ztxgx4wqk3z2y3r07jpdpdp9rjqn52ka93nmc5rsxj70jj","addr1q87vxtlj5qmuc49jt2pnrj8d25y3m0x3sa7n6wwp072geq0klhl7ztxgx4wqk3z2y3r07jpdpdp9rjqn52ka93nmc5rsxj70jj","addr1q87vxtlj5qmuc49jt2pnrj8d25y3m0x3sa7n6wwp072geq0klhl7ztxgx4wqk3z2y3r07jpdpdp9rjqn52ka93nmc5rsxj70jj","addr1q87vxtlj5qmuc49jt2pnrj8d25y3m0x3sa7n6wwp072geq0klhl7ztxgx4wqk3z2y3r07jpdpdp9rjqn52ka93nmc5rsxj70jj","addr1q87vxtlj5qmuc49jt2pnrj8d25y3m0x3sa7n6wwp072geq0klhl7ztxgx4wqk3z2y3r07jpdpdp9rjqn52ka93nmc5rsxj70jj","addr1q87vxtlj5qmuc49jt2pnrj8d25y3m0x3sa7n6wwp072geq0klhl7ztxgx4wqk3z2y3r07jpdpdp9rjqn52ka93nmc5rsxj70jj","addr1q87vxtlj5qmuc49jt2pnrj8d25y3m0x3sa7n6wwp072geq0klhl7ztxgx4wqk3z2y3r07jpdpdp9rjqn52ka93nmc5rsxj70jj"],"addressesOutput":["addr1wxr2a8htmzuhj39y2gq7ftkpxv98y2g67tg8zezthgq4jkg0a4ul4","addr1q87vxtlj5qmuc49jt2pnrj8d25y3m0x3sa7n6wwp072geq0klhl7ztxgx4wqk3z2y3r07jpdpdp9rjqn52ka93nmc5rsxj70jj","addr1q87vxtlj5qmuc49jt2pnrj8d25y3m0x3sa7n6wwp072geq0klhl7ztxgx4wqk3z2y3r07jpdpdp9rjqn52ka93nmc5rsxj70jj"],"fee":247825,"totalOutput":436021506,"tokens":[]},{"hash":"dc60a05ba150f760e0912dac1d74d24cef2b3d59eefcec941b4a8dd9a8365f42","blockNo":8285571,"blockHash":"0db56e6acab1acd4be81e0d6d955ae91811b22159cfcf0f48ca75f95a9978300","epochNo":388,"epochSlotNo":216930,"slot":82469730,"time":"2023/01/18 10:00:21","addressesInput":["addr1v9nudmgn6lqefaedktxg0rrlqsjdxma2uw9my66vcnp8lngkzrt8k","addr1v9nudmgn6lqefaedktxg0rrlqsjdxma2uw9my66vcnp8lngkzrt8k","addr1v9nudmgn6lqefaedktxg0rrlqsjdxma2uw9my66vcnp8lngkzrt8k"],"addressesOutput":["addr1qyncakde34cs0a2vs6ae7r2p5n70x05na27pss9zuzwqm2rgdhsw0ft0nmf77fzwptucrhrguptveump26dlwcvtnaxqa9eq2g","addr1v9nudmgn6lqefaedktxg0rrlqsjdxma2uw9my66vcnp8lngkzrt8k","addr1v9nudmgn6lqefaedktxg0rrlqsjdxma2uw9my66vcnp8lngkzrt8k"],"fee":175841,"totalOutput":2589466528,"tokens":[]},{"hash":"b98fedd3603957d8fa879fc508589add74a703c9d774c7d8fd592099081a4f19","blockNo":8285571,"blockHash":"0db56e6acab1acd4be81e0d6d955ae91811b22159cfcf0f48ca75f95a9978300","epochNo":388,"epochSlotNo":216930,"slot":82469730,"time":"2023/01/18 10:00:21","addressesInput":["addr1zxgx3far7qygq0k6epa0zcvcvrevmn0ypsnfsue94nsn3tvpw288a4x0xf8pxgcntelxmyclq83s0ykeehchz2wtspks905plm","addr1q92umwyg6yk2pw3eeh9ft5faekhd8ehujelznvzjglmzpy983cv7cnat2zxutuk6ry7r2pcaw893dzc332fuhk69hl7slvhasd"],"addressesOutput":["addr1zxgx3far7qygq0k6epa0zcvcvrevmn0ypsnfsue94nsn3tvpw288a4x0xf8pxgcntelxmyclq83s0ykeehchz2wtspks905plm","addr1q92umwyg6yk2pw3eeh9ft5faekhd8ehujelznvzjglmzpy983cv7cnat2zxutuk6ry7r2pcaw893dzc332fuhk69hl7slvhasd"],"fee":296664,"totalOutput":4108550,"tokens":[]},{"hash":"8f06c39c7adf4d971ddfb89901dc71d6f00a43667fe9ddac6e74df9d8c22efd2","blockNo":8285571,"blockHash":"0db56e6acab1acd4be81e0d6d955ae91811b22159cfcf0f48ca75f95a9978300","epochNo":388,"epochSlotNo":216930,"slot":82469730,"time":"2023/01/18 10:00:21","addressesInput":["addr1qxle0tvek5nfc90rwf3fp72lplqwerd6mgc3sdmc2jxemgzu4umxu052czq40y67hj6pda6el90pz4rpfrehdah7phqqt8qm8k"],"addressesOutput":["addr1wxn9efv2f6w82hagxqtn62ju4m293tqvw0uhmdl64ch8uwc0h43gt","addr1qxle0tvek5nfc90rwf3fp72lplqwerd6mgc3sdmc2jxemgzu4umxu052czq40y67hj6pda6el90pz4rpfrehdah7phqqt8qm8k","addr1qxle0tvek5nfc90rwf3fp72lplqwerd6mgc3sdmc2jxemgzu4umxu052czq40y67hj6pda6el90pz4rpfrehdah7phqqt8qm8k"],"fee":192737,"totalOutput":69445502301,"tokens":[]},{"hash":"3691a2458cc0827c218c6d2d8eb71d3d5cfaf6f4a038f5f9fb87a44d2ad5dccc","blockNo":8285571,"blockHash":"0db56e6acab1acd4be81e0d6d955ae91811b22159cfcf0f48ca75f95a9978300","epochNo":388,"epochSlotNo":216930,"slot":82469730,"time":"2023/01/18 10:00:21","addressesInput":["addr1q8rcpujgjsu2s6hygkaplklx3mzxfxnj7wt9v2w6sq6e7vxn0aty5pueftnzx3w9mhwvhw923t3ctwc36jeqj60lh36sr6vu3v","addr1zxgx3far7qygq0k6epa0zcvcvrevmn0ypsnfsue94nsn3tvpw288a4x0xf8pxgcntelxmyclq83s0ykeehchz2wtspks905plm"],"addressesOutput":["addr1zxgx3far7qygq0k6epa0zcvcvrevmn0ypsnfsue94nsn3tvpw288a4x0xf8pxgcntelxmyclq83s0ykeehchz2wtspks905plm","addr1q8rcpujgjsu2s6hygkaplklx3mzxfxnj7wt9v2w6sq6e7vxn0aty5pueftnzx3w9mhwvhw923t3ctwc36jeqj60lh36sr6vu3v"],"fee":316944,"totalOutput":142571224,"tokens":[]}],"totalItems":59263417,"totalPages":2963171,"currentPage":0}