{"data":[{"hash":"8d27d8c35483e16bbf9cc5b54fab38db1102fbadbcbec5ed2db0e8d5302b8293","blockNo":1047573,"blockHash":"72c4311dd96d4a7221791ecf369b7ab8623496dba667e1ffedf3060d4ff86b7a","epochNo":75,"epochSlotNo":231766,"slot":30990166,"time":"2023/06/13 16:22:46","addressesInput":["addr_test1vz09v9yfxguvlp0zsnrpa3tdtm7el8xufp3m5lsm7qxzclgmzkket"],"addressesOutput":["addr_test1vz09v9yfxguvlp0zsnrpa3tdtm7el8xufp3m5lsm7qxzclgmzkket"],"fee":200000,"totalOutput":27500462863548347,"balance":-200000,"tokens":[]},{"hash":"9c7ecd563c1fd6fc888b679df5846b81dca8973838bf56084654473db9522276","blockNo":1047569,"blockHash":"cf4f8ec9a130d50f5fff2a2ddb47304358e796838e138ff927c30cdbad83979a","epochNo":75,"epochSlotNo":231652,"slot":30990052,"time":"2023/06/13 16:20:52","addressesInput":["addr_test1vz09v9yfxguvlp0zsnrpa3tdtm7el8xufp3m5lsm7qxzclgmzkket"],"addressesOutput":["addr_test1vz09v9yfxguvlp0zsnrpa3tdtm7el8xufp3m5lsm7qxzclgmzkket"],"fee":200000,"totalOutput":27500462863748347,"balance":-200000,"tokens":[]},{"hash":"003313c9ec4ae34b44a199353c5adee57b517ab01e528a4155ababce073abf2d","blockNo":1047562,"blockHash":"faa03086b1d31688e9497ce3a2476f2558775b9427e351fce17b9c87d86a3484","epochNo":75,"epochSlotNo":231530,"slot":30989930,"time":"2023/06/13 16:18:50","addressesInput":["addr_test1vz09v9yfxguvlp0zsnrpa3tdtm7el8xufp3m5lsm7qxzclgmzkket"],"addressesOutput":["addr_test1vz09v9yfxguvlp0zsnrpa3tdtm7el8xufp3m5lsm7qxzclgmzkket"],"fee":200000,"totalOutput":27500462863948347,"balance":1755249563,"tokens":[]},{"hash":"75b6d43e2792c6540322d53457324b0448f61ca413b800f5cde4db996b165fc0","blockNo":1047555,"blockHash":"26d2816a44da7d0db7b1139aa6c6c1ce9fe73cd874418a9dffea5030a3d11517","epochNo":75,"epochSlotNo":231408,"slot":30989808,"time":"2023/06/13 16:16:48","addressesInput":["addr_test1vz09v9yfxguvlp0zsnrpa3tdtm7el8xufp3m5lsm7qxzclgmzkket"],"addressesOutput":["addr_test1vz09v9yfxguvlp0zsnrpa3tdtm7el8xufp3m5lsm7qxzclgmzkket"],"fee":200000,"totalOutput":27500461108698784,"balance":18741134472,"tokens":[]},{"hash":"8e377df194ff0dc2eb0fb79bb818f7d28890917ff7a3f21fa17e0506efadc40a","blockNo":1047552,"blockHash":"a65658f645efde777f961d0afbcb3c697558c32de383473b6198e03645df5ea8","epochNo":75,"epochSlotNo":231298,"slot":30989698,"time":"2023/06/13 16:14:58","addressesInput":["addr_test1vz09v9yfxguvlp0zsnrpa3tdtm7el8xufp3m5lsm7qxzclgmzkket"],"addressesOutput":["addr_test1vz09v9yfxguvlp0zsnrpa3tdtm7el8xufp3m5lsm7qxzclgmzkket"],"fee":200000,"totalOutput":27500442367564312,"balance":3326436587,"tokens":[]},{"hash":"ca03cd7fa15111b5745ca0283a848e11092706046ada0617d4690a2db201617d","blockNo":1047547,"blockHash":"878df58d7cf5aac517c630689eceac30bec616542a4094a45298e00c6bb86b9a","epochNo":75,"epochSlotNo":231172,"slot":30989572,"time":"2023/06/13 16:12:52","addressesInput":["addr_test1vz09v9yfxguvlp0zsnrpa3tdtm7el8xufp3m5lsm7qxzclgmzkket"],"addressesOutput":["addr_test1vz09v9yfxguvlp0zsnrpa3tdtm7el8xufp3m5lsm7qxzclgmzkket"],"fee":200000,"totalOutput":27500439041127725,"balance":2738284259,"tokens":[]},{"hash":"bd7bb96fa8b399d99ce553a2e1edd290d7fc026f409803950e6011b7d0716f73","blockNo":1047540,"blockHash":"852b519ae14d6e5ecddf73c508f608c5bfe24798fcf2e9f4559f15d31661c27a","epochNo":75,"epochSlotNo":231038,"slot":30989438,"time":"2023/06/13 16:10:38","addressesInput":["addr_test1vz09v9yfxguvlp0zsnrpa3tdtm7el8xufp3m5lsm7qxzclgmzkket"],"addressesOutput":["addr_test1vz09v9yfxguvlp0zsnrpa3tdtm7el8xufp3m5lsm7qxzclgmzkket"],"fee":200000,"totalOutput":27500436302843466,"balance":2709181126,"tokens":[]},{"hash":"2a9b9db8b94a91f7064478881d45948f76d2b3f088d3ea559141c8eb9b490259","blockNo":1047536,"blockHash":"955228fb79132c2506d2b649f3477223f7083ef10da5a122664f904fc51698c2","epochNo":75,"epochSlotNo":230913,"slot":30989313,"time":"2023/06/13 16:08:33","addressesInput":["addr_test1vz09v9yfxguvlp0zsnrpa3tdtm7el8xufp3m5lsm7qxzclgmzkket"],"addressesOutput":["addr_test1vz09v9yfxguvlp0zsnrpa3tdtm7el8xufp3m5lsm7qxzclgmzkket"],"fee":200000,"totalOutput":27500433593662340,"balance":2300824454,"tokens":[]},{"hash":"b0fb6862059392df680b5077f4af725c6a1d050bf4dbb0f2055c6ced40f97173","blockNo":945200,"blockHash":"271e5fa287cfda2326f015c41c34af7d3388b03070c4f1e336cc83bdc8657c13","epochNo":69,"epochSlotNo":431866,"slot":28598266,"time":"2023/05/16 23:57:46","addressesInput":["addr_test1vz09v9yfxguvlp0zsnrpa3tdtm7el8xufp3m5lsm7qxzclgmzkket"],"addressesOutput":["addr_test1vz09v9yfxguvlp0zsnrpa3tdtm7el8xufp3m5lsm7qxzclgmzkket"],"fee":200000,"totalOutput":27500431292837886,"balance":4617992834,"tokens":[]},{"hash":"d71294b079b3c0adee6b1c477d8150586beb4b370a274d2c014a2800c6c45b23","blockNo":945195,"blockHash":"302f15e02daed638c4d308b9d0f2519581c07e7fd0d81d5560c707226411e249","epochNo":69,"epochSlotNo":431749,"slot":28598149,"time":"2023/05/16 23:55:49","addressesInput":["addr_test1vz09v9yfxguvlp0zsnrpa3tdtm7el8xufp3m5lsm7qxzclgmzkket"],"addressesOutput":["addr_test1vz09v9yfxguvlp0zsnrpa3tdtm7el8xufp3m5lsm7qxzclgmzkket"],"fee":200000,"totalOutput":27500426674845052,"balance":-200000,"tokens":[]},{"hash":"71402473276281c2516c022659834f931be1257a3df1d6ffb40403221d9f2b4b","blockNo":945186,"blockHash":"16312f237e350bdb47361e77677a4b895b1b2dad64e484f45b076389210caa65","epochNo":69,"epochSlotNo":431626,"slot":28598026,"time":"2023/05/16 23:53:46","addressesInput":["addr_test1vz09v9yfxguvlp0zsnrpa3tdtm7el8xufp3m5lsm7qxzclgmzkket"],"addressesOutput":["addr_test1vz09v9yfxguvlp0zsnrpa3tdtm7el8xufp3m5lsm7qxzclgmzkket"],"fee":200000,"totalOutput":27500426675045052,"balance":29485470384,"tokens":[]},{"hash":"b00eb1a427c8d8c7352397f8ba747fd94f77f0891af8b6e27889cba607c4bdff","blockNo":945184,"blockHash":"21e13a614240a823ea9cdbc3ac775206d6a49db836b297d9b374e51d70825c15","epochNo":69,"epochSlotNo":431526,"slot":28597926,"time":"2023/05/16 23:52:06","addressesInput":["addr_test1vz09v9yfxguvlp0zsnrpa3tdtm7el8xufp3m5lsm7qxzclgmzkket"],"addressesOutput":["addr_test1vz09v9yfxguvlp0zsnrpa3tdtm7el8xufp3m5lsm7qxzclgmzkket"],"fee":200000,"totalOutput":27500397189574668,"balance":9338067709,"tokens":[]},{"hash":"952ce165b703f005820be6d473a759b96ddb6d17c428ca2393fbbda6b65b5378","blockNo":945179,"blockHash":"c2828abba20ae08056dbf611382ab31c8d7945576746005931c2857fbf958c38","epochNo":69,"epochSlotNo":431377,"slot":28597777,"time":"2023/05/16 23:49:37","addressesInput":["addr_test1vz09v9yfxguvlp0zsnrpa3tdtm7el8xufp3m5lsm7qxzclgmzkket"],"addressesOutput":["addr_test1vz09v9yfxguvlp0zsnrpa3tdtm7el8xufp3m5lsm7qxzclgmzkket"],"fee":200000,"totalOutput":27500387851506959,"balance":19026791043,"tokens":[]},{"hash":"69b32b367c443fea2ac44891237d2989d9b4951d6130145602ea59d11f7fabdc","blockNo":945175,"blockHash":"d6e304870c5ae5db4576dafd63044e2c7c96977fc4eb024a30e7920bae2d560a","epochNo":69,"epochSlotNo":431264,"slot":28597664,"time":"2023/05/16 23:47:44","addressesInput":["addr_test1vz09v9yfxguvlp0zsnrpa3tdtm7el8xufp3m5lsm7qxzclgmzkket"],"addressesOutput":["addr_test1vz09v9yfxguvlp0zsnrpa3tdtm7el8xufp3m5lsm7qxzclgmzkket"],"fee":200000,"totalOutput":27500368824715916,"balance":4574673456,"tokens":[]},{"hash":"fd1493be9bd84afa0c82d3f1a67cdb0593a511dead697a6454626b013c3cca3d","blockNo":906116,"blockHash":"5718b7156c8f12d9448af63222a4d87ff71718fc91a7bc46b0de840945c130f8","epochNo":67,"epochSlotNo":346636,"slot":27649036,"time":"2023/05/06 00:17:16","addressesInput":["addr_test1vz09v9yfxguvlp0zsnrpa3tdtm7el8xufp3m5lsm7qxzclgmzkket"],"addressesOutput":["addr_test1vz09v9yfxguvlp0zsnrpa3tdtm7el8xufp3m5lsm7qxzclgmzkket"],"fee":200000,"totalOutput":27500364250042460,"balance":18734008242,"tokens":[]},{"hash":"05444db859679be16f830ae693bab492534e9541194eccecb81bdf7592ac5cb8","blockNo":906111,"blockHash":"2651610d4c4afe097b3dd83207b4bcadce8d7ad27b22722fde36927339e3b2aa","epochNo":67,"epochSlotNo":346540,"slot":27648940,"time":"2023/05/06 00:15:40","addressesInput":["addr_test1vz09v9yfxguvlp0zsnrpa3tdtm7el8xufp3m5lsm7qxzclgmzkket"],"addressesOutput":["addr_test1vz09v9yfxguvlp0zsnrpa3tdtm7el8xufp3m5lsm7qxzclgmzkket"],"fee":200000,"totalOutput":27500345516034218,"balance":5794112596,"tokens":[]},{"hash":"fba6141c942e40e1f05297687a9f688f871699ce4d71959ba0b17d6e34043204","blockNo":906107,"blockHash":"58d1e59a079b4412431990b4d2319dc09c53bea11f962cef3d9cb04d2ac73d7d","epochNo":67,"epochSlotNo":346405,"slot":27648805,"time":"2023/05/06 00:13:25","addressesInput":["addr_test1vz09v9yfxguvlp0zsnrpa3tdtm7el8xufp3m5lsm7qxzclgmzkket"],"addressesOutput":["addr_test1vz09v9yfxguvlp0zsnrpa3tdtm7el8xufp3m5lsm7qxzclgmzkket"],"fee":200000,"totalOutput":27500339721921622,"balance":28528458605,"tokens":[]},{"hash":"f4e4192184d2f5c9bff643d9bc2e063eb4a8f0b7871050e86449340083dde513","blockNo":906101,"blockHash":"3b156eee97bb4650b9dfc864c605079760f5789e7acf9a7a0ff0761abc77bee2","epochNo":67,"epochSlotNo":346267,"slot":27648667,"time":"2023/05/06 00:11:07","addressesInput":["addr_test1vz09v9yfxguvlp0zsnrpa3tdtm7el8xufp3m5lsm7qxzclgmzkket"],"addressesOutput":["addr_test1vz09v9yfxguvlp0zsnrpa3tdtm7el8xufp3m5lsm7qxzclgmzkket"],"fee":200000,"totalOutput":27500311193463017,"balance":13997728275,"tokens":[]},{"hash":"fbfe2e62a466d0d77c38dfbb25da488d7a26aefa187f40631d48026344cd5ae5","blockNo":906100,"blockHash":"d7435ae84e95b32f2f0b55d0762e4d1b5e467d00a3a29faf809a364019776ff9","epochNo":67,"epochSlotNo":346219,"slot":27648619,"time":"2023/05/06 00:10:19","addressesInput":["addr_test1vz09v9yfxguvlp0zsnrpa3tdtm7el8xufp3m5lsm7qxzclgmzkket"],"addressesOutput":["addr_test1vz09v9yfxguvlp0zsnrpa3tdtm7el8xufp3m5lsm7qxzclgmzkket"],"fee":200000,"totalOutput":27500297195734742,"balance":5062125961,"tokens":[]},{"hash":"f4522e54e435da80c70f08e3d96e1d19dafdd31021bfa7c8956e58fb9a408d9d","blockNo":906096,"blockHash":"092fc56923415b6584ad37474fe52e2182bb4f996faeb55ecdb17f939f4e3706","epochNo":67,"epochSlotNo":346053,"slot":27648453,"time":"2023/05/06 00:07:33","addressesInput":["addr_test1vz09v9yfxguvlp0zsnrpa3tdtm7el8xufp3m5lsm7qxzclgmzkket"],"addressesOutput":["addr_test1vz09v9yfxguvlp0zsnrpa3tdtm7el8xufp3m5lsm7qxzclgmzkket"],"fee":200000,"totalOutput":27500292133608781,"balance":23895424839,"tokens":[]}],"totalItems":1326,"totalPages":67,"currentPage":0}