{"data":[{"blockNo":8115471,"slotNo":78982286,"epochNo":380,"epochSlotNo":185486,"hash":"6337d6bb83feba4c379ca1d1e8db1309eabf21e733bb5e0aeb853eb20f7cce22","time":"2022/12/09 01:16:17","txCount":28,"totalFees":9557848,"totalOutput":19830494200648,"slotLeader":"04357793d81097a7d2c15ec6cd6067a58cdd2fb21aaf07e56c306ecf"},{"blockNo":8115470,"slotNo":78982248,"epochNo":380,"epochSlotNo":185448,"hash":"494f144d9cd2e1d01e99812c5781381de76227b6a5339e621d5b81354548d800","time":"2022/12/09 01:15:39","txCount":12,"totalFees":2500944,"totalOutput":28504601803,"slotLeader":"052100e65f3fa89fe1e2d3ae521446b2013b3c91ef5c7961e1b1a1ac"},{"blockNo":8115469,"slotNo":78982222,"epochNo":380,"epochSlotNo":185422,"hash":"79da801c32aa852d8041c4ae7bdb999146f01cbc595e5bd59a49630d66bad3f8","time":"2022/12/09 01:15:13","txCount":15,"totalFees":4586267,"totalOutput":146400935635,"slotLeader":"5cfc3c3314ffe6748ff3a4ca34b4b841ed81caacfee24c341c21a905"},{"blockNo":8115468,"slotNo":78982198,"epochNo":380,"epochSlotNo":185398,"hash":"53758c9d7c1f74c64f1a12e80d48fa10ce998dd0b65ceff05c057d57c2c08a1b","time":"2022/12/09 01:14:49","txCount":7,"totalFees":2542536,"totalOutput":145092440593,"slotLeader":"2c88e3a7f6279bda114f92dbbcd78b734f0ebff40ff2bdce647e9c53"},{"blockNo":8115467,"slotNo":78982184,"epochNo":380,"epochSlotNo":185384,"hash":"b86d3fd600a000b0b27966e95ff20ffb9c66920fda189e63d7ba83e3f6c4a9b2","time":"2022/12/09 01:14:35","txCount":1,"totalFees":474249,"totalOutput":36754473,"slotLeader":"d248ded3c18e0e80d07a46f00a2d808075b989ccb1a0e40a76e5cee1"},{"blockNo":8115466,"slotNo":78982182,"epochNo":380,"epochSlotNo":185382,"hash":"4aab227f10daeffe38a8d9cde52d32753569257aa1ff542465758d3311f0ece4","time":"2022/12/09 01:14:33","txCount":11,"totalFees":3801446,"totalOutput":4168144502968,"slotLeader":"061f4c7b5de2c1554690029e2e559272ff4dbcd3aecc02d91aceb5c7"},{"blockNo":8115465,"slotNo":78982173,"epochNo":380,"epochSlotNo":185373,"hash":"5d31ae19a2135f27ab82fa3fae17b9a252f2cc9cc2502b47310c4fe7d24b4637","time":"2022/12/09 01:14:24","txCount":13,"totalFees":3712909,"totalOutput":44058709467,"slotLeader":"40e81ed617140994bab5a00619d0269f0dd3af9963e40e09f5ee1a6d"},{"blockNo":8115464,"slotNo":78982155,"epochNo":380,"epochSlotNo":185355,"hash":"35614234153b8a2153c31a920a0090dda8353a10b61a0bd63ca675f9e6efd9b6","time":"2022/12/09 01:14:06","txCount":0,"totalFees":0,"totalOutput":0,"slotLeader":"e98e298624ce6efe34635318bdd5d634bed732bb238989d3d1b6fc9e"},{"blockNo":8115463,"slotNo":78982153,"epochNo":380,"epochSlotNo":185353,"hash":"cfa1894be51cdd33892b7677e808cd4bfabad4a541073078b6a2bbef0b53694d","time":"2022/12/09 01:14:04","txCount":2,"totalFees":610226,"totalOutput":31077749,"slotLeader":"6ae0fb9fc19ad1b82521d6e4b9f6e9bad4d150529673c95c5b5cf4e4"},{"blockNo":8115462,"slotNo":78982140,"epochNo":380,"epochSlotNo":185340,"hash":"ff497596c443cffaa1b62f3e201b40df08cda7b9e51b9c328574d989b92a1662","time":"2022/12/09 01:13:51","txCount":0,"totalFees":0,"totalOutput":0,"slotLeader":"ea5f1fb21658736dce6e8c63a516e9e5d645e104b9efbfbb395d7e68"},{"blockNo":8115461,"slotNo":78982139,"epochNo":380,"epochSlotNo":185339,"hash":"2c699be1d35ad47f3cde1ddec2117a4b37ebe1ed78d1eedc588cf9f518233481","time":"2022/12/09 01:13:50","txCount":4,"totalFees":1409634,"totalOutput":8739269422,"slotLeader":"35a38b78bf1f4b829a98d1ebf27d883b3f936eefcdfce2bd7a83c4c7"},{"blockNo":8115460,"slotNo":78982126,"epochNo":380,"epochSlotNo":185326,"hash":"7ad85efbc0375915341e6fa978eb498515ddebd7a96ebb568bfcf3dd94506ad8","time":"2022/12/09 01:13:37","txCount":19,"totalFees":5489478,"totalOutput":1679876578074,"slotLeader":"e645c034522f32522bf1c64a7f46128c562880abc26abe5f65f25a84"},{"blockNo":8115459,"slotNo":78982101,"epochNo":380,"epochSlotNo":185301,"hash":"bc5c83493fbba5973dbf367e5f5987fb6a3802ce1658908ff15f63881a4a52a6","time":"2022/12/09 01:13:12","txCount":27,"totalFees":9476374,"totalOutput":1234022126352,"slotLeader":"c94e6fe1123bf111b77b57994bcd836af8ba2b3aa72cfcefbec2d3d4"},{"blockNo":8115458,"slotNo":78982064,"epochNo":380,"epochSlotNo":185264,"hash":"3bb3a764ddccd8dcb41f6f917d3a16cd037b18ed1f9867b630a24548db72d239","time":"2022/12/09 01:12:35","txCount":48,"totalFees":13401301,"totalOutput":4626619550329,"slotLeader":"0c144feba6fde9c10a0b294c2b5bc67a6ffd8fc67c632f637bd9d465"},{"blockNo":8115457,"slotNo":78981991,"epochNo":380,"epochSlotNo":185191,"hash":"5aa9b6b7438a22a8b1d21ab7c578a380636a6fe0b4e24cae7f1bb695dc5100e4","time":"2022/12/09 01:11:22","txCount":10,"totalFees":3535492,"totalOutput":61663361674,"slotLeader":"cb87bf12be816ecd5cd6e167442670e4024d85e0005c8623651b371f"},{"blockNo":8115456,"slotNo":78981975,"epochNo":380,"epochSlotNo":185175,"hash":"44f2ec0154bbc2d87b5b0ae71e387cfc7fc6ee1805f3d08dac2699abd9fe50d5","time":"2022/12/09 01:11:06","txCount":10,"totalFees":3101416,"totalOutput":250479038065,"slotLeader":"5b60373e718a3647ec57f610b9942f91286748ddeaa0ad226acb927b"},{"blockNo":8115455,"slotNo":78981957,"epochNo":380,"epochSlotNo":185157,"hash":"712900b8b4d12dbe204adcc4c5462953995edcfe9113a05924b16e132e5f7e44","time":"2022/12/09 01:10:48","txCount":1,"totalFees":691568,"totalOutput":10000000,"slotLeader":"79c4d4fe108f480fee98f307adac12571df2959651f833b595141cd1"},{"blockNo":8115454,"slotNo":78981953,"epochNo":380,"epochSlotNo":185153,"hash":"1d8b7589bf3167f06a6ab1b131fb0f99e49d3e548ff2ed0bae40b81223d0531c","time":"2022/12/09 01:10:44","txCount":4,"totalFees":871108,"totalOutput":676286849250,"slotLeader":"2382bac66b58a4df1cf1775285529bbbefb9102ecea991e1da0aa064"},{"blockNo":8115453,"slotNo":78981947,"epochNo":380,"epochSlotNo":185147,"hash":"a64ef8fcb9985a9b7033c5f4c6c8af26bfa710362f84b7cf6241b87a5e5c58dc","time":"2022/12/09 01:10:38","txCount":26,"totalFees":6154278,"totalOutput":1368585256392,"slotLeader":"22cfa3b8612c146a0737c974dcfcbb8cddd86f3a511cf531ce8d91a1"},{"blockNo":8115452,"slotNo":78981916,"epochNo":380,"epochSlotNo":185116,"hash":"8c3053767e3fd1b6a89540e49990a495bfef47aa0ebfbcce0a612dac3dcdc36a","time":"2022/12/09 01:10:07","txCount":2,"totalFees":433258,"totalOutput":7471028271,"slotLeader":"8e0bb9b126acd8e65a023602377d9a7a6f15af394d1f7bdd852182b8"}],"totalItems":8115647,"totalPages":405783,"currentPage":0}