{"data":[{"blockNo":8117475,"slotNo":79023155,"epochNo":380,"epochSlotNo":226355,"hash":"8fdb7d7aae0ac2635da4a73c222906bbbee21885c13dfefc5b1ce249deeacba5","time":"2022/12/09 12:37:26","txCount":1,"totalFees":171221,"totalOutput":9556997534,"slotLeader":"2382bac66b58a4df1cf1775285529bbbefb9102ecea991e1da0aa064"},{"blockNo":8117474,"slotNo":79023152,"epochNo":380,"epochSlotNo":226352,"hash":"163b09a7377fd2a0c2e646e46de3423a51b0cc985afe6901ecce240c57af534a","time":"2022/12/09 12:37:23","txCount":10,"totalFees":3078247,"totalOutput":8394519581,"slotLeader":"849cdde779a0a0faaa4276dac342f762bd6c84d6cbf637a92a20bb88"},{"blockNo":8117473,"slotNo":79023135,"epochNo":380,"epochSlotNo":226335,"hash":"e131b76eb7752cac10114580badc01fdbb6cb60a7ad5f2ed9396bb7fd92a671d","time":"2022/12/09 12:37:06","txCount":14,"totalFees":4721989,"totalOutput":1162718533920,"slotLeader":"c01546efeba17d531d60447356fc4c19b29c632aeac3377d21f75b4e"},{"blockNo":8117472,"slotNo":79023113,"epochNo":380,"epochSlotNo":226313,"hash":"80d171d8f63daef4f8d5e3dc5f804393568f53a3edd32045a5bf01ff052f1583","time":"2022/12/09 12:36:44","txCount":6,"totalFees":2250667,"totalOutput":33628731760719,"slotLeader":"e0bfd78fd14b0336186ff6ca79a45f3619102b5bb484f7e0124dfdc0"},{"blockNo":8117471,"slotNo":79023099,"epochNo":380,"epochSlotNo":226299,"hash":"9950a4f06b293a86d513d9f1ae43696e4d7bf15b5f84fdcb45f1abfbe4744a4d","time":"2022/12/09 12:36:30","txCount":9,"totalFees":2828873,"totalOutput":37350841356,"slotLeader":"936316c217c6f217640ed8d132cb0ff8133eef73e74e4c28002b9eb3"},{"blockNo":8117470,"slotNo":79023081,"epochNo":380,"epochSlotNo":226281,"hash":"f116bf04d3b2245b2514bb05c74f84bac9940231284d1800bcdcca4c75743acf","time":"2022/12/09 12:36:12","txCount":13,"totalFees":4877439,"totalOutput":17898704756419,"slotLeader":"093281f3d46eaa6422b2b9e257d67059d303805adb166073ab656a3b"},{"blockNo":8117469,"slotNo":79023065,"epochNo":380,"epochSlotNo":226265,"hash":"59bcc0b3e2139e0dceda6be3c3958af4f2f73c7c5df52b8a885011427bb3c913","time":"2022/12/09 12:35:56","txCount":0,"totalFees":0,"totalOutput":0,"slotLeader":"237795878bfa5352cca325012e073b344ce337a1dd752cd3d5ea4cdc"},{"blockNo":8117468,"slotNo":79023064,"epochNo":380,"epochSlotNo":226264,"hash":"2430d1767d31ea928876e878cae4d7ecc798fcd070c043f0e45b76a8319732c7","time":"2022/12/09 12:35:55","txCount":13,"totalFees":3410278,"totalOutput":261736409074,"slotLeader":"96cd4a3a846cad3a99b43a3632990ba2eba9a2153f736f78ab2ab3e1"},{"blockNo":8117467,"slotNo":79023034,"epochNo":380,"epochSlotNo":226234,"hash":"874e11ba1d03ca78f821827ad0f6680a8664fde48569b7e1374fc60075b678b9","time":"2022/12/09 12:35:25","txCount":7,"totalFees":3299294,"totalOutput":2273872126,"slotLeader":"fa67f324c67325d6e60616eb8f20688473f979ec4b66193a5b43f898"},{"blockNo":8117466,"slotNo":79023018,"epochNo":380,"epochSlotNo":226218,"hash":"0c46d90761de28892ca8857c7d3a16a7512f33fc03e44292b04896e7d5ae7b93","time":"2022/12/09 12:35:09","txCount":13,"totalFees":3569643,"totalOutput":17564246165,"slotLeader":"a2d42d873250321acca2d7cc7a5465f9060892bdbb645b4dedb28125"},{"blockNo":8117465,"slotNo":79023002,"epochNo":380,"epochSlotNo":226202,"hash":"71e7160f91d80f9d3e32bf06748981f69ff2ace14652fc462b547d33dd28fc65","time":"2022/12/09 12:34:53","txCount":37,"totalFees":10272256,"totalOutput":2254183358808,"slotLeader":"82906c841da0f4010b2fa1a2c3726b5571b02eea6abfb48d7c6a4184"},{"blockNo":8117464,"slotNo":79022945,"epochNo":380,"epochSlotNo":226145,"hash":"47bfdcdb063ed8b434bdc5236155a67f49ea9dfa71fcbce43b6f953d36ae97e4","time":"2022/12/09 12:33:56","txCount":3,"totalFees":924474,"totalOutput":73241864,"slotLeader":"9418abb33c7cf50778598371bc1f09fe5460d1dedf740faea665f4ac"},{"blockNo":8117463,"slotNo":79022940,"epochNo":380,"epochSlotNo":226140,"hash":"57348c8066aa4b10ce7439f325f8a138469236384d123292eb92e6334ce820d0","time":"2022/12/09 12:33:51","txCount":15,"totalFees":4769482,"totalOutput":16986937652,"slotLeader":"2dc733ef313c5c5ead9b93b96918106b067e343b21bbc2d3576e2913"},{"blockNo":8117462,"slotNo":79022912,"epochNo":380,"epochSlotNo":226112,"hash":"476a5ae7c1fbbffc7562ae2eca95f546ac4929bb93599960dadbee512898fbab","time":"2022/12/09 12:33:23","txCount":17,"totalFees":4462144,"totalOutput":14205561583,"slotLeader":"7d89d3f11170f5874c5b781b80864be392edcd9c8715ccce18155a8f"},{"blockNo":8117461,"slotNo":79022888,"epochNo":380,"epochSlotNo":226088,"hash":"3d7145d5bef663bdd5af20aad4fc93669d55cab53f986d96eaf06929ad2a9afb","time":"2022/12/09 12:32:59","txCount":28,"totalFees":8069549,"totalOutput":567238862330,"slotLeader":"9417e18efcc4c258df21c89942009a498a751a0a63f8d72714cf75b2"},{"blockNo":8117460,"slotNo":79022841,"epochNo":380,"epochSlotNo":226041,"hash":"4eaaffc1904d18504cda3099d0d5dec0e0a07d7376084ff516bac4713dac1d35","time":"2022/12/09 12:32:12","txCount":9,"totalFees":3081492,"totalOutput":123340313465,"slotLeader":"cb40e0cff388865448b04c364ff941ccf576bb2c7f8c804bdc153769"},{"blockNo":8117459,"slotNo":79022832,"epochNo":380,"epochSlotNo":226032,"hash":"c44361c8b3be9c8385e0ff04b983503c3f6fb2029d57584378bafb6da6c3883f","time":"2022/12/09 12:32:03","txCount":4,"totalFees":848167,"totalOutput":126461799226,"slotLeader":"d785ff6a030ae9d521770c00f264a2aa423e928c85fc620b13d46eda"},{"blockNo":8117458,"slotNo":79022815,"epochNo":380,"epochSlotNo":226015,"hash":"b3f8d016e06b8b95478e0be6f0d12ff8e99a56367e63ca693001739fd17c3079","time":"2022/12/09 12:31:46","txCount":1,"totalFees":190361,"totalOutput":161657810,"slotLeader":"593dfbc66c5b8dfc040851a2f4d87191490d4c2312c65dd4418f7b23"},{"blockNo":8117457,"slotNo":79022813,"epochNo":380,"epochSlotNo":226013,"hash":"dc66bd97919280b27588c32c63f2bf95b2f01363b40e10d4e68bdfd8b4bbc8a4","time":"2022/12/09 12:31:44","txCount":21,"totalFees":6101406,"totalOutput":700554177427,"slotLeader":"83ea16a7f183288173077c54a1e2b3cbcd0f2336e1bc85e2cc6397e0"},{"blockNo":8117456,"slotNo":79022781,"epochNo":380,"epochSlotNo":225981,"hash":"92893a95c60185c525aae701eaaa02362cb181491f7979570f5f78cb0dd875a1","time":"2022/12/09 12:31:12","txCount":18,"totalFees":5203017,"totalOutput":86437301767,"slotLeader":"c1011645958df9e805df499bbd30056c83094b99c8effe500350d8da"}],"totalItems":8117651,"totalPages":405883,"currentPage":0}