{"data":[{"blockNo":7924585,"slotNo":75043767,"epochNo":371,"epochSlotNo":134967,"hash":"bdc39f6655b2f1a670989e90cdf10c50730f8b92ac5a92d331aa3c21c38e2497","time":"2022/10/24 11:14:18","txCount":0,"totalFees":0,"totalOutput":0,"slotLeader":"d785ff6a030ae9d521770c00f264a2aa423e928c85fc620b13d46eda"},{"blockNo":7924584,"slotNo":75043765,"epochNo":371,"epochSlotNo":134965,"hash":"91c2a0a80784ccd7fa5294541d18d73841679b3707d50f26e13f2ffed4db4419","time":"2022/10/24 11:14:16","txCount":6,"totalFees":1568749,"totalOutput":399916025,"slotLeader":"fcc675f8266022c4a0f8a7f1e24b00896fd742b35f147304c2354442"},{"blockNo":7924583,"slotNo":75043760,"epochNo":371,"epochSlotNo":134960,"hash":"1ee4b18af06c60976dca6e3c39063ca0b6f6d364781fb5dcf7a4ffd8dc97fe79","time":"2022/10/24 11:14:11","txCount":23,"totalFees":8338208,"totalOutput":80014743630,"slotLeader":"a489a68f08e35332b39cce7a1f553c39d83f0de22ba6d29a05575c37"},{"blockNo":7924582,"slotNo":75043740,"epochNo":371,"epochSlotNo":134940,"hash":"00a0e339a81310298837545e9eadafd31769da7a9797ee0b9489c8d5d592055d","time":"2022/10/24 11:13:51","txCount":1,"totalFees":173113,"totalOutput":49550229,"slotLeader":"68ac3c1be0477698b5c825ce598cca359dbf6132e1761a572403b9fb"},{"blockNo":7924581,"slotNo":75043738,"epochNo":371,"epochSlotNo":134938,"hash":"68a8f50912d7a1357041ddcaf12e28083c133cb993324ae5f5b435af3c8946e7","time":"2022/10/24 11:13:49","txCount":8,"totalFees":1984653,"totalOutput":4705362466,"slotLeader":"6184f6e7229530a2d1f9f746112406100e2696dd7439ff8c52750700"},{"blockNo":7924580,"slotNo":75043721,"epochNo":371,"epochSlotNo":134921,"hash":"eeea017ad978ff3557b46e60fabbff67dc6490a0c10460e06fc9c66c4866dc01","time":"2022/10/24 11:13:32","txCount":15,"totalFees":4792711,"totalOutput":1367897215114,"slotLeader":"11c660b87cb43e4720b053895b3137b4c08f367dbd030127c9c6de9e"},{"blockNo":7924579,"slotNo":75043702,"epochNo":371,"epochSlotNo":134902,"hash":"f54d91e2ea6a79801de7b04f78a5517c1b887d968d2215c1557c6a33fb7fedfc","time":"2022/10/24 11:13:13","txCount":30,"totalFees":10118270,"totalOutput":1590230303357,"slotLeader":"ea5f1fb21658736dce6e8c63a516e9e5d645e104b9efbfbb395d7e68"},{"blockNo":7924578,"slotNo":75043670,"epochNo":371,"epochSlotNo":134870,"hash":"52c7fa469e6a80c6a692818bcb4c2dc2bf70ccb30b1f2825d84f57ec5c946c40","time":"2022/10/24 11:12:41","txCount":8,"totalFees":1661811,"totalOutput":8051903262893,"slotLeader":"7102ce043d15b9f9ff47b118142b978339c6dda4f204d403331e1fff"},{"blockNo":7924577,"slotNo":75043662,"epochNo":371,"epochSlotNo":134862,"hash":"069adacaac01547538654ce9b911b9d197aefb72b62a1e6e724335ca26412aea","time":"2022/10/24 11:12:33","txCount":44,"totalFees":13553863,"totalOutput":2169964168880,"slotLeader":"0c7173112ca61362d2ee05040973f2184968f2d4e769df86671c916b"},{"blockNo":7924576,"slotNo":75043602,"epochNo":371,"epochSlotNo":134802,"hash":"0c7b125cfd2d83ccdf9c608360c2f65c2d378d6bd2efaa3cbafe03942bc7bfe5","time":"2022/10/24 11:11:33","txCount":6,"totalFees":1733200,"totalOutput":1250377301,"slotLeader":"caf8502f66536e95138fbf23c14abde1d13090d4aef52b9287f682e8"}],"totalItems":6539,"totalPages":654,"currentPage":0}