{"data":[{"blockNo":8143870,"slotNo":79562830,"epochNo":381,"epochSlotNo":334030,"hash":"f0512a4c1f4ffd69c5876ea3ab40913077220a953c0c0e71d7e3949c32b13a31","time":"2022/12/15 18:32:01","txCount":18,"totalFees":5846907,"totalOutput":140074633366,"slotLeader":"00000aedaa1a5abf500cbc4c5c23761a2dff570bc4a299983c893f8e"},{"blockNo":8143869,"slotNo":79562813,"epochNo":381,"epochSlotNo":334013,"hash":"7d480d94899ece07035ae1f606b25308164694b906c1f9399eef426d8c378769","time":"2022/12/15 18:31:44","txCount":9,"totalFees":3177814,"totalOutput":5350339882,"slotLeader":"28f85efe5e9d3b3d8a0f4950117e47b7415a92f80d69bfb64cfb4d8b"},{"blockNo":8143868,"slotNo":79562806,"epochNo":381,"epochSlotNo":334006,"hash":"d4867e350efe89547172fae6fdb78e30dd0a890bd02abc46dcfe8b0ccc7295f5","time":"2022/12/15 18:31:37","txCount":25,"totalFees":7022424,"totalOutput":254431650850,"slotLeader":"2f606921baedcad68bbc765b9ab82b2b201d42bd35262517ce5d7d96"},{"blockNo":8143867,"slotNo":79562784,"epochNo":381,"epochSlotNo":333984,"hash":"071398e343bd791994b9fb89fb766530d6e194e7b8483f97a94087aafb2e23e7","time":"2022/12/15 18:31:15","txCount":1,"totalFees":167877,"totalOutput":410248888,"slotLeader":"68ac3c1be0477698b5c825ce598cca359dbf6132e1761a572403b9fb"},{"blockNo":8143866,"slotNo":79562783,"epochNo":381,"epochSlotNo":333983,"hash":"c89f2d27b4b9ce5be53f267184bdbe28af5fe72cebd7f032896a772345ffb3c1","time":"2022/12/15 18:31:14","txCount":2,"totalFees":368866,"totalOutput":64651743685,"slotLeader":"b3cc3005f1dccbc88230eb66d6e99c2f1bfa32273044473e17d9e10b"},{"blockNo":8143865,"slotNo":79562780,"epochNo":381,"epochSlotNo":333980,"hash":"acf19a2e514f3a13749bf920455895371290b21f671409f4a8bed4e0f98401bb","time":"2022/12/15 18:31:11","txCount":41,"totalFees":10650847,"totalOutput":11211879635270,"slotLeader":"3b3327c0a885ba7c1ebeec8b44158aab79c32148d45b4c701344cd97"},{"blockNo":8143864,"slotNo":79562747,"epochNo":381,"epochSlotNo":333947,"hash":"0a46ef6ee0f1df89e8f3a5e38621ca12274c649c586eccb86620d7fda9aff1a4","time":"2022/12/15 18:30:38","txCount":5,"totalFees":911668,"totalOutput":474084276668,"slotLeader":"61d2598400211dcda6878511eb6d84719e5c502c7aa63d500f7a57ce"},{"blockNo":8143863,"slotNo":79562745,"epochNo":381,"epochSlotNo":333945,"hash":"43e01ac82265e27efd6ed4ad21eb0e3df0b49cc843f88cac92335f03d043670f","time":"2022/12/15 18:30:36","txCount":6,"totalFees":1962200,"totalOutput":17805718712107,"slotLeader":"0a423fa44f23b13cba59474427d11746136672af66b2d80b4499dd1d"},{"blockNo":8143862,"slotNo":79562739,"epochNo":381,"epochSlotNo":333939,"hash":"d4891f11d798c63f4a0a9a5a8fe226fd5a94788aae1b97bffbe3e42d75f68084","time":"2022/12/15 18:30:30","txCount":3,"totalFees":548423,"totalOutput":3992964384,"slotLeader":"7c6b4a731eec6bef00e16ec4c990e7a817f61597dab1033006563ad7"},{"blockNo":8143861,"slotNo":79562735,"epochNo":381,"epochSlotNo":333935,"hash":"8b2797779f68e70d230352085083105a7de2e28c533f3c663e8a74788c20d30b","time":"2022/12/15 18:30:26","txCount":45,"totalFees":10943820,"totalOutput":150586223639503,"slotLeader":"0c7173112ca61362d2ee05040973f2184968f2d4e769df86671c916b"},{"blockNo":8143860,"slotNo":79562710,"epochNo":381,"epochSlotNo":333910,"hash":"9368bdeba0feadb8054c2897d3fad3dda55079eb4bd6d9c6f1cbb8a39b0925a5","time":"2022/12/15 18:30:01","txCount":25,"totalFees":8412601,"totalOutput":96227817086250,"slotLeader":"237795878bfa5352cca325012e073b344ce337a1dd752cd3d5ea4cdc"},{"blockNo":8143859,"slotNo":79562693,"epochNo":381,"epochSlotNo":333893,"hash":"e944d458c63bfa13528f063e1036b3e776e7739571aac9a234de76dfd9e7d24b","time":"2022/12/15 18:29:44","txCount":34,"totalFees":11842835,"totalOutput":1445253511639,"slotLeader":"16f6e9a767dbb9400d3dbe9f7374eef7c706bda870592a7dabd47a75"},{"blockNo":8143858,"slotNo":79562664,"epochNo":381,"epochSlotNo":333864,"hash":"319b7463cbb27effe26569ac07bf5731adec328a904830503470e927e2c7030b","time":"2022/12/15 18:29:15","txCount":30,"totalFees":9311477,"totalOutput":13499220330,"slotLeader":"b352298733374ae760475bb3cd86b4b52fe3dcf7fd61f678e969030e"},{"blockNo":8143857,"slotNo":79562656,"epochNo":381,"epochSlotNo":333856,"hash":"8a3b754172c51687e132b214c8cfcf3280e0eb1c4e59f6c75cb6a602b0492685","time":"2022/12/15 18:29:07","txCount":42,"totalFees":13890036,"totalOutput":21524741169851,"slotLeader":"54a7cf8a1e91ff0b72a3577c0d2f39d2d7ad1fca63ae0b9e4662053d"},{"blockNo":8143856,"slotNo":79562622,"epochNo":381,"epochSlotNo":333822,"hash":"4ef3b92392f69668b541295f315ad63afdae833870caf90ac607ad1daf43cf03","time":"2022/12/15 18:28:33","txCount":60,"totalFees":16860537,"totalOutput":5609750051641,"slotLeader":"8e0bb9b126acd8e65a023602377d9a7a6f15af394d1f7bdd852182b8"},{"blockNo":8143855,"slotNo":79562565,"epochNo":381,"epochSlotNo":333765,"hash":"36efe3001a56f581b7fb37046e4482e537e8b05a427148d14f3283dbcd4b0dd7","time":"2022/12/15 18:27:36","txCount":49,"totalFees":13282998,"totalOutput":128693297218983,"slotLeader":"a503e42a2c6ef347d834fa404fa4d4bfa6dfb48256ff95b067483980"},{"blockNo":8143854,"slotNo":79562525,"epochNo":381,"epochSlotNo":333725,"hash":"5964d48cbce135341f327d9388dbc296add98877158d90902b1a8e2f7c6c5b68","time":"2022/12/15 18:26:56","txCount":13,"totalFees":4106555,"totalOutput":83618092134,"slotLeader":"92fcdd76d1d9d13910cbe1930765543984e6f4ef9b7efed3cc6536a1"},{"blockNo":8143853,"slotNo":79562512,"epochNo":381,"epochSlotNo":333712,"hash":"893a1ff24d5d16d02dc17dded1d8e40d4d6ec72130c9688b0b3c3f1a5a29b80e","time":"2022/12/15 18:26:43","txCount":39,"totalFees":11571212,"totalOutput":6625260811060,"slotLeader":"4ea4b108b5a3cedd1abec6175e6f97a61520f64d234e555d231a440e"},{"blockNo":8143852,"slotNo":79562476,"epochNo":381,"epochSlotNo":333676,"hash":"cbbb789004ac7b0fe806ece85b659aae93e18b20165bdd8b73decb4a3e07fcdf","time":"2022/12/15 18:26:07","txCount":31,"totalFees":8438671,"totalOutput":188361705328,"slotLeader":"163cc36624d9332f6ae7770e8df8b8bad7e71711eb6c2ed7971c99d4"},{"blockNo":8143851,"slotNo":79562469,"epochNo":381,"epochSlotNo":333669,"hash":"979a35daf175f263c1e9b7a68c26677bfbc084a88dad84b80098663a40177650","time":"2022/12/15 18:26:00","txCount":48,"totalFees":13478612,"totalOutput":5439990755008,"slotLeader":"0c2e0c5a062389a3fd6fafddae26344d490866d7a34cad981b20f96b"}],"totalItems":8144046,"totalPages":407203,"currentPage":0}