{"data":[{"blockNo":8402721,"slotNo":84898504,"epochNo":394,"epochSlotNo":53704,"hash":"225388d0abc5803677e6b9476a23c509a76a99128e3ae5f20bdd3a3580cf49e0","time":"2023/02/15 12:39:55","txCount":9,"totalFees":3355247,"totalOutput":1103871555463,"slotLeader":"d5b90a198d2411b5c82fbdfee5f94b86de49a8589bfa7720b9de358f"},{"blockNo":8402720,"slotNo":84898492,"epochNo":394,"epochSlotNo":53692,"hash":"12561d62f5fc7fc7f9337cc6702629d1390c1482cc0285cad580c08490ae528f","time":"2023/02/15 12:39:43","txCount":21,"totalFees":5669075,"totalOutput":552284989286,"slotLeader":"0c2e0c5a062389a3fd6fafddae26344d490866d7a34cad981b20f96b"},{"blockNo":8402719,"slotNo":84898473,"epochNo":394,"epochSlotNo":53673,"hash":"f267174c75eacba7cb0516f778e1c5a56f3815c5518e6349125e450cc405e245","time":"2023/02/15 12:39:24","txCount":37,"totalFees":10811185,"totalOutput":319099549320,"slotLeader":"54f5f2618a3da4bb0b384895d8f3922189acbb8e9637201ebb26bc18"},{"blockNo":8402718,"slotNo":84898428,"epochNo":394,"epochSlotNo":53628,"hash":"03e204334b0c76a8088ed8fbbf71f7957a4b060bdc1a038f39594b3b7edcac35","time":"2023/02/15 12:38:39","txCount":28,"totalFees":9510590,"totalOutput":6946266356068,"slotLeader":"6658713e2cbfa4e347691a0435953f5acbe9f03d330e94caa3a0cfb4"},{"blockNo":8402717,"slotNo":84898394,"epochNo":394,"epochSlotNo":53594,"hash":"0b0ca2a6756500140ad9b7203dfbb37d279eafe606de29f1018e12f819bcaaf3","time":"2023/02/15 12:38:05","txCount":1,"totalFees":169448,"totalOutput":419666952,"slotLeader":"243499b53228f5953bb906c8af0fb996002dd78712e430aa7d116964"},{"blockNo":8402716,"slotNo":84898393,"epochNo":394,"epochSlotNo":53593,"hash":"7a088874c0768711bf42d14a140f0699e8da9f7f942e868de0285b4ae8f09f7f","time":"2023/02/15 12:38:04","txCount":11,"totalFees":2974836,"totalOutput":92689631375,"slotLeader":"eaa778d97077ff7725fe4cbb70b514d840407a45a3c244ac05f6a83d"},{"blockNo":8402715,"slotNo":84898378,"epochNo":394,"epochSlotNo":53578,"hash":"7fcd463546d49a0e964438757d0610070f1056a2df9fc140031f5dcd0bda1687","time":"2023/02/15 12:37:49","txCount":11,"totalFees":3122457,"totalOutput":65011049864,"slotLeader":"768a4abe40bf4ec986087a6f356984da85ac3b8388dfa6840e3cdcf7"},{"blockNo":8402714,"slotNo":84898362,"epochNo":394,"epochSlotNo":53562,"hash":"ddaf5389754aa26ba6b0f0bbef3d2177f4686ec0991598828673ee55317597b1","time":"2023/02/15 12:37:33","txCount":17,"totalFees":3725823,"totalOutput":27967840634447,"slotLeader":"7a990e7ee931f9d548a977d5cf2194f26f7e2f1158752e0bb94a073f"},{"blockNo":8402713,"slotNo":84898358,"epochNo":394,"epochSlotNo":53558,"hash":"44ec5210733b87766358516ff927aaa3d192e9e76d5af529e461d062f40d95d2","time":"2023/02/15 12:37:29","txCount":41,"totalFees":12818684,"totalOutput":25021976794144,"slotLeader":"6c518b4861bb88b1395ceb116342cecbcfb8736282655f9a61c4c368"},{"blockNo":8402712,"slotNo":84898251,"epochNo":394,"epochSlotNo":53451,"hash":"4329716ce67ab5200f0c716f5153be0d0dae310a7ab31b9b9894dc4c86bef6e5","time":"2023/02/15 12:35:42","txCount":3,"totalFees":1240323,"totalOutput":9099039654,"slotLeader":"a0fc643d831b144e1dd289f5acf4274aedc331b6a0e4257ef5376520"},{"blockNo":8402711,"slotNo":84898248,"epochNo":394,"epochSlotNo":53448,"hash":"75a6d6a3ab125006f371ec39060b0f516fe56f11e22197e442a811ab5cb909de","time":"2023/02/15 12:35:39","txCount":6,"totalFees":1354835,"totalOutput":55393796740,"slotLeader":"557fb2fa1a4d61d5ffc613f9f1211a5b22f5c2c3244589adc3168f3d"},{"blockNo":8402710,"slotNo":84898239,"epochNo":394,"epochSlotNo":53439,"hash":"ed25f4824bee64b1038769a99b74b76d9959a1ae561e1f0403ab516e4893fe47","time":"2023/02/15 12:35:30","txCount":3,"totalFees":1738840,"totalOutput":4267368966346,"slotLeader":"463e481957f266d93e4decbfb73003380ab17223e0e569f71c7a525a"},{"blockNo":8402709,"slotNo":84898235,"epochNo":394,"epochSlotNo":53435,"hash":"45753e8948334af5508095d94df5d4d2ecbcd0076e0708774368a480caa30ff9","time":"2023/02/15 12:35:26","txCount":19,"totalFees":4842169,"totalOutput":1141239453059,"slotLeader":"7f6c103302f96390d478a170fe80938b76fccd8a23490e3b6ddebcf7"},{"blockNo":8402708,"slotNo":84898213,"epochNo":394,"epochSlotNo":53413,"hash":"8a29597c9a4f252589e9ac9c83804e97fd13262cb61e3e3e2bbfa096c1eccdfe","time":"2023/02/15 12:35:04","txCount":14,"totalFees":3198232,"totalOutput":72516805128,"slotLeader":"04c60c78417132a195cbb74975346462410f72612952a7c4ade7e438"},{"blockNo":8402707,"slotNo":84898186,"epochNo":394,"epochSlotNo":53386,"hash":"5702e94d2283b36c5119027d348b49eb5b52fbbdb2dcad97782467066f80d0bf","time":"2023/02/15 12:34:37","txCount":2,"totalFees":364178,"totalOutput":509207265,"slotLeader":"c9bc139d73045ba6c5b002ff88ea2a5854b3e783c468adb9250df917"},{"blockNo":8402706,"slotNo":84898183,"epochNo":394,"epochSlotNo":53383,"hash":"5e7b0be20bc25a7968c82da3a053a5f0dfabd963ccb8d538883184c7873bc4f5","time":"2023/02/15 12:34:34","txCount":7,"totalFees":1956702,"totalOutput":435896926233,"slotLeader":"e0ac9f1b68d0621a4e6723f369a50e81f27916acb7cd42bc03eaac93"},{"blockNo":8402705,"slotNo":84898176,"epochNo":394,"epochSlotNo":53376,"hash":"0099524b965995620a34760cc3d95f3b9c1a06419b5b9c19f8447b71698cea69","time":"2023/02/15 12:34:27","txCount":17,"totalFees":5046437,"totalOutput":141291923918,"slotLeader":"b6f7db82bc0ef7491d36bc4dd2b1be43529b04e16d7a6e6137abaad7"},{"blockNo":8402704,"slotNo":84898158,"epochNo":394,"epochSlotNo":53358,"hash":"7f8582e08acac12757d390adf784d19cc3fe0f6643b5b8072935f5a435648fcc","time":"2023/02/15 12:34:09","txCount":11,"totalFees":2617538,"totalOutput":17446004564,"slotLeader":"2146dfb28bb438d70cd5f7532357c81b6ab25d55163094c9618ab8fc"},{"blockNo":8402703,"slotNo":84898134,"epochNo":394,"epochSlotNo":53334,"hash":"6841dceff4ebdda5a6c7ad84db60475bd59efe5a29c88d709e3cf2268e1339cc","time":"2023/02/15 12:33:45","txCount":1,"totalFees":853529,"totalOutput":8140846475,"slotLeader":"7d45120fc9e82f8b69d886057d80630b721e8f033cb8e3f26621d7bd"},{"blockNo":8402702,"slotNo":84898131,"epochNo":394,"epochSlotNo":53331,"hash":"de73808d80a61834ef3a0617d25a9f4c4e2f34269e283282386839c6faf43a54","time":"2023/02/15 12:33:42","txCount":14,"totalFees":4926384,"totalOutput":310536720978,"slotLeader":"caf8502f66536e95138fbf23c14abde1d13090d4aef52b9287f682e8"}],"totalItems":8402897,"totalPages":420145,"currentPage":0}