{"data":[{"txId":28934353,"txHash":"54ba176b9437f73d6c5a205510ebd919156fac43fcc0ae4d55435a5571e4cc9a","txTime":"2022/01/27 20:49:34","block":6809347,"epoch":317,"slotNo":51750283,"epochSlotNo":169483,"stakeKey":"stake1uxpan6ty58lz0nm9qzkxqfqx33j5kva62m9cq7jz2yzgjcqjpuyvk"},{"txId":28934298,"txHash":"0151d460fe97614293750a93c6b4b52430bf958b1367b46eaa5cb7bf95bffa26","txTime":"2022/01/27 20:49:30","block":6809346,"epoch":317,"slotNo":51750279,"epochSlotNo":169479,"stakeKey":"stake1u8xctqttnsh0rnufd0lmy5e4c65z3jcl45tla8rxj8stxwg0a03rc"},{"txId":28933988,"txHash":"bea578cbadce88375fe3eed6a2e62d935c61af08e7666cdbbd994448fba65db9","txTime":"2022/01/27 20:46:05","block":6809336,"epoch":317,"slotNo":51750074,"epochSlotNo":169274,"stakeKey":"stake1u82kzwymv93czp2tn7s3q53lq3ftdjlmxpuqwc8rcancqjqr08x2v"},{"txId":28933789,"txHash":"dc3ecb938c00437fda19f5182d9e95774767cdc67bc14674244d2146dc0eb91c","txTime":"2022/01/27 20:43:01","block":6809329,"epoch":317,"slotNo":51749890,"epochSlotNo":169090,"stakeKey":"stake1uyy8qw06kxrzpys0hkdz9qchsgv2gxkndnl3xdesl4agsngd2l9se"},{"txId":28933780,"txHash":"767a2c78e4095d8f2490d1e9c29ad6bcba9fe71cb232679f342a45ef4cccfc74","txTime":"2022/01/27 20:43:01","block":6809329,"epoch":317,"slotNo":51749890,"epochSlotNo":169090,"stakeKey":"stake1u9mq2nsxc3zqnnptwaafynp5zhydwck3rra9xjn8m2y293cmnzgym"},{"txId":28933767,"txHash":"d1d46b114f91b9e84169d94ac523dee23f1a0fb262b4a57cbdd00afcedd53db9","txTime":"2022/01/27 20:41:58","block":6809328,"epoch":317,"slotNo":51749827,"epochSlotNo":169027,"stakeKey":"stake1ux64j8sq2zdlkledae9cxd726a6kne4kjhp54qu48uafuqsjs5xvp"},{"txId":28933699,"txHash":"8f2da51fd86d297614cf5c23ff273a5cc005136b1f67c194706d03688f8d8ab3","txTime":"2022/01/27 20:41:37","block":6809327,"epoch":317,"slotNo":51749806,"epochSlotNo":169006,"stakeKey":"stake1uxkzpx037607zgpgu00le8z6tjjvg4tu5gn2ajswy624nxcu4y7y6"},{"txId":28933695,"txHash":"6197e0aae701165751ce12e29d5a0448b975b1c23d680517bdba05ffdca992e4","txTime":"2022/01/27 20:41:37","block":6809327,"epoch":317,"slotNo":51749806,"epochSlotNo":169006,"stakeKey":"stake1u8mma202e49jjl7whz8qzzvzyqslgjnpq260nr9ml9yspugp6dvq8"},{"txId":28933673,"txHash":"335775c9004e0bb626e6b904e576c5d023f92774d0da73a7048828e623084b92","txTime":"2022/01/27 20:41:37","block":6809327,"epoch":317,"slotNo":51749806,"epochSlotNo":169006,"stakeKey":"stake1uyycv6flev93806y2exkrsxkx0y79hggqz80hcp66kjdwaqsfype3"},{"txId":28933559,"txHash":"8f717ffd4ec846433ea6242f61200354b74ab0e96955cd60bc1a9b29c6409d60","txTime":"2022/01/27 20:39:50","block":6809322,"epoch":317,"slotNo":51749699,"epochSlotNo":168899,"stakeKey":"stake1u9n5jnjya97zsxlac2qu5ce3f2lr0l9p4znuzs83nu7wp2se9u0kk"},{"txId":28933552,"txHash":"ef7ac99a966f9f5457216bdea6f4dcd13e946813d7cfec1c40e7d880f5ef5b52","txTime":"2022/01/27 20:39:50","block":6809322,"epoch":317,"slotNo":51749699,"epochSlotNo":168899,"stakeKey":"stake1u8esqfgwmnwgk0kevvmexh254869p9l37me2wa7ddnl99gsmajv0h"},{"txId":28933495,"txHash":"66cf44742b02f1db5e61f8051d2ac3ec2af0d26adb1959a02e3f5c5b99827205","txTime":"2022/01/27 20:39:50","block":6809322,"epoch":317,"slotNo":51749699,"epochSlotNo":168899,"stakeKey":"stake1u8g05nquphk7a9szk7x45fpz87upqcfu7p4v9ae2zrywk7gnltzc5"},{"txId":28933327,"txHash":"27bd2322f3e89efadc6d51e9c793ea5a2652f6967bb2abf26847db252ac1eeb0","txTime":"2022/01/27 20:38:19","block":6809317,"epoch":317,"slotNo":51749608,"epochSlotNo":168808,"stakeKey":"stake1u80zaaeuvrga8yuttz06vtyt37jqnfamfr6waa0vntutrmgrkv97l"},{"txId":28932977,"txHash":"af8fbf034bbfb9d3a2000abf47fa0beb892332439464e7b7200efd372e1c69d5","txTime":"2022/01/27 20:37:05","block":6809308,"epoch":317,"slotNo":51749534,"epochSlotNo":168734,"stakeKey":"stake1u9hgd920wkw967vw09c2tdv93xst9n0tqhgm6ndpj2de2mg2dwghf"},{"txId":28932919,"txHash":"ad61e82b0cef97cdd03476d13bc2271ddfb50d3b1780f9c278fce71900ec63f1","txTime":"2022/01/27 20:36:57","block":6809307,"epoch":317,"slotNo":51749526,"epochSlotNo":168726,"stakeKey":"stake1uya4qxwhl6q5mflvcfeqt24zvcy64x0vrs3nv6qqutk4vls7y290u"},{"txId":28932814,"txHash":"cedcc529173cc4aa16b4feb2d16ebb980081362e14061e7dd8cd038313ff4139","txTime":"2022/01/27 20:36:30","block":6809305,"epoch":317,"slotNo":51749499,"epochSlotNo":168699,"stakeKey":"stake1u99plf95akxrtddj9kqsevakerq3xwnchreg43avy9rwthgf7j0tj"},{"txId":28932744,"txHash":"0e152a2a6cd4f550a31a74d70d2f3678b8bc555e68f943f820def4ac78a0677c","txTime":"2022/01/27 20:36:18","block":6809303,"epoch":317,"slotNo":51749487,"epochSlotNo":168687,"stakeKey":"stake1u8zlw567hwg8mzrdwqsem5t0l76v9px8v6t77qy9lk0d2agx3c6e9"},{"txId":28932665,"txHash":"225ee51301efb45c44504f3aa5dce6c6538aef8c3bb34cfa129fd0fa5f8a9114","txTime":"2022/01/27 20:35:49","block":6809300,"epoch":317,"slotNo":51749458,"epochSlotNo":168658,"stakeKey":"stake1ux49u6k5kyevsejqfef2p72kyp8dd4sza2pyqascknv5jlgsaejrp"},{"txId":28932587,"txHash":"146580681f7f57451e51120ab8197baae80433e8d796bb6bd69ef3594868582c","txTime":"2022/01/27 20:33:53","block":6809297,"epoch":317,"slotNo":51749342,"epochSlotNo":168542,"stakeKey":"stake1uxh0f20tfnnztdtw0y5pthk7m797gs8up6wtlqleyxpm3sgn8s0e2"},{"txId":28932576,"txHash":"68a7e3f4a0455eea1f211ad9d30a731760f8cd2e2615ad8ef43808a27aae204d","txTime":"2022/01/27 20:33:53","block":6809297,"epoch":317,"slotNo":51749342,"epochSlotNo":168542,"stakeKey":"stake1u9agmjlelvv0azxu9kzghu34yjtav3wrc3yuwz95k6z04vg0jem3l"}],"totalItems":1375093,"totalPages":68755,"currentPage":0}