{"data":[{"blockNo":8989482,"slotNo":96973444,"epochNo":422,"epochSlotNo":32644,"hash":"673fde81dcf95a63be3af8f1fd5eb8cd014cb79161268907fc634aba1529ef96","time":"2023/07/05 06:48:55","txCount":28,"totalFees":9775269,"totalOutput":1818125276625,"slotLeader":"903c38e5905f1587d5ecf8c875a181725fb4b12b3eb06ce1d20bb1c6"},{"blockNo":8989481,"slotNo":96973399,"epochNo":422,"epochSlotNo":32599,"hash":"02729613ebf1b8dd4b38669a052cc97897de2ffb3ff48f3ae3736cf8b2de9709","time":"2023/07/05 06:48:10","txCount":16,"totalFees":6692235,"totalOutput":39001197511323,"slotLeader":"a503e42a2c6ef347d834fa404fa4d4bfa6dfb48256ff95b067483980"},{"blockNo":8989480,"slotNo":96973380,"epochNo":422,"epochSlotNo":32580,"hash":"1f73e628b959ac62e1c0c17f917b1418d0edc9257dcc420f23ec80822211328b","time":"2023/07/05 06:47:51","txCount":3,"totalFees":847579,"totalOutput":5085032323,"slotLeader":"37d2b23f574680a88198e99cc884b6cf9292ce3500467584cb5093f2"},{"blockNo":8989479,"slotNo":96973378,"epochNo":422,"epochSlotNo":32578,"hash":"c65cce74a6cf3432d1d0df124421f0fd0d3dedf0708b01e24e3af3ce65cd22d2","time":"2023/07/05 06:47:49","txCount":40,"totalFees":12664694,"totalOutput":3221712891390,"slotLeader":"dacdbb3e160587423dc699830ace34969d3280ed48cea25551633e1a"},{"blockNo":8989478,"slotNo":96973347,"epochNo":422,"epochSlotNo":32547,"hash":"3a33334d5b5f146c3b329f7e5c90bb3599fb7905ad7bb57c8b297a9886368a31","time":"2023/07/05 06:47:18","txCount":24,"totalFees":11898234,"totalOutput":6692886327568,"slotLeader":"d785ff6a030ae9d521770c00f264a2aa423e928c85fc620b13d46eda"},{"blockNo":8989477,"slotNo":96973311,"epochNo":422,"epochSlotNo":32511,"hash":"2977e203a1bccd40ef187b8dc046505b332bcc6bbe777141159e0ebcdc5e4865","time":"2023/07/05 06:46:42","txCount":26,"totalFees":11090613,"totalOutput":33825660224083,"slotLeader":"d9e2d181dfe21ab2ca7e95847b9a219e691ee1366d22569712390655"},{"blockNo":8989476,"slotNo":96973309,"epochNo":422,"epochSlotNo":32509,"hash":"c05e9818b5d8452bd1d4c3e92425c8f5a71a268d75bd58e1f5d6d050c9736110","time":"2023/07/05 06:46:40","txCount":21,"totalFees":9451908,"totalOutput":2119351232606,"slotLeader":"df6d366e0d659557f7ce38f1f6015fe5022b15fac72e5c3bd28bc5ed"},{"blockNo":8989475,"slotNo":96973256,"epochNo":422,"epochSlotNo":32456,"hash":"cb1656275fe97badd300798fe9698ba02c514977f747c5f506339400bea78d21","time":"2023/07/05 06:45:47","txCount":36,"totalFees":11458772,"totalOutput":2336596407988,"slotLeader":"65c47f523eecdd5e3c7c0409c4ac97f08d31982b1d67363f7adc919e"},{"blockNo":8989474,"slotNo":96973244,"epochNo":422,"epochSlotNo":32444,"hash":"ed654ec0a69dce18701e86fed463b585e7ab33e21cbf7552a085e68075c587e5","time":"2023/07/05 06:45:35","txCount":19,"totalFees":8836748,"totalOutput":8361892685206,"slotLeader":"df6d366e0d659557f7ce38f1f6015fe5022b15fac72e5c3bd28bc5ed"},{"blockNo":8989473,"slotNo":96973225,"epochNo":422,"epochSlotNo":32425,"hash":"3da94230f347c7c42a07c382a3af4cecd6d50d162942dabf46b02a64c58c1a30","time":"2023/07/05 06:45:16","txCount":19,"totalFees":9453606,"totalOutput":45436303235199,"slotLeader":"d918835729aaab9d4dca82c60079a6c643d65141f909730ecfeb3aef"},{"blockNo":8989472,"slotNo":96973184,"epochNo":422,"epochSlotNo":32384,"hash":"9307ebd8e496a3d42f43d38136fb079b11263bec52a33101b80f78f49dfa514b","time":"2023/07/05 06:44:35","txCount":43,"totalFees":12722922,"totalOutput":2997415667608,"slotLeader":"446109cdad3e7dfc6e0bb4be5ecf25df02fcc2ec8f6df46a3ca2c537"},{"blockNo":8989471,"slotNo":96973179,"epochNo":422,"epochSlotNo":32379,"hash":"d64d10440cc2f4e8f5da5cf782b912849ef7a5e5cbca941bb4b15af70c9b0543","time":"2023/07/05 06:44:30","txCount":32,"totalFees":10274747,"totalOutput":8642011036786,"slotLeader":"fb4b7b76ea6d857f442cb9569d186f328fc846bb83222c3150ec3346"},{"blockNo":8989470,"slotNo":96973107,"epochNo":422,"epochSlotNo":32307,"hash":"66617bd6473e61fa38b648f70643f29062801c1d9c51607a2b8fdd18b3615197","time":"2023/07/05 06:43:18","txCount":23,"totalFees":9817162,"totalOutput":48758283913311,"slotLeader":"6a2eecc8015c24b496c70f60141477f9efcd98cf9dfd0b47d27f5bd5"},{"blockNo":8989469,"slotNo":96973072,"epochNo":422,"epochSlotNo":32272,"hash":"7cad4babd1947d6ce78fe18dd6e2bf5facf3b5f5b6197ebc0fad8616bc89f28c","time":"2023/07/05 06:42:43","txCount":23,"totalFees":8108167,"totalOutput":145400787484,"slotLeader":"000000f66e28b0f18aef20555f4c4954234e3270dfbbdcc13f54e799"},{"blockNo":8989468,"slotNo":96973070,"epochNo":422,"epochSlotNo":32270,"hash":"8990710f92e2253f6e354b26cff453f8bdd600f91bfaeae064383f075d3d2d57","time":"2023/07/05 06:42:41","txCount":37,"totalFees":12281216,"totalOutput":61629779515028,"slotLeader":"a631b46315b1567ef0ce2b2ad4cb63faac09f32ceba6716a7e331e5e"},{"blockNo":8989467,"slotNo":96973054,"epochNo":422,"epochSlotNo":32254,"hash":"7331d764d0672a07894da9fd40ce60e9d566056ef644eb270c751928c99f1d12","time":"2023/07/05 06:42:25","txCount":13,"totalFees":8251290,"totalOutput":17719177161290,"slotLeader":"cfff13497008842ab170eae18ecf43be7eb4fa51bdd503821ddaaf19"},{"blockNo":8989466,"slotNo":96973013,"epochNo":422,"epochSlotNo":32213,"hash":"956165674c80e48cb6111e0328b9f265b49eda8e7848152305c40132f44e30f2","time":"2023/07/05 06:41:44","txCount":32,"totalFees":10984238,"totalOutput":70138228017734,"slotLeader":"3d5f6d2a147cf3c97aed0d7ea973e6a95abdf94255025bdf470c9809"},{"blockNo":8989465,"slotNo":96973004,"epochNo":422,"epochSlotNo":32204,"hash":"0f8eea5d19a43a805bf2ab17a3b50d1cbae870ab099dea76f2d77227b722c243","time":"2023/07/05 06:41:35","txCount":41,"totalFees":14598626,"totalOutput":482770101690,"slotLeader":"99127328c3fed20710b0b807f32b10ccd731125b30de38b9ff973a01"},{"blockNo":8989464,"slotNo":96972979,"epochNo":422,"epochSlotNo":32179,"hash":"91748c0a1d7df1dd30de7a360dbe25e343d483eac31ca09262467b7fe67cab88","time":"2023/07/05 06:41:10","txCount":25,"totalFees":10213438,"totalOutput":2111714444001,"slotLeader":"c974db0e14dc25c261c2aed2fb034922fe279aa7dcc7c1d108e24161"},{"blockNo":8989463,"slotNo":96972930,"epochNo":422,"epochSlotNo":32130,"hash":"2aac7b23acccaf3be7d6db36237fdd17715face5f6be1309bc8092fa80309a0c","time":"2023/07/05 06:40:21","txCount":34,"totalFees":11674123,"totalOutput":33105718723708,"slotLeader":"e5b20e8f9661506710a159e561d40ceb54449fdea1d1130b3bdb36bb"}],"totalItems":8989658,"totalPages":449483,"currentPage":0}