{"data":[{"txId":62017256,"txHash":"976b95278b5b82285fceef87f5ce01ab57d3055df95293c3fddee3e7354452bf","txTime":"2023/02/14 13:28:11","block":8398712,"epoch":393,"slotNo":84815000,"epochSlotNo":402200,"stakeKey":"stake1u9c70e7qllt4mdu5pse3t9l3kkq89paz5znjdme0k6zaanqy63m6e"},{"txId":62017178,"txHash":"17145556441ebff04933b67c933cdc9d7ff6479f78576e77279c1be205176c51","txTime":"2023/02/14 13:26:26","block":8398706,"epoch":393,"slotNo":84814895,"epochSlotNo":402095,"stakeKey":"stake1u94gjfq8fzm695ng67lg84jngsxlv89rgnq2gf2l5sxxdysn80qpm"},{"txId":62017165,"txHash":"0adca40dfc61da23ce2c3c51a4615a0953e54a08fea5c6a06db2f33c2f8e6cab","txTime":"2023/02/14 13:26:04","block":8398704,"epoch":393,"slotNo":84814873,"epochSlotNo":402073,"stakeKey":"stake1uypg7am2p9gucccpevck7vgdvpe223y4lrtjt75h8n9u6dsj66cnv"},{"txId":62016591,"txHash":"7be13709820b3fc8fb59a63cd4f0c9d3b4e6092ccd44e50831df05b52b723954","txTime":"2023/02/14 13:08:46","block":8398659,"epoch":393,"slotNo":84813835,"epochSlotNo":401035,"stakeKey":"stake1u886eg3tcv3xqe5t955k0jjuflys97xf0c5hulmewxrfy8gs7lpny"},{"txId":62016556,"txHash":"1f582e26b65b39b062e0ee84f9e4ad58af529ace92ea0ac69940f6f0f7f3f69c","txTime":"2023/02/14 13:07:48","block":8398655,"epoch":393,"slotNo":84813777,"epochSlotNo":400977,"stakeKey":"stake1u8ks6rqmr4kltcj5l6tc5g3kvnv3nm8hmf6xejnxxnhz3hql9ld2q"},{"txId":62016536,"txHash":"9805f13ada98a3867ab9ca51ddcaad4dd9825f56d388086a357d3eb9f18764d3","txTime":"2023/02/14 13:07:17","block":8398654,"epoch":393,"slotNo":84813746,"epochSlotNo":400946,"stakeKey":"stake1u9r0pcrul2jlakzse3ca5z57lvs9kwgntnc94d8j8qmaxecl35gxv"},{"txId":62016375,"txHash":"4da7e7977aa6f17aae49f46625fc28178ccf71e4deea194372784908df59a1bf","txTime":"2023/02/14 13:02:05","block":8398643,"epoch":393,"slotNo":84813434,"epochSlotNo":400634,"stakeKey":"stake1u95c6pdhjujx00tl3dgz5uzweq270tknqn3ul32n4fq2z9czeqda8"},{"txId":62016258,"txHash":"695f987fd7714bf3a6b0caa7b20325c3207ca37ab4c19aad793022618d74b8c9","txTime":"2023/02/14 12:58:50","block":8398633,"epoch":393,"slotNo":84813239,"epochSlotNo":400439,"stakeKey":"stake1uxvu94shpcxqguql6de63h9c462pympc85ecs3shv2dltwcw3xsmk"},{"txId":62016213,"txHash":"2c8ec170c6542374dcc9af6dbb23252a4ff90197ae195d3f51fe2d8edf8caadb","txTime":"2023/02/14 12:57:08","block":8398627,"epoch":393,"slotNo":84813137,"epochSlotNo":400337,"stakeKey":"stake1u83f7c364qmwrveg38vzp49d6n3ms27lt9p4dnzepl9puxslxq9gh"},{"txId":62015962,"txHash":"4451a0200106f06e0a75965208648417807fbb97111de8c28c6bd1c9a217fdf6","txTime":"2023/02/14 12:49:17","block":8398605,"epoch":393,"slotNo":84812666,"epochSlotNo":399866,"stakeKey":"stake1uy5ecvhgw9n2hjmnp4aasxgexqmj3h5d7rgvnwgs2306a3g4jlsh9"},{"txId":62015953,"txHash":"da8d912691971773a2f88c3155452e2ede494f630ec1328bff1765b8fe4fc7e7","txTime":"2023/02/14 12:49:17","block":8398605,"epoch":393,"slotNo":84812666,"epochSlotNo":399866,"stakeKey":"stake1uy2ktypsjkhv5qy94dy5gf9qpktal5t25r03n6ve3vfjlkslh8taf"},{"txId":62015901,"txHash":"1e416ac434aeae470795b240c9b43772af762badb6571d65ed400a245971c1d5","txTime":"2023/02/14 12:47:09","block":8398594,"epoch":393,"slotNo":84812538,"epochSlotNo":399738,"stakeKey":"stake1uyf8a5576heddlxade9jgkpdnl590yxdz56yez7xcfjjj8czux2n2"},{"txId":62015851,"txHash":"f2264b873f87c88c7ab0355f18401202b44fe5015efeed684e05a76ffcc25532","txTime":"2023/02/14 12:45:29","block":8398591,"epoch":393,"slotNo":84812438,"epochSlotNo":399638,"stakeKey":"stake1u9ya68yg4ea04uhn65axkssxf8u33chwsk7wa5680m5pavq9fykp2"},{"txId":62015834,"txHash":"4aec739c53532d480416a7413a8d9c688c1013372be688c91f25f7bc8a8c0270","txTime":"2023/02/14 12:45:29","block":8398591,"epoch":393,"slotNo":84812438,"epochSlotNo":399638,"stakeKey":"stake1u8ny796etf5nlcxkfjnysyqkvdq53pezcckmhwd7nx643lg24z8ux"},{"txId":62015792,"txHash":"9d6e2b3d96609be8d100f0de65fc6cc06fe7dde3e854858644224df7d5212ddf","txTime":"2023/02/14 12:43:24","block":8398588,"epoch":393,"slotNo":84812313,"epochSlotNo":399513,"stakeKey":"stake1uyts9ztrjcwfmy7x6fv2phgq28xjzlanelaxdjycx92ywpsn9pz8t"},{"txId":62015787,"txHash":"4f38dd17c54f2961cc3a7bda514abad0ba5ae371412fafe45deb052a8f3a73fb","txTime":"2023/02/14 12:42:56","block":8398587,"epoch":393,"slotNo":84812285,"epochSlotNo":399485,"stakeKey":"stake1u9pa45k3sjx5k8sk0zhxh8scgxsr4vwg3awarx68gch6f2qrmxxk8"},{"txId":62015554,"txHash":"56b060deae13c2a1f56f471ba12ef88e43c8e549ec6515e150ee1876a77bf181","txTime":"2023/02/14 12:36:08","block":8398569,"epoch":393,"slotNo":84811877,"epochSlotNo":399077,"stakeKey":"stake1uxuc95z3ndjp2zcp46hrkzemjzvxjlmxuvepdy3k4twgrjqzxluxn"},{"txId":62015456,"txHash":"156525c8ae0074701ff3061bf4f1cdc904a611beeef26e46218ddf34e2124cb1","txTime":"2023/02/14 12:32:50","block":8398563,"epoch":393,"slotNo":84811679,"epochSlotNo":398879,"stakeKey":"stake1uxh6ah8l640xwj8w4tljt8hxamdg828jzg2qhh7j53g24kcpndqxl"},{"txId":62015301,"txHash":"321f0c0db00018861fd4d5dd870bada7d278de9536da2f409a46f2e7611de768","txTime":"2023/02/14 12:29:38","block":8398552,"epoch":393,"slotNo":84811487,"epochSlotNo":398687,"stakeKey":"stake1uyk0a0ewupqtl3evp8ntcf7v7hvgug5t2wy6wg6nzvwcwgqmune4g"},{"txId":62015088,"txHash":"3bd184f9941bc29188607619907c7906efa25cd791e41a3d49dd78ac3b3249b9","txTime":"2023/02/14 12:23:21","block":8398530,"epoch":393,"slotNo":84811110,"epochSlotNo":398310,"stakeKey":"stake1uytafddspv5qc8237uy9vhwpr3n2hanx2jxfn5l4mqcac7c4ud79y"}],"totalItems":1665403,"totalPages":83271,"currentPage":0}