{"data":[{"blockNo":8413733,"slotNo":85132165,"epochNo":394,"epochSlotNo":287365,"hash":"9ed5bcc400ab2c068cd07339737eea21129c4548b18952cf73d2a4431477f7ed","time":"2023/02/18 05:34:16","txCount":13,"totalFees":4970592,"totalOutput":26082630975559,"slotLeader":"fe59e220d8036bd7533bf393e26abde56ec7d49fa632e57bf696d134"},{"blockNo":8413732,"slotNo":85132126,"epochNo":394,"epochSlotNo":287326,"hash":"8df541302d77c6cb1a7f97e450aea94cd652d874053bba16911162ce55ba7736","time":"2023/02/18 05:33:37","txCount":7,"totalFees":2819602,"totalOutput":164401472868,"slotLeader":"b619d366a0acc2e5a8e0f8e373d6eb926a01811f05a381aaa7a8564c"},{"blockNo":8413731,"slotNo":85132113,"epochNo":394,"epochSlotNo":287313,"hash":"5943178c4f1b6aa1b196d53448767d5701fd0d2c0bf78251f0da595ea166a6e2","time":"2023/02/18 05:33:24","txCount":30,"totalFees":9358344,"totalOutput":3947279671161,"slotLeader":"1bdb8db050fb6cfd13a8e34ddec812e0aec77c589f71fc396cd9d950"},{"blockNo":8413730,"slotNo":85132046,"epochNo":394,"epochSlotNo":287246,"hash":"b0f9837379f92080b70ef2dfab010b63dc42889a71af3e479836f974ac7ca197","time":"2023/02/18 05:32:17","txCount":1,"totalFees":255569,"totalOutput":21822137,"slotLeader":"e4abcf4408584601e7c707a8902996c0c291e1a3c8300b327ae3f6ab"},{"blockNo":8413729,"slotNo":85132044,"epochNo":394,"epochSlotNo":287244,"hash":"5a0cc668be45515ef7a26315ac62693ab6e359a8a77c352ff67281d45c5a7a0e","time":"2023/02/18 05:32:15","txCount":6,"totalFees":1342097,"totalOutput":4432003339,"slotLeader":"92bda83eb105d569b23cb6fa1d407dd42de0d2d7e6562718b7ac5c02"},{"blockNo":8413728,"slotNo":85132028,"epochNo":394,"epochSlotNo":287228,"hash":"905c3977428ddd2262f08a1eb38e7e7145cb0744df33a0e380984ffc01315beb","time":"2023/02/18 05:31:59","txCount":5,"totalFees":1230289,"totalOutput":90702247615,"slotLeader":"4b11b32e3a39fb417f5dddd9d058abdb2d1fdcd64360bee8928e05c2"},{"blockNo":8413727,"slotNo":85132017,"epochNo":394,"epochSlotNo":287217,"hash":"bef786003bcad1ccc5dc0b0f4fd30d09dd1437c5108cae041e8e19ac631c250f","time":"2023/02/18 05:31:48","txCount":34,"totalFees":8775891,"totalOutput":1150722398520,"slotLeader":"95c4956f7a137f7fe9c72f2e831e6038744b6307d00143b2447e6443"},{"blockNo":8413726,"slotNo":85131958,"epochNo":394,"epochSlotNo":287158,"hash":"7359f5ad39871e3e163c0c05660ec1cace49d49b0e832c258cedcb4248e4be40","time":"2023/02/18 05:30:49","txCount":1,"totalFees":315700,"totalOutput":137568329,"slotLeader":"d679d78bbfefe7e03e05e7a42f9088075af0f15f501a631c67e64037"},{"blockNo":8413725,"slotNo":85131956,"epochNo":394,"epochSlotNo":287156,"hash":"65201507b83be155efb4013d51a12b8f9d7679ffda00d1b7f0d60f62a76fa241","time":"2023/02/18 05:30:47","txCount":2,"totalFees":368226,"totalOutput":69688162002,"slotLeader":"000006d97fd0415d2dafdbb8b782717a3d3ff32f865792b8df7ddd00"},{"blockNo":8413724,"slotNo":85131953,"epochNo":394,"epochSlotNo":287153,"hash":"8c5e825ded600f18780347a4309525671f2f1fe6c196a09d16e7ddcb15beaeb3","time":"2023/02/18 05:30:44","txCount":21,"totalFees":7170078,"totalOutput":3793976963770,"slotLeader":"5cfc3c3314ffe6748ff3a4ca34b4b841ed81caacfee24c341c21a905"}],"totalItems":13526,"totalPages":1353,"currentPage":0}