{"data":[{"blockNo":8139021,"slotNo":79464050,"epochNo":381,"epochSlotNo":235250,"hash":"e674bd77467f8714e52745ed790848063dc9bf4541128e1f6d0f853af1558f81","time":"2022/12/14 15:05:41","txCount":5,"totalFees":1116034,"totalOutput":3366754442,"slotLeader":"cb11e3e5013a120ee55e8d99bdb7395366bd3164d3da1737300a2b7e"},{"blockNo":8139020,"slotNo":79464044,"epochNo":381,"epochSlotNo":235244,"hash":"d3e001385cc9e243415a316df8658af844819dfbe3b4bbed3c44ac4f13d0a9e2","time":"2022/12/14 15:05:35","txCount":43,"totalFees":13950547,"totalOutput":839784985634,"slotLeader":"03e5b1d3dc6da6101ed402d0ba310d900a110c59627472eb4e34ce24"},{"blockNo":8139019,"slotNo":79464030,"epochNo":381,"epochSlotNo":235230,"hash":"9814c5220ec3eb2bbfc311a67bec79fae64ab5d27daebd27ec31627c0e0d7a96","time":"2022/12/14 15:05:21","txCount":46,"totalFees":14994628,"totalOutput":18836705783290,"slotLeader":"365a5a9c59aa3971d96511a5bce24c4598849d0d3c2d61217dc0b488"},{"blockNo":8139018,"slotNo":79463986,"epochNo":381,"epochSlotNo":235186,"hash":"6528430a1c88ca8872cccdf3787357f35b5596b6fa3dfa6964a8d8ef6a4d436c","time":"2022/12/14 15:04:37","txCount":51,"totalFees":15402585,"totalOutput":3121104983551,"slotLeader":"fc7c663438fd4b61c5d0c064128467a550fd4e721fe6d5f237f5b416"},{"blockNo":8139017,"slotNo":79463911,"epochNo":381,"epochSlotNo":235111,"hash":"322b153a28dd5b60952fc569ac0a1f42a62e099116de930fde903fda0fa83cb2","time":"2022/12/14 15:03:22","txCount":4,"totalFees":762456,"totalOutput":224513063879,"slotLeader":"3c68076a8b81226f6d7da352dda415db00299701624b6cf71d7cc086"},{"blockNo":8139016,"slotNo":79463905,"epochNo":381,"epochSlotNo":235105,"hash":"845c51df6d770e9e4f9b81d86d6f0a838ea2f631c283d4f8dd599e38880ffec0","time":"2022/12/14 15:03:16","txCount":7,"totalFees":2276710,"totalOutput":2448844897,"slotLeader":"c1d314a78a43f3d5baa9c2e4105015384211416f220af4a24a8ea3ee"},{"blockNo":8139015,"slotNo":79463898,"epochNo":381,"epochSlotNo":235098,"hash":"e5bf455462ea60c50edba2f3d16fda9fb61a0058b6a09a6027dbb9850a06937c","time":"2022/12/14 15:03:09","txCount":40,"totalFees":11242061,"totalOutput":9511106468111,"slotLeader":"ac5ba151fae6889e25021acc723b0e34655828bf3328b6f1180e1d65"},{"blockNo":8139014,"slotNo":79463856,"epochNo":381,"epochSlotNo":235056,"hash":"b7f91dc759cdf04f643fae58cc174f39939d55370b5774cc243853830a4a18ae","time":"2022/12/14 15:02:27","txCount":16,"totalFees":5047519,"totalOutput":199283731026,"slotLeader":"ccf9fa7bd7cc72f851effb0e229f7ab163ae670250c38b18dbdd8f8f"},{"blockNo":8139013,"slotNo":79463835,"epochNo":381,"epochSlotNo":235035,"hash":"42a5af23823ff5f67b114ac38dfbfcf3174616f77d0fcfa3fd1687e91f0ae037","time":"2022/12/14 15:02:06","txCount":7,"totalFees":1640974,"totalOutput":16254534532,"slotLeader":"d765dee553a7e041d525b1782a10eb0a5e52e96ed55ed173d8bb82a7"},{"blockNo":8139012,"slotNo":79463832,"epochNo":381,"epochSlotNo":235032,"hash":"854b9fa34c33a17f554baa71abdf1feb019e3f66c98d8d02fc9fd5566db33c00","time":"2022/12/14 15:02:03","txCount":31,"totalFees":10438620,"totalOutput":18325369875570,"slotLeader":"7d45120fc9e82f8b69d886057d80630b721e8f033cb8e3f26621d7bd"}],"totalItems":11428,"totalPages":1143,"currentPage":0}