{"data":[{"txId":62167464,"txHash":"83eaf24f0a4fdb6efcb9cf3aff37476ff2979962d50a827b13930b238ec86782","txTime":"2023/02/16 19:03:56","block":8407722,"epoch":394,"slotNo":85007945,"epochSlotNo":163145,"stakeKey":"stake1uyu4k8uekhj2vl99h605xceakgzg52l9yegc3dhqqjxqvwc9ts3j3"},{"txId":62166935,"txHash":"0721722c1d2f1f0a9e76c2044449a02f87b3a908954555fdd3428f9e3babef3e","txTime":"2023/02/16 18:53:31","block":8407698,"epoch":394,"slotNo":85007320,"epochSlotNo":162520,"stakeKey":"stake1u8th6tdywqtelp8r56j4p43pnwhpes6zvxhvky5yvwz0fcqulvrks"},{"txId":62166658,"txHash":"ec0eb989b51b8c57a73f4e72a085bb827e15bd9df038852a5a85a80019617e9d","txTime":"2023/02/16 18:48:14","block":8407680,"epoch":394,"slotNo":85007003,"epochSlotNo":162203,"stakeKey":"stake1u8l490zuygmxnaz8kfp35gtuayy2m2q6nqjd3km9dqm94ycwlza6m"},{"txId":62166439,"txHash":"a3f7dc7a72cb37bb803165ae95374d4a1e79209c71fa182148a6de5e6d26c056","txTime":"2023/02/16 18:44:19","block":8407672,"epoch":394,"slotNo":85006768,"epochSlotNo":161968,"stakeKey":"stake1u9kwhm6hpketguxmf2tcn4lsjjqkt7g4m0mv59tcv7lcluqku9y2d"},{"txId":62165969,"txHash":"1b94d8cee54c3e1dff8043563b9f3e44012107ad4aa62d02d0c30697fbd0cab6","txTime":"2023/02/16 18:34:18","block":8407644,"epoch":394,"slotNo":85006167,"epochSlotNo":161367,"stakeKey":"stake1uxd608c6lt26eetnv4rgan4u0j3ac3z5vqxz28x4qrjlujcslhvf9"},{"txId":62165708,"txHash":"d738ef0d6fd1d54a9f3eaedfe5deb5f95ae7da2f41f813abdd5cbf57f74a8445","txTime":"2023/02/16 18:29:30","block":8407629,"epoch":394,"slotNo":85005879,"epochSlotNo":161079,"stakeKey":"stake1uxtq6uyductf72gznezu5958z9z3ddp4cfspcrdq0frntecdt8wsl"},{"txId":62165696,"txHash":"415ecc556a7050541b914e39bdd6c2f04567296a3752d11e50576e5e7ff63298","txTime":"2023/02/16 18:29:30","block":8407629,"epoch":394,"slotNo":85005879,"epochSlotNo":161079,"stakeKey":"stake1uxfpk4yr8t23stphlrvrufrsew444wr45kv3w2f8cc46wtsskeuhx"},{"txId":62165600,"txHash":"268b81b8ab6e909dcb349759cd48df67cd4c5a1478c0c23cc30390e8ebcb9e89","txTime":"2023/02/16 18:27:35","block":8407619,"epoch":394,"slotNo":85005764,"epochSlotNo":160964,"stakeKey":"stake1ux83z44anwr4sdwfgst92r5et89khd3sedtx6xaz9jp9e3cmlnx8w"},{"txId":62165072,"txHash":"c09c67333ec84b0b3fd5765f6437a87f4bb7a0fa054d2e13fa8d0df5bee7c6b1","txTime":"2023/02/16 18:17:23","block":8407585,"epoch":394,"slotNo":85005152,"epochSlotNo":160352,"stakeKey":"stake1u8aakewgm344s0j85y3laqfk528jy9aaef9wzw9gn4rxvrqtds9lw"},{"txId":62165064,"txHash":"db5bfebda0f86397d9abbe96b88325c35742b9898fa0202cacde362943f47535","txTime":"2023/02/16 18:17:23","block":8407585,"epoch":394,"slotNo":85005152,"epochSlotNo":160352,"stakeKey":"stake1ux4345e4x46w3cfhmhfxhnczq46vxtrzma92ujts70d7p5qygjwxu"},{"txId":62164897,"txHash":"cbdd5382917062ff0f777c5951beeb8d390fa2a7ec3e08ab573ad3e131fee40e","txTime":"2023/02/16 18:14:56","block":8407578,"epoch":394,"slotNo":85005005,"epochSlotNo":160205,"stakeKey":"stake1u83xvgx0vg6tk44yulhnwjkemlavdz58eunvlcvvfc5a9qscj4r3t"},{"txId":62164802,"txHash":"35fa2b0f81ca337763fbd1e18c76c5d68438689ac55a688d0ac372af4f0b2d1b","txTime":"2023/02/16 18:12:54","block":8407575,"epoch":394,"slotNo":85004883,"epochSlotNo":160083,"stakeKey":"stake1ux3cmzu47qux7madz2takw79yd33r50w40ng0fzs0he7jwc9qc59d"},{"txId":62164702,"txHash":"953b84a21981c8373b368ccbd7ba10d4e0755f02ee302ea99e02b75aaa0b310e","txTime":"2023/02/16 18:11:13","block":8407571,"epoch":394,"slotNo":85004782,"epochSlotNo":159982,"stakeKey":"stake1u84wg6sdwcydy5f58url4h4t0mxdtsflf39hjs3sy38t6xsa4tq6x"},{"txId":62164397,"txHash":"d66a40d1629e876073a01391037d6ec1bd855787d138a217c82b2378f3b14a6b","txTime":"2023/02/16 18:05:30","block":8407554,"epoch":394,"slotNo":85004439,"epochSlotNo":159639,"stakeKey":"stake1uxkd9x7azsmtnmc8yyqeq25jns7kfd6ctmfqxrydld697jst9qfc2"},{"txId":62164280,"txHash":"bb7ea091702ffa5888c4e1469e7f8fc2aa3b268cd3e3ab3f5129537046bc7850","txTime":"2023/02/16 18:03:38","block":8407550,"epoch":394,"slotNo":85004327,"epochSlotNo":159527,"stakeKey":"stake1uxl873w0t79c077syvnats5t9dsuq44m39fhqng8s6gz46gypjc6e"},{"txId":62164167,"txHash":"2d25b57adcac2d462671c735e7cefaec8cec2ef19aa2d23b54d5e4d08e9024b0","txTime":"2023/02/16 18:00:34","block":8407545,"epoch":394,"slotNo":85004143,"epochSlotNo":159343,"stakeKey":"stake1u9jcjmznl76c8wr7jxwsszr4x3gua3unwpxaxgtxdznnc8sn34tzr"},{"txId":62163882,"txHash":"022a9a14f5b8a0c24d7ce92e6789b375157850efc2d3f810284f6e7a96c17e0a","txTime":"2023/02/16 17:53:56","block":8407528,"epoch":394,"slotNo":85003745,"epochSlotNo":158945,"stakeKey":"stake1u9e2we669xr5eyqrm55wnkspm7dd0n3pxgxxnptwr8yv7eswegnhc"},{"txId":62163854,"txHash":"d129bfdee8a82585db362b701ca00fc3f348b56c15dcb701adc39c29cac10dbf","txTime":"2023/02/16 17:53:20","block":8407527,"epoch":394,"slotNo":85003709,"epochSlotNo":158909,"stakeKey":"stake1uykp60uxk3x9t5kellj0z2yurt7thwv56flnwpvdy5h028c8vhwdm"},{"txId":62163721,"txHash":"141d34d049a55fb61b6e94ac1b3bfe40f45f735c5f99967ce82e72914cd1fdce","txTime":"2023/02/16 17:50:23","block":8407521,"epoch":394,"slotNo":85003532,"epochSlotNo":158732,"stakeKey":"stake1u8y2nrsx9hwt6wxhumph9mx32u98rwqt4250fym5wzkv42g79gmml"},{"txId":62163614,"txHash":"3dc60a01a9674a910eec5be18c423ba949069c60a7ede31296dccb3e36989502","txTime":"2023/02/16 17:48:31","block":8407514,"epoch":394,"slotNo":85003420,"epochSlotNo":158620,"stakeKey":"stake1u8ptqsluredjr8r5lfqu8de5qt5rs6pxhj6ds2r3cyrj8zgvfr3r5"}],"totalItems":354033,"totalPages":17702,"currentPage":0}