{"data":[{"blockNo":7837472,"slotNo":73256266,"epochNo":367,"epochSlotNo":75466,"hash":"eb1c78aad7f2fb8fb7fad3d4186749917143c33652e74c9a409e8c30036626ac","time":"2022/10/03 18:42:37","txCount":13,"totalFees":4129621,"totalOutput":210610268726,"slotLeader":"10bc63e4689bd58b8a7d248a99360a45a80d047b0b4752a7b00b754b"},{"blockNo":7837471,"slotNo":73256248,"epochNo":367,"epochSlotNo":75448,"hash":"528ab0a5e5ca604101199ef68abfc0d6e8aabd788938c81039e88fe8cbd5e00c","time":"2022/10/03 18:42:19","txCount":24,"totalFees":7561263,"totalOutput":20850770440,"slotLeader":"6c518b4861bb88b1395ceb116342cecbcfb8736282655f9a61c4c368"},{"blockNo":7837470,"slotNo":73256218,"epochNo":367,"epochSlotNo":75418,"hash":"2ea57aa9881218641bb9d4e5c8fc193ac62d2f3534367fc1c203187e0693d922","time":"2022/10/03 18:41:49","txCount":3,"totalFees":1152967,"totalOutput":9561930096,"slotLeader":"b40683f4baad755ff60f26dc73c3e371ac4c5e422feef2fc1f5f29bf"},{"blockNo":7837469,"slotNo":73256216,"epochNo":367,"epochSlotNo":75416,"hash":"5432e0ecbaf25657158699413b230261a697b63a6dd2edee14afb9d3dc4cdf6a","time":"2022/10/03 18:41:47","txCount":33,"totalFees":13056662,"totalOutput":2373231555579,"slotLeader":"243499b53228f5953bb906c8af0fb996002dd78712e430aa7d116964"},{"blockNo":7837468,"slotNo":73256213,"epochNo":367,"epochSlotNo":75413,"hash":"dbc1628bb4b73472ed361ace05583d0164acdc4390e01523871c11983e516068","time":"2022/10/03 18:41:44","txCount":33,"totalFees":11847041,"totalOutput":38168165521605,"slotLeader":"0019cb5ac91c786a809f4d87622a29d2c7f57f4697f8c8e8457f4de4"},{"blockNo":7837467,"slotNo":73256141,"epochNo":367,"epochSlotNo":75341,"hash":"94f46a7cada7aaac9cb86665381b311270429bf4051ae10165d879c228679f6f","time":"2022/10/03 18:40:32","txCount":14,"totalFees":5037348,"totalOutput":32099995624,"slotLeader":"40960205ad46c9883d32eaf4ab512ab2ea2962d5fd52a4a470df5125"},{"blockNo":7837466,"slotNo":73256121,"epochNo":367,"epochSlotNo":75321,"hash":"e537c515c8890481e9ac3c963b94ed7a64bf0f9dbaa188f47ea57956a8c745ce","time":"2022/10/03 18:40:12","txCount":33,"totalFees":10874987,"totalOutput":1903872608108,"slotLeader":"7a990e7ee931f9d548a977d5cf2194f26f7e2f1158752e0bb94a073f"},{"blockNo":7837465,"slotNo":73256093,"epochNo":367,"epochSlotNo":75293,"hash":"27b9bef8673b0e4504198eabaa16f387d5cc63ce561a67c8f2b6ffe7539d2942","time":"2022/10/03 18:39:44","txCount":15,"totalFees":4766743,"totalOutput":646068035619,"slotLeader":"a532904ca60e13e88437b58e7c6ff66b8d5e7ec8d3f4b9e4be7820ec"},{"blockNo":7837464,"slotNo":73256076,"epochNo":367,"epochSlotNo":75276,"hash":"37dfdd837767e067e7371eaf84c8c8a0978ac8f0dc800035499ac23b37c1ab4d","time":"2022/10/03 18:39:27","txCount":21,"totalFees":8227992,"totalOutput":1541597521132,"slotLeader":"7f6c103302f96390d478a170fe80938b76fccd8a23490e3b6ddebcf7"},{"blockNo":7837463,"slotNo":73256055,"epochNo":367,"epochSlotNo":75255,"hash":"5bc70d992449ac3d1ba7708b4bafccd1c24078e9dfe1814d272db0c5f05bff98","time":"2022/10/03 18:39:06","txCount":31,"totalFees":12155261,"totalOutput":19056310631575,"slotLeader":"49c24284e61ad58c6e59e865c74e9b0a0a36654eb2091ad846e1c4ec"}],"totalItems":3649,"totalPages":365,"currentPage":0}