{"data":[{"hash":"d0dc3acff17b1081e4c3ade491a3206489186c238039424f45b35523aeaef37e","blockNo":8367675,"blockHash":"b8e3a9ef931a4c31c34f7dd6a00ca6d0debabb8bf4655c68766726b2f092deeb","epochNo":392,"epochSlotNo":188387,"slot":84169187,"time":"2023/02/07 02:04:38","addressesInput":["addr1q9nvcvxf8heqcs739je7nruavpahn0dl37z2kdw7dre36ll0ugngcdgzmqf2r4n25kqcljhydjxctc0e6hmpce7x9tds227zds","addr1qynrf987r78hzx9cnzch2ldc3pplgwx9sl52v9ev798qja80ugngcdgzmqf2r4n25kqcljhydjxctc0e6hmpce7x9tdsdjwj5y","addr1qynrf987r78hzx9cnzch2ldc3pplgwx9sl52v9ev798qja80ugngcdgzmqf2r4n25kqcljhydjxctc0e6hmpce7x9tdsdjwj5y"],"addressesOutput":["addr1qyg5yk36ee0rhl5hw5kxcfng5ygrsv55tuchs0nxjmh9uqmpmpaxya7n6kzmyy6f72st0akwx8zg5n6emrxa5mhywg9q3v23dv","addr1qynrf987r78hzx9cnzch2ldc3pplgwx9sl52v9ev798qja80ugngcdgzmqf2r4n25kqcljhydjxctc0e6hmpce7x9tdsdjwj5y","addr1qynrf987r78hzx9cnzch2ldc3pplgwx9sl52v9ev798qja80ugngcdgzmqf2r4n25kqcljhydjxctc0e6hmpce7x9tdsdjwj5y"],"fee":310437,"totalOutput":289701219,"tokens":[]},{"hash":"80fbd78a9c2c198b4144d62cddce69a0c8f3820abc1e05829c2ee7c7b7b364b4","blockNo":8367675,"blockHash":"b8e3a9ef931a4c31c34f7dd6a00ca6d0debabb8bf4655c68766726b2f092deeb","epochNo":392,"epochSlotNo":188387,"slot":84169187,"time":"2023/02/07 02:04:38","addressesInput":["addr1qy26xcp7hm2gfrdhedndsrtlx2d54h9enwnm83820k5hpgundl7nay3q9q9zrc5chgk6penkdmwxsaqtt7gy669t7awquzdhmr","addr1qy26xcp7hm2gfrdhedndsrtlx2d54h9enwnm83820k5hpgundl7nay3q9q9zrc5chgk6penkdmwxsaqtt7gy669t7awquzdhmr"],"addressesOutput":["addr1zxgx3far7qygq0k6epa0zcvcvrevmn0ypsnfsue94nsn3tvpw288a4x0xf8pxgcntelxmyclq83s0ykeehchz2wtspks905plm","addr1qy26xcp7hm2gfrdhedndsrtlx2d54h9enwnm83820k5hpgundl7nay3q9q9zrc5chgk6penkdmwxsaqtt7gy669t7awquzdhmr","addr1qy26xcp7hm2gfrdhedndsrtlx2d54h9enwnm83820k5hpgundl7nay3q9q9zrc5chgk6penkdmwxsaqtt7gy669t7awquzdhmr"],"fee":227453,"totalOutput":35622843,"tokens":[]},{"hash":"834427acf0bc6d13f854fdec1a5ed629835fda1c05d4c785c957533e7617bd95","blockNo":8367675,"blockHash":"b8e3a9ef931a4c31c34f7dd6a00ca6d0debabb8bf4655c68766726b2f092deeb","epochNo":392,"epochSlotNo":188387,"slot":84169187,"time":"2023/02/07 02:04:38","addressesInput":["addr1qyzlazpage4shn25l4rgqd2hz7pr9966jvx34qhlt7upuf7feqzunfuzdvas294dmd6d265aep7u87eg8ypwx4flq84q7y2j5x"],"addressesOutput":["addr1vyg95835ltneae9jf9gy8cmewk6h9xyuw4tf097tayzllgsr8cpgd","addr1qyzlazpage4shn25l4rgqd2hz7pr9966jvx34qhlt7upuf7feqzunfuzdvas294dmd6d265aep7u87eg8ypwx4flq84q7y2j5x"],"fee":168185,"totalOutput":1662693920,"tokens":[]},{"hash":"8c3ebecdd0b155cc0d8a363701c95cb5914ea28dc31ebdd007f9189cc06d1c29","blockNo":8367675,"blockHash":"b8e3a9ef931a4c31c34f7dd6a00ca6d0debabb8bf4655c68766726b2f092deeb","epochNo":392,"epochSlotNo":188387,"slot":84169187,"time":"2023/02/07 02:04:38","addressesInput":["addr1q8lv3nd9h5u8nqgh7l7nt056c2ml6epksfuc20evxk20wspnsll8wwpgkzyzplegc4rf0e2tv5zpatak4ku8pfxgjarq5cw9a6"],"addressesOutput":["addr1wxn9efv2f6w82hagxqtn62ju4m293tqvw0uhmdl64ch8uwc0h43gt","addr1q9uyl5aunhp5q5rnszl3lssud0jddxmdda9ewunuv7zr4pfnsll8wwpgkzyzplegc4rf0e2tv5zpatak4ku8pfxgjarqjc2qsq","addr1q9uyl5aunhp5q5rnszl3lssud0jddxmdda9ewunuv7zr4pfnsll8wwpgkzyzplegc4rf0e2tv5zpatak4ku8pfxgjarqjc2qsq"],"fee":190185,"totalOutput":287711078,"tokens":[]},{"hash":"58f5c71438f05c8890abf16c5aeb12581398c7a9a672c67e3febd35b6533ef3e","blockNo":8367675,"blockHash":"b8e3a9ef931a4c31c34f7dd6a00ca6d0debabb8bf4655c68766726b2f092deeb","epochNo":392,"epochSlotNo":188387,"slot":84169187,"time":"2023/02/07 02:04:38","addressesInput":["addr1q8vt88ny407pa3vf7vlklrl8wy03negs4pc09d50562ysczwpmf68ursp99hrm3u3uhke9dgzvhqg43wj9yrdyhtyy8surdgtj"],"addressesOutput":["addr1wxn9efv2f6w82hagxqtn62ju4m293tqvw0uhmdl64ch8uwc0h43gt","addr1q9nhs8y6yjatyep84wgft6964dg0twfm4zw75ugaqa7m72zwpmf68ursp99hrm3u3uhke9dgzvhqg43wj9yrdyhtyy8st5fk0u"],"fee":183453,"totalOutput":341631246,"tokens":[]},{"hash":"62e17ce0d09c9f4ea1fa2f256a0d3b2a433a7f1b76082629f5db9926b09a3923","blockNo":8367675,"blockHash":"b8e3a9ef931a4c31c34f7dd6a00ca6d0debabb8bf4655c68766726b2f092deeb","epochNo":392,"epochSlotNo":188387,"slot":84169187,"time":"2023/02/07 02:04:38","addressesInput":["addr1zxgx3far7qygq0k6epa0zcvcvrevmn0ypsnfsue94nsn3tvpw288a4x0xf8pxgcntelxmyclq83s0ykeehchz2wtspks905plm","addr1qypqjuvkv9spmgjnxrmyfjycrpau6v02u9mcnq5pc6xudz3yyutyu0g463h4xqdvt0fhkwu5q7w3mmpvkrtk87ev94lqdtqr7u"],"addressesOutput":["addr1qypqjuvkv9spmgjnxrmyfjycrpau6v02u9mcnq5pc6xudz3yyutyu0g463h4xqdvt0fhkwu5q7w3mmpvkrtk87ev94lqdtqr7u","addr1qypqjuvkv9spmgjnxrmyfjycrpau6v02u9mcnq5pc6xudz3yyutyu0g463h4xqdvt0fhkwu5q7w3mmpvkrtk87ev94lqdtqr7u"],"fee":268383,"totalOutput":562467720,"tokens":[]},{"hash":"e11b69e8e4cd84bfdb65cf5a498662c4b4ce8f22048bd166773dd81799e74e46","blockNo":8367675,"blockHash":"b8e3a9ef931a4c31c34f7dd6a00ca6d0debabb8bf4655c68766726b2f092deeb","epochNo":392,"epochSlotNo":188387,"slot":84169187,"time":"2023/02/07 02:04:38","addressesInput":["addr1qx8nzxw79zuz950splmkrfxcpevwnp6vw96hut6gtjysw3469k4q0ks4h236fuscl85y5ptms9nsfq89y6a60uf5hrpshnzqxh","addr1q8gqarkxy3k5xu4k8ywlur5z6pp0f9eev4ps08wz3zdjkwm6jsglxzcktpmlgc9lhgh48fcge3wwkthk98whdx2a9mss54dtup"],"addressesOutput":["addr1qx8nzxw79zuz950splmkrfxcpevwnp6vw96hut6gtjysw3469k4q0ks4h236fuscl85y5ptms9nsfq89y6a60uf5hrpshnzqxh","addr1qx8nzxw79zuz950splmkrfxcpevwnp6vw96hut6gtjysw3469k4q0ks4h236fuscl85y5ptms9nsfq89y6a60uf5hrpshnzqxh","addr1q8gqarkxy3k5xu4k8ywlur5z6pp0f9eev4ps08wz3zdjkwm6jsglxzcktpmlgc9lhgh48fcge3wwkthk98whdx2a9mss54dtup","addr1qxsgae4x0z3q0hjjqcwya7vzp9f9ex52lrly0wadmfgvhpfyzttqmp0evfcrwxkda77m5lg8c9ta2aafdf83jxyvhw3sgp9v30"],"fee":200349,"totalOutput":128617461,"tokens":[]},{"hash":"b51627f2b1ca885054615b553b65b51d3d740e2ad962e43eaf00ee7bcafb8c39","blockNo":8367675,"blockHash":"b8e3a9ef931a4c31c34f7dd6a00ca6d0debabb8bf4655c68766726b2f092deeb","epochNo":392,"epochSlotNo":188387,"slot":84169187,"time":"2023/02/07 02:04:38","addressesInput":["addr1qyhktsa4zenscyztn3kfkw7tuggkflash7pwt4p7r24hnkpryzl8anw078sddezj4fgsauzlc0r7vegn0axs2px2k22sj2d24c","addr1q8p6tynqaq397k0d33r26lzvp6s0qg50wwwsmfyhjg0d0leryzl8anw078sddezj4fgsauzlc0r7vegn0axs2px2k22s8xwz73","addr1q8p6tynqaq397k0d33r26lzvp6s0qg50wwwsmfyhjg0d0leryzl8anw078sddezj4fgsauzlc0r7vegn0axs2px2k22s8xwz73","addr1q9paes3zuwchk28t8ym67v3ncwj6qzhlq4kr5surd7pnwk3ryzl8anw078sddezj4fgsauzlc0r7vegn0axs2px2k22s922frs","addr1q8p6tynqaq397k0d33r26lzvp6s0qg50wwwsmfyhjg0d0leryzl8anw078sddezj4fgsauzlc0r7vegn0axs2px2k22s8xwz73"],"addressesOutput":["addr1wxn9efv2f6w82hagxqtn62ju4m293tqvw0uhmdl64ch8uwc0h43gt","addr1q8p6tynqaq397k0d33r26lzvp6s0qg50wwwsmfyhjg0d0leryzl8anw078sddezj4fgsauzlc0r7vegn0axs2px2k22s8xwz73","addr1qx7f680u87rsjynh6l9l9vu0m5j9w57xpk9f0sjmamelqmpryzl8anw078sddezj4fgsauzlc0r7vegn0axs2px2k22sk4h2nw"],"fee":203957,"totalOutput":682297370,"tokens":[]},{"hash":"960b7d95bb7703e039741754b410698e4b23d97d160f29fde15ccfb1099386bf","blockNo":8367675,"blockHash":"b8e3a9ef931a4c31c34f7dd6a00ca6d0debabb8bf4655c68766726b2f092deeb","epochNo":392,"epochSlotNo":188387,"slot":84169187,"time":"2023/02/07 02:04:38","addressesInput":["addr1q9u953fnzm49r5n4cgud73k27px9ufsspjmtn5wsc4jax9uhkgdcqkt05zensa20n4wpt34n278l68g79yya3lz9ugyqcnux9t","addr1q9u953fnzm49r5n4cgud73k27px9ufsspjmtn5wsc4jax9uhkgdcqkt05zensa20n4wpt34n278l68g79yya3lz9ugyqcnux9t"],"addressesOutput":["addr1wxn9efv2f6w82hagxqtn62ju4m293tqvw0uhmdl64ch8uwc0h43gt","addr1q9u953fnzm49r5n4cgud73k27px9ufsspjmtn5wsc4jax9uhkgdcqkt05zensa20n4wpt34n278l68g79yya3lz9ugyqcnux9t"],"fee":193045,"totalOutput":974385244,"tokens":[]},{"hash":"619fdb9b67481b7c6bdc9fff1120042caeace13ef60bcc6973a56172eeac891a","blockNo":8367675,"blockHash":"b8e3a9ef931a4c31c34f7dd6a00ca6d0debabb8bf4655c68766726b2f092deeb","epochNo":392,"epochSlotNo":188387,"slot":84169187,"time":"2023/02/07 02:04:38","addressesInput":["addr1qxkmr0m22xeqludcg5rjdmecjxasu9fat0680qehtcsnftaadgykewa9ufvegeuca9yyq03d9v7ea2y2zthgu7hfgjtsddp6gr","addr1qxkmr0m22xeqludcg5rjdmecjxasu9fat0680qehtcsnftaadgykewa9ufvegeuca9yyq03d9v7ea2y2zthgu7hfgjtsddp6gr","addr1qxkmr0m22xeqludcg5rjdmecjxasu9fat0680qehtcsnftaadgykewa9ufvegeuca9yyq03d9v7ea2y2zthgu7hfgjtsddp6gr"],"addressesOutput":["addr1qxkmr0m22xeqludcg5rjdmecjxasu9fat0680qehtcsnftaadgykewa9ufvegeuca9yyq03d9v7ea2y2zthgu7hfgjtsddp6gr","addr1q8y62m6vmscezaq7jqq56t3vtgth22vjf77xjnr0ey6d76g48n0tghylakghtypn06phlqpsmcca5q3jly5w55mkx8yquff4tc","addr1qxkmr0m22xeqludcg5rjdmecjxasu9fat0680qehtcsnftaadgykewa9ufvegeuca9yyq03d9v7ea2y2zthgu7hfgjtsddp6gr"],"fee":243205,"totalOutput":56240764860,"tokens":[]},{"hash":"d5869ab2cd1300aac437ac5e847b8f99faa0d4011402ad8c64d81d971bb4d9dc","blockNo":8367675,"blockHash":"b8e3a9ef931a4c31c34f7dd6a00ca6d0debabb8bf4655c68766726b2f092deeb","epochNo":392,"epochSlotNo":188387,"slot":84169187,"time":"2023/02/07 02:04:38","addressesInput":["addr1qx9l98vpz20z2dnpx3huw2up0gpfeev9a5uctltld4yv53ah5z526ff6u8yl5wqv9meafaagmmwa86hj880mvl4lywqqvdrsld","addr1qx9l98vpz20z2dnpx3huw2up0gpfeev9a5uctltld4yv53ah5z526ff6u8yl5wqv9meafaagmmwa86hj880mvl4lywqqvdrsld"],"addressesOutput":["addr1zyq0kyrml023kwjk8zr86d5gaxrt5w8lxnah8r6m6s4jp4g3r6dxnzml343sx8jweqn4vn3fz2kj8kgu9czghx0jrsyqqktyhv","addr1qx9l98vpz20z2dnpx3huw2up0gpfeev9a5uctltld4yv53ah5z526ff6u8yl5wqv9meafaagmmwa86hj880mvl4lywqqvdrsld"],"fee":190845,"totalOutput":898053477,"tokens":[]},{"hash":"5a19d1c0e85cb1209960a36ff5f6a60578f29c42f72f8420589efe49f22d4ad2","blockNo":8367675,"blockHash":"b8e3a9ef931a4c31c34f7dd6a00ca6d0debabb8bf4655c68766726b2f092deeb","epochNo":392,"epochSlotNo":188387,"slot":84169187,"time":"2023/02/07 02:04:38","addressesInput":["addr1w9qzpelu9hn45pefc0xr4ac4kdxeswq7pndul2vuj59u8tqaxdznu","addr1v94q2nrfagvrqzc0evesupagk4spt524yle35dsmrvffrhskezvv2","addr1v94q2nrfagvrqzc0evesupagk4spt524yle35dsmrvffrhskezvv2","addr1wxaptpmxcxawvr3pzlhgnpmzz3ql43n2tc8mn3av5kx0yzs09tqh8"],"addressesOutput":["addr1w9qzpelu9hn45pefc0xr4ac4kdxeswq7pndul2vuj59u8tqaxdznu","addr1w9jx45flh83z6wuqypyash54mszwmdj8r64fydafxtfc6jgrw4rm3","addr1qx9l98vpz20z2dnpx3huw2up0gpfeev9a5uctltld4yv53ah5z526ff6u8yl5wqv9meafaagmmwa86hj880mvl4lywqqvdrsld","addr1v94q2nrfagvrqzc0evesupagk4spt524yle35dsmrvffrhskezvv2","addr1v94q2nrfagvrqzc0evesupagk4spt524yle35dsmrvffrhskezvv2"],"fee":1172520,"totalOutput":22182583309,"tokens":[]},{"hash":"e22fb59708ab66106677232ec90c8077e5aa1a068f196820dcdd1ab2d5ae7d02","blockNo":8367675,"blockHash":"b8e3a9ef931a4c31c34f7dd6a00ca6d0debabb8bf4655c68766726b2f092deeb","epochNo":392,"epochSlotNo":188387,"slot":84169187,"time":"2023/02/07 02:04:38","addressesInput":["addr1q9atjfpqwdtg7ytz0pz9zcaqvx8zr2uv6ysvc4csqynr683dzefudzxhadht99nh8gv4l3z93d486ygllgxuh2drrrpsdw6fws","addr1q95d2jwu9n7s8p824wtmst0yjrlar4gudytnkvzuvemezqedzefudzxhadht99nh8gv4l3z93d486ygllgxuh2drrrpsg2fww8","addr1q887llxj8s9a7d585kzdax7gzwkmk9hqwg07m48443tj65pdzefudzxhadht99nh8gv4l3z93d486ygllgxuh2drrrpsg48ejr","addr1q9atjfpqwdtg7ytz0pz9zcaqvx8zr2uv6ysvc4csqynr683dzefudzxhadht99nh8gv4l3z93d486ygllgxuh2drrrpsdw6fws","addr1q8e8zzwyjy36mq3q2fzxslz4l4vl4qjv9jaalzkjaq80gwfdzefudzxhadht99nh8gv4l3z93d486ygllgxuh2drrrpsufursg","addr1q9atjfpqwdtg7ytz0pz9zcaqvx8zr2uv6ysvc4csqynr683dzefudzxhadht99nh8gv4l3z93d486ygllgxuh2drrrpsdw6fws","addr1q9mfqpjvzpmsxlnpqwrt8gtcs6gnar6xdasugg4v5ct3nwedzefudzxhadht99nh8gv4l3z93d486ygllgxuh2drrrpsglczmc","addr1q8wngpfuj64w3ewrmnver0mvxfnlavd7wdqyjn9xkxnf3sfdzefudzxhadht99nh8gv4l3z93d486ygllgxuh2drrrpscn5ux2","addr1qxce3vak5wjgyzhx0f4dl9ylw7y5x93vjehrw6h40ws9zafdzefudzxhadht99nh8gv4l3z93d486ygllgxuh2drrrps30r4pw","addr1q9car47tdreppvcnwmju0sjns2gml5c2mlx70tt25suxat3dzefudzxhadht99nh8gv4l3z93d486ygllgxuh2drrrpss9ayfa","addr1qxu8mw23x76mlph2enmqsc6kxvt3de7f8wudml5j3kshxeedzefudzxhadht99nh8gv4l3z93d486ygllgxuh2drrrpsrt7f6z","addr1q9atjfpqwdtg7ytz0pz9zcaqvx8zr2uv6ysvc4csqynr683dzefudzxhadht99nh8gv4l3z93d486ygllgxuh2drrrpsdw6fws","addr1qxqflkgwtlwsfjdcj2w63lgnk9pkz0p7twu2v25q0jc908pdzefudzxhadht99nh8gv4l3z93d486ygllgxuh2drrrpslv7q54","addr1q9atjfpqwdtg7ytz0pz9zcaqvx8zr2uv6ysvc4csqynr683dzefudzxhadht99nh8gv4l3z93d486ygllgxuh2drrrpsdw6fws","addr1q9rxk59traccuc2ga7ll0dqa63za8vns4g45qyw044jsgcfdzefudzxhadht99nh8gv4l3z93d486ygllgxuh2drrrps06ae8l","addr1qyckh5w7e5u425mtzq0d8jlcr5cn2aky6vgvx5l3kq9tf8pdzefudzxhadht99nh8gv4l3z93d486ygllgxuh2drrrps5kqe5t"],"addressesOutput":["addr1qxs095m0zekhsusnwdz4cz0huzygu7pk76rqymp0vxl7l0ltn0cy2p4tlyy9g8efuu3vptgw60e2nh5jsver3ylqcdnqspstnh","addr1q9fu8722e7cg6cckfnljp3vtg7v8y3md0jw3dlyaycra2tx2l9r8fplqzj5ntxm8772ygmqtn6hqh7vfrgscjlryn4wqesvpj5","addr1q836qf2vqzv57uc42rupyw039fsvnlfuaxumry25x9fwcg43hmpsthwgqxya4j9k9rhq4ha72fzu2wuyueuw6lkz846sde0a0x","addr1qy30kpt99a7j2v9y8hmrsrt0yprw7csyc5tgl85kd5cfqz3dzefudzxhadht99nh8gv4l3z93d486ygllgxuh2drrrps64ghw5","addr1q8l03yhl65x2awt0ygz7y58mlyd5w869kx0u6hpydygkq6fdzefudzxhadht99nh8gv4l3z93d486ygllgxuh2drrrpsp23823","addr1q88j4nlp9qyk5v8w8ctsyjkp57jyt9xpmalfml94qaaz69edzefudzxhadht99nh8gv4l3z93d486ygllgxuh2drrrpspwdt7x"],"fee":274929,"totalOutput":98326219859,"tokens":[]},{"hash":"404c75d6574dc873ff31cda40444d4f6ecfc0267e16a163c0b2e72cdc964bf4e","blockNo":8367675,"blockHash":"b8e3a9ef931a4c31c34f7dd6a00ca6d0debabb8bf4655c68766726b2f092deeb","epochNo":392,"epochSlotNo":188387,"slot":84169187,"time":"2023/02/07 02:04:38","addressesInput":["addr1qxx2s0lpwgwepuzpdadp6etwcyve5e3uqu7xdnjspkj3mlzvwmfegq4nrjxcvtvv7kkeqhyqngr3xhpqrjf75pstfkrsc7txqn","addr1qxx2s0lpwgwepuzpdadp6etwcyve5e3uqu7xdnjspkj3mlzvwmfegq4nrjxcvtvv7kkeqhyqngr3xhpqrjf75pstfkrsc7txqn","addr1qxx2s0lpwgwepuzpdadp6etwcyve5e3uqu7xdnjspkj3mlzvwmfegq4nrjxcvtvv7kkeqhyqngr3xhpqrjf75pstfkrsc7txqn","addr1qxx2s0lpwgwepuzpdadp6etwcyve5e3uqu7xdnjspkj3mlzvwmfegq4nrjxcvtvv7kkeqhyqngr3xhpqrjf75pstfkrsc7txqn","addr1qxx2s0lpwgwepuzpdadp6etwcyve5e3uqu7xdnjspkj3mlzvwmfegq4nrjxcvtvv7kkeqhyqngr3xhpqrjf75pstfkrsc7txqn","addr1qxx2s0lpwgwepuzpdadp6etwcyve5e3uqu7xdnjspkj3mlzvwmfegq4nrjxcvtvv7kkeqhyqngr3xhpqrjf75pstfkrsc7txqn"],"addressesOutput":["addr1qxy8pzlpnng5tazvw80epllufjwg7gqn2asy4fwam986wjzwz7au95y8m84zhg3eznapf3szhhqsrtj8gl6449df5jwq06q6px","addr1q94zemkq4fk8uqy5t05arvzjcztx3gelg4y5lj6wp8ac6v2vwmfegq4nrjxcvtvv7kkeqhyqngr3xhpqrjf75pstfkrsxj57lt"],"fee":178833,"totalOutput":2485647021,"tokens":[]},{"hash":"07ac92e0891c68e2c129bde0b9ae7da793e73d5724f676b1d5416e91a9dc8e49","blockNo":8367675,"blockHash":"b8e3a9ef931a4c31c34f7dd6a00ca6d0debabb8bf4655c68766726b2f092deeb","epochNo":392,"epochSlotNo":188387,"slot":84169187,"time":"2023/02/07 02:04:38","addressesInput":["addr1qy6ku0zku46jytefq4cxyc3w6225smy7k8djerewcsvzd97zsycxqzdya8e02r5d0lx5wq6sna7evrrqwryz4xszfmqs7jzwe9"],"addressesOutput":["addr1q82lcvk44h6g7438hr32svq7gxk9e8l3r8qrmx8ylz4f86kzsycxqzdya8e02r5d0lx5wq6sna7evrrqwryz4xszfmqsuzkw2d"],"fee":176105,"totalOutput":20412227,"tokens":[]},{"hash":"256b168efff3d4ce660c8ce662da363db9b9dceed5b9843a68f4f9cd0c93edfb","blockNo":8367675,"blockHash":"b8e3a9ef931a4c31c34f7dd6a00ca6d0debabb8bf4655c68766726b2f092deeb","epochNo":392,"epochSlotNo":188387,"slot":84169187,"time":"2023/02/07 02:04:38","addressesInput":["addr1wxc45xspppp73takl93mq029905ptdfnmtgv6g7cr8pdyqgvks3s8","addr1wxc45xspppp73takl93mq029905ptdfnmtgv6g7cr8pdyqgvks3s8","addr1q988a2csc2qwer7w2jyh2c2yalmyylpgc3ygffd3gjx4qhpg4z6cm5q5jkappfj3xmg3v2wdujzctxw62w3vjjk0rc4qqj6tjt","addr1wxc45xspppp73takl93mq029905ptdfnmtgv6g7cr8pdyqgvks3s8","addr1wxc45xspppp73takl93mq029905ptdfnmtgv6g7cr8pdyqgvks3s8"],"addressesOutput":["addr1wxc45xspppp73takl93mq029905ptdfnmtgv6g7cr8pdyqgvks3s8","addr1wxc45xspppp73takl93mq029905ptdfnmtgv6g7cr8pdyqgvks3s8","addr1wxc45xspppp73takl93mq029905ptdfnmtgv6g7cr8pdyqgvks3s8","addr1wxc45xspppp73takl93mq029905ptdfnmtgv6g7cr8pdyqgvks3s8","addr1qxkmr0m22xeqludcg5rjdmecjxasu9fat0680qehtcsnftaadgykewa9ufvegeuca9yyq03d9v7ea2y2zthgu7hfgjtsddp6gr","addr1q988a2csc2qwer7w2jyh2c2yalmyylpgc3ygffd3gjx4qhpg4z6cm5q5jkappfj3xmg3v2wdujzctxw62w3vjjk0rc4qqj6tjt"],"fee":833185,"totalOutput":6912518663,"tokens":[]},{"hash":"2bc3e741921231e521b4080595b8a9df5e01677129cf875cf1120bf609f385b3","blockNo":8367674,"blockHash":"67267685176c05bfeafe9a2b4803b4ec399e3771143b72dcd56b19da2470dd32","epochNo":392,"epochSlotNo":188370,"slot":84169170,"time":"2023/02/07 02:04:21","addressesInput":["addr1qxehxvfggazsrp9yd7rkl2jgda3ycpyn8rqcqxt7ravzzztjpyltsv33wcndk5t2q443p4wkzenlcz0ysmwweywt4y8sl9zs9u","addr1qxehxvfggazsrp9yd7rkl2jgda3ycpyn8rqcqxt7ravzzztjpyltsv33wcndk5t2q443p4wkzenlcz0ysmwweywt4y8sl9zs9u"],"addressesOutput":["addr1zxgx3far7qygq0k6epa0zcvcvrevmn0ypsnfsue94nsn3tvpw288a4x0xf8pxgcntelxmyclq83s0ykeehchz2wtspks905plm","addr1qxehxvfggazsrp9yd7rkl2jgda3ycpyn8rqcqxt7ravzzztjpyltsv33wcndk5t2q443p4wkzenlcz0ysmwweywt4y8sl9zs9u","addr1qxehxvfggazsrp9yd7rkl2jgda3ycpyn8rqcqxt7ravzzztjpyltsv33wcndk5t2q443p4wkzenlcz0ysmwweywt4y8sl9zs9u"],"fee":413001,"totalOutput":25933123,"tokens":[]},{"hash":"f2db616a7875c60ebfc12f859a8bace1cd8687a8887517a2d6876f731a5eb096","blockNo":8367674,"blockHash":"67267685176c05bfeafe9a2b4803b4ec399e3771143b72dcd56b19da2470dd32","epochNo":392,"epochSlotNo":188370,"slot":84169170,"time":"2023/02/07 02:04:21","addressesInput":["addr1qxnv34a8k5wkaj3a4gud86gsm67rxck4sq4l4sne2mzv977dn20j97unlnnljgxv79h8nrjent77dx8kenypal9m76qssslj5t","addr1q8xq5rywmsste0cezdh4gdmzcgtd8r28c25cnvpldhdaf4wdn20j97unlnnljgxv79h8nrjent77dx8kenypal9m76qsgl8g4h"],"addressesOutput":["addr1wxn9efv2f6w82hagxqtn62ju4m293tqvw0uhmdl64ch8uwc0h43gt","addr1q8xq5rywmsste0cezdh4gdmzcgtd8r28c25cnvpldhdaf4wdn20j97unlnnljgxv79h8nrjent77dx8kenypal9m76qsgl8g4h","addr1q9d2uzdre32geen4swz8cd3wyq0n943tmndq8g2zknkxf4wdn20j97unlnnljgxv79h8nrjent77dx8kenypal9m76qs65u2xr"],"fee":192605,"totalOutput":7478283830,"tokens":[]},{"hash":"c5962f90b6e8ec8fe6f976face07e9413edb34a1270b21e71662486194a7a22c","blockNo":8367674,"blockHash":"67267685176c05bfeafe9a2b4803b4ec399e3771143b72dcd56b19da2470dd32","epochNo":392,"epochSlotNo":188370,"slot":84169170,"time":"2023/02/07 02:04:21","addressesInput":["addr1q9pksfczxc8ut2uax8tw29hns7u2upurwsd8de4fk5l0ee80wf27vf9ysvywvwtvyuclfu29fj6cwjjsaxaktywr7nsqh2ey5l","addr1qxlz6sj6dz0v8u5wvafnjr9r3qm063gdc3ngngmugwq6xrl0wf27vf9ysvywvwtvyuclfu29fj6cwjjsaxaktywr7nsq54vamk"],"addressesOutput":["addr1qxxn877rgpv8zslk9r3xmsg0h628pmxdlvdpqdhnnuvja89kqndtrk2rcspguvakjz2dtexzwmcl0d8suerk5n89h63qm500vs","addr1q94vzfh7nfw2jxsrv93cfr4vtayad9mmzs8ls07zh00htyh0wf27vf9ysvywvwtvyuclfu29fj6cwjjsaxaktywr7nsqjxqs69"],"fee":174345,"totalOutput":218427050,"tokens":[]},{"hash":"467747cff932eae3d6ebf59fab798b06b696b518a77390f68a8d2208e7fb5471","blockNo":8367674,"blockHash":"67267685176c05bfeafe9a2b4803b4ec399e3771143b72dcd56b19da2470dd32","epochNo":392,"epochSlotNo":188370,"slot":84169170,"time":"2023/02/07 02:04:21","addressesInput":["addr1q8ww79v2crq0kfve6ksqe7darae79y52uf8fk0pd708enpv4npdqlnxy6awglp7rtaqgnzl4uz60avhtnqadtgthu5wq55ygd9"],"addressesOutput":["DdzFFzCqrht3zYztuhTXVDbNfc1qGz53ZwNg8fzNm7aaiGBtijiFyBevTrSYH3wSUJKRLKxH6LkrM8xy2SNgRvox3gwfKsyrsuQYWeCM","addr1q8ww79v2crq0kfve6ksqe7darae79y52uf8fk0pd708enpv4npdqlnxy6awglp7rtaqgnzl4uz60avhtnqadtgthu5wq55ygd9"],"fee":170253,"totalOutput":208398411585,"tokens":[]}],"totalItems":60735619,"totalPages":3036781,"currentPage":0}