{"data":[{"txId":30514115,"txHash":"7ac8c9f121f30a65b1d2f00276ae2805b4c616e75ea93a25a0d35c22dde45d02","txTime":"2022/02/08 15:52:53","block":6857400,"epoch":319,"slotNo":52769282,"epochSlotNo":324482,"stakeKey":"stake1ux45uvxnrlrj363wzmdy3tyzu72yl8xrcw4apmnkaueh7xcfw9cl2"},{"txId":30513889,"txHash":"e51dfec2cdc62721c84b23d62f5ad4e50a484057b02f25b4ba9e31891cd74cbb","txTime":"2022/02/08 15:51:07","block":6857392,"epoch":319,"slotNo":52769176,"epochSlotNo":324376,"stakeKey":"stake1uxxu8gkj0jun4t4akdpe5wka6m43nef3a95yjrx3swc64mcr03wly"},{"txId":30513658,"txHash":"bc0b1095c74a9309638acf2e960d80be90aa4051e4791abf882ef10a264e9350","txTime":"2022/02/08 15:48:47","block":6857386,"epoch":319,"slotNo":52769036,"epochSlotNo":324236,"stakeKey":"stake1u9cnqc5lpeg870kemrla9d0vwcaztj7s0adcam0zajnzlpghaqz7c"},{"txId":30513652,"txHash":"a390484b452d05cdc1186e31efbcf73aad9a7dc6e894cafcafe4395a91bd77a8","txTime":"2022/02/08 15:48:47","block":6857386,"epoch":319,"slotNo":52769036,"epochSlotNo":324236,"stakeKey":"stake1uxydcjpuncavkjvu9d5cpdkmhm4c7teq26tezm92cwcs9msknytjc"},{"txId":30513600,"txHash":"fb36407b5bb56d555c4b4d8e3620fd27bd2a10be1c9512c1be81b40fc63a799f","txTime":"2022/02/08 15:48:25","block":6857385,"epoch":319,"slotNo":52769014,"epochSlotNo":324214,"stakeKey":"stake1uyth7t6mcf64hhvwlmkgdrt4vmuznzdrgr0mvwg4zd0t3jgq6d692"},{"txId":30513583,"txHash":"d9f7f21e51831125e3d6acb08540972408f1f7c4e7113590c26f6ada38e2667a","txTime":"2022/02/08 15:48:25","block":6857385,"epoch":319,"slotNo":52769014,"epochSlotNo":324214,"stakeKey":"stake1u9reh8zn0h3exm8ltqwq779f0zuxjc2qsganx5x2e5wazqglfg3nq"},{"txId":30513539,"txHash":"70476984da45dd11c976819f2e067184f8d7511704dc7c79a5cafa95b4738306","txTime":"2022/02/08 15:47:45","block":6857384,"epoch":319,"slotNo":52768974,"epochSlotNo":324174,"stakeKey":"stake1u9rqpjq8m8tyh4pudg4m2uf467f753x3dw2xge03lzxe64c0dxtxf"},{"txId":30513522,"txHash":"e2517e35c4ca7d4b6f154d2e35f1c0ae4bf4c21c6f10de56889f15fc5b4357ff","txTime":"2022/02/08 15:47:45","block":6857384,"epoch":319,"slotNo":52768974,"epochSlotNo":324174,"stakeKey":"stake1uywfaw0l4z9qz5yv7gzqzzzc49j54rhvzhxlgf0ny5hmxfcmwspcy"},{"txId":30513506,"txHash":"1d703cd1a0d43a2094e8fc48c0fab9612df308e9b3d518e36e0cd98fbbd0961b","txTime":"2022/02/08 15:46:55","block":6857383,"epoch":319,"slotNo":52768924,"epochSlotNo":324124,"stakeKey":"stake1u8aj8md6g46cqwsny9zecm3wmm3auy5knnzq7c3wjn5w9pc6fuymq"},{"txId":30513371,"txHash":"eb9066d4b97cc19419894acad7c11fe40dfa8be5a3ff21e245c1f85b7ade4603","txTime":"2022/02/08 15:44:55","block":6857379,"epoch":319,"slotNo":52768804,"epochSlotNo":324004,"stakeKey":"stake1u9vksew5qeek0s3eleh7qvwz0evyhkkxe3szpnpj8agw5hqmdwutn"},{"txId":30513351,"txHash":"2508542e8a62bbc0da6c1d998142fd7e3b6078ef61f737d5bd9656ae0d5b31d2","txTime":"2022/02/08 15:44:55","block":6857379,"epoch":319,"slotNo":52768804,"epochSlotNo":324004,"stakeKey":"stake1uydrzpcsq9hggdjtgvdxkvj9p8tcvegr2cv2mh3sw6arn5cq44lvu"},{"txId":30513312,"txHash":"74d5e84899930c91e58c74f11125ecaeb6672c84b2c51482663f8ea06dc0c286","txTime":"2022/02/08 15:44:53","block":6857378,"epoch":319,"slotNo":52768802,"epochSlotNo":324002,"stakeKey":"stake1u83m8pw0kxesgy3zxhyjrpwc9q0yd4ypeteeyfj7kds57tsk96rqx"},{"txId":30513307,"txHash":"fcaeb94b9f2df67aa296bc21d51ce5e11be961d603e42f530131140af6a6763d","txTime":"2022/02/08 15:44:27","block":6857377,"epoch":319,"slotNo":52768776,"epochSlotNo":323976,"stakeKey":"stake1uytfn89syp4jsvz5vz6ygffewdsdfz78xmjtuzkahvq4aasejcvn7"},{"txId":30513241,"txHash":"aee92d35f290cdb4c4e7e2abcf9b42c82dfbb75a0d30eaed613bdde4b6807d08","txTime":"2022/02/08 15:44:23","block":6857376,"epoch":319,"slotNo":52768772,"epochSlotNo":323972,"stakeKey":"stake1u8p4485uy9nj4arqyeknr33yh2gujqun5g9zmz5aswklv9sn6prrs"},{"txId":30512990,"txHash":"e018bb4b5ece81286f6f118309ab6d78c1a0365cd96195ec64f2873d4ac379b6","txTime":"2022/02/08 15:42:10","block":6857366,"epoch":319,"slotNo":52768639,"epochSlotNo":323839,"stakeKey":"stake1uyrt22xzyrkal5frulravmn8aj73z25uwars8zhhtghcxkgxg5gfh"},{"txId":30512846,"txHash":"38927278533877450a62de71ba91bb6b78b2a316a7d7981e50ce28706c092d90","txTime":"2022/02/08 15:40:49","block":6857363,"epoch":319,"slotNo":52768558,"epochSlotNo":323758,"stakeKey":"stake1u8h7lg56x242qvlpjqk07yz2nm3960765jrvnd2df9zl9lgqwa5pn"},{"txId":30512719,"txHash":"8c939a30842ad35ba66adc076e7ed94c84fa41bb7e7a93a5a8528ef33b0bf187","txTime":"2022/02/08 15:36:47","block":6857359,"epoch":319,"slotNo":52768316,"epochSlotNo":323516,"stakeKey":"stake1ux4tt82gxfk9x98qn9rp9cc0mhxrwwnm60snwsaxgy5g6wqt3878c"},{"txId":30512429,"txHash":"a146e36f9659fc4ab904047b7ae365ab8081f115295d0abe63a5af140fddf58f","txTime":"2022/02/08 15:33:51","block":6857352,"epoch":319,"slotNo":52768140,"epochSlotNo":323340,"stakeKey":"stake1uy6fmev67wm9unwdz538jyrql47gq63xex2rf5m5vlndq8qt42x4x"},{"txId":30512427,"txHash":"caf6a0e8816ffe0f19c295ca3f8b16064be3f5714498e8342fbe48b897f28668","txTime":"2022/02/08 15:33:51","block":6857352,"epoch":319,"slotNo":52768140,"epochSlotNo":323340,"stakeKey":"stake1uyj58emw6r5eq4jsa5clp8jdk63wspqk2295dmqef7srmkspu3ax8"},{"txId":30512409,"txHash":"2b7ce0c3b3604983b158c6e0bcfcd5d9cc68178a75199bd76cab430e50dcbc5c","txTime":"2022/02/08 15:33:51","block":6857352,"epoch":319,"slotNo":52768140,"epochSlotNo":323340,"stakeKey":"stake1u9er6fzj8scn53q8pfhuvyk06xf964t6ps9v503cu6hfyrs4u775g"}],"totalItems":1402037,"totalPages":70102,"currentPage":0}