{"data":[{"blockNo":8057351,"slotNo":77788306,"epochNo":377,"epochSlotNo":287506,"hash":"643214e4b070c85ee90e3a0c4db1366092b9696248da9153c88eb61970e76da9","time":"2022/11/25 05:36:37","txCount":12,"totalFees":5054708,"totalOutput":4381240292614,"slotLeader":"cdb10209d937fc1559c635e35b9147febde5307b4a7d276f868775cd"},{"blockNo":8057350,"slotNo":77788274,"epochNo":377,"epochSlotNo":287474,"hash":"b86a61b0fca5a5a0c28559b9e07bff2d4fefbc69cfceb788cccdb40c7c1847a3","time":"2022/11/25 05:36:05","txCount":9,"totalFees":3017060,"totalOutput":2569127457430,"slotLeader":"2f606921baedcad68bbc765b9ab82b2b201d42bd35262517ce5d7d96"},{"blockNo":8057349,"slotNo":77788256,"epochNo":377,"epochSlotNo":287456,"hash":"6abbbcd51cf97bcf240fab7e9d3be661bd5c1ec30a95b12bb91633fa41cc980a","time":"2022/11/25 05:35:47","txCount":13,"totalFees":2819224,"totalOutput":131080939687,"slotLeader":"707725a41873178814530f39fb14a4b2842d05377e2b62a546fe2014"},{"blockNo":8057348,"slotNo":77788236,"epochNo":377,"epochSlotNo":287436,"hash":"40d20645e9be2b2613222c4a41dcaadce317a8c7c73304d77ecd667a347591b8","time":"2022/11/25 05:35:27","txCount":9,"totalFees":3755354,"totalOutput":1402151596732,"slotLeader":"4594f67c08f0007d1fac243169624b710375cb834bbe81f6b4d79f32"},{"blockNo":8057347,"slotNo":77788216,"epochNo":377,"epochSlotNo":287416,"hash":"bea5220b63b5bde26636557cf0e412e5a2efe094a7455cfa46e38aa430831bac","time":"2022/11/25 05:35:07","txCount":21,"totalFees":8949625,"totalOutput":1596575758404,"slotLeader":"b62772f5982c919ff658977c4d3a0c937bcfd8127aba2c405266e217"},{"blockNo":8057346,"slotNo":77788191,"epochNo":377,"epochSlotNo":287391,"hash":"810cfd38950b211b4a164c2d85b9da01f19ba0d02bc0b32543f9584b39629bf8","time":"2022/11/25 05:34:42","txCount":17,"totalFees":5660374,"totalOutput":18042158895917,"slotLeader":"77b0a93c26ac65be36e9a9f220f9a43cbc57d705fc5d8f1de5fdeea1"},{"blockNo":8057345,"slotNo":77788158,"epochNo":377,"epochSlotNo":287358,"hash":"02f0f5737061f0cb03705a8724e8811316c0b3b10354dfcbb63670470d3e8065","time":"2022/11/25 05:34:09","txCount":2,"totalFees":358502,"totalOutput":9461334275,"slotLeader":"a3a542bf3a44361dad63349afcef16797afb957d1354e77bc0d37846"},{"blockNo":8057344,"slotNo":77788153,"epochNo":377,"epochSlotNo":287353,"hash":"56ce535c462c68e1079f02d13047a11f2ec75f5ab23ef4efcfd2f24193ef88fe","time":"2022/11/25 05:34:04","txCount":3,"totalFees":1552795,"totalOutput":334326128942,"slotLeader":"a503e42a2c6ef347d834fa404fa4d4bfa6dfb48256ff95b067483980"},{"blockNo":8057343,"slotNo":77788149,"epochNo":377,"epochSlotNo":287349,"hash":"602507c72841d7830f69a6f6c2d825ecaff8736c80c4a7c48bad38d40537f7e8","time":"2022/11/25 05:34:00","txCount":38,"totalFees":12497918,"totalOutput":307017275036,"slotLeader":"de950fe87de4b25c5a63b5ddf89578adf92e36cdf2035f1da11797d4"},{"blockNo":8057342,"slotNo":77788072,"epochNo":377,"epochSlotNo":287272,"hash":"af2d7d80d185b352dbee07bbd9fed949044a03c411ee61abd6445bc50cd17717","time":"2022/11/25 05:32:43","txCount":20,"totalFees":8407834,"totalOutput":1360404475488,"slotLeader":"7277d55c0b15a03495c0f768e71f88470d91772bc90ef0e4bd1a153f"}],"totalItems":13996,"totalPages":1400,"currentPage":0}