{"data":[{"hash":"a0f89568c5d23dc31c56fb3c85bbd7a9dee3d8259e28d655a34458308d8c33d1","blockNo":8279564,"blockHash":"97b74e811d0ac09eb00a66a2d70d3add1891a268f20151a4c1b84bcb51c34552","epochNo":388,"epochSlotNo":97505,"slot":82350305,"time":"2023/01/17 00:49:56","addressesInput":["addr1qyp5p95mnrj4cj0fw59em8qwlvcpp3yk5hu5azpqsygflvme8q49qx42lvfqp3fckdvvlq6zgmep6pu543dsrtga00kqzqunfs","addr1zxgx3far7qygq0k6epa0zcvcvrevmn0ypsnfsue94nsn3tvpw288a4x0xf8pxgcntelxmyclq83s0ykeehchz2wtspks905plm","addr1qyp5p95mnrj4cj0fw59em8qwlvcpp3yk5hu5azpqsygflvme8q49qx42lvfqp3fckdvvlq6zgmep6pu543dsrtga00kqzqunfs","addr1qyp5p95mnrj4cj0fw59em8qwlvcpp3yk5hu5azpqsygflvme8q49qx42lvfqp3fckdvvlq6zgmep6pu543dsrtga00kqzqunfs","addr1qyp5p95mnrj4cj0fw59em8qwlvcpp3yk5hu5azpqsygflvme8q49qx42lvfqp3fckdvvlq6zgmep6pu543dsrtga00kqzqunfs"],"addressesOutput":["addr1q9c73u296x5eqwykrhr7ynluscjw9knegzgpzv857s6vtl48f6hqz2x89748umvmgs5hsnuhj6mhflnqd4pxwa5y52lqu2tufv","addr1q9cwvremt6n320s2e3agq0jyq82yhrk3htsu0w426xnz5us70z4w0jgvcdkkynmm8wmds66jd9kusnjfpu6raw5fqp0sr07p5w","addr1q9snrf2fcngj8jeg47g85qqnlcwqu4wv7l59rr892udmpm234n4r7j3e68fcj4wr29et9qch0m6r9l6mvtyc8nk7emxs9j3tz0","addr1qyp5p95mnrj4cj0fw59em8qwlvcpp3yk5hu5azpqsygflvme8q49qx42lvfqp3fckdvvlq6zgmep6pu543dsrtga00kqzqunfs","addr1qyp5p95mnrj4cj0fw59em8qwlvcpp3yk5hu5azpqsygflvme8q49qx42lvfqp3fckdvvlq6zgmep6pu543dsrtga00kqzqunfs","addr1qyp5p95mnrj4cj0fw59em8qwlvcpp3yk5hu5azpqsygflvme8q49qx42lvfqp3fckdvvlq6zgmep6pu543dsrtga00kqzqunfs"],"fee":434933,"totalOutput":598283718,"tokens":[]},{"hash":"eaed596c5e3d6a568ae17953a1c1efe83785e536d9bb3886d8c85f1b519184c6","blockNo":8279564,"blockHash":"97b74e811d0ac09eb00a66a2d70d3add1891a268f20151a4c1b84bcb51c34552","epochNo":388,"epochSlotNo":97505,"slot":82350305,"time":"2023/01/17 00:49:56","addressesInput":["addr1q8gt4dmdjm8ztjqd92vqu4pvxqgnkwurezmp6du6nw43ptzt9ws6sj06h8yy70jq4lgf0vjmwl9ayyjngedfvks358gscy4fpp"],"addressesOutput":["addr1vyc7ca9flp5gfeapd78uxzzq7l6qnsytj85n62lr5smhgssen2u2s","addr1qyt9gz2y6dfp4mxam2kh4cyujlktrcpwwzeh09qpff7457jt9ws6sj06h8yy70jq4lgf0vjmwl9ayyjngedfvks358gsm6g46y"],"fee":385677,"totalOutput":30239997,"tokens":[]},{"hash":"1386406c7eb9b58bbb3ad599c15530477831ad05072d8f0d3086a0ab56025a7e","blockNo":8279564,"blockHash":"97b74e811d0ac09eb00a66a2d70d3add1891a268f20151a4c1b84bcb51c34552","epochNo":388,"epochSlotNo":97505,"slot":82350305,"time":"2023/01/17 00:49:56","addressesInput":["addr1wydpsqf5zz9ddy76d3f3jrrf6jkpyjr48nx5a706w9y68ucy4wu6s"],"addressesOutput":["addr1qx8dvw0v74ee0rug05m7cas2ehfywt4ytqf9pgjq7er3axy60gr5u5ykyn2xyf076m4annjq9ltttp3ldj90yl0gmt4q2ketq8"],"fee":842392,"totalOutput":4157608,"tokens":[]},{"hash":"5a044c603ce3b02108da1ccc63863136d018db43928b4141c5dc5f5b2d28d202","blockNo":8279564,"blockHash":"97b74e811d0ac09eb00a66a2d70d3add1891a268f20151a4c1b84bcb51c34552","epochNo":388,"epochSlotNo":97505,"slot":82350305,"time":"2023/01/17 00:49:56","addressesInput":["addr1q92herhetlughj8r4lqdvcrjrcd736gzky64dhhg9nmjhutlawmpgcevq6ym69574r0cgkkp95508ctg0penmk6ppkxsfl3496"],"addressesOutput":["addr1wxn9efv2f6w82hagxqtn62ju4m293tqvw0uhmdl64ch8uwc0h43gt","addr1q92herhetlughj8r4lqdvcrjrcd736gzky64dhhg9nmjhutlawmpgcevq6ym69574r0cgkkp95508ctg0penmk6ppkxsfl3496","addr1q92herhetlughj8r4lqdvcrjrcd736gzky64dhhg9nmjhutlawmpgcevq6ym69574r0cgkkp95508ctg0penmk6ppkxsfl3496"],"fee":188161,"totalOutput":1001811839,"tokens":[]},{"hash":"08302bf12e652f5dc8df0b8db38d1d6c97dff2639117dcd555dfc81a0d6cf75c","blockNo":8279564,"blockHash":"97b74e811d0ac09eb00a66a2d70d3add1891a268f20151a4c1b84bcb51c34552","epochNo":388,"epochSlotNo":97505,"slot":82350305,"time":"2023/01/17 00:49:56","addressesInput":["addr1qydnr8tndtze8jpwzknr65u6p2qnr3rptqvmsjl0le6l9fyhk79k63rmw9ucn06fygvtjthhgg2rescjatxndh9snneqnqzu3x","addr1qydnr8tndtze8jpwzknr65u6p2qnr3rptqvmsjl0le6l9fyhk79k63rmw9ucn06fygvtjthhgg2rescjatxndh9snneqnqzu3x"],"addressesOutput":["addr1vxp2x594ndat3tzvdcfqkkfedk6j2jdj75ed5jhqj7myf3sx43ds4","addr1qydnr8tndtze8jpwzknr65u6p2qnr3rptqvmsjl0le6l9fyhk79k63rmw9ucn06fygvtjthhgg2rescjatxndh9snneqnqzu3x"],"fee":168669,"totalOutput":2368530930,"tokens":[]},{"hash":"8125c614527760c7ecbd66a48b947b30f2463a59350fa411f99057481f040753","blockNo":8279564,"blockHash":"97b74e811d0ac09eb00a66a2d70d3add1891a268f20151a4c1b84bcb51c34552","epochNo":388,"epochSlotNo":97505,"slot":82350305,"time":"2023/01/17 00:49:56","addressesInput":["addr1qyxmtmf6yc3nwx3ewl8746pqyvg92tjavpgyhv4cn268qs7vxckrjcu25hmttqt92mxaah0wap6mw29kwnhcl9c25sus3tw7rp","addr1qx902ys53hfgvq9fp4p6x4v3frgxf8z2p8v553rsx2d6e55m7868n7zzrks7d6zt7jdcstq7042edrttw2vlafgse24suy0zxw"],"addressesOutput":["addr1q8mmsrnazv5cxjjkwthhkznjd6njxmk6494fc7908fxvksawca99fzraywweuw66c30xwl6ldulxs7ae4nvta02uy98q8dmqr3","addr1qxte2wk5zvz2rgnc4rajura2up0j6yk2nhk70mak2s2593gq8wd47gggjzhasy4frwwvkg05rcmxesk6pmx3y6z5kmjs45vjdf"],"fee":174257,"totalOutput":114780189,"tokens":[]},{"hash":"8e210358bd0133ff6dacd858ef5c4142eed1b5724908d30c3d3191beef933e8d","blockNo":8279564,"blockHash":"97b74e811d0ac09eb00a66a2d70d3add1891a268f20151a4c1b84bcb51c34552","epochNo":388,"epochSlotNo":97505,"slot":82350305,"time":"2023/01/17 00:49:56","addressesInput":["addr1q98jaru0466h40y8qz8sl43rj7n8vd69fqfd20s6q3jp743ly98kk2qu8u3wdjkvkelpdytdd8rtlhcrr38gktqh8eqszrxx20","addr1q98jaru0466h40y8qz8sl43rj7n8vd69fqfd20s6q3jp743ly98kk2qu8u3wdjkvkelpdytdd8rtlhcrr38gktqh8eqszrxx20"],"addressesOutput":["addr1q8q3lhnwvfh5jfh56wpt7g0czt2u0l64pdf35apte65yrfc0sadx20vmw2fasaemhpxgpm2pdn93cu0ckkpyzsy8eaqqvhz2q3","addr1q924rlyz93gmxx7ed0fh0peujt9e92yzkjl5yajuxc9f6jely98kk2qu8u3wdjkvkelpdytdd8rtlhcrr38gktqh8eqsfnuxns","addr1q924rlyz93gmxx7ed0fh0peujt9e92yzkjl5yajuxc9f6jely98kk2qu8u3wdjkvkelpdytdd8rtlhcrr38gktqh8eqsfnuxns","addr1q924rlyz93gmxx7ed0fh0peujt9e92yzkjl5yajuxc9f6jely98kk2qu8u3wdjkvkelpdytdd8rtlhcrr38gktqh8eqsfnuxns","addr1q924rlyz93gmxx7ed0fh0peujt9e92yzkjl5yajuxc9f6jely98kk2qu8u3wdjkvkelpdytdd8rtlhcrr38gktqh8eqsfnuxns"],"fee":180725,"totalOutput":1001008835,"tokens":[]},{"hash":"c14a4d8af0f1712972d9d3212cc38841d3705fe53d8e6620e699d87d95758c90","blockNo":8279564,"blockHash":"97b74e811d0ac09eb00a66a2d70d3add1891a268f20151a4c1b84bcb51c34552","epochNo":388,"epochSlotNo":97505,"slot":82350305,"time":"2023/01/17 00:49:56","addressesInput":["addr1qxpkzu32v2n6xkde4q6su2yraf7m4uf77yxx8lk2k930kpgxagapzcx3r36styvkf256m5j4g4w3yfnkh546lmgxe0aqg9gdy7","addr1qxpkzu32v2n6xkde4q6su2yraf7m4uf77yxx8lk2k930kpgxagapzcx3r36styvkf256m5j4g4w3yfnkh546lmgxe0aqg9gdy7","addr1qxpkzu32v2n6xkde4q6su2yraf7m4uf77yxx8lk2k930kpgxagapzcx3r36styvkf256m5j4g4w3yfnkh546lmgxe0aqg9gdy7","addr1qxpkzu32v2n6xkde4q6su2yraf7m4uf77yxx8lk2k930kpgxagapzcx3r36styvkf256m5j4g4w3yfnkh546lmgxe0aqg9gdy7","addr1qxpkzu32v2n6xkde4q6su2yraf7m4uf77yxx8lk2k930kpgxagapzcx3r36styvkf256m5j4g4w3yfnkh546lmgxe0aqg9gdy7","addr1qxpkzu32v2n6xkde4q6su2yraf7m4uf77yxx8lk2k930kpgxagapzcx3r36styvkf256m5j4g4w3yfnkh546lmgxe0aqg9gdy7","addr1qxpkzu32v2n6xkde4q6su2yraf7m4uf77yxx8lk2k930kpgxagapzcx3r36styvkf256m5j4g4w3yfnkh546lmgxe0aqg9gdy7","addr1qxpkzu32v2n6xkde4q6su2yraf7m4uf77yxx8lk2k930kpgxagapzcx3r36styvkf256m5j4g4w3yfnkh546lmgxe0aqg9gdy7","addr1qxpkzu32v2n6xkde4q6su2yraf7m4uf77yxx8lk2k930kpgxagapzcx3r36styvkf256m5j4g4w3yfnkh546lmgxe0aqg9gdy7"],"addressesOutput":["addr1zxgx3far7qygq0k6epa0zcvcvrevmn0ypsnfsue94nsn3tvpw288a4x0xf8pxgcntelxmyclq83s0ykeehchz2wtspks905plm","addr1qxpkzu32v2n6xkde4q6su2yraf7m4uf77yxx8lk2k930kpgxagapzcx3r36styvkf256m5j4g4w3yfnkh546lmgxe0aqg9gdy7","addr1qxpkzu32v2n6xkde4q6su2yraf7m4uf77yxx8lk2k930kpgxagapzcx3r36styvkf256m5j4g4w3yfnkh546lmgxe0aqg9gdy7","addr1qxpkzu32v2n6xkde4q6su2yraf7m4uf77yxx8lk2k930kpgxagapzcx3r36styvkf256m5j4g4w3yfnkh546lmgxe0aqg9gdy7"],"fee":268197,"totalOutput":279832781,"tokens":[]},{"hash":"c9ee4e464762e98bb2f3340132d911d49ba6ced8a3949517df0ff1691fa63bb9","blockNo":8279564,"blockHash":"97b74e811d0ac09eb00a66a2d70d3add1891a268f20151a4c1b84bcb51c34552","epochNo":388,"epochSlotNo":97505,"slot":82350305,"time":"2023/01/17 00:49:56","addressesInput":["addr1qx20vak3mrqaeuwsewcfvl2mx77dqx504dys7n0vxgltdafdzefudzxhadht99nh8gv4l3z93d486ygllgxuh2drrrpsy34e83","addr1q94pw7y6x2xwc4fdp3895gwmvs8vugnuagalqt8t4mv6r5fdzefudzxhadht99nh8gv4l3z93d486ygllgxuh2drrrpshxlnlc"],"addressesOutput":["addr1qx07nqyhz0nk64v56l6agnszcc4gj03f3jyxc6tvpyrrhlh2llpykg5k8l8paaw49pt36xuqmf2nw8ye5sxj8cmzhryqucwx53","addr1q8aw4rsewypxqepmsejpta3tfrclct3dhdgzgl4juhqtd0n3dhlqv5lq7rj58ca8k44u8qkdyv0g9c5kmdqeclu8w58qzc4qxh","addr1q8aa05rx8kxcawlh7feaaaja363gh9ufdxa7vge0ev06fspdzefudzxhadht99nh8gv4l3z93d486ygllgxuh2drrrpscxhp9p","addr1q85s0mas63j0xna5t3hdnqyvj9633vwdauz2n6txyu4c3sfdzefudzxhadht99nh8gv4l3z93d486ygllgxuh2drrrpsskxnfp"],"fee":181561,"totalOutput":12322946149,"tokens":[]},{"hash":"5f1c880e7978c3bd7a90feb0c2444e6b00d653ac7791dbd9249874e4c7c04fe0","blockNo":8279564,"blockHash":"97b74e811d0ac09eb00a66a2d70d3add1891a268f20151a4c1b84bcb51c34552","epochNo":388,"epochSlotNo":97505,"slot":82350305,"time":"2023/01/17 00:49:56","addressesInput":["addr1zxgx3far7qygq0k6epa0zcvcvrevmn0ypsnfsue94nsn3tvpw288a4x0xf8pxgcntelxmyclq83s0ykeehchz2wtspks905plm","addr1qyfsrklfmuns50use4sru9n7j7rru4pq2vuqzgw9nz2njn53ka9kndg5hfrx47l5fkxd0rfv0c3rzw0gnaw9pxpywnfqaxkfpl"],"addressesOutput":["addr1zxgx3far7qygq0k6epa0zcvcvrevmn0ypsnfsue94nsn3tvpw288a4x0xf8pxgcntelxmyclq83s0ykeehchz2wtspks905plm","addr1qyfsrklfmuns50use4sru9n7j7rru4pq2vuqzgw9nz2njn53ka9kndg5hfrx47l5fkxd0rfv0c3rzw0gnaw9pxpywnfqaxkfpl"],"fee":296972,"totalOutput":180153100,"tokens":[]},{"hash":"db6f0d998f5333620e9ea83fbe78ed0380dc20d661acdb015b8a67e9c578f891","blockNo":8279563,"blockHash":"282b4dd3434d520555c05bc2d5d7f068d61ae719cec945ada8ae70ba5d59a155","epochNo":388,"epochSlotNo":97494,"slot":82350294,"time":"2023/01/17 00:49:45","addressesInput":["addr1q9gwxmezfxe8h4nqs4nszml8zsmnzfzw43n4lwgpw9400grmhnm2c4f8yhxvhxrz52jm4stkegjgj8wmnqncfm8cj8ys44mfrn","addr1q9gwxmezfxe8h4nqs4nszml8zsmnzfzw43n4lwgpw9400grmhnm2c4f8yhxvhxrz52jm4stkegjgj8wmnqncfm8cj8ys44mfrn","addr1q9gwxmezfxe8h4nqs4nszml8zsmnzfzw43n4lwgpw9400grmhnm2c4f8yhxvhxrz52jm4stkegjgj8wmnqncfm8cj8ys44mfrn","addr1zxgx3far7qygq0k6epa0zcvcvrevmn0ypsnfsue94nsn3tvpw288a4x0xf8pxgcntelxmyclq83s0ykeehchz2wtspks905plm","addr1q9gwxmezfxe8h4nqs4nszml8zsmnzfzw43n4lwgpw9400grmhnm2c4f8yhxvhxrz52jm4stkegjgj8wmnqncfm8cj8ys44mfrn"],"addressesOutput":["addr1qyxqse9m4arkmzemwke5dvg2qyp0h2yv7p89d2thdw2l005846sqs94tnwl5ymxnyw52hydymy5vwku55k5racf4w4tsphm9xl","addr1q9cwvremt6n320s2e3agq0jyq82yhrk3htsu0w426xnz5us70z4w0jgvcdkkynmm8wmds66jd9kusnjfpu6raw5fqp0sr07p5w","addr1qyn6s87s785npw5tnmwmrx4rd54j6rf5c7edz2s5xyx35njr9seg22a5dwal8r0cy6tnax6ay7hup5rrprrweac8f9ksy4k76e","addr1q9gwxmezfxe8h4nqs4nszml8zsmnzfzw43n4lwgpw9400grmhnm2c4f8yhxvhxrz52jm4stkegjgj8wmnqncfm8cj8ys44mfrn","addr1q9gwxmezfxe8h4nqs4nszml8zsmnzfzw43n4lwgpw9400grmhnm2c4f8yhxvhxrz52jm4stkegjgj8wmnqncfm8cj8ys44mfrn"],"fee":456006,"totalOutput":17334471,"tokens":[]},{"hash":"9b41b77140fa3eaf72f89a135794ebd63fccd66e62156bbe5549ad10819ae8c6","blockNo":8279563,"blockHash":"282b4dd3434d520555c05bc2d5d7f068d61ae719cec945ada8ae70ba5d59a155","epochNo":388,"epochSlotNo":97494,"slot":82350294,"time":"2023/01/17 00:49:45","addressesInput":["addr1qxqrkghwwnfcjl654cj6pearrn5huql5370facuudnjgnqyqnyutf5q7za5ljp9srdt8jjmt2zcpjqpk6m5m59khs90srkm95k","addr1qxqrkghwwnfcjl654cj6pearrn5huql5370facuudnjgnqyqnyutf5q7za5ljp9srdt8jjmt2zcpjqpk6m5m59khs90srkm95k","addr1qxqrkghwwnfcjl654cj6pearrn5huql5370facuudnjgnqyqnyutf5q7za5ljp9srdt8jjmt2zcpjqpk6m5m59khs90srkm95k","addr1q94fwpfppd3s7ryqwtjy8gujugsrzxm3yaeskg5ua00jlrvqnyutf5q7za5ljp9srdt8jjmt2zcpjqpk6m5m59khs90ssygywc","addr1q9ktypd0mne9v87dw9cyd6tjctx8573430ja2ayxwaf0l8vqnyutf5q7za5ljp9srdt8jjmt2zcpjqpk6m5m59khs90s44w5hq","addr1q9j5rt0uqq9tkn52qhrga4m743s0dkfal3xptulthc88afuqnyutf5q7za5ljp9srdt8jjmt2zcpjqpk6m5m59khs90s5zueuu","addr1q95qsjwy00dcvsxcdlc9r8kvzl76kvplcdsewuth50aq3quqnyutf5q7za5ljp9srdt8jjmt2zcpjqpk6m5m59khs90sal2rd7"],"addressesOutput":["addr1q8lpc2mfze2y2uparkg4p2m5h4nnq2ke39fs7egmfr6yaty4w4ddvp20z6zsnl2r6xecwpzzxwkpmq9wknk6hu0el5vszycqr9","addr1qxff77tfm0jjq4ejlx2ymmqzgyqnnuzg28gl53dtvlmdggyqnyutf5q7za5ljp9srdt8jjmt2zcpjqpk6m5m59khs90sqq6yxn","addr1qxff77tfm0jjq4ejlx2ymmqzgyqnnuzg28gl53dtvlmdggyqnyutf5q7za5ljp9srdt8jjmt2zcpjqpk6m5m59khs90sqq6yxn","addr1qxff77tfm0jjq4ejlx2ymmqzgyqnnuzg28gl53dtvlmdggyqnyutf5q7za5ljp9srdt8jjmt2zcpjqpk6m5m59khs90sqq6yxn","addr1qxff77tfm0jjq4ejlx2ymmqzgyqnnuzg28gl53dtvlmdggyqnyutf5q7za5ljp9srdt8jjmt2zcpjqpk6m5m59khs90sqq6yxn"],"fee":754265,"totalOutput":2207490607,"tokens":[]},{"hash":"afd2ae4355d56950d4e05cb944b81e79a7ba15a54f70294bf65c476d90a1bf32","blockNo":8279562,"blockHash":"ea4015c3eb7bcc2536faecdfc38fc7669282779e74935b1e13eb7260416d96d6","epochNo":388,"epochSlotNo":97490,"slot":82350290,"time":"2023/01/17 00:49:41","addressesInput":["addr1qxx6xqmcyzum73pp5yq5azsmy74grepw3d8qrywsalstvgy4rmczu8p7lr8ry8nesn9jx8g6hk7jhy36kxwmvu04fdnqjhlcux"],"addressesOutput":["addr1q87k9zrel8zsqpqhue55u7356gch8a4wp7xfpg5et2nn3q72h8y4gwedd2z2nx6544nalel0zd0g0kel44c96xy3vxvqwq22c9"],"fee":1100000,"totalOutput":1900000,"tokens":[]},{"hash":"420eedaf29e30dff3e8808d4915abde38d1c2512ade6d1136c03c9a9562b211c","blockNo":8279562,"blockHash":"ea4015c3eb7bcc2536faecdfc38fc7669282779e74935b1e13eb7260416d96d6","epochNo":388,"epochSlotNo":97490,"slot":82350290,"time":"2023/01/17 00:49:41","addressesInput":["addr1qxees7vt7w5at8lsz7eufyxnmh679djsmmv7ydutztw7ymqakkuk8tzpu7gn6fkcf5q06lhpdw3qkmswhff8yj33hmfs88s3ry"],"addressesOutput":["addr1wxr2a8htmzuhj39y2gq7ftkpxv98y2g67tg8zezthgq4jkg0a4ul4","addr1qxees7vt7w5at8lsz7eufyxnmh679djsmmv7ydutztw7ymqakkuk8tzpu7gn6fkcf5q06lhpdw3qkmswhff8yj33hmfs88s3ry"],"fee":181825,"totalOutput":105813244,"tokens":[]},{"hash":"e65e7b24631384938d23d3c61f860dc9ffe7e61a2098e55ad4da456e11c2ae09","blockNo":8279562,"blockHash":"ea4015c3eb7bcc2536faecdfc38fc7669282779e74935b1e13eb7260416d96d6","epochNo":388,"epochSlotNo":97490,"slot":82350290,"time":"2023/01/17 00:49:41","addressesInput":["addr1q9amjdt9tvklj5av6yz9kupnjc8naf577pg2cxlhmugm7tmrs3pru40mwls2dezkftamqyxhx6dgw5zva6vztrr74fmsecgzql"],"addressesOutput":["addr1q87k9zrel8zsqpqhue55u7356gch8a4wp7xfpg5et2nn3q72h8y4gwedd2z2nx6544nalel0zd0g0kel44c96xy3vxvqwq22c9"],"fee":1100000,"totalOutput":1900000,"tokens":[]},{"hash":"979cd68ef2cc8df710adbde731487489841b2b6cba1720f0f17b2a7b13c7c131","blockNo":8279562,"blockHash":"ea4015c3eb7bcc2536faecdfc38fc7669282779e74935b1e13eb7260416d96d6","epochNo":388,"epochSlotNo":97490,"slot":82350290,"time":"2023/01/17 00:49:41","addressesInput":["addr1qxd04qg4dr6rdlcjrw9dyh92dqft9xv4zwtjwpsd4wmuctac6wzw7ukl0k9zzgn6x28dpz8flenm6allu00lly0k2gcqqek59m","addr1qxd04qg4dr6rdlcjrw9dyh92dqft9xv4zwtjwpsd4wmuctac6wzw7ukl0k9zzgn6x28dpz8flenm6allu00lly0k2gcqqek59m","addr1qxd04qg4dr6rdlcjrw9dyh92dqft9xv4zwtjwpsd4wmuctac6wzw7ukl0k9zzgn6x28dpz8flenm6allu00lly0k2gcqqek59m"],"addressesOutput":["addr1q9g873se5rhwr8mzj7ln9755g8tzpjawayu67j5wd5xtxlwuq5t9yaew6wvxtpyp2m0g8jqsevxp4rm65uajnf2ggfzq6pgfr8","addr1qxd04qg4dr6rdlcjrw9dyh92dqft9xv4zwtjwpsd4wmuctac6wzw7ukl0k9zzgn6x28dpz8flenm6allu00lly0k2gcqqek59m","addr1qxd04qg4dr6rdlcjrw9dyh92dqft9xv4zwtjwpsd4wmuctac6wzw7ukl0k9zzgn6x28dpz8flenm6allu00lly0k2gcqqek59m"],"fee":185081,"totalOutput":182694079,"tokens":[]},{"hash":"f04a577c1b30dbbd1a17920c20b333154403bb306ad9cfdf28912f3609e48d78","blockNo":8279562,"blockHash":"ea4015c3eb7bcc2536faecdfc38fc7669282779e74935b1e13eb7260416d96d6","epochNo":388,"epochSlotNo":97490,"slot":82350290,"time":"2023/01/17 00:49:41","addressesInput":["addr1q8r6smyur800tpwkwsj8mpspwnezsdgyz9flt464wqx2dytuh8xvyhkqwlp4j8zq6qncyj34nyeugp3ggesm4crqn5csf59prv","addr1q8r6smyur800tpwkwsj8mpspwnezsdgyz9flt464wqx2dytuh8xvyhkqwlp4j8zq6qncyj34nyeugp3ggesm4crqn5csf59prv"],"addressesOutput":["addr1zxgx3far7qygq0k6epa0zcvcvrevmn0ypsnfsue94nsn3tvpw288a4x0xf8pxgcntelxmyclq83s0ykeehchz2wtspks905plm","addr1q8r6smyur800tpwkwsj8mpspwnezsdgyz9flt464wqx2dytuh8xvyhkqwlp4j8zq6qncyj34nyeugp3ggesm4crqn5csf59prv"],"fee":222525,"totalOutput":112474830,"tokens":[]},{"hash":"c7b76c2d0f160e423039aa71a74ea11be7c26945c33241461177ff7479908078","blockNo":8279562,"blockHash":"ea4015c3eb7bcc2536faecdfc38fc7669282779e74935b1e13eb7260416d96d6","epochNo":388,"epochSlotNo":97490,"slot":82350290,"time":"2023/01/17 00:49:41","addressesInput":["addr1v95sf69jcfhnmknvffwmfvlvnccatqwfjcyh0nlfc6gh5scta2yzg"],"addressesOutput":["addr1q8kjsaw69ymnyqa7fyrsnch7j7he57vchh7w7hfldw8pwyj7p2ddh9ezt86h3ft466umy4d2hgq5k4rh2033azhx8jqs2q8e4s","addr1v95sf69jcfhnmknvffwmfvlvnccatqwfjcyh0nlfc6gh5scta2yzg"],"fee":171221,"totalOutput":24552821606,"tokens":[]},{"hash":"b8ba5bdbd882f1ab4914c68cae5fd4cd3f93c84c0e62c38456bea094af3b602e","blockNo":8279562,"blockHash":"ea4015c3eb7bcc2536faecdfc38fc7669282779e74935b1e13eb7260416d96d6","epochNo":388,"epochSlotNo":97490,"slot":82350290,"time":"2023/01/17 00:49:41","addressesInput":["addr1q8sc0thzygz6n5wrfgdm4rc6ydkn07cgl7xgggm9rnmrdy9f0melm08af9nmzre6l2g45yj4a2n4pjv9c785detvgcnqs2uqnw","addr1q8sc0thzygz6n5wrfgdm4rc6ydkn07cgl7xgggm9rnmrdy9f0melm08af9nmzre6l2g45yj4a2n4pjv9c785detvgcnqs2uqnw","addr1q8sc0thzygz6n5wrfgdm4rc6ydkn07cgl7xgggm9rnmrdy9f0melm08af9nmzre6l2g45yj4a2n4pjv9c785detvgcnqs2uqnw"],"addressesOutput":["addr1q9540x0le5789jzfdjf62lhkxugc3ak2h9tj3v5a2s2khhg8qncsn9g2z9uzuneyd9pu8gjd06l5hthguxzadw9vjqasw0pw99","addr1q8j2cy2ugfyf0svxpa02axat9trdzmlk9qt576d7ty80234f0melm08af9nmzre6l2g45yj4a2n4pjv9c785detvgcnqrccxq5"],"fee":176457,"totalOutput":3370673,"tokens":[]},{"hash":"03ef32c3ca726b266de52a355a149c591bc3a13fd9f2d4cf6c8d7dfd02aa601c","blockNo":8279562,"blockHash":"ea4015c3eb7bcc2536faecdfc38fc7669282779e74935b1e13eb7260416d96d6","epochNo":388,"epochSlotNo":97490,"slot":82350290,"time":"2023/01/17 00:49:41","addressesInput":["addr1qxg2f2ppyddsn92vmvt0kul6yq2326u52vwtau2ujuhxfghy23pqjaxext82r4gd75kmrj5j2jva9cfk2t8c5a60zy8s05akkc","addr1qxg2f2ppyddsn92vmvt0kul6yq2326u52vwtau2ujuhxfghy23pqjaxext82r4gd75kmrj5j2jva9cfk2t8c5a60zy8s05akkc","addr1qxg2f2ppyddsn92vmvt0kul6yq2326u52vwtau2ujuhxfghy23pqjaxext82r4gd75kmrj5j2jva9cfk2t8c5a60zy8s05akkc","addr1qxg2f2ppyddsn92vmvt0kul6yq2326u52vwtau2ujuhxfghy23pqjaxext82r4gd75kmrj5j2jva9cfk2t8c5a60zy8s05akkc"],"addressesOutput":["addr1wxn9efv2f6w82hagxqtn62ju4m293tqvw0uhmdl64ch8uwc0h43gt","addr1qxg2f2ppyddsn92vmvt0kul6yq2326u52vwtau2ujuhxfghy23pqjaxext82r4gd75kmrj5j2jva9cfk2t8c5a60zy8s05akkc","addr1qxg2f2ppyddsn92vmvt0kul6yq2326u52vwtau2ujuhxfghy23pqjaxext82r4gd75kmrj5j2jva9cfk2t8c5a60zy8s05akkc"],"fee":191197,"totalOutput":1006527041,"tokens":[]}],"totalItems":59175477,"totalPages":2958774,"currentPage":0}