{"data":[{"txId":71699200,"txHash":"2863a0d4bd139168c8d1631badff708ff33feb64daa949b81ced40bea2544f99","txTime":"2023/07/16 16:11:36","block":9037235,"epoch":424,"slotNo":97957605,"epochSlotNo":152805,"stakeKey":"stake1uydx8f4y5pxre6g2k0aalghfa3uhjtvynncjgyd356kulxcnh80et"},{"txId":71699128,"txHash":"e279da9cfa48d48c412eecf8b9343bdaee4169503751e660de2e2394e0cb20c2","txTime":"2023/07/16 16:10:10","block":9037230,"epoch":424,"slotNo":97957519,"epochSlotNo":152719,"stakeKey":"stake1u8jkp9tlwshdsgc2r9c4wkjty30dgm55ghsh0d386pll4wcahsn07"},{"txId":71699085,"txHash":"5d5ff5f176768a891db247c87f89417bbeeaeb33fd41036bd36d0af4555bc372","txTime":"2023/07/16 16:09:24","block":9037228,"epoch":424,"slotNo":97957473,"epochSlotNo":152673,"stakeKey":"stake1u82cm6cn78njy77jq8za7fepmlkumcml55wqnycxg4u579gx3v4mz"},{"txId":71698960,"txHash":"44d23e52c55a4ab2c79b7bbbb91b3d3c6d3962ffbc37202381962ce45f9a5283","txTime":"2023/07/16 16:07:47","block":9037221,"epoch":424,"slotNo":97957376,"epochSlotNo":152576,"stakeKey":"stake1uxurdvdfyjre3gadcpsxksw5rnxrxscru0k6nunehlh3qkq2zncf2"},{"txId":71698816,"txHash":"23c22f86849f862982a2e34149cc0faf23458bd68c6bbcc817581891c24e4e40","txTime":"2023/07/16 16:04:51","block":9037219,"epoch":424,"slotNo":97957200,"epochSlotNo":152400,"stakeKey":"stake1u8yjvsmma6mcwc99fgjak3sl7cdfgspxxf3wc7lg746u0aq34p50h"},{"txId":71698749,"txHash":"c2eae5e3ee78f36dbb4d7b7086b39ac92fee2a9f88720ed48e8b70f247069d02","txTime":"2023/07/16 16:04:16","block":9037218,"epoch":424,"slotNo":97957165,"epochSlotNo":152365,"stakeKey":"stake1u8ruag4vhtqs9kh9raqe3hxks73ftaynx50mv7qlzlrpsmsqgtr23"},{"txId":71698528,"txHash":"b987b6c5daa36fa5f981d8267247ac03ce9f70261b600b14550bbc77265a2c63","txTime":"2023/07/16 15:59:07","block":9037201,"epoch":424,"slotNo":97956856,"epochSlotNo":152056,"stakeKey":"stake1u9sqf2h9sdq4swr4l7k2ayslwy82qyxrq06p6n8jcd9g7fscep8r2"},{"txId":71698495,"txHash":"be280d2d4fb80d4b7a97c9ec7256df5502fa06df2325b1631b8dc9b9083a781a","txTime":"2023/07/16 15:59:07","block":9037201,"epoch":424,"slotNo":97956856,"epochSlotNo":152056,"stakeKey":"stake1uxj7qhplx4uuacuva6xxvxkglpjxg20lp3ljntrwmy9grpc9nf0un"},{"txId":71698316,"txHash":"672187d09e2384ab5df97169cdb9f1b81e419d52d71a67a80dd6ba3af6225caa","txTime":"2023/07/16 15:55:51","block":9037192,"epoch":424,"slotNo":97956660,"epochSlotNo":151860,"stakeKey":"stake1ux8sakqnwkudfjgme308p7amtspgrfv96r5f0s6edal033gdu39ld"},{"txId":71698179,"txHash":"b7143d77acaae67f67843028289dc5045bca367f9ceb15fc5d948fd294d400db","txTime":"2023/07/16 15:54:12","block":9037186,"epoch":424,"slotNo":97956561,"epochSlotNo":151761,"stakeKey":"stake1u877hkpcq2jjqzmdga92wegml523rp5x5zq4y46q53gggkqezqdd7"},{"txId":71697806,"txHash":"59f894d7cf4b354639c04375d5beaec3b64aac9139f207a345b81448a8d29079","txTime":"2023/07/16 15:48:38","block":9037168,"epoch":424,"slotNo":97956227,"epochSlotNo":151427,"stakeKey":"stake1u8ufg6xhv79p97t87uu55yjsyx8v3vu43tfxktz9a5xcesc5f458p"},{"txId":71697691,"txHash":"f8e9dd437c0b0ef133c78003fa304fcc5297ac11ec2d731bb7d6008bd7bfc2a4","txTime":"2023/07/16 15:46:11","block":9037162,"epoch":424,"slotNo":97956080,"epochSlotNo":151280,"stakeKey":"stake1ux4y0fhjacsnn3w8jc7ljglq835pf4yux4hkm730uvdja3gymw9u6"},{"txId":71697682,"txHash":"74d31f3c8e24dbea5c9c1e16322ace1d10991f17fdda3ff7a25f7897d1795a76","txTime":"2023/07/16 15:46:01","block":9037161,"epoch":424,"slotNo":97956070,"epochSlotNo":151270,"stakeKey":"stake1uynazzaljagqhxeaf243msrur3yjmupndzr42tkevs9n3ks624yt5"},{"txId":71697666,"txHash":"101a6def1e65851f8b4bb02eff89894a63cffc04fd3b8d2954d00ffc7b227d15","txTime":"2023/07/16 15:45:47","block":9037160,"epoch":424,"slotNo":97956056,"epochSlotNo":151256,"stakeKey":"stake1uxex0cgka5uegntrusjnw9634zu04chn4y4dcyypknt0wtgeq2usg"},{"txId":71697464,"txHash":"d73dca941f37f27721fe9d8be1a69d655b204c7800957c650191b4eca9b79c4a","txTime":"2023/07/16 15:43:52","block":9037152,"epoch":424,"slotNo":97955941,"epochSlotNo":151141,"stakeKey":"stake1uy2rma7p0yj0lgtxcygwn3ts987agmsh46kyua47rp88easnymscr"},{"txId":71697402,"txHash":"76d1a7903b01b1f513abc948f7061811b1d76f1264895c5b96a29db29dd1fbc8","txTime":"2023/07/16 15:41:36","block":9037150,"epoch":424,"slotNo":97955805,"epochSlotNo":151005,"stakeKey":"stake1u9elr24hj87d70n7thuce2aapyszl82nl88crgkzmwjkpzqzurjpc"},{"txId":71697240,"txHash":"31136253110feead33c610d103fb0f76d93bbddf5666f93b4589a8e5a0e31c9c","txTime":"2023/07/16 15:39:01","block":9037145,"epoch":424,"slotNo":97955650,"epochSlotNo":150850,"stakeKey":"stake1u9p340pfrwx074j6m696qjfr9s6ft06vx34jgw03xxyqykq059vd7"},{"txId":71697097,"txHash":"89a77b465776ffde2125a051ab11a83f74270f909d643f983082356abeef2afd","txTime":"2023/07/16 15:35:53","block":9037134,"epoch":424,"slotNo":97955462,"epochSlotNo":150662,"stakeKey":"stake1uxqcr4ymr74uj6gt25jmfcvn5defptyf4z7dfavu8r7xyqgypdu3v"},{"txId":71696618,"txHash":"2895360dd116dd5e16fd1aa21d2e1cc7adbd685f413f23d2fdc15c0401b63f41","txTime":"2023/07/16 15:27:20","block":9037117,"epoch":424,"slotNo":97954949,"epochSlotNo":150149,"stakeKey":"stake1uxm37tcpuwvlpy9qh479cz839zagk69jujaz7aw2ny90p8qh3gawe"},{"txId":71696585,"txHash":"4bf4246e471dc00456ac8ae86c76fd716642a875ffa4eab811da78043f7cc346","txTime":"2023/07/16 15:26:30","block":9037116,"epoch":424,"slotNo":97954899,"epochSlotNo":150099,"stakeKey":"stake1u950pf06g5gs45p7jwhlcwqknm0f0g5fj55jfvdgxvma5es570393"}],"totalItems":1737859,"totalPages":86893,"currentPage":0}