{"data":[{"hash":"ebed6a6285661527443d204a68b431dde5e648188ac2fba420e2b5411987fa28","blockNo":7082642,"blockHash":"c6a666b46ea38be8491875a7a11f1bbead1e29e2b600123181d5548f15299d5c","epochNo":330,"epochSlotNo":333594,"slot":57530394,"time":"2022/04/04 18:24:45","addressesInput":["addr1q8w957v7952xxmau3csaj5343wnz56ad8m22ehrweu3c4fsyn305nmx59ea0gaw4f94yg6scxy77wdntlz3ntjwy80rsepym8s"],"addressesOutput":["addr1qx9nx8q4jm4djt4jcs0f7el2rrrcm0d6eaxk7eg6ka3mect2rg7asmvhcjdxh498ezwj5rs7vh762ac6a4l0uxl8jsxqjmywqm","addr1qyamsessu0xmj64lrcsj7yw0vvlujfx40jnhzfgr2j9yvrgyn305nmx59ea0gaw4f94yg6scxy77wdntlz3ntjwy80rstr6lnj"],"fee":229653,"totalOutput":18457125,"tokens":[]},{"hash":"154d998d08245590cace24c8c1522255fd31ab40f800b88a951c242a01f0650e","blockNo":7082616,"blockHash":"7568667312487e6b1fdab3bb5cff37e02144273cf44e32b9ab5d16e426e65c10","epochNo":330,"epochSlotNo":333153,"slot":57529953,"time":"2022/04/04 18:17:24","addressesInput":["addr1qx27hzwyhamewwp58pdjpgga9904fz88g6khnhdptgggecgyn305nmx59ea0gaw4f94yg6scxy77wdntlz3ntjwy80rsau22h6"],"addressesOutput":["addr1q8swau8u26xj727dmrgdj67lnkwf7wfcc86c2xq64lje5ut2rg7asmvhcjdxh498ezwj5rs7vh762ac6a4l0uxl8jsxqr8y0r6","addr1q8w957v7952xxmau3csaj5343wnz56ad8m22ehrweu3c4fsyn305nmx59ea0gaw4f94yg6scxy77wdntlz3ntjwy80rsepym8s"],"fee":233701,"totalOutput":20272950,"tokens":[]},{"hash":"ea2e1a52d45792414dd9495e4cd8c5cb6a162a4a79067e3c78bfc8f7c784f203","blockNo":7082602,"blockHash":"c93ffcc5e249d06883964fdf07eb062ddc6efd6d32099c705a7609b9d3985f53","epochNo":330,"epochSlotNo":332973,"slot":57529773,"time":"2022/04/04 18:14:24","addressesInput":["addr1q8fqnejfy9sft83vtcauxc2r7nd7g6mxk67w3hy5xcz08hr2rg7asmvhcjdxh498ezwj5rs7vh762ac6a4l0uxl8jsxqc9wgdl","addr1qyayluxpuxgn88270z4aav0vl2akxusa6lrylzlaxf6mxft2rg7asmvhcjdxh498ezwj5rs7vh762ac6a4l0uxl8jsxqaczeuy"],"addressesOutput":["addr1qx27hzwyhamewwp58pdjpgga9904fz88g6khnhdptgggecgyn305nmx59ea0gaw4f94yg6scxy77wdntlz3ntjwy80rsau22h6","addr1qyyctsv90tumh3r3ku7pm9f0z3fv72yk2p3u599kmqht2fr2rg7asmvhcjdxh498ezwj5rs7vh762ac6a4l0uxl8jsxqqtuk3q"],"fee":238277,"totalOutput":34601132,"tokens":[]},{"hash":"ce0025b2dd6c76bab58465b285ba53f55183e3df64b7be83405d79a47d324c05","blockNo":7082582,"blockHash":"c6f3417baa8508606db5b83e873037858f7aa95b99b012920a04b289bca814d2","epochNo":330,"epochSlotNo":332468,"slot":57529268,"time":"2022/04/04 18:05:59","addressesInput":["addr1qyayluxpuxgn88270z4aav0vl2akxusa6lrylzlaxf6mxft2rg7asmvhcjdxh498ezwj5rs7vh762ac6a4l0uxl8jsxqaczeuy","addr1qyayluxpuxgn88270z4aav0vl2akxusa6lrylzlaxf6mxft2rg7asmvhcjdxh498ezwj5rs7vh762ac6a4l0uxl8jsxqaczeuy"],"addressesOutput":["addr1w999n67e86jn6xal07pzxtrmqynspgx0fwmcmpua4wc6yzsxpljz3","addr1qyayluxpuxgn88270z4aav0vl2akxusa6lrylzlaxf6mxft2rg7asmvhcjdxh498ezwj5rs7vh762ac6a4l0uxl8jsxqaczeuy"],"fee":259244,"totalOutput":11757696,"tokens":[]},{"hash":"b6d4a7ffef56f67d57cd2e8a8e0249f8c8de27f228ed15218776d83a3c11fd13","blockNo":7082569,"blockHash":"69d5e65b2da3209c7acf04e958e7ec0a7bdbcb6c51cd37931109f479194f4537","epochNo":330,"epochSlotNo":332140,"slot":57528940,"time":"2022/04/04 18:00:31","addressesInput":["addr1q9cda6qphlpv7nh4pfzy0jyqwp6unstzdds5vg8wfyqgjyv3xq7qfwp06e0ump652k3jcg92ejn3mqtdf3822a45d7psp8kj5g","addr1q9cda6qphlpv7nh4pfzy0jyqwp6unstzdds5vg8wfyqgjyv3xq7qfwp06e0ump652k3jcg92ejn3mqtdf3822a45d7psp8kj5g"],"addressesOutput":["addr1wy2mjh76em44qurn5x73nzqrxua7ataasftql0u2h6g88lc3gtgpz","addr1q9cda6qphlpv7nh4pfzy0jyqwp6unstzdds5vg8wfyqgjyv3xq7qfwp06e0ump652k3jcg92ejn3mqtdf3822a45d7psp8kj5g","addr1q9cda6qphlpv7nh4pfzy0jyqwp6unstzdds5vg8wfyqgjyv3xq7qfwp06e0ump652k3jcg92ejn3mqtdf3822a45d7psp8kj5g"],"fee":396502,"totalOutput":30639275,"tokens":[]},{"hash":"a672d6a65db4e6fd6cdc593790e2fd7fb21adacc384f62ef4127fd4f61cb80be","blockNo":7082412,"blockHash":"b8f416e2b72695a77197cd18a2bc53842f8255a144963b2a936debf919dd8355","epochNo":330,"epochSlotNo":329053,"slot":57525853,"time":"2022/04/04 17:09:04","addressesInput":["addr1q9j9edkjryr9fnz6eyuwjcjutun9kpgtkdlulzquheldfeermhplrjkd38pvcn2r58dnl0v4rxs9lz6rdj5p77j3wvcs7ud37u","addr1q9j9edkjryr9fnz6eyuwjcjutun9kpgtkdlulzquheldfeermhplrjkd38pvcn2r58dnl0v4rxs9lz6rdj5p77j3wvcs7ud37u","addr1q9j9edkjryr9fnz6eyuwjcjutun9kpgtkdlulzquheldfeermhplrjkd38pvcn2r58dnl0v4rxs9lz6rdj5p77j3wvcs7ud37u"],"addressesOutput":["addr1q9k9cxnfldflfmy6psv450a89wtptayymt7p9hdfhlk2afetgmcv80svr23qlqpl3gsf0r474rsythgarf44qdddyvpq9r50vs","addr1q9j9edkjryr9fnz6eyuwjcjutun9kpgtkdlulzquheldfeermhplrjkd38pvcn2r58dnl0v4rxs9lz6rdj5p77j3wvcs7ud37u"],"fee":325353,"totalOutput":24945071,"tokens":[]},{"hash":"982680253576ddb571fd233f575c82deee1c15eb1b9e3885fa118f10744afb31","blockNo":7082322,"blockHash":"5f47d401d813a518023383f43e229b0db6ea614237b459c1c44341121c9cee7c","epochNo":330,"epochSlotNo":327217,"slot":57524017,"time":"2022/04/04 16:38:28","addressesInput":["addr1qx2u89qfc2nvk8lj84gjjcu7eku4d09w32y2ek7j42lamvl54c048ekzfsyzfez2c2qsghzsfy9e0uphlgjeqjx2zh4qfm9mua","addr1w999n67e86jn6xal07pzxtrmqynspgx0fwmcmpua4wc6yzsxpljz3"],"addressesOutput":["addr1w999n67e86jn6xal07pzxtrmqynspgx0fwmcmpua4wc6yzsxpljz3","addr1qx2u89qfc2nvk8lj84gjjcu7eku4d09w32y2ek7j42lamvl54c048ekzfsyzfez2c2qsghzsfy9e0uphlgjeqjx2zh4qfm9mua"],"fee":607719,"totalOutput":9163154,"tokens":[]},{"hash":"b88c0c7b467a9d8a18670910eeea61f0201a26778756990c87c53b7b791520db","blockNo":7082259,"blockHash":"c8f1a51ccc272f2d087fe415d68fdfc4e7450f4eed1ca67990f9881cb92daa25","epochNo":330,"epochSlotNo":325893,"slot":57522693,"time":"2022/04/04 16:16:24","addressesInput":["addr1q9j9edkjryr9fnz6eyuwjcjutun9kpgtkdlulzquheldfeermhplrjkd38pvcn2r58dnl0v4rxs9lz6rdj5p77j3wvcs7ud37u","addr1q9j9edkjryr9fnz6eyuwjcjutun9kpgtkdlulzquheldfeermhplrjkd38pvcn2r58dnl0v4rxs9lz6rdj5p77j3wvcs7ud37u"],"addressesOutput":["addr1q9k9cxnfldflfmy6psv450a89wtptayymt7p9hdfhlk2afetgmcv80svr23qlqpl3gsf0r474rsythgarf44qdddyvpq9r50vs","addr1q9j9edkjryr9fnz6eyuwjcjutun9kpgtkdlulzquheldfeermhplrjkd38pvcn2r58dnl0v4rxs9lz6rdj5p77j3wvcs7ud37u","addr1q9j9edkjryr9fnz6eyuwjcjutun9kpgtkdlulzquheldfeermhplrjkd38pvcn2r58dnl0v4rxs9lz6rdj5p77j3wvcs7ud37u"],"fee":326585,"totalOutput":44354979,"tokens":[]},{"hash":"2cd66bdc766c277c19530906fc054a2f7441ed5893a914d50c92ef49aad2bef7","blockNo":7082258,"blockHash":"b0b7c48f1b1408d81ed7a49c535b52a6f67354cc2e4a9a4af06c1349f9d121ba","epochNo":330,"epochSlotNo":325838,"slot":57522638,"time":"2022/04/04 16:15:29","addressesInput":["addr1qxe0htzkcvdz4pax3ldmfztpy9fqu72568t0m4ed83any0w2wvhy89vv3pdsrjcm4vwlvf0wk2wnup6c2vymnxmrw2gsfp9dkf"],"addressesOutput":["addr1w999n67e86jn6xal07pzxtrmqynspgx0fwmcmpua4wc6yzsxpljz3","addr1qxe0htzkcvdz4pax3ldmfztpy9fqu72568t0m4ed83any0w2wvhy89vv3pdsrjcm4vwlvf0wk2wnup6c2vymnxmrw2gsfp9dkf"],"fee":264258,"totalOutput":16588665,"tokens":[]},{"hash":"4a027f9792c27897546703cccdb83c4d10cadc9142eb90147b94cd288d1915ff","blockNo":7082241,"blockHash":"c2efc26264b8bbd1684843c457aed177974bcc4d617f56bdae24f676fb510ed2","epochNo":330,"epochSlotNo":325638,"slot":57522438,"time":"2022/04/04 16:12:09","addressesInput":["addr1qx2u89qfc2nvk8lj84gjjcu7eku4d09w32y2ek7j42lamvl54c048ekzfsyzfez2c2qsghzsfy9e0uphlgjeqjx2zh4qfm9mua"],"addressesOutput":["addr1w999n67e86jn6xal07pzxtrmqynspgx0fwmcmpua4wc6yzsxpljz3","addr1qx2u89qfc2nvk8lj84gjjcu7eku4d09w32y2ek7j42lamvl54c048ekzfsyzfez2c2qsghzsfy9e0uphlgjeqjx2zh4qfm9mua"],"fee":238084,"totalOutput":9701909,"tokens":[]},{"hash":"fb98bf1597eb055712ad558b197a8c1c1b2912dcf8bdcbabd98817ee728593eb","blockNo":7082223,"blockHash":"59c12f32e85c3c8ed29edfff31fa723c1afaf3527cd9f712f38771dc87c3fb93","epochNo":330,"epochSlotNo":325308,"slot":57522108,"time":"2022/04/04 16:06:39","addressesInput":["addr1q92q6ntqcn8vz6sj0zcnyu7cwczj6aauarf7l9t9lh82cpw2wvhy89vv3pdsrjcm4vwlvf0wk2wnup6c2vymnxmrw2gs5hnemt","addr1qxe0htzkcvdz4pax3ldmfztpy9fqu72568t0m4ed83any0w2wvhy89vv3pdsrjcm4vwlvf0wk2wnup6c2vymnxmrw2gsfp9dkf"],"addressesOutput":["addr1w999n67e86jn6xal07pzxtrmqynspgx0fwmcmpua4wc6yzsxpljz3","addr1qxe0htzkcvdz4pax3ldmfztpy9fqu72568t0m4ed83any0w2wvhy89vv3pdsrjcm4vwlvf0wk2wnup6c2vymnxmrw2gsfp9dkf"],"fee":273090,"totalOutput":18611505,"tokens":[]},{"hash":"19e36260058bed0f68543185e37b9280ad70bd27e0d9b8ba65bbef1734405036","blockNo":7082221,"blockHash":"69cc4c5ee4fb97d5da932c755d33d67fa5b9b2edb8778a8ddea2b0e23ed835fd","epochNo":330,"epochSlotNo":325281,"slot":57522081,"time":"2022/04/04 16:06:12","addressesInput":["addr1qx2u89qfc2nvk8lj84gjjcu7eku4d09w32y2ek7j42lamvl54c048ekzfsyzfez2c2qsghzsfy9e0uphlgjeqjx2zh4qfm9mua"],"addressesOutput":["addr1w999n67e86jn6xal07pzxtrmqynspgx0fwmcmpua4wc6yzsxpljz3","addr1qx2u89qfc2nvk8lj84gjjcu7eku4d09w32y2ek7j42lamvl54c048ekzfsyzfez2c2qsghzsfy9e0uphlgjeqjx2zh4qfm9mua"],"fee":238728,"totalOutput":11698575,"tokens":[]},{"hash":"30cdd108dc017a1aa8ed8b59f32a88fa6af08ac251690d5d440a23ebb891515d","blockNo":7082211,"blockHash":"1e667721c4189f9099604cc0270a9c5473c634896bcd767887cc79be4858a20b","epochNo":330,"epochSlotNo":325010,"slot":57521810,"time":"2022/04/04 16:01:41","addressesInput":["addr1qx2u89qfc2nvk8lj84gjjcu7eku4d09w32y2ek7j42lamvl54c048ekzfsyzfez2c2qsghzsfy9e0uphlgjeqjx2zh4qfm9mua"],"addressesOutput":["addr1w999n67e86jn6xal07pzxtrmqynspgx0fwmcmpua4wc6yzsxpljz3","addr1qx2u89qfc2nvk8lj84gjjcu7eku4d09w32y2ek7j42lamvl54c048ekzfsyzfez2c2qsghzsfy9e0uphlgjeqjx2zh4qfm9mua"],"fee":241028,"totalOutput":13695885,"tokens":[]},{"hash":"256a1dbfc74277cf28f3690206a780bb81b393258d4ce9768c4020461cd30135","blockNo":7082205,"blockHash":"ba9f5ec3d2754f2a047bc1fe50c0213a831cd1d6f8f837ac807a9240e1bf5edb","epochNo":330,"epochSlotNo":324902,"slot":57521702,"time":"2022/04/04 15:59:53","addressesInput":["addr1qx2u89qfc2nvk8lj84gjjcu7eku4d09w32y2ek7j42lamvl54c048ekzfsyzfez2c2qsghzsfy9e0uphlgjeqjx2zh4qfm9mua"],"addressesOutput":["addr1w999n67e86jn6xal07pzxtrmqynspgx0fwmcmpua4wc6yzsxpljz3","addr1qx2u89qfc2nvk8lj84gjjcu7eku4d09w32y2ek7j42lamvl54c048ekzfsyzfez2c2qsghzsfy9e0uphlgjeqjx2zh4qfm9mua"],"fee":242960,"totalOutput":15661013,"tokens":[]},{"hash":"23c5e326f7bf026d62a5b8abf55c2f88a53c6d155056ecc1e5214c045399bb12","blockNo":7082200,"blockHash":"b5d93c90c09d9c0c82bd98413ea107181186eb731d550947a33b016de6642fdf","epochNo":330,"epochSlotNo":324803,"slot":57521603,"time":"2022/04/04 15:58:14","addressesInput":["addr1qx2u89qfc2nvk8lj84gjjcu7eku4d09w32y2ek7j42lamvl54c048ekzfsyzfez2c2qsghzsfy9e0uphlgjeqjx2zh4qfm9mua"],"addressesOutput":["addr1w999n67e86jn6xal07pzxtrmqynspgx0fwmcmpua4wc6yzsxpljz3","addr1qx2u89qfc2nvk8lj84gjjcu7eku4d09w32y2ek7j42lamvl54c048ekzfsyzfez2c2qsghzsfy9e0uphlgjeqjx2zh4qfm9mua"],"fee":245076,"totalOutput":17628073,"tokens":[]},{"hash":"5ce1589c840de075ee1f2764e63c3cbeb21bdfee8c2486c11f0026aff5414973","blockNo":7082184,"blockHash":"339999a15c9c8ab23bb7f5fb33340de96334b5eb728395715fbed79c5cee0915","epochNo":330,"epochSlotNo":324466,"slot":57521266,"time":"2022/04/04 15:52:37","addressesInput":["addr1qx2u89qfc2nvk8lj84gjjcu7eku4d09w32y2ek7j42lamvl54c048ekzfsyzfez2c2qsghzsfy9e0uphlgjeqjx2zh4qfm9mua"],"addressesOutput":["addr1w999n67e86jn6xal07pzxtrmqynspgx0fwmcmpua4wc6yzsxpljz3","addr1qx2u89qfc2nvk8lj84gjjcu7eku4d09w32y2ek7j42lamvl54c048ekzfsyzfez2c2qsghzsfy9e0uphlgjeqjx2zh4qfm9mua"],"fee":247192,"totalOutput":19597249,"tokens":[]},{"hash":"0ad1f27498f602e471038f173a49adb2d5648ff26ed1a832daa1119695dd25a9","blockNo":7082170,"blockHash":"cd2863bd0fb81104930014f8984885f1775192fbe4ab7250974d984359494759","epochNo":330,"epochSlotNo":324184,"slot":57520984,"time":"2022/04/04 15:47:55","addressesInput":["addr1q9j9edkjryr9fnz6eyuwjcjutun9kpgtkdlulzquheldfeermhplrjkd38pvcn2r58dnl0v4rxs9lz6rdj5p77j3wvcs7ud37u","addr1q9j9edkjryr9fnz6eyuwjcjutun9kpgtkdlulzquheldfeermhplrjkd38pvcn2r58dnl0v4rxs9lz6rdj5p77j3wvcs7ud37u"],"addressesOutput":["addr1q9k9cxnfldflfmy6psv450a89wtptayymt7p9hdfhlk2afetgmcv80svr23qlqpl3gsf0r474rsythgarf44qdddyvpq9r50vs","addr1q9j9edkjryr9fnz6eyuwjcjutun9kpgtkdlulzquheldfeermhplrjkd38pvcn2r58dnl0v4rxs9lz6rdj5p77j3wvcs7ud37u","addr1q9j9edkjryr9fnz6eyuwjcjutun9kpgtkdlulzquheldfeermhplrjkd38pvcn2r58dnl0v4rxs9lz6rdj5p77j3wvcs7ud37u"],"fee":326585,"totalOutput":46681564,"tokens":[]},{"hash":"cd5727e3f88fa9a1dbd0f0534fdd600d594b6285a3b75ee102a997f4a66bb78b","blockNo":7082169,"blockHash":"1150183c3b63755ff017f9c98f3608a11e53f731ab4e9b1933711681eaddec55","epochNo":330,"epochSlotNo":324167,"slot":57520967,"time":"2022/04/04 15:47:38","addressesInput":["addr1w999n67e86jn6xal07pzxtrmqynspgx0fwmcmpua4wc6yzsxpljz3","addr1qx2u89qfc2nvk8lj84gjjcu7eku4d09w32y2ek7j42lamvl54c048ekzfsyzfez2c2qsghzsfy9e0uphlgjeqjx2zh4qfm9mua"],"addressesOutput":["addr1q9cwvremt6n320s2e3agq0jyq82yhrk3htsu0w426xnz5us70z4w0jgvcdkkynmm8wmds66jd9kusnjfpu6raw5fqp0sr07p5w","addr1qy45mfx96a2d3dp5eh5krnj68w0wah63vu7wfh903kd2fdem6g4esgxjy6sz3qruxyclvyrcq2qxy2p9l534hvkfd6xqt483q3","addr1qy9rhllxqfj6w7q0n9j5cxjf3n4xxcdshyfzws4pexz7qphd78f7mlketa50ru077y3tzqn3ewx7n5kkhnu7u25a46esx8gxaf","addr1qx2u89qfc2nvk8lj84gjjcu7eku4d09w32y2ek7j42lamvl54c048ekzfsyzfez2c2qsghzsfy9e0uphlgjeqjx2zh4qfm9mua"],"fee":1326090,"totalOutput":46844441,"tokens":[]},{"hash":"714ef40e0937eaa02b86594ba043ed72be9ee5d50e1a57dd140cef4812a0df6e","blockNo":7082153,"blockHash":"6f237c7281a7c6f29cca2b762ef693a7d8024b326bee3fae1fdc6cf14d03d7a9","epochNo":330,"epochSlotNo":323693,"slot":57520493,"time":"2022/04/04 15:39:44","addressesInput":["addr1qx2u89qfc2nvk8lj84gjjcu7eku4d09w32y2ek7j42lamvl54c048ekzfsyzfez2c2qsghzsfy9e0uphlgjeqjx2zh4qfm9mua","addr1qx2u89qfc2nvk8lj84gjjcu7eku4d09w32y2ek7j42lamvl54c048ekzfsyzfez2c2qsghzsfy9e0uphlgjeqjx2zh4qfm9mua","addr1w999n67e86jn6xal07pzxtrmqynspgx0fwmcmpua4wc6yzsxpljz3"],"addressesOutput":["addr1q9cwvremt6n320s2e3agq0jyq82yhrk3htsu0w426xnz5us70z4w0jgvcdkkynmm8wmds66jd9kusnjfpu6raw5fqp0sr07p5w","addr1qxfvghlpma69vx0zgm3fls0lgekmvulvp9dl6zlqx9c4xtkg8dq3cgt3tawjlg2zst3w6k98huuwauzht6tv0t6tez7s3xq2ne","addr1qx2u89qfc2nvk8lj84gjjcu7eku4d09w32y2ek7j42lamvl54c048ekzfsyzfez2c2qsghzsfy9e0uphlgjeqjx2zh4qfm9mua"],"fee":1322870,"totalOutput":70446431,"tokens":[]},{"hash":"e82853ec30f9772a27f0fb7b0b185c0a721e31cbbca7c1f4bd7c9f288caf5c3f","blockNo":7082138,"blockHash":"2546371e071965ab1cc34c241bc950c47ccbb83466e524f0c03657120b5029cd","epochNo":330,"epochSlotNo":323467,"slot":57520267,"time":"2022/04/04 15:35:58","addressesInput":["addr1q9j9edkjryr9fnz6eyuwjcjutun9kpgtkdlulzquheldfeermhplrjkd38pvcn2r58dnl0v4rxs9lz6rdj5p77j3wvcs7ud37u"],"addressesOutput":["addr1wxn9efv2f6w82hagxqtn62ju4m293tqvw0uhmdl64ch8uwc0h43gt","addr1q9j9edkjryr9fnz6eyuwjcjutun9kpgtkdlulzquheldfeermhplrjkd38pvcn2r58dnl0v4rxs9lz6rdj5p77j3wvcs7ud37u"],"fee":331997,"totalOutput":54008149,"tokens":[]}],"totalItems":4030,"totalPages":202,"currentPage":0}