{"data":[{"blockNo":8115471,"slotNo":78982286,"epochNo":380,"epochSlotNo":185486,"hash":"6337d6bb83feba4c379ca1d1e8db1309eabf21e733bb5e0aeb853eb20f7cce22","time":"2022/12/09 01:16:17","txCount":28,"totalFees":9557848,"totalOutput":19830494200648,"slotLeader":"04357793d81097a7d2c15ec6cd6067a58cdd2fb21aaf07e56c306ecf"},{"blockNo":8115470,"slotNo":78982248,"epochNo":380,"epochSlotNo":185448,"hash":"494f144d9cd2e1d01e99812c5781381de76227b6a5339e621d5b81354548d800","time":"2022/12/09 01:15:39","txCount":12,"totalFees":2500944,"totalOutput":28504601803,"slotLeader":"052100e65f3fa89fe1e2d3ae521446b2013b3c91ef5c7961e1b1a1ac"},{"blockNo":8115469,"slotNo":78982222,"epochNo":380,"epochSlotNo":185422,"hash":"79da801c32aa852d8041c4ae7bdb999146f01cbc595e5bd59a49630d66bad3f8","time":"2022/12/09 01:15:13","txCount":15,"totalFees":4586267,"totalOutput":146400935635,"slotLeader":"5cfc3c3314ffe6748ff3a4ca34b4b841ed81caacfee24c341c21a905"},{"blockNo":8115468,"slotNo":78982198,"epochNo":380,"epochSlotNo":185398,"hash":"53758c9d7c1f74c64f1a12e80d48fa10ce998dd0b65ceff05c057d57c2c08a1b","time":"2022/12/09 01:14:49","txCount":7,"totalFees":2542536,"totalOutput":145092440593,"slotLeader":"2c88e3a7f6279bda114f92dbbcd78b734f0ebff40ff2bdce647e9c53"},{"blockNo":8115467,"slotNo":78982184,"epochNo":380,"epochSlotNo":185384,"hash":"b86d3fd600a000b0b27966e95ff20ffb9c66920fda189e63d7ba83e3f6c4a9b2","time":"2022/12/09 01:14:35","txCount":1,"totalFees":474249,"totalOutput":36754473,"slotLeader":"d248ded3c18e0e80d07a46f00a2d808075b989ccb1a0e40a76e5cee1"},{"blockNo":8115466,"slotNo":78982182,"epochNo":380,"epochSlotNo":185382,"hash":"4aab227f10daeffe38a8d9cde52d32753569257aa1ff542465758d3311f0ece4","time":"2022/12/09 01:14:33","txCount":11,"totalFees":3801446,"totalOutput":4168144502968,"slotLeader":"061f4c7b5de2c1554690029e2e559272ff4dbcd3aecc02d91aceb5c7"},{"blockNo":8115465,"slotNo":78982173,"epochNo":380,"epochSlotNo":185373,"hash":"5d31ae19a2135f27ab82fa3fae17b9a252f2cc9cc2502b47310c4fe7d24b4637","time":"2022/12/09 01:14:24","txCount":13,"totalFees":3712909,"totalOutput":44058709467,"slotLeader":"40e81ed617140994bab5a00619d0269f0dd3af9963e40e09f5ee1a6d"},{"blockNo":8115464,"slotNo":78982155,"epochNo":380,"epochSlotNo":185355,"hash":"35614234153b8a2153c31a920a0090dda8353a10b61a0bd63ca675f9e6efd9b6","time":"2022/12/09 01:14:06","txCount":0,"totalFees":0,"totalOutput":0,"slotLeader":"e98e298624ce6efe34635318bdd5d634bed732bb238989d3d1b6fc9e"},{"blockNo":8115463,"slotNo":78982153,"epochNo":380,"epochSlotNo":185353,"hash":"cfa1894be51cdd33892b7677e808cd4bfabad4a541073078b6a2bbef0b53694d","time":"2022/12/09 01:14:04","txCount":2,"totalFees":610226,"totalOutput":31077749,"slotLeader":"6ae0fb9fc19ad1b82521d6e4b9f6e9bad4d150529673c95c5b5cf4e4"},{"blockNo":8115462,"slotNo":78982140,"epochNo":380,"epochSlotNo":185340,"hash":"ff497596c443cffaa1b62f3e201b40df08cda7b9e51b9c328574d989b92a1662","time":"2022/12/09 01:13:51","txCount":0,"totalFees":0,"totalOutput":0,"slotLeader":"ea5f1fb21658736dce6e8c63a516e9e5d645e104b9efbfbb395d7e68"}],"totalItems":9148,"totalPages":915,"currentPage":0}