{"data":[{"txId":56831574,"txHash":"91749fa73bf4fd53cadeabc5beb71f1890890116f08e08f489559b5a70a7cbc1","txTime":"2022/12/07 13:01:36","block":8108943,"epoch":380,"slotNo":78851805,"epochSlotNo":55005,"stakeKey":"stake1u9fh6qunk5qz4y2j5n4qmml790r6nrrzfuaseke06psjrms0emnuc"},{"txId":56831470,"txHash":"6fc77e84a6458dcd30f966233eff27c5e263d236f58a36b253942074514c7e92","txTime":"2022/12/07 12:59:27","block":8108937,"epoch":380,"slotNo":78851676,"epochSlotNo":54876,"stakeKey":"stake1u99cm20jcwu0n66mky0julu2vucww6k4a8637m4g2m78wdgmszl0x"},{"txId":56831274,"txHash":"87de99b33fc1ee56f74c235e9d8e5f496428d4ef09db770f5ac1adffc0d1c07d","txTime":"2022/12/07 12:54:58","block":8108927,"epoch":380,"slotNo":78851407,"epochSlotNo":54607,"stakeKey":"stake1u8ahyeqpehyqn2jpfmplagz2tsk5yfekpjmcttmlw4rt85sd0ckfg"},{"txId":56831052,"txHash":"0c8e07cf211a518b0a6b4bc456ccf8ec8984f8374f8e8fbd2653f5568733f494","txTime":"2022/12/07 12:50:02","block":8108912,"epoch":380,"slotNo":78851111,"epochSlotNo":54311,"stakeKey":"stake1u8hn9rl33ccyzer28f8tlysycsx3r5wdsrszld56kxd65cczlvwkh"},{"txId":56830776,"txHash":"9463673b435a7bd3e07e9b9eadab533e1b7194772bd21b110f3f8c6636409c63","txTime":"2022/12/07 12:45:03","block":8108899,"epoch":380,"slotNo":78850812,"epochSlotNo":54012,"stakeKey":"stake1uxn72l3ww2mx5kqhlugpkesxryf506h3t2g3y8jdf7e9v9chwk8qw"},{"txId":56830116,"txHash":"cb91a044f1d309732f851349becdeb1231daa68f0a57f3fa76afa7ea1adde071","txTime":"2022/12/07 12:32:27","block":8108858,"epoch":380,"slotNo":78850056,"epochSlotNo":53256,"stakeKey":"stake1uytkazpmkzpu9044uagcyfc22g5f6tcfntqan0w6hnmalpqgstqa3"},{"txId":56829653,"txHash":"5c4adfc7678e4c9508f650dcfca9279996bc0b3532aec4fbcb67652b99e92dca","txTime":"2022/12/07 12:23:25","block":8108830,"epoch":380,"slotNo":78849514,"epochSlotNo":52714,"stakeKey":"stake1uyg6kn2w0xlzn7gggwhlptqrgpctjy7rfvczmgzsjchfxrqd6qdtp"},{"txId":56829460,"txHash":"dce77c7c4d9d1b43cbbaa406a0ab74a39499f70e892562dbf1997190d2ece0a5","txTime":"2022/12/07 12:19:31","block":8108824,"epoch":380,"slotNo":78849280,"epochSlotNo":52480,"stakeKey":"stake1uyc6ald5tt780w6tzr03t8d6da6amyj4ctp7lzl4kv0khzqzarsmm"},{"txId":56829244,"txHash":"03007cda04ecc76217dd0d8f81142096aa1d5a522367812faa70e1ccc3218f9d","txTime":"2022/12/07 12:16:44","block":8108812,"epoch":380,"slotNo":78849113,"epochSlotNo":52313,"stakeKey":"stake1uxf7q4nhhsgsucqfnprxq69qnj4x75ywr5jw7a0nlunu6jgmavn2e"},{"txId":56829229,"txHash":"ddabc40b6be915d71ed8651e47d7c6843791181e3ca0017fbdd1c0e41d1bc455","txTime":"2022/12/07 12:15:34","block":8108810,"epoch":380,"slotNo":78849043,"epochSlotNo":52243,"stakeKey":"stake1u855x5grkwp62zsl53s4k7zh22tdkguenyfdl7vyj0jkhss855es6"},{"txId":56828204,"txHash":"e713312cd8a7e48e3d88d30ebe889d43d405c565063ea1dadf6b4bcb965348ff","txTime":"2022/12/07 11:54:44","block":8108737,"epoch":380,"slotNo":78847793,"epochSlotNo":50993,"stakeKey":"stake1u90j7ul4wucqz8net3mp7rqxp84pzvgdwp9qwxljjkm8h6qvezvqs"},{"txId":56827943,"txHash":"559eb7f536cae7b216ee1e61b65412849182e4c306d4d92fbe3d67957a46459f","txTime":"2022/12/07 11:49:40","block":8108722,"epoch":380,"slotNo":78847489,"epochSlotNo":50689,"stakeKey":"stake1uxaxtff9fqqn9a3rn8n877cq2wecws8vq4pjdkdlqsmleqgy77fdf"},{"txId":56827903,"txHash":"3def4bae9b70f592397d97f0c67696245e54f2ea76fad34024b5600eb7545bf8","txTime":"2022/12/07 11:48:19","block":8108716,"epoch":380,"slotNo":78847408,"epochSlotNo":50608,"stakeKey":"stake1uy3jqk9c3jvjtfywcjfvmddq6nw24kam5589g8cddyfghecc2sd90"},{"txId":56827862,"txHash":"2601d9519f196d25d2f5a5697d4646d862a31f4ae0ab6a8af6b9a16dcfa16503","txTime":"2022/12/07 11:47:27","block":8108714,"epoch":380,"slotNo":78847356,"epochSlotNo":50556,"stakeKey":"stake1uxq4q6dga7uulld70mak853f9hx7gmdk4sjylu9mq2naacsaw20e7"},{"txId":56827444,"txHash":"334f6db3f9fcaaf9cd53303652fc6f3850372d7e35d7e31adf2d622039f12f70","txTime":"2022/12/07 11:38:29","block":8108686,"epoch":380,"slotNo":78846818,"epochSlotNo":50018,"stakeKey":"stake1uy4fm3dlvh6d47jf2lvsarqy8l3thyt958nkm07e9g62j9qn2aegs"},{"txId":56827440,"txHash":"9c45c4f7353937f790215083919e503764a37b5d7b35dd2b1492cadec3254dc8","txTime":"2022/12/07 11:38:20","block":8108685,"epoch":380,"slotNo":78846809,"epochSlotNo":50009,"stakeKey":"stake1uxf6ydtdha5xr74ak82vqvyhwy24vwggrj4h0cpehzzcqdsn3dkz3"},{"txId":56826992,"txHash":"ee92f6d09183ad6239fa8cc6b717149243793280990e5f928c844890b64c9ebc","txTime":"2022/12/07 11:28:27","block":8108657,"epoch":380,"slotNo":78846216,"epochSlotNo":49416,"stakeKey":"stake1u9f60g04u6sj2c3q3pjm7dx959hfpzqhza30rzdwxwx3tqc0gghgd"},{"txId":56826675,"txHash":"dd2fc7d9fcf8e179ef21524f2b108bd01a895c567684c617e0ea65c05206af58","txTime":"2022/12/07 11:22:42","block":8108639,"epoch":380,"slotNo":78845871,"epochSlotNo":49071,"stakeKey":"stake1ux3xwe0kcf3dhjqr0w54hu2c738tj56vfye892xs0pqsdcc5kdlc0"},{"txId":56826224,"txHash":"5f5c91052e423965f791fde8e36d1d3bba8996d7f1a18970a7967ea1f3e527fa","txTime":"2022/12/07 11:10:37","block":8108608,"epoch":380,"slotNo":78845146,"epochSlotNo":48346,"stakeKey":"stake1u93glcx3jyyvpvka6yjlturpjcjpvha7umyta599xty6etggrm2md"},{"txId":56826183,"txHash":"5c0514dad325e8be684ec024ec924f5bdf0ca5f18c350d8f39e7937ddb1ed4db","txTime":"2022/12/07 11:09:36","block":8108607,"epoch":380,"slotNo":78845085,"epochSlotNo":48285,"stakeKey":"stake1uxsl390kdfcqwsmmc0plewjqxhykp3z9fm3yc3jq3wre9wsleddm2"}],"totalItems":335375,"totalPages":16769,"currentPage":0}