{"data":[{"hash":"ac9597761a875c1e792baeb7d894cd53eed4682eedbcdc8fe4fa371b78d23e1d","blockNo":8278562,"blockHash":"058cf5a6f9f365fb2019ff744be2a8cb17b68a174de3b07c371e1957d2cf5e77","epochNo":388,"epochSlotNo":76420,"slot":82329220,"time":"2023/01/16 18:58:31","addressesInput":["addr1qx4kn0c7gezfx96gla469rtw5hd0574vvhlfe20trmkre82yx8zc4n8s5al5ngtaa5ffutrq7839sykj4w3y0k5c83fsjzv34q","addr1qx4kn0c7gezfx96gla469rtw5hd0574vvhlfe20trmkre82yx8zc4n8s5al5ngtaa5ffutrq7839sykj4w3y0k5c83fsjzv34q","addr1qx4kn0c7gezfx96gla469rtw5hd0574vvhlfe20trmkre82yx8zc4n8s5al5ngtaa5ffutrq7839sykj4w3y0k5c83fsjzv34q"],"addressesOutput":["addr1q8k8mwk3vpw44m2tmuyszeth06uju3tpdjx8rz74h5tpzhwp5808g7a5w3djcfyh7us0cvcqwccm8j843jtre9frt79sj0wmgn","addr1qx4kn0c7gezfx96gla469rtw5hd0574vvhlfe20trmkre82yx8zc4n8s5al5ngtaa5ffutrq7839sykj4w3y0k5c83fsjzv34q","addr1qx4kn0c7gezfx96gla469rtw5hd0574vvhlfe20trmkre82yx8zc4n8s5al5ngtaa5ffutrq7839sykj4w3y0k5c83fsjzv34q"],"fee":183629,"totalOutput":201055241,"tokens":[]},{"hash":"a754bb35fcc3c26ac6bb1957f1f73c6fc173f4a0a7b515027cc1c73e7ef5b4c1","blockNo":8278562,"blockHash":"058cf5a6f9f365fb2019ff744be2a8cb17b68a174de3b07c371e1957d2cf5e77","epochNo":388,"epochSlotNo":76420,"slot":82329220,"time":"2023/01/16 18:58:31","addressesInput":["addr1q9kj30pxge8p6gs24nq6gsnd22nddt76yz9dm9l0n8hu65rhqyz4tzvvhvxh2dmv59tj0z3r6zrz4a5uncand963aprqfs6m8n","addr1q9kk7msd2v6nqrwd368sp53epdt6t7kd2fmg46dz5meynvthqyz4tzvvhvxh2dmv59tj0z3r6zrz4a5uncand963aprquzpmcc","addr1q9kk7msd2v6nqrwd368sp53epdt6t7kd2fmg46dz5meynvthqyz4tzvvhvxh2dmv59tj0z3r6zrz4a5uncand963aprquzpmcc","addr1q9kj30pxge8p6gs24nq6gsnd22nddt76yz9dm9l0n8hu65rhqyz4tzvvhvxh2dmv59tj0z3r6zrz4a5uncand963aprqfs6m8n","addr1q9kk7msd2v6nqrwd368sp53epdt6t7kd2fmg46dz5meynvthqyz4tzvvhvxh2dmv59tj0z3r6zrz4a5uncand963aprquzpmcc","addr1q9kj30pxge8p6gs24nq6gsnd22nddt76yz9dm9l0n8hu65rhqyz4tzvvhvxh2dmv59tj0z3r6zrz4a5uncand963aprqfs6m8n","addr1q88am03ll933zhy59p20uujn3yeekth3lt7mmdaksyxg6dthqyz4tzvvhvxh2dmv59tj0z3r6zrz4a5uncand963aprq6t9yud","addr1q9kj30pxge8p6gs24nq6gsnd22nddt76yz9dm9l0n8hu65rhqyz4tzvvhvxh2dmv59tj0z3r6zrz4a5uncand963aprqfs6m8n","addr1q9kj30pxge8p6gs24nq6gsnd22nddt76yz9dm9l0n8hu65rhqyz4tzvvhvxh2dmv59tj0z3r6zrz4a5uncand963aprqfs6m8n","addr1q9kj30pxge8p6gs24nq6gsnd22nddt76yz9dm9l0n8hu65rhqyz4tzvvhvxh2dmv59tj0z3r6zrz4a5uncand963aprqfs6m8n","addr1q9kj30pxge8p6gs24nq6gsnd22nddt76yz9dm9l0n8hu65rhqyz4tzvvhvxh2dmv59tj0z3r6zrz4a5uncand963aprqfs6m8n"],"addressesOutput":["addr1q9k7g5mq66ygeu5wc9cv2uc0nnwt94zvpp8wqc0z26yrr8nhqyz4tzvvhvxh2dmv59tj0z3r6zrz4a5uncand963aprqwfeph6"],"fee":326673,"totalOutput":53746527,"tokens":[]},{"hash":"fb43d70f129ce398a8c131c6d04465f256ff0e05e062b27d727ab344c76b94c2","blockNo":8278561,"blockHash":"d03d27c19e3e9773882044646c397636b3bb4a8118ede7883ecc525ff0d836b7","epochNo":388,"epochSlotNo":76419,"slot":82329219,"time":"2023/01/16 18:58:30","addressesInput":["addr1q9t5e0vp0z8vya7ulqs560a76thehrjcfc4n7j0np5d6a3rdja9pgxtf6450n03y8c8mljjzgray4awg4wglnh04ws9s2wf9c7","addr1q9t5e0vp0z8vya7ulqs560a76thehrjcfc4n7j0np5d6a3rdja9pgxtf6450n03y8c8mljjzgray4awg4wglnh04ws9s2wf9c7"],"addressesOutput":["addr1wxaptpmxcxawvr3pzlhgnpmzz3ql43n2tc8mn3av5kx0yzs09tqh8","addr1q9t5e0vp0z8vya7ulqs560a76thehrjcfc4n7j0np5d6a3rdja9pgxtf6450n03y8c8mljjzgray4awg4wglnh04ws9s2wf9c7","addr1q9t5e0vp0z8vya7ulqs560a76thehrjcfc4n7j0np5d6a3rdja9pgxtf6450n03y8c8mljjzgray4awg4wglnh04ws9s2wf9c7"],"fee":187193,"totalOutput":43916399,"tokens":[]},{"hash":"78d60c3806f0cef0234011370cd82c2712a24668933fbeb5153146bb3f107a13","blockNo":8278561,"blockHash":"d03d27c19e3e9773882044646c397636b3bb4a8118ede7883ecc525ff0d836b7","epochNo":388,"epochSlotNo":76419,"slot":82329219,"time":"2023/01/16 18:58:30","addressesInput":["addr1qymy5yp7uwm8476e7376grfljl5gr3zsmktzq0ltgnvfzx2vdywrtvnsnuvqy7eee76gca4r2uewcdauu2tt77yplxzqqcd98m","addr1qymacrd92szvckgg2srrfpu50ceec0x4x8q8qrn6thd2awzvdywrtvnsnuvqy7eee76gca4r2uewcdauu2tt77yplxzqj0vp52","addr1q8w8zfhnfdlyxqcgqrlxpn8njrhnl67c8az0c7ke2tlm59jvdywrtvnsnuvqy7eee76gca4r2uewcdauu2tt77yplxzq28yrwe","addr1q8w8zfhnfdlyxqcgqrlxpn8njrhnl67c8az0c7ke2tlm59jvdywrtvnsnuvqy7eee76gca4r2uewcdauu2tt77yplxzq28yrwe","addr1qx48mkerzc2kuer7murdth4lhu4ruzpklkw4urexty8gju2vdywrtvnsnuvqy7eee76gca4r2uewcdauu2tt77yplxzqrspsh0","addr1qymacrd92szvckgg2srrfpu50ceec0x4x8q8qrn6thd2awzvdywrtvnsnuvqy7eee76gca4r2uewcdauu2tt77yplxzqj0vp52","addr1q9w2s7dynuqpm0gch73hehvz9puzvun5ytlark87kfxvu76vdywrtvnsnuvqy7eee76gca4r2uewcdauu2tt77yplxzqp5x6al","addr1qymacrd92szvckgg2srrfpu50ceec0x4x8q8qrn6thd2awzvdywrtvnsnuvqy7eee76gca4r2uewcdauu2tt77yplxzqj0vp52","addr1qymy5yp7uwm8476e7376grfljl5gr3zsmktzq0ltgnvfzx2vdywrtvnsnuvqy7eee76gca4r2uewcdauu2tt77yplxzqqcd98m","addr1q8w8zfhnfdlyxqcgqrlxpn8njrhnl67c8az0c7ke2tlm59jvdywrtvnsnuvqy7eee76gca4r2uewcdauu2tt77yplxzq28yrwe"],"addressesOutput":["addr1zxgx3far7qygq0k6epa0zcvcvrevmn0ypsnfsue94nsn3tvpw288a4x0xf8pxgcntelxmyclq83s0ykeehchz2wtspks905plm","addr1qx48mkerzc2kuer7murdth4lhu4ruzpklkw4urexty8gju2vdywrtvnsnuvqy7eee76gca4r2uewcdauu2tt77yplxzqrspsh0","addr1qx48mkerzc2kuer7murdth4lhu4ruzpklkw4urexty8gju2vdywrtvnsnuvqy7eee76gca4r2uewcdauu2tt77yplxzqrspsh0"],"fee":260981,"totalOutput":481582292,"tokens":[]},{"hash":"cedcaa92e2ed18e5586fae37bc382e6af262c7f280bfc341e8357d7f55a96108","blockNo":8278561,"blockHash":"d03d27c19e3e9773882044646c397636b3bb4a8118ede7883ecc525ff0d836b7","epochNo":388,"epochSlotNo":76419,"slot":82329219,"time":"2023/01/16 18:58:30","addressesInput":["addr1q8ft3nxk4fnhtsr48czxhxyv49q5aye0ey3zq9dww80shu9rhvdaj7dhhue4aj0ttva5mc24hpgd3k0nzs5cdwft4qfq8ncrt2"],"addressesOutput":["addr1q87k9zrel8zsqpqhue55u7356gch8a4wp7xfpg5et2nn3q72h8y4gwedd2z2nx6544nalel0zd0g0kel44c96xy3vxvqwq22c9","addr1q8ft3nxk4fnhtsr48czxhxyv49q5aye0ey3zq9dww80shu9rhvdaj7dhhue4aj0ttva5mc24hpgd3k0nzs5cdwft4qfq8ncrt2"],"fee":168053,"totalOutput":3281139859,"tokens":[]},{"hash":"cdbe48482e25cebedf8ee0cbb17becf60d3cb42449405d634a83c759dab3d1b0","blockNo":8278561,"blockHash":"d03d27c19e3e9773882044646c397636b3bb4a8118ede7883ecc525ff0d836b7","epochNo":388,"epochSlotNo":76419,"slot":82329219,"time":"2023/01/16 18:58:30","addressesInput":["addr1vxyg37d3mms22h6ad567lne7zxc9h8j4djy6n5yguvh225q7fhts6","addr1v8zk95n93klwrmvffq6fgmzw59qddyuyv5j680ph3pcp49q00xh9h"],"addressesOutput":["addr1qxlgqj2rqpgz685vydrgpm43nw4p36vg4657p4rgqzwrnhpf3wtcpu45jy0raqttckl7mv222mzytdc0lkj3kkru40vqxgqrv4","addr1v95sf69jcfhnmknvffwmfvlvnccatqwfjcyh0nlfc6gh5scta2yzg"],"fee":180021,"totalOutput":969929819979,"tokens":[]},{"hash":"dab298799bba14133c9c78693c87feab8c26d814dee263af32452da507d4700b","blockNo":8278561,"blockHash":"d03d27c19e3e9773882044646c397636b3bb4a8118ede7883ecc525ff0d836b7","epochNo":388,"epochSlotNo":76419,"slot":82329219,"time":"2023/01/16 18:58:30","addressesInput":["addr1qy5r6qmzk8ldpx2m0errcm0hf9p8n3j6308a09q8lmexp2mtpd6n74uul0jkvn06r2ghnjc3xx88zsqtmj4gdhkwuhnse9nf5z"],"addressesOutput":["addr1wxr2a8htmzuhj39y2gq7ftkpxv98y2g67tg8zezthgq4jkg0a4ul4","addr1qy4v2qntrhj402pnt85w5qqn607yqvxtdlf05rmyrza5ykntpd6n74uul0jkvn06r2ghnjc3xx88zsqtmj4gdhkwuhnsjnna0l","addr1qymf8d3289rcq8py06jmvca9n7wars5w4p3yjdle388y84ntpd6n74uul0jkvn06r2ghnjc3xx88zsqtmj4gdhkwuhns5g84l5"],"fee":187149,"totalOutput":34660217,"tokens":[]},{"hash":"9100370487eee7bc65dd376cebb25507d26e5a8fddd3742ac4fbed434e661c71","blockNo":8278561,"blockHash":"d03d27c19e3e9773882044646c397636b3bb4a8118ede7883ecc525ff0d836b7","epochNo":388,"epochSlotNo":76419,"slot":82329219,"time":"2023/01/16 18:58:30","addressesInput":["addr1q8nvfpek0wwvnht9mj8c7z074qjs4ck006vpallwqrspzmq4ycxy9nat5lqe24uxp6grdk0sewwqxkgy2kl3gjca2ytsgc55uq","addr1wy30zf2g4xc7v872fdweewrlj3lh2lgttelmydn0cvhyplsg3vnkq"],"addressesOutput":["addr1q8nvfpek0wwvnht9mj8c7z074qjs4ck006vpallwqrspzmq4ycxy9nat5lqe24uxp6grdk0sewwqxkgy2kl3gjca2ytsgc55uq","addr1wy30zf2g4xc7v872fdweewrlj3lh2lgttelmydn0cvhyplsg3vnkq"],"fee":817965,"totalOutput":4627196105,"tokens":[]},{"hash":"9b1b9a2a820620f3fbd203b6a3dc747993b38a2f384c9d207c2b5e54d2b543cf","blockNo":8278561,"blockHash":"d03d27c19e3e9773882044646c397636b3bb4a8118ede7883ecc525ff0d836b7","epochNo":388,"epochSlotNo":76419,"slot":82329219,"time":"2023/01/16 18:58:30","addressesInput":["addr1q9z6fv2z6vkwdv2mmnydhkzrpq6vmlhex6fjj9pj67x3wg5ftxht5rjtt8r6szfg2m5k8r9eefvxwdw8xlzvjfteejqsh442lz","addr1q9z6fv2z6vkwdv2mmnydhkzrpq6vmlhex6fjj9pj67x3wg5ftxht5rjtt8r6szfg2m5k8r9eefvxwdw8xlzvjfteejqsh442lz","addr1q9z6fv2z6vkwdv2mmnydhkzrpq6vmlhex6fjj9pj67x3wg5ftxht5rjtt8r6szfg2m5k8r9eefvxwdw8xlzvjfteejqsh442lz","addr1q9z6fv2z6vkwdv2mmnydhkzrpq6vmlhex6fjj9pj67x3wg5ftxht5rjtt8r6szfg2m5k8r9eefvxwdw8xlzvjfteejqsh442lz","addr1q9z6fv2z6vkwdv2mmnydhkzrpq6vmlhex6fjj9pj67x3wg5ftxht5rjtt8r6szfg2m5k8r9eefvxwdw8xlzvjfteejqsh442lz","addr1q9z6fv2z6vkwdv2mmnydhkzrpq6vmlhex6fjj9pj67x3wg5ftxht5rjtt8r6szfg2m5k8r9eefvxwdw8xlzvjfteejqsh442lz","addr1q9z6fv2z6vkwdv2mmnydhkzrpq6vmlhex6fjj9pj67x3wg5ftxht5rjtt8r6szfg2m5k8r9eefvxwdw8xlzvjfteejqsh442lz","addr1q9z6fv2z6vkwdv2mmnydhkzrpq6vmlhex6fjj9pj67x3wg5ftxht5rjtt8r6szfg2m5k8r9eefvxwdw8xlzvjfteejqsh442lz","addr1q9z6fv2z6vkwdv2mmnydhkzrpq6vmlhex6fjj9pj67x3wg5ftxht5rjtt8r6szfg2m5k8r9eefvxwdw8xlzvjfteejqsh442lz","addr1q9z6fv2z6vkwdv2mmnydhkzrpq6vmlhex6fjj9pj67x3wg5ftxht5rjtt8r6szfg2m5k8r9eefvxwdw8xlzvjfteejqsh442lz","addr1q9z6fv2z6vkwdv2mmnydhkzrpq6vmlhex6fjj9pj67x3wg5ftxht5rjtt8r6szfg2m5k8r9eefvxwdw8xlzvjfteejqsh442lz","addr1q9z6fv2z6vkwdv2mmnydhkzrpq6vmlhex6fjj9pj67x3wg5ftxht5rjtt8r6szfg2m5k8r9eefvxwdw8xlzvjfteejqsh442lz","addr1q9z6fv2z6vkwdv2mmnydhkzrpq6vmlhex6fjj9pj67x3wg5ftxht5rjtt8r6szfg2m5k8r9eefvxwdw8xlzvjfteejqsh442lz","addr1qxn9cufdez9zedv4v0f49gtyvlupvkq8crntnhnuyup2ah358ruj0rmwqptuxd2uv3750m8hnvcy2uqqsx4c72za20js52afs2"],"addressesOutput":["addr1q9z6fv2z6vkwdv2mmnydhkzrpq6vmlhex6fjj9pj67x3wg5ftxht5rjtt8r6szfg2m5k8r9eefvxwdw8xlzvjfteejqsh442lz","addr1qxn9cufdez9zedv4v0f49gtyvlupvkq8crntnhnuyup2ah358ruj0rmwqptuxd2uv3750m8hnvcy2uqqsx4c72za20js52afs2","addr1qxn9cufdez9zedv4v0f49gtyvlupvkq8crntnhnuyup2ah358ruj0rmwqptuxd2uv3750m8hnvcy2uqqsx4c72za20js52afs2","addr1q9z6fv2z6vkwdv2mmnydhkzrpq6vmlhex6fjj9pj67x3wg5ftxht5rjtt8r6szfg2m5k8r9eefvxwdw8xlzvjfteejqsh442lz","addr1q9z6fv2z6vkwdv2mmnydhkzrpq6vmlhex6fjj9pj67x3wg5ftxht5rjtt8r6szfg2m5k8r9eefvxwdw8xlzvjfteejqsh442lz","addr1q9z6fv2z6vkwdv2mmnydhkzrpq6vmlhex6fjj9pj67x3wg5ftxht5rjtt8r6szfg2m5k8r9eefvxwdw8xlzvjfteejqsh442lz","addr1q9z6fv2z6vkwdv2mmnydhkzrpq6vmlhex6fjj9pj67x3wg5ftxht5rjtt8r6szfg2m5k8r9eefvxwdw8xlzvjfteejqsh442lz","addr1q9z6fv2z6vkwdv2mmnydhkzrpq6vmlhex6fjj9pj67x3wg5ftxht5rjtt8r6szfg2m5k8r9eefvxwdw8xlzvjfteejqsh442lz","addr1q9z6fv2z6vkwdv2mmnydhkzrpq6vmlhex6fjj9pj67x3wg5ftxht5rjtt8r6szfg2m5k8r9eefvxwdw8xlzvjfteejqsh442lz","addr1q9z6fv2z6vkwdv2mmnydhkzrpq6vmlhex6fjj9pj67x3wg5ftxht5rjtt8r6szfg2m5k8r9eefvxwdw8xlzvjfteejqsh442lz","addr1q9z6fv2z6vkwdv2mmnydhkzrpq6vmlhex6fjj9pj67x3wg5ftxht5rjtt8r6szfg2m5k8r9eefvxwdw8xlzvjfteejqsh442lz","addr1q9z6fv2z6vkwdv2mmnydhkzrpq6vmlhex6fjj9pj67x3wg5ftxht5rjtt8r6szfg2m5k8r9eefvxwdw8xlzvjfteejqsh442lz","addr1q9z6fv2z6vkwdv2mmnydhkzrpq6vmlhex6fjj9pj67x3wg5ftxht5rjtt8r6szfg2m5k8r9eefvxwdw8xlzvjfteejqsh442lz","addr1q9z6fv2z6vkwdv2mmnydhkzrpq6vmlhex6fjj9pj67x3wg5ftxht5rjtt8r6szfg2m5k8r9eefvxwdw8xlzvjfteejqsh442lz","addr1q9z6fv2z6vkwdv2mmnydhkzrpq6vmlhex6fjj9pj67x3wg5ftxht5rjtt8r6szfg2m5k8r9eefvxwdw8xlzvjfteejqsh442lz"],"fee":1107452,"totalOutput":48354290,"tokens":[]},{"hash":"e0649bb0f8b36da5f00a64b860e0379a596ba7ab786bbbba513a9abad99452db","blockNo":8278561,"blockHash":"d03d27c19e3e9773882044646c397636b3bb4a8118ede7883ecc525ff0d836b7","epochNo":388,"epochSlotNo":76419,"slot":82329219,"time":"2023/01/16 18:58:30","addressesInput":["addr1vy4nmtfc4jfftgqg369hs2ku6kvcncgzhkemq6mh0u3zgpslf59wr"],"addressesOutput":["addr1qx2rxd6r3fwa8efljncgg0e6jezvtmw430jdtjxeyy58ehhwtcxz25ku9pralr0k7vezmtyyvjf40s4k0rkraecz40usmw5mx9","addr1q9lcwnjv8gvcfx8rqffytq3jqms37t30dsp2nec2nry0p97j7wf2pnd3pe9v6eefela0m6h04dext2ws57u0qvrphkssuqehqs","DdzFFzCqrht3Gmi2RUHN8f728jPQCmpRnMibYjnQc6yp1gcbvENcEdG4kYqSbS9sQs5k9A2wmueUFm75eqhuN9DH88X4WFPZ6iGuR9Rj","addr1vy4nmtfc4jfftgqg369hs2ku6kvcncgzhkemq6mh0u3zgpslf59wr"],"fee":181750,"totalOutput":314002008544,"tokens":[]},{"hash":"91f4bef7b50bc61316857f7a9976dceb96d3e7e4db8dff8216a7f3b71d9e3d5c","blockNo":8278561,"blockHash":"d03d27c19e3e9773882044646c397636b3bb4a8118ede7883ecc525ff0d836b7","epochNo":388,"epochSlotNo":76419,"slot":82329219,"time":"2023/01/16 18:58:30","addressesInput":["addr1q85gl30zu3gzmy5p886jm8646p3f46dl0z37xtjgdrc3v4fyullrg3wdzls78yhengjdupzd96mmavpxm374pq8cxmfqy72fw3","addr1q85gl30zu3gzmy5p886jm8646p3f46dl0z37xtjgdrc3v4fyullrg3wdzls78yhengjdupzd96mmavpxm374pq8cxmfqy72fw3"],"addressesOutput":["addr1vya2f4xjww6aww8y4ey4ln9umae6nw9zpqkzgfa0yssy7uq7fujcn","addr1q85gl30zu3gzmy5p886jm8646p3f46dl0z37xtjgdrc3v4fyullrg3wdzls78yhengjdupzd96mmavpxm374pq8cxmfqy72fw3","addr1q85gl30zu3gzmy5p886jm8646p3f46dl0z37xtjgdrc3v4fyullrg3wdzls78yhengjdupzd96mmavpxm374pq8cxmfqy72fw3"],"fee":387217,"totalOutput":57728840,"tokens":[]},{"hash":"bd9f0d4108c5c27471784eedb5dbd5f1fe8c9463cbc19632117b011fae7e3d12","blockNo":8278561,"blockHash":"d03d27c19e3e9773882044646c397636b3bb4a8118ede7883ecc525ff0d836b7","epochNo":388,"epochSlotNo":76419,"slot":82329219,"time":"2023/01/16 18:58:30","addressesInput":["addr1qx4h00kgycv29f0gmzg66qekzxr2vfvxzgnkqh9kt78lxyhjljzatyrfaakcy3at6ghu490vc8fmptnwumxsve9dqffqa4vffm","addr1wy30zf2g4xc7v872fdweewrlj3lh2lgttelmydn0cvhyplsg3vnkq"],"addressesOutput":["addr1qx4h00kgycv29f0gmzg66qekzxr2vfvxzgnkqh9kt78lxyhjljzatyrfaakcy3at6ghu490vc8fmptnwumxsve9dqffqa4vffm","addr1wy30zf2g4xc7v872fdweewrlj3lh2lgttelmydn0cvhyplsg3vnkq"],"fee":817261,"totalOutput":740682746,"tokens":[]},{"hash":"545f1140b3cdf4d1d75501d160a55ab010ed647bf35908c365d96a7eb49d46d9","blockNo":8278561,"blockHash":"d03d27c19e3e9773882044646c397636b3bb4a8118ede7883ecc525ff0d836b7","epochNo":388,"epochSlotNo":76419,"slot":82329219,"time":"2023/01/16 18:58:30","addressesInput":["addr1qykkq9mc3t7tgp36cz8ydnarepkmpjzp2fdg7uvf9gvuj5mdnqujdl2c552ltfaqqe4k33a5aw3qgltj6u4wpxkzn04s2nr4q4","addr1qykkq9mc3t7tgp36cz8ydnarepkmpjzp2fdg7uvf9gvuj5mdnqujdl2c552ltfaqqe4k33a5aw3qgltj6u4wpxkzn04s2nr4q4","addr1qykkq9mc3t7tgp36cz8ydnarepkmpjzp2fdg7uvf9gvuj5mdnqujdl2c552ltfaqqe4k33a5aw3qgltj6u4wpxkzn04s2nr4q4"],"addressesOutput":["addr1wxaptpmxcxawvr3pzlhgnpmzz3ql43n2tc8mn3av5kx0yzs09tqh8","addr1qykkq9mc3t7tgp36cz8ydnarepkmpjzp2fdg7uvf9gvuj5mdnqujdl2c552ltfaqqe4k33a5aw3qgltj6u4wpxkzn04s2nr4q4","addr1qykkq9mc3t7tgp36cz8ydnarepkmpjzp2fdg7uvf9gvuj5mdnqujdl2c552ltfaqqe4k33a5aw3qgltj6u4wpxkzn04s2nr4q4"],"fee":192649,"totalOutput":2180243162,"tokens":[]},{"hash":"08c9948683925f401bd345da4a761177ea5b0adfeb01b91f534fd0248bd8b85e","blockNo":8278561,"blockHash":"d03d27c19e3e9773882044646c397636b3bb4a8118ede7883ecc525ff0d836b7","epochNo":388,"epochSlotNo":76419,"slot":82329219,"time":"2023/01/16 18:58:30","addressesInput":["addr1qxesstnvrhdlcnhmtmflpwpqsfrr5ugtzj77w77pjx8ts9akgrp6daxt88nynyfh46lnlcu7ceck5adk7knhmdxlqatqr6vplt","addr1qxesstnvrhdlcnhmtmflpwpqsfrr5ugtzj77w77pjx8ts9akgrp6daxt88nynyfh46lnlcu7ceck5adk7knhmdxlqatqr6vplt","addr1zxgx3far7qygq0k6epa0zcvcvrevmn0ypsnfsue94nsn3tvpw288a4x0xf8pxgcntelxmyclq83s0ykeehchz2wtspks905plm"],"addressesOutput":["addr1zxgx3far7qygq0k6epa0zcvcvrevmn0ypsnfsue94nsn3tvpw288a4x0xf8pxgcntelxmyclq83s0ykeehchz2wtspks905plm","addr1qxesstnvrhdlcnhmtmflpwpqsfrr5ugtzj77w77pjx8ts9akgrp6daxt88nynyfh46lnlcu7ceck5adk7knhmdxlqatqr6vplt","addr1qxesstnvrhdlcnhmtmflpwpqsfrr5ugtzj77w77pjx8ts9akgrp6daxt88nynyfh46lnlcu7ceck5adk7knhmdxlqatqr6vplt"],"fee":319445,"totalOutput":552866253,"tokens":[]},{"hash":"4733fb6ff2098171217751ad4832e099d1a3db3a92f9b31af06bf48c1e3b87f3","blockNo":8278561,"blockHash":"d03d27c19e3e9773882044646c397636b3bb4a8118ede7883ecc525ff0d836b7","epochNo":388,"epochSlotNo":76419,"slot":82329219,"time":"2023/01/16 18:58:30","addressesInput":["addr1zxgx3far7qygq0k6epa0zcvcvrevmn0ypsnfsue94nsn3tvpw288a4x0xf8pxgcntelxmyclq83s0ykeehchz2wtspks905plm","addr1qy2r6pzhg3zg9r6p5yr7vp93lyg4an2l0l4sx79g2guqjmpp37ch4mdx4qyt4kpws2x0kn2azlpx09y4hq9l6lkve8js43c3jv","addr1qy2r6pzhg3zg9r6p5yr7vp93lyg4an2l0l4sx79g2guqjmpp37ch4mdx4qyt4kpws2x0kn2azlpx09y4hq9l6lkve8js43c3jv"],"addressesOutput":["addr1zxgx3far7qygq0k6epa0zcvcvrevmn0ypsnfsue94nsn3tvpw288a4x0xf8pxgcntelxmyclq83s0ykeehchz2wtspks905plm","addr1qy2r6pzhg3zg9r6p5yr7vp93lyg4an2l0l4sx79g2guqjmpp37ch4mdx4qyt4kpws2x0kn2azlpx09y4hq9l6lkve8js43c3jv"],"fee":336300,"totalOutput":21549620,"tokens":[]},{"hash":"1d316cb52354182ab589f79bd8b0d72d8fbcfc9d123c8aa45cf3366dbbb3af06","blockNo":8278561,"blockHash":"d03d27c19e3e9773882044646c397636b3bb4a8118ede7883ecc525ff0d836b7","epochNo":388,"epochSlotNo":76419,"slot":82329219,"time":"2023/01/16 18:58:30","addressesInput":["addr1qx8g8ahylgmqdvtc8mtxqhnnlkttm0qlqqrn023fevus7dnr2pw89y4ucd4ph8a7q0ah5kcn5vt0l26gwrphptyegw2q29tjcg"],"addressesOutput":["addr1qx3ap8nvp4uyrnxswx85ctn056r7s7uvph86sxguanca5rtr2pw89y4ucd4ph8a7q0ah5kcn5vt0l26gwrphptyegw2q8yp2pv","addr1qxf3zk2s5pw2l9zs62yt8tfq5qaznmv37dak2mua6jgkj62e7mflzm4xpuax3f0qzck8npalm6ddmxz9c0a5df23pejsgjv2ez","addr1qx3ap8nvp4uyrnxswx85ctn056r7s7uvph86sxguanca5rtr2pw89y4ucd4ph8a7q0ah5kcn5vt0l26gwrphptyegw2q8yp2pv"],"fee":354833,"totalOutput":109125167,"tokens":[]},{"hash":"c1ae62233b886ca7f159b02579980580712c67ff27b371f0c87cafd67e50c27d","blockNo":8278561,"blockHash":"d03d27c19e3e9773882044646c397636b3bb4a8118ede7883ecc525ff0d836b7","epochNo":388,"epochSlotNo":76419,"slot":82329219,"time":"2023/01/16 18:58:30","addressesInput":["addr1w999n67e86jn6xal07pzxtrmqynspgx0fwmcmpua4wc6yzsxpljz3","addr1qxgte83du5lwyxwtn4j7yug62qnfz0gvhpq4p3euv9pv74dqd3ajel6sa84qdsfy5380qjcrkt0jlhsn6h5amjfzqd8qfc75qe"],"addressesOutput":["addr1qxgte83du5lwyxwtn4j7yug62qnfz0gvhpq4p3euv9pv74dqd3ajel6sa84qdsfy5380qjcrkt0jlhsn6h5amjfzqd8qfc75qe","addr1qxgte83du5lwyxwtn4j7yug62qnfz0gvhpq4p3euv9pv74dqd3ajel6sa84qdsfy5380qjcrkt0jlhsn6h5amjfzqd8qfc75qe","addr1qxgte83du5lwyxwtn4j7yug62qnfz0gvhpq4p3euv9pv74dqd3ajel6sa84qdsfy5380qjcrkt0jlhsn6h5amjfzqd8qfc75qe","addr1qxgte83du5lwyxwtn4j7yug62qnfz0gvhpq4p3euv9pv74dqd3ajel6sa84qdsfy5380qjcrkt0jlhsn6h5amjfzqd8qfc75qe","addr1qxgte83du5lwyxwtn4j7yug62qnfz0gvhpq4p3euv9pv74dqd3ajel6sa84qdsfy5380qjcrkt0jlhsn6h5amjfzqd8qfc75qe"],"fee":507480,"totalOutput":451216620,"tokens":[]},{"hash":"c9d1dde91bc30e29e0830492baa5977c5e7b0a22a826da0272f773c66c809861","blockNo":8278559,"blockHash":"83968172f40ca65eaca61b3a94896a8bcc2b1e3983a2d806d9818ebc225518d4","epochNo":388,"epochSlotNo":76404,"slot":82329204,"time":"2023/01/16 18:58:15","addressesInput":["addr1zxgx3far7qygq0k6epa0zcvcvrevmn0ypsnfsue94nsn3tvpw288a4x0xf8pxgcntelxmyclq83s0ykeehchz2wtspks905plm","addr1q8mnxc0maff5dg4x758mq5an9ygy57nz9su4gswg23avzwm5y0rmmh4ac0vet9vnehp6hvy8q73hes8rsnmjrhtsvt0qvy7p03"],"addressesOutput":["addr1zxgx3far7qygq0k6epa0zcvcvrevmn0ypsnfsue94nsn3tvpw288a4x0xf8pxgcntelxmyclq83s0ykeehchz2wtspks905plm","addr1q8mnxc0maff5dg4x758mq5an9ygy57nz9su4gswg23avzwm5y0rmmh4ac0vet9vnehp6hvy8q73hes8rsnmjrhtsvt0qvy7p03"],"fee":315832,"totalOutput":146404093,"tokens":[]},{"hash":"23d2da9b67226034df2e9fa9f51f1f0a3322fff7a7b2e980f3f4516a56394acb","blockNo":8278559,"blockHash":"83968172f40ca65eaca61b3a94896a8bcc2b1e3983a2d806d9818ebc225518d4","epochNo":388,"epochSlotNo":76404,"slot":82329204,"time":"2023/01/16 18:58:15","addressesInput":["addr1qxnrv2quqxhvwxtxmygsmkufph4kjju6j5len7k2ljslpz8ql7k7gehlfvj6ektgu9ns8yx8epcp66337khxeq82rpgqe6lqyk","addr1qxnrv2quqxhvwxtxmygsmkufph4kjju6j5len7k2ljslpz8ql7k7gehlfvj6ektgu9ns8yx8epcp66337khxeq82rpgqe6lqyk"],"addressesOutput":["addr1q9aqmfl365xver2zswusq5re8r8tlmm3rdlggphpj6nwly982tq7dct4xdyqynaqkgnaxys784m9fh60ppw3ndvjpmtqlp7z97","addr1qxnrv2quqxhvwxtxmygsmkufph4kjju6j5len7k2ljslpz8ql7k7gehlfvj6ektgu9ns8yx8epcp66337khxeq82rpgqe6lqyk"],"fee":171925,"totalOutput":196837349,"tokens":[]},{"hash":"aeabe84d56ddd8cb534c42c4d1a94227b5a228b272435bf56ab8e4bf08b6ddcb","blockNo":8278559,"blockHash":"83968172f40ca65eaca61b3a94896a8bcc2b1e3983a2d806d9818ebc225518d4","epochNo":388,"epochSlotNo":76404,"slot":82329204,"time":"2023/01/16 18:58:15","addressesInput":["addr1q944577uw4pveuqmg746t7jtqywjvu0y5hll48mq6sfpejdhqwks85p5cemcjruvkrdrpe470svjqnklyrq9they3x2qzt7zqh"],"addressesOutput":["addr1q9vt4wgchamt5psu2lfha5a4e35rghapjfssxkpdkxlpladhqwks85p5cemcjruvkrdrpe470svjqnklyrq9they3x2q4m4yt4"],"fee":174477,"totalOutput":103620245666,"tokens":[]}],"totalItems":59154430,"totalPages":2957722,"currentPage":0}