{"data":[{"blockNo":8277561,"slotNo":82308151,"epochNo":388,"epochSlotNo":55351,"hash":"0521010d464baf6619fb86fce889c34621fe4cc37219a5ed7d208abc41e1339b","time":"2023/01/16 13:07:22","txCount":29,"totalFees":9005800,"totalOutput":1149146006776,"slotLeader":"b900dfcf894c473620bf379f8c63aa300d8c8842a94a758758bdcd33"},{"blockNo":8277560,"slotNo":82308111,"epochNo":388,"epochSlotNo":55311,"hash":"8c55b9600a2b394100bf0dd802c771d19020b6cd086153c0bef3f82d5b602eae","time":"2023/01/16 13:06:42","txCount":35,"totalFees":10301075,"totalOutput":3572501243603,"slotLeader":"4fd4f6b6c164e0bf9b514f7facc6dcae87ed4eca857605da92990d35"},{"blockNo":8277559,"slotNo":82308074,"epochNo":388,"epochSlotNo":55274,"hash":"272380b458937eb9880af77ea531ace1e5b6efae85d9d448eab3647ea94e9bd0","time":"2023/01/16 13:06:05","txCount":20,"totalFees":6192234,"totalOutput":134399544730,"slotLeader":"36e0db9278d5b481dad2f2f84c42d20c324b046aaff97ff45fa4e134"},{"blockNo":8277558,"slotNo":82308049,"epochNo":388,"epochSlotNo":55249,"hash":"c66afaec50faa8fa47121e59e884e8cd564766f82a59d0cb8e634eb3fc9881cf","time":"2023/01/16 13:05:40","txCount":5,"totalFees":1002429,"totalOutput":4113432923,"slotLeader":"afb33d38e92e03f9ce86f0175cc33e487b8def0ee25235f1e40183d1"},{"blockNo":8277557,"slotNo":82308043,"epochNo":388,"epochSlotNo":55243,"hash":"c84591697ebb6b834604c4de30322d8436b2342b96cb675e464edcaed05217bd","time":"2023/01/16 13:05:34","txCount":7,"totalFees":2079168,"totalOutput":608552091461,"slotLeader":"72de14d78a359617a7dd0b33c5554ed4edbafd768ece87c4bf672ee0"},{"blockNo":8277556,"slotNo":82308029,"epochNo":388,"epochSlotNo":55229,"hash":"55f00e2e61bd87a94b9ed1bd2ec1ab530e7f611e1c991a441d90ac3f9a80bd6d","time":"2023/01/16 13:05:20","txCount":37,"totalFees":11085380,"totalOutput":726922050808,"slotLeader":"a10865dae2d543ee9f13e98bff70ea81565bb6e4343b15b765f78174"},{"blockNo":8277555,"slotNo":82307988,"epochNo":388,"epochSlotNo":55188,"hash":"bb04408d49131186501e87cec1df59f3c082d43a21203dafaf5abe1f8bb8f44a","time":"2023/01/16 13:04:39","txCount":20,"totalFees":9965940,"totalOutput":4448388120183,"slotLeader":"90ac71b92a4c29f7a9bbde83ba2e6e2c17b69e41db204a55e7a338ae"},{"blockNo":8277554,"slotNo":82307965,"epochNo":388,"epochSlotNo":55165,"hash":"b0a47fc16db4923dbea8b05af4ee3c2fa98d5184c56106de247ce81e2cd67846","time":"2023/01/16 13:04:16","txCount":6,"totalFees":1398677,"totalOutput":552432997547,"slotLeader":"96840eba5a4d0ff0d42f7ad5ac83343a0c6a87b1c71bf106cc544855"},{"blockNo":8277553,"slotNo":82307955,"epochNo":388,"epochSlotNo":55155,"hash":"202c7ec8b24699ab0dbd6d0ca37aaf960c0c61f1dbe303acfb64585582a6054c","time":"2023/01/16 13:04:06","txCount":0,"totalFees":0,"totalOutput":0,"slotLeader":"661d04fdb7aa2c2476bbc6827d11ec22ec04ecb953495ade0f7b2352"},{"blockNo":8277552,"slotNo":82307954,"epochNo":388,"epochSlotNo":55154,"hash":"2598ac5b04816ebe70e1a71169a5a7902ee170b27cf6c28154b31ed0c383920e","time":"2023/01/16 13:04:05","txCount":8,"totalFees":2226508,"totalOutput":3230520294666,"slotLeader":"e6ac159ee8063742eadcb48be45f29d9a67b4158439070032f42d10c"}],"totalItems":2759,"totalPages":276,"currentPage":0}