{"data":[{"hash":"8a9b35c0aecd109fd083050d9f3e0c7c5b0a382cba044433463bc0b9a932c3b9","blockNo":6857401,"blockHash":"a5781915e5bdff1aad1667a9707853d2344d365fcf63f066df481e2d8752aaa3","epochNo":319,"epochSlotNo":324498,"slot":52769298,"time":"2022/02/08 15:53:09","addressesInput":["addr1wxaptpmxcxawvr3pzlhgnpmzz3ql43n2tc8mn3av5kx0yzs09tqh8","addr1wxaptpmxcxawvr3pzlhgnpmzz3ql43n2tc8mn3av5kx0yzs09tqh8","addr1wxaptpmxcxawvr3pzlhgnpmzz3ql43n2tc8mn3av5kx0yzs09tqh8","addr1v8r3w7q8umz2ulpw40amwgvcnneu5est4smunxeunkdfjys7pd85y","addr1wxaptpmxcxawvr3pzlhgnpmzz3ql43n2tc8mn3av5kx0yzs09tqh8","addr1w9qzpelu9hn45pefc0xr4ac4kdxeswq7pndul2vuj59u8tqaxdznu"],"addressesOutput":["addr1w9qzpelu9hn45pefc0xr4ac4kdxeswq7pndul2vuj59u8tqaxdznu","addr1w9jx45flh83z6wuqypyash54mszwmdj8r64fydafxtfc6jgrw4rm3","addr1q97py99r9vd9z7esmlfyj2k7wuhkae5ukfyqzwtd0j5uzy7ae8gmlpk8pjqnprjfz0e2y9f7zv54gwmxdraz3llc67dst5mdan","addr1qy6u0tequ3leed9wsnw58ndl95xzyf8qee43mgkkkfxaqrgnn4drm0q52ssu9cesxvmeqedqdsx4t7agzr7kc5z4q0ms4s28ya","addr1q8cq56w2pqgw9wenryr9uhzewgt8excwlqjfsj3nu2zsdx8df4jw4ntj0z2dc5sftpzm3vlvyhpjp0ax5lc2d9vxl6yq80fhyt","addr1q9257vku5kn972ja8kw2tc0hgvlftrc5nx6yxpgkqt9gvypz8n8672e3l4r2x3kdv0mt46f0au6n9fze3gujwrs2szlq95keng","addr1v8r3w7q8umz2ulpw40amwgvcnneu5est4smunxeunkdfjys7pd85y"],"fee":1836963,"totalOutput":584048583894,"tokens":[]},{"hash":"b8ef76166df584a069685335b6ed2e941307d6af647a53141800e78cabda3451","blockNo":6857401,"blockHash":"a5781915e5bdff1aad1667a9707853d2344d365fcf63f066df481e2d8752aaa3","epochNo":319,"epochSlotNo":324498,"slot":52769298,"time":"2022/02/08 15:53:09","addressesInput":["addr1wxaptpmxcxawvr3pzlhgnpmzz3ql43n2tc8mn3av5kx0yzs09tqh8","addr1w9qzpelu9hn45pefc0xr4ac4kdxeswq7pndul2vuj59u8tqaxdznu","addr1wxaptpmxcxawvr3pzlhgnpmzz3ql43n2tc8mn3av5kx0yzs09tqh8","addr1wxaptpmxcxawvr3pzlhgnpmzz3ql43n2tc8mn3av5kx0yzs09tqh8","addr1v8r3w7q8umz2ulpw40amwgvcnneu5est4smunxeunkdfjys7pd85y"],"addressesOutput":["addr1w9qzpelu9hn45pefc0xr4ac4kdxeswq7pndul2vuj59u8tqaxdznu","addr1w9jx45flh83z6wuqypyash54mszwmdj8r64fydafxtfc6jgrw4rm3","addr1qyd98nhrpu6npskd88eh4cclu9gj8skdewa2vuz0zpyjplkldey0u92j6yeyrk7345wjtppyjh9trqqleluy943p7swsc5re76","addr1q8a4r5n2ushuyarcpatd0dtpc6snlkyhlhy8g7s9mdhyczghlc68wzx7va278yh42gm4jm4scvuvvyn0g56ymlg9uxzs2dw3cv","addr1qxx3tcufj7ydym29sh28uerjhgtf6wndzyyv4mjat8mdtkh0c7077taayymurkztp8ygnluwvtr3juvyvyzsgnf9njlq4a8720","addr1v8r3w7q8umz2ulpw40amwgvcnneu5est4smunxeunkdfjys7pd85y"],"fee":1707382,"totalOutput":8400102006001,"tokens":[]},{"hash":"afa515121a8909399f468fc3892b4ad508ac4d9fa7632fa4bacaa4f145ac666e","blockNo":6857401,"blockHash":"a5781915e5bdff1aad1667a9707853d2344d365fcf63f066df481e2d8752aaa3","epochNo":319,"epochSlotNo":324498,"slot":52769298,"time":"2022/02/08 15:53:09","addressesInput":["addr1v9xfl25m2x57c8g875sv4xe3p6j2tj2sqm27yjj4tt5kk2gme3vmd","addr1vxlhtswjtxjzd4gntqy54mh6ydqtan4kncr7pzp62jcvwgsel7cd4","addr1vxzqv4hp09jlvlk885srezm2f3l7nx6m4t9x48mmxc6dytqqrxs4k","addr1vy5dmf5h4xjje6d7lagdxppvy70dyj5x4cxcpxavvn2vwuqm5wnxp","addr1v9ww300mnrsq6zcpk8rsgr3287hjz9wrf238gt4j5eq2aegf6yt37","addr1v8g3ws3nwhxlkavul9anjepu9l5asjhg709lmsnulxx9kdcaaurjn","addr1v8pr9mwnqarw808gtllvmlxvk70hnszrukjeqfstr9t9g5crud8c4","addr1v9we547xfsgahl2mj8kpkhpwj5nnw80ng9qvcxgwhsp226q8wy930","addr1v98a9a3ekgx2nsmduzx2gtha9uclt6z2qd9gmcvjjsr7ywcpunfef","addr1v89jryfhl2qaqge9sf6e9m0yqt22sv8d3c6s0pw7ued4ptsehgxht","addr1v8mdcgh7qs68j3lqa9dk0c7fxvwu9h8jl7kxusm45u03ppcrkf5t6","addr1vy29gl3396gvph7ucn9y9gcnnq5g0y42yn6d36xheam8e5g7f5hfd","addr1vx0rklrlp9wjvx5vjy7tmunvgpe2ryyt9wyy5ytyk7k29jc5j0ucq","addr1v9yr26lhfzk9sdakmefhfegt57cvf9fy7xsrk78xm6dqkfs2taan2","addr1vywpc2zgr48msw0aag6kfanzm2rr24a8urfydxrwrvc7fjsp4j7qw","addr1vygsm9qsf6gksmsefzen3hsuau7jyslyyk68x6yqh474sagsxl34t","addr1vyp6tshmlkhw37qw90exxxf95c0t2lhx59pg3a8sqd4nsmq5k4r7w","addr1vxxpm9xmtlh6pzncj2zcphccwnztw6dcnlqz5m3smvj6zxqhz5drf","addr1vy3qpx09uscywhppj5vp08hu0ekg9zwmq2ysfq6qyh2mpps865j6t","addr1vxnfsfv733myk02hd25h025lhv278t4xfzz4z3hll5ca9ag6jfrsn","addr1v8el0cpvhtc8lmpyly6ncwd9c426xjxn90lj2ekssnw3urgdgn77l","addr1vxr9f336af4yntz87gtdrrhdj5cxuch5jpk9zljpllezgxgcx6v3r","addr1vxq3kvt2p3nhkvp5ajw0yant5g3vjkp3t8ac63nkawl8skctgqqmz","addr1vyp5ayk0822akma8lfajwpmytcdprzk6dlxw60gvf27nt8cge27zt","addr1vxs5gcc8ft479a7c320nfdlpm7p2z6fdw7fg6t756s3rqgqus4q63"],"addressesOutput":["addr1vy3qpx09uscywhppj5vp08hu0ekg9zwmq2ysfq6qyh2mpps865j6t","addr1v8pr9mwnqarw808gtllvmlxvk70hnszrukjeqfstr9t9g5crud8c4","addr1qypeyfuuuu8u80ravraqgd76p97vye9d5z8atxkdhfvnje0ee4rxm3884gdgr0lnpj0nhfugkcw8zvmuw0hgkkz4yjcq6495jf","addr1q8sqep47d8lkcu62we7rl742q3em5j3c5m4um69tdflmzdqfg03pr37w2hv8c2geqx7rxhjjp0xug7r6ex7dqrlv45xqvwy0e0","addr1q8ky3k2gh3e2dqv9l5gzcfxeskwmpvs67euuqlkkgfm2w7d9wkat2m0cys77e7gn67pj9re58l0dcmh8jetsxwlsnlhswgnja7","addr1vyp6tshmlkhw37qw90exxxf95c0t2lhx59pg3a8sqd4nsmq5k4r7w","addr1v8el0cpvhtc8lmpyly6ncwd9c426xjxn90lj2ekssnw3urgdgn77l","addr1vxr9f336af4yntz87gtdrrhdj5cxuch5jpk9zljpllezgxgcx6v3r","addr1v98a9a3ekgx2nsmduzx2gtha9uclt6z2qd9gmcvjjsr7ywcpunfef","addr1vyp5ayk0822akma8lfajwpmytcdprzk6dlxw60gvf27nt8cge27zt","addr1v9ww300mnrsq6zcpk8rsgr3287hjz9wrf238gt4j5eq2aegf6yt37","addr1vywpc2zgr48msw0aag6kfanzm2rr24a8urfydxrwrvc7fjsp4j7qw","addr1vxlhtswjtxjzd4gntqy54mh6ydqtan4kncr7pzp62jcvwgsel7cd4","addr1v9we547xfsgahl2mj8kpkhpwj5nnw80ng9qvcxgwhsp226q8wy930","addr1vxnfsfv733myk02hd25h025lhv278t4xfzz4z3hll5ca9ag6jfrsn","addr1vy29gl3396gvph7ucn9y9gcnnq5g0y42yn6d36xheam8e5g7f5hfd","addr1v8g3ws3nwhxlkavul9anjepu9l5asjhg709lmsnulxx9kdcaaurjn","addr1vxs5gcc8ft479a7c320nfdlpm7p2z6fdw7fg6t756s3rqgqus4q63","addr1vxxpm9xmtlh6pzncj2zcphccwnztw6dcnlqz5m3smvj6zxqhz5drf","addr1vy5dmf5h4xjje6d7lagdxppvy70dyj5x4cxcpxavvn2vwuqm5wnxp","addr1v9xfl25m2x57c8g875sv4xe3p6j2tj2sqm27yjj4tt5kk2gme3vmd","addr1v89jryfhl2qaqge9sf6e9m0yqt22sv8d3c6s0pw7ued4ptsehgxht","addr1vxq3kvt2p3nhkvp5ajw0yant5g3vjkp3t8ac63nkawl8skctgqqmz","addr1vygsm9qsf6gksmsefzen3hsuau7jyslyyk68x6yqh474sagsxl34t","addr1vx0rklrlp9wjvx5vjy7tmunvgpe2ryyt9wyy5ytyk7k29jc5j0ucq"],"fee":491497,"totalOutput":4446948788,"tokens":[]},{"hash":"9a9904351b05c483bf3eb83a68d91160082b89b0f0cf83916e4f1c93d2ccc086","blockNo":6857401,"blockHash":"a5781915e5bdff1aad1667a9707853d2344d365fcf63f066df481e2d8752aaa3","epochNo":319,"epochSlotNo":324498,"slot":52769298,"time":"2022/02/08 15:53:09","addressesInput":["addr1q929hd36wy8k6584v5cdhqverj5t3djzuj3e6kxqg3mawwp6mutwlfz204m9vjv6n36gt4ndysrcyufurd80swf6t5qse2macr"],"addressesOutput":["addr1wxaptpmxcxawvr3pzlhgnpmzz3ql43n2tc8mn3av5kx0yzs09tqh8","addr1q929hd36wy8k6584v5cdhqverj5t3djzuj3e6kxqg3mawwp6mutwlfz204m9vjv6n36gt4ndysrcyufurd80swf6t5qse2macr"],"fee":232505,"totalOutput":272558694,"tokens":[]},{"hash":"66b70cf65085c45f8066bd73533548ad4990046d31d0cd2a7ca02b83fc66d459","blockNo":6857401,"blockHash":"a5781915e5bdff1aad1667a9707853d2344d365fcf63f066df481e2d8752aaa3","epochNo":319,"epochSlotNo":324498,"slot":52769298,"time":"2022/02/08 15:53:09","addressesInput":["addr1q9ddl7z0ka04mjs52jvlqegl2sngf89mllnhwnmu8pu60p9hjwu4605djsyte55lc6cyfh784s0jwwkcjvcwmauvcu8qur54ug"],"addressesOutput":["addr1q9ctexe6ggcgekfx3kww2vkg9kc34usxj3pczcqckvu7m5smtep0560ll06cfryaslqxrtgyxu3s4je5kdlpyssu2jfqpaf890","addr1q9ddl7z0ka04mjs52jvlqegl2sngf89mllnhwnmu8pu60p9hjwu4605djsyte55lc6cyfh784s0jwwkcjvcwmauvcu8qur54ug","addr1q9ddl7z0ka04mjs52jvlqegl2sngf89mllnhwnmu8pu60p9hjwu4605djsyte55lc6cyfh784s0jwwkcjvcwmauvcu8qur54ug"],"fee":364909,"totalOutput":963056453,"tokens":[]},{"hash":"71258ebe266573e367da1c469fcc39d0e0d334c29e6588e837dcbbe7fb072bb5","blockNo":6857401,"blockHash":"a5781915e5bdff1aad1667a9707853d2344d365fcf63f066df481e2d8752aaa3","epochNo":319,"epochSlotNo":324498,"slot":52769298,"time":"2022/02/08 15:53:09","addressesInput":["addr1v89jryfhl2qaqge9sf6e9m0yqt22sv8d3c6s0pw7ued4ptsehgxht","addr1v9xfl25m2x57c8g875sv4xe3p6j2tj2sqm27yjj4tt5kk2gme3vmd","addr1vxxpm9xmtlh6pzncj2zcphccwnztw6dcnlqz5m3smvj6zxqhz5drf","addr1vy9v0xmr33372lvcwsf44v3kd3pvlzkqk2mth8ad97cummslwmskg","addr1v95rdt42rug5ee367cautkrk7wux4ygey3ev358r47xe0sssshsye","addr1v8jp36q7tnlasn335u7c5yuaa7tcur6jhz4up80q78nhhes5jrd5t","addr1vyvmdaqanttyyclt57fd9ehh9hrwfaf8al40axvsr4yfe8qha05am","addr1vx0rklrlp9wjvx5vjy7tmunvgpe2ryyt9wyy5ytyk7k29jc5j0ucq","addr1v8pr9mwnqarw808gtllvmlxvk70hnszrukjeqfstr9t9g5crud8c4","addr1vxlhtswjtxjzd4gntqy54mh6ydqtan4kncr7pzp62jcvwgsel7cd4","addr1vxr9f336af4yntz87gtdrrhdj5cxuch5jpk9zljpllezgxgcx6v3r","addr1v9ww300mnrsq6zcpk8rsgr3287hjz9wrf238gt4j5eq2aegf6yt37","addr1vy3qpx09uscywhppj5vp08hu0ekg9zwmq2ysfq6qyh2mpps865j6t","addr1v87sxw7u9wgtwx2f2f2dag26wl3qe0c354zyvjhs05kcx7cznhq9z","addr1v8jnw4lv07rlwulttwf80ktne8fquqwgtaen83kxj35rpnqj4fe8y","addr1vyp5ayk0822akma8lfajwpmytcdprzk6dlxw60gvf27nt8cge27zt","addr1vy29gl3396gvph7ucn9y9gcnnq5g0y42yn6d36xheam8e5g7f5hfd","addr1vyx3g7tu83qnfxg6hy8992n8xahelkhpx67peya2jdg94fsckecr0","addr1vyp6tshmlkhw37qw90exxxf95c0t2lhx59pg3a8sqd4nsmq5k4r7w","addr1v98a9a3ekgx2nsmduzx2gtha9uclt6z2qd9gmcvjjsr7ywcpunfef","addr1v9we547xfsgahl2mj8kpkhpwj5nnw80ng9qvcxgwhsp226q8wy930"],"addressesOutput":["addr1vy3qpx09uscywhppj5vp08hu0ekg9zwmq2ysfq6qyh2mpps865j6t","addr1v8pr9mwnqarw808gtllvmlxvk70hnszrukjeqfstr9t9g5crud8c4","addr1qyuj3aht5jmtwh9jnnn5m4h3nfgls2lnec0ya2wdjhrm5q3czmvewrds94240zva344mhnzjxamss7ryd3gxu2q3wuaq6kl3vj","addr1qxlycczuhp7s2tlnr0vl38ha9z6hnjs55jejc7srfn82cafhgdg263hddreeu6gu2e2lvwksrx8dh5cm2cl0fxwwlc5sq9gstc","addr1q9n60kjygtddmjzu3sksmu3p2q4lpa5cf24x5hlmrsd85cakye8ltljygdn34ssdhy5cy857p8guc647l7u2ehu90s0spsnktx","addr1vyp6tshmlkhw37qw90exxxf95c0t2lhx59pg3a8sqd4nsmq5k4r7w","addr1vy29gl3396gvph7ucn9y9gcnnq5g0y42yn6d36xheam8e5g7f5hfd","addr1vxr9f336af4yntz87gtdrrhdj5cxuch5jpk9zljpllezgxgcx6v3r","addr1v8jp36q7tnlasn335u7c5yuaa7tcur6jhz4up80q78nhhes5jrd5t","addr1vyvmdaqanttyyclt57fd9ehh9hrwfaf8al40axvsr4yfe8qha05am","addr1v9ww300mnrsq6zcpk8rsgr3287hjz9wrf238gt4j5eq2aegf6yt37","addr1v9xfl25m2x57c8g875sv4xe3p6j2tj2sqm27yjj4tt5kk2gme3vmd","addr1vxlhtswjtxjzd4gntqy54mh6ydqtan4kncr7pzp62jcvwgsel7cd4","addr1v89jryfhl2qaqge9sf6e9m0yqt22sv8d3c6s0pw7ued4ptsehgxht","addr1vx0rklrlp9wjvx5vjy7tmunvgpe2ryyt9wyy5ytyk7k29jc5j0ucq","addr1v98a9a3ekgx2nsmduzx2gtha9uclt6z2qd9gmcvjjsr7ywcpunfef","addr1v95rdt42rug5ee367cautkrk7wux4ygey3ev358r47xe0sssshsye","addr1vyx3g7tu83qnfxg6hy8992n8xahelkhpx67peya2jdg94fsckecr0","addr1vyp5ayk0822akma8lfajwpmytcdprzk6dlxw60gvf27nt8cge27zt","addr1v9we547xfsgahl2mj8kpkhpwj5nnw80ng9qvcxgwhsp226q8wy930","addr1vxxpm9xmtlh6pzncj2zcphccwnztw6dcnlqz5m3smvj6zxqhz5drf"],"fee":413793,"totalOutput":4434647133,"tokens":[]},{"hash":"5430b15ed4bafc9d889787540a9d3eb7ab1210dd8037245efcd4d1d435ff6f96","blockNo":6857401,"blockHash":"a5781915e5bdff1aad1667a9707853d2344d365fcf63f066df481e2d8752aaa3","epochNo":319,"epochSlotNo":324498,"slot":52769298,"time":"2022/02/08 15:53:09","addressesInput":["addr1q8msgm5nhhezpx3cfwsak8f7xcx0cw5kdhlcesu57seep3nzm8ytmgskanjh3h4jmscd6368dsq3vwcfdm0du3h38luq4agz6x","addr1q8msgm5nhhezpx3cfwsak8f7xcx0cw5kdhlcesu57seep3nzm8ytmgskanjh3h4jmscd6368dsq3vwcfdm0du3h38luq4agz6x"],"addressesOutput":["addr1w9yr0zr530tp9yzrhly8lw5upddu0eym3yh0mjwa0qlr9pgmkzgv0","addr1q8msgm5nhhezpx3cfwsak8f7xcx0cw5kdhlcesu57seep3nzm8ytmgskanjh3h4jmscd6368dsq3vwcfdm0du3h38luq4agz6x"],"fee":176281,"totalOutput":131019138,"tokens":[]},{"hash":"4e183b42fa257207369932507de786d71d89b19cbc783944379eca19be8ee248","blockNo":6857401,"blockHash":"a5781915e5bdff1aad1667a9707853d2344d365fcf63f066df481e2d8752aaa3","epochNo":319,"epochSlotNo":324498,"slot":52769298,"time":"2022/02/08 15:53:09","addressesInput":["addr1q8sfkwcj8g67f5p3m9qg8dd6mvz0jut4zzptpw6wxtks50wn60w90tevslr5qgyjujtnaf46dnvd083w4r7j6zd9hjes4v8lmv"],"addressesOutput":["addr1vxzx0hfss5zs8505auzr25mnlsrvm8enje56gnhkvj4kazqqgld0n","addr1q8sfkwcj8g67f5p3m9qg8dd6mvz0jut4zzptpw6wxtks50wn60w90tevslr5qgyjujtnaf46dnvd083w4r7j6zd9hjes4v8lmv"],"fee":167085,"totalOutput":490687539,"tokens":[]},{"hash":"02e425bd3af1fb01c605de296eb85789e60940f6514b121d3840081dcab196a6","blockNo":6857401,"blockHash":"a5781915e5bdff1aad1667a9707853d2344d365fcf63f066df481e2d8752aaa3","epochNo":319,"epochSlotNo":324498,"slot":52769298,"time":"2022/02/08 15:53:09","addressesInput":["addr1q80ts02xqlg6vmqxx2ys8ralldljljcsfx84ks4283mcpvmktuqqxslnpunwytjyt6luzpecluw28h3w0cmrly03gh7qgmc44u","addr1q80ts02xqlg6vmqxx2ys8ralldljljcsfx84ks4283mcpvmktuqqxslnpunwytjyt6luzpecluw28h3w0cmrly03gh7qgmc44u"],"addressesOutput":["addr1w9yr0zr530tp9yzrhly8lw5upddu0eym3yh0mjwa0qlr9pgmkzgv0","addr1q80ts02xqlg6vmqxx2ys8ralldljljcsfx84ks4283mcpvmktuqqxslnpunwytjyt6luzpecluw28h3w0cmrly03gh7qgmc44u"],"fee":180681,"totalOutput":93994207,"tokens":[]},{"hash":"ac3572d886cc54b0937f3416e892dcf01a948b6b6f06f558e1787a9e37f65951","blockNo":6857401,"blockHash":"a5781915e5bdff1aad1667a9707853d2344d365fcf63f066df481e2d8752aaa3","epochNo":319,"epochSlotNo":324498,"slot":52769298,"time":"2022/02/08 15:53:09","addressesInput":["addr1q9gwywekk2jnvgj9dqq85093nqjfuhc8fgrluduuvy2mklyldzpqzcxsrctvjem540l98myk0drmcry60h9sn3j9c2cqf4xf3p","addr1q9gwywekk2jnvgj9dqq85093nqjfuhc8fgrluduuvy2mklyldzpqzcxsrctvjem540l98myk0drmcry60h9sn3j9c2cqf4xf3p","addr1q9gwywekk2jnvgj9dqq85093nqjfuhc8fgrluduuvy2mklyldzpqzcxsrctvjem540l98myk0drmcry60h9sn3j9c2cqf4xf3p","addr1q9gwywekk2jnvgj9dqq85093nqjfuhc8fgrluduuvy2mklyldzpqzcxsrctvjem540l98myk0drmcry60h9sn3j9c2cqf4xf3p"],"addressesOutput":["addr1q88rkwmv6mpmsdxwspzld2nhpep8eyc2sqdmmr7c809v72ejagf666xsud2pshy7yegwtuq6rhfxel2y37cgztth935s5k7mwm","addr1q9gwywekk2jnvgj9dqq85093nqjfuhc8fgrluduuvy2mklyldzpqzcxsrctvjem540l98myk0drmcry60h9sn3j9c2cqf4xf3p","addr1q9gwywekk2jnvgj9dqq85093nqjfuhc8fgrluduuvy2mklyldzpqzcxsrctvjem540l98myk0drmcry60h9sn3j9c2cqf4xf3p"],"fee":179581,"totalOutput":125475080,"tokens":[]},{"hash":"0391d9610eb35263f1ad6332e3393f706c175f1fd3cf15ff3d61b1fd325d9de6","blockNo":6857401,"blockHash":"a5781915e5bdff1aad1667a9707853d2344d365fcf63f066df481e2d8752aaa3","epochNo":319,"epochSlotNo":324498,"slot":52769298,"time":"2022/02/08 15:53:09","addressesInput":["addr1q9x2hkw67aq23slnhu4tqfnmw8k3wupp6gdlgnq33lpaurpkjpu73dqy2lpu4evnxvuuwd9ayusyraj7n50u83hahupqs3appw"],"addressesOutput":["addr1q9x2hkw67aq23slnhu4tqfnmw8k3wupp6gdlgnq33lpaurpkjpu73dqy2lpu4evnxvuuwd9ayusyraj7n50u83hahupqs3appw","addr1q9x2hkw67aq23slnhu4tqfnmw8k3wupp6gdlgnq33lpaurpkjpu73dqy2lpu4evnxvuuwd9ayusyraj7n50u83hahupqs3appw"],"fee":168317,"totalOutput":71302661,"tokens":[]},{"hash":"d7f84d784f0b9bd76650dfd1059d8d78ebbe33dcab18fffdcb54b1879769b699","blockNo":6857401,"blockHash":"a5781915e5bdff1aad1667a9707853d2344d365fcf63f066df481e2d8752aaa3","epochNo":319,"epochSlotNo":324498,"slot":52769298,"time":"2022/02/08 15:53:09","addressesInput":["addr1qymelkwj8yehdn7uhkugt6tww4zlny8uftfgq29808aah8m0tq6zvks9ukz9qwtdq40u4ksvuz2nehq7ejhu22gl6m4q29qs38"],"addressesOutput":["addr1qymelkwj8yehdn7uhkugt6tww4zlny8uftfgq29808aah8m0tq6zvks9ukz9qwtdq40u4ksvuz2nehq7ejhu22gl6m4q29qs38"],"fee":175157,"totalOutput":121704311,"tokens":[]},{"hash":"1bc863ea8890f0e781b4e16762f9f282113542a44c2316bfcb001fa072da65ea","blockNo":6857401,"blockHash":"a5781915e5bdff1aad1667a9707853d2344d365fcf63f066df481e2d8752aaa3","epochNo":319,"epochSlotNo":324498,"slot":52769298,"time":"2022/02/08 15:53:09","addressesInput":["addr1wxaptpmxcxawvr3pzlhgnpmzz3ql43n2tc8mn3av5kx0yzs09tqh8","addr1wxaptpmxcxawvr3pzlhgnpmzz3ql43n2tc8mn3av5kx0yzs09tqh8","addr1wxaptpmxcxawvr3pzlhgnpmzz3ql43n2tc8mn3av5kx0yzs09tqh8","addr1w9qzpelu9hn45pefc0xr4ac4kdxeswq7pndul2vuj59u8tqaxdznu","addr1v8r3w7q8umz2ulpw40amwgvcnneu5est4smunxeunkdfjys7pd85y","addr1wxaptpmxcxawvr3pzlhgnpmzz3ql43n2tc8mn3av5kx0yzs09tqh8"],"addressesOutput":["addr1w9qzpelu9hn45pefc0xr4ac4kdxeswq7pndul2vuj59u8tqaxdznu","addr1w9jx45flh83z6wuqypyash54mszwmdj8r64fydafxtfc6jgrw4rm3","addr1q9egeshnlug9g88xla67d9f6xz47z4fsx9jfyy35z04ekrzjdx9mm3ju60d74u9p86uukq9ldvjza3ycr5d9jlvqxeqswcersm","addr1qxr8dcjm3g5x2ll5wvuhfmu5e9e0prepn4u56py7kpj4zc77jem98vr60eyh2yj7xc69gfm0fpklvpv5274jnx7sfr6qmznrnw","addr1q97mctydkraq5f486lpa2x7cxzejxrszdwf0t0ygea7ajqv2rjh4xqhvrpjrrpk2ejnepggtktd2nqgs9pufxwpkla8smc0yuc","addr1qx694x44n9r63ehc3vzfktq8sjlswtfpqndmcac8j9y0ncz700x2gqec2zpxyuftrfqusfr63y7vsj9aqamh4jrmmdyqsyxeek","addr1v8r3w7q8umz2ulpw40amwgvcnneu5est4smunxeunkdfjys7pd85y"],"fee":1614958,"totalOutput":690584569517,"tokens":[]},{"hash":"5ec283e117d39d9186fbf22413828c43bac98bac62aad34aacbdaa6e30865840","blockNo":6857401,"blockHash":"a5781915e5bdff1aad1667a9707853d2344d365fcf63f066df481e2d8752aaa3","epochNo":319,"epochSlotNo":324498,"slot":52769298,"time":"2022/02/08 15:53:09","addressesInput":["addr1w999n67e86jn6xal07pzxtrmqynspgx0fwmcmpua4wc6yzsxpljz3","addr1qx327ten8jsrs6l30knxqus878y0ra9xnam9tye0s068mmuyu66mxvjyzwee0qathl64uwcuzf6zzwf0u0ppd2asdq0q2g8neg"],"addressesOutput":["addr1q9cwvremt6n320s2e3agq0jyq82yhrk3htsu0w426xnz5us70z4w0jgvcdkkynmm8wmds66jd9kusnjfpu6raw5fqp0sr07p5w","addr1qxnarmv0v98zweyymxwlef0u0k50urwjzazvduqyc6xsrhvl3dyrhvny0ktvad56gz702myycqhu5xltd3dpf2quyawst8satc","addr1qxr5p3t09vu24hfvwcfk0k96a3cz5jyc6p048qpvyel9rxmd0kad0nfj23s7qglpa09nnttwwt4yqsqtzfnlw653tjwquzt6hv","addr1qx327ten8jsrs6l30knxqus878y0ra9xnam9tye0s068mmuyu66mxvjyzwee0qathl64uwcuzf6zzwf0u0ppd2asdq0q2g8neg","addr1qx327ten8jsrs6l30knxqus878y0ra9xnam9tye0s068mmuyu66mxvjyzwee0qathl64uwcuzf6zzwf0u0ppd2asdq0q2g8neg"],"fee":1180311,"totalOutput":3480312508,"tokens":[]},{"hash":"4c6e5d1762a8e5ae25ac3d4fd129edc2e44c2b609e027b989e753d48d4e4c2fd","blockNo":6857401,"blockHash":"a5781915e5bdff1aad1667a9707853d2344d365fcf63f066df481e2d8752aaa3","epochNo":319,"epochSlotNo":324498,"slot":52769298,"time":"2022/02/08 15:53:09","addressesInput":["addr1qytp4z0y2asl0nsnc7ukl575hx5fnj8v3u0ph54knkl7m6hwqtrs8fmglkk40ytyrsdz0r0533305whzw4y2ushlk7gs6ektyp","addr1qytp4z0y2asl0nsnc7ukl575hx5fnj8v3u0ph54knkl7m6hwqtrs8fmglkk40ytyrsdz0r0533305whzw4y2ushlk7gs6ektyp"],"addressesOutput":["addr1wxaptpmxcxawvr3pzlhgnpmzz3ql43n2tc8mn3av5kx0yzs09tqh8","addr1qytp4z0y2asl0nsnc7ukl575hx5fnj8v3u0ph54knkl7m6hwqtrs8fmglkk40ytyrsdz0r0533305whzw4y2ushlk7gs6ektyp"],"fee":217809,"totalOutput":18218524,"tokens":[]},{"hash":"d3ebfb177b7cc342db195e8aa689a1e8c02c635338780b80c734178df5ad11d7","blockNo":6857401,"blockHash":"a5781915e5bdff1aad1667a9707853d2344d365fcf63f066df481e2d8752aaa3","epochNo":319,"epochSlotNo":324498,"slot":52769298,"time":"2022/02/08 15:53:09","addressesInput":["addr1qyy7yun9nq5pvwe2929lz0r7a8e7g7f0n3extjv0rncahqtmqjeg2h5mzljgvcg2azg98zq7r0nsfpsdfqe93l53w52qg9knej","addr1w999n67e86jn6xal07pzxtrmqynspgx0fwmcmpua4wc6yzsxpljz3"],"addressesOutput":["addr1qyy7yun9nq5pvwe2929lz0r7a8e7g7f0n3extjv0rncahqtmqjeg2h5mzljgvcg2azg98zq7r0nsfpsdfqe93l53w52qg9knej","addr1qyy7yun9nq5pvwe2929lz0r7a8e7g7f0n3extjv0rncahqtmqjeg2h5mzljgvcg2azg98zq7r0nsfpsdfqe93l53w52qg9knej"],"fee":1170519,"totalOutput":293689280,"tokens":[]},{"hash":"0a676a136c52d8e920425622b2d205a8f6ab3ae6dd6844ef05a969fa3903eccf","blockNo":6857400,"blockHash":"225e126f21b4ec3e8f18ad0733c9083018e63f015f4fd9d28378304f0caef903","epochNo":319,"epochSlotNo":324482,"slot":52769282,"time":"2022/02/08 15:52:53","addressesInput":["addr1vxalsdnqeatddcn8mwtzuqe0sznf3ctk5pwcemy440sapasgpxx05","addr1wxaptpmxcxawvr3pzlhgnpmzz3ql43n2tc8mn3av5kx0yzs09tqh8","addr1w9qzpelu9hn45pefc0xr4ac4kdxeswq7pndul2vuj59u8tqaxdznu","addr1vxalsdnqeatddcn8mwtzuqe0sznf3ctk5pwcemy440sapasgpxx05"],"addressesOutput":["addr1w9qzpelu9hn45pefc0xr4ac4kdxeswq7pndul2vuj59u8tqaxdznu","addr1w9jx45flh83z6wuqypyash54mszwmdj8r64fydafxtfc6jgrw4rm3","addr1qxyhhk2xwtf7pv30vmd284sz35dlrl7hk4rryxznl6m78afnz9xwpevdkfxtzlh670d2ae7k07eftfma2rzppqym9k2szlka9s","addr1vxalsdnqeatddcn8mwtzuqe0sznf3ctk5pwcemy440sapasgpxx05","addr1vxalsdnqeatddcn8mwtzuqe0sznf3ctk5pwcemy440sapasgpxx05"],"fee":1216079,"totalOutput":1015905965899,"tokens":[]},{"hash":"64b7f6be5a6831886324831df00855b1a86a3a55201f6996ad395377d8f6eaf1","blockNo":6857400,"blockHash":"225e126f21b4ec3e8f18ad0733c9083018e63f015f4fd9d28378304f0caef903","epochNo":319,"epochSlotNo":324482,"slot":52769282,"time":"2022/02/08 15:52:53","addressesInput":["addr1vxalsdnqeatddcn8mwtzuqe0sznf3ctk5pwcemy440sapasgpxx05","addr1w9qzpelu9hn45pefc0xr4ac4kdxeswq7pndul2vuj59u8tqaxdznu","addr1wxaptpmxcxawvr3pzlhgnpmzz3ql43n2tc8mn3av5kx0yzs09tqh8","addr1vxalsdnqeatddcn8mwtzuqe0sznf3ctk5pwcemy440sapasgpxx05"],"addressesOutput":["addr1w9qzpelu9hn45pefc0xr4ac4kdxeswq7pndul2vuj59u8tqaxdznu","addr1w9jx45flh83z6wuqypyash54mszwmdj8r64fydafxtfc6jgrw4rm3","addr1q87y2kcarx5dzcrkms632e5hlxq95sexjlze4vdrtsnrh8x049w9ttyzwfl0mnpyljlx7p0xtd2uhj0g4cvmgjcsu28s357f54","addr1vxalsdnqeatddcn8mwtzuqe0sznf3ctk5pwcemy440sapasgpxx05","addr1vxalsdnqeatddcn8mwtzuqe0sznf3ctk5pwcemy440sapasgpxx05"],"fee":1218832,"totalOutput":16069852445,"tokens":[]},{"hash":"14898c5db2064abca49d9be169491d52488e0e3c8683061d194e71cff219a5be","blockNo":6857400,"blockHash":"225e126f21b4ec3e8f18ad0733c9083018e63f015f4fd9d28378304f0caef903","epochNo":319,"epochSlotNo":324482,"slot":52769282,"time":"2022/02/08 15:52:53","addressesInput":["addr1q90m0ytyekuzrkddhcp83pq2g77mrvt0shejtrxp9pajgeywvrthy092h3ay95cxlvnccdz9qcgjy2usx9fcylw7s96q040sf2","addr1q90m0ytyekuzrkddhcp83pq2g77mrvt0shejtrxp9pajgeywvrthy092h3ay95cxlvnccdz9qcgjy2usx9fcylw7s96q040sf2","addr1q90m0ytyekuzrkddhcp83pq2g77mrvt0shejtrxp9pajgeywvrthy092h3ay95cxlvnccdz9qcgjy2usx9fcylw7s96q040sf2","addr1q90m0ytyekuzrkddhcp83pq2g77mrvt0shejtrxp9pajgeywvrthy092h3ay95cxlvnccdz9qcgjy2usx9fcylw7s96q040sf2","addr1q90m0ytyekuzrkddhcp83pq2g77mrvt0shejtrxp9pajgeywvrthy092h3ay95cxlvnccdz9qcgjy2usx9fcylw7s96q040sf2","addr1q90m0ytyekuzrkddhcp83pq2g77mrvt0shejtrxp9pajgeywvrthy092h3ay95cxlvnccdz9qcgjy2usx9fcylw7s96q040sf2","addr1q90m0ytyekuzrkddhcp83pq2g77mrvt0shejtrxp9pajgeywvrthy092h3ay95cxlvnccdz9qcgjy2usx9fcylw7s96q040sf2","addr1q90m0ytyekuzrkddhcp83pq2g77mrvt0shejtrxp9pajgeywvrthy092h3ay95cxlvnccdz9qcgjy2usx9fcylw7s96q040sf2","addr1q90m0ytyekuzrkddhcp83pq2g77mrvt0shejtrxp9pajgeywvrthy092h3ay95cxlvnccdz9qcgjy2usx9fcylw7s96q040sf2","addr1q90m0ytyekuzrkddhcp83pq2g77mrvt0shejtrxp9pajgeywvrthy092h3ay95cxlvnccdz9qcgjy2usx9fcylw7s96q040sf2","addr1q90m0ytyekuzrkddhcp83pq2g77mrvt0shejtrxp9pajgeywvrthy092h3ay95cxlvnccdz9qcgjy2usx9fcylw7s96q040sf2","addr1q90m0ytyekuzrkddhcp83pq2g77mrvt0shejtrxp9pajgeywvrthy092h3ay95cxlvnccdz9qcgjy2usx9fcylw7s96q040sf2","addr1q90m0ytyekuzrkddhcp83pq2g77mrvt0shejtrxp9pajgeywvrthy092h3ay95cxlvnccdz9qcgjy2usx9fcylw7s96q040sf2","addr1q90m0ytyekuzrkddhcp83pq2g77mrvt0shejtrxp9pajgeywvrthy092h3ay95cxlvnccdz9qcgjy2usx9fcylw7s96q040sf2","addr1q90m0ytyekuzrkddhcp83pq2g77mrvt0shejtrxp9pajgeywvrthy092h3ay95cxlvnccdz9qcgjy2usx9fcylw7s96q040sf2","addr1q90m0ytyekuzrkddhcp83pq2g77mrvt0shejtrxp9pajgeywvrthy092h3ay95cxlvnccdz9qcgjy2usx9fcylw7s96q040sf2","addr1q90m0ytyekuzrkddhcp83pq2g77mrvt0shejtrxp9pajgeywvrthy092h3ay95cxlvnccdz9qcgjy2usx9fcylw7s96q040sf2","addr1q90m0ytyekuzrkddhcp83pq2g77mrvt0shejtrxp9pajgeywvrthy092h3ay95cxlvnccdz9qcgjy2usx9fcylw7s96q040sf2","addr1q90m0ytyekuzrkddhcp83pq2g77mrvt0shejtrxp9pajgeywvrthy092h3ay95cxlvnccdz9qcgjy2usx9fcylw7s96q040sf2","addr1q90m0ytyekuzrkddhcp83pq2g77mrvt0shejtrxp9pajgeywvrthy092h3ay95cxlvnccdz9qcgjy2usx9fcylw7s96q040sf2","addr1q90m0ytyekuzrkddhcp83pq2g77mrvt0shejtrxp9pajgeywvrthy092h3ay95cxlvnccdz9qcgjy2usx9fcylw7s96q040sf2","addr1q90m0ytyekuzrkddhcp83pq2g77mrvt0shejtrxp9pajgeywvrthy092h3ay95cxlvnccdz9qcgjy2usx9fcylw7s96q040sf2","addr1q90m0ytyekuzrkddhcp83pq2g77mrvt0shejtrxp9pajgeywvrthy092h3ay95cxlvnccdz9qcgjy2usx9fcylw7s96q040sf2","addr1q90m0ytyekuzrkddhcp83pq2g77mrvt0shejtrxp9pajgeywvrthy092h3ay95cxlvnccdz9qcgjy2usx9fcylw7s96q040sf2","addr1q90m0ytyekuzrkddhcp83pq2g77mrvt0shejtrxp9pajgeywvrthy092h3ay95cxlvnccdz9qcgjy2usx9fcylw7s96q040sf2","addr1q90m0ytyekuzrkddhcp83pq2g77mrvt0shejtrxp9pajgeywvrthy092h3ay95cxlvnccdz9qcgjy2usx9fcylw7s96q040sf2","addr1q90m0ytyekuzrkddhcp83pq2g77mrvt0shejtrxp9pajgeywvrthy092h3ay95cxlvnccdz9qcgjy2usx9fcylw7s96q040sf2","addr1q90m0ytyekuzrkddhcp83pq2g77mrvt0shejtrxp9pajgeywvrthy092h3ay95cxlvnccdz9qcgjy2usx9fcylw7s96q040sf2","addr1q90m0ytyekuzrkddhcp83pq2g77mrvt0shejtrxp9pajgeywvrthy092h3ay95cxlvnccdz9qcgjy2usx9fcylw7s96q040sf2","addr1q90m0ytyekuzrkddhcp83pq2g77mrvt0shejtrxp9pajgeywvrthy092h3ay95cxlvnccdz9qcgjy2usx9fcylw7s96q040sf2","addr1q90m0ytyekuzrkddhcp83pq2g77mrvt0shejtrxp9pajgeywvrthy092h3ay95cxlvnccdz9qcgjy2usx9fcylw7s96q040sf2","addr1q90m0ytyekuzrkddhcp83pq2g77mrvt0shejtrxp9pajgeywvrthy092h3ay95cxlvnccdz9qcgjy2usx9fcylw7s96q040sf2","addr1q90m0ytyekuzrkddhcp83pq2g77mrvt0shejtrxp9pajgeywvrthy092h3ay95cxlvnccdz9qcgjy2usx9fcylw7s96q040sf2","addr1q90m0ytyekuzrkddhcp83pq2g77mrvt0shejtrxp9pajgeywvrthy092h3ay95cxlvnccdz9qcgjy2usx9fcylw7s96q040sf2","addr1q90m0ytyekuzrkddhcp83pq2g77mrvt0shejtrxp9pajgeywvrthy092h3ay95cxlvnccdz9qcgjy2usx9fcylw7s96q040sf2","addr1q90m0ytyekuzrkddhcp83pq2g77mrvt0shejtrxp9pajgeywvrthy092h3ay95cxlvnccdz9qcgjy2usx9fcylw7s96q040sf2","addr1q90m0ytyekuzrkddhcp83pq2g77mrvt0shejtrxp9pajgeywvrthy092h3ay95cxlvnccdz9qcgjy2usx9fcylw7s96q040sf2","addr1q90m0ytyekuzrkddhcp83pq2g77mrvt0shejtrxp9pajgeywvrthy092h3ay95cxlvnccdz9qcgjy2usx9fcylw7s96q040sf2","addr1q90m0ytyekuzrkddhcp83pq2g77mrvt0shejtrxp9pajgeywvrthy092h3ay95cxlvnccdz9qcgjy2usx9fcylw7s96q040sf2"],"addressesOutput":["addr1wxaptpmxcxawvr3pzlhgnpmzz3ql43n2tc8mn3av5kx0yzs09tqh8","addr1q90m0ytyekuzrkddhcp83pq2g77mrvt0shejtrxp9pajgeywvrthy092h3ay95cxlvnccdz9qcgjy2usx9fcylw7s96q040sf2"],"fee":296349,"totalOutput":175464948,"tokens":[]},{"hash":"891da731b2851648239f9d8e71712213e69870f2ae57f3cd852a218ffb07d562","blockNo":6857400,"blockHash":"225e126f21b4ec3e8f18ad0733c9083018e63f015f4fd9d28378304f0caef903","epochNo":319,"epochSlotNo":324482,"slot":52769282,"time":"2022/02/08 15:52:53","addressesInput":["addr1wxaptpmxcxawvr3pzlhgnpmzz3ql43n2tc8mn3av5kx0yzs09tqh8"],"addressesOutput":["addr1qyfjewlvhtwcvkpwfdfmvyuly3cexacjvlz5gqfce7hetewgjcw8dxjtxygu9ztq3l97zkxrv4ntjy6tcaumzp5tppvstr3sds"],"fee":338949,"totalOutput":12978163,"tokens":[]}],"totalItems":30374028,"totalPages":1518702,"currentPage":0}