{"data":[{"blockNo":8318612,"slotNo":83155060,"epochNo":390,"epochSlotNo":38260,"hash":"aed76ce4672ad49b11d05953a56ddb1e940648ac7aa85a7c12a95f37bb3df73f","time":"2023/01/26 08:22:31","txCount":36,"totalFees":11629884,"totalOutput":239439782478,"slotLeader":"1b268f4cba3faa7e36d8a0cc4adca2096fb856119412ee7330f692b5"},{"blockNo":8318611,"slotNo":83155047,"epochNo":390,"epochSlotNo":38247,"hash":"e3b11e146ec51c152c2fc8f49810f7883a1c7e884ae3979ef559e0a2446d4dc9","time":"2023/01/26 08:22:18","txCount":37,"totalFees":12515584,"totalOutput":1767686499288,"slotLeader":"d918835729aaab9d4dca82c60079a6c643d65141f909730ecfeb3aef"},{"blockNo":8318610,"slotNo":83154978,"epochNo":390,"epochSlotNo":38178,"hash":"6df0c9567afb487048cdc9c6da0389d9c0083326d986883e24ed26a19c2d9c9f","time":"2023/01/26 08:21:09","txCount":8,"totalFees":1906430,"totalOutput":168058034637,"slotLeader":"c83beb18d532234c72a304ab935982be670c22e771b227a3febc3a82"},{"blockNo":8318609,"slotNo":83154972,"epochNo":390,"epochSlotNo":38172,"hash":"0875d178007b37c317c0e5f58d655e10174b4f8e19f0a0bc4d659caa26862642","time":"2023/01/26 08:21:03","txCount":31,"totalFees":10935197,"totalOutput":91593653996,"slotLeader":"351a90a0253fb3595ccc460438b9947cd8a0b9a7f457f3478bbb31d8"},{"blockNo":8318608,"slotNo":83154939,"epochNo":390,"epochSlotNo":38139,"hash":"a8c6e5d9e5211cf4bbd54af2437f6bdf895af430666070203b35fb0890940d58","time":"2023/01/26 08:20:30","txCount":3,"totalFees":521143,"totalOutput":131628513649,"slotLeader":"d5b90a198d2411b5c82fbdfee5f94b86de49a8589bfa7720b9de358f"},{"blockNo":8318607,"slotNo":83154935,"epochNo":390,"epochSlotNo":38135,"hash":"fb60087aa4c3e8f206e75504a39b5c38e776082fdff3f9054d4a4deb3e3ebeae","time":"2023/01/26 08:20:26","txCount":8,"totalFees":4250361,"totalOutput":8034610953636,"slotLeader":"e645c034522f32522bf1c64a7f46128c562880abc26abe5f65f25a84"},{"blockNo":8318606,"slotNo":83154930,"epochNo":390,"epochSlotNo":38130,"hash":"cf2db659a4c4ec1aab503f925bcb0d76bae06d264f9ea1177d41bf6ecb4a5d20","time":"2023/01/26 08:20:21","txCount":5,"totalFees":1610215,"totalOutput":1143106004,"slotLeader":"0019cb5ac91c786a809f4d87622a29d2c7f57f4697f8c8e8457f4de4"},{"blockNo":8318605,"slotNo":83154925,"epochNo":390,"epochSlotNo":38125,"hash":"33460fd62434f07c75a294add8c9e2ac011118c8834d8f036794abaa0f3896b9","time":"2023/01/26 08:20:16","txCount":2,"totalFees":560899,"totalOutput":338386860,"slotLeader":"a532904ca60e13e88437b58e7c6ff66b8d5e7ec8d3f4b9e4be7820ec"},{"blockNo":8318604,"slotNo":83154921,"epochNo":390,"epochSlotNo":38121,"hash":"098d6cf1da8f6ee3274411683b9ddc5d39b02627e3fcc3b4ca3ab99e92b60e0a","time":"2023/01/26 08:20:12","txCount":13,"totalFees":5271319,"totalOutput":28471251402,"slotLeader":"1cb5d0e006c33ace982a527d4140bc086f99f7d35c27c5ab29600a74"},{"blockNo":8318603,"slotNo":83154913,"epochNo":390,"epochSlotNo":38113,"hash":"4b2b8482c5182deed276a9a0c4289cc563f90671a6f5a03016cd72ac67fe310e","time":"2023/01/26 08:20:04","txCount":4,"totalFees":808592,"totalOutput":3518038479,"slotLeader":"f747208eb5e3b703b271ff373b4dc4ca643c026071e480689be320d9"},{"blockNo":8318602,"slotNo":83154911,"epochNo":390,"epochSlotNo":38111,"hash":"974d55ddd5447c9374de4f262083c0ec41297e58a33979e16168d9295630d84d","time":"2023/01/26 08:20:02","txCount":27,"totalFees":10010261,"totalOutput":823673549277,"slotLeader":"eb6e1949ef2e1f2cdb9b041d2a4b86d4d837798ab3ddfe53cc4cafe4"},{"blockNo":8318601,"slotNo":83154879,"epochNo":390,"epochSlotNo":38079,"hash":"766a3cbdf22865d0328d79ae92cc1e2a82941714ed739125a69249a15879da4a","time":"2023/01/26 08:19:30","txCount":35,"totalFees":11628264,"totalOutput":1382793062079,"slotLeader":"c51e4e6cb25065ad0740249c66eafa11e186120602aff1cdca53110a"},{"blockNo":8318600,"slotNo":83154838,"epochNo":390,"epochSlotNo":38038,"hash":"6e9bfb9cedc51067b3361e86fc9a548814de8f8c5de4becfe989e947f302a3d0","time":"2023/01/26 08:18:49","txCount":0,"totalFees":0,"totalOutput":0,"slotLeader":"a6fc7ec669c64333e6c411b50e9c99323d8043391aacbe2b49f7cb29"},{"blockNo":8318599,"slotNo":83154835,"epochNo":390,"epochSlotNo":38035,"hash":"8684e9d030f831e0ba41fff2f4872faeac4fd360d074d4e5b1bec2f5ac4c80be","time":"2023/01/26 08:18:46","txCount":11,"totalFees":2643269,"totalOutput":29391198141,"slotLeader":"df27b852b9ea0fcf9de2d95011ca5dc5c8ddbf26a299248a03c49c1c"},{"blockNo":8318598,"slotNo":83154830,"epochNo":390,"epochSlotNo":38030,"hash":"a1beac1a2bec62cf5ef64cd9595218d5e9701979a651f9111a74f1bb4628af5c","time":"2023/01/26 08:18:41","txCount":7,"totalFees":4270858,"totalOutput":15920061753,"slotLeader":"d9812f8d30b5db4b03e5b76cfd242db9cd2763da4671ed062be808a0"},{"blockNo":8318597,"slotNo":83154823,"epochNo":390,"epochSlotNo":38023,"hash":"6f09310904fd0c4c4f2a39f60f0915797e174ccdeeb2838247f00d836fa1003d","time":"2023/01/26 08:18:34","txCount":9,"totalFees":3176014,"totalOutput":201675571811,"slotLeader":"16f6e9a767dbb9400d3dbe9f7374eef7c706bda870592a7dabd47a75"},{"blockNo":8318596,"slotNo":83154813,"epochNo":390,"epochSlotNo":38013,"hash":"12b1a43061bd8fe73420add97f86cf779594c30c46c59a7412bda6e509e2f4cd","time":"2023/01/26 08:18:24","txCount":11,"totalFees":4572699,"totalOutput":1150120012162,"slotLeader":"b21ddee9370f41c3b2b71da34f8a57943ba59034a777b80aed503c2b"},{"blockNo":8318595,"slotNo":83154801,"epochNo":390,"epochSlotNo":38001,"hash":"6d90fb8f81bf33d8134d8ac4589474f4969ee257e70534431ebac21b68a8e007","time":"2023/01/26 08:18:12","txCount":13,"totalFees":4187182,"totalOutput":20425647426,"slotLeader":"7d7ac07a2f2a25b7a4db868a40720621c4939cf6aefbb9a11464f1a6"},{"blockNo":8318594,"slotNo":83154780,"epochNo":390,"epochSlotNo":37980,"hash":"e322292750fda4812fe5ebeb54a15051920d574d86fb34df9bc98827bce6bbbe","time":"2023/01/26 08:17:51","txCount":0,"totalFees":0,"totalOutput":0,"slotLeader":"970e9a7ae4677b152c27a0eba3db996b372de094d24fc2974768f3da"},{"blockNo":8318593,"slotNo":83154779,"epochNo":390,"epochSlotNo":37979,"hash":"27381b5429b45a94415c304bdd6758e630cd45af8718d085cb1482e6e055a684","time":"2023/01/26 08:17:50","txCount":13,"totalFees":5039657,"totalOutput":38935288052,"slotLeader":"903c38e5905f1587d5ecf8c875a181725fb4b12b3eb06ce1d20bb1c6"}],"totalItems":8318788,"totalPages":415940,"currentPage":0}