{"data":[{"txId":36959714,"txHash":"6ba12b900fbea6bf7207ca7d6c3baba7b8dd369cae2c6222b160381973432ce0","txTime":"2022/04/04 18:26:12","block":7082646,"epoch":330,"slotNo":57530481,"epochSlotNo":333681,"stakeKey":"stake1u92wpwauhhwftllqh5rj5gnjxsaewmvpy6y0gknlsclea2sqp3564"},{"txId":36959482,"txHash":"a9135752b303980bebd5d380cebfb946f452e8fe0df98835e7f96be393171673","txTime":"2022/04/04 18:23:08","block":7082636,"epoch":330,"slotNo":57530297,"epochSlotNo":333497,"stakeKey":"stake1uy4df5spyyj3w8zw0paemj4m8n2g887stk9l7zenja7qx4g2v5ppy"},{"txId":36959469,"txHash":"5ca0e2abf4780552e5ccd231d2e32123e841628c189464423cd60628abddd4d4","txTime":"2022/04/04 18:23:08","block":7082636,"epoch":330,"slotNo":57530297,"epochSlotNo":333497,"stakeKey":"stake1ux3dzrhw79wkm8nntht6g2yywcvkacp5pc94gve978rfqvgk0cxa8"},{"txId":36959404,"txHash":"7df4b0828e51b5cc7195eb9b7919ae221b8b8c9c709726c81180709fcb399e3a","txTime":"2022/04/04 18:22:03","block":7082631,"epoch":330,"slotNo":57530232,"epochSlotNo":333432,"stakeKey":"stake1u9ft46sz6z7yhatvkxlexetd49jsg54yp2tkplwxh35ntysdth48j"},{"txId":36959402,"txHash":"4627e657e71ed5f9a342a2b33fe50789e251706645e68751068879e4bd9cf205","txTime":"2022/04/04 18:22:03","block":7082631,"epoch":330,"slotNo":57530232,"epochSlotNo":333432,"stakeKey":"stake1uya0h3jtklykc6llc5x5e92fknv24qvg6u52fwxfyzwpcfqeq80y7"},{"txId":36959396,"txHash":"3c8d61ae1fd5abe5647e061fc69bc7a095dbfb74f57444fba2ba1066509a4b7f","txTime":"2022/04/04 18:22:03","block":7082631,"epoch":330,"slotNo":57530232,"epochSlotNo":333432,"stakeKey":"stake1u9kuex3g0zzwly5mvfj4csawrnmzej3rkt3my3pdpwegx0q9r6g4e"},{"txId":36959204,"txHash":"c37303f8c242183bcd23f8b1ee213e55e69730360e2c5a4a58c49cd8b9242092","txTime":"2022/04/04 18:19:50","block":7082624,"epoch":330,"slotNo":57530099,"epochSlotNo":333299,"stakeKey":"stake1uy4duaupc4fs40sdftqgfsm8mzpgjn99vurcxejreqphetgsjdswq"},{"txId":36958794,"txHash":"92de5f217198555adaf03cecd2ed1689efdc40786d3d58b062dfe6e2ce1cacce","txTime":"2022/04/04 18:15:45","block":7082608,"epoch":330,"slotNo":57529854,"epochSlotNo":333054,"stakeKey":"stake1ux4swpl2ffayrt4wh0pyqrd6jst5zy3dvnz3u29uu7q220gy7w57g"},{"txId":36958719,"txHash":"9edca5ed8e6af981f22b73f9d1e242aab71d57818c1ded14c699de9d67a9481a","txTime":"2022/04/04 18:15:23","block":7082605,"epoch":330,"slotNo":57529832,"epochSlotNo":333032,"stakeKey":"stake1uyhrz2xxkey9qg5pycqfcxcqjmuxhxv78p4nsp6pgyycl8sn8p2rc"},{"txId":36958526,"txHash":"fea651ff167dddc8363478a218e2769e39755114c520848dcdaa09f0eb32418a","txTime":"2022/04/04 18:12:45","block":7082599,"epoch":330,"slotNo":57529674,"epochSlotNo":332874,"stakeKey":"stake1uyumgqw9fgrsltp0pdjnr44smvrcq7n27l9u2gxlj456v4sheq3a2"},{"txId":36958512,"txHash":"978e16414d379c284edf55af9b67708ceb9e95e18cb3403780619bb9c654a57e","txTime":"2022/04/04 18:12:39","block":7082598,"epoch":330,"slotNo":57529668,"epochSlotNo":332868,"stakeKey":"stake1uxherdag27g4prxc798tmyf3y7fd47a8h7yr79je69w28fgnkd4wj"},{"txId":36958508,"txHash":"9418a78b24e49861eac65115538b7a61aef68b04402bd5d4206ba9d99a3d250e","txTime":"2022/04/04 18:12:39","block":7082598,"epoch":330,"slotNo":57529668,"epochSlotNo":332868,"stakeKey":"stake1u90wwsss4vuq0jcxt2zp0j29grcjy9gwdu4x8y2vg3eyfqsdxdx0w"},{"txId":36958379,"txHash":"25358fe1e008c3def32c7638ce0983c7728d94b39cb00b3b398ac94b3b48d483","txTime":"2022/04/04 18:10:16","block":7082593,"epoch":330,"slotNo":57529525,"epochSlotNo":332725,"stakeKey":"stake1uxpt35muc5s2qrmzanu23gl5nek482p9j8cu23v5ls42lcg946waa"},{"txId":36958317,"txHash":"0885dd415cf0f0c3e7f0f98de21eb1393c879b20e0294d380b66d0f20d16cc23","txTime":"2022/04/04 18:10:01","block":7082591,"epoch":330,"slotNo":57529510,"epochSlotNo":332710,"stakeKey":"stake1u870xam2qhwn6shwkc6tjrgktx27nsjgy5cwqyz456jtqws60dxj8"},{"txId":36958175,"txHash":"b19db44dc2f833b8b246fa61809d063c5112d765a6876958c57ec0a71baa0f9a","txTime":"2022/04/04 18:07:12","block":7082586,"epoch":330,"slotNo":57529341,"epochSlotNo":332541,"stakeKey":"stake1u8su4j4szdnwmczwd3hhsww8hatxrplsyxfvc20jaq6tmrqnu2jnf"},{"txId":36958111,"txHash":"9200612ae43b52c71f496ca5b02508d69c8b282261488b6809725f4c10f27dfa","txTime":"2022/04/04 18:06:37","block":7082584,"epoch":330,"slotNo":57529306,"epochSlotNo":332506,"stakeKey":"stake1u9k8ar6ck4ncx9jzxymp3hxfuvmmz83tc65f9jsrew9fg2s7ymkq8"},{"txId":36958109,"txHash":"264b2603be9921907ab029525916601d1a919f69730bc9f6687920503b7bb87a","txTime":"2022/04/04 18:06:37","block":7082584,"epoch":330,"slotNo":57529306,"epochSlotNo":332506,"stakeKey":"stake1uyduzyk4uxqtr6m5a38tlga9376d6tq0tj345m5t3zvzwgg09l4tf"},{"txId":36957809,"txHash":"0460f9c72d15ab14c31bebba92b078c333a92e0054d5cf431b35f0e25880cdcb","txTime":"2022/04/04 18:00:31","block":7082569,"epoch":330,"slotNo":57528940,"epochSlotNo":332140,"stakeKey":"stake1u94xx4myl0e7pu736hv9rwuld77ff2pywgyprfrme2zx3mc4eapg6"},{"txId":36957723,"txHash":"9a1520b9a78bd9d82070b2cd26db9a9c61cf1627cdc4ab437693851cc147a39a","txTime":"2022/04/04 17:59:42","block":7082567,"epoch":330,"slotNo":57528891,"epochSlotNo":332091,"stakeKey":"stake1u90mm4lynxnwdzw58d9w4llymy3esj2gfq25cvktsz5hvscnd0t24"},{"txId":36957565,"txHash":"dc5ae4b084562aae9a334e0e58dd3b41d04183668c6fe699ed26ccae0a0b7874","txTime":"2022/04/04 17:56:44","block":7082555,"epoch":330,"slotNo":57528713,"epochSlotNo":331913,"stakeKey":"stake1u926y3fjs5k3qzq52kfv34g42zr8rwg3dmqqlk0kyu0heggkh5tku"}],"totalItems":1473395,"totalPages":73670,"currentPage":0}