{"data":[{"txId":56988655,"txHash":"61fa370ea18d5873c066bbf388e51052082ddaa7dacdeb7c4e986612281e193a","txTime":"2022/12/09 20:56:31","block":8118953,"epoch":380,"slotNo":79053100,"epochSlotNo":256300,"stakeKey":"stake1u8ppkqknvl0th4pawggd9a94sjsya6l25kt9f2egdjfk65cmqs248"},{"txId":56988006,"txHash":"dd472f83ecd3e4c0a5d7cd2c1e880defd6daea0dfbcfda9c5b92a25b5e677256","txTime":"2022/12/09 20:42:52","block":8118910,"epoch":380,"slotNo":79052281,"epochSlotNo":255481,"stakeKey":"stake1uxvk0ys5alfvuszqympjatc5q8kzpwsat58fjy3747rsqtq422mm0"},{"txId":56988004,"txHash":"07ed15777000f12bf9ae3f27fd61983e02abafd3c94c0aaab2c0d95110778dbb","txTime":"2022/12/09 20:42:52","block":8118910,"epoch":380,"slotNo":79052281,"epochSlotNo":255481,"stakeKey":"stake1uyc3jjvdf9sf4dfd4d5s3haewhs4mlruapykr7hcl4clxtqgvh4hm"},{"txId":56986493,"txHash":"b4ba25a37de58e4f633ee52ee01ab9e61eac86779243fa7a800c43b788d087e1","txTime":"2022/12/09 20:14:16","block":8118818,"epoch":380,"slotNo":79050565,"epochSlotNo":253765,"stakeKey":"stake1uxjspq0ec9nftpu6c7vta39ltzklqqkjaaxf2rq8tcrz8xqgupmqv"},{"txId":56986443,"txHash":"d92cf731129d0f19a478d3dafda3a7f37d8ede63c40c3b27a05b69809819fc0a","txTime":"2022/12/09 20:13:36","block":8118814,"epoch":380,"slotNo":79050525,"epochSlotNo":253725,"stakeKey":"stake1u9gqyd9yeum7jk3n9heqdajypjhd2sa2zey26twrrf96lhq8jrv8p"},{"txId":56984794,"txHash":"573bdd6fc7eee7e311606453220f97c641116ae5c0493dfb18a5833e302411fc","txTime":"2022/12/09 19:45:34","block":8118743,"epoch":380,"slotNo":79048843,"epochSlotNo":252043,"stakeKey":"stake1u98cwjj566y4erxxnuqf58cnq97aqqvdg9ydz76lnce03qgnkhmd7"},{"txId":56983929,"txHash":"a0c3825fc1482116bd2e775545bf05a582771e98aeeeb324417a2780842cda71","txTime":"2022/12/09 19:29:19","block":8118685,"epoch":380,"slotNo":79047868,"epochSlotNo":251068,"stakeKey":"stake1ux09vejvu0w8dweh04ly0sx6z48hkwxestjqpdl5px74pgsa4c49y"},{"txId":56983919,"txHash":"3c85342007deabb7c059f180ddcae70c87f8a298ff7b18a43942659610e663a1","txTime":"2022/12/09 19:29:19","block":8118685,"epoch":380,"slotNo":79047868,"epochSlotNo":251068,"stakeKey":"stake1ux7yst6upg9arunvshfeswck3g06ckdtgu4rkkfvy7dcdzgmxjk80"},{"txId":56983717,"txHash":"46557c98ff7e49b2cf1daca1cdd8e14a56b80a60b94cc6c6c71e3021cf49b871","txTime":"2022/12/09 19:25:50","block":8118677,"epoch":380,"slotNo":79047659,"epochSlotNo":250859,"stakeKey":"stake1u890teak2uv4rud4udj760e6q0e97rcxxd7cedektuvykuq4pj36h"},{"txId":56983171,"txHash":"8b7af43ac0696aaf0a2d1df3ba9c4261fda28d0032e1c30729314ecd16bb0bb9","txTime":"2022/12/09 19:16:42","block":8118648,"epoch":380,"slotNo":79047111,"epochSlotNo":250311,"stakeKey":"stake1u9up5k7er37wz3qlslyf2j4gwvulk06epvmq652k959e49g20f4s6"},{"txId":56982850,"txHash":"37360754c2fdc2e3a3bb5b2646e5c2eb4faf7daaec55fffae35d95f1c2be3e65","txTime":"2022/12/09 19:13:00","block":8118633,"epoch":380,"slotNo":79046889,"epochSlotNo":250089,"stakeKey":"stake1u9r4j9qqjtx8td63nhm9husq87mrm3u7034swuaakl724wsl7hqkh"},{"txId":56982282,"txHash":"e627b409165c5f2bb6c5551a536f6808d1773888276d8999a414bebbd4cbc81c","txTime":"2022/12/09 19:06:28","block":8118615,"epoch":380,"slotNo":79046497,"epochSlotNo":249697,"stakeKey":"stake1uxlgz00y73yqt4s8t3km80907q3drrvazcn07ls6c0wj28grwr8xk"},{"txId":56982219,"txHash":"bb2a4dfbfd5b90dd78b8ed774bd6bd4908e8cb2649b90b1e911ceed59ac38e9e","txTime":"2022/12/09 19:04:44","block":8118614,"epoch":380,"slotNo":79046393,"epochSlotNo":249593,"stakeKey":"stake1u9lu72sl445wvsf4ddch4caj39283ptxv8xg586zep3xqug3l963l"},{"txId":56981159,"txHash":"3883615c2604460fdde6d3892802c75a1d1f7d2328646b072b27d850d29f32e5","txTime":"2022/12/09 18:51:15","block":8118569,"epoch":380,"slotNo":79045584,"epochSlotNo":248784,"stakeKey":"stake1uycqv4grzz076y57rpuqp8ctslf42kelezz75cj26ma5nfqvjc36z"},{"txId":56980712,"txHash":"affdd162674566380e31b65523ed7e1abd24ab3294074f02613ee584914a7a27","txTime":"2022/12/09 18:43:56","block":8118544,"epoch":380,"slotNo":79045145,"epochSlotNo":248345,"stakeKey":"stake1u8umtewqrdu23whm758thllzexgurnkc0d4deg4hnf4ft2ggxg5ac"},{"txId":56980508,"txHash":"a070ab41bb5b3c8af54e3d82c62a63e339e1a9204f69a2c30cd21cc375e8b1af","txTime":"2022/12/09 18:40:45","block":8118529,"epoch":380,"slotNo":79044954,"epochSlotNo":248154,"stakeKey":"stake1u8qqcrqgvuwmskk3wd6z67jpdz5vzcxzz6hqmsj3qm2v9csyuljq4"},{"txId":56980365,"txHash":"e230c963fbe0e5c0ca82bf2cb80f06b50848ae30cc01a76506f10b3ae59766d9","txTime":"2022/12/09 18:38:53","block":8118521,"epoch":380,"slotNo":79044842,"epochSlotNo":248042,"stakeKey":"stake1ux0mp3zddd7t4w96zt7j30cdd9zaah557rffw2y8qw5h54glmtcz2"},{"txId":56979861,"txHash":"02e44ca70a439c1264236e0111fb8c6c9525725718a46f33cf639ac0e68dd5d9","txTime":"2022/12/09 18:31:23","block":8118492,"epoch":380,"slotNo":79044392,"epochSlotNo":247592,"stakeKey":"stake1u9khuz8yh2jsgx3afmmmlmmyhmrsle7dp70szq6tgxzlvxge0yyt4"},{"txId":56978844,"txHash":"67fe1b68eb445761a1999fe678d4dabd56486a26c2ebf2e991d1022c7825df15","txTime":"2022/12/09 18:17:38","block":8118448,"epoch":380,"slotNo":79043567,"epochSlotNo":246767,"stakeKey":"stake1u9r8lq8knmt9m063yz5j3lkrsye8kvpdqwjj90ycfnp57vc7d82hj"},{"txId":56978687,"txHash":"8950865f67fe7b6e6420e8da10f2075927e014c026f4cff35891b98941cbbb3f","txTime":"2022/12/09 18:15:07","block":8118440,"epoch":380,"slotNo":79043416,"epochSlotNo":246616,"stakeKey":"stake1u88400jw8rtqt0p7vzcm5mf4afgyxsnum65hg30jg5s88vqqxdxt2"}],"totalItems":335851,"totalPages":16793,"currentPage":0}