{"data":[{"blockNo":8053343,"slotNo":77705064,"epochNo":377,"epochSlotNo":204264,"hash":"ba44bbad2ff916026d426885b893eb4528ae11b03ae32c46cd290a33091586a5","time":"2022/11/24 06:29:15","txCount":42,"totalFees":13373064,"totalOutput":3786669201340,"slotLeader":"4594f67c08f0007d1fac243169624b710375cb834bbe81f6b4d79f32"},{"blockNo":8053342,"slotNo":77704993,"epochNo":377,"epochSlotNo":204193,"hash":"15cde0fae2aed36181c624be75485b88e18b4b160178b95ce5d42f2de71b3476","time":"2022/11/24 06:28:04","txCount":29,"totalFees":8825720,"totalOutput":1648657447199,"slotLeader":"c94e6fe1123bf111b77b57994bcd836af8ba2b3aa72cfcefbec2d3d4"},{"blockNo":8053341,"slotNo":77704939,"epochNo":377,"epochSlotNo":204139,"hash":"67e638c1f4617b6deb93fb42eaf62e50d41a7a73c556dda0e5789c914033e7fd","time":"2022/11/24 06:27:10","txCount":11,"totalFees":2541469,"totalOutput":257909046324,"slotLeader":"000000f66e28b0f18aef20555f4c4954234e3270dfbbdcc13f54e799"},{"blockNo":8053340,"slotNo":77704923,"epochNo":377,"epochSlotNo":204123,"hash":"124b560d22626970b945bcb19874ad0c488f1b9f2f6e30c84968990182bafff4","time":"2022/11/24 06:26:54","txCount":27,"totalFees":9702037,"totalOutput":13934699549466,"slotLeader":"153806dbcd134ddee69a8c5204e38ac80448f62342f8c23cfe4b7edf"},{"blockNo":8053339,"slotNo":77704889,"epochNo":377,"epochSlotNo":204089,"hash":"4789b58fa9ba5c7b8cf872d87da8f9ab3c597162e0f075c8839b4b957d471d8a","time":"2022/11/24 06:26:20","txCount":3,"totalFees":889185,"totalOutput":2671051776,"slotLeader":"a2d42d873250321acca2d7cc7a5465f9060892bdbb645b4dedb28125"},{"blockNo":8053338,"slotNo":77704884,"epochNo":377,"epochSlotNo":204084,"hash":"1eb4d7ed69b80ce56b81d1c815ae7f99885ce08f39cec0abceaf5850dfa21254","time":"2022/11/24 06:26:15","txCount":0,"totalFees":0,"totalOutput":0,"slotLeader":"fb21d3e5ed7684742936778239a7bed2bcee1292964ddeb716d3a903"},{"blockNo":8053337,"slotNo":77704883,"epochNo":377,"epochSlotNo":204083,"hash":"9112bacb67b239183c75b591543ba1eaef2bca1b25c082067bd7f0d67ba68200","time":"2022/11/24 06:26:14","txCount":0,"totalFees":0,"totalOutput":0,"slotLeader":"765e6963038b3152067bb8a08707d0306045f0ed5b1f02641b58fff6"},{"blockNo":8053336,"slotNo":77704881,"epochNo":377,"epochSlotNo":204081,"hash":"047eb2c5c044b00033037f4e59d086b221b64fcfa00006a2b927b22814e17a68","time":"2022/11/24 06:26:12","txCount":23,"totalFees":6677791,"totalOutput":108829713660,"slotLeader":"7f6c103302f96390d478a170fe80938b76fccd8a23490e3b6ddebcf7"},{"blockNo":8053335,"slotNo":77704848,"epochNo":377,"epochSlotNo":204048,"hash":"50dd3cde5509507e662416dd3bfab8bed29e508aa320e4b92132f5679708c8b1","time":"2022/11/24 06:25:39","txCount":11,"totalFees":3083038,"totalOutput":1625252131246,"slotLeader":"9417e18efcc4c258df21c89942009a498a751a0a63f8d72714cf75b2"},{"blockNo":8053334,"slotNo":77704830,"epochNo":377,"epochSlotNo":204030,"hash":"4b1b3cad7bc0b510620971d82ef569a0100f4f232f87d675e7e9807bfef43642","time":"2022/11/24 06:25:21","txCount":5,"totalFees":1125992,"totalOutput":5528033533,"slotLeader":"6bd9b29295a7e24520a1eecd5a5ab9a94f3ffeed3b89551cac71f6bf"}],"totalItems":9988,"totalPages":999,"currentPage":0}