{"data":[{"blockNo":8924005,"slotNo":95611305,"epochNo":418,"epochSlotNo":398505,"hash":"5f3996a36633c053f170b25892d60f80ae3e7f7b31b977129d907910144325a1","time":"2023/06/19 12:26:36","txCount":15,"totalFees":7599311,"totalOutput":7430695552337,"slotLeader":"ee98a72dfb3ba43e9de2e39ef825a69d5d45627d2e918ea3e260f2dd"},{"blockNo":8924004,"slotNo":95611247,"epochNo":418,"epochSlotNo":398447,"hash":"9135c7e3c163076bb7e01b14f3712e9cc8bc478b35f40c5af76d69352c7a5f77","time":"2023/06/19 12:25:38","txCount":2,"totalFees":920481,"totalOutput":104562022,"slotLeader":"86c8a19e4d6227da12d7c9c63c5fd7a83bf227a92089778f7d9ec0f9"},{"blockNo":8924003,"slotNo":95611245,"epochNo":418,"epochSlotNo":398445,"hash":"a9ddb367d7e487d29e1aaf09ef8547d8862bc13367cc6895aa0fa7b2ef9acf26","time":"2023/06/19 12:25:36","txCount":6,"totalFees":1794260,"totalOutput":19580869653,"slotLeader":"351a90a0253fb3595ccc460438b9947cd8a0b9a7f457f3478bbb31d8"},{"blockNo":8924002,"slotNo":95611242,"epochNo":418,"epochSlotNo":398442,"hash":"59fa946fa41ca00880473722196f1bc0ab8eb0297e01dd6a145c352cc259cd6b","time":"2023/06/19 12:25:33","txCount":3,"totalFees":646910,"totalOutput":26557983229,"slotLeader":"3a203ec1a8bae5098be953c3759e9fae42eea3d5714293500c6b3013"},{"blockNo":8924001,"slotNo":95611240,"epochNo":418,"epochSlotNo":398440,"hash":"fd171890bbd8894c0c3409fbce79f5ff34f5dbfb34d6ca7e9d12d1688a9f347b","time":"2023/06/19 12:25:31","txCount":38,"totalFees":12181422,"totalOutput":6829634353996,"slotLeader":"3c68076a8b81226f6d7da352dda415db00299701624b6cf71d7cc086"},{"blockNo":8924000,"slotNo":95611183,"epochNo":418,"epochSlotNo":398383,"hash":"90e26a1c1c9f8fd736105ed42beb9759c0f27984d5a6fca0075ca3b752d7c386","time":"2023/06/19 12:24:34","txCount":41,"totalFees":11537750,"totalOutput":37947937192527,"slotLeader":"5ea0be57485dfdd737e36ecdb95d03b1472be4450267fbdae9625e99"},{"blockNo":8923999,"slotNo":95611134,"epochNo":418,"epochSlotNo":398334,"hash":"823676e9bae517a96347ded29761e710ad856a3e4aff648426a67b698493868e","time":"2023/06/19 12:23:45","txCount":2,"totalFees":703547,"totalOutput":429133023100,"slotLeader":"fa67f324c67325d6e60616eb8f20688473f979ec4b66193a5b43f898"},{"blockNo":8923998,"slotNo":95611130,"epochNo":418,"epochSlotNo":398330,"hash":"4d4a7050e2d6a62dfde08b3399437976da26f7e56c68c3c3814d841426bac279","time":"2023/06/19 12:23:41","txCount":10,"totalFees":4468626,"totalOutput":2514176590713,"slotLeader":"5e376d756f6eec459900a4abcf2510316c45b13cf204a57c703dc251"},{"blockNo":8923997,"slotNo":95611115,"epochNo":418,"epochSlotNo":398315,"hash":"0349de376c0d4d5834dfb5e49ca69a636cf46d8609a4e3211e49ae9cf5d679e3","time":"2023/06/19 12:23:26","txCount":2,"totalFees":494899,"totalOutput":376876512,"slotLeader":"8d40e1d5d817183a0ca2613f7d998a6ac3962162adaf3d5176af7cbb"},{"blockNo":8923996,"slotNo":95611111,"epochNo":418,"epochSlotNo":398311,"hash":"a6bd12778f251dbf0b7200f13df97912147e6f28422209c8b0c592ba221ba73c","time":"2023/06/19 12:23:22","txCount":3,"totalFees":1350287,"totalOutput":215939393468,"slotLeader":"397f04eb0ae0497d8c4d691844c8c6b026bc942e3f406f26b8e24f48"},{"blockNo":8923995,"slotNo":95611108,"epochNo":418,"epochSlotNo":398308,"hash":"da859c5d2584b4c03ca8fad68e6eac681bbb0320a04601429e6bcfb3159797bd","time":"2023/06/19 12:23:19","txCount":13,"totalFees":5974671,"totalOutput":35133334605376,"slotLeader":"cb91386ed557e497bdc45f5c9c7e2dc76172a4f457289195598f9c03"},{"blockNo":8923994,"slotNo":95611097,"epochNo":418,"epochSlotNo":398297,"hash":"d1b7f7b527f699494bbd431157d8a7c9391fd37f9b3cca75197b06792bb38104","time":"2023/06/19 12:23:08","txCount":5,"totalFees":1462868,"totalOutput":4976300565,"slotLeader":"0cbc37bbfc5161da696ae49bb5313f510def4ba6711de70c2beaf80d"},{"blockNo":8923993,"slotNo":95611094,"epochNo":418,"epochSlotNo":398294,"hash":"11331742140d1a83506b38f28064d8aace4abd6a85fa102c13dd27d6fd6da5d0","time":"2023/06/19 12:23:05","txCount":5,"totalFees":988326,"totalOutput":789434603,"slotLeader":"566ebd3406088123f8dcc99630f122520db5d479e661c72b43571627"},{"blockNo":8923992,"slotNo":95611089,"epochNo":418,"epochSlotNo":398289,"hash":"95e8e45d55914068b49f88bf1ec23929ab944f92205eb569643a9ac5768844cf","time":"2023/06/19 12:23:00","txCount":20,"totalFees":9102741,"totalOutput":40097309812133,"slotLeader":"707725a41873178814530f39fb14a4b2842d05377e2b62a546fe2014"},{"blockNo":8923991,"slotNo":95611070,"epochNo":418,"epochSlotNo":398270,"hash":"293756c84d5953f970b8683f25fc3f0263a830434fdf3e9b4cff8d3617bdccf7","time":"2023/06/19 12:22:41","txCount":0,"totalFees":0,"totalOutput":0,"slotLeader":"00beef8710427e328a29555283c74b202b40bec9a62630a9f03b1e18"},{"blockNo":8923990,"slotNo":95611069,"epochNo":418,"epochSlotNo":398269,"hash":"e30791aed74f4dfd621fbbff3b19e979672f6fd7c8058941ead361fe00e28f52","time":"2023/06/19 12:22:40","txCount":1,"totalFees":184333,"totalOutput":248317908,"slotLeader":"b6e038fb50202dfe5ccc61ecae9b8803bdc9cb7fb3ae9348cb97b0ef"},{"blockNo":8923989,"slotNo":95611068,"epochNo":418,"epochSlotNo":398268,"hash":"7c4147fb5bf6f252a76abe028216bc793d245c1575900137122ac86d5885d248","time":"2023/06/19 12:22:39","txCount":4,"totalFees":787885,"totalOutput":10508958902,"slotLeader":"5b60373e718a3647ec57f610b9942f91286748ddeaa0ad226acb927b"},{"blockNo":8923988,"slotNo":95611061,"epochNo":418,"epochSlotNo":398261,"hash":"985ed569f2fa28778b29479b3e235ca383630d9c8773823d72f50c7ad8b92b8d","time":"2023/06/19 12:22:32","txCount":13,"totalFees":7667591,"totalOutput":40175885746190,"slotLeader":"cad3d1c69faad3a6777143009a367d07bf960a2a621d50bdf215bc0f"},{"blockNo":8923987,"slotNo":95611045,"epochNo":418,"epochSlotNo":398245,"hash":"88f531e9aaca65d992c04278d0a781a73c6abc44232c128c47e06664506658c6","time":"2023/06/19 12:22:16","txCount":4,"totalFees":753612,"totalOutput":3706013060,"slotLeader":"bbe8aaed7d10e53102f4cd78fd3e504d8ff0c0009243da208893b970"},{"blockNo":8923986,"slotNo":95611038,"epochNo":418,"epochSlotNo":398238,"hash":"c389328f8b32b8e2241d426c00dbf65225e7f996fde965f4e600affc5e9a33b8","time":"2023/06/19 12:22:09","txCount":21,"totalFees":7110249,"totalOutput":5526668826208,"slotLeader":"50a251d84927d932b9393cb462f300d215faedd5e8a5e791e869f32c"}],"totalItems":8924181,"totalPages":446210,"currentPage":0}