{"data":[{"hash":"fb68481a48e99cf96a308e884ada3f436b4c094b84a9ee84b392af0f53705064","blockNo":6856400,"blockHash":"3e3a1ba2a71597f9ce26a31c6ff246ee31d8c55400d4dd767c93a6ee2ebd7345","epochNo":319,"epochSlotNo":303233,"slot":52748033,"time":"2022/02/08 09:58:44","addressesInput":["addr1q97nn377l0a2flta04y80l4ut3ftefykasgas6nel4xv9fqqrktfmur5wstju5vp8l6yzu4k8d537lg0qf5zg6kcdjmsm4rcgz","addr1w999n67e86jn6xal07pzxtrmqynspgx0fwmcmpua4wc6yzsxpljz3"],"addressesOutput":["addr1w999n67e86jn6xal07pzxtrmqynspgx0fwmcmpua4wc6yzsxpljz3","addr1q97nn377l0a2flta04y80l4ut3ftefykasgas6nel4xv9fqqrktfmur5wstju5vp8l6yzu4k8d537lg0qf5zg6kcdjmsm4rcgz"],"fee":1200183,"totalOutput":335717034,"tokens":[]},{"hash":"2dae71753b99abe239a7fbecbcdf75d92df6083c44be24b046691337e9f33ab1","blockNo":6856400,"blockHash":"3e3a1ba2a71597f9ce26a31c6ff246ee31d8c55400d4dd767c93a6ee2ebd7345","epochNo":319,"epochSlotNo":303233,"slot":52748033,"time":"2022/02/08 09:58:44","addressesInput":["addr1qyz44txuyxkfuvvjxkjvcfyajsjepd52evv6dc45t24aj5pdzefudzxhadht99nh8gv4l3z93d486ygllgxuh2drrrps8vdl59"],"addressesOutput":["addr1qxaaka0vyjnalysc9c8qu2tuuv26w4pxl95amq0kjk97azy64n4c9pgwu83j3qnx4nrkz0k3x7h2gcf2sym2607rshcqkqs6s0","addr1qx3t8nh2l90f3wwnrfdvd7qkzar85ty3hgfck8kng66tedfdzefudzxhadht99nh8gv4l3z93d486ygllgxuh2drrrpsvh74ra"],"fee":169021,"totalOutput":145736260996,"tokens":[]},{"hash":"cf641fcb15ef7ae2ac636dd10ccc48a4ec1de76d8df0bc6bda88557fc9a69599","blockNo":6856400,"blockHash":"3e3a1ba2a71597f9ce26a31c6ff246ee31d8c55400d4dd767c93a6ee2ebd7345","epochNo":319,"epochSlotNo":303233,"slot":52748033,"time":"2022/02/08 09:58:44","addressesInput":["addr1qxy688qwkwg5dh67qz6mmdtgudl7wc3uhsy34teyxc7jpdx9z5859ypgnaaaf05347sg4tdmrgt8axgk3qdsk8yq03tsrv8lur","addr1qxy688qwkwg5dh67qz6mmdtgudl7wc3uhsy34teyxc7jpdx9z5859ypgnaaaf05347sg4tdmrgt8axgk3qdsk8yq03tsrv8lur","addr1qxy688qwkwg5dh67qz6mmdtgudl7wc3uhsy34teyxc7jpdx9z5859ypgnaaaf05347sg4tdmrgt8axgk3qdsk8yq03tsrv8lur","addr1qxy688qwkwg5dh67qz6mmdtgudl7wc3uhsy34teyxc7jpdx9z5859ypgnaaaf05347sg4tdmrgt8axgk3qdsk8yq03tsrv8lur","addr1qxy688qwkwg5dh67qz6mmdtgudl7wc3uhsy34teyxc7jpdx9z5859ypgnaaaf05347sg4tdmrgt8axgk3qdsk8yq03tsrv8lur","addr1qxy688qwkwg5dh67qz6mmdtgudl7wc3uhsy34teyxc7jpdx9z5859ypgnaaaf05347sg4tdmrgt8axgk3qdsk8yq03tsrv8lur","addr1qxy688qwkwg5dh67qz6mmdtgudl7wc3uhsy34teyxc7jpdx9z5859ypgnaaaf05347sg4tdmrgt8axgk3qdsk8yq03tsrv8lur","addr1qxy688qwkwg5dh67qz6mmdtgudl7wc3uhsy34teyxc7jpdx9z5859ypgnaaaf05347sg4tdmrgt8axgk3qdsk8yq03tsrv8lur"],"addressesOutput":["addr1wy2mjh76em44qurn5x73nzqrxua7ataasftql0u2h6g88lc3gtgpz","addr1qxy688qwkwg5dh67qz6mmdtgudl7wc3uhsy34teyxc7jpdx9z5859ypgnaaaf05347sg4tdmrgt8axgk3qdsk8yq03tsrv8lur","addr1qxy688qwkwg5dh67qz6mmdtgudl7wc3uhsy34teyxc7jpdx9z5859ypgnaaaf05347sg4tdmrgt8axgk3qdsk8yq03tsrv8lur"],"fee":454142,"totalOutput":75186625,"tokens":[]},{"hash":"e03d6e5ad32590e736e52e330d8eaaecdc50f2f377e06d1daed4ed6766f6375a","blockNo":6856400,"blockHash":"3e3a1ba2a71597f9ce26a31c6ff246ee31d8c55400d4dd767c93a6ee2ebd7345","epochNo":319,"epochSlotNo":303233,"slot":52748033,"time":"2022/02/08 09:58:44","addressesInput":["addr1q8339dkrrsx86uwnsws4z3ftx9xwnkep6yup4lqlemxjruegurhz8c0c6amxwlt9the3cvp2zavz07j7atnpk73kmktqpt78zl"],"addressesOutput":["addr1qxfzs4kzljrdvalwfgr4mz6srzdkht6qfxg285ckja5e97pgurhz8c0c6amxwlt9the3cvp2zavz07j7atnpk73kmktq33yqhv"],"fee":174301,"totalOutput":4189025699,"tokens":[]},{"hash":"58007c6a84886ec69207a5fa530c2c79a26bc25ff1e299342c7309fdbc6819e6","blockNo":6856400,"blockHash":"3e3a1ba2a71597f9ce26a31c6ff246ee31d8c55400d4dd767c93a6ee2ebd7345","epochNo":319,"epochSlotNo":303233,"slot":52748033,"time":"2022/02/08 09:58:44","addressesInput":["addr1q925vpkfqgwxw5plx5ld04s8hwyfv20zd5qy74ze38eenum3d72sey22l0vtr2279tf4lwjmsnjsp482azzcz5n30l6sucqv77"],"addressesOutput":["addr1qxmwqfmgkgme2qm2vgfvdlw00dhd6f00926hgl7csfya4jejagf666xsud2pshy7yegwtuq6rhfxel2y37cgztth935sfur26w","addr1q9p36qe55upqlfyrqqyuan7ls52t8nptk5z578kanx0u7ur3d72sey22l0vtr2279tf4lwjmsnjsp482azzcz5n30l6s5hpxl6"],"fee":173289,"totalOutput":8105191452,"tokens":[]},{"hash":"0f9c906f060b85c1c391daea6edd841018deaecca66e570ec888d21307a625fd","blockNo":6856400,"blockHash":"3e3a1ba2a71597f9ce26a31c6ff246ee31d8c55400d4dd767c93a6ee2ebd7345","epochNo":319,"epochSlotNo":303233,"slot":52748033,"time":"2022/02/08 09:58:44","addressesInput":["addr1q98pd2erahdzrlkwddf4leqy7vkkzeksc0sqvnu9fyd7rgtyrc9umhqzvyaj54ffv3s9n2gj66fcu4eed7hn6tjrvysq7gply5","addr1q98pd2erahdzrlkwddf4leqy7vkkzeksc0sqvnu9fyd7rgtyrc9umhqzvyaj54ffv3s9n2gj66fcu4eed7hn6tjrvysq7gply5"],"addressesOutput":["addr1w999n67e86jn6xal07pzxtrmqynspgx0fwmcmpua4wc6yzsxpljz3","addr1q98pd2erahdzrlkwddf4leqy7vkkzeksc0sqvnu9fyd7rgtyrc9umhqzvyaj54ffv3s9n2gj66fcu4eed7hn6tjrvysq7gply5","addr1q98pd2erahdzrlkwddf4leqy7vkkzeksc0sqvnu9fyd7rgtyrc9umhqzvyaj54ffv3s9n2gj66fcu4eed7hn6tjrvysq7gply5"],"fee":358743,"totalOutput":1072377818,"tokens":[]},{"hash":"0fcd0a324037e0f15c0e012c8fc33691ef6c87594294cb6ceef89a49d572fc58","blockNo":6856400,"blockHash":"3e3a1ba2a71597f9ce26a31c6ff246ee31d8c55400d4dd767c93a6ee2ebd7345","epochNo":319,"epochSlotNo":303233,"slot":52748033,"time":"2022/02/08 09:58:44","addressesInput":["addr1v9wejj2s58q7yyq7nahfws9ve6mh84m8nu9ndz20pwarl5cvuechm"],"addressesOutput":["addr1v9wejj2s58q7yyq7nahfws9ve6mh84m8nu9ndz20pwarl5cvuechm","addr1q8542uhzevtdpx03cgl7q2707z98e2hnm2zsgtmsnjml6xckhxucwyp945x7u78wydsfmna3g3v56mqjgxft9l3tdyksut38v2"],"fee":214297,"totalOutput":36823873,"tokens":[]},{"hash":"1fde241ccda42b9d89b2ded8fb015c6d27a92993a0e1ee2bcbf2fb1e6853acea","blockNo":6856400,"blockHash":"3e3a1ba2a71597f9ce26a31c6ff246ee31d8c55400d4dd767c93a6ee2ebd7345","epochNo":319,"epochSlotNo":303233,"slot":52748033,"time":"2022/02/08 09:58:44","addressesInput":["addr1qxkn6ak47gk7kg5pwymt2znlxnwwxhy0yh9vwgdneg70dledzefudzxhadht99nh8gv4l3z93d486ygllgxuh2drrrps63f6pe"],"addressesOutput":["addr1q97m55j2625trzrtjuaj0h8td6zrygr36u3nzd74g3kzvf33almw5ftqt0fkacac3jje8dlr099zxu00pwa46u6wla4qaqw0ns","addr1q99dny0e35h7j8wc64sjsnn299xzw5rchd3z9u3whukp2u3dzefudzxhadht99nh8gv4l3z93d486ygllgxuh2drrrpsgd4a8e"],"fee":169021,"totalOutput":167430478577,"tokens":[]},{"hash":"1c6fe7c67f3ec752060e26e7d7b3428844447be5972bad982fa1f16867c9152d","blockNo":6856400,"blockHash":"3e3a1ba2a71597f9ce26a31c6ff246ee31d8c55400d4dd767c93a6ee2ebd7345","epochNo":319,"epochSlotNo":303233,"slot":52748033,"time":"2022/02/08 09:58:44","addressesInput":["addr1q9khv9rksveqezpl0zgjas4twrmhv6da90u46n0wt0930aydy705zykswxpx532dm9n7wtr3jtjqdfte757pq0ag0l5sk6vnsa","addr1qx053y8ekz3ksdmetkrt2x2weaa0vzapnth2gpnyxwqz2c5dy705zykswxpx532dm9n7wtr3jtjqdfte757pq0ag0l5seg8933"],"addressesOutput":["addr1q85saanhexuda0cu5wfvwlzrqqe57qxqayyzuxz4zv9ee8vnzf8m07z5ws3zsf2r4gtrm3aa4w259kmzv49agp4ke48qf2dh3q","addr1q9jkk3trrfrpclwrz3qskxgrym6xwkt0wwu9sdtv4239rlvdy705zykswxpx532dm9n7wtr3jtjqdfte757pq0ag0l5szag900"],"fee":174345,"totalOutput":3448508824,"tokens":[]},{"hash":"ed8a8c68c9bd31f68cb2a17d85c3b78d7dec27444062c5e2b7cade641b16c013","blockNo":6856400,"blockHash":"3e3a1ba2a71597f9ce26a31c6ff246ee31d8c55400d4dd767c93a6ee2ebd7345","epochNo":319,"epochSlotNo":303233,"slot":52748033,"time":"2022/02/08 09:58:44","addressesInput":["addr1q94jxrrx49pal3tzmgd8gql9n7rz93aj6q4d5thuax49yejns6cjl8u4j86lt8tc0phd5sqs64a6ajjkku4ys3c5737sz4mraw"],"addressesOutput":["addr1q8da2qv3tv409yggremexpuy57f9z7uzmmrnzut6vgm83nnjgu0jmm2t3fgklr6q0cvaegaplwy2reu5tzue5vmc3thsfrn92z","addr1qy8qvgvl9e0ze33n0p7rmrwvm6n8m2x2emy2zm3twza2gejns6cjl8u4j86lt8tc0phd5sqs64a6ajjkku4ys3c5737svnu0cx"],"fee":173245,"totalOutput":1272908145,"tokens":[]},{"hash":"a6d2f2869bbb4b10dd3fe2e4e2251ba7ce834f878c1038e2f2ccde5f4cc6980a","blockNo":6856400,"blockHash":"3e3a1ba2a71597f9ce26a31c6ff246ee31d8c55400d4dd767c93a6ee2ebd7345","epochNo":319,"epochSlotNo":303233,"slot":52748033,"time":"2022/02/08 09:58:44","addressesInput":["addr1q8zf5n8g2s0js5ls8fpwjlzzyacen9p8hlq0yp8l4hellhkk3uv7zuw8fckqme6xfxys39gvvxzf9ztv6g3q9adwr5qq57ccts","addr1q8zf5n8g2s0js5ls8fpwjlzzyacen9p8hlq0yp8l4hellhkk3uv7zuw8fckqme6xfxys39gvvxzf9ztv6g3q9adwr5qq57ccts"],"addressesOutput":["addr1q92c30n5s06eywctuwvkmy6ehxhsw4gxfk3wxakp0xq6mtv6rpwvqe2pctqhr25cku4ce3jtl439psgracf2dfshdluqncqzwk","addr1q8zf5n8g2s0js5ls8fpwjlzzyacen9p8hlq0yp8l4hellhkk3uv7zuw8fckqme6xfxys39gvvxzf9ztv6g3q9adwr5qq57ccts","addr1q8zf5n8g2s0js5ls8fpwjlzzyacen9p8hlq0yp8l4hellhkk3uv7zuw8fckqme6xfxys39gvvxzf9ztv6g3q9adwr5qq57ccts"],"fee":214297,"totalOutput":9641604,"tokens":[]},{"hash":"8ffe8e4d6f04f3219f835206260da06f7e59c2e60a1035d4cc991362cd69c3b7","blockNo":6856400,"blockHash":"3e3a1ba2a71597f9ce26a31c6ff246ee31d8c55400d4dd767c93a6ee2ebd7345","epochNo":319,"epochSlotNo":303233,"slot":52748033,"time":"2022/02/08 09:58:44","addressesInput":["addr1w999n67e86jn6xal07pzxtrmqynspgx0fwmcmpua4wc6yzsxpljz3","addr1qxxlkamy9d3neg9575g4xsd5hzqw8tgjrh6zpclhtc70053armx5gdaedurcv6gxv6zstkex57amueq3spukgrqzqtrqr40mzt"],"addressesOutput":["addr1w999n67e86jn6xal07pzxtrmqynspgx0fwmcmpua4wc6yzsxpljz3","addr1qxxlkamy9d3neg9575g4xsd5hzqw8tgjrh6zpclhtc70053armx5gdaedurcv6gxv6zstkex57amueq3spukgrqzqtrqr40mzt"],"fee":1193031,"totalOutput":39718889,"tokens":[]},{"hash":"cc5eb2d284d453af4990f203e34955a012e15ac1d9ea98e5c1facef3f2ecb384","blockNo":6856400,"blockHash":"3e3a1ba2a71597f9ce26a31c6ff246ee31d8c55400d4dd767c93a6ee2ebd7345","epochNo":319,"epochSlotNo":303233,"slot":52748033,"time":"2022/02/08 09:58:44","addressesInput":["addr1q9pcmd087mwlwv57hv78qhuezngjg9htg7mmavuz5ema7ett6udsqeu6u304tls76s3frqlqqqnkldqlucte0kjvua2q4qaqql"],"addressesOutput":["addr1qy99eclt7d7v89c7ftaefard2d0gvd4s8a2d9m78l0gt8snt6udsqeu6u304tls76s3frqlqqqnkldqlucte0kjvua2qkdfqfz"],"fee":171573,"totalOutput":2886162,"tokens":[]},{"hash":"55fe5b028a949f4fba5a5c0a4f7cb7ed4b76ebd1fcf781716b7d05bcf8d2de67","blockNo":6856400,"blockHash":"3e3a1ba2a71597f9ce26a31c6ff246ee31d8c55400d4dd767c93a6ee2ebd7345","epochNo":319,"epochSlotNo":303233,"slot":52748033,"time":"2022/02/08 09:58:44","addressesInput":["addr1qxp2u7pdr3zasrx3dcwfln78e33naw4u4greft7dxanxy809avxm3sdcjacmse6c9tw09yu57ewzzhfqm5q6hynxavaqfaf87w","addr1qxp2u7pdr3zasrx3dcwfln78e33naw4u4greft7dxanxy809avxm3sdcjacmse6c9tw09yu57ewzzhfqm5q6hynxavaqfaf87w"],"addressesOutput":["addr1q9wg85kgm7h7dy99mkz57qlz8qjxh3t50saksxgkf4w9h46ax9r8kdvr5ys0pdq70p43w92lmlhwr027w57rdjxr9dss2sj5d0","addr1qxp2u7pdr3zasrx3dcwfln78e33naw4u4greft7dxanxy809avxm3sdcjacmse6c9tw09yu57ewzzhfqm5q6hynxavaqfaf87w"],"fee":169901,"totalOutput":331705268,"tokens":[]},{"hash":"88e989ffbbab6a83f528f6d683cf70dfac1d5ca9a2db54cf1aee7a745d859d0f","blockNo":6856400,"blockHash":"3e3a1ba2a71597f9ce26a31c6ff246ee31d8c55400d4dd767c93a6ee2ebd7345","epochNo":319,"epochSlotNo":303233,"slot":52748033,"time":"2022/02/08 09:58:44","addressesInput":["addr1q8zft5atsp3u5x95vsmr7a950w7ugfvv2vq7nt8tlutef4agvyc7eqsyn2zfm746gsuwra57tfzjhwjc4jxqdetva06s6dkqwt","addr1q8zft5atsp3u5x95vsmr7a950w7ugfvv2vq7nt8tlutef4agvyc7eqsyn2zfm746gsuwra57tfzjhwjc4jxqdetva06s6dkqwt"],"addressesOutput":["addr1q82tr2dw2t4kakn68mqk848hp9q39k0pe5zl9hcjuwma0y7tx0ymxhlunclwcep02qrghwqhxzcl4hkr4kq9ns26t52qgkhcmk","addr1q8zft5atsp3u5x95vsmr7a950w7ugfvv2vq7nt8tlutef4agvyc7eqsyn2zfm746gsuwra57tfzjhwjc4jxqdetva06s6dkqwt"],"fee":169901,"totalOutput":926775431,"tokens":[]},{"hash":"6730da06655e1beac23d52e9ffbbdf1fe3346b9c13296e90b1f5d91bb6791201","blockNo":6856400,"blockHash":"3e3a1ba2a71597f9ce26a31c6ff246ee31d8c55400d4dd767c93a6ee2ebd7345","epochNo":319,"epochSlotNo":303233,"slot":52748033,"time":"2022/02/08 09:58:44","addressesInput":["addr1w999n67e86jn6xal07pzxtrmqynspgx0fwmcmpua4wc6yzsxpljz3","addr1qyeh6xsx64sx3mpenget83aud86yewxckkpemf84ylp775q6wt95779wuqp48qkt7sf486wyzq07f4n344g0dalmuduq90wrwm","addr1qyeh6xsx64sx3mpenget83aud86yewxckkpemf84ylp775q6wt95779wuqp48qkt7sf486wyzq07f4n344g0dalmuduq90wrwm"],"addressesOutput":["addr1w999n67e86jn6xal07pzxtrmqynspgx0fwmcmpua4wc6yzsxpljz3","addr1qyeh6xsx64sx3mpenget83aud86yewxckkpemf84ylp775q6wt95779wuqp48qkt7sf486wyzq07f4n344g0dalmuduq90wrwm"],"fee":1288599,"totalOutput":30622498,"tokens":[]},{"hash":"067f6242768e4f1377a930fee012469991c704ddc9eaeab30ccc5b83855c024f","blockNo":6856400,"blockHash":"3e3a1ba2a71597f9ce26a31c6ff246ee31d8c55400d4dd767c93a6ee2ebd7345","epochNo":319,"epochSlotNo":303233,"slot":52748033,"time":"2022/02/08 09:58:44","addressesInput":["addr1v9j4x9p7lm5c2yguz0jtt37fwhpf2y2zm4lrf5mtgt9uy0ssxg9xg"],"addressesOutput":["addr1vycwas2wgchtez34vxwzfzedmnv8z4e24f9jel9fc2zt95qx797qt","addr1v9j4x9p7lm5c2yguz0jtt37fwhpf2y2zm4lrf5mtgt9uy0ssxg9xg"],"fee":457001,"totalOutput":699437860,"tokens":[]},{"hash":"2bdcccab762d0a605bb1a11f942ea676f277dcf47b0438079655f52b2fc2e0ce","blockNo":6856400,"blockHash":"3e3a1ba2a71597f9ce26a31c6ff246ee31d8c55400d4dd767c93a6ee2ebd7345","epochNo":319,"epochSlotNo":303233,"slot":52748033,"time":"2022/02/08 09:58:44","addressesInput":["addr1qyugemydyk04fm9eqcmg0lmj54xjaff48c723w3hmmyv67gag8zyxn3g5zkapl726q3pvqnwpsusnuauanqz7rhyqs0s557u2f","addr1qyudvfl8zvtgk6pu8yk6fm4xuvdyq3uh4xwnykmn9p5stpsag8zyxn3g5zkapl726q3pvqnwpsusnuauanqz7rhyqs0sv7k3ag"],"addressesOutput":["addr1q8pxs30jevjmprkdyfp9qps6sc5rqxp3y2lwv9pvt50ktntntrwutg58mrmmlx9y4jvg4mc032em62y0w5kn7ez59pxqpue6gr","addr1qynpwpatmjfr7eq9jcjcfjcynratajx2seq8fa64jwdhjvsag8zyxn3g5zkapl726q3pvqnwpsusnuauanqz7rhyqs0sh24kek"],"fee":174301,"totalOutput":817164300,"tokens":[]},{"hash":"be1d553477b9a12356b1ad3e6eca8a2fe53a72fb753794a3b4ca0bb08ebf387f","blockNo":6856400,"blockHash":"3e3a1ba2a71597f9ce26a31c6ff246ee31d8c55400d4dd767c93a6ee2ebd7345","epochNo":319,"epochSlotNo":303233,"slot":52748033,"time":"2022/02/08 09:58:44","addressesInput":["addr1q9dh764n38s5wpgxcv5vnevsnhvr9hpf0l4dy9cthc27txzmn42c2rsy0kfzt7tx5t9r00rjxsmccetnvvgyu24kjm4qt6g207","addr1q9fml23jmkx6pqada7yvhwz47wna04rgg50u027lx9f0642mn42c2rsy0kfzt7tx5t9r00rjxsmccetnvvgyu24kjm4qyutl83"],"addressesOutput":["addr1vyyg6unsy63c96anraupr9h6kzsqx37xcnnsmd8c0zgaphchffdwm","addr1q9af2qk8xz0kzq4hg97ruphjml9xhyaw978d73zf3wwkcl2mn42c2rsy0kfzt7tx5t9r00rjxsmccetnvvgyu24kjm4quehuy7"],"fee":181341,"totalOutput":85125945,"tokens":[]},{"hash":"5e5f2c59de8466825ebf12b44a5045f15cce9076d9c081b821e7c0a2db59e2fc","blockNo":6856400,"blockHash":"3e3a1ba2a71597f9ce26a31c6ff246ee31d8c55400d4dd767c93a6ee2ebd7345","epochNo":319,"epochSlotNo":303233,"slot":52748033,"time":"2022/02/08 09:58:44","addressesInput":["addr1v9wejj2s58q7yyq7nahfws9ve6mh84m8nu9ndz20pwarl5cvuechm"],"addressesOutput":["addr1v9wejj2s58q7yyq7nahfws9ve6mh84m8nu9ndz20pwarl5cvuechm","addr1q8fzz35jmnwfdwawff063802agg4s3zhuzefgejxngkfkl9sun6wy2z84jccr8rxg6xx4ampemnpfh5xxadhr25p60hs34j3ax"],"fee":216673,"totalOutput":36809607,"tokens":[]}],"totalItems":30344078,"totalPages":1517204,"currentPage":0}