{"data":[{"blockNo":8374684,"slotNo":84316499,"epochNo":392,"epochSlotNo":335699,"hash":"89e36e9e4078812443e93686cc60e501cc9db69e9d0eebcda485c42bb109cf59","time":"2023/02/08 18:59:50","txCount":6,"totalFees":1567230,"totalOutput":4218403466,"slotLeader":"96a46d5a796a30483492c3717f80b7c6ef87e9525af162ffacf74fdb"},{"blockNo":8374683,"slotNo":84316489,"epochNo":392,"epochSlotNo":335689,"hash":"f66dc7e7ef923204dfe94a24806997a98cb8549f237fc361dc66281721b82edf","time":"2023/02/08 18:59:40","txCount":18,"totalFees":4832999,"totalOutput":1123445799283,"slotLeader":"b3f9883d3de29971c43e05fdb985281ffee737be0e5669094810ba6b"},{"blockNo":8374682,"slotNo":84316465,"epochNo":392,"epochSlotNo":335665,"hash":"9477b0525741daec38917816f3319bbd485cbed2d036cd3dea0b116355336fda","time":"2023/02/08 18:59:16","txCount":25,"totalFees":8168876,"totalOutput":65198463973,"slotLeader":"94864d27407c1dd0569e4acb9c7fa6ec2cc19a6193d9171f2d811232"},{"blockNo":8374681,"slotNo":84316434,"epochNo":392,"epochSlotNo":335634,"hash":"f6139c3f46bfc97d0230281cd8fbbf81c45fb262d4fb57c0c395ee4d816488e2","time":"2023/02/08 18:58:45","txCount":18,"totalFees":7512635,"totalOutput":89128879545,"slotLeader":"f1b265f1e545da9c6e003c5d703fb5a23283c646cd40b2d619671e7f"},{"blockNo":8374680,"slotNo":84316415,"epochNo":392,"epochSlotNo":335615,"hash":"112379e572504376e27590370a816a0721700acba21d30997403a90ea76ad38b","time":"2023/02/08 18:58:26","txCount":27,"totalFees":8566815,"totalOutput":22664384312688,"slotLeader":"105a6816701a47f2fd43239a9340606640913012811485543bb05968"},{"blockNo":8374679,"slotNo":84316388,"epochNo":392,"epochSlotNo":335588,"hash":"6692a706e4247f60c57ef60d2481ca9dc54aa517821ad66cfa706ad1f6f30800","time":"2023/02/08 18:57:59","txCount":16,"totalFees":4652684,"totalOutput":409519490073,"slotLeader":"7113de447fb62c38e3e3aeec434cac6fc76e05e997b84227e9c637b8"},{"blockNo":8374678,"slotNo":84316370,"epochNo":392,"epochSlotNo":335570,"hash":"6af7ab7b56e2401b4c1d3e02db8d511b2e7affbc184d4f1cbecabca4bb48fea2","time":"2023/02/08 18:57:41","txCount":1,"totalFees":233854,"totalOutput":6734644217,"slotLeader":"486d217a5ef6e9cb5e46a19900a56b1c1f4f1ec4374b744df5a1ef6a"},{"blockNo":8374677,"slotNo":84316368,"epochNo":392,"epochSlotNo":335568,"hash":"28dbb9651dd8f823dd8463484afb7bb06d7a67a2eb7cab81e4ebe5d1bbec8d04","time":"2023/02/08 18:57:39","txCount":21,"totalFees":5893326,"totalOutput":569543728954,"slotLeader":"28cf6c6c01ecbfbd5e807fd879132f07b2c6f0712b930442a229d380"},{"blockNo":8374676,"slotNo":84316351,"epochNo":392,"epochSlotNo":335551,"hash":"56c7aedd93bcefdf9dd59176462f861952dea22710e30bf7c885cbdbd12cbe86","time":"2023/02/08 18:57:22","txCount":22,"totalFees":7650197,"totalOutput":5871399797563,"slotLeader":"2bf5a031b46b34c07937a769ff6f82b6a78a25c71022eaaf1f20eec9"},{"blockNo":8374675,"slotNo":84316327,"epochNo":392,"epochSlotNo":335527,"hash":"0c85c43727db511acf379c960de0438042b89c09bf883fb475aab8f1740ce599","time":"2023/02/08 18:56:58","txCount":16,"totalFees":3821017,"totalOutput":5695459073256,"slotLeader":"89eba2781e5cd11ccda6be56503702a39e9941e522f04cd5bba22957"}],"totalItems":15877,"totalPages":1588,"currentPage":0}