{"data":[{"txId":30514053,"txHash":"f3d2d3f3bdb405f3047cef0edcee05d47958ad060d468843600880153fcf4fb5","txTime":"2022/02/08 15:52:16","block":6857398,"epoch":319,"slotNo":52769245,"epochSlotNo":324445,"stakeKey":"stake1uyxjvp8yxrv9n26296txsclc4sx7wv839da2vkkwyncym3gc3k58c"},{"txId":30513888,"txHash":"c6d5a7e63a4866c8675e1462abbd1a60db032a5da2784a4170c54e222ea70c57","txTime":"2022/02/08 15:51:07","block":6857392,"epoch":319,"slotNo":52769176,"epochSlotNo":324376,"stakeKey":"stake1uyrrp8fn6vdl24qd8xjesp4w43emmh324q0uzh9fxw6ecws4q7lh9"},{"txId":30513886,"txHash":"cf7ffbcde8b0fb60be03c79e4ca67de27a205727af672eb59a718e82ecc273c0","txTime":"2022/02/08 15:51:07","block":6857392,"epoch":319,"slotNo":52769176,"epochSlotNo":324376,"stakeKey":"stake1uxshwez3u9w9scsky82apgn8njr5kkjq8gmwm2m67l7r8fsef4l0s"},{"txId":30513131,"txHash":"f0de726d0cdec916d4fe5ea83845c5aacf614224ed6a76d999179562fab72e65","txTime":"2022/02/08 15:43:18","block":6857371,"epoch":319,"slotNo":52768707,"epochSlotNo":323907,"stakeKey":"stake1uxw74a4qwvguw9jl5mxmpfw6q5l7ygm5nts90st62tezsvc03dxcd"},{"txId":30512706,"txHash":"e93419bd4d1ba6ac6d09478a628f25025d3f08f003fcbe285061e7f067a4ddf4","txTime":"2022/02/08 15:36:47","block":6857359,"epoch":319,"slotNo":52768316,"epochSlotNo":323516,"stakeKey":"stake1ux6qg2jlatq3zwhdqkjq2kpdkazsuj05jkn7j2lggftascckjcng6"},{"txId":30512663,"txHash":"a166d38edea73b48bb410b135014c7182acebd52001810b8578d9ac3002ed2c1","txTime":"2022/02/08 15:36:19","block":6857358,"epoch":319,"slotNo":52768288,"epochSlotNo":323488,"stakeKey":"stake1uyhys28mrass5k3znekf2rh8p3ra5q94y5rx03lufk6z3fceasjmq"},{"txId":30512259,"txHash":"a825f89c73981e5e04481be667fc5261d8fcbcaf05b98f85d2e98decdd4cf40e","txTime":"2022/02/08 15:32:35","block":6857347,"epoch":319,"slotNo":52768064,"epochSlotNo":323264,"stakeKey":"stake1u9h0kcdcy8j8pvtm7pldc4798gzzm3wzgtw5qwlvq36h36cmegd7g"},{"txId":30512206,"txHash":"e31e6fe039cad30c531d30bd14324cdea09895dd3198626540f3367c2cff33df","txTime":"2022/02/08 15:31:35","block":6857345,"epoch":319,"slotNo":52768004,"epochSlotNo":323204,"stakeKey":"stake1u8af0pn3h6stm4s0yh0nq53mke2lud3snxxfazhme9qnlmgk67k5q"},{"txId":30512191,"txHash":"d4fce6684a6b4a0017d9479e7611a3bf74c18d163d5e3f335d1b29f4f4068ddf","txTime":"2022/02/08 15:30:35","block":6857344,"epoch":319,"slotNo":52767944,"epochSlotNo":323144,"stakeKey":"stake1uxr08evf0rc0x5u6c9rlj7kwqcy23ua88gpljzg0y6lrksq934q54"},{"txId":30511994,"txHash":"492995ad44c70280309f57d63d462c2c7b7f73f3a0c6fa3a503e72809ffe2ad2","txTime":"2022/02/08 15:27:11","block":6857338,"epoch":319,"slotNo":52767740,"epochSlotNo":322940,"stakeKey":"stake1uy0369cvygs0vvelmht3h8r2z920edxr3hqqzga7z4g78cgacvlrl"},{"txId":30511918,"txHash":"796d31fa2fe2ce90e6d8c3d59da09e00d4658170210dfb14dbec433f8433401b","txTime":"2022/02/08 15:26:48","block":6857336,"epoch":319,"slotNo":52767717,"epochSlotNo":322917,"stakeKey":"stake1u86r60khzlgmdp89q5clvs77ajg7aalvl3zrjmeqthueaxqmn39dr"},{"txId":30511853,"txHash":"b092816288ea8e429269185f669a1932eca20fc2c13e0646a7c94cce6051a383","txTime":"2022/02/08 15:25:41","block":6857334,"epoch":319,"slotNo":52767650,"epochSlotNo":322850,"stakeKey":"stake1uxpzzd6f25htkkcc5qhp96xug0320qjgng8cl375k2m9fksxdkxc6"},{"txId":30511828,"txHash":"510c54b47891272978ef6e7cdb9124b2ff1790e3b21ddcb42fc93c7e810568dd","txTime":"2022/02/08 15:25:41","block":6857334,"epoch":319,"slotNo":52767650,"epochSlotNo":322850,"stakeKey":"stake1u9p3ys25lkqdqe5xc4s7fgujvcsv2x2mrta9awxy0p3dcfgc6g227"},{"txId":30511718,"txHash":"41c31ea0acf924e40a640739954cfd43f8c6e10527cd3ec7e9b3f8da5b96d0f2","txTime":"2022/02/08 15:25:17","block":6857332,"epoch":319,"slotNo":52767626,"epochSlotNo":322826,"stakeKey":"stake1uydcp257ud2hq6h7xgh46vck95rsrc38qe2qx9j8ahjdx2g35tw4z"},{"txId":30511593,"txHash":"9837b964c1e557513ccf9b420f0d31c0e181c6c186b61af5446a9a0baa68831b","txTime":"2022/02/08 15:24:34","block":6857329,"epoch":319,"slotNo":52767583,"epochSlotNo":322783,"stakeKey":"stake1u8732qee6rnfjjaagw04zghc47nmscr2lr8de5es92dy2ngnqv6ep"},{"txId":30511228,"txHash":"4f3e6ee4304035319db5edaaeb5a2e8cd9ce7010d13f5b1d6a550a76337e6414","txTime":"2022/02/08 15:21:24","block":6857319,"epoch":319,"slotNo":52767393,"epochSlotNo":322593,"stakeKey":"stake1u9xps6hgvxxsyhcj2ppzk36zznpla62tz2wwjfm5yl20ejcspjzdy"},{"txId":30511075,"txHash":"3d1199b97271b26aceedac71e95bfb52dd3a97fd8d550a8ff923886db4cef198","txTime":"2022/02/08 15:19:53","block":6857313,"epoch":319,"slotNo":52767302,"epochSlotNo":322502,"stakeKey":"stake1uxa23r62yfpffwe50up9hk7huw3auuuvwpps6nrdr0dlqxs8s0zcc"},{"txId":30510671,"txHash":"5c2c43b0d5ec39c3cf30d52d7dc96a932ef5bccb3d4bc3639ee1f250ae5b7d82","txTime":"2022/02/08 15:14:35","block":6857301,"epoch":319,"slotNo":52766984,"epochSlotNo":322184,"stakeKey":"stake1uyzf658v82njkhnxzyd5hv3d2gntmlc7mj8j9jvhwmcdq8ccg9zgy"},{"txId":30510589,"txHash":"c00274742fd174abf051793d0fc03a2b4a572b5b61effad7e56e8246fd7ee722","txTime":"2022/02/08 15:13:57","block":6857297,"epoch":319,"slotNo":52766946,"epochSlotNo":322146,"stakeKey":"stake1uxydcjpuncavkjvu9d5cpdkmhm4c7teq26tezm92cwcs9msknytjc"},{"txId":30510075,"txHash":"4103b9c3ee978fcc97106b824d32af2cc98bf97b31c3f61ec9c59026d85396ad","txTime":"2022/02/08 15:09:10","block":6857281,"epoch":319,"slotNo":52766659,"epochSlotNo":321859,"stakeKey":"stake1u8nxajmkp22d6px9lrt0l2l8ul970vt533dqfqvx2mxnntcs5nxh6"}],"totalItems":215457,"totalPages":10773,"currentPage":0}