{"data":[{"blockNo":8113968,"slotNo":78952633,"epochNo":380,"epochSlotNo":155833,"hash":"3760ab71c729c40d1b85b12d25d78b2d05e445c542be9a8a4394655a5814b0a4","time":"2022/12/08 17:02:04","txCount":8,"totalFees":1676903,"totalOutput":1846339070,"slotLeader":"8c289ee3b1b591a95c18ffce66957d1f07115afdf939c2a9b441fc22"},{"blockNo":8113967,"slotNo":78952625,"epochNo":380,"epochSlotNo":155825,"hash":"1813aecebf25591c4a7e412ce0d8eb0921df69c5d5ea311a5d89137cf6949580","time":"2022/12/08 17:01:56","txCount":24,"totalFees":6865072,"totalOutput":25280707121824,"slotLeader":"fdc55442d4c89bfa42bb62ac640ed710afd6eb79531e6dbb8459eb46"},{"blockNo":8113966,"slotNo":78952604,"epochNo":380,"epochSlotNo":155804,"hash":"17a352d8f6518740a13ed6795e9c5b92de21545c4c8ca50d3bb79efe14dc4315","time":"2022/12/08 17:01:35","txCount":34,"totalFees":10090898,"totalOutput":7525886316371,"slotLeader":"788898a81174665316af96880459dcca053f7825abb1b0db9a433630"},{"blockNo":8113965,"slotNo":78952575,"epochNo":380,"epochSlotNo":155775,"hash":"0a7014e40179468c7634039cfd9985b1278abf810b60776d55518b7f58dca892","time":"2022/12/08 17:01:06","txCount":3,"totalFees":984274,"totalOutput":156728556,"slotLeader":"d9812f8d30b5db4b03e5b76cfd242db9cd2763da4671ed062be808a0"},{"blockNo":8113964,"slotNo":78952572,"epochNo":380,"epochSlotNo":155772,"hash":"d05e8e47abdb1b120f62cc019911a0def1d25c13d74368027e4984aefe379adb","time":"2022/12/08 17:01:03","txCount":31,"totalFees":9302074,"totalOutput":77925974613,"slotLeader":"80cb48c2953a78d25f69dbcea305fbcce0c520c25d401cd75a259cf1"},{"blockNo":8113963,"slotNo":78952549,"epochNo":380,"epochSlotNo":155749,"hash":"413c931387a1995ad70010feac9bbe600884bf60efb1a6ee1c80ca0f484d7e1a","time":"2022/12/08 17:00:40","txCount":13,"totalFees":3741320,"totalOutput":14482361742,"slotLeader":"7f6c103302f96390d478a170fe80938b76fccd8a23490e3b6ddebcf7"},{"blockNo":8113962,"slotNo":78952543,"epochNo":380,"epochSlotNo":155743,"hash":"9231e8c2e68688576eea6be11569f32bf88e9893a9dca003f9b1c4c9a75618c1","time":"2022/12/08 17:00:34","txCount":5,"totalFees":1590165,"totalOutput":1726873582,"slotLeader":"6c518b4861bb88b1395ceb116342cecbcfb8736282655f9a61c4c368"},{"blockNo":8113961,"slotNo":78952538,"epochNo":380,"epochSlotNo":155738,"hash":"95799790087f4fd60f3df8d4ca09581b7339848d644b94f04827d81716b63374","time":"2022/12/08 17:00:29","txCount":18,"totalFees":5561631,"totalOutput":1813135710561,"slotLeader":"0c2e0c5a062389a3fd6fafddae26344d490866d7a34cad981b20f96b"},{"blockNo":8113960,"slotNo":78952520,"epochNo":380,"epochSlotNo":155720,"hash":"0e2c9286c5eedc6e064d07a40140cba481cd98de64f05611874ad4462740828c","time":"2022/12/08 17:00:11","txCount":12,"totalFees":2684425,"totalOutput":9398412821,"slotLeader":"0c2e0c5a062389a3fd6fafddae26344d490866d7a34cad981b20f96b"},{"blockNo":8113959,"slotNo":78952511,"epochNo":380,"epochSlotNo":155711,"hash":"1d73a3ab538ffdaaae3a0a862751faa2f96a7d7bc47e4941dc34278f86946b81","time":"2022/12/08 17:00:02","txCount":3,"totalFees":740835,"totalOutput":55740047713,"slotLeader":"c1011645958df9e805df499bbd30056c83094b99c8effe500350d8da"}],"totalItems":7645,"totalPages":765,"currentPage":0}