{"data":[{"txId":59838641,"txHash":"7ba63e5919891440e3104f9c36dc5d53010c5559479b1c0672fbd2fd984861ca","txTime":"2023/01/16 13:01:40","block":8277539,"epoch":388,"slotNo":82307809,"epochSlotNo":55009,"stakeKey":"stake1uxes8f4r65edlftthe3hnkdnfxeluhmvlj8vgrjvv90jgpgsghm9k"},{"txId":59838250,"txHash":"f40b3f07512ecc68072869a53a6d9ece5fe88723d549fa36e18c745818808b50","txTime":"2023/01/16 12:55:08","block":8277518,"epoch":388,"slotNo":82307417,"epochSlotNo":54617,"stakeKey":"stake1u8qn9r0vv50t5e4ut5g0fzeg64a9j85trhnhfxdjsjax7fgy326m7"},{"txId":59837906,"txHash":"c209228019739e4f02c1124720e14ba7a656ab52f1b8594247a937a888eb1cf0","txTime":"2023/01/16 12:47:17","block":8277494,"epoch":388,"slotNo":82306946,"epochSlotNo":54146,"stakeKey":"stake1u8r9s9r92vefwwxmql4w4pvgnwp67qly68f35ptap0njr2q4rhjmu"},{"txId":59837433,"txHash":"49ed0bdea2860c3bf17662dd6e28559d6736eedd14746b12beb983b172e35d57","txTime":"2023/01/16 12:37:54","block":8277455,"epoch":388,"slotNo":82306383,"epochSlotNo":53583,"stakeKey":"stake1u87dmw96rsgvv0amjjgrhvkfrap8yem89g9rg6w9mldt8ug5z2eat"},{"txId":59837058,"txHash":"bcc3836fae65e3aae90bd37a255e417b1a1b2c29302f16942a6224e27df623e6","txTime":"2023/01/16 12:30:08","block":8277426,"epoch":388,"slotNo":82305917,"epochSlotNo":53117,"stakeKey":"stake1u88wu9wlcg9cgjxm88kyssjhdk4md62z7elj0kea5cs77mgv5zfkx"},{"txId":59837010,"txHash":"303247ead6dccb4576d4ae3af3bd64f0f45a6fd4cc830479fe8c58938bc923b3","txTime":"2023/01/16 12:29:08","block":8277422,"epoch":388,"slotNo":82305857,"epochSlotNo":53057,"stakeKey":"stake1uyck38ya0gm0m3pa8a8wflvpn8gd7zlg76kl2dcwv96yq7g25qmsm"},{"txId":59836161,"txHash":"5ece77a07992c5ae57e3ecd1eeb462eb8ac5d361727c7cb269019b16846fd6aa","txTime":"2023/01/16 12:11:47","block":8277373,"epoch":388,"slotNo":82304816,"epochSlotNo":52016,"stakeKey":"stake1u8y5u30cmcmg2etych5uc73g92zgq8nuzpa7qa68pstmh9c22dq5s"},{"txId":59836090,"txHash":"d5a3f840ac62490231f627613fff569bf0ba908025148ebdcb36a8498caadd03","txTime":"2023/01/16 12:10:21","block":8277371,"epoch":388,"slotNo":82304730,"epochSlotNo":51930,"stakeKey":"stake1uxpr9zetheael9scrhtsw2wqlmd7fm7ju60j5f9ue5cnclc2ee6qm"},{"txId":59835726,"txHash":"07bce351c8eff93209e25412643573b774599612cbe88755aca94a3a49bfafc0","txTime":"2023/01/16 12:03:12","block":8277346,"epoch":388,"slotNo":82304301,"epochSlotNo":51501,"stakeKey":"stake1u9smnc0ruwcr6mpe9gc3y292svkaepmu0ke69yyl82mlvzcvkn7mr"},{"txId":59835683,"txHash":"85e95d9464e7bdcb44da52226613eb18923a34d70db1cbee7c5118763e86b4d7","txTime":"2023/01/16 12:02:18","block":8277342,"epoch":388,"slotNo":82304247,"epochSlotNo":51447,"stakeKey":"stake1u9wuj7yv97ys32a60tld3vk2cynsjttyarpxcf4wxp0r09g3ahaks"},{"txId":59834488,"txHash":"3b05059df70be92643e24c1f3556f8146f656c6345c1382fcdbe671d232026f3","txTime":"2023/01/16 11:35:54","block":8277276,"epoch":388,"slotNo":82302663,"epochSlotNo":49863,"stakeKey":"stake1uy59788pp3qfmfmrvze6h83jutduzrjjf9cp5v6a4vy9f5qmue0s5"},{"txId":59834462,"txHash":"52e8669bc2c37ca960a26b1950dd8866751c648e0a89cdd4104354e7b1972fa1","txTime":"2023/01/16 11:35:47","block":8277275,"epoch":388,"slotNo":82302656,"epochSlotNo":49856,"stakeKey":"stake1u8eu046vmqefketwmuf4dcj8ddez2l6u7xc7g0h3r4y0eesa7v0jm"},{"txId":59834332,"txHash":"f51fd9ae5c24431fb63dafe21d3e6aa95f98f99d5fb4e5d83100a735b50d937b","txTime":"2023/01/16 11:32:47","block":8277267,"epoch":388,"slotNo":82302476,"epochSlotNo":49676,"stakeKey":"stake1u9zw0jlpc4gw0d22xuha0jcpar0r3amkcnmy94juf4nze6glal7gg"},{"txId":59834167,"txHash":"7f3866778bd45c8bcb6dcc0ac08ae76095fbc64a82d028f25f70932ddeeec838","txTime":"2023/01/16 11:29:21","block":8277249,"epoch":388,"slotNo":82302270,"epochSlotNo":49470,"stakeKey":"stake1u9g63qs0s45drlqrmkjuhrtgzzg8ryvcdave222dynfxmug4lq08a"},{"txId":59834047,"txHash":"a2296973695b9d062a270a00ebba8774a4685bae94e5951f92ca27ea4208aaaf","txTime":"2023/01/16 11:26:09","block":8277240,"epoch":388,"slotNo":82302078,"epochSlotNo":49278,"stakeKey":"stake1uxt60tz68xj2tljgn9azrq23dyn5dy3wktglc5a7kqcqe8gps9pa4"},{"txId":59833047,"txHash":"9ab78a7b639563fc7829889d05b4d71c2f97fae65d069339a25b597095989ae3","txTime":"2023/01/16 11:03:35","block":8277169,"epoch":388,"slotNo":82300724,"epochSlotNo":47924,"stakeKey":"stake1uys5056ysl7f8jhtquw8vdvzgje7zanujpn5cet5p0a03rcx8ukkm"},{"txId":59833045,"txHash":"ad5ac40fb275220446305c95d629d2cd864578d349471a5ad34d371f82d141f1","txTime":"2023/01/16 11:03:35","block":8277169,"epoch":388,"slotNo":82300724,"epochSlotNo":47924,"stakeKey":"stake1u93pr4lsk85vk3cyh6fqpsn78nwuutllvfz8ucw70svrapstd2fss"},{"txId":59833021,"txHash":"724c4c7b434c1b718e7b4e1dcf65c03f617080f27d3fe5891012c7a913781f94","txTime":"2023/01/16 11:02:09","block":8277168,"epoch":388,"slotNo":82300638,"epochSlotNo":47838,"stakeKey":"stake1u9rlzl8ssw7jvqdsj07fqms8yc3d3jaaxxwdwpyeam26keql83x0v"},{"txId":59832949,"txHash":"b110c700ba4ea406b0c75be45970ef97bdda167582d0790ff28badb0bd23edc3","txTime":"2023/01/16 11:00:32","block":8277162,"epoch":388,"slotNo":82300541,"epochSlotNo":47741,"stakeKey":"stake1u83pshfzhpj2q677dkgxr7nl3e39m45t6gyt2u7d677ct4g262lu5"},{"txId":59832736,"txHash":"0972f7e791e35d0106812eee58ae5f731de08033a447200c3f777d68bfdd021c","txTime":"2023/01/16 10:55:40","block":8277142,"epoch":388,"slotNo":82300249,"epochSlotNo":47449,"stakeKey":"stake1u95s5kcqsdu40xel04g4qhnc7m08vg8k3a2vtx9jj98zuvsjqhjph"}],"totalItems":345284,"totalPages":17265,"currentPage":0}