{"data":[{"txId":59580978,"txHash":"25592109b0f238482c8cf2fcfcbf6c0a60ea5fa2283a3dbac21fd32fe5f958d4","txTime":"2023/01/13 08:38:29","block":8264033,"epoch":387,"slotNo":82032818,"epochSlotNo":212018,"stakeKey":"stake1ux2xs58p33sd6f6vn9llkjxfyv6s2anjwvj2ut79lxhevvqrcn6zq"},{"txId":59580760,"txHash":"80283f6f903907392a2509b4d5953d3fde0b90fa5996ca26f087178d4816577c","txTime":"2023/01/13 08:32:41","block":8264010,"epoch":387,"slotNo":82032470,"epochSlotNo":211670,"stakeKey":"stake1u96wums9m09mywfy7v6anfh5xz3u6w3uvkxyphga7mknysg6jgxsn"},{"txId":59580133,"txHash":"893cc8b7b309ed157e8fdfc26b07c6a431c3107cac8f16c1fca0d1b343d954e9","txTime":"2023/01/13 08:15:45","block":8263960,"epoch":387,"slotNo":82031454,"epochSlotNo":210654,"stakeKey":"stake1uyznksw0t3v7zdw6pv39zwh42ykk0uvhlcc74xgxup79qscpuuuv7"},{"txId":59580019,"txHash":"85f4f3fa9e11fa34ae8b925475ff625df5dd4d2f45ce486be5078e7dd5b3d96e","txTime":"2023/01/13 08:12:56","block":8263950,"epoch":387,"slotNo":82031285,"epochSlotNo":210485,"stakeKey":"stake1u9rj8970wjm632j8438uchlecdchhqxppjk3wlm8sfumzwqgljn7p"},{"txId":59579994,"txHash":"4588b1ebec9e2bcfd2edebaa1ba01a234442216b7be89a79873bf6830b8646b1","txTime":"2023/01/13 08:11:39","block":8263945,"epoch":387,"slotNo":82031208,"epochSlotNo":210408,"stakeKey":"stake1u8gkaxw6ud3ajwcwh2gy8u84p9nhj6p54pwhe6udhxvjvmq9x8554"},{"txId":59579875,"txHash":"be8bfe48498b04c1ae3c31e4bf4cd9030dad935e8c821dc3db37d012d1ce579d","txTime":"2023/01/13 08:09:42","block":8263940,"epoch":387,"slotNo":82031091,"epochSlotNo":210291,"stakeKey":"stake1u9a25eq778v4xy5pn4lxa65nj78efghc0fp0med7eqdakgga63dtf"},{"txId":59579463,"txHash":"ae26cc81589555ea2a30a7aa37d192a33d11edb6f5fcf5e57784946264332fa1","txTime":"2023/01/13 07:56:31","block":8263908,"epoch":387,"slotNo":82030300,"epochSlotNo":209500,"stakeKey":"stake1uyax90h6r32ct7ym6hrhfyk7u8ljy2m0u5fepsurv9khuls7rjrxr"},{"txId":59579276,"txHash":"15590a5c311db74ff9bac3484726bbf2d3240b886ad1c4dc2358300c1cf6cca7","txTime":"2023/01/13 07:51:42","block":8263890,"epoch":387,"slotNo":82030011,"epochSlotNo":209211,"stakeKey":"stake1uxmc45rd3a2q2l8q8wvxdepm2ggqacym55d38ak4w985c5s5ykyqd"},{"txId":59578369,"txHash":"158b13a566015ba64293a8287d5c47db8acbf0e70885c847a1f822572879a297","txTime":"2023/01/13 07:23:58","block":8263814,"epoch":387,"slotNo":82028347,"epochSlotNo":207547,"stakeKey":"stake1u92s7p3a8qa38du9vh3saauf78grc0gm9wh0wjj00aww4sq6gyy92"},{"txId":59578324,"txHash":"b0979bd24111d2858171ce86697469b42315c1bc0913f0070414e2ba452e1ae2","txTime":"2023/01/13 07:21:37","block":8263810,"epoch":387,"slotNo":82028206,"epochSlotNo":207406,"stakeKey":"stake1u9vhgg36j6uw82cp8aerdaycsueszs4p3t47ngpy2sf8sgqxfywyv"},{"txId":59578030,"txHash":"2386a35b8040b5cd82873356784294b716a4a3e22cbd18de39f7e7d875516b32","txTime":"2023/01/13 07:12:32","block":8263791,"epoch":387,"slotNo":82027661,"epochSlotNo":206861,"stakeKey":"stake1uyz9tmgx3fvanupyxly0qmkutrgq80n30jw38m0dncg8eeg34kgzt"},{"txId":59577905,"txHash":"ae5a7faedb91e1621cdfdf01a868e8ece0c2ed77445346a032d19cc3fd9442da","txTime":"2023/01/13 07:08:45","block":8263783,"epoch":387,"slotNo":82027434,"epochSlotNo":206634,"stakeKey":"stake1u8wuyj04k9cw2725cuanrsra22q7kgerx6awhu88wg7uh5s8nm5tt"},{"txId":59577818,"txHash":"d370bd9ee6dbaae10c4da78d27d9dbead45835cee181f1695cb21ce1602900d3","txTime":"2023/01/13 07:05:47","block":8263774,"epoch":387,"slotNo":82027256,"epochSlotNo":206456,"stakeKey":"stake1u93jrv5n4y6h5nz63v5h6s2rx2mdmfc8lqgtr3d4gvlcyfq8n3tw9"},{"txId":59577674,"txHash":"6e6db1e3327e8edb7d1769865a741b75e2fef26cdcc89156f316bd4418d7f1ef","txTime":"2023/01/13 07:01:42","block":8263762,"epoch":387,"slotNo":82027011,"epochSlotNo":206211,"stakeKey":"stake1u9pmpn3xw9sdgacd6n9f2cmu9mhq2hz9lhxzdhhd3swstngtttdyu"},{"txId":59577644,"txHash":"e2dc7ac30e217e05e2cede477adc8ca09394a98341dff3308561eeb4f1e69be6","txTime":"2023/01/13 07:00:57","block":8263759,"epoch":387,"slotNo":82026966,"epochSlotNo":206166,"stakeKey":"stake1u9nnqycesdmm7pvtldxsp562355uwmem6ccls83gzf6jytsvzh8qs"},{"txId":59577521,"txHash":"11971d2ab9c05190758ad0d17f4cee1c6d1cb373cb9115864dc06853bf4251db","txTime":"2023/01/13 06:57:52","block":8263746,"epoch":387,"slotNo":82026781,"epochSlotNo":205981,"stakeKey":"stake1u9uncfep598lhux99hhm0mpg2zu4aynmwtpyjhp9m04jzfsaytfu0"},{"txId":59577517,"txHash":"daeca81fc06f5a136b54280aca8b56f7eb16a1f6915efd21987d9c43663e9812","txTime":"2023/01/13 06:57:52","block":8263746,"epoch":387,"slotNo":82026781,"epochSlotNo":205981,"stakeKey":"stake1u8yqjdflppmxml9mqpp5dsuu0mmfvcl8ruphfz5x5k0khtqxqwyng"},{"txId":59576690,"txHash":"9f9bdebb51a1cfcc40c6bde7b5490f5420ea9606e6c9300c4d638f4e09ca77fa","txTime":"2023/01/13 06:30:31","block":8263674,"epoch":387,"slotNo":82025140,"epochSlotNo":204340,"stakeKey":"stake1u8e4qahs7vgq50504uh330s7yaevrn5cr9te873enm85tngw5uvyr"},{"txId":59576663,"txHash":"0282d7eaa699acd2e76b96f2492d1ad3c6455e22769be02133ffe7fe7279a764","txTime":"2023/01/13 06:29:35","block":8263673,"epoch":387,"slotNo":82025084,"epochSlotNo":204284,"stakeKey":"stake1uyyg68qesl87phj52kyks74xq98r8tzehtyv47ekyx47frgmgw66j"},{"txId":59576655,"txHash":"0b1201f2979146c3beb4c839a65aee061aaf80987ca7db348b36aeb00b7eb2ee","txTime":"2023/01/13 06:29:35","block":8263673,"epoch":387,"slotNo":82025084,"epochSlotNo":204284,"stakeKey":"stake1uyppffhk6sqdph8jk4p77hhp80rmrkcuumwmzfr2um7wthcz4uj5y"}],"totalItems":344233,"totalPages":17212,"currentPage":0}