{"data":[{"txId":58984189,"txHash":"a791c306e0ba3c5d56a13cd80f79ec1663d1b5741b5327fe59616231d3e71b19","txTime":"2023/01/06 04:28:26","block":8233997,"epoch":386,"slotNo":81413015,"epochSlotNo":24215,"stakeKey":"stake1u8h2227h7j6uf97xzeza62lwce8rs322e4v0w50d6wqrkeqpfa5uh"},{"txId":58983836,"txHash":"4b9b50c3cce551642038cdf58c9ef480ed82daa652d711cfd04ee7804ac3a045","txTime":"2023/01/06 04:21:04","block":8233971,"epoch":386,"slotNo":81412573,"epochSlotNo":23773,"stakeKey":"stake1ux3ggxgnrn4kaml3cms7nxgagzqdqgvr8nze5teyjs6jz9qcpjmly"},{"txId":58983415,"txHash":"0db79db5e2014a073358caee0e5ba7b0142af71f86f3717b6404bfe1dfae658b","txTime":"2023/01/06 04:13:09","block":8233949,"epoch":386,"slotNo":81412098,"epochSlotNo":23298,"stakeKey":"stake1u89r2e6xe68f38vtvrzll7ax4sqgkchscvaqpmk59tt34lczkvjsp"},{"txId":58983299,"txHash":"709aa2c5005649356bc062c6e1b5957a02010f8a5a0b70ae93ebaf50776ade1f","txTime":"2023/01/06 04:11:26","block":8233945,"epoch":386,"slotNo":81411995,"epochSlotNo":23195,"stakeKey":"stake1uyydj9meeaqlt028ht6xfw76dfrzk57phv85ssx88lf2gec47gqka"},{"txId":58983292,"txHash":"5197e61b8fc4d5c39410c5e81228c99660f83003c7a1a14d65b0d358557ec852","txTime":"2023/01/06 04:11:26","block":8233945,"epoch":386,"slotNo":81411995,"epochSlotNo":23195,"stakeKey":"stake1ux5430pp8u2qpltz94w0khn97rw77lmweuw2eqp9n70eewgknqfmr"},{"txId":58982514,"txHash":"dc3a9712fb6928a383f1188d4da6cf16f144fd251224c5411547060d51454e86","txTime":"2023/01/06 03:56:00","block":8233915,"epoch":386,"slotNo":81411069,"epochSlotNo":22269,"stakeKey":"stake1uxfap55wrp553rtjz04w7lrsnlytdztszuvzkykylmwxunssf89rf"},{"txId":58982273,"txHash":"2d0b3d403c8cb765f3e804cc0ee69901aa9c3ea8302ce7b75f44423eb03169f9","txTime":"2023/01/06 03:51:42","block":8233895,"epoch":386,"slotNo":81410811,"epochSlotNo":22011,"stakeKey":"stake1u9dfmly4mjazpvlm053heeuvpmwp8tr2yzrrn9cc4e5h55gwwpt9w"},{"txId":58982205,"txHash":"dc5d94bf649e98e1f66876bda30ae77e55cb95167be4d7fd4479638ffb996277","txTime":"2023/01/06 03:51:19","block":8233893,"epoch":386,"slotNo":81410788,"epochSlotNo":21988,"stakeKey":"stake1uya52a4r04g4skt7rtztuuml6jldcq4kmrg5ruhq49wrrpsh5f3de"},{"txId":58981639,"txHash":"a71cb7023527f7ef8efe27a1a0faf64a7618ac3dd6d85e8ba43fa71d5eb92047","txTime":"2023/01/06 03:39:52","block":8233877,"epoch":386,"slotNo":81410101,"epochSlotNo":21301,"stakeKey":"stake1u9gwz7jh289xlxkjk24h2vg7q4c9rgk23wa609ssx306ngcrv3593"},{"txId":58981567,"txHash":"0409cb38ccbae4f226ab0be41ef4fa50f1ea28d3f8ac8b31353cfd58ef09ac95","txTime":"2023/01/06 03:38:41","block":8233872,"epoch":386,"slotNo":81410030,"epochSlotNo":21230,"stakeKey":"stake1ux6a89gr3e80pp0hw5vyc35fjp88tym3tz7cffzg8etusxg754xjh"},{"txId":58981504,"txHash":"a29c717d12e0b974a652c18d537bae5364cdc7acbfaac3af4eb05826169ffa18","txTime":"2023/01/06 03:38:05","block":8233869,"epoch":386,"slotNo":81409994,"epochSlotNo":21194,"stakeKey":"stake1u97hhjc6g7aeslk3azys4hwdfph34j0k5tt2mmt6xgls7mgl7c9k7"},{"txId":58981393,"txHash":"ad14e805a4f0d77f8cef078e48bf183a2ea9026238f84730cb316cf2dbeb26e7","txTime":"2023/01/06 03:36:02","block":8233866,"epoch":386,"slotNo":81409871,"epochSlotNo":21071,"stakeKey":"stake1u8gvkjtn8xmlv0fksfnv9pg56md5mpjdq8tqljm288z5f7smax5fe"},{"txId":58981349,"txHash":"d503fb541be8b12781b0f839bcb35e5889392794fe5da3b6552517d4fc816629","txTime":"2023/01/06 03:35:04","block":8233864,"epoch":386,"slotNo":81409813,"epochSlotNo":21013,"stakeKey":"stake1u9yaj2q5nvznpk7lxejmfavsr62udsyex3j7d5f4sh9cq4qnrnzp5"},{"txId":58980341,"txHash":"605a0bfc4bc98e469041a02e753905336e6d7f29f0b4572a77ffa9bca7fa03f0","txTime":"2023/01/06 03:15:18","block":8233799,"epoch":386,"slotNo":81408627,"epochSlotNo":19827,"stakeKey":"stake1u8957w9u64qv9qp475nkpk3cge9n6hlauhvfdatwdcq5rsqk0vkxz"},{"txId":58980254,"txHash":"6042561f383e8e233b12c725183c0725e688119c0cd313172dfc630a0fab254d","txTime":"2023/01/06 03:13:48","block":8233793,"epoch":386,"slotNo":81408537,"epochSlotNo":19737,"stakeKey":"stake1u93u39547u0tuf0kpkxx9ez00g3s4zvuqpq5m6v9v6cu5gg05xag7"},{"txId":58979760,"txHash":"a2e97e7e5c94a7d0bceea3bfcee7b15c690bad1fcb3907b82ccba4bea80ee663","txTime":"2023/01/06 03:04:42","block":8233764,"epoch":386,"slotNo":81407991,"epochSlotNo":19191,"stakeKey":"stake1uxr529eajtug04kzgqfc0gsmn93s6jyhdeme5m93uvf0k6sp5yfg4"},{"txId":58979576,"txHash":"bbf43b10edc4544a7cf12f3c0034efccb08dfa4ab83256f4731772a190079985","txTime":"2023/01/06 03:01:38","block":8233753,"epoch":386,"slotNo":81407807,"epochSlotNo":19007,"stakeKey":"stake1u98zytvsd3nmfa2f7v5gle4drw7lyzjwu8dq525vueraazc67mxh9"},{"txId":58979562,"txHash":"01f0a6adba5964b330843754e2222fa4a3780b323d8199d51facce5f44e7f7c5","txTime":"2023/01/06 03:01:22","block":8233752,"epoch":386,"slotNo":81407791,"epochSlotNo":18991,"stakeKey":"stake1uydg2l47luryys2jjxu8rahdkr99k6rcn6kuly00r8g7rec0ss8ez"},{"txId":58979368,"txHash":"27e213e8f6d46891f2449acacb14c077386ee1b551be614b655731003ee498f1","txTime":"2023/01/06 02:57:40","block":8233746,"epoch":386,"slotNo":81407569,"epochSlotNo":18769,"stakeKey":"stake1uxpqh2jqvxvxrfpk2gyndsmlhj42n9q9xyd9z34vcu30shq2f3rdd"},{"txId":58979040,"txHash":"df0999fc4c56163460127aaa9f8f5456979230256d876b2f663ac8448aaa0fbf","txTime":"2023/01/06 02:52:17","block":8233728,"epoch":386,"slotNo":81407246,"epochSlotNo":18446,"stakeKey":"stake1u8zsj0nakjdpnn5ccx09dughcsp2d5l7xd2q853as3cduaszehz4s"}],"totalItems":342199,"totalPages":17110,"currentPage":0}