{"data":[{"txId":60159958,"txHash":"014280d342efbe059bd9621b81ae1ffeec64450051d5e43d120ed9d6d8b08080","txTime":"2023/01/20 19:30:13","block":8295577,"epoch":388,"slotNo":82676722,"epochSlotNo":423922,"stakeKey":"stake1u93gz37nrt2vt0nx8s7j7a560fwctskcjc7n6qlc09w43ks5kgsm9"},{"txId":60159585,"txHash":"dcac58c037acb7c5b8f12710da843c468266238e197c217ab54df11bec1a8058","txTime":"2023/01/20 19:23:28","block":8295559,"epoch":388,"slotNo":82676317,"epochSlotNo":423517,"stakeKey":"stake1u9y9zjlxs2he33wdlvuvyjhc887zj5d2jdtqzxlukg56gaq6ayclx"},{"txId":60159525,"txHash":"ff39f68c3fd27957ecd76156b34d9fa634bf98bd37071755beb95e8354f2ec79","txTime":"2023/01/20 19:22:25","block":8295557,"epoch":388,"slotNo":82676254,"epochSlotNo":423454,"stakeKey":"stake1uyc3zsmy8v93e7ufj7pxup3c9nu4k7643c2k878as2fvtxqw3gulq"},{"txId":60159128,"txHash":"c6fb7daf8688fcf7fed0ad9ab0deb9fdf2af0bfedfed97eec14f2e93321b817b","txTime":"2023/01/20 19:15:00","block":8295534,"epoch":388,"slotNo":82675809,"epochSlotNo":423009,"stakeKey":"stake1u9mm2m7cwtvh7a4fmc2dmv7wgpflm7xsaz0afqy6w24s2hsycvzgf"},{"txId":60158935,"txHash":"0f03dde45e6058b388c095d5a8bfacd63b273b7fd2c37acc349a12c718d349ee","txTime":"2023/01/20 19:10:29","block":8295525,"epoch":388,"slotNo":82675538,"epochSlotNo":422738,"stakeKey":"stake1u8kekhudgxlhetzr5sm0jmxfmekkt7fwmct86tktfpxw0ngsdqrhf"},{"txId":60158677,"txHash":"0fcba47475e623e4934f54624eed9fd805f75cc755e10c2506755da2d9349552","txTime":"2023/01/20 19:05:55","block":8295516,"epoch":388,"slotNo":82675264,"epochSlotNo":422464,"stakeKey":"stake1uyrpsvvw7nad9wh0muuz0xarkkzr9vyg46macyznhguej5qp98l83"},{"txId":60158484,"txHash":"ca812024cee286e92d2b74160f03ad48ddeca9dcf1a03e6995a84a2a698c9daf","txTime":"2023/01/20 19:02:28","block":8295502,"epoch":388,"slotNo":82675057,"epochSlotNo":422257,"stakeKey":"stake1uymhp6fmaqqp0vjkd2dy4nj5ygww8an0y69nuhhqjzsu38qmgf3ls"},{"txId":60158402,"txHash":"9ee0d7ebc9d8cab5d090c2f444bc28e41d2661baee936e3281cf100ca5cfd263","txTime":"2023/01/20 19:00:57","block":8295499,"epoch":388,"slotNo":82674966,"epochSlotNo":422166,"stakeKey":"stake1u88032whdtax2kygfyg9nk6q2zm9awr9g83t3yw9py67q9q6p2hmk"},{"txId":60158391,"txHash":"23b2537dd5c049ff3ce203f5f275835a75030c54f7f1b3ef263d3d50d131e668","txTime":"2023/01/20 19:00:57","block":8295499,"epoch":388,"slotNo":82674966,"epochSlotNo":422166,"stakeKey":"stake1u92sy3nu9hgaxt6fwxykzxtap2qa9r2qqwm8gq85vsx230qpxke35"},{"txId":60158360,"txHash":"16565ac918e289867256adf56b77f29883e1db269932597975a7c4177632221b","txTime":"2023/01/20 19:00:09","block":8295494,"epoch":388,"slotNo":82674918,"epochSlotNo":422118,"stakeKey":"stake1u9vkx8tx5gdhp0q5qk758qqnlgjg89r44h58h44zmt2kf6sx43lj5"},{"txId":60158217,"txHash":"f97ed1529777009ea6679f61a41e3b8fc9f89656d28518dca23b96618e0bb2db","txTime":"2023/01/20 18:58:03","block":8295491,"epoch":388,"slotNo":82674792,"epochSlotNo":421992,"stakeKey":"stake1uywy4f4dcc6v8v6q5n0zptjm40rd65hxvue7j9jmyr604vgts2skl"},{"txId":60158216,"txHash":"af6b871540ca0de743b087824fdbba1ef82b667861f41f03438d30f35eb554f5","txTime":"2023/01/20 18:58:03","block":8295491,"epoch":388,"slotNo":82674792,"epochSlotNo":421992,"stakeKey":"stake1u8lf6mt9zu7t8mgf7nqj8xz8vqukj769tkusa0dysuw5cqc4cvlw2"},{"txId":60158154,"txHash":"596ac502ddb969f85763332e1d8f4be93d79330d9f1c250f316d265a6aeabb4a","txTime":"2023/01/20 18:56:40","block":8295489,"epoch":388,"slotNo":82674709,"epochSlotNo":421909,"stakeKey":"stake1uy8fygskydrk8frkvxg7m6gd6lhjcqk9hr8qygpzdlswh7s5kav94"},{"txId":60158063,"txHash":"40c3e5b8f2e1c8dfac5c7d6394a7c1d20bd1ce1b11d9e12012fc7e513d34bc45","txTime":"2023/01/20 18:55:13","block":8295485,"epoch":388,"slotNo":82674622,"epochSlotNo":421822,"stakeKey":"stake1uygez8tg8rmh9hgycesh8unezf23mjx4a8sd6vswanx2c7g005w8v"},{"txId":60157870,"txHash":"d087cc8acf2d5fe178344ace2237d7b109255628f4f448bedb9f9521eb1a1c86","txTime":"2023/01/20 18:50:59","block":8295476,"epoch":388,"slotNo":82674368,"epochSlotNo":421568,"stakeKey":"stake1u92a0sz6tvqxm5edzj52pjt08mz2xt95x9uwc5c896evumgf86kth"},{"txId":60157795,"txHash":"6fb248f223b0b14c0b553e0eb2665c1d9f8576877c778eb6325af5ded59408a0","txTime":"2023/01/20 18:49:31","block":8295471,"epoch":388,"slotNo":82674280,"epochSlotNo":421480,"stakeKey":"stake1u962wfmtyxu50sl63ll5r3rvyjuhnpe32sdqpqa9t4scdkgdfe2k3"},{"txId":60157704,"txHash":"b24f6f45a6a248d36777248ab9685487203b20a70c0240b1322d4efeeaef8d38","txTime":"2023/01/20 18:48:49","block":8295470,"epoch":388,"slotNo":82674238,"epochSlotNo":421438,"stakeKey":"stake1ux4dagvhgmj82z2xh0eppvk9prldq76fvgsjmp7dqrufgzglzmxcg"},{"txId":60157534,"txHash":"ecd6f3baf5389bc4907ec6864204eb310c43533c59bc79619773f079e59efdfa","txTime":"2023/01/20 18:44:47","block":8295457,"epoch":388,"slotNo":82673996,"epochSlotNo":421196,"stakeKey":"stake1u9xtgcx92ns0393k86e3wr79zkflj42k5dgck6ysra3mets6rm25r"},{"txId":60157167,"txHash":"7147a0f1e3246f7796d0138717680117024b4e67f55dcd0edd6eaf60011b5f55","txTime":"2023/01/20 18:38:09","block":8295433,"epoch":388,"slotNo":82673598,"epochSlotNo":420798,"stakeKey":"stake1u93ltaw0c7j2342tj9h2rfkxz0un6cs4ve5v9xwvhv7d2ugh67le7"},{"txId":60157052,"txHash":"58111b76d22a1aa7b36c142f3a7f874cd9eeb50185d88f44899b5481a2818062","txTime":"2023/01/20 18:35:31","block":8295426,"epoch":388,"slotNo":82673440,"epochSlotNo":420640,"stakeKey":"stake1u8gtk35jtrggxndutkgq0w6lvs64p630whp4htx5cpp8jggk7evqp"}],"totalItems":1649302,"totalPages":82466,"currentPage":0}