{"data":[{"hash":"7426a7def59c75e7406954287d1e8c014849776bf9ac3542e12e382dd4226fd7","blockNo":8143870,"blockHash":"f0512a4c1f4ffd69c5876ea3ab40913077220a953c0c0e71d7e3949c32b13a31","epochNo":381,"epochSlotNo":334030,"slot":79562830,"time":"2022/12/15 18:32:01","addressesInput":["addr1q8d95d2gz67rvvsfg3hd6md8h73r9lsjd9h32z5fgqmvvk5k7vzxaq5t5mv5vvk90hn7pcx9qh46t0ke97nayaqdymyql7ejz9","addr1q8d95d2gz67rvvsfg3hd6md8h73r9lsjd9h32z5fgqmvvk5k7vzxaq5t5mv5vvk90hn7pcx9qh46t0ke97nayaqdymyql7ejz9"],"addressesOutput":["addr1qyhudh2d3gcevz60r9sjc8rgf79rh6dzztnl8kh3trqm674fm6ukamts69vqaedahaj5flwgf4fspjp6de0mxsxua6vsdx6fd7","addr1q8d95d2gz67rvvsfg3hd6md8h73r9lsjd9h32z5fgqmvvk5k7vzxaq5t5mv5vvk90hn7pcx9qh46t0ke97nayaqdymyql7ejz9"],"fee":172761,"totalOutput":3762918,"tokens":[]},{"hash":"dc776215cfd5ef3d181085ba3ff82c79c102e5e26186b03ad35eb168cc45d063","blockNo":8143870,"blockHash":"f0512a4c1f4ffd69c5876ea3ab40913077220a953c0c0e71d7e3949c32b13a31","epochNo":381,"epochSlotNo":334030,"slot":79562830,"time":"2022/12/15 18:32:01","addressesInput":["addr1q87av6q5e9hqhmct9p8y42c4g3awvxp4lznkzxgha3qn2h729yjrpfq5wmwjn5yc9e7j3u548rckql043mnfqhzwrtys4gmude","addr1q87av6q5e9hqhmct9p8y42c4g3awvxp4lznkzxgha3qn2h729yjrpfq5wmwjn5yc9e7j3u548rckql043mnfqhzwrtys4gmude"],"addressesOutput":["addr1qyetzsqje72xgymlzcw8fg7mqryrdflhj0zp40np2lqxwgj742f6c5wqu3qc48jxc05d03w7x574gvv8mdpa50kk6h3shwaqnn"],"fee":760883,"totalOutput":10000000,"tokens":[]},{"hash":"f0163080e96451fe1af9a5197b3026969ff6fbbb86000e5aa01fd3826fbbe885","blockNo":8143870,"blockHash":"f0512a4c1f4ffd69c5876ea3ab40913077220a953c0c0e71d7e3949c32b13a31","epochNo":381,"epochSlotNo":334030,"slot":79562830,"time":"2022/12/15 18:32:01","addressesInput":["addr1qym8wzruu0xkcva844p2hju367lr54pknyrujp34al802u8yg50vk465wzc2uadgyhxn2d5yfrqmc0q9n4ggvhy6m2lqkv6ujg"],"addressesOutput":["addr1q8dxsqv8f8np8w4mvugeujanpfet488vzrelprclyjnm43zaa8502p8wr69yngkqswthka0x87guxyknhjculqpeyvlqdkm99a","addr1qym8wzruu0xkcva844p2hju367lr54pknyrujp34al802u8yg50vk465wzc2uadgyhxn2d5yfrqmc0q9n4ggvhy6m2lqkv6ujg"],"fee":168317,"totalOutput":50791231,"tokens":[]},{"hash":"b8b5489cd9916a0e5570e7a58e7e46f278c3edaf06dcdb14135c91847c979fa3","blockNo":8143870,"blockHash":"f0512a4c1f4ffd69c5876ea3ab40913077220a953c0c0e71d7e3949c32b13a31","epochNo":381,"epochSlotNo":334030,"slot":79562830,"time":"2022/12/15 18:32:01","addressesInput":["addr1q9pr24syz57x5vwd2v02xrn4hhwjsvezuy4elgly6ad2vkrvgdqs68qhml9dpxdm3j2n0efgg4snq24ylvmpvu90txgs6sur88","addr1zxj47sy4qxlktqzmkrw8dahe46gtv8seakrshsqz26qnvzypw288a4x0xf8pxgcntelxmyclq83s0ykeehchz2wtspksr3q9nx"],"addressesOutput":["addr1q9pr24syz57x5vwd2v02xrn4hhwjsvezuy4elgly6ad2vkrvgdqs68qhml9dpxdm3j2n0efgg4snq24ylvmpvu90txgs6sur88","addr1q9pr24syz57x5vwd2v02xrn4hhwjsvezuy4elgly6ad2vkrvgdqs68qhml9dpxdm3j2n0efgg4snq24ylvmpvu90txgs6sur88","addr1q9pr24syz57x5vwd2v02xrn4hhwjsvezuy4elgly6ad2vkrvgdqs68qhml9dpxdm3j2n0efgg4snq24ylvmpvu90txgs6sur88"],"fee":528184,"totalOutput":9362813,"tokens":[]},{"hash":"f6544a5728408eee6aaf427701d2d1fae2e29ed4d23d80f68ef45dbc5638a69e","blockNo":8143870,"blockHash":"f0512a4c1f4ffd69c5876ea3ab40913077220a953c0c0e71d7e3949c32b13a31","epochNo":381,"epochSlotNo":334030,"slot":79562830,"time":"2022/12/15 18:32:01","addressesInput":["addr1qx8f5xyp0htlhpq70d8c5kyl459alm9g5c7x8eylcna20n2gr63qpgfuc0nwgm604yyxkpjrnpd54y2hmdt85qenp8xsdv7j95","addr1qx8rg3q7xdkjt4mvwm70ndacjy0w4gk865t0l0afq87hft2gr63qpgfuc0nwgm604yyxkpjrnpd54y2hmdt85qenp8xs4c0dm7","addr1qx8rg3q7xdkjt4mvwm70ndacjy0w4gk865t0l0afq87hft2gr63qpgfuc0nwgm604yyxkpjrnpd54y2hmdt85qenp8xs4c0dm7"],"addressesOutput":["addr1zxgx3far7qygq0k6epa0zcvcvrevmn0ypsnfsue94nsn3tvpw288a4x0xf8pxgcntelxmyclq83s0ykeehchz2wtspks905plm","addr1qx8rg3q7xdkjt4mvwm70ndacjy0w4gk865t0l0afq87hft2gr63qpgfuc0nwgm604yyxkpjrnpd54y2hmdt85qenp8xs4c0dm7"],"fee":228069,"totalOutput":36564580,"tokens":[]},{"hash":"eb4d482d71f93d067a02e22e6bda53a37fa06389ca1f02c3d0c8545e9bb35214","blockNo":8143870,"blockHash":"f0512a4c1f4ffd69c5876ea3ab40913077220a953c0c0e71d7e3949c32b13a31","epochNo":381,"epochSlotNo":334030,"slot":79562830,"time":"2022/12/15 18:32:01","addressesInput":["addr1q8ylswy5rzj7umq89r84asgkxk5fehvhxuw33ma6k3j447lrzr27g03klu862usxqsru794d03gzkk8n86ta34n85z0s3s2k8z","addr1q9jm7lg2rs9jya8fc5rpevp2j98uyqsdt6w9faf065c64n0rzr27g03klu862usxqsru794d03gzkk8n86ta34n85z0s8dacd2"],"addressesOutput":["DdzFFzCqrhsqKhoiZ3Xz2LoKpj8idvnxp4yn5kGheJKnNV3vRyuTasNubsR23oCcV5ZGQRU58FYqpPVSEvj2ierUBYNUifG8WLfebgnA","addr1qxwupxxv6q8a58zcctjkks89z8yu70kssydc48z5rzmrff0rzr27g03klu862usxqsru794d03gzkk8n86ta34n85z0s4l3puk"],"fee":175313,"totalOutput":135923896106,"tokens":[]},{"hash":"16566762ac091cc558b37a1c2f9bc54f32a8c05fbc5991f8b5c888cccc15a531","blockNo":8143870,"blockHash":"f0512a4c1f4ffd69c5876ea3ab40913077220a953c0c0e71d7e3949c32b13a31","epochNo":381,"epochSlotNo":334030,"slot":79562830,"time":"2022/12/15 18:32:01","addressesInput":["addr1qxlchvx9qxwc57qkk5he02rzzzw62zl5s9j9f8efrc9ckvav5v674kwcemnz0y2cwljdegegnajy7ct66yxddmt9df4qr2vq3r"],"addressesOutput":["addr1q9wp2wr5wqq0un6uze9kzmdarvng9ggww728fjzryeew3s9nuq6vue67urpvrhxhpntzwfhwqmzamgxx4s2cvf6nwptq8mcfde"],"fee":1000000,"totalOutput":24000000,"tokens":[]},{"hash":"08c20669ceeed36a7915e79b5d42a9d8ffdebd7d228c4ad2f77da580491a8a4d","blockNo":8143870,"blockHash":"f0512a4c1f4ffd69c5876ea3ab40913077220a953c0c0e71d7e3949c32b13a31","epochNo":381,"epochSlotNo":334030,"slot":79562830,"time":"2022/12/15 18:32:01","addressesInput":["addr1q968z2lhdh0zeewyn94set6a6wr96wq04t0swf0frpge5gug5wcclek5nurxns7ftucegcrrgfujq2x9k0dv5mcxrcuqrgsqjj","addr1q968z2lhdh0zeewyn94set6a6wr96wq04t0swf0frpge5gug5wcclek5nurxns7ftucegcrrgfujq2x9k0dv5mcxrcuqrgsqjj"],"addressesOutput":["addr1q968z2lhdh0zeewyn94set6a6wr96wq04t0swf0frpge5gug5wcclek5nurxns7ftucegcrrgfujq2x9k0dv5mcxrcuqrgsqjj","addr1q968z2lhdh0zeewyn94set6a6wr96wq04t0swf0frpge5gug5wcclek5nurxns7ftucegcrrgfujq2x9k0dv5mcxrcuqrgsqjj"],"fee":169461,"totalOutput":474945839,"tokens":[]},{"hash":"a9e9619d2b220d67af8164defe30e8f7c5a895d8be26301c289aae8525336b52","blockNo":8143870,"blockHash":"f0512a4c1f4ffd69c5876ea3ab40913077220a953c0c0e71d7e3949c32b13a31","epochNo":381,"epochSlotNo":334030,"slot":79562830,"time":"2022/12/15 18:32:01","addressesInput":["addr1qxq9at0ewuvuck9v862p2yrsccp5xfhuhtjtha3k2j9n7gxvm9p82s6hw73f0ws7lhftn7p4wk2gdklc2h7pxwutt7mq5w9ktq","addr1qxq9at0ewuvuck9v862p2yrsccp5xfhuhtjtha3k2j9n7gxvm9p82s6hw73f0ws7lhftn7p4wk2gdklc2h7pxwutt7mq5w9ktq"],"addressesOutput":["addr1zxgx3far7qygq0k6epa0zcvcvrevmn0ypsnfsue94nsn3tvpw288a4x0xf8pxgcntelxmyclq83s0ykeehchz2wtspks905plm","addr1q8t75sty3hddyjt48nv0cq29de0ma3y6cpaz2qq06dmym7kvm9p82s6hw73f0ws7lhftn7p4wk2gdklc2h7pxwutt7mq9gplnp"],"fee":217289,"totalOutput":376084394,"tokens":[]},{"hash":"9014d2dc95b252a27c5ecb54e2a19a8e9db825a985dbcfc598702903affea52d","blockNo":8143870,"blockHash":"f0512a4c1f4ffd69c5876ea3ab40913077220a953c0c0e71d7e3949c32b13a31","epochNo":381,"epochSlotNo":334030,"slot":79562830,"time":"2022/12/15 18:32:01","addressesInput":["addr1q9t3lqnugs2gssvy6sguueuz8zjf059qspj78yw79yuxg3gu9jslzsga5ccj3sx2kxvqvn9qevgwlm45gwucwemrr9mqsrgu3x","addr1q9t3lqnugs2gssvy6sguueuz8zjf059qspj78yw79yuxg3gu9jslzsga5ccj3sx2kxvqvn9qevgwlm45gwucwemrr9mqsrgu3x","addr1q9t3lqnugs2gssvy6sguueuz8zjf059qspj78yw79yuxg3gu9jslzsga5ccj3sx2kxvqvn9qevgwlm45gwucwemrr9mqsrgu3x"],"addressesOutput":["addr1qyf7x4vxt6pk0vrlcxlpy6y8jn9sr022fryu3lh4gjc2h6q7zyl865xf28tczc0c7gvu5z9rjs9yv672vjy5yf4z9n4q9jtgj8","addr1q9t3lqnugs2gssvy6sguueuz8zjf059qspj78yw79yuxg3gu9jslzsga5ccj3sx2kxvqvn9qevgwlm45gwucwemrr9mqsrgu3x"],"fee":171485,"totalOutput":2000350464,"tokens":[]},{"hash":"7f1aa397ee8c796c3c75dae2b4933c3309e5e6f2739277544981c8e7ba41f9d0","blockNo":8143870,"blockHash":"f0512a4c1f4ffd69c5876ea3ab40913077220a953c0c0e71d7e3949c32b13a31","epochNo":381,"epochSlotNo":334030,"slot":79562830,"time":"2022/12/15 18:32:01","addressesInput":["addr1q8u4kte7c9da056apnz0sztnsm0h7y2ruxnm7ycc4yk50zzv26mdv6tmpjmwak9xf64qdsjea8mmyrs6mugejnatst0sppglam","addr1zxgx3far7qygq0k6epa0zcvcvrevmn0ypsnfsue94nsn3tvpw288a4x0xf8pxgcntelxmyclq83s0ykeehchz2wtspks905plm","addr1qyf2zy6sssesa32l0rqlrd6pxph3p36zwupd7plxc90f9v2v26mdv6tmpjmwak9xf64qdsjea8mmyrs6mugejnatst0s0x58g0"],"addressesOutput":["addr1qxrqlzx4utag3j4h483hndagvcj6gp9yks0ems9qp9yrs8semf0cka44us98eggchy8u3g3n9x307wtcqd55qxu4sx8qa4rust","addr1q9cwvremt6n320s2e3agq0jyq82yhrk3htsu0w426xnz5us70z4w0jgvcdkkynmm8wmds66jd9kusnjfpu6raw5fqp0sr07p5w","addr1qyqjqmtfze54lx2tks5efs3d8zuy2vdgfyf8mcdfqunnt9w8v5arundk8sf7pwt994qhmkf6e434fu7g6jxy3pmlj82q2hsj8n","addr1qyf2zy6sssesa32l0rqlrd6pxph3p36zwupd7plxc90f9v2v26mdv6tmpjmwak9xf64qdsjea8mmyrs6mugejnatst0s0x58g0","addr1qyf2zy6sssesa32l0rqlrd6pxph3p36zwupd7plxc90f9v2v26mdv6tmpjmwak9xf64qdsjea8mmyrs6mugejnatst0s0x58g0"],"fee":413443,"totalOutput":12704183,"tokens":[]},{"hash":"32c0ac55b5c979e7f9ee95c88e9fb7a513b2763c0ecf4e9a94d6896140c85f5a","blockNo":8143870,"blockHash":"f0512a4c1f4ffd69c5876ea3ab40913077220a953c0c0e71d7e3949c32b13a31","epochNo":381,"epochSlotNo":334030,"slot":79562830,"time":"2022/12/15 18:32:01","addressesInput":["addr1q9uwe2v7t0umgzuettm2rvvd4mat5tk42xcghapy3gyalnj7fdfw2zl6rwd9ehpdgj0pqnju4yccle0fjvs5kgg2qzmqdj2r7q"],"addressesOutput":["addr1qx4mnqtxk5j78q224utksxj3khcq76sztq9gk44j3jwsh85apky3va97r0u56gwhejtt42v7zlpgt6cfzkfdxgtf0dnsnn6rsy","addr1q8s6h0cxyycacvcuxxek76r5qcs8cjefkaup8hd6sns4czj7fdfw2zl6rwd9ehpdgj0pqnju4yccle0fjvs5kgg2qzmqgg7d09"],"fee":200085,"totalOutput":7938296,"tokens":[]},{"hash":"5cfd08ffb420fa6ef31ff400b70ff4c3bf599c383233049f719d8e5606144969","blockNo":8143870,"blockHash":"f0512a4c1f4ffd69c5876ea3ab40913077220a953c0c0e71d7e3949c32b13a31","epochNo":381,"epochSlotNo":334030,"slot":79562830,"time":"2022/12/15 18:32:01","addressesInput":["addr1q8klzcyn385n9tg35kw8dkhst6qhswh6jxakfg5zdcunac45rna5jkmr9uu4my8ntepz4eytzh436v7cpeu8gwxj07xqm55pts","addr1q8klzcyn385n9tg35kw8dkhst6qhswh6jxakfg5zdcunac45rna5jkmr9uu4my8ntepz4eytzh436v7cpeu8gwxj07xqm55pts","addr1q8klzcyn385n9tg35kw8dkhst6qhswh6jxakfg5zdcunac45rna5jkmr9uu4my8ntepz4eytzh436v7cpeu8gwxj07xqm55pts"],"addressesOutput":["addr1q9ad5mud938r7l24eaac4v57ydlj72hazgprts9f7daaz09mm95jvs5h94099yglxr7v6ug6pp43780huy040lm4utmqx8g5eu","addr1wxaptpmxcxawvr3pzlhgnpmzz3ql43n2tc8mn3av5kx0yzs09tqh8","addr1q8klzcyn385n9tg35kw8dkhst6qhswh6jxakfg5zdcunac45rna5jkmr9uu4my8ntepz4eytzh436v7cpeu8gwxj07xqm55pts"],"fee":216318,"totalOutput":129261157,"tokens":[]},{"hash":"b2b14092f269dd34334c5216c57b971a2523beecab74080a4654088c373f30c1","blockNo":8143870,"blockHash":"f0512a4c1f4ffd69c5876ea3ab40913077220a953c0c0e71d7e3949c32b13a31","epochNo":381,"epochSlotNo":334030,"slot":79562830,"time":"2022/12/15 18:32:01","addressesInput":["addr1q8h6ec9vx7aqy9j8xmnrgjquudn77ynw79sruwgncz2tgcd8mkcqkmylmc229rmsdns7lfh7xrzg47fsm2t8a82zjnksrzy8yp","addr1zxgx3far7qygq0k6epa0zcvcvrevmn0ypsnfsue94nsn3tvpw288a4x0xf8pxgcntelxmyclq83s0ykeehchz2wtspks905plm","addr1q8h6ec9vx7aqy9j8xmnrgjquudn77ynw79sruwgncz2tgcd8mkcqkmylmc229rmsdns7lfh7xrzg47fsm2t8a82zjnksrzy8yp","addr1q8h6ec9vx7aqy9j8xmnrgjquudn77ynw79sruwgncz2tgcd8mkcqkmylmc229rmsdns7lfh7xrzg47fsm2t8a82zjnksrzy8yp","addr1q8h6ec9vx7aqy9j8xmnrgjquudn77ynw79sruwgncz2tgcd8mkcqkmylmc229rmsdns7lfh7xrzg47fsm2t8a82zjnksrzy8yp"],"addressesOutput":["addr1q8ww8rwtrnd05uyzeceyw7ycdczn096scydvek3cdsvvjpajhfnl8y9pckv0ut0r80e2fggel93f68e95gjdgpe0jhxsetfm8j","addr1q9cwvremt6n320s2e3agq0jyq82yhrk3htsu0w426xnz5us70z4w0jgvcdkkynmm8wmds66jd9kusnjfpu6raw5fqp0sr07p5w","addr1q9j2cr58e4s687kl08ncegy0a00jypa7zk0fw5nruzukwmggn8ksz4a0xak6ajvaassfu0nkf2l3pmldxt6aqlpvgraqvqlaru","addr1q8h6ec9vx7aqy9j8xmnrgjquudn77ynw79sruwgncz2tgcd8mkcqkmylmc229rmsdns7lfh7xrzg47fsm2t8a82zjnksrzy8yp","addr1q8h6ec9vx7aqy9j8xmnrgjquudn77ynw79sruwgncz2tgcd8mkcqkmylmc229rmsdns7lfh7xrzg47fsm2t8a82zjnksrzy8yp","addr1q8h6ec9vx7aqy9j8xmnrgjquudn77ynw79sruwgncz2tgcd8mkcqkmylmc229rmsdns7lfh7xrzg47fsm2t8a82zjnksrzy8yp","addr1q8h6ec9vx7aqy9j8xmnrgjquudn77ynw79sruwgncz2tgcd8mkcqkmylmc229rmsdns7lfh7xrzg47fsm2t8a82zjnksrzy8yp"],"fee":448250,"totalOutput":595081884,"tokens":[]},{"hash":"b46a93cfb92e1becaa21494b974bdedee0ce55de780a462f536058ddbfb4b51f","blockNo":8143870,"blockHash":"f0512a4c1f4ffd69c5876ea3ab40913077220a953c0c0e71d7e3949c32b13a31","epochNo":381,"epochSlotNo":334030,"slot":79562830,"time":"2022/12/15 18:32:01","addressesInput":["addr1qx5cuns7zmww6jj975jzqrxjnsf654fk8fr84zu2udzc8385m8z66cf990q266t00gsp7qk2ej7kmx0e7dq2eypx99zs7f0j54","addr1qx5cuns7zmww6jj975jzqrxjnsf654fk8fr84zu2udzc8385m8z66cf990q266t00gsp7qk2ej7kmx0e7dq2eypx99zs7f0j54"],"addressesOutput":["addr1q84zm86ex5zrmwz7nlwqfkg6074tfgmnvwuf7meeq2neq78wpcpek6nld4ntmxe4qus8jx8hx9uy0cdwsur6h2lpsgqqtf3r63","addr1qx5cuns7zmww6jj975jzqrxjnsf654fk8fr84zu2udzc8385m8z66cf990q266t00gsp7qk2ej7kmx0e7dq2eypx99zs7f0j54","addr1qx5cuns7zmww6jj975jzqrxjnsf654fk8fr84zu2udzc8385m8z66cf990q266t00gsp7qk2ej7kmx0e7dq2eypx99zs7f0j54"],"fee":176501,"totalOutput":78735634,"tokens":[]},{"hash":"82c78d361571110bb0669b52650bad2d4895a735212ff97ec7fb12da5906c013","blockNo":8143870,"blockHash":"f0512a4c1f4ffd69c5876ea3ab40913077220a953c0c0e71d7e3949c32b13a31","epochNo":381,"epochSlotNo":334030,"slot":79562830,"time":"2022/12/15 18:32:01","addressesInput":["addr1zxgx3far7qygq0k6epa0zcvcvrevmn0ypsnfsue94nsn3tvpw288a4x0xf8pxgcntelxmyclq83s0ykeehchz2wtspks905plm","addr1qy6kymmqdhwpsqh0hgthnnfgk6wptahze7k4n0mnsq45rsw9c8dfrcfhk43nl52622cuayy8229v5rqw44h59yzzjzzsh2k0x7"],"addressesOutput":["addr1vx5j0dl20mpvk6d9r5gt82jngh2c9nfu5hwdaehveemxwxc6l6txl","addr1q9cwvremt6n320s2e3agq0jyq82yhrk3htsu0w426xnz5us70z4w0jgvcdkkynmm8wmds66jd9kusnjfpu6raw5fqp0sr07p5w","addr1qy2mfwjp84tfm3qzp2ker9fsgzjm3dtvxuzh9lv02r58dl99jlzfrah8xmpdpzs8ay8ty03fkwt7n6n0wslv6d048a2q0rsncn","addr1qy6kymmqdhwpsqh0hgthnnfgk6wptahze7k4n0mnsq45rsw9c8dfrcfhk43nl52622cuayy8229v5rqw44h59yzzjzzsh2k0x7","addr1qy6kymmqdhwpsqh0hgthnnfgk6wptahze7k4n0mnsq45rsw9c8dfrcfhk43nl52622cuayy8229v5rqw44h59yzzjzzsh2k0x7"],"fee":389950,"totalOutput":94873266,"tokens":[]},{"hash":"33d58f94610dbe48c48eb909ebb93effae9c9f3f1c3cd72eb445e825deb69ba0","blockNo":8143870,"blockHash":"f0512a4c1f4ffd69c5876ea3ab40913077220a953c0c0e71d7e3949c32b13a31","epochNo":381,"epochSlotNo":334030,"slot":79562830,"time":"2022/12/15 18:32:01","addressesInput":["addr1qyxwqr4g7yeyfmjwutm4x66c0rz9d4mpyqze7ayf6ylkpq9t4lgyrr2y64fvjdtg4sj6cj5xxc9gng2re78np2x0adqsqmz3lk","addr1qyxwqr4g7yeyfmjwutm4x66c0rz9d4mpyqze7ayf6ylkpq9t4lgyrr2y64fvjdtg4sj6cj5xxc9gng2re78np2x0adqsqmz3lk"],"addressesOutput":["addr1zxgx3far7qygq0k6epa0zcvcvrevmn0ypsnfsue94nsn3tvpw288a4x0xf8pxgcntelxmyclq83s0ykeehchz2wtspks905plm","addr1qyxwqr4g7yeyfmjwutm4x66c0rz9d4mpyqze7ayf6ylkpq9t4lgyrr2y64fvjdtg4sj6cj5xxc9gng2re78np2x0adqsqmz3lk","addr1qyxwqr4g7yeyfmjwutm4x66c0rz9d4mpyqze7ayf6ylkpq9t4lgyrr2y64fvjdtg4sj6cj5xxc9gng2re78np2x0adqsqmz3lk"],"fee":242281,"totalOutput":9880835,"tokens":[]},{"hash":"953b6eef9f42ca8c3394bfce87685f8cff3239ae1cc5d6f4cef30c60eb6b139f","blockNo":8143870,"blockHash":"f0512a4c1f4ffd69c5876ea3ab40913077220a953c0c0e71d7e3949c32b13a31","epochNo":381,"epochSlotNo":334030,"slot":79562830,"time":"2022/12/15 18:32:01","addressesInput":["addr1qx5qalpekz9q507jkkuqhd4yetz7dc8yycky5gvp4jpnldvy47rqm7u2xhgjjke8wl8hwpk6qdjc2my76ffdn5atqs4q4lmryp"],"addressesOutput":["addr1qx4l6ju6pt5w9nana9ewmtuu56ymnfcre39n3fj2z0945ffh20qm3ac0t2erl3xu8yfp95608d6ynekfemtsmlw5lk3q70sl0u","addr1qxm6mwnruru2zlj7vett792qfj2w00j2k77f8sw07rntweyy47rqm7u2xhgjjke8wl8hwpk6qdjc2my76ffdn5atqs4qc5n3rl"],"fee":168317,"totalOutput":236399766,"tokens":[]},{"hash":"89686f51d70a75d4fb452b15c66f75bda229e9c6692bccfc26e5ac0caa8f27ab","blockNo":8143869,"blockHash":"7d480d94899ece07035ae1f606b25308164694b906c1f9399eef426d8c378769","epochNo":381,"epochSlotNo":334013,"slot":79562813,"time":"2022/12/15 18:31:44","addressesInput":["addr1q9u0xlht93hzkxkr7az3qtrsn76kfejuc2rg9ywuz4w52d9hm6dpvxaq2hscmdma3txdtkhc6nckng3txledcjq7nwtslaqt0y"],"addressesOutput":["addr1qxthkml0n5ml4zdrju7aaqvw7rq0mkxgc4kmdh2e0yjlm09hm6dpvxaq2hscmdma3txdtkhc6nckng3txledcjq7nwts7zrwx7","addr1q8ww8rwtrnd05uyzeceyw7ycdczn096scydvek3cdsvvjpajhfnl8y9pckv0ut0r80e2fggel93f68e95gjdgpe0jhxsetfm8j","addr1qxu92j2c2stjszjyesusf62seru9vx97ch440vq9s6x5y8pg79la6tvt3a2e44s73x0rr6hfpw0zp897mv0w32xxclgs5re5nk","addr1qxthkml0n5ml4zdrju7aaqvw7rq0mkxgc4kmdh2e0yjlm09hm6dpvxaq2hscmdma3txdtkhc6nckng3txledcjq7nwts7zrwx7"],"fee":239117,"totalOutput":3410887354,"tokens":[]},{"hash":"ae23969521d851be7633ff1e080694eb64de142987f7713bddf6d24ba52c0481","blockNo":8143869,"blockHash":"7d480d94899ece07035ae1f606b25308164694b906c1f9399eef426d8c378769","epochNo":381,"epochSlotNo":334013,"slot":79562813,"time":"2022/12/15 18:31:44","addressesInput":["addr1q89vml54teje2ev5w3r79ufqzjwxu4r2hd5lsnw9ht5dyknty6ehv6tazk8t76hzkhr6c9madhusmtdvmmw60auxr2psq7mwzu","addr1q89vml54teje2ev5w3r79ufqzjwxu4r2hd5lsnw9ht5dyknty6ehv6tazk8t76hzkhr6c9madhusmtdvmmw60auxr2psq7mwzu"],"addressesOutput":["addr1qxvs4ynq0mf73kuwnqhdplauw5d90lqrxfdgaxa4qmxs3prty6ehv6tazk8t76hzkhr6c9madhusmtdvmmw60auxr2psezappw","addr1q8ww8rwtrnd05uyzeceyw7ycdczn096scydvek3cdsvvjpajhfnl8y9pckv0ut0r80e2fggel93f68e95gjdgpe0jhxsetfm8j","addr1qxu92j2c2stjszjyesusf62seru9vx97ch440vq9s6x5y8pg79la6tvt3a2e44s73x0rr6hfpw0zp897mv0w32xxclgs5re5nk","addr1qy36aw00p30gqcl268c97t2me97u4pxzvrsds60us5ann7nz0gmdc9fvz9r9dhpy8dz2je5qke38xncagekf6luhqcyqa9yc9c","addr1qxvs4ynq0mf73kuwnqhdplauw5d90lqrxfdgaxa4qmxs3prty6ehv6tazk8t76hzkhr6c9madhusmtdvmmw60auxr2psezappw"],"fee":243561,"totalOutput":285302895,"tokens":[]}],"totalItems":56804477,"totalPages":2840224,"currentPage":0}