{"data":[{"blockNo":6859404,"slotNo":52810825,"epochNo":319,"epochSlotNo":366025,"hash":"a78695d81c7db11e743e34c82ca72085a58e41a5f62266b33e255d42d49a93f6","time":"2022/02/09 03:25:16","txCount":8,"totalFees":7505775,"totalOutput":9295180742008,"slotLeader":"4ae0fed71f173ce25da0754f80a1567320b1640d6add28d4264b8b24"},{"blockNo":6859403,"slotNo":52810823,"epochNo":319,"epochSlotNo":366023,"hash":"afa650468b9241acb31728b9defb9c62705b6e6e6d04c5f27b3174aa18138757","time":"2022/02/09 03:25:14","txCount":32,"totalFees":12341336,"totalOutput":60973387724,"slotLeader":"db827cb962df26faab4c289f72f36aeee0e42453f1c78b27ea4e22ba"},{"blockNo":6859402,"slotNo":52810793,"epochNo":319,"epochSlotNo":365993,"hash":"3a0c8ccad3c92b16d850f9b4e72b198177bbe50b8526f96488d56370d107cee3","time":"2022/02/09 03:24:44","txCount":18,"totalFees":9336548,"totalOutput":24086335500,"slotLeader":"971212db48d9390662faa0fa725950f3b9ac1a898227f5fcf1096399"},{"blockNo":6859401,"slotNo":52810770,"epochNo":319,"epochSlotNo":365970,"hash":"733cabd0e736429517cb404baca71b46262d64b7adb0d5e0a84153daff8de5d4","time":"2022/02/09 03:24:21","txCount":46,"totalFees":15724726,"totalOutput":403189088601,"slotLeader":"cdae4a1a08974113e77ea332cb1da97d9e3fca5cf797f9394739214b"},{"blockNo":6859400,"slotNo":52810712,"epochNo":319,"epochSlotNo":365912,"hash":"39059a1c4364b2831b177c25cba055eb84436981e7f62df6f28dfd38a9e241de","time":"2022/02/09 03:23:23","txCount":35,"totalFees":12135141,"totalOutput":115238188088,"slotLeader":"f6541f3ca941d96d3c243eae01fea874d6be403b2dd2c6575245de6e"},{"blockNo":6859399,"slotNo":52810705,"epochNo":319,"epochSlotNo":365905,"hash":"15f8f6558aeb94691affb06d706f0cd45d917e96c05faf28ab989c576c9a4923","time":"2022/02/09 03:23:16","txCount":22,"totalFees":10288929,"totalOutput":35087667120,"slotLeader":"636fab1b0059766eb08c3bd089e71a949db856bb845e3bff31fad5ad"},{"blockNo":6859398,"slotNo":52810702,"epochNo":319,"epochSlotNo":365902,"hash":"c1cec43ef93b44ea114475da0e7938efb8cf310dd2ee7ed931b8d1fcf274d410","time":"2022/02/09 03:23:13","txCount":47,"totalFees":13567264,"totalOutput":14831648344844,"slotLeader":"32c6e03b9a94ce5d40527408634b02feaf82c015fde9d368e9f35714"},{"blockNo":6859397,"slotNo":52810636,"epochNo":319,"epochSlotNo":365836,"hash":"4d209ab587aaed6f8fd8ad169e74593b6627c47a6d51abf13a3769da20cbc7f9","time":"2022/02/09 03:22:07","txCount":23,"totalFees":11298681,"totalOutput":81624641639,"slotLeader":"971212db48d9390662faa0fa725950f3b9ac1a898227f5fcf1096399"},{"blockNo":6859396,"slotNo":52810588,"epochNo":319,"epochSlotNo":365788,"hash":"a137fbf72d41f97e255d677803cf561cd60e9ed871377b01c4d8f982008a7767","time":"2022/02/09 03:21:19","txCount":50,"totalFees":15219168,"totalOutput":250185463459,"slotLeader":"38ee2f8d878f7c444bd80d38c3b4cff02d3a3477c9e77d262065d9ad"},{"blockNo":6859395,"slotNo":52810559,"epochNo":319,"epochSlotNo":365759,"hash":"94513d8331a3027c355855cf751d42a01a1d45ba95ec34f8d1c942afb50f9652","time":"2022/02/09 03:20:50","txCount":43,"totalFees":12889030,"totalOutput":79339836032,"slotLeader":"ea595c6f726db925b6832af51795fd8a46e700874c735d204f7c5841"}],"totalItems":17306,"totalPages":1731,"currentPage":0}