{"data":[{"hash":"77213d40b07d5cc659ec87d837b313f53f5a20c6be219d68e0f18d7f228ed72f","blockNo":8402721,"blockHash":"225388d0abc5803677e6b9476a23c509a76a99128e3ae5f20bdd3a3580cf49e0","epochNo":394,"epochSlotNo":53704,"slot":84898504,"time":"2023/02/15 12:39:55","addressesInput":["addr1q8l9ymlu498hqm57n9tlpsyhpppk7wtr9wwstk5n58mxgdxc0hsxks8vwjfm69ktuk7z46sm7nvty8xth84dnfch6rqsfgprgs"],"addressesOutput":["addr1qywqyad2vyz9uxnk4nalrmhphwwt697upfwc9lq736ntznwc0hsxks8vwjfm69ktuk7z46sm7nvty8xth84dnfch6rqslwsgzg"],"fee":171749,"totalOutput":141043006756,"tokens":[]},{"hash":"7c805f40498e7f0b962a93c8fe415f4c4764b6e8d4cc0e425b154c841481e9b4","blockNo":8402721,"blockHash":"225388d0abc5803677e6b9476a23c509a76a99128e3ae5f20bdd3a3580cf49e0","epochNo":394,"epochSlotNo":53704,"slot":84898504,"time":"2023/02/15 12:39:55","addressesInput":["addr1qyxxkxlves384thavulzhxha0wpa4tzakx8cfze7er8jh4dk67pyxsrqcw8f8xkc9m0ww7dk3jcrv7fgfr4q4es3a5cqerskf7"],"addressesOutput":["addr1w89afss4mev45twnmswedfkj23ldvsf0vezsw3n46wwgckczx7evv","addr1q9yzam24qwm8zqn0s7d8r8w65dxh3dncv05x0v9ewfcygpak67pyxsrqcw8f8xkc9m0ww7dk3jcrv7fgfr4q4es3a5cql7kmtt"],"fee":174213,"totalOutput":189705163,"tokens":[]},{"hash":"b3864e41660864b930071b1e2522df346636298e1fff3dd40cf02075cbfb5ceb","blockNo":8402721,"blockHash":"225388d0abc5803677e6b9476a23c509a76a99128e3ae5f20bdd3a3580cf49e0","epochNo":394,"epochSlotNo":53704,"slot":84898504,"time":"2023/02/15 12:39:55","addressesInput":["addr1zxgx3far7qygq0k6epa0zcvcvrevmn0ypsnfsue94nsn3tvpw288a4x0xf8pxgcntelxmyclq83s0ykeehchz2wtspks905plm","addr1qyn5ps5wweff6k4ha4wldxxnymru38ps96c4qllmt8g6frwrnutqxrl35nac9maf9we03688u8q5zy6n07zgnrajc2aq42fk6d","addr1qyn5ps5wweff6k4ha4wldxxnymru38ps96c4qllmt8g6frwrnutqxrl35nac9maf9we03688u8q5zy6n07zgnrajc2aq42fk6d"],"addressesOutput":["addr1qyn5ps5wweff6k4ha4wldxxnymru38ps96c4qllmt8g6frwrnutqxrl35nac9maf9we03688u8q5zy6n07zgnrajc2aq42fk6d","addr1qyn5ps5wweff6k4ha4wldxxnymru38ps96c4qllmt8g6frwrnutqxrl35nac9maf9we03688u8q5zy6n07zgnrajc2aq42fk6d"],"fee":260548,"totalOutput":163904038,"tokens":[]},{"hash":"8174c20469897b816f1ceeb0dea04564c59a2a399b35c6882dfd8a3d14eb1301","blockNo":8402721,"blockHash":"225388d0abc5803677e6b9476a23c509a76a99128e3ae5f20bdd3a3580cf49e0","epochNo":394,"epochSlotNo":53704,"slot":84898504,"time":"2023/02/15 12:39:55","addressesInput":["addr1q957g3zxvp79pdsm6h9dgsd7u6ldclxnsl3udhs8ytgnhaarc8ez92nzgv4q7vk5dqh5ehhthglwgmrnkgq8pyu7vfvslupklp","addr1q957g3zxvp79pdsm6h9dgsd7u6ldclxnsl3udhs8ytgnhaarc8ez92nzgv4q7vk5dqh5ehhthglwgmrnkgq8pyu7vfvslupklp","addr1q957g3zxvp79pdsm6h9dgsd7u6ldclxnsl3udhs8ytgnhaarc8ez92nzgv4q7vk5dqh5ehhthglwgmrnkgq8pyu7vfvslupklp","addr1q957g3zxvp79pdsm6h9dgsd7u6ldclxnsl3udhs8ytgnhaarc8ez92nzgv4q7vk5dqh5ehhthglwgmrnkgq8pyu7vfvslupklp","addr1q957g3zxvp79pdsm6h9dgsd7u6ldclxnsl3udhs8ytgnhaarc8ez92nzgv4q7vk5dqh5ehhthglwgmrnkgq8pyu7vfvslupklp","addr1q957g3zxvp79pdsm6h9dgsd7u6ldclxnsl3udhs8ytgnhaarc8ez92nzgv4q7vk5dqh5ehhthglwgmrnkgq8pyu7vfvslupklp","addr1q957g3zxvp79pdsm6h9dgsd7u6ldclxnsl3udhs8ytgnhaarc8ez92nzgv4q7vk5dqh5ehhthglwgmrnkgq8pyu7vfvslupklp","addr1q957g3zxvp79pdsm6h9dgsd7u6ldclxnsl3udhs8ytgnhaarc8ez92nzgv4q7vk5dqh5ehhthglwgmrnkgq8pyu7vfvslupklp","addr1q957g3zxvp79pdsm6h9dgsd7u6ldclxnsl3udhs8ytgnhaarc8ez92nzgv4q7vk5dqh5ehhthglwgmrnkgq8pyu7vfvslupklp","addr1q957g3zxvp79pdsm6h9dgsd7u6ldclxnsl3udhs8ytgnhaarc8ez92nzgv4q7vk5dqh5ehhthglwgmrnkgq8pyu7vfvslupklp","addr1q957g3zxvp79pdsm6h9dgsd7u6ldclxnsl3udhs8ytgnhaarc8ez92nzgv4q7vk5dqh5ehhthglwgmrnkgq8pyu7vfvslupklp","addr1q957g3zxvp79pdsm6h9dgsd7u6ldclxnsl3udhs8ytgnhaarc8ez92nzgv4q7vk5dqh5ehhthglwgmrnkgq8pyu7vfvslupklp"],"addressesOutput":["addr1q8jqqp0g0llpth7z9udrle3q2kx4r0l5979lmua2m6e7qlzck0a7d6hz0xynp5tcdag9m2jm9h6w0e37jfnzzz8z4m8snhms7k","addr1q957g3zxvp79pdsm6h9dgsd7u6ldclxnsl3udhs8ytgnhaarc8ez92nzgv4q7vk5dqh5ehhthglwgmrnkgq8pyu7vfvslupklp","addr1q957g3zxvp79pdsm6h9dgsd7u6ldclxnsl3udhs8ytgnhaarc8ez92nzgv4q7vk5dqh5ehhthglwgmrnkgq8pyu7vfvslupklp","addr1q957g3zxvp79pdsm6h9dgsd7u6ldclxnsl3udhs8ytgnhaarc8ez92nzgv4q7vk5dqh5ehhthglwgmrnkgq8pyu7vfvslupklp","addr1q957g3zxvp79pdsm6h9dgsd7u6ldclxnsl3udhs8ytgnhaarc8ez92nzgv4q7vk5dqh5ehhthglwgmrnkgq8pyu7vfvslupklp","addr1q957g3zxvp79pdsm6h9dgsd7u6ldclxnsl3udhs8ytgnhaarc8ez92nzgv4q7vk5dqh5ehhthglwgmrnkgq8pyu7vfvslupklp"],"fee":402045,"totalOutput":47874512,"tokens":[]},{"hash":"18077b4eefe1a221317da4d58b122b21aeb3cfe58ba47e51b989d3cba82713be","blockNo":8402721,"blockHash":"225388d0abc5803677e6b9476a23c509a76a99128e3ae5f20bdd3a3580cf49e0","epochNo":394,"epochSlotNo":53704,"slot":84898504,"time":"2023/02/15 12:39:55","addressesInput":["addr1qyc8lkqxn0t8cddpz8zqyfnjhxxjj8s0q4jq3p0ehe6e7srl37cprngz79yfj99sqanmnc42v5a2a6tw9u7t0f3cupfs6hutyx","addr1qyc8lkqxn0t8cddpz8zqyfnjhxxjj8s0q4jq3p0ehe6e7srl37cprngz79yfj99sqanmnc42v5a2a6tw9u7t0f3cupfs6hutyx"],"addressesOutput":["addr1wxn9efv2f6w82hagxqtn62ju4m293tqvw0uhmdl64ch8uwc0h43gt","addr1qyc8lkqxn0t8cddpz8zqyfnjhxxjj8s0q4jq3p0ehe6e7srl37cprngz79yfj99sqanmnc42v5a2a6tw9u7t0f3cupfs6hutyx"],"fee":326057,"totalOutput":20103316,"tokens":[]},{"hash":"48496f392b4327213fdabaceb442fe4b27e4fbf244221ce789470f6614d2d9df","blockNo":8402721,"blockHash":"225388d0abc5803677e6b9476a23c509a76a99128e3ae5f20bdd3a3580cf49e0","epochNo":394,"epochSlotNo":53704,"slot":84898504,"time":"2023/02/15 12:39:55","addressesInput":["addr1qxdh8r34cjk3daudwx8wntkndfteyfgdkluup3jesrnt3sqdzan0at9ucy3hpc4qslw8nljy77wrdr4sschn9pspeszqvfww7a","addr1qxdh8r34cjk3daudwx8wntkndfteyfgdkluup3jesrnt3sqdzan0at9ucy3hpc4qslw8nljy77wrdr4sschn9pspeszqvfww7a"],"addressesOutput":["addr1qy79eg0hx96nx98mtxrwdemeutu9aw2vvjlv0s9jkmtl3jk6s0qr3rpd6asg9nkkvywj79dfn66vjkprgpsm2na8fw8scvj5an","addr1qy3388eamxdgpv8pn2n0d4n56uklp783pkjee7h3dlhsp4qdzan0at9ucy3hpc4qslw8nljy77wrdr4sschn9pspeszqlaakkf"],"fee":169901,"totalOutput":212741066,"tokens":[]},{"hash":"b23770b553fef45f6f3e88262995011607b84b07c229f20873c0eb3ddbc6f12a","blockNo":8402721,"blockHash":"225388d0abc5803677e6b9476a23c509a76a99128e3ae5f20bdd3a3580cf49e0","epochNo":394,"epochSlotNo":53704,"slot":84898504,"time":"2023/02/15 12:39:55","addressesInput":["addr1q9kmdsy6drzksy55cjpd08du8l2kctn08ce6lcs0zh4k54z6j04cq2t82l35vx9pv666ed38k9v6pz28x9hgge4vgsgqxef5f2","addr1q9kmdsy6drzksy55cjpd08du8l2kctn08ce6lcs0zh4k54z6j04cq2t82l35vx9pv666ed38k9v6pz28x9hgge4vgsgqxef5f2"],"addressesOutput":["addr1wxn9efv2f6w82hagxqtn62ju4m293tqvw0uhmdl64ch8uwc0h43gt","addr1q9kmdsy6drzksy55cjpd08du8l2kctn08ce6lcs0zh4k54z6j04cq2t82l35vx9pv666ed38k9v6pz28x9hgge4vgsgqxef5f2"],"fee":187061,"totalOutput":625721740,"tokens":[]},{"hash":"d4caa16d7e1ed0ab035522141dc2adfd99bc1a3771febb8e3c468b68149b52b6","blockNo":8402721,"blockHash":"225388d0abc5803677e6b9476a23c509a76a99128e3ae5f20bdd3a3580cf49e0","epochNo":394,"epochSlotNo":53704,"slot":84898504,"time":"2023/02/15 12:39:55","addressesInput":["addr1qyht4ja0zcn45qvyx477qlyp6j5ftu5ng0prt9608dxp6l2j2c79gy9l76sdg0xwhd7r0c0kna0tycz4y5s6mlenh8pq4jxtdy","addr1wxn9efv2f6w82hagxqtn62ju4m293tqvw0uhmdl64ch8uwc0h43gt","addr1qyht4ja0zcn45qvyx477qlyp6j5ftu5ng0prt9608dxp6l2j2c79gy9l76sdg0xwhd7r0c0kna0tycz4y5s6mlenh8pq4jxtdy","addr1z8snz7c4974vzdpxu65ruphl3zjdvtxw8strf2c2tmqnxz2j2c79gy9l76sdg0xwhd7r0c0kna0tycz4y5s6mlenh8pq0xmsha"],"addressesOutput":["addr1qyht4ja0zcn45qvyx477qlyp6j5ftu5ng0prt9608dxp6l2j2c79gy9l76sdg0xwhd7r0c0kna0tycz4y5s6mlenh8pq4jxtdy","addr1qyht4ja0zcn45qvyx477qlyp6j5ftu5ng0prt9608dxp6l2j2c79gy9l76sdg0xwhd7r0c0kna0tycz4y5s6mlenh8pq4jxtdy","addr1qxxsgc62mwdg4xfkpl7ctt40eq6qz6u2d54p0tf3nxsem62cvgt2e5lkjd7nalczq4dr3nyfccn3wwf9dac39lj7m44qk2jh8v","addr1z8snz7c4974vzdpxu65ruphl3zjdvtxw8strf2c2tmqnxz2j2c79gy9l76sdg0xwhd7r0c0kna0tycz4y5s6mlenh8pq0xmsha"],"fee":834018,"totalOutput":916992923505,"tokens":[]},{"hash":"5bdac161472422a93de4d26e89b7eff4d7052620bab1674efdddaccbdbc1ed4d","blockNo":8402721,"blockHash":"225388d0abc5803677e6b9476a23c509a76a99128e3ae5f20bdd3a3580cf49e0","epochNo":394,"epochSlotNo":53704,"slot":84898504,"time":"2023/02/15 12:39:55","addressesInput":["addr1qyht4ja0zcn45qvyx477qlyp6j5ftu5ng0prt9608dxp6l2j2c79gy9l76sdg0xwhd7r0c0kna0tycz4y5s6mlenh8pq4jxtdy","addr1wxn9efv2f6w82hagxqtn62ju4m293tqvw0uhmdl64ch8uwc0h43gt","addr1z8snz7c4974vzdpxu65ruphl3zjdvtxw8strf2c2tmqnxz2j2c79gy9l76sdg0xwhd7r0c0kna0tycz4y5s6mlenh8pq0xmsha","addr1qyht4ja0zcn45qvyx477qlyp6j5ftu5ng0prt9608dxp6l2j2c79gy9l76sdg0xwhd7r0c0kna0tycz4y5s6mlenh8pq4jxtdy"],"addressesOutput":["addr1qyht4ja0zcn45qvyx477qlyp6j5ftu5ng0prt9608dxp6l2j2c79gy9l76sdg0xwhd7r0c0kna0tycz4y5s6mlenh8pq4jxtdy","addr1qyht4ja0zcn45qvyx477qlyp6j5ftu5ng0prt9608dxp6l2j2c79gy9l76sdg0xwhd7r0c0kna0tycz4y5s6mlenh8pq4jxtdy","addr1qytjlehtrkm7vu5c9m55a3fan4u4zduprdz3zxtqv0wslm3wlkt06e9753twampp85g2x3sq7n85j5sruakt3hr4r7mqhrz6gj","addr1z8snz7c4974vzdpxu65ruphl3zjdvtxw8strf2c2tmqnxz2j2c79gy9l76sdg0xwhd7r0c0kna0tycz4y5s6mlenh8pq0xmsha"],"fee":829655,"totalOutput":44575575367,"tokens":[]},{"hash":"fbb35aa642cc4e393a07616dae9f1b62cb5da6a00eaaab0062a218cacf5fd341","blockNo":8402720,"blockHash":"12561d62f5fc7fc7f9337cc6702629d1390c1482cc0285cad580c08490ae528f","epochNo":394,"epochSlotNo":53692,"slot":84898492,"time":"2023/02/15 12:39:43","addressesInput":["addr1qys8krcuxcgrypzfmtdsvk7xfyd6tranqtrl55t0fd79z6ly82r9ts7mk4gv443lz8d7ddaxs8q5slfpdw5lv6n6fnas0yd0yv","addr1qys8krcuxcgrypzfmtdsvk7xfyd6tranqtrl55t0fd79z6ly82r9ts7mk4gv443lz8d7ddaxs8q5slfpdw5lv6n6fnas0yd0yv"],"addressesOutput":["addr1qynl568xc80xkpnlhfdedvn3hwnde75cl5kxyp963vfxvdz5r2sv56rkgdz3zzkkcm2ulmm08hfpsqjvqussa4uylm3qek0enz"],"fee":200694,"totalOutput":7200000,"tokens":[]},{"hash":"afa6d7967178a32adc03e3f5af8e560e876cd3055c088e085e16549d7876f502","blockNo":8402720,"blockHash":"12561d62f5fc7fc7f9337cc6702629d1390c1482cc0285cad580c08490ae528f","epochNo":394,"epochSlotNo":53692,"slot":84898492,"time":"2023/02/15 12:39:43","addressesInput":["addr1qx2tdz99hj8tj4grcz30nyavgyc2q66gp0ht23jeh40m8zr4nqnuwmygf2vvvmzwrpfkllmvg0wghszf0u9tqj633t5qu0mp6j","addr1qx2tdz99hj8tj4grcz30nyavgyc2q66gp0ht23jeh40m8zr4nqnuwmygf2vvvmzwrpfkllmvg0wghszf0u9tqj633t5qu0mp6j","addr1qx2tdz99hj8tj4grcz30nyavgyc2q66gp0ht23jeh40m8zr4nqnuwmygf2vvvmzwrpfkllmvg0wghszf0u9tqj633t5qu0mp6j"],"addressesOutput":["addr1qx2tdz99hj8tj4grcz30nyavgyc2q66gp0ht23jeh40m8zr4nqnuwmygf2vvvmzwrpfkllmvg0wghszf0u9tqj633t5qu0mp6j","addr1qx2tdz99hj8tj4grcz30nyavgyc2q66gp0ht23jeh40m8zr4nqnuwmygf2vvvmzwrpfkllmvg0wghszf0u9tqj633t5qu0mp6j"],"fee":171485,"totalOutput":12468060,"tokens":[]},{"hash":"1106a9e606a0da291c38f50596cc3029f2eafe6a06de776aee55f6ee188bc897","blockNo":8402720,"blockHash":"12561d62f5fc7fc7f9337cc6702629d1390c1482cc0285cad580c08490ae528f","epochNo":394,"epochSlotNo":53692,"slot":84898492,"time":"2023/02/15 12:39:43","addressesInput":["addr1qx9gaqjknr45aavs26yh9p6m0stwttvdktdlym0juu0ml92g2mkdxjgu2793u7wmv3muvtjd4q0vlsvreayp3usljjaq9v4hmj"],"addressesOutput":["addr1v9ghw96j2g9g4hd303s7pudx5unjxzyyx2rqklyt8xuql4gzy7elg","addr1qyz8t2wutz55z7r78y7csymwzlf55x9w3jkczpqzges4mkzg2mkdxjgu2793u7wmv3muvtjd4q0vlsvreayp3usljjaqs4xefz"],"fee":362489,"totalOutput":34401349,"tokens":[]},{"hash":"25c949d467b578ab1d36f664fc88a197554a4c605e79bc176526637d20aa546d","blockNo":8402720,"blockHash":"12561d62f5fc7fc7f9337cc6702629d1390c1482cc0285cad580c08490ae528f","epochNo":394,"epochSlotNo":53692,"slot":84898492,"time":"2023/02/15 12:39:43","addressesInput":["addr1q8emfuayp2wjwnekhuupmzzsup9peyv56n66ec9lqv5crl47nkatmnsa2fzchfftev59mtepuusde3hx8twnu4m35j6s6lw5kq","addr1zxgx3far7qygq0k6epa0zcvcvrevmn0ypsnfsue94nsn3tvpw288a4x0xf8pxgcntelxmyclq83s0ykeehchz2wtspks905plm"],"addressesOutput":["addr1zxgx3far7qygq0k6epa0zcvcvrevmn0ypsnfsue94nsn3tvpw288a4x0xf8pxgcntelxmyclq83s0ykeehchz2wtspks905plm","addr1q8emfuayp2wjwnekhuupmzzsup9peyv56n66ec9lqv5crl47nkatmnsa2fzchfftev59mtepuusde3hx8twnu4m35j6s6lw5kq"],"fee":317032,"totalOutput":23012858,"tokens":[]},{"hash":"bf399808247fd68d97c80445e9bd215de924e863c4ec217bd379d8630d973b21","blockNo":8402720,"blockHash":"12561d62f5fc7fc7f9337cc6702629d1390c1482cc0285cad580c08490ae528f","epochNo":394,"epochSlotNo":53692,"slot":84898492,"time":"2023/02/15 12:39:43","addressesInput":["addr1q9pzt6emcmpwlnrg8xn8p4fyqsur9cmh33tytypg4srlfgd73xyjdrvr92r2jtl0kz7t5kmdz38zytdurupukvdljmws0ns9w4","addr1q9pzt6emcmpwlnrg8xn8p4fyqsur9cmh33tytypg4srlfgd73xyjdrvr92r2jtl0kz7t5kmdz38zytdurupukvdljmws0ns9w4"],"addressesOutput":["addr1vxlqwhu3y7wwltn92j27j2zxw4hv38dahrzyhujv07rkrhgx60mst","addr1q9w6akg3nplf2cme6rulr04cp7lgq7m6yk48vhnjqg23zmd73xyjdrvr92r2jtl0kz7t5kmdz38zytdurupukvdljmws7fuprs"],"fee":191901,"totalOutput":9430069,"tokens":[]},{"hash":"7b0e5746b1fb30445595b2dc12a73aed02a34a4b91b02ce1de3bf14aa28feee1","blockNo":8402720,"blockHash":"12561d62f5fc7fc7f9337cc6702629d1390c1482cc0285cad580c08490ae528f","epochNo":394,"epochSlotNo":53692,"slot":84898492,"time":"2023/02/15 12:39:43","addressesInput":["addr1q8d4adrtapykudud8zdf2c5wle40vkm092avk9n6mth9erkmt66xh6zfdcmc6wy6j43galn27edk7246evt84khwtj8qrmkr6x","addr1q8d4adrtapykudud8zdf2c5wle40vkm092avk9n6mth9erkmt66xh6zfdcmc6wy6j43galn27edk7246evt84khwtj8qrmkr6x"],"addressesOutput":["addr1q8d4adrtapykudud8zdf2c5wle40vkm092avk9n6mth9erkmt66xh6zfdcmc6wy6j43galn27edk7246evt84khwtj8qrmkr6x","addr1q8d4adrtapykudud8zdf2c5wle40vkm092avk9n6mth9erkmt66xh6zfdcmc6wy6j43galn27edk7246evt84khwtj8qrmkr6x"],"fee":233854,"totalOutput":3279956739,"tokens":[]},{"hash":"26025ecba23775f67fabf3956be19c10b613d8ab36b1bd524e95accb1b924dc9","blockNo":8402720,"blockHash":"12561d62f5fc7fc7f9337cc6702629d1390c1482cc0285cad580c08490ae528f","epochNo":394,"epochSlotNo":53692,"slot":84898492,"time":"2023/02/15 12:39:43","addressesInput":["addr1q866zdqpanqke073j76qn3wjawgv0r2f7fmnep36xhny57yhs4v7lxvtemv7888utldgrn5df6hpnace5shgj57s6y0qwcupe6"],"addressesOutput":["addr1q866zdqpanqke073j76qn3wjawgv0r2f7fmnep36xhny57yhs4v7lxvtemv7888utldgrn5df6hpnace5shgj57s6y0qwcupe6","addr1q866zdqpanqke073j76qn3wjawgv0r2f7fmnep36xhny57yhs4v7lxvtemv7888utldgrn5df6hpnace5shgj57s6y0qwcupe6","addr1q866zdqpanqke073j76qn3wjawgv0r2f7fmnep36xhny57yhs4v7lxvtemv7888utldgrn5df6hpnace5shgj57s6y0qwcupe6"],"fee":196081,"totalOutput":38378920,"tokens":[]},{"hash":"a0b29f70e94103d3903b70340159464df42859614553adf623fcb74969090c10","blockNo":8402720,"blockHash":"12561d62f5fc7fc7f9337cc6702629d1390c1482cc0285cad580c08490ae528f","epochNo":394,"epochSlotNo":53692,"slot":84898492,"time":"2023/02/15 12:39:43","addressesInput":["addr1q9anjhts3z8kujnladur7phs7v0ks7r9yhdnh7ungzzstsvk373y6kzm5r9gjk9gq9grm5kggl0h4n86d42lgtmrvypswzd4sc","addr1wxc45xspppp73takl93mq029905ptdfnmtgv6g7cr8pdyqgvks3s8"],"addressesOutput":["addr1qxkmr0m22xeqludcg5rjdmecjxasu9fat0680qehtcsnftaadgykewa9ufvegeuca9yyq03d9v7ea2y2zthgu7hfgjtsddp6gr","addr1q9anjhts3z8kujnladur7phs7v0ks7r9yhdnh7ungzzstsvk373y6kzm5r9gjk9gq9grm5kggl0h4n86d42lgtmrvypswzd4sc","addr1q9anjhts3z8kujnladur7phs7v0ks7r9yhdnh7ungzzstsvk373y6kzm5r9gjk9gq9grm5kggl0h4n86d42lgtmrvypswzd4sc"],"fee":286699,"totalOutput":208882778,"tokens":[]},{"hash":"b11d1504eaf3259e01df05de2fb6d01f2947052358960e43252b3df1da058ae1","blockNo":8402720,"blockHash":"12561d62f5fc7fc7f9337cc6702629d1390c1482cc0285cad580c08490ae528f","epochNo":394,"epochSlotNo":53692,"slot":84898492,"time":"2023/02/15 12:39:43","addressesInput":["addr1q9mcn7ncmlm9nx5rr9nmma2zk00w473cvnqxluz5rfsvcpndtk9mkmxpl0agx92t8clkju6nru6guwnt8vj7u3gvfw4qstz5t7"],"addressesOutput":["addr1q9mcn7ncmlm9nx5rr9nmma2zk00w473cvnqxluz5rfsvcpndtk9mkmxpl0agx92t8clkju6nru6guwnt8vj7u3gvfw4qstz5t7"],"fee":397100,"totalOutput":125803997,"tokens":[]},{"hash":"22274dda9f4244942bcceac5c2e4c32608c3ad5a15f6a0fe131bf792c1acf03f","blockNo":8402720,"blockHash":"12561d62f5fc7fc7f9337cc6702629d1390c1482cc0285cad580c08490ae528f","epochNo":394,"epochSlotNo":53692,"slot":84898492,"time":"2023/02/15 12:39:43","addressesInput":["addr1qyagnr203a48fca333zcy570y94v6e9xtk3tsdsgnrzxegdmcxn4alqa7dv50ehcsg7zgh3d3n6djl5zfpafjzncje6suyfzq3"],"addressesOutput":["addr1qyagnr203a48fca333zcy570y94v6e9xtk3tsdsgnrzxegdmcxn4alqa7dv50ehcsg7zgh3d3n6djl5zfpafjzncje6suyfzq3"],"fee":175157,"totalOutput":1460386347,"tokens":[]},{"hash":"334102d43617ca362a70d6bb6b95792c59a1f32cb333ad6324b09439b6def851","blockNo":8402720,"blockHash":"12561d62f5fc7fc7f9337cc6702629d1390c1482cc0285cad580c08490ae528f","epochNo":394,"epochSlotNo":53692,"slot":84898492,"time":"2023/02/15 12:39:43","addressesInput":["addr1q9rfv9nlwjz93dljvkqsxmt6maa2ckdxhaj27psh7rn9707klgsgqh2wsw99fguykv4fr37dnykymvtt44wknz26avusshtj85","addr1q9rfv9nlwjz93dljvkqsxmt6maa2ckdxhaj27psh7rn9707klgsgqh2wsw99fguykv4fr37dnykymvtt44wknz26avusshtj85","addr1q9rfv9nlwjz93dljvkqsxmt6maa2ckdxhaj27psh7rn9707klgsgqh2wsw99fguykv4fr37dnykymvtt44wknz26avusshtj85"],"addressesOutput":["addr1q9kdzqhwvwncze9aw3jtgqxf83z98qvph7mcdkkvwd8q3zgp37jnun0n5p2x59cn9dz66ut6nue23jah6h6xzj76yflsj65ac8","addr1q9rfv9nlwjz93dljvkqsxmt6maa2ckdxhaj27psh7rn9707klgsgqh2wsw99fguykv4fr37dnykymvtt44wknz26avusshtj85","addr1q9rfv9nlwjz93dljvkqsxmt6maa2ckdxhaj27psh7rn9707klgsgqh2wsw99fguykv4fr37dnykymvtt44wknz26avusshtj85"],"fee":176017,"totalOutput":224475990,"tokens":[]}],"totalItems":61340465,"totalPages":3067024,"currentPage":0}