{"data":[{"txId":52128152,"txHash":"140db38aa965d001989b3837b50c1861d209a19f28d47761fffce29a4165fda2","txTime":"2022/10/11 15:31:06","block":7870522,"epoch":368,"slotNo":73935975,"epochSlotNo":323175,"stakeKey":"stake1uxq4yd967p6rgaj8flcet7zjv49hpqcr420jqtwmshk5f8cjuzhgz"},{"txId":52127827,"txHash":"73f6eddb40563b74bdc7d7ab1e68db35b750456d43d804b545fc5a646db03901","txTime":"2022/10/11 15:24:19","block":7870502,"epoch":368,"slotNo":73935568,"epochSlotNo":322768,"stakeKey":"stake1u9eekdvn7jjd3n8t5fr0ewege95gtp6jewpxqcqwnlwl9dcc9y9yx"},{"txId":52127630,"txHash":"a87d33a26b9f0fd8e87e773685530fbdd47d89ed41db57884bea5e87c4d277f0","txTime":"2022/10/11 15:20:47","block":7870492,"epoch":368,"slotNo":73935356,"epochSlotNo":322556,"stakeKey":"stake1uxrtpps75q8jd360547gjuyez33jp3d4v9zarm7l3j50f8saymld5"},{"txId":52127571,"txHash":"532f56811374cd7a8a95309b3d3427b4a4889a271e244ceef124e75b1a7a7f58","txTime":"2022/10/11 15:19:06","block":7870489,"epoch":368,"slotNo":73935255,"epochSlotNo":322455,"stakeKey":"stake1ux3s0xlq8qnjjfmrnvx2hgnjzceyqdqmfnha7d5n055n4mg8vqv9s"},{"txId":52127431,"txHash":"6b8ffd00494811a636c0cbe7327f15fbe4b114481d824924ee171ab9dccdc2a2","txTime":"2022/10/11 15:16:39","block":7870480,"epoch":368,"slotNo":73935108,"epochSlotNo":322308,"stakeKey":"stake1u9gaw768mz4e3tvrnruze5s4ue7g9k3nfa0nfth4ru3jppccdhetc"},{"txId":52127268,"txHash":"00fabc92acb894f3c4de5cd858985ba3b5af07019f0c6245aaaae77bed127c2b","txTime":"2022/10/11 15:13:27","block":7870471,"epoch":368,"slotNo":73934916,"epochSlotNo":322116,"stakeKey":"stake1uyewdzhqz48yf7f8w60glh2uqj97h84udq0c4yf6z0waa0gt52yrn"},{"txId":52127115,"txHash":"07af241dee2723a5815eb90563980be766e813d1297a6bfaedb517de0f8bd602","txTime":"2022/10/11 15:10:43","block":7870466,"epoch":368,"slotNo":73934752,"epochSlotNo":321952,"stakeKey":"stake1u8cleqcn77wrw92xer67uhc7wrxhqpktkzct0v636cp8nfqrjydy3"},{"txId":52127041,"txHash":"5795f04e38b6c1bcc733c5aa40092aab99006f02f8ea80987692817024566107","txTime":"2022/10/11 15:10:01","block":7870463,"epoch":368,"slotNo":73934710,"epochSlotNo":321910,"stakeKey":"stake1u84zlzfz6d8v0aulqyy7pzj5x5a8h0h07yazvhmumcr4grcg5a0ga"},{"txId":52126926,"txHash":"d138c6209f20e3cf77d8feabf201a4ba83278ce8ee1b5f8d31267552a33d4b09","txTime":"2022/10/11 15:07:12","block":7870455,"epoch":368,"slotNo":73934541,"epochSlotNo":321741,"stakeKey":"stake1uxeskndg9ufn3eymyru5fkscn4qzdjark50634qamknjyhgfg3s69"},{"txId":52126873,"txHash":"bcff9c3f2c2aa912c875c087b5449c2128018cfab7806f9a937bc707b1303050","txTime":"2022/10/11 15:06:01","block":7870451,"epoch":368,"slotNo":73934470,"epochSlotNo":321670,"stakeKey":"stake1u825mq8tlgacrpm44tuhx95x6rrqegst6u94q9p2qnnl9wq79kh2q"},{"txId":52126741,"txHash":"2bc7294c9b60d5af91076b6f4c18644ca8e48b3a4620fc08ebf4c4d5ac3e6230","txTime":"2022/10/11 15:03:20","block":7870446,"epoch":368,"slotNo":73934309,"epochSlotNo":321509,"stakeKey":"stake1uyjznwecycm5swxmwnfyg76m0zmnwdxeve5z5dm8m8hkxug2th08y"},{"txId":52126648,"txHash":"c675ca252ff7e24351175890d0e68a7051637bf6e5c6fff98fb4810b4616e930","txTime":"2022/10/11 15:01:33","block":7870440,"epoch":368,"slotNo":73934202,"epochSlotNo":321402,"stakeKey":"stake1uy3czw6ndj903n9pw5nwn65hgwswk9xldy9vwqt3u8tc9pq835nwu"},{"txId":52126500,"txHash":"da7c5f43b83376f7e8a2696549390eaddb44a95bca10d1b68dff34933868ef06","txTime":"2022/10/11 14:58:55","block":7870433,"epoch":368,"slotNo":73934044,"epochSlotNo":321244,"stakeKey":"stake1uy9u70h34aq6470gfz0ufwfq2hu40a6menwkm9vcd49ntpghs9jre"},{"txId":52125792,"txHash":"7dba75356f4222a95e86ad00d06a46ea5658d0990aaaa0c61fcf5644714042e4","txTime":"2022/10/11 14:43:49","block":7870390,"epoch":368,"slotNo":73933138,"epochSlotNo":320338,"stakeKey":"stake1u9upzan8u0emy7huzfgv9zrwq7thr2yw6punpkeleatnl3gap03rj"},{"txId":52125700,"txHash":"22da114fcd8172e00822cad548daeb674fa3e5022c10686321a17cb27d4c983e","txTime":"2022/10/11 14:41:54","block":7870387,"epoch":368,"slotNo":73933023,"epochSlotNo":320223,"stakeKey":"stake1u92522t8yl68ejlr2jzpakvlxem5shje967tn0vynpfgd9q4geegm"},{"txId":52125572,"txHash":"4d422077980911328d608927cf7c73acbba68fe71fcea1a70f90b7a048b38468","txTime":"2022/10/11 14:39:22","block":7870382,"epoch":368,"slotNo":73932871,"epochSlotNo":320071,"stakeKey":"stake1u9pej9p7e5txf28gwlyxv78w4q7p30vd3t23ffptz0u59mcedgel2"},{"txId":52125564,"txHash":"36cea7caf9633a90fe54a43d3651ad0ce0cc0c12a4fa9cf48e15e36f4f91b6ad","txTime":"2022/10/11 14:39:22","block":7870382,"epoch":368,"slotNo":73932871,"epochSlotNo":320071,"stakeKey":"stake1u8d5ur7s0cxjqqhrs3gmdqnqlqz5qrj3jzhpm9r02pxecxcrekptq"},{"txId":52125530,"txHash":"81aa3317b4b083fcf31496c0d0c13d54ae8409f6d33bc730dd9e0868233bff40","txTime":"2022/10/11 14:38:25","block":7870379,"epoch":368,"slotNo":73932814,"epochSlotNo":320014,"stakeKey":"stake1u8ujhgk27lrqsdnlutzk3c5a4d3k47d9a9s9gkas420ll2gqvlxue"},{"txId":52125500,"txHash":"85782d5f68ed61d4eb9b2659112808a99947a7b6c2768744202c9df675fa138f","txTime":"2022/10/11 14:37:45","block":7870375,"epoch":368,"slotNo":73932774,"epochSlotNo":319974,"stakeKey":"stake1u8eef4gsd0plzjyygvyk2sshe446m4a4r3vdak9e8qpqmssxgcgpt"},{"txId":52125351,"txHash":"4641b3b6903839fc4233f47a9dc4cf385e7de0d70cecf2713e8cc97b93eac91b","txTime":"2022/10/11 14:34:49","block":7870365,"epoch":368,"slotNo":73932598,"epochSlotNo":319798,"stakeKey":"stake1u8qwq3py5r9kknjt2ayqv2n0xwvk56sfn8rtvuqaeldxy8qf3rlyc"}],"totalItems":1585536,"totalPages":79277,"currentPage":0}