{"data":[{"hash":"9f306b426fa26f6a45b7883fc94813f7ac5751a1cdbaf74ae7b3afa12c32c9ff","blockNo":6833375,"blockHash":"829c642929cf5127cdf6f42684d767f7fb3db8d248c98d89ac41df9acf5325bd","epochNo":318,"epochSlotNo":247374,"slot":52260174,"time":"2022/02/02 18:27:45","addressesInput":["addr1qx3h7v9udk6zv3ma39u6q50rfz89ftzjpsncdmpc8n7p2dygwzpmdnzh7jyhxwuamv82nyzyddx65s90qjlsu90haphqs9d8jw"],"addressesOutput":["addr1qxkpdd6z9d5gu0266mg3gnu59qnxwvpxkcve02jr3dr0r2t4ruprzsrq0rqrr98h3h6r5rtfxuvpgdp67fpepu7wumlqrj2haa","addr1qy9untcd46vsuqn7y338lq08thxhuvz9pdqaqhkzd92lmzugwzpmdnzh7jyhxwuamv82nyzyddx65s90qjlsu90haphqt0wveg"],"fee":177337,"totalOutput":65020908,"tokens":[]},{"hash":"e7692d7d527ffd1aed5361393c962e09275dedf8b85fe2584ae214b0f4dd111b","blockNo":6833375,"blockHash":"829c642929cf5127cdf6f42684d767f7fb3db8d248c98d89ac41df9acf5325bd","epochNo":318,"epochSlotNo":247374,"slot":52260174,"time":"2022/02/02 18:27:45","addressesInput":["addr1q8ez8etkszqd3jrgsg3f4rywv3r2sxhf99csh7yhsf608uj85j9p5ge3s8h5aezy64xpjd2ejw7x6plqppcdw7upm8xq0v0q0j","addr1qyjdy79aqskxf6gtqenjxeprmu9wxqz0uz05pey9y8p82wz85j9p5ge3s8h5aezy64xpjd2ejw7x6plqppcdw7upm8xqhprtv4","addr1qyjdy79aqskxf6gtqenjxeprmu9wxqz0uz05pey9y8p82wz85j9p5ge3s8h5aezy64xpjd2ejw7x6plqppcdw7upm8xqhprtv4","addr1q8ez8etkszqd3jrgsg3f4rywv3r2sxhf99csh7yhsf608uj85j9p5ge3s8h5aezy64xpjd2ejw7x6plqppcdw7upm8xq0v0q0j","addr1qxth3phvqwpatyjf2s9j5hch2xav50gupv4ddvcr303sxjz85j9p5ge3s8h5aezy64xpjd2ejw7x6plqppcdw7upm8xq6nmklr","addr1qyjkmxk8g50zmyxk0gqx62j8pspqxt97ptrtcafwq58nauj85j9p5ge3s8h5aezy64xpjd2ejw7x6plqppcdw7upm8xqzq6nq9"],"addressesOutput":["addr1q96zm8u84k666kshkp23fmr5q2tde3030z6h5pssj3d4z0wh3n5hhnqkvs9xe7nxcw5neyxyxpvplmw8x2p68xeqp0ussf9q5j","addr1q9enzcwp5uy2ayr9m5y2pccafnf09qn3seuyung70ja8ue685j9p5ge3s8h5aezy64xpjd2ejw7x6plqppcdw7upm8xqe0ugua"],"fee":199557,"totalOutput":5820992258,"tokens":[]},{"hash":"2d318a27baf6d6b4e7868ebad58dee23454624126dc0168a5e008ff97bea8da9","blockNo":6833375,"blockHash":"829c642929cf5127cdf6f42684d767f7fb3db8d248c98d89ac41df9acf5325bd","epochNo":318,"epochSlotNo":247374,"slot":52260174,"time":"2022/02/02 18:27:45","addressesInput":["addr1qx8rsqkywvk08nflhjal8dner6jaa2hje63e0376th36rqy9l2rvrvqjxfp0r9la3v2mztn4ac075k383q2d9qkzz6fsvn65le"],"addressesOutput":["DdzFFzCqrhsjSMd6aZkpZL6q1gdoudLMR6jQi4Tj3AwTMzd3N7mNGD5kyut63HrFdsS5goCwvm76MRPRui1VXvrniTXEmTszEj33MuPz","addr1q9g4k2keccu5gx6qvgpkwt8k6dpz8yjkt5kkx5hw6rx4pgy9l2rvrvqjxfp0r9la3v2mztn4ac075k383q2d9qkzz6fs9s4y07"],"fee":169109,"totalOutput":267595715,"tokens":[]},{"hash":"a486b1ad27193aa4679c1ee6a3c57128c9ae83f1f0d9e6aee139e07cc8e3a3b5","blockNo":6833375,"blockHash":"829c642929cf5127cdf6f42684d767f7fb3db8d248c98d89ac41df9acf5325bd","epochNo":318,"epochSlotNo":247374,"slot":52260174,"time":"2022/02/02 18:27:45","addressesInput":["addr1q9vnejcav3uy5azyseev2qd97dccf5uhgr22my2p400925j8rmhel5raguk02f0fylg8zsgt9pjw254p6z3ddxk8agtq6hmq6e","addr1q9vnejcav3uy5azyseev2qd97dccf5uhgr22my2p400925j8rmhel5raguk02f0fylg8zsgt9pjw254p6z3ddxk8agtq6hmq6e"],"addressesOutput":["addr1wxar2qwdzuxfvdyuxsk9aapy93vkkk904mxullqtkp90pmqh0xrmz","addr1q9vnejcav3uy5azyseev2qd97dccf5uhgr22my2p400925j8rmhel5raguk02f0fylg8zsgt9pjw254p6z3ddxk8agtq6hmq6e"],"fee":491104,"totalOutput":10953300,"tokens":[]},{"hash":"a2ef7357bbdcc27f30ea87103ba60ab7589b447986b81b1b40fdb019a1dee87e","blockNo":6833375,"blockHash":"829c642929cf5127cdf6f42684d767f7fb3db8d248c98d89ac41df9acf5325bd","epochNo":318,"epochSlotNo":247374,"slot":52260174,"time":"2022/02/02 18:27:45","addressesInput":["addr1q870afqymd35766sm6jah3xwaarcjdx4tauvfr5dk0592jwa8p9a52pzux6u6kxr78h74kzekqnc4wc0xdzvh790ze6qsmgwpz"],"addressesOutput":["addr1qxahpkhs08454dq9spwvpgwqvyz60txvv597uperxjnggxhsz9kezzz53m6ttnfdt4jr5n2ekpg238sjgwv5qnf5jczqwk0tv8","addr1q870afqymd35766sm6jah3xwaarcjdx4tauvfr5dk0592jwa8p9a52pzux6u6kxr78h74kzekqnc4wc0xdzvh790ze6qsmgwpz"],"fee":180167,"totalOutput":83687353,"tokens":[]},{"hash":"e8933ba21119f4203f685836c98ed2730017c68cd1ca2fdfdb258849780231fc","blockNo":6833375,"blockHash":"829c642929cf5127cdf6f42684d767f7fb3db8d248c98d89ac41df9acf5325bd","epochNo":318,"epochSlotNo":247374,"slot":52260174,"time":"2022/02/02 18:27:45","addressesInput":["addr1q8s6f4gkezyjpxhcu0r3pgul20lsps2cxkz3su7l2tvx4ch5thdnpr285xmp50c42z69npfk9gckd5ksyky20ry84s2qgm3hcs"],"addressesOutput":["addr1q85v7tsuffwyss6wn5t0gj5gwrx8zdzhr6dpt3nqyxf9dz8sz9kezzz53m6ttnfdt4jr5n2ekpg238sjgwv5qnf5jczqum9t39"],"fee":177267,"totalOutput":9694106,"tokens":[]},{"hash":"bea3ba8a2c56dc52f32c5d6bb7861c43d7ff3df67e5450b4a3deac3b49889cda","blockNo":6833375,"blockHash":"829c642929cf5127cdf6f42684d767f7fb3db8d248c98d89ac41df9acf5325bd","epochNo":318,"epochSlotNo":247374,"slot":52260174,"time":"2022/02/02 18:27:45","addressesInput":["addr1q8jk3cg5gyvjgw67y20affmwcarluettdrpt79k934m48saa944v56wj88ctxeqhg6gm0erqjtupgqsmvpclj07ek4zspew07z"],"addressesOutput":["addr1vymu0qzhdzlcccgeuyjrcqpuu4xkv5ytw55r5jj3qkklzhgy0m5f8","addr1qxzzyz663xf7rn7sud9f0s4qfrc750q3pgjnzu86kpvuzgda944v56wj88ctxeqhg6gm0erqjtupgqsmvpclj07ek4zswpegph"],"fee":167789,"totalOutput":7934610166,"tokens":[]},{"hash":"743eb535796019c7e23c0de1e48c9a04634ffd417045347c8dd37053f3d6d5f1","blockNo":6833375,"blockHash":"829c642929cf5127cdf6f42684d767f7fb3db8d248c98d89ac41df9acf5325bd","epochNo":318,"epochSlotNo":247374,"slot":52260174,"time":"2022/02/02 18:27:45","addressesInput":["addr1qxaxsnaeq92ggaqyvcgqtg2dtrtq9dq6dd6xtzg8wsutjaykefsar6vlex3fnzug3aheywqpz00sxn3jhhpsje5e9awq3sdzsy","addr1qxaxsnaeq92ggaqyvcgqtg2dtrtq9dq6dd6xtzg8wsutjaykefsar6vlex3fnzug3aheywqpz00sxn3jhhpsje5e9awq3sdzsy"],"addressesOutput":["addr1q835suk8ejdtz48eu7d58h23h4utdhcyfkjehhnmeq974q2svy9p3tqjpa5xkhhfyz489966mlttp472qc05rxgfyums3eu6qq","addr1qxaxsnaeq92ggaqyvcgqtg2dtrtq9dq6dd6xtzg8wsutjaykefsar6vlex3fnzug3aheywqpz00sxn3jhhpsje5e9awq3sdzsy"],"fee":178189,"totalOutput":2019791236,"tokens":[]},{"hash":"a742386806ce9acba8ff1cd7c5915690121341c3847c758c269fc79ea3d691ae","blockNo":6833375,"blockHash":"829c642929cf5127cdf6f42684d767f7fb3db8d248c98d89ac41df9acf5325bd","epochNo":318,"epochSlotNo":247374,"slot":52260174,"time":"2022/02/02 18:27:45","addressesInput":["addr1q9gs7n5wxmn8t7ua5a3zmuvd9qjadu8wn8gs6fxp50k9uyh8s9rajw9wa70jt6pk25zakhpdq60kj2jvm7wkzggz0wvq6lv07x","addr1q9gs7n5wxmn8t7ua5a3zmuvd9qjadu8wn8gs6fxp50k9uyh8s9rajw9wa70jt6pk25zakhpdq60kj2jvm7wkzggz0wvq6lv07x"],"addressesOutput":["addr1vymu0qzhdzlcccgeuyjrcqpuu4xkv5ytw55r5jj3qkklzhgy0m5f8","addr1q9gs7n5wxmn8t7ua5a3zmuvd9qjadu8wn8gs6fxp50k9uyh8s9rajw9wa70jt6pk25zakhpdq60kj2jvm7wkzggz0wvq6lv07x","addr1q9gs7n5wxmn8t7ua5a3zmuvd9qjadu8wn8gs6fxp50k9uyh8s9rajw9wa70jt6pk25zakhpdq60kj2jvm7wkzggz0wvq6lv07x"],"fee":203077,"totalOutput":161743408,"tokens":[]},{"hash":"030934a56183adedd67452846e4bd510fa181c2f299c820bc64d6bea7360a725","blockNo":6833375,"blockHash":"829c642929cf5127cdf6f42684d767f7fb3db8d248c98d89ac41df9acf5325bd","epochNo":318,"epochSlotNo":247374,"slot":52260174,"time":"2022/02/02 18:27:45","addressesInput":["addr1q8z3zmpp9sxxy7uaaxgaavwv0h0ls5xg2vghjp0lmhf4npmusc780xjt0kqwu7ntzq0439cvmd0l70mmrqfra0s7h4asdgdwsk","addr1w999n67e86jn6xal07pzxtrmqynspgx0fwmcmpua4wc6yzsxpljz3"],"addressesOutput":["addr1w999n67e86jn6xal07pzxtrmqynspgx0fwmcmpua4wc6yzsxpljz3","addr1q8z3zmpp9sxxy7uaaxgaavwv0h0ls5xg2vghjp0lmhf4npmusc780xjt0kqwu7ntzq0439cvmd0l70mmrqfra0s7h4asdgdwsk"],"fee":1161637,"totalOutput":30318565,"tokens":[]},{"hash":"ac1b45b7548c6dd21babb163385e813982a3ecc27d3dd777efd7f5133189ab96","blockNo":6833375,"blockHash":"829c642929cf5127cdf6f42684d767f7fb3db8d248c98d89ac41df9acf5325bd","epochNo":318,"epochSlotNo":247374,"slot":52260174,"time":"2022/02/02 18:27:45","addressesInput":["addr1w999n67e86jn6xal07pzxtrmqynspgx0fwmcmpua4wc6yzsxpljz3","addr1q96pynn5eg2gd68pa94ayavzsxal6wqhduhjjuzrevxrx499fsgldwhe5hdv303szpdc93nc37r9y5q44hepe076l9sq7n7sfv","addr1q96pynn5eg2gd68pa94ayavzsxal6wqhduhjjuzrevxrx499fsgldwhe5hdv303szpdc93nc37r9y5q44hepe076l9sq7n7sfv","addr1q96pynn5eg2gd68pa94ayavzsxal6wqhduhjjuzrevxrx499fsgldwhe5hdv303szpdc93nc37r9y5q44hepe076l9sq7n7sfv","addr1q96pynn5eg2gd68pa94ayavzsxal6wqhduhjjuzrevxrx499fsgldwhe5hdv303szpdc93nc37r9y5q44hepe076l9sq7n7sfv"],"addressesOutput":["addr1q9cwvremt6n320s2e3agq0jyq82yhrk3htsu0w426xnz5us70z4w0jgvcdkkynmm8wmds66jd9kusnjfpu6raw5fqp0sr07p5w","addr1q89u3levs3pax7cdmlyttnrxdsqaydc7f56hu6xvef96tvjkm67529qy44wnh6f84k577zxvf9effz4j9djyhgwja0vqxwqqnf","addr1q975cq2mlqv66we7u08vkwleljpajx9fvkx4sazpxtwy8qy434j0lhyq7h540dw9p8nh2rzxl6w5r5wy9u4zj6ra95tsdrvgr6","addr1q96pynn5eg2gd68pa94ayavzsxal6wqhduhjjuzrevxrx499fsgldwhe5hdv303szpdc93nc37r9y5q44hepe076l9sq7n7sfv","addr1q96pynn5eg2gd68pa94ayavzsxal6wqhduhjjuzrevxrx499fsgldwhe5hdv303szpdc93nc37r9y5q44hepe076l9sq7n7sfv"],"fee":1155829,"totalOutput":413511307,"tokens":[]},{"hash":"66e735bcfe1c3785212881a6573c01cdda3b83056e5509db94ee050ed68f5690","blockNo":6833375,"blockHash":"829c642929cf5127cdf6f42684d767f7fb3db8d248c98d89ac41df9acf5325bd","epochNo":318,"epochSlotNo":247374,"slot":52260174,"time":"2022/02/02 18:27:45","addressesInput":["addr1qxh82s2dhd8dyyp7sjs48fatu69es4nywv052nu55qr9z88c27nppp8tsj2wwy0sk5ngz928dftedtplwf93evmzxynqd3xct5","addr1q8px0zm694nf3u07448cqlyu8ee7mml9nhenuwjst7xuue0c27nppp8tsj2wwy0sk5ngz928dftedtplwf93evmzxynqd3zsw8"],"addressesOutput":["addr1qxzxs48kln3ulpff2s4ra7w956rhsvtlauyx38lcphu95460a46gy3ch77uwszc0d6pjcw8gerpfrxpl94xu2fuws4esu0fylc","addr1qy2gk5pj7ntrdpzgx2wkwu2djnjuwltmqqka0hak587vxe8c27nppp8tsj2wwy0sk5ngz928dftedtplwf93evmzxynqlyr50c"],"fee":203077,"totalOutput":86642653,"tokens":[]},{"hash":"5ea91d9b966bf4e6bf94d13c5fea75e9b427d6ff22469ccb66d28392e765ebbf","blockNo":6833375,"blockHash":"829c642929cf5127cdf6f42684d767f7fb3db8d248c98d89ac41df9acf5325bd","epochNo":318,"epochSlotNo":247374,"slot":52260174,"time":"2022/02/02 18:27:45","addressesInput":["addr1q8qrpy5nvmqv3n4ry38xpyre74rj4tx94a2jpaw4n6g462dsrgaydypjffc2y5dqq459rryhhc8mwf7dw0n4nu5ane7q7q4sxp","addr1q8qrpy5nvmqv3n4ry38xpyre74rj4tx94a2jpaw4n6g462dsrgaydypjffc2y5dqq459rryhhc8mwf7dw0n4nu5ane7q7q4sxp","addr1q8qrpy5nvmqv3n4ry38xpyre74rj4tx94a2jpaw4n6g462dsrgaydypjffc2y5dqq459rryhhc8mwf7dw0n4nu5ane7q7q4sxp"],"addressesOutput":["addr1q90hdk4jj34xzzscpxandgn7pn50y55u8fgz6kwscfqlwmr8a08k56s3jrku9pa87aqtkzsfssk7049samzmn4vtlf3sq928z5","addr1q8qrpy5nvmqv3n4ry38xpyre74rj4tx94a2jpaw4n6g462dsrgaydypjffc2y5dqq459rryhhc8mwf7dw0n4nu5ane7q7q4sxp","addr1q8qrpy5nvmqv3n4ry38xpyre74rj4tx94a2jpaw4n6g462dsrgaydypjffc2y5dqq459rryhhc8mwf7dw0n4nu5ane7q7q4sxp"],"fee":176237,"totalOutput":1179545402,"tokens":[]},{"hash":"eb7701e7d51f6b5ed584caacfb893c01637c04e2245722e1ef3be526674079ba","blockNo":6833375,"blockHash":"829c642929cf5127cdf6f42684d767f7fb3db8d248c98d89ac41df9acf5325bd","epochNo":318,"epochSlotNo":247374,"slot":52260174,"time":"2022/02/02 18:27:45","addressesInput":["addr1q9z39ts6vtnpljadgjn974p3q38vl5fjugj48afc3r6343r5w3t44t84d8l6a4mvgwqtqa94muwc3ydf6sjq9u3qfkysmmsv2p","addr1w999n67e86jn6xal07pzxtrmqynspgx0fwmcmpua4wc6yzsxpljz3"],"addressesOutput":["addr1q9z39ts6vtnpljadgjn974p3q38vl5fjugj48afc3r6343r5w3t44t84d8l6a4mvgwqtqa94muwc3ydf6sjq9u3qfkysmmsv2p","addr1q9z39ts6vtnpljadgjn974p3q38vl5fjugj48afc3r6343r5w3t44t84d8l6a4mvgwqtqa94muwc3ydf6sjq9u3qfkysmmsv2p"],"fee":1139029,"totalOutput":3926444,"tokens":[]},{"hash":"b877fb0b3353e5fd0e187a235403f61e321f4341c0363cb72dca699f24bf1f38","blockNo":6833375,"blockHash":"829c642929cf5127cdf6f42684d767f7fb3db8d248c98d89ac41df9acf5325bd","epochNo":318,"epochSlotNo":247374,"slot":52260174,"time":"2022/02/02 18:27:45","addressesInput":["addr1q9a074euhlh3e68y90gly9dwx4009x7jy274yxd8uae8ku0gma0d77fcfrwtya24rftxv94qsg4uc30wuyg3vycx6urq90rg38","addr1w999n67e86jn6xal07pzxtrmqynspgx0fwmcmpua4wc6yzsxpljz3"],"addressesOutput":["addr1w999n67e86jn6xal07pzxtrmqynspgx0fwmcmpua4wc6yzsxpljz3","addr1q9a074euhlh3e68y90gly9dwx4009x7jy274yxd8uae8ku0gma0d77fcfrwtya24rftxv94qsg4uc30wuyg3vycx6urq90rg38"],"fee":1157413,"totalOutput":473638214,"tokens":[]},{"hash":"4cec8e6e95bd06412a3c50ff509ead880391d38e6034862b335c1134cde19bde","blockNo":6833375,"blockHash":"829c642929cf5127cdf6f42684d767f7fb3db8d248c98d89ac41df9acf5325bd","epochNo":318,"epochSlotNo":247374,"slot":52260174,"time":"2022/02/02 18:27:45","addressesInput":["addr1q8lwj2yrjax28zjktjzc0x82z2yacyt75dgrvgnegehg5h4wv27ug8x87y0lz6njpf9q8x4caxzt27967njppcpa4nmsz8qlsx"],"addressesOutput":["addr1wy2mjh76em44qurn5x73nzqrxua7ataasftql0u2h6g88lc3gtgpz","addr1qy9yrva9vnxjd09vvnr7v8z7qzr73vyyd40qhnhz98yk9aq3wj76wr3m5njwkezqp2qzed6cgy40q3ax3yxddm29ygcqez2pvl","addr1q8lwj2yrjax28zjktjzc0x82z2yacyt75dgrvgnegehg5h4wv27ug8x87y0lz6njpf9q8x4caxzt27967njppcpa4nmsz8qlsx"],"fee":204970,"totalOutput":144143407,"tokens":[]},{"hash":"c597a02c76348fc8b270b00dcdb33b0a6afeefbdfb36f225e0056d4b5ce90f7c","blockNo":6833375,"blockHash":"829c642929cf5127cdf6f42684d767f7fb3db8d248c98d89ac41df9acf5325bd","epochNo":318,"epochSlotNo":247374,"slot":52260174,"time":"2022/02/02 18:27:45","addressesInput":["addr1q8n9qeswht9cwfw0lf9hkfxgzprq7kg4tvp927jm3wnpzujkmtkzp2klcv98lkejgwwf9kpy6phszfpeg2ys6vd2fmaqd7r40j"],"addressesOutput":["addr1q8n9qeswht9cwfw0lf9hkfxgzprq7kg4tvp927jm3wnpzujkmtkzp2klcv98lkejgwwf9kpy6phszfpeg2ys6vd2fmaqd7r40j","addr1q8n9qeswht9cwfw0lf9hkfxgzprq7kg4tvp927jm3wnpzujkmtkzp2klcv98lkejgwwf9kpy6phszfpeg2ys6vd2fmaqd7r40j"],"fee":168317,"totalOutput":190726938,"tokens":[]},{"hash":"83cb821af66be6326abe0b2e48a965e23d05adc33d14c58603cb8ea0f79005db","blockNo":6833375,"blockHash":"829c642929cf5127cdf6f42684d767f7fb3db8d248c98d89ac41df9acf5325bd","epochNo":318,"epochSlotNo":247374,"slot":52260174,"time":"2022/02/02 18:27:45","addressesInput":["addr1qx5h20lq03f4syeapkrqfcd8kr00xlf6cmc3d3mh45lqwtdrpsm9rcn0h25re876s8agpe4j9357s920lk2k3y22lfyqsw6ktk"],"addressesOutput":["addr1qx5h20lq03f4syeapkrqfcd8kr00xlf6cmc3d3mh45lqwtdrpsm9rcn0h25re876s8agpe4j9357s920lk2k3y22lfyqsw6ktk","addr1qx5h20lq03f4syeapkrqfcd8kr00xlf6cmc3d3mh45lqwtdrpsm9rcn0h25re876s8agpe4j9357s920lk2k3y22lfyqsw6ktk","addr1qx5h20lq03f4syeapkrqfcd8kr00xlf6cmc3d3mh45lqwtdrpsm9rcn0h25re876s8agpe4j9357s920lk2k3y22lfyqsw6ktk"],"fee":173245,"totalOutput":93046621,"tokens":[]},{"hash":"686a46032d28bc5bb3bf3f372cb90f885426bf707004af9a07e333ce182d9799","blockNo":6833375,"blockHash":"829c642929cf5127cdf6f42684d767f7fb3db8d248c98d89ac41df9acf5325bd","epochNo":318,"epochSlotNo":247374,"slot":52260174,"time":"2022/02/02 18:27:45","addressesInput":["addr1w999n67e86jn6xal07pzxtrmqynspgx0fwmcmpua4wc6yzsxpljz3","addr1qy5tdy8y2ldx4tqj8c467nsh63uwxuay3wsymsmn4ewqp00rj97pe2g3tun0w5m74n36k2whx067k73ms9mdeqr9yfks58m7qp"],"addressesOutput":["addr1q9cwvremt6n320s2e3agq0jyq82yhrk3htsu0w426xnz5us70z4w0jgvcdkkynmm8wmds66jd9kusnjfpu6raw5fqp0sr07p5w","addr1q848yer5gxjdrsffwtvw88vzdmgwcdgmsjxcc8pu94mt0eu7yf47qkxnj8mkt30dl7wx5jxejll4038dj3kc0g6w4ksss6u6rn","addr1q9592pmrfqyrtstwadguz3gd2u80m7kxzt3kr5qa206ss2w60jvtsman5n04p6a5g32rwwaxrpdeg6karg5fhn4h80tq3fm8h2","addr1qy5tdy8y2ldx4tqj8c467nsh63uwxuay3wsymsmn4ewqp00rj97pe2g3tun0w5m74n36k2whx067k73ms9mdeqr9yfks58m7qp","addr1qy5tdy8y2ldx4tqj8c467nsh63uwxuay3wsymsmn4ewqp00rj97pe2g3tun0w5m74n36k2whx067k73ms9mdeqr9yfks58m7qp"],"fee":1143541,"totalOutput":100708309,"tokens":[]},{"hash":"9aa2da38e27a3ef8d345da5a095a80e3d964649986df5b7fb7c049fd4e040544","blockNo":6833374,"blockHash":"476db7ad4523b5ecff51377698d0d2733083ff5ae59003ed7702c79afdc2f440","epochNo":318,"epochSlotNo":247370,"slot":52260170,"time":"2022/02/02 18:27:41","addressesInput":["addr1v8v3auqmw0eszza3ww29ea2pwftuqrqqyu26zvzjq9dt2ncydzvs5"],"addressesOutput":["addr1q8y5tt346gahj2fxl2d8p3mhzjcx6ntrwt544qp5x8kfdjkedl3wtalqxsec7d03qdhyrwjn0wdd9an9tmq4p6zjydus768jwh","addr1vypr00ss7hkqejmvh53xkyf0p9q0a4z2uprxmx6njc463vgst3pe4"],"fee":171221,"totalOutput":55974480,"tokens":[]}],"totalItems":29616566,"totalPages":1480829,"currentPage":0}