{"data":[{"address":"addr1qyegmz9fs9z6rqypt03xj7pycje6c7cetw5d90ld2yn9qldfsare778tzlhkycm7hdqm54r4rncjqs5t2h78mklqv0jsjl859t","name":"4154484f4d","displayName":"ATHOM","fingerprint":"asset1cw6a0zyc97cy94qgt0u4t2hz54c6rdtcrzc2ta","quantity":3995198417627914570},{"address":"addr1z8snz7c4974vzdpxu65ruphl3zjdvtxw8strf2c2tmqnxz2j2c79gy9l76sdg0xwhd7r0c0kna0tycz4y5s6mlenh8pq0xmsha","name":"4154484f4d","displayName":"ATHOM","fingerprint":"asset1cw6a0zyc97cy94qgt0u4t2hz54c6rdtcrzc2ta","quantity":2001732128725801327},{"address":"addr1qxqx7l4ctg3kc9txrr40eun0lw0k839cl6n5g5v6glja3gujq5ff3y0u5v8cd9v84vf0nejnrgcfpfrdttpdna8eda6qxxfw6d","name":"4154484f4d","displayName":"ATHOM","fingerprint":"asset1cw6a0zyc97cy94qgt0u4t2hz54c6rdtcrzc2ta","quantity":325193125678503232},{"address":"addr1qxywseg8np4g58raaggg2mtxwdqls67muz43w92q72pj688qxg6tzd3rc97cdasanhh60vj0ztjge90gm4tkfqklrutspsymvn","name":"4154484f4d","displayName":"ATHOM","fingerprint":"asset1cw6a0zyc97cy94qgt0u4t2hz54c6rdtcrzc2ta","quantity":168745600968768502},{"address":"addr1qy3pdvd7706zs0jh50ysfwxuwf7fzfmnas3a9mqqunnyej2h35djuvmgq9fphrexktdrfnhk30grxu3wvder6ntw8f3sg56502","name":"4154484f4d","displayName":"ATHOM","fingerprint":"asset1cw6a0zyc97cy94qgt0u4t2hz54c6rdtcrzc2ta","quantity":127256256525867184},{"address":"addr1qx3yu7mtqqktdyszz4zzje7hfh5mzpk6nxl742zqcfqngeer7l90yqzzd9ju7r7pu83d57pyly590yhnmevc3l0ctd2swhm6zq","name":"4154484f4d","displayName":"ATHOM","fingerprint":"asset1cw6a0zyc97cy94qgt0u4t2hz54c6rdtcrzc2ta","quantity":120479898168589911},{"address":"addr1qxu2q0ktawdyhtwsglnc9cnc4mmqd8meeq2juegv0r0muk7sv9mddetw2qhyd8uu6l6jfh9fu76yxk20wnfyrrvnh6xqr5hk6d","name":"4154484f4d","displayName":"ATHOM","fingerprint":"asset1cw6a0zyc97cy94qgt0u4t2hz54c6rdtcrzc2ta","quantity":114073308745237833},{"address":"addr1qxykr0athfjp8ef3jlmnyuk20950p4ckecks2cn53d59at7nchqur28c7wwu3ca2xpufvtdnu2ys99xhsz8xxyck9m4q4vdjhz","name":"4154484f4d","displayName":"ATHOM","fingerprint":"asset1cw6a0zyc97cy94qgt0u4t2hz54c6rdtcrzc2ta","quantity":109411140920705353},{"address":"addr1q99ycs6lvqxper456x9pysa3hzvatsznklfj52g4h5v2yj86gnddulv9m42k26w7vewd80hndpnl2nscvp9xtysf2l6q8dlcrm","name":"4154484f4d","displayName":"ATHOM","fingerprint":"asset1cw6a0zyc97cy94qgt0u4t2hz54c6rdtcrzc2ta","quantity":109094032351563254},{"address":"addr1q8f3m2ahguvn6lyj80atgljuya57ethdy3jkhzq6n93qws7jj9djsz0020h68nz3rxknzdh93nryqzhq6h9z0nnzf0rsqgwe96","name":"4154484f4d","displayName":"ATHOM","fingerprint":"asset1cw6a0zyc97cy94qgt0u4t2hz54c6rdtcrzc2ta","quantity":104435700000000000},{"address":"addr1w89k5teavfhl4z8ts4uwell2spvytt5fuwde8ke6ga7hmsqf7jru9","name":"4154484f4d","displayName":"ATHOM","fingerprint":"asset1cw6a0zyc97cy94qgt0u4t2hz54c6rdtcrzc2ta","quantity":99200300000000000},{"address":"addr1qya420l5neypwp5r9yw4vfa55zgqg2v6w0yp6a6zw9wkmf9khn3fhy589ka8klw450slvvm465lzglhm4rh2mhd0f59spt8vkl","name":"4154484f4d","displayName":"ATHOM","fingerprint":"asset1cw6a0zyc97cy94qgt0u4t2hz54c6rdtcrzc2ta","quantity":96276100372088980},{"address":"addr1qxkmr0m22xeqludcg5rjdmecjxasu9fat0680qehtcsnftaadgykewa9ufvegeuca9yyq03d9v7ea2y2zthgu7hfgjtsddp6gr","name":"4154484f4d","displayName":"ATHOM","fingerprint":"asset1cw6a0zyc97cy94qgt0u4t2hz54c6rdtcrzc2ta","quantity":94821510476592911},{"address":"addr1q807m6a7tu9400fgkuru5nc50h63nj2nxwyn33ca4tlu7jg2wl2c4fpd4u25pec0dwn35d8yw6pgj7n3edrrx8w9ka5qrkehrn","name":"4154484f4d","displayName":"ATHOM","fingerprint":"asset1cw6a0zyc97cy94qgt0u4t2hz54c6rdtcrzc2ta","quantity":69731689013165661},{"address":"addr1q894kavymyxtfeqynnq4u6xzqvexrmatlzxc2wnvdlcyp4jz0s9hdqdc40mgrpa0lsle52jrukzp6s05ppnwj5a5l8eq8qpxkj","name":"4154484f4d","displayName":"ATHOM","fingerprint":"asset1cw6a0zyc97cy94qgt0u4t2hz54c6rdtcrzc2ta","quantity":65796910380990244},{"address":"addr1qx5a7e22p94zjzja8c8tykckuevd7wpn74nfhjajlqy78sn35h99kzxu20qjnuf7y9sygk7ucx6fluz9gtpctk6um40qezvd2u","name":"4154484f4d","displayName":"ATHOM","fingerprint":"asset1cw6a0zyc97cy94qgt0u4t2hz54c6rdtcrzc2ta","quantity":61191332501752061},{"address":"addr1q9ajalqndhutxh4gzde4k3w0lwxc27x79jpjq2s6kwq75akt4hk39svhjh0nvsz5cqsxcaqhphwwruqns7dty3pm66jqfq37kv","name":"4154484f4d","displayName":"ATHOM","fingerprint":"asset1cw6a0zyc97cy94qgt0u4t2hz54c6rdtcrzc2ta","quantity":60000000000000000},{"address":"addr1qyfyg36s83zd862fw6uykt3fyph689rhyk302rhpdjjxuzsw20yceqqq4w8ggnms4qttzayr07zqxj0j72mwse9k3lhsl3yk3s","name":"4154484f4d","displayName":"ATHOM","fingerprint":"asset1cw6a0zyc97cy94qgt0u4t2hz54c6rdtcrzc2ta","quantity":53452573908059835},{"address":"addr1qyf73r0ft4hqgsv5ge4kuxez9jvfewmegg7f6adn5kgmm8rulz50eeq3xm0hcmacqqc556657mgcpvz28rj2an7wz07qvh0tvq","name":"4154484f4d","displayName":"ATHOM","fingerprint":"asset1cw6a0zyc97cy94qgt0u4t2hz54c6rdtcrzc2ta","quantity":50000000000000000},{"address":"addr1q8nme9gzatyjrvkjd0v39fskvcrep08tg40fp49ek98p4ulft8hvwcmwch099w0ry49h273vy4qmkxqkef0kr08xfrashpnr2c","name":"4154484f4d","displayName":"ATHOM","fingerprint":"asset1cw6a0zyc97cy94qgt0u4t2hz54c6rdtcrzc2ta","quantity":48988346918662759}],"totalItems":3346,"totalPages":168,"currentPage":0}