{"data":[{"blockNo":7956632,"slotNo":75702702,"epochNo":372,"epochSlotNo":361902,"hash":"b1396e3c08254dedf1ec955314d4bc0579b97da15eab6fb7600a4bc616cfa0ed","time":"2022/11/01 02:16:33","txCount":9,"totalFees":3364892,"totalOutput":3554980724,"slotLeader":"a0fc643d831b144e1dd289f5acf4274aedc331b6a0e4257ef5376520"},{"blockNo":7956631,"slotNo":75702692,"epochNo":372,"epochSlotNo":361892,"hash":"5defd2b47b39137e8e9ac7e55a86ddd7e3671c3f09b88c1d9ae9a430800ab232","time":"2022/11/01 02:16:23","txCount":24,"totalFees":8888408,"totalOutput":888365954639,"slotLeader":"dd47ad6a8fe21ca342e28a163cb74e69b13d519538de3d06ac26aad2"},{"blockNo":7956630,"slotNo":75702672,"epochNo":372,"epochSlotNo":361872,"hash":"65238e614ed82e9ee2c4ce1ede8aa63fac2a618ce2559a783c7065882ffa9f11","time":"2022/11/01 02:16:03","txCount":15,"totalFees":4396680,"totalOutput":255250936747,"slotLeader":"a374a14d2fa809b5e999a474b5d085b10be2fc95e6e82da045d9e8f6"},{"blockNo":7956629,"slotNo":75702659,"epochNo":372,"epochSlotNo":361859,"hash":"4785dc02ef79292858cbc88cc32a7f82c07c0c40f9e99ffa5d7889108604f91a","time":"2022/11/01 02:15:50","txCount":1,"totalFees":193881,"totalOutput":7771097,"slotLeader":"2bf5a031b46b34c07937a769ff6f82b6a78a25c71022eaaf1f20eec9"},{"blockNo":7956628,"slotNo":75702658,"epochNo":372,"epochSlotNo":361858,"hash":"ce8a971046ae5e415031a4af4d3a4a45017e1d8189eacfea5845c0507bde2a5c","time":"2022/11/01 02:15:49","txCount":14,"totalFees":6073009,"totalOutput":89178456409,"slotLeader":"62d31aef92824633bb3041e6cdcf81b7a611792a3f9d7fad8a476aec"},{"blockNo":7956627,"slotNo":75702638,"epochNo":372,"epochSlotNo":361838,"hash":"b6b616727d51b8efee56f7bbde3e8cbf0318089cba4f7bcde87d0de3e4efe9bc","time":"2022/11/01 02:15:29","txCount":2,"totalFees":528639,"totalOutput":29264093,"slotLeader":"163cc36624d9332f6ae7770e8df8b8bad7e71711eb6c2ed7971c99d4"},{"blockNo":7956626,"slotNo":75702634,"epochNo":372,"epochSlotNo":361834,"hash":"bfdd9a811d1eb5761a28b9f8de206ddd1de6c94f9ee771ac10e87cc3df057c91","time":"2022/11/01 02:15:25","txCount":4,"totalFees":780628,"totalOutput":1182596678,"slotLeader":"263498e010c7a49bbfd7c4e1aab29809fca7ed993f9e14192a75871e"},{"blockNo":7956625,"slotNo":75702632,"epochNo":372,"epochSlotNo":361832,"hash":"4e9002894d1f4d767088e147cdce1883f288e0362093ffec28d7305684b33fcb","time":"2022/11/01 02:15:23","txCount":8,"totalFees":3983225,"totalOutput":1672124561973,"slotLeader":"89f7ebe5936075aae36b1f7f2e1e9e5d2decd5230cfb962d01e12c84"},{"blockNo":7956624,"slotNo":75702625,"epochNo":372,"epochSlotNo":361825,"hash":"9a3863a513d1ac5be49cf96f6011b9c4ac91b6168b443a4aa2d1d4786a331fe0","time":"2022/11/01 02:15:16","txCount":8,"totalFees":2602476,"totalOutput":2969461390,"slotLeader":"7e00129d906afbba06a6b279fcf6e4295986a1104b7f5c4046c653bc"},{"blockNo":7956623,"slotNo":75702618,"epochNo":372,"epochSlotNo":361818,"hash":"02fa79139d84d88001882e89f35c24a0cb5e39f06470da82d9eb939bc7b0debb","time":"2022/11/01 02:15:09","txCount":16,"totalFees":4270759,"totalOutput":321621284434,"slotLeader":"8a8e0fa9953e6a02c73bf9c7471c08c20e4067cccb4afff6201cb6ef"}],"totalItems":17604,"totalPages":1761,"currentPage":0}