{"data":[{"hash":"08aa42a437604b6727b400c27c3e3d0008f3afc05ef835ae70c3005b8381c935","blockNo":8277561,"blockHash":"0521010d464baf6619fb86fce889c34621fe4cc37219a5ed7d208abc41e1339b","epochNo":388,"epochSlotNo":55351,"slot":82308151,"time":"2023/01/16 13:07:22","addressesInput":["addr1zxgx3far7qygq0k6epa0zcvcvrevmn0ypsnfsue94nsn3tvpw288a4x0xf8pxgcntelxmyclq83s0ykeehchz2wtspks905plm","addr1zxgx3far7qygq0k6epa0zcvcvrevmn0ypsnfsue94nsn3tvpw288a4x0xf8pxgcntelxmyclq83s0ykeehchz2wtspks905plm","addr1qxq3hhtkrmcr5zhlpxeq6nm0ldkttw7zcund05l68zjn0l90yf3chdxwwk8nxtaekjkzanmys3vks444wv0sxm75tgxq6j2jht"],"addressesOutput":["addr1q94uz6vvrtlg8a6kmg0cp3cv56dufn57nuqfum0saw2fphak8leq8q4wcfzfle5vgmlp7z4juy87v4mgx86er3mtz2aqg9eq8c","addr1q9cwvremt6n320s2e3agq0jyq82yhrk3htsu0w426xnz5us70z4w0jgvcdkkynmm8wmds66jd9kusnjfpu6raw5fqp0sr07p5w","addr1qxwy4393jvxtr76m3h53j2q6e3d6p0w3226ny2pyn6rht7pw6vrnkexld3dpe7zgarlwudatx889cgfv66cqmypmf0zswk72wx","addr1qxq3hhtkrmcr5zhlpxeq6nm0ldkttw7zcund05l68zjn0l90yf3chdxwwk8nxtaekjkzanmys3vks444wv0sxm75tgxq6j2jht","addr1qxq3hhtkrmcr5zhlpxeq6nm0ldkttw7zcund05l68zjn0l90yf3chdxwwk8nxtaekjkzanmys3vks444wv0sxm75tgxq6j2jht","addr1qxq3hhtkrmcr5zhlpxeq6nm0ldkttw7zcund05l68zjn0l90yf3chdxwwk8nxtaekjkzanmys3vks444wv0sxm75tgxq6j2jht","addr1qxq3hhtkrmcr5zhlpxeq6nm0ldkttw7zcund05l68zjn0l90yf3chdxwwk8nxtaekjkzanmys3vks444wv0sxm75tgxq6j2jht"],"fee":562774,"totalOutput":974762490,"tokens":[]},{"hash":"61bb32fd23e6207974451f94076347416d86924fba9da1d1f679368614636087","blockNo":8277561,"blockHash":"0521010d464baf6619fb86fce889c34621fe4cc37219a5ed7d208abc41e1339b","epochNo":388,"epochSlotNo":55351,"slot":82308151,"time":"2023/01/16 13:07:22","addressesInput":["addr1vy4nmtfc4jfftgqg369hs2ku6kvcncgzhkemq6mh0u3zgpslf59wr","addr1vy4nmtfc4jfftgqg369hs2ku6kvcncgzhkemq6mh0u3zgpslf59wr","addr1vy4nmtfc4jfftgqg369hs2ku6kvcncgzhkemq6mh0u3zgpslf59wr","addr1vy4nmtfc4jfftgqg369hs2ku6kvcncgzhkemq6mh0u3zgpslf59wr","addr1vy4nmtfc4jfftgqg369hs2ku6kvcncgzhkemq6mh0u3zgpslf59wr","addr1vy4nmtfc4jfftgqg369hs2ku6kvcncgzhkemq6mh0u3zgpslf59wr"],"addressesOutput":["addr1q8yyvyqp6rcwz5gy5ncyuyg6vp4xjdk65w8ttz40rh8lktz45n0lgsc6tsdw5c7gt2vx4h4y65uxtnr2uh3qvdxu7saqpt22p2","addr1qy85xp2gkmg6mvwxs9xz2h4cmumeyph4s6spakpkffudggcr67u9rwrcdq389swvmc77lkyn33pk236nfxsja5t4az8q2g6fxg","addr1q8jn8t9zx8zsm4jkz5y2jyky24dz9vpgzqfn4096hklflztzdeypktf3ecg95ren8a8x8e242muw2sh7amw3p59vnnlqq6l03g","addr1v82pgrcwa74ry0l2gd75pw0sxce56gfeamx4ty74lp6jtwcz86de9","addr1vy4nmtfc4jfftgqg369hs2ku6kvcncgzhkemq6mh0u3zgpslf59wr"],"fee":191850,"totalOutput":694442242415,"tokens":[]},{"hash":"353216a78963555f9f14980c3ebf9141b01ead101c5dec89a802d7e4601cd3d4","blockNo":8277561,"blockHash":"0521010d464baf6619fb86fce889c34621fe4cc37219a5ed7d208abc41e1339b","epochNo":388,"epochSlotNo":55351,"slot":82308151,"time":"2023/01/16 13:07:22","addressesInput":["addr1qxnta57y9nfwxkgu9v8q0vm52d960lj8a75h5faswjp0vygucyace2qfjpvgn2k3fcje74x9f5sc5083njmut2epnjrqzuy37y","addr1zxgx3far7qygq0k6epa0zcvcvrevmn0ypsnfsue94nsn3tvpw288a4x0xf8pxgcntelxmyclq83s0ykeehchz2wtspks905plm"],"addressesOutput":["addr1zxgx3far7qygq0k6epa0zcvcvrevmn0ypsnfsue94nsn3tvpw288a4x0xf8pxgcntelxmyclq83s0ykeehchz2wtspks905plm","addr1qxnta57y9nfwxkgu9v8q0vm52d960lj8a75h5faswjp0vygucyace2qfjpvgn2k3fcje74x9f5sc5083njmut2epnjrqzuy37y"],"fee":315876,"totalOutput":81004534,"tokens":[]},{"hash":"1fb2104c0f0fdb426db5092eefd9634cdf686e886a68fc6dc09e4cb0b0f7735e","blockNo":8277561,"blockHash":"0521010d464baf6619fb86fce889c34621fe4cc37219a5ed7d208abc41e1339b","epochNo":388,"epochSlotNo":55351,"slot":82308151,"time":"2023/01/16 13:07:22","addressesInput":["addr1q9afm3a9sdn25s0paekv4qhx2m5els4z8zzxlg92xdqw92s2pdtfzncahl8df9cney0fqfa2sfnl9xydc9eta07t7j3qteucz5","addr1zxgx3far7qygq0k6epa0zcvcvrevmn0ypsnfsue94nsn3tvpw288a4x0xf8pxgcntelxmyclq83s0ykeehchz2wtspks905plm"],"addressesOutput":["addr1q9afm3a9sdn25s0paekv4qhx2m5els4z8zzxlg92xdqw92s2pdtfzncahl8df9cney0fqfa2sfnl9xydc9eta07t7j3qteucz5","addr1q9afm3a9sdn25s0paekv4qhx2m5els4z8zzxlg92xdqw92s2pdtfzncahl8df9cney0fqfa2sfnl9xydc9eta07t7j3qteucz5"],"fee":266536,"totalOutput":49294088,"tokens":[]},{"hash":"4957a5d33fe889a63307785ae8721c117fdc08fe95b18a0337241586457b34ed","blockNo":8277561,"blockHash":"0521010d464baf6619fb86fce889c34621fe4cc37219a5ed7d208abc41e1339b","epochNo":388,"epochSlotNo":55351,"slot":82308151,"time":"2023/01/16 13:07:22","addressesInput":["addr1q9xgkt4mzxmlt7pfvng2sfyvy057myyguj5wvpwgzg0e9mwr4lzrsnkezdcqq2g60nzlt50rvz93gmw3xqx0379m2ydsddmvr2"],"addressesOutput":["addr1q9xgkt4mzxmlt7pfvng2sfyvy057myyguj5wvpwgzg0e9mwr4lzrsnkezdcqq2g60nzlt50rvz93gmw3xqx0379m2ydsddmvr2"],"fee":397100,"totalOutput":35697608,"tokens":[]},{"hash":"1c9d588caed6cdd98af08ed1c6c038a31d685e06a1133ac6430fa17318c3a7d1","blockNo":8277561,"blockHash":"0521010d464baf6619fb86fce889c34621fe4cc37219a5ed7d208abc41e1339b","epochNo":388,"epochSlotNo":55351,"slot":82308151,"time":"2023/01/16 13:07:22","addressesInput":["addr1qygfxd532r74ylahtatjwyzckxwg7yfryhdfduyea5ezu3pfvjetqk3vkx7u69vz4tqlh2zqwqglfvqrv3hmaj8xgjls83px35"],"addressesOutput":["addr1zxgx3far7qygq0k6epa0zcvcvrevmn0ypsnfsue94nsn3tvpw288a4x0xf8pxgcntelxmyclq83s0ykeehchz2wtspks905plm","addr1qygfxd532r74ylahtatjwyzckxwg7yfryhdfduyea5ezu3pfvjetqk3vkx7u69vz4tqlh2zqwqglfvqrv3hmaj8xgjls83px35"],"fee":225957,"totalOutput":134498789,"tokens":[]},{"hash":"7380e931b7fcbcf437684e76c5969ab807f451669b9280fa86e6ce923e8b8383","blockNo":8277561,"blockHash":"0521010d464baf6619fb86fce889c34621fe4cc37219a5ed7d208abc41e1339b","epochNo":388,"epochSlotNo":55351,"slot":82308151,"time":"2023/01/16 13:07:22","addressesInput":["addr1q8zlkul3z4d2feuasv5chpk8242g4uc2kpwu06470jt03tm45tpu3q697fw70l82ycf6qd2mcarfe6hf0zksxsduuadql8deyc","addr1q8zlkul3z4d2feuasv5chpk8242g4uc2kpwu06470jt03tm45tpu3q697fw70l82ycf6qd2mcarfe6hf0zksxsduuadql8deyc"],"addressesOutput":["addr1q9ad5mud938r7l24eaac4v57ydlj72hazgprts9f7daaz09mm95jvs5h94099yglxr7v6ug6pp43780huy040lm4utmqx8g5eu","addr1wxn9efv2f6w82hagxqtn62ju4m293tqvw0uhmdl64ch8uwc0h43gt","addr1q8zlkul3z4d2feuasv5chpk8242g4uc2kpwu06470jt03tm45tpu3q697fw70l82ycf6qd2mcarfe6hf0zksxsduuadql8deyc"],"fee":214338,"totalOutput":22031360,"tokens":[]},{"hash":"e8399eda5ac7cc36973b1482d9bd7d2a329479d0122801b958cc4105cc213b91","blockNo":8277561,"blockHash":"0521010d464baf6619fb86fce889c34621fe4cc37219a5ed7d208abc41e1339b","epochNo":388,"epochSlotNo":55351,"slot":82308151,"time":"2023/01/16 13:07:22","addressesInput":["addr1qyac7fq0dx2npdc4dyl5w7etp3655uuqj4y2ce7v4wfskgsqz384p7nddumpgj9v0dtl43uu3gsf4a6dc5swjkjngawqckpd6j","addr1qyac7fq0dx2npdc4dyl5w7etp3655uuqj4y2ce7v4wfskgsqz384p7nddumpgj9v0dtl43uu3gsf4a6dc5swjkjngawqckpd6j"],"addressesOutput":["addr1zyq0kyrml023kwjk8zr86d5gaxrt5w8lxnah8r6m6s4jp4g3r6dxnzml343sx8jweqn4vn3fz2kj8kgu9czghx0jrsyqqktyhv","addr1qyac7fq0dx2npdc4dyl5w7etp3655uuqj4y2ce7v4wfskgsqz384p7nddumpgj9v0dtl43uu3gsf4a6dc5swjkjngawqckpd6j"],"fee":414406,"totalOutput":40856655,"tokens":[]},{"hash":"44f615f99f7580d3e0c16380083dd17853fc8d2954bdf6c581de3acb35bf5488","blockNo":8277561,"blockHash":"0521010d464baf6619fb86fce889c34621fe4cc37219a5ed7d208abc41e1339b","epochNo":388,"epochSlotNo":55351,"slot":82308151,"time":"2023/01/16 13:07:22","addressesInput":["addr1qxkzuqetr9trwzpxav78kum67d7q9g0054klmm7239n8uhdcp7dm993j9np6u8j4mzs8que93kmm34e7st5z8a6snmzsytt40e","addr1wxwrp3hhg8xdddx7ecg6el2s2dj6h2c5g582yg2yxhupyns8feg4m","addr1qxkzuqetr9trwzpxav78kum67d7q9g0054klmm7239n8uhdcp7dm993j9np6u8j4mzs8que93kmm34e7st5z8a6snmzsytt40e"],"addressesOutput":["addr1qxkzuqetr9trwzpxav78kum67d7q9g0054klmm7239n8uhdcp7dm993j9np6u8j4mzs8que93kmm34e7st5z8a6snmzsytt40e","addr1qxkzuqetr9trwzpxav78kum67d7q9g0054klmm7239n8uhdcp7dm993j9np6u8j4mzs8que93kmm34e7st5z8a6snmzsytt40e","addr1qyfqcy3g76y2rsdu9vkt94gcttfcwylvlk5efj364d6cxfvfc52e7waehw8msmwgp7e5maa8l3jxzy087e6lh23fu27sp86j5h","addr1q89k76qyn5m4nh0v02pxyvzm50mvj2ls5qw4nwrp2phesssrx8ka50v2n45h8469p88gvfdfup753mk3d88fshrz8qvsa8tw79"],"fee":695487,"totalOutput":13001028613,"tokens":[]},{"hash":"b4331b9c0c98ab4c57cc6e5e0f20191990de98f9053130a100f369f66e1e42bf","blockNo":8277561,"blockHash":"0521010d464baf6619fb86fce889c34621fe4cc37219a5ed7d208abc41e1339b","epochNo":388,"epochSlotNo":55351,"slot":82308151,"time":"2023/01/16 13:07:22","addressesInput":["addr1qx3xez6pv5vcg3ykernzs4p2rlvpg2qewtm9pxmhtg7gx2pstxlnpsrryefn9klhmuyyuelhdpm5k36mzeu90uddvn0sv2sdhs","addr1q8qs3set8rcvnh84c4lf0kqkzxzjammmtutmuurudufzxw3stxlnpsrryefn9klhmuyyuelhdpm5k36mzeu90uddvn0stp08x9"],"addressesOutput":["addr1qyh5ckdrw5je2pqwj6whynl8cn7ufemnk9t5ses8a8ts5qzn90xj46cxksn72meue6ww0d38tdhy0cel0atfpfxkr7fspa9m0a"],"fee":173641,"totalOutput":6007299,"tokens":[]},{"hash":"42b21f07ca7b080b57b58e1e1549d7d2b956d7afb12a592462447e35cd32116b","blockNo":8277561,"blockHash":"0521010d464baf6619fb86fce889c34621fe4cc37219a5ed7d208abc41e1339b","epochNo":388,"epochSlotNo":55351,"slot":82308151,"time":"2023/01/16 13:07:22","addressesInput":["addr1zxgx3far7qygq0k6epa0zcvcvrevmn0ypsnfsue94nsn3tvpw288a4x0xf8pxgcntelxmyclq83s0ykeehchz2wtspks905plm","addr1q8d95d2gz67rvvsfg3hd6md8h73r9lsjd9h32z5fgqmvvk5k7vzxaq5t5mv5vvk90hn7pcx9qh46t0ke97nayaqdymyql7ejz9"],"addressesOutput":["addr1zxgx3far7qygq0k6epa0zcvcvrevmn0ypsnfsue94nsn3tvpw288a4x0xf8pxgcntelxmyclq83s0ykeehchz2wtspks905plm","addr1q8d95d2gz67rvvsfg3hd6md8h73r9lsjd9h32z5fgqmvvk5k7vzxaq5t5mv5vvk90hn7pcx9qh46t0ke97nayaqdymyql7ejz9","addr1q8d95d2gz67rvvsfg3hd6md8h73r9lsjd9h32z5fgqmvvk5k7vzxaq5t5mv5vvk90hn7pcx9qh46t0ke97nayaqdymyql7ejz9","addr1q8d95d2gz67rvvsfg3hd6md8h73r9lsjd9h32z5fgqmvvk5k7vzxaq5t5mv5vvk90hn7pcx9qh46t0ke97nayaqdymyql7ejz9"],"fee":330818,"totalOutput":412367789,"tokens":[]},{"hash":"8f4a4420d83835ab7ee62a02f120f96f894718ffc36813bfc3b9aa86e7a502ec","blockNo":8277561,"blockHash":"0521010d464baf6619fb86fce889c34621fe4cc37219a5ed7d208abc41e1339b","epochNo":388,"epochSlotNo":55351,"slot":82308151,"time":"2023/01/16 13:07:22","addressesInput":["addr1wxr2a8htmzuhj39y2gq7ftkpxv98y2g67tg8zezthgq4jkg0a4ul4"],"addressesOutput":["addr1qylv3ntev27um0htmwn8tht7awj25k4sp3xmwv557n0lmjrtnpgxqqgna4kyxw4h9jx4pa4xfgmq8f50rtj9mleps7lsvsl6sm"],"fee":240527,"totalOutput":203759473,"tokens":[]},{"hash":"99e0e1092a77acf0a666a989785fe49f92340956739e35676b3d508923b8ab1c","blockNo":8277561,"blockHash":"0521010d464baf6619fb86fce889c34621fe4cc37219a5ed7d208abc41e1339b","epochNo":388,"epochSlotNo":55351,"slot":82308151,"time":"2023/01/16 13:07:22","addressesInput":["addr1qxwmlj05snqs0hnqdqwukg59plq9hcjj6q3hah4wt2636dnm885465u384xjj6x435k6nf6jyxmn8u43rj5srqu3pnjqryfpnx"],"addressesOutput":["addr1vxlmd6xmduycc43ret8t5jnxwrnmrtt2228mrrxze8ghwcsg0qus9","addr1qxwmlj05snqs0hnqdqwukg59plq9hcjj6q3hah4wt2636dnm885465u384xjj6x435k6nf6jyxmn8u43rj5srqu3pnjqryfpnx","addr1qxwmlj05snqs0hnqdqwukg59plq9hcjj6q3hah4wt2636dnm885465u384xjj6x435k6nf6jyxmn8u43rj5srqu3pnjqryfpnx","addr1qxwmlj05snqs0hnqdqwukg59plq9hcjj6q3hah4wt2636dnm885465u384xjj6x435k6nf6jyxmn8u43rj5srqu3pnjqryfpnx","addr1qxwmlj05snqs0hnqdqwukg59plq9hcjj6q3hah4wt2636dnm885465u384xjj6x435k6nf6jyxmn8u43rj5srqu3pnjqryfpnx"],"fee":175665,"totalOutput":152941704,"tokens":[]},{"hash":"8a711638dfbd91646d9bc0de579d74cf69ec8cb3a6cd2c85e7f0028a962abf9a","blockNo":8277561,"blockHash":"0521010d464baf6619fb86fce889c34621fe4cc37219a5ed7d208abc41e1339b","epochNo":388,"epochSlotNo":55351,"slot":82308151,"time":"2023/01/16 13:07:22","addressesInput":["addr1q84skzp9vlytzkc33c2gve2xge2762reh2vcagtgkggchjue8wvrvg7ckhy2qk6zgl5yqd0q3gnsv3xuzrzrf53daqjs9370j3","addr1q84skzp9vlytzkc33c2gve2xge2762reh2vcagtgkggchjue8wvrvg7ckhy2qk6zgl5yqd0q3gnsv3xuzrzrf53daqjs9370j3","addr1q84skzp9vlytzkc33c2gve2xge2762reh2vcagtgkggchjue8wvrvg7ckhy2qk6zgl5yqd0q3gnsv3xuzrzrf53daqjs9370j3"],"addressesOutput":["addr1w960tgng7g9yvjcgdwk2gn75438zms79fy2wfuweyykr7qsqgx3wf","addr1q84skzp9vlytzkc33c2gve2xge2762reh2vcagtgkggchjue8wvrvg7ckhy2qk6zgl5yqd0q3gnsv3xuzrzrf53daqjs9370j3","addr1q84skzp9vlytzkc33c2gve2xge2762reh2vcagtgkggchjue8wvrvg7ckhy2qk6zgl5yqd0q3gnsv3xuzrzrf53daqjs9370j3"],"fee":413145,"totalOutput":28863196,"tokens":[]},{"hash":"81d6da12b064cd74260abe2eb260600c08b4a95d6dacf3b3a416cb750a6d17af","blockNo":8277561,"blockHash":"0521010d464baf6619fb86fce889c34621fe4cc37219a5ed7d208abc41e1339b","epochNo":388,"epochSlotNo":55351,"slot":82308151,"time":"2023/01/16 13:07:22","addressesInput":["addr1q8ww79v2crq0kfve6ksqe7darae79y52uf8fk0pd708enpv4npdqlnxy6awglp7rtaqgnzl4uz60avhtnqadtgthu5wq55ygd9"],"addressesOutput":["addr1q9ccsg36rpmq636e464af56daqe32p7ghpp6cf9re6slg5cjuw9nysyxc3d4ce0nj505nnzx7asc0dhq783a3ug2hmeqzas86z","addr1q8ww79v2crq0kfve6ksqe7darae79y52uf8fk0pd708enpv4npdqlnxy6awglp7rtaqgnzl4uz60avhtnqadtgthu5wq55ygd9"],"fee":169417,"totalOutput":368257506734,"tokens":[]},{"hash":"2fa9f1286ae9dd50b77565383c2d752fe97633b40c96d34fb48dbb52eada0202","blockNo":8277561,"blockHash":"0521010d464baf6619fb86fce889c34621fe4cc37219a5ed7d208abc41e1339b","epochNo":388,"epochSlotNo":55351,"slot":82308151,"time":"2023/01/16 13:07:22","addressesInput":["addr1qxqwyweuhfx0w65mj0n3l8knn0u37np5tgcl42wzl89u73kf8pcrregr8wyjx5wgtqfshak7d8zpq56sr3puywz4x64qu2cstr","addr1qxqwyweuhfx0w65mj0n3l8knn0u37np5tgcl42wzl89u73kf8pcrregr8wyjx5wgtqfshak7d8zpq56sr3puywz4x64qu2cstr"],"addressesOutput":["addr1zxgx3far7qygq0k6epa0zcvcvrevmn0ypsnfsue94nsn3tvpw288a4x0xf8pxgcntelxmyclq83s0ykeehchz2wtspks905plm","addr1qxqwyweuhfx0w65mj0n3l8knn0u37np5tgcl42wzl89u73kf8pcrregr8wyjx5wgtqfshak7d8zpq56sr3puywz4x64qu2cstr","addr1qxqwyweuhfx0w65mj0n3l8knn0u37np5tgcl42wzl89u73kf8pcrregr8wyjx5wgtqfshak7d8zpq56sr3puywz4x64qu2cstr","addr1qxqwyweuhfx0w65mj0n3l8knn0u37np5tgcl42wzl89u73kf8pcrregr8wyjx5wgtqfshak7d8zpq56sr3puywz4x64qu2cstr","addr1qxqwyweuhfx0w65mj0n3l8knn0u37np5tgcl42wzl89u73kf8pcrregr8wyjx5wgtqfshak7d8zpq56sr3puywz4x64qu2cstr"],"fee":304541,"totalOutput":177822658,"tokens":[]},{"hash":"f4b4633e5ce2013c8be94664e99d2da205d3c7a646889d647f91a6564656625c","blockNo":8277561,"blockHash":"0521010d464baf6619fb86fce889c34621fe4cc37219a5ed7d208abc41e1339b","epochNo":388,"epochSlotNo":55351,"slot":82308151,"time":"2023/01/16 13:07:22","addressesInput":["addr1q99fwtdarfvr9xnghmakydsrenstw50rzd0jmpekasfp54cpzt2uam3ecr6p7wx66dzy98l9uj74xujcl68ehhkelrpq7t7p8m","addr1q99fwtdarfvr9xnghmakydsrenstw50rzd0jmpekasfp54cpzt2uam3ecr6p7wx66dzy98l9uj74xujcl68ehhkelrpq7t7p8m"],"addressesOutput":["addr1q9vq79h8pspe9fq7skzl47ggqpch2dfvrwkyejra5ge4na4xq389vl663l8pteyhutwsp3xwgmpaup3s2nr7jvear3rsxzuppn","addr1q99fwtdarfvr9xnghmakydsrenstw50rzd0jmpekasfp54cpzt2uam3ecr6p7wx66dzy98l9uj74xujcl68ehhkelrpq7t7p8m"],"fee":171749,"totalOutput":47740452,"tokens":[]},{"hash":"065de446b5a702524756070181f0e5a91fdcbc4ef5f59fda4aee666853935418","blockNo":8277561,"blockHash":"0521010d464baf6619fb86fce889c34621fe4cc37219a5ed7d208abc41e1339b","epochNo":388,"epochSlotNo":55351,"slot":82308151,"time":"2023/01/16 13:07:22","addressesInput":["addr1qxnrv2quqxhvwxtxmygsmkufph4kjju6j5len7k2ljslpz8ql7k7gehlfvj6ektgu9ns8yx8epcp66337khxeq82rpgqe6lqyk"],"addressesOutput":["addr1qxnrv2quqxhvwxtxmygsmkufph4kjju6j5len7k2ljslpz8ql7k7gehlfvj6ektgu9ns8yx8epcp66337khxeq82rpgqe6lqyk","addr1qxnrv2quqxhvwxtxmygsmkufph4kjju6j5len7k2ljslpz8ql7k7gehlfvj6ektgu9ns8yx8epcp66337khxeq82rpgqe6lqyk","addr1qxnrv2quqxhvwxtxmygsmkufph4kjju6j5len7k2ljslpz8ql7k7gehlfvj6ektgu9ns8yx8epcp66337khxeq82rpgqe6lqyk","addr1qxnrv2quqxhvwxtxmygsmkufph4kjju6j5len7k2ljslpz8ql7k7gehlfvj6ektgu9ns8yx8epcp66337khxeq82rpgqe6lqyk","addr1qxnrv2quqxhvwxtxmygsmkufph4kjju6j5len7k2ljslpz8ql7k7gehlfvj6ektgu9ns8yx8epcp66337khxeq82rpgqe6lqyk","addr1qxnrv2quqxhvwxtxmygsmkufph4kjju6j5len7k2ljslpz8ql7k7gehlfvj6ektgu9ns8yx8epcp66337khxeq82rpgqe6lqyk","addr1qxnrv2quqxhvwxtxmygsmkufph4kjju6j5len7k2ljslpz8ql7k7gehlfvj6ektgu9ns8yx8epcp66337khxeq82rpgqe6lqyk","addr1qxnrv2quqxhvwxtxmygsmkufph4kjju6j5len7k2ljslpz8ql7k7gehlfvj6ektgu9ns8yx8epcp66337khxeq82rpgqe6lqyk","addr1qxnrv2quqxhvwxtxmygsmkufph4kjju6j5len7k2ljslpz8ql7k7gehlfvj6ektgu9ns8yx8epcp66337khxeq82rpgqe6lqyk","addr1qxnrv2quqxhvwxtxmygsmkufph4kjju6j5len7k2ljslpz8ql7k7gehlfvj6ektgu9ns8yx8epcp66337khxeq82rpgqe6lqyk","addr1qxnrv2quqxhvwxtxmygsmkufph4kjju6j5len7k2ljslpz8ql7k7gehlfvj6ektgu9ns8yx8epcp66337khxeq82rpgqe6lqyk","addr1qxnrv2quqxhvwxtxmygsmkufph4kjju6j5len7k2ljslpz8ql7k7gehlfvj6ektgu9ns8yx8epcp66337khxeq82rpgqe6lqyk","addr1qxnrv2quqxhvwxtxmygsmkufph4kjju6j5len7k2ljslpz8ql7k7gehlfvj6ektgu9ns8yx8epcp66337khxeq82rpgqe6lqyk","addr1qxnrv2quqxhvwxtxmygsmkufph4kjju6j5len7k2ljslpz8ql7k7gehlfvj6ektgu9ns8yx8epcp66337khxeq82rpgqe6lqyk","addr1qxnrv2quqxhvwxtxmygsmkufph4kjju6j5len7k2ljslpz8ql7k7gehlfvj6ektgu9ns8yx8epcp66337khxeq82rpgqe6lqyk","addr1qxnrv2quqxhvwxtxmygsmkufph4kjju6j5len7k2ljslpz8ql7k7gehlfvj6ektgu9ns8yx8epcp66337khxeq82rpgqe6lqyk","addr1qxnrv2quqxhvwxtxmygsmkufph4kjju6j5len7k2ljslpz8ql7k7gehlfvj6ektgu9ns8yx8epcp66337khxeq82rpgqe6lqyk","addr1qxnrv2quqxhvwxtxmygsmkufph4kjju6j5len7k2ljslpz8ql7k7gehlfvj6ektgu9ns8yx8epcp66337khxeq82rpgqe6lqyk","addr1qxnrv2quqxhvwxtxmygsmkufph4kjju6j5len7k2ljslpz8ql7k7gehlfvj6ektgu9ns8yx8epcp66337khxeq82rpgqe6lqyk","addr1qxnrv2quqxhvwxtxmygsmkufph4kjju6j5len7k2ljslpz8ql7k7gehlfvj6ektgu9ns8yx8epcp66337khxeq82rpgqe6lqyk","addr1qxnrv2quqxhvwxtxmygsmkufph4kjju6j5len7k2ljslpz8ql7k7gehlfvj6ektgu9ns8yx8epcp66337khxeq82rpgqe6lqyk","addr1qxnrv2quqxhvwxtxmygsmkufph4kjju6j5len7k2ljslpz8ql7k7gehlfvj6ektgu9ns8yx8epcp66337khxeq82rpgqe6lqyk","addr1qxnrv2quqxhvwxtxmygsmkufph4kjju6j5len7k2ljslpz8ql7k7gehlfvj6ektgu9ns8yx8epcp66337khxeq82rpgqe6lqyk","addr1qxnrv2quqxhvwxtxmygsmkufph4kjju6j5len7k2ljslpz8ql7k7gehlfvj6ektgu9ns8yx8epcp66337khxeq82rpgqe6lqyk"],"fee":231017,"totalOutput":11501618983,"tokens":[]},{"hash":"18c92fcabe2d36069891f1efb59abfa6aa6a5bbffef2d5b4c22451e903f160fb","blockNo":8277561,"blockHash":"0521010d464baf6619fb86fce889c34621fe4cc37219a5ed7d208abc41e1339b","epochNo":388,"epochSlotNo":55351,"slot":82308151,"time":"2023/01/16 13:07:22","addressesInput":["addr1qyuy4anzs863lqut9pmmjdd0hvx3m9x2f4qfr5uthr7rg8ud9emzjh7pkl6td9ypm2f7qn8vsmlnk0ha4dfg9239q86qay0dxt","addr1qyuy4anzs863lqut9pmmjdd0hvx3m9x2f4qfr5uthr7rg8ud9emzjh7pkl6td9ypm2f7qn8vsmlnk0ha4dfg9239q86qay0dxt"],"addressesOutput":["addr1q8fwev2r3un65kzcf7e6qn3zwzkkwnhcag7snzljhltvmz8rs790wsvw4fuqga0c8ghfmq0h0l50pmmpwf0qffnlj5vqamvjsl","addr1qyuy4anzs863lqut9pmmjdd0hvx3m9x2f4qfr5uthr7rg8ud9emzjh7pkl6td9ypm2f7qn8vsmlnk0ha4dfg9239q86qay0dxt","addr1qyuy4anzs863lqut9pmmjdd0hvx3m9x2f4qfr5uthr7rg8ud9emzjh7pkl6td9ypm2f7qn8vsmlnk0ha4dfg9239q86qay0dxt","addr1qyuy4anzs863lqut9pmmjdd0hvx3m9x2f4qfr5uthr7rg8ud9emzjh7pkl6td9ypm2f7qn8vsmlnk0ha4dfg9239q86qay0dxt","addr1qyuy4anzs863lqut9pmmjdd0hvx3m9x2f4qfr5uthr7rg8ud9emzjh7pkl6td9ypm2f7qn8vsmlnk0ha4dfg9239q86qay0dxt","addr1qyuy4anzs863lqut9pmmjdd0hvx3m9x2f4qfr5uthr7rg8ud9emzjh7pkl6td9ypm2f7qn8vsmlnk0ha4dfg9239q86qay0dxt","addr1qyuy4anzs863lqut9pmmjdd0hvx3m9x2f4qfr5uthr7rg8ud9emzjh7pkl6td9ypm2f7qn8vsmlnk0ha4dfg9239q86qay0dxt","addr1qyuy4anzs863lqut9pmmjdd0hvx3m9x2f4qfr5uthr7rg8ud9emzjh7pkl6td9ypm2f7qn8vsmlnk0ha4dfg9239q86qay0dxt","addr1qyuy4anzs863lqut9pmmjdd0hvx3m9x2f4qfr5uthr7rg8ud9emzjh7pkl6td9ypm2f7qn8vsmlnk0ha4dfg9239q86qay0dxt","addr1qyuy4anzs863lqut9pmmjdd0hvx3m9x2f4qfr5uthr7rg8ud9emzjh7pkl6td9ypm2f7qn8vsmlnk0ha4dfg9239q86qay0dxt"],"fee":351973,"totalOutput":152569239,"tokens":[]},{"hash":"82208ef080960e846e89f690300fe28a6db5f4069c555054be01cde93b39c3dc","blockNo":8277561,"blockHash":"0521010d464baf6619fb86fce889c34621fe4cc37219a5ed7d208abc41e1339b","epochNo":388,"epochSlotNo":55351,"slot":82308151,"time":"2023/01/16 13:07:22","addressesInput":["addr1q9wap4kkygvlthu9a60rdynnppg2wv5ua0len2rvgwh7hmgdces3vh6f3krkh9mru5ydm9zhyxcvv8uel565qn9dtn3qu9wds3","addr1zxgx3far7qygq0k6epa0zcvcvrevmn0ypsnfsue94nsn3tvpw288a4x0xf8pxgcntelxmyclq83s0ykeehchz2wtspks905plm"],"addressesOutput":["addr1zxgx3far7qygq0k6epa0zcvcvrevmn0ypsnfsue94nsn3tvpw288a4x0xf8pxgcntelxmyclq83s0ykeehchz2wtspks905plm","addr1q9wap4kkygvlthu9a60rdynnppg2wv5ua0len2rvgwh7hmgdces3vh6f3krkh9mru5ydm9zhyxcvv8uel565qn9dtn3qu9wds3"],"fee":314834,"totalOutput":14011096,"tokens":[]}],"totalItems":59130883,"totalPages":2956545,"currentPage":0}