{"data":[{"hash":"31b0c9ab72ee79925415775ea79b8f22285b5b5d268fd5858f2a01a8ce1f02e2","blockNo":7790425,"blockHash":"f12b24a755e306b36758ab1005d92b7e9c1511cf4fe740d44364424c54456484","epochNo":364,"epochSlotNo":405695,"slot":72290495,"time":"2022/09/22 14:26:26","addressesInput":["addr1qx0z5dyklx54edpyrx2rzewm3faq5uy2h5zuclar0u93p04y02uuqwlz8ltrargks536j2swn28x8qzgjnuewezctngqznn3cx","addr1qx0z5dyklx54edpyrx2rzewm3faq5uy2h5zuclar0u93p04y02uuqwlz8ltrargks536j2swn28x8qzgjnuewezctngqznn3cx"],"addressesOutput":["addr1qx0z5dyklx54edpyrx2rzewm3faq5uy2h5zuclar0u93p04y02uuqwlz8ltrargks536j2swn28x8qzgjnuewezctngqznn3cx","addr1qx0z5dyklx54edpyrx2rzewm3faq5uy2h5zuclar0u93p04y02uuqwlz8ltrargks536j2swn28x8qzgjnuewezctngqznn3cx","addr1qx0z5dyklx54edpyrx2rzewm3faq5uy2h5zuclar0u93p04y02uuqwlz8ltrargks536j2swn28x8qzgjnuewezctngqznn3cx"],"fee":175005,"totalOutput":52737959,"tokens":[]},{"hash":"effa3af4eff1f7228744ab1fa7e6fe020b0f13d50d7c33743467c63bae8466fc","blockNo":7790425,"blockHash":"f12b24a755e306b36758ab1005d92b7e9c1511cf4fe740d44364424c54456484","epochNo":364,"epochSlotNo":405695,"slot":72290495,"time":"2022/09/22 14:26:26","addressesInput":["addr1q9g4vtgq687vyulesskkjpst9dgnm3esuq9xdw0h9sfahgt6wxzqh7a7ygem6ulp7c7klqwgpucx3dgyyvpvedt6rhnq24k3gc"],"addressesOutput":["addr1q8p0cww0g0aqfl0mrl55lx2xzf6js3ualq3zf6tp7z6839t6wxzqh7a7ygem6ulp7c7klqwgpucx3dgyyvpvedt6rhnqeqxxuk"],"fee":171573,"totalOutput":19820982,"tokens":[]},{"hash":"a819bdabc603be056dd9509f49eee66bde5df111a24e3afb9fa1e440fb7872e5","blockNo":7790425,"blockHash":"f12b24a755e306b36758ab1005d92b7e9c1511cf4fe740d44364424c54456484","epochNo":364,"epochSlotNo":405695,"slot":72290495,"time":"2022/09/22 14:26:26","addressesInput":["addr1q9dleus8evvxr7vx5vxv30wtkqr0yz0z2qad9rrj8jqyu799fej8zc6zx3e5csj8g5rqy7qexjs6jtcfkvgwnfgq6rts8ptzs9","addr1zxj47sy4qxlktqzmkrw8dahe46gtv8seakrshsqz26qnvzypw288a4x0xf8pxgcntelxmyclq83s0ykeehchz2wtspksr3q9nx"],"addressesOutput":["addr1q9dleus8evvxr7vx5vxv30wtkqr0yz0z2qad9rrj8jqyu799fej8zc6zx3e5csj8g5rqy7qexjs6jtcfkvgwnfgq6rts8ptzs9","addr1q9dleus8evvxr7vx5vxv30wtkqr0yz0z2qad9rrj8jqyu799fej8zc6zx3e5csj8g5rqy7qexjs6jtcfkvgwnfgq6rts8ptzs9","addr1q9dleus8evvxr7vx5vxv30wtkqr0yz0z2qad9rrj8jqyu799fej8zc6zx3e5csj8g5rqy7qexjs6jtcfkvgwnfgq6rts8ptzs9"],"fee":501984,"totalOutput":217142910,"tokens":[]},{"hash":"d1fd7599743110f38419a371b3c960963b6033e04f25d6abf97f6211701adcf5","blockNo":7790425,"blockHash":"f12b24a755e306b36758ab1005d92b7e9c1511cf4fe740d44364424c54456484","epochNo":364,"epochSlotNo":405695,"slot":72290495,"time":"2022/09/22 14:26:26","addressesInput":["addr1qyav505lts53e2e4jny8q5ycck5rutjrv49uw3dj6wxd6s7rjmnskvzg53pwxf48a0hhzuy45xus0qchzjkmd9me5s2smte640","addr1qyav505lts53e2e4jny8q5ycck5rutjrv49uw3dj6wxd6s7rjmnskvzg53pwxf48a0hhzuy45xus0qchzjkmd9me5s2smte640","addr1qyav505lts53e2e4jny8q5ycck5rutjrv49uw3dj6wxd6s7rjmnskvzg53pwxf48a0hhzuy45xus0qchzjkmd9me5s2smte640","addr1qyav505lts53e2e4jny8q5ycck5rutjrv49uw3dj6wxd6s7rjmnskvzg53pwxf48a0hhzuy45xus0qchzjkmd9me5s2smte640","addr1qyav505lts53e2e4jny8q5ycck5rutjrv49uw3dj6wxd6s7rjmnskvzg53pwxf48a0hhzuy45xus0qchzjkmd9me5s2smte640","addr1qyav505lts53e2e4jny8q5ycck5rutjrv49uw3dj6wxd6s7rjmnskvzg53pwxf48a0hhzuy45xus0qchzjkmd9me5s2smte640"],"addressesOutput":["DdzFFzCqrhswPYiGdjcJVrTyu6c4WJvMMbuCyBhD7Y3smkpCrTekHWdQkwRmWW9HgMwZoBuCp9c8DpgcvuuqMhc2cY2Z88ZLGFYdHhFG","addr1qyav505lts53e2e4jny8q5ycck5rutjrv49uw3dj6wxd6s7rjmnskvzg53pwxf48a0hhzuy45xus0qchzjkmd9me5s2smte640","addr1qyav505lts53e2e4jny8q5ycck5rutjrv49uw3dj6wxd6s7rjmnskvzg53pwxf48a0hhzuy45xus0qchzjkmd9me5s2smte640"],"fee":255085,"totalOutput":309872993,"tokens":[]},{"hash":"8f3ad0a514bf399324fafe7c79b5c9e46e5d7f35ea82212d88ea786ee43ed827","blockNo":7790425,"blockHash":"f12b24a755e306b36758ab1005d92b7e9c1511cf4fe740d44364424c54456484","epochNo":364,"epochSlotNo":405695,"slot":72290495,"time":"2022/09/22 14:26:26","addressesInput":["addr1qxkmr0m22xeqludcg5rjdmecjxasu9fat0680qehtcsnftaadgykewa9ufvegeuca9yyq03d9v7ea2y2zthgu7hfgjtsddp6gr","addr1qxkmr0m22xeqludcg5rjdmecjxasu9fat0680qehtcsnftaadgykewa9ufvegeuca9yyq03d9v7ea2y2zthgu7hfgjtsddp6gr","addr1qxkmr0m22xeqludcg5rjdmecjxasu9fat0680qehtcsnftaadgykewa9ufvegeuca9yyq03d9v7ea2y2zthgu7hfgjtsddp6gr"],"addressesOutput":["addr1qxkmr0m22xeqludcg5rjdmecjxasu9fat0680qehtcsnftaadgykewa9ufvegeuca9yyq03d9v7ea2y2zthgu7hfgjtsddp6gr","addr1qydyhdlp509gtwwt8enwjmerr68n5muj5g792r0ah4am5t68yf39a9s9efmxgqj0mvs8fzk3kp2h2jk7hhe5pxx28plsxfm6kv","addr1qxkmr0m22xeqludcg5rjdmecjxasu9fat0680qehtcsnftaadgykewa9ufvegeuca9yyq03d9v7ea2y2zthgu7hfgjtsddp6gr"],"fee":241313,"totalOutput":94944095952,"tokens":[]},{"hash":"34569f7b3c621c8fdae4d00aa3838037e27c2c0903d43e22c50b0a2693c806e9","blockNo":7790424,"blockHash":"bd0aac285f88c9a50a5bfce7c87891b00780d2dc2dc2280331b6af4b2e2049db","epochNo":364,"epochSlotNo":405691,"slot":72290491,"time":"2022/09/22 14:26:22","addressesInput":["addr1qx2xrpzy0uar2z6s4gh6n0kymuredsl8fu2ja0stk8sgjhvda7h64qgj7wjwt8pp0mehnf4c4gzcsrv4454e20n2slyszpemat","addr1qx2xrpzy0uar2z6s4gh6n0kymuredsl8fu2ja0stk8sgjhvda7h64qgj7wjwt8pp0mehnf4c4gzcsrv4454e20n2slyszpemat"],"addressesOutput":["addr1qytajda08pnf49ql0sls39hj42xh2kvm9us5wd00t4s9dwukqq5kj4wl8r78tdxfxsjxk7w4txe25mkak68rxahj5daqj42lr5"],"fee":353557,"totalOutput":473285713,"tokens":[]},{"hash":"b4f11cc3a69410cf53256feaae1ba16bcb4a5347d4a7db3a3b4ecf4920212100","blockNo":7790424,"blockHash":"bd0aac285f88c9a50a5bfce7c87891b00780d2dc2dc2280331b6af4b2e2049db","epochNo":364,"epochSlotNo":405691,"slot":72290491,"time":"2022/09/22 14:26:22","addressesInput":["addr1q9s3t02zdjprcxsmwunqk87zly2ylgclddwj8k4d6rfvt8nnva2czudnjtazqzt20xgyw84mw6v6t3y7fg3y5fxq9ajqkx74wj"],"addressesOutput":["addr1zxj47sy4qxlktqzmkrw8dahe46gtv8seakrshsqz26qnvzypw288a4x0xf8pxgcntelxmyclq83s0ykeehchz2wtspksr3q9nx","addr1q9s3t02zdjprcxsmwunqk87zly2ylgclddwj8k4d6rfvt8nnva2czudnjtazqzt20xgyw84mw6v6t3y7fg3y5fxq9ajqkx74wj","addr1q9s3t02zdjprcxsmwunqk87zly2ylgclddwj8k4d6rfvt8nnva2czudnjtazqzt20xgyw84mw6v6t3y7fg3y5fxq9ajqkx74wj"],"fee":424221,"totalOutput":62713502,"tokens":[]},{"hash":"a573d609b5260ddd04af4bcf89881fa75bb04c36ee4150d8e2ca786f64b1b718","blockNo":7790424,"blockHash":"bd0aac285f88c9a50a5bfce7c87891b00780d2dc2dc2280331b6af4b2e2049db","epochNo":364,"epochSlotNo":405691,"slot":72290491,"time":"2022/09/22 14:26:22","addressesInput":["addr1qyznhp8pwgkcqt924x8rjug8l58p7rftmmq05syh0fg539rc2wurs49aj5ddtplz7mghtar59kw9tjefjg9slkgaaqds7x03rh","addr1qyznhp8pwgkcqt924x8rjug8l58p7rftmmq05syh0fg539rc2wurs49aj5ddtplz7mghtar59kw9tjefjg9slkgaaqds7x03rh","addr1qyznhp8pwgkcqt924x8rjug8l58p7rftmmq05syh0fg539rc2wurs49aj5ddtplz7mghtar59kw9tjefjg9slkgaaqds7x03rh","addr1qyznhp8pwgkcqt924x8rjug8l58p7rftmmq05syh0fg539rc2wurs49aj5ddtplz7mghtar59kw9tjefjg9slkgaaqds7x03rh","addr1qyznhp8pwgkcqt924x8rjug8l58p7rftmmq05syh0fg539rc2wurs49aj5ddtplz7mghtar59kw9tjefjg9slkgaaqds7x03rh","addr1qyznhp8pwgkcqt924x8rjug8l58p7rftmmq05syh0fg539rc2wurs49aj5ddtplz7mghtar59kw9tjefjg9slkgaaqds7x03rh","addr1qyznhp8pwgkcqt924x8rjug8l58p7rftmmq05syh0fg539rc2wurs49aj5ddtplz7mghtar59kw9tjefjg9slkgaaqds7x03rh","addr1qyznhp8pwgkcqt924x8rjug8l58p7rftmmq05syh0fg539rc2wurs49aj5ddtplz7mghtar59kw9tjefjg9slkgaaqds7x03rh","addr1qyznhp8pwgkcqt924x8rjug8l58p7rftmmq05syh0fg539rc2wurs49aj5ddtplz7mghtar59kw9tjefjg9slkgaaqds7x03rh","addr1qyznhp8pwgkcqt924x8rjug8l58p7rftmmq05syh0fg539rc2wurs49aj5ddtplz7mghtar59kw9tjefjg9slkgaaqds7x03rh"],"addressesOutput":["addr1q800l04ntfz3fhdacn3y524mehjek3f6zlpd8v9yw0p2l9mhmd0nudm8gkrxz6aefa35935zkkvs6zv759h6kpr2ptssmpma9w","addr1qyznhp8pwgkcqt924x8rjug8l58p7rftmmq05syh0fg539rc2wurs49aj5ddtplz7mghtar59kw9tjefjg9slkgaaqds7x03rh","addr1qyznhp8pwgkcqt924x8rjug8l58p7rftmmq05syh0fg539rc2wurs49aj5ddtplz7mghtar59kw9tjefjg9slkgaaqds7x03rh"],"fee":315717,"totalOutput":74417180,"tokens":[]},{"hash":"fdcfa12c4401c65352af5140caf9488bccf26049f1f2dcf9be6c78880a8c9b9b","blockNo":7790424,"blockHash":"bd0aac285f88c9a50a5bfce7c87891b00780d2dc2dc2280331b6af4b2e2049db","epochNo":364,"epochSlotNo":405691,"slot":72290491,"time":"2022/09/22 14:26:22","addressesInput":["addr1qyaevqf2yua6yucg7jr55jeghkarndk6ce9dn76g7j5wymzyzh68tn29k5n49zmr5nd3kx46g92vngh6gtx35yf75ucstmn0uu","addr1qyaevqf2yua6yucg7jr55jeghkarndk6ce9dn76g7j5wymzyzh68tn29k5n49zmr5nd3kx46g92vngh6gtx35yf75ucstmn0uu"],"addressesOutput":["addr1zxj47sy4qxlktqzmkrw8dahe46gtv8seakrshsqz26qnvzypw288a4x0xf8pxgcntelxmyclq83s0ykeehchz2wtspksr3q9nx","addr1qyaevqf2yua6yucg7jr55jeghkarndk6ce9dn76g7j5wymzyzh68tn29k5n49zmr5nd3kx46g92vngh6gtx35yf75ucstmn0uu","addr1qyaevqf2yua6yucg7jr55jeghkarndk6ce9dn76g7j5wymzyzh68tn29k5n49zmr5nd3kx46g92vngh6gtx35yf75ucstmn0uu"],"fee":278273,"totalOutput":23304202,"tokens":[]},{"hash":"19c1802060e1ba95f3b3323141b9ae78fe46e434ef1b4ca2b5977c2f4cc5de96","blockNo":7790424,"blockHash":"bd0aac285f88c9a50a5bfce7c87891b00780d2dc2dc2280331b6af4b2e2049db","epochNo":364,"epochSlotNo":405691,"slot":72290491,"time":"2022/09/22 14:26:22","addressesInput":["addr1zxj47sy4qxlktqzmkrw8dahe46gtv8seakrshsqz26qnvzypw288a4x0xf8pxgcntelxmyclq83s0ykeehchz2wtspksr3q9nx","addr1qyysd0y7030prla8jvlrjxe743ecvesyvask8xv4333wvphcjfqzv82nszgmhm9zha930vj4flspmftyv6v53jwnpk3qum9zmy","addr1qyysd0y7030prla8jvlrjxe743ecvesyvask8xv4333wvphcjfqzv82nszgmhm9zha930vj4flspmftyv6v53jwnpk3qum9zmy"],"addressesOutput":["addr1zxj47sy4qxlktqzmkrw8dahe46gtv8seakrshsqz26qnvzypw288a4x0xf8pxgcntelxmyclq83s0ykeehchz2wtspksr3q9nx","addr1qyysd0y7030prla8jvlrjxe743ecvesyvask8xv4333wvphcjfqzv82nszgmhm9zha930vj4flspmftyv6v53jwnpk3qum9zmy"],"fee":548133,"totalOutput":3210405,"tokens":[]},{"hash":"c6cb52fffe6af8ff303d9736407d97ae76d8486f4b1f969125d9a709a694fd50","blockNo":7790424,"blockHash":"bd0aac285f88c9a50a5bfce7c87891b00780d2dc2dc2280331b6af4b2e2049db","epochNo":364,"epochSlotNo":405691,"slot":72290491,"time":"2022/09/22 14:26:22","addressesInput":["addr1q8h972tjc3yfnmzx9v08pahn0lp38wydrdpvapclj85rvs9w9p3x34q8fdtfzsqdz8rge7vz8ldyv3mjn389q75jehqqwnnekr"],"addressesOutput":["addr1v8nsen99jj434j555esnht3gyxptzzrshkpf6thcuqqhhycqux49n","addr1qyuc3s6d7ss4vw7n2yg2nlg0d96rss7z4aky4r56g6q7dkaw9p3x34q8fdtfzsqdz8rge7vz8ldyv3mjn389q75jehqqrgv5dy"],"fee":166821,"totalOutput":577916358,"tokens":[]},{"hash":"4c5163e03fdf2877ca3437ef3bf5c1128613011bbe537609aa8581753e5cf811","blockNo":7790424,"blockHash":"bd0aac285f88c9a50a5bfce7c87891b00780d2dc2dc2280331b6af4b2e2049db","epochNo":364,"epochSlotNo":405691,"slot":72290491,"time":"2022/09/22 14:26:22","addressesInput":["addr1qx5dr7095cdf8s7wlt9tzqh7ndfn6krdqwjm2rzlcl95agata3jvhdmk4xzl3jhj9npwsmxyk77dc28rul8zz4tjv8msks8m6f","addr1qyckntusayttv62vl4rax85rxktq3jr455rw3qsk93gez74ta3jvhdmk4xzl3jhj9npwsmxyk77dc28rul8zz4tjv8ms2k89n8"],"addressesOutput":["addr1zxj47sy4qxlktqzmkrw8dahe46gtv8seakrshsqz26qnvzypw288a4x0xf8pxgcntelxmyclq83s0ykeehchz2wtspksr3q9nx","addr1qx5dr7095cdf8s7wlt9tzqh7ndfn6krdqwjm2rzlcl95agata3jvhdmk4xzl3jhj9npwsmxyk77dc28rul8zz4tjv8msks8m6f","addr1qx5dr7095cdf8s7wlt9tzqh7ndfn6krdqwjm2rzlcl95agata3jvhdmk4xzl3jhj9npwsmxyk77dc28rul8zz4tjv8msks8m6f"],"fee":214649,"totalOutput":143351907,"tokens":[]},{"hash":"50feb111aa82e6da46c749ef5ce746681c769ab6583112962ba690c0c8cd1a18","blockNo":7790424,"blockHash":"bd0aac285f88c9a50a5bfce7c87891b00780d2dc2dc2280331b6af4b2e2049db","epochNo":364,"epochSlotNo":405691,"slot":72290491,"time":"2022/09/22 14:26:22","addressesInput":["addr1q9g5cnxa6rpv58g4m035fm89gftq2k9uy3kkqqvkpctjn5ld94p770f0dqp9n03p3kzn8cgqza9qfvpyaupu8m8ect0q9px04a","addr1q9g5cnxa6rpv58g4m035fm89gftq2k9uy3kkqqvkpctjn5ld94p770f0dqp9n03p3kzn8cgqza9qfvpyaupu8m8ect0q9px04a"],"addressesOutput":["addr1q9g5cnxa6rpv58g4m035fm89gftq2k9uy3kkqqvkpctjn5ld94p770f0dqp9n03p3kzn8cgqza9qfvpyaupu8m8ect0q9px04a","addr1q9g5cnxa6rpv58g4m035fm89gftq2k9uy3kkqqvkpctjn5ld94p770f0dqp9n03p3kzn8cgqza9qfvpyaupu8m8ect0q9px04a","addr1q9g5cnxa6rpv58g4m035fm89gftq2k9uy3kkqqvkpctjn5ld94p770f0dqp9n03p3kzn8cgqza9qfvpyaupu8m8ect0q9px04a"],"fee":186225,"totalOutput":196443376,"tokens":[]},{"hash":"dde2e8bb5689d452c444117d908bd64b3692aa5f944dc82ef4c0c270fcf74a84","blockNo":7790424,"blockHash":"bd0aac285f88c9a50a5bfce7c87891b00780d2dc2dc2280331b6af4b2e2049db","epochNo":364,"epochSlotNo":405691,"slot":72290491,"time":"2022/09/22 14:26:22","addressesInput":["addr1qxq9p7pqy4gz53uvzj9ewhlkp6qg2xk04sn5s8vdq4jj0fnfs8ypnz32qdmweqy6034zv6wjgvrm2mvsn3sflhyahvkqfpa5gu","addr1qxq9p7pqy4gz53uvzj9ewhlkp6qg2xk04sn5s8vdq4jj0fnfs8ypnz32qdmweqy6034zv6wjgvrm2mvsn3sflhyahvkqfpa5gu","addr1qxq9p7pqy4gz53uvzj9ewhlkp6qg2xk04sn5s8vdq4jj0fnfs8ypnz32qdmweqy6034zv6wjgvrm2mvsn3sflhyahvkqfpa5gu"],"addressesOutput":["addr1zxj47sy4qxlktqzmkrw8dahe46gtv8seakrshsqz26qnvzypw288a4x0xf8pxgcntelxmyclq83s0ykeehchz2wtspksr3q9nx","addr1qxq9p7pqy4gz53uvzj9ewhlkp6qg2xk04sn5s8vdq4jj0fnfs8ypnz32qdmweqy6034zv6wjgvrm2mvsn3sflhyahvkqfpa5gu","addr1qxq9p7pqy4gz53uvzj9ewhlkp6qg2xk04sn5s8vdq4jj0fnfs8ypnz32qdmweqy6034zv6wjgvrm2mvsn3sflhyahvkqfpa5gu"],"fee":218213,"totalOutput":63520536,"tokens":[]},{"hash":"2b7e3dfb3e71fb2484f335e16436aa88b5129d733378032929799ec278b48a9d","blockNo":7790424,"blockHash":"bd0aac285f88c9a50a5bfce7c87891b00780d2dc2dc2280331b6af4b2e2049db","epochNo":364,"epochSlotNo":405691,"slot":72290491,"time":"2022/09/22 14:26:22","addressesInput":["addr1qxd3702qrejygzv36m6cw5lwxwm5g9dwzqms8k90ngqmzq94t5lat5gsdyugjwgzqt0zfm34m3lm6gq4xjuw66prylnsz4q7lj","addr1qxd3702qrejygzv36m6cw5lwxwm5g9dwzqms8k90ngqmzq94t5lat5gsdyugjwgzqt0zfm34m3lm6gq4xjuw66prylnsz4q7lj"],"addressesOutput":["addr1zxj47sy4qxlktqzmkrw8dahe46gtv8seakrshsqz26qnvzypw288a4x0xf8pxgcntelxmyclq83s0ykeehchz2wtspksr3q9nx","addr1qxd3702qrejygzv36m6cw5lwxwm5g9dwzqms8k90ngqmzq94t5lat5gsdyugjwgzqt0zfm34m3lm6gq4xjuw66prylnsz4q7lj","addr1qxd3702qrejygzv36m6cw5lwxwm5g9dwzqms8k90ngqmzq94t5lat5gsdyugjwgzqt0zfm34m3lm6gq4xjuw66prylnsz4q7lj","addr1qxd3702qrejygzv36m6cw5lwxwm5g9dwzqms8k90ngqmzq94t5lat5gsdyugjwgzqt0zfm34m3lm6gq4xjuw66prylnsz4q7lj"],"fee":212933,"totalOutput":212693349,"tokens":[]},{"hash":"05cd73c8e10b61cb500a4bad82e13447eaa95e75c83269337e7e1857135dba67","blockNo":7790424,"blockHash":"bd0aac285f88c9a50a5bfce7c87891b00780d2dc2dc2280331b6af4b2e2049db","epochNo":364,"epochSlotNo":405691,"slot":72290491,"time":"2022/09/22 14:26:22","addressesInput":["addr1q9v2fx3hmpw0tmxzl28myuyth2unsplssezx2kmqsr8ldl2nspmyawnntvf3mmxrpwr87vryq6pnuherxujcn7d94ekq4pecu6"],"addressesOutput":["addr1v978spzyyzs5mfe2c6nseg0mthp7u8qeu6l440y4ww4e2sc65je2h","addr1q9v2fx3hmpw0tmxzl28myuyth2unsplssezx2kmqsr8ldl2nspmyawnntvf3mmxrpwr87vryq6pnuherxujcn7d94ekq4pecu6"],"fee":178701,"totalOutput":999821299,"tokens":[]},{"hash":"621cf6bb17ba4edf8fd13190dd2fb293f3f4785a0567917b5cc3f4d2517debf9","blockNo":7790424,"blockHash":"bd0aac285f88c9a50a5bfce7c87891b00780d2dc2dc2280331b6af4b2e2049db","epochNo":364,"epochSlotNo":405691,"slot":72290491,"time":"2022/09/22 14:26:22","addressesInput":["addr1vypr00ss7hkqejmvh53xkyf0p9q0a4z2uprxmx6njc463vgst3pe4"],"addressesOutput":["addr1qyrusf8m9xr7ghh8gmf84lxzjtuaqwyg0e4s26uzva20zepwlzvke9zex4nzq29gg7hqf2vcw40daknkeznjq3c2jxjs09qg6n","addr1v95sf69jcfhnmknvffwmfvlvnccatqwfjcyh0nlfc6gh5scta2yzg"],"fee":171221,"totalOutput":215478848,"tokens":[]},{"hash":"c46bd7ed93f23c1eca54b5e0c789adff4878a05cc9108eb47a20e9a7c260fd8c","blockNo":7790424,"blockHash":"bd0aac285f88c9a50a5bfce7c87891b00780d2dc2dc2280331b6af4b2e2049db","epochNo":364,"epochSlotNo":405691,"slot":72290491,"time":"2022/09/22 14:26:22","addressesInput":["addr1q8syrqvsaaqm04gfqhy7w9cdygaacspec4tt7jj4x0x0l8cnrvf9mjgrxtsdgn7c2lkq0m2sj6v362f2tnqksr3x5wtsj5myf0","addr1q8syrqvsaaqm04gfqhy7w9cdygaacspec4tt7jj4x0x0l8cnrvf9mjgrxtsdgn7c2lkq0m2sj6v362f2tnqksr3x5wtsj5myf0"],"addressesOutput":["addr1qyxt3a07kt05cfs5zvxcyn6fv2g3jfr6zkuzeas5vdhlsuqnrvf9mjgrxtsdgn7c2lkq0m2sj6v362f2tnqksr3x5wtse2y7e7"],"fee":168845,"totalOutput":3175953,"tokens":[]},{"hash":"b996b3a1f1045c72d2846301e407d41b854705636f2babd38ca746baed736711","blockNo":7790424,"blockHash":"bd0aac285f88c9a50a5bfce7c87891b00780d2dc2dc2280331b6af4b2e2049db","epochNo":364,"epochSlotNo":405691,"slot":72290491,"time":"2022/09/22 14:26:22","addressesInput":["addr1w999n67e86jn6xal07pzxtrmqynspgx0fwmcmpua4wc6yzsxpljz3","addr1qxd9tw4dzpfyk4t0l2z0gnk4twt0fr528hmjhavktkcxeqqxdsqd8xs4mahfj3unh4dw69kusk00nwkj4tuwkymu7y3sufsdtp","addr1qxd9tw4dzpfyk4t0l2z0gnk4twt0fr528hmjhavktkcxeqqxdsqd8xs4mahfj3unh4dw69kusk00nwkj4tuwkymu7y3sufsdtp"],"addressesOutput":["addr1qxd9tw4dzpfyk4t0l2z0gnk4twt0fr528hmjhavktkcxeqqxdsqd8xs4mahfj3unh4dw69kusk00nwkj4tuwkymu7y3sufsdtp","addr1qxd9tw4dzpfyk4t0l2z0gnk4twt0fr528hmjhavktkcxeqqxdsqd8xs4mahfj3unh4dw69kusk00nwkj4tuwkymu7y3sufsdtp"],"fee":523975,"totalOutput":4931077,"tokens":[]},{"hash":"478a0e372f40e58d99fa25c9d9fdfb1377ff9979e020b909bdbd6f2c304aa4e7","blockNo":7790424,"blockHash":"bd0aac285f88c9a50a5bfce7c87891b00780d2dc2dc2280331b6af4b2e2049db","epochNo":364,"epochSlotNo":405691,"slot":72290491,"time":"2022/09/22 14:26:22","addressesInput":["addr1q9lf6asludmk5qd2acr06fpmw64w6kl3pxmftw5kg4lkvw3ha4fgpzurjz7pqh0u6pa8mvc4vat6scs43wkapsc4l4xs3gsupg","addr1q9lf6asludmk5qd2acr06fpmw64w6kl3pxmftw5kg4lkvw3ha4fgpzurjz7pqh0u6pa8mvc4vat6scs43wkapsc4l4xs3gsupg","addr1q9lf6asludmk5qd2acr06fpmw64w6kl3pxmftw5kg4lkvw3ha4fgpzurjz7pqh0u6pa8mvc4vat6scs43wkapsc4l4xs3gsupg"],"addressesOutput":["addr1q9s2s7lpstpem64qlzv4eldp4y5gn902qg2jdf9wta4jxp806k2ff8sp3je5vng3dxv4u77k98jyqkulp4r5f0025tlszcde39","addr1q85ydrjt72l2pcsjya83lxcx04raj8znc3svu5hrez5muw3ha4fgpzurjz7pqh0u6pa8mvc4vat6scs43wkapsc4l4xsth7rmc","addr1q85ydrjt72l2pcsjya83lxcx04raj8znc3svu5hrez5muw3ha4fgpzurjz7pqh0u6pa8mvc4vat6scs43wkapsc4l4xsth7rmc"],"fee":193749,"totalOutput":7845923,"tokens":[]}],"totalItems":50429807,"totalPages":2521491,"currentPage":0}