{"data":[{"blockNo":8228995,"slotNo":81310762,"epochNo":385,"epochSlotNo":353962,"hash":"b90ea00eaa6d126ea7e1d924f3c8ca57090d894a3a1cbf4d3deed16c20a7445c","time":"2023/01/05 00:04:13","txCount":8,"totalFees":2213883,"totalOutput":63741107339,"slotLeader":"5ed675dd3d0640ca94bf8c3d6a5bfaac0f59930c99a94ffe3686cb70"},{"blockNo":8228994,"slotNo":81310760,"epochNo":385,"epochSlotNo":353960,"hash":"7ed0a7981d51030a7ad1e1c6ef779b1f5e7a313608e1a55c88e45e358d0a0c9c","time":"2023/01/05 00:04:11","txCount":41,"totalFees":14412019,"totalOutput":1278809731502,"slotLeader":"e455088c9164ae075f0300bc1a7234c30433556c6b88d4301a06cfe5"},{"blockNo":8228993,"slotNo":81310714,"epochNo":385,"epochSlotNo":353914,"hash":"bd9eba47814895c6329b9dc5965b83c8c044d2167c21a2744a82607bd1d92ca9","time":"2023/01/05 00:03:25","txCount":37,"totalFees":12287424,"totalOutput":2605288850521,"slotLeader":"a374a14d2fa809b5e999a474b5d085b10be2fc95e6e82da045d9e8f6"},{"blockNo":8228992,"slotNo":81310705,"epochNo":385,"epochSlotNo":353905,"hash":"a5f6ed1b05d737530dc8522c4bc85d385d5f83759310806908556584c07e42a5","time":"2023/01/05 00:03:16","txCount":37,"totalFees":12634352,"totalOutput":1356046575803,"slotLeader":"6539a70bb6e61540444133eab3a24288d1cd3ddc3598adde93475513"},{"blockNo":8228991,"slotNo":81310699,"epochNo":385,"epochSlotNo":353899,"hash":"58208466ea84819f49b3f35c207f64d5467677850c9236d7f0fa5c701efd3912","time":"2023/01/05 00:03:10","txCount":37,"totalFees":14000652,"totalOutput":8378548393205,"slotLeader":"cb3e1428aa4d240ca528edfd992d6509b47335849a91f0d70e5b0ffd"},{"blockNo":8228990,"slotNo":81310655,"epochNo":385,"epochSlotNo":353855,"hash":"1eee2511c06f847da5bfa15a4ff0c3ca3c80155a8d004288b3fe9e07381f9a8d","time":"2023/01/05 00:02:26","txCount":17,"totalFees":8207981,"totalOutput":2765766546611,"slotLeader":"17a6a1f2fb36d9ef275805db17409af7ab753b9d27bdd41b89510bb9"},{"blockNo":8228989,"slotNo":81310598,"epochNo":385,"epochSlotNo":353798,"hash":"735eb63731788db9474a7e1ac972501ac9a2b587a729289763b2a39daa064e5f","time":"2023/01/05 00:01:29","txCount":26,"totalFees":11147077,"totalOutput":250667574581,"slotLeader":"490353aa6b85efb28922acd9e0ee1dcf6d0c269b9f0583718b0274ba"},{"blockNo":8228988,"slotNo":81310555,"epochNo":385,"epochSlotNo":353755,"hash":"4693f220f65a49dc06320f48f35f6e6deb75b4d1bee8d318a3fd6cc76ab9a9eb","time":"2023/01/05 00:00:46","txCount":51,"totalFees":13384787,"totalOutput":2086213915824,"slotLeader":"e455088c9164ae075f0300bc1a7234c30433556c6b88d4301a06cfe5"},{"blockNo":8228987,"slotNo":81310541,"epochNo":385,"epochSlotNo":353741,"hash":"6c4f6166ffc7c9242cdd54b7a9d7d357638f3d388787865db7ea632320ec5463","time":"2023/01/05 00:00:32","txCount":46,"totalFees":14563166,"totalOutput":4174842578530,"slotLeader":"e4ac73ef83e1d5950a3fe84b3a4b51045f9b01d2db18121395b4ac94"},{"blockNo":8228986,"slotNo":81310477,"epochNo":385,"epochSlotNo":353677,"hash":"fef7c92b1a32687a46439edf386db8f24946963ee5990eeafd5ea2ab628560ca","time":"2023/01/04 23:59:28","txCount":7,"totalFees":2612522,"totalOutput":156706378300,"slotLeader":"be6d07b366b26dd577682e0e499c0d81988d8b3f49b52b853691eeba"},{"blockNo":8228985,"slotNo":81310469,"epochNo":385,"epochSlotNo":353669,"hash":"c5b72bb7ec08257fedb16a9234a1c446c56b51e5ac51c93004fae0b236afbbc4","time":"2023/01/04 23:59:20","txCount":0,"totalFees":0,"totalOutput":0,"slotLeader":"b405a62715301a625c2fd5eb3f5b16be9f1f3f0452f5b8b9286997c4"},{"blockNo":8228984,"slotNo":81310468,"epochNo":385,"epochSlotNo":353668,"hash":"e2858c29beb07f5799ddb6e5bc409061427700ed21060d6d6b03e72cb4335681","time":"2023/01/04 23:59:19","txCount":25,"totalFees":7929587,"totalOutput":461131582605,"slotLeader":"b3291d8a4e04835ebaa71e0523b37abe64e4cd2eeea35c0886a2dd40"},{"blockNo":8228983,"slotNo":81310467,"epochNo":385,"epochSlotNo":353667,"hash":"d60060d2aa92792b8b05ad5660455624692810d51a8f08eb605680e0704b1690","time":"2023/01/04 23:59:18","txCount":62,"totalFees":16119368,"totalOutput":628324126725,"slotLeader":"20b95f87c93f3be9e5094c8fbdb924f9ab8b5e1c7bfb542d3a8bc7fc"},{"blockNo":8228982,"slotNo":81310465,"epochNo":385,"epochSlotNo":353665,"hash":"c054a2a25cdec094a1685fa4b8bc7629a09a992d1a8ff30a08d599926e52ed6c","time":"2023/01/04 23:59:16","txCount":25,"totalFees":11565054,"totalOutput":291531296901,"slotLeader":"f0e505f8f0d7beccffe83c287d0d2ff6a46ec5d38345e8bd35359427"},{"blockNo":8228981,"slotNo":81310341,"epochNo":385,"epochSlotNo":353541,"hash":"aa516cc94336c81fb1484fe642cae75687a4c50e5a03d30811b1dc4b9afc7a9c","time":"2023/01/04 23:57:12","txCount":13,"totalFees":5780573,"totalOutput":135022312588,"slotLeader":"a5b36528fbbb2709e1b29fbdc3816399ef2bd1c916efa416aa325f1a"},{"blockNo":8228980,"slotNo":81310329,"epochNo":385,"epochSlotNo":353529,"hash":"ee469754e28d3b5f42e9d6a773309a7007093290c7f9b2a5bef2eb4ae28a4ee0","time":"2023/01/04 23:57:00","txCount":10,"totalFees":4430331,"totalOutput":1332191350380,"slotLeader":"96a46d5a796a30483492c3717f80b7c6ef87e9525af162ffacf74fdb"},{"blockNo":8228979,"slotNo":81310326,"epochNo":385,"epochSlotNo":353526,"hash":"ec4e2ef6c7462a3db2c2f06fe79d5479842d981e23c7537554df2ae38f9028e3","time":"2023/01/04 23:56:57","txCount":22,"totalFees":10227468,"totalOutput":3416461834118,"slotLeader":"f8b811d63ef2ac9e19eff41ab7a99f37b82da701f8ddb34d6d12cdb7"},{"blockNo":8228978,"slotNo":81310298,"epochNo":385,"epochSlotNo":353498,"hash":"b6f356e831837feee766c39a927c66e0daa43bd2a37bde90dc7238c81cf71a2f","time":"2023/01/04 23:56:29","txCount":13,"totalFees":5114119,"totalOutput":3960406472662,"slotLeader":"7e7eb329d995759d2b9fdb85b8d0c9e3fa2e57c460641c8fc875e780"},{"blockNo":8228977,"slotNo":81310287,"epochNo":385,"epochSlotNo":353487,"hash":"7939397690238dad6776663873ddad4365ff1de91c23dd932aea853053bc8b6f","time":"2023/01/04 23:56:18","txCount":11,"totalFees":5116757,"totalOutput":145053139308,"slotLeader":"d854986d64cb440f9554576eee79542ddd86afa49008f9223da2549e"},{"blockNo":8228976,"slotNo":81310278,"epochNo":385,"epochSlotNo":353478,"hash":"9dcaa1de503e2daa2d7aa620fd24177848ec0c23ab87a33caef9925f846c8421","time":"2023/01/04 23:56:09","txCount":10,"totalFees":3302699,"totalOutput":130864385852,"slotLeader":"b21ddee9370f41c3b2b71da34f8a57943ba59034a777b80aed503c2b"}],"totalItems":8229171,"totalPages":411459,"currentPage":0}