{"data":[{"hash":"231e11852e98f1594a86cafd70885df1fac85267740c10601fdfed2e7870f25f","blockNo":6831371,"blockHash":"110c11b4ff1303b307565e92988de9d1428b75048c9b4d4279566cb9f3eee713","epochNo":318,"epochSlotNo":202658,"slot":52215458,"time":"2022/02/02 06:02:29","addressesInput":["addr1q8njpfaq2juy8djeqh7xs4k9n0uyz7q00gr4ttn82xdc6xuz2kfgd2rjm46qt0vqvtu6lmrwna0gzmsvv37ngqtmywwq4pn0pl","addr1q8njpfaq2juy8djeqh7xs4k9n0uyz7q00gr4ttn82xdc6xuz2kfgd2rjm46qt0vqvtu6lmrwna0gzmsvv37ngqtmywwq4pn0pl"],"addressesOutput":["addr1q8njpfaq2juy8djeqh7xs4k9n0uyz7q00gr4ttn82xdc6xuz2kfgd2rjm46qt0vqvtu6lmrwna0gzmsvv37ngqtmywwq4pn0pl","addr1q8njpfaq2juy8djeqh7xs4k9n0uyz7q00gr4ttn82xdc6xuz2kfgd2rjm46qt0vqvtu6lmrwna0gzmsvv37ngqtmywwq4pn0pl","addr1q8njpfaq2juy8djeqh7xs4k9n0uyz7q00gr4ttn82xdc6xuz2kfgd2rjm46qt0vqvtu6lmrwna0gzmsvv37ngqtmywwq4pn0pl"],"fee":223449,"totalOutput":34467685,"tokens":[]},{"hash":"21a130a04eb2c353d5b88d7a4be34f939f2f1ad08f63b76d1b13e823947ea7e8","blockNo":6831316,"blockHash":"fc81c2cd0729224fb34f44d2df91ff03de5106d689aa7d58aa79904fe0fd61bd","epochNo":318,"epochSlotNo":201502,"slot":52214302,"time":"2022/02/02 05:43:13","addressesInput":["addr1q8njpfaq2juy8djeqh7xs4k9n0uyz7q00gr4ttn82xdc6xuz2kfgd2rjm46qt0vqvtu6lmrwna0gzmsvv37ngqtmywwq4pn0pl","addr1q8njpfaq2juy8djeqh7xs4k9n0uyz7q00gr4ttn82xdc6xuz2kfgd2rjm46qt0vqvtu6lmrwna0gzmsvv37ngqtmywwq4pn0pl"],"addressesOutput":["addr1w999n67e86jn6xal07pzxtrmqynspgx0fwmcmpua4wc6yzsxpljz3","addr1q8njpfaq2juy8djeqh7xs4k9n0uyz7q00gr4ttn82xdc6xuz2kfgd2rjm46qt0vqvtu6lmrwna0gzmsvv37ngqtmywwq4pn0pl"],"fee":260679,"totalOutput":34691134,"tokens":[]},{"hash":"f7bf4ba2f5c140e74ab6dd871d5a5d2745e6d15384e11727c149e161812e79eb","blockNo":6831300,"blockHash":"2a1b226d85a780d62cfb30ff5b3988a5ca6d12e992ad053431f537e8edc12e30","epochNo":318,"epochSlotNo":201149,"slot":52213949,"time":"2022/02/02 05:37:20","addressesInput":["addr1w9yr0zr530tp9yzrhly8lw5upddu0eym3yh0mjwa0qlr9pgmkzgv0","addr1qxszsqjtp8kf60yvk896cr9td2rkqnsxsgvej2ad8lah8x3hcdj45clk5lfnp6a2m7jdkpwd06t207rf6p2hzx6lv2jsl2szk3"],"addressesOutput":["addr1qxszsqjtp8kf60yvk896cr9td2rkqnsxsgvej2ad8lah8x3hcdj45clk5lfnp6a2m7jdkpwd06t207rf6p2hzx6lv2jsl2szk3","addr1qxszsqjtp8kf60yvk896cr9td2rkqnsxsgvej2ad8lah8x3hcdj45clk5lfnp6a2m7jdkpwd06t207rf6p2hzx6lv2jsl2szk3"],"fee":1090225,"totalOutput":123890505,"tokens":[]},{"hash":"d9b57e3f12bf6678f5c551d4efef90ef8588dd5223510148b8387d287bfe5526","blockNo":6831246,"blockHash":"79ee915c9bb6acf96cbbba67e75bc6a9cc07beb927df9e0596beab6e0eabe893","epochNo":318,"epochSlotNo":200108,"slot":52212908,"time":"2022/02/02 05:19:59","addressesInput":["addr1q8njpfaq2juy8djeqh7xs4k9n0uyz7q00gr4ttn82xdc6xuz2kfgd2rjm46qt0vqvtu6lmrwna0gzmsvv37ngqtmywwq4pn0pl","addr1q8njpfaq2juy8djeqh7xs4k9n0uyz7q00gr4ttn82xdc6xuz2kfgd2rjm46qt0vqvtu6lmrwna0gzmsvv37ngqtmywwq4pn0pl"],"addressesOutput":["addr1q89mpkgcafkj74g2nhfj47fru3pdvc3xaj8artq2eq08kt96z6k2pvg7p4jg5zfer3zm7rytuyhyk0w9gxrageea8uus7wjph3","addr1q8njpfaq2juy8djeqh7xs4k9n0uyz7q00gr4ttn82xdc6xuz2kfgd2rjm46qt0vqvtu6lmrwna0gzmsvv37ngqtmywwq4pn0pl","addr1q8njpfaq2juy8djeqh7xs4k9n0uyz7q00gr4ttn82xdc6xuz2kfgd2rjm46qt0vqvtu6lmrwna0gzmsvv37ngqtmywwq4pn0pl"],"fee":223449,"totalOutput":59951813,"tokens":[]},{"hash":"2eba8e26fe42e28ff03e6a51ec64e29bfb07575d8ffa1b5fd22aca299527a05e","blockNo":6831040,"blockHash":"806c50c3ddc1b07726f41c78e6e138b38de9ffc499e55791b121f5f072685150","epochNo":318,"epochSlotNo":195816,"slot":52208616,"time":"2022/02/02 04:08:27","addressesInput":["addr1q8fjdde87jrua78trg9ylv7gpvd5skzcv5nqp3wl467ykzgsmz083klcvm744y0n7yyg49ykzz0j628xpu4n5u0r0r4qrfqf6q"],"addressesOutput":["addr1wy2mjh76em44qurn5x73nzqrxua7ataasftql0u2h6g88lc3gtgpz","addr1q8fjdde87jrua78trg9ylv7gpvd5skzcv5nqp3wl467ykzgsmz083klcvm744y0n7yyg49ykzz0j628xpu4n5u0r0r4qrfqf6q"],"fee":279330,"totalOutput":32479207,"tokens":[]},{"hash":"a5e42a02ac7ac9e186f570e6dca7ff0640e8d78761848bdfc3348c0eaddcf924","blockNo":6830833,"blockHash":"e82aad5f9811e5dd340c567ec5ce18bc936f7943dc183736ef1d4ea92ee6e75f","epochNo":318,"epochSlotNo":191446,"slot":52204246,"time":"2022/02/02 02:55:37","addressesInput":["addr1q8a8vhsq3kak5qwqml4qwytatwapdkl9fhmdwa9yvqwyqu9meskkswkg7qdwvyueyg780kkz3s9ut25xj0p57utgv9esk3hxy8","addr1w999n67e86jn6xal07pzxtrmqynspgx0fwmcmpua4wc6yzsxpljz3","addr1q8a8vhsq3kak5qwqml4qwytatwapdkl9fhmdwa9yvqwyqu9meskkswkg7qdwvyueyg780kkz3s9ut25xj0p57utgv9esk3hxy8","addr1q8a8vhsq3kak5qwqml4qwytatwapdkl9fhmdwa9yvqwyqu9meskkswkg7qdwvyueyg780kkz3s9ut25xj0p57utgv9esk3hxy8"],"addressesOutput":["addr1q9cwvremt6n320s2e3agq0jyq82yhrk3htsu0w426xnz5us70z4w0jgvcdkkynmm8wmds66jd9kusnjfpu6raw5fqp0sr07p5w","addr1qyv08qcff03djq0x6v5z2dl4xfr7pzhhyh8xrkxtzcnwhsgycgae3w3ywg5p98xs0natggxjf90yf3ta502cv09lllwq03zmsf","addr1qx4mgyy4m7wnne0nm2sl25e6j5xhcxqug6eztvn9042c3vf6yyrlaa9pau2ggp8hxm2l7ghzz3ejvfu54hw968ja8wjsfrh9u0","addr1q8a8vhsq3kak5qwqml4qwytatwapdkl9fhmdwa9yvqwyqu9meskkswkg7qdwvyueyg780kkz3s9ut25xj0p57utgv9esk3hxy8","addr1q8a8vhsq3kak5qwqml4qwytatwapdkl9fhmdwa9yvqwyqu9meskkswkg7qdwvyueyg780kkz3s9ut25xj0p57utgv9esk3hxy8"],"fee":1166581,"totalOutput":167270806,"tokens":[]},{"hash":"06e37ed0a3e7f2f26beab7f1733c363a592c452d08982d4ac12b5d1d03dbcd7e","blockNo":6830692,"blockHash":"bb0f611cda3fe712b110ba2a64177ecf3c42de1f6afcf9c4061fa4383c4ded2b","epochNo":318,"epochSlotNo":188496,"slot":52201296,"time":"2022/02/02 02:06:27","addressesInput":["addr1q8njpfaq2juy8djeqh7xs4k9n0uyz7q00gr4ttn82xdc6xuz2kfgd2rjm46qt0vqvtu6lmrwna0gzmsvv37ngqtmywwq4pn0pl","addr1w999n67e86jn6xal07pzxtrmqynspgx0fwmcmpua4wc6yzsxpljz3","addr1q8njpfaq2juy8djeqh7xs4k9n0uyz7q00gr4ttn82xdc6xuz2kfgd2rjm46qt0vqvtu6lmrwna0gzmsvv37ngqtmywwq4pn0pl","addr1q8njpfaq2juy8djeqh7xs4k9n0uyz7q00gr4ttn82xdc6xuz2kfgd2rjm46qt0vqvtu6lmrwna0gzmsvv37ngqtmywwq4pn0pl"],"addressesOutput":["addr1q9cwvremt6n320s2e3agq0jyq82yhrk3htsu0w426xnz5us70z4w0jgvcdkkynmm8wmds66jd9kusnjfpu6raw5fqp0sr07p5w","addr1qyy52xu9ywfm4433wh6rnuc02yeamqruv3fyc3cjclwnjptdd5yehzmha069fapjnclvcxljml2xctsqavwy3zrkaquqc9kg7g","addr1qy4fwg9wcvpcheern032lsgdwglhmegjp408lzjexqv637u4k5s2hx9zp28zfws8uds8njwpcehpqdwqgwxfpz3cxjrqugs2jg","addr1q8njpfaq2juy8djeqh7xs4k9n0uyz7q00gr4ttn82xdc6xuz2kfgd2rjm46qt0vqvtu6lmrwna0gzmsvv37ngqtmywwq4pn0pl","addr1q8njpfaq2juy8djeqh7xs4k9n0uyz7q00gr4ttn82xdc6xuz2kfgd2rjm46qt0vqvtu6lmrwna0gzmsvv37ngqtmywwq4pn0pl"],"fee":1202773,"totalOutput":51287112,"tokens":[]},{"hash":"daca7119641723cd5c45b43c8b8e47f6580f8baa834c8531236f7dfdffa2025f","blockNo":6830589,"blockHash":"679aa55a4c26aaa512ec01e6b2eb2c733abab3b55a419b034705ec87018e6c51","epochNo":318,"epochSlotNo":186391,"slot":52199191,"time":"2022/02/02 01:31:22","addressesInput":["addr1qyfqrqhuljs6s05xn9camr3fkfk98d4xyn9vwf75dnnylwzdweftyc5cx76lqf466ugl8wf6wx3tkmfrjyfrp0ewur9s50zf72","addr1qyfqrqhuljs6s05xn9camr3fkfk98d4xyn9vwf75dnnylwzdweftyc5cx76lqf466ugl8wf6wx3tkmfrjyfrp0ewur9s50zf72"],"addressesOutput":["addr1qyfqrqhuljs6s05xn9camr3fkfk98d4xyn9vwf75dnnylwzdweftyc5cx76lqf466ugl8wf6wx3tkmfrjyfrp0ewur9s50zf72","addr1qyfqrqhuljs6s05xn9camr3fkfk98d4xyn9vwf75dnnylwzdweftyc5cx76lqf466ugl8wf6wx3tkmfrjyfrp0ewur9s50zf72","addr1qyfqrqhuljs6s05xn9camr3fkfk98d4xyn9vwf75dnnylwzdweftyc5cx76lqf466ugl8wf6wx3tkmfrjyfrp0ewur9s50zf72"],"fee":174829,"totalOutput":527906550,"tokens":[]},{"hash":"691750388aea32e0b4d83c6b5a40dea2fd021f064bd44608c9a20b67c968bf5a","blockNo":6830248,"blockHash":"b6dc42c267d8fcc69940f2ad04d8c9b775dd85587a382aa4bf975016851aa603","epochNo":318,"epochSlotNo":178827,"slot":52191627,"time":"2022/02/01 23:25:18","addressesInput":["addr1w9yr0zr530tp9yzrhly8lw5upddu0eym3yh0mjwa0qlr9pgmkzgv0","addr1q8a8vhsq3kak5qwqml4qwytatwapdkl9fhmdwa9yvqwyqu9meskkswkg7qdwvyueyg780kkz3s9ut25xj0p57utgv9esk3hxy8","addr1q8a8vhsq3kak5qwqml4qwytatwapdkl9fhmdwa9yvqwyqu9meskkswkg7qdwvyueyg780kkz3s9ut25xj0p57utgv9esk3hxy8","addr1q8a8vhsq3kak5qwqml4qwytatwapdkl9fhmdwa9yvqwyqu9meskkswkg7qdwvyueyg780kkz3s9ut25xj0p57utgv9esk3hxy8","addr1q8a8vhsq3kak5qwqml4qwytatwapdkl9fhmdwa9yvqwyqu9meskkswkg7qdwvyueyg780kkz3s9ut25xj0p57utgv9esk3hxy8","addr1q8a8vhsq3kak5qwqml4qwytatwapdkl9fhmdwa9yvqwyqu9meskkswkg7qdwvyueyg780kkz3s9ut25xj0p57utgv9esk3hxy8","addr1q8a8vhsq3kak5qwqml4qwytatwapdkl9fhmdwa9yvqwyqu9meskkswkg7qdwvyueyg780kkz3s9ut25xj0p57utgv9esk3hxy8"],"addressesOutput":["addr1q805zlrkvmg5y7r5awf6y98ehz3aafj4xvw09vuqjjythv4fj2hwkmz9nc6wqyh2tnghk2f0en8gmfu7qr7taumfavmqvl8fta","addr1qxq47au29wss4g8acjk0zsmwwq0h34hhzump6stye9wuldm7nm0t6ad3jz9hy5v3smye0nvcumtzu43k7r36ag0w29qqdafvvk","addr1qx247snpuzeqrlkar9zrqc9ctdvs0f2elddx7sajlvx9xygycgae3w3ywg5p98xs0natggxjf90yf3ta502cv09lllwqxvqdqp","addr1q8a8vhsq3kak5qwqml4qwytatwapdkl9fhmdwa9yvqwyqu9meskkswkg7qdwvyueyg780kkz3s9ut25xj0p57utgv9esk3hxy8","addr1q8a8vhsq3kak5qwqml4qwytatwapdkl9fhmdwa9yvqwyqu9meskkswkg7qdwvyueyg780kkz3s9ut25xj0p57utgv9esk3hxy8"],"fee":1058809,"totalOutput":123089054,"tokens":[]},{"hash":"818939db9d88856b1f98cca32862f8e52e5e38f95958cc912b1894c6016957d0","blockNo":6830204,"blockHash":"f5d8f01e51bded8241ba2b8d327b67acf3b08e7d274b265069cd8882d9cf97c0","epochNo":318,"epochSlotNo":177785,"slot":52190585,"time":"2022/02/01 23:07:56","addressesInput":["addr1q93vyug8m3qrqc5qr9u28hzkvdpzyvmez85f58l8y9t2502xrdyd4ezx43vxjgw0dvz6dzy36jku3ptrr9mcv5dftkhsx6f5gt","addr1q93vyug8m3qrqc5qr9u28hzkvdpzyvmez85f58l8y9t2502xrdyd4ezx43vxjgw0dvz6dzy36jku3ptrr9mcv5dftkhsx6f5gt","addr1q93vyug8m3qrqc5qr9u28hzkvdpzyvmez85f58l8y9t2502xrdyd4ezx43vxjgw0dvz6dzy36jku3ptrr9mcv5dftkhsx6f5gt","addr1q93vyug8m3qrqc5qr9u28hzkvdpzyvmez85f58l8y9t2502xrdyd4ezx43vxjgw0dvz6dzy36jku3ptrr9mcv5dftkhsx6f5gt","addr1q93vyug8m3qrqc5qr9u28hzkvdpzyvmez85f58l8y9t2502xrdyd4ezx43vxjgw0dvz6dzy36jku3ptrr9mcv5dftkhsx6f5gt","addr1q93vyug8m3qrqc5qr9u28hzkvdpzyvmez85f58l8y9t2502xrdyd4ezx43vxjgw0dvz6dzy36jku3ptrr9mcv5dftkhsx6f5gt"],"addressesOutput":["addr1vyfssr4wzk25t20c3jnsra3xhpeyrqf2m7fvwl9fnp8anuqtjyaa6","addr1q93vyug8m3qrqc5qr9u28hzkvdpzyvmez85f58l8y9t2502xrdyd4ezx43vxjgw0dvz6dzy36jku3ptrr9mcv5dftkhsx6f5gt","addr1q93vyug8m3qrqc5qr9u28hzkvdpzyvmez85f58l8y9t2502xrdyd4ezx43vxjgw0dvz6dzy36jku3ptrr9mcv5dftkhsx6f5gt"],"fee":200041,"totalOutput":50225048,"tokens":[]},{"hash":"5b2d408716c56c12105bc00aef97752902847d7f899eecec90f167e96a031c82","blockNo":6830130,"blockHash":"7cc2d178aafe96998938e4bf0a71703923456990f6ffd19c1af20040d2b1a1aa","epochNo":318,"epochSlotNo":176343,"slot":52189143,"time":"2022/02/01 22:43:54","addressesInput":["addr1qyxdhrqstaschwazulm9m7xf9da404rjdxlmsg7qzgdlj9ca49c73yv32axatm687gp8req4y0v6thvmec00sz5fdn3sachtr4","addr1q85z628sh9a88uwgpxktpq6ys9saz6nsv0u6fhgdmgjpvgga49c73yv32axatm687gp8req4y0v6thvmec00sz5fdn3sulzj5l"],"addressesOutput":["addr1vxmk049p6wr7tt9n9zzg9rvnr645cua9paq850n53zvddzc49sdwd","addr1q83jjmdw6pvf9hsdc5z5uj7yz3n6lu0smzscdlwy5hdkeuca49c73yv32axatm687gp8req4y0v6thvmec00sz5fdn3senqxxe"],"fee":213549,"totalOutput":3906776576,"tokens":[]},{"hash":"f5bc4c101308e063201cd30dce3792d67aed5d0a26a7a1b7f2994fac1b5cc5c4","blockNo":6830129,"blockHash":"41f1dea3b13b05d4835391d609a7db1cc174e2fcd1af03c6ef30760d7f95b9ce","epochNo":318,"epochSlotNo":176315,"slot":52189115,"time":"2022/02/01 22:43:26","addressesInput":["addr1q8njpfaq2juy8djeqh7xs4k9n0uyz7q00gr4ttn82xdc6xuz2kfgd2rjm46qt0vqvtu6lmrwna0gzmsvv37ngqtmywwq4pn0pl","addr1q8njpfaq2juy8djeqh7xs4k9n0uyz7q00gr4ttn82xdc6xuz2kfgd2rjm46qt0vqvtu6lmrwna0gzmsvv37ngqtmywwq4pn0pl","addr1q8njpfaq2juy8djeqh7xs4k9n0uyz7q00gr4ttn82xdc6xuz2kfgd2rjm46qt0vqvtu6lmrwna0gzmsvv37ngqtmywwq4pn0pl"],"addressesOutput":["addr1vyfssr4wzk25t20c3jnsra3xhpeyrqf2m7fvwl9fnp8anuqtjyaa6","addr1q8njpfaq2juy8djeqh7xs4k9n0uyz7q00gr4ttn82xdc6xuz2kfgd2rjm46qt0vqvtu6lmrwna0gzmsvv37ngqtmywwq4pn0pl","addr1q8njpfaq2juy8djeqh7xs4k9n0uyz7q00gr4ttn82xdc6xuz2kfgd2rjm46qt0vqvtu6lmrwna0gzmsvv37ngqtmywwq4pn0pl"],"fee":221733,"totalOutput":74638035,"tokens":[]},{"hash":"cbc7a084de495bef5fd887200dec62048ce44fd95671c0e01c05435e88358879","blockNo":6830096,"blockHash":"0cd0ec295ce52af6dc3d731119d03d02bcdb618bc2ac164cd16a7929a1b86a7d","epochNo":318,"epochSlotNo":175704,"slot":52188504,"time":"2022/02/01 22:33:15","addressesInput":["addr1q9ntf0aernm9cjd9v9suvfsx4gnzmmjyfcgtf0te0lzt4fhnhg9pdyuuy63884c8u39f2w7rctqp6vzf7mlzxfzyv30sxmkjgt","addr1q82tn7l4k4kfrpqpp7crzq7eg96zupun3qn8qklcv3qyqf8nhg9pdyuuy63884c8u39f2w7rctqp6vzf7mlzxfzyv30sud5yqz","addr1qy0l95fww5tu7eat8d54j4gua82kstj2fhalmf3dygk44s8nhg9pdyuuy63884c8u39f2w7rctqp6vzf7mlzxfzyv30s6dwy34"],"addressesOutput":["addr1q885st3hq2ehskmmkexy9r2z63vfaeka4043wl4p69mctxd2drg62ktgu7mk6uwp6wuuhz304qm3xj9yp8rar2nq8jjspcsdrm","addr1qynqgm7ck9lldl40wyrcr8x58up3mgemqjev2re5kqlfl78nhg9pdyuuy63884c8u39f2w7rctqp6vzf7mlzxfzyv30s3lytv3"],"fee":193353,"totalOutput":427513291,"tokens":[]},{"hash":"11f313a6aa560823ae4daaf04108ee71b7b5a580d4c6d094e6eb58ee181e5d1b","blockNo":6830048,"blockHash":"21be557896add6a976963283474434cf81cd98bca11c53e68d0159f34dccc988","epochNo":318,"epochSlotNo":174776,"slot":52187576,"time":"2022/02/01 22:17:47","addressesInput":["addr1qxa7hxs2plv3ghfvm2ds0ddlgljjmr870nyj0dcuttr9emmhy29z9apw4amvddq7cz3u2c6jffld2rlzcrmuk57cdvcsnml3cx"],"addressesOutput":["addr1v90vc24ex0g4pjqgfp20pqv05dp58r6prvay3h68m8daypgdhhe4h","addr1qxa7hxs2plv3ghfvm2ds0ddlgljjmr870nyj0dcuttr9emmhy29z9apw4amvddq7cz3u2c6jffld2rlzcrmuk57cdvcsnml3cx"],"fee":242897,"totalOutput":15605063,"tokens":[]},{"hash":"5f1693ab0667ceb69eb362b20aaee7b27eb6623fc13c47101a5469e99293587e","blockNo":6829987,"blockHash":"65bba95578b11f2b924a47135193864de0d0547354426c57691370c4d3cbc644","epochNo":318,"epochSlotNo":173589,"slot":52186389,"time":"2022/02/01 21:58:00","addressesInput":["addr1q9ntf0aernm9cjd9v9suvfsx4gnzmmjyfcgtf0te0lzt4fhnhg9pdyuuy63884c8u39f2w7rctqp6vzf7mlzxfzyv30sxmkjgt"],"addressesOutput":["addr1qxwa8dgly3we2u8lsehtxl6ce47xefj5z6jf0mapsznk20uxsyjqgpvze2q5h40vk70edwj8qsa6cpgft23pfj2w7sssedx89a","addr1qy0l95fww5tu7eat8d54j4gua82kstj2fhalmf3dygk44s8nhg9pdyuuy63884c8u39f2w7rctqp6vzf7mlzxfzyv30s6dwy34"],"fee":181297,"totalOutput":18660574,"tokens":[]},{"hash":"5d295b9b9772cb97fddd298fe3c32458a459414e16ba38bfc281124c342f25d4","blockNo":6829824,"blockHash":"37381ba5029b8db2d1f22da6deff151e4596025b0c07c3326da97219fd19b70a","epochNo":318,"epochSlotNo":170186,"slot":52182986,"time":"2022/02/01 21:01:17","addressesInput":["addr1w999n67e86jn6xal07pzxtrmqynspgx0fwmcmpua4wc6yzsxpljz3","addr1q8a8vhsq3kak5qwqml4qwytatwapdkl9fhmdwa9yvqwyqu9meskkswkg7qdwvyueyg780kkz3s9ut25xj0p57utgv9esk3hxy8"],"addressesOutput":["addr1w999n67e86jn6xal07pzxtrmqynspgx0fwmcmpua4wc6yzsxpljz3","addr1q8a8vhsq3kak5qwqml4qwytatwapdkl9fhmdwa9yvqwyqu9meskkswkg7qdwvyueyg780kkz3s9ut25xj0p57utgv9esk3hxy8"],"fee":1174309,"totalOutput":22392374,"tokens":[]},{"hash":"865003545798272d28d9e6b640ace8313c3610c3c09a66131f9afe6464362599","blockNo":6829804,"blockHash":"f45777364cf7b1e7fa085d97a78f327109e6bc8b0ec0efb0b1d2f5b9943feecf","epochNo":318,"epochSlotNo":169655,"slot":52182455,"time":"2022/02/01 20:52:26","addressesInput":["addr1qyt0hyq3789jfwqsx6llmxu3tpvvnecg8jzpudrty34mcy8nhg9pdyuuy63884c8u39f2w7rctqp6vzf7mlzxfzyv30se4rrya"],"addressesOutput":["addr1q885st3hq2ehskmmkexy9r2z63vfaeka4043wl4p69mctxd2drg62ktgu7mk6uwp6wuuhz304qm3xj9yp8rar2nq8jjspcsdrm","addr1q9ntf0aernm9cjd9v9suvfsx4gnzmmjyfcgtf0te0lzt4fhnhg9pdyuuy63884c8u39f2w7rctqp6vzf7mlzxfzyv30sxmkjgt"],"fee":181297,"totalOutput":78841871,"tokens":[]},{"hash":"9df74d1f8a2489db54eddffc7bee3996d11fbc02ba51d716ff02c8b20830d6db","blockNo":6829636,"blockHash":"0359e56fc3f22deac141af4b732546ff9cdbaa8f7244020b67e4a13150430634","epochNo":318,"epochSlotNo":166264,"slot":52179064,"time":"2022/02/01 19:55:55","addressesInput":["addr1qxszsqjtp8kf60yvk896cr9td2rkqnsxsgvej2ad8lah8x3hcdj45clk5lfnp6a2m7jdkpwd06t207rf6p2hzx6lv2jsl2szk3"],"addressesOutput":["addr1w9yr0zr530tp9yzrhly8lw5upddu0eym3yh0mjwa0qlr9pgmkzgv0","addr1qxszsqjtp8kf60yvk896cr9td2rkqnsxsgvej2ad8lah8x3hcdj45clk5lfnp6a2m7jdkpwd06t207rf6p2hzx6lv2jsl2szk3"],"fee":238673,"totalOutput":124906656,"tokens":[]},{"hash":"9a5ce7f4e209e2c4bdde5715a3220e50e3ee10a0a6c3ad7c4421744aad1d1a6f","blockNo":6829517,"blockHash":"d60f8abbf91b28aee8f6676288214cd12a29c5ceb18166f436c45b4ed814b875","epochNo":318,"epochSlotNo":163833,"slot":52176633,"time":"2022/02/01 19:15:24","addressesInput":["addr1q8a8vhsq3kak5qwqml4qwytatwapdkl9fhmdwa9yvqwyqu9meskkswkg7qdwvyueyg780kkz3s9ut25xj0p57utgv9esk3hxy8","addr1q8a8vhsq3kak5qwqml4qwytatwapdkl9fhmdwa9yvqwyqu9meskkswkg7qdwvyueyg780kkz3s9ut25xj0p57utgv9esk3hxy8","addr1q8a8vhsq3kak5qwqml4qwytatwapdkl9fhmdwa9yvqwyqu9meskkswkg7qdwvyueyg780kkz3s9ut25xj0p57utgv9esk3hxy8"],"addressesOutput":["addr1w999n67e86jn6xal07pzxtrmqynspgx0fwmcmpua4wc6yzsxpljz3","addr1q8a8vhsq3kak5qwqml4qwytatwapdkl9fhmdwa9yvqwyqu9meskkswkg7qdwvyueyg780kkz3s9ut25xj0p57utgv9esk3hxy8"],"fee":226359,"totalOutput":23566683,"tokens":[]},{"hash":"9a6d6336ec39c5bac2211c378745f08e4be5cf7f2ab1885cdde686f084463656","blockNo":6829188,"blockHash":"c881467e12eef692ab264f1d168a8f035abd4c29c1fbb7fd4700645176e51c10","epochNo":318,"epochSlotNo":156649,"slot":52169449,"time":"2022/02/01 17:15:40","addressesInput":["addr1qyd2r6gxhhpasskvgdw9dcfpwchj0j42558q57e32xw6d5cs7vslymzvjq6r7q5jz9se7eyzjxhhsp8sq5ay6rh7av0q224fzd","addr1q93mn2hwt5mgaknuvga7xwrkdmw09xwg9td6m47zqhgyfxss7vslymzvjq6r7q5jz9se7eyzjxhhsp8sq5ay6rh7av0quqpv9v"],"addressesOutput":["addr1v8f3kygcyms97qtyvyjaqskalrqw4j6kmwlgexss4evsw0q20u8sf","addr1qx2d6cxszcvmq49wx84ksve56map35ghca3vlfygwkkgk4qs7vslymzvjq6r7q5jz9se7eyzjxhhsp8sq5ay6rh7av0qwngahe"],"fee":258385,"totalOutput":21556973,"tokens":[]}],"totalItems":265,"totalPages":14,"currentPage":0}