{"data":[{"txId":40736008,"txHash":"d021bddfd630c903f9a7d715f1c1c8ad23a0171d9eaf7273d74ebb9d03c7fd8f","txTime":"2022/05/09 18:21:48","block":7225810,"epoch":337,"slotNo":60554217,"epochSlotNo":333417,"stakeKey":"stake1uyryn2cvqrqmdtn3rauwjn9farqk4kerzesm3gwq2yytp3gwrlw06"},{"txId":40735961,"txHash":"b4c2af050b15076572fd73a809128ae39669583c3bcb9fc7b2890024f69e3b97","txTime":"2022/05/09 18:21:17","block":7225808,"epoch":337,"slotNo":60554186,"epochSlotNo":333386,"stakeKey":"stake1u9qykx0jmhep6zy5c4slv2tdzumxw0m242nx78p2hp2rzjcw8nxny"},{"txId":40735829,"txHash":"b4a4e18df6de2a9889a5f27663a69ea180279606bdbd7c7e875593f6bc48561a","txTime":"2022/05/09 18:19:31","block":7225804,"epoch":337,"slotNo":60554080,"epochSlotNo":333280,"stakeKey":"stake1uycplkh87pm4ymywv2r09d66pugm8zqe8lzmt8fyvh02hpc5mgxzw"},{"txId":40735722,"txHash":"e74fee936af1a9265f5d1432ad1b25e1753277acbfa46096270b14d779efa4a8","txTime":"2022/05/09 18:17:40","block":7225801,"epoch":337,"slotNo":60553969,"epochSlotNo":333169,"stakeKey":"stake1uya5gekeku45ehef4qqwcyea9dczwq43r6vgs06uz2lrjjg6vrg5y"},{"txId":40735564,"txHash":"64b7373bd6557f75aca2fa747e51246c28b226a300b336fb78829a313377ab66","txTime":"2022/05/09 18:15:17","block":7225796,"epoch":337,"slotNo":60553826,"epochSlotNo":333026,"stakeKey":"stake1u97re7dju585jf9pfdcmzcrh5hejdhaps5p98q5u8xacvqszt0xup"},{"txId":40735560,"txHash":"5ea47c8db55f594a1200fa2e600b7c58a90b22918be4e1ff6437dd818482befa","txTime":"2022/05/09 18:15:17","block":7225796,"epoch":337,"slotNo":60553826,"epochSlotNo":333026,"stakeKey":"stake1u9tx0szc7evs4gldfm580weqphgw5e84ymgqheqffw7500cvtq6aw"},{"txId":40735531,"txHash":"666755b3a8fa13dee1e4071d029482b95eafaedca9d8995e85180d118b6d8962","txTime":"2022/05/09 18:15:08","block":7225795,"epoch":337,"slotNo":60553817,"epochSlotNo":333017,"stakeKey":"stake1uxkxxrdtqketmuyv9ukmv3mn8fhuk4e4aj2z6t34wmzhcdql3xkva"},{"txId":40735524,"txHash":"6b96ba36f5ff474f1aa0aeb481f33dc3b96a15a23ba37632c412cc55bf463b4c","txTime":"2022/05/09 18:15:08","block":7225795,"epoch":337,"slotNo":60553817,"epochSlotNo":333017,"stakeKey":"stake1uystmeyragega5frv7gmt62wgxgp477lgc9h9r9e3p80l4q8kzedj"},{"txId":40735442,"txHash":"1812405237bfbb9406f61664ce710ed53ac7d8f05bc27ea947e3fa7b78fa04aa","txTime":"2022/05/09 18:13:59","block":7225789,"epoch":337,"slotNo":60553748,"epochSlotNo":332948,"stakeKey":"stake1uydphhc7c4jzym5cu0k6xp6u7y77v7u55lfh2nywwkgfqsg9eh2c5"},{"txId":40735393,"txHash":"0b382f85068de63a6ad10dbf6760fdb825392b7528816a0bc5b9600a2a1af593","txTime":"2022/05/09 18:13:28","block":7225787,"epoch":337,"slotNo":60553717,"epochSlotNo":332917,"stakeKey":"stake1ux7d97qdh2jhnyqg82hh5gdkj7kk5xffzwajch5h5m4pycgtq572r"},{"txId":40735333,"txHash":"071e8c16211d3e8fc407e9a07c0e6a786bb78f4b5dc3b1914fbf993e25be7a93","txTime":"2022/05/09 18:12:59","block":7225785,"epoch":337,"slotNo":60553688,"epochSlotNo":332888,"stakeKey":"stake1uyf360rea8km5edk8lrmh3nzuclhq9gkuyamsajn69q64vq74jygz"},{"txId":40735286,"txHash":"ce63d7dbc2d25de5ea23aaa4ebdc8ce0e0155e9862f683583dead8f0f924822d","txTime":"2022/05/09 18:12:09","block":7225782,"epoch":337,"slotNo":60553638,"epochSlotNo":332838,"stakeKey":"stake1u9jxz7d5tgmge7sr6pzcysd2yk4rkrlfe256yx2unkuneqquymp7a"},{"txId":40735134,"txHash":"57ab979e15a15b5e1869024a1d9d39359a235302ff4a61576887c43c8f770db6","txTime":"2022/05/09 18:10:25","block":7225777,"epoch":337,"slotNo":60553534,"epochSlotNo":332734,"stakeKey":"stake1uxrv4e6aads9xz2cd42tq72jtjcmy2cj8gmt7x5wqfx0sfqnaenzp"},{"txId":40735105,"txHash":"af887a5cbe1ff6394e58798010bde7d5bf373a012356e3be2a4ba83a6853afc5","txTime":"2022/05/09 18:10:13","block":7225775,"epoch":337,"slotNo":60553522,"epochSlotNo":332722,"stakeKey":"stake1uyfmv62vx34qung9v7eh2ccc46s5a2qfu9cf8nagcrfef7gqaa96l"},{"txId":40735102,"txHash":"21e5bacb3ec3ec7ce82aea987aff199d1deca8620c67d4140b69ed9d91aa0fce","txTime":"2022/05/09 18:10:13","block":7225775,"epoch":337,"slotNo":60553522,"epochSlotNo":332722,"stakeKey":"stake1ux3uy4llmdr5np5j2wlxm9egd3k7gc9j7v7hry8409sjz4sn9cwrm"},{"txId":40734738,"txHash":"d4372191f2df0c77acc1f6e3ab5fc2269089a00a007cf151d30d877aba1cb07b","txTime":"2022/05/09 18:06:12","block":7225758,"epoch":337,"slotNo":60553281,"epochSlotNo":332481,"stakeKey":"stake1uymglset0l2ffppcpfvcjtskq5xa3v0pynv44qktd0avx6q48qs0m"},{"txId":40734307,"txHash":"308533156e90e2dcef7c4fefad97fd4ab36d0aa0e9df7d2528eb0daa02b0f9f8","txTime":"2022/05/09 17:59:44","block":7225737,"epoch":337,"slotNo":60552893,"epochSlotNo":332093,"stakeKey":"stake1u9yepfyxf9salr0p2rejr287dn0t7drgtenslfknt0rsw9qau3z5j"},{"txId":40734291,"txHash":"06d608efe6004a0b487487119e9aa9de5c55bdaa8ffe2d1f2361d1b62af58660","txTime":"2022/05/09 17:59:44","block":7225737,"epoch":337,"slotNo":60552893,"epochSlotNo":332093,"stakeKey":"stake1uxg882yzeu8jrusjc30zfyww6w6t0zk0rt24mlk3hhwxlhgnjfk4d"},{"txId":40734230,"txHash":"b584010d47a621590d6deceaa925790f4a62f0c0028c652de4be55f250c7c863","txTime":"2022/05/09 17:58:53","block":7225735,"epoch":337,"slotNo":60552842,"epochSlotNo":332042,"stakeKey":"stake1u9pwsjqeds5aadw77xsl2nh8t0p3ldhzhv2rysejnvrpn6q3s3m23"},{"txId":40734166,"txHash":"f451f384fcf20a3b38bfa9d001917503005b7f4a9093ccf6b595c2d5a8d1e45e","txTime":"2022/05/09 17:58:24","block":7225733,"epoch":337,"slotNo":60552813,"epochSlotNo":332013,"stakeKey":"stake1u97c7f2cq2d6hluv9u4dn2h0m7nyrg2a3cldfasneqjwv7qz9h789"}],"totalItems":1502935,"totalPages":75147,"currentPage":0}