{"data":[{"hash":"28452ba421a65862d0fca134632e80937391991cb15386c1d7276204c6397f69","blockNo":6859379,"blockHash":"1d0d651e872463435d76b6e75f45c561ff88d7fa95bcd95b81cf5728d575a75b","epochNo":319,"epochSlotNo":365359,"slot":52810159,"time":"2022/02/09 03:14:10","addressesInput":["addr1qyfqrqhuljs6s05xn9camr3fkfk98d4xyn9vwf75dnnylwzdweftyc5cx76lqf466ugl8wf6wx3tkmfrjyfrp0ewur9s50zf72","addr1qyfqrqhuljs6s05xn9camr3fkfk98d4xyn9vwf75dnnylwzdweftyc5cx76lqf466ugl8wf6wx3tkmfrjyfrp0ewur9s50zf72"],"addressesOutput":["addr1w999n67e86jn6xal07pzxtrmqynspgx0fwmcmpua4wc6yzsxpljz3","addr1qyfqrqhuljs6s05xn9camr3fkfk98d4xyn9vwf75dnnylwzdweftyc5cx76lqf466ugl8wf6wx3tkmfrjyfrp0ewur9s50zf72"],"fee":292023,"totalOutput":18004236,"tokens":[]},{"hash":"542a258df32879b3972d7bbfb6884105556e13de9cd5d59f94508ea5c65ca129","blockNo":6858990,"blockHash":"44221d9526a1870e59e3781833d065b2fba76e57e55cee6e448a76396064f4f1","epochNo":319,"epochSlotNo":357560,"slot":52802360,"time":"2022/02/09 01:04:11","addressesInput":["addr1q83fuawzq95z6p58p7e4rygtylp7efel256y98lq8s74chmspp3yjgkrxjyd2qdmfgyu0m7kcy6hr6v6r9crzzg0pejqghepph","addr1q83fuawzq95z6p58p7e4rygtylp7efel256y98lq8s74chmspp3yjgkrxjyd2qdmfgyu0m7kcy6hr6v6r9crzzg0pejqghepph"],"addressesOutput":["addr1qy4l06wn59mr3ym9gjazfye7dw6mwqdl2ugv898wsn8kye364ek64p0aylkwy3h4jmqu83hphk0wjlsddnkl6h6xkvhqm3zegg","addr1q83fuawzq95z6p58p7e4rygtylp7efel256y98lq8s74chmspp3yjgkrxjyd2qdmfgyu0m7kcy6hr6v6r9crzzg0pejqghepph","addr1q83fuawzq95z6p58p7e4rygtylp7efel256y98lq8s74chmspp3yjgkrxjyd2qdmfgyu0m7kcy6hr6v6r9crzzg0pejqghepph"],"fee":205629,"totalOutput":17755770,"tokens":[]},{"hash":"953e912c00652722b698b3af069c5cb6f2f63790af0ff9f73024c0831f09265d","blockNo":6858862,"blockHash":"e673bbf3bc82f8c8672398c5c4d4a11247ad48ec65805ea51767666d22ea1cc6","epochNo":319,"epochSlotNo":354938,"slot":52799738,"time":"2022/02/09 00:20:29","addressesInput":["addr1qx6ctyk53vmsqw4dtg9lf7k2dmxdrpapqapxp536y2jzc52f52e4hztcwdawm5wyw7q70zmmutlkvcp9x8w2vp23cl4seanf8s"],"addressesOutput":["addr1q8exgzzsw9y4c4hg797nad4ltapygfv24avxrqxqt0z64ty6j3wwzme32ldpwth05nkztfc9wapmqr4j4xqjzuauvwcsshfm0r","addr1qx6ctyk53vmsqw4dtg9lf7k2dmxdrpapqapxp536y2jzc52f52e4hztcwdawm5wyw7q70zmmutlkvcp9x8w2vp23cl4seanf8s","addr1qx6ctyk53vmsqw4dtg9lf7k2dmxdrpapqapxp536y2jzc52f52e4hztcwdawm5wyw7q70zmmutlkvcp9x8w2vp23cl4seanf8s"],"fee":201009,"totalOutput":21617833,"tokens":[]},{"hash":"36a4a54fdb42443bf81438aea3ccd5b35afe2df972395c50fd98d593049565be","blockNo":6858845,"blockHash":"b30e09db5fd8347e14ab5b14e37beb74ea3d5a9e89f74111aa96adf8ae428a72","epochNo":319,"epochSlotNo":354664,"slot":52799464,"time":"2022/02/09 00:15:55","addressesInput":["addr1qyfqrqhuljs6s05xn9camr3fkfk98d4xyn9vwf75dnnylwzdweftyc5cx76lqf466ugl8wf6wx3tkmfrjyfrp0ewur9s50zf72","addr1qyfqrqhuljs6s05xn9camr3fkfk98d4xyn9vwf75dnnylwzdweftyc5cx76lqf466ugl8wf6wx3tkmfrjyfrp0ewur9s50zf72","addr1qyfqrqhuljs6s05xn9camr3fkfk98d4xyn9vwf75dnnylwzdweftyc5cx76lqf466ugl8wf6wx3tkmfrjyfrp0ewur9s50zf72","addr1qyfqrqhuljs6s05xn9camr3fkfk98d4xyn9vwf75dnnylwzdweftyc5cx76lqf466ugl8wf6wx3tkmfrjyfrp0ewur9s50zf72","addr1qyfqrqhuljs6s05xn9camr3fkfk98d4xyn9vwf75dnnylwzdweftyc5cx76lqf466ugl8wf6wx3tkmfrjyfrp0ewur9s50zf72","addr1qyfqrqhuljs6s05xn9camr3fkfk98d4xyn9vwf75dnnylwzdweftyc5cx76lqf466ugl8wf6wx3tkmfrjyfrp0ewur9s50zf72"],"addressesOutput":["addr1v8n5c2arcu5k7mq5s3h9qgkgj25ffaeqyvgv9tpv9lycnpqnntlg7","addr1qyfqrqhuljs6s05xn9camr3fkfk98d4xyn9vwf75dnnylwzdweftyc5cx76lqf466ugl8wf6wx3tkmfrjyfrp0ewur9s50zf72","addr1qyfqrqhuljs6s05xn9camr3fkfk98d4xyn9vwf75dnnylwzdweftyc5cx76lqf466ugl8wf6wx3tkmfrjyfrp0ewur9s50zf72"],"fee":255965,"totalOutput":77296818,"tokens":[]},{"hash":"d096bbd4eb9fd5ddb7f10de617589b6b319d4196b28ad47ae69513f0cb5290d6","blockNo":6858742,"blockHash":"d32ebdbefb891f155452555aa94ce6f1ec63f2e9739176d18ce7baf248284724","epochNo":319,"epochSlotNo":352374,"slot":52797174,"time":"2022/02/08 23:37:45","addressesInput":["addr1q865j2h6587ckusdmhx93ad9wy8gmavkzfk60chz6hf387smvraqm8sw4z2f86vcx4pts99qmmx6zgyxq8j22esfqdjq02g7cc","addr1q865j2h6587ckusdmhx93ad9wy8gmavkzfk60chz6hf387smvraqm8sw4z2f86vcx4pts99qmmx6zgyxq8j22esfqdjq02g7cc"],"addressesOutput":["addr1v8hc68v2xfga6dmyhvxdv4qpzug9etvm6cz5v3kmcnt9ltqa62d44","addr1q865j2h6587ckusdmhx93ad9wy8gmavkzfk60chz6hf387smvraqm8sw4z2f86vcx4pts99qmmx6zgyxq8j22esfqdjq02g7cc","addr1q865j2h6587ckusdmhx93ad9wy8gmavkzfk60chz6hf387smvraqm8sw4z2f86vcx4pts99qmmx6zgyxq8j22esfqdjq02g7cc"],"fee":205013,"totalOutput":23317755,"tokens":[]},{"hash":"23cb43fa51a0de288561fcf3ccbb69dd3fb1b65920240f48b726c16b2fe99a43","blockNo":6858663,"blockHash":"127d718ef6caa084546c15e12fa8f38cffca434fa9738dda72939ec90979bd73","epochNo":319,"epochSlotNo":350495,"slot":52795295,"time":"2022/02/08 23:06:26","addressesInput":["addr1qyyy0acdrmv36a44f4cuk4mln8wy4jdt69wq5qy7qzet74lwn0h3rv97jh40whhqrwms5ad7s0k083vwa4h92z4tnrdsq5aa2x","addr1qyyy0acdrmv36a44f4cuk4mln8wy4jdt69wq5qy7qzet74lwn0h3rv97jh40whhqrwms5ad7s0k083vwa4h92z4tnrdsq5aa2x","addr1qxtntxrzesen5c74wgkgm5gjrgr7kkpw7zz5k70rl4jdxxlwn0h3rv97jh40whhqrwms5ad7s0k083vwa4h92z4tnrdsp7hnsq","addr1qy8j8f4m5dzwqucxtfs99mfmr0p975jyju7ysgllwxa80c0wn0h3rv97jh40whhqrwms5ad7s0k083vwa4h92z4tnrdswffc9v","addr1q9gg0xn0j2pywje0rss8d8tnuh70eypgvwk3w58977gsug8wn0h3rv97jh40whhqrwms5ad7s0k083vwa4h92z4tnrdsunr66h"],"addressesOutput":["addr1vyw250em0p6nyz6nfrug8qtgrxlrrd7yzd8hyr65fl40ezsycfnvh","addr1qydupyd7pq436hc9uf8a5yuvcl47t64ddaplaap7lstnuvlwn0h3rv97jh40whhqrwms5ad7s0k083vwa4h92z4tnrdsvhx93e"],"fee":282761,"totalOutput":40910259,"tokens":[]},{"hash":"2c7499d38065fa48005c913b2a949d86490c2a71272c757ab839320bdc16ba08","blockNo":6858649,"blockHash":"7a08324409e060e4504d7219927331618b6f0684730fd2f1741c862fa8d05874","epochNo":319,"epochSlotNo":350211,"slot":52795011,"time":"2022/02/08 23:01:42","addressesInput":["addr1qx6ctyk53vmsqw4dtg9lf7k2dmxdrpapqapxp536y2jzc52f52e4hztcwdawm5wyw7q70zmmutlkvcp9x8w2vp23cl4seanf8s","addr1qx6ctyk53vmsqw4dtg9lf7k2dmxdrpapqapxp536y2jzc52f52e4hztcwdawm5wyw7q70zmmutlkvcp9x8w2vp23cl4seanf8s","addr1qx6ctyk53vmsqw4dtg9lf7k2dmxdrpapqapxp536y2jzc52f52e4hztcwdawm5wyw7q70zmmutlkvcp9x8w2vp23cl4seanf8s","addr1qx6ctyk53vmsqw4dtg9lf7k2dmxdrpapqapxp536y2jzc52f52e4hztcwdawm5wyw7q70zmmutlkvcp9x8w2vp23cl4seanf8s"],"addressesOutput":["addr1wy2mjh76em44qurn5x73nzqrxua7ataasftql0u2h6g88lc3gtgpz","addr1qx6ctyk53vmsqw4dtg9lf7k2dmxdrpapqapxp536y2jzc52f52e4hztcwdawm5wyw7q70zmmutlkvcp9x8w2vp23cl4seanf8s"],"fee":219358,"totalOutput":74793842,"tokens":[]},{"hash":"1eb72467b834ab13081a12888c425d0deebb97eabb2164391122c2b74eb72e6f","blockNo":6858399,"blockHash":"55664d1e885d865b5b00ecb3e524ae14ba66a0e15f63a87ee75f1ef89d127d43","epochNo":319,"epochSlotNo":345109,"slot":52789909,"time":"2022/02/08 21:36:40","addressesInput":["addr1vx0l928zuszdgn2qs062tyze320v0vmg3hdszkw3fykwdece25sw8","addr1vx0l928zuszdgn2qs062tyze320v0vmg3hdszkw3fykwdece25sw8"],"addressesOutput":["addr1v864dv80sv5vjfpvu7pd4zlm9ue8z683lkfh2qrpdmfnhfqausx3p","addr1q9t6auk3en7kkxe2pu7vht4yzgws9rk469pu4s2fjh32nwe64ek64p0aylkwy3h4jmqu83hphk0wjlsddnkl6h6xkvhqjmh2vy","addr1vx0l928zuszdgn2qs062tyze320v0vmg3hdszkw3fykwdece25sw8"],"fee":178745,"totalOutput":7321255,"tokens":[]},{"hash":"f47027e57d638f673f4838fa4300d27ba41c987373eea8d9fa906ff8d9813900","blockNo":6858352,"blockHash":"d583e7b8d7f55c2963c3d6bf14b2c99a8099fb5c17ef860c810a668cba6d37a7","epochNo":319,"epochSlotNo":344050,"slot":52788850,"time":"2022/02/08 21:19:01","addressesInput":["addr1vx0l928zuszdgn2qs062tyze320v0vmg3hdszkw3fykwdece25sw8","addr1vx0l928zuszdgn2qs062tyze320v0vmg3hdszkw3fykwdece25sw8"],"addressesOutput":["addr1v864dv80sv5vjfpvu7pd4zlm9ue8z683lkfh2qrpdmfnhfqausx3p","addr1qx6ctyk53vmsqw4dtg9lf7k2dmxdrpapqapxp536y2jzc52f52e4hztcwdawm5wyw7q70zmmutlkvcp9x8w2vp23cl4seanf8s","addr1vx0l928zuszdgn2qs062tyze320v0vmg3hdszkw3fykwdece25sw8"],"fee":178745,"totalOutput":13321255,"tokens":[]},{"hash":"31ccb731082d8f97f6610ed35332c18f9de77855781f503878c4f001a71dd2d2","blockNo":6858343,"blockHash":"4d0095a69198ffa6a09c7bf77ca097ad8eb48114a9d927601df8c7cd83b491f4","epochNo":319,"epochSlotNo":343850,"slot":52788650,"time":"2022/02/08 21:15:41","addressesInput":["addr1vx0l928zuszdgn2qs062tyze320v0vmg3hdszkw3fykwdece25sw8","addr1vx0l928zuszdgn2qs062tyze320v0vmg3hdszkw3fykwdece25sw8"],"addressesOutput":["addr1v864dv80sv5vjfpvu7pd4zlm9ue8z683lkfh2qrpdmfnhfqausx3p","addr1qy8j8f4m5dzwqucxtfs99mfmr0p975jyju7ysgllwxa80c0wn0h3rv97jh40whhqrwms5ad7s0k083vwa4h92z4tnrdswffc9v","addr1vx0l928zuszdgn2qs062tyze320v0vmg3hdszkw3fykwdece25sw8"],"fee":178745,"totalOutput":10321255,"tokens":[]},{"hash":"13bfa9d354724c5d2d5bcc868aca04363ea19b2ca6cc3e689c497bdcd4ea53b8","blockNo":6858335,"blockHash":"a8aff8a40ebf46c38710754e58fba8fa9608cb7383ec6752b065a2c949ac1e99","epochNo":319,"epochSlotNo":343633,"slot":52788433,"time":"2022/02/08 21:12:04","addressesInput":["addr1vx0l928zuszdgn2qs062tyze320v0vmg3hdszkw3fykwdece25sw8","addr1vx0l928zuszdgn2qs062tyze320v0vmg3hdszkw3fykwdece25sw8"],"addressesOutput":["addr1v864dv80sv5vjfpvu7pd4zlm9ue8z683lkfh2qrpdmfnhfqausx3p","addr1qxcph7ppj4nd4yq6wkz2z44wtf772c6cc592tdsak6sd6nn2rg7asmvhcjdxh498ezwj5rs7vh762ac6a4l0uxl8jsxqe7pv65","addr1vx0l928zuszdgn2qs062tyze320v0vmg3hdszkw3fykwdece25sw8"],"fee":178745,"totalOutput":7321255,"tokens":[]},{"hash":"5df0689a77c5dc563751175fcf1ee9f944c20e5e9573b4a2ee3b22e75b89f2c1","blockNo":6858275,"blockHash":"a84a84bdff3600a5e997ccbc5e384dbfde249aa6e378777ea6b38bc301c4a3d7","epochNo":319,"epochSlotNo":342321,"slot":52787121,"time":"2022/02/08 20:50:12","addressesInput":["addr1qxwxleraj2y0xz8yl33csl4c9a9guxkzrfnewk6uzfppc9qa49c73yv32axatm687gp8req4y0v6thvmec00sz5fdn3spgvad9","addr1qx8mlyl6j2mgx3sghkvtwg2kpdqlx92elt5a4sfel0szhjga49c73yv32axatm687gp8req4y0v6thvmec00sz5fdn3scsvkf3"],"addressesOutput":["addr1v88t6z0tue2ngrw2k7wntj5e9djnndd0mzac357sfhnlpps5rpdup","addr1qxmc6u7wgv9hxg9e6n93synr9wvnndn3eqel9kc48c29g2qa49c73yv32axatm687gp8req4y0v6thvmec00sz5fdn3sg3mpp8"],"fee":238145,"totalOutput":1895884750,"tokens":[]},{"hash":"61097b035ad7cdce03b1a0aa06bf65525014d5101620cd5a710457f0e4301ac9","blockNo":6858265,"blockHash":"3ed341c7791df6f19a1d931a5e5b697477971191b16dff22fd6481b153d90a67","epochNo":319,"epochSlotNo":342125,"slot":52786925,"time":"2022/02/08 20:46:56","addressesInput":["addr1vx0l928zuszdgn2qs062tyze320v0vmg3hdszkw3fykwdece25sw8","addr1vx0l928zuszdgn2qs062tyze320v0vmg3hdszkw3fykwdece25sw8"],"addressesOutput":["addr1v864dv80sv5vjfpvu7pd4zlm9ue8z683lkfh2qrpdmfnhfqausx3p","addr1q9ethlf9nqj6y5x5nvm9rx07azf4f6hd0a6nyx3u089gjqfrjgqg04als35jjt85n7l75q4hryrd7wm5ka2xea35050qlsn2sa","addr1vx0l928zuszdgn2qs062tyze320v0vmg3hdszkw3fykwdece25sw8"],"fee":178745,"totalOutput":7321255,"tokens":[]},{"hash":"7e83bf9f9ace419fc0d9e31eebdc2e63382595709d454eb1318025180d0e9d45","blockNo":6858234,"blockHash":"90f86901b93865bae2857202e7dc1bb74ce54c8871d45e9abe5b3a60f646746b","epochNo":319,"epochSlotNo":341374,"slot":52786174,"time":"2022/02/08 20:34:25","addressesInput":["addr1q865j2h6587ckusdmhx93ad9wy8gmavkzfk60chz6hf387smvraqm8sw4z2f86vcx4pts99qmmx6zgyxq8j22esfqdjq02g7cc","addr1q865j2h6587ckusdmhx93ad9wy8gmavkzfk60chz6hf387smvraqm8sw4z2f86vcx4pts99qmmx6zgyxq8j22esfqdjq02g7cc","addr1q865j2h6587ckusdmhx93ad9wy8gmavkzfk60chz6hf387smvraqm8sw4z2f86vcx4pts99qmmx6zgyxq8j22esfqdjq02g7cc","addr1q865j2h6587ckusdmhx93ad9wy8gmavkzfk60chz6hf387smvraqm8sw4z2f86vcx4pts99qmmx6zgyxq8j22esfqdjq02g7cc"],"addressesOutput":["addr1w9yr0zr530tp9yzrhly8lw5upddu0eym3yh0mjwa0qlr9pgmkzgv0","addr1q865j2h6587ckusdmhx93ad9wy8gmavkzfk60chz6hf387smvraqm8sw4z2f86vcx4pts99qmmx6zgyxq8j22esfqdjq02g7cc"],"fee":212669,"totalOutput":8588877,"tokens":[]},{"hash":"978e40a1d54df85848ba3b43f79e6f36eaed60d302a381dc4b3b27dc490a13eb","blockNo":6858199,"blockHash":"61bb1774d6141745a506bdeb8e7595f347cd92ea072eccd14dd78fafe4122f20","epochNo":319,"epochSlotNo":340774,"slot":52785574,"time":"2022/02/08 20:24:25","addressesInput":["addr1vx0l928zuszdgn2qs062tyze320v0vmg3hdszkw3fykwdece25sw8","addr1vx0l928zuszdgn2qs062tyze320v0vmg3hdszkw3fykwdece25sw8"],"addressesOutput":["addr1v864dv80sv5vjfpvu7pd4zlm9ue8z683lkfh2qrpdmfnhfqausx3p","addr1qyqswl60q09ruc6wejuw7eskqvta8fxa99klazmqw6lrfz8ukg2ttsywfqw64y2d9gndhhaf260nkucnml0dp5vm97ys6ja99s","addr1vx0l928zuszdgn2qs062tyze320v0vmg3hdszkw3fykwdece25sw8"],"fee":178745,"totalOutput":16321255,"tokens":[]},{"hash":"711d65539b1b1aedb5b91adf1838c2b39fc7d9925721f760a790fb99a52b4219","blockNo":6858079,"blockHash":"3f4cbe662c883f61607e95108102bdbe39a7a162b1e92346793e067c627c0feb","epochNo":319,"epochSlotNo":338108,"slot":52782908,"time":"2022/02/08 19:39:59","addressesInput":["addr1q865j2h6587ckusdmhx93ad9wy8gmavkzfk60chz6hf387smvraqm8sw4z2f86vcx4pts99qmmx6zgyxq8j22esfqdjq02g7cc","addr1w9yr0zr530tp9yzrhly8lw5upddu0eym3yh0mjwa0qlr9pgmkzgv0"],"addressesOutput":["addr1q865j2h6587ckusdmhx93ad9wy8gmavkzfk60chz6hf387smvraqm8sw4z2f86vcx4pts99qmmx6zgyxq8j22esfqdjq02g7cc","addr1q865j2h6587ckusdmhx93ad9wy8gmavkzfk60chz6hf387smvraqm8sw4z2f86vcx4pts99qmmx6zgyxq8j22esfqdjq02g7cc"],"fee":1029769,"totalOutput":3251190,"tokens":[]},{"hash":"79336c9ff844320f2faf355c1c3059ccdbfc2fc675ca4dcab2110b3522857016","blockNo":6858067,"blockHash":"5d4ad6a9a5417b1da8b194cfaac1fcd3b62c70d092f1f52c27f7e507f5c85696","epochNo":319,"epochSlotNo":337754,"slot":52782554,"time":"2022/02/08 19:34:05","addressesInput":["addr1qx2d6cxszcvmq49wx84ksve56map35ghca3vlfygwkkgk4qs7vslymzvjq6r7q5jz9se7eyzjxhhsp8sq5ay6rh7av0qwngahe"],"addressesOutput":["addr1q94nnuhj89jfj3kq2n9vjk96zpqd85746dpchkwsnedaad52ecsshwfqe7na2r3xk3mhkp33klgfxvz9f8cfeke3ke3s74czk8","addr1qx2d6cxszcvmq49wx84ksve56map35ghca3vlfygwkkgk4qs7vslymzvjq6r7q5jz9se7eyzjxhhsp8sq5ay6rh7av0qwngahe"],"fee":258561,"totalOutput":15107803,"tokens":[]},{"hash":"710e5039dbc370d93ad02ad3800a0ec1722bad8555acc9e04ff742f1dd475696","blockNo":6858042,"blockHash":"0422a1a96739a84d8ae10ac7d29691e43b1307bd1edb5e9029efde13dcc44d20","epochNo":319,"epochSlotNo":337268,"slot":52782068,"time":"2022/02/08 19:25:59","addressesInput":["addr1q9dk87tmypnspkeqsy4z8jn734vdwt0h93sdvzzcguahx6zgut86gkznu32y850pllqd77zydskxvp6kcnj93gf2k5gs0g094y","addr1q9dk87tmypnspkeqsy4z8jn734vdwt0h93sdvzzcguahx6zgut86gkznu32y850pllqd77zydskxvp6kcnj93gf2k5gs0g094y","addr1q9dk87tmypnspkeqsy4z8jn734vdwt0h93sdvzzcguahx6zgut86gkznu32y850pllqd77zydskxvp6kcnj93gf2k5gs0g094y"],"addressesOutput":["addr1wxaptpmxcxawvr3pzlhgnpmzz3ql43n2tc8mn3av5kx0yzs09tqh8","addr1q9dk87tmypnspkeqsy4z8jn734vdwt0h93sdvzzcguahx6zgut86gkznu32y850pllqd77zydskxvp6kcnj93gf2k5gs0g094y"],"fee":357905,"totalOutput":248739806,"tokens":[]},{"hash":"0210e1c1c9bb6bce9cc5ea1b76bacc45f3f97da6acb36c047d0fae521f24ddc7","blockNo":6857967,"blockHash":"fba4d02612f06807210762145edff35ad1a7c499de114183122778b1442a6d25","epochNo":319,"epochSlotNo":335963,"slot":52780763,"time":"2022/02/08 19:04:14","addressesInput":["addr1q865j2h6587ckusdmhx93ad9wy8gmavkzfk60chz6hf387smvraqm8sw4z2f86vcx4pts99qmmx6zgyxq8j22esfqdjq02g7cc","addr1q865j2h6587ckusdmhx93ad9wy8gmavkzfk60chz6hf387smvraqm8sw4z2f86vcx4pts99qmmx6zgyxq8j22esfqdjq02g7cc","addr1q865j2h6587ckusdmhx93ad9wy8gmavkzfk60chz6hf387smvraqm8sw4z2f86vcx4pts99qmmx6zgyxq8j22esfqdjq02g7cc"],"addressesOutput":["addr1w9yr0zr530tp9yzrhly8lw5upddu0eym3yh0mjwa0qlr9pgmkzgv0","addr1q865j2h6587ckusdmhx93ad9wy8gmavkzfk60chz6hf387smvraqm8sw4z2f86vcx4pts99qmmx6zgyxq8j22esfqdjq02g7cc"],"fee":182001,"totalOutput":4280959,"tokens":[]},{"hash":"28d75408a01d4ce9df1cd990e4c08f303fbd6c74c487d3e0479f15d99e2d485b","blockNo":6857943,"blockHash":"a0ceee4976937dffe14ea92961980daf3cd3318a783106e0628f0684bc170791","epochNo":319,"epochSlotNo":335499,"slot":52780299,"time":"2022/02/08 18:56:30","addressesInput":["addr1q9p8xyeyexkehz55dvnrnvfm06s35kagf9gav8y4z5dwseqx6fe0tyyvlm2cv0r0e0nfhnjmwky8n3860mvwt7nfn6vsyd2ah4"],"addressesOutput":["addr1w9yr0zr530tp9yzrhly8lw5upddu0eym3yh0mjwa0qlr9pgmkzgv0","addr1q9p8xyeyexkehz55dvnrnvfm06s35kagf9gav8y4z5dwseqx6fe0tyyvlm2cv0r0e0nfhnjmwky8n3860mvwt7nfn6vsyd2ah4"],"fee":203825,"totalOutput":17045200,"tokens":[]}],"totalItems":553,"totalPages":28,"currentPage":0}