{"data":[{"blockNo":8989482,"slotNo":96973444,"epochNo":422,"epochSlotNo":32644,"hash":"673fde81dcf95a63be3af8f1fd5eb8cd014cb79161268907fc634aba1529ef96","time":"2023/07/05 06:48:55","txCount":28,"totalFees":9775269,"totalOutput":1818125276625,"slotLeader":"903c38e5905f1587d5ecf8c875a181725fb4b12b3eb06ce1d20bb1c6"},{"blockNo":8989481,"slotNo":96973399,"epochNo":422,"epochSlotNo":32599,"hash":"02729613ebf1b8dd4b38669a052cc97897de2ffb3ff48f3ae3736cf8b2de9709","time":"2023/07/05 06:48:10","txCount":16,"totalFees":6692235,"totalOutput":39001197511323,"slotLeader":"a503e42a2c6ef347d834fa404fa4d4bfa6dfb48256ff95b067483980"},{"blockNo":8989480,"slotNo":96973380,"epochNo":422,"epochSlotNo":32580,"hash":"1f73e628b959ac62e1c0c17f917b1418d0edc9257dcc420f23ec80822211328b","time":"2023/07/05 06:47:51","txCount":3,"totalFees":847579,"totalOutput":5085032323,"slotLeader":"37d2b23f574680a88198e99cc884b6cf9292ce3500467584cb5093f2"},{"blockNo":8989479,"slotNo":96973378,"epochNo":422,"epochSlotNo":32578,"hash":"c65cce74a6cf3432d1d0df124421f0fd0d3dedf0708b01e24e3af3ce65cd22d2","time":"2023/07/05 06:47:49","txCount":40,"totalFees":12664694,"totalOutput":3221712891390,"slotLeader":"dacdbb3e160587423dc699830ace34969d3280ed48cea25551633e1a"},{"blockNo":8989478,"slotNo":96973347,"epochNo":422,"epochSlotNo":32547,"hash":"3a33334d5b5f146c3b329f7e5c90bb3599fb7905ad7bb57c8b297a9886368a31","time":"2023/07/05 06:47:18","txCount":24,"totalFees":11898234,"totalOutput":6692886327568,"slotLeader":"d785ff6a030ae9d521770c00f264a2aa423e928c85fc620b13d46eda"},{"blockNo":8989477,"slotNo":96973311,"epochNo":422,"epochSlotNo":32511,"hash":"2977e203a1bccd40ef187b8dc046505b332bcc6bbe777141159e0ebcdc5e4865","time":"2023/07/05 06:46:42","txCount":26,"totalFees":11090613,"totalOutput":33825660224083,"slotLeader":"d9e2d181dfe21ab2ca7e95847b9a219e691ee1366d22569712390655"},{"blockNo":8989476,"slotNo":96973309,"epochNo":422,"epochSlotNo":32509,"hash":"c05e9818b5d8452bd1d4c3e92425c8f5a71a268d75bd58e1f5d6d050c9736110","time":"2023/07/05 06:46:40","txCount":21,"totalFees":9451908,"totalOutput":2119351232606,"slotLeader":"df6d366e0d659557f7ce38f1f6015fe5022b15fac72e5c3bd28bc5ed"},{"blockNo":8989475,"slotNo":96973256,"epochNo":422,"epochSlotNo":32456,"hash":"cb1656275fe97badd300798fe9698ba02c514977f747c5f506339400bea78d21","time":"2023/07/05 06:45:47","txCount":36,"totalFees":11458772,"totalOutput":2336596407988,"slotLeader":"65c47f523eecdd5e3c7c0409c4ac97f08d31982b1d67363f7adc919e"},{"blockNo":8989474,"slotNo":96973244,"epochNo":422,"epochSlotNo":32444,"hash":"ed654ec0a69dce18701e86fed463b585e7ab33e21cbf7552a085e68075c587e5","time":"2023/07/05 06:45:35","txCount":19,"totalFees":8836748,"totalOutput":8361892685206,"slotLeader":"df6d366e0d659557f7ce38f1f6015fe5022b15fac72e5c3bd28bc5ed"},{"blockNo":8989473,"slotNo":96973225,"epochNo":422,"epochSlotNo":32425,"hash":"3da94230f347c7c42a07c382a3af4cecd6d50d162942dabf46b02a64c58c1a30","time":"2023/07/05 06:45:16","txCount":19,"totalFees":9453606,"totalOutput":45436303235199,"slotLeader":"d918835729aaab9d4dca82c60079a6c643d65141f909730ecfeb3aef"}],"totalItems":1522,"totalPages":153,"currentPage":0}