{"data":[{"address":"addr_test1zqzc3jyfefuv4vj8zhk0vg78yxwjeuk4qdc68twua2gsr6r44kgagw49zsln23lqjmtglv5n4tfjdlvnatvmk5whfrrqwxllu7","txCount":104,"balance":18471227280374},{"address":"addr_test1wryc5pv80l9n5kvp27w3rjyq7t7hv0n75wwuny5w40zdqhc2pe2cm","txCount":3455,"balance":17320127632604},{"address":"addr_test1zqzc3jyfefuv4vj8zhk0vg78yxwjeuk4qdc68twua2gsr69xl47kj2a5s056va6dckrhu5a2aqay2px4y4wtt0sephwq4dhfyq","txCount":54,"balance":12798292635333},{"address":"addr_test1zp40k56s0pq085hyzyeclfh6l987el8xyze5v86h0pr7wzkvenlf6qfxx9s3re5y0pqh2ug89dynd8xsje5835f7sutslvktx9","txCount":4942,"balance":5611157339481},{"address":"addr_test1wz6lvjg3anml96vl22mls5vae3x2cgaqwy2ewp5gj3fcxdcw652wz","txCount":1843,"balance":5129618083118},{"address":"addr_test1zqzc3jyfefuv4vj8zhk0vg78yxwjeuk4qdc68twua2gsr6p3087lknmx098z2sflqgp5jafvfhtgna905c5xmf6rsaaqpcxt4m","txCount":183,"balance":4348118067166},{"address":"addr_test1zqzc3jyfefuv4vj8zhk0vg78yxwjeuk4qdc68twua2gsr68jkl9fsxxuceh4jt2z57gjsfquuycx8rw60s9a8402pn8qknvqtt","txCount":67,"balance":4072782604745},{"address":"addr_test1zqzc3jyfefuv4vj8zhk0vg78yxwjeuk4qdc68twua2gsr6qtz2su6pacwwz6ktmr9q0ajyv6xucs0lddet0skdjp652s606tf3","txCount":48,"balance":3682577737186},{"address":"addr_test1zqzc3jyfefuv4vj8zhk0vg78yxwjeuk4qdc68twua2gsr6yqzuhy4q89t2e0za2fz3m6khlfkurlky4pl8ptnwakqegs2csjhy","txCount":53,"balance":1823411484326},{"address":"addr_test1wpg2dtkql0qwvnhq7dze78urg4mf55gxtlkryywhjmweuns5sdcl4","txCount":2244,"balance":1245040400066},{"address":"addr_test1zqzc3jyfefuv4vj8zhk0vg78yxwjeuk4qdc68twua2gsr6r4d2j208uptt70pku4ah0q0pwfssjuv3f6hezfduhs5egsfnzslu","txCount":46,"balance":1236838505753},{"address":"addr_test1zrgfhr82d6nlv8as6x7sg9rur6x7ke3rdgu2t4y37phzxpd3hcc035r9r76tkxehlr9wdla9twe02dpv843nru6czj6qxzlq5e","txCount":4,"balance":1001415366162},{"address":"addr_test1zruxdu5tppqnuh3gw0l35yc4r3jau9qyjhffkg8pcqvp2da6psfetxffq2j3zhsj2j6stdl4l3qwydctmuge6pwvdcqq8cj5tp","txCount":253,"balance":997884913640},{"address":"addr_test1wqnp362vmvr8jtc946d3a3utqgclfdl5y9d3kn849e359hst7hkqk","txCount":1610,"balance":952184750297},{"address":"addr_test1wr623ag5vs3sz0gxlwnskemuqujssxvpstk7ayt48729ltsa47uze","txCount":1786,"balance":939596917781},{"address":"addr_test1zqzc3jyfefuv4vj8zhk0vg78yxwjeuk4qdc68twua2gsr6ytkpgueuchfsferwdggatxtn3pnj9kahzeqjpsmu4jw3qstknrxl","txCount":704,"balance":805253808858},{"address":"addr_test1zqzc3jyfefuv4vj8zhk0vg78yxwjeuk4qdc68twua2gsr6z8aqt5cpvnz5a9nupsxs6p5hq7xll07p5rmqxnwze4eu6sendafy","txCount":59,"balance":739126066728},{"address":"addr_test1zqncd5pkqrh88lqr38pq2zmnngzs2dgvd6dw8nmv5v50xn8nf6m0ax8p782cdcaucyahgrc3992hj2lv65gtxy2hts6sphne5x","txCount":33,"balance":662430126400},{"address":"addr_test1wqyq40wj7pp5examv8sd579nnez80gejk6ehk9w96d6lq5ch4mpck","txCount":1231,"balance":413907500064},{"address":"addr_test1zqzc3jyfefuv4vj8zhk0vg78yxwjeuk4qdc68twua2gsr6qp7frsh43lyl597nluu6j3v4l4al0ggmkmuqwydjqusgjqcf9hdn","txCount":205,"balance":348817848505}],"totalItems":23052,"totalPages":1153,"currentPage":0}