{"data":[{"blockNo":8238006,"slotNo":81493523,"epochNo":386,"epochSlotNo":104723,"hash":"8e5aa8a2020446f9b370171c730fdd76ea438442809eb691bc7ff3d73bb3d010","time":"2023/01/07 02:50:14","txCount":3,"totalFees":1192591,"totalOutput":1045476039564,"slotLeader":"2fc479904f9482d1b573977a3af26bb5577545014521eee513f54ef1"},{"blockNo":8238005,"slotNo":81493518,"epochNo":386,"epochSlotNo":104718,"hash":"082986aec5a0a4838fd24392e9fe1bdd7d3bcffec5cb0812a7d08c88aceeb074","time":"2023/01/07 02:50:09","txCount":9,"totalFees":2230131,"totalOutput":663857747574,"slotLeader":"4a5571be1cb000df524350ef170f73cc0c0404155350dd0f71e4d130"},{"blockNo":8238004,"slotNo":81493499,"epochNo":386,"epochSlotNo":104699,"hash":"6e4aa713519f0fdcb8d3b1a593f2a4fda1565fc3c146938a0960c6e23f9a03f0","time":"2023/01/07 02:49:50","txCount":12,"totalFees":5536588,"totalOutput":341435173859,"slotLeader":"6184f6e7229530a2d1f9f746112406100e2696dd7439ff8c52750700"},{"blockNo":8238003,"slotNo":81493465,"epochNo":386,"epochSlotNo":104665,"hash":"9d8f9bb8c28997c3032dd1deb20815493e3f1f3178bd60b3b5e7b33bc1b3dec9","time":"2023/01/07 02:49:16","txCount":12,"totalFees":7854627,"totalOutput":964389920579,"slotLeader":"d679d78bbfefe7e03e05e7a42f9088075af0f15f501a631c67e64037"},{"blockNo":8238002,"slotNo":81493451,"epochNo":386,"epochSlotNo":104651,"hash":"d3d98ed870a6a1a7fd55e2ccbdf3777fe6fc0d1e4bd9e32f2d6948ebd3eea2e0","time":"2023/01/07 02:49:02","txCount":14,"totalFees":5328161,"totalOutput":1874263346665,"slotLeader":"c01546efeba17d531d60447356fc4c19b29c632aeac3377d21f75b4e"},{"blockNo":8238001,"slotNo":81493429,"epochNo":386,"epochSlotNo":104629,"hash":"3e67a6cff40b9e5f53a9870c9a14a9b28a498a5012d32b2b78da12f3e9b754b3","time":"2023/01/07 02:48:40","txCount":6,"totalFees":3193639,"totalOutput":410176048419,"slotLeader":"6dd356ae25a25f87f253863a26098ef4493121cc5a696a90b82bfd77"},{"blockNo":8238000,"slotNo":81493427,"epochNo":386,"epochSlotNo":104627,"hash":"5768acb60787ccf57303b5069a8f59e9ad81d44bbf79cd0355db9eaf3bc843a3","time":"2023/01/07 02:48:38","txCount":40,"totalFees":11468530,"totalOutput":1250739904819,"slotLeader":"2a748e3885f6f73320ad16a8331247b81fe01b8d39f57eec9caa5091"},{"blockNo":8237999,"slotNo":81493369,"epochNo":386,"epochSlotNo":104569,"hash":"1e224eb6e51bc1960ebe469cd0a6239246bb16855ebdbabf84e62207418f190a","time":"2023/01/07 02:47:40","txCount":2,"totalFees":2561159,"totalOutput":23405140196,"slotLeader":"abacadaba9f12a8b5382fc370e4e7e69421fb59831bb4ecca3a11d9b"},{"blockNo":8237998,"slotNo":81493361,"epochNo":386,"epochSlotNo":104561,"hash":"4982a8257007f4426f85e77932be5832a61e0739bcbf51f95a46aa9f806f2498","time":"2023/01/07 02:47:32","txCount":6,"totalFees":1846769,"totalOutput":15089387495,"slotLeader":"b44181287c72d0c7b1bce6a57173cdf739ac77d030bdfc4606138dd2"},{"blockNo":8237997,"slotNo":81493354,"epochNo":386,"epochSlotNo":104554,"hash":"4989339088f2f7c7a03b3f85be32f62d676cedbfa043db670ccb2e682db2146a","time":"2023/01/07 02:47:25","txCount":1,"totalFees":186005,"totalOutput":871302112,"slotLeader":"e118432cb62a1f13de9af18f7eff32a98fe97b751d444117f7655b86"},{"blockNo":8237996,"slotNo":81493352,"epochNo":386,"epochSlotNo":104552,"hash":"28d4b5b02486dd5f57cf4228fb10822f3dbd67a9b591039e551910660eb97bdc","time":"2023/01/07 02:47:23","txCount":3,"totalFees":919549,"totalOutput":14778261282,"slotLeader":"cb40e0cff388865448b04c364ff941ccf576bb2c7f8c804bdc153769"},{"blockNo":8237995,"slotNo":81493347,"epochNo":386,"epochSlotNo":104547,"hash":"3519dd7ace99be098578620fdf1ad181fced7523b4c617502f1beba4c2743f55","time":"2023/01/07 02:47:18","txCount":18,"totalFees":6219977,"totalOutput":139384269369,"slotLeader":"89f7ebe5936075aae36b1f7f2e1e9e5d2decd5230cfb962d01e12c84"},{"blockNo":8237994,"slotNo":81493328,"epochNo":386,"epochSlotNo":104528,"hash":"6fd5921ce1dd6d0853804bf1fa9c7f39578aedf2b7f0f6187f01ac06e042ac62","time":"2023/01/07 02:46:59","txCount":15,"totalFees":6230288,"totalOutput":153231131686,"slotLeader":"9e734b6c2263c0917bfc550e9c949f41afa3fe000377243bd29df399"},{"blockNo":8237993,"slotNo":81493303,"epochNo":386,"epochSlotNo":104503,"hash":"6f00335e1c75c643a02765caa38e4564a4b629b5d5ed917ba8c81c942be06c19","time":"2023/01/07 02:46:34","txCount":32,"totalFees":11539728,"totalOutput":1512235520538,"slotLeader":"90a9f94272aa45bb1eb27bb0e2fda43eb4d9bfd31010ab2c9c249896"},{"blockNo":8237992,"slotNo":81493262,"epochNo":386,"epochSlotNo":104462,"hash":"e897a62a2c9a2a71e5fcd68bdfe9cb2124af47490ee3ff447c030a8c17dc9bd3","time":"2023/01/07 02:45:53","txCount":1,"totalFees":173113,"totalOutput":820426321,"slotLeader":"e3f78291c937e8a2f5662765c1442804dc89db4ef7f3296e4852b986"},{"blockNo":8237991,"slotNo":81493260,"epochNo":386,"epochSlotNo":104460,"hash":"9df9ae8c5bfbd47ca0dd9e72a1a53d054bc458d59dd05f47fcd3575b361f3b57","time":"2023/01/07 02:45:51","txCount":39,"totalFees":11429453,"totalOutput":2242104785246,"slotLeader":"e5b20e8f9661506710a159e561d40ceb54449fdea1d1130b3bdb36bb"},{"blockNo":8237990,"slotNo":81493217,"epochNo":386,"epochSlotNo":104417,"hash":"c656ffeb354fcfd80dc19325074ea49ba5ce0011f4590efc7a67a0c219df4b03","time":"2023/01/07 02:45:08","txCount":32,"totalFees":14161211,"totalOutput":807185528559,"slotLeader":"c825168836c5bf850dec38567eb4771c2e03eea28658ff291df768ae"},{"blockNo":8237989,"slotNo":81493173,"epochNo":386,"epochSlotNo":104373,"hash":"0222ec2a6c7aa9d50216cfa7ce423cc7973c37c36a653b46ffb50fffa7ea6bc1","time":"2023/01/07 02:44:24","txCount":5,"totalFees":1170940,"totalOutput":3832817322,"slotLeader":"fd832d27b5fbe0489409613f50e2139b54a21e613c8a7609dcff556e"},{"blockNo":8237988,"slotNo":81493166,"epochNo":386,"epochSlotNo":104366,"hash":"7b2fc11aee9615256daaebe8d3708fdc27e601fa31a8a2ffece4ebe1ab40543c","time":"2023/01/07 02:44:17","txCount":4,"totalFees":1737436,"totalOutput":870520057,"slotLeader":"a5b36528fbbb2709e1b29fbdc3816399ef2bd1c916efa416aa325f1a"},{"blockNo":8237987,"slotNo":81493158,"epochNo":386,"epochSlotNo":104358,"hash":"ec937687b7100580803bad8a313af991fa95f4350dc58c5ea9a995504ef8b8dc","time":"2023/01/07 02:44:09","txCount":18,"totalFees":4350169,"totalOutput":22787638200,"slotLeader":"c6fbd4e484a28211695206e1b53f1409e7cef8c62d3f6b24bab2f600"}],"totalItems":8238182,"totalPages":411910,"currentPage":0}