{"data":[{"txId":36959644,"txHash":"d15463396d50990d354d31527d7f72be6514a14272f349eb444b851c87bce8f4","txTime":"2022/04/04 18:25:46","block":7082643,"epoch":330,"slotNo":57530455,"epochSlotNo":333655,"stakeKey":"stake1uxylya6frqeza23t0gu65dg04psjv45sp5n7swkegp8mchs99nwvv"},{"txId":36959641,"txHash":"9a785c44384a74f90c64b57877069aed00c4eaca0208d8318b15bc0791d73404","txTime":"2022/04/04 18:25:46","block":7082643,"epoch":330,"slotNo":57530455,"epochSlotNo":333655,"stakeKey":"stake1uyvfnzf2my5a6kx8fyd5qy6zy40n5629cuk2a2uy9pxks6qsyzynf"},{"txId":36959629,"txHash":"7ba42cfda0fda7fbec400553441cdc51111b9e96ffc9896fc591810a66fffe6d","txTime":"2022/04/04 18:25:46","block":7082643,"epoch":330,"slotNo":57530455,"epochSlotNo":333655,"stakeKey":"stake1uy4q2azuk8a60mk7y6axjxfeemz95cmz3unh2r2y63kfmysuvxtg3"},{"txId":36959594,"txHash":"abfea1003229ef1269c49abf9935030e8dcca0b0bae782c136e404f5ac9ee847","txTime":"2022/04/04 18:24:33","block":7082640,"epoch":330,"slotNo":57530382,"epochSlotNo":333582,"stakeKey":"stake1u9j82gs247e69rl5l6szt8zs8auh0lm3rls6wkwngvvuw8c0s6z4l"},{"txId":36959545,"txHash":"fad93f83110f9aafe6064b561f1af9668c48e4c96602a5d3f724b28fcd82583b","txTime":"2022/04/04 18:24:30","block":7082639,"epoch":330,"slotNo":57530379,"epochSlotNo":333579,"stakeKey":"stake1uywcac25yg3gw5z4lzphfxzq9v66sx8kzd3fv4zp3nn3qessgawn6"},{"txId":36959512,"txHash":"bf864a6e697d9a111301e2acf7464f99a1fe7ab037f8da7b516478b469bf2778","txTime":"2022/04/04 18:24:24","block":7082638,"epoch":330,"slotNo":57530373,"epochSlotNo":333573,"stakeKey":"stake1uxytr7ugjvnqt2g2cnkce2zgj2ssscj6l3nfktl8f3my8yg87sty2"},{"txId":36959328,"txHash":"6eaf7be66c20e08d8753120dca8cb2b56bffddb43055bf865794591633e9b398","txTime":"2022/04/04 18:21:01","block":7082628,"epoch":330,"slotNo":57530170,"epochSlotNo":333370,"stakeKey":"stake1uy903ysurl5t0flxlx7g9tv3etd7n7h4gx64ar4306lpkqqvpg3v6"},{"txId":36959275,"txHash":"c4b9adf5400b622d4a78aa3a618d7a794a43051ab04e0c16d3d59394e068e7d6","txTime":"2022/04/04 18:20:56","block":7082627,"epoch":330,"slotNo":57530165,"epochSlotNo":333365,"stakeKey":"stake1u8eqt6n2nm4f28pqyuy0pyt7gs87wk5vsws9ggeljtvddgs2n6raj"},{"txId":36959049,"txHash":"552fa8ca6ed12ebeb273554cd940d4519d60e2fc457ca2759b980ef78c37ff4f","txTime":"2022/04/04 18:18:09","block":7082618,"epoch":330,"slotNo":57529998,"epochSlotNo":333198,"stakeKey":"stake1uyds0jfh6td6r6mvafwkkehyfkgnjuqfw3p7kkv4ly5g2ycwlhdd3"},{"txId":36958967,"txHash":"6de4d3e25b43b197a72cf3b4bb9ff570755460cfc4bcfc785a4b6594586ebd5e","txTime":"2022/04/04 18:17:19","block":7082615,"epoch":330,"slotNo":57529948,"epochSlotNo":333148,"stakeKey":"stake1u9cllapt5w9ak95n3kqzver9t65yu5tr6weu0nmc6md9hcqr0jcme"},{"txId":36958863,"txHash":"7246eba199c2c19232a207fa5a520ecc076250b9575f170bdebfcfcd1abf3b28","txTime":"2022/04/04 18:16:55","block":7082611,"epoch":330,"slotNo":57529924,"epochSlotNo":333124,"stakeKey":"stake1uys2qgn5808vsr6fmdvgpm77u0kqxa8r07ee2eu2yr32u5cdykk0h"},{"txId":36958699,"txHash":"c38e25d66dd38c5ef9ae44e5271fedbeb9cda8c523abbee1757695bcf21fc2fa","txTime":"2022/04/04 18:15:12","block":7082604,"epoch":330,"slotNo":57529821,"epochSlotNo":333021,"stakeKey":"stake1u94mygv26nq0a5hflflfpnufccsdlwxafflwqldct73v84s8epg8y"},{"txId":36958653,"txHash":"09967c7a8379080af947cac4c7a03620b03aa5d2fd804021f471ff566bcc2980","txTime":"2022/04/04 18:14:24","block":7082602,"epoch":330,"slotNo":57529773,"epochSlotNo":332973,"stakeKey":"stake1uynwtcfn06ppluntxzjcsgcnc8ycyn8j3fn8rjagwsth9zqexu86p"},{"txId":36958403,"txHash":"7ebaf70f44d36c126434268377339cc36173c97eb2c6ae119debed04f40a18fa","txTime":"2022/04/04 18:10:42","block":7082594,"epoch":330,"slotNo":57529551,"epochSlotNo":332751,"stakeKey":"stake1u9pjl2hu42fc4ezj53q4e0hzl08x0qqy9m828wy6mkpfwasqv5xmk"},{"txId":36958295,"txHash":"73a4439957e7b419d49eb885489964b94d420ab000e8949f4d1422d9c56a9785","txTime":"2022/04/04 18:09:08","block":7082590,"epoch":330,"slotNo":57529457,"epochSlotNo":332657,"stakeKey":"stake1u9wavqd8lwxvtlzjtgdxm9tudzn5yssty2edkmrke80jc4crk3s2l"},{"txId":36958126,"txHash":"47b4b082a439f45382c60ccff8b21a7cea1083d1e0c6121a5f51aa4b44939e43","txTime":"2022/04/04 18:06:51","block":7082585,"epoch":330,"slotNo":57529320,"epochSlotNo":332520,"stakeKey":"stake1u8tn5w29vdtn2gd8e8upfq8eruveg895zlhwxm49y96ujdqpt0fe5"},{"txId":36957944,"txHash":"c5d9f20d8f43f792cbf88b0de060530762fd2344378dbad9f3e7d6c66d22bced","txTime":"2022/04/04 18:01:46","block":7082577,"epoch":330,"slotNo":57529015,"epochSlotNo":332215,"stakeKey":"stake1uxuahzuvcyzgnexqh5250cs3d97mt5pw0qa7nrufgm2w0pqs6jtru"},{"txId":36957274,"txHash":"d9929ffc4d0b5527b503c81fb30311008867ed6261679015495a08f9f2ffaab9","txTime":"2022/04/04 17:53:04","block":7082545,"epoch":330,"slotNo":57528493,"epochSlotNo":331693,"stakeKey":"stake1uysjaht38uw2sw5qxmy4ycy57xhddhw7q9rplys3jdym78qszncjj"},{"txId":36957107,"txHash":"470d70b92227fec48c79261f741130d2d474329cbccd2e3a97b741ffdefcb33b","txTime":"2022/04/04 17:50:43","block":7082535,"epoch":330,"slotNo":57528352,"epochSlotNo":331552,"stakeKey":"stake1ux34ckhs35sqshexqcfpt4e2wzrk52ntpu5kcczesw7ce9g53v54k"},{"txId":36957035,"txHash":"bcf3f239d10ab0e7e93c18cfa4296ab71c0c006d53a5e40663796e078f142006","txTime":"2022/04/04 17:50:06","block":7082532,"epoch":330,"slotNo":57528315,"epochSlotNo":331515,"stakeKey":"stake1u94xx4myl0e7pu736hv9rwuld77ff2pywgyprfrme2zx3mc4eapg6"}],"totalItems":256460,"totalPages":12823,"currentPage":0}