{"data":[{"address":"addr1z8snz7c4974vzdpxu65ruphl3zjdvtxw8strf2c2tmqnxz2j2c79gy9l76sdg0xwhd7r0c0kna0tycz4y5s6mlenh8pq0xmsha","txCount":127091,"balance":58569564078222},{"address":"addr1w8pydstdswmdqmg2rdt59dzql3zgfp9pt8sulnjgalycwdsj9js7w","txCount":42904,"balance":34782014882001},{"address":"addr1w9qzpelu9hn45pefc0xr4ac4kdxeswq7pndul2vuj59u8tqaxdznu","txCount":294508,"balance":29983080223873},{"address":"addr1z8nvjzjeydcn4atcd93aac8allvrpjn7pjr2qsweukpnayvwn8ns9d9rn074cn39gdlnzq8gneqxtektt3etelutfgysw42u27","txCount":1988,"balance":8784077394540},{"address":"addr1wx6ax0qg77hkmn20x23wccc2j7k0yzgkttrajfyq6d6x79snl09fl","txCount":3,"balance":6876257000000},{"address":"addr1z8nvjzjeydcn4atcd93aac8allvrpjn7pjr2qsweukpnay0ycn5y6v5mjqqcs9xqa24kv5qk73tqsf3ufrtvxh9kts0qveyg6l","txCount":3112,"balance":4903523216574},{"address":"addr1z8nvjzjeydcn4atcd93aac8allvrpjn7pjr2qsweukpnayg4pn8uxr87tguqw8jkn6p233rk7k683ppl2mspr8appw9q640ms8","txCount":1795,"balance":3133168873381},{"address":"addr1w9vgwaev8upuh9us2vw240zkmx57f2tumuc7ka4yr0k7ngqywfxyp","txCount":2,"balance":3000000000000},{"address":"addr1zy5qnd3uxaunza6r8n3gch26hmzm392nywhw2jgcwf8nvrqfzup4e9umthe6xgvhcxu4d5cygcj0h3vdslrt3whadmnsgw0pxk","txCount":3,"balance":2874629000000},{"address":"addr1z8nvjzjeydcn4atcd93aac8allvrpjn7pjr2qsweukpnay2tqrfwamagnyfv43jgm94yvkmsnfvpzlytmkl0cs0uh8zqszu5da","txCount":1873,"balance":2811722307985},{"address":"addr1w8xdhraed42a93dnsjz3qjqma6wvn3z0q8keptmhv8u80tqjkyzwj","txCount":3,"balance":2753962000000},{"address":"addr1z8nvjzjeydcn4atcd93aac8allvrpjn7pjr2qsweukpnayg3sm3lpp76yuejdf6w3qyry2spy8xjmjrlxy2cstm3fthsjc3xze","txCount":1826,"balance":2658722162524},{"address":"addr1wyh9nq6fjw72mqud6w7yfe0h4tv04fxdfgcz9akczxgey8c649vxx","txCount":3,"balance":2637603000000},{"address":"addr1z8nvjzjeydcn4atcd93aac8allvrpjn7pjr2qsweukpnaydek5jc489yh8d4vqtg6z60pr5x5p8jfkl49ccmlar9jskqxtp89u","txCount":338,"balance":2301555387541},{"address":"addr1wy56uwl9mn4ec5vzg386ka2sq2rmjug2q0fm5ru2rhefzxstkpasl","txCount":3,"balance":2272888495181},{"address":"addr1w9dsssx4gr8p8xc99s7wjyqv9a8lnpvtr5xyugueqrtddrcu79grx","txCount":63,"balance":2266738370984},{"address":"addr1z8nvjzjeydcn4atcd93aac8allvrpjn7pjr2qsweukpnayffusvlt2u80n6x0838gvxxnjs4kgjzt02k4fmyldazeeeqlqu6xz","txCount":542,"balance":2208626184416},{"address":"addr1wyuqjmjxvguhtcrvdjwlvmchs9t2rfxesesap0cyjyfxahqq0p70x","txCount":7,"balance":2201199438147},{"address":"addr1w85ja4qy78usxjgmsnzvkdsh6n0xv7r4498uyr7ktjyppjcc4tyre","txCount":41,"balance":2034000000000},{"address":"addr1wx60hn6dy2mu3jms3pqy7f3hz0zasfkegq2rgxyek7xdceg0de86e","txCount":21,"balance":2000000000000}],"totalItems":7406,"totalPages":371,"currentPage":0}