{"data":[{"hash":"349181b31013997cbf7d0a4e4ef059783b21d0d606135a7cf6924008474a8824","blockNo":8313606,"blockHash":"8dd606a35e1ca53c1278bec341f318df9bbc2b6fd03d23025d256da4dbda4295","epochNo":389,"epochSlotNo":366431,"slot":83051231,"time":"2023/01/25 03:32:02","addressesInput":["addr1q8xsc5mmngwqmn5gag8r396whfcmnd89lafzg5taqp0dgu7nurpn9j65fdjn5dxdlsjkrp0dlshh4hpn0sc243hzzwmsre4qhq","addr1qyxkj7tmu9kkjs58xfgz4cxhlnz6acpyeu8zpwu9stjtzyknurpn9j65fdjn5dxdlsjkrp0dlshh4hpn0sc243hzzwms4axa9m","addr1q8xsc5mmngwqmn5gag8r396whfcmnd89lafzg5taqp0dgu7nurpn9j65fdjn5dxdlsjkrp0dlshh4hpn0sc243hzzwmsre4qhq","addr1q8l872zuupf898n783vyl6ecc6ephtj8ssazk0nh37jpaw7nurpn9j65fdjn5dxdlsjkrp0dlshh4hpn0sc243hzzwmsh5y8u5"],"addressesOutput":["DdzFFzCqrhsvKt1KYQQXws6YUwk31mRgACndc7HBYxkVcB1UXF1nuX3VaPH2kDHdQBEXe2dMmmYRXy5WdPqiD8pMA8gm5EQvgt1dQW5e","addr1qy7ryy3wrn7vz695pg4kyeuyw2sx0ptrjftyr4hfetd3wjwnurpn9j65fdjn5dxdlsjkrp0dlshh4hpn0sc243hzzwmskz0axk"],"fee":187105,"totalOutput":37783737,"tokens":[]},{"hash":"723f25df31da7965ef6dc508bb1203239bdd77f62cb39379b231af533b4dc459","blockNo":8313605,"blockHash":"f06dcd0f54826645b079025cf9f48eb85cdb7a2ea3e3e412ae2d9204d845c10b","epochNo":389,"epochSlotNo":366430,"slot":83051230,"time":"2023/01/25 03:32:01","addressesInput":["addr1wxaptpmxcxawvr3pzlhgnpmzz3ql43n2tc8mn3av5kx0yzs09tqh8","addr1v9slrwhd528nlq6p8wf2055d9aa4ght33uhj37t3hy4n5ggx6z8rs","addr1w9qzpelu9hn45pefc0xr4ac4kdxeswq7pndul2vuj59u8tqaxdznu","addr1v9slrwhd528nlq6p8wf2055d9aa4ght33uhj37t3hy4n5ggx6z8rs"],"addressesOutput":["addr1w9qzpelu9hn45pefc0xr4ac4kdxeswq7pndul2vuj59u8tqaxdznu","addr1w9jx45flh83z6wuqypyash54mszwmdj8r64fydafxtfc6jgrw4rm3","addr1q9trulz8kyefy4geu2y8xgrrgy954efkhh0pzm9k8408m8z8e7ycs6yf49kaydzwugmq39en0djdljmq2jv70yyz5wwqgmmhs0","addr1v9slrwhd528nlq6p8wf2055d9aa4ght33uhj37t3hy4n5ggx6z8rs","addr1v9slrwhd528nlq6p8wf2055d9aa4ght33uhj37t3hy4n5ggx6z8rs"],"fee":1171885,"totalOutput":113801327831,"tokens":[]},{"hash":"b1e1790cde2b682d6e8c80227591bdb912d8a13c6f1c1794fa3ab2b3592db92a","blockNo":8313605,"blockHash":"f06dcd0f54826645b079025cf9f48eb85cdb7a2ea3e3e412ae2d9204d845c10b","epochNo":389,"epochSlotNo":366430,"slot":83051230,"time":"2023/01/25 03:32:01","addressesInput":["addr1q9kjux3vplamcmkx3qqfgng6nqnrj4733usf0yllxarj5aftxecr4y6hzavzq7w4kq5nsurytle4caquwtc2urq4znwq390u5e"],"addressesOutput":["addr1q9tc6ufj9ge2ln02jm4vnqlnj2tvskp83uchq97ta4jmh5q8r03rh9zh9f0z2cz6ryyjw79p7xlxgeplen37upfag2kqgp3ewp","addr1q80m3j3n0fhkk492ue2uxh06rye5ssvzqz4udc9t7vj04retxecr4y6hzavzq7w4kq5nsurytle4caquwtc2urq4znwqn4d3ex"],"fee":218697,"totalOutput":33775089,"tokens":[]},{"hash":"16042674122af88b6d4a37318232a89af9460aac9c1f9174b91dd9a88d313970","blockNo":8313605,"blockHash":"f06dcd0f54826645b079025cf9f48eb85cdb7a2ea3e3e412ae2d9204d845c10b","epochNo":389,"epochSlotNo":366430,"slot":83051230,"time":"2023/01/25 03:32:01","addressesInput":["addr1qydmwdh2tysqljr0wckdqgfpk9wzzcxr5tvna3azg56227fayyxz9k6zvtrmz7yf9zazrvfv7grutm94vumtm8jfwuyq9ph7j9","addr1qydmwdh2tysqljr0wckdqgfpk9wzzcxr5tvna3azg56227fayyxz9k6zvtrmz7yf9zazrvfv7grutm94vumtm8jfwuyq9ph7j9"],"addressesOutput":["addr1q95xt88t9qgg945y0zltauqnnuv42whfe406s2ajr5pxhehz9kfe4chrya4javwljdrkc25zm0lx43vqrhryfrf0wrmqym4utx","addr1qydmwdh2tysqljr0wckdqgfpk9wzzcxr5tvna3azg56227fayyxz9k6zvtrmz7yf9zazrvfv7grutm94vumtm8jfwuyq9ph7j9"],"fee":173685,"totalOutput":3087934,"tokens":[]},{"hash":"2ca7f8f358d4bfa3d65af01d9d993122584cfc5b12524c3b911e47d12ae89d33","blockNo":8313605,"blockHash":"f06dcd0f54826645b079025cf9f48eb85cdb7a2ea3e3e412ae2d9204d845c10b","epochNo":389,"epochSlotNo":366430,"slot":83051230,"time":"2023/01/25 03:32:01","addressesInput":["addr1qx68as684sw6cr29ttekwrq7k2r8x73w5s3g3hkuyf9hwdp8p2879p8zfwwxktglu2cywl0hw0aw3arxkwg0j6tg0a5qzsgjln","addr1qx68as684sw6cr29ttekwrq7k2r8x73w5s3g3hkuyf9hwdp8p2879p8zfwwxktglu2cywl0hw0aw3arxkwg0j6tg0a5qzsgjln"],"addressesOutput":["addr1zxgx3far7qygq0k6epa0zcvcvrevmn0ypsnfsue94nsn3tvpw288a4x0xf8pxgcntelxmyclq83s0ykeehchz2wtspks905plm","addr1qx68as684sw6cr29ttekwrq7k2r8x73w5s3g3hkuyf9hwdp8p2879p8zfwwxktglu2cywl0hw0aw3arxkwg0j6tg0a5qzsgjln"],"fee":222261,"totalOutput":56141439,"tokens":[]},{"hash":"975071260e53eecfa0368dd4b212888ce521dd67d82ed0d66815c6f6ea66edc7","blockNo":8313605,"blockHash":"f06dcd0f54826645b079025cf9f48eb85cdb7a2ea3e3e412ae2d9204d845c10b","epochNo":389,"epochSlotNo":366430,"slot":83051230,"time":"2023/01/25 03:32:01","addressesInput":["Ae2tdPwUPEZFSi1cTyL1ZL6bgixhc2vSy5heg6Zg9uP7PpumkAJ82Qprt8b","Ae2tdPwUPEZFSi1cTyL1ZL6bgixhc2vSy5heg6Zg9uP7PpumkAJ82Qprt8b","Ae2tdPwUPEZFSi1cTyL1ZL6bgixhc2vSy5heg6Zg9uP7PpumkAJ82Qprt8b","Ae2tdPwUPEZFSi1cTyL1ZL6bgixhc2vSy5heg6Zg9uP7PpumkAJ82Qprt8b","Ae2tdPwUPEZFSi1cTyL1ZL6bgixhc2vSy5heg6Zg9uP7PpumkAJ82Qprt8b"],"addressesOutput":["DdzFFzCqrhswkCKBgiPvwKJ8nJubmt5RrCGJaKWqXb6DSnx5bdTbvPsUHEusPkUq4zDuxVnS8Bfd3YRqQFYTLB6e2DXYNT85tMm7uwGu","Ae2tdPwUPEZFSi1cTyL1ZL6bgixhc2vSy5heg6Zg9uP7PpumkAJ82Qprt8b","Ae2tdPwUPEZFSi1cTyL1ZL6bgixhc2vSy5heg6Zg9uP7PpumkAJ82Qprt8b","Ae2tdPwUPEZFSi1cTyL1ZL6bgixhc2vSy5heg6Zg9uP7PpumkAJ82Qprt8b","Ae2tdPwUPEZFSi1cTyL1ZL6bgixhc2vSy5heg6Zg9uP7PpumkAJ82Qprt8b"],"fee":216905,"totalOutput":33106597427120,"tokens":[]},{"hash":"774c7f5220a69c41983b7f1cb8ee796e7f330a1c17f33d86e6ac0b21f27c8030","blockNo":8313605,"blockHash":"f06dcd0f54826645b079025cf9f48eb85cdb7a2ea3e3e412ae2d9204d845c10b","epochNo":389,"epochSlotNo":366430,"slot":83051230,"time":"2023/01/25 03:32:01","addressesInput":["addr1qy8ekzz7kvu0ex9cxd7w0l90mem3sjgnrf0sa7d8jmf9hgvr0d8x6naamcwrv4kjyzeg75xsh4hl3xr0gkpmjtck9j7q3lmhpj","addr1qy8ekzz7kvu0ex9cxd7w0l90mem3sjgnrf0sa7d8jmf9hgvr0d8x6naamcwrv4kjyzeg75xsh4hl3xr0gkpmjtck9j7q3lmhpj"],"addressesOutput":["addr1zxgx3far7qygq0k6epa0zcvcvrevmn0ypsnfsue94nsn3tvpw288a4x0xf8pxgcntelxmyclq83s0ykeehchz2wtspks905plm","addr1qy8ekzz7kvu0ex9cxd7w0l90mem3sjgnrf0sa7d8jmf9hgvr0d8x6naamcwrv4kjyzeg75xsh4hl3xr0gkpmjtck9j7q3lmhpj","addr1qy8ekzz7kvu0ex9cxd7w0l90mem3sjgnrf0sa7d8jmf9hgvr0d8x6naamcwrv4kjyzeg75xsh4hl3xr0gkpmjtck9j7q3lmhpj"],"fee":218169,"totalOutput":18695311,"tokens":[]},{"hash":"d2d790d81f6a2092a9d52e4edda01bcc991616f98005c9e291f9700067556515","blockNo":8313605,"blockHash":"f06dcd0f54826645b079025cf9f48eb85cdb7a2ea3e3e412ae2d9204d845c10b","epochNo":389,"epochSlotNo":366430,"slot":83051230,"time":"2023/01/25 03:32:01","addressesInput":["addr1zxgx3far7qygq0k6epa0zcvcvrevmn0ypsnfsue94nsn3tvpw288a4x0xf8pxgcntelxmyclq83s0ykeehchz2wtspks905plm","addr1qyfp7lx4v2wt0d2vy9ndrkk9p7k8zgtgn7g6ujhr2u4y6hxdx0amx5j92xvs2y5jaejqunheaeeyvc2587h4ye67h8jq53y7u4"],"addressesOutput":["addr1qydp5w9nuxmadgcyaug9tamq9tz9wgq8hej8ldj0jepqs0vtgmws29wcvgarzt0hug34gh66wyujz0v4cyfju3qd0s9sry7flu","addr1q9cwvremt6n320s2e3agq0jyq82yhrk3htsu0w426xnz5us70z4w0jgvcdkkynmm8wmds66jd9kusnjfpu6raw5fqp0sr07p5w","addr1q8ygft7pfy2avfcydqq85rlz9gp44xmsjznv3nu8vllamnt0qraqsmaequz24z6aytt7lc05vhvue0kn7ht9l744l02q6scex5","addr1qyfp7lx4v2wt0d2vy9ndrkk9p7k8zgtgn7g6ujhr2u4y6hxdx0amx5j92xvs2y5jaejqunheaeeyvc2587h4ye67h8jq53y7u4","addr1qyfp7lx4v2wt0d2vy9ndrkk9p7k8zgtgn7g6ujhr2u4y6hxdx0amx5j92xvs2y5jaejqunheaeeyvc2587h4ye67h8jq53y7u4"],"fee":395859,"totalOutput":200377585,"tokens":[]},{"hash":"08d36f594bb52cd7fc327426cbf81c9a2b6f3ce08c379ba32e8fe54f38a2d19e","blockNo":8313605,"blockHash":"f06dcd0f54826645b079025cf9f48eb85cdb7a2ea3e3e412ae2d9204d845c10b","epochNo":389,"epochSlotNo":366430,"slot":83051230,"time":"2023/01/25 03:32:01","addressesInput":["addr1qxc95yj2vg4723q9fv6hgyjh0nzw8xj0vzpnczhzp7ln9q6h7ec5vemx6ma5j0qqu4fq8tf8tc6uuspu38g98amuz79smfu8fd","addr1zxgx3far7qygq0k6epa0zcvcvrevmn0ypsnfsue94nsn3tvpw288a4x0xf8pxgcntelxmyclq83s0ykeehchz2wtspks905plm","addr1q8p5nvns3chfn6h89zs099ndd6dpdt7srpve0xaesdcwuzzh7ec5vemx6ma5j0qqu4fq8tf8tc6uuspu38g98amuz79s7asnhk"],"addressesOutput":["addr1zxgx3far7qygq0k6epa0zcvcvrevmn0ypsnfsue94nsn3tvpw288a4x0xf8pxgcntelxmyclq83s0ykeehchz2wtspks905plm","addr1q8p5nvns3chfn6h89zs099ndd6dpdt7srpve0xaesdcwuzzh7ec5vemx6ma5j0qqu4fq8tf8tc6uuspu38g98amuz79s7asnhk"],"fee":327364,"totalOutput":47213729,"tokens":[]},{"hash":"a5414ee9464f930a1825beca316da176a6d94ef6d55297c1027dd6c91a62178d","blockNo":8313605,"blockHash":"f06dcd0f54826645b079025cf9f48eb85cdb7a2ea3e3e412ae2d9204d845c10b","epochNo":389,"epochSlotNo":366430,"slot":83051230,"time":"2023/01/25 03:32:01","addressesInput":["addr1zxgx3far7qygq0k6epa0zcvcvrevmn0ypsnfsue94nsn3tvpw288a4x0xf8pxgcntelxmyclq83s0ykeehchz2wtspks905plm","addr1zxgx3far7qygq0k6epa0zcvcvrevmn0ypsnfsue94nsn3tvpw288a4x0xf8pxgcntelxmyclq83s0ykeehchz2wtspks905plm","addr1q8vkunx0pah7tqnrw9phzx6ctzpwnpafa5pt2qqf7tmudrud2fvgqex483awjkard9yly3f4cjsgtshwtzzucppmnf5qe9p8fq"],"addressesOutput":["addr1q99sx89l63md0m7kajzqz2h25yd9ajd2fnjnjumkfagfn0lp7vl22m9uv8wrly2ezagztmat3e2ajguqfq45wcpkqquqgm5kwe","addr1q9cwvremt6n320s2e3agq0jyq82yhrk3htsu0w426xnz5us70z4w0jgvcdkkynmm8wmds66jd9kusnjfpu6raw5fqp0sr07p5w","addr1qxjhgx3le2z9h8s8mlfqxwnpekvapt0t0kmfalvzsg5cjk5lfpflhcv433p7g0u6ts8t3pq4m7x20vz6avh6lnu4szgqszc44k","addr1qylzzn0782avadzxquxamh7tm88myup544tcgkzgzk9lh7vd2fvgqex483awjkard9yly3f4cjsgtshwtzzucppmnf5qanzca6","addr1qylzzn0782avadzxquxamh7tm88myup544tcgkzgzk9lh7vd2fvgqex483awjkard9yly3f4cjsgtshwtzzucppmnf5qanzca6","addr1qylzzn0782avadzxquxamh7tm88myup544tcgkzgzk9lh7vd2fvgqex483awjkard9yly3f4cjsgtshwtzzucppmnf5qanzca6","addr1qylzzn0782avadzxquxamh7tm88myup544tcgkzgzk9lh7vd2fvgqex483awjkard9yly3f4cjsgtshwtzzucppmnf5qanzca6","addr1qylzzn0782avadzxquxamh7tm88myup544tcgkzgzk9lh7vd2fvgqex483awjkard9yly3f4cjsgtshwtzzucppmnf5qanzca6","addr1qylzzn0782avadzxquxamh7tm88myup544tcgkzgzk9lh7vd2fvgqex483awjkard9yly3f4cjsgtshwtzzucppmnf5qanzca6","addr1qylzzn0782avadzxquxamh7tm88myup544tcgkzgzk9lh7vd2fvgqex483awjkard9yly3f4cjsgtshwtzzucppmnf5qanzca6"],"fee":629893,"totalOutput":3559178870,"tokens":[]},{"hash":"f37adaeab66b0d59fc33af305d4acf062e0b32b75684f6562610be062ff47e6a","blockNo":8313605,"blockHash":"f06dcd0f54826645b079025cf9f48eb85cdb7a2ea3e3e412ae2d9204d845c10b","epochNo":389,"epochSlotNo":366430,"slot":83051230,"time":"2023/01/25 03:32:01","addressesInput":["addr1qx8jqzatcj3r5evwgzmp5w0xpgzhv8mesz93s4yvcnk5lehsqpz6dfzcvef8z4jkyx8dk3d6crpp9tj80ye0lm9sk23q66mdkj","addr1qx8jqzatcj3r5evwgzmp5w0xpgzhv8mesz93s4yvcnk5lehsqpz6dfzcvef8z4jkyx8dk3d6crpp9tj80ye0lm9sk23q66mdkj","addr1qx8jqzatcj3r5evwgzmp5w0xpgzhv8mesz93s4yvcnk5lehsqpz6dfzcvef8z4jkyx8dk3d6crpp9tj80ye0lm9sk23q66mdkj"],"addressesOutput":["addr1zxgx3far7qygq0k6epa0zcvcvrevmn0ypsnfsue94nsn3tvpw288a4x0xf8pxgcntelxmyclq83s0ykeehchz2wtspks905plm","addr1qx8jqzatcj3r5evwgzmp5w0xpgzhv8mesz93s4yvcnk5lehsqpz6dfzcvef8z4jkyx8dk3d6crpp9tj80ye0lm9sk23q66mdkj","addr1qx8jqzatcj3r5evwgzmp5w0xpgzhv8mesz93s4yvcnk5lehsqpz6dfzcvef8z4jkyx8dk3d6crpp9tj80ye0lm9sk23q66mdkj"],"fee":246241,"totalOutput":13272562,"tokens":[]},{"hash":"10a0e9a698d947966126a3533a43e13c7c6dddbbc95ec4087c23cece2499fd08","blockNo":8313605,"blockHash":"f06dcd0f54826645b079025cf9f48eb85cdb7a2ea3e3e412ae2d9204d845c10b","epochNo":389,"epochSlotNo":366430,"slot":83051230,"time":"2023/01/25 03:32:01","addressesInput":["addr1zxgx3far7qygq0k6epa0zcvcvrevmn0ypsnfsue94nsn3tvpw288a4x0xf8pxgcntelxmyclq83s0ykeehchz2wtspks905plm","addr1qy3ew36qgah3hraq3wywrvu5ale8ae3rrcjh5wa064rxcvet635gqv5yfmul20v56gvlsmgak5szqkg67ejshsf3q60qpjkwuj"],"addressesOutput":["addr1qy3ew36qgah3hraq3wywrvu5ale8ae3rrcjh5wa064rxcvet635gqv5yfmul20v56gvlsmgak5szqkg67ejshsf3q60qpjkwuj","addr1qy3ew36qgah3hraq3wywrvu5ale8ae3rrcjh5wa064rxcvet635gqv5yfmul20v56gvlsmgak5szqkg67ejshsf3q60qpjkwuj"],"fee":264072,"totalOutput":167336729,"tokens":[]},{"hash":"8538230f3d05f9a2ce859e22a01c15d089428f795de110ce659de5e8b77f1397","blockNo":8313605,"blockHash":"f06dcd0f54826645b079025cf9f48eb85cdb7a2ea3e3e412ae2d9204d845c10b","epochNo":389,"epochSlotNo":366430,"slot":83051230,"time":"2023/01/25 03:32:01","addressesInput":["addr1qxnm342nzqd8nuafh43d3tr2y5jvzult8rdhz0vxmuu4zz37hsaungw8gtx5ljm4776n8z8zx7pfc5fcr2hmdhf3lenswj0ph3","addr1qxnm342nzqd8nuafh43d3tr2y5jvzult8rdhz0vxmuu4zz37hsaungw8gtx5ljm4776n8z8zx7pfc5fcr2hmdhf3lenswj0ph3"],"addressesOutput":["addr1q95xt88t9qgg945y0zltauqnnuv42whfe406s2ajr5pxhehz9kfe4chrya4javwljdrkc25zm0lx43vqrhryfrf0wrmqym4utx","addr1qxnm342nzqd8nuafh43d3tr2y5jvzult8rdhz0vxmuu4zz37hsaungw8gtx5ljm4776n8z8zx7pfc5fcr2hmdhf3lenswj0ph3"],"fee":173861,"totalOutput":3087406,"tokens":[]},{"hash":"177568822a5158f29676ab0c7dbcd5d9aa54ac791cb22a40943c1703ddf7e27f","blockNo":8313605,"blockHash":"f06dcd0f54826645b079025cf9f48eb85cdb7a2ea3e3e412ae2d9204d845c10b","epochNo":389,"epochSlotNo":366430,"slot":83051230,"time":"2023/01/25 03:32:01","addressesInput":["addr1zxgx3far7qygq0k6epa0zcvcvrevmn0ypsnfsue94nsn3tvpw288a4x0xf8pxgcntelxmyclq83s0ykeehchz2wtspks905plm","addr1qycfmys7cq2pxl3g8z78m7vlqkpkray8tvfcy7ph36kun8x97f8gcxwgg9n2xxycnmahugy7stfh5f6wuxm0p20k6pnqkj9rs8"],"addressesOutput":["addr1qycfmys7cq2pxl3g8z78m7vlqkpkray8tvfcy7ph36kun8x97f8gcxwgg9n2xxycnmahugy7stfh5f6wuxm0p20k6pnqkj9rs8","addr1qycfmys7cq2pxl3g8z78m7vlqkpkray8tvfcy7ph36kun8x97f8gcxwgg9n2xxycnmahugy7stfh5f6wuxm0p20k6pnqkj9rs8"],"fee":263381,"totalOutput":1463819951,"tokens":[]},{"hash":"259a96cd4dc3a3c5bc9d6865472f70a64cdeb69fc4d7c3d48971e4aa11ab1e9e","blockNo":8313605,"blockHash":"f06dcd0f54826645b079025cf9f48eb85cdb7a2ea3e3e412ae2d9204d845c10b","epochNo":389,"epochSlotNo":366430,"slot":83051230,"time":"2023/01/25 03:32:01","addressesInput":["addr1v9u7va2sktlnz8dp3qadpnxxlv4m03672jy6elmntlxxs7q9nnwl9"],"addressesOutput":["addr1q88dkr6dzy5tsn0qfjyh6jahnmvwema4vgv5tlhu7pml4tgnhce2nrr04ez952dmujmgkmwr4qds3ny3nd9w3y5chxpsengnsu","addr1v9u7va2sktlnz8dp3qadpnxxlv4m03672jy6elmntlxxs7q9nnwl9"],"fee":171221,"totalOutput":359739206,"tokens":[]},{"hash":"8b19e4d39d1eee032f9ce6fd2a2f9e2ae224f32ea0aa5294194c7fee68c59f28","blockNo":8313605,"blockHash":"f06dcd0f54826645b079025cf9f48eb85cdb7a2ea3e3e412ae2d9204d845c10b","epochNo":389,"epochSlotNo":366430,"slot":83051230,"time":"2023/01/25 03:32:01","addressesInput":["addr1qy7l9h33v2cfum4qr8demu95w57lkaw6ms6kvulls8nrf3pxnued7a8338zk9mmta9jlz25mmxjynwjqtnz96sx90c3q8fmeju","addr1qy7l9h33v2cfum4qr8demu95w57lkaw6ms6kvulls8nrf3pxnued7a8338zk9mmta9jlz25mmxjynwjqtnz96sx90c3q8fmeju"],"addressesOutput":["addr1q95xt88t9qgg945y0zltauqnnuv42whfe406s2ajr5pxhehz9kfe4chrya4javwljdrkc25zm0lx43vqrhryfrf0wrmqym4utx","addr1qy7l9h33v2cfum4qr8demu95w57lkaw6ms6kvulls8nrf3pxnued7a8338zk9mmta9jlz25mmxjynwjqtnz96sx90c3q8fmeju"],"fee":171837,"totalOutput":3089870,"tokens":[]},{"hash":"94f3a9cd867616a7587af5173c6abcca4cb3f2234f4bb0fe2688f7430366bc8c","blockNo":8313605,"blockHash":"f06dcd0f54826645b079025cf9f48eb85cdb7a2ea3e3e412ae2d9204d845c10b","epochNo":389,"epochSlotNo":366430,"slot":83051230,"time":"2023/01/25 03:32:01","addressesInput":["addr1q8hm5mtevkkkaajdhks7chr2zdkv6tag8f0cw2usycnj98k3ayk54js2ky767arzpsxgg0u8649xa8cdhvsqp94nldfqxzmj5s"],"addressesOutput":["addr1wxn9efv2f6w82hagxqtn62ju4m293tqvw0uhmdl64ch8uwc0h43gt","addr1q8hm5mtevkkkaajdhks7chr2zdkv6tag8f0cw2usycnj98k3ayk54js2ky767arzpsxgg0u8649xa8cdhvsqp94nldfqxzmj5s","addr1q8hm5mtevkkkaajdhks7chr2zdkv6tag8f0cw2usycnj98k3ayk54js2ky767arzpsxgg0u8649xa8cdhvsqp94nldfqxzmj5s"],"fee":187941,"totalOutput":426049479,"tokens":[]},{"hash":"9451ab0daf03c02fa0d235c4b4d12b3835150b4a711e3618fce67ac9eb3faf58","blockNo":8313605,"blockHash":"f06dcd0f54826645b079025cf9f48eb85cdb7a2ea3e3e412ae2d9204d845c10b","epochNo":389,"epochSlotNo":366430,"slot":83051230,"time":"2023/01/25 03:32:01","addressesInput":["addr1qyugqhdh2tanlhz5s4qkstxdr9rtz6pg0djezzxcgx89yml5scsq68m4uqf7rdaf62t07yv6hm9dhcj2dwpvkwdpp4yswmw2us","addr1wxc45xspppp73takl93mq029905ptdfnmtgv6g7cr8pdyqgvks3s8","addr1qyugqhdh2tanlhz5s4qkstxdr9rtz6pg0djezzxcgx89yml5scsq68m4uqf7rdaf62t07yv6hm9dhcj2dwpvkwdpp4yswmw2us"],"addressesOutput":["addr1qxkmr0m22xeqludcg5rjdmecjxasu9fat0680qehtcsnftaadgykewa9ufvegeuca9yyq03d9v7ea2y2zthgu7hfgjtsddp6gr","addr1wxc45xspppp73takl93mq029905ptdfnmtgv6g7cr8pdyqgvks3s8","addr1qyugqhdh2tanlhz5s4qkstxdr9rtz6pg0djezzxcgx89yml5scsq68m4uqf7rdaf62t07yv6hm9dhcj2dwpvkwdpp4yswmw2us"],"fee":368521,"totalOutput":511298642,"tokens":[]},{"hash":"ee6817801b1219e219fa5101aca8964c50fc460e293c15bc0dbba74779a5a8e3","blockNo":8313605,"blockHash":"f06dcd0f54826645b079025cf9f48eb85cdb7a2ea3e3e412ae2d9204d845c10b","epochNo":389,"epochSlotNo":366430,"slot":83051230,"time":"2023/01/25 03:32:01","addressesInput":["addr1q9qv3sxl6q3r8dep7h04d7wkadgwef87n3m7ejhawzmt639l0s02mgv3l7kpjy7ff8ekzuttan2u0enld3ant4up2upqwmkpa8","addr1q9qv3sxl6q3r8dep7h04d7wkadgwef87n3m7ejhawzmt639l0s02mgv3l7kpjy7ff8ekzuttan2u0enld3ant4up2upqwmkpa8"],"addressesOutput":["addr1zxgx3far7qygq0k6epa0zcvcvrevmn0ypsnfsue94nsn3tvpw288a4x0xf8pxgcntelxmyclq83s0ykeehchz2wtspks905plm","addr1q9qv3sxl6q3r8dep7h04d7wkadgwef87n3m7ejhawzmt639l0s02mgv3l7kpjy7ff8ekzuttan2u0enld3ant4up2upqwmkpa8","addr1q9qv3sxl6q3r8dep7h04d7wkadgwef87n3m7ejhawzmt639l0s02mgv3l7kpjy7ff8ekzuttan2u0enld3ant4up2upqwmkpa8"],"fee":400373,"totalOutput":28437172,"tokens":[]},{"hash":"b4e479bc04cbba250b38d55ac1bfc5cf440df618153ffb5c339ed2437d0dec56","blockNo":8313605,"blockHash":"f06dcd0f54826645b079025cf9f48eb85cdb7a2ea3e3e412ae2d9204d845c10b","epochNo":389,"epochSlotNo":366430,"slot":83051230,"time":"2023/01/25 03:32:01","addressesInput":["addr1vy4nmtfc4jfftgqg369hs2ku6kvcncgzhkemq6mh0u3zgpslf59wr"],"addressesOutput":["addr1q97w47gl0zzf6vy7zlkywfnjykuue9m9h8u23a382xfstnms6jxls0ngn2qadghy4h7dterk0gzm3y7czmh8zlsfvmesr6qge5","addr1vy4nmtfc4jfftgqg369hs2ku6kvcncgzhkemq6mh0u3zgpslf59wr"],"fee":174300,"totalOutput":392002744185,"tokens":[]}],"totalItems":59711674,"totalPages":2985584,"currentPage":0}