{"data":[{"no":418,"status":"IN_PROGRESS","blkCount":19352,"outSum":196111370893732125,"txCount":296822,"startTime":"2023/06/14 21:44:54","endTime":"2023/06/19 21:44:54","maxSlot":432000},{"no":417,"status":"REWARDING","blkCount":20947,"outSum":229341415829835756,"txCount":375738,"startTime":"2023/06/09 21:47:26","endTime":"2023/06/14 21:44:28","maxSlot":432000},{"no":416,"status":"REWARDING","blkCount":21143,"outSum":271718768316501847,"txCount":459276,"startTime":"2023/06/04 21:46:57","endTime":"2023/06/09 21:44:47","maxSlot":432000},{"no":415,"status":"FINISHED","blkCount":20820,"outSum":340656360587128774,"txCount":490273,"startTime":"2023/05/30 21:45:29","endTime":"2023/06/04 21:44:50","maxSlot":432000},{"no":414,"status":"FINISHED","blkCount":21215,"outSum":330158448807042729,"txCount":444338,"startTime":"2023/05/25 21:46:32","endTime":"2023/05/30 21:44:42","maxSlot":432000},{"no":413,"status":"FINISHED","blkCount":21252,"outSum":220004855460046356,"txCount":405070,"startTime":"2023/05/20 21:47:36","endTime":"2023/05/25 21:44:33","maxSlot":432000},{"no":412,"status":"FINISHED","blkCount":20966,"outSum":156445485958934885,"txCount":327949,"startTime":"2023/05/15 21:46:10","endTime":"2023/05/20 21:43:39","maxSlot":432000},{"no":411,"status":"FINISHED","blkCount":21418,"outSum":123110712071520678,"txCount":320430,"startTime":"2023/05/10 21:46:15","endTime":"2023/05/15 21:44:41","maxSlot":432000},{"no":410,"status":"FINISHED","blkCount":20933,"outSum":153813088313559108,"txCount":393568,"startTime":"2023/05/05 21:45:10","endTime":"2023/05/10 21:44:27","maxSlot":432000},{"no":409,"status":"FINISHED","blkCount":21000,"outSum":140466376407199319,"txCount":308718,"startTime":"2023/04/30 21:47:21","endTime":"2023/05/05 21:44:13","maxSlot":432000}],"totalItems":419,"totalPages":42,"currentPage":0}