{"data":[{"txId":30362865,"txHash":"7b90cf8fa9e1d720efe0ab95b246482c81d6d597e9c17fd8b29882669e96f91c","txTime":"2022/02/07 10:36:19","block":6852392,"epoch":319,"slotNo":52663888,"epochSlotNo":219088,"stakeKey":"stake1u9hnue0mer84gukqhfg4smde3f5u2ua24wav77qeq2dckpsccml6s"},{"txId":30362857,"txHash":"a91246228276eb96de2755a5c25d0fc88bc1f2ad6ab22d338fba7fccfd8188f4","txTime":"2022/02/07 10:36:19","block":6852392,"epoch":319,"slotNo":52663888,"epochSlotNo":219088,"stakeKey":"stake1u8jxj94r7zezkl22uf2ca5u2vc4jvrnv4t4372m3gfveadg6mw35f"},{"txId":30362850,"txHash":"239bdd6aa39f52fdeb77974e698ecc03d896cfdd43b20797fb031b6650dc9ebf","txTime":"2022/02/07 10:36:19","block":6852392,"epoch":319,"slotNo":52663888,"epochSlotNo":219088,"stakeKey":"stake1uyetr7l622enu0expwg9826466kcdz39e5casld06kp74sqz7n0h4"},{"txId":30362743,"txHash":"7eaa2d6ae664a9c87b1f873980d9dbca3c0e6121953294245688e6d1c7a9863f","txTime":"2022/02/07 10:35:14","block":6852388,"epoch":319,"slotNo":52663823,"epochSlotNo":219023,"stakeKey":"stake1u82r8z4sqvknvd0lwduy5cuuf9dvxyx3w3v6hvup7dldragf9vutr"},{"txId":30362673,"txHash":"c861476ec4ba4cb008e9d033147a138ba81d8a2ac19de39b87380585c61b4f89","txTime":"2022/02/07 10:33:31","block":6852385,"epoch":319,"slotNo":52663720,"epochSlotNo":218920,"stakeKey":"stake1uyvq7ky76rmww4ax7sp9y37tehpl3trctctp3z26cfj99aqk6upsy"},{"txId":30362672,"txHash":"14c85777241510969ee94d3feac2caf8544e3674fa872d380d760db79a01869f","txTime":"2022/02/07 10:33:31","block":6852385,"epoch":319,"slotNo":52663720,"epochSlotNo":218920,"stakeKey":"stake1uxgckcggkkur6896whx4duzn7gh0drmw0aqsxvwxa05nr8s6xgdad"},{"txId":30362396,"txHash":"42951ebe6f492d3d056b26a630498c121832beb2bcd071b5fb9276aa8a63feaa","txTime":"2022/02/07 10:27:28","block":6852374,"epoch":319,"slotNo":52663357,"epochSlotNo":218557,"stakeKey":"stake1uya4088g4vzmhjml8ytxut6ahqln5xc3t66ef9rky7g6ylqjztzuc"},{"txId":30362181,"txHash":"d614b86bcf946a204ebba65eafca5764dd756af4246823450c0d50511cd2141b","txTime":"2022/02/07 10:26:33","block":6852368,"epoch":319,"slotNo":52663302,"epochSlotNo":218502,"stakeKey":"stake1uyy6nd4f3zjxye2nnn9q5umgkkw3thn3dmw0wx540k4lm5c036t4n"},{"txId":30362057,"txHash":"8f0b82c064cdbc120ffc15f1087e7f83be5e7a13c3b785d45b2ffae158d9aa3e","txTime":"2022/02/07 10:25:08","block":6852364,"epoch":319,"slotNo":52663217,"epochSlotNo":218417,"stakeKey":"stake1u9uy3ke2vxutxm2epyhm8qrx4qrpx02523yx3ep09mdggjqluf93d"},{"txId":30361515,"txHash":"ba3f97dfb8051baa49cec91bdc99b6146fe8a812204bb2b94153dbd73bb4a088","txTime":"2022/02/07 10:19:13","block":6852345,"epoch":319,"slotNo":52662862,"epochSlotNo":218062,"stakeKey":"stake1u9tklk2pg2s7zg0s80xma49z3cw7ey622dls0ttsvcl3lrglwh9u7"},{"txId":30361092,"txHash":"e86749ab43568fa946a07621023e75a56e610326f2f88ab31c1287b81db0bb19","txTime":"2022/02/07 10:13:14","block":6852331,"epoch":319,"slotNo":52662503,"epochSlotNo":217703,"stakeKey":"stake1uxfyh4ju8vlzm5m8nej23afgz943fec0z8306d0hqhadnmgn2mzue"},{"txId":30360969,"txHash":"8b46d7b9980cf0566dcebb4b3745517303ca57590d5754576eb407425dda95ea","txTime":"2022/02/07 10:12:10","block":6852327,"epoch":319,"slotNo":52662439,"epochSlotNo":217639,"stakeKey":"stake1uy6ahxa7wdds0f5z3m76zc5v38fgs0e0mxf656p0t5t5w5skurpus"},{"txId":30360826,"txHash":"b09c9be73978c00a5f492fc97604648bd8e74b037ebcd604c55e9fff737500de","txTime":"2022/02/07 10:10:51","block":6852321,"epoch":319,"slotNo":52662360,"epochSlotNo":217560,"stakeKey":"stake1u9xht727yy2jesd0q32plx488fkwmh9k2gejq5ntrdgt57sawjufk"},{"txId":30360056,"txHash":"8f8167d6eaf367e6095559344e1d2be0a9339e9b8e11420c207f54cb767358d5","txTime":"2022/02/07 10:00:35","block":6852294,"epoch":319,"slotNo":52661744,"epochSlotNo":216944,"stakeKey":"stake1ux9w8kqlvrqy2xzc2w584ed9wu69wc6s8rcxrqpm7s0zwrc38q07q"},{"txId":30359861,"txHash":"01461c8f4e78dfe4d7bbedc45a9f3c9b2a302d11c3b1e483782c02a3b4020c68","txTime":"2022/02/07 09:57:57","block":6852286,"epoch":319,"slotNo":52661586,"epochSlotNo":216786,"stakeKey":"stake1u9p8d4zznevs8srf4cd9gy2zukuh5zvfa2p4f3xekeg6q2g00ztm2"},{"txId":30359458,"txHash":"4ce8c4054a6d11c16bb098ec84e7402f534c35a402d996d16c60bcb0bbd0b38a","txTime":"2022/02/07 09:53:17","block":6852273,"epoch":319,"slotNo":52661306,"epochSlotNo":216506,"stakeKey":"stake1u8arv6fes2unvqcrx2585atcn8c4rl6jw0uqsylurcmp6dcmm4ppy"},{"txId":30359310,"txHash":"bdf6e23cfdbbe3701f7a562d12f4a970cbce325b57aaba6e0a6e997ce1510b9b","txTime":"2022/02/07 09:51:53","block":6852269,"epoch":319,"slotNo":52661222,"epochSlotNo":216422,"stakeKey":"stake1ux8fzhkf3dprtcf8w2nfh0gc4s72326y0ew9u08mrhu6r4qmsnhxl"},{"txId":30358867,"txHash":"6f97ee43cd46f9a8438335e3908631ee45e72b0fc13f4f1347f68aefb7ed6049","txTime":"2022/02/07 09:45:56","block":6852253,"epoch":319,"slotNo":52660865,"epochSlotNo":216065,"stakeKey":"stake1u8hvvaw3y7qz3xn4ypat2etw2j0fppyk63wa6t5ug0myg0cw4nmvx"},{"txId":30358718,"txHash":"a810094f4548af96ea1f698c838c261e76287cf4480a1d9a29a92b60e86073d0","txTime":"2022/02/07 09:44:12","block":6852249,"epoch":319,"slotNo":52660761,"epochSlotNo":215961,"stakeKey":"stake1uxaak4fakt7jmy6kwlmzth0de3pr9gr6zymr0y2erhf77ygapvm8t"},{"txId":30358599,"txHash":"d183de8b9dca237d41c2746643f9d72f368c2e1d77b3e3e1172ea159cfa781d6","txTime":"2022/02/07 09:43:04","block":6852244,"epoch":319,"slotNo":52660693,"epochSlotNo":215893,"stakeKey":"stake1uxp8wpdjg837z8qr85rz68vcp0dpu9ehtu7zf7psk0e433g4u9maz"}],"totalItems":214631,"totalPages":10732,"currentPage":0}