{"data":[{"txId":60160061,"txHash":"88332256bf3cded0063562446a1da05be38cf8e2a51d4c6bdde3b67ac021b061","txTime":"2023/01/20 19:32:45","block":8295582,"epoch":388,"slotNo":82676874,"epochSlotNo":424074,"stakeKey":"stake1u8fvlqafkysgtvhj0shke5w38wkry6lr8s53jlkypvtzlvckhz5vk"},{"txId":60159904,"txHash":"66b731a5cb76e042e563cad9ef339c8bedc4426e265d2198df540aa9325732d1","txTime":"2023/01/20 19:29:05","block":8295574,"epoch":388,"slotNo":82676654,"epochSlotNo":423854,"stakeKey":"stake1uxctpu25pe8396uuqxl24lz6jdrrsqytxdd5d7asvja5atgvk2zxa"},{"txId":60159869,"txHash":"680f4d5deb688f8ada0cb7becdf72a429882268dba23e8dd46064f3235e1d921","txTime":"2023/01/20 19:28:53","block":8295573,"epoch":388,"slotNo":82676642,"epochSlotNo":423842,"stakeKey":"stake1uxnmtygz74xvgl74ngqe7qgs5c3t93luz69g4xac444jf2gxczjkc"},{"txId":60159747,"txHash":"78598366b006903efbbff3eaeae3dd01b2889e6576e714514b4275079466a51b","txTime":"2023/01/20 19:26:04","block":8295566,"epoch":388,"slotNo":82676473,"epochSlotNo":423673,"stakeKey":"stake1u85ufc603hkjh5veu0wqmvgexe0r9pewjv6lld3qmqc4pqcxcda68"},{"txId":60159648,"txHash":"5397b334722414442bd1b5d5241039accdbc0a7311fbe461b47df62d73ddc730","txTime":"2023/01/20 19:25:10","block":8295564,"epoch":388,"slotNo":82676419,"epochSlotNo":423619,"stakeKey":"stake1u97hlne82k97g2qm4jrdaefjxtlkwuyujn03w30ykk3h3mg9qm233"},{"txId":60159050,"txHash":"936ddca799f428789fcd941860fff006b6a67f8cca3507f2ad8e635f16d05cd8","txTime":"2023/01/20 19:12:48","block":8295528,"epoch":388,"slotNo":82675677,"epochSlotNo":422877,"stakeKey":"stake1u9mm2m7cwtvh7a4fmc2dmv7wgpflm7xsaz0afqy6w24s2hsycvzgf"},{"txId":60159015,"txHash":"23191c40fa8236f71fa4ab2571bd272339a04a304189a4e9012b710fa91c4b1c","txTime":"2023/01/20 19:12:48","block":8295528,"epoch":388,"slotNo":82675677,"epochSlotNo":422877,"stakeKey":"stake1uxv580mdtyzyjhjn60rh7s9xa2xmw25zt609779xh8t553ck4qvvf"},{"txId":60158992,"txHash":"37d9b410795197a8c1c102ac08e3dbfe2c9025e557d6233a841d41264876a84d","txTime":"2023/01/20 19:11:45","block":8295527,"epoch":388,"slotNo":82675614,"epochSlotNo":422814,"stakeKey":"stake1u9n6069s3j869nz8r79n9y33lg5mj5dsuasua6khxcp4hpqu7tcdc"},{"txId":60158287,"txHash":"ddbda8573c223b24b7c77289600eab35fea875e1cbf2fb10781b48ed11fc6f14","txTime":"2023/01/20 18:59:18","block":8295493,"epoch":388,"slotNo":82674867,"epochSlotNo":422067,"stakeKey":"stake1u8lf6mt9zu7t8mgf7nqj8xz8vqukj769tkusa0dysuw5cqc4cvlw2"},{"txId":60158168,"txHash":"3011f28cfb77966d1d0b85bc08f21aecaf67adfffd314a08d7240df9074654d9","txTime":"2023/01/20 18:56:40","block":8295489,"epoch":388,"slotNo":82674709,"epochSlotNo":421909,"stakeKey":"stake1u88032whdtax2kygfyg9nk6q2zm9awr9g83t3yw9py67q9q6p2hmk"},{"txId":60157961,"txHash":"26117c095c75cb369e579bc7bb78b29631234f4b686e8d18e7fd31128a8005d0","txTime":"2023/01/20 18:52:49","block":8295479,"epoch":388,"slotNo":82674478,"epochSlotNo":421678,"stakeKey":"stake1u9nvuvjeru7xr3sk78d7fctzpjuxlws3au9e0x56m6esqfgpfqzun"},{"txId":60157851,"txHash":"6097dd8bb31dcc55917139d06abadea755c7d5da886d1547818131742aa3c734","txTime":"2023/01/20 18:50:55","block":8295475,"epoch":388,"slotNo":82674364,"epochSlotNo":421564,"stakeKey":"stake1u9sld5s420d8m8wgwnuedd3gmfasnjhheg6fmclzvauqqqge4m73w"},{"txId":60157678,"txHash":"8c34dfbfda49d56dac4f5c4310fb5ecbfde9efaf0c04c7da53eab125f6e91ec3","txTime":"2023/01/20 18:47:42","block":8295469,"epoch":388,"slotNo":82674171,"epochSlotNo":421371,"stakeKey":"stake1uyj028x6cj7x48g4k5k66t8g38c735mpartnr4llm5w6zlgka9mx8"},{"txId":60157422,"txHash":"03f66e083b428b950aec59be88079acc359e1332da758a7b3cd8b13c8be4a5af","txTime":"2023/01/20 18:43:12","block":8295451,"epoch":388,"slotNo":82673901,"epochSlotNo":421101,"stakeKey":"stake1uy24n5n9pdkdyu8e0kjn0cefkypq52t90jsjxf5qrgtvtsq28gr3m"},{"txId":60157022,"txHash":"9b2981355d82bdcefb5ef78aca83b3e0828e225595acceec06d6b2c79511010c","txTime":"2023/01/20 18:34:57","block":8295424,"epoch":388,"slotNo":82673406,"epochSlotNo":420606,"stakeKey":"stake1u8apw3aykwn8zjn2mefhh7ckf0jsynd83f2vwgqsmggan9qv25cmg"},{"txId":60156752,"txHash":"1b7a8b66ea98a19b2323637c1617ad5e9c0d751149028e0e8c75ca0ca66fda5d","txTime":"2023/01/20 18:30:13","block":8295405,"epoch":388,"slotNo":82673122,"epochSlotNo":420322,"stakeKey":"stake1u8cd23hddwn60e6xp05al0334affr3yxzpn5dnp3dkrh5qqkgjm2s"},{"txId":60156645,"txHash":"d1fc3fc7f6217aa415b8fc021ff4975c2409d61798c85fd490e9875fa58bfe35","txTime":"2023/01/20 18:27:23","block":8295399,"epoch":388,"slotNo":82672952,"epochSlotNo":420152,"stakeKey":"stake1u8xpu98l54pddrmavmq2prdr86ed96wr9l5zgvfmyvlh6rg85ywep"},{"txId":60156592,"txHash":"ac2f7ac1843ec0b282ab0911860cb6dffdc123cf1774431ad5f007e4bed4322c","txTime":"2023/01/20 18:25:36","block":8295396,"epoch":388,"slotNo":82672845,"epochSlotNo":420045,"stakeKey":"stake1u8qj8y9ls5mwt6ndyyknnk9e9xjs5995m0hwjzwgqfln95s43x4t8"},{"txId":60156282,"txHash":"133c13ccdef057c1ab4a752f35fbe2c941e3f7dc88a2c1d276f40ad7a33a6ce2","txTime":"2023/01/20 18:18:45","block":8295374,"epoch":388,"slotNo":82672434,"epochSlotNo":419634,"stakeKey":"stake1u903hcxcwkas3tgnek9sd2d9unxp4fsn86m9dfs62t40fsg78pq2s"},{"txId":60156026,"txHash":"7a2ba0e4819dae605d86df2f7fe45e279563495a8ae2f4dfa122dd10842769f8","txTime":"2023/01/20 18:13:54","block":8295362,"epoch":388,"slotNo":82672143,"epochSlotNo":419343,"stakeKey":"stake1uywepvclcxv9cxpzc3yh9a6ejlt8w25xh5jvrqys7acqa9c4ddsqj"}],"totalItems":346252,"totalPages":17313,"currentPage":0}