{"data":[{"txId":55963204,"txHash":"86da7166360f17f16040e62ce906d51d9d40fe18cd7970b82888b81026df3236","txTime":"2022/11/25 11:19:34","block":8058345,"epoch":377,"slotNo":77808883,"epochSlotNo":308083,"stakeKey":"stake1uypn4krggq8nvpqdlgncul5nx3s0wcm7mgyfeq3gypna0esqtv3nk"},{"txId":55963046,"txHash":"ba5bc2c2b035a81e6a60fc9984799110322502aa67e2ce480a17517e1215bf6b","txTime":"2022/11/25 11:14:56","block":8058331,"epoch":377,"slotNo":77808605,"epochSlotNo":307805,"stakeKey":"stake1u9rdel30nmkx3l9r6msge7ae3zy389eydmkq0ths66a5naqdkjf4s"},{"txId":55962882,"txHash":"bbac62a200ae4c464902c3fc7f8c5eb4fb9ffb05ffefbe96004a73d795bea40f","txTime":"2022/11/25 11:10:15","block":8058321,"epoch":377,"slotNo":77808324,"epochSlotNo":307524,"stakeKey":"stake1ux0sa9g894uqf7h027p4q929n7jctj9km0qq5d977t9g8mstxmlze"},{"txId":55962521,"txHash":"7850a7e56a4e1a801ef09b1e7932a859548ee074c864500988932258e8f39df8","txTime":"2022/11/25 10:59:30","block":8058295,"epoch":377,"slotNo":77807679,"epochSlotNo":306879,"stakeKey":"stake1uyhh7mgl4kahg5qemuqt83dnrca4k3yk03x3qp6uj2qhqec9s3xg6"},{"txId":55962092,"txHash":"ef26b5a2a036740c923766bc6238983b4bb2d90207f0a3d719e73e022ccf658c","txTime":"2022/11/25 10:46:55","block":8058263,"epoch":377,"slotNo":77806924,"epochSlotNo":306124,"stakeKey":"stake1u9jnr66ze76jxv340r9hexltq7ye07cugk5w39cmd8csfkqk4m8vx"},{"txId":55961895,"txHash":"204d22c753d611e94b67f3c7c7bd45de6bb0fbc0652dda3785703bfb4be7d0bc","txTime":"2022/11/25 10:41:03","block":8058246,"epoch":377,"slotNo":77806572,"epochSlotNo":305772,"stakeKey":"stake1u9tv6r0qwd5ecr70hckwyyerkd90m27xr2u2tkl0gepwt0s48v4w7"},{"txId":55961668,"txHash":"4fb68ef007902fccddd35138ee30c311aeaaf9d16e9d60653821c7de7e61a2ab","txTime":"2022/11/25 10:34:15","block":8058223,"epoch":377,"slotNo":77806164,"epochSlotNo":305364,"stakeKey":"stake1u9vguf3kr7wcw5gag8lurj6rrhn0tsv3scces2ds9q520asz4txr3"},{"txId":55961605,"txHash":"a9ebf0a3dc0f7eb3d9e5f975359496e4c42ed323bf0749c57b655cfaf9c5f52c","txTime":"2022/11/25 10:32:21","block":8058219,"epoch":377,"slotNo":77806050,"epochSlotNo":305250,"stakeKey":"stake1uy4nzyg2zy94yzxgk6eudu6urafk0uzcrhp75m5caddrr3sy0mgd7"},{"txId":55961065,"txHash":"b06aa995bbb1d6cc4dbb5943eb9cf6c69943bc09e1e0f234badb6e0ce94f995b","txTime":"2022/11/25 10:15:51","block":8058173,"epoch":377,"slotNo":77805060,"epochSlotNo":304260,"stakeKey":"stake1uy3xu00uezdv27lwj7xxh8q0mamq7qzasg2ewp9c9nxah6cgsmh8h"},{"txId":55961007,"txHash":"fa7e827b6edd851a8a4767a86bcc305a6a76f1e4522440fefb95e0cf907f7de6","txTime":"2022/11/25 10:13:31","block":8058163,"epoch":377,"slotNo":77804920,"epochSlotNo":304120,"stakeKey":"stake1uy5srd3xm7pw2qags56hm5vf3mjvktg8x8u572jyc77x7tgeuz65m"},{"txId":55960857,"txHash":"8c7bee677bc2dbc6fb4e54b7ef5686063bb210d5799b00d398f0b385c2ed2373","txTime":"2022/11/25 10:09:10","block":8058152,"epoch":377,"slotNo":77804659,"epochSlotNo":303859,"stakeKey":"stake1uxuqfqmh5s690myvqgcmuqsfesy6e0cqwmlmh7wz4sds4use890t2"},{"txId":55960735,"txHash":"c6023a14ed4f54b8c3a52cbd18d9dd4911347d99973346da7c5db5f051322532","txTime":"2022/11/25 10:05:01","block":8058137,"epoch":377,"slotNo":77804410,"epochSlotNo":303610,"stakeKey":"stake1uy7nhzp3y3petncx272g5sxetklq5s8kte6nc6m0j8rj4ugn6hrkx"},{"txId":55960560,"txHash":"0f2d5d97e04ae553c5c1bda20d0ee26a23f670843326c6bf1e78215270136fd8","txTime":"2022/11/25 10:00:49","block":8058122,"epoch":377,"slotNo":77804158,"epochSlotNo":303358,"stakeKey":"stake1u8yj3m65ae84jhqqlu2twdq9kkcsuac4sck07lzakht7clsn5wy3h"},{"txId":55959715,"txHash":"5277606de0e7ba7a926e4f496fdf2fe623b72a72427e434535fb26fb0be38789","txTime":"2022/11/25 09:36:12","block":8058057,"epoch":377,"slotNo":77802681,"epochSlotNo":301881,"stakeKey":"stake1u9tj0caa84rwy26v8w9zrrky0tfphq477tewxp2qpzcg0jq5geqfp"},{"txId":55959548,"txHash":"a5e362e8aba1ddc66ba4da1f108126100b6bd03fae8681115a3395da8b35046f","txTime":"2022/11/25 09:32:28","block":8058046,"epoch":377,"slotNo":77802457,"epochSlotNo":301657,"stakeKey":"stake1uxcfrwnfjjtk37v94ju6yz5zvqyz28ezgpyhn7d8acdse2g3tpart"},{"txId":55959523,"txHash":"72d4bf11544af3500b98793f9a119777f385ae37518ef51aebda8fd5869feffd","txTime":"2022/11/25 09:31:05","block":8058043,"epoch":377,"slotNo":77802374,"epochSlotNo":301574,"stakeKey":"stake1u8rr0k23nyjegy4vyekanz8u4la8un4t36kcqc4udye7jagwsptyj"},{"txId":55959073,"txHash":"7b47ef231c18e1455d6b849e5318d3237228beaa6cbd08dc97457b8c773b9caf","txTime":"2022/11/25 09:18:35","block":8058001,"epoch":377,"slotNo":77801624,"epochSlotNo":300824,"stakeKey":"stake1uxe2w2mtua2mw38gry0n0wjkccnjcw5dh24j0kd2t5tp99grr0elt"},{"txId":55958472,"txHash":"87e8d88caa7696a19c2262c9a03768668616baa080c8831f03f1b0b31287442f","txTime":"2022/11/25 09:03:14","block":8057961,"epoch":377,"slotNo":77800703,"epochSlotNo":299903,"stakeKey":"stake1u80hxfav3snxavk9s8gzzlyekz6ynzylhwrvxl43vlz5sxs2m8zds"},{"txId":55958365,"txHash":"1ad986f4741f19708085e72437ba9f4f7e2672893860b1f9b6b35bd582f03975","txTime":"2022/11/25 09:00:24","block":8057953,"epoch":377,"slotNo":77800533,"epochSlotNo":299733,"stakeKey":"stake1uxndvasgpr5rtusf7qruej5wv7m4h2ly9ha7mwxeu5a5grs7a49um"},{"txId":55958196,"txHash":"e9f6ada30e8f2b610926c00eca1c87308ca9d3d8f4eb0c841e089822237fde76","txTime":"2022/11/25 08:55:58","block":8057936,"epoch":377,"slotNo":77800267,"epochSlotNo":299467,"stakeKey":"stake1u9ffu44arz5npq3y0w76ppevnwpvq5plz9jugw2s6svgjlss7r7nv"}],"totalItems":332959,"totalPages":16648,"currentPage":0}