{"data":[{"txId":56648852,"txHash":"532ab58c7b3a057dec02414675d2f9fe026b59b8861f3219cb53667cfc350541","txTime":"2022/12/04 21:34:58","block":8097910,"epoch":379,"slotNo":78623407,"epochSlotNo":258607,"stakeKey":"stake1uxpqtn5v8ntxznqn7gkwdr390jc50svmrjf7qy3yg0ez2ucpc426k"},{"txId":56648672,"txHash":"48de2c31a7ccd6afc277dc9a42d3fd170f5d4cc5eedcd1a84019f07f965d8ead","txTime":"2022/12/04 21:30:37","block":8097901,"epoch":379,"slotNo":78623146,"epochSlotNo":258346,"stakeKey":"stake1u9f5w9asrhzv9qup7f62n4f28frzrcled6lduq4nv6hnj9gsj9u56"},{"txId":56648222,"txHash":"1028290d63a48473ae756d516c022f0c25ea9e25af1bc5e3678359210aaf020b","txTime":"2022/12/04 21:23:24","block":8097884,"epoch":379,"slotNo":78622713,"epochSlotNo":257913,"stakeKey":"stake1uytn8wt0d4stlw0u46k7grpwqa3hxgn95ma9z3zzarmzv4q39jw4k"},{"txId":56648184,"txHash":"a10ec6ee1c13b0384953c1344d75d15880d115ec3e98315383feede373806152","txTime":"2022/12/04 21:22:09","block":8097882,"epoch":379,"slotNo":78622638,"epochSlotNo":257838,"stakeKey":"stake1u9ncwepalnat9c85fht8y6xwky8h6zk3gt0pqvqzyy9zzrcrt9mtd"},{"txId":56647726,"txHash":"b6e098b7f85684d0c975cc33125dccbf236eeb14b0ad94ad75b4516cfe11d699","txTime":"2022/12/04 21:12:35","block":8097860,"epoch":379,"slotNo":78622064,"epochSlotNo":257264,"stakeKey":"stake1u8lzrulmryfxp7yns7cnsysvps0kjr988zpvwkpdlpg6zxq7az52c"},{"txId":56647676,"txHash":"529488646386bf3ffc260ed6bd7cbc252c3802b7154800d03978463ba44d3ba3","txTime":"2022/12/04 21:11:39","block":8097855,"epoch":379,"slotNo":78622008,"epochSlotNo":257208,"stakeKey":"stake1ux9ttcv7laqccdehmt8tyksfyulcjjrwvdjfjvcfnlvauhsdhaxza"},{"txId":56646866,"txHash":"efd6a127392442f06e5beb28614c4f59a3e68f09033a5517064e83ef930d53d5","txTime":"2022/12/04 20:57:19","block":8097818,"epoch":379,"slotNo":78621148,"epochSlotNo":256348,"stakeKey":"stake1u9keaeuvpqz3pmzph4uwjdmeft0vzce2an7hjvr70s5sarq6y2x4s"},{"txId":56646734,"txHash":"b03f1839ea141ae501ac0a9ef7d5b0f5bf518ee22d7ad501d824f070c6ed282a","txTime":"2022/12/04 20:54:40","block":8097813,"epoch":379,"slotNo":78620989,"epochSlotNo":256189,"stakeKey":"stake1u9xkgd5wv58242mzphrj39pqyulus8f99xfmucx3eu3maqc7ay9v0"},{"txId":56646050,"txHash":"79f7a2e689831fd5bd398f82de78678089719daf56d138745743852e868fc307","txTime":"2022/12/04 20:42:15","block":8097775,"epoch":379,"slotNo":78620244,"epochSlotNo":255444,"stakeKey":"stake1uymjl42e23cak7xlrmryfgh92nlz3dkn29x3nanqdw8lvpsmtkanl"},{"txId":56646026,"txHash":"73c9690a52bcded5696ba586af60c90aefad266554a5ed43562ffc169e84d63a","txTime":"2022/12/04 20:42:05","block":8097774,"epoch":379,"slotNo":78620234,"epochSlotNo":255434,"stakeKey":"stake1uyh6a50p820scuu3m8x2nj02huqyca6d8z0ch55jc29ujdsws3dp2"},{"txId":56645126,"txHash":"22282db1f376fdb0ecdb1743ff08323edbf93c03848a9d0332067367a417704e","txTime":"2022/12/04 20:23:13","block":8097727,"epoch":379,"slotNo":78619102,"epochSlotNo":254302,"stakeKey":"stake1u9kjaxu73jhr2vtmxlrw52jfd44tl4clhtd7fpcnfd2qvaqjns2fu"},{"txId":56644576,"txHash":"179009de3a18755453e272f346fe29783f180e719cdc0546c1d2cd975b5f678a","txTime":"2022/12/04 20:14:03","block":8097703,"epoch":379,"slotNo":78618552,"epochSlotNo":253752,"stakeKey":"stake1uxz0plw6zeplfh6w2mh447jazyxjt2u0g86k3eg9peu59wcqh9klr"},{"txId":56643880,"txHash":"60affeac4bd657f832c50cdf080c8ad397ca02c36e3a12d7d6c90c98f5c7bfb2","txTime":"2022/12/04 19:59:08","block":8097661,"epoch":379,"slotNo":78617657,"epochSlotNo":252857,"stakeKey":"stake1uxwv4nn4p3epe525wdsxhuvfv8fym7vjq3v4k2k58hdky3ssn34d7"},{"txId":56643799,"txHash":"20a56f547079a4d9233147300bface12736054f94e137996564a5715d075a14a","txTime":"2022/12/04 19:57:03","block":8097653,"epoch":379,"slotNo":78617532,"epochSlotNo":252732,"stakeKey":"stake1uxv4tg05grv9nyycsmnm358m85mn9n8ygh6jrk4sv3uf0dgw97z75"},{"txId":56643673,"txHash":"f868acfb7d69b2428c8aba9d3a82d56a63cfd0a878a96b15e6136b44e80afe69","txTime":"2022/12/04 19:54:46","block":8097642,"epoch":379,"slotNo":78617395,"epochSlotNo":252595,"stakeKey":"stake1uyfjkatap5vesgrgg4u8uqpqczlvynvfag05rwumvd54thq9vp9sr"},{"txId":56643614,"txHash":"869e3905aae15dc553430468aaf7202b09d18740b731386e4a357a2f97934d58","txTime":"2022/12/04 19:53:34","block":8097640,"epoch":379,"slotNo":78617323,"epochSlotNo":252523,"stakeKey":"stake1u88u5df00vj7afjzaszcujmnty4gxvzrvxcerlywmv44dgq3ehmvu"},{"txId":56643088,"txHash":"f0041edfb7209dc91a6e4f4fc7cefa57cf5a6bcd7d3aa92332eeaa8deea07c6c","txTime":"2022/12/04 19:42:52","block":8097616,"epoch":379,"slotNo":78616681,"epochSlotNo":251881,"stakeKey":"stake1ux7r9wmcsy3j5ewuf698a5ym7u32pjql2u08km0drwx0pqq23xn2a"},{"txId":56643043,"txHash":"d7d0b01d8a2c64412a019baf0d25bfeda402ee21691dacc54b76b5a0932f8983","txTime":"2022/12/04 19:41:39","block":8097614,"epoch":379,"slotNo":78616608,"epochSlotNo":251808,"stakeKey":"stake1uykmy0xxt9fmfje3x8xlnwvry6uuk8wpgzy8hq6f8rfh6hc32tf28"},{"txId":56642974,"txHash":"7ac8e390d111084253d7dffb55bff4bd20121010893caf0a35340fc5a540a2b8","txTime":"2022/12/04 19:40:26","block":8097610,"epoch":379,"slotNo":78616535,"epochSlotNo":251735,"stakeKey":"stake1uy2pl9qqxy3rycmr8kvwv305mhhcyspjygr92xrgkn6hasgdqca3w"},{"txId":56642756,"txHash":"418bd6a3f221eb69c07c2f8b62aa9310b704dba67fe9911a7d00772cdeb236fc","txTime":"2022/12/04 19:35:19","block":8097596,"epoch":379,"slotNo":78616228,"epochSlotNo":251428,"stakeKey":"stake1u9p439trz9pasgd35z4kqheqxsqmng4zuk66nv5plmyrtcgd7czr5"}],"totalItems":334866,"totalPages":16744,"currentPage":0}