{"data":[{"policy":"84d052c82516340258865b6c5c55eaac424b9bcd89e11fbd139308e6","name":"7445555344","displayName":"tEUSD","fingerprint":"asset1qdt4apcmwg3wuqu4g4s59wl3mta8hy82s648hl","quantity":999999742673287631},{"policy":"7f4925e6ea130b05eec068ebd5c3d40dcab8805c753199f0e9f86b38","name":"48415050595f544f4b454e","displayName":"HAPPY_TOKEN","fingerprint":"asset1umkuah276kukk3fhxxdu0lj7last6q0ynmueny","quantity":200000},{"policy":"37c4425e40d5efe98dc4eba39c0ca92382c3d0abf5d8c577caa9be6f","name":"48415050595f544f4b454e","displayName":"HAPPY_TOKEN","fingerprint":"asset1w54rvusk35c06p7kdlw95t8rwpp5r7u5rqn5p2","quantity":10000},{"policy":"a19a2dc335f57e79f730d021e6aa2d679a7f50b67a5e2edc3095cb1a","name":"48415050595f544f4b454e","displayName":"HAPPY_TOKEN","fingerprint":"asset1vwg85kr4rgtwsyd28w0xkjckuurnn44wwxxdxg","quantity":10000},{"policy":"b9ed7c6f1cba4939490479a60fdb863856229941c0bb2002039f8b55","name":"dd733fd3788e21811a1d79e26757bc387cbefaaccdc99c7be05a387c","displayName":"asset1sw46tvv3vljkvzx2wlc6arzwvxh22dqw5srpf8","fingerprint":"asset1sw46tvv3vljkvzx2wlc6arzwvxh22dqw5srpf8","quantity":29},{"policy":"eeec81603c9eff93dfc00cd4d62d6bd4403076e4973fa716326c692d","name":"6336386565373436646137626632376462306164386261616239646133613861","displayName":"c68ee746da7bf27db0ad8baab9da3a8a","fingerprint":"asset1a30ak7e5ag67wz5zztyv6ut2m3es0xw4mhywlf","quantity":28},{"policy":"182e2ff054f769041cd0d90fff8965e9be74ad8de03c26389b91e9fb","name":"6436643033623861383637343363663963373237343037653438316364326230","displayName":"d6d03b8a86743cf9c727407e481cd2b0","fingerprint":"asset1mzmsv0ceczr73vjjgmykrfzt7e9qvfv3xp70sh","quantity":28},{"policy":"a162cac9dbb645f872d92579e7d63d623c16544a4155d21d5a3da58e","name":"376362656661616363646339396337626530356133383763","displayName":"7cbefaaccdc99c7be05a387c","fingerprint":"asset17zjthsvfgh9y4892j6y0j7yq75w3akhjecplu3","quantity":28},{"policy":"182e2ff054f769041cd0d90fff8965e9be74ad8de03c26389b91e9fb","name":"653636333166646234656231613163386139373736616136","displayName":"e6631fdb4eb1a1c8a9776aa6","fingerprint":"asset16lqd2h6sn4jd8dfansjf2hqrft97j28m8vv8vt","quantity":28},{"policy":"a162cac9dbb645f872d92579e7d63d623c16544a4155d21d5a3da58e","name":"6464373333666433373838653231383131613164373965323637353762633338","displayName":"dd733fd3788e21811a1d79e26757bc38","fingerprint":"asset1g7f4dwlw9fmrkhjtg2a5cqq23n5pr524sjpuwp","quantity":28},{"policy":"eeec81603c9eff93dfc00cd4d62d6bd4403076e4973fa716326c692d","name":"653333643263666334316132643538613838346436356135","displayName":"e33d2cfc41a2d58a884d65a5","fingerprint":"asset177dkq94l05cj6c69zkwptpq62aj5pn3hvq2txx","quantity":28},{"policy":"901dd5049abbdedd7e32737a7c3fc37cf5c32c3ee034d27233ef36b0","name":"d6d03b8a86743cf9c727407e481cd2b0e6631fdb4eb1a1c8a9776aa6","displayName":"asset1nejfladxk79hskuatc8e4v7qvftzv7hdm05cvr","fingerprint":"asset1nejfladxk79hskuatc8e4v7qvftzv7hdm05cvr","quantity":28},{"policy":"1cb7c20806fefb35966a99264500f28521420d6f743230fc06ae2c1d","name":"c68ee746da7bf27db0ad8baab9da3a8ae33d2cfc41a2d58a884d65a5","displayName":"asset13rcwzp8z04r5gcjs5uv3q0qpnk857ruhv8965z","fingerprint":"asset13rcwzp8z04r5gcjs5uv3q0qpnk857ruhv8965z","quantity":27},{"policy":"9161c0e25951a8c36662f17072a7204ccb9eed1e3873c536750c21bc","name":"366462636331306535366236303635613232373030393235","displayName":"6dbcc10e56b6065a22700925","fingerprint":"asset1p3mk8wv42z76jv9e0unazetgeteag4mr2k9jjf","quantity":20},{"policy":"1cca4d23ad63a9c503923ef47a1703789509e6123e523a9d5fd325e8","name":"636565363333653664396264653433616435663963613937","displayName":"cee633e6d9bde43ad5f9ca97","fingerprint":"asset1g07ufc3c2rm03pzume77q4dv4k8tdulutgj6d4","quantity":20},{"policy":"1cca4d23ad63a9c503923ef47a1703789509e6123e523a9d5fd325e8","name":"6163623739616234383466643763353638336233663965616231306531373964","displayName":"acb79ab484fd7c5683b3f9eab10e179d","fingerprint":"asset12rm9sdcf346u45m642z8l04790624hxlyyall6","quantity":20},{"policy":"9161c0e25951a8c36662f17072a7204ccb9eed1e3873c536750c21bc","name":"6435316133356462363461326561613266333939396634623530666161666130","displayName":"d51a35db64a2eaa2f3999f4b50faafa0","fingerprint":"asset1rn7agaqmkreynp8dzly24a64v3dfqgd7mszd2j","quantity":20},{"policy":"58d847217fd6866fe0f66a4e7f23d81d2d75faf2bceb702c482be453","name":"6336386565373436646137626632376462306164386261616239646133613861","displayName":"c68ee746da7bf27db0ad8baab9da3a8a","fingerprint":"asset1dsyvscjjthd4ppz7qnkj5vdzkhdtxq8urqtgh2","quantity":10},{"policy":"d2ce5dee6ce22dfa705fcdc6a6713c88c3aedb2b777a12669afd4b51","name":"376362656661616363646339396337626530356133383763","displayName":"7cbefaaccdc99c7be05a387c","fingerprint":"asset1l7jre80jwzwmsmyv4dh4nxk6k0lnt306rvprr0","quantity":10},{"policy":"58d847217fd6866fe0f66a4e7f23d81d2d75faf2bceb702c482be453","name":"653333643263666334316132643538613838346436356135","displayName":"e33d2cfc41a2d58a884d65a5","fingerprint":"asset1lvfwqad8yx04q7h6eq5edk5mepemjefvvxmtvq","quantity":10}],"totalItems":38,"totalPages":2,"currentPage":0}