{"data":[{"hash":"e0f06e83a85858c80f5f03a552ca53b5da7e7374ee20247e0775c3857552051e","blockNo":8374463,"blockHash":"bc0427785d1fdb6dcf5dbb2dad931dc837e7ac9cca7dc23a54bafbceb952b0c0","epochNo":392,"epochSlotNo":331094,"slot":84311894,"time":"2023/02/08 17:43:05","addressesInput":["addr1q87rw3kvffmkf3f4yq0fgjq3e2c49u2frtylxz00jvn9snanzfzekz7vqkwd9ljq7mpmzzmvxwwnqrulntc0gw6wzkpq3yv7za","addr1q8y2vx5dupj4j9myq8tydaphwe0l852qkp4plwx8gqfq9u9nzfzekz7vqkwd9ljq7mpmzzmvxwwnqrulntc0gw6wzkpqtnld68","addr1q8hg0gx0hkj7mv5yrnnvk2fusrtj2lqf3dt842l5swrgzk9nzfzekz7vqkwd9ljq7mpmzzmvxwwnqrulntc0gw6wzkpqhsde3e","addr1q82sylsd0z6xaa46ljd7ztglkp0a3jmff93zx9suknzjk6dnzfzekz7vqkwd9ljq7mpmzzmvxwwnqrulntc0gw6wzkpq220dhl"],"addressesOutput":["addr1q9zg7xmzpuaa80r3gd827dphx8m7ewf200m49yzq0hhu0rtkjyd6gen5qdlkzmgn27vuepltesmk2r8fz4ulz0kymjlsa2hsd7","addr1qxyyw7lwl0g2tat0nmealdavrp4aqz6lquc45hz0l55h8m4nzfzekz7vqkwd9ljq7mpmzzmvxwwnqrulntc0gw6wzkpq2ksxxu","addr1qxyyw7lwl0g2tat0nmealdavrp4aqz6lquc45hz0l55h8m4nzfzekz7vqkwd9ljq7mpmzzmvxwwnqrulntc0gw6wzkpq2ksxxu","addr1qxyyw7lwl0g2tat0nmealdavrp4aqz6lquc45hz0l55h8m4nzfzekz7vqkwd9ljq7mpmzzmvxwwnqrulntc0gw6wzkpq2ksxxu"],"fee":300669,"totalOutput":18147189,"tokens":[]},{"hash":"733793b2a998c6d00e9ad2f92fd9ef5267550b76c14491019f2b19f74e1d087f","blockNo":8371006,"blockHash":"a52fbfce43b7b16ef6a2dde9a3d13919e42c5b4c1b2089448ac498ccc3317b2b","epochNo":392,"epochSlotNo":257461,"slot":84238261,"time":"2023/02/07 21:15:52","addressesInput":["DdzFFzCqrhsfHbsREJSCMVhPpKadRe84we4SFk6N2TiAQSeUJxpK9rVSNS8EC1GrWiu5SxEDpkyzKeNf68957g9ygcJybsVRpj3NZzMo","DdzFFzCqrhsiRgHdsBEG2i7FZZ6r8ymtocS4yT12Ztx22M61KWkHFYVT8MfoQqhxuvYaUGuBr3qTyWQoDXNqXCKhtehwZuSboMw8KQeu"],"addressesOutput":["addr1q9atjfpqwdtg7ytz0pz9zcaqvx8zr2uv6ysvc4csqynr683dzefudzxhadht99nh8gv4l3z93d486ygllgxuh2drrrpsdw6fws","DdzFFzCqrhskEcinQWxYeaWWsdKCVbSWRpjKNNNT7EQqQeVhjeszBXhyDjj831vtumvn4C2og4UMaReFK2VNXdR5GSrw6rfWYCdnCFwX"],"fee":401077,"totalOutput":41765464183,"tokens":[]},{"hash":"20ee9ae5c04135191aa7de68571c41be13799a2473ded85c29602458a5a405bb","blockNo":8370025,"blockHash":"37c55abc4b570e29b83dd64edeea6b19d33082c2f867c4d49d4c45c7091c2390","epochNo":392,"epochSlotNo":236864,"slot":84217664,"time":"2023/02/07 15:32:35","addressesInput":["addr1qxq5lehud4522rrww6tjjvz94267lv6lgwtm3uafkdem5kgl4a7843764rakvn7dtyrq863whuq9vfxsl6cpg0n5kudq5tnekl","addr1qxt6n8kst0dq2nnm8l8enm346q84eha5vswgyed7c94c59ql4a7843764rakvn7dtyrq863whuq9vfxsl6cpg0n5kudqjakhzu","addr1qxq5lehud4522rrww6tjjvz94267lv6lgwtm3uafkdem5kgl4a7843764rakvn7dtyrq863whuq9vfxsl6cpg0n5kudq5tnekl","addr1qyhsw3304u49jkh53ekwk4afkp8r6ekg7247ud3gj6rzpjgl4a7843764rakvn7dtyrq863whuq9vfxsl6cpg0n5kudqkcu0fv","addr1qxq5lehud4522rrww6tjjvz94267lv6lgwtm3uafkdem5kgl4a7843764rakvn7dtyrq863whuq9vfxsl6cpg0n5kudq5tnekl","addr1qyhsw3304u49jkh53ekwk4afkp8r6ekg7247ud3gj6rzpjgl4a7843764rakvn7dtyrq863whuq9vfxsl6cpg0n5kudqkcu0fv","addr1qxq5lehud4522rrww6tjjvz94267lv6lgwtm3uafkdem5kgl4a7843764rakvn7dtyrq863whuq9vfxsl6cpg0n5kudq5tnekl","addr1qxq5lehud4522rrww6tjjvz94267lv6lgwtm3uafkdem5kgl4a7843764rakvn7dtyrq863whuq9vfxsl6cpg0n5kudq5tnekl","addr1qyhhkg4pk9xnqwqeas49c8z9d8grxu3p04yzajuwk9e00ecl4a7843764rakvn7dtyrq863whuq9vfxsl6cpg0n5kudqyntv69","addr1q9ckstmgpr6szsk3m67luzrpnj7uvkzxvj272vcgz6qk42ql4a7843764rakvn7dtyrq863whuq9vfxsl6cpg0n5kudqxp9t34","addr1qxq5lehud4522rrww6tjjvz94267lv6lgwtm3uafkdem5kgl4a7843764rakvn7dtyrq863whuq9vfxsl6cpg0n5kudq5tnekl","addr1qxt6n8kst0dq2nnm8l8enm346q84eha5vswgyed7c94c59ql4a7843764rakvn7dtyrq863whuq9vfxsl6cpg0n5kudqjakhzu","addr1qxt6n8kst0dq2nnm8l8enm346q84eha5vswgyed7c94c59ql4a7843764rakvn7dtyrq863whuq9vfxsl6cpg0n5kudqjakhzu","addr1qxq5lehud4522rrww6tjjvz94267lv6lgwtm3uafkdem5kgl4a7843764rakvn7dtyrq863whuq9vfxsl6cpg0n5kudq5tnekl","addr1qyhsw3304u49jkh53ekwk4afkp8r6ekg7247ud3gj6rzpjgl4a7843764rakvn7dtyrq863whuq9vfxsl6cpg0n5kudqkcu0fv","addr1qykdhnzxdrxteg796uxfgfl5me3tj53xqc5698f024epxhql4a7843764rakvn7dtyrq863whuq9vfxsl6cpg0n5kudqfw7h9z","addr1q9ckstmgpr6szsk3m67luzrpnj7uvkzxvj272vcgz6qk42ql4a7843764rakvn7dtyrq863whuq9vfxsl6cpg0n5kudqxp9t34"],"addressesOutput":["addr1vypeutdga9pqtzqcd0t2rzxe5v2a9g2tm2rx2cq325vnp6c5zdp8d","addr1q8ln8wl3dsdh6dmr93h9en8jelmmml09qs9ff006m696aygl4a7843764rakvn7dtyrq863whuq9vfxsl6cpg0n5kudqcq7ttc","addr1q8ln8wl3dsdh6dmr93h9en8jelmmml09qs9ff006m696aygl4a7843764rakvn7dtyrq863whuq9vfxsl6cpg0n5kudqcq7ttc","addr1q8ln8wl3dsdh6dmr93h9en8jelmmml09qs9ff006m696aygl4a7843764rakvn7dtyrq863whuq9vfxsl6cpg0n5kudqcq7ttc","addr1q8ln8wl3dsdh6dmr93h9en8jelmmml09qs9ff006m696aygl4a7843764rakvn7dtyrq863whuq9vfxsl6cpg0n5kudqcq7ttc","addr1q8ln8wl3dsdh6dmr93h9en8jelmmml09qs9ff006m696aygl4a7843764rakvn7dtyrq863whuq9vfxsl6cpg0n5kudqcq7ttc","addr1q8ln8wl3dsdh6dmr93h9en8jelmmml09qs9ff006m696aygl4a7843764rakvn7dtyrq863whuq9vfxsl6cpg0n5kudqcq7ttc","addr1q8ln8wl3dsdh6dmr93h9en8jelmmml09qs9ff006m696aygl4a7843764rakvn7dtyrq863whuq9vfxsl6cpg0n5kudqcq7ttc","addr1q8ln8wl3dsdh6dmr93h9en8jelmmml09qs9ff006m696aygl4a7843764rakvn7dtyrq863whuq9vfxsl6cpg0n5kudqcq7ttc","addr1q8ln8wl3dsdh6dmr93h9en8jelmmml09qs9ff006m696aygl4a7843764rakvn7dtyrq863whuq9vfxsl6cpg0n5kudqcq7ttc","addr1q8ln8wl3dsdh6dmr93h9en8jelmmml09qs9ff006m696aygl4a7843764rakvn7dtyrq863whuq9vfxsl6cpg0n5kudqcq7ttc","addr1q8ln8wl3dsdh6dmr93h9en8jelmmml09qs9ff006m696aygl4a7843764rakvn7dtyrq863whuq9vfxsl6cpg0n5kudqcq7ttc","addr1q8ln8wl3dsdh6dmr93h9en8jelmmml09qs9ff006m696aygl4a7843764rakvn7dtyrq863whuq9vfxsl6cpg0n5kudqcq7ttc","addr1q8ln8wl3dsdh6dmr93h9en8jelmmml09qs9ff006m696aygl4a7843764rakvn7dtyrq863whuq9vfxsl6cpg0n5kudqcq7ttc","addr1q8ln8wl3dsdh6dmr93h9en8jelmmml09qs9ff006m696aygl4a7843764rakvn7dtyrq863whuq9vfxsl6cpg0n5kudqcq7ttc"],"fee":873549,"totalOutput":107483181,"tokens":[]},{"hash":"f0b87bbff41a5ced69a624a201b9bbd08e32b067e731d201a5011ed780eb94aa","blockNo":8369762,"blockHash":"4d561472cfb673f43619090a37795c5e2047891c29398805293cd6071431a8b2","epochNo":392,"epochSlotNo":231585,"slot":84212385,"time":"2023/02/07 14:04:36","addressesInput":["DdzFFzCqrhstgxR8aHguexbYYC9ZjSXBrtask3qsSM2Rosvu5neoeg4qkxU18F88EdUf7uAhnki4Ejqqufk162YnLMEpoaZqfNPZ4iWJ","DdzFFzCqrhsfHbsREJSCMVhPpKadRe84we4SFk6N2TiAQSeUJxpK9rVSNS8EC1GrWiu5SxEDpkyzKeNf68957g9ygcJybsVRpj3NZzMo"],"addressesOutput":["addr1q9atjfpqwdtg7ytz0pz9zcaqvx8zr2uv6ysvc4csqynr683dzefudzxhadht99nh8gv4l3z93d486ygllgxuh2drrrpsdw6fws","DdzFFzCqrhsiRgHdsBEG2i7FZZ6r8ymtocS4yT12Ztx22M61KWkHFYVT8MfoQqhxuvYaUGuBr3qTyWQoDXNqXCKhtehwZuSboMw8KQeu"],"fee":401077,"totalOutput":41765783370,"tokens":[]},{"hash":"c9fc3e9af717c5af1aa1a96bf776a169cd06dd04119ff5a14fd439d643dce8e0","blockNo":8369678,"blockHash":"79143662e3dba5290b63746f76c28a2f2305ed6f1561196d1a18a29683e16fa7","epochNo":392,"epochSlotNo":229825,"slot":84210625,"time":"2023/02/07 13:35:16","addressesInput":["addr1qx495vcltjk2m9mzchwq2ujfqfpyzhsws3zjsqh5hmdxyranzfzekz7vqkwd9ljq7mpmzzmvxwwnqrulntc0gw6wzkpq7hfs39","addr1q9n4udsgwv6p30k3da9ttre93snsvmr7q7fet6fnlm4f3aanzfzekz7vqkwd9ljq7mpmzzmvxwwnqrulntc0gw6wzkpqejz7f5","addr1q87rw3kvffmkf3f4yq0fgjq3e2c49u2frtylxz00jvn9snanzfzekz7vqkwd9ljq7mpmzzmvxwwnqrulntc0gw6wzkpq3yv7za"],"addressesOutput":["addr1q9zg7xmzpuaa80r3gd827dphx8m7ewf200m49yzq0hhu0rtkjyd6gen5qdlkzmgn27vuepltesmk2r8fz4ulz0kymjlsa2hsd7","addr1q82sylsd0z6xaa46ljd7ztglkp0a3jmff93zx9suknzjk6dnzfzekz7vqkwd9ljq7mpmzzmvxwwnqrulntc0gw6wzkpq220dhl","addr1q82sylsd0z6xaa46ljd7ztglkp0a3jmff93zx9suknzjk6dnzfzekz7vqkwd9ljq7mpmzzmvxwwnqrulntc0gw6wzkpq220dhl","addr1q82sylsd0z6xaa46ljd7ztglkp0a3jmff93zx9suknzjk6dnzfzekz7vqkwd9ljq7mpmzzmvxwwnqrulntc0gw6wzkpq220dhl"],"fee":294949,"totalOutput":27010167,"tokens":[]},{"hash":"94ab4299d3f60bec458d6d0419d0ae4bc7db69b6d4ccc9e4f2e5ad6971b81657","blockNo":8369596,"blockHash":"908a9607642fb3c72401fd46d751ab3d1bfd88458d5f0e1f326efefe242bd34e","epochNo":392,"epochSlotNo":227974,"slot":84208774,"time":"2023/02/07 13:04:25","addressesInput":["addr1q8hpyvkcwpyeeq5xprj0hhyp49qx7kqprx5xhjs2vd60fx6zmhet75tnxa8l4gj20eljsycfxetsj96s7tuyaqpj7ufqajh2uq","addr1q8hpyvkcwpyeeq5xprj0hhyp49qx7kqprx5xhjs2vd60fx6zmhet75tnxa8l4gj20eljsycfxetsj96s7tuyaqpj7ufqajh2uq"],"addressesOutput":["addr1wxn9efv2f6w82hagxqtn62ju4m293tqvw0uhmdl64ch8uwc0h43gt","addr1q8hpyvkcwpyeeq5xprj0hhyp49qx7kqprx5xhjs2vd60fx6zmhet75tnxa8l4gj20eljsycfxetsj96s7tuyaqpj7ufqajh2uq"],"fee":213285,"totalOutput":66626706,"tokens":[]},{"hash":"e144a1b0c91d009655ca3571cc101d7df64b5dbcece7047e8530fb660738f2c9","blockNo":8369158,"blockHash":"ae9ee940e9f18ef40fc3316feac6f4459c9f133f8b6464eaf09d199536feaa86","epochNo":392,"epochSlotNo":219997,"slot":84200797,"time":"2023/02/07 10:51:28","addressesInput":["DdzFFzCqrhsyn7wmWLeqdfoaFqdUEoqFusr7RTQF3KFvNApXe9ri48u4FfvUmMAVaN9EaQJXt2ox96yvUxdjR3wj1oewjQpG2WgfJJto"],"addressesOutput":["addr1q9atjfpqwdtg7ytz0pz9zcaqvx8zr2uv6ysvc4csqynr683dzefudzxhadht99nh8gv4l3z93d486ygllgxuh2drrrpsdw6fws","DdzFFzCqrhstgxR8aHguexbYYC9ZjSXBrtask3qsSM2Rosvu5neoeg4qkxU18F88EdUf7uAhnki4Ejqqufk162YnLMEpoaZqfNPZ4iWJ"],"fee":391397,"totalOutput":41766037827,"tokens":[]},{"hash":"2d4059eb15726dfb6db4cf6b5291890391d16da59313d180212ad373109f8402","blockNo":8369135,"blockHash":"00ed9c3d60247fc33c4d8b5d383b9eca1a79426768b023d17a9d3f9cf12e2d5b","epochNo":392,"epochSlotNo":219556,"slot":84200356,"time":"2023/02/07 10:44:07","addressesInput":["DdzFFzCqrhtCkL2qKgJx2Wt1t8w5XBaQTfSeE5yNuizj2UgQhrSVn1apdRZ3RguQwgK6d8zpJL6D27yHdo8CcdXqubJUDu9vKeTGrfBK","DdzFFzCqrhsfHbsREJSCMVhPpKadRe84we4SFk6N2TiAQSeUJxpK9rVSNS8EC1GrWiu5SxEDpkyzKeNf68957g9ygcJybsVRpj3NZzMo"],"addressesOutput":["addr1q9atjfpqwdtg7ytz0pz9zcaqvx8zr2uv6ysvc4csqynr683dzefudzxhadht99nh8gv4l3z93d486ygllgxuh2drrrpsdw6fws","DdzFFzCqrhsyn7wmWLeqdfoaFqdUEoqFusr7RTQF3KFvNApXe9ri48u4FfvUmMAVaN9EaQJXt2ox96yvUxdjR3wj1oewjQpG2WgfJJto"],"fee":401077,"totalOutput":41767661884,"tokens":[]},{"hash":"dd63ca2e306722e8c8cf75c2eb2b74cfd8d86b24063f733d30b118e3866ac4cf","blockNo":8368877,"blockHash":"54fdf671ecf624987e3d1e4120ab274dfd61d84dc340dcfaefd4dfb65498b596","epochNo":392,"epochSlotNo":214133,"slot":84194933,"time":"2023/02/07 09:13:44","addressesInput":["addr1q8acghs8aee9dtwk9xdnys8pgp067vylfrehds7yk5zjp2pzuq20wwz394xr5htm9c32fc98tl6u8qcrnryrg4g9hars0sz8rp","addr1qyx7ekua7u84m9qcylsqavflstawjdj3400wcmz9asd843fzuq20wwz394xr5htm9c32fc98tl6u8qcrnryrg4g9hars0p79re"],"addressesOutput":["addr1qxcyjmsdntdmjs53ffc9awfhtlzd209x4tm34depsflrln49h6ct52eayzup4vrhazascpexzrg8t5yk3pen3uues98smq90q7","addr1q9r77mtrm7fhhwsjuk8xdt4shs6rjmz42egma9cvmscat6ezuq20wwz394xr5htm9c32fc98tl6u8qcrnryrg4g9hars3kzw5v"],"fee":272509,"totalOutput":15144761,"tokens":[]},{"hash":"933b0b8c5abe73eadcbd3995d743e7390fb66d1b2901cf0f203eed4907567912","blockNo":8368805,"blockHash":"8280b95ae1c25aebe1d5898e688a58461bf8c8f4b785234bc350058619756313","epochNo":392,"epochSlotNo":212627,"slot":84193427,"time":"2023/02/07 08:48:38","addressesInput":["DdzFFzCqrhsn1Djt3AwXi8N4BrSbwukd6sA41jShWxLSroTcWY4xCQBTk8QeT6Nr6bvGLJq9dcW3oU2dpWUEBFD3fWmLqMeyQJY6yPnS","DdzFFzCqrhtCrJAyunQADfPESXVtS3pfvX4EEb4pAwtU21888UXFcUQTYcxMa84US7wcY1XWNKLY3RRwsLGJPN89GL3FuqToF8Swsytn"],"addressesOutput":["addr1q9atjfpqwdtg7ytz0pz9zcaqvx8zr2uv6ysvc4csqynr683dzefudzxhadht99nh8gv4l3z93d486ygllgxuh2drrrpsdw6fws","DdzFFzCqrhtCkL2qKgJx2Wt1t8w5XBaQTfSeE5yNuizj2UgQhrSVn1apdRZ3RguQwgK6d8zpJL6D27yHdo8CcdXqubJUDu9vKeTGrfBK"],"fee":401077,"totalOutput":41767916341,"tokens":[]},{"hash":"53c0180db92dfa365a352ed2fece08556533c159ab80d8e2e6dd427b6a3ec352","blockNo":8368375,"blockHash":"83357a197e9b361b3bc66dabf536d199f4b438e4a1371047d3433671b63c739f","epochNo":392,"epochSlotNo":203140,"slot":84183940,"time":"2023/02/07 06:10:31","addressesInput":["DdzFFzCqrhsfHbsREJSCMVhPpKadRe84we4SFk6N2TiAQSeUJxpK9rVSNS8EC1GrWiu5SxEDpkyzKeNf68957g9ygcJybsVRpj3NZzMo","DdzFFzCqrhsmg7Tnd3qU1oZmw4Poyz5uXZXdeuZn6vCqhgmqS85R82CaKVdLwx6rQPEz6dQrE8VCbg4XM6ioN7BmLXu7EHr73rTVmXX9"],"addressesOutput":["addr1q9atjfpqwdtg7ytz0pz9zcaqvx8zr2uv6ysvc4csqynr683dzefudzxhadht99nh8gv4l3z93d486ygllgxuh2drrrpsdw6fws","DdzFFzCqrhsn1Djt3AwXi8N4BrSbwukd6sA41jShWxLSroTcWY4xCQBTk8QeT6Nr6bvGLJq9dcW3oU2dpWUEBFD3fWmLqMeyQJY6yPnS"],"fee":401077,"totalOutput":1384300600,"tokens":[]},{"hash":"90df51d62897ec434544251f2f5461ed779a2c9a925fe087f64f6f5d57dd0fbf","blockNo":8368295,"blockHash":"e064479c20e77a6032cae01132340ca7ce283043e8df771dd3bfafe8d05f2b8c","epochNo":392,"epochSlotNo":201357,"slot":84182157,"time":"2023/02/07 05:40:48","addressesInput":["addr1qysdvmvecllayy4rkksgsms5lu4vxhvxwtmx85ks3cctcdl49v0llr6kh86h28lyzeulsjnz9e0rfk2j0t9qend2e6xqvu3nts","addr1qysdvmvecllayy4rkksgsms5lu4vxhvxwtmx85ks3cctcdl49v0llr6kh86h28lyzeulsjnz9e0rfk2j0t9qend2e6xqvu3nts","addr1qysdvmvecllayy4rkksgsms5lu4vxhvxwtmx85ks3cctcdl49v0llr6kh86h28lyzeulsjnz9e0rfk2j0t9qend2e6xqvu3nts","addr1qysdvmvecllayy4rkksgsms5lu4vxhvxwtmx85ks3cctcdl49v0llr6kh86h28lyzeulsjnz9e0rfk2j0t9qend2e6xqvu3nts","addr1qysdvmvecllayy4rkksgsms5lu4vxhvxwtmx85ks3cctcdl49v0llr6kh86h28lyzeulsjnz9e0rfk2j0t9qend2e6xqvu3nts","addr1qysdvmvecllayy4rkksgsms5lu4vxhvxwtmx85ks3cctcdl49v0llr6kh86h28lyzeulsjnz9e0rfk2j0t9qend2e6xqvu3nts","addr1zxgx3far7qygq0k6epa0zcvcvrevmn0ypsnfsue94nsn3tvpw288a4x0xf8pxgcntelxmyclq83s0ykeehchz2wtspks905plm","addr1qysdvmvecllayy4rkksgsms5lu4vxhvxwtmx85ks3cctcdl49v0llr6kh86h28lyzeulsjnz9e0rfk2j0t9qend2e6xqvu3nts","addr1qysdvmvecllayy4rkksgsms5lu4vxhvxwtmx85ks3cctcdl49v0llr6kh86h28lyzeulsjnz9e0rfk2j0t9qend2e6xqvu3nts","addr1qysdvmvecllayy4rkksgsms5lu4vxhvxwtmx85ks3cctcdl49v0llr6kh86h28lyzeulsjnz9e0rfk2j0t9qend2e6xqvu3nts","addr1qysdvmvecllayy4rkksgsms5lu4vxhvxwtmx85ks3cctcdl49v0llr6kh86h28lyzeulsjnz9e0rfk2j0t9qend2e6xqvu3nts","addr1qysdvmvecllayy4rkksgsms5lu4vxhvxwtmx85ks3cctcdl49v0llr6kh86h28lyzeulsjnz9e0rfk2j0t9qend2e6xqvu3nts"],"addressesOutput":["addr1qx9gjyvuqmghprhrrmjn3zyggvxaxu9n9yezajxyntr2704yv698rn5muf7q9syrrqcskp49dpzzsvcsqk3rqstj0zuskf9x5v","addr1q9cwvremt6n320s2e3agq0jyq82yhrk3htsu0w426xnz5us70z4w0jgvcdkkynmm8wmds66jd9kusnjfpu6raw5fqp0sr07p5w","addr1q9emup67c9juara4nsck0nhjk7433k8zxfw97w7jyumltcfq0pe9eh38pmlxe8z7vnjft8248kzza6rhja9s0qh36n4qmv379h","addr1qysdvmvecllayy4rkksgsms5lu4vxhvxwtmx85ks3cctcdl49v0llr6kh86h28lyzeulsjnz9e0rfk2j0t9qend2e6xqvu3nts","addr1qysdvmvecllayy4rkksgsms5lu4vxhvxwtmx85ks3cctcdl49v0llr6kh86h28lyzeulsjnz9e0rfk2j0t9qend2e6xqvu3nts","addr1qysdvmvecllayy4rkksgsms5lu4vxhvxwtmx85ks3cctcdl49v0llr6kh86h28lyzeulsjnz9e0rfk2j0t9qend2e6xqvu3nts"],"fee":1275181,"totalOutput":672836607,"tokens":[]},{"hash":"2e59ecb432ceb680cee7ffd218001081e05d51994552047df2c14781a1155e2c","blockNo":8368032,"blockHash":"c239f228387537f526b9c4ebbe7ab78ba8460a3c7e9256ec2e5ff9d87b3fa841","epochNo":392,"epochSlotNo":195528,"slot":84176328,"time":"2023/02/07 04:03:39","addressesInput":["addr1q9vj9w32w77p47ca725hantcf5nrzcex66vqq58kqm4l04y6hn99676mvdj6qvd34vfqh3jx6vy8tyfkuy6u3xcghq8sex2gzq","addr1zxgx3far7qygq0k6epa0zcvcvrevmn0ypsnfsue94nsn3tvpw288a4x0xf8pxgcntelxmyclq83s0ykeehchz2wtspks905plm","addr1q9vj9w32w77p47ca725hantcf5nrzcex66vqq58kqm4l04y6hn99676mvdj6qvd34vfqh3jx6vy8tyfkuy6u3xcghq8sex2gzq"],"addressesOutput":["addr1q9vj9w32w77p47ca725hantcf5nrzcex66vqq58kqm4l04y6hn99676mvdj6qvd34vfqh3jx6vy8tyfkuy6u3xcghq8sex2gzq","addr1q9vj9w32w77p47ca725hantcf5nrzcex66vqq58kqm4l04y6hn99676mvdj6qvd34vfqh3jx6vy8tyfkuy6u3xcghq8sex2gzq","addr1q9vj9w32w77p47ca725hantcf5nrzcex66vqq58kqm4l04y6hn99676mvdj6qvd34vfqh3jx6vy8tyfkuy6u3xcghq8sex2gzq"],"fee":322566,"totalOutput":76535634,"tokens":[]},{"hash":"cd1ff321202cbb18812dc7b19b3a5eb7f9514a21a72b98ef2f4242484ae3b5b4","blockNo":8367904,"blockHash":"650765d0a99160321e0145ad1bb6c3f1d805903c7284c089d441c0946d32c89b","epochNo":392,"epochSlotNo":192676,"slot":84173476,"time":"2023/02/07 03:16:07","addressesInput":["DdzFFzCqrhsfHbsREJSCMVhPpKadRe84we4SFk6N2TiAQSeUJxpK9rVSNS8EC1GrWiu5SxEDpkyzKeNf68957g9ygcJybsVRpj3NZzMo","DdzFFzCqrhsyKbwtZrqg8HjmMqS29Jxy9ptXq9maMgFK5hTGezrytGwh93Xjq4CC7EoBVKUvqyxmDgLM3P1hi3ZeT37uhFc88WCyK39p"],"addressesOutput":["addr1q9atjfpqwdtg7ytz0pz9zcaqvx8zr2uv6ysvc4csqynr683dzefudzxhadht99nh8gv4l3z93d486ygllgxuh2drrrpsdw6fws","DdzFFzCqrhsmg7Tnd3qU1oZmw4Poyz5uXZXdeuZn6vCqhgmqS85R82CaKVdLwx6rQPEz6dQrE8VCbg4XM6ioN7BmLXu7EHr73rTVmXX9"],"fee":401077,"totalOutput":1384555057,"tokens":[]},{"hash":"29977d75328de416069975a18345a82fe6fb5cbd2cd2376a804b95bf2016b623","blockNo":8367815,"blockHash":"7bf87a36df3ac67ffc760f42dc248cbbac03d6be7937df11558899440dd723a3","epochNo":392,"epochSlotNo":191331,"slot":84172131,"time":"2023/02/07 02:53:42","addressesInput":["addr1q8fjdde87jrua78trg9ylv7gpvd5skzcv5nqp3wl467ykzgsmz083klcvm744y0n7yyg49ykzz0j628xpu4n5u0r0r4qrfqf6q","addr1q8fjdde87jrua78trg9ylv7gpvd5skzcv5nqp3wl467ykzgsmz083klcvm744y0n7yyg49ykzz0j628xpu4n5u0r0r4qrfqf6q","addr1q8fjdde87jrua78trg9ylv7gpvd5skzcv5nqp3wl467ykzgsmz083klcvm744y0n7yyg49ykzz0j628xpu4n5u0r0r4qrfqf6q","addr1q8fjdde87jrua78trg9ylv7gpvd5skzcv5nqp3wl467ykzgsmz083klcvm744y0n7yyg49ykzz0j628xpu4n5u0r0r4qrfqf6q","addr1q8fjdde87jrua78trg9ylv7gpvd5skzcv5nqp3wl467ykzgsmz083klcvm744y0n7yyg49ykzz0j628xpu4n5u0r0r4qrfqf6q","addr1q8fjdde87jrua78trg9ylv7gpvd5skzcv5nqp3wl467ykzgsmz083klcvm744y0n7yyg49ykzz0j628xpu4n5u0r0r4qrfqf6q","addr1q8fjdde87jrua78trg9ylv7gpvd5skzcv5nqp3wl467ykzgsmz083klcvm744y0n7yyg49ykzz0j628xpu4n5u0r0r4qrfqf6q","addr1q8fjdde87jrua78trg9ylv7gpvd5skzcv5nqp3wl467ykzgsmz083klcvm744y0n7yyg49ykzz0j628xpu4n5u0r0r4qrfqf6q","addr1q8fjdde87jrua78trg9ylv7gpvd5skzcv5nqp3wl467ykzgsmz083klcvm744y0n7yyg49ykzz0j628xpu4n5u0r0r4qrfqf6q","addr1q8fjdde87jrua78trg9ylv7gpvd5skzcv5nqp3wl467ykzgsmz083klcvm744y0n7yyg49ykzz0j628xpu4n5u0r0r4qrfqf6q","addr1q8fjdde87jrua78trg9ylv7gpvd5skzcv5nqp3wl467ykzgsmz083klcvm744y0n7yyg49ykzz0j628xpu4n5u0r0r4qrfqf6q","addr1q8fjdde87jrua78trg9ylv7gpvd5skzcv5nqp3wl467ykzgsmz083klcvm744y0n7yyg49ykzz0j628xpu4n5u0r0r4qrfqf6q","addr1q8fjdde87jrua78trg9ylv7gpvd5skzcv5nqp3wl467ykzgsmz083klcvm744y0n7yyg49ykzz0j628xpu4n5u0r0r4qrfqf6q","addr1q8fjdde87jrua78trg9ylv7gpvd5skzcv5nqp3wl467ykzgsmz083klcvm744y0n7yyg49ykzz0j628xpu4n5u0r0r4qrfqf6q"],"addressesOutput":["addr1zyq0kyrml023kwjk8zr86d5gaxrt5w8lxnah8r6m6s4jp4g3r6dxnzml343sx8jweqn4vn3fz2kj8kgu9czghx0jrsyqqktyhv","addr1q9ad5mud938r7l24eaac4v57ydlj72hazgprts9f7daaz09mm95jvs5h94099yglxr7v6ug6pp43780huy040lm4utmqx8g5eu","addr1q8fjdde87jrua78trg9ylv7gpvd5skzcv5nqp3wl467ykzgsmz083klcvm744y0n7yyg49ykzz0j628xpu4n5u0r0r4qrfqf6q","addr1q8fjdde87jrua78trg9ylv7gpvd5skzcv5nqp3wl467ykzgsmz083klcvm744y0n7yyg49ykzz0j628xpu4n5u0r0r4qrfqf6q"],"fee":586314,"totalOutput":865147151,"tokens":[]},{"hash":"1ef1a580a1bbda06a73435a1f56fbbf0703b9e5b9e0b6cc2298c676232a9033a","blockNo":8367720,"blockHash":"035f53e0ee8f15d3d216d0fb83dc1c59c6118515f5ff146f410b470460b72ac0","epochNo":392,"epochSlotNo":189354,"slot":84170154,"time":"2023/02/07 02:20:45","addressesInput":["addr1q8fjdde87jrua78trg9ylv7gpvd5skzcv5nqp3wl467ykzgsmz083klcvm744y0n7yyg49ykzz0j628xpu4n5u0r0r4qrfqf6q","addr1q8fjdde87jrua78trg9ylv7gpvd5skzcv5nqp3wl467ykzgsmz083klcvm744y0n7yyg49ykzz0j628xpu4n5u0r0r4qrfqf6q"],"addressesOutput":["addr1zxgx3far7qygq0k6epa0zcvcvrevmn0ypsnfsue94nsn3tvpw288a4x0xf8pxgcntelxmyclq83s0ykeehchz2wtspks905plm","addr1q8fjdde87jrua78trg9ylv7gpvd5skzcv5nqp3wl467ykzgsmz083klcvm744y0n7yyg49ykzz0j628xpu4n5u0r0r4qrfqf6q","addr1q8fjdde87jrua78trg9ylv7gpvd5skzcv5nqp3wl467ykzgsmz083klcvm744y0n7yyg49ykzz0j628xpu4n5u0r0r4qrfqf6q","addr1q8fjdde87jrua78trg9ylv7gpvd5skzcv5nqp3wl467ykzgsmz083klcvm744y0n7yyg49ykzz0j628xpu4n5u0r0r4qrfqf6q"],"fee":431173,"totalOutput":214907620,"tokens":[]},{"hash":"65bfd410e522d5b94cefa1a8bb50c88b2245757ef0c1101a99ad6f0d200bba2b","blockNo":8367279,"blockHash":"6d28e1f6a8188f21a2fa7208e3a963fce89c15f887d65047c784386590e2f87c","epochNo":392,"epochSlotNo":180366,"slot":84161166,"time":"2023/02/06 23:50:57","addressesInput":["addr1q8fjdde87jrua78trg9ylv7gpvd5skzcv5nqp3wl467ykzgsmz083klcvm744y0n7yyg49ykzz0j628xpu4n5u0r0r4qrfqf6q","addr1q8fjdde87jrua78trg9ylv7gpvd5skzcv5nqp3wl467ykzgsmz083klcvm744y0n7yyg49ykzz0j628xpu4n5u0r0r4qrfqf6q"],"addressesOutput":["addr1zxgx3far7qygq0k6epa0zcvcvrevmn0ypsnfsue94nsn3tvpw288a4x0xf8pxgcntelxmyclq83s0ykeehchz2wtspks905plm","addr1q8fjdde87jrua78trg9ylv7gpvd5skzcv5nqp3wl467ykzgsmz083klcvm744y0n7yyg49ykzz0j628xpu4n5u0r0r4qrfqf6q","addr1q8fjdde87jrua78trg9ylv7gpvd5skzcv5nqp3wl467ykzgsmz083klcvm744y0n7yyg49ykzz0j628xpu4n5u0r0r4qrfqf6q"],"fee":429061,"totalOutput":116376769,"tokens":[]},{"hash":"fcb8f591d0a95c9153539414fa94690ee2b6dd632a8ee92f2dfa7306d98461ad","blockNo":8366884,"blockHash":"58fa6e20f6963e5f229c5f8f646ec943ec6cb5f03f9f42ee23e495ffc087ac62","epochNo":392,"epochSlotNo":172166,"slot":84152966,"time":"2023/02/06 21:34:17","addressesInput":["addr1q9vj9w32w77p47ca725hantcf5nrzcex66vqq58kqm4l04y6hn99676mvdj6qvd34vfqh3jx6vy8tyfkuy6u3xcghq8sex2gzq","addr1q9vj9w32w77p47ca725hantcf5nrzcex66vqq58kqm4l04y6hn99676mvdj6qvd34vfqh3jx6vy8tyfkuy6u3xcghq8sex2gzq","addr1zxgx3far7qygq0k6epa0zcvcvrevmn0ypsnfsue94nsn3tvpw288a4x0xf8pxgcntelxmyclq83s0ykeehchz2wtspks905plm"],"addressesOutput":["addr1q9vj9w32w77p47ca725hantcf5nrzcex66vqq58kqm4l04y6hn99676mvdj6qvd34vfqh3jx6vy8tyfkuy6u3xcghq8sex2gzq","addr1q9vj9w32w77p47ca725hantcf5nrzcex66vqq58kqm4l04y6hn99676mvdj6qvd34vfqh3jx6vy8tyfkuy6u3xcghq8sex2gzq","addr1q9vj9w32w77p47ca725hantcf5nrzcex66vqq58kqm4l04y6hn99676mvdj6qvd34vfqh3jx6vy8tyfkuy6u3xcghq8sex2gzq"],"fee":322566,"totalOutput":77085345,"tokens":[]},{"hash":"78e09a62afb7ddd9fe52a06206e9a1cbd4e9a72ac1634932ef9da16210e7eacc","blockNo":8366794,"blockHash":"7ba2b0b903e7f22091197e7955e64b4616085bca33da553d3c98398dfc437610","epochNo":392,"epochSlotNo":170219,"slot":84151019,"time":"2023/02/06 21:01:50","addressesInput":["addr1q9vj9w32w77p47ca725hantcf5nrzcex66vqq58kqm4l04y6hn99676mvdj6qvd34vfqh3jx6vy8tyfkuy6u3xcghq8sex2gzq","addr1q9vj9w32w77p47ca725hantcf5nrzcex66vqq58kqm4l04y6hn99676mvdj6qvd34vfqh3jx6vy8tyfkuy6u3xcghq8sex2gzq","addr1q9vj9w32w77p47ca725hantcf5nrzcex66vqq58kqm4l04y6hn99676mvdj6qvd34vfqh3jx6vy8tyfkuy6u3xcghq8sex2gzq"],"addressesOutput":["addr1zxgx3far7qygq0k6epa0zcvcvrevmn0ypsnfsue94nsn3tvpw288a4x0xf8pxgcntelxmyclq83s0ykeehchz2wtspks905plm","addr1q9vj9w32w77p47ca725hantcf5nrzcex66vqq58kqm4l04y6hn99676mvdj6qvd34vfqh3jx6vy8tyfkuy6u3xcghq8sex2gzq","addr1q9vj9w32w77p47ca725hantcf5nrzcex66vqq58kqm4l04y6hn99676mvdj6qvd34vfqh3jx6vy8tyfkuy6u3xcghq8sex2gzq"],"fee":252797,"totalOutput":77407911,"tokens":[]},{"hash":"a84106ffb83f6d99b396f456054ff0ec347bda6bcfa6f4f2954ebb49a292491a","blockNo":8366738,"blockHash":"9f150457132cf39c18106c123e750ce662d1bfdfc7abd35e7bebef8294642b3c","epochNo":392,"epochSlotNo":169173,"slot":84149973,"time":"2023/02/06 20:44:24","addressesInput":["DdzFFzCqrht4DJvcxtQTfiZiUqviisFjBwEQMuzGTaqoweyJRRrucbAkxAD9bUwvgTrioEVyv5dA2g9gLaxSDdBnGeseUoMfUf93MJqy","DdzFFzCqrhstHRSW8EUnAexcxUotfNBT6arskNn8gU5BPNHMrCStBL2oCSxmpF53M1vwXf82UZK1u8hBLqrNXywccaKXarLNK9CqZnby"],"addressesOutput":["addr1q9atjfpqwdtg7ytz0pz9zcaqvx8zr2uv6ysvc4csqynr683dzefudzxhadht99nh8gv4l3z93d486ygllgxuh2drrrpsdw6fws","DdzFFzCqrhsyKbwtZrqg8HjmMqS29Jxy9ptXq9maMgFK5hTGezrytGwh93Xjq4CC7EoBVKUvqyxmDgLM3P1hi3ZeT37uhFc88WCyK39p"],"fee":401077,"totalOutput":1384809514,"tokens":[]}],"totalItems":13688,"totalPages":685,"currentPage":0}