{"data":[{"address":"addr1z8snz7c4974vzdpxu65ruphl3zjdvtxw8strf2c2tmqnxz2j2c79gy9l76sdg0xwhd7r0c0kna0tycz4y5s6mlenh8pq0xmsha","txCount":746626,"balance":51275391657074},{"address":"addr1z8297ay4dlcdngmat86080adn8f8jlvveammehrunpx60aqm5kjdmrpmng059yellupyvwgay2v0lz6663swmds7hp0qnm8ly0","txCount":571,"balance":30898367407522},{"address":"addr1z8jd97ct35n4s5ss8lt4sq0zclw0dmf7yak8fj46m0jm3dswtf6nj8t35qph4n6m04gawl49yvsxytfjpjpcfhehpcvqwwrrlu","txCount":13,"balance":28000000000000},{"address":"addr1wy0nmrl40z3nx9d0d79pu5u7zett4hl2apfuj9caqgf7jjqcj3r8z","txCount":918,"balance":15297608685218},{"address":"addr1w9qzpelu9hn45pefc0xr4ac4kdxeswq7pndul2vuj59u8tqaxdznu","txCount":506082,"balance":10576511436741},{"address":"addr1z8nvjzjeydcn4atcd93aac8allvrpjn7pjr2qsweukpnaytpq3ryg76qvca5eu9c6py33ncg8zf09nh7gy2cvdps2yeqlvvkfh","txCount":3897,"balance":5879261840743},{"address":"addr1wykycygqz383nymn2060mhlnyqcvf9zkwhw6veu0kv06euckqc0ze","txCount":6,"balance":5499999658160},{"address":"addr1w8pydstdswmdqmg2rdt59dzql3zgfp9pt8sulnjgalycwdsj9js7w","txCount":69428,"balance":4842581887729},{"address":"addr1z8nvjzjeydcn4atcd93aac8allvrpjn7pjr2qsweukpnayd8awyllkdhpwm7r3tnvvm0mzx592fzgazhuevl679cf7lq35qw53","txCount":2334,"balance":2678376719120},{"address":"addr1z8nvjzjeydcn4atcd93aac8allvrpjn7pjr2qsweukpnaytvcg6zm2vds6mz9x3h3yalqmnf24w86m09n40q3tgqxjms9yu6v8","txCount":19756,"balance":2343929792333},{"address":"addr1z8nvjzjeydcn4atcd93aac8allvrpjn7pjr2qsweukpnayvrzwt47mccrc8akjdnwat82r82man0g3s2m9czqdja6mfsqmv4gp","txCount":2130,"balance":2075089011932},{"address":"addr1z8jd97ct35n4s5ss8lt4sq0zclw0dmf7yak8fj46m0jm3dkumyryd7wxymucr47uyf9zekr5wn43f0ysvzvsgc5x80zqlvjd9t","txCount":26,"balance":1965862572820},{"address":"addr1z8nvjzjeydcn4atcd93aac8allvrpjn7pjr2qsweukpnay2tqrfwamagnyfv43jgm94yvkmsnfvpzlytmkl0cs0uh8zqszu5da","txCount":9495,"balance":1903848526199},{"address":"addr1z9fvxytwm8dv0aht3x8cxetm3tu4f47kaqdgxney8mu6hj8ktmp978vxcf308hnf8v4js57z4az4a0sx592h7t58w7fsqz6x77","txCount":6,"balance":1528253424651},{"address":"addr1w93j7t23z99448k7xspzrppjtgun0janh0rcq6k8wt2e8vc2fraw4","txCount":4011,"balance":1501279870057},{"address":"addr1z8nvjzjeydcn4atcd93aac8allvrpjn7pjr2qsweukpnay0juqg4tpvktqnle8j0ukcnww78l7ze4lrgunuwqnxtvjps8lclpw","txCount":3769,"balance":1280058233710},{"address":"addr1wxn9efv2f6w82hagxqtn62ju4m293tqvw0uhmdl64ch8uwc0h43gt","txCount":1687823,"balance":1184245238332},{"address":"addr1x97atw4jlfulpp73agh4hav2nfwlcwcfqcgr9mpucde9vmjs80extwffmz4yagvdxvr6cpd8nm3qne020739j706h3jqgthhnc","txCount":2497,"balance":1164382348178},{"address":"addr1x97atw4jlfulpp73agh4hav2nfwlcwcfqcgr9mpucde9vmj3z228hznt0rz2enxfzhtk2270gels0ht9uvf9wmyxs99qsgwdnc","txCount":2522,"balance":1163882348192},{"address":"addr1x97atw4jlfulpp73agh4hav2nfwlcwcfqcgr9mpucde9vmhccartl0f44hvc4vq8n3042epqvqq8cd4g9znpl5kdeypsx0m4jt","txCount":2529,"balance":1163882348178}],"totalItems":32275,"totalPages":1614,"currentPage":0}