{"data":[{"blockNo":8276558,"slotNo":82289100,"epochNo":388,"epochSlotNo":36300,"hash":"436e8a236e67860310b6366e00c02d8303054b3dea25efc075ad0d8aac9af56b","time":"2023/01/16 07:49:51","txCount":3,"totalFees":1428954,"totalOutput":30204424466,"slotLeader":"4ed1c8475cc3e497bbf00a5827266faec51ad9c3cce1b02122b33cba"},{"blockNo":8276557,"slotNo":82289095,"epochNo":388,"epochSlotNo":36295,"hash":"1efa0b2baea0b83ab61337234e4e6239257e529799e5ef57080844ef04912e05","time":"2023/01/16 07:49:46","txCount":6,"totalFees":2084734,"totalOutput":4402130968,"slotLeader":"ad1b6687f605b3543f9315a5f966ea70fc5f35e7b2a4c3a943bef78d"},{"blockNo":8276556,"slotNo":82289088,"epochNo":388,"epochSlotNo":36288,"hash":"e82e943992063913b997fd0050aa5c1f921dc13f7df209efb4cda08b7eb50b6a","time":"2023/01/16 07:49:39","txCount":5,"totalFees":1190526,"totalOutput":18274299348,"slotLeader":"57eb48cdf25980039f087207af09fafb4970018e322d37c11c9a2496"},{"blockNo":8276555,"slotNo":82289066,"epochNo":388,"epochSlotNo":36266,"hash":"2e6d92d7501157501ca0f256808a63d76196c99ef8f265a8de3a18ef46b2dafd","time":"2023/01/16 07:49:17","txCount":37,"totalFees":10635044,"totalOutput":3592221232214,"slotLeader":"266a21992f779be68c1476fab8e9bf1015e7b4c428ee8c3b899f65dd"},{"blockNo":8276554,"slotNo":82289016,"epochNo":388,"epochSlotNo":36216,"hash":"fba7e1bbf5560eb9e92cfadbc35894f511bf40f263ed902da65760cc88fe51df","time":"2023/01/16 07:48:27","txCount":10,"totalFees":2578019,"totalOutput":150520588589,"slotLeader":"3116c834a09b0060aef7284f63d3275456364e3309b3c19ec328af60"},{"blockNo":8276553,"slotNo":82289003,"epochNo":388,"epochSlotNo":36203,"hash":"67668503db962ee0251cd75e7ac6332602d8a0752ef7fe8e1810484a828ddc33","time":"2023/01/16 07:48:14","txCount":15,"totalFees":4564856,"totalOutput":2253997545075,"slotLeader":"0054fc7a4e34f9a1eef15a05fdfc9d323deeb9b72a4b5ec514247e66"},{"blockNo":8276552,"slotNo":82288978,"epochNo":388,"epochSlotNo":36178,"hash":"6ae083adb719d7761d3442420c85bac543cc7b342eb339064f63ca9cc6208fbc","time":"2023/01/16 07:47:49","txCount":8,"totalFees":3023838,"totalOutput":1747210684195,"slotLeader":"d854986d64cb440f9554576eee79542ddd86afa49008f9223da2549e"},{"blockNo":8276551,"slotNo":82288968,"epochNo":388,"epochSlotNo":36168,"hash":"768c4e188380fe8cb093c28bc71672227cbc54923cf83c91f46fcb6db2277d3f","time":"2023/01/16 07:47:39","txCount":47,"totalFees":11542793,"totalOutput":1413541945512,"slotLeader":"639288b5e4bf267ece78e9a4941dd794f50ec54785f84c687b4ab086"},{"blockNo":8276550,"slotNo":82288918,"epochNo":388,"epochSlotNo":36118,"hash":"3ad247efc865a4536db1dc76a0e4c5f1fb55e7a305978893acbdb03869cfede8","time":"2023/01/16 07:46:49","txCount":2,"totalFees":1144064,"totalOutput":4152096724,"slotLeader":"fe59e220d8036bd7533bf393e26abde56ec7d49fa632e57bf696d134"},{"blockNo":8276549,"slotNo":82288915,"epochNo":388,"epochSlotNo":36115,"hash":"774785420701e18a449be7bd626d194e53057a80e2b9142d0b851781ac35307a","time":"2023/01/16 07:46:46","txCount":43,"totalFees":13253878,"totalOutput":2321804091625,"slotLeader":"62c337b473a2e2548ed3cb76002a56bc1305bad95c26c6efd89085af"}],"totalItems":1756,"totalPages":176,"currentPage":0}