{"data":[{"txId":62082761,"txHash":"062708315bf3c32ca1c96080193470b1e52e6b5cc10431dd634341e639d93695","txTime":"2023/02/15 12:37:29","block":8402713,"epoch":394,"slotNo":84898358,"epochSlotNo":53558,"stakeKey":"stake1uxpurug8ezm5edaqmx6yp3mg4j0a4wlz29d8lsal60qc7lsz2vd7a"},{"txId":62082683,"txHash":"f57ae9debdc9521d49a2670923b571bdbb89c2a67bcfa97669f27f415d7b12df","txTime":"2023/02/15 12:34:27","block":8402705,"epoch":394,"slotNo":84898176,"epochSlotNo":53376,"stakeKey":"stake1u8g0vr6d0rm2e4aa2g636f0rgakyrjysp53quhngxnjfuqq0g4h20"},{"txId":62082633,"txHash":"a56d5be9cf35e862338940c23917c442fc02e358e739247653ef74d68c1ef543","txTime":"2023/02/15 12:33:15","block":8402700,"epoch":394,"slotNo":84898104,"epochSlotNo":53304,"stakeKey":"stake1u946ggpsfp0xrq9uc9g4khypl57wdpy9mfn33tr2y73n3rs5v9gkx"},{"txId":62082566,"txHash":"d6cd3c75241f0cc25052667e999799b2a7a4532f20225d580f0ff6e73be5d163","txTime":"2023/02/15 12:31:25","block":8402696,"epoch":394,"slotNo":84897994,"epochSlotNo":53194,"stakeKey":"stake1uycu7e93vs5j6kcuuzh2meyafsfr7cewu3qd24u4tpgjjtq257pdv"},{"txId":62082343,"txHash":"f4eda9581ca2a21ce02bb9e8a8f82097e16e1c36015558a1f26536742e95ed7e","txTime":"2023/02/15 12:26:23","block":8402682,"epoch":394,"slotNo":84897692,"epochSlotNo":52892,"stakeKey":"stake1uxuntjd8dnvxa8rtnfrn38hnq8jvxgsh3mjuk8s8sh4fmfsw4tzsh"},{"txId":62081976,"txHash":"56eacde26b669b21b5e3e69c9561c929ba69d8906163c5e053b38cf17d740a00","txTime":"2023/02/15 12:17:47","block":8402662,"epoch":394,"slotNo":84897176,"epochSlotNo":52376,"stakeKey":"stake1u9upjx2f3vx6v4hf4a2xz2qu8mw9fsa8xhufd9pz8svzhtszw5kx2"},{"txId":62081649,"txHash":"7fd23c2f30457bac7ba6c082cfb94e90bfb8c4fb42e6037cb52c0d7f06fcfa82","txTime":"2023/02/15 12:09:34","block":8402645,"epoch":394,"slotNo":84896683,"epochSlotNo":51883,"stakeKey":"stake1u8dmm99tqrt8ayenjjjlp4ct8sncj9z5k5mchgvxqmlppwqel9mqv"},{"txId":62081406,"txHash":"3e1d465c4b94c771aab3a1243bf789ee0bcc4ceb8a7346bc79d697e6ba01796c","txTime":"2023/02/15 12:02:49","block":8402620,"epoch":394,"slotNo":84896278,"epochSlotNo":51478,"stakeKey":"stake1u8l0eeaaz5qrv5kw468379rhqg48wqt54wad74qsseaxpxsvtuc67"},{"txId":62081347,"txHash":"a1f0b774ac1915165cbff88a95722fdbcdcdc3f633067cbd54f2c488c5e0cd3b","txTime":"2023/02/15 12:01:27","block":8402616,"epoch":394,"slotNo":84896196,"epochSlotNo":51396,"stakeKey":"stake1ux6tr2v8yuc97shmwltmez8yjvqgv0llpv0u4l4352c6aqgpg8fuv"},{"txId":62081139,"txHash":"1f28cd68beb87b89832144957ca5130b608716632a59230b14e5dd72fd48d92e","txTime":"2023/02/15 11:55:56","block":8402598,"epoch":394,"slotNo":84895865,"epochSlotNo":51065,"stakeKey":"stake1uyugnn6ksumzqp5cevdand9wcjn84xpjh9g5yu895r3qj9snf75de"},{"txId":62080795,"txHash":"240c429a431acd46132e66a7cb9796a767aec353fe31f383430fcea847f34566","txTime":"2023/02/15 11:47:07","block":8402577,"epoch":394,"slotNo":84895336,"epochSlotNo":50536,"stakeKey":"stake1u96ejvmvzng5y86zu5rkajhq0gfm38c0p8wtye8qcss4x7cxqa2pu"},{"txId":62080446,"txHash":"046db8d4d91a96cf8aee958fb0f03028985a19d3c3b039d57888bd97476ec32e","txTime":"2023/02/15 11:39:00","block":8402557,"epoch":394,"slotNo":84894849,"epochSlotNo":50049,"stakeKey":"stake1uyr5e5xmd7p8tfwwq33dzu70cv75alz42gcvdmmqn3qpfmq207j8r"},{"txId":62080284,"txHash":"355fc2ffa5e2ea0ffe06c7ac794d2037f4192382570b6fb7ff0fd00b8f2b31c4","txTime":"2023/02/15 11:36:24","block":8402548,"epoch":394,"slotNo":84894693,"epochSlotNo":49893,"stakeKey":"stake1u8kmz67et2wujlzgdurax38dqvcuwn683s92s5kvqsfu0tc0p2x0l"},{"txId":62079965,"txHash":"60b932826e5c589713eab0fe415c35a7de1f961ea3549ddf3252d7276ae7025d","txTime":"2023/02/15 11:25:46","block":8402521,"epoch":394,"slotNo":84894055,"epochSlotNo":49255,"stakeKey":"stake1u9j7f2vhhd8zq38resfs83qxultjt5z6dtjg0l5alcp907c5jg7ft"},{"txId":62079528,"txHash":"08839d63b4a90721c0e89d88908cbe32478a49722e04cc300cdc43f626070ff1","txTime":"2023/02/15 11:15:21","block":8402494,"epoch":394,"slotNo":84893430,"epochSlotNo":48630,"stakeKey":"stake1ux0r6n2xl85zdpramxsp0rvuyavpsztfjf6krjmrxepy8gghp3awj"},{"txId":62078799,"txHash":"935329885e31eabb3dd1af222f187995227f19c3aac92982d3a05831f6bd80ab","txTime":"2023/02/15 10:54:35","block":8402437,"epoch":394,"slotNo":84892184,"epochSlotNo":47384,"stakeKey":"stake1u8d2lu2w0c9pjrhhs0suq76cwetc739t4mgvmfkrwda285gk6mxa9"},{"txId":62078671,"txHash":"3cbda309a415062a3ef95863bf32f04247c9cde65d0acd0faa31f83c5d31b6a0","txTime":"2023/02/15 10:51:53","block":8402428,"epoch":394,"slotNo":84892022,"epochSlotNo":47222,"stakeKey":"stake1ux9t7v3vqwfmnf9498e9mmq6jq587n4y5pwsynt808698hq6zp9f9"},{"txId":62078101,"txHash":"87bfceaacb700294dd660e44dc6c1843a3812accfa392ff4b440af6ed55d2151","txTime":"2023/02/15 10:35:57","block":8402372,"epoch":394,"slotNo":84891066,"epochSlotNo":46266,"stakeKey":"stake1u8flz2sc5wzq990x39cclffuwekcfwzt7gyn290uqg7j5lsnnqmdw"},{"txId":62078006,"txHash":"d22a139764c4d109fc1f8d9a2a60fe04643cc1c4fd8a84b67eacf51d4b41e8f5","txTime":"2023/02/15 10:32:00","block":8402360,"epoch":394,"slotNo":84890829,"epochSlotNo":46029,"stakeKey":"stake1uxl2hupu50hs3xyqg9dncp5w45e47thzy972khs4mtl4q9cqnqr3t"},{"txId":62077945,"txHash":"546b93dac1da339e45465a4b2bfdf279620c35e2d164dcf73a42d343ee695ae6","txTime":"2023/02/15 10:30:10","block":8402358,"epoch":394,"slotNo":84890719,"epochSlotNo":45919,"stakeKey":"stake1uxyevc6flzkgpeynxlg5dzygh4y60h62zetuxvcjes3ur9q8439w6"}],"totalItems":353626,"totalPages":17682,"currentPage":0}