{"data":[{"hash":"94f09f7ad25f11146f01bee814cca6b0e1cc961c56e824f09a097dd9bf5f5662","blockNo":8127495,"blockHash":"e0f7037952733d56130704eead457d31b26dea2e76f38f34191ee275326762ca","epochNo":380,"epochSlotNo":429618,"slot":79226418,"time":"2022/12/11 21:05:09","addressesInput":["addr1vy6pwattx2w48ukmem0ze7g30le0nw6kjsamvedlwx4hshsud8ett"],"addressesOutput":["addr1v8px4syex8e07e6c2ucfheh27t2tcxxjm5el22g0cw32m5g77jc7x"],"fee":400000,"totalOutput":202298037,"tokens":[]},{"hash":"59c0ffba5e06ac91e7ee6d113174a25d5227428994bc3478eddc7d79b9e2decf","blockNo":8127495,"blockHash":"e0f7037952733d56130704eead457d31b26dea2e76f38f34191ee275326762ca","epochNo":380,"epochSlotNo":429618,"slot":79226418,"time":"2022/12/11 21:05:09","addressesInput":["addr1q85ntwhuvuxc69dkvrwcew3j59hykncyfd3tmw0nu5m5fxlfxka0cecd352mvcxa3jar9gtwfd8sgjmzhkul8efhgjdsn50lka","addr1q85ntwhuvuxc69dkvrwcew3j59hykncyfd3tmw0nu5m5fxlfxka0cecd352mvcxa3jar9gtwfd8sgjmzhkul8efhgjdsn50lka"],"addressesOutput":["addr1q85ntwhuvuxc69dkvrwcew3j59hykncyfd3tmw0nu5m5fxlfxka0cecd352mvcxa3jar9gtwfd8sgjmzhkul8efhgjdsn50lka","addr1q85ntwhuvuxc69dkvrwcew3j59hykncyfd3tmw0nu5m5fxlfxka0cecd352mvcxa3jar9gtwfd8sgjmzhkul8efhgjdsn50lka"],"fee":233854,"totalOutput":3064427513,"tokens":[]},{"hash":"41acbeb87d4875ff44f47445b1a4737e0bf2d24b41a418cf2dd62c2e9a76a091","blockNo":8127495,"blockHash":"e0f7037952733d56130704eead457d31b26dea2e76f38f34191ee275326762ca","epochNo":380,"epochSlotNo":429618,"slot":79226418,"time":"2022/12/11 21:05:09","addressesInput":["addr1zxgx3far7qygq0k6epa0zcvcvrevmn0ypsnfsue94nsn3tvpw288a4x0xf8pxgcntelxmyclq83s0ykeehchz2wtspks905plm","addr1zxgx3far7qygq0k6epa0zcvcvrevmn0ypsnfsue94nsn3tvpw288a4x0xf8pxgcntelxmyclq83s0ykeehchz2wtspks905plm"],"addressesOutput":["addr1q95fhz2me5m0jelwmet2slptjg98af278urzj207ljty2wuaurgmceufhqdtj2jr7j9p6ujug7nxy8q6lhzlrhpe2q9suyk2az","addr1qy2nu5zxnnfxpp383luq48tzcutmvvvqzjajjtpwww58s2gl9rcr3kkaztgnzxqt6lmcnxu6s3h4s3dquwuveyphkkcs74w2ak","addr1q9cwvremt6n320s2e3agq0jyq82yhrk3htsu0w426xnz5us70z4w0jgvcdkkynmm8wmds66jd9kusnjfpu6raw5fqp0sr07p5w","addr1qylfme9wtxpus0avh90xyauq5r3md9xdds0yyg3tkrczgrxwfqrld7yyeun8hsezhu85z2tjhcl2rwg0aqvhz8reeumqgplr90","addr1q95fhz2me5m0jelwmet2slptjg98af278urzj207ljty2wuaurgmceufhqdtj2jr7j9p6ujug7nxy8q6lhzlrhpe2q9suyk2az"],"fee":504376,"totalOutput":100836034,"tokens":[]},{"hash":"acf4d44c3290232cc82ce294630e19af73ea1edfa7640df95914bf518d1df0a9","blockNo":8127495,"blockHash":"e0f7037952733d56130704eead457d31b26dea2e76f38f34191ee275326762ca","epochNo":380,"epochSlotNo":429618,"slot":79226418,"time":"2022/12/11 21:05:09","addressesInput":["addr1qy8pj4rzj6qwtcn70tv6mz6k5pr7efduyfpaee5tah7685p5g5yc0sz9fgkkwwvwmj2ywvj7gs9h040qtusy0pyd5fns8naz2j"],"addressesOutput":["addr1qy8pj4rzj6qwtcn70tv6mz6k5pr7efduyfpaee5tah7685p5g5yc0sz9fgkkwwvwmj2ywvj7gs9h040qtusy0pyd5fns8naz2j","addr1qy8pj4rzj6qwtcn70tv6mz6k5pr7efduyfpaee5tah7685p5g5yc0sz9fgkkwwvwmj2ywvj7gs9h040qtusy0pyd5fns8naz2j"],"fee":168317,"totalOutput":48927867,"tokens":[]},{"hash":"92b0ad6f80d4d757cb3732a4525d6a7f8078f308a5ee2885fc8bf685408be318","blockNo":8127495,"blockHash":"e0f7037952733d56130704eead457d31b26dea2e76f38f34191ee275326762ca","epochNo":380,"epochSlotNo":429618,"slot":79226418,"time":"2022/12/11 21:05:09","addressesInput":["addr1qxrmuulepjxezvkd8fsu7xampwgv6m38mlfq63z35dsvn5anzfzekz7vqkwd9ljq7mpmzzmvxwwnqrulntc0gw6wzkpqht7qaf","addr1q8jqgtzqdqjf9chlanwyszzczfvrhc5fhfwp26lm6nleag9nzfzekz7vqkwd9ljq7mpmzzmvxwwnqrulntc0gw6wzkpqjqg8cy"],"addressesOutput":["addr1v9gs0trlcmyty7jakcewjs3h00a7xrzyd5wnyfrpeg4wjts0ugx63","addr1qy5mua6v7rt4l9a2gyk8wsftpq6ksejglkm4lvvz9pwn9ydnzfzekz7vqkwd9ljq7mpmzzmvxwwnqrulntc0gw6wzkpq880wna","addr1qy5mua6v7rt4l9a2gyk8wsftpq6ksejglkm4lvvz9pwn9ydnzfzekz7vqkwd9ljq7mpmzzmvxwwnqrulntc0gw6wzkpq880wna"],"fee":175973,"totalOutput":16470474,"tokens":[]},{"hash":"c223517726e555f86f7e81bff456da1193c6011e2541933b5cd7ae99eca26450","blockNo":8127495,"blockHash":"e0f7037952733d56130704eead457d31b26dea2e76f38f34191ee275326762ca","epochNo":380,"epochSlotNo":429618,"slot":79226418,"time":"2022/12/11 21:05:09","addressesInput":["addr1q9yrhxezs9jpv9huxd6sk27pecrak8863gqfkan7m24678dcvtjm8enawhyjjkcf6eves2cwz4c8y9tvhjuzpvmu4rwssukzmr","addr1z9cy2gmar6cpn8yymll93lnd7lw96f27kn2p3eq5d4tjr7rshnr04ple6jjfc0cvcmcpcxmsh576v7j2mjk8tw890vespzvgwd","addr1zyq0kyrml023kwjk8zr86d5gaxrt5w8lxnah8r6m6s4jp4g3r6dxnzml343sx8jweqn4vn3fz2kj8kgu9czghx0jrsyqqktyhv","addr1q9yrhxezs9jpv9huxd6sk27pecrak8863gqfkan7m24678dcvtjm8enawhyjjkcf6eves2cwz4c8y9tvhjuzpvmu4rwssukzmr","addr1q9yrhxezs9jpv9huxd6sk27pecrak8863gqfkan7m24678dcvtjm8enawhyjjkcf6eves2cwz4c8y9tvhjuzpvmu4rwssukzmr"],"addressesOutput":["addr1q9yrhxezs9jpv9huxd6sk27pecrak8863gqfkan7m24678dcvtjm8enawhyjjkcf6eves2cwz4c8y9tvhjuzpvmu4rwssukzmr","addr1q9yrhxezs9jpv9huxd6sk27pecrak8863gqfkan7m24678dcvtjm8enawhyjjkcf6eves2cwz4c8y9tvhjuzpvmu4rwssukzmr","addr1q9yrhxezs9jpv9huxd6sk27pecrak8863gqfkan7m24678dcvtjm8enawhyjjkcf6eves2cwz4c8y9tvhjuzpvmu4rwssukzmr","addr1z9cy2gmar6cpn8yymll93lnd7lw96f27kn2p3eq5d4tjr7rshnr04ple6jjfc0cvcmcpcxmsh576v7j2mjk8tw890vespzvgwd","addr1q9yut4l0xphjazj8g6uft4upq24k56nqlmj83qpl3hv6gm8grm8zhuc6hn2fejr07ue92vtsu5lz4tyqedjg2nn3kncqxdsyy3"],"fee":690673,"totalOutput":27200162209,"tokens":[]},{"hash":"17222c3fddf0c31ad71a774835b10d400671232db455a34bb306c00447428687","blockNo":8127495,"blockHash":"e0f7037952733d56130704eead457d31b26dea2e76f38f34191ee275326762ca","epochNo":380,"epochSlotNo":429618,"slot":79226418,"time":"2022/12/11 21:05:09","addressesInput":["addr1qyksq4qs6vc3kprsankyh0c7ydcvc6fs8v8r42tdmk978mgc7kcsgwvcdsnk0hpgfee5zgccqzhy45yhclt4xyt8xegq5hug29"],"addressesOutput":["addr1q8vhs9f3cefvcuvsxj3ayyg5qapxprcxn3pzx7hrg3qq5ave2sfhq8f0lgrsxucssx0dc5aq3dfa8sg8nnpwmyk4ckas7mtus2"],"fee":171221,"totalOutput":3290828,"tokens":[]},{"hash":"e9146ee4dcdd774e189943e7148bebabda70eda5810ec7fb18c46020cd4ea003","blockNo":8127495,"blockHash":"e0f7037952733d56130704eead457d31b26dea2e76f38f34191ee275326762ca","epochNo":380,"epochSlotNo":429618,"slot":79226418,"time":"2022/12/11 21:05:09","addressesInput":["addr1q9eeqa0rg4zuhfv8k38cflqvv0pp7ve8l3lwvflwvkss7tcz930j42eg6fwel5vtg6jrhe39q3fyh9s8cc65fh7x54wqcjr40y","addr1zxj47sy4qxlktqzmkrw8dahe46gtv8seakrshsqz26qnvzypw288a4x0xf8pxgcntelxmyclq83s0ykeehchz2wtspksr3q9nx"],"addressesOutput":["addr1q9dkqjacfg59gz4sqj0u0axzxakzfd7d8adevpvzt9z8q82s2jgngpcut9u6segtcms5k0nksl8066psstfdyuf8zxyss9dytc","addr1q9cwvremt6n320s2e3agq0jyq82yhrk3htsu0w426xnz5us70z4w0jgvcdkkynmm8wmds66jd9kusnjfpu6raw5fqp0sr07p5w","addr1q8062ln0q43h5v49nkkq4rtaaj0z45qe4eansdkh7ylqs9vn8euwmljk2h0h0q2w0uz6wenjd4mk9yvhlvq40yggkz3q50c4hs","addr1q9eeqa0rg4zuhfv8k38cflqvv0pp7ve8l3lwvflwvkss7tcz930j42eg6fwel5vtg6jrhe39q3fyh9s8cc65fh7x54wqcjr40y","addr1q9eeqa0rg4zuhfv8k38cflqvv0pp7ve8l3lwvflwvkss7tcz930j42eg6fwel5vtg6jrhe39q3fyh9s8cc65fh7x54wqcjr40y","addr1q9eeqa0rg4zuhfv8k38cflqvv0pp7ve8l3lwvflwvkss7tcz930j42eg6fwel5vtg6jrhe39q3fyh9s8cc65fh7x54wqcjr40y"],"fee":676957,"totalOutput":120712306,"tokens":[]},{"hash":"ba93965a911888bb4a67067eb6f1a36a20911efca70d7a059055382e8f78e22c","blockNo":8127495,"blockHash":"e0f7037952733d56130704eead457d31b26dea2e76f38f34191ee275326762ca","epochNo":380,"epochSlotNo":429618,"slot":79226418,"time":"2022/12/11 21:05:09","addressesInput":["addr1qx9ux2vd82znr98j7jtm9h2a4tmxwkcymgfcwtucdnf33scnthpxuj099hk248vh8zcph2t5z8zj7tzrf4gvjh9zn60s6sasdu","addr1qx9ux2vd82znr98j7jtm9h2a4tmxwkcymgfcwtucdnf33scnthpxuj099hk248vh8zcph2t5z8zj7tzrf4gvjh9zn60s6sasdu","addr1qx9ux2vd82znr98j7jtm9h2a4tmxwkcymgfcwtucdnf33scnthpxuj099hk248vh8zcph2t5z8zj7tzrf4gvjh9zn60s6sasdu"],"addressesOutput":["addr1zxgx3far7qygq0k6epa0zcvcvrevmn0ypsnfsue94nsn3tvpw288a4x0xf8pxgcntelxmyclq83s0ykeehchz2wtspks905plm","addr1qx9ux2vd82znr98j7jtm9h2a4tmxwkcymgfcwtucdnf33scnthpxuj099hk248vh8zcph2t5z8zj7tzrf4gvjh9zn60s6sasdu","addr1qx9ux2vd82znr98j7jtm9h2a4tmxwkcymgfcwtucdnf33scnthpxuj099hk248vh8zcph2t5z8zj7tzrf4gvjh9zn60s6sasdu"],"fee":219709,"totalOutput":5452505,"tokens":[]},{"hash":"627fbab5d75a98624b0f861d5e449c8d6861e5a05403de4c60f8bf55ae249ed3","blockNo":8127495,"blockHash":"e0f7037952733d56130704eead457d31b26dea2e76f38f34191ee275326762ca","epochNo":380,"epochSlotNo":429618,"slot":79226418,"time":"2022/12/11 21:05:09","addressesInput":["addr1qy4j6xjerk8mf7yzfm29y64uxt7s47gvkgz9skd96qrfevdswzm8la9yet806j6fy3vs7jexe8wfy9sshns3hwqfmqnswvuem0","addr1zxgx3far7qygq0k6epa0zcvcvrevmn0ypsnfsue94nsn3tvpw288a4x0xf8pxgcntelxmyclq83s0ykeehchz2wtspks905plm"],"addressesOutput":["addr1zxgx3far7qygq0k6epa0zcvcvrevmn0ypsnfsue94nsn3tvpw288a4x0xf8pxgcntelxmyclq83s0ykeehchz2wtspks905plm","addr1qy4j6xjerk8mf7yzfm29y64uxt7s47gvkgz9skd96qrfevdswzm8la9yet806j6fy3vs7jexe8wfy9sshns3hwqfmqnswvuem0"],"fee":302282,"totalOutput":5455804,"tokens":[]},{"hash":"8bbcad11e9be57708ca0e4c3ce39228a8559401517eb49ffb831cda9ddd73a75","blockNo":8127495,"blockHash":"e0f7037952733d56130704eead457d31b26dea2e76f38f34191ee275326762ca","epochNo":380,"epochSlotNo":429618,"slot":79226418,"time":"2022/12/11 21:05:09","addressesInput":["addr1vx79j94kky9mqzyq6lpwsfmctr2z9cyszvxj9pvq09kr9qcj9p9nr"],"addressesOutput":["addr1q8untwtn8rc22eswj082sy473qk97jsusk9xhq2awddz2cfd6ge2k33k0ddgjdyuaz5ypa3mfe7mujjdx75wuy07k9xshyps72","addr1vxrmu3m2cc5k6xltupj86a2uzcuq8r4nhznrhfq0pkwl4hgqj2v8w","addr1q8q50retm79j7ft86vv5rjv9nx630h6pgth2ggcdk6hkhwhxpnxze99c5pt7t68wkg0e2e38ekg095ppp2c5yj4aa4nqrkw20x"],"fee":229125,"totalOutput":349770875,"tokens":[]},{"hash":"ca06258c9aeceb148017140b6c4a3891973dfc0a36b83d455e8a60ff5bb29d4f","blockNo":8127495,"blockHash":"e0f7037952733d56130704eead457d31b26dea2e76f38f34191ee275326762ca","epochNo":380,"epochSlotNo":429618,"slot":79226418,"time":"2022/12/11 21:05:09","addressesInput":["addr1v8v3auqmw0eszza3ww29ea2pwftuqrqqyu26zvzjq9dt2ncydzvs5","addr1vypr00ss7hkqejmvh53xkyf0p9q0a4z2uprxmx6njc463vgst3pe4","addr1v8v3auqmw0eszza3ww29ea2pwftuqrqqyu26zvzjq9dt2ncydzvs5","addr1v8v3auqmw0eszza3ww29ea2pwftuqrqqyu26zvzjq9dt2ncydzvs5","addr1v8v3auqmw0eszza3ww29ea2pwftuqrqqyu26zvzjq9dt2ncydzvs5"],"addressesOutput":["addr1q96wgge597wake6qfz34uyvws05ap2hmv6q9n0qk4emkl0we9pqn5vdvd3vfdfq6xc80eudnk479j2pw2sc76y45c2tqt5hm6p","addr1vypr00ss7hkqejmvh53xkyf0p9q0a4z2uprxmx6njc463vgst3pe4"],"fee":195458,"totalOutput":47234007,"tokens":[]},{"hash":"e95437b2bb1dc53956ed3342d4913d262665f59191fdf6ce4ad58e8cb418be4b","blockNo":8127495,"blockHash":"e0f7037952733d56130704eead457d31b26dea2e76f38f34191ee275326762ca","epochNo":380,"epochSlotNo":429618,"slot":79226418,"time":"2022/12/11 21:05:09","addressesInput":["addr1qxw5xnejkxnnkaa0yp7wku5q5lga5andxru6fvpaezn2uu5rhww87j4g52k8j4uhze8y3090lrfnhl5rqc4r55dmhues8ap85y","addr1q9v7m0j7vss47nrpp7xnmqt5mwprg8s0qmpmgwmec32suvyrhww87j4g52k8j4uhze8y3090lrfnhl5rqc4r55dmhuesxtfnc7","addr1q83k3dftwlfrtgqtfmdu4939rv90qr0fr7gnx6akpqtlhavrhww87j4g52k8j4uhze8y3090lrfnhl5rqc4r55dmhuesf0mlmv","addr1qytv7360r0krgehdek0pklaml6g8tsdhzks27304pa0kl25rhww87j4g52k8j4uhze8y3090lrfnhl5rqc4r55dmhues68jdz3","addr1q9v7m0j7vss47nrpp7xnmqt5mwprg8s0qmpmgwmec32suvyrhww87j4g52k8j4uhze8y3090lrfnhl5rqc4r55dmhuesxtfnc7","addr1q9v7m0j7vss47nrpp7xnmqt5mwprg8s0qmpmgwmec32suvyrhww87j4g52k8j4uhze8y3090lrfnhl5rqc4r55dmhuesxtfnc7","addr1qy8chywy2pxxgf0qr45huy5tw7hsvn24fwzkuzwwg097yturhww87j4g52k8j4uhze8y3090lrfnhl5rqc4r55dmhuesjhfms4"],"addressesOutput":["addr1qy9hwqqvkjfh057s8klecuf8ssdza5t62vv2ksc4uxelqqurhww87j4g52k8j4uhze8y3090lrfnhl5rqc4r55dmhuesxp7xwy","addr1qyqtf950yzc8dsxdrvj3yfxw4p0yy0ptzxmnpyq5pngwayywean8k3egucs4t4vg587lzkaalazwjkhathytehjsyuwsp2ufj7","addr1qy9hwqqvkjfh057s8klecuf8ssdza5t62vv2ksc4uxelqqurhww87j4g52k8j4uhze8y3090lrfnhl5rqc4r55dmhuesxp7xwy"],"fee":305645,"totalOutput":14911381,"tokens":[]},{"hash":"365e5691736284b37cb7c13b1a5941dfee97026a7673e9fb1f73564a5c6225ec","blockNo":8127495,"blockHash":"e0f7037952733d56130704eead457d31b26dea2e76f38f34191ee275326762ca","epochNo":380,"epochSlotNo":429618,"slot":79226418,"time":"2022/12/11 21:05:09","addressesInput":["addr1vy4nmtfc4jfftgqg369hs2ku6kvcncgzhkemq6mh0u3zgpslf59wr"],"addressesOutput":["addr1q986tpm25nthulvl3634905aqyd8mrh7xncaw90y05g7z7j7p5t04nxe6qjcsyzhpc29tdpmz7rsnk37huqg8wmj54fscuzdma","DdzFFzCqrhtCZZWzNM868NCDy1EJo98iFVhurY6onM83EFSzbpPrLQD59sZNf5LN9iLAsFQ3LLDZoGSmJuQx2PGDspwEjLogr4ZmeVHM","addr1qxyg33auytg9hkr5geml0na6ldl6rrryaq5s8zcuynrqdh50vrdagya8kyq8anwts39k7ffdrak7td4eaq80tdwv3rqsd7fhyc","addr1vy4nmtfc4jfftgqg369hs2ku6kvcncgzhkemq6mh0u3zgpslf59wr"],"fee":181550,"totalOutput":199999818450,"tokens":[]},{"hash":"b31ca46878a817abb107c4d356d815ec065d5ea1b83f3cd3479399307c1f3475","blockNo":8127495,"blockHash":"e0f7037952733d56130704eead457d31b26dea2e76f38f34191ee275326762ca","epochNo":380,"epochSlotNo":429618,"slot":79226418,"time":"2022/12/11 21:05:09","addressesInput":["addr1q90wa592dkvdptzjl2fr0rx5zre2ucrxchlvvnky6gfmwt6laschrzemlkq3vlhguyu6vufurthyd4up4ssg49rqkwzs00hpfw","addr1q90wa592dkvdptzjl2fr0rx5zre2ucrxchlvvnky6gfmwt6laschrzemlkq3vlhguyu6vufurthyd4up4ssg49rqkwzs00hpfw"],"addressesOutput":["addr1v9ywm0h3r8cnxrs04gfy7c3s2j44utjyvn5ldjdca0c2ltccgqdes","addr1q90wa592dkvdptzjl2fr0rx5zre2ucrxchlvvnky6gfmwt6laschrzemlkq3vlhguyu6vufurthyd4up4ssg49rqkwzs00hpfw"],"fee":190871,"totalOutput":49376483,"tokens":[]},{"hash":"7332b06c94bcee46d4a0c50abe1812360bae335b42ba0d982467bc2903f5edf5","blockNo":8127495,"blockHash":"e0f7037952733d56130704eead457d31b26dea2e76f38f34191ee275326762ca","epochNo":380,"epochSlotNo":429618,"slot":79226418,"time":"2022/12/11 21:05:09","addressesInput":["addr1q8e5kg9rwh5uq8rn0ac4jq4xj24jyeewycl45ckmx95486slty4mqs4t69sqgg85dm2mtx6s8dsenzfsycmhky6z2q2skd4x7h"],"addressesOutput":["addr1q9y9fwprhcn8ftl8ud5s47mdnt3flzmgnh43ffj8wzne49qlty4mqs4t69sqgg85dm2mtx6s8dsenzfsycmhky6z2q2sx6yt87","addr1q9y9fwprhcn8ftl8ud5s47mdnt3flzmgnh43ffj8wzne49qlty4mqs4t69sqgg85dm2mtx6s8dsenzfsycmhky6z2q2sx6yt87"],"fee":171485,"totalOutput":7730780,"tokens":[]},{"hash":"9d081a742a1934fcfeb98d6ce065ad5915c3ff239d5b259a6ced2a31021b7e84","blockNo":8127495,"blockHash":"e0f7037952733d56130704eead457d31b26dea2e76f38f34191ee275326762ca","epochNo":380,"epochSlotNo":429618,"slot":79226418,"time":"2022/12/11 21:05:09","addressesInput":["addr1qxkmr0m22xeqludcg5rjdmecjxasu9fat0680qehtcsnftaadgykewa9ufvegeuca9yyq03d9v7ea2y2zthgu7hfgjtsddp6gr","addr1qxkmr0m22xeqludcg5rjdmecjxasu9fat0680qehtcsnftaadgykewa9ufvegeuca9yyq03d9v7ea2y2zthgu7hfgjtsddp6gr","addr1qxkmr0m22xeqludcg5rjdmecjxasu9fat0680qehtcsnftaadgykewa9ufvegeuca9yyq03d9v7ea2y2zthgu7hfgjtsddp6gr"],"addressesOutput":["addr1qxkmr0m22xeqludcg5rjdmecjxasu9fat0680qehtcsnftaadgykewa9ufvegeuca9yyq03d9v7ea2y2zthgu7hfgjtsddp6gr","addr1qx5pnn7gdayt5k07t2cs7u9ldvrjn54z0l4hvz9je9gnqyj4z50n495ujkw52rc54ndckt7kmmrly06wld8gy6tlxx5sg8zw76","addr1qxkmr0m22xeqludcg5rjdmecjxasu9fat0680qehtcsnftaadgykewa9ufvegeuca9yyq03d9v7ea2y2zthgu7hfgjtsddp6gr"],"fee":249409,"totalOutput":53545597982,"tokens":[]},{"hash":"1afaa9a2ff72f908163bc8dea3d1167243e619c305f6ccc6cf1ac72e672afbe5","blockNo":8127495,"blockHash":"e0f7037952733d56130704eead457d31b26dea2e76f38f34191ee275326762ca","epochNo":380,"epochSlotNo":429618,"slot":79226418,"time":"2022/12/11 21:05:09","addressesInput":["addr1q8mwkd3wlr2tskne8v3q42s56g0zeft80s2hnkvezrhf4svqy0vy8qswn5s63c8786dper792qltl3xlqp55nckmcp6qlpxfx5"],"addressesOutput":["addr1qy3egms8ut35fkjjw8rvkpt93xwga2y0hjga9wkskgcdlveunas7vr0c9mlejg9ge5qa9qv8le3q8p0lrpn38t0g6psseffz3w","addr1q9uwysg942qqrcplk73esww49mgg0vs3fdr3kgtxw5y6rj8a2xuhdzx3t37gr4t2q2evr8mrqz57krjg24thfedhqpkqucvmkk","addr1q8mwkd3wlr2tskne8v3q42s56g0zeft80s2hnkvezrhf4svqy0vy8qswn5s63c8786dper792qltl3xlqp55nckmcp6qlpxfx5"],"fee":271177,"totalOutput":179557250,"tokens":[]},{"hash":"0b7d8e1ef1603248d1a4c1b9715a3e4c29a9da5f2d47ec0454eea633477b8c11","blockNo":8127495,"blockHash":"e0f7037952733d56130704eead457d31b26dea2e76f38f34191ee275326762ca","epochNo":380,"epochSlotNo":429618,"slot":79226418,"time":"2022/12/11 21:05:09","addressesInput":["addr1q8u5xjx4jgu9r28g5eeglp37snl5ahrkqzwfeu7h58xwlh6m7sgmvkv54hafv7yxfpukjqy5pnj5358ut7metmghsq5q6nja57","addr1q8u5xjx4jgu9r28g5eeglp37snl5ahrkqzwfeu7h58xwlh6m7sgmvkv54hafv7yxfpukjqy5pnj5358ut7metmghsq5q6nja57"],"addressesOutput":["addr1q9zguzvm7h8x2p72vlgflaap0z4m6g44latmt0taksljhq54477veywpmct063553ypx6kj27mr3ketahkzt3953fttsezudlc","addr1q8u5xjx4jgu9r28g5eeglp37snl5ahrkqzwfeu7h58xwlh6m7sgmvkv54hafv7yxfpukjqy5pnj5358ut7metmghsq5q6nja57","addr1q8u5xjx4jgu9r28g5eeglp37snl5ahrkqzwfeu7h58xwlh6m7sgmvkv54hafv7yxfpukjqy5pnj5358ut7metmghsq5q6nja57"],"fee":379121,"totalOutput":104780007,"tokens":[]},{"hash":"57261478ba9e6f6666961b2693103f947c0b508d07051fab63ac727634fb25a9","blockNo":8127495,"blockHash":"e0f7037952733d56130704eead457d31b26dea2e76f38f34191ee275326762ca","epochNo":380,"epochSlotNo":429618,"slot":79226418,"time":"2022/12/11 21:05:09","addressesInput":["addr1qxgacjz92k2zrjjsuyg85nl46egulv6vmrsw9s8xql6mcnkwsxhvr4w0tvkk3u5cdm22c9a8mg94ecf6pwryp24dzmxq5xxeez"],"addressesOutput":["addr1qxnwc88e84n3gx6md6l42fsku4c55x2p3qxchmr78mwae2axxuqqpw6kv0c2ty3fnnk5sklrm8qwej0h5xv42yx7t0rsq4qtjd","addr1q9hp0j0llu3sztdpqph05pahayfsez4kq03x4np89k0ew8sv6h5hpazp4zey3w8ddnmxvtnp8lt52s3hdtnen2zt0elqfrlwzl","addr1q8cw8my4w5schmxxj8hp87jj64807ltrrnjfmp4xhusrqpxe8lucjnrv0k8jlf7t8snky5s3f4a7mle4ngr8z0k6f3lqqtxrcc","addr1qxgacjz92k2zrjjsuyg85nl46egulv6vmrsw9s8xql6mcnkwsxhvr4w0tvkk3u5cdm22c9a8mg94ecf6pwryp24dzmxq5xxeez"],"fee":381717,"totalOutput":449501284,"tokens":[]}],"totalItems":56469572,"totalPages":2823479,"currentPage":0}