{"data":[{"txId":59694430,"txHash":"f7e79a025d93873728c322c18c750e59e14f7a9b0d6166d01da932a683567f0f","txTime":"2023/01/14 18:54:40","block":8270041,"epoch":387,"slotNo":82156189,"epochSlotNo":335389,"stakeKey":"stake1u883nv0ft07ah5h66x5e3yktx6wlkq0cg0yxykxq0902crs6ac5xt"},{"txId":59694283,"txHash":"e6ef03dc6189e85c3451e2375fd05ee79487f9d6538c84f73dfacf3845be4fdc","txTime":"2023/01/14 18:51:26","block":8270037,"epoch":387,"slotNo":82155995,"epochSlotNo":335195,"stakeKey":"stake1uyz4vgp9e9rx2v2sfpvjtcjwf0cgzesa35a8up5hc6k9ghq98wvw3"},{"txId":59694203,"txHash":"520581bd164926f5f0870551c7f2f72283d59816c774d9fc7fb1edca78103d9f","txTime":"2023/01/14 18:50:10","block":8270033,"epoch":387,"slotNo":82155919,"epochSlotNo":335119,"stakeKey":"stake1ux7zlz2sf984x00g5kss4sp293nzfmfqgmx423ce2hn2f5q5h7vqx"},{"txId":59693727,"txHash":"107bdf0767d9a84786e0139901bd5675ae814b347d582c31d4ba2ba77c2ad90a","txTime":"2023/01/14 18:40:18","block":8269994,"epoch":387,"slotNo":82155327,"epochSlotNo":334527,"stakeKey":"stake1uxff0u0e05g0xad0y5kl7278z76n5qgvsds6jndglw5q3zq4ksajg"},{"txId":59693621,"txHash":"33750979480c5e92e82b1f4d2e6d79c42ef44ad8d17236fc71f43e75f6219b53","txTime":"2023/01/14 18:38:40","block":8269985,"epoch":387,"slotNo":82155229,"epochSlotNo":334429,"stakeKey":"stake1uxl4wz8ggau9sz5qktke6vtsq34euvcjkug2tnlz4qzk9eg2576lz"},{"txId":59693614,"txHash":"faec05876713271f4bed7fcfcd8e919f024da92a1cf8c58fbc051ad921378b8c","txTime":"2023/01/14 18:38:40","block":8269985,"epoch":387,"slotNo":82155229,"epochSlotNo":334429,"stakeKey":"stake1uxmetwszpwqawvme3fhguh0a3hs2yjk6usg6yegqs560s0c3urgyj"},{"txId":59693419,"txHash":"157187dc32ddd3b53b95694dc5731962e97a773440197ffddd90c9e9a2f91267","txTime":"2023/01/14 18:35:07","block":8269978,"epoch":387,"slotNo":82155016,"epochSlotNo":334216,"stakeKey":"stake1ux4xxlzc3svpzzq2rtajcv0fmx2ymr3nla0kvsdur3e6sgqgprd7e"},{"txId":59693377,"txHash":"40e4509912ca2ff8ba27edbac309a85f9d76b0c414a2d78a1da8466ce2181e90","txTime":"2023/01/14 18:34:06","block":8269973,"epoch":387,"slotNo":82154955,"epochSlotNo":334155,"stakeKey":"stake1uyv9cuxw07vcvzg20x83nxy07u30kzc5xfy0hcrf6u7c6hqr7j4qq"},{"txId":59693343,"txHash":"2f605bd33e8845e753e4de0318943fa77913d1c7af628a9991d4716b424f094c","txTime":"2023/01/14 18:33:42","block":8269970,"epoch":387,"slotNo":82154931,"epochSlotNo":334131,"stakeKey":"stake1uxajefv3j4ej04wh4kpsdv5xsa5a5htp34u30dm7yhft7tsnajkny"},{"txId":59693258,"txHash":"33dab177947af69e4dc4615a8ae9131b80b97fe002e74b74bcb5fb99ef6ec85a","txTime":"2023/01/14 18:32:31","block":8269965,"epoch":387,"slotNo":82154860,"epochSlotNo":334060,"stakeKey":"stake1uxge762wxlswt724h96g7hxm3muqpn5nh9r4kwtuf5vfhxqf7cuc3"},{"txId":59692603,"txHash":"127ee619b6bf0e63afe2088db1746181658d55fefe05db45c2148a4c5205cbfe","txTime":"2023/01/14 18:21:05","block":8269923,"epoch":387,"slotNo":82154174,"epochSlotNo":333374,"stakeKey":"stake1u953t6a7z2wqjen7z7wwegaqtvjzqxy7d5dyvm8lfhexuvcgvl2lk"},{"txId":59692346,"txHash":"c1698d9275cc28b8a4809b9fa902a93406efc09ecbf9ab72556b6706cd267f75","txTime":"2023/01/14 18:16:04","block":8269903,"epoch":387,"slotNo":82153873,"epochSlotNo":333073,"stakeKey":"stake1u96ghgu2q2hxnztzf4hrdl5dkvetwmcv8falh5jl9tjhmwc40qdyt"},{"txId":59691341,"txHash":"00b1e2ab5ef44f610a2b56cfa2fcc88b1f4a875d6c82e32be2cf0e59063a9873","txTime":"2023/01/14 18:00:29","block":8269870,"epoch":387,"slotNo":82152938,"epochSlotNo":332138,"stakeKey":"stake1uydm7ua3s0x6rrstp9u0d4swwgc8wgmerdc70czyuj8eazcgageuq"},{"txId":59691260,"txHash":"8db58d78be3d65c914348d81014f2632fc85cb506807edf4ed360511690c5f43","txTime":"2023/01/14 17:59:22","block":8269867,"epoch":387,"slotNo":82152871,"epochSlotNo":332071,"stakeKey":"stake1uyhx2qae7shr4t2fyrazq2re7k98m52r7d3aq8652tntd2s3pgx58"},{"txId":59691107,"txHash":"755c6a3d8fffdc6db449672b65cfde15e94361a7486e0ced5045677327e8adc7","txTime":"2023/01/14 17:56:39","block":8269856,"epoch":387,"slotNo":82152708,"epochSlotNo":331908,"stakeKey":"stake1uyvyq7ng6pmgqczkjnsynjq9gy6p65le9lzgelld7s6agvqsnpv73"},{"txId":59691033,"txHash":"0d2cf4f8a551fa784c2f62b7eb872b2f26b45a3973029cb51f68f257eb5d24ed","txTime":"2023/01/14 17:55:49","block":8269853,"epoch":387,"slotNo":82152658,"epochSlotNo":331858,"stakeKey":"stake1ux3jyeewxwncf06cerq9gqrf2l9w0egtsfva6n2au3gl49sgszzcj"},{"txId":59691029,"txHash":"5c14918f87123559552a45f2b7411c82e21a3adbbe84aec9db939b9930d38a0a","txTime":"2023/01/14 17:55:21","block":8269852,"epoch":387,"slotNo":82152630,"epochSlotNo":331830,"stakeKey":"stake1u863v56kah6wrep0yg44pdd2kcuhxhzxpqq3earet0lvaggwx7ves"},{"txId":59690492,"txHash":"77202800987dff230e08deb718f39ce5213914581b29ba6ab135dec8349295b2","txTime":"2023/01/14 17:47:11","block":8269829,"epoch":387,"slotNo":82152140,"epochSlotNo":331340,"stakeKey":"stake1u987u0tqffm6vfqn5n9v59fwx5nxczzxlunnvwp6g4peegchx9qvd"},{"txId":59690388,"txHash":"4bd169e79bc15dd02278dae7f4607cfab4310d792da31aede9025e782f4c2f22","txTime":"2023/01/14 17:45:16","block":8269820,"epoch":387,"slotNo":82152025,"epochSlotNo":331225,"stakeKey":"stake1uywumvvlmkydsu4qx4zn0mmrz55xkrd0xpu2emw5te9nt3qu30tlq"},{"txId":59689716,"txHash":"fb83bcc6b367e310267eeccdf62d687551c85ce859db825b90aad3e85a05a77c","txTime":"2023/01/14 17:35:09","block":8269793,"epoch":387,"slotNo":82151418,"epochSlotNo":330618,"stakeKey":"stake1uxwfwfhutyh9f8djz5h4n7qdy0h8l0wsgux0dkujxsraznqsxyghe"}],"totalItems":344728,"totalPages":17237,"currentPage":0}