{"data":[{"hash":"c1e2032b5d3b741e6e9c66b67764f19777e6c16502c6174b5c7990dbcdbee74c","blockNo":8279286,"blockHash":"a5a2e8aa7d3c9cabe0e9028891c256138130d1210d2f2534155bcc34eae5b728","epochNo":388,"epochSlotNo":91742,"slot":82344542,"time":"2023/01/16 23:13:53","addressesInput":["DdzFFzCqrht1343ZqKXNVXtfJ3BKF4TF7MxnTv1prE5ByzpuJ6MJqM1os3TERgCMbpu4thbWge3RJr7gLrkhacQ117FeUhpBRnrjKKud","DdzFFzCqrhsyxPe5N22tYRYKXfu9xXw1JzZoV5jjgs7hrsTJX2FxeejNcFyT8RU3Rvz8QDadizK7Bbzj8PzRrcpfgq7YSJh1HvAtVFxQ","DdzFFzCqrht9ZK3rQiKokFYwLUyEjtcBmYCT6DBjt38dTb7C7xauLWNe963EEoFGS6KQ2k1vpdmWPdBB2EcDR3WuN16h2Zp66oX8VMHh","DdzFFzCqrhtCeFbTaTHSxrgNxUTZy6HfyfVvNqkYQ1WJjSAMsEKRTkr5jqDDzNnbepNjSJnMWpJUfziPR3t78xxmJGPiH9FAn94htyUx","DdzFFzCqrhsmFuiy9F3bidEjdRTGkJFBpYwaNWz8a9e9PPvHnQF9YJesoDVy9eFeJcjQGmy8aWED5ZEpfZEBAQJoBPcp3HAQXwGjwfHi","DdzFFzCqrhsggzZmzkjpenCGWAvPR5cA3SgE3zMRGLfwkFdhqJHQkc5KxU6iMpfoLhAzWcoVNp9DHJzSc77VeUWgQTTjJmWoZHB1TQtm","DdzFFzCqrhstRd6wHXS6ZNpKWVT66TGETH2ohNsBrBnu1eFhDN8ppabwwHb7bpwAAzjxgi5hbGZC8vQubHsHGjBLvqkuLdsGhSPN33ug","DdzFFzCqrhshcadCXJXQSXsRbLqdQFoHbXcocDziRejT5U2v46MG5EvP9A5NxrwYTUmAWJwvpP8V6WAkqo4jEFm1AdZQvRQdhgi7qGm2","DdzFFzCqrhsoLfufG6mLAaL45Ak6DpAdTCKB2PNRv5mskfbepAgdQ8378NWWfRAKUti8md8BKuUc3VYJk685KqPyugxFYTxGy5MXACWQ","DdzFFzCqrhsoDQkmmcQUs7uUeGChhAxK3jNcfZzBJrxfoTu8YeLnqhFUTniHGa7kSijJ42ZiKFE1tiCmmKj5cQAiqjqv137QUZTVpuKS"],"addressesOutput":["addr1q9atjfpqwdtg7ytz0pz9zcaqvx8zr2uv6ysvc4csqynr683dzefudzxhadht99nh8gv4l3z93d486ygllgxuh2drrrpsdw6fws","DdzFFzCqrhtARvUa7p7wB3pZHPDukXKcQYFYfu821a5dsnYewCTjTCeFCjEup4eJtzwRvYdGKzbEobJYBNrBVuh94PxsThFPiMJiWXYz","DdzFFzCqrht8PufcqwjTBM1217ir4W3yxRCrkk23xH51j2quzmXCmsEyxAHWLMM2AZ68eu8KPr13wHjX5WyvCfQeUYb2CiLsLny2r9jo","DdzFFzCqrhse3aiwnkzDFPbba3gigqRwpanFNoXktiP6zEb9XBfKcKQGDzr1p1yzNTmsmh7VMgpgUn9isYHRwBiK2ZFhnvAdPJmauBVt","DdzFFzCqrht1aZtR4dMmApcAmwmdkCRMYpZ4t4kCwrYMEEoeDm18CHcA81ncau7MBzMJke2FFZcUwLSYpE2Ge3hyY3p3KUNBB1D68HNy"],"fee":1002161,"totalOutput":51005903010,"tokens":[]},{"hash":"fefcac6f04c0ba80c49493e066ee77faa3f0d425b7774323ac83ffbcecd643c6","blockNo":8279152,"blockHash":"3cbf30d15a0788af9a294a043fb5c787301297b56b9b5823c9746e8c4c9968bf","epochNo":388,"epochSlotNo":88856,"slot":82341656,"time":"2023/01/16 22:25:47","addressesInput":["DdzFFzCqrhsiBCGWwVwrADJRR6r6gcUs9FtJQWMEeqePvxrPqLv42oQN8VAfc7DSYAsNCYRkiKxHds14HqW9UGAf8NwLkcZWW4Vg4UzJ","DdzFFzCqrht4F5k7VhZN9yCSPnPbxE9A4ypWLfxqwLYw4PSRHmKQ2gvrwB5vnHXfD7Ad1ZYkP47B6gCSWCcKafuAYQx2gEr2FDWWiFDV","DdzFFzCqrhsupgXfpmjtvrwdkZXRZ6o4bXj1HJV6v5on1cFhU9BEhN3JQxXcb4du19FCamGxoAUpLwhH8VgtoH9kZJjYPX9ih3UidvGx","DdzFFzCqrhszZnNW68ZqazU2z5ZvnzNuce1Jb9rphtLLaXMwYTikjPz7BVLqgbpev9gMMgdKYN542uwTst2wk4imntgd5TEt3GFYNoUZ","DdzFFzCqrhsp2vrUt2S77fnbFmFudo2Lvf9DP6bqosWihRJgaGWX2c5mLYW6YKPkEN4hVKPcMixchNDcnvZpoo3QJJgNAxupgqb2g9Jy","DdzFFzCqrht31axsWuxiWMBzdGv57WTR4tRPrqCjfeBGVvJoxV43HXAApVASc3rXA6u8FVLVzfR9KjJyzq9HYLfm8BBVK5EdunAZfC9B","DdzFFzCqrhshakAMAqSp1Hue2TtasDZ9NMX4CfzLu3t3aTrhjwGP73aBVzQYq5t9tyaFyT8NcQS4LeoqHW8NvehbmB1Vp9eqF1xLggSF","DdzFFzCqrht7CNhJRAtqdp3J4wczHKUKKTDLTQPdheybTDjoLxsgQMRxGsb1G9V1spnrMm1Un4wKHr2CqgEbE3atham76Tf7GucYouiX","DdzFFzCqrht5zVkrKPpQisPUwT67PdqRrW2oxYCQe3YbiiMwRpSq7BchQFwU6D8J4uRjJsJnyrFq8o25aLgcbg3wqGdm3JQWL4qAWYXQ","DdzFFzCqrhsvGurzi61bFBLp4EZEMN4pHvYmCfz4KKjh73K1zWz6yqmYgJG9YU8ZGTGp37T6zi1eBj11uTiWa8HQxipDn7jmE7dUy5sK","DdzFFzCqrhstQb7akrxQp4JBNCbv97m6ThJbhvFKj4VTJavBR37jRVhtU3BUzVa7JVpyG9tKoiv7BsuDZYJarNNChUR1fAzikqTgRHqQ","DdzFFzCqrhsxdWRnnD2PezEXdAmAdC4MUQLahNBLiCUHsx25CMgmopk16kjFdmNUSfNp447B9YAJygH8SseLQYyM16Aq5DWF8oYQ2tec","DdzFFzCqrhsk9mZMarMZda2jSawN1zxRSojrve9x7nUG6TnvX5zUGcycHKhnMVvg96oTq65G8YQ3TBLAKwiEKXKMUth8udjRNE4eBqRf","DdzFFzCqrhst8WVFSqSZvG8gxZAHznmzXYDrPiSDjjtCRaf37aeHnb2gA64qW8Li6ZkbNyAgSpvKJQ4u77SdqJTRPWto2ew3Fq2ULSKd","DdzFFzCqrhsuUTpnm9vmuV6qrcmEv51ThQb7WjgqWdS5ZbUq8YMVwVAzqXXWrxBzd21gTj7a7XHgevCGAHyYsAfxSvKtnVmT9j2vR6VH","DdzFFzCqrhsvvDHxavyYvJW9mpm6KhAUZDmUMLP4Xk25yHz62DYWVCSGHnJREAgAVNm7R9WyMqvB84muQkbWLydWgGn6A7Yf5gaUGzEu","DdzFFzCqrhsxdWRnnD2PezEXdAmAdC4MUQLahNBLiCUHsx25CMgmopk16kjFdmNUSfNp447B9YAJygH8SseLQYyM16Aq5DWF8oYQ2tec","DdzFFzCqrht9qQpBcjA5vhMm4F3LEFo7oazEkaz6Nku5jP1ccM4MFEo94gfmZ5aJDaLGHbbc1RqvFhX63mPp7y2dtB9A6jiLEJYHpTKL","DdzFFzCqrhskoBaGukKGzrp1wcUcnygCQrhmfXNg3HWXxSG1XcmjspqgEimkF4xC9FucxKVzaJ98yPyi5PsJ9x2B4YJcdHQu5bdT88a5","DdzFFzCqrhtBBB1A9hLGmMCcpi2voaBzQnqzobHBCXgyvDBs4atu5CiuPHKrUo8r4Lh1QEdR468f5yUCySgx4D4DVDRxVcF2jEVhiLfb","DdzFFzCqrhsiBCGWwVwrADJRR6r6gcUs9FtJQWMEeqePvxrPqLv42oQN8VAfc7DSYAsNCYRkiKxHds14HqW9UGAf8NwLkcZWW4Vg4UzJ","DdzFFzCqrhshcadCXJXQSXsRbLqdQFoHbXcocDziRejT5U2v46MG5EvP9A5NxrwYTUmAWJwvpP8V6WAkqo4jEFm1AdZQvRQdhgi7qGm2","DdzFFzCqrht1343ZqKXNVXtfJ3BKF4TF7MxnTv1prE5ByzpuJ6MJqM1os3TERgCMbpu4thbWge3RJr7gLrkhacQ117FeUhpBRnrjKKud","DdzFFzCqrhsyUm519cSkXudEQKjXxPyyiJQVq5WdesUpq5QazxxCGjo7Wj7z8c1S4hdk5GJK7PNbHn3wFLJBeyCxVXsABD9TTEJ3ABN5"],"addressesOutput":["addr1q9atjfpqwdtg7ytz0pz9zcaqvx8zr2uv6ysvc4csqynr683dzefudzxhadht99nh8gv4l3z93d486ygllgxuh2drrrpsdw6fws","DdzFFzCqrht9ZK3rQiKokFYwLUyEjtcBmYCT6DBjt38dTb7C7xauLWNe963EEoFGS6KQ2k1vpdmWPdBB2EcDR3WuN16h2Zp66oX8VMHh","DdzFFzCqrhsggzZmzkjpenCGWAvPR5cA3SgE3zMRGLfwkFdhqJHQkc5KxU6iMpfoLhAzWcoVNp9DHJzSc77VeUWgQTTjJmWoZHB1TQtm","DdzFFzCqrhsoDQkmmcQUs7uUeGChhAxK3jNcfZzBJrxfoTu8YeLnqhFUTniHGa7kSijJ42ZiKFE1tiCmmKj5cQAiqjqv137QUZTVpuKS","DdzFFzCqrhsyxPe5N22tYRYKXfu9xXw1JzZoV5jjgs7hrsTJX2FxeejNcFyT8RU3Rvz8QDadizK7Bbzj8PzRrcpfgq7YSJh1HvAtVFxQ"],"fee":1137681,"totalOutput":52269890560,"tokens":[]},{"hash":"641bc46cbb60d2f33d463c293354c2f5fc9f94e9808c7211089f314ce683fe7e","blockNo":8278942,"blockHash":"9d9c7ba41f5d365d689ee6e2ed00c07bccfa9a8e1b4084d2bd895fe496f84ee2","epochNo":388,"epochSlotNo":84633,"slot":82337433,"time":"2023/01/16 21:15:24","addressesInput":["DdzFFzCqrht7SqFzqVXiD2Y3cBSrCcG4Sw2EentQxDXCrYkRzTC4cJRQQDzAmKKYyGJz5tMw6XidVyax2p8sHNWB49RK8c2rbmTbbFEd","DdzFFzCqrhsz6WAhZtQTmEdUBGfWHLj1CXMmAHHMyUMQe3Y8WsikPdztAvzLWzcgtLUWpQoRZwc2UngsufzptXuLwbmsaentVFD61GYu","DdzFFzCqrhsxjJeWxMCrPj6YhPJFm1Z2EBsKaSQnY7xfnfyhfu4Be2dYV3zjMhfh8decLJe4J8AjaychN1p9KoPhJV2MdT4buj7VGfSZ","DdzFFzCqrhsjuFoHgJrsfVmbrH1xmrFmec3Y3QdXrHWxnW9BN4zGFEZ1WVSzt23gWoqn7Jp2yyfxMsVjbt7Groy1VJn7t2KEPJQVZTg6","DdzFFzCqrhsixu1T8y6BcPv2fPihGxSBkCz6Mh8JK2SdZfdWv1kQFqK1zv4e9ktgAgfHyEv3ENNZxwGXrRW7eCxVz1KrScLeUDm9edAE","DdzFFzCqrhszzLbPwB65ugBxbh1CQkeyh6iQ6Td22HL34WwufASbCRxMgcWHnbRDtYazVatDHgqEGkEy57jtY4o21VTiGXGrA6iCK8g9","DdzFFzCqrhsxrqhryZHr28TzwdczEf9GxNYMnCWbM8Wdixxe16ntCbokqFRcptnxv9rzSczHame6jeubTWJakeG6Ric3vpyttPReibs9","DdzFFzCqrhst8WVFSqSZvG8gxZAHznmzXYDrPiSDjjtCRaf37aeHnb2gA64qW8Li6ZkbNyAgSpvKJQ4u77SdqJTRPWto2ew3Fq2ULSKd","DdzFFzCqrht9M2XqLjp4PfYsMQQf5JERwQwRC4pDJP3gC66ve5DnVvteetdEGi88URGzf367rfocosAGnvE9oQZA9nfT8fJK6fgfAorZ","DdzFFzCqrht9M2XqLjp4PfYsMQQf5JERwQwRC4pDJP3gC66ve5DnVvteetdEGi88URGzf367rfocosAGnvE9oQZA9nfT8fJK6fgfAorZ","DdzFFzCqrhsjiLHSgqECjJPnbiTkJSYmjRH42dmuXYWazBajMbAvDUKofnQMgawWcDfwUSNnf8zHcWBUmhi96oUDEWVqX3aieyPZ6qKV"],"addressesOutput":["addr1q9atjfpqwdtg7ytz0pz9zcaqvx8zr2uv6ysvc4csqynr683dzefudzxhadht99nh8gv4l3z93d486ygllgxuh2drrrpsdw6fws","DdzFFzCqrht4F5k7VhZN9yCSPnPbxE9A4ypWLfxqwLYw4PSRHmKQ2gvrwB5vnHXfD7Ad1ZYkP47B6gCSWCcKafuAYQx2gEr2FDWWiFDV","DdzFFzCqrht31axsWuxiWMBzdGv57WTR4tRPrqCjfeBGVvJoxV43HXAApVASc3rXA6u8FVLVzfR9KjJyzq9HYLfm8BBVK5EdunAZfC9B","DdzFFzCqrhstQb7akrxQp4JBNCbv97m6ThJbhvFKj4VTJavBR37jRVhtU3BUzVa7JVpyG9tKoiv7BsuDZYJarNNChUR1fAzikqTgRHqQ","DdzFFzCqrht9qQpBcjA5vhMm4F3LEFo7oazEkaz6Nku5jP1ccM4MFEo94gfmZ5aJDaLGHbbc1RqvFhX63mPp7y2dtB9A6jiLEJYHpTKL"],"fee":1011841,"totalOutput":87480069745,"tokens":[]},{"hash":"06b23764761f1193e6e22d35b5b9deae7eea3464918924096e66a89c71627741","blockNo":8278576,"blockHash":"3b5e1e934314cb883e3f7fb8402f98ae465dd3dc19ed558763836e6c920ceab3","epochNo":388,"epochSlotNo":76766,"slot":82329566,"time":"2023/01/16 19:04:17","addressesInput":["DdzFFzCqrhsquWSX4At8Pe8BZaF5qn124R9CjcBsW4HSrxJ8UDSuipwfZCQjKjfwMUWmQzdhQFucrYAijxCzSJMTsP8mSrrQ4ob3ZuJN","DdzFFzCqrhsgfWCwv8MEyYwbB4HdaSxdXTX4r6DXPM8yN5hACnyzdR8D8m1XyRDBooDqsc6mLL1xQVQVD18TAmv3gyCSN9ZDySCQqDGy","DdzFFzCqrht5Q4s9e92LaF8mZ1pzxFkYBBsufQtJQa92rmFGzYZ6ThcptYybJ4ewN1B95JRZHuEE5NN1jytnwnPqxN9hDYcfMyUfn2A8","DdzFFzCqrhszvjyxkQp2g9fcJTrjvXH1BSWc8c7KHgqhQfGfjvKRRXWvJQDxwfsFCafc5XUjFRoKM5CxwYTvBfmCXzsmNJibpXxCetGL","DdzFFzCqrhsowUKqgtxkj1wxzU5SLoaCa6hkHUHedsMHSL5jZJWpEc7NmcSoFgQ9c63uL7zDAerQ2A71gHNvrHmKpX7DVJChPQPTrXN2","DdzFFzCqrht4LiisFSMQBhECkQp44HHgJDS6R4XpGwUQYuchL3gZXM6U6ggM2vjrfCnzPtDtQccfH51sHJNSbCsccaTqt5zLJRAqePuA","DdzFFzCqrht8ycqqbZuSeeJhaJivMwGyCZEYTCHWbbvatAeEP6fKycqG6mqYLP7aK2HqCSPSVzarMw5smNxT9TNe5wqFoVVuqATN79bd","DdzFFzCqrhsquWSX4At8Pe8BZaF5qn124R9CjcBsW4HSrxJ8UDSuipwfZCQjKjfwMUWmQzdhQFucrYAijxCzSJMTsP8mSrrQ4ob3ZuJN","DdzFFzCqrhsn3fBQGMQj5DRSVYN5VZsB6M6grFXCc232HHbmAYG182U9BzXpE4VT9kqgr9oeixvqLDJUBs6sbjQGhf4M7hhLtTRou4ig","DdzFFzCqrhsoEaZGhNZsyzFPdC1qV3rhgTuAoyPo218YKweKQtpgVe1ASDCeR3Q9szxcvpgihBLtB3pkmpdJjJ3nQUmT6tHW6RE258h5","DdzFFzCqrhsvmJiDN6zpbKEKCJiv2HNEzvvDXJ4t2HZ4aAb48HcznMS9DJv1be8HhzELxtgqU7ykSr5wwfxCMF1UafCWf8TbxjGThBE5","DdzFFzCqrhsrSGQKP6hR8ruWFgweHMfgqnHLxUVCory2Luo3uFsvHfHfvvCQSu3Gjww2DuWugTA3gMDxRurDKi5Ewzzp6gZpJq4DzXVZ"],"addressesOutput":["addr1q9atjfpqwdtg7ytz0pz9zcaqvx8zr2uv6ysvc4csqynr683dzefudzxhadht99nh8gv4l3z93d486ygllgxuh2drrrpsdw6fws","DdzFFzCqrhsjiLHSgqECjJPnbiTkJSYmjRH42dmuXYWazBajMbAvDUKofnQMgawWcDfwUSNnf8zHcWBUmhi96oUDEWVqX3aieyPZ6qKV","DdzFFzCqrhsxjJeWxMCrPj6YhPJFm1Z2EBsKaSQnY7xfnfyhfu4Be2dYV3zjMhfh8decLJe4J8AjaychN1p9KoPhJV2MdT4buj7VGfSZ","DdzFFzCqrht7SqFzqVXiD2Y3cBSrCcG4Sw2EentQxDXCrYkRzTC4cJRQQDzAmKKYyGJz5tMw6XidVyax2p8sHNWB49RK8c2rbmTbbFEd","DdzFFzCqrht7mvnSw58nXMEEGDWs52ypxvsTqq85aH7zXLfnKRxTL6dfQRKcdikwwLWhccAod5fYgXCdPgYxKa34noVgqYHUrATWBnCp"],"fee":1021521,"totalOutput":59964042002,"tokens":[]},{"hash":"906a497dd288a3098c4752db2f480c32ba1dea91b5a5d7cac1c64f1ef90ba871","blockNo":8278048,"blockHash":"b816665170900e70f7aae05534ff3044bb5deeeff8fbf738a2fb07e5286965fc","epochNo":388,"epochSlotNo":65750,"slot":82318550,"time":"2023/01/16 16:00:41","addressesInput":["addr1qx76hnwx8qukkylx5te0em5gf7kgjqadv6x8z406mpyxz6nn3lmaa3wnh8ka8wxllq5f9kpp6spcwum5vvas6xgvuedsh0rgkp","addr1qx76hnwx8qukkylx5te0em5gf7kgjqadv6x8z406mpyxz6nn3lmaa3wnh8ka8wxllq5f9kpp6spcwum5vvas6xgvuedsh0rgkp","addr1qx76hnwx8qukkylx5te0em5gf7kgjqadv6x8z406mpyxz6nn3lmaa3wnh8ka8wxllq5f9kpp6spcwum5vvas6xgvuedsh0rgkp"],"addressesOutput":["addr1wxn9efv2f6w82hagxqtn62ju4m293tqvw0uhmdl64ch8uwc0h43gt","addr1qx76hnwx8qukkylx5te0em5gf7kgjqadv6x8z406mpyxz6nn3lmaa3wnh8ka8wxllq5f9kpp6spcwum5vvas6xgvuedsh0rgkp","addr1qx76hnwx8qukkylx5te0em5gf7kgjqadv6x8z406mpyxz6nn3lmaa3wnh8ka8wxllq5f9kpp6spcwum5vvas6xgvuedsh0rgkp"],"fee":410493,"totalOutput":278088542,"tokens":[]},{"hash":"d51c72bdd02b65bcb6da10bdfb8240345b97a1f9039dde1333475a38b5228933","blockNo":8278034,"blockHash":"960e9e95c2ee89280d7d4d363d1b79a80ac9cacea5623cad055d56b7b703bacf","epochNo":388,"epochSlotNo":65476,"slot":82318276,"time":"2023/01/16 15:56:07","addressesInput":["addr1q80n0fng4c83js888xcfsmtxq4h2hj5hhgy7w2ftlsuqhml6wmvzcun764vwdlan6ctg303ktw5h2ejwv2epgzk6u00q0qykcp","addr1qxzavjgcrqlse89u6p87cqahsepmhyp5sfgvx7tpqcf8n5l6wmvzcun764vwdlan6ctg303ktw5h2ejwv2epgzk6u00qjkxtr5"],"addressesOutput":["addr1q9c80r35zzs6zn7yqahu9edjnzcxnqlau2f3srcvf73ztn06wmvzcun764vwdlan6ctg303ktw5h2ejwv2epgzk6u00qlkde7g","addr1qxzavjgcrqlse89u6p87cqahsepmhyp5sfgvx7tpqcf8n5l6wmvzcun764vwdlan6ctg303ktw5h2ejwv2epgzk6u00qjkxtr5"],"fee":367945,"totalOutput":96908557,"tokens":[]},{"hash":"b402e0de6e73b5b7220c2d5e003aa8322bee351c29b0ac76b7b3ea53d6e7f3e8","blockNo":8277935,"blockHash":"ad9597022c1c8bc8b9ea91b42ad24261e45e88a4b078b9a47607f8a229326dd0","epochNo":388,"epochSlotNo":63530,"slot":82316330,"time":"2023/01/16 15:23:41","addressesInput":["addr1qxzavjgcrqlse89u6p87cqahsepmhyp5sfgvx7tpqcf8n5l6wmvzcun764vwdlan6ctg303ktw5h2ejwv2epgzk6u00qjkxtr5"],"addressesOutput":["addr1vxrez5z4w7699c2tkppqtfc4ds9qknw3v227mu4f6arzgcsy5flpl","addr1q80n0fng4c83js888xcfsmtxq4h2hj5hhgy7w2ftlsuqhml6wmvzcun764vwdlan6ctg303ktw5h2ejwv2epgzk6u00q0qykcp"],"fee":360641,"totalOutput":21392089,"tokens":[]},{"hash":"0a9a2b4360d5589200e04ff276a0732dedd342de918d4b5b73043e1b27059bea","blockNo":8277927,"blockHash":"b839a5d78ca8a2f6e011301e9603943c4b1212153748795943f38268876f9100","epochNo":388,"epochSlotNo":63369,"slot":82316169,"time":"2023/01/16 15:21:00","addressesInput":["addr1qxzavjgcrqlse89u6p87cqahsepmhyp5sfgvx7tpqcf8n5l6wmvzcun764vwdlan6ctg303ktw5h2ejwv2epgzk6u00qjkxtr5","addr1qyp5xjselvez6h3l5m2p8k6569md92hrdy063c9jxkpk3f06wmvzcun764vwdlan6ctg303ktw5h2ejwv2epgzk6u00qetayhm","addr1qxzavjgcrqlse89u6p87cqahsepmhyp5sfgvx7tpqcf8n5l6wmvzcun764vwdlan6ctg303ktw5h2ejwv2epgzk6u00qjkxtr5","addr1qxzavjgcrqlse89u6p87cqahsepmhyp5sfgvx7tpqcf8n5l6wmvzcun764vwdlan6ctg303ktw5h2ejwv2epgzk6u00qjkxtr5","addr1qxzavjgcrqlse89u6p87cqahsepmhyp5sfgvx7tpqcf8n5l6wmvzcun764vwdlan6ctg303ktw5h2ejwv2epgzk6u00qjkxtr5","addr1qxgqz7d26ntxwuv3cc2zktkfg7ryjwlpfv8euuyjgfq6fxh6wmvzcun764vwdlan6ctg303ktw5h2ejwv2epgzk6u00q6p0tgp","addr1qxzavjgcrqlse89u6p87cqahsepmhyp5sfgvx7tpqcf8n5l6wmvzcun764vwdlan6ctg303ktw5h2ejwv2epgzk6u00qjkxtr5","addr1qxzavjgcrqlse89u6p87cqahsepmhyp5sfgvx7tpqcf8n5l6wmvzcun764vwdlan6ctg303ktw5h2ejwv2epgzk6u00qjkxtr5","addr1qxzavjgcrqlse89u6p87cqahsepmhyp5sfgvx7tpqcf8n5l6wmvzcun764vwdlan6ctg303ktw5h2ejwv2epgzk6u00qjkxtr5","addr1qxzavjgcrqlse89u6p87cqahsepmhyp5sfgvx7tpqcf8n5l6wmvzcun764vwdlan6ctg303ktw5h2ejwv2epgzk6u00qjkxtr5"],"addressesOutput":["addr1qxzavjgcrqlse89u6p87cqahsepmhyp5sfgvx7tpqcf8n5l6wmvzcun764vwdlan6ctg303ktw5h2ejwv2epgzk6u00qjkxtr5","addr1qxzavjgcrqlse89u6p87cqahsepmhyp5sfgvx7tpqcf8n5l6wmvzcun764vwdlan6ctg303ktw5h2ejwv2epgzk6u00qjkxtr5","addr1qxzavjgcrqlse89u6p87cqahsepmhyp5sfgvx7tpqcf8n5l6wmvzcun764vwdlan6ctg303ktw5h2ejwv2epgzk6u00qjkxtr5","addr1qxzavjgcrqlse89u6p87cqahsepmhyp5sfgvx7tpqcf8n5l6wmvzcun764vwdlan6ctg303ktw5h2ejwv2epgzk6u00qjkxtr5"],"fee":661293,"totalOutput":130802913,"tokens":[]},{"hash":"369a9cde322d20ec7b129cd5aa2ac6049282d6d9a1c12a159fdb841ae5fc2385","blockNo":8277861,"blockHash":"df50a2881a0134af494d65b379dc93598dcb43ac597feaa28fa974514e7f282d","epochNo":388,"epochSlotNo":61673,"slot":82314473,"time":"2023/01/16 14:52:44","addressesInput":["addr1q92tjep7fpmm6t6vsg9s4gc33sj506qyfht3ajflyd408hhy4fx70as64j7qekw4ee8khun9vk3cvydvdym4dlx4r38swzyssq","addr1q896raajajkh5hnetr2fcjgn5kvanx6c3sjfc2s2c39sf88y4fx70as64j7qekw4ee8khun9vk3cvydvdym4dlx4r38sce3s8p"],"addressesOutput":["addr1zyq0kyrml023kwjk8zr86d5gaxrt5w8lxnah8r6m6s4jp4g3r6dxnzml343sx8jweqn4vn3fz2kj8kgu9czghx0jrsyqqktyhv","addr1q9ad5mud938r7l24eaac4v57ydlj72hazgprts9f7daaz09mm95jvs5h94099yglxr7v6ug6pp43780huy040lm4utmqx8g5eu","addr1q896raajajkh5hnetr2fcjgn5kvanx6c3sjfc2s2c39sf88y4fx70as64j7qekw4ee8khun9vk3cvydvdym4dlx4r38sce3s8p","addr1q896raajajkh5hnetr2fcjgn5kvanx6c3sjfc2s2c39sf88y4fx70as64j7qekw4ee8khun9vk3cvydvdym4dlx4r38sce3s8p"],"fee":439970,"totalOutput":95516373,"tokens":[]},{"hash":"e2aba780efe3258f4185b171555137faecc45bd19792bcf581cff301228f77fb","blockNo":8277824,"blockHash":"fd24ad3eb5b39ad9f21518c4fe57f33d00ebf71bfac13481c3742eaeb068d71c","epochNo":388,"epochSlotNo":60852,"slot":82313652,"time":"2023/01/16 14:39:03","addressesInput":["DdzFFzCqrhss4JatWzPagH3A4UgUfif9DfLWm3P7RNfWbfxRn4Ci8scZDopzohpSkVTTAeU3VrsAhE9vMtGDLbdERvvpywKrU4xAUBMz"],"addressesOutput":["addr1q9atjfpqwdtg7ytz0pz9zcaqvx8zr2uv6ysvc4csqynr683dzefudzxhadht99nh8gv4l3z93d486ygllgxuh2drrrpsdw6fws","DdzFFzCqrht4LiisFSMQBhECkQp44HHgJDS6R4XpGwUQYuchL3gZXM6U6ggM2vjrfCnzPtDtQccfH51sHJNSbCsccaTqt5zLJRAqePuA"],"fee":362401,"totalOutput":1885778318,"tokens":[]},{"hash":"85b970729941206d7223cb0d744125368d30e79bf3725bad47dbfad12772c254","blockNo":8277811,"blockHash":"ee7fd1290891925f229dfaa2bcabd1c7123339c9a44d645fedb1f868c52320a5","epochNo":388,"epochSlotNo":60586,"slot":82313386,"time":"2023/01/16 14:34:37","addressesInput":["DdzFFzCqrhsuYZBpoqsBfeQBFFV9asfHtcZsqhgLPtFdS9VsSs4qwT3gjVFdqcpasz4VmGFid2DbNiPJnPXDbavj11FdBvqAushbSMdG","DdzFFzCqrht2aUf3HGzaCE5b7BYtSxhg2pARxjmqVcxmXjLjgfQFRnQKYWYDKKv3U5z9jgU3qeWWHvWZVYx1bSWKHgnY2drCbe99EV9p","DdzFFzCqrht8KhfhfxcQKnQGtJH1uM9DEHyMr56CXkuifYWggFK7KU39X9khRy4DNewm2EophTjFdBzB9EDPFNxbvb3743e1mnwG7a9G","DdzFFzCqrht6Zn7MLuCvGvyVcpZzQSqdUVfKwyovW6pDbEfQniR8ytnevNWdezgRhEcn8cCxZwZSm6UXNxJFy8Eru5aFYxxEkUFGT7pq","DdzFFzCqrht1QLjJ8MGZM1aprRaVfpiV88ei761ztWrbYQSPL29TGCxFMQEBNXtPe47mar8oU2mTMfhb6mZvEzRhZNMmpbgqA2csPQaf","DdzFFzCqrht9HsfKgZaNHNb7XzT6CvgGgqwgRBXxQ9nrJvWJYch4Xv9pBACxWuvkipuSfajamze2RAdqTy9L2dxgf6HoR6fLF9gPoREM","DdzFFzCqrhsnsRFJffZkKsecXdCpjyDoqRHHrnhmt59s72B8qp5rALxsqx8QLoRr7Z6GCFy31NaPtaCHzer5PyDwtx8hz8iAWYhfwbkk","DdzFFzCqrhsyinRmEnNezUhq453nV6hHmYNiBRu9m6Rcx59xaXk1Rkw6CbgHzm1ykwamgTbvz7dwVW4SB3uxszJEmR4hY4tEVEmRn54M","DdzFFzCqrht6Dguzq2ikqxHo33WgjSpizXExk9qjzrajrFqd2K1BDYsrCk4fYme1it4NDgt6JXfsAAobibwHhA2tfTTF8kL5DfQxieBo","DdzFFzCqrhsgfWCwv8MEyYwbB4HdaSxdXTX4r6DXPM8yN5hACnyzdR8D8m1XyRDBooDqsc6mLL1xQVQVD18TAmv3gyCSN9ZDySCQqDGy","DdzFFzCqrhspQhWhp64BV8keHQqX8561Xe9n9hBrciCwg9zZDMnH6zLrYTnyMi7r93uPZkJp4KMWk1wuGFrkvzvWstbCWQdPMfpwMggi","DdzFFzCqrhst4Yg5kTrEzpDMSFPceUZ8TwbBHpXyBTUMAyNxDuVyK6mxC5nPsgV3yvWVFhctUsDoifmf2DNH1qLaXYHxbLS4svLqy78V","DdzFFzCqrhshDKyi7CknLFxf9dvnzVzGPEweaAhtyHjd6XgsQvj2YfyWf6K5Ej78EA9FUgHiqz9gZCQ9d2D2boa7SYynifTEcPHz7sWf","DdzFFzCqrhtAB8PGbEB1MdSvCEZySHXFychiFC7i59DCuParYhXbhNnERE7jtkUFWim2fm2mMzC4yFVEN4ngxMm1aXrr9ibk57akatgY","DdzFFzCqrhsnpYzXgqnUe9W1tDyH9RsAGQJJK8f1aZUaA1jGYWm6PoBZ47AJBQHhZ4RGVrHjVH3nHnPmYDQsQoThN4ABkeSrQCQcmxPh","DdzFFzCqrhsh5TL3SsYVG7jSk7as3E2meRMKyaaRyrBKBvs8WkaUXYwTCVysSrsBk16gCFNteK1c1nkvaRAtqrbCUiSb96bAT5KKpnLi","DdzFFzCqrht8UASxuX1w2YZ6cHkvLqBFurg717LKDja8ZoiCm6AxuFYxzVfcMxuCs3qvXcDt9N6zPHEPvWg64ZPE4AboEMbk8SaBb18r"],"addressesOutput":["addr1q9atjfpqwdtg7ytz0pz9zcaqvx8zr2uv6ysvc4csqynr683dzefudzxhadht99nh8gv4l3z93d486ygllgxuh2drrrpsdw6fws","DdzFFzCqrhss4JatWzPagH3A4UgUfif9DfLWm3P7RNfWbfxRn4Ci8scZDopzohpSkVTTAeU3VrsAhE9vMtGDLbdERvvpywKrU4xAUBMz","DdzFFzCqrhsvmJiDN6zpbKEKCJiv2HNEzvvDXJ4t2HZ4aAb48HcznMS9DJv1be8HhzELxtgqU7ykSr5wwfxCMF1UafCWf8TbxjGThBE5","DdzFFzCqrhsn3fBQGMQj5DRSVYN5VZsB6M6grFXCc232HHbmAYG182U9BzXpE4VT9kqgr9oeixvqLDJUBs6sbjQGhf4M7hhLtTRou4ig","DdzFFzCqrhszvjyxkQp2g9fcJTrjvXH1BSWc8c7KHgqhQfGfjvKRRXWvJQDxwfsFCafc5XUjFRoKM5CxwYTvBfmCXzsmNJibpXxCetGL"],"fee":1069921,"totalOutput":57550394304,"tokens":[]},{"hash":"1396347e570476b1e4ae2f7c8dc5b4099739371ab8ecc9f264f3ce6d445ac0e1","blockNo":8277810,"blockHash":"26b2f0d4ab2be82aec31a16ad5b44286a034a81e105ff531a24863dba207147d","epochNo":388,"epochSlotNo":60553,"slot":82313353,"time":"2023/01/16 14:34:04","addressesInput":["DdzFFzCqrhsxVTa3Wid9BSBBjwEeE1Mb5t5jDZt6JAYTPwrXH3XFFQJH2daCWKsnhCGs8KeEgghhhHffNhQDnjBR4HzHFq6WJxrRwSQz"],"addressesOutput":["addr1q9atjfpqwdtg7ytz0pz9zcaqvx8zr2uv6ysvc4csqynr683dzefudzxhadht99nh8gv4l3z93d486ygllgxuh2drrrpsdw6fws","DdzFFzCqrht2aUf3HGzaCE5b7BYtSxhg2pARxjmqVcxmXjLjgfQFRnQKYWYDKKv3U5z9jgU3qeWWHvWZVYx1bSWKHgnY2drCbe99EV9p"],"fee":362401,"totalOutput":1978532382,"tokens":[]},{"hash":"c4c2c1786891dca7d01aa9845479fd9f645ff277e88fbdde14f75c142942fe12","blockNo":8277796,"blockHash":"21e240e232037a2aabe5df79e529467f745cf61f276926a3cc4e52812c1e3f6e","epochNo":388,"epochSlotNo":60296,"slot":82313096,"time":"2023/01/16 14:29:47","addressesInput":["addr1q896raajajkh5hnetr2fcjgn5kvanx6c3sjfc2s2c39sf88y4fx70as64j7qekw4ee8khun9vk3cvydvdym4dlx4r38sce3s8p","addr1q8taj4mfrzftpau8wqj9admd3xh29dk90p6qymcw6pc98wly4fx70as64j7qekw4ee8khun9vk3cvydvdym4dlx4r38szjtc7k","addr1qy4dg3mfxrattf56tyqcerpdlv0s3tax88htngl8n9vffu0y4fx70as64j7qekw4ee8khun9vk3cvydvdym4dlx4r38sha6gpw","addr1q896raajajkh5hnetr2fcjgn5kvanx6c3sjfc2s2c39sf88y4fx70as64j7qekw4ee8khun9vk3cvydvdym4dlx4r38sce3s8p","addr1qywwf85pt400ukc4z6zrxdx6kx3fdrtwgaeynnpxf7mz66ly4fx70as64j7qekw4ee8khun9vk3cvydvdym4dlx4r38shcec3c","addr1q896raajajkh5hnetr2fcjgn5kvanx6c3sjfc2s2c39sf88y4fx70as64j7qekw4ee8khun9vk3cvydvdym4dlx4r38sce3s8p","addr1q896raajajkh5hnetr2fcjgn5kvanx6c3sjfc2s2c39sf88y4fx70as64j7qekw4ee8khun9vk3cvydvdym4dlx4r38sce3s8p","addr1q896raajajkh5hnetr2fcjgn5kvanx6c3sjfc2s2c39sf88y4fx70as64j7qekw4ee8khun9vk3cvydvdym4dlx4r38sce3s8p","addr1q896raajajkh5hnetr2fcjgn5kvanx6c3sjfc2s2c39sf88y4fx70as64j7qekw4ee8khun9vk3cvydvdym4dlx4r38sce3s8p","addr1q896raajajkh5hnetr2fcjgn5kvanx6c3sjfc2s2c39sf88y4fx70as64j7qekw4ee8khun9vk3cvydvdym4dlx4r38sce3s8p","addr1q896raajajkh5hnetr2fcjgn5kvanx6c3sjfc2s2c39sf88y4fx70as64j7qekw4ee8khun9vk3cvydvdym4dlx4r38sce3s8p","addr1qxrmevcnlv36vcxwh6aksu9cka95hk4nr5mkp5ckwxx2kaly4fx70as64j7qekw4ee8khun9vk3cvydvdym4dlx4r38sqqgjez","addr1qyfr9uktzevew9sdfkpdsyy5ksjvcku3c5g066ju75nkjq0y4fx70as64j7qekw4ee8khun9vk3cvydvdym4dlx4r38sq636eu","addr1q896raajajkh5hnetr2fcjgn5kvanx6c3sjfc2s2c39sf88y4fx70as64j7qekw4ee8khun9vk3cvydvdym4dlx4r38sce3s8p"],"addressesOutput":["addr1q9ad5mud938r7l24eaac4v57ydlj72hazgprts9f7daaz09mm95jvs5h94099yglxr7v6ug6pp43780huy040lm4utmqx8g5eu","addr1wxr2a8htmzuhj39y2gq7ftkpxv98y2g67tg8zezthgq4jkg0a4ul4","addr1q896raajajkh5hnetr2fcjgn5kvanx6c3sjfc2s2c39sf88y4fx70as64j7qekw4ee8khun9vk3cvydvdym4dlx4r38sce3s8p"],"fee":443446,"totalOutput":269906350,"tokens":[]},{"hash":"cb5d1c70553aae797f5971c231670784f6f971a274150d6dbb0d1db52c8b839a","blockNo":8277781,"blockHash":"5df430a72180b85c2e25963a4ddbab93554b758efab0bb309efaca9602ea63bf","epochNo":388,"epochSlotNo":60039,"slot":82312839,"time":"2023/01/16 14:25:30","addressesInput":["DdzFFzCqrhst32B9xBCU1q44fFLiRN6Su9PYUKv4PhLNPH8S453ZGj7Qb5dR4HSZ6T2DuF8YpvkyFciK5BgAewPp3NXCbSE8RizRh6hN"],"addressesOutput":["addr1q9atjfpqwdtg7ytz0pz9zcaqvx8zr2uv6ysvc4csqynr683dzefudzxhadht99nh8gv4l3z93d486ygllgxuh2drrrpsdw6fws","DdzFFzCqrhsxVTa3Wid9BSBBjwEeE1Mb5t5jDZt6JAYTPwrXH3XFFQJH2daCWKsnhCGs8KeEgghhhHffNhQDnjBR4HzHFq6WJxrRwSQz"],"fee":362401,"totalOutput":1980144683,"tokens":[]},{"hash":"a131f082b662e69c497b0ed7ba6d55e52cd5aa7622ca3e5693a586b33e0aac7d","blockNo":8277755,"blockHash":"5b8ffb3b47b23bb1cb2f34c6b07e00f780c8318c4685143f57041f8eb600dde8","epochNo":388,"epochSlotNo":59673,"slot":82312473,"time":"2023/01/16 14:19:24","addressesInput":["DdzFFzCqrhsyxYKoMkvBdAzWo4taz3MfpPm8FEqbc8Tyf2B5nVi7dmLG6k81LGmq1SX5dqPd4fQVNhBZtVXDV8C8iy2BQqCEt2ncv4cE"],"addressesOutput":["addr1q9atjfpqwdtg7ytz0pz9zcaqvx8zr2uv6ysvc4csqynr683dzefudzxhadht99nh8gv4l3z93d486ygllgxuh2drrrpsdw6fws","DdzFFzCqrhst32B9xBCU1q44fFLiRN6Su9PYUKv4PhLNPH8S453ZGj7Qb5dR4HSZ6T2DuF8YpvkyFciK5BgAewPp3NXCbSE8RizRh6hN"],"fee":362401,"totalOutput":1981756984,"tokens":[]},{"hash":"9cb70d0d2ee1c6537d29305d189d0b0efb6ddf9de41643527b674afb3ddb1143","blockNo":8277745,"blockHash":"56e5ac7f532ddb581b5b3c70a6ecc397b32cf95596fcfcfe6c556c8704b8a26c","epochNo":388,"epochSlotNo":59376,"slot":82312176,"time":"2023/01/16 14:14:27","addressesInput":["DdzFFzCqrhsxYvqiYGb6vi5J7LmT9y25AT1rxwT9J5AEdWn6cPDxGQdaQqRyQSDKp3vJLVTZSCjs9TqLBckh7KyZdXto2K3o4vCawqbe"],"addressesOutput":["addr1q9atjfpqwdtg7ytz0pz9zcaqvx8zr2uv6ysvc4csqynr683dzefudzxhadht99nh8gv4l3z93d486ygllgxuh2drrrpsdw6fws","DdzFFzCqrhsyxYKoMkvBdAzWo4taz3MfpPm8FEqbc8Tyf2B5nVi7dmLG6k81LGmq1SX5dqPd4fQVNhBZtVXDV8C8iy2BQqCEt2ncv4cE"],"fee":362401,"totalOutput":1983369285,"tokens":[]},{"hash":"3d7b48bde304d5a2a4bcb1b496ba09bbbec457d02107c07c5650f4ded79b40a8","blockNo":8277717,"blockHash":"5985ee0b152065d9769ef8c9923e6b1539647cc7308132e624dfe1ec717c46da","epochNo":388,"epochSlotNo":58865,"slot":82311665,"time":"2023/01/16 14:05:56","addressesInput":["DdzFFzCqrhss6AdabgvSBQqMrKJPKSWznCRY8oFi38j5QbshKUqKyNgkgh87pDz9eRog4v9kpqxNicEhvNM8org2vNDc3hwHuQ1k3YFq"],"addressesOutput":["addr1q9atjfpqwdtg7ytz0pz9zcaqvx8zr2uv6ysvc4csqynr683dzefudzxhadht99nh8gv4l3z93d486ygllgxuh2drrrpsdw6fws","DdzFFzCqrhsxYvqiYGb6vi5J7LmT9y25AT1rxwT9J5AEdWn6cPDxGQdaQqRyQSDKp3vJLVTZSCjs9TqLBckh7KyZdXto2K3o4vCawqbe"],"fee":362401,"totalOutput":1984981586,"tokens":[]},{"hash":"9a55a8a534bcde5eaee48853cd3f5561296a4a1f8f34c08dcac620c8abce40a2","blockNo":8277695,"blockHash":"994034bb4aeb13734f881f744cb4acefe93b875bae1894609867dc5ef84c34b7","epochNo":388,"epochSlotNo":58385,"slot":82311185,"time":"2023/01/16 13:57:56","addressesInput":["DdzFFzCqrht86Zoyr28SMSBMHcg5ovdPn1hQvW1Qap9UnXUzEqKf14JvQZQGRVfJgc4ptkw7W4ZaHckfMtf26DUKvVUULKEuotzeS5e2"],"addressesOutput":["addr1q9atjfpqwdtg7ytz0pz9zcaqvx8zr2uv6ysvc4csqynr683dzefudzxhadht99nh8gv4l3z93d486ygllgxuh2drrrpsdw6fws","DdzFFzCqrhss6AdabgvSBQqMrKJPKSWznCRY8oFi38j5QbshKUqKyNgkgh87pDz9eRog4v9kpqxNicEhvNM8org2vNDc3hwHuQ1k3YFq"],"fee":362401,"totalOutput":1986593887,"tokens":[]},{"hash":"9bbf66ccad91df5b6b543d946bf56b07649ed0b64fab7c32573aa17198ac68d8","blockNo":8277689,"blockHash":"282d46155950d49bac238769718580124b93b41c6504ab073c6941ac06ac812e","epochNo":388,"epochSlotNo":58200,"slot":82311000,"time":"2023/01/16 13:54:51","addressesInput":["DdzFFzCqrhsskxY5xW1csVnpFwaTN84j6qbKoxgBnhJyKgMRKJqtZq42EiWMAPPbQ3W914qVUd6KtwCCjB2ph6hPijA3rg3mAJRyxrz2"],"addressesOutput":["addr1q9atjfpqwdtg7ytz0pz9zcaqvx8zr2uv6ysvc4csqynr683dzefudzxhadht99nh8gv4l3z93d486ygllgxuh2drrrpsdw6fws","DdzFFzCqrht86Zoyr28SMSBMHcg5ovdPn1hQvW1Qap9UnXUzEqKf14JvQZQGRVfJgc4ptkw7W4ZaHckfMtf26DUKvVUULKEuotzeS5e2"],"fee":362401,"totalOutput":1988206188,"tokens":[]},{"hash":"95aa4db62eac7b51444373d6ac584dd006a82d6a86121719986a20e458727343","blockNo":8277675,"blockHash":"a6bbd4be4ee1dda20380e75b4faf81617e5c62429391df112d7cfa1f71862dbc","epochNo":388,"epochSlotNo":57812,"slot":82310612,"time":"2023/01/16 13:48:23","addressesInput":["DdzFFzCqrhst5xvC9PQvpWkJegufXv1CWjLnZsRBqpz6Jkqo56HRqJsx4YpXz11NAWLyWNuE163SvLmrkJLRiRmMVqaSt5ab1WjsnQbP"],"addressesOutput":["addr1q9atjfpqwdtg7ytz0pz9zcaqvx8zr2uv6ysvc4csqynr683dzefudzxhadht99nh8gv4l3z93d486ygllgxuh2drrrpsdw6fws","DdzFFzCqrhsskxY5xW1csVnpFwaTN84j6qbKoxgBnhJyKgMRKJqtZq42EiWMAPPbQ3W914qVUd6KtwCCjB2ph6hPijA3rg3mAJRyxrz2"],"fee":362401,"totalOutput":1989818489,"tokens":[]}],"totalItems":13016,"totalPages":651,"currentPage":0}