{"data":[{"txId":62429460,"txHash":"a3f02d268e943d7d0622ad311f015919d39f35b1dc5adb1927757ec9e0904b2c","txTime":"2023/02/21 03:20:03","block":8425734,"epoch":395,"slotNo":85383312,"epochSlotNo":106512,"stakeKey":"stake1u8h3vp45ja7jr522t5uexx5z0h3r86t8ecnsqfsj6w3wfgq0jtx2w"},{"txId":62428734,"txHash":"1e222728d62b039cdd514d8ce1fc4699f0d083f1081944ca419a8a49c24c1739","txTime":"2023/02/21 03:03:01","block":8425679,"epoch":395,"slotNo":85382290,"epochSlotNo":105490,"stakeKey":"stake1u85cp6yp5qtnwmkjkm9f0kkgmagwa7wzjvl9hxzwvzu5njsg0wv33"},{"txId":62428565,"txHash":"52a9318c32fa44206d1c6d0b89c276b413734b46975cba9fea899d13f3f25584","txTime":"2023/02/21 02:58:24","block":8425669,"epoch":395,"slotNo":85382013,"epochSlotNo":105213,"stakeKey":"stake1u8dw7txgpe7fkv5hs4pu9x8h5h6qqu5hr332r2rrc83ylkqrca0py"},{"txId":62428173,"txHash":"bf92fa8bb217095435eb4a930e1a78a08db2c1b001113e35a9fc3c00dafefc6c","txTime":"2023/02/21 02:47:58","block":8425637,"epoch":395,"slotNo":85381387,"epochSlotNo":104587,"stakeKey":"stake1ux8g43tpx86ecd3sdq2sxj3uv7enf8pqxryfvpr7085p4tgqh6hcp"},{"txId":62428050,"txHash":"105ff1603f8cdb34f684cf466c3d55d9a22648dde2b8475f7bacf0c127671e92","txTime":"2023/02/21 02:44:29","block":8425629,"epoch":395,"slotNo":85381178,"epochSlotNo":104378,"stakeKey":"stake1uyamhla7k2ra00mrp79ehx2tdyc0te95tc3kymezlqsny8crwkuct"},{"txId":62428024,"txHash":"d502656d83eb2f985efdb4a7b1fb74fc56c1c893b6e5ae476115661e9db95190","txTime":"2023/02/21 02:44:29","block":8425629,"epoch":395,"slotNo":85381178,"epochSlotNo":104378,"stakeKey":"stake1u87sdj9re8p67q8txcpv3sdc6dylh539yqpudf658p20dcck08pxx"},{"txId":62427366,"txHash":"11d785124202baff854b982511cee526997e44d0ab0f43c54b1fefc795ffc0ba","txTime":"2023/02/21 02:26:41","block":8425586,"epoch":395,"slotNo":85380110,"epochSlotNo":103310,"stakeKey":"stake1uyhkq640ghq2xt5ydga8f4en7ca4p3l9ld3uw6znm03vvqsdegkrp"},{"txId":62427085,"txHash":"07216c60e8fe77357a9452a21fab8d847618f105bdb53bf28af540d72ff17f0a","txTime":"2023/02/21 02:18:53","block":8425561,"epoch":395,"slotNo":85379642,"epochSlotNo":102842,"stakeKey":"stake1u8sk6yfj6v7m2g7tndr7up2l7a44u9357qdx8h2kwa8lxussf5spy"},{"txId":62426561,"txHash":"792445cba92459da9a5182e23bb278a53a80994bf11df3e3198d43b390bada62","txTime":"2023/02/21 02:04:05","block":8425517,"epoch":395,"slotNo":85378754,"epochSlotNo":101954,"stakeKey":"stake1u832shdjx0la5k9vlc34fa8z6mx84hy7t4tjudhhdhjx6hsgrfpl9"},{"txId":62426451,"txHash":"65f8f0e387310fa04ba5d1369adc5001f2eaaa2f846dd3cac213a647c9dec022","txTime":"2023/02/21 02:01:01","block":8425510,"epoch":395,"slotNo":85378570,"epochSlotNo":101770,"stakeKey":"stake1uyk58ud3ac6hlsnvwdur2gvllf9f90qk5rs2r5rftj2v93g43ap7h"},{"txId":62426252,"txHash":"f2b73541af487e79e028bd5e804c9a47e766319085723b592090ffefa841d6a1","txTime":"2023/02/21 01:54:10","block":8425493,"epoch":395,"slotNo":85378159,"epochSlotNo":101359,"stakeKey":"stake1uyarca27ecx6tk8jlte9l0sklshcg8r5snxdzzy3ne4rj7snmdjvz"},{"txId":62425911,"txHash":"ecb24c2d02d36c3f68e9b1c852f8d4783ff1f8cfd6cb57502da1a9f6fe8ca34f","txTime":"2023/02/21 01:44:56","block":8425462,"epoch":395,"slotNo":85377605,"epochSlotNo":100805,"stakeKey":"stake1ux2fxwc65s5xncx93rgjwapza9gmxdgd7xn76fzqz77glrgxz9xwf"},{"txId":62425818,"txHash":"ba7301d04a07ba2dcac7c227e1ea392d8475958d55814d7f75b95398ebbe871e","txTime":"2023/02/21 01:41:32","block":8425447,"epoch":395,"slotNo":85377401,"epochSlotNo":100601,"stakeKey":"stake1u870mqfwt60wznkcd5v9qfqp9a0mklzu3v5gwrps7erk2qscd9nhg"},{"txId":62425769,"txHash":"25bf7f8ce7bae7f50d66e4bfd88ef8bbb2ae02ea610263701a22bab2f1585833","txTime":"2023/02/21 01:40:11","block":8425442,"epoch":395,"slotNo":85377320,"epochSlotNo":100520,"stakeKey":"stake1u9latkj60mkwuxd459rjfpjah46r09vrwrzf0cth4sy956ga37k66"},{"txId":62425168,"txHash":"c6f8d54806c43673f9a8fc2f8f3a51f978c3b86b156fc660fcb3bc97a73b051c","txTime":"2023/02/21 01:22:19","block":8425381,"epoch":395,"slotNo":85376248,"epochSlotNo":99448,"stakeKey":"stake1u9c2nr6slutx6mdkc0yfzc9vdyntxnh704fwa87kzk4d3jsl369eg"},{"txId":62425096,"txHash":"f3e34d82517dfa46a9958caeaee04cd294c6dfc31c65f947b19632c7d85b30bb","txTime":"2023/02/21 01:20:42","block":8425374,"epoch":395,"slotNo":85376151,"epochSlotNo":99351,"stakeKey":"stake1uxeahlxcjznqgk6zv7ejfeaqqpjm4gve0dmh9mugd0kucwc94l5dq"},{"txId":62424398,"txHash":"0cc00a0988f3f36eb103c036f9d3d236f8bc6c40295f5f5edda9a82c3daef9f8","txTime":"2023/02/21 01:03:01","block":8425332,"epoch":395,"slotNo":85375090,"epochSlotNo":98290,"stakeKey":"stake1u80fl8zntdpcz0wh928l64wnllwm5268dmmafpttw5wfclcrq5hcy"},{"txId":62424305,"txHash":"62c9e8aecf4295892c82619205db230b5f31d78ffba7d9d46f1a2701fafe381c","txTime":"2023/02/21 01:00:26","block":8425321,"epoch":395,"slotNo":85374935,"epochSlotNo":98135,"stakeKey":"stake1u8v88svc2cnt5vsepwmyrmdwhrk7lx4j594u0gpfvmyk4ps4nptr6"},{"txId":62424173,"txHash":"054cfe06c99b52c981ae5dd364dc42957051666be61b0188159ed02e8941e128","txTime":"2023/02/21 00:58:17","block":8425312,"epoch":395,"slotNo":85374806,"epochSlotNo":98006,"stakeKey":"stake1u8wa69vcympkk9xfuhs9pzhjxtztcl4l7nvtlkmdjamcw2gu5wsur"},{"txId":62424058,"txHash":"f9a1f74ab9b511e6acf4e7ad7a740b49cfcc2b10816e83858a8185c6dc93b792","txTime":"2023/02/21 00:55:12","block":8425301,"epoch":395,"slotNo":85374621,"epochSlotNo":97821,"stakeKey":"stake1uycwgfte5pd7xh3t9ajxjqefrh6alx4zwuukkzttcauqxkg7xpkr2"}],"totalItems":355421,"totalPages":17772,"currentPage":0}