{"data":[{"hash":"68600a74e8ea4a75c0a5807274295cf657e68972994b760bc1229a775fd702b9","blockNo":8989481,"blockHash":"02729613ebf1b8dd4b38669a052cc97897de2ffb3ff48f3ae3736cf8b2de9709","epochNo":422,"epochSlotNo":32599,"slot":96973399,"time":"2023/07/05 06:48:10","addressesInput":["addr1q9phfjzqhcndne6chkxvtwt209n4335ghy0389mp5jfh3gyhry659z5gnwn04r2as2hy9m4uuqvlhjm0gm7r9dd7j65s7tsfxa"],"addressesOutput":["addr1qxpsna93xfe0zvqp4pcg0e47xwn9v7zek6qqt397j0anq0yzwva7uwwtgccwmhamck9pmrnprclkkt46dgy53la0l0ms4w9t07","addr1q9phfjzqhcndne6chkxvtwt209n4335ghy0389mp5jfh3gyhry659z5gnwn04r2as2hy9m4uuqvlhjm0gm7r9dd7j65s7tsfxa"],"fee":168493,"totalOutput":4577448841,"tokens":[]},{"hash":"649db912a469e8200179df2a8b22484d26b88d52a192bc6e03c9bb53e136e62f","blockNo":8989481,"blockHash":"02729613ebf1b8dd4b38669a052cc97897de2ffb3ff48f3ae3736cf8b2de9709","epochNo":422,"epochSlotNo":32599,"slot":96973399,"time":"2023/07/05 06:48:10","addressesInput":["addr1qxm44uhwduq2lylexm7v90f4xvpesnrl0x8mz454zhr2tqsqnc9t68cpw7tu4erx2pde9vexj2sy6f0hlartycu7ryssnc4j37","addr1qxm44uhwduq2lylexm7v90f4xvpesnrl0x8mz454zhr2tqsqnc9t68cpw7tu4erx2pde9vexj2sy6f0hlartycu7ryssnc4j37","addr1qxm44uhwduq2lylexm7v90f4xvpesnrl0x8mz454zhr2tqsqnc9t68cpw7tu4erx2pde9vexj2sy6f0hlartycu7ryssnc4j37"],"addressesOutput":["addr1zxgx3far7qygq0k6epa0zcvcvrevmn0ypsnfsue94nsn3tvpw288a4x0xf8pxgcntelxmyclq83s0ykeehchz2wtspks905plm","addr1qxm44uhwduq2lylexm7v90f4xvpesnrl0x8mz454zhr2tqsqnc9t68cpw7tu4erx2pde9vexj2sy6f0hlartycu7ryssnc4j37","addr1qxm44uhwduq2lylexm7v90f4xvpesnrl0x8mz454zhr2tqsqnc9t68cpw7tu4erx2pde9vexj2sy6f0hlartycu7ryssnc4j37"],"fee":246505,"totalOutput":27714465,"tokens":[]},{"hash":"ba74f76a76f65a3bc36fb044b99dd3b4b93911e7567017d95a2efc591b24a32b","blockNo":8989481,"blockHash":"02729613ebf1b8dd4b38669a052cc97897de2ffb3ff48f3ae3736cf8b2de9709","epochNo":422,"epochSlotNo":32599,"slot":96973399,"time":"2023/07/05 06:48:10","addressesInput":["addr1q9cdr5whxlce5mng46l5p2kdd8tk6dws4vr7fdyr782dw7ke7fcat5htzm5wgpewnapnjv9k22mkmxut9zgexcnvswhsg3gh0z","addr1q9cdr5whxlce5mng46l5p2kdd8tk6dws4vr7fdyr782dw7ke7fcat5htzm5wgpewnapnjv9k22mkmxut9zgexcnvswhsg3gh0z","addr1q9cdr5whxlce5mng46l5p2kdd8tk6dws4vr7fdyr782dw7ke7fcat5htzm5wgpewnapnjv9k22mkmxut9zgexcnvswhsg3gh0z"],"addressesOutput":["addr1vypt8djsdr4eqc7kg3hca38xemvc8a7tqp0ry38xljyjcwqwh450a","addr1q9cdr5whxlce5mng46l5p2kdd8tk6dws4vr7fdyr782dw7ke7fcat5htzm5wgpewnapnjv9k22mkmxut9zgexcnvswhsg3gh0z"],"fee":172057,"totalOutput":1891500825,"tokens":[]},{"hash":"d06614171fcc3bd0a3409ade69061edc406a9d2982a91cd102d92dedd6dfe6fe","blockNo":8989481,"blockHash":"02729613ebf1b8dd4b38669a052cc97897de2ffb3ff48f3ae3736cf8b2de9709","epochNo":422,"epochSlotNo":32599,"slot":96973399,"time":"2023/07/05 06:48:10","addressesInput":["addr1q9k7rg3vlfqut9l9ukklhjr2fqm5djeg92ntes2pxk3z9duzcqzpffn5l4l8v4a22c6wyzrfzrp0yy8g0u3vazq2qp3scmh8kv"],"addressesOutput":["addr1v9x075wmgljp90k57rk23mqkm0evuwp8vj9r3mpwspktx3ch9nwdc","addr1qyqly4tumpdsy3qte3fqza8lyhdjxxrhhlw32q5v3dau9r5zcqzpffn5l4l8v4a22c6wyzrfzrp0yy8g0u3vazq2qp3s5uee98"],"fee":173377,"totalOutput":62811018737,"tokens":[]},{"hash":"bc19ceca6cdaf832dc71c94d304ba331a3af1126c1cbe8769494c931ccedddde","blockNo":8989481,"blockHash":"02729613ebf1b8dd4b38669a052cc97897de2ffb3ff48f3ae3736cf8b2de9709","epochNo":422,"epochSlotNo":32599,"slot":96973399,"time":"2023/07/05 06:48:10","addressesInput":["addr1q89y800nef82a5g3gaakgeanycax0cxjcdnxcdt06q2t0k9tl9668wwq5dpendlcr7r6hhmj6w9k55lg8y8el6gz9d8qzhhw8c","addr1q89y800nef82a5g3gaakgeanycax0cxjcdnxcdt06q2t0k9tl9668wwq5dpendlcr7r6hhmj6w9k55lg8y8el6gz9d8qzhhw8c"],"addressesOutput":["addr1qxp7q2w8kg7k898kffa6xu3r0m47t4ts7fp9wmv9q2rfr0z6ykcxayyw4nhy7rwvrmsc5hrq62ulj574yhpcdcyg8wws43ws36","addr1q89y800nef82a5g3gaakgeanycax0cxjcdnxcdt06q2t0k9tl9668wwq5dpendlcr7r6hhmj6w9k55lg8y8el6gz9d8qzhhw8c","addr1q89y800nef82a5g3gaakgeanycax0cxjcdnxcdt06q2t0k9tl9668wwq5dpendlcr7r6hhmj6w9k55lg8y8el6gz9d8qzhhw8c"],"fee":179713,"totalOutput":1235034974,"tokens":[]},{"hash":"bc39b6276c168599e0d1fa0be0172c1135ed909ec562c972e2eac77438d45f4b","blockNo":8989481,"blockHash":"02729613ebf1b8dd4b38669a052cc97897de2ffb3ff48f3ae3736cf8b2de9709","epochNo":422,"epochSlotNo":32599,"slot":96973399,"time":"2023/07/05 06:48:10","addressesInput":["addr1z8snz7c4974vzdpxu65ruphl3zjdvtxw8strf2c2tmqnxz2j2c79gy9l76sdg0xwhd7r0c0kna0tycz4y5s6mlenh8pq0xmsha","addr1zxn9efv2f6w82hagxqtn62ju4m293tqvw0uhmdl64ch8uw6j2c79gy9l76sdg0xwhd7r0c0kna0tycz4y5s6mlenh8pq6s3z70","addr1qyht4ja0zcn45qvyx477qlyp6j5ftu5ng0prt9608dxp6l2j2c79gy9l76sdg0xwhd7r0c0kna0tycz4y5s6mlenh8pq4jxtdy","addr1qyht4ja0zcn45qvyx477qlyp6j5ftu5ng0prt9608dxp6l2j2c79gy9l76sdg0xwhd7r0c0kna0tycz4y5s6mlenh8pq4jxtdy"],"addressesOutput":["addr1qyht4ja0zcn45qvyx477qlyp6j5ftu5ng0prt9608dxp6l2j2c79gy9l76sdg0xwhd7r0c0kna0tycz4y5s6mlenh8pq4jxtdy","addr1qyht4ja0zcn45qvyx477qlyp6j5ftu5ng0prt9608dxp6l2j2c79gy9l76sdg0xwhd7r0c0kna0tycz4y5s6mlenh8pq4jxtdy","addr1qxlhyh5zttanfshjl307vqdaj4rcygv3a54zd9nll9ze00edm3zdhsa2jckczg3cyuc8zpu2heelkg54j2v842v4a9jsuadhnc","addr1z8snz7c4974vzdpxu65ruphl3zjdvtxw8strf2c2tmqnxz2j2c79gy9l76sdg0xwhd7r0c0kna0tycz4y5s6mlenh8pq0xmsha"],"fee":827445,"totalOutput":913656928464,"tokens":[]},{"hash":"8d3f97bdc720a588ccfce1af71a4923a6abe99daf067fa9714e920506360f6d4","blockNo":8989481,"blockHash":"02729613ebf1b8dd4b38669a052cc97897de2ffb3ff48f3ae3736cf8b2de9709","epochNo":422,"epochSlotNo":32599,"slot":96973399,"time":"2023/07/05 06:48:10","addressesInput":["addr1qyht4ja0zcn45qvyx477qlyp6j5ftu5ng0prt9608dxp6l2j2c79gy9l76sdg0xwhd7r0c0kna0tycz4y5s6mlenh8pq4jxtdy","addr1qyht4ja0zcn45qvyx477qlyp6j5ftu5ng0prt9608dxp6l2j2c79gy9l76sdg0xwhd7r0c0kna0tycz4y5s6mlenh8pq4jxtdy","addr1zxn9efv2f6w82hagxqtn62ju4m293tqvw0uhmdl64ch8uw6j2c79gy9l76sdg0xwhd7r0c0kna0tycz4y5s6mlenh8pq6s3z70","addr1z8snz7c4974vzdpxu65ruphl3zjdvtxw8strf2c2tmqnxz2j2c79gy9l76sdg0xwhd7r0c0kna0tycz4y5s6mlenh8pq0xmsha"],"addressesOutput":["addr1qyht4ja0zcn45qvyx477qlyp6j5ftu5ng0prt9608dxp6l2j2c79gy9l76sdg0xwhd7r0c0kna0tycz4y5s6mlenh8pq4jxtdy","addr1qyht4ja0zcn45qvyx477qlyp6j5ftu5ng0prt9608dxp6l2j2c79gy9l76sdg0xwhd7r0c0kna0tycz4y5s6mlenh8pq4jxtdy","addr1qy6pv0jajqxz6rz9cpj7dcd0hf4qvcfsrtq8le8zrm585cktk52ultjydwgt2j2udardcfvdqamjrj9xrj9xy3lym2wqs6xl4v","addr1z8snz7c4974vzdpxu65ruphl3zjdvtxw8strf2c2tmqnxz2j2c79gy9l76sdg0xwhd7r0c0kna0tycz4y5s6mlenh8pq0xmsha"],"fee":823370,"totalOutput":93509662917,"tokens":[]},{"hash":"8485c4675ccb9d9113708cae19dd9156a258839374779b5a92f7659aadc1768d","blockNo":8989481,"blockHash":"02729613ebf1b8dd4b38669a052cc97897de2ffb3ff48f3ae3736cf8b2de9709","epochNo":422,"epochSlotNo":32599,"slot":96973399,"time":"2023/07/05 06:48:10","addressesInput":["addr1qxhrl6frw8p2s0gnrfazwpf9u2pd9r0mrgkx06jhyjzsx4hlem8n6fyctmqn8y55naw886zj8ky0sjxavh9as0ds9gcslkasmh","addr1qxhrl6frw8p2s0gnrfazwpf9u2pd9r0mrgkx06jhyjzsx4hlem8n6fyctmqn8y55naw886zj8ky0sjxavh9as0ds9gcslkasmh","addr1qxq0cac9xgqkqjuwr37v096uxvpk0u6rynw7v0ugr0y6kqhlem8n6fyctmqn8y55naw886zj8ky0sjxavh9as0ds9gcs6xcjj7","addr1qxq0cac9xgqkqjuwr37v096uxvpk0u6rynw7v0ugr0y6kqhlem8n6fyctmqn8y55naw886zj8ky0sjxavh9as0ds9gcs6xcjj7","addr1qxhrl6frw8p2s0gnrfazwpf9u2pd9r0mrgkx06jhyjzsx4hlem8n6fyctmqn8y55naw886zj8ky0sjxavh9as0ds9gcslkasmh","addr1vycsht28yl0e8xja5x8f8f6sxzrjdhcrsfst57gm3aet30qq7pvzf","addr1qxhrl6frw8p2s0gnrfazwpf9u2pd9r0mrgkx06jhyjzsx4hlem8n6fyctmqn8y55naw886zj8ky0sjxavh9as0ds9gcslkasmh","addr1qxhrl6frw8p2s0gnrfazwpf9u2pd9r0mrgkx06jhyjzsx4hlem8n6fyctmqn8y55naw886zj8ky0sjxavh9as0ds9gcslkasmh","addr1q96fg765f0jw5c79rm60yj39y25mypfq4hgeen8a4fh2s40lem8n6fyctmqn8y55naw886zj8ky0sjxavh9as0ds9gcsjx6u0h"],"addressesOutput":["addr1z8snz7c4974vzdpxu65ruphl3zjdvtxw8strf2c2tmqnxzwccf8ywaly0m99ngq68lus48lmafut7ku9geawu8u6k49suv42qq","addr1vycsht28yl0e8xja5x8f8f6sxzrjdhcrsfst57gm3aet30qq7pvzf","addr1qxhrl6frw8p2s0gnrfazwpf9u2pd9r0mrgkx06jhyjzsx4hlem8n6fyctmqn8y55naw886zj8ky0sjxavh9as0ds9gcslkasmh","addr1qxhrl6frw8p2s0gnrfazwpf9u2pd9r0mrgkx06jhyjzsx4hlem8n6fyctmqn8y55naw886zj8ky0sjxavh9as0ds9gcslkasmh"],"fee":627894,"totalOutput":3042162943,"tokens":[]},{"hash":"186e2e5e2bc8fb1dc5197f0742bfd0c8c7bf04dc8f74fd9a08792a04a321ee2d","blockNo":8989481,"blockHash":"02729613ebf1b8dd4b38669a052cc97897de2ffb3ff48f3ae3736cf8b2de9709","epochNo":422,"epochSlotNo":32599,"slot":96973399,"time":"2023/07/05 06:48:10","addressesInput":["addr1qxyjvhyge3pucr8wjyzydgkwpyzu38svlecactz38hfuzezsdjdjugdqd7d2tt3uc4p8fu2250wc7jpjwantkx6uycjsugmkpn","addr1qxyjvhyge3pucr8wjyzydgkwpyzu38svlecactz38hfuzezsdjdjugdqd7d2tt3uc4p8fu2250wc7jpjwantkx6uycjsugmkpn","addr1qxyjvhyge3pucr8wjyzydgkwpyzu38svlecactz38hfuzezsdjdjugdqd7d2tt3uc4p8fu2250wc7jpjwantkx6uycjsugmkpn","addr1qxyjvhyge3pucr8wjyzydgkwpyzu38svlecactz38hfuzezsdjdjugdqd7d2tt3uc4p8fu2250wc7jpjwantkx6uycjsugmkpn","addr1qxyjvhyge3pucr8wjyzydgkwpyzu38svlecactz38hfuzezsdjdjugdqd7d2tt3uc4p8fu2250wc7jpjwantkx6uycjsugmkpn","addr1qxyjvhyge3pucr8wjyzydgkwpyzu38svlecactz38hfuzezsdjdjugdqd7d2tt3uc4p8fu2250wc7jpjwantkx6uycjsugmkpn","addr1qxyjvhyge3pucr8wjyzydgkwpyzu38svlecactz38hfuzezsdjdjugdqd7d2tt3uc4p8fu2250wc7jpjwantkx6uycjsugmkpn","addr1qxyjvhyge3pucr8wjyzydgkwpyzu38svlecactz38hfuzezsdjdjugdqd7d2tt3uc4p8fu2250wc7jpjwantkx6uycjsugmkpn","addr1qxyjvhyge3pucr8wjyzydgkwpyzu38svlecactz38hfuzezsdjdjugdqd7d2tt3uc4p8fu2250wc7jpjwantkx6uycjsugmkpn","addr1qxyjvhyge3pucr8wjyzydgkwpyzu38svlecactz38hfuzezsdjdjugdqd7d2tt3uc4p8fu2250wc7jpjwantkx6uycjsugmkpn","addr1qxyjvhyge3pucr8wjyzydgkwpyzu38svlecactz38hfuzezsdjdjugdqd7d2tt3uc4p8fu2250wc7jpjwantkx6uycjsugmkpn","addr1qxyjvhyge3pucr8wjyzydgkwpyzu38svlecactz38hfuzezsdjdjugdqd7d2tt3uc4p8fu2250wc7jpjwantkx6uycjsugmkpn"],"addressesOutput":["addr1zxgx3far7qygq0k6epa0zcvcvrevmn0ypsnfsue94nsn3tvpw288a4x0xf8pxgcntelxmyclq83s0ykeehchz2wtspks905plm","addr1qxyjvhyge3pucr8wjyzydgkwpyzu38svlecactz38hfuzezsdjdjugdqd7d2tt3uc4p8fu2250wc7jpjwantkx6uycjsugmkpn","addr1qxyjvhyge3pucr8wjyzydgkwpyzu38svlecactz38hfuzezsdjdjugdqd7d2tt3uc4p8fu2250wc7jpjwantkx6uycjsugmkpn"],"fee":450093,"totalOutput":1002397018,"tokens":[]},{"hash":"81ebfba2cab10c09dbd837efd7a15e5d91bc1f428a35af28a77496bf2f42c3a3","blockNo":8989481,"blockHash":"02729613ebf1b8dd4b38669a052cc97897de2ffb3ff48f3ae3736cf8b2de9709","epochNo":422,"epochSlotNo":32599,"slot":96973399,"time":"2023/07/05 06:48:10","addressesInput":["addr1q9algrfgkh4w97exw8xtrpk647mhnn9ruehr2f7mckc3jgapznjyrj5lm4phyw0hvzzvcc3adetlq3lz38vglchjm5qq4dpd7p","addr1q9algrfgkh4w97exw8xtrpk647mhnn9ruehr2f7mckc3jgapznjyrj5lm4phyw0hvzzvcc3adetlq3lz38vglchjm5qq4dpd7p"],"addressesOutput":["addr1vxp6d4682penta0j8hm9uhmr7sp4glljxjmtgcw3phk9pgc0fkdrr"],"fee":167613,"totalOutput":2721273,"tokens":[]},{"hash":"0ff5fcf95230cf2b531ca94892f392c55b02a92b2b775d77f63193b9214f8545","blockNo":8989481,"blockHash":"02729613ebf1b8dd4b38669a052cc97897de2ffb3ff48f3ae3736cf8b2de9709","epochNo":422,"epochSlotNo":32599,"slot":96973399,"time":"2023/07/05 06:48:10","addressesInput":["addr1q94vgkh0ssnrfmsp5lftxtpqsn5pungywngqdn5ez0lula0u4ts0hez5sez8vcl65mnvsxdwc0ffw0swefpvg2acj3gse3tjy9","addr1q94vgkh0ssnrfmsp5lftxtpqsn5pungywngqdn5ez0lula0u4ts0hez5sez8vcl65mnvsxdwc0ffw0swefpvg2acj3gse3tjy9","addr1q94vgkh0ssnrfmsp5lftxtpqsn5pungywngqdn5ez0lula0u4ts0hez5sez8vcl65mnvsxdwc0ffw0swefpvg2acj3gse3tjy9","addr1q94vgkh0ssnrfmsp5lftxtpqsn5pungywngqdn5ez0lula0u4ts0hez5sez8vcl65mnvsxdwc0ffw0swefpvg2acj3gse3tjy9","addr1q94vgkh0ssnrfmsp5lftxtpqsn5pungywngqdn5ez0lula0u4ts0hez5sez8vcl65mnvsxdwc0ffw0swefpvg2acj3gse3tjy9","addr1q94vgkh0ssnrfmsp5lftxtpqsn5pungywngqdn5ez0lula0u4ts0hez5sez8vcl65mnvsxdwc0ffw0swefpvg2acj3gse3tjy9","addr1q94vgkh0ssnrfmsp5lftxtpqsn5pungywngqdn5ez0lula0u4ts0hez5sez8vcl65mnvsxdwc0ffw0swefpvg2acj3gse3tjy9"],"addressesOutput":["addr1q9g9pu9uf22gyamaf6ku8x7splltx6tgz493t402hphvxpvklf9rs289mxvt4zns6la80633jmynuw87w6m8rz57swkqhqxry5","addr1q94vgkh0ssnrfmsp5lftxtpqsn5pungywngqdn5ez0lula0u4ts0hez5sez8vcl65mnvsxdwc0ffw0swefpvg2acj3gse3tjy9","addr1q94vgkh0ssnrfmsp5lftxtpqsn5pungywngqdn5ez0lula0u4ts0hez5sez8vcl65mnvsxdwc0ffw0swefpvg2acj3gse3tjy9"],"fee":233173,"totalOutput":17847066,"tokens":[]},{"hash":"81afa53b24c77f43e968b8c422565a23865e4d938ccc43e2863490ad73b22232","blockNo":8989481,"blockHash":"02729613ebf1b8dd4b38669a052cc97897de2ffb3ff48f3ae3736cf8b2de9709","epochNo":422,"epochSlotNo":32599,"slot":96973399,"time":"2023/07/05 06:48:10","addressesInput":["addr1q92g7av3ws9r0ym9kpyuyazvvzhma6fmg05sgw0kcvfy4argftsssllk5xyh67ksvxl6jdj6aq4khzplp4eenxxh72vqkqk4wd","addr1q92g7av3ws9r0ym9kpyuyazvvzhma6fmg05sgw0kcvfy4argftsssllk5xyh67ksvxl6jdj6aq4khzplp4eenxxh72vqkqk4wd","addr1q92g7av3ws9r0ym9kpyuyazvvzhma6fmg05sgw0kcvfy4argftsssllk5xyh67ksvxl6jdj6aq4khzplp4eenxxh72vqkqk4wd","addr1q92g7av3ws9r0ym9kpyuyazvvzhma6fmg05sgw0kcvfy4argftsssllk5xyh67ksvxl6jdj6aq4khzplp4eenxxh72vqkqk4wd","addr1q92g7av3ws9r0ym9kpyuyazvvzhma6fmg05sgw0kcvfy4argftsssllk5xyh67ksvxl6jdj6aq4khzplp4eenxxh72vqkqk4wd"],"addressesOutput":["addr1qys6p3j97mfxe72rxkh5d9lp3cdjqp37dd8t5yjq5vl9m93h0dy20dzu4wpwtfre93yd2ph2e57ppft6kyc0dg28yp7shh7t9v","addr1wxn9efv2f6w82hagxqtn62ju4m293tqvw0uhmdl64ch8uwc0h43gt","addr1q92g7av3ws9r0ym9kpyuyazvvzhma6fmg05sgw0kcvfy4argftsssllk5xyh67ksvxl6jdj6aq4khzplp4eenxxh72vqkqk4wd"],"fee":267842,"totalOutput":513352334,"tokens":[]},{"hash":"3106cf9e792495f7a9767f34c307c8b56ae776641591b323eecf9fea8e7ba021","blockNo":8989481,"blockHash":"02729613ebf1b8dd4b38669a052cc97897de2ffb3ff48f3ae3736cf8b2de9709","epochNo":422,"epochSlotNo":32599,"slot":96973399,"time":"2023/07/05 06:48:10","addressesInput":["addr1wxj88juwkzmpcqacd9hua2cur2yl50kgx3tjs588c2470qc2ftfae","addr1qy36svckps7k48qfe9w2ayp4mtxmt05gkq8ars6v5cueh4e803h4sxndmxf3fe8hwd7uqvezdgg06mr9ljgqv0x64g3qfrw7u0","addr1w80ptp0qgmcklhmeweesqgeurtlma8fsxsr9dt8au30fzss0czhl9","addr1wxj88juwkzmpcqacd9hua2cur2yl50kgx3tjs588c2470qc2ftfae"],"addressesOutput":["addr1w80ptp0qgmcklhmeweesqgeurtlma8fsxsr9dt8au30fzss0czhl9","addr1qy36svckps7k48qfe9w2ayp4mtxmt05gkq8ars6v5cueh4e803h4sxndmxf3fe8hwd7uqvezdgg06mr9ljgqv0x64g3qfrw7u0","addr1wxj88juwkzmpcqacd9hua2cur2yl50kgx3tjs588c2470qc2ftfae","addr1wxj88juwkzmpcqacd9hua2cur2yl50kgx3tjs588c2470qc2ftfae","addr1qy36svckps7k48qfe9w2ayp4mtxmt05gkq8ars6v5cueh4e803h4sxndmxf3fe8hwd7uqvezdgg06mr9ljgqv0x64g3qfrw7u0","addr1qy36svckps7k48qfe9w2ayp4mtxmt05gkq8ars6v5cueh4e803h4sxndmxf3fe8hwd7uqvezdgg06mr9ljgqv0x64g3qfrw7u0","addr1qy36svckps7k48qfe9w2ayp4mtxmt05gkq8ars6v5cueh4e803h4sxndmxf3fe8hwd7uqvezdgg06mr9ljgqv0x64g3qfrw7u0","addr1qy36svckps7k48qfe9w2ayp4mtxmt05gkq8ars6v5cueh4e803h4sxndmxf3fe8hwd7uqvezdgg06mr9ljgqv0x64g3qfrw7u0"],"fee":1016011,"totalOutput":701025278590,"tokens":[]},{"hash":"3fd408860362531166bb54fafba30937ca57da91f7e677ef4959932063a54de2","blockNo":8989481,"blockHash":"02729613ebf1b8dd4b38669a052cc97897de2ffb3ff48f3ae3736cf8b2de9709","epochNo":422,"epochSlotNo":32599,"slot":96973399,"time":"2023/07/05 06:48:10","addressesInput":["addr1vxcl9us2s7q68w5k0kx8k5rg6gwhn85qnhxwytm9zeuavcgte4yd6","addr1w9afj34vc68qdm7heuz7esmr8sj76wpa45t7dh3ag8xpplgml3zuk","addr1wy8arwz5w2wju2ffp4rlugtnxxd2u0zv3pdf2hwzq0mjwkg77hygh","addr1vxcl9us2s7q68w5k0kx8k5rg6gwhn85qnhxwytm9zeuavcgte4yd6"],"addressesOutput":["addr1wypcayfxkqgnh8zfdsj9kft2hlpfvgtpmrkjlcge2e9rjvcelddkc","addr1wy8arwz5w2wju2ffp4rlugtnxxd2u0zv3pdf2hwzq0mjwkg77hygh","addr1xxqqegnx4ref4q6derz2n0zs0jeanaxdq7ynfhwv3luhsgmys5sq3xea3866499dczkshygljanhepcqjfwyhe3fpadsa5wd69","addr1xxqqegnx4ref4q6derz2n0zs0jeanaxdq7ynfhwv3luhsg6ypq27sagqxt4jwt57mdsef3zu65ng4zmzxaa246s97nxswjed26","addr1xxqqegnx4ref4q6derz2n0zs0jeanaxdq7ynfhwv3luhsgesaw6lwmnlk6z0aehzea9nwfvdvang9v42yylt83ym8zqqrjh90k","addr1xxqqegnx4ref4q6derz2n0zs0jeanaxdq7ynfhwv3luhsgelzwuv27k9keyjpag32pmx9mf63tn77feppvm7d0s5ndnsct59as","addr1xxqqegnx4ref4q6derz2n0zs0jeanaxdq7ynfhwv3luhsgmupshega3f5ym0freunp0p46rchpthvsyty398fh0msyws7wkxyx","addr1xxqqegnx4ref4q6derz2n0zs0jeanaxdq7ynfhwv3luhsg70l2wkhq0pr72jsdrv2kn8v3pqnrt0qykpq9fwr2wn0czswer98l","addr1xxqqegnx4ref4q6derz2n0zs0jeanaxdq7ynfhwv3luhsglnschmu7dwefmhkd078735ucq2yh90ylkzxrenz9cy8uds3gzd0f","addr1xxqqegnx4ref4q6derz2n0zs0jeanaxdq7ynfhwv3luhsg6a0x7l0scsd0wvfm3ljugdpsu4kctwfjyud65xfeht5uyqr02la5","addr1xxqqegnx4ref4q6derz2n0zs0jeanaxdq7ynfhwv3luhsg78jkqyfeeuz5m6sfv27g9vav8w83lsaqewjqxnpnpjd9wsmng4ka","addr1xxqqegnx4ref4q6derz2n0zs0jeanaxdq7ynfhwv3luhsglwdw2g8sat0hr2pdt2ct27n33z0w6dzsfy684ut24gjfsqjxugry","addr1xxqqegnx4ref4q6derz2n0zs0jeanaxdq7ynfhwv3luhsg6s80extwffmz4yagvdxvr6cpd8nm3qne020739j706h3jqsd0vf2","addr1xxqqegnx4ref4q6derz2n0zs0jeanaxdq7ynfhwv3luhsglccartl0f44hvc4vq8n3042epqvqq8cd4g9znpl5kdeyps7frwge","addr1xxqqegnx4ref4q6derz2n0zs0jeanaxdq7ynfhwv3luhsgcfpkhcpsthxpprf49lvfy2jhga5mygpfcj4qaypfzkmhnsw9rpx7","addr1xxqqegnx4ref4q6derz2n0zs0jeanaxdq7ynfhwv3luhsgl0sfgalgyvgedlnhfl7u2059dkyhp453hm86797rm5qhasyaak0d","addr1xxqqegnx4ref4q6derz2n0zs0jeanaxdq7ynfhwv3luhsga3q9zvxe5ehfytyye9m3dq3knvuz2fdnax7lhhjm4vvjgqlgr6ws","addr1xxqqegnx4ref4q6derz2n0zs0jeanaxdq7ynfhwv3luhsg63z228hznt0rz2enxfzhtk2270gels0ht9uvf9wmyxs99qgwkkf2","addr1vxcl9us2s7q68w5k0kx8k5rg6gwhn85qnhxwytm9zeuavcgte4yd6","addr1vxcl9us2s7q68w5k0kx8k5rg6gwhn85qnhxwytm9zeuavcgte4yd6","addr1vxcl9us2s7q68w5k0kx8k5rg6gwhn85qnhxwytm9zeuavcgte4yd6"],"fee":520121,"totalOutput":37216497948848,"tokens":[]},{"hash":"df9607139f6a1c8be0698a18d1f565fde3c737ba34a85a9ef46b06ec4d668f60","blockNo":8989481,"blockHash":"02729613ebf1b8dd4b38669a052cc97897de2ffb3ff48f3ae3736cf8b2de9709","epochNo":422,"epochSlotNo":32599,"slot":96973399,"time":"2023/07/05 06:48:10","addressesInput":["addr1w86zqu6s8p3adhulje65h34uyhyntgnsv0hwnsgfptu9jrq3ngqpn","addr1w8r7rsvyt22sfuh2d0dehgmq5aljtead8m7v2ezl4qm6nsgs7my8r","addr1q8zjs77l5jzcn3nx07jkey89cr2mjvt9y0vc2n5stq6v345dmyla5t0efcguvy35ymlmmzryla8x6c358mcln90hf88qjjdcef","addr1q8zjs77l5jzcn3nx07jkey89cr2mjvt9y0vc2n5stq6v345dmyla5t0efcguvy35ymlmmzryla8x6c358mcln90hf88qjjdcef"],"addressesOutput":["addr1w86zqu6s8p3adhulje65h34uyhyntgnsv0hwnsgfptu9jrq3ngqpn","addr1q8zjs77l5jzcn3nx07jkey89cr2mjvt9y0vc2n5stq6v345dmyla5t0efcguvy35ymlmmzryla8x6c358mcln90hf88qjjdcef","addr1q8mhjp62guqw27xntfwd00j5wp4jdzxl7srtyq7jln0u00et0twspk6ypwtwpdcnuy4zncu5pnsxdrsdnh6d8c6q0kjsvevf5y","addr1q8zjs77l5jzcn3nx07jkey89cr2mjvt9y0vc2n5stq6v345dmyla5t0efcguvy35ymlmmzryla8x6c358mcln90hf88qjjdcef"],"fee":627287,"totalOutput":1282059578,"tokens":[]},{"hash":"11817b601c8cab0e611527054a069ad78143ec07b58243db32653ab46c1f8d8e","blockNo":8989481,"blockHash":"02729613ebf1b8dd4b38669a052cc97897de2ffb3ff48f3ae3736cf8b2de9709","epochNo":422,"epochSlotNo":32599,"slot":96973399,"time":"2023/07/05 06:48:10","addressesInput":["addr1qxdg0cqm9ly9fdw8cupx0k508mfdzdpn9x4gaph0mem532jcae3y5hr5rlfv8uzhtqtvnkgzzvprz8sdrr8049faeqgqkprx37","addr1qxdg0cqm9ly9fdw8cupx0k508mfdzdpn9x4gaph0mem532jcae3y5hr5rlfv8uzhtqtvnkgzzvprz8sdrr8049faeqgqkprx37"],"addressesOutput":["addr1wxc45xspppp73takl93mq029905ptdfnmtgv6g7cr8pdyqgvks3s8","addr1qxdg0cqm9ly9fdw8cupx0k508mfdzdpn9x4gaph0mem532jcae3y5hr5rlfv8uzhtqtvnkgzzvprz8sdrr8049faeqgqkprx37"],"fee":191241,"totalOutput":104434450,"tokens":[]},{"hash":"a058eb596c844a76ca15c1d6e87d5156ede5e209a958922239c9336ee54c5557","blockNo":8989480,"blockHash":"1f73e628b959ac62e1c0c17f917b1418d0edc9257dcc420f23ec80822211328b","epochNo":422,"epochSlotNo":32580,"slot":96973380,"time":"2023/07/05 06:47:51","addressesInput":["addr1q9rmrnpmvwp9plpl5t06uun20uznwpunpgg4ne25g8mqc9fxv66m7l0jd5n8kcu84ugdc96tv6309zasnhw9hungk5fqls69xq","addr1qxqvwgvfpppccle3c70caspjrl6samwrhhc7rtvh04u5q5pxv66m7l0jd5n8kcu84ugdc96tv6309zasnhw9hungk5fqvg9w6x"],"addressesOutput":["addr1zxgx3far7qygq0k6epa0zcvcvrevmn0ypsnfsue94nsn3tvpw288a4x0xf8pxgcntelxmyclq83s0ykeehchz2wtspks905plm","addr1qxqvwgvfpppccle3c70caspjrl6samwrhhc7rtvh04u5q5pxv66m7l0jd5n8kcu84ugdc96tv6309zasnhw9hungk5fqvg9w6x","addr1qxqvwgvfpppccle3c70caspjrl6samwrhhc7rtvh04u5q5pxv66m7l0jd5n8kcu84ugdc96tv6309zasnhw9hungk5fqvg9w6x"],"fee":232249,"totalOutput":37163412,"tokens":[]},{"hash":"aafef29f6d4d35c1533a04cd4da9bb1232223cd66e25996c8aac57d3463652ca","blockNo":8989480,"blockHash":"1f73e628b959ac62e1c0c17f917b1418d0edc9257dcc420f23ec80822211328b","epochNo":422,"epochSlotNo":32580,"slot":96973380,"time":"2023/07/05 06:47:51","addressesInput":["addr1q887kunw33z4mxk4snqupggp3d9f6yhjrrl0me737tjnwuje7f80e2ue4hgkvkvsalmaw0vtjyrasv0nplg2tn4sjy8qhj6ft6","addr1q887kunw33z4mxk4snqupggp3d9f6yhjrrl0me737tjnwuje7f80e2ue4hgkvkvsalmaw0vtjyrasv0nplg2tn4sjy8qhj6ft6"],"addressesOutput":["addr1zxgx3far7qygq0k6epa0zcvcvrevmn0ypsnfsue94nsn3tvpw288a4x0xf8pxgcntelxmyclq83s0ykeehchz2wtspks905plm","addr1q887kunw33z4mxk4snqupggp3d9f6yhjrrl0me737tjnwuje7f80e2ue4hgkvkvsalmaw0vtjyrasv0nplg2tn4sjy8qhj6ft6","addr1q887kunw33z4mxk4snqupggp3d9f6yhjrrl0me737tjnwuje7f80e2ue4hgkvkvsalmaw0vtjyrasv0nplg2tn4sjy8qhj6ft6"],"fee":435221,"totalOutput":25617838,"tokens":[]},{"hash":"62405ec72f6f374e48a0565a2a3118adde6c26556a2d70c07e22378a119b6730","blockNo":8989480,"blockHash":"1f73e628b959ac62e1c0c17f917b1418d0edc9257dcc420f23ec80822211328b","epochNo":422,"epochSlotNo":32580,"slot":96973380,"time":"2023/07/05 06:47:51","addressesInput":["addr1q8wv9cgtk03qt3fq6tvd7e58chc7sxdl5l0a4uz62n53kwl0teasp7kznhvt75400vm8z0880q86htlujs5uazemzf2scu5hes","addr1q8wv9cgtk03qt3fq6tvd7e58chc7sxdl5l0a4uz62n53kwl0teasp7kznhvt75400vm8z0880q86htlujs5uazemzf2scu5hes"],"addressesOutput":["addr1wy2cejpvazd6hdqeszhnzg4jcjnjnakmhrnmsxfsjqdg2mg23f5df","addr1q8wv9cgtk03qt3fq6tvd7e58chc7sxdl5l0a4uz62n53kwl0teasp7kznhvt75400vm8z0880q86htlujs5uazemzf2scu5hes"],"fee":180109,"totalOutput":5022251073,"tokens":[]},{"hash":"ec07a2856a183bdea8526845a71169e55d750ff0c94ef770e3a18a5ebcc23f4c","blockNo":8989479,"blockHash":"c65cce74a6cf3432d1d0df124421f0fd0d3dedf0708b01e24e3af3ce65cd22d2","epochNo":422,"epochSlotNo":32578,"slot":96973378,"time":"2023/07/05 06:47:49","addressesInput":["addr1qx4wjha3vsvtvtkwgjv7vp3amhtta7w3mwcap628g5dd90xnqkn09c2ddqpu5n0gm6yfpp340m4lfstvxypfhsju7maqfxega8","addr1qx4wjha3vsvtvtkwgjv7vp3amhtta7w3mwcap628g5dd90xnqkn09c2ddqpu5n0gm6yfpp340m4lfstvxypfhsju7maqfxega8","addr1qx4wjha3vsvtvtkwgjv7vp3amhtta7w3mwcap628g5dd90xnqkn09c2ddqpu5n0gm6yfpp340m4lfstvxypfhsju7maqfxega8","addr1qx4wjha3vsvtvtkwgjv7vp3amhtta7w3mwcap628g5dd90xnqkn09c2ddqpu5n0gm6yfpp340m4lfstvxypfhsju7maqfxega8"],"addressesOutput":["addr1zxgx3far7qygq0k6epa0zcvcvrevmn0ypsnfsue94nsn3tvpw288a4x0xf8pxgcntelxmyclq83s0ykeehchz2wtspks905plm","addr1qx4wjha3vsvtvtkwgjv7vp3amhtta7w3mwcap628g5dd90xnqkn09c2ddqpu5n0gm6yfpp340m4lfstvxypfhsju7maqfxega8","addr1qx4wjha3vsvtvtkwgjv7vp3amhtta7w3mwcap628g5dd90xnqkn09c2ddqpu5n0gm6yfpp340m4lfstvxypfhsju7maqfxega8","addr1qx4wjha3vsvtvtkwgjv7vp3amhtta7w3mwcap628g5dd90xnqkn09c2ddqpu5n0gm6yfpp340m4lfstvxypfhsju7maqfxega8"],"fee":243953,"totalOutput":209484197,"tokens":[]}],"totalItems":70551333,"totalPages":3527567,"currentPage":0}