{"data":[{"blockNo":8368676,"slotNo":84190367,"epochNo":392,"epochSlotNo":209567,"hash":"68df39df153bffd1f70750b915214c8f0e8bdfa28a4c0196c25cde8657765633","time":"2023/02/07 07:57:38","txCount":4,"totalFees":1085315,"totalOutput":407562143,"slotLeader":"618ab17ec8ea7239b4ac0c826b667c599489e25524ce74841a29d510"},{"blockNo":8368675,"slotNo":84190362,"epochNo":392,"epochSlotNo":209562,"hash":"b252d3513e3216032ffca6d132e5e6076aab147944b311cc73054d8321d7c347","time":"2023/02/07 07:57:33","txCount":39,"totalFees":12790222,"totalOutput":774027093986,"slotLeader":"56b76df4f3653a6faf62f6f6838045cf9f3dde69a1eee353de526ee4"},{"blockNo":8368674,"slotNo":84190303,"epochNo":392,"epochSlotNo":209503,"hash":"26388a07ca088621de12c80b09acd5a3dd8ff9d4f8b3fded9684f9a97af6e51a","time":"2023/02/07 07:56:34","txCount":34,"totalFees":10907618,"totalOutput":33858428989708,"slotLeader":"04c60c78417132a195cbb74975346462410f72612952a7c4ade7e438"},{"blockNo":8368673,"slotNo":84190244,"epochNo":392,"epochSlotNo":209444,"hash":"8e4f62bf574636905963d8a5d0f9a6c55730f0d7f76396b113d709e4ff32df2c","time":"2023/02/07 07:55:35","txCount":4,"totalFees":1642941,"totalOutput":18390270282,"slotLeader":"54a7cf8a1e91ff0b72a3577c0d2f39d2d7ad1fca63ae0b9e4662053d"},{"blockNo":8368672,"slotNo":84190239,"epochNo":392,"epochSlotNo":209439,"hash":"470ee89778f9aba02502bf0f132974888d891ff5256710ce342d82fcc34f7449","time":"2023/02/07 07:55:30","txCount":8,"totalFees":3576951,"totalOutput":85997064481,"slotLeader":"f6541f3ca941d96d3c243eae01fea874d6be403b2dd2c6575245de6e"},{"blockNo":8368671,"slotNo":84190223,"epochNo":392,"epochSlotNo":209423,"hash":"c8959799fe22eb9be9c11ab23e8b1e5c7f199005da2588d67e16efe32d324fc5","time":"2023/02/07 07:55:14","txCount":5,"totalFees":1698710,"totalOutput":298899047395,"slotLeader":"cdb10209d937fc1559c635e35b9147febde5307b4a7d276f868775cd"},{"blockNo":8368670,"slotNo":84190214,"epochNo":392,"epochSlotNo":209414,"hash":"436a436222d9df9c3b0dc5e5c0c245ce3b80c9455b56c8540cee151a6fcfdc91","time":"2023/02/07 07:55:05","txCount":9,"totalFees":3136164,"totalOutput":6176837943327,"slotLeader":"d785ff6a030ae9d521770c00f264a2aa423e928c85fc620b13d46eda"},{"blockNo":8368669,"slotNo":84190202,"epochNo":392,"epochSlotNo":209402,"hash":"e8a957366605f78f819cd74de314b3fdaa647a646644173504acaac87c29e9e3","time":"2023/02/07 07:54:53","txCount":10,"totalFees":5676938,"totalOutput":12387892140071,"slotLeader":"0775f0139af22e1ebf2c3278598816946e750029b70eace3c5135c3e"},{"blockNo":8368668,"slotNo":84190195,"epochNo":392,"epochSlotNo":209395,"hash":"5cc9087a2b1643608d2ad776d41b5c288d6ae8349701c35e1fe19b52a7fe9763","time":"2023/02/07 07:54:46","txCount":8,"totalFees":4259673,"totalOutput":4129497964946,"slotLeader":"4b5e02dce5f549a0c332d8b02f91c43a506311fe1cd4498ddcf46bd0"},{"blockNo":8368667,"slotNo":84190182,"epochNo":392,"epochSlotNo":209382,"hash":"034a4a1db2f62739aee140b19a0ec60d4a9431fa5e1cfc04adbbb592404be2d8","time":"2023/02/07 07:54:33","txCount":20,"totalFees":5092953,"totalOutput":2152314966331,"slotLeader":"50e113d1ada46a83a16d5ee6cfdc1a8baed6634c9f046ed30131eb11"},{"blockNo":8368666,"slotNo":84190149,"epochNo":392,"epochSlotNo":209349,"hash":"77d98659af274e308a70bbb490f6ee66666cc9fe0f9f8720576ffc8ca5951681","time":"2023/02/07 07:54:00","txCount":12,"totalFees":5003361,"totalOutput":3995531514296,"slotLeader":"d5e0f919debe82e4447cf0f0089188ae212f7efbc065a3d819daa17a"},{"blockNo":8368665,"slotNo":84190136,"epochNo":392,"epochSlotNo":209336,"hash":"247dca3eb00496e1641e9f1165966c8c41925ffc1a67444a9bf77791cad043c5","time":"2023/02/07 07:53:47","txCount":16,"totalFees":4534520,"totalOutput":10726214746,"slotLeader":"9679eaa0fa242a9cdae4b030e714b66c0119fc9b3f7564b8f03a5316"},{"blockNo":8368664,"slotNo":84190111,"epochNo":392,"epochSlotNo":209311,"hash":"2360e0c3a29379ed2f41648b3c8f49218df484bfaf5de4e07dbe8fc6805248a0","time":"2023/02/07 07:53:22","txCount":26,"totalFees":9125098,"totalOutput":5276279453124,"slotLeader":"f018942907ac50ed7f831f14755ad93698188492d09d229655e6ade1"},{"blockNo":8368663,"slotNo":84190045,"epochNo":392,"epochSlotNo":209245,"hash":"926c35f891856fc3ad0aec3f2a2a0b67f391def03b8329081d90c6883fc857d4","time":"2023/02/07 07:52:16","txCount":5,"totalFees":3811238,"totalOutput":2628217344954,"slotLeader":"0c2e0c5a062389a3fd6fafddae26344d490866d7a34cad981b20f96b"},{"blockNo":8368662,"slotNo":84190041,"epochNo":392,"epochSlotNo":209241,"hash":"dd4bfdb965dc30c2f33cf444d95989805b4a830f63579e14310f8f22c504eb88","time":"2023/02/07 07:52:12","txCount":27,"totalFees":11078916,"totalOutput":3272363951956,"slotLeader":"0054fc7a4e34f9a1eef15a05fdfc9d323deeb9b72a4b5ec514247e66"},{"blockNo":8368661,"slotNo":84189998,"epochNo":392,"epochSlotNo":209198,"hash":"a04718af3e1002349ef35aa47489b50fc26c0a1a7b76e058434541c402ae636d","time":"2023/02/07 07:51:29","txCount":5,"totalFees":1070913,"totalOutput":55898533211,"slotLeader":"c2c52eab0d713209b337d8ff8fe28e1ccae2f70eb7ed1ee27e8c866a"},{"blockNo":8368660,"slotNo":84189987,"epochNo":392,"epochSlotNo":209187,"hash":"e48965e77e08b6e2a8bf49e3e8e327af99d1d60be393fc3a6b23123a835dde2d","time":"2023/02/07 07:51:18","txCount":10,"totalFees":4496505,"totalOutput":321546022915,"slotLeader":"7c6b4a731eec6bef00e16ec4c990e7a817f61597dab1033006563ad7"},{"blockNo":8368659,"slotNo":84189984,"epochNo":392,"epochSlotNo":209184,"hash":"03eea56d80262cb12a8dbe8d8f127dffb3e5d586677f09e7529ccf2e6625c29e","time":"2023/02/07 07:51:15","txCount":34,"totalFees":13145926,"totalOutput":11286720013885,"slotLeader":"be80794a946cf5e578846fc81e3c62ac13f4ab3335e0f5dc046edad4"},{"blockNo":8368658,"slotNo":84189955,"epochNo":392,"epochSlotNo":209155,"hash":"107811435cf119465da6bf2e602294d2323ed58f72d8f5d0b72146247167abac","time":"2023/02/07 07:50:46","txCount":36,"totalFees":12188254,"totalOutput":2468020586554,"slotLeader":"926b65d00c21aa1fb19e44faa2293e342578ed6a80aca4a551191a70"},{"blockNo":8368657,"slotNo":84189860,"epochNo":392,"epochSlotNo":209060,"hash":"b24374fb5c8ca6c24968988dbdcfe18abebd8b44e6e1386bdf6303b52fdc869a","time":"2023/02/07 07:49:11","txCount":21,"totalFees":6269089,"totalOutput":41323167431,"slotLeader":"48c4f6c2b3ba2ab7e62f975b8a59c68d2c2929890973db1737babcaf"}],"totalItems":8368852,"totalPages":418443,"currentPage":0}