{"data":[{"blockNo":8119479,"slotNo":79063993,"epochNo":380,"epochSlotNo":267193,"hash":"d1877ff8852953e9094854c70261cd87abdcd6c6798fa3f5a5a53e1a93c3f7cb","time":"2022/12/09 23:58:04","txCount":8,"totalFees":1691563,"totalOutput":952686805,"slotLeader":"bc00a90f9f448be5cfaa4e76dbc13353b83b59cb3f2c5e321555ca28"},{"blockNo":8119478,"slotNo":79063976,"epochNo":380,"epochSlotNo":267176,"hash":"7fa782f6d3d44909d2ff3340a58b37f1787c3b694450508ea12a05087d5c0375","time":"2022/12/09 23:57:47","txCount":24,"totalFees":7680183,"totalOutput":504530277164,"slotLeader":"788898a81174665316af96880459dcca053f7825abb1b0db9a433630"},{"blockNo":8119477,"slotNo":79063948,"epochNo":380,"epochSlotNo":267148,"hash":"743c8e7dd33787409ac1a0798e205e9f6dd8418acd22df7518bb241b72b1329f","time":"2022/12/09 23:57:19","txCount":4,"totalFees":1125927,"totalOutput":1264475855,"slotLeader":"cf635c0a032bc98d453b65512aaf2b0f9b0f62b2b865a6011523aaf7"},{"blockNo":8119476,"slotNo":79063938,"epochNo":380,"epochSlotNo":267138,"hash":"e6f76da64631e13f6fd0fec0eaa602a44f7de4c4fdf2313064698639c5d8a80e","time":"2022/12/09 23:57:09","txCount":26,"totalFees":6222807,"totalOutput":122506510716,"slotLeader":"7f6c103302f96390d478a170fe80938b76fccd8a23490e3b6ddebcf7"},{"blockNo":8119475,"slotNo":79063901,"epochNo":380,"epochSlotNo":267101,"hash":"fc4d2b0feea49476d85ecf8712da4eb2042cf1f5b9d30784671740c8926470ab","time":"2022/12/09 23:56:32","txCount":14,"totalFees":4371426,"totalOutput":253247110235,"slotLeader":"a10865dae2d543ee9f13e98bff70ea81565bb6e4343b15b765f78174"},{"blockNo":8119474,"slotNo":79063887,"epochNo":380,"epochSlotNo":267087,"hash":"5bfd56fae13b36fc0c0c8d0653bf5adc42dbd75cb687bfb5708c5d88d0331b9d","time":"2022/12/09 23:56:18","txCount":25,"totalFees":6964595,"totalOutput":75250338342,"slotLeader":"cb3e1428aa4d240ca528edfd992d6509b47335849a91f0d70e5b0ffd"},{"blockNo":8119473,"slotNo":79063853,"epochNo":380,"epochSlotNo":267053,"hash":"1e253f2d95b60dd0cd7f19c89d41a9b17baafeb185e2711ecd872e2f0c5c01d8","time":"2022/12/09 23:55:44","txCount":1,"totalFees":202857,"totalOutput":932392841,"slotLeader":"662796197f741c9b9f0d9830530d01300ee5c63f549784ff2ac81c17"},{"blockNo":8119472,"slotNo":79063849,"epochNo":380,"epochSlotNo":267049,"hash":"edfb2a56af419989d3dc389940a6864b8e94e8bac83f4cf8492e0e9c6b3a23bc","time":"2022/12/09 23:55:40","txCount":11,"totalFees":4098661,"totalOutput":37129728996,"slotLeader":"b44181287c72d0c7b1bce6a57173cdf739ac77d030bdfc4606138dd2"},{"blockNo":8119471,"slotNo":79063840,"epochNo":380,"epochSlotNo":267040,"hash":"93697859acc2d759db3afd1145a2dc8d00830c110b5661bec3a7af3b4e67eb57","time":"2022/12/09 23:55:31","txCount":2,"totalFees":1063732,"totalOutput":141788609023,"slotLeader":"a4dcead63ac83d18e481683cc9fff0980837256eac6a6b303b56f0ab"},{"blockNo":8119470,"slotNo":79063838,"epochNo":380,"epochSlotNo":267038,"hash":"b1be4cfba2bef307c412832514579791dffd6c7fc477368b0ecd7db030acf68b","time":"2022/12/09 23:55:29","txCount":11,"totalFees":2745146,"totalOutput":661229197237,"slotLeader":"e7b605b72af41d6e8e6894274dedd18114f1759fea500b6d07031535"},{"blockNo":8119469,"slotNo":79063828,"epochNo":380,"epochSlotNo":267028,"hash":"eced569fda60cb8aea35e36367d25e7b2dcd33f582fa4c42b88b3b98f813636e","time":"2022/12/09 23:55:19","txCount":2,"totalFees":354190,"totalOutput":4243353130,"slotLeader":"c4ded02c3f7275e4b6157dd164bf941eea0af4596501c5ed16752ed2"},{"blockNo":8119468,"slotNo":79063826,"epochNo":380,"epochSlotNo":267026,"hash":"33c542c6b98f933cc0cdd45f4e4647582b608530685f0495e37ae45d9f1c2e3e","time":"2022/12/09 23:55:17","txCount":4,"totalFees":820492,"totalOutput":64076635158,"slotLeader":"d058aaaeea58887b79ecb57708d1694bd323276a6b54185bd86415e7"},{"blockNo":8119467,"slotNo":79063818,"epochNo":380,"epochSlotNo":267018,"hash":"3da750df3bdc1fe2a59cb08be40ccc9a5114d2957dea10698be5e2906aeabb4a","time":"2022/12/09 23:55:09","txCount":3,"totalFees":817020,"totalOutput":14383179159,"slotLeader":"5eb362978a68a4780f4fd701b8f04f5aeb990eb80b1cb025d99e82a1"},{"blockNo":8119466,"slotNo":79063816,"epochNo":380,"epochSlotNo":267016,"hash":"3f1b882be6c65648754061881d82eefe20d36250384f1f9ae537d6633976c146","time":"2022/12/09 23:55:07","txCount":5,"totalFees":1361445,"totalOutput":1277593623018,"slotLeader":"2313599837d144bdbd6897a3cdecc0ad2c995f38275aad6626c29ef5"},{"blockNo":8119465,"slotNo":79063804,"epochNo":380,"epochSlotNo":267004,"hash":"6dbd1dfe38ffdfa427a657d757def29e875636c36b75dad5bf8dca702e2dd449","time":"2022/12/09 23:54:55","txCount":8,"totalFees":2908092,"totalOutput":17722143523343,"slotLeader":"788898a81174665316af96880459dcca053f7825abb1b0db9a433630"},{"blockNo":8119464,"slotNo":79063791,"epochNo":380,"epochSlotNo":266991,"hash":"84460e0e2e7ecb2dd3c3047766a56e7fc0aaf1cf1186ba5fb7434d4616bd24fc","time":"2022/12/09 23:54:42","txCount":18,"totalFees":5823762,"totalOutput":109431986672,"slotLeader":"2382bac66b58a4df1cf1775285529bbbefb9102ecea991e1da0aa064"},{"blockNo":8119463,"slotNo":79063764,"epochNo":380,"epochSlotNo":266964,"hash":"1a2964c7b58d5c73544ff40974ac5d7776b9f8715b35d15833b3eec2f5d9f0f1","time":"2022/12/09 23:54:15","txCount":43,"totalFees":10960576,"totalOutput":18845206784899,"slotLeader":"c779f67a0f3a1f2985626e345013015f71cf245dbcc8ac8457f42e56"},{"blockNo":8119462,"slotNo":79063723,"epochNo":380,"epochSlotNo":266923,"hash":"03ad758586b2da5911b105246a910f385e91c7c0d4d04b355b13d3a662de0fdf","time":"2022/12/09 23:53:34","txCount":45,"totalFees":14382716,"totalOutput":219432241429,"slotLeader":"8e06d57e463f8a73f37652b23d126eeb52e6838168700d0478d32851"},{"blockNo":8119461,"slotNo":79063685,"epochNo":380,"epochSlotNo":266885,"hash":"1c4e48f8f685fb1c04106e96d021d584b0510e8f72f37477b80d7d91f2557fbe","time":"2022/12/09 23:52:56","txCount":40,"totalFees":12132995,"totalOutput":3835474945926,"slotLeader":"1b268f4cba3faa7e36d8a0cc4adca2096fb856119412ee7330f692b5"},{"blockNo":8119460,"slotNo":79063627,"epochNo":380,"epochSlotNo":266827,"hash":"0c37317e71e3c1c5dc02efd59404c4725854136f733498ddf889a5136304c058","time":"2022/12/09 23:51:58","txCount":23,"totalFees":6057595,"totalOutput":452457128253,"slotLeader":"68ac3c1be0477698b5c825ce598cca359dbf6132e1761a572403b9fb"}],"totalItems":8119655,"totalPages":405983,"currentPage":0}