{"data":[{"txId":61650223,"txHash":"9622d90660eef226181ddde83bcdf54eb6ac41778d98e5e2ad8472df81f38fef","txTime":"2023/02/09 11:25:06","block":8377570,"epoch":392,"slotNo":84375615,"epochSlotNo":394815,"stakeKey":"stake1uyl0avs2kmx9w8ycck08gj403lag8n8xhl2pdsy3k9kpxms3nkg52"},{"txId":61649965,"txHash":"2124603d1aa021a9453d33e18f77a2dc82201c8599d28e0e5d1dbedcc8dd6806","txTime":"2023/02/09 11:23:19","block":8377563,"epoch":392,"slotNo":84375508,"epochSlotNo":394708,"stakeKey":"stake1uyx0v6a8y2qpkr7m06txexm7l4ch74xqzyyp4p4rgxahvecau6agf"},{"txId":61647959,"txHash":"4547d7645c0dcb5cae8850779eff98ad40990fd1eaefa116ef4575914d00656c","txTime":"2023/02/09 11:07:41","block":8377519,"epoch":392,"slotNo":84374570,"epochSlotNo":393770,"stakeKey":"stake1u8tydyn0dvrxjgaln3nlf5e9mv2mr9u3gsskvz6fy8w7dmcux3ahk"},{"txId":61646537,"txHash":"871c632bc4428eb1163a7a0accbd0b0d1ad80b7d4578ffeba05009647a2b0a25","txTime":"2023/02/09 10:46:34","block":8377464,"epoch":392,"slotNo":84373303,"epochSlotNo":392503,"stakeKey":"stake1u8q9vnzpspw2qu34aneaa7789umswgyeyjls5ccgadpdgps92r7m2"},{"txId":61646131,"txHash":"fae977d5b37f4de8f333a4006d4425066563b820add5e85bcd5139d883378a05","txTime":"2023/02/09 10:34:34","block":8377432,"epoch":392,"slotNo":84372583,"epochSlotNo":391783,"stakeKey":"stake1u9k3gcvjg0wa50kv9x7fvsw6cjha49hhqt38cfcenj0cpuszw6mqc"},{"txId":61646037,"txHash":"170596288315ff53a9928f17e2c13760bd97d083ceafc24c363fee33bec186f2","txTime":"2023/02/09 10:31:43","block":8377428,"epoch":392,"slotNo":84372412,"epochSlotNo":391612,"stakeKey":"stake1uxs4wtxvwce66q02w2qcyg8utm3mz0twhj7pmt3jlyqwrmgnzsz8c"},{"txId":61645783,"txHash":"8a2fdb1749f3241d7bbb361d189fdd463aa5a884c6bab10deb1ef19dbe9a5613","txTime":"2023/02/09 10:24:02","block":8377401,"epoch":392,"slotNo":84371951,"epochSlotNo":391151,"stakeKey":"stake1uy0k6s5es9hduxej3r97dgxs7aup8g5czv3efa5740wjcyqp3vglh"},{"txId":61645582,"txHash":"90fe56b494648fe5407a20e76cd6bddb816051daf9c2bcba06334f8fcc592156","txTime":"2023/02/09 10:18:44","block":8377376,"epoch":392,"slotNo":84371633,"epochSlotNo":390833,"stakeKey":"stake1uyqzj8j3g6u02vlmhr5p5ntx2l345uvwghkxjmlw4ar5rzs5jf8sn"},{"txId":61645339,"txHash":"9f24cc431a33fb361873ea5821ec52b46bbd06da74575212b687494a51afe605","txTime":"2023/02/09 10:12:03","block":8377356,"epoch":392,"slotNo":84371232,"epochSlotNo":390432,"stakeKey":"stake1uyngm39692ahxt52u4zm9xrpade2gpqwgft88n9lvf73j2cne45kd"},{"txId":61645124,"txHash":"3e20a1bb16893232b05c7d847f7b8c79901cc50a3b705b552ff1fe3f4e239a9e","txTime":"2023/02/09 10:06:39","block":8377336,"epoch":392,"slotNo":84370908,"epochSlotNo":390108,"stakeKey":"stake1uxn7ha89ndh8hlu2fq70slk8hlqetldpegmgj4s8nu04lkq352vyq"},{"txId":61644441,"txHash":"6f75eaf5d9d45601a9c1a5cffe2f86577935d80a953067bdca66fc583dcc8e4d","txTime":"2023/02/09 09:46:56","block":8377269,"epoch":392,"slotNo":84369725,"epochSlotNo":388925,"stakeKey":"stake1u9s8q4hfuyl5n5g06munzx2aaautr29645stg8funaadwdcxcda92"},{"txId":61644160,"txHash":"03f6a6cdb167d0189d01ddd35ab6182641b5621def780ff196ef29a6c399704f","txTime":"2023/02/09 09:39:45","block":8377250,"epoch":392,"slotNo":84369294,"epochSlotNo":388494,"stakeKey":"stake1uykm89ryrwheerxxcn3085gl24gf9l5katky9r572d2syasguvnz8"},{"txId":61644152,"txHash":"a74ab66899939392e05147290272e6eb51a5001f8bd9309543485ddc95e7889b","txTime":"2023/02/09 09:38:45","block":8377248,"epoch":392,"slotNo":84369234,"epochSlotNo":388434,"stakeKey":"stake1u8j6gz8djhc73e5puljptlj42wem5lsz99h6gyzd79z2s7swwkcs3"},{"txId":61642608,"txHash":"e307668c5d96b049a7dac920d5295c3c936045f4c28f1f6d9d5cd468b48c3f4e","txTime":"2023/02/09 09:04:00","block":8377140,"epoch":392,"slotNo":84367149,"epochSlotNo":386349,"stakeKey":"stake1u9ez6w9dtv8mh0fudj2qmy5je9ntr6zk596ugkf0nnrdv2qlrdx27"},{"txId":61642100,"txHash":"ae07a5c43b71065f5d86f5623d97932bca00d70a36cb8f9fdc6168b3e78d4f55","txTime":"2023/02/09 08:50:00","block":8377099,"epoch":392,"slotNo":84366309,"epochSlotNo":385509,"stakeKey":"stake1uxmmh060grukrtqt42m7numqan50qg3ctv6knkcduyz7gzsq7zk50"},{"txId":61642018,"txHash":"3eb0c1cce092fe585b2642952e80cd6a8091cc1b57abffcfbd30107d648b31dd","txTime":"2023/02/09 08:47:57","block":8377094,"epoch":392,"slotNo":84366186,"epochSlotNo":385386,"stakeKey":"stake1ux5h95aggl89nrpsunv52wnsxlyd437pt3lz0l8u9yw6pwczh59jy"},{"txId":61641970,"txHash":"08cd3172932a2aa02f8a35163006ae41db5ebb8da1bc2d7f0ed30135a2d006ff","txTime":"2023/02/09 08:47:30","block":8377091,"epoch":392,"slotNo":84366159,"epochSlotNo":385359,"stakeKey":"stake1uy5wz8rkrdptg4k33gh5p58m6jm45w9s6eqzu82yldz7q0gsq6zy6"},{"txId":61641727,"txHash":"d0d8670fa0d72659ec81d0c6e53673a9cb0ae4fcd9d8054f316d38442a86f51b","txTime":"2023/02/09 08:42:01","block":8377074,"epoch":392,"slotNo":84365830,"epochSlotNo":385030,"stakeKey":"stake1uytmw9mgvujd9kzr3up92edjjrf30ty47cqnszc8gfe367gw5d2hr"},{"txId":61641710,"txHash":"ff20adc50ac52aad74231d96e677e2101df5e97c52569e4d40597cd710066b4b","txTime":"2023/02/09 08:41:43","block":8377073,"epoch":392,"slotNo":84365812,"epochSlotNo":385012,"stakeKey":"stake1ux5h95aggl89nrpsunv52wnsxlyd437pt3lz0l8u9yw6pwczh59jy"},{"txId":61641565,"txHash":"a77a7c2cdd990d78c332099100672b9f458adaa0bcdd512b378c5d273fc66da4","txTime":"2023/02/09 08:37:38","block":8377060,"epoch":392,"slotNo":84365567,"epochSlotNo":384767,"stakeKey":"stake1ux6xu03mwsnrlm2rmuadrcprtdd2x4tq5372jh8vnpqm3vgv34zvh"}],"totalItems":351832,"totalPages":17592,"currentPage":0}