{"data":[{"blockNo":8430753,"slotNo":85487529,"epochNo":395,"epochSlotNo":210729,"hash":"4a4ac41a2ca6944de271c5369cc928021ef6847dc9e695f05c618dfef70bd2db","time":"2023/02/22 08:17:00","txCount":0,"totalFees":0,"totalOutput":0,"slotLeader":"9138b6f09e8e69c29fdee4e11b147b7ad351aab23fc73a9976907f10"},{"blockNo":8430752,"slotNo":85487528,"epochNo":395,"epochSlotNo":210728,"hash":"e4002876fa9060a37403147ac16ef3fc32bb34377454a2eb35eb2bfe95c88264","time":"2023/02/22 08:16:59","txCount":1,"totalFees":338245,"totalOutput":116597174,"slotLeader":"7d45120fc9e82f8b69d886057d80630b721e8f033cb8e3f26621d7bd"},{"blockNo":8430751,"slotNo":85487520,"epochNo":395,"epochSlotNo":210720,"hash":"9e1306480c898c0f2165d1d10ab1f4f64aa6da7293815d0e4aff7169248a7dcf","time":"2023/02/22 08:16:51","txCount":5,"totalFees":3353597,"totalOutput":48263756429743,"slotLeader":"254b9f3ded998ff0b053d92081394f8ee40d7fdcd9e96ed490d19e2c"},{"blockNo":8430750,"slotNo":85487512,"epochNo":395,"epochSlotNo":210712,"hash":"76526636062105e0c748a592d38c72162bae0660e2c03a69907a537bef652ca5","time":"2023/02/22 08:16:43","txCount":4,"totalFees":1053616,"totalOutput":3260439769,"slotLeader":"9ca4378a7ee308d910efd7a611a1df2181314c25723ff4cfa855664c"},{"blockNo":8430749,"slotNo":85487497,"epochNo":395,"epochSlotNo":210697,"hash":"6ee2d9a5a8f28f7736a006697d5b15bfa673ae7151977021147ce1b1d0eb6f19","time":"2023/02/22 08:16:28","txCount":2,"totalFees":747589,"totalOutput":451814543,"slotLeader":"61d2598400211dcda6878511eb6d84719e5c502c7aa63d500f7a57ce"},{"blockNo":8430748,"slotNo":85487490,"epochNo":395,"epochSlotNo":210690,"hash":"f9d15b3f9daf5d4adf53aa3130a35b8e3dd6a658809662955585d0bf5b443f29","time":"2023/02/22 08:16:21","txCount":0,"totalFees":0,"totalOutput":0,"slotLeader":"3d82913d4c8da690aab6af622651f7a659da40af87dcb4b3b98ce830"},{"blockNo":8430747,"slotNo":85487487,"epochNo":395,"epochSlotNo":210687,"hash":"4628cf60a34744212fb3d13e70accaf4c70e422544cdcc2ba23ae8409f668398","time":"2023/02/22 08:16:18","txCount":0,"totalFees":0,"totalOutput":0,"slotLeader":"4a2aa209e00f2926bd0d8a286592bbdea4d35a593c05d41efe29e642"},{"blockNo":8430746,"slotNo":85487485,"epochNo":395,"epochSlotNo":210685,"hash":"3f17279a7fdc67545d0ca25388fbb61a3b951cbba06dc8359f292ff50f75ecd9","time":"2023/02/22 08:16:16","txCount":1,"totalFees":251345,"totalOutput":150426505,"slotLeader":"ffb3fe58689ae0d70d6fb939a842ee78ecfa10eab561274327e78b7b"},{"blockNo":8430745,"slotNo":85487477,"epochNo":395,"epochSlotNo":210677,"hash":"6447cfe9a1576568e3bc94af8bc5e084db629ecafd86b1efe8cffc8e78b6e712","time":"2023/02/22 08:16:08","txCount":3,"totalFees":1884697,"totalOutput":4001894033952,"slotLeader":"50a251d84927d932b9393cb462f300d215faedd5e8a5e791e869f32c"},{"blockNo":8430744,"slotNo":85487466,"epochNo":395,"epochSlotNo":210666,"hash":"7c6341fab87182b791c45ad7b9e8440d8d5894fda37d3e1ecb2de5d17167e59f","time":"2023/02/22 08:15:57","txCount":6,"totalFees":1879633,"totalOutput":28884434866501,"slotLeader":"65f3f975b5d6e8fabff2789e9d48bad257e3affedc2a396aa458c7eb"}],"totalItems":9993,"totalPages":1000,"currentPage":0}