{"data":[{"txId":53202780,"txHash":"682881c7439390e57953e2f454cab31c0d7d870bff31b0ff628e3623981e7c33","txTime":"2022/10/24 11:11:19","block":7924574,"epoch":371,"slotNo":75043588,"epochSlotNo":134788,"stakeKey":"stake1u939xswfvrm255l2f2qa2fss77cvupa38dzzy5zqq6ng7ts67d3an"},{"txId":53202168,"txHash":"5e835d15c883e61fc0ff883f037c7eee0afeccdaca7d4a1f85f6030c2609a19c","txTime":"2022/10/24 11:00:19","block":7924533,"epoch":371,"slotNo":75042928,"epochSlotNo":134128,"stakeKey":"stake1u8rf5n7emwxvu4gr3zcf3en93ytp62s3wft66s5xgfwt8yg9v9udh"},{"txId":53201427,"txHash":"3159ad0e9b0f4d02ebabf19ec3b9a2d9ba41cc04fce48923102968ce52e0c349","txTime":"2022/10/24 10:45:43","block":7924491,"epoch":371,"slotNo":75042052,"epochSlotNo":133252,"stakeKey":"stake1uxwj7q0s7z9lf4kpvfds5a993huesm0379r720pkx7hrkaqn8mn4e"},{"txId":53200915,"txHash":"9391864196adf2326645fa1c57cf58561f154e36e40511ab9806ca046eec3012","txTime":"2022/10/24 10:36:49","block":7924474,"epoch":371,"slotNo":75041518,"epochSlotNo":132718,"stakeKey":"stake1u8u9a7wx85e3jg0tn65jhwf3rklhe4hjklw35qz3069c4eqywsphr"},{"txId":53200804,"txHash":"e6c9a246f9e567c39847a30abf98f836f34b33e2c035ed1366b68c20cab19a48","txTime":"2022/10/24 10:34:12","block":7924468,"epoch":371,"slotNo":75041361,"epochSlotNo":132561,"stakeKey":"stake1u9f5d24nnfq88vh2pjwu3xfy2yupm2yz7fcam5mgufvgvqslprlyv"},{"txId":53200255,"txHash":"fc80736048b2c38831f850e7c9dd136cf6fc1afd3d310c846d47fa70d0a3ea21","txTime":"2022/10/24 10:22:27","block":7924437,"epoch":371,"slotNo":75040656,"epochSlotNo":131856,"stakeKey":"stake1u9cmdltfy2m5kk9qgjszhhs7ymx2eqrzzwev45vd6aumtusqcc2dr"},{"txId":53200024,"txHash":"bdf24244df54f5ebfad2a5a3aabbf6cbbfec7bc70d54b910f6329560b1e18094","txTime":"2022/10/24 10:18:25","block":7924426,"epoch":371,"slotNo":75040414,"epochSlotNo":131614,"stakeKey":"stake1uydzam2xevdc7k7myzvtnh6r7kveznsgxekr49qpa7kse5qt8ms5z"},{"txId":53199735,"txHash":"2117e142cb09b138a7a10522ae74af51ae68f3d44b9cdf13f902080463a03fc6","txTime":"2022/10/24 10:11:14","block":7924409,"epoch":371,"slotNo":75039983,"epochSlotNo":131183,"stakeKey":"stake1u9sf0g99tnj0ne52l456gpk7e7p6hxrm0pnl8wh0pn9wursa783j8"},{"txId":53199542,"txHash":"24364d8c3a20a9c5aca7898a43897810ea17e57fec58523f0c4ad469ab719889","txTime":"2022/10/24 10:07:27","block":7924400,"epoch":371,"slotNo":75039756,"epochSlotNo":130956,"stakeKey":"stake1uymx9ucrhv6hv6kcs3hvvetmsudn05e2maw65vcncjurzvgzpydcx"},{"txId":53198742,"txHash":"684d36f1ae9f13fdb617c7b98e155f894108643f11164e6c544459e5f5eef08d","txTime":"2022/10/24 09:51:46","block":7924342,"epoch":371,"slotNo":75038815,"epochSlotNo":130015,"stakeKey":"stake1ux0e69uej4x5pk4k53qythfemtj7v5dc8q0s94pzzv5vmmcwctaaw"},{"txId":53197530,"txHash":"e6dab14d98891ceae75cecd2793b4e699e251bf648e0c6bd82789cbb23218c3c","txTime":"2022/10/24 09:26:37","block":7924272,"epoch":371,"slotNo":75037306,"epochSlotNo":128506,"stakeKey":"stake1uyj04p3cm49dfuacsdqqu7gjqkfsckrm2a9kvhsc7cfyavgmzm7qg"},{"txId":53197434,"txHash":"047a61589df3fbd4d454f8f00ade1a47c55f5b3c32ea4fa2570782e387a783af","txTime":"2022/10/24 09:24:35","block":7924264,"epoch":371,"slotNo":75037184,"epochSlotNo":128384,"stakeKey":"stake1uyet3d5tpzjk0xr3xx99ht43zl0qljlgmxgdrn2zxek7mls3937lp"},{"txId":53196991,"txHash":"1c4bb1a185c71237643b2e3cf465a56965fc419398b5c00dc2c749f286fda52a","txTime":"2022/10/24 09:15:57","block":7924236,"epoch":371,"slotNo":75036666,"epochSlotNo":127866,"stakeKey":"stake1u8txq4sjjq332xpv20nge5rwn7kswxyestxmghwtta56qwgpj6hvm"},{"txId":53196501,"txHash":"94dd35ddd3d4ace54fb9feb4026e791ca8581f7fce506d29a97a7a4b26de9d2c","txTime":"2022/10/24 09:08:18","block":7924215,"epoch":371,"slotNo":75036207,"epochSlotNo":127407,"stakeKey":"stake1u9p2wnzzmx4pwkstmzx0f4wjmr35alac4x5jt9p956pk4tgsd46am"},{"txId":53196191,"txHash":"dea4fea38be792a7d7fcc58780f0d1a9f34f9c0dbbe507093479c4acda2c9510","txTime":"2022/10/24 09:02:05","block":7924195,"epoch":371,"slotNo":75035834,"epochSlotNo":127034,"stakeKey":"stake1u9t9g2wf3w8n4wvc6p6yrcw8nk2zttdrl7tp9e6srpwduyqr3zzx9"},{"txId":53195969,"txHash":"d43e9716c0447e828468acc612dfd0c640b2eb8383ea01f2a9dcde6bacfff089","txTime":"2022/10/24 08:58:00","block":7924183,"epoch":371,"slotNo":75035589,"epochSlotNo":126789,"stakeKey":"stake1uxz2sg4vujnh5tchlyruvxq67tmhr9ggnnnr4r0atl3suysmctj9c"},{"txId":53195538,"txHash":"38ed53089348336724627dfd4e6e5a9fb723402df4698a58bebd1e5dbb578c25","txTime":"2022/10/24 08:48:43","block":7924162,"epoch":371,"slotNo":75035032,"epochSlotNo":126232,"stakeKey":"stake1uyftdhxh06c8957gkkxsgvyzuc6pkl5276p0y99pllkcdycyemfgj"},{"txId":53195015,"txHash":"5a1954ae18f6c1ab857e17c5d2818bd2e3e8de1809fd1660c9784e4b3c8e5e66","txTime":"2022/10/24 08:37:07","block":7924131,"epoch":371,"slotNo":75034336,"epochSlotNo":125536,"stakeKey":"stake1u8h32y98m5rmfr5e5ll37dndzr3x8xm6vp5v984l27m9gaq7r7uzu"},{"txId":53193997,"txHash":"9108b4d577d5062e944a928722cd538c0f601a710bdd87cc23b6c44e907af7d3","txTime":"2022/10/24 08:13:59","block":7924063,"epoch":371,"slotNo":75032948,"epochSlotNo":124148,"stakeKey":"stake1ux6ue07dhwqxqrnrhg49xejxxej7ldym2q4hdcd52qvw28shed9j0"},{"txId":53193767,"txHash":"d9f3f63d9d92170c04853284a27a06820ffeae5381c868f41cab2fad34a7ccab","txTime":"2022/10/24 08:08:29","block":7924054,"epoch":371,"slotNo":75032618,"epochSlotNo":123818,"stakeKey":"stake1u8ed4cn4ver3w6r6dwdzlksksemf57y2u29c6y3985a4cpgydennr"}],"totalItems":322941,"totalPages":16148,"currentPage":0}