{"data":[{"hash":"15d0bfcd8d32b710c60e10ec511f3c2ab5e2e62b9eeaca29f83be2f7437110e0","blockNo":8297589,"blockHash":"c2b80fe0fb2a6dd24ace4e516a1dc9fecfecf720794a958c3b6207098ff5f9cf","epochNo":389,"epochSlotNo":33894,"slot":82718694,"time":"2023/01/21 07:09:45","addressesInput":["addr1q8j279c5avm2d2e34czrja6xzhsjq384jzlxx4y4xhujywm9j7448fg7dlzamy4nzlczhejsjptzu85t08hlwdpm8shq0uk3x2","addr1q8j279c5avm2d2e34czrja6xzhsjq384jzlxx4y4xhujywm9j7448fg7dlzamy4nzlczhejsjptzu85t08hlwdpm8shq0uk3x2","addr1zxgx3far7qygq0k6epa0zcvcvrevmn0ypsnfsue94nsn3tvpw288a4x0xf8pxgcntelxmyclq83s0ykeehchz2wtspks905plm"],"addressesOutput":["addr1q850yycpl8tnzyq92emdpnntd4ghsvmtm3w26cwzjae28nhwqhrwydhskax3nqpjphha750yv4znc8xetxq5uc48aygss6tn9j","addr1q9cwvremt6n320s2e3agq0jyq82yhrk3htsu0w426xnz5us70z4w0jgvcdkkynmm8wmds66jd9kusnjfpu6raw5fqp0sr07p5w","addr1qys0at9u8fh6djf0t224cxng7n3vffzrvduw935zmk48vnz6snqtnkjmm0af7u5svxxqw397q5qt8u8zp0vfye90qjuq3ckgck","addr1q8j279c5avm2d2e34czrja6xzhsjq384jzlxx4y4xhujywm9j7448fg7dlzamy4nzlczhejsjptzu85t08hlwdpm8shq0uk3x2","addr1q8j279c5avm2d2e34czrja6xzhsjq384jzlxx4y4xhujywm9j7448fg7dlzamy4nzlczhejsjptzu85t08hlwdpm8shq0uk3x2"],"fee":404592,"totalOutput":105290778,"tokens":[]},{"hash":"1889b6c30b3c29c4c2ebab6fd452cf3967a31409e8f8a1f85dd4e824fa52fb15","blockNo":8297589,"blockHash":"c2b80fe0fb2a6dd24ace4e516a1dc9fecfecf720794a958c3b6207098ff5f9cf","epochNo":389,"epochSlotNo":33894,"slot":82718694,"time":"2023/01/21 07:09:45","addressesInput":["addr1q84ehng25hdfau3wpdvsdmq600aw6fuftvd9z7wz7uggkg0tn0xs4fw6nmezuz6eqmkp57l6a5ncjkc629uu9acs3vssc3z3tt","addr1q84ehng25hdfau3wpdvsdmq600aw6fuftvd9z7wz7uggkg0tn0xs4fw6nmezuz6eqmkp57l6a5ncjkc629uu9acs3vssc3z3tt"],"addressesOutput":["addr1q84ehng25hdfau3wpdvsdmq600aw6fuftvd9z7wz7uggkg0tn0xs4fw6nmezuz6eqmkp57l6a5ncjkc629uu9acs3vssc3z3tt","addr1q84ehng25hdfau3wpdvsdmq600aw6fuftvd9z7wz7uggkg0tn0xs4fw6nmezuz6eqmkp57l6a5ncjkc629uu9acs3vssc3z3tt"],"fee":233854,"totalOutput":17054411621,"tokens":[]},{"hash":"867e0806898eb6060054b30529052b351dd845b1cab58d3162e300af284e6b6c","blockNo":8297589,"blockHash":"c2b80fe0fb2a6dd24ace4e516a1dc9fecfecf720794a958c3b6207098ff5f9cf","epochNo":389,"epochSlotNo":33894,"slot":82718694,"time":"2023/01/21 07:09:45","addressesInput":["DdzFFzCqrhsmjFurfqiii3VK1i69uzEYo1U9TCJgTZ54orVRajNGJJwtSnRVSmBfgjGHdSjiKBYTrLP1TbTHXQ4HHTdnFca79bQgyxZb"],"addressesOutput":["addr1v8vnqfj7p8mx9dnjx295yzc6eqath5tyktwjs38ffpwssfqfwyzgc","DdzFFzCqrhsuQV5ohP1EBh9d4UjmmWDb2Vui2s2SACSBDeEW74kHhp3zj9hvLFDb9mK7hRr7fbctu1UYatPaF1omXiXPwf12bn7DQvbT"],"fee":309381,"totalOutput":46998890619,"tokens":[]},{"hash":"2dcec274bbdfa805af8c68bd20c561a54bbaf0c15ecf580f87e701f1b8dd8ff5","blockNo":8297589,"blockHash":"c2b80fe0fb2a6dd24ace4e516a1dc9fecfecf720794a958c3b6207098ff5f9cf","epochNo":389,"epochSlotNo":33894,"slot":82718694,"time":"2023/01/21 07:09:45","addressesInput":["addr1z8snz7c4974vzdpxu65ruphl3zjdvtxw8strf2c2tmqnxz2j2c79gy9l76sdg0xwhd7r0c0kna0tycz4y5s6mlenh8pq0xmsha","addr1qyht4ja0zcn45qvyx477qlyp6j5ftu5ng0prt9608dxp6l2j2c79gy9l76sdg0xwhd7r0c0kna0tycz4y5s6mlenh8pq4jxtdy","addr1wxn9efv2f6w82hagxqtn62ju4m293tqvw0uhmdl64ch8uwc0h43gt","addr1qyht4ja0zcn45qvyx477qlyp6j5ftu5ng0prt9608dxp6l2j2c79gy9l76sdg0xwhd7r0c0kna0tycz4y5s6mlenh8pq4jxtdy"],"addressesOutput":["addr1qyht4ja0zcn45qvyx477qlyp6j5ftu5ng0prt9608dxp6l2j2c79gy9l76sdg0xwhd7r0c0kna0tycz4y5s6mlenh8pq4jxtdy","addr1qyht4ja0zcn45qvyx477qlyp6j5ftu5ng0prt9608dxp6l2j2c79gy9l76sdg0xwhd7r0c0kna0tycz4y5s6mlenh8pq4jxtdy","addr1qxq4qjnjhsngecpcuwrf98mpf6gv79vp0akgelvtmavcf9tqltyxm49h0dz63cktcvt8l83akd6lh4exz889glkj4xksnk35s9","addr1z8snz7c4974vzdpxu65ruphl3zjdvtxw8strf2c2tmqnxz2j2c79gy9l76sdg0xwhd7r0c0kna0tycz4y5s6mlenh8pq0xmsha"],"fee":831630,"totalOutput":4504293711720,"tokens":[]},{"hash":"9332cd03bd80eec5991e6f089af06e8a79df20dbc45d9ae871c405e29c54b510","blockNo":8297589,"blockHash":"c2b80fe0fb2a6dd24ace4e516a1dc9fecfecf720794a958c3b6207098ff5f9cf","epochNo":389,"epochSlotNo":33894,"slot":82718694,"time":"2023/01/21 07:09:45","addressesInput":["addr1qyht4ja0zcn45qvyx477qlyp6j5ftu5ng0prt9608dxp6l2j2c79gy9l76sdg0xwhd7r0c0kna0tycz4y5s6mlenh8pq4jxtdy","addr1qyht4ja0zcn45qvyx477qlyp6j5ftu5ng0prt9608dxp6l2j2c79gy9l76sdg0xwhd7r0c0kna0tycz4y5s6mlenh8pq4jxtdy","addr1wxn9efv2f6w82hagxqtn62ju4m293tqvw0uhmdl64ch8uwc0h43gt","addr1z8snz7c4974vzdpxu65ruphl3zjdvtxw8strf2c2tmqnxz2j2c79gy9l76sdg0xwhd7r0c0kna0tycz4y5s6mlenh8pq0xmsha"],"addressesOutput":["addr1qyht4ja0zcn45qvyx477qlyp6j5ftu5ng0prt9608dxp6l2j2c79gy9l76sdg0xwhd7r0c0kna0tycz4y5s6mlenh8pq4jxtdy","addr1qyht4ja0zcn45qvyx477qlyp6j5ftu5ng0prt9608dxp6l2j2c79gy9l76sdg0xwhd7r0c0kna0tycz4y5s6mlenh8pq4jxtdy","addr1q82sawf3aq5fx5zzdk44glx5yjst72szpgnqfvvwxmnxuf5awzmsz8nnx32m7mkrg0d49nl65gaxl8umm5mm4e5fac9sxz828w","addr1z8snz7c4974vzdpxu65ruphl3zjdvtxw8strf2c2tmqnxz2j2c79gy9l76sdg0xwhd7r0c0kna0tycz4y5s6mlenh8pq0xmsha"],"fee":823934,"totalOutput":18193680139058,"tokens":[]},{"hash":"32e04077c7a295620e60e194e5ab6290616f3dc3252b94d2d4766b759dd7b84a","blockNo":8297589,"blockHash":"c2b80fe0fb2a6dd24ace4e516a1dc9fecfecf720794a958c3b6207098ff5f9cf","epochNo":389,"epochSlotNo":33894,"slot":82718694,"time":"2023/01/21 07:09:45","addressesInput":["addr1qyht4ja0zcn45qvyx477qlyp6j5ftu5ng0prt9608dxp6l2j2c79gy9l76sdg0xwhd7r0c0kna0tycz4y5s6mlenh8pq4jxtdy","addr1z8snz7c4974vzdpxu65ruphl3zjdvtxw8strf2c2tmqnxz2j2c79gy9l76sdg0xwhd7r0c0kna0tycz4y5s6mlenh8pq0xmsha","addr1qyht4ja0zcn45qvyx477qlyp6j5ftu5ng0prt9608dxp6l2j2c79gy9l76sdg0xwhd7r0c0kna0tycz4y5s6mlenh8pq4jxtdy","addr1wxn9efv2f6w82hagxqtn62ju4m293tqvw0uhmdl64ch8uwc0h43gt"],"addressesOutput":["addr1qyht4ja0zcn45qvyx477qlyp6j5ftu5ng0prt9608dxp6l2j2c79gy9l76sdg0xwhd7r0c0kna0tycz4y5s6mlenh8pq4jxtdy","addr1qyht4ja0zcn45qvyx477qlyp6j5ftu5ng0prt9608dxp6l2j2c79gy9l76sdg0xwhd7r0c0kna0tycz4y5s6mlenh8pq4jxtdy","addr1q8dnetmelltmnpyjvtl4gvytqwmvqmkhe9x75z50aku694hr27t4sy2lcajjvsjdc88wy9vz8dnc4g5l8ytrx8h7kddszcrprr","addr1z8snz7c4974vzdpxu65ruphl3zjdvtxw8strf2c2tmqnxz2j2c79gy9l76sdg0xwhd7r0c0kna0tycz4y5s6mlenh8pq0xmsha"],"fee":824730,"totalOutput":1745614898074,"tokens":[]},{"hash":"df5b179e25754abda5feb70ba9e7b59e7e196ec82964733f1d51cf24bd9e467f","blockNo":8297589,"blockHash":"c2b80fe0fb2a6dd24ace4e516a1dc9fecfecf720794a958c3b6207098ff5f9cf","epochNo":389,"epochSlotNo":33894,"slot":82718694,"time":"2023/01/21 07:09:45","addressesInput":["addr1wx5ns2x5hfgsmdpclunwmx3fydjduw50pkulr3xdkjcasfgt06xh4"],"addressesOutput":["addr1qxg2qdhgssu8wcyrs76j04k3tkw4gpr7d89gt44lhlpn4sre9fjfjq7nlk3mefedhcu4g7ntf5t973jd7v7kw8vrwnnqz6hffm","addr1wx5ns2x5hfgsmdpclunwmx3fydjduw50pkulr3xdkjcasfgt06xh4"],"fee":180109,"totalOutput":9941260069,"tokens":[]},{"hash":"b7df395490ec5bed32391cedf8c44a1db9a2d8ce27e0b90a4f4474e0e4db2147","blockNo":8297589,"blockHash":"c2b80fe0fb2a6dd24ace4e516a1dc9fecfecf720794a958c3b6207098ff5f9cf","epochNo":389,"epochSlotNo":33894,"slot":82718694,"time":"2023/01/21 07:09:45","addressesInput":["addr1v8adw2u5gm6klh7jr2eye3wq6plnkeuhnj2zqrrmyfv4mqs0yst0c"],"addressesOutput":["addr1q8q9w9kxt2224kxn0v4jxjh092zmn02yd3dkqyy82f9y47kgwu23tk2mgpftw202gg6x604h80rkp3xwrkd5zuy34frsdg3j7a","addr1v8adw2u5gm6klh7jr2eye3wq6plnkeuhnj2zqrrmyfv4mqs0yst0c"],"fee":174100,"totalOutput":252007481281,"tokens":[]},{"hash":"b257285a9a93c4cffa09b644b1951f65964ebc424c89933b71db76676e3905e6","blockNo":8297589,"blockHash":"c2b80fe0fb2a6dd24ace4e516a1dc9fecfecf720794a958c3b6207098ff5f9cf","epochNo":389,"epochSlotNo":33894,"slot":82718694,"time":"2023/01/21 07:09:45","addressesInput":["addr1q8ffr2jttq2s0s5lqqnc6hg45u0gtt2xq56rh5yk48mkcmduh46t26ydnxvl5mwuzqre8x9w94377m0h7yf6rx7e30jq7fr3qn"],"addressesOutput":["addr1v9ywm0h3r8cnxrs04gfy7c3s2j44utjyvn5ldjdca0c2ltccgqdes","addr1q8ffr2jttq2s0s5lqqnc6hg45u0gtt2xq56rh5yk48mkcmduh46t26ydnxvl5mwuzqre8x9w94377m0h7yf6rx7e30jq7fr3qn"],"fee":175661,"totalOutput":41074824,"tokens":[]},{"hash":"1f0b3c5d516eef194046398833bf6605426ad09c67ce391642d3dabf128e978f","blockNo":8297589,"blockHash":"c2b80fe0fb2a6dd24ace4e516a1dc9fecfecf720794a958c3b6207098ff5f9cf","epochNo":389,"epochSlotNo":33894,"slot":82718694,"time":"2023/01/21 07:09:45","addressesInput":["addr1qxkmr0m22xeqludcg5rjdmecjxasu9fat0680qehtcsnftaadgykewa9ufvegeuca9yyq03d9v7ea2y2zthgu7hfgjtsddp6gr","addr1qxkmr0m22xeqludcg5rjdmecjxasu9fat0680qehtcsnftaadgykewa9ufvegeuca9yyq03d9v7ea2y2zthgu7hfgjtsddp6gr","addr1qxkmr0m22xeqludcg5rjdmecjxasu9fat0680qehtcsnftaadgykewa9ufvegeuca9yyq03d9v7ea2y2zthgu7hfgjtsddp6gr"],"addressesOutput":["addr1qxkmr0m22xeqludcg5rjdmecjxasu9fat0680qehtcsnftaadgykewa9ufvegeuca9yyq03d9v7ea2y2zthgu7hfgjtsddp6gr","addr1qylqplq0kxrnhsm2kjge0ytr239hlv66akga5a6njp0un2zzf45020en32cggklx80c2z3gperj2e55tzff6xtwz5laqqrlsul","addr1qxkmr0m22xeqludcg5rjdmecjxasu9fat0680qehtcsnftaadgykewa9ufvegeuca9yyq03d9v7ea2y2zthgu7hfgjtsddp6gr"],"fee":241049,"totalOutput":55243846927,"tokens":[]},{"hash":"01aed720a395af38aee3a917a0bf1c2a9b4af15196ed15e51cd38c7077ff9444","blockNo":8297589,"blockHash":"c2b80fe0fb2a6dd24ace4e516a1dc9fecfecf720794a958c3b6207098ff5f9cf","epochNo":389,"epochSlotNo":33894,"slot":82718694,"time":"2023/01/21 07:09:45","addressesInput":["addr1qxl4nl9950hm8n45j45wf4c4tj7z0gyz97408jjkun8ven73rrpfap7hhn362uth365krep5ursrwnq06s3d79uc6cuqjp608k"],"addressesOutput":["addr1vx6ax88zulftdy02ks3cavpn9w5mn98ektud25xn47xrvpsl7hx5q"],"fee":164225,"totalOutput":322153927,"tokens":[]},{"hash":"68620a38b1ad8595722a27eb047d18c977842bd20cb6f9d3bdab8ea30a2bc55d","blockNo":8297589,"blockHash":"c2b80fe0fb2a6dd24ace4e516a1dc9fecfecf720794a958c3b6207098ff5f9cf","epochNo":389,"epochSlotNo":33894,"slot":82718694,"time":"2023/01/21 07:09:45","addressesInput":["addr1qyjtdee6mwadlrjmyzajvd9qp80su69l98rz2vw2da3mzv0nrdt9n7w2g8fh3efl3me4ellpcj6lc4aunal0hsqm9u0qrz2puj","addr1qyjtdee6mwadlrjmyzajvd9qp80su69l98rz2vw2da3mzv0nrdt9n7w2g8fh3efl3me4ellpcj6lc4aunal0hsqm9u0qrz2puj","addr1qyjtdee6mwadlrjmyzajvd9qp80su69l98rz2vw2da3mzv0nrdt9n7w2g8fh3efl3me4ellpcj6lc4aunal0hsqm9u0qrz2puj","addr1qyjtdee6mwadlrjmyzajvd9qp80su69l98rz2vw2da3mzv0nrdt9n7w2g8fh3efl3me4ellpcj6lc4aunal0hsqm9u0qrz2puj"],"addressesOutput":["addr1zxgx3far7qygq0k6epa0zcvcvrevmn0ypsnfsue94nsn3tvpw288a4x0xf8pxgcntelxmyclq83s0ykeehchz2wtspks905plm","addr1qyjtdee6mwadlrjmyzajvd9qp80su69l98rz2vw2da3mzv0nrdt9n7w2g8fh3efl3me4ellpcj6lc4aunal0hsqm9u0qrz2puj"],"fee":225649,"totalOutput":87700258,"tokens":[]},{"hash":"e690a2ac2aa1b0858339702322d024da68890f857dff5e0a0a9882d43389fa0a","blockNo":8297589,"blockHash":"c2b80fe0fb2a6dd24ace4e516a1dc9fecfecf720794a958c3b6207098ff5f9cf","epochNo":389,"epochSlotNo":33894,"slot":82718694,"time":"2023/01/21 07:09:45","addressesInput":["addr1q9yj0qqrkuv0nskh3cc4vj02ry33cj0jqc30jvvz0fjqk9nklaj3yt4h0cuuh9rx45q033r38d0gvfk4xd4w3huuwpms3rcc8f","addr1q8rc4fqg8pgpn656m3zhrrltjnxurz5w9uaxfxxw0xwan0rklaj3yt4h0cuuh9rx45q033r38d0gvfk4xd4w3huuwpms8mkvay","addr1q8zmns5t957pvhul93skwczlfyxrn9fsgrx85994kq4kl6rklaj3yt4h0cuuh9rx45q033r38d0gvfk4xd4w3huuwpmsuwgnx2"],"addressesOutput":["addr1qxwvwelcrszrserpjsfp00m86tc2xl7quqfcavy4enje08x6s0qr3rpd6asg9nkkvywj79dfn66vjkprgpsm2na8fw8sh27way"],"fee":177513,"totalOutput":10048822487,"tokens":[]},{"hash":"edb353b6ee8492d17d515db043889ab338516de61a863cad1aa1035ec32b2eb9","blockNo":8297589,"blockHash":"c2b80fe0fb2a6dd24ace4e516a1dc9fecfecf720794a958c3b6207098ff5f9cf","epochNo":389,"epochSlotNo":33894,"slot":82718694,"time":"2023/01/21 07:09:45","addressesInput":["addr1qyxzk0p46kz7a8ugc28ev82gqwcz8u4p9xu37ajq9ywsxkn7ek64u5dqqfapqff4ng0g8xqdarqngwr5trhn99cj45askhk9rd","addr1qyxzk0p46kz7a8ugc28ev82gqwcz8u4p9xu37ajq9ywsxkn7ek64u5dqqfapqff4ng0g8xqdarqngwr5trhn99cj45askhk9rd","addr1qyxzk0p46kz7a8ugc28ev82gqwcz8u4p9xu37ajq9ywsxkn7ek64u5dqqfapqff4ng0g8xqdarqngwr5trhn99cj45askhk9rd","addr1qyxzk0p46kz7a8ugc28ev82gqwcz8u4p9xu37ajq9ywsxkn7ek64u5dqqfapqff4ng0g8xqdarqngwr5trhn99cj45askhk9rd","addr1qyxzk0p46kz7a8ugc28ev82gqwcz8u4p9xu37ajq9ywsxkn7ek64u5dqqfapqff4ng0g8xqdarqngwr5trhn99cj45askhk9rd","addr1qyxzk0p46kz7a8ugc28ev82gqwcz8u4p9xu37ajq9ywsxkn7ek64u5dqqfapqff4ng0g8xqdarqngwr5trhn99cj45askhk9rd","addr1qyxzk0p46kz7a8ugc28ev82gqwcz8u4p9xu37ajq9ywsxkn7ek64u5dqqfapqff4ng0g8xqdarqngwr5trhn99cj45askhk9rd","addr1qyxzk0p46kz7a8ugc28ev82gqwcz8u4p9xu37ajq9ywsxkn7ek64u5dqqfapqff4ng0g8xqdarqngwr5trhn99cj45askhk9rd","addr1qyxzk0p46kz7a8ugc28ev82gqwcz8u4p9xu37ajq9ywsxkn7ek64u5dqqfapqff4ng0g8xqdarqngwr5trhn99cj45askhk9rd","addr1zxgx3far7qygq0k6epa0zcvcvrevmn0ypsnfsue94nsn3tvpw288a4x0xf8pxgcntelxmyclq83s0ykeehchz2wtspks905plm","addr1qyxzk0p46kz7a8ugc28ev82gqwcz8u4p9xu37ajq9ywsxkn7ek64u5dqqfapqff4ng0g8xqdarqngwr5trhn99cj45askhk9rd","addr1qyxzk0p46kz7a8ugc28ev82gqwcz8u4p9xu37ajq9ywsxkn7ek64u5dqqfapqff4ng0g8xqdarqngwr5trhn99cj45askhk9rd","addr1qyxzk0p46kz7a8ugc28ev82gqwcz8u4p9xu37ajq9ywsxkn7ek64u5dqqfapqff4ng0g8xqdarqngwr5trhn99cj45askhk9rd","addr1qyxzk0p46kz7a8ugc28ev82gqwcz8u4p9xu37ajq9ywsxkn7ek64u5dqqfapqff4ng0g8xqdarqngwr5trhn99cj45askhk9rd","addr1qyxzk0p46kz7a8ugc28ev82gqwcz8u4p9xu37ajq9ywsxkn7ek64u5dqqfapqff4ng0g8xqdarqngwr5trhn99cj45askhk9rd","addr1qyxzk0p46kz7a8ugc28ev82gqwcz8u4p9xu37ajq9ywsxkn7ek64u5dqqfapqff4ng0g8xqdarqngwr5trhn99cj45askhk9rd","addr1qyxzk0p46kz7a8ugc28ev82gqwcz8u4p9xu37ajq9ywsxkn7ek64u5dqqfapqff4ng0g8xqdarqngwr5trhn99cj45askhk9rd","addr1qyxzk0p46kz7a8ugc28ev82gqwcz8u4p9xu37ajq9ywsxkn7ek64u5dqqfapqff4ng0g8xqdarqngwr5trhn99cj45askhk9rd"],"addressesOutput":["addr1q9c73u296x5eqwykrhr7ynluscjw9knegzgpzv857s6vtl48f6hqz2x89748umvmgs5hsnuhj6mhflnqd4pxwa5y52lqu2tufv","addr1q9cwvremt6n320s2e3agq0jyq82yhrk3htsu0w426xnz5us70z4w0jgvcdkkynmm8wmds66jd9kusnjfpu6raw5fqp0sr07p5w","addr1q9cf5lgmny0l5uyggx4wvd6fxgcuvmvlf5zrl3dd2zc73cp5xc9n98asmjps4s2zeeqhw4ye6esve9gykv3wjtlm042sx7382e","addr1qyxzk0p46kz7a8ugc28ev82gqwcz8u4p9xu37ajq9ywsxkn7ek64u5dqqfapqff4ng0g8xqdarqngwr5trhn99cj45askhk9rd","addr1qyxzk0p46kz7a8ugc28ev82gqwcz8u4p9xu37ajq9ywsxkn7ek64u5dqqfapqff4ng0g8xqdarqngwr5trhn99cj45askhk9rd","addr1qyxzk0p46kz7a8ugc28ev82gqwcz8u4p9xu37ajq9ywsxkn7ek64u5dqqfapqff4ng0g8xqdarqngwr5trhn99cj45askhk9rd"],"fee":582852,"totalOutput":602528246,"tokens":[]},{"hash":"e22918483d70c2caff3744884594abd441483530f86a3581cfd612fd80a7b093","blockNo":8297589,"blockHash":"c2b80fe0fb2a6dd24ace4e516a1dc9fecfecf720794a958c3b6207098ff5f9cf","epochNo":389,"epochSlotNo":33894,"slot":82718694,"time":"2023/01/21 07:09:45","addressesInput":["addr1qx2lezvvy89vyn466h6v8am3khh03dn46hmwku3evjv2efv4ljyccgw2cf8t4405c0mhrd0wlzm8t40kaderjeyc4jjssxpvz2","addr1qx2lezvvy89vyn466h6v8am3khh03dn46hmwku3evjv2efv4ljyccgw2cf8t4405c0mhrd0wlzm8t40kaderjeyc4jjssxpvz2"],"addressesOutput":["addr1qx2lezvvy89vyn466h6v8am3khh03dn46hmwku3evjv2efv4ljyccgw2cf8t4405c0mhrd0wlzm8t40kaderjeyc4jjssxpvz2","addr1qx2lezvvy89vyn466h6v8am3khh03dn46hmwku3evjv2efv4ljyccgw2cf8t4405c0mhrd0wlzm8t40kaderjeyc4jjssxpvz2"],"fee":233854,"totalOutput":21593654643,"tokens":[]},{"hash":"fb68723ee36af17d1f4719037e138cd87e19e0b75a737a445a5b9184df0d8aa9","blockNo":8297589,"blockHash":"c2b80fe0fb2a6dd24ace4e516a1dc9fecfecf720794a958c3b6207098ff5f9cf","epochNo":389,"epochSlotNo":33894,"slot":82718694,"time":"2023/01/21 07:09:45","addressesInput":["addr1zxgx3far7qygq0k6epa0zcvcvrevmn0ypsnfsue94nsn3tvpw288a4x0xf8pxgcntelxmyclq83s0ykeehchz2wtspks905plm","addr1q8hyfum7p04k0mc2ws4rd0ad89vc6jvusdc222ttc5eythfmyd7xzgxqkhpys377fmqzx624p4mwy0ujmhcu020zqx0q8grlzk"],"addressesOutput":["addr1q8hyfum7p04k0mc2ws4rd0ad89vc6jvusdc222ttc5eythfmyd7xzgxqkhpys377fmqzx624p4mwy0ujmhcu020zqx0q8grlzk","addr1q8hyfum7p04k0mc2ws4rd0ad89vc6jvusdc222ttc5eythfmyd7xzgxqkhpys377fmqzx624p4mwy0ujmhcu020zqx0q8grlzk"],"fee":263117,"totalOutput":257698402,"tokens":[]},{"hash":"2f56bc37f1c8bc3e8dd7207dfd14c2fcbf4f39583af3d906919ededc42af957d","blockNo":8297589,"blockHash":"c2b80fe0fb2a6dd24ace4e516a1dc9fecfecf720794a958c3b6207098ff5f9cf","epochNo":389,"epochSlotNo":33894,"slot":82718694,"time":"2023/01/21 07:09:45","addressesInput":["addr1wxr2a8htmzuhj39y2gq7ftkpxv98y2g67tg8zezthgq4jkg0a4ul4"],"addressesOutput":["addr1q836qf2vqzv57uc42rupyw039fsvnlfuaxumry25x9fwcg43hmpsthwgqxya4j9k9rhq4ha72fzu2wuyueuw6lkz846sde0a0x"],"fee":861396,"totalOutput":8507881653,"tokens":[]},{"hash":"f33a952b5e5627762922b5f921947df196f3ad0f0c71609ebd86820b373158da","blockNo":8297589,"blockHash":"c2b80fe0fb2a6dd24ace4e516a1dc9fecfecf720794a958c3b6207098ff5f9cf","epochNo":389,"epochSlotNo":33894,"slot":82718694,"time":"2023/01/21 07:09:45","addressesInput":["addr1wxdct40gvyv525zlq79wahkuhmgadjs3q5lkrclemxvlu3qyda7l2","addr1qxtjh0eh4qz0jrawnlhys4mtawrprnea5h85sdxlpnm3vrrsgr7rutut9wqjvus5ffkgjhwrgccfns7820jjgehrernqfdkfq5"],"addressesOutput":["addr1qxkmr0m22xeqludcg5rjdmecjxasu9fat0680qehtcsnftaadgykewa9ufvegeuca9yyq03d9v7ea2y2zthgu7hfgjtsddp6gr","addr1wxc45xspppp73takl93mq029905ptdfnmtgv6g7cr8pdyqgvks3s8","addr1qxtjh0eh4qz0jrawnlhys4mtawrprnea5h85sdxlpnm3vrrsgr7rutut9wqjvus5ffkgjhwrgccfns7820jjgehrernqfdkfq5"],"fee":363144,"totalOutput":79706128,"tokens":[]},{"hash":"aae07ec9cedcccb4b83796999e00f95be423c079805799923daf827c04dd067c","blockNo":8297589,"blockHash":"c2b80fe0fb2a6dd24ace4e516a1dc9fecfecf720794a958c3b6207098ff5f9cf","epochNo":389,"epochSlotNo":33894,"slot":82718694,"time":"2023/01/21 07:09:45","addressesInput":["addr1q9arhmx3t4dhn9zcajstts2txfyn4m2hmc9hsagldsuc7nc6z4eksd558s2eal4ent078adhzv3kegkfjpv2hr2tv9vseywcrz"],"addressesOutput":["addr1q9arhmx3t4dhn9zcajstts2txfyn4m2hmc9hsagldsuc7nc6z4eksd558s2eal4ent078adhzv3kegkfjpv2hr2tv9vseywcrz"],"fee":397100,"totalOutput":113037174863,"tokens":[]},{"hash":"2984c67cd732a60126cdbbd9b214d6cc91670137585c3ae57b59708f2faca5b5","blockNo":8297588,"blockHash":"66008599fcbdeea9b74230b5a58e4429c1a1e4a6015f1ab7f6d612314acf93d1","epochNo":389,"epochSlotNo":33873,"slot":82718673,"time":"2023/01/21 07:09:24","addressesInput":["addr1q904l96u4qfq36quqqaav8tm4r9nj45cwxldxzuj3w5gf0xk6upzvh2dge78ztxn0t9j02wu0c0wzuhd8spx8jn7y87q24tdzf","addr1q904l96u4qfq36quqqaav8tm4r9nj45cwxldxzuj3w5gf0xk6upzvh2dge78ztxn0t9j02wu0c0wzuhd8spx8jn7y87q24tdzf"],"addressesOutput":["DdzFFzCqrhseNXyna2SHmfvoj1sGUTX6N7De2Et1ugTBgcjscKuCuXdsxvVS34GCkUc684UUPysHZ4zXcm2j8D3Z5qbfsgodHUAn2eoH","addr1qyt5k3a9musy5edxa04j7a2qk8nyu5yrq3x39h3y9wejg2xk6upzvh2dge78ztxn0t9j02wu0c0wzuhd8spx8jn7y87qpvpaen","addr1qyt5k3a9musy5edxa04j7a2qk8nyu5yrq3x39h3y9wejg2xk6upzvh2dge78ztxn0t9j02wu0c0wzuhd8spx8jn7y87qpvpaen","addr1qyt5k3a9musy5edxa04j7a2qk8nyu5yrq3x39h3y9wejg2xk6upzvh2dge78ztxn0t9j02wu0c0wzuhd8spx8jn7y87qpvpaen","addr1qyt5k3a9musy5edxa04j7a2qk8nyu5yrq3x39h3y9wejg2xk6upzvh2dge78ztxn0t9j02wu0c0wzuhd8spx8jn7y87qpvpaen"],"fee":179317,"totalOutput":1839820683,"tokens":[]}],"totalItems":59459510,"totalPages":2972976,"currentPage":0}