{"data":[{"txId":56960122,"txHash":"8e7fb241522ad8408317f881a17dd0d60db8fcaecf2b202c88cb3fbc29f17f88","txTime":"2022/12/09 12:36:12","block":8117470,"epoch":380,"slotNo":79023081,"epochSlotNo":226281,"stakeKey":"stake1ux7cqagyu5tvw97nr62pq9a7z9yxjwq7rhm03y7j6hjzh7qu75eth"},{"txId":56960038,"txHash":"d2d6c96899ae9afc5185ca9b6b1831308a0c60a4e68d26bf141cb8033be61194","txTime":"2022/12/09 12:33:51","block":8117463,"epoch":380,"slotNo":79022940,"epochSlotNo":226140,"stakeKey":"stake1u9vgle0xk9z6knywtf0j8cdjspudeyt7c75csfw6a9l20rcrsdqfp"},{"txId":56960030,"txHash":"2aa2c3a5bcb0478eea15f29c7af3bebbdf05206ac7b2510e61d09cde5c1b70c7","txTime":"2022/12/09 12:33:51","block":8117463,"epoch":380,"slotNo":79022940,"epochSlotNo":226140,"stakeKey":"stake1u8u83yrqd4z2hmk56t2x0hk6mlujesglfyagk2qml6kuteg753y87"},{"txId":56959887,"txHash":"10d9583e69f8a4a0fd6ab84befaa6dc55697b7006cab6f9fbf38d236d2632cf4","txTime":"2022/12/09 12:29:53","block":8117451,"epoch":380,"slotNo":79022702,"epochSlotNo":225902,"stakeKey":"stake1ux7cqagyu5tvw97nr62pq9a7z9yxjwq7rhm03y7j6hjzh7qu75eth"},{"txId":56959562,"txHash":"c8cefea63cbc403554e4bf63528f2cf8f07aa5895ad7a620c0cca8120bf4a7e2","txTime":"2022/12/09 12:21:19","block":8117425,"epoch":380,"slotNo":79022188,"epochSlotNo":225388,"stakeKey":"stake1u9k5hwuac2v3fhsv3vglxneqajeh2awg90j8arddc7z56wqd3tud9"},{"txId":56959446,"txHash":"fe4a4f093d7354b72fe16a1733493f97cbfaf339171f61341ee4e7a4e6ca123c","txTime":"2022/12/09 12:18:11","block":8117413,"epoch":380,"slotNo":79022000,"epochSlotNo":225200,"stakeKey":"stake1u8x07wtwfz2z955xn6mm7phycesawynh4752dp3pn4zcj3spj4qrf"},{"txId":56959342,"txHash":"f1fe4e5646fc3195875a7935a8a5506fba08ade27eb120b39367bdf508a963ef","txTime":"2022/12/09 12:15:42","block":8117403,"epoch":380,"slotNo":79021851,"epochSlotNo":225051,"stakeKey":"stake1uy9sslevuevhprv4p4a80380qy5ukc6dwxah3h73a3whqngplt2dy"},{"txId":56958847,"txHash":"1970573ebb4e59ab378fdfe2d370081a10118d148a5a23d7f2ad719c35e54e9f","txTime":"2022/12/09 12:08:07","block":8117370,"epoch":380,"slotNo":79021396,"epochSlotNo":224596,"stakeKey":"stake1u9zk00uvjykcqt6ncqx5k6pmyp765m6d9l0nhhfh9cmcuvsmszvjf"},{"txId":56958768,"txHash":"e3e1d5328e7f24a1f726a2d3e56d0921457346aecbbbe8bd61edb7ee76d28a5e","txTime":"2022/12/09 12:04:39","block":8117362,"epoch":380,"slotNo":79021188,"epochSlotNo":224388,"stakeKey":"stake1uy5xzsvdguhjec3274vrnljvuert8acz5tvgm0y2a7xktxqwj3tpd"},{"txId":56957797,"txHash":"45704acad172975ea83aaee0bbfa87c7c44b316a15225a52f57bf95ff43bf64e","txTime":"2022/12/09 11:38:11","block":8117285,"epoch":380,"slotNo":79019600,"epochSlotNo":222800,"stakeKey":"stake1uxxpp4vc0dtkh3sywjt0q6wwkemwwczrgyemmypw6fqt59g6llpt7"},{"txId":56957619,"txHash":"6a3b720d88fa7558421582ee6d729bfb7aef07e5d624b58d91c866adae6ed9d4","txTime":"2022/12/09 11:33:08","block":8117272,"epoch":380,"slotNo":79019297,"epochSlotNo":222497,"stakeKey":"stake1u90sjhmh5yh4h2gnupycq6jgqhnuhksdau9x2sapuxc2lwc3pfjm7"},{"txId":56957393,"txHash":"f48a3bab8f373c55eb07c16dea78f09b3d75194e79493d55952cc7a55e6e73b0","txTime":"2022/12/09 11:26:18","block":8117259,"epoch":380,"slotNo":79018887,"epochSlotNo":222087,"stakeKey":"stake1u9jfkd4c5fm0c0g7stlypf2qd2u3qtcjhh0l9aegccyuj2sweear9"},{"txId":56957273,"txHash":"7fa1e3dd27e6eee0c9814b4b12e58e503aaa7b9ae5e1b57a87e3d5a967be7a56","txTime":"2022/12/09 11:23:13","block":8117253,"epoch":380,"slotNo":79018702,"epochSlotNo":221902,"stakeKey":"stake1u89q4mp4qqt0ulqd5v98yzynxt0mn6m90ua00ylah7adz0csjdjgg"},{"txId":56957205,"txHash":"3eec01d81df6aaeb608fbfbfc22f1b0b56b31a8725f5feac7410ba72a2329efa","txTime":"2022/12/09 11:20:31","block":8117245,"epoch":380,"slotNo":79018540,"epochSlotNo":221740,"stakeKey":"stake1uyungmkw4aenp442gjshllhl5l0t8qqqlv82uex6yyd2w3s34f0x2"},{"txId":56956996,"txHash":"632fb5cfb5d3cc895369c1a74d126af798be11ea1850f97d39cb9ed55602a22e","txTime":"2022/12/09 11:15:01","block":8117225,"epoch":380,"slotNo":79018210,"epochSlotNo":221410,"stakeKey":"stake1u8t0hheyhtqcwqmzx0tr8fcnj2ajqt7ykupksumd4ekqp0s7yemcm"},{"txId":56956951,"txHash":"f58e648bd2f1d73b29c5e71198e36f780f041812075aad3d0078ea04257f62a0","txTime":"2022/12/09 11:13:41","block":8117223,"epoch":380,"slotNo":79018130,"epochSlotNo":221330,"stakeKey":"stake1u9wpm03utmvw4aqgj6wgkrp8gxqw3sm4nph8rpp6dy7gykqajwm6p"},{"txId":56956723,"txHash":"287ed4ab35d354e069d93ab55c83d4db361b0dd51cfa50a431331efc9e53dd47","txTime":"2022/12/09 11:07:49","block":8117203,"epoch":380,"slotNo":79017778,"epochSlotNo":220978,"stakeKey":"stake1u9rmuknmfe9et66wsu77tck664ae5jan360nzxxcm3m50ks4hz2xz"},{"txId":56956670,"txHash":"2c8d0acea9db7214eec5a2646e43983fa7fea0a1cbeedd8b4f7c2bc8ce79f5d7","txTime":"2022/12/09 11:04:32","block":8117199,"epoch":380,"slotNo":79017581,"epochSlotNo":220781,"stakeKey":"stake1u8yc3rrxjt6zy2fjxzs5yspa8sdz97uult3szezzct4s70gafyr3u"},{"txId":56956308,"txHash":"5cd92b37444ae898e658f8c951ec3afdd6fb7e03762557a3acb5107c4f0e998e","txTime":"2022/12/09 10:54:58","block":8117161,"epoch":380,"slotNo":79017007,"epochSlotNo":220207,"stakeKey":"stake1u96am2vsye3mfnq7v2cf0k84gvrcnd9v3qnhstaej8r0d0g3gwvym"},{"txId":56956284,"txHash":"1ff3e22e4a0f1ba6a4c0d29acc162b27d571f329944ebc879f757c4b3a317ebf","txTime":"2022/12/09 10:54:04","block":8117160,"epoch":380,"slotNo":79016953,"epochSlotNo":220153,"stakeKey":"stake1u86lgc9mecy2cwvqa2pn33yz5xzau2dk8lg4v72xth58zcctcjfeq"}],"totalItems":335781,"totalPages":16790,"currentPage":0}