{"data":[{"hash":"8a68d57ca61aba5087a59e249fef5e9f96b189c5260c3dc18dddc7ea8223493a","blockNo":6802342,"blockHash":"1360f8d35c79ca961978769c7abe3e758beb91746c4cf4e21dd6eed86a240c32","epochNo":317,"epochSlotNo":22309,"slot":51603109,"time":"2022/01/26 03:56:40","addressesInput":["addr1q962xw7x9gj7jnz2634nqapmsnx3drwlndtf62zn8w5aavqzct6hhzl4nqu86ugzdmyj5fwwhc6g87g2a5qq7hrjts2qvjgn5a"],"addressesOutput":["addr1qyl49rzpc5enhjvc7xasnql5lckee4urhgq5d7cx7pvlnugzct6hhzl4nqu86ugzdmyj5fwwhc6g87g2a5qq7hrjts2qjjucgx"],"fee":172805,"totalOutput":7827195,"tokens":[]},{"hash":"764d59cfb1cdf4676e07ba516672f3c356f18f0d6426896c837daf22405ede07","blockNo":6802342,"blockHash":"1360f8d35c79ca961978769c7abe3e758beb91746c4cf4e21dd6eed86a240c32","epochNo":317,"epochSlotNo":22309,"slot":51603109,"time":"2022/01/26 03:56:40","addressesInput":["addr1qx8wuv5pheel683hgx45tktf6h0fdt29dwrd54253cwrx4q6qm7xcarxhx5zr963x7elnkfm5e95qgft3v4e9wt4rt8se2ywvv"],"addressesOutput":["addr1qx8wuv5pheel683hgx45tktf6h0fdt29dwrd54253cwrx4q6qm7xcarxhx5zr963x7elnkfm5e95qgft3v4e9wt4rt8se2ywvv","addr1qx8wuv5pheel683hgx45tktf6h0fdt29dwrd54253cwrx4q6qm7xcarxhx5zr963x7elnkfm5e95qgft3v4e9wt4rt8se2ywvv"],"fee":168317,"totalOutput":293208533,"tokens":[]},{"hash":"84b23ff3c07d44750daca0e5225fca53875f47a758f6ae1a57c2c7e845afbcbb","blockNo":6802342,"blockHash":"1360f8d35c79ca961978769c7abe3e758beb91746c4cf4e21dd6eed86a240c32","epochNo":317,"epochSlotNo":22309,"slot":51603109,"time":"2022/01/26 03:56:40","addressesInput":["addr1q8ely6l35mh0hzypd7y47m0vxfuatplp95uwxvxvz0w5vgaxrl3mlgy27c2jztvydae9pr3kx2jur3ruuw36l50plguq8pqfss","addr1q8ely6l35mh0hzypd7y47m0vxfuatplp95uwxvxvz0w5vgaxrl3mlgy27c2jztvydae9pr3kx2jur3ruuw36l50plguq8pqfss"],"addressesOutput":["addr1w999n67e86jn6xal07pzxtrmqynspgx0fwmcmpua4wc6yzsxpljz3","addr1q8ely6l35mh0hzypd7y47m0vxfuatplp95uwxvxvz0w5vgaxrl3mlgy27c2jztvydae9pr3kx2jur3ruuw36l50plguq8pqfss"],"fee":213495,"totalOutput":920927486,"tokens":[]},{"hash":"ab4fa4db2bedc09d750dd0734e3dfc9f7ee31b77d681ee77fad24f4647c3e1a9","blockNo":6802342,"blockHash":"1360f8d35c79ca961978769c7abe3e758beb91746c4cf4e21dd6eed86a240c32","epochNo":317,"epochSlotNo":22309,"slot":51603109,"time":"2022/01/26 03:56:40","addressesInput":["addr1q9xzc82lu3u7ugxgzzdgjk7jgnqgsnecueqdwsezpp302f7xzyvm9sjqq4dqs3rxmzj7ygyzxzr5mk54850pyvljx93sgqye7d"],"addressesOutput":["addr1w999n67e86jn6xal07pzxtrmqynspgx0fwmcmpua4wc6yzsxpljz3","addr1q9xzc82lu3u7ugxgzzdgjk7jgnqgsnecueqdwsezpp302f7xzyvm9sjqq4dqs3rxmzj7ygyzxzr5mk54850pyvljx93sgqye7d"],"fee":218583,"totalOutput":9845089,"tokens":[]},{"hash":"339bf637b6937a59df18d926e3e6982fa8c772e447f835ec7ab4dbdbe8dbdf3b","blockNo":6802342,"blockHash":"1360f8d35c79ca961978769c7abe3e758beb91746c4cf4e21dd6eed86a240c32","epochNo":317,"epochSlotNo":22309,"slot":51603109,"time":"2022/01/26 03:56:40","addressesInput":["addr1qxf6v6e5vx37ek05s2944u3c4rggvat57j6parqhq4phw8sek6lu3wac77akjmrmzvsd29jugr97elwkxx6vma9dmulsy5q5nm"],"addressesOutput":["addr1vyd9hx8rdvc2gnthjgvhvzn4nlm2qhek2tg8ffdt063mhnqpz6366","addr1q8lj00hzanvav2gdmhkj5cg2tr2xeetct9j2zj94x9rwpzsek6lu3wac77akjmrmzvsd29jugr97elwkxx6vma9dmulspwk5je"],"fee":167085,"totalOutput":7658658,"tokens":[]},{"hash":"b244ad2b7c2cbc534af77295867e52a2e33b97947ab31448f01e4442f1d89043","blockNo":6802342,"blockHash":"1360f8d35c79ca961978769c7abe3e758beb91746c4cf4e21dd6eed86a240c32","epochNo":317,"epochSlotNo":22309,"slot":51603109,"time":"2022/01/26 03:56:40","addressesInput":["addr1q8d0pk9k7m07qzyn8xeguhscylducwrl4l0v2x9cwfp7wlw7n2q608a6txuvdqmp0j3lpemmfp0rrf2nksc9jkvks6csd9xd24"],"addressesOutput":["addr1q88mv8ezs55wgg642q3wzqfhh85tqwmh73v3kgtplwx8nqz053hyrgg3rjqkegp33r0wsdz9e5askt744dapsdncxcqsg8mn38","addr1q8d0pk9k7m07qzyn8xeguhscylducwrl4l0v2x9cwfp7wlw7n2q608a6txuvdqmp0j3lpemmfp0rrf2nksc9jkvks6csd9xd24"],"fee":169329,"totalOutput":394995983836,"tokens":[]},{"hash":"d6e2c435663bce4340a137847849f2b567ad0856552b9a2811c4093519551a9e","blockNo":6802342,"blockHash":"1360f8d35c79ca961978769c7abe3e758beb91746c4cf4e21dd6eed86a240c32","epochNo":317,"epochSlotNo":22309,"slot":51603109,"time":"2022/01/26 03:56:40","addressesInput":["addr1q9u9yvy05ypy087gvgr8ezalqx8ff9jm4z3zknqj8htczg38r2enjjknhp3uwqc22urq92k520lknj7tuc66m9jmsxwqz5hmmz"],"addressesOutput":["addr1v9vkm0jz2tjf5a9q05fgzauuylsgxdahcsrm3ykel04amnckv7asl","addr1q8y2nyxw2h4umdfuean74trjuqnev8pmk623s6qykk2ax7f8r2enjjknhp3uwqc22urq92k520lknj7tuc66m9jmsxwqm0mmv8"],"fee":167085,"totalOutput":133898833,"tokens":[]},{"hash":"5c82d1fea8f92fa35a9c2e0b9edc3a2039a5febf4bbee04c96039b656889d207","blockNo":6802342,"blockHash":"1360f8d35c79ca961978769c7abe3e758beb91746c4cf4e21dd6eed86a240c32","epochNo":317,"epochSlotNo":22309,"slot":51603109,"time":"2022/01/26 03:56:40","addressesInput":["addr1qy6q2ys0ru04k8ky78n6q6akw9c2ld45gxpdy7xhy9kl7m84a8a2jphurrkljk6pnzwfh7w4z23es7q6cf4xt6k0qg6q0hvuac","addr1wy2mjh76em44qurn5x73nzqrxua7ataasftql0u2h6g88lc3gtgpz"],"addressesOutput":["addr1wy2mjh76em44qurn5x73nzqrxua7ataasftql0u2h6g88lc3gtgpz","addr1qy6q2ys0ru04k8ky78n6q6akw9c2ld45gxpdy7xhy9kl7m84a8a2jphurrkljk6pnzwfh7w4z23es7q6cf4xt6k0qg6q0hvuac"],"fee":522311,"totalOutput":2488294103,"tokens":[]},{"hash":"4e64865137bc60e8fa4e43b405aef2c212d1432f86c36b24103173a751296581","blockNo":6802342,"blockHash":"1360f8d35c79ca961978769c7abe3e758beb91746c4cf4e21dd6eed86a240c32","epochNo":317,"epochSlotNo":22309,"slot":51603109,"time":"2022/01/26 03:56:40","addressesInput":["addr1w999n67e86jn6xal07pzxtrmqynspgx0fwmcmpua4wc6yzsxpljz3","addr1q923t0vlz99lu2s5vnadqh50cxu976g9xqtuyscgczx7lgexd6j2a9adfh09essuum85y5kusy6dtm5q0mjk2f22ntasgrvt3z","addr1q923t0vlz99lu2s5vnadqh50cxu976g9xqtuyscgczx7lgexd6j2a9adfh09essuum85y5kusy6dtm5q0mjk2f22ntasgrvt3z"],"addressesOutput":["addr1q9cwvremt6n320s2e3agq0jyq82yhrk3htsu0w426xnz5us70z4w0jgvcdkkynmm8wmds66jd9kusnjfpu6raw5fqp0sr07p5w","addr1qxad5d6l9qvjqzc8fmxe6rm7zds9k4tdvrwjv9td4uzqm6wwqdtzgvu4mvvt2hr52s757kz07dvpqp3aqnzsekyf99wqqkzknc","addr1q87ze4t7dft47gja4z6n7rtv76j65fs266hzl43k0hgzpaan4km3a34w99ajlas65dvnvh7h6ewv595dfl7y5slmzfxsp00u20","addr1q923t0vlz99lu2s5vnadqh50cxu976g9xqtuyscgczx7lgexd6j2a9adfh09essuum85y5kusy6dtm5q0mjk2f22ntasgrvt3z","addr1q923t0vlz99lu2s5vnadqh50cxu976g9xqtuyscgczx7lgexd6j2a9adfh09essuum85y5kusy6dtm5q0mjk2f22ntasgrvt3z"],"fee":1059775,"totalOutput":585596810,"tokens":[]},{"hash":"7a21f32bfee60346abb9701039df0fc31a06d1beb425747047ba756ab899f051","blockNo":6802342,"blockHash":"1360f8d35c79ca961978769c7abe3e758beb91746c4cf4e21dd6eed86a240c32","epochNo":317,"epochSlotNo":22309,"slot":51603109,"time":"2022/01/26 03:56:40","addressesInput":["addr1qycgr7mjjjryqz756pfpg4dcqumrt3ylpw7ar3vnqqgp2zasdljze83khgzkzjhx542acfql8rama58wyrmmfmg7wc0sh4ymmy"],"addressesOutput":["addr1qyvsua2cz8k2svw7d0cel75c7ztcfxkm6kgxkzf0unzh5pm7mr8vnd35xx765m55vcadp9vcuhdaf4nqsnjllysjynmqt8v756","addr1qycgr7mjjjryqz756pfpg4dcqumrt3ylpw7ar3vnqqgp2zasdljze83khgzkzjhx542acfql8rama58wyrmmfmg7wc0sh4ymmy"],"fee":200217,"totalOutput":181777810,"tokens":[]},{"hash":"43b6ba45e00fd6d68131643c8a146f41393193afa513c8f3a77c1803a10da605","blockNo":6802342,"blockHash":"1360f8d35c79ca961978769c7abe3e758beb91746c4cf4e21dd6eed86a240c32","epochNo":317,"epochSlotNo":22309,"slot":51603109,"time":"2022/01/26 03:56:40","addressesInput":["addr1qx2z2xyz4cpteadvr4ey834kvr04gwe6767svjj6wzhtzepwsd8ptsmjmwjcs5lf5f0e96s5zcrk73k4hj06wjk5ggrs29rgz5","addr1qx2z2xyz4cpteadvr4ey834kvr04gwe6767svjj6wzhtzepwsd8ptsmjmwjcs5lf5f0e96s5zcrk73k4hj06wjk5ggrs29rgz5"],"addressesOutput":["addr1vyq89lwmpg4fzqt5qazcq3fflphv4rl0kyzh0j3xfe69naqd6zehs","addr1qx2z2xyz4cpteadvr4ey834kvr04gwe6767svjj6wzhtzepwsd8ptsmjmwjcs5lf5f0e96s5zcrk73k4hj06wjk5ggrs29rgz5","addr1qx2z2xyz4cpteadvr4ey834kvr04gwe6767svjj6wzhtzepwsd8ptsmjmwjcs5lf5f0e96s5zcrk73k4hj06wjk5ggrs29rgz5"],"fee":281397,"totalOutput":81781157,"tokens":[]},{"hash":"75d0597ddd597e5531cde0c629a791172eb487790e0c33e5db1f87a0a5acd403","blockNo":6802342,"blockHash":"1360f8d35c79ca961978769c7abe3e758beb91746c4cf4e21dd6eed86a240c32","epochNo":317,"epochSlotNo":22309,"slot":51603109,"time":"2022/01/26 03:56:40","addressesInput":["addr1q872ecxtn9djz53ra3f9jnucywum6n3sfmzxzyg2zjw7j9gxw8h3latptvpmm7p2h26puxrt66dupvxzmrnxgmfkyzas5dtm73","addr1q872ecxtn9djz53ra3f9jnucywum6n3sfmzxzyg2zjw7j9gxw8h3latptvpmm7p2h26puxrt66dupvxzmrnxgmfkyzas5dtm73","addr1q872ecxtn9djz53ra3f9jnucywum6n3sfmzxzyg2zjw7j9gxw8h3latptvpmm7p2h26puxrt66dupvxzmrnxgmfkyzas5dtm73"],"addressesOutput":["addr1wy2mjh76em44qurn5x73nzqrxua7ataasftql0u2h6g88lc3gtgpz","addr1q872ecxtn9djz53ra3f9jnucywum6n3sfmzxzyg2zjw7j9gxw8h3latptvpmm7p2h26puxrt66dupvxzmrnxgmfkyzas5dtm73"],"fee":189658,"totalOutput":10424164,"tokens":[]},{"hash":"8bc4fc808d6676c99cc2adde4396affff2e218a67f1a36cf0beb4183c48e9a29","blockNo":6802342,"blockHash":"1360f8d35c79ca961978769c7abe3e758beb91746c4cf4e21dd6eed86a240c32","epochNo":317,"epochSlotNo":22309,"slot":51603109,"time":"2022/01/26 03:56:40","addressesInput":["addr1q9d84rm6wcjn3872j483m3ex9lee43qx703ltdlk498g5xl9n7j3rjxzdnrlkpvpgfkcvcr0x9ydze7q76ygdafhdq8qwjmkge"],"addressesOutput":["addr1v977fzfexlefnv42lvyau3kkrxl8nkuxjpk67y4lrh2p47qrmus3z","addr1q9k7tpz2yvyxt90usrqqmmpfqe7m6t0rtveap7jwvk5e8n89n7j3rjxzdnrlkpvpgfkcvcr0x9ydze7q76ygdafhdq8qq5pmek"],"fee":167261,"totalOutput":23791904348,"tokens":[]},{"hash":"f7e539805ac2bc8446f63e3477a34e3861b446aa2c202a6f16839f8cae3bfce7","blockNo":6802342,"blockHash":"1360f8d35c79ca961978769c7abe3e758beb91746c4cf4e21dd6eed86a240c32","epochNo":317,"epochSlotNo":22309,"slot":51603109,"time":"2022/01/26 03:56:40","addressesInput":["addr1qyeqhtfwvzp3gc05e9pw67a65urr3ff2f4l4pzy44jwk8q2xgpyq5z3yjptegp9xkccdsexhn5hm2yghxhx9e643hymsvc77jl","addr1qyeqhtfwvzp3gc05e9pw67a65urr3ff2f4l4pzy44jwk8q2xgpyq5z3yjptegp9xkccdsexhn5hm2yghxhx9e643hymsvc77jl","addr1qyeqhtfwvzp3gc05e9pw67a65urr3ff2f4l4pzy44jwk8q2xgpyq5z3yjptegp9xkccdsexhn5hm2yghxhx9e643hymsvc77jl"],"addressesOutput":["addr1qy5hz8zh7rlqhce0fp0c6qx5x3llm54tlzp6tky4usjguxu7jsddu473ahnh6ct4l4hgxjefyc7sdw7gklu8dwehtndsd7txtg","addr1qyeqhtfwvzp3gc05e9pw67a65urr3ff2f4l4pzy44jwk8q2xgpyq5z3yjptegp9xkccdsexhn5hm2yghxhx9e643hymsvc77jl","addr1qyeqhtfwvzp3gc05e9pw67a65urr3ff2f4l4pzy44jwk8q2xgpyq5z3yjptegp9xkccdsexhn5hm2yghxhx9e643hymsvc77jl"],"fee":203781,"totalOutput":1849260462,"tokens":[]},{"hash":"eb1c88d8a7a46102f38269b1171cda4077b16389824cefce91fdc167c1f25a69","blockNo":6802342,"blockHash":"1360f8d35c79ca961978769c7abe3e758beb91746c4cf4e21dd6eed86a240c32","epochNo":317,"epochSlotNo":22309,"slot":51603109,"time":"2022/01/26 03:56:40","addressesInput":["addr1q8wqq7vz9w5l2n8zptvqxvegzy8mjhqs7q579pe4gt8vryh2zxs9mtwx7c7n2ump9aqt4p6y836tzeprzqjsra0zc58qh852lj","addr1q8wqq7vz9w5l2n8zptvqxvegzy8mjhqs7q579pe4gt8vryh2zxs9mtwx7c7n2ump9aqt4p6y836tzeprzqjsra0zc58qh852lj"],"addressesOutput":["addr1wxaptpmxcxawvr3pzlhgnpmzz3ql43n2tc8mn3av5kx0yzs09tqh8","addr1q8wqq7vz9w5l2n8zptvqxvegzy8mjhqs7q579pe4gt8vryh2zxs9mtwx7c7n2ump9aqt4p6y836tzeprzqjsra0zc58qh852lj"],"fee":220273,"totalOutput":98705411,"tokens":[]},{"hash":"69b6128a46b1f7954acd240b3dff8e8e1dfaf302800dc43f29613be82b14ccad","blockNo":6802342,"blockHash":"1360f8d35c79ca961978769c7abe3e758beb91746c4cf4e21dd6eed86a240c32","epochNo":317,"epochSlotNo":22309,"slot":51603109,"time":"2022/01/26 03:56:40","addressesInput":["addr1q8cah90srs4f89uptyxkxuuxr6eux0lmgswju3wd6nqdw3p0sfxek4z558q48jvgskmm2dxe8v0lujm0238n8whk0zgqu95x72","addr1q8tef3nray06vfuegqeq5vxru0kgzsgfdnhz79nrhmgv4re0sfxek4z558q48jvgskmm2dxe8v0lujm0238n8whk0zgq58djtn"],"addressesOutput":["addr1qyn3sc2v3dwcggjermw9n5ylcg32ntsfh8dy38r0v2ttqxqzhe806emjkey8x83t8fc3qw9k8a8ksvsjf7fxgywla97s69anf5"],"fee":212845,"totalOutput":16173483,"tokens":[]},{"hash":"14696277b7f4b55bd872f39996cd97da8efc07b78fe45a95f63dfb65b3fc2a21","blockNo":6802342,"blockHash":"1360f8d35c79ca961978769c7abe3e758beb91746c4cf4e21dd6eed86a240c32","epochNo":317,"epochSlotNo":22309,"slot":51603109,"time":"2022/01/26 03:56:40","addressesInput":["addr1q8dxlmkl38yvdmemm2uqfwdjm5hcnqjpatr8z3lw5kmxmqzkg5hhsjtxsk4vujzfyuyk005st2evmfjv059lwph53llqvfdw7y"],"addressesOutput":["addr1qyepf7ztrs424cqd66fta35jj0azkpu7z59w9xep0xhwpgj7ca60fkvk0f8qqy8hnc7jrw8wmtsj2s73pt6t8amujzess99rmu"],"fee":165413,"totalOutput":2834587,"tokens":[]},{"hash":"30bc70bf1d6b0851a66018ce2ac6bcd963b106e104e863eab1bfdbb32467664a","blockNo":6802342,"blockHash":"1360f8d35c79ca961978769c7abe3e758beb91746c4cf4e21dd6eed86a240c32","epochNo":317,"epochSlotNo":22309,"slot":51603109,"time":"2022/01/26 03:56:40","addressesInput":["addr1q9c0z2tc5kata4ms2rpv54nzzrzdtrvwfllgrsxgevdqwflrjdj8rtj9rpd53rfrxlstk3l5s9q9yt268grdd07auw0s23suqw","addr1qyg7hy0wdwxzc6lqg06tr9ffavh9ceqf9nxruwep7q4zxd0rjdj8rtj9rpd53rfrxlstk3l5s9q9yt268grdd07auw0shdcuza"],"addressesOutput":["addr1v9fh3m4lvvgnezrx5jzc6l3kcjpekmwl9e2daz35tglgm4c3ucj9m","addr1q9feh9c44r47s8fvlmpxrmzfw94j6furxc9k8nhnahln3hlrjdj8rtj9rpd53rfrxlstk3l5s9q9yt268grdd07auw0s4wvddr"],"fee":173113,"totalOutput":32317272,"tokens":[]},{"hash":"4e482fe40e549c411be511bbf00091dd8fc414a139887b3cbd51451492462555","blockNo":6802342,"blockHash":"1360f8d35c79ca961978769c7abe3e758beb91746c4cf4e21dd6eed86a240c32","epochNo":317,"epochSlotNo":22309,"slot":51603109,"time":"2022/01/26 03:56:40","addressesInput":["addr1q8u72th7pr4h58hm7tm5nvst4rqe7yfmsnm5k53prcz8wqaece55fm60rsdr8wzc96a0c0h84pcfk64cw03tuwjccw6qpnzhyd"],"addressesOutput":["addr1q8u72th7pr4h58hm7tm5nvst4rqe7yfmsnm5k53prcz8wqaece55fm60rsdr8wzc96a0c0h84pcfk64cw03tuwjccw6qpnzhyd"],"fee":397100,"totalOutput":25796720043,"tokens":[]},{"hash":"2983720bebc0e1a5d8ff1d4778002f107426a9087c28a35aa749a46c8fe0c0e7","blockNo":6802342,"blockHash":"1360f8d35c79ca961978769c7abe3e758beb91746c4cf4e21dd6eed86a240c32","epochNo":317,"epochSlotNo":22309,"slot":51603109,"time":"2022/01/26 03:56:40","addressesInput":["addr1qxwa8dgly3we2u8lsehtxl6ce47xefj5z6jf0mapsznk20uxsyjqgpvze2q5h40vk70edwj8qsa6cpgft23pfj2w7sssedx89a"],"addressesOutput":["addr1qyv7d825avgem9j7swusqhm5vncr76zmff4pymx4ruqre3t8qp0cfmlu4htqladlck2d3lsya0elsrwlaqu59suyntys9v4rrn"],"fee":194930,"totalOutput":2308130,"tokens":[]}],"totalItems":28526887,"totalPages":1426345,"currentPage":0}