{"data":[{"hash":"87a863c10f4ede30e39d818e0dc98de769087a5dc1d96a2151fc6a592e8f2307","blockNo":8377687,"blockHash":"cd647c1f58d8d3986ab9a8d82bf6f16bf22b12752291fdaf18238c01e9e3a2f7","epochNo":392,"epochSlotNo":397374,"slot":84378174,"time":"2023/02/09 12:07:45","addressesInput":["addr1qy8fetwxcl2qsmrl3jj9xdz5a87al99mket2kt80satg0uthuwth966tvyh2y4nu0ak3lcsyntqclfuj8v5unj6wnslqgef5rv","addr1qy8fetwxcl2qsmrl3jj9xdz5a87al99mket2kt80satg0uthuwth966tvyh2y4nu0ak3lcsyntqclfuj8v5unj6wnslqgef5rv","addr1qy8fetwxcl2qsmrl3jj9xdz5a87al99mket2kt80satg0uthuwth966tvyh2y4nu0ak3lcsyntqclfuj8v5unj6wnslqgef5rv"],"addressesOutput":["addr1qxrq6fudcdc4yqq899x489v3hpjdx0ywkmrjvmfqhgjxw43uxeyaxl3tn3gg4vjw52xsmtz7z8c034aey5trw2n0du4qztxx2v","addr1qy8fetwxcl2qsmrl3jj9xdz5a87al99mket2kt80satg0uthuwth966tvyh2y4nu0ak3lcsyntqclfuj8v5unj6wnslqgef5rv"],"fee":171485,"totalOutput":796781602,"tokens":[]},{"hash":"ed52d829d73d918c717b065d2b5adacd4abed7f9b93fdf3911203ff8c5d7bbe0","blockNo":8377687,"blockHash":"cd647c1f58d8d3986ab9a8d82bf6f16bf22b12752291fdaf18238c01e9e3a2f7","epochNo":392,"epochSlotNo":397374,"slot":84378174,"time":"2023/02/09 12:07:45","addressesInput":["addr1q9h3tdlyj7q7swnym2chxd6qduat4q0gm64ephugj7e6fw3gly2z8s87wjsps44kwzplz9up9sc28yk3y0ytjud064cs77rlqf","addr1q8sw65zcjqxzuz8dckj64qtl0x6e2fgx6ahr5la698dgq8pgly2z8s87wjsps44kwzplz9up9sc28yk3y0ytjud064csety0kt"],"addressesOutput":["addr1vyekhvptjemqyq7g5maf4055aesmf5nam9ln592cxz0z9eqxvz2kg","addr1q8sw65zcjqxzuz8dckj64qtl0x6e2fgx6ahr5la698dgq8pgly2z8s87wjsps44kwzplz9up9sc28yk3y0ytjud064csety0kt"],"fee":172849,"totalOutput":350153677,"tokens":[]},{"hash":"3c2d2ecd0bd3019a8a1b88363b49fd9f099ea5dd400618bf88108e897c56b0db","blockNo":8377687,"blockHash":"cd647c1f58d8d3986ab9a8d82bf6f16bf22b12752291fdaf18238c01e9e3a2f7","epochNo":392,"epochSlotNo":397374,"slot":84378174,"time":"2023/02/09 12:07:45","addressesInput":["addr1qx5cet78xpmv7wn30fg5g9ad9rskg994xfa9rgwcln4v7hytrhl9kaydlhzlqkdm7vtek7fclvvj4pdhpqda0vamd25qwqx84h","addr1qx5cet78xpmv7wn30fg5g9ad9rskg994xfa9rgwcln4v7hytrhl9kaydlhzlqkdm7vtek7fclvvj4pdhpqda0vamd25qwqx84h"],"addressesOutput":["addr1qx5jnmvky4a2065x3zcm5cmdzfcp9v5uct3m6u8z5hv8h7ltvpapyjkfnqv7axq0ngau89skq8pl6nmm0wy3pt3e98xq82gedg","addr1qx5cet78xpmv7wn30fg5g9ad9rskg994xfa9rgwcln4v7hytrhl9kaydlhzlqkdm7vtek7fclvvj4pdhpqda0vamd25qwqx84h","addr1qx5cet78xpmv7wn30fg5g9ad9rskg994xfa9rgwcln4v7hytrhl9kaydlhzlqkdm7vtek7fclvvj4pdhpqda0vamd25qwqx84h","addr1qx5cet78xpmv7wn30fg5g9ad9rskg994xfa9rgwcln4v7hytrhl9kaydlhzlqkdm7vtek7fclvvj4pdhpqda0vamd25qwqx84h","addr1qx5cet78xpmv7wn30fg5g9ad9rskg994xfa9rgwcln4v7hytrhl9kaydlhzlqkdm7vtek7fclvvj4pdhpqda0vamd25qwqx84h"],"fee":178481,"totalOutput":417400001,"tokens":[]},{"hash":"0e9ccef5f85e53c1490fde6864d1268d8b5eb6649224c53403f311251bf6d505","blockNo":8377687,"blockHash":"cd647c1f58d8d3986ab9a8d82bf6f16bf22b12752291fdaf18238c01e9e3a2f7","epochNo":392,"epochSlotNo":397374,"slot":84378174,"time":"2023/02/09 12:07:45","addressesInput":["addr1qx3qm8rswjytxd7wlc58kunuzes5vhc30lvlhwx8x23cx90fulxzw0jmegh7xhuzqhknpe62ccahtxmve8rn2lf7n7nq5un679","addr1qx0xssggtz8u3dm6ckff56f7u2qm5gy7julx65hvjytnsfhfulxzw0jmegh7xhuzqhknpe62ccahtxmve8rn2lf7n7nquh8jhs"],"addressesOutput":["addr1q8nz54lwnkl77r592a3vl8az4r623m20pcgsj8n67mxyx9nlhhr7cw08jf0kaz7se6nfd6dm8rsm2zgxatg9p4lluxmqgtra46","addr1q8k4qav5kg8k7qulw3d6nsc38ss9k4s434tgnd2mqsjscmhfulxzw0jmegh7xhuzqhknpe62ccahtxmve8rn2lf7n7nqfhv6qq","addr1q8k4qav5kg8k7qulw3d6nsc38ss9k4s434tgnd2mqsjscmhfulxzw0jmegh7xhuzqhknpe62ccahtxmve8rn2lf7n7nqfhv6qq","addr1q8k4qav5kg8k7qulw3d6nsc38ss9k4s434tgnd2mqsjscmhfulxzw0jmegh7xhuzqhknpe62ccahtxmve8rn2lf7n7nqfhv6qq","addr1q8k4qav5kg8k7qulw3d6nsc38ss9k4s434tgnd2mqsjscmhfulxzw0jmegh7xhuzqhknpe62ccahtxmve8rn2lf7n7nqfhv6qq","addr1q8k4qav5kg8k7qulw3d6nsc38ss9k4s434tgnd2mqsjscmhfulxzw0jmegh7xhuzqhknpe62ccahtxmve8rn2lf7n7nqfhv6qq"],"fee":203473,"totalOutput":106013425,"tokens":[]},{"hash":"f45e311dbaa51de0c4c3368b6f87addaa48649939d38fa3ff30884226d6e0dac","blockNo":8377687,"blockHash":"cd647c1f58d8d3986ab9a8d82bf6f16bf22b12752291fdaf18238c01e9e3a2f7","epochNo":392,"epochSlotNo":397374,"slot":84378174,"time":"2023/02/09 12:07:45","addressesInput":["addr1qye2ylm57q8efn4f7u458x0a0y7524reajuncu6u8eh4v4yqpyvpevk72y2k7rlrgy4jyc4yv46cqznu79hx987fq80sen2s27","addr1qye2ylm57q8efn4f7u458x0a0y7524reajuncu6u8eh4v4yqpyvpevk72y2k7rlrgy4jyc4yv46cqznu79hx987fq80sen2s27","addr1zxgx3far7qygq0k6epa0zcvcvrevmn0ypsnfsue94nsn3tvpw288a4x0xf8pxgcntelxmyclq83s0ykeehchz2wtspks905plm"],"addressesOutput":["addr1q82mp7m4w3wuuf4gu7d82qtj9x4ny0hfnga5s0av8ejenpuqpyvpevk72y2k7rlrgy4jyc4yv46cqznu79hx987fq80svh805p","addr1q82mp7m4w3wuuf4gu7d82qtj9x4ny0hfnga5s0av8ejenpuqpyvpevk72y2k7rlrgy4jyc4yv46cqznu79hx987fq80svh805p"],"fee":279581,"totalOutput":34650659,"tokens":[]},{"hash":"67016de4d5dac6a42502680be98a98780353fa5d43aa02334cb16a67ae9c2a81","blockNo":8377687,"blockHash":"cd647c1f58d8d3986ab9a8d82bf6f16bf22b12752291fdaf18238c01e9e3a2f7","epochNo":392,"epochSlotNo":397374,"slot":84378174,"time":"2023/02/09 12:07:45","addressesInput":["addr1zxgx3far7qygq0k6epa0zcvcvrevmn0ypsnfsue94nsn3tvpw288a4x0xf8pxgcntelxmyclq83s0ykeehchz2wtspks905plm","addr1qylmhhrfvlpn2rr66es4upynrsaqz7len498a6ttjslv8fatsl83p847l2v5fys0wyc8jgyem3mu5v4uvxug3hpshqnsxc9yup"],"addressesOutput":["addr1zxgx3far7qygq0k6epa0zcvcvrevmn0ypsnfsue94nsn3tvpw288a4x0xf8pxgcntelxmyclq83s0ykeehchz2wtspks905plm","addr1qylmhhrfvlpn2rr66es4upynrsaqz7len498a6ttjslv8fatsl83p847l2v5fys0wyc8jgyem3mu5v4uvxug3hpshqnsxc9yup"],"fee":314834,"totalOutput":143623636,"tokens":[]},{"hash":"04c25f8d90847061229ae9ee1112b8449c58add26c9d694ade62bd1da9ca1fd0","blockNo":8377687,"blockHash":"cd647c1f58d8d3986ab9a8d82bf6f16bf22b12752291fdaf18238c01e9e3a2f7","epochNo":392,"epochSlotNo":397374,"slot":84378174,"time":"2023/02/09 12:07:45","addressesInput":["addr1qykpw7y8k5zu9hc6tuvppusmxwvrk5prsqdj3lnavge3g7z6gj7lpyhah822r4yuzxka8hhzcmk5q3fslm98uy8c8jhs88lpt5","addr1qykpw7y8k5zu9hc6tuvppusmxwvrk5prsqdj3lnavge3g7z6gj7lpyhah822r4yuzxka8hhzcmk5q3fslm98uy8c8jhs88lpt5","addr1qykpw7y8k5zu9hc6tuvppusmxwvrk5prsqdj3lnavge3g7z6gj7lpyhah822r4yuzxka8hhzcmk5q3fslm98uy8c8jhs88lpt5","addr1qykpw7y8k5zu9hc6tuvppusmxwvrk5prsqdj3lnavge3g7z6gj7lpyhah822r4yuzxka8hhzcmk5q3fslm98uy8c8jhs88lpt5","addr1qykpw7y8k5zu9hc6tuvppusmxwvrk5prsqdj3lnavge3g7z6gj7lpyhah822r4yuzxka8hhzcmk5q3fslm98uy8c8jhs88lpt5","addr1qykpw7y8k5zu9hc6tuvppusmxwvrk5prsqdj3lnavge3g7z6gj7lpyhah822r4yuzxka8hhzcmk5q3fslm98uy8c8jhs88lpt5","addr1qykpw7y8k5zu9hc6tuvppusmxwvrk5prsqdj3lnavge3g7z6gj7lpyhah822r4yuzxka8hhzcmk5q3fslm98uy8c8jhs88lpt5","addr1qykpw7y8k5zu9hc6tuvppusmxwvrk5prsqdj3lnavge3g7z6gj7lpyhah822r4yuzxka8hhzcmk5q3fslm98uy8c8jhs88lpt5","addr1qykpw7y8k5zu9hc6tuvppusmxwvrk5prsqdj3lnavge3g7z6gj7lpyhah822r4yuzxka8hhzcmk5q3fslm98uy8c8jhs88lpt5","addr1qykpw7y8k5zu9hc6tuvppusmxwvrk5prsqdj3lnavge3g7z6gj7lpyhah822r4yuzxka8hhzcmk5q3fslm98uy8c8jhs88lpt5","addr1qykpw7y8k5zu9hc6tuvppusmxwvrk5prsqdj3lnavge3g7z6gj7lpyhah822r4yuzxka8hhzcmk5q3fslm98uy8c8jhs88lpt5"],"addressesOutput":["addr1vyekhvptjemqyq7g5maf4055aesmf5nam9ln592cxz0z9eqxvz2kg","addr1qykpw7y8k5zu9hc6tuvppusmxwvrk5prsqdj3lnavge3g7z6gj7lpyhah822r4yuzxka8hhzcmk5q3fslm98uy8c8jhs88lpt5","addr1qykpw7y8k5zu9hc6tuvppusmxwvrk5prsqdj3lnavge3g7z6gj7lpyhah822r4yuzxka8hhzcmk5q3fslm98uy8c8jhs88lpt5"],"fee":232029,"totalOutput":395313121,"tokens":[]},{"hash":"dbb567c4f186d92524d998ce531ecdd31b83f4ab7f889d14f6ae26ad67625806","blockNo":8377687,"blockHash":"cd647c1f58d8d3986ab9a8d82bf6f16bf22b12752291fdaf18238c01e9e3a2f7","epochNo":392,"epochSlotNo":397374,"slot":84378174,"time":"2023/02/09 12:07:45","addressesInput":["addr1q8ehvgrukq336qmpsl5e8u2gu34h9k93cvmexenrnnag4ua02e04ztzp6c74tp3j5n837lxuc4ql2e7g9pennpw28prqvveyj9","addr1q8ehvgrukq336qmpsl5e8u2gu34h9k93cvmexenrnnag4ua02e04ztzp6c74tp3j5n837lxuc4ql2e7g9pennpw28prqvveyj9","addr1q8ehvgrukq336qmpsl5e8u2gu34h9k93cvmexenrnnag4ua02e04ztzp6c74tp3j5n837lxuc4ql2e7g9pennpw28prqvveyj9"],"addressesOutput":["addr1qyg5yk36ee0rhl5hw5kxcfng5ygrsv55tuchs0nxjmh9uqmpmpaxya7n6kzmyy6f72st0akwx8zg5n6emrxa5mhywg9q3v23dv","addr1q8ehvgrukq336qmpsl5e8u2gu34h9k93cvmexenrnnag4ua02e04ztzp6c74tp3j5n837lxuc4ql2e7g9pennpw28prqvveyj9","addr1q8ehvgrukq336qmpsl5e8u2gu34h9k93cvmexenrnnag4ua02e04ztzp6c74tp3j5n837lxuc4ql2e7g9pennpw28prqvveyj9"],"fee":432801,"totalOutput":2082133175,"tokens":[]},{"hash":"b57e0eb9af7f3e651228e81723a1579c77a1cc4e1712fb2f631c4857f5da8cc3","blockNo":8377687,"blockHash":"cd647c1f58d8d3986ab9a8d82bf6f16bf22b12752291fdaf18238c01e9e3a2f7","epochNo":392,"epochSlotNo":397374,"slot":84378174,"time":"2023/02/09 12:07:45","addressesInput":["addr1vyekhvptjemqyq7g5maf4055aesmf5nam9ln592cxz0z9eqxvz2kg"],"addressesOutput":["addr1q9ely3mdtwpluxzvm7ett9w77j6vfx8wsz94zgjt8ukv3nunhgt35l5am4tn9zu48zy3889rk6tjjf4u43hk4r8ncrestdyssa"],"fee":171573,"totalOutput":129828427,"tokens":[]},{"hash":"14f73bbdd9e77a7fd5b7dac1a5c17ebb5847920d476941c5f80b924c0067fbbc","blockNo":8377687,"blockHash":"cd647c1f58d8d3986ab9a8d82bf6f16bf22b12752291fdaf18238c01e9e3a2f7","epochNo":392,"epochSlotNo":397374,"slot":84378174,"time":"2023/02/09 12:07:45","addressesInput":["addr1vyekhvptjemqyq7g5maf4055aesmf5nam9ln592cxz0z9eqxvz2kg"],"addressesOutput":["addr1qye488f4sfpzva7ydelh5xexq4k5wpehdrgfl69tl7ucxymzs4e7r2gsufjrp00npwwq6tlftz4l8eafl7jxedf2zfjqwxpr90","addr1q8f3kjsp6fqpty28cemdyenfwyjyl0z3cjttxp0a99ythwauu88l92fptc9rhlmalyq3p9nxwvfv8c5z0802ng2eem8s0vglqg","addr1v9gkkmn6fhf8skpqpge57y7ra4gwq98yvkllmwcelg4n09caxesu0"],"fee":233833,"totalOutput":129766167,"tokens":[]},{"hash":"8f543042460f36fbb08b3838078654f85e38ee805d08012a57d140235dfe872f","blockNo":8377687,"blockHash":"cd647c1f58d8d3986ab9a8d82bf6f16bf22b12752291fdaf18238c01e9e3a2f7","epochNo":392,"epochSlotNo":397374,"slot":84378174,"time":"2023/02/09 12:07:45","addressesInput":["addr1vyekhvptjemqyq7g5maf4055aesmf5nam9ln592cxz0z9eqxvz2kg"],"addressesOutput":["addr1q9m253p03k6zzzg8qqhtkh57zm29dmeh4pkv9dw0atvg7tzpdh0tdwkv9a6clgpwvraak56zrq09gmwelmxh0rpmdpcs3ha2wz","addr1q8f3kjsp6fqpty28cemdyenfwyjyl0z3cjttxp0a99ythwauu88l92fptc9rhlmalyq3p9nxwvfv8c5z0802ng2eem8s0vglqg","addr1v9gkkmn6fhf8skpqpge57y7ra4gwq98yvkllmwcelg4n09caxesu0"],"fee":270617,"totalOutput":259729383,"tokens":[]},{"hash":"cd61c5783fe71a1f68462e4c9dcf29861bcc45e1bcd2e125ff63c81bfaf6b331","blockNo":8377687,"blockHash":"cd647c1f58d8d3986ab9a8d82bf6f16bf22b12752291fdaf18238c01e9e3a2f7","epochNo":392,"epochSlotNo":397374,"slot":84378174,"time":"2023/02/09 12:07:45","addressesInput":["addr1vyekhvptjemqyq7g5maf4055aesmf5nam9ln592cxz0z9eqxvz2kg"],"addressesOutput":["addr1q89euntxnf3lv0r3gmd6vt0jlsv25a88ppaexunhlttj4aq8kup2yhkfp6ry03w0d687mm35rxszpgx0svydylc390sq7ree26","addr1q8f3kjsp6fqpty28cemdyenfwyjyl0z3cjttxp0a99ythwauu88l92fptc9rhlmalyq3p9nxwvfv8c5z0802ng2eem8s0vglqg","addr1v9gkkmn6fhf8skpqpge57y7ra4gwq98yvkllmwcelg4n09caxesu0"],"fee":233657,"totalOutput":129766343,"tokens":[]},{"hash":"5babf04248576f1584cc614f20f694e1a95621ee6edb71a5e6206eadcb55db71","blockNo":8377687,"blockHash":"cd647c1f58d8d3986ab9a8d82bf6f16bf22b12752291fdaf18238c01e9e3a2f7","epochNo":392,"epochSlotNo":397374,"slot":84378174,"time":"2023/02/09 12:07:45","addressesInput":["addr1vyekhvptjemqyq7g5maf4055aesmf5nam9ln592cxz0z9eqxvz2kg"],"addressesOutput":["addr1q95kyghr95ska5myyy2sptw8t8z7380xxalnu8fku53s3szqj4f5dmyr4qz5nz8hkvmh636kgjheuh5fpj7ptstk75wqccw58p","addr1q8f3kjsp6fqpty28cemdyenfwyjyl0z3cjttxp0a99ythwauu88l92fptc9rhlmalyq3p9nxwvfv8c5z0802ng2eem8s0vglqg","addr1v9gkkmn6fhf8skpqpge57y7ra4gwq98yvkllmwcelg4n09caxesu0"],"fee":271585,"totalOutput":259728415,"tokens":[]},{"hash":"b8bfcbaa7e487e15b1a03ba340e871c4398a87d92644da7a84268a9f818d0315","blockNo":8377687,"blockHash":"cd647c1f58d8d3986ab9a8d82bf6f16bf22b12752291fdaf18238c01e9e3a2f7","epochNo":392,"epochSlotNo":397374,"slot":84378174,"time":"2023/02/09 12:07:45","addressesInput":["addr1vyekhvptjemqyq7g5maf4055aesmf5nam9ln592cxz0z9eqxvz2kg"],"addressesOutput":["addr1qyxwqlr2mgge2264gfts0r6f3yzftjfk0ukgtzvhmn9qfu908pp9gkca6mpu8sey6z6flk0cl4sfh9gtyv32ll0v0gdq84jlsf","addr1q8f3kjsp6fqpty28cemdyenfwyjyl0z3cjttxp0a99ythwauu88l92fptc9rhlmalyq3p9nxwvfv8c5z0802ng2eem8s0vglqg","addr1v9gkkmn6fhf8skpqpge57y7ra4gwq98yvkllmwcelg4n09caxesu0"],"fee":270925,"totalOutput":259729075,"tokens":[]},{"hash":"d010180b7ae5ca96b0d1f985dc292d963c154c78f696c57e06fc6c11e3acc916","blockNo":8377687,"blockHash":"cd647c1f58d8d3986ab9a8d82bf6f16bf22b12752291fdaf18238c01e9e3a2f7","epochNo":392,"epochSlotNo":397374,"slot":84378174,"time":"2023/02/09 12:07:45","addressesInput":["addr1vyekhvptjemqyq7g5maf4055aesmf5nam9ln592cxz0z9eqxvz2kg"],"addressesOutput":["addr1q9qcxea968ptsgwj0hl66rs8emj6qnkqajyp85tm40ueywxgjsnu57rse6tnqh2deywagmralyzmcx0gc7e7382ntx3shg4fsp","addr1q8f3kjsp6fqpty28cemdyenfwyjyl0z3cjttxp0a99ythwauu88l92fptc9rhlmalyq3p9nxwvfv8c5z0802ng2eem8s0vglqg","addr1v9gkkmn6fhf8skpqpge57y7ra4gwq98yvkllmwcelg4n09caxesu0"],"fee":233569,"totalOutput":129766431,"tokens":[]},{"hash":"effcbad778f8f2c8bdc810a81dcae2efdcf4be881f2e310d8fea8dbc3fa38b7e","blockNo":8377687,"blockHash":"cd647c1f58d8d3986ab9a8d82bf6f16bf22b12752291fdaf18238c01e9e3a2f7","epochNo":392,"epochSlotNo":397374,"slot":84378174,"time":"2023/02/09 12:07:45","addressesInput":["addr1vyekhvptjemqyq7g5maf4055aesmf5nam9ln592cxz0z9eqxvz2kg"],"addressesOutput":["addr1qyy374zuy9nlpt2j6enx2w77vs7hgnxl6rj2ls5av3npyt5y0fx408cwrh0nuvsrrxwfhagt262fvvpjfwvl6xas5wwqspxtee","addr1q8f3kjsp6fqpty28cemdyenfwyjyl0z3cjttxp0a99ythwauu88l92fptc9rhlmalyq3p9nxwvfv8c5z0802ng2eem8s0vglqg","addr1v9gkkmn6fhf8skpqpge57y7ra4gwq98yvkllmwcelg4n09caxesu0"],"fee":235901,"totalOutput":129764099,"tokens":[]},{"hash":"49fe0cbcea53c6cae8fa73233916fe3b7488fe88b305200ff103bc3b8950456e","blockNo":8377687,"blockHash":"cd647c1f58d8d3986ab9a8d82bf6f16bf22b12752291fdaf18238c01e9e3a2f7","epochNo":392,"epochSlotNo":397374,"slot":84378174,"time":"2023/02/09 12:07:45","addressesInput":["addr1qyas200xtzqp0vnncay9544pdp668l7qqsl7wvhd688z3malpk7wp4qwv27wf3t0uvqmfmvlk6lphfhkzlmdve7dn8mqxcwkzj","addr1w8cvzcnclvkua25vx26j72pddatuedsxspm62mr63urs0fctuuzfv"],"addressesOutput":["addr1qyas200xtzqp0vnncay9544pdp668l7qqsl7wvhd688z3malpk7wp4qwv27wf3t0uvqmfmvlk6lphfhkzlmdve7dn8mqxcwkzj","addr1w8cvzcnclvkua25vx26j72pddatuedsxspm62mr63urs0fctuuzfv"],"fee":217241,"totalOutput":141243780,"tokens":[]},{"hash":"cf76bcc892163323e9331578097008efdf73b7513a08dbe543e1be25ea656b15","blockNo":8377687,"blockHash":"cd647c1f58d8d3986ab9a8d82bf6f16bf22b12752291fdaf18238c01e9e3a2f7","epochNo":392,"epochSlotNo":397374,"slot":84378174,"time":"2023/02/09 12:07:45","addressesInput":["addr1wxn9efv2f6w82hagxqtn62ju4m293tqvw0uhmdl64ch8uwc0h43gt","addr1z8snz7c4974vzdpxu65ruphl3zjdvtxw8strf2c2tmqnxz2j2c79gy9l76sdg0xwhd7r0c0kna0tycz4y5s6mlenh8pq0xmsha","addr1qyht4ja0zcn45qvyx477qlyp6j5ftu5ng0prt9608dxp6l2j2c79gy9l76sdg0xwhd7r0c0kna0tycz4y5s6mlenh8pq4jxtdy","addr1qyht4ja0zcn45qvyx477qlyp6j5ftu5ng0prt9608dxp6l2j2c79gy9l76sdg0xwhd7r0c0kna0tycz4y5s6mlenh8pq4jxtdy"],"addressesOutput":["addr1qyht4ja0zcn45qvyx477qlyp6j5ftu5ng0prt9608dxp6l2j2c79gy9l76sdg0xwhd7r0c0kna0tycz4y5s6mlenh8pq4jxtdy","addr1qyht4ja0zcn45qvyx477qlyp6j5ftu5ng0prt9608dxp6l2j2c79gy9l76sdg0xwhd7r0c0kna0tycz4y5s6mlenh8pq4jxtdy","addr1q9jqkvs07qtpetgp55gp5vfsjy9vhy7w7eyzrfyvwjnee3rg4lkl4lzw3278g762x29xdwztvy72rgpaghhldyewzwxq4vhgyr","addr1z8snz7c4974vzdpxu65ruphl3zjdvtxw8strf2c2tmqnxz2j2c79gy9l76sdg0xwhd7r0c0kna0tycz4y5s6mlenh8pq0xmsha"],"fee":828018,"totalOutput":676689427,"tokens":[]},{"hash":"1b8316389ddb281c8b4275595995afa6ead4392d429c0d67071a9845868c153b","blockNo":8377687,"blockHash":"cd647c1f58d8d3986ab9a8d82bf6f16bf22b12752291fdaf18238c01e9e3a2f7","epochNo":392,"epochSlotNo":397374,"slot":84378174,"time":"2023/02/09 12:07:45","addressesInput":["addr1wxn9efv2f6w82hagxqtn62ju4m293tqvw0uhmdl64ch8uwc0h43gt","addr1z8snz7c4974vzdpxu65ruphl3zjdvtxw8strf2c2tmqnxz2j2c79gy9l76sdg0xwhd7r0c0kna0tycz4y5s6mlenh8pq0xmsha","addr1qyht4ja0zcn45qvyx477qlyp6j5ftu5ng0prt9608dxp6l2j2c79gy9l76sdg0xwhd7r0c0kna0tycz4y5s6mlenh8pq4jxtdy","addr1qyht4ja0zcn45qvyx477qlyp6j5ftu5ng0prt9608dxp6l2j2c79gy9l76sdg0xwhd7r0c0kna0tycz4y5s6mlenh8pq4jxtdy"],"addressesOutput":["addr1qyht4ja0zcn45qvyx477qlyp6j5ftu5ng0prt9608dxp6l2j2c79gy9l76sdg0xwhd7r0c0kna0tycz4y5s6mlenh8pq4jxtdy","addr1qyht4ja0zcn45qvyx477qlyp6j5ftu5ng0prt9608dxp6l2j2c79gy9l76sdg0xwhd7r0c0kna0tycz4y5s6mlenh8pq4jxtdy","addr1qx40kyvkgdxtsdladusny09r0vczmlmrsl52sjel528674jj2c79gy9l76sdg0xwhd7r0c0kna0tycz4y5s6mlenh8pqg82qtn","addr1z8snz7c4974vzdpxu65ruphl3zjdvtxw8strf2c2tmqnxz2j2c79gy9l76sdg0xwhd7r0c0kna0tycz4y5s6mlenh8pq0xmsha"],"fee":815893,"totalOutput":906271450826,"tokens":[]},{"hash":"72539c29ab20fa57fb6c4f67d54043db5ea724c464a8ed27c55d795925204ede","blockNo":8377687,"blockHash":"cd647c1f58d8d3986ab9a8d82bf6f16bf22b12752291fdaf18238c01e9e3a2f7","epochNo":392,"epochSlotNo":397374,"slot":84378174,"time":"2023/02/09 12:07:45","addressesInput":["addr1wxn9efv2f6w82hagxqtn62ju4m293tqvw0uhmdl64ch8uwc0h43gt","addr1qyht4ja0zcn45qvyx477qlyp6j5ftu5ng0prt9608dxp6l2j2c79gy9l76sdg0xwhd7r0c0kna0tycz4y5s6mlenh8pq4jxtdy","addr1z8snz7c4974vzdpxu65ruphl3zjdvtxw8strf2c2tmqnxz2j2c79gy9l76sdg0xwhd7r0c0kna0tycz4y5s6mlenh8pq0xmsha","addr1qyht4ja0zcn45qvyx477qlyp6j5ftu5ng0prt9608dxp6l2j2c79gy9l76sdg0xwhd7r0c0kna0tycz4y5s6mlenh8pq4jxtdy"],"addressesOutput":["addr1qyht4ja0zcn45qvyx477qlyp6j5ftu5ng0prt9608dxp6l2j2c79gy9l76sdg0xwhd7r0c0kna0tycz4y5s6mlenh8pq4jxtdy","addr1qyht4ja0zcn45qvyx477qlyp6j5ftu5ng0prt9608dxp6l2j2c79gy9l76sdg0xwhd7r0c0kna0tycz4y5s6mlenh8pq4jxtdy","addr1qx40kyvkgdxtsdladusny09r0vczmlmrsl52sjel528674jj2c79gy9l76sdg0xwhd7r0c0kna0tycz4y5s6mlenh8pqg82qtn","addr1z8snz7c4974vzdpxu65ruphl3zjdvtxw8strf2c2tmqnxz2j2c79gy9l76sdg0xwhd7r0c0kna0tycz4y5s6mlenh8pq0xmsha"],"fee":974212,"totalOutput":19271046745409,"tokens":[]}],"totalItems":60912326,"totalPages":3045617,"currentPage":0}