{"data":[{"no":387,"status":"SYNCING","blkCount":8296,"outSum":24823970580388834,"txCount":164226,"startTime":"2023/01/10 21:46:08","endTime":"2023/01/12 20:55:22","maxSlot":432000},{"no":386,"status":"FINISHED","blkCount":20893,"outSum":53435171650788176,"txCount":428509,"startTime":"2023/01/05 21:44:51","endTime":"2023/01/10 21:44:22","maxSlot":432000},{"no":385,"status":"FINISHED","blkCount":21174,"outSum":46236384154634244,"txCount":360365,"startTime":"2022/12/31 21:44:55","endTime":"2023/01/05 21:44:42","maxSlot":432000},{"no":384,"status":"FINISHED","blkCount":20998,"outSum":43353179952722832,"txCount":330287,"startTime":"2022/12/26 21:45:28","endTime":"2022/12/31 21:43:57","maxSlot":432000},{"no":383,"status":"FINISHED","blkCount":20917,"outSum":38696021442134029,"txCount":315814,"startTime":"2022/12/21 21:45:35","endTime":"2022/12/26 21:44:46","maxSlot":432000},{"no":382,"status":"FINISHED","blkCount":21186,"outSum":47645950459495732,"txCount":364530,"startTime":"2022/12/16 21:46:16","endTime":"2022/12/21 21:44:40","maxSlot":432000},{"no":381,"status":"FINISHED","blkCount":20976,"outSum":50719861031527086,"txCount":418468,"startTime":"2022/12/11 21:51:19","endTime":"2022/12/16 21:44:04","maxSlot":432000},{"no":380,"status":"FINISHED","blkCount":21270,"outSum":48309292267597435,"txCount":331323,"startTime":"2022/12/06 21:45:07","endTime":"2022/12/11 21:44:45","maxSlot":432000},{"no":379,"status":"FINISHED","blkCount":20948,"outSum":64897975428998694,"txCount":338491,"startTime":"2022/12/01 21:45:29","endTime":"2022/12/06 21:43:55","maxSlot":432000},{"no":378,"status":"FINISHED","blkCount":21006,"outSum":58501201469563183,"txCount":341268,"startTime":"2022/11/26 21:45:36","endTime":"2022/12/01 21:43:59","maxSlot":432000}],"totalItems":388,"totalPages":39,"currentPage":0}