{"data":[{"hash":"35e8757f6417628442e7f434c1a5c3726e2612511234c1c122c558205bf51b0d","blockNo":8363662,"blockHash":"38669485c5b0bd37abaac3da992abfadaec4a95db2e8364ba0067ed9bf518ff5","epochNo":392,"epochSlotNo":104701,"slot":84085501,"time":"2023/02/06 02:49:52","addressesInput":["addr1q9vj9w32w77p47ca725hantcf5nrzcex66vqq58kqm4l04y6hn99676mvdj6qvd34vfqh3jx6vy8tyfkuy6u3xcghq8sex2gzq","addr1q9vj9w32w77p47ca725hantcf5nrzcex66vqq58kqm4l04y6hn99676mvdj6qvd34vfqh3jx6vy8tyfkuy6u3xcghq8sex2gzq"],"addressesOutput":["addr1zxgx3far7qygq0k6epa0zcvcvrevmn0ypsnfsue94nsn3tvpw288a4x0xf8pxgcntelxmyclq83s0ykeehchz2wtspks905plm","addr1q9vj9w32w77p47ca725hantcf5nrzcex66vqq58kqm4l04y6hn99676mvdj6qvd34vfqh3jx6vy8tyfkuy6u3xcghq8sex2gzq","addr1q9vj9w32w77p47ca725hantcf5nrzcex66vqq58kqm4l04y6hn99676mvdj6qvd34vfqh3jx6vy8tyfkuy6u3xcghq8sex2gzq"],"fee":247121,"totalOutput":9607648,"tokens":[]},{"hash":"40d10d57b553c23732942c8b8ce1389ce599215dfd2d288819cd751f58ca9072","blockNo":8363653,"blockHash":"11440d06ad8c57dcdb982509c18ca7965911cc394f85e02a40dbe3dd7f572f66","epochNo":392,"epochSlotNo":104549,"slot":84085349,"time":"2023/02/06 02:47:20","addressesInput":["addr1q9vj9w32w77p47ca725hantcf5nrzcex66vqq58kqm4l04y6hn99676mvdj6qvd34vfqh3jx6vy8tyfkuy6u3xcghq8sex2gzq","addr1q9vj9w32w77p47ca725hantcf5nrzcex66vqq58kqm4l04y6hn99676mvdj6qvd34vfqh3jx6vy8tyfkuy6u3xcghq8sex2gzq","addr1q9vj9w32w77p47ca725hantcf5nrzcex66vqq58kqm4l04y6hn99676mvdj6qvd34vfqh3jx6vy8tyfkuy6u3xcghq8sex2gzq"],"addressesOutput":["addr1zxgx3far7qygq0k6epa0zcvcvrevmn0ypsnfsue94nsn3tvpw288a4x0xf8pxgcntelxmyclq83s0ykeehchz2wtspks905plm","addr1q9vj9w32w77p47ca725hantcf5nrzcex66vqq58kqm4l04y6hn99676mvdj6qvd34vfqh3jx6vy8tyfkuy6u3xcghq8sex2gzq","addr1q9vj9w32w77p47ca725hantcf5nrzcex66vqq58kqm4l04y6hn99676mvdj6qvd34vfqh3jx6vy8tyfkuy6u3xcghq8sex2gzq"],"fee":250729,"totalOutput":11177939,"tokens":[]},{"hash":"102274670f55f13b192c3432b8a66c1b53f07eb0244ca77b17f0eab7fa2babe2","blockNo":8363640,"blockHash":"f7d81a8e4f18787d9e27b46e6effbda7a63920e33ffeaab3eebf80963b428f96","epochNo":392,"epochSlotNo":104190,"slot":84084990,"time":"2023/02/06 02:41:21","addressesInput":["addr1q9vj9w32w77p47ca725hantcf5nrzcex66vqq58kqm4l04y6hn99676mvdj6qvd34vfqh3jx6vy8tyfkuy6u3xcghq8sex2gzq","addr1q9vj9w32w77p47ca725hantcf5nrzcex66vqq58kqm4l04y6hn99676mvdj6qvd34vfqh3jx6vy8tyfkuy6u3xcghq8sex2gzq","addr1q9vj9w32w77p47ca725hantcf5nrzcex66vqq58kqm4l04y6hn99676mvdj6qvd34vfqh3jx6vy8tyfkuy6u3xcghq8sex2gzq"],"addressesOutput":["addr1zxgx3far7qygq0k6epa0zcvcvrevmn0ypsnfsue94nsn3tvpw288a4x0xf8pxgcntelxmyclq83s0ykeehchz2wtspks905plm","addr1q9vj9w32w77p47ca725hantcf5nrzcex66vqq58kqm4l04y6hn99676mvdj6qvd34vfqh3jx6vy8tyfkuy6u3xcghq8sex2gzq","addr1q9vj9w32w77p47ca725hantcf5nrzcex66vqq58kqm4l04y6hn99676mvdj6qvd34vfqh3jx6vy8tyfkuy6u3xcghq8sex2gzq"],"fee":250861,"totalOutput":11588138,"tokens":[]},{"hash":"90d505b9ce557307905ed1f46c4b28b3a6317917a84a0b8d72c04252ec5e310e","blockNo":8363447,"blockHash":"714b4fb9449599a3edbcce48b0205e6db8680f97eea652a98d9f8cd302eb3990","epochNo":392,"epochSlotNo":100344,"slot":84081144,"time":"2023/02/06 01:37:15","addressesInput":["addr1qyh5ufp42jkfv89vfn7st0ywjwrhlwtxtkxxsp78m075qzdnzfzekz7vqkwd9ljq7mpmzzmvxwwnqrulntc0gw6wzkpqryu6xs","addr1qx495vcltjk2m9mzchwq2ujfqfpyzhsws3zjsqh5hmdxyranzfzekz7vqkwd9ljq7mpmzzmvxwwnqrulntc0gw6wzkpq7hfs39","addr1qxqheajt4tdf8k7a2zwvyl9e0ppm6tgdmajtvxwfqeq6s8anzfzekz7vqkwd9ljq7mpmzzmvxwwnqrulntc0gw6wzkpqz5damh"],"addressesOutput":["addr1qxsce5nqh22snqlxfm8evhwsuql65ess0ljz2ptx8kvss6r36fujmd290f4epfd6mx7l6jtrwtj2lyqrvgavhmp2pwaqets40e","addr1q9n4udsgwv6p30k3da9ttre93snsvmr7q7fet6fnlm4f3aanzfzekz7vqkwd9ljq7mpmzzmvxwwnqrulntc0gw6wzkpqejz7f5","addr1q9n4udsgwv6p30k3da9ttre93snsvmr7q7fet6fnlm4f3aanzfzekz7vqkwd9ljq7mpmzzmvxwwnqrulntc0gw6wzkpqejz7f5"],"fee":293849,"totalOutput":17841370,"tokens":[]},{"hash":"4d9e4a38d1cfa93359d55ef37a8ae5ebb02bbf58794290cac4c1d5f2fbe49ea1","blockNo":8363418,"blockHash":"17d67017004275280a91a565a13568d240e68ab762ee18a0ae22f8d53a9d6bb3","epochNo":392,"epochSlotNo":99597,"slot":84080397,"time":"2023/02/06 01:24:48","addressesInput":["addr1q8fjdde87jrua78trg9ylv7gpvd5skzcv5nqp3wl467ykzgsmz083klcvm744y0n7yyg49ykzz0j628xpu4n5u0r0r4qrfqf6q","addr1q8fjdde87jrua78trg9ylv7gpvd5skzcv5nqp3wl467ykzgsmz083klcvm744y0n7yyg49ykzz0j628xpu4n5u0r0r4qrfqf6q"],"addressesOutput":["addr1zxgx3far7qygq0k6epa0zcvcvrevmn0ypsnfsue94nsn3tvpw288a4x0xf8pxgcntelxmyclq83s0ykeehchz2wtspks905plm","addr1q8fjdde87jrua78trg9ylv7gpvd5skzcv5nqp3wl467ykzgsmz083klcvm744y0n7yyg49ykzz0j628xpu4n5u0r0r4qrfqf6q","addr1q8fjdde87jrua78trg9ylv7gpvd5skzcv5nqp3wl467ykzgsmz083klcvm744y0n7yyg49ykzz0j628xpu4n5u0r0r4qrfqf6q"],"fee":429809,"totalOutput":114193423,"tokens":[]},{"hash":"29e5fa543e05e4ccfb5a180695922d2fd39984ec9227703a9b670de045d445fa","blockNo":8363415,"blockHash":"f665241e1bc52165679adb0353964c10e75032d8c02e71a5b20c01fa5c71e64c","epochNo":392,"epochSlotNo":99485,"slot":84080285,"time":"2023/02/06 01:22:56","addressesInput":["addr1q8fjdde87jrua78trg9ylv7gpvd5skzcv5nqp3wl467ykzgsmz083klcvm744y0n7yyg49ykzz0j628xpu4n5u0r0r4qrfqf6q","addr1q8fjdde87jrua78trg9ylv7gpvd5skzcv5nqp3wl467ykzgsmz083klcvm744y0n7yyg49ykzz0j628xpu4n5u0r0r4qrfqf6q"],"addressesOutput":["addr1zxgx3far7qygq0k6epa0zcvcvrevmn0ypsnfsue94nsn3tvpw288a4x0xf8pxgcntelxmyclq83s0ykeehchz2wtspks905plm","addr1q8fjdde87jrua78trg9ylv7gpvd5skzcv5nqp3wl467ykzgsmz083klcvm744y0n7yyg49ykzz0j628xpu4n5u0r0r4qrfqf6q","addr1q8fjdde87jrua78trg9ylv7gpvd5skzcv5nqp3wl467ykzgsmz083klcvm744y0n7yyg49ykzz0j628xpu4n5u0r0r4qrfqf6q"],"fee":430557,"totalOutput":115955022,"tokens":[]},{"hash":"a675bd2991f11faf2e74d0f378d79e1ed9546aaa734f3cd6d2702bdcda2c9d8d","blockNo":8363409,"blockHash":"066e065f3d94b5d78f81db760beb90ffb97aa448a7c5352f05971cef8fcd9ed3","epochNo":392,"epochSlotNo":99299,"slot":84080099,"time":"2023/02/06 01:19:50","addressesInput":["addr1q9pzja4uqrlqggg3e2asm07t7jqk4n50pc8j6zq4xfjhqd4nzfzekz7vqkwd9ljq7mpmzzmvxwwnqrulntc0gw6wzkpqv2xgaf","addr1q983c3j8uf8tz55wes7ky3q23chs6u8yxcefy0fm5lndcadnzfzekz7vqkwd9ljq7mpmzzmvxwwnqrulntc0gw6wzkpqggkh56"],"addressesOutput":["addr1qxsce5nqh22snqlxfm8evhwsuql65ess0ljz2ptx8kvss6r36fujmd290f4epfd6mx7l6jtrwtj2lyqrvgavhmp2pwaqets40e","addr1qx495vcltjk2m9mzchwq2ujfqfpyzhsws3zjsqh5hmdxyranzfzekz7vqkwd9ljq7mpmzzmvxwwnqrulntc0gw6wzkpq7hfs39","addr1qx495vcltjk2m9mzchwq2ujfqfpyzhsws3zjsqh5hmdxyranzfzekz7vqkwd9ljq7mpmzzmvxwwnqrulntc0gw6wzkpq7hfs39","addr1qx495vcltjk2m9mzchwq2ujfqfpyzhsws3zjsqh5hmdxyranzfzekz7vqkwd9ljq7mpmzzmvxwwnqrulntc0gw6wzkpq7hfs39"],"fee":292441,"totalOutput":27888619,"tokens":[]},{"hash":"d766ec4d7048c6e02737ab555fa0f065944b7d0e732f709c118ba3311af11624","blockNo":8363381,"blockHash":"ebc00282c3791e80da2c826c7daafbe2f0e6ae8ea1747e14faf0228f706e841d","epochNo":392,"epochSlotNo":98893,"slot":84079693,"time":"2023/02/06 01:13:04","addressesInput":["addr1qxe2y3n60pkthtgwmm4xqt0uk5c9lu8t6ddtfae674mjtm4nzfzekz7vqkwd9ljq7mpmzzmvxwwnqrulntc0gw6wzkpq2xzltr","addr1q9kssqhnplcxlsvl5fch05wy42g55d72vhavly47cvanazdnzfzekz7vqkwd9ljq7mpmzzmvxwwnqrulntc0gw6wzkpqp80eec","addr1qxvnj0dfyuvrhm375mt6m9v0qe9vuwnrfk3rzwdshmdktg9nzfzekz7vqkwd9ljq7mpmzzmvxwwnqrulntc0gw6wzkpq6sfvt7"],"addressesOutput":["addr1qxsce5nqh22snqlxfm8evhwsuql65ess0ljz2ptx8kvss6r36fujmd290f4epfd6mx7l6jtrwtj2lyqrvgavhmp2pwaqets40e","addr1q9pzja4uqrlqggg3e2asm07t7jqk4n50pc8j6zq4xfjhqd4nzfzekz7vqkwd9ljq7mpmzzmvxwwnqrulntc0gw6wzkpqv2xgaf","addr1q9pzja4uqrlqggg3e2asm07t7jqk4n50pc8j6zq4xfjhqd4nzfzekz7vqkwd9ljq7mpmzzmvxwwnqrulntc0gw6wzkpqv2xgaf","addr1q9pzja4uqrlqggg3e2asm07t7jqk4n50pc8j6zq4xfjhqd4nzfzekz7vqkwd9ljq7mpmzzmvxwwnqrulntc0gw6wzkpqv2xgaf"],"fee":300361,"totalOutput":18539789,"tokens":[]},{"hash":"1e59f242f022059913500d2a811eb9ef7adc1d897572330074431bdf3384add8","blockNo":8363341,"blockHash":"712c93f65ba1273446f95d8c770c6216a24b0ac83a4160962a70e23a5edc6fed","epochNo":392,"epochSlotNo":97847,"slot":84078647,"time":"2023/02/06 00:55:38","addressesInput":["addr1q8fjdde87jrua78trg9ylv7gpvd5skzcv5nqp3wl467ykzgsmz083klcvm744y0n7yyg49ykzz0j628xpu4n5u0r0r4qrfqf6q","addr1q8fjdde87jrua78trg9ylv7gpvd5skzcv5nqp3wl467ykzgsmz083klcvm744y0n7yyg49ykzz0j628xpu4n5u0r0r4qrfqf6q","addr1q8fjdde87jrua78trg9ylv7gpvd5skzcv5nqp3wl467ykzgsmz083klcvm744y0n7yyg49ykzz0j628xpu4n5u0r0r4qrfqf6q"],"addressesOutput":["addr1zxgx3far7qygq0k6epa0zcvcvrevmn0ypsnfsue94nsn3tvpw288a4x0xf8pxgcntelxmyclq83s0ykeehchz2wtspks905plm","addr1q8fjdde87jrua78trg9ylv7gpvd5skzcv5nqp3wl467ykzgsmz083klcvm744y0n7yyg49ykzz0j628xpu4n5u0r0r4qrfqf6q","addr1q8fjdde87jrua78trg9ylv7gpvd5skzcv5nqp3wl467ykzgsmz083klcvm744y0n7yyg49ykzz0j628xpu4n5u0r0r4qrfqf6q"],"fee":432889,"totalOutput":124569033,"tokens":[]},{"hash":"82775aeb819c6250bb018180f040d34cf05e61c8432f3df12ac9cbc788839fc6","blockNo":8363332,"blockHash":"eb34ee1832094d64237d480f41a3acdb46942157682e7113b2a0c939fcc8e130","epochNo":392,"epochSlotNo":97523,"slot":84078323,"time":"2023/02/06 00:50:14","addressesInput":["addr1q84uf2es7znal39zr2x26pwu683tfwv5gqlk7jjnwcqp774nzfzekz7vqkwd9ljq7mpmzzmvxwwnqrulntc0gw6wzkpqvn6pww","addr1q8njg32dmk2h29xtv6t37ejw2yvh8uzug3ck87ceajwn9wanzfzekz7vqkwd9ljq7mpmzzmvxwwnqrulntc0gw6wzkpqk0wvem","addr1q8njg32dmk2h29xtv6t37ejw2yvh8uzug3ck87ceajwn9wanzfzekz7vqkwd9ljq7mpmzzmvxwwnqrulntc0gw6wzkpqk0wvem","addr1q84uf2es7znal39zr2x26pwu683tfwv5gqlk7jjnwcqp774nzfzekz7vqkwd9ljq7mpmzzmvxwwnqrulntc0gw6wzkpqvn6pww"],"addressesOutput":["addr1q9zg7xmzpuaa80r3gd827dphx8m7ewf200m49yzq0hhu0rtkjyd6gen5qdlkzmgn27vuepltesmk2r8fz4ulz0kymjlsa2hsd7","addr1q9kssqhnplcxlsvl5fch05wy42g55d72vhavly47cvanazdnzfzekz7vqkwd9ljq7mpmzzmvxwwnqrulntc0gw6wzkpqp80eec","addr1q9kssqhnplcxlsvl5fch05wy42g55d72vhavly47cvanazdnzfzekz7vqkwd9ljq7mpmzzmvxwwnqrulntc0gw6wzkpqp80eec","addr1q9kssqhnplcxlsvl5fch05wy42g55d72vhavly47cvanazdnzfzekz7vqkwd9ljq7mpmzzmvxwwnqrulntc0gw6wzkpqp80eec"],"fee":299349,"totalOutput":21052063,"tokens":[]},{"hash":"48e1e6065fdfd5d8b5a2466bae9b41907ce41f8758cea0b03399d48fd1b7df42","blockNo":8363281,"blockHash":"55793b291cdca055443083829c597ec98f82970062f5464fb951f217fe804351","epochNo":392,"epochSlotNo":96559,"slot":84077359,"time":"2023/02/06 00:34:10","addressesInput":["addr1qynn966shnr3qkkgfjpn6m3xzqvqmw3203mgkmkva0p0evanzfzekz7vqkwd9ljq7mpmzzmvxwwnqrulntc0gw6wzkpqrwvjkk","addr1qxe2y3n60pkthtgwmm4xqt0uk5c9lu8t6ddtfae674mjtm4nzfzekz7vqkwd9ljq7mpmzzmvxwwnqrulntc0gw6wzkpq2xzltr"],"addressesOutput":["addr1q9zg7xmzpuaa80r3gd827dphx8m7ewf200m49yzq0hhu0rtkjyd6gen5qdlkzmgn27vuepltesmk2r8fz4ulz0kymjlsa2hsd7","addr1q8njg32dmk2h29xtv6t37ejw2yvh8uzug3ck87ceajwn9wanzfzekz7vqkwd9ljq7mpmzzmvxwwnqrulntc0gw6wzkpqk0wvem","addr1q8njg32dmk2h29xtv6t37ejw2yvh8uzug3ck87ceajwn9wanzfzekz7vqkwd9ljq7mpmzzmvxwwnqrulntc0gw6wzkpqk0wvem","addr1q8njg32dmk2h29xtv6t37ejw2yvh8uzug3ck87ceajwn9wanzfzekz7vqkwd9ljq7mpmzzmvxwwnqrulntc0gw6wzkpqk0wvem"],"fee":298029,"totalOutput":20254678,"tokens":[]},{"hash":"113db8b9f3fe1b3929f05543cccaaea8327e2e9b35f4f3285e430c1191729907","blockNo":8363240,"blockHash":"0373b98232574f3ed5e3ef3590b3a211b68da00e77db91267d92676b8ae1bd6f","epochNo":392,"epochSlotNo":95725,"slot":84076525,"time":"2023/02/06 00:20:16","addressesInput":["addr1qxqheajt4tdf8k7a2zwvyl9e0ppm6tgdmajtvxwfqeq6s8anzfzekz7vqkwd9ljq7mpmzzmvxwwnqrulntc0gw6wzkpqz5damh","addr1q84uf2es7znal39zr2x26pwu683tfwv5gqlk7jjnwcqp774nzfzekz7vqkwd9ljq7mpmzzmvxwwnqrulntc0gw6wzkpqvn6pww"],"addressesOutput":["addr1q8n6wr9722fsdduy2n9rn0lt5us0unn6e4ndvrgumttgfcfg2dpsaxn3wgvgvuqp4ds74wtgw43jd9cl8f2cufr8095qx925z4","addr1qxe2y3n60pkthtgwmm4xqt0uk5c9lu8t6ddtfae674mjtm4nzfzekz7vqkwd9ljq7mpmzzmvxwwnqrulntc0gw6wzkpq2xzltr","addr1qxe2y3n60pkthtgwmm4xqt0uk5c9lu8t6ddtfae674mjtm4nzfzekz7vqkwd9ljq7mpmzzmvxwwnqrulntc0gw6wzkpq2xzltr","addr1qxe2y3n60pkthtgwmm4xqt0uk5c9lu8t6ddtfae674mjtm4nzfzekz7vqkwd9ljq7mpmzzmvxwwnqrulntc0gw6wzkpq2xzltr"],"fee":299789,"totalOutput":20598732,"tokens":[]},{"hash":"473e519da8eb8dad5e85d356e39807b5a5a7ffe7b9fdc007c476d59b00796a88","blockNo":8363210,"blockHash":"94ed31bd09cc38a7cd2fcff0d33b392be1192814ec14d2b46659687096f396f3","epochNo":392,"epochSlotNo":95079,"slot":84075879,"time":"2023/02/06 00:09:30","addressesInput":["addr1q9vj9w32w77p47ca725hantcf5nrzcex66vqq58kqm4l04y6hn99676mvdj6qvd34vfqh3jx6vy8tyfkuy6u3xcghq8sex2gzq","addr1q9vj9w32w77p47ca725hantcf5nrzcex66vqq58kqm4l04y6hn99676mvdj6qvd34vfqh3jx6vy8tyfkuy6u3xcghq8sex2gzq","addr1q9vj9w32w77p47ca725hantcf5nrzcex66vqq58kqm4l04y6hn99676mvdj6qvd34vfqh3jx6vy8tyfkuy6u3xcghq8sex2gzq","addr1zxgx3far7qygq0k6epa0zcvcvrevmn0ypsnfsue94nsn3tvpw288a4x0xf8pxgcntelxmyclq83s0ykeehchz2wtspks905plm"],"addressesOutput":["addr1q94uz6vvrtlg8a6kmg0cp3cv56dufn57nuqfum0saw2fphak8leq8q4wcfzfle5vgmlp7z4juy87v4mgx86er3mtz2aqg9eq8c","addr1q9cwvremt6n320s2e3agq0jyq82yhrk3htsu0w426xnz5us70z4w0jgvcdkkynmm8wmds66jd9kusnjfpu6raw5fqp0sr07p5w","addr1qyr2ctrxkdkuxcs0788wk6egdfexgs250hrvyexkflv3haj4t0008dm8eu7l3spamf3t7p05yukq88j48acg4zdphm8q4cdmxd","addr1q9vj9w32w77p47ca725hantcf5nrzcex66vqq58kqm4l04y6hn99676mvdj6qvd34vfqh3jx6vy8tyfkuy6u3xcghq8sex2gzq","addr1q9vj9w32w77p47ca725hantcf5nrzcex66vqq58kqm4l04y6hn99676mvdj6qvd34vfqh3jx6vy8tyfkuy6u3xcghq8sex2gzq"],"fee":463829,"totalOutput":105207083,"tokens":[]},{"hash":"47ab7cc099db9cb8a7ab6f3e31f17e043661fd026e3016c63e2ad7c5ef173544","blockNo":8363204,"blockHash":"8161d598bf5f767543de0baefd12f8c59e477a89b824b12c9678067058cda39a","epochNo":392,"epochSlotNo":94982,"slot":84075782,"time":"2023/02/06 00:07:53","addressesInput":["addr1qxvnj0dfyuvrhm375mt6m9v0qe9vuwnrfk3rzwdshmdktg9nzfzekz7vqkwd9ljq7mpmzzmvxwwnqrulntc0gw6wzkpq6sfvt7","addr1qxqheajt4tdf8k7a2zwvyl9e0ppm6tgdmajtvxwfqeq6s8anzfzekz7vqkwd9ljq7mpmzzmvxwwnqrulntc0gw6wzkpqz5damh"],"addressesOutput":["addr1q8n6wr9722fsdduy2n9rn0lt5us0unn6e4ndvrgumttgfcfg2dpsaxn3wgvgvuqp4ds74wtgw43jd9cl8f2cufr8095qx925z4","addr1q84uf2es7znal39zr2x26pwu683tfwv5gqlk7jjnwcqp774nzfzekz7vqkwd9ljq7mpmzzmvxwwnqrulntc0gw6wzkpqvn6pww","addr1q84uf2es7znal39zr2x26pwu683tfwv5gqlk7jjnwcqp774nzfzekz7vqkwd9ljq7mpmzzmvxwwnqrulntc0gw6wzkpqvn6pww","addr1q84uf2es7znal39zr2x26pwu683tfwv5gqlk7jjnwcqp774nzfzekz7vqkwd9ljq7mpmzzmvxwwnqrulntc0gw6wzkpqvn6pww"],"fee":302165,"totalOutput":19299782,"tokens":[]},{"hash":"cb2efbb489837bcd2aa58df2267a19520003ddd0abbbc66ee74f3f7ca1f28bb2","blockNo":8363184,"blockHash":"653d42b6b91a49163dc1285b9fff9cd8b6b700422d071f7f365ab3e1f9c4002f","epochNo":392,"epochSlotNo":94519,"slot":84075319,"time":"2023/02/06 00:00:10","addressesInput":["addr1zxgx3far7qygq0k6epa0zcvcvrevmn0ypsnfsue94nsn3tvpw288a4x0xf8pxgcntelxmyclq83s0ykeehchz2wtspks905plm","addr1q9vj9w32w77p47ca725hantcf5nrzcex66vqq58kqm4l04y6hn99676mvdj6qvd34vfqh3jx6vy8tyfkuy6u3xcghq8sex2gzq","addr1q9vj9w32w77p47ca725hantcf5nrzcex66vqq58kqm4l04y6hn99676mvdj6qvd34vfqh3jx6vy8tyfkuy6u3xcghq8sex2gzq"],"addressesOutput":["addr1q9vj9w32w77p47ca725hantcf5nrzcex66vqq58kqm4l04y6hn99676mvdj6qvd34vfqh3jx6vy8tyfkuy6u3xcghq8sex2gzq","addr1q9vj9w32w77p47ca725hantcf5nrzcex66vqq58kqm4l04y6hn99676mvdj6qvd34vfqh3jx6vy8tyfkuy6u3xcghq8sex2gzq","addr1q9vj9w32w77p47ca725hantcf5nrzcex66vqq58kqm4l04y6hn99676mvdj6qvd34vfqh3jx6vy8tyfkuy6u3xcghq8sex2gzq"],"fee":328718,"totalOutput":104360672,"tokens":[]},{"hash":"728a1d42a0c4eb40471b388548f4f8e03b057747e53d764cffa2594d8c792785","blockNo":8363169,"blockHash":"b6009b495972266e86ddec6df55ebd4e62cad6bbcd22ee73d330576e175bdc91","epochNo":392,"epochSlotNo":94223,"slot":84075023,"time":"2023/02/05 23:55:14","addressesInput":["addr1q8zvy9zcq3psy2zjkgvyjud7u0zqxanerzgw82aang85eh9nzfzekz7vqkwd9ljq7mpmzzmvxwwnqrulntc0gw6wzkpqah4jgs","addr1q8zvy9zcq3psy2zjkgvyjud7u0zqxanerzgw82aang85eh9nzfzekz7vqkwd9ljq7mpmzzmvxwwnqrulntc0gw6wzkpqah4jgs","addr1qynn966shnr3qkkgfjpn6m3xzqvqmw3203mgkmkva0p0evanzfzekz7vqkwd9ljq7mpmzzmvxwwnqrulntc0gw6wzkpqrwvjkk"],"addressesOutput":["addr1q8n6wr9722fsdduy2n9rn0lt5us0unn6e4ndvrgumttgfcfg2dpsaxn3wgvgvuqp4ds74wtgw43jd9cl8f2cufr8095qx925z4","addr1qxqheajt4tdf8k7a2zwvyl9e0ppm6tgdmajtvxwfqeq6s8anzfzekz7vqkwd9ljq7mpmzzmvxwwnqrulntc0gw6wzkpqz5damh","addr1qxqheajt4tdf8k7a2zwvyl9e0ppm6tgdmajtvxwfqeq6s8anzfzekz7vqkwd9ljq7mpmzzmvxwwnqrulntc0gw6wzkpqz5damh","addr1qxqheajt4tdf8k7a2zwvyl9e0ppm6tgdmajtvxwfqeq6s8anzfzekz7vqkwd9ljq7mpmzzmvxwwnqrulntc0gw6wzkpqz5damh"],"fee":305905,"totalOutput":24070865,"tokens":[]},{"hash":"b5bc81a27d8602bc60e1d6516742ca99318aa372650fd0f19cb88d85998af7bd","blockNo":8363148,"blockHash":"776e0b3b528f94575b08597d55f7c3736389b3c16646650a6d4945ce7f37d73d","epochNo":392,"epochSlotNo":93888,"slot":84074688,"time":"2023/02/05 23:49:39","addressesInput":["addr1q9vj9w32w77p47ca725hantcf5nrzcex66vqq58kqm4l04y6hn99676mvdj6qvd34vfqh3jx6vy8tyfkuy6u3xcghq8sex2gzq","addr1q9vj9w32w77p47ca725hantcf5nrzcex66vqq58kqm4l04y6hn99676mvdj6qvd34vfqh3jx6vy8tyfkuy6u3xcghq8sex2gzq","addr1q9vj9w32w77p47ca725hantcf5nrzcex66vqq58kqm4l04y6hn99676mvdj6qvd34vfqh3jx6vy8tyfkuy6u3xcghq8sex2gzq","addr1q9vj9w32w77p47ca725hantcf5nrzcex66vqq58kqm4l04y6hn99676mvdj6qvd34vfqh3jx6vy8tyfkuy6u3xcghq8sex2gzq","addr1q9vj9w32w77p47ca725hantcf5nrzcex66vqq58kqm4l04y6hn99676mvdj6qvd34vfqh3jx6vy8tyfkuy6u3xcghq8sex2gzq","addr1q9vj9w32w77p47ca725hantcf5nrzcex66vqq58kqm4l04y6hn99676mvdj6qvd34vfqh3jx6vy8tyfkuy6u3xcghq8sex2gzq"],"addressesOutput":["addr1zxgx3far7qygq0k6epa0zcvcvrevmn0ypsnfsue94nsn3tvpw288a4x0xf8pxgcntelxmyclq83s0ykeehchz2wtspks905plm","addr1q9vj9w32w77p47ca725hantcf5nrzcex66vqq58kqm4l04y6hn99676mvdj6qvd34vfqh3jx6vy8tyfkuy6u3xcghq8sex2gzq","addr1q9vj9w32w77p47ca725hantcf5nrzcex66vqq58kqm4l04y6hn99676mvdj6qvd34vfqh3jx6vy8tyfkuy6u3xcghq8sex2gzq"],"fee":260497,"totalOutput":104689390,"tokens":[]},{"hash":"0cad3d4daab5c820d50e8f10264d8ed01a3c56f009c35cbfc366b8d54c9ba23c","blockNo":8363137,"blockHash":"f551a1c341ecb6d6ddb54127771ab6ec0f0a5fc7b88a39e86a4936e3c2bc52ba","epochNo":392,"epochSlotNo":93568,"slot":84074368,"time":"2023/02/05 23:44:19","addressesInput":["addr1qyy3zhhlwyxk5p5kw7s0sgwxf84nwchdcysu5hs9v3jwkvdnzfzekz7vqkwd9ljq7mpmzzmvxwwnqrulntc0gw6wzkpqn44ccd","addr1qyh5ufp42jkfv89vfn7st0ywjwrhlwtxtkxxsp78m075qzdnzfzekz7vqkwd9ljq7mpmzzmvxwwnqrulntc0gw6wzkpqryu6xs","addr1qyc2fydt58jpn7u4rrrcgl5r9y6k6tdanhsklu8g45gv25dnzfzekz7vqkwd9ljq7mpmzzmvxwwnqrulntc0gw6wzkpq4qgfgk","addr1qxvnj0dfyuvrhm375mt6m9v0qe9vuwnrfk3rzwdshmdktg9nzfzekz7vqkwd9ljq7mpmzzmvxwwnqrulntc0gw6wzkpq6sfvt7"],"addressesOutput":["addr1q8n6wr9722fsdduy2n9rn0lt5us0unn6e4ndvrgumttgfcfg2dpsaxn3wgvgvuqp4ds74wtgw43jd9cl8f2cufr8095qx925z4","addr1qynn966shnr3qkkgfjpn6m3xzqvqmw3203mgkmkva0p0evanzfzekz7vqkwd9ljq7mpmzzmvxwwnqrulntc0gw6wzkpqrwvjkk","addr1qynn966shnr3qkkgfjpn6m3xzqvqmw3203mgkmkva0p0evanzfzekz7vqkwd9ljq7mpmzzmvxwwnqrulntc0gw6wzkpqrwvjkk","addr1qynn966shnr3qkkgfjpn6m3xzqvqmw3203mgkmkva0p0evanzfzekz7vqkwd9ljq7mpmzzmvxwwnqrulntc0gw6wzkpqrwvjkk"],"fee":319369,"totalOutput":24249177,"tokens":[]},{"hash":"efbbd5d1ca8e7bd0029eeacde3645c8e61f9a720d9c2d7bfe8d34e820d1e114f","blockNo":8363095,"blockHash":"358e3398a5e7ded2088990032b1f83a93d8876d300eb88ea66c687bd55b1fc47","epochNo":392,"epochSlotNo":92605,"slot":84073405,"time":"2023/02/05 23:28:16","addressesInput":["addr1q9xn8fdmu2r2q5lw6f3u9kz4gecytcmtqt8y2k6uz5m029dnzfzekz7vqkwd9ljq7mpmzzmvxwwnqrulntc0gw6wzkpq7j7p38","addr1q8fsusy2adux7zznv9qads6u3ll7z0llruzq7gwqu9q8rl4nzfzekz7vqkwd9ljq7mpmzzmvxwwnqrulntc0gw6wzkpqrwwda0","addr1qy5yz8lsham28ax0pw3eda9j7jg4mutyrfekq0taz8sy5yanzfzekz7vqkwd9ljq7mpmzzmvxwwnqrulntc0gw6wzkpqkczfqa"],"addressesOutput":["addr1q8n6wr9722fsdduy2n9rn0lt5us0unn6e4ndvrgumttgfcfg2dpsaxn3wgvgvuqp4ds74wtgw43jd9cl8f2cufr8095qx925z4","addr1qyc2fydt58jpn7u4rrrcgl5r9y6k6tdanhsklu8g45gv25dnzfzekz7vqkwd9ljq7mpmzzmvxwwnqrulntc0gw6wzkpq4qgfgk","addr1qyc2fydt58jpn7u4rrrcgl5r9y6k6tdanhsklu8g45gv25dnzfzekz7vqkwd9ljq7mpmzzmvxwwnqrulntc0gw6wzkpq4qgfgk","addr1qyc2fydt58jpn7u4rrrcgl5r9y6k6tdanhsklu8g45gv25dnzfzekz7vqkwd9ljq7mpmzzmvxwwnqrulntc0gw6wzkpq4qgfgk"],"fee":304585,"totalOutput":19333543,"tokens":[]},{"hash":"3ab8cad1e48b72d291a61d047510cedb2444ba532a8c93d9fce4aa0881a7edb5","blockNo":8363045,"blockHash":"9659cde7ca8686f87cb9c71c85745996fbdccf57224e2c7b6221c7e7439ac58c","epochNo":392,"epochSlotNo":91652,"slot":84072452,"time":"2023/02/05 23:12:23","addressesInput":["addr1q9vj9w32w77p47ca725hantcf5nrzcex66vqq58kqm4l04y6hn99676mvdj6qvd34vfqh3jx6vy8tyfkuy6u3xcghq8sex2gzq","addr1q9vj9w32w77p47ca725hantcf5nrzcex66vqq58kqm4l04y6hn99676mvdj6qvd34vfqh3jx6vy8tyfkuy6u3xcghq8sex2gzq","addr1q9vj9w32w77p47ca725hantcf5nrzcex66vqq58kqm4l04y6hn99676mvdj6qvd34vfqh3jx6vy8tyfkuy6u3xcghq8sex2gzq"],"addressesOutput":["addr1wxn9efv2f6w82hagxqtn62ju4m293tqvw0uhmdl64ch8uwc0h43gt","addr1q9vj9w32w77p47ca725hantcf5nrzcex66vqq58kqm4l04y6hn99676mvdj6qvd34vfqh3jx6vy8tyfkuy6u3xcghq8sex2gzq"],"fee":211481,"totalOutput":44516589,"tokens":[]}],"totalItems":13652,"totalPages":683,"currentPage":0}