{"data":[{"blockNo":8139124,"slotNo":79466064,"epochNo":381,"epochSlotNo":237264,"hash":"adab30eb8222967f852f4a707a4bd73820ea4e6f347f3f0587c159001f8c0f82","time":"2022/12/14 15:39:15","txCount":9,"totalFees":3005239,"totalOutput":125332283084,"slotLeader":"42c3740db23c3fc36cb9f63aa8070ec01417b4d22893463c8c8a21d4"},{"blockNo":8139123,"slotNo":79466055,"epochNo":381,"epochSlotNo":237255,"hash":"de5fea38a20499477d61fbdd75da80c0e0354d0b4d4f4b1481d81a551f6dfbf1","time":"2022/12/14 15:39:06","txCount":27,"totalFees":8777111,"totalOutput":5075748140515,"slotLeader":"3116c834a09b0060aef7284f63d3275456364e3309b3c19ec328af60"},{"blockNo":8139122,"slotNo":79466027,"epochNo":381,"epochSlotNo":237227,"hash":"8ef0e6b2d71a84cd6f16e74dc3423072a4ff75a62eb852db8c9c00a1c4ace0d0","time":"2022/12/14 15:38:38","txCount":52,"totalFees":14118456,"totalOutput":1465256232286,"slotLeader":"56f78c5478524496790461eefd4d9380f71dfb231358736902648dfe"},{"blockNo":8139121,"slotNo":79465955,"epochNo":381,"epochSlotNo":237155,"hash":"2cfe3aa1c4cb3d87e8b6ae883f8c63e1f393033f89d6b29e8df458484a667705","time":"2022/12/14 15:37:26","txCount":31,"totalFees":7336687,"totalOutput":164607646032,"slotLeader":"6d54378bf38d98cc52aea96b4f468898f7a8d3b03de47112275c8237"},{"blockNo":8139120,"slotNo":79465919,"epochNo":381,"epochSlotNo":237119,"hash":"11bbee64ebfd4e0a922e246091ef7a5c9a8cb1ee9786567f829b06114477c3ab","time":"2022/12/14 15:36:50","txCount":20,"totalFees":5494151,"totalOutput":585945089790,"slotLeader":"738585e4df0f9fb93dec66a9bfddd770f309d0f029bd2fd570732c8f"},{"blockNo":8139119,"slotNo":79465900,"epochNo":381,"epochSlotNo":237100,"hash":"5e3fc449e3d2c050f894f703c4cc4561f51e0d4b93642a3ca9bd7b58df04578f","time":"2022/12/14 15:36:31","txCount":57,"totalFees":15361759,"totalOutput":266144308532,"slotLeader":"1bdb8db050fb6cfd13a8e34ddec812e0aec77c589f71fc396cd9d950"},{"blockNo":8139118,"slotNo":79465831,"epochNo":381,"epochSlotNo":237031,"hash":"7230578e23836f9953c568ef94fd55933c387df3f2d2b47535e694f32fb7f113","time":"2022/12/14 15:35:22","txCount":6,"totalFees":2084561,"totalOutput":127949725322,"slotLeader":"675304517e38e66880714b3c4816f47866c302edafceb96945fd056f"},{"blockNo":8139117,"slotNo":79465822,"epochNo":381,"epochSlotNo":237022,"hash":"7e9513aed57a2b265625cf3bdd9179fd9a18945b778bf7a69e56309c647d2554","time":"2022/12/14 15:35:13","txCount":15,"totalFees":5670005,"totalOutput":15266863853,"slotLeader":"10bc63e4689bd58b8a7d248a99360a45a80d047b0b4752a7b00b754b"},{"blockNo":8139116,"slotNo":79465799,"epochNo":381,"epochSlotNo":236999,"hash":"9dea9bab09417872ea76345135bed96e0092861813859e06f7d44ad3800b8f07","time":"2022/12/14 15:34:50","txCount":7,"totalFees":3013350,"totalOutput":3627903982933,"slotLeader":"b07dde7ad2e458a89177d4e10cd657309d9e36a79ef1edebb60b414f"},{"blockNo":8139115,"slotNo":79465792,"epochNo":381,"epochSlotNo":236992,"hash":"2ae7063b47da70160514a7dbdc1612e2ba7e0a6a680393d15c172e34980b1712","time":"2022/12/14 15:34:43","txCount":10,"totalFees":2782248,"totalOutput":64224126736,"slotLeader":"f747208eb5e3b703b271ff373b4dc4ca643c026071e480689be320d9"}],"totalItems":11531,"totalPages":1154,"currentPage":0}