{"data":[{"txId":56306386,"txHash":"c8aeee7a16e43c4eff7460468df8221e0d56c876720f9c9af009a731696394a0","txTime":"2022/11/29 22:05:45","block":8076885,"epoch":378,"slotNo":78193254,"epochSlotNo":260454,"stakeKey":"stake1u83kth75z824zmh439vzd5qqn0ndnmshpaax9s75ztfdd2sh586ak"},{"txId":56306316,"txHash":"1ee4a168f49ba9c687b5b7595306e1eac5dc4de9b3cee5fbdf02e6e8d227f781","txTime":"2022/11/29 22:04:20","block":8076883,"epoch":378,"slotNo":78193169,"epochSlotNo":260369,"stakeKey":"stake1u8egxfclg6ug8wnh7pap0ka02m4pxf0w6x6rrxq5qkmv8ccmqgz9n"},{"txId":56306304,"txHash":"f801ce254ae6b88ad81e80d8aae55f46aaa33e41a6824a1454b073b73da72e8c","txTime":"2022/11/29 22:04:20","block":8076883,"epoch":378,"slotNo":78193169,"epochSlotNo":260369,"stakeKey":"stake1u8ngxw9cjy6nmd6tlzfpajmq7wsy378vchdzga6xatyp6rsj09rdk"},{"txId":56306219,"txHash":"8b66a5a503780435285250c2793f7a6fd3579df999589b4d6980072709067d5e","txTime":"2022/11/29 22:01:57","block":8076880,"epoch":378,"slotNo":78193026,"epochSlotNo":260226,"stakeKey":"stake1u9mwd8vnwn72cn4zl4aftne7w3nkcle6fqnm7fp90mf2p2qhhzdmt"},{"txId":56306213,"txHash":"e31324023af85e4178f0b259010558fb042ba4ff3564e87337ff611315898d9d","txTime":"2022/11/29 22:01:56","block":8076879,"epoch":378,"slotNo":78193025,"epochSlotNo":260225,"stakeKey":"stake1u8wenfaf5mew97v6ffs5kx0mwpww73ywc76n4j97kg9nakc4n3qhs"},{"txId":56306178,"txHash":"aee51ba86d4854843f4f44d4c83d5e4f5dcc91e9bd7cb5437be2709afd1ac51f","txTime":"2022/11/29 22:01:18","block":8076878,"epoch":378,"slotNo":78192987,"epochSlotNo":260187,"stakeKey":"stake1uxjewecwcf4l788946exvz9d6hqphz0yvh206kf2aw9tpmsdpayh5"},{"txId":56306127,"txHash":"c85135a5a34936b0aad86f3836eab9daf3d397ce3bede1e5ea36e6facaacf673","txTime":"2022/11/29 22:00:53","block":8076877,"epoch":378,"slotNo":78192962,"epochSlotNo":260162,"stakeKey":"stake1u82jr6t42ctj0mx6muu787rnzudt363c4mj7cpzkcr3tm2qjhn78c"},{"txId":56306103,"txHash":"f042f886431f29e27ce3ae198b82d9aba1490591d6d708f6f993faefd9a004e5","txTime":"2022/11/29 22:00:51","block":8076876,"epoch":378,"slotNo":78192960,"epochSlotNo":260160,"stakeKey":"stake1uxfwe3gqhcjrl86r6254tfcuqljpjygjuj4y43dsrj0a78s24cx5y"},{"txId":56306080,"txHash":"c129f99a320874a6a1c7cc78db5796c7b5635d0ef8bb0110f9121e3d081ddce7","txTime":"2022/11/29 22:00:51","block":8076876,"epoch":378,"slotNo":78192960,"epochSlotNo":260160,"stakeKey":"stake1uxp4kh98xg790qy93mrxfl7lg8skmzd7afpgk25pz5thfdsmrhxv2"},{"txId":56305998,"txHash":"85dcd6117f64932b6f0d897b25301bd2daccc5a2b353f11924a1d6bbc51e4cba","txTime":"2022/11/29 21:57:09","block":8076872,"epoch":378,"slotNo":78192738,"epochSlotNo":259938,"stakeKey":"stake1uyjcdx85dydp424w8g0a5pkq67z4qf6p2drvpz9vtz5p6csq9u260"},{"txId":56305931,"txHash":"fd730127dce28c94797e86163c57879d547638649856b6d915e61c2e71e330a5","txTime":"2022/11/29 21:55:46","block":8076867,"epoch":378,"slotNo":78192655,"epochSlotNo":259855,"stakeKey":"stake1u9pfejkaa93xcxdsf2qlv0ldza5ajact0fhckrgt2qj7ykqmn77ee"},{"txId":56305897,"txHash":"04be83aea8827c15b55f4c6b1790b2a71c029c45952ab90eba75e913d8a6d86c","txTime":"2022/11/29 21:54:36","block":8076865,"epoch":378,"slotNo":78192585,"epochSlotNo":259785,"stakeKey":"stake1u8wepy6pvv9fnu7zujwfqsds8jhzfx305ear3zprnthtungszdq0c"},{"txId":56305644,"txHash":"6b4e435601bf513fb361402b1643b49baea3980b9a63b5c0ceee82a30df9f1ea","txTime":"2022/11/29 21:48:39","block":8076850,"epoch":378,"slotNo":78192228,"epochSlotNo":259428,"stakeKey":"stake1u86r0yhapg0jm4v9q5mfvpwe790gq7tn9nuk58z7ra45s0gp9xcnv"},{"txId":56305623,"txHash":"a63f21fdbbbc28bcd5b896e4f182faaf11684c29eaa609838cf69966a61dbc7a","txTime":"2022/11/29 21:48:20","block":8076849,"epoch":378,"slotNo":78192209,"epochSlotNo":259409,"stakeKey":"stake1u8jzggpx68m9snd596wrl6us86cqvs29delcp6m0xjj4nmscwvr8s"},{"txId":56305488,"txHash":"8526345b3d5ccac4c274e94c138433458fc1e232280877b65b3c81a270822c73","txTime":"2022/11/29 21:45:38","block":8076841,"epoch":378,"slotNo":78192047,"epochSlotNo":259247,"stakeKey":"stake1uxj4sjyrq72pgkw4ul08y5xhr3dcmtsxa8ljwvnyhc8f78cscqpq2"},{"txId":56305438,"txHash":"8154a28660ddd45fcd2de17060d688bb0c7d9cf3426fa6608fdd0aa55e433e09","txTime":"2022/11/29 21:44:47","block":8076838,"epoch":378,"slotNo":78191996,"epochSlotNo":259196,"stakeKey":"stake1uyz98dcndeu9td0q7camd8yeyp6gglwz7jj79sl6put3u0cdtywta"},{"txId":56305364,"txHash":"ee664a87f74f5c588af0fccb9724a828101eea7633eadd0f14260462cb81d2ac","txTime":"2022/11/29 21:43:11","block":8076831,"epoch":378,"slotNo":78191900,"epochSlotNo":259100,"stakeKey":"stake1uy2jm6eap79eu9klrpks929skuh2j9m60l5zx0fp0ktnedgld3l8w"},{"txId":56305307,"txHash":"9de739ca1f4f6a1f481b1a7b71a7029fb46325e6b89f5cb061337a36a52f85e6","txTime":"2022/11/29 21:42:23","block":8076828,"epoch":378,"slotNo":78191852,"epochSlotNo":259052,"stakeKey":"stake1uykuuacr4fn6kpz2uecgnpdvjv5gmxz3e4em8mef5rv0c6quz80z6"},{"txId":56305300,"txHash":"7f0862d9e1ed0e1af232a2d254ee73c0f305163c2ed9f5dbec507ab05468194c","txTime":"2022/11/29 21:42:23","block":8076828,"epoch":378,"slotNo":78191852,"epochSlotNo":259052,"stakeKey":"stake1u8w979xh9rmr3pc6v75nhra3at0807dzeqjmzasy7neln4c69j87p"},{"txId":56305261,"txHash":"eef31bb5ae0846aad0d31027e78c607b66447444bba226b75feda69b614fc415","txTime":"2022/11/29 21:42:23","block":8076828,"epoch":378,"slotNo":78191852,"epochSlotNo":259052,"stakeKey":"stake1uy3pgdp8tm2z0hnzrd2yvlkyqdzfcpkw5n47mnsspwnaeyc7ey332"}],"totalItems":1613213,"totalPages":80661,"currentPage":0}