{"data":[{"txId":59926826,"txHash":"610411bebe1ce45ccafea02719a5e7bf3d41e875e4933abf4a944911099d6e67","txTime":"2023/01/17 17:42:04","block":8282552,"epoch":388,"slotNo":82411033,"epochSlotNo":158233,"stakeKey":"stake1u85xme6xrtz3phxyaqdap4elv3dxm5dvgkxzn9943lxkwlcwfv262"},{"txId":59926767,"txHash":"a3803f4443252fcdce5a7af099d7cb02c8299b403728765d51f1fb421be5c11d","txTime":"2023/01/17 17:41:37","block":8282551,"epoch":388,"slotNo":82411006,"epochSlotNo":158206,"stakeKey":"stake1u80yafpwvlzqets4znvq60ezltyj8rzsvp2a3kqd3hxrsds46p0kq"},{"txId":59926194,"txHash":"8b1041ea7e2cabb95c09ba75271502c41012a403f577c13db8d05a1b0043b9ab","txTime":"2023/01/17 17:32:02","block":8282519,"epoch":388,"slotNo":82410431,"epochSlotNo":157631,"stakeKey":"stake1u8xhvlct3frx7nqrqlzys3rajdyk8kj4jv726nmnr3uyhfswsnq0f"},{"txId":59926142,"txHash":"30c10f444b649da38a491955f56ef124d2782d37963e6f4e6f53617334e2a4dc","txTime":"2023/01/17 17:31:31","block":8282517,"epoch":388,"slotNo":82410400,"epochSlotNo":157600,"stakeKey":"stake1u98akvx2p4rgctdgv4v9uxcy598zan6dve4cy2u7frcg3vcsqnyg9"},{"txId":59925918,"txHash":"15bd9a0dcee56ca53bed518f54f764bf11061aab243ee91090264e45ce1ea870","txTime":"2023/01/17 17:27:38","block":8282504,"epoch":388,"slotNo":82410167,"epochSlotNo":157367,"stakeKey":"stake1ux5atapuuy6mdagszerlw007gtlusy7x45le36ueax0k84qxq3566"},{"txId":59925901,"txHash":"4b1ff7c99edd5ca20c5a79561c8dbd826f4619a6a3041999f59172a4d752d594","txTime":"2023/01/17 17:27:11","block":8282503,"epoch":388,"slotNo":82410140,"epochSlotNo":157340,"stakeKey":"stake1uyveagq2udcl96r9dj7casqrd0taavse2hzgdkahljq5yrcfaqjm2"},{"txId":59925899,"txHash":"c0d4b090242bb215514c5ac93ffeeca66e370e8ed8ec352c3080d5bb4dd4b3eb","txTime":"2023/01/17 17:27:11","block":8282503,"epoch":388,"slotNo":82410140,"epochSlotNo":157340,"stakeKey":"stake1uyndryp3yjvusk2r5ydgejc2frz0n4tw357lefe50fv4y6guzjuzf"},{"txId":59925775,"txHash":"5080ec653ff1a43e81d630cd2a2f48a463952d11e95f43f881605e62443960df","txTime":"2023/01/17 17:24:59","block":8282494,"epoch":388,"slotNo":82410008,"epochSlotNo":157208,"stakeKey":"stake1u9hauwu5dfd6ua29lxfttnz2s492nyw3kg3ra62xflhlffgmprzvm"},{"txId":59925694,"txHash":"d336de5deb018de81f8d895368f425a14c9afd051867f86594fda014251ba28c","txTime":"2023/01/17 17:23:24","block":8282487,"epoch":388,"slotNo":82409913,"epochSlotNo":157113,"stakeKey":"stake1u8tn7glm450s2pxzmfh9527w99fvh8d3dcwcms57ncek5mgtaeqvz"},{"txId":59925541,"txHash":"18ffb67f6b8bc4abb30069d0f0791a05f66ad6249a7cfc1a5ae207cf04c2402e","txTime":"2023/01/17 17:21:12","block":8282478,"epoch":388,"slotNo":82409781,"epochSlotNo":156981,"stakeKey":"stake1u8096ycjatnz56s5962hdf56c2x0h7nts0fva6hqreg9ppckczvp6"},{"txId":59925256,"txHash":"23386919a54e487bef4894ee256e8ac2f394e64a09032412f8a2f76121852952","txTime":"2023/01/17 17:16:18","block":8282456,"epoch":388,"slotNo":82409487,"epochSlotNo":156687,"stakeKey":"stake1uyjw6p0n8rq8fts0humdk4evhdvhnknmwnm2anazgrqekyqg2dfp4"},{"txId":59925211,"txHash":"8650f5d145d22590fe589303e362f192c950b786a3fbab9162d9f2c4196623b5","txTime":"2023/01/17 17:15:38","block":8282454,"epoch":388,"slotNo":82409447,"epochSlotNo":156647,"stakeKey":"stake1uxzu45sxa74kdaqn074cg8qhg44c2cg5srszkeu7ze5g2ag5qyju8"},{"txId":59925202,"txHash":"82b4356ec8c22276545f63dd382c88302207aa7ecc4127e1a082fb5b73c248a4","txTime":"2023/01/17 17:15:13","block":8282453,"epoch":388,"slotNo":82409422,"epochSlotNo":156622,"stakeKey":"stake1uxxl2dlyvqxa4dzf524a4ymhj4ypupmpevry644dxxl5q0qns4zs6"},{"txId":59925014,"txHash":"e5647f4ac3c0771d3746c75741724a8643c682c19a32c34ee8625bd544a7b6a7","txTime":"2023/01/17 17:12:14","block":8282445,"epoch":388,"slotNo":82409243,"epochSlotNo":156443,"stakeKey":"stake1uxmm3wjhqxxyefmqa2lnypl5m8y9fgk80j628lxq200hrjqxarrfa"},{"txId":59924911,"txHash":"0f3a4cb6d4db891c3e805a5308943c8167a64d1bdfbe20c2099caf3a63b64dc9","txTime":"2023/01/17 17:10:26","block":8282442,"epoch":388,"slotNo":82409135,"epochSlotNo":156335,"stakeKey":"stake1uxys4sxh69xznvx6fgv34awwje8js3xsqv5vecxpp5tfsmseru8yn"},{"txId":59924670,"txHash":"d51efaa2503421a9e72b9f0f1a19ab2fef51f2e60ef18140cabc0764127a80b2","txTime":"2023/01/17 17:05:44","block":8282433,"epoch":388,"slotNo":82408853,"epochSlotNo":156053,"stakeKey":"stake1u9j8ruyum7zk4d7p95rhtfg4vul0ke65dk08qvlgvfxzz8q9uh92j"},{"txId":59924303,"txHash":"3e1d2d88ee5273ae889878c47383a4f0818f53a87be12cabddfea82a750332d5","txTime":"2023/01/17 17:00:49","block":8282417,"epoch":388,"slotNo":82408558,"epochSlotNo":155758,"stakeKey":"stake1uylmu25kv7pytdqkqq685qv9xwypf5rqng4eqttn379j7uslxr9t5"},{"txId":59924187,"txHash":"b701ae01ed29c89015a7664d0c4530beff0a7312cb0d086574aeeee63900c35b","txTime":"2023/01/17 16:59:23","block":8282413,"epoch":388,"slotNo":82408472,"epochSlotNo":155672,"stakeKey":"stake1u8pws7cgxze2tr59mcq5g6n6mrkvu80tv36cjf8g7hhvzvqc8qxhg"},{"txId":59923923,"txHash":"680b0809fb324301ea4f6f3ad90df14da9f010f73d430b3c1d0bcabce6fac55a","txTime":"2023/01/17 16:53:54","block":8282398,"epoch":388,"slotNo":82408143,"epochSlotNo":155343,"stakeKey":"stake1u93czsfhcv8zwdx4vsuvg9gyc9u27aurzkzh8v69jskhc7crguky5"},{"txId":59923862,"txHash":"44640474d0ada3456a01d098f19ac990a28450ec64c21f330b41b349d4a8d599","txTime":"2023/01/17 16:52:28","block":8282392,"epoch":388,"slotNo":82408057,"epochSlotNo":155257,"stakeKey":"stake1uy4msjh33dljx29hcqmkcds84yfqt3r89urmnr57020ljggjf9a43"}],"totalItems":1647661,"totalPages":82384,"currentPage":0}