{"data":[{"hash":"9fadeceeae633a482935c477b2f9f57dec92405719752334dc20328e9d1d7e26","blockNo":8411731,"blockHash":"09d8cb009fb95fe611149b4d53f920e448ffafd0d37e62d436b23a2ff361c842","epochNo":394,"epochSlotNo":246717,"slot":85091517,"time":"2023/02/17 18:16:48","addressesInput":["addr1wxc45xspppp73takl93mq029905ptdfnmtgv6g7cr8pdyqgvks3s8","addr1wxc45xspppp73takl93mq029905ptdfnmtgv6g7cr8pdyqgvks3s8","addr1q8gzagnuzgzqkrtk66y2wc00svlqngfgan9x2j20zzlrh9tyww2mw7m4dkxfldyvfxvfv29qzlqqxekj0yfejhs4qp9qkaj7dx","addr1wxc45xspppp73takl93mq029905ptdfnmtgv6g7cr8pdyqgvks3s8"],"addressesOutput":["addr1wxc45xspppp73takl93mq029905ptdfnmtgv6g7cr8pdyqgvks3s8","addr1wxc45xspppp73takl93mq029905ptdfnmtgv6g7cr8pdyqgvks3s8","addr1wxc45xspppp73takl93mq029905ptdfnmtgv6g7cr8pdyqgvks3s8","addr1qxkmr0m22xeqludcg5rjdmecjxasu9fat0680qehtcsnftaadgykewa9ufvegeuca9yyq03d9v7ea2y2zthgu7hfgjtsddp6gr","addr1q8gzagnuzgzqkrtk66y2wc00svlqngfgan9x2j20zzlrh9tyww2mw7m4dkxfldyvfxvfv29qzlqqxekj0yfejhs4qp9qkaj7dx"],"fee":646286,"totalOutput":871346228,"tokens":[]},{"hash":"6256a41d4f1cbbd928dc6a47a816d298509318203c7dab55350c6055a46b551e","blockNo":8411731,"blockHash":"09d8cb009fb95fe611149b4d53f920e448ffafd0d37e62d436b23a2ff361c842","epochNo":394,"epochSlotNo":246717,"slot":85091517,"time":"2023/02/17 18:16:48","addressesInput":["addr1vyjdya9lmyfmysdgej3qc6thwat33lwm3umk8uwnvhy9g3gzvd2jp","addr1vyjcjxd32xg3tvy6wkxwssvwqft8a7z6l0h9g936hcdjaysxgfyjn"],"addressesOutput":["addr1qxnpgqf5xrmk8rxyujatfjnef4djcsxwdsmyl97nf9vheecn42vjvrjxys2flmxpth9z2rwrkp6luf5jqrj4p3aly7kq82fc4y","addr1vyjcjxd32xg3tvy6wkxwssvwqft8a7z6l0h9g936hcdjaysxgfyjn"],"fee":185689,"totalOutput":323485343,"tokens":[]},{"hash":"f1d2bcf7bec95d0bbf1b702b41a02dfa5af9b66345feb9add25c82ee201bda5f","blockNo":8411731,"blockHash":"09d8cb009fb95fe611149b4d53f920e448ffafd0d37e62d436b23a2ff361c842","epochNo":394,"epochSlotNo":246717,"slot":85091517,"time":"2023/02/17 18:16:48","addressesInput":["addr1q8wcdr0fqgwsf27s4cv7alk379ylj3cqu6rcmfe63x3crtaxlf6gt3n6cxz0u93ep00ynsktec4dpx00w7r5axwcz92qqssg25"],"addressesOutput":["addr1wxr2a8htmzuhj39y2gq7ftkpxv98y2g67tg8zezthgq4jkg0a4ul4","addr1qye46zd9857g4t6w0g067s9qsezqrk6kkcytpc37dvkx8x9xlf6gt3n6cxz0u93ep00ynsktec4dpx00w7r5axwcz92qn4se2n"],"fee":181517,"totalOutput":1499818483,"tokens":[]},{"hash":"d3d6a6938af379fcb9a90276ed21086b3d2ee70f03eb1c3116e445545208a163","blockNo":8411731,"blockHash":"09d8cb009fb95fe611149b4d53f920e448ffafd0d37e62d436b23a2ff361c842","epochNo":394,"epochSlotNo":246717,"slot":85091517,"time":"2023/02/17 18:16:48","addressesInput":["addr1zxgx3far7qygq0k6epa0zcvcvrevmn0ypsnfsue94nsn3tvpw288a4x0xf8pxgcntelxmyclq83s0ykeehchz2wtspks905plm","addr1qxnrv2quqxhvwxtxmygsmkufph4kjju6j5len7k2ljslpz8ql7k7gehlfvj6ektgu9ns8yx8epcp66337khxeq82rpgqe6lqyk"],"addressesOutput":["addr1qyw54gc49dth86ms6tlh6ychdyvy3ch73awnl74twrjpd03zflcsf8x6wfwpmpwxc7278f2xkrahx2flseuvksnwdz7qgfuvjw","addr1q9cwvremt6n320s2e3agq0jyq82yhrk3htsu0w426xnz5us70z4w0jgvcdkkynmm8wmds66jd9kusnjfpu6raw5fqp0sr07p5w","addr1q8k3tvcvjdwyhlk3vgrq3c3xvaseernne5emhwekh9xduk2jaer28mpj7nalvtd9g72zk77zrfe6swf5mateqqccd7hsgsn4zc","addr1qxnrv2quqxhvwxtxmygsmkufph4kjju6j5len7k2ljslpz8ql7k7gehlfvj6ektgu9ns8yx8epcp66337khxeq82rpgqe6lqyk","addr1qxnrv2quqxhvwxtxmygsmkufph4kjju6j5len7k2ljslpz8ql7k7gehlfvj6ektgu9ns8yx8epcp66337khxeq82rpgqe6lqyk"],"fee":395727,"totalOutput":151992093,"tokens":[]},{"hash":"4eb21675a1e3f81120a3ae6221e2abb21d8d9d07d9237ab627587b378feef089","blockNo":8411731,"blockHash":"09d8cb009fb95fe611149b4d53f920e448ffafd0d37e62d436b23a2ff361c842","epochNo":394,"epochSlotNo":246717,"slot":85091517,"time":"2023/02/17 18:16:48","addressesInput":["addr1qyun4362ksldanum6zechupjjtwyyqqz2ngmhg4qr2qdmyq0z8fqhv0tyaxk9m7srw2pmaa4ttw9u2ncdk3tpz3cv5tqy5w56f","addr1zxgx3far7qygq0k6epa0zcvcvrevmn0ypsnfsue94nsn3tvpw288a4x0xf8pxgcntelxmyclq83s0ykeehchz2wtspks905plm"],"addressesOutput":["addr1zxgx3far7qygq0k6epa0zcvcvrevmn0ypsnfsue94nsn3tvpw288a4x0xf8pxgcntelxmyclq83s0ykeehchz2wtspks905plm","addr1qyun4362ksldanum6zechupjjtwyyqqz2ngmhg4qr2qdmyq0z8fqhv0tyaxk9m7srw2pmaa4ttw9u2ncdk3tpz3cv5tqy5w56f"],"fee":302238,"totalOutput":6055412,"tokens":[]},{"hash":"847e76ae7c142795d30bccb6fce0f5dfdf74311849d47d53cf7d3d9bf29ecb73","blockNo":8411731,"blockHash":"09d8cb009fb95fe611149b4d53f920e448ffafd0d37e62d436b23a2ff361c842","epochNo":394,"epochSlotNo":246717,"slot":85091517,"time":"2023/02/17 18:16:48","addressesInput":["addr1qxkmr0m22xeqludcg5rjdmecjxasu9fat0680qehtcsnftaadgykewa9ufvegeuca9yyq03d9v7ea2y2zthgu7hfgjtsddp6gr","addr1qxkmr0m22xeqludcg5rjdmecjxasu9fat0680qehtcsnftaadgykewa9ufvegeuca9yyq03d9v7ea2y2zthgu7hfgjtsddp6gr","addr1qxkmr0m22xeqludcg5rjdmecjxasu9fat0680qehtcsnftaadgykewa9ufvegeuca9yyq03d9v7ea2y2zthgu7hfgjtsddp6gr"],"addressesOutput":["addr1qxkmr0m22xeqludcg5rjdmecjxasu9fat0680qehtcsnftaadgykewa9ufvegeuca9yyq03d9v7ea2y2zthgu7hfgjtsddp6gr","addr1qx0mgt3em3xe3v5czlr8tgtma5slmwjp8v08d04xcnukmwn7xdunc8ld2tcv4xxr3mx6j69lhxgf3wjw94a770hltzmq94w9ux","addr1qxkmr0m22xeqludcg5rjdmecjxasu9fat0680qehtcsnftaadgykewa9ufvegeuca9yyq03d9v7ea2y2zthgu7hfgjtsddp6gr"],"fee":240961,"totalOutput":15524309585,"tokens":[]},{"hash":"ac3877dc64b5c429956e2c4bac0ddd6317a10d701324aee504f221ce88959024","blockNo":8411731,"blockHash":"09d8cb009fb95fe611149b4d53f920e448ffafd0d37e62d436b23a2ff361c842","epochNo":394,"epochSlotNo":246717,"slot":85091517,"time":"2023/02/17 18:16:48","addressesInput":["addr1v95sf69jcfhnmknvffwmfvlvnccatqwfjcyh0nlfc6gh5scta2yzg","addr1v95sf69jcfhnmknvffwmfvlvnccatqwfjcyh0nlfc6gh5scta2yzg","addr1vypr00ss7hkqejmvh53xkyf0p9q0a4z2uprxmx6njc463vgst3pe4"],"addressesOutput":["addr1q9c5uezuevsmhagw7wgnwgfkz8j4zn0d0l5lwu4h7nrvlpt3fej9ejeph06sauu3xusnvy0929x76llf7aet0axxe7zsa7s22z","addr1vypr00ss7hkqejmvh53xkyf0p9q0a4z2uprxmx6njc463vgst3pe4"],"fee":191973,"totalOutput":133778941,"tokens":[]},{"hash":"e7acbfb7bfeb2f94adf7460edee53098137ce6825d06e6dc5b9005ecc41c9f9a","blockNo":8411731,"blockHash":"09d8cb009fb95fe611149b4d53f920e448ffafd0d37e62d436b23a2ff361c842","epochNo":394,"epochSlotNo":246717,"slot":85091517,"time":"2023/02/17 18:16:48","addressesInput":["addr1q82z0md2jnul3pjk5tu9xwavup9va4pjrddwdkwgmr2cvmxkqvyve74fkhdvjtxxg7xsgje5n49jnh5p6hlj08vck2cqag3xwu"],"addressesOutput":["addr1zxgx3far7qygq0k6epa0zcvcvrevmn0ypsnfsue94nsn3tvpw288a4x0xf8pxgcntelxmyclq83s0ykeehchz2wtspks905plm","addr1q82z0md2jnul3pjk5tu9xwavup9va4pjrddwdkwgmr2cvmxkqvyve74fkhdvjtxxg7xsgje5n49jnh5p6hlj08vck2cqag3xwu","addr1q82z0md2jnul3pjk5tu9xwavup9va4pjrddwdkwgmr2cvmxkqvyve74fkhdvjtxxg7xsgje5n49jnh5p6hlj08vck2cqag3xwu","addr1q82z0md2jnul3pjk5tu9xwavup9va4pjrddwdkwgmr2cvmxkqvyve74fkhdvjtxxg7xsgje5n49jnh5p6hlj08vck2cqag3xwu"],"fee":230709,"totalOutput":687011904,"tokens":[]},{"hash":"d5e5b8d68e6bdf01dfc5ec9662f10bb517e831db989a1e14c16fb4943f1f32cb","blockNo":8411731,"blockHash":"09d8cb009fb95fe611149b4d53f920e448ffafd0d37e62d436b23a2ff361c842","epochNo":394,"epochSlotNo":246717,"slot":85091517,"time":"2023/02/17 18:16:48","addressesInput":["addr1qyn0c9639tp3fvak23durall27qk88vp0fqfuu7sf0xsnww6hxz3jk9xw0sednr9fneh5z5h93cu6mnx9rh9w9r5artqdm8gcx"],"addressesOutput":["addr1qym5t6z7zmgq4mlwrela20phduexlt9g798er92cvqtj8sw6hxz3jk9xw0sednr9fneh5z5h93cu6mnx9rh9w9r5artqvcn8dw"],"fee":171573,"totalOutput":3481567536,"tokens":[]},{"hash":"daf02092f39f19caee87d818114f42f6b7dd0bc977673bb12f8e6c3c01fc835f","blockNo":8411731,"blockHash":"09d8cb009fb95fe611149b4d53f920e448ffafd0d37e62d436b23a2ff361c842","epochNo":394,"epochSlotNo":246717,"slot":85091517,"time":"2023/02/17 18:16:48","addressesInput":["addr1v95sf69jcfhnmknvffwmfvlvnccatqwfjcyh0nlfc6gh5scta2yzg"],"addressesOutput":["addr1q93s892839gte4xphnt02tf99tpvcm7g0fhwqges73uzf7fu7z969es3wvuyxgn4kfhud5zs2f3hpyf5h2z4pq4zhn6qk9qn3z","addr1v9u7va2sktlnz8dp3qadpnxxlv4m03672jy6elmntlxxs7q9nnwl9"],"fee":183794,"totalOutput":5951801276,"tokens":[]},{"hash":"d63bba9adb17c28f941e8fb7c284e0b292396952879ef002df5cd66c9a86c2ec","blockNo":8411731,"blockHash":"09d8cb009fb95fe611149b4d53f920e448ffafd0d37e62d436b23a2ff361c842","epochNo":394,"epochSlotNo":246717,"slot":85091517,"time":"2023/02/17 18:16:48","addressesInput":["addr1x97atw4jlfulpp73agh4hav2nfwlcwcfqcgr9mpucde9vmjs80extwffmz4yagvdxvr6cpd8nm3qne020739j706h3jqgthhnc","addr1vxcl9us2s7q68w5k0kx8k5rg6gwhn85qnhxwytm9zeuavcgte4yd6","addr1x97atw4jlfulpp73agh4hav2nfwlcwcfqcgr9mpucde9vmhwdw2g8sat0hr2pdt2ct27n33z0w6dzsfy684ut24gjfsq2qynek","addr1x97atw4jlfulpp73agh4hav2nfwlcwcfqcgr9mpucde9vm3lzwuv27k9keyjpag32pmx9mf63tn77feppvm7d0s5ndnsqdv78z","addr1x97atw4jlfulpp73agh4hav2nfwlcwcfqcgr9mpucde9vm3saw6lwmnlk6z0aehzea9nwfvdvang9v42yylt83ym8zqqm5074y","addr1x97atw4jlfulpp73agh4hav2nfwlcwcfqcgr9mpucde9vmj3z228hznt0rz2enxfzhtk2270gels0ht9uvf9wmyxs99qsgwdnc","addr1x97atw4jlfulpp73agh4hav2nfwlcwcfqcgr9mpucde9vmk8jkqyfeeuz5m6sfv27g9vav8w83lsaqewjqxnpnpjd9wsr4swv0","addr1x97atw4jlfulpp73agh4hav2nfwlcwcfqcgr9mpucde9vmjypq27sagqxt4jwt57mdsef3zu65ng4zmzxaa246s97nxsk5pksg","addr1x97atw4jlfulpp73agh4hav2nfwlcwcfqcgr9mpucde9vm43q9zvxe5ehfytyye9m3dq3knvuz2fdnax7lhhjm4vvjgq8wmp5z","addr1x97atw4jlfulpp73agh4hav2nfwlcwcfqcgr9mpucde9vmja0x7l0scsd0wvfm3ljugdpsu4kctwfjyud65xfeht5uyqmfjy8x","addr1x97atw4jlfulpp73agh4hav2nfwlcwcfqcgr9mpucde9vmnys5sq3xea3866499dczkshygljanhepcqjfwyhe3fpads9jkkqh","addr1x97atw4jlfulpp73agh4hav2nfwlcwcfqcgr9mpucde9vmh0sfgalgyvgedlnhfl7u2059dkyhp453hm86797rm5qhasum9d4l","addr1x97atw4jlfulpp73agh4hav2nfwlcwcfqcgr9mpucde9vmhnschmu7dwefmhkd078735ucq2yh90ylkzxrenz9cy8udsfw6k4m","addr1x97atw4jlfulpp73agh4hav2nfwlcwcfqcgr9mpucde9vmsfpkhcpsthxpprf49lvfy2jhga5mygpfcj4qaypfzkmhnskrm6uv","addr1w8q93prq7gd3gax73amzrv7fq4evup0wpr3zkqrtktep7eqy26922","addr1x97atw4jlfulpp73agh4hav2nfwlcwcfqcgr9mpucde9vmhccartl0f44hvc4vq8n3042epqvqq8cd4g9znpl5kdeypsx0m4jt","addr1x97atw4jlfulpp73agh4hav2nfwlcwcfqcgr9mpucde9vmk0l2wkhq0pr72jsdrv2kn8v3pqnrt0qykpq9fwr2wn0czsklm7ad","addr1x97atw4jlfulpp73agh4hav2nfwlcwcfqcgr9mpucde9vmnupshega3f5ym0freunp0p46rchpthvsyty398fh0msywsxgwa75"],"addressesOutput":["addr1w9afj34vc68qdm7heuz7esmr8sj76wpa45t7dh3ag8xpplgml3zuk","addr1vxcl9us2s7q68w5k0kx8k5rg6gwhn85qnhxwytm9zeuavcgte4yd6"],"fee":445374,"totalOutput":17513517008218,"tokens":[]},{"hash":"ac71bf01b0c365cbe17cdf007367dfe8e5b216183a284edc3157da44fe531ab4","blockNo":8411730,"blockHash":"181db6d4e81a0954a558c542c6010a98e60fa38d533082f8afa6735b314314a4","epochNo":394,"epochSlotNo":246705,"slot":85091505,"time":"2023/02/17 18:16:36","addressesInput":["addr1qyaz32vd37kmvlvqnr565jk7nxcptpc8deq72pm6kwudcluzzdyv39lmr2wl9v9c9gk8cnhmftusyq8whf4ms8ssr6kq59chrs"],"addressesOutput":["addr1v9cht2qfp0gw7pf8vk9x0xpxsczqtnltgt5d4k3xwgwj39gk7s9r5","addr1qyr9vhnwz4dsl0cn7pxk42x6gpwnnpwnszax52vknz5r0pyzzdyv39lmr2wl9v9c9gk8cnhmftusyq8whf4ms8ssr6kqxuk5y8"],"fee":167085,"totalOutput":587343802,"tokens":[]},{"hash":"2b0328947e53ca223a281d777ed057baa0f0d6391597b8f0158bc4033c6e8a3e","blockNo":8411730,"blockHash":"181db6d4e81a0954a558c542c6010a98e60fa38d533082f8afa6735b314314a4","epochNo":394,"epochSlotNo":246705,"slot":85091505,"time":"2023/02/17 18:16:36","addressesInput":["addr1qxnev3ln48d6ue2nrhm8cxccr28p92rksz297q40ac6q026wd707k9uku3ql447u9jqu5t2vy07pa9k292c3jkkdpt8slcr59s","addr1qxnev3ln48d6ue2nrhm8cxccr28p92rksz297q40ac6q026wd707k9uku3ql447u9jqu5t2vy07pa9k292c3jkkdpt8slcr59s","addr1qxnev3ln48d6ue2nrhm8cxccr28p92rksz297q40ac6q026wd707k9uku3ql447u9jqu5t2vy07pa9k292c3jkkdpt8slcr59s"],"addressesOutput":["addr1zxgx3far7qygq0k6epa0zcvcvrevmn0ypsnfsue94nsn3tvpw288a4x0xf8pxgcntelxmyclq83s0ykeehchz2wtspks905plm","addr1qxnev3ln48d6ue2nrhm8cxccr28p92rksz297q40ac6q026wd707k9uku3ql447u9jqu5t2vy07pa9k292c3jkkdpt8slcr59s","addr1qxnev3ln48d6ue2nrhm8cxccr28p92rksz297q40ac6q026wd707k9uku3ql447u9jqu5t2vy07pa9k292c3jkkdpt8slcr59s"],"fee":232117,"totalOutput":886763939,"tokens":[]},{"hash":"cca1b8178f082d1482f4db88a1fcd5c632887378f403fa347ee583a461d0941d","blockNo":8411730,"blockHash":"181db6d4e81a0954a558c542c6010a98e60fa38d533082f8afa6735b314314a4","epochNo":394,"epochSlotNo":246705,"slot":85091505,"time":"2023/02/17 18:16:36","addressesInput":["addr1qxkrt8rrxyhc6darvdvypc9vn7vvvc97jtgjcmkted58yrp0ye20kgw5cjy9unsntngxjzxke37pk9hlp259hz968swqpegpwy","addr1qxkrt8rrxyhc6darvdvypc9vn7vvvc97jtgjcmkted58yrp0ye20kgw5cjy9unsntngxjzxke37pk9hlp259hz968swqpegpwy"],"addressesOutput":["addr1qx7zs7h3ufpuhacqe45q80gjqu9qxnff5xk3fulleld07wcw6jmzygxp5zyyjnrh7hxhzah8ge6c3xdwkntmlfh2g39s2c5wqg","addr1qxkrt8rrxyhc6darvdvypc9vn7vvvc97jtgjcmkted58yrp0ye20kgw5cjy9unsntngxjzxke37pk9hlp259hz968swqpegpwy","addr1qxkrt8rrxyhc6darvdvypc9vn7vvvc97jtgjcmkted58yrp0ye20kgw5cjy9unsntngxjzxke37pk9hlp259hz968swqpegpwy"],"fee":317609,"totalOutput":35238935,"tokens":[]},{"hash":"35a3c3c2d0a1b17dd359c2ad7024319686f15ada8c87b286dc3633e5bb67f6ca","blockNo":8411730,"blockHash":"181db6d4e81a0954a558c542c6010a98e60fa38d533082f8afa6735b314314a4","epochNo":394,"epochSlotNo":246705,"slot":85091505,"time":"2023/02/17 18:16:36","addressesInput":["addr1vypr00ss7hkqejmvh53xkyf0p9q0a4z2uprxmx6njc463vgst3pe4"],"addressesOutput":["addr1qyjuanashd68ykn3wqr3u03wupd96ctv76qu2ljx2nwum2wn97xf30c0g5hrsg2l05ugh5alp7mt4xxldtn6e9jyy0ksal0gaa","addr1vypr00ss7hkqejmvh53xkyf0p9q0a4z2uprxmx6njc463vgst3pe4"],"fee":183987,"totalOutput":69692986729,"tokens":[]},{"hash":"48b2cfc0d2f7b073597273584a2343434cf8f49f355e02b3f1da450952d846b8","blockNo":8411730,"blockHash":"181db6d4e81a0954a558c542c6010a98e60fa38d533082f8afa6735b314314a4","epochNo":394,"epochSlotNo":246705,"slot":85091505,"time":"2023/02/17 18:16:36","addressesInput":["addr1q9m5lelgu6sh23cxd9wpstvleq405jhpeydkpa7gyz5nygxhq4e2ceq9jenu7hcwmts58ccvfs4t766k22tvnef6g9gq888egk","addr1q9m5lelgu6sh23cxd9wpstvleq405jhpeydkpa7gyz5nygxhq4e2ceq9jenu7hcwmts58ccvfs4t766k22tvnef6g9gq888egk"],"addressesOutput":["addr1wxn9efv2f6w82hagxqtn62ju4m293tqvw0uhmdl64ch8uwc0h43gt","addr1qxl82ms3ek3mzm2wlmgdledtsd7srcg8ar4l5usn3c62sxxhq4e2ceq9jenu7hcwmts58ccvfs4t766k22tvnef6g9gq6gjwta"],"fee":187149,"totalOutput":3005614111,"tokens":[]},{"hash":"727c933298ca3c2a50829c73b4ac78c78b3184ebffdde8238dfcb8f1a67961e5","blockNo":8411730,"blockHash":"181db6d4e81a0954a558c542c6010a98e60fa38d533082f8afa6735b314314a4","epochNo":394,"epochSlotNo":246705,"slot":85091505,"time":"2023/02/17 18:16:36","addressesInput":["addr1qyje8gnfuum0xz9azcqk553tvlpw6jkkyceuzl5ka56e52v74tnfv80r5cmy0q8c9d2pcdez7pdn4fw83s2ezv3ru7ds4mzxum","addr1qyje8gnfuum0xz9azcqk553tvlpw6jkkyceuzl5ka56e52v74tnfv80r5cmy0q8c9d2pcdez7pdn4fw83s2ezv3ru7ds4mzxum"],"addressesOutput":["addr1wyzynye0nksztrfzpsulsq7whr3vgh7uvp0gm4p0x42ckkqqq6kxq","addr1qyje8gnfuum0xz9azcqk553tvlpw6jkkyceuzl5ka56e52v74tnfv80r5cmy0q8c9d2pcdez7pdn4fw83s2ezv3ru7ds4mzxum"],"fee":179229,"totalOutput":136090502,"tokens":[]},{"hash":"029edd9c4023c7f24fb6a62a97006a78ef9554393f868f328fc2ab78424ef06f","blockNo":8411730,"blockHash":"181db6d4e81a0954a558c542c6010a98e60fa38d533082f8afa6735b314314a4","epochNo":394,"epochSlotNo":246705,"slot":85091505,"time":"2023/02/17 18:16:36","addressesInput":["addr1wxar2qwdzuxfvdyuxsk9aapy93vkkk904mxullqtkp90pmqh0xrmz","addr1wycwqtlc2a3f3w4axqwwukyj34anyqmy404w24kydc70gtg5w4elq","addr1q9r8ge0za6dq850dmqmeycjeyu0kf4jcsmp0hslf9ww0cypzsq6j0d3jfs62q5ttr7ppy2vy5qd96l6ngky6ex2mqeesp0st87"],"addressesOutput":["addr1q9r8ge0za6dq850dmqmeycjeyu0kf4jcsmp0hslf9ww0cypzsq6j0d3jfs62q5ttr7ppy2vy5qd96l6ngky6ex2mqeesp0st87","addr1wycwqtlc2a3f3w4axqwwukyj34anyqmy404w24kydc70gtg5w4elq","addr1q9r8ge0za6dq850dmqmeycjeyu0kf4jcsmp0hslf9ww0cypzsq6j0d3jfs62q5ttr7ppy2vy5qd96l6ngky6ex2mqeesp0st87"],"fee":808531,"totalOutput":77312484,"tokens":[]},{"hash":"56c177de3a5abb1c50197ac5af1821325a5075acc65313c9ae42b293e9c7ceb9","blockNo":8411729,"blockHash":"076b2b8c598f1d8bb6665470c4001ddfc667fb21ca615bd4a9da9bae592dc921","epochNo":394,"epochSlotNo":246703,"slot":85091503,"time":"2023/02/17 18:16:34","addressesInput":["addr1q8mxtxv4me0236qnyt6nwkxm3tpsey06kkjwvq96nm2w6lw0adx9tqjpwx0t20j6leuf7t2k70zv92cxayff7u6mkjnq6sdwc8","addr1zxgx3far7qygq0k6epa0zcvcvrevmn0ypsnfsue94nsn3tvpw288a4x0xf8pxgcntelxmyclq83s0ykeehchz2wtspks905plm","addr1q8mxtxv4me0236qnyt6nwkxm3tpsey06kkjwvq96nm2w6lw0adx9tqjpwx0t20j6leuf7t2k70zv92cxayff7u6mkjnq6sdwc8"],"addressesOutput":["addr1qxs2mu7hram7autzpxrjdl5hywjmnx62fe4z5xuqqyrxpxp2f4hvnq4vthlmlg66cs9lgkkcf635s4u83lgg64uymhrsmhetg3","addr1q9cwvremt6n320s2e3agq0jyq82yhrk3htsu0w426xnz5us70z4w0jgvcdkkynmm8wmds66jd9kusnjfpu6raw5fqp0sr07p5w","addr1q9hcuegfe8j2jx4g4gt6ww75pxp3ydg0x22px35mm7zxc246pskpxw6xcn99algrvvd2sw2nspdpn5t755lsv6d38thqzmpete","addr1q8mxtxv4me0236qnyt6nwkxm3tpsey06kkjwvq96nm2w6lw0adx9tqjpwx0t20j6leuf7t2k70zv92cxayff7u6mkjnq6sdwc8","addr1q8mxtxv4me0236qnyt6nwkxm3tpsey06kkjwvq96nm2w6lw0adx9tqjpwx0t20j6leuf7t2k70zv92cxayff7u6mkjnq6sdwc8","addr1q8mxtxv4me0236qnyt6nwkxm3tpsey06kkjwvq96nm2w6lw0adx9tqjpwx0t20j6leuf7t2k70zv92cxayff7u6mkjnq6sdwc8","addr1q8mxtxv4me0236qnyt6nwkxm3tpsey06kkjwvq96nm2w6lw0adx9tqjpwx0t20j6leuf7t2k70zv92cxayff7u6mkjnq6sdwc8"],"fee":438135,"totalOutput":951505236,"tokens":[]},{"hash":"b8a77efce18bb9180ab3e0248b9915bd2e370fc278beef4bdecca3ec75e9353f","blockNo":8411729,"blockHash":"076b2b8c598f1d8bb6665470c4001ddfc667fb21ca615bd4a9da9bae592dc921","epochNo":394,"epochSlotNo":246703,"slot":85091503,"time":"2023/02/17 18:16:34","addressesInput":["addr1q9vhl55ssvqdlam25cy0l80pd9jx50z605x40dx38qul7u3eraphx67730ge2l9t38muvn9t0d8sjkgfmzkn0mayy57sugh5nl","addr1zxgx3far7qygq0k6epa0zcvcvrevmn0ypsnfsue94nsn3tvpw288a4x0xf8pxgcntelxmyclq83s0ykeehchz2wtspks905plm"],"addressesOutput":["addr1zxgx3far7qygq0k6epa0zcvcvrevmn0ypsnfsue94nsn3tvpw288a4x0xf8pxgcntelxmyclq83s0ykeehchz2wtspks905plm","addr1q9vhl55ssvqdlam25cy0l80pd9jx50z605x40dx38qul7u3eraphx67730ge2l9t38muvn9t0d8sjkgfmzkn0mayy57sugh5nl"],"fee":315612,"totalOutput":91533957,"tokens":[]}],"totalItems":61477293,"totalPages":3073865,"currentPage":0}