{"data":[{"txId":25770450,"txHash":"9c765f282ec2eec0ddec35d292722774fbcd046e7cb2d253b659b31d7a701e64","txTime":"2022/01/07 03:11:39","block":6725263,"epoch":313,"slotNo":49958808,"epochSlotNo":106008,"stakeKey":"stake1uxpdn82dynzd3hqewvp5d4wzzhlkcpr8qgm60q0fn22wa4qe5q5mv"},{"txId":25770405,"txHash":"437b228b6eda10a8a6eac6253d50a48e1865373cf674f59cd7dc5b766a155adf","txTime":"2022/01/07 03:11:22","block":6725262,"epoch":313,"slotNo":49958791,"epochSlotNo":105991,"stakeKey":"stake1uxesppt5nwam052az99frkfhklnfs070rfluy5wntqtefpglys9t9"},{"txId":25770392,"txHash":"19e11b4bc96c9504f020a3d9bf72cab9f0bfa638dca21d45aaaa53ab45206f3c","txTime":"2022/01/07 03:11:22","block":6725262,"epoch":313,"slotNo":49958791,"epochSlotNo":105991,"stakeKey":"stake1ux6sdq2p79ahu9e9k0a86dt7wryxhm80arxvu6g3hzs4sfq9smejy"},{"txId":25770284,"txHash":"147ef11dd03a60076485197e60575c6c54eec4cbd9d3ad1eebe576894f5c66b3","txTime":"2022/01/07 03:09:31","block":6725259,"epoch":313,"slotNo":49958680,"epochSlotNo":105880,"stakeKey":"stake1uyf02udzax75mrnapuy7l0npnvknyj7jm5eg89ffk90ly6s5gf0kw"},{"txId":25770228,"txHash":"919ef2c7432e3f13fc8befbbdcb604873bbca5e995a04224335b14ce17b9d9db","txTime":"2022/01/07 03:08:59","block":6725258,"epoch":313,"slotNo":49958648,"epochSlotNo":105848,"stakeKey":"stake1uxd8x46fpgn0zcdnh8tqv9qgwgs9kmrt4ge3sr8scz32xng93nxln"},{"txId":25770185,"txHash":"0cdcfb80b24bf3453029ded1499ff6d0618c4e4b0c4b7efede96e62d781b7e0e","txTime":"2022/01/07 03:08:44","block":6725257,"epoch":313,"slotNo":49958633,"epochSlotNo":105833,"stakeKey":"stake1u868085tru8jcdgkqyqnx7zcen05qcjnr8p9x4lsal0makcg7kas0"},{"txId":25770169,"txHash":"b86e6fa74a930f0961df03553252026ade0308bc353dce7fe8e4880b7aa9336d","txTime":"2022/01/07 03:08:44","block":6725257,"epoch":313,"slotNo":49958633,"epochSlotNo":105833,"stakeKey":"stake1uyepjv98tjyyqsrz8y3rehy0j0przt85k3x046f6de7qklg97alfg"},{"txId":25770076,"txHash":"484d51650b83c3b21e2900bf34307c4bc775145d26f6e2741fbacd7aeb7da2d8","txTime":"2022/01/07 03:07:55","block":6725255,"epoch":313,"slotNo":49958584,"epochSlotNo":105784,"stakeKey":"stake1ux9y5y5gmzkg7rp5tmv6a4nnytmhhqnzwypat2g5trzrqpsr5e47q"},{"txId":25770056,"txHash":"6eba4621d3697dd179367eeba011183b78d058d623a8494e0982c6e4b8423467","txTime":"2022/01/07 03:07:55","block":6725255,"epoch":313,"slotNo":49958584,"epochSlotNo":105784,"stakeKey":"stake1uyct5mrljlh84kgm586hm0rjfcantvhap6ljfhwcwxj3f6g00g4nj"},{"txId":25770044,"txHash":"22f71f5a2fb8c8c0c9163877260a36bc79ee1f219695651a180393361e86c2d0","txTime":"2022/01/07 03:07:55","block":6725255,"epoch":313,"slotNo":49958584,"epochSlotNo":105784,"stakeKey":"stake1u8cdka52jxfktemshhtwff4qk5pl9ky74vm5lwyamvdcrcsdt9ear"},{"txId":25769907,"txHash":"41680be1b24f9277d516cf7f757337f781be0b0311e092bf6b3b33fa129beb86","txTime":"2022/01/07 03:06:06","block":6725250,"epoch":313,"slotNo":49958475,"epochSlotNo":105675,"stakeKey":"stake1uxt4dku7s54cpzxey2vsdykvvg2zmgvpg2xu84s8p7vxhjg5e2h3g"},{"txId":25769809,"txHash":"503e12e830ede66ad182b6a3eec9183a8393bc3e80acf9c51da4a560a8f230c5","txTime":"2022/01/07 03:05:12","block":6725248,"epoch":313,"slotNo":49958421,"epochSlotNo":105621,"stakeKey":"stake1uyrg9c2mpy5cwshw55fnce54vkpe8uf5z3dc4h9nwsxg44gf3959w"},{"txId":25769759,"txHash":"7aedc7c5ad4e7be0af81cdefb2919c36489dceec3e4f4e7e7e0562d07f73b5c8","txTime":"2022/01/07 03:04:53","block":6725247,"epoch":313,"slotNo":49958402,"epochSlotNo":105602,"stakeKey":"stake1u96y02d5sk7wnkumwsmja2kmc9j4rpx8625eun3znvzymecs0uf53"},{"txId":25769692,"txHash":"cb3b6799b01e3b9d703d35fe993a672200b9883e6f942c20527ce4768880e085","txTime":"2022/01/07 03:04:01","block":6725245,"epoch":313,"slotNo":49958350,"epochSlotNo":105550,"stakeKey":"stake1ux8fsze7nme2kya2e00phde3ls3ep7gsp0dgpjff8mhn8egz7u6rm"},{"txId":25769654,"txHash":"cd6718b05053de0e31ab47bf18e4258dd74432dffcbb0c740f1af1ae2c448869","txTime":"2022/01/07 03:04:01","block":6725245,"epoch":313,"slotNo":49958350,"epochSlotNo":105550,"stakeKey":"stake1uy52c73rnlur60nqxwzwxqaw5h03pfq6lx663v4mgzu8kds592djm"},{"txId":25769619,"txHash":"ced80bb6ff504537f784def697c924065872e1446846a2c758495d24d4086d70","txTime":"2022/01/07 03:02:51","block":6725244,"epoch":313,"slotNo":49958280,"epochSlotNo":105480,"stakeKey":"stake1u8gztcdy6xfau5667mx593gdh7mpw7gzne8qxww7zkhrgggxfa486"},{"txId":25769605,"txHash":"41c98034a1fda2e410731a53ecdcec75ea5af4751d2983454c38e8768d80a069","txTime":"2022/01/07 03:02:28","block":6725243,"epoch":313,"slotNo":49958257,"epochSlotNo":105457,"stakeKey":"stake1u9ex0hzl2dkl2jjff9qvtfgqd4ggu6rqtzwzgcwv2h0gqls06p2qu"},{"txId":25769595,"txHash":"c225dea0d442381ef691c9536d1282b7cc827a955bd3d2ad773c539b335f71ea","txTime":"2022/01/07 03:02:28","block":6725243,"epoch":313,"slotNo":49958257,"epochSlotNo":105457,"stakeKey":"stake1u8ltx540znfwylecep0u99ct9m47vreffakxrdstvlyxzkcg7d0jv"},{"txId":25769446,"txHash":"2432b1ca0cca7d4839ffc169a6bd584da3bb17a3c251d3b7987b50e564f75ff7","txTime":"2022/01/07 03:00:41","block":6725239,"epoch":313,"slotNo":49958150,"epochSlotNo":105350,"stakeKey":"stake1u8lmqlg5aekh59fuwccyhfx58drmzz3r7m4ecm4zskm9qus7n8ugj"},{"txId":25769340,"txHash":"3516c2496206c9139c04476375cd85704e3b3a541928cd2cacc4587132efd09f","txTime":"2022/01/07 02:59:30","block":6725235,"epoch":313,"slotNo":49958079,"epochSlotNo":105279,"stakeKey":"stake1u93vg8kkgyahky3pye00p7z4x3vuyl2mt8mrrzsw0mm9n8cdywxja"}],"totalItems":1259033,"totalPages":62952,"currentPage":0}