{"data":[{"address":"addr1z8snz7c4974vzdpxu65ruphl3zjdvtxw8strf2c2tmqnxz2j2c79gy9l76sdg0xwhd7r0c0kna0tycz4y5s6mlenh8pq0xmsha","txCount":820469,"balance":67863979688895},{"address":"addr1z9s3v9vyyctzr4xagvrayw87yvzre6qcq7qw2uvqfznf92qm5kjdmrpmng059yellupyvwgay2v0lz6663swmds7hp0q2jjlf4","txCount":399,"balance":33243674939207},{"address":"addr1z8jd97ct35n4s5ss8lt4sq0zclw0dmf7yak8fj46m0jm3dswtf6nj8t35qph4n6m04gawl49yvsxytfjpjpcfhehpcvqwwrrlu","txCount":16,"balance":28500000000000},{"address":"addr1wy0nmrl40z3nx9d0d79pu5u7zett4hl2apfuj9caqgf7jjqcj3r8z","txCount":1070,"balance":16316911662384},{"address":"addr1w9qzpelu9hn45pefc0xr4ac4kdxeswq7pndul2vuj59u8tqaxdznu","txCount":515903,"balance":10557884020317},{"address":"addr1w93j7t23z99448k7xspzrppjtgun0janh0rcq6k8wt2e8vc2fraw4","txCount":4185,"balance":6535704399230},{"address":"addr1z8nvjzjeydcn4atcd93aac8allvrpjn7pjr2qsweukpnaytpq3ryg76qvca5eu9c6py33ncg8zf09nh7gy2cvdps2yeqlvvkfh","txCount":5438,"balance":6182477092284},{"address":"addr1w8pydstdswmdqmg2rdt59dzql3zgfp9pt8sulnjgalycwdsj9js7w","txCount":70921,"balance":4460525527331},{"address":"addr1z8nvjzjeydcn4atcd93aac8allvrpjn7pjr2qsweukpnayd8awyllkdhpwm7r3tnvvm0mzx592fzgazhuevl679cf7lq35qw53","txCount":3479,"balance":3098000514703},{"address":"addr1z8nvjzjeydcn4atcd93aac8allvrpjn7pjr2qsweukpnaytvcg6zm2vds6mz9x3h3yalqmnf24w86m09n40q3tgqxjms9yu6v8","txCount":21617,"balance":2314870282380},{"address":"addr1z8jd97ct35n4s5ss8lt4sq0zclw0dmf7yak8fj46m0jm3dkumyryd7wxymucr47uyf9zekr5wn43f0ysvzvsgc5x80zqlvjd9t","txCount":37,"balance":2118132572820},{"address":"addr1z8nvjzjeydcn4atcd93aac8allvrpjn7pjr2qsweukpnay2tqrfwamagnyfv43jgm94yvkmsnfvpzlytmkl0cs0uh8zqszu5da","txCount":9967,"balance":1878526781308},{"address":"addr1wx60hn6dy2mu3jms3pqy7f3hz0zasfkegq2rgxyek7xdceg0de86e","txCount":28,"balance":1775070000000},{"address":"addr1z9fvxytwm8dv0aht3x8cxetm3tu4f47kaqdgxney8mu6hj8ktmp978vxcf308hnf8v4js57z4az4a0sx592h7t58w7fsqz6x77","txCount":7,"balance":1529383561637},{"address":"addr1w9jmh6rr360fcf6s6yfcn7s294vkw9cwka2uywmq5e6fcqcdd8xt5","txCount":21,"balance":1397700000000},{"address":"addr1x97atw4jlfulpp73agh4hav2nfwlcwcfqcgr9mpucde9vmj3z228hznt0rz2enxfzhtk2270gels0ht9uvf9wmyxs99qsgwdnc","txCount":7287,"balance":1337278655171},{"address":"addr1x97atw4jlfulpp73agh4hav2nfwlcwcfqcgr9mpucde9vmk8jkqyfeeuz5m6sfv27g9vav8w83lsaqewjqxnpnpjd9wsr4swv0","txCount":7244,"balance":1337278655156},{"address":"addr1x97atw4jlfulpp73agh4hav2nfwlcwcfqcgr9mpucde9vmhccartl0f44hvc4vq8n3042epqvqq8cd4g9znpl5kdeypsx0m4jt","txCount":7290,"balance":1337278655156},{"address":"addr1x97atw4jlfulpp73agh4hav2nfwlcwcfqcgr9mpucde9vmnys5sq3xea3866499dczkshygljanhepcqjfwyhe3fpads9jkkqh","txCount":7275,"balance":1337278655156},{"address":"addr1x97atw4jlfulpp73agh4hav2nfwlcwcfqcgr9mpucde9vmhnschmu7dwefmhkd078735ucq2yh90ylkzxrenz9cy8udsfw6k4m","txCount":7271,"balance":1337278655156}],"totalItems":36152,"totalPages":1808,"currentPage":0}