{"data":[{"hash":"386fd2b49254fcc893139775afc3c5664eec46acad2f77a0f199b4caa1ed569d","blockNo":8363669,"blockHash":"bb01872875312d7c1c0b66d067e748481d10fd9c449089593b1dff97f5c49768","epochNo":392,"epochSlotNo":104828,"slot":84085628,"time":"2023/02/06 02:51:59","addressesInput":["addr1qx30es8xm3tv39mk0xwlttk9rv3ze2s4t3h349hsa60spjnndrhw6lcun6n57e6gt2f6d3zea87u2e94q446fs2lwzaq2ukyje","addr1qx30es8xm3tv39mk0xwlttk9rv3ze2s4t3h349hsa60spjnndrhw6lcun6n57e6gt2f6d3zea87u2e94q446fs2lwzaq2ukyje","addr1qx30es8xm3tv39mk0xwlttk9rv3ze2s4t3h349hsa60spjnndrhw6lcun6n57e6gt2f6d3zea87u2e94q446fs2lwzaq2ukyje","addr1qx30es8xm3tv39mk0xwlttk9rv3ze2s4t3h349hsa60spjnndrhw6lcun6n57e6gt2f6d3zea87u2e94q446fs2lwzaq2ukyje","addr1qx30es8xm3tv39mk0xwlttk9rv3ze2s4t3h349hsa60spjnndrhw6lcun6n57e6gt2f6d3zea87u2e94q446fs2lwzaq2ukyje","addr1qx30es8xm3tv39mk0xwlttk9rv3ze2s4t3h349hsa60spjnndrhw6lcun6n57e6gt2f6d3zea87u2e94q446fs2lwzaq2ukyje","addr1qx30es8xm3tv39mk0xwlttk9rv3ze2s4t3h349hsa60spjnndrhw6lcun6n57e6gt2f6d3zea87u2e94q446fs2lwzaq2ukyje"],"addressesOutput":["addr1zxgx3far7qygq0k6epa0zcvcvrevmn0ypsnfsue94nsn3tvpw288a4x0xf8pxgcntelxmyclq83s0ykeehchz2wtspks905plm","addr1qx30es8xm3tv39mk0xwlttk9rv3ze2s4t3h349hsa60spjnndrhw6lcun6n57e6gt2f6d3zea87u2e94q446fs2lwzaq2ukyje","addr1qx30es8xm3tv39mk0xwlttk9rv3ze2s4t3h349hsa60spjnndrhw6lcun6n57e6gt2f6d3zea87u2e94q446fs2lwzaq2ukyje","addr1qx30es8xm3tv39mk0xwlttk9rv3ze2s4t3h349hsa60spjnndrhw6lcun6n57e6gt2f6d3zea87u2e94q446fs2lwzaq2ukyje","addr1qx30es8xm3tv39mk0xwlttk9rv3ze2s4t3h349hsa60spjnndrhw6lcun6n57e6gt2f6d3zea87u2e94q446fs2lwzaq2ukyje"],"fee":244437,"totalOutput":1972349480,"tokens":[]},{"hash":"f50651072a3ccedb9c2d2cf969044a7a555fe2dff907177f685cf9911f4cb0e2","blockNo":8363669,"blockHash":"bb01872875312d7c1c0b66d067e748481d10fd9c449089593b1dff97f5c49768","epochNo":392,"epochSlotNo":104828,"slot":84085628,"time":"2023/02/06 02:51:59","addressesInput":["addr1qxeq9gkk4j25pwlcnjfjrhqhjn4dde6uvhy83rwhtdqvkyhdq7s5qcx5uycvruqlsqvpcrc8x3ltemj9qd3dkuxlg4kqfphfzj"],"addressesOutput":["addr1vyj57qd38xgruyh7nqa5gsqpnqf36zdax4gw3yu4sd4gwysc5eq9u","addr1q9ly9anm479urhd05wmyf6r3surtpkl6zuqcdlrwc4cz2z0dq7s5qcx5uycvruqlsqvpcrc8x3ltemj9qd3dkuxlg4kqnnlfjc"],"fee":167085,"totalOutput":76634001,"tokens":[]},{"hash":"2682b70d0557858f223552a358515bd6981e2bda543e8ae1784dbdbde1c8f6d4","blockNo":8363669,"blockHash":"bb01872875312d7c1c0b66d067e748481d10fd9c449089593b1dff97f5c49768","epochNo":392,"epochSlotNo":104828,"slot":84085628,"time":"2023/02/06 02:51:59","addressesInput":["addr1q8p83hlnmyz857rdsp8lcmu208yjnmmvk8zzcquu68k9egghsvhwl4fqzc4z2vvv98umsunfydwvzslv3dvsy47j8rws3adxdq","addr1q8p83hlnmyz857rdsp8lcmu208yjnmmvk8zzcquu68k9egghsvhwl4fqzc4z2vvv98umsunfydwvzslv3dvsy47j8rws3adxdq"],"addressesOutput":["addr1zxgx3far7qygq0k6epa0zcvcvrevmn0ypsnfsue94nsn3tvpw288a4x0xf8pxgcntelxmyclq83s0ykeehchz2wtspks905plm","addr1q8p83hlnmyz857rdsp8lcmu208yjnmmvk8zzcquu68k9egghsvhwl4fqzc4z2vvv98umsunfydwvzslv3dvsy47j8rws3adxdq","addr1q8p83hlnmyz857rdsp8lcmu208yjnmmvk8zzcquu68k9egghsvhwl4fqzc4z2vvv98umsunfydwvzslv3dvsy47j8rws3adxdq"],"fee":377845,"totalOutput":34833240,"tokens":[]},{"hash":"4a0dbc0335a5e7a085c4502a8c9bd7f2a8e27064f9830137e3c36837522a7e9a","blockNo":8363669,"blockHash":"bb01872875312d7c1c0b66d067e748481d10fd9c449089593b1dff97f5c49768","epochNo":392,"epochSlotNo":104828,"slot":84085628,"time":"2023/02/06 02:51:59","addressesInput":["addr1q80n636eum7cpucpzzsakf86uxx2wu3t9gkgjuayumtznyzldj3t3ux6yzt3f7jsymscdr697xgzvxlhvvqe0d60vrkqzkxhx9"],"addressesOutput":["addr1q9xhk8n3d92ns5mndawgh7caf3w63ghegvhyz82ca3jlxqjldj3t3ux6yzt3f7jsymscdr697xgzvxlhvvqe0d60vrkq03xs4x"],"fee":171573,"totalOutput":95990727,"tokens":[]},{"hash":"d4891ebede696b225a3fd983ff4f65edebf35ef32b4cf1f99664f77dc4420a57","blockNo":8363669,"blockHash":"bb01872875312d7c1c0b66d067e748481d10fd9c449089593b1dff97f5c49768","epochNo":392,"epochSlotNo":104828,"slot":84085628,"time":"2023/02/06 02:51:59","addressesInput":["addr1v9c04r8gmk5nw24fklwf746k8y883yuhgnre25xv8gnyk7gak56qt","addr1v9c04r8gmk5nw24fklwf746k8y883yuhgnre25xv8gnyk7gak56qt","addr1w9qzpelu9hn45pefc0xr4ac4kdxeswq7pndul2vuj59u8tqaxdznu","addr1wxaptpmxcxawvr3pzlhgnpmzz3ql43n2tc8mn3av5kx0yzs09tqh8"],"addressesOutput":["addr1w9qzpelu9hn45pefc0xr4ac4kdxeswq7pndul2vuj59u8tqaxdznu","addr1w9jx45flh83z6wuqypyash54mszwmdj8r64fydafxtfc6jgrw4rm3","addr1qy9dmlxkg00z06lzjqtjjnqy9wr7t3a0v994mehnv076amu6lznq9h3a55lyt570l4y4tnnfjhcre97h6sf0yk4f4y2qffd8nh","addr1v9c04r8gmk5nw24fklwf746k8y883yuhgnre25xv8gnyk7gak56qt","addr1v9c04r8gmk5nw24fklwf746k8y883yuhgnre25xv8gnyk7gak56qt"],"fee":1170333,"totalOutput":26607632397,"tokens":[]},{"hash":"7ef1597626e461a6ff5a858121565bc855537c9fa6267719d74353f7476f733d","blockNo":8363668,"blockHash":"c958439bed806f60318036efde94980d08f9db3393e50c0c39c9897e67f013e4","epochNo":392,"epochSlotNo":104822,"slot":84085622,"time":"2023/02/06 02:51:53","addressesInput":["addr1q9x6eyp4hcdd7jkdvyjk5v5xmqh3e5njk082wz59tyqg4fuat7f28svq0tc80hqjvc332qjrfuqt9k44690pxtq33u9sq5r5ef","addr1q9x6eyp4hcdd7jkdvyjk5v5xmqh3e5njk082wz59tyqg4fuat7f28svq0tc80hqjvc332qjrfuqt9k44690pxtq33u9sq5r5ef"],"addressesOutput":["addr1wxn9efv2f6w82hagxqtn62ju4m293tqvw0uhmdl64ch8uwc0h43gt","addr1qyaz6e0jgu26wz39wzrw6ve7kah7wy5luez42uc5wccap5yat7f28svq0tc80hqjvc332qjrfuqt9k44690pxtq33u9s87zh2d"],"fee":405125,"totalOutput":28616855,"tokens":[]},{"hash":"66b5596b62aa80a32497bee398cea1b65f7e585a88e879cec8949fa2d19d6f35","blockNo":8363668,"blockHash":"c958439bed806f60318036efde94980d08f9db3393e50c0c39c9897e67f013e4","epochNo":392,"epochSlotNo":104822,"slot":84085622,"time":"2023/02/06 02:51:53","addressesInput":["addr1q9tfm0a8k40upvtnhru8hxlwemlhgf5p35jt93l84j8eesept25u4kmrr9nwq3rjf445e4lz2xk8avmtkptd8l67n98skjc02w"],"addressesOutput":["addr1vylhqr3pz7ck896xuc4ng0xsjn6z63dttsp3zn7z9wxptgsmrqkrr","addr1q9ywsnfaeyczuppn6723x4pq7nqgkw3y0jqfg5zv22w6kwept25u4kmrr9nwq3rjf445e4lz2xk8avmtkptd8l67n98sumlnrt","addr1q9ywsnfaeyczuppn6723x4pq7nqgkw3y0jqfg5zv22w6kwept25u4kmrr9nwq3rjf445e4lz2xk8avmtkptd8l67n98sumlnrt","addr1q9ywsnfaeyczuppn6723x4pq7nqgkw3y0jqfg5zv22w6kwept25u4kmrr9nwq3rjf445e4lz2xk8avmtkptd8l67n98sumlnrt","addr1q9ywsnfaeyczuppn6723x4pq7nqgkw3y0jqfg5zv22w6kwept25u4kmrr9nwq3rjf445e4lz2xk8avmtkptd8l67n98sumlnrt"],"fee":175665,"totalOutput":137054110,"tokens":[]},{"hash":"f1f7b9ab061fcf7cb0428d9b75349d603304151b6d1b710b11ebe833d02029eb","blockNo":8363668,"blockHash":"c958439bed806f60318036efde94980d08f9db3393e50c0c39c9897e67f013e4","epochNo":392,"epochSlotNo":104822,"slot":84085622,"time":"2023/02/06 02:51:53","addressesInput":["addr1qy334j855maal70v853wqulqxgqkzleu99lpv0x7jfsnc4ldk4epprgt37dl8y0f7l2m88gjshv8d9ju59vs6qpj8c5qvhj68y","addr1qy334j855maal70v853wqulqxgqkzleu99lpv0x7jfsnc4ldk4epprgt37dl8y0f7l2m88gjshv8d9ju59vs6qpj8c5qvhj68y","addr1qy334j855maal70v853wqulqxgqkzleu99lpv0x7jfsnc4ldk4epprgt37dl8y0f7l2m88gjshv8d9ju59vs6qpj8c5qvhj68y"],"addressesOutput":["addr1wxn9efv2f6w82hagxqtn62ju4m293tqvw0uhmdl64ch8uwc0h43gt","addr1qy334j855maal70v853wqulqxgqkzleu99lpv0x7jfsnc4ldk4epprgt37dl8y0f7l2m88gjshv8d9ju59vs6qpj8c5qvhj68y","addr1qy334j855maal70v853wqulqxgqkzleu99lpv0x7jfsnc4ldk4epprgt37dl8y0f7l2m88gjshv8d9ju59vs6qpj8c5qvhj68y"],"fee":192693,"totalOutput":29861313,"tokens":[]},{"hash":"cc2eb5601eb3936a9984d666588ccef7f358e0255d34ee975bf35d2da4b9f061","blockNo":8363668,"blockHash":"c958439bed806f60318036efde94980d08f9db3393e50c0c39c9897e67f013e4","epochNo":392,"epochSlotNo":104822,"slot":84085622,"time":"2023/02/06 02:51:53","addressesInput":["addr1q9nvggr3qxhj9j586lx9eses9qdzj6np3jr7uthanudynzu6lznq9h3a55lyt570l4y4tnnfjhcre97h6sf0yk4f4y2qc06d9f"],"addressesOutput":["addr1wxn9efv2f6w82hagxqtn62ju4m293tqvw0uhmdl64ch8uwc0h43gt","addr1qy480keu23rsz3a5c7taqlvzcm8cvtc5mkw08pk2n40hq2u6lznq9h3a55lyt570l4y4tnnfjhcre97h6sf0yk4f4y2q07ux3t"],"fee":183541,"totalOutput":9136631364,"tokens":[]},{"hash":"a542cb047ebf5e257d399ad819f1b5323d8ea7b2c27a8f4f65b806f323ebe834","blockNo":8363668,"blockHash":"c958439bed806f60318036efde94980d08f9db3393e50c0c39c9897e67f013e4","epochNo":392,"epochSlotNo":104822,"slot":84085622,"time":"2023/02/06 02:51:53","addressesInput":["addr1vxpp5dqnvzyhnl5crwp520mw369tdl9ccayvlndy3pp3xegnvfapq"],"addressesOutput":["addr1q8cae7xm9s6z5paxk75garuh623jla6a0v6dx9ppr76dytc7ycf0dfrvcy3yg0qtzkkg7ln3d3tqls3hgxnhmpjmw2ws7d0hua","addr1q8w6vgycp47y609lapev86mpx6gkr7xvs8vlh8h6ztdfysw9gzt8lmjzz32azz7uuecmgd46yrtc0c3uz4qs3mcm0jcq7sqy0h","addr1qxtmtwt73pl35r537ljk9xu0xz4evmdwzcqpaz75nuqtjt5sjuyxga8tez99uan2kpws62tey7l0x4e3rgulc326zc3slfj38l","addr1q9n7jy2969ly2h8469p7wghtlecxwtfalek5q7wzldk6jqf50rfm652g257nft3f2fhlw8aad32jfwzy7fsd0ktf07vstrmpwy","addr1qx5sl3nj50hejae6207qp4rue38t26rzhv9fhwz8klekrdsf5dhlxzr7eqmtfs2s5clktct43nt4m33jzq9pz8c7saeq2ddhkt","addr1qx6xrqm5maxgaz24g0g24p8h7v7txtnxzjerv022jr2nxyqhe78yhvkdze89mhhdntx7ks4uzfptt4lhephwyzaemf3qj0yehy","addr1vxrmu3m2cc5k6xltupj86a2uzcuq8r4nhznrhfq0pkwl4hgqj2v8w","addr1vxpp5dqnvzyhnl5crwp520mw369tdl9ccayvlndy3pp3xegnvfapq"],"fee":421581,"totalOutput":1544005792,"tokens":[]},{"hash":"974fbfb9dc40285ce80ddad1ea254a748f2e13c8d1de31f88f2a59056a5c5614","blockNo":8363668,"blockHash":"c958439bed806f60318036efde94980d08f9db3393e50c0c39c9897e67f013e4","epochNo":392,"epochSlotNo":104822,"slot":84085622,"time":"2023/02/06 02:51:53","addressesInput":["addr1q99gc9pzpwwewys8dfwy93nr4xl2r0dwrjtkvtrqsvyy3n2q8psp2xrujvckzez0e4a7p38z20m44sfg90zpr3uqrcnstgqwem","addr1q99gc9pzpwwewys8dfwy93nr4xl2r0dwrjtkvtrqsvyy3n2q8psp2xrujvckzez0e4a7p38z20m44sfg90zpr3uqrcnstgqwem","addr1q99gc9pzpwwewys8dfwy93nr4xl2r0dwrjtkvtrqsvyy3n2q8psp2xrujvckzez0e4a7p38z20m44sfg90zpr3uqrcnstgqwem"],"addressesOutput":["addr1q99gc9pzpwwewys8dfwy93nr4xl2r0dwrjtkvtrqsvyy3n2q8psp2xrujvckzez0e4a7p38z20m44sfg90zpr3uqrcnstgqwem"],"fee":177772,"totalOutput":62780453,"tokens":[]},{"hash":"f1b017b658934aa013354cdca9c297341c02b702ba3d4379d411b7b8b4d3ff31","blockNo":8363668,"blockHash":"c958439bed806f60318036efde94980d08f9db3393e50c0c39c9897e67f013e4","epochNo":392,"epochSlotNo":104822,"slot":84085622,"time":"2023/02/06 02:51:53","addressesInput":["addr1q9tkkzqhcyk56rhayj78x3jnjzdgkr7qqe9wztfyf7jxdwsyyueza87sekzczarxytu8scgqvqrzjqk26apqr8uzsf6q3vc2kj","addr1q9tkkzqhcyk56rhayj78x3jnjzdgkr7qqe9wztfyf7jxdwsyyueza87sekzczarxytu8scgqvqrzjqk26apqr8uzsf6q3vc2kj","addr1q9tkkzqhcyk56rhayj78x3jnjzdgkr7qqe9wztfyf7jxdwsyyueza87sekzczarxytu8scgqvqrzjqk26apqr8uzsf6q3vc2kj","addr1q9tkkzqhcyk56rhayj78x3jnjzdgkr7qqe9wztfyf7jxdwsyyueza87sekzczarxytu8scgqvqrzjqk26apqr8uzsf6q3vc2kj"],"addressesOutput":["addr1zxgx3far7qygq0k6epa0zcvcvrevmn0ypsnfsue94nsn3tvpw288a4x0xf8pxgcntelxmyclq83s0ykeehchz2wtspks905plm","addr1q9tkkzqhcyk56rhayj78x3jnjzdgkr7qqe9wztfyf7jxdwsyyueza87sekzczarxytu8scgqvqrzjqk26apqr8uzsf6q3vc2kj","addr1q9tkkzqhcyk56rhayj78x3jnjzdgkr7qqe9wztfyf7jxdwsyyueza87sekzczarxytu8scgqvqrzjqk26apqr8uzsf6q3vc2kj"],"fee":233305,"totalOutput":536645305,"tokens":[]},{"hash":"3bab65b321fc3ae2ce289a21020e61b066d5bbfcdee5f5994e295c66d970ac0b","blockNo":8363668,"blockHash":"c958439bed806f60318036efde94980d08f9db3393e50c0c39c9897e67f013e4","epochNo":392,"epochSlotNo":104822,"slot":84085622,"time":"2023/02/06 02:51:53","addressesInput":["addr1qyla9cjaj755nqs4t7k02z4p929c6y44jn2q2enquj3msmnq7dumrsg4avrpyfeujunc4saxqmwesmlwl2mjchy34akq03dnkj","addr1qyla9cjaj755nqs4t7k02z4p929c6y44jn2q2enquj3msmnq7dumrsg4avrpyfeujunc4saxqmwesmlwl2mjchy34akq03dnkj","addr1qyla9cjaj755nqs4t7k02z4p929c6y44jn2q2enquj3msmnq7dumrsg4avrpyfeujunc4saxqmwesmlwl2mjchy34akq03dnkj","addr1qyla9cjaj755nqs4t7k02z4p929c6y44jn2q2enquj3msmnq7dumrsg4avrpyfeujunc4saxqmwesmlwl2mjchy34akq03dnkj","addr1qyla9cjaj755nqs4t7k02z4p929c6y44jn2q2enquj3msmnq7dumrsg4avrpyfeujunc4saxqmwesmlwl2mjchy34akq03dnkj"],"addressesOutput":["addr1zxgx3far7qygq0k6epa0zcvcvrevmn0ypsnfsue94nsn3tvpw288a4x0xf8pxgcntelxmyclq83s0ykeehchz2wtspks905plm","addr1qyla9cjaj755nqs4t7k02z4p929c6y44jn2q2enquj3msmnq7dumrsg4avrpyfeujunc4saxqmwesmlwl2mjchy34akq03dnkj","addr1qyla9cjaj755nqs4t7k02z4p929c6y44jn2q2enquj3msmnq7dumrsg4avrpyfeujunc4saxqmwesmlwl2mjchy34akq03dnkj"],"fee":236385,"totalOutput":136161213,"tokens":[]},{"hash":"dda7341d6b52fb8a32086234b8bf2174a1cec0b78d3aed96f8eaf5e38deec7e0","blockNo":8363668,"blockHash":"c958439bed806f60318036efde94980d08f9db3393e50c0c39c9897e67f013e4","epochNo":392,"epochSlotNo":104822,"slot":84085622,"time":"2023/02/06 02:51:53","addressesInput":["addr1q9f87f4agpg8e6z59evenex9qgze65qc8lew5j43mhnv9rns5htm4ck5fqcklsfzn6rn3matjskrsp6ed9rck70l3ndqnzn70t","addr1q9f87f4agpg8e6z59evenex9qgze65qc8lew5j43mhnv9rns5htm4ck5fqcklsfzn6rn3matjskrsp6ed9rck70l3ndqnzn70t","addr1q9f87f4agpg8e6z59evenex9qgze65qc8lew5j43mhnv9rns5htm4ck5fqcklsfzn6rn3matjskrsp6ed9rck70l3ndqnzn70t","addr1q9f87f4agpg8e6z59evenex9qgze65qc8lew5j43mhnv9rns5htm4ck5fqcklsfzn6rn3matjskrsp6ed9rck70l3ndqnzn70t","addr1q9f87f4agpg8e6z59evenex9qgze65qc8lew5j43mhnv9rns5htm4ck5fqcklsfzn6rn3matjskrsp6ed9rck70l3ndqnzn70t"],"addressesOutput":["addr1q8jklj96qzl5g6s6krnrnd8xgqjc2dwskkd0k5ajp95t6z257vn29eha639s4nyy9q2w4tdkakrdsfgkjwaftf2yjsws4d0ge0"],"fee":178701,"totalOutput":38498792,"tokens":[]},{"hash":"485325b6f10fa61fce29bb3dda917fc201a7319c3cd7697c54a79faa96658517","blockNo":8363668,"blockHash":"c958439bed806f60318036efde94980d08f9db3393e50c0c39c9897e67f013e4","epochNo":392,"epochSlotNo":104822,"slot":84085622,"time":"2023/02/06 02:51:53","addressesInput":["addr1zxgx3far7qygq0k6epa0zcvcvrevmn0ypsnfsue94nsn3tvpw288a4x0xf8pxgcntelxmyclq83s0ykeehchz2wtspks905plm","addr1q90ghqqn7uvfcakklk34hnn999armvlpw25vzeh6mgv0wf202ql6a3swzzrhlddutlu5sgy3zutj243j88l7ly56fv0s8nfuly"],"addressesOutput":["addr1q9l44y8h70u8pahc48yv3qmy4s9vl0cujce3dpw80vld47dklwdp5e0k0q57tlx5sdhfqjqsplkdwmna9rwdtxlxutlq35mdd9","addr1q9cwvremt6n320s2e3agq0jyq82yhrk3htsu0w426xnz5us70z4w0jgvcdkkynmm8wmds66jd9kusnjfpu6raw5fqp0sr07p5w","addr1q9umek6slfje9h6s5904w9zwkjyngd2pvwu9vy3vlgsgldrhhn3hu9fl9z7t4uqtm9wczrglrsr87rz6hxq9xzzmyj6sfv3hpt","addr1q90ghqqn7uvfcakklk34hnn999armvlpw25vzeh6mgv0wf202ql6a3swzzrhlddutlu5sgy3zutj243j88l7ly56fv0s8nfuly","addr1q90ghqqn7uvfcakklk34hnn999armvlpw25vzeh6mgv0wf202ql6a3swzzrhlddutlu5sgy3zutj243j88l7ly56fv0s8nfuly"],"fee":396681,"totalOutput":77178669,"tokens":[]},{"hash":"5e6b96ddee8188eab704aa4378c243206e45dbd6e3b9e0a2cb0feb45a0bfcdc7","blockNo":8363668,"blockHash":"c958439bed806f60318036efde94980d08f9db3393e50c0c39c9897e67f013e4","epochNo":392,"epochSlotNo":104822,"slot":84085622,"time":"2023/02/06 02:51:53","addressesInput":["addr1qyyk4hdnyts973xn2sdu80wcnd9jjfc3r0v706wd2z42a7qy7c883f4am89drvvh90e3wx0k3rm07x24qm2243nt0w7qlgvt7g"],"addressesOutput":["addr1vxhxurnmcdgvxgj7s0s2h7g7nqlseskg9gtxk939txrl95gmdu623","addr1qyz5ehkp4jjcm5auas2h2cmjckep90hn8sy2rmx6s34lv5gy7c883f4am89drvvh90e3wx0k3rm07x24qm2243nt0w7q25rus7"],"fee":167085,"totalOutput":1335598854,"tokens":[]},{"hash":"82b44534f1f4480b08df6e33788fb3778dea57f9a481233a6d023729996ad070","blockNo":8363668,"blockHash":"c958439bed806f60318036efde94980d08f9db3393e50c0c39c9897e67f013e4","epochNo":392,"epochSlotNo":104822,"slot":84085622,"time":"2023/02/06 02:51:53","addressesInput":["addr1q99tj67zm6cqyassm6gynzzgs0v87l9c0dg0jg8q3t7prrttzlf3rk6gz2fk8e0wmvdtzjacqyrlnm76vrpf9pcd5f5strjrfp","addr1q99tj67zm6cqyassm6gynzzgs0v87l9c0dg0jg8q3t7prrttzlf3rk6gz2fk8e0wmvdtzjacqyrlnm76vrpf9pcd5f5strjrfp","addr1q99tj67zm6cqyassm6gynzzgs0v87l9c0dg0jg8q3t7prrttzlf3rk6gz2fk8e0wmvdtzjacqyrlnm76vrpf9pcd5f5strjrfp"],"addressesOutput":["addr1q889uc8l7y9p6egu3qz7c04r4w8p3ve2yz78pdjmz83x0y4hzpys3qmzsezu2kjre5ew0zamvck6fxfy4h574kwvv2pqh47vqk","addr1q99tj67zm6cqyassm6gynzzgs0v87l9c0dg0jg8q3t7prrttzlf3rk6gz2fk8e0wmvdtzjacqyrlnm76vrpf9pcd5f5strjrfp","addr1q99tj67zm6cqyassm6gynzzgs0v87l9c0dg0jg8q3t7prrttzlf3rk6gz2fk8e0wmvdtzjacqyrlnm76vrpf9pcd5f5strjrfp"],"fee":178569,"totalOutput":8145912,"tokens":[]},{"hash":"c37a193b74ba1ea52df4784c2cf17632843ed0c31b6bbf0723f7bb1b3f20d4c6","blockNo":8363668,"blockHash":"c958439bed806f60318036efde94980d08f9db3393e50c0c39c9897e67f013e4","epochNo":392,"epochSlotNo":104822,"slot":84085622,"time":"2023/02/06 02:51:53","addressesInput":["addr1q8usmsx00fulmf6pgglr0d0993p2tu2hlvqd52cj5a8zemqqpgeaxrqcg5uw59nenxxf2ljy4rhqe22x04dg3acy836s9y77ct"],"addressesOutput":["addr1vy9ztgscuza0pv583d0cktyc4a7200g996pfhmxum3xscjcp0jznz","addr1q8luj9dkly9cyanp5p4dre8zdzlvdwgykallexlv6wkks8gqpgeaxrqcg5uw59nenxxf2ljy4rhqe22x04dg3acy836sp5ghgj"],"fee":167085,"totalOutput":10011972,"tokens":[]},{"hash":"af19aeaebffcb4781fa85910d1085d35157c627fd676fd6a65a7171cf6deb57a","blockNo":8363668,"blockHash":"c958439bed806f60318036efde94980d08f9db3393e50c0c39c9897e67f013e4","epochNo":392,"epochSlotNo":104822,"slot":84085622,"time":"2023/02/06 02:51:53","addressesInput":["addr1q8sefdq99nlv0wefzprjvp5h9mw2l3jvhvgy4tl20kszdlcm5kjdmrpmng059yellupyvwgay2v0lz6663swmds7hp0q8dklg8","addr1wxxx5uc8t8mphyyf7qmse7vx5fm469puha6uru06djfj4vql8unkl"],"addressesOutput":["addr1wxxx5uc8t8mphyyf7qmse7vx5fm469puha6uru06djfj4vql8unkl","addr1q8sefdq99nlv0wefzprjvp5h9mw2l3jvhvgy4tl20kszdlcm5kjdmrpmng059yellupyvwgay2v0lz6663swmds7hp0q8dklg8"],"fee":335830,"totalOutput":4725258140,"tokens":[]},{"hash":"d3294c2fa5ae07409fd5eaafdd041758f02ef4f4923ee3aa78808edecdb8e228","blockNo":8363668,"blockHash":"c958439bed806f60318036efde94980d08f9db3393e50c0c39c9897e67f013e4","epochNo":392,"epochSlotNo":104822,"slot":84085622,"time":"2023/02/06 02:51:53","addressesInput":["addr1q8gqarkxy3k5xu4k8ywlur5z6pp0f9eev4ps08wz3zdjkwm6jsglxzcktpmlgc9lhgh48fcge3wwkthk98whdx2a9mss54dtup","addr1q8vjq88w4wv2vggar7dqygkfg6nzsjgn5qvnav8vjxcyqryds7e9j0h0jdteg3nv4lymz3vkj6az8rn7sr6e679gx3aqd23j6v"],"addressesOutput":["addr1qy56axnllldyqte6cn6mgaa78w5k33qul4zd35y8cgdpje5ds7e9j0h0jdteg3nv4lymz3vkj6az8rn7sr6e679gx3aq8sfhd8","addr1qy56axnllldyqte6cn6mgaa78w5k33qul4zd35y8cgdpje5ds7e9j0h0jdteg3nv4lymz3vkj6az8rn7sr6e679gx3aq8sfhd8","addr1q8gqarkxy3k5xu4k8ywlur5z6pp0f9eev4ps08wz3zdjkwm6jsglxzcktpmlgc9lhgh48fcge3wwkthk98whdx2a9mss54dtup","addr1qxsgae4x0z3q0hjjqcwya7vzp9f9ex52lrly0wadmfgvhpfyzttqmp0evfcrwxkda77m5lg8c9ta2aafdf83jxyvhw3sgp9v30"],"fee":308941,"totalOutput":31351524,"tokens":[]}],"totalItems":60661822,"totalPages":3033092,"currentPage":0}