{"data":[{"address":"addr1z8snz7c4974vzdpxu65ruphl3zjdvtxw8strf2c2tmqnxz2j2c79gy9l76sdg0xwhd7r0c0kna0tycz4y5s6mlenh8pq0xmsha","txCount":1546826,"balance":58957130789613},{"address":"addr1z8jd97ct35n4s5ss8lt4sq0zclw0dmf7yak8fj46m0jm3dswtf6nj8t35qph4n6m04gawl49yvsxytfjpjpcfhehpcvqwwrrlu","txCount":30,"balance":44000000000000},{"address":"addr1z9s3v9vyyctzr4xagvrayw87yvzre6qcq7qw2uvqfznf92qm5kjdmrpmng059yellupyvwgay2v0lz6663swmds7hp0q2jjlf4","txCount":1079,"balance":41573204383947},{"address":"addr1wy0nmrl40z3nx9d0d79pu5u7zett4hl2apfuj9caqgf7jjqcj3r8z","txCount":2206,"balance":25658425104999},{"address":"addr1w9qzpelu9hn45pefc0xr4ac4kdxeswq7pndul2vuj59u8tqaxdznu","txCount":613440,"balance":11107340133921},{"address":"addr1z8jd97ct35n4s5ss8lt4sq0zclw0dmf7yak8fj46m0jm3djv95lqhj0agy8awy9g82v0r6qatxdz9kza4m94sqyunvssgdq8ua","txCount":10,"balance":7501516000000},{"address":"addr1w93j7t23z99448k7xspzrppjtgun0janh0rcq6k8wt2e8vc2fraw4","txCount":4794,"balance":6828485658592},{"address":"addr1z8snz7c4974vzdpxu65ruphl3zjdvtxw8strf2c2tmqnxztnqm37tpj0q63s0qns5wfe4flqzqqg55760472n7yt4v8skpaj3k","txCount":37291,"balance":5771651149466},{"address":"addr1z8snz7c4974vzdpxu65ruphl3zjdvtxw8strf2c2tmqnxzfgf0jgfz5xdvg2pges20usxhw8zwnkggheqrxwmxd6huuqss46eh","txCount":10649,"balance":5278196481595},{"address":"addr1z8snz7c4974vzdpxu65ruphl3zjdvtxw8strf2c2tmqnxzwccf8ywaly0m99ngq68lus48lmafut7ku9geawu8u6k49suv42qq","txCount":12850,"balance":5210860805187},{"address":"addr1z8snz7c4974vzdpxu65ruphl3zjdvtxw8strf2c2tmqnxz02znpd777wgl9wwpk0dvdzuxn93mqh82q7vv6s9jn25rws52z94g","txCount":11291,"balance":5077875865108},{"address":"addr1z8jd97ct35n4s5ss8lt4sq0zclw0dmf7yak8fj46m0jm3dsudw9plrefe6k7ef3rtn4nxme63aa3uvfq727h3qtq32pshzx29z","txCount":17,"balance":5000000000000},{"address":"addr1z9es6px68rlmwatqwg6qxwqf3szyz0n4lm0m2e5j38nu0062a6yhtrq8a4cxg2trrtzddev7v974nafzmx4xaegv2ngqky7khv","txCount":12083,"balance":4998271751016},{"address":"addr1z8snz7c4974vzdpxu65ruphl3zjdvtxw8strf2c2tmqnxz2jyskd3y6etkv8ye450545xu6q4jfq5hv4e0uxwkpf8lsq048y90","txCount":15650,"balance":4656165419069},{"address":"addr1z8jd97ct35n4s5ss8lt4sq0zclw0dmf7yak8fj46m0jm3djzg23w4qkupxtef5su2lxdg6rru3mu2s67dn38mys5cepqjulzku","txCount":73,"balance":3402357598554},{"address":"addr1w8pydstdswmdqmg2rdt59dzql3zgfp9pt8sulnjgalycwdsj9js7w","txCount":77948,"balance":3233677134183},{"address":"addr1xxqqegnx4ref4q6derz2n0zs0jeanaxdq7ynfhwv3luhsg63z228hznt0rz2enxfzhtk2270gels0ht9uvf9wmyxs99qgwkkf2","txCount":17060,"balance":2817858488971},{"address":"addr1xxqqegnx4ref4q6derz2n0zs0jeanaxdq7ynfhwv3luhsg70l2wkhq0pr72jsdrv2kn8v3pqnrt0qykpq9fwr2wn0czswer98l","txCount":17077,"balance":2817858488956},{"address":"addr1xxqqegnx4ref4q6derz2n0zs0jeanaxdq7ynfhwv3luhsgcfpkhcpsthxpprf49lvfy2jhga5mygpfcj4qaypfzkmhnsw9rpx7","txCount":17025,"balance":2817858488956},{"address":"addr1xxqqegnx4ref4q6derz2n0zs0jeanaxdq7ynfhwv3luhsg6s80extwffmz4yagvdxvr6cpd8nm3qne020739j706h3jqsd0vf2","txCount":17045,"balance":2817858488956}],"totalItems":48184,"totalPages":2410,"currentPage":0}