{"data":[{"hash":"166e08a59de720998f80add11860eed29eb15aa5611d825306dc992a3210931e","blockNo":8314582,"blockHash":"135d70b3f60416d6d1840fac0e56f72d300616faa97db07d91a84d3cc67f60c4","epochNo":389,"epochSlotNo":386875,"slot":83071675,"time":"2023/01/25 09:12:46","addressesInput":["addr1qx76hnwx8qukkylx5te0em5gf7kgjqadv6x8z406mpyxz6nn3lmaa3wnh8ka8wxllq5f9kpp6spcwum5vvas6xgvuedsh0rgkp","addr1qx76hnwx8qukkylx5te0em5gf7kgjqadv6x8z406mpyxz6nn3lmaa3wnh8ka8wxllq5f9kpp6spcwum5vvas6xgvuedsh0rgkp"],"addressesOutput":["addr1wxn9efv2f6w82hagxqtn62ju4m293tqvw0uhmdl64ch8uwc0h43gt","addr1qx76hnwx8qukkylx5te0em5gf7kgjqadv6x8z406mpyxz6nn3lmaa3wnh8ka8wxllq5f9kpp6spcwum5vvas6xgvuedsh0rgkp","addr1qx76hnwx8qukkylx5te0em5gf7kgjqadv6x8z406mpyxz6nn3lmaa3wnh8ka8wxllq5f9kpp6spcwum5vvas6xgvuedsh0rgkp"],"fee":407017,"totalOutput":419166694,"tokens":[]},{"hash":"f6bd6223c4c83165af8512f962f988231ac47dbfc89fd2ab0aae93c9102ec1ed","blockNo":8314152,"blockHash":"5b69d9a026582d8be8e36f6eebcfcd7ac62b482c26664fd81f5bc48e7df375d0","epochNo":389,"epochSlotNo":377842,"slot":83062642,"time":"2023/01/25 06:42:13","addressesInput":["addr1qx76hnwx8qukkylx5te0em5gf7kgjqadv6x8z406mpyxz6nn3lmaa3wnh8ka8wxllq5f9kpp6spcwum5vvas6xgvuedsh0rgkp","addr1qx76hnwx8qukkylx5te0em5gf7kgjqadv6x8z406mpyxz6nn3lmaa3wnh8ka8wxllq5f9kpp6spcwum5vvas6xgvuedsh0rgkp","addr1qx76hnwx8qukkylx5te0em5gf7kgjqadv6x8z406mpyxz6nn3lmaa3wnh8ka8wxllq5f9kpp6spcwum5vvas6xgvuedsh0rgkp","addr1qx76hnwx8qukkylx5te0em5gf7kgjqadv6x8z406mpyxz6nn3lmaa3wnh8ka8wxllq5f9kpp6spcwum5vvas6xgvuedsh0rgkp","addr1qx76hnwx8qukkylx5te0em5gf7kgjqadv6x8z406mpyxz6nn3lmaa3wnh8ka8wxllq5f9kpp6spcwum5vvas6xgvuedsh0rgkp","addr1qx76hnwx8qukkylx5te0em5gf7kgjqadv6x8z406mpyxz6nn3lmaa3wnh8ka8wxllq5f9kpp6spcwum5vvas6xgvuedsh0rgkp","addr1qx76hnwx8qukkylx5te0em5gf7kgjqadv6x8z406mpyxz6nn3lmaa3wnh8ka8wxllq5f9kpp6spcwum5vvas6xgvuedsh0rgkp","addr1qx76hnwx8qukkylx5te0em5gf7kgjqadv6x8z406mpyxz6nn3lmaa3wnh8ka8wxllq5f9kpp6spcwum5vvas6xgvuedsh0rgkp","addr1qx76hnwx8qukkylx5te0em5gf7kgjqadv6x8z406mpyxz6nn3lmaa3wnh8ka8wxllq5f9kpp6spcwum5vvas6xgvuedsh0rgkp","addr1qx76hnwx8qukkylx5te0em5gf7kgjqadv6x8z406mpyxz6nn3lmaa3wnh8ka8wxllq5f9kpp6spcwum5vvas6xgvuedsh0rgkp","addr1qx76hnwx8qukkylx5te0em5gf7kgjqadv6x8z406mpyxz6nn3lmaa3wnh8ka8wxllq5f9kpp6spcwum5vvas6xgvuedsh0rgkp","addr1qx76hnwx8qukkylx5te0em5gf7kgjqadv6x8z406mpyxz6nn3lmaa3wnh8ka8wxllq5f9kpp6spcwum5vvas6xgvuedsh0rgkp","addr1qx76hnwx8qukkylx5te0em5gf7kgjqadv6x8z406mpyxz6nn3lmaa3wnh8ka8wxllq5f9kpp6spcwum5vvas6xgvuedsh0rgkp","addr1qx76hnwx8qukkylx5te0em5gf7kgjqadv6x8z406mpyxz6nn3lmaa3wnh8ka8wxllq5f9kpp6spcwum5vvas6xgvuedsh0rgkp","addr1qx76hnwx8qukkylx5te0em5gf7kgjqadv6x8z406mpyxz6nn3lmaa3wnh8ka8wxllq5f9kpp6spcwum5vvas6xgvuedsh0rgkp","addr1qx76hnwx8qukkylx5te0em5gf7kgjqadv6x8z406mpyxz6nn3lmaa3wnh8ka8wxllq5f9kpp6spcwum5vvas6xgvuedsh0rgkp","addr1qx76hnwx8qukkylx5te0em5gf7kgjqadv6x8z406mpyxz6nn3lmaa3wnh8ka8wxllq5f9kpp6spcwum5vvas6xgvuedsh0rgkp","addr1qx76hnwx8qukkylx5te0em5gf7kgjqadv6x8z406mpyxz6nn3lmaa3wnh8ka8wxllq5f9kpp6spcwum5vvas6xgvuedsh0rgkp","addr1qx76hnwx8qukkylx5te0em5gf7kgjqadv6x8z406mpyxz6nn3lmaa3wnh8ka8wxllq5f9kpp6spcwum5vvas6xgvuedsh0rgkp","addr1qx76hnwx8qukkylx5te0em5gf7kgjqadv6x8z406mpyxz6nn3lmaa3wnh8ka8wxllq5f9kpp6spcwum5vvas6xgvuedsh0rgkp","addr1qx76hnwx8qukkylx5te0em5gf7kgjqadv6x8z406mpyxz6nn3lmaa3wnh8ka8wxllq5f9kpp6spcwum5vvas6xgvuedsh0rgkp","addr1qx76hnwx8qukkylx5te0em5gf7kgjqadv6x8z406mpyxz6nn3lmaa3wnh8ka8wxllq5f9kpp6spcwum5vvas6xgvuedsh0rgkp","addr1qx76hnwx8qukkylx5te0em5gf7kgjqadv6x8z406mpyxz6nn3lmaa3wnh8ka8wxllq5f9kpp6spcwum5vvas6xgvuedsh0rgkp","addr1qx76hnwx8qukkylx5te0em5gf7kgjqadv6x8z406mpyxz6nn3lmaa3wnh8ka8wxllq5f9kpp6spcwum5vvas6xgvuedsh0rgkp"],"addressesOutput":["addr1qx76hnwx8qukkylx5te0em5gf7kgjqadv6x8z406mpyxz6nn3lmaa3wnh8ka8wxllq5f9kpp6spcwum5vvas6xgvuedsh0rgkp","addr1qx76hnwx8qukkylx5te0em5gf7kgjqadv6x8z406mpyxz6nn3lmaa3wnh8ka8wxllq5f9kpp6spcwum5vvas6xgvuedsh0rgkp","addr1qx76hnwx8qukkylx5te0em5gf7kgjqadv6x8z406mpyxz6nn3lmaa3wnh8ka8wxllq5f9kpp6spcwum5vvas6xgvuedsh0rgkp","addr1qx76hnwx8qukkylx5te0em5gf7kgjqadv6x8z406mpyxz6nn3lmaa3wnh8ka8wxllq5f9kpp6spcwum5vvas6xgvuedsh0rgkp"],"fee":476757,"totalOutput":509746556,"tokens":[]},{"hash":"6a090eed0f1a65b21076960821d5ff13fa739c57f370afb407af80c0491394ef","blockNo":8314132,"blockHash":"042232ca36482d0bfb41fbf6687ea7392f3ad91eeb11ee9c4ddf4af50f1734f6","epochNo":389,"epochSlotNo":377357,"slot":83062157,"time":"2023/01/25 06:34:08","addressesInput":["addr1qxuce2qegmt0arj66g7e4kxzwm7v850y54e64jlh5zw4pe7vs6xa7v38v6mx3jnmsa948aufl5pty77gyh726h89903q8gqt9a","addr1qx9jt66d6u8zkev7kf50jkp3et0rcqlpxxqj65am33yn7kwvs6xa7v38v6mx3jnmsa948aufl5pty77gyh726h89903qxys4zd"],"addressesOutput":["addr1q8t2mqpdhgxkh2m9dgc0d7lugd4ufk0tjunyna700jdgu0qp23zcpj6204l640uga6ecra5dyxlvznjazlc22pca5a2qhg8gpu","addr1qyzu6gkekrze5840jwutdl3zavwq0nv8pv092plg3pt2jcxvs6xa7v38v6mx3jnmsa948aufl5pty77gyh726h89903q9gcn35"],"fee":388977,"totalOutput":32781391,"tokens":[]},{"hash":"27c1d036a33f7958693a813288ab84cf75331d8b5700b6b66a65513634924336","blockNo":8314117,"blockHash":"92209b116a91bd7f16479bbc239a795ca243b64a717344e7df4b30e4604149ab","epochNo":389,"epochSlotNo":377061,"slot":83061861,"time":"2023/01/25 06:29:12","addressesInput":["addr1qyau90sx7tcv8mgh5vq746gq9muulj7vg2undntv5hc7scwvs6xa7v38v6mx3jnmsa948aufl5pty77gyh726h89903q6peye5","addr1qyau90sx7tcv8mgh5vq746gq9muulj7vg2undntv5hc7scwvs6xa7v38v6mx3jnmsa948aufl5pty77gyh726h89903q6peye5","addr1q9zthju5mkuk3yaqxs4zj4kxkvtfa7xayaz9yysefr633fkvs6xa7v38v6mx3jnmsa948aufl5pty77gyh726h89903q99x6ym"],"addressesOutput":["addr1vy8vaey8m4wk7fuyxuxgaxraujpqwcsryn4qm6l7kasahygrqhjww","addr1qx9jt66d6u8zkev7kf50jkp3et0rcqlpxxqj65am33yn7kwvs6xa7v38v6mx3jnmsa948aufl5pty77gyh726h89903qxys4zd"],"fee":391881,"totalOutput":28170368,"tokens":[]},{"hash":"b33c2d7fe3f01e54e20273abd3d04b9b682df9d44db05501f0a490118e241fcc","blockNo":8313602,"blockHash":"2ce0394c5680f17fec5eeb96fc5e38e3dcf45e0580b84e795356b47cb3083977","epochNo":389,"epochSlotNo":366328,"slot":83051128,"time":"2023/01/25 03:30:19","addressesInput":["DdzFFzCqrhsq2VdoxwiMnRBXktW5Vucxt5jZSESexj1FC3rWNVakuyQJZrFHUY8gRoKwEP5t4MHVNGMr8qyjmL29uYj5K4HReAfYYu3e","DdzFFzCqrhskwnXKZbbnsoixd6RLNGAUCMSUjHCZtCiFzGrpFaRiYVWtKRW4Ed4GFoVA3FPUpSR6XKxtdWc65Ajs9DtydQoQ3nxj7xe1","DdzFFzCqrht1dqs7BdnMa3pJSfAKvE2jyy16JzVgkLmaoP1RGz6m2swYsEvtzvwtzkD7fYAyPeGEiy7bS83A9tMEKKxbAuGzNVhhvRWW","DdzFFzCqrht2YWhHZAFQhp8UXExvt3aBXuADHbVWDRmtSYUfWDcEgwxuu1fEMqsbdGCr3nDDaEy72yFXYStCztwt1N9b44wwtNnGQ88m","DdzFFzCqrhsjYptsLcGGsVGkGUifezHt1TgwQQdDfNEE17AvoHsSdF423HKZwF8GXg1S3h2rxDvSbrnbu7kHAa9x9r8jJ7aHxLYgLBzi","DdzFFzCqrhsr6j5okwF3qVhTV4ufVyg3bNXSpKRD9FACvhpb62yKfGAXhiptSuznkEi5sPXN9znGo5G3ozxdqTTDh61pn2H5Zz23hq5p","DdzFFzCqrhsxHmGeja59x5Ecs2ErdWAM1CoEEdL2VQwK9nfjbJaYhwLsxqmbHSPqPkYbjh5diZ47ZAbtH2cFV5bZvVhBiWKL4mNRRHdf","DdzFFzCqrhsdzK42MpiYLrWq4RcVTktQvBLy44xqqfUNDCQmY5mdyZ4Rrk9mb41wQD84G41uUWBfdgN6cEN692v4xFfKn2UNqejQ5Ur1","DdzFFzCqrhsvHst885JgqYeFVZ3zFi9LibiUjpPY4ExtHZ88BWFCRv5XDaMwPe4dHuC8PhKqKU69HbgP9LJgMH3aSVZGQRjHRhE16Eo3","DdzFFzCqrht44gX857mHY97BsyTkur13hBKoi5xTmphEqBboYxYNha4gJeue4u1VYyKKu6msSuUYfg477cBC6bEwFBuWKjUFJRLw3byk","DdzFFzCqrhsmrhWvKmaAdyFz1cAfU6t4ZHgVRYMpvyWGxbEm2QYNJyPbnUrRXQjUzqBmq7ayJu2NDnhmENdaXDjb317v3RYHD1w8ZG6o","DdzFFzCqrhsj8E6RA3eH3pgpT4MNd9VsmpiqXp1biHbVXxhXRx46R1WbEEkK5p9BBE1mqqSsaTkYeqxcYyrfDpqfkyThqVF3mWg4Johp","DdzFFzCqrhsr6j5okwF3qVhTV4ufVyg3bNXSpKRD9FACvhpb62yKfGAXhiptSuznkEi5sPXN9znGo5G3ozxdqTTDh61pn2H5Zz23hq5p","DdzFFzCqrhsekbVRTkAno9jijJNqaHFJ73mumocjRABEUJqHcPXNHen4iHPnF4dRwPeHQzQfhvVKQDzrmga2SHzmiHpRtgru3cNWdN6B","DdzFFzCqrhst9pPKYkbHSJPQ8jgUy13VJvtXrBQnHP5nJNiuwZoVUzt6VHTC4aoWcPZNFmiKhFMW6qK3LeMk3xjFE7U4SJ7CnST2xrKp"],"addressesOutput":["addr1q9atjfpqwdtg7ytz0pz9zcaqvx8zr2uv6ysvc4csqynr683dzefudzxhadht99nh8gv4l3z93d486ygllgxuh2drrrpsdw6fws","DdzFFzCqrht4NQwaQRWfcKChxScNYVuGBWZswtGFCpW5YSFy5LaMWTZE6cyovxZjBgKxjvXMmzEWgnDXUc21kAGVkGvcxM3pA7HphiVT","DdzFFzCqrhsfktXXDPeHKXaxArHvKzMFvz5Vh2krYJMLdJK9SABp5BqAWW8P51CqkmvoxvjUNEm7Uu1vfDgLkcvhvGtpd2ZtmV2gmcoK","DdzFFzCqrhsi3XWc3rmiGudaxGKZe86sWBUVZ7ujtfz7st6Hoo95sBHeZ1chriekg6in5PYxv6WoQ1Hk7WbfD2D2uKBgSDoXshk4QySb","DdzFFzCqrht7dJrmeWtEvwhT5qt3Yx61XGzKZacxs1qrUK3MCKkjZp2MvAG8fri7dvfPpsnxCXWD2MZGB77ExXdqaaMsVWeTwoLUorxS"],"fee":1050561,"totalOutput":68315403615,"tokens":[]},{"hash":"ddc05fb5ea0fad5302f2021bdc6b6bc335c2a6f3776bd09615848dd8c1234984","blockNo":8313407,"blockHash":"f8c3b5e6a107351b3cffeeb0a4e7d21ad6e473dbe8adfd7fbb486dacc878c264","epochNo":389,"epochSlotNo":362052,"slot":83046852,"time":"2023/01/25 02:19:03","addressesInput":["addr1q9mjra3zgc5x2wswtkxht5us720aqa04lact36e989f439ca49c73yv32axatm687gp8req4y0v6thvmec00sz5fdn3scya6z2","addr1q9lprhd6h8ledz358mnla20v3pytz7s55hcz3v9y7pduqwca49c73yv32axatm687gp8req4y0v6thvmec00sz5fdn3s07jym8","addr1q9mjra3zgc5x2wswtkxht5us720aqa04lact36e989f439ca49c73yv32axatm687gp8req4y0v6thvmec00sz5fdn3scya6z2"],"addressesOutput":["addr1qyg5yk36ee0rhl5hw5kxcfng5ygrsv55tuchs0nxjmh9uqmpmpaxya7n6kzmyy6f72st0akwx8zg5n6emrxa5mhywg9q3v23dv","addr1q9mjra3zgc5x2wswtkxht5us720aqa04lact36e989f439ca49c73yv32axatm687gp8req4y0v6thvmec00sz5fdn3scya6z2","addr1q9mjra3zgc5x2wswtkxht5us720aqa04lact36e989f439ca49c73yv32axatm687gp8req4y0v6thvmec00sz5fdn3scya6z2"],"fee":400901,"totalOutput":677301017,"tokens":[]},{"hash":"08b7dfe9fb016d98e6ca747ba8c4b776b5538769530cb4a7a6c8d64f03b6e634","blockNo":8313343,"blockHash":"d1b21c76e564f810c746bf5969574adf2135eb0493ad2c3dd9b702037fe3f470","epochNo":389,"epochSlotNo":360964,"slot":83045764,"time":"2023/01/25 02:00:55","addressesInput":["DdzFFzCqrhsjGHdEfveZCMKXatk8GaAZXCno1z79nDf82X3fgngHpqvjSsVgrGzVgzWhZjrM5hBs7uBxhhnM8k3u6CGz1nuNwMYbp1nP","DdzFFzCqrhszhnrjemRegnia5GuoddVh3ivM16cUUCtL3B6A7q48u25swrpNkV1aYwzocSQpF8xytK8ESPbCKVghAgaKjHpKdwxVYMTu","DdzFFzCqrhsuVPnbTnv6g6Cha4vXAxvUWmhzgGmnWmRAx6xKLtyEvVGutPneELAuPRJ82M5Ymj2DnsjBn1HPgVE3KGfZNebgWRxjwsxH","DdzFFzCqrhstviJjkBkmdp225EYqAwb8vcS4NqtCKmADEn43xVuAQh83JJw8u1vEy7r3JyHH2gCTr5e5A4GDkLqfb2Bicpzp3x4NvbVN","DdzFFzCqrht5krJ3RXPmCcLQdF3qHAHM9RXsbkcXjUjBv5e5okhABZpinFMSwUczaXhut1GDdomfSAEdpdEe4RtGPsMUuZitXWq54YGq","DdzFFzCqrhskCstRMDcq8wLEMTeBB8mTKeDWP18qPqi1EsE5pfTHTf7jS1aFQ4yfpQ9yDiADsGenGxCG3Z9awWFCfmazgC3JFCiwvMf2","DdzFFzCqrht21fgWjqJMsmzfZ8cyfMvFkA9Lc6mbfhCrXXn5DXoGHKgZqTFJpn5KpxgRkC4wZBshHinuHbK9goLKFrXea1sKQVo6SUrE"],"addressesOutput":["addr1q9atjfpqwdtg7ytz0pz9zcaqvx8zr2uv6ysvc4csqynr683dzefudzxhadht99nh8gv4l3z93d486ygllgxuh2drrrpsdw6fws","DdzFFzCqrhsq2VdoxwiMnRBXktW5Vucxt5jZSESexj1FC3rWNVakuyQJZrFHUY8gRoKwEP5t4MHVNGMr8qyjmL29uYj5K4HReAfYYu3e","DdzFFzCqrhsjYptsLcGGsVGkGUifezHt1TgwQQdDfNEE17AvoHsSdF423HKZwF8GXg1S3h2rxDvSbrnbu7kHAa9x9r8jJ7aHxLYgLBzi","DdzFFzCqrht44gX857mHY97BsyTkur13hBKoi5xTmphEqBboYxYNha4gJeue4u1VYyKKu6msSuUYfg477cBC6bEwFBuWKjUFJRLw3byk","DdzFFzCqrhsxHmGeja59x5Ecs2ErdWAM1CoEEdL2VQwK9nfjbJaYhwLsxqmbHSPqPkYbjh5diZ47ZAbtH2cFV5bZvVhBiWKL4mNRRHdf"],"fee":973121,"totalOutput":59778645816,"tokens":[]},{"hash":"5c1fbed48489ef078105ae8d65205b3f61ef2b3f01ae67d078e57ef4f5c8c629","blockNo":8313246,"blockHash":"4834e5f761522985dda3720bbecbcc7a7a1821faa07174580c90a664281cf2ad","epochNo":389,"epochSlotNo":359136,"slot":83043936,"time":"2023/01/25 01:30:27","addressesInput":["DdzFFzCqrhshqtjHhAmisALVamxK59bPDiF8rZU8SHUuDoRM27q2AUrsThoWu2Q8rJiy6fpLqxVfy5N7m5yP5v6suQ4VecXuvnvosjH4","DdzFFzCqrht3rfhFTkrsNkhk75gK6YT872zaCBNiR24QquF6GRkt7WoZFEwfyhYYWhM1ivo1vdtUyXcQ5A27EhGsNieDomYhqB5ZFbLY"],"addressesOutput":["addr1q9atjfpqwdtg7ytz0pz9zcaqvx8zr2uv6ysvc4csqynr683dzefudzxhadht99nh8gv4l3z93d486ygllgxuh2drrrpsdw6fws","DdzFFzCqrhstviJjkBkmdp225EYqAwb8vcS4NqtCKmADEn43xVuAQh83JJw8u1vEy7r3JyHH2gCTr5e5A4GDkLqfb2Bicpzp3x4NvbVN"],"fee":372081,"totalOutput":2367980852,"tokens":[]},{"hash":"032e78625e04a980ec9634421e9f3a9768d3d064614af8e5aa9f8ff06f7e9cb1","blockNo":8313203,"blockHash":"7f1a717f4ad1b0431566b8ec0515198a6c56ff38a2a7a425f7e70f2bf9129c09","epochNo":389,"epochSlotNo":358260,"slot":83043060,"time":"2023/01/25 01:15:51","addressesInput":["DdzFFzCqrht1bRqGQv3SJuj6s5g4uQKg32HJBEHM2Yh9b7Eh3oQ6coK6WAb7rvJCNYgaCJQEetQdSjyUv28BAQ7BCK1eu9GWX7zbJPQe","DdzFFzCqrhsdzK42MpiYLrWq4RcVTktQvBLy44xqqfUNDCQmY5mdyZ4Rrk9mb41wQD84G41uUWBfdgN6cEN692v4xFfKn2UNqejQ5Ur1","DdzFFzCqrhsnZHUL3csskUbG5NhciR5tdkTdx9aMvHs6WueUXmAPwSqkHhZpvJiunKoiuZkat8QChcukgBi57HxR9qcDHdXLfAxVCxcU","DdzFFzCqrhsjTMqtpdQCeryar9BchzRU1HND28krQGzE499nbKoL1LXcVGk9YHgqGqzcRfQ5JQx1izcArGRT1B2qz6YP8p9KK42s2J3N","DdzFFzCqrhsyxbtdFEtixreKNDrRdzTK8rstEAAvXoZHfoAKQtW1Z1Zr7UEaAKKcRhPpMpTNUeRiiQJnx492aaWV2HgW6To9pJqY1rSN","DdzFFzCqrhsjyXSaYtiB3vjU2AKnmUwE2kstcxeC5svgbdkDBAratpssUmhGoYwPJm9v8Gk6Syb3sYG6R1wR3opLr6RAxXSemWsEvD5e","DdzFFzCqrht6hMK9ZAgNPx7rBUxH6MSg3u1UUV3bqehzvPzD4X2AKssa4bRU2MT6uM18FwoPsHcoSB8mNwJTxMCy9AsS6eX6X9Y8D5CY","DdzFFzCqrhsxH1bfzRa3Nd2Z5NzhqVXEMaEzmVpEZBcK8uEJR7vbYztnqXWGmAh18G3pDSGZKj8JkNWmrmBnYW2KFs5FPwoaWTfako7n"],"addressesOutput":["addr1q9atjfpqwdtg7ytz0pz9zcaqvx8zr2uv6ysvc4csqynr683dzefudzxhadht99nh8gv4l3z93d486ygllgxuh2drrrpsdw6fws","DdzFFzCqrhshqtjHhAmisALVamxK59bPDiF8rZU8SHUuDoRM27q2AUrsThoWu2Q8rJiy6fpLqxVfy5N7m5yP5v6suQ4VecXuvnvosjH4","DdzFFzCqrht21fgWjqJMsmzfZ8cyfMvFkA9Lc6mbfhCrXXn5DXoGHKgZqTFJpn5KpxgRkC4wZBshHinuHbK9goLKFrXea1sKQVo6SUrE","DdzFFzCqrht5krJ3RXPmCcLQdF3qHAHM9RXsbkcXjUjBv5e5okhABZpinFMSwUczaXhut1GDdomfSAEdpdEe4RtGPsMUuZitXWq54YGq","DdzFFzCqrhszhnrjemRegnia5GuoddVh3ivM16cUUCtL3B6A7q48u25swrpNkV1aYwzocSQpF8xytK8ESPbCKVghAgaKjHpKdwxVYMTu"],"fee":982801,"totalOutput":59473317242,"tokens":[]},{"hash":"08fd46ee3e5518e782ed7a8161d83ceb4c3010652f9b3144214df0d2e7562ee2","blockNo":8312426,"blockHash":"365202d386caa71acc90474d1a369f138bb2f292a706ab129463e447722211d2","epochNo":389,"epochSlotNo":341666,"slot":83026466,"time":"2023/01/24 20:39:17","addressesInput":["DdzFFzCqrhtB183CukQGH9w8N2k13eP87nUwCWKDarSj6ekiD4GdPT6ZkFGiHNFCPo8rAaNkepbs7njMfXNneZRF5zLjNBhNEuygAd43"],"addressesOutput":["addr1q9atjfpqwdtg7ytz0pz9zcaqvx8zr2uv6ysvc4csqynr683dzefudzxhadht99nh8gv4l3z93d486ygllgxuh2drrrpsdw6fws","DdzFFzCqrht6hMK9ZAgNPx7rBUxH6MSg3u1UUV3bqehzvPzD4X2AKssa4bRU2MT6uM18FwoPsHcoSB8mNwJTxMCy9AsS6eX6X9Y8D5CY"],"fee":362401,"totalOutput":474143910,"tokens":[]},{"hash":"73a3afc693220942c648dbf5e95b0492b49c77997aba9f507d8f53f0df836ea4","blockNo":8312399,"blockHash":"0590f17acee1025807d10d2162f8682c541deb578f69b996d854c9b06d438d10","epochNo":389,"epochSlotNo":341185,"slot":83025985,"time":"2023/01/24 20:31:16","addressesInput":["DdzFFzCqrhtAKuBG6QUFACK8BnWXM6SnFFkW8HTysZoCEehQbzq7iyDBbRy7RUQwaBrt3ab8brEipxhFYkr6R7wzMDFS4GSfov8X3HCW","DdzFFzCqrht1SPQnXiqcGBCmQQbCs1f26fjc9k4D3CNnedUNdCJSsV1wFUZSm8PCAgVYJYaLDjJUHsWc2gtL2JLzFvxHYgTgyayD34jg","DdzFFzCqrhsoBhCh9ZMf5F3Y63bNTrxx67dwwwkZnydTq6gwJKkU6LsgEb7udh7xuwTTpFCmVjBDgMBmG6wegbJGHamj44gQgAwSuA31","DdzFFzCqrhsnSYr8PMvAUddPNcqLs8KmistAGp7G26fFYVHvLdUw7GgedgjYPLy744eD3omCF8hHa5WoUKxDrnYfscmHhJDvUjSCoYP3","DdzFFzCqrhsyinRmEnNezUhq453nV6hHmYNiBRu9m6Rcx59xaXk1Rkw6CbgHzm1ykwamgTbvz7dwVW4SB3uxszJEmR4hY4tEVEmRn54M","DdzFFzCqrhtAYkXcpzavmjNKJFbCN5TRPw8D8Zi3D1DU1eiQjT2EeGbjncHChBUpi527EfhLy9HQGPmJ23zP6MEJ2KvWkFqNS8tNMdam","DdzFFzCqrhspAobPe5yEEDRXrTbsLVWnRgJSUs9cv3pxRJNuxPYZVJygy3yRLL6srCmNsunuGMWfUawXVkRXHGfUyA5HhJ6sYGmH1R7a","DdzFFzCqrht5hZ8iWtyU6kdokWAUDERzA67dqmwtdvfhPVj27KWeKyZPKYSr1o1rxtNi2AWretLivdBSgrqvHPDqGtXCWa3ULJ6qbveD","DdzFFzCqrhseghPwcn1x7Ejrdte5YmdbWZt35jbJUWxvjVg2Kucd8JQHEAzXnRZ7BB78G98yYZsmTaH7vTvcvJpg1LuGNKN4RPSJfiTf","DdzFFzCqrht9RtdVZbaq9MNcjR7q7wwTJqjNUQ5LbxHKCJF5RUY584BZGMKRt2KggxJikM9WWbftLSAWUHk9Nb6a6ksrf4XZAzBbwnYj","DdzFFzCqrhssGURcZfdxBwYKYdiFMsd3HGShtBhBpH9VRyCibLLM7WGsH2PPo4uXnB7qiR9sP8ZmMcFd8GECuEjHJgw9nVEzigd3vaCu","DdzFFzCqrhsxeavCLCXFFwbApcQjTMoV1VcYPbd4Njr5hjfwy27vvBMXeGuRVKCXnwYsjRRwAz2z61er24BDZKNNouAsepK2uwzscy5c","DdzFFzCqrhsv6tvdZfQQcsnoqiX736BrURMjGxNUtMfRXzkwRnN2kTCoTWX5MBFZtXLrv3mLu2wvG7g84NK2sWe6ckpVRTiiUn9iVjc9","DdzFFzCqrhsmWLMBfN17dTjJYPT8joJ5kPjbNDKWUNHi57ZZZysgTniJbCyXwC1CJ8RNhLcfKt4RFbJT68yZTNKyDmZSEjkRUMRErYBR","DdzFFzCqrhsxPbtDZFFaeNVZfhwaXXBANF3qkBfpCZRcMDCpuyMjGE3TUD5XWxgPfRFmY3376ES56kitzYLR38Jo5GmmKXuaKGuLRvdL","DdzFFzCqrhsqWCeFE855wGNoPAr1PizYM9VSUzm2Wj49TMyUkGhZbQsWPVTHnYG3Qdd62p81vg6NNQXRwwvAW54a6mRsSG3UBSibTBi6","DdzFFzCqrhssGQkXNDBh7Q56yK1tRhHx2PwsLHmnMwpLxHXebaTyV7QUUDqaUSBSstT7pjyggwsPc15wJFMJxP5rf17TEsuBPzJD7ef6","DdzFFzCqrhsqabZR2Dw653X3jyGFG2qTVd158f2AtKfhXGz4c7SRuHCZmWWimcReEuv9ofCM3jUFuefy3L1QSp3rqiSQGDq42mzu6eWA","DdzFFzCqrhsnynRxTEkLMzhhicpKQnAmVvsE7hBsNrBCEzubMLKSfkkxDrSMS1cSpEhYrF4eaNFSnd27kvFZjTeVPoxka8roJV33EtSA"],"addressesOutput":["addr1q9atjfpqwdtg7ytz0pz9zcaqvx8zr2uv6ysvc4csqynr683dzefudzxhadht99nh8gv4l3z93d486ygllgxuh2drrrpsdw6fws","DdzFFzCqrhtB183CukQGH9w8N2k13eP87nUwCWKDarSj6ekiD4GdPT6ZkFGiHNFCPo8rAaNkepbs7njMfXNneZRF5zLjNBhNEuygAd43","DdzFFzCqrhsjyXSaYtiB3vjU2AKnmUwE2kstcxeC5svgbdkDBAratpssUmhGoYwPJm9v8Gk6Syb3sYG6R1wR3opLr6RAxXSemWsEvD5e","DdzFFzCqrhsjTMqtpdQCeryar9BchzRU1HND28krQGzE499nbKoL1LXcVGk9YHgqGqzcRfQ5JQx1izcArGRT1B2qz6YP8p9KK42s2J3N","DdzFFzCqrhsnZHUL3csskUbG5NhciR5tdkTdx9aMvHs6WueUXmAPwSqkHhZpvJiunKoiuZkat8QChcukgBi57HxR9qcDHdXLfAxVCxcU"],"fee":1089281,"totalOutput":51903856672,"tokens":[]},{"hash":"4a77e875e6b9776487537e156c774f32607fc1a136c22d6a470634d95f2a533e","blockNo":8312397,"blockHash":"a54871b02ce2bf28d3a377e29ab7d59e6ebe5c1d32631fe4876f08afdf2086db","epochNo":389,"epochSlotNo":341150,"slot":83025950,"time":"2023/01/24 20:30:41","addressesInput":["DdzFFzCqrhspfY2XMAjYZ3duNXUyC1pfPCjPrSvF2Vcqj8kUtHKkg3o7Qhc3eo2uUvLzwcHCwjuJriFHHfxACRsFi35pfEVWS9EwGArJ"],"addressesOutput":["addr1q9atjfpqwdtg7ytz0pz9zcaqvx8zr2uv6ysvc4csqynr683dzefudzxhadht99nh8gv4l3z93d486ygllgxuh2drrrpsdw6fws","DdzFFzCqrhsoBhCh9ZMf5F3Y63bNTrxx67dwwwkZnydTq6gwJKkU6LsgEb7udh7xuwTTpFCmVjBDgMBmG6wegbJGHamj44gQgAwSuA31"],"fee":362401,"totalOutput":645066468,"tokens":[]},{"hash":"d2859f83ed20607257cad1884ab4dabeaaff1e0902227ba081c4c1bd9b7e3e14","blockNo":8312364,"blockHash":"9e36602c5d604ee5886adaba31ddff2c1422d9f9e96b1d2d11ca7735dc5e5249","epochNo":389,"epochSlotNo":340495,"slot":83025295,"time":"2023/01/24 20:19:46","addressesInput":["DdzFFzCqrhsoZFBzCkAueN8apr9X56tujoJsCnPJUihVrQehEN7Vnxiw79zDXJoZQRTtamPWXq5Nt56b2LT7Zv73ekb5zJBWeFytwM9Z"],"addressesOutput":["addr1q9atjfpqwdtg7ytz0pz9zcaqvx8zr2uv6ysvc4csqynr683dzefudzxhadht99nh8gv4l3z93d486ygllgxuh2drrrpsdw6fws","DdzFFzCqrhspfY2XMAjYZ3duNXUyC1pfPCjPrSvF2Vcqj8kUtHKkg3o7Qhc3eo2uUvLzwcHCwjuJriFHHfxACRsFi35pfEVWS9EwGArJ"],"fee":362401,"totalOutput":646678769,"tokens":[]},{"hash":"cf1b67cc410d7d9c581cae5e9fd9eeebb20273e112d3db502c9b81b341cb9c94","blockNo":8312344,"blockHash":"5983b614bca12aff6353e254ba10652beed66ce2e4203ccfac985ffec96b2ee5","epochNo":389,"epochSlotNo":340095,"slot":83024895,"time":"2023/01/24 20:13:06","addressesInput":["DdzFFzCqrhsjyfNgDK3vERxyNB1kbJAkBpmVMdiNyet5fdtgBNoPCtbbUgDyPAi7cK5ZisysgZGR2up9S7wVa3Fz7BbPSiKDvF7hY2C4"],"addressesOutput":["addr1q9atjfpqwdtg7ytz0pz9zcaqvx8zr2uv6ysvc4csqynr683dzefudzxhadht99nh8gv4l3z93d486ygllgxuh2drrrpsdw6fws","DdzFFzCqrhsoZFBzCkAueN8apr9X56tujoJsCnPJUihVrQehEN7Vnxiw79zDXJoZQRTtamPWXq5Nt56b2LT7Zv73ekb5zJBWeFytwM9Z"],"fee":362401,"totalOutput":648291070,"tokens":[]},{"hash":"e95fa099ec319beec3e5ae770944f0c6149f6ae1ed6dd6413012e4383b1b35d2","blockNo":8312338,"blockHash":"eca58e071dc32a135e3f662d2c43716412392dd0eff5366c667e2d95eaf0cb5c","epochNo":389,"epochSlotNo":339848,"slot":83024648,"time":"2023/01/24 20:08:59","addressesInput":["DdzFFzCqrhsqNDJQL4qUTB9FWgGBnYMYrRMhzv3VgQDmZ2Q2xs7NENgsPrciAq8GAi3BSCTegetWaeV3WMP3vwGziXSUnrPPqZod5mxQ"],"addressesOutput":["addr1q9atjfpqwdtg7ytz0pz9zcaqvx8zr2uv6ysvc4csqynr683dzefudzxhadht99nh8gv4l3z93d486ygllgxuh2drrrpsdw6fws","DdzFFzCqrhsjyfNgDK3vERxyNB1kbJAkBpmVMdiNyet5fdtgBNoPCtbbUgDyPAi7cK5ZisysgZGR2up9S7wVa3Fz7BbPSiKDvF7hY2C4"],"fee":362401,"totalOutput":649903371,"tokens":[]},{"hash":"cf43f7272a59b64c51c8ccc4e9c6125c4afec7fcd688e047ccffae904a7bfeb2","blockNo":8312302,"blockHash":"e2d176ece1d8265540e9e6f3f1e334d846722f55bb59c834fb6cb4afbc9284cd","epochNo":389,"epochSlotNo":339324,"slot":83024124,"time":"2023/01/24 20:00:15","addressesInput":["DdzFFzCqrhssSNTamyhTpegFPa2r7jYHiwmPjm6QVutB5gv9jUZPdSSsgt8pKweqXs7gScdUSRW6S2KLxtR96F3DFBjbV8XYXeFqi7fV"],"addressesOutput":["addr1q9atjfpqwdtg7ytz0pz9zcaqvx8zr2uv6ysvc4csqynr683dzefudzxhadht99nh8gv4l3z93d486ygllgxuh2drrrpsdw6fws","DdzFFzCqrhsqNDJQL4qUTB9FWgGBnYMYrRMhzv3VgQDmZ2Q2xs7NENgsPrciAq8GAi3BSCTegetWaeV3WMP3vwGziXSUnrPPqZod5mxQ"],"fee":362401,"totalOutput":651515672,"tokens":[]},{"hash":"5c7ad8019c855655576c48a6e89616870c4bc89f3ed8ca391aee70952a9c4a1d","blockNo":8312266,"blockHash":"f5b047b6cc8aaafe5bf86ca51a1dc43bc53c50c657d589c67df3b79aafcf4269","epochNo":389,"epochSlotNo":338705,"slot":83023505,"time":"2023/01/24 19:49:56","addressesInput":["DdzFFzCqrht5RNqQBexUUTY7NTfHMogGcsNTuf9wSj5fQCXCSuJWF2uExZNUTfPdnS5LCbBgFuYapeHniDbopcREpwA9f5nutbGfzC6b"],"addressesOutput":["addr1q9atjfpqwdtg7ytz0pz9zcaqvx8zr2uv6ysvc4csqynr683dzefudzxhadht99nh8gv4l3z93d486ygllgxuh2drrrpsdw6fws","DdzFFzCqrhssSNTamyhTpegFPa2r7jYHiwmPjm6QVutB5gv9jUZPdSSsgt8pKweqXs7gScdUSRW6S2KLxtR96F3DFBjbV8XYXeFqi7fV"],"fee":362401,"totalOutput":653127973,"tokens":[]},{"hash":"f146bb906b422828b651715d1ee76862925422365f87f45c6c721f16a7ddcab8","blockNo":8312241,"blockHash":"0c421d140b8086e9887a89769e9617da63e1029cf2c323efa64bd140e78d3e94","epochNo":389,"epochSlotNo":338129,"slot":83022929,"time":"2023/01/24 19:40:20","addressesInput":["DdzFFzCqrht7Mpb7tcAuATrZqqGjEvYLQV43Frj4b1gE6A2pTvHqVBzMM9SJTGezvYgJ3V5E6vye55hCHixybA9LRia4AAd55pruoLjY"],"addressesOutput":["addr1q9atjfpqwdtg7ytz0pz9zcaqvx8zr2uv6ysvc4csqynr683dzefudzxhadht99nh8gv4l3z93d486ygllgxuh2drrrpsdw6fws","DdzFFzCqrht5RNqQBexUUTY7NTfHMogGcsNTuf9wSj5fQCXCSuJWF2uExZNUTfPdnS5LCbBgFuYapeHniDbopcREpwA9f5nutbGfzC6b"],"fee":362401,"totalOutput":654740274,"tokens":[]},{"hash":"0f5cee3a72e147a52d053cd508a54a6856f57bd882a1a3ded843f61d27acea8b","blockNo":8312209,"blockHash":"22426e195680aec0b6aa030aa2a53db946e97fbc2073e386262f38d8a86bfd5e","epochNo":389,"epochSlotNo":337662,"slot":83022462,"time":"2023/01/24 19:32:33","addressesInput":["DdzFFzCqrhsrciXfajx82cQx6LNW4ARsZc8xME62SfB28R5sciC8aXJqn5hATL4oAQ5WTsKyLcSkcx3VcJTcKDCRGm8cufKpSiFXsGtc"],"addressesOutput":["addr1q9atjfpqwdtg7ytz0pz9zcaqvx8zr2uv6ysvc4csqynr683dzefudzxhadht99nh8gv4l3z93d486ygllgxuh2drrrpsdw6fws","DdzFFzCqrht7Mpb7tcAuATrZqqGjEvYLQV43Frj4b1gE6A2pTvHqVBzMM9SJTGezvYgJ3V5E6vye55hCHixybA9LRia4AAd55pruoLjY"],"fee":362401,"totalOutput":656352575,"tokens":[]},{"hash":"5a6ddc8a1e2557243417ce67326d955ae619af7cf68afb81203d84ba0cef53f3","blockNo":8312199,"blockHash":"f659525adc0a9a0a6862cdc39a4679d88b028d4cce10d6e512520d60af419603","epochNo":389,"epochSlotNo":337418,"slot":83022218,"time":"2023/01/24 19:28:29","addressesInput":["DdzFFzCqrht4zMhaLkGcDdzesW4Hz8PLCyRAbcCeaoj6ZfWfWXQn2duFGwU2hDS7aWjmo3H1hpABeK82BsvLuffymc4nRRQ92Rc8HqEa","DdzFFzCqrhskLc5qQWiFNpfhm81czDfTX8uUx2CjwaJN4zaUenYGgsCqQnL2x6ReSS6P6ozwgDw9gBMF3hq67ChE57EyT7xuPKdWim81","DdzFFzCqrhtAD5Q5WT3xZRNUGDSZhFiNwncvCCwq9zkuKsrmdjXYygDxvbbT9KywWFXHFYkxH5Bvqo7kASSpZ6z9hmLVJjnCSewouijn","DdzFFzCqrhsu918hM1kNDrQtsSsD1hRx95KesyyW6JAxSXizDagdmnTZ1VvWp4j37oSNeAU3of2WdAcLdQtefbjUjeF7nN6jnSSoZvNV","DdzFFzCqrhsieyVQKn9iPWwkt7b7NmXSMcJTfj5WafJdnU91wQoD4y9nHtyjse1FBqPgzeeNWvfB7XkLBKVLm1ZG6ty7XcsN84Kv9CEc","DdzFFzCqrht8PNqAeQ5c2kipQq1DinBaRK5MvjfAAHegVNTAVkm8g2hjZd6vLBZyc3hH7YiqnrBYD4qaQhPer3PQaAsKPKu941vm74ts","DdzFFzCqrhswY586kCQMCv61FKLLFoCDLZAZGJKzf1LxnFV917V9T8cSbQLGZNWkXmUgtdkY5Z32UmZCDHCoWrywqbf4BtmrGb26YMbf","DdzFFzCqrhsywpwqyrDvtTCCxHQRr6DrZNBcgSVATUeh3z9uPRZYJ4xbFn8xQtkKkqtRPgS5uhonYFLLPXY8oZQkTJFThrtuyN1LFaxo"],"addressesOutput":["addr1q9atjfpqwdtg7ytz0pz9zcaqvx8zr2uv6ysvc4csqynr683dzefudzxhadht99nh8gv4l3z93d486ygllgxuh2drrrpsdw6fws","DdzFFzCqrhsrciXfajx82cQx6LNW4ARsZc8xME62SfB28R5sciC8aXJqn5hATL4oAQ5WTsKyLcSkcx3VcJTcKDCRGm8cufKpSiFXsGtc","DdzFFzCqrhsv6tvdZfQQcsnoqiX736BrURMjGxNUtMfRXzkwRnN2kTCoTWX5MBFZtXLrv3mLu2wvG7g84NK2sWe6ckpVRTiiUn9iVjc9","DdzFFzCqrhssGURcZfdxBwYKYdiFMsd3HGShtBhBpH9VRyCibLLM7WGsH2PPo4uXnB7qiR9sP8ZmMcFd8GECuEjHJgw9nVEzigd3vaCu","DdzFFzCqrhspAobPe5yEEDRXrTbsLVWnRgJSUs9cv3pxRJNuxPYZVJygy3yRLL6srCmNsunuGMWfUawXVkRXHGfUyA5HhJ6sYGmH1R7a"],"fee":982801,"totalOutput":52632691334,"tokens":[]}],"totalItems":13273,"totalPages":664,"currentPage":0}