{"data":[{"txId":56997371,"txHash":"bd679316fd084c2c1e32f50a1f2bc430678c0374a7a7d39a2914e8a03ffb41d8","txTime":"2022/12/09 23:56:18","block":8119474,"epoch":380,"slotNo":79063887,"epochSlotNo":267087,"stakeKey":"stake1uxh8dnns03ax7m62pp0ylgffda4es2vvn2yyln0q3kf33hc03q6a7"},{"txId":56996922,"txHash":"5aa7d22df37de22a0fd6b29b1af146449db6b9cbb64c93dcac36226aae237903","txTime":"2022/12/09 23:48:18","block":8119446,"epoch":380,"slotNo":79063407,"epochSlotNo":266607,"stakeKey":"stake1u93gup3wtlz63pde7hmmkagchhl6nudrf5qv5hmyefvg8fcg8he4d"},{"txId":56996198,"txHash":"af293d43c91b5160b25a0a8af9ad7242a88eb6ec4728e8d58d06e1f2e8218c13","txTime":"2022/12/09 23:32:50","block":8119403,"epoch":380,"slotNo":79062479,"epochSlotNo":265679,"stakeKey":"stake1uyx44uq5t8zrs0wug4jl2ahe0r365qvd93hxvgy4pe7r4vg9j7zyj"},{"txId":56994822,"txHash":"9eb492d28495d035b310e86e96c06f90cca2a448ef6328b13205c278a5b9d029","txTime":"2022/12/09 23:06:09","block":8119310,"epoch":380,"slotNo":79060878,"epochSlotNo":264078,"stakeKey":"stake1uyg9zuly2keff5cdjwegpf4zd65m0z0d3l23qdh39fn628gadgm3j"},{"txId":56994634,"txHash":"e882cefa51402e5a76d5a90f53ba45f6360c4cf0a29934abf016775cca2c9146","txTime":"2022/12/09 23:01:09","block":8119298,"epoch":380,"slotNo":79060578,"epochSlotNo":263778,"stakeKey":"stake1uxak6tz258kzfh4dl6cgyesqe4udpg72hjda8ajq9s6j3dgpdjwcf"},{"txId":56994524,"txHash":"f4959c2bf3fbd683fbb5ec0e745eee418675ef99fc27c1e217d225953d260f19","txTime":"2022/12/09 22:58:35","block":8119288,"epoch":380,"slotNo":79060424,"epochSlotNo":263624,"stakeKey":"stake1u8p4t4wynw783xk8yevqsrqxdcla36xvzszknz07wwtxxus2w5zvp"},{"txId":56993487,"txHash":"d9b2727bf26bf36ec047700126a853b0c2cc528841528087e5a4063d3a08d613","txTime":"2022/12/09 22:41:14","block":8119244,"epoch":380,"slotNo":79059383,"epochSlotNo":262583,"stakeKey":"stake1u99w24esq2fffst5tqc7lclv3dlu4gmcphwvff2z8s4jrvs3kffzt"},{"txId":56993405,"txHash":"c880c26d5a7e4b8c54caa6999497a3bd5681d3dcbb5cda0c425fecf890c9ce05","txTime":"2022/12/09 22:39:40","block":8119237,"epoch":380,"slotNo":79059289,"epochSlotNo":262489,"stakeKey":"stake1ux5w85d47zkkjcg6uk25c48f7gup2yy5g3mw5cdz9ls8x0q7dwz3s"},{"txId":56993368,"txHash":"8c13084c241a7e20c3d74defcc14adaf016b2e6eb627df233e31d4db41a886cf","txTime":"2022/12/09 22:39:19","block":8119235,"epoch":380,"slotNo":79059268,"epochSlotNo":262468,"stakeKey":"stake1u9sajjnru2mnafafj9c0522mtu05jwsd80t7myewac28magxxrexs"},{"txId":56992979,"txHash":"cf17e2a047c6990176baa095c61cf6e0fe33c687c949ae872a18613a91946851","txTime":"2022/12/09 22:31:47","block":8119206,"epoch":380,"slotNo":79058816,"epochSlotNo":262016,"stakeKey":"stake1uxfalfrn2k4k83yj5c2agtvfr8s9t8d8tgtxfh03j32p7fgw9vujg"},{"txId":56992611,"txHash":"3ad3a90131787c9b5b7730daad06e99f363f8739306e94ff1d5b086b02e7361a","txTime":"2022/12/09 22:24:58","block":8119192,"epoch":380,"slotNo":79058407,"epochSlotNo":261607,"stakeKey":"stake1u9sgzgt9enfjeryll2yhv32ck977rfuskw4m65n9l74d82sal9jld"},{"txId":56992532,"txHash":"703604383b94cf45e9b86196851a0ac3d214452bdaeff519e75ba15118002a94","txTime":"2022/12/09 22:24:15","block":8119190,"epoch":380,"slotNo":79058364,"epochSlotNo":261564,"stakeKey":"stake1u87uurzryunld5gnk33rywus5xcac0fmrc3st9rhe8nnjvqegagxr"},{"txId":56992314,"txHash":"285055c89be297c274f5e3dc699d1301ac2e12b4a8cf983ba8443f5451a1413c","txTime":"2022/12/09 22:19:26","block":8119174,"epoch":380,"slotNo":79058075,"epochSlotNo":261275,"stakeKey":"stake1ux7wfd4rm3spqqwlp22wpnsccgfpwe8v8nxszugs6rz9hcchgu07e"},{"txId":56992156,"txHash":"54fe64545c05a2e8cfb6b83b94ecf1cf72964a92e0af14a7fcfbd9bf6466d8d3","txTime":"2022/12/09 22:15:25","block":8119163,"epoch":380,"slotNo":79057834,"epochSlotNo":261034,"stakeKey":"stake1uynhatukzkpkp4g6ehmyw2ceg8qxmj34glf30rdnm6zy2xghw529f"},{"txId":56992080,"txHash":"73a1b749487f1ac319cea0931c57f0f71412851273aa68d7f71b672cc2551a50","txTime":"2022/12/09 22:13:47","block":8119160,"epoch":380,"slotNo":79057736,"epochSlotNo":260936,"stakeKey":"stake1ux0zam90fanxz7rrpqrzhj46z4w0nxg0032quwgunyaazkqavs5we"},{"txId":56991840,"txHash":"9d14a0c5966ba64048deb1e10aff5cd50ce957679c1cb5ceef2f2accb050aa32","txTime":"2022/12/09 22:09:46","block":8119151,"epoch":380,"slotNo":79057495,"epochSlotNo":260695,"stakeKey":"stake1u930yn4ppyykdug56h0sv3mjggxtzp73qs4ppcacw0j462q7yj7w5"},{"txId":56990709,"txHash":"f81af833569918f50eca7f72ab60ed764cf8f7fd5fc08455293bb999ae7d5572","txTime":"2022/12/09 21:44:50","block":8119076,"epoch":380,"slotNo":79055999,"epochSlotNo":259199,"stakeKey":"stake1uxy3hua6px58u80azr8s0x8ay6k9hz80rmnptg0v95yhzfgsh7gtw"},{"txId":56990643,"txHash":"a53c30d900535412b09215d93eb061f32c204ef6ce9294555ff9850d601b83cf","txTime":"2022/12/09 21:43:09","block":8119073,"epoch":380,"slotNo":79055898,"epochSlotNo":259098,"stakeKey":"stake1ux0zam90fanxz7rrpqrzhj46z4w0nxg0032quwgunyaazkqavs5we"},{"txId":56990501,"txHash":"aae91f4f845f832ad1c2ccb6469e644d40380eec881627bbd52a1411f1c08baa","txTime":"2022/12/09 21:38:38","block":8119061,"epoch":380,"slotNo":79055627,"epochSlotNo":258827,"stakeKey":"stake1ux90yrppvwyyz2wtnl6hlqj0n2ad83er0nweq6w2y0rqujchg4wra"},{"txId":56990286,"txHash":"ed35879d1dcc175af1f8eddf2345cb3c00aade0ed2e96d3256ecc8e2f3036cd6","txTime":"2022/12/09 21:34:07","block":8119047,"epoch":380,"slotNo":79055356,"epochSlotNo":258556,"stakeKey":"stake1u8fw9ls8tyaf4fclxpqj0jmgp9cpd0vdh3mtp4pcflua74sz7hgsc"}],"totalItems":335874,"totalPages":16794,"currentPage":0}