{"data":[{"txId":69434788,"txHash":"074d294d9c460ce02c6c0e3fcfd7b21bb172e480e6f9bb61de6a041388f4e0c2","txTime":"2023/06/19 12:24:34","block":8924000,"epoch":418,"slotNo":95611183,"epochSlotNo":398383,"stakeKey":"stake1uxu75v4yfplypaweaj97jsqcezutrkcfrp4ztm83fepuk5gy3ul65"},{"txId":69434784,"txHash":"e5acc24890fc1adcb3908a3191b958fbe7fc49dcceef198d17dea659671fe6bc","txTime":"2023/06/19 12:24:34","block":8924000,"epoch":418,"slotNo":95611183,"epochSlotNo":398383,"stakeKey":"stake1uxxajy28nge4e4ckynzj82kqxj75af0k77ce0xavk0jvjqcmtz2n7"},{"txId":69434748,"txHash":"9d6d62629d9536846535e5d82e44f348fed7409fb926c46e18b0a624aa9c6379","txTime":"2023/06/19 12:23:19","block":8923995,"epoch":418,"slotNo":95611108,"epochSlotNo":398308,"stakeKey":"stake1uygzkqv3reae8x7ce8ckh9936zkdd4cqcqelgujjpty2zzcl9f4hf"},{"txId":69434712,"txHash":"8204987cad538bde4cbb2c3acad3c446f629e6081ceb1e010cd947e3aa478477","txTime":"2023/06/19 12:23:00","block":8923992,"epoch":418,"slotNo":95611089,"epochSlotNo":398289,"stakeKey":"stake1uxwrf8mr4e66ax9aqk85lv069s5svrv8mcdcfqkywatmnxqzf2n0x"},{"txId":69434704,"txHash":"286958691a1d85157f3e70931d56e2f69f0eabd50017a4c1484de1843900fe9e","txTime":"2023/06/19 12:22:32","block":8923988,"epoch":418,"slotNo":95611061,"epochSlotNo":398261,"stakeKey":"stake1u9rx5f4x33xcuu8t2my73r4am0emun0djj5tkgppcj08yqsj6vlz3"},{"txId":69434690,"txHash":"6602e10dc231f1999712f6e6229b2f67514216d9d3c6b967812d17b663a4a521","txTime":"2023/06/19 12:22:16","block":8923987,"epoch":418,"slotNo":95611045,"epochSlotNo":398245,"stakeKey":"stake1uxtxs0tcsl3e8hgxujyfj65zf5p2fuekh0578mcvvvjhxhgv7te2u"},{"txId":69434418,"txHash":"3f1e9199818140f4ebac94b034c9f8a680140e74358051139e757468be7f5955","txTime":"2023/06/19 12:16:29","block":8923973,"epoch":418,"slotNo":95610698,"epochSlotNo":397898,"stakeKey":"stake1u8u20gr8ar6cehn835cdfztf9g7h04edr5tzdy8w33yql7gurd8v9"},{"txId":69434398,"txHash":"c2723294f4fff2782d9090f3d3319765fe0067d24c5e6b6381521f7eac07e1f5","txTime":"2023/06/19 12:16:23","block":8923972,"epoch":418,"slotNo":95610692,"epochSlotNo":397892,"stakeKey":"stake1uyv9j26jaqju07aaektx99c6ktcydtqmkm3ff09uj4feqmstwh82x"},{"txId":69434389,"txHash":"bed3a87bafb35f130c0fdf76fc5f3a371374cf8163269e8b4b03111c287bd5d2","txTime":"2023/06/19 12:16:23","block":8923972,"epoch":418,"slotNo":95610692,"epochSlotNo":397892,"stakeKey":"stake1u88rml5re0njgkaj5sl9xhkaxhs397rsga0v3fc3um3469q05xpvv"},{"txId":69434381,"txHash":"f0e9a15bc6a1f6e878448703bfc9af11d73f90412d7ee29158ea17a3ce1d1a1c","txTime":"2023/06/19 12:15:52","block":8923971,"epoch":418,"slotNo":95610661,"epochSlotNo":397861,"stakeKey":"stake1u9a4j2yg9e4zz587vqyl4xjjfnv0jfq0tc47xe49l68m2xgrpa68v"},{"txId":69434277,"txHash":"4dfe734d238356f2eae502284d2aa3a90dc1c77828352b559aba4598e827e8a8","txTime":"2023/06/19 12:14:09","block":8923964,"epoch":418,"slotNo":95610558,"epochSlotNo":397758,"stakeKey":"stake1u88l3v0fezutfq9ww2rne483zkwet0d2l5ex0pz3susq00cwjpuwr"},{"txId":69434260,"txHash":"2aae9db0b93cb219a7da4173f382e96645e143008bc53c99ca5167a48ab3221f","txTime":"2023/06/19 12:13:26","block":8923963,"epoch":418,"slotNo":95610515,"epochSlotNo":397715,"stakeKey":"stake1uxwrf8mr4e66ax9aqk85lv069s5svrv8mcdcfqkywatmnxqzf2n0x"},{"txId":69434125,"txHash":"1bafc8b31c0b9bc0b1cb6fac1b5a2b28a4bbbcd9a8ac8f6e2d065a82365df1d0","txTime":"2023/06/19 12:10:00","block":8923955,"epoch":418,"slotNo":95610309,"epochSlotNo":397509,"stakeKey":"stake1u9skcsgczrh8ufk8rc70pv027zzrqfeen7zg5x8nvxmt9cg9wtnq5"},{"txId":69434093,"txHash":"4359e8fa73d12c874a3a07ce563b143d430bbecb95a3d9a5e38f1f92e19ae820","txTime":"2023/06/19 12:08:38","block":8923953,"epoch":418,"slotNo":95610227,"epochSlotNo":397427,"stakeKey":"stake1uywujxkgmf9ldt40kasvqd6fh5r93533rdp7005dc908yvcs7zhj6"},{"txId":69434057,"txHash":"bb8f4b696f043c78199bf24ed0035d89f87656b87e020de29caf470447f8739e","txTime":"2023/06/19 12:07:59","block":8923950,"epoch":418,"slotNo":95610188,"epochSlotNo":397388,"stakeKey":"stake1uxc9y28xgexfzh4lutjkhm0m5c5d6pnsdm7tuufm4s6ucnquu5za0"},{"txId":69434026,"txHash":"bef0bbd90b34f47b81ae14363fbbfc12740213c18c9fc6793c53e1fcb3515089","txTime":"2023/06/19 12:07:22","block":8923949,"epoch":418,"slotNo":95610151,"epochSlotNo":397351,"stakeKey":"stake1u8qqmpgqcj7jm9unkpf2n0820c4ucxup9yyyyedk6384l8q2h7x8q"},{"txId":69434006,"txHash":"5b219d15a5c4642c237aa3815e02b0cb5107ce319c7b875312f21f8887fa1c29","txTime":"2023/06/19 12:06:45","block":8923948,"epoch":418,"slotNo":95610114,"epochSlotNo":397314,"stakeKey":"stake1u9sahhs05zluwhf8j8c3gdm3cwtchx4gd7cnmmfcd95y80gzar42w"},{"txId":69433791,"txHash":"6cc0f1883fe4ef52e55df95e8ae8c3633b8c8f20120d3d8f139532cf1fb64b58","txTime":"2023/06/19 12:02:36","block":8923939,"epoch":418,"slotNo":95609865,"epochSlotNo":397065,"stakeKey":"stake1ux3lw8qq6en979rtysj5kfq7jrpvgvz0xhrp4n8nzmh07xqkn55a7"},{"txId":69433733,"txHash":"d165f257747c17f6cc1cf8da62387751d4b1b1868e988b0b4c3797a8193bd364","txTime":"2023/06/19 12:01:28","block":8923937,"epoch":418,"slotNo":95609797,"epochSlotNo":396997,"stakeKey":"stake1u8uxyfswlef5ls7gx38yxja9httduggwfxz00qquh629suqp4nllr"},{"txId":69433666,"txHash":"c98771c8317b50962077a4aaa986e22b2ac2753b689fbfe080da3ce005978a4a","txTime":"2023/06/19 11:59:36","block":8923932,"epoch":418,"slotNo":95609685,"epochSlotNo":396885,"stakeKey":"stake1u9q9xy7h535j9kvgfcjj0umy7x3tq0essj3z3n37kpat57gwalg3w"}],"totalItems":1726630,"totalPages":86332,"currentPage":0}