{"data":[{"blockNo":8146905,"slotNo":79626605,"epochNo":381,"epochSlotNo":397805,"hash":"97aa027554f43c222c11e15642f2dded56515a9d55b2f60a5ad9070750be7550","time":"2022/12/16 12:14:56","txCount":13,"totalFees":4491522,"totalOutput":86277937429,"slotLeader":"3116c834a09b0060aef7284f63d3275456364e3309b3c19ec328af60"},{"blockNo":8146904,"slotNo":79626587,"epochNo":381,"epochSlotNo":397787,"hash":"e1f0c934fb9ac63bd832a280489e997429e3cc596d53118e681390f58ac9bf4f","time":"2022/12/16 12:14:38","txCount":7,"totalFees":2751161,"totalOutput":984505558,"slotLeader":"2dc733ef313c5c5ead9b93b96918106b067e343b21bbc2d3576e2913"},{"blockNo":8146903,"slotNo":79626575,"epochNo":381,"epochSlotNo":397775,"hash":"1373a982a1a1ebd20d23aaddc9315e5aded14e912b6efb0e9f728cb2cbb61e9b","time":"2022/12/16 12:14:26","txCount":23,"totalFees":6043735,"totalOutput":8178276613633,"slotLeader":"41c8a40ab0b78d727655d165f946722728dfb01df2fcc2e148b3c98d"},{"blockNo":8146902,"slotNo":79626532,"epochNo":381,"epochSlotNo":397732,"hash":"94917728677e1949f8128daacc026ed0aa235c970a42acf24b8f3538e655f38f","time":"2022/12/16 12:13:43","txCount":8,"totalFees":2373518,"totalOutput":35226018110,"slotLeader":"163cc36624d9332f6ae7770e8df8b8bad7e71711eb6c2ed7971c99d4"},{"blockNo":8146901,"slotNo":79626521,"epochNo":381,"epochSlotNo":397721,"hash":"9a028ea5b7670a1115cecd991c54006a5bc4362e0473f92bcdbaa66fdb86d641","time":"2022/12/16 12:13:32","txCount":1,"totalFees":263558,"totalOutput":10390988,"slotLeader":"0840d05089b5bff1e24fe57c1ed905cd6fda68e1147a5b5863d39562"},{"blockNo":8146900,"slotNo":79626519,"epochNo":381,"epochSlotNo":397719,"hash":"5f52941cbc54b7f58cb53c6681af3ea8716fa67b0bc7bee0f7e4a3441f1e3032","time":"2022/12/16 12:13:30","txCount":4,"totalFees":1374934,"totalOutput":9668849440,"slotLeader":"4a78ca15af1b42f94106e94d419c2cdf72667389cf2b1b04df8f140e"},{"blockNo":8146899,"slotNo":79626511,"epochNo":381,"epochSlotNo":397711,"hash":"fce56a60d5f6ae455db31884ffcf1028e9f5a0c42c70d2a2a357dea37fac7fbe","time":"2022/12/16 12:13:22","txCount":10,"totalFees":4705054,"totalOutput":3153661812556,"slotLeader":"8c289ee3b1b591a95c18ffce66957d1f07115afdf939c2a9b441fc22"},{"blockNo":8146898,"slotNo":79626494,"epochNo":381,"epochSlotNo":397694,"hash":"704d519d16a7295500944b3e5175d1fe402b1829a8aa992353aebf3e3d019b2b","time":"2022/12/16 12:13:05","txCount":12,"totalFees":3377644,"totalOutput":109206743409,"slotLeader":"dd47ad6a8fe21ca342e28a163cb74e69b13d519538de3d06ac26aad2"},{"blockNo":8146897,"slotNo":79626471,"epochNo":381,"epochSlotNo":397671,"hash":"be03437e7f038b6b44cde4908aad36bcc5947f8121c264067766c59542387468","time":"2022/12/16 12:12:42","txCount":26,"totalFees":8470513,"totalOutput":18382611373824,"slotLeader":"46ebbc0d27d9169cae12d12dcf8f6cacbcf27937c67ae4350abbcaba"},{"blockNo":8146896,"slotNo":79626443,"epochNo":381,"epochSlotNo":397643,"hash":"6393f46ae5725d77d0cb467e5f1ea6d81a243c5c70af24be136e1a06b85557f1","time":"2022/12/16 12:12:14","txCount":2,"totalFees":411550,"totalOutput":2376856685,"slotLeader":"50a251d84927d932b9393cb462f300d215faedd5e8a5e791e869f32c"}],"totalItems":19312,"totalPages":1932,"currentPage":0}