{"data":[{"txId":41402806,"txHash":"b340288a65afbd16633212ad63be29a0872176a6686b4566b121d44671fbab03","txTime":"2022/05/16 01:29:43","block":7251843,"epoch":339,"slotNo":61098292,"epochSlotNo":13492,"stakeKey":"stake1uykryup6qcxrhk5xmkg3galews827p0d287jl33dk6dpl5swxjdat"},{"txId":41401300,"txHash":"9272d2c37e3b1fd1c855d2a0661424fe3cea755d223e138d0c16536c9c769f01","txTime":"2022/05/16 01:10:37","block":7251808,"epoch":339,"slotNo":61097146,"epochSlotNo":12346,"stakeKey":"stake1uyqpm95a7p68g9ew2xqnlazpw2mrk6gl058sy6pydtvxedcv8rcjy"},{"txId":41401007,"txHash":"016a2c65a2f707f0c006f12b0653a96c25cdecf4e927fe8bd07fe0920ae7e0e8","txTime":"2022/05/16 01:06:46","block":7251801,"epoch":339,"slotNo":61096915,"epochSlotNo":12115,"stakeKey":"stake1u9l2rj2t9y4tjesv84zqzhcj6tjyqu2tsvfn4ssw20cmddgkaw3h0"},{"txId":41400434,"txHash":"a62dd19e69d956c00922b325e572b2a61f581e6ac5c864372ce632e7df4827bb","txTime":"2022/05/16 01:01:24","block":7251786,"epoch":339,"slotNo":61096593,"epochSlotNo":11793,"stakeKey":"stake1uxt5ka9jwflnawlph3axnlvga8jwasz424kv8n09q8ttsaq9qhwkj"},{"txId":41400170,"txHash":"f2926bec9ff553542c4600652b265a37e4bfad0edd44acf6c66d11963597a0a9","txTime":"2022/05/16 00:59:33","block":7251781,"epoch":339,"slotNo":61096482,"epochSlotNo":11682,"stakeKey":"stake1u8ysqq8twzme2ezc3lnnxp73an8k6nfm46uq3wgn0hv3w7q7q492p"},{"txId":41399935,"txHash":"293ffc4b3d1d4cda33d045704e807655772e0303ae9b2dc69ff800d783bb6eab","txTime":"2022/05/16 00:58:17","block":7251776,"epoch":339,"slotNo":61096406,"epochSlotNo":11606,"stakeKey":"stake1uyv8tyha80w9dc6kds2z6e3nzf4d84cv5ekjq5q2yf5xfussrruj8"},{"txId":41399797,"txHash":"b2d852d272edddca3419dafe0d4fbc5b2ff9fd6045131db199796f8beca5f888","txTime":"2022/05/16 00:57:42","block":7251773,"epoch":339,"slotNo":61096371,"epochSlotNo":11571,"stakeKey":"stake1u8vjfk9y6aycfklfc4rvtax3y8qm68v4lt43k862r54t02g0gkxed"},{"txId":41397622,"txHash":"e9d96283e7fc538d9b0aa4641e1bf6f2879058d2ab709f60ee2f1d2e59f69caa","txTime":"2022/05/16 00:44:56","block":7251738,"epoch":339,"slotNo":61095605,"epochSlotNo":10805,"stakeKey":"stake1u90h2ge4qem0s6hwp0g4mhs82rpce76crevkryd7wj0nkyq6w0vg4"},{"txId":41397610,"txHash":"3ec8696c60a8ed3e24c79e0be9a1858f3f47ccc40f9f16a3c976ac39527285b3","txTime":"2022/05/16 00:44:56","block":7251738,"epoch":339,"slotNo":61095605,"epochSlotNo":10805,"stakeKey":"stake1ux3jl6zjg7u0xpsnvm7tcwh67d8mdlstq8pgd8sdvf8wtec0e0p22"},{"txId":41396562,"txHash":"1273ed8514fad6fb221d3c39630157e3490cdd591a7f42ba14055555a26863c9","txTime":"2022/05/16 00:39:57","block":7251727,"epoch":339,"slotNo":61095306,"epochSlotNo":10506,"stakeKey":"stake1u8yez8f5m2gelquv2agx9n7uhjz7ax04u44wfa9gpqs3vrqedz3vz"},{"txId":41393360,"txHash":"adabda26929ec176d7e8e93edb44965b7909ea91de6de0ae2d0c20f3780cdd03","txTime":"2022/05/16 00:29:55","block":7251700,"epoch":339,"slotNo":61094704,"epochSlotNo":9904,"stakeKey":"stake1uxn3hhttf9alu0rcdv793jgwtjwawsp2xkxf2emujkxjx8cm22kvp"},{"txId":41390783,"txHash":"d4e36ed368b9581ad86a4fdc09a0a8f56af3a4d47347768c6aa1637faca8736f","txTime":"2022/05/16 00:05:29","block":7251645,"epoch":339,"slotNo":61093238,"epochSlotNo":8438,"stakeKey":"stake1uyh3vqc3jqytajr3cvzshu329mhaqrhgetjk0sx29knydygcqlq2w"},{"txId":41389947,"txHash":"3afc48e2d95f03b5902b3e6a4d8e0ffa7538a1e3155534630d7a0cacec7170f2","txTime":"2022/05/15 23:55:05","block":7251625,"epoch":339,"slotNo":61092614,"epochSlotNo":7814,"stakeKey":"stake1uyyh25d2uzcm6zytrznwt03qsp9nttczylw0rywh28ygayc0a8ktr"},{"txId":41389252,"txHash":"f63ba75dd1369af441a6a977c6fd3c5b748997edc23878fb871921a14b924d53","txTime":"2022/05/15 23:49:45","block":7251609,"epoch":339,"slotNo":61092294,"epochSlotNo":7494,"stakeKey":"stake1uxlmkqqkjkl76jks33y6cjjl4fuh7tdw08l8j7hceqwgpvcldkwh9"},{"txId":41389237,"txHash":"c2c90c8872b540f0daa0ceecde12dee0da3b2ddccaf0d6ddf0bc32830edeb2b1","txTime":"2022/05/15 23:49:17","block":7251608,"epoch":339,"slotNo":61092266,"epochSlotNo":7466,"stakeKey":"stake1ux70c57dq3x89y6fd7xmsjum3jtnk3tp8pt7as5f33zwgwc6v5hhp"},{"txId":41388949,"txHash":"aa4cbbb3fa42046115b0b1c52fee926e97044133111b04e7620f286c396376fc","txTime":"2022/05/15 23:47:21","block":7251602,"epoch":339,"slotNo":61092150,"epochSlotNo":7350,"stakeKey":"stake1uye0unws6e5u4dugjv7jyf442929xgyavkzqf2aex2k9wgcsc2gj8"},{"txId":41388646,"txHash":"23efe5a8e9bbe8fb2c62580a503a5e480ec98cdbca8c31fdf1c561a70d47a8f8","txTime":"2022/05/15 23:42:26","block":7251594,"epoch":339,"slotNo":61091855,"epochSlotNo":7055,"stakeKey":"stake1u9m0ltj4e7ffgs4v4ecwjpwkh2akz0mgt7u98fgqx2eddzc5euyc4"},{"txId":41388334,"txHash":"6850b564b49ad2190c76e8ac57dcdc344c8f4fee81247908240416136b665eee","txTime":"2022/05/15 23:39:23","block":7251587,"epoch":339,"slotNo":61091672,"epochSlotNo":6872,"stakeKey":"stake1u8zjlejmsn63gkyp9afx7dylmpx73msn9dlfyahk2r95hrgyar7vu"},{"txId":41387746,"txHash":"d5158e2e663a5e6d9fbf8744e65ac51580b775ee285598f93d206f14a7193503","txTime":"2022/05/15 23:35:11","block":7251573,"epoch":339,"slotNo":61091420,"epochSlotNo":6620,"stakeKey":"stake1uyx8sc5scxfsuekjkz3zld94fgq2r6f34cujx7gcvgmlksq8zg8x7"},{"txId":41387316,"txHash":"c8ba48553026f6fbf5bbd1485ae1d2d06ba1279aa6b4ab2058c31c2a4c88dae4","txTime":"2022/05/15 23:31:27","block":7251563,"epoch":339,"slotNo":61091196,"epochSlotNo":6396,"stakeKey":"stake1ux5e32gkw2ym520rrt9mxhvvjueerfvmhu4fqx9e5qmkxcqtc628r"}],"totalItems":280307,"totalPages":14016,"currentPage":0}