{"data":[{"txId":56968112,"txHash":"ae0c36647ae59cd59bd6459450b042b2bf3f19348bd54c6e74eb01bf50eaafde","txTime":"2022/12/09 15:26:09","block":8117976,"epoch":380,"slotNo":79033278,"epochSlotNo":236478,"stakeKey":"stake1u8dv6l0ap6nx5mnv6j900dzkf9d4l7u5lfhv84yl0aur8jgq69p28"},{"txId":56968075,"txHash":"fc4a8bb13bf56caf85327b1494168ae33658e91d42167f9afc90cf01e08b2f0b","txTime":"2022/12/09 15:25:47","block":8117975,"epoch":380,"slotNo":79033256,"epochSlotNo":236456,"stakeKey":"stake1u8l62fdujr8fcx4lrzsq6p0sqn5ktequtylvh0dw9r6764g53l5cy"},{"txId":56968019,"txHash":"d1a7bf39b23dfbe095a8f0e4eac61c0f7d364a167413ac9aeb2f44217ba3c4f4","txTime":"2022/12/09 15:25:30","block":8117974,"epoch":380,"slotNo":79033239,"epochSlotNo":236439,"stakeKey":"stake1uypgfcrv3u35plljpjnwmshlmpe8ej0xaq6fe99q93sxskqavvjm3"},{"txId":56967458,"txHash":"7f15ff50f945e17dacc54f4361a957faa96271aacae80233909b45e3a01e30c8","txTime":"2022/12/09 15:15:27","block":8117947,"epoch":380,"slotNo":79032636,"epochSlotNo":235836,"stakeKey":"stake1uyvgkxrl7lnpq4tyyupdwqdu2mmdc4kdkvdkgdjzp38jueqql64yr"},{"txId":56966309,"txHash":"32ad9e17b0ca743b3880dcdddb10efc019e58b8f765ed7408296435426295ce3","txTime":"2022/12/09 14:57:27","block":8117888,"epoch":380,"slotNo":79031556,"epochSlotNo":234756,"stakeKey":"stake1ux2kf6dnglha7p6yeudx6etj7crktkukzqdfjaa6a5yz0ms35wy4u"},{"txId":56966242,"txHash":"4782096b4fc0e72bed9523f2ae9931fcbdf6e3228cef7a4e253992b5149c62ce","txTime":"2022/12/09 14:55:58","block":8117884,"epoch":380,"slotNo":79031467,"epochSlotNo":234667,"stakeKey":"stake1u86g0htq0y8g4y3xcmm9l08a9uk7qazdjkhpzpdly23eahgqw6dzl"},{"txId":56965839,"txHash":"e108ff3e5647c077c648c9693cbb014a51a088f589b6a069be9973c3df1808b0","txTime":"2022/12/09 14:48:56","block":8117860,"epoch":380,"slotNo":79031045,"epochSlotNo":234245,"stakeKey":"stake1uyn9xmknwa39fj5sfk7lmsu6652mq0c4el62vc4g72dtnyc2069l9"},{"txId":56965741,"txHash":"8a5120406b825af445d24bc71e7f4610a4a4d8d9bbc75a7d1edc7e5d9680d169","txTime":"2022/12/09 14:47:19","block":8117850,"epoch":380,"slotNo":79030948,"epochSlotNo":234148,"stakeKey":"stake1ux0pj064pf4l2mguxu065ruauaqn3sywr35s08t8c060f5shu6ws2"},{"txId":56965565,"txHash":"e6cdaf6790ffd4efb3bf0fda979b237f84c54ede7ffcf5cb7a0a075a56fcce18","txTime":"2022/12/09 14:43:58","block":8117839,"epoch":380,"slotNo":79030747,"epochSlotNo":233947,"stakeKey":"stake1u9k88u8wfncsls3eupnmx27h99f780mnacpmxz6cta7l95qszrp3c"},{"txId":56965490,"txHash":"59eb614af56dbbb9ee2222ce51e33ceeb7debf83453f35487d1418091e6fb285","txTime":"2022/12/09 14:42:19","block":8117834,"epoch":380,"slotNo":79030648,"epochSlotNo":233848,"stakeKey":"stake1u9fy9m8zned3er8d99s0dx2q0gsttlgavdxx8vh39mzxz6qxzf5l6"},{"txId":56965477,"txHash":"79898e98ec286dba254f94ab455eb8c5c12721e8e91d8c41832df6626c685f89","txTime":"2022/12/09 14:42:19","block":8117834,"epoch":380,"slotNo":79030648,"epochSlotNo":233848,"stakeKey":"stake1u9gx8zrkhnk2a4g7s8jy79z4wc78d3073e8klm3gh3hk9ssqjj88l"},{"txId":56964885,"txHash":"514c33c72ab570c1fd05980247140f656c60c3e87b25c0b5df1f13f72941bd81","txTime":"2022/12/09 14:29:56","block":8117794,"epoch":380,"slotNo":79029905,"epochSlotNo":233105,"stakeKey":"stake1uxpa8nrrfu9atv8vclnthkhpyfvqnw727qeh86fmna5hxmgt4z2w2"},{"txId":56964735,"txHash":"a7de5e7071099fcbbeb14610c81b28e0e5ff1b4caf1f735e24fd614d9b73a1c1","txTime":"2022/12/09 14:28:25","block":8117787,"epoch":380,"slotNo":79029814,"epochSlotNo":233014,"stakeKey":"stake1uy2hz74lften7fy3wwxqg7vpdx4huplxae8s9q044crkg8sgv9epv"},{"txId":56964677,"txHash":"84fffdd01d169a24258f0e9b657012ece4b5e69b62c270bed110413dfd64fd96","txTime":"2022/12/09 14:26:15","block":8117781,"epoch":380,"slotNo":79029684,"epochSlotNo":232884,"stakeKey":"stake1uxpa8nrrfu9atv8vclnthkhpyfvqnw727qeh86fmna5hxmgt4z2w2"},{"txId":56964510,"txHash":"5df9208897abed3276cb71d4928689813a41bf9eea2788c19c36cb9e6f7e57b3","txTime":"2022/12/09 14:24:00","block":8117775,"epoch":380,"slotNo":79029549,"epochSlotNo":232749,"stakeKey":"stake1u8f3utccxrcke0sw0fzaysuya38dutmlryxnzla52rceyvczu07wv"},{"txId":56964402,"txHash":"0a242df11489f485c88b0cf53d19ce617204832c8f9ffed54f874eb335ce6610","txTime":"2022/12/09 14:21:36","block":8117773,"epoch":380,"slotNo":79029405,"epochSlotNo":232605,"stakeKey":"stake1uxpa8nrrfu9atv8vclnthkhpyfvqnw727qeh86fmna5hxmgt4z2w2"},{"txId":56963922,"txHash":"13543ca6ab926ebcc515296c919195fb83407dd032d4219625c2b6b036de37ce","txTime":"2022/12/09 14:11:02","block":8117741,"epoch":380,"slotNo":79028771,"epochSlotNo":231971,"stakeKey":"stake1uy0nh2qw6zqshu4953n6utch30yxzze6et3ljrgm03pxazcpzh0u6"},{"txId":56963798,"txHash":"130834f134a3e192707796e060af59a48373608e5ce0c6819995458714ef5601","txTime":"2022/12/09 14:08:42","block":8117736,"epoch":380,"slotNo":79028631,"epochSlotNo":231831,"stakeKey":"stake1u9742v8d0e2fdjh3kfjk49z0a6z7zmtncvmjpr0uf7daeesenwtl6"},{"txId":56963473,"txHash":"c5263ff34f19158cff66c77d5a283445bf9fc8fa9b9781cc19fd230e58f12ab6","txTime":"2022/12/09 14:01:40","block":8117717,"epoch":380,"slotNo":79028209,"epochSlotNo":231409,"stakeKey":"stake1u8lnk47u3n5y6pdmjjd5rsrhn2j5hjsy8f4xg2f02mpynqs75mp5f"},{"txId":56963446,"txHash":"b77618c41e0903132a5f78b72540253f38ae9f89f410450b4c85c1af1f9e1159","txTime":"2022/12/09 14:01:21","block":8117714,"epoch":380,"slotNo":79028190,"epochSlotNo":231390,"stakeKey":"stake1uxynqedsxk87unjftyur5evxg229je6felesqpcz0augcmsz4x4eg"}],"totalItems":335809,"totalPages":16791,"currentPage":0}