{"data":[{"txId":62100900,"txHash":"71322eabe86605bf78cd2bf842da5b30fdee4fb546608210ac3fe6934318f57d","txTime":"2023/02/15 18:56:14","block":8403720,"epoch":394,"slotNo":84921083,"epochSlotNo":76283,"stakeKey":"stake1u93gaf0fxhgxkf8ywaw803amhl7vdevn0yle2kc0d85chrsyzm3xv"},{"txId":62100816,"txHash":"5a2620c75150c2e616421d3cb8665c7b22b705e98dcfe9db6ad34d09ca99ab80","txTime":"2023/02/15 18:55:35","block":8403719,"epoch":394,"slotNo":84921044,"epochSlotNo":76244,"stakeKey":"stake1uxu5k5am5cyvpj4vvs705w2lm6dtgkn4msq4n5hnkcsq8gcwkm3eu"},{"txId":62100798,"txHash":"c5d0ed4b291394cb69adaafbccd0c1372350dbd081e447f97db1c43af54db420","txTime":"2023/02/15 18:54:13","block":8403717,"epoch":394,"slotNo":84920962,"epochSlotNo":76162,"stakeKey":"stake1u9t0ck3slm5fhv0k0mnuyucxj4pahkwxuk3m9v7jz0hn43czafe3q"},{"txId":62100684,"txHash":"9529863ae6a7c92a0c16a6934de66ead27ba899ded9f129e895135100484747d","txTime":"2023/02/15 18:51:55","block":8403710,"epoch":394,"slotNo":84920824,"epochSlotNo":76024,"stakeKey":"stake1uyejndl25t8ryf2kznruqs5yumvy0dagtcljxst89ktffvqmzxt4x"},{"txId":62100484,"txHash":"8a62c60fcf7b5cbe7671e37cb40b0435fe21157dd8cd58a29d380a7978727912","txTime":"2023/02/15 18:48:45","block":8403704,"epoch":394,"slotNo":84920634,"epochSlotNo":75834,"stakeKey":"stake1uyuw7a4kdj8hp4pc2690v0puw5nc0ph47j9n69wt4upehscxpkvl3"},{"txId":62100372,"txHash":"fcd0644eae36fcd1370a57fcb26f34bb4b0ca8a91b11eeca292455d7d6c43f7a","txTime":"2023/02/15 18:45:21","block":8403697,"epoch":394,"slotNo":84920430,"epochSlotNo":75630,"stakeKey":"stake1u98hm396ddyjk8zjmq3t35kss7ta9dmmcjsrwdue0d3t2zqfasnr7"},{"txId":62100245,"txHash":"cc6072e2f37d86f2886ff64c681f16dba25966e316a8b99fc607ce97e526d3b8","txTime":"2023/02/15 18:43:15","block":8403691,"epoch":394,"slotNo":84920304,"epochSlotNo":75504,"stakeKey":"stake1u9mdux6kt859a0z5vhzd955w3tdzs8smpm6zt2x68854vsq8e5wkc"},{"txId":62100048,"txHash":"b9c4a6cf3f37ecef98c104957713ec4f4f2f520119e64c04fe253b8660ca764b","txTime":"2023/02/15 18:39:13","block":8403684,"epoch":394,"slotNo":84920062,"epochSlotNo":75262,"stakeKey":"stake1u9k5t0lne4lz4jusqegv3ehaq6z3uxywf2sel86xvprcsqgmr55kk"},{"txId":62099561,"txHash":"27900cc698a6a14b0d151e0ba87d092c63b7eaf58f524db39b86a76e73793707","txTime":"2023/02/15 18:31:27","block":8403664,"epoch":394,"slotNo":84919596,"epochSlotNo":74796,"stakeKey":"stake1uxvqrzd0hmyuf9al5jep20evnnxadczxgh695cg69tlwaacden078"},{"txId":62099436,"txHash":"cf65b6b281447069505657691dcbfd01209373f79d3ffa689f6a00d266aaa93b","txTime":"2023/02/15 18:28:48","block":8403658,"epoch":394,"slotNo":84919437,"epochSlotNo":74637,"stakeKey":"stake1ux7qej6su6pqaj6d7um8aqsgznrsu943k2yzmpfpk88crvs5zyf7q"},{"txId":62099278,"txHash":"a0cbaed8734a44a0844ce19a3f011a1574853c4b703e129293924eb1ffb1c60f","txTime":"2023/02/15 18:24:32","block":8403646,"epoch":394,"slotNo":84919181,"epochSlotNo":74381,"stakeKey":"stake1uxhnyq5nragu3ln5y9t0mpsy9w894cscqpm3q9qr2964vfcxn6gaa"},{"txId":62099188,"txHash":"e3f79705a1fbf58f1018f58e895c86efac19d7ab76acf285505159a2ad6f0a6a","txTime":"2023/02/15 18:23:52","block":8403642,"epoch":394,"slotNo":84919141,"epochSlotNo":74341,"stakeKey":"stake1u99vnhcf2r5d4mfjhzs0g9lsreq0jch56c8krjx6cthw4fgcpq7cm"},{"txId":62099164,"txHash":"906fbda6649d14b12febdd9b72a33d36b6ace1bcaea6cc103c76ddf163876f7b","txTime":"2023/02/15 18:22:42","block":8403639,"epoch":394,"slotNo":84919071,"epochSlotNo":74271,"stakeKey":"stake1uy9ae0e8tmpskwjxz62kmaskjwqxyejn9r8k76mjphsayugu07r6j"},{"txId":62099146,"txHash":"a5b3d0706fcd0273478b5753f47583ef6719911276ec2e8d463fea398a5f61c1","txTime":"2023/02/15 18:22:42","block":8403639,"epoch":394,"slotNo":84919071,"epochSlotNo":74271,"stakeKey":"stake1uy6ld08cytu608ehsa6j0qwg23z7js05cule6ptgstw3qegvnd6mp"},{"txId":62098835,"txHash":"addc42a69222ff73e33ce377a1da04553b4353bde85facfa02d2d905e0f2cc56","txTime":"2023/02/15 18:16:28","block":8403626,"epoch":394,"slotNo":84918697,"epochSlotNo":73897,"stakeKey":"stake1uyjw5g0c4dpgh9en4zwje44kevtuvw07qv9ps7hg62cfhycdpjrus"},{"txId":62098666,"txHash":"c67037a972a979fe4ad624afb0bf55388d08b6a55e37b6c57a22e9b93f19f5ba","txTime":"2023/02/15 18:12:39","block":8403617,"epoch":394,"slotNo":84918468,"epochSlotNo":73668,"stakeKey":"stake1uya5r3c0fn5x0tfg483q7ysnfj78cgkkl9gyy3u6d2gylsqsvsp2f"},{"txId":62098557,"txHash":"598e11b4b7f1f2c82b7d0b99892b92c6bc7ec6a3028b5b01515d0a3d53d5409c","txTime":"2023/02/15 18:12:06","block":8403613,"epoch":394,"slotNo":84918435,"epochSlotNo":73635,"stakeKey":"stake1u89y7h68at43c6nukl0du9kq68tkv9nqlkp0jhhg3mjsjtgmumrxs"},{"txId":62098479,"txHash":"f160406c7c3886ff795836ac6739b81df01f209e3dbbaaa7524797691913d2af","txTime":"2023/02/15 18:09:01","block":8403606,"epoch":394,"slotNo":84918250,"epochSlotNo":73450,"stakeKey":"stake1u8j4n5x62c3vr0zkxlnapeqxc5gzmyghyv802d3apy5tlfq3p8ucq"},{"txId":62098060,"txHash":"81cd7371c05fbb1060ed8933684cf758715c10f90e6ee92f7cc275c0822e2d5b","txTime":"2023/02/15 18:00:06","block":8403580,"epoch":394,"slotNo":84917715,"epochSlotNo":72915,"stakeKey":"stake1u9n49lwxgsl36hty6lfe333eylv8n5eaellucta76at6g8stsyf0x"},{"txId":62097797,"txHash":"d8e6de59a767e5bbdb856a33f1f1c2cd0f00ee856031b9af3bb7f9faac6caf8b","txTime":"2023/02/15 17:54:24","block":8403563,"epoch":394,"slotNo":84917373,"epochSlotNo":72573,"stakeKey":"stake1uy8nu0glsdfp937pxvew32zp2uqp8lt3yxmvqsjdyma7c5qtlfrxl"}],"totalItems":1666076,"totalPages":83304,"currentPage":0}