{"data":[{"hash":"21c7bf2105e5c88ffc0ff9201384990eaafe43873002f821aa1b410756f25613","blockNo":8237005,"blockHash":"be0ece78da9eef36850667f902133df76ed710f888446d104449a1997ec982fa","epochNo":386,"epochSlotNo":84775,"slot":81473575,"time":"2023/01/06 21:17:46","addressesInput":["addr1q8dehcju38ygr5fxnuempe2ttx0kry47w4v594e6dm37l6t9zsxspmktju3lsz7tj3q9n0uhf0s385h8ds7vwnwse4rswkl48n","addr1zxgx3far7qygq0k6epa0zcvcvrevmn0ypsnfsue94nsn3tvpw288a4x0xf8pxgcntelxmyclq83s0ykeehchz2wtspks905plm","addr1q8dehcju38ygr5fxnuempe2ttx0kry47w4v594e6dm37l6t9zsxspmktju3lsz7tj3q9n0uhf0s385h8ds7vwnwse4rswkl48n"],"addressesOutput":["addr1q8zphg206cn6dl0j9m8mtszyrcj66guxn20sfgyvne2vq24d2mltkz46t9dl2qg2fkw4yuusasrwv2mxz758lcrdt4aqvuc89v","addr1q9cwvremt6n320s2e3agq0jyq82yhrk3htsu0w426xnz5us70z4w0jgvcdkkynmm8wmds66jd9kusnjfpu6raw5fqp0sr07p5w","addr1q9mgm4r5edgqtgksj395fzqvluu2nvmuukjfc97p8r3s73mewstjxd9qcydppfywt5uaavmysfel7p60jrck5q55pq2sdkch6u","addr1q8dehcju38ygr5fxnuempe2ttx0kry47w4v594e6dm37l6t9zsxspmktju3lsz7tj3q9n0uhf0s385h8ds7vwnwse4rswkl48n","addr1q8dehcju38ygr5fxnuempe2ttx0kry47w4v594e6dm37l6t9zsxspmktju3lsz7tj3q9n0uhf0s385h8ds7vwnwse4rswkl48n"],"fee":403902,"totalOutput":263467065,"tokens":[]},{"hash":"acb00133025d6b9de0403aa050600a4f294caf9e06ccbf1a07ddbdb6b50f0fb2","blockNo":8237005,"blockHash":"be0ece78da9eef36850667f902133df76ed710f888446d104449a1997ec982fa","epochNo":386,"epochSlotNo":84775,"slot":81473575,"time":"2023/01/06 21:17:46","addressesInput":["addr1qxhk8msw6nsfp59ktc05n3z0x3kwe59646q09v9p6psq6mkzgvhg862fu4gun694gvsl5z0qmu9uc7tf5emtyjhpqz3qjmd5gq","addr1qxhk8msw6nsfp59ktc05n3z0x3kwe59646q09v9p6psq6mkzgvhg862fu4gun694gvsl5z0qmu9uc7tf5emtyjhpqz3qjmd5gq"],"addressesOutput":["addr1zxgx3far7qygq0k6epa0zcvcvrevmn0ypsnfsue94nsn3tvpw288a4x0xf8pxgcntelxmyclq83s0ykeehchz2wtspks905plm","addr1qxhk8msw6nsfp59ktc05n3z0x3kwe59646q09v9p6psq6mkzgvhg862fu4gun694gvsl5z0qmu9uc7tf5emtyjhpqz3qjmd5gq"],"fee":233613,"totalOutput":42559661,"tokens":[]},{"hash":"e9dda976f25c7bcf652ec30c83fc0cb9c137f3a26a282bf8fec80374017d79d6","blockNo":8237005,"blockHash":"be0ece78da9eef36850667f902133df76ed710f888446d104449a1997ec982fa","epochNo":386,"epochSlotNo":84775,"slot":81473575,"time":"2023/01/06 21:17:46","addressesInput":["addr1q9dpz3lsm5md5l8gnjk5h3zthy46vqfxftq3df2ysmscycxpntgk2tvkmuqtg7hhe5rzsuqssfganz5ya7gvdjrhr8nsqjy2k0","addr1q9dpz3lsm5md5l8gnjk5h3zthy46vqfxftq3df2ysmscycxpntgk2tvkmuqtg7hhe5rzsuqssfganz5ya7gvdjrhr8nsqjy2k0","addr1q9dpz3lsm5md5l8gnjk5h3zthy46vqfxftq3df2ysmscycxpntgk2tvkmuqtg7hhe5rzsuqssfganz5ya7gvdjrhr8nsqjy2k0","addr1q9dpz3lsm5md5l8gnjk5h3zthy46vqfxftq3df2ysmscycxpntgk2tvkmuqtg7hhe5rzsuqssfganz5ya7gvdjrhr8nsqjy2k0"],"addressesOutput":["addr1qyvf3rwnwgrquflgcvnvg2jthry2k9u55fu95j6uem8nqyhrsrwlxgnq625shtmmemfgzf0zvl22nv47hmw9nlm3jdgsy50qua","addr1q9dpz3lsm5md5l8gnjk5h3zthy46vqfxftq3df2ysmscycxpntgk2tvkmuqtg7hhe5rzsuqssfganz5ya7gvdjrhr8nsqjy2k0","addr1q9dpz3lsm5md5l8gnjk5h3zthy46vqfxftq3df2ysmscycxpntgk2tvkmuqtg7hhe5rzsuqssfganz5ya7gvdjrhr8nsqjy2k0"],"fee":310217,"totalOutput":648150215,"tokens":[]},{"hash":"c5e3d805ddb6305a91f475e7a94a9a33b51f28b55f4d9f1d79a6208168888c23","blockNo":8237005,"blockHash":"be0ece78da9eef36850667f902133df76ed710f888446d104449a1997ec982fa","epochNo":386,"epochSlotNo":84775,"slot":81473575,"time":"2023/01/06 21:17:46","addressesInput":["addr1q95e7735qyg45c8m4f42f3kjayv3hw2yeh7xg6ryhh2njwrfnaargqg3tfs0h2n25nrd96gerwu5fn0uv35xf0w48yuqrnlw4t"],"addressesOutput":["DdzFFzCqrhtCrEzEmDWsJeFgvkhCjq92xGffaBDYcDdYHKYpdh7PDSH3yu7hSEaVBVGrKrNcTqxvW4W7NWPUXkyRMKksgyfwrGf41pvZ","addr1q95e7735qyg45c8m4f42f3kjayv3hw2yeh7xg6ryhh2njwrfnaargqg3tfs0h2n25nrd96gerwu5fn0uv35xf0w48yuqrnlw4t"],"fee":223219,"totalOutput":17257033270,"tokens":[]},{"hash":"5af4feff8a279039ff30e43d27a90c82b4653048e1e39ed4951a926ca98ef8d9","blockNo":8237005,"blockHash":"be0ece78da9eef36850667f902133df76ed710f888446d104449a1997ec982fa","epochNo":386,"epochSlotNo":84775,"slot":81473575,"time":"2023/01/06 21:17:46","addressesInput":["addr1v8v3auqmw0eszza3ww29ea2pwftuqrqqyu26zvzjq9dt2ncydzvs5"],"addressesOutput":["addr1qx3rpsg6x2alu3082ff05m59xs72ued5lgqtaqtwckgvrufqe20t54tfdpgh366vgaysddp4xqxksma4wq4a6gvh95eqnvz9xp","addr1v8v3auqmw0eszza3ww29ea2pwftuqrqqyu26zvzjq9dt2ncydzvs5"],"fee":171221,"totalOutput":10707946463,"tokens":[]},{"hash":"48d040782815edaee7d66fcdd7a67461bd87d5513ebed7b3ca5f4c59906308ad","blockNo":8237003,"blockHash":"35dc68420b2d90d2ba5431f1e6bcf563d57b4f0b8aad176dbae51d7a79e3fed6","epochNo":386,"epochSlotNo":84771,"slot":81473571,"time":"2023/01/06 21:17:42","addressesInput":["addr1q8ws5z3kj7pghvmje4rgkaud073gkzdpsguj20xwh0fp8mpeeerdwzp7esjsqpgdn2zehxwvgzn8d4shc3n9ukrn0pssgj3jt8","addr1w999n67e86jn6xal07pzxtrmqynspgx0fwmcmpua4wc6yzsxpljz3"],"addressesOutput":["addr1q9cwvremt6n320s2e3agq0jyq82yhrk3htsu0w426xnz5us70z4w0jgvcdkkynmm8wmds66jd9kusnjfpu6raw5fqp0sr07p5w","addr1q9vdl2mfq7n3mc3fxk2dlefum39hk42qvqgt7eurqc742fnuqh77mfvn8n6mc2y8mm7z9vk6762vmn2d3s92dxlxselsprnu7w","addr1q853mrf4kn27synr34ws8wyy2m936k9rc835r3ykh4dd2pwzhdhw5u2vsruwt0m5al0r4ft3ryq6rfpgs5472sl9fleq4xzumm","addr1q8ws5z3kj7pghvmje4rgkaud073gkzdpsguj20xwh0fp8mpeeerdwzp7esjsqpgdn2zehxwvgzn8d4shc3n9ukrn0pssgj3jt8","addr1q8ws5z3kj7pghvmje4rgkaud073gkzdpsguj20xwh0fp8mpeeerdwzp7esjsqpgdn2zehxwvgzn8d4shc3n9ukrn0pssgj3jt8","addr1q8ws5z3kj7pghvmje4rgkaud073gkzdpsguj20xwh0fp8mpeeerdwzp7esjsqpgdn2zehxwvgzn8d4shc3n9ukrn0pssgj3jt8"],"fee":731574,"totalOutput":194233629,"tokens":[]},{"hash":"939e0a8fc0fff38a682d33122f0d241e4754bd26ab1f8060d98a7ae5e26361f2","blockNo":8237003,"blockHash":"35dc68420b2d90d2ba5431f1e6bcf563d57b4f0b8aad176dbae51d7a79e3fed6","epochNo":386,"epochSlotNo":84771,"slot":81473571,"time":"2023/01/06 21:17:42","addressesInput":["addr1qx3c5g2t0n6sup43xr65pgrmx5zc0en2q3snef2dljj28jsc5nrgf4gvkzx8r7xzwhyjzspvretzzsnda8g580c69zdq8hzlf5","addr1qx3c5g2t0n6sup43xr65pgrmx5zc0en2q3snef2dljj28jsc5nrgf4gvkzx8r7xzwhyjzspvretzzsnda8g580c69zdq8hzlf5"],"addressesOutput":["addr1zxgx3far7qygq0k6epa0zcvcvrevmn0ypsnfsue94nsn3tvpw288a4x0xf8pxgcntelxmyclq83s0ykeehchz2wtspks905plm","addr1zxgx3far7qygq0k6epa0zcvcvrevmn0ypsnfsue94nsn3tvpw288a4x0xf8pxgcntelxmyclq83s0ykeehchz2wtspks905plm","addr1qx3c5g2t0n6sup43xr65pgrmx5zc0en2q3snef2dljj28jsc5nrgf4gvkzx8r7xzwhyjzspvretzzsnda8g580c69zdq8hzlf5","addr1qx3c5g2t0n6sup43xr65pgrmx5zc0en2q3snef2dljj28jsc5nrgf4gvkzx8r7xzwhyjzspvretzzsnda8g580c69zdq8hzlf5"],"fee":281265,"totalOutput":35971281,"tokens":[]},{"hash":"9265b615691a1057ca289b6f4dd365d37fd3ba570ec747221cff25ff5a58140c","blockNo":8237003,"blockHash":"35dc68420b2d90d2ba5431f1e6bcf563d57b4f0b8aad176dbae51d7a79e3fed6","epochNo":386,"epochSlotNo":84771,"slot":81473571,"time":"2023/01/06 21:17:42","addressesInput":["addr1zxgx3far7qygq0k6epa0zcvcvrevmn0ypsnfsue94nsn3tvpw288a4x0xf8pxgcntelxmyclq83s0ykeehchz2wtspks905plm","addr1q9kkql53egx42c7zaxdqvf6c52kkxl7uw5wyykefcsr90ypulsf0e5scfzf9ynprznzg9jpytk4v536vz3py2cf2tzeq4suzqy"],"addressesOutput":["addr1zxgx3far7qygq0k6epa0zcvcvrevmn0ypsnfsue94nsn3tvpw288a4x0xf8pxgcntelxmyclq83s0ykeehchz2wtspks905plm","addr1q9kkql53egx42c7zaxdqvf6c52kkxl7uw5wyykefcsr90ypulsf0e5scfzf9ynprznzg9jpytk4v536vz3py2cf2tzeq4suzqy"],"fee":316944,"totalOutput":32794356,"tokens":[]},{"hash":"5e11d990d226f849059d2a72254c54e3c849df3e81dfed4725617fd5fdae7f3d","blockNo":8237003,"blockHash":"35dc68420b2d90d2ba5431f1e6bcf563d57b4f0b8aad176dbae51d7a79e3fed6","epochNo":386,"epochSlotNo":84771,"slot":81473571,"time":"2023/01/06 21:17:42","addressesInput":["addr1w9jx45flh83z6wuqypyash54mszwmdj8r64fydafxtfc6jgrw4rm3","addr1w9jx45flh83z6wuqypyash54mszwmdj8r64fydafxtfc6jgrw4rm3","addr1vynz6z9jmu9t9ftj830kxr43dslacqnktpv3vcdhymzx2zsg4cuk6","addr1w9jx45flh83z6wuqypyash54mszwmdj8r64fydafxtfc6jgrw4rm3","addr1w9jx45flh83z6wuqypyash54mszwmdj8r64fydafxtfc6jgrw4rm3","addr1w9jx45flh83z6wuqypyash54mszwmdj8r64fydafxtfc6jgrw4rm3","addr1w82z6yrftsxz77el0ce2q4vuspcym2x0xgpgneurrwvasfge778fd","addr1w9jx45flh83z6wuqypyash54mszwmdj8r64fydafxtfc6jgrw4rm3","addr1w9jx45flh83z6wuqypyash54mszwmdj8r64fydafxtfc6jgrw4rm3"],"addressesOutput":["addr1w82z6yrftsxz77el0ce2q4vuspcym2x0xgpgneurrwvasfge778fd","addr1vynz6z9jmu9t9ftj830kxr43dslacqnktpv3vcdhymzx2zsg4cuk6"],"fee":1977089,"totalOutput":21107542631,"tokens":[]},{"hash":"bb164d09064db439eb5b4fc30dcbb943efd52618364c93e78445202be32e15ed","blockNo":8237003,"blockHash":"35dc68420b2d90d2ba5431f1e6bcf563d57b4f0b8aad176dbae51d7a79e3fed6","epochNo":386,"epochSlotNo":84771,"slot":81473571,"time":"2023/01/06 21:17:42","addressesInput":["DdzFFzCqrhsuQV5ohP1EBh9d4UjmmWDb2Vui2s2SACSBDeEW74kHhp3zj9hvLFDb9mK7hRr7fbctu1UYatPaF1omXiXPwf12bn7DQvbT"],"addressesOutput":["DdzFFzCqrhsiCrSKd34BJmnK4BCYZeemH4SeWAV4AeSn1NBn2j6qoseZdwFQnH7y5frwda1tUHNvZKV3HfbRqCH6nfKLZJpAMP2bjxW4","DdzFFzCqrhsuQV5ohP1EBh9d4UjmmWDb2Vui2s2SACSBDeEW74kHhp3zj9hvLFDb9mK7hRr7fbctu1UYatPaF1omXiXPwf12bn7DQvbT"],"fee":309381,"totalOutput":39314364521,"tokens":[]},{"hash":"685357d1ac2d9daf03e9d9382a33f470efda9ea2e9b045b2f5045678e0b2bfe9","blockNo":8237003,"blockHash":"35dc68420b2d90d2ba5431f1e6bcf563d57b4f0b8aad176dbae51d7a79e3fed6","epochNo":386,"epochSlotNo":84771,"slot":81473571,"time":"2023/01/06 21:17:42","addressesInput":["addr1q8lnrj6cnksgvqgat0mmkqw2n8cexw4335lf8rt7zxvzqqplh0njqu3tn6dfjj5x2c0ev42ncj2wxpvlptrcvu7qgh7qfjsv3w","addr1q8lnrj6cnksgvqgat0mmkqw2n8cexw4335lf8rt7zxvzqqplh0njqu3tn6dfjj5x2c0ev42ncj2wxpvlptrcvu7qgh7qfjsv3w"],"addressesOutput":["addr1q93rxw40zf8e27c77gw523kg6yvzvpl0jnw9j7aum2myqnvreeyudrewll89f93qlusuau8hqgd38aaxpwzf7jx7vyts0s0kgx","addr1q8lnrj6cnksgvqgat0mmkqw2n8cexw4335lf8rt7zxvzqqplh0njqu3tn6dfjj5x2c0ev42ncj2wxpvlptrcvu7qgh7qfjsv3w"],"fee":169901,"totalOutput":272011791,"tokens":[]},{"hash":"df4d2b2371a18549d965dec315584038acd4c6d26dab76df0309528d0fe909e3","blockNo":8237003,"blockHash":"35dc68420b2d90d2ba5431f1e6bcf563d57b4f0b8aad176dbae51d7a79e3fed6","epochNo":386,"epochSlotNo":84771,"slot":81473571,"time":"2023/01/06 21:17:42","addressesInput":["addr1qxuj2qran075km8jjzywtva8a4uevkzs3k64nadhrmcfjcuczuufxk8da3nvekp9zgewrvp5x5z36aqvaajdj8henk2sa6y2dm","addr1qxuj2qran075km8jjzywtva8a4uevkzs3k64nadhrmcfjcuczuufxk8da3nvekp9zgewrvp5x5z36aqvaajdj8henk2sa6y2dm"],"addressesOutput":["addr1zxgx3far7qygq0k6epa0zcvcvrevmn0ypsnfsue94nsn3tvpw288a4x0xf8pxgcntelxmyclq83s0ykeehchz2wtspks905plm","addr1qxuj2qran075km8jjzywtva8a4uevkzs3k64nadhrmcfjcuczuufxk8da3nvekp9zgewrvp5x5z36aqvaajdj8henk2sa6y2dm","addr1qxuj2qran075km8jjzywtva8a4uevkzs3k64nadhrmcfjcuczuufxk8da3nvekp9zgewrvp5x5z36aqvaajdj8henk2sa6y2dm"],"fee":225121,"totalOutput":393416385,"tokens":[]},{"hash":"cf090578aefb89899c9065e5ecd4b3e34e24725924409286ea1d96f6c9d91d89","blockNo":8237003,"blockHash":"35dc68420b2d90d2ba5431f1e6bcf563d57b4f0b8aad176dbae51d7a79e3fed6","epochNo":386,"epochSlotNo":84771,"slot":81473571,"time":"2023/01/06 21:17:42","addressesInput":["addr1qy8nl7euzvv3wr82ufsnn0wxcx3mfangl4kwecz8u9jdwwe94gfthl9uhq255f9lkl5gsp5x2390a857f9ff40rfv3qqzzdder","addr1wy30zf2g4xc7v872fdweewrlj3lh2lgttelmydn0cvhyplsg3vnkq"],"addressesOutput":["addr1qy8nl7euzvv3wr82ufsnn0wxcx3mfangl4kwecz8u9jdwwe94gfthl9uhq255f9lkl5gsp5x2390a857f9ff40rfv3qqzzdder","addr1wy30zf2g4xc7v872fdweewrlj3lh2lgttelmydn0cvhyplsg3vnkq"],"fee":817965,"totalOutput":5857728756,"tokens":[]},{"hash":"fa186f5659767163aea5a8101b0ac3d4cfc0bcdb82c460c1755460ef95c34827","blockNo":8237003,"blockHash":"35dc68420b2d90d2ba5431f1e6bcf563d57b4f0b8aad176dbae51d7a79e3fed6","epochNo":386,"epochSlotNo":84771,"slot":81473571,"time":"2023/01/06 21:17:42","addressesInput":["addr1qxh6lwwuwffpa60mqkftddddwrsqmlxgflfc2p8h66xwajfdzefudzxhadht99nh8gv4l3z93d486ygllgxuh2drrrpswsqwz4"],"addressesOutput":["DdzFFzCqrhsxEPjnn3BbvwjAoPU5H9ZWPh6jzRTG1pnFRMvTL2Hw81gF4iaktb5UcczyUsnA3xBn6WQwV1DBuTna3dnWeN5cQSM7tjyC","addr1qxnu0trv5j380vglvyu7rynp5cm3qe65h34jr3zlg40jmw5jczrn8jvtch9u5x5ykyz0ps6yrm93q68egmagesf8va5s8gl8h2","addr1q89qpnn8ttyfvdgy46hum6uvhd7fscvllgk8gclyuq6em0edzefudzxhadht99nh8gv4l3z93d486ygllgxuh2drrrpskn8fec","addr1q9qyqyhqg6qaeyux570xl5gzsmn28vc55kghxsn39rdv9qfdzefudzxhadht99nh8gv4l3z93d486ygllgxuh2drrrpsk7000g"],"fee":176369,"totalOutput":15607740926,"tokens":[]},{"hash":"99da97b82c186b9fdd0534cdc2a06094c911082583a0ab971dc8017a15ef3721","blockNo":8237003,"blockHash":"35dc68420b2d90d2ba5431f1e6bcf563d57b4f0b8aad176dbae51d7a79e3fed6","epochNo":386,"epochSlotNo":84771,"slot":81473571,"time":"2023/01/06 21:17:42","addressesInput":["addr1qx66dzwldggkn9g65d5awrsj0t3nmj746cpjh50ghytlx6zqcmajv927umr0u00tvqwl0cyk70aghysjqny5assp3a0qcn2lxk","addr1zxgx3far7qygq0k6epa0zcvcvrevmn0ypsnfsue94nsn3tvpw288a4x0xf8pxgcntelxmyclq83s0ykeehchz2wtspks905plm","addr1qx66dzwldggkn9g65d5awrsj0t3nmj746cpjh50ghytlx6zqcmajv927umr0u00tvqwl0cyk70aghysjqny5assp3a0qcn2lxk","addr1qx66dzwldggkn9g65d5awrsj0t3nmj746cpjh50ghytlx6zqcmajv927umr0u00tvqwl0cyk70aghysjqny5assp3a0qcn2lxk","addr1qx66dzwldggkn9g65d5awrsj0t3nmj746cpjh50ghytlx6zqcmajv927umr0u00tvqwl0cyk70aghysjqny5assp3a0qcn2lxk","addr1qx66dzwldggkn9g65d5awrsj0t3nmj746cpjh50ghytlx6zqcmajv927umr0u00tvqwl0cyk70aghysjqny5assp3a0qcn2lxk","addr1qx66dzwldggkn9g65d5awrsj0t3nmj746cpjh50ghytlx6zqcmajv927umr0u00tvqwl0cyk70aghysjqny5assp3a0qcn2lxk","addr1qx66dzwldggkn9g65d5awrsj0t3nmj746cpjh50ghytlx6zqcmajv927umr0u00tvqwl0cyk70aghysjqny5assp3a0qcn2lxk","addr1qx66dzwldggkn9g65d5awrsj0t3nmj746cpjh50ghytlx6zqcmajv927umr0u00tvqwl0cyk70aghysjqny5assp3a0qcn2lxk","addr1qx66dzwldggkn9g65d5awrsj0t3nmj746cpjh50ghytlx6zqcmajv927umr0u00tvqwl0cyk70aghysjqny5assp3a0qcn2lxk","addr1qx66dzwldggkn9g65d5awrsj0t3nmj746cpjh50ghytlx6zqcmajv927umr0u00tvqwl0cyk70aghysjqny5assp3a0qcn2lxk"],"addressesOutput":["addr1q8zphg206cn6dl0j9m8mtszyrcj66guxn20sfgyvne2vq24d2mltkz46t9dl2qg2fkw4yuusasrwv2mxz758lcrdt4aqvuc89v","addr1q9cwvremt6n320s2e3agq0jyq82yhrk3htsu0w426xnz5us70z4w0jgvcdkkynmm8wmds66jd9kusnjfpu6raw5fqp0sr07p5w","addr1q832fut76ym72hpv04gdna758wwt5gke9nmmm3n63udpfe08tr3dgrrdcgapmcax4lx2ms9cc8mdpjmeazwa9uemg5csvthzz9","addr1qx66dzwldggkn9g65d5awrsj0t3nmj746cpjh50ghytlx6zqcmajv927umr0u00tvqwl0cyk70aghysjqny5assp3a0qcn2lxk","addr1qx66dzwldggkn9g65d5awrsj0t3nmj746cpjh50ghytlx6zqcmajv927umr0u00tvqwl0cyk70aghysjqny5assp3a0qcn2lxk"],"fee":708050,"totalOutput":129906727,"tokens":[]},{"hash":"d23c6c1a0c9f4f81baf8b1c6d9856443746fc2225d111b3eca55fc1ad9f397da","blockNo":8237003,"blockHash":"35dc68420b2d90d2ba5431f1e6bcf563d57b4f0b8aad176dbae51d7a79e3fed6","epochNo":386,"epochSlotNo":84771,"slot":81473571,"time":"2023/01/06 21:17:42","addressesInput":["addr1qyje5scdxynjn83xrduan7xp45jaf8wedxc6sy5ckue7yecr6t2wwp22d9e8xvf3zv00nckxzeflc0rmqgurjl920lsqs654gx"],"addressesOutput":["addr1vyc7ca9flp5gfeapd78uxzzq7l6qnsytj85n62lr5smhgssen2u2s","addr1qy8fmrv66tu5htthpckda0zg8vzcwsrrz2u044l0jgnef9sr6t2wwp22d9e8xvf3zv00nckxzeflc0rmqgurjl920lsqwp95vm"],"fee":167965,"totalOutput":99463183,"tokens":[]},{"hash":"05bffe49bb29939d4f7c62a59298a503f0a8cf3d5d926eb21735b5e5f0bfc892","blockNo":8237003,"blockHash":"35dc68420b2d90d2ba5431f1e6bcf563d57b4f0b8aad176dbae51d7a79e3fed6","epochNo":386,"epochSlotNo":84771,"slot":81473571,"time":"2023/01/06 21:17:42","addressesInput":["addr1qy380r0qt3cfwaeraf56pw552p4t8xeve8nkhr68u6wzvzsn8u0uf5uj80ukrsp2k4lvn0adxkdtunf3ujw83saultwsx82e8f","addr1qy380r0qt3cfwaeraf56pw552p4t8xeve8nkhr68u6wzvzsn8u0uf5uj80ukrsp2k4lvn0adxkdtunf3ujw83saultwsx82e8f"],"addressesOutput":["addr1q93wv3myh82lmw4vd2rqlq0tqx4k6rx78clxtujejmklqfukdzs5sx5lfcg0aw8683y0k9mhnsxtzj2ql7nrag3s7l9smmgfdk","addr1qy380r0qt3cfwaeraf56pw552p4t8xeve8nkhr68u6wzvzsn8u0uf5uj80ukrsp2k4lvn0adxkdtunf3ujw83saultwsx82e8f"],"fee":171969,"totalOutput":22570565,"tokens":[]},{"hash":"966c24a2d174ab4d51b97e5214880ae04cd428d480c901fe7b4fa35176c32412","blockNo":8237003,"blockHash":"35dc68420b2d90d2ba5431f1e6bcf563d57b4f0b8aad176dbae51d7a79e3fed6","epochNo":386,"epochSlotNo":84771,"slot":81473571,"time":"2023/01/06 21:17:42","addressesInput":["addr1qy5at8x4nvwfqmgr7tu2r3q2x5jwx5snlz2znff2d63q80rjw59hfq2rs768j8ukrls8d9nt75e0uhjjq7zkgmaurqlq8raydp"],"addressesOutput":["addr1q9ffhhgddxhqnnlfhfzgvcetz4aet76n7r7rr2m4cjs5zumjw59hfq2rs768j8ukrls8d9nt75e0uhjjq7zkgmaurqlq2vqq4h","addr1q9ffhhgddxhqnnlfhfzgvcetz4aet76n7r7rr2m4cjs5zumjw59hfq2rs768j8ukrls8d9nt75e0uhjjq7zkgmaurqlq2vqq4h"],"fee":168317,"totalOutput":47649814,"tokens":[]},{"hash":"b9fd3e2afd0c8d8fe34b524de157062e3029f148fb8267fbee03e5d796aad7ff","blockNo":8237003,"blockHash":"35dc68420b2d90d2ba5431f1e6bcf563d57b4f0b8aad176dbae51d7a79e3fed6","epochNo":386,"epochSlotNo":84771,"slot":81473571,"time":"2023/01/06 21:17:42","addressesInput":["addr1q84m4u9w48rxtxx02yt0qv99y45yx47uztvpy3v94wuc82mpmyqcj0fc23sdr7d9d0hkx4vj9r80fh28fl3dsxmd6fqs3vcjgr","addr1q84m4u9w48rxtxx02yt0qv99y45yx47uztvpy3v94wuc82mpmyqcj0fc23sdr7d9d0hkx4vj9r80fh28fl3dsxmd6fqs3vcjgr"],"addressesOutput":["addr1qy7y8jzy0m75cs4tgvrkaslma0mhj4w245u4k3vyp32f35j9ae5965f4me8dd5ns3ngmlyd03dlkpwa9qhlppr4j4wksksly93","addr1q84m4u9w48rxtxx02yt0qv99y45yx47uztvpy3v94wuc82mpmyqcj0fc23sdr7d9d0hkx4vj9r80fh28fl3dsxmd6fqs3vcjgr"],"fee":171793,"totalOutput":5002443,"tokens":[]},{"hash":"75ea41440f0580f459d1b5d23a1e5d340a510ff74e31affe332c5345e2623596","blockNo":8237003,"blockHash":"35dc68420b2d90d2ba5431f1e6bcf563d57b4f0b8aad176dbae51d7a79e3fed6","epochNo":386,"epochSlotNo":84771,"slot":81473571,"time":"2023/01/06 21:17:42","addressesInput":["addr1q8zvfmakvef7srg4rfq5avg6djacrsqrc3c73uc98lkde0ll5968vw92a0kv5xn6zecqcw7zfm3gv0dzznayz39g8lzq4vhptv","addr1q8zvfmakvef7srg4rfq5avg6djacrsqrc3c73uc98lkde0ll5968vw92a0kv5xn6zecqcw7zfm3gv0dzznayz39g8lzq4vhptv"],"addressesOutput":["addr1qycqjgjz2jnu9hfrd7f7qlhzjg6dsv9rdfn4nde2hj9elp7hxhjg9fedzdn96w0n2t9aajjv04df7j4tldkw5wyl0ryq58vcnq","addr1q8zvfmakvef7srg4rfq5avg6djacrsqrc3c73uc98lkde0ll5968vw92a0kv5xn6zecqcw7zfm3gv0dzznayz39g8lzq4vhptv","addr1q8zvfmakvef7srg4rfq5avg6djacrsqrc3c73uc98lkde0ll5968vw92a0kv5xn6zecqcw7zfm3gv0dzznayz39g8lzq4vhptv"],"fee":210337,"totalOutput":11022818,"tokens":[]}],"totalItems":58355299,"totalPages":2917765,"currentPage":0}