{"data":[{"address":"addr1z8snz7c4974vzdpxu65ruphl3zjdvtxw8strf2c2tmqnxz2j2c79gy9l76sdg0xwhd7r0c0kna0tycz4y5s6mlenh8pq0xmsha","txCount":541727,"balance":44177893244638},{"address":"addr1z8jd97ct35n4s5ss8lt4sq0zclw0dmf7yak8fj46m0jm3d475v0pzyfnfwd4drdgh0uxkl9tpd679xps84y757htua9s6w8m7p","txCount":9,"balance":20000000000000},{"address":"addr1w9qzpelu9hn45pefc0xr4ac4kdxeswq7pndul2vuj59u8tqaxdznu","txCount":463477,"balance":12355086755810},{"address":"addr1wy0nmrl40z3nx9d0d79pu5u7zett4hl2apfuj9caqgf7jjqcj3r8z","txCount":433,"balance":6874361970868},{"address":"addr1w8pydstdswmdqmg2rdt59dzql3zgfp9pt8sulnjgalycwdsj9js7w","txCount":65046,"balance":6397959978930},{"address":"addr1w93j7t23z99448k7xspzrppjtgun0janh0rcq6k8wt2e8vc2fraw4","txCount":3422,"balance":3019592042224},{"address":"addr1z8nvjzjeydcn4atcd93aac8allvrpjn7pjr2qsweukpnay2tqrfwamagnyfv43jgm94yvkmsnfvpzlytmkl0cs0uh8zqszu5da","txCount":6878,"balance":2881065100545},{"address":"addr1z8nvjzjeydcn4atcd93aac8allvrpjn7pjr2qsweukpnayg3sm3lpp76yuejdf6w3qyry2spy8xjmjrlxy2cstm3fthsjc3xze","txCount":6152,"balance":2740916401701},{"address":"addr1wyfddcvq3hqpjsyval388g9sguqs8r6249hhx0v0gn9es9ckxzfgr","txCount":369,"balance":2307270133571},{"address":"addr1z8nvjzjeydcn4atcd93aac8allvrpjn7pjr2qsweukpnaytvcg6zm2vds6mz9x3h3yalqmnf24w86m09n40q3tgqxjms9yu6v8","txCount":15032,"balance":1723626100163},{"address":"addr1z8nvjzjeydcn4atcd93aac8allvrpjn7pjr2qsweukpnay0juqg4tpvktqnle8j0ukcnww78l7ze4lrgunuwqnxtvjps8lclpw","txCount":2707,"balance":1590124409222},{"address":"addr1z85t4tvj3rwf40wqnx6x72kqq6c6stra7jvkupnlqrqyarthhd58w0qrqpyv4dc2c2mk98sduawl7l4gjuc9rafyv98sgylfw3","txCount":5367,"balance":1428626980073},{"address":"addr1w8hp3z9akrwr6px578j9rvd47nw3kklhljwkfmvxs9wyxhchydnq4","txCount":1,"balance":1399769000000},{"address":"addr1z8nvjzjeydcn4atcd93aac8allvrpjn7pjr2qsweukpnayg4pn8uxr87tguqw8jkn6p233rk7k683ppl2mspr8appw9q640ms8","txCount":4844,"balance":1303307727371},{"address":"addr1zxgx3far7qygq0k6epa0zcvcvrevmn0ypsnfsue94nsn3tvpw288a4x0xf8pxgcntelxmyclq83s0ykeehchz2wtspks905plm","txCount":1412316,"balance":1181174707189},{"address":"addr1z9cy2gmar6cpn8yymll93lnd7lw96f27kn2p3eq5d4tjr7rshnr04ple6jjfc0cvcmcpcxmsh576v7j2mjk8tw890vespzvgwd","txCount":9373,"balance":1063377150273},{"address":"addr1w9jx45flh83z6wuqypyash54mszwmdj8r64fydafxtfc6jgrw4rm3","txCount":463316,"balance":897583257051},{"address":"addr1z8nvjzjeydcn4atcd93aac8allvrpjn7pjr2qsweukpnaygg8lttvgp8sat8helm9xq0lmme24xc2tecfgwsm6853dhqvjdyu3","txCount":1047,"balance":877177375485},{"address":"addr1w8x38ff6386urtptgnyaycvgjquxkquvkpc9z4u8efaj7fgul2zra","txCount":370,"balance":822959080635},{"address":"addr1zyh4ygwdy2mnhxntq4fw8jcwgtrtqeu6fslwy64029wk8wcfzup4e9umthe6xgvhcxu4d5cygcj0h3vdslrt3whadmnsujfr0f","txCount":2,"balance":774876539231}],"totalItems":23537,"totalPages":1177,"currentPage":0}