{"data":[{"txId":30211460,"txHash":"1a5fda2f8062f342783eb88db8d8bbbf4edc5408184ce9f3eb8785a23b2628c9","txTime":"2022/02/06 05:19:59","block":6847389,"epoch":319,"slotNo":52558508,"epochSlotNo":113708,"stakeKey":"stake1uy8k6cctrss7zweew0ezlgch60srdatkpx7ayh95r5kdtxqzj8u32"},{"txId":30211335,"txHash":"8ef76481060a1cf2b2ef694399048f5c27ac01b44a7e9a3cf41189c2335a9e02","txTime":"2022/02/06 05:17:54","block":6847385,"epoch":319,"slotNo":52558383,"epochSlotNo":113583,"stakeKey":"stake1u9vkuhyev5g4u8dd6hznpu8cr0twmz4v5vmj9vmspvhtsactmqr8s"},{"txId":30211320,"txHash":"d9cf7923ba87715cd07b7227232aea422e47b35e75030bcc4aa0fc4b81acfd9b","txTime":"2022/02/06 05:17:50","block":6847384,"epoch":319,"slotNo":52558379,"epochSlotNo":113579,"stakeKey":"stake1u8nvxuav5x8kh6kmch9dtdhyu6cmsexmajtlu379sztpglch5arj6"},{"txId":30211083,"txHash":"16e2fbdc3082fca407af05e59377d9bfb7a60d4eab5e5c8169d2c998a13366b2","txTime":"2022/02/06 05:15:08","block":6847376,"epoch":319,"slotNo":52558217,"epochSlotNo":113417,"stakeKey":"stake1u8ckrstmtfzl4ndn3jjwjy93qa7pdp49m26yg2236m4en9ch8fy0l"},{"txId":30210980,"txHash":"0d93bcb7896435175323fbb46425c39e70f449ae2b85cca917b42d762d62675b","txTime":"2022/02/06 05:13:59","block":6847373,"epoch":319,"slotNo":52558148,"epochSlotNo":113348,"stakeKey":"stake1u9tmkl9exrk827avz6ljpq99ndr0kvm6vvpper74aq6sekqz340gd"},{"txId":30210865,"txHash":"85371d60b4b830810d370aef740f5673d099b77c481dfd5b87600354bd415c06","txTime":"2022/02/06 05:12:10","block":6847369,"epoch":319,"slotNo":52558039,"epochSlotNo":113239,"stakeKey":"stake1u845hktqdq2z3y2nlhpgkn8gf5lrna6wuegyuujphj0ltnclzj0ha"},{"txId":30210798,"txHash":"49bd9a75c90ba14ba77266935cb527e70545a43dc63733c2b5fac8405544f93c","txTime":"2022/02/06 05:11:12","block":6847366,"epoch":319,"slotNo":52557981,"epochSlotNo":113181,"stakeKey":"stake1u93ejsm6nz996l4rga4zy0gfp4u3hh4eshwztm9mpr7wavcu96jhj"},{"txId":30210620,"txHash":"4b412cf6000b46513f06c35c9c544b8d85f27570dcdb8eca645f6781f4a26a7d","txTime":"2022/02/06 05:07:53","block":6847361,"epoch":319,"slotNo":52557782,"epochSlotNo":112982,"stakeKey":"stake1u8y6ytlv2sglj68auhwuwzrcdu3m6jekmsgwxknly8taxkq26yez5"},{"txId":30210377,"txHash":"99bd2075d0b237bc36f74a33cdcd2067c330f24e9e899e420edd1f90ca616aeb","txTime":"2022/02/06 05:06:07","block":6847353,"epoch":319,"slotNo":52557676,"epochSlotNo":112876,"stakeKey":"stake1uy5zagvkd0sxeqgaudc5fatuyx42qpwjsrtcqqhxdgl2xsc8gkz0z"},{"txId":30210336,"txHash":"3698fbab00fb3c482bdfc10677265d66f7cee114c5aa7e00809b7c6674f4e6f6","txTime":"2022/02/06 05:06:07","block":6847353,"epoch":319,"slotNo":52557676,"epochSlotNo":112876,"stakeKey":"stake1uxyrqxvqcmhslgh82x4xu26qns6pha2ny3mydu9m6kxqjscff4zrd"},{"txId":30210326,"txHash":"58df38e5fa08f49cfb6fa1ab3465f498b7390c599107a6f2d1eba27537c647fc","txTime":"2022/02/06 05:05:55","block":6847352,"epoch":319,"slotNo":52557664,"epochSlotNo":112864,"stakeKey":"stake1uxcxupj4sag2v6xxmm6hrl9y054e2q686fl37cxctf6qescqd4z32"},{"txId":30210270,"txHash":"7a2715a546f89f48028db29488f5a5e62161aea9d9ceb8ea258a1290363e00e3","txTime":"2022/02/06 05:05:44","block":6847350,"epoch":319,"slotNo":52557653,"epochSlotNo":112853,"stakeKey":"stake1u8nyv23wu7kxlkj2zj9un5ntpvq9fh44mwf2krt0rhw48tglkhhpp"},{"txId":30210244,"txHash":"197e611f0ea2a6556317e7bae0f0c2273eafbe9966567e1ee3e9fc0de7c97486","txTime":"2022/02/06 05:05:23","block":6847349,"epoch":319,"slotNo":52557632,"epochSlotNo":112832,"stakeKey":"stake1uyutr6y4a6qxs28u36zygpq9cc7kyunkcqm5swfu40pdhpqxlehp6"},{"txId":30210207,"txHash":"7b0ff861f678ebfde50c862f875ed08344284db87612ed0b5db872b0b9b05980","txTime":"2022/02/06 05:04:58","block":6847348,"epoch":319,"slotNo":52557607,"epochSlotNo":112807,"stakeKey":"stake1uxej0k27d0juc78yu4p8vuxldxn2qwm7dp6mxcf0z8hc3fgrsqxm6"},{"txId":30209991,"txHash":"1db6c45a74c9165b6ec577f2374127a5f138ed6fe92f355ac062ea858e5834ff","txTime":"2022/02/06 05:01:52","block":6847340,"epoch":319,"slotNo":52557421,"epochSlotNo":112621,"stakeKey":"stake1u89utwesuwtu4qur8mmtzr7adjujncj54v0jahwrwy3mfecu0pgqd"},{"txId":30209838,"txHash":"4901918f77b167d0071c36fb20f789ff27a5f4a56bbf14c3d5b08cbe316c7f53","txTime":"2022/02/06 04:56:37","block":6847333,"epoch":319,"slotNo":52557106,"epochSlotNo":112306,"stakeKey":"stake1u8jxgvxpwm4dxy3ramklfepk3mygezqhkxe6q52khsm26sqd52n3j"},{"txId":30209702,"txHash":"a56c402250eed7c158d4646c555092fbc692bd5c5c6e55126b6c58155d069f4a","txTime":"2022/02/06 04:54:40","block":6847328,"epoch":319,"slotNo":52556989,"epochSlotNo":112189,"stakeKey":"stake1u866njtskk4l4mupzcdp5we5pnmgvtwfzdcrkxhlxjn34ssht4q87"},{"txId":30209692,"txHash":"bc4f26150f79314456ed29808ba32de5704d7041c111c373ceb414b9d2104427","txTime":"2022/02/06 04:54:40","block":6847328,"epoch":319,"slotNo":52556989,"epochSlotNo":112189,"stakeKey":"stake1uy9v2s3wfu80g8ns6uw3sj5pwhepdffvnhsnhvpfj6chqwgdq5s7t"},{"txId":30209650,"txHash":"ba3b946168d11ae380936a33e9cb2728f8bf4235e03631f9bff51d2651f33c34","txTime":"2022/02/06 04:54:20","block":6847325,"epoch":319,"slotNo":52556969,"epochSlotNo":112169,"stakeKey":"stake1ux456xshpp8wg9vyefqj9p2vz6p0ed4ka9qw4g2zu936u4cdraa77"},{"txId":30209605,"txHash":"a2c3c162938abe39158ce9792a01e2cc5cc454d86b688740ada24652293f7c42","txTime":"2022/02/06 04:53:57","block":6847323,"epoch":319,"slotNo":52556946,"epochSlotNo":112146,"stakeKey":"stake1ux5nwq6tq030lvw2324l4j69qjx7y3p6xwuhhve3u74tkegwte3w4"}],"totalItems":1397756,"totalPages":69888,"currentPage":0}