{"data":[{"hash":"7898ce6467e58a8772c63770ac33ed1254e3f0754a8a9952248c39ea6cfc0b78","blockNo":8117475,"blockHash":"8fdb7d7aae0ac2635da4a73c222906bbbee21885c13dfefc5b1ce249deeacba5","epochNo":380,"epochSlotNo":226355,"slot":79023155,"time":"2022/12/09 12:37:26","addressesInput":["addr1vxtfsxwrcq4w5ujggvdk6klqt3kt9hux9m7hdrrrfelsv4s6rfrd8"],"addressesOutput":["addr1vyutqzfl30pwxl8a5khdgypahtjl3snket3gkp32nyczcvgt59t7r","addr1vxtfsxwrcq4w5ujggvdk6klqt3kt9hux9m7hdrrrfelsv4s6rfrd8"],"fee":171221,"totalOutput":9556997534,"tokens":[]},{"hash":"c87caeff6c85e61698664702e5dc32def20334165810769dc62aa100f34fdea5","blockNo":8117474,"blockHash":"163b09a7377fd2a0c2e646e46de3423a51b0cc985afe6901ecce240c57af534a","epochNo":380,"epochSlotNo":226352,"slot":79023152,"time":"2022/12/09 12:37:23","addressesInput":["addr1qyjc5dhutu2xxw88kzu4ymdp9w4tslrzpg9yav0ukc94snv9pdydvd5kvgp3hewxhpq0qzqg8fqwqyjky9msp0zu64gqp95mrg","addr1qyjc5dhutu2xxw88kzu4ymdp9w4tslrzpg9yav0ukc94snv9pdydvd5kvgp3hewxhpq0qzqg8fqwqyjky9msp0zu64gqp95mrg","addr1qyjc5dhutu2xxw88kzu4ymdp9w4tslrzpg9yav0ukc94snv9pdydvd5kvgp3hewxhpq0qzqg8fqwqyjky9msp0zu64gqp95mrg","addr1qyjc5dhutu2xxw88kzu4ymdp9w4tslrzpg9yav0ukc94snv9pdydvd5kvgp3hewxhpq0qzqg8fqwqyjky9msp0zu64gqp95mrg","addr1qyjc5dhutu2xxw88kzu4ymdp9w4tslrzpg9yav0ukc94snv9pdydvd5kvgp3hewxhpq0qzqg8fqwqyjky9msp0zu64gqp95mrg","addr1qyjc5dhutu2xxw88kzu4ymdp9w4tslrzpg9yav0ukc94snv9pdydvd5kvgp3hewxhpq0qzqg8fqwqyjky9msp0zu64gqp95mrg"],"addressesOutput":["addr1zxgx3far7qygq0k6epa0zcvcvrevmn0ypsnfsue94nsn3tvpw288a4x0xf8pxgcntelxmyclq83s0ykeehchz2wtspks905plm","addr1qyjc5dhutu2xxw88kzu4ymdp9w4tslrzpg9yav0ukc94snv9pdydvd5kvgp3hewxhpq0qzqg8fqwqyjky9msp0zu64gqp95mrg","addr1qyjc5dhutu2xxw88kzu4ymdp9w4tslrzpg9yav0ukc94snv9pdydvd5kvgp3hewxhpq0qzqg8fqwqyjky9msp0zu64gqp95mrg","addr1qyjc5dhutu2xxw88kzu4ymdp9w4tslrzpg9yav0ukc94snv9pdydvd5kvgp3hewxhpq0qzqg8fqwqyjky9msp0zu64gqp95mrg","addr1qyjc5dhutu2xxw88kzu4ymdp9w4tslrzpg9yav0ukc94snv9pdydvd5kvgp3hewxhpq0qzqg8fqwqyjky9msp0zu64gqp95mrg"],"fee":227409,"totalOutput":2265167644,"tokens":[]},{"hash":"0be032091b3a7d3434766f80fdeb35b24e0a0df535bc00bdb84b01531bd7b183","blockNo":8117474,"blockHash":"163b09a7377fd2a0c2e646e46de3423a51b0cc985afe6901ecce240c57af534a","epochNo":380,"epochSlotNo":226352,"slot":79023152,"time":"2022/12/09 12:37:23","addressesInput":["addr1qxvr2hga8ddzs4gkyn8gcs3ujmp5qv7y66xg73mfsy3vleycx4w36w669p23vfxw33pre9krgqeuf45v3arknqfzeljqd2hx53","addr1qxvr2hga8ddzs4gkyn8gcs3ujmp5qv7y66xg73mfsy3vleycx4w36w669p23vfxw33pre9krgqeuf45v3arknqfzeljqd2hx53"],"addressesOutput":["addr1qxvr2hga8ddzs4gkyn8gcs3ujmp5qv7y66xg73mfsy3vleycx4w36w669p23vfxw33pre9krgqeuf45v3arknqfzeljqd2hx53","addr1qxvr2hga8ddzs4gkyn8gcs3ujmp5qv7y66xg73mfsy3vleycx4w36w669p23vfxw33pre9krgqeuf45v3arknqfzeljqd2hx53"],"fee":233854,"totalOutput":3060915663,"tokens":[]},{"hash":"e10d9100a9cf68bcc5a8c5263f3037af36ae87e882ecb86ff17a7191de91f9ea","blockNo":8117474,"blockHash":"163b09a7377fd2a0c2e646e46de3423a51b0cc985afe6901ecce240c57af534a","epochNo":380,"epochSlotNo":226352,"slot":79023152,"time":"2022/12/09 12:37:23","addressesInput":["addr1qxa47yu4hqm3rj6fq7wmvzeqv7nmkqvma4z5z6wlvte8lzf50zu6fxcd4slrcjh9065kujkgmkzzqcpzpy7qknywnnqszjp5cp","addr1zxgx3far7qygq0k6epa0zcvcvrevmn0ypsnfsue94nsn3tvpw288a4x0xf8pxgcntelxmyclq83s0ykeehchz2wtspks905plm"],"addressesOutput":["addr1qxa47yu4hqm3rj6fq7wmvzeqv7nmkqvma4z5z6wlvte8lzf50zu6fxcd4slrcjh9065kujkgmkzzqcpzpy7qknywnnqszjp5cp","addr1qxa47yu4hqm3rj6fq7wmvzeqv7nmkqvma4z5z6wlvte8lzf50zu6fxcd4slrcjh9065kujkgmkzzqcpzpy7qknywnnqszjp5cp"],"fee":263074,"totalOutput":159196636,"tokens":[]},{"hash":"96178f5b10e9a1d33d6e604c6208a0050724265f4575a33764b3f430e666c5c5","blockNo":8117474,"blockHash":"163b09a7377fd2a0c2e646e46de3423a51b0cc985afe6901ecce240c57af534a","epochNo":380,"epochSlotNo":226352,"slot":79023152,"time":"2022/12/09 12:37:23","addressesInput":["addr1qye2m8x6nuaplz8f3tvangg3q8cnq72pjhw5r86ua6y09xal5drn9cm42zx6y4kq548nl87jsyvvj3xpeghltt2wvveskmhpqr"],"addressesOutput":["addr1vy2z853w49ksnwypv2cm02dg3hcmls4wcd7dsp2z344q6vcx3g0sd","addr1qye2m8x6nuaplz8f3tvangg3q8cnq72pjhw5r86ua6y09xal5drn9cm42zx6y4kq548nl87jsyvvj3xpeghltt2wvveskmhpqr"],"fee":167085,"totalOutput":72250604,"tokens":[]},{"hash":"eea12c7555a509146e6fa46eafef8d310aae0dfb398476b7cf883803ec451b25","blockNo":8117474,"blockHash":"163b09a7377fd2a0c2e646e46de3423a51b0cc985afe6901ecce240c57af534a","epochNo":380,"epochSlotNo":226352,"slot":79023152,"time":"2022/12/09 12:37:23","addressesInput":["addr1v9gs0trlcmyty7jakcewjs3h00a7xrzyd5wnyfrpeg4wjts0ugx63","addr1v9gs0trlcmyty7jakcewjs3h00a7xrzyd5wnyfrpeg4wjts0ugx63"],"addressesOutput":["addr1q8yv5fqyx76s3jtrw96qgz9ply32hq84690dq6psdfazrmn2cr3agje4kp2e3crjatftkjtuugs3ftpwz8lxugwng8fq9wl02y","addr1v9gs0trlcmyty7jakcewjs3h00a7xrzyd5wnyfrpeg4wjts0ugx63","addr1q9hsauvnf9dt88skshp76t45hp27c9p6y9rv6au74s43uqjx7gax6jgkwyn7vhvqet6n05quma2y5wdghj5arlzmmjpq2xyg4t"],"fee":181209,"totalOutput":3943701,"tokens":[]},{"hash":"08bc0f2884e9993fbceab019715033ff8b457d11684a79a3f8dcd18b9ae7e878","blockNo":8117474,"blockHash":"163b09a7377fd2a0c2e646e46de3423a51b0cc985afe6901ecce240c57af534a","epochNo":380,"epochSlotNo":226352,"slot":79023152,"time":"2022/12/09 12:37:23","addressesInput":["addr1q9tg2v2x6tgdtlxy6e7mqsx8sq3ut3v6drgzpd8m0gl4j575f3j0t556vtjj7y5gkf9acfgv6gh2xpkvd79dvnctljrst08gl9","addr1zxgx3far7qygq0k6epa0zcvcvrevmn0ypsnfsue94nsn3tvpw288a4x0xf8pxgcntelxmyclq83s0ykeehchz2wtspks905plm"],"addressesOutput":["addr1q9k08sqefpk9u628upkju9v3rerpe8t53f735v349jvjehx5f3j0t556vtjj7y5gkf9acfgv6gh2xpkvd79dvnctljrsp4gffv","addr1q9k08sqefpk9u628upkju9v3rerpe8t53f735v349jvjehx5f3j0t556vtjj7y5gkf9acfgv6gh2xpkvd79dvnctljrsp4gffv"],"fee":272754,"totalOutput":47168646,"tokens":[]},{"hash":"e787d91cb8e9d64cd34691611dc74991ebe1d17c300e4926222cb97b078d5807","blockNo":8117474,"blockHash":"163b09a7377fd2a0c2e646e46de3423a51b0cc985afe6901ecce240c57af534a","epochNo":380,"epochSlotNo":226352,"slot":79023152,"time":"2022/12/09 12:37:23","addressesInput":["addr1qytjatuz3ujmz0egqr7whhnkx8jqgdw0eudusxen6q2ulpuqjx4c3smqatzm7rhmt6yxpy9dldq2p4fgmt9v56k64rps9hgsyz","addr1qytjatuz3ujmz0egqr7whhnkx8jqgdw0eudusxen6q2ulpuqjx4c3smqatzm7rhmt6yxpy9dldq2p4fgmt9v56k64rps9hgsyz","addr1zxgx3far7qygq0k6epa0zcvcvrevmn0ypsnfsue94nsn3tvpw288a4x0xf8pxgcntelxmyclq83s0ykeehchz2wtspks905plm"],"addressesOutput":["addr1q8gk5kapjwrwdht8v50djlwq86429gftmzxy9msnfse7jm9d826tmpjeqtyue8ywex73z33jyvvasww9d0ttke8ychdqza2rta","addr1q9cwvremt6n320s2e3agq0jyq82yhrk3htsu0w426xnz5us70z4w0jgvcdkkynmm8wmds66jd9kusnjfpu6raw5fqp0sr07p5w","addr1qytup7xnwt8x8vdt83069q8mze2g7e28cnhzjtsdw77g824gaetc02aalzx8sx2ev3epjzdusl4pe3mqhs9c8vu5rw8ss0mdf3","addr1qytjatuz3ujmz0egqr7whhnkx8jqgdw0eudusxen6q2ulpuqjx4c3smqatzm7rhmt6yxpy9dldq2p4fgmt9v56k64rps9hgsyz","addr1qytjatuz3ujmz0egqr7whhnkx8jqgdw0eudusxen6q2ulpuqjx4c3smqatzm7rhmt6yxpy9dldq2p4fgmt9v56k64rps9hgsyz","addr1qytjatuz3ujmz0egqr7whhnkx8jqgdw0eudusxen6q2ulpuqjx4c3smqatzm7rhmt6yxpy9dldq2p4fgmt9v56k64rps9hgsyz"],"fee":423036,"totalOutput":566322138,"tokens":[]},{"hash":"d2b08fa4fddbb7734a308fa8c1f261d9ee8732fb995a055944e9ae40456f5e54","blockNo":8117474,"blockHash":"163b09a7377fd2a0c2e646e46de3423a51b0cc985afe6901ecce240c57af534a","epochNo":380,"epochSlotNo":226352,"slot":79023152,"time":"2022/12/09 12:37:23","addressesInput":["addr1q98w3clcw003gccs57hxg6alt8fkpdqlrd7szvrq8chxc3z7hhdw98qerwg0074zuzg6xjxtj9vsftrqctuys63cj5msvy9vve"],"addressesOutput":["addr1vy2z853w49ksnwypv2cm02dg3hcmls4wcd7dsp2z344q6vcx3g0sd","addr1q98w3clcw003gccs57hxg6alt8fkpdqlrd7szvrq8chxc3z7hhdw98qerwg0074zuzg6xjxtj9vsftrqctuys63cj5msvy9vve"],"fee":169268,"totalOutput":2206895107,"tokens":[]},{"hash":"8e8c3ee390449b0b21bb19863c4e6ce32489a34f490955f147ad0bc6c32693ab","blockNo":8117474,"blockHash":"163b09a7377fd2a0c2e646e46de3423a51b0cc985afe6901ecce240c57af534a","epochNo":380,"epochSlotNo":226352,"slot":79023152,"time":"2022/12/09 12:37:23","addressesInput":["addr1v8y0ql3vuldeaqkpv0un9quk903rzfar74c7thzfe0slefsr6z4h4"],"addressesOutput":["addr1qygmkctav6khp7mslj8f8q6tzeg2evfxvs6pv4flawanyq6p9kqj5m0t38ha90nelr84f4ledprh3qd34r9datvt7wfqcvfhry","addr1q93zjmctup89e6qpdeg29sr9a3s9dhcz2x9t79esfqd6yy8fcrfjudcku9d8jnfv0jqzv628w5ve29zde7rpm38k42vsx3evkv"],"fee":571313,"totalOutput":6328687,"tokens":[]},{"hash":"19b74dd614074046e2eeb8d2fa00dc060a098ab8e56e7218cd73f53729788d9a","blockNo":8117474,"blockHash":"163b09a7377fd2a0c2e646e46de3423a51b0cc985afe6901ecce240c57af534a","epochNo":380,"epochSlotNo":226352,"slot":79023152,"time":"2022/12/09 12:37:23","addressesInput":["addr1v8y0ql3vuldeaqkpv0un9quk903rzfar74c7thzfe0slefsr6z4h4"],"addressesOutput":["addr1qy2dfl5w7x9czpyhulsdj096rnteszx6hhsrxkyklp3gthxxe2dcyaq2gx0yw7q8q40u7t3k4zq9y5pkluh429nfvy4qles3fe","addr1q93zjmctup89e6qpdeg29sr9a3s9dhcz2x9t79esfqd6yy8fcrfjudcku9d8jnfv0jqzv628w5ve29zde7rpm38k42vsx3evkv"],"fee":569245,"totalOutput":6330755,"tokens":[]},{"hash":"63f7a39aa260c62b1857c682e14ade6deba705c7a26564547cdf165081843800","blockNo":8117473,"blockHash":"e131b76eb7752cac10114580badc01fdbb6cb60a7ad5f2ed9396bb7fd92a671d","epochNo":380,"epochSlotNo":226335,"slot":79023135,"time":"2022/12/09 12:37:06","addressesInput":["addr1v9u7va2sktlnz8dp3qadpnxxlv4m03672jy6elmntlxxs7q9nnwl9"],"addressesOutput":["DdzFFzCqrhstqocBVCtm3foVty27QSeKFovjfjnT8mgiMURTNfRkeZyFwwMqBcqQiC3JjgdL2nw8bUVBdqMR2NCNuB2EPxJJ2LBJ1uYk","addr1vypr00ss7hkqejmvh53xkyf0p9q0a4z2uprxmx6njc463vgst3pe4"],"fee":171221,"totalOutput":190671052,"tokens":[]},{"hash":"ebd16a3e01503a73aa2da889a9613b49fdb4c8ac0e6d9a7ee3515da6121064dd","blockNo":8117473,"blockHash":"e131b76eb7752cac10114580badc01fdbb6cb60a7ad5f2ed9396bb7fd92a671d","epochNo":380,"epochSlotNo":226335,"slot":79023135,"time":"2022/12/09 12:37:06","addressesInput":["addr1q8308s5aw2z3s8ltpmagj4vt6j4z9q8wa2pt4t8xvfpcmjsfwrudwxywljtgnpy40elvum2hm5klgz4694y9vdyr54as679um0"],"addressesOutput":["DdzFFzCqrht1ybTyBb5DqaeDUqSwwWQrenWQXmWsGnUrXYCBUXiwCsYydT1X8eurY7foYbQS34yQ3bkvdW4ueCCFfTKvoDnJt15A277Z","addr1q8308s5aw2z3s8ltpmagj4vt6j4z9q8wa2pt4t8xvfpcmjsfwrudwxywljtgnpy40elvum2hm5klgz4694y9vdyr54as679um0"],"fee":300000,"totalOutput":11272396338,"tokens":[]},{"hash":"266b22a79c816bdd7c665533a407ce9b8f7ca5835fcf1e5b761267fd99687ea2","blockNo":8117473,"blockHash":"e131b76eb7752cac10114580badc01fdbb6cb60a7ad5f2ed9396bb7fd92a671d","epochNo":380,"epochSlotNo":226335,"slot":79023135,"time":"2022/12/09 12:37:06","addressesInput":["addr1qy864xhmze0jw0aqvk6ch34hg6nsplgq4fvyqk470av8x42teq6uj84yr87n7qr9zl0apq5sm20293g88a5d5rm06e5qh6dg08"],"addressesOutput":["addr1q9gdcng8eknkz7xkhyh7gd2gygz7nc75xgjdusnjxpd7x3jteq6uj84yr87n7qr9zl0apq5sm20293g88a5d5rm06e5qpquq20","addr1q9gdcng8eknkz7xkhyh7gd2gygz7nc75xgjdusnjxpd7x3jteq6uj84yr87n7qr9zl0apq5sm20293g88a5d5rm06e5qpquq20"],"fee":180945,"totalOutput":211840999,"tokens":[]},{"hash":"3584bfa7e68576d6361a087d4b0880b21d75b7ae46991f6ccf9b74dd5d8dc777","blockNo":8117473,"blockHash":"e131b76eb7752cac10114580badc01fdbb6cb60a7ad5f2ed9396bb7fd92a671d","epochNo":380,"epochSlotNo":226335,"slot":79023135,"time":"2022/12/09 12:37:06","addressesInput":["addr1qxa47yu4hqm3rj6fq7wmvzeqv7nmkqvma4z5z6wlvte8lzf50zu6fxcd4slrcjh9065kujkgmkzzqcpzpy7qknywnnqszjp5cp","addr1zxgx3far7qygq0k6epa0zcvcvrevmn0ypsnfsue94nsn3tvpw288a4x0xf8pxgcntelxmyclq83s0ykeehchz2wtspks905plm"],"addressesOutput":["addr1qxa47yu4hqm3rj6fq7wmvzeqv7nmkqvma4z5z6wlvte8lzf50zu6fxcd4slrcjh9065kujkgmkzzqcpzpy7qknywnnqszjp5cp","addr1qxa47yu4hqm3rj6fq7wmvzeqv7nmkqvma4z5z6wlvte8lzf50zu6fxcd4slrcjh9065kujkgmkzzqcpzpy7qknywnnqszjp5cp"],"fee":263764,"totalOutput":3097561,"tokens":[]},{"hash":"ef67b402525ab9be29051059edf3db4aad1bf9b22280f49e86a1b7515dd93f67","blockNo":8117473,"blockHash":"e131b76eb7752cac10114580badc01fdbb6cb60a7ad5f2ed9396bb7fd92a671d","epochNo":380,"epochSlotNo":226335,"slot":79023135,"time":"2022/12/09 12:37:06","addressesInput":["addr1zxgx3far7qygq0k6epa0zcvcvrevmn0ypsnfsue94nsn3tvpw288a4x0xf8pxgcntelxmyclq83s0ykeehchz2wtspks905plm","addr1zxgx3far7qygq0k6epa0zcvcvrevmn0ypsnfsue94nsn3tvpw288a4x0xf8pxgcntelxmyclq83s0ykeehchz2wtspks905plm"],"addressesOutput":["addr1qxz3zrldxkkwlawrdx2w8ycsnz578r5nrrj96d7e2na9n32cd7gh928plcchqknd3duaxpl5zu86g5gqkd3npv58vvgs8tgtk0","addr1qy0djt0yqv38crad27e4eqeh24erfgux842zjj5rfdhftgl5vf7vxgmdrmywjj82qkuvswq69cgwex3d7nwjha4lpp9qn7q0re","addr1q9cwvremt6n320s2e3agq0jyq82yhrk3htsu0w426xnz5us70z4w0jgvcdkkynmm8wmds66jd9kusnjfpu6raw5fqp0sr07p5w","addr1q9tq3c6e7hpncpkq76s4aqwam2lrwh9l6sezv2zgvsdnxdpeaszx3epqmgah7zlrfv764qlczrqdyypetsyj2wsswf3sat8fhk","addr1qxz3zrldxkkwlawrdx2w8ycsnz578r5nrrj96d7e2na9n32cd7gh928plcchqknd3duaxpl5zu86g5gqkd3npv58vvgs8tgtk0"],"fee":504464,"totalOutput":110840256,"tokens":[]},{"hash":"4fe6451ad8382238012a1470d42a3b53dba9e5e2a82c44ad2f8b0387ca7074de","blockNo":8117473,"blockHash":"e131b76eb7752cac10114580badc01fdbb6cb60a7ad5f2ed9396bb7fd92a671d","epochNo":380,"epochSlotNo":226335,"slot":79023135,"time":"2022/12/09 12:37:06","addressesInput":["addr1qxjcaacsynv9ajm8u0qzl2l4awr8lhhqqprsv43advksyh35k0axhpqsa3rmln0uj6np2vkxx9n96xfcqayyhrlepy9s35pa8m","addr1qxjcaacsynv9ajm8u0qzl2l4awr8lhhqqprsv43advksyh35k0axhpqsa3rmln0uj6np2vkxx9n96xfcqayyhrlepy9s35pa8m","addr1qxjcaacsynv9ajm8u0qzl2l4awr8lhhqqprsv43advksyh35k0axhpqsa3rmln0uj6np2vkxx9n96xfcqayyhrlepy9s35pa8m","addr1qxjcaacsynv9ajm8u0qzl2l4awr8lhhqqprsv43advksyh35k0axhpqsa3rmln0uj6np2vkxx9n96xfcqayyhrlepy9s35pa8m","addr1qxjcaacsynv9ajm8u0qzl2l4awr8lhhqqprsv43advksyh35k0axhpqsa3rmln0uj6np2vkxx9n96xfcqayyhrlepy9s35pa8m","addr1qxjcaacsynv9ajm8u0qzl2l4awr8lhhqqprsv43advksyh35k0axhpqsa3rmln0uj6np2vkxx9n96xfcqayyhrlepy9s35pa8m"],"addressesOutput":["addr1zxgx3far7qygq0k6epa0zcvcvrevmn0ypsnfsue94nsn3tvpw288a4x0xf8pxgcntelxmyclq83s0ykeehchz2wtspks905plm","addr1qxjcaacsynv9ajm8u0qzl2l4awr8lhhqqprsv43advksyh35k0axhpqsa3rmln0uj6np2vkxx9n96xfcqayyhrlepy9s35pa8m","addr1qxjcaacsynv9ajm8u0qzl2l4awr8lhhqqprsv43advksyh35k0axhpqsa3rmln0uj6np2vkxx9n96xfcqayyhrlepy9s35pa8m","addr1qxjcaacsynv9ajm8u0qzl2l4awr8lhhqqprsv43advksyh35k0axhpqsa3rmln0uj6np2vkxx9n96xfcqayyhrlepy9s35pa8m"],"fee":223801,"totalOutput":805687797,"tokens":[]},{"hash":"9dd69bc33f7c3fbd1ada3042bbd21a2503bf78f2a75666672a4c00aa9efc5cad","blockNo":8117473,"blockHash":"e131b76eb7752cac10114580badc01fdbb6cb60a7ad5f2ed9396bb7fd92a671d","epochNo":380,"epochSlotNo":226335,"slot":79023135,"time":"2022/12/09 12:37:06","addressesInput":["addr1qyht4ja0zcn45qvyx477qlyp6j5ftu5ng0prt9608dxp6l2j2c79gy9l76sdg0xwhd7r0c0kna0tycz4y5s6mlenh8pq4jxtdy","addr1qyht4ja0zcn45qvyx477qlyp6j5ftu5ng0prt9608dxp6l2j2c79gy9l76sdg0xwhd7r0c0kna0tycz4y5s6mlenh8pq4jxtdy","addr1z8snz7c4974vzdpxu65ruphl3zjdvtxw8strf2c2tmqnxz2j2c79gy9l76sdg0xwhd7r0c0kna0tycz4y5s6mlenh8pq0xmsha","addr1wxn9efv2f6w82hagxqtn62ju4m293tqvw0uhmdl64ch8uwc0h43gt"],"addressesOutput":["addr1qyht4ja0zcn45qvyx477qlyp6j5ftu5ng0prt9608dxp6l2j2c79gy9l76sdg0xwhd7r0c0kna0tycz4y5s6mlenh8pq4jxtdy","addr1qyht4ja0zcn45qvyx477qlyp6j5ftu5ng0prt9608dxp6l2j2c79gy9l76sdg0xwhd7r0c0kna0tycz4y5s6mlenh8pq4jxtdy","addr1qxy8w3cuzrl7vh3dclzf8ezwyxcw3tcgycfdn9e3yla98wgat7zkusrtcjkrhhryw9azc3m2204wevzyms4cu4skgqpsauvst0","addr1z8snz7c4974vzdpxu65ruphl3zjdvtxw8strf2c2tmqnxz2j2c79gy9l76sdg0xwhd7r0c0kna0tycz4y5s6mlenh8pq0xmsha"],"fee":806372,"totalOutput":1144821519647,"tokens":[]},{"hash":"64074a399dea6d63849f7813b1d32a776b8319c533d0c23827f234d2f0ea14c5","blockNo":8117473,"blockHash":"e131b76eb7752cac10114580badc01fdbb6cb60a7ad5f2ed9396bb7fd92a671d","epochNo":380,"epochSlotNo":226335,"slot":79023135,"time":"2022/12/09 12:37:06","addressesInput":["addr1zxgx3far7qygq0k6epa0zcvcvrevmn0ypsnfsue94nsn3tvpw288a4x0xf8pxgcntelxmyclq83s0ykeehchz2wtspks905plm","addr1q9k08sqefpk9u628upkju9v3rerpe8t53f735v349jvjehx5f3j0t556vtjj7y5gkf9acfgv6gh2xpkvd79dvnctljrsp4gffv"],"addressesOutput":["addr1q9k08sqefpk9u628upkju9v3rerpe8t53f735v349jvjehx5f3j0t556vtjj7y5gkf9acfgv6gh2xpkvd79dvnctljrsp4gffv","addr1q9k08sqefpk9u628upkju9v3rerpe8t53f735v349jvjehx5f3j0t556vtjj7y5gkf9acfgv6gh2xpkvd79dvnctljrsp4gffv"],"fee":268310,"totalOutput":47906084,"tokens":[]},{"hash":"e2ef224eacf123ce7b9e3311ecc249a53868cea3b5a7bfa3d87a9c4dc0123327","blockNo":8117473,"blockHash":"e131b76eb7752cac10114580badc01fdbb6cb60a7ad5f2ed9396bb7fd92a671d","epochNo":380,"epochSlotNo":226335,"slot":79023135,"time":"2022/12/09 12:37:06","addressesInput":["addr1wydpsqf5zz9ddy76d3f3jrrf6jkpyjr48nx5a706w9y68ucy4wu6s"],"addressesOutput":["addr1qyuw23rkl80ffhh3ehzvqe670huqpf0vcdv4unhh6yhhlw45axehfh3457gt2jvqet4tzzyymlxetrgmxdg5qjn226dqkducwp"],"fee":842392,"totalOutput":4157608,"tokens":[]}],"totalItems":56319081,"totalPages":2815955,"currentPage":0}