{"data":[{"blockNo":8053844,"slotNo":77716707,"epochNo":377,"epochSlotNo":215907,"hash":"9e4f88f5e58e566d570dd231bd333d1a4b3b4528680e1b1287496365cf78822d","time":"2022/11/24 09:43:18","txCount":20,"totalFees":7418246,"totalOutput":538053202598,"slotLeader":"32c6e03b9a94ce5d40527408634b02feaf82c015fde9d368e9f35714"},{"blockNo":8053843,"slotNo":77716671,"epochNo":377,"epochSlotNo":215871,"hash":"e960465a0a0a0e462944258324e8ac643f1fc8d7c300a3437dacb5edaf27406e","time":"2022/11/24 09:42:42","txCount":3,"totalFees":790467,"totalOutput":40308790,"slotLeader":"120ccc012f6b2ef1669acb15d2499cc9a226b6374184d1e322b1aa5f"},{"blockNo":8053842,"slotNo":77716667,"epochNo":377,"epochSlotNo":215867,"hash":"ab6130526107e050a4517cb7ff3d809d27497d023dacd54d89aebdb5b7003b4c","time":"2022/11/24 09:42:38","txCount":27,"totalFees":9163664,"totalOutput":2669806987968,"slotLeader":"788898a81174665316af96880459dcca053f7825abb1b0db9a433630"},{"blockNo":8053841,"slotNo":77716624,"epochNo":377,"epochSlotNo":215824,"hash":"ec6652fd31e5fc59066fa707f5dfa5b55dc46531efd71b91534242f8c2c22fe4","time":"2022/11/24 09:41:55","txCount":7,"totalFees":2040409,"totalOutput":153090795788,"slotLeader":"4aea697c45e39e37e5d842ec8cf6c01a714e88db33a1ba0565ab59af"},{"blockNo":8053840,"slotNo":77716622,"epochNo":377,"epochSlotNo":215822,"hash":"47b4035c590261bc78d926a3e2f70cdaa198dea015d51db4d65741424ba2f86c","time":"2022/11/24 09:41:53","txCount":31,"totalFees":11771505,"totalOutput":6991140920378,"slotLeader":"ea5f1fb21658736dce6e8c63a516e9e5d645e104b9efbfbb395d7e68"},{"blockNo":8053839,"slotNo":77716568,"epochNo":377,"epochSlotNo":215768,"hash":"7dd22096fbc71421d262e053a4a5119bb419de1b10d3a55ac063f48cabf1a871","time":"2022/11/24 09:40:59","txCount":0,"totalFees":0,"totalOutput":0,"slotLeader":"463e481957f266d93e4decbfb73003380ab17223e0e569f71c7a525a"},{"blockNo":8053838,"slotNo":77716567,"epochNo":377,"epochSlotNo":215767,"hash":"b44563199eee806ad1bf9bc298d8d5cd9b31058f400a4fd3d0ca76f6cdf2e74f","time":"2022/11/24 09:40:58","txCount":28,"totalFees":10718942,"totalOutput":3918690232879,"slotLeader":"079c374160b0ae34a5a20b8e95a5b5c8766239b2984f13d7ab962791"},{"blockNo":8053837,"slotNo":77716534,"epochNo":377,"epochSlotNo":215734,"hash":"ac2461f29afc43e4904a6724f9e29f80bdeca193ae82130aa4bdc3a93917fe46","time":"2022/11/24 09:40:25","txCount":33,"totalFees":8990196,"totalOutput":182169642814,"slotLeader":"9b9890b811d67ba9e69810581e4fc119ca0c2354adb7cd6ff564b0a3"},{"blockNo":8053836,"slotNo":77716503,"epochNo":377,"epochSlotNo":215703,"hash":"334e2e78627546652cf2911be8654f8d0953d992cdef3ec552f2adc9a699f58a","time":"2022/11/24 09:39:54","txCount":26,"totalFees":9975141,"totalOutput":9634036759872,"slotLeader":"032cd96779710e1bdc766de1896277896be4d3b9aa86d4caccd22c8b"},{"blockNo":8053835,"slotNo":77716469,"epochNo":377,"epochSlotNo":215669,"hash":"c23e35befcf7f67a3c79863c843d045fbec00919b5ac72af4b66b268525c4a54","time":"2022/11/24 09:39:20","txCount":1,"totalFees":218565,"totalOutput":13824296,"slotLeader":"e2aa9dab3fd570d2bf469953241f6766a63ed052a6c3f7c751e4d528"},{"blockNo":8053834,"slotNo":77716468,"epochNo":377,"epochSlotNo":215668,"hash":"f6374846f90064bed3322c17fd55e0e2a3329a2a7c252a9ff499858ace1d6f7e","time":"2022/11/24 09:39:19","txCount":2,"totalFees":376454,"totalOutput":60015562437,"slotLeader":"38ee2f8d878f7c444bd80d38c3b4cff02d3a3477c9e77d262065d9ad"},{"blockNo":8053833,"slotNo":77716465,"epochNo":377,"epochSlotNo":215665,"hash":"eb14fb49208bab7d8b8cdca15a25c2e86b0812369f8aad293f2bde0292b09d48","time":"2022/11/24 09:39:16","txCount":10,"totalFees":2052466,"totalOutput":4350159206,"slotLeader":"6a4a39566f5c45f0f6de34ef5e674b892e517ddeebd4eafcfd8583ef"},{"blockNo":8053832,"slotNo":77716449,"epochNo":377,"epochSlotNo":215649,"hash":"dd200826c253456df946969504e27de8254fdaf7d01770288ff22ca53e8fde4d","time":"2022/11/24 09:39:00","txCount":10,"totalFees":2743079,"totalOutput":140714377891,"slotLeader":"d4a3b639d0f0b050cbfc25dad467af58355f31edbc4959db1cc59051"},{"blockNo":8053831,"slotNo":77716440,"epochNo":377,"epochSlotNo":215640,"hash":"041ee49f0a5ae99e2ba0f150c70145208da89b507af93f32150b6cb286fabfe1","time":"2022/11/24 09:38:51","txCount":28,"totalFees":10224206,"totalOutput":5739576397905,"slotLeader":"e455088c9164ae075f0300bc1a7234c30433556c6b88d4301a06cfe5"},{"blockNo":8053830,"slotNo":77716403,"epochNo":377,"epochSlotNo":215603,"hash":"5712ff5eb5c4ac2cd85cbe21d5c632c27ff3f78a585454ac8b0b388b4aeecc1f","time":"2022/11/24 09:38:14","txCount":32,"totalFees":10790438,"totalOutput":4375595354424,"slotLeader":"cad3d1c69faad3a6777143009a367d07bf960a2a621d50bdf215bc0f"},{"blockNo":8053829,"slotNo":77716378,"epochNo":377,"epochSlotNo":215578,"hash":"355be5dc333c58a031833863327305733d66453d0d209a15b40979c92145592d","time":"2022/11/24 09:37:49","txCount":25,"totalFees":10791275,"totalOutput":2653954358052,"slotLeader":"2dc733ef313c5c5ead9b93b96918106b067e343b21bbc2d3576e2913"},{"blockNo":8053828,"slotNo":77716356,"epochNo":377,"epochSlotNo":215556,"hash":"4dea0b4b57c894aca4ee87131c54e0c31ea07189bdb89c76bcd1ff47cdea196d","time":"2022/11/24 09:37:27","txCount":6,"totalFees":1709244,"totalOutput":190899747620,"slotLeader":"921dc3fc11681ad9ccde08c9bc23041808f4b7e8ba231be557db8ab5"},{"blockNo":8053827,"slotNo":77716351,"epochNo":377,"epochSlotNo":215551,"hash":"08fb10b53edb62b07ed7bf3a4a93411142e19941bea56c96cc3af9deb76bfd0c","time":"2022/11/24 09:37:22","txCount":14,"totalFees":5365799,"totalOutput":1750106878042,"slotLeader":"41b8741536cd484687a4c3adcdc07211cfce03ca58727212336acc5e"},{"blockNo":8053826,"slotNo":77716328,"epochNo":377,"epochSlotNo":215528,"hash":"ccfe2d5951ef161032989d5ee00caec18d22c72ca678b1364502f7289c91f255","time":"2022/11/24 09:36:59","txCount":4,"totalFees":892610,"totalOutput":1666418674,"slotLeader":"3a2c7b31a5024ea2cfed07205500a4d55f9d71f2691227d77bb2dc66"},{"blockNo":8053825,"slotNo":77716323,"epochNo":377,"epochSlotNo":215523,"hash":"16fc06acaebcedf3dd800fc060ab9e1fc64c637e3c47782cc653f8e904c68c6f","time":"2022/11/24 09:36:54","txCount":15,"totalFees":6756211,"totalOutput":7724848713701,"slotLeader":"e4abcf4408584601e7c707a8902996c0c291e1a3c8300b327ae3f6ab"}],"totalItems":8054020,"totalPages":402701,"currentPage":0}