{"data":[{"blockNo":8116974,"slotNo":79012873,"epochNo":380,"epochSlotNo":216073,"hash":"918eef5e848e090f5d830593373ddeac64e5f8b572e17cb5a60b2309c1861a87","time":"2022/12/09 09:46:04","txCount":3,"totalFees":521275,"totalOutput":3384019054,"slotLeader":"6539a70bb6e61540444133eab3a24288d1cd3ddc3598adde93475513"},{"blockNo":8116973,"slotNo":79012870,"epochNo":380,"epochSlotNo":216070,"hash":"8e35d1d454c323b2e1e8822afc21e534fe15402bcd9662016c1858780939c7b0","time":"2022/12/09 09:46:01","txCount":1,"totalFees":171221,"totalOutput":506726137,"slotLeader":"cb9a5414581696cf9176787e99472790355a7de61d67a5643da95a86"},{"blockNo":8116972,"slotNo":79012868,"epochNo":380,"epochSlotNo":216068,"hash":"dddfce8c6abb733e030f208ca294ab35b2ad12d11bf57364992c1121951556dc","time":"2022/12/09 09:45:59","txCount":11,"totalFees":4139842,"totalOutput":13292004583,"slotLeader":"c3cd2527a5f0b82a86ff69fdd5a3440dc51bcb957953ba19137738c0"},{"blockNo":8116971,"slotNo":79012843,"epochNo":380,"epochSlotNo":216043,"hash":"9673cc81e833255ba74969280cc7b4d47d06181888519d2952183cb0c84c8484","time":"2022/12/09 09:45:34","txCount":11,"totalFees":3684650,"totalOutput":124408301896,"slotLeader":"60397646d7d1ad6fe2ddccfe7efc9cba61f6d3d94d29e8f41de73240"},{"blockNo":8116970,"slotNo":79012816,"epochNo":380,"epochSlotNo":216016,"hash":"1049e7c97b1c62034be1328a9b65e2a6af48df2cb72b99247401c16e3fda67fa","time":"2022/12/09 09:45:07","txCount":8,"totalFees":1708788,"totalOutput":90223100763,"slotLeader":"b44181287c72d0c7b1bce6a57173cdf739ac77d030bdfc4606138dd2"},{"blockNo":8116969,"slotNo":79012793,"epochNo":380,"epochSlotNo":215993,"hash":"a587630138d9ce007ec0644ab607c1283d911ba94e89fcca691f99200e93f004","time":"2022/12/09 09:44:44","txCount":3,"totalFees":1682018,"totalOutput":18462210252,"slotLeader":"d679d78bbfefe7e03e05e7a42f9088075af0f15f501a631c67e64037"},{"blockNo":8116968,"slotNo":79012787,"epochNo":380,"epochSlotNo":215987,"hash":"78d188da48e50f5c3d04ffd92fbfe0bd921efeab5247519f19a80d7fde0f9f57","time":"2022/12/09 09:44:38","txCount":11,"totalFees":2471755,"totalOutput":22097611404,"slotLeader":"213ccec05701bd77a8613e48f09ea42504c50d5d709ad16339ef0638"},{"blockNo":8116967,"slotNo":79012767,"epochNo":380,"epochSlotNo":215967,"hash":"501f9eed857a3ee8ab5337d3a925d64c8b7ff7a022c7ed52cbc8e1f86c1d91e3","time":"2022/12/09 09:44:18","txCount":6,"totalFees":3830676,"totalOutput":142329910967,"slotLeader":"c83beb18d532234c72a304ab935982be670c22e771b227a3febc3a82"},{"blockNo":8116966,"slotNo":79012749,"epochNo":380,"epochSlotNo":215949,"hash":"cc4936ee2bd7641b5ae3b73498aaf2bf84003ca405ab22bde635de2dbb20e7da","time":"2022/12/09 09:44:00","txCount":15,"totalFees":4663727,"totalOutput":350875694663,"slotLeader":"72583cf41012446cd1ca839c10049ecd65d31664b11e63d286041d61"},{"blockNo":8116965,"slotNo":79012727,"epochNo":380,"epochSlotNo":215927,"hash":"d75369a89398be2afeb104fc193848ae67fdeef2d59c155bda3553a7e2e8fd24","time":"2022/12/09 09:43:38","txCount":20,"totalFees":4906467,"totalOutput":1227206167997,"slotLeader":"ec6cdcad62633e065be5d96eecea28464144a1827adc0cba98d29a23"}],"totalItems":10651,"totalPages":1066,"currentPage":0}