{"data":[{"blockNo":8363669,"slotNo":84085628,"epochNo":392,"epochSlotNo":104828,"hash":"bb01872875312d7c1c0b66d067e748481d10fd9c449089593b1dff97f5c49768","time":"2023/02/06 02:51:59","txCount":5,"totalFees":2131273,"totalOutput":28787439845,"slotLeader":"cb9a5414581696cf9176787e99472790355a7de61d67a5643da95a86"},{"blockNo":8363668,"slotNo":84085622,"epochNo":392,"epochSlotNo":104822,"hash":"c958439bed806f60318036efde94980d08f9db3393e50c0c39c9897e67f013e4","time":"2023/02/06 02:51:53","txCount":24,"totalFees":7029070,"totalOutput":1515153758269,"slotLeader":"d679d78bbfefe7e03e05e7a42f9088075af0f15f501a631c67e64037"},{"blockNo":8363667,"slotNo":84085590,"epochNo":392,"epochSlotNo":104790,"hash":"44cc590ec8a2d2f687c5dafeb1a18ac46916d41090199260c9c3fefecc0e8aac","time":"2023/02/06 02:51:21","txCount":6,"totalFees":1964650,"totalOutput":1945241337,"slotLeader":"7c5d59f69e113939aa1e19f081cc0884e2b85a55768a4347bf356191"},{"blockNo":8363666,"slotNo":84085584,"epochNo":392,"epochSlotNo":104784,"hash":"32ceafcf4f2378854e20f9ef8f6c41fea7e2129dbb2b8ce77a3c937e73b53e02","time":"2023/02/06 02:51:15","txCount":35,"totalFees":11710800,"totalOutput":25666208967783,"slotLeader":"d2b32bb469f6e8bcd6e1e0ba818716d317e3f26d0a93f317b08fdced"},{"blockNo":8363665,"slotNo":84085531,"epochNo":392,"epochSlotNo":104731,"hash":"a586ff0aff283e52b186bf926c65f14631684b3dc01ffc4f0c499032bb488d47","time":"2023/02/06 02:50:22","txCount":2,"totalFees":990787,"totalOutput":12983075890,"slotLeader":"c80d3b1f64feed0697bb97c97867a63ff1c33cb8b472bc33fdfa457e"},{"blockNo":8363664,"slotNo":84085528,"epochNo":392,"epochSlotNo":104728,"hash":"acfeedd5857581cc3761bc73fde68e0293879ca8055e54b6d20feaa882c907ad","time":"2023/02/06 02:50:19","txCount":9,"totalFees":2954335,"totalOutput":81548447184,"slotLeader":"1c8cd022e993a8366be641c17cb6d9c5d8944e00bfce3189d8b1515a"},{"blockNo":8363663,"slotNo":84085519,"epochNo":392,"epochSlotNo":104719,"hash":"7bfa3226697989ed52177ec9a52327760a8b6a09e30f3663c6f4f9b9daf318b8","time":"2023/02/06 02:50:10","txCount":10,"totalFees":3979440,"totalOutput":25178858620,"slotLeader":"455778840915ea2ec843bfee7269c1e0963b08ce5d1cdf029e39cb59"},{"blockNo":8363662,"slotNo":84085501,"epochNo":392,"epochSlotNo":104701,"hash":"38669485c5b0bd37abaac3da992abfadaec4a95db2e8364ba0067ed9bf518ff5","time":"2023/02/06 02:49:52","txCount":25,"totalFees":7278856,"totalOutput":1719091601788,"slotLeader":"fdb0d8ba88d434c8dd3ab3974a3401efc7b016e54c7387c63398aec4"},{"blockNo":8363661,"slotNo":84085477,"epochNo":392,"epochSlotNo":104677,"hash":"bc8cfafb1285401b777147d9fa00095c4a0942eaabe56303dd2730ae15f39046","time":"2023/02/06 02:49:28","txCount":47,"totalFees":15302878,"totalOutput":1614471281892,"slotLeader":"c7e431518477a4156c2a8cd6523a6a73514e7fbbbf7eed363b9a22ad"},{"blockNo":8363660,"slotNo":84085429,"epochNo":392,"epochSlotNo":104629,"hash":"a072ff640963a0115554d20175a66d7b9ffc331379655ca74f6f4648cc9b47bf","time":"2023/02/06 02:48:40","txCount":18,"totalFees":8572240,"totalOutput":5704379904393,"slotLeader":"93ca5c2f1eb63054f7c768a807408a43e65d7c68fe56e330db20af51"}],"totalItems":4862,"totalPages":487,"currentPage":0}