{"data":[{"hash":"1ef2454c2fdf26799f193028f2713aeafb80361687a91b5f794366e9f38401ff","blockNo":8057351,"blockHash":"643214e4b070c85ee90e3a0c4db1366092b9696248da9153c88eb61970e76da9","epochNo":377,"epochSlotNo":287506,"slot":77788306,"time":"2022/11/25 05:36:37","addressesInput":["addr1qy6ztlh3405ynlvc4ftqnkxd75fftxunj7v2s2ndddlatgr80me9dccjs5n5zva9ss48zh3f7ulrmg40rezzl6tdyphsd9d20q","addr1zxgx3far7qygq0k6epa0zcvcvrevmn0ypsnfsue94nsn3tvpw288a4x0xf8pxgcntelxmyclq83s0ykeehchz2wtspks905plm"],"addressesOutput":["addr1zxgx3far7qygq0k6epa0zcvcvrevmn0ypsnfsue94nsn3tvpw288a4x0xf8pxgcntelxmyclq83s0ykeehchz2wtspks905plm","addr1qxlrq79ygkv4hahy6fq3n4aytvjfjn2mwyxkd4hf3jck4sn80me9dccjs5n5zva9ss48zh3f7ulrmg40rezzl6tdyphsn57dxc"],"fee":301416,"totalOutput":6043304,"tokens":[]},{"hash":"d9090171f5382bb4f750a000c26fc10814fdd5a6625a47123201321b81c03df6","blockNo":8057351,"blockHash":"643214e4b070c85ee90e3a0c4db1366092b9696248da9153c88eb61970e76da9","epochNo":377,"epochSlotNo":287506,"slot":77788306,"time":"2022/11/25 05:36:37","addressesInput":["addr1zxgx3far7qygq0k6epa0zcvcvrevmn0ypsnfsue94nsn3tvpw288a4x0xf8pxgcntelxmyclq83s0ykeehchz2wtspks905plm","addr1q8e8yp0mkw4nvyc44quspnku4lpq0wu3j55zwprjxlnj9ma56wknhpkhxgpmrv2edpt62yd9vsl3zzkhluccrmmw4fnqrt6cc8"],"addressesOutput":["addr1zxgx3far7qygq0k6epa0zcvcvrevmn0ypsnfsue94nsn3tvpw288a4x0xf8pxgcntelxmyclq83s0ykeehchz2wtspks905plm","addr1q8e8yp0mkw4nvyc44quspnku4lpq0wu3j55zwprjxlnj9ma56wknhpkhxgpmrv2edpt62yd9vsl3zzkhluccrmmw4fnqrt6cc8"],"fee":297178,"totalOutput":151000132,"tokens":[]},{"hash":"64b56cd59f0355f1345af6eaa0d0f7ca336f73fc3c1d8e8e735cd4abbe220569","blockNo":8057351,"blockHash":"643214e4b070c85ee90e3a0c4db1366092b9696248da9153c88eb61970e76da9","epochNo":377,"epochSlotNo":287506,"slot":77788306,"time":"2022/11/25 05:36:37","addressesInput":["addr1q836qf2vqzv57uc42rupyw039fsvnlfuaxumry25x9fwcg43hmpsthwgqxya4j9k9rhq4ha72fzu2wuyueuw6lkz846sde0a0x","addr1q836qf2vqzv57uc42rupyw039fsvnlfuaxumry25x9fwcg43hmpsthwgqxya4j9k9rhq4ha72fzu2wuyueuw6lkz846sde0a0x","addr1q836qf2vqzv57uc42rupyw039fsvnlfuaxumry25x9fwcg43hmpsthwgqxya4j9k9rhq4ha72fzu2wuyueuw6lkz846sde0a0x"],"addressesOutput":["addr1zyq0kyrml023kwjk8zr86d5gaxrt5w8lxnah8r6m6s4jp4g3r6dxnzml343sx8jweqn4vn3fz2kj8kgu9czghx0jrsyqqktyhv","addr1q9ad5mud938r7l24eaac4v57ydlj72hazgprts9f7daaz09mm95jvs5h94099yglxr7v6ug6pp43780huy040lm4utmqx8g5eu","addr1q836qf2vqzv57uc42rupyw039fsvnlfuaxumry25x9fwcg43hmpsthwgqxya4j9k9rhq4ha72fzu2wuyueuw6lkz846sde0a0x"],"fee":208442,"totalOutput":10275097,"tokens":[]},{"hash":"8bfb217b4f319fcf8046d39be33ae7109bd07fb49bd864ca99410f9146571d8a","blockNo":8057351,"blockHash":"643214e4b070c85ee90e3a0c4db1366092b9696248da9153c88eb61970e76da9","epochNo":377,"epochSlotNo":287506,"slot":77788306,"time":"2022/11/25 05:36:37","addressesInput":["addr1wxn9efv2f6w82hagxqtn62ju4m293tqvw0uhmdl64ch8uwc0h43gt","addr1qyht4ja0zcn45qvyx477qlyp6j5ftu5ng0prt9608dxp6l2j2c79gy9l76sdg0xwhd7r0c0kna0tycz4y5s6mlenh8pq4jxtdy","addr1z8snz7c4974vzdpxu65ruphl3zjdvtxw8strf2c2tmqnxz2j2c79gy9l76sdg0xwhd7r0c0kna0tycz4y5s6mlenh8pq0xmsha","addr1qyht4ja0zcn45qvyx477qlyp6j5ftu5ng0prt9608dxp6l2j2c79gy9l76sdg0xwhd7r0c0kna0tycz4y5s6mlenh8pq4jxtdy"],"addressesOutput":["addr1qyht4ja0zcn45qvyx477qlyp6j5ftu5ng0prt9608dxp6l2j2c79gy9l76sdg0xwhd7r0c0kna0tycz4y5s6mlenh8pq4jxtdy","addr1qyht4ja0zcn45qvyx477qlyp6j5ftu5ng0prt9608dxp6l2j2c79gy9l76sdg0xwhd7r0c0kna0tycz4y5s6mlenh8pq4jxtdy","addr1q94mjtkaq5wlja3h85edp3r0ahf9zm0f7ja9kq4dyd6cd9ws7s24dud677gdu6gy7s34uu9c084pjwk8cf7x0esap98qlvyc7w","addr1z8snz7c4974vzdpxu65ruphl3zjdvtxw8strf2c2tmqnxz2j2c79gy9l76sdg0xwhd7r0c0kna0tycz4y5s6mlenh8pq0xmsha"],"fee":805747,"totalOutput":1466427040587,"tokens":[]},{"hash":"9fba23f595dc2a3cf48869c3652d4ff3a3970d35d4f7f6e8070d54898c42b030","blockNo":8057351,"blockHash":"643214e4b070c85ee90e3a0c4db1366092b9696248da9153c88eb61970e76da9","epochNo":377,"epochSlotNo":287506,"slot":77788306,"time":"2022/11/25 05:36:37","addressesInput":["addr1qyht4ja0zcn45qvyx477qlyp6j5ftu5ng0prt9608dxp6l2j2c79gy9l76sdg0xwhd7r0c0kna0tycz4y5s6mlenh8pq4jxtdy","addr1qyht4ja0zcn45qvyx477qlyp6j5ftu5ng0prt9608dxp6l2j2c79gy9l76sdg0xwhd7r0c0kna0tycz4y5s6mlenh8pq4jxtdy","addr1wxn9efv2f6w82hagxqtn62ju4m293tqvw0uhmdl64ch8uwc0h43gt","addr1z8snz7c4974vzdpxu65ruphl3zjdvtxw8strf2c2tmqnxz2j2c79gy9l76sdg0xwhd7r0c0kna0tycz4y5s6mlenh8pq0xmsha"],"addressesOutput":["addr1qyht4ja0zcn45qvyx477qlyp6j5ftu5ng0prt9608dxp6l2j2c79gy9l76sdg0xwhd7r0c0kna0tycz4y5s6mlenh8pq4jxtdy","addr1qyht4ja0zcn45qvyx477qlyp6j5ftu5ng0prt9608dxp6l2j2c79gy9l76sdg0xwhd7r0c0kna0tycz4y5s6mlenh8pq4jxtdy","addr1q8g4a9kqrfht264dxwxf5d7clj967l55qfghk2sywwgsxjqfzm0x98r5qmjsagcevp9d9mx7a2sv05qew38a6up2q6dsduggkp","addr1z8snz7c4974vzdpxu65ruphl3zjdvtxw8strf2c2tmqnxz2j2c79gy9l76sdg0xwhd7r0c0kna0tycz4y5s6mlenh8pq0xmsha"],"fee":805751,"totalOutput":2906937905647,"tokens":[]},{"hash":"b400623a564393099b382a302f5cda5173bee6b37068fae012a6c15b26b79149","blockNo":8057351,"blockHash":"643214e4b070c85ee90e3a0c4db1366092b9696248da9153c88eb61970e76da9","epochNo":377,"epochSlotNo":287506,"slot":77788306,"time":"2022/11/25 05:36:37","addressesInput":["addr1zxgx3far7qygq0k6epa0zcvcvrevmn0ypsnfsue94nsn3tvpw288a4x0xf8pxgcntelxmyclq83s0ykeehchz2wtspks905plm","addr1zxgx3far7qygq0k6epa0zcvcvrevmn0ypsnfsue94nsn3tvpw288a4x0xf8pxgcntelxmyclq83s0ykeehchz2wtspks905plm"],"addressesOutput":["addr1qyms8fxcduyxw5cg4cmslmzxlmk789cjtgn3k9khnxdxjp34jwhdumf7vr72emxcn2pf8pcftergg8zsta6la2sy45csn6phrv","addr1q86ylp637q7hv7a9r387nz8d9zdhem2v06pjyg75fvcmen3rg8t4q3f80r56p93xqzhcup0w7e5heq7lnayjzqau3dfs7yrls5","addr1q9cwvremt6n320s2e3agq0jyq82yhrk3htsu0w426xnz5us70z4w0jgvcdkkynmm8wmds66jd9kusnjfpu6raw5fqp0sr07p5w","addr1q9m5lelgu6sh23cxd9wpstvleq405jhpeydkpa7gyz5nygxhq4e2ceq9jenu7hcwmts58ccvfs4t766k22tvnef6g9gq888egk","addr1qyms8fxcduyxw5cg4cmslmzxlmk789cjtgn3k9khnxdxjp34jwhdumf7vr72emxcn2pf8pcftergg8zsta6la2sy45csn6phrv"],"fee":504816,"totalOutput":17857144,"tokens":[]},{"hash":"775301965dbf9cd9064ee6e9f926438a0e2cc966662c89f787b676c232d24daf","blockNo":8057351,"blockHash":"643214e4b070c85ee90e3a0c4db1366092b9696248da9153c88eb61970e76da9","epochNo":377,"epochSlotNo":287506,"slot":77788306,"time":"2022/11/25 05:36:37","addressesInput":["addr1qydz5w73sq4e7npqwsq53vhg2ggfr06hpduzl65nh4xt07qjw6wq4vmgp82pltzp7r3vkgn6jzmfcavcdywfdmjxpv2qn6laz9","addr1qydz5w73sq4e7npqwsq53vhg2ggfr06hpduzl65nh4xt07qjw6wq4vmgp82pltzp7r3vkgn6jzmfcavcdywfdmjxpv2qn6laz9"],"addressesOutput":["addr1vx75gxdl0u6pm49x0hjt290qz7d6j0uuts085p8n7eh2fscahd885","addr1qyf83cdesygvtrn8pj0gltna2pemhlak70dl4y23jkfz2eqjw6wq4vmgp82pltzp7r3vkgn6jzmfcavcdywfdmjxpv2qqf4zrd"],"fee":168669,"totalOutput":3915545,"tokens":[]},{"hash":"65973758d8135519e2054298135c2ee213361e0f9ddfcd0974ae3ee89653e7c4","blockNo":8057351,"blockHash":"643214e4b070c85ee90e3a0c4db1366092b9696248da9153c88eb61970e76da9","epochNo":377,"epochSlotNo":287506,"slot":77788306,"time":"2022/11/25 05:36:37","addressesInput":["addr1qxaaek6sjaedhgm5gg8tuhrxwfxmzwv0flth90ayjvl4cwsltum7tl952rkkn2f8778my7wt326sv88k9werlamzmz4qvtlyxu","addr1qymw5m8z29k3q3vxv6w8ktrczghkyc34z0tzpf9gzf3ayjsltum7tl952rkkn2f8778my7wt326sv88k9werlamzmz4q8zaat8","addr1qymw5m8z29k3q3vxv6w8ktrczghkyc34z0tzpf9gzf3ayjsltum7tl952rkkn2f8778my7wt326sv88k9werlamzmz4q8zaat8"],"addressesOutput":["addr1q9dg4j0m43c9tr2p5few9u23qjs8reqsjw79qjwfkgkjt7jt3yuspeaklty2awyp4qghdx5dftfjzxr227wua24a4l7skjj56e"],"fee":1061976,"totalOutput":2407231,"tokens":[]},{"hash":"24d82ec3f84eaacfaea61032e98f1215e66b35e4548803eb022b9a1cf66be445","blockNo":8057351,"blockHash":"643214e4b070c85ee90e3a0c4db1366092b9696248da9153c88eb61970e76da9","epochNo":377,"epochSlotNo":287506,"slot":77788306,"time":"2022/11/25 05:36:37","addressesInput":["addr1qxgz8fpkldthrqt8ghr4jswa490sjqru56lhsy7dk8p273uyua3r3nmdv3rha7ph00nfew3raywquk3rrlhs4tx9vncq52p4qf"],"addressesOutput":["DdzFFzCqrhszAbm6H6eRSxnErthBeNb92rW8W6Ph9UGfphAtACFzb5BcH7dSnWKhbzy619nJQ8QM5H2HWMfbLgrmb6ZQfxW6zp9Z9iwY","addr1q85djk4exqesvc4khvpxss0fjzp4gtvhgc22c2uq7nwag0vyua3r3nmdv3rha7ph00nfew3raywquk3rrlhs4tx9vncq8mlr8a"],"fee":168977,"totalOutput":4391939309,"tokens":[]},{"hash":"eabdefec7f28318df5c3ffd9c46c1a9c2fcee2800ec868a50367c493b7434bb8","blockNo":8057351,"blockHash":"643214e4b070c85ee90e3a0c4db1366092b9696248da9153c88eb61970e76da9","epochNo":377,"epochSlotNo":287506,"slot":77788306,"time":"2022/11/25 05:36:37","addressesInput":["addr1qypd8atkf57s526vq9up5spkr7vuccaq68c53mz8cn4742krpf9md6h4mvkwkhqfntlqgmjlu57594pl7wylczehs48q8g96vt","addr1wxdct40gvyv525zlq79wahkuhmgadjs3q5lkrclemxvlu3qyda7l2"],"addressesOutput":["addr1qxkmr0m22xeqludcg5rjdmecjxasu9fat0680qehtcsnftaadgykewa9ufvegeuca9yyq03d9v7ea2y2zthgu7hfgjtsddp6gr","addr1qypd8atkf57s526vq9up5spkr7vuccaq68c53mz8cn4742krpf9md6h4mvkwkhqfntlqgmjlu57594pl7wylczehs48q8g96vt","addr1qypd8atkf57s526vq9up5spkr7vuccaq68c53mz8cn4742krpf9md6h4mvkwkhqfntlqgmjlu57594pl7wylczehs48q8g96vt"],"fee":343358,"totalOutput":30302226,"tokens":[]},{"hash":"5fc06912d1e56f53e703375375017cf52e46ce75c1f8e03d3d2f8fa0056a6004","blockNo":8057351,"blockHash":"643214e4b070c85ee90e3a0c4db1366092b9696248da9153c88eb61970e76da9","epochNo":377,"epochSlotNo":287506,"slot":77788306,"time":"2022/11/25 05:36:37","addressesInput":["addr1q9mt9zdz4lppglgnzrc4g3un83nss56cp87sgpmnqafpq3zgjpxlyhldygqhqmhvk63vqjzy3ml3aj576x7j48nl2cxsz8fghz","addr1q9mt9zdz4lppglgnzrc4g3un83nss56cp87sgpmnqafpq3zgjpxlyhldygqhqmhvk63vqjzy3ml3aj576x7j48nl2cxsz8fghz"],"addressesOutput":["addr1zxgx3far7qygq0k6epa0zcvcvrevmn0ypsnfsue94nsn3tvpw288a4x0xf8pxgcntelxmyclq83s0ykeehchz2wtspks905plm","addr1q9mt9zdz4lppglgnzrc4g3un83nss56cp87sgpmnqafpq3zgjpxlyhldygqhqmhvk63vqjzy3ml3aj576x7j48nl2cxsz8fghz","addr1q9mt9zdz4lppglgnzrc4g3un83nss56cp87sgpmnqafpq3zgjpxlyhldygqhqmhvk63vqjzy3ml3aj576x7j48nl2cxsz8fghz"],"fee":217157,"totalOutput":548973799,"tokens":[]},{"hash":"bfe35da8f110dc64fcad1767847212d2fe7e6956297aeccfe97e51f66204fdfa","blockNo":8057351,"blockHash":"643214e4b070c85ee90e3a0c4db1366092b9696248da9153c88eb61970e76da9","epochNo":377,"epochSlotNo":287506,"slot":77788306,"time":"2022/11/25 05:36:37","addressesInput":["addr1vypr00ss7hkqejmvh53xkyf0p9q0a4z2uprxmx6njc463vgst3pe4"],"addressesOutput":["addr1qxxx6439cqp0uegdp2avwvhz8g0xkdgrnvrkap6ju5yzy5vdey2erq7gc5dxl5f04spatw2fzzu8d7nklq632sjts8uq4cfstc","addr1vypr00ss7hkqejmvh53xkyf0p9q0a4z2uprxmx6njc463vgst3pe4"],"fee":171221,"totalOutput":2712632593,"tokens":[]},{"hash":"4d0e6603e25a94ad68f5b09805926437727d8ea9162b9393b4d0c2cd3cae37d0","blockNo":8057350,"blockHash":"b86a61b0fca5a5a0c28559b9e07bff2d4fefbc69cfceb788cccdb40c7c1847a3","epochNo":377,"epochSlotNo":287474,"slot":77788274,"time":"2022/11/25 05:36:05","addressesInput":["DdzFFzCqrht9qKYfgEvvX5u7jsWgevrCTamroCUv9phMxYMBFEBpz6pTCvuviJ7qz5MzWtZ3zjraCjZkcfJSyXDZPthXfbk1sX3XoQt6"],"addressesOutput":["addr1q8xts0tg3tn45ajkdstu8pa3lfw6vaz5c5e4l24ss4ytpz9ul7cfllmr5pq6nrfv7mtvvapnkxddgskvw2j8nfc6aafqzk464r","DdzFFzCqrhsiAKzFsYKoaY2QTauy8iMzVwbbVCtpBgP4aeTjL7SXEzcA1QRpJ8DXm3NJRbArnptu8DrHJ1raFwRJsugwX3oPR6ud2cNk"],"fee":395357,"totalOutput":2118909119898,"tokens":[]},{"hash":"74556e3564498b7aefa16a6d8275f4d08d8c1c9c64ac99fb454218a35617ca71","blockNo":8057350,"blockHash":"b86a61b0fca5a5a0c28559b9e07bff2d4fefbc69cfceb788cccdb40c7c1847a3","epochNo":377,"epochSlotNo":287474,"slot":77788274,"time":"2022/11/25 05:36:05","addressesInput":["addr1v95sf69jcfhnmknvffwmfvlvnccatqwfjcyh0nlfc6gh5scta2yzg"],"addressesOutput":["Ae2tdPwUPEZC9p1xhcgjYDuivBDiEwh1XT99pEE8umHKRrpuSaa2e18FXiL","addr1v95sf69jcfhnmknvffwmfvlvnccatqwfjcyh0nlfc6gh5scta2yzg"],"fee":171221,"totalOutput":31298853,"tokens":[]},{"hash":"191465da287dc20956ab31cf51ad0877ab81605f4e2610c8f799d44a1dd1fd47","blockNo":8057350,"blockHash":"b86a61b0fca5a5a0c28559b9e07bff2d4fefbc69cfceb788cccdb40c7c1847a3","epochNo":377,"epochSlotNo":287474,"slot":77788274,"time":"2022/11/25 05:36:05","addressesInput":["addr1qyzafyyu3cn52tsw6kjx92mn3m9zdlplyvf7xux3zccs7pq8zl9jz4auczz27sskqj2pvrvxv7s8r2w8x7rrkxrj9fuq5gl7hx"],"addressesOutput":["DdzFFzCqrhssGXxSYGWrgU8frrU6piaWjDytuFwpBCvATDQe7ABEz9Qx2Q8Ra8jKASd5UkpfHedzPeMWJHD9tHq6rPbKD7YKxpJzmqiw","addr1qyx27fdnh6c4pjd4x3sads2vdvypvlu9375mnv42x8tntfc8zl9jz4auczz27sskqj2pvrvxv7s8r2w8x7rrkxrj9fuqtsuywv"],"fee":176457,"totalOutput":312037933263,"tokens":[]},{"hash":"4885ede1ed82e56baa24ef80f6daf99206357d0600f922d40bbe41f57e2be24c","blockNo":8057350,"blockHash":"b86a61b0fca5a5a0c28559b9e07bff2d4fefbc69cfceb788cccdb40c7c1847a3","epochNo":377,"epochSlotNo":287474,"slot":77788274,"time":"2022/11/25 05:36:05","addressesInput":["addr1v8sc6u6st0nyyq39a54y9j8fwhjvd7g532eca9g75ftju4qfxjys9","addr1w8f845ld0vrnqxx598jhctudrafygk4zg83gpek6zjdfrdq6le7ag"],"addressesOutput":["addr1w8f845ld0vrnqxx598jhctudrafygk4zg83gpek6zjdfrdq6le7ag","addr1v8sc6u6st0nyyq39a54y9j8fwhjvd7g532eca9g75ftju4qfxjys9"],"fee":446192,"totalOutput":1635045552,"tokens":[]},{"hash":"13b805671a730a070c00f16b03fa5ecd3e2ca39c506bbac00e36f4200a392f91","blockNo":8057350,"blockHash":"b86a61b0fca5a5a0c28559b9e07bff2d4fefbc69cfceb788cccdb40c7c1847a3","epochNo":377,"epochSlotNo":287474,"slot":77788274,"time":"2022/11/25 05:36:05","addressesInput":["addr1v9hseyrgphxrwnwaa93d0sfufkp0vc5hfd5emkcdxhc7z9ge825hy"],"addressesOutput":["addr1qy64vhd83a0ls2eru5ccn7uxcj5ltnfskej2zu2gtmc66j7jn8z9juw3fk8g626vr8ulu7v8y7ce0g65fgxrmeauazfqmjqa3g","addr1qy64vhd83a0ls2eru5ccn7uxcj5ltnfskej2zu2gtmc66j7jn8z9juw3fk8g626vr8ulu7v8y7ce0g65fgxrmeauazfqmjqa3g"],"fee":211833,"totalOutput":2788167,"tokens":[]},{"hash":"87e5d1d33fed6948b968202669bce8145c61c07bbf960afa68b5ea049468b67a","blockNo":8057350,"blockHash":"b86a61b0fca5a5a0c28559b9e07bff2d4fefbc69cfceb788cccdb40c7c1847a3","epochNo":377,"epochSlotNo":287474,"slot":77788274,"time":"2022/11/25 05:36:05","addressesInput":["addr1qyzlazpage4shn25l4rgqd2hz7pr9966jvx34qhlt7upuf7feqzunfuzdvas294dmd6d265aep7u87eg8ypwx4flq84q7y2j5x"],"addressesOutput":["addr1qxv0s28pgvrmrk8rtlhkxcdsdyhy2w8p6t48gtwdn0v77yfzee46x0drl8yvl6eyacqxvfvnwfcp3tysafmcdhqtdg3sgxafr5","addr1qyzlazpage4shn25l4rgqd2hz7pr9966jvx34qhlt7upuf7feqzunfuzdvas294dmd6d265aep7u87eg8ypwx4flq84q7y2j5x"],"fee":169153,"totalOutput":136129958458,"tokens":[]},{"hash":"f44aa05274ca2272fe6452495a273093af7a76c97bb17e6bee6d4327313d5e11","blockNo":8057350,"blockHash":"b86a61b0fca5a5a0c28559b9e07bff2d4fefbc69cfceb788cccdb40c7c1847a3","epochNo":377,"epochSlotNo":287474,"slot":77788274,"time":"2022/11/25 05:36:05","addressesInput":["addr1qy3pldqadrmf90gcpkadmcnz4ru599jxdzkdn562tr7807rfyqn0v9sshqr8g3dguc99aj84k37e0k6xcen728usmdsqq2mmg6","addr1qy3pldqadrmf90gcpkadmcnz4ru599jxdzkdn562tr7807rfyqn0v9sshqr8g3dguc99aj84k37e0k6xcen728usmdsqq2mmg6","addr1qy3pldqadrmf90gcpkadmcnz4ru599jxdzkdn562tr7807rfyqn0v9sshqr8g3dguc99aj84k37e0k6xcen728usmdsqq2mmg6","addr1qy3pldqadrmf90gcpkadmcnz4ru599jxdzkdn562tr7807rfyqn0v9sshqr8g3dguc99aj84k37e0k6xcen728usmdsqq2mmg6"],"addressesOutput":["addr1zxgx3far7qygq0k6epa0zcvcvrevmn0ypsnfsue94nsn3tvpw288a4x0xf8pxgcntelxmyclq83s0ykeehchz2wtspks905plm","addr1qy3pldqadrmf90gcpkadmcnz4ru599jxdzkdn562tr7807rfyqn0v9sshqr8g3dguc99aj84k37e0k6xcen728usmdsqq2mmg6","addr1qy3pldqadrmf90gcpkadmcnz4ru599jxdzkdn562tr7807rfyqn0v9sshqr8g3dguc99aj84k37e0k6xcen728usmdsqq2mmg6","addr1qy3pldqadrmf90gcpkadmcnz4ru599jxdzkdn562tr7807rfyqn0v9sshqr8g3dguc99aj84k37e0k6xcen728usmdsqq2mmg6"],"fee":255217,"totalOutput":156678160,"tokens":[]},{"hash":"cfb71a73a019419928e7d9b51de52d4e96308f9dfe8e720b508e1640ee5632d8","blockNo":8057350,"blockHash":"b86a61b0fca5a5a0c28559b9e07bff2d4fefbc69cfceb788cccdb40c7c1847a3","epochNo":377,"epochSlotNo":287474,"slot":77788274,"time":"2022/11/25 05:36:05","addressesInput":["addr1q9wf4s7hzv3c5h67d682lpxy6vvx9uqkecngmy6k98mt9frla6zx5nh72mcsj9z3drcg46nulrtquqa42m72fel73m6qd7tdht","addr1q9wf4s7hzv3c5h67d682lpxy6vvx9uqkecngmy6k98mt9frla6zx5nh72mcsj9z3drcg46nulrtquqa42m72fel73m6qd7tdht","addr1wy30zf2g4xc7v872fdweewrlj3lh2lgttelmydn0cvhyplsg3vnkq"],"addressesOutput":["addr1q9wf4s7hzv3c5h67d682lpxy6vvx9uqkecngmy6k98mt9frla6zx5nh72mcsj9z3drcg46nulrtquqa42m72fel73m6qd7tdht","addr1wy30zf2g4xc7v872fdweewrlj3lh2lgttelmydn0cvhyplsg3vnkq"],"fee":976805,"totalOutput":27254786,"tokens":[]}],"totalItems":55318020,"totalPages":2765901,"currentPage":0}