{"data":[{"txId":56831734,"txHash":"f0f80c83b40072c0951197482360a18387786f58d107c9725ca581f3d19083fd","txTime":"2022/12/07 13:03:55","block":8108955,"epoch":380,"slotNo":78851944,"epochSlotNo":55144,"stakeKey":"stake1uy6nyffnaz7sxczm9c74rdjay5qhs9tlee3yxwm9lr43wgg6cnpqw"},{"txId":56831511,"txHash":"7c2429a11dfc24b6b4097a43eb2c90ab91b24c4f5012ff7c93629444168aba2d","txTime":"2022/12/07 13:00:11","block":8108940,"epoch":380,"slotNo":78851720,"epochSlotNo":54920,"stakeKey":"stake1u9tpcqxf2claskaty5mc3a2hah8nvv285e2sqxt9mlvrqpcm6l5h5"},{"txId":56831293,"txHash":"3576506da02f28566b9f233882b0b10166c257013457242297caf0852ebe4f3e","txTime":"2022/12/07 12:55:19","block":8108928,"epoch":380,"slotNo":78851428,"epochSlotNo":54628,"stakeKey":"stake1uxzskjxkx6txyqcmuhrtss8spqyr5s8qzftzzacqh3wd25qgmd4ms"},{"txId":56830971,"txHash":"0fbddb2db5ddc1aa9bd0535810ab501570c953ecbdaa3f4db5d65516cf47875f","txTime":"2022/12/07 12:48:30","block":8108909,"epoch":380,"slotNo":78851019,"epochSlotNo":54219,"stakeKey":"stake1u9ywycanuvegz6fsdklt8e3e8q8s92a8cqz0tm4q9llhnnc84wph9"},{"txId":56830735,"txHash":"1d46df40d281ef60a83ace197ad837c94d45ec4750e3fa6831dd78526bceb311","txTime":"2022/12/07 12:44:15","block":8108895,"epoch":380,"slotNo":78850764,"epochSlotNo":53964,"stakeKey":"stake1u8flscmjse2xpd5sz7s5zzje6uc9h08xxjyxyzcxf3gxd4stdu3g0"},{"txId":56830609,"txHash":"6c1d4f26d263ab83363bb64ea0ec6748c1d0ca49f65f6d0fe32d381f9576a610","txTime":"2022/12/07 12:42:13","block":8108887,"epoch":380,"slotNo":78850642,"epochSlotNo":53842,"stakeKey":"stake1u94zp887zte2xg22keh9cfeaf4739l7gahk3nyyh770xcwgk52e9p"},{"txId":56830213,"txHash":"da44d5a876afe1237d30cd5efd4c4cf6d8f13b1a075152755699cc377dc746c0","txTime":"2022/12/07 12:34:14","block":8108862,"epoch":380,"slotNo":78850163,"epochSlotNo":53363,"stakeKey":"stake1u82a8kfuepzukyvmx846p2dyp52ft797ejy24gntxy47qwsqcrh30"},{"txId":56830164,"txHash":"84d72c11c9f67573044c7ba599feb17dee91a316b92e571f9501bf1c7b5895cf","txTime":"2022/12/07 12:33:35","block":8108861,"epoch":380,"slotNo":78850124,"epochSlotNo":53324,"stakeKey":"stake1u9d5jr8tnh8zzk3g3tgt3mvjr0gyr5r9mhcw9lgw4067ygsmpgf9q"},{"txId":56829846,"txHash":"95568cb5ba43539a09ce5e7e16cf5be76d53d208bcac8cea5f9f465e1ac060a6","txTime":"2022/12/07 12:26:50","block":8108841,"epoch":380,"slotNo":78849719,"epochSlotNo":52919,"stakeKey":"stake1uxhkf65p8cy23axghncfjtulaqplxh3se38yhnz4f06y3kgtpvcnh"},{"txId":56829712,"txHash":"9c2d25d6f11937dc96f94d7a9a7169188d3408c53b802dcdd17ef61979617156","txTime":"2022/12/07 12:24:50","block":8108834,"epoch":380,"slotNo":78849599,"epochSlotNo":52799,"stakeKey":"stake1uylq9tckvte58g2t6mejqhhgxvvj7zemkatyk9qc5x5sm2q6au9n7"},{"txId":56829520,"txHash":"06d0b188eacf69e601a923b80480240c0fd4cc35d34ff239e1fc1b8563709d62","txTime":"2022/12/07 12:21:45","block":8108827,"epoch":380,"slotNo":78849414,"epochSlotNo":52614,"stakeKey":"stake1u9ds7f5mwq603lntfgllhhxucdhwfcn37xvy2ncfy0q35lcz5nukh"},{"txId":56829435,"txHash":"5fe48edb2b436e1259fff379edd6f01dcea630ca8de484391b8d028ea87b53de","txTime":"2022/12/07 12:19:14","block":8108823,"epoch":380,"slotNo":78849263,"epochSlotNo":52463,"stakeKey":"stake1u999qjj3fymm3cgg5cpdm82267h4dm99uezp9lh4cpa82dc2xkfnh"},{"txId":56829370,"txHash":"a62be1aa38a45e370e0f61c5667fb7315ecca0d3554a51d95c13ce1bd17bafc7","txTime":"2022/12/07 12:18:21","block":8108817,"epoch":380,"slotNo":78849210,"epochSlotNo":52410,"stakeKey":"stake1uy9gu75w4hahp8scdgvyvat58kqmrruj48ze88hhlsg4hlq6726xv"},{"txId":56829352,"txHash":"e3ecfc007fc46cccaf87f0207b6fa40148ee49393e35aaf40896c3b1c1d136d9","txTime":"2022/12/07 12:18:19","block":8108816,"epoch":380,"slotNo":78849208,"epochSlotNo":52408,"stakeKey":"stake1u9efcd6jg5aew2jytr8mx3sct4s6nnhcw69hlrdqj34gqxcw298rq"},{"txId":56829175,"txHash":"5770d30c575ec4c1b7465f4c4992ef08b075605e3e5be239ede096537a12eaed","txTime":"2022/12/07 12:14:37","block":8108802,"epoch":380,"slotNo":78848986,"epochSlotNo":52186,"stakeKey":"stake1ux3dlza90z2qxagffel6sevz30kqvk6sdv4h43ltpxe9pcsdu755u"},{"txId":56829047,"txHash":"ed9e2eacd0074ddb6f2d92fa0bc3c3d97050f118279a32b657c6acb28e0d7983","txTime":"2022/12/07 12:11:58","block":8108795,"epoch":380,"slotNo":78848827,"epochSlotNo":52027,"stakeKey":"stake1uyyjhttn3m9geffwcha00htnq33txv54mr3v5068qumjrjskz3m9f"},{"txId":56829042,"txHash":"4a0182807189ba4aeb83844ce2442624b734ab2de4d8d250b2fe7418c5adef55","txTime":"2022/12/07 12:11:58","block":8108795,"epoch":380,"slotNo":78848827,"epochSlotNo":52027,"stakeKey":"stake1u8pvpr39g4893au4fz9wl0a4akrrlt8w2mvvrfdyad5tsgqspt4fn"},{"txId":56828984,"txHash":"829de4c2c70f581fbf30be4276a04f99af529d2a2591166ba7c54620d4e64151","txTime":"2022/12/07 12:11:07","block":8108793,"epoch":380,"slotNo":78848776,"epochSlotNo":51976,"stakeKey":"stake1uy3jqk9c3jvjtfywcjfvmddq6nw24kam5589g8cddyfghecc2sd90"},{"txId":56828694,"txHash":"a1ee21c940449c451a99d7116a043f86c52b6e6101d2ce134fb735d5fed0658d","txTime":"2022/12/07 12:05:26","block":8108767,"epoch":380,"slotNo":78848435,"epochSlotNo":51635,"stakeKey":"stake1ux0y0nupk3pcutds8u9nfhd0pdjrfuaulsk7ddux6qhzx3sprvsr4"},{"txId":56828622,"txHash":"db226b7c3319142ccc56696911d75a2d10973197a40e5b84f8a6399e853b3c5f","txTime":"2022/12/07 12:03:43","block":8108763,"epoch":380,"slotNo":78848332,"epochSlotNo":51532,"stakeKey":"stake1u94c3azhna9z9h8zncrrz3ag62v0rjykt4hjhp8u967pxccym0kg0"}],"totalItems":1617331,"totalPages":80867,"currentPage":0}