{"data":[{"blockNo":8117976,"slotNo":79033278,"epochNo":380,"epochSlotNo":236478,"hash":"71019a9d81cffcdae570d1ae9df1218c476ca0d8dae6d4e4d8ea288e52eb1912","time":"2022/12/09 15:26:09","txCount":27,"totalFees":9986993,"totalOutput":4080645508353,"slotLeader":"6539a70bb6e61540444133eab3a24288d1cd3ddc3598adde93475513"},{"blockNo":8117975,"slotNo":79033256,"epochNo":380,"epochSlotNo":236456,"hash":"850f68bc7ab78bdcb01947470c5c71988a6f9d87f6d0a4f1de29301190725be7","time":"2022/12/09 15:25:47","txCount":45,"totalFees":12488845,"totalOutput":1834634493788,"slotLeader":"3a203ec1a8bae5098be953c3759e9fae42eea3d5714293500c6b3013"},{"blockNo":8117974,"slotNo":79033239,"epochNo":380,"epochSlotNo":236439,"hash":"fc24f0b04bcd971d6443dec259a4a17d25b647a952581f16b375de3432f998b8","time":"2022/12/09 15:25:30","txCount":38,"totalFees":12211140,"totalOutput":26253457594803,"slotLeader":"737929797be1a93e3a61cda089e33368e3b91f3884b0d684462a32ec"},{"blockNo":8117973,"slotNo":79033208,"epochNo":380,"epochSlotNo":236408,"hash":"72b32d00936033a77dd16b86322add03c49d67ecd342cb911da1706bca49a85a","time":"2022/12/09 15:24:59","txCount":36,"totalFees":12226797,"totalOutput":5111367654790,"slotLeader":"c5293f2ba88ac474787358b9c2f4fae7b3c4408f79cdf89a12c9ece4"},{"blockNo":8117972,"slotNo":79033124,"epochNo":380,"epochSlotNo":236324,"hash":"f3a2e12ba57124d5a0b12dbd2f08f34dfd144317825db1d32d4f427f3513f078","time":"2022/12/09 15:23:35","txCount":16,"totalFees":4195044,"totalOutput":825195329619,"slotLeader":"446109cdad3e7dfc6e0bb4be5ecf25df02fcc2ec8f6df46a3ca2c537"},{"blockNo":8117971,"slotNo":79033111,"epochNo":380,"epochSlotNo":236311,"hash":"d82f78dc09a0362480f526693870bc3a3f6b79b74d698b944bb0020ad0565aa0","time":"2022/12/09 15:23:22","txCount":13,"totalFees":5313106,"totalOutput":2412759316459,"slotLeader":"768a4abe40bf4ec986087a6f356984da85ac3b8388dfa6840e3cdcf7"},{"blockNo":8117970,"slotNo":79033105,"epochNo":380,"epochSlotNo":236305,"hash":"13243b1abc23ec4e80c9b07429a74c7b8e1fc944e8d4857c9702e1d7fb33d2e9","time":"2022/12/09 15:23:16","txCount":1,"totalFees":351577,"totalOutput":18199815,"slotLeader":"a631b46315b1567ef0ce2b2ad4cb63faac09f32ceba6716a7e331e5e"},{"blockNo":8117969,"slotNo":79033100,"epochNo":380,"epochSlotNo":236300,"hash":"a12f22781c9b8dbce04ad30b96d9511d96a1aecb5192b06bfae0f7b4ec001b48","time":"2022/12/09 15:23:11","txCount":8,"totalFees":2895948,"totalOutput":47792002290,"slotLeader":"55962d29056c55303f0db16442011ab0392f7e7b37bdaeae97a14f0e"},{"blockNo":8117968,"slotNo":79033088,"epochNo":380,"epochSlotNo":236288,"hash":"66ff5d86100b1b63d6d751d252379366865e53955bbe956282cf705a76fc252c","time":"2022/12/09 15:22:59","txCount":7,"totalFees":3188502,"totalOutput":780281510703,"slotLeader":"2313599837d144bdbd6897a3cdecc0ad2c995f38275aad6626c29ef5"},{"blockNo":8117967,"slotNo":79033082,"epochNo":380,"epochSlotNo":236282,"hash":"7c878fcf06b4fcd78bcfb8ddb9eb31f413a43747eeebb1827f77e3fe75708f9c","time":"2022/12/09 15:22:53","txCount":18,"totalFees":5341111,"totalOutput":525665678418,"slotLeader":"6539a70bb6e61540444133eab3a24288d1cd3ddc3598adde93475513"}],"totalItems":11653,"totalPages":1166,"currentPage":0}