{"data":[{"blockNo":8279564,"slotNo":82350305,"epochNo":388,"epochSlotNo":97505,"hash":"97b74e811d0ac09eb00a66a2d70d3add1891a268f20151a4c1b84bcb51c34552","time":"2023/01/17 00:49:56","txCount":10,"totalFees":3121544,"totalOutput":17901745146,"slotLeader":"fdb0d8ba88d434c8dd3ab3974a3401efc7b016e54c7387c63398aec4"},{"blockNo":8279563,"slotNo":82350294,"epochNo":388,"epochSlotNo":97494,"hash":"282b4dd3434d520555c05bc2d5d7f068d61ae719cec945ada8ae70ba5d59a155","time":"2023/01/17 00:49:45","txCount":2,"totalFees":1210271,"totalOutput":2224825078,"slotLeader":"40e81ed617140994bab5a00619d0269f0dd3af9963e40e09f5ee1a6d"},{"blockNo":8279562,"slotNo":82350290,"epochNo":388,"epochSlotNo":97490,"hash":"ea4015c3eb7bcc2536faecdfc38fc7669282779e74935b1e13eb7260416d96d6","time":"2023/01/17 00:49:41","txCount":14,"totalFees":5401610,"totalOutput":2678951519675,"slotLeader":"21ad7ca84128f182623df17e6cb29ca1e83889e0013f1004cf5beb73"},{"blockNo":8279561,"slotNo":82350280,"epochNo":388,"epochSlotNo":97480,"hash":"0a2bcd39559e53632148fc0ab3367f04306a3baab52e44d74960704fdd906d83","time":"2023/01/17 00:49:31","txCount":11,"totalFees":3623121,"totalOutput":1713801291855,"slotLeader":"b573268bf369e3f3a4e6dd16fdd78ca01eb164c1daa29d611ef885d2"},{"blockNo":8279560,"slotNo":82350272,"epochNo":388,"epochSlotNo":97472,"hash":"180c6b6ca9d93be12cb5c26a7a541f45ae841799352a1c5c6d778a186c7c4664","time":"2023/01/17 00:49:23","txCount":6,"totalFees":2550834,"totalOutput":1731440232570,"slotLeader":"cfff13497008842ab170eae18ecf43be7eb4fa51bdd503821ddaaf19"},{"blockNo":8279559,"slotNo":82350265,"epochNo":388,"epochSlotNo":97465,"hash":"aad5815dcb93fb3b721eb7966656d88e32cc1b001f178053371c8afd51e10b65","time":"2023/01/17 00:49:16","txCount":2,"totalFees":851962,"totalOutput":4165352169,"slotLeader":"9b9890b811d67ba9e69810581e4fc119ca0c2354adb7cd6ff564b0a3"},{"blockNo":8279558,"slotNo":82350261,"epochNo":388,"epochSlotNo":97461,"hash":"175f7a205a5191cc131232ed7dd8a146d8db7c8113be14dd59e7d0f8e459ba90","time":"2023/01/17 00:49:12","txCount":17,"totalFees":8060067,"totalOutput":1799027897831,"slotLeader":"31415926227256e22339e7edc3997f23b6bd89c6959488a4519537f7"},{"blockNo":8279557,"slotNo":82350250,"epochNo":388,"epochSlotNo":97450,"hash":"6a4c7eea9ba023261a0209d3266c39fcebb8686f02f2fa0330464fe178ffc4d8","time":"2023/01/17 00:49:01","txCount":10,"totalFees":2342450,"totalOutput":13410089371,"slotLeader":"71efddeabf5dd8211853a5ed30548391ccb54fa3b55e5828db9afee6"},{"blockNo":8279556,"slotNo":82350236,"epochNo":388,"epochSlotNo":97436,"hash":"89b747db881c9745fc0a24ae4094aa85736c3c74f75c6eef69839eb058cbc954","time":"2023/01/17 00:48:47","txCount":14,"totalFees":3825249,"totalOutput":279409731833,"slotLeader":"b44181287c72d0c7b1bce6a57173cdf739ac77d030bdfc4606138dd2"},{"blockNo":8279555,"slotNo":82350219,"epochNo":388,"epochSlotNo":97419,"hash":"9dc46a5a729d2a53e0e608d661444104410dcdd672df5f1c3b0ae1ac8336aac4","time":"2023/01/17 00:48:30","txCount":22,"totalFees":6665500,"totalOutput":2307432476871,"slotLeader":"3407812f0f5b698329dd4db9b7748e7aa6078b5e5f74c0af318385e4"},{"blockNo":8279554,"slotNo":82350198,"epochNo":388,"epochSlotNo":97398,"hash":"cf19d747726a504634988c0da4e3c5a8514931492da4f67b8a340a6d681058ca","time":"2023/01/17 00:48:09","txCount":40,"totalFees":12585184,"totalOutput":50932509929,"slotLeader":"ae0154e2fbd824443a4ea8b26d800dd77d8e982b94d90c939a77672e"},{"blockNo":8279553,"slotNo":82350151,"epochNo":388,"epochSlotNo":97351,"hash":"f7493c99294d68254c0d4f1004526dd7a96ca20d5c8bc977367492b3bc7e335d","time":"2023/01/17 00:47:22","txCount":25,"totalFees":9034677,"totalOutput":69447236141,"slotLeader":"fcedaf183e9430acc484e4e290f40cb19e98e0e07efea2a327a71b94"},{"blockNo":8279552,"slotNo":82350128,"epochNo":388,"epochSlotNo":97328,"hash":"0b478f6031f09ec685bd3b4c9adc25752b781dd058f0e21d32c054474b6d6647","time":"2023/01/17 00:46:59","txCount":5,"totalFees":1665990,"totalOutput":17055949992,"slotLeader":"f17566678e30c1c75dd39e68829723a3c1aeff1d4f8924c6cdd18746"},{"blockNo":8279551,"slotNo":82350122,"epochNo":388,"epochSlotNo":97322,"hash":"c358e5a84cb8e4192390f846c901f88f5ee9f5f2971c2de683590a5df6de3a82","time":"2023/01/17 00:46:53","txCount":40,"totalFees":14930049,"totalOutput":2626193523176,"slotLeader":"f6541f3ca941d96d3c243eae01fea874d6be403b2dd2c6575245de6e"},{"blockNo":8279550,"slotNo":82350077,"epochNo":388,"epochSlotNo":97277,"hash":"3ccc846f3b017599e85a18c9ce3110bba296717e2dba22740a307d0d22b32d12","time":"2023/01/17 00:46:08","txCount":1,"totalFees":167349,"totalOutput":1400706,"slotLeader":"b07dde7ad2e458a89177d4e10cd657309d9e36a79ef1edebb60b414f"},{"blockNo":8279549,"slotNo":82350076,"epochNo":388,"epochSlotNo":97276,"hash":"3fec24e1c450454debc5049fc47edc3c0f3013e1a3e5c44e4ae0abd50a8ee04c","time":"2023/01/17 00:46:07","txCount":8,"totalFees":2472270,"totalOutput":14145660409,"slotLeader":"660f20fb9d419173ac623786ad3e6dc11a23951981e0e83e98233d29"},{"blockNo":8279548,"slotNo":82350060,"epochNo":388,"epochSlotNo":97260,"hash":"0faf0b9024cf0aa06083edeec97509a226fb23ae5305c32fdf9c5e8fc6a45e17","time":"2023/01/17 00:45:51","txCount":3,"totalFees":673515,"totalOutput":321795700,"slotLeader":"83f09b0af923a095a1c17905e802a35d1044f974b25d2a755a2d8266"},{"blockNo":8279547,"slotNo":82350059,"epochNo":388,"epochSlotNo":97259,"hash":"6b21ecdce18cacf93cd5c22a12d2e06b600677ea5ffabf4adff0f0b538e82179","time":"2023/01/17 00:45:50","txCount":33,"totalFees":13928940,"totalOutput":6766284098737,"slotLeader":"970e9a7ae4677b152c27a0eba3db996b372de094d24fc2974768f3da"},{"blockNo":8279546,"slotNo":82350012,"epochNo":388,"epochSlotNo":97212,"hash":"4a3cd3d2672104bb85990d23ebee08ce1419f8e65e4a9a90be96946ee2c7a553","time":"2023/01/17 00:45:03","txCount":5,"totalFees":1681424,"totalOutput":1623790804,"slotLeader":"16f6e9a767dbb9400d3dbe9f7374eef7c706bda870592a7dabd47a75"},{"blockNo":8279545,"slotNo":82350006,"epochNo":388,"epochSlotNo":97206,"hash":"c9bda6d2f45de503c0306deaa6c8d62edb082d0a60b10d3a357d822dd17de5d0","time":"2023/01/17 00:44:57","txCount":6,"totalFees":1910790,"totalOutput":6091691648,"slotLeader":"7a990e7ee931f9d548a977d5cf2194f26f7e2f1158752e0bb94a073f"}],"totalItems":8279740,"totalPages":413987,"currentPage":0}