{"data":[{"hash":"baa527e9e81eb8ac9648222b0d6f7028845a19aea94328358586fadfc5da3fd2","blockNo":8285311,"blockHash":"9387d43cabe34be4c1ea0a099461459a01479b210e1e8bff171d72f52b114b66","epochNo":388,"epochSlotNo":211873,"slot":82464673,"time":"2023/01/18 08:36:04","addressesInput":["addr1wy30zf2g4xc7v872fdweewrlj3lh2lgttelmydn0cvhyplsg3vnkq","addr1qx76hnwx8qukkylx5te0em5gf7kgjqadv6x8z406mpyxz6nn3lmaa3wnh8ka8wxllq5f9kpp6spcwum5vvas6xgvuedsh0rgkp","addr1qx76hnwx8qukkylx5te0em5gf7kgjqadv6x8z406mpyxz6nn3lmaa3wnh8ka8wxllq5f9kpp6spcwum5vvas6xgvuedsh0rgkp"],"addressesOutput":["addr1qx76hnwx8qukkylx5te0em5gf7kgjqadv6x8z406mpyxz6nn3lmaa3wnh8ka8wxllq5f9kpp6spcwum5vvas6xgvuedsh0rgkp","addr1wy30zf2g4xc7v872fdweewrlj3lh2lgttelmydn0cvhyplsg3vnkq"],"fee":890917,"totalOutput":11817680,"tokens":[]},{"hash":"0e76e1a2c198f24ab3c3c7d128af4d1b059746caa19c6fef572e3ef28d8fb756","blockNo":8285299,"blockHash":"7ddcf7a5b98c6bbff2c8924f13794206313135107a646adefc7348ce9704d2ec","epochNo":388,"epochSlotNo":211597,"slot":82464397,"time":"2023/01/18 08:31:28","addressesInput":["addr1qx76hnwx8qukkylx5te0em5gf7kgjqadv6x8z406mpyxz6nn3lmaa3wnh8ka8wxllq5f9kpp6spcwum5vvas6xgvuedsh0rgkp","addr1qx76hnwx8qukkylx5te0em5gf7kgjqadv6x8z406mpyxz6nn3lmaa3wnh8ka8wxllq5f9kpp6spcwum5vvas6xgvuedsh0rgkp","addr1wy30zf2g4xc7v872fdweewrlj3lh2lgttelmydn0cvhyplsg3vnkq"],"addressesOutput":["addr1qx76hnwx8qukkylx5te0em5gf7kgjqadv6x8z406mpyxz6nn3lmaa3wnh8ka8wxllq5f9kpp6spcwum5vvas6xgvuedsh0rgkp","addr1wy30zf2g4xc7v872fdweewrlj3lh2lgttelmydn0cvhyplsg3vnkq"],"fee":890829,"totalOutput":7937550,"tokens":[]},{"hash":"524b3248628a31cb10611f99756634c9e9c6421c78d75a7714e5ec464633f8ea","blockNo":8285218,"blockHash":"bf56ec2dc4dc927d5554961951d959760c331a37e24820fd74b953df7fa75c5f","epochNo":388,"epochSlotNo":210280,"slot":82463080,"time":"2023/01/18 08:09:31","addressesInput":["DdzFFzCqrhskKbQWS7bnCPGZAkaoC1ByRwrnDQCBCpJaGSvbBHpUfb29k5PCpjDviKnH4heCXDZ8gTJcD4LV339QWb7xnH543HWhLqRW","DdzFFzCqrht8tTqrCtcHZFDFvfRgaMwwsxUsMVth6QvzRpnKTznowQS3yn2fKE8KXPC8JtUattxJ5DDEP72xHR1kQF5HhbMsa4oGLRoY","DdzFFzCqrhskKbQWS7bnCPGZAkaoC1ByRwrnDQCBCpJaGSvbBHpUfb29k5PCpjDviKnH4heCXDZ8gTJcD4LV339QWb7xnH543HWhLqRW"],"addressesOutput":["addr1q9atjfpqwdtg7ytz0pz9zcaqvx8zr2uv6ysvc4csqynr683dzefudzxhadht99nh8gv4l3z93d486ygllgxuh2drrrpsdw6fws","DdzFFzCqrhsyRty3t7PzcvTa6BaL2TZbbQjB97dHqmo15kXoUsLPjDLJJnuTNcFUgkiqAcakbp4KuX5s5mYz8tqsymR8nj1cSmPfLsYh"],"fee":381761,"totalOutput":244957759,"tokens":[]},{"hash":"3304bd7026b17dfccf176f636daf95a88f94f59d3e9bc359b15d8099220b0ced","blockNo":8285056,"blockHash":"914a75183b865568458271364d72442fd01d85e0b853dff63381c2c977981d68","epochNo":388,"epochSlotNo":207326,"slot":82460126,"time":"2023/01/18 07:20:17","addressesInput":["addr1q9j9edkjryr9fnz6eyuwjcjutun9kpgtkdlulzquheldfeermhplrjkd38pvcn2r58dnl0v4rxs9lz6rdj5p77j3wvcs7ud37u","addr1q9j9edkjryr9fnz6eyuwjcjutun9kpgtkdlulzquheldfeermhplrjkd38pvcn2r58dnl0v4rxs9lz6rdj5p77j3wvcs7ud37u","addr1q9j9edkjryr9fnz6eyuwjcjutun9kpgtkdlulzquheldfeermhplrjkd38pvcn2r58dnl0v4rxs9lz6rdj5p77j3wvcs7ud37u","addr1q9j9edkjryr9fnz6eyuwjcjutun9kpgtkdlulzquheldfeermhplrjkd38pvcn2r58dnl0v4rxs9lz6rdj5p77j3wvcs7ud37u"],"addressesOutput":["addr1v8fcrev3gqrswxdxn3afh7hkdts5wzsjyek3hqtejp7e92cjrc8vp","addr1q9j9edkjryr9fnz6eyuwjcjutun9kpgtkdlulzquheldfeermhplrjkd38pvcn2r58dnl0v4rxs9lz6rdj5p77j3wvcs7ud37u","addr1q9j9edkjryr9fnz6eyuwjcjutun9kpgtkdlulzquheldfeermhplrjkd38pvcn2r58dnl0v4rxs9lz6rdj5p77j3wvcs7ud37u","addr1q9j9edkjryr9fnz6eyuwjcjutun9kpgtkdlulzquheldfeermhplrjkd38pvcn2r58dnl0v4rxs9lz6rdj5p77j3wvcs7ud37u"],"fee":426773,"totalOutput":36217681,"tokens":[]},{"hash":"fa6f721fc342b27cc6b4c22592981713a0621cd497452801d80694f5c5d46551","blockNo":8284720,"blockHash":"e4c2f53e0205985815315f719b0ce3e0b1bd0d48cba88f7a32732086b9a195ee","epochNo":388,"epochSlotNo":201028,"slot":82453828,"time":"2023/01/18 05:35:19","addressesInput":["DdzFFzCqrhsomCn39owc1iopgJC9dS5sEnS2qApQube4YyTioSywH8YiY63m4NGkm4ajuaZgewmw7qDCLnK3mf36SWcQ87ZGdAPv1Nee","DdzFFzCqrht3kXhnRqQZGFY7Y5yR3a5V2jsKaztvib2Rp3wqo45Jgksb75nTumeBd5APnF5WFTbBhvsL4MqD6mtaEqTgPAaaoKa19R8n","DdzFFzCqrhsmtDm2P5Mvbc2wNPJgn6fBTzp7CZ1o4ytGVAb4owjn9VP7CCc4rpjxVUUUxusHH4u91asbcgyH7FUY9m9vCNS8EMCiFDQG","DdzFFzCqrhtD6rpaRQw8tXz9ZYvvdsg7RdiB1E1Y8nR9v4TpkG5i3wy8jkRudy5RMj23YZpsHeYbWH5YNoYp3gYXshsBPQVWmxXQguZa","DdzFFzCqrht5BfRzvPnGkstiW7tgQyvmrvm9bETxvtLJvbndBMqyRLx9xFXTxnC84DouENP6SG2drTXGLcN1BJY1wr1fTEEqpKv1KFL9","DdzFFzCqrhsyMqZF5HAAqCGwwzmuNm8kTKjwmmhwNX31hEvJKpfgckvMT2A51uwa8exGi4g1TM5ypJSN3Z1vqE5XHRt8YwLEnUrEmgi9","DdzFFzCqrhsf69j3n3eabSUfC4U88gLtLspk3Hu1LEyHUtcpPX62xDLbFHZ2WnvRxsZZqTbFTriKLbP4pyEzwdL1N8U7AtcabX4daGsX","DdzFFzCqrhsyMqZF5HAAqCGwwzmuNm8kTKjwmmhwNX31hEvJKpfgckvMT2A51uwa8exGi4g1TM5ypJSN3Z1vqE5XHRt8YwLEnUrEmgi9","DdzFFzCqrhssJsWPZMSVfn6bfR3Cc1phDbBUjbfR8AbZb2mAb2QBNgjeYwUc1J9wcYA3zuYRazjt3tLNzdKQEYXxr6XzD2V7ugvRtCFD","DdzFFzCqrht14icJHNqKHS2MzW3YRzoS1aeU65Qb8VuoKMxD332gGyvjh53gGnQhCrbWfmAkQ2yJoSVLBYVFVVemUda3cRGJ1t6fr6aW","DdzFFzCqrhtAuKcfXnsfwCHHRmPD73NMbjRd75h4FR1rKHX7JqbzzCMLxM7tjVf7Yu1wfgvFdEw4cyUDP8LpvQBShzasc7QrAVef5mvM","DdzFFzCqrhsgWeytBTsUDCBfsg7Dik74bwkpCJjgh8QZ7APDoqop3C1iuPgtLqjCCgdhc1NoHHXCnNXMc2Gy1Pw4HMKgj9VYyhhQf2MY","DdzFFzCqrhsxhZLiqUgMinQG3WLYnysY8hn7tUu7d5TtcBZdr2oDWqH5GAWkkUssLfcBTSZwvdgcsC6MHLBYHCh31D7KC1TKi8KbQREf","DdzFFzCqrht92MfdWZ6DQTnf7cVM7kx7Rq8nwmPghMSKunz5qa1c9AqfJZ8JBQb4aHmABNwezWs5KnvuHmiwXp9daWPYb1bf5mFGeG83","DdzFFzCqrhtAzoxWbPMSVzqqAZSheLToTRsjfmxQWE6NepqbFpNmpT664viyzhksJkiap6bt53Gn1iTfroE8DAGLWxn8nhqCYY7XaFrW","DdzFFzCqrhsjPTgtPJFDrK9muiT78Be1yCMCnGv7jrusaibSoEExxRY94cAh2ocebC9aRzXFn35vxSixbSTchEmebw4n7u38HvZUJGcD","DdzFFzCqrhsdzK42MpiYLrWq4RcVTktQvBLy44xqqfUNDCQmY5mdyZ4Rrk9mb41wQD84G41uUWBfdgN6cEN692v4xFfKn2UNqejQ5Ur1","DdzFFzCqrhtBUvxgiStaVH3E5rwXdJpW2Znd6DMf225Q63mnqQ6dpvepZAGYuy6fS3dqR1Htzxo8zpp6wqz4QBhvmDLmyBQSXVPwgWqF","DdzFFzCqrhsvYi9UrDabysEMa5PrZ5KxUaHnwjcHH9DvEBdQhiy56gDhDucbdeEDkrYT7Ans3GtGka4uHbrGvgw5QpyfjAnRzeSqmEgL","DdzFFzCqrhspG5bsCnA6h9WAvQLFkUfyPT8ckZjJaCgDcmEWmN8fyeHmoD4mnPKjZiVbAdPEubxz6YRZMhp5Svw3DcQryWDLcm2AeVNa"],"addressesOutput":["addr1q9atjfpqwdtg7ytz0pz9zcaqvx8zr2uv6ysvc4csqynr683dzefudzxhadht99nh8gv4l3z93d486ygllgxuh2drrrpsdw6fws","DdzFFzCqrht8tTqrCtcHZFDFvfRgaMwwsxUsMVth6QvzRpnKTznowQS3yn2fKE8KXPC8JtUattxJ5DDEP72xHR1kQF5HhbMsa4oGLRoY","DdzFFzCqrht5yrRxC5tnfL4PK4B34JtexZctUPu8WQETAnmqTi1kCPsBz6Cc6k5N2caDhyKDtaR1nMzpHwg6ywXTdxNDSUsGUevJnnRi","DdzFFzCqrhshLKTCs3N5bkPB3faNDNjRjdLa4vY87eUftxJx3eZcYSJP8PC37bDUddLnnUkFh3dsrQ7zJHoqG6hgU86KCF41UW8Q3rpW","DdzFFzCqrht5FXiYBAPBL9iwcp26q1ZCmMxWnP4CrCZ1dZ3LSgU3iPZWceyyMgCyBA9pKHQe8dBuk3oLpnPJyTpKjDt9Gvjr4w8yqTEJ"],"fee":1098961,"totalOutput":50975337668,"tokens":[]},{"hash":"ed47b1cc402eb6b7243090233cd8d67a4b3b2bf95006924aa5687b095bdd28b3","blockNo":8284409,"blockHash":"caf86b4d43521d15ea5442b2dfb81735dd1be2eed98d01164a44768a258b4889","epochNo":388,"epochSlotNo":194810,"slot":82447610,"time":"2023/01/18 03:51:41","addressesInput":["addr1qxgxy9fyz0gtgpg0g656wx0me94c9cm32mjerpxwzlmkd33v5hssk4080v642sexdvnaat8v6gzh3d6chseues8rmzashzqeuu","addr1qy8jn36xfah5huaffhafupfcmm7hgxgpgcws9dcgrl99mwfv5hssk4080v642sexdvnaat8v6gzh3d6chseues8rmzasj52vy2"],"addressesOutput":["addr1wxn9efv2f6w82hagxqtn62ju4m293tqvw0uhmdl64ch8uwc0h43gt","addr1qxgxy9fyz0gtgpg0g656wx0me94c9cm32mjerpxwzlmkd33v5hssk4080v642sexdvnaat8v6gzh3d6chseues8rmzashzqeuu","addr1qyqlxde26n2x6sushkl670j63c8r5jf79hj8ryfpv0kr20ev5hssk4080v642sexdvnaat8v6gzh3d6chseues8rmzas0anxz4","addr1qyqlxde26n2x6sushkl670j63c8r5jf79hj8ryfpv0kr20ev5hssk4080v642sexdvnaat8v6gzh3d6chseues8rmzas0anxz4"],"fee":444989,"totalOutput":69666759,"tokens":[]},{"hash":"01b7528d39503151c0b0fcfa563a4df5229b09e22dcd06d96fefaa1b76d3d1e5","blockNo":8284314,"blockHash":"a13aeb9f8a5ff8448a9e64f52db9b59c546589407125cdf35423c79e9d57c970","epochNo":388,"epochSlotNo":193149,"slot":82445949,"time":"2023/01/18 03:24:00","addressesInput":["DdzFFzCqrhsqpaM8CTzHdap1edHwaAAw9h1dvndsWPkTb8ejXKSXvGJdtkbHQJMWRsv5htTmVB3p8MD98b3Tu47MyMhcSXvJDTH48E62","DdzFFzCqrht8UWE1RJQZ6DRzCueiEHVgDZZc8bYKU2K92cTjWcKnpFCCtKpZBpg7qERUj7SgkAXfzNSFAEpP56aT3WJyegAz5y2pxmhs"],"addressesOutput":["addr1q9atjfpqwdtg7ytz0pz9zcaqvx8zr2uv6ysvc4csqynr683dzefudzxhadht99nh8gv4l3z93d486ygllgxuh2drrrpsdw6fws","DdzFFzCqrht14icJHNqKHS2MzW3YRzoS1aeU65Qb8VuoKMxD332gGyvjh53gGnQhCrbWfmAkQ2yJoSVLBYVFVVemUda3cRGJ1t6fr6aW","DdzFFzCqrhssJsWPZMSVfn6bfR3Cc1phDbBUjbfR8AbZb2mAb2QBNgjeYwUc1J9wcYA3zuYRazjt3tLNzdKQEYXxr6XzD2V7ugvRtCFD"],"fee":553669,"totalOutput":15350142051,"tokens":[]},{"hash":"d4f8d24a3bb0239321f53b2dd294438665a0b53ccd6cdce4898a43be114a4a82","blockNo":8284290,"blockHash":"dd9f3e2ce1601cecc3e572baf30b45969e3e99334bca10aca99c058c3b02cd29","epochNo":388,"epochSlotNo":192643,"slot":82445443,"time":"2023/01/18 03:15:34","addressesInput":["DdzFFzCqrhsrZcMG5Yz37swMDjqd9K3Y3gYdHBeGwtTXigxZkGthJkRK6uT3qEH296LAZZJPFhySN2c9wTmoUz6puszL6zUsJ3gsqE8s","DdzFFzCqrhsm3dPTdA3sYKhaeWXm7jSNDVyvra59ukxftCcb912RtBzwpjfxmc9XG2q5diVawwAU9dJDZ8raJECXCGS8ckMagBovEFQF"],"addressesOutput":["addr1q9atjfpqwdtg7ytz0pz9zcaqvx8zr2uv6ysvc4csqynr683dzefudzxhadht99nh8gv4l3z93d486ygllgxuh2drrrpsdw6fws","DdzFFzCqrhsqpaM8CTzHdap1edHwaAAw9h1dvndsWPkTb8ejXKSXvGJdtkbHQJMWRsv5htTmVB3p8MD98b3Tu47MyMhcSXvJDTH48E62"],"fee":373621,"totalOutput":7675656700,"tokens":[]},{"hash":"cac0fb8ed2b5f35bba4305dfd7c9d517ac4908520f242018c9e60be09570102f","blockNo":8284264,"blockHash":"f81453060eeddb754efade658c9fbfa259de743fe0b4aed72eb9e5655c176df4","epochNo":388,"epochSlotNo":192251,"slot":82445051,"time":"2023/01/18 03:09:02","addressesInput":["DdzFFzCqrht68eAmkZv9UkAg9AkG9PQyWcktMTZCuAoALUD9Feeu54PR7m3a25iLC8ZETJFxGm5upnz9GwEex6fvfdC53Y1up9SK4BUt","DdzFFzCqrhsfyPsmmpLfQapoqkj6HMyRdKRZCoDGiPV1tuNsUAqBGEi3w2TEVSd8KukDhX88hu9duSFCkKNo8guyCMCCyuJT6D7UvXNC","DdzFFzCqrhsi2T2WXTGYgM2KsS72Ge2DKXmG1Gp7BE4oU9p19fyV2Toxu2nNTa4Zsnda3CBHw4y3HAXh8KCpF7WGR6qZvJcgUfZEPxu4","DdzFFzCqrhsjiUgJqXgiQ64kQ1MSJCWq1embg75AMot1rJSeA2RQgvAnWgt6n7CA9twm1r8sNwNYje3pizFcqg12U7dnzCo8F62dmdHi","DdzFFzCqrht8Dxo4Ka29NFq98YFoGSMhhR15K7w5zpofEMLcXEv4m9JgcPwQdUsY1EMvgQDLN6U9CrsDmwpsNoRHoupAeSwVztQgRGKq","DdzFFzCqrhsj4CcUer4nmz2oZgGu5dxWLBZ8D57zJ4vYJvwzDBLH12ykcP5jeCjEqq8zKTGm7DcEwq9M4GHDGz161A9V2PmMnMqSXVrZ","DdzFFzCqrhsrdDkM5t7b1JiUdvRd8i18VKG1Rrt51TMu8jYzXod9LZGMkRjfhu4q66qhsTLbK5eqr5vXg5TeTe28UzZEhDHcSoJDpeRr","DdzFFzCqrhsnaQCWpgWsmEVHKraUTXe5VfuVGtrmMvc9TQ8RDtBH219YPiFjhUkUsJXy8h8otsRuxG8nVdVfKGRWoZpkKR4cWNieLpiD","DdzFFzCqrht4wKToLNCYW1dbffxLfrV8qhs458KT7hMyqMeGevAxYZtWq8mU5PqdEjsZJV9GVu7enUQBhLMDmkHLXm6cVjzzjzHNKz8S","DdzFFzCqrhsh5S87frXz2oTtgcxt9PDNTUfJLx9XWPF7we4RYpLtkuF3xeHvQroTFwaL3HX58vFvs1PoxBLJ3w3jNLxiUxMx6neKG76P","DdzFFzCqrhsgY78VBi2dWjSopUyk9CcNXAY4JqVUkmBMURD5z2n7aYCbRc4QDifcdC1mj15xodc2hzDSHVH5jhQHSH2z2UsbfNmdEP7L","DdzFFzCqrhsibT1AkW1NwPUsTdUTE6A8sjQofUj9UhTckHeMwJ1Yu6MX6TpewuoN9FaejBgdv3MS6kt6xEpeXbcqAxxQuf93b88AGkeL"],"addressesOutput":["addr1q9atjfpqwdtg7ytz0pz9zcaqvx8zr2uv6ysvc4csqynr683dzefudzxhadht99nh8gv4l3z93d486ygllgxuh2drrrpsdw6fws","DdzFFzCqrhsrZcMG5Yz37swMDjqd9K3Y3gYdHBeGwtTXigxZkGthJkRK6uT3qEH296LAZZJPFhySN2c9wTmoUz6puszL6zUsJ3gsqE8s","DdzFFzCqrhtBUvxgiStaVH3E5rwXdJpW2Znd6DMf225Q63mnqQ6dpvepZAGYuy6fS3dqR1Htzxo8zpp6wqz4QBhvmDLmyBQSXVPwgWqF","DdzFFzCqrhsxhZLiqUgMinQG3WLYnysY8hn7tUu7d5TtcBZdr2oDWqH5GAWkkUssLfcBTSZwvdgcsC6MHLBYHCh31D7KC1TKi8KbQREf","DdzFFzCqrht8UWE1RJQZ6DRzCueiEHVgDZZc8bYKU2K92cTjWcKnpFCCtKpZBpg7qERUj7SgkAXfzNSFAEpP56aT3WJyegAz5y2pxmhs"],"fee":1021521,"totalOutput":80704849673,"tokens":[]},{"hash":"972eb2dcecd9a6f39f89a58857b39c9fd88f9ecf3f8a3676395134d00818fbbc","blockNo":8284178,"blockHash":"0c4e3d30a881a3ae2749d2e25776cd6dd1b02d8df5d01b679b17a8f0b1d25466","epochNo":388,"epochSlotNo":190516,"slot":82443316,"time":"2023/01/18 02:40:07","addressesInput":["addr1q998pukrcdhp2zrvx87eyjwfzkrcyv4lflaqa2f7w9dsdkz2wrev8smwz5yxcv0ajfyuj9v8sget7nl6p65nuu2mqmvq05pxha","addr1q998pukrcdhp2zrvx87eyjwfzkrcyv4lflaqa2f7w9dsdkz2wrev8smwz5yxcv0ajfyuj9v8sget7nl6p65nuu2mqmvq05pxha"],"addressesOutput":["addr1q998pukrcdhp2zrvx87eyjwfzkrcyv4lflaqa2f7w9dsdkz2wrev8smwz5yxcv0ajfyuj9v8sget7nl6p65nuu2mqmvq05pxha","addr1q998pukrcdhp2zrvx87eyjwfzkrcyv4lflaqa2f7w9dsdkz2wrev8smwz5yxcv0ajfyuj9v8sget7nl6p65nuu2mqmvq05pxha"],"fee":237985,"totalOutput":886962356768,"tokens":[]},{"hash":"af09e041ee8cf3de33da72d93c459932edac17c05d1c3654c4506d9b71d07564","blockNo":8284090,"blockHash":"29f8ee36c15f97f24e3018c8481388af3f8d44c2a79e76ff2622b59d9458894c","epochNo":388,"epochSlotNo":188701,"slot":82441501,"time":"2023/01/18 02:09:52","addressesInput":["addr1q9vj9w32w77p47ca725hantcf5nrzcex66vqq58kqm4l04y6hn99676mvdj6qvd34vfqh3jx6vy8tyfkuy6u3xcghq8sex2gzq","addr1q9vj9w32w77p47ca725hantcf5nrzcex66vqq58kqm4l04y6hn99676mvdj6qvd34vfqh3jx6vy8tyfkuy6u3xcghq8sex2gzq"],"addressesOutput":["addr1wxn9efv2f6w82hagxqtn62ju4m293tqvw0uhmdl64ch8uwc0h43gt","addr1q9vj9w32w77p47ca725hantcf5nrzcex66vqq58kqm4l04y6hn99676mvdj6qvd34vfqh3jx6vy8tyfkuy6u3xcghq8sex2gzq","addr1q9vj9w32w77p47ca725hantcf5nrzcex66vqq58kqm4l04y6hn99676mvdj6qvd34vfqh3jx6vy8tyfkuy6u3xcghq8sex2gzq"],"fee":216321,"totalOutput":133587127,"tokens":[]},{"hash":"50e5e28a13bb8872beb96b95ea6a1d4e07583d8491ca82122996469c467bde00","blockNo":8283994,"blockHash":"15257ead301c360642b96914b9c2dbf1412dd371fec3cad94a71da567de5af4f","epochNo":388,"epochSlotNo":186542,"slot":82439342,"time":"2023/01/18 01:33:53","addressesInput":["DdzFFzCqrht5ybquskeA4T9eKmhATjcV4P2cyGF9L7BgZxrpbQqDzCbF4ukuUZpVFQwJ1wK1vijjarJJrcbs13R7XySNrqRdyeHgdPTX","DdzFFzCqrhsx8rmgLWkQ1nK8jsfSUQhDyRSNCG1H5kRiwXueN3HdqSx5wJoB9cbqzec8K693dcGnZiHaNWp6N7yvvrV7DhtfuA3B7211","DdzFFzCqrhsdzK42MpiYLrWq4RcVTktQvBLy44xqqfUNDCQmY5mdyZ4Rrk9mb41wQD84G41uUWBfdgN6cEN692v4xFfKn2UNqejQ5Ur1","DdzFFzCqrhtBaB8AXMe5nzxuHUh9qxCVQphcgzrRutT4qRWXM8DwfjJkUZ9Eadz1QaPwPSL2th9ms2xzFS2qxU1dAKEuC7ma91VCy3rQ","DdzFFzCqrht1PucJKkZFaKjLegyPRBLKwfBDTt3ezPWeVomtMYBSDKcTwbq2wLNxvRY24UpzPRJYE2gGSk1pywvziG94wEXx9hnEL4WL","DdzFFzCqrhsrWrJ4SDRh92qs3DjiwQLdqi98VtQbWijunojSPZbLKHEXKgkXsXBcJdKgToZPXEqMPMi28A2WZsGZ37ZFVmYvjcsbvx6H","DdzFFzCqrhsrUwwex9eyxPpiEqiG8xdDqqn4utxLrMiWo1ftQVSx1xsFKgP32tDXFx3dATVnadhf2wprEyqpNuU1vZb1XSZy9ebFyyMY","DdzFFzCqrhsrxCKXm24YxbeKcAbc2uB7aeDopZUYdHF4yjSDjKc4mx8qB28xyutPEK3nTLomcMGxCkicuURHP47j2qm7aPxHiXi4MdDK","DdzFFzCqrhtCftFMdhbVZBZ1VCspKK5VadEMo5SQsFooVUN7AXGVk1Qwct1faE33PFPD33jXS57cME7FfVfJBvc35qmDQDE4eTHrDJz5","DdzFFzCqrhsrUwwex9eyxPpiEqiG8xdDqqn4utxLrMiWo1ftQVSx1xsFKgP32tDXFx3dATVnadhf2wprEyqpNuU1vZb1XSZy9ebFyyMY","DdzFFzCqrhsk9mZMarMZda2jSawN1zxRSojrve9x7nUG6TnvX5zUGcycHKhnMVvg96oTq65G8YQ3TBLAKwiEKXKMUth8udjRNE4eBqRf","DdzFFzCqrhspG5bsCnA6h9WAvQLFkUfyPT8ckZjJaCgDcmEWmN8fyeHmoD4mnPKjZiVbAdPEubxz6YRZMhp5Svw3DcQryWDLcm2AeVNa","DdzFFzCqrhtC4wH8VctLtySBwTSj8UE9Fy1obHXc7YwAYwE8YxGJZd9um2mbVpArrxAu6Sks2aTasobYWyZwhjNPUurrJqy6wTMadAX5","DdzFFzCqrhsnfHTbKQLnyo6dUWg7jP6fcekD1Gd8NiSKkMToSf1bmWXy3FmSkgZYwxH9TNUt14mEcjuHeRtgqRkJiXVrThWnZxDdrHh8","DdzFFzCqrhsdzK42MpiYLrWq4RcVTktQvBLy44xqqfUNDCQmY5mdyZ4Rrk9mb41wQD84G41uUWBfdgN6cEN692v4xFfKn2UNqejQ5Ur1","DdzFFzCqrhtCftFMdhbVZBZ1VCspKK5VadEMo5SQsFooVUN7AXGVk1Qwct1faE33PFPD33jXS57cME7FfVfJBvc35qmDQDE4eTHrDJz5","DdzFFzCqrhskcRM78YLH1hAyS6Czt4eYU3Dcs7AH9ifTz2xdtjxjcnctZ8zNgeafFzSkAS2VKHvHvqRJKSUcfqCZeEZPbPzucipCrKGk","DdzFFzCqrht8ZYE8iVLrbqv9LrFDLjWQf4o2PjFz7U21m9CgLFoGHVefkm7iNofbfFaManRZRxUhTKwbnNjebqaTbGxK5EWbP9iLZSKu","DdzFFzCqrhsdzobMcnRUDksW2kcnK14saukuyP6Cbxs6HiPNpnGb2djQWCrZtfSjrdcJ4bTg4gW21s1ncaLCnYhDeDny5Gps2csUgxR2","DdzFFzCqrhsx8t9ubk8qqZYcVKhSzbms6nkTqzwV2oEGgiNTXmufv7Gsx5jPdNAcdNN5tCdZox7htpxnMSzjqeKiufiUpHTJQ9VWbgUF","DdzFFzCqrhsiP1eqwVsFkGYM9bRdF7Pe8bPpyKcQz6zLD6bFtR3GsnyqViwh1oSEGPNP5dLZgD7v82sh366JyE8h2saYHEmo77eDPjAF","DdzFFzCqrhskjo3uAz9kLcdzdXs4oYRm2QTX562YNG4b53Gu8jDWkhyDMSkyEL9CzXw6GKxvHDjSxbkZtLKVMUXxYPKscquXnGLaLpdW"],"addressesOutput":["addr1q9atjfpqwdtg7ytz0pz9zcaqvx8zr2uv6ysvc4csqynr683dzefudzxhadht99nh8gv4l3z93d486ygllgxuh2drrrpsdw6fws","DdzFFzCqrhsibT1AkW1NwPUsTdUTE6A8sjQofUj9UhTckHeMwJ1Yu6MX6TpewuoN9FaejBgdv3MS6kt6xEpeXbcqAxxQuf93b88AGkeL","DdzFFzCqrht8Dxo4Ka29NFq98YFoGSMhhR15K7w5zpofEMLcXEv4m9JgcPwQdUsY1EMvgQDLN6U9CrsDmwpsNoRHoupAeSwVztQgRGKq","DdzFFzCqrht68eAmkZv9UkAg9AkG9PQyWcktMTZCuAoALUD9Feeu54PR7m3a25iLC8ZETJFxGm5upnz9GwEex6fvfdC53Y1up9SK4BUt","DdzFFzCqrhtA2cyuXBmaaP7w5J3kRDfPLdTkbHUhhjtz7fLDatw9WWxaaWhnAUzUqniyfVZ4qSVxNc1FziDVwv7nZ8YvBmqNo7anbu1w"],"fee":1118321,"totalOutput":55934653402,"tokens":[]},{"hash":"f367eda7f386c0c2367523dc9a3ca51ef482ec0c62883c97f3558845e7c23c59","blockNo":8283693,"blockHash":"112d20447daa37007fce9108534552d2c014d40f34345367ce716e594f46c46b","epochNo":388,"epochSlotNo":180269,"slot":82433069,"time":"2023/01/17 23:49:20","addressesInput":["DdzFFzCqrhsjiUgJqXgiQ64kQ1MSJCWq1embg75AMot1rJSeA2RQgvAnWgt6n7CA9twm1r8sNwNYje3pizFcqg12U7dnzCo8F62dmdHi","DdzFFzCqrht3XAfFatwMJWXDAKnjEq3ahqtcucnL3XFkRMgNGGPw7Uj2rHJwCsPd4Aq6RjsiYREvo3JKXRkLJahkypS4DQkX7z5d2vsB","DdzFFzCqrht63PnDK9snX2tWJNnn5DiAhEdumCpm5NBgaDjEScsWLD2EYtkXw6PHZdr28vySt5hQfWeQ6NPDrF4iERrr36yQBStfqx56","DdzFFzCqrhsg26Zn8NDUanEc59PGmgqJBd2MG5h36uAWVNE4E2yaYonFD9NACyAZg5cyBSZBgvCMeBeD4a2Nfm35KokdiwK3LQWTp8JC","DdzFFzCqrhseCMxyGVCGL7ySppUDrzE22r3TtNiLXGWt53ppRRx5ZXiSfJwH5fxqW3sn7CFqZrMXYisKC2ENvfHcsVVthfamoLAH9qGf","DdzFFzCqrhseCMxyGVCGL7ySppUDrzE22r3TtNiLXGWt53ppRRx5ZXiSfJwH5fxqW3sn7CFqZrMXYisKC2ENvfHcsVVthfamoLAH9qGf","DdzFFzCqrht1qtJ9mH5jpdooNzyFEfRxkh9WUbub8C3tuizo5uwHryP16wb7hpwNaUo37YGg24jA1CZfuPf3npe7nGrfStq86dTdePJz","DdzFFzCqrhsm2d9f6mbxKuKbe3D183YDHY4DjKLLsMFVZu4paxpZkmfkLKzeHUH4EQTtg8Db7rgRvgm9fPyjFYEHucjryMr4zPonSjtp","DdzFFzCqrht5eaomtXQzp2WWgHJddZdRFjxT3ADg6qwBygmxSySmPRjMbrSzkZBmZB4At7SY7NLTQPdve6smUWw1L88UfshNAkgYVVRR","DdzFFzCqrhsjiUgJqXgiQ64kQ1MSJCWq1embg75AMot1rJSeA2RQgvAnWgt6n7CA9twm1r8sNwNYje3pizFcqg12U7dnzCo8F62dmdHi","DdzFFzCqrhsoFyWEsTg9uLAJRf3McpD2fdih3bhHcHwen1DijpGPa4weMR19pSttKoVKofZRc6Efq1LQjCzSfv2JvAYBPW4EYGqeuXur","DdzFFzCqrhsvU51jLTGJVSmtpMFgnPQf6KDXPRGeJhSy5PB1x7CAY9qMA5wkPRnktLKUttH3nejopGHzkomV2PKj4Z7tKVMRN7HfJ4Cd","DdzFFzCqrhsej8gDeuGEpyFY7tLQwmVyUqXLdj3PNRaAiCNcdsDhgro4mtJ6vivY4qZPmBp1yxMgBWZRmqiR9dW2NUTNG34x4zSVX8RW","DdzFFzCqrhsjiUgJqXgiQ64kQ1MSJCWq1embg75AMot1rJSeA2RQgvAnWgt6n7CA9twm1r8sNwNYje3pizFcqg12U7dnzCo8F62dmdHi","DdzFFzCqrhsjiUgJqXgiQ64kQ1MSJCWq1embg75AMot1rJSeA2RQgvAnWgt6n7CA9twm1r8sNwNYje3pizFcqg12U7dnzCo8F62dmdHi","DdzFFzCqrhsidsNy1Ebjh9VJJNjvZZJQxieNrNS5o8jeSEMMf8x2H6bXVVvUxRiJEV64aW1Ubs4TDyHi3mMeJtNwJAVScNp5ofzJUPsG","DdzFFzCqrhsjiUgJqXgiQ64kQ1MSJCWq1embg75AMot1rJSeA2RQgvAnWgt6n7CA9twm1r8sNwNYje3pizFcqg12U7dnzCo8F62dmdHi"],"addressesOutput":["addr1q9atjfpqwdtg7ytz0pz9zcaqvx8zr2uv6ysvc4csqynr683dzefudzxhadht99nh8gv4l3z93d486ygllgxuh2drrrpsdw6fws","DdzFFzCqrhskjo3uAz9kLcdzdXs4oYRm2QTX562YNG4b53Gu8jDWkhyDMSkyEL9CzXw6GKxvHDjSxbkZtLKVMUXxYPKscquXnGLaLpdW","DdzFFzCqrhsx8rmgLWkQ1nK8jsfSUQhDyRSNCG1H5kRiwXueN3HdqSx5wJoB9cbqzec8K693dcGnZiHaNWp6N7yvvrV7DhtfuA3B7211","DdzFFzCqrhsdzobMcnRUDksW2kcnK14saukuyP6Cbxs6HiPNpnGb2djQWCrZtfSjrdcJ4bTg4gW21s1ncaLCnYhDeDny5Gps2csUgxR2","DdzFFzCqrhsrxCKXm24YxbeKcAbc2uB7aeDopZUYdHF4yjSDjKc4mx8qB28xyutPEK3nTLomcMGxCkicuURHP47j2qm7aPxHiXi4MdDK"],"fee":1069921,"totalOutput":86299760142,"tokens":[]},{"hash":"31c317a1db4567ba1bae444c5553b69366c7aa3be0c7db8b2003910e95f57b3e","blockNo":8283514,"blockHash":"67bf17b6338fc6935a5e3cf6ed15e18007c23479cceb2fe426836a3df408e997","epochNo":388,"epochSlotNo":176941,"slot":82429741,"time":"2023/01/17 22:53:52","addressesInput":["addr1q9vj9w32w77p47ca725hantcf5nrzcex66vqq58kqm4l04y6hn99676mvdj6qvd34vfqh3jx6vy8tyfkuy6u3xcghq8sex2gzq","addr1q9vj9w32w77p47ca725hantcf5nrzcex66vqq58kqm4l04y6hn99676mvdj6qvd34vfqh3jx6vy8tyfkuy6u3xcghq8sex2gzq"],"addressesOutput":["addr1zxgx3far7qygq0k6epa0zcvcvrevmn0ypsnfsue94nsn3tvpw288a4x0xf8pxgcntelxmyclq83s0ykeehchz2wtspks905plm","addr1q9vj9w32w77p47ca725hantcf5nrzcex66vqq58kqm4l04y6hn99676mvdj6qvd34vfqh3jx6vy8tyfkuy6u3xcghq8sex2gzq","addr1q9vj9w32w77p47ca725hantcf5nrzcex66vqq58kqm4l04y6hn99676mvdj6qvd34vfqh3jx6vy8tyfkuy6u3xcghq8sex2gzq"],"fee":255129,"totalOutput":135484804,"tokens":[]},{"hash":"4c795188ff0fc8055ad34a2d7495eb889e559104a45b8327deca37dfee9b9474","blockNo":8283474,"blockHash":"59e164fdc185816b3e6fbf87ab2d754bff3571ee3d516289dc9ea9444cf8f8d4","epochNo":388,"epochSlotNo":176015,"slot":82428815,"time":"2023/01/17 22:38:26","addressesInput":["addr1q93vyug8m3qrqc5qr9u28hzkvdpzyvmez85f58l8y9t2502xrdyd4ezx43vxjgw0dvz6dzy36jku3ptrr9mcv5dftkhsx6f5gt","addr1q93vyug8m3qrqc5qr9u28hzkvdpzyvmez85f58l8y9t2502xrdyd4ezx43vxjgw0dvz6dzy36jku3ptrr9mcv5dftkhsx6f5gt","addr1q93vyug8m3qrqc5qr9u28hzkvdpzyvmez85f58l8y9t2502xrdyd4ezx43vxjgw0dvz6dzy36jku3ptrr9mcv5dftkhsx6f5gt","addr1q93vyug8m3qrqc5qr9u28hzkvdpzyvmez85f58l8y9t2502xrdyd4ezx43vxjgw0dvz6dzy36jku3ptrr9mcv5dftkhsx6f5gt"],"addressesOutput":["addr1wxn9efv2f6w82hagxqtn62ju4m293tqvw0uhmdl64ch8uwc0h43gt","addr1q93vyug8m3qrqc5qr9u28hzkvdpzyvmez85f58l8y9t2502xrdyd4ezx43vxjgw0dvz6dzy36jku3ptrr9mcv5dftkhsx6f5gt","addr1q93vyug8m3qrqc5qr9u28hzkvdpzyvmez85f58l8y9t2502xrdyd4ezx43vxjgw0dvz6dzy36jku3ptrr9mcv5dftkhsx6f5gt"],"fee":247473,"totalOutput":143064534,"tokens":[]},{"hash":"e36dd44cb2ff49e64801dc8a6b4415de7fe174da8bce253194892be474676597","blockNo":8283464,"blockHash":"f2f99826e1351e65a845714f6d83b800604d738ed18214e8aa986fc9e9f77897","epochNo":388,"epochSlotNo":175827,"slot":82428627,"time":"2023/01/17 22:35:18","addressesInput":["addr1q93vyug8m3qrqc5qr9u28hzkvdpzyvmez85f58l8y9t2502xrdyd4ezx43vxjgw0dvz6dzy36jku3ptrr9mcv5dftkhsx6f5gt","addr1q93vyug8m3qrqc5qr9u28hzkvdpzyvmez85f58l8y9t2502xrdyd4ezx43vxjgw0dvz6dzy36jku3ptrr9mcv5dftkhsx6f5gt","addr1q93vyug8m3qrqc5qr9u28hzkvdpzyvmez85f58l8y9t2502xrdyd4ezx43vxjgw0dvz6dzy36jku3ptrr9mcv5dftkhsx6f5gt","addr1q93vyug8m3qrqc5qr9u28hzkvdpzyvmez85f58l8y9t2502xrdyd4ezx43vxjgw0dvz6dzy36jku3ptrr9mcv5dftkhsx6f5gt"],"addressesOutput":["addr1wxn9efv2f6w82hagxqtn62ju4m293tqvw0uhmdl64ch8uwc0h43gt","addr1q93vyug8m3qrqc5qr9u28hzkvdpzyvmez85f58l8y9t2502xrdyd4ezx43vxjgw0dvz6dzy36jku3ptrr9mcv5dftkhsx6f5gt","addr1q93vyug8m3qrqc5qr9u28hzkvdpzyvmez85f58l8y9t2502xrdyd4ezx43vxjgw0dvz6dzy36jku3ptrr9mcv5dftkhsx6f5gt"],"fee":224637,"totalOutput":151708391,"tokens":[]},{"hash":"8b0e9779937a2a213da3c9edd5636cbdd05068078fc6ddbf2c412c9faa592770","blockNo":8283393,"blockHash":"7c1b8dbd692962009d6c6a6b4f0b69fe42eb85b0665a447ad15144db01cc8286","epochNo":388,"epochSlotNo":174421,"slot":82427221,"time":"2023/01/17 22:11:52","addressesInput":["addr1q9vj9w32w77p47ca725hantcf5nrzcex66vqq58kqm4l04y6hn99676mvdj6qvd34vfqh3jx6vy8tyfkuy6u3xcghq8sex2gzq","addr1q9vj9w32w77p47ca725hantcf5nrzcex66vqq58kqm4l04y6hn99676mvdj6qvd34vfqh3jx6vy8tyfkuy6u3xcghq8sex2gzq"],"addressesOutput":["addr1zxgx3far7qygq0k6epa0zcvcvrevmn0ypsnfsue94nsn3tvpw288a4x0xf8pxgcntelxmyclq83s0ykeehchz2wtspks905plm","addr1q9vj9w32w77p47ca725hantcf5nrzcex66vqq58kqm4l04y6hn99676mvdj6qvd34vfqh3jx6vy8tyfkuy6u3xcghq8sex2gzq","addr1q9vj9w32w77p47ca725hantcf5nrzcex66vqq58kqm4l04y6hn99676mvdj6qvd34vfqh3jx6vy8tyfkuy6u3xcghq8sex2gzq"],"fee":255965,"totalOutput":143162847,"tokens":[]},{"hash":"77c258c6171cb93bcceea36cb536d4e130e49724add0fad0dcbdadbf5cb1059e","blockNo":8283380,"blockHash":"3bf493f06d63f9dd2f9b83e91f6365c1b8e39455da4d60bae577c6d98b7d4629","epochNo":388,"epochSlotNo":174081,"slot":82426881,"time":"2023/01/17 22:06:12","addressesInput":["addr1q9vj9w32w77p47ca725hantcf5nrzcex66vqq58kqm4l04y6hn99676mvdj6qvd34vfqh3jx6vy8tyfkuy6u3xcghq8sex2gzq","addr1q9vj9w32w77p47ca725hantcf5nrzcex66vqq58kqm4l04y6hn99676mvdj6qvd34vfqh3jx6vy8tyfkuy6u3xcghq8sex2gzq"],"addressesOutput":["addr1zxgx3far7qygq0k6epa0zcvcvrevmn0ypsnfsue94nsn3tvpw288a4x0xf8pxgcntelxmyclq83s0ykeehchz2wtspks905plm","addr1q9vj9w32w77p47ca725hantcf5nrzcex66vqq58kqm4l04y6hn99676mvdj6qvd34vfqh3jx6vy8tyfkuy6u3xcghq8sex2gzq","addr1q9vj9w32w77p47ca725hantcf5nrzcex66vqq58kqm4l04y6hn99676mvdj6qvd34vfqh3jx6vy8tyfkuy6u3xcghq8sex2gzq"],"fee":258033,"totalOutput":144746292,"tokens":[]},{"hash":"8e2a9ba419a30b949fbe2c95978d068f2abf143a230f899cdfd5565274f68542","blockNo":8283292,"blockHash":"e8f3a913555d90cdfc57836647122612327f382ee3e6e904940f423770f5dcaa","epochNo":388,"epochSlotNo":172546,"slot":82425346,"time":"2023/01/17 21:40:37","addressesInput":["addr1q9vj9w32w77p47ca725hantcf5nrzcex66vqq58kqm4l04y6hn99676mvdj6qvd34vfqh3jx6vy8tyfkuy6u3xcghq8sex2gzq","addr1q9vj9w32w77p47ca725hantcf5nrzcex66vqq58kqm4l04y6hn99676mvdj6qvd34vfqh3jx6vy8tyfkuy6u3xcghq8sex2gzq"],"addressesOutput":["addr1zxgx3far7qygq0k6epa0zcvcvrevmn0ypsnfsue94nsn3tvpw288a4x0xf8pxgcntelxmyclq83s0ykeehchz2wtspks905plm","addr1q9vj9w32w77p47ca725hantcf5nrzcex66vqq58kqm4l04y6hn99676mvdj6qvd34vfqh3jx6vy8tyfkuy6u3xcghq8sex2gzq","addr1q9vj9w32w77p47ca725hantcf5nrzcex66vqq58kqm4l04y6hn99676mvdj6qvd34vfqh3jx6vy8tyfkuy6u3xcghq8sex2gzq"],"fee":258693,"totalOutput":148020474,"tokens":[]},{"hash":"988498069ce73796e5117654e735a97d58acd669e710a37bd05df9e0a0e28dc2","blockNo":8283063,"blockHash":"2f4abb94e55c00273cbb6be31894f166acd9246e8c1b5ff2fb91f9bc83015f9e","epochNo":388,"epochSlotNo":168013,"slot":82420813,"time":"2023/01/17 20:25:04","addressesInput":["DdzFFzCqrhsrxcTieGfWfedzxHoFmQ6w4N1icDi8E8FMa9SZXVjJy4NaCBznMLabiVU7dW9Pyn4gHaYBiX4ow8vhyqr5yZzVg8BinR1X","DdzFFzCqrhsgGXsF1sAu4ncVtYAaJRuwhKGkMHhVPMnbzY2f5dWqLsPp4Ltwcxd8WrQPQ9djGexxE6ogG4cQrkhXrHH2w9WcBX8bquta","DdzFFzCqrht63PnDK9snX2tWJNnn5DiAhEdumCpm5NBgaDjEScsWLD2EYtkXw6PHZdr28vySt5hQfWeQ6NPDrF4iERrr36yQBStfqx56","DdzFFzCqrhsuJEduFchz36QPCvRwiK17GBX7pzoKBNhzHTFX8ue8fdm3ootvmkGixEBczsaujKy4y1DhRfz6AdLiK7LmUgpPTeq8ecpa","DdzFFzCqrhsqZC5PRKAu9opNoRmK3FTM73vitLrenyMLr5qHD8qDiXowCeVjsXB7UCZAP6WG3MwL8Sj5FhaBt7jYJtfnaYn45zzAyoaz","DdzFFzCqrhsnAjhuwjtifKzDGfbPFkyiQpxqCx3b1j8et8ijNhQBeqLA9W3r4unbbEAP7vTp32KpgBpAmNEZFk67GTzNaVPTnVRuckhq","DdzFFzCqrht7Y4fY7PJ5gHfNmkuAL7C5VjaPnYBFfaNk5YG51KDckXR9fMyR7wFeVARskSUJnRkmy41cdYyeGbYKaDbJVBia8vPoyauE","DdzFFzCqrht4YypnN1jd5ypFciVmyoseq4UUW2KMGKjjC4UVVDcpj6KENUNtEHfdHjrpBoNFSkCg3bxSEbtvdmJWqmtX5dGaRjPNjCLo"],"addressesOutput":["addr1q9atjfpqwdtg7ytz0pz9zcaqvx8zr2uv6ysvc4csqynr683dzefudzxhadht99nh8gv4l3z93d486ygllgxuh2drrrpsdw6fws","DdzFFzCqrht3XAfFatwMJWXDAKnjEq3ahqtcucnL3XFkRMgNGGPw7Uj2rHJwCsPd4Aq6RjsiYREvo3JKXRkLJahkypS4DQkX7z5d2vsB","DdzFFzCqrhsvU51jLTGJVSmtpMFgnPQf6KDXPRGeJhSy5PB1x7CAY9qMA5wkPRnktLKUttH3nejopGHzkomV2PKj4Z7tKVMRN7HfJ4Cd","DdzFFzCqrhsidsNy1Ebjh9VJJNjvZZJQxieNrNS5o8jeSEMMf8x2H6bXVVvUxRiJEV64aW1Ubs4TDyHi3mMeJtNwJAVScNp5ofzJUPsG","DdzFFzCqrhszmksPUKqrd92jCnRjPMagQqZFz7LEf5W9r7ts3YHZYRe8KuJeY27z1RYWGa9robkPzdtFAgtX4h7kykaeQr4p99BbYoAJ"],"fee":982801,"totalOutput":59768449665,"tokens":[]}],"totalItems":13066,"totalPages":654,"currentPage":0}