{"data":[{"blockNo":8285573,"slotNo":82469756,"epochNo":388,"epochSlotNo":216956,"hash":"885493e74632cd770d958229bd5f76eff6540ed39aa69958292f069e5dae0b89","time":"2023/01/18 10:00:47","txCount":15,"totalFees":5312907,"totalOutput":208730922260,"slotLeader":"dda4bc64e339336e3f7bc158177df0c71dc760ff11cb8b0651b3ece4"},{"blockNo":8285572,"slotNo":82469731,"epochNo":388,"epochSlotNo":216931,"hash":"e46fcd264a3a8df67f0d557bda4579699dfccaa9fcf5665a80bc322854e9124f","time":"2023/01/18 10:00:22","txCount":1,"totalFees":247825,"totalOutput":436021506,"slotLeader":"35a38b78bf1f4b829a98d1ebf27d883b3f936eefcdfce2bd7a83c4c7"},{"blockNo":8285571,"slotNo":82469730,"epochNo":388,"epochSlotNo":216930,"hash":"0db56e6acab1acd4be81e0d6d955ae91811b22159cfcf0f48ca75f95a9978300","time":"2023/01/18 10:00:21","txCount":20,"totalFees":5547287,"totalOutput":163730043168,"slotLeader":"398964318c3664acd3a17d6d0f29a74b6d9a8200cde2f875629906b9"},{"blockNo":8285570,"slotNo":82469679,"epochNo":388,"epochSlotNo":216879,"hash":"1cc885dd944c37a53811a4b148935e645a80795f954de3c319a17f3771d7a0ba","time":"2023/01/18 09:59:30","txCount":38,"totalFees":15667269,"totalOutput":272208707315,"slotLeader":"68ac3c1be0477698b5c825ce598cca359dbf6132e1761a572403b9fb"},{"blockNo":8285569,"slotNo":82469604,"epochNo":388,"epochSlotNo":216804,"hash":"2db15aea43a99190e044ee55a0fc7323afcc8fb99a74cedb2a6a66e632b068f4","time":"2023/01/18 09:58:15","txCount":8,"totalFees":2098628,"totalOutput":589831406073,"slotLeader":"cb87bf12be816ecd5cd6e167442670e4024d85e0005c8623651b371f"},{"blockNo":8285568,"slotNo":82469597,"epochNo":388,"epochSlotNo":216797,"hash":"1fc48d177d910ef7c4b4e0f8b0ff1cbfa659f9b6a60c14ae3aabaaa06f7f294e","time":"2023/01/18 09:58:08","txCount":22,"totalFees":10206526,"totalOutput":268811398892,"slotLeader":"2c799c3eb2fb59dbf874500fa77df18a2acaa8cfec1793c928294a50"},{"blockNo":8285567,"slotNo":82469550,"epochNo":388,"epochSlotNo":216750,"hash":"80221d352e8413b0b79d630aaa5947f1b9f0d0ca84e321a21ca1dfa280e0f402","time":"2023/01/18 09:57:21","txCount":31,"totalFees":10719195,"totalOutput":708811583940,"slotLeader":"ac5ba151fae6889e25021acc723b0e34655828bf3328b6f1180e1d65"},{"blockNo":8285566,"slotNo":82469490,"epochNo":388,"epochSlotNo":216690,"hash":"9865ccc3cfd2696eb374f56424a985d818f0a9dac4f425f47dcbe2e7d93cab41","time":"2023/01/18 09:56:21","txCount":6,"totalFees":1855634,"totalOutput":398084451995,"slotLeader":"34812765ebf71de725a4431652e68e96382d64da1e0ca0bf5ee80c1d"},{"blockNo":8285565,"slotNo":82469478,"epochNo":388,"epochSlotNo":216678,"hash":"03e1e0d0b03f5881f93de919835707b68dfe67c2f2591894fe92be65878ef7b0","time":"2023/01/18 09:56:09","txCount":3,"totalFees":924623,"totalOutput":76057563870,"slotLeader":"f8328a36320b8719b07da68f3b28f019feb5907ac26a42420d3680b3"},{"blockNo":8285564,"slotNo":82469473,"epochNo":388,"epochSlotNo":216673,"hash":"03457419419db5b57977cee44b273651c6f154221516c9e04e0f5c078eccc716","time":"2023/01/18 09:56:04","txCount":1,"totalFees":213241,"totalOutput":83813320,"slotLeader":"96a46d5a796a30483492c3717f80b7c6ef87e9525af162ffacf74fdb"},{"blockNo":8285563,"slotNo":82469467,"epochNo":388,"epochSlotNo":216667,"hash":"8b4eca4f71ed11a1f2cc6717777f47689c6c477a7e7ee8ae5e28a2077ef2ac53","time":"2023/01/18 09:55:58","txCount":8,"totalFees":3690001,"totalOutput":48717555798,"slotLeader":"fdb0d8ba88d434c8dd3ab3974a3401efc7b016e54c7387c63398aec4"},{"blockNo":8285562,"slotNo":82469451,"epochNo":388,"epochSlotNo":216651,"hash":"8cfe06aa3e93f42cfde4cdf2372867c67a52acbf94a6abc34291141318d127c0","time":"2023/01/18 09:55:42","txCount":18,"totalFees":5881537,"totalOutput":651186791147,"slotLeader":"bcc34d3c45cd3b8770c75c91c3023a9146aa505c4bd5cf094dae9acc"},{"blockNo":8285561,"slotNo":82469425,"epochNo":388,"epochSlotNo":216625,"hash":"cbdb4a068c6195391258ef5d5fe3aac647ceb1fa4b71a7a37215277ad7c52ce8","time":"2023/01/18 09:55:16","txCount":1,"totalFees":442437,"totalOutput":28876779,"slotLeader":"ffb3fe58689ae0d70d6fb939a842ee78ecfa10eab561274327e78b7b"},{"blockNo":8285560,"slotNo":82469416,"epochNo":388,"epochSlotNo":216616,"hash":"9ea2f3710aa67094e57bfe0f9fc803391340cf9cedf8e505d6bd3c041cdf5689","time":"2023/01/18 09:55:07","txCount":6,"totalFees":1734313,"totalOutput":77788264672,"slotLeader":"d785ff6a030ae9d521770c00f264a2aa423e928c85fc620b13d46eda"},{"blockNo":8285559,"slotNo":82469408,"epochNo":388,"epochSlotNo":216608,"hash":"285e538a5d77d081fed48c3338e017342fffcf9f1e9cee4e1dc6bcc79cb8277f","time":"2023/01/18 09:54:59","txCount":6,"totalFees":1284663,"totalOutput":2303798034,"slotLeader":"bf7908ea0ef61c441e4dca0e756f335c33459bb8f2779cb8f6caf8eb"},{"blockNo":8285558,"slotNo":82469396,"epochNo":388,"epochSlotNo":216596,"hash":"6caa294adffa3358c3de9fd2ddc80fdf8dfbb74183ac60718a36e89615810ff6","time":"2023/01/18 09:54:47","txCount":36,"totalFees":11574425,"totalOutput":2130505532024,"slotLeader":"fc7c663438fd4b61c5d0c064128467a550fd4e721fe6d5f237f5b416"},{"blockNo":8285557,"slotNo":82469336,"epochNo":388,"epochSlotNo":216536,"hash":"04fd5d808f48d75b5b4ce20c458ce99b041d8de6daeacb0c85c665a5bffb35a7","time":"2023/01/18 09:53:47","txCount":14,"totalFees":5887435,"totalOutput":1848113354085,"slotLeader":"01fbe26f514707ff29c38aa597ad8ff86a1572e760858d0e7ae4fc32"},{"blockNo":8285556,"slotNo":82469309,"epochNo":388,"epochSlotNo":216509,"hash":"c0132afda594eb2bc3d19444ce36e5659888ca2ed51d2f7aedc986f71e8492e6","time":"2023/01/18 09:53:20","txCount":8,"totalFees":2444409,"totalOutput":4405771152,"slotLeader":"3d1e6611b34537690ace03b54d689eceaf01a3b6c4487f487300ec37"},{"blockNo":8285555,"slotNo":82469302,"epochNo":388,"epochSlotNo":216502,"hash":"ac90d890aa6f29a33c368dec158233cc005ccc2324434c54c63cb139a1fcd52b","time":"2023/01/18 09:53:13","txCount":0,"totalFees":0,"totalOutput":0,"slotLeader":"120ccc012f6b2ef1669acb15d2499cc9a226b6374184d1e322b1aa5f"},{"blockNo":8285554,"slotNo":82469301,"epochNo":388,"epochSlotNo":216501,"hash":"b2b9d46bb3b32b3f701013c1eaa69d6e93f87b20dfe52be97e037d21d7fb1c61","time":"2023/01/18 09:53:12","txCount":6,"totalFees":1422628,"totalOutput":50556916281,"slotLeader":"86d56db6754947d5c6dfd788568c189cc188d448aa6bc4ee634f655a"}],"totalItems":8285749,"totalPages":414288,"currentPage":0}