{"data":[{"txId":59862090,"txHash":"6a69dde95698c7a24a59c04789806896b0babcf7ea99e813a0e80863d0502618","txTime":"2023/01/16 18:53:17","block":8278543,"epoch":388,"slotNo":82328906,"epochSlotNo":76106,"stakeKey":"stake1u8gq2gsesgyecnt64hwfy7z4a4z7kzyy597cg2k9zntxemgcn4qy9"},{"txId":59861864,"txHash":"8220c2c17c9073d1cee200c51ee5d72dba717197615070fa5d28b3689905951b","txTime":"2023/01/16 18:49:13","block":8278533,"epoch":388,"slotNo":82328662,"epochSlotNo":75862,"stakeKey":"stake1u9vfvweqeqchnrpplsjq79dfq7qdtqpzhvu53cyuul0vq0s6eg37f"},{"txId":59860962,"txHash":"655e35c7f05613175efc228a67dc5f3bc94a29959d1f04b02da162dc694592ba","txTime":"2023/01/16 18:34:53","block":8278489,"epoch":388,"slotNo":82327802,"epochSlotNo":75002,"stakeKey":"stake1uy5dsx6uvv2ak2pn0phzeqy9haxyjl77v23nnx5aspe67cgmkj98c"},{"txId":59860928,"txHash":"da0d704271f9cc9f925da5df29d4609d7dafefebff638d3f8690118f61e49856","txTime":"2023/01/16 18:34:15","block":8278488,"epoch":388,"slotNo":82327764,"epochSlotNo":74964,"stakeKey":"stake1uxgt9705mv3c5d5ucyljy2dy3l4zweqvzwpjxy3u9c7ceqcrdxr7f"},{"txId":59860891,"txHash":"efe1cdea458204246e7e3db1cabfad4ed6c6a3c1513710c0d4e5272e67bfc490","txTime":"2023/01/16 18:33:04","block":8278485,"epoch":388,"slotNo":82327693,"epochSlotNo":74893,"stakeKey":"stake1uxdgmse39y8q5h3sxk5h48rwxza3au29kffle8g9q8mxsmseelfld"},{"txId":59860788,"txHash":"eb93a4495479a04f67ede03b8f982dff767828a14b3beadf034586711e28d1a0","txTime":"2023/01/16 18:31:14","block":8278482,"epoch":388,"slotNo":82327583,"epochSlotNo":74783,"stakeKey":"stake1u8xylurjtjpw7gv4frrndfaee0c5ylsnskh2pfnrvreux7cukl23z"},{"txId":59860635,"txHash":"161b6c1787988e2bfc0856585df0ca933563d3af7175276ab5388522c26a3010","txTime":"2023/01/16 18:29:00","block":8278474,"epoch":388,"slotNo":82327449,"epochSlotNo":74649,"stakeKey":"stake1uy6aw8mwp8caqa770w5et7rm4gwewqc7ugksfg3ng9snltg4t2xtw"},{"txId":59860142,"txHash":"dce5fa915231bb870161b46a5b4ec24ccaee52ad5b11296bc63b8f806734c99f","txTime":"2023/01/16 18:22:09","block":8278450,"epoch":388,"slotNo":82327038,"epochSlotNo":74238,"stakeKey":"stake1u9axsa2ptwlmlylxv772wgepzgrcuhq0dgxdyy75pu92q7qpdp7eu"},{"txId":59859947,"txHash":"5addbf54659422a0a7ef3f44f893e6aa0c6ed7597cf8939db1387abba9ffb48d","txTime":"2023/01/16 18:19:34","block":8278444,"epoch":388,"slotNo":82326883,"epochSlotNo":74083,"stakeKey":"stake1u85j003qrfjasyls4q6m8xeyg0j7jcx4l7g5agvqy0l8rtqn69err"},{"txId":59859611,"txHash":"d494bc6588f2707135cb98741fad5ab74a456059e76163fef6c735276d720c84","txTime":"2023/01/16 18:14:47","block":8278433,"epoch":388,"slotNo":82326596,"epochSlotNo":73796,"stakeKey":"stake1ux6k7fpzqw9tcwt6s6awk3ed0juef780k6g2hz6hxel068gcm0vhx"},{"txId":59859002,"txHash":"c93b956a777e8568b6eb6f6066350dec355e0a45c9a06d33e4a5c2208d37f748","txTime":"2023/01/16 18:04:36","block":8278402,"epoch":388,"slotNo":82325985,"epochSlotNo":73185,"stakeKey":"stake1ux354ev5gzjxfxv2nhs95l3wy8444huttzkxylm2ppj3hss4qkpde"},{"txId":59858734,"txHash":"bed84103790df25d08e2555265b8db39571bfca28364ed08e8c63b845d56ed1d","txTime":"2023/01/16 18:00:20","block":8278390,"epoch":388,"slotNo":82325729,"epochSlotNo":72929,"stakeKey":"stake1uxunwnjtxdqvcgt752zps7299r8spssghs59u7p2ltmkdjqcvsl2e"},{"txId":59858351,"txHash":"67cceeb6683e97fb0f40920e3f19346958e16b613c729dc618830d3e180cf500","txTime":"2023/01/16 17:53:29","block":8278371,"epoch":388,"slotNo":82325318,"epochSlotNo":72518,"stakeKey":"stake1u8ntmwv33fawn8qnxzvrmcrdsv2stwey4u5f0yjqzrgt2ggfs6t8u"},{"txId":59858042,"txHash":"6a3963e9b3bc3dac0fc0581169e816bc3fbea9c95357d844f45510c929c4f7f2","txTime":"2023/01/16 17:49:00","block":8278357,"epoch":388,"slotNo":82325049,"epochSlotNo":72249,"stakeKey":"stake1u95mwhmmch90pmk49tk94hy6tmdanaepznzsfm4y7g7d8aqeren2w"},{"txId":59857595,"txHash":"8a7f696ee379829686f6b4c3d66f7ee4e76708b9c4365b5af206c9aa1560222d","txTime":"2023/01/16 17:41:50","block":8278336,"epoch":388,"slotNo":82324619,"epochSlotNo":71819,"stakeKey":"stake1uysq6l6vrhy306c49v4xu3azsq9y0zrpykrkwef9t2wdveqag0868"},{"txId":59857321,"txHash":"ac2871ffd8c2f87496fc70b68437547ee2fe296b0c86e9d33943dd2ea4731e35","txTime":"2023/01/16 17:38:10","block":8278325,"epoch":388,"slotNo":82324399,"epochSlotNo":71599,"stakeKey":"stake1uxex55emtnfc0tykwktdxu7a7z9tk22639z4aqfxjfuea3qs2ugt6"},{"txId":59857016,"txHash":"e6877029bdec94cb090b5d6dc490012592196e15e53e18dd354cc4d5edb3c771","txTime":"2023/01/16 17:34:33","block":8278313,"epoch":388,"slotNo":82324182,"epochSlotNo":71382,"stakeKey":"stake1u9ypyr2gesctq6457ma334v4jq6qfwu64jt0j5gsa0neugckxwsql"},{"txId":59856782,"txHash":"7623cc641670eb710ceb469f7a0dbd5c8959f677a114dc888371a1aa9e608f9e","txTime":"2023/01/16 17:30:42","block":8278302,"epoch":388,"slotNo":82323951,"epochSlotNo":71151,"stakeKey":"stake1ux6p80ydjy47fqrzqner2kqv9z5jesra2at8fdyw02ytw3g3wu3q4"},{"txId":59856564,"txHash":"ceb67b62aa65bb6d477a712d8994d489c221fbb33f98c0c61baf40ff2709018f","txTime":"2023/01/16 17:26:49","block":8278292,"epoch":388,"slotNo":82323718,"epochSlotNo":70918,"stakeKey":"stake1uyye32ucdstg75jdx9xs4z2h9265unw2mzzstwmna8y5yfsygj388"},{"txId":59856520,"txHash":"6e3b8dca6cb0ea2bff29ecb2b2b0a189326f2314cf76f3cb206b718077114b3c","txTime":"2023/01/16 17:26:18","block":8278290,"epoch":388,"slotNo":82323687,"epochSlotNo":70887,"stakeKey":"stake1uyk6hjuj6p7kgw5j5d9fkzmyq82he3z4une4j7r4ek484dgk8av0a"}],"totalItems":345380,"totalPages":17269,"currentPage":0}