{"data":[{"txId":54503701,"txHash":"69efd72b618bfe7d271ede483592ba0f6558a0ae02237e8c130ed47389244373","txTime":"2022/11/06 12:50:20","block":7979689,"epoch":373,"slotNo":76172729,"epochSlotNo":399929,"stakeKey":"stake1uxrwrt6ttck974w5au67kh6m7yuz02n95j8j656r292r7lsdsag3s"},{"txId":54503665,"txHash":"1eb790a87c40cde7fdc19f905fbe4b21baf1e10650b1ee6352aa90b76cfe7ae9","txTime":"2022/11/06 12:49:42","block":7979687,"epoch":373,"slotNo":76172691,"epochSlotNo":399891,"stakeKey":"stake1u884kp5v9hx55v7s8dy4x7mhjq66h3r8kudgfe3npfum8ug6tnl0d"},{"txId":54503664,"txHash":"3363110f03ba00f1abc40f0abdbb47b46e4dc24405f1903b5c1eb3a3c39a219b","txTime":"2022/11/06 12:49:42","block":7979687,"epoch":373,"slotNo":76172691,"epochSlotNo":399891,"stakeKey":"stake1u8plaa3zh07cpcdq26e3kn2nurzrjepzkn6c27s2333nkmgxscsmq"},{"txId":54503177,"txHash":"25d09491c761276ff5a324eac58593ead43781bc88a29f43c8616f0eb7f9bcf3","txTime":"2022/11/06 12:39:08","block":7979652,"epoch":373,"slotNo":76172057,"epochSlotNo":399257,"stakeKey":"stake1u8tn4vskrn9kz330v4llglz2chslcsqxm8a4vxygjhe4kjc8sz94a"},{"txId":54503122,"txHash":"ba6cc188c4e972ae4cb7fb827683d10669a8906a18c2390f9d1cb4d65d28ddcc","txTime":"2022/11/06 12:37:59","block":7979648,"epoch":373,"slotNo":76171988,"epochSlotNo":399188,"stakeKey":"stake1uxp7c7hrtyzvhp0n6lty9ju2hxh0kp88eyjvyf6et7lmzsq9c8359"},{"txId":54503097,"txHash":"9ce6bd3559686c5116bc59a62dcd2ea327402c8cc5e4c2796919a2c926b8f9e9","txTime":"2022/11/06 12:37:12","block":7979646,"epoch":373,"slotNo":76171941,"epochSlotNo":399141,"stakeKey":"stake1uyvqka7z60dzpfg07k5mxj498ftlla6ur44l3wau6qq9xasleyjhj"},{"txId":54502921,"txHash":"f9672c993c0476472ac9fc0d498fe48d5540b43c7edf660a39e237b6f071a230","txTime":"2022/11/06 12:33:23","block":7979635,"epoch":373,"slotNo":76171712,"epochSlotNo":398912,"stakeKey":"stake1uy0xkyxqvvcunx033g7m0gf7q462dwmy5nm7e6rj05kp08qfk4e2p"},{"txId":54502882,"txHash":"1850df80f488f3b445a3b23fe54b9b511f45c44ba8f6d2d8386f6381edcc541f","txTime":"2022/11/06 12:32:43","block":7979629,"epoch":373,"slotNo":76171672,"epochSlotNo":398872,"stakeKey":"stake1uymluxtgshmak7958lz5w4rr5s2k5h0ypy6hyjq7kn4zpzqezym05"},{"txId":54502389,"txHash":"53ee2f48044596bdf599262f2fad64c9d947e0aca183ae8a7d381d653c2ae60e","txTime":"2022/11/06 12:23:05","block":7979594,"epoch":373,"slotNo":76171094,"epochSlotNo":398294,"stakeKey":"stake1uxafrq9w6ldqpnxe043v47l5kag6ghglgkk7sgtvky2g7cg8skjkn"},{"txId":54502194,"txHash":"196d1629a61209676d63b7e65eeb1720409e7b7ac058c86ffff90d6c70591c6e","txTime":"2022/11/06 12:19:34","block":7979583,"epoch":373,"slotNo":76170883,"epochSlotNo":398083,"stakeKey":"stake1u9u344nkhk0uq723jmalnnfjpjplmn302fk0h3dl3qyprrsln3azn"},{"txId":54501935,"txHash":"abb3e857d82020d5cc409f1b90f14aac67cdc5defcb1c68196af8b0deabc96bc","txTime":"2022/11/06 12:14:20","block":7979570,"epoch":373,"slotNo":76170569,"epochSlotNo":397769,"stakeKey":"stake1uxgp6rm98s5s95fz0h34usxluetdtul2ek9c2dcaca0n6msyp48a6"},{"txId":54501918,"txHash":"96caa8bbbfa8d317cd038401a017bad2dfe7b3bd2fdcf3b12358a50cd2bac6f6","txTime":"2022/11/06 12:14:06","block":7979568,"epoch":373,"slotNo":76170555,"epochSlotNo":397755,"stakeKey":"stake1uy0z2ggyw9nn4hj65k2qaq38nkxcwhclzz933fwx20r29ag6a5fy4"},{"txId":54501916,"txHash":"760e43f382732cf8905987e1f1577139e380bb25afc249100af5c22eb9b88fa1","txTime":"2022/11/06 12:14:06","block":7979568,"epoch":373,"slotNo":76170555,"epochSlotNo":397755,"stakeKey":"stake1u9cwmmujt2w8xf5hpxed78495jg4jcx7auwhhrjxa0snylqgke4lw"},{"txId":54501656,"txHash":"6967e572f0cf4da84d646d1ad5e96b59ecfad85fee47091aac1f7165fdc3ac1b","txTime":"2022/11/06 12:09:10","block":7979549,"epoch":373,"slotNo":76170259,"epochSlotNo":397459,"stakeKey":"stake1u9m2myel3ulhh6zc2qep5jz3gfyhrukw03088xxnmmzwg2qu6mx90"},{"txId":54501354,"txHash":"6b2e637fb1674502c00c067d39da05df7d3e79c6934cc42556adad2911be496e","txTime":"2022/11/06 12:04:22","block":7979531,"epoch":373,"slotNo":76169971,"epochSlotNo":397171,"stakeKey":"stake1uya4zucufm9g4adpurv6m5sw76vmcjmmsxqra7p57733gwchgtmga"},{"txId":54501314,"txHash":"b78029179a608d971f9c0f7345c4049ce17b95c0a76a8390c87f1492420c200f","txTime":"2022/11/06 12:03:06","block":7979527,"epoch":373,"slotNo":76169895,"epochSlotNo":397095,"stakeKey":"stake1uxk0tfsny7pjlur30w7xu830qap799zz3vtqr5mandgksmsv97ltq"},{"txId":54501260,"txHash":"30010cdd6ed3c39f6e25d74d2d7197b61032d92f0e441b6e22d2062b97158b7b","txTime":"2022/11/06 12:03:04","block":7979526,"epoch":373,"slotNo":76169893,"epochSlotNo":397093,"stakeKey":"stake1uxvvfgj7eun7njfnptuyut8pw24dp3mnfshxfsq5l72290smkzqhy"},{"txId":54501240,"txHash":"3910504086d5646bef03522f559641bc34905467eb6e60fd86252197c260dd37","txTime":"2022/11/06 12:03:04","block":7979526,"epoch":373,"slotNo":76169893,"epochSlotNo":397093,"stakeKey":"stake1u9uk8x9qxh9pyn9lpu2lyr9qqsu8aytwe3vsp4rc6ce2uhghwjxjc"},{"txId":54501169,"txHash":"eaba437cca5ac9ed55273dce18bbdee281589cf9a164bb48a4987154ed382ec8","txTime":"2022/11/06 12:00:14","block":7979519,"epoch":373,"slotNo":76169723,"epochSlotNo":396923,"stakeKey":"stake1u98v37nf7cn543ns4v2vup6zd62rmc9lflvy5rf2d8qz2jcmmy8jt"},{"txId":54501167,"txHash":"7f0ec2ddb76bd5b607128aa505147d9f8a9759c45d580a626f9eceedcdb7cc30","txTime":"2022/11/06 12:00:14","block":7979519,"epoch":373,"slotNo":76169723,"epochSlotNo":396923,"stakeKey":"stake1u8t3a3kc5esyh2vppppjrahf9zhej5hvjy5d6p889vmtk6qhp5dsy"}],"totalItems":1596032,"totalPages":79802,"currentPage":0}