{"data":[{"hash":"15948aa2efba41f5f8cfc3d2c05faf4019ad68d7b3c7c037859e72cb065d1d04","blockNo":6861407,"blockHash":"bed794d9e3140101ada64cae2039be62990224b461f5289ff88a516a34f873b1","epochNo":319,"epochSlotNo":408040,"slot":52852840,"time":"2022/02/09 15:05:31","addressesInput":["addr1w999n67e86jn6xal07pzxtrmqynspgx0fwmcmpua4wc6yzsxpljz3","addr1qx8w834qz64z8tkm6nzjeg5w4puwl44srjhg8wd8k6drtstsr5pmw34skw4sgqwg8t90lflgaduxz3nx2ldjmnw2twrqus86tg"],"addressesOutput":["addr1w999n67e86jn6xal07pzxtrmqynspgx0fwmcmpua4wc6yzsxpljz3","addr1qx8w834qz64z8tkm6nzjeg5w4puwl44srjhg8wd8k6drtstsr5pmw34skw4sgqwg8t90lflgaduxz3nx2ldjmnw2twrqus86tg"],"fee":1194519,"totalOutput":272472825,"tokens":[]},{"hash":"2a8393b8da2232b6b08ab27fd7fe0150f0eb1b041cb5edc3b1f0a19f3ffb6565","blockNo":6861407,"blockHash":"bed794d9e3140101ada64cae2039be62990224b461f5289ff88a516a34f873b1","epochNo":319,"epochSlotNo":408040,"slot":52852840,"time":"2022/02/09 15:05:31","addressesInput":["addr1qyn6hve4uc97pvkxyamgp3e9qur83yxyu9ewytl0hx2d6zduh6zfh748z0ww7snmygnfvam4f0e8g5dq36r9kn870jmqdvtkxv"],"addressesOutput":["addr1qypfrtq0hwsaxjwtv46lhwyc89958p0vtjzefh0a9hejnpauh6zfh748z0ww7snmygnfvam4f0e8g5dq36r9kn870jmq7rr253"],"fee":174301,"totalOutput":2909874591,"tokens":[]},{"hash":"754f5b00a1e72f996b2a8353ecd1f0acf9d733476365b678ef9ec40793ca4724","blockNo":6861407,"blockHash":"bed794d9e3140101ada64cae2039be62990224b461f5289ff88a516a34f873b1","epochNo":319,"epochSlotNo":408040,"slot":52852840,"time":"2022/02/09 15:05:31","addressesInput":["addr1v95rdt42rug5ee367cautkrk7wux4ygey3ev358r47xe0sssshsye","addr1v9usc8u3ypzc884jauw2ql9408uwwqsa3dj3eq5kylsquqcx8jlh9","addr1vxnfsfv733myk02hd25h025lhv278t4xfzz4z3hll5ca9ag6jfrsn","addr1vx7m9det66f5utfcjsssllxgqkjanvs8dx3ye8zq28l8u0ccysy0z","addr1v8jxurtuf4tdp85x6e9jy2cq0kg34gw79lemva8thz49p4qayccw0","addr1vxlhtswjtxjzd4gntqy54mh6ydqtan4kncr7pzp62jcvwgsel7cd4","addr1vyvmdaqanttyyclt57fd9ehh9hrwfaf8al40axvsr4yfe8qha05am","addr1v9apluzdnngl43uayzaeeh0t7zucny3ej0hfw0359kx5mvgxe4vgr","addr1v9gxpjewhczep5quv8y4cjgmzhd9gp7f727x03zdpn0t4ggtqz8wm","addr1vxuk4scgd0aac7yz9304p46wtrnzef50t86vvanf8nyu3cq36yxdq","addr1v8jp36q7tnlasn335u7c5yuaa7tcur6jhz4up80q78nhhes5jrd5t","addr1v98hs8ewypas3d9tzhm6he0ggl4p5zwf3vf27r2sxgx25ccvy63dk","addr1vyp6tshmlkhw37qw90exxxf95c0t2lhx59pg3a8sqd4nsmq5k4r7w","addr1vydtn73lzllkey24jv0xqlgwkd2wsex20fgm3q79tl5vvsq62j4rr","addr1v9ww300mnrsq6zcpk8rsgr3287hjz9wrf238gt4j5eq2aegf6yt37","addr1vy3qpx09uscywhppj5vp08hu0ekg9zwmq2ysfq6qyh2mpps865j6t","addr1vy6pu883rpyxzsekkxxy0qux8pd3y5ejr2jzlzcw9amte9s3rxnjj","addr1v9we547xfsgahl2mj8kpkhpwj5nnw80ng9qvcxgwhsp226q8wy930","addr1vx6r7d2ug3xsa5ec9ulhp7zh5m8kjsm0yy82g495ajj8lggqjug98","addr1vxkrrfme83jhqcwpcmx5k9pvdlets8tklgpnrsefwpnys5csq6tk7","addr1v8pr9mwnqarw808gtllvmlxvk70hnszrukjeqfstr9t9g5crud8c4","addr1vxr9f336af4yntz87gtdrrhdj5cxuch5jpk9zljpllezgxgcx6v3r"],"addressesOutput":["addr1vy3qpx09uscywhppj5vp08hu0ekg9zwmq2ysfq6qyh2mpps865j6t","addr1v8pr9mwnqarw808gtllvmlxvk70hnszrukjeqfstr9t9g5crud8c4","addr1qx73yckuqxvrhxejunqallmuvz367yr8dxwpmcuc23a39zf0sxjrpycmvzds6hxpudlsadl5j2tm9zhnlvvg02xzqdkqmk5w88","addr1qy43202pm5sdvmgvrue5jzmwr3nz0z4ldmen3jkjvr7yte2jxy0hy62hgxq89rfrusn8ylzm480szs6ut5k6k4g07ggqa6yfpm","addr1qy7qyg32ssaq9y82c74jwdzhyspdnhmusufa7mwyqs0wyesdwm5vrnuj8t84t2j3t48s6axxpmgusxel5s683f5nwzusnqk23w","addr1vyp6tshmlkhw37qw90exxxf95c0t2lhx59pg3a8sqd4nsmq5k4r7w","addr1vydtn73lzllkey24jv0xqlgwkd2wsex20fgm3q79tl5vvsq62j4rr","addr1vxr9f336af4yntz87gtdrrhdj5cxuch5jpk9zljpllezgxgcx6v3r","addr1v9usc8u3ypzc884jauw2ql9408uwwqsa3dj3eq5kylsquqcx8jlh9","addr1v8jp36q7tnlasn335u7c5yuaa7tcur6jhz4up80q78nhhes5jrd5t","addr1vxkrrfme83jhqcwpcmx5k9pvdlets8tklgpnrsefwpnys5csq6tk7","addr1vxuk4scgd0aac7yz9304p46wtrnzef50t86vvanf8nyu3cq36yxdq","addr1v9ww300mnrsq6zcpk8rsgr3287hjz9wrf238gt4j5eq2aegf6yt37","addr1vx6r7d2ug3xsa5ec9ulhp7zh5m8kjsm0yy82g495ajj8lggqjug98","addr1v9we547xfsgahl2mj8kpkhpwj5nnw80ng9qvcxgwhsp226q8wy930","addr1v8jxurtuf4tdp85x6e9jy2cq0kg34gw79lemva8thz49p4qayccw0","addr1vyvmdaqanttyyclt57fd9ehh9hrwfaf8al40axvsr4yfe8qha05am","addr1v95rdt42rug5ee367cautkrk7wux4ygey3ev358r47xe0sssshsye","addr1vx7m9det66f5utfcjsssllxgqkjanvs8dx3ye8zq28l8u0ccysy0z","addr1v9apluzdnngl43uayzaeeh0t7zucny3ej0hfw0359kx5mvgxe4vgr","addr1vxlhtswjtxjzd4gntqy54mh6ydqtan4kncr7pzp62jcvwgsel7cd4","addr1vxnfsfv733myk02hd25h025lhv278t4xfzz4z3hll5ca9ag6jfrsn"],"fee":419821,"totalOutput":3414741469,"tokens":[]},{"hash":"37c850f65f91c767efa3563acacc89010745c7d332d87b6050cae9d80eb59f3b","blockNo":6861407,"blockHash":"bed794d9e3140101ada64cae2039be62990224b461f5289ff88a516a34f873b1","epochNo":319,"epochSlotNo":408040,"slot":52852840,"time":"2022/02/09 15:05:31","addressesInput":["addr1vy05tpwpj6vyxtw3vvnke2xy25z6rled45dnn2z9dd0q8mg78wzke","addr1vyp6tshmlkhw37qw90exxxf95c0t2lhx59pg3a8sqd4nsmq5k4r7w","addr1v9z3ju7sagr333xh3yhuvhyy4laad2jwj9narfljenq2vdct00wsz","addr1v8pr9mwnqarw808gtllvmlxvk70hnszrukjeqfstr9t9g5crud8c4","addr1vy3qpx09uscywhppj5vp08hu0ekg9zwmq2ysfq6qyh2mpps865j6t","addr1v8cyd6et2hj74ltdgkfpr3zly94ktep50fe33qrh74g6wvc9ky56k"],"addressesOutput":["addr1vy3qpx09uscywhppj5vp08hu0ekg9zwmq2ysfq6qyh2mpps865j6t","addr1v8pr9mwnqarw808gtllvmlxvk70hnszrukjeqfstr9t9g5crud8c4","addr1qxusz6xs3ptj0lmyhya4kplzmfk8q7q2s266nsk9g5rmkrwu77j86sacjjt7dua8kr3j9uykdv6rq7hfyfgu59jxc2aqpy8q38","addr1qx0vd90e4f58yjaz0v6vdllgkfe4dp8g4uk0kmkmzdgzpk28n9zwjkkaa49xyj2r3m9zp27t0ak6t3wpcklrftgyjzlsxxun7v","addr1qxz80u5jgg3hyr5d7z30qjkrlxdhq80jpucf5svcevqn8d09kffp2vap23s33v22v5y28tn29vfz4a3q3y3c47s46zvs3hxccm","addr1vyp6tshmlkhw37qw90exxxf95c0t2lhx59pg3a8sqd4nsmq5k4r7w"],"fee":222613,"totalOutput":3384644434,"tokens":[]},{"hash":"337dc8552124d663c0e1de10c6aec111908532e1d5cc167b4e3a251a3ab68a28","blockNo":6861407,"blockHash":"bed794d9e3140101ada64cae2039be62990224b461f5289ff88a516a34f873b1","epochNo":319,"epochSlotNo":408040,"slot":52852840,"time":"2022/02/09 15:05:31","addressesInput":["addr1q8lad6afkrn0g5dyxgrxafhh5phn6z955607xmuyeyete0uu0jqsm9zruapammgnpuh2wav8rezdxn99wf7pnnxndjaqy8q8sf"],"addressesOutput":["addr1q8hf8zftch8wtk37hk7s93ck709lquvpf58e2cp3lxe2ceyvtecmn9c9a6mectnwe5mv4nsky092j3z2hnd0qzuyvunqsfxrds","addr1q8lad6afkrn0g5dyxgrxafhh5phn6z955607xmuyeyete0uu0jqsm9zruapammgnpuh2wav8rezdxn99wf7pnnxndjaqy8q8sf","addr1q8lad6afkrn0g5dyxgrxafhh5phn6z955607xmuyeyete0uu0jqsm9zruapammgnpuh2wav8rezdxn99wf7pnnxndjaqy8q8sf"],"fee":173157,"totalOutput":24768499,"tokens":[]},{"hash":"5137a5411bdc44361c07257d45b9c7259208a856c0921003e91cc7e34e0db4cb","blockNo":6861407,"blockHash":"bed794d9e3140101ada64cae2039be62990224b461f5289ff88a516a34f873b1","epochNo":319,"epochSlotNo":408040,"slot":52852840,"time":"2022/02/09 15:05:31","addressesInput":["addr1qxt5e00yhqgylqt9rcz2exvst7wz43snaazjkr4ssl4trw526msjfs4vaff5ry7k9k7vlle59nzw8cjeu57p8mvt3cgsg6ax7g"],"addressesOutput":["addr1qyuxg4ge8u6e87ke8mpneahyx6rx4dhu4yndqjhepur9jl526msjfs4vaff5ry7k9k7vlle59nzw8cjeu57p8mvt3cgsj3t9a3"],"fee":174301,"totalOutput":618051141,"tokens":[]},{"hash":"6ecc095bc0adc8177de0555cceeeb0c45996f424579ce863603860086029a414","blockNo":6861407,"blockHash":"bed794d9e3140101ada64cae2039be62990224b461f5289ff88a516a34f873b1","epochNo":319,"epochSlotNo":408040,"slot":52852840,"time":"2022/02/09 15:05:31","addressesInput":["addr1qxtw0dnzcwdwmx4jueddzu0tadg0sd6zfdxe4l83xzngl3qv66w2syspd8evp9pxet6czqcdgtc0ns9sl67yfn50twfq3darw9"],"addressesOutput":["addr1qx2688c8h8eytslj7zltmv7mmenluwkm2cvwpkvvfp4wahqv66w2syspd8evp9pxet6czqcdgtc0ns9sl67yfn50twfqkmddch"],"fee":172805,"totalOutput":3463882286,"tokens":[]},{"hash":"b38501c5d858b69673ccb7ec495ca7733075ba8da7cb31be92ad610786d6f408","blockNo":6861407,"blockHash":"bed794d9e3140101ada64cae2039be62990224b461f5289ff88a516a34f873b1","epochNo":319,"epochSlotNo":408040,"slot":52852840,"time":"2022/02/09 15:05:31","addressesInput":["addr1q9gz7jaxjvrjd252jt07gwvd8kk62hfd27etwtxep9q9239axhrvagc8vt2e7mm0vpyuuykweldk873nva7qlawd7res3mzfte","addr1q9gz7jaxjvrjd252jt07gwvd8kk62hfd27etwtxep9q9239axhrvagc8vt2e7mm0vpyuuykweldk873nva7qlawd7res3mzfte"],"addressesOutput":["addr1w999n67e86jn6xal07pzxtrmqynspgx0fwmcmpua4wc6yzsxpljz3","addr1q9gz7jaxjvrjd252jt07gwvd8kk62hfd27etwtxep9q9239axhrvagc8vt2e7mm0vpyuuykweldk873nva7qlawd7res3mzfte"],"fee":210519,"totalOutput":67471084,"tokens":[]},{"hash":"b26eebb7e20e6ae4659a0fc2ffb966f54d8b37c420eac39717da5c5aef964839","blockNo":6861407,"blockHash":"bed794d9e3140101ada64cae2039be62990224b461f5289ff88a516a34f873b1","epochNo":319,"epochSlotNo":408040,"slot":52852840,"time":"2022/02/09 15:05:31","addressesInput":["addr1w999n67e86jn6xal07pzxtrmqynspgx0fwmcmpua4wc6yzsxpljz3","addr1qxq7py2s29lh3gpjwk3djk5q7e2xn5c6w0j5jea7aykca3pe445jrq8q0ftcejrfhym92svygly8u2jlwzq4gkkg85sqpwgdys"],"addressesOutput":["addr1w999n67e86jn6xal07pzxtrmqynspgx0fwmcmpua4wc6yzsxpljz3","addr1qxq7py2s29lh3gpjwk3djk5q7e2xn5c6w0j5jea7aykca3pe445jrq8q0ftcejrfhym92svygly8u2jlwzq4gkkg85sqpwgdys"],"fee":1192455,"totalOutput":70928991,"tokens":[]},{"hash":"475589dacd559f7b50d568e23889fedd98eac64c432e9c146002c6b8fb333a95","blockNo":6861407,"blockHash":"bed794d9e3140101ada64cae2039be62990224b461f5289ff88a516a34f873b1","epochNo":319,"epochSlotNo":408040,"slot":52852840,"time":"2022/02/09 15:05:31","addressesInput":["addr1qxjljj6gzqg9gltl6v8m663z9akv6d3jnh3dnr95dhq2kqds4vuxmur6a042px7kftagnrwzt2fds9qfjyf9fg4emkxqyuajws","addr1qxjljj6gzqg9gltl6v8m663z9akv6d3jnh3dnr95dhq2kqds4vuxmur6a042px7kftagnrwzt2fds9qfjyf9fg4emkxqyuajws","addr1qxjljj6gzqg9gltl6v8m663z9akv6d3jnh3dnr95dhq2kqds4vuxmur6a042px7kftagnrwzt2fds9qfjyf9fg4emkxqyuajws","addr1qxjljj6gzqg9gltl6v8m663z9akv6d3jnh3dnr95dhq2kqds4vuxmur6a042px7kftagnrwzt2fds9qfjyf9fg4emkxqyuajws"],"addressesOutput":["addr1wxaptpmxcxawvr3pzlhgnpmzz3ql43n2tc8mn3av5kx0yzs09tqh8","addr1qxjljj6gzqg9gltl6v8m663z9akv6d3jnh3dnr95dhq2kqds4vuxmur6a042px7kftagnrwzt2fds9qfjyf9fg4emkxqyuajws"],"fee":216181,"totalOutput":1356900250,"tokens":[]},{"hash":"21521ba69319cbf76d3bb9a9309867ee3c978b816c6f13a23b48b5fc6d860a1d","blockNo":6861407,"blockHash":"bed794d9e3140101ada64cae2039be62990224b461f5289ff88a516a34f873b1","epochNo":319,"epochSlotNo":408040,"slot":52852840,"time":"2022/02/09 15:05:31","addressesInput":["addr1q8leycg3dlhhutv2upaa8ranv6g06nfrrcflqtk0kd27d7mnegs472mkrpajeancc3elfmnz42qlt2vc72q7p5uvnjuq35v7vw","addr1q8leycg3dlhhutv2upaa8ranv6g06nfrrcflqtk0kd27d7mnegs472mkrpajeancc3elfmnz42qlt2vc72q7p5uvnjuq35v7vw","addr1q8leycg3dlhhutv2upaa8ranv6g06nfrrcflqtk0kd27d7mnegs472mkrpajeancc3elfmnz42qlt2vc72q7p5uvnjuq35v7vw","addr1q8leycg3dlhhutv2upaa8ranv6g06nfrrcflqtk0kd27d7mnegs472mkrpajeancc3elfmnz42qlt2vc72q7p5uvnjuq35v7vw","addr1w999n67e86jn6xal07pzxtrmqynspgx0fwmcmpua4wc6yzsxpljz3"],"addressesOutput":["addr1q9cwvremt6n320s2e3agq0jyq82yhrk3htsu0w426xnz5us70z4w0jgvcdkkynmm8wmds66jd9kusnjfpu6raw5fqp0sr07p5w","addr1qyh70cf9v4898vm5dewap2klx4h0etzhcfkgv3c2235vjqck25arrwtyqtg4068zv6f9k42f25tzmcw3usx8z96a8mhshyqxvh","addr1qysc5errjjvppg35keemnuxnv5kdzycl24jcxpz55fwgexy5xteszekutyg4jn66vt8q2zuxtrsuevrtp0ugdcqq5lpq9r49wf","addr1q8leycg3dlhhutv2upaa8ranv6g06nfrrcflqtk0kd27d7mnegs472mkrpajeancc3elfmnz42qlt2vc72q7p5uvnjuq35v7vw","addr1q8leycg3dlhhutv2upaa8ranv6g06nfrrcflqtk0kd27d7mnegs472mkrpajeancc3elfmnz42qlt2vc72q7p5uvnjuq35v7vw"],"fee":1191111,"totalOutput":130478568,"tokens":[]},{"hash":"a19991a6eaf9b634ec48e1e2c3b5a3a92933c8bde71d7cc00f0a4ade70750fb6","blockNo":6861407,"blockHash":"bed794d9e3140101ada64cae2039be62990224b461f5289ff88a516a34f873b1","epochNo":319,"epochSlotNo":408040,"slot":52852840,"time":"2022/02/09 15:05:31","addressesInput":["addr1v85ncazra9k37p4t2enm8apc3qqepprhjgd62a90paa8r4g5stgpg"],"addressesOutput":["addr1q8r34fzrm2fs733t36nkdmssh9xzcxzewu00hmj88c8y29kud25xhm8gam5u2ecsuhc7cgeeqedwfgd84q8axplmu3ks20kdf6","addr1vxrmu3m2cc5k6xltupj86a2uzcuq8r4nhznrhfq0pkwl4hgqj2v8w","addr1vxgpkxtwqd25ua72umh0p2h8s2r5vq26ywyslqrynsesmpc3wseja"],"fee":215441,"totalOutput":44784559,"tokens":[]},{"hash":"50f0dee26958352e0f9ce14303f1c49acc67986fe13a5c2f2a42d65c77517a2c","blockNo":6861407,"blockHash":"bed794d9e3140101ada64cae2039be62990224b461f5289ff88a516a34f873b1","epochNo":319,"epochSlotNo":408040,"slot":52852840,"time":"2022/02/09 15:05:31","addressesInput":["addr1qxks8hqsjzz2f32mlflcej5e37lcxtwmxy6rk7krl33s54e4lp6zerc2998v5ktttvf6ane6pe3qxyyhwa2qshv5rj0slhxn49"],"addressesOutput":["addr1q8u2yd9a8tsu6w2fkw3llvnwe2xanjzzf8c0czrggtmu4nenhyeuehjg6drt3n493pq28yjxj69p62c9jx3hcmsrqvcsmjddr7","addr1q948e4zncduu68pfmmpe0exvfp8jyj7wpsqysnznq0k0pff4lp6zerc2998v5ktttvf6ane6pe3qxyyhwa2qshv5rj0ssqaupw"],"fee":268065,"totalOutput":199152547,"tokens":[]},{"hash":"f4963bba33f049f4daeb8460fd432f2a362e410db7b305aa3647d3fad61d1732","blockNo":6861407,"blockHash":"bed794d9e3140101ada64cae2039be62990224b461f5289ff88a516a34f873b1","epochNo":319,"epochSlotNo":408040,"slot":52852840,"time":"2022/02/09 15:05:31","addressesInput":["addr1q8zk9872ed7pl3e7l3xmy9avv7szwxdm46hqvuw75uu69p4kjmslcn4pmvw2qf57vyv884ucr69a8wya4usu48t6xqjs0eegpt"],"addressesOutput":["addr1q966ydy3q3r26rgkl2tppak5fgn4d7q7s07y56wyvegm2sakjmslcn4pmvw2qf57vyv884ucr69a8wya4usu48t6xqjs4zrt0f"],"fee":172981,"totalOutput":8011576202,"tokens":[]},{"hash":"073614a3c9c107442609961db09b31b49e4cf6c50498e8868748da7164ba6810","blockNo":6861407,"blockHash":"bed794d9e3140101ada64cae2039be62990224b461f5289ff88a516a34f873b1","epochNo":319,"epochSlotNo":408040,"slot":52852840,"time":"2022/02/09 15:05:31","addressesInput":["addr1qx3964vjj9wp7d3xta7n9l5q2ys2wawpfkfulx4nyewkhdtscfa6k0rkjn4nq7mxvv3aazjgn48vu7d7awfrmq83c9mqummq7s","addr1w9yr0zr530tp9yzrhly8lw5upddu0eym3yh0mjwa0qlr9pgmkzgv0","addr1qx3964vjj9wp7d3xta7n9l5q2ys2wawpfkfulx4nyewkhdtscfa6k0rkjn4nq7mxvv3aazjgn48vu7d7awfrmq83c9mqummq7s"],"addressesOutput":["addr1qx3964vjj9wp7d3xta7n9l5q2ys2wawpfkfulx4nyewkhdtscfa6k0rkjn4nq7mxvv3aazjgn48vu7d7awfrmq83c9mqummq7s","addr1qx3964vjj9wp7d3xta7n9l5q2ys2wawpfkfulx4nyewkhdtscfa6k0rkjn4nq7mxvv3aazjgn48vu7d7awfrmq83c9mqummq7s"],"fee":1084989,"totalOutput":79964423,"tokens":[]},{"hash":"d8e3dab14027d8a1680ca84da832ecf640a816eabddb0ceb8fe3029dd4baf875","blockNo":6861407,"blockHash":"bed794d9e3140101ada64cae2039be62990224b461f5289ff88a516a34f873b1","epochNo":319,"epochSlotNo":408040,"slot":52852840,"time":"2022/02/09 15:05:31","addressesInput":["addr1vxr9f336af4yntz87gtdrrhdj5cxuch5jpk9zljpllezgxgcx6v3r","addr1v9xfl25m2x57c8g875sv4xe3p6j2tj2sqm27yjj4tt5kk2gme3vmd","addr1vx0rklrlp9wjvx5vjy7tmunvgpe2ryyt9wyy5ytyk7k29jc5j0ucq","addr1v9we547xfsgahl2mj8kpkhpwj5nnw80ng9qvcxgwhsp226q8wy930","addr1vygsm9qsf6gksmsefzen3hsuau7jyslyyk68x6yqh474sagsxl34t","addr1vxkrrfme83jhqcwpcmx5k9pvdlets8tklgpnrsefwpnys5csq6tk7","addr1v98a9a3ekgx2nsmduzx2gtha9uclt6z2qd9gmcvjjsr7ywcpunfef","addr1vyp6tshmlkhw37qw90exxxf95c0t2lhx59pg3a8sqd4nsmq5k4r7w","addr1v8g3ws3nwhxlkavul9anjepu9l5asjhg709lmsnulxx9kdcaaurjn","addr1v8pr9mwnqarw808gtllvmlxvk70hnszrukjeqfstr9t9g5crud8c4","addr1v88pnv9mjleumgmekvkh5e0xswzn3rc6kc4atepkzel3kusu8v2ee","addr1vy3qpx09uscywhppj5vp08hu0ekg9zwmq2ysfq6qyh2mpps865j6t","addr1v89jryfhl2qaqge9sf6e9m0yqt22sv8d3c6s0pw7ued4ptsehgxht","addr1vy0rzktdrtfeu6urn9w8v4z9faqtjvzectkeuzzl9h0qnpccjp2v5","addr1vx0cd798py6p7z609wfkxhcp0cxwukhax6vxg3xs3gxtw8cxc30hf","addr1v8jp36q7tnlasn335u7c5yuaa7tcur6jhz4up80q78nhhes5jrd5t","addr1vx6r7d2ug3xsa5ec9ulhp7zh5m8kjsm0yy82g495ajj8lggqjug98","addr1v9ww300mnrsq6zcpk8rsgr3287hjz9wrf238gt4j5eq2aegf6yt37","addr1v9aqzwn39yhkuam0z3t8dk6xfnr9svwxdhz6yx5z8jrte5gflasnj","addr1vxs5gcc8ft479a7c320nfdlpm7p2z6fdw7fg6t756s3rqgqus4q63","addr1v87ln2jsy0prjg9vt4ddj2g9pfyy0mxuefywyqhccqxd3fcnwd93z","addr1vyx3g7tu83qnfxg6hy8992n8xahelkhpx67peya2jdg94fsckecr0","addr1vy5dmf5h4xjje6d7lagdxppvy70dyj5x4cxcpxavvn2vwuqm5wnxp","addr1vyp5ayk0822akma8lfajwpmytcdprzk6dlxw60gvf27nt8cge27zt","addr1vy29gl3396gvph7ucn9y9gcnnq5g0y42yn6d36xheam8e5g7f5hfd"],"addressesOutput":["addr1vy3qpx09uscywhppj5vp08hu0ekg9zwmq2ysfq6qyh2mpps865j6t","addr1v8pr9mwnqarw808gtllvmlxvk70hnszrukjeqfstr9t9g5crud8c4","addr1qyx6h4mja49etyj52z5gw5ga2g76dk8pxpnz6c9g66kuzvd3uasq38f033y3zupq5dmnzv9dppssmszpwwm70l6ezjasnh69sk","addr1qyc5u8vjj7vvqm5z25tks5muhwgjg6g06xgf6h0v9zds32x9rzk6u8jygww2skv6ea38lpcd8dtc2upwawl9k6mx4t3qfsu2uj","addr1qxrj6076z4g66usjwk34tg34f680keq342n45qwpgzwnl2uupfwmr0j8q9z099wwvp39fcdqd3mney07lwlvk3v0c49qpgrv5j","addr1vyp6tshmlkhw37qw90exxxf95c0t2lhx59pg3a8sqd4nsmq5k4r7w","addr1vy5dmf5h4xjje6d7lagdxppvy70dyj5x4cxcpxavvn2vwuqm5wnxp","addr1vy29gl3396gvph7ucn9y9gcnnq5g0y42yn6d36xheam8e5g7f5hfd","addr1vxr9f336af4yntz87gtdrrhdj5cxuch5jpk9zljpllezgxgcx6v3r","addr1v98a9a3ekgx2nsmduzx2gtha9uclt6z2qd9gmcvjjsr7ywcpunfef","addr1vx0cd798py6p7z609wfkxhcp0cxwukhax6vxg3xs3gxtw8cxc30hf","addr1vyp5ayk0822akma8lfajwpmytcdprzk6dlxw60gvf27nt8cge27zt","addr1v9ww300mnrsq6zcpk8rsgr3287hjz9wrf238gt4j5eq2aegf6yt37","addr1vygsm9qsf6gksmsefzen3hsuau7jyslyyk68x6yqh474sagsxl34t","addr1vy0rzktdrtfeu6urn9w8v4z9faqtjvzectkeuzzl9h0qnpccjp2v5","addr1vyx3g7tu83qnfxg6hy8992n8xahelkhpx67peya2jdg94fsckecr0","addr1v9we547xfsgahl2mj8kpkhpwj5nnw80ng9qvcxgwhsp226q8wy930","addr1vx0rklrlp9wjvx5vjy7tmunvgpe2ryyt9wyy5ytyk7k29jc5j0ucq","addr1v8jp36q7tnlasn335u7c5yuaa7tcur6jhz4up80q78nhhes5jrd5t","addr1vxkrrfme83jhqcwpcmx5k9pvdlets8tklgpnrsefwpnys5csq6tk7","addr1v8g3ws3nwhxlkavul9anjepu9l5asjhg709lmsnulxx9kdcaaurjn","addr1vx6r7d2ug3xsa5ec9ulhp7zh5m8kjsm0yy82g495ajj8lggqjug98","addr1v9xfl25m2x57c8g875sv4xe3p6j2tj2sqm27yjj4tt5kk2gme3vmd","addr1v89jryfhl2qaqge9sf6e9m0yqt22sv8d3c6s0pw7ued4ptsehgxht","addr1vxs5gcc8ft479a7c320nfdlpm7p2z6fdw7fg6t756s3rqgqus4q63"],"fee":464789,"totalOutput":3409969745,"tokens":[]},{"hash":"3090d9d809e6c14b3ce8e7924f0eb1515df111e6e561cad3a1d2c59af99586e3","blockNo":6861407,"blockHash":"bed794d9e3140101ada64cae2039be62990224b461f5289ff88a516a34f873b1","epochNo":319,"epochSlotNo":408040,"slot":52852840,"time":"2022/02/09 15:05:31","addressesInput":["addr1vy5l62qysq3j6u4jsw0u73e8teus5x36ghd04lv0vsvqvys770xjw"],"addressesOutput":["addr1qxsye0c26j9q20pk6sgmsefjfkqjks7ln6cxg5fewk4rn9c57p33xvyrkununudjaq7gnxvze3nd57406aywqgsxhpysw5h53q","addr1vy5l62qysq3j6u4jsw0u73e8teus5x36ghd04lv0vsvqvys770xjw"],"fee":168581,"totalOutput":458368995,"tokens":[]},{"hash":"9ae8b6fdc20763a32cededb5c03ce16d5c635fe4bc9b779cdac960d1aae9095d","blockNo":6861407,"blockHash":"bed794d9e3140101ada64cae2039be62990224b461f5289ff88a516a34f873b1","epochNo":319,"epochSlotNo":408040,"slot":52852840,"time":"2022/02/09 15:05:31","addressesInput":["addr1q9vxzg28zsqg2jyyuvutwzh7z4arhcfh5p2v0sj57j0vemsppq3zumtq2qlxxrrht46j9heqarja4074e4ydw02czjeqyx2dfr"],"addressesOutput":["addr1v9ychf0tc9mapdx0m35zpg0nzjfya3g6vp80gxup48tnq5qzedmwa","addr1q8weqpuamxkjf8wxt3qn4g9cmeysnu0xpudvt08vt65fsccppq3zumtq2qlxxrrht46j9heqarja4074e4ydw02czjeq9qm0g7"],"fee":171001,"totalOutput":17737056,"tokens":[]},{"hash":"b35b0f855b302c7a11f2c886131562de396c6690529a5c64c5f75b4770e973df","blockNo":6861407,"blockHash":"bed794d9e3140101ada64cae2039be62990224b461f5289ff88a516a34f873b1","epochNo":319,"epochSlotNo":408040,"slot":52852840,"time":"2022/02/09 15:05:31","addressesInput":["addr1qxuy4krsxl7a0vvr7a9cegg629nmhc4t36njdwlc5uxppm43fxl8wsv7g9ugk46a3tmz2dydmzcvt50clyt04v5sm9zqyzazpn"],"addressesOutput":["addr1v834v4m6pss52z4nvnagv88ja7qel64f3m2k3vt4fvp9pwggaeqwe","addr1qxuy4krsxl7a0vvr7a9cegg629nmhc4t36njdwlc5uxppm43fxl8wsv7g9ugk46a3tmz2dydmzcvt50clyt04v5sm9zqyzazpn"],"fee":167085,"totalOutput":65382915,"tokens":[]},{"hash":"7d18d62e447af850d46612ffe709f0d3bd53bc772bfcc9b1d722fa9e03ff2222","blockNo":6861407,"blockHash":"bed794d9e3140101ada64cae2039be62990224b461f5289ff88a516a34f873b1","epochNo":319,"epochSlotNo":408040,"slot":52852840,"time":"2022/02/09 15:05:31","addressesInput":["addr1q80luh68a82jw5fks50ff20rltg6j74pyd4rg69x48gtu3ke3dwyzs0h3z2na6sdtkj4eh00jc747a3gxrsyg60sqvjs085qe5","addr1q80luh68a82jw5fks50ff20rltg6j74pyd4rg69x48gtu3ke3dwyzs0h3z2na6sdtkj4eh00jc747a3gxrsyg60sqvjs085qe5","addr1q80luh68a82jw5fks50ff20rltg6j74pyd4rg69x48gtu3ke3dwyzs0h3z2na6sdtkj4eh00jc747a3gxrsyg60sqvjs085qe5","addr1q80luh68a82jw5fks50ff20rltg6j74pyd4rg69x48gtu3ke3dwyzs0h3z2na6sdtkj4eh00jc747a3gxrsyg60sqvjs085qe5","addr1w9yr0zr530tp9yzrhly8lw5upddu0eym3yh0mjwa0qlr9pgmkzgv0"],"addressesOutput":["addr1qynjwmcg6v0u7cm567w7409fzgttg8v33ql2lsapd9n2ztwcuvcdxm4v96xkch6kz2ssk87vhde34yl56jh8axauh5dqryy88l","addr1qxq47au29wss4g8acjk0zsmwwq0h34hhzump6stye9wuldm7nm0t6ad3jz9hy5v3smye0nvcumtzu43k7r36ag0w29qqdafvvk","addr1q80luh68a82jw5fks50ff20rltg6j74pyd4rg69x48gtu3ke3dwyzs0h3z2na6sdtkj4eh00jc747a3gxrsyg60sqvjs085qe5","addr1q80luh68a82jw5fks50ff20rltg6j74pyd4rg69x48gtu3ke3dwyzs0h3z2na6sdtkj4eh00jc747a3gxrsyg60sqvjs085qe5"],"fee":1049041,"totalOutput":77492289,"tokens":[]}],"totalItems":30497618,"totalPages":1524881,"currentPage":0}