{"data":[{"txId":40023244,"txHash":"5f3ab02851eb15cd3f8c6e9088177fbd4f390b2eeaaf921621bff68f3b01a483","txTime":"2022/05/02 16:52:42","block":7196759,"epoch":336,"slotNo":59944071,"epochSlotNo":155271,"stakeKey":"stake1u94a75jn7r74y7ykttjuq4fejwzgesuwznndtnxkaz27aqsx2htgd"},{"txId":40022948,"txHash":"fc3cb237076b0fb7cce0789bda4c7e97aa7e788b69aa309f5292211b1a52d28d","txTime":"2022/05/02 16:49:21","block":7196749,"epoch":336,"slotNo":59943870,"epochSlotNo":155070,"stakeKey":"stake1u8ma993lcarrazkmau4y98guwju5tl5dsmvgyx6jpnu003c2f52x7"},{"txId":40022574,"txHash":"fea7bf4cfae6f36c17eec3420ba729820aae1463f62a13a8c12ce322622a3766","txTime":"2022/05/02 16:44:46","block":7196733,"epoch":336,"slotNo":59943595,"epochSlotNo":154795,"stakeKey":"stake1u9nzsm5src6nf4gvuhtn0evxuygypq2v8udygq0fa3hcqcgf23r2n"},{"txId":40022523,"txHash":"d33da2ddfe685bc1f717205a8cc3a0d3b09093f346850a8af30f5fe309d606ee","txTime":"2022/05/02 16:43:55","block":7196731,"epoch":336,"slotNo":59943544,"epochSlotNo":154744,"stakeKey":"stake1ux63m9u5hmqvr652jgc9u4xud7jax9qha6s7uxrqef2jcusmwsuke"},{"txId":40022477,"txHash":"1df56aa004529e455cf8d91ffaceac3286d96d7fa210cb6966bfa1900c48e757","txTime":"2022/05/02 16:43:02","block":7196728,"epoch":336,"slotNo":59943491,"epochSlotNo":154691,"stakeKey":"stake1u8ptq38y9gn3lshaw3lxwqhgartvhnnrwdqdl5fgk0vfsvqpq03y4"},{"txId":40022307,"txHash":"f676e9051f42743febbb0208a28ab1c2198996f290346a084e3bc378aace2716","txTime":"2022/05/02 16:41:36","block":7196724,"epoch":336,"slotNo":59943405,"epochSlotNo":154605,"stakeKey":"stake1u9t6f7p8g7g75uer4rsy3n5j0mm28mz7n32z8gt24gqky2qcmd4lv"},{"txId":40021722,"txHash":"f99f65e6347ed20348e7e9be6b107121ecdd2ef04741a443b69ee7ab0b57ffc3","txTime":"2022/05/02 16:34:50","block":7196704,"epoch":336,"slotNo":59942999,"epochSlotNo":154199,"stakeKey":"stake1uxq5xruqle5p2pg2pr3y8fklp2drptzf9f49fzjwpexy5ts6q59qx"},{"txId":40021398,"txHash":"b685728d70e6345402be6d6911e14c2b0f58874515322d578a68950982c34c0a","txTime":"2022/05/02 16:30:48","block":7196692,"epoch":336,"slotNo":59942757,"epochSlotNo":153957,"stakeKey":"stake1u87wl8lcp9ndgec77ggqkrkgssryxmhwhqr9xa2v0l09q7sg74h7l"},{"txId":40020480,"txHash":"0049c9d809e9eb16b0e5f147773071a910234aff50dcba82b55e09a48a1cb945","txTime":"2022/05/02 16:19:37","block":7196656,"epoch":336,"slotNo":59942086,"epochSlotNo":153286,"stakeKey":"stake1u9063dytcp0zqvm5ustwnaac3u8zex2vmvumlv32q5c0plqtjg4lm"},{"txId":40020422,"txHash":"437d6d8eabd40c9ce6baea0a4ce0831f3636ab399813ef7543d0e76434f9306c","txTime":"2022/05/02 16:19:16","block":7196654,"epoch":336,"slotNo":59942065,"epochSlotNo":153265,"stakeKey":"stake1uy6de2rce9t3r2ll40lll5mqrgfaxwsdyz55c5vvw8qjenq7mzlku"},{"txId":40019547,"txHash":"2a9d350810bc86b566837858684276faaa7012eedd92c18817cade2224cd00e9","txTime":"2022/05/02 16:09:47","block":7196620,"epoch":336,"slotNo":59941496,"epochSlotNo":152696,"stakeKey":"stake1uy657mlzwnqz2chw6ded6jle5p7r440w030dcnus92hhptqghf6yw"},{"txId":40019252,"txHash":"290c116833d51cbd4e860ecf54f800ebd6c363fc65f43ef9680191627cca6ea5","txTime":"2022/05/02 16:06:36","block":7196609,"epoch":336,"slotNo":59941305,"epochSlotNo":152505,"stakeKey":"stake1u990pnz5pda6pe5l6qhucwamw6c22hn9z02mjucx0yedzkgw4whkg"},{"txId":40018600,"txHash":"cb0e11e65e970d21307dabf198b17bfa7cae47c90e548db01e25b625916ae706","txTime":"2022/05/02 15:59:25","block":7196582,"epoch":336,"slotNo":59940874,"epochSlotNo":152074,"stakeKey":"stake1uxcpqzwk7gr4upceuy39hmyxpehaktwactldy87j552t3wsyta0ex"},{"txId":40018567,"txHash":"eaaaa9b6ded0caa28e007d842e56a82f87532afcbc82c52e1cf3710bd497ee30","txTime":"2022/05/02 15:59:12","block":7196581,"epoch":336,"slotNo":59940861,"epochSlotNo":152061,"stakeKey":"stake1uxcp0m4whunpwpenpwet59tsdyu7fgenqsa0rawtzma9xzsjtqlfw"},{"txId":40018502,"txHash":"a7100322ea7605222ad0454243b39cccaf594abfc2efe5fd5f208b9ea1907b85","txTime":"2022/05/02 15:57:36","block":7196579,"epoch":336,"slotNo":59940765,"epochSlotNo":151965,"stakeKey":"stake1ux4ursf4vsh74xpu0rp6nllmct56fvhuka7gzg5xf95slhqxdrehm"},{"txId":40018423,"txHash":"60e32e3b8ec814636399133da484ead88bbb13638aac028c996b9b3d0c44579b","txTime":"2022/05/02 15:56:58","block":7196577,"epoch":336,"slotNo":59940727,"epochSlotNo":151927,"stakeKey":"stake1u8ujzyu7fqdtvnya9wjs3x2sr5zx9ffaw4fc45ms5qqtjgsw7t3vp"},{"txId":40018232,"txHash":"02368fefb598b1e118525e747f5890138995d6ba1cc1438a3118d21123f7ab0a","txTime":"2022/05/02 15:54:48","block":7196571,"epoch":336,"slotNo":59940597,"epochSlotNo":151797,"stakeKey":"stake1ux8r6673l45t72ea0wpqddlm8grszv4lx4uhmxjdtjju6rcvsd72h"},{"txId":40018101,"txHash":"d094987c03fe2da254332253745c82fd6aad9ba9b274fa891a1fab12a5c00ea2","txTime":"2022/05/02 15:51:31","block":7196568,"epoch":336,"slotNo":59940400,"epochSlotNo":151600,"stakeKey":"stake1uxyu9v5wjpnjrctz237gxsmw0jdr3t78hgjteetf7vjt3vqtk6jx4"},{"txId":40017818,"txHash":"999cf9300b58036cb48122831215dc03435a20f24abcb93d88df2dfab63aef66","txTime":"2022/05/02 15:48:24","block":7196561,"epoch":336,"slotNo":59940213,"epochSlotNo":151413,"stakeKey":"stake1u8pdvpl5swyawx8twft5g2wyttqkhsfs23e5n00kalzthxqr8mlvx"},{"txId":40017786,"txHash":"bfb77a35dc3065dea906979e9f76c5227fc986106935392d28e88b1c3cfa3044","txTime":"2022/05/02 15:48:03","block":7196560,"epoch":336,"slotNo":59940192,"epochSlotNo":151392,"stakeKey":"stake1u826glnrck84ds7hjwycqsj3nxd3ug0l7hewe2a07qjreqglmzg67"}],"totalItems":267764,"totalPages":13389,"currentPage":0}