{"data":[{"hash":"d8716458577ebdb3f4f9ad0aa4c2b25db4d3efb31c43b94b4e15e4233841548a","blockNo":8122485,"blockHash":"525ac0aced24d62fbb2bd86d6557916a0c4de8c387e19336e2f188c5b4767738","epochNo":380,"epochSlotNo":328103,"slot":79124903,"time":"2022/12/10 16:53:14","addressesInput":["DdzFFzCqrhsxnLobrdLtoNDLUdFoRzj3YTFDgdq86m6TrMLEsJpnkHqwaHYfm33iEoeP12WujjuM3LosHVT7fGZZww96CuvsNYykCZhr","DdzFFzCqrht9yy5CST3HbYWHPEipU89brZAgsWoyvnRuAFCB9bzDaRyjmwx4soQhvUbiFyWn29c4QFzk85GYTJWbBBfmJSGSG3e5f24f","DdzFFzCqrhsi4HjTT5zJSGiuUY3TsA2PZxmtUDAG8XB7pTxFZGAaGCv5wBe6LqEj2EZvwLXSETTMq2kwVvwsEU2rQWetd81xyp6AVyke","DdzFFzCqrhtAsbwpXT52uANh3j3xsa4v5hkhBwBEeue5Z1Cf6fjmRjPbG6j4ijnRArXPKPDVCGqE31iioCWwEpipfRAFF1jx6VzsEQrq","DdzFFzCqrhsj1d24Fqc8vmJhVm8aMYaKm5ji8JVywNLzYKVMLwuX4GNapFxpMULfk1WUKZFnZcHU1oHPM4g2XK5K8Rd1NkKsp8vriLBi"],"addressesOutput":["DdzFFzCqrhsdzK42MpiYLrWq4RcVTktQvBLy44xqqfUNDCQmY5mdyZ4Rrk9mb41wQD84G41uUWBfdgN6cEN692v4xFfKn2UNqejQ5Ur1","DdzFFzCqrht2YM7UefRVLeskBZZVVmki3eUGjmWeknA4BzdfggjUtNhu2Tu5hSBT74wAYNo82N4eoXcWMaR42nMKgMLnyAnFAjuCW7K1"],"fee":213373,"totalOutput":283406444,"tokens":[]},{"hash":"404c300237e0b5493427a73258fe31148b5f3950ab8a40c9f400adf6e41d3cf8","blockNo":8122485,"blockHash":"525ac0aced24d62fbb2bd86d6557916a0c4de8c387e19336e2f188c5b4767738","epochNo":380,"epochSlotNo":328103,"slot":79124903,"time":"2022/12/10 16:53:14","addressesInput":["addr1qxlwvnhz7mcwqlah0d4nadl7y0ld25pcgmthxv774vcvghdylzg3n9966apq9qykz65ac2c6zs3m96npgzfqaxz45rwqwuwyqk","addr1qxlwvnhz7mcwqlah0d4nadl7y0ld25pcgmthxv774vcvghdylzg3n9966apq9qykz65ac2c6zs3m96npgzfqaxz45rwqwuwyqk"],"addressesOutput":["addr1wxaptpmxcxawvr3pzlhgnpmzz3ql43n2tc8mn3av5kx0yzs09tqh8","addr1qxlwvnhz7mcwqlah0d4nadl7y0ld25pcgmthxv774vcvghdylzg3n9966apq9qykz65ac2c6zs3m96npgzfqaxz45rwqwuwyqk"],"fee":184201,"totalOutput":31160597,"tokens":[]},{"hash":"e324705fcf1cfe2c41b1483110c62b42dc7519d3d435c84eff0f65e357f553a0","blockNo":8122485,"blockHash":"525ac0aced24d62fbb2bd86d6557916a0c4de8c387e19336e2f188c5b4767738","epochNo":380,"epochSlotNo":328103,"slot":79124903,"time":"2022/12/10 16:53:14","addressesInput":["addr1vyvq2tfuk3kx4t73gtxwgv4d77dsqj7wvhl8fzpxd36dz8g2el9m9"],"addressesOutput":["addr1v8px4syex8e07e6c2ucfheh27t2tcxxjm5el22g0cw32m5g77jc7x"],"fee":400000,"totalOutput":19600000,"tokens":[]},{"hash":"e089c6038297c4f9f001f21328531383a768430ced9ce8ee5a8e7a5b0aa22627","blockNo":8122485,"blockHash":"525ac0aced24d62fbb2bd86d6557916a0c4de8c387e19336e2f188c5b4767738","epochNo":380,"epochSlotNo":328103,"slot":79124903,"time":"2022/12/10 16:53:14","addressesInput":["addr1v9ywm0h3r8cnxrs04gfy7c3s2j44utjyvn5ldjdca0c2ltccgqdes"],"addressesOutput":["addr1qyhgruye3fn60ct5rmtnzhurz2z55kx3yvl54v5s6uh5yr7nx43dw4y9hnu8uxvxpy0f64mf0ppzuuhkxzjq5zq5mmaszufche","addr1q9e7s6zvfn9zvhq5zqvsvva09m48ltr8lt8lfmrn5x6pmcls42cr05gs584g0ux0ykdlvx0c52gym20pd2n5zw8pyqxqxfgf9e"],"fee":208709,"totalOutput":4791291,"tokens":[]},{"hash":"b6721cb7e31c9eac76594fe5fd8f5bade32ab2f6d7992798325358ec1545c9a7","blockNo":8122485,"blockHash":"525ac0aced24d62fbb2bd86d6557916a0c4de8c387e19336e2f188c5b4767738","epochNo":380,"epochSlotNo":328103,"slot":79124903,"time":"2022/12/10 16:53:14","addressesInput":["addr1qxkmr0m22xeqludcg5rjdmecjxasu9fat0680qehtcsnftaadgykewa9ufvegeuca9yyq03d9v7ea2y2zthgu7hfgjtsddp6gr","addr1qxkmr0m22xeqludcg5rjdmecjxasu9fat0680qehtcsnftaadgykewa9ufvegeuca9yyq03d9v7ea2y2zthgu7hfgjtsddp6gr","addr1qxkmr0m22xeqludcg5rjdmecjxasu9fat0680qehtcsnftaadgykewa9ufvegeuca9yyq03d9v7ea2y2zthgu7hfgjtsddp6gr"],"addressesOutput":["addr1qxkmr0m22xeqludcg5rjdmecjxasu9fat0680qehtcsnftaadgykewa9ufvegeuca9yyq03d9v7ea2y2zthgu7hfgjtsddp6gr","addr1q8gaj4hfp8c4mfng6zzpyufeltkl7jpxg6yzg4ugy4frl3mmtmmdt360khfzcpgy7vu4h0y8kwver9dn5az8k90vxgdq98mpnn","addr1qxkmr0m22xeqludcg5rjdmecjxasu9fat0680qehtcsnftaadgykewa9ufvegeuca9yyq03d9v7ea2y2zthgu7hfgjtsddp6gr"],"fee":249849,"totalOutput":56645405984,"tokens":[]},{"hash":"c1916510176e1b061d273fe973745638413a16f3000b72311dd1f2fd903f1aae","blockNo":8122485,"blockHash":"525ac0aced24d62fbb2bd86d6557916a0c4de8c387e19336e2f188c5b4767738","epochNo":380,"epochSlotNo":328103,"slot":79124903,"time":"2022/12/10 16:53:14","addressesInput":["addr1q95a00ajtllxnpuywrsvu3mcrwa7yhwsxll408jsuylmpdlpeqxlv5mw92lp09t8axpys8y7mnusw5ayff7t6fl33fnsjjx2d4"],"addressesOutput":["addr1q9alnxernxryhzdh28ewdh8dfa2yv7q94humca2vxaa0fxzuuycwmttssyymhddve8nfur0y5g4zngs7rqg92w3w26vszr0l6f","addr1q95a00ajtllxnpuywrsvu3mcrwa7yhwsxll408jsuylmpdlpeqxlv5mw92lp09t8axpys8y7mnusw5ayff7t6fl33fnsjjx2d4"],"fee":168317,"totalOutput":10204150,"tokens":[]},{"hash":"fce443551662dac542070411559fa5673600e8ae13730c82a640db1c26276cb4","blockNo":8122485,"blockHash":"525ac0aced24d62fbb2bd86d6557916a0c4de8c387e19336e2f188c5b4767738","epochNo":380,"epochSlotNo":328103,"slot":79124903,"time":"2022/12/10 16:53:14","addressesInput":["addr1qy6llyr2t3ww8z6yctkru6alhwu49vg8uz6xa30qqmgp9xgmxcvdeg3r39n7e7d0g2whq53r03j3sqee0sckruzg43sqfp6lnx","addr1qy6llyr2t3ww8z6yctkru6alhwu49vg8uz6xa30qqmgp9xgmxcvdeg3r39n7e7d0g2whq53r03j3sqee0sckruzg43sqfp6lnx"],"addressesOutput":["addr1zxgx3far7qygq0k6epa0zcvcvrevmn0ypsnfsue94nsn3tvpw288a4x0xf8pxgcntelxmyclq83s0ykeehchz2wtspks905plm","addr1qy6llyr2t3ww8z6yctkru6alhwu49vg8uz6xa30qqmgp9xgmxcvdeg3r39n7e7d0g2whq53r03j3sqee0sckruzg43sqfp6lnx"],"fee":207125,"totalOutput":5183891,"tokens":[]},{"hash":"10b1d6c9cc9456e2d405f443ce53fccfe57fbccbd643f8ea41ba251607f1227e","blockNo":8122485,"blockHash":"525ac0aced24d62fbb2bd86d6557916a0c4de8c387e19336e2f188c5b4767738","epochNo":380,"epochSlotNo":328103,"slot":79124903,"time":"2022/12/10 16:53:14","addressesInput":["addr1q9fpq00vh5g7c8f89x0ya8094p5pw7v0n0nueejnldt5hgl3uwndg48qpy2ryafa3mvj4ypgmzqfhjhhhqk7qrn9487szjcalj","addr1q9fpq00vh5g7c8f89x0ya8094p5pw7v0n0nueejnldt5hgl3uwndg48qpy2ryafa3mvj4ypgmzqfhjhhhqk7qrn9487szjcalj"],"addressesOutput":["addr1qxk057ugwu3mmfft5wkrclt9fwcugep5rts9jq0nhy29kk6ayvjkf20tr9uh9yuw6y03ryrhzv4zxtzwctqln9fs4nrqjacflp","addr1q9fpq00vh5g7c8f89x0ya8094p5pw7v0n0nueejnldt5hgl3uwndg48qpy2ryafa3mvj4ypgmzqfhjhhhqk7qrn9487szjcalj"],"fee":172145,"totalOutput":136116545,"tokens":[]},{"hash":"cda6f465b1951bfad4e0282ed651f8adf4eab2557b7fcd3538db7a3c99a1c160","blockNo":8122485,"blockHash":"525ac0aced24d62fbb2bd86d6557916a0c4de8c387e19336e2f188c5b4767738","epochNo":380,"epochSlotNo":328103,"slot":79124903,"time":"2022/12/10 16:53:14","addressesInput":["addr1zxgx3far7qygq0k6epa0zcvcvrevmn0ypsnfsue94nsn3tvpw288a4x0xf8pxgcntelxmyclq83s0ykeehchz2wtspks905plm","addr1qyyuyvzhdewkcp32p754akhmfdmkp06ge9tfe9yjjjvnhm7ullr9fe0cw7f73p6adj6qelyd5g4wamxhkckuymsr0h6syvfea3"],"addressesOutput":["addr1qyyuyvzhdewkcp32p754akhmfdmkp06ge9tfe9yjjjvnhm7ullr9fe0cw7f73p6adj6qelyd5g4wamxhkckuymsr0h6syvfea3","addr1qyyuyvzhdewkcp32p754akhmfdmkp06ge9tfe9yjjjvnhm7ullr9fe0cw7f73p6adj6qelyd5g4wamxhkckuymsr0h6syvfea3"],"fee":264336,"totalOutput":14378544,"tokens":[]},{"hash":"5d89acb9aebc18b2a2527f2745888a92b01063bd5a780bf4d895593c2f90cf2a","blockNo":8122485,"blockHash":"525ac0aced24d62fbb2bd86d6557916a0c4de8c387e19336e2f188c5b4767738","epochNo":380,"epochSlotNo":328103,"slot":79124903,"time":"2022/12/10 16:53:14","addressesInput":["addr1qxevnd3sgtmmzw9nzhwhdv8n4w86p3elgjku2ht9c0fc2tuwwswzkxwecxg6afat4m98d67z2yl97r7ra9uum9g4gctscpp46a","addr1zxgx3far7qygq0k6epa0zcvcvrevmn0ypsnfsue94nsn3tvpw288a4x0xf8pxgcntelxmyclq83s0ykeehchz2wtspks905plm"],"addressesOutput":["addr1zxgx3far7qygq0k6epa0zcvcvrevmn0ypsnfsue94nsn3tvpw288a4x0xf8pxgcntelxmyclq83s0ykeehchz2wtspks905plm","addr1qxevnd3sgtmmzw9nzhwhdv8n4w86p3elgjku2ht9c0fc2tuwwswzkxwecxg6afat4m98d67z2yl97r7ra9uum9g4gctscpp46a"],"fee":296620,"totalOutput":75976923,"tokens":[]},{"hash":"b29b4a87e6d5e94d594a732e674bf57bbfc3dbe1e02570bf5e033241f1f7043a","blockNo":8122485,"blockHash":"525ac0aced24d62fbb2bd86d6557916a0c4de8c387e19336e2f188c5b4767738","epochNo":380,"epochSlotNo":328103,"slot":79124903,"time":"2022/12/10 16:53:14","addressesInput":["addr1qy90pyvjd8ajkvpt7ws7ucdpk4qdlxty92uajg0aweau8zwcvhv8845dr9ezmnmdqmk64z5wxh63uef7cv67m9dhx70sr3n5yf"],"addressesOutput":["addr1zxgx3far7qygq0k6epa0zcvcvrevmn0ypsnfsue94nsn3tvpw288a4x0xf8pxgcntelxmyclq83s0ykeehchz2wtspks905plm","addr1qy90pyvjd8ajkvpt7ws7ucdpk4qdlxty92uajg0aweau8zwcvhv8845dr9ezmnmdqmk64z5wxh63uef7cv67m9dhx70sr3n5yf"],"fee":416829,"totalOutput":159744377,"tokens":[]},{"hash":"4fb5cff68d1dcd91162bb7316b30fea16adce7fc5727dcaa45c89d164465e10f","blockNo":8122485,"blockHash":"525ac0aced24d62fbb2bd86d6557916a0c4de8c387e19336e2f188c5b4767738","epochNo":380,"epochSlotNo":328103,"slot":79124903,"time":"2022/12/10 16:53:14","addressesInput":["addr1q8gs4anxktjl2rvxlxcgpppdhne8rhhh5hd7q7t34a9247s2tdw0tsdevp8499488pmh9q9rfv8q45tyj443fcejkasqeeks7z","addr1zxgx3far7qygq0k6epa0zcvcvrevmn0ypsnfsue94nsn3tvpw288a4x0xf8pxgcntelxmyclq83s0ykeehchz2wtspks905plm","addr1q8gs4anxktjl2rvxlxcgpppdhne8rhhh5hd7q7t34a9247s2tdw0tsdevp8499488pmh9q9rfv8q45tyj443fcejkasqeeks7z"],"addressesOutput":["addr1q9kjerd80l6lnln9spjhla57u0rgkzctg64p992maekq4e0k62uf6my7vrtancvjy3ms5mr4fkn0em9ntjqhjpynnm7sgmzrsu","addr1q9cwvremt6n320s2e3agq0jyq82yhrk3htsu0w426xnz5us70z4w0jgvcdkkynmm8wmds66jd9kusnjfpu6raw5fqp0sr07p5w","addr1qygparkuka46k8ysftczjza9tugjrfa3u2lftg955r09qrnlkv4c5k0gdeyun4vh02zkvef8tr4k3d9a8j65luqp2qkqtcj3uv","addr1q8gs4anxktjl2rvxlxcgpppdhne8rhhh5hd7q7t34a9247s2tdw0tsdevp8499488pmh9q9rfv8q45tyj443fcejkasqeeks7z","addr1q8gs4anxktjl2rvxlxcgpppdhne8rhhh5hd7q7t34a9247s2tdw0tsdevp8499488pmh9q9rfv8q45tyj443fcejkasqeeks7z"],"fee":408251,"totalOutput":249757451,"tokens":[]},{"hash":"5c976378e59b37e3daba493eadbcf1ddc0913ed97ff10d8f2bb5769b91d6a108","blockNo":8122485,"blockHash":"525ac0aced24d62fbb2bd86d6557916a0c4de8c387e19336e2f188c5b4767738","epochNo":380,"epochSlotNo":328103,"slot":79124903,"time":"2022/12/10 16:53:14","addressesInput":["addr1qxngmqfj0xmxu5jerkhnudntr50uh0nq5vymu73mh75sk3qrctcc4h9fwmm8vpl9axxw3k7dpetcf0hseavhstgk72tsxmkmvs","addr1zxgx3far7qygq0k6epa0zcvcvrevmn0ypsnfsue94nsn3tvpw288a4x0xf8pxgcntelxmyclq83s0ykeehchz2wtspks905plm"],"addressesOutput":["addr1qxngmqfj0xmxu5jerkhnudntr50uh0nq5vymu73mh75sk3qrctcc4h9fwmm8vpl9axxw3k7dpetcf0hseavhstgk72tsxmkmvs","addr1qxngmqfj0xmxu5jerkhnudntr50uh0nq5vymu73mh75sk3qrctcc4h9fwmm8vpl9axxw3k7dpetcf0hseavhstgk72tsxmkmvs"],"fee":268120,"totalOutput":16510048,"tokens":[]},{"hash":"6af9fe5b0bd81bdcfc83550ad97b1b1b66e8fea9e7f3560f77bf0c93bd8efaaa","blockNo":8122485,"blockHash":"525ac0aced24d62fbb2bd86d6557916a0c4de8c387e19336e2f188c5b4767738","epochNo":380,"epochSlotNo":328103,"slot":79124903,"time":"2022/12/10 16:53:14","addressesInput":["addr1v8wc5q5pfqsxz6cn0c8mfpf0mz4tx6r4mpyer89x32nvkuqfqy8gv","addr1wxaptpmxcxawvr3pzlhgnpmzz3ql43n2tc8mn3av5kx0yzs09tqh8","addr1v8wc5q5pfqsxz6cn0c8mfpf0mz4tx6r4mpyer89x32nvkuqfqy8gv","addr1w9qzpelu9hn45pefc0xr4ac4kdxeswq7pndul2vuj59u8tqaxdznu"],"addressesOutput":["addr1w9qzpelu9hn45pefc0xr4ac4kdxeswq7pndul2vuj59u8tqaxdznu","addr1w9jx45flh83z6wuqypyash54mszwmdj8r64fydafxtfc6jgrw4rm3","addr1qxmj5v6pvvdat64e9u0h6j79ayndzuf35778h3pjthde9xy03k6v6mjrcstveh5cr2rymyds7tr8t30sn8t7gpsu8cms02dh5k","addr1v8wc5q5pfqsxz6cn0c8mfpf0mz4tx6r4mpyer89x32nvkuqfqy8gv","addr1v8wc5q5pfqsxz6cn0c8mfpf0mz4tx6r4mpyer89x32nvkuqfqy8gv"],"fee":1173636,"totalOutput":106244964,"tokens":[]},{"hash":"08903fdb512e9101d52c3d662849f5e894d67f74cfc41fdd775e8213ba85c247","blockNo":8122485,"blockHash":"525ac0aced24d62fbb2bd86d6557916a0c4de8c387e19336e2f188c5b4767738","epochNo":380,"epochSlotNo":328103,"slot":79124903,"time":"2022/12/10 16:53:14","addressesInput":["addr1q9cc2sd620vz9v3znjy6vjhyyx0cn5384rgeru6fmr60ua4pvvdlpvfvgtg9nly03hg3qdmzh2rq30skc7h43r8z4m6sf7mve7","addr1zxgx3far7qygq0k6epa0zcvcvrevmn0ypsnfsue94nsn3tvpw288a4x0xf8pxgcntelxmyclq83s0ykeehchz2wtspks905plm","addr1q9cc2sd620vz9v3znjy6vjhyyx0cn5384rgeru6fmr60ua4pvvdlpvfvgtg9nly03hg3qdmzh2rq30skc7h43r8z4m6sf7mve7","addr1q9cc2sd620vz9v3znjy6vjhyyx0cn5384rgeru6fmr60ua4pvvdlpvfvgtg9nly03hg3qdmzh2rq30skc7h43r8z4m6sf7mve7","addr1q9cc2sd620vz9v3znjy6vjhyyx0cn5384rgeru6fmr60ua4pvvdlpvfvgtg9nly03hg3qdmzh2rq30skc7h43r8z4m6sf7mve7"],"addressesOutput":["addr1q850yycpl8tnzyq92emdpnntd4ghsvmtm3w26cwzjae28nhwqhrwydhskax3nqpjphha750yv4znc8xetxq5uc48aygss6tn9j","addr1q9cwvremt6n320s2e3agq0jyq82yhrk3htsu0w426xnz5us70z4w0jgvcdkkynmm8wmds66jd9kusnjfpu6raw5fqp0sr07p5w","addr1q8p9pe8tfpfzckfs8u926p4czwrzuautmltfsxw5wksedwszrcvxcqlgge3q5syh09803c2j8ldt62una7wgtdwydf5stsgg9y","addr1q9cc2sd620vz9v3znjy6vjhyyx0cn5384rgeru6fmr60ua4pvvdlpvfvgtg9nly03hg3qdmzh2rq30skc7h43r8z4m6sf7mve7","addr1q9cc2sd620vz9v3znjy6vjhyyx0cn5384rgeru6fmr60ua4pvvdlpvfvgtg9nly03hg3qdmzh2rq30skc7h43r8z4m6sf7mve7","addr1q9cc2sd620vz9v3znjy6vjhyyx0cn5384rgeru6fmr60ua4pvvdlpvfvgtg9nly03hg3qdmzh2rq30skc7h43r8z4m6sf7mve7","addr1q9cc2sd620vz9v3znjy6vjhyyx0cn5384rgeru6fmr60ua4pvvdlpvfvgtg9nly03hg3qdmzh2rq30skc7h43r8z4m6sf7mve7"],"fee":447303,"totalOutput":832800587,"tokens":[]},{"hash":"fff8912fee0f2db1cf1780b15da95b998046a009b88423a8595c836c58319561","blockNo":8122485,"blockHash":"525ac0aced24d62fbb2bd86d6557916a0c4de8c387e19336e2f188c5b4767738","epochNo":380,"epochSlotNo":328103,"slot":79124903,"time":"2022/12/10 16:53:14","addressesInput":["addr1qxjfhsxgez865hnpedfsamzed4z89gkpyadsczqpaxdqmgpgymqfugzlt4ueesg7zrxp9nj85w8x06h2v34d70wapmms6f9dnl","addr1qxjfhsxgez865hnpedfsamzed4z89gkpyadsczqpaxdqmgpgymqfugzlt4ueesg7zrxp9nj85w8x06h2v34d70wapmms6f9dnl","addr1q9k5c762h4rssaa0t3tkh55nhjx0hk7yzdne8ffegpmp5tegymqfugzlt4ueesg7zrxp9nj85w8x06h2v34d70wapmmsaf0wcf","addr1q9k5c762h4rssaa0t3tkh55nhjx0hk7yzdne8ffegpmp5tegymqfugzlt4ueesg7zrxp9nj85w8x06h2v34d70wapmmsaf0wcf","addr1qxjfhsxgez865hnpedfsamzed4z89gkpyadsczqpaxdqmgpgymqfugzlt4ueesg7zrxp9nj85w8x06h2v34d70wapmms6f9dnl"],"addressesOutput":["addr1qyg5yk36ee0rhl5hw5kxcfng5ygrsv55tuchs0nxjmh9uqmpmpaxya7n6kzmyy6f72st0akwx8zg5n6emrxa5mhywg9q3v23dv","addr1qxjfhsxgez865hnpedfsamzed4z89gkpyadsczqpaxdqmgpgymqfugzlt4ueesg7zrxp9nj85w8x06h2v34d70wapmms6f9dnl","addr1qxjfhsxgez865hnpedfsamzed4z89gkpyadsczqpaxdqmgpgymqfugzlt4ueesg7zrxp9nj85w8x06h2v34d70wapmms6f9dnl"],"fee":320205,"totalOutput":334644063,"tokens":[]},{"hash":"59ead9b43a4a29d96e7b3fbcf7767e2f1380d41d9501f6637f161031fa72e9de","blockNo":8122485,"blockHash":"525ac0aced24d62fbb2bd86d6557916a0c4de8c387e19336e2f188c5b4767738","epochNo":380,"epochSlotNo":328103,"slot":79124903,"time":"2022/12/10 16:53:14","addressesInput":["addr1q843lurjgqtggkn5u3hdd7zfdmy4v6f2lsdyr3jcecul7rpcugh4uvvpkm875mu2u7z729x2xzwsjy344dygqkgxxw5stfwm8k","addr1zxgx3far7qygq0k6epa0zcvcvrevmn0ypsnfsue94nsn3tvpw288a4x0xf8pxgcntelxmyclq83s0ykeehchz2wtspks905plm"],"addressesOutput":["addr1zxgx3far7qygq0k6epa0zcvcvrevmn0ypsnfsue94nsn3tvpw288a4x0xf8pxgcntelxmyclq83s0ykeehchz2wtspks905plm","addr1q843lurjgqtggkn5u3hdd7zfdmy4v6f2lsdyr3jcecul7rpcugh4uvvpkm875mu2u7z729x2xzwsjy344dygqkgxxw5stfwm8k"],"fee":297442,"totalOutput":162175666,"tokens":[]},{"hash":"3003b769a436de58755ab1f11ba2e38dc06ab9182cdc536cf253453d249c4c73","blockNo":8122484,"blockHash":"0391f0869cbbe809d1821de32c9bf5655948176a1f6d44a7197e9721f78753c4","epochNo":380,"epochSlotNo":328077,"slot":79124877,"time":"2022/12/10 16:52:48","addressesInput":["addr1qyxy4z7jr3tflnk87g962ymx8kzny6ttflldhvjtxnn7q6mya5mfa8n4hs6mmlpfs2mtc5v8q5y5rkwqsmwmxn39dz7qm8a3ch","addr1qyxy4z7jr3tflnk87g962ymx8kzny6ttflldhvjtxnn7q6mya5mfa8n4hs6mmlpfs2mtc5v8q5y5rkwqsmwmxn39dz7qm8a3ch","addr1zxgx3far7qygq0k6epa0zcvcvrevmn0ypsnfsue94nsn3tvpw288a4x0xf8pxgcntelxmyclq83s0ykeehchz2wtspks905plm"],"addressesOutput":["addr1q8strj29gcm2kh9hzapp4sjmmenphxmuvhsc0kj7phlqjkncpuj5z6de6jfh3683wevfktmjwn78n2mar9j75ca0070s2jljks","addr1q9cwvremt6n320s2e3agq0jyq82yhrk3htsu0w426xnz5us70z4w0jgvcdkkynmm8wmds66jd9kusnjfpu6raw5fqp0sr07p5w","addr1q94uzak3fxajpzd85uy70qyzexnz8rxpvf33r395v43xjduuefljzvgxt7hrd9xq6gp0pdmug6vv6uzetrh8ef3dkejsn2ye4v","addr1qyxy4z7jr3tflnk87g962ymx8kzny6ttflldhvjtxnn7q6mya5mfa8n4hs6mmlpfs2mtc5v8q5y5rkwqsmwmxn39dz7qm8a3ch","addr1qyxy4z7jr3tflnk87g962ymx8kzny6ttflldhvjtxnn7q6mya5mfa8n4hs6mmlpfs2mtc5v8q5y5rkwqsmwmxn39dz7qm8a3ch","addr1qyxy4z7jr3tflnk87g962ymx8kzny6ttflldhvjtxnn7q6mya5mfa8n4hs6mmlpfs2mtc5v8q5y5rkwqsmwmxn39dz7qm8a3ch"],"fee":418680,"totalOutput":415572725,"tokens":[]},{"hash":"d7d3ce7afa725d8fb7dfa781088d44819b2bc98c87e092d1fd04124eab3c628c","blockNo":8122484,"blockHash":"0391f0869cbbe809d1821de32c9bf5655948176a1f6d44a7197e9721f78753c4","epochNo":380,"epochSlotNo":328077,"slot":79124877,"time":"2022/12/10 16:52:48","addressesInput":["addr1qxkmr0m22xeqludcg5rjdmecjxasu9fat0680qehtcsnftaadgykewa9ufvegeuca9yyq03d9v7ea2y2zthgu7hfgjtsddp6gr","addr1qxkmr0m22xeqludcg5rjdmecjxasu9fat0680qehtcsnftaadgykewa9ufvegeuca9yyq03d9v7ea2y2zthgu7hfgjtsddp6gr","addr1qxkmr0m22xeqludcg5rjdmecjxasu9fat0680qehtcsnftaadgykewa9ufvegeuca9yyq03d9v7ea2y2zthgu7hfgjtsddp6gr"],"addressesOutput":["addr1qxkmr0m22xeqludcg5rjdmecjxasu9fat0680qehtcsnftaadgykewa9ufvegeuca9yyq03d9v7ea2y2zthgu7hfgjtsddp6gr","addr1q8gaj4hfp8c4mfng6zzpyufeltkl7jpxg6yzg4ugy4frl3mmtmmdt360khfzcpgy7vu4h0y8kwver9dn5az8k90vxgdq98mpnn","addr1qxkmr0m22xeqludcg5rjdmecjxasu9fat0680qehtcsnftaadgykewa9ufvegeuca9yyq03d9v7ea2y2zthgu7hfgjtsddp6gr"],"fee":248793,"totalOutput":56645050742,"tokens":[]},{"hash":"174eac9003aededdc0bc36b810962b7127aee67e05ca8affe0af2272518db8fa","blockNo":8122484,"blockHash":"0391f0869cbbe809d1821de32c9bf5655948176a1f6d44a7197e9721f78753c4","epochNo":380,"epochSlotNo":328077,"slot":79124877,"time":"2022/12/10 16:52:48","addressesInput":["addr1qyhgruye3fn60ct5rmtnzhurz2z55kx3yvl54v5s6uh5yr7nx43dw4y9hnu8uxvxpy0f64mf0ppzuuhkxzjq5zq5mmaszufche","addr1qyhgruye3fn60ct5rmtnzhurz2z55kx3yvl54v5s6uh5yr7nx43dw4y9hnu8uxvxpy0f64mf0ppzuuhkxzjq5zq5mmaszufche","addr1qyhgruye3fn60ct5rmtnzhurz2z55kx3yvl54v5s6uh5yr7nx43dw4y9hnu8uxvxpy0f64mf0ppzuuhkxzjq5zq5mmaszufche","addr1qyhgruye3fn60ct5rmtnzhurz2z55kx3yvl54v5s6uh5yr7nx43dw4y9hnu8uxvxpy0f64mf0ppzuuhkxzjq5zq5mmaszufche","addr1qyhgruye3fn60ct5rmtnzhurz2z55kx3yvl54v5s6uh5yr7nx43dw4y9hnu8uxvxpy0f64mf0ppzuuhkxzjq5zq5mmaszufche","addr1qyhgruye3fn60ct5rmtnzhurz2z55kx3yvl54v5s6uh5yr7nx43dw4y9hnu8uxvxpy0f64mf0ppzuuhkxzjq5zq5mmaszufche"],"addressesOutput":["addr1v9ywm0h3r8cnxrs04gfy7c3s2j44utjyvn5ldjdca0c2ltccgqdes","addr1qyhgruye3fn60ct5rmtnzhurz2z55kx3yvl54v5s6uh5yr7nx43dw4y9hnu8uxvxpy0f64mf0ppzuuhkxzjq5zq5mmaszufche","addr1qyhgruye3fn60ct5rmtnzhurz2z55kx3yvl54v5s6uh5yr7nx43dw4y9hnu8uxvxpy0f64mf0ppzuuhkxzjq5zq5mmaszufche"],"fee":592805,"totalOutput":29385570,"tokens":[]}],"totalItems":56394153,"totalPages":2819708,"currentPage":0}