{"data":[{"txId":61404072,"txHash":"1c2e2a4f24a3f8a26af4f9bf4144448ece9b8f4f238eaf0cb77ac277f12c8243","txTime":"2023/02/06 02:47:29","block":8363654,"epoch":392,"slotNo":84085358,"epochSlotNo":104558,"stakeKey":"stake1uxrayntm0sjrugrjafaz2ku34kk700sywl3m0f7yec6k6wsvq4wqa"},{"txId":61403663,"txHash":"8b4616ce1f60a713b3f69213aca0a8b7232758a8f47460baa7ca54ec52777a30","txTime":"2023/02/06 02:37:26","block":8363634,"epoch":392,"slotNo":84084755,"epochSlotNo":103955,"stakeKey":"stake1uyg69g3wu0cjyjy6g5c6en0enssyw90wd9l0kmvvfrk99fgh3cl4t"},{"txId":61403547,"txHash":"0bea83d38a344a929bf73c6258b24d780ae7d1b6e2d3e84e263082b61a52cc1e","txTime":"2023/02/06 02:35:28","block":8363628,"epoch":392,"slotNo":84084637,"epochSlotNo":103837,"stakeKey":"stake1uymegcq2rhjayr2yqdg20s86dzwfx2vrs0em24megjx6nssu3z5z6"},{"txId":61403488,"txHash":"cda1977bf54e34ecf61313a53f3dceccb9232a9bc752f3db4030719c989519cd","txTime":"2023/02/06 02:33:56","block":8363625,"epoch":392,"slotNo":84084545,"epochSlotNo":103745,"stakeKey":"stake1uxkp8476a3q7hzs9vkl3ehnmtdnhx0fpfj73e8hnj3sp6hcvxdmrh"},{"txId":61403399,"txHash":"9e711eb76e5be937e6b9a1afb12b5ed6ea38dbb792abaf5e251381e1e873c8d8","txTime":"2023/02/06 02:31:48","block":8363614,"epoch":392,"slotNo":84084417,"epochSlotNo":103617,"stakeKey":"stake1uxa6xcma7m7fvdep0fs8m8tptuc8de6h97ak8ttlpvm349gskfx2n"},{"txId":61402648,"txHash":"d9e106dbefe35e27a4d50d4669ddd119fc18b8d927af8746eaf7a338e92a1706","txTime":"2023/02/06 02:16:29","block":8363569,"epoch":392,"slotNo":84083498,"epochSlotNo":102698,"stakeKey":"stake1u95g6xq7zea6qs62vj4qz3jjyzfc74scllhndu47x0nrtdcvnvys5"},{"txId":61402086,"txHash":"020186ed32d0f797fa9138870da0918adc1b0929c440824e6f692483740961f5","txTime":"2023/02/06 02:05:00","block":8363526,"epoch":392,"slotNo":84082809,"epochSlotNo":102009,"stakeKey":"stake1uyqztf7t7dzdk6sug5amv59hjskltgqgmm6s80zedapwttcansrha"},{"txId":61401153,"txHash":"cd92de8158e6fb9b39c561615174cc76f76ac057d156bfe1014e25bac2af655d","txTime":"2023/02/06 01:46:51","block":8363474,"epoch":392,"slotNo":84081720,"epochSlotNo":100920,"stakeKey":"stake1uy9szjcru09y2jhm277dmtca0nxfalkyks0ddfkz3xcnz8sgqggh0"},{"txId":61401150,"txHash":"699f4e8b9ac5291d005c752c78ed7063192a49a533cd23f2ae155e997ebead7c","txTime":"2023/02/06 01:46:05","block":8363473,"epoch":392,"slotNo":84081674,"epochSlotNo":100874,"stakeKey":"stake1uxp5mgxlnk5yhzk856mwgmsw2h9qc32a69wfpa43a0ax9hgv52ew6"},{"txId":61400090,"txHash":"b4ad05cd3d4b18421c980972122ee5509e06da0038161d4f39ea9a2ef07bebb1","txTime":"2023/02/06 01:25:05","block":8363420,"epoch":392,"slotNo":84080414,"epochSlotNo":99614,"stakeKey":"stake1u8w82lw6gyl3yaggktuvnrj9392wekyrtq5e6kt5kcdu7ygux0a0u"},{"txId":61398492,"txHash":"c93242dbbe964b801e8fc11d6fd31d121a8a69591ee6f509a797ad0fa4ccac37","txTime":"2023/02/06 00:54:26","block":8363339,"epoch":392,"slotNo":84078575,"epochSlotNo":97775,"stakeKey":"stake1u9n6md7rh5tgnrwdcv9xj4tnft8scfsmxpetdtp0vvyjayqvmdl7h"},{"txId":61397980,"txHash":"ad5d69bb5dc9324c67a6836c6a753c07e8a5981ea1f83ea49001b9eebdc66b12","txTime":"2023/02/06 00:45:23","block":8363318,"epoch":392,"slotNo":84078032,"epochSlotNo":97232,"stakeKey":"stake1uyekrxr6z83e792m9pgglkc0p4zrg24pql0fyfwxfatvecghtpd2q"},{"txId":61397511,"txHash":"02282f4254995005b764e7a082e6e018ada23d9ae15b130343f7263d063e083b","txTime":"2023/02/06 00:36:07","block":8363289,"epoch":392,"slotNo":84077476,"epochSlotNo":96676,"stakeKey":"stake1uxrayntm0sjrugrjafaz2ku34kk700sywl3m0f7yec6k6wsvq4wqa"},{"txId":61397338,"txHash":"cc4ffb6a05bd79eba4b77fde4f7e4bc4750c06be5ab7d8cf0d9fcc24c7000aae","txTime":"2023/02/06 00:32:57","block":8363277,"epoch":392,"slotNo":84077286,"epochSlotNo":96486,"stakeKey":"stake1u9z3fvjqjegx33y5cktn056xfkmqd88yanzs9u7mwl244ggfpxes2"},{"txId":61397249,"txHash":"1b6617fc4229179433c52fedb9e0f2ce04cf3538b83c8308e7ab03517487600e","txTime":"2023/02/06 00:30:47","block":8363273,"epoch":392,"slotNo":84077156,"epochSlotNo":96356,"stakeKey":"stake1uy72qwgvgkcyzmvtw3cgqa5a3ef9e4r72lqerv42tm3ds7skhf9md"},{"txId":61397085,"txHash":"af20c32ebd2c924eefed933e704ae7cd5b2f3eea78067f9a12099c96fab13335","txTime":"2023/02/06 00:28:20","block":8363267,"epoch":392,"slotNo":84077009,"epochSlotNo":96209,"stakeKey":"stake1u9n96kvv5qeh57whnua4dp3lw29rnmmh5sh3x3vu579980cdlle6q"},{"txId":61397012,"txHash":"7d9b0efd79ae1a2ef42da8dffb8b1ed5d9f3f28ef9dc0e6f213d8a621165ae8d","txTime":"2023/02/06 00:27:07","block":8363264,"epoch":392,"slotNo":84076936,"epochSlotNo":96136,"stakeKey":"stake1ux2c6fm4vfdw8hqcx0d5u627cs4xg3s4mm5c7fvpc90awech9yfw5"},{"txId":61396951,"txHash":"72a770db1f447b19c49b24ab4c2ede607fb186754f33cfdfbe389b2403d2cec1","txTime":"2023/02/06 00:26:05","block":8363258,"epoch":392,"slotNo":84076874,"epochSlotNo":96074,"stakeKey":"stake1uy9ljneghp03h6zeuaj8v820ex6krprrmfzh200rkyfnpjg528q2f"},{"txId":61396817,"txHash":"93033552cd9cc4a77074a81a54e6b3d0b6e1086a0d41c5fc413a6540460a8e4b","txTime":"2023/02/06 00:24:28","block":8363253,"epoch":392,"slotNo":84076777,"epochSlotNo":95977,"stakeKey":"stake1u9aekqw9gwl6g78af9dxm5hzskaqkxzt7wpgzjg9pnklmusda9zpf"},{"txId":61396331,"txHash":"99d1c16a5484abe839940de62056ed6cca97ce35c1a85df0a8d3c36a1631e5c6","txTime":"2023/02/06 00:16:04","block":8363231,"epoch":392,"slotNo":84076273,"epochSlotNo":95473,"stakeKey":"stake1u98ae3mdfuzvvaeuca6wh759jwjre7mhlse2f6r0kup9spc8kmpup"}],"totalItems":350665,"totalPages":17534,"currentPage":0}