{"data":[{"blockNo":7082648,"slotNo":57530502,"epochNo":330,"epochSlotNo":333702,"hash":"042b073aae1fac207a9c70f2700fc66749a078ebfb6219915ddf5b05832f9fce","time":"2022/04/04 18:26:33","txCount":18,"totalFees":8400812,"totalOutput":118531429637,"slotLeader":"37e0b7c9c58753b14707dd34267ebbd50917e9b80d4f76da07e0e1b8"},{"blockNo":7082647,"slotNo":57530490,"epochNo":330,"epochSlotNo":333690,"hash":"6299269dc8a93176f5a13d46e17f7c733ec1f0f0bacebb0e60dcab0a7927ad7f","time":"2022/04/04 18:26:21","txCount":13,"totalFees":6575030,"totalOutput":15804400818412,"slotLeader":"f0e505f8f0d7beccffe83c287d0d2ff6a46ec5d38345e8bd35359427"},{"blockNo":7082646,"slotNo":57530481,"epochNo":330,"epochSlotNo":333681,"hash":"a2b90a6b37fbe61f752c7e65eaa2e07dfa8bf03fd3f0d79ed5ff44c4d90aed12","time":"2022/04/04 18:26:12","txCount":15,"totalFees":8222768,"totalOutput":65038511466723,"slotLeader":"9b9890b811d67ba9e69810581e4fc119ca0c2354adb7cd6ff564b0a3"},{"blockNo":7082645,"slotNo":57530473,"epochNo":330,"epochSlotNo":333673,"hash":"9cf8fb9b3379c55e358840d5352e48db143e85424040d982dcc673a7bd5269de","time":"2022/04/04 18:26:04","txCount":17,"totalFees":10772896,"totalOutput":15783035456630,"slotLeader":"c5d7ddd302cb05652d785b3eb0c3075bbee4e84225fd69465617948b"},{"blockNo":7082644,"slotNo":57530461,"epochNo":330,"epochSlotNo":333661,"hash":"aba9369e406036e296d8d32ac8ac158c54c8c6ba4dbd8e2c24e6496b3d0d7650","time":"2022/04/04 18:25:52","txCount":25,"totalFees":11826452,"totalOutput":549975457770,"slotLeader":"dec7757e2ba0fcea7fd93a9999bf342d1974338fb91355ac68c13320"},{"blockNo":7082643,"slotNo":57530455,"epochNo":330,"epochSlotNo":333655,"hash":"858ad2ba694a03fa9f71262912b55c7773d118c090a3ded5d01f94dae09e1256","time":"2022/04/04 18:25:46","txCount":42,"totalFees":13112332,"totalOutput":2310959849802,"slotLeader":"03fbee96b84daa1bf91c44b51d2e1cbdda53fd504c98aeb6fd4a55b6"},{"blockNo":7082642,"slotNo":57530394,"epochNo":330,"epochSlotNo":333594,"hash":"c6a666b46ea38be8491875a7a11f1bbead1e29e2b600123181d5548f15299d5c","time":"2022/04/04 18:24:45","txCount":11,"totalFees":5930218,"totalOutput":15892528661333,"slotLeader":"2a748e3885f6f73320ad16a8331247b81fe01b8d39f57eec9caa5091"},{"blockNo":7082641,"slotNo":57530388,"epochNo":330,"epochSlotNo":333588,"hash":"77c6d8940a92af9e2d1262057926f2f1043cc163182b6f6212ba9f928bd9b31a","time":"2022/04/04 18:24:39","txCount":10,"totalFees":5933559,"totalOutput":12981248650550,"slotLeader":"ea5f1fb21658736dce6e8c63a516e9e5d645e104b9efbfbb395d7e68"},{"blockNo":7082640,"slotNo":57530382,"epochNo":330,"epochSlotNo":333582,"hash":"0b538eeeae5143d6f86b5749cb05d91a1f9e7fa247981456a8cc42479806aef1","time":"2022/04/04 18:24:33","txCount":37,"totalFees":13922688,"totalOutput":7956947395001,"slotLeader":"6371c7935c90ddb9b2bca3e5ae04d69711ec1bc28749393116c6d44c"},{"blockNo":7082639,"slotNo":57530379,"epochNo":330,"epochSlotNo":333579,"hash":"e28227fc9bd44cdd2a4e391a4b7afa4631c4456a915d70ebf4ebbe67f8262040","time":"2022/04/04 18:24:30","txCount":37,"totalFees":13931650,"totalOutput":65030304574254,"slotLeader":"5ca3c3845af455c22b8b8c0afcbe473be44e164f664ac5f0a2950c24"},{"blockNo":7082638,"slotNo":57530373,"epochNo":330,"epochSlotNo":333573,"hash":"06e010cd56a6aa877ddda0cac892d30f3653d8d3c2e1f2b5533e0bc5b2cc4832","time":"2022/04/04 18:24:24","txCount":21,"totalFees":10675008,"totalOutput":15515168343916,"slotLeader":"571b0be3f126255004d9828f37f11026551b9ca391c4aed3b05d6a75"},{"blockNo":7082637,"slotNo":57530300,"epochNo":330,"epochSlotNo":333500,"hash":"bf6602c412376c9c9790dd3a96b2fdda0ad33d3a59ad607fb822efc7b03e9dbd","time":"2022/04/04 18:23:11","txCount":15,"totalFees":7416651,"totalOutput":2182515419064,"slotLeader":"4ea4b108b5a3cedd1abec6175e6f97a61520f64d234e555d231a440e"},{"blockNo":7082636,"slotNo":57530297,"epochNo":330,"epochSlotNo":333497,"hash":"fe7a27ee8951f6eb72901df8c2e66ab5c9b4935455e7f462e06fb6666d3fcca0","time":"2022/04/04 18:23:08","txCount":32,"totalFees":14314892,"totalOutput":51415229858,"slotLeader":"91ab082852ea331c39eebae35a3e2a390ea26423d82a91c72a02fb85"},{"blockNo":7082635,"slotNo":57530264,"epochNo":330,"epochSlotNo":333464,"hash":"eca299f07fab26366286cebc6155e6cfd5b0ad8b364e01a39acd5b96489d3a2e","time":"2022/04/04 18:22:35","txCount":17,"totalFees":8882076,"totalOutput":27875050648,"slotLeader":"8d40e1d5d817183a0ca2613f7d998a6ac3962162adaf3d5176af7cbb"},{"blockNo":7082634,"slotNo":57530256,"epochNo":330,"epochSlotNo":333456,"hash":"6e40852cbf6fc3495436a6259e2537e0fd9dbc31bc7fe5acb3fa6ac319cd0149","time":"2022/04/04 18:22:27","txCount":11,"totalFees":8311661,"totalOutput":69896807534342,"slotLeader":"a75f5263ca05569b3baecf0fafbfdaaf07076727c44460e4641b415b"},{"blockNo":7082633,"slotNo":57530248,"epochNo":330,"epochSlotNo":333448,"hash":"74ff7b7a86c4c533584818bbe4150b8bdad9ccbd695cc0ab2968bf30be50e831","time":"2022/04/04 18:22:19","txCount":12,"totalFees":4121397,"totalOutput":2265673006492,"slotLeader":"04c60c78417132a195cbb74975346462410f72612952a7c4ade7e438"},{"blockNo":7082632,"slotNo":57530243,"epochNo":330,"epochSlotNo":333443,"hash":"aa2d5c3f70017da1f799bd6dbd4347cf269178c77ec8e739b1d740d4150eafcf","time":"2022/04/04 18:22:14","txCount":13,"totalFees":6375073,"totalOutput":15416539630845,"slotLeader":"e985b5698de1386439e62b5b7ab2cc9f814b91b4a1fef5970f38694d"},{"blockNo":7082631,"slotNo":57530232,"epochNo":330,"epochSlotNo":333432,"hash":"942e0b28521f7a28e22221131979e235545ea710c4e31f2b7aec9113872f50ad","time":"2022/04/04 18:22:03","txCount":31,"totalFees":10760430,"totalOutput":2291496289994,"slotLeader":"21ad7ca84128f182623df17e6cb29ca1e83889e0013f1004cf5beb73"},{"blockNo":7082630,"slotNo":57530221,"epochNo":330,"epochSlotNo":333421,"hash":"3ef4cd0c158072dc5808e5fbf2f1e52fb4cd187bb8fec152aa9162699b9b5a2b","time":"2022/04/04 18:21:52","txCount":25,"totalFees":11910366,"totalOutput":19772217019,"slotLeader":"9417e18efcc4c258df21c89942009a498a751a0a63f8d72714cf75b2"},{"blockNo":7082629,"slotNo":57530192,"epochNo":330,"epochSlotNo":333392,"hash":"9bf9a5805c5f1635bcd5a0dbb53b1d1212f164ea9823c98157d0a1f4aa8c2c81","time":"2022/04/04 18:21:23","txCount":23,"totalFees":10700222,"totalOutput":72882599348028,"slotLeader":"000000f66e28b0f18aef20555f4c4954234e3270dfbbdcc13f54e799"}],"totalItems":7082824,"totalPages":354142,"currentPage":0}