{"data":[{"hash":"c71b7b237d59815d705e6891f435604b4027fb03864f1c6d24b656288f1bf233","blockNo":7225813,"blockHash":"4941376ff9ebc3878b79fdb0e3c389e2d6d5dde6059b6dc107f673cc250bacb4","epochNo":337,"epochSlotNo":333444,"slot":60554244,"time":"2022/05/09 18:22:15","addressesInput":["DdzFFzCqrhtBatWqyFge4w6M6VLgNUwRHiXTAg3xfQCUdTcjJxSrPHVZJBsQprUEc5pRhgMWQaGciTssoZVwrSKmG1fneZ1AeCtLgs5Y"],"addressesOutput":["DdzFFzCqrhtBatWqyFge4w6M6VLgNUwRHiXTAg3xfQCUdTcjJxSrPHVZJBsQprUEc5pRhgMWQaGciTssoZVwrSKmG1fneZ1AeCtLgs5Y","addr1qy02u739qerctkclzelwm29nlyxnrt0dq0gutr9zddshls2qlsddd7m6xa83gkwnhx7m7k0dr3nrcjsvm3pnaetx82xsqjjv3z"],"fee":173381,"totalOutput":438607967,"tokens":[]},{"hash":"db6f00e1fc400483fa6ffb6c4022878a4478671280cad7048aa044c7f8cb46f7","blockNo":7225813,"blockHash":"4941376ff9ebc3878b79fdb0e3c389e2d6d5dde6059b6dc107f673cc250bacb4","epochNo":337,"epochSlotNo":333444,"slot":60554244,"time":"2022/05/09 18:22:15","addressesInput":["addr1z8nvjzjeydcn4atcd93aac8allvrpjn7pjr2qsweukpnay2tqrfwamagnyfv43jgm94yvkmsnfvpzlytmkl0cs0uh8zqszu5da","addr1q87hqhxpdat6du2m4tzgkrftn89zdnmu2ql2fpmuwqe85zs4mrjqlk30ekjfdanrl04k6fc4xnhmnpz9lnmhge8wa77s7p0ukd","addr1wxr2a8htmzuhj39y2gq7ftkpxv98y2g67tg8zezthgq4jkg0a4ul4"],"addressesOutput":["addr1z8nvjzjeydcn4atcd93aac8allvrpjn7pjr2qsweukpnay2tqrfwamagnyfv43jgm94yvkmsnfvpzlytmkl0cs0uh8zqszu5da","addr1qxz2jejlfjfsmkvt23n0ja8hpp2e9hra3hflgxgw30j50x4w8utymyt62qdjljxddpm7670pzuwwff0gn724pcug5xaq3yg3yg","addr1q87hqhxpdat6du2m4tzgkrftn89zdnmu2ql2fpmuwqe85zs4mrjqlk30ekjfdanrl04k6fc4xnhmnpz9lnmhge8wa77s7p0ukd"],"fee":1149053,"totalOutput":3338945701691,"tokens":[]},{"hash":"34fea7e71a94c38c477202570ae5e68c26620e7c272e68964540455cd26b02ed","blockNo":7225813,"blockHash":"4941376ff9ebc3878b79fdb0e3c389e2d6d5dde6059b6dc107f673cc250bacb4","epochNo":337,"epochSlotNo":333444,"slot":60554244,"time":"2022/05/09 18:22:15","addressesInput":["addr1qyff4klm9f4pa3wsyk00qe2qravenjvyq324v93l3g6nxjcc4msunr5rhhsys0gn38s4j7yzk4qqq58wrmqd7zt9ft9qwh3t0j","addr1qyff4klm9f4pa3wsyk00qe2qravenjvyq324v93l3g6nxjcc4msunr5rhhsys0gn38s4j7yzk4qqq58wrmqd7zt9ft9qwh3t0j"],"addressesOutput":["addr1q8c7zf3sgvyqq6fc6t59wxzzl7rnqtlljksr0vlaswz9rw9neyuk6p5qmyfysufeedlusk4z0848p6xd4nhycm9wgr7suanxmd","addr1qyff4klm9f4pa3wsyk00qe2qravenjvyq324v93l3g6nxjcc4msunr5rhhsys0gn38s4j7yzk4qqq58wrmqd7zt9ft9qwh3t0j"],"fee":176897,"totalOutput":8338177,"tokens":[]},{"hash":"a0ca096b2b48cd4fac767d2e0a20577b12d3fd47dcc3ded0a537a78d3438b02c","blockNo":7225812,"blockHash":"258a32ab1c3c9d8cbc34d20d0e709be9262a0ab1663dc62f3dc535494c5f441e","epochNo":337,"epochSlotNo":333439,"slot":60554239,"time":"2022/05/09 18:22:10","addressesInput":["addr1q8w0ugetkt5amgwcf6rndnaeqq2axpgzuc5ufkgtnw8ksn6z4qk38uxqtpmedfpsutwxkgeggdnemwatkw3jhm6afjssmveqyq"],"addressesOutput":["DdzFFzCqrht5RT4uQ4PR1VCwTNiKrF3bkd3VFbRELq2Y6fZdahA6JKFv2DPTLjZxTcGPSJbDdb2sYqgcTfjP7kiVaroAuWYCC2uBTsyz","addr1q8w0ugetkt5amgwcf6rndnaeqq2axpgzuc5ufkgtnw8ksn6z4qk38uxqtpmedfpsutwxkgeggdnemwatkw3jhm6afjssmveqyq"],"fee":391600,"totalOutput":83744800,"tokens":[]},{"hash":"605c3d0cc2d01f33ed0e7dd39e0e0ad63b2352be366b72ab96b422718cced2d6","blockNo":7225812,"blockHash":"258a32ab1c3c9d8cbc34d20d0e709be9262a0ab1663dc62f3dc535494c5f441e","epochNo":337,"epochSlotNo":333439,"slot":60554239,"time":"2022/05/09 18:22:10","addressesInput":["addr1qxkmr0m22xeqludcg5rjdmecjxasu9fat0680qehtcsnftaadgykewa9ufvegeuca9yyq03d9v7ea2y2zthgu7hfgjtsddp6gr","addr1qxkmr0m22xeqludcg5rjdmecjxasu9fat0680qehtcsnftaadgykewa9ufvegeuca9yyq03d9v7ea2y2zthgu7hfgjtsddp6gr","addr1wxvd7wcq59gqljmhm2s9yp2slvygljfr8xtc3wykx7uaukgt8lqh6"],"addressesOutput":["addr1qxkmr0m22xeqludcg5rjdmecjxasu9fat0680qehtcsnftaadgykewa9ufvegeuca9yyq03d9v7ea2y2zthgu7hfgjtsddp6gr","addr1q8kltd6fyudm63y4qtwqw60ld9alw5u6p0mldd0gwscyfklsuscn7nwj46mzenqwshu86eyfvvnmdckpndjrwpvj23eqgdy8h4","addr1qxkmr0m22xeqludcg5rjdmecjxasu9fat0680qehtcsnftaadgykewa9ufvegeuca9yyq03d9v7ea2y2zthgu7hfgjtsddp6gr"],"fee":300725,"totalOutput":30211376206,"tokens":[]},{"hash":"782a1c6c213f7bf760e9161dbde34227bdc2345cf70d97e1c6a2beb324a9f814","blockNo":7225812,"blockHash":"258a32ab1c3c9d8cbc34d20d0e709be9262a0ab1663dc62f3dc535494c5f441e","epochNo":337,"epochSlotNo":333439,"slot":60554239,"time":"2022/05/09 18:22:10","addressesInput":["addr1q8gaz5nw34d8kjktgx5l705mk66kdy4f97g70ry2t2fq9wj03gwpwggnd353frwfdd7ecdxfrqa65zeacux3cdjuckcq0yquqn","addr1q8gaz5nw34d8kjktgx5l705mk66kdy4f97g70ry2t2fq9wj03gwpwggnd353frwfdd7ecdxfrqa65zeacux3cdjuckcq0yquqn"],"addressesOutput":["addr1q8u2ztr782tn59538jnk7hfhfuacc29hvxm9yjlgf8a7hl34v4cdsdemr7400dgw78x8lk5laxyjtj00hf63rmythd4s0rgujr","addr1q8gaz5nw34d8kjktgx5l705mk66kdy4f97g70ry2t2fq9wj03gwpwggnd353frwfdd7ecdxfrqa65zeacux3cdjuckcq0yquqn"],"fee":170253,"totalOutput":99988661254,"tokens":[]},{"hash":"5c4532d9f20c0067f755cd8173414c51e4b876149345c2090491ffb4e76c6d1b","blockNo":7225812,"blockHash":"258a32ab1c3c9d8cbc34d20d0e709be9262a0ab1663dc62f3dc535494c5f441e","epochNo":337,"epochSlotNo":333439,"slot":60554239,"time":"2022/05/09 18:22:10","addressesInput":["addr1qyztqp996etzdjrfn56525se875knyn6hgy9en66pf68x3megqvwaqcqr9zhxw28qhvns5up7arqjw896lc0kldrxkksgdgme3"],"addressesOutput":["addr1wxn9efv2f6w82hagxqtn62ju4m293tqvw0uhmdl64ch8uwc0h43gt","addr1qyztqp996etzdjrfn56525se875knyn6hgy9en66pf68x3megqvwaqcqr9zhxw28qhvns5up7arqjw896lc0kldrxkksgdgme3"],"fee":184289,"totalOutput":14132457590,"tokens":[]},{"hash":"ba572eee91e7788a16f74c0cb41c5b86ff3cf6cc1a3b42ee97fe33b6cf0471ef","blockNo":7225812,"blockHash":"258a32ab1c3c9d8cbc34d20d0e709be9262a0ab1663dc62f3dc535494c5f441e","epochNo":337,"epochSlotNo":333439,"slot":60554239,"time":"2022/05/09 18:22:10","addressesInput":["addr1qxg2ehtsl4ckqdxw37x62rr2gmp4t7hvugsvvpj6n6yd3ehxqaxteyuam7p6rxjpfz2mc0mx8w7ahdcx8pt83p54fe0sarmnvj","addr1qxg2ehtsl4ckqdxw37x62rr2gmp4t7hvugsvvpj6n6yd3ehxqaxteyuam7p6rxjpfz2mc0mx8w7ahdcx8pt83p54fe0sarmnvj","addr1qxg2ehtsl4ckqdxw37x62rr2gmp4t7hvugsvvpj6n6yd3ehxqaxteyuam7p6rxjpfz2mc0mx8w7ahdcx8pt83p54fe0sarmnvj"],"addressesOutput":["DdzFFzCqrhsxiZ9rLnqeFhSWTkNvj8zaHVShfwRKBUgqo4Ym2B2qDq8tBpUKbr5XugeeUbW9yBy92rjZpRreGf5JofPQqnuRGFSaARxm","addr1qxg2ehtsl4ckqdxw37x62rr2gmp4t7hvugsvvpj6n6yd3ehxqaxteyuam7p6rxjpfz2mc0mx8w7ahdcx8pt83p54fe0sarmnvj","addr1qxg2ehtsl4ckqdxw37x62rr2gmp4t7hvugsvvpj6n6yd3ehxqaxteyuam7p6rxjpfz2mc0mx8w7ahdcx8pt83p54fe0sarmnvj"],"fee":183101,"totalOutput":15001197020,"tokens":[]},{"hash":"2b60bf4e0aeebd9f01cecbf80118f04df334851b1ffa993df9bb82588d7d516d","blockNo":7225812,"blockHash":"258a32ab1c3c9d8cbc34d20d0e709be9262a0ab1663dc62f3dc535494c5f441e","epochNo":337,"epochSlotNo":333439,"slot":60554239,"time":"2022/05/09 18:22:10","addressesInput":["addr1q9m7g6mgtdv0qlgw23zcjkkdpeuh34fhmf4x3c26e6fydml07m98yyjdh07mmkwuafkknd7wt8k48ufpu4dmn68llc5qfkyzv4","addr1q9m7g6mgtdv0qlgw23zcjkkdpeuh34fhmf4x3c26e6fydml07m98yyjdh07mmkwuafkknd7wt8k48ufpu4dmn68llc5qfkyzv4","addr1q9m7g6mgtdv0qlgw23zcjkkdpeuh34fhmf4x3c26e6fydml07m98yyjdh07mmkwuafkknd7wt8k48ufpu4dmn68llc5qfkyzv4"],"addressesOutput":["addr1vxuzrkv5app3dwyf6ef58fjdu9mm7wv3nnu9avysuphv70cgp20wx","addr1q9m7g6mgtdv0qlgw23zcjkkdpeuh34fhmf4x3c26e6fydml07m98yyjdh07mmkwuafkknd7wt8k48ufpu4dmn68llc5qfkyzv4"],"fee":184650,"totalOutput":537237759,"tokens":[]},{"hash":"17950f9fd0958f93039baf17805cd5cad971aa4d1af7cadd5823d0ddaa04da2f","blockNo":7225812,"blockHash":"258a32ab1c3c9d8cbc34d20d0e709be9262a0ab1663dc62f3dc535494c5f441e","epochNo":337,"epochSlotNo":333439,"slot":60554239,"time":"2022/05/09 18:22:10","addressesInput":["addr1q8cqwlyaksgw50wy9t33mtp3cecea5uyjwlr5zw6zftfmdlsqa7fmdqsag7ug2hrrkkrr3n3nmfcfya78gya5yjknkmsm3dsc4","addr1q8cqwlyaksgw50wy9t33mtp3cecea5uyjwlr5zw6zftfmdlsqa7fmdqsag7ug2hrrkkrr3n3nmfcfya78gya5yjknkmsm3dsc4"],"addressesOutput":["addr1q8cqwlyaksgw50wy9t33mtp3cecea5uyjwlr5zw6zftfmdlsqa7fmdqsag7ug2hrrkkrr3n3nmfcfya78gya5yjknkmsm3dsc4","addr1q8cqwlyaksgw50wy9t33mtp3cecea5uyjwlr5zw6zftfmdlsqa7fmdqsag7ug2hrrkkrr3n3nmfcfya78gya5yjknkmsm3dsc4"],"fee":233854,"totalOutput":1654661861,"tokens":[]},{"hash":"b031039bc4ab6823bd4a4a6ed146fdef122a152bd0f752ecb15ce0cd99e975e8","blockNo":7225812,"blockHash":"258a32ab1c3c9d8cbc34d20d0e709be9262a0ab1663dc62f3dc535494c5f441e","epochNo":337,"epochSlotNo":333439,"slot":60554239,"time":"2022/05/09 18:22:10","addressesInput":["addr1q80mpy9rf6rk3q2hatjy6de805w60wg24zg58ggl8r9pghrh8rj3aaj4axayfln888dngrc24g4v0h3q4g3nvl7atncq69phsx"],"addressesOutput":["addr1v9zk3kjmsfvhscczac9ald8zdz3y3rrn0s4xnzceayas59gdwan77","addr1q8mp4uaheuv8twccz5m8mhu5uj45la2ev6268c9x2rj56frh8rj3aaj4axayfln888dngrc24g4v0h3q4g3nvl7atncqnva0t4"],"fee":174037,"totalOutput":346605542,"tokens":[]},{"hash":"1cd055375a68102a632eed141474050da875b5a5031ded0b337307767ef57ccd","blockNo":7225812,"blockHash":"258a32ab1c3c9d8cbc34d20d0e709be9262a0ab1663dc62f3dc535494c5f441e","epochNo":337,"epochSlotNo":333439,"slot":60554239,"time":"2022/05/09 18:22:10","addressesInput":["addr1qxrt2c0skk478r7l0rdeyg20n32qgqftjc0dxkwyvs08q3pyfzvaxvmq7c23tj0psk007c0cvd80n90537kpfndqzwssm23jna","addr1qx7vmn50awyvg4f8n8wjk4a7ufjck92hlcy00arrq26klnfyfzvaxvmq7c23tj0psk007c0cvd80n90537kpfndqzwssgxratq"],"addressesOutput":["addr1vxa58je5sknklmpx8js85na66nm2wlcnxjeky7vv2j052mc8ucrrg","addr1q8hm548kujz9svng4x2jh5e5xvxau2yzfqu5tjyv249yerfyfzvaxvmq7c23tj0psk007c0cvd80n90537kpfndqzwssgh02rf"],"fee":173465,"totalOutput":46232757884,"tokens":[]},{"hash":"5181c7f2206514ad43bbfca54ca1f8fca42b92d5a6d8852e910266b030b26398","blockNo":7225812,"blockHash":"258a32ab1c3c9d8cbc34d20d0e709be9262a0ab1663dc62f3dc535494c5f441e","epochNo":337,"epochSlotNo":333439,"slot":60554239,"time":"2022/05/09 18:22:10","addressesInput":["addr1w999n67e86jn6xal07pzxtrmqynspgx0fwmcmpua4wc6yzsxpljz3","addr1q9tatnk325llhphnks9y62693wt9s8jphv6yqx3tyeduu43wf244jp2598pwq4meemmkf70p6sp4xye0gryc7ekxsw4qdqulfe"],"addressesOutput":["addr1w999n67e86jn6xal07pzxtrmqynspgx0fwmcmpua4wc6yzsxpljz3","addr1q9tatnk325llhphnks9y62693wt9s8jphv6yqx3tyeduu43wf244jp2598pwq4meemmkf70p6sp4xye0gryc7ekxsw4qdqulfe"],"fee":494226,"totalOutput":6229874,"tokens":[]},{"hash":"ef6de27e6e78d6167497b3fe12c9f51bf3e43854e3ec4ea1b3d5721713c0c7f6","blockNo":7225812,"blockHash":"258a32ab1c3c9d8cbc34d20d0e709be9262a0ab1663dc62f3dc535494c5f441e","epochNo":337,"epochSlotNo":333439,"slot":60554239,"time":"2022/05/09 18:22:10","addressesInput":["addr1w999n67e86jn6xal07pzxtrmqynspgx0fwmcmpua4wc6yzsxpljz3","addr1qye9jqfe4n7cr7e76xxcy04shplx6cpgchltwauumh0tllk6a4kaashkeagh4fuu2a66wj3q4huuu6d2r7u6dsj7mtsqergwqg"],"addressesOutput":["addr1w999n67e86jn6xal07pzxtrmqynspgx0fwmcmpua4wc6yzsxpljz3","addr1qye9jqfe4n7cr7e76xxcy04shplx6cpgchltwauumh0tllk6a4kaashkeagh4fuu2a66wj3q4huuu6d2r7u6dsj7mtsqergwqg"],"fee":494548,"totalOutput":4227509,"tokens":[]},{"hash":"537b6f987bfdf069d9a4cc624a1c01bbc3376d9f8f9734fb70eca49821a8e8ff","blockNo":7225812,"blockHash":"258a32ab1c3c9d8cbc34d20d0e709be9262a0ab1663dc62f3dc535494c5f441e","epochNo":337,"epochSlotNo":333439,"slot":60554239,"time":"2022/05/09 18:22:10","addressesInput":["addr1q8hjpkdy2qfav48k5yh6u8kadwslkxzqgjlyzpzsuyqmcv9uqqa92e5kv4hg20axm0tk4tuuwv85fvjvm0x452acsjys79je5t","addr1q8hjpkdy2qfav48k5yh6u8kadwslkxzqgjlyzpzsuyqmcv9uqqa92e5kv4hg20axm0tk4tuuwv85fvjvm0x452acsjys79je5t"],"addressesOutput":["addr1w999n67e86jn6xal07pzxtrmqynspgx0fwmcmpua4wc6yzsxpljz3","addr1q8hjpkdy2qfav48k5yh6u8kadwslkxzqgjlyzpzsuyqmcv9uqqa92e5kv4hg20axm0tk4tuuwv85fvjvm0x452acsjys79je5t","addr1q8hjpkdy2qfav48k5yh6u8kadwslkxzqgjlyzpzsuyqmcv9uqqa92e5kv4hg20axm0tk4tuuwv85fvjvm0x452acsjys79je5t"],"fee":211082,"totalOutput":7533580,"tokens":[]},{"hash":"a037902c91054b885d2ac4037edb3115e89fb96a3f971e472258c6ee6d386763","blockNo":7225812,"blockHash":"258a32ab1c3c9d8cbc34d20d0e709be9262a0ab1663dc62f3dc535494c5f441e","epochNo":337,"epochSlotNo":333439,"slot":60554239,"time":"2022/05/09 18:22:10","addressesInput":["addr1q934s2lryp8jwnkkd5uthk2vc5s9pkvn60fpcggzqdjg0mme6d3s59leggug6qc3zh9e95g5rt2022c9mp8kj6en572qc3pa42"],"addressesOutput":["addr1qxs0fzvumw33py584h94k5wlqh4q4qylhhmes50g7s82nyawnawxeqcftz69r27n2432v0pz4pvk0lu9qa3zygkc2wespld798","addr1q934s2lryp8jwnkkd5uthk2vc5s9pkvn60fpcggzqdjg0mme6d3s59leggug6qc3zh9e95g5rt2022c9mp8kj6en572qc3pa42","addr1q934s2lryp8jwnkkd5uthk2vc5s9pkvn60fpcggzqdjg0mme6d3s59leggug6qc3zh9e95g5rt2022c9mp8kj6en572qc3pa42"],"fee":175401,"totalOutput":3824599,"tokens":[]},{"hash":"fa891abc5ab7751c88678bd7400df4e15f125b8ef0fcdfdb70a3e330123fafb2","blockNo":7225812,"blockHash":"258a32ab1c3c9d8cbc34d20d0e709be9262a0ab1663dc62f3dc535494c5f441e","epochNo":337,"epochSlotNo":333439,"slot":60554239,"time":"2022/05/09 18:22:10","addressesInput":["addr1q92sdt26yqsql3vrj2rf4sgywwnf4670u0jj2d5l693ms5jrq9cxgyr5d5lt8lqp54zy66rm6qhu9t6nu489rph0nwhslkq9a6"],"addressesOutput":["addr1q94qalxhqzcwzxsqm7g2muuzxfe6l4k4kj7pqypk2hl98759ngegctn9dc0mdelj9x2z335h4235nk9n4tlqa555mw7qn5k3qu"],"fee":165281,"totalOutput":11748831,"tokens":[]},{"hash":"bdc24780a3b7c392466f34f606566a450f4f30f7e857fbeaeb7d2e5466c4cca0","blockNo":7225812,"blockHash":"258a32ab1c3c9d8cbc34d20d0e709be9262a0ab1663dc62f3dc535494c5f441e","epochNo":337,"epochSlotNo":333439,"slot":60554239,"time":"2022/05/09 18:22:10","addressesInput":["addr1q9khyeg8pzmczet8duw8exjczmlahrc03kcchqdr8p23aaa7mmsecj22zy2jsfh7c0snlsttcayruw22jzvcmtg2d7xqvzh6p5","addr1q9khyeg8pzmczet8duw8exjczmlahrc03kcchqdr8p23aaa7mmsecj22zy2jsfh7c0snlsttcayruw22jzvcmtg2d7xqvzh6p5","addr1q9khyeg8pzmczet8duw8exjczmlahrc03kcchqdr8p23aaa7mmsecj22zy2jsfh7c0snlsttcayruw22jzvcmtg2d7xqvzh6p5","addr1q9khyeg8pzmczet8duw8exjczmlahrc03kcchqdr8p23aaa7mmsecj22zy2jsfh7c0snlsttcayruw22jzvcmtg2d7xqvzh6p5"],"addressesOutput":["DdzFFzCqrhtC2QsMcAnzJpMfKH4LDWcjXkA6UQgaiHSKFnMoMePcMisSApoGLRzbdqbpRo7mEBDsTgRgzSDUV8G3sfo8vSbo1sXKHc6e"],"fee":395600,"totalOutput":223604400,"tokens":[]},{"hash":"7ffeefcbdad6d3949b5115c1dcecd44a096f7238118339bf3faed3b3b672b03c","blockNo":7225812,"blockHash":"258a32ab1c3c9d8cbc34d20d0e709be9262a0ab1663dc62f3dc535494c5f441e","epochNo":337,"epochSlotNo":333439,"slot":60554239,"time":"2022/05/09 18:22:10","addressesInput":["addr1wxaptpmxcxawvr3pzlhgnpmzz3ql43n2tc8mn3av5kx0yzs09tqh8"],"addressesOutput":["addr1qxjuc7xz3ff4rcwqmc8asqhald2h87al89fruta9jpx5y9shvmztjm82956v2n93hqvwvtl8w493e5kkgfg47gkc52hqg4huq9"],"fee":303714,"totalOutput":2818418572,"tokens":[]},{"hash":"07e41ea20c89f55321551dfc388aca5a473d5376b08970712866a1f19ab52317","blockNo":7225812,"blockHash":"258a32ab1c3c9d8cbc34d20d0e709be9262a0ab1663dc62f3dc535494c5f441e","epochNo":337,"epochSlotNo":333439,"slot":60554239,"time":"2022/05/09 18:22:10","addressesInput":["addr1qxrtrgv59vur2nrsvvnftqjezclasmvv6kjzkxddj25763aq5jc2xcplelkw30prsjgpzrkxsrlhzalpru0ktrz6k66qvcfhz5","addr1qxrtrgv59vur2nrsvvnftqjezclasmvv6kjzkxddj25763aq5jc2xcplelkw30prsjgpzrkxsrlhzalpru0ktrz6k66qvcfhz5"],"addressesOutput":["addr1wxn9efv2f6w82hagxqtn62ju4m293tqvw0uhmdl64ch8uwc0h43gt","addr1qxrtrgv59vur2nrsvvnftqjezclasmvv6kjzkxddj25763aq5jc2xcplelkw30prsjgpzrkxsrlhzalpru0ktrz6k66qvcfhz5"],"fee":186753,"totalOutput":1074604033,"tokens":[]}],"totalItems":40369595,"totalPages":2018480,"currentPage":0}