{"data":[{"txId":71697583,"txHash":"3cc0cffa13e845c76b5b02f237714c2336cba4b946c0b28db2f24723aca4dc3e","txTime":"2023/07/16 15:44:49","block":9037155,"epoch":424,"slotNo":97955998,"epochSlotNo":151198,"stakeKey":"stake1ux3uqu4f7639hn2mlw9dta59p4spthhd5l9xcw7f4ka5anstrlakc"},{"txId":71696981,"txHash":"5c92e50dc26c47f10face6ea014afaf4eeb1f58d6df6c689c5685944ec3f94cc","txTime":"2023/07/16 15:33:08","block":9037132,"epoch":424,"slotNo":97955297,"epochSlotNo":150497,"stakeKey":"stake1u9dwnar7jp925a8eq7uek7mf3ep50qqhg0nxv2w9s9s4aac80agjf"},{"txId":71696857,"txHash":"fa021fc5df893dcb73e8ba3bb223df559c731e4ed24b3b41d6a85024b902f064","txTime":"2023/07/16 15:31:11","block":9037126,"epoch":424,"slotNo":97955180,"epochSlotNo":150380,"stakeKey":"stake1uxj2zxm2regfgs43rs2lg36jt7vg5zt7rm4v22vffkz2ygqwlsj62"},{"txId":71695993,"txHash":"ccb90857f77a18b67893a12860c8c6ffbb36b7a32babf8258945115197cb8f5f","txTime":"2023/07/16 15:14:55","block":9037084,"epoch":424,"slotNo":97954204,"epochSlotNo":149404,"stakeKey":"stake1ux4k38gsxjf49328n8vxu300dnz3yz4626wh90gqxprj6wggg2453"},{"txId":71695366,"txHash":"834dc17b56cf43a5280458f1638fa5272907f8ff3134b998d3cea54123bbaf14","txTime":"2023/07/16 15:03:14","block":9037047,"epoch":424,"slotNo":97953503,"epochSlotNo":148703,"stakeKey":"stake1u9xhfaq544emhvy82px3s5pq8wyyls453jx9j03k3zwgsdcyvnvrh"},{"txId":71695187,"txHash":"27367c3510e8a5ddeaf9755719ded43fb1f58f78bb34e01f34ea5621c8b88084","txTime":"2023/07/16 15:00:54","block":9037041,"epoch":424,"slotNo":97953363,"epochSlotNo":148563,"stakeKey":"stake1u950pf06g5gs45p7jwhlcwqknm0f0g5fj55jfvdgxvma5es570393"},{"txId":71694917,"txHash":"e21d5a0427d91bfbd712d6d49ddd2d06a49838f607049b00d135f81f90b18723","txTime":"2023/07/16 14:55:25","block":9037027,"epoch":424,"slotNo":97953034,"epochSlotNo":148234,"stakeKey":"stake1u882n5ntkfvzfa96hsd5u5vv4mck4nwd0zs9pqqqfcc09eqrlvmhe"},{"txId":71694589,"txHash":"b737884d95209113093e1814d43c8e3622a642e8c31527321a8546aac8ed8c62","txTime":"2023/07/16 14:49:38","block":9037009,"epoch":424,"slotNo":97952687,"epochSlotNo":147887,"stakeKey":"stake1u9lxpxhmt048fr8vllrq7lnrf7xrneexg08yqkwkavkk5ccrlwms8"},{"txId":71694585,"txHash":"3dee0a3434a01a2e795b6adbc3e7e606326475c5e30e1425a0551718a4ea410f","txTime":"2023/07/16 14:49:38","block":9037009,"epoch":424,"slotNo":97952687,"epochSlotNo":147887,"stakeKey":"stake1u872dfvkda4sejkvktdkmvcm549zh8u8m6whqnuq3fwfg3gzy26nd"},{"txId":71694400,"txHash":"acdee663fc9ea52406594a294c786202daef37a9a92132108d7e13a377e24cab","txTime":"2023/07/16 14:47:46","block":9037001,"epoch":424,"slotNo":97952575,"epochSlotNo":147775,"stakeKey":"stake1uydxdlgyrtg6cmmde7a4e04r38ycjss06xy6kv4vwy09eysq9aamt"},{"txId":71694331,"txHash":"209def19cd66e716d508896d4eaf340d732cfdd30342f0aa6b8f741f372fa714","txTime":"2023/07/16 14:46:12","block":9036999,"epoch":424,"slotNo":97952481,"epochSlotNo":147681,"stakeKey":"stake1u8fx674zx5s8reh7kl32uphwmmfmmwsw97qhnsvwe5c6p7gzfv3mq"},{"txId":71693724,"txHash":"d134f122e40b12724bed05ff8e784fe02f6a68cd2b948869dd200cc90850c6b7","txTime":"2023/07/16 14:35:55","block":9036972,"epoch":424,"slotNo":97951864,"epochSlotNo":147064,"stakeKey":"stake1uy7dg9r0jc8hv0qtj432vrrf04v4290xkhh3dy2k3grwangd53gc2"},{"txId":71693584,"txHash":"1cf6af57266bd6ca7d6426edcab62c636c54b8db58200492a311b05c57e527f6","txTime":"2023/07/16 14:32:51","block":9036964,"epoch":424,"slotNo":97951680,"epochSlotNo":146880,"stakeKey":"stake1uxyppw3d4tmz3ymt6eqyu4nug552fdpd4mp3986qgvzudng9xq0st"},{"txId":71693443,"txHash":"ae9b55f1db9a1b814caeeec6619783a0c24dc1e8c3b54737b644f619b2485264","txTime":"2023/07/16 14:29:58","block":9036957,"epoch":424,"slotNo":97951507,"epochSlotNo":146707,"stakeKey":"stake1uyheekfyy09w52p736jfmhjzr922x7rup2kl07xyeg3lg3cghza5q"},{"txId":71693265,"txHash":"97b76ef74dc3ae94773d2800549e050929f5f0a33e5d8bf2ea6ad1878fdc762b","txTime":"2023/07/16 14:26:29","block":9036946,"epoch":424,"slotNo":97951298,"epochSlotNo":146498,"stakeKey":"stake1u9mg45gvxg7uk3dvq5alynxc75ur99gy0jye4rch3jev5fgp4uwet"},{"txId":71692660,"txHash":"d67ebae5595416c79a45202da478d59b3cde703b3d6c1f90b8462d73e9248881","txTime":"2023/07/16 14:14:56","block":9036911,"epoch":424,"slotNo":97950605,"epochSlotNo":145805,"stakeKey":"stake1u88f6q9ek7mmln69mg7h55az3jxq65nawu6c46482r3u9nsevsw3e"},{"txId":71692540,"txHash":"8e51bf13781cd130e88ff69198de1de8fc93c1657c6cf3b95409a1ab2b106f9d","txTime":"2023/07/16 14:12:42","block":9036903,"epoch":424,"slotNo":97950471,"epochSlotNo":145671,"stakeKey":"stake1u98e0cvj625qsmzyqqqfyzsweu2puxjt357stpy4vc90x3g27wgnh"},{"txId":71691885,"txHash":"db949b6c0634fb4590ba166a5f6d1237bf0873360e3958323dd31e35e98d2334","txTime":"2023/07/16 14:00:43","block":9036864,"epoch":424,"slotNo":97949752,"epochSlotNo":144952,"stakeKey":"stake1uxc0uzq4m9uetcsy4sed9880zdpgyg8englkpuls4cqjqwgdgkh29"},{"txId":71691228,"txHash":"499d0bcdf06db4f1b0a46d3d0694be58ed0f4e0e5c9e80061d41ac00d41a7918","txTime":"2023/07/16 13:48:16","block":9036828,"epoch":424,"slotNo":97949005,"epochSlotNo":144205,"stakeKey":"stake1u8uc4qzdarf232ufytxlv9wrrv5cy0m85q5sxv6eswwpxjc8j7m73"},{"txId":71691207,"txHash":"dbd019f542becdfef64666f9ca0d1244417e9b6a9e0388281ae2b87c3b7e58e8","txTime":"2023/07/16 13:47:57","block":9036827,"epoch":424,"slotNo":97948986,"epochSlotNo":144186,"stakeKey":"stake1uy4zqlmvfq4r5d5wg6uuw9g08tja7fujx43mmujw6gzutvcx9duad"}],"totalItems":390863,"totalPages":19544,"currentPage":0}