{"data":[{"no":373,"status":"SYNCING","blkCount":19570,"outSum":45432526453259151,"txCount":380765,"startTime":"2022/11/01 21:44:51","endTime":"2022/11/06 12:51:23","maxSlot":432000},{"no":372,"status":"FINISHED","blkCount":21095,"outSum":51207060825725877,"txCount":428636,"startTime":"2022/10/27 21:44:55","endTime":"2022/11/01 21:44:35","maxSlot":432000},{"no":371,"status":"FINISHED","blkCount":20982,"outSum":50348309722095867,"txCount":482453,"startTime":"2022/10/22 21:46:23","endTime":"2022/10/27 21:44:30","maxSlot":432000},{"no":370,"status":"FINISHED","blkCount":21170,"outSum":48437550491049565,"txCount":457692,"startTime":"2022/10/17 21:48:28","endTime":"2022/10/22 21:44:24","maxSlot":432000},{"no":369,"status":"FINISHED","blkCount":21048,"outSum":53997777806675189,"txCount":385470,"startTime":"2022/10/12 21:45:08","endTime":"2022/10/17 21:44:34","maxSlot":432000},{"no":368,"status":"FINISHED","blkCount":21103,"outSum":38563980412393616,"txCount":324010,"startTime":"2022/10/07 21:45:45","endTime":"2022/10/12 21:44:36","maxSlot":432000},{"no":367,"status":"FINISHED","blkCount":20902,"outSum":41268329352811516,"txCount":316483,"startTime":"2022/10/02 21:45:57","endTime":"2022/10/07 21:44:31","maxSlot":432000},{"no":366,"status":"FINISHED","blkCount":21098,"outSum":46387092663277022,"txCount":348994,"startTime":"2022/09/27 21:45:11","endTime":"2022/10/02 21:44:26","maxSlot":432000},{"no":365,"status":"FINISHED","blkCount":21027,"outSum":44651234350469328,"txCount":295792,"startTime":"2022/09/22 21:46:27","endTime":"2022/09/27 21:44:36","maxSlot":432000},{"no":364,"status":"FINISHED","blkCount":20964,"outSum":48650561375237884,"txCount":310613,"startTime":"2022/09/17 21:45:01","endTime":"2022/09/22 21:44:47","maxSlot":432000}],"totalItems":374,"totalPages":38,"currentPage":0}